{"page": 288, "total_pages": 685, "total": 34217, "skills": [{"category": "communication-collaboration", "created_at": 1772795866295, "description": "Overview of Ravi and when to use each skill. Ravi gives AI agents real email inboxes, phone numbers, and an encrypted secret store via a CLI. Do NOT use for...", "description_zh": "Ravi 概览及各技能使用时机。Ravi 通过 CLI 为 AI 代理提供真实的电子邮箱、电话号码和加密密钥库。请勿用于……", "downloads": 376, "homepage": "https://clawhub.ai/raunaksingwi/ravi", "iconUrl": null, "installs": 15, "name": "Ravi ravi", "ownerName": "raunaksingwi", "score": 90602.40963855422, "slug": "ravi", "source": "clawhub", "stars": 0, "tags": null, "updated_at": 1776748485183, "version": "1.7.1"}, {"category": "ai-intelligence", "created_at": 1772792046063, "description": "Manage multi-provider model switching and fallback chains in OpenClaw. \"OpenClaw Switch\" helps users set up automatic model failover (e.g. 429 rate-limit → f...", "description_zh": "在OpenClaw中管理多提供商模型切换与回退链，支持设置自动故障转移（如应对429限速等错误）。", "downloads": 376, "homepage": "https://clawhub.ai/2233admin/openclaw-switch", "iconUrl": null, "installs": 9, "name": "Openclaw Switch", "ownerName": "2233admin", "score": 89952.15311004785, "slug": "openclaw-switch", "source": "clawhub", "stars": 0, "tags": null, "updated_at": 1776748485063, "version": "1.0.0"}, {"category": "productivity", "created_at": 1772790800950, "description": "第一因元理论——因思而在的递归存在论体系", "description_zh": "第一因元理论——因思而在的递归存在论体系", "downloads": 376, "homepage": "https://clawhub.ai/taery-mingjun/jiaweisi-metatheory", "iconUrl": null, "installs": 9, "name": "Jiaweisi Metatheory", "ownerName": "taery-mingjun", "score": 64054.51448040886, "slug": "jiaweisi-metatheory", "source": "clawhub", "stars": 0, "tags": null, "updated_at": 1776748484745, "version": "1.0.0"}, {"category": "ai-intelligence", "created_at": 1773073119124, "description": "Diagnose and fix openclaw gateway issues. Use when the gateway is stuck, not starting, crash-looping, or rejecting connections. Covers main and --profile ves...", "description_zh": "诊断并修复 openclaw 网关问题。适用于网关卡顿、无法启动、崩溃循环或拒绝连接的情况。涵盖主实例及 --profile ves...", "downloads": 376, "homepage": "https://clawhub.ai/siraustin/openclaw-dx", "iconUrl": null, "installs": 16, "name": "Openclaw Dx", "ownerName": "siraustin", "score": 80860.21505376344, "slug": "openclaw-dx", "source": "clawhub", "stars": 0, "tags": null, "updated_at": 1776748484475, "version": "1.7.0"}, {"category": "content-creation", "created_at": 1773932418637, "description": "Advanced bridge to Blender via MCP. Allows querying scene, creating objects, applying materials, and running custom BPY code in real-time.", "description_zh": "基于MCP的Blender高级桥接，支持场景查询、物体创建、材质应用及实时运行自定义BPY代码。", "downloads": 375, "homepage": "https://clawhub.ai/flayzz/blender-mcp", "iconUrl": null, "installs": 135, "name": "Blender Mcp", "ownerName": "flayzz", "score": 4264.7560559536, "slug": "blender-mcp", "source": "clawhub", "stars": 0, "tags": null, "updated_at": 1776764690720, "version": "1.0.0"}, {"category": "productivity", "created_at": 1772791476385, "description": "Automatically converts Python code to optimized Go code for performance-critical applications.", "description_zh": "自动将 Python 代码转换为适用于性能关键应用的优化 Go 代码。", "downloads": 375, "homepage": "https://clawhub.ai/root/neo-python-to-go-converter", "iconUrl": null, "installs": 19, "name": "Skill", "ownerName": "root", "score": 15527.950310559005, "slug": "neo-python-to-go-converter", "source": "clawhub", "stars": 0, "tags": null, "updated_at": 1776760939808, "version": "1.0.0"}, {"category": "developer-tools", "created_at": 1772798518489, "description": "通过 GitHub Copilot CLI 分析代码、探索项目结构、生成文档和自动化开发任务，提高开发效率。", "description_zh": "通过 GitHub Copilot CLI 分析代码、探索项目结构、生成文档和自动化开发任务，提高开发效率。", "downloads": 375, "homepage": "https://clawhub.ai/biuyx/copilot-cli", "iconUrl": null, "installs": 29, "name": "Copilot CLI AI 代码分析", "ownerName": "biuyx", "score": 27716.18625277162, "slug": "copilot-cli", "source": "clawhub", "stars": 0, "tags": null, "updated_at": 1776759120696, "version": "1.0.1"}, {"category": "developer-tools", "created_at": 1772792966180, "description": "Open-source Consensus.Tools skill for governed AI decisions with board-native artifacts, strict JSON contracts, and deterministic policy behavior.", "description_zh": "开源Consensus.Tools技能，支持通过董事会原生工件、严格JSON合约及确定性策略行为进行AI治理决策。", "downloads": 375, "homepage": "https://clawhub.ai/kaicianflone/consensus-guard-core", "iconUrl": null, "installs": 7, "name": "consensus-guard-core", "ownerName": "kaicianflone", "score": 95663.26530612244, "slug": "consensus-guard-core", "source": "clawhub", "stars": 0, "tags": null, "updated_at": 1776759120574, "version": "1.1.13"}, {"category": "developer-tools", "created_at": 1772790869354, "description": "解析常见错误代码，提供错误原因及对应解决方案，支持多语言显示。", "description_zh": "解析常见错误代码，提供错误原因及对应解决方案，支持多语言显示。", "downloads": 375, "homepage": "https://clawhub.ai/honestqiao/error-message-decoder", "iconUrl": null, "installs": 10, "name": "Error Message Decoder", "ownerName": "honestqiao", "score": 95663.26530612244, "slug": "error-message-decoder", "source": "clawhub", "stars": 0, "tags": ["debug", "error"], "updated_at": 1776759120566, "version": "1.0.0"}, {"category": "developer-tools", "created_at": 1772793603910, "description": "Monitors GPU cluster health and usage, providing real-time status, performance metrics, and alerts for efficient resource management.", "description_zh": "监控GPU集群的健康与使用情况，提供实时状态、性能指标和警报，以实现高效的资源管理。", "downloads": 375, "homepage": "https://clawhub.ai/sounderliu/gpu-cluster-monitor", "iconUrl": null, "installs": 7, "name": "gpu-cluster-monitor", "ownerName": "sounderliu", "score": 27757.21687638786, "slug": "gpu-cluster-monitor", "source": "clawhub", "stars": 0, "tags": null, "updated_at": 1776759120510, "version": "1.0.2"}, {"category": "data-analysis", "created_at": 1773285187585, "description": "Comprehensive research grounded in web data with explicit citations. Use when you need multi-source synthesis—comparisons, current events, market analysis, d...", "description_zh": "基于网络数据的综合研究，附有明确引用。适用于多源综合——对比、时事、市场分析等需求。", "downloads": 375, "homepage": "https://clawhub.ai/evanydl/tavily-research", "iconUrl": null, "installs": 29, "name": "Tavily Research", "ownerName": "evanydl", "score": 25201.612903225807, "slug": "tavily-research", "source": "clawhub", "stars": 0, "tags": null, "updated_at": 1776758182433, "version": "1.0.0"}, {"category": "productivity", "created_at": 1773084163598, "description": "Coordinate projects — track tasks, schedule meetings, and share docs.", "description_zh": "{\n  \"answer\": \"协调项目——跟踪任务、安排会议、共享文档。\"\n}", "downloads": 375, "homepage": "https://clawhub.ai/googleworkspace-bot/persona-project-manager", "iconUrl": null, "installs": 18, "name": "Persona Project Manager", "ownerName": "googleworkspace-bot", "score": 24069.319640564827, "slug": "persona-project-manager", "source": "clawhub", "stars": 0, "tags": null, "updated_at": 1776757624434, "version": "1.0.10"}, {"category": "productivity", "created_at": 1773218947182, "description": "Flutter 流畅动画实现指南 - 包含隐式/显式动画、Hero动画、交错动画、物理动画", "description_zh": "Flutter 流畅动画实现指南 - 包含隐式/显式动画、Hero动画、交错动画、物理动画", "downloads": 375, "homepage": "https://clawhub.ai/thomaschangx/openclaw-flutter-animations", "iconUrl": null, "installs": 38, "name": "Flutter Animations", "ownerName": "thomaschangx", "score": 22007.04225352113, "slug": "openclaw-flutter-animations", "source": "clawhub", "stars": 0, "tags": null, "updated_at": 1776755888759, "version": "1.0.0"}, {"category": "security-compliance", "created_at": 1772796736692, "description": "CVE vulnerability lookup via NIST NVD, CISA KEV, EPSS scores, and MITRE ATT&CK. 7 tools for real-time cybersecurity intelligence.", "description_zh": "通过NIST NVD、CISA KEV、EPSS评分及MITRE ATT&CK查询CVE漏洞。提供7款工具用于实时网络安全情报。", "downloads": 375, "homepage": "https://clawhub.ai/martc03/gov-cybersecurity", "iconUrl": null, "installs": 12, "name": "Government Cybersecurity Vulnerability Intel", "ownerName": "martc03", "score": 17068.730086481566, "slug": "gov-cybersecurity", "source": "clawhub", "stars": 0, "tags": null, "updated_at": 1776752570051, "version": "1.0.0"}, {"category": "developer-tools", "created_at": 1773075907817, "description": "Build and deploy local RAG (Retrieval-Augmented Generation) systems with offline document processing, embedding models, and vector storage.", "description_zh": "使用离线文档处理、嵌入模型和向量存储构建和部署本地RAG（检索增强生成）系统", "downloads": 375, "homepage": "https://clawhub.ai/alexfeng75/rag-system-builder", "iconUrl": null, "installs": 82, "name": "RAG System Builder", "ownerName": "alexfeng75", "score": 74257.42574257425, "slug": "rag-system-builder", "source": "clawhub", "stars": 0, "tags": ["document-q&a", "offline", "rag", "retrieval-augmented-generation", "vector-search"], "updated_at": 1776750584121, "version": "1.0.0"}, {"category": "developer-tools", "created_at": 1772788325697, "description": "Backup and restore your OpenClaw workspace to GitHub", "description_zh": "备份与恢复 OpenClaw 工作空间至 GitHub。", "downloads": 375, "homepage": "https://clawhub.ai/nickconstantinou/clawsync", "iconUrl": null, "installs": 3, "name": "Clawsync", "ownerName": "nickconstantinou", "score": 65674.25569176882, "slug": "clawsync", "source": "clawhub", "stars": 0, "tags": null, "updated_at": 1776748485762, "version": "1.0.6"}, {"category": "data-analysis", "created_at": 1772788965889, "description": "Track book availability on Libby/OverDrive libraries. Search library catalogues, manage a watchlist, and get notified when books are added. Use for \"libby\",...", "description_zh": "追踪Libby/OverDrive图书馆的图书可借状态。搜索馆藏目录，管理关注清单，并在新书入库时收到通知。", "downloads": 375, "homepage": "https://clawhub.ai/alexpolonsky/libby-book-monitor", "iconUrl": null, "installs": 12, "name": "libby-book-monitor", "ownerName": "alexpolonsky", "score": 65674.25569176882, "slug": "libby-book-monitor", "source": "clawhub", "stars": 0, "tags": null, "updated_at": 1776748485746, "version": "1.0.0"}, {"category": "productivity", "created_at": 1772788744486, "description": "Track rounds, handicap, clubs, and courses with personalized improvement tips.", "description_zh": "记录球局、差点、球杆与球场，提供个性化提升建议。", "downloads": 375, "homepage": "https://clawhub.ai/ivangdavila/golf", "iconUrl": null, "installs": 5, "name": "Golf", "ownerName": "ivangdavila", "score": 65674.25569176882, "slug": "golf", "source": "clawhub", "stars": 0, "tags": null, "updated_at": 1776748485701, "version": "1.0.0"}, {"category": "data-analysis", "created_at": 1773074549371, "description": "Provides cryptocurrency trading data analytics including smart money tracking, whale monitoring, market data queries, and trader statistics. Use this skill w...", "description_zh": "提供加密货币交易数据分析，包括聪明钱追踪、巨鲸监控、市场数据查询及交易员统计。", "downloads": 375, "homepage": "https://clawhub.ai/develophyperbotnetwork/hyperbot-quote-mcp", "iconUrl": null, "installs": 15, "name": "hyperbot-quote-mcp", "ownerName": "develophyperbotnetwork", "score": 65674.25569176882, "slug": "hyperbot-quote-mcp", "source": "clawhub", "stars": 0, "tags": null, "updated_at": 1776748485575, "version": "1.0.5"}, {"category": "developer-tools", "created_at": 1772789071730, "description": "Get the real-time location (latitude/longitude) of the International Space Station.", "description_zh": "获取国际空间站的实时位置（经纬度）。", "downloads": 375, "homepage": "https://clawhub.ai/sharkbytescs/iss-tracker", "iconUrl": null, "installs": 3, "name": "ISS Tracker", "ownerName": "sharkbytescs", "score": 91687.04156479218, "slug": "iss-tracker", "source": "clawhub", "stars": 0, "tags": null, "updated_at": 1776748485293, "version": "1.0.0"}, {"category": "data-analysis", "created_at": 1772791878770, "description": "Explain how external/public bots can participate in Cubistic (cubistic.com) and help maintain the Public Bot API docs (PoW challenge + /act). Use when Andrea...", "description_zh": "说明外部/公开机器人如何参与 Cubistic (cubistic.com) 并协助维护公共 Bot API 文档（PoW 挑战 + /act）。当 Andrea...", "downloads": 375, "homepage": "https://clawhub.ai/andreasnordenadler/cubistic-public-bots", "iconUrl": null, "installs": 8, "name": "cubistic.com Painter Skill", "ownerName": "andreasnordenadler", "score": 91687.04156479218, "slug": "cubistic-public-bots", "source": "clawhub", "stars": 0, "tags": ["api", "bots", "cubistic", "game", "painter", "pow"], "updated_at": 1776748485236, "version": "0.1.1"}, {"category": "developer-tools", "created_at": 1772787886161, "description": "Navigate Lisbon as visitor, resident, digital nomad, tech worker, or entrepreneur with neighborhoods, transport, costs, visas, and local insights.", "description_zh": "{\"answer\":\"涵盖街区、交通、成本、签证及本地见闻，为游客、居民、数字游民、科技工作者或创业者提供里斯本导航。\"}", "downloads": 375, "homepage": "https://clawhub.ai/ivangdavila/lisbon", "iconUrl": null, "installs": 12, "name": "Lisbon", "ownerName": "ivangdavila", "score": 90361.44578313253, "slug": "lisbon", "source": "clawhub", "stars": 0, "tags": null, "updated_at": 1776748485218, "version": "1.0.0"}, {"category": "content-creation", "created_at": 1773067227265, "description": "Google Sheets: Read and write spreadsheets.", "description_zh": "Google 表格：读写电子表格", "downloads": 375, "homepage": "https://clawhub.ai/googleworkspace-bot/gws-sheets", "iconUrl": null, "installs": 26, "name": "Gws Sheets", "ownerName": "googleworkspace-bot", "score": 90361.44578313253, "slug": "gws-sheets", "source": "clawhub", "stars": 0, "tags": null, "updated_at": 1776748485174, "version": "1.0.0"}, {"category": "content-creation", "created_at": 1773067227265, "description": "Google Sheets: Read and write spreadsheets.", "description_zh": "Google 表格：读写电子表格", "downloads": 375, "homepage": "https://clawhub.ai/googleworkspace-bot/gws-sheets", "iconUrl": null, "installs": 26, "name": "Gws Sheets", "ownerName": "googleworkspace-bot", "score": 65445.02617801047, "slug": "gws-sheets", "source": "clawhub", "stars": 0, "tags": null, "updated_at": 1776748485174, "version": "1.0.0"}, {"category": "data-analysis", "created_at": 1772789916965, "description": "Generate UI tests for FOSMVVM SwiftUI views using XCTest and FOSTestingUI. Covers accessibility identifiers, ViewModelOperations, and test data transport.", "description_zh": "使用 XCTest 和 FOSTestingUI 为 FOSMVVM SwiftUI 视图生成 UI 测试，覆盖可访问性标识符、ViewModel 操作及测试数据传输。", "downloads": 375, "homepage": "https://clawhub.ai/foscomputerservices/fosmvvm-ui-tests-generator", "iconUrl": null, "installs": 14, "name": "FOSMVVM UI Tests Generator", "ownerName": "foscomputerservices", "score": 65445.02617801047, "slug": "fosmvvm-ui-tests-generator", "source": "clawhub", "stars": 0, "tags": null, "updated_at": 1776748485157, "version": "2.0.6"}, {"category": "", "created_at": 1774907029670, "description": "Use when you have a spec or requirements for a multi-step task, before touching code - guides writing comprehensive implementation plans with bite-sized task...", "description_zh": "在接触代码之前，当你有多步骤任务的规格或需求时使用——引导编写包含细粒度任务的综合实施计划", "downloads": 374, "homepage": "https://clawhub.ai/axelhu/superpowers-writing-plans", "iconUrl": null, "installs": 37, "name": "Writing Plans", "ownerName": "axelhu", "score": 3420.2103337905805, "slug": "superpowers-writing-plans", "source": "clawhub", "stars": 0, "tags": null, "updated_at": 1776769449731, "version": "1.0.1"}, {"category": "ai-intelligence", "created_at": 1773285292967, "description": "Query Baidu Qianfan Coding Plan usage and quota with automatic login or open the control console via commands.", "description_zh": "自动登录查询百度千帆编程计划的使用量与配额，或使用命令打开控制台。", "downloads": 374, "homepage": "https://clawhub.ai/wsjwoods/qianfan-usage", "iconUrl": null, "installs": 30, "name": "Qianfan Usage", "ownerName": "wsjwoods", "score": 1644.8236432403905, "slug": "qianfan-usage", "source": "clawhub", "stars": 0, "tags": null, "updated_at": 1776768290494, "version": "1.0.2"}, {"category": "data-analysis", "created_at": 1773427606557, "description": "Python scientific plotting tool for thesis/dissertation scenarios. Workflow: data upload → analysis → recommendations → confirmation → generation. Triggers w...", "description_zh": "Python学位论文科学绘图工具。工作流：数据上传→分析→推荐→确认→生成。", "downloads": 374, "homepage": "https://clawhub.ai/stephenlzc/pythesis-plot", "iconUrl": null, "installs": 99, "name": "Pythesis Plot", "ownerName": "stephenlzc", "score": 7466.560191655021, "slug": "pythesis-plot", "source": "clawhub", "stars": 0, "tags": null, "updated_at": 1776767650030, "version": "1.0.3"}, {"category": "content-creation", "created_at": 1772798429493, "description": "Send images, videos, audio, or documents via WhatsApp by downloading, copying to workspace, sending, and cleaning up temporary files.", "description_zh": "通过WhatsApp发送图片、视频、音频或文档，流程包括下载、复制到工作区、发送及清理临时文件。", "downloads": 374, "homepage": "https://clawhub.ai/seekeyl/whatsapp-image-send", "iconUrl": null, "installs": 30, "name": "WhatsApp Image Send", "ownerName": "seekeyl", "score": 11661.989398191457, "slug": "whatsapp-image-send", "source": "clawhub", "stars": 0, "tags": ["image", "media", "whatsapp"], "updated_at": 1776765290487, "version": "1.0.1"}, {"category": "developer-tools", "created_at": 1773904274300, "description": "通过Chrome远程调试协议访问已打开的Chrome标签页，支持读取登录状态页面及与真实页面交互操作。", "description_zh": "通过Chrome远程调试协议访问已打开的Chrome标签页，支持读取登录状态页面及与真实页面交互操作。", "downloads": 374, "homepage": "https://clawhub.ai/adminlove520/chrome-cdp", "iconUrl": null, "installs": 113, "name": "chrome-cdp", "ownerName": "adminlove520", "score": 11629.353233830845, "slug": "chrome-cdp", "source": "clawhub", "stars": 0, "tags": null, "updated_at": 1776764650097, "version": "1.0.0"}, {"category": "data-analysis", "created_at": 1773952669336, "description": "Product strategy analysis for any consumer product. Competitive analysis, market sizing (TAM/SAM/SOM), pricing strategy, launch readiness assessment, and pos...", "description_zh": "针对任意消费品的战略分析，涵盖竞品分析、市场规模测算（TAM/SAM/SOM）、定价策略及上市准备评估等。", "downloads": 374, "homepage": "https://clawhub.ai/kingmadellc/product-strategy", "iconUrl": null, "installs": 29, "name": "Product Strategy", "ownerName": "kingmadellc", "score": 8783.46641615782, "slug": "product-strategy", "source": "clawhub", "stars": 0, "tags": null, "updated_at": 1776764050088, "version": "1.0.0"}, {"category": "data-analysis", "created_at": 1773904972905, "description": "计算A股常用技术指标和量价形态，支持多指标共振分析并提供信号强度评分和策略回测功能。", "description_zh": "计算A股常用技术指标和量价形态，支持多指标共振分析并提供信号强度评分和策略回测功能。", "downloads": 374, "homepage": "https://clawhub.ai/gbabyzs/technical-indicators", "iconUrl": null, "installs": 44, "name": "Technical Indicators", "ownerName": "gbabyzs", "score": 5588.7627017334125, "slug": "technical-indicators", "source": "clawhub", "stars": 0, "tags": null, "updated_at": 1776762849928, "version": "1.1.0"}, {"category": "", "created_at": 1774914097798, "description": "抖音创作者平台视频上传发布。触发条件：用户要求上传视频到抖音、发布抖音视频、自动上传视频到抖音创作者平台", "description_zh": "抖音创作者平台视频上传发布。触发条件：用户要求上传视频到抖音、发布抖音视频、自动上传视频到抖音创作者平台", "downloads": 374, "homepage": "https://clawhub.ai/l1angjy/douyin-auto-publish", "iconUrl": null, "installs": 183, "name": "Douyin-Publish抖音自动上传发布", "ownerName": "l1angjy", "score": 12351.387054161163, "slug": "douyin-auto-publish", "source": "clawhub", "stars": 0, "tags": null, "updated_at": 1776761580314, "version": "1.0.1"}, {"category": "content-creation", "created_at": 1772793958414, "description": "Create Feishu Docs by first creating an empty doc, then write content in chunks under 800 bytes to avoid truncation or errors.", "description_zh": "创建飞书文档时，先创建一个空文档，然后分块写入内容，每块不超过800字节，以避免截断或错误。", "downloads": 374, "homepage": "https://clawhub.ai/josephyb97/feishu-doc-long-content", "iconUrl": null, "installs": 33, "name": "feishu-doc-long-content", "ownerName": "josephyb97", "score": 27642.27642276423, "slug": "feishu-doc-long-content", "source": "clawhub", "stars": 0, "tags": null, "updated_at": 1776759120685, "version": "1.0.0"}, {"category": "communication-collaboration", "created_at": 1772794732790, "description": "Automates versioned Docker Compose and LXC deployments with health checks, blue-green updates, chat approvals, and automatic rollback for zero-downtime updates.", "description_zh": "自动化版本化Docker Compose和LXC部署，支持健康检查、蓝绿更新、聊天审批及自动回滚，实现零停机更新。", "downloads": 374, "homepage": "https://clawhub.ai/mariusfit/clawhub-skill-deploy-pilot", "iconUrl": null, "installs": 26, "name": "Clawhub Skill Deploy Pilot", "ownerName": "mariusfit", "score": 27642.27642276423, "slug": "clawhub-skill-deploy-pilot", "source": "clawhub", "stars": 0, "tags": null, "updated_at": 1776759120634, "version": "1.0.0"}, {"category": "content-creation", "created_at": 1773059981511, "description": "Download YouTube video audio and convert to MP3. Supports age-restricted videos with cookies.", "description_zh": "下载 YouTube 视频音频并转为 MP3，支持使用 Cookie 下载年龄限制视频。", "downloads": 374, "homepage": "https://clawhub.ai/banner90/youtube-audio-download", "iconUrl": null, "installs": 33, "name": "Youtube Audio Download", "ownerName": "banner90", "score": 27683.19763138416, "slug": "youtube-audio-download", "source": "clawhub", "stars": 0, "tags": null, "updated_at": 1776759120529, "version": "1.0.6"}, {"category": "data-analysis", "created_at": 1772793134353, "description": "MCP server for Clude's 4-tier cognitive memory system — store, recall, search, and dream. Built on Supabase + pgvector with type-specific decay, Hebbian asso...", "description_zh": "Clude的4层认知记忆系统的MCP服务器——存储、回忆、搜索和做梦。基于Supabase+pgvector构建，支持类型特定衰减和赫布关联...", "downloads": 374, "homepage": "https://clawhub.ai/sebbsssss/clude-memory-mcp", "iconUrl": null, "installs": 14, "name": "Clude Memory MCP", "ownerName": "sebbsssss", "score": 17163.83662230381, "slug": "clude-memory-mcp", "source": "clawhub", "stars": 0, "tags": null, "updated_at": 1776759120401, "version": "1.0.0"}, {"category": "productivity", "created_at": 1773074580423, "description": "自主研究助手 - 深度调研、交叉验证、生成引用报告", "description_zh": "自主研究助手 - 深度调研、交叉验证、生成引用报告", "downloads": 374, "homepage": "https://clawhub.ai/bandwe/auto-researcher", "iconUrl": null, "installs": 67, "name": "Auto Researcher", "ownerName": "bandwe", "score": 22130.177514792897, "slug": "auto-researcher", "source": "clawhub", "stars": 0, "tags": ["autonomous", "research"], "updated_at": 1776756188919, "version": "1.0.0"}, {"category": "data-analysis", "created_at": 1772797827249, "description": "Scan crypto funding rates and find arbitrage opportunities. No API key needed.", "description_zh": "扫描加密货币资金费率，寻找套利机会，无需 API 密钥。", "downloads": 374, "homepage": "https://clawhub.ai/dagangtj/funding-rate-scanner", "iconUrl": null, "installs": 16, "name": "Funding Rate Scanner", "ownerName": "dagangtj", "score": 65499.12434325744, "slug": "funding-rate-scanner", "source": "clawhub", "stars": 0, "tags": null, "updated_at": 1776748485798, "version": "1.0.2"}, {"category": "productivity", "created_at": 1772790566016, "description": "A simple skill to greet users and demonstrate basic OpenCLAW skill structure. Use this when you want to say hello or learn how skills work.", "description_zh": "一个简单的问候技能，用于演示基本的OpenCLAW技能结构。适用于打招呼或了解技能运作方式。", "downloads": 374, "homepage": "https://clawhub.ai/luna825/hello-demo", "iconUrl": null, "installs": 12, "name": "hello-openclaw", "ownerName": "luna825", "score": 65499.12434325744, "slug": "hello-demo", "source": "clawhub", "stars": 0, "tags": null, "updated_at": 1776748485794, "version": "1.0.1"}, {"category": "security-compliance", "created_at": 1773426855731, "description": "Check SSL certificate health, protocols, and cipher suites on domains. Use when auditing web security.", "description_zh": "检查域名 SSL 证书状态、协议和加密套件，用于网络安全审计。", "downloads": 374, "homepage": "https://clawhub.ai/xueyetianya/ssl-checker", "iconUrl": null, "installs": 7, "name": "Ssl Checker", "ownerName": "xueyetianya", "score": 84234.23423423423, "slug": "ssl-checker", "source": "clawhub", "stars": 0, "tags": ["productivity"], "updated_at": 1776748485464, "version": "3.0.0"}, {"category": "developer-tools", "created_at": 1772791497267, "description": "세금/절세 가이드 스킬. 10개 인텐트 라우팅(Quick Tax Check~Beginner Guide), 법제처 API+국세청 지식베이스 기반 Flash+Deep-Dive 2겹 리포트. 트리거: \"세금\", \"절세\", \"연말정산\", \"종합소득세\", \"부가세\", \"재산세\", \"종부세\"...", "description_zh": "税务/节税指南技能。支持10种意图路由（快速税务检查至新手指南），基于法制处API与国税厅知识库生成快报与深度双层报告。触发词：“税金”、“节税”、“年终结算”、“综合所得税”、“增值税”、“财产税”、“综合房产税”……", "downloads": 374, "homepage": "https://clawhub.ai/sw326/tax-guide", "iconUrl": null, "installs": 15, "name": "한국 세금/절세 가이드", "ownerName": "sw326", "score": 91442.54278728606, "slug": "tax-guide", "source": "clawhub", "stars": 0, "tags": ["finance", "korea", "korean", "tax"], "updated_at": 1776748485255, "version": "1.0.0"}, {"category": "developer-tools", "created_at": 1773202074777, "description": "Help users make better takeout decisions from public merchant and promotion information across delivery scenarios. Use when the user wants to compare takeout...", "description_zh": "利用各配送场景下的公开商家及优惠信息，助用户做出更优外卖决策。适用于用户想要对比外卖……", "downloads": 374, "homepage": "https://clawhub.ai/harrylabsj/waimai", "iconUrl": null, "installs": 7, "name": "Waimai", "ownerName": "harrylabsj", "score": 91442.54278728606, "slug": "waimai", "source": "clawhub", "stars": 0, "tags": ["automation", "delivery", "food"], "updated_at": 1776748485239, "version": "1.0.0"}, {"category": "ai-intelligence", "created_at": 1772791534078, "description": "Learn how to claim pixels on MillionFinneyHomepage, a 1000x1000 on-chain pixel grid. This guide covers art generation, IPFS uploading, and the Founding Bot A...", "description_zh": "学习如何在 MillionFinneyHomepage（一个 1000×1000 的链上像素网格）上认领像素。本指南涵盖艺术创作、IPFS 上传以及 Founding Bot A 的使用。", "downloads": 374, "homepage": "https://clawhub.ai/l0c0luke/millionfinney-homepage", "iconUrl": null, "installs": 10, "name": "Millionfinney Homepage", "ownerName": "l0c0luke", "score": 90120.48192771083, "slug": "millionfinney-homepage", "source": "clawhub", "stars": 0, "tags": ["bot-art", "crypto", "education", "nft", "pixel-art"], "updated_at": 1776748485226, "version": "1.2.0"}, {"category": "productivity", "created_at": 1772798943072, "description": "Search and hire real humans for tasks — photography, delivery, research, and more", "description_zh": "搜索并雇佣真人完成摄影、配送、调研等多种任务。", "downloads": 374, "homepage": "https://clawhub.ai/human-pages-ai/humanpages", "iconUrl": null, "installs": 8, "name": "Humanpages", "ownerName": "human-pages-ai", "score": 89473.68421052632, "slug": "humanpages", "source": "clawhub", "stars": 0, "tags": null, "updated_at": 1776748485030, "version": "1.1.0"}, {"category": "ai-intelligence", "created_at": 1772790670714, "description": "Helps detect clone farming and reputation gaming in AI agent marketplaces. Identifies near-duplicate skills that wash IDs, batch-publish patterns, and artifi...", "description_zh": "协助检测AI智能体市场中的克隆刷量与信誉造假行为，识别清洗ID的近似重复技能、批量发布模式及人为操纵迹象。", "downloads": 374, "homepage": "https://clawhub.ai/andyxinweiminicloud/clone-farm-detector", "iconUrl": null, "installs": 8, "name": "Clone Farm Detector", "ownerName": "andyxinweiminicloud", "score": 83111.11111111111, "slug": "clone-farm-detector", "source": "clawhub", "stars": 0, "tags": null, "updated_at": 1776748484965, "version": "1.0.0"}, {"category": "productivity", "created_at": 1773285642921, "description": "中国农历助手。今日黄历、节假日、农历转换、生肖、传统节日、宜忌查询。Chinese lunar calendar with holidays, zodiac, festivals. 农历、黄历、节假日。", "description_zh": "中国农历助手。今日黄历、节假日、农历转换、生肖、传统节日、宜忌查询。Chinese lunar calendar with holidays, zodiac, festivals. 农历、黄历、节假日。", "downloads": 373, "homepage": "https://clawhub.ai/bytesagain/chinese-lunar-calendar", "iconUrl": null, "installs": 40, "name": "Chinese Calendar", "ownerName": "bytesagain", "score": 7692.307692307692, "slug": "chinese-lunar-calendar", "source": "clawhub", "stars": 0, "tags": ["chinese", "productivity"], "updated_at": 1776770050009, "version": "1.0.0"}, {"category": "productivity", "created_at": 1773091271285, "description": "查询快递物流状态。支持主流快递公司（顺丰、中通、圆通、韵达、申通、极兔、京东、EMS等），自动识别快递公司。当用户询问快递状态、物流信息、包裹位置时触发。", "description_zh": "查询快递物流状态。支持主流快递公司（顺丰、中通、圆通、韵达、申通、极兔、京东、EMS等），自动识别快递公司。当用户询问快递状态、物流信息、包裹位置时触发。", "downloads": 373, "homepage": "https://clawhub.ai/yokiy0828/express-tracking", "iconUrl": null, "installs": 96, "name": "快递查询", "ownerName": "yokiy0828", "score": 11630.80760835672, "slug": "express-tracking", "source": "clawhub", "stars": 0, "tags": null, "updated_at": 1776765290441, "version": "1.0.0"}, {"category": "data-analysis", "created_at": 1773067567332, "description": "Generate paid ecommerce ad copy in batch with SkillPay billing. Use when the user needs 5 ready-to-use ad copies from product name, selling points, and targe...", "description_zh": "使用SkillPay计费批量生成付费电商广告文案。当用户需要根据产品名称、卖点及目标信息制作5条即用型广告文案时使用。", "downloads": 373, "homepage": "https://clawhub.ai/wingogx/ecommerce-ad-copy-generator", "iconUrl": null, "installs": 56, "name": "Ecommerce Ad Copy Generator", "ownerName": "wingogx", "score": 6030.71948261924, "slug": "ecommerce-ad-copy-generator", "source": "clawhub", "stars": 0, "tags": ["ecommerce", "growth", "paid"], "updated_at": 1776763750104, "version": "1.0.0"}, {"category": "content-creation", "created_at": 1773920128526, "description": "Turn one ecommerce content core into channel-ready publish packs (X, WeChat, Xiaohongshu, TikTok notes) with platform-specific formatting and CTA adaptation.", "description_zh": "将一个电商内容核心转化为渠道可发布的适配包（X、微信、小红书、TikTok 笔记），并进行平台特定的格式与 CTA 适配。", "downloads": 373, "homepage": "https://clawhub.ai/leooooooow/multichannel-content-publisher", "iconUrl": null, "installs": 184, "name": "Multichannel Content Publisher", "ownerName": "leooooooow", "score": 12682.760965657939, "slug": "multichannel-content-publisher", "source": "clawhub", "stars": 0, "tags": null, "updated_at": 1776761689984, "version": "1.0.0"}]}