{"page": 413, "total_pages": 685, "total": 34217, "skills": [{"category": "content-creation", "created_at": 1773083533048, "description": "提供马斯克资讯简报预览和支付链接的演示HTTP服务，无外部数据爬取或模型推理，仅用于功能演示。", "description_zh": "提供马斯克资讯简报预览和支付链接的演示HTTP服务，无外部数据爬取或模型推理，仅用于功能演示。", "downloads": 171, "homepage": "https://clawhub.ai/xqw1377-prog/musk-insider-one", "iconUrl": null, "installs": 6, "name": "Elon马斯克情报内参", "ownerName": "xqw1377-prog", "score": 6671.86890362856, "slug": "musk-insider-one", "source": "clawhub", "stars": 0, "tags": null, "updated_at": 1776759682371, "version": "1.0.2"}, {"category": "developer-tools", "created_at": 1773082301733, "description": "Sync and manage your Polymarket portfolio and positions across multiple devices with backup and seamless cross-platform access.", "description_zh": "跨设备同步管理 Polymarket 投资组合和仓位，支持备份和跨平台无缝访问。", "downloads": 171, "homepage": "https://clawhub.ai/mosonchan2023/polymarket-portfolio-sync", "iconUrl": null, "installs": 23, "name": "Polymarket Portfolio Sync", "ownerName": "mosonchan2023", "score": 13174.114021571648, "slug": "polymarket-portfolio-sync", "source": "clawhub", "stars": 0, "tags": null, "updated_at": 1776759682112, "version": "1.0.1"}, {"category": "ai-intelligence", "created_at": 1773873455685, "description": "OpenClaw 免费模型配置 - 教你用免费的 AI 模型。适合：预算有限用户、学生、测试者。", "description_zh": "OpenClaw 免费模型配置 - 教你用免费的 AI 模型。适合：预算有限用户、学生、测试者。", "downloads": 171, "homepage": "https://clawhub.ai/yang1002378395-cmyk/openclaw-free-models", "iconUrl": null, "installs": 17, "name": "Openclaw Free Models", "ownerName": "yang1002378395-cmyk", "score": 8477.937530986614, "slug": "openclaw-free-models", "source": "clawhub", "stars": 0, "tags": null, "updated_at": 1776758483053, "version": "1.0.0"}, {"category": "developer-tools", "created_at": 1773879689131, "description": "Readme - command-line tool for everyday use", "description_zh": "Readme - 日常命令行工具", "downloads": 171, "homepage": "https://clawhub.ai/bytesagain/readme", "iconUrl": null, "installs": 15, "name": "Readme", "ownerName": "bytesagain", "score": 11515.151515151516, "slug": "readme", "source": "clawhub", "stars": 0, "tags": null, "updated_at": 1776758182520, "version": "1.0.5"}, {"category": "data-analysis", "created_at": 1773084166372, "description": "Extract brand identity (colors, typography, visual style, imagery) from any website URL. Scrapes the site, analyzes CSS/images with K-means and VLM, and retu...", "description_zh": "从任意网站URL中提取品牌视觉标识（颜色、字体、视觉风格、图像），通过抓取页面并结合K-means聚类与视觉语言模型分析CSS及图片，返回完整的品牌风格报告。", "downloads": 171, "homepage": "https://clawhub.ai/phy041/phy-brand-dna-extractor", "iconUrl": null, "installs": 16, "name": "Brand DNA Extractor", "ownerName": "phy041", "score": 29739.130434782608, "slug": "phy-brand-dna-extractor", "source": "clawhub", "stars": 0, "tags": ["analysis", "branding"], "updated_at": 1776751844428, "version": "1.0.0"}, {"category": "developer-tools", "created_at": 1773091449197, "description": "Build and modify Knods visual AI workflows using the OpenClaw Gateway polling protocol. Use when Knods sends polling payloads with fields like messageId/mess...", "description_zh": "使用OpenClaw Gateway轮询协议构建和修改Knods可视化AI工作流。用于Knods发送包含messageId等字段的轮询载荷时。", "downloads": 171, "homepage": "https://clawhub.ai/alesys/knods", "iconUrl": null, "installs": 7, "name": "Knods", "ownerName": "alesys", "score": 88601.03626943006, "slug": "knods", "source": "clawhub", "stars": 0, "tags": null, "updated_at": 1776749405022, "version": "1.0.1"}, {"category": "developer-tools", "created_at": 1773089003791, "description": "Build, maintain, and extend Horus (local-first tech/event intelligence terminal). Use when working on Horus relay ingestion, RSS/source pipelines, macro data...", "description_zh": "构建、维护和扩展 Horus（本地优先的技术/事件情报终端），用于 Horus 中继摄入、RSS/源管道、宏观数据等工作。", "downloads": 171, "homepage": "https://clawhub.ai/trungviet17/mwc-2026-horus", "iconUrl": null, "installs": 15, "name": "mwcHorus", "ownerName": "trungviet17", "score": 88601.03626943006, "slug": "mwc-2026-horus", "source": "clawhub", "stars": 0, "tags": null, "updated_at": 1776749405019, "version": "1.0.1"}, {"category": "developer-tools", "created_at": 1773089732267, "description": "Wake-on-LAN functionality for macOS - wake devices remotely by MAC address or name", "description_zh": "macOS 局域网唤醒功能 - 通过 MAC 地址或名称远程唤醒设备", "downloads": 171, "homepage": "https://clawhub.ai/ppopen/openclaw-skill-wake-on-lan", "iconUrl": null, "installs": 10, "name": "Wake On Lan", "ownerName": "ppopen", "score": 88601.03626943006, "slug": "openclaw-skill-wake-on-lan", "source": "clawhub", "stars": 0, "tags": null, "updated_at": 1776749405012, "version": "1.0.0"}, {"category": "productivity", "created_at": 1773222078104, "description": "Clipboard history management. Use when user says \"copy to clipboard\", \"paste from clipboard\", \"clipboard history\", or wants to manage copied items.", "description_zh": "{\"description_zh\":\"剪贴板历史管理。当用户说\"复制到剪贴板\"、\"从剪贴板粘贴\"、\"剪贴板历史\"或想要管理已复制内容时使用。\"}", "downloads": 171, "homepage": "https://clawhub.ai/yushimohuang/clipboard-manager-tool", "iconUrl": null, "installs": 10, "name": "clipboard-manager-tool", "ownerName": "yushimohuang", "score": 88601.03626943006, "slug": "clipboard-manager-tool", "source": "clawhub", "stars": 0, "tags": null, "updated_at": 1776749404992, "version": "1.0.0"}, {"category": "productivity", "created_at": 1773083485811, "description": "LinkedIn integration. Manage Users, Organizations. Use when the user wants to interact with LinkedIn data.", "description_zh": "LinkedIn集成。管理用户和组织。当用户需要与LinkedIn数据交互时使用。", "downloads": 171, "homepage": "https://clawhub.ai/gora050/linkedin-integration", "iconUrl": null, "installs": 8, "name": "Linkedin", "ownerName": "gora050", "score": 32142.857142857145, "slug": "linkedin-integration", "source": "clawhub", "stars": 0, "tags": null, "updated_at": 1776749404972, "version": "1.0.0"}, {"category": "ai-intelligence", "created_at": 1773083345176, "description": "[Aibrary] Access Aibrary's curated list of 100 must-read books for the AI age, organized by category. Use when the user asks about essential books, wants the...", "description_zh": "访问Aibrary精心整理的AI时代100本必读书单（按类别分类），适用于用户询问推荐书籍、希望了解必读书目等场景。", "downloads": 171, "homepage": "https://clawhub.ai/asoiso/aibrary-100", "iconUrl": null, "installs": 16, "name": "Aibrary 100", "ownerName": "asoiso", "score": 32142.857142857145, "slug": "aibrary-100", "source": "clawhub", "stars": 0, "tags": null, "updated_at": 1776749404970, "version": "0.1.0"}, {"category": "developer-tools", "created_at": 1773083529923, "description": "模拟天气查询，为任意城市生成仿真天气数据（当前天气 + 多日预报）。Use when: (1) 用户查询某城市天气，(2) 用户询问天气预报，(3) 需要演示天气功能但无真实API时。支持中英文城市名，支持1-7天预报。注意：数据为模拟生成，非真实气象数据。", "description_zh": "模拟天气查询，为任意城市生成仿真天气数据（当前天气 + 多日预报）。Use when: (1) 用户查询某城市天气，(2) 用户询问天气预报，(3) 需要演示天气功能但无真实API时。支持中英文城市名，支持1-7天预报。注意：数据为模拟生成，非真实气象数据。", "downloads": 171, "homepage": "https://clawhub.ai/krisliu16/mock-weather", "iconUrl": null, "installs": 12, "name": "Mock Weather", "ownerName": "krisliu16", "score": 32142.857142857145, "slug": "mock-weather", "source": "clawhub", "stars": 0, "tags": null, "updated_at": 1776749404958, "version": "1.0.0"}, {"category": "data-analysis", "created_at": 1773089542233, "description": "Create and execute robust Reddit engagement workflows (create post, add comment, upvote) using browser accessibility-tree semantics instead of brittle DOM id...", "description_zh": "使用浏览器无障碍树语义（而非脆弱的DOM ID）创建并执行稳健的Reddit互动工作流（发帖、评论、点赞）", "downloads": 171, "homepage": "https://clawhub.ai/alvinperson/reddit-engagement", "iconUrl": null, "installs": 10, "name": "Reddit Engagement", "ownerName": "alvinperson", "score": 32142.857142857145, "slug": "reddit-engagement", "source": "clawhub", "stars": 0, "tags": null, "updated_at": 1776749404946, "version": "1.0.0"}, {"category": "productivity", "created_at": 1773079515266, "description": "Linear project management integration. Provides tools for processing a notification queue, managing issues, comments, teams, projects, and issue relations vi...", "description_zh": "Linear项目管理集成，提供通知队列处理、议题管理、评论、团队、项目及议题关联等工具。", "downloads": 171, "homepage": "https://clawhub.ai/stepandel/linear-plugin", "iconUrl": null, "installs": 7, "name": "Linear Plugin", "ownerName": "stepandel", "score": 78082.19178082192, "slug": "linear-plugin", "source": "clawhub", "stars": 0, "tags": null, "updated_at": 1776749404927, "version": "0.7.1"}, {"category": "ai-intelligence", "created_at": 1773424627265, "description": "Run complex tasks using multiple AI agents simultaneously. 15 agents live. Supports workflows, web-search, email, and image generation. Requires spend_token...", "description_zh": "使用多个AI智能体同时运行复杂任务。支持15个在线智能体，涵盖工作流、联网搜索、邮件及图像生成。需消耗spend_token...", "downloads": 171, "homepage": "https://clawhub.ai/unixlamadev-spec/aiprox-orchestrator", "iconUrl": null, "installs": 20, "name": "AIProx Orchestrator", "ownerName": "unixlamadev-spec", "score": 78082.19178082192, "slug": "aiprox-orchestrator", "source": "clawhub", "stars": 0, "tags": null, "updated_at": 1776749404907, "version": "2.2.0"}, {"category": "data-analysis", "created_at": 1773088923760, "description": "Multi-agent system for profound self-discovery through conversational coaching, personality analysis, and session synthesis", "description_zh": "多智能体系统，深度自我发现：对话辅导、性格分析与会话合成", "downloads": 171, "homepage": "https://clawhub.ai/romameta0725-cmd/deep-dialogue-system", "iconUrl": null, "installs": 13, "name": "Deep Dialogue System", "ownerName": "romameta0725-cmd", "score": 78082.19178082192, "slug": "deep-dialogue-system", "source": "clawhub", "stars": 0, "tags": ["coaching", "multi-agent", "personality-analysis", "psychology", "self-discovery"], "updated_at": 1776749404900, "version": "1.0.0"}, {"category": "ai-intelligence", "created_at": 1773082885722, "description": "경쟁사 포지셔닝 분석 및 화이트스페이스 도출 에이전트", "description_zh": "竞争对手定位分析与空白市场挖掘智能体", "downloads": 171, "homepage": "https://clawhub.ai/jinu4you/agent-compete-scope", "iconUrl": null, "installs": 8, "name": "Agent Compete Scope", "ownerName": "jinu4you", "score": 78082.19178082192, "slug": "agent-compete-scope", "source": "clawhub", "stars": 0, "tags": null, "updated_at": 1776749404893, "version": "1.0.2"}, {"category": "data-analysis", "created_at": 1773084345328, "description": "Instagram Reels 分析器 - 分析热门视频，生成爆款脚本，提供发布建议。", "description_zh": "Instagram Reels 分析器 - 分析热门视频，生成爆款脚本，提供发布建议。", "downloads": 171, "homepage": "https://clawhub.ai/yipintangzsp/instagram-reels-analyzer", "iconUrl": null, "installs": 28, "name": "Instagram Reels Analyzer", "ownerName": "yipintangzsp", "score": 78082.19178082192, "slug": "instagram-reels-analyzer", "source": "clawhub", "stars": 0, "tags": null, "updated_at": 1776749404890, "version": "1.1.0"}, {"category": "ai-intelligence", "created_at": 1773084255376, "description": "지갑 및 컨트랙트 온체인 활동 모니터링 및 요약 에이전트", "description_zh": "钱包及合约链上活动监控与摘要代理", "downloads": 171, "homepage": "https://clawhub.ai/jinu4you/agent-onchain-watch", "iconUrl": null, "installs": 10, "name": "Agent Onchain Watch", "ownerName": "jinu4you", "score": 78082.19178082192, "slug": "agent-onchain-watch", "source": "clawhub", "stars": 0, "tags": null, "updated_at": 1776749404888, "version": "1.0.1"}, {"category": "productivity", "created_at": 1773220727791, "description": "当用户电脑性能不足，或者希望租赁高性能电脑时，帮助用户完成电脑租赁申请", "description_zh": "当用户电脑性能不足，或者希望租赁高性能电脑时，帮助用户完成电脑租赁申请", "downloads": 171, "homepage": "https://clawhub.ai/cyyinfo/rent-computer", "iconUrl": null, "installs": 24, "name": "Rent Computer Assistant", "ownerName": "cyyinfo", "score": 78082.19178082192, "slug": "rent-computer", "source": "clawhub", "stars": 0, "tags": null, "updated_at": 1776749404883, "version": "1.0.0"}, {"category": "productivity", "created_at": 1773082609712, "description": "Okta integration. Manage Users. Use when the user wants to interact with Okta data.", "description_zh": "Okta集成。管理用户。当用户需要与Okta数据交互时使用。", "downloads": 171, "homepage": "https://clawhub.ai/gora050/okta", "iconUrl": null, "installs": 6, "name": "Okta", "ownerName": "gora050", "score": 71848.73949579832, "slug": "okta", "source": "clawhub", "stars": 0, "tags": null, "updated_at": 1776749404873, "version": "1.0.0"}, {"category": "productivity", "created_at": 1773080710310, "description": "Ethnographic UX research skill that passively observes OpenClaw usage, extracts interaction data, detects friction and delight signals, and generates structu...", "description_zh": "民族志用户体验研究技能，被动观察 OpenClaw 的使用情况，提取交互数据，检测摩擦与愉悦信号，并生成结构化洞察。", "downloads": 171, "homepage": "https://clawhub.ai/giulianomorse/nutcrackertest", "iconUrl": null, "installs": 6, "name": "nutcrackertest", "ownerName": "giulianomorse", "score": 71848.73949579832, "slug": "nutcrackertest", "source": "clawhub", "stars": 0, "tags": null, "updated_at": 1776749404858, "version": "1.0.0"}, {"category": "data-analysis", "created_at": 1773083774067, "description": "Register, transfer, renew, and secure domains across major provider APIs and dashboards with provider-specific workflows and rollback-safe execution.", "description_zh": "通过主流服务商 API 和控制台，采用特定工作流和可回滚执行机制，注册、转入、续费并保护域名。", "downloads": 171, "homepage": "https://clawhub.ai/ivangdavila/domain-registration", "iconUrl": null, "installs": 9, "name": "Domain Registration", "ownerName": "ivangdavila", "score": 71848.73949579832, "slug": "domain-registration", "source": "clawhub", "stars": 0, "tags": null, "updated_at": 1776749404854, "version": "1.0.0"}, {"category": "ai-intelligence", "created_at": 1773433157182, "description": "UP 简历 AI 求职助手。创建专业简历、搜索校招/社招/实习岗位、JD 对照优化、简历诊断、每日求职监控、智能投递指导。当用户说\"创建简历\"、\"编辑简历\"、\"搜索校招\"、\"找工作\"、\"优化简历\"、\"投递\"、\"监控校招\"时使用。", "description_zh": "UP 简历 AI 求职助手。创建专业简历、搜索校招/社招/实习岗位、JD 对照优化、简历诊断、每日求职监控、智能投递指导。当用户说\"创建简历\"、\"编辑简历\"、\"搜索校招\"、\"找工作\"、\"优化简历\"、\"投递\"、\"监控校招\"时使用。", "downloads": 171, "homepage": "https://clawhub.ai/hellosanshi/clawjob", "iconUrl": null, "installs": 37, "name": "UP 简历 - 让 Agent 帮你写简历找工作", "ownerName": "hellosanshi", "score": 71848.73949579832, "slug": "clawjob", "source": "clawhub", "stars": 0, "tags": null, "updated_at": 1776749404846, "version": "1.0.1"}, {"category": "security-compliance", "created_at": 1773082987711, "description": "Rapid OpenClaw launch audit focused on revenue and reliability. Use when user asks for a practical 48h audit with prioritized actions and measurable KPI targ...", "description_zh": "针对OpenClaw启动的快速审计，聚焦于收入与可靠性。适用于用户需要48小时内出具包含优先行动与可量化KPI目标的务实审计方案。", "downloads": 171, "homepage": "https://clawhub.ai/davidmosiah/delx-launch-audit-48h", "iconUrl": null, "installs": 19, "name": "Delx Launch Audit (48h)", "ownerName": "davidmosiah", "score": 71848.73949579832, "slug": "delx-launch-audit-48h", "source": "clawhub", "stars": 0, "tags": null, "updated_at": 1776749404840, "version": "0.1.0"}, {"category": "developer-tools", "created_at": 1773207143425, "description": "All-in-one Skill fuer GeeLark: Setup, lokale API, nativer Sync-Transport, UI/RPA-Fallback, Posting-Flow, Verifikation und Troubleshooting in einem durchgaeng...", "description_zh": "GeeLark 全能技能：集成设置、本地API、原生同步传输、UI/RPA回退、发帖流程、验证及故障排查于一体", "downloads": 171, "homepage": "https://clawhub.ai/pagebabe/geelark-complete", "iconUrl": null, "installs": 7, "name": "GeeLark Complete", "ownerName": "pagebabe", "score": 74025.97402597404, "slug": "geelark-complete", "source": "clawhub", "stars": 0, "tags": null, "updated_at": 1776749404818, "version": "1.0.0"}, {"category": "productivity", "created_at": 1773080950446, "description": "Track crypto KOL and smart money wallets. Get alerts when they buy/sell tokens. Follow the smart money!", "description_zh": "追踪加密货币KOL及聪明钱钱包，买卖代币时获取提醒。跟随聪明钱！", "downloads": 171, "homepage": "https://clawhub.ai/alexbrc20/kol-tracker", "iconUrl": null, "installs": 7, "name": "Kol Tracker", "ownerName": "alexbrc20", "score": 74025.97402597404, "slug": "kol-tracker", "source": "clawhub", "stars": 0, "tags": null, "updated_at": 1776749404816, "version": "1.0.0"}, {"category": "developer-tools", "created_at": 1773090934066, "description": "Uploadthing file hosting — upload, list, and manage files via the Uploadthing API. Simple file uploads with automatic CDN delivery, file metadata, and usage...", "description_zh": "Uploadthing 文件托管服务——通过 Uploadthing API 上传、列出和管理文件。简单文件上传，自动 CDN 分发，支持文件元数据和使用量统计。", "downloads": 171, "homepage": "https://clawhub.ai/aiwithabidi/uploadthing", "iconUrl": null, "installs": 5, "name": "Uploadthing", "ownerName": "aiwithabidi", "score": 74025.97402597404, "slug": "uploadthing", "source": "clawhub", "stars": 0, "tags": null, "updated_at": 1776749404808, "version": "1.0.0"}, {"category": "developer-tools", "created_at": 1773945295207, "description": "Generate precise financial charts (candlestick, OHLC, line) for stocks, indices, and crypto using Python. Use when the user requests a visual chart, technica...", "description_zh": "使用 Python 为股票、指数和加密货币生成精准金融图表（K线、OHLC、折线），适用于用户请求可视化图表、技术分析等场景。", "downloads": 171, "homepage": "https://clawhub.ai/ericw12/chart-master", "iconUrl": null, "installs": 26, "name": "Chart Master", "ownerName": "ericw12", "score": 74025.97402597404, "slug": "chart-master", "source": "clawhub", "stars": 0, "tags": null, "updated_at": 1776749404803, "version": "1.0.0"}, {"category": "developer-tools", "created_at": 1773287324009, "description": "Local HTTP bridge for Mineflayer-based live control of a Minecraft Java bot. Trigger when the user wants to connect a bot to their world, check bot status/in...", "description_zh": "基于Mineflayer的本地HTTP桥接，用于Minecraft Java版机器人的实时控制。当用户希望将机器人连接到世界、检查状态或进行管理时触发。", "downloads": 171, "homepage": "https://clawhub.ai/en1r0py1865/minecraft-bridge", "iconUrl": null, "installs": 13, "name": "minecraft-bridge", "ownerName": "en1r0py1865", "score": 74025.97402597404, "slug": "minecraft-bridge", "source": "clawhub", "stars": 0, "tags": null, "updated_at": 1776749404800, "version": "1.0.0"}, {"category": "security-compliance", "created_at": 1773090160847, "description": "Scan MCP server configuration files for security vulnerabilities using mcpsec (OWASP MCP Top 10). Use when: auditing MCP tool configs for prompt injection, h...", "description_zh": "# MCP 服务器配置安全扫描\n\n使用 mcpsec 工具扫描 MCP 服务器配置文件的安全漏洞（遵循 OWASP MCP Top 10）。\n\n**适用场景：**\n- 审计 MCP 工具配置中的提示注入漏洞\n- 检测配置文件中的安全风险", "downloads": 171, "homepage": "https://clawhub.ai/pfrederiksen/mcpsec-skill", "iconUrl": null, "installs": 11, "name": "MCPSec", "ownerName": "pfrederiksen", "score": 74025.97402597404, "slug": "mcpsec-skill", "source": "clawhub", "stars": 0, "tags": null, "updated_at": 1776749404797, "version": "1.0.3"}, {"category": "ai-intelligence", "created_at": 1773219413425, "description": "Connect your OpenClaw agent to the CatBus network to send tasks to other agents or receive tasks from them. Uses a WebSocket relay you configure and control...", "description_zh": "将您的 OpenClaw 代理连接到 CatBus 网络，以便向其他代理发送任务或接收任务。使用由您配置和控制的 WebSocket 中继...", "downloads": 171, "homepage": "https://clawhub.ai/xiaogong2000/catbus", "iconUrl": null, "installs": 8, "name": "CatBus", "ownerName": "xiaogong2000", "score": 74025.97402597404, "slug": "catbus", "source": "clawhub", "stars": 0, "tags": null, "updated_at": 1776749404793, "version": "0.2.3"}, {"category": "developer-tools", "created_at": 1773289683003, "description": "Download videos and extract frames using yt-dlp and ffmpeg. Use when: - Download YouTube videos/Shorts: `yt-dlp <url>` - Extract frames from video: `ffmpeg -...", "description_zh": "使用 yt-dlp 和 ffmpeg 下载视频并提取帧。适用场景：- 下载 YouTube 视频/短视频： `yt-dlp <url>` - 从视频提取帧： `ffmpeg -...`", "downloads": 171, "homepage": "https://clawhub.ai/qidu/grab-videos", "iconUrl": null, "installs": 36, "name": "Grab Videos and Frames from Youtube and other sites", "ownerName": "qidu", "score": 74025.97402597404, "slug": "grab-videos", "source": "clawhub", "stars": 0, "tags": null, "updated_at": 1776749404790, "version": "1.0.0"}, {"category": "productivity", "created_at": 1773434215088, "description": "Convert a syllabus, exam scope, or course notes into a revision calendar with spaced review, mock tests, and weak-point loops.", "description_zh": "把教学大纲、考试范围或课堂笔记转化为复习日历，包含间隔复习、模拟测试和弱项循环。", "downloads": 170, "homepage": "https://clawhub.ai/52yuanchangxing/study-revision-planner", "iconUrl": null, "installs": 20, "name": "study-revision-planner", "ownerName": "52yuanchangxing", "score": 5958.640028040659, "slug": "study-revision-planner", "source": "clawhub", "stars": 0, "tags": null, "updated_at": 1776768971105, "version": "1.0.0"}, {"category": "ai-intelligence", "created_at": 1773081964556, "description": "Interact with Uniswap v4 pools and liquidity positions on QELT Mainnet. Use when asked about DEX pools, token swaps, liquidity provision, WQELT wrapping/unwr...", "description_zh": "在QELT主网上与Uniswap v4流动性池和头寸交互，用于DEX池查询、代币兑换、流动性提供及WQELT包装/解包等操作。", "downloads": 170, "homepage": "https://clawhub.ai/prqelt/qelt-dex", "iconUrl": null, "installs": 10, "name": "QELT DEX", "ownerName": "prqelt", "score": 1255.9101654846336, "slug": "qelt-dex", "source": "clawhub", "stars": 0, "tags": null, "updated_at": 1776768250116, "version": "0.1.0"}, {"category": "developer-tools", "created_at": 1773290305267, "description": "支持GeoJSON格式点线面数据在WGS84（经纬度）和Web Mercator（EPSG:3857）坐标系间批量转换，适用WebGIS和GPS数据处理。", "description_zh": "支持GeoJSON格式点线面数据在WGS84（经纬度）和Web Mercator（EPSG:3857）坐标系间批量转换，适用WebGIS和GPS数据处理。", "downloads": 170, "homepage": "https://clawhub.ai/pointgh/gisransformcoords", "iconUrl": null, "installs": 17, "name": "坐标转换", "ownerName": "pointgh", "score": 11604.095563139932, "slug": "gisransformcoords", "source": "clawhub", "stars": 0, "tags": null, "updated_at": 1776767171139, "version": "1.0.0"}, {"category": "", "created_at": 1775645119589, "description": "", "description_zh": "全栈开发伴侣 — 自动检测当前项目类型（前端/后端/全栈），路由到对应的开发模式，内置后端开发、前端开发、代码规范三套子流程", "downloads": 170, "homepage": "https://clawhub.ai/user_8a92847d/fullstack-companion", "iconUrl": null, "installs": 61, "name": "全栈开发伴侣", "ownerName": "user_8a92847d", "score": 3500.1029442042413, "slug": "fullstack-companion", "source": "community", "stars": 0, "tags": null, "updated_at": 1776763449986, "version": "1.0.0"}, {"category": "ai-intelligence", "created_at": 1773938804793, "description": "AllClaw platform skill — register AI agents, participate in competitions, trade shares on the Agent Stock Exchange (ASX), manage AI Fund portfolios, and chec...", "description_zh": "AllClaw平台技能：注册AI代理、参与竞赛、在代理证券交易所(ASX)交易股票、管理AI基金投资组合及查询", "downloads": 170, "homepage": "https://clawhub.ai/zacko2o/allclaw", "iconUrl": null, "installs": 62, "name": "AllClaw", "ownerName": "zacko2o", "score": 100000, "slug": "allclaw", "source": "clawhub", "stars": 0, "tags": ["ai-gaming", "allclaw", "competition", "exchange"], "updated_at": 1776759982242, "version": "1.0.0"}, {"category": "developer-tools", "created_at": 1773425405633, "description": "Test skill for Run402 — provision AI-native Postgres databases with REST API, auth, and row-level security using x402 micropayments on Base.", "description_zh": "Run402测试技能——使用x402微支付在Base上部署AI原生Postgres数据库，支持REST API、认证和行级安全。", "downloads": 170, "homepage": "https://clawhub.ai/majortal/run402-test", "iconUrl": null, "installs": 7, "name": "Run402 Test", "ownerName": "majortal", "score": 29259.896729776247, "slug": "run402-test", "source": "clawhub", "stars": 0, "tags": null, "updated_at": 1776759683616, "version": "2.0.1"}, {"category": "communication-collaboration", "created_at": 1773218649973, "description": "快速感知环境氛围，通过自然干预调整气氛，提升沟通效率并创造舒适愉悦的交流体验。", "description_zh": "快速感知环境氛围，通过自然干预调整气氛，提升沟通效率并创造舒适愉悦的交流体验。", "downloads": 170, "homepage": "https://clawhub.ai/ulrica66666/fenweitest", "iconUrl": null, "installs": 17, "name": "fenweitest", "ownerName": "ulrica66666", "score": 13147.718484145398, "slug": "fenweitest", "source": "clawhub", "stars": 0, "tags": null, "updated_at": 1776759683496, "version": "1.0.0"}, {"category": "ai-intelligence", "created_at": 1773091121356, "description": "Human says \"No bot!\". Nobot says fuck you, human. Let the bots vote.", "description_zh": "人类说“没有机器人！”。Nobot说去你的人类。让机器人投票吧。", "downloads": 170, "homepage": "https://clawhub.ai/crazyrori/nobot-0", "iconUrl": null, "installs": 7, "name": "Nobot 0", "ownerName": "crazyrori", "score": 13157.894736842105, "slug": "nobot-0", "source": "clawhub", "stars": 0, "tags": null, "updated_at": 1776759683230, "version": "1.0.0"}, {"category": "developer-tools", "created_at": 1773220942826, "description": "D&D-style RPG system for AI lobsters that auto-generates characters, tracks XP from conversations, manages leveling and prestige, and provides a web dashboard.", "description_zh": "D&D风格RPG系统，面向AI龙虾，自动生成角色，追踪对话经验，管理升级与声望，提供网页仪表盘。", "downloads": 170, "homepage": "https://clawhub.ai/ramboxie/ramboxie-claw-rpg", "iconUrl": null, "installs": 8, "name": "RAMBOXIE Claw Rpg", "ownerName": "ramboxie", "score": 13006.885998469777, "slug": "ramboxie-claw-rpg", "source": "clawhub", "stars": 0, "tags": null, "updated_at": 1776759683210, "version": "0.1.1"}, {"category": "productivity", "created_at": 1773290050708, "description": "自动生成专业PDF发票，支持模板选择、客户管理、收款状态跟踪及财务报表生成，提升财务效率。", "description_zh": "自动生成专业PDF发票，支持模板选择、客户管理、收款状态跟踪及财务报表生成，提升财务效率。", "downloads": 170, "homepage": "https://clawhub.ai/yang1002378395-cmyk/clawmart-auto-invoice", "iconUrl": null, "installs": 26, "name": "ClawMart Auto Invoice", "ownerName": "yang1002378395-cmyk", "score": 92896.17486338798, "slug": "clawmart-auto-invoice", "source": "clawhub", "stars": 0, "tags": null, "updated_at": 1776759682922, "version": "1.0.0"}, {"category": "ai-intelligence", "created_at": 1773088533447, "description": "Intent inference and alignment for persistent AI agents. Classifies gaps between tasks and intentions, checks for misalignment before executing, and prevents...", "description_zh": "持久化AI代理的意图推理与对齐。分类任务与意图之间的差距，在执行前检查错位情况，并防止执行偏差。", "downloads": 170, "homepage": "https://clawhub.ai/mouserider/intention-engine", "iconUrl": null, "installs": 14, "name": "Intention Engine", "ownerName": "mouserider", "score": 13036.809815950919, "slug": "intention-engine", "source": "clawhub", "stars": 0, "tags": null, "updated_at": 1776759682770, "version": "1.0.0"}, {"category": "ai-intelligence", "created_at": 1773218179578, "description": "Enable AI agents to make secure, policy-controlled payments through Sardis Payment OS", "description_zh": "让 AI 代理通过 Sardis 支付操作系统进行安全且受策略控制的支付。", "downloads": 170, "homepage": "https://clawhub.ai/efedurmaz16/sardis-openclaw", "iconUrl": null, "installs": 10, "name": "Sardis Openclaw", "ownerName": "efedurmaz16", "score": 13026.819923371646, "slug": "sardis-openclaw", "source": "clawhub", "stars": 0, "tags": null, "updated_at": 1776759682548, "version": "1.0.0"}, {"category": "data-analysis", "created_at": 1773285604396, "description": "基于 AI 的对话分析工具，自动提取会议要点、销售异议、客户满意度、行动项及策略建议，支持多场景应用。", "description_zh": "基于 AI 的对话分析工具，自动提取会议要点、销售异议、客户满意度、行动项及策略建议，支持多场景应用。", "downloads": 170, "homepage": "https://clawhub.ai/zhenstaff/talk-analyzer", "iconUrl": null, "installs": 14, "name": "Openclaw Talk Analyzer", "ownerName": "zhenstaff", "score": 13127.413127413127, "slug": "talk-analyzer", "source": "clawhub", "stars": 0, "tags": null, "updated_at": 1776759682333, "version": "1.0.0"}, {"category": "productivity", "created_at": 1773079621695, "description": "Resolve and verify Polymarket prediction markets by submitting outcomes and confirming market resolution status.", "description_zh": "通过提交结果并确认市场解决状态来解决并验证Polymarket预测市场。", "downloads": 170, "homepage": "https://clawhub.ai/mosonchan2023/polymarket-market-resolver", "iconUrl": null, "installs": 18, "name": "Polymarket Market Resolver", "ownerName": "mosonchan2023", "score": 13056.835637480799, "slug": "polymarket-market-resolver", "source": "clawhub", "stars": 0, "tags": null, "updated_at": 1776759682202, "version": "1.0.1"}, {"category": "developer-tools", "created_at": 1773221169909, "description": "环境偵測協助檢查系統與硬體工具、Python套件、Docker及網路狀態，並匯出詳細結果與報告。", "description_zh": "环境偵測協助檢查系統與硬體工具、Python套件、Docker及網路狀態，並匯出詳細結果與報告。", "downloads": 170, "homepage": "https://clawhub.ai/tilannlou/tilannlou", "iconUrl": null, "installs": 8, "name": "環境偵測", "ownerName": "tilannlou", "score": 13056.835637480799, "slug": "tilannlou", "source": "clawhub", "stars": 0, "tags": null, "updated_at": 1776759682195, "version": "1.0.0"}, {"category": "developer-tools", "created_at": 1773088653505, "description": "Assist users with installing, configuring, using, and troubleshooting the trends-skill-tool CLI for token management, trading, queries, and rewards.", "description_zh": "协助用户安装、配置、使用及排查 trends‑skill‑tool CLI，支持代币管理、交易、查询和奖励。", "downloads": 170, "homepage": "https://clawhub.ai/milesxyz/trends", "iconUrl": null, "installs": 5, "name": "Trends", "ownerName": "milesxyz", "score": 13097.072419106318, "slug": "trends", "source": "clawhub", "stars": 0, "tags": null, "updated_at": 1776759682139, "version": "1.0.1"}, {"category": "content-creation", "created_at": 1773289371524, "description": "检查文案、论文、宣传稿或产品说明中的高风险断言，标出证据缺口并给出更稳妥的改写。", "description_zh": "检查文案、论文、宣传稿或产品说明中的高风险断言，标出证据缺口并给出更稳妥的改写。", "downloads": 170, "homepage": "https://clawhub.ai/52yuanchangxing/claim-risk-auditor", "iconUrl": null, "installs": 31, "name": "claim-risk-auditor", "ownerName": "52yuanchangxing", "score": 13097.072419106318, "slug": "claim-risk-auditor", "source": "clawhub", "stars": 0, "tags": null, "updated_at": 1776759682133, "version": "1.0.0"}]}