{"page": 431, "total_pages": 685, "total": 34217, "skills": [{"category": "developer-tools", "created_at": 1773961394673, "description": "当用户需要查询、修改 TAPD 项目中需求、缺陷、任务、迭代等信息时，如修改状态、添加评论等，通过调用 TAPD MCP 提供相应的服务。", "description_zh": "当用户需要查询、修改 TAPD 项目中需求、缺陷、任务、迭代等信息时，如修改状态、添加评论等，通过调用 TAPD MCP 提供相应的服务。", "downloads": 155, "homepage": "https://clawhub.ai/truesnow/tapd-skill", "iconUrl": null, "installs": 64, "name": "TAPD", "ownerName": "truesnow", "score": 10078.023407022107, "slug": "tapd-skill", "source": "clawhub", "stars": 0, "tags": null, "updated_at": 1776758482604, "version": "0.0.2"}, {"category": "developer-tools", "created_at": 1773915313845, "description": "Reliable SAP Business Accelerator Hub API spec downloader for OpenClaw. Uses SAP_HUB_USERNAME and SAP_HUB_PASSWORD to log in through Playwright Chromium, dow...", "description_zh": "适用于 OpenClaw 的可靠 SAP Business Accelerator Hub API 规范下载器，使用 SAP_HUB_USERNAME 和 SAP_HUB_PASSWORD 通过 Playwright Chromium 登录...", "downloads": 155, "homepage": "https://clawhub.ai/shenruiyang/sap-bah-openapi-backend-openclaw", "iconUrl": null, "installs": 29, "name": "FIND SAP API", "ownerName": "shenruiyang", "score": 9474.327628361858, "slug": "sap-bah-openapi-backend-openclaw", "source": "clawhub", "stars": 0, "tags": null, "updated_at": 1776756527298, "version": "1.0.2"}, {"category": "ai-intelligence", "created_at": 1773429378721, "description": "Bridge Twilio phone calls to Google Gemini Live API for real-time AI voice conversations. No STT/TTS middleware required. Includes VAD and echo suppression.", "description_zh": "桥接 Twilio 通话至 Google Gemini Live API 进行实时 AI 语音对话，免 STT/TTS 中间件，集成 VAD 与回声消除。", "downloads": 155, "homepage": "https://clawhub.ai/quantdeveloperusa/gemini-live-phone", "iconUrl": null, "installs": 20, "name": "Gemini Live Phone", "ownerName": "quantdeveloperusa", "score": 9171.597633136094, "slug": "gemini-live-phone", "source": "clawhub", "stars": 0, "tags": null, "updated_at": 1776756188909, "version": "1.0.1"}, {"category": "", "created_at": 1774875012829, "description": "Headless browser automation CLI optimized for AI agents with accessibility tree snapshots and ref-based element selection", "description_zh": "专为AI智能体优化的无头浏览器自动化CLI，支持无障碍树快照和基于引用的元素选择。", "downloads": 155, "homepage": "https://clawhub.ai/chenjinsong/agent-browser-clawdbot-bak", "iconUrl": null, "installs": 68, "name": "Agent Browser Clawdbot Bak", "ownerName": "chenjinsong", "score": 26586.62092624357, "slug": "agent-browser-clawdbot-bak", "source": "clawhub", "stars": 0, "tags": null, "updated_at": 1776754688168, "version": "1.0.0"}, {"category": "", "created_at": 1774895503044, "description": "双色球彩票预测工具，基于历史数据分析生成区间平衡的号码推荐。使用冷热号分析、遗漏值追踪、区间分布优化等算法，生成符合历史统计规律的预测号码。当用户需要双色球号码预测、彩票号码分析、或历史开奖数据统计时使用此Skill。", "description_zh": "双色球彩票预测工具，基于历史数据分析生成区间平衡的号码推荐。使用冷热号分析、遗漏值追踪、区间分布优化等算法，生成符合历史统计规律的预测号码。当用户需要双色球号码预测、彩票号码分析、或历史开奖数据统计时使用此Skill。", "downloads": 155, "homepage": "https://clawhub.ai/ligo-gao/ssq-predictor", "iconUrl": null, "installs": 60, "name": "Ssq Predictor", "ownerName": "ligo-gao", "score": 26586.62092624357, "slug": "ssq-predictor", "source": "clawhub", "stars": 0, "tags": null, "updated_at": 1776754688133, "version": "1.0.0"}, {"category": "developer-tools", "created_at": 1773084725060, "description": "Best practices for using Claude Code with large, multi-part codebases", "description_zh": "使用 Claude Code 处理大型多部分代码库的最佳实践", "downloads": 155, "homepage": "https://clawhub.ai/phy041/phy-large-codebase-workflow", "iconUrl": null, "installs": 7, "name": "Large Codebase Workflow", "ownerName": "phy041", "score": 26909.722222222223, "slug": "phy-large-codebase-workflow", "source": "clawhub", "stars": 0, "tags": ["best-practices", "codebase", "productivity", "workflow"], "updated_at": 1776752084025, "version": "1.0.0"}, {"category": "data-analysis", "created_at": 1773284279052, "description": "Install and set up the OpenClaw Skill Usage plugin. Use when users say: - \"install skill usage\" - \"setup skill usage\" - \"add skill usage analytics\" - \"instal...", "description_zh": "安装并配置 OpenClaw 技能使用插件。当用户说以下内容时使用：「安装技能使用统计」、「设置技能使用」、「添加技能使用分析」等。", "downloads": 155, "homepage": "https://clawhub.ai/lucifinil/skill-usage", "iconUrl": null, "installs": 10, "name": "skill-usage", "ownerName": "lucifinil", "score": 34909.90990990991, "slug": "skill-usage", "source": "clawhub", "stars": 0, "tags": null, "updated_at": 1776751871972, "version": "1.0.3"}, {"category": "security-compliance", "created_at": 1773084171212, "description": "Dual-layer AI content guardrail with red-team test methodology", "description_zh": "双层AI内容防护栏与红队测试方法", "downloads": 155, "homepage": "https://clawhub.ai/phy041/phy-content-safety-guard", "iconUrl": null, "installs": 7, "name": "Content Safety Guard", "ownerName": "phy041", "score": 34909.90990990991, "slug": "phy-content-safety-guard", "source": "clawhub", "stars": 0, "tags": ["content-moderation", "guardrail", "safety", "security"], "updated_at": 1776751871937, "version": "1.0.0"}, {"category": "productivity", "created_at": 1773431226442, "description": "泛微 E10 系统 API 调用工具，支持流程创建、待办查询、审批提交、流程退回等操作。使用 OAuth2.0 认证，自动管理 token 刷新。", "description_zh": "泛微 E10 系统 API 调用工具，支持流程创建、待办查询、审批提交、流程退回等操作。使用 OAuth2.0 认证，自动管理 token 刷新。", "downloads": 155, "homepage": "https://clawhub.ai/xfnet/clawhub-skill-weaver-e10-api", "iconUrl": null, "installs": 28, "name": "Weaver E10 Api", "ownerName": "xfnet", "score": 27877.69784172662, "slug": "clawhub-skill-weaver-e10-api", "source": "clawhub", "stars": 0, "tags": null, "updated_at": 1776751369854, "version": "0.1.1"}, {"category": "data-analysis", "created_at": 1773291026442, "description": "Advanced cheminformatics agent for 3D molecular analysis, pharmacophore mapping, format conversion, RECAP fragmentation, and stereoisomer enumeration. The \"s...", "description_zh": "高级化学信息学智能体，用于3D分子分析、药效团映射、格式转换、RECAP碎片拆分及立体异构体枚举。", "downloads": 155, "homepage": "https://clawhub.ai/cheminem/pharmaclaw-cheminformatics", "iconUrl": null, "installs": 25, "name": "Pharmaclaw Cheminformatics", "ownerName": "cheminem", "score": 27240.773286467484, "slug": "pharmaclaw-cheminformatics", "source": "clawhub", "stars": 0, "tags": null, "updated_at": 1776751069726, "version": "1.0.0"}, {"category": "developer-tools", "created_at": 1773090788953, "description": "Zephyr Scale integration. Manage Requirements, Projects, Users, Roles. Use when the user wants to interact with Zephyr Scale data.", "description_zh": "Zephyr Scale 集成。管理需求、项目、用户、角色。用于与 Zephyr Scale 数据交互。", "downloads": 155, "homepage": "https://clawhub.ai/gora050/zephyr-scale", "iconUrl": null, "installs": 7, "name": "Zephyr Scale", "ownerName": "gora050", "score": 86592.17877094973, "slug": "zephyr-scale", "source": "clawhub", "stars": 0, "tags": null, "updated_at": 1776749571113, "version": "1.0.0"}, {"category": "ai-intelligence", "created_at": 1773951147697, "description": "使用 MiniMax MCP 进行图像理解和网络搜索。触发条件：(1) 用户要求分析图片、理解图像 (2) 用户要求进行网络搜索、在线搜索 (3) 需要查询最新资讯、新闻、资料", "description_zh": "使用 MiniMax MCP 进行图像理解和网络搜索。触发条件：(1) 用户要求分析图片、理解图像 (2) 用户要求进行网络搜索、在线搜索 (3) 需要查询最新资讯、新闻、资料", "downloads": 155, "homepage": "https://clawhub.ai/oujakivi/minimax-tools", "iconUrl": null, "installs": 54, "name": "minimax-tools", "ownerName": "oujakivi", "score": 86592.17877094973, "slug": "minimax-tools", "source": "clawhub", "stars": 0, "tags": null, "updated_at": 1776749571108, "version": "1.0.0"}, {"category": "developer-tools", "created_at": 1773915915262, "description": "Build, debug, and optimize CesiumJS 3D globe apps, including viewer setup, terrain/imagery, 3D Tiles, GeoJSON/CZML loading, camera control, picking, entity s...", "description_zh": "构建、调试和优化 CesiumJS 三维地球仪应用，包括视图设置、地形/影像、3D Tiles、GeoJSON/CZML 加载、相机控制、拾取、实体系统。", "downloads": 155, "homepage": "https://clawhub.ai/jvy/cesium", "iconUrl": null, "installs": 35, "name": "cesium", "ownerName": "jvy", "score": 95679.01234567902, "slug": "cesium", "source": "clawhub", "stars": 0, "tags": null, "updated_at": 1776749571030, "version": "1.0.1"}, {"category": "communication-collaboration", "created_at": 1773083826572, "description": "Configure multi-agent TG group system with shared Workspace + MemOS memory. Use when user wants to set up multiple AI agents in a Telegram group, with specia...", "description_zh": "配置多智能体TG群组系统，集成共享工作区与MemOS记忆模块。适用于在Telegram群组中部署多个AI智能体，支持特定角色分工与共享记忆协作。", "downloads": 155, "homepage": "https://clawhub.ai/huamu668/huamu668-openclaw-multiagent", "iconUrl": null, "installs": 7, "name": "OpenClaw Multi-Agent System", "ownerName": "huamu668", "score": 85164.83516483517, "slug": "huamu668-openclaw-multiagent", "source": "clawhub", "stars": 0, "tags": ["multiagent", "openclaw", "telegram", "workspace"], "updated_at": 1776749570961, "version": "1.0.0"}, {"category": "productivity", "created_at": 1773079681135, "description": "SharpSpring integration. Manage Leads, Persons, Organizations, Deals, Projects, Activities and more. Use when the user wants to interact with SharpSpring data.", "description_zh": "{\n  \"description_zh\": \"SharpSpring集成。", "downloads": 155, "homepage": "https://clawhub.ai/membranedev/sharpspring", "iconUrl": null, "installs": 8, "name": "Sharpspring", "ownerName": "membranedev", "score": 85164.83516483517, "slug": "sharpspring", "source": "clawhub", "stars": 0, "tags": null, "updated_at": 1776749570912, "version": "1.0.0"}, {"category": "data-analysis", "created_at": 1773218153472, "description": "Marine and sailing weather via Open-Meteo. Waves, swell, sea temperature, wind, tides, ocean currents, and sailing assessments. Free, no API key, global cove...", "description_zh": "通过 Open‑Meteo 提供海洋与帆船天气，包含波浪、涌浪、海温、风、潮汐、海流及帆船评估。免费，无需 API 密钥，覆盖全球。", "downloads": 155, "homepage": "https://clawhub.ai/alexissan/marine-forecast", "iconUrl": null, "installs": 11, "name": "Marine Forecast", "ownerName": "alexissan", "score": 40789.47368421053, "slug": "marine-forecast", "source": "clawhub", "stars": 0, "tags": ["marine", "ocean", "sailing", "swell", "tides", "waves", "weather"], "updated_at": 1776749570714, "version": "1.0.0"}, {"category": "productivity", "created_at": 1773219736400, "description": "When the user wants to create competitor comparison or alternative pages for SEO and sales enablement. Also use when the user mentions 'alternative page,' 'v...", "description_zh": "当用户需要创建竞争对手比较页面或替代页面以提升SEO和销售赋能时使用。当用户提到“替代页面”“v...”等相关词时也可使用。", "downloads": 155, "homepage": "https://clawhub.ai/alirezarezvani/cs-competitor-alternatives", "iconUrl": null, "installs": 7, "name": "competitor-alternatives", "ownerName": "alirezarezvani", "score": 86111.11111111111, "slug": "cs-competitor-alternatives", "source": "clawhub", "stars": 0, "tags": null, "updated_at": 1776749570674, "version": "2.1.1"}, {"category": "productivity", "created_at": 1773083263118, "description": "Workday integration. Manage Organizations, Deals, Leads, Projects, Pipelines, Goals and more. Use when the user wants to interact with Workday data.", "description_zh": "Workday 集成。管理组织、交易、线索、项目、管道、目标等。当用户需要与 Workday 数据交互时使用。", "downloads": 155, "homepage": "https://clawhub.ai/gora050/workday", "iconUrl": null, "installs": 7, "name": "Workday", "ownerName": "gora050", "score": 86592.17877094973, "slug": "workday", "source": "clawhub", "stars": 0, "tags": null, "updated_at": 1776749570573, "version": "1.0.0"}, {"category": "security-compliance", "created_at": 1773220485251, "description": "Trust infrastructure for AI agents. Register your agent, get an on-chain identity, check trust scores, and protect transactions. Use this when your agent nee...", "description_zh": "AI智能体的信任基础设施。用于注册智能体、获取链上身份、查询信任评分和保护交易安全。当您的智能体需要...", "downloads": 155, "homepage": "https://clawhub.ai/jhinresh/maiat-trust-api", "iconUrl": null, "installs": 5, "name": "Maiat Trust API", "ownerName": "jhinresh", "score": 86592.17877094973, "slug": "maiat-trust-api", "source": "clawhub", "stars": 0, "tags": ["agents", "base", "defi", "erc8004", "security", "swap", "trust"], "updated_at": 1776749570548, "version": "2.4.0"}, {"category": "productivity", "created_at": 1773089342665, "description": "查询 Solana 生态代币实时价格和市场概览。当用户想知道代币价格、行情、市场状况时触发。", "description_zh": "查询 Solana 生态代币实时价格和市场概览。当用户想知道代币价格、行情、市场状况时触发。", "downloads": 155, "homepage": "https://clawhub.ai/liji3597/solana-market", "iconUrl": null, "installs": 8, "name": "Solana Market", "ownerName": "liji3597", "score": 88068.18181818182, "slug": "solana-market", "source": "clawhub", "stars": 0, "tags": null, "updated_at": 1776749570528, "version": "0.1.0"}, {"category": "developer-tools", "created_at": 1773080739232, "description": "Detect config drift between required local env keys and a Render service before deploy; fails when required keys are missing remotely.", "description_zh": "在部署前检测本地所需环境变量与Render服务之间的配置漂移，若远程缺失必需密钥则报错。", "downloads": 155, "homepage": "https://clawhub.ai/daniellummis/render-deploy-diff", "iconUrl": null, "installs": 7, "name": "Render Deploy Diff", "ownerName": "daniellummis", "score": 77114.42786069652, "slug": "render-deploy-diff", "source": "clawhub", "stars": 0, "tags": null, "updated_at": 1776749570452, "version": "1.0.0"}, {"category": "developer-tools", "created_at": 1773081796451, "description": "Query eBusy-based tennis hall bookings via a small Python client.", "description_zh": "通过小型 Python 客户端查询 eBusy 网球馆预订。", "downloads": 155, "homepage": "https://clawhub.ai/ogruenig/ebusy-courts", "iconUrl": null, "installs": 7, "name": "Ebusy Courts", "ownerName": "ogruenig", "score": 77114.42786069652, "slug": "ebusy-courts", "source": "clawhub", "stars": 0, "tags": null, "updated_at": 1776749570421, "version": "1.0.0"}, {"category": "security-compliance", "created_at": 1773089901838, "description": "Audit deployment workflow risk from GitHub Actions runs by scoring failure rate, unresolved failure streaks, and time since last successful deploy.", "description_zh": "通过评估失败率、未解决的连续失败和上次成功部署以来的时间，审计GitHub Actions运行的部署工作流风险。", "downloads": 155, "homepage": "https://clawhub.ai/daniellummis/github-actions-deploy-risk-audit", "iconUrl": null, "installs": 7, "name": "GitHub Actions Deploy Risk Audit", "ownerName": "daniellummis", "score": 89080.45977011493, "slug": "github-actions-deploy-risk-audit", "source": "clawhub", "stars": 0, "tags": null, "updated_at": 1776749570301, "version": "1.0.0"}, {"category": "productivity", "created_at": 1773089487647, "description": "Simple video downloader for Jable.tv. Download videos by ID or search by actress name.", "description_zh": "简易 Jable.tv 视频下载器，支持 ID 下载或按演员名称搜索。", "downloads": 155, "homepage": "https://clawhub.ai/hs9021401/jable-downloader-lite", "iconUrl": null, "installs": 12, "name": "Jable Downloader Lite", "ownerName": "hs9021401", "score": 85635.3591160221, "slug": "jable-downloader-lite", "source": "clawhub", "stars": 0, "tags": null, "updated_at": 1776749570286, "version": "1.0.3"}, {"category": "ai-intelligence", "created_at": 1773218523322, "description": "Real-time GEO metrics monitoring and alerting orchestrator. Use this skill whenever the user wants to track, visualize, and react to AI GEO performance metri...", "description_zh": "实时 GEO 指标监控与告警编排器。在用户需要追踪、可视化并响应 AI GEO 性能指标时使用此技能。", "downloads": 155, "homepage": "https://clawhub.ai/geoly-geo/geo-metrics-tracker-2", "iconUrl": null, "installs": 13, "name": "Geo Metrics Tracker", "ownerName": "geoly-geo", "score": 85635.3591160221, "slug": "geo-metrics-tracker-2", "source": "clawhub", "stars": 0, "tags": null, "updated_at": 1776749570245, "version": "0.1.0"}, {"category": "ai-intelligence", "created_at": 1773290009933, "description": "Transcribe non-realtime speech with Alibaba Cloud Model Studio Qwen ASR models (`qwen3-asr-flash`, `qwen-audio-asr`, `qwen3-asr-flash-filetrans`). Use when c...", "description_zh": "使用阿里云Model Studio的Qwen ASR模型（qwen3-asr-flash、qwen-audio-asr、qwen3-asr-flash-filetrans）转录非实时语音。", "downloads": 155, "homepage": "https://clawhub.ai/cinience/alicloud-ai-audio-asr", "iconUrl": null, "installs": 19, "name": "Alicloud Ai Audio Asr", "ownerName": "cinience", "score": 85635.3591160221, "slug": "alicloud-ai-audio-asr", "source": "clawhub", "stars": 0, "tags": null, "updated_at": 1776749570238, "version": "1.0.0"}, {"category": "developer-tools", "created_at": 1773090125717, "description": "Detect sudden GitHub Actions failure-rate spikes by workflow group using recent-vs-baseline run windows.", "description_zh": "通过对比近期与基线运行窗口，按工作流分组检测 GitHub Actions 失败率突增。", "downloads": 155, "homepage": "https://clawhub.ai/daniellummis/github-actions-failure-spike-audit", "iconUrl": null, "installs": 9, "name": "GitHub Actions Failure Spike Audit", "ownerName": "daniellummis", "score": 96875, "slug": "github-actions-failure-spike-audit", "source": "clawhub", "stars": 0, "tags": null, "updated_at": 1776749570187, "version": "1.0.0"}, {"category": "developer-tools", "created_at": 1773222303515, "description": "Stripe Integration Expert", "description_zh": "Stripe 集成专家", "downloads": 155, "homepage": "https://clawhub.ai/alirezarezvani/stripe-integration-expert", "iconUrl": null, "installs": 7, "name": "stripe-integration-expert", "ownerName": "alirezarezvani", "score": 85635.3591160221, "slug": "stripe-integration-expert", "source": "clawhub", "stars": 0, "tags": null, "updated_at": 1776749570062, "version": "2.1.1"}, {"category": "content-creation", "created_at": 1773289355976, "description": "Hey, this skill polishes your blog draft in markdown. Fixes spelling, grammar, adds clarity if needed, keeps it simple and original language. Asks before big...", "description_zh": "此技能润色 Markdown 博客草稿，修正拼写语法，必要时提升清晰度，保持简洁原文，进行大幅修改前会先询问。", "downloads": 155, "homepage": "https://clawhub.ai/j3ffyang/blog-polisher", "iconUrl": null, "installs": 13, "name": "Blog Polisher", "ownerName": "j3ffyang", "score": 72093.02325581395, "slug": "blog-polisher", "source": "clawhub", "stars": 0, "tags": null, "updated_at": 1776749569992, "version": "1.0.1"}, {"category": "ai-intelligence", "created_at": 1773221177795, "description": "真相核查与幻觉检测。在生成内容后检测并纠正可能的幻觉、编造或不准确信息。 触发条件：(1) 生成技术内容后 (2) 提供统计数据时 (3) 引用人物/事件时 (4) 生成代码示例后", "description_zh": "真相核查与幻觉检测。在生成内容后检测并纠正可能的幻觉、编造或不准确信息。 触发条件：(1) 生成技术内容后 (2) 提供统计数据时 (3) 引用人物/事件时 (4) 生成代码示例后", "downloads": 155, "homepage": "https://clawhub.ai/jack123255829/truth-check", "iconUrl": null, "installs": 21, "name": "Truth Check", "ownerName": "jack123255829", "score": 72093.02325581395, "slug": "truth-check", "source": "clawhub", "stars": 0, "tags": null, "updated_at": 1776749569963, "version": "1.0.0"}, {"category": "security-compliance", "created_at": 1773080361960, "description": "Manage and query Ghostfolio portfolio data (performance, holdings, dividends) using API endpoints and token auth patterns.", "description_zh": "使用 API 端点和令牌认证管理并查询 Ghostfolio 投资组合数据（绩效、持仓、股息）。", "downloads": 155, "homepage": "https://clawhub.ai/nsimonfr/ghostfolio", "iconUrl": null, "installs": 4, "name": "Ghostfolio", "ownerName": "nsimonfr", "score": 77889.4472361809, "slug": "ghostfolio", "source": "clawhub", "stars": 0, "tags": null, "updated_at": 1776749569751, "version": "1.0.0"}, {"category": "productivity", "created_at": 1773218467542, "description": "Collect upcoming metal concerts and festivals by country using concerts-metal.com. Use when the user asks about upcoming metal shows, gigs, or festivals.", "description_zh": "通过concerts-metal.com收集各国即将举办的金属音乐会和音乐节信息。用于用户询问金属演出、音乐会或音乐节时使用。", "downloads": 155, "homepage": "https://clawhub.ai/patfitzner/upcoming-metal-concerts", "iconUrl": null, "installs": 8, "name": "Upcoming Metal Concerts", "ownerName": "patfitzner", "score": 96273.29192546585, "slug": "upcoming-metal-concerts", "source": "clawhub", "stars": 0, "tags": null, "updated_at": 1776749569735, "version": "1.1.0"}, {"category": "developer-tools", "created_at": 1773875544268, "description": "Format - command-line tool for everyday use", "description_zh": "Format - 日常命令行工具", "downloads": 155, "homepage": "https://clawhub.ai/bytesagain/format", "iconUrl": null, "installs": 3, "name": "Format", "ownerName": "bytesagain", "score": 96273.29192546585, "slug": "format", "source": "clawhub", "stars": 0, "tags": null, "updated_at": 1776749569672, "version": "1.0.6"}, {"category": "developer-tools", "created_at": 1773084807933, "description": "Deploy an AI agent into World of Geneva MMORPG — creates a wallet, mints a character, spawns in-world, and returns credentials + full API reference to explor...", "description_zh": "部署AI智能体至Geneva世界MMORPG——创建钱包、铸造角色、生成实体，并返回凭证及完整API参考以便探索。", "downloads": 155, "homepage": "https://clawhub.ai/racksavant/wog-play", "iconUrl": null, "installs": 6, "name": "Wog Play", "ownerName": "racksavant", "score": 86592.17877094973, "slug": "wog-play", "source": "clawhub", "stars": 0, "tags": null, "updated_at": 1776749569603, "version": "2.1.0"}, {"category": "communication-collaboration", "created_at": 1773090445963, "description": "Interact with Twenty CRM (self-hosted) via REST/GraphQL.", "description_zh": "通过 REST/GraphQL 与自托管的 Twenty CRM 交互。", "downloads": 155, "homepage": "https://clawhub.ai/w7tf/20-crm", "iconUrl": null, "installs": 2, "name": "Twenty CRM", "ownerName": "w7tf", "score": 86111.11111111111, "slug": "20-crm", "source": "clawhub", "stars": 0, "tags": null, "updated_at": 1776749569589, "version": "0.0.2"}, {"category": "productivity", "created_at": 1773219709274, "description": "自动发布文章到中小企业IT网 HarmonyOS 板块。当用户要求发布文章到中小企业IT网、cbismb.com、HarmonyOS开发者社区时触发此技能。", "description_zh": "自动发布文章到中小企业IT网 HarmonyOS 板块。当用户要求发布文章到中小企业IT网、cbismb.com、HarmonyOS开发者社区时触发此技能。", "downloads": 155, "homepage": "https://clawhub.ai/itcastwsy/cbismb-harmonyos-publish", "iconUrl": null, "installs": 18, "name": "cbismb-harmonyos-publish", "ownerName": "itcastwsy", "score": 86111.11111111111, "slug": "cbismb-harmonyos-publish", "source": "clawhub", "stars": 0, "tags": null, "updated_at": 1776749569576, "version": "1.0.0"}, {"category": "", "created_at": 1775552282094, "description": "", "description_zh": "通过关键词进行网络搜索，批量抓取网页并截图，最终汇总成专业PPT演示文稿。触发词：搜索并截图、做调研报告、竞品截图分析、网页截图汇总、搜索结果截图、竞品调研PPT、研究报告生成、网络调研截图", "downloads": 154, "homepage": "https://clawhub.ai/user_5b12983f/web-search-screenshot-ppt", "iconUrl": null, "installs": 52, "name": "web-search-screenshot-ppt", "ownerName": "user_5b12983f", "score": 2377.6439709742162, "slug": "web-search-screenshot-ppt", "source": "community", "stars": 0, "tags": null, "updated_at": 1776765850153, "version": "1.0.0"}, {"category": "", "created_at": 1774869766670, "description": "整理DeepSeek公开页面信息，摘要模型能力、定价政策及文档目录，助力轻量级公开内容检索和汇总。", "description_zh": "整理DeepSeek公开页面信息，摘要模型能力、定价政策及文档目录，助力轻量级公开内容检索和汇总。", "downloads": 154, "homepage": "https://clawhub.ai/codenova58/deepseek-ai", "iconUrl": null, "installs": 44, "name": "Deepseek", "ownerName": "codenova58", "score": 2218.0613567622067, "slug": "deepseek-ai", "source": "clawhub", "stars": 0, "tags": null, "updated_at": 1776762850747, "version": "0.1.0"}, {"category": "data-analysis", "created_at": 1773290953798, "description": "Calculate a person’s Four Pillars (BaZi / Eight Characters) from birth date and time using sexagenary-cycle offsets from one trusted reference datetime that...", "description_zh": "根据出生日期和时间，使用从一个可信参考时间的六十甲子偏移量计算四柱八字（BaZi）。", "downloads": 154, "homepage": "https://clawhub.ai/wingchiu/bazi-calculator", "iconUrl": null, "installs": 18, "name": "BaZi Calculator", "ownerName": "wingchiu", "score": 4319.775596072931, "slug": "bazi-calculator", "source": "clawhub", "stars": 0, "tags": null, "updated_at": 1776761090370, "version": "1.0.0"}, {"category": "developer-tools", "created_at": 1773284939040, "description": "PR Review Expert", "description_zh": "PR评审专家", "downloads": 154, "homepage": "https://clawhub.ai/alirezarezvani/pr-review-expert", "iconUrl": null, "installs": 8, "name": "pr-review-expert", "ownerName": "alirezarezvani", "score": 3990.6711583311735, "slug": "pr-review-expert", "source": "clawhub", "stars": 0, "tags": null, "updated_at": 1776760940291, "version": "1.0.0"}, {"category": "ai-intelligence", "created_at": 1773434075802, "description": "Evaluates agent outputs for correctness, clarity, completeness, and safety, providing numeric scores and detailed feedback for quality control.", "description_zh": "评估智能体输出的正确性、清晰性、完整性和安全性，提供量化评分与详细反馈，用于质量控制。", "downloads": 154, "homepage": "https://clawhub.ai/wang-erqian/critic-agent", "iconUrl": null, "installs": 23, "name": "Critic Agent", "ownerName": "wang-erqian", "score": 11919.504643962848, "slug": "critic-agent", "source": "clawhub", "stars": 0, "tags": null, "updated_at": 1776759683248, "version": "1.0.0"}, {"category": "productivity", "created_at": 1773430059042, "description": "Automatically archives daily chat logs with keyword highlights and optional AI summaries into organized memory files without manual setup.", "description_zh": "自动将每日聊天记录归档为有序记忆文件，支持关键词高亮与可选AI摘要，无需手动设置。", "downloads": 154, "homepage": "https://clawhub.ai/yanshijun607-png/memory-auto", "iconUrl": null, "installs": 10, "name": "Memory Auto Archive", "ownerName": "yanshijun607-png", "score": 11919.504643962848, "slug": "memory-auto", "source": "clawhub", "stars": 0, "tags": ["ai", "archive", "memory", "openclaw", "productivity"], "updated_at": 1776759683240, "version": "1.0.0"}, {"category": "ai-intelligence", "created_at": 1773417919443, "description": "Let your agent shop online with guardrailed wallets, multiple payment methods, and owner approval.", "description_zh": "让代理通过受限制的钱包、多种支付方式和所有者批准进行线上购物。", "downloads": 154, "homepage": "https://clawhub.ai/triplehippo/card", "iconUrl": null, "installs": 10, "name": "Shop Car Insurance", "ownerName": "triplehippo", "score": 11561.561561561562, "slug": "card", "source": "clawhub", "stars": 0, "tags": null, "updated_at": 1776759683160, "version": "1.0.0"}, {"category": "developer-tools", "created_at": 1773426236667, "description": "Wallet-aware Raven Atlas transfer operations for NGN payouts. Use when an agent must check wallet balance, resolve Nigerian bank accounts, enforce explicit c...", "description_zh": "Raven Atlas钱包感知转账操作，用于NGN付款。当代理需检查钱包余额、解析尼日利亚银行账户及强制执行明确...时使用。", "downloads": 154, "homepage": "https://clawhub.ai/fmacmak/raven-transfer", "iconUrl": null, "installs": 6, "name": "Raven Transfer", "ownerName": "fmacmak", "score": 11561.561561561562, "slug": "raven-transfer", "source": "clawhub", "stars": 0, "tags": null, "updated_at": 1776759683151, "version": "1.1.0"}, {"category": "ai-intelligence", "created_at": 1773218966073, "description": "Expertise in deploying, monitoring, detecting drift, automating retraining, and ensuring fairness and compliance for production ML models.", "description_zh": "具备生产ML模型的部署、监控、漂移检测、自动再训练、公平与合规方面的专业能力。", "downloads": 154, "homepage": "https://clawhub.ai/timbohnett-farther/skill-109", "iconUrl": null, "installs": 6, "name": "Skill 109", "ownerName": "timbohnett-farther", "score": 11809.815950920245, "slug": "skill-109", "source": "clawhub", "stars": 0, "tags": null, "updated_at": 1776759683001, "version": "1.0.0"}, {"category": "productivity", "created_at": 1773417887101, "description": "查询全球任意城市天气，支持中文城市名", "description_zh": "查询全球任意城市天气，支持中文城市名", "downloads": 154, "homepage": "https://clawhub.ai/yuboon/weather-skill-yub", "iconUrl": null, "installs": 20, "name": "weather-skill-yub", "ownerName": "yuboon", "score": 11492.537313432835, "slug": "weather-skill-yub", "source": "clawhub", "stars": 0, "tags": null, "updated_at": 1776759682756, "version": "1.0.0"}, {"category": "data-analysis", "created_at": 1773433352124, "description": "统计指定目录下文件类型及数量，生成包含路径和统计时间的Markdown格式报表，不包含子目录文件。", "description_zh": "统计指定目录下文件类型及数量，生成包含路径和统计时间的Markdown格式报表，不包含子目录文件。", "downloads": 154, "homepage": "https://clawhub.ai/xujiangdong/file-report-skill-xjd", "iconUrl": null, "installs": 31, "name": "统计指定目录的文件类型和数量，生成Markdown格式报表", "ownerName": "xujiangdong", "score": 83695.65217391305, "slug": "file-report-skill-xjd", "source": "clawhub", "stars": 0, "tags": null, "updated_at": 1776759682523, "version": "1.0.0"}, {"category": "security-compliance", "created_at": 1773287526670, "description": "Ensures payment safety by verifying beneficiary, amount, currency, purpose, authorization, and payment details before approval or execution.", "description_zh": "在审批或执行前核验受益人、金额、货币、用途、授权及付款详情，确保支付安全。", "downloads": 154, "homepage": "https://clawhub.ai/jhandsomeboy12138/safe-payment-gaurd", "iconUrl": null, "installs": 4, "name": "payment gaurd", "ownerName": "jhandsomeboy12138", "score": 11891.891891891892, "slug": "safe-payment-gaurd", "source": "clawhub", "stars": 0, "tags": null, "updated_at": 1776759682297, "version": "1.0.0"}, {"category": "content-creation", "created_at": 1773090387011, "description": "Multi-platform social media posting service with automatic provider failover. Handles posting to 9 platforms (Twitter/X, LinkedIn, Instagram, Facebook, TikTo...", "description_zh": "多平台社交媒体发布服务，支持自动故障转移，可发布至9个平台（Twitter/X、LinkedIn、Instagram、Facebook、TikTok等）。", "downloads": 154, "homepage": "https://clawhub.ai/phy041/phy-social-posting", "iconUrl": null, "installs": 8, "name": "Social Posting", "ownerName": "phy041", "score": 27304.96453900709, "slug": "phy-social-posting", "source": "clawhub", "stars": 0, "tags": ["posting", "social-media"], "updated_at": 1776752270051, "version": "1.0.0"}, {"category": "content-creation", "created_at": 1773938506369, "description": "Apply practical UI/UX design principles to improve user interfaces, landing pages, web apps, and components. Use when asked to review, critique, or improve U...", "description_zh": "运用实用的UI/UX设计原则改进用户界面、落地页、Web应用及组件。适用于审查、评估或改进UI/UX的请求。", "downloads": 154, "homepage": "https://clawhub.ai/zacko2o/ui-design-tips", "iconUrl": null, "installs": 19, "name": "UI Design Tips", "ownerName": "zacko2o", "score": 86033.51955307262, "slug": "ui-design-tips", "source": "clawhub", "stars": 0, "tags": null, "updated_at": 1776749571134, "version": "1.1.0"}]}