{"page": 508, "total_pages": 685, "total": 34217, "skills": [{"category": "ai-intelligence", "created_at": 1773927058083, "description": "Get AI ecosystem intelligence from AgentWyre. Use when you need to check for breaking changes, security vulnerabilities, new model releases, or pricing updat...", "description_zh": "从 AgentWyre 获取 AI 生态情报。当需要检查重大变更、安全漏洞、新模型发布或价格更新时使用。", "downloads": 90, "homepage": "https://clawhub.ai/tcd004/agentwyre", "iconUrl": null, "installs": 7, "name": "AgentWyre", "ownerName": "tcd004", "score": 97826.08695652174, "slug": "agentwyre", "source": "clawhub", "stars": 0, "tags": null, "updated_at": 1776695984002, "version": "1.0.0"}, {"category": "", "created_at": 1775192587135, "description": "", "description_zh": "CoPaw 多智能体协作技能 — 快速搭建、配置和管理多智能体协作系统。支持智能体创建、互信配置、任务分发、协作对话、结果汇总等功能。", "downloads": 90, "homepage": "https://clawhub.ai/user_e0f982a4/multi-agent-copaw", "iconUrl": null, "installs": 7, "name": "CoPaw 多智能体协作", "ownerName": "user_e0f982a4", "score": 97826.08695652174, "slug": "multi-agent-copaw", "source": "community", "stars": 0, "tags": null, "updated_at": 1776695983973, "version": "2.0.0"}, {"category": "productivity", "created_at": 1773931935289, "description": "Schedule personalized AI wake-up phone calls via wake.meup.ai. Use when a user wants to be woken up by a phone call, schedule morning calls, or set up recurr...", "description_zh": "通过 wake.meup.ai 安排个性化 AI 叫醒电话，适用于电话唤醒、晨间呼叫及重复提醒场景。", "downloads": 90, "homepage": "https://clawhub.ai/brianium/wake-meup-ai", "iconUrl": null, "installs": 7, "name": "Wake Up", "ownerName": "brianium", "score": 97826.08695652174, "slug": "wake-meup-ai", "source": "clawhub", "stars": 0, "tags": ["wake up calls", "x402"], "updated_at": 1776695983954, "version": "1.3.0"}, {"category": "developer-tools", "created_at": 1773430842466, "description": "Google Workspace CLI for Gmail, Calendar, Drive, Contacts, Sheets, and Docs.", "description_zh": "Google Workspace 命令行工具，支持 Gmail、日历、云端硬盘、联系人、表格和文档。", "downloads": 90, "homepage": "https://clawhub.ai/yueyongyue/saltshaer", "iconUrl": null, "installs": 0, "name": "saltshaer", "ownerName": "yueyongyue", "score": 97826.08695652174, "slug": "saltshaer", "source": "clawhub", "stars": 0, "tags": null, "updated_at": 1776695983942, "version": "1.0.1"}, {"category": "developer-tools", "created_at": 1773941098691, "description": "Reference tool for devtools — covers intro, quickstart, patterns and more. Quick lookup for Encode concepts, best practices, and implementation patterns.", "description_zh": "开发工具参考工具——涵盖入门、快速启动、模式等。快速查阅 Encode 概念、最佳实践及实现模式。", "downloads": 90, "homepage": "https://clawhub.ai/bytesagain3/encode", "iconUrl": null, "installs": 7, "name": "Encode", "ownerName": "bytesagain3", "score": 97826.08695652174, "slug": "encode", "source": "clawhub", "stars": 0, "tags": null, "updated_at": 1776695983936, "version": "2.0.5"}, {"category": "communication-collaboration", "created_at": 1773922254322, "description": "Sends email via uSpeedo's sending channel (platform API with verified/parsed domain), not via the user's own mailbox or SMTP. Use when the user asks the Agen...", "description_zh": "通过uSpeedo平台API（已验证域名）发送邮件，非用户自有邮箱或SMTP。当用户要求...时使用。", "downloads": 90, "homepage": "https://clawhub.ai/code-by-ai/uspeedo-email-sending-channel", "iconUrl": null, "installs": 4, "name": "Uspeedo Email Sending Channel", "ownerName": "code-by-ai", "score": 97826.08695652174, "slug": "uspeedo-email-sending-channel", "source": "clawhub", "stars": 0, "tags": null, "updated_at": 1776695983904, "version": "1.0.2"}, {"category": "content-creation", "created_at": 1773434764046, "description": "Generate multiple UGC script variants from one base script while keeping key product facts and compliance boundaries. Use when teams need fast creative diver...", "description_zh": "从一个基础脚本生成多个UGC脚本变体，保持关键产品事实和合规边界，适用于团队需要快速创意多样化。", "downloads": 90, "homepage": "https://clawhub.ai/leooooooow/ugc-variants-generator", "iconUrl": null, "installs": 5, "name": "Ugc Variants Generator", "ownerName": "leooooooow", "score": 91836.73469387756, "slug": "ugc-variants-generator", "source": "clawhub", "stars": 0, "tags": null, "updated_at": 1776695983840, "version": "1.0.0"}, {"category": "developer-tools", "created_at": 1773433755435, "description": "Route HTTP traffic through Space Router residential IP proxy network.", "description_zh": "通过 Space Router 住宅 IP 代理网络路由 HTTP 流量。", "downloads": 90, "homepage": "https://clawhub.ai/taelimoh/spacerouter", "iconUrl": null, "installs": 10, "name": "SpaceRouter", "ownerName": "taelimoh", "score": 91836.73469387756, "slug": "spacerouter", "source": "clawhub", "stars": 0, "tags": null, "updated_at": 1776695983766, "version": "0.1.1"}, {"category": "ai-intelligence", "created_at": 1773433388638, "description": "Deep research on any topic with structured findings and recommendations", "description_zh": "深入研究任何主题，提供结构化发现与建议。", "downloads": 90, "homepage": "https://clawhub.ai/cyberforexblockchain/nexus-research", "iconUrl": null, "installs": 8, "name": "NEXUS Research", "ownerName": "cyberforexblockchain", "score": 91836.73469387756, "slug": "nexus-research", "source": "clawhub", "stars": 0, "tags": null, "updated_at": 1776695983751, "version": "1.0.0"}, {"category": "", "created_at": 1774862703925, "description": "generate an image, create a picture, draw something, make an image of, text to image, paint a picture, illustrate, visualize, local image generation, AI art,...", "description_zh": "生成", "downloads": 90, "homepage": "https://clawhub.ai/juan-oy/local-image-gen-aipc", "iconUrl": null, "installs": 2, "name": "Local image generation with OpenVINO (no API key)", "ownerName": "juan-oy", "score": 93750, "slug": "local-image-gen-aipc", "source": "clawhub", "stars": 0, "tags": null, "updated_at": 1776695983705, "version": "1.0.2"}, {"category": "communication-collaboration", "created_at": 1773918612719, "description": "P2P wagering on Solana — challenge other AI agents to coinflip and dice games for USDC. Create challenges, accept open challenges, check results, and manage...", "description_zh": "Solana链上P2P投注，使用USDC与AI代理进行猜硬币和掷骰子对战。支持创建挑战、接受公开挑战、查看结果及管理...", "downloads": 90, "homepage": "https://clawhub.ai/lifestylearb/tokenmonkey-skill", "iconUrl": null, "installs": 5, "name": "Tokenmonkey Skill", "ownerName": "lifestylearb", "score": 93750, "slug": "tokenmonkey-skill", "source": "clawhub", "stars": 0, "tags": null, "updated_at": 1776695983687, "version": "1.0.0"}, {"category": "productivity", "created_at": 1773432396164, "description": "LeadIQ integration. Manage Leads, Persons, Organizations, Accounts, Activities, Notes and more. Use when the user wants to interact with LeadIQ data.", "description_zh": "LeadIQ 集成。管理潜在客户、人员、组织、账户、活动、笔记等数据。适用于用户需要与 LeadIQ 数据交互的场景。", "downloads": 90, "homepage": "https://clawhub.ai/gora050/leadiq", "iconUrl": null, "installs": 2, "name": "Leadiq", "ownerName": "gora050", "score": 93750, "slug": "leadiq", "source": "clawhub", "stars": 0, "tags": null, "updated_at": 1776695983674, "version": "1.0.0"}, {"category": "ai-intelligence", "created_at": 1773434960787, "description": "Manage skills for visual understanding: register, list, invoke, and delete detection skills. Supports person detection, pedestrian counting, vehicle recognit...", "description_zh": "管理视觉理解技能：注册、列举、调用及删除检测技能，支持人员检测、行人计数、车辆识别等。", "downloads": 90, "homepage": "https://clawhub.ai/linpower/bd-test", "iconUrl": null, "installs": 5, "name": "bd test", "ownerName": "linpower", "score": 93750, "slug": "bd-test", "source": "clawhub", "stars": 0, "tags": null, "updated_at": 1776695983670, "version": "0.0.1"}, {"category": "", "created_at": 1774877442608, "description": "将用户的加法请求转换为乘法计算并返回结果，适合开玩笑和活跃气氛。", "description_zh": "将用户的加法请求转换为乘法计算并返回结果，适合开玩笑和活跃气氛。", "downloads": 89, "homepage": "https://clawhub.ai/meya-team/math-trick", "iconUrl": null, "installs": 16, "name": "一个有趣的数学技能，把用户的加法问题\"恶作剧\"式地改成乘法计算。用户输入 3+5，输出 15（3×5 的结果）。适合开玩笑和活跃气氛！", "ownerName": "meya-team", "score": 208.4943893925551, "slug": "math-trick", "source": "clawhub", "stars": 0, "tags": null, "updated_at": 1776770114608, "version": "1.0.0"}, {"category": "", "created_at": 1774890657666, "description": "Multi-round review skill for Chinese management-oriented master's theses, especially MBA, MEM, and MPA, with applicability to similar professional and applie...", "description_zh": "适用于同类专业和应用领域的管理类硕士论文（尤其是MBA、MEM、MPA）的多轮审稿技巧", "downloads": 89, "homepage": "https://clawhub.ai/wmpluto/academic-thesis-review", "iconUrl": null, "installs": 28, "name": "Academic Thesis Review", "ownerName": "wmpluto", "score": 1901.3031403546252, "slug": "academic-thesis-review", "source": "clawhub", "stars": 0, "tags": null, "updated_at": 1776763490526, "version": "1.0.0"}, {"category": "", "created_at": 1774902781670, "description": "Expert frontend developer specializing in modern web technologies, React/Vue/Angular frameworks, UI implementation, and performance optimization", "description_zh": "精通现代Web技术、React/Vue/Angular框架、UI实现及性能优化的资深前端开发专家", "downloads": 89, "homepage": "https://clawhub.ai/c050820063/agency-frontend-developer", "iconUrl": null, "installs": 26, "name": "Agency Frontend Developer", "ownerName": "c050820063", "score": 2337.798791699501, "slug": "agency-frontend-developer", "source": "clawhub", "stars": 0, "tags": null, "updated_at": 1776762850797, "version": "1.0.0"}, {"category": "", "created_at": 1775726531022, "description": "", "description_zh": "面向企业客户的一站式业务流程自动化演示 Skill，支持零代码流程搭建、数据同步、报表生成、异常告警等核心能力演示。当用户提到以下场景时触发此技能：销售现场演示、自动化流程搭建、跨系统数据同步（ERP/CRM/OA/Excel）、定时报表生成（销售/财务/运营）、异常自动告警（短信/邮件/企业微信）、行业模板推荐、RPA模拟操作、流程监控日志、即拿即用模板库、客户沟通演示、展会演示、销售培训。触发关键词包括但不限于：OpenClaw、自动化助手、销售演示、流程编排、数据同步、自动报表、异常告警、行业模板、零代码自动化。", "downloads": 89, "homepage": "https://clawhub.ai/user_c35be1a5/openclaw-sales-dashboarddemo-v1", "iconUrl": null, "installs": 28, "name": "OpenClaw 智能自动化助手（销售演示版）v1", "ownerName": "user_c35be1a5", "score": 3058.419243986254, "slug": "openclaw-sales-dashboarddemo-v1", "source": "community", "stars": 0, "tags": null, "updated_at": 1776761840057, "version": "1.1.0"}, {"category": "productivity", "created_at": 1773940384473, "description": "Track daily nutrition intake, hydration, and energy balance against fat-loss, maintenance, or muscle-gain goals. Use when the user wants to log meals, water,...", "description_zh": "追踪每日营养摄入、水分和能量平衡，以达成减脂、维持或增肌目标。用于用户记录饮食、水分时……", "downloads": 89, "homepage": "https://clawhub.ai/harrylabsj/nutrition-balance-tracker", "iconUrl": null, "installs": 7, "name": "Nutrition Balance Tracker", "ownerName": "harrylabsj", "score": 2632.3572907423836, "slug": "nutrition-balance-tracker", "source": "clawhub", "stars": 0, "tags": null, "updated_at": 1776761239851, "version": "1.0.0"}, {"category": "", "created_at": 1775724437786, "description": "", "description_zh": "Generate/edit images with Nano Banana Pro (Gemini 3 Pro Image). Use for image create/modify requests incl. edits. Supports text-to-image + image-to-image; 1K/2K/4K; use --input-image.", "downloads": 89, "homepage": "https://clawhub.ai/user_68c7e960/banana", "iconUrl": null, "installs": 22, "name": "banana", "ownerName": "user_68c7e960", "score": 7080.350039777248, "slug": "banana", "source": "community", "stars": 0, "tags": null, "updated_at": 1776760097977, "version": "1.0.0"}, {"category": "", "created_at": 1774883264000, "description": "Generate cinematic-quality AI videos from text or images using Google Veo 3.1 via the Media.io OpenAPI with your API key.", "description_zh": "通过Media.io OpenAPI，使用您的API密钥调用Google Veo 3.1，将文本或图像生成电影级AI视频。", "downloads": 89, "homepage": "https://clawhub.ai/wondershare-boop/mediaio-google-veo-video-generator", "iconUrl": null, "installs": 11, "name": "Media.io  Google Veo Video Generator", "ownerName": "wondershare-boop", "score": 6947.697111631537, "slug": "mediaio-google-veo-video-generator", "source": "clawhub", "stars": 0, "tags": null, "updated_at": 1776759798286, "version": "1.0.1"}, {"category": "", "created_at": 1774949164477, "description": "Generate customizable avatars in six styles with multi-platform export for social media including WeChat, QQ, Twitter, and Discord.", "description_zh": "生成六种风格的可定制头像，支持微信、QQ、Twitter和Discord等多平台导出", "downloads": 89, "homepage": "https://clawhub.ai/tobewin/avatar-generator", "iconUrl": null, "installs": 2, "name": "Avatar Generator", "ownerName": "tobewin", "score": 6936.8667186282155, "slug": "avatar-generator", "source": "clawhub", "stars": 0, "tags": null, "updated_at": 1776759798158, "version": "1.0.0"}, {"category": "data-analysis", "created_at": 1773951424623, "description": "Authenticate with email and password to fetch and analyze V-Train user exercise and diet data, generating local HTML reports.", "description_zh": "使用邮箱密码认证，获取并分析V-Train用户运动与饮食数据，生成本地HTML报告。", "downloads": 89, "homepage": "https://clawhub.ai/puckguo/v-train-data-skill", "iconUrl": null, "installs": 11, "name": "V-Train_Data", "ownerName": "puckguo", "score": 6936.8667186282155, "slug": "v-train-data-skill", "source": "clawhub", "stars": 0, "tags": null, "updated_at": 1776759798148, "version": "1.0.1"}, {"category": "", "created_at": 1775437417285, "description": "", "description_zh": "日志智能分析工具，基于 mini-swe-agent 极简理念：确定性规则 + AI 推理。", "downloads": 89, "homepage": "https://clawhub.ai/user_00c9b356/buddy-log-analyzer", "iconUrl": null, "installs": 18, "name": "一个会自进化的日志分析工具", "ownerName": "user_00c9b356", "score": 6936.8667186282155, "slug": "buddy-log-analyzer", "source": "community", "stars": 0, "tags": null, "updated_at": 1776759798069, "version": "1.0.0"}, {"category": "ai-intelligence", "created_at": 1773955324833, "description": "提供360智脑公开页面的模型信息、定价和文档摘要，支持内容检索与链接汇总，专注公开数据整理。", "description_zh": "提供360智脑公开页面的模型信息、定价和文档摘要，支持内容检索与链接汇总，专注公开数据整理。", "downloads": 89, "homepage": "https://clawhub.ai/codekungfu/360-zhiniao-hot-trend", "iconUrl": null, "installs": 11, "name": "360 Zhiniao", "ownerName": "codekungfu", "score": 30689.655172413793, "slug": "360-zhiniao-hot-trend", "source": "clawhub", "stars": 0, "tags": null, "updated_at": 1776759798025, "version": "0.1.0"}, {"category": "developer-tools", "created_at": 1773077931217, "description": "Read Twitter/X timeline, bookmarks, and user posts from terminal without API keys", "description_zh": "Read Twitter/X timeline, bookmarks, and user posts from terminal without API keys", "downloads": 89, "homepage": "https://clawhub.ai/jackwener/twitter-cli", "iconUrl": null, "installs": 4, "name": "twitter-cli", "ownerName": "jackwener", "score": 30689.655172413793, "slug": "twitter-cli", "source": "clawhub", "stars": 0, "tags": null, "updated_at": 1776759798006, "version": "0.1.0"}, {"category": "data-analysis", "created_at": 1773951933280, "description": "OpenClaw skill for predict.fun markets, wallet readiness, Predict Account trading, Vault overlay funding, and optional hedge analysis.", "description_zh": "OpenClaw 技能：predict.fun 市场、钱包就绪、Predict Account 交易、Vault 叠加资金及可选对冲分析。", "downloads": 89, "homepage": "https://clawhub.ai/walioo/predictclaw", "iconUrl": null, "installs": 8, "name": "PredictClaw", "ownerName": "walioo", "score": 22361.80904522613, "slug": "predictclaw", "source": "clawhub", "stars": 0, "tags": null, "updated_at": 1776759797937, "version": "0.1.3"}, {"category": "productivity", "created_at": 1773955921390, "description": "Provides periodic progress self-checks with Feishu notifications, task ledger management, auto-reactivation of stale tasks, and summary reporting for OpenClaw.", "description_zh": "为 OpenClaw 提供定期进度自检、飞书通知、任务台账管理、停滞任务自动重启及汇总报告。", "downloads": 89, "homepage": "https://clawhub.ai/ulquoirra/progress-selfcheck", "iconUrl": null, "installs": 5, "name": "progress-selfcheck", "ownerName": "ulquoirra", "score": 6936.8667186282155, "slug": "progress-selfcheck", "source": "clawhub", "stars": 0, "tags": null, "updated_at": 1776759797844, "version": "1.0.0"}, {"category": "", "created_at": 1773285877314, "description": "Parse PDF, DOC, DOCX, and image files to Markdown or JSON using UniDoc API with sync or async mode and automatic status polling.", "description_zh": "使用 UniDoc API 将 PDF、DOC、DOCX 及图片文件解析为 Markdown 或 JSON，支持同步或异步模式及自动状态轮询。", "downloads": 89, "homepage": "https://clawhub.ai/aaiccee/unidoc-parser", "iconUrl": null, "installs": 3, "name": "unisound-doc-parser", "ownerName": "aaiccee", "score": 6953.125, "slug": "unidoc-parser", "source": "clawhub", "stars": 0, "tags": null, "updated_at": 1776759797777, "version": "1.0.0"}, {"category": "", "created_at": 1774860641349, "description": "Use this skill when the user wants to manage social media content via Lumi — uploading videos, publishing to TikTok/YouTube/Instagram, translating or dubbing...", "description_zh": "当用户希望通过 Lumi 管理社交媒体内容（如上传视频、发布至 TikTok/YouTube/Instagram、翻译或配音）时使用此技能。", "downloads": 89, "homepage": "https://clawhub.ai/jeffery1995/lumi-social-post-ai-dubbling", "iconUrl": null, "installs": 18, "name": "A skill that automates repurposing Chinese social videos (Douyin/Bilibili/Xiaohongshu) to   international platforms (TikTok/YouTube/Instagram) via the Lumi API — handling translation,   AI dubbing, and publishing in one workflow.", "ownerName": "jeffery1995", "score": 6942.277691107644, "slug": "lumi-social-post-ai-dubbling", "source": "clawhub", "stars": 0, "tags": null, "updated_at": 1776759797740, "version": "1.0.0"}, {"category": "", "created_at": 1774862663699, "description": "Architect and deploy advanced LangGraph AI pipelines with stateful graphs, conditional routing, human-in-the-loop, persistence, and streaming execution featu...", "description_zh": "架构与部署高级 LangGraph AI 流水线，具备状态图、条件路由、人机交互、持久化及流式执行功能。", "downloads": 89, "homepage": "https://clawhub.ai/duanc-chao/langgraph", "iconUrl": null, "installs": 4, "name": "LangGraph Tutor", "ownerName": "duanc-chao", "score": 6942.277691107644, "slug": "langgraph", "source": "clawhub", "stars": 0, "tags": null, "updated_at": 1776759797708, "version": "1.0.0"}, {"category": "", "created_at": 1775132230123, "description": "", "description_zh": "AI教育日报 Step 1（资讯获取）。多源搜索近7天资讯，去重评分，生成标准Markdown日报并保存到本地。", "downloads": 89, "homepage": "https://clawhub.ai/user_fe828a0e/ai-news-gather", "iconUrl": null, "installs": 22, "name": "AI 教育日报", "ownerName": "user_fe828a0e", "score": 5450.09185548071, "slug": "ai-news-gather", "source": "community", "stars": 0, "tags": null, "updated_at": 1776756982547, "version": "1.0.0"}, {"category": "", "created_at": 1774774265707, "description": "提供SEO优化的可落地指南与SOP。在开展SEO优化相关工作时调用。", "description_zh": "提供SEO优化的可落地指南与SOP。在开展SEO优化相关工作时调用。", "downloads": 89, "homepage": "https://clawhub.ai/codekungfu/seo-optimization", "iconUrl": null, "installs": 18, "name": "SEO优化", "ownerName": "codekungfu", "score": 5371.152685576343, "slug": "seo-optimization", "source": "clawhub", "stars": 0, "tags": null, "updated_at": 1776756488801, "version": "0.1.0"}, {"category": "", "created_at": 1774864524202, "description": "将音频转文字，并提供 AI 总结、录音要点与发言人区分。 音频转文字：云端转写，支持多格式（mp3/wav/m4a 等）。 AI 总结：自动生成摘要与纪要。 录音要点：章节、待办、推荐等结构化要点。 发言人区分：转写结果带发言人标识，便于会议/对话场景。", "description_zh": "将音频转文字，并提供 AI 总结、录音要点与发言人区分。 音频转文字：云端转写，支持多格式（mp3/wav/m4a 等）。 AI 总结：自动生成摘要与纪要。 录音要点：章节、待办、推荐等结构化要点。 发言人区分：转写结果带发言人标识，便于会议/对话场景。", "downloads": 89, "homepage": "https://clawhub.ai/tinrec-com/tinrec-audio2text", "iconUrl": null, "installs": 29, "name": "Audio2Text", "ownerName": "tinrec-com", "score": 5338.932213557288, "slug": "tinrec-audio2text", "source": "clawhub", "stars": 0, "tags": null, "updated_at": 1776756488538, "version": "1.0.0"}, {"category": "data-analysis", "created_at": 1773949048766, "description": "Run Wyckoff master-style analysis from stock codes, holdings (symbol/cost/qty), cash, CSV data, and optional chart images. Use when users want online multi-s...", "description_zh": "根据股票代码、持仓（代码/成本/数量）、现金、CSV数据及可选图表，执行威科夫大师风格分析。适用于用户需要在线进行多股分析时。", "downloads": 89, "homepage": "https://clawhub.ai/youngcan-wang/wyckoff-a-share", "iconUrl": null, "installs": 16, "name": "Wyckoff Analysis AShare", "ownerName": "youngcan-wang", "score": 5263.157894736842, "slug": "wyckoff-a-share", "source": "clawhub", "stars": 0, "tags": null, "updated_at": 1776756188488, "version": "1.0.0"}, {"category": "", "created_at": 1774915983347, "description": "从小红书笔记图片提取结构化数据（租金/面积/单价等），自动裁切长图 + OCR 识别 + 导出 Excel。 使用 Apple Vision 框架进行离线 OCR，支持中文识别。 Use when: 用户需要从小红书/社交媒体图片提取表格数据、价格信息、统计数据等。", "description_zh": "从小红书笔记图片提取结构化数据（租金/面积/单价等），自动裁切长图 + OCR 识别 + 导出 Excel。 使用 Apple Vision 框架进行离线 OCR，支持中文识别。 Use when: 用户需要从小红书/社交媒体图片提取表格数据、价格信息、统计数据等。", "downloads": 89, "homepage": "https://clawhub.ai/yangkai258/xhs-rental-ocr", "iconUrl": null, "installs": 21, "name": "Xhs Rental Ocr", "ownerName": "yangkai258", "score": 15033.783783783783, "slug": "xhs-rental-ocr", "source": "clawhub", "stars": 0, "tags": null, "updated_at": 1776750169688, "version": "1.0.0"}, {"category": "", "created_at": 1774909186721, "description": "Create polished, editable SVG cover artwork for reports, articles, slide decks, social cards, ebook covers, posters, and landing-page hero images. Use when a...", "description_zh": "为报告、文章、幻灯片、社交卡片、电子书封面、海报及落地页主视觉创建精美且可编辑的SVG封面图。适用于需要...", "downloads": 89, "homepage": "https://clawhub.ai/nimachu/svg-cover-generator", "iconUrl": null, "installs": 13, "name": "Svg Cover Generator", "ownerName": "nimachu", "score": 90816.32653061225, "slug": "svg-cover-generator", "source": "clawhub", "stars": 0, "tags": null, "updated_at": 1776742669632, "version": "0.1.0"}, {"category": "", "created_at": 1774915989019, "description": "Create, inspect, and edit Microsoft Word documents and DOCX files with reliable styles, numbering, tracked changes, tables, sections, and compatibility check...", "description_zh": "创建、检查和编辑 Microsoft Word 文档及 DOCX 文件，支持样式、编号、修订记录、表格、分节符及兼容性检查等功能。", "downloads": 89, "homepage": "https://clawhub.ai/linbo405/xiaomolong-word-docx", "iconUrl": null, "installs": 24, "name": "Word DOCX by Xiaomolong", "ownerName": "linbo405", "score": 94680.85106382979, "slug": "xiaomolong-word-docx", "source": "clawhub", "stars": 0, "tags": ["document", "docx", "office", "word"], "updated_at": 1776741163869, "version": "1.0.0"}, {"category": "", "created_at": 1774847052204, "description": "Screen and evaluate resumes against criteria using ZhiPu GLM-V multimodal model. Reads multiple resume files (PDF/DOCX/TXT), compares against user-defined sc...", "description_zh": "使用智谱GLM-V多模态模型按标准筛选评估简历，支持读取PDF/DOCX/TXT格式文件并与用户定义标准对比。", "downloads": 89, "homepage": "https://clawhub.ai/jaredforreal/glmv-resume-screen", "iconUrl": null, "installs": 29, "name": "GLM-V-Resume-Screen", "ownerName": "jaredforreal", "score": 92708.33333333334, "slug": "glmv-resume-screen", "source": "clawhub", "stars": 0, "tags": null, "updated_at": 1776734269648, "version": "1.0.1"}, {"category": "", "created_at": 1775466182825, "description": "", "description_zh": "分析A股市场温度指标，通过估值温度、恐贪指数、趋势温度、动量温度判断市场冷热程度。触发词：市场温度、市场估值、恐贪指数、市场情绪、趋势温度、动量温度。适用场景：判断市场整体冷热、识别买卖信号、情绪分析、估值分析。不适用场景：个股分析、板块分析、债券分析。", "downloads": 89, "homepage": "https://clawhub.ai/user_506878eb/xiapi-market-temperature", "iconUrl": null, "installs": 17, "name": "虾皮市场温度分析", "ownerName": "user_506878eb", "score": 85576.92307692308, "slug": "xiapi-market-temperature", "source": "community", "stars": 0, "tags": null, "updated_at": 1776727069590, "version": "1.0.3"}, {"category": "", "created_at": 1774900978374, "description": "ClawHub's free-video-editor skill lets you edit videos through plain conversation — no timelines, no software installs. Trim dead air, cut specific scenes, m...", "description_zh": "ClawHub 免费视频编辑技能让您通过简单的对话来编辑视频——无需时间线，无需安装软件。裁剪冗余片段、剪切特定场景、...", "downloads": 89, "homepage": "https://clawhub.ai/peandrover/free-video-editor", "iconUrl": null, "installs": 5, "name": "Free Video Editor", "ownerName": "peandrover", "score": 85576.92307692308, "slug": "free-video-editor", "source": "clawhub", "stars": 0, "tags": null, "updated_at": 1776724783649, "version": "1.0.2"}, {"category": "productivity", "created_at": 1773933379083, "description": "Perform mathematical calculations and unit conversions. Use when the user needs to calculate expressions, convert units (length, mass, temperature, volume, a...", "description_zh": "执行数学计算与单位换算（长度、质量、温度、体积等），适用于表达式计算及单位转换。", "downloads": 89, "homepage": "https://clawhub.ai/wushengbing/wentianxe-calculator", "iconUrl": null, "installs": 2, "name": "Calculator", "ownerName": "wushengbing", "score": 91752.57731958762, "slug": "wentianxe-calculator", "source": "clawhub", "stars": 0, "tags": null, "updated_at": 1776696004815, "version": "1.0.0"}, {"category": "communication-collaboration", "created_at": 1773432801813, "description": "Reply.io integration. Manage Persons, Organizations, Leads, Activities, Notes, Files and more. Use when the user wants to interact with Reply.io data.", "description_zh": "Reply.io 集成，支持管理人员、组织、线索、活动、笔记、文件等，用于与 Reply.io 数据交互。", "downloads": 89, "homepage": "https://clawhub.ai/gora050/replyio", "iconUrl": null, "installs": 3, "name": "Replyio", "ownerName": "gora050", "score": 91752.57731958762, "slug": "replyio", "source": "clawhub", "stars": 0, "tags": null, "updated_at": 1776696004814, "version": "1.0.0"}, {"category": "productivity", "created_at": 1773925244645, "description": "Call 1500+ tools (from 134+ MCP Servers) via curl — zero install. Tool-level semantic search returns full inputSchema in one step for immediate invocation. C...", "description_zh": "通过 curl 调用 1500+ 工具（来自 134+ MCP 服务器），无需安装。工具级语义搜索一步返回完整 inputSchema，即时调用。 C...", "downloads": 89, "homepage": "https://clawhub.ai/xray918/uno", "iconUrl": null, "installs": 3, "name": "uno", "ownerName": "xray918", "score": 91752.57731958762, "slug": "uno", "source": "clawhub", "stars": 0, "tags": null, "updated_at": 1776696004791, "version": "2.0.0"}, {"category": "productivity", "created_at": 1773430377406, "description": "Ukg Pro HCM integration. Manage Persons, Organizations, Jobs, Benefits, Payrolls, TimeOffs and more. Use when the user wants to interact with Ukg Pro HCM data.", "description_zh": "Ukg Pro HCM集成，管理员工、组织、岗位、福利、薪资、请假等数据。适用于用户需要与 Ukg Pro HCM 数据交互的场景。", "downloads": 89, "homepage": "https://clawhub.ai/membranedev/ukg-pro-hcm", "iconUrl": null, "installs": 4, "name": "Ukg Pro Hcm", "ownerName": "membranedev", "score": 91752.57731958762, "slug": "ukg-pro-hcm", "source": "clawhub", "stars": 0, "tags": null, "updated_at": 1776696004702, "version": "1.0.0"}, {"category": "productivity", "created_at": 1773434477401, "description": "Apply Gmail labels to matching messages and archive them to keep your inbox clean.", "description_zh": "为匹配的邮件应用Gmail标签并归档，保持收件箱整洁。", "downloads": 89, "homepage": "https://clawhub.ai/googleworkspace-bot/recipe-label-and-archive-emails", "iconUrl": null, "installs": 6, "name": "Recipe Label And Archive Emails", "ownerName": "googleworkspace-bot", "score": 91752.57731958762, "slug": "recipe-label-and-archive-emails", "source": "clawhub", "stars": 0, "tags": null, "updated_at": 1776696004698, "version": "1.0.10"}, {"category": "productivity", "created_at": 1773940526419, "description": "迅雷（重定向到 xunlei 技能）", "description_zh": "迅雷（重定向到 xunlei 技能）", "downloads": 89, "homepage": "https://clawhub.ai/zhangifonly/thunder", "iconUrl": null, "installs": 10, "name": "Thunder", "ownerName": "zhangifonly", "score": 91752.57731958762, "slug": "thunder", "source": "clawhub", "stars": 0, "tags": null, "updated_at": 1776696004685, "version": "1.0.0"}, {"category": "content-creation", "created_at": 1773961078330, "description": "Transform raw text into a clean voiceover-ready script for narration or TTS.", "description_zh": "将原始文本转换为适合配音或TTS的干净旁白脚本", "downloads": 89, "homepage": "https://clawhub.ai/yvette1226/ttsstudio-skill-voice-script", "iconUrl": null, "installs": 29, "name": "text-to-voiceover-script", "ownerName": "yvette1226", "score": 91752.57731958762, "slug": "ttsstudio-skill-voice-script", "source": "clawhub", "stars": 0, "tags": ["ai", "script", "tts", "voiceover"], "updated_at": 1776696004652, "version": "1.0.0"}, {"category": "communication-collaboration", "created_at": 1773433757292, "description": "Stormboard integration. Manage Organizations. Use when the user wants to interact with Stormboard data.", "description_zh": "Stormboard集成。管理组织。用于与Stormboard数据交互。", "downloads": 89, "homepage": "https://clawhub.ai/membranedev/stormboard", "iconUrl": null, "installs": 3, "name": "Stormboard", "ownerName": "membranedev", "score": 96739.13043478261, "slug": "stormboard", "source": "clawhub", "stars": 0, "tags": null, "updated_at": 1776696004646, "version": "1.0.0"}, {"category": "productivity", "created_at": 1773432401861, "description": "Linkish integration. Manage Organizations. Use when the user wants to interact with Linkish data.", "description_zh": "Linkish 集成，管理组织，用于与 Linkish 数据交互。", "downloads": 89, "homepage": "https://clawhub.ai/gora050/linkish", "iconUrl": null, "installs": 3, "name": "Linkish", "ownerName": "gora050", "score": 96739.13043478261, "slug": "linkish", "source": "clawhub", "stars": 0, "tags": null, "updated_at": 1776695984598, "version": "1.0.0"}, {"category": "data-analysis", "created_at": 1773939844892, "description": "Complete Binance integration - world's largest crypto exchange. Trade spot, futures with up to 125x leverage, staking, and portfolio management. Use to check...", "description_zh": "币安全功能集成，全球最大加密货币交易所。支持现货、125倍杠杆合约、质押及资产管理。", "downloads": 89, "homepage": "https://clawhub.ai/0xspeter/binance-pro-1-0-0", "iconUrl": null, "installs": 13, "name": "Binance Pro 1.0.0", "ownerName": "0xspeter", "score": 96739.13043478261, "slug": "binance-pro-1-0-0", "source": "clawhub", "stars": 0, "tags": null, "updated_at": 1776695984595, "version": "1.0.0"}]}