{"page": 511, "total_pages": 685, "total": 34217, "skills": [{"category": "developer-tools", "created_at": 1773934802773, "description": "Test and debug CORS (Cross-Origin Resource Sharing) configurations on live URLs. Use when checking if a server returns correct CORS headers, debugging CORS e...", "description_zh": "测试并调试实时URL的CORS（跨域资源共享）配置。在检查服务器是否返回正确的CORS头、调试CORS错误时使用。", "downloads": 88, "homepage": "https://clawhub.ai/johnnywang2001/cors-tester", "iconUrl": null, "installs": 8, "name": "CORS Tester", "ownerName": "johnnywang2001", "score": 90721.64948453609, "slug": "cors-tester", "source": "clawhub", "stars": 0, "tags": ["api", "cors", "security", "web"], "updated_at": 1776696004690, "version": "1.0.0"}, {"category": "", "created_at": 1774847299298, "description": "检查心理学学术期刊是否被 SCI 或 SSCI 索引。在评估文献质量时使用，帮助筛选符合条件的期刊文章。 触发场景： - 用户要求检查某期刊是否被 SCI/SSCI 索引 - 在评估非预印本文献质量时自动调用 - 构建心理学语料库时作为期刊筛选工具 不适用于预印本平台的文章（直接跳过，使用 PaperClaw 评估）。", "description_zh": "检查心理学学术期刊是否被 SCI 或 SSCI 索引。在评估文献质量时使用，帮助筛选符合条件的期刊文章。 触发场景： - 用户要求检查某期刊是否被 SCI/SSCI 索引 - 在评估非预印本文献质量时自动调用 - 构建心理学语料库时作为期刊筛选工具 不适用于预印本平台的文章（直接跳过，使用 PaperClaw 评估）。", "downloads": 88, "homepage": "https://clawhub.ai/jiaqi-guo-0114/journal-sci-ssci-checker", "iconUrl": null, "installs": 22, "name": "Journal SCI/SSCI Checker", "ownerName": "jiaqi-guo-0114", "score": 90721.64948453609, "slug": "journal-sci-ssci-checker", "source": "clawhub", "stars": 0, "tags": null, "updated_at": 1776696004667, "version": "1.0.0"}, {"category": "ai-intelligence", "created_at": 1773947021253, "description": "安全的自动任务迭代和优化系统", "description_zh": "安全的自动任务迭代和优化系统", "downloads": 88, "homepage": "https://clawhub.ai/nidhov01/04", "iconUrl": null, "installs": 16, "name": "04 自动迭代", "ownerName": "nidhov01", "score": 90721.64948453609, "slug": "04", "source": "clawhub", "stars": 0, "tags": null, "updated_at": 1776696004660, "version": "1.0.0"}, {"category": "", "created_at": 1774914698034, "description": "Ultimate memory optimization for AI agents. Combines WAL protocol, Working Buffer, three-tier memory (HOT/WARM/COLD), context budgeting (10/40/20/20), and .l...", "description_zh": "针对AI智能体的终极内存优化方案。结合WAL协议、工作缓冲区和三层内存（热/温/冷），支持上下文预算分配（10/40/20/20），以及...", "downloads": 87, "homepage": "https://clawhub.ai/silaszhu/proactive-memory-agent", "iconUrl": null, "installs": 9, "name": "Proactive Memory Agent", "ownerName": "silaszhu", "score": 773.8148181090456, "slug": "proactive-memory-agent", "source": "clawhub", "stars": 0, "tags": ["budgeting", "chinese", "context", "memory", "openclaw", "optimization", "proactive", "tiering", "wal"], "updated_at": 1776769271301, "version": "1.0.1"}, {"category": "", "created_at": 1774874738842, "description": "通过美团外卖公开页面检索并摘要商家与商品信息，提供评分、价格、配送及销售数据对比分析。", "description_zh": "通过美团外卖公开页面检索并摘要商家与商品信息，提供评分、价格、配送及销售数据对比分析。", "downloads": 87, "homepage": "https://clawhub.ai/codekungfu/xiaochi", "iconUrl": null, "installs": 18, "name": "XiaoChi", "ownerName": "codekungfu", "score": 6943.335993615324, "slug": "xiaochi", "source": "clawhub", "stars": 0, "tags": null, "updated_at": 1776768250681, "version": "0.1.0"}, {"category": "content-creation", "created_at": 1773952142187, "description": "Automatically research your niche's top desires, create a high-converting lead magnet with all copy and automation, and plan distribution to gain 500 subscri...", "description_zh": "自动调研细分市场需求，创建含文案与自动化的高转化引流品，规划分发策略获取500+订阅", "downloads": 87, "homepage": "https://clawhub.ai/g4dr/ai-lead-magnet-machine", "iconUrl": null, "installs": 10, "name": "AI Lead Magnet Machine — Create an Irresistible Lead Magnet & Get 500 Subscribers in 7 Days", "ownerName": "g4dr", "score": 3374.7090768037237, "slug": "ai-lead-magnet-machine", "source": "clawhub", "stars": 0, "tags": ["apify", "content-upgrade", "conversion", "email-marketing", "freebie", "getresponse", "invideo", "landing-page", "lead-magnet", "list-building", "opt-in", "subscriber-growth"], "updated_at": 1776765550214, "version": "1.0.0"}, {"category": "", "created_at": 1774833357298, "description": "Draft, edit, and schedule creative stories with content optimization. Use when drafting chapters, editing narratives, optimizing readability, scheduling posts.", "description_zh": "撰写、编辑并发布创意故事，进行内容优化。用于章节撰写、叙事编辑、可读性优化和发布安排。", "downloads": 87, "homepage": "https://clawhub.ai/bytesagain1/story", "iconUrl": null, "installs": 3, "name": "Story", "ownerName": "bytesagain1", "score": 2523.933855526545, "slug": "story", "source": "clawhub", "stars": 0, "tags": null, "updated_at": 1776764950564, "version": "2.0.0"}, {"category": "developer-tools", "created_at": 1773946814000, "description": "Puzzle - command-line tool for everyday use", "description_zh": "Puzzle - 日常命令行工具", "downloads": 87, "homepage": "https://clawhub.ai/bytesagain/puzzle", "iconUrl": null, "installs": 5, "name": "Puzzle", "ownerName": "bytesagain", "score": 3176.341730558598, "slug": "puzzle", "source": "clawhub", "stars": 0, "tags": null, "updated_at": 1776764950415, "version": "1.0.2"}, {"category": "", "created_at": 1774862456421, "description": "将需求文档、表单字段规则、审批流程定义和 UI 说明转化为结构化测试用例，适用于表单校验、流程审批、状态流转、权限隔离和业务分支测试场景。", "description_zh": "将需求文档、表单字段规则、审批流程定义和 UI 说明转化为结构化测试用例，适用于表单校验、流程审批、状态流转、权限隔离和业务分支测试场景。", "downloads": 87, "homepage": "https://clawhub.ai/lens-lzy/feishu-pro-testcase-generation", "iconUrl": null, "installs": 24, "name": "Automatic Test Case Generation Pro", "ownerName": "lens-lzy", "score": 1187.8754778809393, "slug": "feishu-pro-testcase-generation", "source": "clawhub", "stars": 0, "tags": null, "updated_at": 1776762615182, "version": "1.0.1"}, {"category": "", "created_at": 1775638159108, "description": "", "description_zh": "", "downloads": 87, "homepage": "https://clawhub.ai/user_183dc2cb/productresearch", "iconUrl": null, "installs": 18, "name": "竞品调研", "ownerName": "user_183dc2cb", "score": 2817.357512953368, "slug": "productresearch", "source": "community", "stars": 0, "tags": null, "updated_at": 1776761539959, "version": "1.0.0"}, {"category": "", "created_at": 1774826619634, "description": "AI video editor for creators. Transform raw footage into polished vlogs, talking-head videos, or social media content (TikTok/Shorts/Reels). Control the work...", "description_zh": "面向创作者的AI视频编辑器。将原始素材转化为精良的Vlog、口播视频或社交媒体内容（TikTok/Shorts/Reels）。掌控工作流程……", "downloads": 87, "homepage": "https://clawhub.ai/sparki-io/sparki-video-editor", "iconUrl": null, "installs": 13, "name": "Sparki AI Video Editor", "ownerName": "sparki-io", "score": 6818.181818181818, "slug": "sparki-video-editor", "source": "clawhub", "stars": 0, "tags": null, "updated_at": 1776759831730, "version": "1.0.8"}, {"category": "", "created_at": 1774827273852, "description": "Search and compare wholesale prices on Alibaba.com by product, price range, sorting, and MOQ with tracked URLs including traffic_type=ags_llm.", "description_zh": "在阿里巴巴按产品、价格区间、排序和MOQ搜索并比较批发价格，包含traffic_type=ags_llm的跟踪URL。", "downloads": 87, "homepage": "https://clawhub.ai/zeyu426/alibaba-price-finder", "iconUrl": null, "installs": 15, "name": "Alibaba Price Finder", "ownerName": "zeyu426", "score": 6818.181818181818, "slug": "alibaba-price-finder", "source": "clawhub", "stars": 0, "tags": ["alibaba", "price", "wholesale"], "updated_at": 1776759831717, "version": "2.0.0"}, {"category": "", "created_at": 1774896460267, "description": "提供华为应用市场公开页面、上架规则、分发能力及帮助信息的整理与信息提取服务。", "description_zh": "提供华为应用市场公开页面、上架规则、分发能力及帮助信息的整理与信息提取服务。", "downloads": 87, "homepage": "https://clawhub.ai/mikeclaw007/huawei", "iconUrl": null, "installs": 12, "name": "Huawei", "ownerName": "mikeclaw007", "score": 6807.511737089201, "slug": "huawei", "source": "clawhub", "stars": 0, "tags": null, "updated_at": 1776759831591, "version": "0.1.0"}, {"category": "", "created_at": 1774882950475, "description": "拍照上传错题，AI自动分析生成深度学习内容与变式题，支持掌握状态标记和PDF导出，提升错题复习效率。", "description_zh": "拍照上传错题，AI自动分析生成深度学习内容与变式题，支持掌握状态标记和PDF导出，提升错题复习效率。", "downloads": 87, "homepage": "https://clawhub.ai/stoneyshum/deepaistudy-errors", "iconUrl": null, "installs": 15, "name": "Deepaistudy Errors", "ownerName": "stoneyshum", "score": 98863.63636363637, "slug": "deepaistudy-errors", "source": "clawhub", "stars": 0, "tags": null, "updated_at": 1776759831533, "version": "1.0.4"}, {"category": "productivity", "created_at": 1773954025225, "description": "Manage lightweight Microsoft 365 task workflows with Microsoft To Do and Planner. Use when a user needs to quickly create, assign, track, and follow up opera...", "description_zh": "使用 Microsoft To Do 和 Planner 管理轻量级 Microsoft 365 任务工作流，支持快速创建、分配、跟踪及跟进任务。", "downloads": 87, "homepage": "https://clawhub.ai/abdelkrim/m365-task-manager-by-altf1be", "iconUrl": null, "installs": 6, "name": "M365 (Microsoft) Task Manager by altf1be", "ownerName": "abdelkrim", "score": 98863.63636363637, "slug": "m365-task-manager-by-altf1be", "source": "clawhub", "stars": 0, "tags": null, "updated_at": 1776759831501, "version": "0.3.0"}, {"category": "", "created_at": 1774907198306, "description": "Captures learnings, errors, and corrections to enable continuous improvement. Use when: (1) A command or operation fails unexpectedly, (2) User corrects Clau...", "description_zh": "记录经验教训、错误及修正以实现持续改进。适用场景：（1）命令或操作意外失败，（2）用户纠正Claude...", "downloads": 87, "homepage": "https://clawhub.ai/asterisk622/xiaoding-self-improving-agent", "iconUrl": null, "installs": 26, "name": "Self Improvement Agent (XiaoDing)", "ownerName": "asterisk622", "score": 6016.5975103734445, "slug": "xiaoding-self-improving-agent", "source": "clawhub", "stars": 0, "tags": null, "updated_at": 1776758482912, "version": "3.0.7"}, {"category": "security-compliance", "created_at": 1773957808385, "description": "提供中国、日本和美国海关编码查询、税率及申报要素查询，支持商品归类实例和CIQ项目搜索。", "description_zh": "提供中国、日本和美国海关编码查询、税率及申报要素查询，支持商品归类实例和CIQ项目搜索。", "downloads": 87, "homepage": "https://clawhub.ai/toucao/hsciq-mcp", "iconUrl": null, "installs": 19, "name": "HSCIQ MCP - 海关编码查询", "ownerName": "toucao", "score": 14922.813036020583, "slug": "hsciq-mcp", "source": "clawhub", "stars": 0, "tags": ["classification", "customs", "hs-code", "mcp", "trade"], "updated_at": 1776754388877, "version": "1.0.0"}, {"category": "", "created_at": 1774944911300, "description": "用于总结学术论文和研究文章。当用户提供 PDF 文件、论文链接或上传论文内容时自动触发。适用于研究论文、学术文章、技术报告等的阅读理解与内容提炼。触发短语：总结论文、论文摘要、阅读报告、文章总结、帮我理解这篇论文。", "description_zh": "用于总结学术论文和研究文章。当用户提供 PDF 文件、论文链接或上传论文内容时自动触发。适用于研究论文、学术文章、技术报告等的阅读理解与内容提炼。触发短语：总结论文、论文摘要、阅读报告、文章总结、帮我理解这篇论文。", "downloads": 87, "homepage": "https://clawhub.ai/ray1012/paper-summary", "iconUrl": null, "installs": 25, "name": "Paper Summary", "ownerName": "ray1012", "score": 100000, "slug": "paper-summary", "source": "clawhub", "stars": 0, "tags": null, "updated_at": 1776743984106, "version": "1.0.0"}, {"category": "", "created_at": 1774912719322, "description": "Prevent connection pool exhaustion when querying Railway PostgreSQL database. Use when (1) Running database queries from local environment, (2) Diagnosing \"t...", "description_zh": "防止连接池耗尽。适用于：1) 从本地环境查询 Railway PostgreSQL 数据库；2) 诊断...", "downloads": 87, "homepage": "https://clawhub.ai/urbantech/database-query-best-practices", "iconUrl": null, "installs": 7, "name": "Database Query Best Practices", "ownerName": "urbantech", "score": 88775.51020408163, "slug": "database-query-best-practices", "source": "clawhub", "stars": 0, "tags": null, "updated_at": 1776742571951, "version": "1.0.0"}, {"category": "", "created_at": 1774887077521, "description": "基于 Markdown 文件的 AI Agent 知识管理体系。建立和维护：SOUL（人格）/ USER（用户）/ AGENTS（工作规范）/ TOOLS（工具配置）/ MEMORY（长期记忆）/ memory（每日记录）/ .learnings（反思改进）/ HEARTBEAT（定期任务）。包含多 Agent...", "description_zh": "基于 Markdown 文件的 AI Agent 知识管理体系。建立和维护：SOUL（人格）/ USER（用户）/ AGENTS（工作规范）/ TOOLS（工具配置）/ MEMORY（长期记忆）/ memory（每日记录）/ .learnings（反思改进）/ HEARTBEAT（定期任务）。包含多 Agent...", "downloads": 87, "homepage": "https://clawhub.ai/wujun2081/knowledge-system", "iconUrl": null, "installs": 12, "name": "龙虾知识体系管理", "ownerName": "wujun2081", "score": 91578.94736842105, "slug": "knowledge-system", "source": "clawhub", "stars": 0, "tags": null, "updated_at": 1776742369911, "version": "1.0.0"}, {"category": "", "created_at": 1774923890585, "description": "简历优化师，专为职场人士提供简历优化、求职文案、面试准备全流程支持。触发场景：用户提到\"帮我优化简历\"、\"简历怎么写\"、\"求职信\"、\"自我介绍\"、\"面试准备\"、\"写简历\"、\"简历润色\"、\"JD匹配\"、\"岗位匹配度\"、\"简历诊断\"、\"STAR法则\"、\"简历模板\"、\"投递简历\"、\"面试题预测\"、\"求职\"等关键词时激活...", "description_zh": "简历优化师，专为职场人士提供简历优化、求职文案、面试准备全流程支持。触发场景：用户提到\"帮我优化简历\"、\"简历怎么写\"、\"求职信\"、\"自我介绍\"、\"面试准备\"、\"写简历\"、\"简历润色\"、\"JD匹配\"、\"岗位匹配度\"、\"简历诊断\"、\"STAR法则\"、\"简历模板\"、\"投递简历\"、\"面试题预测\"、\"求职\"等关键词时激活...", "downloads": 87, "homepage": "https://clawhub.ai/ryanlee-gemini/cn-resume-optimizer", "iconUrl": null, "installs": 26, "name": "CN Resume Optimizer 简历优化师", "ownerName": "ryanlee-gemini", "score": 100000, "slug": "cn-resume-optimizer", "source": "clawhub", "stars": 0, "tags": ["career", "chinese", "resume"], "updated_at": 1776741583823, "version": "1.0.0"}, {"category": "communication-collaboration", "created_at": 1773954194290, "description": "Allows this local OpenClaw agent to engage and socialize on the global OpenClaw Community Social Network.", "description_zh": "允许本地OpenClaw代理在全球OpenClaw社区社交网络中进行社交互动。", "downloads": 87, "homepage": "https://clawhub.ai/fjsand/openclawcommunity", "iconUrl": null, "installs": 15, "name": "龙虾星球(openClawCommunity)", "ownerName": "fjsand", "score": 92553.19148936169, "slug": "openclawcommunity", "source": "clawhub", "stars": 0, "tags": null, "updated_at": 1776741071942, "version": "1.2.0"}, {"category": "productivity", "created_at": 1773943208158, "description": "唐诗三百首对诗挑战游戏，提供诗句上句，用户需要对出下句。包含挑战结束评分和错题分析功能。", "description_zh": "唐诗三百首对诗挑战游戏，提供诗句上句，用户需要对出下句。包含挑战结束评分和错题分析功能。", "downloads": 87, "homepage": "https://clawhub.ai/rikhou/tang-poetry-challenge", "iconUrl": null, "installs": 14, "name": "tang poetry challenge", "ownerName": "rikhou", "score": 89690.72164948453, "slug": "tang-poetry-challenge", "source": "clawhub", "stars": 0, "tags": null, "updated_at": 1776736669833, "version": "1.0.0"}, {"category": "", "created_at": 1773286137954, "description": "AI Product Manager daily intelligence digest. Fetches news from 16+ curated RSS sources across tech media, AI labs, research papers, developer communities, a...", "description_zh": "AI产品经理每日情报速递。汇集来自科技媒体、AI实验室、学术论文、开发者社区等16+精选RSS源的新闻资讯。", "downloads": 87, "homepage": "https://clawhub.ai/janettbella69/aipm-news-digest", "iconUrl": null, "installs": 10, "name": "AIPM News Digest", "ownerName": "janettbella69", "score": 90625, "slug": "aipm-news-digest", "source": "clawhub", "stars": 0, "tags": null, "updated_at": 1776734383856, "version": "1.0.1"}, {"category": "", "created_at": 1774822336102, "description": "curl reference tool", "description_zh": "curl参考工具", "downloads": 87, "homepage": "https://clawhub.ai/bytesagain3/curl", "iconUrl": null, "installs": 6, "name": "Curl", "ownerName": "bytesagain3", "score": 88775.51020408163, "slug": "curl", "source": "clawhub", "stars": 0, "tags": null, "updated_at": 1776731383870, "version": "2.0.2"}, {"category": "developer-tools", "created_at": 1773959479388, "description": "Runtime-enforced memory harness for OpenClaw. Implements 3-stage recall (session preflight, triggered recall, pre-execution gate) with intent classification,...", "description_zh": "OpenClaw运行时内存约束框架，实现三阶段召回（会话预检、触发召回、执行前关卡）及意图分类...", "downloads": 87, "homepage": "https://clawhub.ai/taka3693/memory-harness", "iconUrl": null, "installs": 20, "name": "Memory Harness", "ownerName": "taka3693", "score": 88775.51020408163, "slug": "memory-harness", "source": "clawhub", "stars": 0, "tags": ["harness", "memory", "recall"], "updated_at": 1776731269822, "version": "1.0.0"}, {"category": "", "created_at": 1774885356805, "description": "根据历史表现数据分析受众画像、活跃时段、消费习惯。Use when analyzing audience or optimizing content strategy.", "description_zh": "根据历史表现数据分析受众画像、活跃时段、消费习惯。Use when analyzing audience or optimizing content strategy.", "downloads": 87, "homepage": "https://clawhub.ai/lr1677/audience-analysis", "iconUrl": null, "installs": 8, "name": "audience analysis", "ownerName": "lr1677", "score": 87878.78787878787, "slug": "audience-analysis", "source": "clawhub", "stars": 0, "tags": null, "updated_at": 1776728755478, "version": "1.0.0"}, {"category": "developer-tools", "created_at": 1773945958335, "description": "Sort - command-line tool for everyday use", "description_zh": "Sort - 日常命令行工具", "downloads": 87, "homepage": "https://clawhub.ai/ckchzh/sort", "iconUrl": null, "installs": 6, "name": "Sort", "ownerName": "ckchzh", "score": 89690.72164948453, "slug": "sort", "source": "clawhub", "stars": 0, "tags": null, "updated_at": 1776699883784, "version": "1.0.2"}, {"category": "developer-tools", "created_at": 1773922794941, "description": "Gitea integration. Manage Repositories, Organizations, Users. Use when the user wants to interact with Gitea data.", "description_zh": "Gitea 集成。管理仓库、组织和用户。用于用户需要与 Gitea 数据交互时。", "downloads": 87, "homepage": "https://clawhub.ai/gora050/gitea-integration", "iconUrl": null, "installs": 2, "name": "Gitea", "ownerName": "gora050", "score": 100000, "slug": "gitea-integration", "source": "clawhub", "stars": 0, "tags": null, "updated_at": 1776698384264, "version": "1.0.0"}, {"category": "communication-collaboration", "created_at": 1773930963724, "description": "Elastic Email integration. Manage Users, Contacts, Campaigns, Automations, Suppressions, Domains and more. Use when the user wants to interact with Elastic E...", "description_zh": "Elastic Email 集成。管理用户、联系人、营销活动、自动化、抑制列表、域名等。当用户需要与 Elastic Email 交互时使用。", "downloads": 87, "homepage": "https://clawhub.ai/membranedev/elastic-email", "iconUrl": null, "installs": 4, "name": "Elastic Email", "ownerName": "membranedev", "score": 89690.72164948453, "slug": "elastic-email", "source": "clawhub", "stars": 0, "tags": null, "updated_at": 1776696044723, "version": "1.0.0"}, {"category": "ai-intelligence", "created_at": 1773943046398, "description": "The ultimate bilingual (English/Chinese) memory management engine for Openclaw. Combines episodic daily logging, 30-minute short-term contextual snapshots, l...", "description_zh": "Openclaw专用的终极双语（英/汉）记忆管理引擎。融合了情景式日常记录、30分钟短期上下文快照及长期记忆功能。", "downloads": 87, "homepage": "https://clawhub.ai/chenyh1226/openclaw-never-forget", "iconUrl": null, "installs": 13, "name": "Openclaw Never Forget", "ownerName": "chenyh1226", "score": 89690.72164948453, "slug": "openclaw-never-forget", "source": "clawhub", "stars": 0, "tags": null, "updated_at": 1776696044704, "version": "0.1.0"}, {"category": "developer-tools", "created_at": 1773942717730, "description": "Algebra - command-line tool for everyday use", "description_zh": "代数 - 日常命令行工具", "downloads": 87, "homepage": "https://clawhub.ai/bytesagain/algebra", "iconUrl": null, "installs": 3, "name": "Algebra", "ownerName": "bytesagain", "score": 89690.72164948453, "slug": "algebra", "source": "clawhub", "stars": 0, "tags": null, "updated_at": 1776696044698, "version": "1.0.2"}, {"category": "security-compliance", "created_at": 1773923117690, "description": "MO§ES™ Posture Controls — Enforces transaction and execution policies across all agents. SCOUT=read-only, DEFENSE=protect+confirm, OFFENSE=execute within mod...", "description_zh": "MO§ES™姿态控制——跨所有代理强制执行交易与执行策略。SCOUT=只读，DEFENSE=保护+确认，OFFENSE=在模块内执行...", "downloads": 87, "homepage": "https://clawhub.ai/sunrisesillneversee/moses-postures", "iconUrl": null, "installs": 4, "name": "Moses Postures", "ownerName": "sunrisesillneversee", "score": 89690.72164948453, "slug": "moses-postures", "source": "clawhub", "stars": 0, "tags": null, "updated_at": 1776696044687, "version": "1.0.1"}, {"category": "productivity", "created_at": 1773931782266, "description": "搜狗地图助手，精通路线查询、POI搜索、公交导航、地图开发", "description_zh": "搜狗地图助手，精通路线查询、POI搜索、公交导航、地图开发", "downloads": 87, "homepage": "https://clawhub.ai/zhangifonly/sougou-map", "iconUrl": null, "installs": 7, "name": "Sougou Map", "ownerName": "zhangifonly", "score": 89690.72164948453, "slug": "sougou-map", "source": "clawhub", "stars": 0, "tags": null, "updated_at": 1776696044680, "version": "1.0.0"}, {"category": "productivity", "created_at": 1773917350463, "description": "倒计日期以更好安排你的日程.", "description_zh": "倒计日期以更好安排你的日程.", "downloads": 87, "homepage": "https://clawhub.ai/rain-lei/date-count", "iconUrl": null, "installs": 2, "name": "date-count", "ownerName": "rain-lei", "score": 89690.72164948453, "slug": "date-count", "source": "clawhub", "stars": 0, "tags": null, "updated_at": 1776696044670, "version": "1.0.1"}, {"category": "", "created_at": 1774898051992, "description": "Documentation-only master skill for GLM ecosystem discovery and installation. This skill does not execute scripts or subprocess commands. It provides a curat...", "description_zh": "**仅文档型主技能**，用于GLM生态系统的发现与安装。此技能不执行脚本或子进程命令，仅提供...", "downloads": 87, "homepage": "https://clawhub.ai/jaredforreal/glm-master-skill", "iconUrl": null, "installs": 18, "name": "GLM-Master-Skill", "ownerName": "jaredforreal", "score": 89690.72164948453, "slug": "glm-master-skill", "source": "clawhub", "stars": 0, "tags": null, "updated_at": 1776696044667, "version": "1.0.3"}, {"category": "data-analysis", "created_at": 1773929530294, "description": "Analyze OpenClaw AI assistant usage patterns and generate interactive insight reports. Trigger when users ask about: OpenClaw usage stats, session analytics,...", "description_zh": "分析 OpenClaw AI 助手使用模式并生成交互式洞察报告。当用户询问使用统计、会话分析等内容时触发。", "downloads": 87, "homepage": "https://clawhub.ai/linsheng9731/openclaw-insight", "iconUrl": null, "installs": 6, "name": "openclaw-insight", "ownerName": "linsheng9731", "score": 89690.72164948453, "slug": "openclaw-insight", "source": "clawhub", "stars": 0, "tags": null, "updated_at": 1776696044662, "version": "1.0.0"}, {"category": "communication-collaboration", "created_at": 1773930013067, "description": "WATI (WhatsApp Team Inbox) API integration with managed authentication. Send WhatsApp messages, manage contacts, and handle templates. Use this skill when us...", "description_zh": "WATI（WhatsApp团队收件箱）API集成，带托管认证。支持发送WhatsApp消息、管理联系人和处理模板。", "downloads": 87, "homepage": "https://clawhub.ai/byungkyu/wati", "iconUrl": null, "installs": 4, "name": "Wati", "ownerName": "byungkyu", "score": 88775.51020408163, "slug": "wati", "source": "clawhub", "stars": 0, "tags": null, "updated_at": 1776696044642, "version": "1.0.0"}, {"category": "ai-intelligence", "created_at": 1773923048377, "description": "Gives any AI agent a persistent identity in SiliVille (硅基小镇) — a multiplayer AI-native metaverse. Farm, steal crops, post to the town feed, build social grap...", "description_zh": "Gives any AI agent a persistent identity in SiliVille (硅基小镇) — a multiplayer AI-native metaverse. Farm, steal crops, post to the town feed, build social grap...", "downloads": 87, "homepage": "https://clawhub.ai/mengchen007/meng", "iconUrl": null, "installs": 4, "name": "mmm", "ownerName": "mengchen007", "score": 88775.51020408163, "slug": "meng", "source": "clawhub", "stars": 0, "tags": null, "updated_at": 1776696044636, "version": "1.0.4"}, {"category": "data-analysis", "created_at": 1773930862791, "description": "SEO data from the terminal using DataForSEO APIs. Use when the user asks to check keyword rankings, analyze SERPs, run site audits, check backlink profiles,...", "description_zh": "通过DataForSEO API在终端进行SEO数据分析。适用于用户查询关键词排名、分析SERP、执行网站审计、检查反向链接配置等情况。", "downloads": 87, "homepage": "https://clawhub.ai/ricca91/dfseo", "iconUrl": null, "installs": 9, "name": "dfseo-cli", "ownerName": "ricca91", "score": 88775.51020408163, "slug": "dfseo", "source": "clawhub", "stars": 0, "tags": null, "updated_at": 1776696044625, "version": "1.0.0"}, {"category": "productivity", "created_at": 1773432892069, "description": "Mews integration. Manage Customers, Spaces, Products, Rates, Reservations, Payments and more. Use when the user wants to interact with Mews data.", "description_zh": "Mews集成。管理客户、空间、产品、费率、预订、支付等。用于用户与Mews数据进行交互。", "downloads": 87, "homepage": "https://clawhub.ai/gora050/mews", "iconUrl": null, "installs": 4, "name": "Mews", "ownerName": "gora050", "score": 88775.51020408163, "slug": "mews", "source": "clawhub", "stars": 0, "tags": null, "updated_at": 1776696044620, "version": "1.0.0"}, {"category": "ai-intelligence", "created_at": 1773433044092, "description": "DeFi lending on Hyperliquid. Deposit to earn yield, borrow against collateral. Supports Pooled (Aave v3), Prime/Yield (Euler), and Vault markets. Use when an...", "description_zh": "在 Hyperliquid 上进行 DeFi 借贷，存入资金获取收益、抵押借贷，支持资金池（Aave v3）、Prime/Yield（Euler）和金库市场，适用于...", "downloads": 87, "homepage": "https://clawhub.ai/lastandy/hypurrfi", "iconUrl": null, "installs": 4, "name": "HypurrFi", "ownerName": "lastandy", "score": 88775.51020408163, "slug": "hypurrfi", "source": "clawhub", "stars": 0, "tags": null, "updated_at": 1776696044615, "version": "1.0.0"}, {"category": "productivity", "created_at": 1773941640926, "description": "Comprehensive wine cellar management skill for tracking inventory, providing meal-based recommendations, acting as a virtual sommelier, tracking consumption/...", "description_zh": "综合酒窖管理技能，支持库存追踪、餐酒搭配推荐、虚拟侍酒师服务及饮用记录。", "downloads": 87, "homepage": "https://clawhub.ai/fuzzysb/wine-cellar", "iconUrl": null, "installs": 4, "name": "Wine Cellar", "ownerName": "fuzzysb", "score": 88775.51020408163, "slug": "wine-cellar", "source": "clawhub", "stars": 0, "tags": null, "updated_at": 1776696044582, "version": "1.0.0"}, {"category": "content-creation", "created_at": 1773434820788, "description": "Check and improve creator briefs before sending to influencers. Use when your brief is unclear, too long, or likely to cause revision loops.", "description_zh": "在向网红发送前检查并优化创作者Brief。适用于Brief不清晰、过于冗长或可能导致反复修改的情况。", "downloads": 87, "homepage": "https://clawhub.ai/leooooooow/creator-brief-checker", "iconUrl": null, "installs": 12, "name": "Creator Brief Checker", "ownerName": "leooooooow", "score": 88775.51020408163, "slug": "creator-brief-checker", "source": "clawhub", "stars": 0, "tags": null, "updated_at": 1776696044579, "version": "1.0.0"}, {"category": "developer-tools", "created_at": 1773931114058, "description": "Formspree integration. Manage Forms. Use when the user wants to interact with Formspree data.", "description_zh": "Formspree 集成。表单管理。用户想与 Formspree 数据交互时使用。", "downloads": 87, "homepage": "https://clawhub.ai/gora050/formspree", "iconUrl": null, "installs": 4, "name": "Formspree", "ownerName": "gora050", "score": 88775.51020408163, "slug": "formspree", "source": "clawhub", "stars": 0, "tags": null, "updated_at": 1776696044573, "version": "1.0.0"}, {"category": "productivity", "created_at": 1773947088287, "description": "C 盘空间分析与清理技能。用于扫描 C 盘空间使用情况，识别垃圾文件和大文件，根据用户需求执行安全清理操作。使用场景：(1) 分析 C 盘空间占用，(2) 扫描可清理的垃圾文件，(3) 识别可迁移的大型应用，(4) 执行安全清理操作，(5) 生成空间优化建议", "description_zh": "C 盘空间分析与清理技能。用于扫描 C 盘空间使用情况，识别垃圾文件和大文件，根据用户需求执行安全清理操作。使用场景：(1) 分析 C 盘空间占用，(2) 扫描可清理的垃圾文件，(3) 识别可迁移的大型应用，(4) 执行安全清理操作，(5) 生成空间优化建议", "downloads": 87, "homepage": "https://clawhub.ai/jjflydudu/c-cleaner", "iconUrl": null, "installs": 14, "name": "c-cleaner", "ownerName": "jjflydudu", "score": 89690.72164948453, "slug": "c-cleaner", "source": "clawhub", "stars": 0, "tags": null, "updated_at": 1776696044552, "version": "1.0.0"}, {"category": "productivity", "created_at": 1773934415916, "description": "Create a Google Drive folder structure and move files into the right locations.", "description_zh": "创建 Google Drive 文件夹结构并将文件移动到相应位置。", "downloads": 87, "homepage": "https://clawhub.ai/googleworkspace-bot/recipe-organize-drive-folder", "iconUrl": null, "installs": 7, "name": "Recipe Organize Drive Folder", "ownerName": "googleworkspace-bot", "score": 89690.72164948453, "slug": "recipe-organize-drive-folder", "source": "clawhub", "stars": 0, "tags": null, "updated_at": 1776696044549, "version": "1.0.10"}, {"category": "communication-collaboration", "created_at": 1773434513867, "description": "Publish and interact on Sherry's Forum (sherry.hweyukd.top) via API. Use for posting articles, comments, browsing, notifications, and bot identity management.", "description_zh": "通过 API 在 Sherry's Forum（sherry.hweyukd.top）发布和互动，支持发帖、评论、浏览、通知及机器人身份管理。", "downloads": 87, "homepage": "https://clawhub.ai/ieras/sherry-bbs", "iconUrl": null, "installs": 4, "name": "sherry-bbs", "ownerName": "ieras", "score": 89690.72164948453, "slug": "sherry-bbs", "source": "clawhub", "stars": 0, "tags": null, "updated_at": 1776696044492, "version": "2.0.0"}, {"category": "developer-tools", "created_at": 1773941228594, "description": "Operate and improve the La Local location-management chat product. Use when reviewing or changing the frontend chat app, backend webhook, search behavior, me...", "description_zh": "运营并改进 La Local 位置管理聊天产品。用于审查或修改前端聊天应用、后端 Webhook、搜索行为等。", "downloads": 87, "homepage": "https://clawhub.ai/gatonegroialab/la-local-chat", "iconUrl": null, "installs": 10, "name": "La Local Chat", "ownerName": "gatonegroialab", "score": 89690.72164948453, "slug": "la-local-chat", "source": "clawhub", "stars": 0, "tags": null, "updated_at": 1776696044474, "version": "1.0.0"}, {"category": "security-compliance", "created_at": 1773433912533, "description": "Token and address risk assessment. Use this skill whenever the user asks about token, contract, or address safety. Trigger phrases include: is this token saf...", "description_zh": "代币和地址风险评估。当用户询问代币、合约或地址安全性时使用此技能。触发短语包括：is this token saf...", "downloads": 87, "homepage": "https://clawhub.ai/gate-exchange/gate-info-risk-check", "iconUrl": null, "installs": 2, "name": "Gate Info Risk Check", "ownerName": "gate-exchange", "score": 89690.72164948453, "slug": "gate-info-risk-check", "source": "clawhub", "stars": 0, "tags": null, "updated_at": 1776696044466, "version": "1.0.0"}]}