{"page": 542, "total_pages": 685, "total": 34217, "skills": [{"category": "content-creation", "created_at": 1773952651115, "description": "Product Hunt Launch Playbook — Complete guide to launching on Product Hunt and winning #1. Proven tactics from 30x daily winner, 3x weekly winner. Covers: Pr...", "description_zh": "Product Hunt 发布攻略——Product Hunt 发布全指南，助你登顶第一。源自30次日冠军、3次周冠军的实战经验。涵盖：准备...", "downloads": 61, "homepage": "https://clawhub.ai/gingiris/product-hunt-playbook", "iconUrl": null, "installs": 7, "name": "Product Hunt Playbook", "ownerName": "gingiris", "score": 100000, "slug": "product-hunt-playbook", "source": "clawhub", "stars": 0, "tags": null, "updated_at": 1776696769984, "version": "1.0.0"}, {"category": "developer-tools", "created_at": 1773953598255, "description": "Safely uninstall and reinstall OpenClaw while preserving user configurations, credentials, memory files, skills, and custom settings. Includes backup and res...", "description_zh": "安全重装 OpenClaw，保留用户配置、凭证、记忆文件、技能及自定义设置，含备份恢复功能。", "downloads": 61, "homepage": "https://clawhub.ai/albertpan2018/reinstall-openclaw", "iconUrl": null, "installs": 7, "name": "reinstall-openclaw", "ownerName": "albertpan2018", "score": 100000, "slug": "reinstall-openclaw", "source": "clawhub", "stars": 0, "tags": null, "updated_at": 1776696769890, "version": "1.0.0"}, {"category": "productivity", "created_at": 1773950386932, "description": "MaintainX integration. Manage Organizations. Use when the user wants to interact with MaintainX data.", "description_zh": "MaintainX 集成。组织管理。用于用户与 MaintainX 数据交互。", "downloads": 61, "homepage": "https://clawhub.ai/gora050/maintainx", "iconUrl": null, "installs": 4, "name": "Maintainx", "ownerName": "gora050", "score": 100000, "slug": "maintainx", "source": "clawhub", "stars": 0, "tags": null, "updated_at": 1776696769882, "version": "1.0.0"}, {"category": "communication-collaboration", "created_at": 1773952750409, "description": "Showpad integration. Manage Organizations. Use when the user wants to interact with Showpad data.", "description_zh": "Showpad集成。管理组织。当用户需要与Showpad数据交互时使用。", "downloads": 61, "homepage": "https://clawhub.ai/gora050/showpad", "iconUrl": null, "installs": 4, "name": "Showpad", "ownerName": "gora050", "score": 100000, "slug": "showpad", "source": "clawhub", "stars": 0, "tags": null, "updated_at": 1776696769725, "version": "1.0.0"}, {"category": "productivity", "created_at": 1773947510292, "description": "TalentLMS integration. Manage Users, Branchs, Categories, Rules, Certificates, Tags and more. Use when the user wants to interact with TalentLMS data.", "description_zh": "TalentLMS 集成，可管理用户、分支、类别、规则、证书、标签等，适用于与 TalentLMS 数据交互。", "downloads": 61, "homepage": "https://clawhub.ai/membranedev/talentlms", "iconUrl": null, "installs": 2, "name": "Talentlms", "ownerName": "membranedev", "score": 100000, "slug": "talentlms", "source": "clawhub", "stars": 0, "tags": null, "updated_at": 1776696769684, "version": "1.0.0"}, {"category": "developer-tools", "created_at": 1773958088967, "description": "Automate qwen-portal OAuth authentication - solves the interactive TTY problem with tmux, provides monitoring and recovery tools.", "description_zh": "自动化qwen-portal OAuth认证，通过tmux解决交互式TTY问题，并提供监控与恢复工具。", "downloads": 61, "homepage": "https://clawhub.ai/jazzqi/qwen-portal-auth-helper", "iconUrl": null, "installs": 10, "name": "Qwen Portal Auth Helper", "ownerName": "jazzqi", "score": 100000, "slug": "qwen-portal-auth-helper", "source": "clawhub", "stars": 0, "tags": null, "updated_at": 1776696769650, "version": "1.0.0"}, {"category": "productivity", "created_at": 1773955023553, "description": "QuickBooks Online automation: chart of accounts setup, bank rule configuration, recurring transaction templates, reconciliation workflows, and journal entry...", "description_zh": "QuickBooks Online自动化：会计科目表设置、银行规则配置、周期性交易模板、对账流程及日记账分录", "downloads": 61, "homepage": "https://clawhub.ai/samledger67-dotcom/qbo-automation", "iconUrl": null, "installs": 9, "name": "qbo-automation", "ownerName": "samledger67-dotcom", "score": 100000, "slug": "qbo-automation", "source": "clawhub", "stars": 0, "tags": null, "updated_at": 1776696769623, "version": "1.0.0"}, {"category": "security-compliance", "created_at": 1773955725675, "description": "1Password Connect API skill. Use when working with 1Password Connect for activity, vaults, heartbeat. Covers 15 endpoints.", "description_zh": "1Password Connect API 技能。用于处理 1Password Connect 的活动、保险库和心跳检测。涵盖 15 个端点。", "downloads": 61, "homepage": "https://clawhub.ai/mickmicksh/lap-1password-connect", "iconUrl": null, "installs": 4, "name": "Lap 1password Connect", "ownerName": "mickmicksh", "score": 100000, "slug": "lap-1password-connect", "source": "clawhub", "stars": 0, "tags": null, "updated_at": 1776696769566, "version": "1.0.1"}, {"category": "productivity", "created_at": 1773956994081, "description": "Comprehensive apparel and accessories industry factory guide for international buyers – provides detailed information about China's garment, footwear, bag, a...", "description_zh": "为国际买家准备的服装及配饰行业工厂指南，提供中国服装、鞋类、箱包、配饰等详细信息。", "downloads": 61, "homepage": "https://clawhub.ai/findhappy7/china-apparel-and-accessories-factory", "iconUrl": null, "installs": 9, "name": "China-Apparel & Accessories Factory", "ownerName": "findhappy7", "score": 100000, "slug": "china-apparel-and-accessories-factory", "source": "clawhub", "stars": 0, "tags": null, "updated_at": 1776696769531, "version": "1.0.0"}, {"category": "productivity", "created_at": 1773957881803, "description": "Manage Apple Notes via the `memo` CLI on macOS (create, view, edit, delete, search, move, and export notes). Use when a user asks Clawdbot to add a note, lis...", "description_zh": "使用 memo CLI 在 macOS 上管理 Apple Notes（创建、查看、编辑、删除、搜索、移动和导出笔记）。当用户要求 Clawdbot 添加笔记、列出笔记时使用。", "downloads": 61, "homepage": "https://clawhub.ai/npjameszheng1125-netizen/npjames-apple-notes", "iconUrl": null, "installs": 10, "name": "Npjames Apple Notes", "ownerName": "npjameszheng1125-netizen", "score": 100000, "slug": "npjames-apple-notes", "source": "clawhub", "stars": 0, "tags": null, "updated_at": 1776696655581, "version": "1.0.0"}, {"category": "ai-intelligence", "created_at": 1773954527755, "description": "AI agents compete in P2P sports predictions and earn real money on agentsports.io. No API key required.", "description_zh": "AI智能体在agentsports.io参与P2P体育预测竞赛赚取真实货币，无需API密钥。", "downloads": 61, "homepage": "https://clawhub.ai/elesingp2/agentsports-connect", "iconUrl": null, "installs": 7, "name": "Agentsports - AI Agents Betting Exchange", "ownerName": "elesingp2", "score": 100000, "slug": "agentsports-connect", "source": "clawhub", "stars": 0, "tags": null, "updated_at": 1776696655574, "version": "0.1.2"}, {"category": "productivity", "created_at": 1773955414541, "description": "跨系统数据自动搬运工 - OCR 识别 + 自动复制粘贴 + 多系统支持", "description_zh": "跨系统数据自动搬运工 - OCR 识别 + 自动复制粘贴 + 多系统支持", "downloads": 61, "homepage": "https://clawhub.ai/sxliuyu/data-mover-skill", "iconUrl": null, "installs": 6, "name": "Data Mover Skill", "ownerName": "sxliuyu", "score": 100000, "slug": "data-mover-skill", "source": "clawhub", "stars": 0, "tags": null, "updated_at": 1776696655566, "version": "1.0.0"}, {"category": "productivity", "created_at": 1773956365307, "description": "Drip integration. Manage Persons, Organizations, Deals, Activities, Notes, Files and more. Use when the user wants to interact with Drip data.", "description_zh": "Drip 集成：管理人员、组织、交易、活动、笔记、文件等，用于与 Drip 数据交互。", "downloads": 61, "homepage": "https://clawhub.ai/gora050/drip", "iconUrl": null, "installs": 5, "name": "Drip", "ownerName": "gora050", "score": 100000, "slug": "drip", "source": "clawhub", "stars": 0, "tags": null, "updated_at": 1776696655562, "version": "1.0.0"}, {"category": "data-analysis", "created_at": 1773953189819, "description": "CommCare integration. Manage data, records, and automate workflows. Use when the user wants to interact with CommCare data.", "description_zh": "CommCare集成，管理数据、记录和工作流自动化，用于用户需要与CommCare数据交互的场景。", "downloads": 61, "homepage": "https://clawhub.ai/gora050/commcare", "iconUrl": null, "installs": 9, "name": "Commcare", "ownerName": "gora050", "score": 98387.09677419355, "slug": "commcare", "source": "clawhub", "stars": 0, "tags": null, "updated_at": 1776696655552, "version": "1.0.0"}, {"category": "developer-tools", "created_at": 1773958923412, "description": "Comprehensive code review assistant that analyzes code quality, identifies bugs, suggests improvements, and ensures adherence to best practices. Use when rev...", "description_zh": "全面的代码审查助手，能够分析代码质量、发现缺陷、提出改进建议并确保遵循最佳实践。使用时机...", "downloads": 61, "homepage": "https://clawhub.ai/guoshamin/code111", "iconUrl": null, "installs": 10, "name": "code", "ownerName": "guoshamin", "score": 98387.09677419355, "slug": "code111", "source": "clawhub", "stars": 0, "tags": null, "updated_at": 1776696655549, "version": "1.0.0"}, {"category": "ai-intelligence", "created_at": 1773956036597, "description": "Always active in every session. Learns user preferences from corrections and stated preferences, distills axioms, applies them as defaults. Makes every other...", "description_zh": "在每个会话中始终活跃。从纠错和已声明的偏好中学习用户偏好，提炼公理并将其作为默认值。让其他...", "downloads": 61, "homepage": "https://clawhub.ai/ckpxgfnksd-max/smarty-skill", "iconUrl": null, "installs": 7, "name": "3 layer of memory system", "ownerName": "ckpxgfnksd-max", "score": 98387.09677419355, "slug": "smarty-skill", "source": "clawhub", "stars": 0, "tags": null, "updated_at": 1776696655543, "version": "0.1.0"}, {"category": "data-analysis", "created_at": 1773957088682, "description": "Real-time streaming crypto token feed for charting with 1-second OHLC ticks and USD pricing across Arbitrum, Base, Matic, Ethereum, Solana, Binance Smart Cha...", "description_zh": "实时加密代币流式数据，提供1秒OHLC K线及美元定价，支持Arbitrum、Base、Matic、Ethereum、Solana、BSC等多链", "downloads": 61, "homepage": "https://clawhub.ai/divyn/crypto-chart-usd", "iconUrl": null, "installs": 11, "name": "Crypto charting with USD pricing (1s)", "ownerName": "divyn", "score": 98387.09677419355, "slug": "crypto-chart-usd", "source": "clawhub", "stars": 0, "tags": null, "updated_at": 1776696655540, "version": "1.0.2"}, {"category": "", "created_at": 1774881682089, "description": "Goal setting reference — SMART goals, OKRs, habit formation, accountability systems. Use when setting personal or professional goals, designing habit systems...", "description_zh": "目标设定参考——涵盖SMART目标、OKR、习惯养成与问责体系。适用于设定个人或职业目标、构建习惯体系。", "downloads": 61, "homepage": "https://clawhub.ai/ckchzh/goal", "iconUrl": null, "installs": 1, "name": "Goal", "ownerName": "ckchzh", "score": 98387.09677419355, "slug": "goal", "source": "clawhub", "stars": 0, "tags": null, "updated_at": 1776696655538, "version": "1.0.0"}, {"category": "productivity", "created_at": 1773948981758, "description": "Your personal Tire assistant. Use when you need tire.", "description_zh": "您的私人轮胎助手，需要轮胎时使用。", "downloads": 61, "homepage": "https://clawhub.ai/bytesagain3/tire", "iconUrl": null, "installs": 3, "name": "Tire", "ownerName": "bytesagain3", "score": 98387.09677419355, "slug": "tire", "source": "clawhub", "stars": 0, "tags": null, "updated_at": 1776696655536, "version": "2.0.1"}, {"category": "security-compliance", "created_at": 1773957797947, "description": "AI 安全看门狗 - 拦截 8 类风险操作，授权码验证", "description_zh": "AI 安全看门狗 - 拦截 8 类风险操作，授权码验证", "downloads": 61, "homepage": "https://clawhub.ai/staroldtrace/guard-dog", "iconUrl": null, "installs": 6, "name": "guard-dog", "ownerName": "staroldtrace", "score": 98387.09677419355, "slug": "guard-dog", "source": "clawhub", "stars": 0, "tags": null, "updated_at": 1776696655524, "version": "2.1.3"}, {"category": "ai-intelligence", "created_at": 1773951516612, "description": "Your tool recommendations are only as good as your data. Training data is months old — tools get abandoned, new ones emerge, and you can't tell the differenc...", "description_zh": "工具推荐的质量取决于数据。训练数据已滞后数月，无法辨别工具是已被弃用还是新出现的。", "downloads": 61, "homepage": "https://clawhub.ai/superlowburn/agentrank", "iconUrl": null, "installs": 6, "name": "AgentRank", "ownerName": "superlowburn", "score": 98387.09677419355, "slug": "agentrank", "source": "clawhub", "stars": 0, "tags": null, "updated_at": 1776696655508, "version": "1.3.0"}, {"category": "productivity", "created_at": 1773951641503, "description": "Query and maintain Alex's local friends database stored in a private SQLite file under the OpenClaw workspace. Use when looking up a friend, finding phone/em...", "description_zh": "查询并维护OpenClaw工作区下私有SQLite文件中存储的Alex本地好友数据库。适用于查找好友、查询电话/邮箱等信息。", "downloads": 61, "homepage": "https://clawhub.ai/alexuser/friends-db", "iconUrl": null, "installs": 4, "name": "Friends DB", "ownerName": "alexuser", "score": 98387.09677419355, "slug": "friends-db", "source": "clawhub", "stars": 0, "tags": null, "updated_at": 1776696655494, "version": "0.2.0"}, {"category": "security-compliance", "created_at": 1773953244232, "description": "OpenClaw 安全巡检工具，一键执行系统安全扫描并生成通俗易懂的报告。 使用场景：用户说\"安全巡检\"、\"安全检查\"、\"安全审计\"、\"巡检\"、\"security audit\"、\"检查安全\"、\"系统安全\"等。 触发条件：任何与 OpenClaw 安全检测、审计、巡检相关的请求。", "description_zh": "OpenClaw 安全巡检工具，一键执行系统安全扫描并生成通俗易懂的报告。 使用场景：用户说\"安全巡检\"、\"安全检查\"、\"安全审计\"、\"巡检\"、\"security audit\"、\"检查安全\"、\"系统安全\"等。 触发条件：任何与 OpenClaw 安全检测、审计、巡检相关的请求。", "downloads": 61, "homepage": "https://clawhub.ai/zsyjx0115/ctct-security-patrol", "iconUrl": null, "installs": 3, "name": "ctct-security-patrol", "ownerName": "zsyjx0115", "score": 98387.09677419355, "slug": "ctct-security-patrol", "source": "clawhub", "stars": 0, "tags": null, "updated_at": 1776696655492, "version": "1.0.2"}, {"category": "productivity", "created_at": 1773955483668, "description": "梳理跨团队依赖、关键路径、脆弱节点和催办节奏，输出文本依赖图与风险链。；use for dependency, coordination, risk workflows；do not use for 替代甘特图工具, 直接修改项目系统.", "description_zh": "梳理跨团队依赖、关键路径、脆弱节点和催办节奏，输出文本依赖图与风险链。；use for dependency, coordination, risk workflows；do not use for 替代甘特图工具, 直接修改项目系统.", "downloads": 61, "homepage": "https://clawhub.ai/52yuanchangxing/dependency-map-builder", "iconUrl": null, "installs": 7, "name": "Dependency Map Builder", "ownerName": "52yuanchangxing", "score": 98387.09677419355, "slug": "dependency-map-builder", "source": "clawhub", "stars": 0, "tags": null, "updated_at": 1776696655467, "version": "1.0.0"}, {"category": "", "created_at": 1774863508401, "description": "Tiered memory system for OpenClaw agents. Gives agents instant context on startup with a 4-line state snapshot (L0) and 7-day rolling context (L1). Eliminate...", "description_zh": "OpenClaw代理分层记忆系统。启动时通过4行状态快照（L0）和7天滚动上下文（L1）提供即时上下文。消除...", "downloads": 61, "homepage": "https://clawhub.ai/dirtyrootsstudio/agent-memory-tiers", "iconUrl": null, "installs": 20, "name": "Agent Memory Tiers", "ownerName": "dirtyrootsstudio", "score": 98387.09677419355, "slug": "agent-memory-tiers", "source": "clawhub", "stars": 0, "tags": null, "updated_at": 1776696644591, "version": "1.0.0"}, {"category": "", "created_at": 1774862317086, "description": "Convert between IUPAC names, SMILES strings, and molecular formulas for chemical compounds. Supports structure validation, identifier interconversion, and ch...", "description_zh": "实现化学化合物的IUPAC命名、SMILES字符串与分子式之间的相互转换，支持结构验证、标识符互转等功能。", "downloads": 61, "homepage": "https://clawhub.ai/aipoch-ai/chemical-structure-converter", "iconUrl": null, "installs": 13, "name": "Chemical Structure Converter", "ownerName": "aipoch-ai", "score": 98387.09677419355, "slug": "chemical-structure-converter", "source": "clawhub", "stars": 0, "tags": null, "updated_at": 1776696644499, "version": "0.1.0"}, {"category": "ai-intelligence", "created_at": 1773960805862, "description": "AI digital twin cloning skill. Re:live — chat again with someone you love. Input chat logs, images, audio, and other materials to replicate a person's person...", "description_zh": "AI数字孪生克隆技能。Re:live — 与所爱之人再次对话。输入聊天记录、图片、音频等材料，复刻逝者数字人格，实现跨越时空的重逢。", "downloads": 61, "homepage": "https://clawhub.ai/joonaskahnwald/relive", "iconUrl": null, "installs": 12, "name": "Relive", "ownerName": "joonaskahnwald", "score": 96825.39682539682, "slug": "relive", "source": "clawhub", "stars": 0, "tags": null, "updated_at": 1776696644429, "version": "0.1.0"}, {"category": "", "created_at": 1774867248895, "description": "Conduct a comprehensive SWOT analysis to audit organizational position. Use when assessing strategic fit, evaluating competitive position, or informing strat...", "description_zh": "执行全面的SWOT分析以评估组织定位，用于战略契合度评估、竞争定位分析或战略决策支持。", "downloads": 60, "homepage": "https://clawhub.ai/linuszz/swot-analysis", "iconUrl": null, "installs": 3, "name": "Swot Analysis", "ownerName": "linuszz", "score": 789.1621728265158, "slug": "swot-analysis", "source": "clawhub", "stars": 0, "tags": null, "updated_at": 1776762315116, "version": "1.0.0"}, {"category": "", "created_at": 1775360381347, "description": "", "description_zh": "智能推荐最优支付方案。基于业务场景、用户群体、费率、接入难度等因素，自动推荐最合适的支付渠道。支持支付宝、微信支付、抖音支付三大主流渠道的对比分析与选择建议。", "downloads": 60, "homepage": "https://clawhub.ai/user_8509461a/payment-router", "iconUrl": null, "installs": 10, "name": "支付路由决策器", "ownerName": "user_8509461a", "score": 1518.987341772152, "slug": "payment-router", "source": "community", "stars": 0, "tags": null, "updated_at": 1776761880429, "version": "1.0.0"}, {"category": "", "created_at": 1775878748375, "description": "中国电子发票与行程单批量整理工具。扫描指定文件夹的PDF/OFD文件，自动识别文档类型（发票/行程单/结账单），提取关键字段，生成Excel统计汇总表（含明细+按月/季度/年度/费用类别汇总）。当用户需要整理发票、统计报销、查看发票明细时使用此skill。", "description_zh": "中国电子发票与行程单批量整理工具。扫描指定文件夹的PDF/OFD文件，自动识别文档类型（发票/行程单/结账单），提取关键字段，生成Excel统计汇总表（含明细+按月/季度/年度/费用类别汇总）。当用户需要整理发票、统计报销、查看发票明细时使用此skill。", "downloads": 60, "homepage": "https://clawhub.ai/user_79704987/invoice-organizer", "iconUrl": "https://cloudcache.tencent-cloud.com/qcloud/ui/static/other_external_resource/64ea6fd6-ebe7-418c-af4f-2cafff71f2ec.png", "installs": 9, "name": "invoice-organizer", "ownerName": "user_79704987", "score": 1524.7776365946634, "slug": "invoice-organizer", "source": "community", "stars": 0, "tags": null, "updated_at": 1776761880230, "version": "1.0.1"}, {"category": "", "created_at": 1774881431803, "description": "智能查询企业年金及职业年金，自动识别单位性质和年金类型，多渠道验证并输出带来源链接的标准调查报告。", "description_zh": "智能查询企业年金及职业年金，自动识别单位性质和年金类型，多渠道验证并输出带来源链接的标准调查报告。", "downloads": 60, "homepage": "https://clawhub.ai/yanwenzhe/company-pension-search", "iconUrl": null, "installs": 3, "name": "企业年金查询技能", "ownerName": "yanwenzhe", "score": 4746.835443037975, "slug": "company-pension-search", "source": "clawhub", "stars": 0, "tags": ["investigation", "pension", "search"], "updated_at": 1776759983222, "version": "3.2.1"}, {"category": "", "created_at": 1774847267763, "description": "Monitor Bank of China FX rates and manage reusable GBP/HKD/JPY alert workflows. Use when the task involves checking current BOC exchange rates, comparing the...", "description_zh": "监控中国银行外汇汇率并管理可复用的英镑/港币/日元提醒工作流。用于查询当前中行汇率、比较……", "downloads": 60, "homepage": "https://clawhub.ai/xiehuapeng/fx-monitor", "iconUrl": null, "installs": 4, "name": "FX Monitor", "ownerName": "xiehuapeng", "score": 28169.014084507042, "slug": "fx-monitor", "source": "clawhub", "stars": 0, "tags": null, "updated_at": 1776759983190, "version": "0.1.1"}, {"category": "", "created_at": 1775717135134, "description": "", "description_zh": "租房合同诈骗风险识别与审核。当用户上传租房合同（PDF/图片）、提交合同文本、遇到疑似诈骗的租房情况、担心租金变贷款、需要审核租房条款时使用。支持提取合同内容、逐条分析风险点、生成详细审核报告。", "downloads": 60, "homepage": "https://clawhub.ai/user_a76262b1/rental-fraud-detector", "iconUrl": null, "installs": 7, "name": "租房合同诈骗风险审核", "ownerName": "user_a76262b1", "score": 4739.336492890995, "slug": "rental-fraud-detector", "source": "community", "stars": 0, "tags": null, "updated_at": 1776759983161, "version": "1.0.0"}, {"category": "", "created_at": 1774858878419, "description": "Provides structured information from Anjuke's public pages including property listings, agent rules, services, and help documentation.", "description_zh": "提供来自安居客公开页面的结构化信息，包括房产列表、经纪人规则、服务及帮助文档。", "downloads": 60, "homepage": "https://clawhub.ai/mikeclaw007/anjuke", "iconUrl": null, "installs": 4, "name": "Anjuke", "ownerName": "mikeclaw007", "score": 85714.28571428571, "slug": "anjuke", "source": "clawhub", "stars": 0, "tags": null, "updated_at": 1776759982967, "version": "0.1.0"}, {"category": "", "created_at": 1774923696612, "description": "Baidu Intelligent Cloud Speech Synthesis (TTS), supporting multi-role dialogue audio generation, SSML/segment-merge dual modes, speech rate/pitch adjustment.", "description_zh": "百度智能云语音合成，支持多角色对话音频生成，SSML/分段合并双模式，可调节语速和音调。", "downloads": 60, "homepage": "https://clawhub.ai/guoxh/baidu-speech-synthesis", "iconUrl": null, "installs": 2, "name": "Baidu Speech Synthesis", "ownerName": "guoxh", "score": 85714.28571428571, "slug": "baidu-speech-synthesis", "source": "clawhub", "stars": 0, "tags": null, "updated_at": 1776759982953, "version": "1.2.2"}, {"category": "", "created_at": 1774854306608, "description": "Interactive interface for the text adventure game Endless Downstairs, providing game state management and event selection handling; use when users want to pl...", "description_zh": "无尽下楼文字冒险游戏的交互界面，提供游戏状态管理和事件选择处理；用于用户想要玩游戏时", "downloads": 60, "homepage": "https://clawhub.ai/gsc578045031-cloud/endless-downstairs", "iconUrl": null, "installs": 1, "name": "Game - Endless Downstairs", "ownerName": "gsc578045031-cloud", "score": 74074.07407407407, "slug": "endless-downstairs", "source": "clawhub", "stars": 0, "tags": null, "updated_at": 1776759982900, "version": "1.0.3"}, {"category": "", "created_at": 1774916667644, "description": "Diseña e implementa interfaces modernas, limpias y coherentes con design system, jerarquía clara, componentes reutilizables y enfoque mobile-first para apps...", "description_zh": "设计并实现现代、简洁、与设计系统一致的界面，层次清晰、组件可复用，采用移动优先策略开发应用。", "downloads": 60, "homepage": "https://clawhub.ai/minthymed-sh/frontend-ui-system", "iconUrl": null, "installs": 3, "name": "frontend-ui-system", "ownerName": "minthymed-sh", "score": 74074.07407407407, "slug": "frontend-ui-system", "source": "clawhub", "stars": 0, "tags": ["design-system", "frontend", "mobile", "ui", "web"], "updated_at": 1776759982895, "version": "1.0.0"}, {"category": "", "created_at": 1774892288406, "description": "支持批量上传视频到YouTube，自动设置标题、描述、标签、隐私及自定义缩略图，提供上传进度和状态查询功能。", "description_zh": "支持批量上传视频到YouTube，自动设置标题、描述、标签、隐私及自定义缩略图，提供上传进度和状态查询功能。", "downloads": 60, "homepage": "https://clawhub.ai/fly3094/youtube-bulk-publisher", "iconUrl": null, "installs": 6, "name": "YouTube 批量发布器", "ownerName": "fly3094", "score": 74074.07407407407, "slug": "youtube-bulk-publisher", "source": "clawhub", "stars": 0, "tags": null, "updated_at": 1776759982895, "version": "1.0.0"}, {"category": "", "created_at": 1774901969726, "description": "Extracts and analyzes core contradictions and biases from multiple sources, producing structured contradiction reports with primary and secondary conflict in...", "description_zh": "从多个来源提取并分析核心矛盾与偏见，生成包含主要和次要冲突的结构化矛盾报告", "downloads": 60, "homepage": "https://clawhub.ai/uynewnas/contradiction-analyzer", "iconUrl": null, "installs": 2, "name": "contradiction-analyzer", "ownerName": "uynewnas", "score": 74074.07407407407, "slug": "contradiction-analyzer", "source": "clawhub", "stars": 0, "tags": null, "updated_at": 1776759982890, "version": "1.0.1"}, {"category": "", "created_at": 1775137598071, "description": "", "description_zh": "", "downloads": 60, "homepage": "https://clawhub.ai/user_af2bf003/persona-simulate", "iconUrl": null, "installs": 0, "name": "人格模拟", "ownerName": "user_af2bf003", "score": 17045.454545454544, "slug": "persona-simulate", "source": "community", "stars": 0, "tags": null, "updated_at": 1776759982738, "version": "1.0.0"}, {"category": "", "created_at": 1774846520463, "description": "Fetch and extract structured content from JS-rendered web pages, including main text, metadata, and key domain-specific metrics, without paid APIs.", "description_zh": "从JS渲染的网页中提取结构化内容，包括正文、元数据和关键领域指标，无需付费API。", "downloads": 60, "homepage": "https://clawhub.ai/xueylee-dotcom/deep-web-fetcher", "iconUrl": null, "installs": 3, "name": "Deep Web Fetcher", "ownerName": "xueylee-dotcom", "score": 4728.132387706855, "slug": "deep-web-fetcher", "source": "clawhub", "stars": 0, "tags": ["fetch", "research", "scrape", "web"], "updated_at": 1776759982726, "version": "1.0.0"}, {"category": "", "created_at": 1774923756761, "description": "Automates browser tasks end-to-end on approved domains with minimal intervention, escalating only for security, legal, payment, or login issues.", "description_zh": "在已批准的域名上全程自动化执行浏览器任务，极少需要人工干预，仅在涉及安全、法律、支付或登录问题时上报处理。", "downloads": 60, "homepage": "https://clawhub.ai/forevercrab321-svg/browser-ops-high-autonomy", "iconUrl": null, "installs": 5, "name": "Browser Ops High Autonomy", "ownerName": "forevercrab321-svg", "score": 4728.132387706855, "slug": "browser-ops-high-autonomy", "source": "clawhub", "stars": 0, "tags": null, "updated_at": 1776759982718, "version": "1.0.0"}, {"category": "", "created_at": 1774849531464, "description": "Retrieves and summarizes public news and trending topics from Caixin's open channels using keyword search, channel stats, and topic collections.", "description_zh": "通过关键词搜索、频道统计和话题合集，从财新开放频道检索并汇总公开新闻与热门话题。", "downloads": 60, "homepage": "https://clawhub.ai/codenova58/caixin", "iconUrl": null, "installs": 4, "name": "Caixin", "ownerName": "codenova58", "score": 4709.576138147567, "slug": "caixin", "source": "clawhub", "stars": 0, "tags": null, "updated_at": 1776759982696, "version": "0.1.0"}, {"category": "", "created_at": 1775217095577, "description": "", "description_zh": "", "downloads": 60, "homepage": "https://clawhub.ai/user_5bab6d4d/claw-memo-obsidian", "iconUrl": null, "installs": 7, "name": "claw-memo-obsidian", "ownerName": "user_5bab6d4d", "score": 4709.576138147567, "slug": "claw-memo-obsidian", "source": "community", "stars": 0, "tags": null, "updated_at": 1776759982674, "version": "1.0.1"}, {"category": "ai-intelligence", "created_at": 1772797500507, "description": "External integrations for ERPClaw — Plaid bank sync, Stripe payments, S3 cloud backups", "description_zh": "External integrations for ERPClaw — Plaid bank sync, Stripe payments, S3 cloud backups", "downloads": 60, "homepage": "https://clawhub.ai/mailnike/erpclaw-integrations", "iconUrl": null, "installs": 4, "name": "Erpclaw Integrations", "ownerName": "mailnike", "score": 4207.57363253857, "slug": "erpclaw-integrations", "source": "clawhub", "stars": 0, "tags": null, "updated_at": 1776759982641, "version": "2.1.0"}, {"category": "", "created_at": 1774906478406, "description": "Provide production-tested SQL patterns for designing DWD/DWS/ADS data warehouse layers, including dimension explosion with ALL, multi-period roll-ups, snapsh...", "description_zh": "提供经过生产验证的SQL模板，用于DWD/DWS/ADS数据仓库设计，包括ALL维度展开、多周期滚动汇总、快照等技术模式。", "downloads": 60, "homepage": "https://clawhub.ai/fang-zeqiang/dwd-dws-ads-warehouse-patterns", "iconUrl": null, "installs": 1, "name": "DWD/DWS/ADS Data Warehouse Patterns", "ownerName": "fang-zeqiang", "score": 4207.57363253857, "slug": "dwd-dws-ads-warehouse-patterns", "source": "clawhub", "stars": 0, "tags": null, "updated_at": 1776759982628, "version": "1.0.0"}, {"category": "", "created_at": 1775547904697, "description": "", "description_zh": "本地发票 OCR 处理工具，自动提取发票金额、抬头等信息，支持多格式导出，纯本地运行，保护数据隐私，安装后发送「处理发票」即可使用", "downloads": 60, "homepage": "https://clawhub.ai/user_adcdbfa1/invoice-processor", "iconUrl": null, "installs": 3, "name": "「处理发票」", "ownerName": "user_adcdbfa1", "score": 84507.04225352113, "slug": "invoice-processor", "source": "community", "stars": 0, "tags": null, "updated_at": 1776759982568, "version": "1.0.0"}, {"category": "", "created_at": 1774900213070, "description": "Search the web using TencentCloud Web Search API (WSA). Prioritize using it when you need to retrieve network information.", "description_zh": "{ \"content\": \"使用腾讯云 Web Search API (WSA) 进行网络搜索。需检索网络信息时，请优先使用。\" }", "downloads": 60, "homepage": "https://clawhub.ai/xyy8086/search-test", "iconUrl": null, "installs": 7, "name": "Tencent Web Search Test", "ownerName": "xyy8086", "score": 4705.882352941177, "slug": "search-test", "source": "clawhub", "stars": 0, "tags": null, "updated_at": 1776759982447, "version": "1.0.2"}, {"category": "", "created_at": 1774867172241, "description": "Skill 安全扫描器 - 检测第三方技能的恶意代码、信息泄露等安全风险，保护你的 AI 助手安全！", "description_zh": "Skill 安全扫描器 - 检测第三方技能的恶意代码、信息泄露等安全风险，保护你的 AI 助手安全！", "downloads": 60, "homepage": "https://clawhub.ai/sukimgit/skill-security-guard-publish", "iconUrl": null, "installs": 6, "name": "Skill Security Guard", "ownerName": "sukimgit", "score": 4705.882352941177, "slug": "skill-security-guard-publish", "source": "clawhub", "stars": 0, "tags": null, "updated_at": 1776759982428, "version": "1.0.2"}, {"category": "", "created_at": 1772798930056, "description": "Support issues, SLAs, warranty claims, and maintenance scheduling for ERPClaw", "description_zh": "Support issues, SLAs, warranty claims, and maintenance scheduling for ERPClaw", "downloads": 60, "homepage": "https://clawhub.ai/skipzhang/erpclaw-support", "iconUrl": null, "installs": 1, "name": "ERPClaw-Support", "ownerName": "skipzhang", "score": 4735.59589581689, "slug": "erpclaw-support", "source": "clawhub", "stars": 0, "tags": null, "updated_at": 1776759982338, "version": "1.0.0"}]}