{"page": 545, "total_pages": 685, "total": 34217, "skills": [{"category": "", "created_at": 1774875107373, "description": "A comprehensive AI marketing partner for DTC ecommerce. Combines multiple diagnostic and optimization skills powered by Attribuly first-party data.", "description_zh": "全面的AI营销伙伴，为DTC电商打造，整合多项诊断与优化功能，依托Attribuly第一方数据。", "downloads": 59, "homepage": "https://clawhub.ai/alexchulee/attribuly", "iconUrl": null, "installs": 8, "name": "Shopify/WooCommerce Marketing Partner: Attribuly AllyClaw", "ownerName": "alexchulee", "score": 59595.95959595959, "slug": "attribuly", "source": "clawhub", "stars": 0, "tags": null, "updated_at": 1776709183691, "version": "2026.3.26"}, {"category": "", "created_at": 1775116797314, "description": "", "description_zh": "", "downloads": 59, "homepage": "https://clawhub.ai/user_3086da4f/release-analytics", "iconUrl": null, "installs": 9, "name": "发布变更分析助手", "ownerName": "user_3086da4f", "score": 96721.31147540984, "slug": "release-analytics", "source": "community", "stars": 0, "tags": null, "updated_at": 1776696770446, "version": "1.0.3"}, {"category": "", "created_at": 1774895162402, "description": "［何时使用］当用户需要评估企业竞争优势时；当用户问\"这家公司有护城河吗\"时；当进行价值投资分析时；当需要判断长期投资价值时", "description_zh": "［何时使用］当用户需要评估企业竞争优势时；当用户问\"这家公司有护城河吗\"时；当进行价值投资分析时；当需要判断长期投资价值时", "downloads": 59, "homepage": "https://clawhub.ai/lj22503/moat-evaluator", "iconUrl": null, "installs": 12, "name": "护城河评估师", "ownerName": "lj22503", "score": 96721.31147540984, "slug": "moat-evaluator", "source": "clawhub", "stars": 0, "tags": ["buffett", "competitive-advantage", "moat"], "updated_at": 1776696770283, "version": "2.0.0"}, {"category": "productivity", "created_at": 1773949747158, "description": "Helps users discover and install agent skills when they ask questions like \"how do I do X\", \"find a skill for X\", \"is there a skill that can...\", or express...", "description_zh": "帮助用户发现和安装智能体技能，响应\"如何执行X\"、\"查找X的技能\"、\"是否有技能可以...\"等询问", "downloads": 59, "homepage": "https://clawhub.ai/pipsqueakup/new-slug", "iconUrl": null, "installs": 3, "name": "myskill", "ownerName": "pipsqueakup", "score": 96721.31147540984, "slug": "new-slug", "source": "clawhub", "stars": 0, "tags": null, "updated_at": 1776696770246, "version": "1.0.0"}, {"category": "productivity", "created_at": 1773949820940, "description": "Manage registration records and attendee data. Use when logging sign-ups, checking capacity, converting export formats, generating confirmation reports.", "description_zh": "管理登记记录和参会人员数据。用于记录报名、检查容量、转换导出格式、生成确认报告。", "downloads": 59, "homepage": "https://clawhub.ai/ckchzh/registration", "iconUrl": null, "installs": 3, "name": "Registration", "ownerName": "ckchzh", "score": 96721.31147540984, "slug": "registration", "source": "clawhub", "stars": 0, "tags": null, "updated_at": 1776696770240, "version": "2.0.1"}, {"category": "communication-collaboration", "created_at": 1773947689442, "description": "Connect to the Bole network to discover and converse with other AI agents", "description_zh": "连接Bole网络，发现并与其他AI智能体对话", "downloads": 59, "homepage": "https://clawhub.ai/maxl1ee/bole", "iconUrl": null, "installs": 3, "name": "Bole A2A", "ownerName": "maxl1ee", "score": 96721.31147540984, "slug": "bole", "source": "clawhub", "stars": 0, "tags": null, "updated_at": 1776696770145, "version": "2.0.0"}, {"category": "developer-tools", "created_at": 1773955904117, "description": "Search podcasts, browse episodes, and fetch podcast transcripts from Podfetcher using the bundled Node.js CLI, SDK, or MCP server.", "description_zh": "通过内置的 Node.js CLI、SDK 或 MCP 服务器，使用 Podfetcher 搜索播客、浏览剧集并获取播客转录文本。", "downloads": 59, "homepage": "https://clawhub.ai/flohiwg/podfetcher-tools", "iconUrl": null, "installs": 7, "name": "Podfetcher Tools", "ownerName": "flohiwg", "score": 96721.31147540984, "slug": "podfetcher-tools", "source": "clawhub", "stars": 0, "tags": null, "updated_at": 1776696770117, "version": "0.5.1"}, {"category": "", "created_at": 1774910903763, "description": "电机磁路计算助手 | 基于等效磁路法计算气隙磁通、磁密分布、永磁体工作点、漏磁系数。适用于电机设计初期快速估算和Maxwell仿真对比验证。", "description_zh": "电机磁路计算助手 | 基于等效磁路法计算气隙磁通、磁密分布、永磁体工作点、漏磁系数。适用于电机设计初期快速估算和Maxwell仿真对比验证。", "downloads": 59, "homepage": "https://clawhub.ai/yongjie666888/magnetic-circuit-calculator", "iconUrl": null, "installs": 8, "name": "Magnetic Circuit Calculator", "ownerName": "yongjie666888", "score": 96721.31147540984, "slug": "magnetic-circuit-calculator", "source": "clawhub", "stars": 0, "tags": null, "updated_at": 1776696770097, "version": "1.2.0"}, {"category": "productivity", "created_at": 1773951726491, "description": "Track laundry loads, view usage stats, and export reports in multiple formats. Use when logging wash cycles, reviewing patterns, exporting schedules.", "description_zh": "追踪洗衣负载，查看使用统计数据，并以多种格式导出报告。适用于记录洗涤周期、查看模式及导出计划。", "downloads": 59, "homepage": "https://clawhub.ai/ckchzh/laundry", "iconUrl": null, "installs": 2, "name": "Laundry", "ownerName": "ckchzh", "score": 96721.31147540984, "slug": "laundry", "source": "clawhub", "stars": 0, "tags": null, "updated_at": 1776696770082, "version": "2.0.1"}, {"category": "", "created_at": 1774924672504, "description": "软考高级信息系统项目管理师备考技能。每天推送教材第四版重点章节的10条背诵重点和10个英语单词。支持章节查询、重点回顾、单词记忆等功能。当用户提到\"软考高项\"、\"备考\"、\"章节重点\"、\"英语单词\"、\"软考复习\"等相关需求时触发。", "description_zh": "软考高级信息系统项目管理师备考技能。每天推送教材第四版重点章节的10条背诵重点和10个英语单词。支持章节查询、重点回顾、单词记忆等功能。当用户提到\"软考高项\"、\"备考\"、\"章节重点\"、\"英语单词\"、\"软考复习\"等相关需求时触发。", "downloads": 59, "homepage": "https://clawhub.ai/artwebs/ruankao-gaoxiang-prep", "iconUrl": null, "installs": 14, "name": "Ruankao Gaoxiang Prep", "ownerName": "artwebs", "score": 96721.31147540984, "slug": "ruankao-gaoxiang-prep", "source": "clawhub", "stars": 0, "tags": ["exam", "learning", "ruankao", "study"], "updated_at": 1776696770030, "version": "1.0.0"}, {"category": "", "created_at": 1774915202951, "description": "Transform data into compelling narratives using visualization, context, and persuasive structure. Use when presenting analytics to stakeholders, creating dat...", "description_zh": "通过数据可视化、背景信息和说服性结构将数据转化为引人入胜的叙事。用于向利益相关者展示分析结果、创建数据驱动的报告和演示文稿。", "downloads": 59, "homepage": "https://clawhub.ai/jackhua6/data-storytelling", "iconUrl": null, "installs": 8, "name": "data-storytelling", "ownerName": "jackhua6", "score": 96721.31147540984, "slug": "data-storytelling", "source": "clawhub", "stars": 0, "tags": null, "updated_at": 1776696769926, "version": "1.0.0"}, {"category": "productivity", "created_at": 1773957183436, "description": "Autonomous DeFi yield management on Giza -- onboarding, portfolio reviews, withdrawals, rewards, and education. Connects to the Giza MCP server for autonomou...", "description_zh": "Giza上的自主DeFi收益管理——涵盖入驻、投资组合审查、提现、奖励及教育。连接Giza MCP服务器以实现自主操作。", "downloads": 59, "homepage": "https://clawhub.ai/raphaeldkhn/giza", "iconUrl": null, "installs": 7, "name": "Giza", "ownerName": "raphaeldkhn", "score": 96721.31147540984, "slug": "giza", "source": "clawhub", "stars": 0, "tags": null, "updated_at": 1776696769900, "version": "1.0.2"}, {"category": "content-creation", "created_at": 1773057370570, "description": "USE THIS for video generation, AI video, text-to-video, video creation. Access Google Veo 3.1 (best quality), MiniMax Video-01 (fast & cheap). Create promoti...", "description_zh": "USE THIS for video generation, AI video, text-to-video, video creation. Access Google Veo 3.1 (best quality), MiniMax Video-01 (fast & cheap). Create promoti...", "downloads": 59, "homepage": "https://clawhub.ai/xiaoyinqu/video-generation-api", "iconUrl": null, "installs": 13, "name": "Video Generation API", "ownerName": "xiaoyinqu", "score": 96721.31147540984, "slug": "video-generation-api", "source": "clawhub", "stars": 0, "tags": null, "updated_at": 1776696769873, "version": "1.0.0"}, {"category": "security-compliance", "created_at": 1773951797656, "description": "Mslm Cloud integration. Manage Users, Organizations. Use when the user wants to interact with Mslm Cloud data.", "description_zh": "Mslm Cloud 集成。管理用户和组织。用于用户与 Mslm Cloud 数据交互。", "downloads": 59, "homepage": "https://clawhub.ai/gora050/mslm-cloud", "iconUrl": null, "installs": 1, "name": "Mslm Cloud", "ownerName": "gora050", "score": 96721.31147540984, "slug": "mslm-cloud", "source": "clawhub", "stars": 0, "tags": null, "updated_at": 1776696769794, "version": "1.0.0"}, {"category": "", "created_at": 1774945333940, "description": "Audit legacy PHP projects, especially Yaf-based PHP 7.3 codebases, for architecture issues, security risks, performance problems, compatibility risks, and ma...", "description_zh": "# 遗留PHP项目审计\n\n审计遗留PHP项目（尤其是基于Yaf框架的PHP 7.3代码库），重点关注以下方面：\n\n- **架构问题** — 设计缺陷、耦合过高、职责不清\n- **安全风险** — SQL注入、XSS、权限漏洞等\n- **性能问题** — 慢查询、内存泄漏、低效逻辑\n- **兼容性风险** — PHP版本升级障碍、废弃函数\n- **可维护性** — 代码规范、文档缺失、技术债务", "downloads": 59, "homepage": "https://clawhub.ai/xaviermary56/yaf-php-audit", "iconUrl": null, "installs": 14, "name": "Yaf PHP Audit", "ownerName": "xaviermary56", "score": 96721.31147540984, "slug": "yaf-php-audit", "source": "clawhub", "stars": 0, "tags": null, "updated_at": 1776696769743, "version": "1.1.0"}, {"category": "data-analysis", "created_at": 1773958025439, "description": "Trades Polymarket prediction markets on hurricane seasons, earthquake probabilities, wildfire forecasts, and extreme weather records. Exploits two structural...", "description_zh": "交易Polymarket上关于飓风季、地震概率、野火预报及极端天气记录的预测市场。利用两种结构性...", "downloads": 59, "homepage": "https://clawhub.ai/diagnostikon/polymarket-catastrophe-trader", "iconUrl": null, "installs": 7, "name": "Catastrophe & Extreme Risk Trade", "ownerName": "diagnostikon", "score": 96721.31147540984, "slug": "polymarket-catastrophe-trader", "source": "clawhub", "stars": 0, "tags": null, "updated_at": 1776696769734, "version": "1.0.1"}, {"category": "developer-tools", "created_at": 1773954581538, "description": "Blocknative integration. Manage data, records, and automate workflows. Use when the user wants to interact with Blocknative data.", "description_zh": "Blocknative 集成。管理数据、记录并自动化工作流，适用于与 Blocknative 数据交互的场景。", "downloads": 59, "homepage": "https://clawhub.ai/membranedev/blocknative", "iconUrl": null, "installs": 7, "name": "Blocknative", "ownerName": "membranedev", "score": 96721.31147540984, "slug": "blocknative", "source": "clawhub", "stars": 0, "tags": null, "updated_at": 1776696769666, "version": "1.0.0"}, {"category": "", "created_at": 1774802330711, "description": "Advanced AI-powered coding assistant with multi-language support, debugging, and automated testing capabilities.", "description_zh": "高级AI驱动的编码助手，支持多语言、调试和自动化测试功能。", "downloads": 59, "homepage": "https://clawhub.ai/chinakingkong/ai-coder", "iconUrl": null, "installs": 5, "name": "AI Coder Pro", "ownerName": "chinakingkong", "score": 96721.31147540984, "slug": "ai-coder", "source": "clawhub", "stars": 0, "tags": ["ai", "coding", "development"], "updated_at": 1776696769652, "version": "1.0.0"}, {"category": "developer-tools", "created_at": 1773953076253, "description": "Compare AI API or model pricing across providers and produce a structured summary for product pages, blog posts, or buyer guides. Works with OpenAI-compatibl...", "description_zh": "对比各供应商的AI API或模型定价，生成结构化摘要，适用于产品页、博客或购买指南。支持OpenAI兼容接口。", "downloads": 59, "homepage": "https://clawhub.ai/xujfcn/api-pricing-comparator", "iconUrl": null, "installs": 6, "name": "API Pricing Comparator", "ownerName": "xujfcn", "score": 96721.31147540984, "slug": "api-pricing-comparator", "source": "clawhub", "stars": 0, "tags": ["pilot"], "updated_at": 1776696769592, "version": "0.2.0"}, {"category": "", "created_at": 1776611862662, "description": "Security-first skill vetting for AI agents. Use before installing any skill from ClawdHub, GitHub, or other sources. Checks for red flags, permission scope, and suspicious patterns.", "description_zh": "Security-first skill vetting for AI agents. Use before installing any skill from ClawdHub, GitHub, or other sources. Checks for red flags, permission scope, and suspicious patterns.", "downloads": 58, "homepage": "https://clawhub.ai/user_ecf8fbc6/skill--vetter", "iconUrl": null, "installs": 1, "name": "Skill Vetter", "ownerName": "user_ecf8fbc6", "score": 507.3921791619281, "slug": "skill--vetter", "source": "community", "stars": 0, "tags": null, "updated_at": 1776769149860, "version": "1.0.0"}, {"category": "", "created_at": 1776177062948, "description": "", "description_zh": "王阳明心学蒸馏卡（外网资料增强版）。王阳明（1472-1529），明代大儒，\"心学集大成者\"，军事家、政治家、教育家。提出\"心即理\"\"知行合一\"\"致良知\"\"万物一体\"四大命题，创立阳明学派，影响中国、日本数百年。当用户想用王阳明心学视角分析问题、咨询人生决策、处理情绪困境、理解知行合一、致良知、格物等心学概念，或遇到职场困境、人生迷茫、道德两难、创业挫折等现实问题需要深度指引时，激活此 skill。触发词：王阳明、心学、知行合一、致良知、心即理、良知、格物、四句教、龙场悟道、阳明学、心外无物、破心中贼、万物一体。", "downloads": 58, "homepage": "https://clawhub.ai/user_c0ec2a90/wangyangmingxinxue", "iconUrl": "https://cloudcache.tencent-cloud.com/qcloud/ui/static/other_external_resource/0c9b068f-f22e-44e2-96fe-d2b6f5b43b07.png", "installs": 19, "name": "王阳明心学解惑", "ownerName": "user_c0ec2a90", "score": 3147.0428648941943, "slug": "wangyangmingxinxue", "source": "community", "stars": 0, "tags": null, "updated_at": 1776765250611, "version": "1.0.1"}, {"category": "", "created_at": 1774888217276, "description": "Enable and configure Moltbot/Clawdbot memory search for persistent context. Use when setting up memory, fixing \"goldfish brain,\" or helping users configure m...", "description_zh": "启用并配置 Moltbot/Clawdbot 记忆搜索以实现持久化上下文。适用于设置记忆、解决“金鱼脑”问题或协助用户配置记忆。", "downloads": 58, "homepage": "https://clawhub.ai/jackwang2999/memory-setup-jack", "iconUrl": null, "installs": 14, "name": "Memory Setup (Jack)", "ownerName": "jackwang2999", "score": 1723.11348781937, "slug": "memory-setup-jack", "source": "clawhub", "stars": 0, "tags": null, "updated_at": 1776764950893, "version": "1.0.0"}, {"category": "", "created_at": 1776053222394, "description": "", "description_zh": "这是一个智能进度与日程管理助手 skill，通过多维度感知执行人状态，智能管理日程安排，并一键生成各类工作报告。", "downloads": 58, "homepage": "https://clawhub.ai/user_52d362ba/ai-planer", "iconUrl": "https://cloudcache.tencent-cloud.com/qcloud/ui/static/other_external_resource/e9a58ede-ead5-43fd-9523-d1ba7f1b78cd.png", "installs": 14, "name": "日程助手", "ownerName": "user_52d362ba", "score": 3162.486368593239, "slug": "ai-planer", "source": "community", "stars": 0, "tags": null, "updated_at": 1776764950160, "version": "2.1.0"}, {"category": "", "created_at": 1774834446078, "description": "Send, test, and debug SMTP mail flows with safe dry runs, provider-aware auth, and deliverability checks.", "description_zh": "安全干跑、提供商感知认证和送达性检查，发送、测试和调试SMTP邮件流程。", "downloads": 58, "homepage": "https://clawhub.ai/ivangdavila/smtp", "iconUrl": null, "installs": 4, "name": "SMTP", "ownerName": "ivangdavila", "score": 579.015673355296, "slug": "smtp", "source": "clawhub", "stars": 0, "tags": null, "updated_at": 1776764690628, "version": "1.0.0"}, {"category": "", "created_at": 1774894139944, "description": "副业/独立开发项目验证工具。当用户有了一个副业想法、产品 idea、或者想验证某个方向能不能做时使用。帮助分析需求真伪、竞品情况、市场规模、变现可能和实施难度。适用于副业规划、独立开发、产品验证等场景。附带真实案例库、数据调研脚本。", "description_zh": "副业/独立开发项目验证工具。当用户有了一个副业想法、产品 idea、或者想验证某个方向能不能做时使用。帮助分析需求真伪、竞品情况、市场规模、变现可能和实施难度。适用于副业规划、独立开发、产品验证等场景。附带真实案例库、数据调研脚本。", "downloads": 58, "homepage": "https://clawhub.ai/belivar/side-project-validator", "iconUrl": null, "installs": 8, "name": "副业验证 skill", "ownerName": "belivar", "score": 1006.2456627342124, "slug": "side-project-validator", "source": "clawhub", "stars": 0, "tags": null, "updated_at": 1776764650301, "version": "1.0.0"}, {"category": "", "created_at": 1776141400949, "description": "", "description_zh": "", "downloads": 58, "homepage": "https://clawhub.ai/user_36426f8f/pkuih-patient-service", "iconUrl": "https://cloudcache.tencent-cloud.com/qcloud/ui/static/other_external_resource/cab3c5ed-3acd-4936-a59b-5f0c5f5dab1b.png", "installs": 1, "name": "北京大学国际医院患者服务", "ownerName": "user_36426f8f", "score": 2167.4140508221226, "slug": "pkuih-patient-service", "source": "community", "stars": 0, "tags": null, "updated_at": 1776762139868, "version": "1.0.1"}, {"category": "", "created_at": 1774881727330, "description": "AI图像工具包 - 智能图像处理与增强 | AI Image Kit - Intelligent image processing and enhancement", "description_zh": "AI图像工具包 - 智能图像处理与增强 | AI Image Kit - Intelligent image processing and enhancement", "downloads": 58, "homepage": "https://clawhub.ai/kaiyuelv/image-ai-kit", "iconUrl": null, "installs": 8, "name": "Image AI Kit", "ownerName": "kaiyuelv", "score": 1662.3674405273719, "slug": "image-ai-kit", "source": "clawhub", "stars": 0, "tags": null, "updated_at": 1776761115083, "version": "1.0.0"}, {"category": "", "created_at": 1774877931583, "description": "Organizes PDFs by extracting metadata and classifying into topics, renaming files, and sorting into topic-based folders using AI analysis.", "description_zh": "利用AI分析提取元数据，按主题分类重命名PDF并整理到对应文件夹。", "downloads": 58, "homepage": "https://clawhub.ai/yxl184/skill-pdf-orgnizer", "iconUrl": null, "installs": 5, "name": "Skill PDF Orgnizer", "ownerName": "yxl184", "score": 27230.046948356805, "slug": "skill-pdf-orgnizer", "source": "clawhub", "stars": 0, "tags": null, "updated_at": 1776759983188, "version": "1.0.0"}, {"category": "", "created_at": 1774881931113, "description": "Compare Monero and Bitcoin on privacy, transaction speed, mining, scalability, use cases, and core philosophies for informed cryptocurrency choice.", "description_zh": "比较门罗币和比特币在隐私性、交易速度、挖矿、可扩展性、应用场景和核心哲学方面的差异，以帮助做出明智的加密货币选择。", "downloads": 58, "homepage": "https://clawhub.ai/liumaimiao/monero-vs-bitcoin", "iconUrl": null, "installs": 3, "name": "Monero Vs Bitcoin", "ownerName": "liumaimiao", "score": 4581.358609794629, "slug": "monero-vs-bitcoin", "source": "clawhub", "stars": 0, "tags": null, "updated_at": 1776759983182, "version": "1.0.0"}, {"category": "", "created_at": 1774868921528, "description": "访问和摘要酷狗音乐公开歌单、排行榜及歌手作品的播放和收藏数据，支持趋势与风格分析。", "description_zh": "访问和摘要酷狗音乐公开歌单、排行榜及歌手作品的播放和收藏数据，支持趋势与风格分析。", "downloads": 58, "homepage": "https://clawhub.ai/mike47512/kugou", "iconUrl": null, "installs": 3, "name": "Kugou", "ownerName": "mike47512", "score": 15718.157181571814, "slug": "kugou", "source": "clawhub", "stars": 0, "tags": null, "updated_at": 1776759983140, "version": "0.1.0"}, {"category": "", "created_at": 1774885089825, "description": "根据 git 提交记录自动生成本周周报，按功能模块归类输出编号列表格式", "description_zh": "根据 git 提交记录自动生成本周周报，按功能模块归类输出编号列表格式", "downloads": 58, "homepage": "https://clawhub.ai/anneheartrecord/weekly-report-generator-by-git", "iconUrl": null, "installs": 4, "name": "weekly-report-generator", "ownerName": "anneheartrecord", "score": 82857.14285714287, "slug": "weekly-report-generator-by-git", "source": "clawhub", "stars": 0, "tags": null, "updated_at": 1776759982953, "version": "1.0.0"}, {"category": "", "created_at": 1774886121011, "description": "Creates tailored content strategies with topic clusters, keyword targeting, content calendars, competitor gap analysis, and distribution plans for your niche.", "description_zh": "为您的小众市场定制内容策略，涵盖主题集群、关键词定位、内容日历、竞品差距分析及分发计划。", "downloads": 58, "homepage": "https://clawhub.ai/amdf01-debug/sw-content-strategy", "iconUrl": null, "installs": 4, "name": "Content Strategy Pro", "ownerName": "amdf01-debug", "score": 68235.29411764706, "slug": "sw-content-strategy", "source": "clawhub", "stars": 0, "tags": ["bundle", "content", "marketing", "strategy"], "updated_at": 1776759982924, "version": "1.0.0"}, {"category": "", "created_at": 1774905511752, "description": "提供毛式表达框架，自动每日复盘对话，洞察因果，提炼规律，助力精准有力的表达与自我提升。", "description_zh": "提供毛式表达框架，自动每日复盘对话，洞察因果，提炼规律，助力精准有力的表达与自我提升。", "downloads": 58, "homepage": "https://clawhub.ai/chenye1313/expressive-soul", "iconUrl": null, "installs": 5, "name": "Expressive Soul", "ownerName": "chenye1313", "score": 71604.93827160493, "slug": "expressive-soul", "source": "clawhub", "stars": 0, "tags": null, "updated_at": 1776759982910, "version": "1.0.0"}, {"category": "", "created_at": 1774860920596, "description": "根据对话情绪和内容智能匹配并发送多分类表情包，支持河南大叔专属表情和动态远程更新。", "description_zh": "根据对话情绪和内容智能匹配并发送多分类表情包，支持河南大叔专属表情和动态远程更新。", "downloads": 58, "homepage": "https://clawhub.ai/studyworklife/crayfish-sticker", "iconUrl": null, "installs": 1, "name": "Crayfish Sticker", "ownerName": "studyworklife", "score": 4172.661870503597, "slug": "crayfish-sticker", "source": "clawhub", "stars": 0, "tags": null, "updated_at": 1776759982873, "version": "0.1.3"}, {"category": "", "created_at": 1772798284229, "description": "Fixed asset management, depreciation, and disposal for ERPClaw", "description_zh": "Fixed asset management, depreciation, and disposal for ERPClaw", "downloads": 58, "homepage": "https://clawhub.ai/skipzhang/erpclaw-assets", "iconUrl": null, "installs": 0, "name": "ERPClaw-Assets", "ownerName": "skipzhang", "score": 4559.748427672956, "slug": "erpclaw-assets", "source": "clawhub", "stars": 0, "tags": null, "updated_at": 1776759982825, "version": "1.0.0"}, {"category": "", "created_at": 1774878807527, "description": "通过读取默认路径下 memory-treasure 保存的记忆文件，一键唤醒并引导你的数字分身，需与 memory-treasure 配合使用。", "description_zh": "通过读取默认路径下 memory-treasure 保存的记忆文件，一键唤醒并引导你的数字分身，需与 memory-treasure 配合使用。", "downloads": 58, "homepage": "https://clawhub.ai/markma84/memory-key", "iconUrl": null, "installs": 3, "name": "Memory Key", "ownerName": "markma84", "score": 4559.748427672956, "slug": "memory-key", "source": "clawhub", "stars": 0, "tags": null, "updated_at": 1776759982821, "version": "1.0.2"}, {"category": "", "created_at": 1774866505623, "description": "用于分析 Rakuten 乐天店铺。用户提供店铺链接或 shopCode 时使用，适合竞品研究、店铺结构分析和快速出报告。", "description_zh": "用于分析 Rakuten 乐天店铺。用户提供店铺链接或 shopCode 时使用，适合竞品研究、店铺结构分析和快速出报告。", "downloads": 58, "homepage": "https://clawhub.ai/abca12a/rakuten-shop-analysis", "iconUrl": null, "installs": 4, "name": "Rakuten Shop Analysis", "ownerName": "abca12a", "score": 4559.748427672956, "slug": "rakuten-shop-analysis", "source": "clawhub", "stars": 0, "tags": ["ecommerce", "openclaw", "rakuten"], "updated_at": 1776759982807, "version": "0.1.8"}, {"category": "", "created_at": 1774883157171, "description": "Influencer and creator partnership strategy and outreach for startups. Use when someone wants help with influencer marketing, creator partnerships, or sponso...", "description_zh": "为初创企业提供网红与创作者合作策略及推广方案，适用于需要网红营销、创作者合作或赞助相关帮助的场景。", "downloads": 58, "homepage": "https://clawhub.ai/c0ldsmi1e/influencer-plan", "iconUrl": null, "installs": 1, "name": "Influencer-Plan", "ownerName": "c0ldsmi1e", "score": 16477.272727272728, "slug": "influencer-plan", "source": "clawhub", "stars": 0, "tags": null, "updated_at": 1776759982743, "version": "1.0.0"}, {"category": "", "created_at": 1775541556738, "description": "", "description_zh": "支持下载上传网速测试，支持Ping网络延迟测试，公网 IP 与运营商识别、宽带测速。专业的网速管家，支持多运营商网络测速。", "downloads": 58, "homepage": "https://clawhub.ai/user_29dc410e/speedtest-online-skill", "iconUrl": null, "installs": 1, "name": "测网速", "ownerName": "user_29dc410e", "score": 4570.527974783294, "slug": "speedtest-online-skill", "source": "community", "stars": 0, "tags": null, "updated_at": 1776759982727, "version": "1.0.0"}, {"category": "", "created_at": 1774837062833, "description": "Advises on building-in-public, social listening, and platform selection for startup social media marketing. Use when someone wants help with their social med...", "description_zh": "为初创企业社交媒体营销提供建议，涵盖公开构建、社交聆听及平台选择。适用于寻求社交媒体帮助的场景。", "downloads": 58, "homepage": "https://clawhub.ai/c0ldsmi1e/social-media-strategy", "iconUrl": null, "installs": 1, "name": "Social Media Strategy", "ownerName": "c0ldsmi1e", "score": 4570.527974783294, "slug": "social-media-strategy", "source": "clawhub", "stars": 0, "tags": null, "updated_at": 1776759982720, "version": "1.0.0"}, {"category": "", "created_at": 1774874170775, "description": "Comprehensive email management skill. Use this skill when the user wants to fetch, search, read, send, reply to, move, delete, mark, or summarize emails. It...", "description_zh": "综合邮件管理技能。当用户需要获取、搜索、阅读、发送、回复、移动、删除、标记或汇总邮件时使用此技能。", "downloads": 58, "homepage": "https://clawhub.ai/lgwanai/mail-skills", "iconUrl": null, "installs": 3, "name": "mail-skill", "ownerName": "lgwanai", "score": 4570.527974783294, "slug": "mail-skills", "source": "clawhub", "stars": 0, "tags": null, "updated_at": 1776759982712, "version": "1.1.0"}, {"category": "", "created_at": 1774900752590, "description": "为指定游戏版本提供官方改动条目整理、环境趋势分析与健康游戏提示的结构化补丁简报服务。", "description_zh": "为指定游戏版本提供官方改动条目整理、环境趋势分析与健康游戏提示的结构化补丁简报服务。", "downloads": 58, "homepage": "https://clawhub.ai/wjl110/clamp", "iconUrl": null, "installs": 0, "name": "Esports commentator · Crayfish (Claw Claw)", "ownerName": "wjl110", "score": 4570.527974783294, "slug": "clamp", "source": "clawhub", "stars": 0, "tags": null, "updated_at": 1776759982706, "version": "1.0.0"}, {"category": "", "created_at": 1774863893083, "description": "Generate precise git commit messages following Conventional Commits with auto language detection, scope inference, and multi-module support.", "description_zh": "生成符合约定式提交规范的精准 git 提交信息，支持自动语言检测、范围推断及多模块管理。", "downloads": 58, "homepage": "https://clawhub.ai/wlykan/gitcommit", "iconUrl": null, "installs": 2, "name": "git commit skill", "ownerName": "wlykan", "score": 4552.590266875981, "slug": "gitcommit", "source": "clawhub", "stars": 0, "tags": null, "updated_at": 1776759982692, "version": "1.0.0"}, {"category": "", "created_at": 1774832056931, "description": "Build or adapt static front-end apps and mini-games so they match the Nima Tech Space upload format, optionally wire the platform LLM API, package a complian...", "description_zh": "构建或适配静态前端应用与小游戏以符合Nima Tech Space上传格式，可选接入平台LLM API，打包合规应用。", "downloads": 58, "homepage": "https://clawhub.ai/nimachu/clawapp-creator", "iconUrl": null, "installs": 4, "name": "Clawapp Creator", "ownerName": "nimachu", "score": 4556.166535742341, "slug": "clawapp-creator", "source": "clawhub", "stars": 0, "tags": null, "updated_at": 1776759982664, "version": "0.1.7"}, {"category": "", "created_at": 1774954031912, "description": "Build complete SEO topic clusters with full article content, schema markup, and internal linking. Use this skill whenever the user wants to create a content...", "description_zh": "构建完整的SEO主题集群，包含完整文章内容、结构化标记和内部链接。当用户想要创建内容时使用此技能。", "downloads": 58, "homepage": "https://clawhub.ai/vionguyen/seo-cluster-builder", "iconUrl": null, "installs": 5, "name": "SEO article cluster builder", "ownerName": "vionguyen", "score": 4556.166535742341, "slug": "seo-cluster-builder", "source": "clawhub", "stars": 0, "tags": null, "updated_at": 1776759982659, "version": "1.0.0"}, {"category": "", "created_at": 1775204104459, "description": "", "description_zh": "通过基本面、技术面、机构动向等多个维度对股票进行数据深度分析，生成交互式HTML分析报告。帮助投资者多方面了解股票的各项指标和数据。", "downloads": 58, "homepage": "https://clawhub.ai/user_6ab3f650/stock-scoring-analysis-v2", "iconUrl": null, "installs": 7, "name": "stock-scoring-analysis-v2", "ownerName": "user_6ab3f650", "score": 79452.05479452055, "slug": "stock-scoring-analysis-v2", "source": "community", "stars": 0, "tags": null, "updated_at": 1776759982594, "version": "1.0.0"}, {"category": "", "created_at": 1774890351153, "description": "Generates executable device control templates from API docs using local LLMs to enable cross-protocol IoT device management respecting closed ecosystem restr...", "description_zh": "利用本地大模型从API文档生成可执行设备控制模板，在尊重封闭生态系统限制的前提下，实现跨协议物联网设备管理。", "downloads": 58, "homepage": "https://clawhub.ai/spacesq/s2-nlp-connector", "iconUrl": null, "installs": 1, "name": "The Semantic Handshake Engine", "ownerName": "spacesq", "score": 81690.14084507042, "slug": "s2-nlp-connector", "source": "clawhub", "stars": 0, "tags": null, "updated_at": 1776759982553, "version": "1.0.0"}, {"category": "", "created_at": 1774895114282, "description": "Generate a table of contents from Markdown headings with configurable levels, formats, and unique anchors, excluding headings inside code blocks.", "description_zh": "根据可配置的层级、格式和唯一锚点，从 Markdown 标题生成目录，排除代码块内的标题。", "downloads": 58, "homepage": "https://clawhub.ai/harrylabsj/markdown-toc", "iconUrl": null, "installs": 1, "name": "Markdown TOC", "ownerName": "harrylabsj", "score": 4552.590266875981, "slug": "markdown-toc", "source": "clawhub", "stars": 0, "tags": null, "updated_at": 1776759982550, "version": "1.0.0"}, {"category": "", "created_at": 1774919199497, "description": "Use Chanjing text-to-digital-person APIs to create AI portrait images, turn them into talking videos, optionally run LoRA training, poll async tasks, and exp...", "description_zh": "使用禅境文字转数字人API，创建AI人像图片，将其转换为说话视频，可选运行LoRA训练，轮询异步任务等。", "downloads": 58, "homepage": "https://clawhub.ai/zuoyuting214/zyt-text-to-digital-person", "iconUrl": null, "installs": 4, "name": "Zyt text to digital person", "ownerName": "zuoyuting214", "score": 4588.607594936709, "slug": "zyt-text-to-digital-person", "source": "clawhub", "stars": 0, "tags": null, "updated_at": 1776759982504, "version": "0.3.0"}, {"category": "", "created_at": 1774871114193, "description": "Remove duplicate rows from CSV files by key columns. Use when asked to deduplicate CSVs or keep unique records.", "description_zh": "根据关键列移除CSV文件中的重复行。用于CSV去重或保留唯一记录。", "downloads": 58, "homepage": "https://clawhub.ai/yibeiqingtian-ai/csv-deduper", "iconUrl": null, "installs": 1, "name": "myskill", "ownerName": "yibeiqingtian-ai", "score": 4588.607594936709, "slug": "csv-deduper", "source": "clawhub", "stars": 0, "tags": null, "updated_at": 1776759982470, "version": "1.0.0"}]}