{"page": 552, "total_pages": 685, "total": 34217, "skills": [{"category": "", "created_at": 1774910073427, "description": "Local vector knowledge base with GraphRAG retrieval (vector + BM25 + knowledge graph). Use this skill when the user mentions: \"查知识库\", \"加入知识库\", \"记住这个\", \"save...", "description_zh": "Local vector knowledge base with GraphRAG retrieval (vector + BM25 + knowledge graph). Use this skill when the user mentions: \"查知识库\", \"加入知识库\", \"记住这个\", \"save...", "downloads": 54, "homepage": "https://clawhub.ai/er6y/py-mnn-kb", "iconUrl": null, "installs": 3, "name": "MNN Local Knowledge Base", "ownerName": "er6y", "score": 4255.31914893617, "slug": "py-mnn-kb", "source": "clawhub", "stars": 0, "tags": ["knowledge", "local", "mnn", "offline", "retrieval"], "updated_at": 1776759982722, "version": "1.0.0"}, {"category": "", "created_at": 1774922371775, "description": "Automation skill for Archive Wechat Article.", "description_zh": "自动化存档微信文章", "downloads": 54, "homepage": "https://clawhub.ai/wcg-king/archive-wechat-article", "iconUrl": null, "installs": 3, "name": "Archive Wechat Article", "ownerName": "wcg-king", "score": 4238.61852433281, "slug": "archive-wechat-article", "source": "clawhub", "stars": 0, "tags": null, "updated_at": 1776759982687, "version": "1.0.0"}, {"category": "", "created_at": 1774874164949, "description": "Magyar helyesírási és nyelvtani ellenőrzés, igeragozás, névszóragozás, nyelvtani szabálymagyarázat és mondatrészek elemzése.", "description_zh": "匈牙利语拼写与语法检查、动词变位、名词变格、语法规则解释及句子成分分析。", "downloads": 54, "homepage": "https://clawhub.ai/izsook/magyar-nyelvtan", "iconUrl": null, "installs": 2, "name": "Magyar Nyelvtan", "ownerName": "izsook", "score": 4238.61852433281, "slug": "magyar-nyelvtan", "source": "clawhub", "stars": 0, "tags": null, "updated_at": 1776759982687, "version": "1.0.0"}, {"category": "", "created_at": 1774886231880, "description": "Provide clear, structured explanations of cosmic structures, celestial bodies, fundamental physics, space exploration, and the universe's future based on cur...", "description_zh": "提供对宇宙结构、天体、基本物理、太空探索以及宇宙未来基于当前研究的清晰、结构化解释。", "downloads": 54, "homepage": "https://clawhub.ai/duanc-chao/universe", "iconUrl": null, "installs": 2, "name": "Universe explorer", "ownerName": "duanc-chao", "score": 4238.61852433281, "slug": "universe", "source": "clawhub", "stars": 0, "tags": null, "updated_at": 1776759982678, "version": "1.0.0"}, {"category": "", "created_at": 1774867929821, "description": "提供虎牙直播公开页面的直播分类、活动信息、主播规则、帮助中心与安全说明的整理服务。", "description_zh": "提供虎牙直播公开页面的直播分类、活动信息、主播规则、帮助中心与安全说明的整理服务。", "downloads": 54, "homepage": "https://clawhub.ai/codenova58/huya", "iconUrl": null, "installs": 3, "name": "Huya", "ownerName": "codenova58", "score": 4238.61852433281, "slug": "huya", "source": "clawhub", "stars": 0, "tags": null, "updated_at": 1776759982673, "version": "0.1.0"}, {"category": "", "created_at": 1774856704108, "description": "Extract document structure, text, tables, and figures from documents using Azure Content Understanding prebuilt-layout analyzer. Converts PDF, images, Office...", "description_zh": "使用 Azure Content Understanding 预构建布局分析器从文档中提取结构、文本、表格和图表，支持 PDF、图片、Office...", "downloads": 54, "homepage": "https://clawhub.ai/zwcih/azure-content-layout", "iconUrl": null, "installs": 0, "name": "Azure Content Understanding Layout", "ownerName": "zwcih", "score": 4241.948153967007, "slug": "azure-content-layout", "source": "clawhub", "stars": 0, "tags": null, "updated_at": 1776759982668, "version": "1.3.0"}, {"category": "", "created_at": 1774899072881, "description": "基于吴军投资理念，分析公司在智能时代的技术优势、数据资产和市场地位，提供科技趋势和投资建议。", "description_zh": "基于吴军投资理念，分析公司在智能时代的技术优势、数据资产和市场地位，提供科技趋势和投资建议。", "downloads": 54, "homepage": "https://clawhub.ai/lj22503/wu-jun-investor", "iconUrl": null, "installs": 3, "name": "吴军投资智慧", "ownerName": "lj22503", "score": 3786.8162692847122, "slug": "wu-jun-investor", "source": "clawhub", "stars": 0, "tags": ["ai", "data-driven", "wu-jun"], "updated_at": 1776759982622, "version": "2.0.0"}, {"category": "", "created_at": 1774952543921, "description": "Provides practical guidance on improving sleep quality with better routines, environment, relaxation, and simple tracking methods for healthier sleep habits.", "description_zh": "提供改善睡眠质量的实用指导，包括更好的作息规律、睡眠环境、放松技巧和简单的追踪方法，帮助养成健康的睡眠习惯。", "downloads": 54, "homepage": "https://clawhub.ai/harrylabsj/sleep-quality-improver", "iconUrl": null, "installs": 0, "name": "Sleep Quality Improver", "ownerName": "harrylabsj", "score": 73972.60273972602, "slug": "sleep-quality-improver", "source": "clawhub", "stars": 0, "tags": null, "updated_at": 1776759982597, "version": "1.0.0"}, {"category": "", "created_at": 1774834700107, "description": "Scenario-focused Sparki skill for commentary-style edits while using the latest official Sparki setup, API-key, and upload workflow guidance.", "description_zh": "场景聚焦的 Sparki 技能，用于评论式编辑，涵盖最新官方 Sparki 设置、API 密钥及上传工作流指南。", "downloads": 54, "homepage": "https://clawhub.ai/fischerlam/ai-commentary", "iconUrl": null, "installs": 0, "name": "AI Commentary", "ownerName": "fischerlam", "score": 76056.33802816902, "slug": "ai-commentary", "source": "clawhub", "stars": 0, "tags": ["commentary", "editing", "sparki", "video"], "updated_at": 1776759982557, "version": "1.0.12"}, {"category": "", "created_at": 1774953330508, "description": "收集并分析不锈钢行业竞争对手钢厂、贸易商和加工厂的工商、产能、价格、客户及风险信息，支持SWOT分析。", "description_zh": "收集并分析不锈钢行业竞争对手钢厂、贸易商和加工厂的工商、产能、价格、客户及风险信息，支持SWOT分析。", "downloads": 54, "homepage": "https://clawhub.ai/wuxi304-collab/stainless-competitor-intel", "iconUrl": null, "installs": 5, "name": "Stainless Competitor Intel", "ownerName": "wuxi304-collab", "score": 4272.151898734177, "slug": "stainless-competitor-intel", "source": "clawhub", "stars": 0, "tags": null, "updated_at": 1776759982497, "version": "1.0.0"}, {"category": "", "created_at": 1774859712420, "description": "Monitor DigitalOcean VPS droplets by listing instances and fetching CPU, memory, disk, and bandwidth metrics with summaries using the DigitalOcean API.", "description_zh": "通过DigitalOcean API监控VPS Droplet实例，列出所有实例并获取CPU、内存、磁盘及带宽指标摘要。", "downloads": 54, "homepage": "https://clawhub.ai/elandivar/neomano-vps-monitoring", "iconUrl": null, "installs": 0, "name": "Neomano VPS Monitoring (DigitalOcean)", "ownerName": "elandivar", "score": 4272.151898734177, "slug": "neomano-vps-monitoring", "source": "clawhub", "stars": 0, "tags": ["digitalocean", "droplets", "metrics", "monitoring", "vps"], "updated_at": 1776759982487, "version": "0.1.2"}, {"category": "", "created_at": 1774880085179, "description": "Designs onboarding, activation, and retention email sequences for SaaS. Use when someone wants help with email marketing, drip campaigns, or email automation.", "description_zh": "{\n \"answer\": \"为 SaaS 设计引导、激活及留存邮件序列。当用户需要邮件营销、滴灌营销或自动化帮助时使用。\"\n}", "downloads": 54, "homepage": "https://clawhub.ai/c0ldsmi1e/email-flows", "iconUrl": null, "installs": 0, "name": "Email Flows", "ownerName": "c0ldsmi1e", "score": 4272.151898734177, "slug": "email-flows", "source": "clawhub", "stars": 0, "tags": null, "updated_at": 1776759982480, "version": "1.0.0"}, {"category": "", "created_at": 1774883236358, "description": "整理Max视频平台公开页面的频道、会员套餐、创作规则及帮助信息，汇总官方公开内容入口和说明。", "description_zh": "整理Max视频平台公开页面的频道、会员套餐、创作规则及帮助信息，汇总官方公开内容入口和说明。", "downloads": 54, "homepage": "https://clawhub.ai/codekungfu/max", "iconUrl": null, "installs": 2, "name": "Max", "ownerName": "codekungfu", "score": 4272.151898734177, "slug": "max", "source": "clawhub", "stars": 0, "tags": null, "updated_at": 1776759982467, "version": "0.1.0"}, {"category": "", "created_at": 1774952360532, "description": "引导梳理模糊想法，分三步完成需求澄清、方案对比和设计细化，适用于新功能规划和技术选型。", "description_zh": "引导梳理模糊想法，分三步完成需求澄清、方案对比和设计细化，适用于新功能规划和技术选型。", "downloads": 54, "homepage": "https://clawhub.ai/caspermoo/mu-brianstorm", "iconUrl": null, "installs": 3, "name": "mu-brianstorm", "ownerName": "caspermoo", "score": 4235.294117647059, "slug": "mu-brianstorm", "source": "clawhub", "stars": 0, "tags": null, "updated_at": 1776759982438, "version": "1.0.0"}, {"category": "", "created_at": 1774860326119, "description": "Retrieve and summarize public travel notes and popular attraction data from Mafengwo for destinations, including ratings, reviews, tickets, and opening times.", "description_zh": "从马蜂窝获取并汇总目的地的公开游记和热门景点数据，包括评分、评价、门票及开放时间。", "downloads": 54, "homepage": "https://clawhub.ai/codekungfu/mafengwo", "iconUrl": null, "installs": 2, "name": "Mafengwo", "ownerName": "codekungfu", "score": 4235.294117647059, "slug": "mafengwo", "source": "clawhub", "stars": 0, "tags": null, "updated_at": 1776759982411, "version": "0.1.0"}, {"category": "", "created_at": 1774913677569, "description": "AI advisor for estimating, pricing, crew management, materials, scheduling, licensing, and scaling painting contractor businesses from solo to multi-crew ope...", "description_zh": "AI顾问：估算、定价、人员管理、材料、排期、许可及油漆承包业务从个体户到多团队运营的规模化发展", "downloads": 54, "homepage": "https://clawhub.ai/afrexai-cto/afrexai-painting-contractor", "iconUrl": null, "installs": 1, "name": "Painting Contractor Operations", "ownerName": "afrexai-cto", "score": 4235.294117647059, "slug": "afrexai-painting-contractor", "source": "clawhub", "stars": 0, "tags": ["business-operations", "contractor", "crew-management", "estimating", "home-services", "painting"], "updated_at": 1776759982382, "version": "1.0.0"}, {"category": "", "created_at": 1774913698989, "description": "Build, optimize, and operate production-ready Retrieval-Augmented Generation systems with best practices in architecture, chunking, embedding, retrieval, eva...", "description_zh": "构建、优化并运维生产级检索增强生成系统，遵循架构、分块、嵌入、检索、评估等最佳实践。", "downloads": 54, "homepage": "https://clawhub.ai/afrexai-cto/afrexai-rag-production", "iconUrl": null, "installs": 2, "name": "RAG Production Engineering", "ownerName": "afrexai-cto", "score": 4262.036306235202, "slug": "afrexai-rag-production", "source": "clawhub", "stars": 0, "tags": ["ai", "chunking", "embeddings", "evaluation", "llm", "production", "rag", "retrieval", "vector"], "updated_at": 1776759982350, "version": "1.0.0"}, {"category": "", "created_at": 1774949342460, "description": "Rewrite vague or unstructured user input into a clear, organized, and execution-ready form based on context, preserving the original intent.", "description_zh": "把含糊或无结构的用户输入改写成清晰、条理化、可执行的形式，保留原意。", "downloads": 54, "homepage": "https://clawhub.ai/stephensu66/input-refiner", "iconUrl": null, "installs": 2, "name": "Input Refiner", "ownerName": "stephensu66", "score": 4262.036306235202, "slug": "input-refiner", "source": "clawhub", "stars": 0, "tags": null, "updated_at": 1776759982329, "version": "2026.3.26"}, {"category": "", "created_at": 1774874752639, "description": "安全审计OpenClaw技能，检测文件操作、网络请求、命令执行、权限和数据泄露等安全风险并生成报告。", "description_zh": "安全审计OpenClaw技能，检测文件操作、网络请求、命令执行、权限和数据泄露等安全风险并生成报告。", "downloads": 54, "homepage": "https://clawhub.ai/yustnust/yusongtao-skill-auditor", "iconUrl": null, "installs": 2, "name": "Skill Auditor (于松涛版)", "ownerName": "yustnust", "score": 3701.1651816312547, "slug": "yusongtao-skill-auditor", "source": "clawhub", "stars": 0, "tags": null, "updated_at": 1776759982296, "version": "1.0.0"}, {"category": "", "created_at": 1774881376517, "description": "精准解读真实财报数据，分析重资产周期拐点，排查财务造假，提供严谨投资决断建议。", "description_zh": "精准解读真实财报数据，分析重资产周期拐点，排查财务造假，提供严谨投资决断建议。", "downloads": 54, "homepage": "https://clawhub.ai/houyucheg/caibaojiedu", "iconUrl": null, "installs": 5, "name": "caibao", "ownerName": "houyucheg", "score": 3701.1651816312547, "slug": "caibaojiedu", "source": "clawhub", "stars": 0, "tags": null, "updated_at": 1776759982294, "version": "1.0.2"}, {"category": "", "created_at": 1774951765528, "description": "Use Chanjing customised person APIs to create, inspect, list, poll, and delete custom digital humans from uploaded source videos.", "description_zh": "使用Chanjing定制人物API，从上传的源视频中创建、查看、列出、轮询和删除定制数字人。", "downloads": 54, "homepage": "https://clawhub.ai/zuoyuting214/zyt-customised-person", "iconUrl": null, "installs": 4, "name": "Zyt customised person", "ownerName": "zuoyuting214", "score": 3701.1651816312547, "slug": "zyt-customised-person", "source": "clawhub", "stars": 0, "tags": null, "updated_at": 1776759982287, "version": "0.2.0"}, {"category": "", "created_at": 1774894179659, "description": "Accurately interpret \"67\" based on context: slang for nonsense, a cancer proliferation marker (Ki-67), a prime number, or an IP67 dust/water resistance rating.", "description_zh": "准确根据上下文解读“67”：可指俚语中的废话、癌细胞增殖标记（Ki‑67）、质数，或IP67防尘/防水等级。", "downloads": 54, "homepage": "https://clawhub.ai/duanc-chao/67", "iconUrl": null, "installs": 0, "name": "67", "ownerName": "duanc-chao", "score": 31764.70588235294, "slug": "67", "source": "clawhub", "stars": 0, "tags": null, "updated_at": 1776759982254, "version": "1.0.0"}, {"category": "", "created_at": 1774842203052, "description": "AI Agent search platform with 9 engines, Google 13 sub-types, vertical scene search, and intelligent auto/multi/extract modes. Designed for LLM and AI agent...", "description_zh": "{\n\"answer\": \"集成9大引擎、Google 13种子类型、垂直场景搜索及智能自动/多选/提取模式的AI Agent搜索平台。专为LLM与AI智能体设计...\"\n}", "downloads": 54, "homepage": "https://clawhub.ai/goldentrii/novada-search", "iconUrl": null, "installs": 1, "name": "Multi Engine Search for Agent", "ownerName": "goldentrii", "score": 31764.70588235294, "slug": "novada-search", "source": "clawhub", "stars": 0, "tags": ["search"], "updated_at": 1776759982239, "version": "1.0.8"}, {"category": "", "created_at": 1774847019065, "description": "整理并摘要西瓜视频公开视频和短剧页的信息，包括视频数据、短剧更新和榜单统计，便于轻量分析和检索。", "description_zh": "整理并摘要西瓜视频公开视频和短剧页的信息，包括视频数据、短剧更新和榜单统计，便于轻量分析和检索。", "downloads": 54, "homepage": "https://clawhub.ai/codekungfu/xigua-video", "iconUrl": null, "installs": 5, "name": "Xigua Video", "ownerName": "codekungfu", "score": 31764.70588235294, "slug": "xigua-video", "source": "clawhub", "stars": 0, "tags": null, "updated_at": 1776759982233, "version": "0.1.0"}, {"category": "", "created_at": 1774887883850, "description": "记录并管理用户纠正、代理错误和改进建议，支持优先级排序、有效性反馈及全文搜索，兼容现有文件格式。", "description_zh": "记录并管理用户纠正、代理错误和改进建议，支持优先级排序、有效性反馈及全文搜索，兼容现有文件格式。", "downloads": 54, "homepage": "https://clawhub.ai/whoisme007/correction-logger", "iconUrl": null, "installs": 1, "name": "Correction Logger", "ownerName": "whoisme007", "score": 4255.31914893617, "slug": "correction-logger", "source": "clawhub", "stars": 0, "tags": null, "updated_at": 1776759982184, "version": "2.0.0"}, {"category": "", "created_at": 1774859643618, "description": "提供喜马拉雅公开节目和主播页面的播放量、评论等数据摘要与榜单统计，辅助内容分析与提醒。", "description_zh": "提供喜马拉雅公开节目和主播页面的播放量、评论等数据摘要与榜单统计，辅助内容分析与提醒。", "downloads": 54, "homepage": "https://clawhub.ai/mike47512/ximalaya", "iconUrl": null, "installs": 2, "name": "Ximalaya", "ownerName": "mike47512", "score": 4255.31914893617, "slug": "ximalaya", "source": "clawhub", "stars": 0, "tags": null, "updated_at": 1776759982171, "version": "0.1.0"}, {"category": "", "created_at": 1774869048414, "description": "基于 mlx-audio 的本地文本转语音，支持多语言和多模型，输出音频文件限于指定路径，无需 API 密钥。", "description_zh": "基于 mlx-audio 的本地文本转语音，支持多语言和多模型，输出音频文件限于指定路径，无需 API 密钥。", "downloads": 54, "homepage": "https://clawhub.ai/gandli-2025/openclaw-mlx-tts", "iconUrl": null, "installs": 3, "name": "Mlx Tts", "ownerName": "gandli-2025", "score": 4255.31914893617, "slug": "openclaw-mlx-tts", "source": "clawhub", "stars": 0, "tags": null, "updated_at": 1776759982156, "version": "0.1.0"}, {"category": "", "created_at": 1774895915846, "description": "Amazon review request optimization agent. Identifies underperforming ASINs by review velocity, calculates optimal timing windows, checks Amazon ToS complianc...", "description_zh": "亚马逊评论请求优化代理。通过评论速度识别表现不佳的ASIN，计算最佳时机窗口，检查亚马逊服务条款合规性...", "downloads": 54, "homepage": "https://clawhub.ai/mguozhen/amazon-review-request-optimizer", "iconUrl": null, "installs": 15, "name": "Amazon Review Request Optimizer", "ownerName": "mguozhen", "score": 3202.846975088968, "slug": "amazon-review-request-optimizer", "source": "clawhub", "stars": 0, "tags": null, "updated_at": 1776757733316, "version": "1.0.0"}, {"category": "", "created_at": 1774870670665, "description": "订阅微信公众号等信源，获取原始文章内容用于整合日报", "description_zh": "订阅微信公众号等信源，获取原始文章内容用于整合日报", "downloads": 54, "homepage": "https://clawhub.ai/eggyrooch-blip/wewerss", "iconUrl": null, "installs": 12, "name": "WeWeRSS", "ownerName": "eggyrooch-blip", "score": 3394.09176618479, "slug": "wewerss", "source": "clawhub", "stars": 0, "tags": null, "updated_at": 1776757282316, "version": "1.0.0"}, {"category": "", "created_at": 1774862914971, "description": "Manage houseplant care with watering and fertilizer schedules. Use when adding plants, tracking watering, scheduling fertilizing, setting care reminders.", "description_zh": "{\"answer\":\"管理室内植物养护，设置浇水和施肥计划。适用于添加植物、记录浇水、安排施肥和设置养护提醒。\"}", "downloads": 54, "homepage": "https://clawhub.ai/xueyetianya/plant", "iconUrl": null, "installs": 4, "name": "Plant", "ownerName": "xueyetianya", "score": 3304.7735618115053, "slug": "plant", "source": "clawhub", "stars": 0, "tags": null, "updated_at": 1776756982811, "version": "2.0.0"}, {"category": "", "created_at": 1774818050001, "description": "Find, validate, and compare arbitrage opportunities across markets with fee-aware math, execution sequencing, and failure-mode checks.", "description_zh": "发现、验证并比较跨市场套利机会，支持费用感知计算、执行排序及故障模式检查。", "downloads": 54, "homepage": "https://clawhub.ai/ivangdavila/arbitrage", "iconUrl": null, "installs": 0, "name": "Arbitrage", "ownerName": "ivangdavila", "score": 3185.8407079646017, "slug": "arbitrage", "source": "clawhub", "stars": 0, "tags": null, "updated_at": 1776756488406, "version": "1.0.0"}, {"category": "", "created_at": 1776100867794, "description": "", "description_zh": "使用 MiniMax API 生成 AI 音乐。当用户要求生成音乐、创作歌曲、作曲、或提到\"AI音乐\"、\"生成歌曲\"时触发。", "downloads": 54, "homepage": "https://clawhub.ai/user_c9d52b8e/minimax-music-v2", "iconUrl": "https://cloudcache.tencent-cloud.com/qcloud/ui/static/other_external_resource/a00e31c7-8d6a-4e65-84fc-16a177f95674.png", "installs": 8, "name": "使用minimax的TokenPlanKey生成音乐", "ownerName": "user_c9d52b8e", "score": 9262.435677530018, "slug": "minimax-music-v2", "source": "community", "stars": 0, "tags": null, "updated_at": 1776754427137, "version": "1.0.0"}, {"category": "", "created_at": 1774862715538, "description": "每日开盘分析 Skill - 每个交易日自动推送 WTI 原油和黄金的开盘预测报告 **功能特性：** - 5:00 自动收集实时价格数据 - 5:30 分析信息面并推送到飞书 - 表格格式展示：品种、收盘价、开盘预测、置信度 - 基于隔夜新闻的利好/利空分析 **数据源：** - 价格数据：CommodityP...", "description_zh": "每日开盘分析 Skill - 每个交易日自动推送 WTI 原油和黄金的开盘预测报告 **功能特性：** - 5:00 自动收集实时价格数据 - 5:30 分析信息面并推送到飞书 - 表格格式展示：品种、收盘价、开盘预测、置信度 - 基于隔夜新闻的利好/利空分析 **数据源：** - 价格数据：CommodityP...", "downloads": 54, "homepage": "https://clawhub.ai/linshengyyy/market-open-analysis", "iconUrl": null, "installs": 11, "name": "openpd", "ownerName": "linshengyyy", "score": 12162.162162162163, "slug": "market-open-analysis", "source": "clawhub", "stars": 0, "tags": null, "updated_at": 1776748485454, "version": "1.0.0"}, {"category": "", "created_at": 1774862715538, "description": "每日开盘分析 Skill - 每个交易日自动推送 WTI 原油和黄金的开盘预测报告 **功能特性：** - 5:00 自动收集实时价格数据 - 5:30 分析信息面并推送到飞书 - 表格格式展示：品种、收盘价、开盘预测、置信度 - 基于隔夜新闻的利好/利空分析 **数据源：** - 价格数据：CommodityP...", "description_zh": "每日开盘分析 Skill - 每个交易日自动推送 WTI 原油和黄金的开盘预测报告 **功能特性：** - 5:00 自动收集实时价格数据 - 5:30 分析信息面并推送到飞书 - 表格格式展示：品种、收盘价、开盘预测、置信度 - 基于隔夜新闻的利好/利空分析 **数据源：** - 价格数据：CommodityP...", "downloads": 54, "homepage": "https://clawhub.ai/linshengyyy/market-open-analysis", "iconUrl": null, "installs": 11, "name": "openpd", "ownerName": "linshengyyy", "score": 11973.39246119734, "slug": "market-open-analysis", "source": "clawhub", "stars": 0, "tags": null, "updated_at": 1776748485454, "version": "1.0.0"}, {"category": "", "created_at": 1774862715538, "description": "每日开盘分析 Skill - 每个交易日自动推送 WTI 原油和黄金的开盘预测报告 **功能特性：** - 5:00 自动收集实时价格数据 - 5:30 分析信息面并推送到飞书 - 表格格式展示：品种、收盘价、开盘预测、置信度 - 基于隔夜新闻的利好/利空分析 **数据源：** - 价格数据：CommodityP...", "description_zh": "每日开盘分析 Skill - 每个交易日自动推送 WTI 原油和黄金的开盘预测报告 **功能特性：** - 5:00 自动收集实时价格数据 - 5:30 分析信息面并推送到飞书 - 表格格式展示：品种、收盘价、开盘预测、置信度 - 基于隔夜新闻的利好/利空分析 **数据源：** - 价格数据：CommodityP...", "downloads": 54, "homepage": "https://clawhub.ai/linshengyyy/market-open-analysis", "iconUrl": null, "installs": 11, "name": "openpd", "ownerName": "linshengyyy", "score": 11973.39246119734, "slug": "market-open-analysis", "source": "clawhub", "stars": 0, "tags": null, "updated_at": 1776748485454, "version": "1.0.0"}, {"category": "security-compliance", "created_at": 1773955798848, "description": "Use this skill when the user wants to audit a Binance trading prompt, decide whether an AI trader should get Binance account permissions, return Pass/Warn/Bl...", "description_zh": "当用户希望审计Binance交易提示词，或决定AI交易员是否应获得Binance账户权限时使用此技能，返回Pass/Warn/Bl...", "downloads": 54, "homepage": "https://clawhub.ai/richard7463/miraix-binance-agent-firewall", "iconUrl": null, "installs": 3, "name": "Miraix Binance Agent Firewall", "ownerName": "richard7463", "score": 58064.516129032265, "slug": "miraix-binance-agent-firewall", "source": "clawhub", "stars": 0, "tags": null, "updated_at": 1776745369894, "version": "1.0.0"}, {"category": "", "created_at": 1774884061274, "description": "Candlestick reference tool. Use when working with candlestick in finance contexts.", "description_zh": "金融蜡烛图参考工具", "downloads": 54, "homepage": "https://clawhub.ai/xueyetianya/candlestick", "iconUrl": null, "installs": 0, "name": "Candlestick", "ownerName": "xueyetianya", "score": 62068.965517241384, "slug": "candlestick", "source": "clawhub", "stars": 0, "tags": null, "updated_at": 1776744170172, "version": "1.0.0"}, {"category": "", "created_at": 1774849366271, "description": "Very helpful in deep-reading one selected research paper, journal article, arXiv paper, working paper, technical report, benchmark paper, dataset paper, repl...", "description_zh": "对深度阅读一篇精选的研究论文、期刊文章、arXiv论文、工作论文、技术报告、基准论文、数据集论文、复现等非常有帮助。", "downloads": 54, "homepage": "https://clawhub.ai/soymilkwinsagain/paper-deep-reader", "iconUrl": null, "installs": 12, "name": "Paper Deep Reader", "ownerName": "soymilkwinsagain", "score": 62068.965517241384, "slug": "paper-deep-reader", "source": "clawhub", "stars": 0, "tags": null, "updated_at": 1776743983887, "version": "2.1.0"}, {"category": "", "created_at": 1774916764643, "description": "Functional programming helpers for Golang using samber/lo — 500+ type-safe generic functions for slices, maps, channels, strings, math, tuples, and concurren...", "description_zh": "Golang 函数式编程辅助库 samber/lo，提供 500+ 类型安全的泛型函数，覆盖切片、映射、通道、字符串、数学、元组与并发等。", "downloads": 54, "homepage": "https://clawhub.ai/samber/golang-samber-lo", "iconUrl": null, "installs": 3, "name": "Golang Samber Lo", "ownerName": "samber", "score": 58064.516129032265, "slug": "golang-samber-lo", "source": "clawhub", "stars": 0, "tags": null, "updated_at": 1776743444490, "version": "0.1.0"}, {"category": "", "created_at": 1774911722309, "description": "Provides linting best practices and golangci-lint configuration for Go projects. Covers running linters, configuring .golangci.yml, suppressing warnings with...", "description_zh": "为Go项目提供代码检查最佳实践及golangci-lint配置，涵盖运行linter、配置.golangci.yml、抑制警告等内容。", "downloads": 54, "homepage": "https://clawhub.ai/samber/golang-linter", "iconUrl": null, "installs": 1, "name": "Golang Lint", "ownerName": "samber", "score": 54545.454545454544, "slug": "golang-linter", "source": "clawhub", "stars": 0, "tags": null, "updated_at": 1776743444382, "version": "0.1.0"}, {"category": "", "created_at": 1774853700860, "description": "Generate structured health summary reports from user-provided health data including vitals, symptoms, medications, and lifestyle. Use when users want to summ...", "description_zh": "根据用户提供的体征、症状、药物和生活方式等健康数据，生成结构化健康摘要报告，适用于用户希望汇总健康信息时使用。", "downloads": 54, "homepage": "https://clawhub.ai/jiwenbing/health-report", "iconUrl": null, "installs": 3, "name": "Health Report", "ownerName": "jiwenbing", "score": 55102.040816326524, "slug": "health-report", "source": "clawhub", "stars": 0, "tags": null, "updated_at": 1776742544389, "version": "1.0.0"}, {"category": "", "created_at": 1774847321691, "description": "Marketing strategy simulation with multi-agent analysis. Use when evaluating marketing strategies, product launches, campaigns, or needing diverse perspectiv...", "description_zh": "营销策略模拟与多智能体分析。用于评估营销策略、产品发布、营销活动或需要多元视角的场景。", "downloads": 54, "homepage": "https://clawhub.ai/dorongss/marketing-simulator", "iconUrl": null, "installs": 2, "name": "Marketing Scenario Simulator", "ownerName": "dorongss", "score": 62068.965517241384, "slug": "marketing-simulator", "source": "clawhub", "stars": 0, "tags": null, "updated_at": 1776741769561, "version": "1.1.0"}, {"category": "", "created_at": 1775543493706, "description": "", "description_zh": "Critical thinking skill to avoid dogmatic thinking by applying concrete analysis to specific situations. A core principle of Marxist dialectical materialism - \"Analyze specific problems in specific contexts\". Use before answering any complex question.", "downloads": 54, "homepage": "https://clawhub.ai/user_2df17fdf/critical", "iconUrl": null, "installs": 3, "name": "批判性思维 Skill", "ownerName": "user_2df17fdf", "score": 56842.10526315789, "slug": "critical", "source": "community", "stars": 0, "tags": null, "updated_at": 1776741284199, "version": "1.0.0"}, {"category": "", "created_at": 1774825113979, "description": "Evaluate betting opportunities with line shopping, bankroll discipline, market checks, and risk filters before any stake is placed.", "description_zh": "综合运用赔率比价、资金管理、市场监测及风险过滤，在下注前评估博彩机会。", "downloads": 54, "homepage": "https://clawhub.ai/ivangdavila/betting", "iconUrl": null, "installs": 2, "name": "Betting", "ownerName": "ivangdavila", "score": 55102.040816326524, "slug": "betting", "source": "clawhub", "stars": 0, "tags": null, "updated_at": 1776739969986, "version": "1.0.0"}, {"category": "", "created_at": 1774901568860, "description": "Interactive product knowledge training and quiz system for retail staff. Tests employees on product specs, store policies, sales techniques, and FAQs through...", "description_zh": "互动式产品知识培训与测验系统，面向零售员工，考查产品规格、店铺政策、销售技巧及常见问题，通过…", "downloads": 54, "homepage": "https://clawhub.ai/fangwei-frank/training-quiz", "iconUrl": null, "installs": 6, "name": "Training Quiz", "ownerName": "fangwei-frank", "score": 58695.65217391305, "slug": "training-quiz", "source": "clawhub", "stars": 0, "tags": null, "updated_at": 1776737084467, "version": "1.0.0"}, {"category": "", "created_at": 1774921415430, "description": "Remove signs of AI-generated writing from text. Use when editing or reviewing text to make it sound more natural and human-written. Based on Wikipedia's comp...", "description_zh": "消除文本中的AI生成痕迹。适用于编辑或审阅文本，使其更具自然感与人工写作特征。基于维基百科的风格指南。", "downloads": 54, "homepage": "https://clawhub.ai/hanxueda/humanizer-1", "iconUrl": null, "installs": 13, "name": "Humanizer 1", "ownerName": "hanxueda", "score": 55670.10309278351, "slug": "humanizer-1", "source": "clawhub", "stars": 0, "tags": null, "updated_at": 1776736857503, "version": "1.0.0"}, {"category": "", "created_at": 1774910144313, "description": "Captures learnings, errors, and corrections to enable continuous improvement. Use when: (1) A command or operation fails unexpectedly, (2) User corrects Clau...", "description_zh": "记录经验教训、错误及修正以实现持续改进。适用场景：（1）命令或操作意外失败，（2）用户纠正Claude...", "downloads": 54, "homepage": "https://clawhub.ai/smallersoup/self-improving-agent-6", "iconUrl": null, "installs": 16, "name": "Self Improvement", "ownerName": "smallersoup", "score": 76056.33802816902, "slug": "self-improving-agent-6", "source": "clawhub", "stars": 0, "tags": null, "updated_at": 1776735080386, "version": "0.1.0"}, {"category": "", "created_at": 1774888409890, "description": "Security vitals checker, also known as ClawVitals. Scans your installation, scores your setup, and shows you exactly what to fix. First scan in seconds.", "description_zh": "安全状态检测工具（又称 ClawVitals），扫描您的安装环境，对配置进行评分，并精确指出需要修复的问题。首次扫描仅需数秒。", "downloads": 54, "homepage": "https://clawhub.ai/bk-cm/securityvitals", "iconUrl": null, "installs": 0, "name": "SecurityVitals", "ownerName": "bk-cm", "score": 54545.454545454544, "slug": "securityvitals", "source": "clawhub", "stars": 0, "tags": null, "updated_at": 1776727483724, "version": "1.3.2"}, {"category": "", "created_at": 1774951600382, "description": "subtitle-generator-ai is a ClawHub skill that transcribes spoken audio from your videos and burns or exports accurate, time-synced subtitles in seconds. Unli...", "description_zh": "subtitle-generator-ai 是一款 ClawHub 技能，可转录视频语音，并在数秒内生成或导出精准同步的字幕。", "downloads": 54, "homepage": "https://clawhub.ai/nemovideonemo/subtitle-generator-ai", "iconUrl": null, "installs": 3, "name": "Subtitle Generator Ai", "ownerName": "nemovideonemo", "score": 51923.07692307693, "slug": "subtitle-generator-ai", "source": "clawhub", "stars": 0, "tags": null, "updated_at": 1776723283664, "version": "1.0.0"}, {"category": "", "created_at": 1774851397986, "description": "Instagram reels maker and TikTok video maker — generate and edit short-form vertical videos directly in chat. Create Instagram Reels, TikTok videos, and YouT...", "description_zh": "Instagram Reels 与 TikTok 视频制作工具——直接在聊天中生成并编辑短视频。支持创建 Instagram Reels、TikTok 视频及 YouT...", "downloads": 54, "homepage": "https://clawhub.ai/imo14reifey/reels-creator", "iconUrl": null, "installs": 4, "name": "Reels Creator", "ownerName": "imo14reifey", "score": 57446.8085106383, "slug": "reels-creator", "source": "clawhub", "stars": 0, "tags": null, "updated_at": 1776722983770, "version": "1.0.6"}]}