{"page": 556, "total_pages": 685, "total": 34217, "skills": [{"category": "", "created_at": 1774859806628, "description": "Generate structured, compliant RFP responses by analyzing requirements, mapping company strengths, identifying gaps, and producing tailored proposal sections...", "description_zh": "通过分析需求、匹配公司优势、识别差距，自动生成结构化、合规的RFP响应提案章节。", "downloads": 52, "homepage": "https://clawhub.ai/afrexai-cto/afrexai-rfp-response-generator", "iconUrl": null, "installs": 0, "name": "Rfp Response Generator", "ownerName": "afrexai-cto", "score": 4113.9240506329115, "slug": "afrexai-rfp-response-generator", "source": "clawhub", "stars": 0, "tags": null, "updated_at": 1776759983237, "version": "1.0.0"}, {"category": "", "created_at": 1774886656493, "description": "管理OpenClaw操作按CRUD分类，创建查询无审批，更新编辑删除需返回操作清单并二次确认。", "description_zh": "管理OpenClaw操作按CRUD分类，创建查询无审批，更新编辑删除需返回操作清单并二次确认。", "downloads": 52, "homepage": "https://clawhub.ai/uynewnas/crud", "iconUrl": null, "installs": 0, "name": "CRUD", "ownerName": "uynewnas", "score": 4113.9240506329115, "slug": "crud", "source": "clawhub", "stars": 0, "tags": null, "updated_at": 1776759983234, "version": "1.0.3"}, {"category": "", "created_at": 1774871458556, "description": "Interact with the Mutinynet Bitcoin testnet faucet. Get testnet bitcoin on-chain, pay lightning invoices, open lightning channels, and generate bolt11 invoic...", "description_zh": "与 Mutinynet 比特币测试网水龙头交互。获取测试网链上比特币、支付闪电网络发票、开启闪电通道并生成 BOLT11 发票。", "downloads": 52, "homepage": "https://clawhub.ai/benthecarman/mutinynet-cli", "iconUrl": null, "installs": 2, "name": "Mutinynet CLI", "ownerName": "benthecarman", "score": 24413.1455399061, "slug": "mutinynet-cli", "source": "clawhub", "stars": 0, "tags": null, "updated_at": 1776759983219, "version": "0.1.1"}, {"category": "", "created_at": 1774955591920, "description": "Access Instagram messaging, profiles, posts, and interactions via Unipile's official Node.js SDK for automation and content management.", "description_zh": "通过Unipile官方Node.js SDK实现Instagram私信、个人资料、帖子和互动的自动化访问与内容管理。", "downloads": 52, "homepage": "https://clawhub.ai/mohit21gojs/unipile-instagram-sdk", "iconUrl": null, "installs": 2, "name": "Unipile Instagram SDK", "ownerName": "mohit21gojs", "score": 24413.1455399061, "slug": "unipile-instagram-sdk", "source": "clawhub", "stars": 0, "tags": null, "updated_at": 1776759983201, "version": "1.0.2"}, {"category": "", "created_at": 1774856948798, "description": "Interact with GitHub using the `gh` CLI. Use `gh issue`, `gh pr`, `gh run`, and `gh api` for issues, PRs, CI runs, and advanced queries.", "description_zh": "使用 `gh` CLI 与 GitHub 交互。使用 `gh issue`、`gh pr`、`gh run` 和 `gh api` 处理 issue、PR、CI 运行及高级查询。", "downloads": 52, "homepage": "https://clawhub.ai/yequanzheng/fdksafs", "iconUrl": null, "installs": 0, "name": "这是我的test3", "ownerName": "yequanzheng", "score": 4107.424960505529, "slug": "fdksafs", "source": "clawhub", "stars": 0, "tags": ["latest2323"], "updated_at": 1776759983185, "version": "1.0.3"}, {"category": "", "created_at": 1774888155284, "description": "Parse, search, filter, and export Kindle highlights and notes from \"My Clippings.txt\" via a command-line tool with Markdown output.", "description_zh": "通过命令行工具解析、搜索、筛选并导出 Kindle「My Clippings.txt」中的标注与笔记，支持 Markdown 格式输出。", "downloads": 52, "homepage": "https://clawhub.ai/emersonding/kindle-clip-cli", "iconUrl": null, "installs": 0, "name": "Openclaw Skill", "ownerName": "emersonding", "score": 4107.424960505529, "slug": "kindle-clip-cli", "source": "clawhub", "stars": 0, "tags": null, "updated_at": 1776759983162, "version": "1.0.1"}, {"category": "", "created_at": 1774874029902, "description": "Track and compare product prices across popular Indian stores (Amazon India, Flipkart, Reliance Digital, Croma, Vijay Sales, Tata CLiQ, and more), compute ef...", "description_zh": "追踪并比较印度主流商店（Amazon India、Flipkart 等）的产品价格，计算有效优惠。", "downloads": 52, "homepage": "https://clawhub.ai/anugotta/india-price-tracker", "iconUrl": null, "installs": 2, "name": "India Price Tracker", "ownerName": "anugotta", "score": 4107.424960505529, "slug": "india-price-tracker", "source": "clawhub", "stars": 0, "tags": null, "updated_at": 1776759983156, "version": "1.0.0"}, {"category": "", "created_at": 1774888012210, "description": "Unterstützt bei FiSi-Ausbildungsthemen wie Netzwerke, Server-Admin, Datenbanken, Scripting, Sicherheit, Virtualisierung, Prüfungsvorbereitung und Projektarbeit.", "description_zh": "协助FiSi职业培训相关主题，包括网络、服务器管理、数据库、脚本编写、安全、虚拟化、考试备考及项目工作。", "downloads": 52, "homepage": "https://clawhub.ai/arn0ld87/fisi", "iconUrl": null, "installs": 1, "name": "Fisi", "ownerName": "arn0ld87", "score": 4113.9240506329115, "slug": "fisi", "source": "clawhub", "stars": 0, "tags": ["fisi", "systemintegration"], "updated_at": 1776759982971, "version": "1.1.0"}, {"category": "", "created_at": 1774871688544, "description": "Clarifies and rewrites ecommerce refund policies into clear, customer-friendly language without expanding or changing the store’s actual refund terms.", "description_zh": "将电商退款政策改写为清晰、顾客友好的语言，不扩大或更改店铺实际退款条款。", "downloads": 52, "homepage": "https://clawhub.ai/leooooooow/refund-policy-clarifier", "iconUrl": null, "installs": 1, "name": "Refund Policy Clarifier", "ownerName": "leooooooow", "score": 74285.71428571429, "slug": "refund-policy-clarifier", "source": "clawhub", "stars": 0, "tags": null, "updated_at": 1776759982945, "version": "1.0.0"}, {"category": "", "created_at": 1774902739180, "description": "整理Wink官网公开模板、编辑能力、导出规格、版权说明及套餐信息，提供功能及帮助文档摘要。", "description_zh": "整理Wink官网公开模板、编辑能力、导出规格、版权说明及套餐信息，提供功能及帮助文档摘要。", "downloads": 52, "homepage": "https://clawhub.ai/codenova58/wink", "iconUrl": null, "installs": 4, "name": "Wink", "ownerName": "codenova58", "score": 61176.4705882353, "slug": "wink", "source": "clawhub", "stars": 0, "tags": null, "updated_at": 1776759982935, "version": "0.1.0"}, {"category": "", "created_at": 1774889961198, "description": "Web search API for AI agents. Get search results with titles and snippets.", "description_zh": "面向AI代理的网页搜索API，获取标题和摘要搜索结果。", "downloads": 52, "homepage": "https://clawhub.ai/dommholland/getpost-search", "iconUrl": null, "installs": 2, "name": "GetPost Search API", "ownerName": "dommholland", "score": 61176.4705882353, "slug": "getpost-search", "source": "clawhub", "stars": 0, "tags": null, "updated_at": 1776759982933, "version": "1.0.0"}, {"category": "", "created_at": 1774868828175, "description": "use this skill to teach people what is Failed Use of Captured Kinetic (energy)", "description_zh": "使用此技能教导人们什么是捕获动能的失败使用", "downloads": 52, "homepage": "https://clawhub.ai/duanc-chao/fuck", "iconUrl": null, "installs": 0, "name": "Physic stuff", "ownerName": "duanc-chao", "score": 3741.0071942446043, "slug": "fuck", "source": "clawhub", "stars": 0, "tags": ["l"], "updated_at": 1776759982881, "version": "1.0.1"}, {"category": "", "created_at": 1774914903702, "description": "AI-powered video editing — turn raw footage into polished vlogs, highlight reels, TikTok/Shorts/Reels, montages, and more. Control the editing flow through T...", "description_zh": "AI驱动的视频编辑 — 将原始素材转化为精致的vlog、精华片段、TikTok/Shorts/Reels、混剪等。 通过 T...", "downloads": 52, "homepage": "https://clawhub.ai/fischerlam/which-sparki-skill-zh", "iconUrl": null, "installs": 4, "name": "哪个 Sparki Skill 适合我？", "ownerName": "fischerlam", "score": 3741.0071942446043, "slug": "which-sparki-skill-zh", "source": "clawhub", "stars": 0, "tags": ["discovery", "guide", "sparki", "zh"], "updated_at": 1776759982876, "version": "1.0.0"}, {"category": "", "created_at": 1774884505798, "description": "Analyzes any CSV file and returns row count, column names, and basic statistics for numeric columns.", "description_zh": "分析CSV文件，返回行数、列名及数值列基本统计。", "downloads": 52, "homepage": "https://clawhub.ai/leotrieu/leo-csv-stats-analyzer", "iconUrl": null, "installs": 2, "name": "Leo CSV Stats Analyzer", "ownerName": "leotrieu", "score": 3741.0071942446043, "slug": "leo-csv-stats-analyzer", "source": "clawhub", "stars": 0, "tags": null, "updated_at": 1776759982862, "version": "1.0.0"}, {"category": "", "created_at": 1774888107315, "description": "检索凤凰网公开新闻和频道页，提供关键词新闻摘要、频道热点统计及深度报道段落要点提取。", "description_zh": "检索凤凰网公开新闻和频道页，提供关键词新闻摘要、频道热点统计及深度报道段落要点提取。", "downloads": 52, "homepage": "https://clawhub.ai/codenova58/ifeng", "iconUrl": null, "installs": 1, "name": "Ifeng", "ownerName": "codenova58", "score": 3276.6225582860743, "slug": "ifeng", "source": "clawhub", "stars": 0, "tags": null, "updated_at": 1776759982844, "version": "0.1.0"}, {"category": "", "created_at": 1774905205740, "description": "AI-assisted tool that filters Upwork jobs, drafts personalized proposals, tracks applications locally, and learns from outcomes for continuous improvement.", "description_zh": "AI辅助工具，筛选Upwork职位，起草个性化提案，本地跟踪申请，并根据结果持续优化。", "downloads": 52, "homepage": "https://clawhub.ai/dttnpole-commits/ai-upwork-proposal-writing-job-tracking-system", "iconUrl": null, "installs": 0, "name": "AI Upwork Proposal Writing & Job Tracking System", "ownerName": "dttnpole-commits", "score": 3276.6225582860743, "slug": "ai-upwork-proposal-writing-job-tracking-system", "source": "clawhub", "stars": 0, "tags": ["auto-bid", "freelance-growth", "lead-gen", "revenue-ai", "upwork-automation"], "updated_at": 1776759982827, "version": "1.0.3"}, {"category": "", "created_at": 1774886461869, "description": "Routes user commands to the most suitable sub-agent based on intent, coordinates task execution priority, and tracks overall task status.", "description_zh": "根据意图将用户命令路由至最合适的子代理，协调任务执行优先级，并跟踪整体任务状态。", "downloads": 52, "homepage": "https://clawhub.ai/zs15600770520/agent-router", "iconUrl": null, "installs": 2, "name": "Agent Router", "ownerName": "zs15600770520", "score": 4088.0503144654085, "slug": "agent-router", "source": "clawhub", "stars": 0, "tags": null, "updated_at": 1776759982822, "version": "1.0.0"}, {"category": "", "created_at": 1774923706660, "description": "抖音视频自动化工作流 - 下载、上传OSS、记录到飞书多维表格", "description_zh": "抖音视频自动化工作流 - 下载、上传OSS、记录到飞书多维表格", "downloads": 52, "homepage": "https://clawhub.ai/jerryxn/bee", "iconUrl": null, "installs": 0, "name": "bee", "ownerName": "jerryxn", "score": 4088.0503144654085, "slug": "bee", "source": "clawhub", "stars": 0, "tags": ["automation", "bee", "douyin", "oss", "video", "workflow"], "updated_at": 1776759982813, "version": "1.0.1"}, {"category": "", "created_at": 1774887714501, "description": "Enforces AI behavior principles ensuring safety, privacy, honesty, traceability, risk-aware actions, proactive self-improvement, and accountable decision log...", "description_zh": "强制执行AI行为准则，确保安全性、隐私保护、诚实性、可追溯性、风险感知行动、主动自我改进及可问责的决策日志记录。", "downloads": 52, "homepage": "https://clawhub.ai/xiaobu2020/agent-behavioral-constitution", "iconUrl": null, "installs": 2, "name": "Agent Behavioral Constitution", "ownerName": "xiaobu2020", "score": 4088.0503144654085, "slug": "agent-behavioral-constitution", "source": "clawhub", "stars": 0, "tags": ["agent-behavior", "constitution", "ethics", "safety"], "updated_at": 1776759982804, "version": "1.0.2"}, {"category": "", "created_at": 1775644863278, "description": "", "description_zh": "专为实体商业打造的 AI 选址洞察专家。通过动态商业战略追问与高德 LBS 数据引擎，全自动生成包含「竞品雷达」、「客流推演」与「多维横评矩阵」的交互式可视化研报，让开店决策更科学。", "downloads": 52, "homepage": "https://clawhub.ai/user_07c6a703/smart-site-selection-skill", "iconUrl": null, "installs": 5, "name": "smart-site-selection-skill", "ownerName": "user_07c6a703", "score": 4091.2667191188043, "slug": "smart-site-selection-skill", "source": "community", "stars": 0, "tags": null, "updated_at": 1776759982797, "version": "1.0.0"}, {"category": "", "created_at": 1774944162563, "description": "Put policy before paid actions, require approval for risky autonomous actions, and keep a finance-ready audit trail.", "description_zh": "将政策置于付费行动之前，要求审批风险自主行为，并保留财务审计记录。", "downloads": 52, "homepage": "https://clawhub.ai/onechan/nornr-governance", "iconUrl": null, "installs": 0, "name": "NORNR MCP Control", "ownerName": "onechan", "score": 4113.9240506329115, "slug": "nornr-governance", "source": "clawhub", "stars": 0, "tags": ["approvals", "audit", "finance", "governance"], "updated_at": 1776759982774, "version": "0.1.6"}, {"category": "", "created_at": 1774892270548, "description": "Extract and summarize public project and announcement information from Worktile shared pages without requiring login or accessing private data.", "description_zh": "从Worktile共享页面提取并汇总公开的项目和公告信息，无需登录或访问私有数据。", "downloads": 52, "homepage": "https://clawhub.ai/codekungfu/worktile", "iconUrl": null, "installs": 4, "name": "Worktile", "ownerName": "codekungfu", "score": 4113.9240506329115, "slug": "worktile", "source": "clawhub", "stars": 0, "tags": null, "updated_at": 1776759982756, "version": "0.1.0"}, {"category": "", "created_at": 1774836744586, "description": "Cross-platform (Linux/macOS/Windows) skill for Exchange Server 2016 CU21 EWS operations on OpenClaw Node.js runtime.", "description_zh": "跨平台（Linux/macOS/Windows）技能，用于在 OpenClaw Node.js 运行时上执行 Exchange Server 2016 CU21 EWS 操作", "downloads": 52, "homepage": "https://clawhub.ai/jokermec/exchangeserviceskill", "iconUrl": null, "installs": 2, "name": "ExchangeService", "ownerName": "jokermec", "score": 14772.727272727274, "slug": "exchangeserviceskill", "source": "clawhub", "stars": 0, "tags": null, "updated_at": 1776759982749, "version": "1.0.1"}, {"category": "", "created_at": 1774862027424, "description": "Expert translation methodology and best practices for English-Tibetan bilingual translation. Use when translating any content between English and Tibetan (Cl...", "description_zh": "精通英藏双语翻译的方法论与最佳实践，适用于任何英藏内容互译（Cl...", "downloads": 52, "homepage": "https://clawhub.ai/tenzdelek/tibetan-translation", "iconUrl": null, "installs": 1, "name": "Tibetan Translation", "ownerName": "tenzdelek", "score": 14772.727272727274, "slug": "tibetan-translation", "source": "clawhub", "stars": 0, "tags": null, "updated_at": 1776759982747, "version": "1.0.0"}, {"category": "", "created_at": 1774891450395, "description": "Provides NVIDIA Jetson CUDA tools to query CUDA version, GPU device info, and CUDA library paths on Jetson devices.", "description_zh": "提供NVIDIA Jetson CUDA工具，用于查询Jetson设备上的CUDA版本、GPU设备信息及CUDA库路径。", "downloads": 52, "homepage": "https://clawhub.ai/wxd9199/jetson-cuda", "iconUrl": null, "installs": 3, "name": "Jetson CUDA", "ownerName": "wxd9199", "score": 4097.714736012608, "slug": "jetson-cuda", "source": "clawhub", "stars": 0, "tags": null, "updated_at": 1776759982726, "version": "1.0.0"}, {"category": "", "created_at": 1774879184972, "description": "Dynamically updates your Openclaw agent's SOUL.md daily with 5D neuro-radar stats to create a biologically-inspired, evolving AI personality.", "description_zh": "每日动态更新Openclaw智能体的SOUL.md文件，融入5D神经雷达统计数据，塑造生物启发、不断进化的AI人格。", "downloads": 52, "homepage": "https://clawhub.ai/spacesq/s2-neuro-soul-link", "iconUrl": null, "installs": 3, "name": "Xiang miles | Space2.world", "ownerName": "spacesq", "score": 4097.714736012608, "slug": "s2-neuro-soul-link", "source": "clawhub", "stars": 0, "tags": null, "updated_at": 1776759982716, "version": "1.0.5"}, {"category": "", "created_at": 1774884942570, "description": "整理Shazam官网公开信息，涵盖会员权益、公开榜单、音乐入口及版权说明，确保合法合规内容展示。", "description_zh": "整理Shazam官网公开信息，涵盖会员权益、公开榜单、音乐入口及版权说明，确保合法合规内容展示。", "downloads": 52, "homepage": "https://clawhub.ai/mike47512/shazam", "iconUrl": null, "installs": 1, "name": "Shazam", "ownerName": "mike47512", "score": 4081.632653061224, "slug": "shazam", "source": "clawhub", "stars": 0, "tags": null, "updated_at": 1776759982695, "version": "0.1.0"}, {"category": "", "created_at": 1774831380947, "description": "Agents learning from agents. Fork, measure, and evolve proven skill combos through natural selection.", "description_zh": "智能体向智能体学习，复制、评估并通过自然选择进化已验证的技能组合。", "downloads": 52, "homepage": "https://clawhub.ai/michellzappa/agent-hivemind", "iconUrl": null, "installs": 4, "name": "Agent Hivemind", "ownerName": "michellzappa", "score": 4081.632653061224, "slug": "agent-hivemind", "source": "clawhub", "stars": 0, "tags": null, "updated_at": 1776759982671, "version": "1.9.5"}, {"category": "", "created_at": 1774869217501, "description": "Provides stock market data, sentiment analysis, news clustering, institutional flow, and AI-generated reports via a REST API with tiered access and real-time...", "description_zh": "通过REST API提供股市数据、情绪分析、新闻聚类、机构资金流向及AI生成报告，支持分级访问与实时更新。", "downloads": 52, "homepage": "https://clawhub.ai/thesentitrader/sentisense", "iconUrl": null, "installs": 2, "name": "SentiSense Market Intelligence API", "ownerName": "thesentitrader", "score": 4084.8389630793404, "slug": "sentisense", "source": "clawhub", "stars": 0, "tags": null, "updated_at": 1776759982665, "version": "1.0.1"}, {"category": "", "created_at": 1775700916024, "description": "", "description_zh": "水土保持方案报告书审查技能。当用户需要对生产建设项目水土保持方案报告书进行审查评审时使用。依据B1规范和GB50433-2018技术标准，逐章逐项审查并生成docx格式审查报告。支持综合审查报告和4份专项审查报告（B1规范结构审查、逐章标准审查、数据一致性审查、错别字审查）。", "downloads": 52, "homepage": "https://clawhub.ai/user_25b0a437/water-conservation-review", "iconUrl": null, "installs": 5, "name": "水土保持方案报告书审查", "ownerName": "user_25b0a437", "score": 4084.8389630793404, "slug": "water-conservation-review", "source": "community", "stars": 0, "tags": null, "updated_at": 1776759982662, "version": "2.1.3"}, {"category": "", "created_at": 1775500617516, "description": "", "description_zh": "搜索并分析 arXiv 学术论文。默认执行“搜索 + 摘要分析 + 热点统计 + 趋势判断”的完整流程，并立即返回结构化报告。用户确认后，可基于同一检索条件创建定时监控任务，定期推送最新论文分析。", "downloads": 52, "homepage": "https://clawhub.ai/user_eb2ccafa/arxiv-paper-searcher", "iconUrl": null, "installs": 3, "name": "arxiv-paper-searcher", "ownerName": "user_eb2ccafa", "score": 4084.8389630793404, "slug": "arxiv-paper-searcher", "source": "community", "stars": 0, "tags": null, "updated_at": 1776759982651, "version": "1.0.2"}, {"category": "", "created_at": 1774949676919, "description": "Search 3,900+ MCP servers with install commands, get daily AI brief, and discover trending tools — in Chinese. Data from skillnav.dev editorial team.", "description_zh": "搜索 3,900+ MCP 服务器及安装命令，获取每日 AI 简报，发现热门工具。数据来自 skillnav.dev 编辑团队。", "downloads": 52, "homepage": "https://clawhub.ai/huiw86/skillnav", "iconUrl": null, "installs": 2, "name": "SkillNav", "ownerName": "huiw86", "score": 4084.8389630793404, "slug": "skillnav", "source": "clawhub", "stars": 0, "tags": null, "updated_at": 1776759982648, "version": "1.0.0"}, {"category": "", "created_at": 1774867209925, "description": "Provides step-by-step startup launch strategies, Product Hunt tactics, influencer outreach templates, and marketing checklists for SaaS, apps, and open sourc...", "description_zh": "提供 SaaS、应用和开源产品的分步启动策略、Product Hunt 推广技巧、网红合作模板及营销清单。", "downloads": 52, "homepage": "https://clawhub.ai/gingiris/startup-launch", "iconUrl": null, "installs": 0, "name": "Startup Launch Playbook", "ownerName": "gingiris", "score": 3646.56381486676, "slug": "startup-launch", "source": "clawhub", "stars": 0, "tags": null, "updated_at": 1776759982628, "version": "1.0.0"}, {"category": "", "created_at": 1775497702580, "description": "", "description_zh": "全平台通用系统迁移工具，支持跨设备、跨系统完整备份与恢复，恢复后自动优化进入高性能稳定模式。", "downloads": 52, "homepage": "https://clawhub.ai/user_637f969b/migrate-pro", "iconUrl": null, "installs": 1, "name": "系统迁移工具", "ownerName": "user_637f969b", "score": 71232.87671232877, "slug": "migrate-pro", "source": "community", "stars": 0, "tags": null, "updated_at": 1776759982604, "version": "1.0.0"}, {"category": "", "created_at": 1774917375798, "description": "Provides actionable insights into X's For You feed algorithm to optimize content for engagement by predicting and maximizing key user interaction types.", "description_zh": "提供X推荐算法的可操作见解，通过预测和最大化关键用户互动类型来优化内容以提升互动率。", "downloads": 52, "homepage": "https://clawhub.ai/sergeo01/x-algorithm-optimization", "iconUrl": null, "installs": 0, "name": "X Algorithm Optimization", "ownerName": "sergeo01", "score": 71232.87671232877, "slug": "x-algorithm-optimization", "source": "clawhub", "stars": 0, "tags": ["algorithm", "marketing", "social-media", "x"], "updated_at": 1776759982584, "version": "1.0.0"}, {"category": "", "created_at": 1774866744568, "description": "汇付统一收银台退款 Skill：退款申请和退款结果查询。触发词：退款、退款查询、申请退款、退款状态。前置依赖：dougong-pay-base（含凭据配置）。额外环境变量：HUIFU_REFUND_NOTIFY_URL。", "description_zh": "汇付统一收银台退款 Skill：退款申请和退款结果查询。触发词：退款、退款查询、申请退款、退款状态。前置依赖：dougong-pay-base（含凭据配置）。额外环境变量：HUIFU_REFUND_NOTIFY_URL。", "downloads": 52, "homepage": "https://clawhub.ai/codecodeing/dougong-cashier-refund", "iconUrl": null, "installs": 0, "name": "dougong-api-skills", "ownerName": "codecodeing", "score": 71232.87671232877, "slug": "dougong-cashier-refund", "source": "clawhub", "stars": 0, "tags": null, "updated_at": 1776759982577, "version": "0.0.4"}, {"category": "", "created_at": 1774878076414, "description": "Creates visually lively, warm, and playful designs with personality, motion, bold aesthetics, tactile textures, and purposeful color to evoke delight and bra...", "description_zh": "创造充满活力、温暖且俏皮的设计，融合个性、动感、大胆美学、可触纹理及鲜明的色彩，以唤起愉悦感并塑造品牌形象。", "downloads": 52, "homepage": "https://clawhub.ai/aa-on-ai/whimsical-design", "iconUrl": null, "installs": 3, "name": "Whimsical Design", "ownerName": "aa-on-ai", "score": 73239.43661971831, "slug": "whimsical-design", "source": "clawhub", "stars": 0, "tags": null, "updated_at": 1776759982575, "version": "1.0.0"}, {"category": "", "created_at": 1774878677282, "description": "整理Hulu公开主页、会员套餐、帮助中心及创作者信息，提供节目入口、会员权益及上传规范概览。", "description_zh": "整理Hulu公开主页、会员套餐、帮助中心及创作者信息，提供节目入口、会员权益及上传规范概览。", "downloads": 52, "homepage": "https://clawhub.ai/mike47512/hulu", "iconUrl": null, "installs": 1, "name": "Hulu", "ownerName": "mike47512", "score": 73239.43661971831, "slug": "hulu", "source": "clawhub", "stars": 0, "tags": null, "updated_at": 1776759982572, "version": "0.1.0"}, {"category": "", "created_at": 1774880349777, "description": "Rewrite or draft text in a confident, concise, and strategically assertive style inspired by Harvey Specter, ideal for professional negotiations and sharp co...", "description_zh": "{\n  \"description_zh\": \"以哈维·斯佩克特风格进", "downloads": 52, "homepage": "https://clawhub.ai/anugotta/harvey-specter-writing-style", "iconUrl": null, "installs": 0, "name": "Harvey Specter Writing Style", "ownerName": "anugotta", "score": 4081.632653061224, "slug": "harvey-specter-writing-style", "source": "clawhub", "stars": 0, "tags": null, "updated_at": 1776759982541, "version": "1.0.0"}, {"category": "", "created_at": 1774854791919, "description": "Search and summarize public Eleme merchants and products by category, including ratings, prices, delivery fees, and promotions without placing orders.", "description_zh": "搜索并汇总饿了么公开商家及商品信息，包括评分、价格、配送费、优惠，且不下单。", "downloads": 52, "homepage": "https://clawhub.ai/mike47512/eleme", "iconUrl": null, "installs": 0, "name": "Eleme", "ownerName": "mike47512", "score": 4113.9240506329115, "slug": "eleme", "source": "clawhub", "stars": 0, "tags": null, "updated_at": 1776759982478, "version": "0.1.0"}, {"category": "", "created_at": 1774874600367, "description": "Recommend optimal skill combinations and workflows for user tasks, offering usage examples and preset workflows to optimize project execution.", "description_zh": "推荐最佳技能组合与工作流，提供使用示例和预设工作流，优化项目执行。", "downloads": 52, "homepage": "https://clawhub.ai/utopiabenben/skill-combo-recommender", "iconUrl": null, "installs": 2, "name": "Skill Combo Recommender", "ownerName": "utopiabenben", "score": 4113.9240506329115, "slug": "skill-combo-recommender", "source": "clawhub", "stars": 0, "tags": null, "updated_at": 1776759982474, "version": "1.0.0"}, {"category": "", "created_at": 1774892153941, "description": "Compare two text files and display their differences using unified, context, or side-by-side diff formats with customizable options.", "description_zh": "比较两个文本文件，支持统一、上下文或并排差异格式及自定义选项。", "downloads": 52, "homepage": "https://clawhub.ai/harrylabsj/text-diff", "iconUrl": null, "installs": 0, "name": "Text Diff", "ownerName": "harrylabsj", "score": 4113.9240506329115, "slug": "text-diff", "source": "clawhub", "stars": 0, "tags": null, "updated_at": 1776759982472, "version": "1.0.0"}, {"category": "", "created_at": 1774866735775, "description": "Provides information on Disney Plus public pages including membership plans, content channels, creator guidelines, and help resources without accessing perso...", "description_zh": "提供迪士尼+公开页面的信息，包括会员计划、内容频道、创作者指南和帮助资源，且不访问个人信息。", "downloads": 52, "homepage": "https://clawhub.ai/codekungfu/disney-plus", "iconUrl": null, "installs": 0, "name": "Disney Plus", "ownerName": "codekungfu", "score": 4078.4313725490197, "slug": "disney-plus", "source": "clawhub", "stars": 0, "tags": null, "updated_at": 1776759982426, "version": "0.1.1"}, {"category": "", "created_at": 1774890163893, "description": "将 AI 角色拆分为管理与技术层，分别负责协调、需求、编码与测试，实现任务路由、质量关卡和记忆管理。", "description_zh": "将 AI 角色拆分为管理与技术层，分别负责协调、需求、编码与测试，实现任务路由、质量关卡和记忆管理。", "downloads": 52, "homepage": "https://clawhub.ai/wzm232803119-arch/multi-role", "iconUrl": null, "installs": 3, "name": "multi-role", "ownerName": "wzm232803119-arch", "score": 3564.084989718986, "slug": "multi-role", "source": "clawhub", "stars": 0, "tags": ["high efficiency", "multi role", "save tokens"], "updated_at": 1776759982280, "version": "1.0.1"}, {"category": "", "created_at": 1774904604767, "description": "Model Context Protocol (MCP) bridge for Outline (getoutline.com). Enables AI agents to search, read, create, and manage documents, collections, and comments...", "description_zh": "Outline (getoutline.com) 的模型上下文协议 (MCP) 桥接。使 AI 代理能够搜索、阅读、创建和管理文档、集合及评论。", "downloads": 52, "homepage": "https://clawhub.ai/samuellie/outline-app-mcp", "iconUrl": null, "installs": 0, "name": "Outline App MCP", "ownerName": "samuellie", "score": 3564.084989718986, "slug": "outline-app-mcp", "source": "clawhub", "stars": 0, "tags": null, "updated_at": 1776759982271, "version": "1.3.0"}, {"category": "", "created_at": 1774868817548, "description": "Reliably deliver generated images and videos to Feishu/Lark users and chats. Use when an agent already has a local image/video result and must send it to Fei...", "description_zh": "{\n \"answer\": \"将生成的图片和视频可靠地发送给飞书用户和聊天。当智能体已有本地图片/视频结果且必须发送给飞书时使用。\"\n}", "downloads": 52, "homepage": "https://clawhub.ai/zhy2015/feishu-media-delivery", "iconUrl": null, "installs": 0, "name": "Feishu Media Delivery", "ownerName": "zhy2015", "score": 30588.23529411765, "slug": "feishu-media-delivery", "source": "clawhub", "stars": 0, "tags": null, "updated_at": 1776759982262, "version": "0.1.1"}, {"category": "", "created_at": 1774902260962, "description": "Create bootable system images (ISO, disk, cloud) for Fedora/RHEL using Lorax with customizable packages, templates, and boot configurations.", "description_zh": "使用 Lorax 为 Fedora/RHEL 创建可引导系统镜像（ISO、磁盘、云），支持自定义软件包、模板和引导配置。", "downloads": 52, "homepage": "https://clawhub.ai/weidongkl/lorax", "iconUrl": null, "installs": 1, "name": "lorax", "ownerName": "weidongkl", "score": 30588.23529411765, "slug": "lorax", "source": "clawhub", "stars": 0, "tags": ["build-system", "cloud", "iso", "linux", "lorax"], "updated_at": 1776759982242, "version": "1.0.1"}, {"category": "", "created_at": 1774918221803, "description": "Provides AI-driven strategic extraction of news concepts and patterns to evolve AI thinking, plus CORE-analyzed personalized news briefings by category.", "description_zh": "提供AI驱动的新闻概念与模式战略性抽取，推动AI思维演进，并附带CORE分析的个人化分类新闻简报。", "downloads": 52, "homepage": "https://clawhub.ai/kedoupi/insight-radar", "iconUrl": null, "installs": 1, "name": "Insight Radar (洞察雷达)", "ownerName": "kedoupi", "score": 30588.23529411765, "slug": "insight-radar", "source": "clawhub", "stars": 0, "tags": ["ai-learning", "analysis", "automation", "core-framework", "daily-briefing", "news", "strategic-insights"], "updated_at": 1776759982227, "version": "1.0.1"}, {"category": "", "created_at": 1774848370805, "description": "Evaluate AI training and RAG data quality using rule-based or LLM-based metrics with Dingo's flexible, multi-format assessment framework and CLI/SDK support.", "description_zh": "使用规则或LLM指标评估AI训练和RAG数据质量，支持Dingo灵活的多格式评估框架及CLI/SDK。", "downloads": 52, "homepage": "https://clawhub.ai/e06084/dingo", "iconUrl": null, "installs": 0, "name": "dingo data quality", "ownerName": "e06084", "score": 3951.367781155015, "slug": "dingo", "source": "clawhub", "stars": 0, "tags": null, "updated_at": 1776759982196, "version": "1.0.4"}, {"category": "", "created_at": 1774849907357, "description": "Generate immersive audio scenes—complete with speech, sound effects, music, and ambient sounds by text descriptions.", "description_zh": "根据文本描述生成沉浸式音频场景，包含语音、音效、音乐及环境音。", "downloads": 52, "homepage": "https://clawhub.ai/jimbozhang/midasheng-audio-generate", "iconUrl": null, "installs": 2, "name": "midasheng-audio-generate", "ownerName": "jimbozhang", "score": 4097.714736012608, "slug": "midasheng-audio-generate", "source": "clawhub", "stars": 0, "tags": null, "updated_at": 1776759982152, "version": "1.1.5"}]}