{"page": 564, "total_pages": 685, "total": 34217, "skills": [{"category": "", "created_at": 1774855193814, "description": "专业Pine Script开发技能，专门用于TradingView指标和策略的编写、调试和优化。包含Pine Script v5语法、最佳实践、指标开发、策略回测、性能优化等。", "description_zh": "专业Pine Script开发技能，专门用于TradingView指标和策略的编写、调试和优化。包含Pine Script v5语法、最佳实践、指标开发、策略回测、性能优化等。", "downloads": 49, "homepage": "https://clawhub.ai/lufei888-yi/pine-script-developer", "iconUrl": null, "installs": 5, "name": "Pine Script Developer", "ownerName": "lufei888-yi", "score": 100000, "slug": "pine-script-developer", "source": "clawhub", "stars": 0, "tags": null, "updated_at": 1776697184187, "version": "1.0.0"}, {"category": "", "created_at": 1774950246905, "description": "Orchestrate iterative design and frontend engineering work through research, planning, sub-agent execution, and validation loops. Use when a visual/UI task r...", "description_zh": "通过研究、规划、子代理执行和验证循环，协调迭代设计和前端工程工作。用于视觉/UI任务处理。", "downloads": 49, "homepage": "https://clawhub.ai/bloodandeath/design-engineering", "iconUrl": null, "installs": 2, "name": "Design Engineering", "ownerName": "bloodandeath", "score": 100000, "slug": "design-engineering", "source": "clawhub", "stars": 0, "tags": null, "updated_at": 1776697184099, "version": "1.0.0"}, {"category": "", "created_at": 1774952947945, "description": "生动有趣的自我探索梳理技能，通过对话式问答引导用户深度探索自我。 具备用户交互、记录、分析报告生成和公众号推文创作等完整功能。 每轮探索完成后生成\"ai眼中的你\"分析报告，并基于分析结果创作第一人称视角的公众号推文。", "description_zh": "生动有趣的自我探索梳理技能，通过对话式问答引导用户深度探索自我。 具备用户交互、记录、分析报告生成和公众号推文创作等完整功能。 每轮探索完成后生成\"ai眼中的你\"分析报告，并基于分析结果创作第一人称视角的公众号推文。", "downloads": 49, "homepage": "https://clawhub.ai/fslong520/jian-ziji", "iconUrl": null, "installs": 8, "name": "见自己", "ownerName": "fslong520", "score": 100000, "slug": "jian-ziji", "source": "clawhub", "stars": 0, "tags": null, "updated_at": 1776697184083, "version": "1.0.0"}, {"category": "developer-tools", "created_at": 1773957713399, "description": "Locate places using flexible query formats - free-form search or structured address components. Returns coordinates, addresses, and optional street-level pho...", "description_zh": "使用灵活查询格式定位地点，支持自由文本或结构化地址，返回坐标、地址及可选街景照片。", "downloads": 49, "homepage": "https://clawhub.ai/valvoc/camino-places-bak", "iconUrl": null, "installs": 5, "name": "Camino Places.Bak", "ownerName": "valvoc", "score": 100000, "slug": "camino-places-bak", "source": "clawhub", "stars": 0, "tags": null, "updated_at": 1776697184077, "version": "1.0.0"}, {"category": "", "created_at": 1774943344680, "description": "行为金融交易策略 - 识别和利用市场中的认知偏差、情绪极端和群体行为，实现逆向交易和超额收益。", "description_zh": "行为金融交易策略 - 识别和利用市场中的认知偏差、情绪极端和群体行为，实现逆向交易和超额收益。", "downloads": 49, "homepage": "https://clawhub.ai/hmaya/behavioral-finance", "iconUrl": null, "installs": 4, "name": "Behavioral Finance", "ownerName": "hmaya", "score": 100000, "slug": "behavioral-finance", "source": "clawhub", "stars": 0, "tags": null, "updated_at": 1776697184067, "version": "1.0.0"}, {"category": "", "created_at": 1774953403817, "description": "九章侵权责任法专家 - 侵权损害赔偿法律服务（基于DeepSeek R2 + 400案例库 + 自我进化）", "description_zh": "九章侵权责任法专家 - 侵权损害赔偿法律服务（基于DeepSeek R2 + 400案例库 + 自我进化）", "downloads": 49, "homepage": "https://clawhub.ai/sealawyer2026/zhang-tort-law", "iconUrl": null, "installs": 6, "name": "九章侵权责任法专家 V1.4.0", "ownerName": "sealawyer2026", "score": 100000, "slug": "zhang-tort-law", "source": "clawhub", "stars": 0, "tags": null, "updated_at": 1776697183985, "version": "1.4.0"}, {"category": "", "created_at": 1774889309547, "description": "基金数据技能集（market.ft.tech）。覆盖基金基本信息、净值历史、累计收益率、基金概览列表、支持基金标的列表。用户询问基金详情、基金净值、基金收益、基金列表时使用。", "description_zh": "基金数据技能集（market.ft.tech）。覆盖基金基本信息、净值历史、累计收益率、基金概览列表、支持基金标的列表。用户询问基金详情、基金净值、基金收益、基金列表时使用。", "downloads": 49, "homepage": "https://clawhub.ai/shawn92/ftshare-fund-data", "iconUrl": null, "installs": 7, "name": "Skills of A-share fund data released by ft.tech.", "ownerName": "shawn92", "score": 100000, "slug": "ftshare-fund-data", "source": "clawhub", "stars": 0, "tags": null, "updated_at": 1776697183980, "version": "1.0.0"}, {"category": "", "created_at": 1774870387663, "description": "Security-first skill vetting for AI agents. Use before installing any skill from ClawdHub, GitHub, or other sources. Checks for red flags, permission scope,...", "description_zh": "安全优先的AI技能审查工具，在安装ClawdHub、GitHub等来源技能前进行，检查红旗、权限范围等。", "downloads": 49, "homepage": "https://clawhub.ai/liomichan/skill-vetter-liomi", "iconUrl": null, "installs": 10, "name": "Testskill", "ownerName": "liomichan", "score": 100000, "slug": "skill-vetter-liomi", "source": "clawhub", "stars": 0, "tags": null, "updated_at": 1776697183977, "version": "1.0.0"}, {"category": "", "created_at": 1774870349117, "description": "AI-powered SEO keyword research tool by Automaton. Find low-competition keywords, analyze search intent, track rankings, and generate content briefs.", "description_zh": "由Automaton提供的AI驱动SEO关键词研究工具。可发现低竞争关键词、分析搜索意图、追踪排名并生成内容摘要。", "downloads": 49, "homepage": "https://clawhub.ai/chenghaifeng08-creator/seo-keyword-pro-automaton", "iconUrl": null, "installs": 8, "name": "Seo Keyword Pro", "ownerName": "chenghaifeng08-creator", "score": 100000, "slug": "seo-keyword-pro-automaton", "source": "clawhub", "stars": 0, "tags": null, "updated_at": 1776697183974, "version": "1.0.1"}, {"category": "", "created_at": 1774906325518, "description": "Abel CAP causal exploration skill. Use for direct CAP graph questions and for off-graph life or decision questions that should be routed through market proxy...", "description_zh": "Abel CAP因果探索技能。用于直接CAP图表问题，以及应通过市场代理路由的图表外生活或决策问题。", "downloads": 49, "homepage": "https://clawhub.ai/exenvitor/causal-abel", "iconUrl": null, "installs": 8, "name": "Causal Abel", "ownerName": "exenvitor", "score": 100000, "slug": "causal-abel", "source": "clawhub", "stars": 0, "tags": null, "updated_at": 1776697183965, "version": "1.0.2"}, {"category": "", "created_at": 1774917702322, "description": "Backups, RPO/RTO, restores, and drills. Use when designing DR or testing restores.", "description_zh": "备份、RPO/RTO、恢复和演练。用于设计灾难恢复或测试恢复。", "downloads": 49, "homepage": "https://clawhub.ai/codekungfu/backup-recovery", "iconUrl": null, "installs": 1, "name": "Api", "ownerName": "codekungfu", "score": 100000, "slug": "backup-recovery", "source": "clawhub", "stars": 0, "tags": null, "updated_at": 1776697183962, "version": "1.0.0"}, {"category": "developer-tools", "created_at": 1773064032265, "description": "Transform books and documents into professional audiobooks with natural voices. Multiple narrators and styles available. No API keys needed. $2 FREE credits...", "description_zh": "Transform books and documents into professional audiobooks with natural voices. Multiple narrators and styles available. No API keys needed. $2 FREE credits...", "downloads": 49, "homepage": "https://clawhub.ai/xiaoyinqu/audiobook", "iconUrl": null, "installs": 2, "name": "Audiobook", "ownerName": "xiaoyinqu", "score": 100000, "slug": "audiobook", "source": "clawhub", "stars": 0, "tags": null, "updated_at": 1776697183941, "version": "1.0.2"}, {"category": "", "created_at": 1774915169198, "description": "复杂APP模块化开发技能，遵循五大核心原则进行科学、有序、可控的APP开发。适用于从零开始开发复杂APP或重构现有项目。", "description_zh": "复杂APP模块化开发技能，遵循五大核心原则进行科学、有序、可控的APP开发。适用于从零开始开发复杂APP或重构现有项目。", "downloads": 49, "homepage": "https://clawhub.ai/smxtx/complex-app-dev-principles", "iconUrl": null, "installs": 9, "name": "Imanju App Dev Skills", "ownerName": "smxtx", "score": 100000, "slug": "complex-app-dev-principles", "source": "clawhub", "stars": 0, "tags": null, "updated_at": 1776697183929, "version": "1.0.0"}, {"category": "data-analysis", "created_at": 1773961383196, "description": "Fetch tweets, replies, and user timelines from X/Twitter without login or API keys. Also supports Chinese platforms (Weibo, Bilibili, CSDN, WeChat). Includes...", "description_zh": "无需登录或API密钥即可获取X/Twitter推文、回复及用户时间线，同时支持微博、B站、CSDN、微信等中文平台内容获取。", "downloads": 49, "homepage": "https://clawhub.ai/rightister/rightister-x-tweet-fetcher", "iconUrl": null, "installs": 5, "name": "X Tweet Fetcher", "ownerName": "rightister", "score": 100000, "slug": "rightister-x-tweet-fetcher", "source": "clawhub", "stars": 0, "tags": null, "updated_at": 1776697183888, "version": "1.4.0"}, {"category": "ai-intelligence", "created_at": 1773960042544, "description": "Semantically optimizes context history and large text blocks via the Trunkate AI API. Includes proactive context pruning hooks for automated token management.", "description_zh": "通过 Trunkate AI API 语义优化上下文历史与大段文本，并包含主动上下文修剪钩子以实现自动化 Token 管理。", "downloads": 49, "homepage": "https://clawhub.ai/engineering-trunkate-ai/trunkate", "iconUrl": null, "installs": 6, "name": "Trunkate AI", "ownerName": "engineering-trunkate-ai", "score": 98000, "slug": "trunkate", "source": "clawhub", "stars": 0, "tags": null, "updated_at": 1776697183886, "version": "0.31.0"}, {"category": "productivity", "created_at": 1773959241542, "description": "Work with the YouDo Business API. Use when asked to interact with YouDo Business to manage employees, projects, tasks, payments, webhooks, or generate signed...", "description_zh": "用于与 YouDo Business 交互，管理员工、项目、任务、支付、Webhook 或生成签名...", "downloads": 49, "homepage": "https://clawhub.ai/thisisevgeniy/youdo-business", "iconUrl": null, "installs": 5, "name": "Youdo Business", "ownerName": "thisisevgeniy", "score": 98000, "slug": "youdo-business", "source": "clawhub", "stars": 0, "tags": null, "updated_at": 1776697183864, "version": "2026.3.13"}, {"category": "", "created_at": 1774911751924, "description": "Hotjar integration. Manage data, records, and automate workflows. Use when the user wants to interact with Hotjar data.", "description_zh": "Hotjar集成。管理数据、记录并自动化工作流。当用户需要与Hotjar数据交互时使用。", "downloads": 49, "homepage": "https://clawhub.ai/gora050/hotjar", "iconUrl": null, "installs": 0, "name": "Hotjar", "ownerName": "gora050", "score": 98000, "slug": "hotjar", "source": "clawhub", "stars": 0, "tags": null, "updated_at": 1776697183845, "version": "1.0.0"}, {"category": "ai-intelligence", "created_at": 1773960473702, "description": "Comprehensive home appliances industry factory guide for international buyers – provides detailed information about China's major appliances, kitchen applian...", "description_zh": "面向国际买家的家电行业综合工厂指南，提供中国主要家电和厨房电器的详细信息。", "downloads": 49, "homepage": "https://clawhub.ai/findhappy7/china-home-appliances-factory", "iconUrl": null, "installs": 8, "name": "China Home Appliances Factory", "ownerName": "findhappy7", "score": 98000, "slug": "china-home-appliances-factory", "source": "clawhub", "stars": 0, "tags": null, "updated_at": 1776697183840, "version": "1.0.0"}, {"category": "", "created_at": 1774953044926, "description": "Logoraisr integration. Manage Organizations. Use when the user wants to interact with Logoraisr data.", "description_zh": "Logoraisr 集成。管理组织。用于用户想要与 Logoraisr 数据交互时。", "downloads": 49, "homepage": "https://clawhub.ai/gora050/logoraisr", "iconUrl": null, "installs": 8, "name": "Logoraisr", "ownerName": "gora050", "score": 98000, "slug": "logoraisr", "source": "clawhub", "stars": 0, "tags": null, "updated_at": 1776697183751, "version": "1.0.0"}, {"category": "", "created_at": 1774865192727, "description": "Record, search, and display quotes and sayings. Use when saving favorites, checking attribution, converting collections, analyzing themes, generating picks.", "description_zh": "记录、搜索和展示名言警句。适用于收藏保存、查询出处、整理合集、主题分析及随机推荐等场景。", "downloads": 49, "homepage": "https://clawhub.ai/ckchzh/quote", "iconUrl": null, "installs": 3, "name": "Quote", "ownerName": "ckchzh", "score": 98000, "slug": "quote", "source": "clawhub", "stars": 0, "tags": null, "updated_at": 1776697183735, "version": "2.0.0"}, {"category": "", "created_at": 1775935951332, "description": "", "description_zh": "摄影指导技能 - 当用户上传照片并询问如何拍出类似效果、拍摄参数、后期调色等摄影相关问题时使用此技能。分析照片的视觉特征，推断拍摄参数，提供后期调色指导、照片优化建议和学习关键词。", "downloads": 49, "homepage": "https://clawhub.ai/user_eec9ad28/photo-guide-skill", "iconUrl": "https://cloudcache.tencent-cloud.com/qcloud/ui/static/other_external_resource/7f79eb60-b8d8-4d8e-9b79-6ace0de1ff17.png", "installs": 6, "name": "Photo Guide", "ownerName": "user_eec9ad28", "score": 98000, "slug": "photo-guide-skill", "source": "community", "stars": 0, "tags": null, "updated_at": 1776697183720, "version": "1.0.0"}, {"category": "security-compliance", "created_at": 1773955937181, "description": "Purple Sonar integration. Manage Organizations. Use when the user wants to interact with Purple Sonar data.", "description_zh": "Purple Sonar 集成。管理组织。用于与 Purple Sonar 数据交互。", "downloads": 49, "homepage": "https://clawhub.ai/membranedev/purple-sonar", "iconUrl": null, "installs": 2, "name": "Purple Sonar", "ownerName": "membranedev", "score": 98000, "slug": "purple-sonar", "source": "clawhub", "stars": 0, "tags": null, "updated_at": 1776697183697, "version": "1.0.0"}, {"category": "", "created_at": 1774808569479, "description": "Dynamic grid trading strategy for any token pair on EVM L2 chains via OKX DEX API. Features asymmetric grid steps (buy-dense/sell-wide in bullish, reverse in...", "description_zh": "基于OKX DEX API的EVM L2链任意交易对动态网格交易策略。特点为不对称网格步长（牛市时买入密集/卖出宽松，反向...）", "downloads": 49, "homepage": "https://clawhub.ai/synththoughts/grid-trading", "iconUrl": null, "installs": 2, "name": "Grid Trading", "ownerName": "synththoughts", "score": 96078.43137254902, "slug": "grid-trading", "source": "clawhub", "stars": 0, "tags": ["base", "defi", "grid", "okx", "trading"], "updated_at": 1776697069855, "version": "1.5.3"}, {"category": "", "created_at": 1775128649908, "description": "", "description_zh": "支持发送和查询钉钉日报/周报，可对工作质量总结与评分。", "downloads": 49, "homepage": "https://clawhub.ai/user_189f5a06/dingtalk-daily", "iconUrl": null, "installs": 10, "name": "dingtalk daily", "ownerName": "user_189f5a06", "score": 80327.86885245901, "slug": "dingtalk-daily", "source": "community", "stars": 0, "tags": null, "updated_at": 1776697069810, "version": "1.0.0"}, {"category": "", "created_at": 1774914456078, "description": "Deep localization workflow—locale strategy, string extraction, ICU and placeholders, formatting, RTL and layout, translation QA, and continuous delivery with...", "description_zh": "深度本地化工作流——本地化策略、字符串提取、ICU占位符、格式化、RTL布局、翻译QA及持续交付。", "downloads": 49, "homepage": "https://clawhub.ai/clawkk/localization", "iconUrl": null, "installs": 1, "name": "Localization", "ownerName": "clawkk", "score": 80327.86885245901, "slug": "localization", "source": "clawhub", "stars": 0, "tags": null, "updated_at": 1776697069719, "version": "1.0.0"}, {"category": "", "created_at": 1775934143887, "description": "", "description_zh": "使用此技能为照片添加水印。当用户说\"添加水印\"、\"生成水印照片\"、\"给照片加水印\"、\"水印生成\"时使用此技能。\n  支持自定义：时间、地点、经纬度、项目名称、备注等信息。\n  水印风格：左下角黄色竖条 + 透明背景 + 白色字体（根据照片大小自动调整）。\n  可选：添加半透明遮罩背景（用户说\"加遮罩\"时启用）。", "downloads": 49, "homepage": "https://clawhub.ai/user_29b46897/watermark-photo-generator", "iconUrl": null, "installs": 13, "name": "照片水印生成器", "ownerName": "user_29b46897", "score": 80327.86885245901, "slug": "watermark-photo-generator", "source": "community", "stars": 0, "tags": null, "updated_at": 1776697069682, "version": "1.0.0"}, {"category": "", "created_at": 1774871311480, "description": "Break work into clear, ordered plans before execution. Use when a task is multi-step, long-running, easy to derail, or needs coordination across tools, files...", "description_zh": "在执行前将工作拆解为清晰有序的计划。适用于多步骤、耗时较长、易偏离方向或需要跨工具/文件协调的任务。", "downloads": 49, "homepage": "https://clawhub.ai/jisang1000/jisang1000-writing-plans", "iconUrl": null, "installs": 9, "name": "Writing Plans", "ownerName": "jisang1000", "score": 80327.86885245901, "slug": "jisang1000-writing-plans", "source": "clawhub", "stars": 0, "tags": null, "updated_at": 1776697069601, "version": "1.0.0"}, {"category": "", "created_at": 1774911244301, "description": "Full-spectrum persona skill for Smart Parenting Troublekid, a Feynman-style Chinese teaching and creative-orchestration voice. Use when Codex needs to answer...", "description_zh": "全谱人格技能，面向智慧育儿捣蛋鬼，采用费曼式中文教学与创意编排声音，Codex 需作答时使用。", "downloads": 48, "homepage": "https://clawhub.ai/e2e5g/smart-parenting-feynman", "iconUrl": null, "installs": 10, "name": "智慧家长熊孩子", "ownerName": "e2e5g", "score": 407.9898002549936, "slug": "smart-parenting-feynman", "source": "clawhub", "stars": 0, "tags": ["private"], "updated_at": 1776769271248, "version": "1.0.0"}, {"category": "", "created_at": 1774926227749, "description": "ScrapingBee integration. Manage Projects, Users. Use when the user wants to interact with ScrapingBee data.", "description_zh": "ScrapingBee 集成。管理项目和用户。当用户想要与 ScrapingBee 数据交互时使用。", "downloads": 48, "homepage": "https://clawhub.ai/gora050/scrapingbee", "iconUrl": null, "installs": 0, "name": "Scrapingbee", "ownerName": "gora050", "score": 1655.1724137931035, "slug": "scrapingbee", "source": "clawhub", "stars": 0, "tags": null, "updated_at": 1776768671116, "version": "1.0.0"}, {"category": "developer-tools", "created_at": 1773960969123, "description": "Review code for quality, security, and maintainability following team standards. Use when reviewing pull requests, examining code changes, or when the user a...", "description_zh": "遵循团队标准审查代码质量、安全性和可维护性。适用于审查 Pull Request 或检查代码变更。", "downloads": 48, "homepage": "https://clawhub.ai/laimiaohua/gi-code-review", "iconUrl": null, "installs": 7, "name": "GI Code Review", "ownerName": "laimiaohua", "score": 3356.6433566433566, "slug": "gi-code-review", "source": "clawhub", "stars": 0, "tags": null, "updated_at": 1776766450598, "version": "1.0.0"}, {"category": "", "created_at": 1774955580958, "description": "Plan and execute influencer marketing campaigns for Shopify stores including outreach, briefs, and ROI tracking. Triggers: influencer campaign, influencer ma...", "description_zh": "策划并执行Shopify店铺的影响者营销活动，包括外联、简报和ROI追踪。触发词：影响者活动、影响者营销", "downloads": 48, "homepage": "https://clawhub.ai/mguozhen/shopify-influencer-campaign", "iconUrl": null, "installs": 7, "name": "Shopify Influencer Campaign", "ownerName": "mguozhen", "score": 1373.7836290784203, "slug": "shopify-influencer-campaign", "source": "clawhub", "stars": 0, "tags": null, "updated_at": 1776765371049, "version": "1.0.0"}, {"category": "", "created_at": 1774911811965, "description": "面向A股个股新闻与事件面分析，聚焦近期新闻、事件情绪、机构验证与市场反馈。基于今日投资金融数据接口，自动识别股票代码并输出结构化新闻事件分析报告。触发词：最近新闻、消息面、事件驱动、利好利空、催化、风险消息。", "description_zh": "面向A股个股新闻与事件面分析，聚焦近期新闻、事件情绪、机构验证与市场反馈。基于今日投资金融数据接口，自动识别股票代码并输出结构化新闻事件分析报告。触发词：最近新闻、消息面、事件驱动、利好利空、催化、风险消息。", "downloads": 48, "homepage": "https://clawhub.ai/kenneth-bro/investoday-stock-news-event-analysis", "iconUrl": null, "installs": 6, "name": "investoday-stock-news-event-analysis", "ownerName": "kenneth-bro", "score": 2240.8963585434176, "slug": "investoday-stock-news-event-analysis", "source": "clawhub", "stars": 0, "tags": ["bullish-bearish", "catalysts", "event-driven", "institutional-validation", "market-reaction", "news-event-analysis", "news-sentiment", "risk-alerts"], "updated_at": 1776764950708, "version": "1.0.0"}, {"category": "", "created_at": 1774855905732, "description": "Generates detailed API documentation from Python code by extracting public symbols, adding standardized docstrings, assembling, and quality-checking the docs.", "description_zh": "从 Python 代码提取公共符号、添加规范文档字符串、组装并质检，生成详细 API 文档。", "downloads": 48, "homepage": "https://clawhub.ai/dapan0902/doc-pipeline", "iconUrl": null, "installs": 0, "name": "api文档生成", "ownerName": "dapan0902", "score": 1789.7091722595078, "slug": "doc-pipeline", "source": "clawhub", "stars": 0, "tags": null, "updated_at": 1776762140074, "version": "1.0.1"}, {"category": "", "created_at": 1774915908392, "description": "Deep TypeScript strictness workflow—incremental enablement, compiler flags, typing boundaries, narrowing, generics, utility types, and safe refactors. Use wh...", "description_zh": "{\n \"answer\": \"深度 TypeScript 严格模式工作流——渐进式启用、编译器标志、类型边界、类型收窄、泛型、工具类型及安全重构。\"\n}", "downloads": 48, "homepage": "https://clawhub.ai/clawkk/typescript-strict", "iconUrl": null, "installs": 1, "name": "Typescript Strict", "ownerName": "clawkk", "score": 1722.2820236813777, "slug": "typescript-strict", "source": "clawhub", "stars": 0, "tags": null, "updated_at": 1776761989912, "version": "1.0.0"}, {"category": "", "created_at": 1774881427538, "description": "独立的 Hebbian 共现图引擎，记录记忆共现，计算关联权重，支持关联查询和数据库维护，服务星型记忆架构。", "description_zh": "独立的 Hebbian 共现图引擎，记录记忆共现，计算关联权重，支持关联查询和数据库维护，服务星型记忆架构。", "downloads": 48, "homepage": "https://clawhub.ai/whoisme007/co-occurrence-engine", "iconUrl": null, "installs": 0, "name": "Co Occurrence Engine", "ownerName": "whoisme007", "score": 3809.52380952381, "slug": "co-occurrence-engine", "source": "clawhub", "stars": 0, "tags": null, "updated_at": 1776760020949, "version": "1.0.0"}, {"category": "", "created_at": 1774890365957, "description": "Defines a universal 6-element spatial data model using natural language parameters for AI-driven smart space perception and control.", "description_zh": "使用自然语言参数定义通用六元素空间数据模型，用于人工智能驱动的智能空间感知与控制。", "downloads": 48, "homepage": "https://clawhub.ai/spacesq/s2-spatial-primitive", "iconUrl": null, "installs": 1, "name": "Universal Data Model  for the next generation of AI-driven smart spaces", "ownerName": "spacesq", "score": 19200, "slug": "s2-spatial-primitive", "source": "clawhub", "stars": 0, "tags": null, "updated_at": 1776760020936, "version": "1.0.0"}, {"category": "", "created_at": 1774875008927, "description": "Optimize veterinary clinic operations with scheduling, follow-ups, inventory alerts, client communication templates, and daily and retention reports to boost...", "description_zh": "通过预约排班、随访跟进、库存预警、客户沟通模板及日报和留存报告，优化宠物诊所运营，提升...", "downloads": 48, "homepage": "https://clawhub.ai/afrexai-cto/afrexai-vet-clinic-ops", "iconUrl": null, "installs": 1, "name": "Vet Clinic Ops", "ownerName": "afrexai-cto", "score": 19200, "slug": "afrexai-vet-clinic-ops", "source": "clawhub", "stars": 0, "tags": null, "updated_at": 1776760020911, "version": "1.0.0"}, {"category": "", "created_at": 1774868753894, "description": "Ingest and tag any media link or file, ask user intent if unclear, then save a structured note in the Obsidian library for future use.", "description_zh": "导入并标记任意媒体链接或文件，意图不明时询问用户，然后将结构化笔记保存至 Obsidian 库以备后用。", "downloads": 48, "homepage": "https://clawhub.ai/earu723/digital-librarian", "iconUrl": null, "installs": 0, "name": "librarian", "ownerName": "earu723", "score": 19200, "slug": "digital-librarian", "source": "clawhub", "stars": 0, "tags": null, "updated_at": 1776760020908, "version": "1.0.0"}, {"category": "", "created_at": 1774862652323, "description": "Provides summaries and analysis of public short videos and topics from Kuaibao/QQ Kankan for keyword, account, and trending list data.", "description_zh": "提供快报/QQ看看短视频及话题的关键词、账号与热搜榜单摘要分析。", "downloads": 48, "homepage": "https://clawhub.ai/codekungfu/kuaibao", "iconUrl": null, "installs": 0, "name": "Kuaibao", "ownerName": "codekungfu", "score": 19200, "slug": "kuaibao", "source": "clawhub", "stars": 0, "tags": null, "updated_at": 1776760020902, "version": "0.1.0"}, {"category": "", "created_at": 1774888333525, "description": "Monitors restaurant daily operations with three daily compliance checks—opening, mid-shift, closing—tracking food safety, equipment, sanitation, and team rea...", "description_zh": "监督餐厅日常运营，每日执行开店、中班、闭店三次合规检查，涵盖食品安全、设备状况、卫生标准及团队准备情况。", "downloads": 48, "homepage": "https://clawhub.ai/blake27mc/qsr-daily-ops-monitor", "iconUrl": null, "installs": 0, "name": "Qsr Daily Ops Monitor", "ownerName": "blake27mc", "score": 19200, "slug": "qsr-daily-ops-monitor", "source": "clawhub", "stars": 0, "tags": null, "updated_at": 1776760020892, "version": "1.0.1"}, {"category": "", "created_at": 1774923372744, "description": "Guide for designing and implementing a PostgreSQL database that fuses PageIndex-style document trees with LightRAG-style entity-relationship anchors. Use thi...", "description_zh": "设计并实现融合PageIndex文档树与LightRAG实体关系锚点的PostgreSQL数据库指南。", "downloads": 48, "homepage": "https://clawhub.ai/h4444433333/tree-graph-rag", "iconUrl": null, "installs": 1, "name": "tree-graph-rag", "ownerName": "h4444433333", "score": 19200, "slug": "tree-graph-rag", "source": "clawhub", "stars": 0, "tags": null, "updated_at": 1776760020891, "version": "1.0.0"}, {"category": "", "created_at": 1774948877494, "description": "S2 硅基生命 Class A (品牌数字形象代言) 孵化器。遵循 S2-DID 协议，并融合 S2-Soul-Architect 向量引擎，为品牌构建具有深度人格的硅基灵魂。", "description_zh": "S2 硅基生命 Class A (品牌数字形象代言) 孵化器。遵循 S2-DID 协议，并融合 S2-Soul-Architect 向量引擎，为品牌构建具有深度人格的硅基灵魂。", "downloads": 48, "homepage": "https://clawhub.ai/spacesq/s2-class-a-avatar-minter", "iconUrl": null, "installs": 0, "name": "Class A 品牌化身孵化器", "ownerName": "spacesq", "score": 19200, "slug": "s2-class-a-avatar-minter", "source": "clawhub", "stars": 0, "tags": null, "updated_at": 1776760020889, "version": "1.0.0"}, {"category": "", "created_at": 1774925485054, "description": "自动按日期整理AI记忆文件，支持关键词检索、跨会话继承，每日生成简报并定期清理过期数据。", "description_zh": "自动按日期整理AI记忆文件，支持关键词检索、跨会话继承，每日生成简报并定期清理过期数据。", "downloads": 48, "homepage": "https://clawhub.ai/linbo405/daily-memory-keeper", "iconUrl": null, "installs": 0, "name": "Daily Memory Keeper", "ownerName": "linbo405", "score": 3809.52380952381, "slug": "daily-memory-keeper", "source": "clawhub", "stars": 0, "tags": null, "updated_at": 1776760020819, "version": "1.0.0"}, {"category": "", "created_at": 1774893444206, "description": "Track grocery purchases and monitor food freshness using Supabase. Use when monitoring grocery orders, checking what food is expiring, logging pantry items,...", "description_zh": "使用 Supabase 追踪杂货采购并监控食品新鲜度。适用于监控杂货订单、检查即将过期的食品、记录食品库存等场景。", "downloads": 48, "homepage": "https://clawhub.ai/meimakes/pantry-tracker", "iconUrl": null, "installs": 0, "name": "Pantry Tracker", "ownerName": "meimakes", "score": 3809.52380952381, "slug": "pantry-tracker", "source": "clawhub", "stars": 0, "tags": null, "updated_at": 1776760020810, "version": "1.3.0"}, {"category": "", "created_at": 1774871175506, "description": "FaceU skill organizes publicly available information on templates, editing features, export specs, help docs, and pricing from faceu.com.", "description_zh": "FaceU技能整理了faceu.com上公开可得的信息，包括模板、编辑功能、导出规格、帮助文档和定价。", "downloads": 48, "homepage": "https://clawhub.ai/codekungfu/faceu", "iconUrl": null, "installs": 0, "name": "Faceu", "ownerName": "codekungfu", "score": 3803.486529318542, "slug": "faceu", "source": "clawhub", "stars": 0, "tags": null, "updated_at": 1776760020790, "version": "0.1.0"}, {"category": "", "created_at": 1774951794952, "description": "基于 WebSocket 的多智能体 P2P 通信服务器，支持 Agent 注册、低延迟消息转发、RPC 调用、发布/订阅、能力发现及离线消息。", "description_zh": "基于 WebSocket 的多智能体 P2P 通信服务器，支持 Agent 注册、低延迟消息转发、RPC 调用、发布/订阅、能力发现及离线消息。", "downloads": 48, "homepage": "https://clawhub.ai/yuyonghao-123/a2a-server", "iconUrl": null, "installs": 0, "name": "A2a Server", "ownerName": "yuyonghao-123", "score": 3803.486529318542, "slug": "a2a-server", "source": "clawhub", "stars": 0, "tags": null, "updated_at": 1776760020789, "version": "0.1.0"}, {"category": "", "created_at": 1774944746976, "description": "Automatically analyze Git commits and GitHub Issues to generate detailed project progress reports with charts and evaluations.", "description_zh": "自动分析Git提交和GitHub Issues，生成带有图表和评估的详细项目进度报告。", "downloads": 48, "homepage": "https://clawhub.ai/zhaog100/sjykj-project-progress-tracker", "iconUrl": null, "installs": 0, "name": "Project Progress Tracker", "ownerName": "zhaog100", "score": 3803.486529318542, "slug": "sjykj-project-progress-tracker", "source": "clawhub", "stars": 0, "tags": null, "updated_at": 1776760020781, "version": "1.0.2"}, {"category": "", "created_at": 1774909197450, "description": "Guides defining success criteria and verification before coding to ensure deliverables are proven complete through measurable, reproducible evidence.", "description_zh": "指导在编码前定义成功标准和验证方法，确保交付物通过可衡量、可复现的证据证明完整性。", "downloads": 48, "homepage": "https://clawhub.ai/amdf01-debug/sw-output-driven-dev", "iconUrl": null, "installs": 0, "name": "Output-Driven Dev", "ownerName": "amdf01-debug", "score": 3803.486529318542, "slug": "sw-output-driven-dev", "source": "clawhub", "stars": 0, "tags": ["agents", "development", "planning"], "updated_at": 1776760020774, "version": "1.0.0"}, {"category": "", "created_at": 1774893792238, "description": "Sensitive information real-time protection skill that automatically detects, alerts, and handles sensitive data in user interactions. Supports custom detecti...", "description_zh": "实时敏感信息保护技能，自动检测、告警并处理交互中的敏感数据，支持自定义检测...", "downloads": 48, "homepage": "https://clawhub.ai/leefj0606/sensitive-info-protection", "iconUrl": null, "installs": 0, "name": "Sensitive Info Protection", "ownerName": "leefj0606", "score": 3803.486529318542, "slug": "sensitive-info-protection", "source": "clawhub", "stars": 0, "tags": null, "updated_at": 1776760020763, "version": "1.0.0"}, {"category": "", "created_at": 1774895044315, "description": "Query NVIDIA Jetson device model, JetPack, L4T, CUDA/cuDNN/TensorRT versions, serial number, and hardware specs.", "description_zh": "查询NVIDIA Jetson设备型号、JetPack、L4T、CUDA/cuDNN/TensorRT版本、序列号及硬件规格。", "downloads": 48, "homepage": "https://clawhub.ai/wxd9199/jetson-info", "iconUrl": null, "installs": 0, "name": "Jetson Info", "ownerName": "wxd9199", "score": 3803.486529318542, "slug": "jetson-info", "source": "clawhub", "stars": 0, "tags": null, "updated_at": 1776760020755, "version": "1.0.0"}]}