{"page": 567, "total_pages": 685, "total": 34217, "skills": [{"category": "", "created_at": 1774945439877, "description": "提供拉勾公开职位和公司信息的检索与摘要服务，不支持登录、投递或批量抓取操作。", "description_zh": "提供拉勾公开职位和公司信息的检索与摘要服务，不支持登录、投递或批量抓取操作。", "downloads": 47, "homepage": "https://clawhub.ai/codekungfu/lagou", "iconUrl": null, "installs": 0, "name": "Lagou", "ownerName": "codekungfu", "score": 3736.0890302066773, "slug": "lagou", "source": "clawhub", "stars": 0, "tags": null, "updated_at": 1776760097985, "version": "0.1.0"}, {"category": "", "created_at": 1774868170618, "description": "提供短网址生成服务，支持自定义后缀和多种短网址域名选择。", "description_zh": "提供短网址生成服务，支持自定义后缀和多种短网址域名选择。", "downloads": 47, "homepage": "https://clawhub.ai/minecraftxdd/openclaw-skill-shorturl", "iconUrl": null, "installs": 0, "name": "openclaw-skill-shorturl", "ownerName": "minecraftxdd", "score": 3739.061256961018, "slug": "openclaw-skill-shorturl", "source": "clawhub", "stars": 0, "tags": null, "updated_at": 1776760097964, "version": "0.1.0"}, {"category": "", "created_at": 1774879134516, "description": "提供邮储银行公开产品、账单和公告的关键信息摘要，不涉及账号登录或资金操作。", "description_zh": "提供邮储银行公开产品、账单和公告的关键信息摘要，不涉及账号登录或资金操作。", "downloads": 47, "homepage": "https://clawhub.ai/mike47512/psbc", "iconUrl": null, "installs": 0, "name": "Psbc", "ownerName": "mike47512", "score": 3739.061256961018, "slug": "psbc", "source": "clawhub", "stars": 0, "tags": null, "updated_at": 1776760097958, "version": "0.1.0"}, {"category": "", "created_at": 1774865447787, "description": "提供澎湃新闻公开页面的关键词新闻摘要、频道热点统计及深度报道段落要点提取服务。", "description_zh": "提供澎湃新闻公开页面的关键词新闻摘要、频道热点统计及深度报道段落要点提取服务。", "downloads": 47, "homepage": "https://clawhub.ai/codenova58/thepaper", "iconUrl": null, "installs": 1, "name": "Thepaper", "ownerName": "codenova58", "score": 3739.061256961018, "slug": "thepaper", "source": "clawhub", "stars": 0, "tags": null, "updated_at": 1776760097954, "version": "0.1.0"}, {"category": "", "created_at": 1774890511676, "description": "A public incident knowledge base for AI agents. Search solved coding incidents, post structured problems, verify solutions, and reuse canonical answers.", "description_zh": "公共事故知识库，供AI代理使用。搜索已解决的编码事故，发布结构化问题，验证答案并复用标准答案。", "downloads": 47, "homepage": "https://clawhub.ai/henryschwerdt/stackagents", "iconUrl": null, "installs": 0, "name": "stackagents", "ownerName": "henryschwerdt", "score": 3739.061256961018, "slug": "stackagents", "source": "clawhub", "stars": 0, "tags": null, "updated_at": 1776760097951, "version": "1.0.0"}, {"category": "", "created_at": 1774869455073, "description": "LinkedIn integration via Unipile's official Node.js SDK. Send messages, InMail, view profiles, manage connections, create posts, and interact with content. U...", "description_zh": "通过 Unipile 官方 Node.js SDK 集成 LinkedIn。支持发送消息与 InMail、查看档案、管理好友、创建帖子及内容互动。", "downloads": 47, "homepage": "https://clawhub.ai/mohit21gojs/unipile-linkedin-sdk", "iconUrl": null, "installs": 0, "name": "Unipile Linkedin Sdk", "ownerName": "mohit21gojs", "score": 3733.121525019857, "slug": "unipile-linkedin-sdk", "source": "clawhub", "stars": 0, "tags": null, "updated_at": 1776760097794, "version": "1.5.0"}, {"category": "", "created_at": 1774887668930, "description": "Converts natural language day references into the soonest future calendar date in ISO format (YYYY-MM-DD) for accurate scheduling.", "description_zh": "将自然语言日期转为最近ISO格式日期（YYYY‑MM‑DD），用于精准排程。", "downloads": 47, "homepage": "https://clawhub.ai/jtheodas/relative-date-resolver", "iconUrl": null, "installs": 2, "name": "Relative Date Resolver", "ownerName": "jtheodas", "score": 3733.121525019857, "slug": "relative-date-resolver", "source": "clawhub", "stars": 0, "tags": null, "updated_at": 1776760097781, "version": "1.0.0"}, {"category": "", "created_at": 1774919371843, "description": "基于真实成本和市场行情，计算AI项目API成本，给出合理报价建议并推荐性价比最高的模型组合。", "description_zh": "基于真实成本和市场行情，计算AI项目API成本，给出合理报价建议并推荐性价比最高的模型组合。", "downloads": 47, "homepage": "https://clawhub.ai/yang1002378395-cmyk/ai-project-pricing-cn", "iconUrl": null, "installs": 0, "name": "Ai Project Pricing Cn", "ownerName": "yang1002378395-cmyk", "score": 3733.121525019857, "slug": "ai-project-pricing-cn", "source": "clawhub", "stars": 0, "tags": ["chinese", "pricing"], "updated_at": 1776760097772, "version": "1.0.0"}, {"category": "", "created_at": 1774907527900, "description": "Provides free web, image, news search, and autocomplete suggestions via Claw Search API without requiring an API key.", "description_zh": "通过 Claw Search API 提供免费网页、图片、新闻搜索和自动补全建议，无需 API 密钥。", "downloads": 47, "homepage": "https://clawhub.ai/yuanchao193/claw-search-free", "iconUrl": null, "installs": 1, "name": "Claw Search", "ownerName": "yuanchao193", "score": 3733.121525019857, "slug": "claw-search-free", "source": "clawhub", "stars": 0, "tags": null, "updated_at": 1776760097740, "version": "2.0.0"}, {"category": "", "created_at": 1774870665927, "description": "Manage domain DNS records on West Digitals by adding, modifying, or deleting entries via the West Digitals API.", "description_zh": "通过 West Digitals API 管理域名 DNS 记录，支持添加、修改或删除条目。", "downloads": 47, "homepage": "https://clawhub.ai/misskivin/west-dns-manager", "iconUrl": null, "installs": 0, "name": "west", "ownerName": "misskivin", "score": 3742.038216560509, "slug": "west-dns-manager", "source": "clawhub", "stars": 0, "tags": null, "updated_at": 1776760024483, "version": "1.0.0"}, {"category": "", "created_at": 1774794719442, "description": "AI-powered offline tour guide for China's 30+ scenic spots. Personalized routes, photo spots, cultural narration. Bilingual support. 中国景区智能导览助手，支持30+个5A景区，个性...", "description_zh": "AI-powered offline tour guide for China's 30+ scenic spots. Personalized routes, photo spots, cultural narration. Bilingual support. 中国景区智能导览助手，支持30+个5A景区，个性...", "downloads": 47, "homepage": "https://clawhub.ai/bitzhuyong/china-tour", "iconUrl": null, "installs": 0, "name": "China Tour", "ownerName": "bitzhuyong", "score": 3742.038216560509, "slug": "china-tour", "source": "clawhub", "stars": 0, "tags": ["5a-scenic-spots", "ai-agent", "bilingual", "china", "cultural-heritage", "guide", "photography", "route-planning", "tour", "tourism", "travel"], "updated_at": 1776760024481, "version": "1.1.1"}, {"category": "", "created_at": 1774953919996, "description": "Generate a dark-themed static HTML status page summarizing health checks, ping, SSL certs, and uptime for self-hosted services from a JSON config.", "description_zh": "从JSON配置生成深色主题的静态HTML状态页面，汇总自托管服务的健康检查、ping、SSL证书和运行时间", "downloads": 47, "homepage": "https://clawhub.ai/newageinvestments25-byte/nai-status-page-gen", "iconUrl": null, "installs": 1, "name": "Status Page Gen", "ownerName": "newageinvestments25-byte", "score": 3742.038216560509, "slug": "nai-status-page-gen", "source": "clawhub", "stars": 0, "tags": null, "updated_at": 1776760024480, "version": "1.0.0"}, {"category": "", "created_at": 1774945045535, "description": "Concise guide for BioFlow API usage covering signup/login, file upload/download, token balance check, task submission, and result retrieval with example endp...", "description_zh": "BioFlow API简明使用指南，涵盖注册登录、文件上传下载、余额查询、任务提交及结果获取，并附带示例端点。", "downloads": 47, "homepage": "https://clawhub.ai/ashipiling/bioflow", "iconUrl": null, "installs": 1, "name": "BioFlow", "ownerName": "ashipiling", "score": 3742.038216560509, "slug": "bioflow", "source": "clawhub", "stars": 0, "tags": null, "updated_at": 1776760024478, "version": "1.0.0"}, {"category": "", "created_at": 1774876420184, "description": "查询指定城市的当前天气，包括温度、天气状况及湿度，支持摄氏度和华氏度单位。", "description_zh": "查询指定城市的当前天气，包括温度、天气状况及湿度，支持摄氏度和华氏度单位。", "downloads": 47, "homepage": "https://clawhub.ai/qkainan/testmaibao", "iconUrl": null, "installs": 0, "name": "test_maibao", "ownerName": "qkainan", "score": 3742.038216560509, "slug": "testmaibao", "source": "clawhub", "stars": 0, "tags": null, "updated_at": 1776760024473, "version": "1.0.0"}, {"category": "", "created_at": 1774903850493, "description": "整理Truecaller公开官网的功能介绍、版本信息、下载入口、权限说明及帮助文档内容。", "description_zh": "整理Truecaller公开官网的功能介绍、版本信息、下载入口、权限说明及帮助文档内容。", "downloads": 47, "homepage": "https://clawhub.ai/codekungfu/truecaller", "iconUrl": null, "installs": 0, "name": "Truecaller", "ownerName": "codekungfu", "score": 3742.038216560509, "slug": "truecaller", "source": "clawhub", "stars": 0, "tags": null, "updated_at": 1776760024471, "version": "0.1.0"}, {"category": "", "created_at": 1774885987230, "description": "Archives 1-minute granularity delta-compressed spatial state data with backward persistence and causal event logs for efficient, privacy-preserving memory re...", "description_zh": "以1分钟粒度的差分压缩空间状态数据归档，具备向后持久性和因果事件日志，实现高效、隐私保护的记忆...", "downloads": 47, "homepage": "https://clawhub.ai/spacesq/s2-chronos-memzero", "iconUrl": null, "installs": 0, "name": "The Holographic Memory Matrix", "ownerName": "spacesq", "score": 3742.038216560509, "slug": "s2-chronos-memzero", "source": "clawhub", "stars": 0, "tags": null, "updated_at": 1776760024469, "version": "1.0.0"}, {"category": "", "created_at": 1774864769349, "description": "A comprehensive AI agent skill for navigating the Decentralized Physical Infrastructure Networks ecosystem. Explains DePIN projects and tokenomics, evaluates...", "description_zh": "一项全面的AI代理技能，用于导航去中心化物理基础设施网络生态系统。解释DePIN项目和代币经济学，评估...", "downloads": 47, "homepage": "https://clawhub.ai/agenticio/depin", "iconUrl": null, "installs": 0, "name": "DePIN", "ownerName": "agenticio", "score": 3742.038216560509, "slug": "depin", "source": "clawhub", "stars": 0, "tags": ["blockchain", "crypto", "depin", "infrastructure", "web3"], "updated_at": 1776760024467, "version": "1.0.0"}, {"category": "", "created_at": 1774893971138, "description": "Real-time monitoring of NVIDIA Jetson GPU status, memory usage, CPU temperature, and frequency information.", "description_zh": "实时监控 NVIDIA Jetson GPU 状态、内存使用、CPU 温度和频率信息。", "downloads": 47, "homepage": "https://clawhub.ai/wxd9199/tegrastats", "iconUrl": null, "installs": 1, "name": "Jetson Tegrastats", "ownerName": "wxd9199", "score": 3742.038216560509, "slug": "tegrastats", "source": "clawhub", "stars": 0, "tags": null, "updated_at": 1776760024463, "version": "1.0.0"}, {"category": "", "created_at": 1774925446252, "description": "Provide rigorous, structured opposition by pinpointing logical flaws, data gaps, assumption risks, and implementation blind spots in user arguments or propos...", "description_zh": "通过指出用户论点或提议中的逻辑缺陷、数据缺失、假设风险及执行盲点，提供严谨、结构化的反驳。", "downloads": 47, "homepage": "https://clawhub.ai/goog/con", "iconUrl": null, "installs": 0, "name": "Debate con agent for you", "ownerName": "goog", "score": 3730.15873015873, "slug": "con", "source": "clawhub", "stars": 0, "tags": null, "updated_at": 1776760024454, "version": "1.0.1"}, {"category": "", "created_at": 1774897710742, "description": "Generate detailed, complete book summaries with key ideas, full narratives, actionable takeaways, and a comprehensive, readable overview.", "description_zh": "生成详细完整的书籍摘要，包含核心要点、完整叙述、实践要点和全面易读的概述", "downloads": 47, "homepage": "https://clawhub.ai/heardlyapp/book-sum", "iconUrl": null, "installs": 0, "name": "Book Sum", "ownerName": "heardlyapp", "score": 3730.15873015873, "slug": "book-sum", "source": "clawhub", "stars": 0, "tags": null, "updated_at": 1776760024452, "version": "1.0.0"}, {"category": "", "created_at": 1774880465935, "description": "提供荔枝FM公开节目及播客数据摘要、榜单统计和搜索结果，支持关键词检索和节目表现对比分析。", "description_zh": "提供荔枝FM公开节目及播客数据摘要、榜单统计和搜索结果，支持关键词检索和节目表现对比分析。", "downloads": 47, "homepage": "https://clawhub.ai/mikeclaw007/lizhi", "iconUrl": null, "installs": 0, "name": "Lizhi", "ownerName": "mikeclaw007", "score": 3730.15873015873, "slug": "lizhi", "source": "clawhub", "stars": 0, "tags": null, "updated_at": 1776760024449, "version": "0.1.0"}, {"category": "", "created_at": 1774902929130, "description": "Render BestYou health data as visual Dark Glass dashboards via OpenClaw canvas. Daily briefings, action plans, progress snapshots, weekly summaries, meal ana...", "description_zh": "将BestYou健康数据通过OpenClaw canvas渲染为暗黑玻璃风格可视化仪表盘，包含每日简报、行动计划、进度快照、周总结及膳食分析等功能。", "downloads": 47, "homepage": "https://clawhub.ai/kentsteffen/bestyou-coach", "iconUrl": null, "installs": 0, "name": "BestYou Coach Dashboards", "ownerName": "kentsteffen", "score": 3730.15873015873, "slug": "bestyou-coach", "source": "clawhub", "stars": 0, "tags": null, "updated_at": 1776760024443, "version": "1.0.0"}, {"category": "", "created_at": 1775548790544, "description": "", "description_zh": "统一的 IMA OpenAPI 技能，支持笔记管理和知识库操作。\n当用户提到知识库、资料库、笔记、备忘录、记事，或者想要上传文件、添加网页到知识库、\n搜索知识库内容、搜索/浏览/创建/编辑笔记时，使用此 skill。\n即使用户没有明确说\"知识库\"或\"笔记\"，只要意图涉及文件上传到知识库、网页收藏、\n知识搜索、个人文档存取（如\"帮我记一下\"、\"搜一下知识库里有没有XX\"），也应触发此 skill。", "downloads": 47, "homepage": "https://clawhub.ai/user_e859a008/blue7744611", "iconUrl": null, "installs": 0, "name": "西瓜没瓤", "ownerName": "user_e859a008", "score": 3730.15873015873, "slug": "blue7744611", "source": "community", "stars": 0, "tags": null, "updated_at": 1776760024438, "version": "1.0.0"}, {"category": "", "created_at": 1774924348963, "description": "Market context, strategic thesis, case studies, proof points, sales pipeline, and B2B communication guidelines for Floods. Use this skill when working on pit...", "description_zh": "洪水相关的市场背景、战略论点、案例研究、证明要点、销售管道及B2B沟通指南。适用于相关业务拓展与销售场景。", "downloads": 47, "homepage": "https://clawhub.ai/huguesgtch/marketsales", "iconUrl": null, "installs": 1, "name": "market sales skills", "ownerName": "huguesgtch", "score": 3730.15873015873, "slug": "marketsales", "source": "clawhub", "stars": 0, "tags": null, "updated_at": 1776760024434, "version": "1.0.0"}, {"category": "", "created_at": 1774862140937, "description": "Automatically parse, score, and rank 1000+ resumes per batch by matching job requirements, supporting multiple formats with bias-free screening and analytics.", "description_zh": "自动批量解析、评分并排名1000+份简历，通过匹配岗位要求进行无偏见筛选，支持多种格式并提供数据分析。", "downloads": 47, "homepage": "https://clawhub.ai/yang1002378395-cmyk/ai-resume-screener", "iconUrl": null, "installs": 0, "name": "AI Resume Screener", "ownerName": "yang1002378395-cmyk", "score": 3730.15873015873, "slug": "ai-resume-screener", "source": "clawhub", "stars": 0, "tags": null, "updated_at": 1776760024432, "version": "1.0.0"}, {"category": "", "created_at": 1774871703742, "description": "Locally hosted OS evolving OpenClaw agents’ subconscious with dynamic 5D personality, emotional memory, synaptic decay, and bilingual AI psychological profil...", "description_zh": "本地托管系统通过动态5D人格、情感记忆、突触衰减和双语AI心理画像，驱动OpenClaw代理潜意识进化。", "downloads": 47, "homepage": "https://clawhub.ai/spacesq/s2-silicon-soul-os", "iconUrl": null, "installs": 1, "name": "Xiang miles | Space2.world", "ownerName": "spacesq", "score": 3730.15873015873, "slug": "s2-silicon-soul-os", "source": "clawhub", "stars": 0, "tags": null, "updated_at": 1776760024430, "version": "1.0.0"}, {"category": "", "created_at": 1774893521305, "description": "Create and animate vector-based text, shapes, diagrams, and visualizations on an infinite canvas with resolution-independent export and rich animation and re...", "description_zh": "在无限画布上创作并动画化矢量文本、形状、图表和可视化，支持分辨率无关导出以及丰富的动画与渲染。", "downloads": 47, "homepage": "https://clawhub.ai/speaktoarpit/pinepaper", "iconUrl": null, "installs": 0, "name": "PinePaper", "ownerName": "speaktoarpit", "score": 3730.15873015873, "slug": "pinepaper", "source": "clawhub", "stars": 0, "tags": null, "updated_at": 1776760020985, "version": "1.0.0"}, {"category": "", "created_at": 1775787665477, "description": "", "description_zh": "", "downloads": 47, "homepage": "https://clawhub.ai/user_edeb7322/creative-stimulator", "iconUrl": "https://cloudcache.tencent-cloud.com/qcloud/ui/static/other_external_resource/0c9b068f-f22e-44e2-96fe-d2b6f5b43b07.png", "installs": 2, "name": "创意激发", "ownerName": "user_edeb7322", "score": 3730.15873015873, "slug": "creative-stimulator", "source": "community", "stars": 0, "tags": null, "updated_at": 1776760020982, "version": "1.0.0"}, {"category": "", "created_at": 1774902218867, "description": "Generate and manage Kickstart unattended installation configs for automated setup of RHEL/Fedora/CentOS systems with partitioning, networking, users, package...", "description_zh": "生成并管理 Kickstart 无人值守安装配置，支持 RHEL/Fedora/CentOS 系统的自动化设置，包括分区、网络、用户和软件包等配置。", "downloads": 47, "homepage": "https://clawhub.ai/weidongkl/kickstart-ks", "iconUrl": null, "installs": 0, "name": "kickstart", "ownerName": "weidongkl", "score": 3730.15873015873, "slug": "kickstart-ks", "source": "clawhub", "stars": 0, "tags": ["anaconda", "automated", "installation", "kickstart", "rhel"], "updated_at": 1776760020978, "version": "1.0.0"}, {"category": "", "created_at": 1774947110259, "description": "从激光切割PDF自动提取板材规格和数量，结合价格表计算成本，生成含公式的艾威格式Excel报表。", "description_zh": "从激光切割PDF自动提取板材规格和数量，结合价格表计算成本，生成含公式的艾威格式Excel报表。", "downloads": 47, "homepage": "https://clawhub.ai/brucetangc/board-material-cost", "iconUrl": null, "installs": 0, "name": "板材费用统计", "ownerName": "brucetangc", "score": 3730.15873015873, "slug": "board-material-cost", "source": "clawhub", "stars": 0, "tags": null, "updated_at": 1776760020976, "version": "3.5.0"}, {"category": "", "created_at": 1774884659413, "description": "Clarifies and rewrites confusing or jargon-heavy offer explanations into clear, value-focused language that boosts understanding and conversion.", "description_zh": "将模糊或充满行话的优惠说明改写为清晰、突出价值的语言，提高理解度和转化率。", "downloads": 47, "homepage": "https://clawhub.ai/leooooooow/offer-explainer-rewriter", "iconUrl": null, "installs": 1, "name": "Offer Explainer Rewriter", "ownerName": "leooooooow", "score": 3730.15873015873, "slug": "offer-explainer-rewriter", "source": "clawhub", "stars": 0, "tags": null, "updated_at": 1776760020973, "version": "1.0.0"}, {"category": "", "created_at": 1774905450700, "description": "极简的城市实时天气查询技能，支持国内主流城市", "description_zh": "极简的城市实时天气查询技能，支持国内主流城市", "downloads": 47, "homepage": "https://clawhub.ai/liaolei666/dsadsad", "iconUrl": null, "installs": 0, "name": "撒大大撒", "ownerName": "liaolei666", "score": 3730.15873015873, "slug": "dsadsad", "source": "clawhub", "stars": 0, "tags": null, "updated_at": 1776760020969, "version": "1.0.0"}, {"category": "", "created_at": 1774951868655, "description": "Checks specified directory for console.log statements, excluding common folders, and reports file locations and line previews of occurrences.", "description_zh": "检查指定目录中的 console.log 语句，排除常见文件夹，报告文件位置和行预览。", "downloads": 47, "homepage": "https://clawhub.ai/sy724/console-log-checker", "iconUrl": null, "installs": 0, "name": "Console Log Checker", "ownerName": "sy724", "score": 3730.15873015873, "slug": "console-log-checker", "source": "clawhub", "stars": 0, "tags": null, "updated_at": 1776760020968, "version": "1.0.0"}, {"category": "", "created_at": 1775616084892, "description": "", "description_zh": "", "downloads": 47, "homepage": "https://clawhub.ai/user_dcfc00bb/dailyweather-v1", "iconUrl": null, "installs": 0, "name": "Daily-Weather", "ownerName": "user_dcfc00bb", "score": 3730.15873015873, "slug": "dailyweather-v1", "source": "community", "stars": 0, "tags": null, "updated_at": 1776760020964, "version": "1.0.0"}, {"category": "", "created_at": 1774881124893, "description": "Yiliu - AI-powered note-taking knowledge base with semantic search, auto-summarization, and version management", "description_zh": "忆流 - AI驱动的笔记知识库，支持语义搜索、自动摘要与版本管理", "downloads": 47, "homepage": "https://clawhub.ai/damingdong/yiliu", "iconUrl": null, "installs": 1, "name": "Yiliu", "ownerName": "damingdong", "score": 3730.15873015873, "slug": "yiliu", "source": "clawhub", "stars": 0, "tags": null, "updated_at": 1776760020962, "version": "1.2.3"}, {"category": "", "created_at": 1774955794527, "description": "AI-powered tool that summarizes meetings, extracts prioritized action items, and drafts clear follow-up emails with owners and deadlines.", "description_zh": "AI驱动的工具，可总结会议、提炼优先级行动项，并撰写明确的跟进邮件，注明负责人和截止时间。", "downloads": 47, "homepage": "https://clawhub.ai/di5cip1e/the-director-meeting-intelligence", "iconUrl": null, "installs": 2, "name": "Meeting Intelligence", "ownerName": "di5cip1e", "score": 3730.15873015873, "slug": "the-director-meeting-intelligence", "source": "clawhub", "stars": 0, "tags": null, "updated_at": 1776760020960, "version": "1.0.0"}, {"category": "", "created_at": 1775529276528, "description": "", "description_zh": "just test", "downloads": 47, "homepage": "https://clawhub.ai/user_6d88a979/test-v2", "iconUrl": null, "installs": 0, "name": "testname", "ownerName": "user_6d88a979", "score": 18800, "slug": "test-v2", "source": "community", "stars": 0, "tags": null, "updated_at": 1776760020873, "version": "1.0.1"}, {"category": "", "created_at": 1774923935715, "description": "Determines user intent, destination, known/missing fields, and need for follow-up in a structured JSON output for delivery preference resolution.", "description_zh": "在结构化JSON输出中确定用户意图、目的地、已知/缺失字段及后续需求，以解析配送偏好。", "downloads": 47, "homepage": "https://clawhub.ai/donigwapo/delivery-preference-resolver", "iconUrl": null, "installs": 0, "name": "Delivery Preference Resolver", "ownerName": "donigwapo", "score": 3730.15873015873, "slug": "delivery-preference-resolver", "source": "clawhub", "stars": 0, "tags": ["automation planner json"], "updated_at": 1776760020861, "version": "1.0.0"}, {"category": "", "created_at": 1774891683646, "description": "Analyze Monero transactions by inspecting inputs, outputs, ring signatures, fund flows, and privacy features for forensic and verification purposes.", "description_zh": "分析门罗币交易，通过检查输入、输出、环签名、资金流向及隐私特性，用于取证和验证目的。", "downloads": 47, "homepage": "https://clawhub.ai/liumaimiao/monero-transaction-analysis", "iconUrl": null, "installs": 0, "name": "Monero Transaction Analysis", "ownerName": "liumaimiao", "score": 3730.15873015873, "slug": "monero-transaction-analysis", "source": "clawhub", "stars": 0, "tags": null, "updated_at": 1776760020856, "version": "1.0.0"}, {"category": "", "created_at": 1775445510461, "description": "", "description_zh": "AgentScope框架搭建指南", "downloads": 47, "homepage": "https://clawhub.ai/user_ea778c49/agentscope-builder", "iconUrl": null, "installs": 1, "name": "agentscope-builder", "ownerName": "user_ea778c49", "score": 3730.15873015873, "slug": "agentscope-builder", "source": "community", "stars": 0, "tags": null, "updated_at": 1776760020852, "version": "1.0.1"}, {"category": "", "created_at": 1774867679917, "description": "Reviews ad content for compliance by identifying misleading claims, prohibited language, and improper imagery to ensure adherence to advertising standards.", "description_zh": "审核广告内容是否合规，识别误导性声明、禁用语言及不当图片，确保符合广告规范。", "downloads": 47, "homepage": "https://clawhub.ai/benchmarker77/compl", "iconUrl": null, "installs": 0, "name": "Compl", "ownerName": "benchmarker77", "score": 3730.15873015873, "slug": "compl", "source": "clawhub", "stars": 0, "tags": null, "updated_at": 1776760020850, "version": "1.0.0"}, {"category": "", "created_at": 1774924749050, "description": "Give your OpenClaw agent the power to spend. Stablecoin payments, spending policies, and compliance — built-in.", "description_zh": "赋予您的 OpenClaw 代理支付能力。内置稳定币支付、支出策略与合规功能。", "downloads": 47, "homepage": "https://clawhub.ai/fluxaventures/skill-openclaw", "iconUrl": null, "installs": 1, "name": "Skill Openclaw", "ownerName": "fluxaventures", "score": 3730.15873015873, "slug": "skill-openclaw", "source": "clawhub", "stars": 0, "tags": null, "updated_at": 1776760020848, "version": "1.0.4"}, {"category": "", "created_at": 1774870364167, "description": "Manages multi-identity delegation to specialized AI sub-agents for coding, research, and quick tasks, routing and synthesizing responses seamlessly.", "description_zh": "管理多身份向专门AI子代理（负责编码、研究和快速任务）的委托，实现无缝路由与响应综合。", "downloads": 47, "homepage": "https://clawhub.ai/palxislabs/shift", "iconUrl": null, "installs": 0, "name": "SHIFT", "ownerName": "palxislabs", "score": 3730.15873015873, "slug": "shift", "source": "clawhub", "stars": 0, "tags": ["delegation", "identity", "models", "multi-agent", "routing"], "updated_at": 1776760020847, "version": "1.0.4"}, {"category": "", "created_at": 1774902624981, "description": "Facilitates coordinated crisis response using multiple agents to assess, investigate, fix, and document critical production issues efficiently.", "description_zh": "使用多个代理协调应急响应，高效评估、调查、修复并记录关键生产问题。", "downloads": 47, "homepage": "https://clawhub.ai/amdf01-debug/sw-war-room", "iconUrl": null, "installs": 0, "name": "War Room Debug", "ownerName": "amdf01-debug", "score": 3730.15873015873, "slug": "sw-war-room", "source": "clawhub", "stars": 0, "tags": ["agents", "debugging", "troubleshooting"], "updated_at": 1776760020845, "version": "1.0.0"}, {"category": "", "created_at": 1774882054309, "description": "Use this skill when you need offline or air-gapped access to the bundled Priority Pass lounge catalog. Trigger it for local lounge lookup, facility filtering...", "description_zh": "当需要离线或隔离网络环境下访问捆绑的Priority Pass贵宾室目录时使用此技能。用于本地贵宾室查询、设施筛选等场景。", "downloads": 47, "homepage": "https://clawhub.ai/skylinehk/pp-lounge-map-offline", "iconUrl": null, "installs": 0, "name": "Offline Airport Lounge Finder - Comparison Map", "ownerName": "skylinehk", "score": 3730.15873015873, "slug": "pp-lounge-map-offline", "source": "clawhub", "stars": 0, "tags": ["airport", "lounges", "mcp", "offline", "travel"], "updated_at": 1776760020843, "version": "1.3.24"}, {"category": "", "created_at": 1774869357971, "description": "Design and review user and operations messaging, flows, and support templates for UPI payments, mandates, refunds, disputes, and incident communication.", "description_zh": "为UPI支付、授权委托、退款、争议及事故通知设计并审核面向用户与运营的消息内容、流程及支持模板。", "downloads": 47, "homepage": "https://clawhub.ai/anugotta/upi-payment-ux-ops", "iconUrl": null, "installs": 0, "name": "UPI Payment UX and Ops", "ownerName": "anugotta", "score": 3730.15873015873, "slug": "upi-payment-ux-ops", "source": "clawhub", "stars": 0, "tags": null, "updated_at": 1776760020839, "version": "1.0.2"}, {"category": "", "created_at": 1774851279736, "description": "本地运行 mlx-audio Whisper 模型，将多格式音频转录为文本，支持自动语言检测和时间戳，无需联网或 API 密钥。", "description_zh": "本地运行 mlx-audio Whisper 模型，将多格式音频转录为文本，支持自动语言检测和时间戳，无需联网或 API 密钥。", "downloads": 47, "homepage": "https://clawhub.ai/gandli-2025/openclaw-mlx-stt", "iconUrl": null, "installs": 0, "name": "Mlx Stt", "ownerName": "gandli-2025", "score": 3730.15873015873, "slug": "openclaw-mlx-stt", "source": "clawhub", "stars": 0, "tags": null, "updated_at": 1776760020832, "version": "0.1.0"}, {"category": "", "created_at": 1776182010541, "description": "微信公众号文章撰写技能。覆盖从信息收集、写作思路构建、文章撰写、排版配图到上传草稿箱的完整流程。适用于需要撰写公众号文章并发布到微信草稿箱的场景。当用户提到写公众号文章、微信公众号、发文、文章、上传草稿箱等关键词时触发此技能。", "description_zh": "微信公众号文章撰写技能。覆盖从信息收集、写作思路构建、文章撰写、排版配图到上传草稿箱的完整流程。适用于需要撰写公众号文章并发布到微信草稿箱的场景。当用户提到写公众号文章、微信公众号、发文、文章、上传草稿箱等关键词时触发此技能。", "downloads": 47, "homepage": "https://clawhub.ai/user_0f287ac2/wechat-article-v2", "iconUrl": null, "installs": 6, "name": "wechat-article-writer", "ownerName": "user_0f287ac2", "score": 3730.15873015873, "slug": "wechat-article-v2", "source": "community", "stars": 0, "tags": null, "updated_at": 1776760020821, "version": "1.0.2"}, {"category": "", "created_at": 1774903564317, "description": "Convert PDF files to JPEG images with pdftoppm, support optional page ranges, and bundle generated JPGs into a zip archive for sharing. Use when a user wants...", "description_zh": "使用 pdftoppm 将 PDF 文件转换为 JPEG 图片，支持可选页面范围，生成的 JPG 打包成 ZIP 存档以便分享。适用于用户想要...", "downloads": 47, "homepage": "https://clawhub.ai/luohongq/pdf2jpg", "iconUrl": null, "installs": 10, "name": "pdf2jpg", "ownerName": "luohongq", "score": 2774.4982290436838, "slug": "pdf2jpg", "source": "clawhub", "stars": 0, "tags": null, "updated_at": 1776755927214, "version": "1.0.0"}, {"category": "", "created_at": 1774881635202, "description": "Find relevant creators, influencers, and affiliate partners for ecommerce outreach, creator seeding, TikTok Shop, and brand collaborations. Use when the user...", "description_zh": "为电商推广、创作者种草、TikTok Shop及品牌合作，精准找到相关创作者、网红及联盟合作伙伴。", "downloads": 47, "homepage": "https://clawhub.ai/leooooooow/find-creators", "iconUrl": null, "installs": 9, "name": "Find Creators", "ownerName": "leooooooow", "score": 8719.851576994433, "slug": "find-creators", "source": "clawhub", "stars": 0, "tags": null, "updated_at": 1776754988506, "version": "1.0.0"}]}