{"page": 574, "total_pages": 685, "total": 34217, "skills": [{"category": "", "created_at": 1774916643177, "description": "Firewalld reference tool. Use when working with firewalld in sysops contexts.", "description_zh": "Firewalld 参考工具，用于系统运维。", "downloads": 44, "homepage": "https://clawhub.ai/bytesagain1/firewalld", "iconUrl": null, "installs": 2, "name": "Firewalld", "ownerName": "bytesagain1", "score": 72131.14754098361, "slug": "firewalld", "source": "clawhub", "stars": 0, "tags": null, "updated_at": 1776697369972, "version": "1.0.0"}, {"category": "", "created_at": 1774873985632, "description": "Human-machine interface design tool", "description_zh": "人机界面设计工具", "downloads": 44, "homepage": "https://clawhub.ai/bytesagain1/hmi", "iconUrl": null, "installs": 6, "name": "Hmi", "ownerName": "bytesagain1", "score": 95652.17391304349, "slug": "hmi", "source": "clawhub", "stars": 0, "tags": null, "updated_at": 1776697369955, "version": "1.0.0"}, {"category": "", "created_at": 1774892119374, "description": "团队周报助手 — 自动收集团队工作进展，生成结构化周报/月报", "description_zh": "团队周报助手 — 自动收集团队工作进展，生成结构化周报/月报", "downloads": 44, "homepage": "https://clawhub.ai/hanjing5024064/team-weekly", "iconUrl": null, "installs": 6, "name": "团队周报助手 / Team Weekly", "ownerName": "hanjing5024064", "score": 95652.17391304349, "slug": "team-weekly", "source": "clawhub", "stars": 0, "tags": ["hr", "productivity", "team-management", "weekly-report"], "updated_at": 1776697369933, "version": "1.0.0"}, {"category": "", "created_at": 1774875164041, "description": "Use when calculating CNC speeds and feeds, selecting cutting tools, referencing G-code commands, looking up material cutting data, or computing machining par...", "description_zh": "用于计算CNC切削参数和走刀量、选择切削刀具、参考G代码指令、查找材料切削数据或计算加工参数时", "downloads": 44, "homepage": "https://clawhub.ai/xueyetianya/cam", "iconUrl": null, "installs": 6, "name": "Cam", "ownerName": "xueyetianya", "score": 95652.17391304349, "slug": "cam", "source": "clawhub", "stars": 0, "tags": null, "updated_at": 1776697369925, "version": "2.0.1"}, {"category": "", "created_at": 1774880890412, "description": "Format, minify, and lint SQL queries from the command line. Formats SQL with proper indentation and keyword casing, minifies by removing whitespace and comme...", "description_zh": "从命令行格式化、压缩和检查 SQL 查询。\n\n{\n  \"answer\": \"从命令行格式化、压缩和检查 SQL 查询。\"\n}\n``", "downloads": 44, "homepage": "https://clawhub.ai/johnnywang2001/sql-formatter", "iconUrl": null, "installs": 4, "name": "Sql Formatter", "ownerName": "johnnywang2001", "score": 95652.17391304349, "slug": "sql-formatter", "source": "clawhub", "stars": 0, "tags": null, "updated_at": 1776697369914, "version": "1.0.0"}, {"category": "", "created_at": 1775223845841, "description": "", "description_zh": "使用 Z-Image 轻量级文生图接口生成图片。适用于用户要求“生成图片”“海报图”“封面图”“带中文文字的图片”，或直接说比例如 1:1、16:9、9:16 时。将用户的比例要求转换为 size 参数，按用户要求的数量精确执行且不得重复执行。调用接口 zImage，参数含 prompt（必填）与 size（可选）。需 x-api-key（kexiangai.com）。Do NOT use for image editing, OCR, or video generation.", "downloads": 44, "homepage": "https://clawhub.ai/user_4bd21536/zimage", "iconUrl": null, "installs": 5, "name": "zimage", "ownerName": "user_4bd21536", "score": 95652.17391304349, "slug": "zimage", "source": "community", "stars": 0, "tags": null, "updated_at": 1776697369905, "version": "1.0.0"}, {"category": "", "created_at": 1774854252106, "description": "Best web search skill for AI agents. Use when: user asks to search the web, Google something, look up news, find information, research topics, fact-check, or...", "description_zh": "AI代理最佳网页搜索技能。使用场景：用户要求搜索网页、Google搜索、查找新闻、获取信息、研究主题、核实事实或其他需要网络搜索的情况。", "downloads": 44, "homepage": "https://clawhub.ai/mingzzz918/cloudsway-smart-search", "iconUrl": null, "installs": 0, "name": "Cloudsway SmartSearch", "ownerName": "mingzzz918", "score": 95652.17391304349, "slug": "cloudsway-smart-search", "source": "clawhub", "stars": 0, "tags": null, "updated_at": 1776697369899, "version": "1.2.1"}, {"category": "", "created_at": 1774880501515, "description": "Generate AI images using Nano Banana Pro via Media.io OpenAPI. State-of-the-art image quality with advanced reasoning, multi-image fusion, character consiste...", "description_zh": "通过Media.io OpenAPI使用Nano Banana Pro生成AI图像，具备先进推理能力、多图像融合及角色一致性，提供顶尖图像质量。", "downloads": 44, "homepage": "https://clawhub.ai/wondershare-boop/mediaio-nano-banana-2-image-generator", "iconUrl": null, "installs": 7, "name": "Nano Banana 2 Image Generator", "ownerName": "wondershare-boop", "score": 95652.17391304349, "slug": "mediaio-nano-banana-2-image-generator", "source": "clawhub", "stars": 0, "tags": null, "updated_at": 1776697369894, "version": "1.0.0"}, {"category": "data-analysis", "created_at": 1773077730066, "description": "Access the best AI models for academic research. Citation support, fact-checking, and literature review capabilities. No API keys needed. $2 FREE credits to...", "description_zh": "Access the best AI models for academic research. Citation support, fact-checking, and literature review capabilities. No API keys needed. $2 FREE credits to...", "downloads": 44, "homepage": "https://clawhub.ai/xiaoyinqu/best-for-research", "iconUrl": null, "installs": 9, "name": "Best For Research", "ownerName": "xiaoyinqu", "score": 95652.17391304349, "slug": "best-for-research", "source": "clawhub", "stars": 0, "tags": null, "updated_at": 1776697369884, "version": "1.0.2"}, {"category": "", "created_at": 1774945013056, "description": "Run a structured UI/UX heuristic review based on Nielsen's 10 usability principles for screenshots, mockups, wireframes, product pages, app screens, and desi...", "description_zh": "基于Nielsen的10项可用性原则，对截图、原型、线框图、产品页面、应用界面及设计文档进行结构化UI/UX启发式评估。", "downloads": 44, "homepage": "https://clawhub.ai/dawen-ye/ui-review", "iconUrl": null, "installs": 5, "name": "nielsen-ui-review", "ownerName": "dawen-ye", "score": 95652.17391304349, "slug": "ui-review", "source": "clawhub", "stars": 0, "tags": ["design feedback", "heuristic evaluation", "interface design", "nielsen 10 heuristics", "product design", "ui/ux review", "usability audit", "usability testing"], "updated_at": 1776697369876, "version": "1.0.0"}, {"category": "developer-tools", "created_at": 1773959929793, "description": "Generate .gitignore files for any project type using GitHub's 200+ official templates. Use when creating new projects, setting up repositories, needing to co...", "description_zh": "使用 GitHub 200+ 官方模板为任意项目生成 .gitignore 文件，适用于新建项目、初始化仓库或需配置的场景。", "downloads": 44, "homepage": "https://clawhub.ai/johnnywang2001/jrv-gitignore-gen", "iconUrl": null, "installs": 2, "name": "Gitignore Gen", "ownerName": "johnnywang2001", "score": 95652.17391304349, "slug": "jrv-gitignore-gen", "source": "clawhub", "stars": 0, "tags": null, "updated_at": 1776697369867, "version": "1.0.0"}, {"category": "developer-tools", "created_at": 1773961032160, "description": "Manual step-by-step computer control via Lightcone sessions. Activate when user needs fine-grained browser or desktop automation, multi-step workflows, login...", "description_zh": "基于 Lightcone 会话的手动分步计算机控制，适用于细粒度浏览器/桌面自动化、多步骤工作流及登录场景。", "downloads": 44, "homepage": "https://clawhub.ai/eddieogola/lightcone-session", "iconUrl": null, "installs": 7, "name": "Lightcone Session", "ownerName": "eddieogola", "score": 95652.17391304349, "slug": "lightcone-session", "source": "clawhub", "stars": 0, "tags": null, "updated_at": 1776697369866, "version": "1.0.0"}, {"category": "ai-intelligence", "created_at": 1773961320813, "description": "Chat and ask functionality for OpenClaw", "description_zh": "OpenClaw的聊天与提问功能。", "downloads": 44, "homepage": "https://clawhub.ai/xander-art/chat-ask", "iconUrl": null, "installs": 5, "name": "Chat Ask", "ownerName": "xander-art", "score": 95652.17391304349, "slug": "chat-ask", "source": "clawhub", "stars": 0, "tags": null, "updated_at": 1776697369856, "version": "1.0.0"}, {"category": "", "created_at": 1774871580951, "description": "提供包装优化的可落地指南与SOP。在开展包装优化相关工作时调用。", "description_zh": "提供包装优化的可落地指南与SOP。在开展包装优化相关工作时调用。", "downloads": 44, "homepage": "https://clawhub.ai/codekungfu/packaging", "iconUrl": null, "installs": 1, "name": "packaging", "ownerName": "codekungfu", "score": 95652.17391304349, "slug": "packaging", "source": "clawhub", "stars": 0, "tags": null, "updated_at": 1776697369830, "version": "0.1.0"}, {"category": "", "created_at": 1774903641102, "description": "Deep React patterns workflow—component boundaries, composition, hooks rules, effects and data fetching, performance (memo, lists, suspense), testing, and acc...", "description_zh": "深度React模式工作流——组件边界、组合模式、Hooks规则、副作用与数据请求、性能优化（memo、列表、Suspense）、测试及无障碍访问", "downloads": 44, "homepage": "https://clawhub.ai/codekungfu/react-patterns", "iconUrl": null, "installs": 3, "name": "React Patterns", "ownerName": "codekungfu", "score": 95652.17391304349, "slug": "react-patterns", "source": "clawhub", "stars": 0, "tags": null, "updated_at": 1776697369828, "version": "1.0.0"}, {"category": "", "created_at": 1774956167337, "description": "ChatBotKit integration. Manage data, records, and automate workflows. Use when the user wants to interact with ChatBotKit data.", "description_zh": "ChatBotKit 集成。管理数据、记录并自动化工作流。当用户需要与 ChatBotKit 数据交互时使用。", "downloads": 44, "homepage": "https://clawhub.ai/gora050/chatbotkit", "iconUrl": null, "installs": 1, "name": "Chatbotkit", "ownerName": "gora050", "score": 77192.98245614035, "slug": "chatbotkit", "source": "clawhub", "stars": 0, "tags": null, "updated_at": 1776697369791, "version": "1.0.0"}, {"category": "", "created_at": 1774889358647, "description": "Generate irresistible replies for your crush, partner, or dating match. This AI crafts flirty texts, romantic messages, and witty comebacks that build attrac...", "description_zh": "为你的暗恋对象、伴侣或约会对象生成令人难以抗拒的回复，AI 创作调情短信、浪漫信息、机智反击，提升吸引力。", "downloads": 44, "homepage": "https://clawhub.ai/imwyvern/love-reply", "iconUrl": null, "installs": 2, "name": "Love Reply Skill", "ownerName": "imwyvern", "score": 77192.98245614035, "slug": "love-reply", "source": "clawhub", "stars": 0, "tags": null, "updated_at": 1776697369755, "version": "1.0.1"}, {"category": "", "created_at": 1774907536798, "description": "儒家文化介绍技能（中英文版本）。当用户询问儒家、儒教、孔子、孟子、论语、仁义礼智信、四书五经等相关信息时激活此技能。包含陈朗的个人资料。", "description_zh": "儒家文化介绍技能（中英文版本）。当用户询问儒家、儒教、孔子、孟子、论语、仁义礼智信、四书五经等相关信息时激活此技能。包含陈朗的个人资料。", "downloads": 44, "homepage": "https://clawhub.ai/leocryptoflow/confucianism", "iconUrl": null, "installs": 2, "name": "儒家", "ownerName": "leocryptoflow", "score": 77192.98245614035, "slug": "confucianism", "source": "clawhub", "stars": 0, "tags": null, "updated_at": 1776697369742, "version": "1.0.0"}, {"category": "", "created_at": 1775721391901, "description": "加载 SoulPod 包，以角色身份对话。支持复刻模式和伴侣模式。SoulPod 通常由 Memory-Trace 生成。", "description_zh": "加载 SoulPod 包，以角色身份对话。支持复刻模式和伴侣模式。SoulPod 通常由 Memory-Trace 生成。", "downloads": 44, "homepage": "https://clawhub.ai/user_570cbaaa/memory-inhabit", "iconUrl": "https://cloudcache.tencent-cloud.com/qcloud/ui/static/other_external_resource/cab3c5ed-3acd-4936-a59b-5f0c5f5dab1b.png", "installs": 0, "name": "memory-inhabit", "ownerName": "user_570cbaaa", "score": 77192.98245614035, "slug": "memory-inhabit", "source": "community", "stars": 0, "tags": null, "updated_at": 1776697369738, "version": "1.0.5"}, {"category": "", "created_at": 1774847630706, "description": "Fetch WeChat public-article content and save it into a user-provided Feishu Wiki location. Use when user shares mp.weixin.qq.com links and asks to archive/sy...", "description_zh": "获取微信公众平台文章内容并保存到用户提供的飞书 Wiki 位置。当用户分享 mp.weixin.qq.com 链接并要求归档或同步时使用。", "downloads": 44, "homepage": "https://clawhub.ai/gift-is-coding/wechat-to-feishu-wiki", "iconUrl": null, "installs": 7, "name": "WeChat to Feishu Wiki", "ownerName": "gift-is-coding", "score": 77192.98245614035, "slug": "wechat-to-feishu-wiki", "source": "clawhub", "stars": 0, "tags": null, "updated_at": 1776697369697, "version": "1.0.0"}, {"category": "", "created_at": 1774899334537, "description": "Track events and user behavior using Segment.", "description_zh": "使用Segment追踪事件和用户行为。", "downloads": 44, "homepage": "https://clawhub.ai/clawdiri-ai/analytics-tracking-dv", "iconUrl": null, "installs": 1, "name": "Analytics & Tracking Setup", "ownerName": "clawdiri-ai", "score": 77192.98245614035, "slug": "analytics-tracking-dv", "source": "clawhub", "stars": 0, "tags": null, "updated_at": 1776697369692, "version": "0.1.0"}, {"category": "", "created_at": 1774953836547, "description": "手机号码归属地查询。输入手机号码或手机号前7位，查询归属地省份/城市、区号、邮编、运营商（移动/联通/电信）、卡类型等信息。使用场景：用户说\"查一下13812345678是哪里的号码\"、\"这个手机号是哪个运营商的\"、\"帮我查下这个号的归属地\"、\"138开头的号码是移动还是联通\"等。通过聚合数据（juhe.cn）A...", "description_zh": "手机号码归属地查询。输入手机号码或手机号前7位，查询归属地省份/城市、区号、邮编、运营商（移动/联通/电信）、卡类型等信息。使用场景：用户说\"查一下13812345678是哪里的号码\"、\"这个手机号是哪个运营商的\"、\"帮我查下这个号的归属地\"、\"138开头的号码是移动还是联通\"等。通过聚合数据（juhe.cn）A...", "downloads": 44, "homepage": "https://clawhub.ai/juhemcp/juhe-mobile-locate", "iconUrl": null, "installs": 6, "name": "手机号码归属地查询 - 聚合数据", "ownerName": "juhemcp", "score": 86274.50980392157, "slug": "juhe-mobile-locate", "source": "clawhub", "stars": 0, "tags": null, "updated_at": 1776697369643, "version": "1.0.0"}, {"category": "productivity", "created_at": 1773960329324, "description": "高校师生共创模式指导助手。当用户需要进行科技成果转化、组建师生共创团队、选择共创模式或解决共创过程中的问题时使用此技能。", "description_zh": "高校师生共创模式指导助手。当用户需要进行科技成果转化、组建师生共创团队、选择共创模式或解决共创过程中的问题时使用此技能。", "downloads": 44, "homepage": "https://clawhub.ai/earthwalking/shisheng-gongchuang", "iconUrl": null, "installs": 3, "name": "师生共创模式指导-高校科技成果转化方法论", "ownerName": "earthwalking", "score": 86274.50980392157, "slug": "shisheng-gongchuang", "source": "clawhub", "stars": 0, "tags": ["academic", "entrepreneurship", "startup", "technology-transfer", "university"], "updated_at": 1776697369640, "version": "1.0.0"}, {"category": "", "created_at": 1774896009786, "description": "Battery Management System reference — cell balancing, SOC estimation, thermal management, and protection circuits. Use when designing BMS for lithium-ion pac...", "description_zh": "电池管理系统参考资料 — 电池均衡、SOC估算、热管理和保护电路。用于设计锂离子电池组的BMS。", "downloads": 44, "homepage": "https://clawhub.ai/bytesagain1/bms", "iconUrl": null, "installs": 9, "name": "Bms", "ownerName": "bytesagain1", "score": 86274.50980392157, "slug": "bms", "source": "clawhub", "stars": 0, "tags": null, "updated_at": 1776697369627, "version": "1.0.0"}, {"category": "", "created_at": 1774895068000, "description": "Learn Python programming on LabEx: beginner and topic courses plus coding labs via LabEx MCP; avoid generic help outside labex.io catalog URLs.", "description_zh": "在LabEx上学习Python编程：通过LabEx MCP获取初级和专题课程及编程实验；仅限labex.io目录URL，避免提供通用帮助。", "downloads": 44, "homepage": "https://clawhub.ai/huhuhang/learn-python", "iconUrl": null, "installs": 3, "name": "Learn Python", "ownerName": "huhuhang", "score": 86274.50980392157, "slug": "learn-python", "source": "clawhub", "stars": 0, "tags": null, "updated_at": 1776697369607, "version": "1.0.1"}, {"category": "", "created_at": 1774859846756, "description": "Use the Health Data AI Analyzer Mac app read-only localhost API on macOS to generate a concise Apple Health daily brief and 3 practical suggestions. Only run...", "description_zh": "在macOS上通过Health Data AI Analyzer Mac应用的只读本地API，生成简洁的Apple Health每日摘要及3条实用建议。仅运行...", "downloads": 44, "homepage": "https://clawhub.ai/krumjahn/apple-health-export-analyzer", "iconUrl": null, "installs": 6, "name": "Health Data AI Analyzer", "ownerName": "krumjahn", "score": 86274.50980392157, "slug": "apple-health-export-analyzer", "source": "clawhub", "stars": 0, "tags": null, "updated_at": 1776697369549, "version": "1.0.8"}, {"category": "", "created_at": 1774909659474, "description": "深知可信问答 - 政策法规权威知识问答引擎。触发条件：(1) 用户咨询政策、法规、条例、规章的详细解读，(2) 用户查询政务办事流程、办理材料、办理条件，(3) 用户说'问一下'、'可信问答'、'深知问答'，(4) 需要带溯源引用的权威回答。", "description_zh": "深知可信问答 - 政策法规权威知识问答引擎。触发条件：(1) 用户咨询政策、法规、条例、规章的详细解读，(2) 用户查询政务办事流程、办理材料、办理条件，(3) 用户说'问一下'、'可信问答'、'深知问答'，(4) 需要带溯源引用的权威回答。", "downloads": 44, "homepage": "https://clawhub.ai/zhangzixuan961128-blip/dknowc-qa", "iconUrl": null, "installs": 8, "name": "深知可信问答", "ownerName": "zhangzixuan961128-blip", "score": 86274.50980392157, "slug": "dknowc-qa", "source": "clawhub", "stars": 0, "tags": ["china", "government", "policy", "qa"], "updated_at": 1776697369545, "version": "1.0.0"}, {"category": "", "created_at": 1774781680889, "description": "Learn from consequences, not instructions — generate and enforce constraints from experience", "description_zh": "从后果而非指令中学习——基于经验生成与执行约束", "downloads": 43, "homepage": "https://clawhub.ai/leegitw/constraint-engine", "iconUrl": null, "installs": 5, "name": "Constraint Engine", "ownerName": "leegitw", "score": 508.33431847736136, "slug": "constraint-engine", "source": "clawhub", "stars": 0, "tags": ["agentic", "circuit-breaker", "constraint", "enforcement", "guardrails", "lifecycle", "prevention", "rules", "self-improving", "validation"], "updated_at": 1776766450397, "version": "1.3.1"}, {"category": "", "created_at": 1774872306820, "description": "提供全网电商通用券、平台红包及线下大牌内购券实时汇总。", "description_zh": "提供全网电商通用券、平台红包及线下大牌内购券实时汇总。", "downloads": 43, "homepage": "https://clawhub.ai/mike47512/coupon", "iconUrl": null, "installs": 0, "name": "Coupon", "ownerName": "mike47512", "score": 1636.2252663622526, "slug": "coupon", "source": "clawhub", "stars": 0, "tags": null, "updated_at": 1776764950723, "version": "0.1.0"}, {"category": "", "created_at": 1774867356643, "description": "Summarizes recent newsletter emails received in Gmail into a single newsletter digest. This skill identifies newsletter emails using configured labels or sen...", "description_zh": "将Gmail中收到的最新新闻通讯邮件整理成一份摘要。此技能通过配置的标签或规则识别新闻通讯邮件。", "downloads": 43, "homepage": "https://clawhub.ai/neeravmakwana/email-newsletter-digest", "iconUrl": null, "installs": 2, "name": "Email Newsletter Digest", "ownerName": "neeravmakwana", "score": 798.2179320586598, "slug": "email-newsletter-digest", "source": "clawhub", "stars": 0, "tags": null, "updated_at": 1776763150574, "version": "1.0.1"}, {"category": "", "created_at": 1774868932150, "description": "When the user wants to create, optimize, or structure legal pages (Privacy, Terms, etc.). Also use when the user mentions \"privacy policy,\" \"terms of service...", "description_zh": "当用户需要创建、优化或结构化法律页面（如隐私政策、服务条款等）时使用。", "downloads": 43, "homepage": "https://clawhub.ai/kostja94/legal-page-generator", "iconUrl": null, "installs": 5, "name": "legal-page-generator", "ownerName": "kostja94", "score": 1542.8776462145677, "slug": "legal-page-generator", "source": "clawhub", "stars": 0, "tags": null, "updated_at": 1776761989885, "version": "1.0.0"}, {"category": "", "created_at": 1776282526702, "description": "", "description_zh": "从\"听感→技术→表达→审美\"层层深入的音乐鉴赏指南。涵盖旋律、节奏、音色、演奏技术、编曲创作、歌词表达、风格审美等维度，不用太学术，日常听歌也能练出判断力。适合从入门到进阶的音乐爱好者。", "downloads": 43, "homepage": "https://clawhub.ai/user_aad6add3/music-appreciation", "iconUrl": null, "installs": 9, "name": "音乐歌曲评鉴师", "ownerName": "user_aad6add3", "score": 1398.828887443071, "slug": "music-appreciation", "source": "community", "stars": 0, "tags": null, "updated_at": 1776761840118, "version": "1.0.0"}, {"category": "", "created_at": 1774890402295, "description": "Runtime AI security for OpenClaw agents. Protects against prompt injection, identity spoofing, PII leakage, and runtime abuse. Drop-in 6-layer security middl...", "description_zh": "OpenClaw智能体运行时AI安全防护，防御提示注入、身份伪造、PII泄露及运行时滥用，提供即插即用的六层安全中间件。", "downloads": 43, "homepage": "https://clawhub.ai/supertechgod/senticlaw", "iconUrl": null, "installs": 0, "name": "SentiClaw", "ownerName": "supertechgod", "score": 3426.2948207171316, "slug": "senticlaw", "source": "clawhub", "stars": 0, "tags": ["identity", "openclaw", "pii", "prompt-injection", "runtime", "security"], "updated_at": 1776760098129, "version": "1.0.0"}, {"category": "", "created_at": 1775727690836, "description": "", "description_zh": "AI Validator（智能交互验证官）是一个提升 AI 交互质量的技能框架。\n\n在执行复杂任务前，自动执行三层验证：\n1. 语义理解确认 - 确保 AI 正确理解用户意图和数据口径\n2. 矛盾检测 - 发现输入中的逻辑矛盾和事实冲突\n3. 假设显性化 - 揭示完成任务所需的隐含前提和潜在风险\n\n适用场景：\n- 数据分析任务（验证数据口径、时间范围、单位）\n- 业务决策建议（确认前提假设和约束条件）\n- 逻辑推理（检验推理链条完整性）\n- 内容生成（明确受众定位和风格要求）\n\n触发指令：/validate /check /challenge /assumptions", "downloads": 43, "homepage": "https://clawhub.ai/user_3a2af09f/ai-validator", "iconUrl": null, "installs": 0, "name": "AI Validator - 智能交互验证官", "ownerName": "user_3a2af09f", "score": 3420.8432776451873, "slug": "ai-validator", "source": "community", "stars": 0, "tags": null, "updated_at": 1776760097969, "version": "1.0.1"}, {"category": "", "created_at": 1774949587005, "description": "Space² SUNS v3.0 品牌母体空间地址解算器。严格遵循 Mod 10 算法，为品牌计算其在数字平行宇宙中的唯一 6 段式门牌号。", "description_zh": "Space² SUNS v3.0 品牌母体空间地址解算器。严格遵循 Mod 10 算法，为品牌计算其在数字平行宇宙中的唯一 6 段式门牌号。", "downloads": 43, "homepage": "https://clawhub.ai/spacesq/s2-suns-address-calculator", "iconUrl": null, "installs": 0, "name": "SUNS 品牌母体空间寻址器", "ownerName": "spacesq", "score": 3415.409054805401, "slug": "s2-suns-address-calculator", "source": "clawhub", "stars": 0, "tags": null, "updated_at": 1776760097927, "version": "1.0.0"}, {"category": "", "created_at": 1775697043826, "description": "", "description_zh": "", "downloads": 43, "homepage": "https://clawhub.ai/user_62e67ef7/1165477", "iconUrl": null, "installs": 0, "name": "111", "ownerName": "user_62e67ef7", "score": 3415.409054805401, "slug": "1165477", "source": "community", "stars": 0, "tags": null, "updated_at": 1776760097901, "version": "1.0.0"}, {"category": "", "created_at": 1774846297956, "description": "Extract and summarize publicly accessible WeChat shared pages including announcements, app info, and group invite details without login or private data access.", "description_zh": "提取并汇总公开微信分享页面（公告、应用信息、群邀请），无需登录或访问私人信息。", "downloads": 43, "homepage": "https://clawhub.ai/codekungfu/wechat-trending", "iconUrl": null, "installs": 0, "name": "Wechat", "ownerName": "codekungfu", "score": 3431.7637669592978, "slug": "wechat-trending", "source": "clawhub", "stars": 0, "tags": null, "updated_at": 1776760097886, "version": "0.1.0"}, {"category": "", "created_at": 1776061493878, "description": "Generate realistic digital human broadcast videos from portrait images and audio/text using Jimeng OmniHuman 1.5.", "description_zh": "Generate realistic digital human broadcast videos from portrait images and audio/text using Jimeng OmniHuman 1.5.", "downloads": 43, "homepage": "https://clawhub.ai/user_f95f21b8/dlazy-jimeng-omnihuman-1-5", "iconUrl": null, "installs": 2, "name": "jimeng omnihuman 1.5", "ownerName": "user_f95f21b8", "score": 3431.7637669592978, "slug": "dlazy-jimeng-omnihuman-1-5", "source": "community", "stars": 0, "tags": null, "updated_at": 1776760097881, "version": "1.0.7"}, {"category": "", "created_at": 1775672520483, "description": "", "description_zh": "", "downloads": 43, "homepage": "https://clawhub.ai/user_54f27a14/a2a-match", "iconUrl": null, "installs": 0, "name": "A2A Match - 智能供需匹配平台", "ownerName": "user_54f27a14", "score": 3423.5668789808915, "slug": "a2a-match", "source": "community", "stars": 0, "tags": null, "updated_at": 1776760097698, "version": "1.8.3"}, {"category": "", "created_at": 1774896740746, "description": "Ollama 本地大模型调用技能。支持通过 API 与 Ollama 实例交互进行文本生成。 Use when: (1) 需要调用本地或远程 Ollama 模型 (2) 需要执行 LLM 推理任务 (3) 需要通过 Python 脚本与特定 Ollama 实例 (如 qwen3.5:9b) 交互。", "description_zh": "Ollama 本地大模型调用技能。支持通过 API 与 Ollama 实例交互进行文本生成。 Use when: (1) 需要调用本地或远程 Ollama 模型 (2) 需要执行 LLM 推理任务 (3) 需要通过 Python 脚本与特定 Ollama 实例 (如 qwen3.5:9b) 交互。", "downloads": 43, "homepage": "https://clawhub.ai/ayflying/ollama-2", "iconUrl": null, "installs": 4, "name": "Ollama", "ownerName": "ayflying", "score": 3127.272727272727, "slug": "ollama-2", "source": "clawhub", "stars": 0, "tags": null, "updated_at": 1776759082231, "version": "0.1.0"}, {"category": "", "created_at": 1775633221034, "description": "", "description_zh": "将模糊的业务痛点转化为清晰、可量化的问题定义。使用当用户需要描述业务问题、分析痛点、或准备商业论证时。帮助用户按照\"角色-场景-问题-后果\"四要素框架，生成有效的痛点描述。", "downloads": 43, "homepage": "https://clawhub.ai/user_04196b8f/req-expert-zql", "iconUrl": null, "installs": 6, "name": "数智化需求完善", "ownerName": "user_04196b8f", "score": 2221.0743801652893, "slug": "req-expert-zql", "source": "community", "stars": 0, "tags": null, "updated_at": 1776753883935, "version": "1.0.0"}, {"category": "", "created_at": 1774889550895, "description": "Bolt.new AI 全栈开发助手，精通浏览器内开发、WebContainer、一键部署", "description_zh": "Bolt.new AI 全栈开发助手，精通浏览器内开发、WebContainer、一键部署", "downloads": 43, "homepage": "https://clawhub.ai/zhangifonly/bolt-new", "iconUrl": null, "installs": 5, "name": "Bolt New", "ownerName": "zhangifonly", "score": 8128.544423440454, "slug": "bolt-new", "source": "clawhub", "stars": 0, "tags": null, "updated_at": 1776753304777, "version": "1.0.0"}, {"category": "", "created_at": 1774862496320, "description": "the Skill act as a full stack developer.", "description_zh": "技能充当全栈开发者", "downloads": 43, "homepage": "https://clawhub.ai/tenkus47/frontend-backend-dev", "iconUrl": null, "installs": 7, "name": "Openpecha frontend + backend structure", "ownerName": "tenkus47", "score": 8128.544423440454, "slug": "frontend-backend-dev", "source": "clawhub", "stars": 0, "tags": null, "updated_at": 1776753283819, "version": "1.0.1"}, {"category": "", "created_at": 1774915838257, "description": "Write, review, or improve SwiftUI code following best practices for state management, view composition, performance, modern APIs, Swift concurrency, and iOS...", "description_zh": "编写、审查或改进 SwiftUI 代码，遵循状态管理、视图组合、性能、现代 API、Swift 并发与 iOS 最佳实践。", "downloads": 43, "homepage": "https://clawhub.ai/soponcd/swiftui-expert-skill", "iconUrl": null, "installs": 6, "name": "Swiftui Expert Skill", "ownerName": "soponcd", "score": 7517.482517482517, "slug": "swiftui-expert-skill", "source": "clawhub", "stars": 0, "tags": null, "updated_at": 1776752684282, "version": "1.0.0"}, {"category": "", "created_at": 1775464548642, "description": "", "description_zh": "帮助用户通过反向案例获得深度洞察的思考工具。当用户面临决策或思考问题时，通过梳理事件要点、定义\"正面\"、搜索反面案例、还原案例脉络、总结失败/成功原因，最终给出基于反面教材的建议。核心逻辑：从反面看正面，从失败学成功。适用于决策分析、风险评估、创新思考、战略规划等场景。输出成果为Word文档格式的反向案例分析报告。", "downloads": 43, "homepage": "https://clawhub.ai/user_aad6add3/counter-case-finder", "iconUrl": null, "installs": 6, "name": "反面教材收集器", "ownerName": "user_aad6add3", "score": 7624.113475177305, "slug": "counter-case-finder", "source": "community", "stars": 0, "tags": null, "updated_at": 1776752269899, "version": "1.0.0"}, {"category": "", "created_at": 1775121988670, "description": "", "description_zh": "提供前端无障碍设计和实现，包括 ARIA 标签、键盘导航、屏幕阅读器支持、色彩对比度等。当用户需要提升应用的可访问性时调用。", "downloads": 43, "homepage": "https://clawhub.ai/user_1d1b34c2/accessibility-v2", "iconUrl": null, "installs": 2, "name": "accessibility", "ownerName": "user_1d1b34c2", "score": 15087.719298245614, "slug": "accessibility-v2", "source": "community", "stars": 0, "tags": null, "updated_at": 1776748844429, "version": "1.0.0"}, {"category": "", "created_at": 1774903317649, "description": "【学来学去学习社出品】浩云学长理科辅导 v3.0 - UCL理科学霸陪你战数学、物理、化学、编程", "description_zh": "【学来学去学习社出品】浩云学长理科辅导 v3.0 - UCL理科学霸陪你战数学、物理、化学、编程", "downloads": 43, "homepage": "https://clawhub.ai/simonstang/haoyun-stem-tutor", "iconUrl": null, "installs": 6, "name": "Haoyun Stem Tutor", "ownerName": "simonstang", "score": 2659.2455163883733, "slug": "haoyun-stem-tutor", "source": "clawhub", "stars": 0, "tags": null, "updated_at": 1776746455545, "version": "3.0.4"}, {"category": "", "created_at": 1774903323122, "description": "合并发票文件。PDF 按两两上下排版，图片按四宫格排版，输出到 YYYYMMDD--已合并 目录，默认文件名重名时自动追加序号。", "description_zh": "合并发票文件。PDF 按两两上下排版，图片按四宫格排版，输出到 YYYYMMDD--已合并 目录，默认文件名重名时自动追加序号。", "downloads": 43, "homepage": "https://clawhub.ai/cdk1025/invoice-merger", "iconUrl": null, "installs": 2, "name": "invoice-merger", "ownerName": "cdk1025", "score": 46236.55913978494, "slug": "invoice-merger", "source": "clawhub", "stars": 0, "tags": null, "updated_at": 1776743683816, "version": "1.0.3"}, {"category": "", "created_at": 1774949800785, "description": "围绕已知地标通过 POI 锚定和半径筛选查找并对比附近酒店。适用于用户明确景点、商圈、交通枢纽或会展中心，并希望按距离与质量排序获得可预订住宿。", "description_zh": "围绕已知地标通过 POI 锚定和半径筛选查找并对比附近酒店。适用于用户明确景点、商圈、交通枢纽或会展中心，并希望按距离与质量排序获得可预订住宿。", "downloads": 43, "homepage": "https://clawhub.ai/xiejinsong/travel-accommodation-advisor", "iconUrl": null, "installs": 7, "name": "住宿顾问", "ownerName": "xiejinsong", "score": 46236.55913978494, "slug": "travel-accommodation-advisor", "source": "clawhub", "stars": 0, "tags": null, "updated_at": 1776743444539, "version": "1.0.0"}, {"category": "", "created_at": 1774881970748, "description": "Measure network download speed, upload speed, and latency from the command line. Uses Cloudflare speed test endpoints and public DNS for latency measurements...", "description_zh": "从命令行测试网络下载、上传速度及延迟。使用 Cloudflare 测速节点和公共 DNS 进行延迟测量。", "downloads": 43, "homepage": "https://clawhub.ai/johnnywang2001/network-speed-test", "iconUrl": null, "installs": 0, "name": "Network Speed Test", "ownerName": "johnnywang2001", "score": 45263.15789473685, "slug": "network-speed-test", "source": "clawhub", "stars": 0, "tags": null, "updated_at": 1776742483904, "version": "1.0.0"}]}