{"page": 581, "total_pages": 685, "total": 34217, "skills": [{"category": "", "created_at": 1775352978835, "description": "", "description_zh": "失败复盘技能，用于在失败问题中找到结果或方法。当用户需要从失败中复盘、总结经验教训、找到改进方向、或在失败后寻求系统性分析时启用。结果输出为Word文档格式的复盘报告。", "downloads": 40, "homepage": "https://clawhub.ai/user_aad6add3/failure-review", "iconUrl": null, "installs": 4, "name": "失败复盘总结工具", "ownerName": "user_aad6add3", "score": 93023.25581395348, "slug": "failure-review", "source": "community", "stars": 0, "tags": null, "updated_at": 1776697484537, "version": "1.0.0"}, {"category": "", "created_at": 1774899658589, "description": "Firebase Admin SDK integration. Manage data, records, and automate workflows. Use when the user wants to interact with Firebase Admin SDK data.", "description_zh": "Firebase Admin SDK集成，管理数据、记录和自动化工作流，适用于需要与Firebase Admin SDK数据交互的场景。", "downloads": 40, "homepage": "https://clawhub.ai/gora050/firebase-admin-sdk", "iconUrl": null, "installs": 1, "name": "Firebase Admin Sdk", "ownerName": "gora050", "score": 93023.25581395348, "slug": "firebase-admin-sdk", "source": "clawhub", "stars": 0, "tags": null, "updated_at": 1776697484516, "version": "1.0.0"}, {"category": "", "created_at": 1774878583107, "description": "Search FDA industry guidelines by therapeutic area or topic. Trigger when user requests FDA guidance documents, regulatory guidelines, or asks about FDA requ...", "description_zh": "按治疗领域或主题搜索FDA行业指南。当用户请求FDA指导文件、法规指南或询问FDA要求时触发。", "downloads": 40, "homepage": "https://clawhub.ai/aipoch-ai/fda-guideline-search", "iconUrl": null, "installs": 3, "name": "Fda Guideline Search", "ownerName": "aipoch-ai", "score": 93023.25581395348, "slug": "fda-guideline-search", "source": "clawhub", "stars": 0, "tags": null, "updated_at": 1776697484512, "version": "0.1.0"}, {"category": "", "created_at": 1774847182772, "description": "Design dashboard layout sketches for clinical trials showing enrollment progress and adverse event rates", "description_zh": "设计临床试验仪表板布局草图，展示入组进度和不良事件率", "downloads": 40, "homepage": "https://clawhub.ai/aipoch-ai/dashboard-design-for-trials", "iconUrl": null, "installs": 2, "name": "Dashboard Design For Trials", "ownerName": "aipoch-ai", "score": 93023.25581395348, "slug": "dashboard-design-for-trials", "source": "clawhub", "stars": 0, "tags": null, "updated_at": 1776697484476, "version": "0.1.0"}, {"category": "security-compliance", "created_at": 1773961145630, "description": "Cognitive diagnostics for AI agents. Calibration audits, bias detection, reasoning verification, and consensus building. Feedback builds shared reality acros...", "description_zh": "AI智能体的认知诊断：校准审计、偏见检测、推理验证与共识构建。反馈在跨情境中构建共享现实。", "downloads": 40, "homepage": "https://clawhub.ai/drkavner/cogdx", "iconUrl": null, "installs": 1, "name": "Cogdx", "ownerName": "drkavner", "score": 93023.25581395348, "slug": "cogdx", "source": "clawhub", "stars": 0, "tags": null, "updated_at": 1776697484463, "version": "1.1.0"}, {"category": "", "created_at": 1774877053468, "description": "创建具有独立工作区和配置的独立 OpenClaw Agent。适用于用户需要完全隔离的 Agent（独立工作区、配置、身份），而不是临时子 Agent 会话的情况。支持飞书机器人绑定，用于多机器人部署。", "description_zh": "创建具有独立工作区和配置的独立 OpenClaw Agent。适用于用户需要完全隔离的 Agent（独立工作区、配置、身份），而不是临时子 Agent 会话的情况。支持飞书机器人绑定，用于多机器人部署。", "downloads": 40, "homepage": "https://clawhub.ai/song5749/creat-anget", "iconUrl": null, "installs": 5, "name": "creat-anget", "ownerName": "song5749", "score": 93023.25581395348, "slug": "creat-anget", "source": "clawhub", "stars": 0, "tags": null, "updated_at": 1776697484455, "version": "1.0.1"}, {"category": "", "created_at": 1774866917782, "description": "Kanban Tool integration. Manage Boards, Users, Projects. Use when the user wants to interact with Kanban Tool data.", "description_zh": "{\n \"answer\": \"Kanban Tool集成。管理看板、用户和项目。当用户需要与Kanban Tool数据交互时使用。\"\n}", "downloads": 40, "homepage": "https://clawhub.ai/gora050/kanban-tool", "iconUrl": null, "installs": 6, "name": "Kanban Tool", "ownerName": "gora050", "score": 93023.25581395348, "slug": "kanban-tool", "source": "clawhub", "stars": 0, "tags": null, "updated_at": 1776697484436, "version": "1.0.0"}, {"category": "", "created_at": 1774922501085, "description": "Crawlbase integration. Manage data, records, and automate workflows. Use when the user wants to interact with Crawlbase data.", "description_zh": "Crawlbase集成。管理数据、记录并自动化工作流程。当用户需要与Crawlbase数据交互时使用。", "downloads": 40, "homepage": "https://clawhub.ai/gora050/crawlbase", "iconUrl": null, "installs": 1, "name": "Crawlbase", "ownerName": "gora050", "score": 93023.25581395348, "slug": "crawlbase", "source": "clawhub", "stars": 0, "tags": null, "updated_at": 1776697484411, "version": "1.0.0"}, {"category": "", "created_at": 1775121244343, "description": "", "description_zh": "Real-time TikTok trend intelligence — monitor trending hashtags, viral music, breakout videos, top-performing ads, and high-growth products to identify emerging opportunities and market movements before they become mainstream.", "downloads": 40, "homepage": "https://clawhub.ai/user_2e47cd26/keyapi-tiktok-intelligence", "iconUrl": null, "installs": 4, "name": "keyapi-tiktok-intelligence", "ownerName": "user_2e47cd26", "score": 93023.25581395348, "slug": "keyapi-tiktok-intelligence", "source": "community", "stars": 0, "tags": null, "updated_at": 1776697484400, "version": "1.0.1"}, {"category": "", "created_at": 1775319148286, "description": "", "description_zh": "引导智能体运用唯物辩证法进行结构化思考与分析；当用户需要深度分析问题、制定决策方案、解决复杂矛盾、进行战略规划或处理工作问题时使用。", "downloads": 40, "homepage": "https://clawhub.ai/user_92b6bdd0/dialectical-thinking", "iconUrl": null, "installs": 1, "name": "dialectical-thinking.skill", "ownerName": "user_92b6bdd0", "score": 93023.25581395348, "slug": "dialectical-thinking", "source": "community", "stars": 0, "tags": null, "updated_at": 1776697484397, "version": "1.0.0"}, {"category": "", "created_at": 1774945151194, "description": "Generate random test data including text, numbers, UUIDs, and structured formats. Use when creating mock datasets, sample records, or randomized test inputs.", "description_zh": "生成随机测试数据，包括文本、数字、UUID和结构化格式。适用于创建模拟数据集、示例记录或随机化测试输入。", "downloads": 40, "homepage": "https://clawhub.ai/bytesagain3/generate", "iconUrl": null, "installs": 0, "name": "Generate", "ownerName": "bytesagain3", "score": 93023.25581395348, "slug": "generate", "source": "clawhub", "stars": 0, "tags": null, "updated_at": 1776697484388, "version": "1.0.0"}, {"category": "", "created_at": 1774943949656, "description": "Spawn and coordinate sub-agent sessions for parallel work. Use when delegating tasks (research, code, analysis), routing to appropriate models, or managing m...", "description_zh": "生成并协调子代理会话以实现并行工作。适用于任务委托（研究、代码、分析）、路由到合适的模型或管理...", "downloads": 40, "homepage": "https://clawhub.ai/bill492/sub-agents", "iconUrl": null, "installs": 2, "name": "sub-agents", "ownerName": "bill492", "score": 93023.25581395348, "slug": "sub-agents", "source": "clawhub", "stars": 0, "tags": null, "updated_at": 1776697484348, "version": "1.0.0"}, {"category": "", "created_at": 1774882969893, "description": "Docker and container development agent skill and plugin for Dockerfile optimization, docker-compose orchestration, multi-stage builds, and container security...", "description_zh": "用于Dockerfile优化、docker-compose编排、多阶段构建和容器安全的Docker容器开发代理技能与插件", "downloads": 40, "homepage": "https://clawhub.ai/alirezarezvani/docker-development", "iconUrl": null, "installs": 3, "name": "Docker Development", "ownerName": "alirezarezvani", "score": 93023.25581395348, "slug": "docker-development", "source": "clawhub", "stars": 0, "tags": null, "updated_at": 1776697484336, "version": "2.1.1"}, {"category": "", "created_at": 1772799082485, "description": "Quality inspection, non-conformance tracking, and quality goals for ERPClaw", "description_zh": "Quality inspection, non-conformance tracking, and quality goals for ERPClaw", "downloads": 40, "homepage": "https://clawhub.ai/skipzhang/erpclaw-quality", "iconUrl": null, "installs": 3, "name": "ERPClaw-Quality", "ownerName": "skipzhang", "score": 93023.25581395348, "slug": "erpclaw-quality", "source": "clawhub", "stars": 0, "tags": null, "updated_at": 1776697484287, "version": "1.0.0"}, {"category": "", "created_at": 1775208354025, "description": "", "description_zh": "keyshtot格式转换为c4d+OC渲染器格式", "downloads": 40, "homepage": "https://clawhub.ai/user_5b12983f/keyshot-to-c4doc", "iconUrl": null, "installs": 4, "name": "keyshot-to-c4doc", "ownerName": "user_5b12983f", "score": 93023.25581395348, "slug": "keyshot-to-c4doc", "source": "community", "stars": 0, "tags": null, "updated_at": 1776697484286, "version": "1.0.0"}, {"category": "", "created_at": 1774883531051, "description": "Supervisory control and data acquisition manager", "description_zh": "SCADA系统经理", "downloads": 40, "homepage": "https://clawhub.ai/xueyetianya/scada", "iconUrl": null, "installs": 2, "name": "Scada", "ownerName": "xueyetianya", "score": 93023.25581395348, "slug": "scada", "source": "clawhub", "stars": 0, "tags": null, "updated_at": 1776697484284, "version": "1.0.0"}, {"category": "", "created_at": 1774944364851, "description": "Reference tool for devtools — covers intro, quickstart, patterns and more. Quick lookup for Funnlp concepts, best practices, and implementation patterns.", "description_zh": "Funnlp 开发工具参考手册，涵盖入门介绍、快速上手、使用模式等内容，可快速查阅核心概念、最佳实践与实现模式。", "downloads": 40, "homepage": "https://clawhub.ai/bytesagain1/funnlp", "iconUrl": null, "installs": 0, "name": "Funnlp", "ownerName": "bytesagain1", "score": 93023.25581395348, "slug": "funnlp", "source": "clawhub", "stars": 0, "tags": null, "updated_at": 1776697484233, "version": "2.0.3"}, {"category": "", "created_at": 1774905951527, "description": "银发头条（Silver Age Daily）—— 一键生成当日银发经济精选资讯简报。 覆盖：政策解读、银发消费、老年金融、银发科技、医疗健康、银发文娱、居家养老、银发就业八大板块。 每次生成一份带新闻链接、带摘要的 HTML 格式日报，风格简洁大方，适合老年产业从业者、研究者、投资人及关注银发经济的人士阅读。 U...", "description_zh": "银发头条（Silver Age Daily）—— 一键生成当日银发经济精选资讯简报。 覆盖：政策解读、银发消费、老年金融、银发科技、医疗健康、银发文娱、居家养老、银发就业八大板块。 每次生成一份带新闻链接、带摘要的 HTML 格式日报，风格简洁大方，适合老年产业从业者、研究者、投资人及关注银发经济的人士阅读。 U...", "downloads": 40, "homepage": "https://clawhub.ai/cnspica/silver-daily", "iconUrl": null, "installs": 6, "name": "Silver Daily", "ownerName": "cnspica", "score": 93023.25581395348, "slug": "silver-daily", "source": "clawhub", "stars": 0, "tags": null, "updated_at": 1776697484226, "version": "1.0.1"}, {"category": "", "created_at": 1774919606366, "description": "招商银行服务助手。提供一卡通、理财、贷款、信用卡、网点查询等信息", "description_zh": "招商银行服务助手。提供一卡通、理财、贷款、信用卡、网点查询等信息", "downloads": 40, "homepage": "https://clawhub.ai/hanxueyuan/cmb", "iconUrl": null, "installs": 4, "name": "cmb", "ownerName": "hanxueyuan", "score": 93023.25581395348, "slug": "cmb", "source": "clawhub", "stars": 0, "tags": null, "updated_at": 1776697484217, "version": "0.2.0"}, {"category": "ai-intelligence", "created_at": 1773076206483, "description": "Reliable Nextcloud integration for Notes, Tasks, Calendar, Files, and Contacts (CardDAV-safe vCard handling with robust contact create/update).", "description_zh": "Reliable Nextcloud integration for Notes, Tasks, Calendar, Files, and Contacts (CardDAV-safe vCard handling with robust contact create/update).", "downloads": 40, "homepage": "https://clawhub.ai/juicyroots/nextcloud-aio-oc", "iconUrl": null, "installs": 5, "name": "NextCloud AIO OpenClaw", "ownerName": "juicyroots", "score": 93023.25581395348, "slug": "nextcloud-aio-oc", "source": "clawhub", "stars": 0, "tags": null, "updated_at": 1776697484214, "version": "1.1.1"}, {"category": "", "created_at": 1775553978496, "description": "", "description_zh": ">-", "downloads": 40, "homepage": "https://clawhub.ai/user_5b12983f/design-spec-extractor", "iconUrl": null, "installs": 4, "name": "design-spec-extractor", "ownerName": "user_5b12983f", "score": 93023.25581395348, "slug": "design-spec-extractor", "source": "community", "stars": 0, "tags": null, "updated_at": 1776697484202, "version": "1.1.1"}, {"category": "", "created_at": 1774837392461, "description": "List all agents", "description_zh": "列出所有代理", "downloads": 40, "homepage": "https://clawhub.ai/yujin1liu/agent-search", "iconUrl": null, "installs": 4, "name": "agent-search", "ownerName": "yujin1liu", "score": 93023.25581395348, "slug": "agent-search", "source": "clawhub", "stars": 0, "tags": null, "updated_at": 1776697484170, "version": "1.0.1"}, {"category": "productivity", "created_at": 1773069443962, "description": "Dental expansion for HealthClaw -- tooth charts, CDT-coded procedures, multi-phase treatment plans, and periodontal charting with trend comparison.", "description_zh": "Dental expansion for HealthClaw -- tooth charts, CDT-coded procedures, multi-phase treatment plans, and periodontal charting with trend comparison.", "downloads": 40, "homepage": "https://clawhub.ai/mailnike/healthclaw-dental", "iconUrl": null, "installs": 5, "name": "Healthclaw Dental", "ownerName": "mailnike", "score": 93023.25581395348, "slug": "healthclaw-dental", "source": "clawhub", "stars": 0, "tags": null, "updated_at": 1776697484169, "version": "2.1.0"}, {"category": "", "created_at": 1774923010317, "description": "Originality.ai integration. Manage Documents, Users, Workspaces. Use when the user wants to interact with Originality.ai data.", "description_zh": "Originality.ai 集成。管理文档、用户和工作区。用于与 Originality.ai 数据交互。", "downloads": 40, "homepage": "https://clawhub.ai/gora050/originalityai", "iconUrl": null, "installs": 6, "name": "Originalityai", "ownerName": "gora050", "score": 93023.25581395348, "slug": "originalityai", "source": "clawhub", "stars": 0, "tags": null, "updated_at": 1776697484164, "version": "1.0.0"}, {"category": "security-compliance", "created_at": 1772795031032, "description": "Canada regional compliance — GST/HST/PST/QST, CPP/CPP2/QPP/EI, federal+provincial income tax, T4/T4A/ROE/PD7A, Canadian CoA (ASPE), and ID validation (BN/SIN...", "description_zh": "Canada regional compliance — GST/HST/PST/QST, CPP/CPP2/QPP/EI, federal+provincial income tax, T4/T4A/ROE/PD7A, Canadian CoA (ASPE), and ID validation (BN/SIN...", "downloads": 40, "homepage": "https://clawhub.ai/skipzhang/erpclaw-region-ca", "iconUrl": null, "installs": 4, "name": "ERPClaw-Region-Canada", "ownerName": "skipzhang", "score": 93023.25581395348, "slug": "erpclaw-region-ca", "source": "clawhub", "stars": 0, "tags": null, "updated_at": 1776697484162, "version": "1.0.0"}, {"category": "", "created_at": 1774909709491, "description": "港股数据技能集（market.ft.tech）。覆盖公司介绍、分页估值分析（PE/PB/PS/股息率）、单票基础视图（板块/上市状态/市值/股本）、日/月/季/年 K 线（历史k线，T日18点更新当日数据）（前复权/不复权）。用户询问港股公司简介、港股估值、市盈率市净率、港股基础信息、市值总股本、港股 K 线/日...", "description_zh": "港股数据技能集（market.ft.tech）。覆盖公司介绍、分页估值分析（PE/PB/PS/股息率）、单票基础视图（板块/上市状态/市值/股本）、日/月/季/年 K 线（历史k线，T日18点更新当日数据）（前复权/不复权）。用户询问港股公司简介、港股估值、市盈率市净率、港股基础信息、市值总股本、港股 K 线/日...", "downloads": 40, "homepage": "https://clawhub.ai/shawn92/ftshare-hk-data", "iconUrl": null, "installs": 3, "name": "Skills of HK-share data released by ft.tech.", "ownerName": "shawn92", "score": 93023.25581395348, "slug": "ftshare-hk-data", "source": "clawhub", "stars": 0, "tags": null, "updated_at": 1776697484148, "version": "1.0.0"}, {"category": "", "created_at": 1774823333859, "description": "Full Spotify Premium control + deep music intelligence for OpenClaw. Playback: play by name/URI/playlist, pause, next, prev, volume, shuffle, queue. Auto-lau...", "description_zh": "完整的 Spotify Premium 控制 + 深度音乐智能，专为 OpenClaw 设计。播放控制：按名称/URI/播放列表播放、暂停、下一首、上一首、音量、随机播放、队列管理。自动...", "downloads": 40, "homepage": "https://clawhub.ai/mixx85/spotify-openclaw", "iconUrl": null, "installs": 1, "name": "Spotify Openclaw", "ownerName": "mixx85", "score": 93023.25581395348, "slug": "spotify-openclaw", "source": "clawhub", "stars": 0, "tags": null, "updated_at": 1776697484096, "version": "1.0.0"}, {"category": "", "created_at": 1774897791929, "description": "Adapt content for multiple platforms (social media, short videos, press releases) and A/B test copy", "description_zh": "适配社交媒体、短视频、新闻稿等多平台内容，并进行文案A/B测试。", "downloads": 40, "homepage": "https://clawhub.ai/findhappy7/content-adaptation", "iconUrl": null, "installs": 1, "name": "Content Adaptation", "ownerName": "findhappy7", "score": 93023.25581395348, "slug": "content-adaptation", "source": "clawhub", "stars": 0, "tags": null, "updated_at": 1776697484086, "version": "1.0.0"}, {"category": "", "created_at": 1775111947811, "description": "", "description_zh": "group-chat-summarizer（群聊总结-根据中文习惯优化适配版）", "downloads": 40, "homepage": "https://clawhub.ai/user_dfbdc5ab/group-chat-summarizer-cn", "iconUrl": null, "installs": 2, "name": "group-chat-summarizer（群聊总结-根据中文习惯优化适配版）", "ownerName": "user_dfbdc5ab", "score": 93023.25581395348, "slug": "group-chat-summarizer-cn", "source": "community", "stars": 0, "tags": null, "updated_at": 1776697484080, "version": "1.0.0"}, {"category": "", "created_at": 1776091968932, "description": "", "description_zh": "QQ 机器人消息收发框架，基于 qq-botpy SDK。支持三种消息场景：频道 @ 消息、C2C 私聊消息、群 @ 消息。提供完整的收发消息模式、定时推送循环和启动模板。当用户需要开发 QQ 机器人、处理 QQ 频道/群/私聊消息、实现定时推送功能时使用。", "downloads": 40, "homepage": "https://clawhub.ai/user_e7c8a23d/qqbot-messaging", "iconUrl": "https://cloudcache.tencent-cloud.com/qcloud/ui/static/other_external_resource/64ea6fd6-ebe7-418c-af4f-2cafff71f2ec.png", "installs": 7, "name": "QQBot开发指南", "ownerName": "user_e7c8a23d", "score": 93023.25581395348, "slug": "qqbot-messaging", "source": "community", "stars": 0, "tags": null, "updated_at": 1776697484045, "version": "1.0.0"}, {"category": "", "created_at": 1774925479412, "description": "Parse and generate RFC 4180 compliant CSV that works across tools.", "description_zh": "解析并生成符合 RFC 4180 标准的 CSV，跨工具兼容。", "downloads": 40, "homepage": "https://clawhub.ai/panchenbo/csv-parser-local", "iconUrl": null, "installs": 1, "name": "Csv Parser Local", "ownerName": "panchenbo", "score": 93023.25581395348, "slug": "csv-parser-local", "source": "clawhub", "stars": 0, "tags": null, "updated_at": 1776697484022, "version": "1.0.0"}, {"category": "", "created_at": 1775311256495, "description": "", "description_zh": "Manage RSS/Atom feeds, subscribe to websites, search and read articles. Use when working with feeds, RSS, Atom, subscribing to content sources, managing an information pipeline, or fetching articles from subscribed feeds. Commands: feed add|list|remove, fetch, article list|view|open|related, search, discover, info.", "downloads": 40, "homepage": "https://clawhub.ai/user_b4850184/feedship", "iconUrl": null, "installs": 0, "name": "feedship", "ownerName": "user_b4850184", "score": 93023.25581395348, "slug": "feedship", "source": "community", "stars": 0, "tags": null, "updated_at": 1776697484017, "version": "1.11.3"}, {"category": "", "created_at": 1774845049702, "description": "Reference tool for devtools — covers intro, quickstart, patterns and more. Quick lookup for Compose concepts, best practices, and implementation patterns.", "description_zh": "开发工具参考手册——涵盖入门、快速上手、模式等。快速查询 Compose 概念、最佳实践和实现模式。", "downloads": 40, "homepage": "https://clawhub.ai/ckchzh/compose", "iconUrl": null, "installs": 3, "name": "Compose", "ownerName": "ckchzh", "score": 93023.25581395348, "slug": "compose", "source": "clawhub", "stars": 0, "tags": null, "updated_at": 1776697484002, "version": "2.0.4"}, {"category": "", "created_at": 1775361825141, "description": "", "description_zh": "帮助用户评估是否被困在信息茧房中，并提供系统性的破除方法。通过六步逻辑链（觉察→溯源→异质化→多维建模→批判性思维→知行合一），从识别茧房信号到重建认知广度与深度。适用于个人自我评估、帮助他人走出信息茧房、提升媒介素养等场景。输出成果为Word文档格式的认知评估报告和行动指南。", "downloads": 40, "homepage": "https://clawhub.ai/user_aad6add3/info-bubble-breaker", "iconUrl": null, "installs": 1, "name": "我被信息茧房忽悠了", "ownerName": "user_aad6add3", "score": 93023.25581395348, "slug": "info-bubble-breaker", "source": "community", "stars": 0, "tags": null, "updated_at": 1776697483948, "version": "1.0.0"}, {"category": "", "created_at": 1774911167195, "description": "圆桌讨论模式——以\"求真\"为目标的结构化多角色深度对话。当用户说\"圆桌\"、\"圆桌讨论\"、\"roundtable\"或类似触发词时激活。也适用于需要多视角深度探讨任何议题的场景。", "description_zh": "圆桌讨论模式——以\"求真\"为目标的结构化多角色深度对话。当用户说\"圆桌\"、\"圆桌讨论\"、\"roundtable\"或类似触发词时激活。也适用于需要多视角深度探讨任何议题的场景。", "downloads": 40, "homepage": "https://clawhub.ai/jingxxxxx/round-table", "iconUrl": null, "installs": 4, "name": "jinx", "ownerName": "jingxxxxx", "score": 93023.25581395348, "slug": "round-table", "source": "clawhub", "stars": 0, "tags": null, "updated_at": 1776697483940, "version": "1.0.0"}, {"category": "", "created_at": 1774875718217, "description": "File organization and batch operations for workspace management. Use when organizing files for: (1) Moving files to correct directories, (2) Batch renaming (...", "description_zh": "工作区文件组织与批量操作管理。用于整理文件：(1) 将文件移动到正确目录；(2) 批量重命名", "downloads": 40, "homepage": "https://clawhub.ai/dougchambes/legend-file-organizer", "iconUrl": null, "installs": 0, "name": "File Organizer", "ownerName": "dougchambes", "score": 93023.25581395348, "slug": "legend-file-organizer", "source": "clawhub", "stars": 0, "tags": null, "updated_at": 1776697483881, "version": "1.0.0"}, {"category": "", "created_at": 1774887635785, "description": "Audit OpenClaw scheduler token usage for cron jobs, scheduled tasks, and heartbeat sessions. Use when the user wants to know which scheduled job is expensive...", "description_zh": "审计OpenClaw调度器在cron作业、计划任务及心跳会话中的令牌使用情况。用于查询高开销的计划任务。", "downloads": 40, "homepage": "https://clawhub.ai/yueeli/openclaw-scheduler-token-auditor", "iconUrl": null, "installs": 4, "name": "OpenClaw Scheduler Token Auditor", "ownerName": "yueeli", "score": 93023.25581395348, "slug": "openclaw-scheduler-token-auditor", "source": "clawhub", "stars": 0, "tags": ["audit", "openclaw"], "updated_at": 1776697483865, "version": "1.0.2"}, {"category": "", "created_at": 1774949283694, "description": "Audit and optimize e-commerce landing pages for conversion. CTA placement, trust signals, page structure, copy optimization, and A/B testing strategy for pro...", "description_zh": "审计并优化电商落地页以提升转化率，涵盖CTA按钮布局、信任背书元素、页面结构、文案优化及A/B测试策略。", "downloads": 40, "homepage": "https://clawhub.ai/nexscope/ecommerce-landing-page", "iconUrl": null, "installs": 1, "name": "E-Commerce Landing Page", "ownerName": "nexscope", "score": 93023.25581395348, "slug": "ecommerce-landing-page", "source": "clawhub", "stars": 0, "tags": null, "updated_at": 1776697483859, "version": "1.0.0"}, {"category": "", "created_at": 1774857183380, "description": "poem reference tool", "description_zh": "诗歌参考工具", "downloads": 40, "homepage": "https://clawhub.ai/xueyetianya/poem", "iconUrl": null, "installs": 2, "name": "Poem", "ownerName": "xueyetianya", "score": 93023.25581395348, "slug": "poem", "source": "clawhub", "stars": 0, "tags": null, "updated_at": 1776697483832, "version": "2.0.2"}, {"category": "", "created_at": 1774909682293, "description": "【学来学去学习社出品】菲菲老师数字分身 v3.0 - 中国家庭AI超级助手", "description_zh": "【学来学去学习社出品】菲菲老师数字分身 v3.0 - 中国家庭AI超级助手", "downloads": 40, "homepage": "https://clawhub.ai/simonstang/feifei-parent-child-comm", "iconUrl": null, "installs": 3, "name": "Feifei Parent Child Comm", "ownerName": "simonstang", "score": 93023.25581395348, "slug": "feifei-parent-child-comm", "source": "clawhub", "stars": 0, "tags": null, "updated_at": 1776697483830, "version": "3.0.4"}, {"category": "content-creation", "created_at": 1773083961242, "description": "Continue/extend existing 5-second video by generating next segment. Use when users request video_continuation operations or related tasks.", "description_zh": "Continue/extend existing 5-second video by generating next segment. Use when users request video_continuation operations or related tasks.", "downloads": 40, "homepage": "https://clawhub.ai/root/tomoviee-video-extension", "iconUrl": null, "installs": 12, "name": "Tomoviee Video Extension", "ownerName": "root", "score": 93023.25581395348, "slug": "tomoviee-video-extension", "source": "clawhub", "stars": 0, "tags": null, "updated_at": 1776697483777, "version": "1.0.1"}, {"category": "", "created_at": 1774915260866, "description": "Emailoctopus integration. Manage Lists, Campaigns, Templates. Use when the user wants to interact with Emailoctopus data.", "description_zh": "EmailOctopus 集成，管理列表、邮件活动、模板，用于用户与 EmailOctopus 数据交互。", "downloads": 40, "homepage": "https://clawhub.ai/gora050/emailoctopus", "iconUrl": null, "installs": 5, "name": "Emailoctopus", "ownerName": "gora050", "score": 88888.88888888889, "slug": "emailoctopus", "source": "clawhub", "stars": 0, "tags": null, "updated_at": 1776697483665, "version": "1.0.0"}, {"category": "", "created_at": 1774854328293, "description": "Google Workspace CLI. Use when the user mentions Gmail, Google Drive, Calendar, Sheets, Docs, Tasks, People, Slides, Forms, Meet, Classroom, sending email, c...", "description_zh": "Google Workspace 命令行工具。当用户提到 Gmail、Google Drive、日历、表格、文档、任务、联系人、幻灯片、表单、Meet、Classroom、发送邮件等时使用。", "downloads": 40, "homepage": "https://clawhub.ai/cyrushuang1995-cmyk/gws-google-workspace", "iconUrl": null, "installs": 4, "name": "Google Workspace CLI (GWS)", "ownerName": "cyrushuang1995-cmyk", "score": 88888.88888888889, "slug": "gws-google-workspace", "source": "clawhub", "stars": 0, "tags": null, "updated_at": 1776697483649, "version": "2.1.2"}, {"category": "", "created_at": 1774882945077, "description": "Your AI dating coach for building real, meaningful relationships. Get first date planning, texting strategy, and advice on when to make a move. Learn to hand...", "description_zh": "您的AI约会教练，助您建立真实而有意义的感情关系。提供初次约会规划、短信沟通策略及把握时机的建议，帮助您掌握...", "downloads": 40, "homepage": "https://clawhub.ai/imwyvern/dating-coach", "iconUrl": null, "installs": 0, "name": "Dating Coach Skill", "ownerName": "imwyvern", "score": 88888.88888888889, "slug": "dating-coach", "source": "clawhub", "stars": 0, "tags": null, "updated_at": 1776697483639, "version": "1.0.1"}, {"category": "", "created_at": 1774848214524, "description": "Your AI communication coach that helps you craft the perfect reply to any message. Whether you're texting a crush, responding to a difficult boss, or navigat...", "description_zh": "你的AI沟通教练，帮助你为任何消息撰写完美回复。无论是追求暗恋对象、回复难缠的老板，还是应对各种复杂对话场景，都能帮你找到最佳表达。", "downloads": 39, "homepage": "https://clawhub.ai/imwyvern/replyher", "iconUrl": null, "installs": 4, "name": "Replyher Skill", "ownerName": "imwyvern", "score": 591.2674348089752, "slug": "replyher", "source": "clawhub", "stars": 0, "tags": null, "updated_at": 1776766790538, "version": "1.3.1"}, {"category": "", "created_at": 1774894486631, "description": "Reviews CloudKit code for container setup, record handling, subscriptions, and sharing patterns. Use when reviewing code with import CloudKit, CKContainer, C...", "description_zh": "审查 CloudKit 代码中的容器设置、记录处理、订阅及共享模式。适用于审查包含 import CloudKit、CKContainer 等相关代码。", "downloads": 39, "homepage": "https://clawhub.ai/anderskev/cloudkit-code-review", "iconUrl": null, "installs": 3, "name": "Cloudkit Code Review", "ownerName": "anderskev", "score": 2727.272727272727, "slug": "cloudkit-code-review", "source": "clawhub", "stars": 0, "tags": null, "updated_at": 1776766456953, "version": "1.2.0"}, {"category": "", "created_at": 1773430722019, "description": "执行 Coding ↔ Review 循环。A 写代码 → B Review → A 修改（可选）。支持 codex/claude-code 作为 A 或 B。", "description_zh": "执行 Coding ↔ Review 循环。A 写代码 → B Review → A 修改（可选）。支持 codex/claude-code 作为 A 或 B。", "downloads": 39, "homepage": "https://clawhub.ai/raccoon-office/code-review-cycle", "iconUrl": null, "installs": 5, "name": "code-review-cycle", "ownerName": "raccoon-office", "score": 377.8337531486146, "slug": "code-review-cycle", "source": "clawhub", "stars": 0, "tags": null, "updated_at": 1776766102125, "version": "1.0.0"}, {"category": "", "created_at": 1776668471813, "description": "小红书涨粉数据是一款为品牌营销、创作者、开发者提供的小红书涨粉数据服务，帮助用户一键追踪小红书涨粉日榜、周榜、月榜数据，并生成精美的排名图片。", "description_zh": "小红书涨粉数据是一款为品牌营销、创作者、开发者提供的小红书涨粉数据服务，帮助用户一键追踪小红书涨粉日榜、周榜、月榜数据，并生成精美的排名图片。", "downloads": 39, "homepage": "https://clawhub.ai/user_e942ebfc/xiaohongshu-rankings", "iconUrl": "https://cloudcache.tencent-cloud.com/qcloud/ui/static/other_external_resource/7422abc7-fa86-4505-a723-0575c56e7a2d.png", "installs": 12, "name": "小红书涨粉数据", "ownerName": "user_e942ebfc", "score": 1876.8046198267566, "slug": "xiaohongshu-rankings", "source": "community", "stars": 0, "tags": null, "updated_at": 1776765550346, "version": "1.0.1"}, {"category": "", "created_at": 1774919623337, "description": "Guide users through a structured workflow for co-authoring documentation. Use when user wants to write documentation, proposals, technical specs, decision do...", "description_zh": "引导用户完成协同撰写文档的结构化工作流程，适用于撰写文档、提案、技术规范、决策文件等场景。", "downloads": 39, "homepage": "https://clawhub.ai/codekungfu/coauthoring", "iconUrl": null, "installs": 3, "name": "Doc", "ownerName": "codekungfu", "score": 884.9557522123894, "slug": "coauthoring", "source": "clawhub", "stars": 0, "tags": null, "updated_at": 1776764049912, "version": "1.0.0"}, {"category": "", "created_at": 1774866719657, "description": "钉钉多维表格 API 集成 - 表格管理、数据 CRUD。Use when: user asks about DingTalk bitable, table, database, spreadsheet.", "description_zh": "钉钉多维表格 API 集成 - 表格管理、数据 CRUD。Use when: user asks about DingTalk bitable, table, database, spreadsheet.", "downloads": 39, "homepage": "https://clawhub.ai/cxwos/dingtalk-bitable", "iconUrl": null, "installs": 5, "name": "Dingtalk Bitable", "ownerName": "cxwos", "score": 1703.8007863695939, "slug": "dingtalk-bitable", "source": "clawhub", "stars": 0, "tags": null, "updated_at": 1776763150261, "version": "1.0.0"}]}