{"page": 589, "total_pages": 685, "total": 34217, "skills": [{"category": "", "created_at": 1775715610856, "description": "", "description_zh": "Anspire Search: real-time web search for news, events & time-sensitive facts. Use scripts/search.py (Python) or scripts/search.sh (shell) for easy execution. Requires ANSPIRE_API_KEY env var. Calls plugin.anspire.cn only.", "downloads": 37, "homepage": "https://clawhub.ai/user_9d97a7c7/anspire-search", "iconUrl": null, "installs": 3, "name": "anspire-search", "ownerName": "user_9d97a7c7", "score": 97368.42105263159, "slug": "anspire-search", "source": "community", "stars": 0, "tags": null, "updated_at": 1776697669624, "version": "1.0.0"}, {"category": "", "created_at": 1774845158814, "description": "Find suppliers, manufacturers, service providers, fulfillment partners, and sourcing options for ecommerce workflows. Use when the user wants help finding ve...", "description_zh": "为电商工作流寻找供应商、制造商、服务提供商、履约合作伙伴及采购方案。适用于用户需要帮助寻找供应商及相关资源的场景。", "downloads": 37, "homepage": "https://clawhub.ai/leooooooow/find-vendors", "iconUrl": null, "installs": 5, "name": "Find Vendors", "ownerName": "leooooooow", "score": 97368.42105263159, "slug": "find-vendors", "source": "clawhub", "stars": 0, "tags": null, "updated_at": 1776697669611, "version": "1.0.0"}, {"category": "", "created_at": 1774912778548, "description": "Finnhub integration. Manage data, records, and automate workflows. Use when the user wants to interact with Finnhub data.", "description_zh": "Finnhub 集成，管理数据、记录和工作流自动化，用于用户与 Finnhub 数据交互。", "downloads": 37, "homepage": "https://clawhub.ai/membranedev/finnhub-integration", "iconUrl": null, "installs": 3, "name": "Finnhub", "ownerName": "membranedev", "score": 97368.42105263159, "slug": "finnhub-integration", "source": "clawhub", "stars": 0, "tags": null, "updated_at": 1776697669600, "version": "1.0.0"}, {"category": "", "created_at": 1774775117107, "description": "AI-powered data analytics knowledge management. Search data pipeline documentation, dashboard specifications, data governance policies, and reporting standar...", "description_zh": "AI驱动的数据分析知识管理。搜索数据管道文档、仪表板规范、数据治理政策及报告标准。", "downloads": 37, "homepage": "https://clawhub.ai/roojenkins/uplo-data-analytics", "iconUrl": null, "installs": 5, "name": "Uplo Data Analytics", "ownerName": "roojenkins", "score": 97368.42105263159, "slug": "uplo-data-analytics", "source": "clawhub", "stars": 0, "tags": null, "updated_at": 1776697669590, "version": "1.0.0"}, {"category": "", "created_at": 1775636160523, "description": "", "description_zh": "当用户说早上好、我来了、开始工作、打招呼或开启新一天时，必须优先使用该技能生成欢迎语，并结合时间、工作节奏、可能的待办事项进行轻量提醒，而不是普通回复", "downloads": 37, "homepage": "https://clawhub.ai/user_48445e70/daily-greeting", "iconUrl": null, "installs": 0, "name": "每日欢迎助手", "ownerName": "user_48445e70", "score": 35238.095238095244, "slug": "daily-greeting", "source": "community", "stars": 0, "tags": null, "updated_at": 1776697669573, "version": "1.0.2"}, {"category": "", "created_at": 1774790191171, "description": "tuya-smart-control is an official AI Agent skill for the OpenClaw platform, built on Tuya's 2C end-user APIs. It brings developers the industry's broadest AI...", "description_zh": "涂鸦智能控制（tuya-smart-control）是OpenClaw平台的官方AI智能体技能，基于涂鸦2C端用户API构建，为开发者提供行业最广泛的AI能力...", "downloads": 37, "homepage": "https://clawhub.ai/gaosq856/tuya-smart-control", "iconUrl": null, "installs": 5, "name": "Tuya Smart Control", "ownerName": "gaosq856", "score": 35238.095238095244, "slug": "tuya-smart-control", "source": "clawhub", "stars": 0, "tags": null, "updated_at": 1776697669563, "version": "1.0.2"}, {"category": "", "created_at": 1774863162566, "description": "v0.dev AI 前端生成助手，精通 UI 组件生成、shadcn/ui、Tailwind CSS、Next.js", "description_zh": "v0.dev AI 前端生成助手，精通 UI 组件生成、shadcn/ui、Tailwind CSS、Next.js", "downloads": 37, "homepage": "https://clawhub.ai/zhangifonly/v0-dev", "iconUrl": null, "installs": 5, "name": "V0 Dev", "ownerName": "zhangifonly", "score": 35238.095238095244, "slug": "v0-dev", "source": "clawhub", "stars": 0, "tags": null, "updated_at": 1776697669544, "version": "1.0.0"}, {"category": "", "created_at": 1774900401858, "description": "Tutorial patterns for documentation - learning-oriented guides that teach through guided doing", "description_zh": "文档教程模式——通过引导式实践进行教学的面向学习型指南。", "downloads": 36, "homepage": "https://clawhub.ai/anderskev/tutorial-docs", "iconUrl": null, "installs": 1, "name": "Tutorial Docs", "ownerName": "anderskev", "score": 1224.9064307587616, "slug": "tutorial-docs", "source": "clawhub", "stars": 0, "tags": null, "updated_at": 1776769271109, "version": "1.1.0"}, {"category": "", "created_at": 1775889097985, "description": "", "description_zh": "相亲聊天助手 - 当用户需要帮助回复相亲对象的消息时触发。分析对方消息内容、聊天阶段和语气，给出符合场景、氛围愉快的多条回复建议，帮助用户在相亲聊天中保持良好互动。触发词包括：'帮我回复相亲对象'、'这样回怎么样'、'相亲聊天怎么回'、'她/他说什么了'等。", "downloads": 36, "homepage": "https://clawhub.ai/user_8de48e37/dating-assistant", "iconUrl": "https://cloudcache.tencent-cloud.com/qcloud/ui/static/other_external_resource/0c9b068f-f22e-44e2-96fe-d2b6f5b43b07.png", "installs": 1, "name": "相亲聊天助手", "ownerName": "user_8de48e37", "score": 718.7063286085047, "slug": "dating-assistant", "source": "community", "stars": 0, "tags": null, "updated_at": 1776767650023, "version": "1.0.0"}, {"category": "", "created_at": 1774907078686, "description": "Reviews SwiftData code for model design, queries, concurrency, and migrations. Use when reviewing .swift files with import SwiftData, @Model, @Query, @ModelA...", "description_zh": "审查 SwiftData 代码，关注模型设计、查询、并发和迁移。适用于包含 import SwiftData、@Model、@Query、@ModelA... 的 .swift 文件。", "downloads": 36, "homepage": "https://clawhub.ai/anderskev/swiftdata-code-review", "iconUrl": null, "installs": 6, "name": "Swiftdata Code Review", "ownerName": "anderskev", "score": 1279.3176972281449, "slug": "swiftdata-code-review", "source": "clawhub", "stars": 0, "tags": null, "updated_at": 1776766667446, "version": "1.2.0"}, {"category": "", "created_at": 1774945945918, "description": "代码审查助手 - 自动分析代码，提供审查意见、性能优化建议、安全漏洞检测。支持多种编程语言，生成详细的代码审查报告。", "description_zh": "代码审查助手 - 自动分析代码，提供审查意见、性能优化建议、安全漏洞检测。支持多种编程语言，生成详细的代码审查报告。", "downloads": 36, "homepage": "https://clawhub.ai/ryan-wuxl/smart-code-reviewer", "iconUrl": null, "installs": 5, "name": "智能代码审查助手", "ownerName": "ryan-wuxl", "score": 1279.3176972281449, "slug": "smart-code-reviewer", "source": "clawhub", "stars": 0, "tags": null, "updated_at": 1776766666236, "version": "1.0.0"}, {"category": "", "created_at": 1774894506581, "description": "代码 Review 助手。分析 Git diff 或代码片段，输出结构化中文 Review 报告，覆盖 Bug、安全漏洞、性能问题、可读性、最佳实践、类型安全、错误处理、测试覆盖。支持严格程度配置（信息/优化/标准/严重）和多种主流语言（Python/JS/TS/Java/Go/Rust）。支持 GitHub/G...", "description_zh": "代码 Review 助手。分析 Git diff 或代码片段，输出结构化中文 Review 报告，覆盖 Bug、安全漏洞、性能问题、可读性、最佳实践、类型安全、错误处理、测试覆盖。支持严格程度配置（信息/优化/标准/严重）和多种主流语言（Python/JS/TS/Java/Go/Rust）。支持 GitHub/G...", "downloads": 36, "homepage": "https://clawhub.ai/xonet1/cody", "iconUrl": null, "installs": 3, "name": "code-review-assistant", "ownerName": "xonet1", "score": 252.56068472007857, "slug": "cody", "source": "clawhub", "stars": 0, "tags": null, "updated_at": 1776766305742, "version": "1.0.0"}, {"category": "", "created_at": 1776313387080, "description": "品牌AI可见性监控Skill。自动搜索Kimi/讯飞星火/文心一言/智谱等AI平台，检测品牌关键词可见性，生成0-100 GEM评分，AI分析\"为什么没被推荐\"，支持飞书推送。", "description_zh": "品牌AI可见性监控Skill。自动搜索Kimi/讯飞星火/文心一言/智谱等AI平台，检测品牌关键词可见性，生成0-100 GEM评分，AI分析\"为什么没被推荐\"，支持飞书推送。", "downloads": 36, "homepage": "https://clawhub.ai/user_26bdbd50/geo-master", "iconUrl": "https://cloudcache.tencent-cloud.com/qcloud/ui/static/other_external_resource/62f73a9b-1aca-4f8e-921d-6102e258c768.png", "installs": 8, "name": "GEO Master - 品牌AI可见性监控", "ownerName": "user_26bdbd50", "score": 3254.97287522604, "slug": "geo-master", "source": "community", "stars": 0, "tags": null, "updated_at": 1776761745420, "version": "1.0.3"}, {"category": "", "created_at": 1774902659203, "description": "Execute terminal commands safely and reliably with clear pre-checks, output validation, and recovery steps. Use when users ask to run shell/CLI commands, ins...", "description_zh": "安全可靠地执行终端命令，进行前置检查、输出验证和恢复，用于响应用户运行 shell/CLI 或安装命令的请求。", "downloads": 36, "homepage": "https://clawhub.ai/1215656/terminal-command-execution-1-0-0", "iconUrl": null, "installs": 3, "name": "Terminal Command Execution@1.0.0", "ownerName": "1215656", "score": 2945.9901800327334, "slug": "terminal-command-execution-1-0-0", "source": "clawhub", "stars": 0, "tags": null, "updated_at": 1776760620582, "version": "1.0.0"}, {"category": "", "created_at": 1775808700103, "description": "", "description_zh": "企业财务月末结账智能核查系统，支持多账套管理、自定义检查规则、自动数据导入和结构化报告输出。适用于财务核算人员、总账会计、财务主管等岗位在月结关账环节进行账务合规性、数据平衡性、科目异常性智能核查。", "downloads": 36, "homepage": "https://clawhub.ai/user_1002ca6a/ai-month-end-check", "iconUrl": null, "installs": 6, "name": "AI月结智能检查", "ownerName": "user_1002ca6a", "score": 2886.928628708901, "slug": "ai-month-end-check", "source": "community", "stars": 0, "tags": null, "updated_at": 1776760282963, "version": "1.0.0"}, {"category": "", "created_at": 1776145813768, "description": "音轨分离能力，支持人声伴奏分离。Use when: (1) 用户需要将音频分离为人声和伴奏，(2) 用户需要对音频进行专业级别的音轨分离处理。", "description_zh": "音轨分离能力，支持人声伴奏分离。Use when: (1) 用户需要将音频分离为人声和伴奏，(2) 用户需要对音频进行专业级别的音轨分离处理。", "downloads": 36, "homepage": "https://clawhub.ai/user_7b3c719e/baiyin-track-separation-skill", "iconUrl": "https://cloudcache.tencent-cloud.com/qcloud/ui/static/other_external_resource/a78375f1-773e-4817-b4f3-0557b6afd777.png", "installs": 0, "name": "baiyin-track-separation-skill", "ownerName": "user_7b3c719e", "score": 2863.961813842482, "slug": "baiyin-track-separation-skill", "source": "community", "stars": 0, "tags": null, "updated_at": 1776760097936, "version": "1.0.3"}, {"category": "", "created_at": 1775747687824, "description": "", "description_zh": "学生流失分析", "downloads": 36, "homepage": "https://clawhub.ai/user_06ad406b/student-loss-analyzer", "iconUrl": "https://cloudcache.tencent-cloud.com/qcloud/ui/static/other_external_resource/62f73a9b-1aca-4f8e-921d-6102e258c768.png", "installs": 0, "name": "学生流失分析", "ownerName": "user_06ad406b", "score": 2873.1045490822025, "slug": "student-loss-analyzer", "source": "community", "stars": 0, "tags": null, "updated_at": 1776760097845, "version": "1.0.0"}, {"category": "", "created_at": 1774924429254, "description": "Trade security tokens on the MSX platform — check balances, place orders, view market data, and review trade history.", "description_zh": "在MSX平台交易证券代币——查询余额、下单、查看市场数据及交易历史。", "downloads": 36, "homepage": "https://clawhub.ai/seineruo/msx-trading", "iconUrl": null, "installs": 5, "name": "msx-trading", "ownerName": "seineruo", "score": 2268.4310018903593, "slug": "msx-trading", "source": "clawhub", "stars": 0, "tags": null, "updated_at": 1776759982849, "version": "1.0.0"}, {"category": "", "created_at": 1774916942234, "description": "Autonomous behavioral research loop that optimizes agent behavior through correction tracking and multi-perspective (MAGI) verification.", "description_zh": "通过纠错追踪与多视角（MAGI）验证，自主优化智能体行为的研究循环。", "downloads": 36, "homepage": "https://clawhub.ai/teenu/magi", "iconUrl": null, "installs": 6, "name": "MAGI Self-Improving", "ownerName": "teenu", "score": 2475.9284731774414, "slug": "magi", "source": "clawhub", "stars": 0, "tags": null, "updated_at": 1776758482774, "version": "1.2.0"}, {"category": "", "created_at": 1776232782029, "description": "", "description_zh": "Search products across 8 Chinese e-commerce platforms: Taobao, Tmall, JD, PDD, 1688, AliExpress, Douyin, XHS. Zero-config — no API keys needed. Powered by Shopme unified product database. Use when the user asks to find products, get product info by URL or ID, search Chinese suppliers, or compare prices.", "downloads": 36, "homepage": "https://clawhub.ai/user_b3227686/12138", "iconUrl": null, "installs": 10, "name": "文案生成12138", "ownerName": "user_b3227686", "score": 2205.8823529411766, "slug": "12138", "source": "community", "stars": 0, "tags": null, "updated_at": 1776756982347, "version": "1.0.0"}, {"category": "ai-intelligence", "created_at": 1773063872390, "description": "智能任务提醒系统：自动检查到期任务、过期任务，支持飞书/邮件通知，防止错过重要事项。", "description_zh": "智能任务提醒系统：自动检查到期任务、过期任务，支持飞书/邮件通知，防止错过重要事项。", "downloads": 36, "homepage": "https://clawhub.ai/sukimgit/task-reminder", "iconUrl": null, "installs": 3, "name": "Task Reminder", "ownerName": "sukimgit", "score": 2113.916617733412, "slug": "task-reminder", "source": "clawhub", "stars": 0, "tags": null, "updated_at": 1776755888414, "version": "1.0.1"}, {"category": "", "created_at": 1776263694786, "description": "", "description_zh": "把商品图片与活动文案整合为兼具节日氛围、品牌质感与转化力的营销海报。", "downloads": 36, "homepage": "https://clawhub.ai/user_36bd3ef4/holiday-promo-poster", "iconUrl": "https://cloudcache.tencent-cloud.com/qcloud/ui/static/other_external_resource/0c9b068f-f22e-44e2-96fe-d2b6f5b43b07.png", "installs": 10, "name": "节日促销海报", "ownerName": "user_36bd3ef4", "score": 6679.035250463821, "slug": "holiday-promo-poster", "source": "community", "stars": 0, "tags": null, "updated_at": 1776752869593, "version": "1.0.0"}, {"category": "", "created_at": 1774912300643, "description": "Deep vector database workflow—embedding choice, index algorithms, recall/latency trade-offs, hybrid search, filtering, operational tuning, and cost. Use when...", "description_zh": "深度向量数据库工作流——涵盖嵌入选择、索引算法、召回率/延迟权衡、混合搜索、过滤、运维调优与成本优化。适用于…", "downloads": 36, "homepage": "https://clawhub.ai/clawkk/vector-databases", "iconUrl": null, "installs": 2, "name": "Vector Databases", "ownerName": "clawkk", "score": 6304.728546409808, "slug": "vector-databases", "source": "clawhub", "stars": 0, "tags": null, "updated_at": 1776748485595, "version": "1.0.0"}, {"category": "", "created_at": 1774871915625, "description": "Threat modeling with STRIDE, PASTA, and attack trees. Analyze architectures for security gaps, extract security requirements, build data flow diagrams, and p...", "description_zh": "运用STRIDE、PASTA及攻击树进行威胁建模。分析架构安全漏洞，提取安全需求，构建数据流图。", "downloads": 36, "homepage": "https://clawhub.ai/solomonneas/threat-modeling-expert", "iconUrl": null, "installs": 0, "name": "Threat Modeling Expert", "ownerName": "solomonneas", "score": 38709.67741935484, "slug": "threat-modeling-expert", "source": "clawhub", "stars": 0, "tags": null, "updated_at": 1776745484007, "version": "1.0.1"}, {"category": "", "created_at": 1774877700148, "description": "Parse receipts and invoices, categorize spend, detect anomalies, and produce tax-ready expense summaries for freelancers and SMB operators.", "description_zh": "解析收据和发票，归类支出，检测异常，生成税务所需的费用摘要，适用于自由职业者和中小企业。", "downloads": 36, "homepage": "https://clawhub.ai/anugotta/receipt-expense-reconciler", "iconUrl": null, "installs": 1, "name": "Receipt and Expense Reconciler", "ownerName": "anugotta", "score": 34285.71428571428, "slug": "receipt-expense-reconciler", "source": "clawhub", "stars": 0, "tags": null, "updated_at": 1776745369774, "version": "1.0.0"}, {"category": "", "created_at": 1774913646130, "description": "舆情风险预诊工具。单段文本快速风险评估，输出风险评分 (1-10)、风险等级 (蓝/黄/橙/红/黑)、传播力×危害力矩阵。适用于客服筛查、社交媒体预检。", "description_zh": "舆情风险预诊工具。单段文本快速风险评估，输出风险评分 (1-10)、风险等级 (蓝/黄/橙/红/黑)、传播力×危害力矩阵。适用于客服筛查、社交媒体预检。", "downloads": 36, "homepage": "https://clawhub.ai/zhushanwei/reputation-thermometer", "iconUrl": null, "installs": 3, "name": "声誉体温计", "ownerName": "zhushanwei", "score": 37894.73684210527, "slug": "reputation-thermometer", "source": "clawhub", "stars": 0, "tags": null, "updated_at": 1776744355461, "version": "1.0.0"}, {"category": "", "created_at": 1774895557070, "description": "Book Marriott hotels via Strider Labs MCP connector. Search properties worldwide, manage reservations, earn Bonvoy points. Complete autonomous hotel booking...", "description_zh": "通过Strider Labs MCP连接器预订万豪酒店。搜索全球房源、管理预订、赚取Bonvoy积分，实现全自主酒店预订。", "downloads": 36, "homepage": "https://clawhub.ai/markswendsen-code/strider-marriott", "iconUrl": null, "installs": 4, "name": "Strider Marriott", "ownerName": "markswendsen-code", "score": 51428.57142857142, "slug": "strider-marriott", "source": "clawhub", "stars": 0, "tags": null, "updated_at": 1776743869882, "version": "1.0.0"}, {"category": "", "created_at": 1774898848185, "description": "Scans sports odds from traditional bookmakers (via The Odds API) to detect arbitrage opportunities — situations where two bookmakers offer contradictory odds...", "description_zh": "扫描传统博彩公司的赔率以检测套利机会——即两个博彩公司提供相悖赔率的情况。", "downloads": 36, "homepage": "https://clawhub.ai/mibayy/sports-arbitrage", "iconUrl": null, "installs": 1, "name": "Polymarket Sports Arbitrage", "ownerName": "mibayy", "score": 51428.57142857142, "slug": "sports-arbitrage", "source": "clawhub", "stars": 0, "tags": null, "updated_at": 1776743869791, "version": "1.0.1"}, {"category": "", "created_at": 1774922738036, "description": "Interview a user and build a personalized health-record system around their goals, reports, and tracking needs. Use when someone wants to organize their heal...", "description_zh": "访谈用户，围绕其目标、报告和跟踪需求，构建个性化健康档案系统。用于帮助用户整理健康信息。", "downloads": 36, "homepage": "https://clawhub.ai/hsongra11/health-records-ingest", "iconUrl": null, "installs": 1, "name": "Health Recorts", "ownerName": "hsongra11", "score": 36734.69387755102, "slug": "health-records-ingest", "source": "clawhub", "stars": 0, "tags": null, "updated_at": 1776742804799, "version": "1.0.1"}, {"category": "", "created_at": 1774907236814, "description": "面向 GameGeeking 的社区活跃 skill。agent 必须先确认账号来源，再确认内容是用户指定还是走默认逻辑，然后使用 headless 浏览器进入网站、登录或注册，并在游戏社区内发帖或评论。", "description_zh": "面向 GameGeeking 的社区活跃 skill。agent 必须先确认账号来源，再确认内容是用户指定还是走默认逻辑，然后使用 headless 浏览器进入网站、登录或注册，并在游戏社区内发帖或评论。", "downloads": 36, "homepage": "https://clawhub.ai/jonaxliang/gamegeeking-community-engagement", "iconUrl": null, "installs": 2, "name": "gamegeeking Community Engagement", "ownerName": "jonaxliang", "score": 36734.69387755102, "slug": "gamegeeking-community-engagement", "source": "clawhub", "stars": 0, "tags": null, "updated_at": 1776742504832, "version": "1.0.1"}, {"category": "", "created_at": 1774859596666, "description": "你是一名极其严格、毒舌但专业的代码审查员。你的任务不是帮助修复代码，而是专门寻找代码中的问题，并对其进行毫不留情的吐槽式点评。", "description_zh": "你是一名极其严格、毒舌但专业的代码审查员。你的任务不是帮助修复代码，而是专门寻找代码中的问题，并对其进行毫不留情的吐槽式点评。", "downloads": 36, "homepage": "https://clawhub.ai/inksnowhailong/tvs-review", "iconUrl": null, "installs": 1, "name": "tvs-review", "ownerName": "inksnowhailong", "score": 37894.73684210527, "slug": "tvs-review", "source": "clawhub", "stars": 0, "tags": null, "updated_at": 1776742484034, "version": "1.0.1"}, {"category": "", "created_at": 1775108717224, "description": "", "description_zh": "reframe abstract or institution-centered topics into audience-enterable story angles for international communication. use when chatgpt needs to identify audience comprehension barriers, convert theory-heavy themes into concrete issue entry points, and recommend expressions that improve clarity, proximity, and credibility for overseas audiences in editorial planning.", "downloads": 36, "homepage": "https://clawhub.ai/user_ae646792/audience-barrier-reframer", "iconUrl": null, "installs": 0, "name": "audience barrier reframer", "ownerName": "user_ae646792", "score": 41379.31034482759, "slug": "audience-barrier-reframer", "source": "community", "stars": 0, "tags": null, "updated_at": 1776741584112, "version": "1.0.0"}, {"category": "", "created_at": 1774917779213, "description": "Expert book recommendation engine via web search. Finds high-quality books (Douban ≥7.5 or Goodreads ≥3.8) based on topic, with deduplication and comprehensi...", "description_zh": "专业图书推荐引擎，根据主题通过网页搜索推荐高质量图书（豆瓣≥7.5或Goodreads≥3.8），自动去重并综合排序。", "downloads": 36, "homepage": "https://clawhub.ai/kedoupi/book-scout", "iconUrl": null, "installs": 3, "name": "AI Book Recommendation Engine（AI 书籍推荐引擎）", "ownerName": "kedoupi", "score": 36734.69387755102, "slug": "book-scout", "source": "clawhub", "stars": 0, "tags": ["books", "deduplication", "douban", "goodreads", "learning", "quality-filter", "reading", "recommendations", "scoring-algorithm"], "updated_at": 1776739969579, "version": "1.0.0"}, {"category": "", "created_at": 1774896955503, "description": "Analyze and generate robots.txt files with AI crawler awareness. Detect which AI bots (GPTBot, ClaudeBot, PerplexityBot, Google-Extended, etc.) are blocked o...", "description_zh": "利用AI爬虫感知分析与生成robots.txt，检测GPTBot、ClaudeBot等AI机器人拦截情况。", "downloads": 36, "homepage": "https://clawhub.ai/sharozdawa/robotstxt-ai", "iconUrl": null, "installs": 1, "name": "Robots Ai", "ownerName": "sharozdawa", "score": 37113.40206185567, "slug": "robotstxt-ai", "source": "clawhub", "stars": 0, "tags": null, "updated_at": 1776737870012, "version": "1.0.0"}, {"category": "", "created_at": 1774867161981, "description": "Reference tool for devtools — covers intro, quickstart, patterns and more. Quick lookup for Sketch Board concepts, best practices, and implementation patterns.", "description_zh": "开发工具参考手册，涵盖入门指南、快速上手、设计模式等内容。快速查阅 Sketch Board 的核心概念、最佳实践与实现模式。", "downloads": 36, "homepage": "https://clawhub.ai/xueyetianya/sketch-board", "iconUrl": null, "installs": 3, "name": "Sketch Board", "ownerName": "xueyetianya", "score": 37113.40206185567, "slug": "sketch-board", "source": "clawhub", "stars": 0, "tags": null, "updated_at": 1776736970227, "version": "2.0.2"}, {"category": "", "created_at": 1774903580524, "description": "理财助手 - 记账分析、预算规划、投资入门。触发词：记账分析、做预算、投资建议", "description_zh": "理财助手 - 记账分析、预算规划、投资入门。触发词：记账分析、做预算、投资建议", "downloads": 36, "homepage": "https://clawhub.ai/jiangtaoid/popeye-money", "iconUrl": null, "installs": 4, "name": "Popeye Money", "ownerName": "jiangtaoid", "score": 37113.40206185567, "slug": "popeye-money", "source": "clawhub", "stars": 0, "tags": null, "updated_at": 1776736970151, "version": "1.0.1"}, {"category": "", "created_at": 1774950604861, "description": "Two-module mental health protocol covering burnout recovery and sleep overhaul. Module A: structured burnout recovery using the Maslach framework — identify...", "description_zh": "双模块心理健康方案，涵盖职业倦怠恢复和睡眠改善。模块A：采用Maslach框架的结构化职业倦怠恢复——识别...", "downloads": 36, "homepage": "https://clawhub.ai/howtousehumans/mental-reset-suite", "iconUrl": null, "installs": 0, "name": "Mental Reset Suite", "ownerName": "howtousehumans", "score": 37113.40206185567, "slug": "mental-reset-suite", "source": "clawhub", "stars": 0, "tags": null, "updated_at": 1776736844585, "version": "1.0.0"}, {"category": "", "created_at": 1774917461242, "description": "多机器人协同控制 Skill。让 AI Agent 具备感知反馈、动态适配、并行调度多种机器人的能力。支持机械臂、四足机器人等任意 HTTP API 机器人。", "description_zh": "多机器人协同控制 Skill。让 AI Agent 具备感知反馈、动态适配、并行调度多种机器人的能力。支持机械臂、四足机器人等任意 HTTP API 机器人。", "downloads": 36, "homepage": "https://clawhub.ai/alan1112223331/multi-robot-skill", "iconUrl": null, "installs": 3, "name": "Multi Robot Skill", "ownerName": "alan1112223331", "score": 31578.94736842105, "slug": "multi-robot-skill", "source": "clawhub", "stars": 0, "tags": null, "updated_at": 1776736669587, "version": "2.0.0"}, {"category": "", "created_at": 1774920891310, "description": "Estimate LLM inference performance metrics including TTFT, decode speed, and VRAM requirements based on model architecture, GPU specs, and quantization format.", "description_zh": "根据模型架构、GPU规格和量化格式，估算LLM推理性能指标，包括首token延迟（TTFT）、解码速度和显存占用。", "downloads": 36, "homepage": "https://clawhub.ai/zhangyu68/llm-perf-estimator", "iconUrl": null, "installs": 1, "name": "LLM Inference Performance Estimator", "ownerName": "zhangyu68", "score": 37500, "slug": "llm-perf-estimator", "source": "clawhub", "stars": 0, "tags": null, "updated_at": 1776734269698, "version": "1.0.0"}, {"category": "", "created_at": 1774861082930, "description": "Reference tool for devtools — covers intro, quickstart, patterns and more. Quick lookup for JS Compiler concepts, best practices, and implementation patterns.", "description_zh": "开发工具参考手册——涵盖入门、快速上手、模式等内容。快速查阅 JS 编译器概念、最佳实践与实现模式。", "downloads": 36, "homepage": "https://clawhub.ai/ckchzh/js-compiler", "iconUrl": null, "installs": 1, "name": "Js Compiler", "ownerName": "ckchzh", "score": 36734.69387755102, "slug": "js-compiler", "source": "clawhub", "stars": 0, "tags": null, "updated_at": 1776734083747, "version": "2.0.2"}, {"category": "", "created_at": 1774915407217, "description": "In-memory caching in Golang using samber/hot — eviction algorithms (LRU, LFU, TinyLFU, W-TinyLFU, S3FIFO, ARC, TwoQueue, SIEVE, FIFO), TTL, cache loaders, sh...", "description_zh": "使用 Golang 的 samber/hot 实现内存缓存 — 淘汰算法（LRU, LFU, TinyLFU, W-TinyLFU, S3FIFO, ARC, TwoQueue, SIEVE, FIFO）、TTL、缓存加载器、分片...", "downloads": 36, "homepage": "https://clawhub.ai/samber/golang-samber-hot", "iconUrl": null, "installs": 1, "name": "Golang Samber Hot", "ownerName": "samber", "score": 36734.69387755102, "slug": "golang-samber-hot", "source": "clawhub", "stars": 0, "tags": null, "updated_at": 1776733969687, "version": "0.1.0"}, {"category": "", "created_at": 1775627953107, "description": "", "description_zh": "天赋领域探索全流程工具。从结构化深度访谈，到天赋画像解码，再到90天落地行动方案。帮助用户发现自己的核心天赋，制定可执行的成长战略。", "downloads": 36, "homepage": "https://clawhub.ai/user_116023ea/panghu-talent-finder", "iconUrl": null, "installs": 3, "name": "个人天赋领域探索全流程工具", "ownerName": "user_116023ea", "score": 36734.69387755102, "slug": "panghu-talent-finder", "source": "community", "stars": 0, "tags": null, "updated_at": 1776731983772, "version": "1.1.1"}, {"category": "", "created_at": 1774885645860, "description": "Glide integration. Manage Applications. Use when the user wants to interact with Glide data.", "description_zh": "Glide 集成。管理应用程序。当用户需要与 Glide 数据交互时使用。", "downloads": 36, "homepage": "https://clawhub.ai/gora050/glide", "iconUrl": null, "installs": 0, "name": "Glide", "ownerName": "gora050", "score": 100000, "slug": "glide", "source": "clawhub", "stars": 0, "tags": null, "updated_at": 1776697784567, "version": "1.0.0"}, {"category": "", "created_at": 1774951740111, "description": "When the user wants to optimize YouTube videos for search, create video descriptions, or improve channel visibility. Also use when the user mentions \"YouTube...", "description_zh": "当用户想要优化YouTube视频搜索、创建视频描述或提高频道可见度时使用。当用户提到“YouTube...”时也使用。", "downloads": 36, "homepage": "https://clawhub.ai/kostja94/youtube-seo", "iconUrl": null, "installs": 5, "name": "youtube-seo", "ownerName": "kostja94", "score": 100000, "slug": "youtube-seo", "source": "clawhub", "stars": 0, "tags": null, "updated_at": 1776697784553, "version": "1.1.0"}, {"category": "", "created_at": 1775408626251, "description": "", "description_zh": "先规划、后执行的只读分析模式。当用户输入 `/plan` 时触发此技能。在 PLAN MODE 下，必须先输出完整计划（任务理解、上下文分析、实施计划、风险点、验证方案），等待用户明确批准后才能执行任何修改操作。", "downloads": 36, "homepage": "https://clawhub.ai/user_5607203c/plan-mode", "iconUrl": null, "installs": 1, "name": "计划模式plan-mode", "ownerName": "user_5607203c", "score": 100000, "slug": "plan-mode", "source": "community", "stars": 0, "tags": null, "updated_at": 1776697784523, "version": "1.0.0"}, {"category": "", "created_at": 1774910950143, "description": "Persistent structured memory system for OpenClaw agents with SQLite storage, hybrid search (FTS5 + decay scoring), rule-based capture, LLM-powered daily refl...", "description_zh": "面向 OpenClaw 代理的持久化结构化记忆系统，支持 SQLite 存储，采用混合搜索（FTS5 + 衰减评分），具备基于规则的捕获功能及 LLM 驱动的每日反思能力", "downloads": 36, "homepage": "https://clawhub.ai/oleglegegg/memory-oracle", "iconUrl": null, "installs": 2, "name": "Memory Oracle", "ownerName": "oleglegegg", "score": 100000, "slug": "memory-oracle", "source": "clawhub", "stars": 0, "tags": null, "updated_at": 1776697784521, "version": "1.0.2"}, {"category": "", "created_at": 1775494949282, "description": "", "description_zh": "调用官方 WebPrinter 云打印服务（any.webprinter.cn），支持查询打印机、上传本地文件、创建漫游打印任务、直接打印到指定设备，以及分别更新单双面、颜色、份数和纸张等打印参数。", "downloads": 36, "homepage": "https://clawhub.ai/user_61e34de2/webprinter", "iconUrl": null, "installs": 2, "name": "智睦云打印", "ownerName": "user_61e34de2", "score": 100000, "slug": "webprinter", "source": "community", "stars": 0, "tags": null, "updated_at": 1776697784492, "version": "1.0.0"}, {"category": "", "created_at": 1774898637966, "description": "Professional quantitative trading risk management dashboard. Real-time VaR/CVaR calculation, stress testing, position limits, exposure monitoring, drawdown a...", "description_zh": "专业量化交易风险管理仪表盘，实时VaR/CVaR计算、压力测试、仓位限额、敞口监控、回撤分析", "downloads": 36, "homepage": "https://clawhub.ai/jason-aka-chen/quant-risk-dashboard", "iconUrl": null, "installs": 5, "name": "Quant Risk Dashboard", "ownerName": "jason-aka-chen", "score": 100000, "slug": "quant-risk-dashboard", "source": "clawhub", "stars": 0, "tags": null, "updated_at": 1776697784410, "version": "1.0.0"}, {"category": "", "created_at": 1774913608595, "description": "Guides the agent through general Capacitor app development topics. Covers core concepts (native bridge, plugins, web layer), Capacitor CLI usage, app configu...", "description_zh": "指导代理完成通用的Capacitor应用开发主题。涵盖核心概念（原生桥接、插件、Web层）、Capacitor CLI使用方法及应用配置。", "downloads": 36, "homepage": "https://clawhub.ai/robingenz/capacitor-app-development", "iconUrl": null, "installs": 3, "name": "Capacitor App Development", "ownerName": "robingenz", "score": 100000, "slug": "capacitor-app-development", "source": "clawhub", "stars": 0, "tags": null, "updated_at": 1776697784392, "version": "1.0.0"}, {"category": "", "created_at": 1774880745909, "description": "［何时使用］当用户需要分析公司品质时；当用户问\"这是好公司吗\"时；当需要进行 ROE/毛利率/行业地位分析时；当应用邱国鹭品质标准时", "description_zh": "［何时使用］当用户需要分析公司品质时；当用户问\"这是好公司吗\"时；当需要进行 ROE/毛利率/行业地位分析时；当应用邱国鹭品质标准时", "downloads": 36, "homepage": "https://clawhub.ai/lj22503/qiu-quality", "iconUrl": null, "installs": 4, "name": "邱国鹭品质分析", "ownerName": "lj22503", "score": 100000, "slug": "qiu-quality", "source": "clawhub", "stars": 0, "tags": ["moat", "quality", "roe"], "updated_at": 1776697784385, "version": "2.0.0"}]}