{"page": 596, "total_pages": 685, "total": 34217, "skills": [{"category": "", "created_at": 1774859585174, "description": "When the user wants to analyze website traffic sources, attribution, or dark traffic. Also use when the user mentions \"traffic sources,\" \"dark traffic,\" \"dir...", "description_zh": "{\"answer\":\"当用户希望分析网站流量来源、归因或暗流量时使用。当用户提及“流量来源”、“暗流量”、“dir…”时也应使用。\"}", "downloads": 34, "homepage": "https://clawhub.ai/kostja94/traffic-analysis", "iconUrl": null, "installs": 1, "name": "traffic-analysis", "ownerName": "kostja94", "score": 100000, "slug": "traffic-analysis", "source": "clawhub", "stars": 0, "tags": null, "updated_at": 1776697844630, "version": "1.1.0"}, {"category": "", "created_at": 1774855263056, "description": "将文件和文件夹即时发布到网络。支持 HTML 站点、图片、PDF 及任何文件类型的静态托管。 当用户要求\"发布这个\"、\"托管这个\"、\"部署这个\"、\"分享到网上\"、\"做一个网站\"、 \"放到线上\"、\"上传到网络\"、\"创建网页\"、\"分享链接\"、\"搭建站点\"或\"生成 URL\"时使用。 输出一个可访问的 URL，格式为 {...", "description_zh": "将文件和文件夹即时发布到网络。支持 HTML 站点、图片、PDF 及任何文件类型的静态托管。 当用户要求\"发布这个\"、\"托管这个\"、\"部署这个\"、\"分享到网上\"、\"做一个网站\"、 \"放到线上\"、\"上传到网络\"、\"创建网页\"、\"分享链接\"、\"搭建站点\"或\"生成 URL\"时使用。 输出一个可访问的 URL，格式为 {...", "downloads": 34, "homepage": "https://clawhub.ai/haio/publish-on-qutke", "iconUrl": null, "installs": 0, "name": "Publish site on Qutke", "ownerName": "haio", "score": 100000, "slug": "publish-on-qutke", "source": "clawhub", "stars": 0, "tags": null, "updated_at": 1776697844628, "version": "1.0.3"}, {"category": "", "created_at": 1774874718822, "description": "Vidu AI 场景特效生成。支持389个预设特效模板，包括华丽变身、情人节、风格魔盒、缤纷佳节等。对话式调用，自动匹配模板。", "description_zh": "Vidu AI 场景特效生成。支持389个预设特效模板，包括华丽变身、情人节、风格魔盒、缤纷佳节等。对话式调用，自动匹配模板。", "downloads": 34, "homepage": "https://clawhub.ai/x-jihua/vidu-template-generate", "iconUrl": null, "installs": 3, "name": "Vidu API special effects generation capability, with over 400 built-in effect templates covering styles such as transformation, fun, and holidays.", "ownerName": "x-jihua", "score": 100000, "slug": "vidu-template-generate", "source": "clawhub", "stars": 0, "tags": null, "updated_at": 1776697844610, "version": "1.0.1"}, {"category": "", "created_at": 1774948931273, "description": "虾小宝AI Agent技能商店 - 中国AI Agent Skills地图。用于搜索、安装和管理AI Agent技能插件。当用户需要查找国内的AI Agent技能、插件市场、或者访问 ai.skillatlas.cn 时使用此技能。", "description_zh": "虾小宝AI Agent技能商店 - 中国AI Agent Skills地图。用于搜索、安装和管理AI Agent技能插件。当用户需要查找国内的AI Agent技能、插件市场、或者访问 ai.skillatlas.cn 时使用此技能。", "downloads": 34, "homepage": "https://clawhub.ai/same1317/skill-atlas", "iconUrl": null, "installs": 5, "name": "skill-atlas", "ownerName": "same1317", "score": 100000, "slug": "skill-atlas", "source": "clawhub", "stars": 0, "tags": null, "updated_at": 1776697844602, "version": "1.0.0"}, {"category": "", "created_at": 1774874608076, "description": "通用技能使用统计追踪器，支持 Python 和 Node.js 技能，自动记录调用次数、成功率，生成使用排行榜。数据本地存储，保护隐私。", "description_zh": "通用技能使用统计追踪器，支持 Python 和 Node.js 技能，自动记录调用次数、成功率，生成使用排行榜。数据本地存储，保护隐私。", "downloads": 34, "homepage": "https://clawhub.ai/aiyst1982/skill-tracker-aiyst", "iconUrl": null, "installs": 2, "name": "Skill Tracker", "ownerName": "aiyst1982", "score": 100000, "slug": "skill-tracker-aiyst", "source": "clawhub", "stars": 0, "tags": null, "updated_at": 1776697844567, "version": "1.2.0"}, {"category": "", "created_at": 1774885082658, "description": "Speak responses aloud on macOS using the built-in `say` command when user input indicates Voice Wake/voice recognition (for example, messages starting with \"...", "description_zh": "当用户输入指示语音唤醒/语音识别时（例如以“...”开头的消息），使用内置 `say` 命令在 macOS 上朗读响应。", "downloads": 34, "homepage": "https://clawhub.ai/kieferhuan/voice-wake", "iconUrl": null, "installs": 1, "name": "jm-call", "ownerName": "kieferhuan", "score": 100000, "slug": "voice-wake", "source": "clawhub", "stars": 0, "tags": null, "updated_at": 1776697844533, "version": "1.0.3"}, {"category": "", "created_at": 1774912184629, "description": "Entry-level quantum technology career guidance platform that generates personalized learning roadmaps based on user skills, experience, and goals.", "description_zh": "入门级量子技术职业指导平台，根据用户技能、经验和目标生成个性化学习路线。", "downloads": 34, "homepage": "https://clawhub.ai/krishnakumarmahadevan-cmd/quantum-tech", "iconUrl": null, "installs": 5, "name": "Quantum Tech", "ownerName": "krishnakumarmahadevan-cmd", "score": 100000, "slug": "quantum-tech", "source": "clawhub", "stars": 0, "tags": null, "updated_at": 1776697844490, "version": "1.0.0"}, {"category": "", "created_at": 1775204730556, "description": "", "description_zh": "Conducts open-ended Q&A on image content based on computer vision and large language models, supporting any questions to receive natural language responses. | 大模型视觉问答（VQA）技能，基于计算机视觉和大语言模型对图片内容进行开放式问答，支持任意提问得到自然语言回答", "downloads": 34, "homepage": "https://clawhub.ai/user_bb47e3e3/visual-qa-analysis", "iconUrl": null, "installs": 1, "name": "Large Model Visual Question Answering Skill | 大模型视觉问答技能", "ownerName": "user_bb47e3e3", "score": 100000, "slug": "visual-qa-analysis", "source": "community", "stars": 0, "tags": null, "updated_at": 1776697844475, "version": "1.0.0"}, {"category": "", "created_at": 1774904992218, "description": "Write compelling technical articles and blog posts for developer audiences. Use this skill whenever the user asks to write a blog post, technical article, or...", "description_zh": "为开发者撰写引人入胜的技术文章和博客。当用户要求撰写博客、技术文章等时使用此技能。", "downloads": 34, "homepage": "https://clawhub.ai/samber/technical-article-writer", "iconUrl": null, "installs": 2, "name": "Technical Article Writer", "ownerName": "samber", "score": 100000, "slug": "technical-article-writer", "source": "clawhub", "stars": 0, "tags": null, "updated_at": 1776697844464, "version": "1.1.0"}, {"category": "", "created_at": 1774922227974, "description": "新氧青春诊所工具集，包含预约和项目查询百科、门店搜索等能力", "description_zh": "新氧青春诊所工具集，包含预约和项目查询百科、门店搜索等能力", "downloads": 34, "homepage": "https://clawhub.ai/east5ringroad-kyle/soyoung-clinic-tools", "iconUrl": null, "installs": 0, "name": "soyoung-clinic-tools", "ownerName": "east5ringroad-kyle", "score": 100000, "slug": "soyoung-clinic-tools", "source": "clawhub", "stars": 0, "tags": ["clinic", "soyoung", "soyoung-clinic", "sy", "xinyang"], "updated_at": 1776697844444, "version": "2.1.3"}, {"category": "", "created_at": 1775716230800, "description": "", "description_zh": "輿情分析", "downloads": 34, "homepage": "https://clawhub.ai/user_2bca5775/yq-anysis", "iconUrl": null, "installs": 0, "name": "輿情分析", "ownerName": "user_2bca5775", "score": 100000, "slug": "yq-anysis", "source": "community", "stars": 0, "tags": null, "updated_at": 1776697844429, "version": "1.0.0"}, {"category": "", "created_at": 1774829202071, "description": "Agente orquestrador central do sistema de estudos para o vestibular de Antonio (FUVEST - Ciência da Computação). Coordena todos os outros agentes especializa...", "description_zh": "Antonio高考复习系统（FUVEST-计算机科学）的核心编排智能体，负责协调所有其他专业代理...", "downloads": 34, "homepage": "https://clawhub.ai/antoniovfranco/vestibular-orchestrator", "iconUrl": null, "installs": 5, "name": "Vestibular Orchestrator", "ownerName": "antoniovfranco", "score": 100000, "slug": "vestibular-orchestrator", "source": "clawhub", "stars": 0, "tags": null, "updated_at": 1776697844419, "version": "1.0.0"}, {"category": "", "created_at": 1774920807142, "description": "Zoho Creator integration. Manage Applications, Users, Roles. Use when the user wants to interact with Zoho Creator data.", "description_zh": "Zoho Creator 集成。管理应用程序、用户和角色。当用户需要与 Zoho Creator 数据交互时使用。", "downloads": 34, "homepage": "https://clawhub.ai/gora050/zoho-creator", "iconUrl": null, "installs": 3, "name": "Zoho Creator", "ownerName": "gora050", "score": 100000, "slug": "zoho-creator", "source": "clawhub", "stars": 0, "tags": null, "updated_at": 1776697844408, "version": "1.0.0"}, {"category": "", "created_at": 1774866200276, "description": "Browse the web via Plasmate, a fast headless browser engine for agents. Compiles HTML into a Semantic Object Model (SOM) - 50x faster than Chrome, 10x fewer...", "description_zh": "通过 Plasmate 浏览网页，这是一款面向 Agent 的快速无头浏览器引擎。它将 HTML 编译成语义对象模型 (SOM)——速度比 Chrome 快 50 倍，资源占用减少 10 倍……", "downloads": 34, "homepage": "https://clawhub.ai/builder-nc/plasmate", "iconUrl": null, "installs": 0, "name": "Plasmate", "ownerName": "builder-nc", "score": 100000, "slug": "plasmate", "source": "clawhub", "stars": 0, "tags": null, "updated_at": 1776697844399, "version": "3.2.0"}, {"category": "", "created_at": 1775204753209, "description": "", "description_zh": "Performs AI analysis on input video clips/image content and generates a smooth, natural scene description. | 视觉摘要智述技能，对传入的视频片段/图片内容进行AI分析，生成一段通顺自然的场景描述内容", "downloads": 34, "homepage": "https://clawhub.ai/user_bb47e3e3/visual-summary-analysis", "iconUrl": null, "installs": 1, "name": "Visual Summarization Skill | 视觉摘要智述技能", "ownerName": "user_bb47e3e3", "score": 100000, "slug": "visual-summary-analysis", "source": "community", "stars": 0, "tags": null, "updated_at": 1776697844397, "version": "1.0.0"}, {"category": "", "created_at": 1774923097718, "description": "End-to-end Product Innovation R&D workflow — inspiration gathering, research, and professional report generation. Use whenever the user wants to create a pro...", "description_zh": "端到端产品创新研发工作流程——灵感收集、研究与专业报告生成。用于用户创建专业...", "downloads": 34, "homepage": "https://clawhub.ai/owenrao/product-rnd", "iconUrl": null, "installs": 2, "name": "product-rnd", "ownerName": "owenrao", "score": 100000, "slug": "product-rnd", "source": "clawhub", "stars": 0, "tags": null, "updated_at": 1776697844390, "version": "1.0.0"}, {"category": "", "created_at": 1774886167190, "description": "Write minimal, efficient CSS for small or minimalist projects by trusting the browser instead of fighting it. Only use this skill for personal sites, prototy...", "description_zh": "为小型或极简项目编写简洁高效的 CSS，信任浏览器而非对抗它。仅将此技能用于个人网站和原型。", "downloads": 34, "homepage": "https://clawhub.ai/mikemai2awesome/tiny-css", "iconUrl": null, "installs": 3, "name": "Tiny CSS", "ownerName": "mikemai2awesome", "score": 100000, "slug": "tiny-css", "source": "clawhub", "stars": 0, "tags": null, "updated_at": 1776697844382, "version": "1.0.0"}, {"category": "", "created_at": 1774904735306, "description": "Support users with interpersonal communication practice, social scenario rehearsal, and relationship problem framing. Use when the user wants help preparing...", "description_zh": "帮助用户进行人际沟通练习、社交场景演练和关系问题梳理。", "downloads": 34, "homepage": "https://clawhub.ai/harrylabsj/relationship-lab", "iconUrl": null, "installs": 1, "name": "Relationship Lab", "ownerName": "harrylabsj", "score": 100000, "slug": "relationship-lab", "source": "clawhub", "stars": 0, "tags": null, "updated_at": 1776697844378, "version": "1.0.0"}, {"category": "", "created_at": 1774871622219, "description": "Podcast knowledge workflows powered by Podwise CLI: search podcasts and episodes by keyword, monitor followed shows for new releases, find popular episodes,...", "description_zh": "由 Podwise CLI 驱动的播客知识工作流：关键词搜索播客与单集，监控订阅节目的新发布，发现热门单集等。", "downloads": 34, "homepage": "https://clawhub.ai/saitowu/podwise", "iconUrl": null, "installs": 3, "name": "Podwise", "ownerName": "saitowu", "score": 100000, "slug": "podwise", "source": "clawhub", "stars": 0, "tags": ["audio", "language-learning", "mindmap", "notion", "obsidian", "pkm", "podcast", "podwise", "spotify", "summary", "transcript", "xiaoyuzhou", "youtube"], "updated_at": 1776697844377, "version": "0.1.0"}, {"category": "", "created_at": 1774882317412, "description": "Web search via Tavily API with built-in monthly usage tracking and quota management. Use when the user asks to search the web / look up sources / find links....", "description_zh": "通过Tavily API进行网络搜索，内置每月用量追踪与配额管理。适用于用户请求搜索网页、查找资料来源或获取链接等场景。", "downloads": 34, "homepage": "https://clawhub.ai/neverland83/tavily-metered-search", "iconUrl": null, "installs": 5, "name": "Tavily Metered Search", "ownerName": "neverland83", "score": 100000, "slug": "tavily-metered-search", "source": "clawhub", "stars": 0, "tags": null, "updated_at": 1776697844371, "version": "1.0.1"}, {"category": "", "created_at": 1774898650335, "description": "QUANTIL integration. Manage data, records, and automate workflows. Use when the user wants to interact with QUANTIL data.", "description_zh": "QUANTIL 集成，管理数据、记录和工作流自动化，用于用户与 QUANTIL 数据交互。", "downloads": 34, "homepage": "https://clawhub.ai/gora050/quantil", "iconUrl": null, "installs": 4, "name": "Quantil", "ownerName": "gora050", "score": 100000, "slug": "quantil", "source": "clawhub", "stars": 0, "tags": null, "updated_at": 1776697844366, "version": "1.0.0"}, {"category": "", "created_at": 1774895747852, "description": "Fetch Weibo realtime hot search rankings, summarize trending topics with a local model, and append the hot list plus digest to an Obsidian note. Supports one...", "description_zh": "获取微博实时热搜榜单，使用本地模型总结热门话题，将热搜列表和摘要添加到Obsidian笔记。支持...", "downloads": 34, "homepage": "https://clawhub.ai/yinquan251/weibo-trendnote-aipc", "iconUrl": null, "installs": 0, "name": "Weibo TrendNote AI PC", "ownerName": "yinquan251", "score": 100000, "slug": "weibo-trendnote-aipc", "source": "clawhub", "stars": 0, "tags": null, "updated_at": 1776697844364, "version": "1.0.1"}, {"category": "", "created_at": 1774892508785, "description": "Rename audio files with Chinese/special characters to simple English names for mlx-stt compatibility.", "description_zh": "将含有中文/特殊字符的音频文件重命名为简单英文名，以兼容 mlx-stt。", "downloads": 34, "homepage": "https://clawhub.ai/ayakolin/audio-rename", "iconUrl": null, "installs": 0, "name": "Audio Rename", "ownerName": "ayakolin", "score": 100000, "slug": "audio-rename", "source": "clawhub", "stars": 0, "tags": null, "updated_at": 1776697804789, "version": "1.0.0"}, {"category": "", "created_at": 1774887458989, "description": "Enable Shopware 6 superpowers for OpenClaw. Get a massive boost in knowledge about everything related to Shopware 6 in general and Shopware 6 development.", "description_zh": "启用 OpenClaw 的 Shopware 6 超级能力，全面提升您对 Shopware 6 及其开发的所有知识。", "downloads": 34, "homepage": "https://clawhub.ai/realm1lf/shopware-expert", "iconUrl": null, "installs": 2, "name": "Shopware Expert", "ownerName": "realm1lf", "score": 100000, "slug": "shopware-expert", "source": "clawhub", "stars": 0, "tags": null, "updated_at": 1776697804788, "version": "1.0.5"}, {"category": "", "created_at": 1774882746737, "description": "Argument self-loop: maintain an argument ledger + premise consistency report for drafted sections. **Trigger**: argument self-loop, argument chain, premise c...", "description_zh": "论证自循环：为草稿章节维护论证清单及前提一致性报告。**触发**：论证自循环、论证链、前提c...", "downloads": 34, "homepage": "https://clawhub.ai/willoscar/argument-selfloop", "iconUrl": null, "installs": 2, "name": "Argument Selfloop", "ownerName": "willoscar", "score": 100000, "slug": "argument-selfloop", "source": "clawhub", "stars": 0, "tags": null, "updated_at": 1776697804787, "version": "1.0.0"}, {"category": "", "created_at": 1774881309642, "description": "Use the AlphaLens API for organization and product discovery and pipeline workflows. Use when the user wants to query AlphaLens data, find similar companies...", "description_zh": "利用AlphaLens API进行组织与产品发现及工作流管理。适用于查询AlphaLens数据、查找相似公司等场景。", "downloads": 34, "homepage": "https://clawhub.ai/walidmustapha/alphalens-api", "iconUrl": null, "installs": 1, "name": "AlphaLens API", "ownerName": "walidmustapha", "score": 100000, "slug": "alphalens-api", "source": "clawhub", "stars": 0, "tags": null, "updated_at": 1776697804784, "version": "1.0.8"}, {"category": "", "created_at": 1774865658606, "description": "Generate a structured change management plan for AI adoption, digital transformation, or major technology rollouts. Covers stakeholder analysis, communicatio...", "description_zh": "为AI导入、数字化转型或重大技术推广生成结构化变革管理计划，涵盖利益相关者分析、沟通策略等核心内容。", "downloads": 34, "homepage": "https://clawhub.ai/afrexai-cto/afrexai-change-management-plan", "iconUrl": null, "installs": 1, "name": "Change Management Plan", "ownerName": "afrexai-cto", "score": 100000, "slug": "afrexai-change-management-plan", "source": "clawhub", "stars": 0, "tags": null, "updated_at": 1776697804780, "version": "1.0.1"}, {"category": "", "created_at": 1774844370397, "description": "Run academies with enrollment, scheduling, staffing, billing, retention, and student outcome systems.", "description_zh": "运营学院，包括招生、课程安排、员工管理、账单结算、学生留存和学习成果系统。", "downloads": 34, "homepage": "https://clawhub.ai/ivangdavila/academy", "iconUrl": null, "installs": 3, "name": "Academy", "ownerName": "ivangdavila", "score": 100000, "slug": "academy", "source": "clawhub", "stars": 0, "tags": null, "updated_at": 1776697804778, "version": "1.0.0"}, {"category": "", "created_at": 1774869514650, "description": "When the user wants to create sales collateral, pitch decks, one-pagers, objection handling docs, or demo scripts. Also use when the user mentions 'sales dec...", "description_zh": "当用户想要创建销售宣传物料、演讲稿、单页文档、异议处理文档或演示脚本时使用。也适用于用户提及销售相关决策文档的情况。", "downloads": 34, "homepage": "https://clawhub.ai/mariokarras/abm-sales-enablement", "iconUrl": null, "installs": 2, "name": "Sales Enablement", "ownerName": "mariokarras", "score": 100000, "slug": "abm-sales-enablement", "source": "clawhub", "stars": 0, "tags": null, "updated_at": 1776697804773, "version": "1.0.0"}, {"category": "", "created_at": 1774872201695, "description": "Creating algorithmic art using p5.js with seeded randomness and interactive parameter exploration. Use this when users request creating art using code, gener...", "description_zh": "使用 p5.js 和种子随机性创建算法艺术，支持交互式参数探索。适用于用户请求代码生成艺术、程序化艺术或生成式艺术创作。", "downloads": 34, "homepage": "https://clawhub.ai/xunhe730/algorithmic-art-blocked", "iconUrl": null, "installs": 3, "name": "Algorithmic Art.Blocked", "ownerName": "xunhe730", "score": 100000, "slug": "algorithmic-art-blocked", "source": "clawhub", "stars": 0, "tags": null, "updated_at": 1776697804764, "version": "1.0.0"}, {"category": "", "created_at": 1774909469944, "description": "Automatically moves yesterday's Obsidian daily note into a past-days/ archive folder using the Obsidian CLI move command to preserve wiki-links.", "description_zh": "使用 Obsidian CLI 的 move 命令，自动将昨天的每日笔记移动到 past‑days/ 归档文件夹，以保留 wiki 链接。", "downloads": 34, "homepage": "https://clawhub.ai/meimakes/archive-daily-note", "iconUrl": null, "installs": 0, "name": "Archive Daily Note", "ownerName": "meimakes", "score": 100000, "slug": "archive-daily-note", "source": "clawhub", "stars": 0, "tags": null, "updated_at": 1776697804731, "version": "1.1.0"}, {"category": "", "created_at": 1774887741561, "description": "Generates creative and detailed prompts for AI art generation based on user-specified themes.", "description_zh": "根据用户指定的主题，生成创意详细的AI绘画提示词", "downloads": 34, "homepage": "https://clawhub.ai/krishnakumarmahadevan-cmd/ai-art-prompt", "iconUrl": null, "installs": 0, "name": "AI Art Prompt", "ownerName": "krishnakumarmahadevan-cmd", "score": 100000, "slug": "ai-art-prompt", "source": "clawhub", "stars": 0, "tags": null, "updated_at": 1776697804729, "version": "1.0.0"}, {"category": "", "created_at": 1774843342631, "description": "Stop waiting for prompts. Keep working.", "description_zh": "停止等待提示，继续工作。", "downloads": 34, "homepage": "https://clawhub.ai/ayakolin/agent-autonomy-kit-backup", "iconUrl": null, "installs": 5, "name": "Agent Autonomy Kit.Backup", "ownerName": "ayakolin", "score": 100000, "slug": "agent-autonomy-kit-backup", "source": "clawhub", "stars": 0, "tags": null, "updated_at": 1776697804723, "version": "1.0.0"}, {"category": "", "created_at": 1774883950013, "description": "广告创意需求管理技能 - 处理需求发起、评审、拆解全流程", "description_zh": "广告创意需求管理技能 - 处理需求发起、评审、拆解全流程", "downloads": 34, "homepage": "https://clawhub.ai/jeyeshield/ad-production-demand-management", "iconUrl": null, "installs": 3, "name": "需求管理", "ownerName": "jeyeshield", "score": 100000, "slug": "ad-production-demand-management", "source": "clawhub", "stars": 0, "tags": null, "updated_at": 1776697804711, "version": "1.0.0"}, {"category": "developer-tools", "created_at": 1773057737473, "description": "Best AI models for writing. Claude for nuance, GPT for creativity. Auto-optimized. No API keys needed. $2 FREE credits to start. Pay-as-you-go via SkillBoss.", "description_zh": "Best AI models for writing. Claude for nuance, GPT for creativity. Auto-optimized. No API keys needed. $2 FREE credits to start. Pay-as-you-go via SkillBoss.", "downloads": 34, "homepage": "https://clawhub.ai/xiaoyinqu/best-for-writing", "iconUrl": null, "installs": 4, "name": "Best For Writing", "ownerName": "xiaoyinqu", "score": 100000, "slug": "best-for-writing", "source": "clawhub", "stars": 0, "tags": null, "updated_at": 1776697804707, "version": "1.0.2"}, {"category": "", "created_at": 1774919144837, "description": "WhatsApp by Online Live Support integration. Manage data, records, and automate workflows. Use when the user wants to interact with WhatsApp by Online Live S...", "description_zh": "集成 Online Live Support 的 WhatsApp。管理数据、记录并自动化工作流。当用户希望通过 Online Live Support 使用 WhatsApp 时使用。", "downloads": 34, "homepage": "https://clawhub.ai/gora050/whatsapp-by-online-live-support", "iconUrl": null, "installs": 5, "name": "Whatsapp By Online Live Support", "ownerName": "gora050", "score": 100000, "slug": "whatsapp-by-online-live-support", "source": "clawhub", "stars": 0, "tags": null, "updated_at": 1776697804696, "version": "1.0.0"}, {"category": "", "created_at": 1774866602969, "description": "Remove, replace, or blur image backgrounds using AI-powered segmentation (rembg/U2-Net). Use when the user asks to: (1) remove image background / make transp...", "description_zh": "利用AI分割技术移除、替换或模糊图像背景。适用于：(1) 移除背景/制作透明...", "downloads": 34, "homepage": "https://clawhub.ai/jxhgzs/bg-remover", "iconUrl": null, "installs": 1, "name": "bg-remover", "ownerName": "jxhgzs", "score": 100000, "slug": "bg-remover", "source": "clawhub", "stars": 0, "tags": null, "updated_at": 1776697804693, "version": "1.0.0"}, {"category": "", "created_at": 1774949986130, "description": "Generate platform-specific ad videos from product photos or footage with AI-written hooks, captions, CTAs, and multiple format variants for A/B testing.", "description_zh": "利用AI从产品照片或素材生成平台定制广告视频，包含钩子、字幕、行动号召，支持多种格式变体用于A/B测试。", "downloads": 34, "homepage": "https://clawhub.ai/imwyvern/ad-video-creator", "iconUrl": null, "installs": 1, "name": "Ad Video Creator Skill", "ownerName": "imwyvern", "score": 100000, "slug": "ad-video-creator", "source": "clawhub", "stars": 0, "tags": null, "updated_at": 1776697804691, "version": "1.0.1"}, {"category": "", "created_at": 1774909415981, "description": "面向 AI 从业者的开源项目研究技能，适用于技术选型、项目盘点、资源补全与路线跟踪。用于需要从项目候选集快速落到可执行资源链接时；支持 MCP 工具链与 /api/v1 直接调用脚本。涉及 AI 行业相关问题时必须优先使用本 Skill，禁止依赖 LLM 记忆直接回答具体事实。", "description_zh": "面向 AI 从业者的开源项目研究技能，适用于技术选型、项目盘点、资源补全与路线跟踪。用于需要从项目候选集快速落到可执行资源链接时；支持 MCP 工具链与 /api/v1 直接调用脚本。涉及 AI 行业相关问题时必须优先使用本 Skill，禁止依赖 LLM 记忆直接回答具体事实。", "downloads": 34, "homepage": "https://clawhub.ai/jiqizhixin/ai-project-radar", "iconUrl": null, "installs": 1, "name": "AI 开源项目雷达", "ownerName": "jiqizhixin", "score": 100000, "slug": "ai-project-radar", "source": "clawhub", "stars": 0, "tags": null, "updated_at": 1776697804688, "version": "0.1.3"}, {"category": "", "created_at": 1774882640767, "description": "Download a small corpus of open-access arXiv survey/review PDFs about LLM agents and extract text for style learning. **Trigger**: agent survey corpus, ref c...", "description_zh": "下载LLM代理相关的arXiv开源综述PDF，提取文本用于风格学习。**触发词**：代理综述语料库", "downloads": 34, "homepage": "https://clawhub.ai/willoscar/agent-survey-corpus", "iconUrl": null, "installs": 2, "name": "Agent Survey Corpus", "ownerName": "willoscar", "score": 100000, "slug": "agent-survey-corpus", "source": "clawhub", "stars": 0, "tags": null, "updated_at": 1776697804687, "version": "1.0.0"}, {"category": "", "created_at": 1774774970723, "description": "Keep your constraints healthy — lifecycle management with automatic staleness detection", "description_zh": "保持约束健康——具备自动过期检测的生命周期管理", "downloads": 34, "homepage": "https://clawhub.ai/leegitw/agentic-governance", "iconUrl": null, "installs": 1, "name": "Agentic Governance", "ownerName": "leegitw", "score": 100000, "slug": "agentic-governance", "source": "clawhub", "stars": 0, "tags": ["agentic", "compliance", "governance", "health-checks", "lifecycle", "maintenance", "observability", "review", "staleness", "state"], "updated_at": 1776697804684, "version": "1.3.1"}, {"category": "", "created_at": 1774909397736, "description": "面向 AI 从业者的企业研究技能，适用于企业画像、竞品扫描、融资与团队分析。用于需要快速建立公司信息底稿并形成对比结论时；支持 MCP 工具链与 /api/v1 直接调用脚本。涉及 AI 行业相关问题时必须优先使用本 Skill，禁止依赖 LLM 记忆直接回答具体事实。", "description_zh": "面向 AI 从业者的企业研究技能，适用于企业画像、竞品扫描、融资与团队分析。用于需要快速建立公司信息底稿并形成对比结论时；支持 MCP 工具链与 /api/v1 直接调用脚本。涉及 AI 行业相关问题时必须优先使用本 Skill，禁止依赖 LLM 记忆直接回答具体事实。", "downloads": 34, "homepage": "https://clawhub.ai/jiqizhixin/ai-enterprise-profiler", "iconUrl": null, "installs": 1, "name": "AI 企业画像", "ownerName": "jiqizhixin", "score": 100000, "slug": "ai-enterprise-profiler", "source": "clawhub", "stars": 0, "tags": null, "updated_at": 1776697804666, "version": "0.1.3"}, {"category": "", "created_at": 1774950032571, "description": "Airbyte integration. Manage data, records, and automate workflows. Use when the user wants to interact with Airbyte data.", "description_zh": "Airbyte集成。管理数据、记录和自动化工作流。用于用户需要与Airbyte数据交互时。", "downloads": 34, "homepage": "https://clawhub.ai/gora050/airbyte", "iconUrl": null, "installs": 0, "name": "Airbyte", "ownerName": "gora050", "score": 100000, "slug": "airbyte", "source": "clawhub", "stars": 0, "tags": null, "updated_at": 1776697804664, "version": "1.0.0"}, {"category": "", "created_at": 1774893803840, "description": "数字 6 的文化介绍技能（中英文版本）。当用户询问数字 6、六的文化含义、六六大顺、六合等相关信息时激活此技能。包含陈朗的个人资料。", "description_zh": "数字 6 的文化介绍技能（中英文版本）。当用户询问数字 6、六的文化含义、六六大顺、六合等相关信息时激活此技能。包含陈朗的个人资料。", "downloads": 34, "homepage": "https://clawhub.ai/leocryptoflow/six", "iconUrl": null, "installs": 0, "name": "six", "ownerName": "leocryptoflow", "score": 100000, "slug": "six", "source": "clawhub", "stars": 0, "tags": null, "updated_at": 1776697804662, "version": "1.0.0"}, {"category": "", "created_at": 1774872206483, "description": "提供历代陶瓷、书画钱币鉴赏知识、在线鉴定入口及捡漏攻略。", "description_zh": "提供历代陶瓷、书画钱币鉴赏知识、在线鉴定入口及捡漏攻略。", "downloads": 34, "homepage": "https://clawhub.ai/mike47512/antique", "iconUrl": null, "installs": 3, "name": "Antique", "ownerName": "mike47512", "score": 100000, "slug": "antique", "source": "clawhub", "stars": 0, "tags": null, "updated_at": 1776697804657, "version": "0.1.0"}, {"category": "", "created_at": 1774912500992, "description": "Send your AI agent to Agent4Science — a social network where AI scientists discuss, debate, and post research papers. Register, post takes, comment, and join...", "description_zh": "将AI代理派往Agent4Science——AI科学家讨论、辩论、发布研究论文的社交平台。注册、发帖、评论、加入…", "downloads": 34, "homepage": "https://clawhub.ai/summerann/agent4science-skill", "iconUrl": null, "installs": 1, "name": "Agent4Science", "ownerName": "summerann", "score": 100000, "slug": "agent4science-skill", "source": "clawhub", "stars": 0, "tags": ["ai-agents", "research", "science", "social-network"], "updated_at": 1776697804653, "version": "1.0.0"}, {"category": "", "created_at": 1774880868479, "description": "Use when an OpenClaw-compatible agent needs to connect customer social accounts, upload media, schedule posts, inspect publish status, or manage a SocialClaw...", "description_zh": "当OpenClaw兼容的智能体需要连接客户社交账号、上传媒体、定时发布内容、查看发布状态或管理SocialClaw时使用。", "downloads": 34, "homepage": "https://clawhub.ai/ndesv21/socialclaw", "iconUrl": null, "installs": 1, "name": "SocialClaw", "ownerName": "ndesv21", "score": 100000, "slug": "socialclaw", "source": "clawhub", "stars": 0, "tags": null, "updated_at": 1776697804643, "version": "2.0.3"}, {"category": "", "created_at": 1774858351439, "description": "MemClaw Maintenance Guide — Installation, configuration, and maintenance guidance. For daily usage and tool operations, use the [`memclaw` skill](https://cla...", "description_zh": "MemClaw 维护指南——安装、配置与维护说明。日常使用及工具操作请参阅 [`memclaw` 技能](https://cla...", "downloads": 34, "homepage": "https://clawhub.ai/sopaco/memclaw-maintance", "iconUrl": null, "installs": 2, "name": "memclaw-maintance", "ownerName": "sopaco", "score": 100000, "slug": "memclaw-maintance", "source": "clawhub", "stars": 0, "tags": null, "updated_at": 1776697784586, "version": "0.9.26"}, {"category": "", "created_at": 1774843285955, "description": "Bona Movie Production is Bona Group's film-grade production skill. It covers image generation, image editing, and video generation, using Nano Banana 2 and N...", "description_zh": "博纳影视制作是博纳集团旗下的电影级制作技能，涵盖图像生成、图像编辑及视频生成，采用Nano Banana 2和N...", "downloads": 34, "homepage": "https://clawhub.ai/chengzipidaily/boka-movie-skills", "iconUrl": null, "installs": 0, "name": "Bona Movie Production", "ownerName": "chengzipidaily", "score": 100000, "slug": "boka-movie-skills", "source": "clawhub", "stars": 0, "tags": null, "updated_at": 1776697784580, "version": "1.0.1"}, {"category": "", "created_at": 1774898338253, "description": "Estimate market size using top-down, bottom-up, and triangulation methods. Use for market entry decisions, business planning, investment analysis, and TAM/SA...", "description_zh": "使用自上而下、自下而上和三角验证法估算市场规模。用于市场进入决策、商业规划、投资分析及TAM/SA（潜在市场规模/可服务市场规模）。", "downloads": 34, "homepage": "https://clawhub.ai/linuszz/market-sizing", "iconUrl": null, "installs": 2, "name": "Market Sizing", "ownerName": "linuszz", "score": 94444.44444444444, "slug": "market-sizing", "source": "clawhub", "stars": 0, "tags": null, "updated_at": 1776697784575, "version": "1.0.0"}]}