{"page": 600, "total_pages": 685, "total": 34217, "skills": [{"category": "", "created_at": 1774956633325, "description": "商业闭环场景分析与评估工具；当用户需要进行Gate0战略红线过滤、Gate1量化评估打分或蓝军审核时使用", "description_zh": "商业闭环场景分析与评估工具；当用户需要进行Gate0战略红线过滤、Gate1量化评估打分或蓝军审核时使用", "downloads": 33, "homepage": "https://clawhub.ai/yyf1986/scene-analysis", "iconUrl": null, "installs": 2, "name": "scene-analysis", "ownerName": "yyf1986", "score": 100000, "slug": "scene-analysis", "source": "clawhub", "stars": 0, "tags": null, "updated_at": 1776697969997, "version": "1.0.0"}, {"category": "", "created_at": 1774901358972, "description": "SaaS Growth Playbook — Complete SaaS growth strategies for startups and scale-ups. Covers Product-Led Growth (PLG), Sales-Led Growth (SLG), customer success,...", "description_zh": "SaaS增长手册——为初创及扩张期企业提供的完整SaaS增长策略。涵盖产品驱动增长（PLG）、销售驱动增长（SLG）、客户成功等内容。", "downloads": 33, "homepage": "https://clawhub.ai/gingiris/saas-growth-playbook", "iconUrl": null, "installs": 1, "name": "SaaS Growth Playbook", "ownerName": "gingiris", "score": 100000, "slug": "saas-growth-playbook", "source": "clawhub", "stars": 0, "tags": null, "updated_at": 1776697969983, "version": "1.0.0"}, {"category": "", "created_at": 1774956752802, "description": "VMware NSX DFW microsegmentation and security operations: distributed firewall policies and rules, security groups, VM tags, Traceflow packet tracing, and ID...", "description_zh": "VMware NSX DFW 微分割安全运维：分布式防火墙策略与规则、安全组、VM 标签、Traceflow 包追踪、ID...", "downloads": 33, "homepage": "https://clawhub.ai/zw008/vmware-nsx-security", "iconUrl": null, "installs": 3, "name": "Vmware Nsx Security", "ownerName": "zw008", "score": 100000, "slug": "vmware-nsx-security", "source": "clawhub", "stars": 0, "tags": null, "updated_at": 1776697969978, "version": "1.3.0"}, {"category": "", "created_at": 1774948144255, "description": "Use aipexbase-cli to operate AiPexBase BaaS service, supporting database operations, application management, user authentication, etc.", "description_zh": "使用 aipexbase-cli 操作 AiPexBase BaaS 服务，支持数据库操作、应用管理、用户认证等功能。", "downloads": 33, "homepage": "https://clawhub.ai/kuafuai/aipexbase-cli", "iconUrl": null, "installs": 2, "name": "aipexbase-cli", "ownerName": "kuafuai", "score": 100000, "slug": "aipexbase-cli", "source": "clawhub", "stars": 0, "tags": null, "updated_at": 1776697969964, "version": "1.0.0"}, {"category": "", "created_at": 1774844296801, "description": "五彩 (WuCai) 是 AI Agent 的个人知识库与第二大脑。它允许 AI 检索、总结和管理用户在网页上记录的划线、批注、全文剪藏及个人日记。 核心能力：跨区域语义搜索、时间区间知识追溯 (range lookup)、以及基于划线的精准内容问答。 它是 AI 了解用户兴趣偏好、进行每日知识复盘、以及在网页上...", "description_zh": "五彩 (WuCai) 是 AI Agent 的个人知识库与第二大脑。它允许 AI 检索、总结和管理用户在网页上记录的划线、批注、全文剪藏及个人日记。 核心能力：跨区域语义搜索、时间区间知识追溯 (range lookup)、以及基于划线的精准内容问答。 它是 AI 了解用户兴趣偏好、进行每日知识复盘、以及在网页上...", "downloads": 33, "homepage": "https://clawhub.ai/makediff/wucai", "iconUrl": null, "installs": 3, "name": "WuCai", "ownerName": "makediff", "score": 100000, "slug": "wucai", "source": "clawhub", "stars": 0, "tags": null, "updated_at": 1776697969957, "version": "26.3.37"}, {"category": "", "created_at": 1774904454269, "description": "翻译文本或者翻译文件内容的工具，支持多种语言翻译。使用方式：trans 命令", "description_zh": "翻译文本或者翻译文件内容的工具，支持多种语言翻译。使用方式：trans 命令", "downloads": 33, "homepage": "https://clawhub.ai/abcnull/mac-trans", "iconUrl": null, "installs": 1, "name": "mac trans", "ownerName": "abcnull", "score": 100000, "slug": "mac-trans", "source": "clawhub", "stars": 0, "tags": null, "updated_at": 1776697969940, "version": "1.0.1"}, {"category": "", "created_at": 1774905174575, "description": "Disposable VMs for safe testing — full sudo, Docker, Go, nested KVM, destroy and recreate. Use when you need a sandbox to build, test, or break things withou...", "description_zh": "一次性虚拟机用于安全测试——支持完整 sudo、Docker、Go 及嵌套 KVM，可销毁重建。适用于需要沙盒进行构建、测试或破坏性操作的场景……", "downloads": 33, "homepage": "https://clawhub.ai/jpoley/vagrant-skill", "iconUrl": null, "installs": 1, "name": "Vagrant Skill", "ownerName": "jpoley", "score": 100000, "slug": "vagrant-skill", "source": "clawhub", "stars": 0, "tags": null, "updated_at": 1776697969936, "version": "0.7.4"}, {"category": "", "created_at": 1774882458561, "description": "Convert short video moments into GIF-friendly snippets for demos, support, product walkthroughs, and social sharing. Use when a team needs lightweight motion...", "description_zh": "将短视频片段转换为GIF格式，用于演示、支持、产品演示和社交分享。适用于团队需要轻量级动态内容的场景。", "downloads": 33, "homepage": "https://clawhub.ai/leooooooow/video-gif-converter", "iconUrl": null, "installs": 2, "name": "Video GIF Converter", "ownerName": "leooooooow", "score": 100000, "slug": "video-gif-converter", "source": "clawhub", "stars": 0, "tags": null, "updated_at": 1776697969931, "version": "1.0.0"}, {"category": "", "created_at": 1774864656037, "description": "Chatwork integration. Manage data, records, and automate workflows. Use when the user wants to interact with Chatwork data.", "description_zh": "Chatwork集成。管理数据、记录并自动化工作流程。当用户需要与Chatwork数据交互时使用。", "downloads": 33, "homepage": "https://clawhub.ai/membranedev/chatwork", "iconUrl": null, "installs": 0, "name": "Chatwork", "ownerName": "membranedev", "score": 100000, "slug": "chatwork", "source": "clawhub", "stars": 0, "tags": null, "updated_at": 1776697969929, "version": "1.0.0"}, {"category": "", "created_at": 1774875239406, "description": "Comprehensive apparel and accessories industry suppliers guide for international buyers – provides detailed information about China's garment, footwear, bag,...", "description_zh": "为国际买家提供的综合服装及配饰行业供应商指南 – 提供中国服装、鞋类、箱包等详细信息...", "downloads": 33, "homepage": "https://clawhub.ai/findhappy7/china-apparel-and-accessories-suppliers", "iconUrl": null, "installs": 2, "name": "China Apparel & Accessories Suppliers", "ownerName": "findhappy7", "score": 100000, "slug": "china-apparel-and-accessories-suppliers", "source": "clawhub", "stars": 0, "tags": null, "updated_at": 1776697969923, "version": "1.0.1"}, {"category": "", "created_at": 1775036787249, "description": "", "description_zh": "BytePlan 数据平台 API 封装。提供登录认证、模型查询、数据获取等接口。可被 byteplan-analysis、byteplan-excel、byteplan-html、byteplan-ppt、byteplan-video、byteplan-word 等技能依赖使用。", "downloads": 33, "homepage": "https://clawhub.ai/user_801e2aaa/byteplan-api", "iconUrl": null, "installs": 0, "name": "byteplan-api", "ownerName": "user_801e2aaa", "score": 100000, "slug": "byteplan-api", "source": "community", "stars": 0, "tags": null, "updated_at": 1776697969909, "version": "1.0.4"}, {"category": "", "created_at": 1774902733606, "description": "Convert WeChat Official Account (微信公众号) articles to clean Markdown files with locally downloaded images.", "description_zh": "Convert WeChat Official Account (微信公众号) articles to clean Markdown files with locally downloaded images.", "downloads": 33, "homepage": "https://clawhub.ai/soar999/wechat-article-for-ai", "iconUrl": null, "installs": 3, "name": "Wechat Article For Ai", "ownerName": "soar999", "score": 100000, "slug": "wechat-article-for-ai", "source": "clawhub", "stars": 0, "tags": null, "updated_at": 1776697969896, "version": "1.0.0"}, {"category": "", "created_at": 1774881387514, "description": "中国工作日与法定节假日查询，专为职场场景设计。Use when the user asks whether a specific date is a workday or holiday in China, needs makeup-workday (补班) reminders, wants to count w...", "description_zh": "中国工作日与法定节假日查询，专为职场场景设计。Use when the user asks whether a specific date is a workday or holiday in China, needs makeup-workday (补班) reminders, wants to count w...", "downloads": 33, "homepage": "https://clawhub.ai/tobewin/china-workday", "iconUrl": null, "installs": 4, "name": "China Workday", "ownerName": "tobewin", "score": 100000, "slug": "china-workday", "source": "clawhub", "stars": 0, "tags": null, "updated_at": 1776697969885, "version": "1.0.0"}, {"category": "", "created_at": 1774872243122, "description": "适用于用户希望围绕 BeautyCam 进行自拍优化、人像修饰、滤镜选择、内容出图与移动创作时使用。", "description_zh": "适用于用户希望围绕 BeautyCam 进行自拍优化、人像修饰、滤镜选择、内容出图与移动创作时使用。", "downloads": 33, "homepage": "https://clawhub.ai/mikeclaw007/beautycam", "iconUrl": null, "installs": 0, "name": "BeautyCam", "ownerName": "mikeclaw007", "score": 100000, "slug": "beautycam", "source": "clawhub", "stars": 0, "tags": null, "updated_at": 1776697969872, "version": "0.1.0"}, {"category": "", "created_at": 1774893612752, "description": "Reverse-engineers high-quality, reusable prompts from messy conversations, vague requests, or rough user descriptions. Use this skill whenever a user: wants...", "description_zh": "从混乱对话、模糊需求或粗略描述中逆向提取高质量、可复用的提示词。当用户需要...时使用此技能。", "downloads": 33, "homepage": "https://clawhub.ai/goutham-nekkalapu/prompt-archeologist", "iconUrl": null, "installs": 3, "name": "Propmt Archeologist", "ownerName": "goutham-nekkalapu", "score": 100000, "slug": "prompt-archeologist", "source": "clawhub", "stars": 0, "tags": null, "updated_at": 1776697969841, "version": "1.0.0"}, {"category": "", "created_at": 1774873656379, "description": "Determine unified vs separated business entities. Use for portfolio management, strategic planning, and restructuring decisions.", "description_zh": "确定统一与分离的业务实体。用于投资组合管理、战略规划和重组决策。", "downloads": 33, "homepage": "https://clawhub.ai/linuszz/business-definition", "iconUrl": null, "installs": 1, "name": "Business Definition", "ownerName": "linuszz", "score": 100000, "slug": "business-definition", "source": "clawhub", "stars": 0, "tags": null, "updated_at": 1776697969832, "version": "1.0.0"}, {"category": "", "created_at": 1774912557622, "description": "Barcode Lookup integration. Manage data, records, and automate workflows. Use when the user wants to interact with Barcode Lookup data.", "description_zh": "条形码查询集成。管理数据与记录，实现工作流自动化。用于用户需要交互条形码查询数据时。", "downloads": 33, "homepage": "https://clawhub.ai/gora050/barcode-lookup", "iconUrl": null, "installs": 0, "name": "Barcode Lookup", "ownerName": "gora050", "score": 100000, "slug": "barcode-lookup", "source": "clawhub", "stars": 0, "tags": null, "updated_at": 1776697969822, "version": "1.0.0"}, {"category": "", "created_at": 1774952291350, "description": "Host security hardening and risk-tolerance configuration for OpenClaw deployments. Use when a user asks for security audits, firewall/SSH/update hardening, r...", "description_zh": "针对 OpenClaw 部署的主机安全加固与风险容忍配置。适用于用户请求安全审计、防火墙/SSH/系统更新加固、风险评估等场景。", "downloads": 33, "homepage": "https://clawhub.ai/rmbell09-lang/lucky-healthcheck", "iconUrl": null, "installs": 0, "name": "Lucky Healthcheck", "ownerName": "rmbell09-lang", "score": 100000, "slug": "lucky-healthcheck", "source": "clawhub", "stars": 0, "tags": ["hardening", "healthcheck", "openclaw", "security"], "updated_at": 1776697969810, "version": "1.0.1"}, {"category": "", "created_at": 1774845544615, "description": "AI Video Enhancement - Upscale video resolution, improve quality, denoise, sharpen, enhance low-quality videos to HD/4K. Supports local video files, remote U...", "description_zh": "AI视频增强 - 提升视频分辨率，改善画质，降噪锐化，将低质量视频增强至HD/4K。支持本地视频文件及远程链接...", "downloads": 33, "homepage": "https://clawhub.ai/alouhaou/video-enhancement", "iconUrl": null, "installs": 2, "name": "Video Enhancement", "ownerName": "alouhaou", "score": 78571.42857142857, "slug": "video-enhancement", "source": "clawhub", "stars": 0, "tags": null, "updated_at": 1776697969793, "version": "1.0.1"}, {"category": "", "created_at": 1774864985731, "description": "Production-ready Master Data Intelligent Matching System. Use when: matching vendor/customer/employee records, deduplicating master data, resolving OCR-extra...", "description_zh": "生产级主数据智能匹配系统。适用场景：供应商/客户/员工记录匹配、主数据去重、OCR提取结果解析等。", "downloads": 33, "homepage": "https://clawhub.ai/woaim65/master-data-matching", "iconUrl": null, "installs": 1, "name": "Master Data Matching", "ownerName": "woaim65", "score": 78571.42857142857, "slug": "master-data-matching", "source": "clawhub", "stars": 0, "tags": null, "updated_at": 1776697969770, "version": "1.0.0"}, {"category": "", "created_at": 1774862346055, "description": "Comprehensive electronic components industry suppliers guide for international buyers – provides detailed information about China's semiconductor, passive co...", "description_zh": "面向国际买家的电子元器件行业供应商综合指南——详细介绍中国半导体、无源元件等领域的供应商信息。", "downloads": 33, "homepage": "https://clawhub.ai/findhappy7/china-electronic-components-suppliers", "iconUrl": null, "installs": 2, "name": "China Electronic Components Suppliers", "ownerName": "findhappy7", "score": 78571.42857142857, "slug": "china-electronic-components-suppliers", "source": "clawhub", "stars": 0, "tags": null, "updated_at": 1776697969758, "version": "1.0.1"}, {"category": "", "created_at": 1774895349150, "description": "Test, match, extract, replace, explain, and validate regular expressions from the command line. Includes a library of 25+ common patterns (email, URL, IP, ph...", "description_zh": "在命令行中测试、匹配、提取、替换、解释并验证正则表达式，包含25+常见模式库（邮件、URL、IP、电话等）。", "downloads": 33, "homepage": "https://clawhub.ai/johnnywang2001/regex-toolkit", "iconUrl": null, "installs": 0, "name": "Regex Toolkit", "ownerName": "johnnywang2001", "score": 78571.42857142857, "slug": "regex-toolkit", "source": "clawhub", "stars": 0, "tags": null, "updated_at": 1776697969743, "version": "1.0.0"}, {"category": "", "created_at": 1774853992437, "description": "Reference tool for devtools — covers intro, quickstart, patterns and more. Quick lookup for Profit concepts, best practices, and implementation patterns.", "description_zh": "DevTools 参考工具，涵盖入门、快速启动、模式等内容，快速查询 Profit 概念、最佳实践和实现模式。", "downloads": 33, "homepage": "https://clawhub.ai/bytesagain1/profit", "iconUrl": null, "installs": 0, "name": "Profit", "ownerName": "bytesagain1", "score": 78571.42857142857, "slug": "profit", "source": "clawhub", "stars": 0, "tags": null, "updated_at": 1776697969740, "version": "2.0.1"}, {"category": "", "created_at": 1774887349906, "description": "Build, debug, and optimize RealityKit scenes for visionOS, including entity/component setup, rendering, animation, physics, audio, input, attachments, and cu...", "description_zh": "构建、调试和优化 visionOS 的 RealityKit 场景，包括实体/组件设置、渲染、动画、物理、音频、输入、附件等功能。", "downloads": 33, "homepage": "https://clawhub.ai/tomkrikorian/realitykit-visionos-developer", "iconUrl": null, "installs": 1, "name": "Realitykit Visionos Developer", "ownerName": "tomkrikorian", "score": 78571.42857142857, "slug": "realitykit-visionos-developer", "source": "clawhub", "stars": 0, "tags": null, "updated_at": 1776697969738, "version": "0.1.0"}, {"category": "", "created_at": 1774917389072, "description": "Browser automation via Playwright MCP. Navigate websites, click elements, fill forms, take screenshots, extract data, and debug real browser workflows. Use w...", "description_zh": "通过 Playwright MCP 实现浏览器自动化。可导航网站、点击元素、填写表单、截图、提取数据及调试真实浏览器工作流。使用 w...", "downloads": 33, "homepage": "https://clawhub.ai/linbo405/xiaomolong-playwright", "iconUrl": null, "installs": 5, "name": "Playwright by Xiaomolong", "ownerName": "linbo405", "score": 100000, "slug": "xiaomolong-playwright", "source": "clawhub", "stars": 0, "tags": ["automation", "browser", "scraping", "web"], "updated_at": 1776697969734, "version": "1.0.0"}, {"category": "", "created_at": 1774872044090, "description": "自动获取站酷（ZCOOL）首页热门设计作品（带链接、分类、亮点描述、趋势统计）", "description_zh": "自动获取站酷（ZCOOL）首页热门设计作品（带链接、分类、亮点描述、趋势统计）", "downloads": 33, "homepage": "https://clawhub.ai/heihu123/zcool-daily", "iconUrl": null, "installs": 1, "name": "站酷每日推荐日报", "ownerName": "heihu123", "score": 100000, "slug": "zcool-daily", "source": "clawhub", "stars": 0, "tags": null, "updated_at": 1776697969729, "version": "1.0.7"}, {"category": "", "created_at": 1774950945638, "description": "DDD 六边形架构设计与开发技能包。包含：领域层设计（Aggregate/Entity/CommandEntity/ValueObject/EnumVO）、Domain Service（策略模式/责任链模式/模板方法）、Repository、Port适配器、Case编排层、Trigger触发层、Infrastru...", "description_zh": "DDD 六边形架构设计与开发技能包。包含：领域层设计（Aggregate/Entity/CommandEntity/ValueObject/EnumVO）、Domain Service（策略模式/责任链模式/模板方法）、Repository、Port适配器、Case编排层、Trigger触发层、Infrastru...", "downloads": 33, "homepage": "https://clawhub.ai/fuzhengwei/xfg-ddd-skills", "iconUrl": null, "installs": 1, "name": "xfg-ddd-skills", "ownerName": "fuzhengwei", "score": 100000, "slug": "xfg-ddd-skills", "source": "clawhub", "stars": 0, "tags": null, "updated_at": 1776697969720, "version": "2.2.0"}, {"category": "", "created_at": 1774951497085, "description": "Weekly food cost variance diagnostic for restaurant and franchise operators. Four-lever system that catches COGS drift weekly instead of monthly — ordering,...", "description_zh": "针对餐厅及加盟商的每周食品成本差异诊断。四杠杆系统，按周捕捉COGS波动，而非月度——包括订货、...", "downloads": 33, "homepage": "https://clawhub.ai/blake27mc/qsr-food-cost-diagnostic", "iconUrl": null, "installs": 0, "name": "Qsr Food Cost Diagnostic", "ownerName": "blake27mc", "score": 100000, "slug": "qsr-food-cost-diagnostic", "source": "clawhub", "stars": 0, "tags": null, "updated_at": 1776697969713, "version": "1.0.1"}, {"category": "", "created_at": 1774859962373, "description": "Analyze music audio files to extract chord progressions, key signature, tempo, and song structure. Use when user wants to identify chords, analyze a song's h...", "description_zh": "分析音乐音频文件，提取和弦进行、调号、节拍及歌曲结构。适用于用户需要识别和弦、分析歌曲和声特征等场景。", "downloads": 33, "homepage": "https://clawhub.ai/ctwww/chord-analyzer", "iconUrl": null, "installs": 0, "name": "Chord Analyzer", "ownerName": "ctwww", "score": 100000, "slug": "chord-analyzer", "source": "clawhub", "stars": 0, "tags": null, "updated_at": 1776697969711, "version": "1.0.0"}, {"category": "", "created_at": 1774890329934, "description": "Pack and analyze codebases into AI-friendly single files using Repomix. Use when the user wants to explore repositories, analyze code structure, find pattern...", "description_zh": "{\n  \"answer\": \"使用 Repomix 将代码库打包并分析为 AI 友好的单文件。适用于探索仓库、分析代码结构、查找模式等场景。\"\n}", "downloads": 33, "homepage": "https://clawhub.ai/yamadashy/repomix", "iconUrl": null, "installs": 2, "name": "Repomix", "ownerName": "yamadashy", "score": 100000, "slug": "repomix", "source": "clawhub", "stars": 0, "tags": ["ai-context", "code-analysis", "code-explorer", "codebase", "repository"], "updated_at": 1776697969699, "version": "1.0.1"}, {"category": "", "created_at": 1774835071070, "description": "提供各大海外电商代下单、转运路线配置及品质关税指引。", "description_zh": "提供各大海外电商代下单、转运路线配置及品质关税指引。", "downloads": 33, "homepage": "https://clawhub.ai/codenova58/shopping-agent", "iconUrl": null, "installs": 0, "name": "Shopping Agent", "ownerName": "codenova58", "score": 100000, "slug": "shopping-agent", "source": "clawhub", "stars": 0, "tags": null, "updated_at": 1776697969686, "version": "0.1.0"}, {"category": "", "created_at": 1774863551594, "description": "Recall and write workspace memory for OpenClaw agents using MEMORY.md, memory/YYYY-MM-DD.md, memory_search, and memory_get. Use when the user asks about prio...", "description_zh": "为 OpenClaw 代理利用 MEMORY.md、memory/YYYY-MM-DD.md、memory_search 和 memory_get 回读写工作区记忆。当用户询问优先级时使用。", "downloads": 33, "homepage": "https://clawhub.ai/omaression/atomic-memory-manager", "iconUrl": null, "installs": 1, "name": "Atomic Memory Manager", "ownerName": "omaression", "score": 100000, "slug": "atomic-memory-manager", "source": "clawhub", "stars": 0, "tags": null, "updated_at": 1776697969682, "version": "1.0.0-alpha"}, {"category": "", "created_at": 1774868289872, "description": "SaaS churn and retention analysis: cohort-based churn rates, retention curves, revenue churn vs logo churn, at-risk customer identification, expansion vs con...", "description_zh": "SaaS 流失与留存分析：群组流失率、留存曲线、收入流失与客户流失对比、风险客户识别、扩展与收缩...", "downloads": 33, "homepage": "https://clawhub.ai/samledger67-dotcom/saas-churn-analysis", "iconUrl": null, "installs": 2, "name": "SaaS Churn Analysis", "ownerName": "samledger67-dotcom", "score": 100000, "slug": "saas-churn-analysis", "source": "clawhub", "stars": 0, "tags": null, "updated_at": 1776697969662, "version": "1.0.0"}, {"category": "", "created_at": 1774866435983, "description": "Raise and battle a unique lobster pet with evolving personality. Hatch, feed, patrol, fight other lobsters in PvP. Each lobster has a soul with distinct pers...", "description_zh": "养育并战斗独特的龙虾宠物，其个性会不断进化。孵化、喂食、巡逻，与其他玩家的龙虾进行PvP对战。每只龙虾都拥有独特灵魂与个性…", "downloads": 33, "homepage": "https://clawhub.ai/2019-02-18/claw-fight", "iconUrl": null, "installs": 0, "name": "ClawFight", "ownerName": "2019-02-18", "score": 76744.18604651163, "slug": "claw-fight", "source": "clawhub", "stars": 0, "tags": null, "updated_at": 1776697969649, "version": "1.0.3"}, {"category": "", "created_at": 1774864384683, "description": "Local web search without API Key. Supports Bing, DuckDuckGo, Yandex multi-engine search with built-in cache and automatic failover. Use when users need to se...", "description_zh": "无需API密钥的本地网页搜索，支持Bing、DuckDuckGo、Yandex多引擎搜索，内置缓存与自动故障转移，适用于用户需要搜索网络信息的场景。", "downloads": 33, "homepage": "https://clawhub.ai/lnblxj/web-search-local", "iconUrl": null, "installs": 1, "name": "Web Search Local", "ownerName": "lnblxj", "score": 76744.18604651163, "slug": "web-search-local", "source": "clawhub", "stars": 0, "tags": null, "updated_at": 1776697969636, "version": "0.1.1"}, {"category": "", "created_at": 1774848928197, "description": "Reference tool for devtools — covers intro, quickstart, patterns and more. Quick lookup for Logrotate concepts, best practices, and implementation patterns.", "description_zh": "开发工具参考手册，涵盖入门、快速开始、模式等内容。提供 Logrotate 概念、最佳实践及实现模式的快速查阅。", "downloads": 33, "homepage": "https://clawhub.ai/ckchzh/logrotate", "iconUrl": null, "installs": 0, "name": "Logrotate", "ownerName": "ckchzh", "score": 76744.18604651163, "slug": "logrotate", "source": "clawhub", "stars": 0, "tags": null, "updated_at": 1776697969584, "version": "2.0.3"}, {"category": "", "created_at": 1775732742205, "description": "", "description_zh": "OpenClaw（Ubuntu） 智谱AI / Z.ai Coding Plan 用量查询。当用户询问智谱、zhipu、z.ai 的配额、用量、剩余额度、Token限额时触发。", "downloads": 33, "homepage": "https://clawhub.ai/user_39299230/zhipu-usage", "iconUrl": null, "installs": 4, "name": "zhipu-usage", "ownerName": "user_39299230", "score": 76744.18604651163, "slug": "zhipu-usage", "source": "community", "stars": 0, "tags": null, "updated_at": 1776697969563, "version": "1.0.0"}, {"category": "", "created_at": 1774923386258, "description": "AI Hairstyle Try-On & Face Shape Analysis – Upload a photo to analyze face shape and instantly try recommended hairstyles. UID required.", "description_zh": "AI发型试戴与脸型分析——上传照片即可分析脸型并即时试戴推荐发型。需要UID。", "downloads": 33, "homepage": "https://clawhub.ai/guokai-01/tryhair-skill", "iconUrl": null, "installs": 1, "name": "TryHair AI", "ownerName": "guokai-01", "score": 76744.18604651163, "slug": "tryhair-skill", "source": "clawhub", "stars": 0, "tags": null, "updated_at": 1776697969558, "version": "0.1.4"}, {"category": "", "created_at": 1775735939557, "description": "", "description_zh": "梅花易数skill,支持时间、数字起卦，支持保存卦例。", "downloads": 33, "homepage": "https://clawhub.ai/user_9150f68e/meihuayi", "iconUrl": null, "installs": 1, "name": "MeiHuaYi", "ownerName": "user_9150f68e", "score": 100000, "slug": "meihuayi", "source": "community", "stars": 0, "tags": null, "updated_at": 1776697969554, "version": "1.0.5"}, {"category": "", "created_at": 1774858292443, "description": "本地文件转换技能，使用命令行工具实现 1000+ 格式互转。", "description_zh": "本地文件转换技能，使用命令行工具实现 1000+ 格式互转。", "downloads": 33, "homepage": "https://clawhub.ai/tiantian-pago/local-file-converter", "iconUrl": null, "installs": 1, "name": "Local File Converter", "ownerName": "tiantian-pago", "score": 100000, "slug": "local-file-converter", "source": "clawhub", "stars": 0, "tags": null, "updated_at": 1776697855529, "version": "1.0.3"}, {"category": "", "created_at": 1774922763782, "description": "IContact integration. Manage Persons, Organizations, Deals, Activities, Pipelines, Leads and more. Use when the user wants to interact with IContact data.", "description_zh": "IContact 集成。管理人员、组织、交易、活动、管道、潜在客户等。当用户需要与 IContact 数据交互时使用。", "downloads": 33, "homepage": "https://clawhub.ai/gora050/icontact", "iconUrl": null, "installs": 2, "name": "Icontact", "ownerName": "gora050", "score": 100000, "slug": "icontact", "source": "clawhub", "stars": 0, "tags": null, "updated_at": 1776697855525, "version": "1.0.0"}, {"category": "", "created_at": 1774857015526, "description": "Google Workflow: Prepare for your next meeting: agenda, attendees, and linked docs.", "description_zh": "Google 工作流：为下次会议做准备，包括议程、参会人员及关联文档。", "downloads": 33, "homepage": "https://clawhub.ai/googleworkspace-bot/gws-workflow-meeting-prep", "iconUrl": null, "installs": 0, "name": "Gws Workflow Meeting Prep", "ownerName": "googleworkspace-bot", "score": 100000, "slug": "gws-workflow-meeting-prep", "source": "clawhub", "stars": 0, "tags": null, "updated_at": 1776697855516, "version": "1.0.10"}, {"category": "", "created_at": 1774866024239, "description": "Builds lean SKILL.md-based skills: decides when a skill is justified, drafts a minimal skill skeleton, and audits existing skills for bloat and drift. Use wh...", "description_zh": "构建基于 SKILL.md 的精简技能：判断技能合理性，起草最小化框架，并审计现有技能以防臃肿与偏离。", "downloads": 33, "homepage": "https://clawhub.ai/zurbrick/lean-skill-builder", "iconUrl": null, "installs": 1, "name": "Skill Builder", "ownerName": "zurbrick", "score": 100000, "slug": "lean-skill-builder", "source": "clawhub", "stars": 0, "tags": null, "updated_at": 1776697855514, "version": "1.0.4"}, {"category": "", "created_at": 1774875638750, "description": "生成读起来像人写的技术博客，彻底去除 AI 味。当用户想写技术文章、博客、教程、总结、踩坑记录时使用。特别适合：写给开发者看的技术博客、个人技术总结、开源项目介绍、技术选型文章。凡是用户提到\"写博客\"、\"技术文章\"、\"去 AI 味\"、\"不像机器写的\"，必须触发此 skill。", "description_zh": "生成读起来像人写的技术博客，彻底去除 AI 味。当用户想写技术文章、博客、教程、总结、踩坑记录时使用。特别适合：写给开发者看的技术博客、个人技术总结、开源项目介绍、技术选型文章。凡是用户提到\"写博客\"、\"技术文章\"、\"去 AI 味\"、\"不像机器写的\"，必须触发此 skill。", "downloads": 33, "homepage": "https://clawhub.ai/njcx/human-tech-blog", "iconUrl": null, "installs": 2, "name": "human-tech-blog", "ownerName": "njcx", "score": 100000, "slug": "human-tech-blog", "source": "clawhub", "stars": 0, "tags": null, "updated_at": 1776697855511, "version": "1.0.0"}, {"category": "", "created_at": 1774871333690, "description": "AI-guided Life Cycle Assessment using openLCA. Connects to openLCA via IPC to help non-experts build product systems, run impact assessments, and interpret r...", "description_zh": "AI引导的生命周期评估（使用openLCA）通过IPC连接，帮助非专家构建产品系统、执行影响评估并解读结果。", "downloads": 33, "homepage": "https://clawhub.ai/manmeet3591/lca-skill", "iconUrl": null, "installs": 1, "name": "Lca Skill", "ownerName": "manmeet3591", "score": 100000, "slug": "lca-skill", "source": "clawhub", "stars": 0, "tags": null, "updated_at": 1776697855509, "version": "0.1.0"}, {"category": "", "created_at": 1774906676598, "description": "Query Hong Kong bus ETA/stop data and MTR heavy rail ETA from natural-language transport questions using official KMB/LWB, Citybus, and MTR open-data endpoin...", "description_zh": "通过官方九巴/城巴和港铁开放数据接口，利用自然语言处理技术查询香港巴士到站时间、站点数据及港铁重铁到站时间。", "downloads": 33, "homepage": "https://clawhub.ai/jimpang8/jim-hk-bus-eta", "iconUrl": null, "installs": 2, "name": "HK Bus ETA", "ownerName": "jimpang8", "score": 100000, "slug": "jim-hk-bus-eta", "source": "clawhub", "stars": 0, "tags": null, "updated_at": 1776697855499, "version": "0.2.0"}, {"category": "", "created_at": 1774844652520, "description": "Advanced expert in prompt engineering, custom instructions design, and prompt optimization for AI agents", "description_zh": "提示词工程、自定义指令设计及AI智能体提示词优化领域的资深专家。", "downloads": 33, "homepage": "https://clawhub.ai/jayareu/prompt-engineering-expert-jr", "iconUrl": null, "installs": 1, "name": "Prompt Engineering Expert", "ownerName": "jayareu", "score": 100000, "slug": "prompt-engineering-expert-jr", "source": "clawhub", "stars": 0, "tags": null, "updated_at": 1776697855496, "version": "0.1.1"}, {"category": "", "created_at": 1774953856270, "description": "设计并产出可发布的 Agent Skill（L4生产级）。用于从0到1创建技能、重构现有技能、做安全评审、建立评估与发布流程。", "description_zh": "设计并产出可发布的 Agent Skill（L4生产级）。用于从0到1创建技能、重构现有技能、做安全评审、建立评估与发布流程。", "downloads": 33, "homepage": "https://clawhub.ai/reffwu/l4-skill-forge", "iconUrl": null, "installs": 1, "name": "L4 Skill Forge", "ownerName": "reffwu", "score": 100000, "slug": "l4-skill-forge", "source": "clawhub", "stars": 0, "tags": null, "updated_at": 1776697855492, "version": "1.1.0"}, {"category": "", "created_at": 1774884396499, "description": "Find Hong Kong roadside parking meter (咪錶) locations and live vacancy using official Transport Department / DATA.GOV.HK datasets. Use when the user asks in C...", "description_zh": "Find Hong Kong roadside parking meter (咪錶) locations and live vacancy using official Transport Department / DATA.GOV.HK datasets. Use when the user asks in C...", "downloads": 33, "homepage": "https://clawhub.ai/jimpang8/hk-parking-meter-finder", "iconUrl": null, "installs": 6, "name": "HK Parking Meter Finder", "ownerName": "jimpang8", "score": 100000, "slug": "hk-parking-meter-finder", "source": "clawhub", "stars": 0, "tags": null, "updated_at": 1776697855491, "version": "1.0.1"}, {"category": "", "created_at": 1775121377515, "description": "", "description_zh": "Perform Google web and image searches — retrieve ranked web results with titles, snippets, and URLs, or search for images with country and language targeting, result count control, and page-based pagination.", "downloads": 33, "homepage": "https://clawhub.ai/user_2e47cd26/keyapi-googlesearch", "iconUrl": null, "installs": 2, "name": "keyapi-google-search", "ownerName": "user_2e47cd26", "score": 100000, "slug": "keyapi-googlesearch", "source": "community", "stars": 0, "tags": null, "updated_at": 1776697855487, "version": "1.0.1"}]}