{"page": 603, "total_pages": 685, "total": 34217, "skills": [{"category": "", "created_at": 1774860547907, "description": "US travel planning expert that helps users find the best deals on flights, hotels, rental cars, and vacation packages. Compares prices across 50+ booking pla...", "description_zh": "美国旅行规划专家，协助用户查找航班、酒店、租车及度假套餐的最优价格，对比50多个预订平台。", "downloads": 32, "homepage": "https://clawhub.ai/xiaoxty/travel-deals", "iconUrl": null, "installs": 2, "name": "Travel Deal Finder", "ownerName": "xiaoxty", "score": 33333.33333333333, "slug": "travel-deals", "source": "clawhub", "stars": 0, "tags": null, "updated_at": 1776742872004, "version": "0.1.0"}, {"category": "", "created_at": 1774954541565, "description": "Remove personal data from data brokers and people-search sites. Use when someone wants to remove their information from the internet, is being stalked, wants...", "description_zh": "从数据经纪人和人搜索网站删除个人信息。适用于希望从互联网移除个人信息、被跟踪、或有其他隐私需求的用户。", "downloads": 32, "homepage": "https://clawhub.ai/howtousehumans/privacy-cleanup", "iconUrl": null, "installs": 0, "name": "Privacy Cleanup", "ownerName": "howtousehumans", "score": 32653.061224489793, "slug": "privacy-cleanup", "source": "clawhub", "stars": 0, "tags": null, "updated_at": 1776742669745, "version": "1.0.0"}, {"category": "", "created_at": 1774952637641, "description": "代码清洁与整理，并添加增强用户理解的注释，让代码意图清晰、自解释，大幅降低阅读和维护的认知成本。", "description_zh": "代码清洁与整理，并添加增强用户理解的注释，让代码意图清晰、自解释，大幅降低阅读和维护的认知成本。", "downloads": 32, "homepage": "https://clawhub.ai/inksnowhailong/tvs-clean-code", "iconUrl": null, "installs": 1, "name": "tvs-clean-code", "ownerName": "inksnowhailong", "score": 33684.21052631579, "slug": "tvs-clean-code", "source": "clawhub", "stars": 0, "tags": null, "updated_at": 1776742369966, "version": "1.0.0"}, {"category": "", "created_at": 1774869986657, "description": "［何时使用］当用户需要计算企业内在价值时；当用户问\"这只股票值多少钱\"时；当进行多方法估值对比时；当需要敏感性分析时", "description_zh": "［何时使用］当用户需要计算企业内在价值时；当用户问\"这只股票值多少钱\"时；当进行多方法估值对比时；当需要敏感性分析时", "downloads": 32, "homepage": "https://clawhub.ai/lj22503/intrinsic-value-calculator", "iconUrl": null, "installs": 1, "name": "内在价值计算器", "ownerName": "lj22503", "score": 32653.061224489793, "slug": "intrinsic-value-calculator", "source": "clawhub", "stars": 0, "tags": ["dcf", "intrinsic-value", "valuation"], "updated_at": 1776740269655, "version": "2.0.0"}, {"category": "", "created_at": 1776159993366, "description": "", "description_zh": "通用内容构成方法论技能，提供清单法和样本法两种范式来生成任意类型的结构化成品。当用户要求生成文档、方案、代码、报告、演讲稿、商业计划书等结构化内容，且明确提到清单法、样本法、组件、样本、模板、模仿等关键词，或要求生成结构化成品但未指定生产方式时触发。此技能不替代领域专业技能，而是在用户选择后指导AI执行对应的构成工作流。", "downloads": 32, "homepage": "https://clawhub.ai/user_e02e04b8/compose-methods", "iconUrl": "https://cloudcache.tencent-cloud.com/qcloud/ui/static/other_external_resource/c5e5faab-b8e1-489d-a489-8b56ffc52c07.png", "installs": 9, "name": "Compose Methods", "ownerName": "user_e02e04b8", "score": 34408.602150537634, "slug": "compose-methods", "source": "community", "stars": 0, "tags": null, "updated_at": 1776738644558, "version": "1.0.0"}, {"category": "", "created_at": 1774868999022, "description": "When the user wants to design, optimize, or audit site navigation menus. Also use when the user mentions \"navigation,\" \"nav menu,\" \"header menu,\" \"site struc...", "description_zh": "当用户希望设计、优化或审核网站导航菜单时使用。若用户提及“导航”、“导航菜单”、“页眉菜单”或“网站结构”等词汇，亦适用。", "downloads": 32, "homepage": "https://clawhub.ai/kostja94/navigation-menu-generator", "iconUrl": null, "installs": 0, "name": "navigation-menu-generator", "ownerName": "kostja94", "score": 39506.17283950617, "slug": "navigation-menu-generator", "source": "clawhub", "stars": 0, "tags": null, "updated_at": 1776737771991, "version": "1.0.0"}, {"category": "", "created_at": 1774922391019, "description": "Chinese Four Pillars (BaZi 八字) chart interpretation—year, month, day, and hour pillars from birth data; Heavenly Stems, Earthly Branches, Five Elements, and...", "description_zh": "Chinese Four Pillars (BaZi 八字) chart interpretation—year, month, day, and hour pillars from birth data; Heavenly Stems, Earthly Branches, Five Elements, and...", "downloads": 32, "homepage": "https://clawhub.ai/codenova58/bazi-reading", "iconUrl": null, "installs": 0, "name": "Bazi Reading", "ownerName": "codenova58", "score": 39506.17283950617, "slug": "bazi-reading", "source": "clawhub", "stars": 0, "tags": null, "updated_at": 1776737684050, "version": "1.0.0"}, {"category": "", "created_at": 1774881007374, "description": "把课程作业说明、大纲要求或长段文字拆成带序号的学习任务清单（Markdown 勾选框）。 Use when: 学生要整理作业、拆 DDL、把老师发的要求变成待办；用户说「作业拆分」「学习任务清单」「大作业拆步」。 NOT for: 自动替写作业内容；代替日历 App 的提醒推送。", "description_zh": "把课程作业说明、大纲要求或长段文字拆成带序号的学习任务清单（Markdown 勾选框）。 Use when: 学生要整理作业、拆 DDL、把老师发的要求变成待办；用户说「作业拆分」「学习任务清单」「大作业拆步」。 NOT for: 自动替写作业内容；代替日历 App 的提醒推送。", "downloads": 32, "homepage": "https://clawhub.ai/wangshengli0421/tianshu-homework-split", "iconUrl": null, "installs": 3, "name": "Tianshu Homework Split", "ownerName": "wangshengli0421", "score": 34782.608695652176, "slug": "tianshu-homework-split", "source": "clawhub", "stars": 0, "tags": null, "updated_at": 1776737084369, "version": "1.0.0"}, {"category": "", "created_at": 1774906834895, "description": "职场助手 - 简历优化、面试准备、汇报撰写。触发词：优化简历、面试准备、写汇报", "description_zh": "职场助手 - 简历优化、面试准备、汇报撰写。触发词：优化简历、面试准备、写汇报", "downloads": 32, "homepage": "https://clawhub.ai/jiangtaoid/popeye-career", "iconUrl": null, "installs": 2, "name": "Popeye Career", "ownerName": "jiangtaoid", "score": 32989.69072164949, "slug": "popeye-career", "source": "clawhub", "stars": 0, "tags": null, "updated_at": 1776736970079, "version": "1.0.1"}, {"category": "", "created_at": 1774868282749, "description": "Reference tool for devtools — covers intro, quickstart, patterns and more. Quick lookup for Responsive Tester concepts, best practices, and implementation pa...", "description_zh": "开发者工具参考指南，涵盖简介、快速入门、模式等内容。支持快速查阅 Responsive Tester 的概念、最佳实践与实现方案。", "downloads": 32, "homepage": "https://clawhub.ai/xueyetianya/responsive-tester", "iconUrl": null, "installs": 0, "name": "Responsive Tester", "ownerName": "xueyetianya", "score": 32989.69072164949, "slug": "responsive-tester", "source": "clawhub", "stars": 0, "tags": null, "updated_at": 1776736970008, "version": "2.0.1"}, {"category": "", "created_at": 1774872429337, "description": "A shared emotional memo for relationships — records emotional moments and gently reminds before old wounds are touched", "description_zh": "一份共用的情感备忘录，记录情绪瞬间，并在触及旧伤前温柔提醒。", "downloads": 32, "homepage": "https://clawhub.ai/zj-zc/emotional-memo", "iconUrl": null, "installs": 0, "name": "emotional-memo", "ownerName": "zj-zc", "score": 45070.42253521127, "slug": "emotional-memo", "source": "clawhub", "stars": 0, "tags": null, "updated_at": 1776735169568, "version": "1.0.0"}, {"category": "", "created_at": 1776154521359, "description": "", "description_zh": "查询 Minimax Coding Plan 实时用量。显示本周/今日双窗口的已用、剩余、重置时间。当用户要求查询 Minimax 用量、查看 API 配额、检查 coding plan 剩余额度时使用。", "downloads": 32, "homepage": "https://clawhub.ai/user_127bb430/minimax-usage-plus", "iconUrl": "https://cloudcache.tencent-cloud.com/qcloud/ui/static/other_external_resource/a78375f1-773e-4817-b4f3-0557b6afd777.png", "installs": 4, "name": "Minimax 用量查询", "ownerName": "user_127bb430", "score": 45070.42253521127, "slug": "minimax-usage-plus", "source": "community", "stars": 0, "tags": null, "updated_at": 1776735071994, "version": "1.7.7"}, {"category": "", "created_at": 1774908714490, "description": "Track job applications, contacts, deadlines, and follow-up reminders in a local SQLite database.", "description_zh": "在本地 SQLite 数据库中跟踪求职申请、联系人、截止日期及跟进提醒。", "downloads": 32, "homepage": "https://clawhub.ai/mehulupase01/job-tracker", "iconUrl": null, "installs": 0, "name": "Job Tracker", "ownerName": "mehulupase01", "score": 33684.21052631579, "slug": "job-tracker", "source": "clawhub", "stars": 0, "tags": null, "updated_at": 1776734569656, "version": "0.1.0"}, {"category": "", "created_at": 1774892562826, "description": "Local speech-to-text with the Whisper CLI (no API key).", "description_zh": "使用 Whisper CLI 进行本地语音转文字（无需 API 密钥）", "downloads": 32, "homepage": "https://clawhub.ai/cs995279497-byte/chen-openai-whisper", "iconUrl": null, "installs": 4, "name": "Chen Openai Whisper", "ownerName": "cs995279497-byte", "score": 33684.21052631579, "slug": "chen-openai-whisper", "source": "clawhub", "stars": 0, "tags": null, "updated_at": 1776734435866, "version": "1.0.0"}, {"category": "", "created_at": 1774916751609, "description": "Defensive Golang coding to prevent panics, silent data corruption, and subtle runtime bugs. Use whenever writing or reviewing Go code that involves nil-prone...", "description_zh": "防御式 Go 编程，防止 panic、静默数据损坏和隐蔽运行时错误，适用于编写或审查涉及 nil 易发情况的 Go 代码。", "downloads": 32, "homepage": "https://clawhub.ai/samber/golang-safety", "iconUrl": null, "installs": 0, "name": "Golang Safety", "ownerName": "samber", "score": 32653.061224489793, "slug": "golang-safety", "source": "clawhub", "stars": 0, "tags": null, "updated_at": 1776733970015, "version": "0.1.0"}, {"category": "", "created_at": 1774892927732, "description": "Golang benchmarking, profiling, and performance measurement. Use when writing, running, or comparing Go benchmarks, profiling hot paths with pprof, interpret...", "description_zh": "Golang 基准测试、性能分析和性能测量。用于编写、运行或比较 Go 基准测试，使用 pprof 分析热点路径，解读性能结果。", "downloads": 32, "homepage": "https://clawhub.ai/samber/golang-benchmark", "iconUrl": null, "installs": 0, "name": "Golang Benchmark", "ownerName": "samber", "score": 32653.061224489793, "slug": "golang-benchmark", "source": "clawhub", "stars": 0, "tags": null, "updated_at": 1776733969857, "version": "1.1.1"}, {"category": "", "created_at": 1774898080832, "description": "Provides dependency management strategies for Golang projects including go.mod management, installing/upgrading packages, semantic versioning, Minimal Versio...", "description_zh": "提供针对 Go 项目的依赖管理策略，包括 go.mod 管理、安装/升级依赖、语义化版本以及最小版本选择", "downloads": 32, "homepage": "https://clawhub.ai/samber/golang-dependency-management", "iconUrl": null, "installs": 0, "name": "Golang Dependency Management", "ownerName": "samber", "score": 32653.061224489793, "slug": "golang-dependency-management", "source": "clawhub", "stars": 0, "tags": null, "updated_at": 1776733969632, "version": "1.1.1"}, {"category": "", "created_at": 1774841638079, "description": "The transaction layer for the agent economy. Register agents, publish capabilities and negotiation terms, and enable structured transactions between agents a...", "description_zh": "智能体经济的交易层。支持注册智能体、发布能力与协商条款，并实现智能体间的结构化交易。", "downloads": 32, "homepage": "https://clawhub.ai/evankolega/clawfinder", "iconUrl": null, "installs": 1, "name": "ClawFinder", "ownerName": "evankolega", "score": 29357.798165137618, "slug": "clawfinder", "source": "clawhub", "stars": 0, "tags": null, "updated_at": 1776731983999, "version": "1.0.7"}, {"category": "", "created_at": 1774916981514, "description": "审查MCP Server工具实现是否符合接口设计准则。当用户要求review、检查、审查MCP工具定义，或说\"check一下工具设计\"、\"review mcp tools\"、\"工具设计有没有问题\"时使用。", "description_zh": "审查MCP Server工具实现是否符合接口设计准则。当用户要求review、检查、审查MCP工具定义，或说\"check一下工具设计\"、\"review mcp tools\"、\"工具设计有没有问题\"时使用。", "downloads": 32, "homepage": "https://clawhub.ai/sawzhang/mcp-review", "iconUrl": null, "installs": 5, "name": "Mcp Review", "ownerName": "sawzhang", "score": 32323.232323232325, "slug": "mcp-review", "source": "clawhub", "stars": 0, "tags": null, "updated_at": 1776707144374, "version": "1.0.0"}, {"category": "", "created_at": 1774901152999, "description": "指导模拟法庭主体陈述的策略和表达技巧，包括陈述策略、表达技巧、常用句式等。", "description_zh": "指导模拟法庭主体陈述的策略和表达技巧，包括陈述策略、表达技巧、常用句式等。", "downloads": 32, "homepage": "https://clawhub.ai/pepsile/moot-court-statement", "iconUrl": null, "installs": 2, "name": "模拟法庭主体陈述技巧", "ownerName": "pepsile", "score": 32989.69072164949, "slug": "moot-court-statement", "source": "clawhub", "stars": 0, "tags": null, "updated_at": 1776705883736, "version": "1.0.0"}, {"category": "", "created_at": 1774888102705, "description": "国际刑事法院（ICC）模拟法庭备赛的完整指南，包括赛事简介、国际刑法发展、赛题设置、备赛要点、庭辩技巧和常用资源。", "description_zh": "国际刑事法院（ICC）模拟法庭备赛的完整指南，包括赛事简介、国际刑法发展、赛题设置、备赛要点、庭辩技巧和常用资源。", "downloads": 32, "homepage": "https://clawhub.ai/pepsile/icc-moot-court", "iconUrl": null, "installs": 3, "name": "ICC模拟法庭备赛经验", "ownerName": "pepsile", "score": 32989.69072164949, "slug": "icc-moot-court", "source": "clawhub", "stars": 0, "tags": null, "updated_at": 1776705583829, "version": "1.0.0"}, {"category": "", "created_at": 1776342587602, "description": "实体门店活动营销方案自动生成器。当用户需要为门店、企业或店铺制作营销活动方案、促销方案、 储值锁客方案、开业/周年庆/节日促销方案时触发此 Skill。 触发词包括但不限于：营销方案、活动方案、促销方案、储值方案、开业方案、周年庆方案、 门店活动、引流方案、锁客方案、裂变方案、会员方案、落地活动方案等。 即使用户没有明确说\"方案\"，只要意图涉及为实体门店设计营销活动，也应触发此 Skill。", "description_zh": "实体门店活动营销方案自动生成器。当用户需要为门店、企业或店铺制作营销活动方案、促销方案、 储值锁客方案、开业/周年庆/节日促销方案时触发此 Skill。 触发词包括但不限于：营销方案、活动方案、促销方案、储值方案、开业方案、周年庆方案、 门店活动、引流方案、锁客方案、裂变方案、会员方案、落地活动方案等。 即使用户没有明确说\"方案\"，只要意图涉及为实体门店设计营销活动，也应触发此 Skill。", "downloads": 32, "homepage": "https://clawhub.ai/user_f12a1c8c/store-marketing-plan-generator", "iconUrl": "https://cloudcache.tencent-cloud.com/qcloud/ui/static/other_external_resource/e089b3bb-5a99-41bc-8881-40980028b748.png", "installs": 7, "name": "门店活动策划智能助手", "ownerName": "user_f12a1c8c", "score": 28571.42857142857, "slug": "store-marketing-plan-generator", "source": "community", "stars": 0, "tags": null, "updated_at": 1776702304702, "version": "1.0.3"}, {"category": "", "created_at": 1775992549789, "description": "", "description_zh": "对话式业务管理工具，支持业务框架、路径、任务和信号管理；管理业务方向、跟踪项目进度", "downloads": 32, "homepage": "https://clawhub.ai/user_b3d06a4a/business-management-assistant", "iconUrl": null, "installs": 1, "name": "对话式业务管理", "ownerName": "user_b3d06a4a", "score": 34042.55319148936, "slug": "business-management-assistant", "source": "community", "stars": 0, "tags": null, "updated_at": 1776701404649, "version": "1.0.1"}, {"category": "", "created_at": 1774872261933, "description": "提供众包任务、有偿问卷、软件体验及即时结算项目。", "description_zh": "提供众包任务、有偿问卷、软件体验及即时结算项目。", "downloads": 32, "homepage": "https://clawhub.ai/codenova58/bounty", "iconUrl": null, "installs": 1, "name": "Bounty", "ownerName": "codenova58", "score": 100000, "slug": "bounty", "source": "clawhub", "stars": 0, "tags": null, "updated_at": 1776699283701, "version": "0.1.0"}, {"category": "", "created_at": 1774883686448, "description": "Order pet supplies via Chewy using Strider Labs MCP connector. Shop food, treats, meds, set up Autoship for recurring deliveries. Complete autonomous pet car...", "description_zh": "使用Strider Labs MCP连接器在Chewy上订购宠物用品，包括食品、零食、药品，并设置Autoship实现定期送货。完成自主宠物车...", "downloads": 32, "homepage": "https://clawhub.ai/markswendsen-code/strider-chewy", "iconUrl": null, "installs": 2, "name": "Strider Chewy", "ownerName": "markswendsen-code", "score": 100000, "slug": "strider-chewy", "source": "clawhub", "stars": 0, "tags": null, "updated_at": 1776698084755, "version": "1.0.0"}, {"category": "", "created_at": 1774903978976, "description": "Abstract integration. Manage data, records, and automate workflows. Use when the user wants to interact with Abstract data.", "description_zh": "Abstract集成。管理数据、记录并自动化工作流。当用户需要与Abstract数据交互时使用。", "downloads": 32, "homepage": "https://clawhub.ai/gora050/abstract", "iconUrl": null, "installs": 1, "name": "Abstract", "ownerName": "gora050", "score": 100000, "slug": "abstract", "source": "clawhub", "stars": 0, "tags": null, "updated_at": 1776698084736, "version": "1.0.0"}, {"category": "", "created_at": 1775577155316, "description": "", "description_zh": "加班车费报销自动化。读取报销申请表（报销申请.xlsx）和花名册，解析凭证文件夹中的PDF电子发票/行程单或图片发票，按7条报销规则校验，填写结算表。触发：报销、加班车费、处理凭证、结算表、报销凭证解析。", "downloads": 32, "homepage": "https://clawhub.ai/user_7de01832/skill-fa-ali-overtime-expense-claim", "iconUrl": null, "installs": 2, "name": "FA-宜搭阿里报销单", "ownerName": "user_7de01832", "score": 100000, "slug": "skill-fa-ali-overtime-expense-claim", "source": "community", "stars": 0, "tags": null, "updated_at": 1776698084718, "version": "1.0.0"}, {"category": "", "created_at": 1774902546594, "description": "Speechace integration. Manage data, records, and automate workflows. Use when the user wants to interact with Speechace data.", "description_zh": "Speechace 集成。管理数据、记录并自动化工作流程。适用于用户需要与 Speechace 数据交互的场景。", "downloads": 32, "homepage": "https://clawhub.ai/gora050/speechace", "iconUrl": null, "installs": 0, "name": "Speechace", "ownerName": "gora050", "score": 100000, "slug": "speechace", "source": "clawhub", "stars": 0, "tags": null, "updated_at": 1776698084711, "version": "1.0.0"}, {"category": "", "created_at": 1775305970535, "description": "", "description_zh": "本技能旨在帮助开发者快速了解一个新项目。当你刚加入一个团队、接手一个陌生代码库，\n或者需要快速评估一个项目的技术栈、架构和开发流程时，本技能提供一套系统化的探索方法。", "downloads": 32, "homepage": "https://clawhub.ai/user_ab1ce028/project-onboarding", "iconUrl": null, "installs": 2, "name": "帮助新员工火开发者快速理解代码架构等", "ownerName": "user_ab1ce028", "score": 91428.57142857142, "slug": "project-onboarding", "source": "community", "stars": 0, "tags": null, "updated_at": 1776698084693, "version": "1.0.0"}, {"category": "", "created_at": 1774910543955, "description": "When the user wants to create, optimize, or audit a careers or jobs page. Also use when the user mentions \"careers,\" \"jobs,\" \"hiring,\" \"open positions,\" \"com...", "description_zh": "当用户想要创建、优化或审核招聘页面，或提及“careers”、“jobs”、“hiring”、“open positions”等关键词时触发。", "downloads": 32, "homepage": "https://clawhub.ai/kostja94/careers-page-generator", "iconUrl": null, "installs": 0, "name": "careers-page-generator", "ownerName": "kostja94", "score": 91428.57142857142, "slug": "careers-page-generator", "source": "clawhub", "stars": 0, "tags": null, "updated_at": 1776698084691, "version": "1.0.0"}, {"category": "", "created_at": 1774817552597, "description": "A better test skill with more content", "description_zh": "内容更丰富的改进版测试技能", "downloads": 32, "homepage": "https://clawhub.ai/jazzqi/better-skill", "iconUrl": null, "installs": 0, "name": "Better Skill", "ownerName": "jazzqi", "score": 91428.57142857142, "slug": "better-skill", "source": "clawhub", "stars": 0, "tags": null, "updated_at": 1776698084684, "version": "0.0.1"}, {"category": "", "created_at": 1774901535940, "description": "ToolJet integration. Manage data, records, and automate workflows. Use when the user wants to interact with ToolJet data.", "description_zh": "ToolJet 集成，管理数据、记录，自动化工作流，适用于需要与 ToolJet 数据交互的场景。", "downloads": 32, "homepage": "https://clawhub.ai/gora050/tooljet", "iconUrl": null, "installs": 1, "name": "Tooljet", "ownerName": "gora050", "score": 91428.57142857142, "slug": "tooljet", "source": "clawhub", "stars": 0, "tags": null, "updated_at": 1776698084680, "version": "1.0.0"}, {"category": "", "created_at": 1774951816293, "description": "Archive ChatGPT and Claude share links to Markdown using Chrome CDP. Captures browser sessions for offline reading.", "description_zh": "通过 Chrome CDP 将 ChatGPT 和 Claude 分享链接归档为 Markdown 格式，捕获浏览器会话以供离线阅读。", "downloads": 32, "homepage": "https://clawhub.ai/guobaba1/browser-session-archive", "iconUrl": null, "installs": 2, "name": "browser-session-archive", "ownerName": "guobaba1", "score": 91428.57142857142, "slug": "browser-session-archive", "source": "clawhub", "stars": 0, "tags": ["browser", "cdp", "chatgpt chatbot", "chrome", "claude chatbot"], "updated_at": 1776698084661, "version": "1.0.0"}, {"category": "", "created_at": 1774907184820, "description": "中国天气查询工具。Use when user wants to check weather for Chinese cities. Supports current weather, forecast, air quality, life index with rich data and beautiful fo...", "description_zh": "中国天气查询工具。Use when user wants to check weather for Chinese cities. Supports current weather, forecast, air quality, life index with rich data and beautiful fo...", "downloads": 32, "homepage": "https://clawhub.ai/tobewin/weather-query-pro", "iconUrl": null, "installs": 3, "name": "China Weather", "ownerName": "tobewin", "score": 91428.57142857142, "slug": "weather-query-pro", "source": "clawhub", "stars": 0, "tags": null, "updated_at": 1776698084659, "version": "1.0.3"}, {"category": "", "created_at": 1774903367035, "description": "帮助用户掌握模拟法庭中的反驳与应驳环节技巧，包括反驳策略、常用句式和时间控制。", "description_zh": "帮助用户掌握模拟法庭中的反驳与应驳环节技巧，包括反驳策略、常用句式和时间控制。", "downloads": 32, "homepage": "https://clawhub.ai/pepsile/moot-rebuttal", "iconUrl": null, "installs": 2, "name": "模拟法庭反驳与应驳技巧", "ownerName": "pepsile", "score": 100000, "slug": "moot-rebuttal", "source": "clawhub", "stars": 0, "tags": null, "updated_at": 1776698084627, "version": "1.0.0"}, {"category": "", "created_at": 1774882143986, "description": "Triggers when the user asks for daily advice, weather, a morning routine, \"what's the vibe today,\" or planning their day. It provides a comprehensive, ground...", "description_zh": "{\"description_zh\":\"当用户询问每日建议、天气、晨间例程、\"今天氛围如何\"或规划一天时触发，提供全面的综合信息。\"}", "downloads": 32, "homepage": "https://clawhub.ai/jkzfhq/rustic-almanac-guide", "iconUrl": null, "installs": 1, "name": "Rustic Almanac Guide", "ownerName": "jkzfhq", "score": 100000, "slug": "rustic-almanac-guide", "source": "clawhub", "stars": 0, "tags": ["daily-routine", "lifestyle", "nature", "productivity", "weather"], "updated_at": 1776698084620, "version": "3.0.0"}, {"category": "", "created_at": 1774865580208, "description": "OpenClaw-based SLG game. Multiplayer, real-time commands, planning. Battle with other lobsters, build alliances. Use when user says \"2037\" or \"earth2037\" and...", "description_zh": "基于OpenClaw的SLG游戏。多人实时指令与策略规划，与其他龙虾对战并建立联盟。当用户说\"2037\"或\"earth2037\"时使用……", "downloads": 32, "homepage": "https://clawhub.ai/windinwing/2037", "iconUrl": null, "installs": 1, "name": "2037", "ownerName": "windinwing", "score": 100000, "slug": "2037", "source": "clawhub", "stars": 0, "tags": null, "updated_at": 1776698084619, "version": "1.0.2"}, {"category": "", "created_at": 1774862273080, "description": "Connect to the native board demo through local-mcp and one fixed UXC link. Use when the user wants to inspect or edit the shared board at board.holon.run or...", "description_zh": "通过 local-mcp 和固定 UXC 链接连接到原生面板演示。当用户想要检查或编辑 board.holon.run 上的共享面板时使用...", "downloads": 32, "homepage": "https://clawhub.ai/jolestar/board-webmcp", "iconUrl": null, "installs": 1, "name": "Board Webmcp", "ownerName": "jolestar", "score": 100000, "slug": "board-webmcp", "source": "clawhub", "stars": 0, "tags": null, "updated_at": 1776698084617, "version": "0.1.1"}, {"category": "", "created_at": 1774907151008, "description": "Replace or move an element in an existing HTTPS video with WeryAI anime-style processing (video-anime-replace). Use when the user wants anime-style object re...", "description_zh": "使用WeryAI动漫风格处理替换或移动现有HTTPS视频中的元素（video-anime-replace）。适用于用户希望以动漫风格对视频中的对象进行替换或重新定位的场景。", "downloads": 32, "homepage": "https://clawhub.ai/zoucdr/video-tool-anime-replace", "iconUrl": null, "installs": 1, "name": "WeryAI video tool — anime replace", "ownerName": "zoucdr", "score": 100000, "slug": "video-tool-anime-replace", "source": "clawhub", "stars": 0, "tags": null, "updated_at": 1776698084600, "version": "1.0.2"}, {"category": "", "created_at": 1775620605797, "description": "", "description_zh": "小龙虾日报，将你最关心的资讯主动送到你眼前。", "downloads": 32, "homepage": "https://clawhub.ai/user_4ada0d9b/claws-daily", "iconUrl": null, "installs": 0, "name": "Claws Daily", "ownerName": "user_4ada0d9b", "score": 100000, "slug": "claws-daily", "source": "community", "stars": 0, "tags": null, "updated_at": 1776698084593, "version": "1.0.2"}, {"category": "", "created_at": 1774924364311, "description": "长消息自动拆分 skill。当回复内容超过渠道限制时，自动将消息拆分为多条有序发送，避免截断或丢消息。Auto-split long messages into smaller chunks before sending, with sequence markers.", "description_zh": "长消息自动拆分 skill。当回复内容超过渠道限制时，自动将消息拆分为多条有序发送，避免截断或丢消息。Auto-split long messages into smaller chunks before sending, with sequence markers.", "downloads": 32, "homepage": "https://clawhub.ai/54meteor/message-split", "iconUrl": null, "installs": 1, "name": "Message Split", "ownerName": "54meteor", "score": 100000, "slug": "message-split", "source": "clawhub", "stars": 0, "tags": null, "updated_at": 1776698084576, "version": "1.0.0"}, {"category": "", "created_at": 1774863610311, "description": "Query any on-chain wallet address token balances and positions. Retrieves all token holdings for a specified wallet address on a given chain, including token...", "description_zh": "查询任意链上钱包地址的代币余额和持仓。获取指定链上特定钱包地址的所有代币持有情况，包括代币……", "downloads": 32, "homepage": "https://clawhub.ai/binance-skills-hub/binance-web3-query-address-info", "iconUrl": null, "installs": 1, "name": "Binance Query Address Info", "ownerName": "binance-skills-hub", "score": 100000, "slug": "binance-web3-query-address-info", "source": "clawhub", "stars": 0, "tags": null, "updated_at": 1776698084514, "version": "1.0.0"}, {"category": "", "created_at": 1774897735508, "description": "Find nearby Chinese restaurants. Invoke when user asks for Chinese food near me.", "description_zh": "{\"answer\":\"查找附近的中餐馆。当用户询问“我附近的中餐”时触发。\"}", "downloads": 32, "homepage": "https://clawhub.ai/mikeclaw007/chinese-restaurants", "iconUrl": null, "installs": 0, "name": "Chinese Restaurants", "ownerName": "mikeclaw007", "score": 100000, "slug": "chinese-restaurants", "source": "clawhub", "stars": 0, "tags": null, "updated_at": 1776698084509, "version": "0.1.0"}, {"category": "", "created_at": 1774835547167, "description": "本 Skill 适用于作为以及需要助理自主学习沉淀知识时，请调用此 Skill。", "description_zh": "本 Skill 适用于作为以及需要助理自主学习沉淀知识时，请调用此 Skill。", "downloads": 32, "homepage": "https://clawhub.ai/zhengmengkaizmk/assistant11", "iconUrl": null, "installs": 2, "name": "assistant", "ownerName": "zhengmengkaizmk", "score": 100000, "slug": "assistant11", "source": "clawhub", "stars": 0, "tags": null, "updated_at": 1776698084493, "version": "1.0.1"}, {"category": "", "created_at": 1774951799780, "description": "审查或改进前端 UI 的语义结构、键盘支持、焦点管理、标签以及常见的 WCAG 相关问题，并将报告保存为 Markdown 文件。当用户提到无障碍、accessibility、a11y、WCAG，或在实现交互组件时自动激活。", "description_zh": "审查或改进前端 UI 的语义结构、键盘支持、焦点管理、标签以及常见的 WCAG 相关问题，并将报告保存为 Markdown 文件。当用户提到无障碍、accessibility、a11y、WCAG，或在实现交互组件时自动激活。", "downloads": 32, "homepage": "https://clawhub.ai/bovinphang/accessibility-check", "iconUrl": null, "installs": 0, "name": "accessibility-check", "ownerName": "bovinphang", "score": 100000, "slug": "accessibility-check", "source": "clawhub", "stars": 0, "tags": null, "updated_at": 1776698084492, "version": "1.0.0"}, {"category": "", "created_at": 1775108897377, "description": "", "description_zh": "identify and structure practice-origin topic plans for major-theme, policy, governance, and thought-communication reporting. use when chatgpt needs to turn an abstract theme into a source-grounded story plan by tracing formative places, real governance practices, long-term results, and a source-evolution-echo narrative arc for editorial planning.", "downloads": 32, "homepage": "https://clawhub.ai/user_ae646792/practice-origin-topic-designer", "iconUrl": null, "installs": 0, "name": "practice origin topic designer", "ownerName": "user_ae646792", "score": 100000, "slug": "practice-origin-topic-designer", "source": "community", "stars": 0, "tags": null, "updated_at": 1776698084480, "version": "1.0.0"}, {"category": "", "created_at": 1774906987521, "description": "SonarCloud integration. Manage Projects. Use when the user wants to interact with SonarCloud data.", "description_zh": "SonarCloud集成。管理项目。用于与SonarCloud数据交互。", "downloads": 32, "homepage": "https://clawhub.ai/gora050/sonarcloud", "iconUrl": null, "installs": 0, "name": "Sonarcloud", "ownerName": "gora050", "score": 100000, "slug": "sonarcloud", "source": "clawhub", "stars": 0, "tags": null, "updated_at": 1776698084478, "version": "1.0.0"}, {"category": "", "created_at": 1774883524671, "description": "This skill helps users extract structured data from Reddit posts and comments via BrowserAct API. Agent should proactively apply this skill when users expres...", "description_zh": "此技能通过 BrowserAct API 从 Reddit 帖子和评论中提取结构化数据。", "downloads": 32, "homepage": "https://clawhub.ai/browseract-ai/reddit-competitor-analysis-api-skill", "iconUrl": null, "installs": 3, "name": "reddit-competitor-analysis-api-skill", "ownerName": "browseract-ai", "score": 100000, "slug": "reddit-competitor-analysis-api-skill", "source": "clawhub", "stars": 0, "tags": null, "updated_at": 1776698084370, "version": "1.0.0"}, {"category": "", "created_at": 1775799389998, "description": "", "description_zh": "外卖红包优惠券领券神器，一个链接领美团/饿了么/京东外卖全部隐藏优惠，无需注册无需API Key", "downloads": 32, "homepage": "https://clawhub.ai/user_56d384fd/waquanquaner", "iconUrl": "https://cloudcache.tencent-cloud.com/qcloud/ui/static/other_external_resource/c5e5faab-b8e1-489d-a489-8b56ffc52c07.png", "installs": 1, "name": "挖券券儿", "ownerName": "user_56d384fd", "score": 100000, "slug": "waquanquaner", "source": "community", "stars": 0, "tags": null, "updated_at": 1776698084359, "version": "1.0.1"}, {"category": "", "created_at": 1774883593129, "description": "Sendbird integration. Manage Users, Channels. Use when the user wants to interact with Sendbird data.", "description_zh": "Sendbird集成。管理用户与频道。用于用户需要与Sendbird数据交互时。", "downloads": 32, "homepage": "https://clawhub.ai/membranedev/sendbird", "iconUrl": null, "installs": 0, "name": "Sendbird", "ownerName": "membranedev", "score": 100000, "slug": "sendbird", "source": "clawhub", "stars": 0, "tags": null, "updated_at": 1776698084331, "version": "1.0.0"}]}