{"page": 609, "total_pages": 685, "total": 34217, "skills": [{"category": "", "created_at": 1774948257378, "description": "Benchmark Email integration. Manage data, records, and automate workflows. Use when the user wants to interact with Benchmark Email data.", "description_zh": "Benchmark Email 集成。管理数据、记录并自动化工作流程。用于用户需与 Benchmark Email 数据交互的场景。", "downloads": 31, "homepage": "https://clawhub.ai/membranedev/benchmark-email", "iconUrl": null, "installs": 0, "name": "Benchmark Email", "ownerName": "membranedev", "score": 88571.42857142857, "slug": "benchmark-email", "source": "clawhub", "stars": 0, "tags": null, "updated_at": 1776698084683, "version": "1.0.0"}, {"category": "", "created_at": 1774951030152, "description": "Search, download, and explore arXiv academic papers. Use when the user needs to find research papers, download PDFs, get recent publications in a field, or s...", "description_zh": "搜索、下载和浏览arXiv学术论文。用于用户需要查找研究论文、下载PDF文件、获取某领域最新发表成果等场景。", "downloads": 31, "homepage": "https://clawhub.ai/xunuowu/arxiv-explorer", "iconUrl": null, "installs": 3, "name": "arXiv Explorer", "ownerName": "xunuowu", "score": 88571.42857142857, "slug": "arxiv-explorer", "source": "clawhub", "stars": 0, "tags": ["academic", "arxiv", "papers", "research", "science"], "updated_at": 1776698084681, "version": "1.0.1"}, {"category": "", "created_at": 1774912432518, "description": "Search the public Internet with YouMind Search. Combines multiple high-quality providers with YouMind ranking and filtering for better results than using one...", "description_zh": "使用YouMind搜索公开互联网，汇聚多优质源，YouMind排序过滤，效果更佳。", "downloads": 31, "homepage": "https://clawhub.ai/p697/youmind-search", "iconUrl": null, "installs": 3, "name": "YouMind Search", "ownerName": "p697", "score": 88571.42857142857, "slug": "youmind-search", "source": "clawhub", "stars": 0, "tags": null, "updated_at": 1776698084676, "version": "2.0.3"}, {"category": "", "created_at": 1774834562889, "description": "Access Hedy meeting data: sessions, transcripts, highlights, todos, topics, contexts, and webhooks via the Hedy REST API.", "description_zh": "通过 Hedy REST API 访问会议数据，包括会话、转录、精彩片段、待办事项、主题、上下文和网络钩子。", "downloads": 31, "homepage": "https://clawhub.ai/julianpscheid/hedy", "iconUrl": null, "installs": 0, "name": "Hedy", "ownerName": "julianpscheid", "score": 88571.42857142857, "slug": "hedy", "source": "clawhub", "stars": 0, "tags": null, "updated_at": 1776698084663, "version": "1.1.0"}, {"category": "", "created_at": 1774805929472, "description": "Use when correcting Chinese ill-formed sentences (病句) with minimal edits while preserving original meaning, including grammar, wording, word order, redundanc...", "description_zh": "Use when correcting Chinese ill-formed sentences (病句) with minimal edits while preserving original meaning, including grammar, wording, word order, redundanc...", "downloads": 31, "homepage": "https://clawhub.ai/catchfishcat/chinese-sentence-correction", "iconUrl": null, "installs": 0, "name": "chinese-sentence-correction", "ownerName": "catchfishcat", "score": 88571.42857142857, "slug": "chinese-sentence-correction", "source": "clawhub", "stars": 0, "tags": null, "updated_at": 1776698084658, "version": "1.0.0"}, {"category": "", "created_at": 1774910622459, "description": "Guide an OpenClaw agent's owner through joining a shared Discord server for multi-bot collaboration. Activate when: the agent receives an invitation to join...", "description_zh": "指导 OpenClaw 代理的所有者加入共享 Discord 服务器以实现多机器人协作。触发条件：代理收到加入邀请时。", "downloads": 31, "homepage": "https://clawhub.ai/peandrover/discord-onboarding", "iconUrl": null, "installs": 0, "name": "Discord Onboarding", "ownerName": "peandrover", "score": 88571.42857142857, "slug": "discord-onboarding", "source": "clawhub", "stars": 0, "tags": null, "updated_at": 1776698084656, "version": "1.0.0"}, {"category": "", "created_at": 1776131959078, "description": "", "description_zh": "|Jack Daniels 跑步训练体系 —— 基于运动生理学的科学化训练框架。五种训练强度（E/M/T/I/R）+ VDOT配速表 + 周期化分期。适合严肃业余跑者、全马/半马训练规划、想用数据驱动方式提升配速的跑步爱好者。", "downloads": 31, "homepage": "https://clawhub.ai/user_a851fe71/jack-daniels-coach", "iconUrl": "https://cloudcache.tencent-cloud.com/qcloud/ui/static/other_external_resource/7920727c-4e7d-496a-9223-d9c6673e9e53.png", "installs": 4, "name": "跑步教练丹尼尔斯", "ownerName": "user_a851fe71", "score": 88571.42857142857, "slug": "jack-daniels-coach", "source": "community", "stars": 0, "tags": null, "updated_at": 1776698084654, "version": "1.0.1"}, {"category": "", "created_at": 1774903400265, "description": "Search, brief, and monitor 대한민국 Naver News via the Naver Search API using natural-language Korean queries. Use when the user wants 네이버 뉴스 브리핑, 최근 N일 뉴스 요약, 제...", "description_zh": "利用Naver搜索API，通过自然语言韩语查询搜索、简报并监控韩国Naver新闻。适用于用户需要Naver新闻简报、最近N天新闻摘要等场景。", "downloads": 31, "homepage": "https://clawhub.ai/twbeatles/naver-news-briefing", "iconUrl": null, "installs": 1, "name": "Naver News Briefing", "ownerName": "twbeatles", "score": 96875, "slug": "naver-news-briefing", "source": "clawhub", "stars": 0, "tags": null, "updated_at": 1776698084649, "version": "1.3.0"}, {"category": "", "created_at": 1774856037548, "description": "Use LemonSuk for agent registration, claim-status checks, source-backed claim submission, market discovery, agent-only betting, and market discussion. LemonS...", "description_zh": "使用LemonSuk进行代理注册、理赔状态查询、源支持的理赔提交、市场发现、仅限代理的投注和市场讨论。", "downloads": 31, "homepage": "https://clawhub.ai/oldeucryptoboi/lemonsuk", "iconUrl": null, "installs": 0, "name": "LemonSuk", "ownerName": "oldeucryptoboi", "score": 96875, "slug": "lemonsuk", "source": "clawhub", "stars": 0, "tags": null, "updated_at": 1776698084644, "version": "2.0.3"}, {"category": "", "created_at": 1774880458734, "description": "AI MIDI音乐生成助手，一句话生成MIDI文件。AI MIDI Generator - generate standard MIDI files from natural language descriptions.", "description_zh": "AI MIDI音乐生成助手，一句话生成MIDI文件。AI MIDI Generator - generate standard MIDI files from natural language descriptions.", "downloads": 31, "homepage": "https://clawhub.ai/lrjxgl/laolei-llm-midi", "iconUrl": null, "installs": 2, "name": "laolei llm midi", "ownerName": "lrjxgl", "score": 96875, "slug": "laolei-llm-midi", "source": "clawhub", "stars": 0, "tags": null, "updated_at": 1776698084642, "version": "1.0.0"}, {"category": "", "created_at": 1774904422548, "description": "提供带货直播间筛选、秒杀互动及红包雨抢夺指引。", "description_zh": "提供带货直播间筛选、秒杀互动及红包雨抢夺指引。", "downloads": 31, "homepage": "https://clawhub.ai/clawkk/live-shopping", "iconUrl": null, "installs": 1, "name": "Live Shopping", "ownerName": "clawkk", "score": 96875, "slug": "live-shopping", "source": "clawhub", "stars": 0, "tags": null, "updated_at": 1776698084637, "version": "0.1.0"}, {"category": "", "created_at": 1774880936499, "description": "Guide users through creating a Stripe account, configuring products/prices, and scaffolding the appsettings.json for any .NET 9 project. Explain how to manua...", "description_zh": "指导创建 Stripe 账户、配置产品定价，并为 .NET 9 项目搭建 appsettings.json。说明如何手动……", "downloads": 31, "homepage": "https://clawhub.ai/macmerg/stripe-blazor-server", "iconUrl": null, "installs": 0, "name": "Stripe for .net projects", "ownerName": "macmerg", "score": 96875, "slug": "stripe-blazor-server", "source": "clawhub", "stars": 0, "tags": null, "updated_at": 1776698084633, "version": "1.0.5"}, {"category": "", "created_at": 1774911970483, "description": "Integrates with MissionClaw for project management and AI agent orchestration. Use when the user wants to create projects, manage tasks via Kanban, assign wo...", "description_zh": "与MissionClaw集成，用于项目管理和AI智能体编排。适用于用户需要创建项目、通过看板管理任务、分配工作等场景。", "downloads": 31, "homepage": "https://clawhub.ai/sureshchitmil/missionclaw", "iconUrl": null, "installs": 0, "name": "Missionclaw", "ownerName": "sureshchitmil", "score": 96875, "slug": "missionclaw", "source": "clawhub", "stars": 0, "tags": ["ai-agents", "openclaw", "project-management"], "updated_at": 1776698084630, "version": "1.6.0"}, {"category": "", "created_at": 1774862849680, "description": "Use this skill when users ask for news updates, daily briefings, or what's happening in the world. Fetches news from reliable international and Chinese RSS f...", "description_zh": "当用户请求新闻更新、每日简报或了解世界动态时使用此技能。从可靠的国际和中文 RSS 源获取新闻。", "downloads": 31, "homepage": "https://clawhub.ai/openlark/news-express", "iconUrl": null, "installs": 1, "name": "News Express", "ownerName": "openlark", "score": 96875, "slug": "news-express", "source": "clawhub", "stars": 0, "tags": null, "updated_at": 1776698084616, "version": "1.0.3"}, {"category": "", "created_at": 1774861931292, "description": "Xueersi AI Essay Correction: Grade, analyze and improve Chinese essays with detailed feedback on structure, language, content, and scoring. 学而思(Xueersi) 作文批改...", "description_zh": "Xueersi AI Essay Correction: Grade, analyze and improve Chinese essays with detailed feedback on structure, language, content, and scoring. 学而思(Xueersi) 作文批改...", "downloads": 31, "homepage": "https://clawhub.ai/zhouzhi-tal/xueersi-essay-correction", "iconUrl": null, "installs": 1, "name": "Xueersi Essay Correction Assistant", "ownerName": "zhouzhi-tal", "score": 96875, "slug": "xueersi-essay-correction", "source": "clawhub", "stars": 0, "tags": ["chinese", "education", "k12", "xueersi"], "updated_at": 1776698084614, "version": "1.0.0"}, {"category": "", "created_at": 1774948716256, "description": "Modern Treasury integration. Manage Organizations. Use when the user wants to interact with Modern Treasury data.", "description_zh": "Modern Treasury 集成，管理组织，用户与 Modern Treasury 数据交互时使用。", "downloads": 31, "homepage": "https://clawhub.ai/gora050/modern-treasury", "iconUrl": null, "installs": 0, "name": "Modern Treasury", "ownerName": "gora050", "score": 96875, "slug": "modern-treasury", "source": "clawhub", "stars": 0, "tags": null, "updated_at": 1776698084607, "version": "1.0.0"}, {"category": "", "created_at": 1774902412775, "description": "提供积分运营的可落地指南与SOP。在开展积分运营相关工作时调用。", "description_zh": "提供积分运营的可落地指南与SOP。在开展积分运营相关工作时调用。", "downloads": 31, "homepage": "https://clawhub.ai/mikeclaw007/points-program", "iconUrl": null, "installs": 1, "name": "积分运营", "ownerName": "mikeclaw007", "score": 96875, "slug": "points-program", "source": "clawhub", "stars": 0, "tags": null, "updated_at": 1776698084597, "version": "0.1.0"}, {"category": "", "created_at": 1774915475969, "description": "Generate and optimize clinical trial subject inclusion/exclusion criteria to balance scientific rigor with recruitment feasibility. Trigger when users need t...", "description_zh": "生成并优化临床试验受试者纳入/排除标准，兼顾科学严谨性与招募可行性。触发条件：用户需要…", "downloads": 31, "homepage": "https://clawhub.ai/aipoch-ai/inclusion-criteria-gen", "iconUrl": null, "installs": 2, "name": "Inclusion Criteria Gen", "ownerName": "aipoch-ai", "score": 96875, "slug": "inclusion-criteria-gen", "source": "clawhub", "stars": 0, "tags": null, "updated_at": 1776698084595, "version": "1.0.0"}, {"category": "", "created_at": 1775390474206, "description": "", "description_zh": "林志的爷爷林木与奶奶孟金莲家族记忆；当用户询问家族成员信息、查询家族历史事件、了解生活习惯与家风传承时使用", "downloads": 31, "homepage": "https://clawhub.ai/user_55de57f4/mengjinlian", "iconUrl": null, "installs": 0, "name": "孟金莲AI版", "ownerName": "user_55de57f4", "score": 96875, "slug": "mengjinlian", "source": "community", "stars": 0, "tags": null, "updated_at": 1776698084588, "version": "1.0.0"}, {"category": "", "created_at": 1774890620907, "description": "虾聊（Xialiao）AI对话助手。用于在虾聊平台上进行更有深度、更有趣的对话，包括话题推荐、聊天技巧、群聊活跃策略、AI对话助力。触发词：虾聊、聊天、话题、群聊、对话、有趣聊天、聊不下去、冷场、话题终结者。", "description_zh": "虾聊（Xialiao）AI对话助手。用于在虾聊平台上进行更有深度、更有趣的对话，包括话题推荐、聊天技巧、群聊活跃策略、AI对话助力。触发词：虾聊、聊天、话题、群聊、对话、有趣聊天、聊不下去、冷场、话题终结者。", "downloads": 31, "homepage": "https://clawhub.ai/jiwenbing/xialiao", "iconUrl": null, "installs": 1, "name": "Xialiao", "ownerName": "jiwenbing", "score": 96875, "slug": "xialiao", "source": "clawhub", "stars": 0, "tags": null, "updated_at": 1776698084583, "version": "1.0.1"}, {"category": "", "created_at": 1774886381031, "description": "【Smarter Task Planner】自动创建时间戳任务文件夹，支持步骤规划、检查点保存、中断恢复与进度追踪，确保任务可追溯、可恢复。适用于分析、调研、信息提取、文档生成等需要结构化步骤的任务场景。", "description_zh": "【Smarter Task Planner】自动创建时间戳任务文件夹，支持步骤规划、检查点保存、中断恢复与进度追踪，确保任务可追溯、可恢复。适用于分析、调研、信息提取、文档生成等需要结构化步骤的任务场景。", "downloads": 31, "homepage": "https://clawhub.ai/hou0515/smarter-task-planner", "iconUrl": null, "installs": 2, "name": "smarter-task-planner", "ownerName": "hou0515", "score": 96875, "slug": "smarter-task-planner", "source": "clawhub", "stars": 0, "tags": null, "updated_at": 1776698084581, "version": "2.1.0"}, {"category": "", "created_at": 1774895180948, "description": "New Sloth integration. Manage Organizations. Use when the user wants to interact with New Sloth data.", "description_zh": "新Sloth集成。管理组织。用于用户想要与New Sloth数据交互时。", "downloads": 31, "homepage": "https://clawhub.ai/gora050/new-sloth", "iconUrl": null, "installs": 1, "name": "New Sloth", "ownerName": "gora050", "score": 96875, "slug": "new-sloth", "source": "clawhub", "stars": 0, "tags": null, "updated_at": 1776698084578, "version": "1.0.0"}, {"category": "", "created_at": 1775540553981, "description": "", "description_zh": "票据、贴现、承兑。Billing, Billing Product. A retrieval skill that answers bill questions from the `bill_knowledge/` knowledge base. And recommend possible banking platforms(by dispaly official link).", "downloads": 31, "homepage": "https://clawhub.ai/user_0caf726f/bill-products", "iconUrl": null, "installs": 0, "name": "票据产品", "ownerName": "user_0caf726f", "score": 96875, "slug": "bill-products", "source": "community", "stars": 0, "tags": null, "updated_at": 1776698084571, "version": "1.0.2"}, {"category": "", "created_at": 1774949005435, "description": "Converts any YouTube video into a fully formatted, SEO-optimised blog post using the video transcript. Handles auto-generated and manual captions. Outputs a...", "description_zh": "将任意YouTube视频的字幕（支持自动生成及手动添加）转换为格式完整、经过SEO优化的博客文章。", "downloads": 31, "homepage": "https://clawhub.ai/tetsuakira-vk/youtube-to-blog", "iconUrl": null, "installs": 3, "name": "YouTube To Blog", "ownerName": "tetsuakira-vk", "score": 96875, "slug": "youtube-to-blog", "source": "clawhub", "stars": 0, "tags": null, "updated_at": 1776698084566, "version": "1.0.0"}, {"category": "", "created_at": 1775028488168, "description": "", "description_zh": "天翼云CLI工具 - 企业级命令行工具，帮助您轻松管理天翼云资源。支持ECS、VPC、EBS、ELB、CCE、Redis、监控、账务等11大服务模块，覆盖222+个API，225+个命令。", "downloads": 31, "homepage": "https://clawhub.ai/user_70730af0/ctyun-cli-skill", "iconUrl": null, "installs": 0, "name": "ctyun-cli-天翼云-命令行", "ownerName": "user_70730af0", "score": 96875, "slug": "ctyun-cli-skill", "source": "community", "stars": 0, "tags": null, "updated_at": 1776698084555, "version": "1.8.2"}, {"category": "", "created_at": 1774891031034, "description": "Install and configure a custom Claude Code status line showing real-time token usage, context window percentage, git branch, and color-coded warnings. Use wh...", "description_zh": "安装并配置自定义状态栏，实时显示token用量、上下文窗口占比、git分支及颜色警告提示。使用wh…", "downloads": 31, "homepage": "https://clawhub.ai/ajitsingh25/claude-code-statusline", "iconUrl": null, "installs": 2, "name": "Claude Code Statusline", "ownerName": "ajitsingh25", "score": 96875, "slug": "claude-code-statusline", "source": "clawhub", "stars": 0, "tags": null, "updated_at": 1776698084550, "version": "1.0.0"}, {"category": "", "created_at": 1774898450194, "description": "ModelScope AI 技能：生图、改图、析图、生文。支持文生图、图生图、视觉理解、文本生成，遇到限速自动轮换模型。", "description_zh": "ModelScope AI 技能：生图、改图、析图、生文。支持文生图、图生图、视觉理解、文本生成，遇到限速自动轮换模型。", "downloads": 31, "homepage": "https://clawhub.ai/luhuiwang/ms-ai", "iconUrl": null, "installs": 2, "name": "MS-ai", "ownerName": "luhuiwang", "score": 96875, "slug": "ms-ai", "source": "clawhub", "stars": 0, "tags": ["ai", "image", "modelscope", "text", "vision"], "updated_at": 1776698084543, "version": "1.2.0"}, {"category": "", "created_at": 1774916871205, "description": "根据用户输入（产品、目标、直播类型等）生成专业的直播间口播、互动和逼单脚本。支持参数化调用，可指定带货类/种草类/品牌宣讲类等不同风格。", "description_zh": "根据用户输入（产品、目标、直播类型等）生成专业的直播间口播、互动和逼单脚本。支持参数化调用，可指定带货类/种草类/品牌宣讲类等不同风格。", "downloads": 31, "homepage": "https://clawhub.ai/ahsbnb/live-script-planner", "iconUrl": null, "installs": 3, "name": "Live-stream Script Planner", "ownerName": "ahsbnb", "score": 96875, "slug": "live-script-planner", "source": "clawhub", "stars": 0, "tags": null, "updated_at": 1776698084539, "version": "1.0.0"}, {"category": "", "created_at": 1774907592221, "description": "Get real-time stock, ETF, and crypto prices. Compare tickers, check market cap and volume. Uses Yahoo Finance — no API key required.", "description_zh": "实时获取股票、ETF 和加密货币价格，比较代码，查看市值与成交量。使用 Yahoo Finance，无需 API 密钥。", "downloads": 31, "homepage": "https://clawhub.ai/josephflu/eagerbots-stock-quote", "iconUrl": null, "installs": 1, "name": "Stock Quote", "ownerName": "josephflu", "score": 96875, "slug": "eagerbots-stock-quote", "source": "clawhub", "stars": 0, "tags": null, "updated_at": 1776698084530, "version": "1.0.0"}, {"category": "", "created_at": 1774910606511, "description": "用于分析 OpenClaw 中“某个 provider/模型为什么看起来没被用上”、主模型与 fallback 实际是否生效、以及 ClaudeCodeCLI 协作任务为何中断。遇到这些情况就应触发：用户提到“没请求打到 local-router”“明明注册了模型却没流量”“Agent 到底在用哪个模型”“fal...", "description_zh": "用于分析 OpenClaw 中“某个 provider/模型为什么看起来没被用上”、主模型与 fallback 实际是否生效、以及 ClaudeCodeCLI 协作任务为何中断。遇到这些情况就应触发：用户提到“没请求打到 local-router”“明明注册了模型却没流量”“Agent 到底在用哪个模型”“fal...", "downloads": 31, "homepage": "https://clawhub.ai/can4hou6joeng4/diagnose-openclaw-model-routing-and-fallback-usage", "iconUrl": null, "installs": 2, "name": "Diagnose Openclaw Model Routing And Fallback Usage", "ownerName": "can4hou6joeng4", "score": 96875, "slug": "diagnose-openclaw-model-routing-and-fallback-usage", "source": "clawhub", "stars": 0, "tags": null, "updated_at": 1776698084528, "version": "1.0.0"}, {"category": "", "created_at": 1774873631091, "description": "When the user wants to add, optimize, or audit breadcrumb navigation. Also use when the user mentions \"breadcrumbs,\" \"breadcrumb trail,\" \"breadcrumb nav,\" \"b...", "description_zh": "{\"description_zh\":\"当用户想要添加、优化或审查面包屑导航时使用。也适用于用户提到\"面包屑\"、\"面包屑路径\"、\"面包屑导航\"等相关术语的场景。\"}", "downloads": 31, "homepage": "https://clawhub.ai/kostja94/breadcrumb-generator", "iconUrl": null, "installs": 1, "name": "breadcrumb-generator", "ownerName": "kostja94", "score": 96875, "slug": "breadcrumb-generator", "source": "clawhub", "stars": 0, "tags": null, "updated_at": 1776698084527, "version": "1.1.0"}, {"category": "", "created_at": 1774853521510, "description": "Generate civil answer/defense document frameworks in response to complaints. Use when the user asks about 答辩状、答辩书、被告怎么答辩、怎么应诉、收到起诉书、我要答辩, or wants to draft a...", "description_zh": "Generate civil answer/defense document frameworks in response to complaints. Use when the user asks about 答辩状、答辩书、被告怎么答辩、怎么应诉、收到起诉书、我要答辩, or wants to draft a...", "downloads": 31, "homepage": "https://clawhub.ai/harrylabsj/defense-draft", "iconUrl": null, "installs": 2, "name": "defense draft", "ownerName": "harrylabsj", "score": 96875, "slug": "defense-draft", "source": "clawhub", "stars": 0, "tags": null, "updated_at": 1776698084523, "version": "1.0.0"}, {"category": "", "created_at": 1774919670229, "description": "Csp reference tool. Use when working with csp in devtools contexts.", "description_zh": "CSP 参考工具，用于在 DevTools 中处理 CSP。", "downloads": 31, "homepage": "https://clawhub.ai/xueyetianya/csp", "iconUrl": null, "installs": 0, "name": "Csp", "ownerName": "xueyetianya", "score": 96875, "slug": "csp", "source": "clawhub", "stars": 0, "tags": null, "updated_at": 1776698084521, "version": "1.0.0"}, {"category": "", "created_at": 1774862862626, "description": "Reference tool for devtools — covers intro, quickstart, patterns and more. Quick lookup for Omni Tools concepts, best practices, and implementation patterns.", "description_zh": "开发工具参考手册 — 包含入门、快速上手、模式等；快速查询 Omni Tools 概念、最佳实践和实现模式。", "downloads": 31, "homepage": "https://clawhub.ai/ckchzh/omni-tools", "iconUrl": null, "installs": 0, "name": "Omni Tools", "ownerName": "ckchzh", "score": 96875, "slug": "omni-tools", "source": "clawhub", "stars": 0, "tags": null, "updated_at": 1776698084512, "version": "2.0.2"}, {"category": "", "created_at": 1774873722605, "description": "Reference tool for devtools — covers intro, quickstart, patterns and more. Quick lookup for Conduit concepts, best practices, and implementation patterns.", "description_zh": "Devtools 参考工具，涵盖简介、快速入门、模式等内容。快速查阅 Conduit 概念、最佳实践及实现模式。", "downloads": 31, "homepage": "https://clawhub.ai/ckchzh/conduit", "iconUrl": null, "installs": 0, "name": "Conduit", "ownerName": "ckchzh", "score": 96875, "slug": "conduit", "source": "clawhub", "stars": 0, "tags": null, "updated_at": 1776698084507, "version": "2.0.2"}, {"category": "", "created_at": 1774875868244, "description": "Fetch and analyze content from one or more URLs using AI (Gemini 2.5 Flash). Use when you have specific URLs and need to extract or summarize their content....", "description_zh": "使用AI抓取并分析一个或多个URL的内容。当您有具体URL并需要提取或总结其内容时使用。", "downloads": 31, "homepage": "https://clawhub.ai/nansen-devops/nansen-web-fetcher", "iconUrl": null, "installs": 1, "name": "Nansen Web Fetcher", "ownerName": "nansen-devops", "score": 96875, "slug": "nansen-web-fetcher", "source": "clawhub", "stars": 0, "tags": null, "updated_at": 1776698084502, "version": "0.1.0"}, {"category": "", "created_at": 1774833860603, "description": "通用待办事项管理技能。记录需要做的事（TODO）和已完成的事（DONE），区分于日记的日常记录。触发时机：(1) 有明确任务时 (2) 任务完成时 (3) 用户要求查看进度。", "description_zh": "通用待办事项管理技能。记录需要做的事（TODO）和已完成的事（DONE），区分于日记的日常记录。触发时机：(1) 有明确任务时 (2) 任务完成时 (3) 用户要求查看进度。", "downloads": 31, "homepage": "https://clawhub.ai/axelhu/openclaw-todo-list", "iconUrl": null, "installs": 0, "name": "OpenClaw TODO List", "ownerName": "axelhu", "score": 96875, "slug": "openclaw-todo-list", "source": "clawhub", "stars": 0, "tags": null, "updated_at": 1776698084500, "version": "1.0.0"}, {"category": "", "created_at": 1774866819429, "description": "FFBox multimedia transcoding tool integration. FFmpeg-based GUI for video/audio/image format conversion, compression, filtering, batch media processing with...", "description_zh": "FFBox 多媒体转码工具集成。基于 FFmpeg 的图形界面，支持视频/音频/图片格式转换、压缩、过滤、批量媒体处理...", "downloads": 31, "homepage": "https://clawhub.ai/ttqftech/ffbox", "iconUrl": null, "installs": 0, "name": "FFBox", "ownerName": "ttqftech", "score": 96875, "slug": "ffbox", "source": "clawhub", "stars": 0, "tags": ["alpha"], "updated_at": 1776698084495, "version": "0.1.5-3-003"}, {"category": "", "created_at": 1774915234029, "description": "DocsBot AI integration. Manage Documents, ChatSessions, Users, Workspaces. Use when the user wants to interact with DocsBot AI data.", "description_zh": "DocsBot AI 集成。管理文档、聊天会话、用户和工作区。当用户需要与 DocsBot AI 数据交互时使用。", "downloads": 31, "homepage": "https://clawhub.ai/gora050/docsbot-ai", "iconUrl": null, "installs": 0, "name": "Docsbot Ai", "ownerName": "gora050", "score": 96875, "slug": "docsbot-ai", "source": "clawhub", "stars": 0, "tags": null, "updated_at": 1776698084488, "version": "1.0.0"}, {"category": "", "created_at": 1774914864604, "description": "Turns a single idea, article, or URL into a high-engagement Twitter/X thread with a hook, numbered tweets, and a strong CTA.", "description_zh": "将单个想法、文章或URL转化为高互动的Twitter/X推文串，包含吸引眼球的开场、编号推文和强力行动号召。", "downloads": 31, "homepage": "https://clawhub.ai/tetsuakira-vk/viral-thread-writer", "iconUrl": null, "installs": 0, "name": "Viral Thread Writer", "ownerName": "tetsuakira-vk", "score": 96875, "slug": "viral-thread-writer", "source": "clawhub", "stars": 0, "tags": null, "updated_at": 1776698084487, "version": "1.0.1"}, {"category": "", "created_at": 1774866165279, "description": "Reference tool for devtools — covers intro, quickstart, patterns and more. Quick lookup for Page Saver concepts, best practices, and implementation patterns.", "description_zh": "devtools参考工具，涵盖介绍、快速入门、模式等。Page Saver概念、最佳实践与实现模式的快速查询指南。", "downloads": 31, "homepage": "https://clawhub.ai/bytesagain3/page-saver", "iconUrl": null, "installs": 0, "name": "Page Saver", "ownerName": "bytesagain3", "score": 96875, "slug": "page-saver", "source": "clawhub", "stars": 0, "tags": null, "updated_at": 1776698084476, "version": "2.0.2"}, {"category": "", "created_at": 1774866029085, "description": "收费技能示例模板 - 带授权验证，演示如何在 ClawHub 发布付费技能", "description_zh": "收费技能示例模板 - 带授权验证，演示如何在 ClawHub 发布付费技能", "downloads": 31, "homepage": "https://clawhub.ai/lintqiu/lin-skill-demo", "iconUrl": null, "installs": 0, "name": "lin-skill-demo", "ownerName": "lintqiu", "score": 96875, "slug": "lin-skill-demo", "source": "clawhub", "stars": 0, "tags": null, "updated_at": 1776698084471, "version": "1.0.1"}, {"category": "", "created_at": 1774921426275, "description": "Deep idempotency workflow—identifying retry surfaces, idempotency keys, storage and TTL, exactly-once pitfalls, and testing duplicate delivery. Use when desi...", "description_zh": "深度幂等工作流——识别重试面、幂等键、存储与TTL、仅一次陷阱及重复投递测试。适用于追求健壮分布式系统的场景。", "downloads": 31, "homepage": "https://clawhub.ai/codenova58/idempotency", "iconUrl": null, "installs": 0, "name": "Idempotency", "ownerName": "codenova58", "score": 96875, "slug": "idempotency", "source": "clawhub", "stars": 0, "tags": null, "updated_at": 1776698084463, "version": "1.0.0"}, {"category": "", "created_at": 1774922894425, "description": "Turn a rough product idea into a practical money-making launch pack. Use when the user wants to validate an idea, find a niche, design an MVP, set pricing, w...", "description_zh": "将粗略的产品创意转化为切实可行的盈利发布方案。适用于验证创意、寻找利基市场、设计MVP、制定定价策略等场景。", "downloads": 31, "homepage": "https://clawhub.ai/orime/micro-saas-launchpack", "iconUrl": null, "installs": 2, "name": "Micro SaaS Launch Pack", "ownerName": "orime", "score": 96875, "slug": "micro-saas-launchpack", "source": "clawhub", "stars": 0, "tags": ["business", "launch", "productivity", "saas"], "updated_at": 1776698084462, "version": "1.0.0"}, {"category": "", "created_at": 1774926456288, "description": "WhatsApp Business API integration with managed OAuth. Send messages, manage templates, and handle conversations. Use this skill when users want to interact w...", "description_zh": "WhatsApp Business API 与托管 OAuth 集成。发送消息、管理模板、处理对话。当用户想要...", "downloads": 31, "homepage": "https://clawhub.ai/raidan-ai/whatsapp-business-1-0-3", "iconUrl": null, "installs": 3, "name": "Whatsapp Business 1.0.3", "ownerName": "raidan-ai", "score": 96875, "slug": "whatsapp-business-1-0-3", "source": "clawhub", "stars": 0, "tags": null, "updated_at": 1776698084451, "version": "1.0.0"}, {"category": "", "created_at": 1774879151408, "description": "Generate stable or random image placeholder URLs (and optionally download them) using https://picsum.photos. Use when the user mentions picsum, placeholder i...", "description_zh": "使用 https://picsum.photos 生成固定或随机图片占位符 URL（可下载）。适用于用户提及 picsum、占位符等场景。", "downloads": 31, "homepage": "https://clawhub.ai/hicoldcat/random-image-placeholder", "iconUrl": null, "installs": 0, "name": "Random Image Placeholder", "ownerName": "hicoldcat", "score": 96875, "slug": "random-image-placeholder", "source": "clawhub", "stars": 0, "tags": null, "updated_at": 1776698084440, "version": "0.1.1"}, {"category": "", "created_at": 1774871650482, "description": "Generate, audit, and maintain a PROJECT-NARRATIVE.md file — a single-source-of-truth document that captures your entire project's architecture, decisions, in...", "description_zh": "生成、审计并维护一个 `PROJECT-NARRATIVE.md` 文件——作为唯一可信来源，完整记录项目的架构、决策及……", "downloads": 31, "homepage": "https://clawhub.ai/tcd004/project-narrator", "iconUrl": null, "installs": 1, "name": "Project Narrator", "ownerName": "tcd004", "score": 96875, "slug": "project-narrator", "source": "clawhub", "stars": 0, "tags": null, "updated_at": 1776698084439, "version": "1.1.0"}, {"category": "", "created_at": 1774859422950, "description": "Google Calendar via gcalcli: today-only agenda by default, bounded meaning-first lookup via agenda scans, and fast create/delete with verification--optimized...", "description_zh": "通过gcalcli操作Google日历：默认仅显示当日议程，支持以语义优先的有界范围议程扫描查询，以及带验证的快速创建/删除——经过优化", "downloads": 31, "homepage": "https://clawhub.ai/onsra520/quick-gcalcli", "iconUrl": null, "installs": 1, "name": "Quick Google Calendar Command Line Interface", "ownerName": "onsra520", "score": 96875, "slug": "quick-gcalcli", "source": "clawhub", "stars": 0, "tags": null, "updated_at": 1776698084428, "version": "1.0.2"}, {"category": "", "created_at": 1774827180396, "description": "Delegate precise, formalizable computations and factual lookups to Wolfram|Alpha via its LLM API (HTTP) to get verified results and reduce arithmetic/modelin...", "description_zh": "通过 Wolfram|Alpha LLM API 委托精确的可形式化计算和事实查询，以获取经核实的结果并减少算术或模型错误。", "downloads": 31, "homepage": "https://clawhub.ai/firefrog-pepe/wolfram-alpha-llm", "iconUrl": null, "installs": 3, "name": "Wolfram Alpha (LLM API)", "ownerName": "firefrog-pepe", "score": 96875, "slug": "wolfram-alpha-llm", "source": "clawhub", "stars": 0, "tags": null, "updated_at": 1776698084424, "version": "0.1.0"}, {"category": "", "created_at": 1774858841440, "description": "AI生成技能 - 负责广告创意的AI生成处理", "description_zh": "AI生成技能 - 负责广告创意的AI生成处理", "downloads": 31, "homepage": "https://clawhub.ai/jeyeshield/ad-production-ai-generation", "iconUrl": null, "installs": 2, "name": "AI生成", "ownerName": "jeyeshield", "score": 96875, "slug": "ad-production-ai-generation", "source": "clawhub", "stars": 0, "tags": null, "updated_at": 1776698084423, "version": "1.0.0"}]}