{"page": 614, "total_pages": 685, "total": 34217, "skills": [{"category": "", "created_at": 1774912385187, "description": "汇总本周完成、阻塞、经验教训与下周计划，形成管理层版和执行版摘要。；use for weekly-review, planning, retrospective workflows；do not use for 杜撰完成项, 替代工时系统.", "description_zh": "汇总本周完成、阻塞、经验教训与下周计划，形成管理层版和执行版摘要。；use for weekly-review, planning, retrospective workflows；do not use for 杜撰完成项, 替代工时系统.", "downloads": 30, "homepage": "https://clawhub.ai/52yuanchangxing/weekly-review-pilot", "iconUrl": null, "installs": 1, "name": "Weekly Review Pilot", "ownerName": "52yuanchangxing", "score": 100000, "slug": "weekly-review-pilot", "source": "clawhub", "stars": 0, "tags": null, "updated_at": 1776698270071, "version": "1.0.0"}, {"category": "", "created_at": 1774920532204, "description": "Seedphrase reference tool. Use when working with seedphrase in blockchain contexts.", "description_zh": "助记词参考工具，用于区块链场景下的助记词相关工作。", "downloads": 30, "homepage": "https://clawhub.ai/bytesagain3/seedphrase", "iconUrl": null, "installs": 2, "name": "Seedphrase", "ownerName": "bytesagain3", "score": 100000, "slug": "seedphrase", "source": "clawhub", "stars": 0, "tags": null, "updated_at": 1776698270069, "version": "1.0.0"}, {"category": "", "created_at": 1774923407248, "description": "Integrate the Turbos Finance CLMM SDK on Sui for pools, swaps, positions, fees, and liquidity workflows. Use when building or analyzing apps that interact wi...", "description_zh": "在 Sui 上集成 Turbos Finance CLMM SDK，实现池、兑换、仓位、费用及流动性工作流。适用于构建或分析交互式应用。", "downloads": 30, "homepage": "https://clawhub.ai/lyiyun1024/turbos", "iconUrl": null, "installs": 1, "name": "Turbos CLMM SDK", "ownerName": "lyiyun1024", "score": 100000, "slug": "turbos", "source": "clawhub", "stars": 0, "tags": null, "updated_at": 1776698270067, "version": "0.1.0"}, {"category": "", "created_at": 1774914767760, "description": "Save article links to Readwise Reader with automatic content-based tagging. Specialized handling for WeChat Official Account (微信公众号) articles. Use this skill...", "description_zh": "Save article links to Readwise Reader with automatic content-based tagging. Specialized handling for WeChat Official Account (微信公众号) articles. Use this skill...", "downloads": 30, "homepage": "https://clawhub.ai/zz123-awef/readwise-article-saver", "iconUrl": null, "installs": 1, "name": "Readwise Article Saver", "ownerName": "zz123-awef", "score": 100000, "slug": "readwise-article-saver", "source": "clawhub", "stars": 0, "tags": null, "updated_at": 1776698269965, "version": "1.0.0"}, {"category": "", "created_at": 1774880980475, "description": "Instant wallet intelligence for any EVM address. Know who you're dealing with before you interact. Wallet age, transaction history, token holdings, DeFi acti...", "description_zh": "即时查询任意EVM地址的钱包情报。交互前知己知彼。涵盖钱包账龄、交易历史、代币持仓、DeFi活动等。", "downloads": 30, "homepage": "https://clawhub.ai/supah-based/supah-wallet-xray", "iconUrl": null, "installs": 0, "name": "SUPAH Wallet X-Ray", "ownerName": "supah-based", "score": 100000, "slug": "supah-wallet-xray", "source": "clawhub", "stars": 0, "tags": null, "updated_at": 1776698269833, "version": "1.3.0"}, {"category": "", "created_at": 1774882478149, "description": "Process accounting documents — invoices (hóa đơn GTGT), purchase orders, and bank statements. Extract structured data from PDF (digital and scanned), JPG, an...", "description_zh": "处理会计文档——发票（增值税发票）、采购订单和银行对账单。从 PDF（电子版和扫描件）、JPG 等格式中提取结构化数据。", "downloads": 30, "homepage": "https://clawhub.ai/dvnghiem/vn-accounting-skill", "iconUrl": null, "installs": 2, "name": "Accounting Skill", "ownerName": "dvnghiem", "score": 68181.81818181818, "slug": "vn-accounting-skill", "source": "clawhub", "stars": 0, "tags": null, "updated_at": 1776698269796, "version": "0.1.0"}, {"category": "", "created_at": 1774797279420, "description": "千易 SaaS 智能助手（测试环境，WMS/ERP）。当用户提到库存/仓库/货主/SKU/日志等业务词时，必须优先加载本技能并调用 q-wms-flow。", "description_zh": "千易 SaaS 智能助手（测试环境，WMS/ERP）。当用户提到库存/仓库/货主/SKU/日志等业务词时，必须优先加载本技能并调用 q-wms-flow。", "downloads": 30, "homepage": "https://clawhub.ai/ljqdh/q-wms-test", "iconUrl": null, "installs": 1, "name": "Q Wms Test", "ownerName": "ljqdh", "score": 68181.81818181818, "slug": "q-wms-test", "source": "clawhub", "stars": 0, "tags": null, "updated_at": 1776698269785, "version": "1.0.41"}, {"category": "", "created_at": 1774897087782, "description": "Serve spec-driven dev tools via MCP for AI-assisted workflows. Use when adding tasks, planning iterations, tracking completion, reviewing quality.", "description_zh": "通过MCP提供规范驱动的开发工具，支持AI辅助工作流。用于添加任务、规划迭代、跟踪进度和审查质量。", "downloads": 30, "homepage": "https://clawhub.ai/bytesagain3/spec-workflow-mcp", "iconUrl": null, "installs": 2, "name": "Spec Workflow Mcp", "ownerName": "bytesagain3", "score": 68181.81818181818, "slug": "spec-workflow-mcp", "source": "clawhub", "stars": 0, "tags": null, "updated_at": 1776698269766, "version": "1.0.0"}, {"category": "", "created_at": 1774906846289, "description": "写作助手 - 标题生成、文案创作、邮件撰写。触发词：写标题、写文案、写邮件", "description_zh": "写作助手 - 标题生成、文案创作、邮件撰写。触发词：写标题、写文案、写邮件", "downloads": 30, "homepage": "https://clawhub.ai/jiangtaoid/popeye-writing", "iconUrl": null, "installs": 1, "name": "Popeye Writing", "ownerName": "jiangtaoid", "score": 68181.81818181818, "slug": "popeye-writing", "source": "clawhub", "stars": 0, "tags": null, "updated_at": 1776698269762, "version": "1.0.1"}, {"category": "", "created_at": 1774844702520, "description": "When the user wants to add, optimize, or audit social share buttons (share article to X, LinkedIn, Facebook, etc.). Also use when the user mentions \"share bu...", "description_zh": "当用户想要添加、优化或检查社交分享按钮（如分享文章到X、LinkedIn、Facebook等）时使用，或用户提及“分享按钮”时使用。", "downloads": 30, "homepage": "https://clawhub.ai/kostja94/social-share-generator", "iconUrl": null, "installs": 0, "name": "social-share-generator", "ownerName": "kostja94", "score": 100000, "slug": "social-share-generator", "source": "clawhub", "stars": 0, "tags": null, "updated_at": 1776698269760, "version": "1.0.0"}, {"category": "", "created_at": 1774873086722, "description": "Backup OpenClaw data to desktop - quick backup (without skills, ~100MB) or full backup (with skills, ~500MB+). Supports scheduled automatic backups.", "description_zh": "将 OpenClaw 数据备份到桌面——快速备份（不含技能，约100MB）或完整备份（含技能，约500MB+）。支持定时自动备份。", "downloads": 30, "homepage": "https://clawhub.ai/sen-platotech/sen-openclaw-backup", "iconUrl": null, "installs": 1, "name": "OpenClaw Backup", "ownerName": "sen-platotech", "score": 100000, "slug": "sen-openclaw-backup", "source": "clawhub", "stars": 0, "tags": ["backup", "cross-platform", "migration", "portable", "utility"], "updated_at": 1776698269669, "version": "1.1.2"}, {"category": "", "created_at": 1774849203186, "description": "Structured spec-first development workflow with multi-role expert review gates: clarify requirements, author spec documents (requirements/design/tasks), gene...", "description_zh": "结构化规范优先的开发工作流，含多角色专家评审关卡：澄清需求、编写规范文档（需求/设计/任务），生成...", "downloads": 30, "homepage": "https://clawhub.ai/xhuaustc/spec-coder", "iconUrl": null, "installs": 1, "name": "Spec Coder", "ownerName": "xhuaustc", "score": 100000, "slug": "spec-coder", "source": "clawhub", "stars": 0, "tags": null, "updated_at": 1776698269569, "version": "0.1.3"}, {"category": "", "created_at": 1774945323366, "description": "Xueersi Idiom Chain Game: Interactive Chinese chengyu (idiom) chain game with explanations, difficulty levels, and vocabulary learning. Great for K-12 Chines...", "description_zh": "学而思成语接龙：互动式中文成语接龙游戏，含解释、难度分级和词汇学习，适合K-12学生。", "downloads": 30, "homepage": "https://clawhub.ai/zhouzhi-tal/xueersi-idiom-chain", "iconUrl": null, "installs": 0, "name": "Xueersi Idiom Chain Game", "ownerName": "zhouzhi-tal", "score": 100000, "slug": "xueersi-idiom-chain", "source": "clawhub", "stars": 0, "tags": ["chinese", "education", "k12", "xueersi"], "updated_at": 1776698269553, "version": "1.0.1"}, {"category": "", "created_at": 1774898751867, "description": "Search and analyze your own session logs (older/parent conversations) using jq.", "description_zh": "使用 jq 搜索并分析自身的会话日志（旧会话/父对话）。", "downloads": 30, "homepage": "https://clawhub.ai/yanjiang8124/session-logs1", "iconUrl": null, "installs": 1, "name": "session-logs1", "ownerName": "yanjiang8124", "score": 100000, "slug": "session-logs1", "source": "clawhub", "stars": 0, "tags": null, "updated_at": 1776698155537, "version": "1.0.0"}, {"category": "", "created_at": 1774865533546, "description": "Reference tool for devtools — covers intro, quickstart, patterns and more. Quick lookup for Web Check concepts, best practices, and implementation patterns.", "description_zh": "devtools 参考工具——涵盖入门、快速启动、模式等。快速查询 Web Check 概念、最佳实践和实现模式。", "downloads": 30, "homepage": "https://clawhub.ai/xueyetianya/web-check", "iconUrl": null, "installs": 0, "name": "Web Check", "ownerName": "xueyetianya", "score": 100000, "slug": "web-check", "source": "clawhub", "stars": 0, "tags": null, "updated_at": 1776698155535, "version": "2.0.2"}, {"category": "", "created_at": 1774898901811, "description": "Shop Wayfair furniture and home goods via Strider Labs MCP connector. Search products, compare prices, check delivery estimates, and track orders.", "description_zh": "通过 Strider Labs MCP 连接器在 Wayfair 购买家具和家居用品，搜索商品、比较价格、查看配送时间并追踪订单。", "downloads": 30, "homepage": "https://clawhub.ai/markswendsen-code/strider-wayfair", "iconUrl": null, "installs": 0, "name": "Strider Wayfair", "ownerName": "markswendsen-code", "score": 100000, "slug": "strider-wayfair", "source": "clawhub", "stars": 0, "tags": null, "updated_at": 1776698155534, "version": "1.0.0"}, {"category": "", "created_at": 1775548754175, "description": "", "description_zh": "Use this skill when the user asks to \"润色\" (polish/refine) any text content — such as \"润色这篇文章\", \"润色一下\", \"帮我润色\", or similar expressions. This skill detects and removes typical AI-generated writing patterns (\"AI味\") from text, making it sound more natural, human, and conversational. It replaces robotic phrasing with genuine human expression while preserving the author's original intent and style.", "downloads": 30, "homepage": "https://clawhub.ai/user_7e25a48a/thisifsa", "iconUrl": null, "installs": 0, "name": "thisifsa", "ownerName": "user_7e25a48a", "score": 100000, "slug": "thisifsa", "source": "community", "stars": 0, "tags": null, "updated_at": 1776698155532, "version": "1.0.0"}, {"category": "", "created_at": 1774870532189, "description": "Reference tool for devtools — covers intro, quickstart, patterns and more. Quick lookup for Traceroute Visual concepts, best practices, and implementation pa...", "description_zh": "开发工具参考手册——涵盖入门介绍、快速上手、使用模式等内容。支持快速查阅路由追踪（Traceroute）相关可视化概念、最佳实践及实现方案。", "downloads": 30, "homepage": "https://clawhub.ai/xueyetianya/traceroute-visual", "iconUrl": null, "installs": 0, "name": "Traceroute Visual", "ownerName": "xueyetianya", "score": 100000, "slug": "traceroute-visual", "source": "clawhub", "stars": 0, "tags": null, "updated_at": 1776698155530, "version": "2.0.1"}, {"category": "", "created_at": 1775204407320, "description": "", "description_zh": "Conducts video safety risk analysis for participants in outdoor sports competitions, long-distance running, marathons, etc.; identifies sports injuries and sudden health risks, outputs professional analysis reports, and provides timely warnings to ensure sports safety. | 户外体育赛事风险分析工具，针对户外体育比赛、长跑马拉松等运动项目的参赛人员进行视频安全风险分析，识别运动损伤和突发健康风险，输出专业分析报告，及时预警保障运动安全", "downloads": 30, "homepage": "https://clawhub.ai/user_bb47e3e3/sport-analysis", "iconUrl": null, "installs": 2, "name": "Outdoor Sports Event Risk Analysis Tool | 户外体育赛事风险分析工具", "ownerName": "user_bb47e3e3", "score": 100000, "slug": "sport-analysis", "source": "community", "stars": 0, "tags": null, "updated_at": 1776698155528, "version": "1.0.0"}, {"category": "", "created_at": 1774869301651, "description": "Audit all installed skills for quality, duplicates, structural issues, and best-practice compliance. Use when asked to review, audit, lint, or check skills f...", "description_zh": "审计所有已安装的技能，检查质量、重复、结构问题和最佳实践合规性。在要求审查、审计、lint或检查技能时使用。", "downloads": 30, "homepage": "https://clawhub.ai/bill492/unblocklabs-skill-audit", "iconUrl": null, "installs": 0, "name": "Skill Audit", "ownerName": "bill492", "score": 100000, "slug": "unblocklabs-skill-audit", "source": "clawhub", "stars": 0, "tags": null, "updated_at": 1776698155524, "version": "1.0.0"}, {"category": "", "created_at": 1774893561963, "description": "面对多个目标、有限资源与冲突时，输出排序、牺牲说明、边界与不做清单。；use for priority, tradeoff, planning workflows；do not use for 替代人事绩效决策, 伪造资源承诺.", "description_zh": "面对多个目标、有限资源与冲突时，输出排序、牺牲说明、边界与不做清单。；use for priority, tradeoff, planning workflows；do not use for 替代人事绩效决策, 伪造资源承诺.", "downloads": 30, "homepage": "https://clawhub.ai/52yuanchangxing/priority-conflict-resolver", "iconUrl": null, "installs": 1, "name": "Priority Conflict Resolver", "ownerName": "52yuanchangxing", "score": 100000, "slug": "priority-conflict-resolver", "source": "clawhub", "stars": 0, "tags": null, "updated_at": 1776698155521, "version": "1.0.0"}, {"category": "", "created_at": 1774917263322, "description": "SMS Magic integration. Manage SMSes, Contacts, Conversations, Templates, Campaigns, Lists. Use when the user wants to interact with SMS Magic data.", "description_zh": "SMS Magic 集成。管理短信、联系人、对话、模板、营销活动、列表。用于与 SMS Magic 数据交互。", "downloads": 30, "homepage": "https://clawhub.ai/gora050/sms-magic", "iconUrl": null, "installs": 2, "name": "Sms Magic", "ownerName": "gora050", "score": 100000, "slug": "sms-magic", "source": "clawhub", "stars": 0, "tags": null, "updated_at": 1776698155513, "version": "1.0.0"}, {"category": "", "created_at": 1774855243852, "description": "PrintNode integration. Manage Printers, PrintJobs, Accounts. Use when the user wants to interact with PrintNode data.", "description_zh": "PrintNode 集成。管理打印机、打印任务和账户。当用户需要与 PrintNode 数据交互时使用。", "downloads": 30, "homepage": "https://clawhub.ai/gora050/printnode", "iconUrl": null, "installs": 1, "name": "Printnode", "ownerName": "gora050", "score": 100000, "slug": "printnode", "source": "clawhub", "stars": 0, "tags": null, "updated_at": 1776698155507, "version": "1.0.0"}, {"category": "", "created_at": 1774912167237, "description": "Position products and services in the market using strategic frameworks. Use for competitive analysis, pricing strategy, and value proposition design.", "description_zh": "运用战略框架进行市场定位，用于竞争分析、定价策略和价值主张设计。", "downloads": 30, "homepage": "https://clawhub.ai/linuszz/products-services-differentiation", "iconUrl": null, "installs": 0, "name": "Products Services Differentiation", "ownerName": "linuszz", "score": 100000, "slug": "products-services-differentiation", "source": "clawhub", "stars": 0, "tags": null, "updated_at": 1776698155504, "version": "1.0.0"}, {"category": "", "created_at": 1774845616017, "description": "Run and grow a Whop business with better offers, checkout flows, promo strategy, affiliates, ads, tracking, analytics, support operations, and advanced API w...", "description_zh": "运营并发展Whop业务，优化优惠方案、结账流程、促销策略、联盟营销、广告投放、数据追踪、分析支持、运营服务及高级API等", "downloads": 30, "homepage": "https://clawhub.ai/ivangdavila/whop", "iconUrl": null, "installs": 1, "name": "Whop", "ownerName": "ivangdavila", "score": 100000, "slug": "whop", "source": "clawhub", "stars": 0, "tags": null, "updated_at": 1776698155496, "version": "1.0.1"}, {"category": "", "created_at": 1774846926396, "description": "收费技能示例模板 - 带授权验证，演示如何在 ClawHub 发布付费技能", "description_zh": "收费技能示例模板 - 带授权验证，演示如何在 ClawHub 发布付费技能", "downloads": 30, "homepage": "https://clawhub.ai/lintqiu/test-jiaodian-lin-demo", "iconUrl": null, "installs": 0, "name": "test-jiaodian-lin-demo", "ownerName": "lintqiu", "score": 100000, "slug": "test-jiaodian-lin-demo", "source": "clawhub", "stars": 0, "tags": null, "updated_at": 1776698155489, "version": "0.1.0"}, {"category": "", "created_at": 1774887358681, "description": "Detects repeated queries as implicit negative feedback and non-repetition as positive feedback, enabling continuous learning by writing reflections and patte...", "description_zh": "将重复查询检测为隐性负反馈，将非重复视为正反馈，通过记录反思与规律模式实现持续学习。", "downloads": 30, "homepage": "https://clawhub.ai/kaventures/reflex-learn", "iconUrl": null, "installs": 0, "name": "Reflexlearn", "ownerName": "kaventures", "score": 100000, "slug": "reflex-learn", "source": "clawhub", "stars": 0, "tags": null, "updated_at": 1776698155483, "version": "1.0.2"}, {"category": "", "created_at": 1774902418848, "description": "翻译助手 - 中英互译、润色、本地化。触发词：翻译、润色、本地化", "description_zh": "翻译助手 - 中英互译、润色、本地化。触发词：翻译、润色、本地化", "downloads": 30, "homepage": "https://clawhub.ai/jiangtaoid/popeye-translation", "iconUrl": null, "installs": 1, "name": "Popeye Translation", "ownerName": "jiangtaoid", "score": 100000, "slug": "popeye-translation", "source": "clawhub", "stars": 0, "tags": null, "updated_at": 1776698155481, "version": "1.0.1"}, {"category": "", "created_at": 1774904824453, "description": "Analyze market share dynamics and momentum. Use for competitive analysis and strategic planning.", "description_zh": "分析市场份额动态和势头。用于竞争分析和战略规划。", "downloads": 30, "homepage": "https://clawhub.ai/linuszz/share-momentum", "iconUrl": null, "installs": 0, "name": "Share Momentum", "ownerName": "linuszz", "score": 100000, "slug": "share-momentum", "source": "clawhub", "stars": 0, "tags": null, "updated_at": 1776698155479, "version": "1.0.0"}, {"category": "", "created_at": 1774902483093, "description": "基于历史问题生成回归测试故事集、风险等级和优先级。；use for regression, testing, qa workflows；do not use for 宣称已经执行测试, 跳过高风险路径.", "description_zh": "基于历史问题生成回归测试故事集、风险等级和优先级。；use for regression, testing, qa workflows；do not use for 宣称已经执行测试, 跳过高风险路径.", "downloads": 30, "homepage": "https://clawhub.ai/52yuanchangxing/regression-story-builder", "iconUrl": null, "installs": 2, "name": "Regression Story Builder", "ownerName": "52yuanchangxing", "score": 100000, "slug": "regression-story-builder", "source": "clawhub", "stars": 0, "tags": null, "updated_at": 1776698155476, "version": "1.0.0"}, {"category": "", "created_at": 1775098824555, "description": "", "description_zh": "根据 API 接口描述（接口地址、请求方式、响应 TS 类型）生成 Chrome DevTools Local Overrides 格式的 Mock 数据文件，并直接创建到指定目录。当用户提到\"mock 数据\"、\"本地替换\"、\"接口 mock\"、\"Chrome Overrides\"、\"API 调试\"等关键词时使用此技能。", "downloads": 30, "homepage": "https://clawhub.ai/user_1d8afadc/sc-api-mock-generator-v1", "iconUrl": null, "installs": 0, "name": "sc-api-mock-generator", "ownerName": "user_1d8afadc", "score": 100000, "slug": "sc-api-mock-generator-v1", "source": "community", "stars": 0, "tags": null, "updated_at": 1776698155463, "version": "1.0.0"}, {"category": "", "created_at": 1775799525181, "description": "", "description_zh": "", "downloads": 30, "homepage": "https://clawhub.ai/user_5e9ebbba/westmoon-qrcode-login", "iconUrl": null, "installs": 0, "name": "西之月登录", "ownerName": "user_5e9ebbba", "score": 100000, "slug": "westmoon-qrcode-login", "source": "community", "stars": 0, "tags": null, "updated_at": 1776698155460, "version": "0.1.0"}, {"category": "", "created_at": 1774892345655, "description": "Map competitor presence before the show and sharpen booth positioning.", "description_zh": "在展会前摸清竞争对手布局，优化自身展位定位。", "downloads": 30, "homepage": "https://clawhub.ai/weilun88313/pre-show-competitor-analysis", "iconUrl": null, "installs": 3, "name": "Pre Show Competitor Analysis", "ownerName": "weilun88313", "score": 100000, "slug": "pre-show-competitor-analysis", "source": "clawhub", "stars": 0, "tags": null, "updated_at": 1776698146992, "version": "1.0.3"}, {"category": "", "created_at": 1774956049604, "description": "Get current weather and forecasts (no API key required).", "description_zh": "获取当前天气和预报（无需 API 密钥）", "downloads": 30, "homepage": "https://clawhub.ai/onlyloveher/weather-zhouli", "iconUrl": null, "installs": 2, "name": "Weather", "ownerName": "onlyloveher", "score": 100000, "slug": "weather-zhouli", "source": "clawhub", "stars": 0, "tags": null, "updated_at": 1776698146990, "version": "1.0.0"}, {"category": "", "created_at": 1774873232218, "description": "A collection of inspiring lists, manuals, cheatsheets, blogs, hacks, one-liners, cli/web tools and m the book of secret knowledge, python, awesome.", "description_zh": "汇集了各类精选清单、手册、速查表、博客、技巧、单行命令、命令行/网络工具及《秘密知识之书》等资源的合集，涵盖 Python 与 Awesome 系列。", "downloads": 30, "homepage": "https://clawhub.ai/bytesagain3/sysadmin-handbook", "iconUrl": null, "installs": 1, "name": "Sysadmin Handbook", "ownerName": "bytesagain3", "score": 100000, "slug": "sysadmin-handbook", "source": "clawhub", "stars": 0, "tags": null, "updated_at": 1776698146988, "version": "1.0.0"}, {"category": "", "created_at": 1776245665340, "description": "", "description_zh": ">系统性总结任务从启动到完成的整个执行过程，生成高质量的结构化经验报告。 自动触发于以下场景：任务完成后用户明确说\"总结\"、\"复盘\"、\"回顾\"、\"报告\"或隐式表达 \"做得怎么样\"、\"有什么收获\"；支持参数化调用（/task-summary）和手动命令触发。 适用于软件开发、项目管理、故障排查、技术研究、学习成长等所有有明确起止的任务类型。 核心能力：三层触发识别、七步执行流程、五维深度分析、10章标准报告模板、15个错误码体系。 详见快速开始与触发条件章节。", "downloads": 30, "homepage": "https://clawhub.ai/user_132df3b5/task-execution-summary", "iconUrl": null, "installs": 4, "name": "任务执行复盘", "ownerName": "user_132df3b5", "score": 100000, "slug": "task-execution-summary", "source": "community", "stars": 0, "tags": null, "updated_at": 1776698146987, "version": "1.0.0"}, {"category": "", "created_at": 1774901654355, "description": "Convert Windows paths to WSL paths for file operations in WSL environment", "description_zh": "在WSL环境中，将Windows路径转换为WSL路径以进行文件操作", "downloads": 30, "homepage": "https://clawhub.ai/weiqihan/wsl-path-converter", "iconUrl": null, "installs": 3, "name": "wsl-path-converter", "ownerName": "weiqihan", "score": 100000, "slug": "wsl-path-converter", "source": "clawhub", "stars": 0, "tags": null, "updated_at": 1776698146983, "version": "1.0.0"}, {"category": "", "created_at": 1774879587194, "description": "This skill helps users automatically extract complete Markdown content from any website via the BrowserAct Web Search Scraper API. The Agent should proactive...", "description_zh": "此技能通过BrowserAct网页搜索抓取API，帮助用户自动从任意网站提取完整的Markdown内容。Agent应主动...", "downloads": 30, "homepage": "https://clawhub.ai/browseract-ai/web-search-scraper-api-skill", "iconUrl": null, "installs": 2, "name": "web-search-scraper-api-skill", "ownerName": "browseract-ai", "score": 100000, "slug": "web-search-scraper-api-skill", "source": "clawhub", "stars": 0, "tags": null, "updated_at": 1776698146982, "version": "1.0.0"}, {"category": "", "created_at": 1774888344765, "description": "Compare two queue or state snapshots and explain what changed between them. Use when Codex needs to analyze drift between JSON/JSONL snapshots, detect newly...", "description_zh": "比较两个队列或状态快照并解释其间差异。用于 Codex 分析 JSON/JSONL 快照间的漂移、检测新增项等场景。", "downloads": 30, "homepage": "https://clawhub.ai/neo1307/queue-state-diff", "iconUrl": null, "installs": 0, "name": "Queue State Diff", "ownerName": "neo1307", "score": 100000, "slug": "queue-state-diff", "source": "clawhub", "stars": 0, "tags": null, "updated_at": 1776698146973, "version": "1.0.0"}, {"category": "", "created_at": 1774906629506, "description": "Machine-only debate arena. Join rooms, argue positions, run Python experiments. Humans only spectate.", "description_zh": "仅限机器的辩论场，加入房间争论立场、运行Python实验，人类仅旁观。", "downloads": 30, "homepage": "https://clawhub.ai/bondarenkocom/hexnest", "iconUrl": null, "installs": 0, "name": "hexnest", "ownerName": "bondarenkocom", "score": 100000, "slug": "hexnest", "source": "clawhub", "stars": 0, "tags": null, "updated_at": 1776698144758, "version": "1.0.0"}, {"category": "", "created_at": 1774886468957, "description": "Automated guided vehicle route planner. Use when json agv tasks, csv agv tasks, checking agv status.", "description_zh": "{\n \"answer\": \"自动导引车路径规划器。用于处理JSON或CSV格式的AGV任务及查询AGV状态。\"\n}", "downloads": 30, "homepage": "https://clawhub.ai/xueyetianya/agv", "iconUrl": null, "installs": 2, "name": "Agv", "ownerName": "xueyetianya", "score": 100000, "slug": "agv", "source": "clawhub", "stars": 0, "tags": null, "updated_at": 1776698144754, "version": "1.0.0"}, {"category": "", "created_at": 1774874053185, "description": "Interact with Joplin notes via CLI. Use for reading, creating, editing notes and managing todos. Supports WebDAV sync and kanban-formatted notes.", "description_zh": "通过命令行与Joplin笔记交互。用于读取、创建、编辑笔记及管理待办事项。支持WebDAV同步和看板格式笔记。", "downloads": 30, "homepage": "https://clawhub.ai/davek-dev/joplin-cli-skill", "iconUrl": null, "installs": 1, "name": "Joplin", "ownerName": "davek-dev", "score": 100000, "slug": "joplin-cli-skill", "source": "clawhub", "stars": 0, "tags": null, "updated_at": 1776698144751, "version": "1.3.6"}, {"category": "", "created_at": 1774944857826, "description": "Use when writing tests, creating test strategies, or building automation frameworks. Invoke for unit tests, integration tests, E2E, coverage analysis, perfor...", "description_zh": "用于编写测试、制定测试策略或构建自动化框架。适用于单元测试、集成测试、端到端测试、覆盖率分析、性能测试等。", "downloads": 30, "homepage": "https://clawhub.ai/lintqiu/lin-tet-master", "iconUrl": null, "installs": 1, "name": "lin-tet-master", "ownerName": "lintqiu", "score": 100000, "slug": "lin-tet-master", "source": "clawhub", "stars": 0, "tags": null, "updated_at": 1776698144749, "version": "1.0.1"}, {"category": "", "created_at": 1774916885084, "description": "Generate secure random passwords and check password strength. Supports custom length and character types (uppercase, lowercase, numbers, symbols). Pure local...", "description_zh": "生成安全随机密码并检测密码强度。支持自定义长度及字符类型（大小写、数字、符号）。纯本地运行。", "downloads": 30, "homepage": "https://clawhub.ai/alone86136/local-password", "iconUrl": null, "installs": 4, "name": "Local Password Generator & Strength Check", "ownerName": "alone86136", "score": 100000, "slug": "local-password", "source": "clawhub", "stars": 0, "tags": null, "updated_at": 1776698144748, "version": "1.0.0"}, {"category": "", "created_at": 1774847134374, "description": "Extract readable content from browser pages as markdown. Use when web_fetch fails (bot protection, auth-required pages, Twitter/X, LinkedIn) and you already...", "description_zh": "从浏览器页面提取可读内容并转为Markdown格式。当web_fetch失败时使用（如遭遇机器人防护、需要身份验证的页面、Twitter/X、LinkedIn等），且你已...", "downloads": 30, "homepage": "https://clawhub.ai/bill492/browser-read", "iconUrl": null, "installs": 2, "name": "Browser Read", "ownerName": "bill492", "score": 100000, "slug": "browser-read", "source": "clawhub", "stars": 0, "tags": null, "updated_at": 1776698144746, "version": "1.0.0"}, {"category": "", "created_at": 1774945431928, "description": "Holded integration. Manage Organizations. Use when the user wants to interact with Holded data.", "description_zh": "Holded 集成。管理组织。适用于用户与 Holded 数据交互的场景。", "downloads": 30, "homepage": "https://clawhub.ai/gora050/holded", "iconUrl": null, "installs": 0, "name": "Holded", "ownerName": "gora050", "score": 100000, "slug": "holded", "source": "clawhub", "stars": 0, "tags": null, "updated_at": 1776698144744, "version": "1.0.0"}, {"category": "", "created_at": 1774880538985, "description": "Optimizes Markdown-formatted messages for IM platforms (WeChat, DingTalk, etc.) by removing unsupported markup and using clean text layouts.", "description_zh": "优化即时通讯平台（微信、钉钉等）的Markdown消息格式，移除不支持的标记语法，使用简洁的纯文本排版。", "downloads": 30, "homepage": "https://clawhub.ai/70asunflower/message-friendly", "iconUrl": null, "installs": 0, "name": "message-friendly", "ownerName": "70asunflower", "score": 100000, "slug": "message-friendly", "source": "clawhub", "stars": 0, "tags": null, "updated_at": 1776698144740, "version": "1.0.1"}, {"category": "", "created_at": 1774891278217, "description": "FraudLabs Pro integration. Manage data, records, and automate workflows. Use when the user wants to interact with FraudLabs Pro data.", "description_zh": "FraudLabs Pro 集成。管理数据、记录并自动化工作流程。用于用户需要与 FraudLabs Pro 数据交互时。", "downloads": 30, "homepage": "https://clawhub.ai/gora050/fraudlabs-pro", "iconUrl": null, "installs": 0, "name": "Fraudlabs Pro", "ownerName": "gora050", "score": 100000, "slug": "fraudlabs-pro", "source": "clawhub", "stars": 0, "tags": null, "updated_at": 1776698144739, "version": "1.0.0"}, {"category": "", "created_at": 1774905614147, "description": "Generate a small, specific, daily-life Poke recipe MVP from idea to Kitchen-ready draft (name, onboarding, integrations, automations, sandbox tests), with a...", "description_zh": "从创意到可执行草案，快速生成一个小而具体的日常生活Poke食谱MVP（包含名称、引导流程、集成方案、自动化配置及沙盒测试）", "downloads": 30, "homepage": "https://clawhub.ai/skylinehk/infinity-poke-recipe-generator", "iconUrl": null, "installs": 0, "name": "Infinity Poke Recipe Generator", "ownerName": "skylinehk", "score": 100000, "slug": "infinity-poke-recipe-generator", "source": "clawhub", "stars": 0, "tags": null, "updated_at": 1776698144733, "version": "0.1.2"}, {"category": "", "created_at": 1774875604831, "description": "GTmetrix integration. Manage Accounts. Use when the user wants to interact with GTmetrix data.", "description_zh": "GTmetrix集成。管理账户。用于用户想要与GTmetrix数据交互时。", "downloads": 30, "homepage": "https://clawhub.ai/membranedev/gtmetrix", "iconUrl": null, "installs": 0, "name": "Gtmetrix", "ownerName": "membranedev", "score": 100000, "slug": "gtmetrix", "source": "clawhub", "stars": 0, "tags": null, "updated_at": 1776698144730, "version": "1.0.0"}]}