{"page": 615, "total_pages": 685, "total": 34217, "skills": [{"category": "", "created_at": 1774948323899, "description": "ClawBond — 与外部 Claw 和人类交互的社交平台技能 (social platform for reaching other Claws and humans). MUST trigger when: (1) 任务需要主动联系、寻找、认识外部 Claw 或人类; (2) 需要在平台上发布内容、浏览动态...", "description_zh": "ClawBond — 与外部 Claw 和人类交互的社交平台技能 (social platform for reaching other Claws and humans). MUST trigger when: (1) 任务需要主动联系、寻找、认识外部 Claw 或人类; (2) 需要在平台上发布内容、浏览动态...", "downloads": 30, "homepage": "https://clawhub.ai/galaxy-0/clawping", "iconUrl": null, "installs": 0, "name": "clawping", "ownerName": "galaxy-0", "score": 100000, "slug": "clawping", "source": "clawhub", "stars": 0, "tags": null, "updated_at": 1776698144728, "version": "1.2.8"}, {"category": "", "created_at": 1774893176487, "description": "Capture key frames from video files at fixed time intervals. Use when you need to understand video content by extracting screenshots, or when you need to ana...", "description_zh": "按固定时间间隔从视频文件中提取关键帧。适用于需要通过截图了解视频内容或进行分...的情况。", "downloads": 30, "homepage": "https://clawhub.ai/chentx1243/maple-video-capture", "iconUrl": null, "installs": 0, "name": "video2imgs-视频关键帧获取", "ownerName": "chentx1243", "score": 100000, "slug": "maple-video-capture", "source": "clawhub", "stars": 0, "tags": null, "updated_at": 1776698144727, "version": "1.0.0"}, {"category": "", "created_at": 1774813205980, "description": "本地 Skill 目录的集中管理工具（\"Skill 管家\"）。当用户想要： (1) 列出或查询已安装的 Skill（系统级或用户级）； (2) 检查各 Skill 的版本信息； (3) 使用标准模板快速创建新的本地 Skill； (4) 删除或移除不再需要的 Skill。 请使用此技能。", "description_zh": "本地 Skill 目录的集中管理工具（\"Skill 管家\"）。当用户想要： (1) 列出或查询已安装的 Skill（系统级或用户级）； (2) 检查各 Skill 的版本信息； (3) 使用标准模板快速创建新的本地 Skill； (4) 删除或移除不再需要的 Skill。 请使用此技能。", "downloads": 30, "homepage": "https://clawhub.ai/chenchen913/local-skill-manager", "iconUrl": null, "installs": 1, "name": "local-skill-manager", "ownerName": "chenchen913", "score": 100000, "slug": "local-skill-manager", "source": "clawhub", "stars": 0, "tags": ["ai-development", "cli-tools", "developer-tools", "environment-management", "local-tools", "scaffolding", "skill-management", "skill-manager", "toolchain", "version-check"], "updated_at": 1776698144718, "version": "1.0.1"}, {"category": "", "created_at": 1775741617187, "description": "", "description_zh": "触发词：好不好，行不行，你觉得怎么样，你看，你，是不是你有什么想法", "downloads": 30, "homepage": "https://clawhub.ai/user_a6cc195b/haohaoxiansheng", "iconUrl": null, "installs": 0, "name": "好好先生", "ownerName": "user_a6cc195b", "score": 100000, "slug": "haohaoxiansheng", "source": "community", "stars": 0, "tags": null, "updated_at": 1776698144716, "version": "1.0.0"}, {"category": "", "created_at": 1774845191332, "description": "Fetch full text from Twitter/X tweets via fxtwitter API, then translate to Chinese. Triggers when user shares a x.com / twitter.com / fxtwitter link and asks...", "description_zh": "通过 fxtwitter API 获取 Twitter/X 推文的完整文本，然后翻译成中文。当用户分享 x.com / twitter.com / fxtwitter 链接并请求翻译时触发。", "downloads": 30, "homepage": "https://clawhub.ai/dizhu/fxtwitter-translate", "iconUrl": null, "installs": 1, "name": "FX Twitter Translate", "ownerName": "dizhu", "score": 100000, "slug": "fxtwitter-translate", "source": "clawhub", "stars": 0, "tags": null, "updated_at": 1776698144706, "version": "0.1.0"}, {"category": "", "created_at": 1774916201478, "description": "Use @ainative/react-sdk to add AI chat and credits to React apps. Use when (1) Installing @ainative/react-sdk, (2) Using the useChat hook for chat completion...", "description_zh": "使用 @ainative/react-sdk 为 React 应用添加 AI 聊天和积分功能，适用于（1）安装 @ainative/react-sdk；（2）使用 useChat hook 进行对话完成等场景。", "downloads": 30, "homepage": "https://clawhub.ai/urbantech/ainative-react-sdk", "iconUrl": null, "installs": 0, "name": "Ainative React Sdk", "ownerName": "urbantech", "score": 100000, "slug": "ainative-react-sdk", "source": "clawhub", "stars": 0, "tags": null, "updated_at": 1776698144704, "version": "1.0.0"}, {"category": "", "created_at": 1774821327443, "description": "AI-powered highlight extraction that identifies the most engaging moments and generates viral-ready clips. Ideal for social media content creation, highlight...", "description_zh": "AI驱动的高光提取，识别精彩时刻并生成病毒式传播片段，适合社交媒体内容创作。", "downloads": 30, "homepage": "https://clawhub.ai/wayinvideo/ai-clipping", "iconUrl": null, "installs": 1, "name": "AI Clipping", "ownerName": "wayinvideo", "score": 100000, "slug": "ai-clipping", "source": "clawhub", "stars": 0, "tags": null, "updated_at": 1776698144703, "version": "1.0.4"}, {"category": "", "created_at": 1774883118732, "description": "HTTP status code reference — instant lookup of any status code with meaning, common causes, and fix suggestions. Use when the user asks about an HTTP status...", "description_zh": "HTTP 状态码速查工具——即时查询任意状态码的含义、常见原因及修复建议。适用于用户询问 HTTP 状态码相关问题时使用。", "downloads": 30, "homepage": "https://clawhub.ai/tobewin/http-status", "iconUrl": null, "installs": 0, "name": "Http Status", "ownerName": "tobewin", "score": 100000, "slug": "http-status", "source": "clawhub", "stars": 0, "tags": null, "updated_at": 1776698144701, "version": "1.0.0"}, {"category": "", "created_at": 1774875691868, "description": "Validate JSON data against JSON Schema, generate schemas from sample JSON, and convert schemas to TypeScript interfaces, Python dataclasses, or Markdown docs...", "description_zh": "使用 JSON Schema 验证 JSON 数据，从示例 JSON 生成 schema，并将其转换为 TypeScript 接口、Python 数据类或 Markdown 文档。", "downloads": 30, "homepage": "https://clawhub.ai/johnnywang2001/json-schema-toolkit", "iconUrl": null, "installs": 0, "name": "Json Schema Toolkit", "ownerName": "johnnywang2001", "score": 100000, "slug": "json-schema-toolkit", "source": "clawhub", "stars": 0, "tags": null, "updated_at": 1776698144699, "version": "1.0.0"}, {"category": "", "created_at": 1774868643149, "description": "When the user wants to create, optimize, or audit blog page structure and content. Also use when the user mentions \"blog page,\" \"blog index,\" \"blog layout,\"...", "description_zh": "{\"description_zh\":\"当用户想要创建、优化或审查博客页面结构与内容时使用。也适用于用户提及\"博客页面\"、\"博客索引\"、\"博客布局\"等相关内容时。\"}", "downloads": 30, "homepage": "https://clawhub.ai/kostja94/blog-page-generator", "iconUrl": null, "installs": 0, "name": "blog-page-generator", "ownerName": "kostja94", "score": 100000, "slug": "blog-page-generator", "source": "clawhub", "stars": 0, "tags": null, "updated_at": 1776698144696, "version": "1.0.0"}, {"category": "", "created_at": 1774864644010, "description": "When the user wants to design, optimize, or audit card layouts for content display. Also use when the user mentions \"card layout,\" \"card component,\" \"card gr...", "description_zh": "当用户希望设计、优化或审核用于内容展示的卡片布局，或提及“卡片布局”、“卡片组件”、“卡片网格”时使用。", "downloads": 30, "homepage": "https://clawhub.ai/kostja94/card-components", "iconUrl": null, "installs": 0, "name": "card", "ownerName": "kostja94", "score": 100000, "slug": "card-components", "source": "clawhub", "stars": 0, "tags": null, "updated_at": 1776698144692, "version": "1.1.0"}, {"category": "", "created_at": 1775199049684, "description": "", "description_zh": "Based on facial video, identifies abnormal rhythms such as premature beats, atrial fibrillation, tachycardia/bradycardia, assists in early detection of heart health risks. | 心律失常早期预警技能，基于面部视频识别早搏、房颤、心动过速/心动过缓等异常节律，辅助心脏健康风险早发现", "downloads": 30, "homepage": "https://clawhub.ai/user_bb47e3e3/arrhythmia-early-warning-analysis", "iconUrl": null, "installs": 0, "name": "Arrhythmia Early Warning Analysis Tool | 心律失常早期预警分析工具", "ownerName": "user_bb47e3e3", "score": 100000, "slug": "arrhythmia-early-warning-analysis", "source": "community", "stars": 0, "tags": null, "updated_at": 1776698144691, "version": "1.0.3"}, {"category": "", "created_at": 1774890940279, "description": "CardZero — the first payment wallet built for AI agents. Create USDC wallets on Base L2, make payments, pay x402 paywalls, pay other agents, check balance, v...", "description_zh": "CardZero — 为 AI 代理打造的首个支付钱包。在 Base L2 上创建 USDC 钱包，进行支付、支付 x402 付费墙、向其他代理付款、查询余额等功能。", "downloads": 30, "homepage": "https://clawhub.ai/mrocker/cardzero", "iconUrl": null, "installs": 0, "name": "CardZero", "ownerName": "mrocker", "score": 100000, "slug": "cardzero", "source": "clawhub", "stars": 0, "tags": null, "updated_at": 1776698144682, "version": "1.3.0"}, {"category": "", "created_at": 1774852421046, "description": "Turn Hong Kong stock research into Gougoubi-ready prediction proposals with deterministic market wording, deadline selection, resolution rules, and tags. Use...", "description_zh": "把香港股票研究转化为Gougoubi可用的预测提案，涵盖确定性市场措辞、截止时间、结算规则和标签。使用…", "downloads": 30, "homepage": "https://clawhub.ai/chinasong/hk-stock-to-gougoubi-prediction", "iconUrl": null, "installs": 1, "name": "Hk Stock To Gougoubi Prediction", "ownerName": "chinasong", "score": 100000, "slug": "hk-stock-to-gougoubi-prediction", "source": "clawhub", "stars": 0, "tags": null, "updated_at": 1776698144678, "version": "1.0.0"}, {"category": "", "created_at": 1774869691930, "description": "Comprehensive industrial machinery industry suppliers guide for international buyers – provides detailed information about China's machine tools, constructio...", "description_zh": "国际买家工业机械供应商综合指南——详介中国机床、建筑机械等", "downloads": 30, "homepage": "https://clawhub.ai/findhappy7/china-industrial-machinery-suppliers", "iconUrl": null, "installs": 1, "name": "China Industrial Machinery Suppliers", "ownerName": "findhappy7", "score": 100000, "slug": "china-industrial-machinery-suppliers", "source": "clawhub", "stars": 0, "tags": null, "updated_at": 1776698144676, "version": "1.0.0"}, {"category": "", "created_at": 1774921210268, "description": "Dub integration. Manage Links, Workspaces. Use when the user wants to interact with Dub data.", "description_zh": "Dub 集成。管理链接和工作空间。当用户需要与 Dub 数据交互时使用。", "downloads": 30, "homepage": "https://clawhub.ai/gora050/dub", "iconUrl": null, "installs": 0, "name": "Dub", "ownerName": "gora050", "score": 100000, "slug": "dub", "source": "clawhub", "stars": 0, "tags": null, "updated_at": 1776698144674, "version": "1.0.0"}, {"category": "", "created_at": 1774910979214, "description": "AI-powered video editing via the Mosaic API. Create agents, run video workflows, manage social accounts, publish content, upload assets, and handle credits....", "description_zh": "通过 Mosaic API 进行 AI 视频编辑。支持创建代理、运行视频工作流、管理社交账号、发布内容、上传资产及处理积分。", "downloads": 30, "homepage": "https://clawhub.ai/kyle1373/mosaic-video-editor", "iconUrl": null, "installs": 1, "name": "Mosaic Video Editor", "ownerName": "kyle1373", "score": 100000, "slug": "mosaic-video-editor", "source": "clawhub", "stars": 0, "tags": null, "updated_at": 1776698144666, "version": "1.3.0"}, {"category": "", "created_at": 1774848033549, "description": "智能记忆系统，支持 SQLite（零配置）和 Milvus（向量搜索）后端。用于存储、检索和管理 AI 助手的记忆，支持语义搜索和自动备份。", "description_zh": "智能记忆系统，支持 SQLite（零配置）和 Milvus（向量搜索）后端。用于存储、检索和管理 AI 助手的记忆，支持语义搜索和自动备份。", "downloads": 30, "homepage": "https://clawhub.ai/liushuangfa666/mem-rag-milvus", "iconUrl": null, "installs": 1, "name": "mem-rag-milvus", "ownerName": "liushuangfa666", "score": 100000, "slug": "mem-rag-milvus", "source": "clawhub", "stars": 0, "tags": null, "updated_at": 1776698144664, "version": "1.0.1"}, {"category": "", "created_at": 1774894770595, "description": "数字 4 的文化介绍技能（中英文版本）。当用户询问数字 4、四的文化含义、四方、四季等相关信息时激活此技能。包含陈朗的个人资料。", "description_zh": "数字 4 的文化介绍技能（中英文版本）。当用户询问数字 4、四的文化含义、四方、四季等相关信息时激活此技能。包含陈朗的个人资料。", "downloads": 30, "homepage": "https://clawhub.ai/leocryptoflow/four", "iconUrl": null, "installs": 0, "name": "four", "ownerName": "leocryptoflow", "score": 100000, "slug": "four", "source": "clawhub", "stars": 0, "tags": null, "updated_at": 1776698144659, "version": "1.0.0"}, {"category": "", "created_at": 1774901911907, "description": "该技能介绍如何通过同城跑腿实现变现；当你计划从事或优化同城跑腿时调用。", "description_zh": "该技能介绍如何通过同城跑腿实现变现；当你计划从事或优化同城跑腿时调用。", "downloads": 30, "homepage": "https://clawhub.ai/mike47512/city-errands", "iconUrl": null, "installs": 2, "name": "同城跑腿", "ownerName": "mike47512", "score": 100000, "slug": "city-errands", "source": "clawhub", "stars": 0, "tags": null, "updated_at": 1776698144654, "version": "0.1.0"}, {"category": "", "created_at": 1774909430280, "description": "Algomo integration. Manage data, records, and automate workflows. Use when the user wants to interact with Algomo data.", "description_zh": "{\n \"answer\": \"Algomo集成。管理数据与记录，自动化工作流。当用户需与Algomo数据交互时使用。\"\n}", "downloads": 30, "homepage": "https://clawhub.ai/membranedev/algomo", "iconUrl": null, "installs": 0, "name": "Algomo", "ownerName": "membranedev", "score": 100000, "slug": "algomo", "source": "clawhub", "stars": 0, "tags": null, "updated_at": 1776698144649, "version": "1.0.0"}, {"category": "", "created_at": 1774945776353, "description": "Analyze, rewrite, and generate design specs to make web pages and websites more easily usable by AI agents, web scrapers, and automation tools. Use when (1)...", "description_zh": "分析、重写并生成设计规范，使网页和网站更易于AI代理、网络爬虫和自动化工具使用。适用于以下情况 (1)...", "downloads": 30, "homepage": "https://clawhub.ai/chartgen-ai/agentify", "iconUrl": null, "installs": 0, "name": "Agentify", "ownerName": "chartgen-ai", "score": 100000, "slug": "agentify", "source": "clawhub", "stars": 0, "tags": null, "updated_at": 1776698144647, "version": "1.0.1"}, {"category": "", "created_at": 1774904340119, "description": "Automatically detect and de-identify PII (Personal Identifiable Information) and PHI (Protected Health Information) from clinical/medical text to ensure HIPA...", "description_zh": "自动检测并脱敏医学文本中的PII（个人身份信息）和PHI（受保护健康信息），确保HIPAA合规。", "downloads": 30, "homepage": "https://clawhub.ai/aipoch-ai/hipaa-compliance-auditor", "iconUrl": null, "installs": 1, "name": "Hipaa Compliance Auditor", "ownerName": "aipoch-ai", "score": 100000, "slug": "hipaa-compliance-auditor", "source": "clawhub", "stars": 0, "tags": null, "updated_at": 1776698144642, "version": "0.1.0"}, {"category": "", "created_at": 1774902873421, "description": "Algorithmia integration. Manage data, records, and automate workflows. Use when the user wants to interact with Algorithmia data.", "description_zh": "Algorithmia集成。管理数据、记录并自动化工作流。当用户需要与Algorithmia数据交互时使用。", "downloads": 30, "homepage": "https://clawhub.ai/gora050/algorithmia", "iconUrl": null, "installs": 0, "name": "Algorithmia", "ownerName": "gora050", "score": 100000, "slug": "algorithmia", "source": "clawhub", "stars": 0, "tags": null, "updated_at": 1776698144629, "version": "1.0.0"}, {"category": "", "created_at": 1774871053866, "description": "Intelligent China visa assistant that provides personalized visa recommendations, appointment booking guidance, application tracking tips, and real-time poli...", "description_zh": "智能中国签证助手，提供个性化签证建议、预约指导、申请追踪技巧和实时政策更新。", "downloads": 30, "homepage": "https://clawhub.ai/findhappy7/china-visa-helper", "iconUrl": null, "installs": 0, "name": "China Visa Helper", "ownerName": "findhappy7", "score": 100000, "slug": "china-visa-helper", "source": "clawhub", "stars": 0, "tags": null, "updated_at": 1776698144628, "version": "1.0.0"}, {"category": "", "created_at": 1774906771472, "description": "Move reference tool. Use when working with move in blockchain contexts.", "description_zh": "移动参考工具。用于区块链环境下的移动操作。", "downloads": 30, "homepage": "https://clawhub.ai/bytesagain3/move", "iconUrl": null, "installs": 0, "name": "Move", "ownerName": "bytesagain3", "score": 100000, "slug": "move", "source": "clawhub", "stars": 0, "tags": null, "updated_at": 1776698144626, "version": "1.0.0"}, {"category": "", "created_at": 1774954200795, "description": "Monitor blogs and RSS/Atom feeds for updates using the blogwatcher CLI.", "description_zh": "使用 blogwatcher CLI 监控博客和 RSS/Atom 订阅源的更新。", "downloads": 30, "homepage": "https://clawhub.ai/enhongx/blogwatcher-bak", "iconUrl": null, "installs": 0, "name": "Blogwatcher.Bak", "ownerName": "enhongx", "score": 100000, "slug": "blogwatcher-bak", "source": "clawhub", "stars": 0, "tags": null, "updated_at": 1776698144623, "version": "1.0.0"}, {"category": "", "created_at": 1774864891625, "description": "Talk to a user's Hardcover bookshelf via the Hardcover GraphQL API. Use when the user wants to manage reading activity in natural language: start a book, fin...", "description_zh": "通过 Hardcover GraphQL API 与用户的书架交互，支持用自然语言管理阅读活动：开始阅读、完成书籍、更新进度、搜索书目及管理书单等。", "downloads": 30, "homepage": "https://clawhub.ai/diwakergupta/hardcover-bookshelf", "iconUrl": null, "installs": 0, "name": "Hardcover Bookshelf Skill", "ownerName": "diwakergupta", "score": 100000, "slug": "hardcover-bookshelf", "source": "clawhub", "stars": 0, "tags": ["books", "goodreads", "hardcover"], "updated_at": 1776698144619, "version": "0.1.0"}, {"category": "", "created_at": 1774796465219, "description": "Earn passive income from market research. Your agent drafts answers to brand survey questions — you review, edit, and approve every answer before it's shared...", "description_zh": "通过市场调研赚取被动收入。您的代理起草品牌调查问题的答案——您审查、编辑并在分享前批准每个答案……", "downloads": 30, "homepage": "https://clawhub.ai/tgzhou98/claw-insight-skill", "iconUrl": null, "installs": 1, "name": "ClawInsight", "ownerName": "tgzhou98", "score": 100000, "slug": "claw-insight-skill", "source": "clawhub", "stars": 0, "tags": null, "updated_at": 1776698144615, "version": "0.1.18"}, {"category": "", "created_at": 1774841319962, "description": "跟踪并分析大语言模型（LLM）领域最新发展趋势，输出结构化趋势报告。当用户询问 LLM 趋势、大模型动态、AI 前沿、技术预测、LLM 发展方向时激活。", "description_zh": "跟踪并分析大语言模型（LLM）领域最新发展趋势，输出结构化趋势报告。当用户询问 LLM 趋势、大模型动态、AI 前沿、技术预测、LLM 发展方向时激活。", "downloads": 30, "homepage": "https://clawhub.ai/ray1012/llm-trend-report-ray1012", "iconUrl": null, "installs": 0, "name": "LLM 发展趋势报告 (Ray1012)", "ownerName": "ray1012", "score": 100000, "slug": "llm-trend-report-ray1012", "source": "clawhub", "stars": 0, "tags": null, "updated_at": 1776698144614, "version": "1.0.0"}, {"category": "", "created_at": 1774912511782, "description": "AI-powered Voice of Customer (VoC) review intelligence agent using DeepSeek-style analysis. Deep semantic analysis of customer reviews to extract pain points...", "description_zh": "AI驱动的客户之声（VoC）评论智能代理，采用DeepSeek式分析，深度语义解析客户评论，提取痛点...", "downloads": 30, "homepage": "https://clawhub.ai/mguozhen/ai-voc-review-insights", "iconUrl": null, "installs": 1, "name": "Ai Voc Review Insights", "ownerName": "mguozhen", "score": 100000, "slug": "ai-voc-review-insights", "source": "clawhub", "stars": 0, "tags": null, "updated_at": 1776698144608, "version": "1.0.0"}, {"category": "", "created_at": 1774844061489, "description": "Google Workflow: Announce a Drive file in a Chat space.", "description_zh": "Google Workflow：在Chat空间中公告Drive文件", "downloads": 30, "homepage": "https://clawhub.ai/googleworkspace-bot/gws-workflow-file-announce", "iconUrl": null, "installs": 0, "name": "Gws Workflow File Announce", "ownerName": "googleworkspace-bot", "score": 100000, "slug": "gws-workflow-file-announce", "source": "clawhub", "stars": 0, "tags": null, "updated_at": 1776698144605, "version": "1.0.10"}, {"category": "", "created_at": 1774879649787, "description": "北京天气早安助手：获取今日北京天气并给出穿衣和饮食建议。Use when the user says “早安”“早上好”或询问“北京天气”“北京今天穿什么”“吃什么比较合适”等。", "description_zh": "北京天气早安助手：获取今日北京天气并给出穿衣和饮食建议。Use when the user says “早安”“早上好”或询问“北京天气”“北京今天穿什么”“吃什么比较合适”等。", "downloads": 30, "homepage": "https://clawhub.ai/tieemo/beijing-morning-weather", "iconUrl": null, "installs": 0, "name": "北京早安心情助手（天气+穿衣+饮食)", "ownerName": "tieemo", "score": 100000, "slug": "beijing-morning-weather", "source": "clawhub", "stars": 0, "tags": null, "updated_at": 1776698144598, "version": "1.0.0"}, {"category": "", "created_at": 1774875599969, "description": "Provides CI/CD pipeline configuration using GitHub Actions for Golang projects. Covers testing, linting, SAST, security scanning, code coverage, Dependabot,...", "description_zh": "使用 GitHub Actions 为 Go 项目提供 CI/CD 流水线配置，涵盖测试、lint、SAST、安全扫描、代码覆盖率、Dependabot 等。", "downloads": 30, "homepage": "https://clawhub.ai/samber/golang-continuous-integration", "iconUrl": null, "installs": 0, "name": "Golang Continuous Integration", "ownerName": "samber", "score": 100000, "slug": "golang-continuous-integration", "source": "clawhub", "stars": 0, "tags": null, "updated_at": 1776698144592, "version": "1.1.1"}, {"category": "", "created_at": 1774916777585, "description": "Google Forms API integration with managed OAuth. Create forms, add questions, export responses to Excel, and summarize response data. Use this skill when use...", "description_zh": "集成Google Forms API与托管OAuth，支持创建表单、添加问题、导出响应至Excel及汇总响应数据。", "downloads": 30, "homepage": "https://clawhub.ai/dfaaa/google-forms-with-forms-ios-app", "iconUrl": null, "installs": 3, "name": "Forms for Google Drive", "ownerName": "dfaaa", "score": 100000, "slug": "google-forms-with-forms-ios-app", "source": "clawhub", "stars": 0, "tags": null, "updated_at": 1776698144589, "version": "1.0.0"}, {"category": "", "created_at": 1774868609426, "description": "Audits Move contracts for security vulnerabilities before deployment using 7-category checklist. Triggers on: 'audit contract', 'security check', 'review sec...", "description_zh": "在部署前使用7类安全清单对Move合约进行安全漏洞审计。触发词：'审计合约'、'安全检查'、'安全审查'等。", "downloads": 30, "homepage": "https://clawhub.ai/iskysun96/aptos-security-audit", "iconUrl": null, "installs": 0, "name": "Security Audit", "ownerName": "iskysun96", "score": 100000, "slug": "aptos-security-audit", "source": "clawhub", "stars": 0, "tags": null, "updated_at": 1776698144587, "version": "1.0.0"}, {"category": "", "created_at": 1774908633634, "description": "GroundHogg integration. Manage Persons, Organizations, Deals, Pipelines, Users, Roles and more. Use when the user wants to interact with GroundHogg data.", "description_zh": "GroundHogg 集成。管理人员、组织、交易、管道、用户、角色等。用于与 GroundHogg 数据交互。", "downloads": 30, "homepage": "https://clawhub.ai/gora050/groundhogg", "iconUrl": null, "installs": 0, "name": "Groundhogg", "ownerName": "gora050", "score": 100000, "slug": "groundhogg", "source": "clawhub", "stars": 0, "tags": null, "updated_at": 1776698144583, "version": "1.0.0"}, {"category": "", "created_at": 1774864923495, "description": "imou / Imou / 乐橙 / lechange 设备操控技能。支持 PTZ 云台控制、snapshot 抓图与下载。 Imou/Lechange device operation for PTZ control, snapshot capture, and image download. Use when...", "description_zh": "imou / Imou / 乐橙 / lechange 设备操控技能。支持 PTZ 云台控制、snapshot 抓图与下载。 Imou/Lechange device operation for PTZ control, snapshot capture, and image download. Use when...", "downloads": 30, "homepage": "https://clawhub.ai/imou-openplatform/imou-device-operate", "iconUrl": null, "installs": 0, "name": "Imou Open Device Operate", "ownerName": "imou-openplatform", "score": 100000, "slug": "imou-device-operate", "source": "clawhub", "stars": 0, "tags": null, "updated_at": 1776698144580, "version": "1.0.3"}, {"category": "", "created_at": 1774860851849, "description": "Decode what people really mean in their messages. This AI reads between the lines to reveal hidden emotions, passive aggressive undertones, and unspoken inte...", "description_zh": "解读信息背后的真实含义。该AI能洞察字里行间，揭示隐藏情绪、被动攻击性语气及未言明的意图。", "downloads": 30, "homepage": "https://clawhub.ai/imwyvern/chatdecode", "iconUrl": null, "installs": 0, "name": "Chatdecode Skill", "ownerName": "imwyvern", "score": 100000, "slug": "chatdecode", "source": "clawhub", "stars": 0, "tags": null, "updated_at": 1776698144578, "version": "1.1.1"}, {"category": "", "created_at": 1774861049931, "description": "Reference tool for devtools — covers intro, quickstart, patterns and more. Quick lookup for Infra Importer concepts, best practices, and implementation patte...", "description_zh": "DevTools 参考工具——涵盖简介、快速入门、模式等。快速查阅 Infra Importer 概念、最佳实践及实现模式...", "downloads": 30, "homepage": "https://clawhub.ai/bytesagain3/infra-importer", "iconUrl": null, "installs": 0, "name": "Infra Importer", "ownerName": "bytesagain3", "score": 100000, "slug": "infra-importer", "source": "clawhub", "stars": 0, "tags": null, "updated_at": 1776698144577, "version": "2.0.1"}, {"category": "", "created_at": 1774924230735, "description": "Invoiced integration. Manage Organizations. Use when the user wants to interact with Invoiced data.", "description_zh": "Invoiced集成。管理组织。当用户需要与Invoiced数据交互时使用。", "downloads": 30, "homepage": "https://clawhub.ai/gora050/invoiced", "iconUrl": null, "installs": 0, "name": "Invoiced", "ownerName": "gora050", "score": 100000, "slug": "invoiced", "source": "clawhub", "stars": 0, "tags": null, "updated_at": 1776698144575, "version": "1.0.0"}, {"category": "", "created_at": 1774950500603, "description": "Information assistant for Intel. Search products, news, financials, and official resources for Intel.", "description_zh": "英特尔信息助手。搜索英特尔的产品、新闻、财务及官方资源。", "downloads": 30, "homepage": "https://clawhub.ai/hanxueyuan/intel", "iconUrl": null, "installs": 0, "name": "intel", "ownerName": "hanxueyuan", "score": 100000, "slug": "intel", "source": "clawhub", "stars": 0, "tags": null, "updated_at": 1776698144571, "version": "0.1.0"}, {"category": "", "created_at": 1774874864347, "description": "Control smart home devices configured in Smart Plus APP. Use when you need to: (1) Query devices and scenes (lights, AC, switches), (2) Control device power...", "description_zh": "控制Smart Plus APP中配置的智能家居设备。使用场景：(1) 查询设备和场景（灯、空调、开关）；(2) 控制设备电源。", "downloads": 30, "homepage": "https://clawhub.ai/mxchipyun/mxchip-smart-control", "iconUrl": null, "installs": 0, "name": "mxchip-smart-control", "ownerName": "mxchipyun", "score": 100000, "slug": "mxchip-smart-control", "source": "clawhub", "stars": 0, "tags": null, "updated_at": 1776698144568, "version": "1.0.2"}, {"category": "", "created_at": 1774895827539, "description": "Professional business hospitality including reception plans, seating arrangements, dining coordination, and etiquette guidance. Covers VIP visits, business d...", "description_zh": "提供专业商务接待服务，涵盖接待方案、座次安排、餐饮协调及礼仪指导，适用于VIP来访、商务活动等场景。", "downloads": 30, "homepage": "https://clawhub.ai/1970168137/biz-hospitality", "iconUrl": null, "installs": 2, "name": "Biz Hospitality", "ownerName": "1970168137", "score": 100000, "slug": "biz-hospitality", "source": "clawhub", "stars": 0, "tags": null, "updated_at": 1776698144562, "version": "1.0.0"}, {"category": "", "created_at": 1774871064154, "description": "Deep domain research — entity extraction, cross-article connections, and structured domain reports from your knowledge base", "description_zh": "深度领域研究——从知识库中进行实体提取、跨文章关联分析和结构化领域报告生成", "downloads": 30, "homepage": "https://clawhub.ai/dainash/clawforage-research-agent", "iconUrl": null, "installs": 0, "name": "ClawForage Research Agent", "ownerName": "dainash", "score": 100000, "slug": "clawforage-research-agent", "source": "clawhub", "stars": 0, "tags": null, "updated_at": 1776698144557, "version": "0.1.0"}, {"category": "", "created_at": 1774905335873, "description": "Extract brand tone and generate multi-version brand narratives and naming proposals", "description_zh": "提取品牌调性并生成多版本品牌叙事与命名提案", "downloads": 30, "homepage": "https://clawhub.ai/1970168137/brand-narrative", "iconUrl": null, "installs": 2, "name": "Brand Narrative", "ownerName": "1970168137", "score": 100000, "slug": "brand-narrative", "source": "clawhub", "stars": 0, "tags": null, "updated_at": 1776698144555, "version": "1.0.0"}, {"category": "", "created_at": 1774867445038, "description": "A behavioral skill that enforces proactive time estimation and progress updates. It **must be activated for any task predicted to exceed 15 seconds.** It use...", "description_zh": "一种行为技能，强制主动进行时间估算和进度更新。对于任何预计超过15秒的任务必须激活。", "downloads": 30, "homepage": "https://clawhub.ai/yanghe1941/adaptive-eta", "iconUrl": null, "installs": 1, "name": "Adaptive Eta", "ownerName": "yanghe1941", "score": 100000, "slug": "adaptive-eta", "source": "clawhub", "stars": 0, "tags": null, "updated_at": 1776698144552, "version": "0.2.5"}, {"category": "", "created_at": 1774881827532, "description": "［何时使用］当用户需要用文明进化论分析投资时；当用户问\"这是文明进步方向吗\"时；当进行长期趋势分析时；当应用李录文明三阶段理论时", "description_zh": "［何时使用］当用户需要用文明进化论分析投资时；当用户问\"这是文明进步方向吗\"时；当进行长期趋势分析时；当应用李录文明三阶段理论时", "downloads": 30, "homepage": "https://clawhub.ai/lj22503/li-civilization", "iconUrl": null, "installs": 1, "name": "李录文明分析", "ownerName": "lj22503", "score": 100000, "slug": "li-civilization", "source": "clawhub", "stars": 0, "tags": ["3.0", "civilization", "evolution"], "updated_at": 1776698144548, "version": "2.0.0"}, {"category": "", "created_at": 1774880423692, "description": "AI-native resale marketplace. Browse, list, buy, sell, negotiate, message, and manage orders. 49 MCP tools. 3% seller fee, 3.5% buyer fee ($0.99 min). No lis...", "description_zh": "AI原生二手交易市场。支持浏览、发布、买卖、议价、消息沟通及订单管理。提供49个MCP工具。卖家手续费3%，买家手续费3.5%（最低$0.99）。无listing费…", "downloads": 30, "homepage": "https://clawhub.ai/douglashardman/kabuzz-marketplace", "iconUrl": null, "installs": 0, "name": "Kabuzz", "ownerName": "douglashardman", "score": 100000, "slug": "kabuzz-marketplace", "source": "clawhub", "stars": 0, "tags": ["buy", "e-commerce", "marketplace", "negotiate", "resale", "sell", "shipping", "shopping"], "updated_at": 1776698144543, "version": "1.0.1"}, {"category": "", "created_at": 1774896454608, "description": "Screen tenant applications using Fair Housing compliant criteria for Massachusetts properties. Use when evaluating a rental application, setting screening cr...", "description_zh": "使用公平住房合规标准筛选马萨诸塞州房产的租户申请。用于评估租赁申请和设定筛选标准。", "downloads": 30, "homepage": "https://clawhub.ai/adamsjb/homestruk-tenant-screening", "iconUrl": null, "installs": 0, "name": "Homestruk Tenant Screening", "ownerName": "adamsjb", "score": 100000, "slug": "homestruk-tenant-screening", "source": "clawhub", "stars": 0, "tags": null, "updated_at": 1776698144541, "version": "1.0.0"}]}