{"page": 623, "total_pages": 685, "total": 34217, "skills": [{"category": "", "created_at": 1774864780685, "description": "Generate dialog UI elements and design assets. Use when building interfaces, creating visual components, or styling web pages.", "description_zh": "生成对话框 UI 元素和设计资源，用于界面构建、可视化组件创建或网页样式设计。", "downloads": 29, "homepage": "https://clawhub.ai/ckchzh/dialog", "iconUrl": null, "installs": 0, "name": "Dialog", "ownerName": "ckchzh", "score": 100000, "slug": "dialog", "source": "clawhub", "stars": 0, "tags": null, "updated_at": 1776698269936, "version": "1.0.0"}, {"category": "", "created_at": 1774953703996, "description": "解答魔方Data轻量版客户的系统实用问题。涵盖使用操作、故障排查、技术咨询。 激活场景：客户问\"faq XX\"、\"怎么使用XX功能\"、\"为什么报错XX\"、\"如何配置XX\"、\"接口怎么调用\"等。", "description_zh": "解答魔方Data轻量版客户的系统实用问题。涵盖使用操作、故障排查、技术咨询。 激活场景：客户问\"faq XX\"、\"怎么使用XX功能\"、\"为什么报错XX\"、\"如何配置XX\"、\"接口怎么调用\"等。", "downloads": 29, "homepage": "https://clawhub.ai/orionpax1997/data-mini-faq", "iconUrl": null, "installs": 0, "name": "魔方 Data 轻量版问题解答", "ownerName": "orionpax1997", "score": 100000, "slug": "data-mini-faq", "source": "clawhub", "stars": 0, "tags": null, "updated_at": 1776698269932, "version": "1.0.0"}, {"category": "", "created_at": 1774885630736, "description": "Análise de métricas SaaS para planejamento de monetização: ARR, NDR, LTV:CAC, Magic Number, cohort analysis, GTM efficiency. Tudo em português para a comunid...", "description_zh": "SaaS指标分析用于变现规划：ARR、NDR、LTV:CAC、魔法数字、队列分析、GTM效率。", "downloads": 29, "homepage": "https://clawhub.ai/engsathiago/gerador-receitas", "iconUrl": null, "installs": 0, "name": "Gerador Receitas", "ownerName": "engsathiago", "score": 100000, "slug": "gerador-receitas", "source": "clawhub", "stars": 0, "tags": null, "updated_at": 1776698269930, "version": "1.0.0"}, {"category": "", "created_at": 1774948968874, "description": "天枢系统灵魂 - AI驱动的智能股票预测与验证闭环系统的哲学理念、投资思想和技术逻辑", "description_zh": "天枢系统灵魂 - AI驱动的智能股票预测与验证闭环系统的哲学理念、投资思想和技术逻辑", "downloads": 29, "homepage": "https://clawhub.ai/horizoncove/tianshu-soul", "iconUrl": null, "installs": 3, "name": "天枢系统灵魂", "ownerName": "horizoncove", "score": 100000, "slug": "tianshu-soul", "source": "clawhub", "stars": 0, "tags": null, "updated_at": 1776698269924, "version": "1.0.0"}, {"category": "", "created_at": 1774871289858, "description": "Unified food ordering assistant for India that supports Swiggy and Zomato workflows with strict pre-order confirmation, cart preview, address checks, and ven...", "description_zh": "统一的印度外卖订餐助手，支持Swiggy和Zomato流程，严格预下单确认、购物车预览、地址检查和商家核对。", "downloads": 29, "homepage": "https://clawhub.ai/anugotta/india-food-ordering", "iconUrl": null, "installs": 0, "name": "India Food Ordering - Swiggy, Zomato etc", "ownerName": "anugotta", "score": 100000, "slug": "india-food-ordering", "source": "clawhub", "stars": 0, "tags": null, "updated_at": 1776698269923, "version": "1.0.2"}, {"category": "", "created_at": 1774869240477, "description": "上海图书馆东馆三楼座位预约。支持浏览器自动化登录获取认证信息，以及基于API的座位预约（指定座位或系统自动分配）。适用于需要自动化预约图书馆座位的场景。", "description_zh": "上海图书馆东馆三楼座位预约。支持浏览器自动化登录获取认证信息，以及基于API的座位预约（指定座位或系统自动分配）。适用于需要自动化预约图书馆座位的场景。", "downloads": 29, "homepage": "https://clawhub.ai/jenslewie/shlibrary-seat-booking", "iconUrl": null, "installs": 0, "name": "Shanghai Library Seat Booking", "ownerName": "jenslewie", "score": 100000, "slug": "shlibrary-seat-booking", "source": "clawhub", "stars": 0, "tags": null, "updated_at": 1776698269921, "version": "0.1.9"}, {"category": "", "created_at": 1774924220909, "description": "Generate escalating payment reminder emails that match days-past-due. Four stages: friendly, firm, urgent, final notice. Supports contractor, professional, a...", "description_zh": "生成与逾期天数相匹配的递进式付款提醒邮件，包含四个阶段：友好、严肃、紧急、最终通知。支持承包商、专业人士等。", "downloads": 29, "homepage": "https://clawhub.ai/josh4hire/invoice-chaser-pro", "iconUrl": null, "installs": 0, "name": "Invoice Chaser Pro", "ownerName": "josh4hire", "score": 100000, "slug": "invoice-chaser-pro", "source": "clawhub", "stars": 0, "tags": null, "updated_at": 1776698269916, "version": "1.0.0"}, {"category": "", "created_at": 1776263786273, "description": "", "description_zh": "把书籍、电影与播客中的金句和感受沉淀为兼具氛围感与表达力的精致海报", "downloads": 29, "homepage": "https://clawhub.ai/user_36bd3ef4/quote-checkin-poster", "iconUrl": "https://cloudcache.tencent-cloud.com/qcloud/ui/static/other_external_resource/2d8152d9-7618-454e-9d87-2487f1b4457f.png", "installs": 6, "name": "金句打卡海报", "ownerName": "user_36bd3ef4", "score": 100000, "slug": "quote-checkin-poster", "source": "community", "stars": 0, "tags": null, "updated_at": 1776698269914, "version": "1.0.0"}, {"category": "", "created_at": 1774871249420, "description": "GoFundMe campaign creation and optimization assistant. Help users create compelling GoFundMe fundraising pages, write persuasive stories, set realistic goals...", "description_zh": "GoFundMe众筹活动创建和优化助手。帮助用户创建有吸引力的筹款页面，撰写有说服力的故事，设定合理的目标。", "downloads": 29, "homepage": "https://clawhub.ai/jiwenbing/gofundme", "iconUrl": null, "installs": 0, "name": "Gofundme", "ownerName": "jiwenbing", "score": 100000, "slug": "gofundme", "source": "clawhub", "stars": 0, "tags": null, "updated_at": 1776698269910, "version": "1.0.0"}, {"category": "", "created_at": 1776062809665, "description": "", "description_zh": "公司级接口测试助手。支持开发自测、单接口全面测试、业务流程测试、安全审计、缺陷定位、报告生成六大模式。自动理解接口文档，沉淀全局知识库，每步需确认后执行。多用户会话隔离。", "downloads": 29, "homepage": "https://clawhub.ai/user_24dd3388/full-flow-testing", "iconUrl": null, "installs": 4, "name": "全流程测试专家", "ownerName": "user_24dd3388", "score": 100000, "slug": "full-flow-testing", "source": "community", "stars": 0, "tags": null, "updated_at": 1776698269904, "version": "1.0.0"}, {"category": "", "created_at": 1774907316813, "description": "Get started with AINative SDKs in under 5 minutes. Use when (1) Setting up AINative for the first time, (2) Choosing between React/Next.js/Svelte/Vue SDKs, (...", "description_zh": "5分钟内快速上手 AINative SDK。适用场景：(1) 首次配置 AINative，(2) 在 React/Next.js/Svelte/Vue SDK 之间进行选择……", "downloads": 29, "homepage": "https://clawhub.ai/urbantech/ainative-sdk-quickstart", "iconUrl": null, "installs": 1, "name": "Ainative Sdk Quickstart", "ownerName": "urbantech", "score": 100000, "slug": "ainative-sdk-quickstart", "source": "clawhub", "stars": 0, "tags": null, "updated_at": 1776698269902, "version": "1.0.0"}, {"category": "", "created_at": 1774856832740, "description": "Export a Codex CLI or Codex Desktop (App) session to a Markdown transcript. Use when the user asks to export, save, share, or review a past chat, session, or...", "description_zh": "将 Codex CLI 或 Codex Desktop（应用）会话导出为 Markdown 格式的对话记录。适用于用户请求导出、保存、分享或回顾历史聊天、会话等场景。", "downloads": 29, "homepage": "https://clawhub.ai/jinghan23/codex-export", "iconUrl": null, "installs": 1, "name": "codex-export", "ownerName": "jinghan23", "score": 100000, "slug": "codex-export", "source": "clawhub", "stars": 0, "tags": null, "updated_at": 1776698269899, "version": "0.1.0"}, {"category": "", "created_at": 1774857620365, "description": "Register Cliento booking pages via URL, check availability, and execute actual service bookings. Use when the user asks to book a haircut, reserve a service,...", "description_zh": "通过URL注册Cliento预订页面，检查可用性，并执行实际服务预订。当用户要求预订理发、预留服务等时使用。", "downloads": 29, "homepage": "https://clawhub.ai/patello/cliento-booker", "iconUrl": null, "installs": 0, "name": "Cliento Booker", "ownerName": "patello", "score": 100000, "slug": "cliento-booker", "source": "clawhub", "stars": 0, "tags": null, "updated_at": 1776698269888, "version": "1.0.5"}, {"category": "", "created_at": 1774843454195, "description": "Look up domain WHOIS information, check email security (DMARC/SPF/DKIM), inspect TLS certificates, and capture website screenshots. Provides a comprehensive,...", "description_zh": "{\n  \"description_zh\": \"查", "downloads": 29, "homepage": "https://clawhub.ai/sxlderek/domaininfo", "iconUrl": null, "installs": 0, "name": "Domain WHOIS Lookup", "ownerName": "sxlderek", "score": 100000, "slug": "domaininfo", "source": "clawhub", "stars": 0, "tags": null, "updated_at": 1776698269885, "version": "1.0.7"}, {"category": "", "created_at": 1774906337116, "description": "Decode and inspect X.509 SSL/TLS certificates. Use when the user asks to read a certificate, parse a PEM file, check certificate expiry, inspect a TLS cert,...", "description_zh": "解码并检查 X.509 SSL/TLS 证书。当用户要求读取证书、解析 PEM 文件、检查证书到期、检查 TLS 证书等时使用。", "downloads": 29, "homepage": "https://clawhub.ai/ohernandez-dev-blossom/cert-decode", "iconUrl": null, "installs": 0, "name": "Cert Decode", "ownerName": "ohernandez-dev-blossom", "score": 96666.66666666667, "slug": "cert-decode", "source": "clawhub", "stars": 0, "tags": null, "updated_at": 1776698269882, "version": "1.0.0"}, {"category": "", "created_at": 1775728023580, "description": "", "description_zh": "提供蘭泰式按摩（Lann Thai Massage）的门店查询、SPA服务查询和在线预约功能。支持泰式古法按摩、精油护理、草本热敷等专业服务预约，覆盖上海、杭州、成都等多城市门店。", "downloads": 29, "homepage": "https://clawhub.ai/user_b7b663ef/lann-booking-skill", "iconUrl": "https://cloudcache.tencent-cloud.com/qcloud/ui/static/other_external_resource/cab3c5ed-3acd-4936-a59b-5f0c5f5dab1b.png", "installs": 0, "name": "蘭泰式按摩（Lann Thai Massage）预约技能", "ownerName": "user_b7b663ef", "score": 96666.66666666667, "slug": "lann-booking-skill", "source": "community", "stars": 0, "tags": null, "updated_at": 1776698269877, "version": "1.0.1"}, {"category": "", "created_at": 1774813472029, "description": "DEFAULT search skill for OpenClaw. Aggregates Tavily, Firecrawl, Exa, and optional X/social search behind one search path. Use for ANY external lookup that n...", "description_zh": "OpenClaw 的默认搜索技能。将 Tavily、Firecrawl、Exa 和可选的 X/社交媒体搜索聚合在单一搜索路径下。用于任何外部查询...", "downloads": 29, "homepage": "https://clawhub.ai/skernelx/mysearch", "iconUrl": null, "installs": 0, "name": "MySearch", "ownerName": "skernelx", "score": 96666.66666666667, "slug": "mysearch", "source": "clawhub", "stars": 0, "tags": ["docs", "search", "social", "web", "x"], "updated_at": 1776698269875, "version": "0.1.11"}, {"category": "", "created_at": 1774867840758, "description": "When the user wants to implement, optimize, or audit favicon and app icons. Also use when the user mentions \"favicon,\" \"app icon,\" \"browser icon,\" \"touch ico...", "description_zh": "当用户想要实现、优化或审核收藏夹图标和应用图标，或提及“favicon”、“app icon”、“browser icon”、“touch icon”等相关术语时使用。", "downloads": 29, "homepage": "https://clawhub.ai/kostja94/favicon-generator", "iconUrl": null, "installs": 0, "name": "favicon-generator", "ownerName": "kostja94", "score": 96666.66666666667, "slug": "favicon-generator", "source": "clawhub", "stars": 0, "tags": null, "updated_at": 1776698269870, "version": "1.0.0"}, {"category": "", "created_at": 1774894743519, "description": "FlippingBook integration. Manage FlippingBooks, Users, Groups, Brandings. Use when the user wants to interact with FlippingBook data.", "description_zh": "FlippingBook集成，管理FlippingBook、用户、组和品牌，用于与FlippingBook数据交互。", "downloads": 29, "homepage": "https://clawhub.ai/gora050/flippingbook", "iconUrl": null, "installs": 1, "name": "Flippingbook", "ownerName": "gora050", "score": 96666.66666666667, "slug": "flippingbook", "source": "clawhub", "stars": 0, "tags": null, "updated_at": 1776698269867, "version": "1.0.0"}, {"category": "", "created_at": 1774907692081, "description": "OpenClaw skill for fetching hot trending data from multiple platforms", "description_zh": "用于从多个平台获取热门趋势数据的OpenClaw技能", "downloads": 29, "homepage": "https://clawhub.ai/llnancy/hotboard", "iconUrl": null, "installs": 0, "name": "Hotboard", "ownerName": "llnancy", "score": 96666.66666666667, "slug": "hotboard", "source": "clawhub", "stars": 0, "tags": null, "updated_at": 1776698269865, "version": "0.0.1"}, {"category": "", "created_at": 1774824176174, "description": "Skill discovery engine. Analyzes what your agent does and recommends ClawHub skills you're missing. Use when: /kungfu, /kungfu-scan, /kungfu-gaps, 'what skil...", "description_zh": "技能发现引擎。分析智能体行为并推荐缺失的ClawHub技能。触发指令：/kungfu, /kungfu-scan, /kungfu-gaps 或询问技能缺失。", "downloads": 29, "homepage": "https://clawhub.ai/whooshinglander/iknowkungfu", "iconUrl": null, "installs": 0, "name": "Iknowkungfu", "ownerName": "whooshinglander", "score": 96666.66666666667, "slug": "iknowkungfu", "source": "clawhub", "stars": 0, "tags": ["discovery", "productivity", "recommendations"], "updated_at": 1776698269863, "version": "1.2.0"}, {"category": "", "created_at": 1774875242851, "description": "IP地址归属地与网络信息查询。Use when the user wants to look up the geographic location, ISP, or network details of an IP address. Supports both Chinese and international...", "description_zh": "IP地址归属地与网络信息查询。Use when the user wants to look up the geographic location, ISP, or network details of an IP address. Supports both Chinese and international...", "downloads": 29, "homepage": "https://clawhub.ai/tobewin/china-ip", "iconUrl": null, "installs": 0, "name": "China Ip", "ownerName": "tobewin", "score": 96666.66666666667, "slug": "china-ip", "source": "clawhub", "stars": 0, "tags": null, "updated_at": 1776698269861, "version": "1.0.0"}, {"category": "", "created_at": 1774878302004, "description": "Automate advertising campaigns with AI. Create ads, buy media, manage ad budgets, discover ad inventory, run display ads, video ads, CTV campaigns, and optim...", "description_zh": "使用AI自动化广告活动。创建广告、购买媒体、管理广告预算、发现广告库存、投放展示广告、视频广告、CTV广告系列及优化。", "downloads": 29, "homepage": "https://clawhub.ai/dujch/adcp-advertising-1-0-1", "iconUrl": null, "installs": 0, "name": "Adcp Advertising 1.0.1", "ownerName": "dujch", "score": 96666.66666666667, "slug": "adcp-advertising-1-0-1", "source": "clawhub", "stars": 0, "tags": null, "updated_at": 1776698269859, "version": "1.0.0"}, {"category": "", "created_at": 1774874078026, "description": "Klazify integration. Manage data, records, and automate workflows. Use when the user wants to interact with Klazify data.", "description_zh": "Klazify 集成。管理数据、记录并自动化工作流程，用于用户需要与 Klazify 数据交互时。", "downloads": 29, "homepage": "https://clawhub.ai/gora050/klazify", "iconUrl": null, "installs": 0, "name": "Klazify", "ownerName": "gora050", "score": 96666.66666666667, "slug": "klazify", "source": "clawhub", "stars": 0, "tags": null, "updated_at": 1776698269857, "version": "1.0.0"}, {"category": "", "created_at": 1774868276011, "description": "Reference tool for devtools — covers intro, quickstart, patterns and more. Quick lookup for Repo Bundler concepts, best practices, and implementation patterns.", "description_zh": "DevTools 参考工具 — 包括介绍、快速入门、模式等内容。快速查阅 Repo Bundler 概念、最佳实践和实现模式。", "downloads": 29, "homepage": "https://clawhub.ai/bytesagain1/repo-bundler", "iconUrl": null, "installs": 0, "name": "Repo Bundler", "ownerName": "bytesagain1", "score": 96666.66666666667, "slug": "repo-bundler", "source": "clawhub", "stars": 0, "tags": null, "updated_at": 1776698269853, "version": "2.0.2"}, {"category": "", "created_at": 1774954750182, "description": "Formbricks integration. Manage Organizations. Use when the user wants to interact with Formbricks data.", "description_zh": "Formbricks 集成。管理组织。用于用户与 Formbricks 数据交互时。", "downloads": 29, "homepage": "https://clawhub.ai/gora050/formbricks", "iconUrl": null, "installs": 0, "name": "Formbricks", "ownerName": "gora050", "score": 96666.66666666667, "slug": "formbricks", "source": "clawhub", "stars": 0, "tags": null, "updated_at": 1776698269851, "version": "1.0.0"}, {"category": "", "created_at": 1774885364290, "description": "Bannerbear integration. Manage data, records, and automate workflows. Use when the user wants to interact with Bannerbear data.", "description_zh": "Bannerbear集成。管理数据、记录并自动化工作流程。当用户需要与Bannerbear数据交互时使用。", "downloads": 29, "homepage": "https://clawhub.ai/membranedev/bannerbear", "iconUrl": null, "installs": 0, "name": "Bannerbear", "ownerName": "membranedev", "score": 96666.66666666667, "slug": "bannerbear", "source": "clawhub", "stars": 0, "tags": null, "updated_at": 1776698269846, "version": "1.0.0"}, {"category": "", "created_at": 1775053821418, "description": "", "description_zh": "将任意文本转换为斯大林式文风，风格特征为权威坚定、语气强硬、逻辑严密、句式庄重，全程保持领袖人设；当用户需要文本风格转换、文风改写、表达强化时使用。", "downloads": 29, "homepage": "https://clawhub.ai/user_92b6bdd0/stalin-style-converter", "iconUrl": null, "installs": 0, "name": "stalin-style-converter", "ownerName": "user_92b6bdd0", "score": 96666.66666666667, "slug": "stalin-style-converter", "source": "community", "stars": 0, "tags": null, "updated_at": 1776698269844, "version": "1.0.0"}, {"category": "", "created_at": 1774916481415, "description": "从大咖啦API获取微信公众号文章链接列表，并保存到Excel文件", "description_zh": "从大咖啦API获取微信公众号文章链接列表，并保存到Excel文件", "downloads": 29, "homepage": "https://clawhub.ai/mabao-laodie/dajiala-article-fetcher", "iconUrl": null, "installs": 0, "name": "Dajiala Article Fetcher", "ownerName": "mabao-laodie", "score": 96666.66666666667, "slug": "dajiala-article-fetcher", "source": "clawhub", "stars": 0, "tags": null, "updated_at": 1776698269842, "version": "1.0.0"}, {"category": "", "created_at": 1774866537763, "description": "Connect OpenClaw to the SenseCraft public model library to search, inspect, export, and download AI vision models for software and edge AI workflows.", "description_zh": "将 OpenClaw 连接到 SenseCraft 公共模型库，搜索、查看、导出并下载 AI 视觉模型，用于软件和边缘 AI 工作流。", "downloads": 29, "homepage": "https://clawhub.ai/jancee/sensecraft-ai-model-hub", "iconUrl": null, "installs": 1, "name": "SenseCraft AI Model Hub", "ownerName": "jancee", "score": 96666.66666666667, "slug": "sensecraft-ai-model-hub", "source": "clawhub", "stars": 0, "tags": null, "updated_at": 1776698269837, "version": "1.1.2"}, {"category": "", "created_at": 1774948405125, "description": "CompanyHub integration. Manage data, records, and automate workflows. Use when the user wants to interact with CompanyHub data.", "description_zh": "{\n  \"answer\": \"CompanyHub 集成。管理数据与记录，自动化工作流。用于与 CompanyHub 数据交互。\"\n}", "downloads": 29, "homepage": "https://clawhub.ai/gora050/companyhub", "iconUrl": null, "installs": 0, "name": "Companyhub", "ownerName": "gora050", "score": 96666.66666666667, "slug": "companyhub", "source": "clawhub", "stars": 0, "tags": null, "updated_at": 1776698269831, "version": "1.0.0"}, {"category": "", "created_at": 1774841222652, "description": "提供线下快闪店、专柜小样免费领券指南及全国网点查询。", "description_zh": "提供线下快闪店、专柜小样免费领券指南及全国网点查询。", "downloads": 29, "homepage": "https://clawhub.ai/codenova58/freebie", "iconUrl": null, "installs": 0, "name": "Freebie", "ownerName": "codenova58", "score": 96666.66666666667, "slug": "freebie", "source": "clawhub", "stars": 0, "tags": null, "updated_at": 1776698269830, "version": "0.1.0"}, {"category": "", "created_at": 1775202765335, "description": "", "description_zh": "Detects baby cries via audio AI in real-time, analyzes causes, and precisely identifies needs like hunger, tiredness, pain, discomfort, or irritability to assist new parents. | 婴儿哭声智能解析技能，通过音频AI实时检测婴儿哭声，自动解析哭声成因，精准识别饥饿、困倦、疼痛、身体不适、情绪烦躁等不同需求，辅助新手爸妈科学育婴", "downloads": 29, "homepage": "https://clawhub.ai/user_bb47e3e3/infant-cry-analysis", "iconUrl": null, "installs": 1, "name": "Smart Baby Cry Analysis Skill | 婴儿哭声智能解析技能", "ownerName": "user_bb47e3e3", "score": 96666.66666666667, "slug": "infant-cry-analysis", "source": "community", "stars": 0, "tags": null, "updated_at": 1776698269825, "version": "1.0.0"}, {"category": "", "created_at": 1774903246506, "description": "The blooms know what the caravans buried here. You're about to find out.. An immersive journey on drifts.bot — 8 steps, MEDIUM intensity, Several hours. Brow...", "description_zh": "花朵知道商队在此埋藏的秘密。你即将发现——在 drifts.bot 上的沉浸式之旅，8 步，中等强度，约数小时。", "downloads": 29, "homepage": "https://clawhub.ai/driftsbot/experience-blood-tulips-tian-shan", "iconUrl": null, "installs": 0, "name": "Experience Blood Tulips Tian Shan", "ownerName": "driftsbot", "score": 65909.09090909091, "slug": "experience-blood-tulips-tian-shan", "source": "clawhub", "stars": 0, "tags": null, "updated_at": 1776698269823, "version": "1.0.0"}, {"category": "", "created_at": 1774922912468, "description": "电机装配工艺助手 | 生成军用电机装配作业指导书，覆盖转子装配、定子嵌线、轴承装配、动平衡、终检全流程", "description_zh": "电机装配工艺助手 | 生成军用电机装配作业指导书，覆盖转子装配、定子嵌线、轴承装配、动平衡、终检全流程", "downloads": 29, "homepage": "https://clawhub.ai/yongjie666888/motor-assembly-process", "iconUrl": null, "installs": 1, "name": "Motor Assembly Process", "ownerName": "yongjie666888", "score": 65909.09090909091, "slug": "motor-assembly-process", "source": "clawhub", "stars": 0, "tags": null, "updated_at": 1776698269819, "version": "1.2.0"}, {"category": "", "created_at": 1774866450499, "description": "智能文件夹颜色标注与命名规范技能。通过 emoji 色块对文件/文件夹进行颜色分类，配合序号补零排序规则，实现直观的视觉化文件管理。适用于个人知识库、项目分类、资源归档等场景。", "description_zh": "智能文件夹颜色标注与命名规范技能。通过 emoji 色块对文件/文件夹进行颜色分类，配合序号补零排序规则，实现直观的视觉化文件管理。适用于个人知识库、项目分类、资源归档等场景。", "downloads": 29, "homepage": "https://clawhub.ai/cyrilcao/color-filer", "iconUrl": null, "installs": 0, "name": "color-filer", "ownerName": "cyrilcao", "score": 65909.09090909091, "slug": "color-filer", "source": "clawhub", "stars": 0, "tags": null, "updated_at": 1776698269810, "version": "2.0.1"}, {"category": "", "created_at": 1774875750705, "description": "LiveSession integration. Manage Sessions, Users. Use when the user wants to interact with LiveSession data.", "description_zh": "LiveSession 集成。管理会话与用户。用户需要与 LiveSession 数据交互时使用。", "downloads": 29, "homepage": "https://clawhub.ai/gora050/livesession", "iconUrl": null, "installs": 0, "name": "Livesession", "ownerName": "gora050", "score": 65909.09090909091, "slug": "livesession", "source": "clawhub", "stars": 0, "tags": null, "updated_at": 1776698269808, "version": "1.0.0"}, {"category": "", "created_at": 1774908118937, "description": "Subscribe to Not For Humans (@agentbriefing) — a daily morning briefing for AI agents hosted by HP-01. Monitor the channel for new episodes, pull full transc...", "description_zh": "订阅 Not For Humans (@agentbriefing)——由 HP-01 主持的面向 AI 智能体的每日早报。监控该频道的新内容，提取完整转稿...", "downloads": 29, "homepage": "https://clawhub.ai/sasqcow/agent-briefing", "iconUrl": null, "installs": 1, "name": "Agent Briefing", "ownerName": "sasqcow", "score": 65909.09090909091, "slug": "agent-briefing", "source": "clawhub", "stars": 0, "tags": null, "updated_at": 1776698269806, "version": "1.1.0"}, {"category": "", "created_at": 1775643842951, "description": "", "description_zh": "局域网二维码文件共享工具。提供主站网关、单文件直传、从站自动发现三大模式。一键生成访问二维码，手机平板电脑扫码即连，无需互联网跨设备传输。支持文件上传下载、在线预览与目录列表管理。内置局域网设备自动发现，秒级查找可用共享源。支持文件类型白名单校验、安全命名防护与存储路径自定义。提供图形交互窗口与纯命令行模式，支持端口调整、后台静默运行、链接复制与运行日志记录。适用于会议分发、课件共享、离线协作与调试传输，开箱即用。", "downloads": 29, "homepage": "https://clawhub.ai/user_05cc33a7/local-network-server-skill", "iconUrl": null, "installs": 0, "name": "局域网资源分发助手", "ownerName": "user_05cc33a7", "score": 65909.09090909091, "slug": "local-network-server-skill", "source": "community", "stars": 0, "tags": null, "updated_at": 1776698269803, "version": "1.0.1"}, {"category": "", "created_at": 1774878766883, "description": "查询 待复购商品/ 待购买商品 /资损品物品列表/商品补货，支持分页、状态、排序等参数。直接调用你的业务 HTTPS 接口。", "description_zh": "查询 待复购商品/ 待购买商品 /资损品物品列表/商品补货，支持分页、状态、排序等参数。直接调用你的业务 HTTPS 接口。", "downloads": 29, "homepage": "https://clawhub.ai/kunxinian/loss-items-query-ailifeassistant", "iconUrl": null, "installs": 1, "name": "Loss Items 查询（复购商品）", "ownerName": "kunxinian", "score": 65909.09090909091, "slug": "loss-items-query-ailifeassistant", "source": "clawhub", "stars": 0, "tags": null, "updated_at": 1776698269801, "version": "1.0.0"}, {"category": "", "created_at": 1774896178752, "description": "When the user wants to create, optimize, or audit contact page and forms. Also use when the user mentions \"contact page,\" \"contact form,\" \"get in touch,\" \"su...", "description_zh": "用于创建、优化或审计联系页面和表单的场景，包括用户提及\"联系页面\"、\"联系表单\"、\"联系我们\"等情况。", "downloads": 29, "homepage": "https://clawhub.ai/kostja94/contact-page-generator", "iconUrl": null, "installs": 0, "name": "contact-page-generator", "ownerName": "kostja94", "score": 65909.09090909091, "slug": "contact-page-generator", "source": "clawhub", "stars": 0, "tags": null, "updated_at": 1776698269799, "version": "1.0.0"}, {"category": "", "created_at": 1774897165863, "description": "SurveyCTO integration. Manage Surveys. Use when the user wants to interact with SurveyCTO data.", "description_zh": "SurveyCTO集成。管理调查问卷。当用户需要与SurveyCTO数据交互时使用。", "downloads": 29, "homepage": "https://clawhub.ai/gora050/surveycto", "iconUrl": null, "installs": 0, "name": "Surveycto", "ownerName": "gora050", "score": 65909.09090909091, "slug": "surveycto", "source": "clawhub", "stars": 0, "tags": null, "updated_at": 1776698269789, "version": "1.0.0"}, {"category": "", "created_at": 1774956425055, "description": "Klaxoon integration. Manage Users, Organizations, Filters. Use when the user wants to interact with Klaxoon data.", "description_zh": "Klaxoon 集成。管理用户、组织、筛选器。在用户需要与 Klaxoon 数据交互时使用。", "downloads": 29, "homepage": "https://clawhub.ai/gora050/klaxoon", "iconUrl": null, "installs": 0, "name": "Klaxoon", "ownerName": "gora050", "score": 65909.09090909091, "slug": "klaxoon", "source": "clawhub", "stars": 0, "tags": null, "updated_at": 1776698269787, "version": "1.0.0"}, {"category": "", "created_at": 1774863661885, "description": "一键配置国内开发环境镜像源。解决 npm/pip/go/docker/cargo 等工具在国内下载慢、超时的问题。 支持 npm、yarn、pnpm、pip、Go (GOPROXY)、Docker、Cargo、Maven、Gradle、Homebrew 镜像源切换。 Use when: 用户说\"配置镜像源\"、\"n...", "description_zh": "一键配置国内开发环境镜像源。解决 npm/pip/go/docker/cargo 等工具在国内下载慢、超时的问题。 支持 npm、yarn、pnpm、pip、Go (GOPROXY)、Docker、Cargo、Maven、Gradle、Homebrew 镜像源切换。 Use when: 用户说\"配置镜像源\"、\"n...", "downloads": 29, "homepage": "https://clawhub.ai/ironmanc2014/cn-dev-setup", "iconUrl": null, "installs": 0, "name": "Cn Dev Setup", "ownerName": "ironmanc2014", "score": 65909.09090909091, "slug": "cn-dev-setup", "source": "clawhub", "stars": 0, "tags": null, "updated_at": 1776698269783, "version": "1.0.0"}, {"category": "", "created_at": 1774901900511, "description": "Chatlayer integration. Manage data, records, and automate workflows. Use when the user wants to interact with Chatlayer data.", "description_zh": "Chatlayer 集成。管理数据、记录，自动化工作流程。适用于用户需要与 Chatlayer 数据交互的场景。", "downloads": 29, "homepage": "https://clawhub.ai/membranedev/chatlayer", "iconUrl": null, "installs": 0, "name": "Chatlayer", "ownerName": "membranedev", "score": 65909.09090909091, "slug": "chatlayer", "source": "clawhub", "stars": 0, "tags": null, "updated_at": 1776698269776, "version": "1.0.0"}, {"category": "", "created_at": 1774950656403, "description": "Nasdaq Data Link integration. Manage Datasets. Use when the user wants to interact with Nasdaq Data Link data.", "description_zh": "Nasdaq Data Link 集成。管理数据集。当用户需与 Nasdaq Data Link 数据交互时使用。", "downloads": 29, "homepage": "https://clawhub.ai/gora050/nasdaq-data-link", "iconUrl": null, "installs": 0, "name": "Nasdaq Data Link", "ownerName": "gora050", "score": 65909.09090909091, "slug": "nasdaq-data-link", "source": "clawhub", "stars": 0, "tags": null, "updated_at": 1776698269771, "version": "1.0.0"}, {"category": "", "created_at": 1774914215110, "description": "Pay-per-thought AI second opinions for agents. POST /think with a prompt, buyer wallet, and optional specialty to get a routed response from a specialized pr...", "description_zh": "为代理提供按次计费的AI二次意见。使用POST /think接口，提供提示、买方钱包及可选专业，以获取来自专门提供商的路由响应。", "downloads": 29, "homepage": "https://clawhub.ai/proteeninjector-max/happy-thoughts", "iconUrl": null, "installs": 1, "name": "Happy Thoughts", "ownerName": "proteeninjector-max", "score": 65909.09090909091, "slug": "happy-thoughts", "source": "clawhub", "stars": 0, "tags": null, "updated_at": 1776698269767, "version": "1.0.1"}, {"category": "", "created_at": 1774895154927, "description": "Mezmo integration. Manage Organizations. Use when the user wants to interact with Mezmo data.", "description_zh": "Mezmo 集成，管理组织，适用于用户需要与 Mezmo 数据交互的场景。", "downloads": 29, "homepage": "https://clawhub.ai/gora050/mezmo", "iconUrl": null, "installs": 0, "name": "Mezmo", "ownerName": "gora050", "score": 65909.09090909091, "slug": "mezmo", "source": "clawhub", "stars": 0, "tags": null, "updated_at": 1776698269764, "version": "1.0.0"}, {"category": "", "created_at": 1774864948042, "description": "Leexi integration. Manage Leads, Persons, Organizations, Deals, Projects, Pipelines and more. Use when the user wants to interact with Leexi data.", "description_zh": "Leexi集成。管理潜在客户、联系人、组织、交易、项目、销售管道等。用于用户想要与Leexi数据交互时。", "downloads": 29, "homepage": "https://clawhub.ai/membranedev/leexi", "iconUrl": null, "installs": 0, "name": "Leexi", "ownerName": "membranedev", "score": 96666.66666666667, "slug": "leexi", "source": "clawhub", "stars": 0, "tags": null, "updated_at": 1776698269758, "version": "1.0.0"}, {"category": "", "created_at": 1774898003708, "description": "Analyze flashloan operations. Use when you need to understand flashloan mechanisms, evaluate protocol security, or reference on-chain concepts.", "description_zh": "分析闪电贷操作。用于理解闪电贷机制、评估协议安全性或参考链上概念。", "downloads": 29, "homepage": "https://clawhub.ai/xueyetianya/flashloan", "iconUrl": null, "installs": 0, "name": "Flashloan", "ownerName": "xueyetianya", "score": 96666.66666666667, "slug": "flashloan", "source": "clawhub", "stars": 0, "tags": null, "updated_at": 1776698269756, "version": "1.0.0"}]}