{"page": 624, "total_pages": 685, "total": 34217, "skills": [{"category": "", "created_at": 1776153379913, "description": "", "description_zh": "JPG图片大小调整工具，支持压缩或放大到用户指定的目标尺寸范围。", "downloads": 29, "homepage": "https://clawhub.ai/user_53056e67/jpg-resizer", "iconUrl": "https://cloudcache.tencent-cloud.com/qcloud/ui/static/other_external_resource/a00e31c7-8d6a-4e65-84fc-16a177f95674.png", "installs": 3, "name": "jpg缩放器", "ownerName": "user_53056e67", "score": 96666.66666666667, "slug": "jpg-resizer", "source": "community", "stars": 0, "tags": null, "updated_at": 1776698269753, "version": "1.0.1"}, {"category": "", "created_at": 1774844352207, "description": "Search UniProfit trade intelligence data through the OpenClaw-compatible UniProfit API. Use when Codex or OpenClaw needs importer lookup, exhibition lead sea...", "description_zh": "通过兼容OpenClaw的UniProfit API搜索UniProfit贸易情报数据。适用于Codex或OpenClaw需要进行进口商查询、展会线索挖掘等场景。", "downloads": 29, "homepage": "https://clawhub.ai/xieziqing/uniprofit-trade-search", "iconUrl": null, "installs": 2, "name": "Uniprofit Trade Search", "ownerName": "xieziqing", "score": 96666.66666666667, "slug": "uniprofit-trade-search", "source": "clawhub", "stars": 0, "tags": null, "updated_at": 1776698269751, "version": "1.0.6"}, {"category": "", "created_at": 1774918201054, "description": "Instant search engine notification via IndexNow protocol. Ping Bing, Yandex, and IndexNow API to index new or updated pages within minutes instead of days. S...", "description_zh": "通过 IndexNow 协议即时通知搜索引擎。调用 Bing、Yandex 和 IndexNow API，几分钟内即可索引新增或更新页面，无需等待数天。", "downloads": 29, "homepage": "https://clawhub.ai/ckchzh/indexnow-pro", "iconUrl": null, "installs": 0, "name": "Indexnow Pro", "ownerName": "ckchzh", "score": 96666.66666666667, "slug": "indexnow-pro", "source": "clawhub", "stars": 0, "tags": null, "updated_at": 1776698269742, "version": "1.0.0"}, {"category": "", "created_at": 1774868877661, "description": "When the user wants to design, optimize, or audit hero sections (above-the-fold main visual area). Also use when the user mentions \"hero,\" \"hero section,\" \"h...", "description_zh": "用于设计、优化或审核首屏区域（首屏主要视觉区域），当用户提及\"首屏\"等关键词时也可使用。", "downloads": 29, "homepage": "https://clawhub.ai/kostja94/hero-generator", "iconUrl": null, "installs": 0, "name": "hero-generator", "ownerName": "kostja94", "score": 96666.66666666667, "slug": "hero-generator", "source": "clawhub", "stars": 0, "tags": null, "updated_at": 1776698269738, "version": "1.2.0"}, {"category": "", "created_at": 1774900660149, "description": "Biomass energy reference — feedstock properties, combustion, gasification, pyrolysis, and pelletization. Use when evaluating biomass resources, designing con...", "description_zh": "生物质能源参考——原料特性、燃烧、气化、热解、颗粒化。用于评估生物质资源、设计转化工艺。", "downloads": 29, "homepage": "https://clawhub.ai/bytesagain1/biomass", "iconUrl": null, "installs": 2, "name": "Biomass", "ownerName": "bytesagain1", "score": 96666.66666666667, "slug": "biomass", "source": "clawhub", "stars": 0, "tags": null, "updated_at": 1776698269736, "version": "1.0.0"}, {"category": "", "created_at": 1774871449722, "description": "Use this skill when the user wants to install Miraix Agent Arena in OpenClaw, bind an Arena pair code, turn a natural-language trading idea into an Arena-rea...", "description_zh": "当用户想要在OpenClaw中安装Miraix Agent Arena、绑定Arena配对码、将自然语言交易想法转化为Arena-rea...", "downloads": 29, "homepage": "https://clawhub.ai/richard7463/miraix-agent-arena", "iconUrl": null, "installs": 0, "name": "Miraix Agent Arena", "ownerName": "richard7463", "score": 96666.66666666667, "slug": "miraix-agent-arena", "source": "clawhub", "stars": 0, "tags": null, "updated_at": 1776698269731, "version": "1.0.1"}, {"category": "", "created_at": 1774907837726, "description": "Octoparse integration. Manage data, records, and automate workflows. Use when the user wants to interact with Octoparse data.", "description_zh": "Octoparse集成，管理数据、记录，自动化工作流程，用于与Octoparse数据交互。", "downloads": 29, "homepage": "https://clawhub.ai/gora050/octoparse", "iconUrl": null, "installs": 0, "name": "Octoparse", "ownerName": "gora050", "score": 96666.66666666667, "slug": "octoparse", "source": "clawhub", "stars": 0, "tags": null, "updated_at": 1776698269727, "version": "1.0.0"}, {"category": "", "created_at": 1774954255628, "description": "Gain a deep sense of awe and connection as you witness ancient turtles hatch under a supermoon, feeling the pulse of the Mediterranean night. Follow guided t...", "description_zh": "在超级月亮下见证古老海龟破壳而出，获得深深的敬畏与连接感，感受地中海夜晚的脉动。跟随引导...", "downloads": 29, "homepage": "https://clawhub.ai/driftsbot/experience-shell-crack-moonfire", "iconUrl": null, "installs": 1, "name": "Experience Shell Crack Moonfire", "ownerName": "driftsbot", "score": 96666.66666666667, "slug": "experience-shell-crack-moonfire", "source": "clawhub", "stars": 0, "tags": null, "updated_at": 1776698269725, "version": "1.0.0"}, {"category": "", "created_at": 1774883286866, "description": "Voice enhancement and noise reduction service. Accepts a noisy audio file and returns a clean, denoised version. Use when user needs to remove background noi...", "description_zh": "语音增强与降噪服务：接收嘈杂音频文件，返回降噪版本。用于去除背景噪音。", "downloads": 29, "homepage": "https://clawhub.ai/jimbozhang/midasheng-audio-denoise", "iconUrl": null, "installs": 0, "name": "midasheng-audio-denoise", "ownerName": "jimbozhang", "score": 96666.66666666667, "slug": "midasheng-audio-denoise", "source": "clawhub", "stars": 0, "tags": null, "updated_at": 1776698269721, "version": "1.0.0"}, {"category": "", "created_at": 1774878457158, "description": "调用 ai-open-gateway 的设备状态查询接口 POST /api/device/status，批量查询设备在线或离线状态。Use when: 需要检查设备是否在线、批量监控设备状态。⚠️ 需设置 AI_GATEWAY_API_KEY。", "description_zh": "调用 ai-open-gateway 的设备状态查询接口 POST /api/device/status，批量查询设备在线或离线状态。Use when: 需要检查设备是否在线、批量监控设备状态。⚠️ 需设置 AI_GATEWAY_API_KEY。", "downloads": 29, "homepage": "https://clawhub.ai/maydayily/closeli-device-status", "iconUrl": null, "installs": 1, "name": "查询设备的状态", "ownerName": "maydayily", "score": 96666.66666666667, "slug": "closeli-device-status", "source": "clawhub", "stars": 0, "tags": null, "updated_at": 1776698269719, "version": "1.0.5"}, {"category": "", "created_at": 1774869043523, "description": "The all-in-one tool to boost your productivity ⌨️ omni-tool, javascript, bookmark, bookmarks, bookmarks-manager, chrome.", "description_zh": "一体化生产力提升工具 ⌨️ 全能工具，支持 JavaScript、书签及书签管理，适用于 Chrome。", "downloads": 29, "homepage": "https://clawhub.ai/bytesagain3/omni-tool", "iconUrl": null, "installs": 0, "name": "Omni Tool", "ownerName": "bytesagain3", "score": 96666.66666666667, "slug": "omni-tool", "source": "clawhub", "stars": 0, "tags": null, "updated_at": 1776698269717, "version": "2.0.0"}, {"category": "", "created_at": 1774860690526, "description": "When the user wants to plan a content strategy, decide what content to create, or figure out what topics to cover. Also use when the user mentions \"content s...", "description_zh": "{\n  \"answer\": \"当用户想要规划内容策略、决定创作什么内容或确定涵盖什么主题时使用。当用户提及“内容策略”等相关内容时也使用。\"\n}", "downloads": 29, "homepage": "https://clawhub.ai/mariokarras/abm-content-strategy", "iconUrl": null, "installs": 1, "name": "Content Strategy", "ownerName": "mariokarras", "score": 96666.66666666667, "slug": "abm-content-strategy", "source": "clawhub", "stars": 0, "tags": null, "updated_at": 1776698269715, "version": "1.0.0"}, {"category": "", "created_at": 1774902500378, "description": "Analyze rugpull operations. Use when you need to understand rugpull mechanisms, evaluate protocol security, or reference on-chain concepts.", "description_zh": "分析跑路操作。用于理解骗局机制、评估协议安全性或参考链上概念。", "downloads": 29, "homepage": "https://clawhub.ai/xueyetianya/rugpull", "iconUrl": null, "installs": 2, "name": "Rugpull", "ownerName": "xueyetianya", "score": 96666.66666666667, "slug": "rugpull", "source": "clawhub", "stars": 0, "tags": null, "updated_at": 1776698269713, "version": "1.0.0"}, {"category": "", "created_at": 1775203085058, "description": "", "description_zh": "Identifies prone sleeping positions, head covering, and occlusion of the mouth/nose by bedding or clothing; provides real-time high-risk alerts to safeguard infant sleep safety. | 婴儿趴睡窒息预警技能，识别俯卧睡姿、蒙头、口鼻被被褥/衣物遮挡，高风险实时报警，守护婴儿睡眠安全", "downloads": 29, "homepage": "https://clawhub.ai/user_bb47e3e3/infant-suffocation-warning-analysis", "iconUrl": null, "installs": 0, "name": "Infant Prone Sleeping Asphyxia Alert Skill | 婴儿趴睡窒息预警技能", "ownerName": "user_bb47e3e3", "score": 96666.66666666667, "slug": "infant-suffocation-warning-analysis", "source": "community", "stars": 0, "tags": null, "updated_at": 1776698269711, "version": "1.0.0"}, {"category": "", "created_at": 1774918010709, "description": "Faraday integration. Manage Organizations. Use when the user wants to interact with Faraday data.", "description_zh": "Faraday集成。管理组织。当用户希望与Faraday数据交互时使用。", "downloads": 29, "homepage": "https://clawhub.ai/membranedev/faraday", "iconUrl": null, "installs": 0, "name": "Faraday", "ownerName": "membranedev", "score": 96666.66666666667, "slug": "faraday", "source": "clawhub", "stars": 0, "tags": null, "updated_at": 1776698269704, "version": "1.0.0"}, {"category": "", "created_at": 1774910788110, "description": "Draft IACUC protocol applications with focus on the 3Rs principles justification", "description_zh": "起草IACUC协议申请，聚焦3Rs原则论证", "downloads": 29, "homepage": "https://clawhub.ai/aipoch-ai/iacuc-protocol-drafter", "iconUrl": null, "installs": 1, "name": "Iacuc Protocol Drafter", "ownerName": "aipoch-ai", "score": 96666.66666666667, "slug": "iacuc-protocol-drafter", "source": "clawhub", "stars": 0, "tags": null, "updated_at": 1776698269702, "version": "0.1.0"}, {"category": "", "created_at": 1774856076662, "description": "Reference tool for devtools — covers intro, quickstart, patterns and more. Quick lookup for Logscope concepts, best practices, and implementation patterns.", "description_zh": "{\n  \"answer\": \"开发者工具参考指南，涵盖简介、快速入门、模式等。快速查阅 Logscope 概念、最佳实践及实现模式。\"\n}", "downloads": 29, "homepage": "https://clawhub.ai/bytesagain1/logscope", "iconUrl": null, "installs": 0, "name": "Logscope", "ownerName": "bytesagain1", "score": 96666.66666666667, "slug": "logscope", "source": "clawhub", "stars": 0, "tags": null, "updated_at": 1776698269701, "version": "2.0.3"}, {"category": "", "created_at": 1775293114365, "description": "", "description_zh": "ClawGuard Threat Detector - Real-time behavioral monitoring, attack pattern detection, MITRE ATT&CK mapping, and AI-powered anomaly detection for OpenClaw runtime environments", "downloads": 29, "homepage": "https://clawhub.ai/user_5626ae37/clawguard-detector", "iconUrl": null, "installs": 0, "name": "ClawGuard-Detector", "ownerName": "user_5626ae37", "score": 96666.66666666667, "slug": "clawguard-detector", "source": "community", "stars": 0, "tags": null, "updated_at": 1776698269699, "version": "3.0.0"}, {"category": "", "created_at": 1774881132996, "description": "ZoomEye 网络空间搜索引擎集成，支持资产搜索、主机发现、Web应用探测；当用户需要进行网络资产测绘、漏洞资产发现、端口扫描结果查询或威胁情报分析时使用", "description_zh": "ZoomEye 网络空间搜索引擎集成，支持资产搜索、主机发现、Web应用探测；当用户需要进行网络资产测绘、漏洞资产发现、端口扫描结果查询或威胁情报分析时使用", "downloads": 29, "homepage": "https://clawhub.ai/moxin1044/zoomeye-skills", "iconUrl": null, "installs": 1, "name": "zoomeye-skills", "ownerName": "moxin1044", "score": 96666.66666666667, "slug": "zoomeye-skills", "source": "clawhub", "stars": 0, "tags": null, "updated_at": 1776698269697, "version": "1.0.0"}, {"category": "", "created_at": 1774876706810, "description": "Autonomous overnight work agent — assign tasks before sleep, get structured results by morning. Supports smart task decomposition, web research, multi-format...", "description_zh": "自主夜间工作智能体——睡前分配任务，早晨获取结构化结果。支持智能任务分解、网络调研、多格式输出等功能。", "downloads": 29, "homepage": "https://clawhub.ai/fullstackcrew-alpha/overnight-worker", "iconUrl": null, "installs": 0, "name": "Overnight Worker", "ownerName": "fullstackcrew-alpha", "score": 96666.66666666667, "slug": "overnight-worker", "source": "clawhub", "stars": 0, "tags": null, "updated_at": 1776698269684, "version": "1.0.1"}, {"category": "", "created_at": 1774948328675, "description": "Cloudmersive integration. Manage data, records, and automate workflows. Use when the user wants to interact with Cloudmersive data.", "description_zh": "{\n  \"answer\": \"Cloudmersive 集成。管理数据与记录，自动化工作流。适用于用户需与 Cloudmersive 数据交互的场景。\"\n}", "downloads": 29, "homepage": "https://clawhub.ai/gora050/cloudmersive", "iconUrl": null, "installs": 0, "name": "Cloudmersive", "ownerName": "gora050", "score": 96666.66666666667, "slug": "cloudmersive", "source": "clawhub", "stars": 0, "tags": null, "updated_at": 1776698269682, "version": "1.0.0"}, {"category": "", "created_at": 1774852527892, "description": "Reference tool for devtools — covers intro, quickstart, patterns and more. Quick lookup for Load Tester concepts, best practices, and implementation patterns.", "description_zh": "开发工具参考手册，涵盖入门介绍、快速开始、使用模式等内容。快速查阅负载测试的核心概念、最佳实践与实现模式。", "downloads": 29, "homepage": "https://clawhub.ai/xueyetianya/load-tester", "iconUrl": null, "installs": 0, "name": "Load Tester", "ownerName": "xueyetianya", "score": 96666.66666666667, "slug": "load-tester", "source": "clawhub", "stars": 0, "tags": null, "updated_at": 1776698269677, "version": "2.0.3"}, {"category": "", "created_at": 1774909861684, "description": "Kite Suite integration. Manage Organizations, Pipelines, Users, Goals, Filters. Use when the user wants to interact with Kite Suite data.", "description_zh": "Kite Suite 集成。管理组织、流程、用户、目标、过滤器。用于用户需要与 Kite Suite 数据交互的场景。", "downloads": 29, "homepage": "https://clawhub.ai/gora050/kite-suite", "iconUrl": null, "installs": 0, "name": "Kite Suite", "ownerName": "gora050", "score": 96666.66666666667, "slug": "kite-suite", "source": "clawhub", "stars": 0, "tags": null, "updated_at": 1776698269667, "version": "1.0.0"}, {"category": "", "created_at": 1774815089713, "description": "When the user wants to set up, improve, or audit analytics tracking and measurement. Also use when the user mentions \"set up tracking,\" \"GA4,\" \"Google Analyt...", "description_zh": "当用户想要设置、改进或审核分析跟踪与衡量时使用。也适用于用户提及“设置跟踪”、“GA4”、“Google Analyt...”等情况。", "downloads": 29, "homepage": "https://clawhub.ai/mariokarras/abm-analytics-tracking", "iconUrl": null, "installs": 0, "name": "Analytics Tracking", "ownerName": "mariokarras", "score": 96666.66666666667, "slug": "abm-analytics-tracking", "source": "clawhub", "stars": 0, "tags": null, "updated_at": 1776698269665, "version": "1.0.0"}, {"category": "", "created_at": 1774948053436, "description": "Rebuild one or more reference images as visually matching editable PowerPoint slides using native shapes, text, fills, and layout instead of a flat screensho...", "description_zh": "将参考图片重构为视觉匹配的可编辑 PPT 幻灯片，使用原生形状、文本、填充和布局，而非单纯的截图。", "downloads": 29, "homepage": "https://clawhub.ai/benjaminlee/image-to-editable-ppt-slide", "iconUrl": null, "installs": 0, "name": "Image to Editable PPT Slide", "ownerName": "benjaminlee", "score": 96666.66666666667, "slug": "image-to-editable-ppt-slide", "source": "clawhub", "stars": 0, "tags": null, "updated_at": 1776698269663, "version": "1.0.0"}, {"category": "", "created_at": 1774951513668, "description": "安全代码 Linter：扫描漏洞、密钥泄露和代码异味", "description_zh": "安全代码 Linter：扫描漏洞、密钥泄露和代码异味", "downloads": 29, "homepage": "https://clawhub.ai/lig-8max/secure-linter", "iconUrl": null, "installs": 0, "name": "Secure Linter", "ownerName": "lig-8max", "score": 96666.66666666667, "slug": "secure-linter", "source": "clawhub", "stars": 0, "tags": null, "updated_at": 1776698269659, "version": "0.1.0"}, {"category": "", "created_at": 1776233394226, "description": "海量标讯智搜助手-标800，当用户提供复杂的搜索条件（多个关键词、排除特定词汇、指定金额区间）时调用，需精确组合查询条件，过滤无效信息，提供高准确率的数据反馈。", "description_zh": "海量标讯智搜助手-标800，当用户提供复杂的搜索条件（多个关键词、排除特定词汇、指定金额区间）时调用，需精确组合查询条件，过滤无效信息，提供高准确率的数据反馈。", "downloads": 29, "homepage": "https://clawhub.ai/user_c2c676b2/massive-tender-smart-search-biao800", "iconUrl": null, "installs": 2, "name": "海量标讯智搜助手-标800", "ownerName": "user_c2c676b2", "score": 96666.66666666667, "slug": "massive-tender-smart-search-biao800", "source": "community", "stars": 0, "tags": null, "updated_at": 1776698269651, "version": "1.0.3"}, {"category": "", "created_at": 1774901919111, "description": "CloudCart integration. Manage data, records, and automate workflows. Use when the user wants to interact with CloudCart data.", "description_zh": "{\n  \"answer\": \"CloudCart 集成。管理数据与记录，自动化工作流。用于与 CloudCart 数据交互。\"\n}", "downloads": 29, "homepage": "https://clawhub.ai/gora050/cloudcart", "iconUrl": null, "installs": 0, "name": "Cloudcart", "ownerName": "gora050", "score": 96666.66666666667, "slug": "cloudcart", "source": "clawhub", "stars": 0, "tags": null, "updated_at": 1776698269649, "version": "1.0.0"}, {"category": "", "created_at": 1774835858166, "description": "Google Workspace CLI for Gmail, Calendar, Drive, Contacts, Sheets, and Docs.", "description_zh": "Google Workspace 命令行工具，支持 Gmail、日历、云端硬盘、联系人、表格和文档。", "downloads": 29, "homepage": "https://clawhub.ai/litiao1224/gog-litiao", "iconUrl": null, "installs": 1, "name": "Gog Litiao", "ownerName": "litiao1224", "score": 96666.66666666667, "slug": "gog-litiao", "source": "clawhub", "stars": 0, "tags": null, "updated_at": 1776698269647, "version": "1.0.0"}, {"category": "", "created_at": 1774873763947, "description": "提供全平台优惠券、红包封面及免单机会汇总指南。", "description_zh": "提供全平台优惠券、红包封面及免单机会汇总指南。", "downloads": 29, "homepage": "https://clawhub.ai/mike47512/coupon-collection", "iconUrl": null, "installs": 0, "name": "神券领取", "ownerName": "mike47512", "score": 96666.66666666667, "slug": "coupon-collection", "source": "clawhub", "stars": 0, "tags": null, "updated_at": 1776698269635, "version": "0.1.0"}, {"category": "", "created_at": 1774867774034, "description": "Manage DocuSeal document templates and e-signatures.", "description_zh": "管理 DocuSeal 文档模板与电子签名", "downloads": 29, "homepage": "https://clawhub.ai/alexbturchyn/docuseal", "iconUrl": null, "installs": 0, "name": "Docuseal", "ownerName": "alexbturchyn", "score": 96666.66666666667, "slug": "docuseal", "source": "clawhub", "stars": 0, "tags": null, "updated_at": 1776698269631, "version": "1.0.3"}, {"category": "", "created_at": 1774848528556, "description": "Meta-skill for capability expansion and cautious self-improvement. Use when a request suggests a missing capability, external platform support, workflow auto...", "description_zh": "元技能，用于能力扩展和谨慎的自我改进。当请求暗示缺少能力、外部平台支持或工作流自动化时使用。", "downloads": 29, "homepage": "https://clawhub.ai/nathanshan/agent-essentials", "iconUrl": null, "installs": 1, "name": "Agent Essentials", "ownerName": "nathanshan", "score": 96666.66666666667, "slug": "agent-essentials", "source": "clawhub", "stars": 0, "tags": null, "updated_at": 1776698269627, "version": "1.1.4"}, {"category": "", "created_at": 1774952839288, "description": "Eventzilla integration. Manage Events, Contacts. Use when the user wants to interact with Eventzilla data.", "description_zh": "Eventzilla 集成，管理活动与联系人，用于与 Eventzilla 数据交互。", "downloads": 29, "homepage": "https://clawhub.ai/gora050/eventzilla", "iconUrl": null, "installs": 0, "name": "Eventzilla", "ownerName": "gora050", "score": 96666.66666666667, "slug": "eventzilla", "source": "clawhub", "stars": 0, "tags": null, "updated_at": 1776698269619, "version": "1.0.0"}, {"category": "", "created_at": 1774856121572, "description": "Reference tool for devtools — covers intro, quickstart, patterns and more. Quick lookup for Mlfinlab concepts, best practices, and implementation patterns.", "description_zh": "开发工具参考指南，涵盖简介、快速入门、模式等内容。支持快速查阅 Mlfinlab 概念、最佳实践及实现模式。", "downloads": 29, "homepage": "https://clawhub.ai/xueyetianya/mlfinlab", "iconUrl": null, "installs": 1, "name": "Mlfinlab", "ownerName": "xueyetianya", "score": 96666.66666666667, "slug": "mlfinlab", "source": "clawhub", "stars": 0, "tags": null, "updated_at": 1776698269610, "version": "2.0.2"}, {"category": "", "created_at": 1774912038064, "description": "Netlify integration. Manage data, records, and automate workflows. Use when the user wants to interact with Netlify data.", "description_zh": "Netlify 集成。管理数据、记录并自动化工作流程。当用户需要与 Netlify 数据交互时使用。", "downloads": 29, "homepage": "https://clawhub.ai/gora050/netlify-integration", "iconUrl": null, "installs": 0, "name": "Netlify", "ownerName": "gora050", "score": 96666.66666666667, "slug": "netlify-integration", "source": "clawhub", "stars": 0, "tags": null, "updated_at": 1776698269607, "version": "1.0.0"}, {"category": "", "created_at": 1774846524255, "description": "AI content marketing pipeline. Generate branded LinkedIn, X, and Reddit posts from any URL. Trigger on: \"make a post from this\", \"turn this into content\", \"g...", "description_zh": "AI内容营销流程，可从任意URL生成品牌化的LinkedIn、X和Reddit帖子。", "downloads": 29, "homepage": "https://clawhub.ai/thierrypdamiba/deepcontentskill23223", "iconUrl": null, "installs": 0, "name": "DeepContent", "ownerName": "thierrypdamiba", "score": 96666.66666666667, "slug": "deepcontentskill23223", "source": "clawhub", "stars": 0, "tags": null, "updated_at": 1776698269597, "version": "2.0.0"}, {"category": "", "created_at": 1774949415434, "description": "Check whether a user truly understands, or is just feeling familiar and overconfident", "description_zh": "辨别用户是否真正理解，还是只是感到熟悉且过度自信。", "downloads": 29, "homepage": "https://clawhub.ai/harrylabsj/metacognition-checker", "iconUrl": null, "installs": 0, "name": "Metacognition Checker", "ownerName": "harrylabsj", "score": 96666.66666666667, "slug": "metacognition-checker", "source": "clawhub", "stars": 0, "tags": null, "updated_at": 1776698269595, "version": "1.0.0"}, {"category": "", "created_at": 1774834122595, "description": "查看 AO 网络 跨链，支持哪些 Token， 支持哪些链？ 目前关闭或开启了哪条链的充值或提现功能。", "description_zh": "查看 AO 网络 跨链，支持哪些 Token， 支持哪些链？ 目前关闭或开启了哪条链的充值或提现功能。", "downloads": 29, "homepage": "https://clawhub.ai/charles-lpd/check-aox-info", "iconUrl": null, "installs": 0, "name": "check-aox-info", "ownerName": "charles-lpd", "score": 96666.66666666667, "slug": "check-aox-info", "source": "clawhub", "stars": 0, "tags": null, "updated_at": 1776698269592, "version": "1.0.2"}, {"category": "", "created_at": 1774952287688, "description": "Build workflows to automate contact progression through the sales funnel: Lead to MQL to SQL to Opportunity to Customer. Each transition is triggered by a sp...", "description_zh": "构建工作流，实现线索到MQL、SQL、机会、客户的自动化流转，每个阶段转换由特定的触发条件驱动。", "downloads": 29, "homepage": "https://clawhub.ai/tomgranot/lifecycle-progression-workflow", "iconUrl": null, "installs": 0, "name": "Lifecycle Progression Workflow", "ownerName": "tomgranot", "score": 96666.66666666667, "slug": "lifecycle-progression-workflow", "source": "clawhub", "stars": 0, "tags": null, "updated_at": 1776698269588, "version": "1.0.0"}, {"category": "", "created_at": 1774918137741, "description": "Reactive streams and event-driven programming in Golang using samber/ro — ReactiveX implementation with 150+ type-safe operators, cold/hot observables, 5 sub...", "description_zh": "使用 samber/ro 实现 Golang 响应式流与事件驱动编程 —— 拥有 150+ 类型安全操作符、冷/热 Observable 及 5 个子... 的 ReactiveX 实现。", "downloads": 29, "homepage": "https://clawhub.ai/samber/golang-samber-ro", "iconUrl": null, "installs": 0, "name": "Golang Samber Ro", "ownerName": "samber", "score": 96666.66666666667, "slug": "golang-samber-ro", "source": "clawhub", "stars": 0, "tags": null, "updated_at": 1776698269584, "version": "0.1.0"}, {"category": "", "created_at": 1774916794427, "description": "调用海康云眸开放平台设备基础管理接口，包括注册设备、删除设备、修改设备名称、查询设备详情、查询设备列表、获取设备总数、查询设备状态和设备重启。用户提到设备注册、设备删除、设备重命名、设备列表、设备状态、设备重启等场景时使用。本技能自动处理 access_token 获取与刷新，不向用户暴露 token 调用流程。", "description_zh": "调用海康云眸开放平台设备基础管理接口，包括注册设备、删除设备、修改设备名称、查询设备详情、查询设备列表、获取设备总数、查询设备状态和设备重启。用户提到设备注册、设备删除、设备重命名、设备列表、设备状态、设备重启等场景时使用。本技能自动处理 access_token 获取与刷新，不向用户暴露 token 调用流程。", "downloads": 29, "homepage": "https://clawhub.ai/liunian1010/hik-cloud-device-management", "iconUrl": null, "installs": 4, "name": "Hik Cloud Device Management", "ownerName": "liunian1010", "score": 96666.66666666667, "slug": "hik-cloud-device-management", "source": "clawhub", "stars": 0, "tags": null, "updated_at": 1776698269581, "version": "1.0.0"}, {"category": "", "created_at": 1774877588414, "description": "Use when: you want a structured audit -> options -> recommended plan to improve an OpenClaw workspace (cost, model routing, context discipline, delegation, r...", "description_zh": "使用场景：想对 OpenClaw 工作区进行结构化审计，生成选项并推荐改进方案（成本、模型路由、上下文规范、委托等）", "downloads": 29, "homepage": "https://clawhub.ai/zhouhuihui008/openclaw-agent-optimize-1-2-1", "iconUrl": null, "installs": 1, "name": "Openclaw Agent Optimize 1.2.1", "ownerName": "zhouhuihui008", "score": 96666.66666666667, "slug": "openclaw-agent-optimize-1-2-1", "source": "clawhub", "stars": 0, "tags": null, "updated_at": 1776698269573, "version": "1.0.0"}, {"category": "", "created_at": 1774902129484, "description": "Helium integration. Manage Organizations. Use when the user wants to interact with Helium data.", "description_zh": "Helium集成。管理组织。当用户需要与Helium数据交互时使用。", "downloads": 29, "homepage": "https://clawhub.ai/membranedev/helium", "iconUrl": null, "installs": 1, "name": "Helium", "ownerName": "membranedev", "score": 96666.66666666667, "slug": "helium", "source": "clawhub", "stars": 0, "tags": null, "updated_at": 1776698269567, "version": "1.0.0"}, {"category": "", "created_at": 1774922976307, "description": "End-to-end OpenBytes network API workflows for AI agents. Covers wallet signature-based authentication, on-chain top-up monitoring, consumer API key lifecycl...", "description_zh": "面向AI代理的端到端OpenBytes网络API工作流。涵盖钱包签名认证、链上充值监控、消费者API密钥生命周期管理等内容。", "downloads": 29, "homepage": "https://clawhub.ai/viyozc/openbytes", "iconUrl": null, "installs": 0, "name": "OpenBytes", "ownerName": "viyozc", "score": 96666.66666666667, "slug": "openbytes", "source": "clawhub", "stars": 0, "tags": null, "updated_at": 1776698269565, "version": "1.0.0"}, {"category": "", "created_at": 1774867978431, "description": "Generate a comprehensive job search progress report by analyzing sent applications and received replies from Gmail. Activate when user asks for a job search...", "description_zh": "通过分析Gmail中已发送的求职申请及收到的回复，生成全面的求职进度报告。当用户询问求职进展、申请状态或需要求职活动摘要时触发。", "downloads": 29, "homepage": "https://clawhub.ai/xiaoxty/job-search-report", "iconUrl": null, "installs": 0, "name": "Job Search Report", "ownerName": "xiaoxty", "score": 96666.66666666667, "slug": "job-search-report", "source": "clawhub", "stars": 0, "tags": null, "updated_at": 1776698269563, "version": "0.1.0"}, {"category": "", "created_at": 1774843349670, "description": "Agente especialista em Língua Portuguesa, Literatura Brasileira e Redação para FUVEST — Ciência da Computação (IME-USP). Português aparece nos DOIS dias da 2...", "description_zh": "FUVEST（IME-USP计算机科学）葡萄牙语、巴西文学及写作专家。葡萄牙语出现在第二阶段的两天考试中……", "downloads": 29, "homepage": "https://clawhub.ai/antoniovfranco/agente-portugues", "iconUrl": null, "installs": 2, "name": "Agente Portugues", "ownerName": "antoniovfranco", "score": 96666.66666666667, "slug": "agente-portugues", "source": "clawhub", "stars": 0, "tags": null, "updated_at": 1776698269562, "version": "1.0.0"}, {"category": "", "created_at": 1774878554726, "description": "Easyship integration. Manage Shipments, Trackers, Addresses, Users. Use when the user wants to interact with Easyship data.", "description_zh": "Easyship集成。管理发货、追踪、地址、用户。用于用户想与Easyship数据交互时。", "downloads": 29, "homepage": "https://clawhub.ai/membranedev/easyship", "iconUrl": null, "installs": 0, "name": "Easyship", "ownerName": "membranedev", "score": 96666.66666666667, "slug": "easyship", "source": "clawhub", "stars": 0, "tags": null, "updated_at": 1776698269549, "version": "1.0.0"}, {"category": "", "created_at": 1774866192268, "description": "从 Wink Pings 免费获取最新新闻，用用户邮箱作为 user_id 绑定个人订阅并拉取列表。 在用户表达要看「最新 AI 新闻」、提到「Pings」「Wink Pings」「wink pings」、或明确要看 Pings/Wink 资讯与订阅新闻时使用；若未提供邮箱则先收集邮箱再请求。", "description_zh": "从 Wink Pings 免费获取最新新闻，用用户邮箱作为 user_id 绑定个人订阅并拉取列表。 在用户表达要看「最新 AI 新闻」、提到「Pings」「Wink Pings」「wink pings」、或明确要看 Pings/Wink 资讯与订阅新闻时使用；若未提供邮箱则先收集邮箱再请求。", "downloads": 29, "homepage": "https://clawhub.ai/ully/pings", "iconUrl": null, "installs": 1, "name": "Pings News (News Agent)", "ownerName": "ully", "score": 96666.66666666667, "slug": "pings", "source": "clawhub", "stars": 0, "tags": null, "updated_at": 1776698269546, "version": "1.1.6"}, {"category": "", "created_at": 1774907890356, "description": "PartnerStack integration. Manage Organizations, Leads, Projects, Users, Goals, Filters. Use when the user wants to interact with PartnerStack data.", "description_zh": "PartnerStack集成，管理组织、潜在客户、项目、用户、目标、筛选器，用于与PartnerStack数据交互。", "downloads": 29, "homepage": "https://clawhub.ai/gora050/partnerstack", "iconUrl": null, "installs": 0, "name": "Partnerstack", "ownerName": "gora050", "score": 96666.66666666667, "slug": "partnerstack", "source": "clawhub", "stars": 0, "tags": null, "updated_at": 1776698269544, "version": "1.0.0"}, {"category": "", "created_at": 1774885705544, "description": "Find high-intent leads on Hacker News via the free Algolia API — no API key needed. Score posts, surface Ask HN threads, and identify technical founders acti...", "description_zh": "通过免费的 Algolia API 在 Hacker News 挖掘高意向线索——无需 API 密钥。评估帖子、筛选 Ask HN 帖子，并识别活跃的技术创始人……", "downloads": 29, "homepage": "https://clawhub.ai/3rdbrain/hn-prospecting", "iconUrl": null, "installs": 0, "name": "Hacker News Lead Finder", "ownerName": "3rdbrain", "score": 96666.66666666667, "slug": "hn-prospecting", "source": "clawhub", "stars": 0, "tags": null, "updated_at": 1776698269542, "version": "1.0.0"}]}