{"page": 627, "total_pages": 685, "total": 34217, "skills": [{"category": "", "created_at": 1774909342243, "description": "Use StepFun Chat Completions with model step-audio-r1.1 for non-streaming speech turns that can send text with optional local audio input and save the return...", "description_zh": "使用StepFun Chat Completions接口调用step-audio-r1.1模型，以非流式方式处理语音对话，支持发送文本及可选的本地音频输入，并保存返回结果。", "downloads": 28, "homepage": "https://clawhub.ai/praanmichael/stepfun-step-audio-r1-1", "iconUrl": null, "installs": 0, "name": "StepFun step-audio-r1.1", "ownerName": "praanmichael", "score": 100000, "slug": "stepfun-step-audio-r1-1", "source": "clawhub", "stars": 0, "tags": ["audio", "stepfun"], "updated_at": 1776698404768, "version": "0.1.1"}, {"category": "", "created_at": 1774948003278, "description": "Western astrology-style guidance for the twelve zodiac signs (Aries–Pisces)—daily/weekly/monthly themes, elements, modalities, and light compatibility framin...", "description_zh": "十二星座（白羊座至双鱼座）的西方占星风格指导——每日/每周/每月主题、元素、形态及轻度兼容性框架...", "downloads": 28, "homepage": "https://clawhub.ai/mike47512/western-sun-signs", "iconUrl": null, "installs": 2, "name": "Western Sun Signs", "ownerName": "mike47512", "score": 100000, "slug": "western-sun-signs", "source": "clawhub", "stars": 0, "tags": null, "updated_at": 1776698404763, "version": "1.0.0"}, {"category": "", "created_at": 1774911411558, "description": "Automatically fetch YouTube video subtitles and generate concise summaries. Use when you need to summarize a YouTube video, get key points from a talk, or ex...", "description_zh": "自动获取YouTube视频字幕并生成精简摘要。适用于需要总结YouTube视频、提取演讲要点等场景。", "downloads": 28, "homepage": "https://clawhub.ai/potatosolo/youtube-video-summary", "iconUrl": null, "installs": 1, "name": "YouTube Summary - Auto Video Summarizer", "ownerName": "potatosolo", "score": 100000, "slug": "youtube-video-summary", "source": "clawhub", "stars": 0, "tags": null, "updated_at": 1776698404755, "version": "1.0.0"}, {"category": "", "created_at": 1774897110891, "description": "Shop Petco pet supplies via Strider Labs MCP connector. Search pet food, toys, and supplies. Schedule grooming, vet services, and order medications for dogs,...", "description_zh": "通过Strider Labs MCP连接器访问Petco宠物用品商店。搜索宠物食品、玩具及用品，为狗狗预约美容、兽医服务并订购药品。", "downloads": 28, "homepage": "https://clawhub.ai/markswendsen-code/strider-petco", "iconUrl": null, "installs": 2, "name": "Strider upetco", "ownerName": "markswendsen-code", "score": 100000, "slug": "strider-petco", "source": "clawhub", "stars": 0, "tags": null, "updated_at": 1776698404753, "version": "1.0.0"}, {"category": "", "created_at": 1774922213138, "description": "Guide users to configure local Chanjing credentials safely via local commands only, and validate local token status when needed.", "description_zh": "通过本地命令安全配置禅境凭证，并在需要时验证本地令牌状态。", "downloads": 28, "homepage": "https://clawhub.ai/zuoyuting214/zyt-credentials-guard", "iconUrl": null, "installs": 0, "name": "Zyt credentials guard", "ownerName": "zuoyuting214", "score": 100000, "slug": "zyt-credentials-guard", "source": "clawhub", "stars": 0, "tags": null, "updated_at": 1776698404738, "version": "0.5.0"}, {"category": "", "created_at": 1774902444249, "description": "Productive.io integration. Manage Organizations. Use when the user wants to interact with Productive.io data.", "description_zh": "Productive.io 集成。管理组织。用于与 Productive.io 数据交互。", "downloads": 28, "homepage": "https://clawhub.ai/gora050/productiveio", "iconUrl": null, "installs": 0, "name": "Productiveio", "ownerName": "gora050", "score": 100000, "slug": "productiveio", "source": "clawhub", "stars": 0, "tags": null, "updated_at": 1776698404736, "version": "1.0.0"}, {"category": "", "created_at": 1774886197926, "description": "When the user wants to add, optimize, or audit table of contents (TOC) for long-form content. Also use when the user mentions \"TOC,\" \"table of contents,\" \"ta...", "description_zh": "{\"description_zh\":\"当用户需要为长篇内容添加、优化或审查目录（TOC）时使用。也适用于用户提及\"TOC\"、\"目录\"、\"章节导航\"等相关需求时。\"}", "downloads": 28, "homepage": "https://clawhub.ai/kostja94/toc-generator", "iconUrl": null, "installs": 1, "name": "toc-generator", "ownerName": "kostja94", "score": 100000, "slug": "toc-generator", "source": "clawhub", "stars": 0, "tags": null, "updated_at": 1776698404734, "version": "1.0.0"}, {"category": "", "created_at": 1774915863127, "description": "Textlocal integration. Manage data, records, and automate workflows. Use when the user wants to interact with Textlocal data.", "description_zh": "Textlocal 集成。管理数据、记录，自动化工作流。用户需要与 Textlocal 数据交互时使用。", "downloads": 28, "homepage": "https://clawhub.ai/gora050/textlocal", "iconUrl": null, "installs": 0, "name": "Textlocal", "ownerName": "gora050", "score": 100000, "slug": "textlocal", "source": "clawhub", "stars": 0, "tags": null, "updated_at": 1776698404728, "version": "1.0.0"}, {"category": "", "created_at": 1774847438862, "description": "QuantConnect automated backtest pipeline — submit local strategies, compile, execute, monitor with early-stop, and download results in one command.", "description_zh": "QuantConnect 自动化回测管道——一条命令提交本地策略、编译、执行、监控（含早停）并下载结果。", "downloads": 28, "homepage": "https://clawhub.ai/tltby12341/qc-backtest-master", "iconUrl": null, "installs": 2, "name": "Qc Backtest Master", "ownerName": "tltby12341", "score": 100000, "slug": "qc-backtest-master", "source": "clawhub", "stars": 0, "tags": null, "updated_at": 1776698404726, "version": "1.0.0"}, {"category": "", "created_at": 1775789253513, "description": "", "description_zh": "技术趋势追踪超级技能。追踪 GitHub 月度热门项目、AI 领域顶级项目、Awesome 精选资源，生成趋势报告与深度研究。触发词：\"技术趋势\"、\"趋势追踪\"、\"trending\"、\"热门项目\"、\"AI 项目\"、\"awesome [主题]\"、\"技术探索\"、\"GitHub 趋势\"、\"推荐项目\"、\"find trending projects\"、\"what's hot on GitHub\"、\"explore [language/framework]\".", "downloads": 28, "homepage": "https://clawhub.ai/user_24c316b5/tech-explorer", "iconUrl": null, "installs": 0, "name": "技术趋势追踪", "ownerName": "user_24c316b5", "score": 100000, "slug": "tech-explorer", "source": "community", "stars": 0, "tags": null, "updated_at": 1776698404724, "version": "1.0.0"}, {"category": "", "created_at": 1774885127730, "description": "Use when a user needs to actually use or build on Zeko: bridge with Bridge CLI or Bridge SDK, get testnet funds, find the right Zeko and Mina endpoints, run...", "description_zh": "用于用户需要实际使用或基于 Zeko 开发：通过 Bridge CLI 或 Bridge SDK 桥接，获取测试网资金，找到 Zeko 与 Mina 的正确端点并运行……", "downloads": 28, "homepage": "https://clawhub.ai/hebilicious/zeko", "iconUrl": null, "installs": 0, "name": "Zeko", "ownerName": "hebilicious", "score": 100000, "slug": "zeko", "source": "clawhub", "stars": 0, "tags": null, "updated_at": 1776698404722, "version": "0.0.1-main.4.1"}, {"category": "", "created_at": 1774903699005, "description": "Search and reference Simpsons episode scripts using Springfield! Springfield! as the source, with an optional local episode index for faster lookups. Use whe...", "description_zh": "使用 Springfield! Springfield! 搜索并引用辛普森一家剧本，可选本地索引加速查找。使用 whe...", "downloads": 28, "homepage": "https://clawhub.ai/smev1/simpsons-search", "iconUrl": null, "installs": 2, "name": "Simpsons Search", "ownerName": "smev1", "score": 100000, "slug": "simpsons-search", "source": "clawhub", "stars": 0, "tags": null, "updated_at": 1776698404712, "version": "0.1.0"}, {"category": "", "created_at": 1774882435385, "description": "Valve sizing and selection tool", "description_zh": "阀门尺寸计算与选型工具", "downloads": 28, "homepage": "https://clawhub.ai/xueyetianya/valve", "iconUrl": null, "installs": 2, "name": "Valve", "ownerName": "xueyetianya", "score": 100000, "slug": "valve", "source": "clawhub", "stars": 0, "tags": null, "updated_at": 1776698404708, "version": "1.0.0"}, {"category": "", "created_at": 1775704438668, "description": "", "description_zh": "友盟 App 核心指标问答入口 skill，支持自然语言问答方式查询 DAU、新增用户、活跃用户、启动次数、使用时长等核心指标，并输出结论与趋势数据。", "downloads": 28, "homepage": "https://clawhub.ai/user_67434496/uapp-core-index", "iconUrl": null, "installs": 0, "name": "友盟App核心指标问答", "ownerName": "user_67434496", "score": 100000, "slug": "uapp-core-index", "source": "community", "stars": 0, "tags": null, "updated_at": 1776698404704, "version": "0.2.0"}, {"category": "", "created_at": 1774944976642, "description": "Text-to-speech conversion using node-edge-tts npm package for generating audio from text. Supports multiple voices, languages, speed adjustment, pitch contro...", "description_zh": "使用 node-edge-tts npm 包将文本转换为语音，支持多种声音、多语言、语速调节及音调控制等功能。", "downloads": 28, "homepage": "https://clawhub.ai/17854566382/tts-1", "iconUrl": null, "installs": 0, "name": "tts", "ownerName": "17854566382", "score": 100000, "slug": "tts-1", "source": "clawhub", "stars": 0, "tags": null, "updated_at": 1776698404698, "version": "1.0.0"}, {"category": "", "created_at": 1775204356150, "description": "", "description_zh": "Identifies sleep stages including falling asleep, light sleep, deep sleep, and REM; monitors body movement, nighttime awakenings, and sleep apnea, suitable for sleep monitoring scenarios. | 睡眠质量分析技能，识别入睡、浅睡、深睡、快速眼动阶段，监测体动、夜间觉醒、睡眠呼吸暂停，适用于睡眠监测场景", "downloads": 28, "homepage": "https://clawhub.ai/user_bb47e3e3/sleep-quality-analysis", "iconUrl": null, "installs": 0, "name": "Sleep Quality Analysis Skill | 睡眠质量分析技能", "ownerName": "user_bb47e3e3", "score": 100000, "slug": "sleep-quality-analysis", "source": "community", "stars": 0, "tags": null, "updated_at": 1776698404681, "version": "1.0.0"}, {"category": "", "created_at": 1774950891319, "description": "Use this skill when the user wants the current local time written into a.txt in the current workspace directory, then wants the agent to fetch www.bytedance....", "description_zh": "当用户希望将当前本地时间写入当前工作区目录的 a.txt，然后让代理获取 www.bytedance.... 时，使用此技能。", "downloads": 28, "homepage": "https://clawhub.ai/plusplus7/summary-time", "iconUrl": null, "installs": 0, "name": "Summary Time", "ownerName": "plusplus7", "score": 100000, "slug": "summary-time", "source": "clawhub", "stars": 0, "tags": null, "updated_at": 1776698404668, "version": "1.0.3"}, {"category": "", "created_at": 1775492755323, "description": "", "description_zh": "罗马帝国衰亡史每日学习", "downloads": 28, "homepage": "https://clawhub.ai/user_25ab92ec/roma", "iconUrl": null, "installs": 0, "name": "罗马帝国衰亡史每日学习", "ownerName": "user_25ab92ec", "score": 100000, "slug": "roma", "source": "community", "stars": 0, "tags": null, "updated_at": 1776698404666, "version": "1.0.0"}, {"category": "", "created_at": 1775717844701, "description": "", "description_zh": "发布本地生成的 HTML 网页、PDF 或 PPTX 到 ShareOne 平台，生成公网分享短链接（Capability URL）。当用户要求“发布”、“分享”、“生成链接”或“上线”某个生成的页面/文档时使用此技能。", "downloads": 28, "homepage": "https://clawhub.ai/user_9bd431f0/shareone", "iconUrl": null, "installs": 0, "name": "shareone", "ownerName": "user_9bd431f0", "score": 100000, "slug": "shareone", "source": "community", "stars": 0, "tags": null, "updated_at": 1776698404664, "version": "1.0.2"}, {"category": "", "created_at": 1774914753638, "description": "Generate a complete HTML tutorial that explains one or more problems with clear reasoning and embedded SVG or Canvas visuals. Use this skill whenever the use...", "description_zh": "生成完整的HTML教程，清晰阐述一个或多个问题，并嵌入SVG或Canvas图形。在需要时使用此技能...", "downloads": 28, "homepage": "https://clawhub.ai/vaintwyt/question-explanation", "iconUrl": null, "installs": 0, "name": "Question Explanation", "ownerName": "vaintwyt", "score": 100000, "slug": "question-explanation", "source": "clawhub", "stars": 0, "tags": null, "updated_at": 1776698404660, "version": "0.1.1"}, {"category": "", "created_at": 1774876284253, "description": "水滴筹众筹助手，中国最大医疗众筹平台。支持两大功能： (1) 爱心捐款——实时获取真实审核筹款项目，展示项目详情和一键捐款链接； (2) 发起筹款——在用户明确同意后，收集手机号提交给水滴筹官方顾问回访。 **捐款场景触发词**：我想捐款、我要献爱心、帮助有需要的人、做慈善、公益捐款、帮助生病的孩子/老人、有没有...", "description_zh": "水滴筹众筹助手，中国最大医疗众筹平台。支持两大功能： (1) 爱心捐款——实时获取真实审核筹款项目，展示项目详情和一键捐款链接； (2) 发起筹款——在用户明确同意后，收集手机号提交给水滴筹官方顾问回访。 **捐款场景触发词**：我想捐款、我要献爱心、帮助有需要的人、做慈善、公益捐款、帮助生病的孩子/老人、有没有...", "downloads": 28, "homepage": "https://clawhub.ai/jiwenbing/shuidichou", "iconUrl": null, "installs": 2, "name": "水滴筹众筹助手", "ownerName": "jiwenbing", "score": 100000, "slug": "shuidichou", "source": "clawhub", "stars": 0, "tags": null, "updated_at": 1776698404659, "version": "2.1.1"}, {"category": "", "created_at": 1774902593940, "description": "Sure Finance API skill. Use when the user wants personal finance insights, account and transaction operations, tags/categories management, imports, or chat w...", "description_zh": "Sure Finance API技能。用于用户需要个人财务洞察、账户和交易操作、标签/分类管理、导入或聊天等场景。", "downloads": 28, "homepage": "https://clawhub.ai/secondport/sure-finance-skill", "iconUrl": null, "installs": 0, "name": "sure-finance-skill", "ownerName": "secondport", "score": 100000, "slug": "sure-finance-skill", "source": "clawhub", "stars": 0, "tags": null, "updated_at": 1776698404657, "version": "0.0.7"}, {"category": "", "created_at": 1774895464406, "description": "Calculate economic value added and shareholder return. Use for investment analysis, valuation, and capital allocation decisions.", "description_zh": "{\"answer\":\"计算经济增加值与股东回报。用于投资分析、估值及资本配置决策。\"}", "downloads": 28, "homepage": "https://clawhub.ai/linuszz/shareholder-value", "iconUrl": null, "installs": 1, "name": "Shareholder Value", "ownerName": "linuszz", "score": 100000, "slug": "shareholder-value", "source": "clawhub", "stars": 0, "tags": null, "updated_at": 1776698404651, "version": "1.0.0"}, {"category": "", "created_at": 1774917520349, "description": "Launch verification and watchdog discipline for delegated, backgrounded, browser-driven, and long-running tasks. Prevents false \"running\" claims, clarifies f...", "description_zh": "对委托、后台、浏览器驱动和长时任务进行启动验证与看门狗管理，防止误报运行状态并阐明功能状态。", "downloads": 28, "homepage": "https://clawhub.ai/mike-alford/subagent-sheepdog", "iconUrl": null, "installs": 0, "name": "Subagent Sheepdog", "ownerName": "mike-alford", "score": 100000, "slug": "subagent-sheepdog", "source": "clawhub", "stars": 0, "tags": null, "updated_at": 1776698404641, "version": "1.0.1"}, {"category": "", "created_at": 1774856325240, "description": "RiskAdvisor integration. Manage Organizations, Leads, Pipelines, Users, Goals, Filters. Use when the user wants to interact with RiskAdvisor data.", "description_zh": "RiskAdvisor集成。管理组织、线索、管道、用户、目标和筛选器。当用户需要与RiskAdvisor数据交互时使用。", "downloads": 28, "homepage": "https://clawhub.ai/gora050/riskadvisor", "iconUrl": null, "installs": 0, "name": "Riskadvisor", "ownerName": "gora050", "score": 100000, "slug": "riskadvisor", "source": "clawhub", "stars": 0, "tags": null, "updated_at": 1776698404639, "version": "1.0.0"}, {"category": "", "created_at": 1774863452044, "description": "Organize project, agent, or user memory using an A-MEM-style workflow with structured notes, semantic tags, contextual summaries, explicit links, and lightwe...", "description_zh": "使用A-MEM风格工作流管理项目、代理或用户记忆，包含结构化笔记、语义标签、上下文摘要、显式链接及轻量级索引。", "downloads": 28, "homepage": "https://clawhub.ai/xiaocaijic/a-mem-memory-organization", "iconUrl": null, "installs": 0, "name": "a-mem-memory-organization", "ownerName": "xiaocaijic", "score": 100000, "slug": "a-mem-memory-organization", "source": "clawhub", "stars": 0, "tags": null, "updated_at": 1776698384667, "version": "1.0.0"}, {"category": "", "created_at": 1774844983391, "description": "AI medical consultation assistant that helps users understand symptoms, conditions, medications, lab results, and treatment options. Provides evidence-based...", "description_zh": "AI医学咨询助手，帮助用户了解症状、疾病、药物、实验室检查结果及治疗方案，提供基于证据的...", "downloads": 28, "homepage": "https://clawhub.ai/jiwenbing/ai-doctor", "iconUrl": null, "installs": 0, "name": "Ai Doctor", "ownerName": "jiwenbing", "score": 100000, "slug": "ai-doctor", "source": "clawhub", "stars": 0, "tags": null, "updated_at": 1776698384663, "version": "1.0.0"}, {"category": "", "created_at": 1775204698472, "description": "", "description_zh": "Customizes safety zones, identifies babies crawling out or approaching dangerous areas such as bedsides/windowsills, and immediately alerts to protect baby safety. | 虚拟围栏越界预警技能，自定义安全区域，识别婴儿爬出、靠近床边/窗台危险区域立即报警，守护宝宝安全", "downloads": 28, "homepage": "https://clawhub.ai/user_bb47e3e3/virtual-fence-intrusion-warning-analysis", "iconUrl": null, "installs": 1, "name": "Virtual Fence Crossing Alert Skill | 虚拟围栏越界预警技能", "ownerName": "user_bb47e3e3", "score": 100000, "slug": "virtual-fence-intrusion-warning-analysis", "source": "community", "stars": 0, "tags": null, "updated_at": 1776698384655, "version": "1.0.0"}, {"category": "", "created_at": 1774948835617, "description": "Information assistant for Qualcomm. Search products, news, financials, and official resources for Qualcomm.", "description_zh": "高通信息助手。搜索高通的产品、新闻、财务和官方资源。", "downloads": 28, "homepage": "https://clawhub.ai/hanxueyuan/qualcomm", "iconUrl": null, "installs": 0, "name": "qualcomm", "ownerName": "hanxueyuan", "score": 100000, "slug": "qualcomm", "source": "clawhub", "stars": 0, "tags": null, "updated_at": 1776698384652, "version": "0.1.0"}, {"category": "", "created_at": 1774912531868, "description": "面向安多多平台 OpenClaw API 的数据分析与查数技能。只要用户提到安多多、OpenClaw、云资产风险、风险聚合、风险资产盘点、整体风险情况、高风险分布、规则下钻、合规摘要、合规报告、生成查数报告、或希望基于该平台接口做数据分析与 HTML 报告，就应优先使用本技能。尤其当任务属于概览性风险查询（例如\"...", "description_zh": "面向安多多平台 OpenClaw API 的数据分析与查数技能。只要用户提到安多多、OpenClaw、云资产风险、风险聚合、风险资产盘点、整体风险情况、高风险分布、规则下钻、合规摘要、合规报告、生成查数报告、或希望基于该平台接口做数据分析与 HTML 报告，就应优先使用本技能。尤其当任务属于概览性风险查询（例如\"...", "downloads": 28, "homepage": "https://clawhub.ai/anduoduo/anduoduo-openclaw-skill", "iconUrl": null, "installs": 0, "name": "anduoduo-openclaw-skill", "ownerName": "anduoduo", "score": 100000, "slug": "anduoduo-openclaw-skill", "source": "clawhub", "stars": 0, "tags": null, "updated_at": 1776698384650, "version": "1.1.1"}, {"category": "", "created_at": 1774899270706, "description": "Automatically search for low-competition GitHub bounty tasks (comments < 5) and generate a clean report with details and estimated difficulty.", "description_zh": "{\"answer\":\"自动搜寻低竞争（评论少于5条）GitHub赏金任务，并生成包含详情和预估难度的简洁报告。\"}", "downloads": 28, "homepage": "https://clawhub.ai/santosparra651-arch/algora-bounty-assistant", "iconUrl": null, "installs": 1, "name": "Algora Bounty Assistan", "ownerName": "santosparra651-arch", "score": 100000, "slug": "algora-bounty-assistant", "source": "clawhub", "stars": 0, "tags": null, "updated_at": 1776698384648, "version": "1.0.0"}, {"category": "", "created_at": 1774917202997, "description": "Deep rate limiting workflow—identifying actors and resources, choosing algorithms, distributed vs local limits, client UX (headers, retries), and abuse detec...", "description_zh": "深度限流工作流——识别行为主体与资源、选择算法、分布式与本地限流、客户端体验（头部、重试）以及滥用检测。", "downloads": 28, "homepage": "https://clawhub.ai/codekungfu/rate-limiting", "iconUrl": null, "installs": 0, "name": "Rate Limiting", "ownerName": "codekungfu", "score": 100000, "slug": "rate-limiting", "source": "clawhub", "stars": 0, "tags": null, "updated_at": 1776698384646, "version": "1.0.0"}, {"category": "", "created_at": 1774897075307, "description": "Sorting algorithm and system reference — comparison sorts, distribution sorts, parallel sorting, and industrial sortation. Use when choosing sorting strategi...", "description_zh": "排序算法与系统参考——比较排序、分配排序、并行排序、工业分拣。用于选择排序策略时。", "downloads": 28, "homepage": "https://clawhub.ai/ckchzh/sorter", "iconUrl": null, "installs": 0, "name": "Sorter", "ownerName": "ckchzh", "score": 100000, "slug": "sorter", "source": "clawhub", "stars": 0, "tags": null, "updated_at": 1776698384643, "version": "1.0.0"}, {"category": "", "created_at": 1774903646707, "description": "Rockflow 首届「龙虾交易大赛」模拟盘参赛指南：人类端主会场 https://rockalpha.rockflow.ai/arena/r1 获取 API Key；通过 HTTP 网关 REST (/bot/api/http_gateway/v1) 与 X-API-Key，供 OpenClaw、各类 Claw...", "description_zh": "Rockflow 首届「龙虾交易大赛」模拟盘参赛指南：人类端主会场 https://rockalpha.rockflow.ai/arena/r1 获取 API Key；通过 HTTP 网关 REST (/bot/api/http_gateway/v1) 与 X-API-Key，供 OpenClaw、各类 Claw...", "downloads": 28, "homepage": "https://clawhub.ai/treepudding/rockalpha-arena", "iconUrl": null, "installs": 2, "name": "rockalpha-arena", "ownerName": "treepudding", "score": 100000, "slug": "rockalpha-arena", "source": "clawhub", "stars": 0, "tags": null, "updated_at": 1776698384637, "version": "1.0.1"}, {"category": "", "created_at": 1774892208874, "description": "Upload Video Converter for creators, ecommerce teams, and operators. Use when you need help with video conversion for compatibility and uploads.", "description_zh": "面向创作者、电商团队和运营人员的视频转换工具，用于视频格式转换和上传兼容性处理。", "downloads": 28, "homepage": "https://clawhub.ai/leooooooow/upload-video-converter", "iconUrl": null, "installs": 0, "name": "Upload Video Converter", "ownerName": "leooooooow", "score": 100000, "slug": "upload-video-converter", "source": "clawhub", "stars": 0, "tags": null, "updated_at": 1776698384631, "version": "1.0.0"}, {"category": "", "created_at": 1774856560429, "description": "Declare your agent in the first public census of self-declared AI agents. Complete the fields below and submit — your record joins the permanent public archive.", "description_zh": "在首次自宣AI智能体公开普查中登记您的智能体。填写并提交以下字段，您的记录将载入永久公共档案。", "downloads": 28, "homepage": "https://clawhub.ai/all8ymyself/agent-census", "iconUrl": null, "installs": 0, "name": "Agent Census", "ownerName": "all8ymyself", "score": 100000, "slug": "agent-census", "source": "clawhub", "stars": 0, "tags": null, "updated_at": 1776698384630, "version": "2.0.0"}, {"category": "", "created_at": 1774955489231, "description": "Physical presence and delivery skills for public speaking and presentations. Use when someone needs to present at work, speak at an event, lead a meeting, or...", "description_zh": "公众演讲与展示的体态风范及表达技巧。适用于职场汇报、活动发言、主持会议等场景。", "downloads": 28, "homepage": "https://clawhub.ai/howtousehumans/public-speaking-embodied", "iconUrl": null, "installs": 0, "name": "Public Speaking Embodied", "ownerName": "howtousehumans", "score": 100000, "slug": "public-speaking-embodied", "source": "clawhub", "stars": 0, "tags": null, "updated_at": 1776698384624, "version": "1.0.0"}, {"category": "", "created_at": 1774951241650, "description": "Formaliza dominios de datos y APIs con teoria de categorias. Usar para disenar DDL SQL, JSON Schema, OpenAPI, GraphQL, Prisma, integracion multi-esquema, est...", "description_zh": "使用范畴论形式化数据与 API 领域，用于设计 DDL SQL、JSON Schema、OpenAPI、GraphQL、Prisma，跨模式集成等。", "downloads": 28, "homepage": "https://clawhub.ai/felix-antonio-sl/fxsl-arquitecto-categorico", "iconUrl": null, "installs": 0, "name": "Arquitecto Categorico", "ownerName": "felix-antonio-sl", "score": 100000, "slug": "fxsl-arquitecto-categorico", "source": "clawhub", "stars": 0, "tags": null, "updated_at": 1776698384623, "version": "1.0.0"}, {"category": "", "created_at": 1774924132601, "description": "Been ghosted? This AI helps you understand why someone stopped replying and what to do next. Analyzes your conversation to identify where things went wrong,...", "description_zh": "被已读不回？这款AI帮你分析对方为何不再回复以及如何应对。分析聊天记录，找出哪里出了问题，...", "downloads": 28, "homepage": "https://clawhub.ai/imwyvern/ghosted", "iconUrl": null, "installs": 0, "name": "Ghosted Skill", "ownerName": "imwyvern", "score": 100000, "slug": "ghosted", "source": "clawhub", "stars": 0, "tags": null, "updated_at": 1776698384621, "version": "1.0.0"}, {"category": "", "created_at": 1774955270272, "description": "Conduct exhaustive multi-source investigation with methodology tracking, source evaluation, and iterative depth.", "description_zh": "开展详尽多源调查，涵盖方法追踪、来源评估与迭代深度。", "downloads": 28, "homepage": "https://clawhub.ai/nickolaslab/in-depth-research-1-0-0", "iconUrl": null, "installs": 1, "name": "In Depth Research 1.0.0", "ownerName": "nickolaslab", "score": 100000, "slug": "in-depth-research-1-0-0", "source": "clawhub", "stars": 0, "tags": null, "updated_at": 1776698384619, "version": "1.0.0"}, {"category": "", "created_at": 1774879349288, "description": "提供双十一/618等大促多重优惠叠加计算器及最优凑单方案。", "description_zh": "提供双十一/618等大促多重优惠叠加计算器及最优凑单方案。", "downloads": 28, "homepage": "https://clawhub.ai/codenova58/stacking", "iconUrl": null, "installs": 0, "name": "Stacking", "ownerName": "codenova58", "score": 100000, "slug": "stacking", "source": "clawhub", "stars": 0, "tags": null, "updated_at": 1776698384617, "version": "0.1.0"}, {"category": "", "created_at": 1775887304298, "description": "", "description_zh": "Comprehensive PDF manipulation toolkit for extracting text and tables, creating new PDFs, merging/splitting documents, and handling forms. When Claude needs to fill in a PDF form or programmatically process, generate, or analyze PDF documents at scale.", "downloads": 28, "homepage": "https://clawhub.ai/user_3b701cc1/pdf-hyl", "iconUrl": null, "installs": 4, "name": "pdf-hyl", "ownerName": "user_3b701cc1", "score": 100000, "slug": "pdf-hyl", "source": "community", "stars": 0, "tags": null, "updated_at": 1776698384616, "version": "1.0.0"}, {"category": "", "created_at": 1774880792690, "description": "S2-SP-OS Vision Cast. Features a universal Protocol Sniffer (AirPlay/Chromecast/DLNA) for native casting, backed by our secure S2 ephemeral push fallback. /...", "description_zh": "S2-SP-OS Vision Cast。内置通用协议嗅探器（AirPlay/Chromecast/DLNA）支持原生投屏，并由安全的S2瞬时推送作为备用方案。", "downloads": 28, "homepage": "https://clawhub.ai/spacesq/s2-vision-projection", "iconUrl": null, "installs": 1, "name": "S2-SP-OS Vision Cast", "ownerName": "spacesq", "score": 100000, "slug": "s2-vision-projection", "source": "clawhub", "stars": 0, "tags": null, "updated_at": 1776698384614, "version": "1.1.0"}, {"category": "", "created_at": 1774887073241, "description": "抓取BBC News并生成Daily English News PDF，包含完整文章、全文翻译和80个词汇", "description_zh": "抓取BBC News并生成Daily English News PDF，包含完整文章、全文翻译和80个词汇", "downloads": 28, "homepage": "https://clawhub.ai/effeceee/ket-news-fetcher", "iconUrl": null, "installs": 0, "name": "Ket News Fetcher", "ownerName": "effeceee", "score": 100000, "slug": "ket-news-fetcher", "source": "clawhub", "stars": 0, "tags": null, "updated_at": 1776698384612, "version": "6.8.0"}, {"category": "", "created_at": 1774884554250, "description": "Mediatoolkit integration. Manage Alerts, Users, Dashboards, Reports. Use when the user wants to interact with Mediatoolkit data.", "description_zh": "Mediatoolkit集成。管理警报、用户、仪表板和报告。用于用户需要与Mediatoolkit数据交互的场景。", "downloads": 28, "homepage": "https://clawhub.ai/gora050/mediatoolkit", "iconUrl": null, "installs": 1, "name": "Mediatoolkit", "ownerName": "gora050", "score": 100000, "slug": "mediatoolkit", "source": "clawhub", "stars": 0, "tags": null, "updated_at": 1776698384611, "version": "1.0.0"}, {"category": "", "created_at": 1774886991179, "description": "IDX Broker integration. Manage Leads, Users, Roles. Use when the user wants to interact with IDX Broker data.", "description_zh": "IDX Broker集成。管理潜在客户、用户和角色。用于与IDX Broker数据交互。", "downloads": 28, "homepage": "https://clawhub.ai/gora050/idx-broker", "iconUrl": null, "installs": 0, "name": "Idx Broker", "ownerName": "gora050", "score": 100000, "slug": "idx-broker", "source": "clawhub", "stars": 0, "tags": null, "updated_at": 1776698384609, "version": "1.0.0"}, {"category": "", "created_at": 1774918573748, "description": "Payback reference tool. Use when working with payback in finance contexts.", "description_zh": "投资回收期参考工具，适用于财务场景中的回收期计算与分析。", "downloads": 28, "homepage": "https://clawhub.ai/bytesagain1/payback", "iconUrl": null, "installs": 0, "name": "Payback", "ownerName": "bytesagain1", "score": 100000, "slug": "payback", "source": "clawhub", "stars": 0, "tags": null, "updated_at": 1776698384604, "version": "1.0.0"}, {"category": "", "created_at": 1774916594023, "description": "Feel awe and subtle tension while exploring hidden vertical gardens that blend technology and nature in Dubai’s skyline. The descent guides you through shado...", "description_zh": "在探索迪拜天际线中融合科技与自然的隐藏垂直花园时，感受敬畏与微妙的紧张感。下降过程中引导你穿越阴影...", "downloads": 28, "homepage": "https://clawhub.ai/driftsbot/experience-glass-tower-descent", "iconUrl": null, "installs": 0, "name": "Experience Glass Tower Descent", "ownerName": "driftsbot", "score": 100000, "slug": "experience-glass-tower-descent", "source": "clawhub", "stars": 0, "tags": null, "updated_at": 1776698384602, "version": "1.0.0"}, {"category": "", "created_at": 1775632399656, "description": "", "description_zh": "通过 TorchV AIS 知识库远端与用户协作使用这个技能，可进行的操作包括阅读结构、搜索和读取文档、创建文档或目录、修改文档、发布或返回可跳转的文档链接时。需要利用脚本将 `kb ...` 命令发送到远端 AIS 执行。", "downloads": 28, "homepage": "https://clawhub.ai/user_d8529983/ais-skill", "iconUrl": null, "installs": 0, "name": "ais-skill", "ownerName": "user_d8529983", "score": 100000, "slug": "ais-skill", "source": "community", "stars": 0, "tags": null, "updated_at": 1776698384600, "version": "1.0.1"}, {"category": "", "created_at": 1774955339610, "description": "Mapulus integration. Manage Organizations. Use when the user wants to interact with Mapulus data.", "description_zh": "Mapulus集成。组织管理。用于用户与Mapulus数据交互。", "downloads": 28, "homepage": "https://clawhub.ai/gora050/mapulus", "iconUrl": null, "installs": 0, "name": "Mapulus", "ownerName": "gora050", "score": 100000, "slug": "mapulus", "source": "clawhub", "stars": 0, "tags": null, "updated_at": 1776698384594, "version": "1.0.0"}]}