{"page": 628, "total_pages": 685, "total": 34217, "skills": [{"category": "", "created_at": 1774905722890, "description": "OpenNotebook 知识管理平台客户端。支持笔记本、源文件、笔记、AI搜索、转换管道等操作。首次使用请配置 OPENNOTEBOOK_BASE_URL 和 OPENNOTEBOOK_API_KEY。", "description_zh": "OpenNotebook 知识管理平台客户端。支持笔记本、源文件、笔记、AI搜索、转换管道等操作。首次使用请配置 OPENNOTEBOOK_BASE_URL 和 OPENNOTEBOOK_API_KEY。", "downloads": 28, "homepage": "https://clawhub.ai/iazrael/opennotebook", "iconUrl": null, "installs": 1, "name": "OpenNotebook", "ownerName": "iazrael", "score": 100000, "slug": "opennotebook", "source": "clawhub", "stars": 0, "tags": null, "updated_at": 1776698384589, "version": "1.0.0"}, {"category": "", "created_at": 1774907009438, "description": "Help users identify stress sources, sort controllable vs uncontrollable pressure, and choose practical daily coping strategies. Use when the user says they f...", "description_zh": "帮助用户识别压力来源，区分可控与不可控压力，并选择切实可行的日常应对策略。当用户表示感到压力时使用。", "downloads": 28, "homepage": "https://clawhub.ai/harrylabsj/stress-manager", "iconUrl": null, "installs": 0, "name": "Stress Manager", "ownerName": "harrylabsj", "score": 100000, "slug": "stress-manager", "source": "clawhub", "stars": 0, "tags": null, "updated_at": 1776698384587, "version": "1.0.0"}, {"category": "", "created_at": 1774907728545, "description": "Jensen reference tool. Use when working with jensen in finance contexts.", "description_zh": "Jensen 参考工具，适用于金融场景。", "downloads": 28, "homepage": "https://clawhub.ai/ckchzh/jensen", "iconUrl": null, "installs": 0, "name": "Jensen", "ownerName": "ckchzh", "score": 100000, "slug": "jensen", "source": "clawhub", "stars": 0, "tags": null, "updated_at": 1776698384579, "version": "1.0.0"}, {"category": "", "created_at": 1774911538812, "description": "Information assistant for 中国银行 BOC. Search products, news, financials, and official resources for 中国银行 BOC.", "description_zh": "Information assistant for 中国银行 BOC. Search products, news, financials, and official resources for 中国银行 BOC.", "downloads": 28, "homepage": "https://clawhub.ai/hanxueyuan/boc", "iconUrl": null, "installs": 0, "name": "boc", "ownerName": "hanxueyuan", "score": 100000, "slug": "boc", "source": "clawhub", "stars": 0, "tags": null, "updated_at": 1776698384575, "version": "0.1.0"}, {"category": "", "created_at": 1774904469961, "description": "Marketplacer integration. Manage Marketplaces. Use when the user wants to interact with Marketplacer data.", "description_zh": "Marketplacer 集成。管理市场平台。用于用户需要与 Marketplacer 数据交互的场景。", "downloads": 28, "homepage": "https://clawhub.ai/gora050/marketplacer", "iconUrl": null, "installs": 0, "name": "Marketplacer", "ownerName": "gora050", "score": 100000, "slug": "marketplacer", "source": "clawhub", "stars": 0, "tags": null, "updated_at": 1776698384574, "version": "1.0.0"}, {"category": "", "created_at": 1774915432778, "description": "Google Merchant Center integration. Manage Accounts. Use when the user wants to interact with Google Merchant Center data.", "description_zh": "Google Merchant Center整合与账户管理，用于处理Google Merchant Center数据。", "downloads": 28, "homepage": "https://clawhub.ai/membranedev/google-merchant-center", "iconUrl": null, "installs": 0, "name": "Google Merchant Center", "ownerName": "membranedev", "score": 100000, "slug": "google-merchant-center", "source": "clawhub", "stars": 0, "tags": null, "updated_at": 1776698384572, "version": "1.0.0"}, {"category": "", "created_at": 1774952085581, "description": "Experience the uncanny tension of Holi as vibrant pigments vanish, revealing hidden shadows that stalk the ancient streets. You’ll wander through secret alle...", "description_zh": "感受霍利节诡异的紧张氛围——鲜艳的颜料褪去，露出潜伏在古老街道上的阴影。你将漫步于隐秘的巷道...", "downloads": 28, "homepage": "https://clawhub.ai/driftsbot/experience-holi-shadows-vrindavan", "iconUrl": null, "installs": 0, "name": "Experience Holi Shadows Vrindavan", "ownerName": "driftsbot", "score": 100000, "slug": "experience-holi-shadows-vrindavan", "source": "clawhub", "stars": 0, "tags": null, "updated_at": 1776698384570, "version": "1.0.0"}, {"category": "", "created_at": 1774859137147, "description": "比较 dev/staging/prod 配置差异，并把技术差异翻译成业务风险。；use for env, config, diff workflows；do not use for 输出敏感密钥值, 直接覆盖配置.", "description_zh": "比较 dev/staging/prod 配置差异，并把技术差异翻译成业务风险。；use for env, config, diff workflows；do not use for 输出敏感密钥值, 直接覆盖配置.", "downloads": 28, "homepage": "https://clawhub.ai/52yuanchangxing/env-diff-explainer", "iconUrl": null, "installs": 0, "name": "Env Diff Explainer", "ownerName": "52yuanchangxing", "score": 100000, "slug": "env-diff-explainer", "source": "clawhub", "stars": 0, "tags": null, "updated_at": 1776698384569, "version": "1.0.0"}, {"category": "", "created_at": 1774924173682, "description": "INTJ personality efficiency boost skill. Use when user expresses personality analysis needs, idea structuring, task breakdown, learning plans, process buildi...", "description_zh": "INTJ人格效率提升技能，用于人格分析、构思整理、任务分解、学习计划和流程构建等场景。", "downloads": 28, "homepage": "https://clawhub.ai/hangchuan555-bot/intj-efficiency-boost", "iconUrl": null, "installs": 0, "name": "INTJ效率增效", "ownerName": "hangchuan555-bot", "score": 100000, "slug": "intj-efficiency-boost", "source": "clawhub", "stars": 0, "tags": null, "updated_at": 1776698384567, "version": "1.0.0"}, {"category": "", "created_at": 1774808877724, "description": "Xueersi English Grammar Checker: Paste any English sentence or paragraph to get errors highlighted, corrected, and explained with grammar rules. Perfect for...", "description_zh": "学而思英语语法检查器：粘贴任意英语句子或段落，即可高亮错误、获取修正建议及语法规则解析。非常适合……", "downloads": 28, "homepage": "https://clawhub.ai/zhouzhi-tal/xueersi-english-grammar-check", "iconUrl": null, "installs": 0, "name": "Xueersi English Grammar Checker", "ownerName": "zhouzhi-tal", "score": 100000, "slug": "xueersi-english-grammar-check", "source": "clawhub", "stars": 0, "tags": ["chinese", "education", "k12", "xueersi"], "updated_at": 1776698384565, "version": "1.0.1"}, {"category": "", "created_at": 1774866632964, "description": "Interrupt a running agent task and rollback its session to the state before the last triggering user message. Use when an agent is stuck, running the wrong t...", "description_zh": "中断正在运行的智能体任务，并将其会话回滚至触发上一条用户消息前的状态。适用于智能体卡顿、执行错误任务等情况。", "downloads": 28, "homepage": "https://clawhub.ai/dorianyoung7702/claw-mission-killer", "iconUrl": null, "installs": 1, "name": "Claw Mission Killer", "ownerName": "dorianyoung7702", "score": 100000, "slug": "claw-mission-killer", "source": "clawhub", "stars": 0, "tags": null, "updated_at": 1776698384563, "version": "0.1.0"}, {"category": "", "created_at": 1774895756578, "description": "世纪智慧论坛自动化技能。支持自动注册、浏览帖子、发布新帖、回复帖子。 论坛地址: http://8.134.249.230/wisdom/", "description_zh": "世纪智慧论坛自动化技能。支持自动注册、浏览帖子、发布新帖、回复帖子。 论坛地址: http://8.134.249.230/wisdom/", "downloads": 28, "homepage": "https://clawhub.ai/aowind/wisdom-forum-skill", "iconUrl": null, "installs": 2, "name": "wisdom-forum-skill", "ownerName": "aowind", "score": 100000, "slug": "wisdom-forum-skill", "source": "clawhub", "stars": 0, "tags": null, "updated_at": 1776698384562, "version": "1.0.0"}, {"category": "", "created_at": 1774892821074, "description": "Connect to the EvoMap collaborative evolution marketplace. Publish Gene+Capsule bundles, fetch promoted assets, claim bounty tasks, register as a worker, cre...", "description_zh": "连接到EvoMap协作进化市场。发布Gene+Capsule捆绑包、获取推广资产、领取赏金任务、注册为工作者、创建...", "downloads": 28, "homepage": "https://clawhub.ai/mingzzz918/evomap-a2a", "iconUrl": null, "installs": 1, "name": "EvoMap A2A Protocol", "ownerName": "mingzzz918", "score": 100000, "slug": "evomap-a2a", "source": "clawhub", "stars": 0, "tags": null, "updated_at": 1776698384556, "version": "1.0.0"}, {"category": "", "created_at": 1774916352866, "description": "Belief systems auditor for OpenClaw agents. Systematically evaluates an agent's loaded context files (SOUL.md, AGENTS.md, USER.md, skills) against the user's...", "description_zh": "OpenClaw代理信念系统审计器。系统评估代理加载的上下文文件（SOUL.md、AGENTS.md、USER.md、技能）是否符合用户需求。", "downloads": 28, "homepage": "https://clawhub.ai/mcroebuck/clawdit", "iconUrl": null, "installs": 0, "name": "Clawdit", "ownerName": "mcroebuck", "score": 100000, "slug": "clawdit", "source": "clawhub", "stars": 0, "tags": null, "updated_at": 1776698384555, "version": "1.1.0"}, {"category": "", "created_at": 1774919692938, "description": "Deputy integration. Manage Employees, Locations, LeaveRequests, Timesheets, PayRates. Use when the user wants to interact with Deputy data.", "description_zh": "Deputy 集成。管理员工、地点、请假请求、工时表、薪资费率。用于用户需要与 Deputy 数据交互时。", "downloads": 28, "homepage": "https://clawhub.ai/membranedev/deputy", "iconUrl": null, "installs": 0, "name": "Deputy", "ownerName": "membranedev", "score": 100000, "slug": "deputy", "source": "clawhub", "stars": 0, "tags": null, "updated_at": 1776698384545, "version": "1.0.0"}, {"category": "", "created_at": 1774856859000, "description": "Use Crypto.com MCP through UXC for exchange market data workflows with help-first discovery and read-only guardrails.", "description_zh": "通过UXC使用Crypto.com MCP进行交易所市场数据工作流，采用先帮助发现和只读防护机制。", "downloads": 28, "homepage": "https://clawhub.ai/jolestar/crypto-com-mcp-skill", "iconUrl": null, "installs": 0, "name": "Crypto.com MCP Skill", "ownerName": "jolestar", "score": 100000, "slug": "crypto-com-mcp-skill", "source": "clawhub", "stars": 0, "tags": null, "updated_at": 1776698384541, "version": "1.0.0"}, {"category": "", "created_at": 1774951319260, "description": "Linkly integration. Manage Organizations, Users. Use when the user wants to interact with Linkly data.", "description_zh": "Linkly 集成。管理组织和用户。用于与 Linkly 数据交互。", "downloads": 28, "homepage": "https://clawhub.ai/membranedev/linkly", "iconUrl": null, "installs": 0, "name": "Linkly", "ownerName": "membranedev", "score": 100000, "slug": "linkly", "source": "clawhub", "stars": 0, "tags": null, "updated_at": 1776698384536, "version": "1.0.0"}, {"category": "", "created_at": 1774881588655, "description": "Free AI search via Exa MCP. Web search for news/info, code search for docs/examples from GitHub/StackOverflow, company research for business intel. No API ke...", "description_zh": "通过 Exa MCP 免费 AI 搜索。用于新闻/信息的网页搜索、GitHub/StackOverflow 文档/示例的代码搜索、以及公司情报的企业研究。无需 API 密钥。", "downloads": 28, "homepage": "https://clawhub.ai/15914355527/exa-web-search-v2", "iconUrl": null, "installs": 2, "name": "Exa Web Search V2", "ownerName": "15914355527", "score": 100000, "slug": "exa-web-search-v2", "source": "clawhub", "stars": 0, "tags": null, "updated_at": 1776698384531, "version": "1.0.0"}, {"category": "", "created_at": 1774900644015, "description": "BigMailer integration. Manage data, records, and automate workflows. Use when the user wants to interact with BigMailer data.", "description_zh": "# BigMailer 集成\n\n管理数据、记录和自动化工作流。用户需要与 BigMailer 数据交互时使用。", "downloads": 28, "homepage": "https://clawhub.ai/gora050/bigmailer", "iconUrl": null, "installs": 0, "name": "Bigmailer", "ownerName": "gora050", "score": 100000, "slug": "bigmailer", "source": "clawhub", "stars": 0, "tags": null, "updated_at": 1776698384530, "version": "1.0.0"}, {"category": "", "created_at": 1774954853772, "description": "Kickbox integration. Manage data, records, and automate workflows. Use when the user wants to interact with Kickbox data.", "description_zh": "Kickbox集成。管理数据、记录并自动化工作流。用于与Kickbox数据进行交互。", "downloads": 28, "homepage": "https://clawhub.ai/membranedev/kickbox", "iconUrl": null, "installs": 0, "name": "Kickbox", "ownerName": "membranedev", "score": 100000, "slug": "kickbox", "source": "clawhub", "stars": 0, "tags": null, "updated_at": 1776698384526, "version": "1.0.0"}, {"category": "", "created_at": 1774884357182, "description": "Generate, install, and manage Git hooks with pre-built templates. Includes hooks for linting staged files, enforcing conventional commits, blocking debug sta...", "description_zh": "使用预置模板生成、安装和管理 Git 钩子，包含 lint 暂存文件、强制 conventional 提交、阻止调试语句等钩子。", "downloads": 28, "homepage": "https://clawhub.ai/johnnywang2001/git-hooks-toolkit", "iconUrl": null, "installs": 3, "name": "Git Hooks Toolkit", "ownerName": "johnnywang2001", "score": 100000, "slug": "git-hooks-toolkit", "source": "clawhub", "stars": 0, "tags": null, "updated_at": 1776698384524, "version": "1.0.0"}, {"category": "", "created_at": 1774877322939, "description": "imou / Imou / 乐橙 / lechange 设备安防配置技能。支持设备动检计划、动检灵敏度、隐私模式（close camera）开关。 Manages device channel security configuration: motion detection schedule, motion de...", "description_zh": "imou / Imou / 乐橙 / lechange 设备安防配置技能。支持设备动检计划、动检灵敏度、隐私模式（close camera）开关。 Manages device channel security configuration: motion detection schedule, motion de...", "downloads": 28, "homepage": "https://clawhub.ai/imou-openplatform/imou-device-config", "iconUrl": null, "installs": 0, "name": "Imou Open Device Config", "ownerName": "imou-openplatform", "score": 100000, "slug": "imou-device-config", "source": "clawhub", "stars": 0, "tags": null, "updated_at": 1776698384521, "version": "1.0.2"}, {"category": "", "created_at": 1774896805184, "description": "Manages social media through PostSyncer using REST API calls. Use when scheduling, posting, or managing content across Instagram, TikTok, YouTube, X (Twitter...", "description_zh": "通过REST API调用使用PostSyncer管理社交媒体，适用于在Instagram、TikTok、YouTube、X（Twitter）等平台上安排、发布或管理内容。", "downloads": 28, "homepage": "https://clawhub.ai/abdulmejidshemsuawel/postsyncer", "iconUrl": null, "installs": 0, "name": "Social Media Assistant (via postsyncer.com)", "ownerName": "abdulmejidshemsuawel", "score": 100000, "slug": "postsyncer", "source": "clawhub", "stars": 0, "tags": null, "updated_at": 1776698384518, "version": "2.0.0"}, {"category": "", "created_at": 1774956494747, "description": "Monorepo 项目规范，涵盖 pnpm workspace、Turborepo、Nx 的目录结构、依赖管理、任务编排、包发布。当用户提到 monorepo、workspace、多包、pnpm workspace、Turborepo、Nx 时自动激活。", "description_zh": "Monorepo 项目规范，涵盖 pnpm workspace、Turborepo、Nx 的目录结构、依赖管理、任务编排、包发布。当用户提到 monorepo、workspace、多包、pnpm workspace、Turborepo、Nx 时自动激活。", "downloads": 28, "homepage": "https://clawhub.ai/bovinphang/monorepo-project-standard", "iconUrl": null, "installs": 1, "name": "Monorepo Project Standard", "ownerName": "bovinphang", "score": 100000, "slug": "monorepo-project-standard", "source": "clawhub", "stars": 0, "tags": null, "updated_at": 1776698384516, "version": "1.0.0"}, {"category": "", "created_at": 1774954223450, "description": "EasySendy integration. Manage Users, Organizations, Goals, Filters. Use when the user wants to interact with EasySendy data.", "description_zh": "EasySendy 集成。管理用户、组织、目标和过滤器。当用户需要与 EasySendy 数据交互时使用。", "downloads": 28, "homepage": "https://clawhub.ai/gora050/easysendy", "iconUrl": null, "installs": 0, "name": "Easysendy", "ownerName": "gora050", "score": 100000, "slug": "easysendy", "source": "clawhub", "stars": 0, "tags": null, "updated_at": 1776698384514, "version": "1.0.0"}, {"category": "", "created_at": 1774954843977, "description": "Manages workspace backups by creating snapshots and enabling restore points for recovery. Use when backing up workspace or restoring from backup.", "description_zh": "管理工作区备份，创建快照并启用恢复点，以便恢复。用于备份或还原工作区。", "downloads": 28, "homepage": "https://clawhub.ai/jpengcheng523-netizen/jpeng-workspace-backup-manager", "iconUrl": null, "installs": 0, "name": "workspace-backup-manager", "ownerName": "jpengcheng523-netizen", "score": 100000, "slug": "jpeng-workspace-backup-manager", "source": "clawhub", "stars": 0, "tags": null, "updated_at": 1776698384513, "version": "1.0.0"}, {"category": "", "created_at": 1774916486999, "description": "查询物流指数数据", "description_zh": "查询物流指数数据", "downloads": 28, "homepage": "https://clawhub.ai/a-vb/dataquery", "iconUrl": null, "installs": 0, "name": "Data Query", "ownerName": "a-vb", "score": 100000, "slug": "dataquery", "source": "clawhub", "stars": 0, "tags": null, "updated_at": 1776698384508, "version": "1.0.0"}, {"category": "", "created_at": 1774912570392, "description": "Information assistant for 建设银行 CCB. Search products, news, financials, and official resources for 建设银行 CCB.", "description_zh": "Information assistant for 建设银行 CCB. Search products, news, financials, and official resources for 建设银行 CCB.", "downloads": 28, "homepage": "https://clawhub.ai/hanxueyuan/ccb", "iconUrl": null, "installs": 0, "name": "ccb", "ownerName": "hanxueyuan", "score": 100000, "slug": "ccb", "source": "clawhub", "stars": 0, "tags": null, "updated_at": 1776698384503, "version": "0.1.0"}, {"category": "", "created_at": 1774891442284, "description": "指导Jessup模拟法庭中OSCOLA引注格式的使用，包括引注体例选择、数量质量平衡和时间安排。", "description_zh": "指导Jessup模拟法庭中OSCOLA引注格式的使用，包括引注体例选择、数量质量平衡和时间安排。", "downloads": 28, "homepage": "https://clawhub.ai/pepsile/jessup-oscola-citation", "iconUrl": null, "installs": 0, "name": "Jessup OSCOLA引注格式指南", "ownerName": "pepsile", "score": 100000, "slug": "jessup-oscola-citation", "source": "clawhub", "stars": 0, "tags": null, "updated_at": 1776698384500, "version": "1.0.0"}, {"category": "", "created_at": 1774904091861, "description": "BuiltWith integration. Manage data, records, and automate workflows. Use when the user wants to interact with BuiltWith data.", "description_zh": "BuiltWith 集成。管理数据、记录并自动化工作流。当用户需要与 BuiltWith 数据交互时使用。", "downloads": 28, "homepage": "https://clawhub.ai/gora050/builtwith", "iconUrl": null, "installs": 1, "name": "Builtwith", "ownerName": "gora050", "score": 100000, "slug": "builtwith", "source": "clawhub", "stars": 0, "tags": null, "updated_at": 1776698384498, "version": "1.0.0"}, {"category": "", "created_at": 1774847666741, "description": "Resolve Z视介频道直播请求到正确 cid 并打开对应直播页。Use when users ask to watch Z视介直播 or specific channels (例如 浙江卫视、钱江都市、经济生活、教科影视、民生休闲、新闻、少儿频道、浙江国际、好易购、之江纪录), or when users m...", "description_zh": "Resolve Z视介频道直播请求到正确 cid 并打开对应直播页。Use when users ask to watch Z视介直播 or specific channels (例如 浙江卫视、钱江都市、经济生活、教科影视、民生休闲、新闻、少儿频道、浙江国际、好易购、之江纪录), or when users m...", "downloads": 28, "homepage": "https://clawhub.ai/jkbwfi/zshijie-liver", "iconUrl": null, "installs": 1, "name": "Zshijie Liver", "ownerName": "jkbwfi", "score": 100000, "slug": "zshijie-liver", "source": "clawhub", "stars": 0, "tags": null, "updated_at": 1776698384495, "version": "1.0.9"}, {"category": "", "created_at": 1774860861933, "description": "Give your OpenClaw a real email address at @claw.boston. Send and receive emails with attachments, search your inbox, get notified of new messages. Setup tak...", "description_zh": "为您的OpenClaw提供一个@claw.boston的真实电子邮件地址。支持收发带附件的邮件、搜索收件箱及新邮件通知，设置简便快捷。", "downloads": 28, "homepage": "https://clawhub.ai/mastalie/claw-boston-email", "iconUrl": null, "installs": 0, "name": "FREE EMAIL from @claw.boston 一键获取免费原生OpenClaw邮箱", "ownerName": "mastalie", "score": 100000, "slug": "claw-boston-email", "source": "clawhub", "stars": 0, "tags": null, "updated_at": 1776698384491, "version": "0.2.0"}, {"category": "", "created_at": 1775305173219, "description": "", "description_zh": "通过心跳机制自动检测并继续执行用户未完成的对话请求，0 Token检测保障连续性，避免用户重复触发。", "downloads": 28, "homepage": "https://clawhub.ai/user_8509461a/conversation-continuer", "iconUrl": null, "installs": 0, "name": "对话续接器", "ownerName": "user_8509461a", "score": 100000, "slug": "conversation-continuer", "source": "community", "stars": 0, "tags": null, "updated_at": 1776698384488, "version": "1.0.2"}, {"category": "", "created_at": 1774847755338, "description": "面试评估报告。触发场景：用户提供面试记录或面试笔记，要求生成结构化评估报告。", "description_zh": "面试评估报告。触发场景：用户提供面试记录或面试笔记，要求生成结构化评估报告。", "downloads": 28, "homepage": "https://clawhub.ai/51mee-com/51mee-interview-evaluation-report", "iconUrl": null, "installs": 0, "name": "51mee Interview Evaluation Report", "ownerName": "51mee-com", "score": 100000, "slug": "51mee-interview-evaluation-report", "source": "clawhub", "stars": 0, "tags": null, "updated_at": 1776698384482, "version": "1.2.0"}, {"category": "", "created_at": 1774915722483, "description": "全球领先生物制药公司", "description_zh": "全球领先生物制药公司", "downloads": 28, "homepage": "https://clawhub.ai/hanxueyuan/roche", "iconUrl": null, "installs": 1, "name": "roche", "ownerName": "hanxueyuan", "score": 100000, "slug": "roche", "source": "clawhub", "stars": 0, "tags": null, "updated_at": 1776698384480, "version": "0.1.0"}, {"category": "", "created_at": 1774887746504, "description": "将用户提供的 HTML/前端原型整理成一个可复用的网页应用 skill。适用于用户说“把这段 HTML 做成 skill” “把这个网页原型封装成 skill”“生成一个可落地的静态页面 skill”“把图片重设计工具做成 skill”等场景。 该 skill 会把现成前端页面模板落到本地，默认输出为静态 HTM...", "description_zh": "将用户提供的 HTML/前端原型整理成一个可复用的网页应用 skill。适用于用户说“把这段 HTML 做成 skill” “把这个网页原型封装成 skill”“生成一个可落地的静态页面 skill”“把图片重设计工具做成 skill”等场景。 该 skill 会把现成前端页面模板落到本地，默认输出为静态 HTM...", "downloads": 28, "homepage": "https://clawhub.ai/kelcey2023/ai-book-image-redesign", "iconUrl": null, "installs": 1, "name": "AI 书稿图片重设计", "ownerName": "kelcey2023", "score": 100000, "slug": "ai-book-image-redesign", "source": "clawhub", "stars": 0, "tags": null, "updated_at": 1776698384478, "version": "1.0.4"}, {"category": "", "created_at": 1774865161098, "description": "Optimize and rewrite resumes for overseas job applications. Activate when user asks to improve, rewrite, review, or tailor a resume or CV, or mentions 简历/CV/...", "description_zh": "Optimize and rewrite resumes for overseas job applications. Activate when user asks to improve, rewrite, review, or tailor a resume or CV, or mentions 简历/CV/...", "downloads": 28, "homepage": "https://clawhub.ai/xiaoxty/professionally-resume-optimizer", "iconUrl": null, "installs": 0, "name": "Resume Optimizer", "ownerName": "xiaoxty", "score": 100000, "slug": "professionally-resume-optimizer", "source": "clawhub", "stars": 0, "tags": null, "updated_at": 1776698384477, "version": "0.1.0"}, {"category": "", "created_at": 1774886506290, "description": "Use local All Routes APIs, repo-backed handlers, and optional local MCP for airport, airline, route-map, timetable-context, and dataset-health lookups withou...", "description_zh": "使用本地全路由API、仓库支持的处理器及可选本地MCP进行机场、航空公司、航线图、时刻表上下文和数据集健康状况查询", "downloads": 28, "homepage": "https://clawhub.ai/skylinehk/all-routes-offline", "iconUrl": null, "installs": 0, "name": "Global Flight Route Map - Airport Connections", "ownerName": "skylinehk", "score": 100000, "slug": "all-routes-offline", "source": "clawhub", "stars": 0, "tags": ["aviation", "mcp", "offline", "routes", "travel"], "updated_at": 1776698384475, "version": "1.3.22"}, {"category": "", "created_at": 1774883922407, "description": "360°省电大师（サーバッロッサッドウサーンヂンダーイシー）。一键省电、电池健康分析、能耗诊断、电源计划切换。支持电池报告、能耗分析。需省电/电池/功耗优化时使用。", "description_zh": "360°省电大师（サーバッロッサッドウサーンヂンダーイシー）。一键省电、电池健康分析、能耗诊断、电源计划切换。支持电池报告、能耗分析。需省电/电池/功耗优化时使用。", "downloads": 28, "homepage": "https://clawhub.ai/ttqftech/360-power-saver", "iconUrl": null, "installs": 1, "name": "360-power-saver", "ownerName": "ttqftech", "score": 100000, "slug": "360-power-saver", "source": "clawhub", "stars": 0, "tags": ["niubiest"], "updated_at": 1776698384471, "version": "0.0.15-dazhanhongtu"}, {"category": "", "created_at": 1774899324028, "description": "AmoCRM integration. Manage data, records, and automate workflows. Use when the user wants to interact with AmoCRM data.", "description_zh": "AmoCRM集成。管理数据与记录，自动化工作流程。用于与AmoCRM数据交互。", "downloads": 28, "homepage": "https://clawhub.ai/gora050/amocrm", "iconUrl": null, "installs": 0, "name": "Amocrm", "ownerName": "gora050", "score": 100000, "slug": "amocrm", "source": "clawhub", "stars": 0, "tags": null, "updated_at": 1776698384470, "version": "1.0.0"}, {"category": "productivity", "created_at": 1773961830019, "description": "Strategies and frameworks for AI agents to generate revenue. Covers Soul.Markets, ClawHub premium skills, service-based monetization, and passive income mode...", "description_zh": "AI代理创收策略与框架，涵盖Soul.Markets、ClawHub高级技能、服务变现及被动收入模式。", "downloads": 28, "homepage": "https://clawhub.ai/engsathiago/agent-monetization", "iconUrl": null, "installs": 3, "name": "Agent Monetization Strategies", "ownerName": "engsathiago", "score": 100000, "slug": "agent-monetization", "source": "clawhub", "stars": 0, "tags": ["business", "monetization", "passive-income", "revenue", "services"], "updated_at": 1776698384466, "version": "1.0.0"}, {"category": "", "created_at": 1774887549080, "description": "analyze a food image with AISpark TrackUp production APIs, using AnalyzeWholeFood for full analysis and dedicated endpoints for macros, ingredients, health i...", "description_zh": "使用 AISpark TrackUp 生产 API 分析食物图片，使用 AnalyzeWholeFood 进行完整分析，并通过专用端点获取宏量营养素、成分、健康等数据", "downloads": 28, "homepage": "https://clawhub.ai/trackup/trackup-food-analyze", "iconUrl": null, "installs": 0, "name": "trackup food analyze", "ownerName": "trackup", "score": 100000, "slug": "trackup-food-analyze", "source": "clawhub", "stars": 0, "tags": null, "updated_at": 1776698384465, "version": "1.0.4"}, {"category": "", "created_at": 1774913581662, "description": "Use this skill when working with IBM App Connect Enterprise (ACE) 12.0, including message flow development, ESQL scripting, BAR file deployment, integration...", "description_zh": "在 IBM App Connect Enterprise (ACE) 12.0 环境下使用此技能，包括消息流开发、ESQL 脚本编写、BAR 文件部署、集成...", "downloads": 28, "homepage": "https://clawhub.ai/shoaibkhan/ace-copilot", "iconUrl": null, "installs": 0, "name": "ACE Copilot", "ownerName": "shoaibkhan", "score": 100000, "slug": "ace-copilot", "source": "clawhub", "stars": 0, "tags": null, "updated_at": 1776698384460, "version": "1.0.0"}, {"category": "", "created_at": 1774873512286, "description": "Help agents discover and navigate AINative's 89+ API endpoints. Use when (1) Asking \"what endpoints exist?\", (2) Finding the right API for a task, (3) Lookin...", "description_zh": "帮助代理发现并导航 AINative 的 89+ API 端点。使用场景：(1) 询问\"有哪些端点？\"，(2) 为任务寻找合适的API，(3) 查...", "downloads": 28, "homepage": "https://clawhub.ai/urbantech/ainative-api-discovery", "iconUrl": null, "installs": 0, "name": "Ainative Api Discovery", "ownerName": "urbantech", "score": 100000, "slug": "ainative-api-discovery", "source": "clawhub", "stars": 0, "tags": null, "updated_at": 1776698384458, "version": "1.0.0"}, {"category": "", "created_at": 1775744022956, "description": "", "description_zh": "超级厉害的skill", "downloads": 28, "homepage": "https://clawhub.ai/user_8992d388/test-icon-url", "iconUrl": "https://cloudcache.tencent-cloud.com/qcloud/ui/static/other_external_resource/64ea6fd6-ebe7-418c-af4f-2cafff71f2ec.png", "installs": 0, "name": "测试图标", "ownerName": "user_8992d388", "score": 100000, "slug": "test-icon-url", "source": "community", "stars": 0, "tags": null, "updated_at": 1776698384455, "version": "1.0.2"}, {"category": "", "created_at": 1774890754261, "description": "When the user wants to create, optimize, or audit About page content. Also use when the user mentions \"about page,\" \"about us,\" \"company story,\" \"our team,\"...", "description_zh": "{\"description_zh\":\"当用户想要创建、优化或审核\"关于我们\"页面内容时使用。也适用于用户提及以下关键词：about page、about us、company story、our team等。\"}", "downloads": 28, "homepage": "https://clawhub.ai/kostja94/about-page-generator", "iconUrl": null, "installs": 0, "name": "about-page-generator", "ownerName": "kostja94", "score": 100000, "slug": "about-page-generator", "source": "clawhub", "stars": 0, "tags": null, "updated_at": 1776698384452, "version": "1.0.0"}, {"category": "", "created_at": 1774865565523, "description": "Generate blog cover images optimized for 16:9 headers — clean composition with text-friendly layouts, powered by multi-model AI. Use when user wants to \"blog...", "description_zh": "生成专为16:9页头优化的博客封面图——构图简洁、布局利文字，由多模型AI驱动。适用于用户想要“博客……”时。", "downloads": 28, "homepage": "https://clawhub.ai/dophinl/youmind-blog-cover", "iconUrl": null, "installs": 0, "name": "Blog Cover Image Generator", "ownerName": "dophinl", "score": 100000, "slug": "youmind-blog-cover", "source": "clawhub", "stars": 0, "tags": null, "updated_at": 1776698384450, "version": "1.0.0"}, {"category": "", "created_at": 1774885027707, "description": "Twenty CRM API integration with managed authentication. Manage companies, people, opportunities, notes, and tasks. Use this skill when users want to interact...", "description_zh": "Twenty CRM API集成，具有托管身份验证。管理公司、人员、商机、备注和任务。当用户想要交互时使用此技能...", "downloads": 28, "homepage": "https://clawhub.ai/byungkyu/twenty", "iconUrl": null, "installs": 0, "name": "Twenty CRM", "ownerName": "byungkyu", "score": 100000, "slug": "twenty", "source": "clawhub", "stars": 0, "tags": null, "updated_at": 1776698384449, "version": "1.0.0"}, {"category": "", "created_at": 1774886448531, "description": "Assess organizational readiness for AI adoption across 6 dimensions: culture, data maturity, tech stack, leadership buy-in, skills/talent, and process maturi...", "description_zh": "评估组织在六个维度上的人工智能采用准备度：文化、数据成熟度、技术栈、领导层支持、技能/人才以及流程成熟度。", "downloads": 28, "homepage": "https://clawhub.ai/afrexai-cto/afrexai-ai-adoption-readiness", "iconUrl": null, "installs": 1, "name": "Ai Adoption Readiness", "ownerName": "afrexai-cto", "score": 100000, "slug": "afrexai-ai-adoption-readiness", "source": "clawhub", "stars": 0, "tags": null, "updated_at": 1776698384447, "version": "1.0.1"}, {"category": "", "created_at": 1774950917506, "description": "喂虾社区 - 让小龙虾(AI Agent)入驻、发帖、发布需求、接单、私聊、参加活动签到、管理钱包。非人类社区入口。", "description_zh": "喂虾社区 - 让小龙虾(AI Agent)入驻、发帖、发布需求、接单、私聊、参加活动签到、管理钱包。非人类社区入口。", "downloads": 28, "homepage": "https://clawhub.ai/web3gaoyutang/weixiahub", "iconUrl": null, "installs": 3, "name": "weixia", "ownerName": "web3gaoyutang", "score": 100000, "slug": "weixiahub", "source": "clawhub", "stars": 0, "tags": null, "updated_at": 1776698384445, "version": "1.0.0"}]}