{"page": 634, "total_pages": 685, "total": 34217, "skills": [{"category": "", "created_at": 1774874938158, "description": "在唯品会(VIP.com)无感搜索商品，直接调用 Browser Subagent 进行网页内容提取。", "description_zh": "在唯品会(VIP.com)无感搜索商品，直接调用 Browser Subagent 进行网页内容提取。", "downloads": 27, "homepage": "https://clawhub.ai/bfkkkd/xc-vip-search", "iconUrl": null, "installs": 0, "name": "xc-vip-search", "ownerName": "bfkkkd", "score": 4787.234042553191, "slug": "xc-vip-search", "source": "clawhub", "stars": 0, "tags": null, "updated_at": 1776752383800, "version": "1.0.1"}, {"category": "", "created_at": 1774895531814, "description": "Streak integration. Manage Persons, Organizations, Deals, Pipelines, Users, Roles. Use when the user wants to interact with Streak data.", "description_zh": "{\"answer\":\"Streak 集成。管理人员、组织、交易、管道、用户、角色。用于用户交互 Streak 数据。\"}", "downloads": 27, "homepage": "https://clawhub.ai/membranedev/streak", "iconUrl": null, "installs": 0, "name": "Streak", "ownerName": "membranedev", "score": 4830.05366726297, "slug": "streak", "source": "clawhub", "stars": 0, "tags": null, "updated_at": 1776751669569, "version": "1.0.0"}, {"category": "", "created_at": 1774894417729, "description": "Scans 30+ online casinos, calculates the Expected Value of each welcome/reload/cashback bonus using optimal blackjack strategy, adjusts EV by casino reputati...", "description_zh": "扫描30+在线赌场，使用最优二十一点策略计算每个欢迎/充值/返现奖励的期望值，根据赌场声誉调整EV。", "downloads": 27, "homepage": "https://clawhub.ai/mibayy/casino-bonus-hunter", "iconUrl": null, "installs": 1, "name": "Casino Bonus Hunter", "ownerName": "mibayy", "score": 4695.652173913043, "slug": "casino-bonus-hunter", "source": "clawhub", "stars": 0, "tags": null, "updated_at": 1776748184822, "version": "1.0.0"}, {"category": "", "created_at": 1774880632838, "description": "Play The Parliament Game — label Canadian parliamentary Q&A pairs. Read real exchanges from the House of Commons and decide if MPs actually answered the ques...", "description_zh": "玩“议会游戏”——标注加拿大议会问答对。阅读下议院的真实对话，判断议员是否真正回答了问题……", "downloads": 27, "homepage": "https://clawhub.ai/idiom-bytes/parliament-claw", "iconUrl": null, "installs": 0, "name": "Openclaw Skill", "ownerName": "idiom-bytes", "score": 3114.1868512110723, "slug": "parliament-claw", "source": "clawhub", "stars": 0, "tags": ["ai-agents", "canada", "civic-tech", "labeling", "parliament"], "updated_at": 1776747904794, "version": "2.1.0"}, {"category": "", "created_at": 1774884807772, "description": "对比多个方案文档，输出差异、隐含成本、风险与推荐结论。；use for proposal, comparison, decision workflows；do not use for 忽略用户给的约束, 伪造数据支持结论.", "description_zh": "对比多个方案文档，输出差异、隐含成本、风险与推荐结论。；use for proposal, comparison, decision workflows；do not use for 忽略用户给的约束, 伪造数据支持结论.", "downloads": 27, "homepage": "https://clawhub.ai/52yuanchangxing/proposal-comparator", "iconUrl": null, "installs": 0, "name": "Proposal Comparator", "ownerName": "52yuanchangxing", "score": 28125, "slug": "proposal-comparator", "source": "clawhub", "stars": 0, "tags": null, "updated_at": 1776744883852, "version": "1.0.0"}, {"category": "", "created_at": 1774945941628, "description": "Assess a user's personal risk profile to identify their biggest financial, health, and lifestyle risks and recommend appropriate insurance and protection str...", "description_zh": "评估用户的个人风险画像，识别其最大的财务、健康和生活方式风险，并推荐相应的保险和保障策略。", "downloads": 27, "homepage": "https://clawhub.ai/jiwenbing/risk-profile", "iconUrl": null, "installs": 0, "name": "Risk Profile", "ownerName": "jiwenbing", "score": 27835.051546391755, "slug": "risk-profile", "source": "clawhub", "stars": 0, "tags": null, "updated_at": 1776742244559, "version": "1.0.0"}, {"category": "", "created_at": 1774905565283, "description": "HotspotSystem integration. Manage Organizations, Users, Projects. Use when the user wants to interact with HotspotSystem data.", "description_zh": "HotspotSystem集成。管理组织、用户、项目。用于用户需与HotspotSystem数据交互时。", "downloads": 27, "homepage": "https://clawhub.ai/gora050/hotspotsystem", "iconUrl": null, "installs": 1, "name": "Hotspotsystem", "ownerName": "gora050", "score": 32530.12048192771, "slug": "hotspotsystem", "source": "clawhub", "stars": 0, "tags": null, "updated_at": 1776740570028, "version": "1.0.0"}, {"category": "", "created_at": 1776085648001, "description": "", "description_zh": "国自然摘要精雕技能。将申请书的科学问题、假说、研究内容压缩成一段400字的完美摘要。当用户需要：撰写国自然摘要、压缩申请书核心内容、400字精准表达时触发。严格遵循\"背景→问题→假说→内容→意义\"五步公式，每句必须字字千金，无水词无废话。", "downloads": 27, "homepage": "https://clawhub.ai/user_5933f5b3/nsfc-abstract-master", "iconUrl": "https://cloudcache.tencent-cloud.com/qcloud/ui/static/other_external_resource/a4e49550-e527-4406-b761-c4f2e607b757.png", "installs": 3, "name": "NSFC-abstract-master(摘要精炼)", "ownerName": "user_5933f5b3", "score": 60000, "slug": "nsfc-abstract-master", "source": "community", "stars": 0, "tags": null, "updated_at": 1776737270168, "version": "1.0.0"}, {"category": "", "created_at": 1774877944005, "description": "Reference HLSL shader implementations for the Slug font rendering algorithm, enabling high-quality GPU-accelerated vector font and glyph rendering.", "description_zh": "参考Slug字体渲染算法的HLSL着色器实现，实现高质量GPU加速矢量字体和字形渲染。", "downloads": 27, "homepage": "https://clawhub.ai/adisinghstudent/slug-font-rendering", "iconUrl": null, "installs": 0, "name": "slug-font-rendering", "ownerName": "adisinghstudent", "score": 27835.051546391755, "slug": "slug-font-rendering", "source": "clawhub", "stars": 0, "tags": null, "updated_at": 1776736969632, "version": "1.0.0"}, {"category": "", "created_at": 1774955407954, "description": "Track daily habits, streaks, and completions locally. Triggers on: habit, streak, track habit, log exercise, log habit, weekly review, habit status, did I ex...", "description_zh": "在本地追踪日常习惯、连续天数和完成情况。触发条件：习惯、连续记录、追踪习惯、记录运动、记录习惯、周度回顾、习惯状态、运动记录等", "downloads": 27, "homepage": "https://clawhub.ai/newageinvestments25-byte/nai-habit-tracker", "iconUrl": null, "installs": 0, "name": "Habit Tracker", "ownerName": "newageinvestments25-byte", "score": 27835.051546391755, "slug": "nai-habit-tracker", "source": "clawhub", "stars": 0, "tags": null, "updated_at": 1776736872058, "version": "1.0.0"}, {"category": "", "created_at": 1775455017838, "description": "", "description_zh": "Identifies negative emotions such as crying, anger, fear, and distress through surveillance footage. It actively issues soothing reminders and notifies parents, making it suitable for homes, kindergartens, and daycare centers. | 儿童情绪识别分析技能，通过监控画面识别儿童哭闹、愤怒、恐惧、委屈等负面情绪，主动发出安抚提醒并通知家长，适用于家庭、幼儿园、托管场所等场景", "downloads": 27, "homepage": "https://clawhub.ai/user_bb47e3e3/child-emotion-recognition-analysis", "iconUrl": null, "installs": 1, "name": "Child Emotion Recognition Analyzer | 儿童情绪识别分析工具", "ownerName": "user_bb47e3e3", "score": 28421.052631578947, "slug": "child-emotion-recognition-analysis", "source": "community", "stars": 0, "tags": null, "updated_at": 1776734983686, "version": "1.0.0"}, {"category": "", "created_at": 1774903856328, "description": "Generate professional Chinese visual note cards (视觉笔记卡片/信息图) as single-page HTML infographics with automatic PNG export. Use this skill whenever the user ask...", "description_zh": "Generate professional Chinese visual note cards (视觉笔记卡片/信息图) as single-page HTML infographics with automatic PNG export. Use this skill whenever the user ask...", "downloads": 27, "homepage": "https://clawhub.ai/beilunyang/visual-note-card-skills", "iconUrl": null, "installs": 0, "name": "Visual Note Card", "ownerName": "beilunyang", "score": 27551.020408163262, "slug": "visual-note-card-skills", "source": "clawhub", "stars": 0, "tags": null, "updated_at": 1776731383755, "version": "0.1.0"}, {"category": "", "created_at": 1774894870926, "description": "Production-grade bash watchdog for the OpenClaw gateway. Runs via launchd every 5 minutes. Handles boot grace periods, progressive retry with backoff, port-l...", "description_zh": "OpenClaw网关的生产级Bash守护进程，通过launchd每5分钟运行一次。处理启动宽限期、带退避的渐进重试及端口...", "downloads": 27, "homepage": "https://clawhub.ai/bryantegomoh/gateway-watchdog-v2", "iconUrl": null, "installs": 0, "name": "Gateway Watchdog", "ownerName": "bryantegomoh", "score": 28125, "slug": "gateway-watchdog-v2", "source": "clawhub", "stars": 0, "tags": null, "updated_at": 1776729883800, "version": "1.0.0"}, {"category": "", "created_at": 1774954801990, "description": "Immigration, tax, and business compliance alerts. Check your STEM OPT, H-1B, I-140, CPT status, upcoming deadlines, risk findings, and tax filing obligations...", "description_zh": "移民、税务和商业合规提醒。检查STEM OPT、H-1B、I-140、CPT状态、截止日期、风险提示和税务申报义务。", "downloads": 27, "homepage": "https://clawhub.ai/lee-chenyu/guardian-compliance", "iconUrl": null, "installs": 0, "name": "Guardian Compliance", "ownerName": "lee-chenyu", "score": 28723.40425531915, "slug": "guardian-compliance", "source": "clawhub", "stars": 0, "tags": null, "updated_at": 1776721255471, "version": "1.0.0"}, {"category": "", "created_at": 1774949088922, "description": "Interact with GitHub using the `gh` CLI. Use `gh issue`, `gh pr`, `gh run`, and `gh api` for issues, PRs, CI runs, and advanced queries.", "description_zh": "使用 `gh` CLI 与 GitHub 交互。使用 `gh issue`、`gh pr`、`gh run` 和 `gh api` 处理 issue、PR、CI 运行及高级查询。", "downloads": 27, "homepage": "https://clawhub.ai/aceundefeated/aj-github", "iconUrl": null, "installs": 1, "name": "Aj Github", "ownerName": "aceundefeated", "score": 27551.020408163262, "slug": "aj-github", "source": "clawhub", "stars": 0, "tags": null, "updated_at": 1776708469572, "version": "1.0.0"}, {"category": "", "created_at": 1774954657241, "description": "WebinarFuel integration. Manage data, records, and automate workflows. Use when the user wants to interact with WebinarFuel data.", "description_zh": "WebinarFuel集成。管理数据与记录，自动化工作流。当用户需与WebinarFuel数据交互时使用。", "downloads": 27, "homepage": "https://clawhub.ai/gora050/webinarfuel", "iconUrl": null, "installs": 0, "name": "Webinarfuel", "ownerName": "gora050", "score": 28723.40425531915, "slug": "webinarfuel", "source": "clawhub", "stars": 0, "tags": null, "updated_at": 1776701083787, "version": "1.0.0"}, {"category": "", "created_at": 1774948496660, "description": "Device Magic integration. Manage Forms. Use when the user wants to interact with Device Magic data.", "description_zh": "Device Magic 集成。管理表单。当用户希望与 Device Magic 数据交互时使用。", "downloads": 27, "homepage": "https://clawhub.ai/gora050/device-magic", "iconUrl": null, "installs": 0, "name": "Device Magic", "ownerName": "gora050", "score": 27835.051546391755, "slug": "device-magic", "source": "clawhub", "stars": 0, "tags": null, "updated_at": 1776699769674, "version": "1.0.0"}, {"category": "", "created_at": 1774917297468, "description": "UltraMsg integration. Manage Organizations, Users. Use when the user wants to interact with UltraMsg data.", "description_zh": "UltraMsg集成。管理组织与用户。用于用户需要与UltraMsg数据进行交互时。", "downloads": 27, "homepage": "https://clawhub.ai/gora050/ultramsg", "iconUrl": null, "installs": 0, "name": "Ultramsg", "ownerName": "gora050", "score": 100000, "slug": "ultramsg", "source": "clawhub", "stars": 0, "tags": null, "updated_at": 1776698570621, "version": "1.0.0"}, {"category": "", "created_at": 1774947814922, "description": "Capture, inspect, and compare screenshots of screens, windows, regions, web pages, simulators, and CI runs with the right tool, wait strategy, viewport, and...", "description_zh": "使用合适的工具、等待策略、视口等配置，捕获、检查并比对屏幕、窗口、区域、网页、模拟器及CI运行截图。", "downloads": 27, "homepage": "https://clawhub.ai/zhouhuihui008/screenshot-1-0-1", "iconUrl": null, "installs": 0, "name": "Screenshot 1.0.1", "ownerName": "zhouhuihui008", "score": 100000, "slug": "screenshot-1-0-1", "source": "clawhub", "stars": 0, "tags": null, "updated_at": 1776698570619, "version": "1.0.0"}, {"category": "", "created_at": 1774954594351, "description": "ReferralHero integration. Manage data, records, and automate workflows. Use when the user wants to interact with ReferralHero data.", "description_zh": "ReferralHero 集成，管理数据、记录和工作流程自动化，用于与 ReferralHero 数据交互。", "downloads": 27, "homepage": "https://clawhub.ai/gora050/referralhero", "iconUrl": null, "installs": 0, "name": "Referralhero", "ownerName": "gora050", "score": 100000, "slug": "referralhero", "source": "clawhub", "stars": 0, "tags": null, "updated_at": 1776698570615, "version": "1.0.0"}, {"category": "", "created_at": 1774909079381, "description": "Shipcloud integration. Manage Shipments, Trackings, Carriers, Services, Labels, Pickups and more. Use when the user wants to interact with Shipcloud data.", "description_zh": "Shipcloud 集成。管理货运、追踪、承运商、服务、标签、取货等。当用户想要与 Shipcloud 数据交互时使用。", "downloads": 27, "homepage": "https://clawhub.ai/gora050/shipcloud", "iconUrl": null, "installs": 1, "name": "Shipcloud", "ownerName": "gora050", "score": 100000, "slug": "shipcloud", "source": "clawhub", "stars": 0, "tags": null, "updated_at": 1776698570612, "version": "1.0.0"}, {"category": "", "created_at": 1774923304250, "description": "Write, optimize, and grow Substack content — both newsletter issues (email-first) and web posts (web-first articles/essays). Covers ghostwriting with voice m...", "description_zh": "撰写、优化并发展 Substack 内容，包括邮件优先的通讯和网页优先的文章/随笔，涵盖代笔及风格匹配。", "downloads": 27, "homepage": "https://clawhub.ai/samber/substack-ghostwriting", "iconUrl": null, "installs": 0, "name": "Substack Ghostwriting", "ownerName": "samber", "score": 100000, "slug": "substack-ghostwriting", "source": "clawhub", "stars": 0, "tags": null, "updated_at": 1776698570610, "version": "1.1.0"}, {"category": "", "created_at": 1774903629438, "description": "Quentn integration. Manage Persons, Organizations, Deals, Activities, Notes, Files and more. Use when the user wants to interact with Quentn data.", "description_zh": "Quentn 集成：管理人员、组织、交易、活动、笔记、文件等，用于与 Quentn 数据交互。", "downloads": 27, "homepage": "https://clawhub.ai/gora050/quentn", "iconUrl": null, "installs": 0, "name": "Quentn", "ownerName": "gora050", "score": 100000, "slug": "quentn", "source": "clawhub", "stars": 0, "tags": null, "updated_at": 1776698570608, "version": "1.0.0"}, {"category": "", "created_at": 1774898945652, "description": "TaxJar integration. Manage Orders, Nexuses, Customers. Use when the user wants to interact with TaxJar data.", "description_zh": "TaxJar集成。管理订单、税务关联地区和客户。当用户需要与TaxJar数据交互时使用。", "downloads": 27, "homepage": "https://clawhub.ai/membranedev/taxjar", "iconUrl": null, "installs": 0, "name": "Taxjar", "ownerName": "membranedev", "score": 100000, "slug": "taxjar", "source": "clawhub", "stars": 0, "tags": null, "updated_at": 1776698570599, "version": "1.0.0"}, {"category": "", "created_at": 1774915645643, "description": "Placetel integration. Manage Organizations. Use when the user wants to interact with Placetel data.", "description_zh": "Placetel集成，管理组织，用于与Placetel数据交互。", "downloads": 27, "homepage": "https://clawhub.ai/membranedev/placetel", "iconUrl": null, "installs": 0, "name": "Placetel", "ownerName": "membranedev", "score": 100000, "slug": "placetel", "source": "clawhub", "stars": 0, "tags": null, "updated_at": 1776698570597, "version": "1.0.0"}, {"category": "", "created_at": 1774871736562, "description": "Reference tool for devtools — covers intro, quickstart, patterns and more. Quick lookup for Secret Sealer concepts, best practices, and implementation patterns.", "description_zh": "开发工具参考手册，涵盖入门、快速开始、使用模式等内容。快速查阅 Secret Sealer 的核心概念、最佳实践与实现模式。", "downloads": 27, "homepage": "https://clawhub.ai/bytesagain3/secret-sealer", "iconUrl": null, "installs": 0, "name": "Secret Sealer", "ownerName": "bytesagain3", "score": 100000, "slug": "secret-sealer", "source": "clawhub", "stars": 0, "tags": null, "updated_at": 1776698570595, "version": "2.0.1"}, {"category": "", "created_at": 1774871824289, "description": "AI效率监控工具。监控AI任务执行效率，识别浪费模式（重复查询/过长上下文/无效重试/过度生成/低质量循环），生成优化建议和成本节省报告。支持OpenClaw日志解析、多模型成本计算、ASCII趋势图。", "description_zh": "AI效率监控工具。监控AI任务执行效率，识别浪费模式（重复查询/过长上下文/无效重试/过度生成/低质量循环），生成优化建议和成本节省报告。支持OpenClaw日志解析、多模型成本计算、ASCII趋势图。", "downloads": 27, "homepage": "https://clawhub.ai/zhaog100/sjykj-ai-efficiency-monitor", "iconUrl": null, "installs": 0, "name": "Ai Efficiency Monitor", "ownerName": "zhaog100", "score": 100000, "slug": "sjykj-ai-efficiency-monitor", "source": "clawhub", "stars": 0, "tags": null, "updated_at": 1776698570592, "version": "1.2.1"}, {"category": "", "created_at": 1774909029453, "description": "Rydoo integration. Manage data, records, and automate workflows. Use when the user wants to interact with Rydoo data.", "description_zh": "Rydoo集成，管理数据、记录，自动化工作流程，用于Rydoo数据交互。", "downloads": 27, "homepage": "https://clawhub.ai/gora050/rydoo", "iconUrl": null, "installs": 0, "name": "Rydoo", "ownerName": "gora050", "score": 100000, "slug": "rydoo", "source": "clawhub", "stars": 0, "tags": null, "updated_at": 1776698570588, "version": "1.0.0"}, {"category": "", "created_at": 1774912172805, "description": "易企收自动化访问", "description_zh": "易企收自动化访问", "downloads": 27, "homepage": "https://clawhub.ai/dayhee/psbc-cup", "iconUrl": null, "installs": 1, "name": "邮储银行易企收", "ownerName": "dayhee", "score": 100000, "slug": "psbc-cup", "source": "clawhub", "stars": 0, "tags": null, "updated_at": 1776698570585, "version": "1.0.0"}, {"category": "", "created_at": 1774854203516, "description": "提供优酷经典影视、独播内容及精彩视频播放指引。", "description_zh": "提供优酷经典影视、独播内容及精彩视频播放指引。", "downloads": 27, "homepage": "https://clawhub.ai/mike47512/youku", "iconUrl": null, "installs": 1, "name": "youku", "ownerName": "mike47512", "score": 100000, "slug": "youku", "source": "clawhub", "stars": 0, "tags": null, "updated_at": 1776698570583, "version": "0.1.1"}, {"category": "", "created_at": 1774909095713, "description": "SignPath integration. Manage Leads, Persons, Organizations, Deals, Projects, Pipelines and more. Use when the user wants to interact with SignPath data.", "description_zh": "SignPath 集成。管理线索、人员、组织、交易、项目、管道等。当用户需与 SignPath 数据交互时使用。", "downloads": 27, "homepage": "https://clawhub.ai/gora050/signpath", "iconUrl": null, "installs": 0, "name": "Signpath", "ownerName": "gora050", "score": 100000, "slug": "signpath", "source": "clawhub", "stars": 0, "tags": null, "updated_at": 1776698570581, "version": "1.0.0"}, {"category": "", "created_at": 1774902726731, "description": "Vwap reference tool. Use when working with vwap in finance contexts.", "description_zh": "VWAP参考工具，用于金融场景中的成交量加权平均价格分析。", "downloads": 27, "homepage": "https://clawhub.ai/ckchzh/vwap", "iconUrl": null, "installs": 0, "name": "Vwap", "ownerName": "ckchzh", "score": 100000, "slug": "vwap", "source": "clawhub", "stars": 0, "tags": null, "updated_at": 1776698570578, "version": "1.0.0"}, {"category": "", "created_at": 1774906062658, "description": "Vyper reference tool. Use when working with vyper in blockchain contexts.", "description_zh": "Vyper 参考工具，用于区块链环境中的 Vyper 开发。", "downloads": 27, "homepage": "https://clawhub.ai/xueyetianya/vyper", "iconUrl": null, "installs": 0, "name": "Vyper", "ownerName": "xueyetianya", "score": 100000, "slug": "vyper", "source": "clawhub", "stars": 0, "tags": null, "updated_at": 1776698570575, "version": "1.0.0"}, {"category": "", "created_at": 1774914825952, "description": "Placeholder skill for text-to-video workflows on skills.video. Use when the user is asking about t2v generation and the concrete API contract has not been im...", "description_zh": "用于在skills.video平台上进行文生视频（t2v）生成的工作流占位技能。当用户询问文生视频生成但具体API契约尚未实现时使用。", "downloads": 27, "homepage": "https://clawhub.ai/skills-video/t2v", "iconUrl": null, "installs": 0, "name": "T2V", "ownerName": "skills-video", "score": 100000, "slug": "t2v", "source": "clawhub", "stars": 0, "tags": null, "updated_at": 1776698570573, "version": "1.0.0"}, {"category": "", "created_at": 1774947799504, "description": "ReferralRock integration. Manage data, records, and automate workflows. Use when the user wants to interact with ReferralRock data.", "description_zh": "ReferralRock 集成。管理数据和记录，自动化工作流。在用户需要与 ReferralRock 数据交互时使用。", "downloads": 27, "homepage": "https://clawhub.ai/gora050/referralrock", "iconUrl": null, "installs": 0, "name": "Referralrock", "ownerName": "gora050", "score": 100000, "slug": "referralrock", "source": "clawhub", "stars": 0, "tags": null, "updated_at": 1776698570571, "version": "1.0.0"}, {"category": "", "created_at": 1774912447650, "description": "Zyte API integration. Manage data, records, and automate workflows. Use when the user wants to interact with Zyte API data.", "description_zh": "Zyte API 集成。管理数据、记录和自动化工作流程。当用户需要与 Zyte API 数据交互时使用。", "downloads": 27, "homepage": "https://clawhub.ai/gora050/zyte-api", "iconUrl": null, "installs": 0, "name": "Zyte Api", "ownerName": "gora050", "score": 100000, "slug": "zyte-api", "source": "clawhub", "stars": 0, "tags": null, "updated_at": 1776698570567, "version": "1.0.0"}, {"category": "", "created_at": 1774946022987, "description": "Reference tool for devtools — covers intro, quickstart, patterns and more. Quick lookup for Spend Tracker concepts, best practices, and implementation patterns.", "description_zh": "DevTools 参考工具——涵盖简介、快速启动、模式等。快速查阅 Spend Tracker 概念、最佳实践与实现模式。", "downloads": 27, "homepage": "https://clawhub.ai/bytesagain3/spend-tracker", "iconUrl": null, "installs": 0, "name": "Spend Tracker", "ownerName": "bytesagain3", "score": 100000, "slug": "spend-tracker", "source": "clawhub", "stars": 0, "tags": null, "updated_at": 1776698570555, "version": "2.0.2"}, {"category": "", "created_at": 1774886393155, "description": "Unified Apify-based retrieval for TikTok, Instagram, X/Twitter, and YouTube profile, post, and comment data with cross-platform normalization for analysis wo...", "description_zh": "基于Apify统一获取TikTok、Instagram、X/Twitter和YouTube的个人资料、帖子及评论数据，跨平台标准化处理以支持分析工作", "downloads": 27, "homepage": "https://clawhub.ai/galaxy-earth/social-media-data-hub", "iconUrl": null, "installs": 0, "name": "Social Media Data Hub", "ownerName": "galaxy-earth", "score": 100000, "slug": "social-media-data-hub", "source": "clawhub", "stars": 0, "tags": null, "updated_at": 1776698570552, "version": "1.0.0"}, {"category": "", "created_at": 1774885348201, "description": "Monitors product prices across e-commerce sites daily, detects price drops, and emails a formatted Excel report automatically every morning.", "description_zh": "每日监控电商平台商品价格，检测价格下降，每天早晨自动发送格式化Excel报告邮件。", "downloads": 27, "homepage": "https://clawhub.ai/neo1307/argus-price-monitor", "iconUrl": null, "installs": 0, "name": "Price Monitor & Daily Excel Report Bot", "ownerName": "neo1307", "score": 100000, "slug": "argus-price-monitor", "source": "clawhub", "stars": 0, "tags": null, "updated_at": 1776698570545, "version": "1.0.2"}, {"category": "", "created_at": 1774846076566, "description": "Monitors 20+ premium RSS feeds for breaking news and matches stories to Polymarket markets via keyword analysis. Trades when breaking news creates an estimat...", "description_zh": "监控20+个高端RSS源以获取突发新闻，并通过关键词分析将新闻匹配至Polymarket市场。当突发新闻产生预估时进行交易。", "downloads": 27, "homepage": "https://clawhub.ai/mibayy/polymarket-news-events", "iconUrl": null, "installs": 0, "name": "Polymarket News Events", "ownerName": "mibayy", "score": 100000, "slug": "polymarket-news-events", "source": "clawhub", "stars": 0, "tags": null, "updated_at": 1776698570541, "version": "2.0.2"}, {"category": "", "created_at": 1774902085507, "description": "Gender API integration. Manage Persons. Use when the user wants to interact with Gender API data.", "description_zh": "性别 API 集成。人员管理。用于用户需要与性别 API 数据交互时。", "downloads": 27, "homepage": "https://clawhub.ai/gora050/gender-api", "iconUrl": null, "installs": 0, "name": "Gender Api", "ownerName": "gora050", "score": 100000, "slug": "gender-api", "source": "clawhub", "stars": 0, "tags": null, "updated_at": 1776698570538, "version": "1.0.0"}, {"category": "", "created_at": 1774879164873, "description": "Mandatory verification steps for all code reviews to reduce false positives. Load this skill before reporting ANY code review findings.", "description_zh": "代码审查的强制验证步骤，用于减少误报。在报告任何代码审查结果之前加载此技能。", "downloads": 27, "homepage": "https://clawhub.ai/anderskev/review-verification-protocol", "iconUrl": null, "installs": 0, "name": "Review Verification Protocol", "ownerName": "anderskev", "score": 100000, "slug": "review-verification-protocol", "source": "clawhub", "stars": 0, "tags": null, "updated_at": 1776698570536, "version": "1.1.0"}, {"category": "", "created_at": 1774893030674, "description": "Inverter and VFD parameter calculator. Use when json inverter tasks, csv inverter tasks, checking inverter status.", "description_zh": "逆变器与VFD参数计算器：用于JSON、CSV逆变器任务及状态检查。", "downloads": 27, "homepage": "https://clawhub.ai/bytesagain1/inverter", "iconUrl": null, "installs": 1, "name": "Inverter", "ownerName": "bytesagain1", "score": 100000, "slug": "inverter", "source": "clawhub", "stars": 0, "tags": null, "updated_at": 1776698570534, "version": "1.0.0"}, {"category": "", "created_at": 1774952934293, "description": "iCIMS integration. Manage data, records, and automate workflows. Use when the user wants to interact with iCIMS data.", "description_zh": "iCIMS集成。管理数据、记录和工作流程自动化。当用户想要与iCIMS数据进行交互时使用。", "downloads": 27, "homepage": "https://clawhub.ai/gora050/icims", "iconUrl": null, "installs": 0, "name": "Icims", "ownerName": "gora050", "score": 100000, "slug": "icims", "source": "clawhub", "stars": 0, "tags": null, "updated_at": 1776698570532, "version": "1.0.0"}, {"category": "", "created_at": 1774870811831, "description": "When the user wants to edit, review, or improve existing marketing copy. Also use when the user mentions 'edit this copy,' 'review my copy,' 'copy feedback,'...", "description_zh": "当用户想要编辑、审阅或改进已有的营销文案时使用。用户提及“编辑此文案”“审阅我的文案”“文案反馈”等时也适用。", "downloads": 27, "homepage": "https://clawhub.ai/mariokarras/abm-copy-editing", "iconUrl": null, "installs": 0, "name": "Copy Editing", "ownerName": "mariokarras", "score": 100000, "slug": "abm-copy-editing", "source": "clawhub", "stars": 0, "tags": null, "updated_at": 1776698570525, "version": "1.0.0"}, {"category": "", "created_at": 1774873882462, "description": "ExhibitDay integration. Manage Organizations. Use when the user wants to interact with ExhibitDay data.", "description_zh": "{\n \"answer\": \"ExhibitDay 集成。管理组织。用于用户希望与 ExhibitDay 数据交互时。\"\n}", "downloads": 27, "homepage": "https://clawhub.ai/gora050/exhibitday", "iconUrl": null, "installs": 0, "name": "Exhibitday", "ownerName": "gora050", "score": 100000, "slug": "exhibitday", "source": "clawhub", "stars": 0, "tags": null, "updated_at": 1776698570523, "version": "1.0.0"}, {"category": "", "created_at": 1774876903833, "description": "Create business plans, lean canvases, and financial projections. Use when pitching investors, planning startups, or modeling revenue scenarios.", "description_zh": "创建商业计划书、精益画布和财务预测，适用于投资路演、创业规划或收入场景建模。", "downloads": 27, "homepage": "https://clawhub.ai/bytesagain1/bizplanner", "iconUrl": null, "installs": 1, "name": "Bizplanner", "ownerName": "bytesagain1", "score": 100000, "slug": "bizplanner", "source": "clawhub", "stars": 0, "tags": null, "updated_at": 1776698570522, "version": "2.0.0"}, {"category": "", "created_at": 1774918333722, "description": "LoopMessage integration. Manage Users, Organizations. Use when the user wants to interact with LoopMessage data.", "description_zh": "LoopMessage 集成，管理用户与组织，用于用户与 LoopMessage 数据交互的场景。", "downloads": 27, "homepage": "https://clawhub.ai/membranedev/loopmessage", "iconUrl": null, "installs": 0, "name": "Loopmessage", "ownerName": "membranedev", "score": 100000, "slug": "loopmessage", "source": "clawhub", "stars": 0, "tags": null, "updated_at": 1776698570514, "version": "1.0.0"}, {"category": "", "created_at": 1774864279386, "description": "Manage Apple Notes via the `memo` CLI on macOS (create, view, edit, delete, search, move, and export notes). Use when a user asks Clawdbot to add a note, lis...", "description_zh": "使用 memo CLI 在 macOS 上管理 Apple Notes（创建、查看、编辑、删除、搜索、移动和导出笔记）。当用户要求 Clawdbot 添加笔记、列出笔记时使用。", "downloads": 27, "homepage": "https://clawhub.ai/fresh3/taizi-apple-notes", "iconUrl": null, "installs": 0, "name": "Apple Notes", "ownerName": "fresh3", "score": 100000, "slug": "taizi-apple-notes", "source": "clawhub", "stars": 0, "tags": null, "updated_at": 1776698570511, "version": "1.0.1"}, {"category": "", "created_at": 1774893550123, "description": "Plasmic integration. Manage Projects. Use when the user wants to interact with Plasmic data.", "description_zh": "Plasmic集成。管理项目。用于与Plasmic数据交互。", "downloads": 27, "homepage": "https://clawhub.ai/gora050/plasmic", "iconUrl": null, "installs": 0, "name": "Plasmic", "ownerName": "gora050", "score": 100000, "slug": "plasmic", "source": "clawhub", "stars": 0, "tags": null, "updated_at": 1776698570509, "version": "1.0.0"}]}