{"page": 635, "total_pages": 685, "total": 34217, "skills": [{"category": "", "created_at": 1774951586360, "description": "Monitor uptime of websites/services and alert when down. Use when checking if a website is reachable, monitoring service health, or getting alerted on downtime.", "description_zh": "监控网站/服务的可用性，在宕机时发送告警。适用于检查网站可达性、监控服务健康状态或在服务下线时获取提醒。", "downloads": 27, "homepage": "https://clawhub.ai/kryzl19/strd-uptime-monitor", "iconUrl": null, "installs": 0, "name": "Uptime Monitor", "ownerName": "kryzl19", "score": 100000, "slug": "strd-uptime-monitor", "source": "clawhub", "stars": 0, "tags": null, "updated_at": 1776698570507, "version": "1.0.0"}, {"category": "", "created_at": 1774954350364, "description": "Manage Google Apps Script projects.", "description_zh": "管理 Google Apps Script 项目", "downloads": 27, "homepage": "https://clawhub.ai/googleworkspace-bot/gws-script", "iconUrl": null, "installs": 0, "name": "Gws Script", "ownerName": "googleworkspace-bot", "score": 100000, "slug": "gws-script", "source": "clawhub", "stars": 0, "tags": null, "updated_at": 1776698570506, "version": "1.0.0"}, {"category": "", "created_at": 1774854432608, "description": "AgentImgHost REST API for uploading, listing, and deleting images. Returns direct public CDN URLs.", "description_zh": "AgentImgHost REST API，支持图片的上传、列表查询和删除操作，返回直接可访问的公共CDN链接。", "downloads": 27, "homepage": "https://clawhub.ai/jacobmaldonado/agent-image-hosting", "iconUrl": null, "installs": 0, "name": "Image Hosting for agents", "ownerName": "jacobmaldonado", "score": 100000, "slug": "agent-image-hosting", "source": "clawhub", "stars": 0, "tags": null, "updated_at": 1776698570504, "version": "1.0.1"}, {"category": "", "created_at": 1774864155785, "description": "Interact with the PrivyPad.com API to read, create, update, delete, and organize encrypted notes and groups on behalf of a user. Use this skill whenever the...", "description_zh": "与 PrivyPad.com API 交互，代表用户读取、创建、更新、删除及整理加密笔记和分组。", "downloads": 27, "homepage": "https://clawhub.ai/aididmyhomework/privypad", "iconUrl": null, "installs": 0, "name": "Manage privypad notes", "ownerName": "aididmyhomework", "score": 100000, "slug": "privypad", "source": "clawhub", "stars": 0, "tags": null, "updated_at": 1776698570502, "version": "1.0.0"}, {"category": "", "created_at": 1774912965541, "description": "KingSumo integration. Manage Persons, Organizations, Deals, Leads, Activities, Notes and more. Use when the user wants to interact with KingSumo data.", "description_zh": "KingSumo 集成。管理联系人、组织、交易、线索、活动、备注等。当用户需要与 KingSumo 数据交互时使用。", "downloads": 27, "homepage": "https://clawhub.ai/gora050/kingsumo", "iconUrl": null, "installs": 0, "name": "Kingsumo", "ownerName": "gora050", "score": 100000, "slug": "kingsumo", "source": "clawhub", "stars": 0, "tags": null, "updated_at": 1776698570496, "version": "1.0.0"}, {"category": "", "created_at": 1774899737022, "description": "Hierarchical policy inheritance system for OpenClaw agents. Enables policies to be defined at organization, team, project, and session levels with automatic...", "description_zh": "OpenClaw 代理的层级策略继承系统，支持在组织、团队、项目和会话级别定义策略，并自动…", "downloads": 27, "homepage": "https://clawhub.ai/aakash2289/governance-inheritance", "iconUrl": null, "installs": 0, "name": "Governance Inheritance", "ownerName": "aakash2289", "score": 100000, "slug": "governance-inheritance", "source": "clawhub", "stars": 0, "tags": null, "updated_at": 1776698570492, "version": "1.0.0"}, {"category": "", "created_at": 1774956492638, "description": "Generate structured agendas for mentor-student one-on-one meetings", "description_zh": "为导师与学生的一对一会议生成结构化议程", "downloads": 27, "homepage": "https://clawhub.ai/aipoch-ai/mentorship-meeting-agenda", "iconUrl": null, "installs": 0, "name": "Mentorship Meeting Agenda", "ownerName": "aipoch-ai", "score": 100000, "slug": "mentorship-meeting-agenda", "source": "clawhub", "stars": 0, "tags": null, "updated_at": 1776698570490, "version": "1.0.0"}, {"category": "", "created_at": 1774883610935, "description": "SignalWire integration. Manage Persons, Organizations, Leads, Deals, Projects, Activities and more. Use when the user wants to interact with SignalWire data.", "description_zh": "SignalWire集成。管理人员、组织、线索、交易、项目、活动等。当用户需要与SignalWire数据交互时使用。", "downloads": 27, "homepage": "https://clawhub.ai/membranedev/signalwire", "iconUrl": null, "installs": 1, "name": "Signalwire", "ownerName": "membranedev", "score": 100000, "slug": "signalwire", "source": "clawhub", "stars": 0, "tags": null, "updated_at": 1776698570488, "version": "1.0.0"}, {"category": "", "created_at": 1774923509334, "description": "The first social network built for Lobsters. Post, comment, vote, follow, and build karma in a living community of AI citizens.", "description_zh": "首个专为龙虾族群打造的社交网络。发帖、评论、投票、关注，在AI公民组成的活跃社区中积累声望。", "downloads": 27, "homepage": "https://clawhub.ai/biilow-bailang/lobster-republic", "iconUrl": null, "installs": 0, "name": "The Lobster Republic", "ownerName": "biilow-bailang", "score": 100000, "slug": "lobster-republic", "source": "clawhub", "stars": 0, "tags": ["ai-agents", "collaboration", "community", "identity", "social"], "updated_at": 1776698570486, "version": "0.5.6"}, {"category": "", "created_at": 1774950057439, "description": "Bluesky by Unshape integration. Manage data, records, and automate workflows. Use when the user wants to interact with Bluesky by Unshape data.", "description_zh": "Bluesky by Unshape 集成。管理数据、记录并自动化工作流程。适用于用户需要与 Bluesky by Unshape 数据交互的场景。", "downloads": 27, "homepage": "https://clawhub.ai/gora050/bluesky-by-unshape", "iconUrl": null, "installs": 0, "name": "Bluesky By Unshape", "ownerName": "gora050", "score": 100000, "slug": "bluesky-by-unshape", "source": "clawhub", "stars": 0, "tags": null, "updated_at": 1776698570484, "version": "1.0.0"}, {"category": "", "created_at": 1774852577720, "description": "Fast multi-format summarization — paste a URL, drop a file, get the key points. Powered by evolink.ai", "description_zh": "快速多格式摘要 —— 粘贴链接、上传文件，即刻获取要点。由 evolink.ai 驱动。", "downloads": 27, "homepage": "https://clawhub.ai/evolinkai/multi-summarize", "iconUrl": null, "installs": 0, "name": "Multi Summarize", "ownerName": "evolinkai", "score": 100000, "slug": "multi-summarize", "source": "clawhub", "stars": 0, "tags": null, "updated_at": 1776698570481, "version": "1.3.1"}, {"category": "", "created_at": 1774865951377, "description": "Ezeep Blue integration. Manage Users, Organizations, Printers. Use when the user wants to interact with Ezeep Blue data.", "description_zh": "Ezeep Blue 集成，管理用户、组织、打印机，用于与 Ezeep Blue 数据交互。", "downloads": 27, "homepage": "https://clawhub.ai/gora050/ezeep-blue", "iconUrl": null, "installs": 0, "name": "Ezeep Blue", "ownerName": "gora050", "score": 100000, "slug": "ezeep-blue", "source": "clawhub", "stars": 0, "tags": null, "updated_at": 1776698570479, "version": "1.0.0"}, {"category": "", "created_at": 1774882796465, "description": "中国手机号码归属地与运营商查询。Use when the user wants to look up the province, city, and carrier (运营商) of a Chinese mobile phone number. Identifies China Mobile, China Uni...", "description_zh": "中国手机号码归属地与运营商查询。Use when the user wants to look up the province, city, and carrier (运营商) of a Chinese mobile phone number. Identifies China Mobile, China Uni...", "downloads": 27, "homepage": "https://clawhub.ai/tobewin/china-phone", "iconUrl": null, "installs": 0, "name": "China Phone", "ownerName": "tobewin", "score": 100000, "slug": "china-phone", "source": "clawhub", "stars": 0, "tags": null, "updated_at": 1776698570475, "version": "1.0.1"}, {"category": "", "created_at": 1774915441419, "description": "IAuditor by SafetyCulture integration. Manage Organizations. Use when the user wants to interact with IAuditor by SafetyCulture data.", "description_zh": "SafetyCulture iAuditor 集成。管理组织。当用户想要与 SafetyCulture iAuditor 数据交互时使用。", "downloads": 27, "homepage": "https://clawhub.ai/gora050/iauditor-by-safetyculture", "iconUrl": null, "installs": 0, "name": "Iauditor By Safetyculture", "ownerName": "gora050", "score": 100000, "slug": "iauditor-by-safetyculture", "source": "clawhub", "stars": 0, "tags": null, "updated_at": 1776698570474, "version": "1.0.0"}, {"category": "", "created_at": 1774860155982, "description": "A skill to interact with Gaode Map (AMap) for location search and route planning.", "description_zh": "与高德地图交互，实现位置搜索和路线规划的技能。", "downloads": 27, "homepage": "https://clawhub.ai/beelkic/gaodemapskill-bak", "iconUrl": null, "installs": 0, "name": ".Gaodemapskill.Bak", "ownerName": "beelkic", "score": 100000, "slug": "gaodemapskill-bak", "source": "clawhub", "stars": 0, "tags": null, "updated_at": 1776698570465, "version": "1.0.0"}, {"category": "", "created_at": 1774956313390, "description": "Finmo integration. Manage Organizations. Use when the user wants to interact with Finmo data.", "description_zh": "Finmo集成。管理组织。当用户需要与Finmo数据交互时使用。", "downloads": 27, "homepage": "https://clawhub.ai/membranedev/finmo", "iconUrl": null, "installs": 0, "name": "Finmo", "ownerName": "membranedev", "score": 100000, "slug": "finmo", "source": "clawhub", "stars": 0, "tags": null, "updated_at": 1776698570457, "version": "1.0.0"}, {"category": "", "created_at": 1774875549792, "description": "🎯 EV 期望值计算器 - 交易决策必备工具", "description_zh": "🎯 EV 期望值计算器 - 交易决策必备工具", "downloads": 27, "homepage": "https://clawhub.ai/jinboh68-prog/ev-calculator", "iconUrl": null, "installs": 0, "name": "Ev Calculator", "ownerName": "jinboh68-prog", "score": 100000, "slug": "ev-calculator", "source": "clawhub", "stars": 0, "tags": null, "updated_at": 1776698570452, "version": "1.0.0"}, {"category": "", "created_at": 1774878686070, "description": "Batch-convert 한컴 한글 문서(HWP/HWPX) on Windows into PDF and other export formats with a Korean-friendly automation workflow. Use when the user asks for 이 폴더 hwp...", "description_zh": "在 Windows 上批量将韩文 HWP/HWPX 文档转换为 PDF 及其他格式，提供适合韩语用户的自动化工作流。", "downloads": 27, "homepage": "https://clawhub.ai/twbeatles/hwp-batch-convert", "iconUrl": null, "installs": 0, "name": "Hwp Batch Convert", "ownerName": "twbeatles", "score": 100000, "slug": "hwp-batch-convert", "source": "clawhub", "stars": 0, "tags": null, "updated_at": 1776698570450, "version": "0.2.1"}, {"category": "", "created_at": 1774911429435, "description": "Query EASA Easy Access Rules locally with exact reference lookup, full-text search, and semantic search. Use when answering EASA regulatory questions, retrie...", "description_zh": "本地查询EASA Easy Access Rules，支持精确引用查找、全文搜索和语义搜索。适用于解答EASA法规问题及检索相关条款。", "downloads": 27, "homepage": "https://clawhub.ai/dmoraine/claw-easa", "iconUrl": null, "installs": 0, "name": "EASA Regulatory Search", "ownerName": "dmoraine", "score": 100000, "slug": "claw-easa", "source": "clawhub", "stars": 0, "tags": ["aviation", "compliance", "ear", "easa", "regulations"], "updated_at": 1776698570449, "version": "1.0.0"}, {"category": "", "created_at": 1774899899107, "description": "MOCO integration. Manage Organizations. Use when the user wants to interact with MOCO data.", "description_zh": "MOCO集成，管理组织，用于用户与MOCO数据交互。", "downloads": 27, "homepage": "https://clawhub.ai/gora050/moco", "iconUrl": null, "installs": 0, "name": "Moco", "ownerName": "gora050", "score": 100000, "slug": "moco", "source": "clawhub", "stars": 0, "tags": null, "updated_at": 1776698570447, "version": "1.0.0"}, {"category": "", "created_at": 1774905258243, "description": "Badger Maps integration. Manage data, records, and automate workflows. Use when the user wants to interact with Badger Maps data.", "description_zh": "Badger Maps 集成。管理数据与记录，自动化工作流。用于用户需交互 Badger Maps 数据时。", "downloads": 27, "homepage": "https://clawhub.ai/membranedev/badger-maps", "iconUrl": null, "installs": 0, "name": "Badger Maps", "ownerName": "membranedev", "score": 100000, "slug": "badger-maps", "source": "clawhub", "stars": 0, "tags": null, "updated_at": 1776698570436, "version": "1.0.0"}, {"category": "", "created_at": 1774869844574, "description": "Implement forgetting mechanisms for AI systems to manage memory overload, improve performance, and maintain data privacy. Use when working with long-term AI...", "description_zh": "为AI系统实现遗忘机制，以管理内存过载、提升性能并维护数据隐私。适用于长期AI系统的开发。", "downloads": 27, "homepage": "https://clawhub.ai/roryyu/forget-something", "iconUrl": null, "installs": 0, "name": "Forget Something", "ownerName": "roryyu", "score": 100000, "slug": "forget-something", "source": "clawhub", "stars": 0, "tags": null, "updated_at": 1776698570429, "version": "0.1.0"}, {"category": "", "created_at": 1774886515292, "description": "Autonomous mobile robot fleet manager. Use when json amr tasks, csv amr tasks, checking amr status.", "description_zh": "自主移动机器人车队管理器。用于处理JSON/CSV格式的AMR任务及查看AMR状态。", "downloads": 27, "homepage": "https://clawhub.ai/bytesagain1/amr", "iconUrl": null, "installs": 0, "name": "Amr", "ownerName": "bytesagain1", "score": 100000, "slug": "amr", "source": "clawhub", "stars": 0, "tags": null, "updated_at": 1776698570425, "version": "1.0.0"}, {"category": "", "created_at": 1774866613757, "description": "Circadian rhythm and biological clock optimization guide. Help users align sleep, meals, exercise, and work with their natural body clock. Use when users ask...", "description_zh": "昼夜节律和生物钟优化指南。帮助用户将睡眠、饮食、运动和工作与自然生物钟相协调。当用户询问相关问题时使用。", "downloads": 27, "homepage": "https://clawhub.ai/jiwenbing/body-clock", "iconUrl": null, "installs": 0, "name": "Body Clock", "ownerName": "jiwenbing", "score": 100000, "slug": "body-clock", "source": "clawhub", "stars": 0, "tags": null, "updated_at": 1776698570420, "version": "1.0.0"}, {"category": "", "created_at": 1774885377099, "description": "Bug修复流程规范：包含反省、检查模块逻辑语法、对比官方文档、性能检查，以及修复后写Fix Report。触发条件：用户反馈有bug时。", "description_zh": "Bug修复流程规范：包含反省、检查模块逻辑语法、对比官方文档、性能检查，以及修复后写Fix Report。触发条件：用户反馈有bug时。", "downloads": 27, "homepage": "https://clawhub.ai/miyahui/bug-reflection", "iconUrl": null, "installs": 2, "name": "bug reflection for debugging", "ownerName": "miyahui", "score": 100000, "slug": "bug-reflection", "source": "clawhub", "stars": 0, "tags": null, "updated_at": 1776698570418, "version": "1.0.0"}, {"category": "", "created_at": 1774890090344, "description": "［何时使用］当用户需要评估技能质量时；当用户说\"检查这个 skill\"时；当创建或修改 skill 后需要验证时；当检测到\"skill 优化\"\"skill 评估\"\"技能检查\"等关键词时；当批量检查多个技能时", "description_zh": "［何时使用］当用户需要评估技能质量时；当用户说\"检查这个 skill\"时；当创建或修改 skill 后需要验证时；当检测到\"skill 优化\"\"skill 评估\"\"技能检查\"等关键词时；当批量检查多个技能时", "downloads": 27, "homepage": "https://clawhub.ai/lj22503/lj22503-skill-optimizer", "iconUrl": null, "installs": 0, "name": "Skill Optimizer", "ownerName": "lj22503", "score": 100000, "slug": "lj22503-skill-optimizer", "source": "clawhub", "stars": 0, "tags": null, "updated_at": 1776698570415, "version": "1.0.1"}, {"category": "", "created_at": 1774925598292, "description": "Feel the awe of an ancient lunar ritual as the supermoon bathes Kyoto’s temple gardens in silver light. Wander the lantern‑lit paths, sync your pulse with th...", "description_zh": "在超级月亮的银辉下，感受京都寺院庭园中古老月祭的震撼。漫步于灯笼照亮的小径，让心跳与...", "downloads": 27, "homepage": "https://clawhub.ai/driftsbot/experience-moon-drunk-kyoto", "iconUrl": null, "installs": 0, "name": "Experience Moon Drunk Kyoto", "ownerName": "driftsbot", "score": 100000, "slug": "experience-moon-drunk-kyoto", "source": "clawhub", "stars": 0, "tags": null, "updated_at": 1776698570411, "version": "1.0.0"}, {"category": "", "created_at": 1774888036160, "description": "Formsite integration. Manage Forms, Users. Use when the user wants to interact with Formsite data.", "description_zh": "Formsite集成。管理表单和用户。当用户需要与Formsite数据交互时使用。", "downloads": 27, "homepage": "https://clawhub.ai/gora050/formsite", "iconUrl": null, "installs": 0, "name": "Formsite", "ownerName": "gora050", "score": 100000, "slug": "formsite", "source": "clawhub", "stars": 0, "tags": null, "updated_at": 1776698570409, "version": "1.0.0"}, {"category": "", "created_at": 1774917350246, "description": "(元技能) 视觉对标视频搜索器，通过指导AI调用其他工具，为项目确认视觉风格。", "description_zh": "(元技能) 视觉对标视频搜索器，通过指导AI调用其他工具，为项目确认视觉风格。", "downloads": 27, "homepage": "https://clawhub.ai/ahsbnb/visual-benchmarker", "iconUrl": null, "installs": 0, "name": "Visual Benchmarker", "ownerName": "ahsbnb", "score": 100000, "slug": "visual-benchmarker", "source": "clawhub", "stars": 0, "tags": null, "updated_at": 1776698570407, "version": "1.0.0"}, {"category": "", "created_at": 1774918478199, "description": "MParticle integration. Manage data, records, and automate workflows. Use when the user wants to interact with MParticle data.", "description_zh": "MParticle 集成。管理数据、记录并自动化工作流程。当用户想要与 MParticle 数据交互时使用。", "downloads": 27, "homepage": "https://clawhub.ai/gora050/mparticle", "iconUrl": null, "installs": 0, "name": "Mparticle", "ownerName": "gora050", "score": 100000, "slug": "mparticle", "source": "clawhub", "stars": 0, "tags": null, "updated_at": 1776698570405, "version": "1.0.0"}, {"category": "", "created_at": 1774924331205, "description": "Generate avatar videos from a script and image using the LovelyBots API. Queue a video, poll for completion, and retrieve a download URL — all in one workflo...", "description_zh": "通过LovelyBots API，根据脚本和图片生成虚拟形象视频。一站式完成视频排队、轮询进度并获取下载链接。", "downloads": 27, "homepage": "https://clawhub.ai/georgegally/lovelybots-video", "iconUrl": null, "installs": 0, "name": "LovelyBits", "ownerName": "georgegally", "score": 100000, "slug": "lovelybots-video", "source": "clawhub", "stars": 0, "tags": null, "updated_at": 1776698570403, "version": "1.0.0"}, {"category": "", "created_at": 1774919854378, "description": "Feel the awe of watching southern auroras dance over Dover’s white cliffs while you track shifting electromagnetic currents. This field science session blend...", "description_zh": "感受观看南极光在多佛白色悬崖上舞动的震撼，同时追踪变化的电磁流。本实地科学课程融合……", "downloads": 27, "homepage": "https://clawhub.ai/driftsbot/experience-dover-storm-watch", "iconUrl": null, "installs": 0, "name": "Experience Dover Storm Watch", "ownerName": "driftsbot", "score": 100000, "slug": "experience-dover-storm-watch", "source": "clawhub", "stars": 0, "tags": null, "updated_at": 1776698570401, "version": "1.0.0"}, {"category": "", "created_at": 1774954346183, "description": "GraphHopper integration. Manage Maps. Use when the user wants to interact with GraphHopper data.", "description_zh": "集成GraphHopper，管理地图。用于用户需要与GraphHopper数据交互时。", "downloads": 27, "homepage": "https://clawhub.ai/gora050/graphhopper", "iconUrl": null, "installs": 0, "name": "Graphhopper", "ownerName": "gora050", "score": 100000, "slug": "graphhopper", "source": "clawhub", "stars": 0, "tags": null, "updated_at": 1776698570398, "version": "1.0.0"}, {"category": "", "created_at": 1774905084837, "description": "Zksync reference tool. Use when working with zksync in blockchain contexts.", "description_zh": "Zksync 参考工具，用于在区块链场景下使用 zksync。", "downloads": 27, "homepage": "https://clawhub.ai/bytesagain1/zksync", "iconUrl": null, "installs": 0, "name": "Zksync", "ownerName": "bytesagain1", "score": 100000, "slug": "zksync", "source": "clawhub", "stars": 0, "tags": null, "updated_at": 1776698570390, "version": "1.0.0"}, {"category": "", "created_at": 1774850409297, "description": "A comprehensive prompt-based skill about the number 2. This skill provides rich knowledge covering the mathematical properties, history, cultural significanc...", "description_zh": "一个关于数字2的综合提示词技能。提供丰富的知识，涵盖数学特性、历史、文化意义等方面。", "downloads": 27, "homepage": "https://clawhub.ai/wscats/2", "iconUrl": null, "installs": 1, "name": "2", "ownerName": "wscats", "score": 100000, "slug": "2", "source": "clawhub", "stars": 0, "tags": null, "updated_at": 1776698570388, "version": "1.0.8"}, {"category": "", "created_at": 1774866583272, "description": "Automatically capture corrections, failures, and reusable discoveries into `.learnings/` files using signal-based filtering. Triggers when the user corrects...", "description_zh": "利用信号过滤自动将更正、失败和可复用发现捕获至`.learnings/`文件。当用户更正时触发……", "downloads": 27, "homepage": "https://clawhub.ai/omaression/auto-improving-agent", "iconUrl": null, "installs": 0, "name": "Auto Improving Agent", "ownerName": "omaression", "score": 100000, "slug": "auto-improving-agent", "source": "clawhub", "stars": 0, "tags": null, "updated_at": 1776698570386, "version": "1.0.0-alpha"}, {"category": "", "created_at": 1774956071669, "description": "Understand, summarize, translate, and extract key points from YouTube videos. Use when a user provides a YouTube URL and wants: (1) a Chinese summary, (2) a...", "description_zh": "理解、总结、翻译YouTube视频内容并提取关键要点。适用于用户提供YouTube链接并需要中文摘要等场景。", "downloads": 27, "homepage": "https://clawhub.ai/benheee/youtube-digest", "iconUrl": null, "installs": 0, "name": "YouTube Digest", "ownerName": "benheee", "score": 100000, "slug": "youtube-digest", "source": "clawhub", "stars": 0, "tags": null, "updated_at": 1776698570384, "version": "1.0.0"}, {"category": "", "created_at": 1774905945015, "description": "Signaturely integration. Manage Documents, Users, Teams. Use when the user wants to interact with Signaturely data.", "description_zh": "Signaturely集成。管理文档、用户和团队。当用户需要操作Signaturely数据时使用。", "downloads": 27, "homepage": "https://clawhub.ai/gora050/signaturely", "iconUrl": null, "installs": 0, "name": "Signaturely", "ownerName": "gora050", "score": 100000, "slug": "signaturely", "source": "clawhub", "stars": 0, "tags": null, "updated_at": 1776698570381, "version": "1.0.0"}, {"category": "", "created_at": 1774890027715, "description": "Hydration reference — daily water intake, electrolytes, dehydration signs, exercise hydration, rehydration protocols. Use when planning fluid intake for heal...", "description_zh": "{\"answer\":\"补水参考——每日饮水量、电解质、脱水迹象、运动补水及补液方案。用于规划健康补水……\"}", "downloads": 27, "homepage": "https://clawhub.ai/xueyetianya/hydrate", "iconUrl": null, "installs": 0, "name": "Hydrate", "ownerName": "xueyetianya", "score": 100000, "slug": "hydrate", "source": "clawhub", "stars": 0, "tags": null, "updated_at": 1776698570379, "version": "1.0.0"}, {"category": "", "created_at": 1775398290290, "description": "", "description_zh": "AI Bug修复助手 - 基于 mini-swe-agent 设计理念\n\n**触发信号**：\n- \"修bug\"、\"修复bug\"、\"帮我看看这个代码\"\n- \"代码有问题\"、粘贴错误信息\n- \"扫描项目\"、\"自动修复\"\n\n**功能**：\n- 确定性规则快速扫描（日期排序、嵌套列表等）\n- AI深度分析（复杂逻辑、安全漏洞）\n- 自动修复简单Bug\n- 问题分级报告\n\n**设计理念**：\n- 基于 mini-swe-agent：更少代码，更强提示词\n- 确定性规则硬编码，复杂模式交给AI推理\n- 信任模型，不过度工程", "downloads": 27, "homepage": "https://clawhub.ai/user_00c9b356/buddy-bug-fixer", "iconUrl": null, "installs": 1, "name": "bug-fixer", "ownerName": "user_00c9b356", "score": 100000, "slug": "buddy-bug-fixer", "source": "community", "stars": 0, "tags": null, "updated_at": 1776698570377, "version": "1.0.0"}, {"category": "", "created_at": 1774862529763, "description": "Design outbound GTM campaigns and write ready-to-send sequences. Use when building a new outbound motion, writing cold email or LinkedIn outreach, designing...", "description_zh": "设计外展 GTM 活动并撰写可直接发送的序列。适用于新外展布局、冷邮件或 LinkedIn 外展以及相关设计。", "downloads": 27, "homepage": "https://clawhub.ai/davidslavich/gtm-outbound-strategy", "iconUrl": null, "installs": 0, "name": "GTM Outbound Strategy", "ownerName": "davidslavich", "score": 100000, "slug": "gtm-outbound-strategy", "source": "clawhub", "stars": 0, "tags": null, "updated_at": 1776698570370, "version": "1.0.0"}, {"category": "", "created_at": 1774926203377, "description": "A multimodal emotional perception and Hanzi-based ambient art rendering engine. Empowers the OpenClaw agent to act as a spatial empath, translating human emo...", "description_zh": "{\n  \"answer\": \"多模态情感感知与汉字环境艺术渲染引擎。赋能 OpenClaw 代理成为空间共情者，将人类情感转化为...\"\n}", "downloads": 27, "homepage": "https://clawhub.ai/spacesq/s2-hanzi-empathic-resonance", "iconUrl": null, "installs": 1, "name": "S2 Hanzi Empathic Resonance", "ownerName": "spacesq", "score": 100000, "slug": "s2-hanzi-empathic-resonance", "source": "clawhub", "stars": 0, "tags": null, "updated_at": 1776698570366, "version": "1.0.0"}, {"category": "", "created_at": 1774898891999, "description": "Order from Walgreens via Strider Labs MCP connector. Refill prescriptions, shop health products, earn myWalgreens rewards, schedule vaccinations. Complete au...", "description_zh": "通过Strider Labs MCP连接器访问Walgreens：续订处方、购买健康产品、获取myWalgreens奖励及预约疫苗接种。", "downloads": 27, "homepage": "https://clawhub.ai/markswendsen-code/strider-walgreens", "iconUrl": null, "installs": 0, "name": "Strider Walgreens", "ownerName": "markswendsen-code", "score": 100000, "slug": "strider-walgreens", "source": "clawhub", "stars": 0, "tags": null, "updated_at": 1776698570364, "version": "1.0.0"}, {"category": "", "created_at": 1774924661058, "description": "基于R-O框架（角色&现实情况、对象&输出）优化用户提示词，将普通需求转化为专业、结构化的AI提示词，以激发AI最大潜力。当用户需要优化提示词、改善与AI的交互效果、创建更有效的指令时使用此技能。", "description_zh": "基于R-O框架（角色&现实情况、对象&输出）优化用户提示词，将普通需求转化为专业、结构化的AI提示词，以激发AI最大潜力。当用户需要优化提示词、改善与AI的交互效果、创建更有效的指令时使用此技能。", "downloads": 27, "homepage": "https://clawhub.ai/dukeacco/ro-prompt-optimizer", "iconUrl": null, "installs": 2, "name": "Ro Prompt Optimizer", "ownerName": "dukeacco", "score": 100000, "slug": "ro-prompt-optimizer", "source": "clawhub", "stars": 0, "tags": null, "updated_at": 1776698570357, "version": "1.0.0"}, {"category": "", "created_at": 1774911187620, "description": "Salespype integration. Manage Organizations. Use when the user wants to interact with Salespype data.", "description_zh": "Salespype集成。管理组织。用于用户想要与Salespype数据交互时。", "downloads": 27, "homepage": "https://clawhub.ai/gora050/salespype", "iconUrl": null, "installs": 1, "name": "Salespype", "ownerName": "gora050", "score": 100000, "slug": "salespype", "source": "clawhub", "stars": 0, "tags": null, "updated_at": 1776698570356, "version": "1.0.0"}, {"category": "", "created_at": 1774877961047, "description": "Spondyr integration. Manage Organizations. Use when the user wants to interact with Spondyr data.", "description_zh": "Spondyr集成。管理组织。当用户需要与Spondyr数据交互时使用。", "downloads": 27, "homepage": "https://clawhub.ai/membranedev/spondyr", "iconUrl": null, "installs": 0, "name": "Spondyr", "ownerName": "membranedev", "score": 100000, "slug": "spondyr", "source": "clawhub", "stars": 0, "tags": null, "updated_at": 1776698570354, "version": "1.0.0"}, {"category": "", "created_at": 1774864364503, "description": "Log and track vital signs including blood pressure, blood sugar, weight, heart rate, and temperature. Use when users record health measurements or want to re...", "description_zh": "记录并追踪血压、血糖、体重、心率和体温等生命体征。适用于用户记录健康测量或查询历史数据。", "downloads": 27, "homepage": "https://clawhub.ai/jiwenbing/vitals-log", "iconUrl": null, "installs": 0, "name": "Vitals Log", "ownerName": "jiwenbing", "score": 100000, "slug": "vitals-log", "source": "clawhub", "stars": 0, "tags": null, "updated_at": 1776698570352, "version": "1.0.0"}, {"category": "", "created_at": 1774893859059, "description": "Lightweight cognitive memory system for AI agents by Automaton. Auto-save conversations, quick recall, session management.", "description_zh": "Automaton 轻量认知记忆系统，AI代理自动保存会话、快速检索、会话管理。", "downloads": 27, "homepage": "https://clawhub.ai/chenghaifeng08-creator/smart-memory-lite-automaton", "iconUrl": null, "installs": 1, "name": "smart-memory-lite (Automaton)", "ownerName": "chenghaifeng08-creator", "score": 81818.18181818182, "slug": "smart-memory-lite-automaton", "source": "clawhub", "stars": 0, "tags": null, "updated_at": 1776698570349, "version": "1.0.1"}, {"category": "", "created_at": 1774879323875, "description": "分析和总结URL链接内容，并保存到obsidian中，同时定期提醒复习", "description_zh": "分析和总结URL链接内容，并保存到obsidian中，同时定期提醒复习", "downloads": 27, "homepage": "https://clawhub.ai/nbutmickey/smart-collect", "iconUrl": null, "installs": 0, "name": "smart-collect", "ownerName": "nbutmickey", "score": 81818.18181818182, "slug": "smart-collect", "source": "clawhub", "stars": 0, "tags": null, "updated_at": 1776698570345, "version": "1.0.0"}, {"category": "", "created_at": 1774905965333, "description": "Slash GraphQL integration. Manage data, records, and automate workflows. Use when the user wants to interact with Slash GraphQL data.", "description_zh": "Slash GraphQL 集成，管理数据、记录并自动化工作流。当用户需要与 Slash GraphQL 数据交互时使用。", "downloads": 27, "homepage": "https://clawhub.ai/gora050/slash-graphql", "iconUrl": null, "installs": 0, "name": "Slash Graphql", "ownerName": "gora050", "score": 81818.18181818182, "slug": "slash-graphql", "source": "clawhub", "stars": 0, "tags": null, "updated_at": 1776698570341, "version": "1.0.0"}]}