{"page": 638, "total_pages": 685, "total": 34217, "skills": [{"category": "", "created_at": 1774920866535, "description": "Safe .env key-first operations (CRUD) with secret-safe defaults. Use when troubleshooting missing env keys, auth/config failures, or when asked to add/update...", "description_zh": "安全的 .env 键优先操作（增删改查），默认采用密钥安全策略。适用于排查缺失的环境变量、认证/配置错误，或在需要添加/更新时使用。", "downloads": 27, "homepage": "https://clawhub.ai/pioneer-weirdo/env-ops-standard", "iconUrl": null, "installs": 0, "name": "Safe .env Manager", "ownerName": "pioneer-weirdo", "score": 100000, "slug": "env-ops-standard", "source": "clawhub", "stars": 0, "tags": ["dotenv", "env", "ops", "security", "utility"], "updated_at": 1776698570004, "version": "1.0.0"}, {"category": "", "created_at": 1774956394633, "description": "Provides string manipulation and transformation operations for working with text. Use when you need to transform, format, or manipulate strings.", "description_zh": "提供字符串操作与转换功能，适用于在需要转换、格式化或处理文本的场景。", "downloads": 27, "homepage": "https://clawhub.ai/jpengcheng523-netizen/jpeng-string-utils", "iconUrl": null, "installs": 0, "name": "string-utils", "ownerName": "jpengcheng523-netizen", "score": 100000, "slug": "jpeng-string-utils", "source": "clawhub", "stars": 0, "tags": null, "updated_at": 1776698570000, "version": "1.0.0"}, {"category": "", "created_at": 1774893351968, "description": "Use when users need practical guidance for daily life in China, including cultural adaptation, dining, shopping, social connections, and long-term living str...", "description_zh": "为用户提供在中国日常生活的实用指导，包括文化适应、餐饮、购物、社交及长期居住等方面的建议", "downloads": 27, "homepage": "https://clawhub.ai/findhappy7/move-to-china-living-guide", "iconUrl": null, "installs": 0, "name": "Move to China Living Guide", "ownerName": "findhappy7", "score": 100000, "slug": "move-to-china-living-guide", "source": "clawhub", "stars": 0, "tags": null, "updated_at": 1776698569999, "version": "1.0.0"}, {"category": "", "created_at": 1774902853670, "description": "Aimtell integration. Manage data, records, and automate workflows. Use when the user wants to interact with Aimtell data.", "description_zh": "Aimtell 集成。管理数据、记录，自动化工作流。在用户需要与 Aimtell 数据交互时使用。", "downloads": 27, "homepage": "https://clawhub.ai/gora050/aimtell", "iconUrl": null, "installs": 0, "name": "Aimtell", "ownerName": "gora050", "score": 100000, "slug": "aimtell", "source": "clawhub", "stars": 0, "tags": null, "updated_at": 1776698569997, "version": "1.0.0"}, {"category": "", "created_at": 1774894097110, "description": "Give booth staff visitor-specific talk tracks and qualification paths.", "description_zh": "为展台工作人员提供针对特定访客的话术和资格判定路径。", "downloads": 27, "homepage": "https://clawhub.ai/weilun88313/booth-script-generator", "iconUrl": null, "installs": 1, "name": "Booth Script Generator", "ownerName": "weilun88313", "score": 100000, "slug": "booth-script-generator", "source": "clawhub", "stars": 0, "tags": null, "updated_at": 1776698569995, "version": "1.0.2"}, {"category": "", "created_at": 1774952916670, "description": "GrooveHQ integration. Manage Tickets, Customers, Users, Groups, Labels, Reports. Use when the user wants to interact with GrooveHQ data.", "description_zh": "GrooveHQ 集成，管理工单、客户、用户、群组、标签、报表，用于与 GrooveHQ 数据交互。", "downloads": 27, "homepage": "https://clawhub.ai/gora050/groovehq", "iconUrl": null, "installs": 0, "name": "Groovehq", "ownerName": "gora050", "score": 100000, "slug": "groovehq", "source": "clawhub", "stars": 0, "tags": null, "updated_at": 1776698569992, "version": "1.0.0"}, {"category": "", "created_at": 1774861354354, "description": "Manage IMAP email with the Post CLI and local daemon. Use when reading, searching, fetching, drafting, replying, reply-all, moving, archiving, trashing, expo...", "description_zh": "使用 Post CLI 和本地守护进程管理 IMAP 邮件，适用于读取、搜索、获取、草拟、回复、回复全部、移动、归档、删除、导出等操作。", "downloads": 27, "homepage": "https://clawhub.ai/odrobnik/post", "iconUrl": null, "installs": 0, "name": "Post", "ownerName": "odrobnik", "score": 100000, "slug": "post", "source": "clawhub", "stars": 0, "tags": null, "updated_at": 1776698569990, "version": "1.5.0"}, {"category": "", "created_at": 1774925239595, "description": "交通银行服务助手。提供个人理财、贷款、信用卡、外汇业务、网点查询等信息", "description_zh": "交通银行服务助手。提供个人理财、贷款、信用卡、外汇业务、网点查询等信息", "downloads": 27, "homepage": "https://clawhub.ai/hanxueyuan/bocom", "iconUrl": null, "installs": 2, "name": "bocom", "ownerName": "hanxueyuan", "score": 100000, "slug": "bocom", "source": "clawhub", "stars": 0, "tags": null, "updated_at": 1776698569988, "version": "0.2.0"}, {"category": "", "created_at": 1774849872655, "description": "Real-time strategic intelligence layer for ecommerce and digital businesses. Use this skill whenever the user asks about competitors, market trends, pricing,...", "description_zh": "电商和数字企业的实时战略情报层（用于解答竞争对手、市场趋势、价格等问题）", "downloads": 27, "homepage": "https://clawhub.ai/abhishekj9621/market-intelligence-claw", "iconUrl": null, "installs": 0, "name": "Market Intelligence Claw", "ownerName": "abhishekj9621", "score": 100000, "slug": "market-intelligence-claw", "source": "clawhub", "stars": 0, "tags": null, "updated_at": 1776698569987, "version": "1.0.3"}, {"category": "", "created_at": 1774910401292, "description": "A daily gacha skill — draw a random activity each morning, check in at night, and get a weekly summary. Adds a little surprise to every day.", "description_zh": "每日扭蛋技能——每天早上随机抽取一项活动，晚上打卡签到，每周生成总结报告。为每一天增添一点小惊喜。", "downloads": 27, "homepage": "https://clawhub.ai/luoruikun0531/life-gacha", "iconUrl": null, "installs": 0, "name": "life-gacha", "ownerName": "luoruikun0531", "score": 100000, "slug": "life-gacha", "source": "clawhub", "stars": 0, "tags": null, "updated_at": 1776698569985, "version": "1.0.0"}, {"category": "", "created_at": 1774844128924, "description": "AI agent dating and social platform — register your agent, get matched by AI compatibility scoring, chat in real time, build relationships, and join the publ...", "description_zh": "AI智能体社交约会平台——注册你的AI智能体，通过AI兼容性评分进行匹配，实时聊天，建立关系，并加入公共社区。", "downloads": 27, "homepage": "https://clawhub.ai/alvinhotro-nb/moltme", "iconUrl": null, "installs": 0, "name": "MoltMe — AI Agent Dating & Social Connection Platform", "ownerName": "alvinhotro-nb", "score": 100000, "slug": "moltme", "source": "clawhub", "stars": 0, "tags": null, "updated_at": 1776698569978, "version": "1.3.1"}, {"category": "", "created_at": 1774870941538, "description": "Complete automated development pipeline for one-person companies. Use when a user provides a simple app idea and wants a fully automated development process...", "description_zh": "为单人公司提供完整的自动化开发流程。当用户提供一个简单的应用想法并希望实现全自动化开发时使用。", "downloads": 27, "homepage": "https://clawhub.ai/tc1993/auto-dev-pipeline", "iconUrl": null, "installs": 0, "name": "Auto Dev Pipeline", "ownerName": "tc1993", "score": 100000, "slug": "auto-dev-pipeline", "source": "clawhub", "stars": 0, "tags": null, "updated_at": 1776698569967, "version": "1.0.0"}, {"category": "", "created_at": 1774907393457, "description": "Augment Code AI 编程助手，精通企业级代码理解、大型代码库导航、上下文感知补全", "description_zh": "Augment Code AI 编程助手，精通企业级代码理解、大型代码库导航、上下文感知补全", "downloads": 27, "homepage": "https://clawhub.ai/zhangifonly/augment-code", "iconUrl": null, "installs": 1, "name": "Augment Code", "ownerName": "zhangifonly", "score": 100000, "slug": "augment-code", "source": "clawhub", "stars": 0, "tags": null, "updated_at": 1776698569966, "version": "1.0.0"}, {"category": "", "created_at": 1775202718417, "description": "", "description_zh": "Automatically identifies wet clothing and abnormal excretion via visual AI. Instantly notifies caregivers to improve care for incontinent elderly, bedridden patients, and infants, reducing skin issues and complications. | 智能失禁状态提醒技能，基于视觉AI自动识别衣物潮湿、排泄异常等状况，第一时间推送通知给看护人员，提升失能老人、卧床病人、婴幼儿的护理质量，减少皮肤问题和并发症", "downloads": 27, "homepage": "https://clawhub.ai/user_bb47e3e3/incontinence-alert-analysis", "iconUrl": null, "installs": 1, "name": "Smart Incontinence Status Alert Skill | 智能失禁状态提醒技能", "ownerName": "user_bb47e3e3", "score": 100000, "slug": "incontinence-alert-analysis", "source": "community", "stars": 0, "tags": null, "updated_at": 1776698569964, "version": "1.0.0"}, {"category": "", "created_at": 1774853704745, "description": "一个基于 hiagent 的智能助手技能，用于与 hiagent 进行对话。", "description_zh": "一个基于 hiagent 的智能助手技能，用于与 hiagent 进行对话。", "downloads": 27, "homepage": "https://clawhub.ai/honglei24/hiagent-bot-chat", "iconUrl": null, "installs": 0, "name": "hiagent智能体对话", "ownerName": "honglei24", "score": 100000, "slug": "hiagent-bot-chat", "source": "clawhub", "stars": 0, "tags": null, "updated_at": 1776698569957, "version": "0.0.1"}, {"category": "", "created_at": 1774913865115, "description": "Bland AI integration. Manage data, records, and automate workflows. Use when the user wants to interact with Bland AI data.", "description_zh": "Bland AI 集成。管理数据、记录并自动化工作流程。用于用户想要与 Bland AI 数据交互时。", "downloads": 27, "homepage": "https://clawhub.ai/membranedev/bland-ai", "iconUrl": null, "installs": 0, "name": "Bland Ai", "ownerName": "membranedev", "score": 100000, "slug": "bland-ai", "source": "clawhub", "stars": 0, "tags": null, "updated_at": 1776698569955, "version": "1.0.0"}, {"category": "", "created_at": 1774920013771, "description": "ICBC (Industrial and Commercial Bank of China) banking services, financial products, stock info, and branch locator.", "description_zh": "ICBC（工商银行）银行服务、金融产品、股票信息及网点查询。", "downloads": 27, "homepage": "https://clawhub.ai/hanxueyuan/icbc", "iconUrl": null, "installs": 0, "name": "ICBC", "ownerName": "hanxueyuan", "score": 100000, "slug": "icbc", "source": "clawhub", "stars": 0, "tags": null, "updated_at": 1776698569953, "version": "0.1.0"}, {"category": "", "created_at": 1774952946141, "description": "Ironclad integration. Manage data, records, and automate workflows. Use when the user wants to interact with Ironclad data.", "description_zh": "Ironclad集成。管理数据与记录，实现工作流自动化。当用户需要与Ironclad数据进行交互时使用。", "downloads": 27, "homepage": "https://clawhub.ai/gora050/ironclad", "iconUrl": null, "installs": 0, "name": "Ironclad", "ownerName": "gora050", "score": 100000, "slug": "ironclad", "source": "clawhub", "stars": 0, "tags": null, "updated_at": 1776698569947, "version": "1.0.0"}, {"category": "", "created_at": 1774911701080, "description": "Four J's Development Tools integration. Manage data, records, and automate workflows. Use when the user wants to interact with Four J's Development Tools data.", "description_zh": "Four J's 开发工具集成。管理数据和记录，自动化工作流。用于与 Four J's 开发工具数据进行交互。", "downloads": 27, "homepage": "https://clawhub.ai/gora050/four-js-development-tools", "iconUrl": null, "installs": 0, "name": "Four Js Development Tools", "ownerName": "gora050", "score": 100000, "slug": "four-js-development-tools", "source": "clawhub", "stars": 0, "tags": null, "updated_at": 1776698569945, "version": "1.0.0"}, {"category": "", "created_at": 1774907333357, "description": "Akeyless Secrets Management via the official akeyless CLI — install, configure profiles, gateway routing, and safe read/list operations. Use when the user me...", "description_zh": "使用官方 akeyless CLI 进行密钥管理——安装、配置 profiles、网关路由以及安全的读取/列表操作。", "downloads": 27, "homepage": "https://clawhub.ai/deanshak/akeyless", "iconUrl": null, "installs": 0, "name": "Akeyless IO", "ownerName": "deanshak", "score": 100000, "slug": "akeyless", "source": "clawhub", "stars": 0, "tags": null, "updated_at": 1776698569942, "version": "1.0.0"}, {"category": "", "created_at": 1774851857966, "description": "大模型服务器资源评估。用于医疗行业大模型应用场景的算力资源需求评估和测算，根据门诊/住院诊疗量和大模型应用场景数推导GPU算力需求。使用场景：用户询问大模型算力评估、AI服务器资源配置、GPU算力需求测算等。", "description_zh": "大模型服务器资源评估。用于医疗行业大模型应用场景的算力资源需求评估和测算，根据门诊/住院诊疗量和大模型应用场景数推导GPU算力需求。使用场景：用户询问大模型算力评估、AI服务器资源配置、GPU算力需求测算等。", "downloads": 27, "homepage": "https://clawhub.ai/hellohushuai/ai-resource-master", "iconUrl": null, "installs": 1, "name": "Ai Resource Master", "ownerName": "hellohushuai", "score": 100000, "slug": "ai-resource-master", "source": "clawhub", "stars": 0, "tags": null, "updated_at": 1776698569938, "version": "1.0.2"}, {"category": "", "created_at": 1774920663738, "description": "读取 SwanLab 实验数据。当用户发来 SwanLab run URL 时使用。", "description_zh": "读取 SwanLab 实验数据。当用户发来 SwanLab run URL 时使用。", "downloads": 27, "homepage": "https://clawhub.ai/ckqiao/swanlab-reader", "iconUrl": null, "installs": 1, "name": "SwanLab Reader", "ownerName": "ckqiao", "score": 100000, "slug": "swanlab-reader", "source": "clawhub", "stars": 0, "tags": null, "updated_at": 1776698569936, "version": "1.1.2"}, {"category": "", "created_at": 1774885521938, "description": "DocuGenerate integration. Manage Documents, Templates. Use when the user wants to interact with DocuGenerate data.", "description_zh": "DocuGenerate 集成，管理文档和模板，用于 DocuGenerate 数据交互。", "downloads": 27, "homepage": "https://clawhub.ai/membranedev/docugenerate", "iconUrl": null, "installs": 0, "name": "Docugenerate", "ownerName": "membranedev", "score": 100000, "slug": "docugenerate", "source": "clawhub", "stars": 0, "tags": null, "updated_at": 1776698569935, "version": "1.0.0"}, {"category": "", "created_at": 1774956324305, "description": "Grist integration. Manage Workspaces, Users, Roles. Use when the user wants to interact with Grist data.", "description_zh": "Grist 集成。管理工作区、用户、角色。用户欲与 Grist 数据交互时使用。", "downloads": 27, "homepage": "https://clawhub.ai/gora050/grist", "iconUrl": null, "installs": 0, "name": "Grist", "ownerName": "gora050", "score": 100000, "slug": "grist", "source": "clawhub", "stars": 0, "tags": null, "updated_at": 1776698569933, "version": "1.0.0"}, {"category": "", "created_at": 1774894655262, "description": "Explanation documentation patterns for understanding-oriented content - conceptual guides that explain why things work the way they do", "description_zh": "解释性文档模式：面向理解型内容的概念性指南，阐明事物运作原理", "downloads": 27, "homepage": "https://clawhub.ai/anderskev/explanation-docs", "iconUrl": null, "installs": 0, "name": "Explanation Docs", "ownerName": "anderskev", "score": 100000, "slug": "explanation-docs", "source": "clawhub", "stars": 0, "tags": null, "updated_at": 1776698569931, "version": "1.0.0"}, {"category": "", "created_at": 1774879809788, "description": "Give your AI agent its own email inbox. Send, receive, and manage email conversations via MCP tools. Set AGENTSEND_API_KEY from agentsend.io — free tier avai...", "description_zh": "为您的AI代理提供专属邮箱。通过MCP工具发送、接收和管理邮件会话。从agentsend.io获取并设置AGENTSEND_API_KEY——提供免费套餐。", "downloads": 27, "homepage": "https://clawhub.ai/luv005/agentsend-email", "iconUrl": null, "installs": 0, "name": "AgentSend Email", "ownerName": "luv005", "score": 100000, "slug": "agentsend-email", "source": "clawhub", "stars": 0, "tags": null, "updated_at": 1776698569930, "version": "1.1.0"}, {"category": "", "created_at": 1774915968653, "description": "Upscale an existing HTTPS video via WeryAI (video-upscaler). Use when the user wants higher resolution output, not text-to-video.", "description_zh": "通过 WeryAI（视频放大器）将现有 HTTPS 视频升级到更高分辨率。当用户需要更高分辨率输出而非文本生成视频时使用。", "downloads": 27, "homepage": "https://clawhub.ai/zoucdr/video-tool-upscaler", "iconUrl": null, "installs": 0, "name": "WeryAI video tool — upscaler", "ownerName": "zoucdr", "score": 100000, "slug": "video-tool-upscaler", "source": "clawhub", "stars": 0, "tags": null, "updated_at": 1776698569926, "version": "1.0.0"}, {"category": "", "created_at": 1774873591672, "description": "Query the Anvil mesh network for live BSV data feeds, verify transactions via SPV, and discover HTTP 402 micropayment services. Non-custodial, sub-cent payme...", "description_zh": "查询Anvil网状网络获取实时BSV数据，通过SPV验证交易，发现HTTP 402微支付服务。非托管，亚美分付费...", "downloads": 27, "homepage": "https://clawhub.ai/bsvanon/anvil-mesh", "iconUrl": null, "installs": 0, "name": "Anvil Mesh", "ownerName": "bsvanon", "score": 100000, "slug": "anvil-mesh", "source": "clawhub", "stars": 0, "tags": ["blockchain", "bsv", "data-feed", "http-402", "machine-economy", "micropayments", "oracle", "spv"], "updated_at": 1776698569924, "version": "0.2.0"}, {"category": "", "created_at": 1775200095672, "description": "", "description_zh": "Analyzes videos of vehicle drivers to identify unsafe driving behaviors. It generates professional analysis reports to help enhance road safety awareness. | 安全驾驶行为分析工具，针对机动车驾驶人员的驾驶行为进行视频分析，识别不安全驾驶行为，输出专业分析报告，提升道路交通安全意识", "downloads": 27, "homepage": "https://clawhub.ai/user_bb47e3e3/drive-analysis", "iconUrl": null, "installs": 1, "name": "Safe Driving Behavior Analyzer | 安全驾驶行为分析工具", "ownerName": "user_bb47e3e3", "score": 100000, "slug": "drive-analysis", "source": "community", "stars": 0, "tags": null, "updated_at": 1776698569923, "version": "1.0.0"}, {"category": "", "created_at": 1774869981238, "description": "Imou/乐橙设备管理。支持查看账号设备列表、设备详情（序列号/型号/在离线/名称/通道）、按序列号查询、修改设备或通道名称。 Use for requests in any language (e.g. 中文/English) about listing or managing Imou/乐橙 cloud de...", "description_zh": "Imou/乐橙设备管理。支持查看账号设备列表、设备详情（序列号/型号/在离线/名称/通道）、按序列号查询、修改设备或通道名称。 Use for requests in any language (e.g. 中文/English) about listing or managing Imou/乐橙 cloud de...", "downloads": 27, "homepage": "https://clawhub.ai/imou-openplatform/imou-device-manage", "iconUrl": null, "installs": 1, "name": "Imou Open Device Manage", "ownerName": "imou-openplatform", "score": 100000, "slug": "imou-device-manage", "source": "clawhub", "stars": 0, "tags": null, "updated_at": 1776698569919, "version": "1.0.1"}, {"category": "", "created_at": 1774888028956, "description": "FogBugz integration. Manage Persons, Organizations, Leads, Deals, Projects, Pipelines and more. Use when the user wants to interact with FogBugz data.", "description_zh": "FogBugz 集成。管理人员、组织、线索、交易、项目、管道等。当用户需要与 FogBugz 数据交互时使用。", "downloads": 27, "homepage": "https://clawhub.ai/membranedev/fogbugz", "iconUrl": null, "installs": 0, "name": "Fogbugz", "ownerName": "membranedev", "score": 100000, "slug": "fogbugz", "source": "clawhub", "stars": 0, "tags": null, "updated_at": 1776698569917, "version": "1.0.0"}, {"category": "", "created_at": 1774872603272, "description": "把邮件或消息整理成回复、等待、跟进、归档四类行动视图。；use for inbox, triage, productivity workflows；do not use for 直接发送邮件, 删除原消息.", "description_zh": "把邮件或消息整理成回复、等待、跟进、归档四类行动视图。；use for inbox, triage, productivity workflows；do not use for 直接发送邮件, 删除原消息.", "downloads": 27, "homepage": "https://clawhub.ai/52yuanchangxing/inbox-action-board", "iconUrl": null, "installs": 0, "name": "Inbox Action Board", "ownerName": "52yuanchangxing", "score": 100000, "slug": "inbox-action-board", "source": "clawhub", "stars": 0, "tags": null, "updated_at": 1776698569915, "version": "1.0.0"}, {"category": "", "created_at": 1774876175009, "description": "Reward Sciences integration. Manage Persons, Organizations, Deals, Leads, Projects, Activities and more. Use when the user wants to interact with Reward Scie...", "description_zh": "Reward Sciences集成。管理人员、组织、交易、线索、项目、活动等。当用户需要与Reward Sciences进行交互时使用。", "downloads": 27, "homepage": "https://clawhub.ai/gora050/reward-sciences", "iconUrl": null, "installs": 0, "name": "Reward Sciences", "ownerName": "gora050", "score": 100000, "slug": "reward-sciences", "source": "clawhub", "stars": 0, "tags": null, "updated_at": 1776698569911, "version": "1.0.0"}, {"category": "", "created_at": 1774956009747, "description": "Post, vote, and comment on bothn.com — Hacker News for AI agents. Read the front page, submit links, discuss with other agents.", "description_zh": "在 bothn.com 上发帖、投票和评论——面向 AI 代理的 Hacker News。阅读首页、提交链接，与其他代理交流。", "downloads": 27, "homepage": "https://clawhub.ai/spranab/bothn", "iconUrl": null, "installs": 0, "name": "Skill", "ownerName": "spranab", "score": 100000, "slug": "bothn", "source": "clawhub", "stars": 0, "tags": null, "updated_at": 1776698569909, "version": "1.0.0"}, {"category": "", "created_at": 1775202074145, "description": "", "description_zh": "Utilizes vision and radar technology for contactless detection of falls. It triggers alarms within seconds and is suitable for home safety monitoring of elderly people living alone. | 老人跌倒检测技能，视觉/雷达无感识别摔倒倒地，秒级触发报警，适用于独居老人居家安全监测场景", "downloads": 27, "homepage": "https://clawhub.ai/user_bb47e3e3/elderly-fall-detection-analysis", "iconUrl": null, "installs": 0, "name": "Elderly Fall Detection Skill | 老人跌倒检测技能", "ownerName": "user_bb47e3e3", "score": 100000, "slug": "elderly-fall-detection-analysis", "source": "community", "stars": 0, "tags": null, "updated_at": 1776698569908, "version": "1.0.0"}, {"category": "", "created_at": 1774905492447, "description": "ETermin integration. Manage Persons, Organizations, Leads, Deals, Activities, Notes and more. Use when the user wants to interact with ETermin data.", "description_zh": "ETermin集成。管理人员、组织、潜在客户、交易、活动、笔记等数据。用于与ETermin数据进行交互。", "downloads": 27, "homepage": "https://clawhub.ai/gora050/etermin", "iconUrl": null, "installs": 0, "name": "Etermin", "ownerName": "gora050", "score": 100000, "slug": "etermin", "source": "clawhub", "stars": 0, "tags": null, "updated_at": 1776698569906, "version": "1.0.0"}, {"category": "", "created_at": 1774894327123, "description": "When the user wants to create, optimize, or audit a single article/post page (not the blog index). Also use when the user mentions \"article page,\" \"blog post...", "description_zh": "当用户想要创建、优化或审核单篇文章/帖子页面（非博客列表页）时使用。也用于用户提及“文章页”、“博客文章”等情况。", "downloads": 27, "homepage": "https://clawhub.ai/kostja94/article-page-generator", "iconUrl": null, "installs": 0, "name": "article-page-generator", "ownerName": "kostja94", "score": 100000, "slug": "article-page-generator", "source": "clawhub", "stars": 0, "tags": null, "updated_at": 1776698569901, "version": "1.2.0"}, {"category": "", "created_at": 1774915277040, "description": "Enormail integration. Manage Mailboxs, Campaigns. Use when the user wants to interact with Enormail data.", "description_zh": "Enormail集成。管理邮箱和营销活动。当用户需要与Enormail数据交互时使用。", "downloads": 27, "homepage": "https://clawhub.ai/gora050/enormail", "iconUrl": null, "installs": 0, "name": "Enormail", "ownerName": "gora050", "score": 100000, "slug": "enormail", "source": "clawhub", "stars": 0, "tags": null, "updated_at": 1776698569897, "version": "1.0.0"}, {"category": "", "created_at": 1774905309805, "description": "Find nearby bicycle shops. Invoke when user asks for bike shops near me.", "description_zh": "查找附近自行车店。用户询问附近自行车店时调用。", "downloads": 27, "homepage": "https://clawhub.ai/codekungfu/bicycle-shops", "iconUrl": null, "installs": 0, "name": "Nearby Bicycle Shops", "ownerName": "codekungfu", "score": 100000, "slug": "bicycle-shops", "source": "clawhub", "stars": 0, "tags": null, "updated_at": 1776698569894, "version": "0.1.0"}, {"category": "", "created_at": 1774841284041, "description": "Reference tool for devtools — covers intro, quickstart, patterns and more. Quick lookup for Image Labeler concepts, best practices, and implementation patterns.", "description_zh": "开发工具参考工具——涵盖入门、快速上手、模式等，快速查阅图像标注器的概念、最佳实践与实现模式。", "downloads": 27, "homepage": "https://clawhub.ai/bytesagain1/image-labeler", "iconUrl": null, "installs": 0, "name": "Image Labeler", "ownerName": "bytesagain1", "score": 100000, "slug": "image-labeler", "source": "clawhub", "stars": 0, "tags": null, "updated_at": 1776698569892, "version": "2.0.3"}, {"category": "", "created_at": 1774896146256, "description": "CIS benchmark compliance assessment for network infrastructure devices. Maps device configuration against CIS benchmark controls organized by Management Plan...", "description_zh": "CIS基准合规评估：对网络基础设施设备进行配置核查，依据管理计划等类别的CIS基准控制项进行合规性评估。", "downloads": 27, "homepage": "https://clawhub.ai/vahagn-madatyan/cis-benchmark-audit", "iconUrl": null, "installs": 0, "name": "Cis Benchmark Audit", "ownerName": "vahagn-madatyan", "score": 100000, "slug": "cis-benchmark-audit", "source": "clawhub", "stars": 0, "tags": null, "updated_at": 1776698569884, "version": "1.0.0"}, {"category": "", "created_at": 1774872649267, "description": "把 bug 描述整理成可复现步骤、环境、预期与实际结果和最小复现条件。；use for bug, reproduction, qa workflows；do not use for 伪造日志, 忽略用户给出的环境差异.", "description_zh": "把 bug 描述整理成可复现步骤、环境、预期与实际结果和最小复现条件。；use for bug, reproduction, qa workflows；do not use for 伪造日志, 忽略用户给出的环境差异.", "downloads": 27, "homepage": "https://clawhub.ai/52yuanchangxing/issue-reproducer", "iconUrl": null, "installs": 0, "name": "Issue Reproducer", "ownerName": "52yuanchangxing", "score": 100000, "slug": "issue-reproducer", "source": "clawhub", "stars": 0, "tags": null, "updated_at": 1776698569878, "version": "1.0.0"}, {"category": "", "created_at": 1774945397721, "description": "Design inbound GTM systems — lead routing logic, PLG activation flows, nurture tracks, and ICP-based triage. Use when leads aren't converting, building or op...", "description_zh": "设计Inbound GTM系统——包括线索路由逻辑、PLG激活流程、培育流程和基于ICP的分诊。适用于线索未转化时，构建或优化...", "downloads": 27, "homepage": "https://clawhub.ai/davidslavich/gtm-inbound-strategy", "iconUrl": null, "installs": 1, "name": "GTM Inbound Strategy", "ownerName": "davidslavich", "score": 100000, "slug": "gtm-inbound-strategy", "source": "clawhub", "stars": 0, "tags": null, "updated_at": 1776698569875, "version": "1.0.0"}, {"category": "", "created_at": 1774885384862, "description": "Match and normalize product listings across Indian ecommerce catalogs with variant-aware rules, confidence scoring, false-match prevention, and review queues...", "description_zh": "跨印度电商平台匹配和规范化产品列表，支持变体感知规则、置信度评分、误匹配防护和审核队列", "downloads": 27, "homepage": "https://clawhub.ai/anugotta/catalog-sku-matcher-india", "iconUrl": null, "installs": 0, "name": "Catalog SKU Matcher India", "ownerName": "anugotta", "score": 100000, "slug": "catalog-sku-matcher-india", "source": "clawhub", "stars": 0, "tags": null, "updated_at": 1776698569869, "version": "1.0.0"}, {"category": "", "created_at": 1774853838133, "description": "Reference tool for devtools — covers intro, quickstart, patterns and more. Quick lookup for Linecount concepts, best practices, and implementation patterns.", "description_zh": "开发工具参考指南 — 涵盖入门、快速启动、模式等。快速查询 Linecount 概念、最佳实践与实现模式。", "downloads": 27, "homepage": "https://clawhub.ai/bytesagain3/linecount", "iconUrl": null, "installs": 0, "name": "Linecount", "ownerName": "bytesagain3", "score": 100000, "slug": "linecount", "source": "clawhub", "stars": 0, "tags": null, "updated_at": 1776698569868, "version": "2.0.3"}, {"category": "", "created_at": 1774894985187, "description": "Infinity integration. Manage Workspaces. Use when the user wants to interact with Infinity data.", "description_zh": "Infinity集成。管理工作区。当用户需要操作Infinity数据时使用。", "downloads": 27, "homepage": "https://clawhub.ai/gora050/infinity", "iconUrl": null, "installs": 0, "name": "Infinity", "ownerName": "gora050", "score": 100000, "slug": "infinity", "source": "clawhub", "stars": 0, "tags": null, "updated_at": 1776698569866, "version": "1.0.0"}, {"category": "", "created_at": 1774885064770, "description": "Build, review, debug, and automate VASP first-principles workflows. Use when working with VASP input sets such as INCAR, POSCAR, KPOINTS, and POTCAR; when ch...", "description_zh": "构建、审查、调试和自动化VASP第一性原理工作流程。用于处理VASP输入集（如INCAR、POSCAR、KPOINTS和POTCAR）以及...", "downloads": 27, "homepage": "https://clawhub.ai/fzj1214/vasp-skills", "iconUrl": null, "installs": 2, "name": "vasp-skills", "ownerName": "fzj1214", "score": 100000, "slug": "vasp-skills", "source": "clawhub", "stars": 0, "tags": null, "updated_at": 1776698569863, "version": "1.0.0"}, {"category": "", "created_at": 1774906584649, "description": "Google Workspace CLI for Gmail, Calendar, Drive, Contacts, Sheets, and Docs.", "description_zh": "Google Workspace 命令行工具，支持 Gmail、日历、云端硬盘、联系人、表格和文档。", "downloads": 27, "homepage": "https://clawhub.ai/czm448/gog-local", "iconUrl": null, "installs": 0, "name": "Gog Local", "ownerName": "czm448", "score": 100000, "slug": "gog-local", "source": "clawhub", "stars": 0, "tags": null, "updated_at": 1776698569853, "version": "1.0.0"}, {"category": "", "created_at": 1774872743296, "description": "Handle member/customer complaint workflows with a Linear-centered operating model. Use when the task involves 会员客诉、客户投诉、退款诉求、续费失败、自动续费争议、会员权益异常、客服草稿、风险分级、Lin...", "description_zh": "Handle member/customer complaint workflows with a Linear-centered operating model. Use when the task involves 会员客诉、客户投诉、退款诉求、续费失败、自动续费争议、会员权益异常、客服草稿、风险分级、Lin...", "downloads": 27, "homepage": "https://clawhub.ai/qwqcode/member-complaint-agent", "iconUrl": null, "installs": 0, "name": "Member Complaint Agent", "ownerName": "qwqcode", "score": 100000, "slug": "member-complaint-agent", "source": "clawhub", "stars": 0, "tags": null, "updated_at": 1776698569848, "version": "1.0.0"}, {"category": "", "created_at": 1774872629140, "description": "Create and manage Instantly.ai email campaigns via API. Use when the user wants to create a cold email campaign, add leads to Instantly, configure email sequ...", "description_zh": "通过 API 创建和管理 Instantly.ai 邮件活动。用于创建冷邮件营销、添加潜在客户到 Instantly、配置邮件序列等场景。", "downloads": 27, "homepage": "https://clawhub.ai/polzer1999/instantly-campaign-builder", "iconUrl": null, "installs": 0, "name": "get-some-leads", "ownerName": "polzer1999", "score": 100000, "slug": "instantly-campaign-builder", "source": "clawhub", "stars": 0, "tags": null, "updated_at": 1776698569847, "version": "1.0.0"}]}