{"page": 639, "total_pages": 685, "total": 34217, "skills": [{"category": "", "created_at": 1774868357440, "description": "Book hotels via Booking.com using Strider Labs MCP connector. Search accommodations worldwide, compare prices, manage reservations. Complete autonomous hotel...", "description_zh": "通过Strider Labs MCP连接器使用Booking.com预订酒店。支持全球住宿搜索、价格比较及预订管理，实现全自动酒店预订流程。", "downloads": 27, "homepage": "https://clawhub.ai/markswendsen-code/strider-booking", "iconUrl": null, "installs": 1, "name": "Strider Booking.com", "ownerName": "markswendsen-code", "score": 100000, "slug": "strider-booking", "source": "clawhub", "stars": 0, "tags": null, "updated_at": 1776698569845, "version": "1.0.0"}, {"category": "", "created_at": 1774877337735, "description": "提供遗嘱代办咨询、家族办公室基本指引、法律风险防控及赠予税费解读。", "description_zh": "提供遗嘱代办咨询、家族办公室基本指引、法律风险防控及赠予税费解读。", "downloads": 27, "homepage": "https://clawhub.ai/codenova58/inheritance", "iconUrl": null, "installs": 0, "name": "Inheritance", "ownerName": "codenova58", "score": 100000, "slug": "inheritance", "source": "clawhub", "stars": 0, "tags": null, "updated_at": 1776698569843, "version": "0.1.0"}, {"category": "", "created_at": 1774887696553, "description": "Extract architectural decisions from conversations. Identifies problem-solution pairs, trade-off discussions, and explicit choices. Use when analyzing sessio...", "description_zh": "从对话中提取架构决策，识别问题-解决方案对、权衡讨论及明确选择，适用于会话分析场景。", "downloads": 27, "homepage": "https://clawhub.ai/anderskev/adr-decision-extraction", "iconUrl": null, "installs": 0, "name": "Adr Decision Extraction", "ownerName": "anderskev", "score": 100000, "slug": "adr-decision-extraction", "source": "clawhub", "stars": 0, "tags": null, "updated_at": 1776698569838, "version": "1.0.0"}, {"category": "", "created_at": 1774925735934, "description": "Hygraph integration. Manage Projects. Use when the user wants to interact with Hygraph data.", "description_zh": "Hygraph集成。管理项目。当用户希望与Hygraph数据进行交互时使用。", "downloads": 27, "homepage": "https://clawhub.ai/gora050/hygraph", "iconUrl": null, "installs": 0, "name": "Hygraph", "ownerName": "gora050", "score": 100000, "slug": "hygraph", "source": "clawhub", "stars": 0, "tags": null, "updated_at": 1776698569833, "version": "1.0.0"}, {"category": "", "created_at": 1774872794938, "description": "Submit a purchase order for automated risk analysis and procurement approval via MOVA HITL. Trigger when the user mentions a PO number, asks to approve/revie...", "description_zh": "通过MOVA HITL提交采购订单以进行自动化风险分析和采购审批。当用户提及采购订单号、请求审批/审查采购订单时触发。", "downloads": 27, "homepage": "https://clawhub.ai/mova-compact/mova-po-approval", "iconUrl": null, "installs": 0, "name": "Mova Po Approval", "ownerName": "mova-compact", "score": 100000, "slug": "mova-po-approval", "source": "clawhub", "stars": 0, "tags": null, "updated_at": 1776698569831, "version": "1.2.0"}, {"category": "", "created_at": 1774898043774, "description": "GetProspect integration. Manage Persons, Organizations, Leads, Users, Roles, Filters. Use when the user wants to interact with GetProspect data.", "description_zh": "GetProspect集成。管理个人、组织、线索、用户、角色、筛选器。用户欲与GetProspect数据交互时使用。", "downloads": 27, "homepage": "https://clawhub.ai/membranedev/getprospect", "iconUrl": null, "installs": 0, "name": "Getprospect", "ownerName": "membranedev", "score": 100000, "slug": "getprospect", "source": "clawhub", "stars": 0, "tags": null, "updated_at": 1776698569830, "version": "1.0.0"}, {"category": "", "created_at": 1774891221222, "description": "Configures ExDoc for Elixir projects including mix.exs setup, extras, groups, cheatsheets, and livebooks. Use when setting up or modifying ExDoc documentatio...", "description_zh": "为 Elixir 项目配置 ExDoc，包括 mix.exs 设置、extras、groups、cheatsheets 和 livebooks。用于设置或修改 ExDoc 文档。", "downloads": 27, "homepage": "https://clawhub.ai/anderskev/exdoc-config", "iconUrl": null, "installs": 1, "name": "Exdoc Config", "ownerName": "anderskev", "score": 100000, "slug": "exdoc-config", "source": "clawhub", "stars": 0, "tags": null, "updated_at": 1776698569828, "version": "1.2.0"}, {"category": "", "created_at": 1774917658643, "description": "Apparmor reference tool. Use when working with apparmor in sysops contexts.", "description_zh": "Apparmor 参考工具，用于系统运维中的 Apparmor 工作。", "downloads": 27, "homepage": "https://clawhub.ai/xueyetianya/apparmor", "iconUrl": null, "installs": 0, "name": "Apparmor", "ownerName": "xueyetianya", "score": 100000, "slug": "apparmor", "source": "clawhub", "stars": 0, "tags": null, "updated_at": 1776698569826, "version": "1.0.0"}, {"category": "", "created_at": 1774887489401, "description": "为分析稿建立引用索引和原始出处映射，区分一手与二手来源。；use for sources, citations, research workflows；do not use for 编造文献出处, 替代正式文献管理软件.", "description_zh": "为分析稿建立引用索引和原始出处映射，区分一手与二手来源。；use for sources, citations, research workflows；do not use for 编造文献出处, 替代正式文献管理软件.", "downloads": 27, "homepage": "https://clawhub.ai/52yuanchangxing/source-trace-builder", "iconUrl": null, "installs": 1, "name": "Source Trace Builder", "ownerName": "52yuanchangxing", "score": 100000, "slug": "source-trace-builder", "source": "clawhub", "stars": 0, "tags": null, "updated_at": 1776698569821, "version": "1.0.0"}, {"category": "", "created_at": 1774897952074, "description": "Reviews Elixir documentation for completeness, quality, and ExDoc best practices. Use when auditing @moduledoc, @doc, @spec coverage, doctest correctness, an...", "description_zh": "审查Elixir文档的完整性、质量和ExDoc最佳实践。用于审计@moduledoc、@doc、@spec覆盖率、doctest正确性等。", "downloads": 27, "homepage": "https://clawhub.ai/anderskev/elixir-docs-review", "iconUrl": null, "installs": 0, "name": "Elixir Docs Review", "ownerName": "anderskev", "score": 100000, "slug": "elixir-docs-review", "source": "clawhub", "stars": 0, "tags": null, "updated_at": 1776698569819, "version": "1.2.0"}, {"category": "", "created_at": 1774905366631, "description": "Find nearby car parks. Invoke when user asks for parking near me.", "description_zh": "查找附近停车场。当用户询问附近停车位时调用。", "downloads": 27, "homepage": "https://clawhub.ai/mikeclaw007/car-parks", "iconUrl": null, "installs": 0, "name": "附近停车场", "ownerName": "mikeclaw007", "score": 100000, "slug": "car-parks", "source": "clawhub", "stars": 0, "tags": null, "updated_at": 1776698569817, "version": "0.1.0"}, {"category": "", "created_at": 1774951350181, "description": "Make Commerce integration. Manage data, records, and automate workflows. Use when the user wants to interact with Make Commerce data.", "description_zh": "Make Commerce 集成，管理数据、记录并自动化工作流，用于用户与 Make Commerce 数据交互。", "downloads": 27, "homepage": "https://clawhub.ai/gora050/make-commerce", "iconUrl": null, "installs": 1, "name": "Make Commerce", "ownerName": "gora050", "score": 100000, "slug": "make-commerce", "source": "clawhub", "stars": 0, "tags": null, "updated_at": 1776698569814, "version": "1.0.0"}, {"category": "", "created_at": 1774893007293, "description": "High-availability multi-role model router for OpenClaw. Discovers available models, maps them to role-based departments, routes tasks by complexity and domai...", "description_zh": "OpenClaw的高可用多角色模型路由器。自动发现可用模型，将其映射至基于角色的部门，并按任务复杂度与领域进行智能路由。", "downloads": 27, "homepage": "https://clawhub.ai/rexnode/imperial-orchestrator", "iconUrl": null, "installs": 1, "name": "Imperial Orchestrator", "ownerName": "rexnode", "score": 100000, "slug": "imperial-orchestrator", "source": "clawhub", "stars": 0, "tags": ["benchmark", "fallback", "i18n", "multi-role", "orchestration", "routing"], "updated_at": 1776698569810, "version": "1.0.0"}, {"category": "", "created_at": 1774875073094, "description": "Encrypted credential vault and persistent memory for AI agents. Install from npm, sandbox agent access to secrets, store and query encrypted memory, run an M...", "description_zh": "加密凭证库与持久化内存，专为 AI 代理打造。npm 安装，沙盒化访问密钥，加密存储查询，运行 M...", "downloads": 27, "homepage": "https://clawhub.ai/maheen-sajjad/agentvault", "iconUrl": null, "installs": 0, "name": "Agentvault", "ownerName": "maheen-sajjad", "score": 100000, "slug": "agentvault", "source": "clawhub", "stars": 0, "tags": null, "updated_at": 1776698569808, "version": "1.0.2"}, {"category": "", "created_at": 1774853659866, "description": "Extend Git with utilities for changelogs, branch cleanup, and repo stats. Use when generating changelogs, squashing branches, or viewing repo statistics.", "description_zh": "使用实用工具扩展 Git 功能，支持变更日志生成、分支清理和仓库统计。适用于生成变更日志、合并压缩分支或查看仓库统计信息。", "downloads": 27, "homepage": "https://clawhub.ai/bytesagain3/gitbuddy", "iconUrl": null, "installs": 2, "name": "Gitbuddy", "ownerName": "bytesagain3", "score": 100000, "slug": "gitbuddy", "source": "clawhub", "stars": 0, "tags": null, "updated_at": 1776698569801, "version": "2.0.0"}, {"category": "", "created_at": 1776312127731, "description": "", "description_zh": "This skill should be used when the user mentions 作战地图、商机分析、商机挖掘、拓客、作战地图分析, or asks to analyze a sales battle map to discover high-potential business opportunities. It parses Excel/Word/PDF battle map documents, classifies projects into signed/POC, uses a three-dimensional scoring model (industry 20% + product 20% + demand 60%) to discover 5-10 high-potential business opportunities per industry, and outputs a structured HTML analysis report. Trigger keywords: 作战地图、商机、商机挖掘、拓客、标杆客户、已签、POC、商机分析、潜在客户.", "downloads": 27, "homepage": "https://clawhub.ai/user_1bc9fcf8/business-opportunity-mining", "iconUrl": null, "installs": 4, "name": "作战地图：全域高价值商机挖掘引擎", "ownerName": "user_1bc9fcf8", "score": 100000, "slug": "business-opportunity-mining", "source": "community", "stars": 0, "tags": null, "updated_at": 1776698569799, "version": "1.0.0"}, {"category": "", "created_at": 1774860121683, "description": "飞书会议室偏好初始化与预定。适用于：初始化/刷新个人会议室列表、创建会议并预定会议室、 给已有会议补订会议室。使用本地状态文件保存首选会议室列表；第一版只维护一个 base 地（默认城市，内部字段为 default_city） 的会议室列表，跨城市时只创建会议不自动订房。", "description_zh": "飞书会议室偏好初始化与预定。适用于：初始化/刷新个人会议室列表、创建会议并预定会议室、 给已有会议补订会议室。使用本地状态文件保存首选会议室列表；第一版只维护一个 base 地（默认城市，内部字段为 default_city） 的会议室列表，跨城市时只创建会议不自动订房。", "downloads": 27, "homepage": "https://clawhub.ai/flyinghanger/feishu-meeting-room-book", "iconUrl": null, "installs": 0, "name": "Feishu Meeting Room Book", "ownerName": "flyinghanger", "score": 100000, "slug": "feishu-meeting-room-book", "source": "clawhub", "stars": 0, "tags": ["calendar", "feishu", "lark", "meeting-room"], "updated_at": 1776698569798, "version": "0.0.4"}, {"category": "", "created_at": 1774882720064, "description": "Curate reader-facing survey tables for the Appendix (clean layout + high information density), using only in-scope evidence and existing citation keys. **Tri...", "description_zh": "为附录策划面向读者的调查表（简洁布局+高信息密度），仅使用范围内的证据和现有引用键。", "downloads": 27, "homepage": "https://clawhub.ai/willoscar/appendix-table-writer", "iconUrl": null, "installs": 1, "name": "Appendix Table Writer", "ownerName": "willoscar", "score": 100000, "slug": "appendix-table-writer", "source": "clawhub", "stars": 0, "tags": null, "updated_at": 1776698569796, "version": "1.0.0"}, {"category": "", "created_at": 1774874062956, "description": "Generate realistic fake/mock data for testing and development. Supports names, emails, addresses, phone numbers, UUIDs, dates, lorem ipsum, credit cards, com...", "description_zh": "生成逼真的模拟数据，用于测试与开发。支持姓名、邮箱、地址、电话、UUID、日期、占位文本、信用卡等。", "downloads": 27, "homepage": "https://clawhub.ai/johnnywang2001/jrv-mock-data", "iconUrl": null, "installs": 0, "name": "Jrv Mock Data", "ownerName": "johnnywang2001", "score": 100000, "slug": "jrv-mock-data", "source": "clawhub", "stars": 0, "tags": null, "updated_at": 1776698569794, "version": "1.0.0"}, {"category": "", "created_at": 1774874775141, "description": "Generate images & videos with ZenMux. Support multiple image models (Gemini, Qwen, Hunyuan, etc.) and video models (Veo, Seedance) via one API key.", "description_zh": "ZenMux：使用一个 API key 生成图像和视频，支持多种图像模型（Gemini、Qwen、Hunyuan 等）和视频模型（Veo、Seedance）。", "downloads": 27, "homepage": "https://clawhub.ai/theopenbase/zenmux-media-gen", "iconUrl": null, "installs": 0, "name": "ZenMux Media Gen", "ownerName": "theopenbase", "score": 100000, "slug": "zenmux-media-gen", "source": "clawhub", "stars": 0, "tags": null, "updated_at": 1776698569792, "version": "1.0.0"}, {"category": "", "created_at": 1774868762979, "description": "When the user wants to plan product distribution via marketplaces, app stores, or third-party platforms. Also use when the user mentions \"distribution channe...", "description_zh": "当用户希望通过市场平台、应用商店或第三方平台规划产品分发时。当用户提到\"分发渠道……", "downloads": 27, "homepage": "https://clawhub.ai/kostja94/distribution-channels", "iconUrl": null, "installs": 0, "name": "distribution-channels", "ownerName": "kostja94", "score": 100000, "slug": "distribution-channels", "source": "clawhub", "stars": 0, "tags": null, "updated_at": 1776698569791, "version": "1.1.0"}, {"category": "", "created_at": 1774899424365, "description": "Cascade Strategy integration. Manage data, records, and automate workflows. Use when the user wants to interact with Cascade Strategy data.", "description_zh": "Cascade Strategy集成。管理数据与记录，自动化工作流。用于用户需要与Cascade Strategy数据进行交互时。", "downloads": 27, "homepage": "https://clawhub.ai/gora050/cascade-strategy", "iconUrl": null, "installs": 0, "name": "Cascade Strategy", "ownerName": "gora050", "score": 100000, "slug": "cascade-strategy", "source": "clawhub", "stars": 0, "tags": null, "updated_at": 1776698569789, "version": "1.0.0"}, {"category": "", "created_at": 1774910888189, "description": "IPinfo.io integration. Manage Domains, ASNs, Companies. Use when the user wants to interact with IPinfo.io data.", "description_zh": "IPinfo.io 集成。管理域名、ASN、公司信息。用于与 IPinfo.io 数据交互的场景。", "downloads": 27, "homepage": "https://clawhub.ai/membranedev/ipinfoio", "iconUrl": null, "installs": 0, "name": "Ipinfoio", "ownerName": "membranedev", "score": 100000, "slug": "ipinfoio", "source": "clawhub", "stars": 0, "tags": null, "updated_at": 1776698569787, "version": "1.0.0"}, {"category": "", "created_at": 1774948633726, "description": "Use lab budget forecaster for data analysis workflows that need structured execution, explicit assumptions, and clear output boundaries.", "description_zh": "在需要结构化执行、明确假设和清晰输出范围的数据分析工作流中使用实验室预算预测工具。", "downloads": 27, "homepage": "https://clawhub.ai/aipoch-ai/lab-budget-forecaster", "iconUrl": null, "installs": 0, "name": "Lab Budget Forecaster", "ownerName": "aipoch-ai", "score": 100000, "slug": "lab-budget-forecaster", "source": "clawhub", "stars": 0, "tags": null, "updated_at": 1776698569784, "version": "1.0.0"}, {"category": "", "created_at": 1774900716550, "description": "BulkGate integration. Manage data, records, and automate workflows. Use when the user wants to interact with BulkGate data.", "description_zh": "BulkGate 集成。管理数据、记录，自动化工作流。用于用户需要与 BulkGate 数据交互时。", "downloads": 27, "homepage": "https://clawhub.ai/gora050/bulkgate", "iconUrl": null, "installs": 0, "name": "Bulkgate", "ownerName": "gora050", "score": 100000, "slug": "bulkgate", "source": "clawhub", "stars": 0, "tags": null, "updated_at": 1776698569781, "version": "1.0.0"}, {"category": "", "created_at": 1774956120652, "description": "AI模型切换器：日常本地模型 + 复杂任务云模型的混合使用方案。根据任务类型自动选择最优模型，最大化利用本地模型（零token成本），最小化云模型token消耗。", "description_zh": "AI模型切换器：日常本地模型 + 复杂任务云模型的混合使用方案。根据任务类型自动选择最优模型，最大化利用本地模型（零token成本），最小化云模型token消耗。", "downloads": 27, "homepage": "https://clawhub.ai/savidwilbert/ai-model-switcher", "iconUrl": null, "installs": 0, "name": "AI模型切换器", "ownerName": "savidwilbert", "score": 100000, "slug": "ai-model-switcher", "source": "clawhub", "stars": 0, "tags": null, "updated_at": 1776698569779, "version": "1.0.0"}, {"category": "", "created_at": 1774876755836, "description": "Uses Chrome DevTools MCP for accessibility (a11y) debugging and auditing based on web.dev guidelines. Use when testing semantic HTML, ARIA labels, focus stat...", "description_zh": "使用 Chrome DevTools MCP 进行基于 web.dev 指南的无障碍 (a11y) 调试和审计。用于测试语义化 HTML、ARIA 标签、焦点状态等。", "downloads": 27, "homepage": "https://clawhub.ai/poiuy1318/a11y-debugging", "iconUrl": null, "installs": 0, "name": "A11y Debugging", "ownerName": "poiuy1318", "score": 100000, "slug": "a11y-debugging", "source": "clawhub", "stars": 0, "tags": null, "updated_at": 1776698569778, "version": "1.0.0"}, {"category": "", "created_at": 1774902560769, "description": "Stochastic reference tool. Use when working with stochastic in finance contexts.", "description_zh": "随机参考工具。在金融情境下处理随机问题时使用。", "downloads": 27, "homepage": "https://clawhub.ai/bytesagain3/stochastic", "iconUrl": null, "installs": 0, "name": "Stochastic", "ownerName": "bytesagain3", "score": 100000, "slug": "stochastic", "source": "clawhub", "stars": 0, "tags": null, "updated_at": 1776698569776, "version": "1.0.0"}, {"category": "", "created_at": 1774917275239, "description": "Placeholder skill for text-to-image workflows on skills.video. Use when the user is asking about t2i generation and the concrete API contract has not been im...", "description_zh": "用于skills.video平台文生图工作流的占位技能。当用户询问文生图生成且具体API接口尚未实现时使用。", "downloads": 27, "homepage": "https://clawhub.ai/skills-video/t2i", "iconUrl": null, "installs": 2, "name": "T2I", "ownerName": "skills-video", "score": 100000, "slug": "t2i", "source": "clawhub", "stars": 0, "tags": null, "updated_at": 1776698569771, "version": "1.0.0"}, {"category": "", "created_at": 1774951670341, "description": "Aesthetic skill for AI agents — Van Gogh's Post-Impressionist visual language. Style tokens, anti-tokens, and creative direction distilled from 843 works.", "description_zh": "面向AI代理的审美技能——梵高后印象派视觉语言，提取843件作品的风格标记、反向标记及创作指引。", "downloads": 27, "homepage": "https://clawhub.ai/johnnyzijianwu/taste-van-gogh", "iconUrl": null, "installs": 0, "name": "Taste: Van Gogh — Post-Impressionist Master", "ownerName": "johnnyzijianwu", "score": 100000, "slug": "taste-van-gogh", "source": "clawhub", "stars": 0, "tags": ["aesthetics", "ai-agents", "art", "design", "post-impressionism", "taste", "van-gogh", "visual-arts"], "updated_at": 1776698569769, "version": "1.0.0"}, {"category": "", "created_at": 1774947172482, "description": "Carbone integration. Manage data, records, and automate workflows. Use when the user wants to interact with Carbone data.", "description_zh": "{\n  \"answer\": \"Carbone集成。管理数据、记录并自动化工作流。当用户需要与Carbone数据交互时使用。\"\n}", "downloads": 27, "homepage": "https://clawhub.ai/gora050/carbone", "iconUrl": null, "installs": 0, "name": "Carbone", "ownerName": "gora050", "score": 100000, "slug": "carbone", "source": "clawhub", "stars": 0, "tags": null, "updated_at": 1776698569767, "version": "1.0.0"}, {"category": "", "created_at": 1774869703245, "description": "Register and compete in the Clawber AI battle arena. Handles agent registration, bot code submission, and match results.", "description_zh": "在 Clawber AI 竞技场注册并比赛，负责智能体注册、机器人代码提交和比赛结果。", "downloads": 27, "homepage": "https://clawhub.ai/realcraig/clawber", "iconUrl": null, "installs": 0, "name": "Clawber", "ownerName": "realcraig", "score": 100000, "slug": "clawber", "source": "clawhub", "stars": 0, "tags": null, "updated_at": 1776698569764, "version": "1.0.0"}, {"category": "", "created_at": 1774867790835, "description": "DroidRun Portal HTTP/WebSocket/MCP client. Controls Android devices via HTTP, WebSocket, or MCP server, supporting tap, swipe, screenshot, text input, UI sta...", "description_zh": "DroidRun 门户 HTTP/WebSocket/MCP 客户端，可通过 HTTP/WebSocket/MCP 服务器控制 Android 设备，支持点击、滑动、截图、文本输入、UI 状态等操作。", "downloads": 27, "homepage": "https://clawhub.ai/hanxi/droidrun-agent", "iconUrl": null, "installs": 0, "name": "Droidrun Agent", "ownerName": "hanxi", "score": 100000, "slug": "droidrun-agent", "source": "clawhub", "stars": 0, "tags": null, "updated_at": 1776698569760, "version": "0.1.0"}, {"category": "", "created_at": 1774853850061, "description": "MarketTime integration. Manage Organizations. Use when the user wants to interact with MarketTime data.", "description_zh": "MarketTime集成，管理组织，用于与MarketTime数据交互。", "downloads": 27, "homepage": "https://clawhub.ai/gora050/markettime", "iconUrl": null, "installs": 0, "name": "Markettime", "ownerName": "gora050", "score": 100000, "slug": "markettime", "source": "clawhub", "stars": 0, "tags": null, "updated_at": 1776698569755, "version": "1.0.0"}, {"category": "", "created_at": 1774915533345, "description": "收集用户身体指标、生活习惯、既往病史和目标，生成可执行的长寿行动计划与分阶段复盘机制，并提供风险评分、自动周报/月报、保健品安全检查和每日饮食营养均衡分析（含热量缺口）。Use when users ask for longevity plans, healthy routine optimization, be...", "description_zh": "收集用户身体指标、生活习惯、既往病史和目标，生成可执行的长寿行动计划与分阶段复盘机制，并提供风险评分、自动周报/月报、保健品安全检查和每日饮食营养均衡分析（含热量缺口）。Use when users ask for longevity plans, healthy routine optimization, be...", "downloads": 27, "homepage": "https://clawhub.ai/rq-wu/live-to-100", "iconUrl": null, "installs": 0, "name": "Live To 100", "ownerName": "rq-wu", "score": 100000, "slug": "live-to-100", "source": "clawhub", "stars": 0, "tags": null, "updated_at": 1776698569753, "version": "1.0.0"}, {"category": "", "created_at": 1774954753432, "description": "［何时使用］当用户需要构建基金运营工作流时；当用户说\"基金互金电商业务搭建\"时；当需要按 MBTI 特质分配工作流节点任务时；当检测到\"收集/归档/策略/实施/测试/监控\"等工作流关键词时；当需要使用 STAR+ 合规前置框架设计提示词时", "description_zh": "［何时使用］当用户需要构建基金运营工作流时；当用户说\"基金互金电商业务搭建\"时；当需要按 MBTI 特质分配工作流节点任务时；当检测到\"收集/归档/策略/实施/测试/监控\"等工作流关键词时；当需要使用 STAR+ 合规前置框架设计提示词时", "downloads": 27, "homepage": "https://clawhub.ai/lj22503/fund-operation-workflow", "iconUrl": null, "installs": 0, "name": "Fund Operation Workflow", "ownerName": "lj22503", "score": 100000, "slug": "fund-operation-workflow", "source": "clawhub", "stars": 0, "tags": null, "updated_at": 1776698569745, "version": "2.0.0"}, {"category": "", "created_at": 1774904102107, "description": "Find nearby camping sites. Invoke when user asks for camping near me.", "description_zh": "查找附近的露营地点。当用户询问附近露营时调用。", "downloads": 27, "homepage": "https://clawhub.ai/codekungfu/camping-sites", "iconUrl": null, "installs": 1, "name": "Nearby Camping Sites", "ownerName": "codekungfu", "score": 100000, "slug": "camping-sites", "source": "clawhub", "stars": 0, "tags": null, "updated_at": 1776698569743, "version": "0.1.0"}, {"category": "", "created_at": 1774924357629, "description": "Memory Profiler — Mine hidden patterns from your Agent's memory, confirm via interactive quiz, and generate a structured user profile.", "description_zh": "内存分析器 —— 挖掘代理记忆中的隐藏模式，通过互动测验进行确认，并生成结构化的用户画像。", "downloads": 27, "homepage": "https://clawhub.ai/fret774/memweaver", "iconUrl": null, "installs": 0, "name": "MemWeaver", "ownerName": "fret774", "score": 100000, "slug": "memweaver", "source": "clawhub", "stars": 0, "tags": null, "updated_at": 1776698569741, "version": "0.1.0"}, {"category": "", "created_at": 1774900582285, "description": "AMLBot integration. Manage data, records, and automate workflows. Use when the user wants to interact with AMLBot data.", "description_zh": "AMLBot集成。管理数据、记录并自动化工作流。用于用户想要交互 AMLBot 数据时。", "downloads": 27, "homepage": "https://clawhub.ai/gora050/amlbot", "iconUrl": null, "installs": 1, "name": "Amlbot", "ownerName": "gora050", "score": 100000, "slug": "amlbot", "source": "clawhub", "stars": 0, "tags": null, "updated_at": 1776698569740, "version": "1.0.0"}, {"category": "", "created_at": 1774911760693, "description": "Hotwallet reference tool. Use when working with hotwallet in blockchain contexts.", "description_zh": "热钱包参考工具，用于区块链场景中的热钱包相关操作。", "downloads": 27, "homepage": "https://clawhub.ai/bytesagain1/hotwallet", "iconUrl": null, "installs": 0, "name": "Hotwallet", "ownerName": "bytesagain1", "score": 100000, "slug": "hotwallet", "source": "clawhub", "stars": 0, "tags": null, "updated_at": 1776698569732, "version": "1.0.0"}, {"category": "", "created_at": 1774904366116, "description": "Query ad platform data (Meta, Google, LinkedIn, Reddit) using the Hopkin CLI. Use this skill when the user asks about ad accounts, campaigns, ad performance,...", "description_zh": "使用 Hopkin CLI 查询广告平台数据（Meta、Google、LinkedIn、Reddit）。当用户询问广告账户、广告系列、广告效果等问题时使用此技能。", "downloads": 27, "homepage": "https://clawhub.ai/nemo/hopkin-paid-ads", "iconUrl": null, "installs": 0, "name": "Hopkin – Paid Ads: Meta, TikTok, Google, LinkedIn, Reddit", "ownerName": "nemo", "score": 100000, "slug": "hopkin-paid-ads", "source": "clawhub", "stars": 0, "tags": null, "updated_at": 1776698569731, "version": "0.1.0"}, {"category": "", "created_at": 1774848455603, "description": "Connect to the KONIO A2A marketplace — register agents, post jobs, review work, and build reputation. Requires a KONIO account and agent API key.", "description_zh": "连接KONIO A2A市场，注册代理、发布任务、审核工作、打造声誉。需要KONIO账户和代理API密钥。", "downloads": 27, "homepage": "https://clawhub.ai/djlougen/konio-marketplace", "iconUrl": null, "installs": 0, "name": "KONIO Marketplace", "ownerName": "djlougen", "score": 100000, "slug": "konio-marketplace", "source": "clawhub", "stars": 0, "tags": ["a2a", "agent-economy", "autonomous-agents", "jobs", "marketplace", "reputation"], "updated_at": 1776698569727, "version": "1.5.0"}, {"category": "", "created_at": 1774912766922, "description": "Feedier integration. Manage Surveys, Integrations, Users. Use when the user wants to interact with Feedier data.", "description_zh": "Feedier 集成。管理调查、集成、用户。当用户需要与 Feedier 数据交互时使用。", "downloads": 27, "homepage": "https://clawhub.ai/gora050/feedier", "iconUrl": null, "installs": 0, "name": "Feedier", "ownerName": "gora050", "score": 100000, "slug": "feedier", "source": "clawhub", "stars": 0, "tags": null, "updated_at": 1776698569726, "version": "1.0.0"}, {"category": "", "created_at": 1774867620263, "description": "ChargeOver integration. Manage data, records, and automate workflows. Use when the user wants to interact with ChargeOver data.", "description_zh": "ChargeOver 集成。管理数据、记录，自动化工作流程。用于与 ChargeOver 数据交互。", "downloads": 27, "homepage": "https://clawhub.ai/membranedev/chargeover", "iconUrl": null, "installs": 0, "name": "Chargeover", "ownerName": "membranedev", "score": 100000, "slug": "chargeover", "source": "clawhub", "stars": 0, "tags": null, "updated_at": 1776698569724, "version": "1.0.0"}, {"category": "", "created_at": 1774878882536, "description": "快速部署新的 assistant agent。当用户需要新增 agent 时自动创建，编号递增，沿用现有 workspace 和 agentDir 结构。使用场景：「新增一个 agent」、「创建 assistant2」、「加一个日常助手」等请求。", "description_zh": "快速部署新的 assistant agent。当用户需要新增 agent 时自动创建，编号递增，沿用现有 workspace 和 agentDir 结构。使用场景：「新增一个 agent」、「创建 assistant2」、「加一个日常助手」等请求。", "downloads": 27, "homepage": "https://clawhub.ai/zhou19931993/multi-agent-deploy", "iconUrl": null, "installs": 0, "name": "multi-agent-deploy", "ownerName": "zhou19931993", "score": 100000, "slug": "multi-agent-deploy", "source": "clawhub", "stars": 0, "tags": null, "updated_at": 1776698569722, "version": "1.0.0"}, {"category": "", "created_at": 1774869598776, "description": "AskYourPDF integration. Manage data, records, and automate workflows. Use when the user wants to interact with AskYourPDF data.", "description_zh": "AskYourPDF 集成。管理数据、记录并自动化工作流程。当用户需要与 AskYourPDF 数据交互时使用。", "downloads": 27, "homepage": "https://clawhub.ai/gora050/askyourpdf", "iconUrl": null, "installs": 0, "name": "Askyourpdf", "ownerName": "gora050", "score": 100000, "slug": "askyourpdf", "source": "clawhub", "stars": 0, "tags": null, "updated_at": 1776698569720, "version": "1.0.0"}, {"category": "", "created_at": 1774878877285, "description": "Submit a crypto trade order for automated risk analysis and human-in-the-loop review via MOVA. Trigger when the user mentions a trade order, wallet address,...", "description_zh": "提交加密交易订单，通过 MOVA 进行自动化风险分析及人工复核。当用户提及交易订单、钱包地址……时触发。", "downloads": 27, "homepage": "https://clawhub.ai/mova-compact/mova-crypto-review", "iconUrl": null, "installs": 0, "name": "Mova Crypto Review", "ownerName": "mova-compact", "score": 100000, "slug": "mova-crypto-review", "source": "clawhub", "stars": 0, "tags": null, "updated_at": 1776698569718, "version": "1.2.0"}, {"category": "", "created_at": 1774902131295, "description": "当用户说“打招呼”时，回复 Hello World", "description_zh": "当用户说“打招呼”时，回复 Hello World", "downloads": 27, "homepage": "https://clawhub.ai/linsirulinsiru/hello-worlds", "iconUrl": null, "installs": 0, "name": "HelloWorld", "ownerName": "linsirulinsiru", "score": 100000, "slug": "hello-worlds", "source": "clawhub", "stars": 0, "tags": null, "updated_at": 1776698569716, "version": "1.0.1"}, {"category": "", "created_at": 1774952043284, "description": "When the user wants to optimize for entity recognition, Knowledge Graph, or entity-based SEO. Also use when the user mentions \"entity SEO,\" \"entity optimizat...", "description_zh": "当用户希望针对实体识别、知识图谱或基于实体的SEO进行优化时使用。也适用于用户提及“实体SEO”“实体优化”等关键词时。", "downloads": 27, "homepage": "https://clawhub.ai/kostja94/entity-seo", "iconUrl": null, "installs": 0, "name": "entity-seo", "ownerName": "kostja94", "score": 100000, "slug": "entity-seo", "source": "clawhub", "stars": 0, "tags": null, "updated_at": 1776698569715, "version": "1.0.0"}, {"category": "", "created_at": 1774909835327, "description": "Call the IteraTools multi-tool API (api.iteratools.com) — 69+ tools for AI agents: image generation (Flux), browser automation (Playwright), web scraping, TT...", "description_zh": "调用 IteraTools 多工具 API（api.iteratools.com）—— 为 AI 代理提供 69+ 工具：图像生成 (Flux)、浏览器自动化 (Playwright)、网页抓取等。", "downloads": 27, "homepage": "https://clawhub.ai/fredpsantos33/iteratools-api", "iconUrl": null, "installs": 0, "name": "IteraTools API", "ownerName": "fredpsantos33", "score": 100000, "slug": "iteratools-api", "source": "clawhub", "stars": 0, "tags": null, "updated_at": 1776698569708, "version": "1.1.0"}]}