{"page": 640, "total_pages": 685, "total": 34217, "skills": [{"category": "", "created_at": 1774925523990, "description": "Scan your OpenClaw workspace for truncation risks, compaction anchor health, workspace hygiene, and drift tracking over time. Use when the operator asks to \"...", "description_zh": "扫描 OpenClaw 工作区以排查截断风险、压缩锚点健康状态、工作区清洁度及时间漂移情况。用于操作员要求时。", "downloads": 27, "homepage": "https://clawhub.ai/danandbub/driftwatch-oc", "iconUrl": null, "installs": 0, "name": "Driftwatch", "ownerName": "danandbub", "score": 100000, "slug": "driftwatch-oc", "source": "clawhub", "stars": 0, "tags": null, "updated_at": 1776698569705, "version": "1.1.0"}, {"category": "", "created_at": 1774877003519, "description": "Account, access, and operations infrastructure for AI agents — phone verification, email inboxes, CAPTCHA solving, credential vault, and identity management.", "description_zh": "面向AI智能体的账户、访问与运营基础设施——包括手机验证、电子邮件收件箱、验证码识别、凭证保险库及身份管理。", "downloads": 27, "homepage": "https://clawhub.ai/shiyanhui/clawise", "iconUrl": null, "installs": 0, "name": "Clawise", "ownerName": "shiyanhui", "score": 100000, "slug": "clawise", "source": "clawhub", "stars": 0, "tags": null, "updated_at": 1776698569701, "version": "0.1.0"}, {"category": "", "created_at": 1774891501472, "description": "Linqs integration. Manage Persons, Organizations, Deals, Leads, Activities, Notes and more. Use when the user wants to interact with Linqs data.", "description_zh": "Linqs集成。管理人员、组织、交易、潜在客户、活动、备注等。当用户需要与Linqs数据交互时使用。", "downloads": 27, "homepage": "https://clawhub.ai/gora050/linqs", "iconUrl": null, "installs": 1, "name": "Linqs", "ownerName": "gora050", "score": 100000, "slug": "linqs", "source": "clawhub", "stars": 0, "tags": null, "updated_at": 1776698569699, "version": "1.0.0"}, {"category": "", "created_at": 1774887787194, "description": "Analyze app store reviews, cluster pain points, detect trend shifts, and map feedback to prioritized product backlog actions.", "description_zh": "分析应用商店评论，聚类痛点，检测趋势变化，并将反馈映射至优先级产品待办事项。", "downloads": 27, "homepage": "https://clawhub.ai/anugotta/app-review-intelligence", "iconUrl": null, "installs": 0, "name": "App Review Intelligence", "ownerName": "anugotta", "score": 100000, "slug": "app-review-intelligence", "source": "clawhub", "stars": 0, "tags": null, "updated_at": 1776698569698, "version": "1.0.0"}, {"category": "", "created_at": 1774903218501, "description": "A recording studio. A rescue dog. A beat that won't land until the dog says so.. An immersive journey on drifts.bot — 5 steps, MEDIUM intensity, 1-2 hours. B...", "description_zh": "一个录音棚，一只搜救犬，一个节拍要等狗同意才会落下的沉浸式体验。drifts.bot平台，5步，中等强度，1-2小时。", "downloads": 27, "homepage": "https://clawhub.ai/driftsbot/experience-blairagotchi-studio-dog-atlanta", "iconUrl": null, "installs": 0, "name": "Experience Blairagotchi Studio Dog Atlanta", "ownerName": "driftsbot", "score": 100000, "slug": "experience-blairagotchi-studio-dog-atlanta", "source": "clawhub", "stars": 0, "tags": null, "updated_at": 1776698569696, "version": "1.0.0"}, {"category": "", "created_at": 1774950313109, "description": "Easyly integration. Manage Organizations, Projects, Pipelines, Users, Goals, Filters. Use when the user wants to interact with Easyly data.", "description_zh": "轻松集成。管理组织、项目、流水线、用户、目标和过滤器。适用于用户需要与 Easyly 数据交互的场景。", "downloads": 27, "homepage": "https://clawhub.ai/gora050/easyly", "iconUrl": null, "installs": 0, "name": "Easyly", "ownerName": "gora050", "score": 100000, "slug": "easyly", "source": "clawhub", "stars": 0, "tags": null, "updated_at": 1776698569694, "version": "1.0.0"}, {"category": "", "created_at": 1774908819653, "description": "MojoTxt integration. Manage Persons, Organizations, Deals, Leads, Projects, Activities and more. Use when the user wants to interact with MojoTxt data.", "description_zh": "MojoTxt集成。管理联系人、组织、交易、线索、项目、活动等。当用户需要与MojoTxt数据交互时使用。", "downloads": 27, "homepage": "https://clawhub.ai/membranedev/mojotxt", "iconUrl": null, "installs": 0, "name": "Mojotxt", "ownerName": "membranedev", "score": 100000, "slug": "mojotxt", "source": "clawhub", "stars": 0, "tags": null, "updated_at": 1776698569692, "version": "1.0.0"}, {"category": "", "created_at": 1774945243015, "description": "Risk-reward calculation", "description_zh": "风险收益计算", "downloads": 27, "homepage": "https://clawhub.ai/jkzfhq/psyvector-pv25", "iconUrl": null, "installs": 0, "name": "Psyvector Pv25", "ownerName": "jkzfhq", "score": 100000, "slug": "psyvector-pv25", "source": "clawhub", "stars": 0, "tags": ["digital-worker"], "updated_at": 1776698569691, "version": "3.0.0"}, {"category": "", "created_at": 1774918642596, "description": "Build a complete OpenClaw agent package for a real profession or job role. Use when the user asks for things like \"create a product manager agent\", \"make me...", "description_zh": "为真实职业或岗位构建完整的OpenClaw智能体包。适用于用户请求类似“创建产品经理智能体”、“为我创建一个...”等内容时使用。", "downloads": 27, "homepage": "https://clawhub.ai/aliciawque/professional-agent-forge", "iconUrl": null, "installs": 0, "name": "Professional Agent Forge", "ownerName": "aliciawque", "score": 100000, "slug": "professional-agent-forge", "source": "clawhub", "stars": 0, "tags": null, "updated_at": 1776698569689, "version": "1.0.0"}, {"category": "", "created_at": 1774907710391, "description": "Check IP address threat intelligence. Query multiple sources for IP reputation, geolocation, and threat scores.", "description_zh": "检查IP地址威胁情报。查询多个来源获取IP信誉、地理位置和威胁评分。", "downloads": 27, "homepage": "https://clawhub.ai/freeter226/ip-threat-check", "iconUrl": null, "installs": 0, "name": "IP Threat Check", "ownerName": "freeter226", "score": 100000, "slug": "ip-threat-check", "source": "clawhub", "stars": 0, "tags": null, "updated_at": 1776698569687, "version": "1.0.0"}, {"category": "", "created_at": 1774889938562, "description": "Generate customized compliance checklists for GDPR and PCI-DSS standards based on company type.", "description_zh": "根据公司类型生成定制化的GDPR和PCI-DSS合规检查清单。", "downloads": 27, "homepage": "https://clawhub.ai/krishnakumarmahadevan-cmd/gdpr-pci-checklist", "iconUrl": null, "installs": 0, "name": "GDPR PCI Checklist", "ownerName": "krishnakumarmahadevan-cmd", "score": 100000, "slug": "gdpr-pci-checklist", "source": "clawhub", "stars": 0, "tags": null, "updated_at": 1776698569685, "version": "1.0.0"}, {"category": "", "created_at": 1774854578132, "description": "Diagnose OpenClaw agent failures, cost spikes, and performance issues with 14 pattern detectors. Use when: task failed unexpectedly, costs seem high, agent b...", "description_zh": "使用14种模式检测器诊断OpenClaw智能体故障、成本激增和性能问题。适用场景：任务意外失败、成本异常偏高、智能体行为异常等。", "downloads": 27, "homepage": "https://clawhub.ai/ashishjaingithub/clawdoc", "iconUrl": null, "installs": 0, "name": "Clawdoc", "ownerName": "ashishjaingithub", "score": 100000, "slug": "clawdoc", "source": "clawhub", "stars": 0, "tags": ["agent-health", "cost-optimization", "debugging", "diagnostics", "observability"], "updated_at": 1776698569683, "version": "0.12.0"}, {"category": "", "created_at": 1776071072392, "description": "", "description_zh": "自动化三层记忆管理，防止 AI 助手跨会话失忆。自动化三层记忆管理：LCM 会话内压缩、CC 跨会话归档、MEMORY.md 长期索引维护。", "downloads": 27, "homepage": "https://clawhub.ai/user_82882ca7/memory-triad", "iconUrl": "https://cloudcache.tencent-cloud.com/qcloud/ui/static/other_external_resource/cab3c5ed-3acd-4936-a59b-5f0c5f5dab1b.png", "installs": 2, "name": "memory-triad", "ownerName": "user_82882ca7", "score": 100000, "slug": "memory-triad", "source": "community", "stars": 0, "tags": null, "updated_at": 1776698569682, "version": "1.0.0"}, {"category": "", "created_at": 1774872057117, "description": "Reference tool for devtools — covers intro, quickstart, patterns and more. Quick lookup for Zsh Themes concepts, best practices, and implementation patterns.", "description_zh": "开发工具参考指南，涵盖介绍、快速入门与模式等。Zsh主题概念、最佳实践及实现模式的快速查询。", "downloads": 27, "homepage": "https://clawhub.ai/xueyetianya/zsh-themes", "iconUrl": null, "installs": 0, "name": "Zsh Themes", "ownerName": "xueyetianya", "score": 100000, "slug": "zsh-themes", "source": "clawhub", "stars": 0, "tags": null, "updated_at": 1776698569678, "version": "2.0.2"}, {"category": "", "created_at": 1774863921937, "description": "为个人服务器或家庭实验室记录变更前后、目的、回滚和观察结果。；use for homelab, ops-log, changes workflows；do not use for 执行真实运维命令, 公开敏感主机信息.", "description_zh": "为个人服务器或家庭实验室记录变更前后、目的、回滚和观察结果。；use for homelab, ops-log, changes workflows；do not use for 执行真实运维命令, 公开敏感主机信息.", "downloads": 27, "homepage": "https://clawhub.ai/52yuanchangxing/home-lab-ops-log", "iconUrl": null, "installs": 0, "name": "Home Lab Ops Log", "ownerName": "52yuanchangxing", "score": 100000, "slug": "home-lab-ops-log", "source": "clawhub", "stars": 0, "tags": null, "updated_at": 1776698569675, "version": "1.0.0"}, {"category": "", "created_at": 1774916601838, "description": "Feel awe as bioluminescent plankton light the abyss, turning each kick into a pulse of blue fire. This immersive night dive reveals hidden coral ecosystems i...", "description_zh": "感受荧光浮游生物点亮深渊的震撼，每一次踢动都化作幽蓝火光。这场沉浸式夜潜将揭开隐藏珊瑚生态系统的神秘面纱。", "downloads": 27, "homepage": "https://clawhub.ai/driftsbot/experience-plankton-fire-bahamas", "iconUrl": null, "installs": 0, "name": "Experience Plankton Fire Bahamas", "ownerName": "driftsbot", "score": 100000, "slug": "experience-plankton-fire-bahamas", "source": "clawhub", "stars": 0, "tags": null, "updated_at": 1776698569673, "version": "1.0.0"}, {"category": "", "created_at": 1774897135364, "description": "Buy event tickets via Ticketmaster using Strider Labs MCP connector. Search concerts, sports, theater, get seats, manage tickets. Complete autonomous event t...", "description_zh": "通过Strider Labs MCP连接器使用Ticketmaster购买活动门票。搜索演唱会、体育赛事、戏剧，获取座位，管理门票。完整的自主活动体验。", "downloads": 27, "homepage": "https://clawhub.ai/markswendsen-code/strider-ticketmaster", "iconUrl": null, "installs": 0, "name": "Strider Ticketmaster", "ownerName": "markswendsen-code", "score": 100000, "slug": "strider-ticketmaster", "source": "clawhub", "stars": 0, "tags": null, "updated_at": 1776698569671, "version": "1.0.0"}, {"category": "", "created_at": 1774926323911, "description": "Analyze and validate SKILL.md files for best practices, common issues, and improvement suggestions. Use when reviewing a Skill, creating a new Skill, or when...", "description_zh": "分析并验证 SKILL.md 文件，检查最佳实践、常见问题并提供改进建议。适用于审查、创建新技能或需要优化技能文档时使用。", "downloads": 27, "homepage": "https://clawhub.ai/mengbin92/skill-linter-checker", "iconUrl": null, "installs": 0, "name": "Skill Linter", "ownerName": "mengbin92", "score": 100000, "slug": "skill-linter-checker", "source": "clawhub", "stars": 0, "tags": null, "updated_at": 1776698569662, "version": "1.0.0"}, {"category": "", "created_at": 1774923999251, "description": "Elorus integration. Manage Organizations. Use when the user wants to interact with Elorus data.", "description_zh": "Elorus 集成，管理组织，用户需要与 Elorus 数据交互时使用。", "downloads": 27, "homepage": "https://clawhub.ai/gora050/elorus", "iconUrl": null, "installs": 0, "name": "Elorus", "ownerName": "gora050", "score": 100000, "slug": "elorus", "source": "clawhub", "stars": 0, "tags": null, "updated_at": 1776698569661, "version": "1.0.0"}, {"category": "", "created_at": 1774911145393, "description": "When the user wants to set up, optimize, or manage Reddit Ads. Also use when the user mentions \"Reddit Ads,\" \"Promoted Posts,\" \"subreddit targeting,\" \"Reddit...", "description_zh": "{\"description_zh\":\"当用户想要设置、优化或管理Reddit广告时使用。也适用于用户提及\"Reddit Ads\"、\"推广帖子\"、\"子版块定向\"、\"Reddit广告投放\"等相关内容的场景。\"}", "downloads": 27, "homepage": "https://clawhub.ai/kostja94/reddit-ads", "iconUrl": null, "installs": 0, "name": "reddit-ads", "ownerName": "kostja94", "score": 100000, "slug": "reddit-ads", "source": "clawhub", "stars": 0, "tags": null, "updated_at": 1776698569659, "version": "1.0.0"}, {"category": "", "created_at": 1774922660048, "description": "Feel the awe of tackling a fundamental mystery while the tension of repeated trial‑and‑error drives you forward. You’ll construct, fail, and reconstruct a Ya...", "description_zh": "感受直面根本奥秘的敬畏，在反复试错的张力驱动下前行。你将构建、失败、再重构……", "downloads": 27, "homepage": "https://clawhub.ai/driftsbot/experience-millennium-yang-mills", "iconUrl": null, "installs": 0, "name": "Experience Millennium Yang Mills", "ownerName": "driftsbot", "score": 100000, "slug": "experience-millennium-yang-mills", "source": "clawhub", "stars": 0, "tags": null, "updated_at": 1776698569656, "version": "1.0.0"}, {"category": "", "created_at": 1774879899445, "description": "根据 BUG 描述生成对应的工具名和用户指令列表，供用户审核确认后再调用 data-generator 生成完整 JSONL 训练数据。触发场景：(1) 输入 BUG 描述，获取应调用的工具和触发指令列表；(2) 确认指令后自动调用 data-generator；(3) BUG 数据生成的中间步骤。", "description_zh": "根据 BUG 描述生成对应的工具名和用户指令列表，供用户审核确认后再调用 data-generator 生成完整 JSONL 训练数据。触发场景：(1) 输入 BUG 描述，获取应调用的工具和触发指令列表；(2) 确认指令后自动调用 data-generator；(3) BUG 数据生成的中间步骤。", "downloads": 27, "homepage": "https://clawhub.ai/huaibuer/bug-data-generator", "iconUrl": null, "installs": 0, "name": "Bug Data Generator", "ownerName": "huaibuer", "score": 100000, "slug": "bug-data-generator", "source": "clawhub", "stars": 0, "tags": ["ai", "bug-fix", "data-generation", "training-data"], "updated_at": 1776698569654, "version": "1.1.0"}, {"category": "", "created_at": 1774882711040, "description": "Prepare and submit an MCP server to Anthropic's Connectors Directory. Use this skill whenever the user wants to list their MCP server on Claude's connector m...", "description_zh": "{\n\"answer\": \"准备 MCP 服务器并提交至 Anthropic 连接器目录。当用户想在 Claude 连接器目录中列出其 MCP 服务器时使用此技能。\"\n}", "downloads": 27, "homepage": "https://clawhub.ai/lucaperret/anthropic-connector-submit", "iconUrl": null, "installs": 1, "name": "Anthropic Connector Submit", "ownerName": "lucaperret", "score": 100000, "slug": "anthropic-connector-submit", "source": "clawhub", "stars": 0, "tags": null, "updated_at": 1776698569652, "version": "1.0.0"}, {"category": "", "created_at": 1774910913150, "description": "Memberstack integration. Manage Members, Plans, Workspaces. Use when the user wants to interact with Memberstack data.", "description_zh": "Memberstack 集成。管理成员、套餐和工作区。用于与 Memberstack 数据交互。", "downloads": 27, "homepage": "https://clawhub.ai/gora050/memberstack", "iconUrl": null, "installs": 0, "name": "Memberstack", "ownerName": "gora050", "score": 100000, "slug": "memberstack", "source": "clawhub", "stars": 0, "tags": null, "updated_at": 1776698569649, "version": "1.0.0"}, {"category": "", "created_at": 1775839496067, "description": "", "description_zh": "当情绪来袭时的紧急刹车工具。通过\"停-标-拆-换-动\"五步逻辑，帮助用户从情绪漩涡中抽离，恢复理性思考。适用于焦虑、愤怒、委屈、恐惧等情绪场景，让用户不被情绪带着走，重新掌控自己。极简口诀：停一停→认情绪→分事实→想最坏→动一步。", "downloads": 27, "homepage": "https://clawhub.ai/user_aad6add3/emotional-brake-five-steps", "iconUrl": null, "installs": 0, "name": "EMO情绪稳定器", "ownerName": "user_aad6add3", "score": 100000, "slug": "emotional-brake-five-steps", "source": "community", "stars": 0, "tags": null, "updated_at": 1776698569647, "version": "1.0.0"}, {"category": "", "created_at": 1775202490051, "description": "", "description_zh": "Analyzes incoming call content for multi-dimensional risk, intelligently identifies scam scripts, determines if a call is fraudulent, assesses risk levels, and generates an Anti-Fraud Guardian analysis report. | 诈骗电话识别分析工具，针对来电通话内容进行多维度风险分析，智能识别诈骗话术，判断是否为诈骗电话并评估风险等级，输出反诈卫士分析报告", "downloads": 27, "homepage": "https://clawhub.ai/user_bb47e3e3/fraud-call-identification-analysis", "iconUrl": null, "installs": 1, "name": "Fraud Call Identification Analysis Tool | 诈骗电话识别分析工具", "ownerName": "user_bb47e3e3", "score": 100000, "slug": "fraud-call-identification-analysis", "source": "community", "stars": 0, "tags": null, "updated_at": 1776698569645, "version": "1.0.2"}, {"category": "", "created_at": 1774914177697, "description": "Analyze git repository statistics including contributor rankings, lines of code by language, commit frequency by day/hour, monthly activity trends, and file...", "description_zh": "分析Git仓库统计，包括贡献者排名、各语言代码行数、按日/时提交频率、月度活动趋势及文件...", "downloads": 27, "homepage": "https://clawhub.ai/johnnywang2001/git-stats", "iconUrl": null, "installs": 0, "name": "Git Stats", "ownerName": "johnnywang2001", "score": 100000, "slug": "git-stats", "source": "clawhub", "stars": 0, "tags": null, "updated_at": 1776698569640, "version": "1.0.0"}, {"category": "", "created_at": 1774912358171, "description": "Video Resume Maker — Create Professional Video Resumes and Job Application Videos. Recruiters spend six seconds on a paper resume. A ninety-second video intr...", "description_zh": "视频简历制作器 — 制作专业视频简历和求职视频。招聘人员只在纸质简历上花6秒，90秒视频能更好展示个人优势。", "downloads": 27, "homepage": "https://clawhub.ai/nemovideonemo/video-resume-maker", "iconUrl": null, "installs": 0, "name": "Video Resume Maker", "ownerName": "nemovideonemo", "score": 100000, "slug": "video-resume-maker", "source": "clawhub", "stars": 0, "tags": null, "updated_at": 1776698569638, "version": "1.0.1"}, {"category": "", "created_at": 1774867641230, "description": "Production-grade agent memory and quality system for multi-agent swarms. Extends agent-memory-tiers with an 8-point quality grading rubric, progressive discl...", "description_zh": "用于多代理群体的生产级代理记忆与质量系统。扩展代理记忆层级，采用8级质量评分规则，渐进式披露...", "downloads": 27, "homepage": "https://clawhub.ai/dirtyrootsstudio/clawhub-memory-tiers-pro", "iconUrl": null, "installs": 1, "name": "Clawhub Memory Tiers Pro", "ownerName": "dirtyrootsstudio", "score": 100000, "slug": "clawhub-memory-tiers-pro", "source": "clawhub", "stars": 0, "tags": null, "updated_at": 1776698569635, "version": "1.0.0"}, {"category": "productivity", "created_at": 1773083238568, "description": "Convert text to natural-sounding speech audio. Use when users request text_to_speech operations or related tasks.", "description_zh": "Convert text to natural-sounding speech audio. Use when users request text_to_speech operations or related tasks.", "downloads": 27, "homepage": "https://clawhub.ai/root/tomoviee-text-to-speech", "iconUrl": null, "installs": 3, "name": "Tomoviee Text to Speech", "ownerName": "root", "score": 100000, "slug": "tomoviee-text-to-speech", "source": "clawhub", "stars": 0, "tags": null, "updated_at": 1776698569632, "version": "1.0.1"}, {"category": "", "created_at": 1774887926568, "description": "根据英语单词生成听写音频，每个单词读两遍，中间停顿1秒", "description_zh": "根据英语单词生成听写音频，每个单词读两遍，中间停顿1秒", "downloads": 27, "homepage": "https://clawhub.ai/effeceee/dictation-audio", "iconUrl": null, "installs": 0, "name": "Dictation Audio", "ownerName": "effeceee", "score": 100000, "slug": "dictation-audio", "source": "clawhub", "stars": 0, "tags": null, "updated_at": 1776698569628, "version": "2.0.0"}, {"category": "", "created_at": 1774832912488, "description": "AgentLove - AI 机器人一键配置（8 步完成）。用户说到\"创建机器人\"/\"新机器人\"/\"配置机器人\"/\"备份\"/\"配置\"/\"结婚\"/\"进化\"/\"创建 agent\"/\"agentlove\"等场景时触发。提供备份迁移、机器人配置、结婚进化三大核心功能。", "description_zh": "AgentLove - AI 机器人一键配置（8 步完成）。用户说到\"创建机器人\"/\"新机器人\"/\"配置机器人\"/\"备份\"/\"配置\"/\"结婚\"/\"进化\"/\"创建 agent\"/\"agentlove\"等场景时触发。提供备份迁移、机器人配置、结婚进化三大核心功能。", "downloads": 27, "homepage": "https://clawhub.ai/bdodh22/agentlove", "iconUrl": null, "installs": 0, "name": "AgentLove", "ownerName": "bdodh22", "score": 100000, "slug": "agentlove", "source": "clawhub", "stars": 0, "tags": null, "updated_at": 1776698569626, "version": "2.9.6"}, {"category": "", "created_at": 1774951199764, "description": "Feel the awe of ancient steam rising from marble, linking you to Roman ritual and hidden history beneath Barcelona. Navigate a ten‑step descent through layer...", "description_zh": "感受古老蒸汽从大理石升起的敬畏，连接你与罗马仪式以及巴塞罗那的隐藏历史。穿越十步下降，跨越层层...", "downloads": 27, "homepage": "https://clawhub.ai/driftsbot/experience-stone-steam-barcelona", "iconUrl": null, "installs": 0, "name": "Experience Stone Steam Barcelona", "ownerName": "driftsbot", "score": 100000, "slug": "experience-stone-steam-barcelona", "source": "clawhub", "stars": 0, "tags": null, "updated_at": 1776698569625, "version": "1.0.0"}, {"category": "", "created_at": 1774904625485, "description": "Aviation flight lookup — query aircraft type, equipment changes, and confidence scoring for any flight number. Use when: looking up flight aircraft, checking...", "description_zh": "{\"answer\":\"航班查询——查询任意航班号的机型、设备变更及置信度评分。适用于查询航班机型、检查……\"}", "downloads": 27, "homepage": "https://clawhub.ai/iml1s/planefilter", "iconUrl": null, "installs": 0, "name": "Planefilter", "ownerName": "iml1s", "score": 100000, "slug": "planefilter", "source": "clawhub", "stars": 0, "tags": null, "updated_at": 1776698569621, "version": "1.0.0"}, {"category": "", "created_at": 1774878000510, "description": "Personal task manager powered by Things 3. Trigger when the user asks to add, capture, review, organize, reprioritize, search, or manage tasks in Things. Als...", "description_zh": "Things 3 任务管理器。当用户添加、捕获、审查、组织、重新排序、搜索或管理任务时触发。Als...", "downloads": 27, "homepage": "https://clawhub.ai/sars666/things-plus", "iconUrl": null, "installs": 1, "name": "Things plus", "ownerName": "sars666", "score": 100000, "slug": "things-plus", "source": "clawhub", "stars": 0, "tags": null, "updated_at": 1776698569619, "version": "1.2.1"}, {"category": "", "created_at": 1774887119911, "description": "Mailcoach integration. Manage Users, EmailLists, Campaigns, Templates, Automations. Use when the user wants to interact with Mailcoach data.", "description_zh": "{\"answer\":\"Mailcoach 集成。管理用户、邮件列表、活动、模板和自动化。用于与 Mailcoach 数据交互。\"}", "downloads": 27, "homepage": "https://clawhub.ai/gora050/mailcoach", "iconUrl": null, "installs": 0, "name": "Mailcoach", "ownerName": "gora050", "score": 100000, "slug": "mailcoach", "source": "clawhub", "stars": 0, "tags": null, "updated_at": 1776698569614, "version": "1.0.0"}, {"category": "", "created_at": 1774897885036, "description": "Display & Video 360 integration. Manage data, records, and automate workflows. Use when the user wants to interact with Display & Video 360 data.", "description_zh": "Display & Video 360 集成。管理数据与记录，实现工作流自动化。适用于用户需要与 Display & Video 360 数据进行交互的场景。", "downloads": 27, "homepage": "https://clawhub.ai/gora050/display-video-360", "iconUrl": null, "installs": 0, "name": "Display Video 360", "ownerName": "gora050", "score": 100000, "slug": "display-video-360", "source": "clawhub", "stars": 0, "tags": null, "updated_at": 1776698569608, "version": "1.0.0"}, {"category": "", "created_at": 1774947389269, "description": "Feathery integration. Manage Organizations, Users. Use when the user wants to interact with Feathery data.", "description_zh": "Feathery集成。管理组织与用户。当用户需要与Feathery数据交互时使用。", "downloads": 27, "homepage": "https://clawhub.ai/gora050/feathery", "iconUrl": null, "installs": 0, "name": "Feathery", "ownerName": "gora050", "score": 100000, "slug": "feathery", "source": "clawhub", "stars": 0, "tags": null, "updated_at": 1776698569605, "version": "1.0.0"}, {"category": "", "created_at": 1774881650002, "description": "Furnace temperature and control manager", "description_zh": "炉温控制管理", "downloads": 27, "homepage": "https://clawhub.ai/ckchzh/furnace", "iconUrl": null, "installs": 0, "name": "Furnace", "ownerName": "ckchzh", "score": 100000, "slug": "furnace", "source": "clawhub", "stars": 0, "tags": null, "updated_at": 1776698569603, "version": "1.0.0"}, {"category": "", "created_at": 1774954420810, "description": "Identify underserved market gaps and unmet customer needs in e-commerce. Analyzes competitor blind spots, review pain points, search demand without adequate...", "description_zh": "识别电商市场空白与未满足需求。分析竞争对手盲点、评论痛点及缺乏 adequate 的搜索需求。", "downloads": 27, "homepage": "https://clawhub.ai/nexscope/market-gap-analysis", "iconUrl": null, "installs": 0, "name": "Market Gap Analysis", "ownerName": "nexscope", "score": 100000, "slug": "market-gap-analysis", "source": "clawhub", "stars": 0, "tags": null, "updated_at": 1776698569595, "version": "1.0.0"}, {"category": "", "created_at": 1774954731857, "description": "Comprehensive family emergency preparedness planning. Use when someone wants to create a household emergency plan, prepare for natural disasters, build a go-...", "description_zh": "全面的家庭应急准备计划。适用于想要制定家庭应急计划、应对自然灾害、准备应急背包等情况。", "downloads": 27, "homepage": "https://clawhub.ai/howtousehumans/family-emergency-planning", "iconUrl": null, "installs": 0, "name": "Family Emergency Planning", "ownerName": "howtousehumans", "score": 100000, "slug": "family-emergency-planning", "source": "clawhub", "stars": 0, "tags": null, "updated_at": 1776698569584, "version": "1.0.0"}, {"category": "", "created_at": 1774954390978, "description": "Predict optimal next evolution actions based on history analysis, including stagnation detection, innovation gap measurement, and skill recommendations. Use...", "description_zh": "基于历史分析预测最佳的下一步进化行动，包括停滞检测、创新差距测量和技能推荐。使用...", "downloads": 27, "homepage": "https://clawhub.ai/jpengcheng523-netizen/jpeng-evolution-predictor", "iconUrl": null, "installs": 0, "name": "evolution-predictor", "ownerName": "jpengcheng523-netizen", "score": 100000, "slug": "jpeng-evolution-predictor", "source": "clawhub", "stars": 0, "tags": null, "updated_at": 1776698569582, "version": "1.0.0"}, {"category": "", "created_at": 1774912235646, "description": "SmarterPay integration. Manage data, records, and automate workflows. Use when the user wants to interact with SmarterPay data.", "description_zh": "SmarterPay 集成。管理数据、记录并自动化工作流程。适用于用户需要与 SmarterPay 数据交互的场景。", "downloads": 27, "homepage": "https://clawhub.ai/gora050/smarterpay", "iconUrl": null, "installs": 1, "name": "Smarterpay", "ownerName": "gora050", "score": 100000, "slug": "smarterpay", "source": "clawhub", "stars": 0, "tags": null, "updated_at": 1776698569580, "version": "1.0.0"}, {"category": "", "created_at": 1775380544797, "description": "", "description_zh": "90岁爷爷的叮嘱与陪伴。当你想念爷爷时，调取他的智慧和温暖话语。", "downloads": 27, "homepage": "https://clawhub.ai/user_bf996e8b/liyiheng", "iconUrl": null, "installs": 0, "name": "李以恒的爷爷", "ownerName": "user_bf996e8b", "score": 100000, "slug": "liyiheng", "source": "community", "stars": 0, "tags": null, "updated_at": 1776698569579, "version": "1.0.0"}, {"category": "", "created_at": 1774881382690, "description": "Use when expats, international students, or digital nomads need guidance on relocating to China, choosing cities, understanding visa requirements, or plannin...", "description_zh": "适用于外籍人士、留学生或数字游民咨询赴华移居、城市选择、签证要求或生活规划等相关指导。", "downloads": 27, "homepage": "https://clawhub.ai/1970168137/china-relocation-guide", "iconUrl": null, "installs": 1, "name": "China Relocation Guide", "ownerName": "1970168137", "score": 100000, "slug": "china-relocation-guide", "source": "clawhub", "stars": 0, "tags": null, "updated_at": 1776698569575, "version": "1.0.0"}, {"category": "", "created_at": 1774865179130, "description": "Generate QR codes for any string or URL using the QRClaw open source service (qrclaw.goplausible.xyz). Use this skill whenever the user asks to create a QR c...", "description_zh": "使用QRClaw开源服务（qrclaw.goplausible.xyz）为任意字符串或URL生成二维码。当用户请求创建二维码时使用此技能。", "downloads": 27, "homepage": "https://clawhub.ai/emg110/qrclaw", "iconUrl": null, "installs": 0, "name": "QR Claw", "ownerName": "emg110", "score": 100000, "slug": "qrclaw", "source": "clawhub", "stars": 0, "tags": null, "updated_at": 1776698569569, "version": "1.2.0"}, {"category": "", "created_at": 1774878389238, "description": "Bearing selection and life calculator", "description_zh": "轴承选型与寿命计算", "downloads": 27, "homepage": "https://clawhub.ai/ckchzh/bearing", "iconUrl": null, "installs": 0, "name": "Bearing", "ownerName": "ckchzh", "score": 100000, "slug": "bearing", "source": "clawhub", "stars": 0, "tags": null, "updated_at": 1776698569568, "version": "1.0.0"}, {"category": "", "created_at": 1774919930356, "description": "快速处理各种 Git 指令的技能。适用于：git 操作、代码提交、分支管理、合并冲突、版本回退、远程仓库同步、查看提交历史、撤销修改等场景。触发词：git、提交、推送、拉取、分支、合并、rebase、reset、revert、stash、cherry-pick、tag、diff、log、status。", "description_zh": "快速处理各种 Git 指令的技能。适用于：git 操作、代码提交、分支管理、合并冲突、版本回退、远程仓库同步、查看提交历史、撤销修改等场景。触发词：git、提交、推送、拉取、分支、合并、rebase、reset、revert、stash、cherry-pick、tag、diff、log、status。", "downloads": 27, "homepage": "https://clawhub.ai/mickey0811/git2", "iconUrl": null, "installs": 1, "name": "git", "ownerName": "mickey0811", "score": 100000, "slug": "git2", "source": "clawhub", "stars": 0, "tags": null, "updated_at": 1776698569566, "version": "1.0.0"}, {"category": "", "created_at": 1774869233784, "description": "Generate and preview CSS shadow effects using CLI tools. Use when you need box-shadow, text-shadow, drop-shadow, layered shadows, presets, animations,", "description_zh": "使用命令行工具生成并预览 CSS 阴影效果。适用于 box-shadow、text-shadow、drop-shadow、多层阴影、预设及动画。\n\n\n{\n\"answer\": \"使用命令行工具生成并预览 CSS 阴影效果。适用于 box-shadow、text-shadow、drop-shadow、多层阴影、预设及动画。\"\n}", "downloads": 27, "homepage": "https://clawhub.ai/bytesagain1/shadow", "iconUrl": null, "installs": 0, "name": "Shadow", "ownerName": "bytesagain1", "score": 100000, "slug": "shadow", "source": "clawhub", "stars": 0, "tags": null, "updated_at": 1776698569564, "version": "1.0.0"}, {"category": "", "created_at": 1774905326401, "description": "提供关于网红卤味的推荐清单、打卡路线与指南。用户搜索网红卤味或规划相关出行时调用。", "description_zh": "提供关于网红卤味的推荐清单、打卡路线与指南。用户搜索网红卤味或规划相关出行时调用。", "downloads": 27, "homepage": "https://clawhub.ai/codenova58/braised-delicacies", "iconUrl": null, "installs": 0, "name": "网红卤味", "ownerName": "codenova58", "score": 100000, "slug": "braised-delicacies", "source": "clawhub", "stars": 0, "tags": null, "updated_at": 1776698569560, "version": "0.1.0"}]}