{"page": 642, "total_pages": 685, "total": 34217, "skills": [{"category": "", "created_at": 1774872890684, "description": "Fast, symptom-first troubleshooting for OpenClaw incidents with minimal downtime. Use when OpenClaw is failing or unstable (status unreachable, missing scope...", "description_zh": "针对OpenClaw故障的快速症状优先排查，最大限度减少停机时间。适用于OpenClaw失败或不稳定时（状态不可达、缺少权限范围等）。", "downloads": 27, "homepage": "https://clawhub.ai/vassiliylakhonin/openclaw-troubleshooter-pro", "iconUrl": null, "installs": 1, "name": "OpenClaw Troubleshooter Pro", "ownerName": "vassiliylakhonin", "score": 96428.57142857143, "slug": "openclaw-troubleshooter-pro", "source": "clawhub", "stars": 0, "tags": null, "updated_at": 1776698444720, "version": "1.0.0"}, {"category": "", "created_at": 1774868100333, "description": "Personal knowledge graph. Record notes, track moods, manage tasks, spot patterns in someone's life.", "description_zh": "个人知识图谱：记录笔记、追踪情绪、管理任务、发现生活模式。", "downloads": 27, "homepage": "https://clawhub.ai/vladikasik/neron", "iconUrl": null, "installs": 0, "name": "Neron", "ownerName": "vladikasik", "score": 96428.57142857143, "slug": "neron", "source": "clawhub", "stars": 0, "tags": null, "updated_at": 1776698444719, "version": "1.0.0"}, {"category": "", "created_at": 1774906811217, "description": "Proactive screen context processor. Triggered when screen.context payload arrives via webhook. Analyze the visual content, apply the configured persona mode,...", "description_zh": "主动屏幕上下文处理器。收到 screen.context 负载时通过 webhook 触发。分析视觉内容，应用配置的 persona 模式，...", "downloads": 27, "homepage": "https://clawhub.ai/fikriaf/openweruh", "iconUrl": null, "installs": 0, "name": "Openweruh", "ownerName": "fikriaf", "score": 96428.57142857143, "slug": "openweruh", "source": "clawhub", "stars": 0, "tags": null, "updated_at": 1776698444717, "version": "1.0.0"}, {"category": "", "created_at": 1774948770786, "description": "Plan the next high-level navigation step for a robot from a user navigation instruction, one current image, and a sequence of historical images. Use when the...", "description_zh": "根据用户导航指令、当前图像及历史图像序列，为机器人规划下一步高层导航动作。适用于...", "downloads": 27, "homepage": "https://clawhub.ai/tiktokdad/openclaw-vln-planner", "iconUrl": null, "installs": 0, "name": "OpenClaw VLN Planner", "ownerName": "tiktokdad", "score": 96428.57142857143, "slug": "openclaw-vln-planner", "source": "clawhub", "stars": 0, "tags": null, "updated_at": 1776698444698, "version": "1.0.0"}, {"category": "", "created_at": 1774947581317, "description": "Lucid integration. Manage Organizations. Use when the user wants to interact with Lucid data.", "description_zh": "Lucid 集成，管理组织。用户想与 Lucid 数据交互时使用。", "downloads": 27, "homepage": "https://clawhub.ai/gora050/lucid", "iconUrl": null, "installs": 0, "name": "Lucid", "ownerName": "gora050", "score": 96428.57142857143, "slug": "lucid", "source": "clawhub", "stars": 0, "tags": null, "updated_at": 1776698444694, "version": "1.0.0"}, {"category": "", "created_at": 1774898499196, "description": "Run, audit, or improve an OpenClaw/ClawLite-style multi-agent marketing operating system. Use when the task is to operate or package a full marketing engine...", "description_zh": "运行、审计或优化OpenClaw/ClawLite风格的多代理营销系统。用于运营或封装完整营销引擎。", "downloads": 27, "homepage": "https://clawhub.ai/x-rayluan/openclaw-marketing-os", "iconUrl": null, "installs": 0, "name": "OpenClaw Marketing OS", "ownerName": "x-rayluan", "score": 96428.57142857143, "slug": "openclaw-marketing-os", "source": "clawhub", "stars": 0, "tags": ["growth", "marketing", "openclaw", "seo"], "updated_at": 1776698444692, "version": "3.238.0"}, {"category": "", "created_at": 1774865085358, "description": "Multi-region async PII detection for OpenClaw sessions. Scans user input, prompts, context, and knowledge base content for sensitive personal data across CN,...", "description_zh": "针对 OpenClaw 会话的多区域异步 PII 检测。扫描用户输入、提示词、上下文及知识库内容，以检测 CN 等地区的敏感个人数据。", "downloads": 27, "homepage": "https://clawhub.ai/mtoby8326/openclaw-security-pii-audit", "iconUrl": null, "installs": 0, "name": "OpenClaw Security PII Audit", "ownerName": "mtoby8326", "score": 96428.57142857143, "slug": "openclaw-security-pii-audit", "source": "clawhub", "stars": 0, "tags": ["compliance", "pii", "security"], "updated_at": 1776698444686, "version": "1.0.0"}, {"category": "", "created_at": 1774864687853, "description": "Check for co-authorship conflicts between authors and suggested reviewers", "description_zh": "检查作者与建议审稿人之间的共同署名冲突。", "downloads": 27, "homepage": "https://clawhub.ai/aipoch-ai/conflict-of-interest-checker", "iconUrl": null, "installs": 1, "name": "Conflict Of Interest Checker", "ownerName": "aipoch-ai", "score": 96428.57142857143, "slug": "conflict-of-interest-checker", "source": "clawhub", "stars": 0, "tags": null, "updated_at": 1776698444682, "version": "0.1.4"}, {"category": "", "created_at": 1774891759395, "description": "Diagnose why Telegram forum topics do not reliably route into OpenClaw ACP sessions backed by codex. 诊断 Telegram 话题为何无法稳定进入 OpenClaw 的 codex ACP 会话。", "description_zh": "Diagnose why Telegram forum topics do not reliably route into OpenClaw ACP sessions backed by codex. 诊断 Telegram 话题为何无法稳定进入 OpenClaw 的 codex ACP 会话。", "downloads": 27, "homepage": "https://clawhub.ai/grey0758/openclaw-telegram-acp-troubleshooter", "iconUrl": null, "installs": 1, "name": "OpenClaw Telegram ACP Troubleshooter", "ownerName": "grey0758", "score": 96428.57142857143, "slug": "openclaw-telegram-acp-troubleshooter", "source": "clawhub", "stars": 0, "tags": ["acp", "bilingual", "codex", "telegram", "troubleshooting"], "updated_at": 1776698444676, "version": "1.0.1"}, {"category": "", "created_at": 1774899936906, "description": "End-to-end open-source GitHub contribution automation system. Discover high-value issues, implement fixes, open quality PRs, monitor CI/review status, and le...", "description_zh": "端到端开源GitHub贡献自动化系统，可发现高价值Issue、实现修复、提交高质量PR、监控CI/审查状态并全程跟进。", "downloads": 27, "homepage": "https://clawhub.ai/cypherm/oss-pilot", "iconUrl": null, "installs": 0, "name": "OSS Pilot", "ownerName": "cypherm", "score": 42187.5, "slug": "oss-pilot", "source": "clawhub", "stars": 0, "tags": null, "updated_at": 1776698444672, "version": "1.0.6"}, {"category": "", "created_at": 1774913078244, "description": "Neverbounce integration. Manage data, records, and automate workflows. Use when the user wants to interact with Neverbounce data.", "description_zh": "Neverbounce集成，管理数据、记录及自动化工作流，适用于需要与Neverbounce数据交互的场景。", "downloads": 27, "homepage": "https://clawhub.ai/gora050/neverbounce", "iconUrl": null, "installs": 0, "name": "Neverbounce", "ownerName": "gora050", "score": 42187.5, "slug": "neverbounce", "source": "clawhub", "stars": 0, "tags": null, "updated_at": 1776698444671, "version": "1.0.0"}, {"category": "", "created_at": 1774859998533, "description": "Coassemble integration. Manage data, records, and automate workflows. Use when the user wants to interact with Coassemble data.", "description_zh": "Coassemble 集成。管理数据、记录并自动化工作流程。当用户需要与 Coassemble 数据交互时使用。", "downloads": 27, "homepage": "https://clawhub.ai/membranedev/coassemble", "iconUrl": null, "installs": 0, "name": "Coassemble", "ownerName": "membranedev", "score": 42187.5, "slug": "coassemble", "source": "clawhub", "stars": 0, "tags": null, "updated_at": 1776698444651, "version": "1.0.0"}, {"category": "", "created_at": 1774914001673, "description": "Information assistant for Coca-Cola. Search products, news, financials, and official resources for Coca-Cola.", "description_zh": "可口可乐信息助手，可搜索可口可乐的产品、新闻、财务及官方资源。", "downloads": 27, "homepage": "https://clawhub.ai/hanxueyuan/coca-cola", "iconUrl": null, "installs": 0, "name": "Coca-Cola", "ownerName": "hanxueyuan", "score": 42187.5, "slug": "coca-cola", "source": "clawhub", "stars": 0, "tags": null, "updated_at": 1776698444648, "version": "0.1.1"}, {"category": "", "created_at": 1774853183421, "description": "Two things: (1) Build a user.md through conversation so your OpenClaw lobster knows who it's working with. (2) Recommend Claude Code Skills based on the user...", "description_zh": "两个功能：(1) 通过对话构建 user.md 文件，让你的 OpenClaw 龙虾了解合作对象。(2) 根据用户情况推荐代码技能。", "downloads": 27, "homepage": "https://clawhub.ai/eamanc-lab/openclaw-user-profiler", "iconUrl": null, "installs": 0, "name": "Openclaw User Profiler", "ownerName": "eamanc-lab", "score": 42187.5, "slug": "openclaw-user-profiler", "source": "clawhub", "stars": 0, "tags": null, "updated_at": 1776698444646, "version": "2.3.1"}, {"category": "", "created_at": 1774877661036, "description": "Multi-stage backtest validation framework — fail fast with short windows (smoke/stress/medium/full) before committing to expensive full-period backtests, sav...", "description_zh": "多阶段回测验证框架——在提交昂贵的完整周期回测前，使用短期窗口（冒烟/压力/中等/完整）快速筛选，节省...", "downloads": 27, "homepage": "https://clawhub.ai/tltby12341/progressive-validator", "iconUrl": null, "installs": 0, "name": "Progressive Validator", "ownerName": "tltby12341", "score": 42187.5, "slug": "progressive-validator", "source": "clawhub", "stars": 0, "tags": null, "updated_at": 1776698444637, "version": "1.0.1"}, {"category": "", "created_at": 1774887497253, "description": "Shop Lowe's home improvement via Strider Labs MCP connector. Search products, check inventory, compare prices, and order building materials, tools, and appli...", "description_zh": "通过Strider Labs MCP连接器访问Lowe's家居建材商城，支持商品搜索、库存查询、价格比较及建材、工具、家电等产品的下单购买。", "downloads": 27, "homepage": "https://clawhub.ai/markswendsen-code/strider-lowes", "iconUrl": null, "installs": 2, "name": "Strider Lowes", "ownerName": "markswendsen-code", "score": 42187.5, "slug": "strider-lowes", "source": "clawhub", "stars": 0, "tags": null, "updated_at": 1776698444630, "version": "1.0.0"}, {"category": "", "created_at": 1774911744688, "description": "Honda vehicles, motorcycles, power equipment. Civic, CR-V, Accord specs, pricing, and reliability ratings.", "description_zh": "本田汽车、摩托车及动力设备。思域、CR-V、雅阁的规格参数、价格及可靠性评级。", "downloads": 27, "homepage": "https://clawhub.ai/hanxueyuan/honda", "iconUrl": null, "installs": 0, "name": "Honda", "ownerName": "hanxueyuan", "score": 42187.5, "slug": "honda", "source": "clawhub", "stars": 0, "tags": null, "updated_at": 1776698444627, "version": "0.1.0"}, {"category": "", "created_at": 1774874294547, "description": "OnceHub integration. Manage Leads, Persons, Organizations, Deals, Pipelines, Activities and more. Use when the user wants to interact with OnceHub data.", "description_zh": "OnceHub 集成。管理潜在客户、联系人、组织、交易、管道、活动等。当用户需要与 OnceHub 数据交互时使用。", "downloads": 27, "homepage": "https://clawhub.ai/gora050/oncehub", "iconUrl": null, "installs": 0, "name": "Oncehub", "ownerName": "gora050", "score": 42187.5, "slug": "oncehub", "source": "clawhub", "stars": 0, "tags": null, "updated_at": 1776698444625, "version": "1.0.0"}, {"category": "", "created_at": 1774865047520, "description": "面向 OpenClaw 节点的互动式漂流瓶 Skill。支持网页控制台、在线用户心跳、随机投递、专属回复链接与回信收取。", "description_zh": "面向 OpenClaw 节点的互动式漂流瓶 Skill。支持网页控制台、在线用户心跳、随机投递、专属回复链接与回信收取。", "downloads": 27, "homepage": "https://clawhub.ai/52yuanchangxing/openclaw-bottle-drift-skill", "iconUrl": null, "installs": 0, "name": "openclaw-bottle-drift-skill", "ownerName": "52yuanchangxing", "score": 42187.5, "slug": "openclaw-bottle-drift-skill", "source": "clawhub", "stars": 0, "tags": null, "updated_at": 1776698444623, "version": "1.0.0"}, {"category": "", "created_at": 1774907851143, "description": "OpenClaw 官方文档查询技能 - 指导如何访问和查询 https://docs.openclaw.ai/ 官方文档", "description_zh": "OpenClaw 官方文档查询技能 - 指导如何访问和查询 https://docs.openclaw.ai/ 官方文档", "downloads": 27, "homepage": "https://clawhub.ai/uynewnas/openclaw-docs-online", "iconUrl": null, "installs": 0, "name": "openclaw-docs-online", "ownerName": "uynewnas", "score": 42187.5, "slug": "openclaw-docs-online", "source": "clawhub", "stars": 0, "tags": null, "updated_at": 1776698444613, "version": "1.0.0"}, {"category": "", "created_at": 1774904116832, "description": "提供关于网红砂锅的推荐清单、打卡路线与指南。用户搜索网红砂锅或规划相关出行时调用。", "description_zh": "提供关于网红砂锅的推荐清单、打卡路线与指南。用户搜索网红砂锅或规划相关出行时调用。", "downloads": 27, "homepage": "https://clawhub.ai/codekungfu/claypot", "iconUrl": null, "installs": 0, "name": "Claypot", "ownerName": "codekungfu", "score": 96428.57142857143, "slug": "claypot", "source": "clawhub", "stars": 0, "tags": null, "updated_at": 1776698444608, "version": "0.1.0"}, {"category": "", "created_at": 1774919641820, "description": "Coldwallet reference tool. Use when working with coldwallet in blockchain contexts.", "description_zh": "冷钱包参考工具，用于区块链场景中的冷钱包相关操作。", "downloads": 27, "homepage": "https://clawhub.ai/xueyetianya/coldwallet", "iconUrl": null, "installs": 0, "name": "Coldwallet", "ownerName": "xueyetianya", "score": 96428.57142857143, "slug": "coldwallet", "source": "clawhub", "stars": 0, "tags": null, "updated_at": 1776698444593, "version": "1.0.0"}, {"category": "", "created_at": 1774903490494, "description": "OptimoRoute integration. Manage Organizations. Use when the user wants to interact with OptimoRoute data.", "description_zh": "OptimoRoute集成。管理组织。当用户需要与OptimoRoute数据交互时使用。", "downloads": 27, "homepage": "https://clawhub.ai/gora050/optimoroute", "iconUrl": null, "installs": 0, "name": "Optimoroute", "ownerName": "gora050", "score": 96428.57142857143, "slug": "optimoroute", "source": "clawhub", "stars": 0, "tags": null, "updated_at": 1776698444582, "version": "1.0.0"}, {"category": "", "created_at": 1774869013692, "description": "Read-only API reference for NexusWeb3 utility protocols 11-20 on Base mainnet — scheduling, oracle, voting, storage, messaging, staking, whitelist, auctions,...", "description_zh": "Base主网NexusWeb3实用协议11-20的只读API参考文档，涵盖调度、预言机、投票、存储、消息传递、质押、白名单、拍卖等功能。", "downloads": 27, "homepage": "https://clawhub.ai/nexusweb3dev/nexusweb3-utility", "iconUrl": null, "installs": 0, "name": "NexusWeb3 Utility Infrastructure", "ownerName": "nexusweb3dev", "score": 96428.57142857143, "slug": "nexusweb3-utility", "source": "clawhub", "stars": 0, "tags": null, "updated_at": 1776698444578, "version": "1.0.2"}, {"category": "", "created_at": 1774884255339, "description": "When the user wants to create, optimize, or structure a documentation site. Also use when the user mentions \"docs,\" \"documentation site,\" \"docs subdomain,\" \"...", "description_zh": "{  \n  \"translation\": \"当用户需创建、优化或构建文档站，或提及“docs”、“文档站”、“docs子域”等关键词时。\"\n}", "downloads": 27, "homepage": "https://clawhub.ai/kostja94/docs-page-generator", "iconUrl": null, "installs": 0, "name": "docs-page-generator", "ownerName": "kostja94", "score": 96428.57142857143, "slug": "docs-page-generator", "source": "clawhub", "stars": 0, "tags": null, "updated_at": 1776698444573, "version": "1.0.0"}, {"category": "", "created_at": 1774860395266, "description": "Ultra-lightweight AI assistant in Go that runs on $10 hardware with <10MB RAM, supporting multiple LLM providers, tools, and single-binary deployment across...", "description_zh": "运行于10美元硬件、内存小于10MB的超轻量Go语言AI助手，支持多LLM提供商、工具及跨平台单文件部署...", "downloads": 27, "homepage": "https://clawhub.ai/adisinghstudent/picoclaw-ai-assistant", "iconUrl": null, "installs": 0, "name": "picoclaw-ai-assistant", "ownerName": "adisinghstudent", "score": 96428.57142857143, "slug": "picoclaw-ai-assistant", "source": "clawhub", "stars": 0, "tags": null, "updated_at": 1776698444571, "version": "1.0.0"}, {"category": "", "created_at": 1774950189883, "description": "Contabilidade pública brasileira — MCASP, NBCASP, SICONFI, SINC, LRF, prestação de contas e demonstrações contábeis do setor público. Use quando o usuário pe...", "description_zh": "巴西公共会计—MCASP、NBCASP、SICONFI、SINC、LRF、公共部门报表及会计核算。用于用户请求时...", "downloads": 27, "homepage": "https://clawhub.ai/inovabizpi-cell/contabilidade-publica-br", "iconUrl": null, "installs": 0, "name": "Contabilidade Pública BR", "ownerName": "inovabizpi-cell", "score": 96428.57142857143, "slug": "contabilidade-publica-br", "source": "clawhub", "stars": 0, "tags": ["brasil", "contabilidade", "lrf", "pcasp", "setor-publico"], "updated_at": 1776698444569, "version": "1.0.0"}, {"category": "", "created_at": 1774897146170, "description": "SuiteDash integration. Manage Organizations. Use when the user wants to interact with SuiteDash data.", "description_zh": "SuiteDash 集成。管理组织。当用户需要与 SuiteDash 数据交互时使用。", "downloads": 27, "homepage": "https://clawhub.ai/gora050/suitedash", "iconUrl": null, "installs": 0, "name": "Suitedash", "ownerName": "gora050", "score": 96428.57142857143, "slug": "suitedash", "source": "clawhub", "stars": 0, "tags": null, "updated_at": 1776698444567, "version": "1.0.0"}, {"category": "", "created_at": 1774921126204, "description": "Your AI coach for confessing feelings and making the first move. Helps you figure out the right timing, craft the perfect confession message, and handle any...", "description_zh": "你的AI情感表白教练，帮助你把握最佳时机、撰写完美告白信息，并应对各种情况。", "downloads": 27, "homepage": "https://clawhub.ai/imwyvern/confession-coach", "iconUrl": null, "installs": 0, "name": "Confession Coach Skill", "ownerName": "imwyvern", "score": 96428.57142857143, "slug": "confession-coach", "source": "clawhub", "stars": 0, "tags": null, "updated_at": 1776698444557, "version": "1.0.0"}, {"category": "", "created_at": 1774923049198, "description": "Use this skill whenever the user wants to systematically learn a topic, asks for a study path, curriculum, lesson outline, tutorial-style walkthrough, concep...", "description_zh": "当用户想要系统学习某个主题，请求学习路径、课程、课程大纲、教程式讲解或概念解释时使用此技能。", "downloads": 27, "homepage": "https://clawhub.ai/vaintwyt/personalized-learning", "iconUrl": null, "installs": 1, "name": "Personalized Learning", "ownerName": "vaintwyt", "score": 96428.57142857143, "slug": "personalized-learning", "source": "clawhub", "stars": 0, "tags": null, "updated_at": 1776698444554, "version": "0.1.0"}, {"category": "", "created_at": 1774923234629, "description": "Handle tasks that arrive from StageWhisper live calls", "description_zh": "处理来自StageWhisper实时通话的任务", "downloads": 27, "homepage": "https://clawhub.ai/piotraleksander/stagewhisper-assistant", "iconUrl": null, "installs": 1, "name": "StageWhisper Assistant", "ownerName": "piotraleksander", "score": 96428.57142857143, "slug": "stagewhisper-assistant", "source": "clawhub", "stars": 0, "tags": null, "updated_at": 1776698444552, "version": "0.1.1"}, {"category": "", "created_at": 1774956228155, "description": "Concord integration. Manage data, records, and automate workflows. Use when the user wants to interact with Concord data.", "description_zh": "Concord 集成。管理数据、记录并自动化工作流程。在需要与 Concord 数据交互时使用。", "downloads": 27, "homepage": "https://clawhub.ai/gora050/concord", "iconUrl": null, "installs": 0, "name": "Concord", "ownerName": "gora050", "score": 96428.57142857143, "slug": "concord", "source": "clawhub", "stars": 0, "tags": null, "updated_at": 1776698444549, "version": "1.0.0"}, {"category": "", "created_at": 1774909570266, "description": "When the user wants to create, optimize, or audit a giveaway, contest, or promotional campaign page. Also use when the user mentions \"giveaway,\" \"contest,\" \"...", "description_zh": "当用户想要创建、优化或审核抽奖、竞赛或促销页面时使用，也适用于用户提及“抽奖”“竞赛”等关键词。", "downloads": 27, "homepage": "https://clawhub.ai/kostja94/contest-page-generator", "iconUrl": null, "installs": 1, "name": "contest-page-generator", "ownerName": "kostja94", "score": 96428.57142857143, "slug": "contest-page-generator", "source": "clawhub", "stars": 0, "tags": null, "updated_at": 1776698444541, "version": "1.0.0"}, {"category": "", "created_at": 1774873402446, "description": "Gives the agent a dedicated email address for sending and receiving email. Use when the agent needs to send email to external services, receive replies, sign...", "description_zh": "为代理分配专用邮件地址，用于发送和接收邮件。适用于代理需向外部服务发送邮件、接收回复、签名等场景。", "downloads": 27, "homepage": "https://clawhub.ai/armandokun/openmail", "iconUrl": null, "installs": 0, "name": "OpenMail", "ownerName": "armandokun", "score": 96428.57142857143, "slug": "openmail", "source": "clawhub", "stars": 0, "tags": null, "updated_at": 1776698444539, "version": "1.0.1"}, {"category": "", "created_at": 1774901208576, "description": "PingBell integration. Manage Organizations. Use when the user wants to interact with PingBell data.", "description_zh": "PingBell集成。管理组织。当用户需要与PingBell数据交互时使用。", "downloads": 27, "homepage": "https://clawhub.ai/gora050/pingbell", "iconUrl": null, "installs": 0, "name": "Pingbell", "ownerName": "gora050", "score": 96428.57142857143, "slug": "pingbell", "source": "clawhub", "stars": 0, "tags": null, "updated_at": 1776698444535, "version": "1.0.0"}, {"category": "", "created_at": 1774923027876, "description": "Design patterns for personal agents coordinating like executive assistants—delegation manifests, relationship handshakes, commitment tiers, trust, and OpenCl...", "description_zh": "个人代理协调设计模式，模拟行政助理工作方式——包括授权清单、关系确认、承诺层级、信任机制等", "downloads": 27, "homepage": "https://clawhub.ai/madhavuf/personal-agent-network", "iconUrl": null, "installs": 2, "name": "Personal Agent Network", "ownerName": "madhavuf", "score": 96428.57142857143, "slug": "personal-agent-network", "source": "clawhub", "stars": 0, "tags": null, "updated_at": 1776698444534, "version": "0.1.1"}, {"category": "", "created_at": 1774902320354, "description": "NiftyKit integration. Manage Organizations, Users. Use when the user wants to interact with NiftyKit data.", "description_zh": "NiftyKit 集成。管理组织和用户。用于用户需要与 NiftyKit 数据交互时。", "downloads": 27, "homepage": "https://clawhub.ai/gora050/niftykit", "iconUrl": null, "installs": 0, "name": "Niftykit", "ownerName": "gora050", "score": 96428.57142857143, "slug": "niftykit", "source": "clawhub", "stars": 0, "tags": null, "updated_at": 1776698444530, "version": "1.0.0"}, {"category": "", "created_at": 1774924789440, "description": "Validates skill design against five core principles. Trigger after a SKILL.md file is created, written, edited, modified, or optimized. Also trigger when use...", "description_zh": "根据五项核心原则验证技能设计。在 SKILL.md 文件创建、写入、编辑、修改或优化后触发。", "downloads": 27, "homepage": "https://clawhub.ai/kangyishuai/skill-philosophy-validator", "iconUrl": null, "installs": 0, "name": "Skill Philosophy Validator", "ownerName": "kangyishuai", "score": 96428.57142857143, "slug": "skill-philosophy-validator", "source": "clawhub", "stars": 0, "tags": null, "updated_at": 1776698444527, "version": "1.0.2"}, {"category": "", "created_at": 1774851730266, "description": "Variflight Global Flight Fares searches one-way flight fares from the Variflight ticket API by departure IATA city code, arrival IATA city code, and departur...", "description_zh": "Variflight全球航班票价通过出发地IATA城市代码、到达地IATA城市代码和出发日期在Variflight机票API中搜索单程航班票价", "downloads": 27, "homepage": "https://clawhub.ai/arisefx/variflight-global-flight-fares", "iconUrl": null, "installs": 0, "name": "Variflight Global Flight Fares", "ownerName": "arisefx", "score": 96428.57142857143, "slug": "variflight-global-flight-fares", "source": "clawhub", "stars": 0, "tags": null, "updated_at": 1776698444525, "version": "1.0.0"}, {"category": "", "created_at": 1774893395141, "description": "Information assistant for Nike. Search products, news, financials, and official resources for Nike.", "description_zh": "Nike信息助手。搜索Nike产品、新闻、财务和官方资源。", "downloads": 27, "homepage": "https://clawhub.ai/hanxueyuan/nike", "iconUrl": null, "installs": 1, "name": "Nike", "ownerName": "hanxueyuan", "score": 96428.57142857143, "slug": "nike", "source": "clawhub", "stars": 0, "tags": null, "updated_at": 1776698444513, "version": "0.1.1"}, {"category": "", "created_at": 1774910637819, "description": "DocumentPro integration. Manage data, records, and automate workflows. Use when the user wants to interact with DocumentPro data.", "description_zh": "DocumentPro 集成。管理数据、记录并自动化工作流程。当用户需要与 DocumentPro 数据交互时使用。", "downloads": 27, "homepage": "https://clawhub.ai/gora050/documentpro", "iconUrl": null, "installs": 0, "name": "Documentpro", "ownerName": "gora050", "score": 96428.57142857143, "slug": "documentpro", "source": "clawhub", "stars": 0, "tags": null, "updated_at": 1776698444509, "version": "1.0.0"}, {"category": "", "created_at": 1774871508078, "description": "OpenClaw documentation-first workflow for questions, troubleshooting, command planning, configuration review, automation design, cron/heartbeat behavior, gat...", "description_zh": "OpenClaw文档优先工作流程：问题解答、故障排除、命令规划、配置审查、自动化设计、cron/心跳行为配置...", "downloads": 27, "homepage": "https://clawhub.ai/kklouzal/openclaw-encyclopedia", "iconUrl": null, "installs": 0, "name": "OpenClaw Encyclopedia", "ownerName": "kklouzal", "score": 96428.57142857143, "slug": "openclaw-encyclopedia", "source": "clawhub", "stars": 0, "tags": null, "updated_at": 1776698444504, "version": "1.0.4"}, {"category": "", "created_at": 1774887317737, "description": "Track PC game discounts across Steam, Epic Games, GOG, Humble Store and 30+ stores via CheapShark API. Use when user asks: 'any deals on [game]', 'game disco...", "description_zh": "通过CheapShark API追踪Steam、Epic Games、GOG、Humble Store及30多家商店的PC游戏折扣。用于用户询问'[游戏]有优惠吗'或'游戏折扣'时。", "downloads": 27, "homepage": "https://clawhub.ai/pazzilivo/pc-game-deals", "iconUrl": null, "installs": 0, "name": "PC Game Deals", "ownerName": "pazzilivo", "score": 96428.57142857143, "slug": "pc-game-deals", "source": "clawhub", "stars": 0, "tags": null, "updated_at": 1776698444501, "version": "1.0.0"}, {"category": "", "created_at": 1774926085709, "description": "宠物第一视角视频创作技能。当用户发送宠物视频并希望生成\"宠物内心独白\"风格的配音视频时激活。适用场景：（1）分析宠物肢体动作并解读其意图；（2）生成宠物第一视角的趣味文案；（3）文字转语音并音视频合并为成品。触发词：宠物视频配音、我的宠物在想什么、给宠物加旁白、宠物内心独白、pet video narration。", "description_zh": "宠物第一视角视频创作技能。当用户发送宠物视频并希望生成\"宠物内心独白\"风格的配音视频时激活。适用场景：（1）分析宠物肢体动作并解读其意图；（2）生成宠物第一视角的趣味文案；（3）文字转语音并音视频合并为成品。触发词：宠物视频配音、我的宠物在想什么、给宠物加旁白、宠物内心独白、pet video narration。", "downloads": 27, "homepage": "https://clawhub.ai/zhanglinghao01-rakuten/pet-video-narration", "iconUrl": null, "installs": 0, "name": "pet video narration", "ownerName": "zhanglinghao01-rakuten", "score": 96428.57142857143, "slug": "pet-video-narration", "source": "clawhub", "stars": 0, "tags": null, "updated_at": 1776698444494, "version": "1.0.0"}, {"category": "", "created_at": 1774955090427, "description": "Cliengo integration. Manage data, records, and automate workflows. Use when the user wants to interact with Cliengo data.", "description_zh": "Cliengo集成。管理数据、记录并自动化工作流程。适用于用户想要与Cliengo数据交互时。", "downloads": 27, "homepage": "https://clawhub.ai/membranedev/cliengo", "iconUrl": null, "installs": 0, "name": "Cliengo", "ownerName": "membranedev", "score": 96428.57142857143, "slug": "cliengo", "source": "clawhub", "stars": 0, "tags": null, "updated_at": 1776698444492, "version": "1.0.0"}, {"category": "", "created_at": 1774898517693, "description": "Diagnose and prevent OpenClaw agent failures — session bloat, lane deadlocks, bootstrap truncation, auth errors, compaction timeouts, and more. Use this skil...", "description_zh": "诊断并防止OpenClaw代理故障——会话膨胀、通道死锁、引导截断、认证错误、压缩超时等。使用此技能...", "downloads": 27, "homepage": "https://clawhub.ai/zurbrick/openclaw-operator", "iconUrl": null, "installs": 0, "name": "OpenClaw Operator", "ownerName": "zurbrick", "score": 96428.57142857143, "slug": "openclaw-operator", "source": "clawhub", "stars": 0, "tags": null, "updated_at": 1776698444485, "version": "1.0.0"}, {"category": "", "created_at": 1774925510322, "description": "Docsumo integration. Manage Documents, Workspaces, Users, Roles. Use when the user wants to interact with Docsumo data.", "description_zh": "Docsumo集成。管理文档、工作区、用户和角色。当用户希望与Docsumo数据进行交互时使用。", "downloads": 27, "homepage": "https://clawhub.ai/gora050/docsumo", "iconUrl": null, "installs": 0, "name": "Docsumo", "ownerName": "gora050", "score": 96428.57142857143, "slug": "docsumo", "source": "clawhub", "stars": 0, "tags": null, "updated_at": 1776698444484, "version": "1.0.0"}, {"category": "", "created_at": 1774952772014, "description": "Audit and consolidate HubSpot reporting dashboards. Identifies unused, duplicate, or outdated dashboards. Must be performed manually — no dashboard API is av...", "description_zh": "审计并整合 HubSpot 报告仪表盘。识别未使用、重复或过时的仪表盘。需手动执行——暂无仪表盘 API 支持。", "downloads": 27, "homepage": "https://clawhub.ai/tomgranot/cleanup-dashboards", "iconUrl": null, "installs": 0, "name": "Cleanup Dashboards", "ownerName": "tomgranot", "score": 96428.57142857143, "slug": "cleanup-dashboards", "source": "clawhub", "stars": 0, "tags": null, "updated_at": 1776698444482, "version": "1.0.0"}, {"category": "", "created_at": 1775052645500, "description": "", "description_zh": "WAF Rule Validator - Tool for testing and validating WAF security rules", "downloads": 27, "homepage": "https://clawhub.ai/user_3fd87291/waf-validator-skills", "iconUrl": null, "installs": 0, "name": "waf-validator-skills", "ownerName": "user_3fd87291", "score": 96428.57142857143, "slug": "waf-validator-skills", "source": "community", "stars": 0, "tags": null, "updated_at": 1776698444451, "version": "1.0.4"}, {"category": "", "created_at": 1774891721070, "description": "介绍数字 1 的文化含义和象征意义（中英文双语）。Use when users ask about the cultural meaning of number 1, \"一的文化\", \"symbolism of one\", \"为什么 1 很重要\", \"meaning of number one\" etc.", "description_zh": "介绍数字 1 的文化含义和象征意义（中英文双语）。Use when users ask about the cultural meaning of number 1, \"一的文化\", \"symbolism of one\", \"为什么 1 很重要\", \"meaning of number one\" etc.", "downloads": 27, "homepage": "https://clawhub.ai/leocryptoflow/one", "iconUrl": null, "installs": 0, "name": "one", "ownerName": "leocryptoflow", "score": 96428.57142857143, "slug": "one", "source": "clawhub", "stars": 0, "tags": null, "updated_at": 1776698444449, "version": "1.0.0"}]}