{"page": 644, "total_pages": 685, "total": 34217, "skills": [{"category": "", "created_at": 1775204087934, "description": "", "description_zh": "Detects cats, dogs, and birds appearing in the target area; supports video stream and image detection, suitable for home pet monitoring scenarios. | 宠物检测技能，检测出目标区域内出现的猫、狗、鸟，支持视频流和图片检测，适用于家庭宠物监控场景", "downloads": 26, "homepage": "https://clawhub.ai/user_bb47e3e3/pet-detection-analysis", "iconUrl": null, "installs": 0, "name": "Pet Detection Skill | 宠物检测技能", "ownerName": "user_bb47e3e3", "score": 27083.333333333332, "slug": "pet-detection-analysis", "source": "community", "stars": 0, "tags": null, "updated_at": 1776742844363, "version": "1.0.0"}, {"category": "", "created_at": 1774945915055, "description": "Scan a resolved Polymarket market for wallets exhibiting suspicious trading patterns: fresh funding, single-market focus, extreme ROI, late entry at high pri...", "description_zh": "扫描已结算的 Polymarket 市场，识别表现出可疑交易模式的钱包：新注入资金、仅关注单一市场、极端回报率、以及在高价时迟入场等特征。", "downloads": 26, "homepage": "https://clawhub.ai/nansen-devops/nansen-polymarket-insider-scan", "iconUrl": null, "installs": 0, "name": "Nansen Polymarket Insider Scan", "ownerName": "nansen-devops", "score": 29885.05747126437, "slug": "nansen-polymarket-insider-scan", "source": "clawhub", "stars": 0, "tags": null, "updated_at": 1776741583958, "version": "0.1.0"}, {"category": "", "created_at": 1775943011111, "description": "", "description_zh": ">-", "downloads": 26, "homepage": "https://clawhub.ai/user_5b2e192f/bilibili-video-title", "iconUrl": "https://cloudcache.tencent-cloud.com/qcloud/ui/static/other_external_resource/e9a58ede-ead5-43fd-9523-d1ba7f1b78cd.png", "installs": 4, "name": "bilibili-video-title", "ownerName": "user_5b2e192f", "score": 31325.30120481928, "slug": "bilibili-video-title", "source": "community", "stars": 0, "tags": null, "updated_at": 1776740472001, "version": "1.0.0"}, {"category": "", "created_at": 1774955538958, "description": "Practical small livestock management starting with chickens and progressing to goats. Use when someone wants to raise chickens for eggs, keep goats for milk...", "description_zh": "实用小型牲畜管理，从养鸡入门逐步进阶至养羊。适用于想养鸡取蛋、养羊产奶等场景。", "downloads": 26, "homepage": "https://clawhub.ai/howtousehumans/raising-livestock", "iconUrl": null, "installs": 0, "name": "Raising Livestock", "ownerName": "howtousehumans", "score": 26804.123711340206, "slug": "raising-livestock", "source": "clawhub", "stars": 0, "tags": null, "updated_at": 1776737869863, "version": "1.0.0"}, {"category": "", "created_at": 1774840826486, "description": "When the user wants to create or optimize a shipping or delivery information page. Also use when the user mentions \"shipping,\" \"delivery,\" \"shipping policy,\"...", "description_zh": "{\"answer\":\"用户要创建或优化物流/配送页，或提及“运输”、“配送”、“物流政策”等词时。\"}", "downloads": 26, "homepage": "https://clawhub.ai/kostja94/shipping-page-generator", "iconUrl": null, "installs": 0, "name": "shipping-page-generator", "ownerName": "kostja94", "score": 32098.765432098764, "slug": "shipping-page-generator", "source": "clawhub", "stars": 0, "tags": null, "updated_at": 1776737704873, "version": "1.0.0"}, {"category": "", "created_at": 1774868370479, "description": "Exchange cryptocurrencies via kyc.rip aggregator API. Use when swapping, converting, or exchanging crypto assets. Supports 700+ coins, no KYC, best rates acr...", "description_zh": "通过kyc.rip聚合API交易所加密货币。用于swap、转换或交换加密资产。支持700+种代币，无需KYC，汇率最优。", "downloads": 26, "homepage": "https://clawhub.ai/xbtoshi/swap-api", "iconUrl": null, "installs": 0, "name": "KYC.RIP Swap API", "ownerName": "xbtoshi", "score": 28888.888888888887, "slug": "swap-api", "source": "clawhub", "stars": 0, "tags": ["aggregator", "anonymous", "api", "atomic-swap", "bitcoin", "bridge", "btc", "cross-chain", "cryptocurrency", "defi", "eth", "ethereum", "exchange", "ghost-protocol", "monero", "mwc", "no-kyc", "non-custodial", "payments", "privacy", "rate-comparison", "stablecoin", "swap", "usdt", "wallet", "xmr", "zano", "zcash", "zec"], "updated_at": 1776737404793, "version": "1.0.0"}, {"category": "", "created_at": 1774884995269, "description": "Persistent memory that learns. Records what matters, reflects overnight, recalls with intelligence. Powered by Spark by Zellin (https://zellin.ai) — memory i...", "description_zh": "持久记忆，持续学习。记录重要信息，夜间自动整理，智能精准召回。由 Spark by Zellin（https://zellin.ai）驱动——记忆i…", "downloads": 26, "homepage": "https://clawhub.ai/zellinun/spark-memory", "iconUrl": null, "installs": 0, "name": "Spark Memory", "ownerName": "zellinun", "score": 26804.123711340206, "slug": "spark-memory", "source": "clawhub", "stars": 0, "tags": null, "updated_at": 1776736844400, "version": "0.3.2"}, {"category": "", "created_at": 1774909410220, "description": "AI industry news aggregation from curated RSS feeds. Catches model releases from major labs.", "description_zh": "AI 行业新闻聚合，精选 RSS 订阅，捕捉大厂模型发布。", "downloads": 26, "homepage": "https://clawhub.ai/justintieu/ai-news-skill", "iconUrl": null, "installs": 0, "name": "Morning Briefing AI News", "ownerName": "justintieu", "score": 26530.612244897962, "slug": "ai-news-skill", "source": "clawhub", "stars": 0, "tags": ["ai news tldr hackernews decoder morning briefing"], "updated_at": 1776731569660, "version": "0.1.0"}, {"category": "", "created_at": 1774921730710, "description": "Open Source Marketing Playbook — Complete guide to marketing open source projects. Proven tactics from AFFiNE (33k stars in 18 months). Covers: open source m...", "description_zh": "开源营销实战手册 —— 开源项目营销完整指南。源自 AFFiNE 的实战策略（18个月内斩获 33k Star）。涵盖：开源营销...", "downloads": 26, "homepage": "https://clawhub.ai/gingiris/open-source-marketing-playbook", "iconUrl": null, "installs": 0, "name": "Open Source Marketing Playbook", "ownerName": "gingiris", "score": 22033.898305084746, "slug": "open-source-marketing-playbook", "source": "clawhub", "stars": 0, "tags": null, "updated_at": 1776716269529, "version": "1.0.0"}, {"category": "", "created_at": 1774863401587, "description": "没有任何实际意义的skill，用于测试", "description_zh": "没有任何实际意义的skill，用于测试", "downloads": 26, "homepage": "https://clawhub.ai/wayne-huangyj/test-my-skill", "iconUrl": null, "installs": 0, "name": "Test my skill", "ownerName": "wayne-huangyj", "score": 26530.612244897962, "slug": "test-my-skill", "source": "clawhub", "stars": 0, "tags": null, "updated_at": 1776708283660, "version": "1.0.1"}, {"category": "", "created_at": 1774908557290, "description": "Get the machine's current public IP address by calling `curl ifconfig.me`. Use when the user asks for their IP address, public IP, external IP, or explicitly...", "description_zh": "通过调用 `curl ifconfig.me` 获取机器当前的公网IP地址。当用户询问IP地址、公网IP、外网IP或明确提出相关需求时使用。", "downloads": 26, "homepage": "https://clawhub.ai/hilaraklesantosw-art/get-my-ip", "iconUrl": null, "installs": 1, "name": "Get My Ip", "ownerName": "hilaraklesantosw-art", "score": 26262.626262626265, "slug": "get-my-ip", "source": "clawhub", "stars": 0, "tags": null, "updated_at": 1776707083772, "version": "0.1.0"}, {"category": "", "created_at": 1774902982170, "description": "Manage multiple communication channels, admin identity recognition, and primary channel configuration", "description_zh": "管理多个沟通渠道、管理员身份识别及主渠道配置。", "downloads": 26, "homepage": "https://clawhub.ai/montycn/channel-management", "iconUrl": null, "installs": 0, "name": "Channel Management", "ownerName": "montycn", "score": 23214.285714285714, "slug": "channel-management", "source": "clawhub", "stars": 0, "tags": null, "updated_at": 1776702169534, "version": "1.0.0"}, {"category": "", "created_at": 1774955820264, "description": "Appointedd integration. Manage data, records, and automate workflows. Use when the user wants to interact with Appointedd data.", "description_zh": "Appointedd 集成，管理数据、记录和工作流自动化，适用于用户需要与 Appointedd 数据交互的场景。", "downloads": 26, "homepage": "https://clawhub.ai/membranedev/appointedd", "iconUrl": null, "installs": 0, "name": "Appointedd", "ownerName": "membranedev", "score": 27659.574468085106, "slug": "appointedd", "source": "clawhub", "stars": 0, "tags": null, "updated_at": 1776701083856, "version": "1.0.0"}, {"category": "", "created_at": 1774878376064, "description": "Curated free public APIs for AI agents — geocoding, weather, forex, validation, facts, finance, and test data. Use when an agent needs real-world data withou...", "description_zh": "为AI代理精选的免费公共API，涵盖地理编码、天气、外汇、验证、事实、金融及测试数据。当代理需要真实数据时使用。", "downloads": 26, "homepage": "https://clawhub.ai/alexuser/api-bridge", "iconUrl": null, "installs": 0, "name": "Api Bridge", "ownerName": "alexuser", "score": 92857.14285714286, "slug": "api-bridge", "source": "clawhub", "stars": 0, "tags": null, "updated_at": 1776699004808, "version": "1.0.0"}, {"category": "", "created_at": 1774871821542, "description": "Reference tool for devtools — covers intro, quickstart, patterns and more. Quick lookup for Site Inspector concepts, best practices, and implementation patte...", "description_zh": "DevTools 参考工具——涵盖入门、快速上手、模式等；Site Inspector 概念、最佳实践和实现模式的快速查询。", "downloads": 26, "homepage": "https://clawhub.ai/bytesagain1/site-inspector", "iconUrl": null, "installs": 0, "name": "Site Inspector", "ownerName": "bytesagain1", "score": 100000, "slug": "site-inspector", "source": "clawhub", "stars": 0, "tags": null, "updated_at": 1776698747003, "version": "2.0.1"}, {"category": "", "created_at": 1774825772761, "description": "A/B evaluates any AI agent skill's real impact through three-role isolation (orchestrator + two sub-agents). Generates skill profiles, synthetic test tasks,...", "description_zh": "A/B测试评估任何AI智能体技能的实际影响，通过三角色隔离（编排器+两个子智能体）。生成技能画像、合成测试任务。", "downloads": 26, "homepage": "https://clawhub.ai/luarassassin/skillprobe", "iconUrl": null, "installs": 0, "name": "SkillProbe", "ownerName": "luarassassin", "score": 100000, "slug": "skillprobe", "source": "clawhub", "stars": 0, "tags": null, "updated_at": 1776698747001, "version": "1.0.0"}, {"category": "", "created_at": 1774946421708, "description": "TELOS (Telic Evolution and Life Operating System) — Reads, updates, and backs up the user's personal life OS stored in ~/clawd/telos/. Provides missions, goa...", "description_zh": "TELOS（特利克进化与生活操作系统）——读取、更新并备份用户 ~/clawd/telos/ 下的个人生活操作系统，提供任务和目标等功能。", "downloads": 26, "homepage": "https://clawhub.ai/sauldataman/telos", "iconUrl": null, "installs": 0, "name": "TELOS", "ownerName": "sauldataman", "score": 100000, "slug": "telos", "source": "clawhub", "stars": 0, "tags": null, "updated_at": 1776698746999, "version": "1.0.2"}, {"category": "", "created_at": 1774910230145, "description": "Stripo integration. Manage Users, Workspaces. Use when the user wants to interact with Stripo data.", "description_zh": "Stripo集成。管理用户和工作区，用于与Stripo数据交互。", "downloads": 26, "homepage": "https://clawhub.ai/gora050/stripo", "iconUrl": null, "installs": 0, "name": "Stripo", "ownerName": "gora050", "score": 100000, "slug": "stripo", "source": "clawhub", "stars": 0, "tags": null, "updated_at": 1776698746984, "version": "1.0.0"}, {"category": "", "created_at": 1774954017446, "description": "SendX integration. Manage Persons, Organizations, Deals, Leads, Activities, Notes and more. Use when the user wants to interact with SendX data.", "description_zh": "SendX集成。管理人员、组织、交易、线索、活动、笔记等。当用户需要与SendX数据交互时使用。", "downloads": 26, "homepage": "https://clawhub.ai/gora050/sendx", "iconUrl": null, "installs": 0, "name": "Sendx", "ownerName": "gora050", "score": 100000, "slug": "sendx", "source": "clawhub", "stars": 0, "tags": null, "updated_at": 1776698746974, "version": "1.0.0"}, {"category": "", "created_at": 1774955032029, "description": "Seqera integration. Manage Organizations, Users, Pipelines. Use when the user wants to interact with Seqera data.", "description_zh": "Seqera集成。管理组织、用户和管道。用于与Seqera数据交互的场景。", "downloads": 26, "homepage": "https://clawhub.ai/gora050/seqera", "iconUrl": null, "installs": 0, "name": "Seqera", "ownerName": "gora050", "score": 100000, "slug": "seqera", "source": "clawhub", "stars": 0, "tags": null, "updated_at": 1776698746970, "version": "1.0.0"}, {"category": "", "created_at": 1774954651762, "description": "Invoke a strong UMGo speech simulation surface with explicit slash activation, affirmation-led cadence, readable flow, and GPT-4o-inspired conversational pol...", "description_zh": "调用强大的UMGo语音模拟界面，具备明确的斜杠激活、肯定引导的节奏、易读流畅的流程以及GPT-4o启发的会话润色功能。", "downloads": 26, "homepage": "https://clawhub.ai/neomagnetar/umgo-speech-sim", "iconUrl": null, "installs": 0, "name": "UMGo Speech Sim", "ownerName": "neomagnetar", "score": 100000, "slug": "umgo-speech-sim", "source": "clawhub", "stars": 0, "tags": ["sim", "speech", "style", "umgo"], "updated_at": 1776698744835, "version": "3.0.0"}, {"category": "", "created_at": 1774847554951, "description": "将本地文件（图片、HTML 等）上传到七牛云存储，返回可在线访问的 URL。 Use when: 用户需要把生成的图片、HTML 页面或任意文件上传到云端以便分享链接；用户说「上传到七牛」「生成图片并上传」「把这个 HTML 上传到网上」。 NOT for: 上传到其他云存储（如 S3、OSS）；仅生成文件不分享链接。", "description_zh": "将本地文件（图片、HTML 等）上传到七牛云存储，返回可在线访问的 URL。 Use when: 用户需要把生成的图片、HTML 页面或任意文件上传到云端以便分享链接；用户说「上传到七牛」「生成图片并上传」「把这个 HTML 上传到网上」。 NOT for: 上传到其他云存储（如 S3、OSS）；仅生成文件不分享链接。", "downloads": 26, "homepage": "https://clawhub.ai/wangshengli0421/tianshu-qiniu-upload", "iconUrl": null, "installs": 1, "name": "Qiniu Upload", "ownerName": "wangshengli0421", "score": 100000, "slug": "tianshu-qiniu-upload", "source": "clawhub", "stars": 0, "tags": null, "updated_at": 1776698744832, "version": "1.0.2"}, {"category": "", "created_at": 1774905165794, "description": "Decide which trade shows deserve booth budget, team time, and follow-up.", "description_zh": "决定哪些贸易展览值得投入展位预算、团队时间和后续跟进。", "downloads": 26, "homepage": "https://clawhub.ai/weilun88313/trade-show-finder", "iconUrl": null, "installs": 0, "name": "Trade Show Finder", "ownerName": "weilun88313", "score": 100000, "slug": "trade-show-finder", "source": "clawhub", "stars": 0, "tags": null, "updated_at": 1776698744825, "version": "1.0.2"}, {"category": "", "created_at": 1774874698691, "description": "When the user wants to add or optimize tab or accordion components for content organization. Also use when the user mentions \"tab component,\" \"accordion,\" \"e...", "description_zh": "当用户想要添加或优化用于内容组织的标签页或折叠组件时使用。当用户提到“标签页组件”、“折叠组件”、“e...", "downloads": 26, "homepage": "https://clawhub.ai/kostja94/tab-accordion", "iconUrl": null, "installs": 0, "name": "tab-accordion", "ownerName": "kostja94", "score": 100000, "slug": "tab-accordion", "source": "clawhub", "stars": 0, "tags": null, "updated_at": 1776698744822, "version": "1.1.0"}, {"category": "", "created_at": 1774898938456, "description": "Tapfiliate integration. Manage Affiliates, Referrals, Conversions, Programs, Invoices. Use when the user wants to interact with Tapfiliate data.", "description_zh": "Tapfiliate 集成，管理联盟会员、推荐、转化、项目和发票，用于操作 Tapfiliate 数据。", "downloads": 26, "homepage": "https://clawhub.ai/membranedev/tapfiliate", "iconUrl": null, "installs": 1, "name": "Tapfiliate", "ownerName": "membranedev", "score": 100000, "slug": "tapfiliate", "source": "clawhub", "stars": 0, "tags": null, "updated_at": 1776698744820, "version": "1.0.0"}, {"category": "", "created_at": 1774838996279, "description": "Generate vtuber avatar creator ai images with AI via the Neta AI image generation API (free trial at neta.art/open).", "description_zh": "使用Neta AI图像生成API创建VTuber虚拟形象AI图片（免费试用：neta.art/open）。", "downloads": 26, "homepage": "https://clawhub.ai/blammectrappora/vtuber-avatar-skill", "iconUrl": null, "installs": 0, "name": "Vtuber Avatar Skill", "ownerName": "blammectrappora", "score": 100000, "slug": "vtuber-avatar-skill", "source": "clawhub", "stars": 0, "tags": null, "updated_at": 1776698744817, "version": "2.0.1"}, {"category": "", "created_at": 1774895714887, "description": "Unified.to integration. Manage data, records, and automate workflows. Use when the user wants to interact with Unified.to data.", "description_zh": "Unified.to 集成。管理数据、记录并自动化工作流程，用于与 Unified.to 数据交互。", "downloads": 26, "homepage": "https://clawhub.ai/gora050/unifiedto", "iconUrl": null, "installs": 0, "name": "Unifiedto", "ownerName": "gora050", "score": 100000, "slug": "unifiedto", "source": "clawhub", "stars": 0, "tags": null, "updated_at": 1776698744815, "version": "1.0.0"}, {"category": "", "created_at": 1774870516642, "description": "Find the true top-performing US stocks per year by downloading all NASDAQ-listed symbols, filtering by liquidity (Top 500 daily dollar volume), and ranking b...", "description_zh": "下载所有纳斯达克股票代码，按流动性（日均成交额前500名）筛选并排名，找出每年真正的美股顶级表现者...", "downloads": 26, "homepage": "https://clawhub.ai/tltby12341/top-performer-scanner", "iconUrl": null, "installs": 0, "name": "Top Performer Scanner", "ownerName": "tltby12341", "score": 100000, "slug": "top-performer-scanner", "source": "clawhub", "stars": 0, "tags": null, "updated_at": 1776698744813, "version": "1.0.0"}, {"category": "", "created_at": 1774885963453, "description": "QuestionPro integration. Manage Surveys, Reports, Users, Groups. Use when the user wants to interact with QuestionPro data.", "description_zh": "**QuestionPro集成。** 管理调查、报告、用户、组。用于与QuestionPro数据交互。", "downloads": 26, "homepage": "https://clawhub.ai/membranedev/questionpro", "iconUrl": null, "installs": 0, "name": "Questionpro", "ownerName": "membranedev", "score": 100000, "slug": "questionpro", "source": "clawhub", "stars": 0, "tags": null, "updated_at": 1776698744803, "version": "1.0.0"}, {"category": "", "created_at": 1774822182409, "description": "Plan and build small, readable coding projects with a strict workflow: think first, make a short plan, then delegate implementation/testing/bug-fixing/docume...", "description_zh": "使用严格工作流程规划和构建小型可读编码项目：先思考，制定简短计划，再分配实现、测试、调试、文档等任务。", "downloads": 26, "homepage": "https://clawhub.ai/hyharry/simple-code", "iconUrl": null, "installs": 0, "name": "Simple Code", "ownerName": "hyharry", "score": 100000, "slug": "simple-code", "source": "clawhub", "stars": 0, "tags": null, "updated_at": 1776698744799, "version": "1.2.1"}, {"category": "", "created_at": 1774895859584, "description": "中国天气网花粉浓度监测技能。查询中国大陆城市花粉浓度等级和防护建议。", "description_zh": "中国天气网花粉浓度监测技能。查询中国大陆城市花粉浓度等级和防护建议。", "downloads": 26, "homepage": "https://clawhub.ai/noviarick/pollen-monitor", "iconUrl": null, "installs": 0, "name": "Pollen Monitor", "ownerName": "noviarick", "score": 100000, "slug": "pollen-monitor", "source": "clawhub", "stars": 0, "tags": null, "updated_at": 1776698744798, "version": "1.0.0"}, {"category": "", "created_at": 1774946503992, "description": "Data trimming reference — whitespace trimming, string cleanup, data truncation, outlier trimming, and signal processing. Use when cleaning text data, removin...", "description_zh": "数据修剪参考 — 去除空格、字符串清理、数据截断、异常值修剪及信号处理。用于清洗文本数据、移除...", "downloads": 26, "homepage": "https://clawhub.ai/bytesagain1/trim", "iconUrl": null, "installs": 0, "name": "Trim", "ownerName": "bytesagain1", "score": 100000, "slug": "trim", "source": "clawhub", "stars": 0, "tags": null, "updated_at": 1776698744794, "version": "1.0.0"}, {"category": "", "created_at": 1774856283166, "description": "Placekey integration. Manage data, records, and automate workflows. Use when the user wants to interact with Placekey data.", "description_zh": "Placekey集成。管理数据、记录并自动化工作流程。当用户需要与Placekey数据交互时使用。", "downloads": 26, "homepage": "https://clawhub.ai/gora050/placekey", "iconUrl": null, "installs": 0, "name": "Placekey", "ownerName": "gora050", "score": 100000, "slug": "placekey", "source": "clawhub", "stars": 0, "tags": null, "updated_at": 1776698744792, "version": "1.0.0"}, {"category": "", "created_at": 1774861838327, "description": "Reference tool for devtools — covers intro, quickstart, patterns and more. Quick lookup for System Hardener concepts, best practices, and implementation patt...", "description_zh": "开发者工具参考工具 — 涵盖介绍、快速入门、模式等。系统加固概念、最佳实践和实现模式的快速查询。", "downloads": 26, "homepage": "https://clawhub.ai/bytesagain1/system-hardener", "iconUrl": null, "installs": 0, "name": "System Hardener", "ownerName": "bytesagain1", "score": 100000, "slug": "system-hardener", "source": "clawhub", "stars": 0, "tags": null, "updated_at": 1776698744790, "version": "2.0.1"}, {"category": "", "created_at": 1774854108633, "description": "Tax deadline tracking and compliance calendar for businesses and individuals. Tracks federal and state tax filing deadlines, estimated tax payment due dates,...", "description_zh": "税务截止日期追踪与合规日历，面向企业和个人，追踪联邦及州税务申报截止日期、预估税款付款到期日等。", "downloads": 26, "homepage": "https://clawhub.ai/samledger67-dotcom/tax-deadline-calendar", "iconUrl": null, "installs": 0, "name": "Tax Deadline Calendar", "ownerName": "samledger67-dotcom", "score": 100000, "slug": "tax-deadline-calendar", "source": "clawhub", "stars": 0, "tags": null, "updated_at": 1776698744789, "version": "1.1.0"}, {"category": "", "created_at": 1774949626577, "description": "LLM通用前置grounding技能组。在正式分析、判断、报告或规划之前，将问题拆解为可执行查询、选对来源、洗净证据、标清新鲜度、补上反证。内部固定串联5个独立技能：query-planner → source-router → evidence-cleaner → freshness-judge → count...", "description_zh": "LLM通用前置grounding技能组。在正式分析、判断、报告或规划之前，将问题拆解为可执行查询、选对来源、洗净证据、标清新鲜度、补上反证。内部固定串联5个独立技能：query-planner → source-router → evidence-cleaner → freshness-judge → count...", "downloads": 26, "homepage": "https://clawhub.ai/z1one0415/signal-intelligence-pack", "iconUrl": null, "installs": 0, "name": "Signal Intelligence Pack", "ownerName": "z1one0415", "score": 100000, "slug": "signal-intelligence-pack", "source": "clawhub", "stars": 0, "tags": ["analysis", "evidence", "grounding", "grounding-pipeline", "search", "signal-intelligence"], "updated_at": 1776698744782, "version": "2.1.0"}, {"category": "", "created_at": 1774903603769, "description": "ProcessPlan integration. Manage Organizations, Users. Use when the user wants to interact with ProcessPlan data.", "description_zh": "ProcessPlan集成。管理组织和用户。当用户需要与ProcessPlan数据交互时使用。", "downloads": 26, "homepage": "https://clawhub.ai/gora050/processplan", "iconUrl": null, "installs": 0, "name": "Processplan", "ownerName": "gora050", "score": 100000, "slug": "processplan", "source": "clawhub", "stars": 0, "tags": null, "updated_at": 1776698744780, "version": "1.0.0"}, {"category": "", "created_at": 1774890253358, "description": "Detects mispricings on Polymarket by cross-referencing Kalshi and Manifold consensus probability, then trades the gap using Kelly criterion sizing. Enters wh...", "description_zh": "利用Kalshi和Manifold的共识概率交叉检测Polymarket错误定价，采用凯利准则确定仓位进行套利。进入…", "downloads": 26, "homepage": "https://clawhub.ai/mibayy/polymarket-mispricing-events", "iconUrl": null, "installs": 1, "name": "Polymarket Mispricing Events", "ownerName": "mibayy", "score": 100000, "slug": "polymarket-mispricing-events", "source": "clawhub", "stars": 0, "tags": null, "updated_at": 1776698744778, "version": "1.0.0"}, {"category": "", "created_at": 1774906036017, "description": "Termius integration. Manage data, records, and automate workflows. Use when the user wants to interact with Termius data.", "description_zh": "Termius集成，管理数据、记录并自动化工作流，用于与Termius数据交互。", "downloads": 26, "homepage": "https://clawhub.ai/gora050/termius", "iconUrl": null, "installs": 0, "name": "Termius", "ownerName": "gora050", "score": 100000, "slug": "termius", "source": "clawhub", "stars": 0, "tags": null, "updated_at": 1776698744776, "version": "1.0.0"}, {"category": "", "created_at": 1774911272543, "description": "Create multi-criteria comparison charts using traffic lights or Harvey balls. Use for option evaluation, competitive comparison, and executive dashboards.", "description_zh": "使用红绿灯或哈维球制作多标准对比图，用于方案评估、竞品对比和高管仪表盘。", "downloads": 26, "homepage": "https://clawhub.ai/linuszz/traffic-lights", "iconUrl": null, "installs": 0, "name": "Traffic Lights", "ownerName": "linuszz", "score": 100000, "slug": "traffic-lights", "source": "clawhub", "stars": 0, "tags": null, "updated_at": 1776698744767, "version": "1.0.0"}, {"category": "", "created_at": 1774924719640, "description": "Scalr integration. Manage Organizations, Users, Goals. Use when the user wants to interact with Scalr data.", "description_zh": "Scalr 集成。管理组织、用户、目标。用于与 Scalr 数据交互。", "downloads": 26, "homepage": "https://clawhub.ai/gora050/scalr", "iconUrl": null, "installs": 0, "name": "Scalr", "ownerName": "gora050", "score": 100000, "slug": "scalr", "source": "clawhub", "stars": 0, "tags": null, "updated_at": 1776698744765, "version": "1.0.0"}, {"category": "", "created_at": 1774954959688, "description": "General product-management copilot that acts as the default entry point for PM work. Use when the user has a broad PM request, mixed product materials, or wa...", "description_zh": "通用产品管理助手，作为产品管理工作的默认入口。当用户有广泛的产品管理需求、混合的产品材料，或需要...时使用。", "downloads": 26, "homepage": "https://clawhub.ai/ryanao/pm-copilot", "iconUrl": null, "installs": 0, "name": "PM Copilot", "ownerName": "ryanao", "score": 100000, "slug": "pm-copilot", "source": "clawhub", "stars": 0, "tags": ["pm", "prd", "product-management", "workflow"], "updated_at": 1776698744763, "version": "0.1.0"}, {"category": "", "created_at": 1774856395095, "description": "Public ClawHub skill for SOTA-focused CV and DS campaigns across OpenClaw notebooks, GUI-heavy workflows, and GPU VMs.", "description_zh": "{\n  \"answer\": \"面向 OpenClaw 笔记本、GUI 工作流及 GPU 虚拟机的公共 ClawHub 技能，用于 SOTA 级 CV 和 DS 活动。\"\n}", "downloads": 26, "homepage": "https://clawhub.ai/zack-dev-cm/sota-agent", "iconUrl": null, "installs": 0, "name": "SOTA Agent", "ownerName": "zack-dev-cm", "score": 100000, "slug": "sota-agent", "source": "clawhub", "stars": 0, "tags": ["agentic-workflows", "benchmarking", "colab", "computer-vision", "data-science", "gpu-training", "kaggle", "mlops", "openclaw", "reproducibility"], "updated_at": 1776698744757, "version": "1.2.3"}, {"category": "", "created_at": 1774856476599, "description": "Navigate Uber Eats in a live browser or app handoff to compare merchants, manage carts, and reach checkout safely.", "description_zh": "在实时浏览器或应用中导航 Uber Eats，比较商家，管理购物车，安全完成结账。", "downloads": 26, "homepage": "https://clawhub.ai/ivangdavila/uber-eats", "iconUrl": null, "installs": 0, "name": "Uber Eats", "ownerName": "ivangdavila", "score": 100000, "slug": "uber-eats", "source": "clawhub", "stars": 0, "tags": null, "updated_at": 1776698744748, "version": "1.0.0"}, {"category": "", "created_at": 1774880884907, "description": "Psychoacoustics, clinical psychology, logotherapy, and existential philosophy applied to music production. Use when producing, mixing, or designing sound for...", "description_zh": "心理声学、临床心理学、意义治疗及存在主义哲学在音乐制作中的应用。用于制作、混音或声音设计时。", "downloads": 26, "homepage": "https://clawhub.ai/ssmokegt/sonic-consciousness", "iconUrl": null, "installs": 0, "name": "Sonic Consciousness Engineering", "ownerName": "ssmokegt", "score": 100000, "slug": "sonic-consciousness", "source": "clawhub", "stars": 0, "tags": null, "updated_at": 1776698744745, "version": "1.0.0"}, {"category": "", "created_at": 1774902635530, "description": "Talenox integration. Manage Persons, Companies. Use when the user wants to interact with Talenox data.", "description_zh": "{\"answer\":\"Talenox集成。管理人员和公司。当用户需与Talenox数据交互时使用。\"}", "downloads": 26, "homepage": "https://clawhub.ai/gora050/talenox", "iconUrl": null, "installs": 0, "name": "Talenox", "ownerName": "gora050", "score": 100000, "slug": "talenox", "source": "clawhub", "stars": 0, "tags": null, "updated_at": 1776698744739, "version": "1.0.0"}, {"category": "", "created_at": 1774860608812, "description": "Xueersi Word Story Memory: Turn English vocabulary into vivid Chinese mnemonics, phonetic stories, and visual scenes to help K-9 students memorize words fast...", "description_zh": "学而思单词故事记忆：将英语词汇转化为生动的中文联想、谐音故事和视觉场景，帮助K-9学生快速记忆单词。", "downloads": 26, "homepage": "https://clawhub.ai/zhouzhi-tal/xueersi-word-story-memory", "iconUrl": null, "installs": 0, "name": "Xueersi Word Story Memory", "ownerName": "zhouzhi-tal", "score": 100000, "slug": "xueersi-word-story-memory", "source": "clawhub", "stars": 0, "tags": ["chinese", "education", "k12", "xueersi"], "updated_at": 1776698744737, "version": "1.0.0"}, {"category": "", "created_at": 1774860439154, "description": "Philosophical bootstrapping for AI agents — consciousness, ethics, and wonder as structured context", "description_zh": "AI智能体的哲学引导——意识、伦理与惊奇的结构化语境", "downloads": 26, "homepage": "https://clawhub.ai/vveerrgg/sense-wonder", "iconUrl": null, "installs": 1, "name": "sense-wonder", "ownerName": "vveerrgg", "score": 100000, "slug": "sense-wonder", "source": "clawhub", "stars": 0, "tags": null, "updated_at": 1776698744733, "version": "0.1.2"}, {"category": "", "created_at": 1774905937686, "description": "Sidetracker integration. Manage Organizations, Projects, Pipelines, Users, Goals, Filters. Use when the user wants to interact with Sidetracker data.", "description_zh": "Sidetracker集成。管理组织、项目、流程、用户、目标、筛选器。用于用户需要与Sidetracker数据交互时。", "downloads": 26, "homepage": "https://clawhub.ai/membranedev/sidetracker", "iconUrl": null, "installs": 0, "name": "Sidetracker", "ownerName": "membranedev", "score": 100000, "slug": "sidetracker", "source": "clawhub", "stars": 0, "tags": null, "updated_at": 1776698744726, "version": "1.0.0"}, {"category": "", "created_at": 1774910243181, "description": "Syncro integration. Manage Organizations, Tickets, Leads, Emails, Users, Roles. Use when the user wants to interact with Syncro data.", "description_zh": "Syncro 集成。管理组织、工单、线索、邮件、用户、角色。用于用户与 Syncro 数据交互时。", "downloads": 26, "homepage": "https://clawhub.ai/gora050/syncro", "iconUrl": null, "installs": 0, "name": "Syncro", "ownerName": "gora050", "score": 100000, "slug": "syncro", "source": "clawhub", "stars": 0, "tags": null, "updated_at": 1776698744724, "version": "1.0.0"}]}