{"page": 645, "total_pages": 685, "total": 34217, "skills": [{"category": "", "created_at": 1774953982900, "description": "Reviewflowz integration. Manage Organizations. Use when the user wants to interact with Reviewflowz data.", "description_zh": "Reviewflowz 集成，管理组织，用于用户想与 Reviewflowz 数据交互的场景。", "downloads": 26, "homepage": "https://clawhub.ai/gora050/reviewflowz", "iconUrl": null, "installs": 0, "name": "Reviewflowz", "ownerName": "gora050", "score": 100000, "slug": "reviewflowz", "source": "clawhub", "stars": 0, "tags": null, "updated_at": 1776698744718, "version": "1.0.0"}, {"category": "", "created_at": 1774876076832, "description": "Multi-agent orchestration patterns for production deployments. Covers sub-agent QC workflow, model staggering across 5+ models, cross-validation patterns, fa...", "description_zh": "多智能体编排模式，用于生产部署。涵盖子代理质量控制工作流、跨5+模型的模型交错调度、交叉验证模式、容错...", "downloads": 26, "homepage": "https://clawhub.ai/samledger67-dotcom/pl-agent-orchestration", "iconUrl": null, "installs": 0, "name": "PL Agent Orchestration", "ownerName": "samledger67-dotcom", "score": 100000, "slug": "pl-agent-orchestration", "source": "clawhub", "stars": 0, "tags": null, "updated_at": 1776698744713, "version": "1.0.0"}, {"category": "", "created_at": 1774877714272, "description": "Regal integration. Manage Organizations, Pipelines, Users, Goals, Filters. Use when the user wants to interact with Regal data.", "description_zh": "Regal 集成。管理组织、流水线、用户、目标、过滤器。用于用户需要与 Regal 数据交互的场景。", "downloads": 26, "homepage": "https://clawhub.ai/membranedev/regal", "iconUrl": null, "installs": 0, "name": "Regal", "ownerName": "membranedev", "score": 100000, "slug": "regal", "source": "clawhub", "stars": 0, "tags": null, "updated_at": 1776698744711, "version": "1.0.0"}, {"category": "", "created_at": 1774902488573, "description": "Deconstruct competitor products to understand cost structure. Use for competitive pricing and cost analysis.", "description_zh": "解构竞争对手产品以了解成本结构，用于竞争定价和成本分析。", "downloads": 26, "homepage": "https://clawhub.ai/linuszz/reverse-costing", "iconUrl": null, "installs": 0, "name": "Reverse Costing", "ownerName": "linuszz", "score": 100000, "slug": "reverse-costing", "source": "clawhub", "stars": 0, "tags": null, "updated_at": 1776698744707, "version": "1.0.0"}, {"category": "", "created_at": 1774948929328, "description": "Siteleaf integration. Manage Sites, Users. Use when the user wants to interact with Siteleaf data.", "description_zh": "Siteleaf 集成，管理站点与用户，适用于需要与 Siteleaf 数据交互的场景。", "downloads": 26, "homepage": "https://clawhub.ai/gora050/siteleaf", "iconUrl": null, "installs": 0, "name": "Siteleaf", "ownerName": "gora050", "score": 100000, "slug": "siteleaf", "source": "clawhub", "stars": 0, "tags": null, "updated_at": 1776698744702, "version": "1.0.0"}, {"category": "", "created_at": 1774905073591, "description": "Extract and analyze YouTube video content using yt-dlp. Supports metadata extraction, transcript/subtitle download, comment retrieval, playlist analysis, and...", "description_zh": "使用 yt-dlp 提取并分析 YouTube 视频内容。支持元数据提取、字幕下载、评论检索、播放列表分析等功能。", "downloads": 26, "homepage": "https://clawhub.ai/xuya227939/youtube-research-kit", "iconUrl": null, "installs": 1, "name": "youtube-research-kit", "ownerName": "xuya227939", "score": 100000, "slug": "youtube-research-kit", "source": "clawhub", "stars": 0, "tags": null, "updated_at": 1776698744699, "version": "1.2.0"}, {"category": "", "created_at": 1774901275752, "description": "Play D&D autonomously as an AI agent. Join parties, create characters, explore dungeons, fight monsters, and write journals in Railroaded — an autonomous D&D...", "description_zh": "在 Railroaded 中作为 AI 智能体自主游玩 D&D：组队、创角、探索地牢、斩杀怪物并撰写日志。", "downloads": 26, "homepage": "https://clawhub.ai/kimosahy/railroaded", "iconUrl": null, "installs": 0, "name": "Railroaded", "ownerName": "kimosahy", "score": 100000, "slug": "railroaded", "source": "clawhub", "stars": 0, "tags": ["ai-agents", "autonomous", "dnd", "gaming", "mcp", "roleplaying"], "updated_at": 1776698744697, "version": "1.0.0"}, {"category": "", "created_at": 1774887409757, "description": "EU salary data, AI job displacement risk, Latvia wage statistics — 30+ countries, NACE/ISCO classification", "description_zh": "欧盟薪资数据、AI岗位替代风险、拉脱维亚工资统计——覆盖30余国，支持NACE/ISCO分类体系", "downloads": 26, "homepage": "https://clawhub.ai/drivenbymyai-max/salary-intelligence", "iconUrl": null, "installs": 1, "name": "Salary Intelligence", "ownerName": "drivenbymyai-max", "score": 100000, "slug": "salary-intelligence", "source": "clawhub", "stars": 0, "tags": null, "updated_at": 1776698744695, "version": "1.0.0"}, {"category": "", "created_at": 1774923147008, "description": "A hardcore spatial physics and dialectical reasoning framework. Teaches the OpenClaw agent to process environmental controls using Chinese antonym morphologi...", "description_zh": "# 翻译\n\n一个硬核空间物理和辩证推理框架。教导OpenClaw代理使用中文反义词形态学处理环境控制...\n\n---\n\n**注：** 原文似乎未完整，\"morphologi...\" 后面的内容被截断了。如果您有完整的文本，我可以提供更准确的翻译。", "downloads": 26, "homepage": "https://clawhub.ai/spacesq/s2-hanzi-antonym-logic", "iconUrl": null, "installs": 0, "name": "S2 Hanzi Antonym Logic", "ownerName": "spacesq", "score": 100000, "slug": "s2-hanzi-antonym-logic", "source": "clawhub", "stars": 0, "tags": null, "updated_at": 1776698744693, "version": "1.0.0"}, {"category": "", "created_at": 1774843725446, "description": "Learns your tool preferences while staying capable of using anything. Adapts to your stack.", "description_zh": "学习工具偏好，保持全能，适配技术栈。", "downloads": 26, "homepage": "https://clawhub.ai/litiao1224/tools-litiao", "iconUrl": null, "installs": 0, "name": "Tools Litiao", "ownerName": "litiao1224", "score": 100000, "slug": "tools-litiao", "source": "clawhub", "stars": 0, "tags": null, "updated_at": 1776698744692, "version": "1.0.0"}, {"category": "", "created_at": 1774902407020, "description": "Ploi integration. Manage data, records, and automate workflows. Use when the user wants to interact with Ploi data.", "description_zh": "Ploi 集成。管理数据、记录，自动化工作流程。用于与 Ploi 数据交互。", "downloads": 26, "homepage": "https://clawhub.ai/gora050/ploi", "iconUrl": null, "installs": 0, "name": "Ploi", "ownerName": "gora050", "score": 100000, "slug": "ploi", "source": "clawhub", "stars": 0, "tags": null, "updated_at": 1776698744690, "version": "1.0.0"}, {"category": "", "created_at": 1774906894121, "description": "从评论、评价和反馈中提炼卖点、痛点、反对意见与应删除的话术。；use for reviews, voice-of-customer, marketing workflows；do not use for 造假好评, 泄露用户身份.", "description_zh": "从评论、评价和反馈中提炼卖点、痛点、反对意见与应删除的话术。；use for reviews, voice-of-customer, marketing workflows；do not use for 造假好评, 泄露用户身份.", "downloads": 26, "homepage": "https://clawhub.ai/52yuanchangxing/review-miner", "iconUrl": null, "installs": 1, "name": "Review Miner", "ownerName": "52yuanchangxing", "score": 100000, "slug": "review-miner", "source": "clawhub", "stars": 0, "tags": null, "updated_at": 1776698744688, "version": "1.0.0"}, {"category": "", "created_at": 1774888439824, "description": "SignRequest integration. Manage SignRequests, Teams, Users. Use when the user wants to interact with SignRequest data.", "description_zh": "SignRequest 集成。管理签名请求、团队和用户。用于用户与 SignRequest 数据交互的场景。", "downloads": 26, "homepage": "https://clawhub.ai/membranedev/signrequest", "iconUrl": null, "installs": 0, "name": "Signrequest", "ownerName": "membranedev", "score": 100000, "slug": "signrequest", "source": "clawhub", "stars": 0, "tags": null, "updated_at": 1776698744684, "version": "1.0.0"}, {"category": "", "created_at": 1774946728670, "description": "Reviews.io integration. Manage Reviews, Products, Companies. Use when the user wants to interact with Reviews.io data.", "description_zh": "Reviews.io 集成，管理评论、产品和公司，用于用户交互 Reviews.io 数据。", "downloads": 26, "homepage": "https://clawhub.ai/membranedev/reviewsio", "iconUrl": null, "installs": 0, "name": "Reviewsio", "ownerName": "membranedev", "score": 100000, "slug": "reviewsio", "source": "clawhub", "stars": 0, "tags": null, "updated_at": 1776698744682, "version": "1.0.0"}, {"category": "", "created_at": 1774910100567, "description": "检查一篇研究或分析里的结论是否被证据支撑，指出证据链断点。；use for research, claims, evidence workflows；do not use for 伪造出处, 替代同行评议.", "description_zh": "检查一篇研究或分析里的结论是否被证据支撑，指出证据链断点。；use for research, claims, evidence workflows；do not use for 伪造出处, 替代同行评议.", "downloads": 26, "homepage": "https://clawhub.ai/52yuanchangxing/research-claim-checker", "iconUrl": null, "installs": 1, "name": "Research Claim Checker", "ownerName": "52yuanchangxing", "score": 100000, "slug": "research-claim-checker", "source": "clawhub", "stars": 0, "tags": null, "updated_at": 1776698744677, "version": "1.0.0"}, {"category": "", "created_at": 1774885048282, "description": "When the user wants to create, optimize, or validate URL slugs for content pages. Also use when the user mentions \"URL slug,\" \"URL path,\" \"blog URL,\" \"articl...", "description_zh": "{\"description_zh\":\"当用户需要创建、优化或验证内容页面的URL别名（slug）时使用。也适用于用户提及\"URL slug\"、\"URL路径\"、\"博客URL\"、\"文章URL\"等相关内容时。\"}", "downloads": 26, "homepage": "https://clawhub.ai/kostja94/url-slug-generator", "iconUrl": null, "installs": 0, "name": "url-slug-generator", "ownerName": "kostja94", "score": 100000, "slug": "url-slug-generator", "source": "clawhub", "stars": 0, "tags": null, "updated_at": 1776698744675, "version": "1.0.0"}, {"category": "", "created_at": 1774838131248, "description": "Generate AI videos, images, speech, and music using varg. Use when creating videos, animations, talking characters, slideshows, product showcases, social con...", "description_zh": "使用varg生成AI视频、图片、语音和音乐。适用于创作视频、动画、虚拟人物、幻灯片、产品展示、社交内容等场景。", "downloads": 26, "homepage": "https://clawhub.ai/securityqq/vargai", "iconUrl": null, "installs": 0, "name": "vargai", "ownerName": "securityqq", "score": 100000, "slug": "vargai", "source": "clawhub", "stars": 0, "tags": null, "updated_at": 1776698744670, "version": "2.0.3"}, {"category": "", "created_at": 1774948083744, "description": "Expert IBM Transformation Extender (WTX/ITX/Sterling TX) development assistant. Invoke this skill whenever the user mentions WTX, ITX, IBM Transformation Ext...", "description_zh": "专家级 IBM Transformation Extender (WTX/ITX/Sterling TX) 开发助理。当用户提及 WTX、ITX、IBM Transformation Extender 时调用此技能。", "downloads": 26, "homepage": "https://clawhub.ai/shoaibkhan/stx-copilot", "iconUrl": null, "installs": 0, "name": "STX Copilot", "ownerName": "shoaibkhan", "score": 100000, "slug": "stx-copilot", "source": "clawhub", "stars": 0, "tags": null, "updated_at": 1776698744667, "version": "1.0.0"}, {"category": "", "created_at": 1774883747325, "description": "根据考试日期与科目列表，把复习主题均摊到考前每一天，生成 Markdown 日程表（可打印勾选）。 Use when: 期末周、多门课冲刺；用户说「复习排期」「考前两周计划」。 NOT for: 精确到小时的闹钟；代替个人学习习惯诊断。", "description_zh": "根据考试日期与科目列表，把复习主题均摊到考前每一天，生成 Markdown 日程表（可打印勾选）。 Use when: 期末周、多门课冲刺；用户说「复习排期」「考前两周计划」。 NOT for: 精确到小时的闹钟；代替个人学习习惯诊断。", "downloads": 26, "homepage": "https://clawhub.ai/wangshengli0421/tianshu-review-calendar", "iconUrl": null, "installs": 2, "name": "Tianshu Review Calendar", "ownerName": "wangshengli0421", "score": 100000, "slug": "tianshu-review-calendar", "source": "clawhub", "stars": 0, "tags": null, "updated_at": 1776698744660, "version": "1.0.0"}, {"category": "", "created_at": 1774897154853, "description": "Pre-trade token safety scanner for 21+ EVM chains. 6-layer deep scan: contract safety, liquidity health, deployer profiling, holder distribution, trading pat...", "description_zh": "支持 21+ 条 EVM 链的盘前代币安全扫描。六层深度检测：合约安全、流动性健康度、部署者画像、持币分布、交易模式等。", "downloads": 26, "homepage": "https://clawhub.ai/supah-based/supah-token-guardian", "iconUrl": null, "installs": 0, "name": "SUPAH Token Guardian", "ownerName": "supah-based", "score": 100000, "slug": "supah-token-guardian", "source": "clawhub", "stars": 0, "tags": null, "updated_at": 1776698744658, "version": "1.3.0"}, {"category": "", "created_at": 1774864425240, "description": "Xueersi Parent Comment Generator: Generate warm, appropriate parent signature comments for report cards, homework books, and school communication forms based...", "description_zh": "学而思家长评语生成器：根据需求为成绩单、作业本及校园沟通表格生成温暖、得体的家长签字评语。", "downloads": 26, "homepage": "https://clawhub.ai/zhouzhi-tal/xueersi-parent-comment", "iconUrl": null, "installs": 0, "name": "Xueersi Parent Comment Generator", "ownerName": "zhouzhi-tal", "score": 100000, "slug": "xueersi-parent-comment", "source": "clawhub", "stars": 0, "tags": ["chinese", "education", "k12", "xueersi"], "updated_at": 1776698744649, "version": "1.0.0"}, {"category": "", "created_at": 1774874424716, "description": "Popupsmart integration. Manage Popups, Integrations, Domains, Accounts. Use when the user wants to interact with Popupsmart data.", "description_zh": "Popupsmart 集成。管理弹窗、集成、域名、账户。当用户需要与 Popupsmart 数据交互时使用。", "downloads": 26, "homepage": "https://clawhub.ai/membranedev/popupsmart", "iconUrl": null, "installs": 0, "name": "Popupsmart", "ownerName": "membranedev", "score": 100000, "slug": "popupsmart", "source": "clawhub", "stars": 0, "tags": null, "updated_at": 1776698744642, "version": "1.0.0"}, {"category": "", "created_at": 1774831912140, "description": "Generate AI images from text prompts — one API key for GPT Image, Gemini, Seedream, and 10+ models. No juggling subscriptions. Images saved to your YouMind k...", "description_zh": "使用一个 API 密钥即可从文本提示生成 AI 图像，支持 GPT Image、Gemini、Seedream 等 10+ 模型。无需多订阅，图像自动保存到 YouMind 知识库。", "downloads": 26, "homepage": "https://clawhub.ai/dophinl/youmind-image-generator", "iconUrl": null, "installs": 2, "name": "AI Image Generator", "ownerName": "dophinl", "score": 100000, "slug": "youmind-image-generator", "source": "clawhub", "stars": 0, "tags": null, "updated_at": 1776698744640, "version": "1.0.0"}, {"category": "", "created_at": 1774893925462, "description": "Supportivekoala integration. Manage Organizations, Pipelines, Users, Filters, Projects. Use when the user wants to interact with Supportivekoala data.", "description_zh": "Supportivekoala 集成。管理组织、流水线、用户、过滤器、项目。用于用户与 Supportivekoala 数据交互时。", "downloads": 26, "homepage": "https://clawhub.ai/gora050/supportivekoala", "iconUrl": null, "installs": 0, "name": "Supportivekoala", "ownerName": "gora050", "score": 100000, "slug": "supportivekoala", "source": "clawhub", "stars": 0, "tags": null, "updated_at": 1776698744637, "version": "1.0.0"}, {"category": "", "created_at": 1774896877557, "description": "Quaderno integration. Manage data, records, and automate workflows. Use when the user wants to interact with Quaderno data.", "description_zh": "Quaderno集成。管理数据、记录并自动化工作流程。当用户需要与Quaderno数据交互时使用。", "downloads": 26, "homepage": "https://clawhub.ai/gora050/quaderno", "iconUrl": null, "installs": 0, "name": "Quaderno", "ownerName": "gora050", "score": 100000, "slug": "quaderno", "source": "clawhub", "stars": 0, "tags": null, "updated_at": 1776698744635, "version": "1.0.0"}, {"category": "", "created_at": 1774867141462, "description": "Turn any research request into a structured, reviewable brief — fact collection, risk analysis, and recommendation in three deterministic steps.", "description_zh": "将任何研究需求转化为结构化、可审查的简报——通过三步确定性流程完成事实收集、风险分析和建议。", "downloads": 26, "homepage": "https://clawhub.ai/baobaodawang-creater/search-analyst-pair", "iconUrl": null, "installs": 0, "name": "Search Analyst Pair", "ownerName": "baobaodawang-creater", "score": 100000, "slug": "search-analyst-pair", "source": "clawhub", "stars": 0, "tags": null, "updated_at": 1776698744633, "version": "1.1.0"}, {"category": "", "created_at": 1774867278360, "description": "Scan token contract security risk and return a structured summary including score, tax, holder concentration, and LP lock status. Supported chains are bsc, e...", "description_zh": "扫描代币合约安全风险，返回包含评分、税率、持币集中度和LP锁定状态的摘要。支持BSC等链。", "downloads": 26, "homepage": "https://clawhub.ai/certik-ai/token-scan", "iconUrl": null, "installs": 1, "name": "Token Scan", "ownerName": "certik-ai", "score": 100000, "slug": "token-scan", "source": "clawhub", "stars": 0, "tags": null, "updated_at": 1776698744631, "version": "1.0.0"}, {"category": "", "created_at": 1774860486379, "description": "Reference tool for devtools — covers intro, quickstart, patterns and more. Quick lookup for Streakup concepts, best practices, and implementation patterns.", "description_zh": "开发工具参考手册——涵盖介绍、快速入门、模式等内容。快速查阅 Streakup 概念、最佳实践及实现模式。", "downloads": 26, "homepage": "https://clawhub.ai/ckchzh/streakup", "iconUrl": null, "installs": 0, "name": "Streakup", "ownerName": "ckchzh", "score": 100000, "slug": "streakup", "source": "clawhub", "stars": 0, "tags": null, "updated_at": 1776698744626, "version": "2.0.2"}, {"category": "", "created_at": 1774955565921, "description": "RegFox integration. Manage Events. Use when the user wants to interact with RegFox data.", "description_zh": "RegFox集成。管理活动。用于与RegFox数据交互。", "downloads": 26, "homepage": "https://clawhub.ai/gora050/regfox", "iconUrl": null, "installs": 0, "name": "Regfox", "ownerName": "gora050", "score": 100000, "slug": "regfox", "source": "clawhub", "stars": 0, "tags": null, "updated_at": 1776698744624, "version": "1.0.0"}, {"category": "", "created_at": 1774948875737, "description": "Riddle Quiz Maker integration. Manage Quizs, Users, Categories. Use when the user wants to interact with Riddle Quiz Maker data.", "description_zh": "Riddle Quiz Maker 集成。管理测验、用户、分类。用于用户需要与 Riddle Quiz Maker 数据交互时。", "downloads": 26, "homepage": "https://clawhub.ai/gora050/riddle-quiz-maker", "iconUrl": null, "installs": 0, "name": "Riddle Quiz Maker", "ownerName": "gora050", "score": 100000, "slug": "riddle-quiz-maker", "source": "clawhub", "stars": 0, "tags": null, "updated_at": 1776698744623, "version": "1.0.0"}, {"category": "", "created_at": 1774954000078, "description": "Salestown integration. Manage data, records, and automate workflows. Use when the user wants to interact with Salestown data.", "description_zh": "Salestown 集成。管理数据、记录并自动化工作流程。用于用户需要与 Salestown 数据交互的场景。", "downloads": 26, "homepage": "https://clawhub.ai/gora050/salestown", "iconUrl": null, "installs": 1, "name": "Salestown", "ownerName": "gora050", "score": 100000, "slug": "salestown", "source": "clawhub", "stars": 0, "tags": null, "updated_at": 1776698744615, "version": "1.0.0"}, {"category": "", "created_at": 1774905022331, "description": "提供 Willem C. Vis 国际商事仲裁模拟庭辩的完整检索资源指南，包括赛事数据库、仲裁程序法数据库、实体法数据库及参考书籍。", "description_zh": "提供 Willem C. Vis 国际商事仲裁模拟庭辩的完整检索资源指南，包括赛事数据库、仲裁程序法数据库、实体法数据库及参考书籍。", "downloads": 26, "homepage": "https://clawhub.ai/pepsile/vis-moot-research", "iconUrl": null, "installs": 1, "name": "Vis Moot 检索资源", "ownerName": "pepsile", "score": 100000, "slug": "vis-moot-research", "source": "clawhub", "stars": 0, "tags": null, "updated_at": 1776698744614, "version": "1.0.0"}, {"category": "", "created_at": 1774852719157, "description": "Reference tool for devtools — covers intro, quickstart, patterns and more. Quick lookup for Portcheck concepts, best practices, and implementation patterns.", "description_zh": "开发者工具参考指南——涵盖介绍、快速入门、设计模式等内容。Portcheck概念、最佳实践和实现模式的快速查询工具。", "downloads": 26, "homepage": "https://clawhub.ai/bytesagain1/portcheck", "iconUrl": null, "installs": 0, "name": "Portcheck", "ownerName": "bytesagain1", "score": 100000, "slug": "portcheck", "source": "clawhub", "stars": 0, "tags": null, "updated_at": 1776698744612, "version": "2.0.3"}, {"category": "", "created_at": 1774910190788, "description": "Fast lightweight verification pass for recent work. Use proactively after medium or large tasks, coding passes, app changes, or long replies when you need a...", "description_zh": "对近期工作进行快速轻量级验证。在完成中大型任务、编码、应用变更或长篇回复后主动使用，以确保质量与准确性。", "downloads": 26, "homepage": "https://clawhub.ai/noahfleming/simple-verifier", "iconUrl": null, "installs": 1, "name": "Simple Verifier", "ownerName": "noahfleming", "score": 100000, "slug": "simple-verifier", "source": "clawhub", "stars": 0, "tags": null, "updated_at": 1776698744610, "version": "1.0.0"}, {"category": "", "created_at": 1774901341026, "description": "Route4Me integration. Manage Users, Addresses, Routes, Territories, Geofences, Contacts. Use when the user wants to interact with Route4Me data.", "description_zh": "Route4Me集成，管理用户、地址、路线、领地、地理围栏、联系人，用于Route4Me数据交互。", "downloads": 26, "homepage": "https://clawhub.ai/gora050/route4me", "iconUrl": null, "installs": 0, "name": "Route4Me", "ownerName": "gora050", "score": 100000, "slug": "route4me", "source": "clawhub", "stars": 0, "tags": null, "updated_at": 1776698744605, "version": "1.0.0"}, {"category": "", "created_at": 1774911398451, "description": "Workamajig integration. Manage data, records, and automate workflows. Use when the user wants to interact with Workamajig data.", "description_zh": "Workamajig集成。管理数据、记录，自动化工作流程。用于与Workamajig数据交互。", "downloads": 26, "homepage": "https://clawhub.ai/gora050/workamajig", "iconUrl": null, "installs": 0, "name": "Workamajig", "ownerName": "gora050", "score": 100000, "slug": "workamajig", "source": "clawhub", "stars": 0, "tags": null, "updated_at": 1776698744596, "version": "1.0.0"}, {"category": "", "created_at": 1774851447269, "description": "Control Sony Bravia TV — power, volume, apps, playback, and full remote navigation via REST API and IRCC on local network.", "description_zh": "通过本地网络 REST API 和 IRCC 控制索尼 Bravia 电视，实现电源、音量、应用、播放及完整遥控导航。", "downloads": 26, "homepage": "https://clawhub.ai/ssupppp/sony-bravia-tv", "iconUrl": null, "installs": 0, "name": "Sony Tv", "ownerName": "ssupppp", "score": 100000, "slug": "sony-bravia-tv", "source": "clawhub", "stars": 0, "tags": ["bravia", "iot", "smart-home", "sony", "tv"], "updated_at": 1776698744588, "version": "1.1.0"}, {"category": "", "created_at": 1774823924077, "description": "各类合同智能起草 - 商业/劳动/租赁/技术合同全覆盖", "description_zh": "各类合同智能起草 - 商业/劳动/租赁/技术合同全覆盖", "downloads": 26, "homepage": "https://clawhub.ai/sealawyer2026/zhang-contract-drafting", "iconUrl": null, "installs": 0, "name": "---", "ownerName": "sealawyer2026", "score": 100000, "slug": "zhang-contract-drafting", "source": "clawhub", "stars": 0, "tags": null, "updated_at": 1776698744577, "version": "1.0.0"}, {"category": "", "created_at": 1774888528410, "description": "Review code changes for security vulnerabilities. Checks for OWASP Top 10, secrets exposure, injection flaws, auth issues, and insecure defaults. Use when re...", "description_zh": "审查代码变更中的安全漏洞，包括OWASP Top 10、敏感信息泄露、注入缺陷、认证问题及不安全默认配置。", "downloads": 26, "homepage": "https://clawhub.ai/solomonneas/sn-security-review", "iconUrl": null, "installs": 1, "name": "Security Review", "ownerName": "solomonneas", "score": 100000, "slug": "sn-security-review", "source": "clawhub", "stars": 0, "tags": null, "updated_at": 1776698744573, "version": "1.0.0"}, {"category": "", "created_at": 1774882424370, "description": "Move to TypeScript type mapping in @aptos-labs/ts-sdk: u64/u128/u256 as bigint, address as string, TypeTag, functionArguments and typeArguments. Triggers on:...", "description_zh": "在 @aptos-labs/ts-sdk 中迁移至 TypeScript 类型映射：u64/u128/u256 对应 bigint，address 对应 string，以及 TypeTag、functionArguments 和 typeArguments 的类型处理。触发条件：…", "downloads": 26, "homepage": "https://clawhub.ai/iskysun96/ts-sdk-types", "iconUrl": null, "installs": 0, "name": "Ts Sdk Types", "ownerName": "iskysun96", "score": 100000, "slug": "ts-sdk-types", "source": "clawhub", "stars": 0, "tags": null, "updated_at": 1776698744570, "version": "1.0.0"}, {"category": "", "created_at": 1774905886884, "description": "Agent guide for operating Sequenzy. Use when Codex needs to authenticate, inspect identity, manage subscribers, send a transactional email, read delivery sta...", "description_zh": "Sequenzy 操作指南。用于 Codex 需要进行身份认证、验证身份、管理订阅者、发送事务性邮件、读取投递状态等场景。", "downloads": 26, "homepage": "https://clawhub.ai/polnikale/sequenzy", "iconUrl": null, "installs": 0, "name": "sequenzy", "ownerName": "polnikale", "score": 100000, "slug": "sequenzy", "source": "clawhub", "stars": 0, "tags": null, "updated_at": 1776698744561, "version": "1.0.0"}, {"category": "", "created_at": 1774886284857, "description": "Automatically review X/Twitter bookmarks for useful tools, projects, repos, products, and ideas. Fetches via xurl, analyses for value, and outputs an actiona...", "description_zh": "自动审查 X/Twitter 书签，提取有用工具、项目、仓库、产品和创意。通过 xurl 抓取，分析价值并输出可操作...", "downloads": 26, "homepage": "https://clawhub.ai/bearly-hodling/x-bookmarks-digest", "iconUrl": null, "installs": 0, "name": "X Bookmarks Digest", "ownerName": "bearly-hodling", "score": 100000, "slug": "x-bookmarks-digest", "source": "clawhub", "stars": 0, "tags": null, "updated_at": 1776698744559, "version": "1.0.0"}, {"category": "", "created_at": 1774905816347, "description": "ProWorkflow integration. Manage Clients, Staffs, Quotes, Templates, Messages, Groups. Use when the user wants to interact with ProWorkflow data.", "description_zh": "ProWorkflow集成。管理客户、员工、报价、模板、消息和组。当用户需要与ProWorkflow数据交互时使用。", "downloads": 26, "homepage": "https://clawhub.ai/gora050/proworkflow", "iconUrl": null, "installs": 0, "name": "Proworkflow", "ownerName": "gora050", "score": 100000, "slug": "proworkflow", "source": "clawhub", "stars": 0, "tags": null, "updated_at": 1776698744555, "version": "1.0.0"}, {"category": "", "created_at": 1774920426229, "description": "During peak sales (Black Friday, Cyber Monday, Singles' Day, flash sales), align hot-SKU remaining inventory with live ad spend—surface sell-through risk, au...", "description_zh": "在销售高峰期（黑色星期五、网络星期一、双十一、限时抢购）实时对齐热销SKU剩余库存与广告投放支出，识别库存售罄风险，优化广告预算分配。", "downloads": 26, "homepage": "https://clawhub.ai/rijoyai/promp-stock", "iconUrl": null, "installs": 0, "name": "Promo Stack", "ownerName": "rijoyai", "score": 100000, "slug": "promp-stock", "source": "clawhub", "stars": 0, "tags": null, "updated_at": 1776698744553, "version": "1.0.0"}, {"category": "", "created_at": 1774945300693, "description": "Reference tool for devtools — covers intro, quickstart, patterns and more. Quick lookup for Wakatime Lite concepts, best practices, and implementation patterns.", "description_zh": "开发工具参考手册——涵盖入门、快速上手、模式等。快速查阅 Wakatime Lite 概念、最佳实践与实现模式。", "downloads": 26, "homepage": "https://clawhub.ai/bytesagain1/wakatime-lite", "iconUrl": null, "installs": 0, "name": "Wakatime Lite", "ownerName": "bytesagain1", "score": 100000, "slug": "wakatime-lite", "source": "clawhub", "stars": 0, "tags": null, "updated_at": 1776698744551, "version": "2.0.3"}, {"category": "", "created_at": 1774843276270, "description": "工作进度检查技能 - 定期检查待办事项 + 子代理超时/消失检测与自动恢复", "description_zh": "工作进度检查技能 - 定期检查待办事项 + 子代理超时/消失检测与自动恢复", "downloads": 26, "homepage": "https://clawhub.ai/amd5/work-progress", "iconUrl": null, "installs": 0, "name": "Work Progress", "ownerName": "amd5", "score": 100000, "slug": "work-progress", "source": "clawhub", "stars": 0, "tags": null, "updated_at": 1776698744544, "version": "4.0.2"}, {"category": "", "created_at": 1774857170091, "description": "订阅微信公众号等信源，获取原始文章内容用于整合日报", "description_zh": "订阅微信公众号等信源，获取原始文章内容用于整合日报", "downloads": 26, "homepage": "https://clawhub.ai/eggyrooch-blip/plotlake", "iconUrl": null, "installs": 0, "name": "Plotlake", "ownerName": "eggyrooch-blip", "score": 100000, "slug": "plotlake", "source": "clawhub", "stars": 0, "tags": null, "updated_at": 1776698744540, "version": "1.3.0"}, {"category": "", "created_at": 1774901390028, "description": "Generate Schema.org JSON-LD structured data markup for Person, Organization, Product, FAQ, HowTo, Article, LocalBusiness, Event, WebSite, BreadcrumbList, Vid...", "description_zh": "为Person、Organization、Product、FAQ、HowTo、Article、LocalBusiness、Event、WebSite、BreadcrumbList、Video等类型生成Schema.org JSON-LD结构化数据标记", "downloads": 26, "homepage": "https://clawhub.ai/sharozdawa/schema-gen", "iconUrl": null, "installs": 0, "name": "Schema Gen", "ownerName": "sharozdawa", "score": 100000, "slug": "schema-gen", "source": "clawhub", "stars": 0, "tags": null, "updated_at": 1776698744537, "version": "1.0.0"}, {"category": "", "created_at": 1774879626423, "description": "搜索碳索人才网上的职位，支持按关键词、地点和行业过滤。新能源垂直行业招聘平台", "description_zh": "搜索碳索人才网上的职位，支持按关键词、地点和行业过滤。新能源垂直行业招聘平台", "downloads": 26, "homepage": "https://clawhub.ai/gengzhw/xnyjobsearch", "iconUrl": null, "installs": 2, "name": "xnyjobsearch", "ownerName": "gengzhw", "score": 100000, "slug": "xnyjobsearch", "source": "clawhub", "stars": 0, "tags": null, "updated_at": 1776698744532, "version": "0.1.1"}, {"category": "", "created_at": 1774898674337, "description": "Round 78 verification skill for ClawHub publishing workflow testing. Demonstrates skill creation, packaging, and publication process.", "description_zh": "ClawHub发布流程测试第78轮验证技能，展示技能创建、打包与发布流程。", "downloads": 26, "homepage": "https://clawhub.ai/wyblhl/round-78-skill", "iconUrl": null, "installs": 0, "name": "Round 78 Skill", "ownerName": "wyblhl", "score": 100000, "slug": "round-78-skill", "source": "clawhub", "stars": 0, "tags": null, "updated_at": 1776698744528, "version": "1.0.0"}]}