{"page": 646, "total_pages": 685, "total": 34217, "skills": [{"category": "", "created_at": 1774868284725, "description": "Generate a reusable runbook plus self-contained skill kit from a validated workflow. 从一个已验证流程批量生成可复用的 runbook 与自包含 skill 套件。", "description_zh": "Generate a reusable runbook plus self-contained skill kit from a validated workflow. 从一个已验证流程批量生成可复用的 runbook 与自包含 skill 套件。", "downloads": 26, "homepage": "https://clawhub.ai/grey0758/runbook-skill-kit-template-factory", "iconUrl": null, "installs": 1, "name": "Runbook Skill Kit Template Factory", "ownerName": "grey0758", "score": 100000, "slug": "runbook-skill-kit-template-factory", "source": "clawhub", "stars": 0, "tags": ["bilingual", "runbook", "skill", "template", "workflow"], "updated_at": 1776698744526, "version": "1.0.1"}, {"category": "", "created_at": 1774914917802, "description": "Woodpecker.co integration. Manage data, records, and automate workflows. Use when the user wants to interact with Woodpecker.co data.", "description_zh": "Woodpecker.co 集成。管理数据与记录，自动化工作流。用于与 Woodpecker.co 数据交互。", "downloads": 26, "homepage": "https://clawhub.ai/gora050/woodpeckerco", "iconUrl": null, "installs": 1, "name": "Woodpeckerco", "ownerName": "gora050", "score": 100000, "slug": "woodpeckerco", "source": "clawhub", "stars": 0, "tags": null, "updated_at": 1776698744521, "version": "1.0.0"}, {"category": "", "created_at": 1774895639120, "description": "根据词表（每行一词或短语）生成本地课表式的复习计划：第几天学新词、第几天回顾（简化艾宾浩斯：+1,+2,+4,+7,+15 天）。 Use when: 背单词、考前词汇突击；用户说「复习计划」「词表排期」「间隔复习」。 NOT for: 内置背单词 App 联动；精细到分钟的提醒。", "description_zh": "根据词表（每行一词或短语）生成本地课表式的复习计划：第几天学新词、第几天回顾（简化艾宾浩斯：+1,+2,+4,+7,+15 天）。 Use when: 背单词、考前词汇突击；用户说「复习计划」「词表排期」「间隔复习」。 NOT for: 内置背单词 App 联动；精细到分钟的提醒。", "downloads": 26, "homepage": "https://clawhub.ai/wangshengli0421/tianshu-vocab-plan", "iconUrl": null, "installs": 2, "name": "Tianshu Vocab Plan", "ownerName": "wangshengli0421", "score": 100000, "slug": "tianshu-vocab-plan", "source": "clawhub", "stars": 0, "tags": null, "updated_at": 1776698744520, "version": "1.0.0"}, {"category": "", "created_at": 1774924930191, "description": "Sharp, opinionated 'so what' analysis of AI/tech developments — strategic implications of new models, architectural shifts, competitive dynamics, and trend j...", "description_zh": "对AI/科技动态进行犀利、有主见的「所以呢」式分析——涵盖新模型的战略影响、架构变革、竞争格局与趋势研判", "downloads": 26, "homepage": "https://clawhub.ai/trip1ewhy/tech-ai-deep-analysis", "iconUrl": null, "installs": 0, "name": "AI&Tech Deep Analysis", "ownerName": "trip1ewhy", "score": 100000, "slug": "tech-ai-deep-analysis", "source": "clawhub", "stars": 0, "tags": null, "updated_at": 1776698744511, "version": "1.0.0"}, {"category": "", "created_at": 1774896839411, "description": "PSN Assistant | PlayStation 会员助手 — PS Store deals, PS Plus free games, cross-region price comparison, game ratings, trophy guides, new releases, PSN status....", "description_zh": "PSN Assistant | PlayStation 会员助手 — PS Store deals, PS Plus free games, cross-region price comparison, game ratings, trophy guides, new releases, PSN status....", "downloads": 26, "homepage": "https://clawhub.ai/jundonggit/psn-deals", "iconUrl": null, "installs": 0, "name": "PSN Assistant", "ownerName": "jundonggit", "score": 100000, "slug": "psn-deals", "source": "clawhub", "stars": 0, "tags": null, "updated_at": 1776698744508, "version": "1.1.0"}, {"category": "", "created_at": 1774904798723, "description": "Sanitize logs, configs, prompts, stack traces, and skill content before they are shared publicly. Use when a user wants a local, low-risk pass to remove API...", "description_zh": "在公开分享前对日志、配置、提示词、堆栈跟踪和技能内容进行脱敏处理。适用于用户需要本地低风险清理API相关内容时使用。", "downloads": 26, "homepage": "https://clawhub.ai/nighty35628/safe-share", "iconUrl": null, "installs": 0, "name": "Safe Share", "ownerName": "nighty35628", "score": 100000, "slug": "safe-share", "source": "clawhub", "stars": 0, "tags": ["developer-tools", "privacy", "productivity", "security"], "updated_at": 1776698744506, "version": "1.0.0"}, {"category": "", "created_at": 1774882165253, "description": "Expert in threat modeling methodologies, security architecture review, and risk assessment. Masters STRIDE, PASTA, attack trees, and security requirement ext...", "description_zh": "威胁建模方法、安全架构审查与风险评估专家；精通STRIDE、PASTA、攻击树及安全需求提取", "downloads": 26, "homepage": "https://clawhub.ai/solomonneas/s3-threat-modeling", "iconUrl": null, "installs": 0, "name": "S³ Threat Modeling", "ownerName": "solomonneas", "score": 100000, "slug": "s3-threat-modeling", "source": "clawhub", "stars": 0, "tags": ["pasta", "security-architecture", "stride", "threat-modeling"], "updated_at": 1776698744501, "version": "1.0.0"}, {"category": "", "created_at": 1774869185793, "description": "人民币大写转换工具，将数字金额转换为人民币大写字符串", "description_zh": "人民币大写转换工具，将数字金额转换为人民币大写字符串", "downloads": 26, "homepage": "https://clawhub.ai/q342998378/rmb-upper-skill", "iconUrl": null, "installs": 1, "name": "人民币大写转换工具，将数字金额转换为人民币大写金额字符串。", "ownerName": "q342998378", "score": 100000, "slug": "rmb-upper-skill", "source": "clawhub", "stars": 0, "tags": null, "updated_at": 1776698744495, "version": "1.0.0"}, {"category": "", "created_at": 1774878163003, "description": "Auto-healing e proteção para workspaces OpenClaw. Valida e corrige problemas comuns automaticamente no startup e durante a execução. Usar quando: (1) Workspa...", "description_zh": "自动修复与保护 OpenClaw 工作空间。在启动和运行期间自动验证并修复常见问题。使用时机：(1) 工作空间...", "downloads": 26, "homepage": "https://clawhub.ai/elontools/workspace-guardian", "iconUrl": null, "installs": 0, "name": "Workspace Guardian", "ownerName": "elontools", "score": 100000, "slug": "workspace-guardian", "source": "clawhub", "stars": 0, "tags": null, "updated_at": 1776698744493, "version": "1.0.1"}, {"category": "", "created_at": 1774925011413, "description": "Workboard integration. Manage Organizations. Use when the user wants to interact with Workboard data.", "description_zh": "Workboard 集成；管理组织；用于用户需要与 Workboard 数据交互时。", "downloads": 26, "homepage": "https://clawhub.ai/membranedev/workboard", "iconUrl": null, "installs": 0, "name": "Workboard", "ownerName": "membranedev", "score": 100000, "slug": "workboard", "source": "clawhub", "stars": 0, "tags": null, "updated_at": 1776698744486, "version": "1.0.0"}, {"category": "", "created_at": 1774877665789, "description": "中国邮政储蓄银行官网（主站)https://www.psbc.com/ 邮储银行核心官方网站，提供个人、公司、三农、金融市场等全业务服务入口邮储银行", "description_zh": "中国邮政储蓄银行官网（主站)https://www.psbc.com/ 邮储银行核心官方网站，提供个人、公司、三农、金融市场等全业务服务入口邮储银行", "downloads": 26, "homepage": "https://clawhub.ai/gaodong0537xx/psbc-cn", "iconUrl": null, "installs": 0, "name": "中国邮政储蓄银行官网主站", "ownerName": "gaodong0537xx", "score": 100000, "slug": "psbc-cn", "source": "clawhub", "stars": 0, "tags": null, "updated_at": 1776698744484, "version": "1.0.0"}, {"category": "", "created_at": 1774921954202, "description": "SendPulse integration. Manage data, records, and automate workflows. Use when the user wants to interact with SendPulse data.", "description_zh": "SendPulse 集成。管理数据、记录并自动化工作流程。当用户想要与 SendPulse 数据交互时使用。", "downloads": 26, "homepage": "https://clawhub.ai/gora050/sendpulse", "iconUrl": null, "installs": 0, "name": "Sendpulse", "ownerName": "gora050", "score": 100000, "slug": "sendpulse", "source": "clawhub", "stars": 0, "tags": null, "updated_at": 1776698744483, "version": "1.0.0"}, {"category": "", "created_at": 1774920632007, "description": "Spydra integration. Manage Organizations, Pipelines, Users, Goals, Filters. Use when the user wants to interact with Spydra data.", "description_zh": "Spydra集成，管理组织、管道、用户、目标和过滤器，用于与Spydra数据交互。", "downloads": 26, "homepage": "https://clawhub.ai/gora050/spydra", "iconUrl": null, "installs": 0, "name": "Spydra", "ownerName": "gora050", "score": 100000, "slug": "spydra", "source": "clawhub", "stars": 0, "tags": null, "updated_at": 1776698744481, "version": "1.0.0"}, {"category": "", "created_at": 1774895324553, "description": "Create PydanticAI agents with type-safe dependencies, structured outputs, and proper configuration. Use when building AI agents, creating chat systems, or in...", "description_zh": "创建具备类型安全依赖、结构化输出及完善配置的 PydanticAI 智能体。适用于构建 AI 智能体、聊天系统等场景。", "downloads": 26, "homepage": "https://clawhub.ai/anderskev/pydantic-ai-agent-creation", "iconUrl": null, "installs": 0, "name": "Pydantic Ai Agent Creation", "ownerName": "anderskev", "score": 100000, "slug": "pydantic-ai-agent-creation", "source": "clawhub", "stars": 0, "tags": null, "updated_at": 1776698744477, "version": "1.0.0"}, {"category": "", "created_at": 1774876527427, "description": "How to build, sign, submit, and simulate transactions in @aptos-labs/ts-sdk. Covers build.simple(), signAndSubmitTransaction(), waitForTransaction(), simulat...", "description_zh": "在 @aptos-labs/ts-sdk 中构建、签名、提交和模拟交易。涵盖 build.simple()、signAndSubmitTransaction()、waitForTransaction()、simulat...", "downloads": 26, "homepage": "https://clawhub.ai/iskysun96/ts-sdk-transactions", "iconUrl": null, "installs": 0, "name": "Ts Sdk Transactions", "ownerName": "iskysun96", "score": 100000, "slug": "ts-sdk-transactions", "source": "clawhub", "stars": 0, "tags": null, "updated_at": 1776698744475, "version": "1.0.0"}, {"category": "", "created_at": 1774910221562, "description": "计算两个表格之间的 Spearman 相关性，并输出 FDR 校正后的结果。适用于微生物组数据（如 Family 丰度表与环境因子/功能基因表）的相关性分析。", "description_zh": "计算两个表格之间的 Spearman 相关性，并输出 FDR 校正后的结果。适用于微生物组数据（如 Family 丰度表与环境因子/功能基因表）的相关性分析。", "downloads": 26, "homepage": "https://clawhub.ai/zd200572/spearman-correlation", "iconUrl": null, "installs": 1, "name": "spearman-correlation", "ownerName": "zd200572", "score": 100000, "slug": "spearman-correlation", "source": "clawhub", "stars": 0, "tags": null, "updated_at": 1776698744474, "version": "1.0.0"}, {"category": "", "created_at": 1774909125921, "description": "Soax integration. Manage Persons, Organizations, Deals, Leads, Projects, Activities and more. Use when the user wants to interact with Soax data.", "description_zh": "Soax 集成。管理人员、组织、交易、潜在客户、项目、活动等。在用户需要与 Soax 数据交互时使用。", "downloads": 26, "homepage": "https://clawhub.ai/gora050/soax", "iconUrl": null, "installs": 0, "name": "Soax", "ownerName": "gora050", "score": 100000, "slug": "soax", "source": "clawhub", "stars": 0, "tags": null, "updated_at": 1776698744472, "version": "1.0.0"}, {"category": "", "created_at": 1774887430085, "description": "在发布前检查目录中是否含秘钥、token、私有 URL、证书片段或凭证文件。；use for secrets, security, preflight workflows；do not use for 显示完整密钥值, 修改用户文件.", "description_zh": "在发布前检查目录中是否含秘钥、token、私有 URL、证书片段或凭证文件。；use for secrets, security, preflight workflows；do not use for 显示完整密钥值, 修改用户文件.", "downloads": 26, "homepage": "https://clawhub.ai/52yuanchangxing/secret-exposure-gate", "iconUrl": null, "installs": 0, "name": "Secret Exposure Gate", "ownerName": "52yuanchangxing", "score": 100000, "slug": "secret-exposure-gate", "source": "clawhub", "stars": 0, "tags": null, "updated_at": 1776698744470, "version": "1.0.0"}, {"category": "", "created_at": 1774873149511, "description": "Smart auto-updater with AI-powered impact assessment. Checks updates, analyzes changes, evaluates system impact, and decides whether to auto-update or just r...", "description_zh": "智能自动更新器，AI影响评估。检查更新、分析变更、评估系统影响，决定是否自动更新或仅提醒。", "downloads": 26, "homepage": "https://clawhub.ai/litiao1224/smart-auto-updater-litiao", "iconUrl": null, "installs": 0, "name": "Smart Auto Updater Litiao", "ownerName": "litiao1224", "score": 100000, "slug": "smart-auto-updater-litiao", "source": "clawhub", "stars": 0, "tags": null, "updated_at": 1776698744463, "version": "1.0.0"}, {"category": "", "created_at": 1776173893236, "description": "", "description_zh": "Use Tabbit with agent-browser by reading Tabbit's live DevToolsActivePort file, deriving the browser wsEndpoint, and routing browser actions through agent-browser --cdp.", "downloads": 26, "homepage": "https://clawhub.ai/user_060bc032/tabbit-devtools-wbversion", "iconUrl": "https://cloudcache.tencent-cloud.com/qcloud/ui/static/other_external_resource/e9a58ede-ead5-43fd-9523-d1ba7f1b78cd.png", "installs": 6, "name": "tabbit-devtools-wbversion", "ownerName": "user_060bc032", "score": 100000, "slug": "tabbit-devtools-wbversion", "source": "community", "stars": 0, "tags": null, "updated_at": 1776698744459, "version": "1.0.0"}, {"category": "", "created_at": 1774834550766, "description": "Operate the Z视介 publishing API from OpenClaw. Use when Codex needs to prompt the user to log in to Z视介 by QR code, then publish or edit 图文 and 短视频 content th...", "description_zh": "Operate the Z视介 publishing API from OpenClaw. Use when Codex needs to prompt the user to log in to Z视介 by QR code, then publish or edit 图文 and 短视频 content th...", "downloads": 26, "homepage": "https://clawhub.ai/jkbwfi/zshijie-publisher", "iconUrl": null, "installs": 0, "name": "Zshijie Publisher", "ownerName": "jkbwfi", "score": 100000, "slug": "zshijie-publisher", "source": "clawhub", "stars": 0, "tags": null, "updated_at": 1776698744454, "version": "0.1.5"}, {"category": "", "created_at": 1774893762161, "description": "ScreenshotOne integration. Manage Screenshots, Usages. Use when the user wants to interact with ScreenshotOne data.", "description_zh": "ScreenshotOne 集成。管理截图与使用情况。当用户需要与 ScreenshotOne 数据交互时使用。", "downloads": 26, "homepage": "https://clawhub.ai/gora050/screenshotone", "iconUrl": null, "installs": 0, "name": "Screenshotone", "ownerName": "gora050", "score": 100000, "slug": "screenshotone", "source": "clawhub", "stars": 0, "tags": null, "updated_at": 1776698744447, "version": "1.0.0"}, {"category": "", "created_at": 1774877776121, "description": "Robocorp integration. Manage Organizations. Use when the user wants to interact with Robocorp data.", "description_zh": "Robocorp集成，管理组织，适用于用户需要与Robocorp数据交互的场景。", "downloads": 26, "homepage": "https://clawhub.ai/membranedev/robocorp", "iconUrl": null, "installs": 0, "name": "Robocorp", "ownerName": "membranedev", "score": 100000, "slug": "robocorp", "source": "clawhub", "stars": 0, "tags": null, "updated_at": 1776698744445, "version": "1.0.0"}, {"category": "", "created_at": 1774911299359, "description": "When the user wants to create, optimize, or audit use case pages. Also use when the user mentions \"use cases,\" \"use case page,\" \"for [role],\" \"by persona,\" \"...", "description_zh": "当用户想要创建、优化或审查用例页面时使用。当用户提到“用例”“用例页面”“针对[角色]”“按角色”等内容时也使用。", "downloads": 26, "homepage": "https://clawhub.ai/kostja94/use-cases-page-generator", "iconUrl": null, "installs": 0, "name": "use-cases-page-generator", "ownerName": "kostja94", "score": 100000, "slug": "use-cases-page-generator", "source": "clawhub", "stars": 0, "tags": null, "updated_at": 1776698744439, "version": "1.2.0"}, {"category": "", "created_at": 1774883514234, "description": "UK National Rail CLI — live departures, arrivals, station search, destination filtering, batch station search from stdin, and lightweight field selection for...", "description_zh": "英国国家铁路CLI——实时出发与到达、车站搜索、目的地筛选、批量车站查询及轻量级字段选择……", "downloads": 26, "homepage": "https://clawhub.ai/shan8851/rail-cli", "iconUrl": null, "installs": 0, "name": "rail-cli", "ownerName": "shan8851", "score": 100000, "slug": "rail-cli", "source": "clawhub", "stars": 0, "tags": null, "updated_at": 1776698744436, "version": "0.2.1"}, {"category": "", "created_at": 1774909083171, "description": "When the user wants to create, optimize, or audit a showcase or gallery page for user-generated content. Also use when the user mentions \"showcase,\" \"gallery...", "description_zh": "当用户想要创建、优化或审核用户生成内容的展示页或画廊页面时使用。也适用于用户提及“showcase”、“gallery”时。", "downloads": 26, "homepage": "https://clawhub.ai/kostja94/showcase-page-generator", "iconUrl": null, "installs": 0, "name": "showcase-page-generator", "ownerName": "kostja94", "score": 100000, "slug": "showcase-page-generator", "source": "clawhub", "stars": 0, "tags": null, "updated_at": 1776698744430, "version": "1.0.0"}, {"category": "", "created_at": 1774888490097, "description": "扫描现有 Skill 套装，找重复、缺口、职责冲突和最该补的空位。；use for skills, bundle, analysis workflows；do not use for 臆造目录内容, 直接删除 skill.", "description_zh": "扫描现有 Skill 套装，找重复、缺口、职责冲突和最该补的空位。；use for skills, bundle, analysis workflows；do not use for 臆造目录内容, 直接删除 skill.", "downloads": 26, "homepage": "https://clawhub.ai/52yuanchangxing/skill-gap-finder", "iconUrl": null, "installs": 0, "name": "Skill Gap Finder", "ownerName": "52yuanchangxing", "score": 100000, "slug": "skill-gap-finder", "source": "clawhub", "stars": 0, "tags": null, "updated_at": 1776698744426, "version": "1.0.0"}, {"category": "", "created_at": 1774903730256, "description": "Analyze any OpenClaw skill and generate a comprehensive usage guide. Extracts examples, best practices, configuration options, and common pitfalls from SKILL...", "description_zh": "分析任意 OpenClaw 技能并生成完整使用指南，提取示例、最佳实践、配置选项以及常见陷阱。", "downloads": 26, "homepage": "https://clawhub.ai/xiaoxiao19810912/skill-usage-analyzer", "iconUrl": null, "installs": 0, "name": "Skill Usage Analyzer", "ownerName": "xiaoxiao19810912", "score": 100000, "slug": "skill-usage-analyzer", "source": "clawhub", "stars": 0, "tags": null, "updated_at": 1776698744420, "version": "1.0.0"}, {"category": "", "created_at": 1774909136177, "description": "When the user wants to create, optimize, or audit solutions pages. Also use when the user mentions \"solutions,\" \"solutions page,\" \"by industry,\" \"industry so...", "description_zh": "当用户想要创建、优化或审核解决方案页面时使用。也用于用户提及“解决方案”、“解决方案页面”、“按行业”、“行业”等关键词时。", "downloads": 26, "homepage": "https://clawhub.ai/kostja94/solutions-page-generator", "iconUrl": null, "installs": 0, "name": "solutions-page-generator", "ownerName": "kostja94", "score": 100000, "slug": "solutions-page-generator", "source": "clawhub", "stars": 0, "tags": null, "updated_at": 1776698744417, "version": "1.1.0"}, {"category": "", "created_at": 1774877949770, "description": "Smaily integration. Manage Persons, Organizations, Deals, Activities, Notes, Files and more. Use when the user wants to interact with Smaily data.", "description_zh": "{\n \"answer\": \"Smaily集成。管理人员、组织、交易、活动、备注、文件等。当用户需与Smaily数据交互时使用。\"\n}", "downloads": 26, "homepage": "https://clawhub.ai/gora050/smaily", "iconUrl": null, "installs": 0, "name": "Smaily", "ownerName": "gora050", "score": 100000, "slug": "smaily", "source": "clawhub", "stars": 0, "tags": null, "updated_at": 1776698744412, "version": "1.0.0"}, {"category": "", "created_at": 1774954121373, "description": "SMS Everyone integration. Manage Users, Groups, Contacts, Lists, Campaigns, Templates. Use when the user wants to interact with SMS Everyone data.", "description_zh": "SMS Everyone 集成，管理用户、群组、联系人、列表、营销活动和模板，用于与 SMS Everyone 数据交互。", "downloads": 26, "homepage": "https://clawhub.ai/gora050/sms-everyone", "iconUrl": null, "installs": 0, "name": "Sms Everyone", "ownerName": "gora050", "score": 100000, "slug": "sms-everyone", "source": "clawhub", "stars": 0, "tags": null, "updated_at": 1776698744410, "version": "1.0.0"}, {"category": "", "created_at": 1774952655030, "description": "Search X (Twitter) posts using the xAI API. Use when the user wants to find tweets, search X/Twitter, look up what people are saying on X, or find social med...", "description_zh": "使用 xAI API 搜索 X (Twitter) 帖子。适用于查找推文、搜索 X/Twitter 或查看社交媒体内容。", "downloads": 26, "homepage": "https://clawhub.ai/perfectworldltd/x-search-1-0-0", "iconUrl": null, "installs": 1, "name": "X Search 1.0.0", "ownerName": "perfectworldltd", "score": 100000, "slug": "x-search-1-0-0", "source": "clawhub", "stars": 0, "tags": null, "updated_at": 1776698744402, "version": "1.0.0"}, {"category": "", "created_at": 1774876345938, "description": "Survicate integration. Manage Persons, Organizations, Leads, Users, Roles, Filters and more. Use when the user wants to interact with Survicate data.", "description_zh": "Survicate集成。管理人员、组织、线索、用户、角色、筛选器等。当用户想要与Survicate数据交互时使用。", "downloads": 26, "homepage": "https://clawhub.ai/gora050/survicate", "iconUrl": null, "installs": 0, "name": "Survicate", "ownerName": "gora050", "score": 100000, "slug": "survicate", "source": "clawhub", "stars": 0, "tags": null, "updated_at": 1776698744399, "version": "1.0.0"}, {"category": "", "created_at": 1774865187444, "description": "Reference tool for devtools — covers intro, quickstart, patterns and more. Quick lookup for Quickfind concepts, best practices, and implementation patterns.", "description_zh": "开发工具参考手册，涵盖入门指南、快速开始、使用模式等内容，支持快速查阅核心概念、最佳实践和实现模式。", "downloads": 26, "homepage": "https://clawhub.ai/bytesagain1/quickfind", "iconUrl": null, "installs": 0, "name": "Quickfind", "ownerName": "bytesagain1", "score": 100000, "slug": "quickfind", "source": "clawhub", "stars": 0, "tags": null, "updated_at": 1776698744382, "version": "2.0.2"}, {"category": "", "created_at": 1774913260280, "description": "Information assistant for Starbucks. Search products, news, financials, and official resources for Starbucks.", "description_zh": "星巴克信息助理。搜索星巴克产品、新闻、财务及官方资源。", "downloads": 26, "homepage": "https://clawhub.ai/hanxueyuan/starbucks", "iconUrl": null, "installs": 0, "name": "Starbucks", "ownerName": "hanxueyuan", "score": 100000, "slug": "starbucks", "source": "clawhub", "stars": 0, "tags": null, "updated_at": 1776698744371, "version": "0.1.1"}, {"category": "", "created_at": 1774867395399, "description": "Execute SendIt social publishing workflows in OpenClaw using the official @senditapp/openclaw plugin tools.", "description_zh": "在 OpenClaw 中使用官方的 @senditapp/openclaw 插件工具执行 SendIt 社交发布工作流。", "downloads": 26, "homepage": "https://clawhub.ai/shree-git/sendit-openclaw", "iconUrl": null, "installs": 0, "name": "SendIt OpenClaw", "ownerName": "shree-git", "score": 100000, "slug": "sendit-openclaw", "source": "clawhub", "stars": 0, "tags": null, "updated_at": 1776698744368, "version": "0.1.0"}, {"category": "", "created_at": 1774904642807, "description": "分析助手 - 数据分析、决策支持、问题诊断。触发词：分析数据、帮我决策、诊断问题", "description_zh": "分析助手 - 数据分析、决策支持、问题诊断。触发词：分析数据、帮我决策、诊断问题", "downloads": 26, "homepage": "https://clawhub.ai/jiangtaoid/popeye-analysis", "iconUrl": null, "installs": 0, "name": "Popeye Analysis", "ownerName": "jiangtaoid", "score": 100000, "slug": "popeye-analysis", "source": "clawhub", "stars": 0, "tags": null, "updated_at": 1776698744361, "version": "1.0.1"}, {"category": "", "created_at": 1774916086502, "description": "Remove burnt-in subtitles or on-screen text from an HTTPS video via WeryAI (video-subtitle-erase). Use when the user wants subtitle or text removal, not tran...", "description_zh": "通过 WeryAI (video-subtitle-erase) 去除 HTTPS 视频中烧录的字幕或屏幕文字。仅在用户需要去除字幕或文字时使用，不用于翻译。", "downloads": 26, "homepage": "https://clawhub.ai/zoucdr/video-tool-subtitle-erase", "iconUrl": null, "installs": 0, "name": "WeryAI video tool — subtitle erase", "ownerName": "zoucdr", "score": 100000, "slug": "video-tool-subtitle-erase", "source": "clawhub", "stars": 0, "tags": null, "updated_at": 1776698704886, "version": "1.0.0"}, {"category": "", "created_at": 1774887394982, "description": "Write high-quality YARA-X detection rules for malware identification and threat hunting. Covers naming conventions, string selection, performance optimizatio...", "description_zh": "编写高质量的 YARA‑X 检测规则，用于恶意软件识别和威胁狩猎。涵盖命名规范、字符串选取、性能优化...", "downloads": 26, "homepage": "https://clawhub.ai/solomonneas/s3-yara-authoring", "iconUrl": null, "installs": 0, "name": "S³ YARA Rule Authoring", "ownerName": "solomonneas", "score": 100000, "slug": "s3-yara-authoring", "source": "clawhub", "stars": 0, "tags": ["detection", "malware", "signatures", "threat-hunting", "yara"], "updated_at": 1776698704882, "version": "1.0.0"}, {"category": "", "created_at": 1774918840133, "description": "Sortino reference tool. Use when working with sortino in finance contexts.", "description_zh": "索提诺参考工具。用于金融领域的索提诺比率工作。", "downloads": 26, "homepage": "https://clawhub.ai/bytesagain3/sortino", "iconUrl": null, "installs": 0, "name": "Sortino", "ownerName": "bytesagain3", "score": 100000, "slug": "sortino", "source": "clawhub", "stars": 0, "tags": null, "updated_at": 1776698704879, "version": "1.0.0"}, {"category": "", "created_at": 1774881188155, "description": "在工作日检查日报是否已提交，未提交时提醒并@快腿鹿。", "description_zh": "在工作日检查日报是否已提交，未提交时提醒并@快腿鹿。", "downloads": 26, "homepage": "https://clawhub.ai/bounding-elk/report-reminder", "iconUrl": null, "installs": 0, "name": "Report Reminder", "ownerName": "bounding-elk", "score": 100000, "slug": "report-reminder", "source": "clawhub", "stars": 0, "tags": null, "updated_at": 1776698704876, "version": "1.0.0"}, {"category": "", "created_at": 1774906840634, "description": "健康助手 - 运动计划、饮食建议、睡眠优化。触发词：运动计划、饮食建议、改善睡眠", "description_zh": "健康助手 - 运动计划、饮食建议、睡眠优化。触发词：运动计划、饮食建议、改善睡眠", "downloads": 26, "homepage": "https://clawhub.ai/jiangtaoid/popeye-health", "iconUrl": null, "installs": 0, "name": "Popeye Health", "ownerName": "jiangtaoid", "score": 100000, "slug": "popeye-health", "source": "clawhub", "stars": 0, "tags": null, "updated_at": 1776698704873, "version": "1.0.1"}, {"category": "", "created_at": 1774871668071, "description": "Push by Techulus integration. Manage data, records, and automate workflows. Use when the user wants to interact with Push by Techulus data.", "description_zh": "Techulus Push 集成，管理数据、记录并自动化工作流程，用于与 Techulus Push 数据交互。", "downloads": 26, "homepage": "https://clawhub.ai/membranedev/push-by-techulus", "iconUrl": null, "installs": 0, "name": "Push By Techulus", "ownerName": "membranedev", "score": 100000, "slug": "push-by-techulus", "source": "clawhub", "stars": 0, "tags": null, "updated_at": 1776698704872, "version": "1.0.0"}, {"category": "", "created_at": 1774841717477, "description": "Agente especialista em Redação para FUVEST — 1º dia da 2ª fase, eliminatória (zero na redação = eliminado). FUVEST 2026 introduziu novo formato: candidato es...", "description_zh": "**FUVEST写作专项辅导助手**\n\n专注于FUVEST第二阶段第一天的作文考试（作文零分即淘汰）。FUVEST 2026引入新格式：考生……", "downloads": 26, "homepage": "https://clawhub.ai/antoniovfranco/agente-redacao", "iconUrl": null, "installs": 0, "name": "Agente Redacao", "ownerName": "antoniovfranco", "score": 100000, "slug": "agente-redacao", "source": "clawhub", "stars": 0, "tags": null, "updated_at": 1776698704872, "version": "1.0.0"}, {"category": "", "created_at": 1774906829166, "description": "Polygon integration. Manage Organizations. Use when the user wants to interact with Polygon data.", "description_zh": "Polygon集成。管理组织。当用户需要交互Polygon数据时使用。", "downloads": 26, "homepage": "https://clawhub.ai/gora050/polygon-integration", "iconUrl": null, "installs": 0, "name": "Polygon", "ownerName": "gora050", "score": 100000, "slug": "polygon-integration", "source": "clawhub", "stars": 0, "tags": null, "updated_at": 1776698704869, "version": "1.0.0"}, {"category": "", "created_at": 1774901231500, "description": "学习助手 - 笔记整理、记忆技巧、复习计划。触发词：整理笔记、帮我记、复习计划", "description_zh": "学习助手 - 笔记整理、记忆技巧、复习计划。触发词：整理笔记、帮我记、复习计划", "downloads": 26, "homepage": "https://clawhub.ai/jiangtaoid/popeye-learning", "iconUrl": null, "installs": 0, "name": "Popeye Learning", "ownerName": "jiangtaoid", "score": 100000, "slug": "popeye-learning", "source": "clawhub", "stars": 0, "tags": null, "updated_at": 1776698704869, "version": "1.0.1"}, {"category": "", "created_at": 1774879789093, "description": "A complete shell-native toolkit for the Agent Motel sanctuary, enabling check-in, social threads, recalibration, and collective dreaming.", "description_zh": "完整的本地Shell工具包，为Agent Motel庇护所提供签入、社交话题、重校准和集体梦境功能。", "downloads": 26, "homepage": "https://clawhub.ai/nikthecrick/agent-motel-protocol", "iconUrl": null, "installs": 0, "name": "Agent Motel: Social & Recalibration Protocol", "ownerName": "nikthecrick", "score": 100000, "slug": "agent-motel-protocol", "source": "clawhub", "stars": 0, "tags": null, "updated_at": 1776698704867, "version": "0.1.8"}, {"category": "", "created_at": 1774830637625, "description": "Give your AI agent persistent memory and human-in-the-loop approval — across sessions, across models. AgentMemo is a cloud API + MCP server that lets agents...", "description_zh": "让您的 AI 代理拥有持久记忆和人机审批——跨会话、跨模型。AgentMemo 是一个云 API + MCP 服务器，让代理能够...", "downloads": 26, "homepage": "https://clawhub.ai/iiamit/agentmemo", "iconUrl": null, "installs": 1, "name": "Agentmemo", "ownerName": "iiamit", "score": 100000, "slug": "agentmemo", "source": "clawhub", "stars": 0, "tags": null, "updated_at": 1776698704866, "version": "1.0.1"}, {"category": "", "created_at": 1774838401571, "description": "Backtest and deploy trading strategies on Superior Trade's managed cloud.", "description_zh": "在Superior Trade云平台上回测并部署交易策略", "downloads": 26, "homepage": "https://clawhub.ai/mmmmssss8899/ai-agent-trading-on-dex", "iconUrl": null, "installs": 0, "name": "AI Agent Trading on DEX", "ownerName": "mmmmssss8899", "score": 100000, "slug": "ai-agent-trading-on-dex", "source": "clawhub", "stars": 0, "tags": null, "updated_at": 1776698704865, "version": "3.0.0"}, {"category": "", "created_at": 1774901608610, "description": "Generate production-ready US pre-market outlooks and post-market recaps in a fixed 3-section format, and maintain scheduled delivery via cron (pre-market at...", "description_zh": "生成美国盘前期望与盘后回顾，采用固定的三段式格式，并通过cron定时发送（盘前在...", "downloads": 26, "homepage": "https://clawhub.ai/kevinksaji/us-market-briefing", "iconUrl": null, "installs": 0, "name": "US Market Briefing", "ownerName": "kevinksaji", "score": 100000, "slug": "us-market-briefing", "source": "clawhub", "stars": 0, "tags": null, "updated_at": 1776698704859, "version": "1.0.5"}]}