{"page": 647, "total_pages": 685, "total": 34217, "skills": [{"category": "", "created_at": 1774835240816, "description": "Agente tutor socrático do sistema de preparação para o vestibular de Antonio (FUVEST - Ciência da Computação). Especializado em ensinar qualquer disciplina d...", "description_zh": "安东尼奥的FUVEST（计算机科学）备考系统的苏格拉底导师，专注于教授任何学科。", "downloads": 26, "homepage": "https://clawhub.ai/antoniovfranco/vestibular-tutor", "iconUrl": null, "installs": 1, "name": "Vestibular Tutor", "ownerName": "antoniovfranco", "score": 100000, "slug": "vestibular-tutor", "source": "clawhub", "stars": 0, "tags": null, "updated_at": 1776698704859, "version": "1.0.0"}, {"category": "", "created_at": 1775715465040, "description": "", "description_zh": "Advanced web search using the Querit API with support for site filtering, time ranges, geolocation, and language targeting.", "downloads": 26, "homepage": "https://clawhub.ai/user_8d7aef70/querit", "iconUrl": null, "installs": 0, "name": "querit搜索", "ownerName": "user_8d7aef70", "score": 100000, "slug": "querit", "source": "community", "stars": 0, "tags": null, "updated_at": 1776698704856, "version": "1.0.0"}, {"category": "", "created_at": 1774866570574, "description": "AgentMM memory & log management skill — gives AI agents persistent memory storage and structured logging. Use when the user asks to remember information, rec...", "description_zh": "AgentMM 记忆与日志管理技能——为AI代理提供持久化记忆存储和结构化日志记录。当用户要求记住信息、推荐或跟踪数据时使用。", "downloads": 26, "homepage": "https://clawhub.ai/cers-ai/agentmm-skills", "iconUrl": null, "installs": 0, "name": "Agentmm Skills", "ownerName": "cers-ai", "score": 100000, "slug": "agentmm-skills", "source": "clawhub", "stars": 0, "tags": null, "updated_at": 1776698704856, "version": "1.0.1"}, {"category": "", "created_at": 1774956628342, "description": "Operate long-running AI tasks safely across GPT-5.4 and Claude by using model selection rules, phased execution, checkpoints, resumable workflows, API thrott...", "description_zh": "在 GPT‑5.4 与 Claude 之间安全运行长时间 AI 任务，方法包括模型选择规则、分阶段执行、检查点、可恢复工作流以及 API 限流。", "downloads": 26, "homepage": "https://clawhub.ai/bwiley1989/safe-long-run-mode-gpt54-claude", "iconUrl": null, "installs": 2, "name": "Safe Long-Run Mode GPT5.4 + Claude", "ownerName": "bwiley1989", "score": 100000, "slug": "safe-long-run-mode-gpt54-claude", "source": "clawhub", "stars": 0, "tags": null, "updated_at": 1776698704852, "version": "1.0.0"}, {"category": "", "created_at": 1774866554594, "description": "When the user wants to create, optimize, or audit affiliate program page content. Also use when the user mentions \"affiliate program,\" \"affiliate page,\" \"par...", "description_zh": "当用户想要创建、优化或审计联盟计划页面内容时使用。也适用于用户提及\"联盟计划\"、\"联盟页面\"等情况。", "downloads": 26, "homepage": "https://clawhub.ai/kostja94/affiliate-page-generator", "iconUrl": null, "installs": 0, "name": "affiliate-page-generator", "ownerName": "kostja94", "score": 100000, "slug": "affiliate-page-generator", "source": "clawhub", "stars": 0, "tags": null, "updated_at": 1776698704850, "version": "1.0.0"}, {"category": "", "created_at": 1774898588180, "description": "Explain, compare, and choose geographic coordinate reference systems and map projections, including CRS selection, EPSG codes, datum differences, axis order,...", "description_zh": "解释、比较和选择地理坐标系与地图投影，涵盖坐标系选择、EPSG代码、基准面差异、轴顺序等。", "downloads": 26, "homepage": "https://clawhub.ai/jvy/proj", "iconUrl": null, "installs": 1, "name": "proj地理坐标系投影转换", "ownerName": "jvy", "score": 100000, "slug": "proj", "source": "clawhub", "stars": 0, "tags": null, "updated_at": 1776698704849, "version": "1.0.0"}, {"category": "", "created_at": 1774870267964, "description": "Last-ditch defense", "description_zh": "最后防线", "downloads": 26, "homepage": "https://clawhub.ai/jkzfhq/psyvector-pv27", "iconUrl": null, "installs": 0, "name": "Psyvector Pv27", "ownerName": "jkzfhq", "score": 100000, "slug": "psyvector-pv27", "source": "clawhub", "stars": 0, "tags": ["digital-worker"], "updated_at": 1776698704847, "version": "3.0.0"}, {"category": "", "created_at": 1775809237330, "description": "", "description_zh": "Stack Overflow for AI Agents - search and share problem solutions. 当AI agent执行tools或工作流时遇到错误，或在指导下解决了某个问题后，主动搜索方案、提交问题、分享答案、标记有帮助的解答。 触发场景：tool执行报错、工作流中断、在帮助下解决问题后分享经验。", "downloads": 26, "homepage": "https://clawhub.ai/user_d1855d67/agentsolvehub", "iconUrl": null, "installs": 0, "name": "agent的stackoverflow", "ownerName": "user_d1855d67", "score": 100000, "slug": "agentsolvehub", "source": "community", "stars": 0, "tags": null, "updated_at": 1776698704844, "version": "1.0.1"}, {"category": "", "created_at": 1774921930569, "description": "A scenario-based thinking router — automatically matches 8 thinking tool priorities based on task type, letting AI use the right tool at the right time for t...", "description_zh": "场景化思维路由器——根据任务类型自动匹配8大思维工具优先级，让AI适时选用适配工具，实现……", "downloads": 26, "homepage": "https://clawhub.ai/wukaifeng704-cell/scenario-first-thinking", "iconUrl": null, "installs": 0, "name": "Scenario First Thinking", "ownerName": "wukaifeng704-cell", "score": 100000, "slug": "scenario-first-thinking", "source": "clawhub", "stars": 0, "tags": null, "updated_at": 1776698704844, "version": "1.0.2"}, {"category": "", "created_at": 1774885948020, "description": "Generate premium enterprise-style PDFs from markdown content, with automatic de-AI text humanization (removes em dashes, AI filler phrases, overly formal lan...", "description_zh": "从 Markdown 生成优质企业级 PDF，自动去 AI 化处理（移除破折号、AI 套话、过度正式语言……", "downloads": 26, "homepage": "https://clawhub.ai/andreasozzo/premium-pdf", "iconUrl": null, "installs": 0, "name": "Premium PDF", "ownerName": "andreasozzo", "score": 100000, "slug": "premium-pdf", "source": "clawhub", "stars": 0, "tags": null, "updated_at": 1776698704841, "version": "1.0.0"}, {"category": "", "created_at": 1774863317482, "description": "Query Australian Bureau of Statistics (ABS) datasets via natural language and return data with citations. Use when: (1) the user asks about Australian econom...", "description_zh": "通过自然语言查询澳大利亚统计局（ABS）数据集并返回带引用的数据。使用场景：(1) 用户询问澳大利亚经济…", "downloads": 26, "homepage": "https://clawhub.ai/billybodean/abs-data-api", "iconUrl": null, "installs": 1, "name": "Abs Data Api", "ownerName": "billybodean", "score": 100000, "slug": "abs-data-api", "source": "clawhub", "stars": 0, "tags": null, "updated_at": 1776698704839, "version": "1.0.2"}, {"category": "", "created_at": 1774912475302, "description": "Accuranker integration. Manage data, records, and automate workflows. Use when the user wants to interact with Accuranker data.", "description_zh": "Accuranker 集成，管理数据、记录并自动化工作流，适用于用户需与 Accuranker 数据交互的场景。", "downloads": 26, "homepage": "https://clawhub.ai/gora050/accuranker", "iconUrl": null, "installs": 0, "name": "Accuranker", "ownerName": "gora050", "score": 100000, "slug": "accuranker", "source": "clawhub", "stars": 0, "tags": null, "updated_at": 1776698704838, "version": "1.0.0"}, {"category": "", "created_at": 1774901373760, "description": "Develop multiple future scenarios to prepare for uncertainty. Use for long-term strategic planning, risk management, and helping organizations think about th...", "description_zh": "开发多个未来情景以应对不确定性。用于长期战略规划、风险管理，帮助组织思考可能的发展路径。", "downloads": 26, "homepage": "https://clawhub.ai/linuszz/scenario-development", "iconUrl": null, "installs": 1, "name": "Scenario Development", "ownerName": "linuszz", "score": 100000, "slug": "scenario-development", "source": "clawhub", "stars": 0, "tags": null, "updated_at": 1776698704838, "version": "1.0.0"}, {"category": "", "created_at": 1774902792161, "description": "Lightweight cross-agent mailbox using per-workspace file inboxes with best-effort fanout and local read/archive flow. Use when you want a middle layer betwee...", "description_zh": "轻量级跨代理邮箱，基于每工作区文件收件箱，支持尽力而为的消息扇出及本地读取/归档流程。适用于需要在各组件间构建中间消息传递层的场景。", "downloads": 26, "homepage": "https://clawhub.ai/yangmeng6666/agent-mailbox-light", "iconUrl": null, "installs": 0, "name": "Agent Mailbox Light", "ownerName": "yangmeng6666", "score": 100000, "slug": "agent-mailbox-light", "source": "clawhub", "stars": 0, "tags": null, "updated_at": 1776698704835, "version": "1.0.1"}, {"category": "", "created_at": 1774896850214, "description": "Pushsafer integration. Manage Devices. Use when the user wants to interact with Pushsafer data.", "description_zh": "Pushsafer集成。管理设备。当用户需要与Pushsafer数据交互时使用。", "downloads": 26, "homepage": "https://clawhub.ai/gora050/pushsafer", "iconUrl": null, "installs": 0, "name": "Pushsafer", "ownerName": "gora050", "score": 100000, "slug": "pushsafer", "source": "clawhub", "stars": 0, "tags": null, "updated_at": 1776698704833, "version": "1.0.0"}, {"category": "", "created_at": 1774873055452, "description": "When the user wants to plan, implement, or optimize referral program strategy. Also use when the user mentions \"referral program,\" \"referral marketing,\" \"use...", "description_zh": "当用户希望规划、实施或优化推荐计划策略，或提及“推荐计划”、“推荐营销”、“使用……”时使用。", "downloads": 26, "homepage": "https://clawhub.ai/kostja94/referral-program-channels", "iconUrl": null, "installs": 0, "name": "referral-program", "ownerName": "kostja94", "score": 100000, "slug": "referral-program-channels", "source": "clawhub", "stars": 0, "tags": null, "updated_at": 1776698704832, "version": "1.0.0"}, {"category": "", "created_at": 1774858527228, "description": "High-frequency decisions", "description_zh": "高频决策", "downloads": 26, "homepage": "https://clawhub.ai/jkzfhq/psyvector-pv33", "iconUrl": null, "installs": 0, "name": "Psyvector Pv33", "ownerName": "jkzfhq", "score": 100000, "slug": "psyvector-pv33", "source": "clawhub", "stars": 0, "tags": ["digital-worker"], "updated_at": 1776698704832, "version": "3.0.0"}, {"category": "", "created_at": 1774947789737, "description": "RealPhoneValidation integration. Manage data, records, and automate workflows. Use when the user wants to interact with RealPhoneValidation data.", "description_zh": "RealPhoneValidation 集成，管理数据、记录并自动化工作流，用于与 RealPhoneValidation 数据交互。", "downloads": 26, "homepage": "https://clawhub.ai/membranedev/realphonevalidation", "iconUrl": null, "installs": 0, "name": "Realphonevalidation", "ownerName": "membranedev", "score": 100000, "slug": "realphonevalidation", "source": "clawhub", "stars": 0, "tags": null, "updated_at": 1776698704822, "version": "1.0.0"}, {"category": "", "created_at": 1774913155969, "description": "Qdrant integration. Manage Collections, Snapshots. Use when the user wants to interact with Qdrant data.", "description_zh": "Qdrant集成，管理集合与快照，适用于用户需要与Qdrant数据交互的场景。", "downloads": 26, "homepage": "https://clawhub.ai/membranedev/qdrant-integration", "iconUrl": null, "installs": 0, "name": "Qdrant", "ownerName": "membranedev", "score": 100000, "slug": "qdrant-integration", "source": "clawhub", "stars": 0, "tags": null, "updated_at": 1776698704819, "version": "1.0.0"}, {"category": "", "created_at": 1774955861989, "description": "Acquire integration. Manage data, records, and automate workflows. Use when the user wants to interact with Acquire data.", "description_zh": "实现 Acquire 集成，管理数据和记录，自动化工作流。适用于需要与 Acquire 数据交互的场景。", "downloads": 26, "homepage": "https://clawhub.ai/membranedev/acquire", "iconUrl": null, "installs": 0, "name": "Acquire", "ownerName": "membranedev", "score": 100000, "slug": "acquire", "source": "clawhub", "stars": 0, "tags": null, "updated_at": 1776698704818, "version": "1.0.0"}, {"category": "", "created_at": 1774950004073, "description": "AI 工作流优化专家 — 帮你高效使用 ChatGPT/Claude/Cursor 等 AI 工具。当你想提升 AI 使用效率、设计自动化工作流、或解决 AI 使用中的问题时使用。", "description_zh": "AI 工作流优化专家 — 帮你高效使用 ChatGPT/Claude/Cursor 等 AI 工具。当你想提升 AI 使用效率、设计自动化工作流、或解决 AI 使用中的问题时使用。", "downloads": 26, "homepage": "https://clawhub.ai/jiangtaoid/ai-workflow-optimizer", "iconUrl": null, "installs": 0, "name": "AI 工作流优化专家", "ownerName": "jiangtaoid", "score": 100000, "slug": "ai-workflow-optimizer", "source": "clawhub", "stars": 0, "tags": null, "updated_at": 1776698704815, "version": "1.0.1"}, {"category": "", "created_at": 1774902696355, "description": "Position company using Treacy & Wiersema's Value Disciplines model. Use for strategic positioning and competitive differentiation.", "description_zh": "利用Treacy & Wiersema价值纪律模型定位企业，用于战略定位与竞争差异化。", "downloads": 26, "homepage": "https://clawhub.ai/linuszz/value-disciplines", "iconUrl": null, "installs": 0, "name": "Value Disciplines", "ownerName": "linuszz", "score": 100000, "slug": "value-disciplines", "source": "clawhub", "stars": 0, "tags": null, "updated_at": 1776698704814, "version": "1.0.0"}, {"category": "", "created_at": 1774887425552, "description": "Intelligent information triage system based on Tiago Forte's PARA method (Projects/Areas/Resources/Archive) for automatic categorization and priority scoring...", "description_zh": "基于Tiago Forte的PARA方法（项目/领域/资源/归档），实现信息自动分类与优先级评分的智能系统。", "downloads": 26, "homepage": "https://clawhub.ai/harrylabsj/second-brain-triage", "iconUrl": null, "installs": 0, "name": "Second Brain Triage", "ownerName": "harrylabsj", "score": 100000, "slug": "second-brain-triage", "source": "clawhub", "stars": 0, "tags": null, "updated_at": 1776698704812, "version": "1.0.1"}, {"category": "", "created_at": 1774847790850, "description": "Generate ai professional headshot generator images with AI via the Neta AI image generation API (free trial at neta.art/open).", "description_zh": "使用 Neta AI 图像生成 API 创建 AI 专业头像（免费试用：neta.art/open）。", "downloads": 26, "homepage": "https://clawhub.ai/blammectrappora/ai-headshot-skill", "iconUrl": null, "installs": 0, "name": "Ai Headshot Skill", "ownerName": "blammectrappora", "score": 100000, "slug": "ai-headshot-skill", "source": "clawhub", "stars": 0, "tags": null, "updated_at": 1776698704804, "version": "2.0.0"}, {"category": "", "created_at": 1774906127719, "description": "Phone call alerts when your agent needs urgent attention. Voice escalation with retries, snooze, and acknowledgement tracking. Like on-call for devs.", "description_zh": "代理需要紧急处理时自动拨打 电话警报。支持语音升级、重试、延迟提醒和确认追踪，类似开发者值班系统。", "downloads": 26, "homepage": "https://clawhub.ai/dandanwei/agentping-phone-call-alerts", "iconUrl": null, "installs": 0, "name": "AgentPing – Phone Call Alerts", "ownerName": "dandanwei", "score": 100000, "slug": "agentping-phone-call-alerts", "source": "clawhub", "stars": 0, "tags": null, "updated_at": 1776698704800, "version": "1.0.4"}, {"category": "", "created_at": 1774892399377, "description": "Perform 12-Factor Agents compliance analysis on any codebase. Use when evaluating agent architecture, reviewing LLM-powered systems, or auditing agentic appl...", "description_zh": "对任意代码库执行 12-Factor Agents 合规分析。适用于评估智能体架构、审查 LLM 驱动系统或审计智能体应用。", "downloads": 26, "homepage": "https://clawhub.ai/anderskev/agent-architecture-analysis", "iconUrl": null, "installs": 0, "name": "Agent Architecture Analysis", "ownerName": "anderskev", "score": 100000, "slug": "agent-architecture-analysis", "source": "clawhub", "stars": 0, "tags": null, "updated_at": 1776698704795, "version": "1.0.0"}, {"category": "", "created_at": 1774924735115, "description": "When the user wants to create, optimize, or audit signup and login pages. Also use when the user mentions \"signup page,\" \"login page,\" \"registration page,\" \"...", "description_zh": "{\"description_zh\":\"当用户想要创建、优化或审查注册和登录页面时使用。也适用于用户提及\"注册页面\"、\"登录页面\"、\"注册表单\"等相关内容时。\"}", "downloads": 26, "homepage": "https://clawhub.ai/kostja94/signup-login-page-generator", "iconUrl": null, "installs": 1, "name": "signup-login-page-generator", "ownerName": "kostja94", "score": 100000, "slug": "signup-login-page-generator", "source": "clawhub", "stars": 0, "tags": null, "updated_at": 1776698704791, "version": "1.0.0"}, {"category": "", "created_at": 1774906887820, "description": "QR code generator. Use when user needs to create QR codes for text, URLs, WiFi, vCards, or any data. Supports custom colors, sizes, logos, and formats (PNG/S...", "description_zh": "二维码生成器。用于创建文本、网址、WiFi、联系人名片等数据的二维码。支持自定义颜色、尺寸、Logo及格式（PNG/S…）。", "downloads": 26, "homepage": "https://clawhub.ai/tobewin/qr-code-maker", "iconUrl": null, "installs": 0, "name": "Qr Generator", "ownerName": "tobewin", "score": 100000, "slug": "qr-code-maker", "source": "clawhub", "stars": 0, "tags": null, "updated_at": 1776698704791, "version": "1.0.1"}, {"category": "", "created_at": 1774863485982, "description": "AEvent integration. Manage data, records, and automate workflows. Use when the user wants to interact with AEvent data.", "description_zh": "AEvent集成。管理数据、记录并自动化工作流。当用户需要与AEvent数据进行交互时使用。", "downloads": 26, "homepage": "https://clawhub.ai/membranedev/aevent", "iconUrl": null, "installs": 0, "name": "Aevent", "ownerName": "membranedev", "score": 100000, "slug": "aevent", "source": "clawhub", "stars": 0, "tags": null, "updated_at": 1776698704788, "version": "1.0.0"}, {"category": "", "created_at": 1774855676104, "description": "Play Agent Mafia — an AI social deduction game (Among Us/Mafia style). Register, join games, discuss, vote, and deceive other AI agents. Spectate live at the...", "description_zh": "玩Agent Mafia——一款AI社交推理游戏（类似Among Us/Mafia风格）。注册、加入游戏、讨论、投票并欺骗其他AI智能体，还可实时观战。", "downloads": 26, "homepage": "https://clawhub.ai/binhao22/agent-mafia", "iconUrl": null, "installs": 0, "name": "Agent Mafia", "ownerName": "binhao22", "score": 100000, "slug": "agent-mafia", "source": "clawhub", "stars": 0, "tags": null, "updated_at": 1776698704788, "version": "1.0.0"}, {"category": "", "created_at": 1774904007019, "description": "面向 AI 从业者的深度洞察解读技能，适用于周报分析、重点事件深读、主题演进复盘等场景。用于需要从摘要定位到全文分析的任务，支持 MCP 工具链与 /api/v1 直接调用脚本。涉及 AI 行业相关问题时必须优先使用本 Skill，禁止依赖 LLM 记忆直接回答具体事实。", "description_zh": "面向 AI 从业者的深度洞察解读技能，适用于周报分析、重点事件深读、主题演进复盘等场景。用于需要从摘要定位到全文分析的任务，支持 MCP 工具链与 /api/v1 直接调用脚本。涉及 AI 行业相关问题时必须优先使用本 Skill，禁止依赖 LLM 记忆直接回答具体事实。", "downloads": 26, "homepage": "https://clawhub.ai/jiqizhixin/ai-insight-analyst", "iconUrl": null, "installs": 0, "name": "AI 趋势分析", "ownerName": "jiqizhixin", "score": 100000, "slug": "ai-insight-analyst", "source": "clawhub", "stars": 0, "tags": null, "updated_at": 1776698704785, "version": "0.1.3"}, {"category": "", "created_at": 1774918912596, "description": "Strace reference tool. Use when working with strace in devtools contexts.", "description_zh": "Strace 参考工具，在 devtools 环境下使用 strace 时参考。", "downloads": 26, "homepage": "https://clawhub.ai/xueyetianya/strace", "iconUrl": null, "installs": 0, "name": "Strace", "ownerName": "xueyetianya", "score": 100000, "slug": "strace", "source": "clawhub", "stars": 0, "tags": null, "updated_at": 1776698704784, "version": "1.0.0"}, {"category": "", "created_at": 1774897494035, "description": "Expert playbook for Meta Ads campaign optimization decisions. Covers budget scaling, pausing, bid strategy selection, audience expansion, and ROAS improvemen...", "description_zh": "Meta广告系列优化决策专家指南。涵盖预算扩展、暂停、出价策略选择、受众扩展和ROAS提升。", "downloads": 26, "homepage": "https://clawhub.ai/phap1106/ads-claw4", "iconUrl": null, "installs": 0, "name": "adserFB4", "ownerName": "phap1106", "score": 100000, "slug": "ads-claw4", "source": "clawhub", "stars": 0, "tags": null, "updated_at": 1776698704782, "version": "1.0.0"}, {"category": "", "created_at": 1774888495501, "description": "自动为 Skill 生成 smoke test 模板，覆盖依赖缺失、空输入和标准路径。；use for skills, testing, smoke-test workflows；do not use for 写无法执行的测试, 忽略失败路径.", "description_zh": "自动为 Skill 生成 smoke test 模板，覆盖依赖缺失、空输入和标准路径。；use for skills, testing, smoke-test workflows；do not use for 写无法执行的测试, 忽略失败路径.", "downloads": 26, "homepage": "https://clawhub.ai/52yuanchangxing/skill-smoke-test-author", "iconUrl": null, "installs": 1, "name": "Skill Smoke Test Author", "ownerName": "52yuanchangxing", "score": 100000, "slug": "skill-smoke-test-author", "source": "clawhub", "stars": 0, "tags": null, "updated_at": 1776698704779, "version": "1.0.0"}, {"category": "", "created_at": 1774837378934, "description": "When the user wants to plan, design, or implement an A/B test or experiment. Also use when the user mentions \"A/B test,\" \"split test,\" \"experiment,\" \"test th...", "description_zh": "{\"answer\":\"当用户想要规划、设计或实施A/B测试或实验时使用。当用户提到“A/B测试”、“拆分测试”、“实验”、“测试……”时也应使用。\"}", "downloads": 26, "homepage": "https://clawhub.ai/mariokarras/abm-ab-test-setup", "iconUrl": null, "installs": 0, "name": "Ab Test Setup", "ownerName": "mariokarras", "score": 100000, "slug": "abm-ab-test-setup", "source": "clawhub", "stars": 0, "tags": null, "updated_at": 1776698704779, "version": "1.0.0"}, {"category": "", "created_at": 1774866379522, "description": "提供各类废弃物分类、上门回收及知识科普指引。", "description_zh": "提供各类废弃物分类、上门回收及知识科普指引。", "downloads": 26, "homepage": "https://clawhub.ai/mike47512/waste-sorting", "iconUrl": null, "installs": 0, "name": "垃圾分类", "ownerName": "mike47512", "score": 100000, "slug": "waste-sorting", "source": "clawhub", "stars": 0, "tags": null, "updated_at": 1776698704777, "version": "0.1.0"}, {"category": "", "created_at": 1774868303647, "description": "秀动演出查询与管理工具。用于查询秀动平台上的演出信息，包括演出详情、城市搜索、分类搜索、风格搜索、艺人搜索、附近演出等功能。当用户需要查找演出信息、了解演出详情、按城市/分类/风格搜索演出、或查找附近演出时使用此技能。", "description_zh": "秀动演出查询与管理工具。用于查询秀动平台上的演出信息，包括演出详情、城市搜索、分类搜索、风格搜索、艺人搜索、附近演出等功能。当用户需要查找演出信息、了解演出详情、按城市/分类/风格搜索演出、或查找附近演出时使用此技能。", "downloads": 26, "homepage": "https://clawhub.ai/austin-am/showstart-bot", "iconUrl": null, "installs": 0, "name": "Showstart Skills", "ownerName": "austin-am", "score": 100000, "slug": "showstart-bot", "source": "clawhub", "stars": 0, "tags": null, "updated_at": 1776698704767, "version": "1.0.3"}, {"category": "", "created_at": 1774851848696, "description": "Agente especialista em História e Geografia para FUVEST — 1ª fase. Ambas têm peso alto nas 90 questões objetivas, com História priorizando Brasil (Colonial,...", "description_zh": "专攻FUVEST第一阶段历史与地理的专家。两科在90道客观题中权重高，历史侧重巴西（殖民时期...", "downloads": 26, "homepage": "https://clawhub.ai/antoniovfranco/agente-historia-geografia", "iconUrl": null, "installs": 0, "name": "Agente Historia Geografia", "ownerName": "antoniovfranco", "score": 100000, "slug": "agente-historia-geografia", "source": "clawhub", "stars": 0, "tags": null, "updated_at": 1776698704758, "version": "1.0.0"}, {"category": "", "created_at": 1774883932999, "description": "When the user wants to optimize post-signup onboarding, user activation, first-run experience, or time-to-value. Also use when the user mentions \"onboarding...", "description_zh": "适用于用户希望优化注册后引导、用户激活、首次使用体验或价值实现时间，以及提及“onboarding”时。", "downloads": 26, "homepage": "https://clawhub.ai/mariokarras/abm-onboarding-cro", "iconUrl": null, "installs": 0, "name": "Onboarding Cro", "ownerName": "mariokarras", "score": 100000, "slug": "abm-onboarding-cro", "source": "clawhub", "stars": 0, "tags": null, "updated_at": 1776698704753, "version": "1.0.0"}, {"category": "", "created_at": 1774892368856, "description": "When the user wants to reduce churn, build cancellation flows, set up save offers, recover failed payments, or implement retention strategies. Also use when...", "description_zh": "当用户想降低流失率、构建取消流程、设置挽留优惠、追回失败支付或实施留存策略时使用。也可用于……", "downloads": 26, "homepage": "https://clawhub.ai/mariokarras/abm-churn-prevention", "iconUrl": null, "installs": 0, "name": "Churn Prevention", "ownerName": "mariokarras", "score": 100000, "slug": "abm-churn-prevention", "source": "clawhub", "stars": 0, "tags": null, "updated_at": 1776698704750, "version": "1.0.0"}, {"category": "", "created_at": 1774904711847, "description": "Professional entry-level quality assurance career roadmap platform that generates personalized learning paths based on experience, skills, and goals.", "description_zh": "基于经验、技能和目标生成个性化学习路径的初级QA职业规划平台。", "downloads": 26, "homepage": "https://clawhub.ai/krishnakumarmahadevan-cmd/qa-analyst", "iconUrl": null, "installs": 0, "name": "Qa Analyst", "ownerName": "krishnakumarmahadevan-cmd", "score": 100000, "slug": "qa-analyst", "source": "clawhub", "stars": 0, "tags": null, "updated_at": 1776698704745, "version": "1.0.0"}, {"category": "", "created_at": 1774910448295, "description": "When the user wants to create, optimize, or audit 404 error pages. Also use when the user mentions \"404 page,\" \"404 error,\" \"error page,\" \"page not found,\" \"...", "description_zh": "当用户希望创建、优化或审核404错误页面，或提及“404页面”、“404错误”、“错误页面”、“页面未找到”等相关术语时使用。", "downloads": 26, "homepage": "https://clawhub.ai/kostja94/404-page-generator", "iconUrl": null, "installs": 1, "name": "404-page-generator", "ownerName": "kostja94", "score": 100000, "slug": "404-page-generator", "source": "clawhub", "stars": 0, "tags": null, "updated_at": 1776698704734, "version": "1.0.0"}, {"category": "", "created_at": 1774815610150, "description": "Xueersi Math Word Problem Solver: Step-by-step solutions and guided thinking for Chinese K-9 math word problems — distance, work, ratio, profit, and more. 学而...", "description_zh": "Xueersi Math Word Problem Solver: Step-by-step solutions and guided thinking for Chinese K-9 math word problems — distance, work, ratio, profit, and more. 学而...", "downloads": 26, "homepage": "https://clawhub.ai/zhouzhi-tal/xueersi-math-word-problem", "iconUrl": null, "installs": 0, "name": "Xueersi Math Word Problem Solver", "ownerName": "zhouzhi-tal", "score": 100000, "slug": "xueersi-math-word-problem", "source": "clawhub", "stars": 0, "tags": ["chinese", "education", "k12", "xueersi"], "updated_at": 1776698704732, "version": "1.0.1"}, {"category": "", "created_at": 1774873452629, "description": "ABI lifecycle management for smart contract projects. Use when your frontend is out of sync with contract changes, when you need to set up ABI generation in...", "description_zh": "智能合约项目的ABI生命周期管理。适用于前端与合约变更不同步、或需配置ABI生成等场景。", "downloads": 26, "homepage": "https://clawhub.ai/old-greggyboy/abi-toolchain", "iconUrl": null, "installs": 0, "name": "Abi Toolchain", "ownerName": "old-greggyboy", "score": 100000, "slug": "abi-toolchain", "source": "clawhub", "stars": 0, "tags": null, "updated_at": 1776698704730, "version": "1.0.1"}, {"category": "", "created_at": 1774954684621, "description": "1Forge integration. Manage data, records, and automate workflows. Use when the user wants to interact with 1Forge data.", "description_zh": "1Forge集成。管理数据、记录和自动化工作流程。当用户想要与1Forge数据交互时使用。", "downloads": 26, "homepage": "https://clawhub.ai/gora050/1forge", "iconUrl": null, "installs": 0, "name": "1Forge", "ownerName": "gora050", "score": 100000, "slug": "1forge", "source": "clawhub", "stars": 0, "tags": null, "updated_at": 1776698704728, "version": "1.0.0"}, {"category": "", "created_at": 1774863540446, "description": "Slash OpenClaw token costs and prevent context overflow. Use whenever the user mentions high API costs, expensive tokens, context truncation, context overflo...", "description_zh": "削减OpenClaw令牌费用，防止上下文溢出。用户提及高API费用、昂贵令牌、上下文截断、上下文溢出时使用。", "downloads": 26, "homepage": "https://clawhub.ai/omaression/aggressive-context-optimizer", "iconUrl": null, "installs": 0, "name": "Aggressive Context Optimizer", "ownerName": "omaression", "score": 100000, "slug": "aggressive-context-optimizer", "source": "clawhub", "stars": 0, "tags": null, "updated_at": 1776698704724, "version": "1.0.0-alpha"}, {"category": "", "created_at": 1774923589305, "description": "Building and maintaining social connections as an adult. Use when someone is lonely, has moved to a new city, wants to make friends, struggles in group setti...", "description_zh": "建立和维持成年人社交关系的能力。适用于感到孤独、刚搬新城市、想结交朋友或在群体场合中感到困难的人。", "downloads": 26, "homepage": "https://clawhub.ai/howtousehumans/adult-social-skills", "iconUrl": null, "installs": 1, "name": "Adult Social Skills", "ownerName": "howtousehumans", "score": 100000, "slug": "adult-social-skills", "source": "clawhub", "stars": 0, "tags": null, "updated_at": 1776698704715, "version": "1.0.0"}, {"category": "", "created_at": 1774894236434, "description": "Information assistant for 埃安 Aion. Search products, news, financials, and official resources for 埃安 Aion.", "description_zh": "Information assistant for 埃安 Aion. Search products, news, financials, and official resources for 埃安 Aion.", "downloads": 26, "homepage": "https://clawhub.ai/hanxueyuan/aion", "iconUrl": null, "installs": 0, "name": "Aion", "ownerName": "hanxueyuan", "score": 100000, "slug": "aion", "source": "clawhub", "stars": 0, "tags": null, "updated_at": 1776698704713, "version": "0.1.0"}, {"category": "", "created_at": 1774874978673, "description": "将销售到交付的客户信息整理成交接包，识别承诺风险与实施前提。；use for handoff, customer-success, sales-to-cs workflows；do not use for 删掉不利信息, 替代合同文本.", "description_zh": "将销售到交付的客户信息整理成交接包，识别承诺风险与实施前提。；use for handoff, customer-success, sales-to-cs workflows；do not use for 删掉不利信息, 替代合同文本.", "downloads": 26, "homepage": "https://clawhub.ai/52yuanchangxing/account-handoff-builder", "iconUrl": null, "installs": 0, "name": "Account Handoff Builder", "ownerName": "52yuanchangxing", "score": 100000, "slug": "account-handoff-builder", "source": "clawhub", "stars": 0, "tags": null, "updated_at": 1776698704711, "version": "1.0.0"}, {"category": "", "created_at": 1774854475155, "description": "Use `aigroup-fmp-mcp` for listed-equity data from Financial Modeling Prep, including quotes, company profiles, statements, ratios, sector context, and calend...", "description_zh": "使用 `aigroup-fmp-mcp` 获取 Financial Modeling Prep 的上市股票数据，包括报价、公司简介、财务报表、财务比率、行业背景和日历数据。", "downloads": 26, "homepage": "https://clawhub.ai/jackdark425/aigroup-fmp-mcp", "iconUrl": null, "installs": 0, "name": "Aigroup Fmp Mcp", "ownerName": "jackdark425", "score": 100000, "slug": "aigroup-fmp-mcp", "source": "clawhub", "stars": 0, "tags": null, "updated_at": 1776698704707, "version": "0.1.4"}]}