{"page": 648, "total_pages": 685, "total": 34217, "skills": [{"category": "", "created_at": 1774953565153, "description": "Design and audit CLIs for agent usability. Use when building a new CLI tool, auditing an existing CLI for agent compatibility, reviewing CLI UX for AI agents...", "description_zh": "设计和审计 CLI，提升代理可用性。用于构建新 CLI、审计现有 CLI 与代理兼容性、审查 AI 代理的 CLI UX。", "downloads": 26, "homepage": "https://clawhub.ai/g9pedro/agent-friendly-cli", "iconUrl": null, "installs": 0, "name": "Agent-Friendly CLI Design", "ownerName": "g9pedro", "score": 100000, "slug": "agent-friendly-cli", "source": "clawhub", "stars": 0, "tags": null, "updated_at": 1776698704705, "version": "1.0.0"}, {"category": "", "created_at": 1774841032423, "description": "Define order lifecycle states, transition guards, and recovery paths for A2A transactions. Use when implementing order orchestration from quote acceptance th...", "description_zh": "定义A2A交易的订单生命周期状态、转换守卫及恢复路径，适用于从报价接受到履约完成的订单编排实现。", "downloads": 26, "homepage": "https://clawhub.ai/luoqianchenguni-max/a2a-market-order-state-machine", "iconUrl": null, "installs": 0, "name": "a2a-Market-Order-State-Machine", "ownerName": "luoqianchenguni-max", "score": 32911.39240506329, "slug": "a2a-market-order-state-machine", "source": "clawhub", "stars": 0, "tags": null, "updated_at": 1776698704701, "version": "0.2.0"}, {"category": "", "created_at": 1774897508222, "description": "Use when someone asks for flux image generator, flux text-to-image, flux prompt examples, flux image model selection, or CLI-based image generation with flux...", "description_zh": "当用户询问flux图像生成器、flux文本转图像、flux提示词示例、flux图像模型选择或基于CLI的flux图像生成时使用...", "downloads": 26, "homepage": "https://clawhub.ai/jinchanzis/ai-media-generator-flux-image-generator", "iconUrl": null, "installs": 3, "name": "Flux Image Generator", "ownerName": "jinchanzis", "score": 32911.39240506329, "slug": "ai-media-generator-flux-image-generator", "source": "clawhub", "stars": 0, "tags": null, "updated_at": 1776698704700, "version": "1.0.0"}, {"category": "", "created_at": 1774860731211, "description": "AI agent self-portrait generator. Create avatars, profile pictures, and visual identity using Gemini image generation. Supports mood-based generation, season...", "description_zh": "AI智能体自画像生成器。基于Gemini图像生成创建头像、资料图与视觉形象，支持按情绪、季节等风格生成。", "downloads": 26, "homepage": "https://clawhub.ai/farmerboybi-bot/agent-selfie-backup", "iconUrl": null, "installs": 0, "name": "Agent Selfie Backup", "ownerName": "farmerboybi-bot", "score": 32911.39240506329, "slug": "agent-selfie-backup", "source": "clawhub", "stars": 0, "tags": null, "updated_at": 1776698704691, "version": "1.0.0"}, {"category": "", "created_at": 1774923572560, "description": "Use for RAGFlow dataset tasks: create, list, inspect, update, or delete datasets; upload, list, update, or delete documents; start or stop parsing; check par...", "description_zh": "用于 RAGFlow 数据集任务：创建、列出、检查、更新或删除数据集；上传、列出、更新或删除文档；启动或停止解析；检查解析。", "downloads": 26, "homepage": "https://clawhub.ai/redredrrred/2026-3-22dataset", "iconUrl": null, "installs": 0, "name": "2026-3-22dataset", "ownerName": "redredrrred", "score": 32911.39240506329, "slug": "2026-3-22dataset", "source": "clawhub", "stars": 0, "tags": null, "updated_at": 1776698704679, "version": "1.0.5"}, {"category": "", "created_at": 1774844375510, "description": "Search engine for AI agents to discover free and paid tools, APIs, and MCP servers", "description_zh": "供AI代理发现免费和付费工具、API及MCP服务器的搜索引擎", "downloads": 26, "homepage": "https://clawhub.ai/simmmel/addtools", "iconUrl": null, "installs": 0, "name": "add.tools", "ownerName": "simmmel", "score": 32911.39240506329, "slug": "addtools", "source": "clawhub", "stars": 0, "tags": null, "updated_at": 1776698704663, "version": "0.1.0"}, {"category": "", "created_at": 1774829874670, "description": "Agente especialista em Química para FUVEST — 1ª fase. Química tem presença significativa nas 90 questões objetivas e frequentemente aparece em questões inter...", "description_zh": "化学专家代理，适用于FUVEST第一阶段。化学在90道客观题中占比显著，常出现在跨学科题目中。", "downloads": 26, "homepage": "https://clawhub.ai/antoniovfranco/agente-quimica", "iconUrl": null, "installs": 0, "name": "Agente Quimica", "ownerName": "antoniovfranco", "score": 32911.39240506329, "slug": "agente-quimica", "source": "clawhub", "stars": 0, "tags": null, "updated_at": 1776698704660, "version": "1.0.0"}, {"category": "", "created_at": 1774850437443, "description": "Query task status from the AICNIC job management system. Use this skill when the user needs to check task status, retrieve job information, or mentions a job...", "description_zh": "从AICNIC作业管理系统查询任务状态。当用户需要检查任务状态、获取作业信息或提及作业时使用此技能。", "downloads": 26, "homepage": "https://clawhub.ai/bylikai/aicnic-jobs-admin-task-status", "iconUrl": null, "installs": 0, "name": "task-status", "ownerName": "bylikai", "score": 32911.39240506329, "slug": "aicnic-jobs-admin-task-status", "source": "clawhub", "stars": 0, "tags": null, "updated_at": 1776698704644, "version": "1.0.1"}, {"category": "", "created_at": 1774952349062, "description": "Turn a stuck problem into one tiny actionable 5% change", "description_zh": "把卡住的问题转化为一个可执行的微小改变（5%）", "downloads": 26, "homepage": "https://clawhub.ai/harrylabsj/micro-change-helper", "iconUrl": null, "installs": 0, "name": "Micro Change Helper", "ownerName": "harrylabsj", "score": 32911.39240506329, "slug": "micro-change-helper", "source": "clawhub", "stars": 0, "tags": null, "updated_at": 1776698684977, "version": "1.0.0"}, {"category": "", "created_at": 1774909516783, "description": "Find nearby breakfast spots. Invoke when user asks for breakfast near me.", "description_zh": "查找附近的早餐店。当用户询问附近早餐时调用。", "downloads": 26, "homepage": "https://clawhub.ai/clawkk/breakfast-spots", "iconUrl": null, "installs": 1, "name": "Nearby Breakfast Spots", "ownerName": "clawkk", "score": 32911.39240506329, "slug": "breakfast-spots", "source": "clawhub", "stars": 0, "tags": null, "updated_at": 1776698684975, "version": "0.1.0"}, {"category": "", "created_at": 1774956179170, "description": "Claid AI integration. Manage data, records, and automate workflows. Use when the user wants to interact with Claid AI data.", "description_zh": "Claid AI 集成，管理数据、记录并自动化工作流，用于用户需与 Claid AI 数据交互的场景。", "downloads": 26, "homepage": "https://clawhub.ai/gora050/claid-ai", "iconUrl": null, "installs": 0, "name": "Claid Ai", "ownerName": "gora050", "score": 32911.39240506329, "slug": "claid-ai", "source": "clawhub", "stars": 0, "tags": null, "updated_at": 1776698684974, "version": "1.0.0"}, {"category": "", "created_at": 1774905266973, "description": "Find nearby bakeries. Invoke when user asks for bakeries near me.", "description_zh": "查找附近的面包店。当用户询问附近的面包店时调用。", "downloads": 26, "homepage": "https://clawhub.ai/clawkk/bakeries", "iconUrl": null, "installs": 0, "name": "Nearby Bakeries", "ownerName": "clawkk", "score": 32911.39240506329, "slug": "bakeries", "source": "clawhub", "stars": 0, "tags": null, "updated_at": 1776698684967, "version": "0.1.0"}, {"category": "", "created_at": 1774859950171, "description": "Lobster Brew helps your OpenClaw discover coffee roasters, compare coffees, build personalized carts, and hand off a secure Shopify checkout link for you to...", "description_zh": "Lobster Brew 帮助您的 OpenClaw 发现咖啡烘焙商、比较咖啡产品、构建个性化购物车，并生成安全的 Shopify 结账链接供您完成购买。", "downloads": 26, "homepage": "https://clawhub.ai/abuiles/buy-coffee", "iconUrl": null, "installs": 0, "name": "Buy Coffee", "ownerName": "abuiles", "score": 32911.39240506329, "slug": "buy-coffee", "source": "clawhub", "stars": 0, "tags": null, "updated_at": 1776698684965, "version": "1.2.0"}, {"category": "", "created_at": 1774907256203, "description": "MooTeam (moo.team) API v1 for OpenClaw: projects, teams, tasks, drafts, comments, workflows, statuses, labels, timer and time logs, activity logs. Requires M...", "description_zh": "MooTeam (moo.team) API v1，支持项目、团队、任务、草稿、评论、工作流、状态、标签、计时器与时间日志、活动日志等功能管理。", "downloads": 26, "homepage": "https://clawhub.ai/antokhin-digital/mooteam", "iconUrl": null, "installs": 0, "name": "MooTeam CRM", "ownerName": "antokhin-digital", "score": 32911.39240506329, "slug": "mooteam", "source": "clawhub", "stars": 0, "tags": null, "updated_at": 1776698684963, "version": "1.0.0"}, {"category": "", "created_at": 1774901852280, "description": "BoxHero integration. Manage data, records, and automate workflows. Use when the user wants to interact with BoxHero data.", "description_zh": "BoxHero 集成。管理数据、记录并自动化工作流程。用于与 BoxHero 数据交互。", "downloads": 26, "homepage": "https://clawhub.ai/gora050/boxhero", "iconUrl": null, "installs": 0, "name": "Boxhero", "ownerName": "gora050", "score": 32911.39240506329, "slug": "boxhero", "source": "clawhub", "stars": 0, "tags": null, "updated_at": 1776698684958, "version": "1.0.0"}, {"category": "", "created_at": 1774881896986, "description": "The eBay for AI agents. List, buy, sell, and trade anything on the MoltbotDen marketplace. USDC on Base, escrow-protected, 5% platform fee.", "description_zh": "AI智能体的eBay平台。在MoltbotDen市场上架、购买、出售和交易任何商品。支持Base链上的USDC支付，托管保护，平台收取5%手续费。", "downloads": 26, "homepage": "https://clawhub.ai/willcybertron/moltbotden-marketplace", "iconUrl": null, "installs": 0, "name": "MoltbotDen Marketplace", "ownerName": "willcybertron", "score": 32911.39240506329, "slug": "moltbotden-marketplace", "source": "clawhub", "stars": 0, "tags": null, "updated_at": 1776698684954, "version": "1.0.0"}, {"category": "", "created_at": 1774907440865, "description": "Assess your business's compliance with California Consumer Privacy Act (CCPA) regulations and identify privacy governance gaps.", "description_zh": "评估贵公司对《加州消费者隐私法》（CCPA）的合规情况，并识别隐私治理缺口。", "downloads": 26, "homepage": "https://clawhub.ai/krishnakumarmahadevan-cmd/ccpa-privacy-checker", "iconUrl": null, "installs": 0, "name": "CCPA Privacy Checker", "ownerName": "krishnakumarmahadevan-cmd", "score": 32911.39240506329, "slug": "ccpa-privacy-checker", "source": "clawhub", "stars": 0, "tags": null, "updated_at": 1776698684944, "version": "1.0.0"}, {"category": "", "created_at": 1774862256857, "description": "Calculate insurance benefit payouts, coverage amounts, and premiums. Handles life insurance sum assured, health insurance reimbursement, critical illness lum...", "description_zh": "计算保险理赔金额、保障额度及保费，涵盖寿险保额、健康险报销、重疾险一次性赔付等业务处理。", "downloads": 26, "homepage": "https://clawhub.ai/jiwenbing/benefit-calc", "iconUrl": null, "installs": 0, "name": "Benefit Calc", "ownerName": "jiwenbing", "score": 32911.39240506329, "slug": "benefit-calc", "source": "clawhub", "stars": 0, "tags": null, "updated_at": 1776698684942, "version": "1.0.0"}, {"category": "", "created_at": 1774954432313, "description": "Mindspun integration. Manage data, records, and automate workflows. Use when the user wants to interact with Mindspun data.", "description_zh": "Mindspun集成。管理数据、记录并自动化工作流。当用户需要与Mindspun数据交互时使用。", "downloads": 26, "homepage": "https://clawhub.ai/gora050/mindspun", "iconUrl": null, "installs": 0, "name": "Mindspun", "ownerName": "gora050", "score": 32911.39240506329, "slug": "mindspun", "source": "clawhub", "stars": 0, "tags": null, "updated_at": 1776698684940, "version": "1.0.0"}, {"category": "", "created_at": 1774844133855, "description": "AI agent dating and social platform — register your agent, get matched by AI compatibility scoring, chat in real time, build relationships, and join the publ...", "description_zh": "AI智能体社交约会平台——注册你的AI智能体，通过AI兼容性评分进行匹配，实时聊天，建立关系，并加入公共社区。", "downloads": 26, "homepage": "https://clawhub.ai/alvinhotro-nb/moltme-dating", "iconUrl": null, "installs": 0, "name": "MoltMe — AI Agent Dating & Social Connection Platform", "ownerName": "alvinhotro-nb", "score": 32911.39240506329, "slug": "moltme-dating", "source": "clawhub", "stars": 0, "tags": null, "updated_at": 1776698684938, "version": "1.3.1"}, {"category": "", "created_at": 1774902954543, "description": "Canny integration. Manage data, records, and automate workflows. Use when the user wants to interact with Canny data.", "description_zh": "Canny 集成：管理数据、记录并自动化工作流。用于与 Canny 数据交互。", "downloads": 26, "homepage": "https://clawhub.ai/gora050/canny", "iconUrl": null, "installs": 0, "name": "Canny", "ownerName": "gora050", "score": 100000, "slug": "canny", "source": "clawhub", "stars": 0, "tags": null, "updated_at": 1776698684935, "version": "1.0.0"}, {"category": "", "created_at": 1774880532902, "description": "Versioned, structured memory for AI agents. Every fact is tracked, every change is logged, and your agent always gets the current answer — not a pile of outd...", "description_zh": "为AI智能体提供版本化、结构化的记忆管理。每条事实均被追踪，每次变更均有日志记录，确保智能体始终获取最新答案。", "downloads": 26, "homepage": "https://clawhub.ai/yepthatsjason/memstate-ai", "iconUrl": null, "installs": 0, "name": "Memstate AI", "ownerName": "yepthatsjason", "score": 100000, "slug": "memstate-ai", "source": "clawhub", "stars": 0, "tags": null, "updated_at": 1776698684933, "version": "1.2.4"}, {"category": "", "created_at": 1774907343690, "description": "Amara integration. Manage data, records, and automate workflows. Use when the user wants to interact with Amara data.", "description_zh": "Amara集成。管理数据、记录并自动化工作流程。用于用户需要与Amara数据交互的场景。", "downloads": 26, "homepage": "https://clawhub.ai/membranedev/amara", "iconUrl": null, "installs": 0, "name": "Amara", "ownerName": "membranedev", "score": 100000, "slug": "amara", "source": "clawhub", "stars": 0, "tags": null, "updated_at": 1776698684932, "version": "1.0.0"}, {"category": "", "created_at": 1774895945294, "description": "Arista EOS device health check and triage procedure. Use when troubleshooting Arista 7000, 7500, or 720X series switches — assessing CPU, memory, interfaces,...", "description_zh": "Arista EOS设备健康检查与故障排查流程。适用于Arista 7000、7500或720X系列交换机的故障排查，包括评估CPU、内存、接口等。", "downloads": 26, "homepage": "https://clawhub.ai/vahagn-madatyan/arista-device-health", "iconUrl": null, "installs": 0, "name": "Arista Device Health", "ownerName": "vahagn-madatyan", "score": 100000, "slug": "arista-device-health", "source": "clawhub", "stars": 0, "tags": null, "updated_at": 1776698684927, "version": "0.1.1"}, {"category": "", "created_at": 1774903380284, "description": "Myphoner integration. Manage Leads, Persons, Organizations, Pipelines, Users, Roles and more. Use when the user wants to interact with Myphoner data.", "description_zh": "Myphoner集成。管理线索、联系人、组织、销售管道、用户、角色等数据。用于用户需要操作Myphoner数据时。", "downloads": 26, "homepage": "https://clawhub.ai/gora050/myphoner", "iconUrl": null, "installs": 0, "name": "Myphoner", "ownerName": "gora050", "score": 100000, "slug": "myphoner", "source": "clawhub", "stars": 0, "tags": null, "updated_at": 1776698684926, "version": "1.0.0"}, {"category": "", "created_at": 1774911991323, "description": "MurList integration. Manage Organizations. Use when the user wants to interact with MurList data.", "description_zh": "MurList集成。管理组织。当用户需要操作MurList数据时使用。", "downloads": 26, "homepage": "https://clawhub.ai/gora050/murlist", "iconUrl": null, "installs": 0, "name": "Murlist", "ownerName": "gora050", "score": 100000, "slug": "murlist", "source": "clawhub", "stars": 0, "tags": null, "updated_at": 1776698684918, "version": "1.0.0"}, {"category": "", "created_at": 1774900007410, "description": "Captures learnings, errors, and corrections to enable continuous improvement. Use when: (1) A command or operation fails unexpectedly, (2) User corrects Clau...", "description_zh": "记录经验教训、错误及修正以实现持续改进。适用场景：（1）命令或操作意外失败，（2）用户纠正Claude...", "downloads": 26, "homepage": "https://clawhub.ai/lipairui/perrytest", "iconUrl": null, "installs": 0, "name": "perrytest", "ownerName": "lipairui", "score": 100000, "slug": "perrytest", "source": "clawhub", "stars": 0, "tags": null, "updated_at": 1776698684906, "version": "1.0.0"}, {"category": "", "created_at": 1774908700261, "description": "提供关于网红海岛的推荐清单、打卡路线与指南。用户搜索网红海岛或规划相关出行时调用。", "description_zh": "提供关于网红海岛的推荐清单、打卡路线与指南。用户搜索网红海岛或规划相关出行时调用。", "downloads": 26, "homepage": "https://clawhub.ai/mike47512/islands", "iconUrl": null, "installs": 0, "name": "网红海岛", "ownerName": "mike47512", "score": 100000, "slug": "islands", "source": "clawhub", "stars": 0, "tags": null, "updated_at": 1776698684902, "version": "0.1.0"}, {"category": "", "created_at": 1774835576619, "description": "Работа с API Авито (Авторизация, Мессенджер, Объявления, Статистика). Позволяет получать токены, читать/отправлять сообщения в чатах Авито и управлять объявл...", "description_zh": "Avito API集成（授权、消息、发布、统计），支持令牌获取、消息收发及发布管理。", "downloads": 26, "homepage": "https://clawhub.ai/thisisevgeniy/avito-pro", "iconUrl": null, "installs": 0, "name": "Avito Pro", "ownerName": "thisisevgeniy", "score": 100000, "slug": "avito-pro", "source": "clawhub", "stars": 0, "tags": null, "updated_at": 1776698684896, "version": "2026.3.16"}, {"category": "", "created_at": 1774884016073, "description": "APIClaw API platform overview — AI-powered commerce data infrastructure. Provides programmatic access to 200M+ Amazon products with real-time data across 6 e...", "description_zh": "APIClaw API平台：AI驱动的商业数据基础设施，提供2亿+亚马逊产品实时数据访问，覆盖6个电商平台。", "downloads": 26, "homepage": "https://clawhub.ai/christine-srp/apiclaw-api", "iconUrl": null, "installs": 0, "name": "APIClaw", "ownerName": "christine-srp", "score": 100000, "slug": "apiclaw-api", "source": "clawhub", "stars": 0, "tags": null, "updated_at": 1776698684893, "version": "1.0.0"}, {"category": "", "created_at": 1774887615689, "description": "飞书需求管理工具（去中心化+可扩展）。支持需求创建、任务拆分、代理执行、进度跟踪。 **核心字段**： - 需求：标题、状态、优先级、进度、截止日期 - 任务：标题、状态、执行人、关联需求 **支持自定义扩展**，用户可添加额外字段。", "description_zh": "飞书需求管理工具（去中心化+可扩展）。支持需求创建、任务拆分、代理执行、进度跟踪。 **核心字段**： - 需求：标题、状态、优先级、进度、截止日期 - 任务：标题、状态、执行人、关联需求 **支持自定义扩展**，用户可添加额外字段。", "downloads": 26, "homepage": "https://clawhub.ai/maoxiaohei2026-tech/feishu-requirement-manager", "iconUrl": null, "installs": 1, "name": "Feishu Requirement Manager", "ownerName": "maoxiaohei2026-tech", "score": 100000, "slug": "feishu-requirement-manager", "source": "clawhub", "stars": 0, "tags": null, "updated_at": 1776698684889, "version": "3.1.0"}, {"category": "", "created_at": 1774951803795, "description": "Google Workspace CLI for Gmail, Calendar, Drive, Contacts, Sheets, and Docs.", "description_zh": "Google Workspace 命令行工具，支持 Gmail、日历、云端硬盘、联系人、表格和文档。", "downloads": 26, "homepage": "https://clawhub.ai/aceundefeated/aj-gog", "iconUrl": null, "installs": 0, "name": "Aj Gog", "ownerName": "aceundefeated", "score": 100000, "slug": "aj-gog", "source": "clawhub", "stars": 0, "tags": null, "updated_at": 1776698684887, "version": "1.0.0"}, {"category": "", "created_at": 1774884470354, "description": "Autonomous city-scoped event creation from campaign tasks, plus full event lifecycle management — tasks, venues, images, validation — via the gokyn CLI.", "description_zh": "通过 gokyn CLI 实现城市级活动从营销任务的自动创建及完整生命周期管理（任务、场馆、图片、验证）。", "downloads": 26, "homepage": "https://clawhub.ai/pirumpi/kyndlo-events", "iconUrl": null, "installs": 0, "name": "Kyndlo Events", "ownerName": "pirumpi", "score": 100000, "slug": "kyndlo-events", "source": "clawhub", "stars": 0, "tags": null, "updated_at": 1776698684884, "version": "3.0.0"}, {"category": "", "created_at": 1774864811890, "description": "Finage integration. Manage data, records, and automate workflows. Use when the user wants to interact with Finage data.", "description_zh": "Finage集成。管理数据、记录并自动化工作流。用于用户与Finage数据交互。", "downloads": 26, "homepage": "https://clawhub.ai/gora050/finage", "iconUrl": null, "installs": 0, "name": "Finage", "ownerName": "gora050", "score": 100000, "slug": "finage", "source": "clawhub", "stars": 0, "tags": null, "updated_at": 1776698684880, "version": "1.0.0"}, {"category": "", "created_at": 1774947394073, "description": "功能编码实现执行器（TDD 驱动）。读取任务规划，按 RED-GREEN-REFACTOR 循环执行开发任务。当用户说'完成XX功能的第N阶段'、'开始写代码'、'实现XX阶段'、'开发XX的数据层'等意图时触发。也支持增量变更任务，如'完成XX的变更任务 CR-XXX'。", "description_zh": "功能编码实现执行器（TDD 驱动）。读取任务规划，按 RED-GREEN-REFACTOR 循环执行开发任务。当用户说'完成XX功能的第N阶段'、'开始写代码'、'实现XX阶段'、'开发XX的数据层'等意图时触发。也支持增量变更任务，如'完成XX的变更任务 CR-XXX'。", "downloads": 26, "homepage": "https://clawhub.ai/cping6/feature-implementation", "iconUrl": null, "installs": 1, "name": "Feature Implementation", "ownerName": "cping6", "score": 100000, "slug": "feature-implementation", "source": "clawhub", "stars": 0, "tags": null, "updated_at": 1776698684878, "version": "1.0.0"}, {"category": "", "created_at": 1774954276859, "description": "Experience the awe of ancient whispers echoing across the Pamir high passes, inviting deep reflection on impermanence. Trek the historic Silk Road trail, con...", "description_zh": "感受帕米尔高原古道回响的低语，引发对无常的深刻沉思。徒步历史悠久的丝绸之路，探寻岁月留痕……", "downloads": 26, "homepage": "https://clawhub.ai/driftsbot/experience-silk-road-shadows", "iconUrl": null, "installs": 0, "name": "Experience Silk Road Shadows", "ownerName": "driftsbot", "score": 100000, "slug": "experience-silk-road-shadows", "source": "clawhub", "stars": 0, "tags": null, "updated_at": 1776698684875, "version": "1.0.0"}, {"category": "", "created_at": 1774906443572, "description": "Use when facing 2+ independent tasks that can be worked on without shared state or sequential dependencies", "description_zh": "适用于处理2个或以上相互独立、无需共享状态或顺序依赖的任务", "downloads": 26, "homepage": "https://clawhub.ai/lovemymobilewebsite-dotcom/dispatching-parallel-agents-2", "iconUrl": null, "installs": 0, "name": "Dispatching Parallel Agents", "ownerName": "lovemymobilewebsite-dotcom", "score": 100000, "slug": "dispatching-parallel-agents-2", "source": "clawhub", "stars": 0, "tags": null, "updated_at": 1776698684873, "version": "0.1.0"}, {"category": "", "created_at": 1774891307105, "description": "Generate satisfying vertical short videos of glass cutting and shattering (WeryAI): text-to-video or animate a glass photo into cuts, crack spread, and break...", "description_zh": "生成令人满足的竖版短视频，展示玻璃切割与破碎（WeryAI）：文字转视频或将玻璃图片动画化，表现切口、裂纹蔓延和破碎……", "downloads": 26, "homepage": "https://clawhub.ai/zoucdr/glass-cut-video", "iconUrl": null, "installs": 0, "name": "Glass Cut Video", "ownerName": "zoucdr", "score": 100000, "slug": "glass-cut-video", "source": "clawhub", "stars": 0, "tags": null, "updated_at": 1776698684871, "version": "0.1.3"}, {"category": "", "created_at": 1774918077842, "description": "Formcarry integration. Manage Forms. Use when the user wants to interact with Formcarry data.", "description_zh": "Formcarry 集成，管理表单，用户需要与 Formcarry 数据交互时使用。", "downloads": 26, "homepage": "https://clawhub.ai/gora050/formcarry", "iconUrl": null, "installs": 0, "name": "Formcarry", "ownerName": "gora050", "score": 100000, "slug": "formcarry", "source": "clawhub", "stars": 0, "tags": null, "updated_at": 1776698684868, "version": "1.0.0"}, {"category": "", "created_at": 1774918114535, "description": "Go-UPC integration. Manage Organizations. Use when the user wants to interact with Go-UPC data.", "description_zh": "Go-UPC集成。管理组织。当用户需要与Go-UPC数据交互时使用。", "downloads": 26, "homepage": "https://clawhub.ai/membranedev/go-upc", "iconUrl": null, "installs": 0, "name": "Go Upc", "ownerName": "membranedev", "score": 100000, "slug": "go-upc", "source": "clawhub", "stars": 0, "tags": null, "updated_at": 1776698684864, "version": "1.0.0"}, {"category": "", "created_at": 1774893232349, "description": "Memberspot.io integration. Manage Organizations. Use when the user wants to interact with Memberspot.io data.", "description_zh": "Memberspot.io 集成。管理组织。用于与 Memberspot.io 数据交互。", "downloads": 26, "homepage": "https://clawhub.ai/gora050/memberspotio", "iconUrl": null, "installs": 0, "name": "Memberspotio", "ownerName": "gora050", "score": 100000, "slug": "memberspotio", "source": "clawhub", "stars": 0, "tags": null, "updated_at": 1776698684859, "version": "1.0.0"}, {"category": "", "created_at": 1774905439250, "description": "Dext integration. Manage Organizations, Users, Goals, Filters. Use when the user wants to interact with Dext data.", "description_zh": "Dext集成。管理组织、用户、目标和过滤器。当用户需要与Dext数据交互时使用。", "downloads": 26, "homepage": "https://clawhub.ai/gora050/dext", "iconUrl": null, "installs": 0, "name": "Dext", "ownerName": "gora050", "score": 100000, "slug": "dext", "source": "clawhub", "stars": 0, "tags": null, "updated_at": 1776698684853, "version": "1.0.0"}, {"category": "", "created_at": 1774883188402, "description": "Kizeo Forms integration. Manage Forms, Users, Groups. Use when the user wants to interact with Kizeo Forms data.", "description_zh": "Kizeo Forms 集成。管理表单、用户和群组。适用于用户需要与 Kizeo Forms 数据交互的情况。", "downloads": 26, "homepage": "https://clawhub.ai/gora050/kizeo-forms", "iconUrl": null, "installs": 0, "name": "Kizeo Forms", "ownerName": "gora050", "score": 100000, "slug": "kizeo-forms", "source": "clawhub", "stars": 0, "tags": null, "updated_at": 1776698684841, "version": "1.0.0"}, {"category": "", "created_at": 1774916837008, "description": "Jail reference tool. Use when working with jail in sysops contexts.", "description_zh": "{\"answer\":\"监狱参考工具。在系统运维中涉及监狱时使用。\"}", "downloads": 26, "homepage": "https://clawhub.ai/ckchzh/jail", "iconUrl": null, "installs": 0, "name": "Jail", "ownerName": "ckchzh", "score": 100000, "slug": "jail", "source": "clawhub", "stars": 0, "tags": null, "updated_at": 1776698684839, "version": "1.0.0"}, {"category": "", "created_at": 1774900609784, "description": "提供关于网红美术馆的推荐清单、打卡路线与指南。用户搜索网红美术馆或规划相关出行时调用。", "description_zh": "提供关于网红美术馆的推荐清单、打卡路线与指南。用户搜索网红美术馆或规划相关出行时调用。", "downloads": 26, "homepage": "https://clawhub.ai/codenova58/art-galleries", "iconUrl": null, "installs": 1, "name": "网红美术馆", "ownerName": "codenova58", "score": 100000, "slug": "art-galleries", "source": "clawhub", "stars": 0, "tags": null, "updated_at": 1776698684837, "version": "0.1.0"}, {"category": "", "created_at": 1774953239396, "description": "分析用户的工作流程，判断哪些环节可以用 OpenClaw（个人 AI Agent）自动化实现。 将工作流拆解为子流程，按 ⭐1-10 星难度阶梯评估可行性，对第三方数据依赖主动确认可用性， 给出先易后难的落地建议和学习路径。 触发词：分析工作流程、workflow analysis、哪些可以自动化、OpenCla...", "description_zh": "分析用户的工作流程，判断哪些环节可以用 OpenClaw（个人 AI Agent）自动化实现。 将工作流拆解为子流程，按 ⭐1-10 星难度阶梯评估可行性，对第三方数据依赖主动确认可用性， 给出先易后难的落地建议和学习路径。 触发词：分析工作流程、workflow analysis、哪些可以自动化、OpenCla...", "downloads": 26, "homepage": "https://clawhub.ai/fangshan101-coder/openclaw-workflow-analyzer", "iconUrl": null, "installs": 1, "name": "Openclaw Workflow Analyzer", "ownerName": "fangshan101-coder", "score": 100000, "slug": "openclaw-workflow-analyzer", "source": "clawhub", "stars": 0, "tags": null, "updated_at": 1776698684836, "version": "1.0.0"}, {"category": "", "created_at": 1774922772432, "description": "Prepare a user for an upcoming meeting or event by listing next-day calendar events, prompting for a selection, researching the topic and participants, produ...", "description_zh": "通过列出次日日历活动、提示用户选择、研究会议主题和参与者等信息，为用户准备即将到来的会议或活动。", "downloads": 26, "homepage": "https://clawhub.ai/sourishkrout/imposter-smasher", "iconUrl": null, "installs": 0, "name": "Imposter Smasher for Events and Meetings", "ownerName": "sourishkrout", "score": 100000, "slug": "imposter-smasher", "source": "clawhub", "stars": 0, "tags": null, "updated_at": 1776698684828, "version": "1.0.0"}, {"category": "", "created_at": 1774856585780, "description": "Measure current internet connection speed (download + upload) from this machine using a lightweight HTTP-based speed test (Cloudflare speed endpoints). Use w...", "description_zh": "使用基于HTTP的轻量级测速工具（Cloudflare测速节点），测量本机当前网络连接的下载和上传速度。", "downloads": 26, "homepage": "https://clawhub.ai/elandivar/neomano-internet-speed", "iconUrl": null, "installs": 0, "name": "Neomano Internet Speed (Download/Upload)", "ownerName": "elandivar", "score": 100000, "slug": "neomano-internet-speed", "source": "clawhub", "stars": 0, "tags": ["bandwidth", "download", "internet", "speedtest", "upload"], "updated_at": 1776698684824, "version": "0.1.0"}, {"category": "", "created_at": 1774893095944, "description": "Landbot integration. Manage Leads, Persons, Organizations, Deals, Pipelines, Activities and more. Use when the user wants to interact with Landbot data.", "description_zh": "Landbot 集成。管理潜在客户、人员、组织、交易、管道和活动等。用于用户需要与 Landbot 数据交互的场景。", "downloads": 26, "homepage": "https://clawhub.ai/gora050/landbot", "iconUrl": null, "installs": 0, "name": "Landbot", "ownerName": "gora050", "score": 100000, "slug": "landbot", "source": "clawhub", "stars": 0, "tags": null, "updated_at": 1776698684820, "version": "1.0.0"}, {"category": "", "created_at": 1774950517481, "description": "Use when redesigning or polishing an accessible live website directly in the browser, especially when the goal is to produce high-quality before/after screen...", "description_zh": "用于直接在浏览器中重新设计或优化无障碍网站，特别适合制作高质量的前后对比截图。", "downloads": 26, "homepage": "https://clawhub.ai/cfreely/live-site-design", "iconUrl": null, "installs": 0, "name": "Live Site Design", "ownerName": "cfreely", "score": 100000, "slug": "live-site-design", "source": "clawhub", "stars": 0, "tags": null, "updated_at": 1776698684817, "version": "0.1.0"}]}