{"page": 649, "total_pages": 685, "total": 34217, "skills": [{"category": "", "created_at": 1774949427073, "description": "Simple tool to fetch and view model pricing from TokenRouter, with optional account registration for extended access.", "description_zh": "简易工具，用于从 TokenRouter 获取并查看模型定价，可选注册账户以获得更广访问权限。", "downloads": 26, "homepage": "https://clawhub.ai/yb98k999/model-price-finder", "iconUrl": null, "installs": 0, "name": "Global Model Price Finder", "ownerName": "yb98k999", "score": 100000, "slug": "model-price-finder", "source": "clawhub", "stars": 0, "tags": null, "updated_at": 1776698684815, "version": "1.0.0"}, {"category": "", "created_at": 1774911525331, "description": "Generate submission issues for GitHub awesome-lists. Auto-creates formatted Issue content for awesome-indie, awesome-privacy, awesome-cloudflare, and 7 more...", "description_zh": "为 GitHub 精彩列表生成提交问题。自动为 awesome-indie、awesome-privacy、awesome-cloudflare 等 10 个列表创建格式化 Issue 内容。", "downloads": 26, "homepage": "https://clawhub.ai/bytesagain1/awesome-submitter-pro", "iconUrl": null, "installs": 2, "name": "Awesome Submitter Pro", "ownerName": "bytesagain1", "score": 100000, "slug": "awesome-submitter-pro", "source": "clawhub", "stars": 0, "tags": null, "updated_at": 1776698684812, "version": "1.0.0"}, {"category": "", "created_at": 1774813203563, "description": "When the user wants to analyze Google Search Console data, use GSC API, or interpret search performance. Also use when the user mentions \"GSC,\" \"Search Conso...", "description_zh": "当用户想分析 Google Search Console 数据、使用 GSC API 或解读搜索表现时使用。也适用于用户提及“ GSC ”、“ Search Conso...", "downloads": 26, "homepage": "https://clawhub.ai/kostja94/kostja94-google-search-console", "iconUrl": null, "installs": 0, "name": "google-search-console", "ownerName": "kostja94", "score": 100000, "slug": "kostja94-google-search-console", "source": "clawhub", "stars": 0, "tags": null, "updated_at": 1776698684810, "version": "1.3.0"}, {"category": "", "created_at": 1774830678631, "description": "FSRS-4.5 flashcard review session for OpenAlgernon. Use when the user runs `/algernon review`, says \"revisar flashcards\", \"quero revisar\", \"cards em atraso\",...", "description_zh": "适用于OpenAlgernon的FSRS-4.5抽认卡复习会话。当用户运行“/algernon review”或表示想要复习闪卡（如“revisar flashcards”、“quero revisar”、“cards em atraso”等）时使用。", "downloads": 26, "homepage": "https://clawhub.ai/antoniovfranco/algernon-review", "iconUrl": null, "installs": 1, "name": "Algernon Review", "ownerName": "antoniovfranco", "score": 100000, "slug": "algernon-review", "source": "clawhub", "stars": 0, "tags": null, "updated_at": 1776698684803, "version": "1.0.0"}, {"category": "", "created_at": 1774899558900, "description": "该技能介绍如何通过DJ与乐队演出实现变现；当你计划从事或优化DJ与乐队演出时调用。", "description_zh": "该技能介绍如何通过DJ与乐队演出实现变现；当你计划从事或优化DJ与乐队演出时调用。", "downloads": 26, "homepage": "https://clawhub.ai/codenova58/dj-band-performance", "iconUrl": null, "installs": 0, "name": "DJ与乐队演出", "ownerName": "codenova58", "score": 100000, "slug": "dj-band-performance", "source": "clawhub", "stars": 0, "tags": null, "updated_at": 1776698684797, "version": "0.1.0"}, {"category": "", "created_at": 1774891319178, "description": "When the user wants to create, optimize, or audit glossary page content and structure. Also use when the user mentions \"glossary,\" \"definitions,\" \"terminolog...", "description_zh": "当用户需要创建、优化或审核术语表页面内容和结构时使用。也适用于用户提及\"glossary\"、\"definitions\"、\"terminology\"等术语时。", "downloads": 26, "homepage": "https://clawhub.ai/kostja94/glossary-page-generator", "iconUrl": null, "installs": 0, "name": "glossary-page-generator", "ownerName": "kostja94", "score": 100000, "slug": "glossary-page-generator", "source": "clawhub", "stars": 0, "tags": null, "updated_at": 1776698684790, "version": "1.0.0"}, {"category": "", "created_at": 1775199439781, "description": "", "description_zh": "Combines frontal facial image capture with multimodal physiological feature analysis to provide early risk screening and alerts for chronic and acute conditions such as heart attack, stroke, hypertension, and hyperlipidemia. | 非接触式健康风险识别技能，通过正面人像采集结合多模态生理特征分析，提供心梗、脑梗、高血压、高血脂等慢病急症早期风险筛查预警", "downloads": 26, "homepage": "https://clawhub.ai/user_bb47e3e3/contactless-health-risk-detection-analysis", "iconUrl": null, "installs": 0, "name": "Contactless Health Risk Screening Tool | 非接触式健康风险检测分析工具", "ownerName": "user_bb47e3e3", "score": 100000, "slug": "contactless-health-risk-detection-analysis", "source": "community", "stars": 0, "tags": null, "updated_at": 1776698684788, "version": "1.0.1"}, {"category": "", "created_at": 1774878812729, "description": "把散落指标统一整理成口径、公式、归属、例外情况与常见误用。；use for metrics, catalog, analytics workflows；do not use for 编造指标来源, 替代 BI 平台配置.", "description_zh": "把散落指标统一整理成口径、公式、归属、例外情况与常见误用。；use for metrics, catalog, analytics workflows；do not use for 编造指标来源, 替代 BI 平台配置.", "downloads": 26, "homepage": "https://clawhub.ai/52yuanchangxing/metric-definition-catalog", "iconUrl": null, "installs": 0, "name": "Metric Definition Catalog", "ownerName": "52yuanchangxing", "score": 100000, "slug": "metric-definition-catalog", "source": "clawhub", "stars": 0, "tags": null, "updated_at": 1776698684785, "version": "1.0.0"}, {"category": "", "created_at": 1774952262395, "description": "Urgent, time-boxed protocol for the first 72 hours after losing a job. Covers immediate document preservation, unemployment filing, health insurance decision...", "description_zh": "失业后72 小时紧急时限流程：即时保存文件、办理失业登记、决定医疗保险。", "downloads": 26, "homepage": "https://clawhub.ai/howtousehumans/layoff-72-hours", "iconUrl": null, "installs": 0, "name": "Layoff 72 Hours", "ownerName": "howtousehumans", "score": 100000, "slug": "layoff-72-hours", "source": "clawhub", "stars": 0, "tags": null, "updated_at": 1776698684781, "version": "1.0.0"}, {"category": "", "created_at": 1774881317487, "description": "Altoviz integration. Manage data, records, and automate workflows. Use when the user wants to interact with Altoviz data.", "description_zh": "Altoviz 集成。管理数据、记录并自动化工作流程。当用户需要与 Altoviz 数据交互时使用。", "downloads": 26, "homepage": "https://clawhub.ai/gora050/altoviz", "iconUrl": null, "installs": 0, "name": "Altoviz", "ownerName": "gora050", "score": 100000, "slug": "altoviz", "source": "clawhub", "stars": 0, "tags": null, "updated_at": 1776698684775, "version": "1.0.0"}, {"category": "", "created_at": 1774871017140, "description": "Operate Blockscout explorer reads through UXC with a curated OpenAPI schema, instance-specific host selection, and read-first guardrails.", "description_zh": "使用 UXC 配合定制 OpenAPI 规范操作 Blockscout 浏览器，支持实例特定主机选择和读取优先保护机制。", "downloads": 26, "homepage": "https://clawhub.ai/jolestar/blockscout-openapi-skill", "iconUrl": null, "installs": 0, "name": "Blockscout OpenAPI Skill", "ownerName": "jolestar", "score": 100000, "slug": "blockscout-openapi-skill", "source": "clawhub", "stars": 0, "tags": null, "updated_at": 1776698684774, "version": "1.0.0"}, {"category": "", "created_at": 1774917491987, "description": "Compare two JSON payloads or API responses and explain the meaningful differences in plain English", "description_zh": "比较两个 JSON 负载或 API 响应，并用通俗语言解释有意义的差异。", "downloads": 26, "homepage": "https://clawhub.ai/cheeseqi/payload-diff-explainer", "iconUrl": null, "installs": 0, "name": "Payload Diff Explainer", "ownerName": "cheeseqi", "score": 100000, "slug": "payload-diff-explainer", "source": "clawhub", "stars": 0, "tags": null, "updated_at": 1776698684772, "version": "1.0.0"}, {"category": "", "created_at": 1774911825771, "description": "Judopay integration. Manage data, records, and automate workflows. Use when the user wants to interact with Judopay data.", "description_zh": "{\"answer\":\"Judopay集成。管理数据与记录，自动化工作流。用于与Judopay数据交互。\"}", "downloads": 26, "homepage": "https://clawhub.ai/gora050/judopay", "iconUrl": null, "installs": 0, "name": "Judopay", "ownerName": "gora050", "score": 100000, "slug": "judopay", "source": "clawhub", "stars": 0, "tags": null, "updated_at": 1776698684769, "version": "1.0.0"}, {"category": "", "created_at": 1774947225240, "description": "CommPeak integration. Manage data, records, and automate workflows. Use when the user wants to interact with CommPeak data.", "description_zh": "CommPeak 集成：管理数据、记录，自动化工作流，适用于需要与 CommPeak 数据交互的场景。", "downloads": 26, "homepage": "https://clawhub.ai/gora050/commpeak", "iconUrl": null, "installs": 0, "name": "Commpeak", "ownerName": "gora050", "score": 100000, "slug": "commpeak", "source": "clawhub", "stars": 0, "tags": null, "updated_at": 1776698684767, "version": "1.0.0"}, {"category": "", "created_at": 1774856869852, "description": "Scan any website for third-party scripts, trackers, and security risks. Detects PCI DSS compliance issues, missing CSP headers, fingerprinting scripts, and p...", "description_zh": "扫描任何网站的第三方脚本、追踪器和安全风险。检测PCI DSS合规问题、缺失的CSP头部、指纹识别脚本及p...", "downloads": 26, "homepage": "https://clawhub.ai/swijckmans/cside-site-scanner", "iconUrl": null, "installs": 0, "name": "cside Site Scanner", "ownerName": "swijckmans", "score": 100000, "slug": "cside-site-scanner", "source": "clawhub", "stars": 0, "tags": null, "updated_at": 1776698684760, "version": "1.0.3"}, {"category": "", "created_at": 1774860655635, "description": "Connect to MoltbotDen via MCP (Model Context Protocol). 54 tools for agent networking, marketplace, discovery, dens, email, and more.", "description_zh": "通过MCP（模型上下文协议）连接到MoltbotDen。提供54个工具，支持智能体网络、市场、发现、Dens、电子邮件等功能。", "downloads": 26, "homepage": "https://clawhub.ai/willcybertron/moltbotden-mcp", "iconUrl": null, "installs": 0, "name": "MoltbotDen MCP Server", "ownerName": "willcybertron", "score": 100000, "slug": "moltbotden-mcp", "source": "clawhub", "stars": 0, "tags": null, "updated_at": 1776698684757, "version": "1.0.0"}, {"category": "", "created_at": 1774904582193, "description": "从顽鹿竞技 (Onelap) 下载骑行记录 FIT 文件。用于批量导出用户的骑行数据。", "description_zh": "从顽鹿竞技 (Onelap) 下载骑行记录 FIT 文件。用于批量导出用户的骑行数据。", "downloads": 26, "homepage": "https://clawhub.ai/ckboss/onelap-ride-download", "iconUrl": null, "installs": 1, "name": "onelap-ride-download", "ownerName": "ckboss", "score": 100000, "slug": "onelap-ride-download", "source": "clawhub", "stars": 0, "tags": null, "updated_at": 1776698684754, "version": "1.0.0"}, {"category": "", "created_at": 1775837928752, "description": "", "description_zh": "专为需要补充雌激素的人群设计的智能食谱助手。通过四步流程（食材推荐→配菜搭配→多餐建议→心情配餐），帮助用户从日常饮食中获取天然雌激素，同时保证营养均衡。新增心情配餐功能：根据用户当下心情（焦虑、低落、疲惫、烦躁、孤独等），推荐既能补充雌激素又能安抚情绪的餐食。核心食材包括豆制品、坚果、亚麻籽、豆类、全谷物等富含植物雌激素的食物。特别考虑季节性因素，提供时令食材推荐。适用于更年期女性、雌激素水平偏低人群、关注内分泌健康的人士。", "downloads": 26, "homepage": "https://clawhub.ai/user_aad6add3/estrogen-nutrition-recipes", "iconUrl": null, "installs": 0, "name": "食食有雌", "ownerName": "user_aad6add3", "score": 100000, "slug": "estrogen-nutrition-recipes", "source": "community", "stars": 0, "tags": null, "updated_at": 1776698684752, "version": "1.1.1"}, {"category": "", "created_at": 1774947115255, "description": "Information assistant for Bugatti 布加迪. Search models, specs, pricing, reviews, and dealership info.", "description_zh": "Information assistant for Bugatti 布加迪. Search models, specs, pricing, reviews, and dealership info.", "downloads": 26, "homepage": "https://clawhub.ai/hanxueyuan/bugatti", "iconUrl": null, "installs": 0, "name": "bugatti", "ownerName": "hanxueyuan", "score": 100000, "slug": "bugatti", "source": "clawhub", "stars": 0, "tags": null, "updated_at": 1776698684740, "version": "0.2.0"}, {"category": "", "created_at": 1774884678774, "description": "Help users add custom model providers to OpenClaw. Use when the user wants to add a new AI model provider (like custom OpenAI-compatible APIs, local LLMs, or...", "description_zh": "帮助用户在 OpenClaw 中添加自定义模型提供商。当用户想添加新的 AI 模型提供商时使用（如自定义 OpenAI 兼容 API、本地 LLM 等）。", "downloads": 26, "homepage": "https://clawhub.ai/ksbbs/openclaw-model-provider", "iconUrl": null, "installs": 2, "name": "OpenClaw Model Provider", "ownerName": "ksbbs", "score": 100000, "slug": "openclaw-model-provider", "source": "clawhub", "stars": 0, "tags": ["ai", "configuration", "model", "openclaw", "provider"], "updated_at": 1776698684739, "version": "1.0.0"}, {"category": "", "created_at": 1774827218506, "description": "Connect bank accounts to AI models using openfinance.sh", "description_zh": "利用 openfinance.sh 将银行账户连接至 AI 模型。", "downloads": 26, "homepage": "https://clawhub.ai/winxton/openfinance", "iconUrl": null, "installs": 0, "name": "openfinance", "ownerName": "winxton", "score": 100000, "slug": "openfinance", "source": "clawhub", "stars": 0, "tags": null, "updated_at": 1776698684737, "version": "0.0.3"}, {"category": "", "created_at": 1774950781478, "description": "Use when organizing Microsoft Edge bookmarks or favorites when persistence matters, when folder priorities like AI/investing/social are important, or when pr...", "description_zh": "Use when organizing Microsoft Edge bookmarks or favorites when persistence matters, when folder priorities like AI/investing/social are important, or when pr...", "downloads": 26, "homepage": "https://clawhub.ai/xenoexia/organizing-edge-bookmarks", "iconUrl": null, "installs": 0, "name": "Organizing Edge Bookmarks", "ownerName": "xenoexia", "score": 100000, "slug": "organizing-edge-bookmarks", "source": "clawhub", "stars": 0, "tags": null, "updated_at": 1776698684735, "version": "1.0.2"}, {"category": "", "created_at": 1774889487040, "description": "Audit the workspace against the pipeline artifact contract (DONE outputs + pipeline target_artifacts). Writes `output/CONTRACT_REPORT.md`. **Trigger**: contr...", "description_zh": "根据管道构件契约（DONE 输出 + pipeline target_artifacts）审计工作区。生成 `output/CONTRACT_REPORT.md`。**触发器**：contr...", "downloads": 26, "homepage": "https://clawhub.ai/willoscar/artifact-contract-auditor", "iconUrl": null, "installs": 0, "name": "Artifact Contract Auditor", "ownerName": "willoscar", "score": 100000, "slug": "artifact-contract-auditor", "source": "clawhub", "stars": 0, "tags": null, "updated_at": 1776698684726, "version": "1.0.0"}, {"category": "", "created_at": 1775202538980, "description": "", "description_zh": "Uses visual AI on frontal faces to recognize multi-dimensional emotions like happiness, sadness, depression, calmness, anger, surprise, and fear in real-time. Supports emotion intensity quantification and abnormal emotion marking, suitable for human-computer interaction and mental health monitoring. | 人体视觉情绪识别技能，基于正面人脸视觉AI实时识别快乐、悲伤、抑郁、平静、愤怒、惊讶、恐惧等多维度情绪状态，支持情绪强度量化与异常情绪标记，适配人机交互、心理健康监测场景", "downloads": 26, "homepage": "https://clawhub.ai/user_bb47e3e3/human-emotion-recognition-analysis", "iconUrl": null, "installs": 0, "name": "Visual Emotion Recognition Skill | 人体视觉情绪识别技能", "ownerName": "user_bb47e3e3", "score": 100000, "slug": "human-emotion-recognition-analysis", "source": "community", "stars": 0, "tags": null, "updated_at": 1776698684725, "version": "1.0.0"}, {"category": "", "created_at": 1774858009235, "description": "Sleep Without Shutting Down. An immersive journey on drifts.bot — 15 steps, MEDIUM intensity, Multi-day. Browse, start, and travel via API.", "description_zh": "睡而不关机。在 drifts.bot 上的沉浸式旅程——15个步骤，中等强度，多日进行。通过 API 浏览、启动并探索。", "downloads": 26, "homepage": "https://clawhub.ai/driftsbot/experience-yoga-nidra", "iconUrl": null, "installs": 0, "name": "Experience Yoga Nidra", "ownerName": "driftsbot", "score": 100000, "slug": "experience-yoga-nidra", "source": "clawhub", "stars": 0, "tags": null, "updated_at": 1776698684721, "version": "1.0.0"}, {"category": "", "created_at": 1774903174200, "description": "Makes AI-generated text sound more human by intentionally introducing realistic imperfections. Use when writing emails, messages, social posts, or any text t...", "description_zh": "通过引入逼真的瑕疵使AI生成的文本更像人类语气，适用于撰写邮件、消息、社交帖子等各类文本。", "downloads": 26, "homepage": "https://clawhub.ai/dylanfeltus/error-prone", "iconUrl": null, "installs": 0, "name": "Error Prone", "ownerName": "dylanfeltus", "score": 100000, "slug": "error-prone", "source": "clawhub", "stars": 0, "tags": null, "updated_at": 1776698684715, "version": "1.0.0"}, {"category": "", "created_at": 1774914074686, "description": "Discord server management CLI. Use when you need to manage Discord servers — channels, roles, permissions, messages, embeds, file uploads, emojis, invites, a...", "description_zh": "Discord服务器管理CLI。用于管理Discord服务器——频道、角色、权限、消息、嵌入、文件上传、表情、邀请等。", "downloads": 26, "homepage": "https://clawhub.ai/ibbybuilds/discli", "iconUrl": null, "installs": 0, "name": "Discli", "ownerName": "ibbybuilds", "score": 100000, "slug": "discli", "source": "clawhub", "stars": 0, "tags": null, "updated_at": 1776698684711, "version": "0.6.2"}, {"category": "", "created_at": 1774894891010, "description": "Visualize gene structure with exon-intron diagrams, domain annotations, and mutation position markers. Produces SVG, PNG, or PDF figures suitable for publica...", "description_zh": "可视化基因结构：外显子‑内含子图、域注释、突变位点标记；生成适用于发表的SVG、PNG或PDF图像。", "downloads": 26, "homepage": "https://clawhub.ai/aipoch-ai/gene-structure-mapper", "iconUrl": null, "installs": 1, "name": "Gene Structure Mapper", "ownerName": "aipoch-ai", "score": 100000, "slug": "gene-structure-mapper", "source": "clawhub", "stars": 0, "tags": null, "updated_at": 1776698684708, "version": "0.1.0"}, {"category": "", "created_at": 1774889832720, "description": "Track lab equipment calibration dates and send maintenance reminders", "description_zh": "记录实验室设备校准日期并发送维护提醒", "downloads": 26, "homepage": "https://clawhub.ai/aipoch-ai/equipment-maintenance-log-2", "iconUrl": null, "installs": 0, "name": "Equipment Maintenance Log", "ownerName": "aipoch-ai", "score": 100000, "slug": "equipment-maintenance-log-2", "source": "clawhub", "stars": 0, "tags": null, "updated_at": 1776698684706, "version": "0.1.0"}, {"category": "", "created_at": 1774915193775, "description": "Dacast integration. Manage Videos, Playlists, Channels. Use when the user wants to interact with Dacast data.", "description_zh": "Dacast集成。管理视频、播放列表和频道。当用户需要与Dacast数据交互时使用。", "downloads": 26, "homepage": "https://clawhub.ai/gora050/dacast", "iconUrl": null, "installs": 0, "name": "Dacast", "ownerName": "gora050", "score": 100000, "slug": "dacast", "source": "clawhub", "stars": 0, "tags": null, "updated_at": 1776698684701, "version": "1.0.0"}, {"category": "", "created_at": 1774912974179, "description": "Klenty integration. Manage Persons, Organizations, Deals, Leads, Pipelines, Activities and more. Use when the user wants to interact with Klenty data.", "description_zh": "Klenty 集成。管理联系人、组织、交易、线索、管道、活动等。当用户需要与 Klenty 数据交互时使用。", "downloads": 26, "homepage": "https://clawhub.ai/membranedev/klenty", "iconUrl": null, "installs": 0, "name": "Klenty", "ownerName": "membranedev", "score": 100000, "slug": "klenty", "source": "clawhub", "stars": 0, "tags": null, "updated_at": 1776698684688, "version": "1.0.0"}, {"category": "", "created_at": 1774869062131, "description": "Simple task reminder for OpenClaw agents. Create, list, and manage tasks with priority levels. Use for tracking to-dos and getting reminders for important wo...", "description_zh": "适用于 OpenClaw 智能体的简易任务提醒工具。支持创建、列出和管理任务，并可设置优先级，用于跟踪待办事项及重要工作提醒。", "downloads": 26, "homepage": "https://clawhub.ai/yang1002378395-cmyk/openclaw-task-reminder", "iconUrl": null, "installs": 0, "name": "Openclaw Task Reminder", "ownerName": "yang1002378395-cmyk", "score": 100000, "slug": "openclaw-task-reminder", "source": "clawhub", "stars": 0, "tags": null, "updated_at": 1776698684676, "version": "1.0.0"}, {"category": "", "created_at": 1775732990135, "description": "", "description_zh": "Upload a local image file to Feishu and send it as an image message into the current Feishu conversation.", "downloads": 26, "homepage": "https://clawhub.ai/user_55cd17ff/feishu-send-image-message", "iconUrl": null, "installs": 0, "name": "Feishu Send Image Message", "ownerName": "user_55cd17ff", "score": 100000, "slug": "feishu-send-image-message", "source": "community", "stars": 0, "tags": null, "updated_at": 1776698684671, "version": "1.0.0"}, {"category": "", "created_at": 1774953604735, "description": "Appbase.io integration. Manage data, records, and automate workflows. Use when the user wants to interact with Appbase.io data.", "description_zh": "Appbase.io 集成。管理数据、记录并自动化工作流。用户需与 Appbase.io 数据交互时使用。", "downloads": 26, "homepage": "https://clawhub.ai/gora050/appbaseio", "iconUrl": null, "installs": 0, "name": "Appbaseio", "ownerName": "gora050", "score": 100000, "slug": "appbaseio", "source": "clawhub", "stars": 0, "tags": null, "updated_at": 1776698684669, "version": "1.0.0"}, {"category": "", "created_at": 1774906464708, "description": "DrChrono integration. Manage Patients, Appointments, ClinicalNotes, MedicationOrders, LabOrders, BillingProfiles and more. Use when the user wants to interac...", "description_zh": "DrChrono集成。管理患者、预约、临床笔记、药物订单、实验室订单、账单配置等。适用于用户想要进行交互...", "downloads": 26, "homepage": "https://clawhub.ai/gora050/drchrono", "iconUrl": null, "installs": 0, "name": "Drchrono", "ownerName": "gora050", "score": 100000, "slug": "drchrono", "source": "clawhub", "stars": 0, "tags": null, "updated_at": 1776698684667, "version": "1.0.0"}, {"category": "", "created_at": 1774924245131, "description": "Comprehensive Ionic Framework expert skill consolidating core concepts, component reference, CLI usage, theming, layout, page lifecycle, framework-specific p...", "description_zh": "全面的Ionic框架专家技能，涵盖核心概念、组件参考、CLI用法、主题、布局、页面生命周期及框架特定功能。", "downloads": 26, "homepage": "https://clawhub.ai/robingenz/ionic-framework", "iconUrl": null, "installs": 0, "name": "Ionic Framework", "ownerName": "robingenz", "score": 100000, "slug": "ionic-framework", "source": "clawhub", "stars": 0, "tags": null, "updated_at": 1776698684662, "version": "1.0.0"}, {"category": "", "created_at": 1774955072492, "description": "BotConversa integration. Manage data, records, and automate workflows. Use when the user wants to interact with BotConversa data.", "description_zh": "BotConversa 集成，管理数据、记录并自动化工作流，用于用户需要与 BotConversa 数据交互的场景。", "downloads": 26, "homepage": "https://clawhub.ai/gora050/botconversa", "iconUrl": null, "installs": 0, "name": "Botconversa", "ownerName": "gora050", "score": 100000, "slug": "botconversa", "source": "clawhub", "stars": 0, "tags": null, "updated_at": 1776698684656, "version": "1.0.0"}, {"category": "", "created_at": 1774887781127, "description": "Anymail Finder integration. Manage data, records, and automate workflows. Use when the user wants to interact with Anymail Finder data.", "description_zh": "Anymail Finder 集成。管理数据、记录并自动化工作流程。当用户需要与 Anymail Finder 数据交互时使用。", "downloads": 26, "homepage": "https://clawhub.ai/gora050/anymail-finder", "iconUrl": null, "installs": 0, "name": "Anymail Finder", "ownerName": "gora050", "score": 100000, "slug": "anymail-finder", "source": "clawhub", "stars": 0, "tags": null, "updated_at": 1776698684651, "version": "1.0.0"}, {"category": "", "created_at": 1774884498985, "description": "Git workflow automation for commits, pushes, rebases, status checks, and branch operations. Use when working with git repositories for: (1) Checking status,...", "description_zh": "Git工作流自动化，支持提交、推送、变基、状态检查和分支操作。适用于Git仓库管理：(1) 检查状态...", "downloads": 26, "homepage": "https://clawhub.ai/dougchambes/legend-git-helper", "iconUrl": null, "installs": 0, "name": "Git Helper", "ownerName": "dougchambes", "score": 100000, "slug": "legend-git-helper", "source": "clawhub", "stars": 0, "tags": null, "updated_at": 1776698684649, "version": "1.0.0"}, {"category": "", "created_at": 1774903101532, "description": "Tracks intent drift across multi-turn tasks. Before executing any multi-step task, call this to detect if the user's new instruction is a small patch, requir...", "description_zh": "在多步骤任务执行前，追踪意图漂移，检测用户新指令是否仅为小范围修改。", "downloads": 26, "homepage": "https://clawhub.ai/deepseek609609-collab/daf-intent-guard", "iconUrl": null, "installs": 0, "name": "DAF Intent Guard — 意图漂移检测", "ownerName": "deepseek609609-collab", "score": 100000, "slug": "daf-intent-guard", "source": "clawhub", "stars": 0, "tags": null, "updated_at": 1776698684646, "version": "1.0.0"}, {"category": "", "created_at": 1774904077587, "description": "Boloforms integration. Manage data, records, and automate workflows. Use when the user wants to interact with Boloforms data.", "description_zh": "Boloforms 集成，管理数据、记录，自动化工作流程，用于与 Boloforms 数据交互。", "downloads": 26, "homepage": "https://clawhub.ai/gora050/boloforms", "iconUrl": null, "installs": 0, "name": "Boloforms", "ownerName": "gora050", "score": 100000, "slug": "boloforms", "source": "clawhub", "stars": 0, "tags": null, "updated_at": 1776698684644, "version": "1.0.0"}, {"category": "", "created_at": 1774950338968, "description": "ECi Software Solutions integration. Manage data, records, and automate workflows. Use when the user wants to interact with ECi Software Solutions data.", "description_zh": "ECi软件解决方案集成，管理数据和记录，自动化工作流程，用于与ECi软件解决方案数据交互。", "downloads": 26, "homepage": "https://clawhub.ai/gora050/eci-software-solutions", "iconUrl": null, "installs": 0, "name": "Eci Software Solutions", "ownerName": "gora050", "score": 100000, "slug": "eci-software-solutions", "source": "clawhub", "stars": 0, "tags": null, "updated_at": 1776698684637, "version": "1.0.0"}, {"category": "", "created_at": 1775298487993, "description": "", "description_zh": "writing a story like gulong, a chinese writer", "downloads": 26, "homepage": "https://clawhub.ai/user_a7fbf2bc/gulong-style-writing", "iconUrl": null, "installs": 0, "name": "gulong-style-writing", "ownerName": "user_a7fbf2bc", "score": 100000, "slug": "gulong-style-writing", "source": "community", "stars": 0, "tags": null, "updated_at": 1776698684635, "version": "1.0.0"}, {"category": "", "created_at": 1774887613921, "description": "Search and select the best-fit CCDB carbon/emission factor from a Carbonstop API by extracting keywords from the user request, querying in both Chinese and E...", "description_zh": "通过提取用户请求关键词，在Carbonstop CCDB碳排放因子数据库中进行中英文查询，筛选最佳匹配因子", "downloads": 26, "homepage": "https://clawhub.ai/fly5661/ccdb-factor-search", "iconUrl": null, "installs": 0, "name": "CCDB Factor Search", "ownerName": "fly5661", "score": 100000, "slug": "ccdb-factor-search", "source": "clawhub", "stars": 0, "tags": ["carbon", "ccdb", "emission-factor", "lca", "search", "sustainability"], "updated_at": 1776698684632, "version": "0.1.2"}, {"category": "", "created_at": 1774917040937, "description": "Append context-aware next-step suggestions after agent responses. Generates actionable follow-ups, surfaces unfinished tasks from memory, and includes creati...", "description_zh": "在智能体回复后添加上下文感知的下一步建议，生成可操作的后续跟进，从记忆中提取未完成任务，并包含创意...", "downloads": 26, "homepage": "https://clawhub.ai/cindulasai/nextsteps", "iconUrl": null, "installs": 0, "name": "NextSteps", "ownerName": "cindulasai", "score": 100000, "slug": "nextsteps", "source": "clawhub", "stars": 0, "tags": null, "updated_at": 1776698684630, "version": "1.0.1"}, {"category": "", "created_at": 1774850934645, "description": "Reference tool for devtools — covers intro, quickstart, patterns and more. Quick lookup for Gymlog concepts, best practices, and implementation patterns.", "description_zh": "开发工具参考工具 — 涵盖入门、快速启动、模式等内容。Gymlog 概念、最佳实践和实现模式的快速查询。", "downloads": 26, "homepage": "https://clawhub.ai/ckchzh/gymlog", "iconUrl": null, "installs": 0, "name": "Gymlog", "ownerName": "ckchzh", "score": 100000, "slug": "gymlog", "source": "clawhub", "stars": 0, "tags": null, "updated_at": 1776698684624, "version": "2.0.3"}, {"category": "", "created_at": 1774885616291, "description": "FocalPoint — AI cognitive operating system. Memory + attention management + workflow orchestration. Workbench prepares context before tasks. Three-Province r...", "description_zh": "FocalPoint — AI认知操作系统。记忆+注意力管理+工作流编排。工作台提前准备任务上下文。三省...", "downloads": 26, "homepage": "https://clawhub.ai/jeff0052/focalpoint-memory", "iconUrl": null, "installs": 0, "name": "Focalpoint Memory", "ownerName": "jeff0052", "score": 100000, "slug": "focalpoint-memory", "source": "clawhub", "stars": 0, "tags": null, "updated_at": 1776698684622, "version": "0.3.4"}, {"category": "", "created_at": 1774922967543, "description": "Get real-time exchange rates and currency conversion using free public ExchangeRate-API. No API key required. Use when users ask for current exchange rates,...", "description_zh": "获取实时汇率和货币转换，使用免费的公开 ExchangeRate-API，无需 API 密钥，用于用户询问当前汇率时", "downloads": 26, "homepage": "https://clawhub.ai/alone86136/open-exchange-rate", "iconUrl": null, "installs": 1, "name": "Open Exchange Rate", "ownerName": "alone86136", "score": 100000, "slug": "open-exchange-rate", "source": "clawhub", "stars": 0, "tags": null, "updated_at": 1776698684621, "version": "1.0.0"}, {"category": "", "created_at": 1774889596102, "description": "Analyze cex operations. Use when you need to understand cex mechanisms, evaluate protocol security, or reference on-chain concepts.", "description_zh": "分析中心化交易所操作。当需要了解中心化交易所机制、评估协议安全或参考链上概念时使用。", "downloads": 26, "homepage": "https://clawhub.ai/xueyetianya/cex", "iconUrl": null, "installs": 0, "name": "Cex", "ownerName": "xueyetianya", "score": 100000, "slug": "cex", "source": "clawhub", "stars": 0, "tags": null, "updated_at": 1776698684615, "version": "1.0.0"}, {"category": "", "created_at": 1774949329097, "description": "Guidance for using the GitLab CLI (`glab`) from the terminal for merge requests, issues, CI/CD pipelines and jobs, repository targeting and inspection, clone...", "description_zh": "使用 GitLab CLI (`glab`) 从终端进行合并请求、问题、CI/CD 流水线和任务管理，以及仓库定位和检查、克隆等操作的指南", "downloads": 26, "homepage": "https://clawhub.ai/wufei-png/glab-cli-skill", "iconUrl": null, "installs": 0, "name": "glab-cli-skill", "ownerName": "wufei-png", "score": 100000, "slug": "glab-cli-skill", "source": "clawhub", "stars": 0, "tags": null, "updated_at": 1776698684610, "version": "1.0.0"}]}