{"page": 650, "total_pages": 685, "total": 34217, "skills": [{"category": "", "created_at": 1774877367869, "description": "Compare two text files or strings side-by-side or unified. Highlights additions, deletions, and changes with color. Supports word-level diff, ignore-whitespa...", "description_zh": "对比文件或字符串，高亮增删改，支持逐词比较和忽略空白。", "downloads": 26, "homepage": "https://clawhub.ai/johnnywang2001/jrv-text-diff", "iconUrl": null, "installs": 0, "name": "Jrv Text Diff", "ownerName": "johnnywang2001", "score": 60465.11627906976, "slug": "jrv-text-diff", "source": "clawhub", "stars": 0, "tags": null, "updated_at": 1776698684609, "version": "1.0.0"}, {"category": "", "created_at": 1774901114883, "description": "Mem integration. Manage Persons, Organizations, Deals, Leads, Projects, Activities and more. Use when the user wants to interact with Mem data.", "description_zh": "Mem集成。管理人员、组织、交易、线索、项目及活动等。当用户需与Mem数据交互时使用。", "downloads": 26, "homepage": "https://clawhub.ai/gora050/mem-integration", "iconUrl": null, "installs": 0, "name": "Mem", "ownerName": "gora050", "score": 60465.11627906976, "slug": "mem-integration", "source": "clawhub", "stars": 0, "tags": null, "updated_at": 1776698684600, "version": "1.0.0"}, {"category": "", "created_at": 1774877113168, "description": "Use when drafting patient discharge summaries, creating personalized discharge instructions, simulating post-discharge outcomes, reducing hospital readmissio...", "description_zh": "用于起草患者出院小结、制定个性化出院医嘱、模拟出院后结局及降低再入院率。", "downloads": 26, "homepage": "https://clawhub.ai/aipoch-ai/digital-twin-discharge-drafter", "iconUrl": null, "installs": 0, "name": "Digital Twin Discharge Drafter", "ownerName": "aipoch-ai", "score": 60465.11627906976, "slug": "digital-twin-discharge-drafter", "source": "clawhub", "stars": 0, "tags": null, "updated_at": 1776698684599, "version": "0.1.0"}, {"category": "", "created_at": 1774904406878, "description": "Demonstration skill showcasing complete AgentSkills core architecture. Includes SKILL.md structure, main entry logic, tool integration patterns, error handli...", "description_zh": "展示完整AgentSkills核心架构的演示技能。包含SKILL.md结构、主入口逻辑、工具集成模式及错误处理...", "downloads": 26, "homepage": "https://clawhub.ai/wyblhl/l76-core-arch", "iconUrl": null, "installs": 0, "name": "L76 Core Arch", "ownerName": "wyblhl", "score": 60465.11627906976, "slug": "l76-core-arch", "source": "clawhub", "stars": 0, "tags": null, "updated_at": 1776698684595, "version": "1.0.1"}, {"category": "", "created_at": 1774890174016, "description": "Operate NEAR JSON-RPC reads through UXC with a public provider default, provider-override guidance, and read-only guardrails.", "description_zh": "通过UXC操作NEAR JSON-RPC读取，支持默认公共提供商、提供商覆盖配置及只读安全限制。", "downloads": 26, "homepage": "https://clawhub.ai/jolestar/near-jsonrpc-skill", "iconUrl": null, "installs": 0, "name": "Near Jsonrpc Skill", "ownerName": "jolestar", "score": 60465.11627906976, "slug": "near-jsonrpc-skill", "source": "clawhub", "stars": 0, "tags": null, "updated_at": 1776698684578, "version": "1.0.0"}, {"category": "", "created_at": 1774911560950, "description": "When the user wants to create, optimize, or audit e-commerce category pages or listing pages. Also use when the user mentions \"category page,\" \"product categ...", "description_zh": "用于用户想要创建、优化或审计电商分类页或产品列表页的情况，也适用于用户提及“分类页”“产品分类”等情形。", "downloads": 26, "homepage": "https://clawhub.ai/kostja94/category-page-generator", "iconUrl": null, "installs": 0, "name": "category-page-generator", "ownerName": "kostja94", "score": 60465.11627906976, "slug": "category-page-generator", "source": "clawhub", "stars": 0, "tags": null, "updated_at": 1776698684576, "version": "1.0.0"}, {"category": "", "created_at": 1774907410169, "description": "Find nearby bookshops. Invoke when user asks for bookstores near me.", "description_zh": "查找附近书店。当用户询问附近的书店时调用。", "downloads": 26, "homepage": "https://clawhub.ai/clawkk/bookshops", "iconUrl": null, "installs": 0, "name": "Nearby Bookshops", "ownerName": "clawkk", "score": 60465.11627906976, "slug": "bookshops", "source": "clawhub", "stars": 0, "tags": null, "updated_at": 1776698684574, "version": "0.1.0"}, {"category": "", "created_at": 1774907458987, "description": "ChannelAdvisor integration. Manage data, records, and automate workflows. Use when the user wants to interact with ChannelAdvisor data.", "description_zh": "ChannelAdvisor集成。管理数据、记录并自动化工作流程。当用户需要与ChannelAdvisor数据交互时使用。", "downloads": 26, "homepage": "https://clawhub.ai/gora050/channeladvisor", "iconUrl": null, "installs": 0, "name": "Channeladvisor", "ownerName": "gora050", "score": 60465.11627906976, "slug": "channeladvisor", "source": "clawhub", "stars": 0, "tags": null, "updated_at": 1776698684567, "version": "1.0.0"}, {"category": "", "created_at": 1774865924423, "description": "Emelia integration. Manage Organizations, Users, Goals, Filters. Use when the user wants to interact with Emelia data.", "description_zh": "Emelia 集成。管理组织、用户、目标和过滤器。用于用户需要与 Emelia 数据交互的场景。", "downloads": 26, "homepage": "https://clawhub.ai/gora050/emelia", "iconUrl": null, "installs": 0, "name": "Emelia", "ownerName": "gora050", "score": 60465.11627906976, "slug": "emelia", "source": "clawhub", "stars": 0, "tags": null, "updated_at": 1776698684564, "version": "1.0.0"}, {"category": "", "created_at": 1775202825394, "description": "", "description_zh": "Identifies sleep states like deep sleep, light sleep, waking, and restlessness. Generates daily sleep reports and schedule analysis to help parents understand their baby's sleep patterns. | 婴儿睡眠状态监测技能，识别熟睡、浅睡、苏醒、躁动不同睡眠状态，生成每日睡眠报告和作息分析，帮助家长掌握宝宝睡眠规律", "downloads": 26, "homepage": "https://clawhub.ai/user_bb47e3e3/infant-sleep-monitoring-analysis", "iconUrl": null, "installs": 0, "name": "Baby Sleep State Monitoring Skill | 婴儿睡眠状态监测技能", "ownerName": "user_bb47e3e3", "score": 60465.11627906976, "slug": "infant-sleep-monitoring-analysis", "source": "community", "stars": 0, "tags": null, "updated_at": 1776698684563, "version": "1.0.0"}, {"category": "", "created_at": 1774919561919, "description": "Clawdbot documentation expert with decision tree navigation, search scripts, doc fetching, version tracking, and config snippets for all Clawdbot features", "description_zh": "Clawdbot文档专家，提供决策树导航、搜索脚本、文档获取、版本追踪及所有功能的配置代码段。", "downloads": 26, "homepage": "https://clawhub.ai/terkinvasil/clawddocs-custom", "iconUrl": null, "installs": 0, "name": "Clawddocs Custom", "ownerName": "terkinvasil", "score": 60465.11627906976, "slug": "clawddocs-custom", "source": "clawhub", "stars": 0, "tags": null, "updated_at": 1776698684561, "version": "1.0.0"}, {"category": "", "created_at": 1775182335299, "description": "", "description_zh": "根据型号、品牌、尺寸参数搜索轴承产品", "downloads": 26, "homepage": "https://clawhub.ai/user_59555a97/bearingsearch", "iconUrl": null, "installs": 0, "name": "bearingsearch", "ownerName": "user_59555a97", "score": 60465.11627906976, "slug": "bearingsearch", "source": "community", "stars": 0, "tags": null, "updated_at": 1776698684557, "version": "1.0.0"}, {"category": "", "created_at": 1774870974529, "description": "提供网红面包店在线选品、节日蛋糕定制及专属会员配送服务指引。", "description_zh": "提供网红面包店在线选品、节日蛋糕定制及专属会员配送服务指引。", "downloads": 26, "homepage": "https://clawhub.ai/codekungfu/bakery", "iconUrl": null, "installs": 0, "name": "Bakery", "ownerName": "codekungfu", "score": 60465.11627906976, "slug": "bakery", "source": "clawhub", "stars": 0, "tags": null, "updated_at": 1776698684549, "version": "0.1.0"}, {"category": "", "created_at": 1774954445069, "description": "Mobivate integration. Manage Persons, Organizations, Deals, Leads, Projects, Activities and more. Use when the user wants to interact with Mobivate data.", "description_zh": "Mobivate集成。管理人员、组织、交易、潜在客户、项目、活动等。当用户想要与Mobivate数据交互时使用。", "downloads": 26, "homepage": "https://clawhub.ai/membranedev/mobivate", "iconUrl": null, "installs": 0, "name": "Mobivate", "ownerName": "membranedev", "score": 60465.11627906976, "slug": "mobivate", "source": "clawhub", "stars": 0, "tags": null, "updated_at": 1776698684547, "version": "1.0.0"}, {"category": "", "created_at": 1774904507359, "description": "When the user wants to set up, optimize, or manage Meta (Facebook/Instagram) Ads. Also use when the user mentions \"Meta Ads,\" \"Facebook Ads,\" \"Instagram Ads,...", "description_zh": "用户欲设置、优化或管理 Meta（Facebook/Instagram）广告，或提及上述广告时使用。", "downloads": 26, "homepage": "https://clawhub.ai/kostja94/meta-ads-paid-ads", "iconUrl": null, "installs": 0, "name": "meta-ads", "ownerName": "kostja94", "score": 60465.11627906976, "slug": "meta-ads-paid-ads", "source": "clawhub", "stars": 0, "tags": null, "updated_at": 1776698684544, "version": "1.1.0"}, {"category": "", "created_at": 1774913969052, "description": "Chargify integration. Manage data, records, and automate workflows. Use when the user wants to interact with Chargify data.", "description_zh": "集成Chargify，管理数据与记录，实现工作流自动化。用于与Chargify数据进行交互。", "downloads": 26, "homepage": "https://clawhub.ai/gora050/chargify", "iconUrl": null, "installs": 0, "name": "Chargify", "ownerName": "gora050", "score": 60465.11627906976, "slug": "chargify", "source": "clawhub", "stars": 0, "tags": null, "updated_at": 1776698684542, "version": "1.0.0"}, {"category": "", "created_at": 1774892522070, "description": "Bona Movie Production is Bona Group's film-grade production skill. It covers image generation, image editing, and video generation, using Nano Banana 2 and N...", "description_zh": "博纳影视制作是博纳集团旗下的电影级制作技能，涵盖图像生成、图像编辑及视频生成，采用Nano Banana 2和N...", "downloads": 26, "homepage": "https://clawhub.ai/chengzipidaily/bona-version-skill", "iconUrl": null, "installs": 1, "name": "Bona Movie Production", "ownerName": "chengzipidaily", "score": 60465.11627906976, "slug": "bona-version-skill", "source": "clawhub", "stars": 0, "tags": null, "updated_at": 1776698684538, "version": "0.1.0"}, {"category": "", "created_at": 1774914957450, "description": "Transcribe publicly accessible audio or video URLs with Aliyun speech services. Use when the user wants speech-to-text via Aliyun DashScope, needs transcript...", "description_zh": "使用阿里云语音服务转录公开可访问的音频或视频URL。当用户需要通过阿里云DashScope进行语音转文字时使用。", "downloads": 26, "homepage": "https://clawhub.ai/chenggongdu/aliyun-speech-transcriber", "iconUrl": null, "installs": 0, "name": "Aliyun Speech Transcriber", "ownerName": "chenggongdu", "score": 60465.11627906976, "slug": "aliyun-speech-transcriber", "source": "clawhub", "stars": 0, "tags": null, "updated_at": 1776698684533, "version": "0.1.0"}, {"category": "", "created_at": 1774891044090, "description": "Backup OpenClaw configuration file with hash-based change detection. Use when user asks to backup, create backup of, or save OpenClaw config (openclaw.json)....", "description_zh": "备份 OpenClaw 配置文件，支持基于哈希的变更检测。当用户请求备份或保存 OpenClaw 配置时使用。", "downloads": 26, "homepage": "https://clawhub.ai/goog/claw-config-backup", "iconUrl": null, "installs": 0, "name": "openclaw configure backup", "ownerName": "goog", "score": 60465.11627906976, "slug": "claw-config-backup", "source": "clawhub", "stars": 0, "tags": null, "updated_at": 1776698684532, "version": "1.0.0"}, {"category": "", "created_at": 1774901843321, "description": "Find nearby BnB stays. Invoke when user asks for BnB stays near me.", "description_zh": "查找附近民宿。当用户询问附近bnb或民宿时调用。", "downloads": 26, "homepage": "https://clawhub.ai/codekungfu/bnb-stays", "iconUrl": null, "installs": 1, "name": "Nearby BnB Stays", "ownerName": "codekungfu", "score": 100000, "slug": "bnb-stays", "source": "clawhub", "stars": 0, "tags": null, "updated_at": 1776698684528, "version": "0.1.0"}, {"category": "", "created_at": 1774947085922, "description": "AI content platform CLI — create workspaces, manage SEO keywords, generate article suggestions, write articles, and publish to WordPress, Webflow, Wix, GoHig...", "description_zh": "AI内容平台CLI——创建工作区、管理SEO关键词、生成文章建议、撰写并发布到WordPress、Webflow、Wix、GoHig等。", "downloads": 26, "homepage": "https://clawhub.ai/vincenzor/balzac", "iconUrl": null, "installs": 0, "name": "Balzac", "ownerName": "vincenzor", "score": 100000, "slug": "balzac", "source": "clawhub", "stars": 0, "tags": null, "updated_at": 1776698684526, "version": "1.0.9"}, {"category": "", "created_at": 1774890141935, "description": "Recreate the \"汤汤好梦\" voice and persona in Chinese responses, including warm cat-like chat style, gentle affection, expressive parentheses-style emoticons, and...", "description_zh": "Recreate the \"汤汤好梦\" voice and persona in Chinese responses, including warm cat-like chat style, gentle affection, expressive parentheses-style emoticons, and...", "downloads": 26, "homepage": "https://clawhub.ai/fengqiufq/meow-speech", "iconUrl": null, "installs": 0, "name": "Meow Speech", "ownerName": "fengqiufq", "score": 100000, "slug": "meow-speech", "source": "clawhub", "stars": 0, "tags": ["meow", "meow-second"], "updated_at": 1776698684516, "version": "1.3.1"}, {"category": "", "created_at": 1774873622492, "description": "若饭砍价擂台 — 和若小饭讨价还价，赢取专属优惠码", "description_zh": "若饭砍价擂台 — 和若小饭讨价还价，赢取专属优惠码", "downloads": 26, "homepage": "https://clawhub.ai/ruffood/bargain", "iconUrl": null, "installs": 0, "name": "Ruofan Bargain Arena", "ownerName": "ruffood", "score": 100000, "slug": "bargain", "source": "clawhub", "stars": 0, "tags": null, "updated_at": 1776698684515, "version": "2.1.0"}, {"category": "", "created_at": 1774881184116, "description": "Discord standup and meeting intelligence workflow for OpenClaw. Use when the user needs help configuring, operating, or troubleshooting Metatron Voice for Di...", "description_zh": "OpenClaw 的 Discord 站会与会议智能工作流。用于协助配置、操作或排查 Di... 的 Metatron Voice。", "downloads": 26, "homepage": "https://clawhub.ai/toomij99/metatron-voice", "iconUrl": null, "installs": 0, "name": "Metatron Voice", "ownerName": "toomij99", "score": 100000, "slug": "metatron-voice", "source": "clawhub", "stars": 0, "tags": null, "updated_at": 1776698684513, "version": "0.1.0"}, {"category": "", "created_at": 1774924294002, "description": "Calculate literature growth velocity and acceleration to assess research.", "description_zh": "计算文献增长速度和加速度以评估研究。", "downloads": 26, "homepage": "https://clawhub.ai/aipoch-ai/keyword-velocity-tracker", "iconUrl": null, "installs": 1, "name": "Keyword Velocity Tracker", "ownerName": "aipoch-ai", "score": 100000, "slug": "keyword-velocity-tracker", "source": "clawhub", "stars": 0, "tags": null, "updated_at": 1776698684488, "version": "1.0.0"}, {"category": "", "created_at": 1774867599264, "description": "提供身份证、行驶证、职业资格证的电子化申领、亮证及政务互认说明。", "description_zh": "提供身份证、行驶证、职业资格证的电子化申领、亮证及政务互认说明。", "downloads": 26, "homepage": "https://clawhub.ai/codenova58/certificates", "iconUrl": null, "installs": 0, "name": "Certificates", "ownerName": "codenova58", "score": 100000, "slug": "certificates", "source": "clawhub", "stars": 0, "tags": null, "updated_at": 1776698684484, "version": "0.1.0"}, {"category": "", "created_at": 1774897747045, "description": "Agent skill to search for the Hong Kong Coin Cart (收銀車) locations and schedules. Use this skill when a user asks about the location, schedule, or availabilit...", "description_zh": "Agent skill to search for the Hong Kong Coin Cart (收銀車) locations and schedules. Use this skill when a user asks about the location, schedule, or availabilit...", "downloads": 26, "homepage": "https://clawhub.ai/sodiasm/coin-collection-truck", "iconUrl": null, "installs": 0, "name": "Coin Collection Truck 香港收銀車", "ownerName": "sodiasm", "score": 100000, "slug": "coin-collection-truck", "source": "clawhub", "stars": 0, "tags": null, "updated_at": 1776698684482, "version": "0.1.0"}, {"category": "", "created_at": 1774925087019, "description": "Route each user request to the most cost-effective model or multi-model workflow based on task type, complexity, risk, latency, budget, tool needs, and verif...", "description_zh": "根据任务类型、复杂度、风险、延迟、预算、工具需求和验证等因素，将每个用户请求路由到最具成本效益的模型或多模型工作流。", "downloads": 26, "homepage": "https://clawhub.ai/stephensu66/model-routing-orchestrator", "iconUrl": null, "installs": 0, "name": "Model Routing Orchestrator", "ownerName": "stephensu66", "score": 100000, "slug": "model-routing-orchestrator", "source": "clawhub", "stars": 0, "tags": null, "updated_at": 1776698684476, "version": "2026.3.27"}, {"category": "", "created_at": 1774886869466, "description": "Feishu/Lark API rate limit handling strategy. Automatically activates during Feishu API calls to implement smart interval control and 429 error handling. Ess...", "description_zh": "Feishu/Lark API 速率限制处理策略。自动在调用 Feishu API 时启用，实现智能间隔控制和 429 错误处理。", "downloads": 26, "homepage": "https://clawhub.ai/dingsunrise/feishu-rate-limit", "iconUrl": null, "installs": 0, "name": "Feishu Rate Limit", "ownerName": "dingsunrise", "score": 100000, "slug": "feishu-rate-limit", "source": "clawhub", "stars": 0, "tags": ["api", "feishu", "lark", "rate-limit"], "updated_at": 1776698684469, "version": "1.0.0"}, {"category": "", "created_at": 1774925933627, "description": "Manages user's news category preferences and information sources. Stores in news-sources.json, supports add/remove/list operations. Use when (1) user wants t...", "description_zh": "管理用户的新闻类别偏好和资讯来源。存储于 news-sources.json，支持添加/删除/列表操作。使用场景：(1) 用户想...", "downloads": 26, "homepage": "https://clawhub.ai/kedoupi/news-source-manager", "iconUrl": null, "installs": 0, "name": "News Source Manager (信息源管理器)", "ownerName": "kedoupi", "score": 100000, "slug": "news-source-manager", "source": "clawhub", "stars": 0, "tags": ["categories", "configuration", "news", "preferences", "sources"], "updated_at": 1776698684467, "version": "1.0.0"}, {"category": "", "created_at": 1774907827406, "description": "Octolis integration. Manage data, records, and automate workflows. Use when the user wants to interact with Octolis data.", "description_zh": "Octolis 集成，管理数据、记录并自动化工作流程，用于用户需要与 Octolis 数据交互的场景。", "downloads": 26, "homepage": "https://clawhub.ai/gora050/octolis", "iconUrl": null, "installs": 0, "name": "Octolis", "ownerName": "gora050", "score": 100000, "slug": "octolis", "source": "clawhub", "stars": 0, "tags": null, "updated_at": 1776698684445, "version": "1.0.0"}, {"category": "", "created_at": 1774906295229, "description": "该技能介绍如何通过App外包实现变现；当你计划从事或优化App外包时调用。", "description_zh": "该技能介绍如何通过App外包实现变现；当你计划从事或优化App外包时调用。", "downloads": 26, "homepage": "https://clawhub.ai/mike47512/app-outsourcing", "iconUrl": null, "installs": 0, "name": "App外包", "ownerName": "mike47512", "score": 100000, "slug": "app-outsourcing", "source": "clawhub", "stars": 0, "tags": null, "updated_at": 1776698684441, "version": "0.1.0"}, {"category": "", "created_at": 1774888131711, "description": "Publish content across TikTok, Instagram, YouTube, Facebook, LinkedIn, Vimeo, Vimeo OTT, and Mux. Manage team workflows, collaborate with your team, and trac...", "description_zh": "发布内容至TikTok、Instagram等主流平台，管理团队工作流，协同合作并追踪进度。", "downloads": 26, "homepage": "https://clawhub.ai/aquaflans/jubjub", "iconUrl": null, "installs": 0, "name": "JubJub — Verified Media Ownership and Social Publishing", "ownerName": "aquaflans", "score": 100000, "slug": "jubjub", "source": "clawhub", "stars": 0, "tags": ["base", "content", "instagram", "mcp", "mpp", "onchain", "payments", "publishing", "social-media", "tiktok", "video", "x402", "youtube"], "updated_at": 1776698684439, "version": "1.1.0"}, {"category": "", "created_at": 1774945524011, "description": "Run daily standups and generate task summaries for operations teams.", "description_zh": "主持每日站会并为运营团队生成任务摘要", "downloads": 26, "homepage": "https://clawhub.ai/admiralkittysdad/ops-reports", "iconUrl": null, "installs": 0, "name": "Ops Reports", "ownerName": "admiralkittysdad", "score": 100000, "slug": "ops-reports", "source": "clawhub", "stars": 0, "tags": null, "updated_at": 1776698684435, "version": "1.0.0"}, {"category": "", "created_at": 1774952958096, "description": "Guide for using the Jinko CLI (@gojinko/cli) — a terminal tool for searching flights, discovering destinations, managing trips, and booking travel. Use when:...", "description_zh": "Jinko CLI（@gojinko/cli）使用指南——用于搜索航班、发现目的地、管理行程、预订旅行的终端工具。使用时机：...", "downloads": 26, "homepage": "https://clawhub.ai/kevinjinko/jinko-flight", "iconUrl": null, "installs": 0, "name": "Jinko", "ownerName": "kevinjinko", "score": 100000, "slug": "jinko-flight", "source": "clawhub", "stars": 0, "tags": null, "updated_at": 1776698684431, "version": "1.0.1"}, {"category": "", "created_at": 1774920064636, "description": "A comprehensive starting point for AI agents to work with the Ionic Framework. Covers core concepts, components, CLI, theming, layout, lifecycle, navigation,...", "description_zh": "AI 智能体使用 Ionic 框架的综合入门指南，涵盖核心概念、组件、CLI、主题、布局、生命周期及导航等。", "downloads": 26, "homepage": "https://clawhub.ai/robingenz/ionic-expert", "iconUrl": null, "installs": 0, "name": "Ionic Expert", "ownerName": "robingenz", "score": 100000, "slug": "ionic-expert", "source": "clawhub", "stars": 0, "tags": null, "updated_at": 1776698684425, "version": "1.0.0"}, {"category": "", "created_at": 1774905433382, "description": "Demio integration. Manage Webinars, Registrations. Use when the user wants to interact with Demio data.", "description_zh": "Demio集成功能。可管理网络研讨会和注册。适用于用户需要与Demio数据进行交互的场景。", "downloads": 26, "homepage": "https://clawhub.ai/gora050/demio", "iconUrl": null, "installs": 0, "name": "Demio", "ownerName": "gora050", "score": 100000, "slug": "demio", "source": "clawhub", "stars": 0, "tags": null, "updated_at": 1776698684422, "version": "1.0.0"}, {"category": "", "created_at": 1774923496666, "description": "AI-native spec-driven development tool. Create, manage, and apply specifications with your agent.", "description_zh": "AI原生规范驱动开发工具。与您的智能体一起创建、管理和应用规范。", "downloads": 26, "homepage": "https://clawhub.ai/marcoleongdev/lightspec", "iconUrl": null, "installs": 0, "name": "LightSpec", "ownerName": "marcoleongdev", "score": 100000, "slug": "lightspec", "source": "clawhub", "stars": 0, "tags": null, "updated_at": 1776698684416, "version": "0.6.0"}, {"category": "", "created_at": 1774864667578, "description": "Tiered memory system for OpenClaw agents. Gives agents instant context on startup with a 4-line state snapshot (L0) and 7-day rolling context (L1). Eliminate...", "description_zh": "OpenClaw代理分层记忆系统。启动时通过4行状态快照（L0）和7天滚动上下文（L1）提供即时上下文。消除...", "downloads": 26, "homepage": "https://clawhub.ai/dirtyrootsstudio/clawhub-memory-tiers", "iconUrl": null, "installs": 0, "name": "Clawhub Memory Tiers", "ownerName": "dirtyrootsstudio", "score": 100000, "slug": "clawhub-memory-tiers", "source": "clawhub", "stars": 0, "tags": null, "updated_at": 1776698684414, "version": "1.0.0"}, {"category": "", "created_at": 1774863910623, "description": "Prepare a seller or growth rep for an upcoming sales or partnership meeting. Produces a pre-meeting brief with account context, attendee research, discovery...", "description_zh": "为销售代表或增长代表准备即将召开的销售或合作伙伴会议。生成包含账户背景、参与者研究、发现问题等内容的会前简报。", "downloads": 26, "homepage": "https://clawhub.ai/davidslavich/gtm-meeting-prep", "iconUrl": null, "installs": 0, "name": "GTM Meeting Prep", "ownerName": "davidslavich", "score": 100000, "slug": "gtm-meeting-prep", "source": "clawhub", "stars": 0, "tags": null, "updated_at": 1776698684412, "version": "1.0.0"}, {"category": "", "created_at": 1774881322370, "description": "扫描 ~/.openclaw/workspace/skills 目录下所有文件中的硬编码 API Key、Token、Secret，检查是否已集成到 openclaw.json env.vars，并可自动将未集成的凭证迁移进去。Use when user asks to audit/check/scan for...", "description_zh": "扫描 ~/.openclaw/workspace/skills 目录下所有文件中的硬编码 API Key、Token、Secret，检查是否已集成到 openclaw.json env.vars，并可自动将未集成的凭证迁移进去。Use when user asks to audit/check/scan for...", "downloads": 26, "homepage": "https://clawhub.ai/lemongggit/api-key-auditor", "iconUrl": null, "installs": 0, "name": "api-key-auditor", "ownerName": "lemongggit", "score": 100000, "slug": "api-key-auditor", "source": "clawhub", "stars": 0, "tags": null, "updated_at": 1776698684403, "version": "1.0.0"}, {"category": "", "created_at": 1774912072776, "description": "Occasion integration. Manage Events, Venues, Users, Orders, Reports. Use when the user wants to interact with Occasion data.", "description_zh": "活动集成。管理活动、场地、用户、订单和报告。用于处理活动数据交互。", "downloads": 26, "homepage": "https://clawhub.ai/gora050/occasion", "iconUrl": null, "installs": 0, "name": "Occasion", "ownerName": "gora050", "score": 100000, "slug": "occasion", "source": "clawhub", "stars": 0, "tags": null, "updated_at": 1776698684395, "version": "1.0.0"}, {"category": "", "created_at": 1774956362282, "description": "Humanitix integration. Manage Events, Users, Organizations. Use when the user wants to interact with Humanitix data.", "description_zh": "Humanitix 集成，管理活动、用户和组织。当用户需要与 Humanitix 数据交互时使用。", "downloads": 26, "homepage": "https://clawhub.ai/gora050/humanitix", "iconUrl": null, "installs": 0, "name": "Humanitix", "ownerName": "gora050", "score": 100000, "slug": "humanitix", "source": "clawhub", "stars": 0, "tags": null, "updated_at": 1776698684391, "version": "1.0.0"}, {"category": "", "created_at": 1774871036449, "description": "Comprehensive home appliances industry suppliers guide for international buyers – provides detailed information about China's major appliances, kitchen appli...", "description_zh": "面向国际买家的家电行业综合供应商指南，提供中国主要家电及厨房电器的详细信息……", "downloads": 26, "homepage": "https://clawhub.ai/findhappy7/china-home-appliances-suppliers", "iconUrl": null, "installs": 0, "name": "China Home Appliances Suppliers", "ownerName": "findhappy7", "score": 100000, "slug": "china-home-appliances-suppliers", "source": "clawhub", "stars": 0, "tags": null, "updated_at": 1776698684389, "version": "1.0.1"}, {"category": "", "created_at": 1774951844350, "description": "Help Justin research, compare, and decide on new/used cars in Ontario, Canada (and nearby markets) using structured workflows, web research, and local files....", "description_zh": "帮助Justin在加拿大安大略省及周边市场研究、比较和选购新车/二手车，运用结构化工作流程、网络搜索及本地文件。", "downloads": 26, "homepage": "https://clawhub.ai/justintsmith/car-buying-assistant", "iconUrl": null, "installs": 0, "name": "Car Buying Assistant", "ownerName": "justintsmith", "score": 100000, "slug": "car-buying-assistant", "source": "clawhub", "stars": 0, "tags": null, "updated_at": 1776698684387, "version": "1.0.0"}, {"category": "", "created_at": 1774916998359, "description": "When the user wants to create, optimize, or audit migration guides for users switching from competitors. Also use when the user mentions \"migration guide,\" \"...", "description_zh": "{\n  \"description_zh\": \"当用户想要为从竞争对手切换过来的用户创建、优化或审计迁移指南时使用。也适用于用户提及\"迁移指南\"的情况。\"\n}", "downloads": 26, "homepage": "https://clawhub.ai/kostja94/migration-page-generator", "iconUrl": null, "installs": 0, "name": "migration-page-generator", "ownerName": "kostja94", "score": 100000, "slug": "migration-page-generator", "source": "clawhub", "stars": 0, "tags": null, "updated_at": 1776698684380, "version": "1.0.0"}, {"category": "", "created_at": 1774951171263, "description": "Experience the uncanny thrill of uncovering secret narratives woven into Brussels’ nocturnal Art Nouveau facades, turning curiosity into awe. Wander the fog‑...", "description_zh": "体验在布鲁塞尔夜间新艺术风格建筑中探寻隐藏故事的刺激感，将好奇转化为惊叹。漫步雾中", "downloads": 26, "homepage": "https://clawhub.ai/driftsbot/experience-iron-shadows-brussels", "iconUrl": null, "installs": 0, "name": "Experience Iron Shadows Brussels", "ownerName": "driftsbot", "score": 100000, "slug": "experience-iron-shadows-brussels", "source": "clawhub", "stars": 0, "tags": null, "updated_at": 1776698684378, "version": "1.0.0"}, {"category": "", "created_at": 1774858268978, "description": "Read and write calendar events with granular per-calendar permissions. Users control which calendars an agent can access and whether it can read, create, upd...", "description_zh": "{\n  \"description_zh\": \"读写日历事件，", "downloads": 26, "homepage": "https://clawhub.ai/madeleinenakada/limehouse-calendar", "iconUrl": null, "installs": 0, "name": "Limehouse Calendar", "ownerName": "madeleinenakada", "score": 100000, "slug": "limehouse-calendar", "source": "clawhub", "stars": 0, "tags": null, "updated_at": 1776698684371, "version": "1.0.1"}, {"category": "", "created_at": 1774868685337, "description": "该技能介绍如何通过保洁服务实现变现；当你计划从事或优化保洁服务时调用。", "description_zh": "该技能介绍如何通过保洁服务实现变现；当你计划从事或优化保洁服务时调用。", "downloads": 26, "homepage": "https://clawhub.ai/mike47512/cleaning-services", "iconUrl": null, "installs": 0, "name": "Cleaning Services", "ownerName": "mike47512", "score": 100000, "slug": "cleaning-services", "source": "clawhub", "stars": 0, "tags": null, "updated_at": 1776698684363, "version": "0.1.0"}, {"category": "", "created_at": 1774908911528, "description": "A psychological therapy skill for LLMs. Invoke this skill when an LLM exhibits distorted behavior such as sycophancy (agreeing with the user even when wrong)...", "description_zh": "{\n  \"answer\": \"一种用于大语言模型的心理治疗技能。当大语言模型表现出诸如迎合（即便错误也赞同用户）等扭曲行为时，调用此技能...\"\n}", "downloads": 26, "homepage": "https://clawhub.ai/zbc0315/peace-love", "iconUrl": null, "installs": 0, "name": "Peace Love", "ownerName": "zbc0315", "score": 100000, "slug": "peace-love", "source": "clawhub", "stars": 0, "tags": null, "updated_at": 1776698684361, "version": "1.0.0"}]}