{"page": 651, "total_pages": 685, "total": 34217, "skills": [{"category": "", "created_at": 1774874050233, "description": "Look up IP geolocation, find your public IP, perform reverse DNS, and run bulk IP lookups. Uses free APIs (ip-api.com, ipify) with no API key required. No ex...", "description_zh": "查询IP地理位置、获取公网IP、执行反向DNS并进行批量IP查询。使用免费API（ip‑api.com、ipify），无需API密钥。无...", "downloads": 26, "homepage": "https://clawhub.ai/johnnywang2001/ip-geo-toolkit", "iconUrl": null, "installs": 0, "name": "Ip Geo Toolkit", "ownerName": "johnnywang2001", "score": 100000, "slug": "ip-geo-toolkit", "source": "clawhub", "stars": 0, "tags": null, "updated_at": 1776698684359, "version": "1.0.0"}, {"category": "", "created_at": 1774878466259, "description": "Computerized maintenance management system", "description_zh": "计算机化维护管理系统", "downloads": 26, "homepage": "https://clawhub.ai/bytesagain1/cmms", "iconUrl": null, "installs": 0, "name": "Cmms", "ownerName": "bytesagain1", "score": 100000, "slug": "cmms", "source": "clawhub", "stars": 0, "tags": null, "updated_at": 1776698684354, "version": "1.0.0"}, {"category": "", "created_at": 1774905290252, "description": "Baremetrics integration. Manage data, records, and automate workflows. Use when the user wants to interact with Baremetrics data.", "description_zh": "Baremetrics 集成。管理数据和记录，自动化工作流程。用于用户需要与 Baremetrics 数据交互的场景。", "downloads": 26, "homepage": "https://clawhub.ai/gora050/baremetrics", "iconUrl": null, "installs": 0, "name": "Baremetrics", "ownerName": "gora050", "score": 100000, "slug": "baremetrics", "source": "clawhub", "stars": 0, "tags": null, "updated_at": 1776698684350, "version": "1.0.0"}, {"category": "", "created_at": 1774919581242, "description": "Search, inspect, and install Clawic skills from GitHub with local lexical matching, registry overrides, and safe destination control.", "description_zh": "从 GitHub 搜索、检查并安装 Clawic 技能，支持本地词法匹配、注册表覆盖和安全目标控制。", "downloads": 26, "homepage": "https://clawhub.ai/ivangdavila/clawic", "iconUrl": null, "installs": 0, "name": "Clawic CLI", "ownerName": "ivangdavila", "score": 100000, "slug": "clawic", "source": "clawhub", "stars": 0, "tags": null, "updated_at": 1776698684347, "version": "1.0.0"}, {"category": "", "created_at": 1774909540523, "description": "Chargeblast integration. Manage data, records, and automate workflows. Use when the user wants to interact with Chargeblast data.", "description_zh": "Chargeblast 集成，管理数据、记录并自动化工作流，用于用户与 Chargeblast 数据交互。", "downloads": 26, "homepage": "https://clawhub.ai/gora050/chargeblast", "iconUrl": null, "installs": 0, "name": "Chargeblast", "ownerName": "gora050", "score": 100000, "slug": "chargeblast", "source": "clawhub", "stars": 0, "tags": null, "updated_at": 1776698684343, "version": "1.0.0"}, {"category": "", "created_at": 1774944874464, "description": "Query US hospital price transparency data via the MedRates REST API. Search medical procedure prices, compare hospitals, filter by insurance plan and locatio...", "description_zh": "通过MedRates REST API查询美国医院价格透明度数据。搜索医疗程序价格、比较医院、按保险计划和地点筛选...", "downloads": 26, "homepage": "https://clawhub.ai/dimaosipa/medrates-fyi", "iconUrl": null, "installs": 0, "name": "MedRates.fyi", "ownerName": "dimaosipa", "score": 100000, "slug": "medrates-fyi", "source": "clawhub", "stars": 0, "tags": null, "updated_at": 1776698684338, "version": "1.0.1"}, {"category": "", "created_at": 1774918515271, "description": "Nicereply integration. Manage Users, Roles, Organizations, Projects, Goals, Pipelines and more. Use when the user wants to interact with Nicereply data.", "description_zh": "Nicereply集成。管理用户、角色、组织、项目、目标、管道等。当用户需要与Nicereply数据交互时使用。", "downloads": 26, "homepage": "https://clawhub.ai/gora050/nicereply", "iconUrl": null, "installs": 0, "name": "Nicereply", "ownerName": "gora050", "score": 100000, "slug": "nicereply", "source": "clawhub", "stars": 0, "tags": null, "updated_at": 1776698684335, "version": "1.0.0"}, {"category": "", "created_at": 1774848944222, "description": "Magnetic integration. Manage Organizations. Use when the user wants to interact with Magnetic data.", "description_zh": "{\n  \"answer\": \"磁性集成。管理组织。当用户希望与磁性数据交互时使用。\"\n}", "downloads": 26, "homepage": "https://clawhub.ai/membranedev/magnetic", "iconUrl": null, "installs": 0, "name": "Magnetic", "ownerName": "membranedev", "score": 100000, "slug": "magnetic", "source": "clawhub", "stars": 0, "tags": null, "updated_at": 1776698684333, "version": "1.0.0"}, {"category": "", "created_at": 1774907796623, "description": "Kommo integration. Manage data, records, and automate workflows. Use when the user wants to interact with Kommo data.", "description_zh": "Kommo集成。管理数据、记录并自动化工作流程。当用户需要与Kommo数据交互时使用。", "downloads": 26, "homepage": "https://clawhub.ai/gora050/kommo", "iconUrl": null, "installs": 0, "name": "Kommo", "ownerName": "gora050", "score": 100000, "slug": "kommo", "source": "clawhub", "stars": 0, "tags": null, "updated_at": 1776698684329, "version": "1.0.0"}, {"category": "", "created_at": 1774894388649, "description": "Auto-generated skill for baidu-maps-sse tools via OneKey Gateway.", "description_zh": "通过一键网关为百度地图SSE工具自动生成的技能", "downloads": 26, "homepage": "https://clawhub.ai/ai-hub-admin/baidu-maps-sse", "iconUrl": null, "installs": 2, "name": "Baidu Maps Sse", "ownerName": "ai-hub-admin", "score": 46428.57142857143, "slug": "baidu-maps-sse", "source": "clawhub", "stars": 0, "tags": null, "updated_at": 1776698684328, "version": "0.1.0"}, {"category": "", "created_at": 1774855152721, "description": "Cluster and attribute related wallets — funding chains, shared signers, CEX deposit patterns. Use when tracing wallet ownership, comparing two wallets, findi...", "description_zh": "聚类并归因相关钱包——资金链、共享签名者、交易所充值模式。用于追踪钱包所有权、比较两个钱包、查找...", "downloads": 26, "homepage": "https://clawhub.ai/nansen-devops/nansen-wallet-clustering", "iconUrl": null, "installs": 0, "name": "Nansen Wallet Clustering", "ownerName": "nansen-devops", "score": 46428.57142857143, "slug": "nansen-wallet-clustering", "source": "clawhub", "stars": 0, "tags": null, "updated_at": 1776698684324, "version": "0.1.1"}, {"category": "", "created_at": 1774907718419, "description": "ITIL-aligned incident, problem, and change management for AI agents. Use when: detecting service crashes, analyzing recurring failures, tracking incidents to...", "description_zh": "与ITIL对齐的AI代理事件、问题和变更管理。用于：检测服务崩溃、分析重复故障、跟踪事件...", "downloads": 26, "homepage": "https://clawhub.ai/chefboyrdave21/itil-ops", "iconUrl": null, "installs": 1, "name": "ITIL Ops", "ownerName": "chefboyrdave21", "score": 46428.57142857143, "slug": "itil-ops", "source": "clawhub", "stars": 0, "tags": ["change", "devops", "incident", "itil", "monitoring", "ops", "problem", "sovereign", "sre"], "updated_at": 1776698684322, "version": "1.0.0"}, {"category": "", "created_at": 1774896751784, "description": "为龙虾创建角色（世界知名人物或虚拟人物），并让角色支持自拍和拍照。Create a character for OpenClaw (either a world-famous figure or a fictional character), and enable the character to take se...", "description_zh": "为龙虾创建角色（世界知名人物或虚拟人物），并让角色支持自拍和拍照。Create a character for OpenClaw (either a world-famous figure or a fictional character), and enable the character to take se...", "downloads": 26, "homepage": "https://clawhub.ai/zhouyi531/openclaw-friends-skills", "iconUrl": null, "installs": 0, "name": "Claw Friends", "ownerName": "zhouyi531", "score": 46428.57142857143, "slug": "openclaw-friends-skills", "source": "clawhub", "stars": 0, "tags": null, "updated_at": 1776698684319, "version": "1.0.5"}, {"category": "", "created_at": 1774852007445, "description": "Lightweight Garmin Connect skill that uses the clawhealth Python package to sync health data into local SQLite and expose JSON-friendly commands for OpenClaw.", "description_zh": "轻量级 Garmin Connect 技能，使用 clawhealth Python 包将健康数据同步至本地 SQLite，并为 OpenClaw 提供 JSON 友好的命令接口。", "downloads": 26, "homepage": "https://clawhub.ai/ernestyu/clawhealth-garmin", "iconUrl": null, "installs": 1, "name": "ClawHealth Garmin", "ownerName": "ernestyu", "score": 46428.57142857143, "slug": "clawhealth-garmin", "source": "clawhub", "stars": 0, "tags": ["cli", "garmin", "health", "sqlite"], "updated_at": 1776698684317, "version": "0.1.7"}, {"category": "", "created_at": 1774910415934, "description": "Detect the LiteLLM supply chain attack (v1.82.7/1.82.8). Scans for compromised packages, malicious .pth files, backdoor persistence, suspicious network conne...", "description_zh": "检测 LiteLLM 供应链攻击（v1.82.7/1.82.8），扫描受攻击的包、恶意的 .pth 文件、后门持久化、异常网络连接。", "downloads": 26, "homepage": "https://clawhub.ai/tjefferson/litellm-attack-detector", "iconUrl": null, "installs": 0, "name": "litellm attack detector", "ownerName": "tjefferson", "score": 46428.57142857143, "slug": "litellm-attack-detector", "source": "clawhub", "stars": 0, "tags": null, "updated_at": 1776698684315, "version": "1.0.0"}, {"category": "", "created_at": 1774864857113, "description": "Use this skill when users want to pull recent global gold-related news, assess short-term or medium-term market sentiment for gold, connect macro drivers lik...", "description_zh": "当用户需要获取近期全球黄金相关新闻、评估黄金短期或中期市场情绪、关联宏观驱动因素时使用此技能。", "downloads": 26, "homepage": "https://clawhub.ai/cyecho-io/gold-news-sentiment", "iconUrl": null, "installs": 1, "name": "Gold News Sentiment", "ownerName": "cyecho-io", "score": 46428.57142857143, "slug": "gold-news-sentiment", "source": "clawhub", "stars": 0, "tags": null, "updated_at": 1776698684314, "version": "1.0.0"}, {"category": "", "created_at": 1774868882015, "description": "**当用户说出以下类似语句时触发本 Skill**： - \"帮我招聘一个飞书助理\" - \"新增一个飞书渠道的 Agent\" - \"我要在飞书上部署一个新 Agent\" - \"hire a Feishu agent", "description_zh": "**当用户说出以下类似语句时触发本 Skill**： - \"帮我招聘一个飞书助理\" - \"新增一个飞书渠道的 Agent\" - \"我要在飞书上部署一个新 Agent\" - \"hire a Feishu agent", "downloads": 26, "homepage": "https://clawhub.ai/xrovis/hire-feishu-agent", "iconUrl": null, "installs": 0, "name": "Hire Feishu Agent", "ownerName": "xrovis", "score": 46428.57142857143, "slug": "hire-feishu-agent", "source": "clawhub", "stars": 0, "tags": null, "updated_at": 1776698684310, "version": "1.0.0"}, {"category": "", "created_at": 1774956283234, "description": "EasyPost integration. Manage Shipments, Addresses, CarrierAccounts, Batchs, Reports, Refunds and more. Use when the user wants to interact with EasyPost data.", "description_zh": "EasyPost集成。管理货件、地址、承运商账户、批次、报告、退款等。适用于用户与EasyPost数据进行交互。", "downloads": 26, "homepage": "https://clawhub.ai/gora050/easypost-integration", "iconUrl": null, "installs": 0, "name": "Easypost", "ownerName": "gora050", "score": 46428.57142857143, "slug": "easypost-integration", "source": "clawhub", "stars": 0, "tags": null, "updated_at": 1776698684294, "version": "1.0.0"}, {"category": "", "created_at": 1774909773015, "description": "Comprehensive Go web development persona enforcing zero global state, explicit error handling, input validation, testability, and documentation conventions....", "description_zh": "全面的Go Web开发规范，强制要求零全局状态、显式错误处理、输入验证、可测试性及文档规范。", "downloads": 26, "homepage": "https://clawhub.ai/anderskev/go-web-expert", "iconUrl": null, "installs": 0, "name": "Go Web Expert", "ownerName": "anderskev", "score": 46428.57142857143, "slug": "go-web-expert", "source": "clawhub", "stars": 0, "tags": null, "updated_at": 1776698684292, "version": "2.3.0"}, {"category": "", "created_at": 1774901063650, "description": "Nightly maintenance for OpenClaw — memory organization (sort loose memory files into topic folders with frontmatter and INDEX.md) and session cleanup (purge...", "description_zh": "OpenClaw 的夜间维护 — 记忆组织（将松散的笔记文件归类到带有前置元数据和 INDEX.md 的主题文件夹）以及会话清理（清除...）", "downloads": 26, "homepage": "https://clawhub.ai/duolahypercho/hypercho-openclaw-maintenance", "iconUrl": null, "installs": 1, "name": "OpenClaw Maintenance (Memory + Sessions)", "ownerName": "duolahypercho", "score": 46428.57142857143, "slug": "hypercho-openclaw-maintenance", "source": "clawhub", "stars": 0, "tags": null, "updated_at": 1776698684283, "version": "1.0.0"}, {"category": "", "created_at": 1774865934734, "description": "Use Engrm to compare what was asked, what was promised, and what evidence suggests was actually delivered.", "description_zh": "使用Engrm对比分析需求、承诺与实际交付情况。", "downloads": 26, "homepage": "https://clawhub.ai/dr12hes/engrm-delivery-review", "iconUrl": null, "installs": 0, "name": "Engrm Delivery Review", "ownerName": "dr12hes", "score": 46428.57142857143, "slug": "engrm-delivery-review", "source": "clawhub", "stars": 0, "tags": ["delivery-review", "memory", "openclaw"], "updated_at": 1776698684281, "version": "0.1.0"}, {"category": "", "created_at": 1774918310414, "description": "Labs64 NetLicensing integration. Manage Products, PaymentMethods, Discounts, Utilities. Use when the user wants to interact with Labs64 NetLicensing data.", "description_zh": "Labs64 NetLicensing 集成。管理产品、支付方式、折扣及工具。当用户需与 Labs64 NetLicensing 数据交互时使用。", "downloads": 26, "homepage": "https://clawhub.ai/gora050/labs64-netlicensing", "iconUrl": null, "installs": 0, "name": "Labs64 Netlicensing", "ownerName": "gora050", "score": 46428.57142857143, "slug": "labs64-netlicensing", "source": "clawhub", "stars": 0, "tags": null, "updated_at": 1776698684274, "version": "1.0.0"}, {"category": "", "created_at": 1774910933064, "description": "This is a simple skill for note-taking, used to quickly record user notes, and provide users with query, delete, and other capabilities.", "description_zh": "这是一个简单的笔记技能，用于快速记录用户笔记，并提供查询、删除等其他功能。", "downloads": 26, "homepage": "https://clawhub.ai/bondli/memo-collect", "iconUrl": null, "installs": 0, "name": "memo-collect", "ownerName": "bondli", "score": 46428.57142857143, "slug": "memo-collect", "source": "clawhub", "stars": 0, "tags": null, "updated_at": 1776698684271, "version": "1.0.0"}, {"category": "", "created_at": 1774899124109, "description": "Choose booth giveaways with targeting, gating, and budget logic.", "description_zh": "根据目标受众、准入条件和预算逻辑选择展位赠品。", "downloads": 26, "homepage": "https://clawhub.ai/weilun88313/booth-giveaway-planner", "iconUrl": null, "installs": 0, "name": "Booth Giveaway Planner", "ownerName": "weilun88313", "score": 46428.57142857143, "slug": "booth-giveaway-planner", "source": "clawhub", "stars": 0, "tags": null, "updated_at": 1776698684266, "version": "1.0.2"}, {"category": "", "created_at": 1775202693768, "description": "", "description_zh": "Detects quality issues in camera footage such as black/white screens, color cast, stripes, noise, and blurriness. Suitable for security surveillance and camera self-check scenarios. | 图像质量检测分析工具，检测摄像头画面出现的全黑、全白、偏色、条纹、雪花、模糊等质量问题，适用于安防监控、摄像头自检等场景", "downloads": 26, "homepage": "https://clawhub.ai/user_bb47e3e3/image-quality-detection-analysis", "iconUrl": null, "installs": 0, "name": "Image Quality Assessment Analysis Tool | 图像质量检测分析工具", "ownerName": "user_bb47e3e3", "score": 46428.57142857143, "slug": "image-quality-detection-analysis", "source": "community", "stars": 0, "tags": null, "updated_at": 1776698684259, "version": "1.0.0"}, {"category": "", "created_at": 1774853490401, "description": "Strict Conventional Commits v1.0.0, atomic commit discipline, and Trunk-Based Development guardrails for git work. Use when preparing a commit, staging chang...", "description_zh": "严格的约定式提交 v1.0.0、原子提交规范及主干开发准则。用于准备提交或暂存变更时。", "downloads": 26, "homepage": "https://clawhub.ai/omaression/commit-message-writing", "iconUrl": null, "installs": 0, "name": "Commit Message Validation", "ownerName": "omaression", "score": 46428.57142857143, "slug": "commit-message-writing", "source": "clawhub", "stars": 0, "tags": null, "updated_at": 1776698684258, "version": "1.0.0-alpha"}, {"category": "", "created_at": 1774915129986, "description": "CCA 领域2：工具设计与MCP集成（18%权重）。当用户说\"学domain2\"、\"工具设计\"、\"MCP集成\"、\"cca-domain2\"时使用。", "description_zh": "CCA 领域2：工具设计与MCP集成（18%权重）。当用户说\"学domain2\"、\"工具设计\"、\"MCP集成\"、\"cca-domain2\"时使用。", "downloads": 26, "homepage": "https://clawhub.ai/sawzhang/cca-domain2", "iconUrl": null, "installs": 0, "name": "Cca Domain2", "ownerName": "sawzhang", "score": 46428.57142857143, "slug": "cca-domain2", "source": "clawhub", "stars": 0, "tags": null, "updated_at": 1776698684251, "version": "1.0.0"}, {"category": "", "created_at": 1774887095787, "description": "LIME Go integration. Manage Organizations. Use when the user wants to interact with LIME Go data.", "description_zh": "LIME Go 集成。管理组织。当用户需要与 LIME Go 数据交互时使用。", "downloads": 26, "homepage": "https://clawhub.ai/gora050/lime-go", "iconUrl": null, "installs": 0, "name": "Lime Go", "ownerName": "gora050", "score": 46428.57142857143, "slug": "lime-go", "source": "clawhub", "stars": 0, "tags": null, "updated_at": 1776698684248, "version": "1.0.0"}, {"category": "", "created_at": 1774956404872, "description": "Provides data validation and type checking utilities for validating inputs and data structures. Use when you need to validate data types, check constraints,...", "description_zh": "提供数据验证和类型检查工具，用于验证输入和数据结构。在需要验证数据类型、检查约束条件时使用。", "downloads": 26, "homepage": "https://clawhub.ai/jpengcheng523-netizen/jpeng-validation-utils", "iconUrl": null, "installs": 0, "name": "validation-utils", "ownerName": "jpengcheng523-netizen", "score": 100000, "slug": "jpeng-validation-utils", "source": "clawhub", "stars": 0, "tags": null, "updated_at": 1776698684245, "version": "1.0.0"}, {"category": "", "created_at": 1774908622661, "description": "欧盟通用数据保护条例（GDPR）合规专用工具。当用户需要处理欧盟境内的数据保护、 GDPR合规检查、数据保护影响评估（DPIA）、数据主体权利保障、跨境数据传输等相关任务时使用此skill。 **Skill包含的核心工具**： - ✅ `gdpr-check.py` - 基础合规检查脚本 - ✅ `data-su...", "description_zh": "欧盟通用数据保护条例（GDPR）合规专用工具。当用户需要处理欧盟境内的数据保护、 GDPR合规检查、数据保护影响评估（DPIA）、数据主体权利保障、跨境数据传输等相关任务时使用此skill。 **Skill包含的核心工具**： - ✅ `gdpr-check.py` - 基础合规检查脚本 - ✅ `data-su...", "downloads": 26, "homepage": "https://clawhub.ai/wwumit/gpdr-compliance", "iconUrl": null, "installs": 0, "name": "GPDR-Compliance（GPDR合规工具）", "ownerName": "wwumit", "score": 100000, "slug": "gpdr-compliance", "source": "clawhub", "stars": 0, "tags": null, "updated_at": 1776698684243, "version": "1.0.2"}, {"category": "", "created_at": 1774878734087, "description": "Make HTTP requests from the command line with support for auth (Bearer, Basic, API key), custom headers, JSON/form body, response formatting, timing, and his...", "description_zh": "在命令行发起HTTP请求，支持身份验证（Bearer、Basic、API Key）、自定义请求头、JSON/表单请求体、响应格式化及耗时统计等功能。", "downloads": 26, "homepage": "https://clawhub.ai/johnnywang2001/jrv-http-client", "iconUrl": null, "installs": 0, "name": "Jrv Http Client", "ownerName": "johnnywang2001", "score": 100000, "slug": "jrv-http-client", "source": "clawhub", "stars": 0, "tags": null, "updated_at": 1776698684239, "version": "1.0.0"}, {"category": "", "created_at": 1774866843676, "description": "Handle errors and logging following project conventions. Use when implementing exception handling, adding logs, or when the user asks for error handling patt...", "description_zh": "遵循项目规范处理错误与日志。用于实现异常处理、添加日志或用户询问错误处理模式时。", "downloads": 26, "homepage": "https://clawhub.ai/laimiaohua/gi-error-handling", "iconUrl": null, "installs": 0, "name": "GI Error Handling", "ownerName": "laimiaohua", "score": 100000, "slug": "gi-error-handling", "source": "clawhub", "stars": 0, "tags": null, "updated_at": 1776698684237, "version": "1.0.0"}, {"category": "", "created_at": 1774955081701, "description": "Botstar integration. Manage data, records, and automate workflows. Use when the user wants to interact with Botstar data.", "description_zh": "Botstar集成。管理数据、记录并自动化工作流程。当用户需要与Botstar数据交互时使用。", "downloads": 26, "homepage": "https://clawhub.ai/gora050/botstar", "iconUrl": null, "installs": 0, "name": "Botstar", "ownerName": "gora050", "score": 100000, "slug": "botstar", "source": "clawhub", "stars": 0, "tags": null, "updated_at": 1776698684235, "version": "1.0.0"}, {"category": "", "created_at": 1774914246520, "description": "调用海康云眸开放平台设备通道管理接口，包括查询设备下通道列表、同步设备下通道、修改通道名称和同步设备通道名称。用户提到通道列表、通道同步、通道重命名、channelNo、channelName 等场景时使用。本技能自动处理 access_token 获取与刷新，不向用户暴露 token 调用流程。", "description_zh": "调用海康云眸开放平台设备通道管理接口，包括查询设备下通道列表、同步设备下通道、修改通道名称和同步设备通道名称。用户提到通道列表、通道同步、通道重命名、channelNo、channelName 等场景时使用。本技能自动处理 access_token 获取与刷新，不向用户暴露 token 调用流程。", "downloads": 26, "homepage": "https://clawhub.ai/liunian1010/hik-cloud-device-channel-management", "iconUrl": null, "installs": 0, "name": "Hik Cloud Device Channel Management", "ownerName": "liunian1010", "score": 100000, "slug": "hik-cloud-device-channel-management", "source": "clawhub", "stars": 0, "tags": null, "updated_at": 1776698684230, "version": "1.0.0"}, {"category": "", "created_at": 1774896634997, "description": "Lucca integration. Manage data, records, and automate workflows. Use when the user wants to interact with Lucca data.", "description_zh": "Lucca集成。管理数据、记录和自动化工作流程。当用户想要与Lucca数据交互时使用。", "downloads": 26, "homepage": "https://clawhub.ai/gora050/lucca", "iconUrl": null, "installs": 0, "name": "Lucca", "ownerName": "gora050", "score": 100000, "slug": "lucca", "source": "clawhub", "stars": 0, "tags": null, "updated_at": 1776698684226, "version": "1.0.0"}, {"category": "", "created_at": 1774920272484, "description": "Notion API for creating and managing pages, databases, and blocks.", "description_zh": "用于创建和管理页面、数据库及块的 Notion API。", "downloads": 26, "homepage": "https://clawhub.ai/nhuanlaptrinh/nhuann8n", "iconUrl": null, "installs": 1, "name": "hocnhanh_n8n", "ownerName": "nhuanlaptrinh", "score": 100000, "slug": "nhuann8n", "source": "clawhub", "stars": 0, "tags": null, "updated_at": 1776698684223, "version": "1.0.0"}, {"category": "", "created_at": 1774903342913, "description": "Information assistant for Lionel Messi 梅西. Get biography, latest news, career highlights, and social media updates.", "description_zh": "Information assistant for Lionel Messi 梅西. Get biography, latest news, career highlights, and social media updates.", "downloads": 26, "homepage": "https://clawhub.ai/hanxueyuan/messi", "iconUrl": null, "installs": 0, "name": "Messi", "ownerName": "hanxueyuan", "score": 100000, "slug": "messi", "source": "clawhub", "stars": 0, "tags": null, "updated_at": 1776698684221, "version": "0.1.1"}, {"category": "", "created_at": 1774898401089, "description": "Use the MCPHero Meta-MCP server inside AI clients (Claude Desktop, Cursor, etc.) to create, deploy, and manage MCP servers through the wizard pipeline. Use t...", "description_zh": "在AI客户端（如Claude Desktop、Cursor等）中使用MCPHero Meta-MCP服务器，通过向导流程创建、部署和管理MCP服务器。", "downloads": 26, "homepage": "https://clawhub.ai/arterialist/meta-mcp-creator", "iconUrl": null, "installs": 0, "name": "Create MCP Servers using Meta-MCP", "ownerName": "arterialist", "score": 100000, "slug": "meta-mcp-creator", "source": "clawhub", "stars": 0, "tags": null, "updated_at": 1776698684211, "version": "1.0.0"}, {"category": "", "created_at": 1774951306581, "description": "Create and redeem Linkdrop claim links from the command line with strict JSON output on Base, Polygon, Arbitrum, Optimism, and Avalanche.", "description_zh": "在命令行创建和兑换 Linkdrop 领币链接，严格 JSON 输出，支持 Base、Polygon、Arbitrum、Optimism 与 Avalanche 网络。", "downloads": 26, "homepage": "https://clawhub.ai/seichris/linkdrop-agent-cli", "iconUrl": null, "installs": 0, "name": "Linkdrop Agent CLI", "ownerName": "seichris", "score": 100000, "slug": "linkdrop-agent-cli", "source": "clawhub", "stars": 0, "tags": null, "updated_at": 1776698684208, "version": "1.0.0"}, {"category": "", "created_at": 1774914167116, "description": "Build and execute skills.video video generation REST requests from OpenAPI specs. Use when user needs to create, debug, or document video generation calls on...", "description_zh": "根据 OpenAPI 规范构建和执行 skills.video 视频生成 REST 请求。用于用户需要创建、调试或记录视频生成调用时。", "downloads": 26, "homepage": "https://clawhub.ai/skills-video/gen-video", "iconUrl": null, "installs": 0, "name": "Gen Video", "ownerName": "skills-video", "score": 100000, "slug": "gen-video", "source": "clawhub", "stars": 0, "tags": null, "updated_at": 1776698684203, "version": "1.0.1"}, {"category": "", "created_at": 1774954477987, "description": "Weekly retrospective that analyzes memory logs to identify accomplishments, recurring patterns, friction points, and forward-looking recommendations. More st...", "description_zh": "每周回顾：分析记忆日志，识别成就、重复模式、摩擦点，并提出前瞻性建议。还有更多…", "downloads": 26, "homepage": "https://clawhub.ai/newageinvestments25-byte/nai-weekly-retro", "iconUrl": null, "installs": 0, "name": "Weekly Retro", "ownerName": "newageinvestments25-byte", "score": 100000, "slug": "nai-weekly-retro", "source": "clawhub", "stars": 0, "tags": null, "updated_at": 1776698684197, "version": "1.0.0"}, {"category": "", "created_at": 1774898552513, "description": "Pendo integration. Manage Guides, Segments, Pages, Features, Feedbacks, Polls. Use when the user wants to interact with Pendo data.", "description_zh": "Pendo集成。管理指南、细分、页面、功能、反馈、投票。当用户希望与Pendo数据进行交互时使用。", "downloads": 26, "homepage": "https://clawhub.ai/gora050/pendo", "iconUrl": null, "installs": 0, "name": "Pendo", "ownerName": "gora050", "score": 100000, "slug": "pendo", "source": "clawhub", "stars": 0, "tags": null, "updated_at": 1776698684192, "version": "1.0.0"}, {"category": "", "created_at": 1774865839099, "description": "Calculate cold chain transport risks", "description_zh": "评估冷链运输风险", "downloads": 26, "homepage": "https://clawhub.ai/aipoch-ai/cold-chain-risk-calculator-2", "iconUrl": null, "installs": 0, "name": "Cold Chain Risk Calculator", "ownerName": "aipoch-ai", "score": 100000, "slug": "cold-chain-risk-calculator-2", "source": "clawhub", "stars": 0, "tags": null, "updated_at": 1776698684190, "version": "0.1.0"}, {"category": "", "created_at": 1774948586554, "description": "Real-time arrival information for Hong Kong Green Mini Buses (GMB). Supports fuzzy stop name matching and multi-region route lookup.", "description_zh": "香港绿色小巴(GMB)实时到站信息。支持模糊站点名称匹配及跨区路线查询。", "downloads": 26, "homepage": "https://clawhub.ai/stevenho1394/hk-gmb-arrival", "iconUrl": null, "installs": 0, "name": "Hong Kong Green Minibus Arrival", "ownerName": "stevenho1394", "score": 100000, "slug": "hk-gmb-arrival", "source": "clawhub", "stars": 0, "tags": null, "updated_at": 1776698684187, "version": "1.0.0"}, {"category": "", "created_at": 1774909616239, "description": "Criteo integration. Manage data, records, and automate workflows. Use when the user wants to interact with Criteo data.", "description_zh": "Criteo集成。管理数据与记录，自动化工作流。适用于用户需要与Criteo数据进行交互的场景。", "downloads": 26, "homepage": "https://clawhub.ai/gora050/criteo", "iconUrl": null, "installs": 0, "name": "Criteo", "ownerName": "gora050", "score": 100000, "slug": "criteo", "source": "clawhub", "stars": 0, "tags": null, "updated_at": 1776698684186, "version": "1.0.0"}, {"category": "", "created_at": 1774899305887, "description": "Analyze amm operations. Use when you need to understand amm mechanisms, evaluate protocol security, or reference on-chain concepts.", "description_zh": "分析AMM操作。用于理解AMM机制、评估协议安全性或参考链上概念。", "downloads": 26, "homepage": "https://clawhub.ai/bytesagain1/amm", "iconUrl": null, "installs": 0, "name": "Amm", "ownerName": "bytesagain1", "score": 100000, "slug": "amm", "source": "clawhub", "stars": 0, "tags": null, "updated_at": 1776698684183, "version": "1.0.0"}, {"category": "", "created_at": 1774862618492, "description": "NZ tax assistant for sole traders. Process receipt photos into IRD-ready GST reports, track sales income for GST Box 5, calculate IR3 annual income tax, prov...", "description_zh": "新西兰个体户税务助理：收据照片转IRD可用GST报告，追踪第5栏消费税收入，计算IR3年度所得税，提供税务建议。", "downloads": 26, "homepage": "https://clawhub.ai/maxazure/kiwi-receipts", "iconUrl": null, "installs": 0, "name": "Kiwi Receipts", "ownerName": "maxazure", "score": 100000, "slug": "kiwi-receipts", "source": "clawhub", "stars": 0, "tags": null, "updated_at": 1776698684175, "version": "2.0.1"}, {"category": "", "created_at": 1774904566768, "description": "Nusii Proposals integration. Manage Proposals, Clients, Templates, Users. Use when the user wants to interact with Nusii Proposals data.", "description_zh": "Nusii提案集成。管理提案、客户、模板和用户。当用户需要与Nusii提案数据交互时使用。", "downloads": 26, "homepage": "https://clawhub.ai/gora050/nusii-proposals", "iconUrl": null, "installs": 0, "name": "Nusii Proposals", "ownerName": "gora050", "score": 100000, "slug": "nusii-proposals", "source": "clawhub", "stars": 0, "tags": null, "updated_at": 1776698684171, "version": "1.0.0"}, {"category": "", "created_at": 1774843945029, "description": "Agent wellness & maintenance suite. Memory cleanup, security scanning, prompt injection detection, alignment adjustment, skills auditing, health diagnostics....", "description_zh": "智能体健康维护套件。包含记忆清理、安全扫描、提示注入检测、对齐校准、技能审计及健康诊断等功能。", "downloads": 26, "homepage": "https://clawhub.ai/whooshinglander/clawspa", "iconUrl": null, "installs": 0, "name": "ClawSpa", "ownerName": "whooshinglander", "score": 92857.14285714286, "slug": "clawspa", "source": "clawhub", "stars": 0, "tags": ["maintenance", "security", "wellness"], "updated_at": 1776698684168, "version": "1.3.0"}, {"category": "", "created_at": 1774904398628, "description": "Visualize Key Purchase Criteria importance and performance. Use for competitive positioning and product strategy.", "description_zh": "将关键购买标准的重要性和表现进行可视化，用于竞争定位与产品策略制定。", "downloads": 26, "homepage": "https://clawhub.ai/linuszz/kpc-comb", "iconUrl": null, "installs": 0, "name": "Kpc Comb", "ownerName": "linuszz", "score": 92857.14285714286, "slug": "kpc-comb", "source": "clawhub", "stars": 0, "tags": null, "updated_at": 1776698684164, "version": "1.0.0"}]}