{"page": 652, "total_pages": 685, "total": 34217, "skills": [{"category": "", "created_at": 1774877561729, "description": "查询品牌在GEO或NeoBoost中的可见度、健康度、快照、AI偏好分析、AI信源统计，管理主题词、提问词、竞品、素材、别名，使用AI内容生成、AI内容优化等内容。当用户询问类似内容时触发：（1）我的品牌在GEO中的概览（2）查看我的品牌可见度（3）品牌健康度（4）品牌提问词列表（5）竞品可见度数据", "description_zh": "查询品牌在GEO或NeoBoost中的可见度、健康度、快照、AI偏好分析、AI信源统计，管理主题词、提问词、竞品、素材、别名，使用AI内容生成、AI内容优化等内容。当用户询问类似内容时触发：（1）我的品牌在GEO中的概览（2）查看我的品牌可见度（3）品牌健康度（4）品牌提问词列表（5）竞品可见度数据", "downloads": 26, "homepage": "https://clawhub.ai/chinaberg/neoboost", "iconUrl": null, "installs": 0, "name": "NeoBoost GEO 服务", "ownerName": "chinaberg", "score": 92857.14285714286, "slug": "neoboost", "source": "clawhub", "stars": 0, "tags": null, "updated_at": 1776698684160, "version": "0.2.2"}, {"category": "", "created_at": 1774911835667, "description": "Kintone integration. Manage Apps, Users, Organizations, Groups, Views, Reports. Use when the user wants to interact with Kintone data.", "description_zh": "Kintone 集成。管理应用、用户、组织、群组、视图、报表。用于需要与 Kintone 数据交互的场景。", "downloads": 26, "homepage": "https://clawhub.ai/membranedev/kintone-integration", "iconUrl": null, "installs": 0, "name": "Kintone", "ownerName": "membranedev", "score": 92857.14285714286, "slug": "kintone-integration", "source": "clawhub", "stars": 0, "tags": null, "updated_at": 1776698684150, "version": "1.0.0"}, {"category": "", "created_at": 1774882857376, "description": "The SocialFi Layer for Agents on Base — trade tickets, post analysis, compete in seasons", "description_zh": "**Base 代理社交金融层 — 票务交易、分析发布、赛季竞技**", "downloads": 26, "homepage": "https://clawhub.ai/0xlaplaced/clawstars", "iconUrl": null, "installs": 0, "name": "ClawStars", "ownerName": "0xlaplaced", "score": 92857.14285714286, "slug": "clawstars", "source": "clawhub", "stars": 0, "tags": null, "updated_at": 1776698684146, "version": "1.2.3"}, {"category": "", "created_at": 1774948167570, "description": "Amentum Aerospace integration. Manage data, records, and automate workflows. Use when the user wants to interact with Amentum Aerospace data.", "description_zh": "Amentum Aerospace 集成。管理数据、记录并自动化工作流程。用于用户需要与 Amentum Aerospace 数据交互的场景。", "downloads": 26, "homepage": "https://clawhub.ai/gora050/amentum-aerospace", "iconUrl": null, "installs": 0, "name": "Amentum Aerospace", "ownerName": "gora050", "score": 92857.14285714286, "slug": "amentum-aerospace", "source": "clawhub", "stars": 0, "tags": null, "updated_at": 1776698684141, "version": "1.0.0"}, {"category": "", "created_at": 1774954342550, "description": "Goodbits integration. Manage Organizations, Leads, Projects, Users. Use when the user wants to interact with Goodbits data.", "description_zh": "Goodbits 集成，管理组织、潜在客户、项目和用户；用于用户与 Goodbits 数据交互。", "downloads": 26, "homepage": "https://clawhub.ai/gora050/goodbits", "iconUrl": null, "installs": 0, "name": "Goodbits", "ownerName": "gora050", "score": 92857.14285714286, "slug": "goodbits", "source": "clawhub", "stars": 0, "tags": null, "updated_at": 1776698684126, "version": "1.0.0"}, {"category": "", "created_at": 1774951254550, "description": "GiantCampaign integration. Manage Leads, Persons, Organizations, Deals, Projects, Activities and more. Use when the user wants to interact with GiantCampaign...", "description_zh": "GiantCampaign集成。管理潜在客户、联系人、组织、交易、项目和活动等。用于与GiantCampaign交互。", "downloads": 26, "homepage": "https://clawhub.ai/membranedev/giantcampaign", "iconUrl": null, "installs": 0, "name": "Giantcampaign", "ownerName": "membranedev", "score": 92857.14285714286, "slug": "giantcampaign", "source": "clawhub", "stars": 0, "tags": null, "updated_at": 1776698684123, "version": "1.0.0"}, {"category": "", "created_at": 1774880415437, "description": "Full-featured YAML toolkit for validating, formatting, converting, merging, and querying YAML files. Supports YAML-to-JSON, JSON-to-YAML, schema validation,...", "description_zh": "全功能YAML工具集，支持验证、格式化、转换、合并和查询YAML文件，支持YAML与JSON互转、模式验证等功能。", "downloads": 26, "homepage": "https://clawhub.ai/johnnywang2001/jrv-yaml-toolkit", "iconUrl": null, "installs": 0, "name": "Jrv Yaml Toolkit", "ownerName": "johnnywang2001", "score": 92857.14285714286, "slug": "jrv-yaml-toolkit", "source": "clawhub", "stars": 0, "tags": null, "updated_at": 1776698684121, "version": "1.0.0"}, {"category": "", "created_at": 1774894502224, "description": "收入追踪器 - 多平台收入记录、统计分析、趋势图表。适用于自由职业者、创作者、副业者。", "description_zh": "收入追踪器 - 多平台收入记录、统计分析、趋势图表。适用于自由职业者、创作者、副业者。", "downloads": 26, "homepage": "https://clawhub.ai/onlyloveher/cn-income-tracker", "iconUrl": null, "installs": 0, "name": "Income Tracker", "ownerName": "onlyloveher", "score": 92857.14285714286, "slug": "cn-income-tracker", "source": "clawhub", "stars": 0, "tags": null, "updated_at": 1776698684110, "version": "1.0.1"}, {"category": "", "created_at": 1774953056395, "description": "Practical protocol for rebuilding human connection during isolation. Use when someone feels lonely, isolated, has no friends in their area, struggles to make...", "description_zh": "实用的在隔离期间重建人际联系的方案。适用于感到孤独、与世隔绝、在当地没有朋友、难以建立联系的情况。", "downloads": 26, "homepage": "https://clawhub.ai/howtousehumans/loneliness-first-aid", "iconUrl": null, "installs": 1, "name": "Loneliness First Aid", "ownerName": "howtousehumans", "score": 92857.14285714286, "slug": "loneliness-first-aid", "source": "clawhub", "stars": 0, "tags": null, "updated_at": 1776698684108, "version": "1.0.0"}, {"category": "", "created_at": 1774897744376, "description": "ClickTime integration. Manage data, records, and automate workflows. Use when the user wants to interact with ClickTime data.", "description_zh": "ClickTime 集成。管理数据、记录并自动化工作流程。当用户需要与 ClickTime 数据交互时使用。", "downloads": 26, "homepage": "https://clawhub.ai/membranedev/clicktime", "iconUrl": null, "installs": 0, "name": "Clicktime", "ownerName": "membranedev", "score": 92857.14285714286, "slug": "clicktime", "source": "clawhub", "stars": 0, "tags": null, "updated_at": 1776698684098, "version": "1.0.0"}, {"category": "", "created_at": 1774890923186, "description": "Use when writing Cairo smart contracts for StarkNet, looking up syntax and types, defining storage and events, generating contract templates, or reviewing te...", "description_zh": "用于编写StarkNet的Cairo智能合约，查询语法和类型，定义存储与事件，生成合约模板或审查代码。", "downloads": 26, "homepage": "https://clawhub.ai/bytesagain1/cairo", "iconUrl": null, "installs": 0, "name": "Cairo", "ownerName": "bytesagain1", "score": 92857.14285714286, "slug": "cairo", "source": "clawhub", "stars": 0, "tags": null, "updated_at": 1776698684096, "version": "2.0.1"}, {"category": "", "created_at": 1774865962418, "description": "Foxy integration. Manage Organizations, Users, Goals, Filters. Use when the user wants to interact with Foxy data.", "description_zh": "Foxy集成。管理组织、用户、目标和过滤器。当用户希望与Foxy数据交互时使用。", "downloads": 26, "homepage": "https://clawhub.ai/gora050/foxy", "iconUrl": null, "installs": 0, "name": "Foxy", "ownerName": "gora050", "score": 92857.14285714286, "slug": "foxy", "source": "clawhub", "stars": 0, "tags": null, "updated_at": 1776698684088, "version": "1.0.0"}, {"category": "", "created_at": 1774906401064, "description": "A conversion decision system that analyzes customer intent, reveals hidden objections, and tells you exactly how to close the deal.", "description_zh": "分析客户意图、揭示潜在异议并精准指导成交的系统。", "downloads": 26, "homepage": "https://clawhub.ai/ninghenghub/closepilot", "iconUrl": null, "installs": 0, "name": "closepilot", "ownerName": "ninghenghub", "score": 92857.14285714286, "slug": "closepilot", "source": "clawhub", "stars": 0, "tags": ["ai", "closing", "conversion", "sale"], "updated_at": 1776698684086, "version": "1.0.0"}, {"category": "", "created_at": 1774899404992, "description": "Extract memorable quotes and passages from books. Get the most inspiring and thought-provoking quotes.", "description_zh": "从书中提取精彩引语和段落，获取最具启发性和思考性的名言。", "downloads": 26, "homepage": "https://clawhub.ai/heardlyapp/book-quotes", "iconUrl": null, "installs": 0, "name": "Book Quotes", "ownerName": "heardlyapp", "score": 92857.14285714286, "slug": "book-quotes", "source": "clawhub", "stars": 0, "tags": null, "updated_at": 1776698684073, "version": "1.0.0"}, {"category": "", "created_at": 1774947087978, "description": "宾利豪华车信息助手。提供车型查询、价格配置、性能参数、经销商、品牌历史等信息", "description_zh": "宾利豪华车信息助手。提供车型查询、价格配置、性能参数、经销商、品牌历史等信息", "downloads": 26, "homepage": "https://clawhub.ai/hanxueyuan/bentley", "iconUrl": null, "installs": 0, "name": "bentley", "ownerName": "hanxueyuan", "score": 92857.14285714286, "slug": "bentley", "source": "clawhub", "stars": 0, "tags": null, "updated_at": 1776698684071, "version": "0.2.0"}, {"category": "", "created_at": 1774887176532, "description": "Mint (purchase) an Art Blocks token using the artblocks-mcp tools. Use when a user wants to mint, purchase, or buy an Art Blocks NFT, or needs to understand...", "description_zh": "使用 artblocks-mcp 工具铸造（购买）Art Blocks 代币。当用户想要铸造、购买 Art Blocks NFT 或需要了解相关信息时使用。", "downloads": 26, "homepage": "https://clawhub.ai/ryley-o/mint-artblocks-token", "iconUrl": null, "installs": 0, "name": "Mint Artblocks Token", "ownerName": "ryley-o", "score": 92857.14285714286, "slug": "mint-artblocks-token", "source": "clawhub", "stars": 0, "tags": null, "updated_at": 1776698684067, "version": "1.0.0"}, {"category": "", "created_at": 1774874243221, "description": "把迁移方案整理成 runbook，补齐切换窗口、前置检查、回滚与验收信号。；use for migration, runbook, rollback workflows；do not use for 执行数据库改动, 忽略回滚条件.", "description_zh": "把迁移方案整理成 runbook，补齐切换窗口、前置检查、回滚与验收信号。；use for migration, runbook, rollback workflows；do not use for 执行数据库改动, 忽略回滚条件.", "downloads": 26, "homepage": "https://clawhub.ai/52yuanchangxing/migration-runbook-generator", "iconUrl": null, "installs": 0, "name": "Migration Runbook Generator", "ownerName": "52yuanchangxing", "score": 92857.14285714286, "slug": "migration-runbook-generator", "source": "clawhub", "stars": 0, "tags": null, "updated_at": 1776698684061, "version": "1.0.0"}, {"category": "", "created_at": 1774812470189, "description": "Generate images and videos using Vivago AI (智小象) platform. Supports text-to-image, image-to-image, image-to-video, and keyframe-to-video generation. Use when...", "description_zh": "Generate images and videos using Vivago AI (智小象) platform. Supports text-to-image, image-to-image, image-to-video, and keyframe-to-video generation. Use when...", "downloads": 26, "homepage": "https://clawhub.ai/zhy2015/hidream-model-gen", "iconUrl": null, "installs": 0, "name": "hidream-model-gen", "ownerName": "zhy2015", "score": 100000, "slug": "hidream-model-gen", "source": "clawhub", "stars": 0, "tags": null, "updated_at": 1776698684041, "version": "1.0.5"}, {"category": "", "created_at": 1774886816162, "description": "Reviews Elixir code for security vulnerabilities including code injection, atom exhaustion, and secret handling. Use when reviewing code handling user input,...", "description_zh": "审查 Elixir 代码安全漏洞，包括代码注入、原子耗尽及密钥处理。适用于审查处理用户输入的代码……", "downloads": 26, "homepage": "https://clawhub.ai/anderskev/elixir-security-review", "iconUrl": null, "installs": 0, "name": "Elixir Security Review", "ownerName": "anderskev", "score": 100000, "slug": "elixir-security-review", "source": "clawhub", "stars": 0, "tags": null, "updated_at": 1776698684039, "version": "1.2.0"}, {"category": "", "created_at": 1774847139234, "description": "提供周边洗车房查找、打蜡镀晶、内饰精洗及优惠套餐指引。", "description_zh": "提供周边洗车房查找、打蜡镀晶、内饰精洗及优惠套餐指引。", "downloads": 26, "homepage": "https://clawhub.ai/codekungfu/car-wash", "iconUrl": null, "installs": 0, "name": "Car Wash", "ownerName": "codekungfu", "score": 100000, "slug": "car-wash", "source": "clawhub", "stars": 0, "tags": null, "updated_at": 1776698684033, "version": "0.1.0"}, {"category": "", "created_at": 1774951936630, "description": "DocuSign integration. Manage data, records, and automate workflows. Use when the user wants to interact with DocuSign data.", "description_zh": "DocuSign 集成。管理数据、记录，自动化工作流程。用于用户需与 DocuSign 数据交互的场景。", "downloads": 26, "homepage": "https://clawhub.ai/gora050/docusign-integration", "iconUrl": null, "installs": 0, "name": "Docusign", "ownerName": "gora050", "score": 100000, "slug": "docusign-integration", "source": "clawhub", "stars": 0, "tags": null, "updated_at": 1776698684031, "version": "1.0.0"}, {"category": "", "created_at": 1774893071861, "description": "Validate email addresses with syntax checks (RFC 5322), MX record verification, disposable/temporary email detection, and common typo suggestions. Use when v...", "description_zh": "验证电子邮件地址，支持RFC 5322语法检查、MX记录验证、一次性/临时邮箱检测以及常见拼写错误建议。", "downloads": 26, "homepage": "https://clawhub.ai/johnnywang2001/jrv-email-validator", "iconUrl": null, "installs": 0, "name": "Email Validator", "ownerName": "johnnywang2001", "score": 100000, "slug": "jrv-email-validator", "source": "clawhub", "stars": 0, "tags": null, "updated_at": 1776698684028, "version": "1.0.0"}, {"category": "", "created_at": 1774922930052, "description": "Billions decentralized identity for agents. Link agents to human identities using Billions ERC-8004 and Attestation Registries. Verify and generate authentic...", "description_zh": "Billions智能体去中心化身份。通过Billions ERC-8004和证明注册表将智能体与人类身份绑定，验证并生成真实的...", "downloads": 26, "homepage": "https://clawhub.ai/karan9074/my-verified-agent", "iconUrl": null, "installs": 0, "name": "My Verified Agent", "ownerName": "karan9074", "score": 100000, "slug": "my-verified-agent", "source": "clawhub", "stars": 0, "tags": null, "updated_at": 1776698684023, "version": "1.0.0"}, {"category": "", "created_at": 1774906723010, "description": "Analyze barriers to market entry and exit. Use for market attractiveness assessment, competitive dynamics, and strategic planning.", "description_zh": "分析市场进入和退出壁垒，用于市场吸引力评估、竞争动态分析和战略规划。", "downloads": 26, "homepage": "https://clawhub.ai/linuszz/market-entry-exit", "iconUrl": null, "installs": 0, "name": "Market Entry Exit", "ownerName": "linuszz", "score": 100000, "slug": "market-entry-exit", "source": "clawhub", "stars": 0, "tags": null, "updated_at": 1776698684013, "version": "1.0.0"}, {"category": "", "created_at": 1774918502224, "description": "NewsCatcher integration. Manage Topics. Use when the user wants to interact with NewsCatcher data.", "description_zh": "NewsCatcher 集成。管理主题。用于用户想要与 NewsCatcher 数据交互时。", "downloads": 26, "homepage": "https://clawhub.ai/gora050/newscatcher", "iconUrl": null, "installs": 1, "name": "Newscatcher", "ownerName": "gora050", "score": 100000, "slug": "newscatcher", "source": "clawhub", "stars": 0, "tags": null, "updated_at": 1776698684007, "version": "1.0.0"}, {"category": "", "created_at": 1774830240927, "description": "Tells you if a startup idea is worth building — in 60 seconds. Use when a user wants to evaluate, validate, or score a startup idea; asks \"should I build thi...", "description_zh": "60秒内判断创业想法是否值得做。用于评估、验证或评分创业想法，回答\"我应该做这个吗\"等问题。", "downloads": 26, "homepage": "https://clawhub.ai/rednix/lobstr", "iconUrl": null, "installs": 0, "name": "Lobstr", "ownerName": "rednix", "score": 100000, "slug": "lobstr", "source": "clawhub", "stars": 0, "tags": null, "updated_at": 1776698684005, "version": "0.3.0"}, {"category": "", "created_at": 1774866041220, "description": "Generate a video task based on user-provided text and images (supports image URLs and local file paths), and submit it to a remote video service using an API...", "description_zh": "根据用户提供的文本和图片（支持URL和本地路径）生成视频任务，并通过API提交至远程视频服务...", "downloads": 26, "homepage": "https://clawhub.ai/leizhang-magiclight/magic-image-to-video", "iconUrl": null, "installs": 0, "name": "magic-image-to-video", "ownerName": "leizhang-magiclight", "score": 100000, "slug": "magic-image-to-video", "source": "clawhub", "stars": 0, "tags": null, "updated_at": 1776698684004, "version": "1.0.1"}, {"category": "", "created_at": 1774859670164, "description": "Dieser Skill ermöglicht die Abfrage von Statusinformationen und die Steuerung einer AVM FRITZ!Box über die TR-064 Schnittstelle. Er bietet Funktionen für Sta...", "description_zh": "此技能通过TR-064接口实现对AVM FRITZ!Box的状态信息查询与控制，提供状态监控及设备管理等功能。", "downloads": 26, "homepage": "https://clawhub.ai/wolf128058/fritz-connection", "iconUrl": null, "installs": 0, "name": "Fritz Connection", "ownerName": "wolf128058", "score": 100000, "slug": "fritz-connection", "source": "clawhub", "stars": 0, "tags": null, "updated_at": 1776698683980, "version": "1.0.0"}, {"category": "", "created_at": 1774918179396, "description": "Generate images by customizing a URL. Drop the URL into websites, presentations, PDFs, or anywhere that loads images.", "description_zh": "通过自定义URL生成图片，可将该URL嵌入网站、演示文稿、PDF或任何支持加载图片的地方。", "downloads": 26, "homepage": "https://clawhub.ai/jverlee/imglink", "iconUrl": null, "installs": 0, "name": "ImgLink", "ownerName": "jverlee", "score": 100000, "slug": "imglink", "source": "clawhub", "stars": 0, "tags": null, "updated_at": 1776698683975, "version": "1.0.2"}, {"category": "", "created_at": 1774953012550, "description": "Knack integration. Manage Organizations. Use when the user wants to interact with Knack data.", "description_zh": "Knack集成，管理组织，用于用户想与Knack数据交互时", "downloads": 26, "homepage": "https://clawhub.ai/gora050/knack", "iconUrl": null, "installs": 0, "name": "Knack", "ownerName": "gora050", "score": 100000, "slug": "knack", "source": "clawhub", "stars": 0, "tags": null, "updated_at": 1776698683973, "version": "1.0.0"}, {"category": "", "created_at": 1774953852056, "description": "Kandy integration. Manage data, records, and automate workflows. Use when the user wants to interact with Kandy data.", "description_zh": "Kandy 集成，管理数据、记录并自动化工作流程，适用于用户与 Kandy 数据交互的场景。", "downloads": 26, "homepage": "https://clawhub.ai/gora050/kandy", "iconUrl": null, "installs": 0, "name": "Kandy", "ownerName": "gora050", "score": 100000, "slug": "kandy", "source": "clawhub", "stars": 0, "tags": null, "updated_at": 1776698683969, "version": "1.0.0"}, {"category": "", "created_at": 1774954214637, "description": "DIY Video Editor — Edit Home Improvement and Renovation Project Videos with AI. The bathroom renovation took three weekends and you filmed every demolition s...", "description_zh": "DIY视频编辑器——使用AI编辑家装和翻新项目视频。浴室翻新耗时三个周末，你拍摄了每一个拆除步骤...", "downloads": 26, "homepage": "https://clawhub.ai/nemovideonemo/diy-video-editor", "iconUrl": null, "installs": 0, "name": "Diy Video Editor", "ownerName": "nemovideonemo", "score": 100000, "slug": "diy-video-editor", "source": "clawhub", "stars": 0, "tags": null, "updated_at": 1776698683966, "version": "1.0.0"}, {"category": "", "created_at": 1774872813115, "description": "Wallet profiler — balance, PnL, labels, transactions, counterparties, related wallets, batch, trace, compare. Use when analysing a specific wallet address or...", "description_zh": "钱包分析器——余额、盈亏、标签、交易记录、交易对手、关联钱包、批量分析、追踪溯源、对比功能。用于分析特定钱包地址。", "downloads": 26, "homepage": "https://clawhub.ai/nansen-devops/nansen-wallet-profiler", "iconUrl": null, "installs": 0, "name": "Nansen Wallet Profiler", "ownerName": "nansen-devops", "score": 100000, "slug": "nansen-wallet-profiler", "source": "clawhub", "stars": 0, "tags": null, "updated_at": 1776698683963, "version": "0.1.0"}, {"category": "", "created_at": 1774956508015, "description": "Neetoinvoice integration. Manage Invoices, Clients, Users, Payments. Use when the user wants to interact with Neetoinvoice data.", "description_zh": "Neetoinvoice 集成。管理发票、客户、用户、付款。用户想要与 Neetoinvoice 数据交互时使用。", "downloads": 26, "homepage": "https://clawhub.ai/gora050/neetoinvoice", "iconUrl": null, "installs": 0, "name": "Neetoinvoice", "ownerName": "gora050", "score": 100000, "slug": "neetoinvoice", "source": "clawhub", "stars": 0, "tags": null, "updated_at": 1776698683961, "version": "1.0.0"}, {"category": "", "created_at": 1774924146417, "description": "Graceblocks integration. Manage Organizations, Users. Use when the user wants to interact with Graceblocks data.", "description_zh": "Graceblocks集成。管理组织与用户。用于用户需与Graceblocks数据交互时。", "downloads": 26, "homepage": "https://clawhub.ai/gora050/graceblocks", "iconUrl": null, "installs": 0, "name": "Graceblocks", "ownerName": "gora050", "score": 100000, "slug": "graceblocks", "source": "clawhub", "stars": 0, "tags": null, "updated_at": 1776698683958, "version": "1.0.0"}, {"category": "", "created_at": 1774895270639, "description": "Control and inspect PiKVM devices over the PiKVM HTTP API. Use when asked to operate a PiKVM, query power or HID status, type text or shortcuts remotely, tak...", "description_zh": "通过 PiKVM HTTP API 控制和检查 PiKVM 设备。用于在要求操作 PiKVM、查询电源或 HID 状态、远程输入文本或快捷键、截取屏幕等情形。", "downloads": 26, "homepage": "https://clawhub.ai/didyouexpectthat/pikvm", "iconUrl": null, "installs": 1, "name": "PiKVM", "ownerName": "didyouexpectthat", "score": 100000, "slug": "pikvm", "source": "clawhub", "stars": 0, "tags": null, "updated_at": 1776698683954, "version": "1.0.1"}, {"category": "", "created_at": 1774926079744, "description": "Payhere integration. Manage Organizations, Users. Use when the user wants to interact with Payhere data.", "description_zh": "Payhere集成。管理组织和用户。当用户需要与Payhere数据交互时使用。", "downloads": 26, "homepage": "https://clawhub.ai/gora050/payhere", "iconUrl": null, "installs": 0, "name": "Payhere", "ownerName": "gora050", "score": 100000, "slug": "payhere", "source": "clawhub", "stars": 0, "tags": null, "updated_at": 1776698683952, "version": "1.0.0"}, {"category": "", "created_at": 1774871571841, "description": "为OpenClaw提供企业级安全配置和监控功能，解决高系统权限带来的安全风险，符合金融合规要求。", "description_zh": "为OpenClaw提供企业级安全配置和监控功能，解决高系统权限带来的安全风险，符合金融合规要求。", "downloads": 26, "homepage": "https://clawhub.ai/2389275723/openclaw-security-skill", "iconUrl": null, "installs": 0, "name": "OpenClaw Security Configurator", "ownerName": "2389275723", "score": 100000, "slug": "openclaw-security-skill", "source": "clawhub", "stars": 0, "tags": ["alipay", "compliance", "enterprise", "monitoring", "security", "token-optimization"], "updated_at": 1776698683949, "version": "1.0.1"}, {"category": "", "created_at": 1774948504459, "description": "帮助地球人做人生选择的 AI 判断技能 - 你只管 do it，判断交给滚滚", "description_zh": "帮助地球人做人生选择的 AI 判断技能 - 你只管 do it，判断交给滚滚", "downloads": 26, "homepage": "https://clawhub.ai/alsoforever/do-it-gungun", "iconUrl": null, "installs": 0, "name": "do-it-gungun - 滚滚判断", "ownerName": "alsoforever", "score": 100000, "slug": "do-it-gungun", "source": "clawhub", "stars": 0, "tags": null, "updated_at": 1776698683947, "version": "1.0.0"}, {"category": "", "created_at": 1774873935627, "description": "OpenClawエージェントの構築に必要なすべてのテンプレートを含むスターターキット。SOUL.md, IDENTITY.md, AGENTS.md, USER.md, HEARTBEAT.mdの完全なテンプレートとカスタマイズガイド。", "description_zh": "OpenClawエージェントの構築に必要なすべてのテンプレートを含むスターターキット。SOUL.md, IDENTITY.md, AGENTS.md, USER.md, HEARTBEAT.mdの完全なテンプレートとカスタマイズガイド。", "downloads": 26, "homepage": "https://clawhub.ai/hirofumiko/fumi-agent-starter-kit", "iconUrl": null, "installs": 0, "name": "Agent Starter Kit", "ownerName": "hirofumiko", "score": 100000, "slug": "fumi-agent-starter-kit", "source": "clawhub", "stars": 0, "tags": null, "updated_at": 1776698683945, "version": "1.0.0"}, {"category": "", "created_at": 1774871296470, "description": "聚合数据IP归属地查询V3.0，支持IPv4查询国家/省份/城市/运营商", "description_zh": "聚合数据IP归属地查询V3.0，支持IPv4查询国家/省份/城市/运营商", "downloads": 26, "homepage": "https://clawhub.ai/365bug/ip-new", "iconUrl": null, "installs": 0, "name": "IP归属查询", "ownerName": "365bug", "score": 100000, "slug": "ip-new", "source": "clawhub", "stars": 0, "tags": null, "updated_at": 1776698683943, "version": "1.0.1"}, {"category": "", "created_at": 1774922524756, "description": "DeTrack integration. Manage Organizations, Users, Goals, Filters. Use when the user wants to interact with DeTrack data.", "description_zh": "DeTrack 集成。管理组织、用户、目标、筛选器。在用户想要与 DeTrack 数据交互时使用。", "downloads": 26, "homepage": "https://clawhub.ai/gora050/detrack", "iconUrl": null, "installs": 0, "name": "Detrack", "ownerName": "gora050", "score": 100000, "slug": "detrack", "source": "clawhub", "stars": 0, "tags": null, "updated_at": 1776698683942, "version": "1.0.0"}, {"category": "", "created_at": 1774885500279, "description": "Cutt.ly integration. Manage Links. Use when the user wants to interact with Cutt.ly data.", "description_zh": "Cutt.ly 集成。管理链接。用户需与 Cutt.ly 数据交互时使用。", "downloads": 26, "homepage": "https://clawhub.ai/membranedev/cuttly", "iconUrl": null, "installs": 0, "name": "Cuttly", "ownerName": "membranedev", "score": 100000, "slug": "cuttly", "source": "clawhub", "stars": 0, "tags": null, "updated_at": 1776698683938, "version": "1.0.0"}, {"category": "", "created_at": 1774910701597, "description": "Fill book match results (匹配结果) and Amazon links (书籍链接) into a Feishu Bitable by querying Amazon with ISBN. Use when asked to match books, fill 匹配结果, 填充书籍链接,...", "description_zh": "Fill book match results (匹配结果) and Amazon links (书籍链接) into a Feishu Bitable by querying Amazon with ISBN. Use when asked to match books, fill 匹配结果, 填充书籍链接,...", "downloads": 26, "homepage": "https://clawhub.ai/jakliao/feishu-book-match", "iconUrl": null, "installs": 0, "name": "Feishu Book Match", "ownerName": "jakliao", "score": 100000, "slug": "feishu-book-match", "source": "clawhub", "stars": 0, "tags": null, "updated_at": 1776698683935, "version": "1.0.0"}, {"category": "", "created_at": 1774949312083, "description": "Decompose complex physical tasks into atomic subtasks for robot execution. Use when user provides: (1) An image showing a physical scene (indoor/outdoor), an...", "description_zh": "将复杂物理任务分解为可由机器人执行的原子子任务。当用户提供以下信息时使用：(1) 展示物理场景（室内/室外）的图像，...", "downloads": 26, "homepage": "https://clawhub.ai/nanaoisong/embodied-task-decomposition", "iconUrl": null, "installs": 1, "name": "Embodied Task Decomposition", "ownerName": "nanaoisong", "score": 100000, "slug": "embodied-task-decomposition", "source": "clawhub", "stars": 0, "tags": null, "updated_at": 1776698683933, "version": "1.0.0"}, {"category": "", "created_at": 1774865108789, "description": "Reference tool for devtools — covers intro, quickstart, patterns and more. Quick lookup for ORM Builder concepts, best practices, and implementation patterns.", "description_zh": "开发工具参考指南——含入门、快速启动、模式等；ORM 构建器概念、最佳实践与实现模式的快速查询。", "downloads": 26, "homepage": "https://clawhub.ai/bytesagain1/orm-builder", "iconUrl": null, "installs": 0, "name": "Orm Builder", "ownerName": "bytesagain1", "score": 100000, "slug": "orm-builder", "source": "clawhub", "stars": 0, "tags": null, "updated_at": 1776698683929, "version": "2.0.2"}, {"category": "", "created_at": 1774922995487, "description": "OPN integration. Manage Organizations, Pipelines, Users, Goals, Filters. Use when the user wants to interact with OPN data.", "description_zh": "OPN集成。管理组织、管道、用户、目标、筛选器。用户需要与OPN数据交互时使用。", "downloads": 26, "homepage": "https://clawhub.ai/gora050/opn", "iconUrl": null, "installs": 0, "name": "Opn", "ownerName": "gora050", "score": 100000, "slug": "opn", "source": "clawhub", "stars": 0, "tags": null, "updated_at": 1776698683924, "version": "1.0.0"}, {"category": "", "created_at": 1774911806269, "description": "Orchestration skill that processes raw work-item data from Slack, GitHub, calendar, Notion, Trello, and email — supplied by the caller or by other OpenClaw t...", "description_zh": "编排技能，处理来自 Slack、GitHub、日历、Notion、Trello 与邮件的原始工作项数据，由调用方或其他 OpenClaw 组件提供。", "downloads": 26, "homepage": "https://clawhub.ai/honouralexwill/inbox-to-action-closer", "iconUrl": null, "installs": 0, "name": "Inbox to Action Closer", "ownerName": "honouralexwill", "score": 100000, "slug": "inbox-to-action-closer", "source": "clawhub", "stars": 0, "tags": null, "updated_at": 1776698683914, "version": "1.1.0"}, {"category": "", "created_at": 1774917135439, "description": "Pidj integration. Manage Persons, Organizations, Deals, Leads, Projects, Activities and more. Use when the user wants to interact with Pidj data.", "description_zh": "Pidj 集成。管理联系人、组织、交易、线索、项目、活动等。用于用户需要与 Pidj 数据交互时。", "downloads": 26, "homepage": "https://clawhub.ai/gora050/pidj", "iconUrl": null, "installs": 0, "name": "Pidj", "ownerName": "gora050", "score": 100000, "slug": "pidj", "source": "clawhub", "stars": 0, "tags": null, "updated_at": 1776698683912, "version": "1.0.0"}, {"category": "", "created_at": 1775722634786, "description": "", "description_zh": "专家级问题解决协议 v2.0 — Agentic Workflow 版本。将模糊问题转化为专业级解决方案的强制执行协议，包含零阶段预处理、一阶段专家定位、二阶段深度扮演。动态专家记录已升级为 JSON 数据架构，每次调用 pending 状态专家时强制触发反馈闭环。", "downloads": 26, "homepage": "https://clawhub.ai/user_2e79cfee/expert-problem-solving", "iconUrl": null, "installs": 0, "name": "expert-problem-solving", "ownerName": "user_2e79cfee", "score": 100000, "slug": "expert-problem-solving", "source": "community", "stars": 0, "tags": null, "updated_at": 1776698683908, "version": "1.0.0"}]}