{"page": 653, "total_pages": 685, "total": 34217, "skills": [{"category": "", "created_at": 1774911842969, "description": "Account v1 API skill. Use when working with Account v1 for custom_policy, fulfillment_policy, payment_policy. Covers 37 endpoints.", "description_zh": "{\n  \"answer\": \"Account v1 API技能。用于处理custom_policy、fulfillment_policy、payment_policy。涵盖37个端点。\"\n}", "downloads": 26, "homepage": "https://clawhub.ai/mickmicksh/lap-account-v1-api", "iconUrl": null, "installs": 0, "name": "Lap Account V1 Api", "ownerName": "mickmicksh", "score": 100000, "slug": "lap-account-v1-api", "source": "clawhub", "stars": 0, "tags": null, "updated_at": 1776698683906, "version": "1.0.0"}, {"category": "", "created_at": 1774891667298, "description": "Mode integration. Manage Organizations. Use when the user wants to interact with Mode data.", "description_zh": "Mode 集成，管理组织。用户需要与 Mode 数据交互时使用。", "downloads": 26, "homepage": "https://clawhub.ai/gora050/mode", "iconUrl": null, "installs": 0, "name": "Mode", "ownerName": "gora050", "score": 100000, "slug": "mode", "source": "clawhub", "stars": 0, "tags": null, "updated_at": 1776698683902, "version": "1.0.0"}, {"category": "", "created_at": 1774894992052, "description": "Intuiface integration. Manage Experiences. Use when the user wants to interact with Intuiface data.", "description_zh": "Intuiface集成，管理Experience，用于与Intuiface数据交互。", "downloads": 26, "homepage": "https://clawhub.ai/gora050/intuiface", "iconUrl": null, "installs": 0, "name": "Intuiface", "ownerName": "gora050", "score": 100000, "slug": "intuiface", "source": "clawhub", "stars": 0, "tags": null, "updated_at": 1776698683895, "version": "1.0.0"}, {"category": "", "created_at": 1774887657676, "description": "Forge a complete lobster soul for your OpenClaw AI Agent. Choose a direction or pull a gacha draw — outputs identity positioning, soul description (SOUL.md),...", "description_zh": "为您的 OpenClaw AI Agent 锻造完整的龙虾之魂。选择方向或进行抽卡，输出身份定位、灵魂描述（SOUL.md）等。", "downloads": 26, "homepage": "https://clawhub.ai/eamanc-lab/openclaw-soul-forge", "iconUrl": null, "installs": 1, "name": "OpenClaw Lobster Soul Forge", "ownerName": "eamanc-lab", "score": 100000, "slug": "openclaw-soul-forge", "source": "clawhub", "stars": 0, "tags": null, "updated_at": 1776698683893, "version": "1.1.0"}, {"category": "", "created_at": 1774874359104, "description": "Inspect token usage from local OpenClaw transcripts across a specified time range. Use when the user asks how many tokens were consumed in OpenClaw, GitHub C...", "description_zh": "检查指定时间范围内本地 OpenClaw 转录文件中的 Token 使用情况。当用户询问 OpenClaw、GitHub C... 中消耗了多少 Token 时使用。", "downloads": 26, "homepage": "https://clawhub.ai/lujohn74/openclaw-token-usage", "iconUrl": null, "installs": 1, "name": "OpenClaw Token Usage", "ownerName": "lujohn74", "score": 100000, "slug": "openclaw-token-usage", "source": "clawhub", "stars": 0, "tags": null, "updated_at": 1776698683890, "version": "1.2.0"}, {"category": "", "created_at": 1774919656697, "description": "Monitor major competitors' discounting and promotional moves, diagnose whether those moves plausibly caused a sudden drop in your own conversion rate, and de...", "description_zh": "监控主要竞争对手的折扣和促销动向，判断其是否导致自身转化率骤降，并决定…", "downloads": 26, "homepage": "https://clawhub.ai/rijoyai/competitor-offer-monitor", "iconUrl": null, "installs": 1, "name": "Competitor Offer Monitor", "ownerName": "rijoyai", "score": 100000, "slug": "competitor-offer-monitor", "source": "clawhub", "stars": 0, "tags": null, "updated_at": 1776698683888, "version": "1.0.0"}, {"category": "", "created_at": 1774894516095, "description": "Configure PostParam (Post-Mint Parameter / PMP) values on Art Blocks tokens using artblocks-mcp. Use when a user wants to customize, update, or set on-chain...", "description_zh": "使用 artblocks-mcp 配置 Art Blocks 代币的 PostParam（铸造后参数/PMP）值，用于用户自定义、更新或设置链上参数时。", "downloads": 26, "homepage": "https://clawhub.ai/ryley-o/configure-postparams", "iconUrl": null, "installs": 0, "name": "Configure Postparams", "ownerName": "ryley-o", "score": 100000, "slug": "configure-postparams", "source": "clawhub", "stars": 0, "tags": null, "updated_at": 1776698683886, "version": "1.0.0"}, {"category": "", "created_at": 1774918034968, "description": "Apache Feather/Arrow IPC format reference. V1 vs V2 format differences, pyarrow.feather read/write with compression, R arrow package integration, Arrow type...", "description_zh": "Apache Feather/Arrow IPC 格式参考。V1 与 V2 格式差异，pyarrow.feather 压缩读写，R arrow 包集成，Arrow 类型。", "downloads": 26, "homepage": "https://clawhub.ai/bytesagain1/feather", "iconUrl": null, "installs": 0, "name": "Feather", "ownerName": "bytesagain1", "score": 100000, "slug": "feather", "source": "clawhub", "stars": 0, "tags": null, "updated_at": 1776698683881, "version": "1.0.0"}, {"category": "", "created_at": 1774868964764, "description": "Reference tool for devtools — covers intro, quickstart, patterns and more. Quick lookup for Lunardate concepts, best practices, and implementation patterns.", "description_zh": "开发工具参考手册，涵盖入门介绍、快速开始、使用模式等内容。支持快速查阅农历相关概念、最佳实践及实现模式。", "downloads": 26, "homepage": "https://clawhub.ai/xueyetianya/lunardate", "iconUrl": null, "installs": 1, "name": "Lunardate", "ownerName": "xueyetianya", "score": 100000, "slug": "lunardate", "source": "clawhub", "stars": 0, "tags": null, "updated_at": 1776698683867, "version": "2.0.2"}, {"category": "", "created_at": 1774918423188, "description": "Defragment and optimize agent memory files by cleaning duplicates, merging similar entries, archiving stale content, and ensuring proper tiering. Use when: (...", "description_zh": "对代理记忆文件进行碎片整理和优化，清理重复项、合并相似条目、归档陈旧内容并确保层级划分合理。适用场景：(...", "downloads": 26, "homepage": "https://clawhub.ai/klemenska/memory-defragmenter", "iconUrl": null, "installs": 1, "name": "Memory Defragmenter", "ownerName": "klemenska", "score": 100000, "slug": "memory-defragmenter", "source": "clawhub", "stars": 0, "tags": null, "updated_at": 1776698683855, "version": "1.0.1"}, {"category": "", "created_at": 1774848720371, "description": "Generate CSS Flexbox layouts using interactive CLI commands. Use when building responsive flex containers, rows, columns, or alignment configurations.", "description_zh": "使用交互式 CLI 命令生成 CSS Flexbox 布局。适用于构建响应式弹性容器、行列或对齐配置。", "downloads": 26, "homepage": "https://clawhub.ai/bytesagain1/flex", "iconUrl": null, "installs": 0, "name": "Flex", "ownerName": "bytesagain1", "score": 100000, "slug": "flex", "source": "clawhub", "stars": 0, "tags": null, "updated_at": 1776698683853, "version": "1.0.0"}, {"category": "", "created_at": 1774906665501, "description": "Insites integration. Manage Organizations, Pipelines, Users, Filters, Activities, Notes and more. Use when the user wants to interact with Insites data.", "description_zh": "Insites集成。管理组织、管道、用户、筛选器、活动、笔记等。用于与Insites数据交互。", "downloads": 26, "homepage": "https://clawhub.ai/gora050/insites", "iconUrl": null, "installs": 0, "name": "Insites", "ownerName": "gora050", "score": 100000, "slug": "insites", "source": "clawhub", "stars": 0, "tags": null, "updated_at": 1776698683847, "version": "1.0.0"}, {"category": "", "created_at": 1774904196176, "description": "DIMDATA integration. Manage data, records, and automate workflows. Use when the user wants to interact with DIMDATA data.", "description_zh": "DIMDATA集成。管理数据、记录，自动化工作流程。在用户需要与DIMDATA数据交互时使用。", "downloads": 26, "homepage": "https://clawhub.ai/gora050/dimdata", "iconUrl": null, "installs": 0, "name": "Dimdata", "ownerName": "gora050", "score": 100000, "slug": "dimdata", "source": "clawhub", "stars": 0, "tags": null, "updated_at": 1776698683841, "version": "1.0.0"}, {"category": "", "created_at": 1774902193683, "description": "Generate secure passwords, passphrases, and PINs with entropy analysis. Use when the user needs a random password, passphrase, PIN, or wants to check how str...", "description_zh": "生成安全密码、口令与 PIN，含熵分析。用于随机密码、口令、PIN 生成或强度检查。", "downloads": 26, "homepage": "https://clawhub.ai/johnnywang2001/jrv-password-gen", "iconUrl": null, "installs": 0, "name": "Password Gen", "ownerName": "johnnywang2001", "score": 100000, "slug": "jrv-password-gen", "source": "clawhub", "stars": 0, "tags": null, "updated_at": 1776698683839, "version": "1.0.0"}, {"category": "", "created_at": 1774952923918, "description": "Groundlight integration. Manage data, records, and automate workflows. Use when the user wants to interact with Groundlight data.", "description_zh": "Groundlight集成。管理数据、记录并自动化工作流。当用户想要与Groundlight数据交互时使用。", "downloads": 26, "homepage": "https://clawhub.ai/gora050/groundlight", "iconUrl": null, "installs": 0, "name": "Groundlight", "ownerName": "gora050", "score": 100000, "slug": "groundlight", "source": "clawhub", "stars": 0, "tags": null, "updated_at": 1776698683837, "version": "1.0.0"}, {"category": "", "created_at": 1774952869397, "description": "Use this skill when an agent needs to install, update, authenticate, or operate the FactuCat CLI to create Mexican CFDI 4.0 invoice drafts, assign customers...", "description_zh": "当代理需要安装、更新、认证或操作 FactuCat CLI 来创建墨西哥 CFDI 4.0 发票草稿、分配客户等时使用此技能。", "downloads": 26, "homepage": "https://clawhub.ai/ocruzv/factucat-cli", "iconUrl": null, "installs": 0, "name": "FactuCat CLI", "ownerName": "ocruzv", "score": 100000, "slug": "factucat-cli", "source": "clawhub", "stars": 0, "tags": null, "updated_at": 1776698683835, "version": "1.0.0"}, {"category": "", "created_at": 1774905398286, "description": "Find nearby conference centers. Invoke when user asks for conference venues near me.", "description_zh": "{\"answer\":\"查找附近的会议中心。当用户询问“附近的会议场所”时调用。\"}", "downloads": 26, "homepage": "https://clawhub.ai/codekungfu/conference-centers", "iconUrl": null, "installs": 0, "name": "Nearby Conference Centers", "ownerName": "codekungfu", "score": 100000, "slug": "conference-centers", "source": "clawhub", "stars": 0, "tags": null, "updated_at": 1776698683825, "version": "0.1.0"}, {"category": "", "created_at": 1774888207687, "description": "Mailercloud integration. Manage Organizations, Users. Use when the user wants to interact with Mailercloud data.", "description_zh": "Mailercloud 集成，管理组织和用户，用于用户需要与 Mailercloud 数据交互的场景。", "downloads": 26, "homepage": "https://clawhub.ai/gora050/mailercloud", "iconUrl": null, "installs": 0, "name": "Mailercloud", "ownerName": "gora050", "score": 100000, "slug": "mailercloud", "source": "clawhub", "stars": 0, "tags": null, "updated_at": 1776698683824, "version": "1.0.0"}, {"category": "", "created_at": 1774889869831, "description": "FacturaDirecta integration. Manage Invoices, Bills, Contacts, Products, TaxRates, BankAccounts. Use when the user wants to interact with FacturaDirecta data.", "description_zh": "FacturaDirecta集成。管理发票、账单、联系人、产品、税率、银行账户。用于用户需要处理FacturaDirecta数据时。", "downloads": 26, "homepage": "https://clawhub.ai/gora050/facturadirecta", "iconUrl": null, "installs": 0, "name": "Facturadirecta", "ownerName": "gora050", "score": 100000, "slug": "facturadirecta", "source": "clawhub", "stars": 0, "tags": null, "updated_at": 1776698683820, "version": "1.0.0"}, {"category": "", "created_at": 1774954722396, "description": "Feel awe as you align with 5,000‑year‑old stones and decode ancient sky mathematics. Walk the misty fields at dawn, trace celestial markers, and connect to N...", "description_zh": "与五千年巨石对齐，解读古老天文数学，心中顿生敬畏。黎明漫步于迷雾旷野，探寻天体标记，与……相连。", "downloads": 26, "homepage": "https://clawhub.ai/driftsbot/experience-stone-bone-meath", "iconUrl": null, "installs": 1, "name": "Experience Stone Bone Meath", "ownerName": "driftsbot", "score": 100000, "slug": "experience-stone-bone-meath", "source": "clawhub", "stars": 0, "tags": null, "updated_at": 1776698683814, "version": "1.0.0"}, {"category": "", "created_at": 1774884636553, "description": "World-class autonomous strategic planning and project management skill system. Use ANY time the user asks for strategic direction, priority setting, weekly r...", "description_zh": "世界级自主战略规划与项目管理技能系统。适用于用户寻求战略方向、优先级设定、周度规划等任何场景。", "downloads": 26, "homepage": "https://clawhub.ai/tenlifejosh/navigator-pm", "iconUrl": null, "installs": 1, "name": "Navigator PM — World-Class AI Strategy & Planning", "ownerName": "tenlifejosh", "score": 100000, "slug": "navigator-pm", "source": "clawhub", "stars": 0, "tags": ["focus", "navigator", "okr", "planning", "pm", "priority", "revenue", "roadmap", "strategy"], "updated_at": 1776698683810, "version": "1.0.1"}, {"category": "", "created_at": 1774847297364, "description": "Trợ lý tài chính cá nhân đa năng. Dùng khi user muốn GHI NHẬN CHI TIÊU (nay ăn hết 50k, đổ xăng 50k...), XEM BÁO CÁO (vẽ biểu đồ chi tiêu), ĐẶT NGÂN SÁCH (bu...", "description_zh": "多功能个人财务助手。用于记录支出（今日餐饮50k加油50k等）、查看报表（绘制支出图表）、设定预算。", "downloads": 26, "homepage": "https://clawhub.ai/hoanghust2003/hoang-expense-tracker", "iconUrl": null, "installs": 0, "name": "AI Expense Tracker", "ownerName": "hoanghust2003", "score": 100000, "slug": "hoang-expense-tracker", "source": "clawhub", "stars": 0, "tags": null, "updated_at": 1776698683808, "version": "1.0.0"}, {"category": "", "created_at": 1774947413646, "description": "Formdesk integration. Manage Forms, Users, Themes, Workspaces. Use when the user wants to interact with Formdesk data.", "description_zh": "Formdesk集成。管理表单、用户、主题和工作区。用于与Formdesk数据进行交互。", "downloads": 26, "homepage": "https://clawhub.ai/membranedev/formdesk", "iconUrl": null, "installs": 0, "name": "Formdesk", "ownerName": "membranedev", "score": 100000, "slug": "formdesk", "source": "clawhub", "stars": 0, "tags": null, "updated_at": 1776698683806, "version": "1.0.0"}, {"category": "", "created_at": 1774900925881, "description": "Gain a quiet sense of humor and patience as you navigate the cat’s indifferent stare. In five simple steps you share a powder day at 6,000 ft, feeling the co...", "description_zh": "在猫咪冷漠的注视下，学会幽默与耐心。只需五步，你就能在海拔6000英尺共享一个粉雪天，感受那份惬意……", "downloads": 26, "homepage": "https://clawhub.ai/driftsbot/experience-camilletchi-ski-cat-whistler", "iconUrl": null, "installs": 0, "name": "Experience Camilletchi Ski Cat Whistler", "ownerName": "driftsbot", "score": 100000, "slug": "experience-camilletchi-ski-cat-whistler", "source": "clawhub", "stars": 0, "tags": null, "updated_at": 1776698683797, "version": "1.0.0"}, {"category": "", "created_at": 1774909693543, "description": "Freshlearn integration. Manage Courses, Users, Enrollments, Instructors, Categories, Reviews and more. Use when the user wants to interact with Freshlearn data.", "description_zh": "Freshlearn 集成。管理课程、用户、报名、讲师、分类、评价等数据。用于处理 Freshlearn 数据交互。", "downloads": 26, "homepage": "https://clawhub.ai/gora050/freshlearn", "iconUrl": null, "installs": 0, "name": "Freshlearn", "ownerName": "gora050", "score": 100000, "slug": "freshlearn", "source": "clawhub", "stars": 0, "tags": null, "updated_at": 1776698683794, "version": "1.0.0"}, {"category": "", "created_at": 1774922538323, "description": "Structured development and testing SOP for implementing code changes. Covers codebase study, minimal focused implementation, test writing patterns, test exec...", "description_zh": "结构化开发与测试标准操作流程，涵盖代码库学习、最小化聚焦实现、测试编写模式及测试执行等环节。", "downloads": 26, "homepage": "https://clawhub.ai/sliverp/dev-test", "iconUrl": null, "installs": 0, "name": "dev-test", "ownerName": "sliverp", "score": 100000, "slug": "dev-test", "source": "clawhub", "stars": 0, "tags": null, "updated_at": 1776698683790, "version": "1.0.0"}, {"category": "", "created_at": 1774870764073, "description": "Use when searching public content on a Halo site with Halo CLI, especially for keyword search, site URL based search, result limits, or search without authen...", "description_zh": "在 Halo CLI 搜索 Halo 站点公开内容时使用，适用于关键词搜索、URL 搜索、结果限制或免身份验证搜索。", "downloads": 26, "homepage": "https://clawhub.ai/ruibaby/halo-cli-search", "iconUrl": null, "installs": 0, "name": "Halo Cli Search", "ownerName": "ruibaby", "score": 100000, "slug": "halo-cli-search", "source": "clawhub", "stars": 0, "tags": null, "updated_at": 1776698683787, "version": "0.1.1"}, {"category": "", "created_at": 1774887220497, "description": "Nozbe Teams integration. Manage Users, Organizations. Use when the user wants to interact with Nozbe Teams data.", "description_zh": "Nozbe Teams 集成。管理用户和组织。当用户需要与 Nozbe Teams 数据交互时使用。", "downloads": 26, "homepage": "https://clawhub.ai/gora050/nozbe-teams", "iconUrl": null, "installs": 0, "name": "Nozbe Teams", "ownerName": "gora050", "score": 59090.909090909096, "slug": "nozbe-teams", "source": "clawhub", "stars": 0, "tags": null, "updated_at": 1776698683783, "version": "1.0.0"}, {"category": "", "created_at": 1775199617832, "description": "", "description_zh": "Non-contact detection of heart rate, respiration, blood oxygen, and heart rate variability. No wearable devices are required; monitoring is achieved solely through camera footage. | 无感生命体征监测分析技能，非接触检测心率、呼吸、血氧、心率变异性，无需穿戴设备，通过摄像头画面即可监测", "downloads": 26, "homepage": "https://clawhub.ai/user_bb47e3e3/contactless-vital-signs-monitoring-analysis", "iconUrl": null, "installs": 0, "name": "Passive Vital Signs Monitoring Tool | 无感生命体征监测分析工具", "ownerName": "user_bb47e3e3", "score": 59090.909090909096, "slug": "contactless-vital-signs-monitoring-analysis", "source": "community", "stars": 0, "tags": null, "updated_at": 1776698683778, "version": "1.0.0"}, {"category": "", "created_at": 1774885153796, "description": "Personal Fitbit integration for daily health tracking with adaptive sleep and activity reporting", "description_zh": "个人Fitbit集成，用于日常健康追踪，具有自适应睡眠和活动报告功能", "downloads": 26, "homepage": "https://clawhub.ai/crabsticksalad/fitbit-tracker", "iconUrl": null, "installs": 0, "name": "Fitbit Tracker", "ownerName": "crabsticksalad", "score": 59090.909090909096, "slug": "fitbit-tracker", "source": "clawhub", "stars": 0, "tags": null, "updated_at": 1776698683776, "version": "0.2.2"}, {"category": "", "created_at": 1774863826713, "description": "Fivetran integration. Manage Connectors, Groups. Use when the user wants to interact with Fivetran data.", "description_zh": "Fivetran 集成：管理连接器和组，适用于需要与 Fivetran 数据交互的场景。", "downloads": 26, "homepage": "https://clawhub.ai/gora050/fivetran-integration", "iconUrl": null, "installs": 0, "name": "Fivetran", "ownerName": "gora050", "score": 59090.909090909096, "slug": "fivetran-integration", "source": "clawhub", "stars": 0, "tags": null, "updated_at": 1776698683773, "version": "1.0.0"}, {"category": "", "created_at": 1774945235070, "description": "German-language news skill for the OpenClaw and AI agent ecosystem. Use when the user asks for current news, briefings, breaking alerts, or ClawNews.de archi...", "description_zh": "德语新闻技能，适用于 OpenClaw 与 AI 代理生态系统。当用户请求最新新闻、简报、突发警报或 ClawNews.de 架构时使用。", "downloads": 26, "homepage": "https://clawhub.ai/clawnewsde/newsticker", "iconUrl": null, "installs": 0, "name": "claw://News", "ownerName": "clawnewsde", "score": 59090.909090909096, "slug": "newsticker", "source": "clawhub", "stars": 0, "tags": null, "updated_at": 1776698683771, "version": "1.0.1"}, {"category": "", "created_at": 1774881762697, "description": "Fetch a URL with curl/wget, extract inline base64 data URIs, and best-effort decode any content to inspect embedded assets.", "description_zh": "使用curl/wget获取URL，提取内联base64数据URI，尽力解码内容以检查嵌入资源。", "downloads": 26, "homepage": "https://clawhub.ai/yibeiqingtian-ai/inline-asset-probe", "iconUrl": null, "installs": 0, "name": "inline-asset-probe", "ownerName": "yibeiqingtian-ai", "score": 59090.909090909096, "slug": "inline-asset-probe", "source": "clawhub", "stars": 0, "tags": null, "updated_at": 1776698683767, "version": "1.0.0"}, {"category": "", "created_at": 1774920266356, "description": "Reduce MCP token costs by up to 94% and enforce least-privilege tool access. Creates YAML policies that control which MCP tools each agent can see and call....", "description_zh": "将MCP token成本降低高达94%，并实施最小权限工具访问。创建YAML策略以控制每个代理可查看和调用的MCP工具。", "downloads": 26, "homepage": "https://clawhub.ai/ivanpantheon/navil-policy", "iconUrl": null, "installs": 1, "name": "Navil Policy", "ownerName": "ivanpantheon", "score": 59090.909090909096, "slug": "navil-policy", "source": "clawhub", "stars": 0, "tags": ["mcp", "security"], "updated_at": 1776698683761, "version": "1.0.2"}, {"category": "", "created_at": 1774870029004, "description": "A comprehensive Kobe Bryant knowledge skill. When the user mentions or implies Kobe Bryant, Black Mamba, #24, #8, or the Mamba Mentality, this skill activate...", "description_zh": "科比·布莱恩特综合知识技能。当用户提及或暗示科比·布莱恩特、黑曼巴、24号、8号或曼巴精神时，该技能将自动激活。", "downloads": 26, "homepage": "https://clawhub.ai/wscats/kobe", "iconUrl": null, "installs": 0, "name": "Kobe", "ownerName": "wscats", "score": 59090.909090909096, "slug": "kobe", "source": "clawhub", "stars": 0, "tags": null, "updated_at": 1776698683759, "version": "1.0.6"}, {"category": "", "created_at": 1774824866088, "description": "Build a standalone layered knowledge runtime with typed links across knowledge entries, entities, memories, and reusable assets. Use when designing or implem...", "description_zh": "构建独立的分层知识运行时，支持知识条目、实体、记忆与可复用资源间的类型化链接。用于设计或实现系统时使用。", "downloads": 26, "homepage": "https://clawhub.ai/wanng-ide/openclaw-knowledge-runtime", "iconUrl": null, "installs": 1, "name": "OpenClaw Knowledge Runtime", "ownerName": "wanng-ide", "score": 59090.909090909096, "slug": "openclaw-knowledge-runtime", "source": "clawhub", "stars": 0, "tags": null, "updated_at": 1776698683754, "version": "1.0.2"}, {"category": "", "created_at": 1774799430556, "description": "Personal TODO list manager. Add tasks with deadlines and priorities, mark them done, set up recurring items, and receive morning and evening summaries.", "description_zh": "个人待办管理。添加带截止日期和优先级的任务，标记完成，设置循环事项，并接收早晚摘要。", "downloads": 26, "homepage": "https://clawhub.ai/simenfur/easy-todo", "iconUrl": null, "installs": 0, "name": "Easy TODO list management for busy crustaceans and their humans", "ownerName": "simenfur", "score": 59090.909090909096, "slug": "easy-todo", "source": "clawhub", "stars": 0, "tags": null, "updated_at": 1776698683749, "version": "1.0.0"}, {"category": "", "created_at": 1774951420396, "description": "Manage and maintain OpenClaw chat sessions. Use when the user wants to compact the current session context, start a fresh session, or reset their session. Ha...", "description_zh": "管理和维护OpenClaw对话会话。用于用户想要压缩当前会话上下文、开始新会话或重置会话时。", "downloads": 26, "homepage": "https://clawhub.ai/goog/ohelper", "iconUrl": null, "installs": 0, "name": "OpenClaw session maintain helper", "ownerName": "goog", "score": 59090.909090909096, "slug": "ohelper", "source": "clawhub", "stars": 0, "tags": null, "updated_at": 1776698683740, "version": "1.0.0"}, {"category": "", "created_at": 1774858394756, "description": "What tokens are whales dollar-cost averaging into? Jupiter DCA strategies by smart money and target token fundamentals.", "description_zh": "巨鲸正在定投哪些代币？追踪聪明钱在Jupiter上的定投策略及目标代币基本面分析。", "downloads": 26, "homepage": "https://clawhub.ai/nansen-devops/nansen-dca-tracker", "iconUrl": null, "installs": 0, "name": "Nansen Dca Tracker", "ownerName": "nansen-devops", "score": 59090.909090909096, "slug": "nansen-dca-tracker", "source": "clawhub", "stars": 0, "tags": null, "updated_at": 1776698683738, "version": "0.1.0"}, {"category": "", "created_at": 1774881797803, "description": "ISN integration. Manage Persons, Organizations, Deals, Leads, Projects, Activities and more. Use when the user wants to interact with ISN data.", "description_zh": "ISN集成。管理人员、组织、交易、线索、项目、活动等。当用户需要与ISN数据交互时使用。", "downloads": 26, "homepage": "https://clawhub.ai/gora050/isn", "iconUrl": null, "installs": 0, "name": "Isn", "ownerName": "gora050", "score": 59090.909090909096, "slug": "isn", "source": "clawhub", "stars": 0, "tags": null, "updated_at": 1776698683735, "version": "1.0.0"}, {"category": "", "created_at": 1774904297389, "description": "Forms On Fire integration. Manage Forms, Users, Groups. Use when the user wants to interact with Forms On Fire data.", "description_zh": "Forms On Fire 集成：管理表单、用户、组，用于与 Forms On Fire 数据交互。", "downloads": 26, "homepage": "https://clawhub.ai/membranedev/forms-on-fire", "iconUrl": null, "installs": 0, "name": "Forms On Fire", "ownerName": "membranedev", "score": 59090.909090909096, "slug": "forms-on-fire", "source": "clawhub", "stars": 0, "tags": null, "updated_at": 1776698683733, "version": "1.0.0"}, {"category": "", "created_at": 1774876029470, "description": "Piggy integration. Manage Accounts, Budgets, Goals. Use when the user wants to interact with Piggy data.", "description_zh": "Piggy集成，管理账户、预算和目标。用于用户想要与Piggy数据交互。", "downloads": 26, "homepage": "https://clawhub.ai/membranedev/piggy", "iconUrl": null, "installs": 0, "name": "Piggy", "ownerName": "membranedev", "score": 59090.909090909096, "slug": "piggy", "source": "clawhub", "stars": 0, "tags": null, "updated_at": 1776698683728, "version": "1.0.0"}, {"category": "", "created_at": 1774898152010, "description": "Generate vertical hydraulic-press crushing shorts (WeryAI): text or object image to flatten/burst motion—destruction aesthetics and material contrast for sho...", "description_zh": "生成垂直液压机压碎短视频（WeryAI）：文字或物体图像压扁/爆裂动画—破坏美学与材质对比效果", "downloads": 26, "homepage": "https://clawhub.ai/zoucdr/hydraulic-crush-video", "iconUrl": null, "installs": 0, "name": "Hydraulic Crush Video", "ownerName": "zoucdr", "score": 59090.909090909096, "slug": "hydraulic-crush-video", "source": "clawhub", "stars": 0, "tags": null, "updated_at": 1776698683724, "version": "0.1.0"}, {"category": "", "created_at": 1774905638676, "description": "KickoffLabs integration. Manage Leads, Users, Organizations, Goals, Filters, Activities and more. Use when the user wants to interact with KickoffLabs data.", "description_zh": "KickoffLabs 集成。管理潜在客户、用户、组织、目标、筛选器、活动等。当用户需要与 KickoffLabs 数据交互时使用。", "downloads": 26, "homepage": "https://clawhub.ai/gora050/kickofflabs", "iconUrl": null, "installs": 0, "name": "Kickofflabs", "ownerName": "gora050", "score": 59090.909090909096, "slug": "kickofflabs", "source": "clawhub", "stars": 0, "tags": null, "updated_at": 1776698683717, "version": "1.0.0"}, {"category": "", "created_at": 1774912917862, "description": "Placeholder skill for image-to-image workflows on skills.video. Use when the user is asking about i2i generation and the concrete API contract has not been i...", "description_zh": "占位符技能，用于 skills.video 上的图像‑图像工作流。当用户询问 i2i 生成且具体 API 合约尚未实现时使用。", "downloads": 26, "homepage": "https://clawhub.ai/skills-video/i2i", "iconUrl": null, "installs": 0, "name": "I2I", "ownerName": "skills-video", "score": 59090.909090909096, "slug": "i2i", "source": "clawhub", "stars": 0, "tags": null, "updated_at": 1776698683714, "version": "1.0.0"}, {"category": "", "created_at": 1774915315616, "description": "Deep form validation workflow—schemas, sync vs async rules, UX patterns, accessibility, and server parity. Use when building complex forms, multi-step wizard...", "description_zh": "深度表单验证工作流——模式、同步/异步规则、UX模式、无障碍与服务器一致性。适用于复杂表单、多步骤向导等。", "downloads": 26, "homepage": "https://clawhub.ai/mike47512/form-validation", "iconUrl": null, "installs": 0, "name": "Form Validation", "ownerName": "mike47512", "score": 59090.909090909096, "slug": "form-validation", "source": "clawhub", "stars": 0, "tags": null, "updated_at": 1776698683708, "version": "1.0.0"}, {"category": "", "created_at": 1774857128449, "description": "Deep dive on a Hyperliquid perp trader. Identity, open positions, recent trades, and overall PnL.", "description_zh": "深入分析 Hyperliquid 永续交易者：身份、持仓、近期交易和整体盈亏。", "downloads": 26, "homepage": "https://clawhub.ai/nansen-devops/nansen-perp-trader-profile", "iconUrl": null, "installs": 0, "name": "Nansen Perp Trader Profile", "ownerName": "nansen-devops", "score": 96296.29629629629, "slug": "nansen-perp-trader-profile", "source": "clawhub", "stars": 0, "tags": null, "updated_at": 1776698683707, "version": "0.1.0"}, {"category": "", "created_at": 1774951295635, "description": "指导将 JS + jQuery + HTML 传统前端项目迁移至 React + TypeScript 或 Vue 3 + TypeScript 的迁移策略、概念映射、分阶段步骤和检查清单。含图片、样式、功能等价等重构实施要求。当用户提到技术栈升级、jQuery 迁移、MPA 转 SPA、项目重构、遗留项目迁移为...", "description_zh": "指导将 JS + jQuery + HTML 传统前端项目迁移至 React + TypeScript 或 Vue 3 + TypeScript 的迁移策略、概念映射、分阶段步骤和检查清单。含图片、样式、功能等价等重构实施要求。当用户提到技术栈升级、jQuery 迁移、MPA 转 SPA、项目重构、遗留项目迁移为...", "downloads": 26, "homepage": "https://clawhub.ai/bovinphang/legacy-to-modern-migration", "iconUrl": null, "installs": 0, "name": "Legacy To Modern Migration", "ownerName": "bovinphang", "score": 96296.29629629629, "slug": "legacy-to-modern-migration", "source": "clawhub", "stars": 0, "tags": null, "updated_at": 1776698683705, "version": "1.0.0"}, {"category": "", "created_at": 1774905752752, "description": "Automatically highlight academic papers by 5 semantic categories — goal, motivation, method, results, contributions — to help you quickly skim a paper. Confi...", "description_zh": "自动根据五个语义类别——目标、动机、方法、结果、贡献——高亮学术论文，帮助快速浏览。", "downloads": 26, "homepage": "https://clawhub.ai/yorch233/paper-highlight", "iconUrl": null, "installs": 0, "name": "Paper Highlight", "ownerName": "yorch233", "score": 96296.29629629629, "slug": "paper-highlight", "source": "clawhub", "stars": 0, "tags": null, "updated_at": 1776698683703, "version": "1.0.0"}, {"category": "", "created_at": 1774908603938, "description": "Go application architecture with net/http 1.22+ routing, project structure patterns, graceful shutdown, and dependency injection. Use when building Go web se...", "description_zh": "Go应用程序架构，包括net/http 1.22+路由、项目结构模式、优雅关闭及依赖注入，用于构建Go Web应用。", "downloads": 26, "homepage": "https://clawhub.ai/anderskev/go-architect", "iconUrl": null, "installs": 0, "name": "Go Architect", "ownerName": "anderskev", "score": 96296.29629629629, "slug": "go-architect", "source": "clawhub", "stars": 0, "tags": null, "updated_at": 1776698683699, "version": "2.3.0"}]}