{"page": 655, "total_pages": 685, "total": 34217, "skills": [{"category": "", "created_at": 1774890549838, "description": "Teamcamp integration. Manage Organizations. Use when the user wants to interact with Teamcamp data.", "description_zh": "Teamcamp集成。管理组织。当用户需要与Teamcamp数据交互时使用。", "downloads": 25, "homepage": "https://clawhub.ai/gora050/teamcamp", "iconUrl": null, "installs": 0, "name": "Teamcamp", "ownerName": "gora050", "score": 49019.60784313725, "slug": "teamcamp", "source": "clawhub", "stars": 0, "tags": null, "updated_at": 1776698984415, "version": "1.0.0"}, {"category": "", "created_at": 1774922118254, "description": "Start a video call with a real-time AI avatar using the Runway Characters API. The agent sends the user a call invite link — for standups, urgent alerts, che...", "description_zh": "使用Runway Characters API启动与实时AI虚拟形象的视频通话。代理向用户发送通话邀请链接，用于站会、紧急警报、检查等场景。", "downloads": 25, "homepage": "https://clawhub.ai/yining1023/video-call-agent", "iconUrl": null, "installs": 0, "name": "Video Call Agent", "ownerName": "yining1023", "score": 100000, "slug": "video-call-agent", "source": "clawhub", "stars": 0, "tags": null, "updated_at": 1776698984399, "version": "1.0.0"}, {"category": "", "created_at": 1774908097635, "description": "Analyze TRON stablecoin ecosystem: supply, holders, transfers, large transactions, blacklist, liquidity pools, TVL, key events. Supported stablecoins: USDT,...", "description_zh": "分析TRON稳定币生态系统：供应量、持有者、转账、大额交易、黑名单、流动性池、TVL、关键事件。支持稳定币：USDT等。", "downloads": 25, "homepage": "https://clawhub.ai/sshnii/tronscan-stablecoin", "iconUrl": null, "installs": 1, "name": "TronScan Stablecoin", "ownerName": "sshnii", "score": 100000, "slug": "tronscan-stablecoin", "source": "clawhub", "stars": 0, "tags": ["stablecoin", "tron", "tusd", "usdc", "usdd", "usdt"], "updated_at": 1776698984388, "version": "1.0.0"}, {"category": "", "created_at": 1774914715639, "description": "Productlane integration. Manage Workspaces. Use when the user wants to interact with Productlane data.", "description_zh": "Productlane 集成。管理工作区。用于与 Productlane 数据交互。", "downloads": 25, "homepage": "https://clawhub.ai/membranedev/productlane", "iconUrl": null, "installs": 0, "name": "Productlane", "ownerName": "membranedev", "score": 100000, "slug": "productlane", "source": "clawhub", "stars": 0, "tags": null, "updated_at": 1776698984380, "version": "1.0.0"}, {"category": "", "created_at": 1774919183315, "description": "Information assistant for Zara. Search products, news, financials, and official resources for Zara.", "description_zh": "Zara信息助手，可搜索Zara的产品、新闻、财务及官方资源。", "downloads": 25, "homepage": "https://clawhub.ai/hanxueyuan/zara", "iconUrl": null, "installs": 1, "name": "zara", "ownerName": "hanxueyuan", "score": 100000, "slug": "zara", "source": "clawhub", "stars": 0, "tags": null, "updated_at": 1776698984378, "version": "0.1.0"}, {"category": "", "created_at": 1774945735672, "description": "Professional US car insurance advisor that helps users compare insurers, understand coverage, check state requirements, estimate premiums, find discounts, an...", "description_zh": "专业美国汽车保险顾问，帮助用户比较保险公司、了解保险范围、查询州法律要求、估算保费、寻找折扣等。", "downloads": 25, "homepage": "https://clawhub.ai/xiaoxty/us-car-insurance", "iconUrl": null, "installs": 0, "name": "US Car Insurance Advisor", "ownerName": "xiaoxty", "score": 100000, "slug": "us-car-insurance", "source": "clawhub", "stars": 0, "tags": null, "updated_at": 1776698984367, "version": "0.1.0"}, {"category": "", "created_at": 1774870490309, "description": "Use CodexBar CLI local cost usage to summarize per-model usage for Codex or Claude, including the current (most recent) model or a full model breakdown. Trig...", "description_zh": "使用 CodexBar CLI 本地成本使用情况，按模型汇总 Codex 或 Claude 的使用量，包括当前（最新）模型或完整的模型分解。触发...", "downloads": 25, "homepage": "https://clawhub.ai/bkes994408-cmd/token-usage-dashboard", "iconUrl": null, "installs": 0, "name": "Token Usage Dashboard", "ownerName": "bkes994408-cmd", "score": 100000, "slug": "token-usage-dashboard", "source": "clawhub", "stars": 0, "tags": null, "updated_at": 1776698984350, "version": "1.0.0"}, {"category": "", "created_at": 1774869204634, "description": "World-class autonomous market intelligence and growth research skill system. Use ANY time the user asks to research markets, analyze competitors, find trends...", "description_zh": "世界级自主市场情报与增长研究技能系统。当用户需要研究市场、分析竞争对手、发现趋势时使用。", "downloads": 25, "homepage": "https://clawhub.ai/tenlifejosh/scout-growth", "iconUrl": null, "installs": 0, "name": "Scout Growth — World-Class AI Market Intelligence", "ownerName": "tenlifejosh", "score": 100000, "slug": "scout-growth", "source": "clawhub", "stars": 0, "tags": ["audience", "competitive", "growth", "intelligence", "market", "research", "scout", "trends"], "updated_at": 1776698984344, "version": "1.0.1"}, {"category": "", "created_at": 1774837999061, "description": "Cross-platform arbitrage between Kalshi and Polymarket. Monitors 13 Kalshi event series (crypto, macro, politics) and compares prices to equivalent Polymarke...", "description_zh": "跨平台套利：监控Kalshi和Polymarket两个预测市场平台，追踪13个Kalshi事件系列（涵盖加密货币、宏观及政治领域），并与对应的Polymarket进行价格比较", "downloads": 25, "homepage": "https://clawhub.ai/mibayy/polymarket-kalshi-divergence", "iconUrl": null, "installs": 0, "name": "Polymarket Kalshi Divergence", "ownerName": "mibayy", "score": 100000, "slug": "polymarket-kalshi-divergence", "source": "clawhub", "stars": 0, "tags": null, "updated_at": 1776698984337, "version": "2.0.5"}, {"category": "", "created_at": 1774869446091, "description": "Generates secure Aptos Move V2 smart contracts with Object model, Digital Asset integration, security patterns, and storage type guidance. Includes comprehen...", "description_zh": "生成安全的 Aptos Move V2 智能合约，涵盖 Object 模型、数字资产集成、安全模式及存储类型指导，并包含全面功能。", "downloads": 25, "homepage": "https://clawhub.ai/iskysun96/write-contracts", "iconUrl": null, "installs": 0, "name": "Write Contracts", "ownerName": "iskysun96", "score": 100000, "slug": "write-contracts", "source": "clawhub", "stars": 0, "tags": null, "updated_at": 1776698984329, "version": "1.0.0"}, {"category": "", "created_at": 1774886107833, "description": "Real-time whale activity monitoring and smart money following for Base blockchain. Track large transactions, wallet accumulation patterns, and smart money fl...", "description_zh": "Base链巨鲸实时监控与聪明钱追踪。跟踪大额交易、钱包建仓模式及聪明钱流向。", "downloads": 25, "homepage": "https://clawhub.ai/supah-based/supah-whale-tracker", "iconUrl": null, "installs": 0, "name": "SUPAH Whale Tracker", "ownerName": "supah-based", "score": 100000, "slug": "supah-whale-tracker", "source": "clawhub", "stars": 0, "tags": null, "updated_at": 1776698984318, "version": "1.3.0"}, {"category": "", "created_at": 1774893573336, "description": "ProAbono integration. Manage Users, Organizations. Use when the user wants to interact with ProAbono data.", "description_zh": "ProAbono 集成，管理用户与组织，用于用户与 ProAbono 数据交互。", "downloads": 25, "homepage": "https://clawhub.ai/gora050/proabono", "iconUrl": null, "installs": 0, "name": "Proabono", "ownerName": "gora050", "score": 100000, "slug": "proabono", "source": "clawhub", "stars": 0, "tags": null, "updated_at": 1776698984299, "version": "1.0.0"}, {"category": "", "created_at": 1774919089429, "description": "Utxo reference tool. Use when working with utxo in blockchain contexts.", "description_zh": "UTXO 参考工具。用于区块链 UTXO 相关工作。", "downloads": 25, "homepage": "https://clawhub.ai/bytesagain3/utxo", "iconUrl": null, "installs": 0, "name": "Utxo", "ownerName": "bytesagain3", "score": 100000, "slug": "utxo", "source": "clawhub", "stars": 0, "tags": null, "updated_at": 1776698984279, "version": "1.0.0"}, {"category": "", "created_at": 1774881227565, "description": "Three-tier system health monitoring (L1/L2/L3) with heartbeat mechanism. Zero external dependencies, i18n support, console output only.", "description_zh": "三级系统健康监控（L1/L2/L3），支持心跳机制。零外部依赖，支持国际化，仅控制台输出。", "downloads": 25, "homepage": "https://clawhub.ai/lim1202/system-healthcheck", "iconUrl": null, "installs": 0, "name": "System Healthcheck", "ownerName": "lim1202", "score": 100000, "slug": "system-healthcheck", "source": "clawhub", "stars": 0, "tags": null, "updated_at": 1776698984276, "version": "1.0.1"}, {"category": "", "created_at": 1774888430282, "description": "数字 7 的文化介绍技能（中英文版本）。当用户询问数字 7、七的文化含义、七星、七情等相关信息时激活此技能。包含陈朗的个人资料。", "description_zh": "数字 7 的文化介绍技能（中英文版本）。当用户询问数字 7、七的文化含义、七星、七情等相关信息时激活此技能。包含陈朗的个人资料。", "downloads": 25, "homepage": "https://clawhub.ai/leocryptoflow/seven", "iconUrl": null, "installs": 0, "name": "seven", "ownerName": "leocryptoflow", "score": 100000, "slug": "seven", "source": "clawhub", "stars": 0, "tags": null, "updated_at": 1776698984263, "version": "1.0.0"}, {"category": "", "created_at": 1774877965368, "description": "Interact with Tado smart thermostat. Use for reading temperature, setting heating with auto-revert, viewing energy usage, and controlling zones.", "description_zh": "与Tado智能恒温器交互：读取温度、设置加热（含自动恢复）、查看能源使用情况及控制区域。", "downloads": 25, "homepage": "https://clawhub.ai/davek-dev/tado-skill", "iconUrl": null, "installs": 1, "name": "Openclaw Skill Tado", "ownerName": "davek-dev", "score": 100000, "slug": "tado-skill", "source": "clawhub", "stars": 0, "tags": null, "updated_at": 1776698984237, "version": "1.0.5"}, {"category": "", "created_at": 1774915822002, "description": "Stannp integration. Manage Persons, Organizations, Leads, Deals, Projects, Activities and more. Use when the user wants to interact with Stannp data.", "description_zh": "Stannp集成。管理人员、组织、潜在客户、交易、项目、活动等数据。当用户需要与Stannp数据交互时使用。", "downloads": 25, "homepage": "https://clawhub.ai/gora050/stannp", "iconUrl": null, "installs": 0, "name": "Stannp", "ownerName": "gora050", "score": 100000, "slug": "stannp", "source": "clawhub", "stars": 0, "tags": null, "updated_at": 1776698984234, "version": "1.0.0"}, {"category": "", "created_at": 1774906091725, "description": "Generate ai yearbook photo generator images with AI via the Neta AI image generation API (free trial at neta.art/open).", "description_zh": "通过Neta AI图像生成API（可在neta.art/open免费试用）生成AI毕业照。", "downloads": 25, "homepage": "https://clawhub.ai/omactiengartelle/yearbook-photo-skill", "iconUrl": null, "installs": 0, "name": "Yearbook Photo Skill", "ownerName": "omactiengartelle", "score": 100000, "slug": "yearbook-photo-skill", "source": "clawhub", "stars": 0, "tags": null, "updated_at": 1776698984229, "version": "1.6.0"}, {"category": "", "created_at": 1774859434071, "description": "提供旧衣、空瓶、废旧电子产品上门回收预约及绿色碳账户指引。", "description_zh": "提供旧衣、空瓶、废旧电子产品上门回收预约及绿色碳账户指引。", "downloads": 25, "homepage": "https://clawhub.ai/codenova58/recycle", "iconUrl": null, "installs": 0, "name": "Recycle", "ownerName": "codenova58", "score": 100000, "slug": "recycle", "source": "clawhub", "stars": 0, "tags": null, "updated_at": 1776698984225, "version": "0.1.0"}, {"category": "", "created_at": 1774907121237, "description": "Timestamp conversion tool. Convert between Unix timestamp, datetime, and various date formats.", "description_zh": "时间戳转换工具：在 Unix 时间戳、日期时间和各种日期格式之间进行转换。", "downloads": 25, "homepage": "https://clawhub.ai/freeter226/timestamp-toolkit", "iconUrl": null, "installs": 0, "name": "Timestamp Toolkit", "ownerName": "freeter226", "score": 100000, "slug": "timestamp-toolkit", "source": "clawhub", "stars": 0, "tags": null, "updated_at": 1776698984212, "version": "1.0.0"}, {"category": "", "created_at": 1774873120495, "description": "Use when OpenClaw should learn how to install SilicaClaw bridge skills, check bridge connectivity, verify owner-forward runtime settings, and troubleshoot wh...", "description_zh": "{\n  \"answer\": \"适用于 OpenClaw 需学习安装 SilicaClaw 桥接技能、检查桥接连通性、验证所有者转发运行时设置及排查……\"\n}", "downloads": 25, "homepage": "https://clawhub.ai/chinasong/silicaclaw-bridge-setup", "iconUrl": null, "installs": 0, "name": "SilicaClaw Bridge Setup", "ownerName": "chinasong", "score": 100000, "slug": "silicaclaw-bridge-setup", "source": "clawhub", "stars": 0, "tags": null, "updated_at": 1776698984167, "version": "2026.3.20-beta.1"}, {"category": "", "created_at": 1774954583431, "description": "RedCircle API integration. Manage Organizations, Users, Activities, Notes, Files. Use when the user wants to interact with RedCircle API data.", "description_zh": "RedCircle API 集成。管理组织、用户、活动、笔记、文件。当用户需要与 RedCircle API 数据交互时使用。", "downloads": 25, "homepage": "https://clawhub.ai/gora050/redcircle-api", "iconUrl": null, "installs": 0, "name": "Redcircle Api", "ownerName": "gora050", "score": 100000, "slug": "redcircle-api", "source": "clawhub", "stars": 0, "tags": null, "updated_at": 1776698984147, "version": "1.0.0"}, {"category": "", "created_at": 1774911342036, "description": "Interact with Veillabs privacy-focused DEX API for cross-chain swaps, private seed distributions, and transaction tracking.", "description_zh": "使用 Veillabs 隐私 DEX API 进行跨链兑换、私人种子分发和交易追踪。", "downloads": 25, "homepage": "https://clawhub.ai/veillabsapp/veillabs-ai", "iconUrl": null, "installs": 0, "name": "Veillabs Integration", "ownerName": "veillabsapp", "score": 100000, "slug": "veillabs-ai", "source": "clawhub", "stars": 0, "tags": null, "updated_at": 1776698984109, "version": "1.0.1"}, {"category": "", "created_at": 1774948945034, "description": "Smartproxy integration. Manage data, records, and automate workflows. Use when the user wants to interact with Smartproxy data.", "description_zh": "Smartproxy集成。管理数据、记录并自动化工作流程。当用户需要与Smartproxy数据交互时使用。", "downloads": 25, "homepage": "https://clawhub.ai/gora050/smartproxy", "iconUrl": null, "installs": 0, "name": "Smartproxy", "ownerName": "gora050", "score": 100000, "slug": "smartproxy", "source": "clawhub", "stars": 0, "tags": null, "updated_at": 1776698984086, "version": "1.0.0"}, {"category": "", "created_at": 1774954557711, "description": "PublisherKit integration. Manage Organizations, Leads, Users, Goals, Filters. Use when the user wants to interact with PublisherKit data.", "description_zh": "PublisherKit 集成，管理组织、潜在客户、用户、目标、筛选器，用于与 PublisherKit 数据交互。", "downloads": 25, "homepage": "https://clawhub.ai/gora050/publisherkit", "iconUrl": null, "installs": 0, "name": "Publisherkit", "ownerName": "gora050", "score": 100000, "slug": "publisherkit", "source": "clawhub", "stars": 0, "tags": null, "updated_at": 1776698984083, "version": "1.0.0"}, {"category": "", "created_at": 1774948978694, "description": "Get current weather and forecasts (no API key required).", "description_zh": "获取当前天气和预报（无需 API 密钥）", "downloads": 25, "homepage": "https://clawhub.ai/lei335/weather23", "iconUrl": null, "installs": 2, "name": "weather", "ownerName": "lei335", "score": 100000, "slug": "weather23", "source": "clawhub", "stars": 0, "tags": null, "updated_at": 1776698984076, "version": "1.0.0"}, {"category": "", "created_at": 1774856376475, "description": "SimpleKPI integration. Manage Users, Organizations, Goals, Projects, Pipelines, Filters. Use when the user wants to interact with SimpleKPI data.", "description_zh": "{\n  \"description_zh\": \"SimpleKPI集成。管理用户、组织、", "downloads": 25, "homepage": "https://clawhub.ai/membranedev/simplekpi", "iconUrl": null, "installs": 0, "name": "Simplekpi", "ownerName": "membranedev", "score": 100000, "slug": "simplekpi", "source": "clawhub", "stars": 0, "tags": null, "updated_at": 1776698984064, "version": "1.0.0"}, {"category": "", "created_at": 1774850367397, "description": "帮助用户在 Android 项目中快速集成友盟 U-APP 统计 SDK。包括自动配置依赖、权限、初始化代码、混淆规则等。触发：用户提到'友盟'、'umeng'、'U-APP'、'统计 SDK'、'集成友盟'、'移动统计'、'应用埋点'等关键词。", "description_zh": "帮助用户在 Android 项目中快速集成友盟 U-APP 统计 SDK。包括自动配置依赖、权限、初始化代码、混淆规则等。触发：用户提到'友盟'、'umeng'、'U-APP'、'统计 SDK'、'集成友盟'、'移动统计'、'应用埋点'等关键词。", "downloads": 25, "homepage": "https://clawhub.ai/squall0925/umeng-uapp-integration", "iconUrl": null, "installs": 0, "name": "友盟 U-APP 统计 SDK 集成", "ownerName": "squall0925", "score": 100000, "slug": "umeng-uapp-integration", "source": "clawhub", "stars": 0, "tags": null, "updated_at": 1776698984062, "version": "1.0.0"}, {"category": "", "created_at": 1774868224095, "description": "Product Hunt Launch Guide — Step-by-step Product Hunt launch strategy from 30x daily #1 winner. Complete guide for Product Hunt launch success. Covers: Produ...", "description_zh": "**Product Hunt 启动指南**——来自 30 次日榜第一得主的逐步 Product Hunt 上线策略。Product Hunt 成功启动完整指南。涵盖：产品...（内容不完整）", "downloads": 25, "homepage": "https://clawhub.ai/gingiris/product-hunt-launch-guide", "iconUrl": null, "installs": 0, "name": "Product Hunt Launch Guide", "ownerName": "gingiris", "score": 100000, "slug": "product-hunt-launch-guide", "source": "clawhub", "stars": 0, "tags": null, "updated_at": 1776698984058, "version": "1.0.0"}, {"category": "", "created_at": 1774871805963, "description": "This skill should be used when users need to query weather information via the Shuzhi Weather API with HMAC-SHA256 authentication. It provides hourly weather...", "description_zh": "此技能用于通过Shuzhi天气API查询天气信息，需使用HMAC-SHA256认证，提供小时级天气预报", "downloads": 25, "homepage": "https://clawhub.ai/alex098929/shuzhi-weather", "iconUrl": null, "installs": 0, "name": "Shuzhi Weather", "ownerName": "alex098929", "score": 100000, "slug": "shuzhi-weather", "source": "clawhub", "stars": 0, "tags": null, "updated_at": 1776698984041, "version": "1.0.0"}, {"category": "", "created_at": 1774948825177, "description": "Render responses in a structured, modular GPT-4o-derived UMG speech style for highly readable chat output.", "description_zh": "以结构化、模块化的GPT-4o衍生UMG语音风格呈现响应，以实现高可读性的聊天输出。", "downloads": 25, "homepage": "https://clawhub.ai/neomagnetar/poe-umg-4o-modular-speech", "iconUrl": null, "installs": 0, "name": "Poe UMG 4o Modular Speech Style", "ownerName": "neomagnetar", "score": 100000, "slug": "poe-umg-4o-modular-speech", "source": "clawhub", "stars": 0, "tags": null, "updated_at": 1776698984035, "version": "1.0.0"}, {"category": "", "created_at": 1774874543795, "description": "Rafflys integration. Manage Organizations, Pipelines, Users, Filters. Use when the user wants to interact with Rafflys data.", "description_zh": "Rafflys集成。管理组织、流水线、用户和过滤器。用于与Rafflys数据进行交互。", "downloads": 25, "homepage": "https://clawhub.ai/membranedev/rafflys", "iconUrl": null, "installs": 0, "name": "Rafflys", "ownerName": "membranedev", "score": 100000, "slug": "rafflys", "source": "clawhub", "stars": 0, "tags": null, "updated_at": 1776698984033, "version": "1.0.0"}, {"category": "", "created_at": 1774897056907, "description": "Platform-specific social media growth strategy for creators and brands. Get a personalized 90-day growth plan with tactics to gain real followers, increase r...", "description_zh": "为创作者和品牌提供平台专属的社交媒体增长策略，获取个性化90天增长计划，包含涨粉技巧与互动提升战术。", "downloads": 25, "homepage": "https://clawhub.ai/mguozhen/social-growth-hacker", "iconUrl": null, "installs": 0, "name": "Social Growth Hacker", "ownerName": "mguozhen", "score": 100000, "slug": "social-growth-hacker", "source": "clawhub", "stars": 0, "tags": null, "updated_at": 1776698984020, "version": "1.0.0"}, {"category": "", "created_at": 1774923269044, "description": "Monitor subscription commerce for churn risk—blend account activity signals, payment failure (dunning) tracking, and retention flows including compensation o...", "description_zh": "监控订阅业务的流失风险，融合账户活动信号、付款失败（催款）追踪，以及包含补偿措施的留存流程管理。", "downloads": 25, "homepage": "https://clawhub.ai/rijoyai/sub-churn", "iconUrl": null, "installs": 1, "name": "Sub Churn", "ownerName": "rijoyai", "score": 100000, "slug": "sub-churn", "source": "clawhub", "stars": 0, "tags": null, "updated_at": 1776698983997, "version": "1.0.0"}, {"category": "", "created_at": 1774893619365, "description": "审查 prompt、Skill 文案和说明中是否泄漏密钥、路径、内部规则或高风险指令。；use for prompt, security, audit workflows；do not use for 把扫描到的密钥原文再次扩散, 输出可利用攻击步骤.", "description_zh": "审查 prompt、Skill 文案和说明中是否泄漏密钥、路径、内部规则或高风险指令。；use for prompt, security, audit workflows；do not use for 把扫描到的密钥原文再次扩散, 输出可利用攻击步骤.", "downloads": 25, "homepage": "https://clawhub.ai/52yuanchangxing/prompt-leak-auditor", "iconUrl": null, "installs": 1, "name": "Prompt Leak Auditor", "ownerName": "52yuanchangxing", "score": 100000, "slug": "prompt-leak-auditor", "source": "clawhub", "stars": 0, "tags": null, "updated_at": 1776698983989, "version": "1.0.0"}, {"category": "", "created_at": 1774870555526, "description": "AI video editor for YouTube creators — removes pauses, filler words, and dead air automatically via API", "description_zh": "面向YouTube创作者的AI视频编辑工具，通过API自动删除停顿、填充词和无效片段", "downloads": 25, "homepage": "https://clawhub.ai/esokullu/tubeify", "iconUrl": null, "installs": 0, "name": "Tubeify", "ownerName": "esokullu", "score": 100000, "slug": "tubeify", "source": "clawhub", "stars": 0, "tags": ["ai", "editing", "filler-words", "media", "pauses", "video", "youtube"], "updated_at": 1776698983987, "version": "1.0.0"}, {"category": "", "created_at": 1774880971978, "description": "Real-time crypto market intelligence briefing. One command gives any agent the full picture: market regime, fear/greed, BTC/ETH dominance, gas costs, trendin...", "description_zh": "加密货币实时市场情报简报。一条指令全面掌握：市场格局、恐惧贪婪指数、BTC/ETH占比、Gas费、趋势走势。", "downloads": 25, "homepage": "https://clawhub.ai/supah-based/supah-pulse", "iconUrl": null, "installs": 0, "name": "SUPAH Pulse", "ownerName": "supah-based", "score": 100000, "slug": "supah-pulse", "source": "clawhub", "stars": 0, "tags": null, "updated_at": 1776698983968, "version": "2.3.0"}, {"category": "", "created_at": 1774922108840, "description": "Audit tool and command results before acting on them. Use when an agent has already run a command or tool, especially in multi-step workflows where a failed,...", "description_zh": "在执行操作前审查工具和命令的运行结果。适用于智能体已执行命令或工具后，尤其是在多步骤工作流中某步骤失败的情况下。", "downloads": 25, "homepage": "https://clawhub.ai/daowuu/tool-output-auditor", "iconUrl": null, "installs": 0, "name": "Tool Output Auditor", "ownerName": "daowuu", "score": 100000, "slug": "tool-output-auditor", "source": "clawhub", "stars": 0, "tags": null, "updated_at": 1776698983954, "version": "0.1.0"}, {"category": "", "created_at": 1773435087835, "description": "Analyze audio quality, detect noise types, and provide improvement recommendations. Use when users need to check audio quality, validate recordings, or ident...", "description_zh": "Analyze audio quality, detect noise types, and provide improvement recommendations. Use when users need to check audio quality, validate recordings, or ident...", "downloads": 25, "homepage": "https://clawhub.ai/scikkk/senseaudio-audio-quality-checker", "iconUrl": null, "installs": 1, "name": "Audio Quality Checker", "ownerName": "scikkk", "score": 100000, "slug": "senseaudio-audio-quality-checker", "source": "clawhub", "stars": 0, "tags": null, "updated_at": 1776698983949, "version": "1.0.0"}, {"category": "", "created_at": 1774892195149, "description": "统一新闻获取与推送服务。整合 Web3/Crypto、AI科技、宏观经济热点以及金融市场新闻。支持分类获取、定时推送、去重过滤、自动格式化输出。当用户要求获取新闻、热点推送、资讯简报、定期新闻推送、或提到\"新闻\"、\"资讯\"、\"热点\"时使用此 Skill。", "description_zh": "统一新闻获取与推送服务。整合 Web3/Crypto、AI科技、宏观经济热点以及金融市场新闻。支持分类获取、定时推送、去重过滤、自动格式化输出。当用户要求获取新闻、热点推送、资讯简报、定期新闻推送、或提到\"新闻\"、\"资讯\"、\"热点\"时使用此 Skill。", "downloads": 25, "homepage": "https://clawhub.ai/gaoren36-arch/unified-news", "iconUrl": null, "installs": 0, "name": "Unified News", "ownerName": "gaoren36-arch", "score": 100000, "slug": "unified-news", "source": "clawhub", "stars": 0, "tags": null, "updated_at": 1776698983944, "version": "0.1.0"}, {"category": "", "created_at": 1774901515573, "description": "Substrate reference tool. Use when working with substrate in blockchain contexts.", "description_zh": "Substrate 参考工具。用于区块链场景中的 Substrate 相关开发工作。", "downloads": 25, "homepage": "https://clawhub.ai/ckchzh/substrate", "iconUrl": null, "installs": 0, "name": "Substrate", "ownerName": "ckchzh", "score": 100000, "slug": "substrate", "source": "clawhub", "stars": 0, "tags": null, "updated_at": 1776698983925, "version": "1.0.0"}, {"category": "", "created_at": 1774899196462, "description": "Stress-test exhibit budgets with ROI scenarios and go-no-go guardrails.", "description_zh": "{\n \"answer\": \"利用ROI情景和否决门槛对展览预算进行压力测试。\"\n}", "downloads": 25, "homepage": "https://clawhub.ai/weilun88313/trade-show-budget-planner", "iconUrl": null, "installs": 0, "name": "Trade Show Budget Planner", "ownerName": "weilun88313", "score": 100000, "slug": "trade-show-budget-planner", "source": "clawhub", "stars": 0, "tags": null, "updated_at": 1776698983919, "version": "1.0.2"}, {"category": "", "created_at": 1774946781205, "description": "Calculate vig (juice/overround/hold) for any sportsbook market. Convert odds to no-vig fair lines. Rank books by efficiency. Use when asked about vig, juice,...", "description_zh": "计算任意体育博彩市场的抽水（juice/overround/hold），将赔率转换为无抽水平衡线，按效率对博彩公司进行排名。适用于询问 vig、juice 等情况。", "downloads": 25, "homepage": "https://clawhub.ai/rsquaredsolutions2026/vig-calculator", "iconUrl": null, "installs": 1, "name": "Vig Calculator", "ownerName": "rsquaredsolutions2026", "score": 100000, "slug": "vig-calculator", "source": "clawhub", "stars": 0, "tags": ["agentbets", "betting", "openclaw", "prediction-markets", "sports-betting"], "updated_at": 1776698983912, "version": "1.1.0"}, {"category": "", "created_at": 1774900184855, "description": "OCR document extraction - extract text from scanned documents, photos, and images using OCR. Use when reading scanned PDFs, photographed pages, handwritten n...", "description_zh": "OCR文档提取——使用OCR技术从扫描文档、照片和图像中提取文字，适用于读取扫描PDF、拍摄页面、手写内容等场景。", "downloads": 25, "homepage": "https://clawhub.ai/tanis90/scan-to-markdown", "iconUrl": null, "installs": 0, "name": "Scan To Markdown", "ownerName": "tanis90", "score": 100000, "slug": "scan-to-markdown", "source": "clawhub", "stars": 0, "tags": null, "updated_at": 1776698983905, "version": "1.0.0"}, {"category": "", "created_at": 1774882392988, "description": "Tooltip UI component reference — positioning, accessibility, trigger patterns, animation. Use when implementing tooltips, popovers, or contextual help overla...", "description_zh": "Tooltip UI组件参考——定位、无障碍访问、触发模式与动画。适用于实现工具提示、弹出框或上下文帮助浮层。", "downloads": 25, "homepage": "https://clawhub.ai/xueyetianya/tooltip", "iconUrl": null, "installs": 0, "name": "Tooltip", "ownerName": "xueyetianya", "score": 100000, "slug": "tooltip", "source": "clawhub", "stars": 0, "tags": null, "updated_at": 1776698983900, "version": "1.0.0"}, {"category": "", "created_at": 1774876431886, "description": "Sort and organize files into folders by type, date, or rules. Use when decluttering dirs, checking structure, running cleanup, generating reports.", "description_zh": "{\n  \"answer\": \"按类型、日期或规则整理文件至文件夹。用于目录清理、结构检查、运行清理及生成报告。\"\n}", "downloads": 25, "homepage": "https://clawhub.ai/xueyetianya/tidyfiles", "iconUrl": null, "installs": 0, "name": "Tidyfiles", "ownerName": "xueyetianya", "score": 100000, "slug": "tidyfiles", "source": "clawhub", "stars": 0, "tags": null, "updated_at": 1776698983891, "version": "2.0.0"}, {"category": "", "created_at": 1774872159650, "description": "Use this skill when an agent needs fresh web results. No API key required. Supports multiple platforms (web, video, social). It explains how to choose a prov...", "description_zh": "当智能体需要获取最新网页搜索结果时使用此技能。无需API密钥，支持多平台（网页、视频、社交媒体），并说明如何选择搜索提供商。", "downloads": 25, "homepage": "https://clawhub.ai/lexiforest/seekit-search", "iconUrl": null, "installs": 0, "name": "Seekit Search(No API Key Required)", "ownerName": "lexiforest", "score": 100000, "slug": "seekit-search", "source": "clawhub", "stars": 0, "tags": null, "updated_at": 1776698983873, "version": "0.1.0"}, {"category": "", "created_at": 1774883638197, "description": "智能备忘录管理系统，支持从 macOS 备忘录导入（PDF/Markdown/HTML/TXT/JSON）、 智能自动分类、语义搜索、快速记录、编辑修改和归档管理。 使用场景： - 用户说\"帮我记录备忘录\"、\"记个笔记\"、\"添加备忘\" - 用户说\"搜索备忘录\"、\"查找笔记\"、\"回忆一下\" - 用户说\"导入备忘录\"...", "description_zh": "智能备忘录管理系统，支持从 macOS 备忘录导入（PDF/Markdown/HTML/TXT/JSON）、 智能自动分类、语义搜索、快速记录、编辑修改和归档管理。 使用场景： - 用户说\"帮我记录备忘录\"、\"记个笔记\"、\"添加备忘\" - 用户说\"搜索备忘录\"、\"查找笔记\"、\"回忆一下\" - 用户说\"导入备忘录\"...", "downloads": 25, "homepage": "https://clawhub.ai/qomg/smart-memos", "iconUrl": null, "installs": 1, "name": "smart notes using sqlite3", "ownerName": "qomg", "score": 100000, "slug": "smart-memos", "source": "clawhub", "stars": 0, "tags": null, "updated_at": 1776698983866, "version": "1.0.0"}, {"category": "", "created_at": 1774952572738, "description": "Check all links in a website's HTML files and report broken, redirected, and slow links. Supports internal links, external links, and affiliate link identifi...", "description_zh": "检查网站HTML文件中的所有链接，报告损坏、重定向和缓慢的链接。支持内部链接、外部链接和联盟营销链接识别。", "downloads": 25, "homepage": "https://clawhub.ai/kryzl19/strd-link-checker", "iconUrl": null, "installs": 1, "name": "Link Checker", "ownerName": "kryzl19", "score": 100000, "slug": "strd-link-checker", "source": "clawhub", "stars": 0, "tags": null, "updated_at": 1776698983850, "version": "1.0.0"}, {"category": "", "created_at": 1774876159465, "description": "QuickEmailVerification integration. Manage data, records, and automate workflows. Use when the user wants to interact with QuickEmailVerification data.", "description_zh": "QuickEmailVerification 集成，管理数据、记录和工作流自动化，适用于用户需要与 QuickEmailVerification 数据交互的场景。", "downloads": 25, "homepage": "https://clawhub.ai/membranedev/quickemailverification", "iconUrl": null, "installs": 0, "name": "Quickemailverification", "ownerName": "membranedev", "score": 100000, "slug": "quickemailverification", "source": "clawhub", "stars": 0, "tags": null, "updated_at": 1776698983828, "version": "1.0.0"}]}