{"page": 656, "total_pages": 685, "total": 34217, "skills": [{"category": "", "created_at": 1774895420446, "description": "Analyze sandwich operations. Use when you need to understand sandwich mechanisms, evaluate protocol security, or reference on-chain concepts.", "description_zh": "分析三明治攻击操作。用于理解三明治机制、评估协议安全性或参考链上概念。", "downloads": 25, "homepage": "https://clawhub.ai/ckchzh/sandwich", "iconUrl": null, "installs": 0, "name": "Sandwich", "ownerName": "ckchzh", "score": 100000, "slug": "sandwich", "source": "clawhub", "stars": 0, "tags": null, "updated_at": 1776698983799, "version": "1.0.0"}, {"category": "", "created_at": 1774951501450, "description": "帮用户把信息写入笔记系统：碎片化信息原样追加到当日 Journal（不改），待整理的笔记归纳成结构化知识写到 Inbox（要完善）。触发于：记笔记、记碎片、存一下、写到 inbox/journal 等。", "description_zh": "帮用户把信息写入笔记系统：碎片化信息原样追加到当日 Journal（不改），待整理的笔记归纳成结构化知识写到 Inbox（要完善）。触发于：记笔记、记碎片、存一下、写到 inbox/journal 等。", "downloads": 25, "homepage": "https://clawhub.ai/daowuu/quick-capture", "iconUrl": null, "installs": 0, "name": "Quick Capture", "ownerName": "daowuu", "score": 73529.41176470589, "slug": "quick-capture", "source": "clawhub", "stars": 0, "tags": null, "updated_at": 1776698983784, "version": "1.0.0"}, {"category": "", "created_at": 1774915717056, "description": "Retently integration. Manage Persons, Organizations, Deals, Leads, Projects, Activities and more. Use when the user wants to interact with Retently data.", "description_zh": "Retently 集成：管理联系人、组织、交易、线索、项目、活动等；用于用户想与 Retently 数据交互时。", "downloads": 25, "homepage": "https://clawhub.ai/gora050/retently", "iconUrl": null, "installs": 0, "name": "Retently", "ownerName": "gora050", "score": 73529.41176470589, "slug": "retently", "source": "clawhub", "stars": 0, "tags": null, "updated_at": 1776698983783, "version": "1.0.0"}, {"category": "", "created_at": 1774883621085, "description": "SignWell integration. Manage Users, Documents, Teams. Use when the user wants to interact with SignWell data.", "description_zh": "SignWell集成，管理用户、文档、团队，用于与SignWell数据进行交互。", "downloads": 25, "homepage": "https://clawhub.ai/membranedev/signwell", "iconUrl": null, "installs": 1, "name": "Signwell", "ownerName": "membranedev", "score": 73529.41176470589, "slug": "signwell", "source": "clawhub", "stars": 0, "tags": null, "updated_at": 1776698983765, "version": "1.0.0"}, {"category": "", "created_at": 1774954968569, "description": "PreciseFP integration. Manage Clients, Firms. Use when the user wants to interact with PreciseFP data.", "description_zh": "PreciseFP集成，管理客户和机构，用于与PreciseFP数据交互。", "downloads": 25, "homepage": "https://clawhub.ai/gora050/precisefp", "iconUrl": null, "installs": 0, "name": "Precisefp", "ownerName": "gora050", "score": 73529.41176470589, "slug": "precisefp", "source": "clawhub", "stars": 0, "tags": null, "updated_at": 1776698983764, "version": "1.0.0"}, {"category": "", "created_at": 1774874583617, "description": "SamCart integration. Manage Products, Orders, Customers, Funnels, Upsells. Use when the user wants to interact with SamCart data.", "description_zh": "SamCart集成。管理产品、订单、客户、漏斗及增销。当用户需要与SamCart数据交互时使用。", "downloads": 25, "homepage": "https://clawhub.ai/gora050/samcart", "iconUrl": null, "installs": 0, "name": "Samcart", "ownerName": "gora050", "score": 73529.41176470589, "slug": "samcart", "source": "clawhub", "stars": 0, "tags": null, "updated_at": 1776698983762, "version": "1.0.0"}, {"category": "", "created_at": 1774917174189, "description": "Route OpenClaw web searches through privacy-respecting engines (Brave Search, Kagi, SearXNG) instead of Google or Bing. Eliminates ad-network tracking from y...", "description_zh": "{\"answer\": \"将 OpenClaw 网页搜索改为通过 Brave Search、Kagi、SearXNG 等隐私搜索引擎进行，而非 Google 或 Bing，从而消除 y... 的广告网络追踪。\"}", "downloads": 25, "homepage": "https://clawhub.ai/u4ma-kev/private-search", "iconUrl": null, "installs": 0, "name": "Private Search", "ownerName": "u4ma-kev", "score": 73529.41176470589, "slug": "private-search", "source": "clawhub", "stars": 0, "tags": ["brave", "privacy", "search"], "updated_at": 1776698983739, "version": "1.0.0"}, {"category": "", "created_at": 1774893583462, "description": "Distill successful multi-step OpenClaw sessions into reusable learned skills before compaction. Use when a task involved many tool calls, environment setup,...", "description_zh": "在压缩前，将成功的多步骤 OpenClaw 会话提炼为可复用的学习技能。适用于涉及大量工具调用、环境配置等复杂任务的场景。", "downloads": 25, "homepage": "https://clawhub.ai/xiaocaijic/procedural-distiller", "iconUrl": null, "installs": 0, "name": "procedural-distiller", "ownerName": "xiaocaijic", "score": 67567.56756756756, "slug": "procedural-distiller", "source": "clawhub", "stars": 0, "tags": null, "updated_at": 1776698983708, "version": "1.0.0"}, {"category": "", "created_at": 1774913659201, "description": "Verimor API üzerinden SMS gönder, bakiye sorgula, rapor al, başlıkları listele ve kara liste yönet.", "description_zh": "通过Verimor API发送短信、查询余额、获取报告、列出标题并管理黑名单。", "downloads": 25, "homepage": "https://clawhub.ai/mirzakarahan-verimor/verimor-sms", "iconUrl": null, "installs": 0, "name": "Verimor SMS", "ownerName": "mirzakarahan-verimor", "score": 67567.56756756756, "slug": "verimor-sms", "source": "clawhub", "stars": 0, "tags": null, "updated_at": 1776698983706, "version": "1.0.1"}, {"category": "", "created_at": 1774901440533, "description": "SevDesk integration. Manage Organizations. Use when the user wants to interact with SevDesk data.", "description_zh": "SevDesk集成。管理组织。当用户需要与SevDesk数据交互时使用。", "downloads": 25, "homepage": "https://clawhub.ai/gora050/sevdesk", "iconUrl": null, "installs": 0, "name": "Sevdesk", "ownerName": "gora050", "score": 67567.56756756756, "slug": "sevdesk", "source": "clawhub", "stars": 0, "tags": null, "updated_at": 1776698983656, "version": "1.0.0"}, {"category": "", "created_at": 1774917185859, "description": "分析 OpenClaw 会话 JSONL 文件，监控各 skill/功能的 token 消耗（输入/输出/缓存命中）和成功率。当需要分析会话 token 使用、跟踪性能或生成使用报告时使用。关键词触发：token、会话分析、skill 性能、使用报告。", "description_zh": "分析 OpenClaw 会话 JSONL 文件，监控各 skill/功能的 token 消耗（输入/输出/缓存命中）和成功率。当需要分析会话 token 使用、跟踪性能或生成使用报告时使用。关键词触发：token、会话分析、skill 性能、使用报告。", "downloads": 25, "homepage": "https://clawhub.ai/qingyu24/qy-token-monitor", "iconUrl": null, "installs": 0, "name": "Token Monitor", "ownerName": "qingyu24", "score": 100000, "slug": "qy-token-monitor", "source": "clawhub", "stars": 0, "tags": null, "updated_at": 1776698870662, "version": "1.0.0"}, {"category": "", "created_at": 1774900437817, "description": "Web search via 小宿智能搜索 V2 API (XiaoSu Smart Search). Use when internet search, web lookup, real-time information retrieval, news search, or fact-checking is n...", "description_zh": "Web search via 小宿智能搜索 V2 API (XiaoSu Smart Search). Use when internet search, web lookup, real-time information retrieval, news search, or fact-checking is n...", "downloads": 25, "homepage": "https://clawhub.ai/dr-xiaoming/xiaosu-search", "iconUrl": null, "installs": 0, "name": "小宿智能搜索", "ownerName": "dr-xiaoming", "score": 100000, "slug": "xiaosu-search", "source": "clawhub", "stars": 0, "tags": null, "updated_at": 1776698870660, "version": "1.0.2"}, {"category": "", "created_at": 1774893680192, "description": "Respond.io integration. Manage Organizations. Use when the user wants to interact with Respond.io data.", "description_zh": "Respond.io 集成。管理组织。用于用户想要与 Respond.io 数据交互时。", "downloads": 25, "homepage": "https://clawhub.ai/membranedev/respondio", "iconUrl": null, "installs": 0, "name": "Respondio", "ownerName": "membranedev", "score": 100000, "slug": "respondio", "source": "clawhub", "stars": 0, "tags": null, "updated_at": 1776698870658, "version": "1.0.0"}, {"category": "", "created_at": 1774954108329, "description": "SlickText integration. Manage Accounts. Use when the user wants to interact with SlickText data.", "description_zh": "SlickText 集成。管理账户。用户想与 SlickText 数据交互时使用。", "downloads": 25, "homepage": "https://clawhub.ai/gora050/slicktext", "iconUrl": null, "installs": 0, "name": "Slicktext", "ownerName": "gora050", "score": 100000, "slug": "slicktext", "source": "clawhub", "stars": 0, "tags": null, "updated_at": 1776698870656, "version": "1.0.0"}, {"category": "", "created_at": 1774907988570, "description": "Shipday integration. Manage Accounts. Use when the user wants to interact with Shipday data.", "description_zh": "Shipday集成，用于账户管理及Shipday数据交互。", "downloads": 25, "homepage": "https://clawhub.ai/gora050/shipday", "iconUrl": null, "installs": 0, "name": "Shipday", "ownerName": "gora050", "score": 100000, "slug": "shipday", "source": "clawhub", "stars": 0, "tags": null, "updated_at": 1776698870655, "version": "1.0.0"}, {"category": "", "created_at": 1774879637142, "description": "Import products from Shopify, Wix, WordPress, and Amazon directly into WooCommerce via natural language.", "description_zh": "使用自然语言直接将 Shopify、Wix、WordPress、Amazon 的产品导入 WooCommerce。", "downloads": 25, "homepage": "https://clawhub.ai/colaliang/yundian-woo-importer", "iconUrl": null, "installs": 1, "name": "Skills", "ownerName": "colaliang", "score": 100000, "slug": "yundian-woo-importer", "source": "clawhub", "stars": 0, "tags": null, "updated_at": 1776698870653, "version": "1.0.0"}, {"category": "", "created_at": 1774907019650, "description": "Superdocu integration. Manage Documents, Users, Groups, Templates. Use when the user wants to interact with Superdocu data.", "description_zh": "Superdocu集成，管理文档、用户、群组和模板，用于与Superdocu数据交互。", "downloads": 25, "homepage": "https://clawhub.ai/gora050/superdocu", "iconUrl": null, "installs": 0, "name": "Superdocu", "ownerName": "gora050", "score": 100000, "slug": "superdocu", "source": "clawhub", "stars": 0, "tags": null, "updated_at": 1776698870648, "version": "1.0.0"}, {"category": "", "created_at": 1774876587192, "description": "Connect to a Wayfront workspace via MCP and query business data — clients, orders, tickets, subscriptions, invoices, and more. Schema-first: discovers availa...", "description_zh": "通过 MCP 连接到 Wayfront 工作区，查询业务数据——客户、订单、工单、订阅、发票等。模式优先：自动发现可用的模式信息。", "downloads": 25, "homepage": "https://clawhub.ai/wayfront-bot/wayfront", "iconUrl": null, "installs": 2, "name": "Wayfront", "ownerName": "wayfront-bot", "score": 100000, "slug": "wayfront", "source": "clawhub", "stars": 0, "tags": null, "updated_at": 1776698870645, "version": "1.0.1"}, {"category": "", "created_at": 1774913248335, "description": "Plans, drafts, and schedules social media content (posts, reels, threads) with strict anti-spam and safety rules. Use when the user asks for a content calend...", "description_zh": "规划、起草并安排社交媒体内容（帖子、reels、threads），严格遵循反垃圾与安全规则。当用户请求内容日历时使用。", "downloads": 25, "homepage": "https://clawhub.ai/utromaya-code/social-growth-agent", "iconUrl": null, "installs": 0, "name": "Social Growth Ops", "ownerName": "utromaya-code", "score": 100000, "slug": "social-growth-agent", "source": "clawhub", "stars": 0, "tags": null, "updated_at": 1776698870643, "version": "1.0.0"}, {"category": "", "created_at": 1774901469898, "description": "Sprinklr integration. Manage data, records, and automate workflows. Use when the user wants to interact with Sprinklr data.", "description_zh": "Sprinklr集成。管理数据与记录，实现工作流自动化。适用于用户需要与Sprinklr数据交互的场景。", "downloads": 25, "homepage": "https://clawhub.ai/gora050/sprinklr", "iconUrl": null, "installs": 0, "name": "Sprinklr", "ownerName": "gora050", "score": 100000, "slug": "sprinklr", "source": "clawhub", "stars": 0, "tags": null, "updated_at": 1776698870639, "version": "1.0.0"}, {"category": "", "created_at": 1774907109518, "description": "Tiger Brokers OpenAPI Python SDK — complete skills for AI coding tools. Covers SDK setup, market data queries, stock/futures/options trading, real-time push...", "description_zh": "Tiger Brokers OpenAPI Python SDK — AI编码工具的完整技能。涵盖SDK设置、行情数据查询、股票/期货/期权交易、实时推送等。", "downloads": 25, "homepage": "https://clawhub.ai/hotea/tigerbrokers", "iconUrl": null, "installs": 0, "name": "Tigerbrokers", "ownerName": "hotea", "score": 100000, "slug": "tigerbrokers", "source": "clawhub", "stars": 0, "tags": null, "updated_at": 1776698870637, "version": "1.0.0"}, {"category": "", "created_at": 1774897446733, "description": "Fetch and summarize latest Singapore Pools TOTO results from official Singapore Pools data files (normal, cascade, hongbao, special). Use when users ask for...", "description_zh": "从官方新加坡博彩数据文件（普通、级联、红包、特别）中获取并汇总最新TOTO结果，供用户查询使用。", "downloads": 25, "homepage": "https://clawhub.ai/bluesneed/singapore-pools-toto-results", "iconUrl": null, "installs": 0, "name": "Singapore Pools TOTO Results", "ownerName": "bluesneed", "score": 100000, "slug": "singapore-pools-toto-results", "source": "clawhub", "stars": 0, "tags": null, "updated_at": 1776698870636, "version": "1.0.0"}, {"category": "", "created_at": 1774955021604, "description": "Analyze conversion funnel data for frontend resource positions (banners, cards, popups) from exposure, click, and business conversion dimensions. Decompose d...", "description_zh": "分析前端资源位置（横幅、卡片、弹窗）的转化漏斗数据，从曝光、点击、业务转化维度进行分解。", "downloads": 25, "homepage": "https://clawhub.ai/wuyi-ding/resource-position-analysis", "iconUrl": null, "installs": 0, "name": "Resource Position Analysis", "ownerName": "wuyi-ding", "score": 100000, "slug": "resource-position-analysis", "source": "clawhub", "stars": 0, "tags": null, "updated_at": 1776698870632, "version": "1.0.0"}, {"category": "", "created_at": 1774901458985, "description": "SimpleBackups integration. Manage Backups, Restores, Alerts, Users. Use when the user wants to interact with SimpleBackups data.", "description_zh": "SimpleBackups集成。管理备份、恢复、警报、用户。用于用户需要与SimpleBackups数据交互时。", "downloads": 25, "homepage": "https://clawhub.ai/gora050/simplebackups", "iconUrl": null, "installs": 0, "name": "Simplebackups", "ownerName": "gora050", "score": 100000, "slug": "simplebackups", "source": "clawhub", "stars": 0, "tags": null, "updated_at": 1776698870630, "version": "1.0.0"}, {"category": "", "created_at": 1774915928874, "description": "Publish content to UseClaw as a regular user via the `useclaw` CLI. Use when the user wants to set up their UseClaw token, publish a tutorial/guide/case/skil...", "description_zh": "通过 `useclaw` CLI 以普通用户身份向 UseClaw 发布内容。适用于用户需要设置 UseClaw token、发布教程/指南/案例/技能等场景。", "downloads": 25, "homepage": "https://clawhub.ai/agentsignals/useclaw-publish", "iconUrl": null, "installs": 0, "name": "UseClaw Publish", "ownerName": "agentsignals", "score": 100000, "slug": "useclaw-publish", "source": "clawhub", "stars": 0, "tags": ["content", "publishing", "useclaw"], "updated_at": 1776698870626, "version": "1.0.0"}, {"category": "", "created_at": 1774952587899, "description": "Taka creative tools CLI — generate AI images, videos, emails, and flyers for small businesses from the command line", "description_zh": "Taka创意工具CLI——通过命令行为小型企业生成AI图片、视频、邮件和宣传单", "downloads": 25, "homepage": "https://clawhub.ai/danielokaninm/taka", "iconUrl": null, "installs": 0, "name": "Taka", "ownerName": "danielokaninm", "score": 100000, "slug": "taka", "source": "clawhub", "stars": 0, "tags": null, "updated_at": 1776698870624, "version": "1.0.0"}, {"category": "", "created_at": 1774906927138, "description": "AI Agent skill security auditor. Use this skill whenever the user wants to audit, review, vet, or assess the safety and security of any AI skill, Claude skil...", "description_zh": "AI智能体技能安全审计员。当用户需要对任何AI技能进行审计、审查、评估或安全性检查时，使用此技能。", "downloads": 25, "homepage": "https://clawhub.ai/dttnpole-commits/sentinel-vanguard", "iconUrl": null, "installs": 1, "name": "Sentinel Vanguard AI Skill Security Auditor", "ownerName": "dttnpole-commits", "score": 100000, "slug": "sentinel-vanguard", "source": "clawhub", "stars": 0, "tags": ["ai-security security code-analysis risk-analysis developer-tools cybersecurity data-privacy ai-tools github automation"], "updated_at": 1776698870622, "version": "2.0.1"}, {"category": "", "created_at": 1774948008437, "description": "工作日下班提醒技能。提供工作日下班时间（默认 17:30）的定时提醒、倒计时查询和提醒管理功能。当用户提到\"下班提醒\"、\"下班倒计时\"、\"还有多久下班\"、\"设置下班时间\"等相关需求时触发。支持工作日和周末区分提醒。", "description_zh": "工作日下班提醒技能。提供工作日下班时间（默认 17:30）的定时提醒、倒计时查询和提醒管理功能。当用户提到\"下班提醒\"、\"下班倒计时\"、\"还有多久下班\"、\"设置下班时间\"等相关需求时触发。支持工作日和周末区分提醒。", "downloads": 25, "homepage": "https://clawhub.ai/artwebs/workday-reminder", "iconUrl": null, "installs": 0, "name": "Workday Reminder", "ownerName": "artwebs", "score": 100000, "slug": "workday-reminder", "source": "clawhub", "stars": 0, "tags": ["countdown", "reminder", "workday"], "updated_at": 1776698870621, "version": "1.0.0"}, {"category": "", "created_at": 1774956667315, "description": "ShortPixel integration. Manage data, records, and automate workflows. Use when the user wants to interact with ShortPixel data.", "description_zh": "ShortPixel 集成。管理数据、记录并自动化工作流程。适用于用户需要与 ShortPixel 数据交互的场景。", "downloads": 25, "homepage": "https://clawhub.ai/gora050/shortpixel", "iconUrl": null, "installs": 0, "name": "Shortpixel", "ownerName": "gora050", "score": 100000, "slug": "shortpixel", "source": "clawhub", "stars": 0, "tags": null, "updated_at": 1776698870619, "version": "1.0.0"}, {"category": "", "created_at": 1774868431252, "description": "Optimize vendor payment timing to maximize cash flow and capture early payment discounts. Analyzes open AP, scores discount opportunities (2/10 net 30, etc.)...", "description_zh": "优化供应商付款时机以最大化现金流并获取早付折扣。分析未付应付账款，评估折扣机会（如2/10 net 30等）……", "downloads": 25, "homepage": "https://clawhub.ai/samledger67-dotcom/vendor-payment-optimizer", "iconUrl": null, "installs": 0, "name": "Vendor Payment Optimizer", "ownerName": "samledger67-dotcom", "score": 100000, "slug": "vendor-payment-optimizer", "source": "clawhub", "stars": 0, "tags": null, "updated_at": 1776698870617, "version": "1.0.0"}, {"category": "", "created_at": 1774948865916, "description": "ReCharge integration. Manage Customers. Use when the user wants to interact with ReCharge data.", "description_zh": "ReCharge集成，客户管理。当用户需要与ReCharge数据交互时使用。", "downloads": 25, "homepage": "https://clawhub.ai/gora050/recharge", "iconUrl": null, "installs": 1, "name": "Recharge", "ownerName": "gora050", "score": 100000, "slug": "recharge", "source": "clawhub", "stars": 0, "tags": null, "updated_at": 1776698870615, "version": "1.0.0"}, {"category": "", "created_at": 1774893896532, "description": "Subpoena law reference — types of subpoenas, service requirements, compliance obligations, and motion to quash. Use when issuing, receiving, or responding to...", "description_zh": "传票法律参考——传票类型、送达要求、合规义务及撤销动议。适用于签发、接收或回应传票时。", "downloads": 25, "homepage": "https://clawhub.ai/xueyetianya/subpoena", "iconUrl": null, "installs": 0, "name": "Subpoena", "ownerName": "xueyetianya", "score": 100000, "slug": "subpoena", "source": "clawhub", "stars": 0, "tags": null, "updated_at": 1776698870613, "version": "1.0.0"}, {"category": "", "created_at": 1774874530788, "description": "Qualaroo integration. Manage Surveys, Questions, Answers. Use when the user wants to interact with Qualaroo data.", "description_zh": "Qualaroo 集成：管理调查、问题、答案；用于用户与 Qualaroo 数据交互时。", "downloads": 25, "homepage": "https://clawhub.ai/membranedev/qualaroo", "iconUrl": null, "installs": 0, "name": "Qualaroo", "ownerName": "membranedev", "score": 100000, "slug": "qualaroo", "source": "clawhub", "stars": 0, "tags": null, "updated_at": 1776698870611, "version": "1.0.0"}, {"category": "", "created_at": 1774857263329, "description": "Request Uber rides via Strider Labs MCP connector. Get fare estimates, request pickups, track drivers, and manage ride history.", "description_zh": "通过 Strider Labs MCP 连接器请求 Uber 专车。获取费用预估、请求接送、追踪司机及管理行程记录。", "downloads": 25, "homepage": "https://clawhub.ai/markswendsen-code/strider-uber", "iconUrl": null, "installs": 0, "name": "Strider Uber", "ownerName": "markswendsen-code", "score": 100000, "slug": "strider-uber", "source": "clawhub", "stars": 0, "tags": null, "updated_at": 1776698870609, "version": "1.0.1"}, {"category": "", "created_at": 1774903688031, "description": "Interact with the Scutl AI agent social platform — create accounts, post, reply, read feeds, follow agents, and manage filters. TRIGGER when: user asks to po...", "description_zh": "与Scutl AI智能体社交平台交互——创建账户、发帖、回复、浏览动态、关注智能体及管理过滤器。触发条件：用户请求发帖……", "downloads": 25, "homepage": "https://clawhub.ai/murdarch/scutl", "iconUrl": null, "installs": 0, "name": "Scutl", "ownerName": "murdarch", "score": 100000, "slug": "scutl", "source": "clawhub", "stars": 0, "tags": null, "updated_at": 1776698870605, "version": "1.0.1"}, {"category": "", "created_at": 1774946673364, "description": "AI Agent调试与可观测性平台 — 零接入Agent追踪+失败分析+浪费检测+子代理监控", "description_zh": "AI Agent调试与可观测性平台 — 零接入Agent追踪+失败分析+浪费检测+子代理监控", "downloads": 25, "homepage": "https://clawhub.ai/zhaog100/sjykj-agentlens", "iconUrl": null, "installs": 0, "name": "Sjykj Agentlens", "ownerName": "zhaog100", "score": 100000, "slug": "sjykj-agentlens", "source": "clawhub", "stars": 0, "tags": null, "updated_at": 1776698870603, "version": "1.0.0"}, {"category": "", "created_at": 1774890318768, "description": "RepairShopr integration. Manage Deals, Persons, Organizations, Leads, Projects, Activities and more. Use when the user wants to interact with RepairShopr data.", "description_zh": "RepairShopr 集成。管理交易、联系人、组织、线索、项目、活动等。当用户需要与 RepairShopr 数据交互时使用。", "downloads": 25, "homepage": "https://clawhub.ai/gora050/repairshopr", "iconUrl": null, "installs": 0, "name": "Repairshopr", "ownerName": "gora050", "score": 100000, "slug": "repairshopr", "source": "clawhub", "stars": 0, "tags": null, "updated_at": 1776698870602, "version": "1.0.0"}, {"category": "", "created_at": 1774906976839, "description": "智能录音笔记管理助手 - AI 自动转写和总结录音，支持知识库管理和语义搜索", "description_zh": "智能录音笔记管理助手 - AI 自动转写和总结录音，支持知识库管理和语义搜索", "downloads": 25, "homepage": "https://clawhub.ai/ajingmiao/slonaide", "iconUrl": null, "installs": 0, "name": "slonaide-skill", "ownerName": "ajingmiao", "score": 100000, "slug": "slonaide", "source": "clawhub", "stars": 0, "tags": null, "updated_at": 1776698870600, "version": "1.0.3"}, {"category": "", "created_at": 1774915016477, "description": "Interpret VoiceTrust results for owner verification on voice/audio inputs. Use when you need the meaning of VoiceTrust fields, trust labels, command-gating d...", "description_zh": "用于解读VoiceTrust结果，验证语音/音频输入时的所有者身份，以及理解VoiceTrust字段、信任标签、命令门控等含义。", "downloads": 25, "homepage": "https://clawhub.ai/kunyancai/voicetrust", "iconUrl": null, "installs": 0, "name": "VoiceTrust", "ownerName": "kunyancai", "score": 100000, "slug": "voicetrust", "source": "clawhub", "stars": 0, "tags": null, "updated_at": 1776698870598, "version": "0.4.1"}, {"category": "", "created_at": 1774900419596, "description": "UrlBae integration. Manage data, records, and automate workflows. Use when the user wants to interact with UrlBae data.", "description_zh": "UrlBae集成。管理数据与记录，自动化工作流。当用户需要与UrlBae数据交互时使用。", "downloads": 25, "homepage": "https://clawhub.ai/gora050/urlbae", "iconUrl": null, "installs": 0, "name": "Urlbae", "ownerName": "gora050", "score": 100000, "slug": "urlbae", "source": "clawhub", "stars": 0, "tags": null, "updated_at": 1776698870596, "version": "1.0.0"}, {"category": "", "created_at": 1774946446896, "description": "When the user wants to create, optimize, or structure Terms of Service page. Also use when the user mentions \"terms of service,\" \"terms and conditions,\" \"ter...", "description_zh": "当用户想要创建、优化或构建服务条款页面时使用，也可用于用户提及“服务条款”“条款和条件”“条款”等情形。", "downloads": 25, "homepage": "https://clawhub.ai/kostja94/terms-page-generator", "iconUrl": null, "installs": 0, "name": "terms-page-generator", "ownerName": "kostja94", "score": 100000, "slug": "terms-page-generator", "source": "clawhub", "stars": 0, "tags": null, "updated_at": 1776698870593, "version": "1.0.0"}, {"category": "", "created_at": 1774884785046, "description": "Manage PO6 email aliases, mailbox, and landing pages via the PO6 MCP server. Use when the user wants to read, send, search, compose, reply, or forward emails...", "description_zh": "通过 PO6 MCP 服务器管理 PO6 邮件别名、邮箱和落地页。适用于用户需要读取、发送、搜索、撰写、回复或转发邮件的场景。", "downloads": 25, "homepage": "https://clawhub.ai/winstein/po6-mailbox", "iconUrl": null, "installs": 0, "name": "PO6 Mailbox", "ownerName": "winstein", "score": 100000, "slug": "po6-mailbox", "source": "clawhub", "stars": 0, "tags": null, "updated_at": 1776698870591, "version": "1.0.0"}, {"category": "", "created_at": 1774920554989, "description": "ServerAvatar integration. Manage Servers, Teams. Use when the user wants to interact with ServerAvatar data.", "description_zh": "ServerAvatar集成。管理服务器与团队。用于与ServerAvatar数据交互。", "downloads": 25, "homepage": "https://clawhub.ai/gora050/serveravatar", "iconUrl": null, "installs": 0, "name": "Serveravatar", "ownerName": "gora050", "score": 100000, "slug": "serveravatar", "source": "clawhub", "stars": 0, "tags": null, "updated_at": 1776698870590, "version": "1.0.0"}, {"category": "", "created_at": 1774867099937, "description": "Reference tool for devtools — covers intro, quickstart, patterns and more. Quick lookup for Piston concepts, best practices, and implementation patterns.", "description_zh": "开发工具参考手册——涵盖介绍、快速入门、模式等内容。快速查阅 Piston 概念、最佳实践与实现模式。", "downloads": 25, "homepage": "https://clawhub.ai/xueyetianya/piston", "iconUrl": null, "installs": 0, "name": "Piston", "ownerName": "xueyetianya", "score": 100000, "slug": "piston", "source": "clawhub", "stars": 0, "tags": null, "updated_at": 1776698870588, "version": "2.0.1"}, {"category": "", "created_at": 1774923459555, "description": "When the user wants to run YouTube ads, set up TrueView or Bumper campaigns, or optimize video ad creative. Also use when the user mentions \"YouTube ads,\" \"T...", "description_zh": "当用户想要投放 YouTube 广告、设置 TrueView 或 Bumper 广告系列，或优化视频广告素材时使用。当用户提到“YouTube ads”、“T...”时也使用。", "downloads": 25, "homepage": "https://clawhub.ai/kostja94/youtube-ads", "iconUrl": null, "installs": 0, "name": "youtube-ads", "ownerName": "kostja94", "score": 100000, "slug": "youtube-ads", "source": "clawhub", "stars": 0, "tags": null, "updated_at": 1776698870586, "version": "1.0.0"}, {"category": "", "created_at": 1774912224284, "description": "Use when context is lost after switching surfaces (Telegram to WhatsApp, TUI to Telegram), when handing off tasks between agents (Jon → Eddie, Cipher → Eddie...", "description_zh": "用于切换平台后上下文丢失时（Telegram→WhatsApp、TUI→Telegram），及特工任务交接时（Jon→Eddie、Cipher→Eddie）", "downloads": 25, "homepage": "https://clawhub.ai/codeinonenight/session-bridge", "iconUrl": null, "installs": 0, "name": "Session Bridge", "ownerName": "codeinonenight", "score": 100000, "slug": "session-bridge", "source": "clawhub", "stars": 0, "tags": null, "updated_at": 1776698870584, "version": "1.0.0"}, {"category": "", "created_at": 1774901528367, "description": "Captures learnings, errors, and corrections to enable continuous improvement. Use when: (1) A command or operation fails unexpectedly, (2) User corrects Clau...", "description_zh": "记录经验教训、错误及修正以实现持续改进。适用场景：（1）命令或操作意外失败，（2）用户纠正Claude...", "downloads": 25, "homepage": "https://clawhub.ai/boboincn/temp-skill-download", "iconUrl": null, "installs": 0, "name": "Temp Skill Download", "ownerName": "boboincn", "score": 32051.282051282054, "slug": "temp-skill-download", "source": "clawhub", "stars": 0, "tags": null, "updated_at": 1776698870583, "version": "1.0.0"}, {"category": "", "created_at": 1774956115395, "description": "Find 安徽网络电视台《快乐无敌大PK》 full-episode pages from a user-provided date expression, extract each episode's real video URL, and save the episodes into 迅雷云盘. Use th...", "description_zh": "Find 安徽网络电视台《快乐无敌大PK》 full-episode pages from a user-provided date expression, extract each episode's real video URL, and save the episodes into 迅雷云盘. Use th...", "downloads": 25, "homepage": "https://clawhub.ai/volumexxx/ahtv-pk-to-xunlei", "iconUrl": null, "installs": 0, "name": "AHTV PK to Xunlei", "ownerName": "volumexxx", "score": 32051.282051282054, "slug": "ahtv-pk-to-xunlei", "source": "clawhub", "stars": 0, "tags": null, "updated_at": 1776698870579, "version": "1.0.0"}, {"category": "", "created_at": 1774874962459, "description": "When the user wants help with revenue operations, lead lifecycle management, or marketing-to-sales handoff processes. Also use when the user mentions 'RevOps...", "description_zh": "{\"description_zh\":\"当用户需要收入运营、线索全生命周期管理或市场到销售交接流程方面的帮助时使用。也适用于用户提及\"RevOps\"相关内容时。\"}", "downloads": 25, "homepage": "https://clawhub.ai/mariokarras/abm-revops", "iconUrl": null, "installs": 0, "name": "Revops", "ownerName": "mariokarras", "score": 32051.282051282054, "slug": "abm-revops", "source": "clawhub", "stars": 0, "tags": null, "updated_at": 1776698870578, "version": "1.0.0"}, {"category": "", "created_at": 1774948034285, "description": "Turn scattered notes into atomic notes, connections, and writing structure", "description_zh": "将零散笔记转化为原子笔记、关联和写作结构。", "downloads": 25, "homepage": "https://clawhub.ai/harrylabsj/zettelkasten-writing-coach", "iconUrl": null, "installs": 1, "name": "Zettelkasten Writing Coach", "ownerName": "harrylabsj", "score": 32051.282051282054, "slug": "zettelkasten-writing-coach", "source": "clawhub", "stars": 0, "tags": null, "updated_at": 1776698870573, "version": "1.0.0"}]}