{"page": 657, "total_pages": 685, "total": 34217, "skills": [{"category": "", "created_at": 1774953252908, "description": "Outscraper integration. Manage Organizations. Use when the user wants to interact with Outscraper data.", "description_zh": "Outscraper 集成。管理组织。适用于用户需要与 Outscraper 数据交互的场景。", "downloads": 25, "homepage": "https://clawhub.ai/gora050/outscraper", "iconUrl": null, "installs": 0, "name": "Outscraper", "ownerName": "gora050", "score": 32051.282051282054, "slug": "outscraper", "source": "clawhub", "stars": 0, "tags": null, "updated_at": 1776698870558, "version": "1.0.0"}, {"category": "", "created_at": 1774854502256, "description": "AI-powered professional networking assistant. Generate personalized cold emails and outreach playbooks to accelerate career growth and business development.", "description_zh": "AI驱动的职业社交助手，生成个性化冷邮件和拓展策略手册，助力职业发展与业务拓展。", "downloads": 25, "homepage": "https://clawhub.ai/hotwheelsbo/articuler", "iconUrl": null, "installs": 0, "name": "articuler", "ownerName": "hotwheelsbo", "score": 32051.282051282054, "slug": "articuler", "source": "clawhub", "stars": 0, "tags": null, "updated_at": 1776698870556, "version": "1.0.2"}, {"category": "", "created_at": 1774889925328, "description": "Free-port and free-trade zone reference — FTZ regulations, bonded logistics, duty deferral, re-export procedures. Use when planning warehouse operations in f...", "description_zh": "自由港与自由贸易区参考——涵盖FTZ法规、保税物流、关税递延及复出口程序，适用于规划自贸区内仓储运营。", "downloads": 25, "homepage": "https://clawhub.ai/ckchzh/freeport", "iconUrl": null, "installs": 0, "name": "Freeport", "ownerName": "ckchzh", "score": 32051.282051282054, "slug": "freeport", "source": "clawhub", "stars": 0, "tags": null, "updated_at": 1776698870554, "version": "1.0.0"}, {"category": "", "created_at": 1774879372538, "description": "Book American Airlines flights via Strider Labs MCP connector. Search flights, manage reservations, check in, and track AAdvantage miles.", "description_zh": "通过Strider Labs MCP连接器预订美国航空航班。搜索航班、管理预订、办理登机手续及追踪AAdvantage里程。", "downloads": 25, "homepage": "https://clawhub.ai/markswendsen-code/strider-american", "iconUrl": null, "installs": 0, "name": "Strider American Airlines", "ownerName": "markswendsen-code", "score": 32051.282051282054, "slug": "strider-american", "source": "clawhub", "stars": 0, "tags": null, "updated_at": 1776698870551, "version": "1.0.0"}, {"category": "", "created_at": 1774876770127, "description": "When the user wants to optimize signup, registration, account creation, or trial activation flows. Also use when the user mentions \"signup conversions,\" \"reg...", "description_zh": "当用户希望优化注册、开户或试用激活流程时使用，也适用于用户提及“注册转化”等情况。", "downloads": 25, "homepage": "https://clawhub.ai/mariokarras/abm-signup-flow-cro", "iconUrl": null, "installs": 0, "name": "Signup Flow Cro", "ownerName": "mariokarras", "score": 32051.282051282054, "slug": "abm-signup-flow-cro", "source": "clawhub", "stars": 0, "tags": null, "updated_at": 1776698870549, "version": "1.0.0"}, {"category": "", "created_at": 1774887969403, "description": "Data Processing Agreement reference — GDPR Article 28, processor obligations, sub-processor management, and cross-border transfers. Use when drafting or revi...", "description_zh": "数据处理协议参考——GDPR第28条，处理者义务、子处理者管理及跨境传输。用于起草或审查。", "downloads": 25, "homepage": "https://clawhub.ai/ckchzh/dpa", "iconUrl": null, "installs": 0, "name": "Dpa", "ownerName": "ckchzh", "score": 32051.282051282054, "slug": "dpa", "source": "clawhub", "stars": 0, "tags": null, "updated_at": 1776698870547, "version": "1.0.0"}, {"category": "", "created_at": 1774880188140, "description": "Public-safe FitClaw coaching workflow covering onboarding, hydration, nutrition, and training structure. Use when demonstrating a reusable AI fitness coachin...", "description_zh": "公共安全的FitClaw指导工作流程，涵盖入门、水分补充、营养和训练结构。用于展示可复用的AI健身指导。", "downloads": 25, "homepage": "https://clawhub.ai/beachanger/fitclaw-public-core", "iconUrl": null, "installs": 0, "name": "FitClaw Public Core", "ownerName": "beachanger", "score": 32051.282051282054, "slug": "fitclaw-public-core", "source": "clawhub", "stars": 0, "tags": null, "updated_at": 1776698870545, "version": "1.0.0"}, {"category": "", "created_at": 1774948525975, "description": "Feel the awe of ancient nocturnal lights as they hunt the misty peaks, stripping certainty and inviting deep solitude. Navigate fog‑laden trails of the Tatra...", "description_zh": "感受古老夜光追逐雾峰时的敬畏，剥离确信，引人深陷孤寂。穿越塔特拉的迷雾小径...", "downloads": 25, "homepage": "https://clawhub.ai/driftsbot/experience-tatra-bone-fire", "iconUrl": null, "installs": 0, "name": "Experience Tatra Bone Fire", "ownerName": "driftsbot", "score": 32051.282051282054, "slug": "experience-tatra-bone-fire", "source": "clawhub", "stars": 0, "tags": null, "updated_at": 1776698870544, "version": "1.0.0"}, {"category": "", "created_at": 1774949353622, "description": "Laposta integration. Manage Accounts. Use when the user wants to interact with Laposta data.", "description_zh": "Laposta 集成。管理账户。当用户需要与 Laposta 数据交互时使用。", "downloads": 25, "homepage": "https://clawhub.ai/gora050/laposta", "iconUrl": null, "installs": 0, "name": "Laposta", "ownerName": "gora050", "score": 32051.282051282054, "slug": "laposta", "source": "clawhub", "stars": 0, "tags": null, "updated_at": 1776698870542, "version": "1.0.0"}, {"category": "", "created_at": 1774873029679, "description": "Manage tasks, columns, and documents on the Rectify platform via REST API. Use when the user asks about creating, updating, moving, deleting, or searching ta...", "description_zh": "通过 REST API 管理 Rectify 平台的任务、列和文档。当用户询问创建、更新、移动、删除或搜索任务时使用。", "downloads": 25, "homepage": "https://clawhub.ai/umar-lateef/rectify-skill", "iconUrl": null, "installs": 0, "name": "Rectify", "ownerName": "umar-lateef", "score": 32051.282051282054, "slug": "rectify-skill", "source": "clawhub", "stars": 0, "tags": null, "updated_at": 1776698870540, "version": "1.0.2"}, {"category": "", "created_at": 1774870771572, "description": "Plan liquidity provision on PancakeSwap. Use when user says \"add liquidity on pancakeswap\", \"provide liquidity\", \"LP on pancakeswap\", \"farm pancakeswap\", or...", "description_zh": "规划 PancakeSwap 流动性提供。当用户提到“在 PancakeSwap 添加流动性”、“提供流动性”、“PancakeSwap LP”、“PancakeSwap 挖矿”等时使用。", "downloads": 25, "homepage": "https://clawhub.ai/pcs-bot/pcs-lp-planner", "iconUrl": null, "installs": 0, "name": "Liquidity Planner", "ownerName": "pcs-bot", "score": 32051.282051282054, "slug": "pcs-lp-planner", "source": "clawhub", "stars": 0, "tags": null, "updated_at": 1776698870537, "version": "1.0.1"}, {"category": "", "created_at": 1774953177805, "description": "Setting up a hyperlocal mutual aid network with neighbors. Use when someone wants to build community resilience, organize neighbors for mutual support, share...", "description_zh": "建立邻里互助网络，适用于希望提升社区韧性、组织邻居互助、分享...", "downloads": 25, "homepage": "https://clawhub.ai/howtousehumans/neighbor-mutual-aid", "iconUrl": null, "installs": 0, "name": "Neighbor Mutual Aid", "ownerName": "howtousehumans", "score": 32051.282051282054, "slug": "neighbor-mutual-aid", "source": "clawhub", "stars": 0, "tags": null, "updated_at": 1776698870533, "version": "1.0.0"}, {"category": "", "created_at": 1774952691417, "description": "Git commit, PR, and branching standards with ZERO TOLERANCE for AI attribution. Use when (1) Creating commits, (2) Writing commit messages, (3) Creating pull...", "description_zh": "Git 提交、PR 与分支规范，对 AI 归属零容忍。适用于以下场景：(1) 创建提交；(2) 编写提交信息；(3) 创建 Pull Request。", "downloads": 25, "homepage": "https://clawhub.ai/urbantech/ainative-git-workflow", "iconUrl": null, "installs": 0, "name": "Ainative Git Workflow", "ownerName": "urbantech", "score": 32051.282051282054, "slug": "ainative-git-workflow", "source": "clawhub", "stars": 0, "tags": null, "updated_at": 1776698870527, "version": "1.0.0"}, {"category": "", "created_at": 1774908163014, "description": "Information assistant for ASEAN 东盟. Get mission info, latest reports, member states, and organizational resources.", "description_zh": "Information assistant for ASEAN 东盟. Get mission info, latest reports, member states, and organizational resources.", "downloads": 25, "homepage": "https://clawhub.ai/hanxueyuan/asean", "iconUrl": null, "installs": 0, "name": "Asean", "ownerName": "hanxueyuan", "score": 32051.282051282054, "slug": "asean", "source": "clawhub", "stars": 0, "tags": null, "updated_at": 1776698870526, "version": "0.1.0"}, {"category": "", "created_at": 1774844607113, "description": "Scan and map all devices on the local network. Discovers IPs, hostnames, vendors, and device types. Tracks when devices first appeared and were last seen. Su...", "description_zh": "扫描本地网络所有设备，发现IP、主机名、厂商和类型，追踪设备的首次和最后出现时间。", "downloads": 25, "homepage": "https://clawhub.ai/wrentheai/netmap", "iconUrl": null, "installs": 0, "name": "Netmap", "ownerName": "wrentheai", "score": 32051.282051282054, "slug": "netmap", "source": "clawhub", "stars": 0, "tags": null, "updated_at": 1776698870524, "version": "1.0.2"}, {"category": "", "created_at": 1774889746443, "description": "DynaPictures integration. Manage Images, Users, Albums, Tags. Use when the user wants to interact with DynaPictures data.", "description_zh": "{\n  \"answer\": \"DynaPictures集成。管理图像、用户、相册、标签。用于用户需与DynaPictures数据交互时。\"\n}", "downloads": 25, "homepage": "https://clawhub.ai/gora050/dynapictures", "iconUrl": null, "installs": 0, "name": "Dynapictures", "ownerName": "gora050", "score": 25510.204081632655, "slug": "dynapictures", "source": "clawhub", "stars": 0, "tags": null, "updated_at": 1776698870515, "version": "1.0.0"}, {"category": "", "created_at": 1774860453112, "description": "DEPRECATED - This skill has been renamed to 'ict'. Please install 'ict' instead: clawhub install ict", "description_zh": "已弃用 - 该技能已重命名为 'ict'。请改为安装 'ict'：clawhub install ict", "downloads": 25, "homepage": "https://clawhub.ai/vimvem/skill-ict", "iconUrl": null, "installs": 0, "name": "Skill Ict", "ownerName": "vimvem", "score": 25510.204081632655, "slug": "skill-ict", "source": "clawhub", "stars": 0, "tags": ["audit", "security"], "updated_at": 1776698870513, "version": "3.3.2"}, {"category": "", "created_at": 1774948608217, "description": "Umbrella skill for the HowToUseHumans collection: catalog of all published life-survival agent skills, install commands, and pointers to the maintainer heart...", "description_zh": "HowToUseHumans集合的伞形技能：包含所有已发布的生活生存代理技能、安装命令以及指向维护者核心的指针。", "downloads": 25, "homepage": "https://clawhub.ai/howtousehumans/howtousehumans", "iconUrl": null, "installs": 0, "name": "Howtousehumans", "ownerName": "howtousehumans", "score": 25510.204081632655, "slug": "howtousehumans", "source": "clawhub", "stars": 0, "tags": null, "updated_at": 1776698870510, "version": "1.0.0"}, {"category": "", "created_at": 1774898732918, "description": "Use the SeggWat CLI to manage feedback, projects, and ratings from the terminal. Trigger this skill whenever the user wants to collect, triage, query, or aut...", "description_zh": "使用 SeggWat CLI 在终端管理反馈、项目和评分。当用户需要收集、分类、查询或自动处理时触发此技能。", "downloads": 25, "homepage": "https://clawhub.ai/hauju/seggwat-cli", "iconUrl": null, "installs": 0, "name": "SeggWat CLI", "ownerName": "hauju", "score": 25510.204081632655, "slug": "seggwat-cli", "source": "clawhub", "stars": 0, "tags": null, "updated_at": 1776698870508, "version": "0.17.4"}, {"category": "", "created_at": 1774910001431, "description": "Stacked bar charts showing composition and performance. Use for analyzing structure and trends.", "description_zh": "展示构成与绩效的堆叠条形图。适用于分析结构与趋势。", "downloads": 25, "homepage": "https://clawhub.ai/linuszz/parfait-charts", "iconUrl": null, "installs": 0, "name": "Parfait Charts", "ownerName": "linuszz", "score": 25510.204081632655, "slug": "parfait-charts", "source": "clawhub", "stars": 0, "tags": null, "updated_at": 1776698870504, "version": "1.0.0"}, {"category": "", "created_at": 1774909923122, "description": "Deterministic external-memory execution loop using rules/goal/plan/progress/notes/lessons with strict preflight, one-step execution, and measurable lesson qu...", "description_zh": "使用规则/目标/计划/进度/笔记/经验教训的确定性外部记忆执行循环，包含严格的预检、单步执行和可衡量的经验教训...", "downloads": 25, "homepage": "https://clawhub.ai/kdylan1010-alt/memory-driven-execution-loop", "iconUrl": null, "installs": 0, "name": "Memory Driven Execution Loop", "ownerName": "kdylan1010-alt", "score": 25510.204081632655, "slug": "memory-driven-execution-loop", "source": "clawhub", "stars": 0, "tags": ["memory", "workflow"], "updated_at": 1776698870502, "version": "1.0.1"}, {"category": "", "created_at": 1774917453551, "description": "Runs openCypher against Ladybug DB with schema-first DDL, Python sync/async execution, CALL procedures, full-text search (CREATE_FTS_INDEX / QUERY_FTS_INDEX)...", "description_zh": "针对 Ladybug DB 执行 openCypher，支持 Schema-first DDL、Python 同步/异步执行、CALL 存储过程及全文搜索（CREATE_FTS_INDEX / QUERY_FTS_INDEX）等功能。", "downloads": 25, "homepage": "https://clawhub.ai/trenza1ore/ladybug-opencypher", "iconUrl": null, "installs": 0, "name": "ladybug-opencypher", "ownerName": "trenza1ore", "score": 25510.204081632655, "slug": "ladybug-opencypher", "source": "clawhub", "stars": 0, "tags": null, "updated_at": 1776698870501, "version": "1.0.0"}, {"category": "", "created_at": 1774906579169, "description": "Go concurrency patterns for high-throughput web applications including worker pools, rate limiting, race detection, and safe shared state management. Use whe...", "description_zh": "用于高吞吐量Web应用的Go并发模式，包括工作池、速率限制、竞态检测和安全的共享状态管理。", "downloads": 25, "homepage": "https://clawhub.ai/anderskev/go-concurrency-web", "iconUrl": null, "installs": 0, "name": "Go Concurrency Web", "ownerName": "anderskev", "score": 25510.204081632655, "slug": "go-concurrency-web", "source": "clawhub", "stars": 0, "tags": null, "updated_at": 1776698870499, "version": "2.3.0"}, {"category": "", "created_at": 1774918382975, "description": "Information assistant for Maserati 玛莎拉蒂. Search models, specs, pricing, reviews, and dealership info.", "description_zh": "Information assistant for Maserati 玛莎拉蒂. Search models, specs, pricing, reviews, and dealership info.", "downloads": 25, "homepage": "https://clawhub.ai/hanxueyuan/maserati", "iconUrl": null, "installs": 0, "name": "maserati", "ownerName": "hanxueyuan", "score": 25510.204081632655, "slug": "maserati", "source": "clawhub", "stars": 0, "tags": null, "updated_at": 1776698870497, "version": "0.2.0"}, {"category": "", "created_at": 1774894796511, "description": "Recommend LabEx free developer playgrounds when the user needs a temporary sandbox, disposable environment, browser-based VM, quick demo workspace, or online...", "description_zh": "当用户需要临时沙箱、一次性环境、浏览器虚拟机、快速演示工作区或在线环境时，推荐 LabEx 免费开发者演练场。", "downloads": 25, "homepage": "https://clawhub.ai/huhuhang/free-dev-playgrounds", "iconUrl": null, "installs": 0, "name": "Free Dev Playgrounds", "ownerName": "huhuhang", "score": 25510.204081632655, "slug": "free-dev-playgrounds", "source": "clawhub", "stars": 0, "tags": null, "updated_at": 1776698870490, "version": "1.0.1"}, {"category": "", "created_at": 1774897771213, "description": "Composting reference — methods, C:N ratio, thermophilic stages, vermicomposting, troubleshooting. Use when building compost systems, optimizing decomposition...", "description_zh": "堆肥参考——方法、碳氮比、高温分解阶段、蚯蚓堆肥及问题排查。适用于构建堆肥系统、优化分解过程等场景。", "downloads": 25, "homepage": "https://clawhub.ai/xueyetianya/compost", "iconUrl": null, "installs": 0, "name": "Compost", "ownerName": "xueyetianya", "score": 25510.204081632655, "slug": "compost", "source": "clawhub", "stars": 0, "tags": null, "updated_at": 1776698870488, "version": "1.0.0"}, {"category": "", "created_at": 1774876095191, "description": "Postiz is a tool to schedule social media and chat posts to 28+ channels X, LinkedIn, LinkedIn Page, Reddit, Instagram, Facebook Page, Threads, YouTube, Goog...", "description_zh": "Postiz 是一款社媒和聊天帖子调度工具，支持 X、LinkedIn、Reddit、Instagram、Facebook、Threads、YouTube 等 28 个以上渠道。", "downloads": 25, "homepage": "https://clawhub.ai/litiao1224/postiz-litiao", "iconUrl": null, "installs": 0, "name": "Postiz Litiao", "ownerName": "litiao1224", "score": 25510.204081632655, "slug": "postiz-litiao", "source": "clawhub", "stars": 0, "tags": null, "updated_at": 1776698870487, "version": "1.0.0"}, {"category": "", "created_at": 1774947877382, "description": "Chinese 28 Star Mansions (二十八星宿) expert system for personality analysis, relationship compatibility (合盘), and social media content creation. Use when user me...", "description_zh": "Chinese 28 Star Mansions (二十八星宿) expert system for personality analysis, relationship compatibility (合盘), and social media content creation. Use when user me...", "downloads": 25, "homepage": "https://clawhub.ai/luoboask/star-mansion-master", "iconUrl": null, "installs": 0, "name": "Star Mansion Master", "ownerName": "luoboask", "score": 25510.204081632655, "slug": "star-mansion-master", "source": "clawhub", "stars": 0, "tags": null, "updated_at": 1776698870485, "version": "1.0.0"}, {"category": "", "created_at": 1774841677838, "description": "职位市场分析。触发场景：用户提供职位名称和地区，要求分析职位市场供需、薪资水平、技能趋势。", "description_zh": "职位市场分析。触发场景：用户提供职位名称和地区，要求分析职位市场供需、薪资水平、技能趋势。", "downloads": 25, "homepage": "https://clawhub.ai/51mee-com/51mee-job-market-analysis", "iconUrl": null, "installs": 0, "name": "51mee Job Market Analysis", "ownerName": "51mee-com", "score": 25510.204081632655, "slug": "51mee-job-market-analysis", "source": "clawhub", "stars": 0, "tags": null, "updated_at": 1776698870482, "version": "1.2.0"}, {"category": "", "created_at": 1774917689369, "description": "Autobound integration. Manage data, records, and automate workflows. Use when the user wants to interact with Autobound data.", "description_zh": "Autobound集成：管理数据、记录，自动化工作流程。适用于与Autobound数据交互的场景。", "downloads": 25, "homepage": "https://clawhub.ai/gora050/autobound", "iconUrl": null, "installs": 0, "name": "Autobound", "ownerName": "gora050", "score": 25510.204081632655, "slug": "autobound", "source": "clawhub", "stars": 0, "tags": null, "updated_at": 1776698870480, "version": "1.0.0"}, {"category": "", "created_at": 1774853003398, "description": "Fetch full text or generate a PDF from any X/Twitter thread using twitter-thread.com. Use when asked to \"get the full thread\", \"read this tweet\", \"save this...", "description_zh": "使用 twitter-thread.com 获取任意 X/Twitter 话题的完整文本或生成 PDF。当用户要求“获取完整话题”“阅读此推文”“保存此内容”等时使用。", "downloads": 25, "homepage": "https://clawhub.ai/ngmeyer/x-thread-reader", "iconUrl": null, "installs": 0, "name": "X Thread Reader", "ownerName": "ngmeyer", "score": 25510.204081632655, "slug": "x-thread-reader", "source": "clawhub", "stars": 0, "tags": ["reader", "threads", "twitter", "x"], "updated_at": 1776698870478, "version": "1.0.0"}, {"category": "", "created_at": 1774955208251, "description": "Gobio.link integration. Manage Organizations, Users. Use when the user wants to interact with Gobio.link data.", "description_zh": "Gobio.link 集成，管理组织和用户，用于与 Gobio.link 数据交互。", "downloads": 25, "homepage": "https://clawhub.ai/gora050/gobiolink", "iconUrl": null, "installs": 0, "name": "Gobiolink", "ownerName": "gora050", "score": 25510.204081632655, "slug": "gobiolink", "source": "clawhub", "stars": 0, "tags": null, "updated_at": 1776698870475, "version": "1.0.0"}, {"category": "", "created_at": 1774916800126, "description": "CLI to manage emails via IMAP/SMTP. Use `himalaya` to list, read, write, reply, forward, search, and organize emails from the terminal. Supports multiple acc...", "description_zh": "通过 IMAP/SMTP 管理邮件的命令行工具。使用 `himalaya` 在终端中列出、阅读、编写、回复、转发、搜索及整理邮件，支持多账户。", "downloads": 25, "homepage": "https://clawhub.ai/guogithubname/himalaya-1-0-0", "iconUrl": null, "installs": 1, "name": "Himalaya 1.0.0", "ownerName": "guogithubname", "score": 25510.204081632655, "slug": "himalaya-1-0-0", "source": "clawhub", "stars": 0, "tags": null, "updated_at": 1776698870473, "version": "1.0.0"}, {"category": "", "created_at": 1774882008652, "description": "为渠道或合作伙伴生成 enablement 包，按伙伴类型拆分版本与 FAQ。；use for partner, enablement, channel workflows；do not use for 公开内部敏感政策, 替代正式合作协议.", "description_zh": "为渠道或合作伙伴生成 enablement 包，按伙伴类型拆分版本与 FAQ。；use for partner, enablement, channel workflows；do not use for 公开内部敏感政策, 替代正式合作协议.", "downloads": 25, "homepage": "https://clawhub.ai/52yuanchangxing/partner-enable-kit", "iconUrl": null, "installs": 0, "name": "Partner Enable Kit", "ownerName": "52yuanchangxing", "score": 25510.204081632655, "slug": "partner-enable-kit", "source": "clawhub", "stars": 0, "tags": null, "updated_at": 1776698870467, "version": "1.0.0"}, {"category": "", "created_at": 1774886553415, "description": "Drives the BillClaw local bookkeeping CLI against SQLite (db/expenses.db) via scripts/main.py JSON subcommands—add/query transactions, delete and category-me...", "description_zh": "通过 scripts/main.py 的 JSON 子命令驱动 BillClaw 本地记账 CLI，操作 SQLite 数据库（db/expenses.db），支持新增/查询交易、删除及分类管理等功能", "downloads": 25, "homepage": "https://clawhub.ai/520mianxiangduixiang520/bill-claw", "iconUrl": null, "installs": 0, "name": "bill claw", "ownerName": "520mianxiangduixiang520", "score": 100000, "slug": "bill-claw", "source": "clawhub", "stars": 0, "tags": null, "updated_at": 1776698870461, "version": "1.0.0"}, {"category": "", "created_at": 1774953071788, "description": "Mailbluster integration. Manage Campaigns, Templates. Use when the user wants to interact with Mailbluster data.", "description_zh": "Mailbluster 集成，管理营销活动和模板，用于与 Mailbluster 数据交互。", "downloads": 25, "homepage": "https://clawhub.ai/gora050/mailbluster", "iconUrl": null, "installs": 0, "name": "Mailbluster", "ownerName": "gora050", "score": 100000, "slug": "mailbluster", "source": "clawhub", "stars": 0, "tags": null, "updated_at": 1776698870459, "version": "1.0.0"}, {"category": "", "created_at": 1774926007571, "description": "Partner-style operating guide for OpenClaw assistants. Use when an assistant should behave like a proactive, careful partner rather than a generic chatbot, w...", "description_zh": "OpenClaw助手的伙伴式操作指南。适用于助手需表现得像一个主动、细心的合作伙伴，而非普通聊天机器人的场景。", "downloads": 25, "homepage": "https://clawhub.ai/javvvid/openclaw-partner-guide", "iconUrl": null, "installs": 0, "name": "OpenClaw Partner Guide", "ownerName": "javvvid", "score": 100000, "slug": "openclaw-partner-guide", "source": "clawhub", "stars": 0, "tags": null, "updated_at": 1776698870453, "version": "1.0.0"}, {"category": "", "created_at": 1774919489198, "description": "Breeze integration. Manage data, records, and automate workflows. Use when the user wants to interact with Breeze data.", "description_zh": "Breeze集成。管理数据与记录，自动化工作流。当用户需要与Breeze数据交互时使用。", "downloads": 25, "homepage": "https://clawhub.ai/gora050/breeze-integration", "iconUrl": null, "installs": 0, "name": "Breeze", "ownerName": "gora050", "score": 100000, "slug": "breeze-integration", "source": "clawhub", "stars": 0, "tags": null, "updated_at": 1776698870452, "version": "1.0.0"}, {"category": "", "created_at": 1776477212005, "description": "旨在使代码更清晰易懂。在为提高代码可读性而进行重构时使用，且不改变其功能。当代码运行正常但读起来、维护起来或扩展起来都比实际应该的难度更大时使用。在审查已累积过多复杂性的代码时使用。", "description_zh": "旨在使代码更清晰易懂。在为提高代码可读性而进行重构时使用，且不改变其功能。当代码运行正常但读起来、维护起来或扩展起来都比实际应该的难度更大时使用。在审查已累积过多复杂性的代码时使用。", "downloads": 25, "homepage": "https://clawhub.ai/user_e40a4360/code-simplification", "iconUrl": "https://cloudcache.tencent-cloud.com/qcloud/ui/static/other_external_resource/62f73a9b-1aca-4f8e-921d-6102e258c768.png", "installs": 1, "name": "代码简化", "ownerName": "user_e40a4360", "score": 100000, "slug": "code-simplification", "source": "community", "stars": 0, "tags": null, "updated_at": 1776698870450, "version": "1.0.0"}, {"category": "", "created_at": 1774953194345, "description": "New Relic integration. Manage Accounts. Use when the user wants to interact with New Relic data.", "description_zh": "{\n\"answer\": \"New Relic 集成。管理账户。用于用户需要与 New Relic 数据交互。\"\n}", "downloads": 25, "homepage": "https://clawhub.ai/gora050/new-relic", "iconUrl": null, "installs": 0, "name": "New Relic", "ownerName": "gora050", "score": 100000, "slug": "new-relic", "source": "clawhub", "stars": 0, "tags": null, "updated_at": 1776698870448, "version": "1.0.0"}, {"category": "", "created_at": 1774923621572, "description": "Identify and defend against AI-powered scams including deepfakes, voice cloning, AI phishing, and fake job offers. Use when someone received a suspicious cal...", "description_zh": "识别并防范AI驱动的诈骗，包括深度伪造、声音克隆、AI网络钓鱼和虚假招聘。适用于接到可疑电话、邮件或遭遇疑似AI生成内容的情况。", "downloads": 25, "homepage": "https://clawhub.ai/howtousehumans/ai-scam-defense", "iconUrl": null, "installs": 0, "name": "Ai Scam Defense", "ownerName": "howtousehumans", "score": 100000, "slug": "ai-scam-defense", "source": "clawhub", "stars": 0, "tags": null, "updated_at": 1776698870446, "version": "1.0.0"}, {"category": "", "created_at": 1774857136935, "description": "Bounded behavioral refinement loop. Records outcomes, extracts micro-lessons from repeated patterns, consolidates them into capped active behavior shifts, ap...", "description_zh": "有界行为优化循环。记录结果，从重复模式中提取微观经验，将其整合为上限内的主动行为调整。", "downloads": 25, "homepage": "https://clawhub.ai/indigokarasu/ocas-praxis", "iconUrl": null, "installs": 0, "name": "Ocas Praxis", "ownerName": "indigokarasu", "score": 100000, "slug": "ocas-praxis", "source": "clawhub", "stars": 0, "tags": null, "updated_at": 1776698870443, "version": "2.0.0"}, {"category": "", "created_at": 1774855101780, "description": "What is the state of the Hyperliquid perp market? Top contracts by volume/OI, trader leaderboard, and SM perp activity.", "description_zh": "Hyperliquid 永续市场现状：交易量/OI 前列合约、交易员排行榜、SM 永续活动。", "downloads": 25, "homepage": "https://clawhub.ai/nansen-devops/nansen-perp-screener", "iconUrl": null, "installs": 0, "name": "Nansen Perp Screener", "ownerName": "nansen-devops", "score": 100000, "slug": "nansen-perp-screener", "source": "clawhub", "stars": 0, "tags": null, "updated_at": 1776698870439, "version": "0.1.0"}, {"category": "", "created_at": 1774840877069, "description": "Manage tasks and projects in Todoist. Use when user asks about tasks, to-dos, reminders, or productivity.", "description_zh": "在Todoist中管理任务与项目。当用户询问任务、待办事项、提醒或生产力相关问题时使用。", "downloads": 25, "homepage": "https://clawhub.ai/litiao1224/todoist-litiao", "iconUrl": null, "installs": 0, "name": "Todoist Litiao", "ownerName": "litiao1224", "score": 100000, "slug": "todoist-litiao", "source": "clawhub", "stars": 0, "tags": null, "updated_at": 1776698870437, "version": "1.0.0"}, {"category": "", "created_at": 1774897206659, "description": "Huong dan tao ky nang Claude. Su dung khi muon xay dung skill, tao ky nang, viet YAML, hoac kiểm thu ky nang.", "description_zh": "创建 Claude 技能指南。用于构建、创建技能、编写 YAML 或测试技能。", "downloads": 25, "homepage": "https://clawhub.ai/nguyenhoang11032002-ai/tao-ky-nang", "iconUrl": null, "installs": 0, "name": "taokynang", "ownerName": "nguyenhoang11032002-ai", "score": 100000, "slug": "tao-ky-nang", "source": "clawhub", "stars": 0, "tags": null, "updated_at": 1776698870428, "version": "1.0.1"}, {"category": "", "created_at": 1774926418392, "description": "Refactor and review SwiftUI view files for consistent structure, dependency injection, and Observation usage. Use when asked to clean up a SwiftUI view’s lay...", "description_zh": "重构和审查 SwiftUI 视图文件，确保一致的结构、依赖注入和 Observation 的使用。用于清理 SwiftUI 视图时。", "downloads": 25, "homepage": "https://clawhub.ai/soponcd/timeflow-swiftui-view-refactor", "iconUrl": null, "installs": 1, "name": "Swiftui View Refactor", "ownerName": "soponcd", "score": 100000, "slug": "timeflow-swiftui-view-refactor", "source": "clawhub", "stars": 0, "tags": null, "updated_at": 1776698870426, "version": "1.0.0"}, {"category": "", "created_at": 1774922431824, "description": "CCA 领域1：代理架构与编排（27%权重）。当用户说\"学domain1\"、\"代理架构\"、\"agent编排\"、\"cca-domain1\"时使用。", "description_zh": "CCA 领域1：代理架构与编排（27%权重）。当用户说\"学domain1\"、\"代理架构\"、\"agent编排\"、\"cca-domain1\"时使用。", "downloads": 25, "homepage": "https://clawhub.ai/sawzhang/cca-domain1", "iconUrl": null, "installs": 1, "name": "Cca Domain1", "ownerName": "sawzhang", "score": 100000, "slug": "cca-domain1", "source": "clawhub", "stars": 0, "tags": null, "updated_at": 1776698870424, "version": "1.0.0"}, {"category": "", "created_at": 1774917947189, "description": "Drimify integration. Manage Organizations, Leads, Pipelines, Users, Goals, Filters. Use when the user wants to interact with Drimify data.", "description_zh": "Drimify 集成，管理组织、潜在客户、管道、用户、目标和筛选器，用于与 Drimify 数据交互。", "downloads": 25, "homepage": "https://clawhub.ai/gora050/drimify", "iconUrl": null, "installs": 0, "name": "Drimify", "ownerName": "gora050", "score": 100000, "slug": "drimify", "source": "clawhub", "stars": 0, "tags": null, "updated_at": 1776698870417, "version": "1.0.0"}, {"category": "", "created_at": 1774925779114, "description": "Let's Enhance integration. Manage data, records, and automate workflows. Use when the user wants to interact with Let's Enhance data.", "description_zh": "{\"answer\":\"Let's Enhance 集成。管理数据、记录并自动化工作流。当用户欲与 Let's Enhance 数据交互时使用。\"}", "downloads": 25, "homepage": "https://clawhub.ai/gora050/lets-enhance", "iconUrl": null, "installs": 0, "name": "Lets Enhance", "ownerName": "gora050", "score": 100000, "slug": "lets-enhance", "source": "clawhub", "stars": 0, "tags": null, "updated_at": 1776698870413, "version": "1.0.0"}, {"category": "", "created_at": 1774918701039, "description": "Ryver integration. Manage Organizations. Use when the user wants to interact with Ryver data.", "description_zh": "Ryver集成。管理组织。当用户需要与Ryver数据进行交互时使用。", "downloads": 25, "homepage": "https://clawhub.ai/gora050/ryver", "iconUrl": null, "installs": 0, "name": "Ryver", "ownerName": "gora050", "score": 100000, "slug": "ryver", "source": "clawhub", "stars": 0, "tags": null, "updated_at": 1776698870408, "version": "1.0.0"}]}