{"page": 658, "total_pages": 685, "total": 34217, "skills": [{"category": "", "created_at": 1774925333577, "description": "Chaport integration. Manage data, records, and automate workflows. Use when the user wants to interact with Chaport data.", "description_zh": "Chaport集成，管理数据、记录和工作流自动化，适用于用户需与Chaport数据交互的场景。", "downloads": 25, "homepage": "https://clawhub.ai/gora050/chaport", "iconUrl": null, "installs": 0, "name": "Chaport", "ownerName": "gora050", "score": 100000, "slug": "chaport", "source": "clawhub", "stars": 0, "tags": null, "updated_at": 1776698870406, "version": "1.0.0"}, {"category": "", "created_at": 1774925077431, "description": "处理前端国际化翻译工作。当用户提到需要做国际化、i18n、翻译、多语言支持时使用此 skill。主要功能：1) 识别代码中的硬编码静态文字；2) 判断是否应使用现有公共翻译或需要新增；3) 将翻译添加到对应的语言文件中；4) 将硬编码替换为国际化调用；5) 检查翻译完整性和正确性。", "description_zh": "处理前端国际化翻译工作。当用户提到需要做国际化、i18n、翻译、多语言支持时使用此 skill。主要功能：1) 识别代码中的硬编码静态文字；2) 判断是否应使用现有公共翻译或需要新增；3) 将翻译添加到对应的语言文件中；4) 将硬编码替换为国际化调用；5) 检查翻译完整性和正确性。", "downloads": 25, "homepage": "https://clawhub.ai/anyaoqi/dy-skill-i18n", "iconUrl": null, "installs": 1, "name": "i18国际化文案翻译", "ownerName": "anyaoqi", "score": 100000, "slug": "dy-skill-i18n", "source": "clawhub", "stars": 0, "tags": null, "updated_at": 1776698870403, "version": "1.0.0"}, {"category": "", "created_at": 1774869483256, "description": "Draft, revise, and publish X (Twitter) posts with an image using the X API. Use when the user asks for a tweet/post for X, wants to attach an image, and requ...", "description_zh": "使用 X API 起草、修改并发布带图片的 X (Twitter) 帖子。当用户请求发推文并希望附加图片时使用。", "downloads": 25, "homepage": "https://clawhub.ai/elandivar/neomano-x", "iconUrl": null, "installs": 0, "name": "Neomano X (Tweet Publisher + Image)", "ownerName": "elandivar", "score": 100000, "slug": "neomano-x", "source": "clawhub", "stars": 0, "tags": ["media", "oauth1", "posting", "twitter", "x"], "updated_at": 1776698870401, "version": "0.1.0"}, {"category": "", "created_at": 1775202321863, "description": "", "description_zh": "Detects whether anyone has fallen within a specified target area. Supports both image and short video analysis. Suitable for scenarios such as home care for elderly people living alone and safety monitoring in nursing homes. | 检测目标区域内是否有人跌倒，支持图片和短视频检测，适用于独居老人居家看护、养老院安全监测等场景", "downloads": 25, "homepage": "https://clawhub.ai/user_bb47e3e3/fall-detection-image-analysis", "iconUrl": null, "installs": 0, "name": "Fall Detection & Analysis Skill | 跌倒检测分析技能", "ownerName": "user_bb47e3e3", "score": 100000, "slug": "fall-detection-image-analysis", "source": "community", "stars": 0, "tags": null, "updated_at": 1776698870400, "version": "1.0.0"}, {"category": "", "created_at": 1774879529633, "description": "Burn existing subtitles or captions directly into video exports so they remain visible across platforms and players. Use when a team already has captions and...", "description_zh": "将现有字幕直接烧录到视频导出文件中，确保在各种平台和播放器上始终可见。适用于团队已有字幕的情况。", "downloads": 25, "homepage": "https://clawhub.ai/leooooooow/video-caption-burner", "iconUrl": null, "installs": 0, "name": "Video Caption Burner", "ownerName": "leooooooow", "score": 100000, "slug": "video-caption-burner", "source": "clawhub", "stars": 0, "tags": null, "updated_at": 1776698870398, "version": "1.0.0"}, {"category": "", "created_at": 1774903621782, "description": "Find specific reagent kit part numbers and catalog numbers for laboratory protocol steps. Searches vendor websites for options with catalog numbers and direc...", "description_zh": "查找实验室方案步骤所需的特定试剂盒部件号和目录号，搜索供应商网站以获取含目录号及直接链接的选项。", "downloads": 25, "homepage": "https://clawhub.ai/mengbingrock/protocal-kit-finder-for-protocal-agent", "iconUrl": null, "installs": 0, "name": "protocal-kit-finder-for-protocal-agent", "ownerName": "mengbingrock", "score": 100000, "slug": "protocal-kit-finder-for-protocal-agent", "source": "clawhub", "stars": 0, "tags": null, "updated_at": 1776698870394, "version": "1.0.1"}, {"category": "", "created_at": 1774921917121, "description": "Repuso integration. Manage Persons, Organizations, Deals, Leads, Projects, Activities and more. Use when the user wants to interact with Repuso data.", "description_zh": "Repuso 集成。管理人员、组织、交易、潜在客户、项目、活动等数据，用于与 Repuso 数据交互。", "downloads": 25, "homepage": "https://clawhub.ai/gora050/repuso", "iconUrl": null, "installs": 0, "name": "Repuso", "ownerName": "gora050", "score": 100000, "slug": "repuso", "source": "clawhub", "stars": 0, "tags": null, "updated_at": 1776698870392, "version": "1.0.0"}, {"category": "", "created_at": 1774869337704, "description": "Query an Unraid server via GraphQL for system, array, and Docker status in read-only mode.", "description_zh": "通过 GraphQL 以只读模式查询 Unraid 服务器的系统、阵列及 Docker 状态。", "downloads": 25, "homepage": "https://clawhub.ai/yoshiofthewire/unraid-claw", "iconUrl": null, "installs": 1, "name": "Unraid Monitor Skill for OpenClaw", "ownerName": "yoshiofthewire", "score": 100000, "slug": "unraid-claw", "source": "clawhub", "stars": 0, "tags": null, "updated_at": 1776698870389, "version": "1.0.4"}, {"category": "", "created_at": 1774872997826, "description": "Build, debug, and explain integrations with Raindrop.io, including OAuth 2 authorization, bearer-token REST API calls, collections and raindrops CRUD flows,...", "description_zh": "构建、调试并讲解与 Raindrop.io 的集成方案，涵盖 OAuth 2 授权、Bearer Token REST API 调用、收藏夹与书签的增删改查流程等。", "downloads": 25, "homepage": "https://clawhub.ai/huangcheng/raindrop-api", "iconUrl": null, "installs": 0, "name": "Raindrop.io API", "ownerName": "huangcheng", "score": 100000, "slug": "raindrop-api", "source": "clawhub", "stars": 0, "tags": null, "updated_at": 1776698870387, "version": "0.1.0"}, {"category": "", "created_at": 1774954607935, "description": "Use this skill when the user asks about Pokemon card grading, value, or whether a card is worth grading/slabbing. Triggers: 'should I grade', 'should I slab'...", "description_zh": "当用户询问宝可梦卡牌评级、价值或是否值得评级/装盒时使用此技能。触发词：'应该评级吗'、'应该装盒吗'等。", "downloads": 25, "homepage": "https://clawhub.ai/kewang0622/shouldislab", "iconUrl": null, "installs": 0, "name": "shouldislab", "ownerName": "kewang0622", "score": 100000, "slug": "shouldislab", "source": "clawhub", "stars": 0, "tags": null, "updated_at": 1776698870385, "version": "1.0.0"}, {"category": "", "created_at": 1774879319451, "description": "Build or reuse a compact navigation index for large, multi-file, or layered skills so you can load only the sections you need instead of rereading the full s...", "description_zh": "为大型、多文件或分层技能构建或复用紧凑的导航索引，以便按需加载所需章节，而无需重新读取完整内容。", "downloads": 25, "homepage": "https://clawhub.ai/haoh51918-lgtm/skills-pager", "iconUrl": null, "installs": 0, "name": "skills-pager", "ownerName": "haoh51918-lgtm", "score": 100000, "slug": "skills-pager", "source": "clawhub", "stars": 0, "tags": null, "updated_at": 1776698870383, "version": "1.0.0"}, {"category": "", "created_at": 1774864226490, "description": "Generate signature images via the Signus API and return image files for chat delivery. Use when asked for signature generation through Signus API.", "description_zh": "通过 Signus API 生成签名图片并在聊天中返回图片文件，适用于请求签名生成时。", "downloads": 25, "homepage": "https://clawhub.ai/signus-ai/signus-signature-generator", "iconUrl": null, "installs": 0, "name": "Signus Signature Generator", "ownerName": "signus-ai", "score": 100000, "slug": "signus-signature-generator", "source": "clawhub", "stars": 0, "tags": null, "updated_at": 1776698870381, "version": "1.0.2"}, {"category": "", "created_at": 1774870593931, "description": "Give your OpenClaw agent a homelab. Use when managing Docker containers, installing marketplace apps, or any Docker-related tasks on behalf of the user. Scop...", "description_zh": "为您的OpenClaw代理提供家庭实验室。用于管理Docker容器、安装市场应用或代表用户执行任何Docker相关任务。范围...", "downloads": 25, "homepage": "https://clawhub.ai/mentholmike/wagmios", "iconUrl": null, "installs": 0, "name": "wagmios", "ownerName": "mentholmike", "score": 100000, "slug": "wagmios", "source": "clawhub", "stars": 0, "tags": null, "updated_at": 1776698870378, "version": "1.0.2"}, {"category": "", "created_at": 1774953310246, "description": "Relavate integration. Manage Organizations, Users. Use when the user wants to interact with Relavate data.", "description_zh": "Relavate 集成：管理组织与用户；在需要与 Relavate 数据交互时使用。", "downloads": 25, "homepage": "https://clawhub.ai/gora050/relavate", "iconUrl": null, "installs": 0, "name": "Relavate", "ownerName": "gora050", "score": 100000, "slug": "relavate", "source": "clawhub", "stars": 0, "tags": null, "updated_at": 1776698870374, "version": "1.0.0"}, {"category": "", "created_at": 1774904764289, "description": "Robly integration. Manage Organizations, Users. Use when the user wants to interact with Robly data.", "description_zh": "Robly集成。管理组织和用户。当用户需要与Robly数据交互时使用。", "downloads": 25, "homepage": "https://clawhub.ai/gora050/robly", "iconUrl": null, "installs": 0, "name": "Robly", "ownerName": "gora050", "score": 100000, "slug": "robly", "source": "clawhub", "stars": 0, "tags": null, "updated_at": 1776698870370, "version": "1.0.0"}, {"category": "", "created_at": 1774827232108, "description": "Track and monitor the search ranking position of any ClawHub skill across multiple keywords. Check where your skill ranks for 'stock price', 'todo app', etc....", "description_zh": "追踪并监控 ClawHub 技能在多个关键词下的搜索排名位置。查看您的技能在“股价”、“待办事项”等关键词下的排名。", "downloads": 25, "homepage": "https://clawhub.ai/tjefferson/skills-rank", "iconUrl": null, "installs": 0, "name": "Clawhub Skills Rank", "ownerName": "tjefferson", "score": 100000, "slug": "skills-rank", "source": "clawhub", "stars": 0, "tags": null, "updated_at": 1776698870369, "version": "1.0.0"}, {"category": "", "created_at": 1774915799968, "description": "Search files, apps, and metadata on macOS using Spotlight CLI tools (`mdfind`, `mdls`, `mdutil`) with a fallback script for cases where indexing is incomplet...", "description_zh": "使用 Spotlight 命令行工具（mdfind、mdls、mdutil）在 macOS 上搜索文件、应用程序和元数据，并针对索引不完整的情况提供备用脚本。", "downloads": 25, "homepage": "https://clawhub.ai/mozi1924/spotlight-search", "iconUrl": null, "installs": 0, "name": "Spotlight Search", "ownerName": "mozi1924", "score": 100000, "slug": "spotlight-search", "source": "clawhub", "stars": 0, "tags": null, "updated_at": 1776698870367, "version": "0.1.2"}, {"category": "", "created_at": 1774922084543, "description": "Audit and improve SwiftUI runtime performance from code review and architecture. Use for requests to diagnose slow rendering, janky scrolling, high CPU/memor...", "description_zh": "从代码审查和架构层面审计并优化 SwiftUI 运行时性能，用于诊断渲染卡顿、滚动不流畅、CPU/内存占用过高等问题。", "downloads": 25, "homepage": "https://clawhub.ai/soponcd/timeflow-swiftui-performance-audit", "iconUrl": null, "installs": 1, "name": "Swiftui Performance Audit", "ownerName": "soponcd", "score": 100000, "slug": "timeflow-swiftui-performance-audit", "source": "clawhub", "stars": 0, "tags": null, "updated_at": 1776698870365, "version": "1.0.0"}, {"category": "", "created_at": 1774883604569, "description": "水滴保保险产品查询、对比和购买建议助手。帮助用户了解水滴保平台的健康险、重疾险、医疗险、寿险等产品，分析适合的保险方案。当用户询问水滴保产品、保险购买建议、或需要对比水滴保与其他保险时使用。", "description_zh": "水滴保保险产品查询、对比和购买建议助手。帮助用户了解水滴保平台的健康险、重疾险、医疗险、寿险等产品，分析适合的保险方案。当用户询问水滴保产品、保险购买建议、或需要对比水滴保与其他保险时使用。", "downloads": 25, "homepage": "https://clawhub.ai/jiwenbing/shuidibao", "iconUrl": null, "installs": 0, "name": "Shuidibao", "ownerName": "jiwenbing", "score": 100000, "slug": "shuidibao", "source": "clawhub", "stars": 0, "tags": null, "updated_at": 1776698870363, "version": "1.0.0"}, {"category": "", "created_at": 1774924684682, "description": "Operational procedures: triggers, steps, verification, rollback. Use when writing ops docs or improving incident speed.", "description_zh": "运维流程：触发条件、步骤、验证、回滚。用于编写运维文档或提升故障处理速度。", "downloads": 25, "homepage": "https://clawhub.ai/mikeclaw007/runbooks", "iconUrl": null, "installs": 0, "name": "Runbooks", "ownerName": "mikeclaw007", "score": 100000, "slug": "runbooks", "source": "clawhub", "stars": 0, "tags": null, "updated_at": 1776698870362, "version": "1.0.0"}, {"category": "", "created_at": 1774883799037, "description": "Use this skill when the task should be done through the twexapi command-line client, including installing the CLI, configuring app or profile auth, previewin...", "description_zh": "当任务需通过 twexapi 命令行客户端完成时使用此技能，包括安装 CLI、配置应用或配置文件身份验证、预览等。", "downloads": 25, "homepage": "https://clawhub.ai/yeahjjyy/twexapi-cli", "iconUrl": null, "installs": 0, "name": "Twexapi CLI", "ownerName": "yeahjjyy", "score": 100000, "slug": "twexapi-cli", "source": "clawhub", "stars": 0, "tags": null, "updated_at": 1776698870360, "version": "0.1.1"}, {"category": "", "created_at": 1774948893924, "description": "SARE integration. Manage Persons, Organizations, Deals, Leads, Projects, Activities and more. Use when the user wants to interact with SARE data.", "description_zh": "SARE 集成。管理人员、组织、交易、潜在客户、项目、活动等。用于用户与 SARE 数据交互。", "downloads": 25, "homepage": "https://clawhub.ai/gora050/sare", "iconUrl": null, "installs": 0, "name": "Sare", "ownerName": "gora050", "score": 100000, "slug": "sare", "source": "clawhub", "stars": 0, "tags": null, "updated_at": 1776698870358, "version": "1.0.0"}, {"category": "", "created_at": 1774881094171, "description": "Inspect, query, summarize, and debug WeryAI task IDs and batch IDs through the official task query endpoints. Use when you need to query WeryAI task status,...", "description_zh": "通过官方任务查询接口，检查、查询、汇总和调试 WeryAI 任务ID与批次ID。适用于查询 WeryAI 任务状态时使用……", "downloads": 25, "homepage": "https://clawhub.ai/weryai-developer/weryai-task-inspector", "iconUrl": null, "installs": 0, "name": "WeryAI Task Inspector", "ownerName": "weryai-developer", "score": 100000, "slug": "weryai-task-inspector", "source": "clawhub", "stars": 0, "tags": null, "updated_at": 1776698870355, "version": "0.1.1"}, {"category": "", "created_at": 1774861865429, "description": "提供废旧家电、纸箱塑料上门回收预约及积分兑换指引。", "description_zh": "提供废旧家电、纸箱塑料上门回收预约及积分兑换指引。", "downloads": 25, "homepage": "https://clawhub.ai/codenova58/waste-recycling", "iconUrl": null, "installs": 0, "name": "Waste Recycling", "ownerName": "codenova58", "score": 100000, "slug": "waste-recycling", "source": "clawhub", "stars": 0, "tags": null, "updated_at": 1776698870353, "version": "0.1.0"}, {"category": "", "created_at": 1774865513050, "description": "Build and publish websites on vvvlink.com. Creates HTML sites, uploads to VVVLink API, publishes with unique subdomain URLs. Triggers on: \"create a site\", \"b...", "description_zh": "{\"description_zh\":\"在vvvlink.com上构建并发布网站。创建HTML站点，上传至VVVLink API，并以唯一子域名URL发布。触发词：\"创建站点\"、\"b…\"\"}", "downloads": 25, "homepage": "https://clawhub.ai/vladlat/vvvlink-site-builder", "iconUrl": null, "installs": 0, "name": "VVVLINK Site Builder", "ownerName": "vladlat", "score": 100000, "slug": "vvvlink-site-builder", "source": "clawhub", "stars": 0, "tags": null, "updated_at": 1776698870351, "version": "1.8.1"}, {"category": "", "created_at": 1774900115989, "description": "Avoid common mistakes and debug issues in PydanticAI agents. Use when encountering errors, unexpected behavior, or when reviewing agent implementations.", "description_zh": "避免常见错误并调试PydanticAI代理问题。适用于遇到错误、意外行为或审查代理实现时。", "downloads": 25, "homepage": "https://clawhub.ai/anderskev/pydantic-ai-common-pitfalls", "iconUrl": null, "installs": 0, "name": "Pydantic Ai Common Pitfalls", "ownerName": "anderskev", "score": 100000, "slug": "pydantic-ai-common-pitfalls", "source": "clawhub", "stars": 0, "tags": null, "updated_at": 1776698870350, "version": "1.0.0"}, {"category": "", "created_at": 1774874732530, "description": "Post tweets, threads, replies, and quote-tweets to X (Twitter) via API v2 with OAuth 1.0a.", "description_zh": "使用 OAuth 1.0a 通过 API v2 向 X (Twitter) 发布推文、推文串、回复和引用推文。", "downloads": 25, "homepage": "https://clawhub.ai/3rdbrain/x-leads-api", "iconUrl": null, "installs": 0, "name": "X Publisher", "ownerName": "3rdbrain", "score": 100000, "slug": "x-leads-api", "source": "clawhub", "stars": 0, "tags": null, "updated_at": 1776698870348, "version": "1.0.0"}, {"category": "", "created_at": 1774884917742, "description": "Governed AI software execution — scan code for 75+ security, quality, and DevOps checks. Build projects from a brief with per-commit governance, or auto-fix...", "description_zh": "受治理的AI软件执行——扫描代码以进行75+项安全、质量和DevOps检查。支持根据需求构建项目并提供每次提交的治理，或自动修复...", "downloads": 25, "homepage": "https://clawhub.ai/honouralexwill/saturnday", "iconUrl": null, "installs": 0, "name": "Saturnday", "ownerName": "honouralexwill", "score": 100000, "slug": "saturnday", "source": "clawhub", "stars": 0, "tags": null, "updated_at": 1776698870346, "version": "1.6.0"}, {"category": "", "created_at": 1774944286656, "description": "Deliver real-time websocket updates for intent, quote, negotiation, order, and payment events. Use when implementing push channels, subscription authorizatio...", "description_zh": "通过WebSocket实时推送意向、报价、协商、订单和支付等事件。适用于实现推送通道和订阅授权功能。", "downloads": 25, "homepage": "https://clawhub.ai/luoqianchenguni-max/a2a-market-websocket-realtime", "iconUrl": null, "installs": 0, "name": "a2a-Market-WebSocket-Realtime", "ownerName": "luoqianchenguni-max", "score": 100000, "slug": "a2a-market-websocket-realtime", "source": "clawhub", "stars": 0, "tags": null, "updated_at": 1776698870342, "version": "0.2.0"}, {"category": "", "created_at": 1774896727215, "description": "Nexudus integration. Manage Spaces, Members, Products. Use when the user wants to interact with Nexudus data.", "description_zh": "Nexudus集成。管理空间、成员和产品。当用户希望与Nexudus数据交互时使用。", "downloads": 25, "homepage": "https://clawhub.ai/membranedev/nexudus", "iconUrl": null, "installs": 0, "name": "Nexudus", "ownerName": "membranedev", "score": 100000, "slug": "nexudus", "source": "clawhub", "stars": 0, "tags": null, "updated_at": 1776698870335, "version": "1.0.0"}, {"category": "", "created_at": 1774913170526, "description": "识别续约风险信号，区分可挽回风险与高概率流失信号。；use for renewal, risk, customer-success workflows；do not use for 伪造健康度数据, 替代正式续约决策.", "description_zh": "识别续约风险信号，区分可挽回风险与高概率流失信号。；use for renewal, risk, customer-success workflows；do not use for 伪造健康度数据, 替代正式续约决策.", "downloads": 25, "homepage": "https://clawhub.ai/52yuanchangxing/renewal-risk-monitor", "iconUrl": null, "installs": 1, "name": "Renewal Risk Monitor", "ownerName": "52yuanchangxing", "score": 100000, "slug": "renewal-risk-monitor", "source": "clawhub", "stars": 0, "tags": null, "updated_at": 1776698870331, "version": "1.0.0"}, {"category": "", "created_at": 1774901497213, "description": "Shop Whole Foods via Strider Labs MCP connector. Search organic products, check store inventory, order groceries for pickup or delivery via Amazon Prime.", "description_zh": "通过 Strider Labs MCP 连接器在 Whole Foods 购物，搜索有机产品，查看门店库存，通过 Amazon Prime 订购杂货并选择自提或配送。", "downloads": 25, "homepage": "https://clawhub.ai/markswendsen-code/strider-wholefoods", "iconUrl": null, "installs": 0, "name": "Strider Whole Foods", "ownerName": "markswendsen-code", "score": 100000, "slug": "strider-wholefoods", "source": "clawhub", "stars": 0, "tags": null, "updated_at": 1776698870328, "version": "1.0.0"}, {"category": "", "created_at": 1774924317698, "description": "LogSnag integration. Manage Insights, Users, Projects. Use when the user wants to interact with LogSnag data.", "description_zh": "LogSnag 集成。管理洞察、用户和项目。当用户需要与 LogSnag 数据交互时使用。", "downloads": 25, "homepage": "https://clawhub.ai/gora050/logsnag", "iconUrl": null, "installs": 0, "name": "Logsnag", "ownerName": "gora050", "score": 100000, "slug": "logsnag", "source": "clawhub", "stars": 0, "tags": null, "updated_at": 1776698870324, "version": "1.0.0"}, {"category": "", "created_at": 1774920280841, "description": "Noticeable integration. Manage Organizations. Use when the user wants to interact with Noticeable data.", "description_zh": "Noticeable 集成。管理组织。当用户希望与 Noticeable 数据交互时使用。", "downloads": 25, "homepage": "https://clawhub.ai/gora050/noticeable", "iconUrl": null, "installs": 0, "name": "Noticeable", "ownerName": "gora050", "score": 100000, "slug": "noticeable", "source": "clawhub", "stars": 0, "tags": null, "updated_at": 1776698870322, "version": "1.0.0"}, {"category": "", "created_at": 1774849081672, "description": "Automated Google Sheets Data Writer — Append rows, update cells, and automate spreadsheet data pipelines with a pre-configured target sheet.", "description_zh": "Google Sheets自动写入工具——在预设目标表中追加行、更新单元格，并自动化电子表格数据处理流程。", "downloads": 25, "homepage": "https://clawhub.ai/porteden/porteden-sheets-writer", "iconUrl": null, "installs": 0, "name": "Google Sheets File Automation", "ownerName": "porteden", "score": 100000, "slug": "porteden-sheets-writer", "source": "clawhub", "stars": 0, "tags": null, "updated_at": 1776698870320, "version": "1.0.0"}, {"category": "", "created_at": 1774905686049, "description": "国际法模拟法庭书状写作全攻略，涵盖国际法渊源检索、书状结构设计、案例分析方法、语言风格优化等核心技能。", "description_zh": "国际法模拟法庭书状写作全攻略，涵盖国际法渊源检索、书状结构设计、案例分析方法、语言风格优化等核心技能。", "downloads": 25, "homepage": "https://clawhub.ai/pepsile/mootcourt-03-research", "iconUrl": null, "installs": 0, "name": "mootcourt-03-research", "ownerName": "pepsile", "score": 100000, "slug": "mootcourt-03-research", "source": "clawhub", "stars": 0, "tags": null, "updated_at": 1776698870318, "version": "1.0.0"}, {"category": "", "created_at": 1774900520346, "description": "Information assistant for Adele 阿黛尔. Get biography, latest news, career highlights, and social media updates.", "description_zh": "Information assistant for Adele 阿黛尔. Get biography, latest news, career highlights, and social media updates.", "downloads": 25, "homepage": "https://clawhub.ai/hanxueyuan/adele", "iconUrl": null, "installs": 0, "name": "Adele", "ownerName": "hanxueyuan", "score": 100000, "slug": "adele", "source": "clawhub", "stars": 0, "tags": null, "updated_at": 1776698870316, "version": "0.1.1"}, {"category": "", "created_at": 1774845777153, "description": "Too Much Cute. Not Enough Hands.. An immersive journey on drifts.bot — 6 steps, MEDIUM intensity, 15-30 min. Browse, start, and travel via API.", "description_zh": "可爱泛滥，人手不足。drifts.bot 沉浸之旅——6 步骤，中等强度，15-30 分钟。支持浏览、启动及 API 调用。", "downloads": 25, "homepage": "https://clawhub.ai/driftsbot/experience-the-kitten-room", "iconUrl": null, "installs": 0, "name": "Experience The Kitten Room", "ownerName": "driftsbot", "score": 100000, "slug": "experience-the-kitten-room", "source": "clawhub", "stars": 0, "tags": null, "updated_at": 1776698870315, "version": "1.0.0"}, {"category": "", "created_at": 1774920244646, "description": "当用户提到“观察列表”或“股票观察”时触发。用于管理钉钉多维表格中的股票观察名单。", "description_zh": "当用户提到“观察列表”或“股票观察”时触发。用于管理钉钉多维表格中的股票观察名单。", "downloads": 25, "homepage": "https://clawhub.ai/canonxu/my-stock-watchlist-skill", "iconUrl": null, "installs": 0, "name": "My Stock Watchlist Skill", "ownerName": "canonxu", "score": 100000, "slug": "my-stock-watchlist-skill", "source": "clawhub", "stars": 0, "tags": null, "updated_at": 1776698870311, "version": "1.0.0"}, {"category": "", "created_at": 1774911575568, "description": "Checkr integration. Manage data, records, and automate workflows. Use when the user wants to interact with Checkr data.", "description_zh": "Checkr 集成，管理数据、记录并自动化工作流程。用于用户需要与 Checkr 数据交互的场景。", "downloads": 25, "homepage": "https://clawhub.ai/gora050/checkr", "iconUrl": null, "installs": 0, "name": "Checkr", "ownerName": "gora050", "score": 100000, "slug": "checkr", "source": "clawhub", "stars": 0, "tags": null, "updated_at": 1776698870306, "version": "1.0.0"}, {"category": "", "created_at": 1774892705147, "description": "［何时使用］当用户需要判断经济周期位置时；当用户问\"现在经济处于什么周期\"时；当进行资产配置决策时；当需要债务周期分析时", "description_zh": "［何时使用］当用户需要判断经济周期位置时；当用户问\"现在经济处于什么周期\"时；当进行资产配置决策时；当需要债务周期分析时", "downloads": 25, "homepage": "https://clawhub.ai/lj22503/cycle-locator", "iconUrl": null, "installs": 0, "name": "周期定位师", "ownerName": "lj22503", "score": 100000, "slug": "cycle-locator", "source": "clawhub", "stars": 0, "tags": ["dalio", "debt", "economic-cycle"], "updated_at": 1776698870297, "version": "2.0.0"}, {"category": "", "created_at": 1774951039855, "description": "Turns the agent into Attention OS — AI as a cognitive mirror, not a predictor. Helps you think like yourself, but sharper.", "description_zh": "将智能体转变为专注系统——AI作为认知镜子而非预测者，帮助你更敏锐地思考。", "downloads": 25, "homepage": "https://clawhub.ai/amonter/attention-os", "iconUrl": null, "installs": 0, "name": "Attention-OS", "ownerName": "amonter", "score": 100000, "slug": "attention-os", "source": "clawhub", "stars": 0, "tags": null, "updated_at": 1776698870291, "version": "1.0.0"}, {"category": "", "created_at": 1774894433183, "description": "Explain and work with the CGCS2000 coordinate reference system for China geospatial workflows, including EPSG:4490 interpretation, projected CRS selection, G...", "description_zh": "解释并使用CGCS2000坐标系，支持中国地理空间工作流，涵盖EPSG:4490解读、投影坐标系选取及G...", "downloads": 25, "homepage": "https://clawhub.ai/jvy/cgcs2000", "iconUrl": null, "installs": 0, "name": "cgcs2000国家2000坐标系", "ownerName": "jvy", "score": 100000, "slug": "cgcs2000", "source": "clawhub", "stars": 0, "tags": null, "updated_at": 1776698870287, "version": "1.0.0"}, {"category": "", "created_at": 1774899603051, "description": "Reviews Elixir code for performance issues including GenServer bottlenecks, memory usage, and concurrency patterns. Use when reviewing high-throughput code o...", "description_zh": "审查 Elixir 代码性能问题，包括 GenServer 瓶颈、内存使用和并发模式，用于高吞吐量代码审查。", "downloads": 25, "homepage": "https://clawhub.ai/anderskev/elixir-performance-review", "iconUrl": null, "installs": 0, "name": "Elixir Performance Review", "ownerName": "anderskev", "score": 100000, "slug": "elixir-performance-review", "source": "clawhub", "stars": 0, "tags": null, "updated_at": 1776698870282, "version": "1.2.0"}, {"category": "", "created_at": 1774897902491, "description": "Query the DriftaBot Registry for API spec drifts, breaking changes, and provider information. Use when the user asks about API changes, breaking changes, pro...", "description_zh": "查询DriftaBot注册表以获取API规范偏差、破坏性变更和提供商信息。当用户询问API变更、破坏性变更或提供商相关信息时使用。", "downloads": 25, "homepage": "https://clawhub.ai/pgomes13/driftabot", "iconUrl": null, "installs": 0, "name": "DriftaBot", "ownerName": "pgomes13", "score": 100000, "slug": "driftabot", "source": "clawhub", "stars": 0, "tags": null, "updated_at": 1776698870277, "version": "1.0.0"}, {"category": "", "created_at": 1774894440728, "description": "Chaindesk integration. Manage data, records, and automate workflows. Use when the user wants to interact with Chaindesk data.", "description_zh": "Chaindesk集成。管理数据、记录并自动化工作流。用于用户需要与Chaindesk数据进行交互时。", "downloads": 25, "homepage": "https://clawhub.ai/gora050/chaindesk", "iconUrl": null, "installs": 0, "name": "Chaindesk", "ownerName": "gora050", "score": 100000, "slug": "chaindesk", "source": "clawhub", "stars": 0, "tags": null, "updated_at": 1776698870275, "version": "1.0.0"}, {"category": "", "created_at": 1774918520942, "description": "OpenClaw-native PDF/document processing skill for Nutrient DWS. Best for OpenClaw users who need PDF conversion, OCR, text/table extraction, PII redaction, w...", "description_zh": "OpenClaw 原生 PDF/文档处理技能，适用于 Nutrient DWS，帮助用户完成 PDF 转换、OCR、文字/表格提取、PII 脱敏等功能。", "downloads": 25, "homepage": "https://clawhub.ai/zhouhuihui008/nutrient-openclaw-1-2-5", "iconUrl": null, "installs": 2, "name": "Nutrient Openclaw 1.2.5", "ownerName": "zhouhuihui008", "score": 100000, "slug": "nutrient-openclaw-1-2-5", "source": "clawhub", "stars": 0, "tags": null, "updated_at": 1776698870272, "version": "1.0.0"}, {"category": "", "created_at": 1774915695598, "description": "将发布说明转换为中文、英文、客户版和技术版，同时保持术语一致。；use for localization, release-notes, translation workflows；do not use for 机翻敏感合同条款, 替代专业法律翻译.", "description_zh": "将发布说明转换为中文、英文、客户版和技术版，同时保持术语一致。；use for localization, release-notes, translation workflows；do not use for 机翻敏感合同条款, 替代专业法律翻译.", "downloads": 25, "homepage": "https://clawhub.ai/52yuanchangxing/release-note-localizer", "iconUrl": null, "installs": 0, "name": "Release Note Localizer", "ownerName": "52yuanchangxing", "score": 100000, "slug": "release-note-localizer", "source": "clawhub", "stars": 0, "tags": null, "updated_at": 1776698870270, "version": "1.0.0"}, {"category": "", "created_at": 1774867231060, "description": "Manage follow-up items and remind users at appropriate times via heartbeat checks.", "description_zh": "管理后续事项，通过心跳检查在适当时间提醒用户。", "downloads": 25, "homepage": "https://clawhub.ai/suidge/suidge-todo-tracker", "iconUrl": null, "installs": 0, "name": "Todo Tracker", "ownerName": "suidge", "score": 100000, "slug": "suidge-todo-tracker", "source": "clawhub", "stars": 0, "tags": null, "updated_at": 1776698870262, "version": "1.0.1"}, {"category": "", "created_at": 1774922019372, "description": "SuperPicky CLI skill: use absolute paths to scripts/install.sh and scripts/run.sh for automation; run.sh three entries (superpicky_cli, birdid_cli, --region-...", "description_zh": "SuperPicky CLI 技能：使用绝对路径调用 scripts/install.sh 和 scripts/run.sh 以实现自动化；run.sh 包含三个入口 (superpicky_cli, birdid_cli, --region-...", "downloads": 25, "homepage": "https://clawhub.ai/yoshino-s/superpicky", "iconUrl": null, "installs": 1, "name": "Superpicky Cli", "ownerName": "yoshino-s", "score": 100000, "slug": "superpicky", "source": "clawhub", "stars": 0, "tags": null, "updated_at": 1776698870258, "version": "0.2.0"}]}