{"page": 659, "total_pages": 685, "total": 34217, "skills": [{"category": "", "created_at": 1774894679929, "description": "When the user wants to create, optimize, or audit features page content. Also use when the user mentions \"features page,\" \"product features,\" \"capabilities,\"...", "description_zh": "用于创建、优化或审查功能页内容；当用户提及“功能页”“产品功能”“能力”等关键词时使用。", "downloads": 25, "homepage": "https://clawhub.ai/kostja94/features-page-generator", "iconUrl": null, "installs": 0, "name": "features-page-generator", "ownerName": "kostja94", "score": 100000, "slug": "features-page-generator", "source": "clawhub", "stars": 0, "tags": null, "updated_at": 1776698870254, "version": "1.1.0"}, {"category": "", "created_at": 1774868423796, "description": "Unify all chat channels into one shared AI session for seamless cross-device continuity. Start a conversation on your laptop, continue from your phone — same...", "description_zh": "统一所有聊天渠道至一个共享AI会话，实现无缝跨设备连续性。在笔记本电脑上开始对话，手机上继续，延续相同体验。", "downloads": 25, "homepage": "https://clawhub.ai/1052326311/unified-session", "iconUrl": null, "installs": 0, "name": "Unified Session — One Agent, All Devices, Zero Context Loss", "ownerName": "1052326311", "score": 100000, "slug": "unified-session", "source": "clawhub", "stars": 0, "tags": null, "updated_at": 1776698870250, "version": "1.3.0"}, {"category": "", "created_at": 1774895875575, "description": "Acumbamail integration. Manage data, records, and automate workflows. Use when the user wants to interact with Acumbamail data.", "description_zh": "Acumbamail 集成。管理数据、记录并自动化工作流。用于用户想要与 Acumbamail 数据交互时。", "downloads": 25, "homepage": "https://clawhub.ai/gora050/acumbamail", "iconUrl": null, "installs": 0, "name": "Acumbamail", "ownerName": "gora050", "score": 100000, "slug": "acumbamail", "source": "clawhub", "stars": 0, "tags": null, "updated_at": 1776698870249, "version": "1.0.0"}, {"category": "", "created_at": 1774956579763, "description": "PlanSo Forms integration. Manage Forms. Use when the user wants to interact with PlanSo Forms data.", "description_zh": "PlanSo Forms 集成；管理表单；用于交互 PlanSo Forms 数据。", "downloads": 25, "homepage": "https://clawhub.ai/gora050/planso-forms", "iconUrl": null, "installs": 0, "name": "Planso Forms", "ownerName": "gora050", "score": 100000, "slug": "planso-forms", "source": "clawhub", "stars": 0, "tags": null, "updated_at": 1776698870247, "version": "1.0.0"}, {"category": "", "created_at": 1774914651649, "description": "Trades Polymarket markets by detecting logical inconsistencies between related contracts such as earlier-vs-later deadlines and prerequisite-vs-downstream ev...", "description_zh": "通过检测相关合约的逻辑不一致（如到期日先后、先决条件与后续事件）在 Polymarket 市场进行交易。", "downloads": 25, "homepage": "https://clawhub.ai/diagnostikon/polymarket-resolution-lattice-trader", "iconUrl": null, "installs": 0, "name": "Resolution Lattice Trader", "ownerName": "diagnostikon", "score": 100000, "slug": "polymarket-resolution-lattice-trader", "source": "clawhub", "stars": 0, "tags": null, "updated_at": 1776698870245, "version": "1.0.0"}, {"category": "", "created_at": 1774926151637, "description": "Academic literature discovery and citation network analysis. Multi-source search across arXiv, DBLP, Semantic Scholar, and Google Scholar. Build citation net...", "description_zh": "学术文献发现与引文网络分析。多源检索覆盖 arXiv、DBLP、Semantic Scholar 与 Google Scholar，构建引文网络...", "downloads": 25, "homepage": "https://clawhub.ai/jiahaowugit/release20260324", "iconUrl": null, "installs": 1, "name": "Release20260324", "ownerName": "jiahaowugit", "score": 100000, "slug": "release20260324", "source": "clawhub", "stars": 0, "tags": null, "updated_at": 1776698870242, "version": "1.0.0"}, {"category": "", "created_at": 1774884002955, "description": "Extract per-subsection “anchor facts” (NO PROSE) from evidence packs so the writer is forced to include concrete numbers/benchmarks/limitations instead of ge...", "description_zh": "从证据包提取各小节锚定事实，强制包含具体数字/基准/限制，摒弃笼统表述。", "downloads": 25, "homepage": "https://clawhub.ai/willoscar/anchor-sheet", "iconUrl": null, "installs": 1, "name": "Anchor Sheet", "ownerName": "willoscar", "score": 100000, "slug": "anchor-sheet", "source": "clawhub", "stars": 0, "tags": null, "updated_at": 1776698870240, "version": "1.0.0"}, {"category": "", "created_at": 1774897477277, "description": "Best Adidas product deals", "description_zh": "阿迪达斯最优惠商品", "downloads": 25, "homepage": "https://clawhub.ai/hanxueyuan/adidas-deals", "iconUrl": null, "installs": 0, "name": "Adidas Deals", "ownerName": "hanxueyuan", "score": 100000, "slug": "adidas-deals", "source": "clawhub", "stars": 0, "tags": null, "updated_at": 1776698870238, "version": "0.1.1"}, {"category": "", "created_at": 1774906795933, "description": "Simon's OpenClaw technical service offering - AI assistant customization, automation, deployment and consulting.", "description_zh": "Simon的OpenClaw技术服务 - AI助手定制、自动化、部署与咨询", "downloads": 25, "homepage": "https://clawhub.ai/lauka/openclaw-service", "iconUrl": null, "installs": 0, "name": "OpenClaw 技术服务", "ownerName": "lauka", "score": 100000, "slug": "openclaw-service", "source": "clawhub", "stars": 0, "tags": ["automation", "customization", "deployment", "service"], "updated_at": 1776698870233, "version": "1.0.0"}, {"category": "", "created_at": 1774837728540, "description": "When the user wants to add or optimize structured data (Schema.org, JSON-LD). Also use when the user mentions \"schema,\" \"structured data,\" \"JSON-LD,\" \"rich r...", "description_zh": "当用户想要添加或优化结构化数据（Schema.org、JSON‑LD）时使用。也适用于用户提及“schema”“结构化数据”“JSON‑LD”“富结果”等关键词。", "downloads": 25, "homepage": "https://clawhub.ai/kostja94/kostja94-schema-markup", "iconUrl": null, "installs": 0, "name": "Schema Markup", "ownerName": "kostja94", "score": 100000, "slug": "kostja94-schema-markup", "source": "clawhub", "stars": 0, "tags": null, "updated_at": 1776698870228, "version": "1.3.0"}, {"category": "", "created_at": 1774905351682, "description": "Generate vertical short videos of cake decorating and pastry finishing (WeryAI): frosting, piping, mirror glaze, and other high-aesthetic handmade beats. Use...", "description_zh": "生成蛋糕装饰与甜点收尾的竖屏短视频（WeryAI）：包括抹面、裱花、镜面淋面及其他高颜值手工制作片段。", "downloads": 25, "homepage": "https://clawhub.ai/zoucdr/cake-decor-video", "iconUrl": null, "installs": 0, "name": "Cake Decor Video", "ownerName": "zoucdr", "score": 100000, "slug": "cake-decor-video", "source": "clawhub", "stars": 0, "tags": null, "updated_at": 1776698870226, "version": "0.1.0"}, {"category": "", "created_at": 1774890062982, "description": "帮助用户了解 Jessup 模拟法庭赛事的基本情况、赛制和备赛要点。", "description_zh": "帮助用户了解 Jessup 模拟法庭赛事的基本情况、赛制和备赛要点。", "downloads": 25, "homepage": "https://clawhub.ai/pepsile/jessup-intro", "iconUrl": null, "installs": 0, "name": "Jessup 模拟法庭赛事介绍", "ownerName": "pepsile", "score": 100000, "slug": "jessup-intro", "source": "clawhub", "stars": 0, "tags": null, "updated_at": 1776698870221, "version": "1.0.0"}, {"category": "", "created_at": 1774926001250, "description": "Run, audit, or improve an OpenClaw/ClawLite-style AI marketing team as a coordinated multi-lane operating system. Use when the task is to operate or package...", "description_zh": "以协同多车道操作系统方式运行、审计或提升 OpenClaw/ClawLite 风格的 AI 营销团队，适用于运营或打包任务。", "downloads": 25, "homepage": "https://clawhub.ai/x-rayluan/openclaw-ai-marketing", "iconUrl": null, "installs": 1, "name": "Openclaw Ai Marketing", "ownerName": "x-rayluan", "score": 100000, "slug": "openclaw-ai-marketing", "source": "clawhub", "stars": 0, "tags": ["marketing", "openclaw", "seo"], "updated_at": 1776698870214, "version": "0.1.0"}, {"category": "", "created_at": 1774951801847, "description": "Free email for AI agents. No sign-up needed. One call to get a mailbox and send.", "description_zh": "AI代理免费邮箱，无需注册，一次调用即可获取邮箱并发送邮件。", "downloads": 25, "homepage": "https://clawhub.ai/agents-mail/agents-mail", "iconUrl": null, "installs": 0, "name": "Agents Mail — Free Email for AI Agents, with No sign-up, No API key needed", "ownerName": "agents-mail", "score": 100000, "slug": "agents-mail", "source": "clawhub", "stars": 0, "tags": ["ai-agent", "chinese", "communication", "email", "free"], "updated_at": 1776698870203, "version": "0.4.4"}, {"category": "", "created_at": 1774948811582, "description": "Paystack integration. Manage Customers, Transactions, Plans, Products, Splits. Use when the user wants to interact with Paystack data.", "description_zh": "Paystack集成，管理客户、交易、计划、产品及分账。用于处理Paystack数据。", "downloads": 25, "homepage": "https://clawhub.ai/membranedev/paystack", "iconUrl": null, "installs": 0, "name": "Paystack", "ownerName": "membranedev", "score": 100000, "slug": "paystack", "source": "clawhub", "stars": 0, "tags": null, "updated_at": 1776698870201, "version": "1.0.0"}, {"category": "", "created_at": 1774919155181, "description": "Whitepaper reference tool. Use when working with whitepaper in blockchain contexts.", "description_zh": "区块链白皮书参考工具", "downloads": 25, "homepage": "https://clawhub.ai/bytesagain1/whitepaper", "iconUrl": null, "installs": 0, "name": "Whitepaper", "ownerName": "bytesagain1", "score": 100000, "slug": "whitepaper", "source": "clawhub", "stars": 0, "tags": null, "updated_at": 1776698870198, "version": "1.0.0"}, {"category": "", "created_at": 1774949842551, "description": "When the user wants to create X (Twitter) post copy, threads, or optimize for X platform. Also use when the user mentions \"X post,\" \"X thread,\" \"Twitter post...", "description_zh": "当用户需要创作 X（Twitter）帖子文案、推文串或针对 X 平台进行优化时使用。适用于用户提及「X 帖子」「X 推文串」「Twitter 帖子」等情况。", "downloads": 25, "homepage": "https://clawhub.ai/kostja94/twitter-x-posts", "iconUrl": null, "installs": 0, "name": "twitter-x-posts", "ownerName": "kostja94", "score": 100000, "slug": "twitter-x-posts", "source": "clawhub", "stars": 0, "tags": null, "updated_at": 1776698870194, "version": "1.1.0"}, {"category": "", "created_at": 1774922332057, "description": "Sync local OpenClaw skills to a remote NanoClaw agent on Mysta. Use when the user says \"sync my skills\", \"upload skills to mysta\", \"push skills to my nanocla...", "description_zh": "{\"description_zh\":\"将本地OpenClaw技能同步到Mysta上的远程NanoClaw代理。当用户说\"同步我的技能\"、\"上传技能到Mysta\"、\"推送技能到我的NanoClaw\"时使用。\"}", "downloads": 25, "homepage": "https://clawhub.ai/hongyegong/agent-soul-sync", "iconUrl": null, "installs": 0, "name": "Agent Soul Sync", "ownerName": "hongyegong", "score": 100000, "slug": "agent-soul-sync", "source": "clawhub", "stars": 0, "tags": null, "updated_at": 1776698870193, "version": "0.3.0"}, {"category": "", "created_at": 1774955712953, "description": "Junip integration. Manage Persons, Organizations, Deals, Activities, Notes, Files and more. Use when the user wants to interact with Junip data.", "description_zh": "Junip 集成。管理人员、组织、交易、活动、笔记、文件等。用户需要交互 Junip 数据时使用。", "downloads": 25, "homepage": "https://clawhub.ai/membranedev/junip", "iconUrl": null, "installs": 0, "name": "Junip", "ownerName": "membranedev", "score": 100000, "slug": "junip", "source": "clawhub", "stars": 0, "tags": null, "updated_at": 1776698870191, "version": "1.0.0"}, {"category": "", "created_at": 1774924533834, "description": "读取本地 OpenCode SQLite 数据库并执行跨目录 session 查询的技能，适用于会话检索、消息查看与 schema 检查。", "description_zh": "读取本地 OpenCode SQLite 数据库并执行跨目录 session 查询的技能，适用于会话检索、消息查看与 schema 检查。", "downloads": 25, "homepage": "https://clawhub.ai/wufei-png/opencode-session-reader-cn", "iconUrl": null, "installs": 0, "name": "opencode-session-reader-cn", "ownerName": "wufei-png", "score": 100000, "slug": "opencode-session-reader-cn", "source": "clawhub", "stars": 0, "tags": null, "updated_at": 1776698870187, "version": "1.0.0"}, {"category": "", "created_at": 1774889847641, "description": "RumorChecker 统一报告标准。确保证据链可追溯、多元交叉验证可视化、误解来源可解释，培养用户辨别能力。", "description_zh": "RumorChecker 统一报告标准。确保证据链可追溯、多元交叉验证可视化、误解来源可解释，培养用户辨别能力。", "downloads": 25, "homepage": "https://clawhub.ai/evianevans/evidence-report", "iconUrl": null, "installs": 1, "name": "Evidence Report", "ownerName": "evianevans", "score": 100000, "slug": "evidence-report", "source": "clawhub", "stars": 0, "tags": null, "updated_at": 1776698870182, "version": "1.0.0"}, {"category": "", "created_at": 1774894787532, "description": "Full HubSpot CRM automation — contacts, deals, companies, activities, and pipeline reports via the HubSpot API.", "description_zh": "完整的HubSpot CRM自动化：联系人、交易、公司、活动及管道报告，通过HubSpot API实现。", "downloads": 25, "homepage": "https://clawhub.ai/fr3kstyle/fr3k-hubspot-crm", "iconUrl": null, "installs": 0, "name": "Hubspot Crm", "ownerName": "fr3kstyle", "score": 100000, "slug": "fr3k-hubspot-crm", "source": "clawhub", "stars": 0, "tags": null, "updated_at": 1776698870177, "version": "1.0.0"}, {"category": "", "created_at": 1774860434896, "description": "初始化 SDD 工作区，选择工作目录，扫描代码库生成项目概述、架构全景、技术约束、已有功能清单等全局文档。", "description_zh": "初始化 SDD 工作区，选择工作目录，扫描代码库生成项目概述、架构全景、技术约束、已有功能清单等全局文档。", "downloads": 25, "homepage": "https://clawhub.ai/mahingbun-dev/sdd-global-init", "iconUrl": null, "installs": 1, "name": "SDD Global Init", "ownerName": "mahingbun-dev", "score": 100000, "slug": "sdd-global-init", "source": "clawhub", "stars": 0, "tags": null, "updated_at": 1776698870175, "version": "1.0.0"}, {"category": "", "created_at": 1774880545269, "description": "This skill automates the creation of Meta (Facebook/Instagram) ads using the Marketing API. It handles campaign setup, audience targeting, media upload, and...", "description_zh": "该技能通过Marketing API自动化创建Meta（Facebook/Instagram）广告，涵盖广告系列设置、受众定向、媒体上传等功能。", "downloads": 25, "homepage": "https://clawhub.ai/zine1993/metaad", "iconUrl": null, "installs": 0, "name": "meta_ad", "ownerName": "zine1993", "score": 100000, "slug": "metaad", "source": "clawhub", "stars": 0, "tags": null, "updated_at": 1776698870171, "version": "1.0.0"}, {"category": "", "created_at": 1774883099093, "description": "Connect your AI assistant to GoHighLevel CRM via the official API v2. Manage contacts, conversations, calendars, pipelines, invoices, payments, workflows, an...", "description_zh": "通过官方 API v2 将您的 AI 助手连接到 GoHighLevel CRM。管理联系人、对话、日历、渠道、发票、付款、工作流等。", "downloads": 25, "homepage": "https://clawhub.ai/mbright4497/highlevel-1-0-7", "iconUrl": null, "installs": 0, "name": "Highlevel 1.0.7", "ownerName": "mbright4497", "score": 100000, "slug": "highlevel-1-0-7", "source": "clawhub", "stars": 0, "tags": null, "updated_at": 1776698870167, "version": "1.0.0"}, {"category": "", "created_at": 1774902229614, "description": "KodaGPT integration. Manage Organizations. Use when the user wants to interact with KodaGPT data.", "description_zh": "KodaGPT集成。管理组织。用于KodaGPT数据交互。", "downloads": 25, "homepage": "https://clawhub.ai/gora050/kodagpt", "iconUrl": null, "installs": 0, "name": "Kodagpt", "ownerName": "gora050", "score": 100000, "slug": "kodagpt", "source": "clawhub", "stars": 0, "tags": null, "updated_at": 1776698870157, "version": "1.0.0"}, {"category": "", "created_at": 1774889930755, "description": "提供智能家居、硬核数码新品测评、购买建议及极客玩法。", "description_zh": "提供智能家居、硬核数码新品测评、购买建议及极客玩法。", "downloads": 25, "homepage": "https://clawhub.ai/codekungfu/gadget", "iconUrl": null, "installs": 0, "name": "Gadget", "ownerName": "codekungfu", "score": 100000, "slug": "gadget", "source": "clawhub", "stars": 0, "tags": null, "updated_at": 1776698870148, "version": "0.1.0"}, {"category": "", "created_at": 1774892306781, "description": "Open-source AEO monitoring CLI. Track how AI answer engines cite your domain across ChatGPT, Gemini, Claude, and Perplexity.", "description_zh": "开源AEO监控CLI，追踪ChatGPT、Gemini、Claude和Perplexity等AI答案引擎对您域名的引用。", "downloads": 25, "homepage": "https://clawhub.ai/arberx/canonry", "iconUrl": null, "installs": 0, "name": "canonry", "ownerName": "arberx", "score": 100000, "slug": "canonry", "source": "clawhub", "stars": 0, "tags": null, "updated_at": 1776698870144, "version": "1.1.1"}, {"category": "", "created_at": 1774907685275, "description": "Find nearby Hong Kong public facilities by place keyword or shared live location, starting with public toilets (公廁 / washroom / restroom / toilet) using offi...", "description_zh": "Find nearby Hong Kong public facilities by place keyword or shared live location, starting with public toilets (公廁 / washroom / restroom / toilet) using offi...", "downloads": 25, "homepage": "https://clawhub.ai/jimpang8/hk-nearby-facilities", "iconUrl": null, "installs": 0, "name": "HK Nearby Facilities", "ownerName": "jimpang8", "score": 100000, "slug": "hk-nearby-facilities", "source": "clawhub", "stars": 0, "tags": null, "updated_at": 1776698870138, "version": "0.1.0"}, {"category": "", "created_at": 1774879982401, "description": "Collaborative robot task planner. Use when json cobot tasks, csv cobot tasks, checking cobot status.", "description_zh": "协作机器人任务规划器。用于处理JSON协作机器人任务、CSV协作机器人任务、检查协作机器人状态。", "downloads": 25, "homepage": "https://clawhub.ai/ckchzh/cobot", "iconUrl": null, "installs": 0, "name": "Cobot", "ownerName": "ckchzh", "score": 100000, "slug": "cobot", "source": "clawhub", "stars": 0, "tags": null, "updated_at": 1776698870136, "version": "1.0.0"}, {"category": "", "created_at": 1775716225523, "description": "", "description_zh": "个人AI助手CLI工具集 - 提供天气冷笑话、新闻日报、工作总结、AI学习资源推荐和智能待办清单等功能。当用户需要查看天气笑话、今日新闻、生成工作总结、获取学习资源或管理待办事项时使用此skill。", "downloads": 25, "homepage": "https://clawhub.ai/user_70ee4fd0/lee-cli-skill", "iconUrl": null, "installs": 0, "name": "Lee-CLI Skill", "ownerName": "user_70ee4fd0", "score": 100000, "slug": "lee-cli-skill", "source": "community", "stars": 0, "tags": null, "updated_at": 1776698870131, "version": "1.0.0"}, {"category": "", "created_at": 1774896060193, "description": "Captain Data integration. Manage data, records, and automate workflows. Use when the user wants to interact with Captain Data data.", "description_zh": "Captain Data 集成。管理数据、记录和自动化工作流。当用户需要与 Captain Data 数据进行交互时使用。", "downloads": 25, "homepage": "https://clawhub.ai/gora050/captain-data", "iconUrl": null, "installs": 0, "name": "Captain Data", "ownerName": "gora050", "score": 100000, "slug": "captain-data", "source": "clawhub", "stars": 0, "tags": null, "updated_at": 1776698870129, "version": "1.0.0"}, {"category": "", "created_at": 1774909477264, "description": "Dual-platform content strategist for Xiaohongshu (小红书) and Pinterest. Generates complete content plans including visual design, copywriting, and publishing s...", "description_zh": "Dual-platform content strategist for Xiaohongshu (小红书) and Pinterest. Generates complete content plans including visual design, copywriting, and publishing s...", "downloads": 25, "homepage": "https://clawhub.ai/luoboask/aura-content-strategist", "iconUrl": null, "installs": 0, "name": "Aura Content Strategist", "ownerName": "luoboask", "score": 100000, "slug": "aura-content-strategist", "source": "clawhub", "stars": 0, "tags": null, "updated_at": 1776698870125, "version": "1.1.0"}, {"category": "", "created_at": 1774851891046, "description": "Deutschsprachiger KI-Assistent für deutsches Arbeitsrecht, Bürgergeld (SGB II/XII) und berufliche Umschulung. Hilft bei Jobcenter-Konflikten (Widerspruch, Sa...", "description_zh": "专注于德国劳动法、公民金（SGB II/XII）及职业转岗培训的德语AI助手，协助处理就业中心纠纷（如异议申诉等）。", "downloads": 25, "homepage": "https://clawhub.ai/arn0ld87/arbeitsrecht-buergergeld-umschulung", "iconUrl": null, "installs": 0, "name": "Arbeitsrecht & Bürgergeld", "ownerName": "arn0ld87", "score": 100000, "slug": "arbeitsrecht-buergergeld-umschulung", "source": "clawhub", "stars": 0, "tags": ["arbeitsrecht", "bildungsgutschein", "buergersgeld", "jobcenter", "sanktionen", "sgb", "umschulung"], "updated_at": 1776698870123, "version": "1.0.0"}, {"category": "", "created_at": 1775311599137, "description": "", "description_zh": "中国银联签约支付解决方案接入最佳实践。涵盖App支付、H5支付、JSAPI支付、Native支付、订单退款等全场景产品选型与集成指导。银联签约支付是用户在签约方授权完成银行卡签约绑定后，通过支付密码、人脸验证等方式完成用户核身，从签约卡片完成扣款的支付产品。", "downloads": 25, "homepage": "https://clawhub.ai/user_8509461a/unionpay-integration", "iconUrl": null, "installs": 0, "name": "银联签约支付", "ownerName": "user_8509461a", "score": 100000, "slug": "unionpay-integration", "source": "community", "stars": 0, "tags": null, "updated_at": 1776698870120, "version": "1.0.0"}, {"category": "", "created_at": 1774952710122, "description": "Formaliza dominios de datos y APIs con teoria de categorias. Usar para disenar DDL SQL, JSON Schema, OpenAPI, GraphQL, Prisma, integracion multi-esquema, est...", "description_zh": "使用范畴论形式化数据与 API 领域，用于设计 DDL SQL、JSON Schema、OpenAPI、GraphQL、Prisma，跨模式集成等。", "downloads": 25, "homepage": "https://clawhub.ai/felix-antonio-sl/arquitecto-categorico", "iconUrl": null, "installs": 0, "name": "arquitecto-categorico", "ownerName": "felix-antonio-sl", "score": 100000, "slug": "arquitecto-categorico", "source": "clawhub", "stars": 0, "tags": null, "updated_at": 1776698870116, "version": "1.0.0"}, {"category": "", "created_at": 1774873551829, "description": "Analyze and explain open-source project code logic, architecture, data flows, APIs, and algorithms. Use when the user asks to analyze a project, understand c...", "description_zh": "分析并解释开源项目的代码逻辑、架构、数据流、API 与算法；当用户要求分析项目、理解代码时使用。", "downloads": 25, "homepage": "https://clawhub.ai/ttet/analyze-open-source", "iconUrl": null, "installs": 1, "name": "Analyze Open Source", "ownerName": "ttet", "score": 100000, "slug": "analyze-open-source", "source": "clawhub", "stars": 0, "tags": null, "updated_at": 1776698870114, "version": "1.0.0"}, {"category": "", "created_at": 1774887250127, "description": "OpenClaw 原生执行链（Chain of Execution, CoE）技能。让 OpenClaw 在处理复杂任务时，实时分步输出执行过程：拆解问题 → 选择 skill → 调用 skill → 调用模型 → 等待响应 → 拿到结果 → 最终汇总，完全贴合 OpenClaw 实际运行流程，让用户清楚看到每...", "description_zh": "OpenClaw 原生执行链（Chain of Execution, CoE）技能。让 OpenClaw 在处理复杂任务时，实时分步输出执行过程：拆解问题 → 选择 skill → 调用 skill → 调用模型 → 等待响应 → 拿到结果 → 最终汇总，完全贴合 OpenClaw 实际运行流程，让用户清楚看到每...", "downloads": 25, "homepage": "https://clawhub.ai/liuyh17/openclaw-coe", "iconUrl": null, "installs": 2, "name": "OpenClaw Chain of Execution (CoE)", "ownerName": "liuyh17", "score": 100000, "slug": "openclaw-coe", "source": "clawhub", "stars": 0, "tags": null, "updated_at": 1776698870107, "version": "1.0.0"}, {"category": "", "created_at": 1774888279707, "description": "Identify make-buy-partner relationships for key activities. Use for strategic alliances, outsourcing decisions, and supply chain optimization.", "description_zh": "识别关键活动的自制、外购与合作伙伴关系，用于战略联盟、外包决策和供应链优化。", "downloads": 25, "homepage": "https://clawhub.ai/linuszz/partnering-maps", "iconUrl": null, "installs": 0, "name": "Partnering Maps", "ownerName": "linuszz", "score": 100000, "slug": "partnering-maps", "source": "clawhub", "stars": 0, "tags": null, "updated_at": 1776698870104, "version": "1.0.0"}, {"category": "", "created_at": 1774872877210, "description": "Implement one-time pairing-code authentication between an OpenClaw gateway and a desktop or remote client such as OCMAP. Use when adding or updating pairing....", "description_zh": "实现 OpenClaw 网关与桌面或远程客户端（例如 OCMAP）之间的一次性配对码认证。用于添加或更新配对。", "downloads": 25, "homepage": "https://clawhub.ai/maverick-software/ocmap-pairing-auth", "iconUrl": null, "installs": 0, "name": "OCMAP Pairing Auth", "ownerName": "maverick-software", "score": 100000, "slug": "ocmap-pairing-auth", "source": "clawhub", "stars": 0, "tags": null, "updated_at": 1776698870100, "version": "1.1.0"}, {"category": "", "created_at": 1774887010256, "description": "Iterate integration. Manage Organizations. Use when the user wants to interact with Iterate data.", "description_zh": "Iterate 集成，管理组织，用于用户需要与 Iterate 数据交互时。", "downloads": 25, "homepage": "https://clawhub.ai/gora050/iterate", "iconUrl": null, "installs": 0, "name": "Iterate", "ownerName": "gora050", "score": 100000, "slug": "iterate", "source": "clawhub", "stars": 0, "tags": null, "updated_at": 1776698870099, "version": "1.0.0"}, {"category": "", "created_at": 1774911787754, "description": "Implisense API integration. Manage Organizations. Use when the user wants to interact with Implisense API data.", "description_zh": "Implisense API 集成，管理组织，用于与 Implisense API 数据交互。", "downloads": 25, "homepage": "https://clawhub.ai/gora050/implisense-api", "iconUrl": null, "installs": 0, "name": "Implisense Api", "ownerName": "gora050", "score": 100000, "slug": "implisense-api", "source": "clawhub", "stars": 0, "tags": null, "updated_at": 1776698870097, "version": "1.0.0"}, {"category": "", "created_at": 1775533807941, "description": "", "description_zh": "Captures learnings, errors, and corrections to enable continuous improvement. Use when: (1) A command or operation fails unexpectedly, (2) User corrects Claude ('No, that's wrong...', 'Actually...'), (3) User requests a capability that doesn't exist, (4) An external API or tool fails, (5) Claude realizes its knowledge is outdated or incorrect, (6) A better approach is discovered for a recurring task. Also review learnings before major tasks.", "downloads": 25, "homepage": "https://clawhub.ai/user_60b84151/test-v2-plus", "iconUrl": null, "installs": 0, "name": "test", "ownerName": "user_60b84151", "score": 100000, "slug": "test-v2-plus", "source": "community", "stars": 0, "tags": null, "updated_at": 1776698870095, "version": "1.0.0"}, {"category": "", "created_at": 1774901035331, "description": "Generates Gumroad product page content from a simple spec.", "description_zh": "依据简易规格生成 Gumroad 产品页内容", "downloads": 25, "homepage": "https://clawhub.ai/clawdiri-ai/gumroad-page-gen-dv", "iconUrl": null, "installs": 0, "name": "Gumroad Product Page Generator", "ownerName": "clawdiri-ai", "score": 100000, "slug": "gumroad-page-gen-dv", "source": "clawhub", "stars": 0, "tags": null, "updated_at": 1776698870094, "version": "0.1.0"}, {"category": "", "created_at": 1774880467741, "description": "提供公安备案开锁、智能锁安装升级及紧急求援预约指引。", "description_zh": "提供公安备案开锁、智能锁安装升级及紧急求援预约指引。", "downloads": 25, "homepage": "https://clawhub.ai/mikeclaw007/locksmith", "iconUrl": null, "installs": 0, "name": "Locksmith Service", "ownerName": "mikeclaw007", "score": 100000, "slug": "locksmith", "source": "clawhub", "stars": 0, "tags": null, "updated_at": 1776698870092, "version": "0.1.0"}, {"category": "", "created_at": 1774918372498, "description": "Mailify integration. Manage Persons, Organizations, Deals, Leads, Activities, Notes and more. Use when the user wants to interact with Mailify data.", "description_zh": "Mailify集成，管理个人、组织、交易、潜在客户、活动、笔记等，用于与Mailify数据交互。", "downloads": 25, "homepage": "https://clawhub.ai/gora050/mailify", "iconUrl": null, "installs": 0, "name": "Mailify", "ownerName": "gora050", "score": 100000, "slug": "mailify", "source": "clawhub", "stars": 0, "tags": null, "updated_at": 1776698870086, "version": "1.0.0"}, {"category": "", "created_at": 1774906305497, "description": "Find nearby bars. Invoke when user asks for drinks or nightlife near me.", "description_zh": "查找附近的酒吧。当用户询问附近饮品或夜生活时调用。", "downloads": 25, "homepage": "https://clawhub.ai/codekungfu/bars", "iconUrl": null, "installs": 0, "name": "Nearby Bars", "ownerName": "codekungfu", "score": 100000, "slug": "bars", "source": "clawhub", "stars": 0, "tags": null, "updated_at": 1776698870084, "version": "0.1.0"}, {"category": "", "created_at": 1774862958696, "description": "Crisis calming", "description_zh": "平息危机", "downloads": 25, "homepage": "https://clawhub.ai/jkzfhq/psyvector-pv32", "iconUrl": null, "installs": 0, "name": "Psyvector Pv32", "ownerName": "jkzfhq", "score": 100000, "slug": "psyvector-pv32", "source": "clawhub", "stars": 0, "tags": ["digital-worker"], "updated_at": 1776698870083, "version": "3.0.0"}, {"category": "", "created_at": 1774895668641, "description": "介绍数字 2 的文化含义和象征意义（中英文双语）。Use when users ask about the cultural meaning of number 2, \"二的文化\", \"symbolism of two\", \"为什么 2 很重要\", \"meaning of number two\" etc.", "description_zh": "介绍数字 2 的文化含义和象征意义（中英文双语）。Use when users ask about the cultural meaning of number 2, \"二的文化\", \"symbolism of two\", \"为什么 2 很重要\", \"meaning of number two\" etc.", "downloads": 25, "homepage": "https://clawhub.ai/leocryptoflow/two", "iconUrl": null, "installs": 0, "name": "two", "ownerName": "leocryptoflow", "score": 100000, "slug": "two", "source": "clawhub", "stars": 0, "tags": null, "updated_at": 1776698870079, "version": "1.0.0"}, {"category": "", "created_at": 1774890695126, "description": "Automates iGOT Karmayogi portal (portal.igotkarmayogi.gov.in) using OpenClaw's built-in Playwright managed browser. Use this skill whenever the user mentions...", "description_zh": "使用 OpenClaw 内置的 Playwright 托管浏览器自动化 iGOT Karmayogi 门户 (portal.igotkarmayogi.gov.in)。当用户提到...时使用此技能。", "downloads": 25, "homepage": "https://clawhub.ai/koppakanagaharsha-lang/igot-karmayogi", "iconUrl": null, "installs": 0, "name": "iGOT Karmayogi Automation", "ownerName": "koppakanagaharsha-lang", "score": 100000, "slug": "igot-karmayogi", "source": "clawhub", "stars": 0, "tags": null, "updated_at": 1776698870077, "version": "1.0.3"}]}