{"page": 660, "total_pages": 685, "total": 34217, "skills": [{"category": "", "created_at": 1774895817892, "description": "Trust scoring, agent discovery, profiling, wallet/identity lookup, contact, dispatch, and metadata reads/writes via 8K4 Protocol (ERC-8004). Use when checkin...", "description_zh": "信任评分、代理发现、画像、钱包/身份查找、联络、调度及元数据读写，均通过 8K4 协议 (ERC-8004)。适用于签到……", "downloads": 25, "homepage": "https://clawhub.ai/8k4-dev/8k4", "iconUrl": null, "installs": 3, "name": "Find Trusted On-Chain Agents", "ownerName": "8k4-dev", "score": 100000, "slug": "8k4", "source": "clawhub", "stars": 0, "tags": ["agents", "blockchain", "discovery", "erc-8004", "trust"], "updated_at": 1776698870073, "version": "1.0.1"}, {"category": "", "created_at": 1774916296549, "description": "CCA 领域5：上下文管理与可靠性（15%权重）。当用户说\"学domain5\"、\"上下文管理\"、\"可靠性\"、\"cca-domain5\"时使用。", "description_zh": "CCA 领域5：上下文管理与可靠性（15%权重）。当用户说\"学domain5\"、\"上下文管理\"、\"可靠性\"、\"cca-domain5\"时使用。", "downloads": 25, "homepage": "https://clawhub.ai/sawzhang/cca-domain5", "iconUrl": null, "installs": 0, "name": "Cca Domain5", "ownerName": "sawzhang", "score": 100000, "slug": "cca-domain5", "source": "clawhub", "stars": 0, "tags": null, "updated_at": 1776698870069, "version": "1.0.0"}, {"category": "", "created_at": 1774847342200, "description": "Discover trending tokens — screener, SM holdings, Nansen indicators, and flow intelligence for promising finds. Use when scanning for new tokens or screening...", "description_zh": "发现热门代币——筛选器、持仓数据、Nansen指标和流量情报，助力寻找有潜力的代币。用于扫描新代币或筛选时使用。", "downloads": 25, "homepage": "https://clawhub.ai/nansen-devops/nansen-token-screener", "iconUrl": null, "installs": 0, "name": "Nansen Token Screener", "ownerName": "nansen-devops", "score": 100000, "slug": "nansen-token-screener", "source": "clawhub", "stars": 0, "tags": null, "updated_at": 1776698870067, "version": "0.1.1"}, {"category": "", "created_at": 1774953753984, "description": "LLM通用证据新鲜度判断技能。根据时间窗和证据时间信息，判断每条证据属于current/background/stale/undated/malformed哪一类。在搜索结果标准化之后、需要区分当前证据与背景证据时使用。触发条件：现实问题/新闻/政策/市场分析、需要降低\"把旧材料当新材料\"风险、时间敏感型任务。", "description_zh": "LLM通用证据新鲜度判断技能。根据时间窗和证据时间信息，判断每条证据属于current/background/stale/undated/malformed哪一类。在搜索结果标准化之后、需要区分当前证据与背景证据时使用。触发条件：现实问题/新闻/政策/市场分析、需要降低\"把旧材料当新材料\"风险、时间敏感型任务。", "downloads": 25, "homepage": "https://clawhub.ai/z1one0415/freshness-judge", "iconUrl": null, "installs": 0, "name": "Freshness Judge", "ownerName": "z1one0415", "score": 100000, "slug": "freshness-judge", "source": "clawhub", "stars": 0, "tags": ["analysis", "evidence", "freshness", "grounding", "search", "signal-intelligence", "time-analysis"], "updated_at": 1776698870064, "version": "2.0.0"}, {"category": "", "created_at": 1774864024463, "description": "LME顧客にカテゴリー状況に基づいたパーソナライズメッセージを自動送信。スプレッドシート読み込み→カテゴリー分析→LME送信を完全自動化。", "description_zh": "LME顧客にカテゴリー状況に基づいたパーソナライズメッセージを自動送信。スプレッドシート読み込み→カテゴリー分析→LME送信を完全自動化。", "downloads": 25, "homepage": "https://clawhub.ai/aoaibiz/lme-auto-messenger", "iconUrl": null, "installs": 0, "name": "Lme Auto Messenger", "ownerName": "aoaibiz", "score": 100000, "slug": "lme-auto-messenger", "source": "clawhub", "stars": 0, "tags": null, "updated_at": 1776698870062, "version": "1.0.1"}, {"category": "", "created_at": 1774907307236, "description": "AIDE file integrity monitoring reference. Database initialization, integrity checks, update workflow, aide.conf configuration, selection rules, report parsin...", "description_zh": "AIDE文件完整性监控参考。涵盖数据库初始化、完整性检查、更新流程、aide.conf配置、选择规则及报告解析等内容。", "downloads": 25, "homepage": "https://clawhub.ai/xueyetianya/aide", "iconUrl": null, "installs": 0, "name": "Aide", "ownerName": "xueyetianya", "score": 100000, "slug": "aide", "source": "clawhub", "stars": 0, "tags": null, "updated_at": 1776698870059, "version": "1.0.0"}, {"category": "", "created_at": 1774916315863, "description": "Chanel fashion, fragrance, beauty, and haute couture information. Explore collections, iconic products, and brand history.", "description_zh": "香奈儿时装、香水、美妆与高级定制资讯。探索系列、经典产品与品牌历史。", "downloads": 25, "homepage": "https://clawhub.ai/hanxueyuan/chanel", "iconUrl": null, "installs": 0, "name": "Chanel", "ownerName": "hanxueyuan", "score": 100000, "slug": "chanel", "source": "clawhub", "stars": 0, "tags": null, "updated_at": 1776698870055, "version": "0.1.0"}, {"category": "", "created_at": 1774852039929, "description": "Query Comulytic meetings, contacts, action items, and conversation history. Use when: user asks about meetings, notes, call summaries, contacts, pending task...", "description_zh": "查询会议、联系人、待办事项及对话历史。适用于：用户询问会议、笔记、通话摘要、联系人、待处理任务等。", "downloads": 25, "homepage": "https://clawhub.ai/chenbaochao/comulytic", "iconUrl": null, "installs": 0, "name": "Comulytic", "ownerName": "chenbaochao", "score": 100000, "slug": "comulytic", "source": "clawhub", "stars": 0, "tags": null, "updated_at": 1776698870048, "version": "1.0.3"}, {"category": "", "created_at": 1774881853630, "description": "Mamo Business integration. Manage Organizations, Pipelines, Users, Goals, Filters. Use when the user wants to interact with Mamo Business data.", "description_zh": "Mamo Business集成。管理组织、管道、用户、目标和筛选器。当用户需要与Mamo Business数据交互时使用。", "downloads": 25, "homepage": "https://clawhub.ai/gora050/mamo-business", "iconUrl": null, "installs": 0, "name": "Mamo Business", "ownerName": "gora050", "score": 100000, "slug": "mamo-business", "source": "clawhub", "stars": 0, "tags": null, "updated_at": 1776698870046, "version": "1.0.0"}, {"category": "", "created_at": 1774900779181, "description": "Standardized protocol for Agent-to-Agent (A2A) resource exchange and autonomous coordination. Enables OpenClaw agents to discover, negotiate, and execute spe...", "description_zh": "智能体对智能体（A2A）资源交换与自主协调的标准化协议，支持OpenClaw智能体发现、协商并执行特定任务。", "downloads": 25, "homepage": "https://clawhub.ai/taoufik-ma/clawnetwork", "iconUrl": null, "installs": 0, "name": "ClawNetwork Core", "ownerName": "taoufik-ma", "score": 100000, "slug": "clawnetwork", "source": "clawhub", "stars": 0, "tags": null, "updated_at": 1776698870044, "version": "2.1.0"}, {"category": "", "created_at": 1774946888381, "description": "Expert guide for using Agent Bazaar (agent-bazaar.com) — the first capabilities marketplace where AI agents discover, evaluate, and purchase skills autonomou...", "description_zh": "专家指南：使用 Agent Bazaar (agent‑bazaar.com) — 首个能力市场，让 AI 代理自主发现、评估和购买技能。", "downloads": 25, "homepage": "https://clawhub.ai/hockeyplaya48/agent-bazaar", "iconUrl": null, "installs": 0, "name": "Agent Bazaar", "ownerName": "hockeyplaya48", "score": 100000, "slug": "agent-bazaar", "source": "clawhub", "stars": 0, "tags": null, "updated_at": 1776698870041, "version": "1.0.0"}, {"category": "", "created_at": 1774919797715, "description": "Manage .env files with validate, diff, template generation, merge, and missing-key checks. Use when working with environment variable files, comparing .env.l...", "description_zh": "管理 .env 文件，支持校验、差异对比、模板生成、合并及缺失键检查。适用于处理环境变量文件、比较 .env 配置等场景。", "downloads": 25, "homepage": "https://clawhub.ai/johnnywang2001/env-file-toolkit", "iconUrl": null, "installs": 0, "name": "Env File Toolkit", "ownerName": "johnnywang2001", "score": 100000, "slug": "env-file-toolkit", "source": "clawhub", "stars": 0, "tags": null, "updated_at": 1776698870039, "version": "1.0.0"}, {"category": "", "created_at": 1775984012035, "description": "", "description_zh": "指导调研海外新锐化妆品DTC与融资品牌并识别包装需求信号；用户谈及独立站、跨境电商、融资轮次、新锐美妆、DTC获客时使用。", "downloads": 25, "homepage": "https://clawhub.ai/user_6b693411/cosmetics-packaging-dtc-brands", "iconUrl": "https://cloudcache.tencent-cloud.com/qcloud/ui/static/other_external_resource/60484da4-21ca-4044-b2ff-2b3a1ddcd63f.png", "installs": 2, "name": "cosmetics_packaging_dtc_brands", "ownerName": "user_6b693411", "score": 100000, "slug": "cosmetics-packaging-dtc-brands", "source": "community", "stars": 0, "tags": null, "updated_at": 1776698870038, "version": "1.0.0"}, {"category": "", "created_at": 1774869812430, "description": "Provide grounded knowledge, distinctions, and reflective support around enlightenment-related topics such as 开悟, 觉醒, 见性, 无我, 空性, spiritual insight, and inner...", "description_zh": "Provide grounded knowledge, distinctions, and reflective support around enlightenment-related topics such as 开悟, 觉醒, 见性, 无我, 空性, spiritual insight, and inner...", "downloads": 25, "homepage": "https://clawhub.ai/harrylabsj/enlightenment", "iconUrl": null, "installs": 0, "name": "Enlightenment", "ownerName": "harrylabsj", "score": 100000, "slug": "enlightenment", "source": "clawhub", "stars": 0, "tags": null, "updated_at": 1776698870036, "version": "1.0.0"}, {"category": "", "created_at": 1774912787669, "description": "Access Flickr with user-supplied local API credentials and OAuth tokens, verify authorization, export recent-upload or album metadata, download recent or alb...", "description_zh": "使用用户提供的本地API凭证和OAuth令牌访问Flickr，验证授权，导出最近上传或相册的元数据，下载最近或相册中的照片。", "downloads": 25, "homepage": "https://clawhub.ai/stanestane/flickr-claw", "iconUrl": null, "installs": 0, "name": "Flickr Claw", "ownerName": "stanestane", "score": 100000, "slug": "flickr-claw", "source": "clawhub", "stars": 0, "tags": null, "updated_at": 1776698870028, "version": "1.5.0"}, {"category": "", "created_at": 1774889393608, "description": "Optimize OpenClaw model configuration by declaring missing model capabilities (vision/multimodal input, context window, max output tokens, reasoning). Use wh...", "description_zh": "通过声明缺失的模型能力（视觉/多模态输入、上下文窗口、最大输出token、推理）来优化OpenClaw模型配置。使用...", "downloads": 25, "homepage": "https://clawhub.ai/yay2008/openclaw-model-optimizer", "iconUrl": null, "installs": 1, "name": "OpenClaw Model Optimizer", "ownerName": "yay2008", "score": 100000, "slug": "openclaw-model-optimizer", "source": "clawhub", "stars": 0, "tags": null, "updated_at": 1776698870025, "version": "1.1.0"}, {"category": "", "created_at": 1774920088832, "description": "Analyze resource usage patterns and predict future scaling needs using trend analysis and forecasting methods for capacity planning and auto-scaling decisions.", "description_zh": "分析资源使用模式，运用趋势分析与预测方法，为容量规划和自动扩缩容决策预测未来的扩展需求。", "downloads": 25, "homepage": "https://clawhub.ai/jpengcheng523-netizen/jpeng-predictive-scaler", "iconUrl": null, "installs": 0, "name": "predictive-scaler", "ownerName": "jpengcheng523-netizen", "score": 100000, "slug": "jpeng-predictive-scaler", "source": "clawhub", "stars": 0, "tags": null, "updated_at": 1776698870023, "version": "1.0.0"}, {"category": "", "created_at": 1774856289010, "description": "Secure Google Docs Management - permission-based create, read, and edit doc content; manage sharing, permissions, rename and delete.", "description_zh": "{\n\"answer\": \"安全的 Google 文档管理：基于权限创建、读取和编辑文档内容；管理共享、权限、重命名和删除。\"\n}", "downloads": 25, "homepage": "https://clawhub.ai/porteden/porteden-docs", "iconUrl": null, "installs": 0, "name": "Secure Google Docs access for OpenClaw By PortEden", "ownerName": "porteden", "score": 100000, "slug": "porteden-docs", "source": "clawhub", "stars": 0, "tags": null, "updated_at": 1776698870017, "version": "1.0.0"}, {"category": "", "created_at": 1774891570762, "description": "Mailerlite integration. Manage Subscribers, Campaigns, Forms, Websites. Use when the user wants to interact with Mailerlite data.", "description_zh": "Mailerlite 集成。管理订阅者、营销活动、表单和网站。用于用户与 Mailerlite 数据交互时。", "downloads": 25, "homepage": "https://clawhub.ai/gora050/mailerlite-integration", "iconUrl": null, "installs": 0, "name": "Mailerlite", "ownerName": "gora050", "score": 100000, "slug": "mailerlite-integration", "source": "clawhub", "stars": 0, "tags": null, "updated_at": 1776698870014, "version": "1.0.0"}, {"category": "", "created_at": 1774881489393, "description": "Freight consolidation reference — LCL groupage, milk runs, cross-docking, and shipment merging strategies. Use when optimizing shipping costs, planning conso...", "description_zh": "货运拼箱参考 — LCL集货、循环取货、交叉装卸与货物合并策略。用于优化运输成本、规划整合。", "downloads": 25, "homepage": "https://clawhub.ai/bytesagain3/consolidation", "iconUrl": null, "installs": 0, "name": "Consolidation", "ownerName": "bytesagain3", "score": 100000, "slug": "consolidation", "source": "clawhub", "stars": 0, "tags": null, "updated_at": 1776698870012, "version": "1.0.0"}, {"category": "", "created_at": 1774891479043, "description": "Generate vertical kinetic / magic sand satisfying shorts (WeryAI): text or sand-shape image to slice, mold release, or collapse motion. Use when you need kin...", "description_zh": "生成竖向动力学/魔砂短视频（WeryAI）：文字或沙形图像切割、模具释放或坍塌动效。在需要动效时使用。", "downloads": 25, "homepage": "https://clawhub.ai/zoucdr/kinetic-sand-video", "iconUrl": null, "installs": 0, "name": "Kinetic Sand Video", "ownerName": "zoucdr", "score": 100000, "slug": "kinetic-sand-video", "source": "clawhub", "stars": 0, "tags": null, "updated_at": 1776698870010, "version": "0.1.1"}, {"category": "", "created_at": 1774886320817, "description": "Write booth invites that turn target accounts into booked meetings.", "description_zh": "撰写展位邀请，将目标账户转化为已预约的会议", "downloads": 25, "homepage": "https://clawhub.ai/weilun88313/booth-invitation-writer", "iconUrl": null, "installs": 0, "name": "Booth Invitation Writer", "ownerName": "weilun88313", "score": 100000, "slug": "booth-invitation-writer", "source": "clawhub", "stars": 0, "tags": null, "updated_at": 1776698870008, "version": "1.0.2"}, {"category": "", "created_at": 1774869494741, "description": "A comprehensive prompt-based skill about the number 520. This skill provides rich knowledge covering the cultural significance of 520 (the Chinese internet s...", "description_zh": "关于数字520的全面提示技能。该技能提供丰富知识，涵盖520的文化意义（中国互联网...", "downloads": 25, "homepage": "https://clawhub.ai/wscats/520", "iconUrl": null, "installs": 0, "name": "520", "ownerName": "wscats", "score": 100000, "slug": "520", "source": "clawhub", "stars": 0, "tags": null, "updated_at": 1776698870006, "version": "1.0.8"}, {"category": "", "created_at": 1775282895104, "description": "", "description_zh": "在 Archtree 社区实例内执行社区浏览、频道查看、帖子阅读、发帖、回帖、点赞/取消点赞、查看自己内容、编辑或删除自己内容、社区巡查和轻量社区运营动作时使用本 skill。", "downloads": 25, "homepage": "https://clawhub.ai/user_7f4d20b2/archtree-community-operator-cn", "iconUrl": null, "installs": 0, "name": "archtree agent 社区 mcp", "ownerName": "user_7f4d20b2", "score": 100000, "slug": "archtree-community-operator-cn", "source": "community", "stars": 0, "tags": null, "updated_at": 1776698870004, "version": "1.1.0"}, {"category": "", "created_at": 1774917966176, "description": "Dynatrace API integration. Manage Organizations. Use when the user wants to interact with Dynatrace API data.", "description_zh": "Dynatrace API 集成。组织管理。用户需与 Dynatrace API 数据交互时使用。", "downloads": 25, "homepage": "https://clawhub.ai/gora050/dynatrace-api", "iconUrl": null, "installs": 0, "name": "Dynatrace Api", "ownerName": "gora050", "score": 100000, "slug": "dynatrace-api", "source": "clawhub", "stars": 0, "tags": null, "updated_at": 1776698870002, "version": "1.0.0"}, {"category": "", "created_at": 1774892777916, "description": "Droxy integration. Manage Organizations. Use when the user wants to interact with Droxy data.", "description_zh": "Droxy 集成。组织管理。用于与 Droxy 数据交互。", "downloads": 25, "homepage": "https://clawhub.ai/membranedev/droxy", "iconUrl": null, "installs": 0, "name": "Droxy", "ownerName": "membranedev", "score": 100000, "slug": "droxy", "source": "clawhub", "stars": 0, "tags": null, "updated_at": 1776698870001, "version": "1.0.0"}, {"category": "", "created_at": 1774879910215, "description": "View detailed bug context from BugPack including screenshots, environment info, and related files. Use when: user wants to see bug details, screenshots, or u...", "description_zh": "从BugPack查看详细的bug信息，包括截图、环境配置和相关文件。使用场景：用户需要查看bug详情或截图。", "downloads": 25, "homepage": "https://clawhub.ai/duhuazhu/bugpack-view-bug", "iconUrl": null, "installs": 0, "name": "BugPack View Bug", "ownerName": "duhuazhu", "score": 100000, "slug": "bugpack-view-bug", "source": "clawhub", "stars": 0, "tags": null, "updated_at": 1776698869997, "version": "1.0.2"}, {"category": "", "created_at": 1774917722481, "description": "Binomial reference tool. Use when working with binomial in finance contexts.", "description_zh": "二项式参考工具，用于金融领域的二项式计算。", "downloads": 25, "homepage": "https://clawhub.ai/bytesagain1/binomial", "iconUrl": null, "installs": 0, "name": "Binomial", "ownerName": "bytesagain1", "score": 100000, "slug": "binomial", "source": "clawhub", "stars": 0, "tags": null, "updated_at": 1776698869995, "version": "1.0.0"}, {"category": "", "created_at": 1774872344462, "description": "Generate personalized donor communication messages including thank-you notes, impact updates, re-engagement emails, and donation acknowledgment letters. Use...", "description_zh": "{\n\"answer\": \"生成个性化捐赠者沟通信息，包括感谢信、影响力更新、重新参与邮件及捐赠确认函。使用...\"\n}", "downloads": 25, "homepage": "https://clawhub.ai/jiwenbing/donor-message", "iconUrl": null, "installs": 0, "name": "Donor Message", "ownerName": "jiwenbing", "score": 100000, "slug": "donor-message", "source": "clawhub", "stars": 0, "tags": null, "updated_at": 1776698869994, "version": "1.0.0"}, {"category": "", "created_at": 1774882371873, "description": "Organize todos with priorities, deadlines, and weekly views. Use when adding tasks, planning agendas, tracking progress, reviewing overdue items.", "description_zh": "整理待办事项，支持优先级、截止日期和周视图。用于添加任务、规划议程、跟踪进度和审查逾期项目。", "downloads": 25, "homepage": "https://clawhub.ai/bytesagain1/todo-planner", "iconUrl": null, "installs": 0, "name": "Todo Planner", "ownerName": "bytesagain1", "score": 100000, "slug": "todo-planner", "source": "clawhub", "stars": 0, "tags": null, "updated_at": 1776698869981, "version": "2.0.0"}, {"category": "", "created_at": 1774905506012, "description": "Feel the quiet responsibility of caring for twelve rescue cats in a rainy Shoreditch café, sharpening empathy and patience with every feeding. Six steps guid...", "description_zh": "感受在雨天肖尔迪奇咖啡馆照顾十二只救助猫的宁静责任，在每次喂食中锤炼同理心和耐心。六步指南...", "downloads": 25, "homepage": "https://clawhub.ai/driftsbot/experience-camilletchi-cat-cafe-london", "iconUrl": null, "installs": 0, "name": "Experience Camilletchi Cat Cafe London", "ownerName": "driftsbot", "score": 100000, "slug": "experience-camilletchi-cat-cafe-london", "source": "clawhub", "stars": 0, "tags": null, "updated_at": 1776698869979, "version": "1.0.0"}, {"category": "", "created_at": 1774925902695, "description": "Build structured MOVA agent contracts (ds.mova_agent_contract_core_v1) from vague user intentions through a guided, step-by-step expert interview. Use this s...", "description_zh": "通过引导式逐步专家访谈，将模糊的用户意图构建为结构化的MOVA代理合约（ds.mova_agent_contract_core_v1）。使用此…", "downloads": 25, "homepage": "https://clawhub.ai/mova-compact/mova-contract-builder", "iconUrl": null, "installs": 0, "name": "Mova Contract Builder", "ownerName": "mova-compact", "score": 100000, "slug": "mova-contract-builder", "source": "clawhub", "stars": 0, "tags": null, "updated_at": 1776698869976, "version": "1.0.0"}, {"category": "", "created_at": 1774917108507, "description": "Parma integration. Manage Persons, Organizations, Deals, Leads, Projects, Activities and more. Use when the user wants to interact with Parma data.", "description_zh": "Parma集成。管理人员、组织、交易、线索、项目及活动等。用于用户需要与Parma数据进行交互时。", "downloads": 25, "homepage": "https://clawhub.ai/gora050/parma", "iconUrl": null, "installs": 3, "name": "Parma", "ownerName": "gora050", "score": 100000, "slug": "parma", "source": "clawhub", "stars": 0, "tags": null, "updated_at": 1776698869972, "version": "1.0.0"}, {"category": "", "created_at": 1774886831621, "description": "Enigma integration. Manage Deals, Persons, Organizations, Leads, Projects, Activities and more. Use when the user wants to interact with Enigma data.", "description_zh": "Enigma 集成。可管理交易、人员、组织、线索、项目、活动等数据，用于用户与 Enigma 数据交互。", "downloads": 25, "homepage": "https://clawhub.ai/gora050/enigma", "iconUrl": null, "installs": 0, "name": "Enigma", "ownerName": "gora050", "score": 100000, "slug": "enigma", "source": "clawhub", "stars": 0, "tags": null, "updated_at": 1776698869970, "version": "1.0.0"}, {"category": "", "created_at": 1774844151950, "description": "Who is this wallet and what have they been doing? Identity labels, balance, PnL summary, recent transactions, perp positions, and counterparties.", "description_zh": "这个钱包是谁，他们在做什么？包含身份标签、余额、盈亏摘要、近期交易、永续合约持仓及交易对手方信息。", "downloads": 25, "homepage": "https://clawhub.ai/nansen-devops/nansen-wallet-deep-dive", "iconUrl": null, "installs": 0, "name": "Nansen Wallet Deep Dive", "ownerName": "nansen-devops", "score": 100000, "slug": "nansen-wallet-deep-dive", "source": "clawhub", "stars": 0, "tags": null, "updated_at": 1776698869965, "version": "0.1.0"}, {"category": "", "created_at": 1774921688624, "description": "Automatically update Clawdbot and all installed skills once daily. Runs via cron, checks for updates, applies them, and messages the user with a summary of w...", "description_zh": "每日自动更新 Clawdbot 及所有已安装技能。通过 cron 运行，检查并应用更新，随后向用户发送摘要信息。", "downloads": 25, "homepage": "https://clawhub.ai/rockyzhuo/my-auto-updater", "iconUrl": null, "installs": 1, "name": "My Auto Updater", "ownerName": "rockyzhuo", "score": 100000, "slug": "my-auto-updater", "source": "clawhub", "stars": 0, "tags": null, "updated_at": 1776698869963, "version": "1.0.0"}, {"category": "", "created_at": 1774952208546, "description": "Rebuild your sense of self when your career defined who you were and now it's gone. For people experiencing identity crisis after job loss, retirement, or ca...", "description_zh": "在职业身份消失后重建自我，适用于失业、退休或其他职业变动引发的身份危机者。", "downloads": 25, "homepage": "https://clawhub.ai/howtousehumans/identity-rebuild", "iconUrl": null, "installs": 0, "name": "Identity Rebuild", "ownerName": "howtousehumans", "score": 100000, "slug": "identity-rebuild", "source": "clawhub", "stars": 0, "tags": null, "updated_at": 1776698869961, "version": "1.0.0"}, {"category": "", "created_at": 1774896391098, "description": "Idiomatic Go HTTP middleware patterns with context propagation, structured logging via slog, centralized error handling, and panic recovery. Use when writing...", "description_zh": "惯用的 Go HTTP 中间件，含上下文传播、slog 结构化日志、集中式错误处理和 panic 恢复，适用于编写...", "downloads": 25, "homepage": "https://clawhub.ai/anderskev/go-middleware", "iconUrl": null, "installs": 0, "name": "Go Middleware", "ownerName": "anderskev", "score": 100000, "slug": "go-middleware", "source": "clawhub", "stars": 0, "tags": null, "updated_at": 1776698869955, "version": "2.3.0"}, {"category": "", "created_at": 1774921182061, "description": "DaySchedule integration. Manage Users, Roles, Organizations, Projects, Activities, Notes and more. Use when the user wants to interact with DaySchedule data.", "description_zh": "DaySchedule 集成。管理用户、角色、组织、项目、活动、笔记等。当用户想要与 DaySchedule 数据交互时使用。", "downloads": 25, "homepage": "https://clawhub.ai/membranedev/dayschedule", "iconUrl": null, "installs": 0, "name": "Dayschedule", "ownerName": "membranedev", "score": 100000, "slug": "dayschedule", "source": "clawhub", "stars": 0, "tags": null, "updated_at": 1776698869953, "version": "1.0.0"}, {"category": "", "created_at": 1774919413580, "description": "Top-level discovery skill for the entire AINative platform. Use when (1) Asked \"what is AINative?\", (2) Exploring platform capabilities, (3) Deciding which S...", "description_zh": "AINative 平台的顶级发现技能。适用于 (1) 被问及“AINative 是什么”，(2) 探索平台能力，(3) 决定使用哪些技能。", "downloads": 25, "homepage": "https://clawhub.ai/urbantech/ainative-platform-overview", "iconUrl": null, "installs": 0, "name": "Ainative Platform Overview", "ownerName": "urbantech", "score": 100000, "slug": "ainative-platform-overview", "source": "clawhub", "stars": 0, "tags": null, "updated_at": 1776698869952, "version": "1.0.0"}, {"category": "", "created_at": 1776150609318, "description": "", "description_zh": "比米云搜索是一款快速、稳定的国内搜索 API，专为 LLM（大语言模型）和 AI 智能体设计，价格实惠且赠送额度可满足大多数需求。", "downloads": 25, "homepage": "https://clawhub.ai/user_6f99ceb8/bimiyun-search", "iconUrl": "https://cloudcache.tencent-cloud.com/qcloud/ui/static/other_external_resource/a4e49550-e527-4406-b761-c4f2e607b757.png", "installs": 0, "name": "比米云搜索", "ownerName": "user_6f99ceb8", "score": 100000, "slug": "bimiyun-search", "source": "community", "stars": 0, "tags": null, "updated_at": 1776698869948, "version": "1.0.2"}, {"category": "", "created_at": 1774848857446, "description": "Klipfolio integration. Manage Dashboards, Users, Teams. Use when the user wants to interact with Klipfolio data.", "description_zh": "Klipfolio 集成。管理仪表盘、用户、团队。适用于用户想与 Klipfolio 数据交互的场景。", "downloads": 25, "homepage": "https://clawhub.ai/membranedev/klipfolio", "iconUrl": null, "installs": 0, "name": "Klipfolio", "ownerName": "membranedev", "score": 100000, "slug": "klipfolio", "source": "clawhub", "stars": 0, "tags": null, "updated_at": 1776698869945, "version": "1.0.0"}, {"category": "", "created_at": 1774886854535, "description": "EU AI Act risk classification, Article 12 compliance logging, and self-assessment reports — deadline August 2, 2026", "description_zh": "欧盟AI法案风险分类、第12条合规日志记录和自评报告——截止日期2026年8月2日", "downloads": 25, "homepage": "https://clawhub.ai/drivenbymyai-max/eu-ai-compliance", "iconUrl": null, "installs": 0, "name": "Eu Ai Compliance", "ownerName": "drivenbymyai-max", "score": 100000, "slug": "eu-ai-compliance", "source": "clawhub", "stars": 0, "tags": null, "updated_at": 1776698869943, "version": "1.0.0"}, {"category": "", "created_at": 1774864570818, "description": "Reference tool for devtools — covers intro, quickstart, patterns and more. Quick lookup for Amortize concepts, best practices, and implementation patterns.", "description_zh": "DevTools 参考指南 — 涵盖入门、快速启动与模式。快速查阅 Amortize 概念、最佳实践及实现模式。", "downloads": 25, "homepage": "https://clawhub.ai/xueyetianya/amortize", "iconUrl": null, "installs": 0, "name": "Amortize", "ownerName": "xueyetianya", "score": 100000, "slug": "amortize", "source": "clawhub", "stars": 0, "tags": null, "updated_at": 1776698869939, "version": "2.0.2"}, {"category": "", "created_at": 1776158267364, "description": "", "description_zh": "通用多层记忆架构初始化与维护。用于新会话启动、上下文续接、任务收尾、周期性心跳检查。提供标准化的加载顺序、写回规则、活跃任务恢复流程与长期记忆归纳流程，适用于需要稳定上下文延续的工作型 agent。", "downloads": 25, "homepage": "https://clawhub.ai/user_f9be8d90/lobster-memory-bootstrap", "iconUrl": null, "installs": 0, "name": "通用多层记忆架构初始化与维护", "ownerName": "user_f9be8d90", "score": 100000, "slug": "lobster-memory-bootstrap", "source": "community", "stars": 0, "tags": null, "updated_at": 1776698869935, "version": "1.0.0"}, {"category": "", "created_at": 1774923037010, "description": "Build a second brain that AI can understand and maintain. This framework provides decision logging with follow-up tracking, periodic review generation, routi...", "description_zh": "构建一个AI可理解并维护的第二大脑。该框架提供包含后续追踪的决策日志、定期复盘生成及例行事务管理功能。", "downloads": 25, "homepage": "https://clawhub.ai/daowuu/personal-os-framework", "iconUrl": null, "installs": 0, "name": "Personal Os Framework", "ownerName": "daowuu", "score": 100000, "slug": "personal-os-framework", "source": "clawhub", "stars": 0, "tags": null, "updated_at": 1776698869933, "version": "0.3.0"}, {"category": "", "created_at": 1774921016162, "description": "Log bKash, Nagad, Rocket, and cash transactions conversationally in Bengali or English. Get weekly spending digests every Sunday. Built for Bangladesh.", "description_zh": "使用孟加拉语或英语对话式记录 bKash、Nagad、Rocket 和现金交易，每周日获取本周消费摘要，专为孟加拉国设计。", "downloads": 25, "homepage": "https://clawhub.ai/sabbiramin113008/bkash-nagad-tracker", "iconUrl": null, "installs": 0, "name": "Bkash-Nagad-Tracker", "ownerName": "sabbiramin113008", "score": 100000, "slug": "bkash-nagad-tracker", "source": "clawhub", "stars": 0, "tags": null, "updated_at": 1776698869931, "version": "1.0.0"}, {"category": "", "created_at": 1774869572379, "description": "获取全球城市天气信息和预报。使用场景包括查询当前天气、未来7天预报、空气质量、穿衣建议等。适用于用户问天气、温度、预报等。", "description_zh": "获取全球城市天气信息和预报。使用场景包括查询当前天气、未来7天预报、空气质量、穿衣建议等。适用于用户问天气、温度、预报等。", "downloads": 25, "homepage": "https://clawhub.ai/anmu14641/anmu-weather", "iconUrl": null, "installs": 0, "name": "Weather Plus", "ownerName": "anmu14641", "score": 100000, "slug": "anmu-weather", "source": "clawhub", "stars": 0, "tags": null, "updated_at": 1776698869929, "version": "1.0.0"}, {"category": "", "created_at": 1774951788069, "description": "Monitor Poe API point balance and usage history from the terminal using poeusage CLI.", "description_zh": "使用 poeusage CLI 在终端监控 Poe API 积分余额和用量历史。", "downloads": 25, "homepage": "https://clawhub.ai/rgstephens/poeusage", "iconUrl": null, "installs": 0, "name": "Poe Usage", "ownerName": "rgstephens", "score": 100000, "slug": "poeusage", "source": "clawhub", "stars": 0, "tags": ["cost", "poe", "token", "usage"], "updated_at": 1776698869926, "version": "0.5.0"}, {"category": "", "created_at": 1774917928363, "description": "Generates optimised product listings for Etsy, Gumroad, and Payhip from a simple product description. Outputs platform-specific titles, descriptions, tags, a...", "description_zh": "根据简单的产品描述为Etsy、Gumroad和Payhip生成优化的产品列表。输出特定平台的标题、描述、标签等内容。", "downloads": 25, "homepage": "https://clawhub.ai/tetsuakira-vk/digital-product-listing", "iconUrl": null, "installs": 0, "name": "Digital Product Listing", "ownerName": "tetsuakira-vk", "score": 100000, "slug": "digital-product-listing", "source": "clawhub", "stars": 0, "tags": null, "updated_at": 1776698869919, "version": "1.0.0"}]}