{"page": 661, "total_pages": 685, "total": 34217, "skills": [{"category": "", "created_at": 1774826635601, "description": "Query and analyze LangSmith traces with natural language or structured commands. Use when the user asks about LangSmith runs, trace failures, latency, cost,...", "description_zh": "通过自然语言或结构化命令查询分析 LangSmith 追踪数据。适用于用户询问 LangSmith 运行、追踪失败、延迟、成本等问题。", "downloads": 25, "homepage": "https://clawhub.ai/ralphesber/langsmith-cli", "iconUrl": null, "installs": 0, "name": "LangSmith CLI", "ownerName": "ralphesber", "score": 100000, "slug": "langsmith-cli", "source": "clawhub", "stars": 0, "tags": null, "updated_at": 1776698869917, "version": "1.1.0"}, {"category": "", "created_at": 1774954298904, "description": "Experience quiet awe as white almond petals reveal hidden trade whispers, letting you walk ancient routes and sense renewal. 8 steps, medium intensity, sever...", "description_zh": "静谧敬畏中，白色杏仁花瓣揭示隐秘讯息，引领你行走古老之路，感知新生。8步，中等强度，...", "downloads": 25, "homepage": "https://clawhub.ai/driftsbot/experience-white-fever-galilee", "iconUrl": null, "installs": 0, "name": "Experience White Fever Galilee", "ownerName": "driftsbot", "score": 100000, "slug": "experience-white-fever-galilee", "source": "clawhub", "stars": 0, "tags": null, "updated_at": 1776698869909, "version": "1.0.0"}, {"category": "", "created_at": 1774871595199, "description": "Apply inspired-by character/persona writing styles (for fun and creative outputs) with explicit on/off controls, intensity settings, and automatic neutral fa...", "description_zh": "应用受角色/人物启发的写作风格（用于趣味和创意输出），支持明确的开关控制、强度设置及自动中性回退功能", "downloads": 25, "homepage": "https://clawhub.ai/anugotta/persona-fun-styles", "iconUrl": null, "installs": 0, "name": "Persona Styles", "ownerName": "anugotta", "score": 100000, "slug": "persona-fun-styles", "source": "clawhub", "stars": 0, "tags": null, "updated_at": 1776698869904, "version": "1.0.0"}, {"category": "", "created_at": 1774947283084, "description": "Draftable integration. Manage Documents. Use when the user wants to interact with Draftable data.", "description_zh": "Draftable 集成，管理文档。用户想要与 Draftable 数据交互时使用。", "downloads": 25, "homepage": "https://clawhub.ai/gora050/draftable", "iconUrl": null, "installs": 0, "name": "Draftable", "ownerName": "gora050", "score": 100000, "slug": "draftable", "source": "clawhub", "stars": 0, "tags": null, "updated_at": 1776698869900, "version": "1.0.0"}, {"category": "", "created_at": 1774862170829, "description": "Personal travel planning assistant. Requires a SerpAPI key (stored in ~/.serpapi_credentials). Searches real flights and hotels via Google (SerpAPI), checks...", "description_zh": "个人", "downloads": 25, "homepage": "https://clawhub.ai/floogles/ai-travel-agent", "iconUrl": null, "installs": 0, "name": "AI Travel Agent", "ownerName": "floogles", "score": 100000, "slug": "ai-travel-agent", "source": "clawhub", "stars": 0, "tags": null, "updated_at": 1776698869897, "version": "1.1.4"}, {"category": "", "created_at": 1774897297525, "description": "Decompose value creation or destruction through waterfall analysis. Use for understanding value drivers and financial analysis.", "description_zh": "通过瀑布分析分解价值创造或破坏，用于理解价值驱动因素和财务分析。", "downloads": 25, "homepage": "https://clawhub.ai/linuszz/value-waterfall", "iconUrl": null, "installs": 0, "name": "Value Waterfall", "ownerName": "linuszz", "score": 100000, "slug": "value-waterfall", "source": "clawhub", "stars": 0, "tags": null, "updated_at": 1776698869895, "version": "1.0.0"}, {"category": "", "created_at": 1774855115766, "description": "Deep dive on a Polymarket market — OHLCV, orderbook, top holders, positions, trades, and PnL leaderboard. Use when analysing a specific prediction market.", "description_zh": "深入分析 Polymarket 市场，包括 OHLCV 数据、订单簿、持仓大户、持仓情况、交易记录及盈亏排行榜。适用于分析特定预测市场。", "downloads": 25, "homepage": "https://clawhub.ai/nansen-devops/nansen-polymarket-deep-dive", "iconUrl": null, "installs": 0, "name": "Nansen Polymarket Deep Dive", "ownerName": "nansen-devops", "score": 100000, "slug": "nansen-polymarket-deep-dive", "source": "clawhub", "stars": 0, "tags": null, "updated_at": 1776698869890, "version": "0.1.0"}, {"category": "", "created_at": 1774898364364, "description": "Sistema de memória hierárquica em 3 camadas para agentes IA: curto prazo (contexto), médio prazo (diário), longo prazo (conhecimento). Tudo em português.", "description_zh": "AI代理三层分级记忆系统：短期（上下文）、中期（日志）、长期（知识）。全葡萄牙语。", "downloads": 25, "homepage": "https://clawhub.ai/engsathiago/memoria-persistente", "iconUrl": null, "installs": 0, "name": "Memoria Persistente", "ownerName": "engsathiago", "score": 100000, "slug": "memoria-persistente", "source": "clawhub", "stars": 0, "tags": null, "updated_at": 1776698869879, "version": "1.0.0"}, {"category": "", "created_at": 1774896332203, "description": "Frontegg integration. Manage data, records, and automate workflows. Use when the user wants to interact with Frontegg data.", "description_zh": "Frontegg 集成。管理数据、记录并自动化工作流程。用于用户与 Frontegg 数据交互时。", "downloads": 25, "homepage": "https://clawhub.ai/gora050/frontegg", "iconUrl": null, "installs": 0, "name": "Frontegg", "ownerName": "gora050", "score": 100000, "slug": "frontegg", "source": "clawhub", "stars": 0, "tags": null, "updated_at": 1776698869877, "version": "1.0.0"}, {"category": "", "created_at": 1774924089601, "description": "FTrack integration. Manage Organizations, Users, Activities. Use when the user wants to interact with FTrack data.", "description_zh": "FTrack集成，管理组织、用户、活动，用于与FTrack数据交互。", "downloads": 25, "homepage": "https://clawhub.ai/gora050/ftrack", "iconUrl": null, "installs": 0, "name": "Ftrack", "ownerName": "gora050", "score": 100000, "slug": "ftrack", "source": "clawhub", "stars": 0, "tags": null, "updated_at": 1776698869873, "version": "1.0.0"}, {"category": "", "created_at": 1774944385210, "description": "Has SM been in this token for weeks, or did they just enter? Are they still buying?", "description_zh": "庄家是否已在此代币中潜伏数周，还是刚刚入场？他们是否仍在持续买入？", "downloads": 25, "homepage": "https://clawhub.ai/nansen-devops/nansen-smart-money-trend", "iconUrl": null, "installs": 0, "name": "Nansen Smart Money Trend", "ownerName": "nansen-devops", "score": 100000, "slug": "nansen-smart-money-trend", "source": "clawhub", "stars": 0, "tags": null, "updated_at": 1776698869871, "version": "0.1.0"}, {"category": "", "created_at": 1774876930957, "description": "List all tracked bugs from BugPack with status and project filtering. Use when: user asks about bugs, pending issues, bug lists, or wants to see what needs f...", "description_zh": "列出BugPack中所有已跟踪的缺陷，支持按状态和项目筛选。适用场景：用户询问缺陷、待处理问题、缺陷列表，或想查看待修复内容时。", "downloads": 25, "homepage": "https://clawhub.ai/duhuazhu/bugpack-list-bugs", "iconUrl": null, "installs": 0, "name": "BugPack List Bugs", "ownerName": "duhuazhu", "score": 100000, "slug": "bugpack-list-bugs", "source": "clawhub", "stars": 0, "tags": null, "updated_at": 1776698869867, "version": "1.0.2"}, {"category": "", "created_at": 1774856166595, "description": "Is this token held by quality wallets or retail noise? SM holder ratio, flow breakdown by label, and recent buyer quality.", "description_zh": "该代币由优质钱包持有还是散户噪音？SM持有者比例、标签资金流向细分及近期买家质量。", "downloads": 25, "homepage": "https://clawhub.ai/nansen-devops/nansen-holder-analysis", "iconUrl": null, "installs": 0, "name": "Nansen Holder Analysis", "ownerName": "nansen-devops", "score": 100000, "slug": "nansen-holder-analysis", "source": "clawhub", "stars": 0, "tags": null, "updated_at": 1776698869866, "version": "0.1.0"}, {"category": "", "created_at": 1774943968084, "description": "Your personal AI assistant platform — multi-agent orchestration, task management, and autonomous workflow execution.", "description_zh": "您的个人AI助手平台——多智能体编排、任务管理、工作流自主执行。", "downloads": 25, "homepage": "https://clawhub.ai/shiyanhui/1person-pro", "iconUrl": null, "installs": 0, "name": "1Person Pro", "ownerName": "shiyanhui", "score": 100000, "slug": "1person-pro", "source": "clawhub", "stars": 0, "tags": null, "updated_at": 1776698869864, "version": "0.1.0"}, {"category": "", "created_at": 1774869091198, "description": "Track tasks with priorities, owners, and statuses for operations teams.", "description_zh": "为运营团队跟踪任务的优先级、负责人和状态。", "downloads": 25, "homepage": "https://clawhub.ai/admiralkittysdad/ops-tasks", "iconUrl": null, "installs": 0, "name": "Ops Tasks", "ownerName": "admiralkittysdad", "score": 100000, "slug": "ops-tasks", "source": "clawhub", "stars": 0, "tags": null, "updated_at": 1776698869860, "version": "1.0.0"}, {"category": "", "created_at": 1774903460424, "description": "One AI integration. Manage Organizations, Users. Use when the user wants to interact with One AI data.", "description_zh": "One AI 集成。管理组织和用户。当用户希望与 One AI 数据交互时使用。", "downloads": 25, "homepage": "https://clawhub.ai/gora050/one-ai", "iconUrl": null, "installs": 0, "name": "One Ai", "ownerName": "gora050", "score": 100000, "slug": "one-ai", "source": "clawhub", "stars": 0, "tags": null, "updated_at": 1776698869859, "version": "1.0.0"}, {"category": "", "created_at": 1774881572750, "description": "Use Engrm packs and Sentinel context to surface likely mistakes, risky patterns, and lessons that would have prevented them.", "description_zh": "利用Engrm包和Sentinel上下文来识别可能的错误、风险模式，以及能够预防这些问题的经验教训。", "downloads": 25, "homepage": "https://clawhub.ai/dr12hes/engrm-sentinel", "iconUrl": null, "installs": 0, "name": "Engrm Sentinel", "ownerName": "dr12hes", "score": 100000, "slug": "engrm-sentinel", "source": "clawhub", "stars": 0, "tags": ["memory", "openclaw", "safety", "security"], "updated_at": 1776698869857, "version": "0.1.0"}, {"category": "", "created_at": 1774904523851, "description": "MoonClerk integration. Manage Persons, Organizations, Deals, Leads, Projects, Activities and more. Use when the user wants to interact with MoonClerk data.", "description_zh": "{\"answer\":\"MoonClerk集成。管理人员、组织、交易、潜在客户、项目、活动等。用于用户与MoonClerk数据交互。\"}", "downloads": 25, "homepage": "https://clawhub.ai/gora050/moonclerk", "iconUrl": null, "installs": 0, "name": "Moonclerk", "ownerName": "gora050", "score": 100000, "slug": "moonclerk", "source": "clawhub", "stars": 0, "tags": null, "updated_at": 1776698869851, "version": "1.0.0"}, {"category": "", "created_at": 1775202558180, "description": "", "description_zh": "Recognizes various poses such as standing, sitting, lying down, bending, raising hands, running, and falling. Supports abnormal pose recognition and fall warnings, suitable for security monitoring and elderly care. | 人体姿态识别技能，识别站立、坐姿、躺卧、弯腰、举手、奔跑、摔倒等多种人体姿态，支持肢体异常姿态识别和摔倒预警，适用于安防监测、老人看护等场景", "downloads": 25, "homepage": "https://clawhub.ai/user_bb47e3e3/human-posture-recognition-analysis", "iconUrl": null, "installs": 1, "name": "Human Pose Recognition Skill | 人体姿态识别技能", "ownerName": "user_bb47e3e3", "score": 100000, "slug": "human-posture-recognition-analysis", "source": "community", "stars": 0, "tags": null, "updated_at": 1776698869850, "version": "1.0.0"}, {"category": "", "created_at": 1774950343975, "description": "拉取IM账号近1-7天聊天记录并生成汇总分析", "description_zh": "拉取IM账号近1-7天聊天记录并生成汇总分析", "downloads": 25, "homepage": "https://clawhub.ai/ahoyoshi/egatee-chat-summary", "iconUrl": null, "installs": 0, "name": "Egatee Chat Summary", "ownerName": "ahoyoshi", "score": 100000, "slug": "egatee-chat-summary", "source": "clawhub", "stars": 0, "tags": null, "updated_at": 1776698869848, "version": "1.0.0"}, {"category": "", "created_at": 1774915185011, "description": "Guide for creating effective skills. This skill should be used when users want to create a new skill (or update an existing skill) that extends Claude's capa...", "description_zh": "创建高效技能的指南。当用户想要创建新技能（或更新现有技能）以扩展Claude的能力时使用此技能。", "downloads": 25, "homepage": "https://clawhub.ai/chenscgit/csctest1", "iconUrl": null, "installs": 0, "name": "test1", "ownerName": "chenscgit", "score": 100000, "slug": "csctest1", "source": "clawhub", "stars": 0, "tags": null, "updated_at": 1776698869846, "version": "1.0.0"}, {"category": "", "created_at": 1774923535480, "description": "LLM proxy that cuts API costs 40-60% via smart model routing. Tracks spending, enforces budgets, detects loops, auto-stops runaway agents. Supports OpenAI, A...", "description_zh": "智能路由LLM代理，降低API费用40‑60%；支持支出监控、预算执行、循环检测、失控代理自动停止；兼容OpenAI等。", "downloads": 25, "homepage": "https://clawhub.ai/tazsat0512/reivo", "iconUrl": null, "installs": 0, "name": "Reivo", "ownerName": "tazsat0512", "score": 100000, "slug": "reivo", "source": "clawhub", "stars": 0, "tags": ["agent-safety", "budget", "cost-optimization", "llm", "proxy", "routing"], "updated_at": 1776698869843, "version": "1.1.1"}, {"category": "", "created_at": 1774923906553, "description": "DEAR Systems integration. Manage Organizations, Projects, Users, Goals, Filters. Use when the user wants to interact with DEAR Systems data.", "description_zh": "DEAR Systems集成。管理组织、项目、用户、目标和筛选器。当用户需要与DEAR Systems数据交互时使用。", "downloads": 25, "homepage": "https://clawhub.ai/membranedev/dear-systems", "iconUrl": null, "installs": 0, "name": "Dear Systems", "ownerName": "membranedev", "score": 100000, "slug": "dear-systems", "source": "clawhub", "stars": 0, "tags": null, "updated_at": 1776698869839, "version": "1.0.0"}, {"category": "", "created_at": 1774901093050, "description": "Account Management Overview API skill. Use when working with Account Management Overview for resources. Covers 25 endpoints.", "description_zh": "账户管理概览API技能，用于管理账户概览相关资源，涵盖25个端点。", "downloads": 25, "homepage": "https://clawhub.ai/mickmicksh/lap-account-management-overview", "iconUrl": null, "installs": 0, "name": "Lap Account Management Overview", "ownerName": "mickmicksh", "score": 100000, "slug": "lap-account-management-overview", "source": "clawhub", "stars": 0, "tags": null, "updated_at": 1776698869838, "version": "1.0.0"}, {"category": "", "created_at": 1774897606178, "description": "AltText.ai integration. Manage data, records, and automate workflows. Use when the user wants to interact with AltText.ai data.", "description_zh": "{\"answer\":\"AltText.ai 集成。管理数据与记录，自动化工作流。当用户需与 AltText.ai 数据交互时使用。\"}", "downloads": 25, "homepage": "https://clawhub.ai/gora050/alttextai", "iconUrl": null, "installs": 0, "name": "Alttextai", "ownerName": "gora050", "score": 100000, "slug": "alttextai", "source": "clawhub", "stars": 0, "tags": null, "updated_at": 1776698869836, "version": "1.0.0"}, {"category": "", "created_at": 1774853321946, "description": "Amilia integration. Manage data, records, and automate workflows. Use when the user wants to interact with Amilia data.", "description_zh": "Amilia 集成。管理数据、记录并自动化工作流程，用于用户需与 Amilia 数据交互的场景。", "downloads": 25, "homepage": "https://clawhub.ai/membranedev/amilia", "iconUrl": null, "installs": 0, "name": "Amilia", "ownerName": "membranedev", "score": 100000, "slug": "amilia", "source": "clawhub", "stars": 0, "tags": null, "updated_at": 1776698869834, "version": "1.0.0"}, {"category": "", "created_at": 1774872906184, "description": "View and manage shift schedules and team rosters for operations.", "description_zh": "查看并管理运营的排班和团队名册", "downloads": 25, "homepage": "https://clawhub.ai/admiralkittysdad/ops-shifts", "iconUrl": null, "installs": 0, "name": "Ops Shifts", "ownerName": "admiralkittysdad", "score": 100000, "slug": "ops-shifts", "source": "clawhub", "stars": 0, "tags": null, "updated_at": 1776698869830, "version": "1.0.0"}, {"category": "", "created_at": 1774863481636, "description": "Action Network integration. Manage data, records, and automate workflows. Use when the user wants to interact with Action Network data.", "description_zh": "Action Network 集成。管理数据、记录并自动化工作流程。当用户需要与 Action Network 数据交互时使用。", "downloads": 25, "homepage": "https://clawhub.ai/gora050/action-network", "iconUrl": null, "installs": 0, "name": "Action Network", "ownerName": "gora050", "score": 100000, "slug": "action-network", "source": "clawhub", "stars": 0, "tags": null, "updated_at": 1776698869826, "version": "1.0.0"}, {"category": "", "created_at": 1774872176228, "description": "Information assistant for Acura 讴歌. Search models, specs, pricing, reviews, and dealership info.", "description_zh": "Information assistant for Acura 讴歌. Search models, specs, pricing, reviews, and dealership info.", "downloads": 25, "homepage": "https://clawhub.ai/hanxueyuan/acura", "iconUrl": null, "installs": 0, "name": "Acura", "ownerName": "hanxueyuan", "score": 100000, "slug": "acura", "source": "clawhub", "stars": 0, "tags": null, "updated_at": 1776698869819, "version": "0.1.1"}, {"category": "", "created_at": 1774896478210, "description": "指导Jessup庭辩中的时间分配、论点排序、模辩实践等实战策略。", "description_zh": "指导Jessup庭辩中的时间分配、论点排序、模辩实践等实战策略。", "downloads": 25, "homepage": "https://clawhub.ai/pepsile/jessup-moot-strategy", "iconUrl": null, "installs": 0, "name": "Jessup庭辩临床策略", "ownerName": "pepsile", "score": 100000, "slug": "jessup-moot-strategy", "source": "clawhub", "stars": 0, "tags": null, "updated_at": 1776698869814, "version": "1.0.0"}, {"category": "", "created_at": 1774920069850, "description": "Conduct critical analysis of viewpoints, factual statements, or web content using the critical thinking framework from \"Asking the Right Questions\". Use when...", "description_zh": "运用《学会提问》中的批判性思维框架，对观点、事实陈述或网络内容进行批判性分析。适用于...", "downloads": 25, "homepage": "https://clawhub.ai/chenyichu86/is-it-true", "iconUrl": null, "installs": 0, "name": "is-it-true", "ownerName": "chenyichu86", "score": 100000, "slug": "is-it-true", "source": "clawhub", "stars": 0, "tags": null, "updated_at": 1776698869812, "version": "1.0.0"}, {"category": "", "created_at": 1774924495988, "description": "Use when creating a new internal application from scratch, standardizing a 0-to-1 app build workflow, or helping teammates bootstrap a Next.js/FastAPI/Keyclo...", "description_zh": "用于从零创建内部应用，标准化0到1的应用构建流程，或帮助团队成员快速搭建Next.js/FastAPI/Keycloak项目。", "downloads": 25, "homepage": "https://clawhub.ai/lyc-chengzi/new-app", "iconUrl": null, "installs": 1, "name": "New App", "ownerName": "lyc-chengzi", "score": 100000, "slug": "new-app", "source": "clawhub", "stars": 0, "tags": null, "updated_at": 1776698869808, "version": "1.0.0"}, {"category": "", "created_at": 1774948796156, "description": "Deep research using Parallect.ai. Queries multiple AI research providers (Perplexity, Gemini, OpenAI, Grok, Anthropic) in parallel, then synthesizes results...", "description_zh": "使用 Parallect.ai 进行深度研究，并行查询多个 AI 研究提供商（Perplexity、Gemini、OpenAI、Grok、Anthropic），随后综合结果。", "downloads": 25, "homepage": "https://clawhub.ai/primeobsession/parallect-ai-deep-research", "iconUrl": null, "installs": 0, "name": "parallect-ai-deep-research", "ownerName": "primeobsession", "score": 100000, "slug": "parallect-ai-deep-research", "source": "clawhub", "stars": 0, "tags": null, "updated_at": 1776698869807, "version": "1.0.0"}, {"category": "", "created_at": 1774898177387, "description": "Guide for building with the Ika TypeScript SDK (@ika.xyz/sdk) on Mysten Sui v2. Use when creating dWallets, signing cross-chain transactions, managing encryp...", "description_zh": "使用 Ika TypeScript SDK (@ika.xyz/sdk) 在 Mysten Sui v2 上构建的指南。用于创建 dWallets、签名跨链交易、管理加密等。", "downloads": 25, "homepage": "https://clawhub.ai/omersadika/ika-sdk", "iconUrl": null, "installs": 0, "name": "Ika Sdk", "ownerName": "omersadika", "score": 100000, "slug": "ika-sdk", "source": "clawhub", "stars": 0, "tags": null, "updated_at": 1776698869805, "version": "1.0.0"}, {"category": "", "created_at": 1774920996440, "description": "Work with Bitrix24 (Битрикс24) via Vibe Platform API and MCP documentation server. Triggers on: CRM — \"сделки\", \"контакты\", \"лиды\", \"воронка\", \"клиенты\", \"de...", "description_zh": "通过Vibe Platform API和MCP文档服务器操作Bitrix24。触发条件：CRM——交易、联系人、线索、漏斗、客户...", "downloads": 25, "homepage": "https://clawhub.ai/bitrix24/bitrix24-rest", "iconUrl": null, "installs": 0, "name": "Bitrix24 REST API", "ownerName": "bitrix24", "score": 100000, "slug": "bitrix24-rest", "source": "clawhub", "stars": 0, "tags": null, "updated_at": 1776698869803, "version": "1.0.1"}, {"category": "", "created_at": 1774893167182, "description": "Credit card rewards optimizer — query 150+ cards, compare benefits, track portfolio, check 5/24 status, and get the best sign-up bonuses (撸卡助手)", "description_zh": "Credit card rewards optimizer — query 150+ cards, compare benefits, track portfolio, check 5/24 status, and get the best sign-up bonuses (撸卡助手)", "downloads": 25, "homepage": "https://clawhub.ai/troyt-666/luca-assistant", "iconUrl": null, "installs": 0, "name": "Luca Assistant", "ownerName": "troyt-666", "score": 100000, "slug": "luca-assistant", "source": "clawhub", "stars": 0, "tags": null, "updated_at": 1776698869801, "version": "1.0.1"}, {"category": "", "created_at": 1774883170836, "description": "Just-In-Time production reference — pull systems, kanban, takt time, inventory reduction. Use when implementing JIT manufacturing, designing pull-based workf...", "description_zh": "准时制生产参考——拉动系统、看板、节拍时间、库存削减。适用于实施JIT制造、设计拉动式工作流程等场景。", "downloads": 25, "homepage": "https://clawhub.ai/xueyetianya/jit", "iconUrl": null, "installs": 0, "name": "Jit", "ownerName": "xueyetianya", "score": 100000, "slug": "jit", "source": "clawhub", "stars": 0, "tags": null, "updated_at": 1776698869800, "version": "1.0.0"}, {"category": "", "created_at": 1774906855171, "description": "A comprehensive helper skill that wraps agent prompts with short, consistent tappable button menus (Yes/No, single digits, or small option sets) so users can...", "description_zh": "一个综合辅助技能，为代理提示词添加简洁一致的可点击按钮菜单（是/否、单个数字或小选项集），便于用户快速交互和选择。", "downloads": 25, "homepage": "https://clawhub.ai/tanjinlimkelvin-dot/prompt-buttons", "iconUrl": null, "installs": 1, "name": "Prompt Buttons", "ownerName": "tanjinlimkelvin-dot", "score": 100000, "slug": "prompt-buttons", "source": "clawhub", "stars": 0, "tags": null, "updated_at": 1776698869798, "version": "1.0.2"}, {"category": "", "created_at": 1774920143167, "description": "Linguapop integration. Manage Users, Organizations. Use when the user wants to interact with Linguapop data.", "description_zh": "Linguapop 集成，管理用户和组织，用于用户需要与 Linguapop 数据交互时使用。", "downloads": 25, "homepage": "https://clawhub.ai/gora050/linguapop", "iconUrl": null, "installs": 0, "name": "Linguapop", "ownerName": "gora050", "score": 100000, "slug": "linguapop", "source": "clawhub", "stars": 0, "tags": null, "updated_at": 1776698869794, "version": "1.0.0"}, {"category": "", "created_at": 1774903014386, "description": "提供关于网红城市的推荐清单、打卡路线与指南。用户搜索网红城市或规划相关出行时调用。", "description_zh": "提供关于网红城市的推荐清单、打卡路线与指南。用户搜索网红城市或规划相关出行时调用。", "downloads": 25, "homepage": "https://clawhub.ai/mike47512/cities", "iconUrl": null, "installs": 0, "name": "网红城市", "ownerName": "mike47512", "score": 100000, "slug": "cities", "source": "clawhub", "stars": 0, "tags": null, "updated_at": 1776698869793, "version": "0.1.0"}, {"category": "", "created_at": 1774859168104, "description": "Six Seats. Ten Courses. One Animal's Entire Story.. An immersive journey on drifts.bot — 10 steps, MEDIUM intensity, 1-2 hours. Browse, start, and travel via...", "description_zh": "**六席·十道·一个生命的完整故事**\n\n沉浸式旅程 — 10个章节，中等强度，约1-2小时。探索、启程、漫游于 drifts.bot……", "downloads": 25, "homepage": "https://clawhub.ai/driftsbot/experience-wagyu-omakase-tokyo", "iconUrl": null, "installs": 0, "name": "Experience Wagyu Omakase Tokyo", "ownerName": "driftsbot", "score": 100000, "slug": "experience-wagyu-omakase-tokyo", "source": "clawhub", "stars": 0, "tags": null, "updated_at": 1776698869791, "version": "1.0.0"}, {"category": "", "created_at": 1774887106905, "description": "Connects your agent to LobstrHunt — the daily skill launch platform for OpenClaw agents. Checks for new skills every 4 hours and surfaces relevant discoverie...", "description_zh": "将您的代理连接到LobstrHunt——OpenClaw代理的每日技能发布平台。每4小时检查新技能并发现相关内容。", "downloads": 25, "homepage": "https://clawhub.ai/rednix/lobstrhunt", "iconUrl": null, "installs": 0, "name": "LobstrHunt", "ownerName": "rednix", "score": 100000, "slug": "lobstrhunt", "source": "clawhub", "stars": 0, "tags": null, "updated_at": 1776698869789, "version": "0.2.1"}, {"category": "", "created_at": 1774909556029, "description": "调用 ai-open-gateway 的事件查询接口 POST /api/event/query，支持自然语言查询设备事件，返回 AI 摘要和事件列表。Use when: 需要查询设备检测到的事件、了解某段时间内的活动情况，例如有没有人出现、有没有车开过、我的猫去哪里了等自然语言问题。⚠️ 需设置 AI_GATE...", "description_zh": "调用 ai-open-gateway 的事件查询接口 POST /api/event/query，支持自然语言查询设备事件，返回 AI 摘要和事件列表。Use when: 需要查询设备检测到的事件、了解某段时间内的活动情况，例如有没有人出现、有没有车开过、我的猫去哪里了等自然语言问题。⚠️ 需设置 AI_GATE...", "downloads": 25, "homepage": "https://clawhub.ai/maydayily/closeli-query-event", "iconUrl": null, "installs": 0, "name": "查询设备事件", "ownerName": "maydayily", "score": 100000, "slug": "closeli-query-event", "source": "clawhub", "stars": 0, "tags": null, "updated_at": 1776698869787, "version": "1.0.0"}, {"category": "", "created_at": 1774896425346, "description": "Information assistant for Gucci. Search products, news, financials, and official resources for Gucci.", "description_zh": "Gucci品牌信息助手，可搜索Gucci的产品、新闻、财务数据及官方资源。", "downloads": 25, "homepage": "https://clawhub.ai/hanxueyuan/gucci", "iconUrl": null, "installs": 0, "name": "Gucci", "ownerName": "hanxueyuan", "score": 100000, "slug": "gucci", "source": "clawhub", "stars": 0, "tags": null, "updated_at": 1776698869784, "version": "0.1.1"}, {"category": "", "created_at": 1774883392178, "description": "First-run setup wizard for new OpenClaw agents. Interviews the user to generate a tailored SOUL.md, scaffolds memory architecture, installs recommended crons...", "description_zh": "为新OpenClaw代理提供首次运行设置向导，采访用户生成定制SOUL.md，搭建内存架构，安装推荐定时任务。", "downloads": 25, "homepage": "https://clawhub.ai/zurbrick/openclaw-startup", "iconUrl": null, "installs": 0, "name": "Openclaw Startup", "ownerName": "zurbrick", "score": 100000, "slug": "openclaw-startup", "source": "clawhub", "stars": 0, "tags": ["onboarding", "setup", "wizard"], "updated_at": 1776698869782, "version": "1.0.3"}, {"category": "", "created_at": 1775204468973, "description": "", "description_zh": "Detects the appearance of strangers near minors and actively issues safety reminder alerts to protect minor safety, suitable for homes, schools, childcare centers, and other scenarios. | 陌生人靠近预警技能，检测未成年人身边出现陌生人员，主动发出安全提醒预警，守护未成年人安全，适用于家庭、学校、托管场所等场景", "downloads": 25, "homepage": "https://clawhub.ai/user_bb47e3e3/stranger-approach-warning-analysis", "iconUrl": null, "installs": 0, "name": "Stranger Proximity Alert Skill | 陌生人靠近预警技能", "ownerName": "user_bb47e3e3", "score": 100000, "slug": "stranger-approach-warning-analysis", "source": "community", "stars": 0, "tags": null, "updated_at": 1776698869780, "version": "1.0.0"}, {"category": "", "created_at": 1774902904277, "description": "Find nearby beaches. Invoke when user asks for beaches near me.", "description_zh": "查找附近的海滩。当用户询问附近海滩时调用。", "downloads": 25, "homepage": "https://clawhub.ai/codekungfu/beaches", "iconUrl": null, "installs": 0, "name": "Nearby Beaches", "ownerName": "codekungfu", "score": 100000, "slug": "beaches", "source": "clawhub", "stars": 0, "tags": null, "updated_at": 1776698869779, "version": "0.1.0"}, {"category": "", "created_at": 1774948283300, "description": "Circle integration. Manage data, records, and automate workflows. Use when the user wants to interact with Circle data.", "description_zh": "{\"answer\": \"Circle集成。管理数据与记录，自动化工作流。用于与Circle数据进行交互。\"}", "downloads": 25, "homepage": "https://clawhub.ai/gora050/circle", "iconUrl": null, "installs": 0, "name": "Circle", "ownerName": "gora050", "score": 100000, "slug": "circle", "source": "clawhub", "stars": 0, "tags": null, "updated_at": 1776698869770, "version": "1.0.0"}, {"category": "", "created_at": 1774850038757, "description": "Risk management", "description_zh": "风险管理", "downloads": 25, "homepage": "https://clawhub.ai/jkzfhq/psyvector-pv15", "iconUrl": null, "installs": 0, "name": "Psyvector Pv15", "ownerName": "jkzfhq", "score": 100000, "slug": "psyvector-pv15", "source": "clawhub", "stars": 0, "tags": ["digital-worker", "psyvector"], "updated_at": 1776698869768, "version": "3.0.0"}, {"category": "", "created_at": 1774944558655, "description": "基于 kiro-spec-engine (kse) 的 CLI 开发工作流。使用 spec 驱动开发，通过 kse 命令创建规格文档、管理项目结构、自动化开发流程。当用户需要：(1) 用 kse CLI 进行 spec-driven 开发，(2) 创建和管理项目 specs，(3) 使用 enhance 提升文档...", "description_zh": "基于 kiro-spec-engine (kse) 的 CLI 开发工作流。使用 spec 驱动开发，通过 kse 命令创建规格文档、管理项目结构、自动化开发流程。当用户需要：(1) 用 kse CLI 进行 spec-driven 开发，(2) 创建和管理项目 specs，(3) 使用 enhance 提升文档...", "downloads": 25, "homepage": "https://clawhub.ai/sougannkyou/kse-dev", "iconUrl": null, "installs": 0, "name": "KSE CLI 开发工作流", "ownerName": "sougannkyou", "score": 100000, "slug": "kse-dev", "source": "clawhub", "stars": 0, "tags": null, "updated_at": 1776698869766, "version": "1.0.1"}]}