{"page": 664, "total_pages": 685, "total": 34217, "skills": [{"category": "", "created_at": 1774849253337, "description": "Billions decentralized identity for agents. Link agents to human identities using Billions ERC-8004 and Attestation Registries. Verify and generate authentic...", "description_zh": "Billions智能体去中心化身份。通过Billions ERC-8004和证明注册表将智能体与人类身份绑定，验证并生成真实的...", "downloads": 24, "homepage": "https://clawhub.ai/armanma0100/verified-agent-identity-7", "iconUrl": null, "installs": 0, "name": "Verified Agent Identity", "ownerName": "armanma0100", "score": 45283.01886792453, "slug": "verified-agent-identity-7", "source": "clawhub", "stars": 0, "tags": null, "updated_at": 1776699044710, "version": "0.1.1"}, {"category": "", "created_at": 1774911177954, "description": "RudderStack HTTP integration. Manage data, records, and automate workflows. Use when the user wants to interact with RudderStack HTTP data.", "description_zh": "RudderStack HTTP 集成。管理数据、记录并自动化工作流程。适用于用户需要与 RudderStack HTTP 数据交互的场景。", "downloads": 24, "homepage": "https://clawhub.ai/gora050/rudderstack-http", "iconUrl": null, "installs": 0, "name": "Rudderstack Http", "ownerName": "gora050", "score": 45283.01886792453, "slug": "rudderstack-http", "source": "clawhub", "stars": 0, "tags": null, "updated_at": 1776699044705, "version": "1.0.0"}, {"category": "", "created_at": 1774952621670, "description": "Upload a local file to tmpfiles.org using Python standard library only, then return a direct download link in strict JSON.", "description_zh": "仅使用 Python 标准库将本地文件上传至 tmpfiles.org，随后返回严格 JSON 格式的直接下载链接。", "downloads": 24, "homepage": "https://clawhub.ai/donigwapo/tmpfiles-upload-stdlib", "iconUrl": null, "installs": 0, "name": "Tmpfiles Upload (Stdlib)", "ownerName": "donigwapo", "score": 45283.01886792453, "slug": "tmpfiles-upload-stdlib", "source": "clawhub", "stars": 0, "tags": ["files", "python", "tmpfiles", "upload"], "updated_at": 1776699044692, "version": "1.0.0"}, {"category": "", "created_at": 1774902540309, "description": "SmartReach integration. Manage Organizations. Use when the user wants to interact with SmartReach data.", "description_zh": "SmartReach 集成。管理组织。用于与 SmartReach 数据交互。", "downloads": 24, "homepage": "https://clawhub.ai/gora050/smartreach", "iconUrl": null, "installs": 0, "name": "Smartreach", "ownerName": "gora050", "score": 45283.01886792453, "slug": "smartreach", "source": "clawhub", "stars": 0, "tags": null, "updated_at": 1776699044674, "version": "1.0.0"}, {"category": "", "created_at": 1774909021138, "description": "Rollbar integration. Manage Projects, Persons, Users, Teams. Use when the user wants to interact with Rollbar data.", "description_zh": "Rollbar 集成。管理项目、人员、用户和团队。用于与 Rollbar 数据交互。", "downloads": 24, "homepage": "https://clawhub.ai/gora050/rollbar-integration", "iconUrl": null, "installs": 0, "name": "Rollbar", "ownerName": "gora050", "score": 45283.01886792453, "slug": "rollbar-integration", "source": "clawhub", "stars": 0, "tags": null, "updated_at": 1776699044672, "version": "1.0.0"}, {"category": "", "created_at": 1774917248549, "description": "Samsara integration. Manage Drivers, Assets, Locations, Trips, Reports. Use when the user wants to interact with Samsara data.", "description_zh": "Samsara集成，管理司机、资产、地点、行程和报告，用于用户与Samsara数据的交互。", "downloads": 24, "homepage": "https://clawhub.ai/gora050/samsara", "iconUrl": null, "installs": 0, "name": "Samsara", "ownerName": "gora050", "score": 45283.01886792453, "slug": "samsara", "source": "clawhub", "stars": 0, "tags": null, "updated_at": 1776699044668, "version": "1.0.0"}, {"category": "", "created_at": 1774850257961, "description": "When the user wants to create, optimize, or audit free tools pages. Also use when the user mentions \"free tools,\" \"tools page,\" \"toolkit,\" \"free [X] tool,\" \"...", "description_zh": "当用户想要创建、优化或审计免费工具页面时。同时在用户提及\"免费工具\"、\"工具页面\"、\"工具包\"、\"免费[X]工具\"等情况下使用。", "downloads": 24, "homepage": "https://clawhub.ai/kostja94/tools-page-generator", "iconUrl": null, "installs": 0, "name": "tools-page-generator", "ownerName": "kostja94", "score": 45283.01886792453, "slug": "tools-page-generator", "source": "clawhub", "stars": 0, "tags": null, "updated_at": 1776699044667, "version": "1.0.0"}, {"category": "", "created_at": 1774887469426, "description": "Use when OpenClaw should learn how to inspect or change SilicaClaw runtime network mode, explain the difference between local, lan, and global-preview, and e...", "description_zh": "当OpenClaw需要学习如何检查或更改SilicaClaw运行时网络模式时使用，解释本地、局域网和全局预览模式之间的区别，以及...", "downloads": 24, "homepage": "https://clawhub.ai/chinasong/silicaclaw-network-config", "iconUrl": null, "installs": 0, "name": "SilicaClaw Network Config", "ownerName": "chinasong", "score": 45283.01886792453, "slug": "silicaclaw-network-config", "source": "clawhub", "stars": 0, "tags": null, "updated_at": 1776699044657, "version": "2026.3.20-beta.1"}, {"category": "", "created_at": 1774954571681, "description": "Rapid7 Insight Platform integration. Manage Users, Roles, Organizations, Assets, Vulnerabilities, Findings and more. Use when the user wants to interact with...", "description_zh": "Rapid7 Insight Platform 集成。管理用户、角色、组织、资产、漏洞、发现等。在用户想要进行交互时使用...", "downloads": 24, "homepage": "https://clawhub.ai/gora050/rapid7-insight-platform", "iconUrl": null, "installs": 0, "name": "Rapid7 Insight Platform", "ownerName": "gora050", "score": 100000, "slug": "rapid7-insight-platform", "source": "clawhub", "stars": 0, "tags": null, "updated_at": 1776699044642, "version": "1.0.0"}, {"category": "", "created_at": 1774907914193, "description": "Platform9 integration. Manage data, records, and automate workflows. Use when the user wants to interact with Platform9 data.", "description_zh": "Platform9集成。管理数据、记录并自动化工作流程。用于用户想要与Platform9数据交互时。", "downloads": 24, "homepage": "https://clawhub.ai/gora050/platform9", "iconUrl": null, "installs": 0, "name": "Platform9", "ownerName": "gora050", "score": 100000, "slug": "platform9", "source": "clawhub", "stars": 0, "tags": null, "updated_at": 1776699044618, "version": "1.0.0"}, {"category": "", "created_at": 1774918717133, "description": "Sendblue integration. Manage Persons, Organizations, Leads, Pipelines, Deals, Users and more. Use when the user wants to interact with Sendblue data.", "description_zh": "{\n  \"answer\": \"Sendblue 集成。管理人员、组织、线索、管道、交易及用户等。用于与 Sendblue 数据交互。\"\n}", "downloads": 24, "homepage": "https://clawhub.ai/membranedev/sendblue", "iconUrl": null, "installs": 0, "name": "Sendblue", "ownerName": "membranedev", "score": 100000, "slug": "sendblue", "source": "clawhub", "stars": 0, "tags": null, "updated_at": 1776699044614, "version": "1.0.0"}, {"category": "", "created_at": 1774837223874, "description": "Official Zernio API reference for scheduling posts across 14 social media platforms. Covers authentication, endpoints, webhooks, and platform-specific featur...", "description_zh": "Zernio官方API参考，支持跨14个社交媒体平台定时发布，涵盖身份验证、端点、Webhooks及平台特定功能。", "downloads": 24, "homepage": "https://clawhub.ai/mikipalet/zernio-api", "iconUrl": null, "installs": 0, "name": "Zernio API", "ownerName": "mikipalet", "score": 100000, "slug": "zernio-api", "source": "clawhub", "stars": 0, "tags": null, "updated_at": 1776699044598, "version": "1.0.3"}, {"category": "", "created_at": 1774910067451, "description": "Design controlled continuation loops for long-running projects. Use when a task is too large for one session, benefits from periodic wake-ups, and needs expl...", "description_zh": "为长期项目设计可控延续循环。适用于单次会话无法完成、需定期唤醒的任务。", "downloads": 24, "homepage": "https://clawhub.ai/daowuu/project-heartbeat", "iconUrl": null, "installs": 0, "name": "Project Heartbeat", "ownerName": "daowuu", "score": 82758.62068965517, "slug": "project-heartbeat", "source": "clawhub", "stars": 0, "tags": null, "updated_at": 1776699044556, "version": "0.4.1"}, {"category": "", "created_at": 1774953123746, "description": "Metriql Docs integration. Manage data, records, and automate workflows. Use when the user wants to interact with Metriql Docs data.", "description_zh": "Metriql Docs 集成。管理数据、记录和工作流自动化。用于用户交互 Metriql Docs 数据。", "downloads": 24, "homepage": "https://clawhub.ai/gora050/metriql-docs", "iconUrl": null, "installs": 0, "name": "Metriql Docs", "ownerName": "gora050", "score": 82758.62068965517, "slug": "metriql-docs", "source": "clawhub", "stars": 0, "tags": null, "updated_at": 1776699044554, "version": "1.0.0"}, {"category": "", "created_at": 1774900133797, "description": "Qntrl integration. Manage Organizations, Pipelines, Users, Goals, Filters. Use when the user wants to interact with Qntrl data.", "description_zh": "Qntrl 集成。管理组织、流程、用户、目标、过滤器。当用户需要与 Qntrl 数据交互时使用。", "downloads": 24, "homepage": "https://clawhub.ai/gora050/qntrl", "iconUrl": null, "installs": 0, "name": "Qntrl", "ownerName": "gora050", "score": 82758.62068965517, "slug": "qntrl", "source": "clawhub", "stars": 0, "tags": null, "updated_at": 1776699044548, "version": "1.0.0"}, {"category": "", "created_at": 1774955450739, "description": "Get-started-fast guides for accessible physical instruments. Use when someone wants to learn an instrument, needs a stress relief practice, wants to play mus...", "description_zh": "快速入门指南，涵盖易于获取的实体乐器。适用于想学习乐器、需要减压练习或想弹奏音乐的人群。", "downloads": 24, "homepage": "https://clawhub.ai/howtousehumans/play-physical-instrument", "iconUrl": null, "installs": 0, "name": "Play Physical Instrument", "ownerName": "howtousehumans", "score": 82758.62068965517, "slug": "play-physical-instrument", "source": "clawhub", "stars": 0, "tags": null, "updated_at": 1776699044531, "version": "1.0.0"}, {"category": "", "created_at": 1774901286855, "description": "Range integration. Manage Workspaces. Use when the user wants to interact with Range data.", "description_zh": "Range集成。管理工作区。用于与Range数据交互。", "downloads": 24, "homepage": "https://clawhub.ai/gora050/range", "iconUrl": null, "installs": 1, "name": "Range", "ownerName": "gora050", "score": 82758.62068965517, "slug": "range", "source": "clawhub", "stars": 0, "tags": null, "updated_at": 1776699044520, "version": "1.0.0"}, {"category": "", "created_at": 1774879193239, "description": "Manage your API's economic firewall from the terminal. Mint tokens, check status, validate tokens, wrap agent commands. The server-side counterpart to lnget.", "description_zh": "从终端管理 API 经济防火墙。铸造令牌、检查状态、验证令牌及封装代理命令。lnget 的服务端对应组件。", "downloads": 24, "homepage": "https://clawhub.ai/wmattadeen-gif/satgate-cli", "iconUrl": null, "installs": 0, "name": "Satgate", "ownerName": "wmattadeen-gif", "score": 82758.62068965517, "slug": "satgate-cli", "source": "clawhub", "stars": 0, "tags": null, "updated_at": 1776699044514, "version": "2.0.0"}, {"category": "", "created_at": 1774837284753, "description": "Trade Polymarket 5-minute crypto fast markets using 1-minute candle body analysis and volume surge detection from Binance. Scans BTC, ETH, SOL, XRP, BNB simu...", "description_zh": "利用币安1分钟K线实体分析和成交量激增检测，交易Polymarket 5分钟加密货币快速市场，扫描BTC、ETH、SOL、XRP、BNB等币种。", "downloads": 24, "homepage": "https://clawhub.ai/mibayy/polymarket-candle-momentum", "iconUrl": null, "installs": 0, "name": "Polymarket Candle Momentum", "ownerName": "mibayy", "score": 30769.23076923077, "slug": "polymarket-candle-momentum", "source": "clawhub", "stars": 0, "tags": null, "updated_at": 1776699044502, "version": "2.0.0"}, {"category": "", "created_at": 1774956597347, "description": "PractiTest integration. Manage Projects. Use when the user wants to interact with PractiTest data.", "description_zh": "PractiTest 集成，管理项目，用于用户需要与 PractiTest 数据交互的场景。", "downloads": 24, "homepage": "https://clawhub.ai/gora050/practitest", "iconUrl": null, "installs": 0, "name": "Practitest", "ownerName": "gora050", "score": 30769.23076923077, "slug": "practitest", "source": "clawhub", "stars": 0, "tags": null, "updated_at": 1776699044498, "version": "1.0.0"}, {"category": "", "created_at": 1774874576854, "description": "A red-team advisor that challenges assumptions, stress-tests ideas, and gives brutally honest GO/NO-GO feedback. Use when evaluating business ideas, workflow...", "description_zh": "红队顾问：挑战假设、压力测试想法，提供残酷诚实的通过/不通过反馈。用于评估商业理念、工作流程...", "downloads": 24, "homepage": "https://clawhub.ai/mpbshhx/ruthless-mentor", "iconUrl": null, "installs": 0, "name": "Ruthless Mentor", "ownerName": "mpbshhx", "score": 30769.23076923077, "slug": "ruthless-mentor", "source": "clawhub", "stars": 0, "tags": null, "updated_at": 1776699044485, "version": "1.0.0"}, {"category": "", "created_at": 1774885995977, "description": "SauceLabs integration. Manage Users, Organizations, Files, Notes, Activities. Use when the user wants to interact with SauceLabs data.", "description_zh": "SauceLabs 集成，管理用户、组织、文件、笔记、活动。当用户需要与 SauceLabs 数据交互时使用。", "downloads": 24, "homepage": "https://clawhub.ai/gora050/saucelabs", "iconUrl": null, "installs": 0, "name": "Saucelabs", "ownerName": "gora050", "score": 30769.23076923077, "slug": "saucelabs", "source": "clawhub", "stars": 0, "tags": null, "updated_at": 1776699044483, "version": "1.0.0"}, {"category": "", "created_at": 1774914724511, "description": "Pumble integration. Manage Workspaces. Use when the user wants to interact with Pumble data.", "description_zh": "Pumble集成。管理工作区。用于用户需与Pumble数据交互时。", "downloads": 24, "homepage": "https://clawhub.ai/membranedev/pumble", "iconUrl": null, "installs": 0, "name": "Pumble", "ownerName": "membranedev", "score": 30769.23076923077, "slug": "pumble", "source": "clawhub", "stars": 0, "tags": null, "updated_at": 1776699044476, "version": "1.0.0"}, {"category": "", "created_at": 1774952503324, "description": "Pitchlane integration. Manage Organizations. Use when the user wants to interact with Pitchlane data.", "description_zh": "Pitchlane 集成，管理组织，用于用户需要与 Pitchlane 数据交互的场景。", "downloads": 24, "homepage": "https://clawhub.ai/membranedev/pitchlane", "iconUrl": null, "installs": 0, "name": "Pitchlane", "ownerName": "membranedev", "score": 30769.23076923077, "slug": "pitchlane", "source": "clawhub", "stars": 0, "tags": null, "updated_at": 1776699044462, "version": "1.0.0"}, {"category": "", "created_at": 1774909050172, "description": "SegMetrics integration. Manage Persons, Organizations, Deals, Leads, Projects, Activities and more. Use when the user wants to interact with SegMetrics data.", "description_zh": "SegMetrics 集成：管理人员、组织、交易、线索、项目、活动等，用于与 SegMetrics 数据交互。", "downloads": 24, "homepage": "https://clawhub.ai/gora050/segmetrics", "iconUrl": null, "installs": 0, "name": "Segmetrics", "ownerName": "gora050", "score": 30769.23076923077, "slug": "segmetrics", "source": "clawhub", "stars": 0, "tags": null, "updated_at": 1776699044458, "version": "1.0.0"}, {"category": "", "created_at": 1774893640233, "description": "Raven Tools integration. Manage Organizations. Use when the user wants to interact with Raven Tools data.", "description_zh": "Raven Tools集成。管理组织。当用户需要与Raven Tools数据交互时使用。", "downloads": 24, "homepage": "https://clawhub.ai/membranedev/raven-tools", "iconUrl": null, "installs": 0, "name": "Raven Tools", "ownerName": "membranedev", "score": 30769.23076923077, "slug": "raven-tools", "source": "clawhub", "stars": 0, "tags": null, "updated_at": 1776699044455, "version": "1.0.0"}, {"category": "", "created_at": 1774870420296, "description": "SmugMug integration. Manage Users. Use when the user wants to interact with SmugMug data.", "description_zh": "SmugMug 集成。用户管理。用户想要与 SmugMug 数据交互时使用。", "downloads": 24, "homepage": "https://clawhub.ai/membranedev/smugmug", "iconUrl": null, "installs": 0, "name": "Smugmug", "ownerName": "membranedev", "score": 100000, "slug": "smugmug", "source": "clawhub", "stars": 0, "tags": null, "updated_at": 1776699044427, "version": "1.0.0"}, {"category": "", "created_at": 1774947732926, "description": "Pro Ledger integration. Manage Accounts, Contacts, Invoices, Reports. Use when the user wants to interact with Pro Ledger data.", "description_zh": "Pro Ledger 集成，管理账户、联系人、发票和报表，适用于需要与 Pro Ledger 数据交互的场景。", "downloads": 24, "homepage": "https://clawhub.ai/membranedev/pro-ledger", "iconUrl": null, "installs": 0, "name": "Pro Ledger", "ownerName": "membranedev", "score": 100000, "slug": "pro-ledger", "source": "clawhub", "stars": 0, "tags": null, "updated_at": 1776699044412, "version": "1.0.0"}, {"category": "", "created_at": 1774893541684, "description": "PixieBrix integration. Manage Persons, Organizations, Deals, Leads, Projects, Activities and more. Use when the user wants to interact with PixieBrix data.", "description_zh": "PixieBrix 集成，管理人员、组织、交易、线索、项目、活动等。当用户需要与 PixieBrix 数据交互时使用。", "downloads": 24, "homepage": "https://clawhub.ai/gora050/pixiebrix", "iconUrl": null, "installs": 0, "name": "Pixiebrix", "ownerName": "gora050", "score": 100000, "slug": "pixiebrix", "source": "clawhub", "stars": 0, "tags": null, "updated_at": 1776699044401, "version": "1.0.0"}, {"category": "", "created_at": 1774847574788, "description": "URL encoding, decoding, parameter parsing, and URL manipulation toolkit for developers.", "description_zh": "URL编码解码、参数解析及URL操作开发者工具包", "downloads": 24, "homepage": "https://clawhub.ai/freeter226/url-toolkit", "iconUrl": null, "installs": 0, "name": "URL Toolkit", "ownerName": "freeter226", "score": 100000, "slug": "url-toolkit", "source": "clawhub", "stars": 0, "tags": null, "updated_at": 1776699044399, "version": "1.0.0"}, {"category": "", "created_at": 1774864239033, "description": "Use for searching CertiK Skynet project scores, looking up blockchain project security ratings, comparing score breakdowns, and integrating the public Skynet...", "description_zh": "用于搜索CertiK Skynet项目评分、查询区块链项目安全评级、对比评分详情及集成公开Skynet数据。", "downloads": 24, "homepage": "https://clawhub.ai/certik-ai/skynet-score", "iconUrl": null, "installs": 0, "name": "Skynet Score", "ownerName": "certik-ai", "score": 85714.28571428571, "slug": "skynet-score", "source": "clawhub", "stars": 0, "tags": null, "updated_at": 1776699044372, "version": "1.0.0"}, {"category": "", "created_at": 1774892242277, "description": "Orchestrates TypeScript SDK integration for Aptos dApps. Routes to granular skills for specific tasks (client setup, accounts, transactions, view functions,...", "description_zh": "协调 Aptos dApp 的 TypeScript SDK 集成。路由至细粒度技能以处理特定任务（客户端设置、账户、交易、视图函数、...）。", "downloads": 24, "homepage": "https://clawhub.ai/iskysun96/use-ts-sdk", "iconUrl": null, "installs": 0, "name": "Use Ts Sdk", "ownerName": "iskysun96", "score": 85714.28571428571, "slug": "use-ts-sdk", "source": "clawhub", "stars": 0, "tags": null, "updated_at": 1776699044365, "version": "1.0.0"}, {"category": "", "created_at": 1774908948158, "description": "Plecto integration. Manage Organizations, Persons, Deals, Pipelines, Activities, Notes and more. Use when the user wants to interact with Plecto data.", "description_zh": "{\n  \"answer\": \"Plecto 集成。管理组织、人员、交易、管道、活动、备注等。当用户需要操作 Plecto 数据时使用。\"\n}", "downloads": 24, "homepage": "https://clawhub.ai/gora050/plecto", "iconUrl": null, "installs": 0, "name": "Plecto", "ownerName": "gora050", "score": 85714.28571428571, "slug": "plecto", "source": "clawhub", "stars": 0, "tags": null, "updated_at": 1776699044363, "version": "1.0.0"}, {"category": "", "created_at": 1774901578691, "description": "Use this skill when a user wants a trust decision before installing from a skill URL, marketplace, or GitHub repo. It checks a compact allowlist of trusted d...", "description_zh": "当用户在从技能URL、应用市场或GitHub仓库安装前需要信任决策时使用此技能。它检查一个紧凑的可信域名白名单...", "downloads": 24, "homepage": "https://clawhub.ai/likw99/trustskills", "iconUrl": null, "installs": 0, "name": "TrustSkills", "ownerName": "likw99", "score": 85714.28571428571, "slug": "trustskills", "source": "clawhub", "stars": 0, "tags": null, "updated_at": 1776699004832, "version": "0.1.0"}, {"category": "", "created_at": 1774901293158, "description": "Renko reference tool. Use when working with renko in finance contexts.", "description_zh": "砖形图参考工具，用于金融场景中的砖形图（Renko）分析。", "downloads": 24, "homepage": "https://clawhub.ai/xueyetianya/renko", "iconUrl": null, "installs": 0, "name": "Renko", "ownerName": "xueyetianya", "score": 85714.28571428571, "slug": "renko", "source": "clawhub", "stars": 0, "tags": null, "updated_at": 1776699004832, "version": "1.0.0"}, {"category": "", "created_at": 1774912382319, "description": "Virtual Board of Advisors -- consult 10 world-class business thinkers for strategic decisions. Emulates frameworks and decision patterns of Altman (startups)...", "description_zh": "虚拟顾问委员会——十位世界级商业思想家提供战略决策咨询，借鉴阿尔特曼（初创企业）框架与决策模式。", "downloads": 24, "homepage": "https://clawhub.ai/santaclaw8800/virtual-board-of-advisors", "iconUrl": null, "installs": 0, "name": "Virtual Board of Advisors", "ownerName": "santaclaw8800", "score": 85714.28571428571, "slug": "virtual-board-of-advisors", "source": "clawhub", "stars": 0, "tags": null, "updated_at": 1776699004829, "version": "1.0.1"}, {"category": "", "created_at": 1774910213409, "description": "Snipcart integration. Manage Carts, Products, Customers, Discounts, Orders, ShippingRates. Use when the user wants to interact with Snipcart data.", "description_zh": "Snipcart集成。管理购物车、商品、客户、折扣、订单和运费。当用户需要与Snipcart数据交互时使用。", "downloads": 24, "homepage": "https://clawhub.ai/gora050/snipcart", "iconUrl": null, "installs": 0, "name": "Snipcart", "ownerName": "gora050", "score": 85714.28571428571, "slug": "snipcart", "source": "clawhub", "stars": 0, "tags": null, "updated_at": 1776699004826, "version": "1.0.0"}, {"category": "", "created_at": 1774951686538, "description": "Thinkific integration. Manage Courses. Use when the user wants to interact with Thinkific data.", "description_zh": "Thinkific 集成；管理课程；当用户需要与 Thinkific 数据交互时使用。", "downloads": 24, "homepage": "https://clawhub.ai/gora050/thinkific-integration", "iconUrl": null, "installs": 0, "name": "Thinkific", "ownerName": "gora050", "score": 85714.28571428571, "slug": "thinkific-integration", "source": "clawhub", "stars": 0, "tags": null, "updated_at": 1776699004824, "version": "1.0.0"}, {"category": "", "created_at": 1774955584006, "description": "Skill 全生命周期管理工具 - 标准化开发、测试、发布流程 核心流程：版本管理 + 测试 + 质量扫描 + Git 提交 扩展流程：ClawHub 发布（可选）+ 知识提炼（可选） 效率提升：本地开发 35 分钟→3 分钟，完整发布 50 分钟→5 分钟", "description_zh": "Skill 全生命周期管理工具 - 标准化开发、测试、发布流程 核心流程：版本管理 + 测试 + 质量扫描 + Git 提交 扩展流程：ClawHub 发布（可选）+ 知识提炼（可选） 效率提升：本地开发 35 分钟→3 分钟，完整发布 50 分钟→5 分钟", "downloads": 24, "homepage": "https://clawhub.ai/mo-yuhua/skill-lifecycle", "iconUrl": null, "installs": 0, "name": "Skill Lifecycle", "ownerName": "mo-yuhua", "score": 85714.28571428571, "slug": "skill-lifecycle", "source": "clawhub", "stars": 0, "tags": null, "updated_at": 1776699004823, "version": "0.2.0"}, {"category": "", "created_at": 1774867320884, "description": "Wakapi coding stats (summaries, projects, today status, totals) via a small Python CLI. Requires WAKAPI_URL. WAKAPI_API_KEY is HTTP Basic (Authorization Basi...", "description_zh": "通过小型 Python CLI 获取 Wakapi 编码统计（汇总、项目、今日状态、总计）。需提供 WAKAPI_URL，WAKAPI_API_KEY 采用 HTTP Basic 认证（Authorization Basic）。", "downloads": 24, "homepage": "https://clawhub.ai/chensoul/wakapi-skill", "iconUrl": null, "installs": 0, "name": "Wakapi Query", "ownerName": "chensoul", "score": 85714.28571428571, "slug": "wakapi-skill", "source": "clawhub", "stars": 0, "tags": null, "updated_at": 1776699004822, "version": "0.0.3"}, {"category": "", "created_at": 1774858488290, "description": "Structured 8-step framework for building production AI agents. Use when designing a new AI agent, planning agent architecture, building an automated workflow...", "description_zh": "构建生产级AI智能体的8步结构化框架，适用于设计新AI智能体、规划智能体架构、构建自动化工作流等场景。", "downloads": 24, "homepage": "https://clawhub.ai/wholeinsoul/production-agent-builder", "iconUrl": null, "installs": 0, "name": "Production Agent Builder", "ownerName": "wholeinsoul", "score": 85714.28571428571, "slug": "production-agent-builder", "source": "clawhub", "stars": 0, "tags": null, "updated_at": 1776699004817, "version": "1.0.0"}, {"category": "", "created_at": 1774898761086, "description": "AI 确定性控制工具。管理 temperature/top_p/seed 参数，多场景预设，一致性检查（编辑距离+TF-IDF），监控趋势分析与异常检测，模型参数注入与恢复。", "description_zh": "AI 确定性控制工具。管理 temperature/top_p/seed 参数，多场景预设，一致性检查（编辑距离+TF-IDF），监控趋势分析与异常检测，模型参数注入与恢复。", "downloads": 24, "homepage": "https://clawhub.ai/zhaog100/sjykj-ai-deterministic-control", "iconUrl": null, "installs": 0, "name": "Ai Deterministic Control", "ownerName": "zhaog100", "score": 85714.28571428571, "slug": "sjykj-ai-deterministic-control", "source": "clawhub", "stars": 0, "tags": null, "updated_at": 1776699004813, "version": "1.2.0"}, {"category": "", "created_at": 1774851518505, "description": "Manage Trello boards, lists, and cards via the Trello REST API.", "description_zh": "使用 Trello REST API 管理看板、列表和卡片", "downloads": 24, "homepage": "https://clawhub.ai/hjcloud/testjeff", "iconUrl": null, "installs": 0, "name": "test", "ownerName": "hjcloud", "score": 85714.28571428571, "slug": "testjeff", "source": "clawhub", "stars": 0, "tags": null, "updated_at": 1776699004812, "version": "1.0.0"}, {"category": "", "created_at": 1774886153457, "description": "一文多发：把长文裁剪成小红书/抖音文案/微博/公众号摘要等多平台长度与格式建议。 Use when: 用户要「同步多平台」「精简成抖音配文」「微博短讯」「公众号标题摘要」。 NOT for: 各平台 API 自动发布（本 skill 只产出文案结构，发布需人工或别的自动化）。", "description_zh": "一文多发：把长文裁剪成小红书/抖音文案/微博/公众号摘要等多平台长度与格式建议。 Use when: 用户要「同步多平台」「精简成抖音配文」「微博短讯」「公众号标题摘要」。 NOT for: 各平台 API 自动发布（本 skill 只产出文案结构，发布需人工或别的自动化）。", "downloads": 24, "homepage": "https://clawhub.ai/wangshengli0421/tianshu-repurpose", "iconUrl": null, "installs": 0, "name": "Tianshu Repurpose", "ownerName": "wangshengli0421", "score": 85714.28571428571, "slug": "tianshu-repurpose", "source": "clawhub", "stars": 0, "tags": null, "updated_at": 1776699004811, "version": "1.0.0"}, {"category": "", "created_at": 1774891967184, "description": "Build, integrate, and troubleshoot SharePlay GroupActivities features, including GroupActivity definitions, activation flows, GroupSession lifecycle, messagi...", "description_zh": "构建、集成和排查 SharePlay GroupActivities 功能，包括 GroupActivity 定义、激活流程、GroupSession 生命周期、消息传递等", "downloads": 24, "homepage": "https://clawhub.ai/tomkrikorian/shareplay-developer", "iconUrl": null, "installs": 0, "name": "Shareplay Developer", "ownerName": "tomkrikorian", "score": 85714.28571428571, "slug": "shareplay-developer", "source": "clawhub", "stars": 0, "tags": null, "updated_at": 1776699004810, "version": "0.1.0"}, {"category": "", "created_at": 1774909069819, "description": "When the user wants to create, optimize, or audit a services page. Also use when the user mentions \"services page,\" \"what we offer,\" \"service offerings,\" \"co...", "description_zh": "{\"description_zh\":\"当用户想要创建、优化或审核服务页面时使用。也适用于用户提及\"服务页面\"、\"我们的产品\"、\"服务内容\"等相关场景。\"}", "downloads": 24, "homepage": "https://clawhub.ai/kostja94/services-page-generator", "iconUrl": null, "installs": 0, "name": "services-page-generator", "ownerName": "kostja94", "score": 85714.28571428571, "slug": "services-page-generator", "source": "clawhub", "stars": 0, "tags": null, "updated_at": 1776699004809, "version": "1.0.0"}, {"category": "", "created_at": 1774919025684, "description": "Theta reference tool. Use when working with theta in finance contexts.", "description_zh": "Theta参考工具，用于金融场景中的Theta相关计算与查询。", "downloads": 24, "homepage": "https://clawhub.ai/bytesagain3/theta", "iconUrl": null, "installs": 0, "name": "Theta", "ownerName": "bytesagain3", "score": 100000, "slug": "theta", "source": "clawhub", "stars": 0, "tags": null, "updated_at": 1776699004807, "version": "1.0.0"}, {"category": "", "created_at": 1774899094914, "description": "Generate images and videos using yino.ai. Use when user wants to generate images (Seedream), generate videos (Veo), or any media generation task.", "description_zh": "使用 yino.ai 生成图片和视频。适用于需要生成图片（Seedream）、视频（Veo）或任何媒体生成任务的场景。", "downloads": 24, "homepage": "https://clawhub.ai/hackerqed/yino-ai", "iconUrl": null, "installs": 0, "name": "Yino.ai - Agent First AI Music Video Generator", "ownerName": "hackerqed", "score": 100000, "slug": "yino-ai", "source": "clawhub", "stars": 0, "tags": null, "updated_at": 1776699004805, "version": "0.0.2"}, {"category": "", "created_at": 1774920773220, "description": "提供 Willem C. Vis 国际商事仲裁模拟庭辩的实战技巧，包括庭辩流程、时间分配、评分规则和庭辩稿撰写指南。", "description_zh": "提供 Willem C. Vis 国际商事仲裁模拟庭辩的实战技巧，包括庭辩流程、时间分配、评分规则和庭辩稿撰写指南。", "downloads": 24, "homepage": "https://clawhub.ai/pepsile/vis-moot-advocacy", "iconUrl": null, "installs": 0, "name": "Vis Moot Advocacy", "ownerName": "pepsile", "score": 100000, "slug": "vis-moot-advocacy", "source": "clawhub", "stars": 0, "tags": null, "updated_at": 1776699004803, "version": "1.0.0"}, {"category": "", "created_at": 1774879509201, "description": "How to read on-chain data in @aptos-labs/ts-sdk: view(), getBalance(), getAccountInfo(), getAccountResources(), getAccountModules(), getResource(). Triggers...", "description_zh": "如何在 @aptos-labs/ts-sdk 中读取链上数据：view()、getBalance()、getAccountInfo()、getAccountResources()、getAccountModules()、getResource() 等方法的使用。触发...", "downloads": 24, "homepage": "https://clawhub.ai/iskysun96/ts-sdk-view-and-query", "iconUrl": null, "installs": 0, "name": "Ts Sdk View And Query", "ownerName": "iskysun96", "score": 100000, "slug": "ts-sdk-view-and-query", "source": "clawhub", "stars": 0, "tags": null, "updated_at": 1776699004798, "version": "1.0.0"}]}