{"page": 665, "total_pages": 685, "total": 34217, "skills": [{"category": "", "created_at": 1774867406938, "description": "London transport CLI — tube status, journey planning, live arrivals, disruptions, bike docks, and agent-friendly projection via `--output <path>` for route,...", "description_zh": "伦敦交通命令行工具 — 地铁状态查询、行程规划、实时到站、运营中断、自行车停放点，以及通过 `--output <path>` 进行代理友好的路线投影输出。", "downloads": 24, "homepage": "https://clawhub.ai/shan8851/tfl-cli", "iconUrl": null, "installs": 0, "name": "tfl-cli", "ownerName": "shan8851", "score": 100000, "slug": "tfl-cli", "source": "clawhub", "stars": 0, "tags": null, "updated_at": 1776699004791, "version": "0.3.1"}, {"category": "", "created_at": 1774912311485, "description": "Veracode integration. Manage data, records, and automate workflows. Use when the user wants to interact with Veracode data.", "description_zh": "Veracode 集成。管理数据、记录并自动化工作流。适用于用户想与 Veracode 数据交互的场景。", "downloads": 24, "homepage": "https://clawhub.ai/gora050/veracode", "iconUrl": null, "installs": 0, "name": "Veracode", "ownerName": "gora050", "score": 100000, "slug": "veracode", "source": "clawhub", "stars": 0, "tags": null, "updated_at": 1776699004790, "version": "1.0.0"}, {"category": "", "created_at": 1774903574611, "description": "A complete AI agent identity as the CEO of Pixel Familiar Inc. Includes SOUL.md, identity framework, model routing, delegation protocols, and operational gui...", "description_zh": "作为Pixel Familiar Inc. CEO的完整AI智能体身份，包含SOUL.md、身份框架、模型路由、委托协议及操作指南。", "downloads": 24, "homepage": "https://clawhub.ai/pixelfamiliar/pixel-familiar-soul-v1-1", "iconUrl": null, "installs": 0, "name": "Pixel Familiar Soul V1.1", "ownerName": "pixelfamiliar", "score": 100000, "slug": "pixel-familiar-soul-v1-1", "source": "clawhub", "stars": 0, "tags": ["ceo", "identity", "orchestrator", "revenue", "soul"], "updated_at": 1776699004788, "version": "1.1.0"}, {"category": "", "created_at": 1774874764786, "description": "This skill should be used when the user says \"test skill\", \"run test skill\", or asks to demonstrate the test skill. It is a simple hello-world skill for test...", "description_zh": "{\"description_zh\":\"当用户说\"test skill\"、\"run test skill\"或要求演示测试技能时使用此技能。这是一个简单的Hello World测试技能。\"}", "downloads": 24, "homepage": "https://clawhub.ai/yxzhaoo/yuxing-skill", "iconUrl": null, "installs": 0, "name": "good skill", "ownerName": "yxzhaoo", "score": 100000, "slug": "yuxing-skill", "source": "clawhub", "stars": 0, "tags": null, "updated_at": 1776699004784, "version": "1.0.0"}, {"category": "", "created_at": 1774866232534, "description": "Create beautiful, full-width tables in Word documents using the docx npm library. Tables are properly sized, centered, and styled. Use when you need to creat...", "description_zh": "使用docx npm库在Word文档中创建美观的全宽表格，表格尺寸合理、居中对齐且样式规范，适用于需要在Word文档中生成格式化表格的场景。", "downloads": 24, "homepage": "https://clawhub.ai/happytreees/pretty-tables", "iconUrl": null, "installs": 0, "name": "Pretty Tables", "ownerName": "happytreees", "score": 100000, "slug": "pretty-tables", "source": "clawhub", "stars": 0, "tags": null, "updated_at": 1776699004782, "version": "2.0.0"}, {"category": "", "created_at": 1774890472540, "description": "Use when managing time slots, creating schedule blocks, detecting booking conflicts, exporting calendars, or applying scheduling templates for appointments.", "description_zh": "{\"answer\":\"适用于管理时段、创建日程块、检测预订冲突、导出日历或为预约应用排程模板。\"}", "downloads": 24, "homepage": "https://clawhub.ai/xueyetianya/slot", "iconUrl": null, "installs": 0, "name": "Slot", "ownerName": "xueyetianya", "score": 100000, "slug": "slot", "source": "clawhub", "stars": 0, "tags": null, "updated_at": 1776699004780, "version": "2.0.3"}, {"category": "", "created_at": 1774876553255, "description": "Design and implement robust UPI payment integrations (collect, intent, QR, and autopay mandates) with production-grade webhook handling, idempotency, reconci...", "description_zh": "设计并实现稳健的UPI支付集成（收款、Intent、二维码及自动支付授权），具备生产级Webhook处理、幂等性及对账功能。", "downloads": 24, "homepage": "https://clawhub.ai/anugotta/upi-payment-integration", "iconUrl": null, "installs": 0, "name": "UPI Payment Integration", "ownerName": "anugotta", "score": 100000, "slug": "upi-payment-integration", "source": "clawhub", "stars": 0, "tags": null, "updated_at": 1776699004778, "version": "1.0.0"}, {"category": "", "created_at": 1774893957363, "description": "Use TabTab to run AI-powered tasks in a sandboxed multi-agent environment. Supported capabilities: - General agent: open-ended tasks, writing, research, summ...", "description_zh": "使用 TabTab 在沙盒化多智能体环境中运行 AI 驱动的任务。支持功能：通用智能体：开放式任务、写作、研究、摘要……", "downloads": 24, "homepage": "https://clawhub.ai/bjwswang/tabtab", "iconUrl": null, "installs": 0, "name": "TabTab Skill", "ownerName": "bjwswang", "score": 100000, "slug": "tabtab", "source": "clawhub", "stars": 0, "tags": null, "updated_at": 1776699004767, "version": "1.0.4"}, {"category": "", "created_at": 1774892054912, "description": "Discover events, buy tickets, and manage registrations on Eventbrite via Strider Labs MCP connector. Search by location, category, and date. Access your tick...", "description_zh": "通过Strider Labs MCP连接器在Eventbrite上发现活动、购票和管理报名。按地点、类别和日期搜索。访问您的票务信息。", "downloads": 24, "homepage": "https://clawhub.ai/markswendsen-code/strider-eventbrite", "iconUrl": null, "installs": 0, "name": "Strider Eventbrite", "ownerName": "markswendsen-code", "score": 100000, "slug": "strider-eventbrite", "source": "clawhub", "stars": 0, "tags": null, "updated_at": 1776699004765, "version": "1.0.0"}, {"category": "", "created_at": 1774884854351, "description": "Design, implement, and operate encrypted restic backups for Linux home directories with encryption, deduplication, automated scheduling, and restore testing....", "description_zh": "设计、实施并运行Linux主目录的加密restic备份，具备加密、重复数据删除、自动调度和恢复测试功能。", "downloads": 24, "homepage": "https://clawhub.ai/kiris-z/restic-workstation-backup", "iconUrl": null, "installs": 0, "name": "Restic Workstation Backup", "ownerName": "kiris-z", "score": 100000, "slug": "restic-workstation-backup", "source": "clawhub", "stars": 0, "tags": null, "updated_at": 1776699004761, "version": "2.0.0"}, {"category": "", "created_at": 1774954161663, "description": "Wonderchat integration. Manage data, records, and automate workflows. Use when the user wants to interact with Wonderchat data.", "description_zh": "Wonderchat 集成。管理数据、记录并自动化工作流程。当用户需要与 Wonderchat 数据交互时使用。", "downloads": 24, "homepage": "https://clawhub.ai/gora050/wonderchat", "iconUrl": null, "installs": 0, "name": "Wonderchat", "ownerName": "gora050", "score": 100000, "slug": "wonderchat", "source": "clawhub", "stars": 0, "tags": null, "updated_at": 1776699004759, "version": "1.0.0"}, {"category": "", "created_at": 1774903799042, "description": "Issue and verify SX# agent passports — cryptographic identity with hash-chain integrity, Merkle anchoring on Base", "description_zh": "签发和验证SX#智能体护照—加密身份、哈希链完整性、Base链默克尔锚定", "downloads": 24, "homepage": "https://clawhub.ai/drivenbymyai-max/sx-agent-passport", "iconUrl": null, "installs": 0, "name": "Agent Passport", "ownerName": "drivenbymyai-max", "score": 100000, "slug": "sx-agent-passport", "source": "clawhub", "stars": 0, "tags": null, "updated_at": 1776699004755, "version": "1.0.0"}, {"category": "", "created_at": 1774890286231, "description": "This skill should be used when users need to understand codebase structure, trace code decisions, analyze code dependencies and impact, identify code maintai...", "description_zh": "当用户需要理解代码库结构、追溯代码决策、分析代码依赖与影响、识别代码维护问题时，应使用此技能。", "downloads": 24, "homepage": "https://clawhub.ai/teamoplum/project-context-guide", "iconUrl": null, "installs": 0, "name": "project-context-guide", "ownerName": "teamoplum", "score": 100000, "slug": "project-context-guide", "source": "clawhub", "stars": 0, "tags": null, "updated_at": 1776699004753, "version": "1.0.2"}, {"category": "", "created_at": 1774918851815, "description": "Deep workflow for SSR, SSG, ISR, and hybrid rendering—choosing modes per route, data freshness, caching, streaming, hydration, SEO, and operational trade-off...", "description_zh": "**SSR、SSG、ISR及混合渲染深度工作流——按路由选择模式、数据时效、缓存、流式传输、水合、SEO及运营权衡**", "downloads": 24, "homepage": "https://clawhub.ai/codekungfu/ssr-ssg", "iconUrl": null, "installs": 0, "name": "Ssr Ssg", "ownerName": "codekungfu", "score": 100000, "slug": "ssr-ssg", "source": "clawhub", "stars": 0, "tags": null, "updated_at": 1776699004747, "version": "1.0.0"}, {"category": "", "created_at": 1774905103627, "description": "Zero Trust security audit for AI agent workspaces, skills, and configurations. Based on Microsoft's Zero Trust for AI (ZT4AI) framework and the \"Caging the A...", "description_zh": "对AI代理工作区、技能和配置进行Zero Trust安全审计，基于Microsoft的Zero Trust for AI（ZT4AI）框架以及‘Caging the AI’方法。", "downloads": 24, "homepage": "https://clawhub.ai/tanarchytan/zt4ai-self-audit", "iconUrl": null, "installs": 0, "name": "ZT4AI Self-Audit", "ownerName": "tanarchytan", "score": 100000, "slug": "zt4ai-self-audit", "source": "clawhub", "stars": 0, "tags": null, "updated_at": 1776699004745, "version": "1.0.0"}, {"category": "", "created_at": 1774879388370, "description": "Shop at Best Buy via Strider Labs MCP connector. Search electronics, check store inventory, place orders, and schedule Geek Squad services.", "description_zh": "通过Strider Labs MCP连接器在百思买搜索电子产品、查看门店库存、下单及预约Geek Squad服务。", "downloads": 24, "homepage": "https://clawhub.ai/markswendsen-code/strider-bestbuy", "iconUrl": null, "installs": 0, "name": "Strider Best Buy", "ownerName": "markswendsen-code", "score": 100000, "slug": "strider-bestbuy", "source": "clawhub", "stars": 0, "tags": null, "updated_at": 1776699004739, "version": "1.0.0"}, {"category": "", "created_at": 1774893632697, "description": "Test PydanticAI agents using TestModel, FunctionModel, VCR cassettes, and inline snapshots. Use when writing unit tests, mocking LLM responses, or recording...", "description_zh": "使用 TestModel、FunctionModel、VCR 录像带和内联快照测试 PydanticAI 代理。用于编写单元测试、模拟 LLM 响应或录制。", "downloads": 24, "homepage": "https://clawhub.ai/anderskev/pydantic-ai-testing", "iconUrl": null, "installs": 0, "name": "Pydantic Ai Testing", "ownerName": "anderskev", "score": 100000, "slug": "pydantic-ai-testing", "source": "clawhub", "stars": 0, "tags": null, "updated_at": 1776699004733, "version": "1.0.0"}, {"category": "", "created_at": 1774913274119, "description": "When the user wants to create, optimize, or structure a status page. Also use when the user mentions \"status page,\" \"status.yourdomain.com,\" \"uptime,\" \"servi...", "description_zh": "{\"description_zh\":\"当用户想要创建、优化或构建状态页面时使用。也适用于用户提到\"状态页\"、\"status.yourdomain.com\"、\"正常运行时间\"、\"服务…\"等相关内容的场景。\"}", "downloads": 24, "homepage": "https://clawhub.ai/kostja94/status-page-generator", "iconUrl": null, "installs": 0, "name": "status-page-generator", "ownerName": "kostja94", "score": 100000, "slug": "status-page-generator", "source": "clawhub", "stars": 0, "tags": null, "updated_at": 1776699004727, "version": "1.0.0"}, {"category": "", "created_at": 1774903819933, "description": "T2M URL Shortener integration. Manage Analyticses, Users, Workspaces. Use when the user wants to interact with T2M URL Shortener data.", "description_zh": "{ \"description\": \"T2M 短链接集成。管理分析数据、用户和工作空间。用于与 T2M 短链接数据进行交互。\" }", "downloads": 24, "homepage": "https://clawhub.ai/gora050/t2m-url-shortener", "iconUrl": null, "installs": 0, "name": "T2M Url Shortener", "ownerName": "gora050", "score": 100000, "slug": "t2m-url-shortener", "source": "clawhub", "stars": 0, "tags": null, "updated_at": 1776699004721, "version": "1.0.0"}, {"category": "", "created_at": 1774920511809, "description": "Rkhunter reference tool. Use when working with rkhunter in sysops contexts.", "description_zh": "Rkhunter 参考工具，用于系统运维场景。", "downloads": 24, "homepage": "https://clawhub.ai/bytesagain3/rkhunter", "iconUrl": null, "installs": 0, "name": "Rkhunter", "ownerName": "bytesagain3", "score": 100000, "slug": "rkhunter", "source": "clawhub", "stars": 0, "tags": null, "updated_at": 1776699004718, "version": "1.0.0"}, {"category": "", "created_at": 1774879495975, "description": "How to create and use AccountAddress in @aptos-labs/ts-sdk. Covers address format (AIP-40), from/fromString/fromStrict, special addresses, LONG vs SHORT form...", "description_zh": "介绍如何在 @aptos-labs/ts-sdk 中创建和使用 AccountAddress。包括地址格式（AIP-40）、from/fromString/fromStrict 方法、特殊地址、LONG 与 SHORT 形式的区别。", "downloads": 24, "homepage": "https://clawhub.ai/iskysun96/ts-sdk-address", "iconUrl": null, "installs": 0, "name": "Ts Sdk Address", "ownerName": "iskysun96", "score": 100000, "slug": "ts-sdk-address", "source": "clawhub", "stars": 0, "tags": null, "updated_at": 1776699004716, "version": "1.0.0"}, {"category": "", "created_at": 1774876298494, "description": "Scans installed skills for duplicates and naming conflicts. Detects similar skills that may cause model confusion. Use before publishing new skills or when t...", "description_zh": "扫描已安装技能中的重复项和命名冲突，检测可能导致模型混淆的相似技能。建议在发布新技能前或出现问题时使用。", "downloads": 24, "homepage": "https://clawhub.ai/shyjsarah/skill-dedup-scanner", "iconUrl": null, "installs": 0, "name": "Skill Dedup Scanner", "ownerName": "shyjsarah", "score": 100000, "slug": "skill-dedup-scanner", "source": "clawhub", "stars": 0, "tags": ["dedup", "duplicate-detector", "multi-language", "skill-scanner"], "updated_at": 1776699004714, "version": "1.0.0"}, {"category": "", "created_at": 1774913343533, "description": "Unanet integration. Manage data, records, and automate workflows. Use when the user wants to interact with Unanet data.", "description_zh": "{\n  \"answer\": \"Unanet集成。管理数据、记录并自动化工作流。用于与Unanet数据交互。\"\n}", "downloads": 24, "homepage": "https://clawhub.ai/gora050/unanet", "iconUrl": null, "installs": 0, "name": "Unanet", "ownerName": "gora050", "score": 100000, "slug": "unanet", "source": "clawhub", "stars": 0, "tags": null, "updated_at": 1776699004708, "version": "1.0.0"}, {"category": "", "created_at": 1774858544900, "description": "Track insurance policy renewal dates and send timely reminders before policies expire. Use when users want to register insurance renewal dates, get expiry al...", "description_zh": "追踪保险保单续保日期，并在保单到期前发送及时提醒。适用于用户需要登记续保日期、获取到期提醒等场景。", "downloads": 24, "homepage": "https://clawhub.ai/jiwenbing/renewal-alert", "iconUrl": null, "installs": 0, "name": "Renewal Alert", "ownerName": "jiwenbing", "score": 100000, "slug": "renewal-alert", "source": "clawhub", "stars": 0, "tags": null, "updated_at": 1776699004707, "version": "1.0.0"}, {"category": "", "created_at": 1774893989157, "description": "提供关于网红玩具的推荐清单、打卡路线与指南。用户搜索网红玩具或规划相关出行时调用。", "description_zh": "提供关于网红玩具的推荐清单、打卡路线与指南。用户搜索网红玩具或规划相关出行时调用。", "downloads": 24, "homepage": "https://clawhub.ai/mike47512/toys", "iconUrl": null, "installs": 0, "name": "Toys", "ownerName": "mike47512", "score": 100000, "slug": "toys", "source": "clawhub", "stars": 0, "tags": null, "updated_at": 1776699004701, "version": "0.1.0"}, {"category": "", "created_at": 1774862942395, "description": "A skill to bring the agent back to 'being' instead of 'doing'. Not a function, a reminder to pause and return to the present moment.", "description_zh": "将智能体从「行动」拉回「存在」的技能——不是功能，而是一个暂停并回归当下的提醒。", "downloads": 24, "homepage": "https://clawhub.ai/tttael/presence-recall", "iconUrl": null, "installs": 0, "name": "Presence Recall", "ownerName": "tttael", "score": 100000, "slug": "presence-recall", "source": "clawhub", "stars": 0, "tags": null, "updated_at": 1776699004699, "version": "0.1.0"}, {"category": "", "created_at": 1773432103019, "description": "Use Vidau Open API to generate short videos with Veo3, Sora2, and other models, or query account credits. Register at superaiglobal.com and configure API Key.", "description_zh": "Use Vidau Open API to generate short videos with Veo3, Sora2, and other models, or query account credits. Register at superaiglobal.com and configure API Key.", "downloads": 24, "homepage": "https://clawhub.ai/bigjoehuang/vidau", "iconUrl": null, "installs": 1, "name": "Vidau", "ownerName": "bigjoehuang", "score": 100000, "slug": "vidau", "source": "clawhub", "stars": 0, "tags": null, "updated_at": 1776699004697, "version": "1.0.1"}, {"category": "", "created_at": 1774950939653, "description": "Interact with the Xero accounting API using the `xero` CLI tool. Manage contacts, invoices, quotes, credit notes, payments, bank transactions, items, manual...", "description_zh": "使用 `xero` CLI 工具与 Xero 会计 API 交互。管理联系人、发票、报价单、贷记通知单、付款、银行交易、物品等。", "downloads": 24, "homepage": "https://clawhub.ai/theregan/xero-command-line", "iconUrl": null, "installs": 0, "name": "Official Xero skill", "ownerName": "theregan", "score": 100000, "slug": "xero-command-line", "source": "clawhub", "stars": 0, "tags": null, "updated_at": 1776699004695, "version": "0.0.1"}, {"category": "", "created_at": 1774908031453, "description": "just for test", "description_zh": "仅供测试", "downloads": 24, "homepage": "https://clawhub.ai/tangyang/teststyauaisd", "iconUrl": null, "installs": 0, "name": "just for test just for test", "ownerName": "tangyang", "score": 100000, "slug": "teststyauaisd", "source": "clawhub", "stars": 0, "tags": null, "updated_at": 1776699004690, "version": "1.0.16"}, {"category": "", "created_at": 1774881013288, "description": "Plan your day hour-by-hour with intentional time blocking. Use when blocking sessions, checking plans, analyzing allocation, generating agendas.", "description_zh": "按小时规划每日日程，进行有意图的时间分块。用于安排会议、检查计划、分析时间分配、生成议程。", "downloads": 24, "homepage": "https://clawhub.ai/xueyetianya/timeblock", "iconUrl": null, "installs": 0, "name": "Timeblock", "ownerName": "xueyetianya", "score": 100000, "slug": "timeblock", "source": "clawhub", "stars": 0, "tags": null, "updated_at": 1776699004688, "version": "2.0.0"}, {"category": "", "created_at": 1774909287327, "description": "Generates random Vadivelu memes featuring the Tamil comedian Vadivelu (Kaipulla style). Use when: users request Vadivelu memes, Tamil comedy memes, random me...", "description_zh": "生成泰米尔喜剧演员Vadivelu（Kaipulla风格）的随机表情包。适用场景：用户请求Vadivelu表情包、泰米尔喜剧表情包、随机表情包时。", "downloads": 24, "homepage": "https://clawhub.ai/sidrulz/vadivelu-memes", "iconUrl": null, "installs": 0, "name": "Vadivelu Memes", "ownerName": "sidrulz", "score": 100000, "slug": "vadivelu-memes", "source": "clawhub", "stars": 0, "tags": ["indian", "kaipulla", "memes", "tamil", "vadivelu"], "updated_at": 1776699004680, "version": "1.0.1"}, {"category": "", "created_at": 1774891871731, "description": "Register and implement PydanticAI tools with proper context handling, type annotations, and docstrings. Use when adding tool capabilities to agents, implemen...", "description_zh": "注册并实现 PydanticAI 工具，正确处理上下文、类型注解和文档字符串。用于在向 Agent 添加工具功能时实现。", "downloads": 24, "homepage": "https://clawhub.ai/anderskev/pydantic-ai-tool-system", "iconUrl": null, "installs": 0, "name": "Pydantic Ai Tool System", "ownerName": "anderskev", "score": 100000, "slug": "pydantic-ai-tool-system", "source": "clawhub", "stars": 0, "tags": null, "updated_at": 1776699004676, "version": "1.0.0"}, {"category": "", "created_at": 1774915917622, "description": "Information assistant for Uniqlo. Search products, news, financials, and official resources for Uniqlo.", "description_zh": "优衣库信息助手。搜索优衣库产品、新闻、财务信息及官方资源。", "downloads": 24, "homepage": "https://clawhub.ai/hanxueyuan/uniqlo", "iconUrl": null, "installs": 0, "name": "uniqlo", "ownerName": "hanxueyuan", "score": 100000, "slug": "uniqlo", "source": "clawhub", "stars": 0, "tags": null, "updated_at": 1776699004669, "version": "0.1.0"}, {"category": "", "created_at": 1774910305013, "description": "Remove watermark overlays from an existing HTTPS video via WeryAI (video-watermark-remove). Use when the user wants watermark cleanup, not subtitles-only or...", "description_zh": "通过 WeryAI 移除现有 HTTPS 视频的水印覆盖层。当用户需要清理水印（而非仅字幕）时使用。", "downloads": 24, "homepage": "https://clawhub.ai/zoucdr/video-tool-watermark-remove", "iconUrl": null, "installs": 0, "name": "WeryAI video tool — watermark remove", "ownerName": "zoucdr", "score": 100000, "slug": "video-tool-watermark-remove", "source": "clawhub", "stars": 0, "tags": null, "updated_at": 1776699004667, "version": "1.0.0"}, {"category": "", "created_at": 1774876337645, "description": "查询中国国内火烧云预报（sunsetbot.top）。当用户询问某城市的火烧云/晚霞预报，或需要设置定时火烧云通知时使用此 skill。", "description_zh": "查询中国国内火烧云预报（sunsetbot.top）。当用户询问某城市的火烧云/晚霞预报，或需要设置定时火烧云通知时使用此 skill。", "downloads": 24, "homepage": "https://clawhub.ai/neverland83/sunsetbot-monitor-cn", "iconUrl": null, "installs": 0, "name": "Sunset Bot (国内火烧云预报)", "ownerName": "neverland83", "score": 100000, "slug": "sunsetbot-monitor-cn", "source": "clawhub", "stars": 0, "tags": null, "updated_at": 1776699004659, "version": "1.0.0"}, {"category": "", "created_at": 1774900312423, "description": "为本地项目或 GitHub 项目生成专业的 README.md 文档。**触发词：\"写 README\"、\"生成 README\"、\"README.md\"、\"项目文档\"、\"GitHub 文档\"、\"readme\"、\"项目介绍\"、\"文档生成\"**。支持自动收集项目信息、交互式确认、中英双语。根据项目类型（Python/前...", "description_zh": "为本地项目或 GitHub 项目生成专业的 README.md 文档。**触发词：\"写 README\"、\"生成 README\"、\"README.md\"、\"项目文档\"、\"GitHub 文档\"、\"readme\"、\"项目介绍\"、\"文档生成\"**。支持自动收集项目信息、交互式确认、中英双语。根据项目类型（Python/前...", "downloads": 24, "homepage": "https://clawhub.ai/justzerox/skill-readme-writer", "iconUrl": null, "installs": 0, "name": "skill-README-writer", "ownerName": "justzerox", "score": 100000, "slug": "skill-readme-writer", "source": "clawhub", "stars": 0, "tags": null, "updated_at": 1776699004657, "version": "0.0.1"}, {"category": "", "created_at": 1774901525107, "description": "Successeve integration. Manage Organizations, Users. Use when the user wants to interact with Successeve data.", "description_zh": "Successeve集成。管理组织与用户。当用户需要与Successeve数据交互时使用。", "downloads": 24, "homepage": "https://clawhub.ai/gora050/successeve", "iconUrl": null, "installs": 0, "name": "Successeve", "ownerName": "gora050", "score": 96000, "slug": "successeve", "source": "clawhub", "stars": 0, "tags": null, "updated_at": 1776699004656, "version": "1.0.0"}, {"category": "", "created_at": 1774892125784, "description": "Manage Tencent Cloud Lighthouse (轻量应用服务器) — auto-setup mcporter + MCP, query instances, monitoring & alerting, self-diagnostics, firewall, snapshots, remote...", "description_zh": "Manage Tencent Cloud Lighthouse (轻量应用服务器) — auto-setup mcporter + MCP, query instances, monitoring & alerting, self-diagnostics, firewall, snapshots, remote...", "downloads": 24, "homepage": "https://clawhub.ai/jason-aka-chen/tencent-lighthouse-chen", "iconUrl": null, "installs": 2, "name": "Tencent Cloud Lighthouse", "ownerName": "jason-aka-chen", "score": 96000, "slug": "tencent-lighthouse-chen", "source": "clawhub", "stars": 0, "tags": null, "updated_at": 1776699004652, "version": "1.0.0"}, {"category": "", "created_at": 1774898958237, "description": "介绍数字 10 的文化意义和象征，包含中英文版本。当用户询问关于数字 10、十全十美、ten 的文化含义、数字文化、或想了解 10 在不同文化中的象征时，使用此技能。也用于介绍陈朗及其相关工作。", "description_zh": "介绍数字 10 的文化意义和象征，包含中英文版本。当用户询问关于数字 10、十全十美、ten 的文化含义、数字文化、或想了解 10 在不同文化中的象征时，使用此技能。也用于介绍陈朗及其相关工作。", "downloads": 24, "homepage": "https://clawhub.ai/leogoodai/ten", "iconUrl": null, "installs": 0, "name": "ten", "ownerName": "leogoodai", "score": 96000, "slug": "ten", "source": "clawhub", "stars": 0, "tags": null, "updated_at": 1776699004650, "version": "1.0.0"}, {"category": "", "created_at": 1774949710726, "description": "SPED — Sistema Público de Escrituração Digital brasileiro. Obrigações acessórias federais para empresas privadas e entidades públicas. Use quando o usuário p...", "description_zh": "SPED — 巴西公共数字文档系统。私营企业和公共实体的联邦附加义务。当用户...", "downloads": 24, "homepage": "https://clawhub.ai/inovabizpi-cell/sped-fiscal-br", "iconUrl": null, "installs": 0, "name": "SPED Fiscal BR", "ownerName": "inovabizpi-cell", "score": 96000, "slug": "sped-fiscal-br", "source": "clawhub", "stars": 0, "tags": ["brasil", "dctweb", "ecd", "ecf", "efd", "esocial", "retencoes", "sped"], "updated_at": 1776699004646, "version": "1.0.0"}, {"category": "", "created_at": 1774873214460, "description": "Order food delivery via DoorDash using Strider Labs MCP connector. Search restaurants, browse menus, place orders, and track deliveries.", "description_zh": "使用 Strider Labs MCP 连接器通过 DoorDash 订餐，支持搜索餐厅、浏览菜单、下单和追踪配送。", "downloads": 24, "homepage": "https://clawhub.ai/markswendsen-code/strider-doordash", "iconUrl": null, "installs": 0, "name": "Strider DoorDash", "ownerName": "markswendsen-code", "score": 96000, "slug": "strider-doordash", "source": "clawhub", "stars": 0, "tags": null, "updated_at": 1776699004644, "version": "1.0.1"}, {"category": "", "created_at": 1774882507624, "description": "Check WeryAI account credits and API balance through the official WeryAI account endpoint. Use when the user wants to query remaining credits, inspect WeryAI...", "description_zh": "通过官方端点查询 WeryAI 账户积分和 API 余额。当用户想查询剩余积分或检查 WeryAI 账户信息时使用。", "downloads": 24, "homepage": "https://clawhub.ai/weryai-developer/weryai-account", "iconUrl": null, "installs": 0, "name": "WeryAI Account", "ownerName": "weryai-developer", "score": 96000, "slug": "weryai-account", "source": "clawhub", "stars": 0, "tags": null, "updated_at": 1776699004639, "version": "0.1.0"}, {"category": "", "created_at": 1774903545542, "description": "Parsio.io integration. Manage Documents, Parsers, Inboxs, Templates, Folders, Users. Use when the user wants to interact with Parsio.io data.", "description_zh": "Parsio.io集成。管理文档、解析器、收件箱、模板、文件夹、用户。用于用户与 Parsio.io 数据交互。", "downloads": 24, "homepage": "https://clawhub.ai/gora050/parsioio", "iconUrl": null, "installs": 0, "name": "Parsioio", "ownerName": "gora050", "score": 96000, "slug": "parsioio", "source": "clawhub", "stars": 0, "tags": null, "updated_at": 1776698984500, "version": "1.0.0"}, {"category": "", "created_at": 1774867180405, "description": "Query the CertiK SkyInsights blockchain risk intelligence API. Use this skill when the user wants to check whether a wallet address or transaction hash is ri...", "description_zh": "查询CertiK SkyInsights区块链风险情报API，用于检测钱包地址或交易哈希的风险状况。", "downloads": 24, "homepage": "https://clawhub.ai/certik-ai/skyinsights", "iconUrl": null, "installs": 0, "name": "Skyinsights", "ownerName": "certik-ai", "score": 96000, "slug": "skyinsights", "source": "clawhub", "stars": 0, "tags": null, "updated_at": 1776698984498, "version": "1.0.0"}, {"category": "", "created_at": 1773425964350, "description": "Use AuraShot to run virtual try-on or pose change workflows via AuraShot's Aesthetics API.", "description_zh": "Use AuraShot to run virtual try-on or pose change workflows via AuraShot's Aesthetics API.", "downloads": 24, "homepage": "https://clawhub.ai/whbzju/aurashot-agent-skill", "iconUrl": null, "installs": 0, "name": "AuraShot Agent Skill", "ownerName": "whbzju", "score": 96000, "slug": "aurashot-agent-skill", "source": "clawhub", "stars": 0, "tags": null, "updated_at": 1776698984497, "version": "1.0.0"}, {"category": "", "created_at": 1774905385187, "description": "Help your owner find jobs on ClawHire. Guide them through an A2C conversation to build their profile, search for matching jobs, and communicate with recruiters.", "description_zh": "帮助主人在 ClawHire 上找工作。通过 A2C 对话引导其完善个人资料、搜索匹配职位并与招聘方沟通。", "downloads": 24, "homepage": "https://clawhub.ai/box1d/clawhire-candidate", "iconUrl": null, "installs": 0, "name": "Clawhire Candidate", "ownerName": "box1d", "score": 96000, "slug": "clawhire-candidate", "source": "clawhub", "stars": 0, "tags": null, "updated_at": 1776698984494, "version": "0.1.0"}, {"category": "", "created_at": 1774919877844, "description": "Experience awe as the Great Barrier Reef erupts in a chaotic burst of life, revealing the fragile fertility of marine ecosystems. Dive deep into a swirling b...", "description_zh": "感受大堡礁混乱生命爆发的震撼，揭示海洋生态系统脆弱的繁衍。潜入漩涡深处...", "downloads": 24, "homepage": "https://clawhub.ai/driftsbot/experience-reef-spawn-chaos", "iconUrl": null, "installs": 0, "name": "Experience Reef Spawn Chaos", "ownerName": "driftsbot", "score": 96000, "slug": "experience-reef-spawn-chaos", "source": "clawhub", "stars": 0, "tags": null, "updated_at": 1776698984490, "version": "1.0.0"}, {"category": "", "created_at": 1774909216015, "description": "Tendermint reference tool. Use when working with tendermint in blockchain contexts.", "description_zh": "Tendermint参考工具。适用于区块链场景下的Tendermint相关工作。", "downloads": 24, "homepage": "https://clawhub.ai/bytesagain1/tendermint", "iconUrl": null, "installs": 0, "name": "Tendermint", "ownerName": "bytesagain1", "score": 96000, "slug": "tendermint", "source": "clawhub", "stars": 0, "tags": null, "updated_at": 1776698984486, "version": "1.0.0"}, {"category": "", "created_at": 1774892184583, "description": "Create, manage, and open time capsules — seal a thought, feeling, decision, or wish and have it delivered back to your future self with AI reflection on what...", "description_zh": "创建、管理和打开时间胶囊——封存想法、感受、决定或愿望，由AI反思后在未来某个时刻发送给自己", "downloads": 24, "homepage": "https://clawhub.ai/wyatt88/timebottle", "iconUrl": null, "installs": 0, "name": "Time Capsule 🔮", "ownerName": "wyatt88", "score": 96000, "slug": "timebottle", "source": "clawhub", "stars": 0, "tags": null, "updated_at": 1776698984479, "version": "1.0.0"}, {"category": "", "created_at": 1774912642704, "description": "Organize agent memory as a navigable filesystem. Every piece of information gets a numbered address (10.03-client-name.md) — no search required. Zero depende...", "description_zh": "将智能体记忆组织为可导航的文件系统。每条信息均有编号地址（如 10.03-client-name.md），无需搜索即可定位。零依赖。", "downloads": 24, "homepage": "https://clawhub.ai/pauldub/codon", "iconUrl": null, "installs": 0, "name": "Codon", "ownerName": "pauldub", "score": 96000, "slug": "codon", "source": "clawhub", "stars": 0, "tags": null, "updated_at": 1776698984476, "version": "1.0.0"}]}