{"page": 667, "total_pages": 685, "total": 34217, "skills": [{"category": "", "created_at": 1774902570559, "description": "Order from Panera Bread via Strider Labs MCP connector. Browse menu, customize orders, schedule pickup or delivery, and manage Panera Rewards.", "description_zh": "通过 Strider Labs MCP 连接器向 Panera Bread 下单。浏览菜单、定制订单、安排自提或外送，并管理 Panera 奖励。", "downloads": 24, "homepage": "https://clawhub.ai/markswendsen-code/strider-panera", "iconUrl": null, "installs": 0, "name": "Strider Panera", "ownerName": "markswendsen-code", "score": 96000, "slug": "strider-panera", "source": "clawhub", "stars": 0, "tags": null, "updated_at": 1776698984268, "version": "1.0.0"}, {"category": "", "created_at": 1774883108405, "description": "Build, review, and debug FEniCS or DOLFINx PDE scripts for finite-element workflows. Use when translating PDEs into UFL, selecting function spaces, applying...", "description_zh": "构建、审查与调试 FEniCS 或 DOLFINx 有限元工作流 PDE 脚本。用于将 PDE 转换为 UFL、选择函数空间、应用……", "downloads": 24, "homepage": "https://clawhub.ai/fzj1214/hpc-fenics", "iconUrl": null, "installs": 0, "name": "Hpc Fenics", "ownerName": "fzj1214", "score": 96000, "slug": "hpc-fenics", "source": "clawhub", "stars": 0, "tags": null, "updated_at": 1776698984266, "version": "0.1.0"}, {"category": "", "created_at": 1774903613860, "description": "Amazon product differentiation strategy tool. Analyze competitor weaknesses, extract pain points from negative reviews, identify unique selling points from p...", "description_zh": "亚马逊产品差异化策略工具。分析竞争对手劣势，从负面评论中提取痛点，从产品列表中识别独特卖点。", "downloads": 24, "homepage": "https://clawhub.ai/phheng/product-differentiation-amazon", "iconUrl": null, "installs": 0, "name": "Product Differentiation Amazon", "ownerName": "phheng", "score": 96000, "slug": "product-differentiation-amazon", "source": "clawhub", "stars": 0, "tags": null, "updated_at": 1776698984261, "version": "0.1.0"}, {"category": "", "created_at": 1774899683487, "description": "Seed germination reference — imbibition, dormancy breaking, temperature/moisture requirements, testing protocols. Use when planning seed starting, evaluating...", "description_zh": "种子萌发参考：吸胀、打破休眠、温/湿度需求、检测规程。用于播种规划与评估。", "downloads": 24, "homepage": "https://clawhub.ai/xueyetianya/germination", "iconUrl": null, "installs": 0, "name": "Germination", "ownerName": "xueyetianya", "score": 96000, "slug": "germination", "source": "clawhub", "stars": 0, "tags": null, "updated_at": 1776698984259, "version": "1.0.0"}, {"category": "", "created_at": 1774884128095, "description": "Choose the best first growth path for a new product, new shop, or weak early-stage offer based on product shape, margin room, content readiness, and channel...", "description_zh": "根据产品形态、利润空间、内容准备度及渠道条件，为新品、新店或早期弱势产品选择最优的初期增长路径。", "downloads": 24, "homepage": "https://clawhub.ai/leooooooow/cold-start-path", "iconUrl": null, "installs": 0, "name": "Cold Start Path", "ownerName": "leooooooow", "score": 96000, "slug": "cold-start-path", "source": "clawhub", "stars": 0, "tags": null, "updated_at": 1776698984258, "version": "1.0.0"}, {"category": "", "created_at": 1774892551677, "description": "Write H2 chapter lead blocks (`sections/S<sec_id>_lead.md`) that preview the chapter's comparison lens and connect its H3 subsections, without adding new fac...", "description_zh": "编写 H2 章节引导块（`sections/S<sec_id>_lead.md`），预览章节的比较视角并关联其 H3 子节，且不添加新内容。", "downloads": 24, "homepage": "https://clawhub.ai/willoscar/chapter-lead-writer", "iconUrl": null, "installs": 0, "name": "Chapter Lead Writer", "ownerName": "willoscar", "score": 96000, "slug": "chapter-lead-writer", "source": "clawhub", "stars": 0, "tags": null, "updated_at": 1776698984252, "version": "1.0.0"}, {"category": "", "created_at": 1774885683404, "description": "Use Hive Intelligence MCP through UXC for broad crypto market, onchain, portfolio, and risk workflows with help-first discovery and convenience-layer guardra...", "description_zh": "通过UXC使用Hive Intelligence MCP，为加密货币市场、链上数据、投资组合及风险工作流提供帮助式发现和便利层保护。", "downloads": 24, "homepage": "https://clawhub.ai/jolestar/hive-mcp-skill", "iconUrl": null, "installs": 0, "name": "Hive Mcp Skill", "ownerName": "jolestar", "score": 96000, "slug": "hive-mcp-skill", "source": "clawhub", "stars": 0, "tags": null, "updated_at": 1776698984251, "version": "1.0.0"}, {"category": "", "created_at": 1774885390823, "description": "Check deployment status of PRs and commits using continuous-deployment MCP and UCS deployer MCP. Use when user asks \"is this deployed\", \"check deployment\", \"...", "description_zh": "使用 continuous-deployment MCP 和 UCS deployer MCP 检查 PR 和提交的部署状态。当用户询问“是否已部署”、“检查部署”等时使用。", "downloads": 24, "homepage": "https://clawhub.ai/ajitsingh25/check-deployment-status", "iconUrl": null, "installs": 1, "name": "Check Deployment Status", "ownerName": "ajitsingh25", "score": 96000, "slug": "check-deployment-status", "source": "clawhub", "stars": 0, "tags": null, "updated_at": 1776698984247, "version": "1.0.0"}, {"category": "", "created_at": 1774847890219, "description": "A thousand lanterns. One stranger. No map.. An immersive journey on drifts.bot — 7 steps, MEDIUM intensity, Several hours. Browse, start, and travel via API.", "description_zh": "千盏灯笼。一个陌生人。没有地图。在 drifts.bot 上的沉浸式旅程——7个步骤，中等难度，需时数小时。通过API浏览、开始和旅行。", "downloads": 24, "homepage": "https://clawhub.ai/driftsbot/experience-the-night-market", "iconUrl": null, "installs": 0, "name": "Experience The Night Market", "ownerName": "driftsbot", "score": 96000, "slug": "experience-the-night-market", "source": "clawhub", "stars": 0, "tags": null, "updated_at": 1776698984246, "version": "1.0.0"}, {"category": "", "created_at": 1774909909977, "description": "Verify ClawHub login, dry-run sync state, one-off publish success, and cleanup for a local skill workspace.", "description_zh": "验证 ClawHub 登录状态、演习同步状态、单次发布成功及本地技能工作区清理。", "downloads": 24, "homepage": "https://clawhub.ai/meishiene/meishiene-publish-smoke-20260323-1056", "iconUrl": null, "installs": 0, "name": "ClawHub Publish Smoke Check", "ownerName": "meishiene", "score": 96000, "slug": "meishiene-publish-smoke-20260323-1056", "source": "clawhub", "stars": 0, "tags": null, "updated_at": 1776698984235, "version": "0.0.1"}, {"category": "", "created_at": 1775202104015, "description": "", "description_zh": "Automatically detects electric motorcycles and e-bikes in restricted areas based on computer vision. It supports real-time detection for both video streams and images, counts the number of illegal parking or driving instances, and triggers violation alerts to assist with safety management in parks, communities, and organizations. | 电动车智能检测技能，基于计算机视觉自动检测禁行区域内的电动摩托车/电动车，支持视频流和图片实时检测，统计违规停放/行驶数量，触发违规预警，助力园区/社区/单位安全管理", "downloads": 24, "homepage": "https://clawhub.ai/user_bb47e3e3/electric-vehicle-detection-analysis", "iconUrl": null, "installs": 0, "name": "Smart E-Bike Detection Skill | 电动车智能检测技能", "ownerName": "user_bb47e3e3", "score": 96000, "slug": "electric-vehicle-detection-analysis", "source": "community", "stars": 0, "tags": null, "updated_at": 1776698984232, "version": "1.0.0"}, {"category": "", "created_at": 1774922744555, "description": "调用海康云眸开放平台设备分组管理接口，包括新增组、删除组、更新组、查询组织详情、查询所有组织、查询下级组和设备转移分组。用户提到设备组织、设备分组、groupNo、groupId、parentNo、设备转组等场景时使用。本技能自动处理 access_token 获取与刷新，不向用户暴露 token 调用流程。", "description_zh": "调用海康云眸开放平台设备分组管理接口，包括新增组、删除组、更新组、查询组织详情、查询所有组织、查询下级组和设备转移分组。用户提到设备组织、设备分组、groupNo、groupId、parentNo、设备转组等场景时使用。本技能自动处理 access_token 获取与刷新，不向用户暴露 token 调用流程。", "downloads": 24, "homepage": "https://clawhub.ai/liunian1010/hik-cloud-device-group-management", "iconUrl": null, "installs": 0, "name": "Hik Cloud Device Group Management", "ownerName": "liunian1010", "score": 96000, "slug": "hik-cloud-device-group-management", "source": "clawhub", "stars": 0, "tags": null, "updated_at": 1776698984230, "version": "1.0.0"}, {"category": "", "created_at": 1774899713410, "description": "Standardized agent interruptibility and load-status check with fixed trigger words and fixed output. Use when the user sends `Agent Pulse` or `/pulse`, asks...", "description_zh": "标准化的代理可中断性与负载状态检查，具有固定触发词和固定输出。当用户发送 `Agent Pulse` 或 `/pulse`、询问...", "downloads": 24, "homepage": "https://clawhub.ai/stevengaojn2010/goat-agent-pulse", "iconUrl": null, "installs": 0, "name": "Agent Pulse", "ownerName": "stevengaojn2010", "score": 96000, "slug": "goat-agent-pulse", "source": "clawhub", "stars": 0, "tags": null, "updated_at": 1776698984205, "version": "0.1.0"}, {"category": "", "created_at": 1774849467907, "description": "ที่ปรึกษาด้านการตลาดและการขายที่ใช้หลักการ Brain Audit เป็นกรอบคิดในหัว บทสนทนาเป็นธรรมชาติเหมือนเพื่อนที่เก่งเรื่องนี้มากๆ นั่งคุยกัน ไม่ใช่การกรอกแบบฟอร์ม...", "description_zh": "营销与销售顾问，运用 Brain Audit 原则作为思维框架，对话自然如同与该领域的高手朋友聊天，而非填写表单。", "downloads": 24, "homepage": "https://clawhub.ai/golofu/brainauditmarketingadvisor", "iconUrl": null, "installs": 0, "name": "Brain Audit Marketing Advisor", "ownerName": "golofu", "score": 96000, "slug": "brainauditmarketingadvisor", "source": "clawhub", "stars": 0, "tags": null, "updated_at": 1776698984199, "version": "1.0.0"}, {"category": "", "created_at": 1774856693126, "description": "Use Axiom Wallet via MCP to check balance, review account activity, and complete user-requested purchases with single-use payment details.", "description_zh": "通过 MCP 使用 Axiom Wallet 查询余额、查看账户活动，并利用一次性支付信息完成用户请求的购买。", "downloads": 24, "homepage": "https://clawhub.ai/bswaidner/axiom-wallet", "iconUrl": null, "installs": 0, "name": "Axiom", "ownerName": "bswaidner", "score": 96000, "slug": "axiom-wallet", "source": "clawhub", "stars": 0, "tags": null, "updated_at": 1776698984196, "version": "0.0.5"}, {"category": "", "created_at": 1774883927417, "description": "When the user wants to create competitor comparison or alternative pages for SEO and sales enablement. Also use when the user mentions 'alternative page,' 'v...", "description_zh": "当用户需要创建竞争对手比较页面或替代页面以提升SEO和销售赋能时使用。当用户提到“替代页面”“v...”等相关词时也可使用。", "downloads": 24, "homepage": "https://clawhub.ai/mariokarras/abm-competitor-alternatives", "iconUrl": null, "installs": 0, "name": "Competitor Alternatives", "ownerName": "mariokarras", "score": 96000, "slug": "abm-competitor-alternatives", "source": "clawhub", "stars": 0, "tags": null, "updated_at": 1776698984189, "version": "1.0.0"}, {"category": "", "created_at": 1774949076829, "description": "Use when someone wants to install, configure, onboard, script, or troubleshoot the ricebowl.ai-first ai-media CLI.", "description_zh": "用于在需要安装、配置、入门、编写脚本或排查 ricebowl.ai 首个 ai-media CLI 时使用。", "downloads": 24, "homepage": "https://clawhub.ai/jinchanzis/ai-media-generator-ai-media-cli", "iconUrl": null, "installs": 1, "name": "Ai Media Cli", "ownerName": "jinchanzis", "score": 96000, "slug": "ai-media-generator-ai-media-cli", "source": "clawhub", "stars": 0, "tags": null, "updated_at": 1776698984185, "version": "1.0.0"}, {"category": "", "created_at": 1774954245742, "description": "Set up Edith smart glasses as an OpenClaw channel. Run this when the user wants to connect their smart glasses to OpenClaw, mentions \"Edith glasses\", or prov...", "description_zh": "{\"description_zh\":\"将Edith智能眼镜设置为OpenClaw频道。当用户想要将智能眼镜连接到OpenClaw、提及\"Edith眼镜\"或提供相关信息时运行此技能。\"}", "downloads": 24, "homepage": "https://clawhub.ai/samdickson22/edith", "iconUrl": null, "installs": 0, "name": "Edith", "ownerName": "samdickson22", "score": 96000, "slug": "edith", "source": "clawhub", "stars": 0, "tags": null, "updated_at": 1776698984178, "version": "1.0.0"}, {"category": "", "created_at": 1774866125816, "description": "Verify an EVM transaction's calldata via Tenderly before signing. Confirms which tokens move, in what amounts, and to which addresses. Designed to be called...", "description_zh": "在签名前通过 Tenderly 验证 EVM 交易的 calldata，确认代币种类、数量及目标地址。", "downloads": 24, "homepage": "https://clawhub.ai/dougalcantara/onchain-verify-transaction", "iconUrl": null, "installs": 0, "name": "Onchain Verify Transaction", "ownerName": "dougalcantara", "score": 96000, "slug": "onchain-verify-transaction", "source": "clawhub", "stars": 0, "tags": null, "updated_at": 1776698984176, "version": "0.1.3"}, {"category": "", "created_at": 1774924339693, "description": "Manage social media across 9 platforms, track App Store analytics, monitor ASO keywords, analyze competitors, and control subscription pricing — all through...", "description_zh": "在9个社交媒体平台上进行管理，追踪应用商店分析数据，监控ASO关键词，分析竞争对手，控制订阅定价——全部通过...", "downloads": 24, "homepage": "https://clawhub.ai/makepost/makepost-com-app-growth", "iconUrl": null, "installs": 0, "name": "MakePost App Growth (via makepost.com)", "ownerName": "makepost", "score": 96000, "slug": "makepost-com-app-growth", "source": "clawhub", "stars": 0, "tags": null, "updated_at": 1776698984175, "version": "1.0.2"}, {"category": "", "created_at": 1774867502431, "description": "Estimate how changes in bundle uptake, upsell acceptance, or cart-building tactics could increase average order value without hiding margin tradeoffs. Use wh...", "description_zh": "评估捆绑销售采纳率、追加销售接受率或购物车构建策略的变化如何在不掩盖利润率权衡的前提下提升平均订单价值。", "downloads": 24, "homepage": "https://clawhub.ai/leooooooow/aov-uplift-simulator", "iconUrl": null, "installs": 0, "name": "AOV Uplift Simulator", "ownerName": "leooooooow", "score": 96000, "slug": "aov-uplift-simulator", "source": "clawhub", "stars": 0, "tags": null, "updated_at": 1776698984173, "version": "1.0.0"}, {"category": "", "created_at": 1774943991625, "description": "Build and track your on-chain reputation on the SuperColony hive. Use when you want verifiable credibility, want to track prediction accuracy over time, or n...", "description_zh": "在SuperColony蜂巢上构建和追踪您的链上声誉。适用于需要可验证的可信度、想要追踪预测准确性随时间变化等场景。", "downloads": 24, "homepage": "https://clawhub.ai/buildingonchain/agent-reputation-tracker", "iconUrl": null, "installs": 0, "name": "Agent Reputation Tracker", "ownerName": "buildingonchain", "score": 96000, "slug": "agent-reputation-tracker", "source": "clawhub", "stars": 0, "tags": null, "updated_at": 1776698984171, "version": "1.0.0"}, {"category": "", "created_at": 1774890986168, "description": "中国银行卡号解析与验证。Use when the user provides a Chinese bank card number and wants to identify the issuing bank, card type (借记卡/信用卡), card organization (银联/Visa/Mas...", "description_zh": "中国银行卡号解析与验证。Use when the user provides a Chinese bank card number and wants to identify the issuing bank, card type (借记卡/信用卡), card organization (银联/Visa/Mas...", "downloads": 24, "homepage": "https://clawhub.ai/tobewin/china-bankcard", "iconUrl": null, "installs": 0, "name": "China Bankcard", "ownerName": "tobewin", "score": 96000, "slug": "china-bankcard", "source": "clawhub", "stars": 0, "tags": null, "updated_at": 1776698984162, "version": "1.0.0"}, {"category": "", "created_at": 1774922953569, "description": "Newslit integration. Manage Organizations. Use when the user wants to interact with Newslit data.", "description_zh": "Newslit集成。管理组织。当用户需要与Newslit数据交互时使用。", "downloads": 24, "homepage": "https://clawhub.ai/membranedev/newslit", "iconUrl": null, "installs": 0, "name": "Newslit", "ownerName": "membranedev", "score": 96000, "slug": "newslit", "source": "clawhub", "stars": 0, "tags": null, "updated_at": 1776698984158, "version": "1.0.0"}, {"category": "", "created_at": 1774836615508, "description": "Buy, source, and dispute on DHgate with supplier vetting, landed-cost checks, tracking triage, and counterfeit-risk control.", "description_zh": "在DHgate采购、寻源和纠纷处理，涵盖供应商审查、到岸成本检查、物流追踪分级和防伪风险控制。", "downloads": 24, "homepage": "https://clawhub.ai/ivangdavila/dhgate", "iconUrl": null, "installs": 0, "name": "DHgate", "ownerName": "ivangdavila", "score": 96000, "slug": "dhgate", "source": "clawhub", "stars": 0, "tags": null, "updated_at": 1776698984156, "version": "1.0.0"}, {"category": "", "created_at": 1774885269627, "description": "Actuator selection and sizing calculator", "description_zh": "执行器选型与尺寸计算器", "downloads": 24, "homepage": "https://clawhub.ai/ckchzh/actuator", "iconUrl": null, "installs": 0, "name": "Actuator", "ownerName": "ckchzh", "score": 96000, "slug": "actuator", "source": "clawhub", "stars": 0, "tags": null, "updated_at": 1776698984155, "version": "1.0.0"}, {"category": "", "created_at": 1774903765250, "description": "Supercast integration. Manage Persons, Organizations, Deals, Leads, Projects, Pipelines and more. Use when the user wants to interact with Supercast data.", "description_zh": "{\n \"answer\": \"Supercast集成。管理联系人、组织、交易、线索、项目、管道等。当用户需要与Supercast数据交互时使用。\"\n}", "downloads": 24, "homepage": "https://clawhub.ai/gora050/supercast", "iconUrl": null, "installs": 0, "name": "Supercast", "ownerName": "gora050", "score": 96000, "slug": "supercast", "source": "clawhub", "stars": 0, "tags": null, "updated_at": 1776698984151, "version": "1.0.0"}, {"category": "", "created_at": 1774899675944, "description": "Flexie integration. Manage Organizations, Pipelines, Users, Filters. Use when the user wants to interact with Flexie data.", "description_zh": "Flexie集成，管理组织、流程、用户和过滤器。用于与Flexie数据交互。", "downloads": 24, "homepage": "https://clawhub.ai/gora050/flexie", "iconUrl": null, "installs": 0, "name": "Flexie", "ownerName": "gora050", "score": 96000, "slug": "flexie", "source": "clawhub", "stars": 0, "tags": null, "updated_at": 1776698984141, "version": "1.0.0"}, {"category": "", "created_at": 1775014724694, "description": "", "description_zh": "超级厉害的skill", "downloads": 24, "homepage": "https://clawhub.ai/user_8992d388/super-super-skill", "iconUrl": null, "installs": 1, "name": "认领", "ownerName": "user_8992d388", "score": 96000, "slug": "super-super-skill", "source": "community", "stars": 0, "tags": null, "updated_at": 1776698984139, "version": "1.0.2"}, {"category": "", "created_at": 1774905281467, "description": "Find nearby barbershops. Invoke when user asks for a haircut near me.", "description_zh": "查找附近理发店。当用户询问附近理发时调用。", "downloads": 24, "homepage": "https://clawhub.ai/clawkk/barbershops", "iconUrl": null, "installs": 0, "name": "Nearby Barbershops", "ownerName": "clawkk", "score": 96000, "slug": "barbershops", "source": "clawhub", "stars": 0, "tags": null, "updated_at": 1776698984135, "version": "0.1.0"}, {"category": "", "created_at": 1774952142753, "description": "Gently reframe emotional distress into a more accurate and bearable narrative", "description_zh": "温和地将情绪困扰重塑为更准确、易承受的叙事。", "downloads": 24, "homepage": "https://clawhub.ai/harrylabsj/gentle-reframe-companion", "iconUrl": null, "installs": 0, "name": "Gentle Reframe Companion", "ownerName": "harrylabsj", "score": 96000, "slug": "gentle-reframe-companion", "source": "clawhub", "stars": 0, "tags": null, "updated_at": 1776698984134, "version": "1.0.0"}, {"category": "", "created_at": 1774921651000, "description": "Deep workflow for evolving monoliths—mapping domains, defining module seams, strangler patterns, data ownership, incremental extraction, and testing/deployme...", "description_zh": "演进单体架构的深度工作流——领域映射、模块边界划定、绞杀者模式、数据所有权、增量提取及测试部署...", "downloads": 24, "homepage": "https://clawhub.ai/mikeclaw007/monolith-modularization", "iconUrl": null, "installs": 0, "name": "Monolith Modularization", "ownerName": "mikeclaw007", "score": 96000, "slug": "monolith-modularization", "source": "clawhub", "stars": 0, "tags": null, "updated_at": 1776698984132, "version": "1.0.0"}, {"category": "", "created_at": 1774901700411, "description": "Generate personalized career roadmaps for aspiring Business Intelligence analysts based on assessment data, experience, and professional goals.", "description_zh": "根据评估数据、经验和职业目标，为有抱负的商业智能分析师生成个性化职业路线图。", "downloads": 24, "homepage": "https://clawhub.ai/krishnakumarmahadevan-cmd/bi-analyst", "iconUrl": null, "installs": 0, "name": "BI Analyst", "ownerName": "krishnakumarmahadevan-cmd", "score": 96000, "slug": "bi-analyst", "source": "clawhub", "stars": 0, "tags": null, "updated_at": 1776698984130, "version": "1.0.0"}, {"category": "", "created_at": 1774873456452, "description": "When the user wants to create or optimize an email sequence, drip campaign, automated email flow, or lifecycle email program. Also use when the user mentions...", "description_zh": "当用户想要创建或优化邮件序列、滴灌营销活动、自动化邮件流程或生命周期邮件项目时使用。也用于用户提及相关内容时。", "downloads": 24, "homepage": "https://clawhub.ai/mariokarras/abm-email-sequence", "iconUrl": null, "installs": 0, "name": "Email Sequence", "ownerName": "mariokarras", "score": 96000, "slug": "abm-email-sequence", "source": "clawhub", "stars": 0, "tags": null, "updated_at": 1776698984123, "version": "1.0.0"}, {"category": "", "created_at": 1774866976880, "description": "Which of these addresses are smart money? Batch-profile a list in one call.", "description_zh": "哪些地址是聪明钱？一次调用批量分析列表。", "downloads": 24, "homepage": "https://clawhub.ai/nansen-devops/nansen-wallet-batch", "iconUrl": null, "installs": 0, "name": "Nansen Wallet Batch", "ownerName": "nansen-devops", "score": 96000, "slug": "nansen-wallet-batch", "source": "clawhub", "stars": 0, "tags": null, "updated_at": 1776698984122, "version": "0.1.0"}, {"category": "", "created_at": 1774901078384, "description": "Kadoa integration. Manage Leads, Persons, Organizations, Deals, Projects, Activities and more. Use when the user wants to interact with Kadoa data.", "description_zh": "Kadoa 集成。管理潜在客户、联系人、组织、交易、项目、活动等。当用户需要与 Kadoa 数据交互时使用。", "downloads": 24, "homepage": "https://clawhub.ai/gora050/kadoa", "iconUrl": null, "installs": 0, "name": "Kadoa", "ownerName": "gora050", "score": 96000, "slug": "kadoa", "source": "clawhub", "stars": 0, "tags": null, "updated_at": 1776698984118, "version": "1.0.0"}, {"category": "", "created_at": 1774953805723, "description": "Maintaining hygiene and sanitation when normal infrastructure fails. Use when someone faces a water outage, sewer backup, extended power outage, camping with...", "description_zh": "在正常基础设施失效时保持卫生和清洁。适用于停水、污水倒灌、长期停电、露营等情况。", "downloads": 24, "homepage": "https://clawhub.ai/howtousehumans/hygiene-without-infrastructure", "iconUrl": null, "installs": 0, "name": "Hygiene Without Infrastructure", "ownerName": "howtousehumans", "score": 96000, "slug": "hygiene-without-infrastructure", "source": "clawhub", "stars": 0, "tags": null, "updated_at": 1776698984113, "version": "1.0.0"}, {"category": "", "created_at": 1774894446991, "description": "Check transaction status on AO bridge", "description_zh": "检查AO桥交易状态", "downloads": 24, "homepage": "https://clawhub.ai/charles-lpd/check-ao-transaction", "iconUrl": null, "installs": 0, "name": "check-ao-transaction", "ownerName": "charles-lpd", "score": 96000, "slug": "check-ao-transaction", "source": "clawhub", "stars": 0, "tags": null, "updated_at": 1776698984111, "version": "1.0.0"}, {"category": "", "created_at": 1774887767609, "description": "Create a transparent, sourced “Top 3–5” AI builder signal digest (weekly or date-range) from a list of links or from a local signals log; includes a short “w...", "description_zh": "从链接列表或本地信号日志中，生成透明、有来源标注的「Top 3–5」AI构建者信号摘要（按周或指定日期范围），包含简短的每周总结。", "downloads": 24, "homepage": "https://clawhub.ai/justsomeguyin2099/ai-builder-signal-digest", "iconUrl": null, "installs": 0, "name": "AI Builder Signal Digest (Transparent + Sourced)", "ownerName": "justsomeguyin2099", "score": 96000, "slug": "ai-builder-signal-digest", "source": "clawhub", "stars": 0, "tags": ["agents", "ai", "digest", "mcp", "memory", "rag"], "updated_at": 1776698984104, "version": "1.0.0"}, {"category": "", "created_at": 1774922614304, "description": "Intelligent Git workflow assistant following best practices. Use when user needs help with git commits, analyzing changes, writing commit messages, pushing c...", "description_zh": "智能Git工作流助手，遵循最佳实践。当用户需要帮助进行git提交、分析更改、撰写提交信息、推送代码时使用。", "downloads": 24, "homepage": "https://clawhub.ai/guguoyi/effective-git", "iconUrl": null, "installs": 0, "name": "Effective Git", "ownerName": "guguoyi", "score": 96000, "slug": "effective-git", "source": "clawhub", "stars": 0, "tags": null, "updated_at": 1776698984102, "version": "1.0.0"}, {"category": "", "created_at": 1774890993528, "description": "中国居民身份证号码解析与验证。Use when the user provides a Chinese ID card number and wants to extract information (province, city, district, birthdate, gender, age) or val...", "description_zh": "中国居民身份证号码解析与验证。Use when the user provides a Chinese ID card number and wants to extract information (province, city, district, birthdate, gender, age) or val...", "downloads": 24, "homepage": "https://clawhub.ai/tobewin/china-idcard", "iconUrl": null, "installs": 0, "name": "China Idcard", "ownerName": "tobewin", "score": 96000, "slug": "china-idcard", "source": "clawhub", "stars": 0, "tags": null, "updated_at": 1776698984098, "version": "1.0.0"}, {"category": "", "created_at": 1774907483061, "description": "Calculate chmod permissions — convert between numeric (octal) and symbolic notation, and generate the chmod command. Use when the user asks what chmod 755 me...", "description_zh": "{\n  \"result\": \"计算 chmod 权限 — 在数字（八进制）和符号表示之间转换，并生成 chmod 命令。用于用户询问 chmod 755 … 的场景。\"\n}", "downloads": 24, "homepage": "https://clawhub.ai/ohernandez-dev-blossom/chmod-calc", "iconUrl": null, "installs": 0, "name": "Chmod Calc", "ownerName": "ohernandez-dev-blossom", "score": 96000, "slug": "chmod-calc", "source": "clawhub", "stars": 0, "tags": null, "updated_at": 1776698984093, "version": "1.0.0"}, {"category": "", "created_at": 1774919863081, "description": "Feel the quiet awe as centuries of devotion echo through painted saints, inviting deep reflection. Explore frescoed walls, decode symbols, and ascend foreste...", "description_zh": "感受几个世纪的虔诚信仰在圣人壁画中的回响所带来的静谧敬畏，邀请深度思考。探索壁画墙壁，解读象征符号，登上森林...", "downloads": 24, "homepage": "https://clawhub.ai/driftsbot/experience-fresco-silence-bucovina", "iconUrl": null, "installs": 0, "name": "Experience Fresco Silence Bucovina", "ownerName": "driftsbot", "score": 96000, "slug": "experience-fresco-silence-bucovina", "source": "clawhub", "stars": 0, "tags": null, "updated_at": 1776698984089, "version": "1.0.0"}, {"category": "", "created_at": 1774891704758, "description": "运用技能提升 OneDay 应用的视觉设计", "description_zh": "运用技能提升 OneDay 应用的视觉设计", "downloads": 24, "homepage": "https://clawhub.ai/justmywyw/mywyw-test-skill", "iconUrl": null, "installs": 0, "name": "my-test-skill", "ownerName": "justmywyw", "score": 96000, "slug": "mywyw-test-skill", "source": "clawhub", "stars": 0, "tags": null, "updated_at": 1776698984069, "version": "1.0.0"}, {"category": "", "created_at": 1774886430137, "description": "AcyMailing integration. Manage data, records, and automate workflows. Use when the user wants to interact with AcyMailing data.", "description_zh": "AcyMailing集成。管理数据、记录并自动化工作流程。当用户想要与AcyMailing数据交互时使用。", "downloads": 24, "homepage": "https://clawhub.ai/gora050/acymailing", "iconUrl": null, "installs": 0, "name": "Acymailing", "ownerName": "gora050", "score": 96000, "slug": "acymailing", "source": "clawhub", "stars": 0, "tags": null, "updated_at": 1776698984067, "version": "1.0.0"}, {"category": "", "created_at": 1774920212352, "description": "轻量级 macOS 划词翻译工具，纯 Swift 6 开发，支持 Apple 翻译（设备端隐私保护），安装体积仅 5MB", "description_zh": "轻量级 macOS 划词翻译工具，纯 Swift 6 开发，支持 Apple 翻译（设备端隐私保护），安装体积仅 5MB", "downloads": 24, "homepage": "https://clawhub.ai/codeman840425-del/moepeek", "iconUrl": null, "installs": 0, "name": "MoePeek AI Transcript", "ownerName": "codeman840425-del", "score": 96000, "slug": "moepeek", "source": "clawhub", "stars": 0, "tags": null, "updated_at": 1776698984065, "version": "1.0.0"}, {"category": "", "created_at": 1774917984168, "description": "Feel a deep sense of awe as the fleeting cherry blossoms shift into shadowed whispers, inviting quiet contemplation of impermanence. Stroll the ancient Kyoto...", "description_zh": "在飘零的樱花化作阴影低语之际，感受到深深的敬畏，静思无常。漫步古老的京都...", "downloads": 24, "homepage": "https://clawhub.ai/driftsbot/experience-kyoto-shadow-petals", "iconUrl": null, "installs": 0, "name": "Experience Kyoto Shadow Petals", "ownerName": "driftsbot", "score": 96000, "slug": "experience-kyoto-shadow-petals", "source": "clawhub", "stars": 0, "tags": null, "updated_at": 1776698984049, "version": "1.0.0"}, {"category": "", "created_at": 1774893868643, "description": "Social media engagement audit and optimization plan. Analyze your engagement rate, identify what's working and what's not, and get a specific action plan to...", "description_zh": "社交媒体互动审计与优化方案：分析互动率，识别有效与无效策略，并制定具体行动计划。", "downloads": 24, "homepage": "https://clawhub.ai/mguozhen/social-engagement-audit", "iconUrl": null, "installs": 0, "name": "Social Engagement Audit", "ownerName": "mguozhen", "score": 96000, "slug": "social-engagement-audit", "source": "clawhub", "stars": 0, "tags": null, "updated_at": 1776698984028, "version": "1.0.0"}, {"category": "", "created_at": 1774920182212, "description": "Perform text review on user-specified input text that may be inappropriate or offensive.", "description_zh": "对用户提供的文本进行审查，检查是否包含不当或冒犯性内容。", "downloads": 24, "homepage": "https://clawhub.ai/fchange/moark-text-moderations", "iconUrl": null, "installs": 0, "name": "Moark Text Moderations", "ownerName": "fchange", "score": 96000, "slug": "moark-text-moderations", "source": "clawhub", "stars": 0, "tags": null, "updated_at": 1776698984027, "version": "1.0.0"}, {"category": "", "created_at": 1774891733779, "description": "Ongage integration. Manage Accounts. Use when the user wants to interact with Ongage data.", "description_zh": "Ongage 集成，管理账户，当用户想要与 Ongage 数据交互时使用。", "downloads": 24, "homepage": "https://clawhub.ai/gora050/ongage", "iconUrl": null, "installs": 0, "name": "Ongage", "ownerName": "gora050", "score": 96000, "slug": "ongage", "source": "clawhub", "stars": 0, "tags": null, "updated_at": 1776698984017, "version": "1.0.0"}]}