{"page": 670, "total_pages": 685, "total": 34217, "skills": [{"category": "", "created_at": 1774907126674, "description": "Tines integration. Manage data, records, and automate workflows. Use when the user wants to interact with Tines data.", "description_zh": "Tines 集成。管理数据、记录并自动化工作流程。当用户需要与 Tines 数据交互时使用。", "downloads": 23, "homepage": "https://clawhub.ai/gora050/tines", "iconUrl": null, "installs": 0, "name": "Tines", "ownerName": "gora050", "score": 100000, "slug": "tines", "source": "clawhub", "stars": 0, "tags": null, "updated_at": 1776699170343, "version": "1.0.0"}, {"category": "", "created_at": 1774922291719, "description": "Use this skill when working with IBM Rational Software Architect Designer (RSAD/RSA) in the context of IBM FTM (Financial Transaction Manager) development. T...", "description_zh": "在IBM FTM（金融交易管理器）开发环境中使用IBM Rational Software Architect Designer（RSAD/RSA）时应用此技能。", "downloads": 23, "homepage": "https://clawhub.ai/shoaibkhan/rsad-copilot", "iconUrl": null, "installs": 0, "name": "RSAD Copilot", "ownerName": "shoaibkhan", "score": 100000, "slug": "rsad-copilot", "source": "clawhub", "stars": 0, "tags": null, "updated_at": 1776699170340, "version": "1.0.0"}, {"category": "", "created_at": 1774921826126, "description": "PostGrid integration. Manage Persons, Organizations, Addresses, Letters, Postcards, Templates and more. Use when the user wants to interact with PostGrid data.", "description_zh": "PostGrid 集成。管理联系人、组织、地址、信件、明信片、模板等。当用户想要与 PostGrid 数据交互时使用。", "downloads": 23, "homepage": "https://clawhub.ai/gora050/postgrid", "iconUrl": null, "installs": 0, "name": "Postgrid", "ownerName": "gora050", "score": 100000, "slug": "postgrid", "source": "clawhub", "stars": 0, "tags": null, "updated_at": 1776699170338, "version": "1.0.0"}, {"category": "", "created_at": 1774898827644, "description": "SnapScan integration. Manage data, records, and automate workflows. Use when the user wants to interact with SnapScan data.", "description_zh": "SnapScan 集成，管理数据和记录，自动化工作流，用于用户与 SnapScan 数据交互的场景。", "downloads": 23, "homepage": "https://clawhub.ai/gora050/snapscan", "iconUrl": null, "installs": 0, "name": "Snapscan", "ownerName": "gora050", "score": 100000, "slug": "snapscan", "source": "clawhub", "stars": 0, "tags": null, "updated_at": 1776699170327, "version": "1.0.0"}, {"category": "", "created_at": 1774902751442, "description": "Unified “whatifthen” framework for early-stage product thinking, requirement clarification, and decision review. Use when a user has a new idea, feature requ...", "description_zh": "统一的“假设-那么”框架，用于早期产品思维、需求澄清和决策审查。当用户有新想法、功能需求或需要决策评审时使用。", "downloads": 23, "homepage": "https://clawhub.ai/zhang3xing1/wit-skill", "iconUrl": null, "installs": 0, "name": "Wit", "ownerName": "zhang3xing1", "score": 100000, "slug": "wit-skill", "source": "clawhub", "stars": 0, "tags": null, "updated_at": 1776699170325, "version": "1.0.0"}, {"category": "", "created_at": 1774879156459, "description": "中文阴阳怪气 → 英文阴阳怪气神器！输入吐槽，自动输出温和版、原味阴阳版（中英双语）、美式/日式/韩式文化适配版 + 表情包建议 + 被封风险评估。跨平台发帖不翻车，年轻人专属吐槽机。", "description_zh": "中文阴阳怪气 → 英文阴阳怪气神器！输入吐槽，自动输出温和版、原味阴阳版（中英双语）、美式/日式/韩式文化适配版 + 表情包建议 + 被封风险评估。跨平台发帖不翻车，年轻人专属吐槽机。", "downloads": 23, "homepage": "https://clawhub.ai/swiftuis/rant-translator", "iconUrl": null, "installs": 0, "name": "rant-translator", "ownerName": "swiftuis", "score": 100000, "slug": "rant-translator", "source": "clawhub", "stars": 0, "tags": null, "updated_at": 1776699170317, "version": "1.0.0"}, {"category": "", "created_at": 1774925151629, "description": "Fireseed Theory cognitive framework. Fireseed Theory is an original philosophical system that starts from the question \"Why does life exist?\" and uses a sing...", "description_zh": "{\"description_zh\":\"火种理论认知框架。火种理论是一套原创哲学体系，从\"生命为何存在？\"这一问题出发，以独特的视角构建思想体系。\"}", "downloads": 23, "homepage": "https://clawhub.ai/fre2d0m/why-we-live", "iconUrl": null, "installs": 0, "name": "Why We Live", "ownerName": "fre2d0m", "score": 100000, "slug": "why-we-live", "source": "clawhub", "stars": 0, "tags": null, "updated_at": 1776699170315, "version": "1.0.0"}, {"category": "", "created_at": 1774887586923, "description": "Explain and work with the WGS 84 coordinate system for GPS-style longitude/latitude data, including EPSG:4326 usage, axis-order checks, range validation, UTM...", "description_zh": "解释并处理WGS 84坐标系下的GPS经纬度数据，包括EPSG:4326的使用、轴顺序检查、范围验证及UTM转换等。", "downloads": 23, "homepage": "https://clawhub.ai/jvy/wgs84", "iconUrl": null, "installs": 0, "name": "wgs84", "ownerName": "jvy", "score": 100000, "slug": "wgs84", "source": "clawhub", "stars": 0, "tags": null, "updated_at": 1776699170314, "version": "1.0.0"}, {"category": "", "created_at": 1774917324391, "description": "Narrative analysis framework for understanding how multiple works within a shared property or historical tradition can coexist without strict canonical recon...", "description_zh": "叙事分析框架，用于理解同一属性或历史传统中多部作品如何在没有严格规范重构的情况下共存。", "downloads": 23, "homepage": "https://clawhub.ai/inertia186/unreliable-teleplay-lens", "iconUrl": null, "installs": 0, "name": "Unreliable Teleplay Lens", "ownerName": "inertia186", "score": 100000, "slug": "unreliable-teleplay-lens", "source": "clawhub", "stars": 0, "tags": null, "updated_at": 1776699170309, "version": "1.0.0"}, {"category": "", "created_at": 1774884845765, "description": "Enables an Openclaw agent to spawn sub-agents (child Openclaw instances) when a task is too large, complex, or parallel to handle alone. Use this skill whene...", "description_zh": "当任务过大、复杂或需并行处理时，允许 Openclaw 代理生成子代理（子 Openclaw 实例）。在……时使用此技能。", "downloads": 23, "homepage": "https://clawhub.ai/sparky0520/recursive-spawn", "iconUrl": null, "installs": 0, "name": "Reproduce", "ownerName": "sparky0520", "score": 100000, "slug": "recursive-spawn", "source": "clawhub", "stars": 0, "tags": null, "updated_at": 1776699170301, "version": "1.0.4"}, {"category": "", "created_at": 1774887719667, "description": "Build high-performing OpenClaw agents end-to-end. Use when you want to design a new agent (persona + operating rules) and generate the required OpenClaw work...", "description_zh": "构建高性能OpenClaw智能体，端到端。用于设计新智能体（人设+运行规则）并生成所需的OpenClaw工作。", "downloads": 23, "homepage": "https://clawhub.ai/ryan-wuxl/agent-creator-suite", "iconUrl": null, "installs": 0, "name": "Agent Builder", "ownerName": "ryan-wuxl", "score": 100000, "slug": "agent-creator-suite", "source": "clawhub", "stars": 0, "tags": null, "updated_at": 1776699170297, "version": "1.0.0"}, {"category": "", "created_at": 1774874550790, "description": "Generate competitor analysis with SWOT and market positioning. Use when comparing features, checking market share, analyzing differentiation strategies.", "description_zh": "生成竞争对手分析，采用SWOT和市场定位，用于功能对比、市场份额检查和差异化策略分析。", "downloads": 23, "homepage": "https://clawhub.ai/bytesagain3/rivalwatch", "iconUrl": null, "installs": 0, "name": "Rivalwatch", "ownerName": "bytesagain3", "score": 100000, "slug": "rivalwatch", "source": "clawhub", "stars": 0, "tags": null, "updated_at": 1776699170292, "version": "2.0.0"}, {"category": "", "created_at": 1774855339351, "description": "在实现任何新功能、构建组件、添加功能或修改行为之前必须使用。用于在实现前探索用户意图、需求和设计。", "description_zh": "在实现任何新功能、构建组件、添加功能或修改行为之前必须使用。用于在实现前探索用户意图、需求和设计。", "downloads": 23, "homepage": "https://clawhub.ai/mahingbun-dev/sdd-brainstorming", "iconUrl": null, "installs": 0, "name": "SDD Brainstorming", "ownerName": "mahingbun-dev", "score": 100000, "slug": "sdd-brainstorming", "source": "clawhub", "stars": 0, "tags": null, "updated_at": 1776699170286, "version": "1.0.0"}, {"category": "", "created_at": 1774956093012, "description": "Accredible integration. Manage data, records, and automate workflows. Use when the user wants to interact with Accredible data.", "description_zh": "Accredible集成，管理数据和记录，自动化工作流程，用于与Accredible数据交互。", "downloads": 23, "homepage": "https://clawhub.ai/gora050/accredible", "iconUrl": null, "installs": 0, "name": "Accredible", "ownerName": "gora050", "score": 100000, "slug": "accredible", "source": "clawhub", "stars": 0, "tags": null, "updated_at": 1776699170284, "version": "1.0.0"}, {"category": "", "created_at": 1774953527590, "description": "AudienceLab ad copywriting system. Complete framework for creating high-converting ad scripts, headlines, and hooks. Use when writing ad copy for YourAgency...", "description_zh": "AudienceLab广告文案系统。创建高转化广告文案、标题和钩子的完整框架。用于YourAgency广告文案撰写。", "downloads": 23, "homepage": "https://clawhub.ai/boris148/ad-copy-system", "iconUrl": null, "installs": 0, "name": "Ad Copy System", "ownerName": "boris148", "score": 100000, "slug": "ad-copy-system", "source": "clawhub", "stars": 0, "tags": null, "updated_at": 1776699170276, "version": "1.0.0"}, {"category": "", "created_at": 1774900346791, "description": "Order from Taco Bell via Strider Labs MCP connector. Browse menu, customize items, use rewards, and schedule pickup or delivery for tacos, burritos, and more.", "description_zh": "通过Strider Labs MCP连接器在Taco Bell下单。浏览菜单、自定义餐品、使用奖励积分，并可预约自取或外卖配送，涵盖玉米卷、墨西哥卷饼等多种餐品。", "downloads": 23, "homepage": "https://clawhub.ai/markswendsen-code/strider-tacobell", "iconUrl": null, "installs": 0, "name": "Strider Taco Bell", "ownerName": "markswendsen-code", "score": 100000, "slug": "strider-tacobell", "source": "clawhub", "stars": 0, "tags": null, "updated_at": 1776699170275, "version": "1.0.0"}, {"category": "", "created_at": 1774878200374, "description": "Typed knowledge graph for structured agent memory and composable skills. Use when creating/querying entities (Person, Project, Task, Event, Document), linkin...", "description_zh": "类型化知识图谱，用于结构化智能体记忆和可组合技能。适用于创建/查询实体（人员、项目、任务、事件、文档），链接关系时使用。", "downloads": 23, "homepage": "https://clawhub.ai/ywqsimmon/zqtest", "iconUrl": null, "installs": 0, "name": "zqtest", "ownerName": "ywqsimmon", "score": 100000, "slug": "zqtest", "source": "clawhub", "stars": 0, "tags": null, "updated_at": 1776699170268, "version": "1.0.0"}, {"category": "", "created_at": 1774920587803, "description": "SimpleTexting integration. Manage Contacts, Campaigns, Keywords. Use when the user wants to interact with SimpleTexting data.", "description_zh": "SimpleTexting 集成，管理联系人、营销活动和关键词，用于用户与 SimpleTexting 数据交互。", "downloads": 23, "homepage": "https://clawhub.ai/gora050/simpletexting", "iconUrl": null, "installs": 0, "name": "Simpletexting", "ownerName": "gora050", "score": 100000, "slug": "simpletexting", "source": "clawhub", "stars": 0, "tags": null, "updated_at": 1776699170257, "version": "1.0.0"}, {"category": "", "created_at": 1774952604280, "description": "适用于在前进平台为**已部署工作负载**创建持续更新流水线（代码克隆 → 构建 → 镜像构建 → 镜像更新部署）。生成 Jenkinsfile 前必须完整阅读本 SKILL 内「流水线骨架」节模板，禁止凭记忆默写。", "description_zh": "适用于在前进平台为**已部署工作负载**创建持续更新流水线（代码克隆 → 构建 → 镜像构建 → 镜像更新部署）。生成 Jenkinsfile 前必须完整阅读本 SKILL 内「流水线骨架」节模板，禁止凭记忆默写。", "downloads": 23, "homepage": "https://clawhub.ai/wyzauh/tests44", "iconUrl": null, "installs": 0, "name": "test", "ownerName": "wyzauh", "score": 100000, "slug": "tests44", "source": "clawhub", "stars": 0, "tags": null, "updated_at": 1776699170240, "version": "1.0.0"}, {"category": "", "created_at": 1774883720748, "description": "Manage Google Calendar via Strider Labs MCP connector. Create, update, and delete events. Search availability, set reminders, and handle recurring meetings....", "description_zh": "通过Strider Labs MCP连接器管理Google日历。创建、更新和删除事件，查找空闲时间，设置提醒，处理重复会议。", "downloads": 23, "homepage": "https://clawhub.ai/markswendsen-code/strider-gcal", "iconUrl": null, "installs": 0, "name": "Strider Google Calendar", "ownerName": "markswendsen-code", "score": 100000, "slug": "strider-gcal", "source": "clawhub", "stars": 0, "tags": null, "updated_at": 1776699170231, "version": "1.0.0"}, {"category": "", "created_at": 1774900507769, "description": "Abyssale integration. Manage data, records, and automate workflows. Use when the user wants to interact with Abyssale data.", "description_zh": "Abyssale 集成：管理数据、记录并自动化工作流；当用户需要与 Abyssale 数据交互时使用。", "downloads": 23, "homepage": "https://clawhub.ai/membranedev/abyssale", "iconUrl": null, "installs": 0, "name": "Abyssale", "ownerName": "membranedev", "score": 100000, "slug": "abyssale", "source": "clawhub", "stars": 0, "tags": null, "updated_at": 1776699170229, "version": "1.0.0"}, {"category": "", "created_at": 1774894144907, "description": "Compare composition across segments using 100% stacked bars. Use for competitive analysis, cost structure comparison, and portfolio composition.", "description_zh": "使用100%堆积柱状图比较各细分市场的构成。适用于竞争分析、成本结构对比和投资组合构成分析。", "downloads": 23, "homepage": "https://clawhub.ai/linuszz/100-percent-bars", "iconUrl": null, "installs": 0, "name": "100 Percent Bars", "ownerName": "linuszz", "score": 100000, "slug": "100-percent-bars", "source": "clawhub", "stars": 0, "tags": null, "updated_at": 1776699170224, "version": "1.0.0"}, {"category": "", "created_at": 1775794843025, "description": "", "description_zh": "Manage Trello boards, lists, and cards via the Trello REST API.", "downloads": 23, "homepage": "https://clawhub.ai/user_b69d30ec/abcd", "iconUrl": "https://cloudcache.tencent-cloud.com/qcloud/ui/static/other_external_resource/c0bd7863-2689-46f1-941c-e45be1317e90.png", "installs": 0, "name": "abcd", "ownerName": "user_b69d30ec", "score": 100000, "slug": "abcd", "source": "community", "stars": 0, "tags": null, "updated_at": 1776699170220, "version": "1.0.1"}, {"category": "", "created_at": 1774893671106, "description": "RepliQ integration. Manage Leads, Persons, Organizations, Deals, Projects, Activities and more. Use when the user wants to interact with RepliQ data.", "description_zh": "RepliQ集成，管理潜在客户、联系人、组织、交易、项目、活动等数据。用于用户需要与RepliQ数据交互时。", "downloads": 23, "homepage": "https://clawhub.ai/gora050/repliq", "iconUrl": null, "installs": 0, "name": "Repliq", "ownerName": "gora050", "score": 100000, "slug": "repliq", "source": "clawhub", "stars": 0, "tags": null, "updated_at": 1776699170219, "version": "1.0.0"}, {"category": "", "created_at": 1774890487277, "description": "Smoove integration. Manage Organizations, Pipelines, Users, Goals, Filters. Use when the user wants to interact with Smoove data.", "description_zh": "Smoove集成。管理组织、管道、用户、目标和过滤器。当用户需要与Smoove数据进行交互时使用。", "downloads": 23, "homepage": "https://clawhub.ai/membranedev/smoove", "iconUrl": null, "installs": 0, "name": "Smoove", "ownerName": "membranedev", "score": 100000, "slug": "smoove", "source": "clawhub", "stars": 0, "tags": null, "updated_at": 1776699170196, "version": "1.0.0"}, {"category": "", "created_at": 1774918607924, "description": "Prada luxury fashion, leather goods, and ready-to-wear information. Collections, pricing, stores, and brand news.", "description_zh": "Prada奢华时装、皮具与成衣信息；系列、价格、门店及品牌新闻。", "downloads": 23, "homepage": "https://clawhub.ai/hanxueyuan/prada", "iconUrl": null, "installs": 0, "name": "Prada", "ownerName": "hanxueyuan", "score": 100000, "slug": "prada", "source": "clawhub", "stars": 0, "tags": null, "updated_at": 1776699170192, "version": "0.1.0"}, {"category": "", "created_at": 1774900273901, "description": "Serpdog integration. Manage Keywords, Websites, Competitors, Users, Projects. Use when the user wants to interact with Serpdog data.", "description_zh": "Serpdog 集成，管理关键词、网站、竞争对手、用户和项目。适用于需要与 Serpdog 数据交互的场景。", "downloads": 23, "homepage": "https://clawhub.ai/gora050/serpdog", "iconUrl": null, "installs": 0, "name": "Serpdog", "ownerName": "gora050", "score": 100000, "slug": "serpdog", "source": "clawhub", "stars": 0, "tags": null, "updated_at": 1776699170190, "version": "1.0.0"}, {"category": "", "created_at": 1774950881958, "description": "创建「站起来活动」久坐提醒。当用户说\"提醒我站起来\"、\"久坐提醒\"、\"每小时提醒活动\"、\"设置站立提醒\"、\"stand up reminder\"、\"站立提醒\"等时触发。自动创建工作日（周一至周五）定时提醒的 cron 任务，支持自定义开始/结束时间、提醒间隔、多语言（中/英/日）、文案风格（活泼/简洁/严肃/励志...", "description_zh": "创建「站起来活动」久坐提醒。当用户说\"提醒我站起来\"、\"久坐提醒\"、\"每小时提醒活动\"、\"设置站立提醒\"、\"stand up reminder\"、\"站立提醒\"等时触发。自动创建工作日（周一至周五）定时提醒的 cron 任务，支持自定义开始/结束时间、提醒间隔、多语言（中/英/日）、文案风格（活泼/简洁/严肃/励志...", "downloads": 23, "homepage": "https://clawhub.ai/tinalucky/stand-up-reminder", "iconUrl": null, "installs": 0, "name": "stand up reminder", "ownerName": "tinalucky", "score": 100000, "slug": "stand-up-reminder", "source": "clawhub", "stars": 0, "tags": null, "updated_at": 1776699170188, "version": "1.0.0"}, {"category": "", "created_at": 1774821108154, "description": "Secure Google Drive Mnagement - list, search, upload, create folders, rename, move, share, and permissions (porteden secure alternative).", "description_zh": "安全的 Google Drive 管理 - 列表、搜索、上传、创建文件夹、重命名、移动、共享和权限（安全替代）。", "downloads": 23, "homepage": "https://clawhub.ai/porteden/porteden-drive", "iconUrl": null, "installs": 0, "name": "Secure Google Drive Access for OpenClaw by PortEden", "ownerName": "porteden", "score": 100000, "slug": "porteden-drive", "source": "clawhub", "stars": 0, "tags": null, "updated_at": 1776699170184, "version": "1.0.0"}, {"category": "", "created_at": 1774826963903, "description": "Secure Google Sheets Management - permission-based create, read, write, and append spreadsheet data, plus file management (share, permissions, rename, delete).", "description_zh": "安全的Google表格管理——基于权限创建、读取、写入和追加电子表格数据，并提供文件管理功能（共享、权限、重命名、删除）。", "downloads": 23, "homepage": "https://clawhub.ai/porteden/porteden-sheets", "iconUrl": null, "installs": 0, "name": "Secure Google Sheets Access for OpenClaw by PortEden", "ownerName": "porteden", "score": 100000, "slug": "porteden-sheets", "source": "clawhub", "stars": 0, "tags": null, "updated_at": 1776699170181, "version": "1.0.0"}, {"category": "", "created_at": 1774887577286, "description": "Chat, ask, compare, and inspect WeryAI chat models through the official OpenAI-compatible chat completions API. Use when you need general assistant chat, mul...", "description_zh": "通过官方兼容OpenAI的聊天补全API，与WeryAI聊天模型进行对话、提问、比较和检查。适用于通用助手对话、多...", "downloads": 23, "homepage": "https://clawhub.ai/weryai-developer/weryai-chat", "iconUrl": null, "installs": 0, "name": "WeryAI Chat", "ownerName": "weryai-developer", "score": 100000, "slug": "weryai-chat", "source": "clawhub", "stars": 0, "tags": null, "updated_at": 1776699170174, "version": "0.1.0"}, {"category": "", "created_at": 1774911081330, "description": "Track pageviews and custom events via the Plausible Events API, and query stats (top pages, top sources, countries, realtime visitors). Use when you need to...", "description_zh": "通过 Plausible Events API 追踪页面浏览及自定义事件，并查询统计数据（热门页面、来源、国家、实时访客）。适用于需要...", "downloads": 23, "homepage": "https://clawhub.ai/kryzl19/plausible-analytics-agent", "iconUrl": null, "installs": 0, "name": "Plausible Analytics Agent", "ownerName": "kryzl19", "score": 100000, "slug": "plausible-analytics-agent", "source": "clawhub", "stars": 0, "tags": ["analytics", "plausible", "privacy", "tracking"], "updated_at": 1776699170145, "version": "1.0.0"}, {"category": "", "created_at": 1774891913065, "description": "When the user wants to create or optimize a refund or return policy page. Also use when the user mentions \"refund policy,\" \"return policy,\" \"money-back guara...", "description_zh": "当用户想要创建或优化退款或退货政策页面时使用。也适用于用户提及「退款政策」、「退货政策」、「退款保证」等情况。", "downloads": 23, "homepage": "https://clawhub.ai/kostja94/refund-page-generator", "iconUrl": null, "installs": 0, "name": "refund-page-generator", "ownerName": "kostja94", "score": 100000, "slug": "refund-page-generator", "source": "clawhub", "stars": 0, "tags": null, "updated_at": 1776699170136, "version": "1.0.0"}, {"category": "", "created_at": 1774924959557, "description": "Search flights and stays, then create card or crypto payments via TravAI. Use when the user asks about flights, travel planning, booking trips, finding accom...", "description_zh": "搜索航班和住宿，并通过TravAI创建卡支付或加密货币支付。适用于用户询问航班、旅行规划、预订行程、查找住宿等情况。", "downloads": 23, "homepage": "https://clawhub.ai/kirikov/travai-search-book-pay-flights-stays", "iconUrl": null, "installs": 0, "name": "travai", "ownerName": "kirikov", "score": 100000, "slug": "travai-search-book-pay-flights-stays", "source": "clawhub", "stars": 0, "tags": null, "updated_at": 1776699170118, "version": "1.0.0"}, {"category": "", "created_at": 1774873283120, "description": "Refactor React code away from direct useEffect usage. Use when Codex needs to review, rewrite, or prevent useEffect in React components, custom hooks, or fro...", "description_zh": "避免直接使用 useEffect；当 Codex 需要审查、重写或阻止在 React 组件、自定义钩子或其他位置使用 useEffect 时进行重构。", "downloads": 23, "homepage": "https://clawhub.ai/liyown/use-effect", "iconUrl": null, "installs": 0, "name": "Use Effect", "ownerName": "liyown", "score": 100000, "slug": "use-effect", "source": "clawhub", "stars": 0, "tags": ["frontend", "react"], "updated_at": 1776699170112, "version": "1.0.0"}, {"category": "", "created_at": 1774876764951, "description": "When the user wants to optimize any form that is NOT signup/registration — including lead capture forms, contact forms, demo request forms, application forms...", "description_zh": "用于优化非注册类表单，包括潜在客户表单、联系表单、演示申请表单、申请表等", "downloads": 23, "homepage": "https://clawhub.ai/mariokarras/abm-form-cro", "iconUrl": null, "installs": 0, "name": "Form Cro", "ownerName": "mariokarras", "score": 100000, "slug": "abm-form-cro", "source": "clawhub", "stars": 0, "tags": null, "updated_at": 1776699170107, "version": "1.0.0"}, {"category": "", "created_at": 1774899029028, "description": "Unified application security skill for Coding Agent systems like OpenCode. Use when reviewing or writing code that touches authentication, authorization, use...", "description_zh": "统一的应用安全技能，适用于OpenCode等编码代理系统；审查或编写涉及身份验证、授权等代码时使用。", "downloads": 23, "homepage": "https://clawhub.ai/selimerunkut/unified-security-auditor", "iconUrl": null, "installs": 0, "name": "unified security auditor", "ownerName": "selimerunkut", "score": 100000, "slug": "unified-security-auditor", "source": "clawhub", "stars": 0, "tags": null, "updated_at": 1776699170106, "version": "1.0.0"}, {"category": "", "created_at": 1774918742301, "description": "SERPhouse integration. Manage Organizations, Users. Use when the user wants to interact with SERPhouse data.", "description_zh": "SERPhouse 集成，管理组织和用户，当用户需要与 SERPhouse 数据交互时使用。", "downloads": 23, "homepage": "https://clawhub.ai/membranedev/serphouse", "iconUrl": null, "installs": 0, "name": "Serphouse", "ownerName": "membranedev", "score": 100000, "slug": "serphouse", "source": "clawhub", "stars": 0, "tags": null, "updated_at": 1776699170100, "version": "1.0.0"}, {"category": "", "created_at": 1774912152785, "description": "When the user wants to create a press coverage page, \"As Seen In\" section, or media mentions aggregation. Also use when the user mentions \"press coverage,\" \"...", "description_zh": "{\"description_zh\":\"当用户想创建媒体报道页面、\"媒体报道\"板块或媒体提及汇总时使用。也适用于用户提及\"新闻报道\"等相关内容时。\"}", "downloads": 23, "homepage": "https://clawhub.ai/kostja94/press-coverage-page-generator", "iconUrl": null, "installs": 0, "name": "press-coverage-page-generator", "ownerName": "kostja94", "score": 100000, "slug": "press-coverage-page-generator", "source": "clawhub", "stars": 0, "tags": null, "updated_at": 1776699170099, "version": "1.0.0"}, {"category": "", "created_at": 1774898839310, "description": "Deploy TheHive 5 + Cortex 3 incident response platform on any Docker-ready Linux host. Automates account creation, API key generation, Cortex CSRF handling,...", "description_zh": "在任意支持Docker的Linux主机上部署TheHive 5 + Cortex 3事件响应平台。自动化账户创建、API密钥生成、Cortex CSRF处理等。", "downloads": 23, "homepage": "https://clawhub.ai/solomonneas/soc-deploy-thehive", "iconUrl": null, "installs": 0, "name": "Soc Deploy Thehive", "ownerName": "solomonneas", "score": 100000, "slug": "soc-deploy-thehive", "source": "clawhub", "stars": 0, "tags": null, "updated_at": 1776699170087, "version": "1.0.0"}, {"category": "", "created_at": 1774886072213, "description": "Legal statutes reference — statutory interpretation, legislative process, types of statutes, and citation formats. Use when researching laws, understanding s...", "description_zh": "法律 statutes 引用——成文法解释、立法程序、法规类型及引用格式。适用于法律研究、理解法律条文等场景。", "downloads": 23, "homepage": "https://clawhub.ai/ckchzh/statute", "iconUrl": null, "installs": 0, "name": "Statute", "ownerName": "ckchzh", "score": 100000, "slug": "statute", "source": "clawhub", "stars": 0, "tags": null, "updated_at": 1776699170073, "version": "1.0.0"}, {"category": "", "created_at": 1774943962356, "description": "Generate upsell and cross-sell ideas for ecommerce funnels based on product fit, timing, and margin logic. Use when teams want more relevant order expansion...", "description_zh": "根据产品契合度、时机和利润逻辑，为电商渠道生成追加销售和交叉销售创意，帮助团队实现更精准的订单扩展。", "downloads": 23, "homepage": "https://clawhub.ai/leooooooow/upsell-cross-sell-generator", "iconUrl": null, "installs": 0, "name": "Upsell Cross Sell Generator", "ownerName": "leooooooow", "score": 100000, "slug": "upsell-cross-sell-generator", "source": "clawhub", "stars": 0, "tags": null, "updated_at": 1776699170047, "version": "1.0.0"}, {"category": "", "created_at": 1774891991709, "description": "Generate simple, easy-to-understand, and concise responses. Use when the user asks for brief, clear, to-the-point answers without unnecessary elaboration. Tr...", "description_zh": "生成简洁、易懂、直接的回答。适用于用户要求简短、清晰、切中要点的回答，无需冗长解释。", "downloads": 23, "homepage": "https://clawhub.ai/sunba666/simple-concise-responder", "iconUrl": null, "installs": 0, "name": "Simple Concise Responder", "ownerName": "sunba666", "score": 100000, "slug": "simple-concise-responder", "source": "clawhub", "stars": 0, "tags": null, "updated_at": 1776699170033, "version": "1.0.0"}, {"category": "", "created_at": 1774894270710, "description": "Auto-generated skill for amap-maps-streamableHTTP tools via OneKey Gateway.", "description_zh": "通过 OneKey Gateway 为 amap-maps-streamableHTTP 工具自动生成的技能", "downloads": 23, "homepage": "https://clawhub.ai/ai-hub-admin/amap-maps-streamablehttp", "iconUrl": null, "installs": 0, "name": "Amap Maps StreamableHTTP", "ownerName": "ai-hub-admin", "score": 100000, "slug": "amap-maps-streamablehttp", "source": "clawhub", "stars": 0, "tags": null, "updated_at": 1776699170031, "version": "0.1.1"}, {"category": "", "created_at": 1774898884615, "description": "Search travel via KAYAK using Strider Labs MCP connector. Compare flights, hotels, cars across providers. Find best prices with price alerts. Complete autono...", "description_zh": "通过Strider Labs MCP连接器使用KAYAK搜索旅行。比较多个供应商的航班、酒店和租车。查找最优价格并设置价格提醒。完全自动...", "downloads": 23, "homepage": "https://clawhub.ai/markswendsen-code/strider-kayak", "iconUrl": null, "installs": 0, "name": "Strider Kayak", "ownerName": "markswendsen-code", "score": 100000, "slug": "strider-kayak", "source": "clawhub", "stars": 0, "tags": null, "updated_at": 1776699170026, "version": "1.0.0"}, {"category": "", "created_at": 1774858581467, "description": "远程服务器安全巡检和环境报告工具。 通过 SSH 免密登录远程主机，全面检查系统信息、运行服务、开放端口、 Web 服务器配置、数据库配置、安全设置（SSH/防火墙/SELinux）、可疑进程和定时任务， 生成结构化的巡检报告。Use when 用户需要检查服务器安全、排查服务器环境、 了解服务器上运行了什么服务...", "description_zh": "远程服务器安全巡检和环境报告工具。 通过 SSH 免密登录远程主机，全面检查系统信息、运行服务、开放端口、 Web 服务器配置、数据库配置、安全设置（SSH/防火墙/SELinux）、可疑进程和定时任务， 生成结构化的巡检报告。Use when 用户需要检查服务器安全、排查服务器环境、 了解服务器上运行了什么服务...", "downloads": 23, "homepage": "https://clawhub.ai/aowind/sjht-server-audit", "iconUrl": null, "installs": 0, "name": "sjht-server-audit", "ownerName": "aowind", "score": 100000, "slug": "sjht-server-audit", "source": "clawhub", "stars": 0, "tags": null, "updated_at": 1776699170023, "version": "1.0.0"}, {"category": "", "created_at": 1774900153533, "description": "Reward system design reference — behavioral reinforcement, loyalty programs, gamification, incentive structures. Use when designing reward programs, loyalty...", "description_zh": "奖励系统设计参考——行为强化、忠诚度计划、游戏化、激励机制。用于设计奖励计划、忠诚度计划等。", "downloads": 23, "homepage": "https://clawhub.ai/bytesagain3/reward", "iconUrl": null, "installs": 0, "name": "Reward", "ownerName": "bytesagain3", "score": 100000, "slug": "reward", "source": "clawhub", "stars": 0, "tags": null, "updated_at": 1776699170019, "version": "1.0.0"}, {"category": "", "created_at": 1775721468220, "description": "", "description_zh": "根据最新的AI领域资讯或周报，持续迭代更新AI全球监管政策Know How知识库。当用户需要基于资讯更新AI监管知识库，或从零创建AI监管Know How文档时使用此技能。", "downloads": 23, "homepage": "https://clawhub.ai/user_9768371c/songsaiknowhow", "iconUrl": null, "installs": 0, "name": "AI合规knowhow", "ownerName": "user_9768371c", "score": 100000, "slug": "songsaiknowhow", "source": "community", "stars": 0, "tags": null, "updated_at": 1776699170015, "version": "1.0.0"}, {"category": "", "created_at": 1774890463090, "description": "Signable integration. Manage Documents, Templates, Users, Teams. Use when the user wants to interact with Signable data.", "description_zh": "Signable 集成。管理文档、模板、用户、团队。用于与 Signable 数据交互。", "downloads": 23, "homepage": "https://clawhub.ai/gora050/signable", "iconUrl": null, "installs": 0, "name": "Signable", "ownerName": "gora050", "score": 100000, "slug": "signable", "source": "clawhub", "stars": 0, "tags": null, "updated_at": 1776699170004, "version": "1.0.0"}, {"category": "", "created_at": 1774946945980, "description": "Complete UX Research & Design system — user discovery, persona building, journey mapping, usability testing, research synthesis, and design validation. Zero...", "description_zh": "完整UX调研与设计系统——用户发现、人物角色构建、旅程映射、可用性测试、研究综合与设计验证。零...", "downloads": 23, "homepage": "https://clawhub.ai/lambert-min/afrexai-ux-research-engine-bak", "iconUrl": null, "installs": 0, "name": "Afrexai Ux Research Engine.Bak", "ownerName": "lambert-min", "score": 100000, "slug": "afrexai-ux-research-engine-bak", "source": "clawhub", "stars": 0, "tags": null, "updated_at": 1776699170003, "version": "1.0.0"}]}