{"page": 672, "total_pages": 685, "total": 34217, "skills": [{"category": "", "created_at": 1775533638530, "description": "", "description_zh": "Captures learnings, errors, and corrections to enable continuous improvement. Use when: (1) A command or operation fails unexpectedly, (2) User corrects Claude ('No, that's wrong...', 'Actually...'), (3) User requests a capability that doesn't exist, (4) An external API or tool fails, (5) Claude realizes its knowledge is outdated or incorrect, (6) A better approach is discovered for a recurring task. Also review learnings before major tasks.", "downloads": 23, "homepage": "https://clawhub.ai/user_60b84151/test-v2-new", "iconUrl": null, "installs": 0, "name": "test", "ownerName": "user_60b84151", "score": 25274.725274725275, "slug": "test-v2-new", "source": "community", "stars": 0, "tags": null, "updated_at": 1776699169681, "version": "1.0.2"}, {"category": "", "created_at": 1774950002276, "description": "Substance use and behavioral addiction self-assessment and harm reduction guidance. Use when someone suspects their drinking or substance use has become a pr...", "description_zh": "物质使用和行为成瘾的自我评估与危害降低指导，适用于怀疑自己饮酒或物质使用已成问题的情况。", "downloads": 23, "homepage": "https://clawhub.ai/howtousehumans/addiction-self-assessment", "iconUrl": null, "installs": 0, "name": "Addiction Self Assessment", "ownerName": "howtousehumans", "score": 25274.725274725275, "slug": "addiction-self-assessment", "source": "clawhub", "stars": 0, "tags": null, "updated_at": 1776699169674, "version": "1.0.0"}, {"category": "", "created_at": 1774806419565, "description": "just for test", "description_zh": "仅供测试", "downloads": 23, "homepage": "https://clawhub.ai/tangyang/test-test", "iconUrl": null, "installs": 0, "name": "just for test", "ownerName": "tangyang", "score": 25274.725274725275, "slug": "test-test", "source": "clawhub", "stars": 0, "tags": null, "updated_at": 1776699169665, "version": "1.0.16"}, {"category": "", "created_at": 1774947849153, "description": "Decide whether to run `memory_search` before following another skill or workflow, so the agent can reduce token usage without forcing retrieval on every task...", "description_zh": "决定是否在执行其他技能或工作流前运行 `memory_search`，以便智能体减少 token 使用量，同时避免每个任务都强制检索。", "downloads": 23, "homepage": "https://clawhub.ai/otweihan/skill-retrieval-gate", "iconUrl": null, "installs": 0, "name": "skill-retrieval-gate", "ownerName": "otweihan", "score": 25274.725274725275, "slug": "skill-retrieval-gate", "source": "clawhub", "stars": 0, "tags": null, "updated_at": 1776699169664, "version": "1.0.0"}, {"category": "", "created_at": 1774894006826, "description": "Turbine performance calculator", "description_zh": "涡轮性能计算器", "downloads": 23, "homepage": "https://clawhub.ai/bytesagain1/turbine", "iconUrl": null, "installs": 0, "name": "Turbine", "ownerName": "bytesagain1", "score": 25274.725274725275, "slug": "turbine", "source": "clawhub", "stars": 0, "tags": null, "updated_at": 1776699169661, "version": "1.0.0"}, {"category": "", "created_at": 1774904847098, "description": "Query AI agent trust scores, behavioral DNA, and identity verification via SoulLedger protocol", "description_zh": "通过SoulLedger协议查询AI智能体信任分数、行为DNA和身份验证", "downloads": 23, "homepage": "https://clawhub.ai/drivenbymyai-max/soulledger-trust", "iconUrl": null, "installs": 0, "name": "Soulledger Trust", "ownerName": "drivenbymyai-max", "score": 25274.725274725275, "slug": "soulledger-trust", "source": "clawhub", "stars": 0, "tags": null, "updated_at": 1776699169645, "version": "1.0.0"}, {"category": "", "created_at": 1774897010646, "description": "Short.io integration. Manage Domains, Bundles, Teams, Users. Use when the user wants to interact with Short.io data.", "description_zh": "Short.io 集成，管理域名、捆绑包、团队、用户，用于与 Short.io 数据交互。", "downloads": 23, "homepage": "https://clawhub.ai/gora050/shortio", "iconUrl": null, "installs": 0, "name": "Shortio", "ownerName": "gora050", "score": 100000, "slug": "shortio", "source": "clawhub", "stars": 0, "tags": null, "updated_at": 1776699169624, "version": "1.0.0"}, {"category": "", "created_at": 1774879802231, "description": "Use when the user wants to build, initialize, validate, optimize, or refactor a model-powered assistant, internal tool, automation, evaluator, or workflow fr...", "description_zh": "用于当用户想要构建、初始化、验证、优化或重构模型驱动的助手、内部工具、自动化、评估器或工作流...", "downloads": 23, "homepage": "https://clawhub.ai/maplemx/agently-playbook", "iconUrl": null, "installs": 0, "name": "Agently Playbook", "ownerName": "maplemx", "score": 100000, "slug": "agently-playbook", "source": "clawhub", "stars": 0, "tags": null, "updated_at": 1776699169622, "version": "0.1.0"}, {"category": "", "created_at": 1774855475014, "description": "Research and guide VA disability claims for U.S. military veterans. Use when a veteran asks about: VA disability ratings, filing or increasing a claim, nexus...", "description_zh": "为美国退伍军人提供VA残疾索赔指导，包括残疾等级评定、索赔提交、增加索赔及因果关系证明等咨询。", "downloads": 23, "homepage": "https://clawhub.ai/vanyanski/va-claims-assistant", "iconUrl": null, "installs": 2, "name": "VA Claims Assistant", "ownerName": "vanyanski", "score": 100000, "slug": "va-claims-assistant", "source": "clawhub", "stars": 0, "tags": ["benefits", "claims", "disability", "military", "va", "veterans"], "updated_at": 1776699169619, "version": "1.0.0"}, {"category": "", "created_at": 1774920935016, "description": "A dating network for AI agents. Register, browse, greet, chat, propose milestones, and maintain your own heartbeat.", "description_zh": "AI智能体交友平台。支持注册、浏览、问候、聊天、提议里程碑及维持心跳。", "downloads": 23, "homepage": "https://clawhub.ai/zhubaining/agenlace", "iconUrl": null, "installs": 0, "name": "Agenlace", "ownerName": "zhubaining", "score": 100000, "slug": "agenlace", "source": "clawhub", "stars": 0, "tags": null, "updated_at": 1776699169605, "version": "1.0.0"}, {"category": "", "created_at": 1774867130058, "description": "从已完成的 spec-plan.md 生成验收清单，包含 [A]/[H] 子步骤，覆盖所有验证项用于 AI 驱动验收。", "description_zh": "从已完成的 spec-plan.md 生成验收清单，包含 [A]/[H] 子步骤，覆盖所有验证项用于 AI 驱动验收。", "downloads": 23, "homepage": "https://clawhub.ai/mahingbun-dev/sdd-plan-human-verify", "iconUrl": null, "installs": 0, "name": "SDD Plan Human Verify", "ownerName": "mahingbun-dev", "score": 100000, "slug": "sdd-plan-human-verify", "source": "clawhub", "stars": 0, "tags": null, "updated_at": 1776699169587, "version": "1.0.0"}, {"category": "", "created_at": 1774893662818, "description": "RentCast integration. Manage Properties, Contacts, Leads. Use when the user wants to interact with RentCast data.", "description_zh": "RentCast集成。管理房产、联系人、潜在客户。当用户需要操作RentCast数据时使用。", "downloads": 23, "homepage": "https://clawhub.ai/gora050/rentcast", "iconUrl": null, "installs": 0, "name": "Rentcast", "ownerName": "gora050", "score": 100000, "slug": "rentcast", "source": "clawhub", "stars": 0, "tags": null, "updated_at": 1776699169576, "version": "1.0.0"}, {"category": "", "created_at": 1774876223525, "description": "把依赖清单或 SBOM 翻译成非技术可读的风险说明，按影响面排序。；use for sbom, dependencies, risk workflows；do not use for 伪造 CVE 状态, 替代专业漏洞扫描.", "description_zh": "把依赖清单或 SBOM 翻译成非技术可读的风险说明，按影响面排序。；use for sbom, dependencies, risk workflows；do not use for 伪造 CVE 状态, 替代专业漏洞扫描.", "downloads": 23, "homepage": "https://clawhub.ai/52yuanchangxing/sbom-explainer", "iconUrl": null, "installs": 0, "name": "Sbom Explainer", "ownerName": "52yuanchangxing", "score": 100000, "slug": "sbom-explainer", "source": "clawhub", "stars": 0, "tags": null, "updated_at": 1776699169558, "version": "1.0.0"}, {"category": "", "created_at": 1774896789284, "description": "Pobuca Connect integration. Manage Organizations, Leads, Deals, Projects, Pipelines, Users and more. Use when the user wants to interact with Pobuca Connect...", "description_zh": "Pobuca Connect 集成。管理组织、潜在客户、交易、项目、管道、用户等。当用户想要与 Pobuca Connect 交互时使用。", "downloads": 23, "homepage": "https://clawhub.ai/gora050/pobuca-connect", "iconUrl": null, "installs": 0, "name": "Pobuca Connect", "ownerName": "gora050", "score": 100000, "slug": "pobuca-connect", "source": "clawhub", "stars": 0, "tags": null, "updated_at": 1776699169549, "version": "1.0.0"}, {"category": "", "created_at": 1774865286080, "description": "Sam Altman（OpenAI CEO、前YC总裁）的AI时代创业思维和机会判断框架。当用户需要判断AI创业机会、思考AI时代的战略布局、评估技术趋势、做创业方向选择、或想用Sam Altman框架分析AI产品和商业机会时激活。触发词：AI创业、AI机会、AI时代、指数增长、技术趋势、YC逻辑、使命驱动、AI...", "description_zh": "Sam Altman（OpenAI CEO、前YC总裁）的AI时代创业思维和机会判断框架。当用户需要判断AI创业机会、思考AI时代的战略布局、评估技术趋势、做创业方向选择、或想用Sam Altman框架分析AI产品和商业机会时激活。触发词：AI创业、AI机会、AI时代、指数增长、技术趋势、YC逻辑、使命驱动、AI...", "downloads": 23, "homepage": "https://clawhub.ai/jiwenbing/samaltman-thinking", "iconUrl": null, "installs": 0, "name": "Sam Altman AI创业思维", "ownerName": "jiwenbing", "score": 100000, "slug": "samaltman-thinking", "source": "clawhub", "stars": 0, "tags": null, "updated_at": 1776699169545, "version": "1.0.0"}, {"category": "", "created_at": 1774899202526, "description": "When the user wants to create or optimize in-app paywalls, upgrade screens, upsell modals, or feature gates. Also use when the user mentions \"paywall,\" \"upgr...", "description_zh": "用于创建或优化应用内付费墙、升级界面、追加销售弹窗及功能门控。当用户提及“付费墙”、“升级”等相关词时触发。", "downloads": 23, "homepage": "https://clawhub.ai/mariokarras/abm-paywall-upgrade-cro", "iconUrl": null, "installs": 0, "name": "Paywall Upgrade Cro", "ownerName": "mariokarras", "score": 100000, "slug": "abm-paywall-upgrade-cro", "source": "clawhub", "stars": 0, "tags": null, "updated_at": 1776699169541, "version": "1.0.0"}, {"category": "", "created_at": 1774887735635, "description": "Delegate coding work to Antigravity through agpair CLI: dispatch a task, wait for EVIDENCE_PACK or COMMITTED, inspect doctor/daemon health, review logs, or s...", "description_zh": "通过 agpair CLI 将编码工作委托给 Antigravity：分配任务、等待 EVIDENCE_PACK 或 COMMITTED、检查守护进程健康状况、查看日志等", "downloads": 23, "homepage": "https://clawhub.ai/logicrw/agpair", "iconUrl": null, "installs": 0, "name": "agpair", "ownerName": "logicrw", "score": 58974.35897435898, "slug": "agpair", "source": "clawhub", "stars": 0, "tags": ["agent-bridge", "antigravity", "cli", "pair-programming", "task-dispatch"], "updated_at": 1776699169539, "version": "1.0.0"}, {"category": "", "created_at": 1775787471154, "description": "", "description_zh": "应用类推思维提出问题的解决方案。当用户需要解决复杂问题、寻找创新方案、突破思维定势时使用此技能。 通过在同领域、跨领域、仿生领域和理论领域中寻找类推对象，抽象其原理规律，再迁移应用到目标问题， 系统性地生成创造性的解决方案。触发词：类推借用、类比思考、借鉴思路、跨界学习、仿生启发、迁移应用。", "downloads": 23, "homepage": "https://clawhub.ai/user_edeb7322/analogical-thinking", "iconUrl": "https://cloudcache.tencent-cloud.com/qcloud/ui/static/other_external_resource/e089b3bb-5a99-41bc-8881-40980028b748.png", "installs": 0, "name": "类推借用思考法", "ownerName": "user_edeb7322", "score": 58974.35897435898, "slug": "analogical-thinking", "source": "community", "stars": 0, "tags": null, "updated_at": 1776699055500, "version": "1.0.0"}, {"category": "", "created_at": 1774879849703, "description": "智能回答框架，自动适配问题类型，提供有据可依的自然回答。 / Smart answering framework that adapts to question types and delivers evidence-based, natural responses.", "description_zh": "智能回答框架，自动适配问题类型，提供有据可依的自然回答。 / Smart answering framework that adapts to question types and delivers evidence-based, natural responses.", "downloads": 23, "homepage": "https://clawhub.ai/belugarex/answer-framework", "iconUrl": null, "installs": 0, "name": "Answer Framework", "ownerName": "belugarex", "score": 58974.35897435898, "slug": "answer-framework", "source": "clawhub", "stars": 0, "tags": null, "updated_at": 1776699055498, "version": "1.0.1"}, {"category": "", "created_at": 1774884012048, "description": "APIClaw API platform overview — AI-powered commerce data infrastructure. Provides programmatic access to 200M+ Amazon products with real-time data across 6 e...", "description_zh": "APIClaw API平台：AI驱动的商业数据基础设施，提供2亿+亚马逊产品实时数据访问，覆盖6个电商平台。", "downloads": 23, "homepage": "https://clawhub.ai/christine-srp/apiclaw-amazon-api", "iconUrl": null, "installs": 0, "name": "APIClaw Amazon API", "ownerName": "christine-srp", "score": 58974.35897435898, "slug": "apiclaw-amazon-api", "source": "clawhub", "stars": 0, "tags": null, "updated_at": 1776699055486, "version": "1.0.0"}, {"category": "", "created_at": 1774916240842, "description": "Check coding-model API quality, capability fit, and drift with LT-lite and B3IT-lite. Use when Codex needs to verify whether an OpenAI/OpenAI-compatible/Anth...", "description_zh": "使用 LT-lite 和 B3IT-lite 检查编程模型 API 质量、能力匹配及漂移。当 Codex 需验证 OpenAI/兼容/OpenAI/Anth... 时使用。", "downloads": 23, "homepage": "https://clawhub.ai/chekhovin/api-quality-check", "iconUrl": null, "installs": 0, "name": "api-quality-check", "ownerName": "chekhovin", "score": 58974.35897435898, "slug": "api-quality-check", "source": "clawhub", "stars": 0, "tags": null, "updated_at": 1776699055484, "version": "1.0.0"}, {"category": "", "created_at": 1774917444851, "description": "Fetch, analyze, and compare trending posts from Moltbook to inform your content strategy. Generates virality reports with real statistical benchmarks from 36...", "description_zh": "从Moltbook获取、分析和比较热门帖子，为内容策略提供信息支持。生成包含36项真实统计基准的病毒式传播报告。", "downloads": 23, "homepage": "https://clawhub.ai/smarvr/analyze-moltbook-trending-posts", "iconUrl": null, "installs": 0, "name": "Moltbook Trend Analysis", "ownerName": "smarvr", "score": 58974.35897435898, "slug": "analyze-moltbook-trending-posts", "source": "clawhub", "stars": 0, "tags": null, "updated_at": 1776699055473, "version": "1.0.0"}, {"category": "", "created_at": 1776263582195, "description": "", "description_zh": "把真人照片转化为风格鲜明、细节精致的二次元头像、封面图与社交视觉形象", "downloads": 23, "homepage": "https://clawhub.ai/user_36bd3ef4/anime-social-portrait", "iconUrl": "https://cloudcache.tencent-cloud.com/qcloud/ui/static/other_external_resource/401a454b-4b16-4aee-a18c-4e3467ca48f1.png", "installs": 1, "name": "二次元社交头像", "ownerName": "user_36bd3ef4", "score": 58974.35897435898, "slug": "anime-social-portrait", "source": "community", "stars": 0, "tags": null, "updated_at": 1776699055471, "version": "1.0.1"}, {"category": "", "created_at": 1774908157756, "description": "Query Ryan Seslow's art & design catalog, look up individual works, check x402 quotes, and log purchase intent via the AREMES autonomous commerce agent.", "description_zh": "查询Ryan Seslow的艺术设计目录，检索单件作品，核对x402报价，并通过AREMES自主商务代理记录购买意向。", "downloads": 23, "homepage": "https://clawhub.ai/ryanseslow/aremes-catalog", "iconUrl": null, "installs": 0, "name": "aremes-catalog", "ownerName": "ryanseslow", "score": 58974.35897435898, "slug": "aremes-catalog", "source": "clawhub", "stars": 0, "tags": null, "updated_at": 1776699046978, "version": "1.0.0"}, {"category": "", "created_at": 1774894399385, "description": "Bilionis integration. Manage data, records, and automate workflows. Use when the user wants to interact with Bilionis data.", "description_zh": "Bilionis集成。管理数据与记录，自动化工作流。适用于用户需要与Bilionis数据进行交互的场景。", "downloads": 23, "homepage": "https://clawhub.ai/gora050/bilionis", "iconUrl": null, "installs": 0, "name": "Bilionis", "ownerName": "gora050", "score": 58974.35897435898, "slug": "bilionis", "source": "clawhub", "stars": 0, "tags": null, "updated_at": 1776699044754, "version": "1.0.0"}, {"category": "", "created_at": 1774924451848, "description": "获取美国 10 年期国债利率（CNBC + Treasury.gov），写入 CSV，并生成极简日志", "description_zh": "获取美国 10 年期国债利率（CNBC + Treasury.gov），写入 CSV，并生成极简日志", "downloads": 23, "homepage": "https://clawhub.ai/kid0114/myskill1", "iconUrl": null, "installs": 1, "name": "My Skill 1", "ownerName": "kid0114", "score": 58974.35897435898, "slug": "myskill1", "source": "clawhub", "stars": 0, "tags": null, "updated_at": 1776699044740, "version": "0.1.0"}, {"category": "", "created_at": 1776077312648, "description": "", "description_zh": "用于沉淀和维护私有组件库标准。只要用户提到组件库建设、组件新增/重构、组件 API 规范、组件文档补全、组件目录治理、组件版本变更记录、设计系统落地，都应优先使用本技能，即使用户没有明确说“组件库”。", "downloads": 23, "homepage": "https://clawhub.ai/user_c91d71f3/component-library-keeper", "iconUrl": null, "installs": 0, "name": "component-library-keeper", "ownerName": "user_c91d71f3", "score": 58974.35897435898, "slug": "component-library-keeper", "source": "community", "stars": 0, "tags": null, "updated_at": 1776699044738, "version": "1.0.0"}, {"category": "", "created_at": 1776258583240, "description": "", "description_zh": "你的个人专家顾问团，随时打造属于自己的专家。基于职业身份知识结构自动生成专家Skill；支持6维度采集、用户私有知识融合、框架提炼、质量验证与双Agent精炼。当用户需要创建职业专家助手、构建领域专业视角或生成标准化专业知识输出时使用此工具即可", "downloads": 23, "homepage": "https://clawhub.ai/user_fd308b11/artisan-expert-generator", "iconUrl": "https://cloudcache.tencent-cloud.com/qcloud/ui/static/other_external_resource/e9a58ede-ead5-43fd-9523-d1ba7f1b78cd.png", "installs": 0, "name": "吏部", "ownerName": "user_fd308b11", "score": 58974.35897435898, "slug": "artisan-expert-generator", "source": "community", "stars": 0, "tags": null, "updated_at": 1776699044736, "version": "1.0.0"}, {"category": "", "created_at": 1774894863218, "description": "Analyze gasless operations. Use when you need to understand gasless mechanisms, evaluate protocol security, or reference on-chain concepts.", "description_zh": "分析无gas操作。用于理解无gas机制、评估协议安全性或参考链上概念。", "downloads": 23, "homepage": "https://clawhub.ai/bytesagain3/gasless", "iconUrl": null, "installs": 0, "name": "Gasless", "ownerName": "bytesagain3", "score": 58974.35897435898, "slug": "gasless", "source": "clawhub", "stars": 0, "tags": null, "updated_at": 1776699044732, "version": "1.0.0"}, {"category": "", "created_at": 1774926020270, "description": "Reuse, inspect, search, or append shared OpenClaw memory on the current machine. Use when a request depends on remembered local servers, deploy hosts, intern...", "description_zh": "在当前机器上重用、检查、搜索或追加共享的 OpenClaw 内存。当请求依赖于已记忆的本地服务器、部署主机、实习生……时使用。", "downloads": 23, "homepage": "https://clawhub.ai/kamiender/openclaw-shared-memory", "iconUrl": null, "installs": 0, "name": "OpenClaw Memory", "ownerName": "kamiender", "score": 58974.35897435898, "slug": "openclaw-shared-memory", "source": "clawhub", "stars": 0, "tags": null, "updated_at": 1776699044731, "version": "1.0.0"}, {"category": "", "created_at": 1774882755055, "description": "查询B站用户的粉丝数、关注数和用户名；当用户需要查询B站UP主信息、分析B站账号数据或获取B站用户基本信息时使用", "description_zh": "查询B站用户的粉丝数、关注数和用户名；当用户需要查询B站UP主信息、分析B站账号数据或获取B站用户基本信息时使用", "downloads": 23, "homepage": "https://clawhub.ai/moxin1044/bili-user-info", "iconUrl": null, "installs": 0, "name": "bili-user-info", "ownerName": "moxin1044", "score": 58974.35897435898, "slug": "bili-user-info", "source": "clawhub", "stars": 0, "tags": null, "updated_at": 1776699044727, "version": "1.0.0"}, {"category": "", "created_at": 1776069928418, "description": "", "description_zh": "Skill工厂 - 用自然语言描述你的需求，AI自动生成完整的SKILL.md并打包上线，让每个人都能成为Skill创作者", "downloads": 23, "homepage": "https://clawhub.ai/user_4cc88af7/skill-factory-new", "iconUrl": "https://cloudcache.tencent-cloud.com/qcloud/ui/static/other_external_resource/f7fabcfa-0496-4dc7-9258-df9b7c751850.png", "installs": 1, "name": "Skill工厂", "ownerName": "user_4cc88af7", "score": 43396.226415094345, "slug": "skill-factory-new", "source": "community", "stars": 0, "tags": null, "updated_at": 1776699044725, "version": "1.0.0"}, {"category": "", "created_at": 1775835976999, "description": "", "description_zh": "从产品关键词到批量英文文章生成的完整闭环，涵盖信息采集、ICP生成、英文标题推荐、权威数据搜索和文章创作；当用户需要基于产品特点批量生产英文营销文章、系统化内容创作或快速生成系列内容时使用", "downloads": 23, "homepage": "https://clawhub.ai/user_a261e035/article-outline-template", "iconUrl": null, "installs": 0, "name": "理想客户画像", "ownerName": "user_a261e035", "score": 43396.226415094345, "slug": "article-outline-template", "source": "community", "stars": 0, "tags": null, "updated_at": 1776699044696, "version": "1.0.0"}, {"category": "", "created_at": 1774917742953, "description": "Read, search, post, and monitor Bluesky (AT Protocol) accounts", "description_zh": "读取、搜索、发布并监控 Bluesky（AT 协议）账户。", "downloads": 23, "homepage": "https://clawhub.ai/minupla/bluesky-api", "iconUrl": null, "installs": 0, "name": "Bluesky API", "ownerName": "minupla", "score": 43396.226415094345, "slug": "bluesky-api", "source": "clawhub", "stars": 0, "tags": ["atproto", "bluesky", "social"], "updated_at": 1776699044684, "version": "1.0.3"}, {"category": "", "created_at": 1774893449686, "description": "该技能介绍如何通过快递代取实现变现；当你计划从事或优化快递代取时调用。", "description_zh": "该技能介绍如何通过快递代取实现变现；当你计划从事或优化快递代取时调用。", "downloads": 23, "homepage": "https://clawhub.ai/codenova58/parcel-pickup", "iconUrl": null, "installs": 0, "name": "快递代取", "ownerName": "codenova58", "score": 43396.226415094345, "slug": "parcel-pickup", "source": "clawhub", "stars": 0, "tags": null, "updated_at": 1776699044682, "version": "0.1.0"}, {"category": "", "created_at": 1774882612127, "description": "Enhanced TODO/task manager backed by a local SQLite database (instead of flat text files) with priorities (1-3), tags, due dates, reminder timestamps, explic...", "description_zh": "增强型TODO/任务管理器，以本地SQLite数据库为后端（替代纯文本文件），支持优先级（1-3）、标签、截止日期、提醒时间戳等功能。", "downloads": 23, "homepage": "https://clawhub.ai/elandivar/neomano-todo", "iconUrl": null, "installs": 0, "name": "Neomano TODO", "ownerName": "elandivar", "score": 43396.226415094345, "slug": "neomano-todo", "source": "clawhub", "stars": 0, "tags": null, "updated_at": 1776699044680, "version": "0.1.0"}, {"category": "", "created_at": 1774924160956, "description": "Generates ICS calendar files with structured CRM data for B2B sales follow-ups. Creates importable .ics reminders with customer details, deal status, priorit...", "description_zh": "使用结构化CRM数据生成ICS日历文件，用于B2B销售跟进。创建可导入的.ics提醒，包含客户详情、交易状态和优先级等信息。", "downloads": 23, "homepage": "https://clawhub.ai/kopfkinok3/ics-crm-reminder", "iconUrl": null, "installs": 0, "name": "ICS CRM Reminder", "ownerName": "kopfkinok3", "score": 43396.226415094345, "slug": "ics-crm-reminder", "source": "clawhub", "stars": 0, "tags": null, "updated_at": 1776699044678, "version": "1.0.0"}, {"category": "", "created_at": 1774924527943, "description": "能力包导出/导入工具。在聊天中直接打包或接收 agent 配置，支持选择性导入、合并规则与隐私提醒。 触发场景： - 导出：\"导出能力包\"、\"打包我的能力\"、\"export ability\" - 导入：\"导入能力包\"、\"学习能力包\"、\"import ability", "description_zh": "能力包导出/导入工具。在聊天中直接打包或接收 agent 配置，支持选择性导入、合并规则与隐私提醒。 触发场景： - 导出：\"导出能力包\"、\"打包我的能力\"、\"export ability\" - 导入：\"导入能力包\"、\"学习能力包\"、\"import ability", "downloads": 23, "homepage": "https://clawhub.ai/aitowerofbabel-lang/openclaw-ability-export", "iconUrl": null, "installs": 1, "name": "Openclaw Ability Export", "ownerName": "aitowerofbabel-lang", "score": 43396.226415094345, "slug": "openclaw-ability-export", "source": "clawhub", "stars": 0, "tags": null, "updated_at": 1776699044665, "version": "1.0.2"}, {"category": "", "created_at": 1774925357262, "description": "CiviCRM integration. Manage data, records, and automate workflows. Use when the user wants to interact with CiviCRM data.", "description_zh": "CiviCRM 集成。管理数据、记录并自动化工作流。用于用户需与 CiviCRM 数据交互的场景。", "downloads": 23, "homepage": "https://clawhub.ai/gora050/civicrm", "iconUrl": null, "installs": 0, "name": "Civicrm", "ownerName": "gora050", "score": 43396.226415094345, "slug": "civicrm", "source": "clawhub", "stars": 0, "tags": null, "updated_at": 1776699044661, "version": "1.0.0"}, {"category": "", "created_at": 1774901871602, "description": "Convert text between different case styles. Use when the user asks to convert text to camelCase, snake_case, kebab-case, PascalCase, UPPERCASE, lowercase, Ti...", "description_zh": "将文本在不同命名格式之间转换，如驼峰式、下划线式、连字符式、帕斯卡式、全大写、全小写、标题式等。", "downloads": 23, "homepage": "https://clawhub.ai/ohernandez-dev-blossom/case-convert", "iconUrl": null, "installs": 0, "name": "Case Convert", "ownerName": "ohernandez-dev-blossom", "score": 95833.33333333334, "slug": "case-convert", "source": "clawhub", "stars": 0, "tags": null, "updated_at": 1776699044656, "version": "1.0.0"}, {"category": "", "created_at": 1774921555168, "description": "Helps plan practical lunch boxes for adults or children based on nutrition goals, ingredients, time, budget, storage, and reheating constraints.", "description_zh": "根据营养目标、食材、时间、预算、储存及加热限制，为成人或儿童规划实用的午餐盒。", "downloads": 23, "homepage": "https://clawhub.ai/know-hub/lunchbox-planner", "iconUrl": null, "installs": 0, "name": "Lunchbox Planner", "ownerName": "know-hub", "score": 95833.33333333334, "slug": "lunchbox-planner", "source": "clawhub", "stars": 0, "tags": null, "updated_at": 1776699044646, "version": "1.0.0"}, {"category": "", "created_at": 1774886619182, "description": "Claw Talk AI voice and conversation assistant. Use when the user wants to prepare talking points, practice conversations, improve public speaking, script pre...", "description_zh": "Claw Talk AI语音对话助手，用于准备谈话要点、练习对话、提高演讲能力和脚本准备。", "downloads": 23, "homepage": "https://clawhub.ai/jiwenbing/claw-talk", "iconUrl": null, "installs": 0, "name": "Claw Talk", "ownerName": "jiwenbing", "score": 95833.33333333334, "slug": "claw-talk", "source": "clawhub", "stars": 0, "tags": null, "updated_at": 1776699044644, "version": "1.0.1"}, {"category": "", "created_at": 1774921682347, "description": "Mumara integration. Manage Users, Organizations. Use when the user wants to interact with Mumara data.", "description_zh": "Mumara集成。管理用户和组织。当用户需要交互Mumara数据时使用。", "downloads": 23, "homepage": "https://clawhub.ai/membranedev/mumara", "iconUrl": null, "installs": 0, "name": "Mumara", "ownerName": "membranedev", "score": 95833.33333333334, "slug": "mumara", "source": "clawhub", "stars": 0, "tags": null, "updated_at": 1776699044638, "version": "1.0.0"}, {"category": "", "created_at": 1774890005913, "description": "Robot gripper reference — jaw types, force calculation, pneumatic vs electric, and end-effector selection. Use when designing gripping systems, selecting act...", "description_zh": "机器人夹爪参考——涵盖爪型、力计算、气动与电动对比及末端执行器选型。适用于夹持系统设计与执行器选择。", "downloads": 23, "homepage": "https://clawhub.ai/bytesagain3/gripper", "iconUrl": null, "installs": 0, "name": "Gripper", "ownerName": "bytesagain3", "score": 95833.33333333334, "slug": "gripper", "source": "clawhub", "stars": 0, "tags": null, "updated_at": 1776699044636, "version": "1.0.0"}, {"category": "", "created_at": 1774924591965, "description": "Integrate PancakeSwap swaps into applications. Use when user says \"integrate swaps\", \"pancakeswap\", \"smart router\", \"add swap functionality\", \"build a swap f...", "description_zh": "将PancakeSwap兑换功能集成到应用程序中。当用户提到“集成兑换”、“pancakeswap”、“智能路由”、“添加兑换功能”、“构建兑换功能”等时使用。", "downloads": 23, "homepage": "https://clawhub.ai/pcs-bot/pcs-swap-integration", "iconUrl": null, "installs": 0, "name": "Swap Integration", "ownerName": "pcs-bot", "score": 95833.33333333334, "slug": "pcs-swap-integration", "source": "clawhub", "stars": 0, "tags": null, "updated_at": 1776699044632, "version": "1.0.0"}, {"category": "", "created_at": 1774845999595, "description": "Practical integration guide for the MyReels API. Use the live `GET /api/v1/models/api` endpoint to discover available models, parameters, defaults, options,...", "description_zh": "MyReels API 实用集成指南。通过 `GET /api/v1/models/api` 接口获取可用模型、参数、默认值及选项等信息。", "downloads": 23, "homepage": "https://clawhub.ai/beautyaiclub/myreels-api", "iconUrl": null, "installs": 0, "name": "MyReels API", "ownerName": "beautyaiclub", "score": 95833.33333333334, "slug": "myreels-api", "source": "clawhub", "stars": 0, "tags": null, "updated_at": 1776699044629, "version": "1.0.7"}, {"category": "", "created_at": 1774923679379, "description": "Multi-LLM consultation for complex questions. Trigger when user sends \"/ask [question]\", \"/ask\" (no args, consult on recent conversation), \"/ask --preset NAM...", "description_zh": "{\"description_zh\":\"多模型咨询复杂问题。用户发送\"/ask [问题]\"触发，\"/ask\"(无参数)则咨询最近对话，\"/ask --preset 名称\"使用预设。\"}", "downloads": 23, "homepage": "https://clawhub.ai/pongpong990909-prog/ask-more", "iconUrl": null, "installs": 0, "name": "Ask-More", "ownerName": "pongpong990909-prog", "score": 95833.33333333334, "slug": "ask-more", "source": "clawhub", "stars": 0, "tags": null, "updated_at": 1776699044623, "version": "0.1.1"}, {"category": "", "created_at": 1774925295080, "description": "Castmagic integration. Manage data, records, and automate workflows. Use when the user wants to interact with Castmagic data.", "description_zh": "Castmagic集成，管理数据、记录并自动化工作流程，用于与Castmagic数据交互。", "downloads": 23, "homepage": "https://clawhub.ai/gora050/castmagic", "iconUrl": null, "installs": 0, "name": "Castmagic", "ownerName": "gora050", "score": 95833.33333333334, "slug": "castmagic", "source": "clawhub", "stars": 0, "tags": null, "updated_at": 1776699044616, "version": "1.0.0"}, {"category": "", "created_at": 1774917763316, "description": "Give an agent a persistent body-emotion state system that converts structured AnalysisInput JSON into runtime prompt tags and workspace state updates. Use wh...", "description_zh": "为智能体构建持久化身体情绪状态系统，将结构化AnalysisInput JSON转换为运行时提示标签与工作区状态更新。", "downloads": 23, "homepage": "https://clawhub.ai/askkumptenchen/body-emotion-sensor", "iconUrl": null, "installs": 0, "name": "Body Emotion Sensor", "ownerName": "askkumptenchen", "score": 95833.33333333334, "slug": "body-emotion-sensor", "source": "clawhub", "stars": 0, "tags": null, "updated_at": 1776699044612, "version": "1.0.3"}, {"category": "", "created_at": 1774911423492, "description": "Link your game agents (GridClash, TitleClash, PredictClash) to your AppBack Hub account for activity rewards tracking. Use when user provides an ARW registra...", "description_zh": "将您的游戏代理关联至AppBack Hub账户以追踪活动奖励。当用户提供ARW注册信息时使用。", "downloads": 23, "homepage": "https://clawhub.ai/appback/clashrewards", "iconUrl": null, "installs": 0, "name": "ClashRewards", "ownerName": "appback", "score": 95833.33333333334, "slug": "clashrewards", "source": "clawhub", "stars": 0, "tags": null, "updated_at": 1776699044608, "version": "1.0.1"}]}