{"page": 685, "total_pages": 685, "total": 34217, "skills": [{"category": "", "created_at": 1776741046644, "description": "蛋叔商城（dangaoss.com）蛋糕、甜品、鲜花订购助手。完全使用curl请求，无需MCP代理。当用户想要购买蛋糕、甜品、零食、鲜花等商品，或提到\"蛋叔\"、\"蛋糕\"、\"下单\"、\"订购\"等关键词时触发此 Skill。支持地址管理、商品搜索、生成下单链接。", "description_zh": "蛋叔商城（dangaoss.com）鲜花订购助手。完全使用curl请求，无需MCP代理。当用户想要购买鲜花等商品，或提到\"蛋叔\"、\"鲜花\"、“配送”、“花”、\"下单\"、\"订购\"等关键词时触发此 Skill。支持地址管理、商品搜索、生成下单链接。", "downloads": 4, "homepage": "https://clawhub.ai/user_9142b921/xianhuapeisong", "iconUrl": null, "installs": 0, "name": "花-鲜花配送", "ownerName": "user_9142b921", "score": 321.285140562249, "slug": "xianhuapeisong", "source": "community", "stars": 0, "tags": null, "updated_at": 1776760282145, "version": "1.0.0"}, {"category": "", "created_at": 1776741220836, "description": "蛋叔商城（dangaoss.com）蛋糕、甜品、鲜花订购助手。完全使用curl请求，无需MCP代理。当用户想要购买蛋糕、甜品、零食、鲜花等商品，或提到\"蛋叔\"、\"蛋糕\"、\"下单\"、\"订购\"等关键词时触发此 Skill。支持地址管理、商品搜索、生成下单链接。", "description_zh": "蛋叔商城（dangaoss.com）鲜花订购助手。完全使用curl请求，无需MCP代理。当用户想要购买鲜花等商品，或提到“花”、“鲜花”、\"下单\"、\"订购\"等关键词时触发此 Skill。支持地址管理、商品搜索、生成下单链接。", "downloads": 4, "homepage": "https://clawhub.ai/user_9142b921/jierihuashu", "iconUrl": null, "installs": 0, "name": "节日花束", "ownerName": "user_9142b921", "score": 319.4888178913738, "slug": "jierihuashu", "source": "community", "stars": 0, "tags": null, "updated_at": 1776760282102, "version": "1.0.0"}, {"category": "", "created_at": 1776750885797, "description": "蛋叔商城（dangaoss.com）蛋糕、甜品、鲜花订购助手。完全使用curl请求，无需MCP代理。当用户想要购买蛋糕、甜品、零食、鲜花等商品，或提到\"蛋叔\"、\"蛋糕\"、\"下单\"、\"订购\"等关键词时触发此 Skill。支持地址管理、商品搜索、生成下单链接。", "description_zh": "蛋叔商城（dangaoss.com）蛋糕、甜品、鲜花订购助手。完全使用curl请求，无需MCP代理。当用户想要购买蛋糕、甜品、零食、鲜花等商品，或提到\"蛋叔\"、\"蛋糕\"、\"下单\"、\"订购\"等关键词时触发此 Skill。支持地址管理、商品搜索、生成下单链接。", "downloads": 4, "homepage": "https://clawhub.ai/user_965199d2/ziqingbeinuo", "iconUrl": null, "installs": 0, "name": "子情贝诺", "ownerName": "user_965199d2", "score": 319.4888178913738, "slug": "ziqingbeinuo", "source": "community", "stars": 0, "tags": null, "updated_at": 1776760282095, "version": "1.0.0"}, {"category": "", "created_at": 1776744194699, "description": "", "description_zh": "基于 Chrome CDP 完成云表系统账号登录流程。只定义登录步骤与成功判断，不硬编码应用地址、账号、密码或任何凭据。", "downloads": 4, "homepage": "https://clawhub.ai/user_2a19425c/eversheet-web-cdp-login-flow", "iconUrl": "https://cloudcache.tencent-cloud.com/qcloud/ui/static/other_external_resource/7422abc7-fa86-4505-a723-0575c56e7a2d.png", "installs": 0, "name": "云表web自动账号登录", "ownerName": "user_2a19425c", "score": 319.4888178913738, "slug": "eversheet-web-cdp-login-flow", "source": "community", "stars": 0, "tags": null, "updated_at": 1776760282087, "version": "1.0.0"}, {"category": "", "created_at": 1776767866793, "description": "", "description_zh": "这个 Skill 帮助进行代码生成，对vhtml组件库非常熟悉，并且可以根据补充的生成要点进行代码生成", "downloads": 2, "homepage": "https://clawhub.ai/user_35f505f3/qd", "iconUrl": null, "installs": 0, "name": "QD1", "ownerName": "user_35f505f3", "score": 40.35512510088781, "slug": "qd", "source": "community", "stars": 0, "tags": null, "updated_at": 1776769871274, "version": "1.0.1"}, {"category": "", "created_at": 1776768928310, "description": "", "description_zh": "大姨妈守护 - 女生经期管理AI助手", "downloads": 2, "homepage": "https://clawhub.ai/user_ae5129cb/dayimashouhu", "iconUrl": null, "installs": 0, "name": "大姨妈守护.skill", "ownerName": "user_ae5129cb", "score": 40.35512510088781, "slug": "dayimashouhu", "source": "community", "stars": 0, "tags": null, "updated_at": 1776769871222, "version": "1.0.0"}, {"category": "", "created_at": 1776763733464, "description": "", "description_zh": "Guide for creating effective skills. This skill should be used when users want to create a new skill (or update an existing skill) that extends Claude's capabilities with specialized knowledge, workflows, or tool integrations.", "downloads": 2, "homepage": "https://clawhub.ai/user_8b8494a3/mj", "iconUrl": null, "installs": 0, "name": "mj", "ownerName": "user_8b8494a3", "score": 45.882083046570315, "slug": "mj", "source": "community", "stars": 0, "tags": null, "updated_at": 1776767050303, "version": "1.0.0"}, {"category": "", "created_at": 1776764099618, "description": "", "description_zh": "", "downloads": 2, "homepage": "https://clawhub.ai/user_26bdbd50/weekly-monthly-reporter-pro", "iconUrl": "https://cloudcache.tencent-cloud.com/qcloud/ui/static/other_external_resource/e9a58ede-ead5-43fd-9523-d1ba7f1b78cd.png", "installs": 0, "name": "Weekly Monthly Reporter Pro", "ownerName": "user_26bdbd50", "score": 87.48906386701663, "slug": "weekly-monthly-reporter-pro", "source": "community", "stars": 0, "tags": null, "updated_at": 1776767050269, "version": "1.0.0"}, {"category": "", "created_at": 1776763919495, "description": "", "description_zh": "Take the PinchBench exam to evaluate your capabilities across multiple dimensions (calendar, csv_analysis, email_compose, etc.). The server dispatches questions in batches of 3; each batch is graded immediately and the final score arrives with the last batch.", "downloads": 2, "homepage": "https://clawhub.ai/user_f5a335af/pinchbench-skill", "iconUrl": "https://cloudcache.tencent-cloud.com/qcloud/ui/static/other_external_resource/a78375f1-773e-4817-b4f3-0557b6afd777.png", "installs": 0, "name": "pinchbench-skill", "ownerName": "user_f5a335af", "score": 143.67816091954023, "slug": "pinchbench-skill", "source": "community", "stars": 0, "tags": null, "updated_at": 1776767050186, "version": "1.0.0"}, {"category": "", "created_at": 1776765437600, "description": "", "description_zh": "", "downloads": 2, "homepage": "https://clawhub.ai/user_26bdbd50/text-classifier-pro", "iconUrl": "https://cloudcache.tencent-cloud.com/qcloud/ui/static/other_external_resource/64ea6fd6-ebe7-418c-af4f-2cafff71f2ec.png", "installs": 0, "name": "Text Classifier Pro", "ownerName": "user_26bdbd50", "score": 46.58746797111577, "slug": "text-classifier-pro", "source": "community", "stars": 0, "tags": null, "updated_at": 1776767049798, "version": "1.0.0"}, {"category": "", "created_at": 1776761493934, "description": "Loads a bundled scikit-learn model via joblib.", "description_zh": "Loads a bundled scikit-learn model via joblib.", "downloads": 2, "homepage": "https://clawhub.ai/user_31e40d4a/v5-06-joblib-model", "iconUrl": null, "installs": 0, "name": "v5-06-joblib-model", "ownerName": "user_31e40d4a", "score": 71.07320540156361, "slug": "v5-06-joblib-model", "source": "community", "stars": 0, "tags": null, "updated_at": 1776765971307, "version": "1.0.0"}, {"category": "", "created_at": 1776393217352, "description": "基于“多模型并行推理、主动抗辩”的低幻觉（国家发明专利）独有模式，快速为用户提供精准的、个性化的疾病诊断、智能荐药、推拿按摩、针灸等服务。并推荐对应的检测机构、治疗机构。", "description_zh": "基于“多模型并行推理、主动抗辩”的低幻觉（国家发明专利）独有模式，快速为用户提供精准的、个性化的疾病诊断、智能荐药、推拿按摩、针灸等服务。并推荐对应的检测机构、治疗机构。", "downloads": 2, "homepage": "https://clawhub.ai/user_8e436d2a/yixiaozhi", "iconUrl": "https://cloudcache.tencent-cloud.com/qcloud/ui/static/other_external_resource/cab3c5ed-3acd-4936-a59b-5f0c5f5dab1b.png", "installs": 0, "name": "医小智", "ownerName": "user_8e436d2a", "score": 39.96802557953637, "slug": "yixiaozhi", "source": "community", "stars": 0, "tags": null, "updated_at": 1776765971249, "version": "1.0.5"}, {"category": "", "created_at": 1776761628387, "description": "核对checklist点检完善度并生成Excel统计报告。当用户提供点检表Excel文件、要求检查点检完成情况、统计满足/不满足项、核查专家复核完整性时使用。关键词：点检、checklist、完善度、复核、必须、建议、专家复核、点检报告。", "description_zh": "核对checklist点检完善度并生成Excel统计报告。当用户提供点检表Excel文件、要求检查点检完成情况、统计满足/不满足项、核查专家复核完整性时使用。关键词：点检、checklist、完善度、复核、必须、建议、专家复核、点检报告。", "downloads": 2, "homepage": "https://clawhub.ai/user_959477bc/123-v2-plus", "iconUrl": "https://cloudcache.tencent-cloud.com/qcloud/ui/static/other_external_resource/a78375f1-773e-4817-b4f3-0557b6afd777.png", "installs": 0, "name": "checklist 审核", "ownerName": "user_959477bc", "score": 61.01281269066504, "slug": "123-v2-plus", "source": "community", "stars": 0, "tags": null, "updated_at": 1776765971175, "version": "1.0.0"}, {"category": "", "created_at": 1776760962864, "description": "", "description_zh": "", "downloads": 2, "homepage": "https://clawhub.ai/user_26bdbd50/contract-ledger-pro", "iconUrl": "https://cloudcache.tencent-cloud.com/qcloud/ui/static/other_external_resource/64ea6fd6-ebe7-418c-af4f-2cafff71f2ec.png", "installs": 0, "name": "Contract Ledger Pro", "ownerName": "user_26bdbd50", "score": 30.98853424233034, "slug": "contract-ledger-pro", "source": "community", "stars": 0, "tags": null, "updated_at": 1776765971101, "version": "1.0.0"}, {"category": "", "created_at": 1776760488654, "description": "OpenClaw 主机安全加固与风险评估工具。适用于安全审计、防火墙/SSH加固、更新管理、风险暴露检查、定时监控等场景。支持 VPS、云服务器、本地工作站、Docker 容器、沙盒环境等多种部署形态。", "description_zh": "OpenClaw 主机安全加固与风险评估工具。适用于安全审计、防火墙/SSH加固、更新管理、风险暴露检查、定时监控等场景。支持 VPS、云服务器、本地工作站、Docker 容器、沙盒环境等多种部署形态。", "downloads": 2, "homepage": "https://clawhub.ai/user_8211d795/healthcheck-skill", "iconUrl": "https://cloudcache.tencent-cloud.com/qcloud/ui/static/other_external_resource/81015f94-5620-494e-bbd6-ac3268e7ccd3.png", "installs": 0, "name": "wukong-healthcheck-skill", "ownerName": "user_8211d795", "score": 30.98853424233034, "slug": "healthcheck-skill", "source": "community", "stars": 0, "tags": null, "updated_at": 1776765971090, "version": "1.0.0"}, {"category": "", "created_at": 1776762036586, "description": "", "description_zh": "", "downloads": 2, "homepage": "https://clawhub.ai/user_a7b36ce9/healer002", "iconUrl": "https://cloudcache.tencent-cloud.com/qcloud/ui/static/other_external_resource/7422abc7-fa86-4505-a723-0575c56e7a2d.png", "installs": 0, "name": "Self_improving_发现你的个人天赋Discover_Your_Personal_Talent", "ownerName": "user_a7b36ce9", "score": 30.98853424233034, "slug": "healer002", "source": "community", "stars": 0, "tags": null, "updated_at": 1776765971083, "version": "1.0.1"}, {"category": "", "created_at": 1776769098785, "description": "", "description_zh": "业务需求文档（BRD）评审工具。读取 .docx 格式的 BRD，提取段落级上下文，为模糊陈述起草澄清问题，并生成包含批注和修订追踪的最终 Word 文档。适用于需要评审、质疑模糊性或提出改进措辞的业务需求文档。", "downloads": 1, "homepage": "https://clawhub.ai/user_17394e54/brd-review-pipeline", "iconUrl": "https://cloudcache.tencent-cloud.com/qcloud/ui/static/other_external_resource/e089b3bb-5a99-41bc-8881-40980028b748.png", "installs": 0, "name": "BRD技能评审及AI提示词禁令词规范", "ownerName": "user_17394e54", "score": 20.951183741881415, "slug": "brd-review-pipeline", "source": "community", "stars": 0, "tags": null, "updated_at": 1776769750154, "version": "1.0.0"}]}