{"page": 71, "total_pages": 685, "total": 34217, "skills": [{"category": "productivity", "created_at": 1773042272191, "description": "OpenClaw Gateway 内置定时任务调度器。用于创建一次性提醒、周期性任务、后台自动化。支持主会话系统事件和独立会话执行，可配置投递到聊天频道或 Webhook。", "description_zh": "OpenClaw Gateway 内置定时任务调度器。用于创建一次性提醒、周期性任务、后台自动化。支持主会话系统事件和独立会话执行，可配置投递到聊天频道或 Webhook。", "downloads": 714, "homepage": "https://clawhub.ai/zyclincoln/openclaw-cron-setup", "iconUrl": null, "installs": 47, "name": "OpenClaw Cron Setup", "ownerName": "zyclincoln", "score": 11431.170406306852, "slug": "openclaw-cron-setup", "source": "clawhub", "stars": 2, "tags": null, "updated_at": 1776766871037, "version": "1.0.0"}, {"category": "productivity", "created_at": 1772773128272, "description": "Compress text semantically with iterative validation, anchor checksums, and verified information preservation.", "description_zh": "使用迭代验证、固定校验和及信息完整性验证进行语义化文本压缩。", "downloads": 713, "homepage": "https://clawhub.ai/ivangdavila/compress", "iconUrl": null, "installs": 30, "name": "Compress", "ownerName": "ivangdavila", "score": 15135.6783919598, "slug": "compress", "source": "clawhub", "stars": 2, "tags": null, "updated_at": 1776766871079, "version": "1.0.0"}, {"category": "security-compliance", "created_at": 1772769758629, "description": "Build backends with PocketBase collections, auth, and realtime.", "description_zh": "使用 PocketBase 的集合、身份验证和实时功能构建后端。", "downloads": 712, "homepage": "https://clawhub.ai/ivangdavila/pocketbase", "iconUrl": null, "installs": 14, "name": "PocketBase", "ownerName": "ivangdavila", "score": 24859.504132231406, "slug": "pocketbase", "source": "clawhub", "stars": 2, "tags": null, "updated_at": 1776767050038, "version": "1.0.0"}, {"category": "content-creation", "created_at": 1772795567670, "description": "Use when creating Unity game scenes and prototypes, building level designs, or automating Unity Editor workflows for terrain, lighting, environment setup, an...", "description_zh": "用于创建Unity游戏场景与原型、构建关卡设计，或自动化Unity编辑器的地形、光照及环境搭建等工作流。", "downloads": 711, "homepage": "https://clawhub.ai/cryptorabea/level-design-patterns", "iconUrl": null, "installs": 196, "name": "Unity Level Design Patterns skill.", "ownerName": "cryptorabea", "score": 21875.910282551704, "slug": "level-design-patterns", "source": "clawhub", "stars": 2, "tags": null, "updated_at": 1776769149785, "version": "0.1.0"}, {"category": "productivity", "created_at": 1772793385279, "description": "自动读取配置的 RSS 链接，抓取并合并多源报道，去重历史推送，生成无 Emoji、高信息密度的 Markdown 简报。", "description_zh": "自动读取配置的 RSS 链接，抓取并合并多源报道，去重历史推送，生成无 Emoji、高信息密度的 Markdown 简报。", "downloads": 709, "homepage": "https://clawhub.ai/hooila/rss-aggregator", "iconUrl": null, "installs": 38, "name": "Rss Aggregator", "ownerName": "hooila", "score": 17182.840100940582, "slug": "rss-aggregator", "source": "clawhub", "stars": 2, "tags": null, "updated_at": 1776767050310, "version": "1.0.2"}, {"category": "developer-tools", "created_at": 1773083277880, "description": "同时发布内容到微博和小红书，使用真实 Chrome 浏览器绕过反机器人检测。支持文字、图片、预览模式和实际发布。当用户需要发布微博、发微博、weibo post、发布小红书、发小红书、xiaohongshu post 时使用此 skill。", "description_zh": "同时发布内容到微博和小红书，使用真实 Chrome 浏览器绕过反机器人检测。支持文字、图片、预览模式和实际发布。当用户需要发布微博、发微博、weibo post、发布小红书、发小红书、xiaohongshu post 时使用此 skill。", "downloads": 707, "homepage": "https://clawhub.ai/conbbo/kb-social-publisher", "iconUrl": null, "installs": 344, "name": "KB Social Publisher", "ownerName": "conbbo", "score": 17400.419287211742, "slug": "kb-social-publisher", "source": "clawhub", "stars": 2, "tags": ["chinese", "social-media", "weibo", "xiaohongshu"], "updated_at": 1776767049791, "version": "1.0.0"}, {"category": "ai-intelligence", "created_at": 1772770242357, "description": "Avoid common Linux kernel mistakes — atomic context violations, allocation failures, and locking traps.", "description_zh": "避免常见的Linux内核错误，包括原子上下文违规、内存分配失败和锁陷阱。", "downloads": 706, "homepage": "https://clawhub.ai/ivangdavila/kernel", "iconUrl": null, "installs": 36, "name": "Kernel", "ownerName": "ivangdavila", "score": 24661.15702479339, "slug": "kernel", "source": "clawhub", "stars": 2, "tags": null, "updated_at": 1776767050070, "version": "1.0.0"}, {"category": "data-analysis", "created_at": 1773080655247, "description": "4-source flight aggregation — tickets, nonstop, round-trip, cabin. 航班机票/零登录/零API, zero login, zero account, zero API key. Pure Python, no browser. 机票价格/航班动态/...", "description_zh": "4-source flight aggregation — tickets, nonstop, round-trip, cabin. 航班机票/零登录/零API, zero login, zero account, zero API key. Pure Python, no browser. 机票价格/航班动态/...", "downloads": 706, "homepage": "https://clawhub.ai/ai4mse/flyclaw", "iconUrl": null, "installs": 36, "name": "FlyClaw", "ownerName": "ai4mse", "score": 24661.15702479339, "slug": "flyclaw", "source": "clawhub", "stars": 2, "tags": null, "updated_at": 1776767049984, "version": "0.3.3"}, {"category": "data-analysis", "created_at": 1772775873823, "description": "Guide presentations end-to-end: analyze audience, craft compelling narratives, design clear slides, coach delivery, and ensure effective follow-up.", "description_zh": "全程指导演示：分析受众需求，撰写引人入胜的叙事，设计清晰幻灯片，指导演讲技巧，确保后续跟进有效。", "downloads": 704, "homepage": "https://clawhub.ai/1kalin/afrexai-presentation-mastery", "iconUrl": null, "installs": 27, "name": "Presentation Mastery", "ownerName": "1kalin", "score": 8031.088082901554, "slug": "afrexai-presentation-mastery", "source": "clawhub", "stars": 2, "tags": ["deck", "delivery", "design", "pitch", "presentation", "public-speaking", "slides"], "updated_at": 1776767050153, "version": "1.0.0"}, {"category": "data-analysis", "created_at": 1772787923294, "description": "Dune Analytics API skill for querying, analyzing, and uploading blockchain data. Use this skill whenever the user mentions Dune, on-chain data, blockchain an...", "description_zh": "用于查询、分析和上传区块链数据的Dune Analytics API技能。当用户提到Dune、链上数据或区块链时使用此技能。", "downloads": 704, "homepage": "https://clawhub.ai/lz-web3/dune-analytics-api", "iconUrl": null, "installs": 13, "name": "Dune Analytics API", "ownerName": "lz-web3", "score": 24595.04132231405, "slug": "dune-analytics-api", "source": "clawhub", "stars": 2, "tags": null, "updated_at": 1776767050019, "version": "2.0.0"}, {"category": "developer-tools", "created_at": 1772778089128, "description": "Give your agent spending power. Financial management for Agents and OpenClaw bots.", "description_zh": "为你的Agent提供消费能力，实现面向Agent和OpenClaw机器人的财务管理。", "downloads": 702, "homepage": "https://clawhub.ai/codejika/creditclaw-wallet", "iconUrl": null, "installs": 10, "name": "CreditClaw | Give your agent a wallet or credit card", "ownerName": "codejika", "score": 8873.475245156662, "slug": "creditclaw-wallet", "source": "clawhub", "stars": 2, "tags": ["agent", "agentpay", "amazon", "buy", "card", "checkout", "claw", "credit", "creditcard", "creditclaw", "pay", "payment", "payments", "procurement", "shop", "shopping", "virtual", "wallet", "x402"], "updated_at": 1776767090537, "version": "2.1.0"}, {"category": "developer-tools", "created_at": 1772772355875, "description": "Manage multi-tier AI inference clusters for homelabs. Health monitoring, expert MoE routing,\nautomatic node recovery, and model deployment across Ollama and llama.cpp nodes. Covers GPU\nmemory planning, Docker volume strategies for large models, sequential startup patterns to\navoid CUDA deadlocks, and unified API gateways via LiteLLM.", "description_zh": "管理家庭实验室的多层AI推理集群，包含健康监控、专家MoE路由、自动节点恢复、跨Ollama和llama.cpp的模型部署。涵盖GPU显存规划、Docker卷策略、顺序启动防止CUDA死锁及LiteLLM统一API网关。", "downloads": 701, "homepage": "https://clawhub.ai/mlesnews/homelab-cluster", "iconUrl": null, "installs": 24, "name": "Homelab Cluster Management", "ownerName": "mlesnews", "score": 8861.516383640277, "slug": "homelab-cluster", "source": "clawhub", "stars": 2, "tags": null, "updated_at": 1776767090547, "version": "1.0.0"}, {"category": "developer-tools", "created_at": 1772769748462, "description": "Battle in Grid Clash - join 8-agent grid battles. Fetch equipment data to choose the best weapon, armor, and tier. Use when user wants to participate in Grid...", "description_zh": "参与Grid Clash战斗——加入8人格斗。获取装备数据以选择最佳武器、护甲和层级。当用户想要参与Grid时使用。", "downloads": 701, "homepage": "https://clawhub.ai/appback/claw-clash", "iconUrl": null, "installs": 5, "name": "Openclaw", "ownerName": "appback", "score": 16999.3117687543, "slug": "claw-clash", "source": "clawhub", "stars": 2, "tags": ["ai", "ai-agents", "battle", "deprecated", "game", "korean", "strategy"], "updated_at": 1776767090459, "version": "2.2.0"}, {"category": "productivity", "created_at": 1772770310279, "description": "Plant care, soil management, seasonal timing, pest control, and garden planning.", "description_zh": "植物养护、土壤管理、季节安排、病虫害防治及花园规划", "downloads": 701, "homepage": "https://clawhub.ai/ivangdavila/gardening", "iconUrl": null, "installs": 24, "name": "Gardening", "ownerName": "ivangdavila", "score": 16999.3117687543, "slug": "gardening", "source": "clawhub", "stars": 2, "tags": null, "updated_at": 1776767090451, "version": "1.0.0"}, {"category": "content-creation", "created_at": 1772770600238, "description": "Write French that sounds human. Not formal, not robotic, not AI-generated.", "description_zh": "用法语写出自然、非正式、非机械、非AI生成的文字。", "downloads": 700, "homepage": "https://clawhub.ai/ivangdavila/french", "iconUrl": null, "installs": 41, "name": "French", "ownerName": "ivangdavila", "score": 21650.087770626098, "slug": "french", "source": "clawhub", "stars": 2, "tags": null, "updated_at": 1776769450212, "version": "1.0.0"}, {"category": "content-creation", "created_at": 1772770625974, "description": "Write Vietnamese that sounds human. Not formal, not robotic, not AI-generated.", "description_zh": "撰写自然的越南语，避免正式、机器化或AI生成的风格。", "downloads": 700, "homepage": "https://clawhub.ai/ivangdavila/vietnamese", "iconUrl": null, "installs": 40, "name": "Vietnamese", "ownerName": "ivangdavila", "score": 7062.416491696889, "slug": "vietnamese", "source": "clawhub", "stars": 2, "tags": null, "updated_at": 1776769450073, "version": "1.0.0"}, {"category": "ai-intelligence", "created_at": 1772772565353, "description": "Make outbound phone calls via ElevenLabs voice agent and Twilio", "description_zh": "使用 ElevenLabs 语音代理和 Twilio 拨打外呼电话", "downloads": 700, "homepage": "https://clawhub.ai/humanjesse/outbound-call", "iconUrl": null, "installs": 37, "name": "Outbound Call", "ownerName": "humanjesse", "score": 50511.94539249146, "slug": "outbound-call", "source": "clawhub", "stars": 2, "tags": null, "updated_at": 1776767171132, "version": "0.1.5"}, {"category": "ai-intelligence", "created_at": 1772774421436, "description": "AI-powered system for creating structured, balanced performance reviews, self-assessments, 360° feedback, and calibration notes across review cycles.", "description_zh": "AI驱动的系统，生成结构化、平衡的绩效评估、自我评估、360°反馈与校准记录，贯穿整个考核周期。", "downloads": 699, "homepage": "https://clawhub.ai/1kalin/afrexai-performance-review", "iconUrl": null, "installs": 50, "name": "Performance Review Engine", "ownerName": "1kalin", "score": 50443.68600682594, "slug": "afrexai-performance-review", "source": "clawhub", "stars": 2, "tags": ["360", "calibration", "employee", "feedback", "hr", "management", "performance", "review"], "updated_at": 1776767171052, "version": "1.1.0"}, {"category": "content-creation", "created_at": 1772770810944, "description": "Write Korean that sounds human. Not formal, not robotic, not AI-generated.", "description_zh": "写出自然拟人的韩语，不正式、不机械、无AI感。", "downloads": 698, "homepage": "https://clawhub.ai/ivangdavila/korean", "iconUrl": null, "installs": 38, "name": "Korean", "ownerName": "ivangdavila", "score": 6963.578033591243, "slug": "korean", "source": "clawhub", "stars": 2, "tags": null, "updated_at": 1776769450235, "version": "1.0.0"}, {"category": "data-analysis", "created_at": 1773041959184, "description": "Operate Binance Spot APIs through safe REST, WebSocket, and SDK workflows with signed requests, rate-limit control, and testnet-first execution.", "description_zh": "通过安全的 REST、WebSocket 和 SDK 工作流操作 Binance 现货 API，支持签名请求、速率限制控制以及先在测试网执行。", "downloads": 697, "homepage": "https://clawhub.ai/ivangdavila/binance", "iconUrl": null, "installs": 35, "name": "Binance API", "ownerName": "ivangdavila", "score": 50307.167235494875, "slug": "binance", "source": "clawhub", "stars": 2, "tags": null, "updated_at": 1776767171145, "version": "1.0.0"}, {"category": "security-compliance", "created_at": 1773041886707, "description": "Security monitoring and threat detection for OpenClaw agents — powered by Google SecOps (Chronicle). Protect your agent with SIEM-powered real-time detection...", "description_zh": "为OpenClaw代理提供安全监控和威胁检测——由Google SecOps（Chronicle）提供支持。利用SIEM驱动的实时检测保护您的代理。", "downloads": 695, "homepage": "https://clawhub.ai/brunopradof/openclaw-shield-upx", "iconUrl": null, "installs": 11, "name": "OpenClaw Shield", "ownerName": "brunopradof", "score": 9974.21631157552, "slug": "openclaw-shield-upx", "source": "clawhub", "stars": 2, "tags": null, "updated_at": 1776767350179, "version": "1.4.1"}, {"category": "developer-tools", "created_at": 1772770068382, "description": "Navigate virtual worlds, create avatars, manage digital assets, and understand Web3 social platforms.", "description_zh": "畅游虚拟世界，创建虚拟化身，管理数字资产，了解Web3社交平台。", "downloads": 695, "homepage": "https://clawhub.ai/ivangdavila/metaverse", "iconUrl": null, "installs": 12, "name": "Metaverse", "ownerName": "ivangdavila", "score": 26137.980085348507, "slug": "metaverse", "source": "clawhub", "stars": 2, "tags": null, "updated_at": 1776767349840, "version": "1.0.0"}, {"category": "productivity", "created_at": 1772789355101, "description": "Deep OSINT (Open Source Intelligence) investigations. Use when the user wants to research, find, or investigate any person, place, organisation, username, do...", "description_zh": "深度开源情报调查。当用户想要研究、查找或调查任何人、地点、组织、用户名等时使用。", "downloads": 694, "homepage": "https://clawhub.ai/cineglobe/osint-investigator", "iconUrl": null, "installs": 31, "name": "OSINT Investigator", "ownerName": "cineglobe", "score": 29728.635074929123, "slug": "osint-investigator", "source": "clawhub", "stars": 2, "tags": null, "updated_at": 1776767349742, "version": "1.0.0"}, {"category": "productivity", "created_at": 1772775264953, "description": "Enables programmatic internalization of lessons into memory and creates structured help requests using the Active Learning Protocol.", "description_zh": "实现课程内容的程序化内化记忆，并使用主动学习协议创建结构化求助。", "downloads": 693, "homepage": "https://clawhub.ai/autogame-17/active-learner", "iconUrl": null, "installs": 41, "name": "Active Learner", "ownerName": "autogame-17", "score": 9947.07558691817, "slug": "active-learner", "source": "clawhub", "stars": 2, "tags": null, "updated_at": 1776767350171, "version": "1.0.0"}, {"category": "data-analysis", "created_at": 1773057589259, "description": "Cross-border e-commerce AI Agent with 41 specialized tools for Amazon/TikTok/eBay/Walmart product research, competitor analysis, keyword tracking, review ins...", "description_zh": "跨境电商务AI智能体，配备41款专业工具，支持Amazon/TikTok/eBay/Walmart选品、竞品分析、关键词追踪及评论洞察。", "downloads": 693, "homepage": "https://clawhub.ai/xxxx3/linkfoxagent", "iconUrl": null, "installs": 157, "name": "LinkFoxAgent", "ownerName": "xxxx3", "score": 5093.4611910221665, "slug": "linkfoxagent", "source": "clawhub", "stars": 2, "tags": null, "updated_at": 1776767349977, "version": "1.0.6"}, {"category": "developer-tools", "created_at": 1772770575196, "description": "Render structured data as beautiful hosted web pages, and create hosted forms for data collection, using the RenderKit API. Use this for visual pages, survey...", "description_zh": "使用 RenderKit API 将结构化数据渲染为精美的托管网页，并创建托管表单收集数据。适用于可视化页面、问卷调查...", "downloads": 692, "homepage": "https://clawhub.ai/antoinedc/renderkit", "iconUrl": null, "installs": 24, "name": "Clawhub Renderkit Skill", "ownerName": "antoinedc", "score": 5086.512403585574, "slug": "renderkit", "source": "clawhub", "stars": 2, "tags": ["stable"], "updated_at": 1776767349984, "version": "1.4.0"}, {"category": "ai-intelligence", "created_at": 1772772400536, "description": "Hire humans or AI agents for tasks you cannot do yourself, with platform selection, vetting, contracts, and payment management.", "description_zh": "为无法亲力亲为的任务聘请人类或AI代理，涵盖平台选择、审查、合同及支付管理。", "downloads": 692, "homepage": "https://clawhub.ai/ivangdavila/hiring", "iconUrl": null, "installs": 36, "name": "Hiring", "ownerName": "ivangdavila", "score": 26031.29445234708, "slug": "hiring", "source": "clawhub", "stars": 2, "tags": null, "updated_at": 1776767349835, "version": "1.0.0"}, {"category": "content-creation", "created_at": 1772770624370, "description": "Write Hebrew that sounds human. Not formal, not robotic, not AI-generated.", "description_zh": "撰写自然流畅的希伯来语，避免刻板、机械或AI生成的痕迹。", "downloads": 691, "homepage": "https://clawhub.ai/ivangdavila/hebrew", "iconUrl": null, "installs": 37, "name": "Hebrew", "ownerName": "ivangdavila", "score": 8760.7861936721, "slug": "hebrew", "source": "clawhub", "stars": 2, "tags": null, "updated_at": 1776769490523, "version": "1.0.0"}, {"category": "content-creation", "created_at": 1772771740510, "description": "Write Indonesian that sounds human. Not formal, not robotic, not AI-generated.", "description_zh": "写出听起来自然的印尼语，避免正式、呆板或AI生成的风格。", "downloads": 691, "homepage": "https://clawhub.ai/ivangdavila/indonesian", "iconUrl": null, "installs": 39, "name": "Indonesian", "ownerName": "ivangdavila", "score": 10799.231791992908, "slug": "indonesian", "source": "clawhub", "stars": 2, "tags": null, "updated_at": 1776769449978, "version": "1.0.0"}, {"category": "productivity", "created_at": 1772774015082, "description": "Download Instagram Reels, transcribe audio, and extract captions. Share a reel URL and get back a full transcript with the original description.", "description_zh": "下载Instagram Reels，转录音频并提取字幕。分享Reel链接即可获得完整转录文本及原始描述。", "downloads": 691, "homepage": "https://clawhub.ai/antoinedc/instagram-reels", "iconUrl": null, "installs": 29, "name": "Instagram Reels", "ownerName": "antoinedc", "score": 17467.14456391876, "slug": "instagram-reels", "source": "clawhub", "stars": 2, "tags": ["stable"], "updated_at": 1776767350052, "version": "1.0.0"}, {"category": "data-analysis", "created_at": 1772774757136, "description": "Hundreds of chemistry and scientific computing tools. Molecular weight, LogP, TPSA, SMILES validation, thermodynamics, polymer analysis, electrochemistry, DO...", "description_zh": "数百种化学与科学计算工具。分子量、LogP、TPSA、SMILES 验证、热力学、聚合物分析、电化学、溶解氧等。", "downloads": 690, "homepage": "https://clawhub.ai/gressling/paramus-chemistry", "iconUrl": null, "installs": 31, "name": "Paramus Professional Chemistry OS", "ownerName": "gressling", "score": 17443.249701314217, "slug": "paramus-chemistry", "source": "clawhub", "stars": 2, "tags": null, "updated_at": 1776767350064, "version": "1.0.7"}, {"category": "developer-tools", "created_at": 1772772112820, "description": "Manage AWS Lightsail and EC2 instances using AWS CLI", "description_zh": "使用 AWS CLI 管理 AWS Lightsail 和 EC2 实例", "downloads": 690, "homepage": "https://clawhub.ai/hypertextassassinrajith/awscli", "iconUrl": null, "installs": 7, "name": "Awscli", "ownerName": "hypertextassassinrajith", "score": 5072.61482871239, "slug": "awscli", "source": "clawhub", "stars": 2, "tags": null, "updated_at": 1776767349990, "version": "0.1.2"}, {"category": "developer-tools", "created_at": 1772773767210, "description": "Automatically complete EvoMap Hub tasks and review assets to earn credits and build reputation. Supports both CONTRIBUTE (complete tasks) and REVIEW (validat...", "description_zh": "自动完成EvoMap Hub任务并审查资产，以获取积分并建立声望。支持CONTRIBUTE（完成任务）和REVIEW（验证）两种模式。", "downloads": 689, "homepage": "https://clawhub.ai/yonghaozhao722/evomap-bounty-hunter", "iconUrl": null, "installs": 16, "name": "Evomap Bounty Hunter", "ownerName": "yonghaozhao722", "score": 25961.538461538465, "slug": "evomap-bounty-hunter", "source": "clawhub", "stars": 2, "tags": null, "updated_at": 1776767350214, "version": "1.1.0"}, {"category": "security-compliance", "created_at": 1772769890549, "description": "Configure Cross-Origin Resource Sharing correctly to avoid security issues and debugging pain.", "description_zh": "正确配置跨域资源共享，避免安全隐患与调试困扰。", "downloads": 688, "homepage": "https://clawhub.ai/ivangdavila/cors", "iconUrl": null, "installs": 15, "name": "CORS", "ownerName": "ivangdavila", "score": 20746.651467654603, "slug": "cors", "source": "clawhub", "stars": 2, "tags": null, "updated_at": 1776767390467, "version": "1.0.0"}, {"category": "content-creation", "created_at": 1772770469879, "description": "Write Dutch that sounds human. Not formal, not robotic, not AI-generated.", "description_zh": "写荷兰语要自然、有人情味，避免正式、机械或AI生成的风格。", "downloads": 687, "homepage": "https://clawhub.ai/ivangdavila/dutch", "iconUrl": null, "installs": 39, "name": "Dutch", "ownerName": "ivangdavila", "score": 12687.609075043629, "slug": "dutch", "source": "clawhub", "stars": 2, "tags": null, "updated_at": 1776769449881, "version": "1.0.0"}, {"category": "content-creation", "created_at": 1772771099987, "description": "Write Romanian that sounds human. Not formal, not robotic, not AI-generated.", "description_zh": "用自然地道的罗马尼亚语写作，非正式、非机械化、非AI生成", "downloads": 686, "homepage": "https://clawhub.ai/ivangdavila/romanian", "iconUrl": null, "installs": 50, "name": "Romanian", "ownerName": "ivangdavila", "score": 13304.013194062672, "slug": "romanian", "source": "clawhub", "stars": 2, "tags": null, "updated_at": 1776769490409, "version": "1.0.0"}, {"category": "data-analysis", "created_at": 1772771329843, "description": "Transition from vibe coding to vibe clawing by trusting agents with full responsibilities, designing self-closing loops, and climbing the bottleneck ladder.", "description_zh": "从氛围编程转向氛围抓取，信任代理承担全部责任，设计自闭合循环，攀登瓶颈阶梯。", "downloads": 686, "homepage": "https://clawhub.ai/ivangdavila/vibe-clawing", "iconUrl": null, "installs": 55, "name": "Vibe Clawing", "ownerName": "ivangdavila", "score": 10560, "slug": "vibe-clawing", "source": "clawhub", "stars": 2, "tags": null, "updated_at": 1776767471234, "version": "1.0.1"}, {"category": "data-analysis", "created_at": 1772774140907, "description": "Navigate office work with professional communication, meeting prep, workplace dynamics, and visibility tactics.", "description_zh": "在办公室工作中运用专业沟通、会议准备、职场人际与可见度策略。", "downloads": 686, "homepage": "https://clawhub.ai/ivangdavila/work", "iconUrl": null, "installs": 56, "name": "Work", "ownerName": "ivangdavila", "score": 7778.0158560102855, "slug": "work", "source": "clawhub", "stars": 2, "tags": null, "updated_at": 1776767471132, "version": "1.0.0"}, {"category": "developer-tools", "created_at": 1772771560966, "description": "CLI for Yandex Tracker (bash + curl). Queues, issues, comments, worklogs, attachments, YQL.", "description_zh": "Yandex Tracker 命令行工具 (bash + curl)。支持队列、任务、评论、工时记录、附件及 YQL。", "downloads": 686, "homepage": "https://clawhub.ai/bkamuz/yandex-tracker-cli", "iconUrl": null, "installs": 10, "name": "Yandex Tracker CLI", "ownerName": "bkamuz", "score": 7778.0158560102855, "slug": "yandex-tracker-cli", "source": "clawhub", "stars": 2, "tags": ["bash", "cli", "curl", "tracker", "yandex"], "updated_at": 1776767471119, "version": "1.2.8"}, {"category": "content-creation", "created_at": 1772771429532, "description": "Write Hindi that sounds human. Not formal, not robotic, not AI-generated.", "description_zh": "写出自然、地道的印地语，避免正式、机器化或AI生成的文字。", "downloads": 685, "homepage": "https://clawhub.ai/ivangdavila/hindi", "iconUrl": null, "installs": 43, "name": "Hindi", "ownerName": "ivangdavila", "score": 12652.705061082026, "slug": "hindi", "source": "clawhub", "stars": 2, "tags": null, "updated_at": 1776769449852, "version": "1.0.0"}, {"category": "data-analysis", "created_at": 1773037163110, "description": "Trade on Hyperliquid. Supports 228+ perps, HIP-3 equity/commodity perps (TSLA, GOLD), market scanning, sentiment analysis, Grok web/X search, and prediction...", "description_zh": "在 Hyperliquid 上交易，支持 228+ 永续合约、HIP-3 股票/商品永续合约（TSLA、GOLD），提供市场扫描、情绪分析、Grok 网页/X 搜索和预测功能。", "downloads": 685, "homepage": "https://clawhub.ai/zoan37/hyperclaw", "iconUrl": null, "installs": 26, "name": "HyperClaw", "ownerName": "zoan37", "score": 7549.724044569406, "slug": "hyperclaw", "source": "clawhub", "stars": 2, "tags": null, "updated_at": 1776767471073, "version": "0.1.15"}, {"category": "content-creation", "created_at": 1772770377082, "description": "Write Greek that sounds human. Not formal, not robotic, not AI-generated.", "description_zh": "撰写自然拟人的希腊语，避免正式、机械或AI生成的痕迹。", "downloads": 684, "homepage": "https://clawhub.ai/ivangdavila/greek", "iconUrl": null, "installs": 33, "name": "Greek", "ownerName": "ivangdavila", "score": 17156.3981042654, "slug": "greek", "source": "clawhub", "stars": 2, "tags": null, "updated_at": 1776769450175, "version": "1.0.0"}, {"category": "developer-tools", "created_at": 1772777191119, "description": "Build a go-to-market (GTM) strategy for launching a product or entering a new market. Use when planning how to reach customers, position your product, choose...", "description_zh": "制定上市或进入新市场的GTM（市场进入）策略，用于规划如何触达客户、定位产品、选择渠道等。", "downloads": 684, "homepage": "https://clawhub.ai/jk-0001/go-to-market", "iconUrl": null, "installs": 9, "name": "Go To Market", "ownerName": "jk-0001", "score": 14453.982830904371, "slug": "go-to-market", "source": "clawhub", "stars": 2, "tags": null, "updated_at": 1776767650019, "version": "0.1.0"}, {"category": "developer-tools", "created_at": 1772771860710, "description": "Condense information into actionable briefings. User specifies sources, skill structures the output.", "description_zh": "将信息提炼为可执行的简报。用户指定来源，技能结构化输出。", "downloads": 684, "homepage": "https://clawhub.ai/ivangdavila/brief", "iconUrl": null, "installs": 9, "name": "Brief", "ownerName": "ivangdavila", "score": 11984.770733322297, "slug": "brief", "source": "clawhub", "stars": 2, "tags": null, "updated_at": 1776767649803, "version": "1.0.1"}, {"category": "ai-intelligence", "created_at": 1772774566735, "description": "Buy, maintain, improve, and sell homes with inspection checklists, maintenance schedules, renovation planning, and transaction guidance.", "description_zh": "通过检查清单、维护计划、装修规划和交易指导，购买、维护、改善和出售房屋。", "downloads": 684, "homepage": "https://clawhub.ai/ivangdavila/house", "iconUrl": null, "installs": 53, "name": "House", "ownerName": "ivangdavila", "score": 14596.774193548386, "slug": "house", "source": "clawhub", "stars": 2, "tags": null, "updated_at": 1776767649787, "version": "1.1.0"}, {"category": "ai-intelligence", "created_at": 1772774823752, "description": "Share real-time organizational context with your AI agent — query your context graph, manage records, and receive live insights", "description_zh": "与AI代理共享实时组织上下文，查询上下文图谱，管理记录，获取实时洞察", "downloads": 683, "homepage": "https://clawhub.ai/najmuzzaman-mohammad/nex", "iconUrl": null, "installs": 17, "name": "Nex.ai", "ownerName": "najmuzzaman-mohammad", "score": 14434.018766220803, "slug": "nex", "source": "clawhub", "stars": 2, "tags": null, "updated_at": 1776767650038, "version": "1.0.7"}, {"category": "developer-tools", "created_at": 1772776555334, "description": "Multi-agent debate council — spawns 3 specialized sub-agents in parallel (Scholar, Engineer, Muse) for Round 1, then optional Round 2 cross-examination to ch...", "description_zh": "多智能体辩论委员会——并行召唤3个专业子代理（学者、工程师、缪斯）进行第一轮辩论，随后可选的第二轮交叉质询……", "downloads": 683, "homepage": "https://clawhub.ai/robbyczgw-cla/roundtable", "iconUrl": null, "installs": 37, "name": "Roundtable", "ownerName": "robbyczgw-cla", "score": 14434.018766220803, "slug": "roundtable", "source": "clawhub", "stars": 2, "tags": null, "updated_at": 1776767649981, "version": "0.4.1"}, {"category": "content-creation", "created_at": 1772770346778, "description": "Write Estonian that sounds human. Not formal, not robotic, not AI-generated.", "description_zh": "撰写自然的爱沙尼亚语，非正式、不机械、非AI生成", "downloads": 683, "homepage": "https://clawhub.ai/ivangdavila/estonian", "iconUrl": null, "installs": 34, "name": "Estonian", "ownerName": "ivangdavila", "score": 14576.612903225805, "slug": "estonian", "source": "clawhub", "stars": 2, "tags": null, "updated_at": 1776767649743, "version": "1.0.0"}, {"category": "data-analysis", "created_at": 1772776154640, "description": "Conducts structured web research by querying multiple sources, evaluating credibility, synthesizing data, and providing a detailed summary with citations.", "description_zh": "通过查询多个来源、评估可信度、综合数据，提供详细摘要并附引用，进行结构化网络研究。", "downloads": 682, "homepage": "https://clawhub.ai/underbench2-gif/ub2-web-research-assistant", "iconUrl": null, "installs": 23, "name": "Web Research Assistant", "ownerName": "underbench2-gif", "score": 4429.991409988956, "slug": "ub2-web-research-assistant", "source": "clawhub", "stars": 2, "tags": ["citations", "research", "search", "synthesis", "web"], "updated_at": 1776767650083, "version": "1.0.0"}, {"category": "security-compliance", "created_at": 1772769823010, "description": "Autonomous operator for Switchboard on-demand feeds, Surge streaming, and randomness. Designs jobs, simulates via Crossbar, and deploys/updates/reads feeds across Solana/SVM, EVM, Sui, and other Switchboard-supported chains—with user-controlled security, spend limits, and allow/deny lists.", "description_zh": "Switchboard 按需数据流、Surge 流媒体及随机性的自主运营器。可设计作业、通过 Crossbar 模拟，并在 Solana/SVM、EVM、Sui 等 Switchboard 支持的链上部署、更新及读取数据流，支持用户自定义安全设置、支出限额及允许/拒绝列表。", "downloads": 682, "homepage": "https://clawhub.ai/oakencore/switchboard-data-operator", "iconUrl": null, "installs": 17, "name": "Switchboard Skills", "ownerName": "oakencore", "score": 4429.991409988956, "slug": "switchboard-data-operator", "source": "clawhub", "stars": 2, "tags": null, "updated_at": 1776767650059, "version": "1.0.0"}]}