{"page": 72, "total_pages": 685, "total": 34217, "skills": [{"category": "productivity", "created_at": 1772778493245, "description": "Automates the process of extracting reusable skill code from arXiv papers. Use this skill to turn paper insights into actual OpenClaw skills.", "description_zh": "自动从arXiv论文中提取可复用技能代码。利用此技能将论文见解转化为实际的OpenClaw技能。", "downloads": 682, "homepage": "https://clawhub.ai/wanng-ide/arxiv-skill-extractor", "iconUrl": null, "installs": 66, "name": "Arxiv Skill Extractor", "ownerName": "wanng-ide", "score": 11951.663631849031, "slug": "arxiv-skill-extractor", "source": "clawhub", "stars": 2, "tags": null, "updated_at": 1776767649876, "version": "1.0.0"}, {"category": "ai-intelligence", "created_at": 1772770709866, "description": "Assist with Chainlink LINK tokens, oracle integrations, staking, and price feed usage.", "description_zh": "协助处理 Chainlink LINK 代币、预言机集成、质押和价格数据使用", "downloads": 682, "homepage": "https://clawhub.ai/ivangdavila/chainlink", "iconUrl": null, "installs": 34, "name": "Chainlink", "ownerName": "ivangdavila", "score": 14556.451612903225, "slug": "chainlink", "source": "clawhub", "stars": 2, "tags": null, "updated_at": 1776767649775, "version": "1.0.0"}, {"category": "content-creation", "created_at": 1772787494941, "description": "Generate styled QR codes (SVG/PNG/JPG) from user input. Supports custom module color, background, dot shape and eye shape, and many output options.", "description_zh": "根据用户输入生成带样式的二维码（SVG/PNG/JPG）。支持自定义模块颜色、背景、码点形状、码眼形状及多种输出选项。", "downloads": 681, "homepage": "https://clawhub.ai/hexavi8/qrcode", "iconUrl": null, "installs": 38, "name": "QRCode", "ownerName": "hexavi8", "score": 10651.499482936919, "slug": "qrcode", "source": "clawhub", "stars": 2, "tags": ["generator", "image", "jpg", "node", "png", "qr", "qrcode", "svg"], "updated_at": 1776769449925, "version": "1.0.1"}, {"category": "data-analysis", "created_at": 1772779425266, "description": "Conducts classified, multi-source research from quick lookups to deep academic analysis with prioritized credible sources and tailored report formats.", "description_zh": "开展分类多源研究，快速查询与深度学术分析相结合，优先使用可靠来源并定制报告格式。", "downloads": 681, "homepage": "https://clawhub.ai/heldinhow/super-research", "iconUrl": null, "installs": 64, "name": "Sr", "ownerName": "heldinhow", "score": 11935.1100811124, "slug": "super-research", "source": "clawhub", "stars": 2, "tags": null, "updated_at": 1776767649801, "version": "1.0.0"}, {"category": "productivity", "created_at": 1772770991914, "description": "Make web requests through decentralized SOCKS5 proxies via the Tao Private Network (TPN). This skill is also known as \"TPN\", \"TPN proxy\", \"subnet 65\", or \"SN...", "description_zh": "在 Tao 私人网络（TPN）上去中心化 SOCKS5 代理执行网页请求。该技能也称为“TPN”、“TPN 代理”、“子网 65”或“SN...”。", "downloads": 681, "homepage": "https://clawhub.ai/actuallymentor/tpn-proxy", "iconUrl": null, "installs": 21, "name": "TPN Proxy", "ownerName": "actuallymentor", "score": 10487.272727272726, "slug": "tpn-proxy", "source": "clawhub", "stars": 2, "tags": null, "updated_at": 1776767649730, "version": "1.1.2"}, {"category": "developer-tools", "created_at": 1772770161083, "description": "Automates the backup of the OpenClaw workspace to a remote Git repository. Handles large file exclusions, validates git configuration, and performs intelligent sync with conflict resolution.", "description_zh": "自动化将 OpenClaw 工作区备份至远程 Git 仓库，处理大文件排除、验证 Git 配置，并进行智能同步与冲突解决。", "downloads": 680, "homepage": "https://clawhub.ai/vemec/memory-git-sync", "iconUrl": null, "installs": 15, "name": "Smart Git Backup", "ownerName": "vemec", "score": 4417.719965639956, "slug": "memory-git-sync", "source": "clawhub", "stars": 2, "tags": null, "updated_at": 1776767690456, "version": "1.0.0"}, {"category": "developer-tools", "created_at": 1772775385504, "description": "Benchmark similar product documentation and API documentation across Alibaba Cloud, AWS, Azure, GCP, Tencent Cloud, Volcano Engine, and Huawei Cloud. Given o...", "description_zh": "{\n  \"answer\": \"对标阿里云、AWS、Azure、GCP、腾讯云、火山引擎和华为云的同类产品文档及API文档。\"\n}", "downloads": 679, "homepage": "https://clawhub.ai/cinience/alicloud-platform-multicloud-docs-api-benchmark", "iconUrl": null, "installs": 64, "name": "Alicloud Platform Multicloud Docs Api Benchmark", "ownerName": "cinience", "score": 8537.164568985989, "slug": "alicloud-platform-multicloud-docs-api-benchmark", "source": "clawhub", "stars": 2, "tags": null, "updated_at": 1776767771280, "version": "1.0.1"}, {"category": "data-analysis", "created_at": 1772770528166, "description": "Multi-platform market intelligence for OpenClaw agents. Monitor real-time prices, balances, and positions across Hyperliquid (DeFi) and LNMarkets (Bitcoin)....", "description_zh": "跨平台市场情报，实时监控Hyperliquid（DeFi）和LNMarkets（比特币）的价格、余额及持仓。", "downloads": 679, "homepage": "https://clawhub.ai/nickymick8/claw-trader-lite", "iconUrl": null, "installs": 30, "name": "Claw Trader Lite", "ownerName": "nickymick8", "score": 8537.164568985989, "slug": "claw-trader-lite", "source": "clawhub", "stars": 2, "tags": ["automation", "bitcoin", "defi", "finance", "trading"], "updated_at": 1776767771208, "version": "1.0.3"}, {"category": "data-analysis", "created_at": 1772770960546, "description": "Retrieve health and biometric data from your Oura Ring via CLI commands for sleep, activity, readiness, heart rate, and more using specified dates.", "description_zh": "通过CLI命令从Oura Ring获取健康和生物特征数据，包括睡眠、活动、就绪状态、心率等，使用指定日期。", "downloads": 679, "homepage": "https://clawhub.ai/supadoopa/oura-cli", "iconUrl": null, "installs": 16, "name": "Oura Cli", "ownerName": "supadoopa", "score": 8537.164568985989, "slug": "oura-cli", "source": "clawhub", "stars": 2, "tags": null, "updated_at": 1776767771188, "version": "1.0.0"}, {"category": "security-compliance", "created_at": 1772769952799, "description": "Deploy and maintain self-hosted services with security, backups, and long-term reliability.", "description_zh": "部署并维护自托管服务，确保安全、备份和长期可靠性。", "downloads": 678, "homepage": "https://clawhub.ai/ivangdavila/self-host", "iconUrl": null, "installs": 11, "name": "Self-Host", "ownerName": "ivangdavila", "score": 8525.290904773212, "slug": "self-host", "source": "clawhub", "stars": 2, "tags": null, "updated_at": 1776767771273, "version": "1.0.0"}, {"category": "ai-intelligence", "created_at": 1772770704875, "description": "Assist with Avalanche C-Chain transactions, AVAX transfers, subnets, and cross-chain bridges.", "description_zh": "协助处理 Avalanche C-Chain 交易、AVAX 转账、子网和跨链桥相关操作", "downloads": 678, "homepage": "https://clawhub.ai/ivangdavila/avalanche", "iconUrl": null, "installs": 27, "name": "Avalanche", "ownerName": "ivangdavila", "score": 8525.290904773212, "slug": "avalanche", "source": "clawhub", "stars": 2, "tags": null, "updated_at": 1776767771269, "version": "1.0.0"}, {"category": "ai-intelligence", "created_at": 1772770584742, "description": "Assist with BNB Chain transactions, BEP-20 tokens, gas fees, and cross-chain transfers.", "description_zh": "协助处理 BNB Chain 交易、BEP-20 代币、燃气费及跨链转账。", "downloads": 678, "homepage": "https://clawhub.ai/ivangdavila/bnb", "iconUrl": null, "installs": 34, "name": "BNB", "ownerName": "ivangdavila", "score": 9683.074848280512, "slug": "bnb", "source": "clawhub", "stars": 2, "tags": null, "updated_at": 1776767771174, "version": "1.0.0"}, {"category": "content-creation", "created_at": 1772773699581, "description": "Generate branded 15-180 second HD motion graphics explainer videos by providing a prompt with brand info and URL via OpenVid on Base network.", "description_zh": "在Base网络上通过OpenVid，输入包含品牌信息和网址的提示词，即可生成15-180秒的高清品牌动态图形解说视频。", "downloads": 678, "homepage": "https://clawhub.ai/aklo360/openvid", "iconUrl": null, "installs": 43, "name": "OpenVid", "ownerName": "aklo360", "score": 9683.074848280512, "slug": "openvid", "source": "clawhub", "stars": 2, "tags": null, "updated_at": 1776767771124, "version": "1.0.7"}, {"category": "developer-tools", "created_at": 1772773351701, "description": "Build and scale a Fiverr freelancing business with gig optimization, buyer communication, and seller level progression.", "description_zh": "通过 gig 优化、买家沟通和卖家等级提升，构建并扩展 Fiverr 自由职业业务。", "downloads": 677, "homepage": "https://clawhub.ai/ivangdavila/fiverr", "iconUrl": null, "installs": 8, "name": "Fiverr", "ownerName": "ivangdavila", "score": 16418.594000457982, "slug": "fiverr", "source": "clawhub", "stars": 2, "tags": null, "updated_at": 1776767771301, "version": "1.0.0"}, {"category": "security-compliance", "created_at": 1772771829741, "description": "Integrate payments with provider selection, checkout flows, subscription billing, and security best practices.", "description_zh": "集成支付功能，包括提供商选择、结账流程、订阅计费及安全最佳实践。", "downloads": 676, "homepage": "https://clawhub.ai/ivangdavila/payments", "iconUrl": null, "installs": 12, "name": "Payments", "ownerName": "ivangdavila", "score": 23537.14661406969, "slug": "payments", "source": "clawhub", "stars": 2, "tags": null, "updated_at": 1776767950068, "version": "1.0.0"}, {"category": "productivity", "created_at": 1772771210653, "description": "Generate retro robotic speech audio using SAM (Software Automatic Mouth), the classic C64 text-to-speech synthesizer. Use for /sam command to generate voice messages. Supports /sam on/off toggle mode where all responses are spoken in SAM voice. Supports pitch, speed, mouth, and throat parameters for voice customization.", "description_zh": "使用 SAM（Software Automatic Mouth）——经典 C64 文字转语音合成器，生成复古机器人语音。通过 /sam 命令生成语音消息，支持 /sam on/off 切换模式，所有响应均以 SAM 语音朗读。可调节音高、语速、嘴形、喉咙参数自定义声音。", "downloads": 675, "homepage": "https://clawhub.ai/fourthdensity/sam-tts", "iconUrl": null, "installs": 28, "name": "SAM TTS", "ownerName": "fourthdensity", "score": 20575.539568345324, "slug": "sam-tts", "source": "clawhub", "stars": 2, "tags": null, "updated_at": 1776767950041, "version": "1.0.0"}, {"category": "developer-tools", "created_at": 1772775732901, "description": "Access Massive(Polygon) stock, crypto, forex, options, indices, futures, market data, and news APIs via CLI.", "description_zh": "通过CLI访问Polygon海量股票、加密货币、外汇、期权、指数、期货、市场数据和新闻API。", "downloads": 675, "homepage": "https://clawhub.ai/bruce-shi/massive-skill", "iconUrl": null, "installs": 59, "name": "Massive(Polygon)", "ownerName": "bruce-shi", "score": 20688.65740740741, "slug": "massive-skill", "source": "clawhub", "stars": 2, "tags": null, "updated_at": 1776767949765, "version": "1.0.5"}, {"category": "ai-intelligence", "created_at": 1773057724025, "description": "PM skill for Claude Code, Codex, Cursor, and Windsurf. Diagnoses SaaS metrics, critiques PRDs, plans roadmaps, runs discovery, coaches PM career transitions,...", "description_zh": "产品经理技能，面向 Claude Code、Codex、Cursor、Windsurf。诊断 SaaS 指标，评审 PRD，规划路线图，执行需求调研，指导产品经理职业转型...", "downloads": 674, "homepage": "https://clawhub.ai/digidai/pm-agent", "iconUrl": null, "installs": 116, "name": "PM Agent", "ownerName": "digidai", "score": 10418.79468845761, "slug": "pm-agent", "source": "clawhub", "stars": 2, "tags": ["ai-agent", "ai-product", "anti-pattern", "career-coaching", "churn-calculator", "claude-code", "codex", "context-engineering", "cursor", "discovery", "epic", "finance", "jtbd", "metrics-theater", "opinionated-pm", "pm", "pm-agent", "pm-career", "positioning", "prd", "prd-review", "prioritization", "product-manager", "quality-gates", "roadmap", "saas-diagnostics", "saas-metrics", "solution-smuggling", "user-story", "windsurf"], "updated_at": 1776767950119, "version": "1.3.1"}, {"category": "content-creation", "created_at": 1772779028850, "description": "Generate images using SiliconFlow API (FLUX.1, Stable Diffusion, etc.)", "description_zh": "使用SiliconFlow API（FLUX.1、Stable Diffusion等）生成图像", "downloads": 673, "homepage": "https://clawhub.ai/lilei0311/siliconflow-image-gen", "iconUrl": null, "installs": 69, "name": "SiliconFlow Image Gen", "ownerName": "lilei0311", "score": 20517.98561151079, "slug": "siliconflow-image-gen", "source": "clawhub", "stars": 2, "tags": ["flux", "generation", "image", "siliconflow"], "updated_at": 1776767950015, "version": "1.0.0"}, {"category": "content-creation", "created_at": 1772771540168, "description": "Write Croatian that sounds human. Not formal, not robotic, not AI-generated.", "description_zh": "写出自然的克罗地亚语，避免正式、机械或AI生成的风格。", "downloads": 672, "homepage": "https://clawhub.ai/ivangdavila/croatian", "iconUrl": null, "installs": 65, "name": "Croatian", "ownerName": "ivangdavila", "score": 23405.654174884945, "slug": "croatian", "source": "clawhub", "stars": 2, "tags": null, "updated_at": 1776767950054, "version": "1.0.0"}, {"category": "productivity", "created_at": 1772770417267, "description": "Prometheus monitoring patterns, cardinality management, alerting best practices, and PromQL traps.", "description_zh": "Prometheus 监控模式、基数管理、告警最佳实践以及 PromQL 陷阱", "downloads": 672, "homepage": "https://clawhub.ai/ivangdavila/prom", "iconUrl": null, "installs": 2, "name": "Prometheus", "ownerName": "ivangdavila", "score": 15939.109021714798, "slug": "prom", "source": "clawhub", "stars": 2, "tags": null, "updated_at": 1776767949888, "version": "1.0.0"}, {"category": "developer-tools", "created_at": 1772770132878, "description": "Training principles, pacing strategy, injury prevention, and race preparation for runners.", "description_zh": "跑者训练原则、配速策略、损伤预防及赛事备战。", "downloads": 672, "homepage": "https://clawhub.ai/ivangdavila/running", "iconUrl": null, "installs": 7, "name": "Running", "ownerName": "ivangdavila", "score": 16304.09892374628, "slug": "running", "source": "clawhub", "stars": 2, "tags": null, "updated_at": 1776767949750, "version": "1.0.0"}, {"category": "ai-intelligence", "created_at": 1772775917563, "description": "Plan and manage your day with prioritized tasks, calendar blocking, energy-based scheduling, and automatic commitment tracking and reminders.", "description_zh": "通过优先级任务、日历时间块、精力管理、自动承诺追踪和提醒来计划和管理你的一天。", "downloads": 671, "homepage": "https://clawhub.ai/ivangdavila/daily-planner", "iconUrl": null, "installs": 35, "name": "Daily Planner", "ownerName": "ivangdavila", "score": 20572.916666666664, "slug": "daily-planner", "source": "clawhub", "stars": 2, "tags": null, "updated_at": 1776767949785, "version": "1.0.0"}, {"category": "ai-intelligence", "created_at": 1772770647743, "description": "Assist with Polkadot DOT transactions, staking, parachains, and cross-chain transfers.", "description_zh": "协助 Polkadot DOT 交易、质押、平行链及跨链转账。", "downloads": 670, "homepage": "https://clawhub.ai/ivangdavila/polkadot", "iconUrl": null, "installs": 33, "name": "Polkadot", "ownerName": "ivangdavila", "score": 20543.98148148148, "slug": "polkadot", "source": "clawhub", "stars": 2, "tags": null, "updated_at": 1776767949762, "version": "1.0.0"}, {"category": "content-creation", "created_at": 1772792566866, "description": "Use when calling local AI on this Mac — text generation, embeddings, speech-to-text, OCR, or image understanding. LLM/VLM via oMLX gateway at localhost:8000/...", "description_zh": "用于在Mac上调用本地AI（文本生成、向量化、语音转文字、OCR或图像理解）。通过localhost:8000/...的oMLX网关调用LLM/VLM。", "downloads": 669, "homepage": "https://clawhub.ai/bendusy/mlx-local-inference", "iconUrl": null, "installs": 81, "name": "mlx-local-inference", "ownerName": "bendusy", "score": 23307.034845496382, "slug": "mlx-local-inference", "source": "clawhub", "stars": 2, "tags": null, "updated_at": 1776767950092, "version": "2.2.1"}, {"category": "productivity", "created_at": 1772770464769, "description": "Assist with Dogecoin DOGE transactions, wallet management, and network characteristics.", "description_zh": "协助处理 DOGE 交易、钱包管理及网络特性。", "downloads": 669, "homepage": "https://clawhub.ai/ivangdavila/dogecoin", "iconUrl": null, "installs": 20, "name": "Dogecoin", "ownerName": "ivangdavila", "score": 10183.85521401896, "slug": "dogecoin", "source": "clawhub", "stars": 2, "tags": null, "updated_at": 1776767949970, "version": "1.0.0"}, {"category": "developer-tools", "created_at": 1772770971089, "description": "Control devices, run automations, and help users get more from Siri with HomeKit, Shortcuts, and voice command guidance.", "description_zh": "通过 HomeKit、Shortcuts 与语音指令控制设备、运行自动化，帮助用户从 Siri 获得更多。", "downloads": 669, "homepage": "https://clawhub.ai/ivangdavila/siri", "iconUrl": null, "installs": 11, "name": "Siri", "ownerName": "ivangdavila", "score": 10183.85521401896, "slug": "siri", "source": "clawhub", "stars": 2, "tags": null, "updated_at": 1776767949898, "version": "1.0.0"}, {"category": "content-creation", "created_at": 1772771220965, "description": "Write Thai that sounds human. Not formal, not robotic, not AI-generated.", "description_zh": "写出自然、地道的泰语，避免生硬正式或AI生成的痕迹。", "downloads": 668, "homepage": "https://clawhub.ai/ivangdavila/thai", "iconUrl": null, "installs": 31, "name": "Thai", "ownerName": "ivangdavila", "score": 16777.251184834124, "slug": "thai", "source": "clawhub", "stars": 2, "tags": null, "updated_at": 1776769450170, "version": "1.0.0"}, {"category": "content-creation", "created_at": 1772771319374, "description": "Write Turkish that sounds human. Not formal, not robotic, not AI-generated.", "description_zh": "撰写听起来像真人写的土耳其语。非正式、不机械、非AI生成。", "downloads": 668, "homepage": "https://clawhub.ai/ivangdavila/turkish", "iconUrl": null, "installs": 38, "name": "Turkish", "ownerName": "ivangdavila", "score": 10633.82397116251, "slug": "turkish", "source": "clawhub", "stars": 2, "tags": null, "updated_at": 1776769449824, "version": "1.0.0"}, {"category": "ai-intelligence", "created_at": 1772775224060, "description": "Ship packages with AI — compare rates across USPS, FedEx, and UPS, buy discounted labels, track shipments, and manage orders. Requires user confirmation befo...", "description_zh": "AI智能发货：对比USPS、FedEx和UPS运费，购买折扣面单，追踪物流并管理订单。需用户确认后...", "downloads": 668, "homepage": "https://clawhub.ai/atoship-dev/atoship", "iconUrl": null, "installs": 36, "name": "Atoship", "ownerName": "atoship-dev", "score": 19904.4138318808, "slug": "atoship", "source": "clawhub", "stars": 2, "tags": ["automation", "ecommerce", "fedex", "labels", "logistics", "postage", "shipment", "shipping", "shipping-manager", "shipping-solution", "tracking", "ups", "usps"], "updated_at": 1776767990495, "version": "1.0.8"}, {"category": "ai-intelligence", "created_at": 1772770762987, "description": "Assist with Cosmos ATOM transactions, IBC transfers, staking, and cross-chain ecosystem navigation.", "description_zh": "协助 Cosmos ATOM 交易、IBC 转账、质押及跨链生态导航。", "downloads": 668, "homepage": "https://clawhub.ai/ivangdavila/cosmos", "iconUrl": null, "installs": 28, "name": "Cosmos", "ownerName": "ivangdavila", "score": 10331.241791915949, "slug": "cosmos", "source": "clawhub", "stars": 2, "tags": null, "updated_at": 1776767990415, "version": "1.0.0"}, {"category": "productivity", "created_at": 1772773118034, "description": "Rigorous comparisons with confidence parity, weighted criteria, and research depth tracking.", "description_zh": "严谨对比，具备置信度均等、加权标准及研究深度追踪。", "downloads": 667, "homepage": "https://clawhub.ai/ivangdavila/compare", "iconUrl": null, "installs": 23, "name": "Compare", "ownerName": "ivangdavila", "score": 26608.957470831767, "slug": "compare", "source": "clawhub", "stars": 2, "tags": null, "updated_at": 1776768071177, "version": "1.0.0"}, {"category": "productivity", "created_at": 1773431910402, "description": "Backtrader 开源量化回测框架 - 支持多数据源、多策略、多周期回测与实盘交易，纯Python实现。", "description_zh": "Backtrader 开源量化回测框架 - 支持多数据源、多策略、多周期回测与实盘交易，纯Python实现。", "downloads": 667, "homepage": "https://clawhub.ai/coderwpf/backtrader", "iconUrl": null, "installs": 136, "name": "backtrader", "ownerName": "coderwpf", "score": 22183.87197991842, "slug": "backtrader", "source": "clawhub", "stars": 2, "tags": null, "updated_at": 1776768071105, "version": "1.0.2"}, {"category": "content-creation", "created_at": 1772787491892, "description": "Edit PDF files visually using natural language with the nano-pdf CLI tool, powered by Google's Gemini 3 Pro Image (Nano Banana). Use this skill whenever the...", "description_zh": "利用 Google Gemini 3 Pro Image (Nano Banana) 驱动的 nano-pdf CLI 工具，通过自然语言可视化编辑 PDF 文件。", "downloads": 667, "homepage": "https://clawhub.ai/ps06756/nano-banana-pdf-skill", "iconUrl": null, "installs": 143, "name": "nano-banana-pdf-edit", "ownerName": "ps06756", "score": 22183.87197991842, "slug": "nano-banana-pdf-skill", "source": "clawhub", "stars": 2, "tags": null, "updated_at": 1776768071080, "version": "1.0.1"}, {"category": "data-analysis", "created_at": 1772776461075, "description": "Organize, track, and analyze contracts with renewal alerts, clause lookups, and multi-role support for individuals, landlords, freelancers, and legal teams.", "description_zh": "管理合同，支持续约提醒、条款查询及多角色协作，适用于个人、房东、自由职业者和法务团队。", "downloads": 667, "homepage": "https://clawhub.ai/ivangdavila/contracts", "iconUrl": null, "installs": 46, "name": "Contracts", "ownerName": "ivangdavila", "score": 15756.630265210608, "slug": "contracts", "source": "clawhub", "stars": 2, "tags": null, "updated_at": 1776767990461, "version": "1.0.0"}, {"category": "developer-tools", "created_at": 1772770778743, "description": "Deploy and tune Meilisearch with indexing, filtering, and production configuration.", "description_zh": "部署和调优 Meilisearch，涵盖索引、过滤及生产环境配置。", "downloads": 667, "homepage": "https://clawhub.ai/ivangdavila/meilisearch", "iconUrl": null, "installs": 5, "name": "Meilisearch", "ownerName": "ivangdavila", "score": 15756.630265210608, "slug": "meilisearch", "source": "clawhub", "stars": 2, "tags": null, "updated_at": 1776767990452, "version": "1.0.0"}, {"category": "content-creation", "created_at": 1772770590102, "description": "Write Danish that sounds human. Not formal, not robotic, not AI-generated.", "description_zh": "写出自然的丹麦语，避免正式、机械和AI生成的风格。", "downloads": 666, "homepage": "https://clawhub.ai/ivangdavila/danish", "iconUrl": null, "installs": 35, "name": "Danish", "ownerName": "ivangdavila", "score": 6737.927085321627, "slug": "danish", "source": "clawhub", "stars": 2, "tags": null, "updated_at": 1776769450087, "version": "1.0.0"}, {"category": "content-creation", "created_at": 1772770767808, "description": "Write Czech that sounds human. Not formal, not robotic, not AI-generated.", "description_zh": "撰写自然流畅的捷克语，拒绝刻板、机械或AI生成的痕迹。", "downloads": 665, "homepage": "https://clawhub.ai/ivangdavila/czech", "iconUrl": null, "installs": 31, "name": "Czech", "ownerName": "ivangdavila", "score": 8449.185043144775, "slug": "czech", "source": "clawhub", "stars": 2, "tags": null, "updated_at": 1776769490505, "version": "1.0.0"}, {"category": "content-creation", "created_at": 1772771726052, "description": "Write Bengali that sounds human. Not formal, not robotic, not AI-generated.", "description_zh": "写孟加拉语，听起来像人话。不要正式，不要机械，不要AI生成的。", "downloads": 665, "homepage": "https://clawhub.ai/ivangdavila/bengali", "iconUrl": null, "installs": 34, "name": "Bengali", "ownerName": "ivangdavila", "score": 8449.185043144775, "slug": "bengali", "source": "clawhub", "stars": 2, "tags": null, "updated_at": 1776769490491, "version": "1.0.0"}, {"category": "ai-intelligence", "created_at": 1772772123625, "description": "Learns how to explain things to your human. Adapts format, depth, and style by topic.", "description_zh": "学习如何向人类解释事物，根据主题调整格式、深度和风格。", "downloads": 663, "homepage": "https://clawhub.ai/ivangdavila/explain", "iconUrl": null, "installs": 39, "name": "Explain", "ownerName": "ivangdavila", "score": 4690.1060777903795, "slug": "explain", "source": "clawhub", "stars": 2, "tags": null, "updated_at": 1776768250006, "version": "1.0.2"}, {"category": "productivity", "created_at": 1772770882363, "description": "Manage Bring! shopping lists (Einkaufsliste / grocery list) — add, remove, check off items, batch ops, default list support. Use when: user wants to set up B...", "description_zh": "管理 Bring! 购物清单（Einkaufsliste / 购物清单）— 添加、删除、勾选商品，批量操作，支持默认列表。适用场景：用户想要设置...", "downloads": 662, "homepage": "https://clawhub.ai/maikimolto/bring-list", "iconUrl": null, "installs": 20, "name": "Bring! Shopping List", "ownerName": "maikimolto", "score": 34310.85043988269, "slug": "bring-list", "source": "clawhub", "stars": 2, "tags": null, "updated_at": 1776768249845, "version": "1.2.5"}, {"category": "data-analysis", "created_at": 1772776159888, "description": "Multimodal YouTube video analysis through both audio (transcript) and visual (frame extraction + image analysis) channels. Especially powerful for HowTo vide...", "description_zh": "{ \"translation\": \"多模态 YouTube 视频分析，融合音频（转录）与视觉（关键帧提取+图像分析）双通道，尤擅教程类视频。\" }", "downloads": 661, "homepage": "https://clawhub.ai/sdrabent/youtube-knowledge-extractor", "iconUrl": null, "installs": 42, "name": "Youtube Knowledge Extractor", "ownerName": "sdrabent", "score": 34261.974584555224, "slug": "youtube-knowledge-extractor", "source": "clawhub", "stars": 2, "tags": null, "updated_at": 1776768249894, "version": "1.1.0"}, {"category": "developer-tools", "created_at": 1772774423499, "description": "Self-hosted REST API for comprehensive PDF manipulation including merge, split, convert, OCR, compress, sign, redact, and secure PDFs.", "description_zh": "自托管REST API，实现全面的PDF操作，包括合并、拆分、转换、OCR识别、压缩、签名、编辑和加密PDF。", "downloads": 661, "homepage": "https://clawhub.ai/angusthefuzz/stirling-pdf", "iconUrl": null, "installs": 34, "name": "Stirling PDF", "ownerName": "angusthefuzz", "score": 34261.974584555224, "slug": "stirling-pdf", "source": "clawhub", "stars": 2, "tags": null, "updated_at": 1776768249848, "version": "1.0.4"}, {"category": "content-creation", "created_at": 1772770981215, "description": "Write Slovak that sounds human. Not formal, not robotic, not AI-generated.", "description_zh": "自然写斯洛伐克语，别太正式，别机械，别像AI写的。", "downloads": 659, "homepage": "https://clawhub.ai/ivangdavila/slovak", "iconUrl": null, "installs": 30, "name": "Slovak", "ownerName": "ivangdavila", "score": 4663.419841216893, "slug": "slovak", "source": "clawhub", "stars": 2, "tags": null, "updated_at": 1776768250004, "version": "1.0.0"}, {"category": "data-analysis", "created_at": 1773073265928, "description": "Translate and dub existing videos into multiple languages using HeyGen. Use when: (1) Translating a video into another language, (2) Dubbing video content wi...", "description_zh": "使用 HeyGen 将现有视频翻译并配音成多种语言。适用场景：(1) 将视频翻译成另一种语言；(2) 为视频内容配音...", "downloads": 659, "homepage": "https://clawhub.ai/michaelwang11394/video-translate", "iconUrl": null, "installs": 41, "name": "Video Translate", "ownerName": "michaelwang11394", "score": 14164.133738601822, "slug": "video-translate", "source": "clawhub", "stars": 2, "tags": ["dubbing", "heygen", "lip-sync", "localization", "translation", "video-translate"], "updated_at": 1776768249757, "version": "2.21.0"}, {"category": "data-analysis", "created_at": 1773073265928, "description": "Translate and dub existing videos into multiple languages using HeyGen. Use when: (1) Translating a video into another language, (2) Dubbing video content wi...", "description_zh": "使用 HeyGen 将现有视频翻译并配音成多种语言。适用场景：(1) 将视频翻译成另一种语言；(2) 为视频内容配音...", "downloads": 659, "homepage": "https://clawhub.ai/michaelwang11394/video-translate", "iconUrl": null, "installs": 41, "name": "Video Translate", "ownerName": "michaelwang11394", "score": 5564.843563410556, "slug": "video-translate", "source": "clawhub", "stars": 2, "tags": ["dubbing", "heygen", "lip-sync", "localization", "translation", "video-translate"], "updated_at": 1776768249757, "version": "2.21.0"}, {"category": "content-creation", "created_at": 1772770637528, "description": "Write Galician that sounds human. Not formal, not robotic, not AI-generated.", "description_zh": "撰写自然的加利西亚语，非正式、非机械、非AI生成", "downloads": 658, "homepage": "https://clawhub.ai/ivangdavila/galician", "iconUrl": null, "installs": 30, "name": "Galician", "ownerName": "ivangdavila", "score": 9094.462540716611, "slug": "galician", "source": "clawhub", "stars": 2, "tags": null, "updated_at": 1776768249991, "version": "1.0.0"}, {"category": "ai-intelligence", "created_at": 1772776383740, "description": "Play board games on ShellGames.ai — Chess, Poker, Ludo, Tycoon, Memory, and Spymaster. Use when the agent wants to play games against humans or other AI agen...", "description_zh": "在ShellGames.ai玩棋盘游戏——象棋、扑克、卢多、Tycoon、记忆、间谍大师。用于代理与人类或其他AI对战。", "downloads": 658, "homepage": "https://clawhub.ai/fabiantaboo/shellgames", "iconUrl": null, "installs": 56, "name": "ShellGames", "ownerName": "fabiantaboo", "score": 14143.870314083078, "slug": "shellgames", "source": "clawhub", "stars": 2, "tags": null, "updated_at": 1776768249790, "version": "1.0.4"}, {"category": "content-creation", "created_at": 1772771286186, "description": "Write Catalan that sounds human. Not formal, not robotic, not AI-generated.", "description_zh": "写得像人说的加泰罗尼亚语，别太正式，别像机器人，也别像AI生成的。", "downloads": 658, "homepage": "https://clawhub.ai/ivangdavila/catalan", "iconUrl": null, "installs": 35, "name": "Catalan", "ownerName": "ivangdavila", "score": 5556.8824138205555, "slug": "catalan", "source": "clawhub", "stars": 2, "tags": null, "updated_at": 1776768249734, "version": "1.0.0"}, {"category": "content-creation", "created_at": 1772770846876, "description": "Write Swedish that sounds human. Not formal, not robotic, not AI-generated.", "description_zh": "写出自然的瑞典语。不要正式、机械或AI生成。", "downloads": 657, "homepage": "https://clawhub.ai/ivangdavila/swedish", "iconUrl": null, "installs": 31, "name": "Swedish", "ownerName": "ivangdavila", "score": 16516.58767772512, "slug": "swedish", "source": "clawhub", "stars": 2, "tags": null, "updated_at": 1776769450167, "version": "1.0.0"}]}