{"page": 10, "total_pages": 22, "total": 1089, "skills": [{"slug": "flutter-flutter-reducing-app-size", "name": "flutter/flutter-reducing-app-size", "description": "Measure and optimize Flutter app bundle sizes", "description_zh": "", "homepage": "https://officialskills.sh/flutter/skills/flutter-reducing-app-size", "tags": ["TypeScript Skills"], "category": "TypeScript Skills", "ownerName": "", "sources": ["VoltAgent/awesome-agent-skills"], "score": 650, "downloads": 0, "stars": 0, "installs": 0, "version": "", "updated_at": 0}, {"slug": "flutter-flutter-setting-up-on-linux", "name": "flutter/flutter-setting-up-on-linux", "description": "Set up a Linux machine for Flutter desktop development", "description_zh": "", "homepage": "https://officialskills.sh/flutter/skills/flutter-setting-up-on-linux", "tags": ["TypeScript Skills"], "category": "TypeScript Skills", "ownerName": "", "sources": ["VoltAgent/awesome-agent-skills"], "score": 649, "downloads": 0, "stars": 0, "installs": 0, "version": "", "updated_at": 0}, {"slug": "flutter-flutter-setting-up-on-macos", "name": "flutter/flutter-setting-up-on-macos", "description": "Set up a macOS machine for Flutter development", "description_zh": "", "homepage": "https://officialskills.sh/flutter/skills/flutter-setting-up-on-macos", "tags": ["TypeScript Skills"], "category": "TypeScript Skills", "ownerName": "", "sources": ["VoltAgent/awesome-agent-skills"], "score": 648, "downloads": 0, "stars": 0, "installs": 0, "version": "", "updated_at": 0}, {"slug": "flutter-flutter-setting-up-on-windows", "name": "flutter/flutter-setting-up-on-windows", "description": "Set up a Windows machine for Flutter development", "description_zh": "", "homepage": "https://officialskills.sh/flutter/skills/flutter-setting-up-on-windows", "tags": ["TypeScript Skills"], "category": "TypeScript Skills", "ownerName": "", "sources": ["VoltAgent/awesome-agent-skills"], "score": 647, "downloads": 0, "stars": 0, "installs": 0, "version": "", "updated_at": 0}, {"slug": "flutter-flutter-testing-apps", "name": "flutter/flutter-testing-apps", "description": "Implement unit, widget, and integration tests", "description_zh": "", "homepage": "https://officialskills.sh/flutter/skills/flutter-testing-apps", "tags": ["TypeScript Skills"], "category": "TypeScript Skills", "ownerName": "", "sources": ["VoltAgent/awesome-agent-skills"], "score": 646, "downloads": 0, "stars": 0, "installs": 0, "version": "", "updated_at": 0}, {"slug": "flutter-flutter-theming-apps", "name": "flutter/flutter-theming-apps", "description": "Customize Flutter app appearance through the theming system", "description_zh": "", "homepage": "https://officialskills.sh/flutter/skills/flutter-theming-apps", "tags": ["TypeScript Skills"], "category": "TypeScript Skills", "ownerName": "", "sources": ["VoltAgent/awesome-agent-skills"], "score": 645, "downloads": 0, "stars": 0, "installs": 0, "version": "", "updated_at": 0}, {"slug": "flutter-flutter-working-with-databases", "name": "flutter/flutter-working-with-databases", "description": "Build a structured data layer using SQLite", "description_zh": "", "homepage": "https://officialskills.sh/flutter/skills/flutter-working-with-databases", "tags": ["TypeScript Skills"], "category": "TypeScript Skills", "ownerName": "", "sources": ["VoltAgent/awesome-agent-skills"], "score": 644, "downloads": 0, "stars": 0, "installs": 0, "version": "", "updated_at": 0}, {"slug": "follow-on-twitter-x", "name": "Follow on Twitter/X", "description": "Stay updated on new skills and features", "description_zh": "", "homepage": "https://x.com/composio", "tags": ["Join the Community"], "category": "Join the Community", "ownerName": "", "sources": ["ComposioHQ/awesome-claude-skills"], "score": 643, "downloads": 0, "stars": 0, "installs": 0, "version": "", "updated_at": 0}, {"slug": "freshdesk-automation", "name": "Freshdesk Automation", "description": "Automate Freshdesk: tickets, contacts, agents, groups, and canned responses.", "description_zh": "", "homepage": "./freshdesk-automation", "tags": ["App Automation via Composio"], "category": "App Automation via Composio", "ownerName": "", "sources": ["ComposioHQ/awesome-claude-skills"], "score": 642, "downloads": 0, "stars": 0, "installs": 0, "version": "", "updated_at": 0}, {"slug": "freshservice-automation", "name": "Freshservice Automation", "description": "Automate Freshservice: tickets, assets, changes, problems, and service catalog.", "description_zh": "", "homepage": "./freshservice-automation", "tags": ["App Automation via Composio"], "category": "App Automation via Composio", "ownerName": "", "sources": ["ComposioHQ/awesome-claude-skills"], "score": 641, "downloads": 0, "stars": 0, "installs": 0, "version": "", "updated_at": 0}, {"slug": "frontend-design", "name": "frontend-design", "description": "Instructs Claude to avoid \"AI slop\" or generic aesthetics and to make bold design decisions. Works very well for React & Tailwind.", "description_zh": "", "homepage": "https://github.com/anthropics/skills/blob/main/skills/frontend-design", "tags": ["Development"], "category": "Development", "ownerName": "anthropics", "sources": ["travisvn/awesome-claude-skills"], "score": 640, "downloads": 0, "stars": 0, "installs": 0, "version": "", "updated_at": 0}, {"slug": "fruitwyatt-puzzle-activity-planner", "name": "fruitwyatt/puzzle-activity-planner", "description": "Puzzle activity-planning skill for classrooms, parties, and events with generator-link workflows.", "description_zh": "", "homepage": "https://github.com/fruitwyatt/puzzle-activity-planner", "tags": ["Community Contributors"], "category": "Community Contributors", "ownerName": "fruitwyatt", "sources": ["sickn33/antigravity-awesome-skills"], "score": 639, "downloads": 0, "stars": 0, "installs": 0, "version": "", "updated_at": 0}, {"slug": "fullstackcrew-alpha-privacy-mask", "name": "fullstackcrew-alpha/privacy-mask", "description": "Local image privacy masking for AI coding agents. Detects and redacts PII, API keys, and secrets in screenshots via OCR + 47 regex rules. Claude Code hook integration for automatic masking. Supports Tesseract and RapidOCR. 100% offline (MIT).", "description_zh": "", "homepage": "https://github.com/fullstackcrew-alpha/privacy-mask", "tags": ["Community Contributors"], "category": "Community Contributors", "ownerName": "fullstackcrew-alpha", "sources": ["sickn33/antigravity-awesome-skills"], "score": 638, "downloads": 0, "stars": 0, "installs": 0, "version": "", "updated_at": 0}, {"slug": "fvadicamo-dev-agent-skills", "name": "fvadicamo/dev-agent-skills", "description": "Git and GitHub workflow skills for commits, PRs, and code reviews", "description_zh": "", "homepage": "https://github.com/fvadicamo/dev-agent-skills", "tags": ["Community Skills"], "category": "Community Skills", "ownerName": "fvadicamo", "sources": ["VoltAgent/awesome-agent-skills"], "score": 637, "downloads": 0, "stars": 0, "installs": 0, "version": "", "updated_at": 0}, {"slug": "garrytan-autoplan", "name": "garrytan/autoplan", "description": "One command, fully reviewed plan: runs CEO → design → eng review automatically", "description_zh": "", "homepage": "https://officialskills.sh/garrytan/skills/autoplan", "tags": ["TypeScript Skills"], "category": "TypeScript Skills", "ownerName": "", "sources": ["VoltAgent/awesome-agent-skills"], "score": 636, "downloads": 0, "stars": 0, "installs": 0, "version": "", "updated_at": 0}, {"slug": "garrytan-benchmark", "name": "garrytan/benchmark", "description": "Performance Engineer: baseline page load times, Core Web Vitals, and resource sizes", "description_zh": "", "homepage": "https://officialskills.sh/garrytan/skills/benchmark", "tags": ["TypeScript Skills"], "category": "TypeScript Skills", "ownerName": "", "sources": ["VoltAgent/awesome-agent-skills"], "score": 635, "downloads": 0, "stars": 0, "installs": 0, "version": "", "updated_at": 0}, {"slug": "garrytan-browse", "name": "garrytan/browse", "description": "Real Chromium browser for QA: real clicks, real screenshots, ~100ms per command", "description_zh": "", "homepage": "https://officialskills.sh/garrytan/skills/browse", "tags": ["TypeScript Skills"], "category": "TypeScript Skills", "ownerName": "", "sources": ["VoltAgent/awesome-agent-skills"], "score": 634, "downloads": 0, "stars": 0, "installs": 0, "version": "", "updated_at": 0}, {"slug": "garrytan-canary", "name": "garrytan/canary", "description": "SRE post-deploy monitoring: watches for console errors, performance regressions, and page failures", "description_zh": "", "homepage": "https://officialskills.sh/garrytan/skills/canary", "tags": ["TypeScript Skills"], "category": "TypeScript Skills", "ownerName": "", "sources": ["VoltAgent/awesome-agent-skills"], "score": 633, "downloads": 0, "stars": 0, "installs": 0, "version": "", "updated_at": 0}, {"slug": "garrytan-careful", "name": "garrytan/careful", "description": "Safety Guardrails: warns before destructive commands (rm -rf, DROP TABLE, force-push)", "description_zh": "", "homepage": "https://officialskills.sh/garrytan/skills/careful", "tags": ["TypeScript Skills"], "category": "TypeScript Skills", "ownerName": "", "sources": ["VoltAgent/awesome-agent-skills"], "score": 632, "downloads": 0, "stars": 0, "installs": 0, "version": "", "updated_at": 0}, {"slug": "garrytan-codex", "name": "garrytan/codex", "description": "Second Opinion via OpenAI Codex CLI: review, adversarial challenge, and open consultation", "description_zh": "", "homepage": "https://officialskills.sh/garrytan/skills/codex", "tags": ["TypeScript Skills"], "category": "TypeScript Skills", "ownerName": "", "sources": ["VoltAgent/awesome-agent-skills"], "score": 631, "downloads": 0, "stars": 0, "installs": 0, "version": "", "updated_at": 0}, {"slug": "garrytan-cso", "name": "garrytan/cso", "description": "Chief Security Officer: OWASP Top 10 + STRIDE threat model with zero false-positive exclusions", "description_zh": "", "homepage": "https://officialskills.sh/garrytan/skills/cso", "tags": ["TypeScript Skills"], "category": "TypeScript Skills", "ownerName": "", "sources": ["VoltAgent/awesome-agent-skills"], "score": 630, "downloads": 0, "stars": 0, "installs": 0, "version": "", "updated_at": 0}, {"slug": "garrytan-design-consultation", "name": "garrytan/design-consultation", "description": "Build a complete design system from scratch with creative risks and realistic product mockups", "description_zh": "", "homepage": "https://officialskills.sh/garrytan/skills/design-consultation", "tags": ["TypeScript Skills"], "category": "TypeScript Skills", "ownerName": "", "sources": ["VoltAgent/awesome-agent-skills"], "score": 629, "downloads": 0, "stars": 0, "installs": 0, "version": "", "updated_at": 0}, {"slug": "garrytan-design-review", "name": "garrytan/design-review", "description": "Designer Who Codes: visual audit then fixes with atomic commits and before/after screenshots", "description_zh": "", "homepage": "https://officialskills.sh/garrytan/skills/design-review", "tags": ["TypeScript Skills"], "category": "TypeScript Skills", "ownerName": "", "sources": ["VoltAgent/awesome-agent-skills"], "score": 628, "downloads": 0, "stars": 0, "installs": 0, "version": "", "updated_at": 0}, {"slug": "garrytan-document-release", "name": "garrytan/document-release", "description": "Technical Writer: update all project docs to match what you just shipped", "description_zh": "", "homepage": "https://officialskills.sh/garrytan/skills/document-release", "tags": ["TypeScript Skills"], "category": "TypeScript Skills", "ownerName": "", "sources": ["VoltAgent/awesome-agent-skills"], "score": 627, "downloads": 0, "stars": 0, "installs": 0, "version": "", "updated_at": 0}, {"slug": "garrytan-freeze", "name": "garrytan/freeze", "description": "Edit Lock: restrict file edits to one directory while debugging", "description_zh": "", "homepage": "https://officialskills.sh/garrytan/skills/freeze", "tags": ["TypeScript Skills"], "category": "TypeScript Skills", "ownerName": "", "sources": ["VoltAgent/awesome-agent-skills"], "score": 626, "downloads": 0, "stars": 0, "installs": 0, "version": "", "updated_at": 0}, {"slug": "garrytan-gstack-upgrade", "name": "garrytan/gstack-upgrade", "description": "Self-Updater: upgrade gstack to latest version", "description_zh": "", "homepage": "https://officialskills.sh/garrytan/skills/gstack-upgrade", "tags": ["TypeScript Skills"], "category": "TypeScript Skills", "ownerName": "", "sources": ["VoltAgent/awesome-agent-skills"], "score": 625, "downloads": 0, "stars": 0, "installs": 0, "version": "", "updated_at": 0}, {"slug": "garrytan-guard", "name": "garrytan/guard", "description": "Full Safety: /careful + /freeze in one command for maximum safety", "description_zh": "", "homepage": "https://officialskills.sh/garrytan/skills/guard", "tags": ["TypeScript Skills"], "category": "TypeScript Skills", "ownerName": "", "sources": ["VoltAgent/awesome-agent-skills"], "score": 624, "downloads": 0, "stars": 0, "installs": 0, "version": "", "updated_at": 0}, {"slug": "garrytan-investigate", "name": "garrytan/investigate", "description": "Systematic root-cause debugging: no fixes without investigation, traces data flow, tests hypotheses", "description_zh": "", "homepage": "https://officialskills.sh/garrytan/skills/investigate", "tags": ["TypeScript Skills"], "category": "TypeScript Skills", "ownerName": "", "sources": ["VoltAgent/awesome-agent-skills"], "score": 623, "downloads": 0, "stars": 0, "installs": 0, "version": "", "updated_at": 0}, {"slug": "garrytan-land-and-deploy", "name": "garrytan/land-and-deploy", "description": "Merge the PR, wait for CI and deploy, verify production health", "description_zh": "", "homepage": "https://officialskills.sh/garrytan/skills/land-and-deploy", "tags": ["TypeScript Skills"], "category": "TypeScript Skills", "ownerName": "", "sources": ["VoltAgent/awesome-agent-skills"], "score": 622, "downloads": 0, "stars": 0, "installs": 0, "version": "", "updated_at": 0}, {"slug": "garrytan-office-hours", "name": "garrytan/office-hours", "description": "YC Office Hours: six forcing questions that reframe your product before you write code", "description_zh": "", "homepage": "https://officialskills.sh/garrytan/skills/office-hours", "tags": ["TypeScript Skills"], "category": "TypeScript Skills", "ownerName": "", "sources": ["VoltAgent/awesome-agent-skills"], "score": 621, "downloads": 0, "stars": 0, "installs": 0, "version": "", "updated_at": 0}, {"slug": "garrytan-plan-ceo-review", "name": "garrytan/plan-ceo-review", "description": "CEO/Founder plan review with four modes: Expansion, Selective Expansion, Hold Scope, Reduction", "description_zh": "", "homepage": "https://officialskills.sh/garrytan/skills/plan-ceo-review", "tags": ["TypeScript Skills"], "category": "TypeScript Skills", "ownerName": "", "sources": ["VoltAgent/awesome-agent-skills"], "score": 620, "downloads": 0, "stars": 0, "installs": 0, "version": "", "updated_at": 0}, {"slug": "garrytan-plan-design-review", "name": "garrytan/plan-design-review", "description": "Senior Designer review: rates each design dimension 0-10, explains what a 10 looks like, AI Slop detection", "description_zh": "", "homepage": "https://officialskills.sh/garrytan/skills/plan-design-review", "tags": ["TypeScript Skills"], "category": "TypeScript Skills", "ownerName": "", "sources": ["VoltAgent/awesome-agent-skills"], "score": 619, "downloads": 0, "stars": 0, "installs": 0, "version": "", "updated_at": 0}, {"slug": "garrytan-plan-eng-review", "name": "garrytan/plan-eng-review", "description": "Eng Manager review: lock in architecture, data flow, diagrams, edge cases, and tests", "description_zh": "", "homepage": "https://officialskills.sh/garrytan/skills/plan-eng-review", "tags": ["TypeScript Skills"], "category": "TypeScript Skills", "ownerName": "", "sources": ["VoltAgent/awesome-agent-skills"], "score": 618, "downloads": 0, "stars": 0, "installs": 0, "version": "", "updated_at": 0}, {"slug": "garrytan-qa", "name": "garrytan/qa", "description": "QA Lead: test your app, find bugs, fix them with atomic commits, auto-generate regression tests", "description_zh": "", "homepage": "https://officialskills.sh/garrytan/skills/qa", "tags": ["TypeScript Skills"], "category": "TypeScript Skills", "ownerName": "", "sources": ["VoltAgent/awesome-agent-skills"], "score": 617, "downloads": 0, "stars": 0, "installs": 0, "version": "", "updated_at": 0}, {"slug": "garrytan-qa-only", "name": "garrytan/qa-only", "description": "QA Reporter: same methodology as /qa but report only, no code changes", "description_zh": "", "homepage": "https://officialskills.sh/garrytan/skills/qa-only", "tags": ["TypeScript Skills"], "category": "TypeScript Skills", "ownerName": "", "sources": ["VoltAgent/awesome-agent-skills"], "score": 616, "downloads": 0, "stars": 0, "installs": 0, "version": "", "updated_at": 0}, {"slug": "garrytan-retro", "name": "garrytan/retro", "description": "Eng Manager weekly retro with per-person breakdowns and shipping streaks", "description_zh": "", "homepage": "https://officialskills.sh/garrytan/skills/retro", "tags": ["TypeScript Skills"], "category": "TypeScript Skills", "ownerName": "", "sources": ["VoltAgent/awesome-agent-skills"], "score": 615, "downloads": 0, "stars": 0, "installs": 0, "version": "", "updated_at": 0}, {"slug": "garrytan-review", "name": "garrytan/review", "description": "Staff Engineer code review: finds bugs that pass CI but blow up in production", "description_zh": "", "homepage": "https://officialskills.sh/garrytan/skills/review", "tags": ["TypeScript Skills"], "category": "TypeScript Skills", "ownerName": "", "sources": ["VoltAgent/awesome-agent-skills"], "score": 614, "downloads": 0, "stars": 0, "installs": 0, "version": "", "updated_at": 0}, {"slug": "garrytan-setup-browser-cookies", "name": "garrytan/setup-browser-cookies", "description": "Import cookies from your real browser into the headless session", "description_zh": "", "homepage": "https://officialskills.sh/garrytan/skills/setup-browser-cookies", "tags": ["TypeScript Skills"], "category": "TypeScript Skills", "ownerName": "", "sources": ["VoltAgent/awesome-agent-skills"], "score": 613, "downloads": 0, "stars": 0, "installs": 0, "version": "", "updated_at": 0}, {"slug": "garrytan-setup-deploy", "name": "garrytan/setup-deploy", "description": "Deploy Configurator: one-time setup for /land-and-deploy", "description_zh": "", "homepage": "https://officialskills.sh/garrytan/skills/setup-deploy", "tags": ["TypeScript Skills"], "category": "TypeScript Skills", "ownerName": "", "sources": ["VoltAgent/awesome-agent-skills"], "score": 612, "downloads": 0, "stars": 0, "installs": 0, "version": "", "updated_at": 0}, {"slug": "garrytan-ship", "name": "garrytan/ship", "description": "Release Engineer: sync main, run tests, audit coverage, push, open PR", "description_zh": "", "homepage": "https://officialskills.sh/garrytan/skills/ship", "tags": ["TypeScript Skills"], "category": "TypeScript Skills", "ownerName": "", "sources": ["VoltAgent/awesome-agent-skills"], "score": 611, "downloads": 0, "stars": 0, "installs": 0, "version": "", "updated_at": 0}, {"slug": "garrytan-unfreeze", "name": "garrytan/unfreeze", "description": "Unlock: remove the /freeze boundary", "description_zh": "", "homepage": "https://officialskills.sh/garrytan/skills/unfreeze", "tags": ["TypeScript Skills"], "category": "TypeScript Skills", "ownerName": "", "sources": ["VoltAgent/awesome-agent-skills"], "score": 610, "downloads": 0, "stars": 0, "installs": 0, "version": "", "updated_at": 0}, {"slug": "gemini-cli-skills", "name": "Gemini CLI skills", "description": "starter stack for research, agent systems, integrations, and engineering workflows.", "description_zh": "", "homepage": "docs/users/gemini-cli-skills.md", "tags": ["Best Skills By Tool"], "category": "Best Skills By Tool", "ownerName": "", "sources": ["sickn33/antigravity-awesome-skills"], "score": 609, "downloads": 0, "stars": 0, "installs": 0, "version": "", "updated_at": 0}, {"slug": "getsentry-sentry-android-sdk", "name": "getsentry/sentry-android-sdk", "description": "Full Sentry SDK setup for Android (Kotlin and Java)", "description_zh": "", "homepage": "https://officialskills.sh/getsentry/skills/sentry-android-sdk", "tags": ["Skills by Typefully"], "category": "Skills by Typefully", "ownerName": "", "sources": ["VoltAgent/awesome-agent-skills"], "score": 608, "downloads": 0, "stars": 0, "installs": 0, "version": "", "updated_at": 0}, {"slug": "getsentry-sentry-browser-sdk", "name": "getsentry/sentry-browser-sdk", "description": "Full Sentry SDK setup for browser JavaScript", "description_zh": "", "homepage": "https://officialskills.sh/getsentry/skills/sentry-browser-sdk", "tags": ["Skills by Typefully"], "category": "Skills by Typefully", "ownerName": "", "sources": ["VoltAgent/awesome-agent-skills"], "score": 607, "downloads": 0, "stars": 0, "installs": 0, "version": "", "updated_at": 0}, {"slug": "getsentry-sentry-cloudflare-sdk", "name": "getsentry/sentry-cloudflare-sdk", "description": "Full Sentry SDK setup for Cloudflare Workers, Pages, Durable Objects, Queues, and Workflows", "description_zh": "", "homepage": "https://officialskills.sh/getsentry/skills/sentry-cloudflare-sdk", "tags": ["Skills by Typefully"], "category": "Skills by Typefully", "ownerName": "", "sources": ["VoltAgent/awesome-agent-skills"], "score": 606, "downloads": 0, "stars": 0, "installs": 0, "version": "", "updated_at": 0}, {"slug": "getsentry-sentry-cocoa-sdk", "name": "getsentry/sentry-cocoa-sdk", "description": "Full Sentry SDK setup for Apple platforms (iOS, macOS, tvOS, watchOS, visionOS)", "description_zh": "", "homepage": "https://officialskills.sh/getsentry/skills/sentry-cocoa-sdk", "tags": ["Skills by Typefully"], "category": "Skills by Typefully", "ownerName": "", "sources": ["VoltAgent/awesome-agent-skills"], "score": 605, "downloads": 0, "stars": 0, "installs": 0, "version": "", "updated_at": 0}, {"slug": "getsentry-sentry-code-review", "name": "getsentry/sentry-code-review", "description": "Review code changes using Sentry issue and trace context", "description_zh": "", "homepage": "https://officialskills.sh/getsentry/skills/sentry-code-review", "tags": ["Skills by Typefully"], "category": "Skills by Typefully", "ownerName": "", "sources": ["VoltAgent/awesome-agent-skills"], "score": 604, "downloads": 0, "stars": 0, "installs": 0, "version": "", "updated_at": 0}, {"slug": "getsentry-sentry-create-alert", "name": "getsentry/sentry-create-alert", "description": "Create Sentry alerts with email, Slack, PagerDuty, Discord, and more", "description_zh": "", "homepage": "https://officialskills.sh/getsentry/skills/sentry-create-alert", "tags": ["Skills by Typefully"], "category": "Skills by Typefully", "ownerName": "", "sources": ["VoltAgent/awesome-agent-skills"], "score": 603, "downloads": 0, "stars": 0, "installs": 0, "version": "", "updated_at": 0}, {"slug": "getsentry-sentry-dotnet-sdk", "name": "getsentry/sentry-dotnet-sdk", "description": "Full Sentry SDK setup for .NET (ASP.NET Core, MAUI, WPF, WinForms, Blazor, Azure Functions)", "description_zh": "", "homepage": "https://officialskills.sh/getsentry/skills/sentry-dotnet-sdk", "tags": ["Skills by Typefully"], "category": "Skills by Typefully", "ownerName": "", "sources": ["VoltAgent/awesome-agent-skills"], "score": 602, "downloads": 0, "stars": 0, "installs": 0, "version": "", "updated_at": 0}, {"slug": "getsentry-sentry-elixir-sdk", "name": "getsentry/sentry-elixir-sdk", "description": "Full Sentry SDK setup for Elixir, Phoenix, Plug, LiveView, Oban, and Quantum", "description_zh": "", "homepage": "https://officialskills.sh/getsentry/skills/sentry-elixir-sdk", "tags": ["Skills by Typefully"], "category": "Skills by Typefully", "ownerName": "", "sources": ["VoltAgent/awesome-agent-skills"], "score": 601, "downloads": 0, "stars": 0, "installs": 0, "version": "", "updated_at": 0}]}