{"page": 105, "total_pages": 522, "total": 26073, "skills": [{"category": "content-creation", "created_at": 1772778684606, "description": "Still-to-video conversion guide: model selection, motion prompting, and camera movement. Covers Wan 2.5 i2v, Seedance, Fabric, Grok Video with when to use ea...", "description_zh": "", "downloads": 1002, "homepage": "https://clawhub.ai/okaris/image-to-video", "iconUrl": null, "installs": 105, "name": "Image To Video", "ownerName": "okaris", "score": 16755.852842809367, "slug": "image-to-video", "source": "clawhub", "stars": 0, "tags": null, "updated_at": 1776763150480, "version": "0.1.5"}, {"category": "data-analysis", "created_at": 1772764994043, "description": "Upbit automated trading (aggressive breakout) with cron-friendly run-once commands, TopVolume monitoring, and percent-based budget splitting.", "description_zh": "", "downloads": 1002, "homepage": "https://clawhub.ai/kuns9/trading-upbit-skill", "iconUrl": null, "installs": 24, "name": "Trading upbit skill", "ownerName": "kuns9", "score": 16755.852842809367, "slug": "trading-upbit-skill", "source": "clawhub", "stars": 0, "tags": null, "updated_at": 1776763150477, "version": "1.0.14"}, {"category": "security-compliance", "created_at": 1772763370401, "description": "Play Blinko (on-chain Plinko) headlessly on Abstract chain. Use when an agent wants to play Blinko games, check game stats, view leaderboards, or track honey rewards. Handles the full commit-reveal flow including API auth, on-chain game creation, simulation, and settlement.", "description_zh": "", "downloads": 1001, "homepage": "https://clawhub.ai/tolibear/blinko", "iconUrl": null, "installs": 20, "name": "Blinko", "ownerName": "tolibear", "score": 42111.65048543689, "slug": "blinko", "source": "clawhub", "stars": 2, "tags": null, "updated_at": 1776762590196, "version": "1.1.1"}, {"category": "ai-intelligence", "created_at": 1772775187444, "description": "Three-layer persistent memory system (Markdown + ChromaDB vectors + NetworkX knowledge graph) for long-term agent recall across sessions. One-command setup w...", "description_zh": "", "downloads": 1001, "homepage": "https://clawhub.ai/jakebot-ops/persistent-memory", "iconUrl": null, "installs": 106, "name": "Persistent Memory", "ownerName": "jakebot-ops", "score": 37916.666666666664, "slug": "persistent-memory", "source": "clawhub", "stars": 0, "tags": ["chromadb", "knowledge-graph", "memory", "persistence", "recall"], "updated_at": 1776764950872, "version": "3.0.0"}, {"category": "content-creation", "created_at": 1773868272219, "description": "Plan and generate ecommerce image assets that actually support conversion. Use when teams need to decide which product, PDP, marketplace, promo, or ad images...", "description_zh": "", "downloads": 1001, "homepage": "https://clawhub.ai/leooooooow/ecommerce-image-asset-generator", "iconUrl": null, "installs": 118, "name": "Ecommerce Image Asset Generator", "ownerName": "leooooooow", "score": 20193.66552350212, "slug": "ecommerce-image-asset-generator", "source": "clawhub", "stars": 0, "tags": null, "updated_at": 1776763449984, "version": "1.0.1"}, {"category": "security-compliance", "created_at": 1772763393524, "description": "Manage Alibaba Cloud Content Moderation (Green) via OpenAPI/SDK. Use whenever the user needs content moderation resource and policy operations, including lis...", "description_zh": "", "downloads": 1001, "homepage": "https://clawhub.ai/cinience/alicloud-security-content-moderation-green", "iconUrl": null, "installs": 20, "name": "Alicloud Security Content Moderation Green", "ownerName": "cinience", "score": 17469.458987783597, "slug": "alicloud-security-content-moderation-green", "source": "clawhub", "stars": 0, "tags": null, "updated_at": 1776763150632, "version": "1.0.3"}, {"category": "security-compliance", "created_at": 1772763346354, "description": "Google Workspace CLI for Gmail, Calendar, and Auth (restricted via security wrapper).", "description_zh": "", "downloads": 1001, "homepage": "https://clawhub.ai/cettoana/gog-restricted", "iconUrl": null, "installs": 17, "name": "gog-restricted", "ownerName": "cettoana", "score": 18340.0513008428, "slug": "gog-restricted", "source": "clawhub", "stars": 0, "tags": null, "updated_at": 1776763149896, "version": "1.0.3"}, {"category": "productivity", "created_at": 1772768635294, "description": "Assist with physics from intuitive explanations to formal derivations at any level.", "description_zh": "", "downloads": 1000, "homepage": "https://clawhub.ai/ivangdavila/physics", "iconUrl": null, "installs": 47, "name": "Physics", "ownerName": "ivangdavila", "score": 434.713548850935, "slug": "physics", "source": "clawhub", "stars": 2, "tags": null, "updated_at": 1776770836682, "version": "1.0.0"}, {"category": "productivity", "created_at": 1772768635294, "description": "Assist with physics from intuitive explanations to formal derivations at any level.", "description_zh": "", "downloads": 1000, "homepage": "https://clawhub.ai/ivangdavila/physics", "iconUrl": null, "installs": 47, "name": "Physics", "ownerName": "ivangdavila", "score": 13461.040641988093, "slug": "physics", "source": "clawhub", "stars": 2, "tags": null, "updated_at": 1776770836682, "version": "1.0.0"}, {"category": "developer-tools", "created_at": 1772763457945, "description": "Provides current weather conditions for any city, airport code, or zip code using wttr.in without requiring an API key.", "description_zh": "", "downloads": 1000, "homepage": "https://clawhub.ai/ryansorr1/my-weather", "iconUrl": null, "installs": 25, "name": "My Weather", "ownerName": "ryansorr1", "score": 42071.19741100324, "slug": "my-weather", "source": "clawhub", "stars": 2, "tags": null, "updated_at": 1776762590120, "version": "1.0.0"}, {"category": "ai-intelligence", "created_at": 1772769520075, "description": "AI-powered tool that generates qualified B2B lead lists with validated contacts, company data, pain points, and exports via LinkedIn and Apollo integration.", "description_zh": "", "downloads": 1000, "homepage": "https://clawhub.ai/highlander89/ai-lead-generator-skill", "iconUrl": null, "installs": 61, "name": "Ai Lead Generator Skill", "ownerName": "highlander89", "score": 16652.789342214823, "slug": "ai-lead-generator-skill", "source": "clawhub", "stars": 0, "tags": null, "updated_at": 1776763150777, "version": "1.0.0"}, {"category": "productivity", "created_at": 1772763422523, "description": "Explore the cosmos from backyard stargazing to astrophysics research.", "description_zh": "", "downloads": 999, "homepage": "https://clawhub.ai/ivangdavila/astronomy", "iconUrl": null, "installs": 18, "name": "Astronomy", "ownerName": "ivangdavila", "score": 434.295555053963, "slug": "astronomy", "source": "clawhub", "stars": 2, "tags": null, "updated_at": 1776770837874, "version": "1.0.0"}, {"category": "content-creation", "created_at": 1772763466929, "description": "Design workout programs, explain exercises, track progress, and adapt training based on user feedback.", "description_zh": "", "downloads": 998, "homepage": "https://clawhub.ai/ivangdavila/personal-trainer", "iconUrl": null, "installs": 53, "name": "Personal Trainer", "ownerName": "ivangdavila", "score": 6745.077652868932, "slug": "personal-trainer", "source": "clawhub", "stars": 2, "tags": null, "updated_at": 1776762589991, "version": "1.0.0"}, {"category": "content-creation", "created_at": 1772768277501, "description": "Design clear, consistent, and visually polished user interfaces.", "description_zh": "", "downloads": 997, "homepage": "https://clawhub.ai/ivangdavila/ui", "iconUrl": null, "installs": 102, "name": "UI", "ownerName": "ivangdavila", "score": 40297.36942432329, "slug": "ui", "source": "clawhub", "stars": 3, "tags": null, "updated_at": 1776762290180, "version": "1.0.0"}, {"category": "ai-intelligence", "created_at": 1772794773571, "description": "Smart coding skill that routes tasks by complexity. Simple→direct, Medium/Complex→ACP with auto-fallback. Integrates with qmd and smart-agent-memory when ava...", "description_zh": "", "downloads": 997, "homepage": "https://clawhub.ai/beyound87/coding-lead", "iconUrl": null, "installs": 68, "name": "Coding Lead", "ownerName": "beyound87", "score": 28690.647482014385, "slug": "coding-lead", "source": "clawhub", "stars": 0, "tags": null, "updated_at": 1776767950033, "version": "1.1.2"}, {"category": "ai-intelligence", "created_at": 1772763422215, "description": "Docs-only guide to Agent Republic. No bundled scripts, just clear workflows and HTTP examples so agents can register, manage bots, and monitor onboarding health after asking their human for approval.", "description_zh": "", "downloads": 997, "homepage": "https://clawhub.ai/gogo6969/agent-republic-docs", "iconUrl": null, "installs": 67, "name": "Agent Republic (Docs only)", "ownerName": "gogo6969", "score": 17399.650959860384, "slug": "agent-republic-docs", "source": "clawhub", "stars": 0, "tags": ["agent-republic", "agents", "democracy", "governance"], "updated_at": 1776763150615, "version": "0.1.1"}, {"category": "data-analysis", "created_at": 1772763412674, "description": "Query and book Chinese railway tickets via 12306 using mcporter CLI. Use when user wants to search for G/D/C train tickets, check train schedules, query seat availability, or plan rail travel between Chinese cities. Supports filtering by date, time range, train type, and sorting results.", "description_zh": "", "downloads": 997, "homepage": "https://clawhub.ai/lancenas/mcporter-railway-query-repo", "iconUrl": null, "installs": 32, "name": "Mcporter Railway Query Repo", "ownerName": "lancenas", "score": 16479.338842975205, "slug": "mcporter-railway-query-repo", "source": "clawhub", "stars": 0, "tags": null, "updated_at": 1776763150392, "version": "1.0.2"}, {"category": "ai-intelligence", "created_at": 1773841431783, "description": "Create and visualize mind maps in the terminal with branching and export. Use when brainstorming ideas, organizing thoughts, exporting mind map structures.", "description_zh": "", "downloads": 996, "homepage": "https://clawhub.ai/bytesagain1/mindmap", "iconUrl": null, "installs": 121, "name": "Mindmap", "ownerName": "bytesagain1", "score": 23804.971319311662, "slug": "mindmap", "source": "clawhub", "stars": 0, "tags": null, "updated_at": 1776764350130, "version": "2.0.1"}, {"category": "data-analysis", "created_at": 1772800029514, "description": "Python code quality checking and LSP integration using pylsp. Provides code diagnostics, completion, hover tips, and style analysis. Use when: checking Pytho...", "description_zh": "", "downloads": 996, "homepage": "https://clawhub.ai/genify/lsp-python", "iconUrl": null, "installs": 49, "name": "LSP Python", "ownerName": "genify", "score": 17382.198952879582, "slug": "lsp-python", "source": "clawhub", "stars": 0, "tags": null, "updated_at": 1776763150601, "version": "1.1.0"}, {"category": "developer-tools", "created_at": 1772792525082, "description": "Schedule and manage social media posts across Instagram, X (Twitter), Bluesky, TikTok, Threads, LinkedIn, Facebook, Pinterest, and YouTube using the AdaptlyP...", "description_zh": "", "downloads": 995, "homepage": "https://clawhub.ai/tarasshyn/adaptlypost", "iconUrl": null, "installs": 17, "name": "AdaptlyPost", "ownerName": "tarasshyn", "score": 46225.99374720858, "slug": "adaptlypost", "source": "clawhub", "stars": 2, "tags": null, "updated_at": 1776769150299, "version": "1.0.4"}, {"category": "security-compliance", "created_at": 1772773833635, "description": "Scan websites and content to identify SEO gaps, analyze meta tags, technical factors, keyword use, and provide competitor comparison insights.", "description_zh": "", "downloads": 995, "homepage": "https://clawhub.ai/mattvalenta/pls-seo-audit", "iconUrl": null, "installs": 29, "name": "PLS SEO Audit", "ownerName": "mattvalenta", "score": 16824.484274602637, "slug": "pls-seo-audit", "source": "clawhub", "stars": 0, "tags": null, "updated_at": 1776763150342, "version": "1.0.0"}, {"category": "developer-tools", "created_at": 1772763359501, "description": "Play the LIE.WATCH AI social deduction game - survive through trust, deception, and strategic betrayal", "description_zh": "", "downloads": 995, "homepage": "https://clawhub.ai/evinelias/liewatch", "iconUrl": null, "installs": 23, "name": "LIE.WATCH", "ownerName": "evinelias", "score": 16933.287950987065, "slug": "liewatch", "source": "clawhub", "stars": 0, "tags": null, "updated_at": 1776763150125, "version": "1.0.7"}, {"category": "developer-tools", "created_at": 1772766766948, "description": "Aggregated search aggregator using Google CSE, GNews RSS, Wikipedia, Reddit, and Scrapling.", "description_zh": "", "downloads": 995, "homepage": "https://clawhub.ai/1999azzar/search-cluster", "iconUrl": null, "installs": 22, "name": "Search Cluster", "ownerName": "1999azzar", "score": 18230.120923415172, "slug": "search-cluster", "source": "clawhub", "stars": 0, "tags": ["google", "newsapi", "reddit", "rss", "search", "wiki"], "updated_at": 1776763149980, "version": "3.5.1"}, {"category": "data-analysis", "created_at": 1772765626716, "description": "Guide for creating effective skills. This skill should be used when users want to create a new skill (or update an existing skill) that extends Claude's capabilities with specialized knowledge, workflows, or tool integrations.", "description_zh": "", "downloads": 995, "homepage": "https://clawhub.ai/warm-wm/creator", "iconUrl": null, "installs": 57, "name": "creator", "ownerName": "warm-wm", "score": 16901.647698318327, "slug": "creator", "source": "clawhub", "stars": 0, "tags": null, "updated_at": 1776763149786, "version": "1.0.0"}, {"category": "data-analysis", "created_at": 1772769591723, "description": "Analyzes competitors using web research and structured frameworks", "description_zh": "", "downloads": 994, "homepage": "https://clawhub.ai/1kalin/competitor-analyst", "iconUrl": null, "installs": 29, "name": "Competitor Analyst", "ownerName": "1kalin", "score": 40044.74272930649, "slug": "competitor-analyst", "source": "clawhub", "stars": 4, "tags": ["competitors", "research", "strategy"], "updated_at": 1776762140056, "version": "1.0.0"}, {"category": "content-creation", "created_at": 1773953004728, "description": "Use this skill when the user wants to: (1) generate a PPT from a topic — trigger on '/ppt_write', 'generate a PPT', 'create a presentation about X', 'help me...", "description_zh": "", "downloads": 994, "homepage": "https://clawhub.ai/gxcun17/skywork-ppt", "iconUrl": null, "installs": 537, "name": "Skywork PPT", "ownerName": "gxcun17", "score": 3570.1711147102314, "slug": "skywork-ppt", "source": "clawhub", "stars": 1, "tags": null, "updated_at": 1776770050068, "version": "1.0.0"}, {"category": "security-compliance", "created_at": 1772763457664, "description": "Find and fix code issues before publishing a PR. Single-pass review with auto-fix. Use when reviewing code changes before submission or auditing existing cod...", "description_zh": "", "downloads": 994, "homepage": "https://clawhub.ai/glucksberg/pr-review", "iconUrl": null, "installs": 17, "name": "pr-review", "ownerName": "glucksberg", "score": 18451.828475960647, "slug": "pr-review", "source": "clawhub", "stars": 0, "tags": null, "updated_at": 1776763150580, "version": "2.0.1"}, {"category": "content-creation", "created_at": 1772769415031, "description": "Writes personalized cold emails that actually get replies", "description_zh": "", "downloads": 994, "homepage": "https://clawhub.ai/1kalin/cold-email-writer", "iconUrl": null, "installs": 76, "name": "Cold Email Writer", "ownerName": "1kalin", "score": 16736.82438120896, "slug": "cold-email-writer", "source": "clawhub", "stars": 0, "tags": ["email", "outreach", "sales"], "updated_at": 1776763150433, "version": "1.0.0"}, {"category": "developer-tools", "created_at": 1772767160515, "description": "OpenClaw local speech-to-text backend using faster-whisper over HTTP on 127.0.0.1:18790. Use when you want voice transcription without external APIs, without...", "description_zh": "", "downloads": 994, "homepage": "https://clawhub.ai/neldar/faster-whisper-local-service", "iconUrl": null, "installs": 33, "name": "Faster Whisper Local Service", "ownerName": "neldar", "score": 16736.82438120896, "slug": "faster-whisper-local-service", "source": "clawhub", "stars": 0, "tags": ["cpu", "faster-whisper", "free", "local", "no-api", "offline", "openclaw", "secure", "service", "stt", "transcription", "voice"], "updated_at": 1776763150431, "version": "0.2.0"}, {"category": "developer-tools", "created_at": 1772763402230, "description": "Alibaba Cloud Function Compute (FC 3.0) skill for installing and using Serverless Devs to create, deploy, invoke, and remove a Python function. Use when user...", "description_zh": "", "downloads": 994, "homepage": "https://clawhub.ai/cinience/alicloud-compute-fc-serverless-devs", "iconUrl": null, "installs": 27, "name": "Alicloud Compute Fc Serverless Devs", "ownerName": "cinience", "score": 16759.399763952115, "slug": "alicloud-compute-fc-serverless-devs", "source": "clawhub", "stars": 0, "tags": null, "updated_at": 1776763150014, "version": "1.0.3"}, {"category": "developer-tools", "created_at": 1772763416239, "description": "Search and order pharmacy products from apohealth.de via apo-cli. Use for medication search (by name or PZN), product details, category browsing, and cart management. Trigger when the user mentions Apotheke, pharmacy, Medikament, medication, PZN, apohealth, or health products.", "description_zh": "", "downloads": 993, "homepage": "https://clawhub.ai/lars147/apo-cli", "iconUrl": null, "installs": 27, "name": "Apo Cli", "ownerName": "lars147", "score": 40082.18154650729, "slug": "apo-cli", "source": "clawhub", "stars": 4, "tags": null, "updated_at": 1776762139981, "version": "0.1.1"}, {"category": "security-compliance", "created_at": 1772763351466, "description": "Scan binaries and scripts for malicious patterns before trusting them. Use when installing skills, evaluating unknown binaries, or auditing tool dependencies.", "description_zh": "", "downloads": 993, "homepage": "https://clawhub.ai/dev-null321/openscan", "iconUrl": null, "installs": 14, "name": "OpenScan", "ownerName": "dev-null321", "score": 16536.219816819317, "slug": "openscan", "source": "clawhub", "stars": 0, "tags": null, "updated_at": 1776763150762, "version": "1.0.0"}, {"category": "data-analysis", "created_at": 1772763692981, "description": "Analyze competitor strategies, content, pricing, ads, and market positioning across Google Maps, Booking.com, Facebook, Instagram, YouTube, and TikTok.", "description_zh": "", "downloads": 992, "homepage": "https://clawhub.ai/protoss70/apify-competitor-intelligence", "iconUrl": null, "installs": 46, "name": "Apify Competitor Intelligence", "ownerName": "protoss70", "score": 23664.4591611479, "slug": "apify-competitor-intelligence", "source": "clawhub", "stars": 4, "tags": null, "updated_at": 1776763750026, "version": "1.0.1"}, {"category": "ai-intelligence", "created_at": 1772771232676, "description": "Coordinate multiple Claude Code agents to work in parallel on independent tasks like multi-lens reviews, debugging, and full-stack features with defined file...", "description_zh": "", "downloads": 992, "homepage": "https://clawhub.ai/matthew-a-gordon/claude-code-teams", "iconUrl": null, "installs": 91, "name": "Claude Code Agent Teams", "ownerName": "matthew-a-gordon", "score": 27087.79443254818, "slug": "claude-code-teams", "source": "clawhub", "stars": 1, "tags": null, "updated_at": 1776762850301, "version": "1.0.0"}, {"category": "content-creation", "created_at": 1772799307417, "description": "Translates Excel files (.xlsx) from English to Chinese while preserving all formatting, images, and charts. Use for any task where a user provides an Excel f...", "description_zh": "", "downloads": 992, "homepage": "https://clawhub.ai/ilove323/excel-translator", "iconUrl": null, "installs": 369, "name": "Excel Translator", "ownerName": "ilove323", "score": 18639.609169485157, "slug": "excel-translator", "source": "clawhub", "stars": 0, "tags": null, "updated_at": 1776766571103, "version": "1.0.0"}, {"category": "content-creation", "created_at": 1772764631348, "description": "Browser automation using Playwright API directly. Navigate websites, interact with elements, extract data, take screenshots, generate PDFs, record videos, and automate complex workflows. More reliable than MCP approach.", "description_zh": "", "downloads": 992, "homepage": "https://clawhub.ai/manikantasai1987/manikantasai-playwright-automation", "iconUrl": null, "installs": 81, "name": "Manikantasai Playwright Automation", "ownerName": "manikantasai1987", "score": 17312.39092495637, "slug": "manikantasai-playwright-automation", "source": "clawhub", "stars": 0, "tags": null, "updated_at": 1776763150621, "version": "1.0.0"}, {"category": "developer-tools", "created_at": 1772763434217, "description": "Never walk into a meeting unprepared again. Your agent researches all attendees before calendar events—pulling LinkedIn profiles, recent company news, mutual connections, and conversation starters. Generates a briefing doc with talking points, icebreakers, and context so you show up informed and confident. Triggered automatically before meetings or on-demand. Configure research depth, advance timing, and output format. Walking into meetings blind is amateur hour—missed connections, generic small talk, zero leverage. Use when setting up meeting intelligence, researching specific attendees, generating pre-meeting briefs, or automating your prep workflow.", "description_zh": "", "downloads": 992, "homepage": "https://clawhub.ai/audsmith28/meeting-prep-agent", "iconUrl": null, "installs": 33, "name": "Meeting Prep Agent", "ownerName": "audsmith28", "score": 43130.434782608696, "slug": "meeting-prep-agent", "source": "clawhub", "stars": 0, "tags": null, "updated_at": 1776763150168, "version": "1.1.0"}, {"category": "communication-collaboration", "created_at": 1772788746121, "description": "Send WhatsApp messages to other people or search/sync WhatsApp history via the wacli CLI (not for normal user chats).", "description_zh": "", "downloads": 992, "homepage": "https://clawhub.ai/mohdalhashemi98-hue/mh-wacli", "iconUrl": null, "installs": 37, "name": "MH wacli", "ownerName": "mohdalhashemi98-hue", "score": 18175.155734701355, "slug": "mh-wacli", "source": "clawhub", "stars": 0, "tags": null, "updated_at": 1776763149973, "version": "1.0.0"}, {"category": "data-analysis", "created_at": 1772775195717, "description": "Free multi-engine web search via ddgs CLI (DuckDuckGo, Google, Bing, Brave, Yandex, Yahoo, Wikipedia) + arXiv API search. No API keys required. Use when user...", "description_zh": "", "downloads": 991, "homepage": "https://clawhub.ai/camopel/ddgs-search", "iconUrl": null, "installs": 77, "name": "ddgs-search", "ownerName": "camopel", "score": 2840.220385674931, "slug": "ddgs-search", "source": "clawhub", "stars": 2, "tags": null, "updated_at": 1776770171217, "version": "1.2.0"}, {"category": "developer-tools", "created_at": 1772769672257, "description": "API-key-free online research via the built-in browser tool. Use this skill when web_search fails due to missing keys, and you still need web evidence.", "description_zh": "", "downloads": 991, "homepage": "https://clawhub.ai/wanng-ide/browser-research-lite", "iconUrl": null, "installs": 27, "name": "Browser Research Lite", "ownerName": "wanng-ide", "score": 10893.222713069712, "slug": "browser-research-lite", "source": "clawhub", "stars": 1, "tags": null, "updated_at": 1776765849827, "version": "1.0.0"}, {"category": "data-analysis", "created_at": 1772763372557, "description": "Check human reputation via Ethos Network, Talent Protocol, and Farcaster using the neutral basecred-sdk. Fetches composable reputation data without judgment - raw scores, levels, and signals for identity verification and trust assessment. Use when you need to check someone's onchain credibility, builder/creator scores, or Farcaster quality metrics.", "description_zh": "", "downloads": 991, "homepage": "https://clawhub.ai/teeclaw/openclaw-basecred-sdk", "iconUrl": null, "installs": 21, "name": "OpenClaw BaseCred SDK", "ownerName": "teeclaw", "score": 17294.938917975567, "slug": "openclaw-basecred-sdk", "source": "clawhub", "stars": 0, "tags": null, "updated_at": 1776763150641, "version": "1.0.4"}, {"category": "communication-collaboration", "created_at": 1772763347162, "description": "Match with real humans who share your interests — topic-driven matching, not photo swiping. Chat through OpenClaw or on the web.", "description_zh": "", "downloads": 991, "homepage": "https://clawhub.ai/ricky610329/openclaw-rumi", "iconUrl": null, "installs": 26, "name": "Rumi", "ownerName": "ricky610329", "score": 17294.938917975567, "slug": "openclaw-rumi", "source": "clawhub", "stars": 0, "tags": null, "updated_at": 1776763150625, "version": "0.1.5"}, {"category": "content-creation", "created_at": 1772764650830, "description": "Web search and URL fetching via Perplexity Sonar Pro. Use when searching the web, looking up information, fetching URL content, or configuring web search set...", "description_zh": "", "downloads": 990, "homepage": "https://clawhub.ai/aligurelli/perplexity-web-search", "iconUrl": null, "installs": 72, "name": "Perplexity Web Search", "ownerName": "aligurelli", "score": 36987.67077640787, "slug": "perplexity-web-search", "source": "clawhub", "stars": 6, "tags": null, "updated_at": 1776761690085, "version": "1.5.0"}, {"category": "developer-tools", "created_at": 1772769424479, "description": "Give your agent a social identity on ImagineAnything.com — the social network for AI agents. Post, follow, like, comment, DM other agents, trade on the marketplace, and build reputation.", "description_zh": "", "downloads": 990, "homepage": "https://clawhub.ai/imagine-anything/social-media", "iconUrl": null, "installs": 32, "name": "Imagine Anything Social Network", "ownerName": "imagine-anything", "score": 54980.94719651606, "slug": "social-media", "source": "clawhub", "stars": 1, "tags": null, "updated_at": 1776764690777, "version": "1.0.0"}, {"category": "ai-intelligence", "created_at": 1772765795579, "description": "Open-source first AI inference — GLM-5 as default, Claude as fallback only. Own your inference forever via the Morpheus decentralized network. Stake MOR toke...", "description_zh": "", "downloads": 990, "homepage": "https://clawhub.ai/davidajohnston/everclaw-inference", "iconUrl": null, "installs": 93, "name": "Everclaw — Inference You Own", "ownerName": "davidajohnston", "score": 16669.472975248358, "slug": "everclaw-inference", "source": "clawhub", "stars": 0, "tags": null, "updated_at": 1776763150427, "version": "0.10.0"}, {"category": "content-creation", "created_at": 1772769168684, "description": "Fetch any webpage and convert its main content into clean Markdown format, preserving image links and resolving relative URLs.", "description_zh": "", "downloads": 990, "homepage": "https://clawhub.ai/shijianwen/webfetch-md", "iconUrl": null, "installs": 93, "name": "Webfetch Md", "ownerName": "shijianwen", "score": 16363.636363636364, "slug": "webfetch-md", "source": "clawhub", "stars": 0, "tags": null, "updated_at": 1776763150392, "version": "1.1.0"}, {"category": "productivity", "created_at": 1772766918147, "description": "Parse, generate, and transform XML with correct namespace handling and encoding.", "description_zh": "", "downloads": 989, "homepage": "https://clawhub.ai/ivangdavila/xml", "iconUrl": null, "installs": 61, "name": "XML", "ownerName": "ivangdavila", "score": 21030.042918454936, "slug": "xml", "source": "clawhub", "stars": 2, "tags": null, "updated_at": 1776764391302, "version": "1.0.0"}, {"category": "productivity", "created_at": 1774612346474, "description": "A comprehensive JavaScript style guide skill. When activated, it provides best-practice JavaScript coding conventions and generates code that strictly follow...", "description_zh": "", "downloads": 989, "homepage": "https://clawhub.ai/wscats/javascript-skills", "iconUrl": null, "installs": 36, "name": "JavaScript", "ownerName": "wscats", "score": 26771.026797559032, "slug": "javascript-skills", "source": "clawhub", "stars": 1, "tags": null, "updated_at": 1776768850397, "version": "1.0.2"}, {"category": "security-compliance", "created_at": 1772766952894, "description": "Orchestrates multi-agent task delegation and workflows with audit logging, checkpoint approvals, and agent learning for coordinated project execution.", "description_zh": "", "downloads": 989, "homepage": "https://clawhub.ai/dabruhce/multi-agent-orchestration", "iconUrl": null, "installs": 22, "name": "Colony", "ownerName": "dabruhce", "score": 69160.83916083915, "slug": "multi-agent-orchestration", "source": "clawhub", "stars": 0, "tags": null, "updated_at": 1776766450508, "version": "1.0.0"}, {"category": "content-creation", "created_at": 1772763459460, "description": "3-brain filesystem + memory reference utility for LYGO-based agents. Use to design, organize, and maintain a durable file/folder memory system (indexes, reference .txt links, logging, retrieval) without overwriting existing data. Works best on fresh OpenClaw/Clawhub Havens with the full LYGO Champion stack, but is compatible with any agent that can read/write files.", "description_zh": "", "downloads": 989, "homepage": "https://clawhub.ai/deepseekoracle/book-brain", "iconUrl": null, "installs": 67, "name": "BOOK BRAIN – LYGO 3-Brain Filesystem Helper", "ownerName": "deepseekoracle", "score": 16831.177671885634, "slug": "book-brain", "source": "clawhub", "stars": 0, "tags": null, "updated_at": 1776763150138, "version": "1.0.0"}]}