{"page": 11, "total_pages": 22, "total": 1089, "skills": [{"slug": "getsentry-sentry-feature-setup", "name": "getsentry/sentry-feature-setup", "description": "Configure advanced Sentry features: AI monitoring, OTel pipelines, and alerts", "description_zh": "", "homepage": "https://officialskills.sh/getsentry/skills/sentry-feature-setup", "tags": ["Skills by Typefully"], "category": "Skills by Typefully", "ownerName": "", "sources": ["VoltAgent/awesome-agent-skills"], "score": 600, "downloads": 0, "stars": 0, "installs": 0, "version": "", "updated_at": 0}, {"slug": "getsentry-sentry-fix-issues", "name": "getsentry/sentry-fix-issues", "description": "Find and fix Sentry issues with stack trace, breadcrumb, and trace context via MCP", "description_zh": "", "homepage": "https://officialskills.sh/getsentry/skills/sentry-fix-issues", "tags": ["Skills by Typefully"], "category": "Skills by Typefully", "ownerName": "", "sources": ["VoltAgent/awesome-agent-skills"], "score": 599, "downloads": 0, "stars": 0, "installs": 0, "version": "", "updated_at": 0}, {"slug": "getsentry-sentry-flutter-sdk", "name": "getsentry/sentry-flutter-sdk", "description": "Full Sentry SDK setup for Flutter and Dart across all platforms", "description_zh": "", "homepage": "https://officialskills.sh/getsentry/skills/sentry-flutter-sdk", "tags": ["Skills by Typefully"], "category": "Skills by Typefully", "ownerName": "", "sources": ["VoltAgent/awesome-agent-skills"], "score": 598, "downloads": 0, "stars": 0, "installs": 0, "version": "", "updated_at": 0}, {"slug": "getsentry-sentry-go-sdk", "name": "getsentry/sentry-go-sdk", "description": "Full Sentry SDK setup for Go (net/http, Gin, Echo, Fiber, FastHTTP, Iris, Negroni)", "description_zh": "", "homepage": "https://officialskills.sh/getsentry/skills/sentry-go-sdk", "tags": ["Skills by Typefully"], "category": "Skills by Typefully", "ownerName": "", "sources": ["VoltAgent/awesome-agent-skills"], "score": 597, "downloads": 0, "stars": 0, "installs": 0, "version": "", "updated_at": 0}, {"slug": "getsentry-sentry-nestjs-sdk", "name": "getsentry/sentry-nestjs-sdk", "description": "Full Sentry SDK setup for NestJS with Express or Fastify, GraphQL, microservices", "description_zh": "", "homepage": "https://officialskills.sh/getsentry/skills/sentry-nestjs-sdk", "tags": ["Skills by Typefully"], "category": "Skills by Typefully", "ownerName": "", "sources": ["VoltAgent/awesome-agent-skills"], "score": 596, "downloads": 0, "stars": 0, "installs": 0, "version": "", "updated_at": 0}, {"slug": "getsentry-sentry-nextjs-sdk", "name": "getsentry/sentry-nextjs-sdk", "description": "Full Sentry SDK setup for Next.js 13+ (App Router and Pages Router)", "description_zh": "", "homepage": "https://officialskills.sh/getsentry/skills/sentry-nextjs-sdk", "tags": ["Skills by Typefully"], "category": "Skills by Typefully", "ownerName": "", "sources": ["VoltAgent/awesome-agent-skills"], "score": 595, "downloads": 0, "stars": 0, "installs": 0, "version": "", "updated_at": 0}, {"slug": "getsentry-sentry-node-sdk", "name": "getsentry/sentry-node-sdk", "description": "Full Sentry SDK setup for Node.js, Bun, and Deno", "description_zh": "", "homepage": "https://officialskills.sh/getsentry/skills/sentry-node-sdk", "tags": ["Skills by Typefully"], "category": "Skills by Typefully", "ownerName": "", "sources": ["VoltAgent/awesome-agent-skills"], "score": 594, "downloads": 0, "stars": 0, "installs": 0, "version": "", "updated_at": 0}, {"slug": "getsentry-sentry-otel-exporter-setup", "name": "getsentry/sentry-otel-exporter-setup", "description": "Configure the OpenTelemetry Collector with Sentry Exporter", "description_zh": "", "homepage": "https://officialskills.sh/getsentry/skills/sentry-otel-exporter-setup", "tags": ["Skills by Typefully"], "category": "Skills by Typefully", "ownerName": "", "sources": ["VoltAgent/awesome-agent-skills"], "score": 593, "downloads": 0, "stars": 0, "installs": 0, "version": "", "updated_at": 0}, {"slug": "getsentry-sentry-php-sdk", "name": "getsentry/sentry-php-sdk", "description": "Full Sentry SDK setup for PHP, Laravel, and Symfony", "description_zh": "", "homepage": "https://officialskills.sh/getsentry/skills/sentry-php-sdk", "tags": ["Skills by Typefully"], "category": "Skills by Typefully", "ownerName": "", "sources": ["VoltAgent/awesome-agent-skills"], "score": 592, "downloads": 0, "stars": 0, "installs": 0, "version": "", "updated_at": 0}, {"slug": "getsentry-sentry-pr-code-review", "name": "getsentry/sentry-pr-code-review", "description": "Review PR comments from Seer Bug Prediction and Sentry feedback", "description_zh": "", "homepage": "https://officialskills.sh/getsentry/skills/sentry-pr-code-review", "tags": ["Skills by Typefully"], "category": "Skills by Typefully", "ownerName": "", "sources": ["VoltAgent/awesome-agent-skills"], "score": 591, "downloads": 0, "stars": 0, "installs": 0, "version": "", "updated_at": 0}, {"slug": "getsentry-sentry-python-sdk", "name": "getsentry/sentry-python-sdk", "description": "Full Sentry SDK setup for Python (Django, Flask, FastAPI, Celery, Starlette, AIOHTTP, Tornado)", "description_zh": "", "homepage": "https://officialskills.sh/getsentry/skills/sentry-python-sdk", "tags": ["Skills by Typefully"], "category": "Skills by Typefully", "ownerName": "", "sources": ["VoltAgent/awesome-agent-skills"], "score": 590, "downloads": 0, "stars": 0, "installs": 0, "version": "", "updated_at": 0}, {"slug": "getsentry-sentry-react-native-sdk", "name": "getsentry/sentry-react-native-sdk", "description": "Full Sentry SDK setup for React Native and Expo", "description_zh": "", "homepage": "https://officialskills.sh/getsentry/skills/sentry-react-native-sdk", "tags": ["Skills by Typefully"], "category": "Skills by Typefully", "ownerName": "", "sources": ["VoltAgent/awesome-agent-skills"], "score": 589, "downloads": 0, "stars": 0, "installs": 0, "version": "", "updated_at": 0}, {"slug": "getsentry-sentry-react-sdk", "name": "getsentry/sentry-react-sdk", "description": "Full Sentry SDK setup for React (React Router v5-v7, TanStack Router, Redux, Vite, webpack)", "description_zh": "", "homepage": "https://officialskills.sh/getsentry/skills/sentry-react-sdk", "tags": ["Skills by Typefully"], "category": "Skills by Typefully", "ownerName": "", "sources": ["VoltAgent/awesome-agent-skills"], "score": 588, "downloads": 0, "stars": 0, "installs": 0, "version": "", "updated_at": 0}, {"slug": "getsentry-sentry-ruby-sdk", "name": "getsentry/sentry-ruby-sdk", "description": "Full Sentry SDK setup for Ruby (Rails, Sinatra, Rack, Sidekiq, Resque)", "description_zh": "", "homepage": "https://officialskills.sh/getsentry/skills/sentry-ruby-sdk", "tags": ["Skills by Typefully"], "category": "Skills by Typefully", "ownerName": "", "sources": ["VoltAgent/awesome-agent-skills"], "score": 587, "downloads": 0, "stars": 0, "installs": 0, "version": "", "updated_at": 0}, {"slug": "getsentry-sentry-sdk-setup", "name": "getsentry/sentry-sdk-setup", "description": "Set up Sentry in any language or framework — detects platform and routes to the right SDK", "description_zh": "", "homepage": "https://officialskills.sh/getsentry/skills/sentry-sdk-setup", "tags": ["Skills by Typefully"], "category": "Skills by Typefully", "ownerName": "", "sources": ["VoltAgent/awesome-agent-skills"], "score": 586, "downloads": 0, "stars": 0, "installs": 0, "version": "", "updated_at": 0}, {"slug": "getsentry-sentry-sdk-skill-creator", "name": "getsentry/sentry-sdk-skill-creator", "description": "Create a new Sentry SDK skill bundle for a platform", "description_zh": "", "homepage": "https://officialskills.sh/getsentry/skills/sentry-sdk-skill-creator", "tags": ["Skills by Typefully"], "category": "Skills by Typefully", "ownerName": "", "sources": ["VoltAgent/awesome-agent-skills"], "score": 585, "downloads": 0, "stars": 0, "installs": 0, "version": "", "updated_at": 0}, {"slug": "getsentry-sentry-sdk-upgrade", "name": "getsentry/sentry-sdk-upgrade", "description": "Upgrade the Sentry JavaScript SDK across major versions", "description_zh": "", "homepage": "https://officialskills.sh/getsentry/skills/sentry-sdk-upgrade", "tags": ["Skills by Typefully"], "category": "Skills by Typefully", "ownerName": "", "sources": ["VoltAgent/awesome-agent-skills"], "score": 584, "downloads": 0, "stars": 0, "installs": 0, "version": "", "updated_at": 0}, {"slug": "getsentry-sentry-setup-ai-monitoring", "name": "getsentry/sentry-setup-ai-monitoring", "description": "Instrument OpenAI, Anthropic, Vercel AI, LangChain, Google GenAI, and Pydantic AI", "description_zh": "", "homepage": "https://officialskills.sh/getsentry/skills/sentry-setup-ai-monitoring", "tags": ["Skills by Typefully"], "category": "Skills by Typefully", "ownerName": "", "sources": ["VoltAgent/awesome-agent-skills"], "score": 583, "downloads": 0, "stars": 0, "installs": 0, "version": "", "updated_at": 0}, {"slug": "getsentry-sentry-svelte-sdk", "name": "getsentry/sentry-svelte-sdk", "description": "Full Sentry SDK setup for Svelte and SvelteKit", "description_zh": "", "homepage": "https://officialskills.sh/getsentry/skills/sentry-svelte-sdk", "tags": ["Skills by Typefully"], "category": "Skills by Typefully", "ownerName": "", "sources": ["VoltAgent/awesome-agent-skills"], "score": 582, "downloads": 0, "stars": 0, "installs": 0, "version": "", "updated_at": 0}, {"slug": "getsentry-sentry-workflow", "name": "getsentry/sentry-workflow", "description": "End-to-end Sentry workflow: fix production issues and review code with Sentry context", "description_zh": "", "homepage": "https://officialskills.sh/getsentry/skills/sentry-workflow", "tags": ["Skills by Typefully"], "category": "Skills by Typefully", "ownerName": "", "sources": ["VoltAgent/awesome-agent-skills"], "score": 581, "downloads": 0, "stars": 0, "installs": 0, "version": "", "updated_at": 0}, {"slug": "gh-star-history", "name": "gh-star-history", "description": "Visualize and compare GitHub star history as interactive charts, with regional breakdown of stargazers.", "description_zh": "", "homepage": "https://github.com/ykdojo/gh-star-history", "tags": ["📊 Data & Analysis"], "category": "📊 Data & Analysis", "ownerName": "ykdojo", "sources": ["BehiSecc/awesome-claude-skills"], "score": 580, "downloads": 0, "stars": 0, "installs": 0, "version": "", "updated_at": 0}, {"slug": "github-automation", "name": "GitHub Automation", "description": "Automate GitHub: issues, PRs, repos, branches, actions, and code search.", "description_zh": "", "homepage": "./github-automation", "tags": ["App Automation via Composio"], "category": "App Automation via Composio", "ownerName": "", "sources": ["ComposioHQ/awesome-claude-skills"], "score": 579, "downloads": 0, "stars": 0, "installs": 0, "version": "", "updated_at": 0}, {"slug": "gitlab-automation", "name": "GitLab Automation", "description": "Automate GitLab: issues, MRs, projects, pipelines, and branches.", "description_zh": "", "homepage": "./gitlab-automation", "tags": ["App Automation via Composio"], "category": "App Automation via Composio", "ownerName": "", "sources": ["ComposioHQ/awesome-claude-skills"], "score": 578, "downloads": 0, "stars": 0, "installs": 0, "version": "", "updated_at": 0}, {"slug": "gitroomhq-postiz-agent", "name": "gitroomhq/postiz-agent", "description": "Schedule social media posts across 28+ platforms programmatically", "description_zh": "", "homepage": "https://github.com/gitroomhq/postiz-agent", "tags": ["Community Skills"], "category": "Community Skills", "ownerName": "gitroomhq", "sources": ["VoltAgent/awesome-agent-skills"], "score": 577, "downloads": 0, "stars": 0, "installs": 0, "version": "", "updated_at": 0}, {"slug": "glitternetwork-pinme", "name": "glitternetwork/pinme", "description": "PinMe is a zero-config frontend deployment tool. No servers. No accounts. No setup.", "description_zh": "", "homepage": "https://github.com/glitternetwork/skills", "tags": ["🔧 Utility & Automation"], "category": "🔧 Utility & Automation", "ownerName": "glitternetwork", "sources": ["BehiSecc/awesome-claude-skills"], "score": 576, "downloads": 0, "stars": 0, "installs": 0, "version": "", "updated_at": 0}, {"slug": "gmail-automation", "name": "Gmail Automation", "description": "Automate Gmail: send/reply, search, labels, drafts, and attachments.", "description_zh": "", "homepage": "./gmail-automation", "tags": ["App Automation via Composio"], "category": "App Automation via Composio", "ownerName": "", "sources": ["ComposioHQ/awesome-claude-skills"], "score": 575, "downloads": 0, "stars": 0, "installs": 0, "version": "", "updated_at": 0}, {"slug": "google-analytics-automation", "name": "Google Analytics Automation", "description": "Automate Google Analytics: reports, dimensions, metrics, and property management.", "description_zh": "", "homepage": "./google-analytics-automation", "tags": ["App Automation via Composio"], "category": "App Automation via Composio", "ownerName": "", "sources": ["ComposioHQ/awesome-claude-skills"], "score": 574, "downloads": 0, "stars": 0, "installs": 0, "version": "", "updated_at": 0}, {"slug": "google-calendar-automation", "name": "Google Calendar Automation", "description": "Automate Google Calendar: events, attendees, free/busy, and recurring schedules.", "description_zh": "", "homepage": "./google-calendar-automation", "tags": ["App Automation via Composio"], "category": "App Automation via Composio", "ownerName": "", "sources": ["ComposioHQ/awesome-claude-skills"], "score": 573, "downloads": 0, "stars": 0, "installs": 0, "version": "", "updated_at": 0}, {"slug": "google-drive-automation", "name": "Google Drive Automation", "description": "Automate Google Drive: upload, download, search, share, and organize files.", "description_zh": "", "homepage": "./google-drive-automation", "tags": ["App Automation via Composio"], "category": "App Automation via Composio", "ownerName": "", "sources": ["ComposioHQ/awesome-claude-skills"], "score": 572, "downloads": 0, "stars": 0, "installs": 0, "version": "", "updated_at": 0}, {"slug": "google-sheets-automation", "name": "Google Sheets Automation", "description": "Automate Google Sheets: read/write cells, formatting, formulas, and batch operations.", "description_zh": "", "homepage": "./googlesheets-automation", "tags": ["App Automation via Composio"], "category": "App Automation via Composio", "ownerName": "", "sources": ["ComposioHQ/awesome-claude-skills"], "score": 571, "downloads": 0, "stars": 0, "installs": 0, "version": "", "updated_at": 0}, {"slug": "google-gemini-gemini-api-dev", "name": "google-gemini/gemini-api-dev", "description": "Best practices for developing Gemini-powered apps using the Gemini API", "description_zh": "", "homepage": "https://officialskills.sh/google-gemini/skills/gemini-api-dev", "tags": ["Skills by Google Gemini"], "category": "Skills by Google Gemini", "ownerName": "", "sources": ["VoltAgent/awesome-agent-skills"], "score": 570, "downloads": 0, "stars": 0, "installs": 0, "version": "", "updated_at": 0}, {"slug": "google-gemini-gemini-interactions-api", "name": "google-gemini/gemini-interactions-api", "description": "Building apps with the Gemini Interactions API for text, chat, streaming, and image generation", "description_zh": "", "homepage": "https://officialskills.sh/google-gemini/skills/gemini-interactions-api", "tags": ["Skills by Google Gemini"], "category": "Skills by Google Gemini", "ownerName": "", "sources": ["VoltAgent/awesome-agent-skills"], "score": 569, "downloads": 0, "stars": 0, "installs": 0, "version": "", "updated_at": 0}, {"slug": "google-gemini-gemini-live-api-dev", "name": "google-gemini/gemini-live-api-dev", "description": "Building real-time bidirectional streaming apps with the Gemini Live API", "description_zh": "", "homepage": "https://officialskills.sh/google-gemini/skills/gemini-live-api-dev", "tags": ["Skills by Google Gemini"], "category": "Skills by Google Gemini", "ownerName": "", "sources": ["VoltAgent/awesome-agent-skills"], "score": 568, "downloads": 0, "stars": 0, "installs": 0, "version": "", "updated_at": 0}, {"slug": "google-gemini-gemini-skills", "name": "google-gemini/gemini-skills", "description": "Official Gemini skills - Gemini API, SDK and model interactions.", "description_zh": "", "homepage": "https://github.com/google-gemini/gemini-skills", "tags": ["Official Sources"], "category": "Official Sources", "ownerName": "google-gemini", "sources": ["sickn33/antigravity-awesome-skills"], "score": 567, "downloads": 0, "stars": 0, "installs": 0, "version": "", "updated_at": 0}, {"slug": "google-gemini-vertex-ai-api-dev", "name": "google-gemini/vertex-ai-api-dev", "description": "Developing Gemini-powered apps on Google Cloud Vertex AI using the Gen AI SDK", "description_zh": "", "homepage": "https://officialskills.sh/google-gemini/skills/vertex-ai-api-dev", "tags": ["Skills by Google Gemini"], "category": "Skills by Google Gemini", "ownerName": "", "sources": ["VoltAgent/awesome-agent-skills"], "score": 566, "downloads": 0, "stars": 0, "installs": 0, "version": "", "updated_at": 0}, {"slug": "google-labs-code-design-md", "name": "google-labs-code/design-md", "description": "Create and manage DESIGN.md files", "description_zh": "", "homepage": "https://officialskills.sh/google-labs-code/skills/design-md", "tags": ["Skills by Typefully"], "category": "Skills by Typefully", "ownerName": "", "sources": ["VoltAgent/awesome-agent-skills"], "score": 565, "downloads": 0, "stars": 0, "installs": 0, "version": "", "updated_at": 0}, {"slug": "google-labs-code-enhance-prompt", "name": "google-labs-code/enhance-prompt", "description": "Improve prompts with design specs and UI/UX vocabulary", "description_zh": "", "homepage": "https://officialskills.sh/google-labs-code/skills/enhance-prompt", "tags": ["Skills by Typefully"], "category": "Skills by Typefully", "ownerName": "", "sources": ["VoltAgent/awesome-agent-skills"], "score": 564, "downloads": 0, "stars": 0, "installs": 0, "version": "", "updated_at": 0}, {"slug": "google-labs-code-react-components", "name": "google-labs-code/react-components", "description": "Stitch to React components conversion", "description_zh": "", "homepage": "https://officialskills.sh/google-labs-code/skills/react-components", "tags": ["Skills by Typefully"], "category": "Skills by Typefully", "ownerName": "", "sources": ["VoltAgent/awesome-agent-skills"], "score": 563, "downloads": 0, "stars": 0, "installs": 0, "version": "", "updated_at": 0}, {"slug": "google-labs-code-remotion", "name": "google-labs-code/remotion", "description": "Generate walkthrough videos from Stitch app designs", "description_zh": "", "homepage": "https://officialskills.sh/google-labs-code/skills/remotion", "tags": ["Skills by Typefully"], "category": "Skills by Typefully", "ownerName": "", "sources": ["VoltAgent/awesome-agent-skills"], "score": 562, "downloads": 0, "stars": 0, "installs": 0, "version": "", "updated_at": 0}, {"slug": "google-labs-code-shadcn-ui", "name": "google-labs-code/shadcn-ui", "description": "Build UI components with shadcn/ui", "description_zh": "", "homepage": "https://officialskills.sh/google-labs-code/skills/shadcn-ui", "tags": ["Skills by Typefully"], "category": "Skills by Typefully", "ownerName": "", "sources": ["VoltAgent/awesome-agent-skills"], "score": 561, "downloads": 0, "stars": 0, "installs": 0, "version": "", "updated_at": 0}, {"slug": "google-labs-code-stitch-loop", "name": "google-labs-code/stitch-loop", "description": "Iterative design-to-code feedback loop", "description_zh": "", "homepage": "https://officialskills.sh/google-labs-code/skills/stitch-loop", "tags": ["Skills by Typefully"], "category": "Skills by Typefully", "ownerName": "", "sources": ["VoltAgent/awesome-agent-skills"], "score": 560, "downloads": 0, "stars": 0, "installs": 0, "version": "", "updated_at": 0}, {"slug": "googleworkspace-gws-admin-reports", "name": "googleworkspace/gws-admin-reports", "description": "Audit logs and usage reports for Workspace", "description_zh": "", "homepage": "https://officialskills.sh/googleworkspace/skills/gws-admin-reports", "tags": ["Skills by Typefully"], "category": "Skills by Typefully", "ownerName": "", "sources": ["VoltAgent/awesome-agent-skills"], "score": 559, "downloads": 0, "stars": 0, "installs": 0, "version": "", "updated_at": 0}, {"slug": "googleworkspace-gws-calendar", "name": "googleworkspace/gws-calendar", "description": "Manage Google Calendar calendars and events", "description_zh": "", "homepage": "https://officialskills.sh/googleworkspace/skills/gws-calendar", "tags": ["Skills by Typefully"], "category": "Skills by Typefully", "ownerName": "", "sources": ["VoltAgent/awesome-agent-skills"], "score": 558, "downloads": 0, "stars": 0, "installs": 0, "version": "", "updated_at": 0}, {"slug": "googleworkspace-gws-chat", "name": "googleworkspace/gws-chat", "description": "Manage Google Chat spaces and messages", "description_zh": "", "homepage": "https://officialskills.sh/googleworkspace/skills/gws-chat", "tags": ["Skills by Typefully"], "category": "Skills by Typefully", "ownerName": "", "sources": ["VoltAgent/awesome-agent-skills"], "score": 557, "downloads": 0, "stars": 0, "installs": 0, "version": "", "updated_at": 0}, {"slug": "googleworkspace-gws-classroom", "name": "googleworkspace/gws-classroom", "description": "Manage Google Classroom classes, rosters, and coursework", "description_zh": "", "homepage": "https://officialskills.sh/googleworkspace/skills/gws-classroom", "tags": ["Skills by Typefully"], "category": "Skills by Typefully", "ownerName": "", "sources": ["VoltAgent/awesome-agent-skills"], "score": 556, "downloads": 0, "stars": 0, "installs": 0, "version": "", "updated_at": 0}, {"slug": "googleworkspace-gws-docs", "name": "googleworkspace/gws-docs", "description": "Read and write Google Docs documents", "description_zh": "", "homepage": "https://officialskills.sh/googleworkspace/skills/gws-docs", "tags": ["Skills by Typefully"], "category": "Skills by Typefully", "ownerName": "", "sources": ["VoltAgent/awesome-agent-skills"], "score": 555, "downloads": 0, "stars": 0, "installs": 0, "version": "", "updated_at": 0}, {"slug": "googleworkspace-gws-drive", "name": "googleworkspace/gws-drive", "description": "Manage Google Drive files, folders, and shared drives", "description_zh": "", "homepage": "https://officialskills.sh/googleworkspace/skills/gws-drive", "tags": ["Skills by Typefully"], "category": "Skills by Typefully", "ownerName": "", "sources": ["VoltAgent/awesome-agent-skills"], "score": 554, "downloads": 0, "stars": 0, "installs": 0, "version": "", "updated_at": 0}, {"slug": "googleworkspace-gws-events", "name": "googleworkspace/gws-events", "description": "Subscribe to Google Workspace events", "description_zh": "", "homepage": "https://officialskills.sh/googleworkspace/skills/gws-events", "tags": ["Skills by Typefully"], "category": "Skills by Typefully", "ownerName": "", "sources": ["VoltAgent/awesome-agent-skills"], "score": 553, "downloads": 0, "stars": 0, "installs": 0, "version": "", "updated_at": 0}, {"slug": "googleworkspace-gws-forms", "name": "googleworkspace/gws-forms", "description": "Read and write Google Forms", "description_zh": "", "homepage": "https://officialskills.sh/googleworkspace/skills/gws-forms", "tags": ["Skills by Typefully"], "category": "Skills by Typefully", "ownerName": "", "sources": ["VoltAgent/awesome-agent-skills"], "score": 552, "downloads": 0, "stars": 0, "installs": 0, "version": "", "updated_at": 0}, {"slug": "googleworkspace-gws-gmail", "name": "googleworkspace/gws-gmail", "description": "Send, read, and manage Gmail email", "description_zh": "", "homepage": "https://officialskills.sh/googleworkspace/skills/gws-gmail", "tags": ["Skills by Typefully"], "category": "Skills by Typefully", "ownerName": "", "sources": ["VoltAgent/awesome-agent-skills"], "score": 551, "downloads": 0, "stars": 0, "installs": 0, "version": "", "updated_at": 0}]}