{"page": 12, "total_pages": 22, "total": 1089, "skills": [{"slug": "googleworkspace-gws-keep", "name": "googleworkspace/gws-keep", "description": "Manage Google Keep notes", "description_zh": "", "homepage": "https://officialskills.sh/googleworkspace/skills/gws-keep", "tags": ["Skills by Typefully"], "category": "Skills by Typefully", "ownerName": "", "sources": ["VoltAgent/awesome-agent-skills"], "score": 550, "downloads": 0, "stars": 0, "installs": 0, "version": "", "updated_at": 0}, {"slug": "googleworkspace-gws-modelarmor", "name": "googleworkspace/gws-modelarmor", "description": "Filter user-generated content for safety", "description_zh": "", "homepage": "https://officialskills.sh/googleworkspace/skills/gws-modelarmor", "tags": ["Skills by Typefully"], "category": "Skills by Typefully", "ownerName": "", "sources": ["VoltAgent/awesome-agent-skills"], "score": 549, "downloads": 0, "stars": 0, "installs": 0, "version": "", "updated_at": 0}, {"slug": "googleworkspace-gws-people", "name": "googleworkspace/gws-people", "description": "Manage Google People contacts and profiles", "description_zh": "", "homepage": "https://officialskills.sh/googleworkspace/skills/gws-people", "tags": ["Skills by Typefully"], "category": "Skills by Typefully", "ownerName": "", "sources": ["VoltAgent/awesome-agent-skills"], "score": 548, "downloads": 0, "stars": 0, "installs": 0, "version": "", "updated_at": 0}, {"slug": "googleworkspace-gws-shared", "name": "googleworkspace/gws-shared", "description": "Shared authentication, global flags, and output formatting", "description_zh": "", "homepage": "https://officialskills.sh/googleworkspace/skills/gws-shared", "tags": ["Skills by Typefully"], "category": "Skills by Typefully", "ownerName": "", "sources": ["VoltAgent/awesome-agent-skills"], "score": 547, "downloads": 0, "stars": 0, "installs": 0, "version": "", "updated_at": 0}, {"slug": "googleworkspace-gws-sheets", "name": "googleworkspace/gws-sheets", "description": "Read and write Google Sheets spreadsheets", "description_zh": "", "homepage": "https://officialskills.sh/googleworkspace/skills/gws-sheets", "tags": ["Skills by Typefully"], "category": "Skills by Typefully", "ownerName": "", "sources": ["VoltAgent/awesome-agent-skills"], "score": 546, "downloads": 0, "stars": 0, "installs": 0, "version": "", "updated_at": 0}, {"slug": "googleworkspace-gws-slides", "name": "googleworkspace/gws-slides", "description": "Read and write Google Slides presentations", "description_zh": "", "homepage": "https://officialskills.sh/googleworkspace/skills/gws-slides", "tags": ["Skills by Typefully"], "category": "Skills by Typefully", "ownerName": "", "sources": ["VoltAgent/awesome-agent-skills"], "score": 545, "downloads": 0, "stars": 0, "installs": 0, "version": "", "updated_at": 0}, {"slug": "googleworkspace-gws-tasks", "name": "googleworkspace/gws-tasks", "description": "Manage Google Tasks task lists and tasks", "description_zh": "", "homepage": "https://officialskills.sh/googleworkspace/skills/gws-tasks", "tags": ["Skills by Typefully"], "category": "Skills by Typefully", "ownerName": "", "sources": ["VoltAgent/awesome-agent-skills"], "score": 544, "downloads": 0, "stars": 0, "installs": 0, "version": "", "updated_at": 0}, {"slug": "googleworkspace-gws-workflow", "name": "googleworkspace/gws-workflow", "description": "Cross-service Google Workspace productivity workflows", "description_zh": "", "homepage": "https://officialskills.sh/googleworkspace/skills/gws-workflow", "tags": ["Skills by Typefully"], "category": "Skills by Typefully", "ownerName": "", "sources": ["VoltAgent/awesome-agent-skills"], "score": 543, "downloads": 0, "stars": 0, "installs": 0, "version": "", "updated_at": 0}, {"slug": "greensock-gsap-core", "name": "greensock/gsap-core", "description": "Core API with gsap.to(), from(), fromTo(), easing, duration, stagger, and defaults", "description_zh": "", "homepage": "https://officialskills.sh/greensock/skills/gsap-core", "tags": ["TypeScript Skills"], "category": "TypeScript Skills", "ownerName": "", "sources": ["VoltAgent/awesome-agent-skills"], "score": 542, "downloads": 0, "stars": 0, "installs": 0, "version": "", "updated_at": 0}, {"slug": "greensock-gsap-frameworks", "name": "greensock/gsap-frameworks", "description": "Vue, Svelte, and other frameworks with lifecycle, scoping, and cleanup patterns", "description_zh": "", "homepage": "https://officialskills.sh/greensock/skills/gsap-frameworks", "tags": ["TypeScript Skills"], "category": "TypeScript Skills", "ownerName": "", "sources": ["VoltAgent/awesome-agent-skills"], "score": 541, "downloads": 0, "stars": 0, "installs": 0, "version": "", "updated_at": 0}, {"slug": "greensock-gsap-performance", "name": "greensock/gsap-performance", "description": "Performance tips for transforms, will-change, batching, and ScrollTrigger optimization", "description_zh": "", "homepage": "https://officialskills.sh/greensock/skills/gsap-performance", "tags": ["TypeScript Skills"], "category": "TypeScript Skills", "ownerName": "", "sources": ["VoltAgent/awesome-agent-skills"], "score": 540, "downloads": 0, "stars": 0, "installs": 0, "version": "", "updated_at": 0}, {"slug": "greensock-gsap-plugins", "name": "greensock/gsap-plugins", "description": "Plugins including ScrollToPlugin, Flip, Draggable, SplitText, SVG, and physics", "description_zh": "", "homepage": "https://officialskills.sh/greensock/skills/gsap-plugins", "tags": ["TypeScript Skills"], "category": "TypeScript Skills", "ownerName": "", "sources": ["VoltAgent/awesome-agent-skills"], "score": 539, "downloads": 0, "stars": 0, "installs": 0, "version": "", "updated_at": 0}, {"slug": "greensock-gsap-react", "name": "greensock/gsap-react", "description": "React integration with useGSAP hook, refs, gsap.context(), cleanup, and SSR", "description_zh": "", "homepage": "https://officialskills.sh/greensock/skills/gsap-react", "tags": ["TypeScript Skills"], "category": "TypeScript Skills", "ownerName": "", "sources": ["VoltAgent/awesome-agent-skills"], "score": 538, "downloads": 0, "stars": 0, "installs": 0, "version": "", "updated_at": 0}, {"slug": "greensock-gsap-scrolltrigger", "name": "greensock/gsap-scrolltrigger", "description": "ScrollTrigger for scroll-linked animations, pinning, scrub, and refresh handling", "description_zh": "", "homepage": "https://officialskills.sh/greensock/skills/gsap-scrolltrigger", "tags": ["TypeScript Skills"], "category": "TypeScript Skills", "ownerName": "", "sources": ["VoltAgent/awesome-agent-skills"], "score": 537, "downloads": 0, "stars": 0, "installs": 0, "version": "", "updated_at": 0}, {"slug": "greensock-gsap-timeline", "name": "greensock/gsap-timeline", "description": "Timelines with sequencing, position parameter, labels, nesting, and playback control", "description_zh": "", "homepage": "https://officialskills.sh/greensock/skills/gsap-timeline", "tags": ["TypeScript Skills"], "category": "TypeScript Skills", "ownerName": "", "sources": ["VoltAgent/awesome-agent-skills"], "score": 536, "downloads": 0, "stars": 0, "installs": 0, "version": "", "updated_at": 0}, {"slug": "greensock-gsap-utils", "name": "greensock/gsap-utils", "description": "Utility functions like clamp, mapRange, interpolate, snap, selector, and wrap", "description_zh": "", "homepage": "https://officialskills.sh/greensock/skills/gsap-utils", "tags": ["TypeScript Skills"], "category": "TypeScript Skills", "ownerName": "", "sources": ["VoltAgent/awesome-agent-skills"], "score": 535, "downloads": 0, "stars": 0, "installs": 0, "version": "", "updated_at": 0}, {"slug": "guanyang-antigravity-skills", "name": "guanyang/antigravity-skills", "description": "Core Antigravity extensions.", "description_zh": "", "homepage": "https://github.com/guanyang/antigravity-skills", "tags": ["Community Contributors"], "category": "Community Contributors", "ownerName": "guanyang", "sources": ["sickn33/antigravity-awesome-skills"], "score": 534, "downloads": 0, "stars": 0, "installs": 0, "version": "", "updated_at": 0}, {"slug": "hamelsmu-eval-audit", "name": "hamelsmu/eval-audit", "description": "Audit LLM eval pipelines and surface problems", "description_zh": "", "homepage": "https://github.com/hamelsmu/prompts", "tags": ["Community Skills"], "category": "Community Skills", "ownerName": "hamelsmu", "sources": ["VoltAgent/awesome-agent-skills"], "score": 533, "downloads": 0, "stars": 0, "installs": 0, "version": "", "updated_at": 0}, {"slug": "hanfang-claude-memory-skill", "name": "hanfang/claude-memory-skill", "description": "Minimal, low-friction hierarchical memory system with background agents and filesystem-based persistence", "description_zh": "", "homepage": "https://github.com/hanfang/claude-memory-skill", "tags": ["Community Skills"], "category": "Community Skills", "ownerName": "hanfang", "sources": ["VoltAgent/awesome-agent-skills"], "score": 532, "downloads": 0, "stars": 0, "installs": 0, "version": "", "updated_at": 0}, {"slug": "hashicorp-agent-skills", "name": "hashicorp-agent-skills", "description": "HashiCorp-maintained Claude skills for Terraform workflows and infrastructure automation.", "description_zh": "", "homepage": "https://github.com/hashicorp/agent-skills", "tags": ["🛠 Development & Code Tools"], "category": "🛠 Development & Code Tools", "ownerName": "hashicorp", "sources": ["BehiSecc/awesome-claude-skills"], "score": 531, "downloads": 0, "stars": 0, "installs": 0, "version": "", "updated_at": 0}, {"slug": "hashicorp-azure-verified-modules", "name": "hashicorp/azure-verified-modules", "description": "Azure Verified Modules (AVM) certification standards for Terraform modules", "description_zh": "", "homepage": "https://officialskills.sh/hashicorp/skills/azure-verified-modules", "tags": ["Skills by HashiCorp Team for Terraform"], "category": "Skills by HashiCorp Team for Terraform", "ownerName": "", "sources": ["VoltAgent/awesome-agent-skills"], "score": 530, "downloads": 0, "stars": 0, "installs": 0, "version": "", "updated_at": 0}, {"slug": "hashicorp-new-terraform-provider", "name": "hashicorp/new-terraform-provider", "description": "Scaffold a new Terraform provider project using the Plugin Framework", "description_zh": "", "homepage": "https://officialskills.sh/hashicorp/skills/new-terraform-provider", "tags": ["Skills by HashiCorp Team for Terraform"], "category": "Skills by HashiCorp Team for Terraform", "ownerName": "", "sources": ["VoltAgent/awesome-agent-skills"], "score": 529, "downloads": 0, "stars": 0, "installs": 0, "version": "", "updated_at": 0}, {"slug": "hashicorp-provider-actions", "name": "hashicorp/provider-actions", "description": "Implement Terraform Provider Actions using the Plugin Framework", "description_zh": "", "homepage": "https://officialskills.sh/hashicorp/skills/provider-actions", "tags": ["Skills by HashiCorp Team for Terraform"], "category": "Skills by HashiCorp Team for Terraform", "ownerName": "", "sources": ["VoltAgent/awesome-agent-skills"], "score": 528, "downloads": 0, "stars": 0, "installs": 0, "version": "", "updated_at": 0}, {"slug": "hashicorp-provider-resources", "name": "hashicorp/provider-resources", "description": "Implement Terraform Provider resources and data sources using the Plugin Framework", "description_zh": "", "homepage": "https://officialskills.sh/hashicorp/skills/provider-resources", "tags": ["Skills by HashiCorp Team for Terraform"], "category": "Skills by HashiCorp Team for Terraform", "ownerName": "", "sources": ["VoltAgent/awesome-agent-skills"], "score": 527, "downloads": 0, "stars": 0, "installs": 0, "version": "", "updated_at": 0}, {"slug": "hashicorp-provider-test-patterns", "name": "hashicorp/provider-test-patterns", "description": "Acceptance test patterns for Terraform providers using terraform-plugin-testing", "description_zh": "", "homepage": "https://officialskills.sh/hashicorp/skills/provider-test-patterns", "tags": ["Skills by HashiCorp Team for Terraform"], "category": "Skills by HashiCorp Team for Terraform", "ownerName": "", "sources": ["VoltAgent/awesome-agent-skills"], "score": 526, "downloads": 0, "stars": 0, "installs": 0, "version": "", "updated_at": 0}, {"slug": "hashicorp-refactor-module", "name": "hashicorp/refactor-module", "description": "Transform monolithic Terraform configurations into reusable modules", "description_zh": "", "homepage": "https://officialskills.sh/hashicorp/skills/refactor-module", "tags": ["Skills by HashiCorp Team for Terraform"], "category": "Skills by HashiCorp Team for Terraform", "ownerName": "", "sources": ["VoltAgent/awesome-agent-skills"], "score": 525, "downloads": 0, "stars": 0, "installs": 0, "version": "", "updated_at": 0}, {"slug": "hashicorp-run-acceptance-tests", "name": "hashicorp/run-acceptance-tests", "description": "Run acceptance tests for Terraform providers using Go's test runner", "description_zh": "", "homepage": "https://officialskills.sh/hashicorp/skills/run-acceptance-tests", "tags": ["Skills by HashiCorp Team for Terraform"], "category": "Skills by HashiCorp Team for Terraform", "ownerName": "", "sources": ["VoltAgent/awesome-agent-skills"], "score": 524, "downloads": 0, "stars": 0, "installs": 0, "version": "", "updated_at": 0}, {"slug": "hashicorp-terraform-search-import", "name": "hashicorp/terraform-search-import", "description": "Discover existing cloud resources and bulk import them into Terraform state", "description_zh": "", "homepage": "https://officialskills.sh/hashicorp/skills/terraform-search-import", "tags": ["Skills by HashiCorp Team for Terraform"], "category": "Skills by HashiCorp Team for Terraform", "ownerName": "", "sources": ["VoltAgent/awesome-agent-skills"], "score": 523, "downloads": 0, "stars": 0, "installs": 0, "version": "", "updated_at": 0}, {"slug": "hashicorp-terraform-stacks", "name": "hashicorp/terraform-stacks", "description": "Manage infrastructure across multiple environments, regions, and cloud accounts", "description_zh": "", "homepage": "https://officialskills.sh/hashicorp/skills/terraform-stacks", "tags": ["Skills by HashiCorp Team for Terraform"], "category": "Skills by HashiCorp Team for Terraform", "ownerName": "", "sources": ["VoltAgent/awesome-agent-skills"], "score": 522, "downloads": 0, "stars": 0, "installs": 0, "version": "", "updated_at": 0}, {"slug": "hashicorp-terraform-style-guide", "name": "hashicorp/terraform-style-guide", "description": "Generate Terraform HCL code following HashiCorp's official style conventions", "description_zh": "", "homepage": "https://officialskills.sh/hashicorp/skills/terraform-style-guide", "tags": ["Skills by HashiCorp Team for Terraform"], "category": "Skills by HashiCorp Team for Terraform", "ownerName": "", "sources": ["VoltAgent/awesome-agent-skills"], "score": 521, "downloads": 0, "stars": 0, "installs": 0, "version": "", "updated_at": 0}, {"slug": "hashicorp-terraform-test", "name": "hashicorp/terraform-test", "description": "Built-in testing framework for Terraform configurations with .tftest.hcl files", "description_zh": "", "homepage": "https://officialskills.sh/hashicorp/skills/terraform-test", "tags": ["Skills by HashiCorp Team for Terraform"], "category": "Skills by HashiCorp Team for Terraform", "ownerName": "", "sources": ["VoltAgent/awesome-agent-skills"], "score": 520, "downloads": 0, "stars": 0, "installs": 0, "version": "", "updated_at": 0}, {"slug": "helius-labs-helius-skills", "name": "helius-labs/helius-skills", "description": "Ship Solana apps end-to-end; transaction sending, asset queries, real-time streaming, token swaps, prediction markets, browser wallets, and deep research into protocol internals all powered by Helius APIs, DFlow trading, and Phantom wallet integrations", "description_zh": "", "homepage": "https://github.com/helius-labs/core-ai", "tags": ["Community Skills"], "category": "Community Skills", "ownerName": "helius-labs", "sources": ["VoltAgent/awesome-agent-skills"], "score": 519, "downloads": 0, "stars": 0, "installs": 0, "version": "", "updated_at": 0}, {"slug": "help-scout-automation", "name": "Help Scout Automation", "description": "Automate Help Scout: conversations, customers, mailboxes, and tags.", "description_zh": "", "homepage": "./helpdesk-automation", "tags": ["App Automation via Composio"], "category": "App Automation via Composio", "ownerName": "", "sources": ["ComposioHQ/awesome-claude-skills"], "score": 518, "downloads": 0, "stars": 0, "installs": 0, "version": "", "updated_at": 0}, {"slug": "how-to-create-your-first-claude-skill", "name": "How to Create Your First Claude Skill", "description": "Step-by-step tutorial with examples", "description_zh": "", "homepage": "https://skywork.ai/blog/ai-agent/how-to-create-claude-skill-step-by-step-guide", "tags": ["Written Tutorials"], "category": "Written Tutorials", "ownerName": "", "sources": ["travisvn/awesome-claude-skills"], "score": 517, "downloads": 0, "stars": 0, "installs": 0, "version": "", "updated_at": 0}, {"slug": "how-to-use-skills-in-claude-code", "name": "How to Use Skills in Claude Code", "description": "Installation, project scoping, and testing guide", "description_zh": "", "homepage": "https://skywork.ai/blog/how-to-use-skills-in-claude-code-install-path-project-scoping-testing", "tags": ["Written Tutorials"], "category": "Written Tutorials", "ownerName": "", "sources": ["travisvn/awesome-claude-skills"], "score": 516, "downloads": 0, "stars": 0, "installs": 0, "version": "", "updated_at": 0}, {"slug": "hqhq1025-skill-optimizer", "name": "hqhq1025/skill-optimizer", "description": "Diagnose and optimize Agent Skills (SKILL.md) with real session data and research-backed static analysis. Works with Claude Code, Codex, and any Agent Skills-compatible agent", "description_zh": "", "homepage": "https://github.com/hqhq1025/skill-optimizer", "tags": ["Community Skills"], "category": "Community Skills", "ownerName": "hqhq1025", "sources": ["VoltAgent/awesome-agent-skills"], "score": 515, "downloads": 0, "stars": 0, "installs": 0, "version": "", "updated_at": 0}, {"slug": "hubspot-automation", "name": "HubSpot Automation", "description": "Automate HubSpot CRM: contacts, deals, companies, tickets, and email engagement.", "description_zh": "", "homepage": "./hubspot-automation", "tags": ["App Automation via Composio"], "category": "App Automation via Composio", "ownerName": "", "sources": ["ComposioHQ/awesome-claude-skills"], "score": 514, "downloads": 0, "stars": 0, "installs": 0, "version": "", "updated_at": 0}, {"slug": "hubspot-admin-skills", "name": "hubspot-admin-skills", "description": "Skills for auditing, cleaning, enriching, and automating HubSpot CRM. Full audit → plan → execute → maintain workflow.", "description_zh": "", "homepage": "https://github.com/TomGranot/hubspot-admin-skills", "tags": ["🔧 Utility & Automation"], "category": "🔧 Utility & Automation", "ownerName": "TomGranot", "sources": ["BehiSecc/awesome-claude-skills"], "score": 513, "downloads": 0, "stars": 0, "installs": 0, "version": "", "updated_at": 0}, {"slug": "huggingface-hf-cli", "name": "huggingface/hf-cli", "description": "HF CLI tool for Hub operations", "description_zh": "", "homepage": "https://officialskills.sh/huggingface/skills/hf-cli", "tags": ["Skills by Typefully"], "category": "Skills by Typefully", "ownerName": "", "sources": ["VoltAgent/awesome-agent-skills"], "score": 512, "downloads": 0, "stars": 0, "installs": 0, "version": "", "updated_at": 0}, {"slug": "huggingface-hugging-face-dataset-viewer", "name": "huggingface/hugging-face-dataset-viewer", "description": "Browse and query HF datasets with the Dataset Viewer API", "description_zh": "", "homepage": "https://officialskills.sh/huggingface/skills/hugging-face-dataset-viewer", "tags": ["Skills by Typefully"], "category": "Skills by Typefully", "ownerName": "", "sources": ["VoltAgent/awesome-agent-skills"], "score": 511, "downloads": 0, "stars": 0, "installs": 0, "version": "", "updated_at": 0}, {"slug": "huggingface-hugging-face-datasets", "name": "huggingface/hugging-face-datasets", "description": "Create and manage datasets with configs and SQL querying", "description_zh": "", "homepage": "https://officialskills.sh/huggingface/skills/hugging-face-datasets", "tags": ["Skills by Typefully"], "category": "Skills by Typefully", "ownerName": "", "sources": ["VoltAgent/awesome-agent-skills"], "score": 510, "downloads": 0, "stars": 0, "installs": 0, "version": "", "updated_at": 0}, {"slug": "huggingface-hugging-face-evaluation", "name": "huggingface/hugging-face-evaluation", "description": "Model evaluation with vLLM/lighteval and eval tables", "description_zh": "", "homepage": "https://officialskills.sh/huggingface/skills/hugging-face-evaluation", "tags": ["Skills by Typefully"], "category": "Skills by Typefully", "ownerName": "", "sources": ["VoltAgent/awesome-agent-skills"], "score": 509, "downloads": 0, "stars": 0, "installs": 0, "version": "", "updated_at": 0}, {"slug": "huggingface-hugging-face-jobs", "name": "huggingface/hugging-face-jobs", "description": "Run compute jobs and Python scripts on HF infrastructure", "description_zh": "", "homepage": "https://officialskills.sh/huggingface/skills/hugging-face-jobs", "tags": ["Skills by Typefully"], "category": "Skills by Typefully", "ownerName": "", "sources": ["VoltAgent/awesome-agent-skills"], "score": 508, "downloads": 0, "stars": 0, "installs": 0, "version": "", "updated_at": 0}, {"slug": "huggingface-hugging-face-model-trainer", "name": "huggingface/hugging-face-model-trainer", "description": "Train models with TRL: SFT, DPO, GRPO, GGUF conversion", "description_zh": "", "homepage": "https://officialskills.sh/huggingface/skills/hugging-face-model-trainer", "tags": ["Skills by Typefully"], "category": "Skills by Typefully", "ownerName": "", "sources": ["VoltAgent/awesome-agent-skills"], "score": 507, "downloads": 0, "stars": 0, "installs": 0, "version": "", "updated_at": 0}, {"slug": "huggingface-hugging-face-paper-pages", "name": "huggingface/hugging-face-paper-pages", "description": "Create and manage paper pages on HF Hub", "description_zh": "", "homepage": "https://officialskills.sh/huggingface/skills/hugging-face-paper-pages", "tags": ["Skills by Typefully"], "category": "Skills by Typefully", "ownerName": "", "sources": ["VoltAgent/awesome-agent-skills"], "score": 506, "downloads": 0, "stars": 0, "installs": 0, "version": "", "updated_at": 0}, {"slug": "huggingface-hugging-face-paper-publisher", "name": "huggingface/hugging-face-paper-publisher", "description": "Publish papers on HF Hub with model/dataset links", "description_zh": "", "homepage": "https://officialskills.sh/huggingface/skills/hugging-face-paper-publisher", "tags": ["Skills by Typefully"], "category": "Skills by Typefully", "ownerName": "", "sources": ["VoltAgent/awesome-agent-skills"], "score": 505, "downloads": 0, "stars": 0, "installs": 0, "version": "", "updated_at": 0}, {"slug": "huggingface-hugging-face-tool-builder", "name": "huggingface/hugging-face-tool-builder", "description": "Build reusable scripts for HF API operations", "description_zh": "", "homepage": "https://officialskills.sh/huggingface/skills/hugging-face-tool-builder", "tags": ["Skills by Typefully"], "category": "Skills by Typefully", "ownerName": "", "sources": ["VoltAgent/awesome-agent-skills"], "score": 504, "downloads": 0, "stars": 0, "installs": 0, "version": "", "updated_at": 0}, {"slug": "huggingface-hugging-face-trackio", "name": "huggingface/hugging-face-trackio", "description": "Track ML experiments with real-time dashboards", "description_zh": "", "homepage": "https://officialskills.sh/huggingface/skills/hugging-face-trackio", "tags": ["Skills by Typefully"], "category": "Skills by Typefully", "ownerName": "", "sources": ["VoltAgent/awesome-agent-skills"], "score": 503, "downloads": 0, "stars": 0, "installs": 0, "version": "", "updated_at": 0}, {"slug": "huggingface-hugging-face-vision-trainer", "name": "huggingface/hugging-face-vision-trainer", "description": "Train vision models on HF infrastructure", "description_zh": "", "homepage": "https://officialskills.sh/huggingface/skills/hugging-face-vision-trainer", "tags": ["Skills by Typefully"], "category": "Skills by Typefully", "ownerName": "", "sources": ["VoltAgent/awesome-agent-skills"], "score": 502, "downloads": 0, "stars": 0, "installs": 0, "version": "", "updated_at": 0}, {"slug": "huggingface-huggingface-gradio", "name": "huggingface/huggingface-gradio", "description": "Build Gradio apps and deploy to HF Spaces", "description_zh": "", "homepage": "https://officialskills.sh/huggingface/skills/huggingface-gradio", "tags": ["Skills by Typefully"], "category": "Skills by Typefully", "ownerName": "", "sources": ["VoltAgent/awesome-agent-skills"], "score": 501, "downloads": 0, "stars": 0, "installs": 0, "version": "", "updated_at": 0}]}