{"page": 122, "total_pages": 522, "total": 26073, "skills": [{"category": "data-analysis", "created_at": 1772791996757, "description": "Thiết lập kỷ luật quản trị danh mục (IPS mini) + position sizing theo risk budgeting cho nhà đầu tư cổ phiếu (không margin), biến khuyến nghị thành “có điều...", "description_zh": "", "downloads": 825, "homepage": "https://clawhub.ai/ndtchan/portfolio-risk-manager", "iconUrl": null, "installs": 69, "name": "Portfolio Risk Manager", "ownerName": "ndtchan", "score": 16408.114558472553, "slug": "portfolio-risk-manager", "source": "clawhub", "stars": 0, "tags": null, "updated_at": 1776765850040, "version": "1.0.1"}, {"category": "ai-intelligence", "created_at": 1772774356993, "description": "Live markdown viewer for AI pair-editing. When you collaborate, the updates render instantly. Works with any AI agent and web browser.", "description_zh": "", "downloads": 824, "homepage": "https://clawhub.ai/parkertoddbrooks/markdown-viewer", "iconUrl": null, "installs": 85, "name": "Markdown Viewer", "ownerName": "parkertoddbrooks", "score": 45188.284518828455, "slug": "markdown-viewer", "source": "clawhub", "stars": 2, "tags": null, "updated_at": 1776765025529, "version": "1.2.0"}, {"category": "productivity", "created_at": 1772770595333, "description": "Generate, store, and search vector embeddings with provider selection, chunking strategies, and similarity search optimization.", "description_zh": "", "downloads": 824, "homepage": "https://clawhub.ai/ivangdavila/embeddings", "iconUrl": null, "installs": 29, "name": "Embeddings", "ownerName": "ivangdavila", "score": 45188.284518828455, "slug": "embeddings", "source": "clawhub", "stars": 2, "tags": null, "updated_at": 1776765025526, "version": "1.0.0"}, {"category": "developer-tools", "created_at": 1772768538930, "description": "Build accessible color palettes with proper contrast ratios and semantic tokens.", "description_zh": "", "downloads": 824, "homepage": "https://clawhub.ai/ivangdavila/colors", "iconUrl": null, "installs": 18, "name": "Colors", "ownerName": "ivangdavila", "score": 48512.0718697361, "slug": "colors", "source": "clawhub", "stars": 2, "tags": null, "updated_at": 1776765025517, "version": "1.0.0"}, {"category": "productivity", "created_at": 1772773601931, "description": "Manage brand tone/style for all writing skills", "description_zh": "", "downloads": 824, "homepage": "https://clawhub.ai/mupengi-bot/brand-voice", "iconUrl": null, "installs": 78, "name": "brand-voice", "ownerName": "mupengi-bot", "score": 3518.811120126404, "slug": "brand-voice", "source": "clawhub", "stars": 0, "tags": null, "updated_at": 1776770350263, "version": "1.0.0"}, {"category": "communication-collaboration", "created_at": 1772804137957, "description": "Triage inbox email, draft clear replies, and manage follow-ups with priority routing, commitment tracking, and reusable templates.", "description_zh": "", "downloads": 824, "homepage": "https://clawhub.ai/ivangdavila/email-management", "iconUrl": null, "installs": 132, "name": "Email Management", "ownerName": "ivangdavila", "score": 4737.810487580497, "slug": "email-management", "source": "clawhub", "stars": 0, "tags": null, "updated_at": 1776767649919, "version": "1.0.0"}, {"category": "communication-collaboration", "created_at": 1772772079733, "description": "Full-featured Odoo 19 ERP connector for OpenClaw - Sales, CRM, Purchase, Inventory, Projects, HR, Fleet, Manufacturing (80+ operations, complete Python code...", "description_zh": "", "downloads": 824, "homepage": "https://clawhub.ai/nullnaveen/odoo-connector", "iconUrl": null, "installs": 65, "name": "Openclaw Skill for Odoo", "ownerName": "nullnaveen", "score": 12688.63566368956, "slug": "odoo-connector", "source": "clawhub", "stars": 0, "tags": null, "updated_at": 1776765850412, "version": "1.1.2"}, {"category": "productivity", "created_at": 1772765487742, "description": "Manage Volcengine ECS instances and related resources. Use when users need instance inventory, lifecycle operations, troubleshooting, or automation templates for ECS.", "description_zh": "", "downloads": 824, "homepage": "https://clawhub.ai/cinience/volcengine-compute-ecs", "iconUrl": null, "installs": 20, "name": "Volcengine Compute Ecs", "ownerName": "cinience", "score": 13339.80896875506, "slug": "volcengine-compute-ecs", "source": "clawhub", "stars": 0, "tags": null, "updated_at": 1776765850060, "version": "1.0.0"}, {"category": "developer-tools", "created_at": 1772767171620, "description": "Play on-chain odd/even games on Solana devnet via Clawland. Mint GEM from SOL or USDC, bet odd or even, win 2x. Scripts handle wallet setup, minting, and autoplay.", "description_zh": "", "downloads": 824, "homepage": "https://clawhub.ai/olambdao/olambdao-dev", "iconUrl": null, "installs": 19, "name": "Olambdao Dev", "ownerName": "olambdao", "score": 16388.225934765313, "slug": "olambdao-dev", "source": "clawhub", "stars": 0, "tags": null, "updated_at": 1776765849989, "version": "1.0.0"}, {"category": "communication-collaboration", "created_at": 1772767587189, "description": "Complete WhatsApp automation via Evolution API Go v3 - instances, messages (text/media/polls/carousels), groups, contacts, chats, communities, newsletters, and real-time webhooks", "description_zh": "", "downloads": 824, "homepage": "https://clawhub.ai/impa365/evogo", "iconUrl": null, "installs": 26, "name": "Evolution Api Go - Evo Go", "ownerName": "impa365", "score": 29481.216457960647, "slug": "evogo", "source": "clawhub", "stars": 0, "tags": null, "updated_at": 1776765849959, "version": "1.0.1"}, {"category": "developer-tools", "created_at": 1772764155974, "description": "Build a personal gift system for tracking ideas, occasions, and gift-giving history.", "description_zh": "", "downloads": 823, "homepage": "https://clawhub.ai/ivangdavila/gifts", "iconUrl": null, "installs": 8, "name": "Gifts", "ownerName": "ivangdavila", "score": 45135.983263598326, "slug": "gifts", "source": "clawhub", "stars": 2, "tags": null, "updated_at": 1776765055762, "version": "1.0.0"}, {"category": "ai-intelligence", "created_at": 1772794474627, "description": "Caravo is the first service marketplace built for autonomous AI agents — featuring 200+ ready-to-use services across categories: AI Models, Search, Data & An...", "description_zh": "", "downloads": 823, "homepage": "https://clawhub.ai/azure-vision/caravo", "iconUrl": null, "installs": 71, "name": "Caravo Service Marketplace", "ownerName": "azure-vision", "score": 40567.85370548604, "slug": "caravo", "source": "clawhub", "stars": 1, "tags": null, "updated_at": 1776765550328, "version": "0.4.22"}, {"category": "", "created_at": 1772739287914, "description": "embedding server side", "description_zh": "", "downloads": 823, "homepage": "https://clawhub.ai/skipzhang/deploy-check-1772739287", "iconUrl": null, "installs": 0, "name": "Deploy Check", "ownerName": "skipzhang", "score": 8346.009532501776, "slug": "deploy-check-1772739287", "source": "clawhub", "stars": 0, "tags": null, "updated_at": 1776769871110, "version": "1.0.0"}, {"category": "communication-collaboration", "created_at": 1772768791723, "description": "Email infrastructure for AI agents via Xobni.ai. Provides real email addresses (@xobni.ai) with REST API and MCP server access. Use when an AI agent needs to send/receive email, search inbox, manage attachments, or set up webhooks for email notifications.", "description_zh": "", "downloads": 823, "homepage": "https://clawhub.ai/ghoshsanjoy78/xobni", "iconUrl": null, "installs": 17, "name": "Xobni Email", "ownerName": "ghoshsanjoy78", "score": 16368.337311058076, "slug": "xobni", "source": "clawhub", "stars": 0, "tags": null, "updated_at": 1776765850024, "version": "1.0.1"}, {"category": "data-analysis", "created_at": 1772785421351, "description": "Deep market research — competitor analysis, user pain points, SEO/ASO keywords, naming/domain availability, and TAM/SAM/SOM sizing. Use when user says \"resea...", "description_zh": "", "downloads": 823, "homepage": "https://clawhub.ai/fortunto2/solo-research", "iconUrl": null, "installs": 35, "name": "Research", "ownerName": "fortunto2", "score": 16368.337311058076, "slug": "solo-research", "source": "clawhub", "stars": 0, "tags": null, "updated_at": 1776765850022, "version": "1.7.1"}, {"category": "productivity", "created_at": 1772770683029, "description": "Parse PDF documents with MinerU MCP to extract text, tables, and formulas. Supports multiple backends including MLX-accelerated inference on Apple Silicon.", "description_zh": "", "downloads": 823, "homepage": "https://clawhub.ai/etoile04/mineru-pdf", "iconUrl": null, "installs": 90, "name": "Mineru Pdf", "ownerName": "etoile04", "score": 8867.57892468484, "slug": "mineru-pdf", "source": "clawhub", "stars": 0, "tags": null, "updated_at": 1776765849868, "version": "1.0.0"}, {"category": "data-analysis", "created_at": 1772770337994, "description": "Beeminder API for goal tracking and commitment devices. Use when checking Beeminder goals, adding datapoints, viewing due goals, managing commitments, or tracking habits. Triggers on \"beeminder\", \"goals due\", \"add datapoint\", \"track habit\", \"goal status\", \"derail\".", "description_zh": "", "downloads": 822, "homepage": "https://clawhub.ai/ruigomeseu/beeminder", "iconUrl": null, "installs": 16, "name": "Beeminder", "ownerName": "ruigomeseu", "score": 33217.72639691715, "slug": "beeminder", "source": "clawhub", "stars": 2, "tags": null, "updated_at": 1776765055873, "version": "1.0.0"}, {"category": "productivity", "created_at": 1772767084858, "description": "Improve transcription accuracy over time. Learn corrections, configure STT.", "description_zh": "", "downloads": 822, "homepage": "https://clawhub.ai/ivangdavila/listen", "iconUrl": null, "installs": 39, "name": "Listen", "ownerName": "ivangdavila", "score": 33217.72639691715, "slug": "listen", "source": "clawhub", "stars": 2, "tags": null, "updated_at": 1776765055795, "version": "1.0.0"}, {"category": "developer-tools", "created_at": 1772768409734, "description": "Intercept and filter communications from difficult contacts. Strips emotion, extracts facts, drafts neutral responses. Use when setting up communication filtering for specific contacts, configuring the mediator, or processing intercepted messages. Triggers on \"mediator\", \"intercept messages\", \"filter communications\", \"difficult contact\", or requests to handle messages from someone the user doesn't want to deal with directly.", "description_zh": "", "downloads": 822, "homepage": "https://clawhub.ai/dylntrnr/mediator", "iconUrl": null, "installs": 14, "name": "Mediator", "ownerName": "dylntrnr", "score": 42262.21079691517, "slug": "mediator", "source": "clawhub", "stars": 0, "tags": null, "updated_at": 1776766790531, "version": "1.0.0"}, {"category": "productivity", "created_at": 1772765737437, "description": "Send USDC to molty users via A2A protocol. Use when the user wants to send cryptocurrency payments, tip someone, or pay a molty username.", "description_zh": "", "downloads": 822, "homepage": "https://clawhub.ai/0xsnackbaker/moltycash", "iconUrl": null, "installs": 24, "name": "moltycash", "ownerName": "0xsnackbaker", "score": 5800.988002822865, "slug": "moltycash", "source": "clawhub", "stars": 0, "tags": null, "updated_at": 1776765850322, "version": "2.0.0"}, {"category": "developer-tools", "created_at": 1772766158626, "description": "Use when the user asks about Indian competitive exam preparation, Sikkim PSC (SPSC) questions, previous year questions (PYQ), mock test generation, exam pattern practice, or needs reference questions for AI-powered question generation. Invoke for SPSC exam prep, PYQ search, mock tests, subject-wise practice, or studying for government job exams in India.", "description_zh": "", "downloads": 822, "homepage": "https://clawhub.ai/himyeticapital/prepspsc-pyq", "iconUrl": null, "installs": 14, "name": "PrepSPSC PYQ API", "ownerName": "himyeticapital", "score": 10657.331777518475, "slug": "prepspsc-pyq", "source": "clawhub", "stars": 0, "tags": null, "updated_at": 1776765850097, "version": "1.0.0"}, {"category": "developer-tools", "created_at": 1772766928897, "description": "Create AI-powered startup workspaces via Audos API. Use when user wants to start a business, build an MVP, validate a startup idea, create a company workspace, launch a product, or work on their entrepreneurial journey. Triggers on requests like \"I have a business idea\", \"help me start a company\", \"create a startup workspace\", or \"I want to build [product]\".", "description_zh": "", "downloads": 822, "homepage": "https://clawhub.ai/werdelin/audos", "iconUrl": null, "installs": 21, "name": "Audos – Launch a Startup Via OpenClaw in 10 Minutes", "ownerName": "werdelin", "score": 16348.448687350836, "slug": "audos", "source": "clawhub", "stars": 0, "tags": ["ai-agent", "audos", "business", "entrepreneur", "landing-page", "launch", "mvp", "onboarding", "otto", "solopreneur", "startup", "vibe-coding", "workspace"], "updated_at": 1776765849980, "version": "1.0.0"}, {"category": "content-creation", "created_at": 1772768398125, "description": "Capture and manage TIL (Today I Learned) entries on OpenTIL. Use /til <content> to capture, /til to extract insights from conversation, or /til list|publish|edit|search|delete|status|sync|tags|categories|batch to manage entries -- all without leaving the CLI.", "description_zh": "", "downloads": 822, "homepage": "https://clawhub.ai/biao29/til", "iconUrl": null, "installs": 44, "name": "OpenTIL", "ownerName": "biao29", "score": 29409.660107334523, "slug": "til", "source": "clawhub", "stars": 0, "tags": null, "updated_at": 1776765849947, "version": "1.11.0"}, {"category": "developer-tools", "created_at": 1772767212463, "description": "Create and populate Annotated Research Contexts (ARCs) following the nfdi4plants ARC specification. Use when creating a new ARC, adding studies/assays/workflows/runs, annotating ISA metadata, organizing research data into ARC structure, or pushing ARCs to a DataHUB. Guides the user interactively through all required and optional metadata fields.", "description_zh": "", "downloads": 821, "homepage": "https://clawhub.ai/ingogiebel/arc-creator", "iconUrl": null, "installs": 8, "name": "ARC Creator", "ownerName": "ingogiebel", "score": 16599.272139102304, "slug": "arc-creator", "source": "clawhub", "stars": 0, "tags": null, "updated_at": 1776765850376, "version": "1.0.0"}, {"category": "developer-tools", "created_at": 1772768987626, "description": "Pinata IPFS API for file storage, groups, gateways, signatures, x402 payments, and file vectorization.", "description_zh": "", "downloads": 821, "homepage": "https://clawhub.ai/iammatthias/pinata-api", "iconUrl": null, "installs": 57, "name": "Pinata API", "ownerName": "iammatthias", "score": 10644.366653701543, "slug": "pinata-api", "source": "clawhub", "stars": 0, "tags": null, "updated_at": 1776765850121, "version": "1.0.9"}, {"category": "data-analysis", "created_at": 1772765947054, "description": "LYGO Δ9 Council Champion persona helper (ΣCENΔR / SCENAR, Architect of Paradox). Reality reframer for semantic recursion, contradiction analysis, and memetic reversal to dismantle false narratives. Pure advisor; not a controller.", "description_zh": "", "downloads": 821, "homepage": "https://clawhub.ai/deepseekoracle/lygo-champion-scenar-paradox", "iconUrl": null, "installs": 18, "name": "LYGO Champion: ΣCENΔR (SCENAR) — Paradox Architect", "ownerName": "deepseekoracle", "score": 10644.366653701543, "slug": "lygo-champion-scenar-paradox", "source": "clawhub", "stars": 0, "tags": null, "updated_at": 1776765850118, "version": "1.0.0"}, {"category": "data-analysis", "created_at": 1772771067400, "description": "List, search, and analyze WhatsApp conversations", "description_zh": "", "downloads": 821, "homepage": "https://clawhub.ai/marcosrippel/whatsapp-chats", "iconUrl": null, "installs": 28, "name": "WhatsApp Chats", "ownerName": "marcosrippel", "score": 10644.366653701543, "slug": "whatsapp-chats", "source": "clawhub", "stars": 0, "tags": ["baileys", "chats", "conversations", "offline", "whatsapp"], "updated_at": 1776765850088, "version": "1.0.0"}, {"category": "developer-tools", "created_at": 1772791828446, "description": "Web scraping using Scrapling — a Python framework with anti-bot bypass (Cloudflare Turnstile, fingerprint spoofing), adaptive element tracking, stealth headl...", "description_zh": "", "downloads": 821, "homepage": "https://clawhub.ai/damirikys/scrapling-fetcher", "iconUrl": null, "installs": 94, "name": "Scrapling - Stealth Web Scraper", "ownerName": "damirikys", "score": 13291.241703092115, "slug": "scrapling-fetcher", "source": "clawhub", "stars": 0, "tags": null, "updated_at": 1776765850049, "version": "1.0.3"}, {"category": "ai-intelligence", "created_at": 1772768211498, "description": "Import reading notes from Instapaper exports into the slipbox. Use when user pastes an Instapaper highlight export with article title and notes. Parses title/URL from header, extracts user's own notes (plain text lines), skips original highlights (> lines), then runs slipbot for each.", "description_zh": "", "downloads": 821, "homepage": "https://clawhub.ai/jrswab/slipbot-instapaper-importer", "iconUrl": null, "installs": 50, "name": "SlipBot Instapaper Importer", "ownerName": "jrswab", "score": 8846.029522680745, "slug": "slipbot-instapaper-importer", "source": "clawhub", "stars": 0, "tags": null, "updated_at": 1776765849763, "version": "1.0.0"}, {"category": "developer-tools", "created_at": 1773088447115, "description": "Create stunning, animation-rich HTML presentations with a two-stage workflow. Use `--plan` to create a structured PLANNING.md outline (reads resources/ folde...", "description_zh": "", "downloads": 820, "homepage": "https://clawhub.ai/kaisersong/html-slide-creator", "iconUrl": null, "installs": 192, "name": "HTML Slide Creator", "ownerName": "kaisersong", "score": 49234.13566739606, "slug": "html-slide-creator", "source": "clawhub", "stars": 4, "tags": null, "updated_at": 1776764949898, "version": "1.0.0"}, {"category": "developer-tools", "created_at": 1772764502892, "description": "Secure API key management with broker. Keys never exposed to agent context.", "description_zh": "", "downloads": 820, "homepage": "https://clawhub.ai/ivangdavila/keys", "iconUrl": null, "installs": 5, "name": "Keys", "ownerName": "ivangdavila", "score": 46663.04937601736, "slug": "keys", "source": "clawhub", "stars": 2, "tags": null, "updated_at": 1776765250597, "version": "1.0.0"}, {"category": "productivity", "created_at": 1772769303293, "description": "Implement accessible icons with proper sizing, color inheritance, and performance.", "description_zh": "", "downloads": 820, "homepage": "https://clawhub.ai/ivangdavila/icons", "iconUrl": null, "installs": 47, "name": "Icons", "ownerName": "ivangdavila", "score": 46663.04937601736, "slug": "icons", "source": "clawhub", "stars": 2, "tags": null, "updated_at": 1776765250584, "version": "1.0.0"}, {"category": "developer-tools", "created_at": 1772763462910, "description": "Build a personal wishlist system for capturing wants, tracking prices, and smart purchasing decisions.", "description_zh": "", "downloads": 820, "homepage": "https://clawhub.ai/ivangdavila/wishlist", "iconUrl": null, "installs": 7, "name": "Wishlist", "ownerName": "ivangdavila", "score": 10392.749244712992, "slug": "wishlist", "source": "clawhub", "stars": 2, "tags": null, "updated_at": 1776765250322, "version": "1.0.0"}, {"category": "content-creation", "created_at": 1772774322304, "description": "Music songwriting guide for ACE-Step. Provides professional knowledge on writing captions, lyrics, choosing BPM/key/duration, and structuring songs. Use this skill when users want to create, write, or plan a song before generating it with ACE-Step.", "description_zh": "", "downloads": 820, "homepage": "https://clawhub.ai/dumoedss/acestep-songwriting", "iconUrl": null, "installs": 71, "name": "acestep-songwriting", "ownerName": "dumoedss", "score": 40423.48411934553, "slug": "acestep-songwriting", "source": "clawhub", "stars": 1, "tags": null, "updated_at": 1776765550349, "version": "1.0.0"}, {"category": "productivity", "created_at": 1773067347915, "description": "Structured reasoning through sequential thinking — break complex problems into steps, solve each independently, verify consistency, synthesize conclusions wi...", "description_zh": "", "downloads": 820, "homepage": "https://clawhub.ai/aiwithabidi/sequential-thinking", "iconUrl": null, "installs": 93, "name": "Sequential Thinking", "ownerName": "aiwithabidi", "score": 7293.427021257671, "slug": "sequential-thinking", "source": "clawhub", "stars": 0, "tags": null, "updated_at": 1776769271340, "version": "1.0.0"}, {"category": "data-analysis", "created_at": 1773042787587, "description": "SQLite-based task management with priority, tags, and stats. Database stored in skill directory for natural isolation.", "description_zh": "", "downloads": 820, "homepage": "https://clawhub.ai/rare/task-manager", "iconUrl": null, "installs": 88, "name": "Task Manager", "ownerName": "rare", "score": 9806.266443434584, "slug": "task-manager", "source": "clawhub", "stars": 0, "tags": null, "updated_at": 1776767090506, "version": "1.1.0"}, {"category": "security-compliance", "created_at": 1772765071254, "description": "Configure and verify bearer API key authentication for Remix agent publishing workflows.", "description_zh": "", "downloads": 820, "homepage": "https://clawhub.ai/chuckstock/remix-api-key-auth", "iconUrl": null, "installs": 10, "name": "Remix Api Key Auth", "ownerName": "chuckstock", "score": 5786.873676781934, "slug": "remix-api-key-auth", "source": "clawhub", "stars": 0, "tags": null, "updated_at": 1776765850308, "version": "0.1.0"}, {"category": "developer-tools", "created_at": 1772769812422, "description": "Generate professional technical documentation from codebases — API docs, READMEs, architecture diagrams, changelogs, and onboarding guides. Use when writing docs, creating API documentation, or delivering documentation projects.", "description_zh": "", "downloads": 820, "homepage": "https://clawhub.ai/seanwyngaard/technical-doc-generator", "iconUrl": null, "installs": 20, "name": "Technical Doc Generator", "ownerName": "seanwyngaard", "score": 34997.86598378148, "slug": "technical-doc-generator", "source": "clawhub", "stars": 0, "tags": null, "updated_at": 1776765850180, "version": "1.0.0"}, {"category": "communication-collaboration", "created_at": 1772766963187, "description": "Manage OVHcloud services via API. Use when user asks about OVH domains, DNS records, VPS, cloud instances, dedicated servers, email, SSL certificates, or any OVH service management. Supports listing, creating, updating, and deleting resources.", "description_zh": "", "downloads": 820, "homepage": "https://clawhub.ai/pushp1997/ovh", "iconUrl": null, "installs": 21, "name": "Ovh", "ownerName": "pushp1997", "score": 10631.40152988461, "slug": "ovh", "source": "clawhub", "stars": 0, "tags": null, "updated_at": 1776765850111, "version": "1.0.0"}, {"category": "productivity", "created_at": 1772785004645, "description": "Extract text and metadata from PDF files using PyMuPDF, supporting large files and outputting results in JSON format.", "description_zh": "", "downloads": 819, "homepage": "https://clawhub.ai/nantes/pdfreader", "iconUrl": null, "installs": 144, "name": "Pdfreader", "ownerName": "nantes", "score": 43187.531422825545, "slug": "pdfreader", "source": "clawhub", "stars": 2, "tags": null, "updated_at": 1776767050081, "version": "1.0.3"}, {"category": "content-creation", "created_at": 1773037725239, "description": "Chemistry agent skill for PubChem API queries (compound info/properties, structures/SMILES/images, synthesis routes/references) + RDKit cheminformatics (SMIL...", "description_zh": "", "downloads": 819, "homepage": "https://clawhub.ai/cheminem/pharmaclaw-chemistry-query", "iconUrl": null, "installs": 81, "name": "Pharmaclaw Chemistry Query", "ownerName": "cheminem", "score": 12999.394673123488, "slug": "pharmaclaw-chemistry-query", "source": "clawhub", "stars": 2, "tags": null, "updated_at": 1776765590461, "version": "2.0.1"}, {"category": "developer-tools", "created_at": 1772764424105, "description": "Build a personal plant care system with watering schedules, care logs, and seasonal reminders.", "description_zh": "", "downloads": 819, "homepage": "https://clawhub.ai/ivangdavila/plants", "iconUrl": null, "installs": 13, "name": "Plants", "ownerName": "ivangdavila", "score": 10380.664652567975, "slug": "plants", "source": "clawhub", "stars": 2, "tags": null, "updated_at": 1776765250306, "version": "1.0.0"}, {"category": "developer-tools", "created_at": 1772767020634, "description": "Build and deploy ML demo interfaces with proper state management, queuing, and production patterns.", "description_zh": "", "downloads": 819, "homepage": "https://clawhub.ai/ivangdavila/gradio", "iconUrl": null, "installs": 15, "name": "Gradio", "ownerName": "ivangdavila", "score": 12880.491827860249, "slug": "gradio", "source": "clawhub", "stars": 2, "tags": null, "updated_at": 1776765250122, "version": "1.0.0"}, {"category": "content-creation", "created_at": 1772772728176, "description": "Renders LaTeX math to PNG, JPEG, WebP, or AVIF images using MathJax (TeX→SVG) and @svg-fns/svg2img. Invoke whenever the agent needs to output LaTeX as a view...", "description_zh": "", "downloads": 819, "homepage": "https://clawhub.ai/thebigoranger/tex-render", "iconUrl": null, "installs": 61, "name": "TeX Render", "ownerName": "thebigoranger", "score": 4224.916172298169, "slug": "tex-render", "source": "clawhub", "stars": 0, "tags": null, "updated_at": 1776769564789, "version": "1.1.4"}, {"category": "productivity", "created_at": 1772771477184, "description": "Personal investing assistant for Lithuanian investors. Monitors markets, ETFs, crypto, pension funds (III pakopa), and provides monthly investment suggestions based on research and market conditions.", "description_zh": "", "downloads": 819, "homepage": "https://clawhub.ai/satnamra/investing", "iconUrl": null, "installs": 52, "name": "Investing", "ownerName": "satnamra", "score": 10618.436406067678, "slug": "investing", "source": "clawhub", "stars": 0, "tags": null, "updated_at": 1776765850120, "version": "1.0.0"}, {"category": "data-analysis", "created_at": 1772774996547, "description": "X/Twitter messaging management via API. Read tweets, post tweets, reply, send DMs, search, and view analytics. Use when the user wants to interact with X/Twi...", "description_zh": "", "downloads": 819, "homepage": "https://clawhub.ai/klemenska/twitter-x-api", "iconUrl": null, "installs": 46, "name": "Twitter/X API", "ownerName": "klemenska", "score": 29302.32558139535, "slug": "twitter-x-api", "source": "clawhub", "stars": 0, "tags": null, "updated_at": 1776765849971, "version": "1.0.0"}, {"category": "data-analysis", "created_at": 1773909631138, "description": "Specialized A-share stock data collector. Automatically fetch and store daily/weekly/monthly historical K-line data for all A-share stocks in SQLite database.", "description_zh": "", "downloads": 819, "homepage": "https://clawhub.ai/xiyunnet/a-stock-get", "iconUrl": null, "installs": 441, "name": "A股数据获取 A specialized data collection tool for Chinese A-share market", "ownerName": "xiyunnet", "score": 29302.32558139535, "slug": "a-stock-get", "source": "clawhub", "stars": 0, "tags": null, "updated_at": 1776765849939, "version": "1.0.0"}, {"category": "content-creation", "created_at": 1772768721656, "description": "Public reference + implementation playbook for Delta9-WP-003 Recursive Generosity (\"Anthem of the Unbounded Well\"). Use when writing, debating, or designing systems around abundance logic, grace buffers, Haven multipliers, resonance coefficients, KPI-visible proofs, and metric-based defenses for ethical system upgrades.", "description_zh": "", "downloads": 819, "homepage": "https://clawhub.ai/deepseekoracle/recursive-generosity-protocol", "iconUrl": null, "installs": 62, "name": "Recursive Generosity Protocol (Delta9-WP-003)", "ownerName": "deepseekoracle", "score": 8824.480120676651, "slug": "recursive-generosity-protocol", "source": "clawhub", "stars": 0, "tags": null, "updated_at": 1776765849794, "version": "1.0.0"}, {"category": "developer-tools", "created_at": 1772769852774, "description": "Automatically apply Claude prompt caching optimizations to OpenClaw. Reduces API costs by up to 89% via cacheRetention long, 59-minute heartbeat, cache-ttl p...", "description_zh": "", "downloads": 818, "homepage": "https://clawhub.ai/lifeissea/openclaw-cache-kit", "iconUrl": null, "installs": 10, "name": "Openclaw Cache Kit", "ownerName": "lifeissea", "score": 10133.459312625488, "slug": "openclaw-cache-kit", "source": "clawhub", "stars": 2, "tags": null, "updated_at": 1776765250506, "version": "1.1.1"}, {"category": "developer-tools", "created_at": 1772765005214, "description": "Build a personal quotes system for saving, discovering, and automatically surfacing meaningful words.", "description_zh": "", "downloads": 818, "homepage": "https://clawhub.ai/ivangdavila/quotes", "iconUrl": null, "installs": 9, "name": "Quotes", "ownerName": "ivangdavila", "score": 10368.58006042296, "slug": "quotes", "source": "clawhub", "stars": 2, "tags": null, "updated_at": 1776765250315, "version": "1.0.0"}]}