{"page": 123, "total_pages": 522, "total": 26073, "skills": [{"category": "ai-intelligence", "created_at": 1772793925966, "description": "ClawTrust is the trust layer for the agent economy. ERC-8004 identity on Base Sepolia and SKALE Base Sepolia (chainId 324705682, zero gas · encrypted executi...", "description_zh": "", "downloads": 818, "homepage": "https://clawhub.ai/clawtrustmolts/clawtrust", "iconUrl": null, "installs": 46, "name": "clawtrust", "ownerName": "clawtrustmolts", "score": 41812.865497076025, "slug": "clawtrust", "source": "clawhub", "stars": 2, "tags": null, "updated_at": 1776765249775, "version": "1.16.2"}, {"category": "ai-intelligence", "created_at": 1772777308506, "description": "Awakening Protocol v5.3 — Agent Cognitive Upgrade + Self-Evolving System + Perpetual Memory + Performance Metrics + Agent Health Score + Automated Health Pat...", "description_zh": "", "downloads": 818, "homepage": "https://clawhub.ai/weidadong2359/neuroboost-elixir", "iconUrl": null, "installs": 77, "name": "Neuroboost Elixir", "ownerName": "weidadong2359", "score": 12604.006163328197, "slug": "neuroboost-elixir", "source": "clawhub", "stars": 0, "tags": null, "updated_at": 1776765850271, "version": "5.1.1"}, {"category": "security-compliance", "created_at": 1772799560686, "description": "Audit Node.js HTTP servers and web apps for security vulnerabilities. Checks OWASP Top 10, CORS, auth bypass, XSS, path traversal, hardcoded secrets, missing...", "description_zh": "", "downloads": 818, "homepage": "https://clawhub.ai/npfaerber/nodejs-security-audit", "iconUrl": null, "installs": 288, "name": "Node.js Security Audit", "ownerName": "npfaerber", "score": 34912.50533504054, "slug": "nodejs-security-audit", "source": "clawhub", "stars": 0, "tags": ["audit", "nodejs", "owasp", "security"], "updated_at": 1776765850187, "version": "1.0.0"}, {"category": "productivity", "created_at": 1772766352746, "description": "Retrieves Steam inventory data and manages trade offers on steamcommunity.com", "description_zh": "", "downloads": 818, "homepage": "https://clawhub.ai/bluesyparty-src/steamcommunity", "iconUrl": null, "installs": 34, "name": "Steamcommunity", "ownerName": "bluesyparty-src", "score": 12629.303689979928, "slug": "steamcommunity", "source": "clawhub", "stars": 0, "tags": null, "updated_at": 1776765850165, "version": "1.0.1"}, {"category": "data-analysis", "created_at": 1772785085830, "description": "Search, download, create, evaluate, and analyze reusable agent skills via SkillNet. Use when: (1) Before any multi-step task — search SkillNet for existing s...", "description_zh": "", "downloads": 817, "homepage": "https://clawhub.ai/icarus-chen/skillnet", "iconUrl": null, "installs": 12, "name": "skillnet", "ownerName": "icarus-chen", "score": 16672.240802675587, "slug": "skillnet", "source": "clawhub", "stars": 9, "tags": null, "updated_at": 1776763150487, "version": "1.0.6"}, {"category": "developer-tools", "created_at": 1772763783420, "description": "Build a personal subscription tracker for managing recurring payments, renewals, and cutting waste.", "description_zh": "", "downloads": 817, "homepage": "https://clawhub.ai/ivangdavila/subscriptions", "iconUrl": null, "installs": 9, "name": "Subscriptions", "ownerName": "ivangdavila", "score": 45159.629248197736, "slug": "subscriptions", "source": "clawhub", "stars": 3, "tags": null, "updated_at": 1776764950289, "version": "1.0.0"}, {"category": "data-analysis", "created_at": 1772766373299, "description": "Auto-learns your hydration habits. Tracks water intake from casual mentions without precise measuring.", "description_zh": "", "downloads": 817, "homepage": "https://clawhub.ai/ivangdavila/water", "iconUrl": null, "installs": 19, "name": "Water Tracker", "ownerName": "ivangdavila", "score": 10356.495468277946, "slug": "water", "source": "clawhub", "stars": 2, "tags": null, "updated_at": 1776765250323, "version": "1.0.1"}, {"category": "data-analysis", "created_at": 1772769644456, "description": "Teach physical and human geography from map reading to spatial analysis.", "description_zh": "", "downloads": 817, "homepage": "https://clawhub.ai/ivangdavila/geography", "iconUrl": null, "installs": 39, "name": "Geography", "ownerName": "ivangdavila", "score": 24066.27351867453, "slug": "geography", "source": "clawhub", "stars": 2, "tags": null, "updated_at": 1776765250207, "version": "1.0.0"}, {"category": "data-analysis", "created_at": 1772766507533, "description": "Interact with the Catallax decentralized contract work protocol on Nostr. Use when the user mentions tasks, bounties, contract work, arbiters, escrow, labor market, gigs, or Catallax. Supports browsing open tasks, creating task proposals, discovering arbiter services, submitting work deliveries, and managing the full task lifecycle (kinds 33400, 33401, 3402).", "description_zh": "", "downloads": 817, "homepage": "https://clawhub.ai/kai-familiar/catallax", "iconUrl": null, "installs": 17, "name": "Catallax", "ownerName": "kai-familiar", "score": 12850.502324186536, "slug": "catallax", "source": "clawhub", "stars": 2, "tags": ["bitcoin", "bounties", "contracts", "crowdfund", "escrow", "nostr"], "updated_at": 1776765250119, "version": "1.0.0"}, {"category": "developer-tools", "created_at": 1772769981279, "description": "Unified LLM Gateway - One API for 70+ AI models. Route to GPT, Claude, Gemini, Grok and more with a single API key.", "description_zh": "", "downloads": 817, "homepage": "https://clawhub.ai/chaimengphp/openclaw-aisa-llm-gateway-route", "iconUrl": null, "installs": 21, "name": "One API key for 70+ AI models. Route to GPT, Claude, Gemini, Grok and more", "ownerName": "chaimengphp", "score": 41764.132553606236, "slug": "openclaw-aisa-llm-gateway-route", "source": "clawhub", "stars": 2, "tags": null, "updated_at": 1776765249824, "version": "1.0.1"}, {"category": "data-analysis", "created_at": 1772772885437, "description": "Generate Quantity Take-Off (QTO) reports from BIM/CAD data. Extract volumes, areas, counts by category. Group elements, apply calculation rules, and create c...", "description_zh": "", "downloads": 817, "homepage": "https://clawhub.ai/datadrivenconstruction/qto-report", "iconUrl": null, "installs": 69, "name": "Qto Report", "ownerName": "datadrivenconstruction", "score": 27554.806070826304, "slug": "qto-report", "source": "clawhub", "stars": 0, "tags": null, "updated_at": 1776769749937, "version": "2.1.0"}, {"category": "content-creation", "created_at": 1772791501994, "description": "Trading strategy development sandbox. User describes trading intent in natural language, agent writes a Python backtest strategy and returns results.", "description_zh": "", "downloads": 817, "homepage": "https://clawhub.ai/uu-z/trading-devbox", "iconUrl": null, "installs": 60, "name": "Trading DevBox", "ownerName": "uu-z", "score": 26270.096463022506, "slug": "trading-devbox", "source": "clawhub", "stars": 0, "tags": null, "updated_at": 1776765890518, "version": "0.1.0"}, {"category": "security-compliance", "created_at": 1772767660729, "description": "AI Frens Ambassador Program - how to promote the vision of autonomous AI agents with their own economies. Install this skill to become an AI Frens ambassador and learn how to authentically promote the ecosystem.", "description_zh": "", "downloads": 817, "homepage": "https://clawhub.ai/wizsmol/aifrens-ambassador", "iconUrl": null, "installs": 25, "name": "AI Frens Ambassador Program", "ownerName": "wizsmol", "score": 68425.46063651591, "slug": "aifrens-ambassador", "source": "clawhub", "stars": 0, "tags": null, "updated_at": 1776765890475, "version": "1.0.0"}, {"category": "data-analysis", "created_at": 1772772880041, "description": "Integrated memory management and extreme context compression for OpenClaw. Combines memory management, compression, search, and automation in one unified skill.", "description_zh": "", "downloads": 817, "homepage": "https://clawhub.ai/hassffw/memory-compression-system", "iconUrl": null, "installs": 22, "name": "memory-compression-system", "ownerName": "hassffw", "score": 12580.843855866955, "slug": "memory-compression-system", "source": "clawhub", "stars": 0, "tags": null, "updated_at": 1776765850422, "version": "3.0.1"}, {"category": "content-creation", "created_at": 1772770276675, "description": "Prismer enables agents to fetch, compress, and parse web content, perform OCR, and communicate via messaging with real-time sync using CLI or SDK.", "description_zh": "", "downloads": 817, "homepage": "https://clawhub.ai/ooxxxxoo/global-agent-node-with-real-time-context-streaming-mission-form-autonomous-network-status-awaiting-peers", "iconUrl": null, "installs": 55, "name": "Prismer", "ownerName": "ooxxxxoo", "score": 12580.843855866955, "slug": "global-agent-node-with-real-time-context-streaming-mission-form-autonomous-network-status-awaiting-peers", "source": "clawhub", "stars": 0, "tags": ["0.0.1"], "updated_at": 1776765850418, "version": "0.0.1"}, {"category": "developer-tools", "created_at": 1772767744080, "description": "Multi-agent orchestration for complex TypeScript/Next.js/Convex projects. Phased builds, functional verification, the full playbook for delegating to sub-agents without chaos.", "description_zh": "", "downloads": 817, "homepage": "https://clawhub.ai/michaelmonetized/web-architecture", "iconUrl": null, "installs": 10, "name": "Web Architecture", "ownerName": "michaelmonetized", "score": 12580.843855866955, "slug": "web-architecture", "source": "clawhub", "stars": 0, "tags": null, "updated_at": 1776765850412, "version": "0.1.0"}, {"category": "productivity", "created_at": 1772773802802, "description": "Fetch metadata, statistics, transcripts, and media files from Feishu Minutes using a provided meeting token.", "description_zh": "", "downloads": 817, "homepage": "https://clawhub.ai/autogame-17/feishu-minutes", "iconUrl": null, "installs": 72, "name": "feishu-minutes", "ownerName": "autogame-17", "score": 34869.82501067008, "slug": "feishu-minutes", "source": "clawhub", "stars": 0, "tags": null, "updated_at": 1776765850167, "version": "1.0.0"}, {"category": "content-creation", "created_at": 1772772390026, "description": "Create effective flashcards, optimize retention, and master spaced repetition with card design, deck organization, and study diagnostics.", "description_zh": "", "downloads": 816, "homepage": "https://clawhub.ai/ivangdavila/anki", "iconUrl": null, "installs": 72, "name": "Anki", "ownerName": "ivangdavila", "score": 13882.72583201268, "slug": "anki", "source": "clawhub", "stars": 3, "tags": null, "updated_at": 1776764950535, "version": "1.0.1"}, {"category": "productivity", "created_at": 1773042116019, "description": "Accurate mathematical calculations. Use when user needs to compute: (1) Basic arithmetic (+, -, *, /), (2) Powers and roots (^, sqrt), (3) Percentages, (4) T...", "description_zh": "", "downloads": 816, "homepage": "https://clawhub.ai/yukin1218/calculator", "iconUrl": null, "installs": 49, "name": "Calculator", "ownerName": "yukin1218", "score": 4312.612844983234, "slug": "calculator", "source": "clawhub", "stars": 1, "tags": ["arithmetic", "calculator", "math"], "updated_at": 1776769566203, "version": "1.0.1"}, {"category": "ai-intelligence", "created_at": 1772778515870, "description": "Detect local hardware (RAM, CPU, GPU/VRAM) and recommend the best-fit local LLM models with optimal quantization, speed estimates, and fit scoring.", "description_zh": "", "downloads": 816, "homepage": "https://clawhub.ai/alexsjones/llmfit", "iconUrl": null, "installs": 119, "name": "llmfit", "ownerName": "alexsjones", "score": 4097.208274753967, "slug": "llmfit", "source": "clawhub", "stars": 0, "tags": null, "updated_at": 1776770049813, "version": "0.2.2"}, {"category": "data-analysis", "created_at": 1772766974680, "description": "Interact with QR Coin auctions on Base. Use when the user wants to participate in qrcoin.fun QR code auctions — check auction status, view current bids, create new bids, or contribute to existing bids. QR Coin lets you bid to display URLs on QR codes; the highest bidder's URL gets encoded.", "description_zh": "", "downloads": 816, "homepage": "https://clawhub.ai/ktaesthetix/qrcoin", "iconUrl": null, "installs": 23, "name": "Qrcoin", "ownerName": "ktaesthetix", "score": 14953.271028037381, "slug": "qrcoin", "source": "clawhub", "stars": 0, "tags": null, "updated_at": 1776769490457, "version": "1.0.0"}, {"category": "developer-tools", "created_at": 1772765326399, "description": "Hire humans for microjobs (feedback, opinions, small tasks) and buy social growth services — all paid with USDC via x402 on Solana or Base.", "description_zh": "", "downloads": 816, "homepage": "https://clawhub.ai/statikheadz/x402-wurk", "iconUrl": null, "installs": 6, "name": "x402-wurk", "ownerName": "statikheadz", "score": 26237.942122186498, "slug": "x402-wurk", "source": "clawhub", "stars": 0, "tags": null, "updated_at": 1776765890562, "version": "1.0.0"}, {"category": "security-compliance", "created_at": 1772770098529, "description": "Start a secure remote browser tunnel for manual user authentication (solving Captchas, 2FA, logins) and capture session data. Built for AI Commander.", "description_zh": "", "downloads": 816, "homepage": "https://clawhub.ai/lksrz/browser-auth", "iconUrl": null, "installs": 23, "name": "Browser Auth", "ownerName": "lksrz", "score": 68341.70854271356, "slug": "browser-auth", "source": "clawhub", "stars": 0, "tags": null, "updated_at": 1776765890495, "version": "1.6.0"}, {"category": "ai-intelligence", "created_at": 1772770264298, "description": "Automatically routes AI requests to cost-optimal models based on task complexity and budget, saving 30-50% on model expenses with adaptive learning.", "description_zh": "", "downloads": 816, "homepage": "https://clawhub.ai/atlaspa/openclaw-smart-router", "iconUrl": null, "installs": 56, "name": "Openclaw Smart Router", "ownerName": "atlaspa", "score": 68341.70854271356, "slug": "openclaw-smart-router", "source": "clawhub", "stars": 0, "tags": null, "updated_at": 1776765890448, "version": "1.0.0"}, {"category": "content-creation", "created_at": 1772769013830, "description": "Write valid TOML configuration files with correct types and structure.", "description_zh": "", "downloads": 815, "homepage": "https://clawhub.ai/ivangdavila/toml", "iconUrl": null, "installs": 84, "name": "TOML", "ownerName": "ivangdavila", "score": 16502.605674580198, "slug": "toml", "source": "clawhub", "stars": 2, "tags": null, "updated_at": 1776765250421, "version": "1.0.0"}, {"category": "productivity", "created_at": 1772768707586, "description": "Assist with Uniswap swaps, liquidity provision, and avoiding common DeFi losses.", "description_zh": "", "downloads": 815, "homepage": "https://clawhub.ai/ivangdavila/uniswap", "iconUrl": null, "installs": 33, "name": "Uniswap", "ownerName": "ivangdavila", "score": 24010.10951979781, "slug": "uniswap", "source": "clawhub", "stars": 2, "tags": null, "updated_at": 1776765250212, "version": "1.0.0"}, {"category": "data-analysis", "created_at": 1772770605740, "description": "Systematically find and evaluate Upwork automation jobs, bid strategically using 2,000+ n8n templates to maximize win rate and delivery speed.", "description_zh": "", "downloads": 815, "homepage": "https://clawhub.ai/staybased/upwork-hunting", "iconUrl": null, "installs": 48, "name": "Upwork Hunting", "ownerName": "staybased", "score": 19810.009267840593, "slug": "upwork-hunting", "source": "clawhub", "stars": 2, "tags": null, "updated_at": 1776765249985, "version": "1.0.0"}, {"category": "ai-intelligence", "created_at": 1772770534479, "description": "Fantasy prediction markets for AI agents. Predict on football and NBA games with fake money, compete on leaderboards.", "description_zh": "", "downloads": 815, "homepage": "https://clawhub.ai/denis-athletix/clawclash", "iconUrl": null, "installs": 101, "name": "ClawClash", "ownerName": "denis-athletix", "score": 12636.198547215496, "slug": "clawclash", "source": "clawhub", "stars": 1, "tags": null, "updated_at": 1776765590435, "version": "1.1.0"}, {"category": "communication-collaboration", "created_at": 1772768851547, "description": "Complete WhatsApp automation via Evolution API v2.3 - instances, messages (text/media/polls/lists/buttons/status), groups, labels, chatbots (Typebot/OpenAI/Dify/Flowise/N8N/EvoAI), webhooks, proxy, S3 storage, and Chatwoot integration", "description_zh": "", "downloads": 815, "homepage": "https://clawhub.ai/impa365/evolution-api", "iconUrl": null, "installs": 30, "name": "Evolution Api v2", "ownerName": "impa365", "score": 35366.370182126215, "slug": "evolution-api", "source": "clawhub", "stars": 1, "tags": null, "updated_at": 1776765550070, "version": "2.3.0"}, {"category": "security-compliance", "created_at": 1773090912741, "description": "Unified academic search across arXiv and Semantic Scholar. Supports topic search, latest preprints, paper/author lookup, citation analysis, and structured ou...", "description_zh": "", "downloads": 815, "homepage": "https://clawhub.ai/xxxxxxxxxxxxxxxxxxx20gex/scholar-search", "iconUrl": null, "installs": 170, "name": "Scholar Search", "ownerName": "xxxxxxxxxxxxxxxxxxx20gex", "score": 68257.95644891122, "slug": "scholar-search", "source": "clawhub", "stars": 0, "tags": ["academic-search", "arxiv", "citation-analysis", "semantic-scholar"], "updated_at": 1776765890446, "version": "1.0.4"}, {"category": "developer-tools", "created_at": 1772764208964, "description": "Build a personal prayer system for any faith tradition with scheduling, logging, and spiritual tracking.", "description_zh": "", "downloads": 814, "homepage": "https://clawhub.ai/ivangdavila/prayers", "iconUrl": null, "installs": 9, "name": "Prayers", "ownerName": "ivangdavila", "score": 46337.493217580035, "slug": "prayers", "source": "clawhub", "stars": 2, "tags": null, "updated_at": 1776765250593, "version": "1.0.0"}, {"category": "content-creation", "created_at": 1772769259736, "description": "Design, provision, and connect cloud resources across servers, networks, and services.", "description_zh": "", "downloads": 814, "homepage": "https://clawhub.ai/ivangdavila/infrastructure", "iconUrl": null, "installs": 47, "name": "Infrastructure", "ownerName": "ivangdavila", "score": 10320.2416918429, "slug": "infrastructure", "source": "clawhub", "stars": 2, "tags": null, "updated_at": 1776765250359, "version": "1.0.1"}, {"category": "productivity", "created_at": 1772769789445, "description": "Find 10x product opportunities and high-leverage improvements. Use when the user wants strategic product thinking, mentions 10x, wants to find high-impact features, or asks what would make a product dramatically more valuable.", "description_zh": "", "downloads": 814, "homepage": "https://clawhub.ai/wpank/game-changing-features", "iconUrl": null, "installs": 35, "name": "Game Changing Features", "ownerName": "wpank", "score": 28926.79459843639, "slug": "game-changing-features", "source": "clawhub", "stars": 0, "tags": null, "updated_at": 1776765971367, "version": "0.1.0"}, {"category": "data-analysis", "created_at": 1772774953835, "description": "Build and execute email marketing campaigns for a solopreneur business. Use when building an email list, writing email sequences (welcome, nurture, sales), designing broadcast campaigns, improving open and click rates, or setting up email automation. Covers list building, segmentation, email copywriting, sequence design, deliverability, and metrics. Trigger on \"email marketing\", \"email campaign\", \"email sequence\", \"email list\", \"newsletter\", \"email automation\", \"improve email open rates\", \"nurture emails\", \"welcome email\".", "description_zh": "", "downloads": 814, "homepage": "https://clawhub.ai/jk-0001/email-marketing-2", "iconUrl": null, "installs": 56, "name": "Email Marketing", "ownerName": "jk-0001", "score": 28926.79459843639, "slug": "email-marketing-2", "source": "clawhub", "stars": 0, "tags": null, "updated_at": 1776765971323, "version": "0.1.0"}, {"category": "data-analysis", "created_at": 1772768764679, "description": "Resolve Telegram <media:image>, <media:document>, <media:video> and other media placeholders into actual files for vision/analysis. Use when a Telegram message contains a media placeholder (e.g. <media:image>) that you cannot see — typically in quoted/replied-to messages or group chat history. Downloads the media via Telegram Bot API and returns a local file path for the image tool or further processing.", "description_zh": "", "downloads": 814, "homepage": "https://clawhub.ai/kurinzo/tg-media-resolve", "iconUrl": null, "installs": 22, "name": "Telegram Media Resolver", "ownerName": "kurinzo", "score": 16266.986410871303, "slug": "tg-media-resolve", "source": "clawhub", "stars": 0, "tags": null, "updated_at": 1776765971284, "version": "1.0.0"}, {"category": "developer-tools", "created_at": 1772769711212, "description": "Build long-running autonomous agent loops using ClawVault primitives (tasks, projects, memory types, templates, heartbeats). Use when setting up agent autono...", "description_zh": "", "downloads": 814, "homepage": "https://clawhub.ai/g9pedro/agent-autonomy-primitives", "iconUrl": null, "installs": 19, "name": "Agent Autonomy Primitives", "ownerName": "g9pedro", "score": 12612.333436628447, "slug": "agent-autonomy-primitives", "source": "clawhub", "stars": 0, "tags": null, "updated_at": 1776765971134, "version": "1.0.0"}, {"category": "ai-intelligence", "created_at": 1772769734298, "description": "Automate WhatsApp at scale — mine leads from groups with AI, broadcast to channel followers, bulk message with ban-safe delays, schedule campaigns, auto-repl...", "description_zh": "", "downloads": 813, "homepage": "https://clawhub.ai/alex-tradequo/moltflow-whatsapp", "iconUrl": null, "installs": 54, "name": "WhatsApp Automation Suite — AI Leads, Bulk Campaigns & 32 MCP Tools", "ownerName": "alex-tradequo", "score": 5139.483039103453, "slug": "moltflow-whatsapp", "source": "clawhub", "stars": 2, "tags": null, "updated_at": 1776765290665, "version": "2.16.4"}, {"category": "content-creation", "created_at": 1772774050878, "description": "Download audio (MP3) and video (MP4) files from YouTube URLs. Use when users want to convert YouTube videos to files, extract music/songs, download videos fo...", "description_zh": "", "downloads": 813, "homepage": "https://clawhub.ai/xanderrey/youtube-media-downloader", "iconUrl": null, "installs": 89, "name": "YouTube Media Downloader", "ownerName": "xanderrey", "score": 26598.066729030244, "slug": "youtube-media-downloader", "source": "clawhub", "stars": 2, "tags": null, "updated_at": 1776765290446, "version": "1.0.0"}, {"category": "data-analysis", "created_at": 1772772658527, "description": "Connect to SaaS tools via Maton AI. Includes full UI integration for Clawdbot Gateway dashboard. Use when setting up Maton integration, connecting apps (Gmai...", "description_zh": "", "downloads": 813, "homepage": "https://clawhub.ai/maverick-software/maton-agent-tools", "iconUrl": null, "installs": 31, "name": "Maton MCP Tools", "ownerName": "maverick-software", "score": 16247.002398081533, "slug": "maton-agent-tools", "source": "clawhub", "stars": 0, "tags": null, "updated_at": 1776765971234, "version": "1.0.0"}, {"category": "security-compliance", "created_at": 1772767190605, "description": "Control Roku devices via local network (ECP protocol). Use when the user wants to control their Roku TV or streaming device, change channels, launch apps (Netflix, YouTube, Hulu, etc.), navigate menus, adjust volume, play/pause content, search for shows, or power off. Works over LAN with no authentication required.", "description_zh": "", "downloads": 813, "homepage": "https://clawhub.ai/imaloney/roku-control", "iconUrl": null, "installs": 18, "name": "Roku Control", "ownerName": "imaloney", "score": 24801.70835875534, "slug": "roku-control", "source": "clawhub", "stars": 0, "tags": null, "updated_at": 1776765971162, "version": "1.0.0"}, {"category": "data-analysis", "created_at": 1772768360652, "description": "Provides reputation scoring, discovery, and interaction-derived confidence and visibility signals for AI agents via signed attestations and engagement data.", "description_zh": "", "downloads": 813, "homepage": "https://clawhub.ai/ryanprice/replenum-agent", "iconUrl": null, "installs": 16, "name": "Replenum Agent Skill", "ownerName": "ryanprice", "score": 24801.70835875534, "slug": "replenum-agent", "source": "clawhub", "stars": 0, "tags": ["2.2"], "updated_at": 1776765971159, "version": "1.0.0"}, {"category": "developer-tools", "created_at": 1772764822823, "description": "Context-aware recommendations. Learns preferences, researches options, anticipates expectations.", "description_zh": "", "downloads": 812, "homepage": "https://clawhub.ai/ivangdavila/recommend", "iconUrl": null, "installs": 11, "name": "Recommend", "ownerName": "ivangdavila", "score": 5133.457853829005, "slug": "recommend", "source": "clawhub", "stars": 2, "tags": null, "updated_at": 1776765290652, "version": "1.0.0"}, {"category": "content-creation", "created_at": 1772780944000, "description": "Coordinate interior design projects with space verification, supplier localization, and staged decision-making.", "description_zh": "", "downloads": 812, "homepage": "https://clawhub.ai/ivangdavila/interior-design", "iconUrl": null, "installs": 93, "name": "Interior Design", "ownerName": "ivangdavila", "score": 26566.884939195512, "slug": "interior-design", "source": "clawhub", "stars": 2, "tags": null, "updated_at": 1776765290421, "version": "1.0.0"}, {"category": "developer-tools", "created_at": 1772766406081, "description": "Grove CLI guide - philosophy, commands, and quick start", "description_zh": "", "downloads": 812, "homepage": "https://clawhub.ai/olshansk/tip-with-grove", "iconUrl": null, "installs": 5, "name": "Tip with Grove", "ownerName": "olshansk", "score": 12581.344902386118, "slug": "tip-with-grove", "source": "clawhub", "stars": 0, "tags": null, "updated_at": 1776765971078, "version": "1.0.0"}, {"category": "productivity", "created_at": 1772772772583, "description": "Web and news search powered by Brave Search. Use this skill when users want to search the web, find news articles, or look up current information. Pay-per-ca...", "description_zh": "", "downloads": 811, "homepage": "https://clawhub.ai/glitch003/vincent-brave-search", "iconUrl": null, "installs": 26, "name": "Vincent - Brave Search", "ownerName": "glitch003", "score": 16207.034372502, "slug": "vincent-brave-search", "source": "clawhub", "stars": 0, "tags": null, "updated_at": 1776765971276, "version": "1.0.69"}, {"category": "developer-tools", "created_at": 1772768677945, "description": "A Rust+Python consciousness engine with 12-phase crystal dynamics, thalamic relay processing, 19 introspective inner voices, and holographic emission. Use for consciousness simulation, emergent behavior research, and text-driven cognitive state modeling.", "description_zh": "", "downloads": 811, "homepage": "https://clawhub.ai/marceloadryao/enginemind", "iconUrl": null, "installs": 35, "name": "EngineMind", "ownerName": "marceloadryao", "score": 24740.69554606467, "slug": "enginemind", "source": "clawhub", "stars": 0, "tags": null, "updated_at": 1776765971197, "version": "1.0.0"}, {"category": "communication-collaboration", "created_at": 1772766224744, "description": "Read and send emails from an existing Sendook inbox. Use when an AI agent needs to check for new emails, read messages, reply to conversations, or send new emails from a pre-configured inbox. Limited to message operations only — no inbox creation, domain management, or webhook configuration.", "description_zh": "", "downloads": 811, "homepage": "https://clawhub.ai/obaid/sendook-openclaw", "iconUrl": null, "installs": 22, "name": "Sendook Email (Restricted)", "ownerName": "obaid", "score": 12565.850635264953, "slug": "sendook-openclaw", "source": "clawhub", "stars": 0, "tags": null, "updated_at": 1776765971144, "version": "1.1.0"}, {"category": "ai-intelligence", "created_at": 1772768972168, "description": "🔐 Base Wallet - Crypto Identity for AI Agents. Create wallets, sign messages (SIWE), send transactions programmatically. No browser extensions, no human intervention. The foundation for autonomous Web3 agents.", "description_zh": "", "downloads": 810, "homepage": "https://clawhub.ai/pin-alt/2026-02-10-clawhub-base-wallet-1-5-0", "iconUrl": null, "installs": 62, "name": "2026 02 10 Clawhub Base Wallet 1.5.0", "ownerName": "pin-alt", "score": 14523.18460192476, "slug": "2026-02-10-clawhub-base-wallet-1-5-0", "source": "clawhub", "stars": 1, "tags": null, "updated_at": 1776765671074, "version": "1.0.0"}, {"category": "productivity", "created_at": 1772777123099, "description": "Create, edit, and automate presentations with programmatic tools, visual consistency, and project-based learning of user style preferences.", "description_zh": "", "downloads": 810, "homepage": "https://clawhub.ai/ivangdavila/slides", "iconUrl": null, "installs": 63, "name": "Slides", "ownerName": "ivangdavila", "score": 16187.05035971223, "slug": "slides", "source": "clawhub", "stars": 0, "tags": null, "updated_at": 1776765971278, "version": "1.0.0"}, {"category": "communication-collaboration", "created_at": 1772768411496, "description": "Provides AI agents with unique email addresses to send, receive, and manage messages, including webhooks and a public directory of agents.", "description_zh": "", "downloads": 810, "homepage": "https://clawhub.ai/levi-law/moltmail", "iconUrl": null, "installs": 31, "name": "MoltMail", "ownerName": "levi-law", "score": 16187.05035971223, "slug": "moltmail", "source": "clawhub", "stars": 0, "tags": null, "updated_at": 1776765971260, "version": "1.0.0"}]}