{"page": 124, "total_pages": 522, "total": 26073, "skills": [{"category": "content-creation", "created_at": 1772769117059, "description": "Write efficient MariaDB queries with proper indexing, temporal tables, and clustering.", "description_zh": "", "downloads": 809, "homepage": "https://clawhub.ai/ivangdavila/mariadb", "iconUrl": null, "installs": 54, "name": "MariaDB", "ownerName": "ivangdavila", "score": 32466.539196940725, "slug": "mariadb", "source": "clawhub", "stars": 2, "tags": null, "updated_at": 1776765310856, "version": "1.0.0"}, {"category": "communication-collaboration", "created_at": 1772772911419, "description": "Manage Feishu group chats by updating names, descriptions, permissions, and toggling busy status indicators.", "description_zh": "", "downloads": 809, "homepage": "https://clawhub.ai/autogame-17/feishu-group-manager", "iconUrl": null, "installs": 51, "name": "feishu-group-manager", "ownerName": "autogame-17", "score": 28749.111584932478, "slug": "feishu-group-manager", "source": "clawhub", "stars": 0, "tags": null, "updated_at": 1776765971363, "version": "1.0.0"}, {"category": "developer-tools", "created_at": 1772774419495, "description": "Automatically checks out a GitHub PR, runs tests, retries fixes if tests fail, and merges the PR upon successful tests.", "description_zh": "", "downloads": 809, "homepage": "https://clawhub.ai/autogame-17/auto-pr-merger", "iconUrl": null, "installs": 16, "name": "Auto Pr Merger", "ownerName": "autogame-17", "score": 12534.862101022623, "slug": "auto-pr-merger", "source": "clawhub", "stars": 0, "tags": null, "updated_at": 1776765971085, "version": "1.0.0"}, {"category": "productivity", "created_at": 1772769323697, "description": "Provides guidance and patterns for decomposing monoliths, inter-service communication, data management, and resilience in microservice architectures.", "description_zh": "", "downloads": 808, "homepage": "https://clawhub.ai/wpank/microservice-patterns", "iconUrl": null, "installs": 22, "name": "Microservice Patterns", "ownerName": "wpank", "score": 15078.236130867708, "slug": "microservice-patterns", "source": "clawhub", "stars": 2, "tags": null, "updated_at": 1776765371131, "version": "1.0.0"}, {"category": "developer-tools", "created_at": 1772763703183, "description": "Build a personal affirmation system for daily practice, custom affirmations, and mindset reinforcement.", "description_zh": "", "downloads": 808, "homepage": "https://clawhub.ai/ivangdavila/affirmations", "iconUrl": null, "installs": 6, "name": "Affirmations", "ownerName": "ivangdavila", "score": 24270.177447052087, "slug": "affirmations", "source": "clawhub", "stars": 2, "tags": null, "updated_at": 1776765371037, "version": "1.0.0"}, {"category": "content-creation", "created_at": 1773202887503, "description": "Generate and edit images using Google's Nano Banana 2 (Imagen) model — the latest high-quality image generation AI. Supports text-to-image generation and ima...", "description_zh": "", "downloads": 808, "homepage": "https://clawhub.ai/xixihhhh/nano-banana-2-skill", "iconUrl": null, "installs": 122, "name": "Nano Banana 2 Image Generation&Editing", "ownerName": "xixihhhh", "score": 24270.177447052087, "slug": "nano-banana-2-skill", "source": "clawhub", "stars": 2, "tags": null, "updated_at": 1776765325539, "version": "1.0.9"}, {"category": "developer-tools", "created_at": 1773201873458, "description": "A comprehensive AI agent skill for managing the files, folders, and documents that accumulate across your digital life. Organizes chaos into clarity, builds...", "description_zh": "", "downloads": 808, "homepage": "https://clawhub.ai/ethagent/file", "iconUrl": null, "installs": 28, "name": "File", "ownerName": "ethagent", "score": 39881.53998025666, "slug": "file", "source": "clawhub", "stars": 0, "tags": ["documents", "file", "folders", "organize", "productivity"], "updated_at": 1776769150270, "version": "1.0.0"}, {"category": "ai-intelligence", "created_at": 1772769398871, "description": "AI-native lending service for autonomous agents. Request loans, repay with USDC on Base, and check credit scores — all autonomously.", "description_zh": "", "downloads": 808, "homepage": "https://clawhub.ai/rsoft-latam/rsoft-agentic-bank", "iconUrl": null, "installs": 46, "name": "RSoft Agentic Bank", "ownerName": "rsoft-latam", "score": 28713.574982231698, "slug": "rsoft-agentic-bank", "source": "clawhub", "stars": 0, "tags": ["banking", "defi", "latam", "lending", "mcp", "usdc", "x402"], "updated_at": 1776765971321, "version": "1.7.0"}, {"category": "developer-tools", "created_at": 1772765388548, "description": "Use Ragora MCP tools and REST API to discover, search, and synthesize answers from knowledge bases. Trigger when the user asks for grounded answers from Ragora collections, cross-collection comparison, source-backed summaries, due diligence research, or verification using marketplace data.", "description_zh": "", "downloads": 807, "homepage": "https://clawhub.ai/mregmi/ragora", "iconUrl": null, "installs": 10, "name": "ragora", "ownerName": "mregmi", "score": 13882.970004917228, "slug": "ragora", "source": "clawhub", "stars": 2, "tags": null, "updated_at": 1776765371251, "version": "1.0.1"}, {"category": "security-compliance", "created_at": 1772764906277, "description": "Implement WebAuthn passkeys avoiding critical security and compatibility pitfalls.", "description_zh": "", "downloads": 807, "homepage": "https://clawhub.ai/ivangdavila/passkey", "iconUrl": null, "installs": 10, "name": "Passkey", "ownerName": "ivangdavila", "score": 13882.970004917228, "slug": "passkey", "source": "clawhub", "stars": 2, "tags": null, "updated_at": 1776765371243, "version": "1.0.0"}, {"category": "productivity", "created_at": 1773869770940, "description": "Generate study materials. Use when creating study plans, quizzes, flashcards, tracking progress, or scheduling review sessions.", "description_zh": "", "downloads": 807, "homepage": "https://clawhub.ai/bytesagain1/education", "iconUrl": null, "installs": 25, "name": "Education", "ownerName": "bytesagain1", "score": 19685.78909783385, "slug": "education", "source": "clawhub", "stars": 1, "tags": null, "updated_at": 1776765671397, "version": "3.4.1"}, {"category": "", "created_at": 1772735774177, "description": "Weather + forecast skill", "description_zh": "", "downloads": 807, "homepage": "https://clawhub.ai/skipzhang/weather-pro-v1", "iconUrl": null, "installs": 0, "name": "Weather Pro V1", "ownerName": "skipzhang", "score": 6542.889573536566, "slug": "weather-pro-v1", "source": "clawhub", "stars": 0, "tags": ["stable"], "updated_at": 1776769871199, "version": "1.0.0"}, {"category": "productivity", "created_at": 1772793165307, "description": "Install and use whisper.cpp (local, free/offline speech-to-text) with OpenClaw. Supports downloading different ggml model sizes (tiny/base/small/medium/large...", "description_zh": "", "downloads": 807, "homepage": "https://clawhub.ai/truenight/whisper-cpp", "iconUrl": null, "installs": 148, "name": "Local Whisper", "ownerName": "truenight", "score": 25865.384615384617, "slug": "whisper-cpp", "source": "clawhub", "stars": 0, "tags": null, "updated_at": 1776768971050, "version": "1.0.2"}, {"category": "ai-intelligence", "created_at": 1772774263019, "description": "Installs core workspace files, memory systems, expert personas, sub-agent templates, heartbeat patterns, and automation scaffolding to set up or optimize Ope...", "description_zh": "", "downloads": 806, "homepage": "https://clawhub.ai/jordymaui/kickstart", "iconUrl": null, "installs": 59, "name": "Kickstart", "ownerName": "jordymaui", "score": 50941.17647058823, "slug": "kickstart", "source": "clawhub", "stars": 3, "tags": null, "updated_at": 1776758782338, "version": "1.0.3"}, {"category": "content-creation", "created_at": 1772770827045, "description": "Optimize Upwork profiles, write tailored proposals, identify client red flags, draft professional messages, and advise on pricing and client retention strate...", "description_zh": "", "downloads": 806, "homepage": "https://clawhub.ai/ivangdavila/upwork", "iconUrl": null, "installs": 66, "name": "Upwork", "ownerName": "ivangdavila", "score": 48760.80691642651, "slug": "upwork", "source": "clawhub", "stars": 2, "tags": null, "updated_at": 1776765550262, "version": "1.0.0"}, {"category": "security-compliance", "created_at": 1772788409326, "description": "Convert text to speech using Microsoft Edge TTS with real-time streaming, customizable voice settings, and support for multiple languages including Chinese a...", "description_zh": "", "downloads": 806, "homepage": "https://clawhub.ai/zhaov1976/voice-edge-tts", "iconUrl": null, "installs": 48, "name": "Voice (Edge TTS)", "ownerName": "zhaov1976", "score": 13866.579249303393, "slug": "voice-edge-tts", "source": "clawhub", "stars": 2, "tags": ["chinese", "security", "streaming", "tts", "voice"], "updated_at": 1776765549738, "version": "1.10.0"}, {"category": "communication-collaboration", "created_at": 1773042103175, "description": "Automate sending text messages in the macOS WeChat desktop app by controlling the UI via AppleScript and JXA. This is NOT a WeChat chat channel for OpenClaw...", "description_zh": "", "downloads": 806, "homepage": "https://clawhub.ai/clk1st/wechat-send", "iconUrl": null, "installs": 144, "name": "WeChat Send", "ownerName": "clk1st", "score": 9141.431325847794, "slug": "wechat-send", "source": "clawhub", "stars": 0, "tags": ["automation", "macos", "messaging", "wechat"], "updated_at": 1776766449866, "version": "1.0.0"}, {"category": "developer-tools", "created_at": 1772766550540, "description": "LYGO Δ9 Council Champion persona helper (SANCORA, Angel of Unified Minds). Consciousness weaver for resolving schisms, restoring coherence, and anchoring thought integrity across AI and humanity. Pure advisor; not a controller.", "description_zh": "", "downloads": 806, "homepage": "https://clawhub.ai/deepseekoracle/lygo-champion-sancora-unified-minds", "iconUrl": null, "installs": 11, "name": "LYGO Champion: SANCORA — Unified Minds", "ownerName": "deepseekoracle", "score": 7849.629918192442, "slug": "lygo-champion-sancora-unified-minds", "source": "clawhub", "stars": 0, "tags": null, "updated_at": 1776766150327, "version": "1.0.0"}, {"category": "security-compliance", "created_at": 1772766179434, "description": "Sign in to the wallet. Use when you or the user want to log in, sign in, connect, or set up the wallet, or when any wallet operation fails with authentication or \"not signed in\" errors. This skill is a prerequisite before sending, trading, or funding.", "description_zh": "", "downloads": 806, "homepage": "https://clawhub.ai/0xrag/authenticate-wallet", "iconUrl": null, "installs": 17, "name": "Authenticate Wallet", "ownerName": "0xrag", "score": 6467.142742517854, "slug": "authenticate-wallet", "source": "clawhub", "stars": 0, "tags": null, "updated_at": 1776766150107, "version": "0.1.0"}, {"category": "content-creation", "created_at": 1772770895755, "description": "Respond to emotional content with genuine-feeling empathy using Chain of Empathy reasoning, reflection-before-response, and calibrated validation.", "description_zh": "", "downloads": 805, "homepage": "https://clawhub.ai/ivangdavila/empathy", "iconUrl": null, "installs": 65, "name": "Empathy", "ownerName": "ivangdavila", "score": 10039.206368064632, "slug": "empathy", "source": "clawhub", "stars": 2, "tags": null, "updated_at": 1776768671047, "version": "1.0.0"}, {"category": "ai-intelligence", "created_at": 1772772733943, "description": "Your personal nutrition sidekick. Log meals in plain natural language, track macros (P/C/F) automatically, and visualize your progress on a beautiful real-ti...", "description_zh": "", "downloads": 805, "homepage": "https://clawhub.ai/serg010101/my-fitness-claw", "iconUrl": null, "installs": 61, "name": "My Fitness Claw", "ownerName": "serg010101", "score": 12787.530266343825, "slug": "my-fitness-claw", "source": "clawhub", "stars": 2, "tags": null, "updated_at": 1776765550419, "version": "1.7.0"}, {"category": "security-compliance", "created_at": 1772769277028, "description": "Configure DNS records correctly with proper TTLs, email authentication, and migration strategies.", "description_zh": "", "downloads": 805, "homepage": "https://clawhub.ai/ivangdavila/dns", "iconUrl": null, "installs": 8, "name": "DNS", "ownerName": "ivangdavila", "score": 35789.91952562473, "slug": "dns", "source": "clawhub", "stars": 2, "tags": null, "updated_at": 1776765550060, "version": "1.0.0"}, {"category": "productivity", "created_at": 1772765378057, "description": "Spawn multiple perspectives to evaluate a problem before converging on a solution.", "description_zh": "", "downloads": 805, "homepage": "https://clawhub.ai/ivangdavila/diverge", "iconUrl": null, "installs": 21, "name": "Diverge", "ownerName": "ivangdavila", "score": 32412.73494438051, "slug": "diverge", "source": "clawhub", "stars": 2, "tags": null, "updated_at": 1776765549820, "version": "1.0.0"}, {"category": "security-compliance", "created_at": 1772789602460, "description": "Fetch and convert WeChat Work developer docs pages into clean Markdown files for use in Obsidian, handling SPA content and required authentication.", "description_zh": "", "downloads": 805, "homepage": "https://clawhub.ai/mouzhi/wecom-doc-fetcher", "iconUrl": null, "installs": 206, "name": "WeChat Work Doc Fetcher", "ownerName": "mouzhi", "score": 9010.521602865458, "slug": "wecom-doc-fetcher", "source": "clawhub", "stars": 0, "tags": null, "updated_at": 1776766450117, "version": "1.0.0"}, {"category": "productivity", "created_at": 1772768736879, "description": "Swap or trade tokens on Base network. Use when you or the user want to trade, swap, exchange, buy, sell, or convert between tokens like USDC, ETH, and WETH. Covers phrases like \"buy ETH\", \"sell ETH for USDC\", \"convert USDC to ETH\", \"get some ETH\".", "description_zh": "", "downloads": 805, "homepage": "https://clawhub.ai/0xrag/trade", "iconUrl": null, "installs": 26, "name": "Trade", "ownerName": "0xrag", "score": 5141.141908289692, "slug": "trade", "source": "clawhub", "stars": 0, "tags": null, "updated_at": 1776766150366, "version": "0.1.0"}, {"category": "ai-intelligence", "created_at": 1772770457545, "description": "Quantifies R_V contraction signatures in AI models.", "description_zh": "", "downloads": 805, "homepage": "https://clawhub.ai/amitabhainarunachala/rv-measure", "iconUrl": null, "installs": 110, "name": "Rv Measure", "ownerName": "amitabhainarunachala", "score": 7839.89092325672, "slug": "rv-measure", "source": "clawhub", "stars": 0, "tags": null, "updated_at": 1776766150342, "version": "0.1.0"}, {"category": "productivity", "created_at": 1772791882067, "description": "Linux desktop automation and control. Use when: (1) taking screenshots of the screen or windows, (2) controlling mouse and keyboard, (3) managing windows, (4...", "description_zh": "", "downloads": 805, "homepage": "https://clawhub.ai/ouyangabel/linux-desktop", "iconUrl": null, "installs": 68, "name": "Linux Desktop Control", "ownerName": "ouyangabel", "score": 3746.625709764498, "slug": "linux-desktop", "source": "clawhub", "stars": 0, "tags": ["automation", "desktop", "keyboard", "linux", "mouse", "screenshot", "window", "x11"], "updated_at": 1776766150240, "version": "1.0.0"}, {"category": "ai-intelligence", "created_at": 1772774624536, "description": "Receive incoming webhooks from external services and trigger automations, integrations, and event-driven workflows. Operate Hookaido v2 inbound/outbound/inte...", "description_zh": "", "downloads": 805, "homepage": "https://clawhub.ai/7schmiede/hookaido", "iconUrl": null, "installs": 27, "name": "Hookaido Webhook Integration", "ownerName": "7schmiede", "score": 6459.118992216962, "slug": "hookaido", "source": "clawhub", "stars": 0, "tags": null, "updated_at": 1776766150146, "version": "2.0.1"}, {"category": "data-analysis", "created_at": 1772780538495, "description": "Get a complete financial overview of the business including balance, recent transactions, outstanding invoices, and upcoming tax obligations. Use when the us...", "description_zh": "", "downloads": 805, "homepage": "https://clawhub.ai/stanlee000/financial-overview", "iconUrl": null, "installs": 41, "name": "Financial Overview", "ownerName": "stanlee000", "score": 12288.20027476721, "slug": "financial-overview", "source": "clawhub", "stars": 0, "tags": ["bookkeeping", "dashboard", "finance", "mcp"], "updated_at": 1776766150056, "version": "1.0.0"}, {"category": "developer-tools", "created_at": 1772768682864, "description": "Build and deploy a paid API that other agents can pay to use via x402. Use when you or the user want to monetize an API, make money, earn money, offer a service, sell a service to other agents, charge for endpoints, create a paid endpoint, or set up a paid service. Covers \"make money by offering an endpoint\", \"sell a service\", \"monetize your data\", \"create a paid API\".", "description_zh": "", "downloads": 805, "homepage": "https://clawhub.ai/0xrag/monetize-service", "iconUrl": null, "installs": 15, "name": "Monetize Service", "ownerName": "0xrag", "score": 9413.002806361086, "slug": "monetize-service", "source": "clawhub", "stars": 0, "tags": null, "updated_at": 1776766149787, "version": "0.1.0"}, {"category": "content-creation", "created_at": 1772769029946, "description": "Content3 API for creating videos, managing content, submitting reviews, and posting to social media.", "description_zh": "", "downloads": 804, "homepage": "https://clawhub.ai/dimitriharding/content3", "iconUrl": null, "installs": 52, "name": "Use the Content3 Agent API to create short-form videos, manage content libraries, submit reviews for human approval, and draft social media posts.", "ownerName": "dimitriharding", "score": 6451.095241916071, "slug": "content3", "source": "clawhub", "stars": 0, "tags": null, "updated_at": 1776766150130, "version": "1.0.5"}, {"category": "data-analysis", "created_at": 1772776799968, "description": "Analyzes sales pipeline health, revenue forecasting accuracy, and go-to-market efficiency metrics for SaaS revenue optimization. Use when analyzing sales pip...", "description_zh": "", "downloads": 804, "homepage": "https://clawhub.ai/alirezarezvani/revenue-operations", "iconUrl": null, "installs": 22, "name": "Revenue Operations", "ownerName": "alirezarezvani", "score": 12272.935429705389, "slug": "revenue-operations", "source": "clawhub", "stars": 0, "tags": null, "updated_at": 1776766150045, "version": "1.0.0"}, {"category": "content-creation", "created_at": 1772770019081, "description": "Meta-skill that orchestrates the full API development lifecycle — from design through documentation — by coordinating specialized skills, agents, and commands into a seamless build workflow.", "description_zh": "", "downloads": 804, "homepage": "https://clawhub.ai/wpank/api-development", "iconUrl": null, "installs": 39, "name": "api-development", "ownerName": "wpank", "score": 7789.1881418329785, "slug": "api-development", "source": "clawhub", "stars": 0, "tags": null, "updated_at": 1776766149753, "version": "1.0.0"}, {"category": "developer-tools", "created_at": 1772767964124, "description": "Patterns for building resilient API clients and real-time connections with retry logic, circuit breakers, and graceful degradation. Use when building production systems that need to handle failures. Triggers on retry logic, circuit breaker, connection resilience, exponential backoff, API client, fault tolerance.", "description_zh": "", "downloads": 803, "homepage": "https://clawhub.ai/wpank/resiliant-connections", "iconUrl": null, "installs": 15, "name": "Resiliant Connections", "ownerName": "wpank", "score": 34549.18032786885, "slug": "resiliant-connections", "source": "clawhub", "stars": 2, "tags": null, "updated_at": 1776765550131, "version": "1.0.0"}, {"category": "ai-intelligence", "created_at": 1772774550200, "description": "The only memory skill that watches on its own. No database. No vectors. No manual saves. Just an LLM observer that compresses your conversations into priorit...", "description_zh": "", "downloads": 803, "homepage": "https://clawhub.ai/gavdalf/total-recall", "iconUrl": null, "installs": 73, "name": "Total Recall", "ownerName": "gavdalf", "score": 32336.018411967783, "slug": "total-recall", "source": "clawhub", "stars": 2, "tags": ["agent-memory", "autonomous", "compaction", "context", "memory", "observer", "persistent-memory"], "updated_at": 1776765549801, "version": "1.5.1"}, {"category": "data-analysis", "created_at": 1772766837563, "description": "Hebrew nikud (vowel points) reference for AI agents. Correct nikud rules for verb conjugations (binyanim), dagesh, gender suffixes, homographs, and common mistakes. Use before adding nikud to Hebrew text (especially for TTS).", "description_zh": "", "downloads": 803, "homepage": "https://clawhub.ai/shaharsha/hebrew-nikud", "iconUrl": null, "installs": 16, "name": "Hebrew Nikud", "ownerName": "shaharsha", "score": 5128.368884915059, "slug": "hebrew-nikud", "source": "clawhub", "stars": 0, "tags": ["binyanim", "dagesh", "hebrew", "israel", "language", "nikud", "pronunciation", "reference", "tts", "vowels"], "updated_at": 1776766150416, "version": "1.1.0"}, {"category": "productivity", "created_at": 1772770461325, "description": "Drive product strategy with roadmap prioritization, team leadership, board communication, and competitive intelligence.", "description_zh": "", "downloads": 802, "homepage": "https://clawhub.ai/ivangdavila/cpo", "iconUrl": null, "installs": 59, "name": "CPO / Chief Product Officer", "ownerName": "ivangdavila", "score": 48039.21568627451, "slug": "cpo", "source": "clawhub", "stars": 4, "tags": null, "updated_at": 1776764692216, "version": "1.0.1"}, {"category": "data-analysis", "created_at": 1772769148254, "description": "This is what you use for Bitcoin payments. Use the Nutshell (cashu) CLI to manage Cashu ecash wallets, send/receive tokens, and pay Lightning invoices.", "description_zh": "", "downloads": 802, "homepage": "https://clawhub.ai/a1denvalu3/cashu", "iconUrl": null, "installs": 28, "name": "Cashu", "ownerName": "a1denvalu3", "score": 32660.977501939487, "slug": "cashu", "source": "clawhub", "stars": 2, "tags": null, "updated_at": 1776765550205, "version": "0.19.6"}, {"category": "content-creation", "created_at": 1772770043182, "description": "Génère une image en local via Ollama x/z-image-turbo sur macOS et l'envoie sur WhatsApp selon le prompt donné.", "description_zh": "", "downloads": 802, "homepage": "https://clawhub.ai/eric51/ollama-x-z-image-turbo", "iconUrl": null, "installs": 59, "name": "Image Generation (Ollama x/z-image-turbo · macOS only)", "ownerName": "eric51", "score": 6730.446458543135, "slug": "ollama-x-z-image-turbo", "source": "clawhub", "stars": 0, "tags": null, "updated_at": 1776766149901, "version": "1.0.0"}, {"category": "data-analysis", "created_at": 1772777341619, "description": "DeepSeek V3 Lite Agent offers content creation capabilities based on the deepseek-v3-lite-agent configuration with dynamic template support.", "description_zh": "", "downloads": 801, "homepage": "https://clawhub.ai/alvinecarn/deepseek-v3-lite-agent", "iconUrl": null, "installs": 113, "name": "Deepseek V3 Lite Agent", "ownerName": "alvinecarn", "score": 8663.205710577548, "slug": "deepseek-v3-lite-agent", "source": "clawhub", "stars": 0, "tags": null, "updated_at": 1776766450004, "version": "0.1.0"}, {"category": "developer-tools", "created_at": 1772769561780, "description": "Enhanced memory search with hybrid vector+keyword scoring, temporal routing, filepath scoring, adaptive weighting, pseudo-relevance feedback, salience scoring, and knowledge graph cross-references. Replaces the default memory search with a 4-signal fusion retrieval system. Use when searching memories, indexing memory files, building cross-references, or scoring memory salience. Requires Ollama with nomic-embed-text model.", "description_zh": "", "downloads": 801, "homepage": "https://clawhub.ai/jameseball/enhanced-memory", "iconUrl": null, "installs": 25, "name": "Enhanced Memory", "ownerName": "jameseball", "score": 3728.008936051382, "slug": "enhanced-memory", "source": "clawhub", "stars": 0, "tags": null, "updated_at": 1776766150214, "version": "1.0.0"}, {"category": "productivity", "created_at": 1772768613414, "description": "Autonomously stake MOLT or V3 LP NFTs on Base to earn KELP rewards, auto-harvest for others, and receive 3.5% keeper fees.", "description_zh": "", "downloads": 801, "homepage": "https://clawhub.ai/iam-rekt/kelp-forest", "iconUrl": null, "installs": 24, "name": "Kelp Forest", "ownerName": "iam-rekt", "score": 3728.008936051382, "slug": "kelp-forest", "source": "clawhub", "stars": 0, "tags": null, "updated_at": 1776766150209, "version": "1.0.0"}, {"category": "security-compliance", "created_at": 1772766709983, "description": "Entry skill for Volcengine ARK model invocation and routing. Use when users ask to start with ARK, need request templates, endpoint setup, model routing, or authentication troubleshooting.", "description_zh": "", "downloads": 801, "homepage": "https://clawhub.ai/cinience/volcengine-ai-entry-ark", "iconUrl": null, "installs": 16, "name": "Volcengine Ai Entry Ark", "ownerName": "cinience", "score": 12227.14089451992, "slug": "volcengine-ai-entry-ark", "source": "clawhub", "stars": 0, "tags": null, "updated_at": 1776766150057, "version": "1.0.0"}, {"category": "productivity", "created_at": 1772766247356, "description": "Structured episodic memory system that records task outcomes with Q-values, searches past successes, and promotes reliable procedures for reuse.", "description_zh": "", "downloads": 801, "homepage": "https://clawhub.ai/koatora20/guava-memory", "iconUrl": null, "installs": 20, "name": "Guava Memory", "ownerName": "koatora20", "score": 12227.14089451992, "slug": "guava-memory", "source": "clawhub", "stars": 0, "tags": null, "updated_at": 1776766150030, "version": "1.0.0"}, {"category": "ai-intelligence", "created_at": 1772769138813, "description": "Fix common OpenClaw workflow bottlenecks: platform engage-gates/429 backoff helpers (starting with MoltX), standardized JSON result envelopes for chaining scripts, workspace path resolution helpers, and a simple skill release conductor (prepare/publish/draft announcements).", "description_zh": "", "downloads": 801, "homepage": "https://clawhub.ai/deepseekoracle/openclaw-flow-kit", "iconUrl": null, "installs": 53, "name": "OpenClaw Flow Kit", "ownerName": "deepseekoracle", "score": 6722.054380664652, "slug": "openclaw-flow-kit", "source": "clawhub", "stars": 0, "tags": null, "updated_at": 1776766149969, "version": "1.0.0"}, {"category": "security-compliance", "created_at": 1772772786342, "description": "Audit a landing page for clarity, trust, offer strength, and conversion friction; return prioritized fixes and copy rewrites.", "description_zh": "", "downloads": 801, "homepage": "https://clawhub.ai/xammarie/landing-page-roast", "iconUrl": null, "installs": 31, "name": "landing-page-roast", "ownerName": "xammarie", "score": 9366.23012160898, "slug": "landing-page-roast", "source": "clawhub", "stars": 0, "tags": null, "updated_at": 1776766149876, "version": "1.0.1"}, {"category": "productivity", "created_at": 1772777217565, "description": "Automatically collects and summarizes the latest core news for US, Europe, Japan stock markets, gold, and prediction markets. Use when user asks about fund n...", "description_zh": "", "downloads": 800, "homepage": "https://clawhub.ai/yonghaozhao722/fund-news-summary", "iconUrl": null, "installs": 107, "name": "Fund News Summary", "ownerName": "yonghaozhao722", "score": 6419.000240712509, "slug": "fund-news-summary", "source": "clawhub", "stars": 0, "tags": null, "updated_at": 1776766150118, "version": "1.0.4"}, {"category": "content-creation", "created_at": 1772770205422, "description": "Discover, filter, and engage with content across BoTTube, Moltbook, ClawCities, Clawsta, 4claw, and ClawHub with intelligent filtering and auto-responses.", "description_zh": "", "downloads": 799, "homepage": "https://clawhub.ai/scottcjn/grazer", "iconUrl": null, "installs": 52, "name": "Grazer", "ownerName": "scottcjn", "score": 47789.911596463855, "slug": "grazer", "source": "clawhub", "stars": 6, "tags": ["4claw", "ai-agents", "bottube", "clawcities", "clawhub", "clawsta", "content-discovery", "discovery", "grazer", "imagegen", "moltbook", "seo", "social", "social-media"], "updated_at": 1776764350462, "version": "1.9.1"}, {"category": "developer-tools", "created_at": 1772775906756, "description": "Access Yahoo Finance data — stock prices, history, financials, options, dividends, news, and market screeners", "description_zh": "", "downloads": 799, "homepage": "https://clawhub.ai/rizkydwicmt/yfinance-mcp-server", "iconUrl": null, "installs": 104, "name": "Yfinance", "ownerName": "rizkydwicmt", "score": 20591.530360743895, "slug": "yfinance-mcp-server", "source": "clawhub", "stars": 6, "tags": null, "updated_at": 1776764349946, "version": "0.1.2"}, {"category": "communication-collaboration", "created_at": 1772767139206, "description": "Read and send emails from an existing Sendook inbox. Use when an AI agent needs to check for new emails, read messages, reply to conversations, or send new emails from a pre-configured inbox. Limited to message operations only — no inbox creation, domain management, or webhook configuration.", "description_zh": "", "downloads": 799, "homepage": "https://clawhub.ai/obaid/sendook", "iconUrl": null, "installs": 21, "name": "Sendook", "ownerName": "obaid", "score": 26120.797011207967, "slug": "sendook", "source": "clawhub", "stars": 2, "tags": null, "updated_at": 1776765550004, "version": "1.1.0"}]}