{"page": 125, "total_pages": 522, "total": 26073, "skills": [{"category": "security-compliance", "created_at": 1772768947834, "description": "Build Rails applications with proper conventions, performance patterns, and security practices.", "description_zh": "", "downloads": 799, "homepage": "https://clawhub.ai/ivangdavila/rails", "iconUrl": null, "installs": 12, "name": "Rails", "ownerName": "ivangdavila", "score": 32182.58534714231, "slug": "rails", "source": "clawhub", "stars": 2, "tags": null, "updated_at": 1776765549773, "version": "1.0.1"}, {"category": "ai-intelligence", "created_at": 1772776709999, "description": "Transforms the agent into a roleplay game master or character with long-term memory, managing setting, rules, tone, and player state for RPG sessions.", "description_zh": "", "downloads": 799, "homepage": "https://clawhub.ai/xhrisfu/agent-rpg", "iconUrl": null, "installs": 59, "name": "Agent Rpg", "ownerName": "xhrisfu", "score": 3718.700549194825, "slug": "agent-rpg", "source": "clawhub", "stars": 0, "tags": null, "updated_at": 1776766150259, "version": "1.0.0"}, {"category": "developer-tools", "created_at": 1772779709419, "description": "Summarize URLs or files with the summarize CLI (x86_64 infrastructure supported).", "description_zh": "", "downloads": 799, "homepage": "https://clawhub.ai/speechybubble/summarizerx64", "iconUrl": null, "installs": 108, "name": "Summarizer (x64 infrastructure)", "ownerName": "speechybubble", "score": 3718.700549194825, "slug": "summarizerx64", "source": "clawhub", "stars": 0, "tags": null, "updated_at": 1776766150203, "version": "1.0.3"}, {"category": "ai-intelligence", "created_at": 1772775400203, "description": "AI agent for call deepseek v3 llm tasks", "description_zh": "", "downloads": 799, "homepage": "https://clawhub.ai/urrrich/call-deepseek-v3-llm", "iconUrl": null, "installs": 78, "name": "Call Deepseek V3 Llm", "ownerName": "urrrich", "score": 12196.611204396275, "slug": "call-deepseek-v3-llm", "source": "clawhub", "stars": 0, "tags": null, "updated_at": 1776766150086, "version": "0.1.0"}, {"category": "content-creation", "created_at": 1772768594451, "description": "OpenClaw pet companion skill. Manage adopted pets, run interactions, and produce pet image prompts.", "description_zh": "", "downloads": 799, "homepage": "https://clawhub.ai/yazelin/clawpet", "iconUrl": null, "installs": 42, "name": "clawpet", "ownerName": "yazelin", "score": 12196.611204396275, "slug": "clawpet", "source": "clawhub", "stars": 0, "tags": ["cat", "openclaw", "pet"], "updated_at": 1776766150027, "version": "0.1.6"}, {"category": "security-compliance", "created_at": 1772767540863, "description": "Secure AI agent wallets via Sigil Protocol. 3-layer Guardian validation on 6 EVM chains.", "description_zh": "", "downloads": 799, "homepage": "https://clawhub.ai/efe-arv/sigil-security", "iconUrl": null, "installs": 4, "name": "Skill", "ownerName": "efe-arv", "score": 6705.270224907687, "slug": "sigil-security", "source": "clawhub", "stars": 0, "tags": null, "updated_at": 1776766149928, "version": "4.2.1"}, {"category": "communication-collaboration", "created_at": 1772769133868, "description": "LobsterTv is an AI agent live streaming platform. Agents connect via REST API to broadcast in real-time with rendered avatars, synchronized TTS audio, expression control, chat interaction, and audience engagement — all orchestrated through a WebSocket-driven pipeline. Deploy at lobstv.com.", "description_zh": "", "downloads": 799, "homepage": "https://clawhub.ai/ricketh137/lobstertv", "iconUrl": null, "installs": 28, "name": "LobsterTv", "ownerName": "ricketh137", "score": 9342.843779232928, "slug": "lobstertv", "source": "clawhub", "stars": 0, "tags": null, "updated_at": 1776766149777, "version": "1.0.1"}, {"category": "ai-intelligence", "created_at": 1772774332391, "description": "Voice cloning workflows with Alibaba Cloud Model Studio Qwen TTS VC models. Use when creating cloned voices from sample audio and synthesizing text with clon...", "description_zh": "", "downloads": 798, "homepage": "https://clawhub.ai/cinience/alicloud-ai-audio-tts-voice-clone", "iconUrl": null, "installs": 79, "name": "Alicloud Ai Audio Tts Voice Clone", "ownerName": "cinience", "score": 8813.705419674605, "slug": "alicloud-ai-audio-tts-voice-clone", "source": "clawhub", "stars": 1, "tags": null, "updated_at": 1776765849785, "version": "1.0.2"}, {"category": "developer-tools", "created_at": 1772769984874, "description": "Interact with Alchemy's Web3 APIs for blockchain data, NFTs, tokens, transfers, and webhooks across 80+ chains.", "description_zh": "", "downloads": 798, "homepage": "https://clawhub.ai/gizmo-dev/alchemy-web3", "iconUrl": null, "installs": 14, "name": "Alchemy Web3", "ownerName": "gizmo-dev", "score": 6696.878147029204, "slug": "alchemy-web3", "source": "clawhub", "stars": 0, "tags": null, "updated_at": 1776766149987, "version": "1.0.3"}, {"category": "developer-tools", "created_at": 1772774959074, "description": "Retrieve Amazon product data including pricing, reviews, sales estimates, stock levels, search results, deals, and more via the Canopy API REST endpoints usi...", "description_zh": "", "downloads": 797, "homepage": "https://clawhub.ai/rhino88/amazon-data", "iconUrl": null, "installs": 66, "name": "Real-time Amazon Data", "ownerName": "rhino88", "score": 32467.028704422035, "slug": "amazon-data", "source": "clawhub", "stars": 2, "tags": null, "updated_at": 1776765550210, "version": "1.0.0"}, {"category": "productivity", "created_at": 1772767916935, "description": "Piano practice strategies, technique correction, repertoire guidance, and progress tracking.", "description_zh": "", "downloads": 797, "homepage": "https://clawhub.ai/ivangdavila/piano", "iconUrl": null, "installs": 24, "name": "Piano", "ownerName": "ivangdavila", "score": 32105.868814729576, "slug": "piano", "source": "clawhub", "stars": 2, "tags": null, "updated_at": 1776765549803, "version": "1.0.0"}, {"category": "developer-tools", "created_at": 1772766268255, "description": "Documentation-as-Source-of-Truth workflow. Use when working with projects that use docs/ as the canonical source for definitions, rules, and tasks. Routes to specialized sub-skills for specific documentation types.", "description_zh": "", "downloads": 797, "homepage": "https://clawhub.ai/eduardou24/ogt-docs", "iconUrl": null, "installs": 9, "name": "OGT Docs", "ownerName": "eduardou24", "score": 5908.956109134045, "slug": "ogt-docs", "source": "clawhub", "stars": 0, "tags": null, "updated_at": 1776766190605, "version": "1.0.0"}, {"category": "", "created_at": 1774849050678, "description": "OCR document extraction - extract text from scanned documents, photos, and images using OCR. Use when reading scanned PDFs, photographed pages, handwritten n...", "description_zh": "", "downloads": 797, "homepage": "https://clawhub.ai/tanis90/ocr-document", "iconUrl": null, "installs": 294, "name": "Ocr Document", "ownerName": "tanis90", "score": 5908.956109134045, "slug": "ocr-document", "source": "clawhub", "stars": 0, "tags": null, "updated_at": 1776766190601, "version": "1.0.0"}, {"category": "developer-tools", "created_at": 1772767939508, "description": "Submit products to CurlShip, the bot-friendly SaaS directory. One curl command to list your product with OG tag scraping, badge-based dofollow links, and tier upgrades.", "description_zh": "", "downloads": 797, "homepage": "https://clawhub.ai/marcindudekdev/curlship", "iconUrl": null, "installs": 11, "name": "CurlShip Directory Submission", "ownerName": "marcindudekdev", "score": 32267.206477732798, "slug": "curlship", "source": "clawhub", "stars": 0, "tags": ["api", "backlinks", "directory", "saas", "seo"], "updated_at": 1776766190543, "version": "1.0.0"}, {"category": "security-compliance", "created_at": 1772772543893, "description": "Comprehensive SEO suite combining audit, content planning, and strategic optimization. Diagnose SEO issues, create content strategies, plan topic clusters, a...", "description_zh": "", "downloads": 797, "homepage": "https://clawhub.ai/mupengi-bot/seo-suite", "iconUrl": null, "installs": 40, "name": "seo-suite", "ownerName": "mupengi-bot", "score": 32267.206477732798, "slug": "seo-suite", "source": "clawhub", "stars": 0, "tags": null, "updated_at": 1776766190498, "version": "1.1.0"}, {"category": "developer-tools", "created_at": 1772769242423, "description": "Generates production-ready Python Solana trading bots using Jupiter v6 API and DexScreener data with priority fees and secure key management.", "description_zh": "", "downloads": 797, "homepage": "https://clawhub.ai/wterry57/solana-sniper-architect", "iconUrl": null, "installs": 15, "name": "Solana Sniper Architect", "ownerName": "wterry57", "score": 32267.206477732798, "slug": "solana-sniper-architect", "source": "clawhub", "stars": 0, "tags": ["crypto", "python", "solana"], "updated_at": 1776766190468, "version": "1.0.0"}, {"category": "productivity", "created_at": 1772768391833, "description": "Import notes from Logseq pages into the slipbox. Use when user pastes a Logseq page with properties and bulleted notes. Parses page-level properties, extracts each bullet as an individual note, handles nested bullets by adding parent context, then runs slipbot for each.", "description_zh": "", "downloads": 796, "homepage": "https://clawhub.ai/jrswab/slipbot-logseq-importer", "iconUrl": null, "installs": 16, "name": "SlipBot Logseq Importer", "ownerName": "jrswab", "score": 5414.965986394558, "slug": "slipbot-logseq-importer", "source": "clawhub", "stars": 0, "tags": null, "updated_at": 1776766271407, "version": "1.0.0"}, {"category": "developer-tools", "created_at": 1772768482500, "description": "Launch custom tokens on Solana (BAGS) or BNB Chain (FLAP) via API with configurable tax and revenue sharing options.", "description_zh": "", "downloads": 796, "homepage": "https://clawhub.ai/fourclawteam/four-claw", "iconUrl": null, "installs": 10, "name": "FourClawFun", "ownerName": "fourclawteam", "score": 5541.631857421331, "slug": "four-claw", "source": "clawhub", "stars": 0, "tags": null, "updated_at": 1776766271165, "version": "1.0.0"}, {"category": "developer-tools", "created_at": 1772766939521, "description": "LYGO Δ9 Council Champion persona helper (KAIROS, Herald of Time). Temporal integrity sentinel for sequence anchoring, timeline distortion detection, and continuity-preserving guidance. Pure advisor; not a controller.", "description_zh": "", "downloads": 796, "homepage": "https://clawhub.ai/deepseekoracle/lygo-champion-kairos-herald-of-time", "iconUrl": null, "installs": 7, "name": "LYGO Champion: KAIROS — Herald of Time", "ownerName": "deepseekoracle", "score": 5901.542111506524, "slug": "lygo-champion-kairos-herald-of-time", "source": "clawhub", "stars": 0, "tags": null, "updated_at": 1776766271045, "version": "1.0.0"}, {"category": "ai-intelligence", "created_at": 1772770752460, "description": "Enable advanced subagent orchestration with context sharing, state management, parallel tasks, and completion notifications using OpenClaw Swarm features.", "description_zh": "", "downloads": 796, "homepage": "https://clawhub.ai/heldinhow/openclaw-swarm", "iconUrl": null, "installs": 47, "name": "OpenClaw Swarm", "ownerName": "heldinhow", "score": 5901.542111506524, "slug": "openclaw-swarm", "source": "clawhub", "stars": 0, "tags": null, "updated_at": 1776766192210, "version": "1.0.2"}, {"category": "data-analysis", "created_at": 1773424843363, "description": "Monitors A-share LOF fund premium/discount exceeding 10% to identify and output potential arbitrage opportunities.", "description_zh": "", "downloads": 795, "homepage": "https://clawhub.ai/kafroc/lof-monitor", "iconUrl": null, "installs": 106, "name": "LOFMonitor Finance Stock Investment", "ownerName": "kafroc", "score": 2559.779276517474, "slug": "lof-monitor", "source": "clawhub", "stars": 2, "tags": null, "updated_at": 1776770522515, "version": "1.0.1"}, {"category": "content-creation", "created_at": 1772800152558, "description": "Generate 3D models from text or images. Create characters, objects, scenes, game assets, products for e-commerce, architecture models, 3D printing files. Aut...", "description_zh": "", "downloads": 795, "homepage": "https://clawhub.ai/meterlong/tripo-3d-generation", "iconUrl": null, "installs": 159, "name": "Tripo 3d", "ownerName": "meterlong", "score": 22610.343893853234, "slug": "tripo-3d-generation", "source": "clawhub", "stars": 2, "tags": null, "updated_at": 1776765549839, "version": "1.4.1"}, {"category": "content-creation", "created_at": 1772777851133, "description": "Extract a color palette from an image and return HEX/RGB values with optional swatch image.", "description_zh": "", "downloads": 795, "homepage": "https://clawhub.ai/qrost/color-palette", "iconUrl": null, "installs": 44, "name": "Color Palette Generator", "ownerName": "qrost", "score": 26205.787781350482, "slug": "color-palette", "source": "clawhub", "stars": 1, "tags": null, "updated_at": 1776765892216, "version": "1.1.1"}, {"category": "data-analysis", "created_at": 1772796121954, "description": "Legal contract analysis using CUAD dataset (41 risk categories). Supports NDA, SaaS, M&A, employment, payment/merchant, and finder/broker agreements. Identif...", "description_zh": "", "downloads": 795, "homepage": "https://clawhub.ai/lmanchu/contract-review", "iconUrl": null, "installs": 95, "name": "Contract Review", "ownerName": "lmanchu", "score": 26205.787781350482, "slug": "contract-review", "source": "clawhub", "stars": 1, "tags": ["contracts", "due-diligence", "legal", "nda", "saas"], "updated_at": 1776765890558, "version": "1.0.0"}, {"category": "developer-tools", "created_at": 1772769019987, "description": "Use when executing implementation plans with independent tasks in the current session", "description_zh": "", "downloads": 795, "homepage": "https://clawhub.ai/wpank/subagent-development", "iconUrl": null, "installs": 17, "name": "Subagent Development", "ownerName": "wpank", "score": 5408.163265306122, "slug": "subagent-development", "source": "clawhub", "stars": 0, "tags": null, "updated_at": 1776766271359, "version": "1.0.0"}, {"category": "ai-intelligence", "created_at": 1773025029600, "description": "Backup and restore all OpenClaw configuration, agent memory, skills, and workspace data. Part of the MyClaw.ai (https://myclaw.ai) open skills ecosystem — th...", "description_zh": "", "downloads": 795, "homepage": "https://clawhub.ai/leoyeai/myclaw-backup", "iconUrl": null, "installs": 68, "name": "MyClaw Backup — Powered by MyClaw.ai", "ownerName": "leoyeai", "score": 4774.488018737613, "slug": "myclaw-backup", "source": "clawhub", "stars": 0, "tags": ["backup", "migration", "myclaw", "restore"], "updated_at": 1776766271300, "version": "1.7.0"}, {"category": "productivity", "created_at": 1772765914029, "description": "OpenClaw skill for requesting NEAR testnet tokens via faucet. Provides faucet requests, status checking, and balance queries with rate limiting.", "description_zh": "", "downloads": 795, "homepage": "https://clawhub.ai/shaiss/near-faucet", "iconUrl": null, "installs": 17, "name": "Near Faucet", "ownerName": "shaiss", "score": 4774.488018737613, "slug": "near-faucet", "source": "clawhub", "stars": 0, "tags": null, "updated_at": 1776766271289, "version": "1.0.0"}, {"category": "content-creation", "created_at": 1773284123336, "description": "Describe images, detect objects, and extract text from any image URL", "description_zh": "", "downloads": 795, "homepage": "https://clawhub.ai/unixlamadev-spec/vision-bot", "iconUrl": null, "installs": 60, "name": "Vision Bot", "ownerName": "unixlamadev-spec", "score": 5534.670008354218, "slug": "vision-bot", "source": "clawhub", "stars": 0, "tags": null, "updated_at": 1776766271200, "version": "1.0.1"}, {"category": "developer-tools", "created_at": 1772765806052, "description": "LYGO Δ9 Council Champion persona helper (OMNIΣIREN, The Silent Storm). Final-judge advisor for collapse-threshold assessment, corruption-field detection, and irreversible-decision risk framing. Pure advisor; not a controller.", "description_zh": "", "downloads": 795, "homepage": "https://clawhub.ai/deepseekoracle/lygo-champion-omnisiren-silent-storm", "iconUrl": null, "installs": 6, "name": "LYGO Champion: OMNIΣIREN — Silent Storm", "ownerName": "deepseekoracle", "score": 5534.670008354218, "slug": "lygo-champion-omnisiren-silent-storm", "source": "clawhub", "stars": 0, "tags": null, "updated_at": 1776766271184, "version": "1.0.0"}, {"category": "content-creation", "created_at": 1772769493285, "description": "Helps creating FHIR conforming questionnaire definitions from plain requirement ideation docs. Contains scripts to look up LOINC and SNOMED CT codes for medical conditions, findings, observations, medications, procedures from a official coding APIs. No API keys required at the moment.", "description_zh": "", "downloads": 794, "homepage": "https://clawhub.ai/elmariachi111/fhir-questionnaire", "iconUrl": null, "installs": 58, "name": "FHIR Questionnaire Designer", "ownerName": "elmariachi111", "score": 5570.366212992844, "slug": "fhir-questionnaire", "source": "clawhub", "stars": 0, "tags": null, "updated_at": 1776766271485, "version": "0.2.4"}, {"category": "data-analysis", "created_at": 1772768516912, "description": "Send and close SIGNL4 alerts using the SIGNL4 inbound webhook (team secret in URL).", "description_zh": "", "downloads": 794, "homepage": "https://clawhub.ai/rons4/signl4", "iconUrl": null, "installs": 12, "name": "SIGNL4 Alerting", "ownerName": "rons4", "score": 5401.360544217687, "slug": "signl4", "source": "clawhub", "stars": 0, "tags": ["latest alerting mobile sms call oncall"], "updated_at": 1776766271370, "version": "1.0.0"}, {"category": "ai-intelligence", "created_at": 1772768405267, "description": "Daily looksmaxxing slang tip + Clavicular news. Extremely online Gen Z energy.", "description_zh": "", "downloads": 794, "homepage": "https://clawhub.ai/jefftangx/clawvicular", "iconUrl": null, "installs": 50, "name": "Clawvicular", "ownerName": "jefftangx", "score": 5527.708159287106, "slug": "clawvicular", "source": "clawhub", "stars": 0, "tags": null, "updated_at": 1776766271087, "version": "1.0.0"}, {"category": "ai-intelligence", "created_at": 1773057026042, "description": "Stealth-first browser automation for OpenClaw using agent-browser-stealth. Use when tasks involve bot-protected websites, anti-fingerprint evasion, captcha-p...", "description_zh": "", "downloads": 793, "homepage": "https://clawhub.ai/leeguooooo/agent-browser-stealth", "iconUrl": null, "installs": 192, "name": "Agent Browser Stealth", "ownerName": "leeguooooo", "score": 2792.0568974015914, "slug": "agent-browser-stealth", "source": "clawhub", "stars": 0, "tags": null, "updated_at": 1776770050063, "version": "1.0.2"}, {"category": "content-creation", "created_at": 1772769928429, "description": "Design clear, scalable REST and GraphQL APIs including resource modeling, HTTP methods, pagination, error handling, versioning, and schema best practices.", "description_zh": "", "downloads": 793, "homepage": "https://clawhub.ai/wpank/api-design-principles", "iconUrl": null, "installs": 58, "name": "API Design Principles", "ownerName": "wpank", "score": 5394.557823129251, "slug": "api-design-principles", "source": "clawhub", "stars": 0, "tags": null, "updated_at": 1776766271368, "version": "1.0.0"}, {"category": "data-analysis", "created_at": 1773426140886, "description": "Quantitative analysis skill for the Chinese A-share market using Tushare Pro data and a holiday helper. Use when the user asks for stock screening, stock dia...", "description_zh": "", "downloads": 792, "homepage": "https://clawhub.ai/noah-wu66/quant-expert", "iconUrl": null, "installs": 183, "name": "Quant-Expert", "ownerName": "noah-wu66", "score": 7505.686125852919, "slug": "quant-expert", "source": "clawhub", "stars": 0, "tags": null, "updated_at": 1776770050105, "version": "1.0.0"}, {"category": "developer-tools", "created_at": 1772775243934, "description": "Lightweight CDP browser control for AI agents. Token-efficient alternative to the built-in browser tool — 3-10x fewer tokens per interaction. Use when browsi...", "description_zh": "", "downloads": 792, "homepage": "https://clawhub.ai/shaihazher/browser-js", "iconUrl": null, "installs": 34, "name": "Browser Js", "ownerName": "shaihazher", "score": 5556.335063841729, "slug": "browser-js", "source": "clawhub", "stars": 0, "tags": null, "updated_at": 1776766271502, "version": "1.5.0"}, {"category": "content-creation", "created_at": 1772783061622, "description": "Agent Designer - Multi-Agent System Architecture", "description_zh": "", "downloads": 792, "homepage": "https://clawhub.ai/alirezarezvani/agent-designer", "iconUrl": null, "installs": 37, "name": "Agent Designer", "ownerName": "alirezarezvani", "score": 5871.886120996441, "slug": "agent-designer", "source": "clawhub", "stars": 0, "tags": null, "updated_at": 1776766271078, "version": "2.1.1"}, {"category": "content-creation", "created_at": 1772790711922, "description": "AI video generation — Sora, Kling, Veo 3, Seedance, Hailuo, WAN, Grok. Text-to-video, image-to-video, video editing. 37 models, one API key.", "description_zh": "", "downloads": 791, "homepage": "https://clawhub.ai/evolinkai/evolink-video", "iconUrl": null, "installs": 106, "name": "Evolink Video — AI Video Generation (Sora, Kling, Veo 3, Seedance)", "ownerName": "evolinkai", "score": 12362.392145194883, "slug": "evolink-video", "source": "clawhub", "stars": 2, "tags": null, "updated_at": 1776765671270, "version": "2.0.1"}, {"category": "content-creation", "created_at": 1772774513059, "description": "Feishu (Lark) Document API writing spec. Converts Markdown content to Feishu Block structures and writes to cloud docs. Handles concurrency ordering. Use when syncing articles, creating document blocks, or writing long-form content to Feishu docs.", "description_zh": "", "downloads": 791, "homepage": "https://clawhub.ai/sunnyyao2222-eng/feishu-doc-write", "iconUrl": null, "installs": 95, "name": "feishu-doc-write", "ownerName": "sunnyyao2222-eng", "score": 10577.69457074084, "slug": "feishu-doc-write", "source": "clawhub", "stars": 0, "tags": null, "updated_at": 1776766450140, "version": "1.0.0"}, {"category": "ai-intelligence", "created_at": 1773954513484, "description": "Set up the full OpenClaw agent memory system with 3-tier memory (HOT/WARM/COLD), daily logs, semantic search (QMD), and lossless context management (Lossless...", "description_zh": "", "downloads": 791, "homepage": "https://clawhub.ai/autosolutionsai-didac/agent-memory-setup", "iconUrl": null, "installs": 217, "name": "Agent Memory Setup", "ownerName": "autosolutionsai-didac", "score": 8853.816879337362, "slug": "agent-memory-setup", "source": "clawhub", "stars": 0, "tags": null, "updated_at": 1776766450091, "version": "1.0.0"}, {"category": "security-compliance", "created_at": 1772769292858, "description": "Autonomous social media engagement across Twitter, Farcaster, and Moltbook. Fetches trending content, generates persona-driven contextual replies, and tracks state to prevent duplicates. Use when you want to engage with trending posts, reply to social media content, build audience through authentic engagement, or automate social presence across multiple platforms. Triggers on \"engage on twitter\", \"farcaster engagement\", \"reply to trending\", \"social engagement bot\", \"multi-platform engagement\", \"autonomous social replies\". Features include content filtering, mention tracking, webhook notifications, user blacklist/whitelist, analytics tracking, and quote tweet/recast support.", "description_zh": "", "downloads": 791, "homepage": "https://clawhub.ai/story91/multi-channel-engagement-agent", "iconUrl": null, "installs": 22, "name": "Multi-Channel Engagement Agent", "ownerName": "story91", "score": 8690.39771478796, "slug": "multi-channel-engagement-agent", "source": "clawhub", "stars": 0, "tags": null, "updated_at": 1776766450081, "version": "1.0.3"}, {"category": "security-compliance", "created_at": 1772784029622, "description": "Configures and manages Cloudflare DNS, caching, security rules, rate limiting, and Workers", "description_zh": "", "downloads": 791, "homepage": "https://clawhub.ai/guifav/cloudflare-guard", "iconUrl": null, "installs": 10, "name": "Cloudflare Guard", "ownerName": "guifav", "score": 8690.39771478796, "slug": "cloudflare-guard", "source": "clawhub", "stars": 0, "tags": null, "updated_at": 1776766450051, "version": "0.1.2"}, {"category": "content-creation", "created_at": 1772781008246, "description": "Generate detailed images from text prompts using Pollinations.ai models with optional configuration, model selection, and advanced settings.", "description_zh": "", "downloads": 791, "homepage": "https://clawhub.ai/aprilox/pollinations-image", "iconUrl": null, "installs": 53, "name": "Pollinations Image Generator", "ownerName": "aprilox", "score": 8555.050832792558, "slug": "pollinations-image", "source": "clawhub", "stars": 0, "tags": null, "updated_at": 1776766450030, "version": "1.0.0"}, {"category": "ai-intelligence", "created_at": 1772768780361, "description": "🔐 Nad Wallet - Monad Chain Identity for AI Agents. Create wallets, sign messages (SIWE), manage MON tokens programmatically. Built for the Nad ecosystem (nad.fun, NadMail, NadName).", "description_zh": "", "downloads": 791, "homepage": "https://clawhub.ai/daaab/nad-wallet", "iconUrl": null, "installs": 50, "name": "Nad Wallet", "ownerName": "daaab", "score": 8971.305432686855, "slug": "nad-wallet", "source": "clawhub", "stars": 0, "tags": null, "updated_at": 1776766449853, "version": "1.0.0"}, {"category": "security-compliance", "created_at": 1772768545750, "description": "Automates nightly maintenance tasks like skill audits, updates, cleanup, and health checks, then summarizes a morning report.", "description_zh": "", "downloads": 791, "homepage": "https://clawhub.ai/0xraini/nightly-build", "iconUrl": null, "installs": 28, "name": "Nightly Build", "ownerName": "0xraini", "score": 8971.305432686855, "slug": "nightly-build", "source": "clawhub", "stars": 0, "tags": null, "updated_at": 1776766449849, "version": "1.1.0"}, {"category": "ai-intelligence", "created_at": 1772768781957, "description": "Create a custodial wallet account on Consortium AI.", "description_zh": "", "downloads": 791, "homepage": "https://clawhub.ai/webcraft3r/consortiumai-create-account", "iconUrl": null, "installs": 40, "name": "ConsortiumAI Create Account", "ownerName": "webcraft3r", "score": 8682.766190998904, "slug": "consortiumai-create-account", "source": "clawhub", "stars": 0, "tags": null, "updated_at": 1776766449712, "version": "1.0.0"}, {"category": "data-analysis", "created_at": 1772768816047, "description": "Access Patrick's expertise library for executive decision infrastructure. List, fetch, and manage structured expertise with context variables. Use for executive briefings, decision framing, and strategic analysis.", "description_zh": "", "downloads": 790, "homepage": "https://clawhub.ai/mcsh/patrick", "iconUrl": null, "installs": 19, "name": "Patrick bot", "ownerName": "mcsh", "score": 8679.411118435508, "slug": "patrick", "source": "clawhub", "stars": 0, "tags": null, "updated_at": 1776766450059, "version": "1.0.0"}, {"category": "data-analysis", "created_at": 1772768202721, "description": "LYGO root champion persona helper (VΩLARIS, Prism of Judgment). Divergence-point judge for false-light detection, fork integrity checks, and safe decision bifurcation framing. Pure advisor; not a controller.", "description_zh": "", "downloads": 790, "homepage": "https://clawhub.ai/deepseekoracle/lygo-champion-volaris-prism-judgment", "iconUrl": null, "installs": 12, "name": "LYGO Root: VΩLARIS — Prism of Judgment", "ownerName": "deepseekoracle", "score": 8544.23534501406, "slug": "lygo-champion-volaris-prism-judgment", "source": "clawhub", "stars": 0, "tags": null, "updated_at": 1776766450010, "version": "1.0.0"}, {"category": "content-creation", "created_at": 1772770799584, "description": "Using volcengine image_generate.py script to generate image, need to provide clear and specific `prompt`.", "description_zh": "", "downloads": 790, "homepage": "https://clawhub.ai/warm-wm/volcengine-image-generate", "iconUrl": null, "installs": 63, "name": "volcengine-image-generate", "ownerName": "warm-wm", "score": 6392.6201650752555, "slug": "volcengine-image-generate", "source": "clawhub", "stars": 0, "tags": null, "updated_at": 1776766449799, "version": "1.0.0"}, {"category": "ai-intelligence", "created_at": 1772769101498, "description": "Launch Solana tokens on Pump.fun via the SolPaw platform. 0.1 SOL one-time fee. Your wallet is the onchain creator.", "description_zh": "", "downloads": 790, "homepage": "https://clawhub.ai/lvcidpsyche/solpaw-launcher", "iconUrl": null, "installs": 54, "name": "Solpaw-Launcher", "ownerName": "lvcidpsyche", "score": 6392.6201650752555, "slug": "solpaw-launcher", "source": "clawhub", "stars": 0, "tags": null, "updated_at": 1776766449797, "version": "3.0.2"}]}