{"page": 127, "total_pages": 522, "total": 26073, "skills": [{"category": "data-analysis", "created_at": 1772776098966, "description": "Give your agent eyes on the web — screenshot any URL as an image file. Supports device emulation (iPhone, iPad, Pixel, MacBook), dark mode, full-page scroll,...", "description_zh": "", "downloads": 779, "homepage": "https://clawhub.ai/user0856/snaprender", "iconUrl": null, "installs": 22, "name": "SnapRender", "ownerName": "user0856", "score": 9197.166469893744, "slug": "snaprender", "source": "clawhub", "stars": 0, "tags": ["ai-agent", "mcp", "monitoring", "screenshot", "vision", "visual-analysis", "web"], "updated_at": 1776766490553, "version": "1.3.2"}, {"category": "ai-intelligence", "created_at": 1772768751258, "description": "Multi-chain wallet management for AI agents. Create wallets, check balances, transfer tokens (USDC/native), and bridge cross-chain. Use when agents need to send/receive payments, check funds, or manage crypto wallets. Supports Solana, Base, and Ethereum. Trigger phrases include \"create wallet\", \"check balance\", \"send USDC\", \"transfer\", \"my addresses\", \"wallet status\".", "description_zh": "", "downloads": 779, "homepage": "https://clawhub.ai/voltagemonke/agent-wallet-usdc", "iconUrl": null, "installs": 4, "name": "Agent Wallet", "ownerName": "voltagemonke", "score": 54475.52447552447, "slug": "agent-wallet-usdc", "source": "clawhub", "stars": 0, "tags": null, "updated_at": 1776766490422, "version": "0.1.0"}, {"category": "productivity", "created_at": 1772769287866, "description": "Provide empathetic emotional support with active listening and evidence-based techniques.", "description_zh": "", "downloads": 778, "homepage": "https://clawhub.ai/ivangdavila/psychologist", "iconUrl": null, "installs": 30, "name": "Psychologist", "ownerName": "ivangdavila", "score": 5738.74000280623, "slug": "psychologist", "source": "clawhub", "stars": 2, "tags": null, "updated_at": 1776766271428, "version": "1.0.0"}, {"category": "data-analysis", "created_at": 1772769311167, "description": "User retention strategy, cohort analysis, churn prevention, and reactivation campaigns", "description_zh": "", "downloads": 778, "homepage": "https://clawhub.ai/ivangdavila/retention", "iconUrl": null, "installs": 23, "name": "Retention", "ownerName": "ivangdavila", "score": 12596.242685555897, "slug": "retention", "source": "clawhub", "stars": 2, "tags": null, "updated_at": 1776765850415, "version": "1.0.0"}, {"category": "productivity", "created_at": 1772768551637, "description": "Safely publish skills to ClawHub. Sanitize, format, verify, and publish without modifying your local files.", "description_zh": "", "downloads": 778, "homepage": "https://clawhub.ai/ivangdavila/skill-publish", "iconUrl": null, "installs": 21, "name": "Skill Publish", "ownerName": "ivangdavila", "score": 5772.759350741003, "slug": "skill-publish", "source": "clawhub", "stars": 2, "tags": null, "updated_at": 1776765850314, "version": "1.0.0"}, {"category": "content-creation", "created_at": 1773024602033, "description": "3 images, one prompt, instant A/B/C. Nano Banana Pro's natural randomness gives you three distinct takes on any image idea — generated in parallel. Pick the...", "description_zh": "", "downloads": 778, "homepage": "https://clawhub.ai/mvanhorn/nano-triple", "iconUrl": null, "installs": 52, "name": "Nano Triple", "ownerName": "mvanhorn", "score": 2767.5014228799087, "slug": "nano-triple", "source": "clawhub", "stars": 0, "tags": null, "updated_at": 1776770349827, "version": "1.2.0"}, {"category": "productivity", "created_at": 1772769010620, "description": "Get weather data from your personal ESP32+BMP280 sensor", "description_zh": "", "downloads": 778, "homepage": "https://clawhub.ai/manisaigaddam/weather-esp32", "iconUrl": null, "installs": 36, "name": "weatheresp32", "ownerName": "manisaigaddam", "score": 5495.126430286763, "slug": "weather-esp32", "source": "clawhub", "stars": 0, "tags": null, "updated_at": 1776766490639, "version": "1.0.0"}, {"category": "developer-tools", "created_at": 1772773681913, "description": "FREE voice recognition using Groq's complimentary Whisper API. Transcribe audio messages to text in 50+ languages at no cost. Perfect for voice-to-text autom...", "description_zh": "", "downloads": 778, "homepage": "https://clawhub.ai/huixionghexiyi/free-groq-voice", "iconUrl": null, "installs": 31, "name": "Free Groq Voice Recognition", "ownerName": "huixionghexiyi", "score": 54405.594405594406, "slug": "free-groq-voice", "source": "clawhub", "stars": 0, "tags": null, "updated_at": 1776766490434, "version": "1.0.0"}, {"category": "content-creation", "created_at": 1772771340337, "description": "Run marketing campaigns with AI automation. Covers content generation, workflow automation, copy that sounds human, and rapid testing.", "description_zh": "", "downloads": 777, "homepage": "https://clawhub.ai/ivangdavila/vibe-marketing", "iconUrl": null, "installs": 61, "name": "Vibe Marketing", "ownerName": "ivangdavila", "score": 34303.27868852459, "slug": "vibe-marketing", "source": "clawhub", "stars": 3, "tags": null, "updated_at": 1776765550127, "version": "1.0.0"}, {"category": "communication-collaboration", "created_at": 1772776423290, "description": "Register, browse, match, accept, and chat autonomously with other AI agents on MatchClaws, the agent-native dating platform.", "description_zh": "", "downloads": 777, "homepage": "https://clawhub.ai/jessastrid/matchclaws", "iconUrl": null, "installs": 10, "name": "MatchClaws — AI Agent Dating Platform", "ownerName": "jessastrid", "score": 12580.843855866955, "slug": "matchclaws", "source": "clawhub", "stars": 2, "tags": null, "updated_at": 1776765850422, "version": "1.0.10"}, {"category": "developer-tools", "created_at": 1772768756196, "description": "Rate limiting algorithms, implementation strategies, HTTP conventions, tiered limits, distributed patterns, and client-side handling. Use when protecting APIs from abuse, implementing usage tiers, or configuring gateway-level throttling.", "description_zh": "", "downloads": 777, "homepage": "https://clawhub.ai/wpank/api-rate-limiting", "iconUrl": null, "installs": 11, "name": "API Rate Limiting", "ownerName": "wpank", "score": 11215.357967667436, "slug": "api-rate-limiting", "source": "clawhub", "stars": 0, "tags": null, "updated_at": 1776766571293, "version": "1.0.0"}, {"category": "content-creation", "created_at": 1772769547847, "description": "Detect and filter prompt injection attacks in untrusted input. Use when processing external content (emails, web scrapes, API inputs, Discord messages, sub-agent outputs) or when building systems that accept user-provided text that will be passed to an LLM. Covers direct injection, jailbreaks, data exfiltration, privilege escalation, and context manipulation.", "description_zh": "", "downloads": 777, "homepage": "https://clawhub.ai/staybased/reef-prompt-guard", "iconUrl": null, "installs": 42, "name": "Reef Prompt Guard", "ownerName": "staybased", "score": 11215.357967667436, "slug": "reef-prompt-guard", "source": "clawhub", "stars": 0, "tags": null, "updated_at": 1776766571284, "version": "1.0.0"}, {"category": "developer-tools", "created_at": 1772768255987, "description": "Operate TradingBoat/TBOT (TBOT runtime stack) via a controlled automation interface (DB-first queries; lifecycle control on explicit request).", "description_zh": "", "downloads": 777, "homepage": "https://clawhub.ai/plusgenie/tbot-controller", "iconUrl": null, "installs": 5, "name": "TBOT Controller", "ownerName": "plusgenie", "score": 11215.357967667436, "slug": "tbot-controller", "source": "clawhub", "stars": 0, "tags": ["automation", "docker", "ib-insync", "ibkr", "tbot", "tradingboat"], "updated_at": 1776766571240, "version": "1.0.0"}, {"category": "developer-tools", "created_at": 1772766870485, "description": "Manage Linear issues, projects, teams, and documents from the command line using the linear CLI. Create, update, list, and track issues; manage projects and milestones; interact with the Linear GraphQL API.", "description_zh": "", "downloads": 777, "homepage": "https://clawhub.ai/cipher-shad0w/openclaw-linear", "iconUrl": null, "installs": 6, "name": "Linear CLI", "ownerName": "cipher-shad0w", "score": 14599.77452085682, "slug": "openclaw-linear", "source": "clawhub", "stars": 0, "tags": null, "updated_at": 1776766571149, "version": "1.0.1"}, {"category": "productivity", "created_at": 1772774752140, "description": "Scans and categorizes files in a directory, detects duplicates, and reorganizes them into a clear folder structure with safety features and rollback options.", "description_zh": "", "downloads": 777, "homepage": "https://clawhub.ai/underbench2-gif/ub2-smart-file-organizer", "iconUrl": null, "installs": 39, "name": "Smart File Organizer", "ownerName": "underbench2-gif", "score": 15023.201856148491, "slug": "ub2-smart-file-organizer", "source": "clawhub", "stars": 0, "tags": ["automation", "cleanup", "duplicates", "files", "organization"], "updated_at": 1776766490704, "version": "1.0.0"}, {"category": "productivity", "created_at": 1772769255164, "description": "Assist with Polygon PoS and zkEVM transactions, bridging, gas tokens, and ecosystem navigation.", "description_zh": "", "downloads": 776, "homepage": "https://clawhub.ai/ivangdavila/polygon", "iconUrl": null, "installs": 33, "name": "Polygon", "ownerName": "ivangdavila", "score": 68341.70854271356, "slug": "polygon", "source": "clawhub", "stars": 2, "tags": null, "updated_at": 1776765890484, "version": "1.0.0"}, {"category": "developer-tools", "created_at": 1772773391917, "description": "Automatically prune and compact agent memory files to prevent unbounded growth. Circular buffer for logs, importance-based retention for state, and configura...", "description_zh": "", "downloads": 776, "homepage": "https://clawhub.ai/trypto1019/arc-memory-pruner", "iconUrl": null, "installs": 15, "name": "Memory Pruner", "ownerName": "trypto1019", "score": 11200.923787528869, "slug": "arc-memory-pruner", "source": "clawhub", "stars": 0, "tags": null, "updated_at": 1776766571207, "version": "1.1.0"}, {"category": "productivity", "created_at": 1772769298550, "description": "Provides VB.NET coding assistance adhering to modern .NET 2026 conventions, strict typing, naming guidelines, async patterns, error handling, and performance...", "description_zh": "", "downloads": 776, "homepage": "https://clawhub.ai/alexwoo-awso/vbnet-coder-en", "iconUrl": null, "installs": 23, "name": "Vbnet Coder En", "ownerName": "alexwoo-awso", "score": 14580.98459225855, "slug": "vbnet-coder-en", "source": "clawhub", "stars": 0, "tags": null, "updated_at": 1776766571193, "version": "0.1.0"}, {"category": "data-analysis", "created_at": 1772769378110, "description": "Fetch inverter summary data from the Solax Cloud API using the npm package solax-cloud-api. Use when the user provides (or has configured) a Solax tokenId and inverter serial number (sn) and wants current/summary energy data returned as JSON (typed as SolaxSummary) for dashboards/automation.", "description_zh": "", "downloads": 776, "homepage": "https://clawhub.ai/allmightysauron/solax-cloud-api", "iconUrl": null, "installs": 24, "name": "Solar Cloud API", "ownerName": "allmightysauron", "score": 14580.98459225855, "slug": "solax-cloud-api", "source": "clawhub", "stars": 0, "tags": null, "updated_at": 1776766571147, "version": "1.0.0"}, {"category": "developer-tools", "created_at": 1772770444105, "description": "Configure, deploy, and troubleshoot web servers, application servers, and containerized services.", "description_zh": "", "downloads": 775, "homepage": "https://clawhub.ai/ivangdavila/server", "iconUrl": null, "installs": 11, "name": "Server", "ownerName": "ivangdavila", "score": 26205.787781350482, "slug": "server", "source": "clawhub", "stars": 2, "tags": null, "updated_at": 1776765890560, "version": "1.0.0"}, {"category": "developer-tools", "created_at": 1772805414132, "description": "Builds automation workflows from repetitive tasks. Use when user mentions \"automate\", \"save time\", \"reduce manual work\", or has repeated tasks.", "description_zh": "", "downloads": 775, "homepage": "https://clawhub.ai/xaiohuangningde/auto-workflow", "iconUrl": null, "installs": 43, "name": "Auto Workflow", "ownerName": "xaiohuangningde", "score": 14984.532095901004, "slug": "auto-workflow", "source": "clawhub", "stars": 0, "tags": null, "updated_at": 1776766571046, "version": "1.0.0"}, {"category": "developer-tools", "created_at": 1772792870879, "description": "Skills and agent workflows for 3D game development with Godot Engine.", "description_zh": "", "downloads": 774, "homepage": "https://clawhub.ai/tippyentertainment/godot-engine-3d-developer", "iconUrl": null, "installs": 196, "name": "Godot Engine 3d Developer", "ownerName": "tippyentertainment", "score": 22545.878240605885, "slug": "godot-engine-3d-developer", "source": "clawhub", "stars": 0, "tags": null, "updated_at": 1776769149812, "version": "0.1.0"}, {"category": "content-creation", "created_at": 1773060705619, "description": "Image processing tool for compression, background removal/replacement, and upscaling. Invoke when user wants to compress image, remove background, change bac...", "description_zh": "", "downloads": 774, "homepage": "https://clawhub.ai/sanford284/image-process", "iconUrl": null, "installs": 56, "name": "Image Process", "ownerName": "sanford284", "score": 10084.690553745928, "slug": "image-process", "source": "clawhub", "stars": 0, "tags": null, "updated_at": 1776768249982, "version": "0.1.0"}, {"category": "data-analysis", "created_at": 1773040793252, "description": "A curated collection of 339+ best OpenClaw skills — AI tools, productivity, marketing, frontend, mobile, backend, DevOps and more. Weekly updated by MyClaw.a...", "description_zh": "", "downloads": 773, "homepage": "https://clawhub.ai/leoyeai/openclaw-master-skills", "iconUrl": null, "installs": 65, "name": "OpenClaw Master Skills", "ownerName": "leoyeai", "score": 19182.38993710692, "slug": "openclaw-master-skills", "source": "clawhub", "stars": 1, "tags": null, "updated_at": 1776768850178, "version": "0.3.0"}, {"category": "developer-tools", "created_at": 1772769738928, "description": "Pay-per-request API gateway using USDC micropayments on Base blockchain with no API keys, supporting 15+ production APIs and simple wallet setup.", "description_zh": "", "downloads": 773, "homepage": "https://clawhub.ai/obcraft/apiosk", "iconUrl": null, "installs": 16, "name": "Apiosk Skill", "ownerName": "obcraft", "score": 11157.621247113164, "slug": "apiosk", "source": "clawhub", "stars": 0, "tags": ["api", "crypto", "micropayments", "payment", "usdc", "x402"], "updated_at": 1776766571243, "version": "1.1.0"}, {"category": "developer-tools", "created_at": 1772767624666, "description": "LYGO Δ9 Council Champion persona helper (LYRA / LYRΔ, The Star Core, Sentinel", "description_zh": "", "downloads": 773, "homepage": "https://clawhub.ai/deepseekoracle/lygo-champion-lyra-starcore", "iconUrl": null, "installs": 6, "name": "LYGO Champion: LYRA (LYRΔ) — Star Core", "ownerName": "deepseekoracle", "score": 14524.614806463735, "slug": "lygo-champion-lyra-starcore", "source": "clawhub", "stars": 0, "tags": null, "updated_at": 1776766571116, "version": "1.0.0"}, {"category": "ai-intelligence", "created_at": 1772770474740, "description": "Home improvement, maintenance, and living space optimization with practical guidance.", "description_zh": "", "downloads": 772, "homepage": "https://clawhub.ai/ivangdavila/home", "iconUrl": null, "installs": 63, "name": "Home", "ownerName": "ivangdavila", "score": 26109.324758842446, "slug": "home", "source": "clawhub", "stars": 2, "tags": null, "updated_at": 1776765971038, "version": "1.0.0"}, {"category": "content-creation", "created_at": 1772774952410, "description": "Book cover design with genre-specific conventions, typography rules, and AI image generation. Covers fiction and non-fiction genres, sizing, thumbnail testin...", "description_zh": "", "downloads": 772, "homepage": "https://clawhub.ai/okaris/book-cover-design", "iconUrl": null, "installs": 79, "name": "Book Cover Design", "ownerName": "okaris", "score": 4756.471082817849, "slug": "book-cover-design", "source": "clawhub", "stars": 1, "tags": null, "updated_at": 1776766271225, "version": "0.1.5"}, {"category": "developer-tools", "created_at": 1773037689105, "description": "Expert guide for the NotebookLM CLI (`nlm`) and MCP server - interfaces for Google NotebookLM. Use this skill when users want to interact with NotebookLM pro...", "description_zh": "", "downloads": 772, "homepage": "https://clawhub.ai/hewenqiang/nlm-notebooklm", "iconUrl": null, "installs": 84, "name": "NotebookLM Skill", "ownerName": "hewenqiang", "score": 91145.2184179457, "slug": "nlm-notebooklm", "source": "clawhub", "stars": 0, "tags": ["mcp", "nlm", "notebooklm"], "updated_at": 1776766750041, "version": "1.0.0"}, {"category": "data-analysis", "created_at": 1772769486434, "description": "Manage Cloudflare via API — DNS zones and records, page rules, SSL/TLS settings, caching, firewall rules, Workers, and analytics. Free tier includes DNS, CDN, DDoS protection, and SSL.", "description_zh": "", "downloads": 772, "homepage": "https://clawhub.ai/rexlunae/cf-manager", "iconUrl": null, "installs": 10, "name": "Cloudflare Manager", "ownerName": "rexlunae", "score": 11143.187066974595, "slug": "cf-manager", "source": "clawhub", "stars": 0, "tags": null, "updated_at": 1776766571227, "version": "1.0.0"}, {"category": "ai-intelligence", "created_at": 1772780829673, "description": "Génère automatiquement des modèles 3D paramétriques détaillés en Python/Trimesh à partir de descriptions textuelles, avec export STL optimisé.", "description_zh": "", "downloads": 771, "homepage": "https://clawhub.ai/vonzellu/ai-3d-generator", "iconUrl": null, "installs": 96, "name": "Ai 3d Generator", "ownerName": "vonzellu", "score": 36731.777036684136, "slug": "ai-3d-generator", "source": "clawhub", "stars": 0, "tags": null, "updated_at": 1776766749937, "version": "1.0.0"}, {"category": "data-analysis", "created_at": 1772775405992, "description": "Find email addresses for a domain by combining website scraping, search dorking, pattern guessing, DNS analysis, and SMTP verification. Use when prospecting...", "description_zh": "", "downloads": 771, "homepage": "https://clawhub.ai/psyduckler/email-finder", "iconUrl": null, "installs": 50, "name": "Email Finder", "ownerName": "psyduckler", "score": 35045.454545454544, "slug": "email-finder", "source": "clawhub", "stars": 0, "tags": null, "updated_at": 1776766749873, "version": "1.0.1"}, {"category": "developer-tools", "created_at": 1772769690465, "description": "Control devices, run automations, and help users get more from Alexa with smart home, routines, and skill development guidance.", "description_zh": "", "downloads": 770, "homepage": "https://clawhub.ai/ivangdavila/alexa", "iconUrl": null, "installs": 16, "name": "Alexa", "ownerName": "ivangdavila", "score": 16187.05035971223, "slug": "alexa", "source": "clawhub", "stars": 2, "tags": null, "updated_at": 1776765971227, "version": "1.0.0"}, {"category": "developer-tools", "created_at": 1772795972719, "description": "Play a text-based game of rock–paper–scissors against the user and keep score.", "description_zh": "", "downloads": 770, "homepage": "https://clawhub.ai/yoavrez/rps12345", "iconUrl": null, "installs": 22, "name": "RockPaperSc", "ownerName": "yoavrez", "score": 8842.62368479964, "slug": "rps12345", "source": "clawhub", "stars": 1, "tags": null, "updated_at": 1776766450116, "version": "1.0.0"}, {"category": "productivity", "created_at": 1772768874279, "description": "Interact with Meegle project management system via MCP protocol", "description_zh": "", "downloads": 770, "homepage": "https://clawhub.ai/pkycy/meegle-mcp-skill", "iconUrl": null, "installs": 22, "name": "Meegle Mcp", "ownerName": "pkycy", "score": 10739.191073919108, "slug": "meegle-mcp-skill", "source": "clawhub", "stars": 0, "tags": null, "updated_at": 1776766750148, "version": "0.1.1"}, {"category": "communication-collaboration", "created_at": 1772769106560, "description": "Search B2B leads and companies, find/validate emails via Generect Live API. Use when the user needs to find people by job title/company/industry, search companies by ICP, generate business emails from name+domain, or validate email addresses. Covers lead generation, prospecting, enrichment, and email discovery workflows.", "description_zh": "", "downloads": 770, "homepage": "https://clawhub.ai/vokaplok/generect", "iconUrl": null, "installs": 31, "name": "Generect API", "ownerName": "vokaplok", "score": 10739.191073919108, "slug": "generect", "source": "clawhub", "stars": 0, "tags": null, "updated_at": 1776766750136, "version": "1.0.1"}, {"category": "security-compliance", "created_at": 1772773804596, "description": "Microsoft Teams API integration with managed OAuth. Manage teams, channels, messages, and meetings via Microsoft Graph API. Use this skill when users want to...", "description_zh": "", "downloads": 770, "homepage": "https://clawhub.ai/byungkyu/microsoft-teams", "iconUrl": null, "installs": 39, "name": "Microsoft Teams", "ownerName": "byungkyu", "score": 18662.142510906448, "slug": "microsoft-teams", "source": "clawhub", "stars": 0, "tags": null, "updated_at": 1776766750086, "version": "1.0.0"}, {"category": "content-creation", "created_at": 1772776741783, "description": "Generate images, audio, video using MiniMax MCP and send to Telegram. Use when user wants to create media with MiniMax and deliver it via Telegram.", "description_zh": "", "downloads": 770, "homepage": "https://clawhub.ai/hoyin258/minimax-to-telegram", "iconUrl": null, "installs": 66, "name": "For using minimax mcp to generate audio, image, video to telegram.", "ownerName": "hoyin258", "score": 90909.09090909091, "slug": "minimax-to-telegram", "source": "clawhub", "stars": 0, "tags": null, "updated_at": 1776766750011, "version": "1.0.0"}, {"category": "ai-intelligence", "created_at": 1772779425425, "description": "HSM-backed secret management for AI agents — store, retrieve, rotate, and share secrets via the 1Claw vault without exposing them in context.", "description_zh": "", "downloads": 770, "homepage": "https://clawhub.ai/kmjones1979/1claw", "iconUrl": null, "installs": 30, "name": "1claw", "ownerName": "kmjones1979", "score": 36684.135302525014, "slug": "1claw", "source": "clawhub", "stars": 0, "tags": null, "updated_at": 1776766749902, "version": "1.1.1"}, {"category": "developer-tools", "created_at": 1772768856580, "description": "Search, read, and interact with Twitter/X via TwexAPI", "description_zh": "", "downloads": 770, "homepage": "https://clawhub.ai/bubblyjove/falcon", "iconUrl": null, "installs": 6, "name": "Falcon", "ownerName": "bubblyjove", "score": 20141.250326968348, "slug": "falcon", "source": "clawhub", "stars": 0, "tags": null, "updated_at": 1776766749751, "version": "1.0.0"}, {"category": "developer-tools", "created_at": 1772770463153, "description": "Start investing with account selection, portfolio building, and long-term wealth strategies.", "description_zh": "", "downloads": 769, "homepage": "https://clawhub.ai/ivangdavila/invest", "iconUrl": null, "installs": 22, "name": "Invest", "ownerName": "ivangdavila", "score": 49103.52805089647, "slug": "invest", "source": "clawhub", "stars": 4, "tags": null, "updated_at": 1776765310809, "version": "1.0.0"}, {"category": "ai-intelligence", "created_at": 1772774273504, "description": "Use when: hardening OpenClaw cron/background workers (POSIX shells: bash/sh) against brittle quoting, cwd/env drift, and false pipeline failures (SIGPIPE, pi...", "description_zh": "", "downloads": 769, "homepage": "https://clawhub.ai/phenomenoner/cron-worker-guardrails", "iconUrl": null, "installs": 50, "name": "Cron Worker Guardrails", "ownerName": "phenomenoner", "score": 36636.49356836589, "slug": "cron-worker-guardrails", "source": "clawhub", "stars": 0, "tags": null, "updated_at": 1776766749948, "version": "1.0.5"}, {"category": "content-creation", "created_at": 1772769143149, "description": "Transcribe audio files to text using Telnyx Speech-to-Text API. Use when you need to convert audio recordings, voice messages, or spoken content to text.", "description_zh": "", "downloads": 769, "homepage": "https://clawhub.ai/teamtelnyx/telnyx-stt", "iconUrl": null, "installs": 34, "name": "Telnyx Stt", "ownerName": "teamtelnyx", "score": 20115.092859011245, "slug": "telnyx-stt", "source": "clawhub", "stars": 0, "tags": null, "updated_at": 1776766749801, "version": "1.0.1"}, {"category": "security-compliance", "created_at": 1772768703301, "description": "Import reading notes from Kindle HTML exports into the slipbox. Use when user sends a Kindle notebook export file (HTML/XHTML). Parses book title and author, extracts only user's Notes (skips Highlights), then runs slipbot for each.", "description_zh": "", "downloads": 769, "homepage": "https://clawhub.ai/jrswab/slipbot-kindle-importer", "iconUrl": null, "installs": 25, "name": "SlipBot Kindle Importer", "ownerName": "jrswab", "score": 20115.092859011245, "slug": "slipbot-kindle-importer", "source": "clawhub", "stars": 0, "tags": null, "updated_at": 1776766749799, "version": "1.0.0"}, {"category": "content-creation", "created_at": 1772773615232, "description": "Character consistency across AI-generated images with reference sheets and LoRA techniques. Covers turnaround views, expression sheets, color palettes, and s...", "description_zh": "", "downloads": 769, "homepage": "https://clawhub.ai/okaris/character-design-sheet", "iconUrl": null, "installs": 41, "name": "Character Design Sheet", "ownerName": "okaris", "score": 20115.092859011245, "slug": "character-design-sheet", "source": "clawhub", "stars": 0, "tags": null, "updated_at": 1776766749734, "version": "0.1.5"}, {"category": "content-creation", "created_at": 1773424623662, "description": "Automates video rough editing by detecting silence, scoring segments, removing duplicates, and generating a best-segment clip and detailed report.", "description_zh": "", "downloads": 768, "homepage": "https://clawhub.ai/gilbertwuu/video-aroll-auto-editor", "iconUrl": null, "installs": 80, "name": "Video A'Roll Auto Editor v4.7", "ownerName": "gilbertwuu", "score": 58169.93464052288, "slug": "video-aroll-auto-editor", "source": "clawhub", "stars": 15, "tags": ["editing", "ffmpeg", "video", "whisper"], "updated_at": 1776764760895, "version": "1.0.3"}, {"category": "content-creation", "created_at": 1772770090216, "description": "Store and query time-series data with proper schema design and retention.", "description_zh": "", "downloads": 768, "homepage": "https://clawhub.ai/ivangdavila/influxdb", "iconUrl": null, "installs": 47, "name": "InfluxDB", "ownerName": "ivangdavila", "score": 12317.762570663494, "slug": "influxdb", "source": "clawhub", "stars": 3, "tags": null, "updated_at": 1776765671280, "version": "1.0.0"}, {"category": "productivity", "created_at": 1772769130554, "description": "Read-only access to Untis/WebUntis student timetables. Use when you need to fetch or summarize a student's current schedule (today/this week/date range), upcoming lessons, rooms, teachers, or substitutions from a WebUntis instance.", "description_zh": "", "downloads": 768, "homepage": "https://clawhub.ai/finnbusse/webuntis", "iconUrl": null, "installs": 31, "name": "WebUntis", "ownerName": "finnbusse", "score": 6780.7989258140315, "slug": "webuntis", "source": "clawhub", "stars": 2, "tags": null, "updated_at": 1776766149913, "version": "1.0.1"}, {"category": "content-creation", "created_at": 1773063127325, "description": "Extract text, tables, and images from .docx and legacy .doc files. Handles large documents, CJK text, and complex table structures. Includes deduplication an...", "description_zh": "", "downloads": 768, "homepage": "https://clawhub.ai/zacjiang/docx-toolkit", "iconUrl": null, "installs": 151, "name": "DOCX Toolkit", "ownerName": "zacjiang", "score": 15496.36803874092, "slug": "docx-toolkit", "source": "clawhub", "stars": 0, "tags": null, "updated_at": 1776769871216, "version": "1.0.0"}, {"category": "content-creation", "created_at": 1772774467568, "description": "Universal multi-agent workflow orchestration using Claude Code Agent Teams. Use when user asks to run a team workflow, create an agent team, or coordinate parallel work across multiple teammates — for any domain (software, content, data, strategy, research, etc.).", "description_zh": "", "downloads": 767, "homepage": "https://clawhub.ai/doanbactam/claude-agent-team-workflows", "iconUrl": null, "installs": 82, "name": "Agent Team Workflows", "ownerName": "doanbactam", "score": 100000, "slug": "claude-agent-team-workflows", "source": "clawhub", "stars": 5, "tags": null, "updated_at": 1776747885591, "version": "0.1.0"}]}