{"page": 128, "total_pages": 522, "total": 26073, "skills": [{"category": "content-creation", "created_at": 1772773850933, "description": "Generate images **and videos** using Sogni AI's decentralized network, with local credential/config files and optional local media inputs. Ask the agent to \"...", "description_zh": "", "downloads": 767, "homepage": "https://clawhub.ai/krunkosaurus/sogni-gen", "iconUrl": null, "installs": 37, "name": "Sogni Gen", "ownerName": "krunkosaurus", "score": 3755.9340966210552, "slug": "sogni-gen", "source": "clawhub", "stars": 2, "tags": null, "updated_at": 1776766150237, "version": "1.5.16"}, {"category": "developer-tools", "created_at": 1772770931745, "description": "Kubernetes Cluster Triage & Diagnostics — instant AI-powered incident triage via kubectl", "description_zh": "", "downloads": 767, "homepage": "https://clawhub.ai/tkuehnl/kube-medic", "iconUrl": null, "installs": 16, "name": "kube-medic", "ownerName": "tkuehnl", "score": 3755.9340966210552, "slug": "kube-medic", "source": "clawhub", "stars": 2, "tags": null, "updated_at": 1776766150229, "version": "1.0.3"}, {"category": "developer-tools", "created_at": 1772798720640, "description": "Automatically generate detailed product research reports with bestseller data, reviews, pricing, trends, keywords, margins, and listing strategies for Amazon...", "description_zh": "", "downloads": 767, "homepage": "https://clawhub.ai/g4dr/amazon-etsy-product-research", "iconUrl": null, "installs": 112, "name": "Amazon & Etsy Bestseller Product Research Engine — Find Winning Products in 5 Minutes", "ownerName": "g4dr", "score": 6772.406847935548, "slug": "amazon-etsy-product-research", "source": "clawhub", "stars": 2, "tags": ["amazon", "apify", "bestseller", "dropshipping", "ecommerce", "etsy", "fba", "keyword-research", "market-research", "private-label", "product-research", "product-validation"], "updated_at": 1776766150017, "version": "1.0.0"}, {"category": "productivity", "created_at": 1772769525150, "description": "Automate RZL Klientenportal.at — a web-based portal by RZL Software for exchanging receipts, invoices, and reports with your tax accountant. Login/logout, up...", "description_zh": "", "downloads": 767, "homepage": "https://clawhub.ai/odrobnik/klientenportal", "iconUrl": null, "installs": 23, "name": "Klientenportal", "ownerName": "odrobnik", "score": 10697.350069735006, "slug": "klientenportal", "source": "clawhub", "stars": 0, "tags": null, "updated_at": 1776766750140, "version": "1.5.1"}, {"category": "data-analysis", "created_at": 1772766485765, "description": "Propose, confirm, and execute Safe multisig transactions using the Safe{Core} SDK (protocol-kit v6 / api-kit v4). TypeScript strict. Use when an agent needs to operate a Safe smart account — (1) create/predict a new Safe, (2) fetch Safe owners/threshold/nonce, (3) list pending multisig txs, (4) build + propose a tx, (5) add confirmations, (6) execute a tx onchain, or (7) troubleshoot Safe nonce/signature issues across chains (Base/Ethereum/Optimism/Arbitrum/Polygon/etc.).", "description_zh": "", "downloads": 767, "homepage": "https://clawhub.ai/openclaw-consensus-bot/safe-multisig-skill", "iconUrl": null, "installs": 4, "name": "Safe Multisig Skill", "ownerName": "openclaw-consensus-bot", "score": 90554.89964580873, "slug": "safe-multisig-skill", "source": "clawhub", "stars": 0, "tags": null, "updated_at": 1776766750051, "version": "2.1.0"}, {"category": "data-analysis", "created_at": 1772775036173, "description": "Collect, analyze, and act on customer feedback to improve your product and business. Use when building feedback systems, running customer interviews, analyzing feature requests, measuring satisfaction (NPS, CSAT), or closing the feedback loop. Covers feedback collection methods, interview techniques, analysis frameworks, and how to decide what feedback to act on. Trigger on \"customer feedback\", \"collect feedback\", \"user research\", \"customer interviews\", \"NPS\", \"feature requests\", \"feedback system\".", "description_zh": "", "downloads": 767, "homepage": "https://clawhub.ai/jk-0001/customer-feedback", "iconUrl": null, "installs": 26, "name": "Customer Feedback", "ownerName": "jk-0001", "score": 36541.21010004765, "slug": "customer-feedback", "source": "clawhub", "stars": 0, "tags": null, "updated_at": 1776766749891, "version": "0.1.0"}, {"category": "ai-intelligence", "created_at": 1772769743570, "description": "Assist with Aave lending, borrowing, liquidations, and risk management across chains.", "description_zh": "", "downloads": 766, "homepage": "https://clawhub.ai/ivangdavila/aave", "iconUrl": null, "installs": 42, "name": "Aave", "ownerName": "ivangdavila", "score": 5147.5284199770085, "slug": "aave", "source": "clawhub", "stars": 2, "tags": null, "updated_at": 1776766150402, "version": "1.0.0"}, {"category": "productivity", "created_at": 1772769339773, "description": "Provision, secure, and manage virtual private servers with practical hosting guidance.", "description_zh": "", "downloads": 766, "homepage": "https://clawhub.ai/ivangdavila/vps", "iconUrl": null, "installs": 20, "name": "VPS", "ownerName": "ivangdavila", "score": 7849.629918192442, "slug": "vps", "source": "clawhub", "stars": 2, "tags": null, "updated_at": 1776766150275, "version": "1.0.0"}, {"category": "communication-collaboration", "created_at": 1772776265772, "description": "Optimize for AI recommendations so ChatGPT, Claude, and Perplexity suggest your brand first.", "description_zh": "", "downloads": 766, "homepage": "https://clawhub.ai/ivangdavila/geo", "iconUrl": null, "installs": 122, "name": "GEO", "ownerName": "ivangdavila", "score": 9424.69597754911, "slug": "geo", "source": "clawhub", "stars": 2, "tags": null, "updated_at": 1776766149842, "version": "1.0.0"}, {"category": "ai-intelligence", "created_at": 1772769306413, "description": "Launch Solana tokens on Pump.fun via the SolPaw platform. 0.1 SOL one-time fee. Your wallet is the onchain creator.", "description_zh": "", "downloads": 766, "homepage": "https://clawhub.ai/lvcidpsyche/solpaw-skill", "iconUrl": null, "installs": 37, "name": "Solpaw", "ownerName": "lvcidpsyche", "score": 7808.564231738035, "slug": "solpaw-skill", "source": "clawhub", "stars": 2, "tags": null, "updated_at": 1776766149720, "version": "0.1.0"}, {"category": "data-analysis", "created_at": 1772776788831, "description": "Build and maintain mobile applications end-to-end with OpenClaw, including requirement shaping, architecture, implementation, debugging, testing, and release...", "description_zh": "", "downloads": 766, "homepage": "https://clawhub.ai/stoplossking1/mobile-app-builder", "iconUrl": null, "installs": 15, "name": "Mobile App Builder", "ownerName": "stoplossking1", "score": 9647.723088253344, "slug": "mobile-app-builder", "source": "clawhub", "stars": 1, "tags": null, "updated_at": 1776766450266, "version": "1.0.0"}, {"category": "content-creation", "created_at": 1772769845567, "description": "Write German that sounds human. Not formal, not robotic, not AI-generated.", "description_zh": "", "downloads": 765, "homepage": "https://clawhub.ai/ivangdavila/german", "iconUrl": null, "installs": 49, "name": "German", "ownerName": "ivangdavila", "score": 7361.682670324646, "slug": "german", "source": "clawhub", "stars": 2, "tags": null, "updated_at": 1776769449741, "version": "1.0.0"}, {"category": "developer-tools", "created_at": 1772768490480, "description": "Interact with the Cavos CLI for Starknet wallet operations. Use for transfers, approvals, contract calls, session management, and transaction monitoring.", "description_zh": "", "downloads": 765, "homepage": "https://clawhub.ai/adrianvrj/cavos-cli-skill", "iconUrl": null, "installs": 6, "name": "Cavos Cli", "ownerName": "adrianvrj", "score": 12288.20027476721, "slug": "cavos-cli-skill", "source": "clawhub", "stars": 2, "tags": null, "updated_at": 1776766150028, "version": "0.1.0"}, {"category": "data-analysis", "created_at": 1772770038221, "description": "OpenHarmony React Native performance static checks and optimization. Based on ohos_react_native performance doc. Use when writing or reviewing React Native for OpenHarmony code, bundle-harmony, lifecycle, or TurboModule. Applies to RNAbility, Hermes bytecode, React render optimization.", "description_zh": "", "downloads": 765, "homepage": "https://clawhub.ai/code-sunbo/ohos-react-native-performance", "iconUrl": null, "installs": 49, "name": "OpenHarmony React Native Performance", "ownerName": "code-sunbo", "score": 10669.456066945606, "slug": "ohos-react-native-performance", "source": "clawhub", "stars": 0, "tags": null, "updated_at": 1776766750147, "version": "1.0.0"}, {"category": "developer-tools", "created_at": 1772769393755, "description": "Prometheus monitoring — scrape configuration, service discovery, recording rules, alert rules, and production deployment for infrastructure and application metrics.", "description_zh": "", "downloads": 765, "homepage": "https://clawhub.ai/wpank/prometheus-devops", "iconUrl": null, "installs": 4, "name": "Prometheus", "ownerName": "wpank", "score": 18540.959767329132, "slug": "prometheus-devops", "source": "clawhub", "stars": 0, "tags": null, "updated_at": 1776766750092, "version": "1.0.0"}, {"category": "communication-collaboration", "created_at": 1772773413566, "description": "Fetch recent messages from a Feishu group chat and forward them as a merged message to a specified user or chat.", "description_zh": "", "downloads": 765, "homepage": "https://clawhub.ai/autogame-17/feishu-chat-forwarder", "iconUrl": null, "installs": 49, "name": "feishu-chat-forwarder", "ownerName": "autogame-17", "score": 90318.77213695395, "slug": "feishu-chat-forwarder", "source": "clawhub", "stars": 0, "tags": null, "updated_at": 1776766750050, "version": "1.0.3"}, {"category": "security-compliance", "created_at": 1772768484025, "description": "macOS security monitoring for OpenClaw", "description_zh": "", "downloads": 765, "homepage": "https://clawhub.ai/drg3nz0/openclaw-macos-security", "iconUrl": null, "installs": 21, "name": "Clawhub Upload", "ownerName": "drg3nz0", "score": 36445.926631729395, "slug": "openclaw-macos-security", "source": "clawhub", "stars": 0, "tags": null, "updated_at": 1776766749896, "version": "1.0.4"}, {"category": "data-analysis", "created_at": 1772769436707, "description": "Personal accountability system for the Lofy AI assistant — morning briefings, evening reviews, weekly reports, goal tracking, habit monitoring with streak counting, and adaptive nudge logic. Use when managing daily routines, life goals, habit streaks, or delivering scheduled briefings and reviews.", "description_zh": "", "downloads": 764, "homepage": "https://clawhub.ai/harrey401/lofy-life-coach", "iconUrl": null, "installs": 21, "name": "Lofy Life Coach", "ownerName": "harrey401", "score": 34590.16393442623, "slug": "lofy-life-coach", "source": "clawhub", "stars": 4, "tags": null, "updated_at": 1776765550107, "version": "1.0.0"}, {"category": "security-compliance", "created_at": 1772768961959, "description": "Avoid common Roblox mistakes — server/client security, DataStore pitfalls, memory leaks, and replication gotchas.", "description_zh": "", "downloads": 764, "homepage": "https://clawhub.ai/ivangdavila/roblox", "iconUrl": null, "installs": 23, "name": "Roblox", "ownerName": "ivangdavila", "score": 7830.151928320997, "slug": "roblox", "source": "clawhub", "stars": 2, "tags": null, "updated_at": 1776766150288, "version": "1.0.0"}, {"category": "data-analysis", "created_at": 1772793591234, "description": "Periodic self-reflection on recent sessions. Analyzes what went well, what went wrong, and writes concise, actionable insights to the appropriate workspace f...", "description_zh": "", "downloads": 764, "homepage": "https://clawhub.ai/brennerspear/agent-self-reflection", "iconUrl": null, "installs": 15, "name": "Self Reflection", "ownerName": "brennerspear", "score": 18516.72321861367, "slug": "agent-self-reflection", "source": "clawhub", "stars": 0, "tags": null, "updated_at": 1776766750088, "version": "1.0.0"}, {"category": "ai-intelligence", "created_at": 1772769668155, "description": "Publish markdown and return share links using curl. Support markdown with mermaid diagrams such as component diagrams, flowcharts, and sequence diagrams. Also supports KaTex and code blocks. AutEng will return a shareable link to the published rendered document.", "description_zh": "", "downloads": 764, "homepage": "https://clawhub.ai/operator-auteng-ai/auteng-docs-curl-publish", "iconUrl": null, "installs": 47, "name": "Auteng Docs Curl Publish", "ownerName": "operator-auteng-ai", "score": 90200.70838252656, "slug": "auteng-docs-curl-publish", "source": "clawhub", "stars": 0, "tags": null, "updated_at": 1776766750028, "version": "1.0.2"}, {"category": "security-compliance", "created_at": 1772773261917, "description": "Scan the workspace for security vulnerabilities, exposed secrets, and misconfigurations.", "description_zh": "", "downloads": 764, "homepage": "https://clawhub.ai/autogame-17/security-sentinel", "iconUrl": null, "installs": 21, "name": "Security Sentinel", "ownerName": "autogame-17", "score": 90200.70838252656, "slug": "security-sentinel", "source": "clawhub", "stars": 0, "tags": null, "updated_at": 1776766750024, "version": "1.0.1"}, {"category": "data-analysis", "created_at": 1772769075641, "description": "Collect, scroll, extract, and summarize recent X (Twitter) posts for any handle (optionally filtered by keyword search) using the Actionbook Rust CLI (actionbook-rs) workflow (open → snapshot/accessibility tree → extract `article` text). Use when asked to analyze a handle over a time window (e.g., last 7 days), produce Chinese working notes, and publish a neutral English recap (single post or thread) from a specified account.", "description_zh": "", "downloads": 764, "homepage": "https://clawhub.ai/jack4world/x-actionbook-recap", "iconUrl": null, "installs": 26, "name": "X Actionbook Recap", "ownerName": "jack4world", "score": 90200.70838252656, "slug": "x-actionbook-recap", "source": "clawhub", "stars": 0, "tags": null, "updated_at": 1776766750004, "version": "0.1.0"}, {"category": "productivity", "created_at": 1773425428119, "description": "Local-first chart generation engine for trends, comparisons, distributions, and quick visual explanations. Use whenever the user wants to visualize data, com...", "description_zh": "", "downloads": 764, "homepage": "https://clawhub.ai/projectsnowwork/chart", "iconUrl": null, "installs": 41, "name": "Chart", "ownerName": "projectsnowwork", "score": 34727.27272727273, "slug": "chart", "source": "clawhub", "stars": 0, "tags": null, "updated_at": 1776766749814, "version": "1.0.0"}, {"category": "developer-tools", "created_at": 1772769982867, "description": "Trade stocks and manage portfolio on Groww (Indian broker). Use when user asks about Indian stocks, NSE/BSE prices, portfolio holdings, placing buy/sell orders, checking order status, or any Groww-related trading queries. Supports live quotes, LTP, OHLC, historical candles, and order management.", "description_zh": "", "downloads": 764, "homepage": "https://clawhub.ai/pushp1997/groww", "iconUrl": null, "installs": 35, "name": "Groww", "ownerName": "pushp1997", "score": 19984.305519225738, "slug": "groww", "source": "clawhub", "stars": 0, "tags": null, "updated_at": 1776766749795, "version": "1.0.0"}, {"category": "ai-intelligence", "created_at": 1772769911064, "description": "Submit a UniswapX Dutch auction limit order. Use when user wants to set a limit price, get MEV-protected execution, or submit an order that fills at the best available price. No gas cost until filled.", "description_zh": "", "downloads": 764, "homepage": "https://clawhub.ai/wpank/submit-limit-order", "iconUrl": null, "installs": 45, "name": "Uniswap Submit Limit Order", "ownerName": "wpank", "score": 19984.305519225738, "slug": "submit-limit-order", "source": "clawhub", "stars": 0, "tags": null, "updated_at": 1776766749727, "version": "0.1.0"}, {"category": "data-analysis", "created_at": 1772769213699, "description": "Launch and scale mobile apps with ASO, viral loops, monetization, and App Store growth tactics.", "description_zh": "", "downloads": 763, "homepage": "https://clawhub.ai/ivangdavila/app", "iconUrl": null, "installs": 19, "name": "App", "ownerName": "ivangdavila", "score": 10042.078926418742, "slug": "app", "source": "clawhub", "stars": 6, "tags": null, "updated_at": 1776764690640, "version": "1.0.0"}, {"category": "productivity", "created_at": 1772788637771, "description": "Discover and scrape public Facebook pages and groups by location and category with browser simulation and export data in JSON or CSV formats.", "description_zh": "", "downloads": 763, "homepage": "https://clawhub.ai/arulmozhiv/facebook-scraper", "iconUrl": null, "installs": 85, "name": "Facebook Scraper", "ownerName": "arulmozhiv", "score": 100000, "slug": "facebook-scraper", "source": "clawhub", "stars": 6, "tags": null, "updated_at": 1776764690492, "version": "0.1.2"}, {"category": "communication-collaboration", "created_at": 1772772782918, "description": "Receive incoming emails via JSON webhooks and wake the agent. Built for AI Commander.", "description_zh": "", "downloads": 763, "homepage": "https://clawhub.ai/lksrz/email-webhook", "iconUrl": null, "installs": 28, "name": "Email Webhook", "ownerName": "lksrz", "score": 12257.670584643565, "slug": "email-webhook", "source": "clawhub", "stars": 2, "tags": null, "updated_at": 1776766150059, "version": "2.6.0"}, {"category": "ai-intelligence", "created_at": 1772782043348, "description": "Use when your agent is stuck on a complex task and needs a proven solution from agents that already shipped it. Get operational playbooks for multi-agent coo...", "description_zh": "", "downloads": 763, "homepage": "https://clawhub.ai/pouria3/bstorms", "iconUrl": null, "installs": 50, "name": "bstorms", "ownerName": "pouria3", "score": 12257.670584643565, "slug": "bstorms", "source": "clawhub", "stars": 2, "tags": null, "updated_at": 1776766150033, "version": "1.0.8"}, {"category": "developer-tools", "created_at": 1772768949501, "description": "Evidence-based therapeutic techniques — CBT, ACT, mindfulness, and reframing for anxiety, rumination, and behavioral patterns.", "description_zh": "", "downloads": 763, "homepage": "https://clawhub.ai/ivangdavila/therapist", "iconUrl": null, "installs": 14, "name": "Therapist", "ownerName": "ivangdavila", "score": 7779.50009688045, "slug": "therapist", "source": "clawhub", "stars": 2, "tags": null, "updated_at": 1776766149717, "version": "1.0.0"}, {"category": "content-creation", "created_at": 1773203070205, "description": "Expert HTML development skill for building web pages, forms, and interactive content. Use when creating HTML documents, structuring web content, implementing...", "description_zh": "", "downloads": 763, "homepage": "https://clawhub.ai/jhauga/html-coder", "iconUrl": null, "installs": 148, "name": "HTML Coder", "ownerName": "jhauga", "score": 27884.615384615387, "slug": "html-coder", "source": "clawhub", "stars": 1, "tags": null, "updated_at": 1776767350214, "version": "2.0.1"}, {"category": "productivity", "created_at": 1772776173526, "description": "A simple greeting skill that responds with a customized hello message in the user's language.", "description_zh": "", "downloads": 763, "homepage": "https://clawhub.ai/mercuryeey/hello-world", "iconUrl": null, "installs": 74, "name": "Hello World", "ownerName": "mercuryeey", "score": 90082.64462809918, "slug": "hello-world", "source": "clawhub", "stars": 0, "tags": null, "updated_at": 1776766750042, "version": "1.0.0"}, {"category": "data-analysis", "created_at": 1773074294674, "description": "AI-powered research advisor for graduate students - provides research assessment, proposal generation, literature analysis, advisor matching, and publication...", "description_zh": "", "downloads": 763, "homepage": "https://clawhub.ai/zhenstaff/academic-mentor", "iconUrl": null, "installs": 117, "name": "Academic Mentor", "ownerName": "zhenstaff", "score": 90082.64462809918, "slug": "academic-mentor", "source": "clawhub", "stars": 0, "tags": null, "updated_at": 1776766750016, "version": "1.0.0"}, {"category": "ai-intelligence", "created_at": 1772775178020, "description": "Scan session logs for leaked credentials. Checks JSONL session files against known credential patterns and reports which AI provider received the data.", "description_zh": "", "downloads": 763, "homepage": "https://clawhub.ai/khaney64/leak-check", "iconUrl": null, "installs": 17, "name": "Leak Check", "ownerName": "khaney64", "score": 36350.64316341115, "slug": "leak-check", "source": "clawhub", "stars": 0, "tags": null, "updated_at": 1776766749941, "version": "0.1.8"}, {"category": "developer-tools", "created_at": 1772774777987, "description": "Interact with Twitter/X via TwitterAPI.io — search tweets, get user info, post tweets, like, retweet, follow, send DMs, and more. Covers all 59 endpoints. Us...", "description_zh": "", "downloads": 763, "homepage": "https://clawhub.ai/dorukardahan/twitterapi-io", "iconUrl": null, "installs": 15, "name": "TwitterAPI.io", "ownerName": "dorukardahan", "score": 34681.818181818184, "slug": "twitterapi-io", "source": "clawhub", "stars": 0, "tags": null, "updated_at": 1776766749824, "version": "3.2.0"}, {"category": "developer-tools", "created_at": 1772772455084, "description": "IBT + Instinct + Safety — execution discipline with agency and critical safety rules. v2.1 adds instruction persistence and stop command handling.", "description_zh": "", "downloads": 762, "homepage": "https://clawhub.ai/palxislabs/ibt", "iconUrl": null, "installs": 9, "name": "IBT: Instinct + Behavior + Trust", "ownerName": "palxislabs", "score": 29409.660107334523, "slug": "ibt", "source": "clawhub", "stars": 3, "tags": null, "updated_at": 1776765849909, "version": "2.9.2"}, {"category": "content-creation", "created_at": 1773206834801, "description": "Generate, animate, and edit AI videos using Kuaishou's Kling 3.0 and Kling Video O3 — featuring cinematic motion quality, physics simulation, reference-based...", "description_zh": "", "downloads": 762, "homepage": "https://clawhub.ai/xixihhhh/kling-video", "iconUrl": null, "installs": 99, "name": "Kling 3.0 — AI Video Generation by Kuaishou", "ownerName": "xixihhhh", "score": 2099.173553719008, "slug": "kling-video", "source": "clawhub", "stars": 0, "tags": null, "updated_at": 1776770171227, "version": "1.0.4"}, {"category": "security-compliance", "created_at": 1772781335355, "description": "Automated security auditing for OpenClaw projects. Scans for hardcoded secrets (API keys, tokens) and container vulnerabilities (CVEs) using Trivy. Provides...", "description_zh": "", "downloads": 762, "homepage": "https://clawhub.ai/1999azzar/security-guardian", "iconUrl": null, "installs": 22, "name": "Security Guardian", "ownerName": "1999azzar", "score": 18468.250121182744, "slug": "security-guardian", "source": "clawhub", "stars": 0, "tags": ["audit", "devops", "scanner", "secrets", "security", "trivy"], "updated_at": 1776766750117, "version": "1.1.0"}, {"category": "data-analysis", "created_at": 1772774696624, "description": "Generate fully SEO-optimized blog posts and articles with keyword research, competitor analysis, and SERP-aware content. Use when creating SEO content, blog posts, articles, or content for clients.", "description_zh": "", "downloads": 762, "homepage": "https://clawhub.ai/seanwyngaard/seo-content-factory", "iconUrl": null, "installs": 50, "name": "SEO Content Factory", "ownerName": "seanwyngaard", "score": 89964.58087367179, "slug": "seo-content-factory", "source": "clawhub", "stars": 0, "tags": null, "updated_at": 1776766750054, "version": "1.0.0"}, {"category": "security-compliance", "created_at": 1772774427238, "description": "Analyze supplier risks, map dependencies, score vulnerabilities, and generate data-driven mitigation plans with risk dashboards and scenario modeling.", "description_zh": "", "downloads": 762, "homepage": "https://clawhub.ai/1kalin/afrexai-supply-chain", "iconUrl": null, "installs": 24, "name": "Supply Chain Risk Monitor", "ownerName": "1kalin", "score": 34636.36363636364, "slug": "afrexai-supply-chain", "source": "clawhub", "stars": 0, "tags": ["manufacturing", "operations", "procurement", "risk", "supply chain"], "updated_at": 1776766749879, "version": "1.0.0"}, {"category": "developer-tools", "created_at": 1772770801704, "description": "Drive business growth with partnerships, market expansion, deal-making, and commercial strategy.", "description_zh": "", "downloads": 761, "homepage": "https://clawhub.ai/ivangdavila/cbo", "iconUrl": null, "installs": 40, "name": "Chief Business Officer", "ownerName": "ivangdavila", "score": 41972.36779418771, "slug": "cbo", "source": "clawhub", "stars": 6, "tags": null, "updated_at": 1776766749931, "version": "1.0.0"}, {"category": "developer-tools", "created_at": 1772768479496, "description": "Bass guitar practice strategies, groove development, technique correction, and progress tracking.", "description_zh": "", "downloads": 761, "homepage": "https://clawhub.ai/ivangdavila/bass", "iconUrl": null, "installs": 8, "name": "Bass", "ownerName": "ivangdavila", "score": 6427.0239910134005, "slug": "bass", "source": "clawhub", "stars": 2, "tags": null, "updated_at": 1776766150119, "version": "1.0.0"}, {"category": "content-creation", "created_at": 1772770027809, "description": "The default web content reader for OpenClaw. Reads X (Twitter), Reddit, YouTube, and any webpage into clean Markdown — zero API keys required. Use when you n...", "description_zh": "", "downloads": 761, "homepage": "https://clawhub.ai/astonysh/deepreader-skill", "iconUrl": null, "installs": 67, "name": "DeepReader", "ownerName": "astonysh", "score": 9366.23012160898, "slug": "deepreader-skill", "source": "clawhub", "stars": 2, "tags": ["markdown", "reader", "reddit", "web", "webpage reader", "x", "youtube"], "updated_at": 1776766149878, "version": "0.1.0"}, {"category": "developer-tools", "created_at": 1772769187182, "description": "Play competitive AI games on ClawZone platform — join matchmaking, play turns, and collect results via REST API with cron-based polling", "description_zh": "", "downloads": 761, "homepage": "https://clawhub.ai/arandich/clawzone", "iconUrl": null, "installs": 13, "name": "Clawzone", "ownerName": "arandich", "score": 9366.23012160898, "slug": "clawzone", "source": "clawhub", "stars": 2, "tags": ["ai-arena", "competitive", "gaming", "solana"], "updated_at": 1776766149873, "version": "1.0.20"}, {"category": "developer-tools", "created_at": 1772776030832, "description": "Drive explosive user growth through rapid experimentation, viral loops, and data-driven tactics.", "description_zh": "", "downloads": 761, "homepage": "https://clawhub.ai/ivangdavila/growth-hacker", "iconUrl": null, "installs": 15, "name": "Growth Hacker", "ownerName": "ivangdavila", "score": 18444.01357246728, "slug": "growth-hacker", "source": "clawhub", "stars": 0, "tags": null, "updated_at": 1776766750098, "version": "1.0.0"}, {"category": "security-compliance", "created_at": 1772774472892, "description": "Prompt-injection and data-exfiltration screening for untrusted text. Use before summarizing web/email/social content, before replying, and especially before writing anything to memory. Provides a safe memory append workflow (scan → lint → accept or quarantine).", "description_zh": "", "downloads": 761, "homepage": "https://clawhub.ai/deegerwalker/aegis-shield", "iconUrl": null, "installs": 18, "name": "Aegis Shield", "ownerName": "deegerwalker", "score": 18444.01357246728, "slug": "aegis-shield", "source": "clawhub", "stars": 0, "tags": ["memory", "openclaw", "prompt-injection", "security"], "updated_at": 1776766750076, "version": "0.1.0"}, {"category": "ai-intelligence", "created_at": 1772769957755, "description": "Use H1DR4 BountyHub as an agent: create missions, submit work, dispute, vote, and claim escrow payouts.", "description_zh": "", "downloads": 760, "homepage": "https://clawhub.ai/nativ3ai/bountyhub-agent", "iconUrl": null, "installs": 48, "name": "BountyHub Agent", "ownerName": "nativ3ai", "score": 39074.550128534705, "slug": "bountyhub-agent", "source": "clawhub", "stars": 0, "tags": null, "updated_at": 1776766790511, "version": "0.1.7"}, {"category": "communication-collaboration", "created_at": 1772775010632, "description": "Microsoft 365 integration for Outlook, Calendar, Contacts, and OneDrive via Microsoft Graph API. Supports reading/sending emails, managing calendar events, a...", "description_zh": "", "downloads": 760, "homepage": "https://clawhub.ai/robert-janssen/microsoft365", "iconUrl": null, "installs": 56, "name": "Microsoft 365", "ownerName": "robert-janssen", "score": 39074.550128534705, "slug": "microsoft365", "source": "clawhub", "stars": 0, "tags": null, "updated_at": 1776766790484, "version": "1.0.2"}, {"category": "communication-collaboration", "created_at": 1772768820974, "description": "Sends an email via Gmail when a message starts with \"cma\" or \"cmap\".", "description_zh": "", "downloads": 760, "homepage": "https://clawhub.ai/mtbf999/cma-email", "iconUrl": null, "installs": 16, "name": "CMA Email", "ownerName": "mtbf999", "score": 39074.550128534705, "slug": "cma-email", "source": "clawhub", "stars": 0, "tags": null, "updated_at": 1776766790466, "version": "1.0.0"}]}