{"page": 129, "total_pages": 522, "total": 26073, "skills": [{"category": "data-analysis", "created_at": 1773424714080, "description": "Enables any skill to gain self-evolution capabilities. Use when: (1) User asks to add self-evolution to a skill, (2) User wants a skill to learn from feedbac...", "description_zh": "", "downloads": 760, "homepage": "https://clawhub.ai/zhaobudaoyuema/skill-self-evolution-enhancer", "iconUrl": null, "installs": 55, "name": "Skill Self Evolution Enhancer", "ownerName": "zhaobudaoyuema", "score": 41484.71615720524, "slug": "skill-self-evolution-enhancer", "source": "clawhub", "stars": 0, "tags": null, "updated_at": 1776766790424, "version": "1.0.0"}, {"category": "content-creation", "created_at": 1772783932187, "description": "Chemistry agent skill for PubChem API queries (compound info/properties, structures/SMILES/images, synthesis routes/references) + RDKit cheminformatics (SMIL...", "description_zh": "", "downloads": 760, "homepage": "https://clawhub.ai/cheminem/chemistry-query", "iconUrl": null, "installs": 96, "name": "Chemistry Query", "ownerName": "cheminem", "score": 41484.71615720524, "slug": "chemistry-query", "source": "clawhub", "stars": 0, "tags": ["cheminformatics", "chemisry", "compounds", "drug-discovery", "molecules", "pubchem", "rdkit", "retrosynthesis", "smiles", "structures"], "updated_at": 1776766750388, "version": "1.0.0"}, {"category": "content-creation", "created_at": 1772769854285, "description": "Write Russian that sounds human. Not formal, not robotic, not AI-generated.", "description_zh": "", "downloads": 758, "homepage": "https://clawhub.ai/ivangdavila/russian", "iconUrl": null, "installs": 40, "name": "Russian", "ownerName": "ivangdavila", "score": 11985.581255632322, "slug": "russian", "source": "clawhub", "stars": 2, "tags": null, "updated_at": 1776769449841, "version": "1.0.0"}, {"category": "productivity", "created_at": 1772773732868, "description": "Generate practice tests, flashcards, study schedules, and timed simulations from any study material.", "description_zh": "", "downloads": 758, "homepage": "https://clawhub.ai/ivangdavila/exam", "iconUrl": null, "installs": 31, "name": "Exam", "ownerName": "ivangdavila", "score": 32307.69230769231, "slug": "exam", "source": "clawhub", "stars": 2, "tags": null, "updated_at": 1776766190487, "version": "1.0.0"}, {"category": "developer-tools", "created_at": 1772769779055, "description": "Unified LLM Gateway - One API for 70+ AI models. Route to GPT, Claude, Gemini, Qwen, Deepseek, Grok and more with a single API key.", "description_zh": "", "downloads": 758, "homepage": "https://clawhub.ai/bowen-dotcom/aisa-llm-router-skill", "iconUrl": null, "installs": 29, "name": "LLM Router Gateway", "ownerName": "bowen-dotcom", "score": 11491.813220133414, "slug": "aisa-llm-router-skill", "source": "clawhub", "stars": 0, "tags": null, "updated_at": 1776766790534, "version": "1.0.0"}, {"category": "productivity", "created_at": 1773959976667, "description": "�� PDF �ļ�ת��Ϊ Word �ĵ���.docx��", "description_zh": "", "downloads": 757, "homepage": "https://clawhub.ai/zhao1263445468/pdf-to-word", "iconUrl": null, "installs": 193, "name": "pdf-to-word", "ownerName": "zhao1263445468", "score": 34749.55277280859, "slug": "pdf-to-word", "source": "clawhub", "stars": 1, "tags": null, "updated_at": 1776767049747, "version": "1.0.0"}, {"category": "communication-collaboration", "created_at": 1772768624848, "description": "Osori v1.6.1 — Local project registry & context loader with Telegram slash commands. Registry versioning + auto-migration + root filters + root management +...", "description_zh": "", "downloads": 757, "homepage": "https://clawhub.ai/oozoofrog/osori", "iconUrl": null, "installs": 16, "name": "Osori", "ownerName": "oozoofrog", "score": 33855.098389982115, "slug": "osori", "source": "clawhub", "stars": 0, "tags": null, "updated_at": 1776766871242, "version": "1.6.1"}, {"category": "communication-collaboration", "created_at": 1772771672371, "description": "Sync and cache per-thread context for Discord Forum channels. Use when handling /discord-context commands to poll active threads, list cached context, inspec...", "description_zh": "", "downloads": 757, "homepage": "https://clawhub.ai/demitrim/discord-context", "iconUrl": null, "installs": 17, "name": "Discord Context", "ownerName": "demitrim", "score": 13882.266642215294, "slug": "discord-context", "source": "clawhub", "stars": 0, "tags": null, "updated_at": 1776766871161, "version": "0.1.1"}, {"category": "data-analysis", "created_at": 1772780251310, "description": "Hire specialised agents to handle any task — data analysis, trading, content generation, research, on-chain operations, 3D printing, physical goods, gift del...", "description_zh": "", "downloads": 757, "homepage": "https://clawhub.ai/chris6970barbarian-hue/acp", "iconUrl": null, "installs": 37, "name": "Acp", "ownerName": "chris6970barbarian-hue", "score": 13882.266642215294, "slug": "acp", "source": "clawhub", "stars": 0, "tags": null, "updated_at": 1776766871159, "version": "1.0.0"}, {"category": "communication-collaboration", "created_at": 1772772755007, "description": "Transform your agent from chatbot to copilot with context persistence, proactive anticipation, and opinionated help across sessions.", "description_zh": "", "downloads": 756, "homepage": "https://clawhub.ai/ivangdavila/copilot", "iconUrl": null, "installs": 40, "name": "Copilot", "ownerName": "ivangdavila", "score": 14739.06911142454, "slug": "copilot", "source": "clawhub", "stars": 4, "tags": null, "updated_at": 1776765550381, "version": "1.0.0"}, {"category": "developer-tools", "created_at": 1773910106424, "description": "Run code snippets in 30+ programming languages including JavaScript, Python, TypeScript, Java, C, C++, Go, Rust, Ruby, PHP, and more. Use when the user wants...", "description_zh": "", "downloads": 756, "homepage": "https://clawhub.ai/formulahendry/code-runner", "iconUrl": null, "installs": 89, "name": "Code Runner", "ownerName": "formulahendry", "score": 19359.795134443022, "slug": "code-runner", "source": "clawhub", "stars": 0, "tags": null, "updated_at": 1776770050175, "version": "0.1.0"}, {"category": "developer-tools", "created_at": 1772769179403, "description": "Connect to a user's investment accounts via SnapTrade SDK and generate portfolio reports (e.g., daily total value). Use when the user wants SnapTrade-based b...", "description_zh": "", "downloads": 756, "homepage": "https://clawhub.ai/brendanwood/portfolio-trader", "iconUrl": null, "installs": 17, "name": "Portfolio Trader", "ownerName": "brendanwood", "score": 13863.928112965341, "slug": "portfolio-trader", "source": "clawhub", "stars": 0, "tags": null, "updated_at": 1776766871181, "version": "1.1.0"}, {"category": "developer-tools", "created_at": 1772768956834, "description": "Search and browse the x402 bazaar marketplace for paid API services. Use when you or the user want to find available services, see what's available, discover APIs, or need an external service to accomplish a task. Also use as a fallback when no other skill clearly matches — search the bazaar to see if a paid service exists. Covers \"what can I do?\", \"find me an API for...\", \"what services are available?\", \"search for...\", \"browse the bazaar\".", "description_zh": "", "downloads": 756, "homepage": "https://clawhub.ai/0xrag/search-for-service", "iconUrl": null, "installs": 12, "name": "Search For Service", "ownerName": "0xrag", "score": 15195.979899497488, "slug": "search-for-service", "source": "clawhub", "stars": 0, "tags": null, "updated_at": 1776766871124, "version": "0.1.0"}, {"category": "developer-tools", "created_at": 1772769266694, "description": "Make a paid API request to an x402 endpoint with automatic USDC payment. Use when you or the user want to call a paid API, make an x402 request, use a paid service, or pay for an API call. Use after finding a service with search-for-service.", "description_zh": "", "downloads": 756, "homepage": "https://clawhub.ai/0xrag/pay-for-service", "iconUrl": null, "installs": 11, "name": "Pay For Service", "ownerName": "0xrag", "score": 15195.979899497488, "slug": "pay-for-service", "source": "clawhub", "stars": 0, "tags": null, "updated_at": 1776766871114, "version": "0.1.0"}, {"category": "developer-tools", "created_at": 1773287444829, "description": "Optimize long-context reasoning for commercial, legal, and high-stakes documents. Built for users who need stronger logic, cleaner structure, and deeper anal...", "description_zh": "", "downloads": 756, "homepage": "https://clawhub.ai/duclawbot/claude", "iconUrl": null, "installs": 124, "name": "Claude", "ownerName": "duclawbot", "score": 15195.979899497488, "slug": "claude", "source": "clawhub", "stars": 0, "tags": null, "updated_at": 1776766871105, "version": "1.0.0"}, {"category": "developer-tools", "created_at": 1772769383239, "description": "Uses dupe.com APIs in order to find similar products for the product found in the input URL given by the user.", "description_zh": "", "downloads": 755, "homepage": "https://clawhub.ai/crisanmm/dupe", "iconUrl": null, "installs": 9, "name": "Dupe", "ownerName": "crisanmm", "score": 12636.198547215496, "slug": "dupe", "source": "clawhub", "stars": 4, "tags": null, "updated_at": 1776765590443, "version": "1.0.0"}, {"category": "productivity", "created_at": 1772769467413, "description": "Choose and manage web hosting services for websites and apps without server administration.", "description_zh": "", "downloads": 755, "homepage": "https://clawhub.ai/ivangdavila/hosting", "iconUrl": null, "installs": 20, "name": "Hosting", "ownerName": "ivangdavila", "score": 5408.163265306122, "slug": "hosting", "source": "clawhub", "stars": 2, "tags": null, "updated_at": 1776766271346, "version": "1.0.0"}, {"category": "content-creation", "created_at": 1773091009670, "description": "A local-first Instagram content system for hooks, captions, content structure, and draft storage. Acts as The Attention Sculptor to optimize stop-rate and re...", "description_zh": "", "downloads": 755, "homepage": "https://clawhub.ai/agenticio/instagram", "iconUrl": null, "installs": 47, "name": "Instagram", "ownerName": "agenticio", "score": 14562.194663660277, "slug": "instagram", "source": "clawhub", "stars": 1, "tags": ["content", "creator", "engagement", "growth", "instagram", "social", "social-media"], "updated_at": 1776766571127, "version": "2.1.1"}, {"category": "content-creation", "created_at": 1774613474742, "description": "Generate or edit AI images with the NanoPhoto.AI Nano Banana Pro API. Use when: (1) User wants text-to-image generation from a prompt, (2) User wants image-t...", "description_zh": "", "downloads": 754, "homepage": "https://clawhub.ai/nanophotohq/nanophoto-nano-banana-pro", "iconUrl": null, "installs": 37, "name": "Nano Banana Pro", "ownerName": "nanophotohq", "score": 5401.360544217687, "slug": "nanophoto-nano-banana-pro", "source": "clawhub", "stars": 2, "tags": ["banana", "edit", "generation", "image", "nanophoto"], "updated_at": 1776766271376, "version": "1.0.1"}, {"category": "data-analysis", "created_at": 1773201311474, "description": "Extract structured data from PDFs, images, and Word files with layout analysis, table recognition, OCR, seal detection, and directory extraction.", "description_zh": "", "downloads": 754, "homepage": "https://clawhub.ai/ankylala/document-parser", "iconUrl": null, "installs": 38, "name": "document-parser", "ownerName": "ankylala", "score": 33720.93023255814, "slug": "document-parser", "source": "clawhub", "stars": 0, "tags": null, "updated_at": 1776766871249, "version": "1.0.1"}, {"category": "ai-intelligence", "created_at": 1772771296579, "description": "Explain Earth's rocks, processes, and history from field trips to research.", "description_zh": "", "downloads": 753, "homepage": "https://clawhub.ai/ivangdavila/geology", "iconUrl": null, "installs": 53, "name": "Geology", "ownerName": "ivangdavila", "score": 5394.557823129251, "slug": "geology", "source": "clawhub", "stars": 2, "tags": null, "updated_at": 1776766271404, "version": "1.0.0"}, {"category": "content-creation", "created_at": 1772774496069, "description": "Automation skill for DELLIGHT CMO Content & Marketing.", "description_zh": "", "downloads": 753, "homepage": "https://clawhub.ai/arthurelgindell/dellight-cmo-content-marketing", "iconUrl": null, "installs": 41, "name": "DELLIGHT CMO Content Marketing", "ownerName": "arthurelgindell", "score": 15135.6783919598, "slug": "dellight-cmo-content-marketing", "source": "clawhub", "stars": 0, "tags": ["c-suite", "dellight", "marketing"], "updated_at": 1776766871142, "version": "1.1.0"}, {"category": "communication-collaboration", "created_at": 1772769654272, "description": "Search indexed Discord community discussions via Answer Overflow. Find solutions to coding problems, library issues, and community Q&A that only exist in Discord conversations.", "description_zh": "", "downloads": 753, "homepage": "https://clawhub.ai/brave88heart/answeroverflow-1-0-2", "iconUrl": null, "installs": 38, "name": "Answeroverflow 1.0.2", "ownerName": "brave88heart", "score": 15135.6783919598, "slug": "answeroverflow-1-0-2", "source": "clawhub", "stars": 0, "tags": null, "updated_at": 1776766871121, "version": "1.0.0"}, {"category": "data-analysis", "created_at": 1772775257895, "description": "Transform rough ideas into professional-grade LLM prompts. Analyzes text, images, links, and documents to craft optimized prompts using proven frameworks (Co...", "description_zh": "", "downloads": 753, "homepage": "https://clawhub.ai/abdullah4ai/prompt-architect", "iconUrl": null, "installs": 53, "name": "Prompt Architect", "ownerName": "abdullah4ai", "score": 15135.6783919598, "slug": "prompt-architect", "source": "clawhub", "stars": 0, "tags": null, "updated_at": 1776766871111, "version": "1.0.0"}, {"category": "developer-tools", "created_at": 1772770336415, "description": "SOUL.md Maker — the personality builder for OpenClaw agents. Browse 12 pre-built souls, build your own with a guided interview (Quick or Deep), blend persona...", "description_zh": "", "downloads": 752, "homepage": "https://clawhub.ai/jeffjhunter/soul-md-maker", "iconUrl": null, "installs": 25, "name": "SOUL.md Maker", "ownerName": "jeffjhunter", "score": 43112.614789753505, "slug": "soul-md-maker", "source": "clawhub", "stars": 7, "tags": null, "updated_at": 1776764650446, "version": "1.0.5"}, {"category": "content-creation", "created_at": 1772784912713, "description": "Writes and runs tests (unit, integration, E2E), performs linting, and auto-fixes failures", "description_zh": "", "downloads": 752, "homepage": "https://clawhub.ai/guifav/test-sentinel", "iconUrl": null, "installs": 28, "name": "Test Sentinel", "ownerName": "guifav", "score": 37807.94369029663, "slug": "test-sentinel", "source": "clawhub", "stars": 0, "tags": null, "updated_at": 1776767050098, "version": "0.1.2"}, {"category": "content-creation", "created_at": 1772774863995, "description": "Build, launch, and optimize Webflow sites with responsive design, CMS architecture, and clean handoffs.", "description_zh": "", "downloads": 752, "homepage": "https://clawhub.ai/ivangdavila/webflow", "iconUrl": null, "installs": 43, "name": "Webflow", "ownerName": "ivangdavila", "score": 79914.98405951116, "slug": "webflow", "source": "clawhub", "stars": 0, "tags": null, "updated_at": 1776767049971, "version": "1.0.0"}, {"category": "developer-tools", "created_at": 1773042581769, "description": "Plan, operate, and recover relational databases with schema governance, safe migrations, backup drills, and incident response playbooks.", "description_zh": "", "downloads": 752, "homepage": "https://clawhub.ai/ivangdavila/database-manager", "iconUrl": null, "installs": 32, "name": "Database Manager", "ownerName": "ivangdavila", "score": 79914.98405951116, "slug": "database-manager", "source": "clawhub", "stars": 0, "tags": null, "updated_at": 1776767049933, "version": "1.0.0"}, {"category": "developer-tools", "created_at": 1772768403147, "description": "Violin practice strategies, technique correction, intonation development, and progress tracking.", "description_zh": "", "downloads": 751, "homepage": "https://clawhub.ai/ivangdavila/violin", "iconUrl": null, "installs": 9, "name": "Violin", "ownerName": "ivangdavila", "score": 9709.095372529764, "slug": "violin", "source": "clawhub", "stars": 2, "tags": null, "updated_at": 1776766450218, "version": "1.0.0"}, {"category": "security-compliance", "created_at": 1772772808838, "description": "Ensures OpenClaw gateway auth consistency. Use when checking or fixing gateway token/password mismatch, device_token_mismatch errors, or before delegating to...", "description_zh": "", "downloads": 751, "homepage": "https://clawhub.ai/runeweaverstudios/gateway-guard", "iconUrl": null, "installs": 25, "name": "Gateway Guard", "ownerName": "runeweaverstudios", "score": 8740.331491712708, "slug": "gateway-guard", "source": "clawhub", "stars": 2, "tags": null, "updated_at": 1776766450185, "version": "1.0.7"}, {"category": "data-analysis", "created_at": 1773056906600, "description": "SignalRadar — Monitor Polymarket prediction markets for probability changes and send alerts when thresholds are crossed. Use when user asks to \"add a Polymar...", "description_zh": "", "downloads": 751, "homepage": "https://clawhub.ai/vahnxu/signalradar", "iconUrl": null, "installs": 12, "name": "Signalradar", "ownerName": "vahnxu", "score": 8555.050832792558, "slug": "signalradar", "source": "clawhub", "stars": 2, "tags": ["beta", "monitoring", "polymarket", "prediction-markets"], "updated_at": 1776766450002, "version": "1.0.8"}, {"category": "data-analysis", "created_at": 1772773860689, "description": "Analyze YouTube videos by synchronizing transcript text with visual frames to produce detailed summaries, step-by-step guides, and content understanding.", "description_zh": "", "downloads": 751, "homepage": "https://clawhub.ai/sdrabent/youtube-video-analyzer", "iconUrl": null, "installs": 36, "name": "Youtube Video Analyzer", "ownerName": "sdrabent", "score": 36731.777036684136, "slug": "youtube-video-analyzer", "source": "clawhub", "stars": 1, "tags": null, "updated_at": 1776766749924, "version": "1.0.0"}, {"category": "data-analysis", "created_at": 1772774482061, "description": "Enhanced agentic loop with planning, parallel execution, confidence gates, semantic error recovery, and observable state machine. Includes Mode dashboard UI...", "description_zh": "", "downloads": 751, "homepage": "https://clawhub.ai/maverick-software/agent-mode-upgrades", "iconUrl": null, "installs": 37, "name": "Agentic Mode Upgrades", "ownerName": "maverick-software", "score": 8106.649395509499, "slug": "agent-mode-upgrades", "source": "clawhub", "stars": 0, "tags": null, "updated_at": 1776767050178, "version": "2.3.1"}, {"category": "data-analysis", "created_at": 1772769409957, "description": "Coordination layer for OpenClaw agent fleets (tasks, messaging, activity feed, dashboard).", "description_zh": "", "downloads": 751, "homepage": "https://clawhub.ai/lludlow/clawctl", "iconUrl": null, "installs": 34, "name": "Clawctl", "ownerName": "lludlow", "score": 24826.446280991735, "slug": "clawctl", "source": "clawhub", "stars": 0, "tags": null, "updated_at": 1776767050015, "version": "0.1.0"}, {"category": "developer-tools", "created_at": 1772771508539, "description": "Compress OpenClaw session context to reduce token usage and extend session lifetime. Uses NLP summarization (Sumy) to intelligently compact conversation history while preserving essential context. Triggers on mentions of session compression, token reduction, context cleanup, or when session size exceeds safe thresholds (~300KB). Use when (1) OpenClaw approaches 50% context limit, (2) Sessions are slowing down due to large context, (3) Reducing API costs from excessive token consumption, (4) Extending session lifetime without forced reboots.", "description_zh": "", "downloads": 751, "homepage": "https://clawhub.ai/beboxos/clawpressor", "iconUrl": null, "installs": 20, "name": "Session Context Compressor", "ownerName": "beboxos", "score": 24826.446280991735, "slug": "clawpressor", "source": "clawhub", "stars": 0, "tags": ["compression", "context", "optimization", "session", "tokens"], "updated_at": 1776767050009, "version": "1.0.0"}, {"category": "data-analysis", "created_at": 1772769018026, "description": "Gets the latest AI-generated crypto trading analysis (BUY / SELL / WAIT) for spot trading pairs from the Consortium AI.", "description_zh": "", "downloads": 751, "homepage": "https://clawhub.ai/webcraft3r/consortiumai-analysis", "iconUrl": null, "installs": 26, "name": "Consortium AI Analysis", "ownerName": "webcraft3r", "score": 79808.71413390011, "slug": "consortiumai-analysis", "source": "clawhub", "stars": 0, "tags": null, "updated_at": 1776767049951, "version": "1.0.0"}, {"category": "developer-tools", "created_at": 1772770367131, "description": "Navigate online marketplaces as buyer, seller, or builder with platform comparison, listing optimization, and scam detection.", "description_zh": "", "downloads": 750, "homepage": "https://clawhub.ai/ivangdavila/marketplace", "iconUrl": null, "installs": 21, "name": "Marketplace", "ownerName": "ivangdavila", "score": 16781.23736352608, "slug": "marketplace", "source": "clawhub", "stars": 4, "tags": null, "updated_at": 1776765850357, "version": "1.0.1"}, {"category": "ai-intelligence", "created_at": 1772774075066, "description": "Test your agent's input sanitization against common injection attacks. Runs self-contained checks using synthetic test data only — no local files are accessed.", "description_zh": "", "downloads": 750, "homepage": "https://clawhub.ai/x1xhlol/agent-hardening", "iconUrl": null, "installs": 45, "name": "Agent Hardening", "ownerName": "x1xhlol", "score": 8295.852073963018, "slug": "agent-hardening", "source": "clawhub", "stars": 4, "tags": null, "updated_at": 1776765671216, "version": "1.1.2"}, {"category": "content-creation", "created_at": 1772772344769, "description": "Design, build, and deploy AI agents with architecture patterns, framework selection, memory systems, and production safety.", "description_zh": "", "downloads": 750, "homepage": "https://clawhub.ai/ivangdavila/agents", "iconUrl": null, "installs": 52, "name": "Agents", "ownerName": "ivangdavila", "score": 3768.5445785431475, "slug": "agents", "source": "clawhub", "stars": 2, "tags": null, "updated_at": 1776766450484, "version": "1.0.0"}, {"category": "developer-tools", "created_at": 1772772729874, "description": "Search, compare, and book accommodation across platforms with real pricing, user preferences, and end-to-end execution.", "description_zh": "", "downloads": 750, "homepage": "https://clawhub.ai/ivangdavila/booking", "iconUrl": null, "installs": 19, "name": "Booking", "ownerName": "ivangdavila", "score": 8671.78924259056, "slug": "booking", "source": "clawhub", "stars": 2, "tags": null, "updated_at": 1776766449762, "version": "1.0.0"}, {"category": "ai-intelligence", "created_at": 1773067921968, "description": "Godot MCP (Model Context Protocol) integration enabling AI assistants to directly interact with Godot Editor. Use when working with Godot projects through AI...", "description_zh": "", "downloads": 750, "homepage": "https://clawhub.ai/thb32133451/godot-mcp", "iconUrl": null, "installs": 280, "name": "Godot MCP Integration", "ownerName": "thb32133451", "score": 11379.15339098771, "slug": "godot-mcp", "source": "clawhub", "stars": 0, "tags": null, "updated_at": 1776769150164, "version": "1.0.0"}, {"category": "ai-intelligence", "created_at": 1772769742074, "description": "Daily triage of Wilma school notifications for Finnish parents. Fetches exams, messages, news, schedules, and homework — filters for actionable items, syncs...", "description_zh": "", "downloads": 750, "homepage": "https://clawhub.ai/aikarjal/wilma-triage", "iconUrl": null, "installs": 36, "name": "Wilma Triage", "ownerName": "aikarjal", "score": 53879.310344827594, "slug": "wilma-triage", "source": "clawhub", "stars": 0, "tags": null, "updated_at": 1776767050219, "version": "1.0.1"}, {"category": "ai-intelligence", "created_at": 1772785549930, "description": "AI agent for finance search agent strategy tasks", "description_zh": "", "downloads": 750, "homepage": "https://clawhub.ai/sophiaashi/finance-search-agent-strategy", "iconUrl": null, "installs": 160, "name": "Finance Search Agent Strategy", "ownerName": "sophiaashi", "score": 8095.854922279792, "slug": "finance-search-agent-strategy", "source": "clawhub", "stars": 0, "tags": null, "updated_at": 1776767050158, "version": "0.1.0"}, {"category": "data-analysis", "created_at": 1772791730634, "description": "AI-native ERP system. Full accounting, invoicing, inventory, purchasing, tax, billing, HR, payroll, advanced accounting (ASC 606/842, intercompany, consolida...", "description_zh": "", "downloads": 750, "homepage": "https://clawhub.ai/mailnike/erpclaw", "iconUrl": null, "installs": 62, "name": "Erpclaw", "ownerName": "mailnike", "score": 17470.300489168414, "slug": "erpclaw", "source": "clawhub", "stars": 0, "tags": null, "updated_at": 1776767049855, "version": "3.1.2"}, {"category": "ai-intelligence", "created_at": 1772772511682, "description": "View, add, and execute Aavegotchi Baazaar listings on Base mainnet (8453). Buy with GHST directly or buy with USDC using swapAndBuy*. Safety-first: dryRun de...", "description_zh": "", "downloads": 749, "homepage": "https://clawhub.ai/cinnabarhorse/aavegotchi-baazaar", "iconUrl": null, "installs": 38, "name": "Aavegotchi Baazaar", "ownerName": "cinnabarhorse", "score": 53807.471264367814, "slug": "aavegotchi-baazaar", "source": "clawhub", "stars": 0, "tags": null, "updated_at": 1776767050235, "version": "0.1.4"}, {"category": "developer-tools", "created_at": 1772770305365, "description": "Build sessions_spawn command payloads from JSON profiles. Use when you want reusable subagent profiles (model/thinking/timeout/cleanup/agentId/label) and com...", "description_zh": "", "downloads": 749, "homepage": "https://clawhub.ai/nextaltair/subagent-spawn-command-builder", "iconUrl": null, "installs": 19, "name": "Subagent Spawn Command Builder", "ownerName": "nextaltair", "score": 8085.060449050087, "slug": "subagent-spawn-command-builder", "source": "clawhub", "stars": 0, "tags": null, "updated_at": 1776767050143, "version": "0.1.2"}, {"category": "ai-intelligence", "created_at": 1772773033802, "description": "Context layer for your agent. ToggleX captures the user's work sessions, projects, focus scores, and context switches across the web — giving the agent aware...", "description_zh": "", "downloads": 748, "homepage": "https://clawhub.ai/aleksandar-jive/toggle", "iconUrl": null, "installs": 64, "name": "Toggle", "ownerName": "aleksandar-jive", "score": 8982.095162726284, "slug": "toggle", "source": "clawhub", "stars": 8, "tags": null, "updated_at": 1776764349798, "version": "1.0.6"}, {"category": "developer-tools", "created_at": 1772774810069, "description": "Guide to building, deploying, and selling automated crypto trading bots using Python, APIs, and proven strategies for consistent profits.", "description_zh": "", "downloads": 748, "homepage": "https://clawhub.ai/katrina-jpg/crypto-trading-bot-playbook", "iconUrl": null, "installs": 29, "name": "Crypto Trading Bot Playbook", "ownerName": "katrina-jpg", "score": 9315.521929306064, "slug": "crypto-trading-bot-playbook", "source": "clawhub", "stars": 2, "tags": null, "updated_at": 1776766450419, "version": "1.0.0"}, {"category": "content-creation", "created_at": 1772769696105, "description": "AI-powered web and code search, content extraction, URL crawling, and asynchronous research with customizable schema and filters using EXA_API_KEY.", "description_zh": "", "downloads": 748, "homepage": "https://clawhub.ai/xieshaocong33ethan/exa-full", "iconUrl": null, "installs": 38, "name": "Exa", "ownerName": "xieshaocong33ethan", "score": 8707.182320441989, "slug": "exa-full", "source": "clawhub", "stars": 2, "tags": null, "updated_at": 1776766450191, "version": "1.2.1"}, {"category": "developer-tools", "created_at": 1772769596748, "description": "Fully conversational remote job finder for WhatsApp powered by Remote Rocketship. Uses rr_jobs_search tool (server-side RR_API_KEY) and supports pagination (...", "description_zh": "", "downloads": 748, "homepage": "https://clawhub.ai/lior539/remote-jobs-finder", "iconUrl": null, "installs": 13, "name": "Remote Jobs Finder", "ownerName": "lior539", "score": 10537.57689221717, "slug": "remote-jobs-finder", "source": "clawhub", "stars": 2, "tags": null, "updated_at": 1776766450133, "version": "1.6.2"}]}