{"page": 13, "total_pages": 22, "total": 1089, "skills": [{"slug": "huggingface-skills", "name": "huggingface/skills", "description": "Official Hugging Face skills - Models, Spaces, datasets, inference, and broader Hugging Face ecosystem workflows.", "description_zh": "", "homepage": "https://github.com/huggingface/skills", "tags": ["Official Sources"], "category": "Official Sources", "ownerName": "huggingface", "sources": ["sickn33/antigravity-awesome-skills"], "score": 500, "downloads": 0, "stars": 0, "installs": 0, "version": "", "updated_at": 0}, {"slug": "huggingface-transformers-js", "name": "huggingface/transformers.js", "description": "Run ML models in the browser with Transformers.js", "description_zh": "", "homepage": "https://officialskills.sh/huggingface/skills/transformers.js", "tags": ["Skills by Typefully"], "category": "Skills by Typefully", "ownerName": "", "sources": ["VoltAgent/awesome-agent-skills"], "score": 499, "downloads": 0, "stars": 0, "installs": 0, "version": "", "updated_at": 0}, {"slug": "huifer-wellally-health", "name": "huifer/WellAlly-health", "description": "Healthcare assistant project cited in release history as a source for health-focused agent capabilities (MIT).", "description_zh": "", "homepage": "https://github.com/huifer/WellAlly-health", "tags": ["Community Contributors"], "category": "Community Contributors", "ownerName": "huifer", "sources": ["sickn33/antigravity-awesome-skills"], "score": 498, "downloads": 0, "stars": 0, "installs": 0, "version": "", "updated_at": 0}, {"slug": "image-enhancer", "name": "Image Enhancer", "description": "Improves image and screenshot quality by enhancing resolution, sharpness, and clarity for professional presentations and documentation.", "description_zh": "", "homepage": "./image-enhancer", "tags": ["Creative & Media"], "category": "Creative & Media", "ownerName": "", "sources": ["ComposioHQ/awesome-claude-skills"], "score": 497, "downloads": 0, "stars": 0, "installs": 0, "version": "", "updated_at": 0}, {"slug": "instagram-automation", "name": "Instagram Automation", "description": "Automate Instagram: posts, stories, comments, media, and business insights.", "description_zh": "", "homepage": "./instagram-automation", "tags": ["App Automation via Composio"], "category": "App Automation via Composio", "ownerName": "", "sources": ["ComposioHQ/awesome-claude-skills"], "score": 496, "downloads": 0, "stars": 0, "installs": 0, "version": "", "updated_at": 0}, {"slug": "intercom-automation", "name": "Intercom Automation", "description": "Automate Intercom: conversations, contacts, companies, tickets, and articles.", "description_zh": "", "homepage": "./intercom-automation", "tags": ["App Automation via Composio"], "category": "App Automation via Composio", "ownerName": "", "sources": ["ComposioHQ/awesome-claude-skills"], "score": 495, "downloads": 0, "stars": 0, "installs": 0, "version": "", "updated_at": 0}, {"slug": "internal-comms", "name": "Internal Comms", "description": "Helps write internal communications including 3P updates, company newsletters, FAQs, status reports, and project updates using company-specific formats.", "description_zh": "", "homepage": "./internal-comms", "tags": ["Business & Marketing"], "category": "Business & Marketing", "ownerName": "", "sources": ["ComposioHQ/awesome-claude-skills"], "score": 494, "downloads": 0, "stars": 0, "installs": 0, "version": "", "updated_at": 0}, {"slug": "invoice-organizer", "name": "Invoice Organizer", "description": "Automatically organizes invoices and receipts for tax preparation by reading files, extracting information, and renaming consistently.", "description_zh": "", "homepage": "./invoice-organizer", "tags": ["Productivity & Organization"], "category": "Productivity & Organization", "ownerName": "", "sources": ["ComposioHQ/awesome-claude-skills"], "score": 493, "downloads": 0, "stars": 0, "installs": 0, "version": "", "updated_at": 0}, {"slug": "invoice-organizer", "name": "invoice-organizer", "description": "Automatically organizes invoices and receipts for tax preparation", "description_zh": "", "homepage": "https://github.com/ComposioHQ/awesome-claude-skills/blob/master/invoice-organizer/SKILL.md", "tags": ["🔧 Utility & Automation"], "category": "🔧 Utility & Automation", "ownerName": "ComposioHQ", "sources": ["BehiSecc/awesome-claude-skills"], "score": 492, "downloads": 0, "stars": 0, "installs": 0, "version": "", "updated_at": 0}, {"slug": "ironclaw-agent-guard", "name": "ironclaw-agent-guard", "description": "Security review skill and CLI/MCP companion for risky tool calls, prompt injection, secret redaction, and audit-friendly agent workflows.", "description_zh": "", "homepage": "https://github.com/wd041216-bit/ironclaw-agent-guard", "tags": ["🛡 Security & Web Testing"], "category": "🛡 Security & Web Testing", "ownerName": "wd041216-bit", "sources": ["BehiSecc/awesome-claude-skills"], "score": 491, "downloads": 0, "stars": 0, "installs": 0, "version": "", "updated_at": 0}, {"slug": "issue-268", "name": "Issue #268", "description": "Workaround: Manually specify skill paths", "description_zh": "", "homepage": "https://github.com/anthropics/claude-agent-sdk-python/issues/268", "tags": ["Known Issues"], "category": "Known Issues", "ownerName": "anthropics", "sources": ["travisvn/awesome-claude-skills"], "score": 490, "downloads": 0, "stars": 0, "installs": 0, "version": "", "updated_at": 0}, {"slug": "jackjin1997-clawforge", "name": "jackjin1997/ClawForge", "description": "Resource hub of skills, MCP servers, and agent tooling for OpenClaw.", "description_zh": "", "homepage": "https://github.com/jackjin1997/ClawForge", "tags": ["Community Contributors"], "category": "Community Contributors", "ownerName": "jackjin1997", "sources": ["sickn33/antigravity-awesome-skills"], "score": 489, "downloads": 0, "stars": 0, "installs": 0, "version": "", "updated_at": 0}, {"slug": "jeffersonwarrior-claudisms", "name": "jeffersonwarrior/claudisms", "description": "SMS messaging integration", "description_zh": "", "homepage": "https://github.com/jeffersonwarrior/claudisms", "tags": ["Community Skills"], "category": "Community Skills", "ownerName": "jeffersonwarrior", "sources": ["VoltAgent/awesome-agent-skills"], "score": 488, "downloads": 0, "stars": 0, "installs": 0, "version": "", "updated_at": 0}, {"slug": "jira-automation", "name": "Jira Automation", "description": "Automate Jira: issues, projects, boards, sprints, and JQL queries.", "description_zh": "", "homepage": "./jira-automation", "tags": ["App Automation via Composio"], "category": "App Automation via Composio", "ownerName": "", "sources": ["ComposioHQ/awesome-claude-skills"], "score": 487, "downloads": 0, "stars": 0, "installs": 0, "version": "", "updated_at": 0}, {"slug": "joannis-claude-skills", "name": "Joannis/claude-skills", "description": "Swift Server development guidance with linting tool for best practices", "description_zh": "", "homepage": "https://github.com/Joannis/claude-skills", "tags": ["Community Skills"], "category": "Community Skills", "ownerName": "Joannis", "sources": ["VoltAgent/awesome-agent-skills"], "score": 486, "downloads": 0, "stars": 0, "installs": 0, "version": "", "updated_at": 0}, {"slug": "join-our-discord", "name": "Join our Discord", "description": "Chat with other developers building Claude Skills", "description_zh": "", "homepage": "https://discord.com/invite/composio", "tags": ["Join the Community"], "category": "Join the Community", "ownerName": "", "sources": ["ComposioHQ/awesome-claude-skills"], "score": 485, "downloads": 0, "stars": 0, "installs": 0, "version": "", "updated_at": 0}, {"slug": "k-kolomeitsev-data-structure-protocol", "name": "k-kolomeitsev/data-structure-protocol", "description": "Graph-based long-term memory skill for AI (LLM) coding agents — faster context, fewer tokens, safer refactors", "description_zh": "", "homepage": "https://github.com/k-kolomeitsev/data-structure-protocol", "tags": ["Community Skills"], "category": "Community Skills", "ownerName": "k-kolomeitsev", "sources": ["VoltAgent/awesome-agent-skills"], "score": 484, "downloads": 0, "stars": 0, "installs": 0, "version": "", "updated_at": 0}, {"slug": "kaggle-skill", "name": "kaggle-skill", "description": "Complete Kaggle integration — account setup, competition reports, dataset/model downloads, notebook execution, submissions, and badge collection.", "description_zh": "", "homepage": "https://github.com/shepsci/kaggle-skill", "tags": ["📊 Data & Analysis"], "category": "📊 Data & Analysis", "ownerName": "shepsci", "sources": ["BehiSecc/awesome-claude-skills"], "score": 483, "downloads": 0, "stars": 0, "installs": 0, "version": "", "updated_at": 0}, {"slug": "kanban-skill", "name": "kanban-skill", "description": "Markdown-based Kanban board with file-based cards, YAML frontmatter for status/priority/dependencies, and no database required.", "description_zh": "", "homepage": "https://github.com/mattjoyce/kanban-skill", "tags": ["🤝 Collaboration & Project Management"], "category": "🤝 Collaboration & Project Management", "ownerName": "mattjoyce", "sources": ["BehiSecc/awesome-claude-skills"], "score": 482, "downloads": 0, "stars": 0, "installs": 0, "version": "", "updated_at": 0}, {"slug": "karanb192-awesome-claude-skills", "name": "karanb192/awesome-claude-skills", "description": "A massive list of verified skills for Claude Code.", "description_zh": "", "homepage": "https://github.com/karanb192/awesome-claude-skills", "tags": ["Community Contributors"], "category": "Community Contributors", "ownerName": "karanb192", "sources": ["sickn33/antigravity-awesome-skills"], "score": 481, "downloads": 0, "stars": 0, "installs": 0, "version": "", "updated_at": 0}, {"slug": "kepano-obsidian-skills", "name": "kepano/obsidian-skills", "description": "Obsidian-focused skills for markdown, Bases, JSON Canvas, CLI workflows, and content cleanup.", "description_zh": "", "homepage": "https://github.com/kepano/obsidian-skills", "tags": ["Community Contributors"], "category": "Community Contributors", "ownerName": "kepano", "sources": ["sickn33/antigravity-awesome-skills"], "score": 480, "downloads": 0, "stars": 0, "installs": 0, "version": "", "updated_at": 0}, {"slug": "kevin7qi-codex-collab", "name": "Kevin7Qi/codex-collab", "description": "Collaborate with Codex from Claude Code", "description_zh": "", "homepage": "https://github.com/Kevin7Qi/codex-collab", "tags": ["Community Skills"], "category": "Community Skills", "ownerName": "Kevin7Qi", "sources": ["VoltAgent/awesome-agent-skills"], "score": 479, "downloads": 0, "stars": 0, "installs": 0, "version": "", "updated_at": 0}, {"slug": "klaviyo-automation", "name": "Klaviyo Automation", "description": "Automate Klaviyo: profiles, lists, segments, campaigns, and events.", "description_zh": "", "homepage": "./klaviyo-automation", "tags": ["App Automation via Composio"], "category": "App Automation via Composio", "ownerName": "", "sources": ["ComposioHQ/awesome-claude-skills"], "score": 478, "downloads": 0, "stars": 0, "installs": 0, "version": "", "updated_at": 0}, {"slug": "komal-skynet-claude-skill-homeassistant", "name": "komal-SkyNET/claude-skill-homeassistant", "description": "Supercharge and manage Home Assistant workflows", "description_zh": "", "homepage": "https://github.com/komal-SkyNET/claude-skill-homeassistant", "tags": ["Community Skills"], "category": "Community Skills", "ownerName": "komal-SkyNET", "sources": ["VoltAgent/awesome-agent-skills"], "score": 477, "downloads": 0, "stars": 0, "installs": 0, "version": "", "updated_at": 0}, {"slug": "kreuzberg-dev-kreuzberg", "name": "kreuzberg-dev/kreuzberg", "description": "Extract text, tables, and metadata from 62+ document formats", "description_zh": "", "homepage": "https://github.com/kreuzberg-dev/kreuzberg", "tags": ["Community Skills"], "category": "Community Skills", "ownerName": "kreuzberg-dev", "sources": ["VoltAgent/awesome-agent-skills"], "score": 476, "downloads": 0, "stars": 0, "installs": 0, "version": "", "updated_at": 0}, {"slug": "langsmith-fetch", "name": "LangSmith Fetch", "description": "Debug LangChain and LangGraph agents by automatically fetching and analyzing execution traces from LangSmith Studio. First AI observability skill for Claude Code. By [@OthmanAdi](https://github.com/OthmanAdi)", "description_zh": "", "homepage": "./langsmith-fetch", "tags": ["Development & Code Tools"], "category": "Development & Code Tools", "ownerName": "", "sources": ["ComposioHQ/awesome-claude-skills"], "score": 475, "downloads": 0, "stars": 0, "installs": 0, "version": "", "updated_at": 0}, {"slug": "lawvable-awesome-legal-skills", "name": "lawvable/awesome-legal-skills", "description": "Curated agent skills for automating legal workflows", "description_zh": "", "homepage": "https://github.com/lawvable/awesome-legal-skills", "tags": ["Community Skills"], "category": "Community Skills", "ownerName": "lawvable", "sources": ["VoltAgent/awesome-agent-skills"], "score": 474, "downloads": 0, "stars": 0, "installs": 0, "version": "", "updated_at": 0}, {"slug": "lead-research-assistant", "name": "Lead Research Assistant", "description": "Identifies and qualifies high-quality leads by analyzing your product, searching for target companies, and providing actionable outreach strategies.", "description_zh": "", "homepage": "./lead-research-assistant", "tags": ["Business & Marketing"], "category": "Business & Marketing", "ownerName": "", "sources": ["ComposioHQ/awesome-claude-skills"], "score": 473, "downloads": 0, "stars": 0, "installs": 0, "version": "", "updated_at": 0}, {"slug": "lenny-s-newsletter", "name": "Lenny's Newsletter", "description": "50 ways people use Claude Code", "description_zh": "", "homepage": "https://www.lennysnewsletter.com/p/everyone-should-be-using-claude-code", "tags": ["Inspiration & Use Cases"], "category": "Inspiration & Use Cases", "ownerName": "", "sources": ["ComposioHQ/awesome-claude-skills"], "score": 472, "downloads": 0, "stars": 0, "installs": 0, "version": "", "updated_at": 0}, {"slug": "leonardomso-33-js-concepts", "name": "leonardomso/33-js-concepts", "description": "Inspiration for JavaScript Mastery.", "description_zh": "", "homepage": "https://github.com/leonardomso/33-js-concepts", "tags": ["Inspirations"], "category": "Inspirations", "ownerName": "leonardomso", "sources": ["sickn33/antigravity-awesome-skills"], "score": 471, "downloads": 0, "stars": 0, "installs": 0, "version": "", "updated_at": 0}, {"slug": "lewiswigmore-agent-skills", "name": "lewiswigmore/agent-skills", "description": "Source for the vscode-extension-guide-en skill - VS Code extension development workflows, packaging, Marketplace publishing, TreeView, and webview patterns.", "description_zh": "", "homepage": "https://github.com/lewiswigmore/agent-skills", "tags": ["Community Contributors"], "category": "Community Contributors", "ownerName": "lewiswigmore", "sources": ["sickn33/antigravity-awesome-skills"], "score": 470, "downloads": 0, "stars": 0, "installs": 0, "version": "", "updated_at": 0}, {"slug": "lightning-factory-explainer", "name": "lightning-factory-explainer", "description": "Explain Bitcoin Lightning channel factories and the SuperScalar protocol — scalable Lightning onboarding using shared UTXOs, Decker-Wattenhofer trees, timeout-signature trees, MuSig2, and Taproot.", "description_zh": "", "homepage": "https://github.com/8144225309/superscalar-mcp", "tags": ["🛠 Development & Code Tools"], "category": "🛠 Development & Code Tools", "ownerName": "8144225309", "sources": ["BehiSecc/awesome-claude-skills"], "score": 469, "downloads": 0, "stars": 0, "installs": 0, "version": "", "updated_at": 0}, {"slug": "linear-automation", "name": "Linear Automation", "description": "Automate Linear: issues, projects, cycles, teams, and workflows.", "description_zh": "", "homepage": "./linear-automation", "tags": ["App Automation via Composio"], "category": "App Automation via Composio", "ownerName": "", "sources": ["ComposioHQ/awesome-claude-skills"], "score": 468, "downloads": 0, "stars": 0, "installs": 0, "version": "", "updated_at": 0}, {"slug": "linear-cli-skill", "name": "linear-cli-skill", "description": "A skill teaching claude how to use linear-CLI (provided alongside the skill), meant to replace linear MCP.", "description_zh": "", "homepage": "https://github.com/Valian/linear-cli-skill", "tags": ["🤝 Collaboration & Project Management"], "category": "🤝 Collaboration & Project Management", "ownerName": "Valian", "sources": ["BehiSecc/awesome-claude-skills"], "score": 467, "downloads": 0, "stars": 0, "installs": 0, "version": "", "updated_at": 0}, {"slug": "linkedin", "name": "linkedin", "description": "General-purpose LinkedIn automation via Linked API — fetch profiles, search people/companies, send messages, manage connections, create posts. Supports Sales Navigator.", "description_zh": "", "homepage": "https://github.com/Linked-API/linkedin-skills", "tags": ["🔧 Utility & Automation"], "category": "🔧 Utility & Automation", "ownerName": "Linked-API", "sources": ["BehiSecc/awesome-claude-skills"], "score": 466, "downloads": 0, "stars": 0, "installs": 0, "version": "", "updated_at": 0}, {"slug": "linkedin-automation", "name": "LinkedIn Automation", "description": "Automate LinkedIn: posts, profiles, companies, images, and comments.", "description_zh": "", "homepage": "./linkedin-automation", "tags": ["App Automation via Composio"], "category": "App Automation via Composio", "ownerName": "", "sources": ["ComposioHQ/awesome-claude-skills"], "score": 465, "downloads": 0, "stars": 0, "installs": 0, "version": "", "updated_at": 0}, {"slug": "lum1104-understand-anything", "name": "Lum1104/understand-anything", "description": "Interactive codebase knowledge graphs via multi-agent LLM analysis", "description_zh": "", "homepage": "https://github.com/Lum1104/Understand-Anything", "tags": ["Community Skills"], "category": "Community Skills", "ownerName": "Lum1104", "sources": ["VoltAgent/awesome-agent-skills"], "score": 464, "downloads": 0, "stars": 0, "installs": 0, "version": "", "updated_at": 0}, {"slug": "mailchimp-automation", "name": "Mailchimp Automation", "description": "Automate Mailchimp: audiences, campaigns, templates, segments, and reports.", "description_zh": "", "homepage": "./mailchimp-automation", "tags": ["App Automation via Composio"], "category": "App Automation via Composio", "ownerName": "", "sources": ["ComposioHQ/awesome-claude-skills"], "score": 463, "downloads": 0, "stars": 0, "installs": 0, "version": "", "updated_at": 0}, {"slug": "make-automation", "name": "Make Automation", "description": "Automate Make (Integromat): scenarios, connections, and execution management.", "description_zh": "", "homepage": "./make-automation", "tags": ["App Automation via Composio"], "category": "App Automation via Composio", "ownerName": "", "sources": ["ComposioHQ/awesome-claude-skills"], "score": 462, "downloads": 0, "stars": 0, "installs": 0, "version": "", "updated_at": 0}, {"slug": "makenotion-knowledge-capture", "name": "makenotion/knowledge-capture", "description": "Transform conversations into structured Notion documentation pages with proper organization and linking", "description_zh": "", "homepage": "https://officialskills.sh/makenotion/skills/knowledge-capture", "tags": ["TypeScript Skills"], "category": "TypeScript Skills", "ownerName": "", "sources": ["VoltAgent/awesome-agent-skills"], "score": 461, "downloads": 0, "stars": 0, "installs": 0, "version": "", "updated_at": 0}, {"slug": "makenotion-meeting-intelligence", "name": "makenotion/meeting-intelligence", "description": "Prepare meeting materials by gathering Notion context and creating pre-reads and agendas", "description_zh": "", "homepage": "https://officialskills.sh/makenotion/skills/meeting-intelligence", "tags": ["TypeScript Skills"], "category": "TypeScript Skills", "ownerName": "", "sources": ["VoltAgent/awesome-agent-skills"], "score": 460, "downloads": 0, "stars": 0, "installs": 0, "version": "", "updated_at": 0}, {"slug": "makenotion-research-documentation", "name": "makenotion/research-documentation", "description": "Search Notion workspace, synthesize findings, and create comprehensive research reports", "description_zh": "", "homepage": "https://officialskills.sh/makenotion/skills/research-documentation", "tags": ["TypeScript Skills"], "category": "TypeScript Skills", "ownerName": "", "sources": ["VoltAgent/awesome-agent-skills"], "score": 459, "downloads": 0, "stars": 0, "installs": 0, "version": "", "updated_at": 0}, {"slug": "makenotion-spec-to-implementation", "name": "makenotion/spec-to-implementation", "description": "Turn product/tech specs into concrete Notion tasks with acceptance criteria and progress tracking", "description_zh": "", "homepage": "https://officialskills.sh/makenotion/skills/spec-to-implementation", "tags": ["TypeScript Skills"], "category": "TypeScript Skills", "ownerName": "", "sources": ["VoltAgent/awesome-agent-skills"], "score": 458, "downloads": 0, "stars": 0, "installs": 0, "version": "", "updated_at": 0}, {"slug": "massimodeluisa-recursive-decomposition-skill", "name": "massimodeluisa/recursive-decomposition-skill", "description": "Handle long-context tasks (100+ files, 50k+ tokens) through recursive decomposition strategies based on RLM research", "description_zh": "", "homepage": "https://github.com/massimodeluisa/recursive-decomposition-skill", "tags": ["Community Skills"], "category": "Community Skills", "ownerName": "massimodeluisa", "sources": ["VoltAgent/awesome-agent-skills"], "score": 457, "downloads": 0, "stars": 0, "installs": 0, "version": "", "updated_at": 0}, {"slug": "mattpocock-skills", "name": "mattpocock/skills", "description": "17 dev workflow skills: PRD writing, TDD, codebase architecture, git guardrails, issue triage, refactoring plans, and more", "description_zh": "", "homepage": "https://github.com/mattpocock/skills", "tags": ["Community Skills"], "category": "Community Skills", "ownerName": "mattpocock", "sources": ["VoltAgent/awesome-agent-skills"], "score": 456, "downloads": 0, "stars": 0, "installs": 0, "version": "", "updated_at": 0}, {"slug": "mcollina-skills", "name": "mcollina/skills", "description": "11 skills by Matteo Collina: Node.js, Fastify, TypeScript, OAuth, Git/GitHub, ESLint neostandard, documentation (Diataxis), Node.js core internals, skill optimizer, and more", "description_zh": "", "homepage": "https://github.com/mcollina/skills", "tags": ["Community Skills"], "category": "Community Skills", "ownerName": "mcollina", "sources": ["VoltAgent/awesome-agent-skills"], "score": 455, "downloads": 0, "stars": 0, "installs": 0, "version": "", "updated_at": 0}, {"slug": "mcp-builder", "name": "MCP Builder", "description": "Guides creation of high-quality MCP (Model Context Protocol) servers for integrating external APIs and services with LLMs using Python or TypeScript.", "description_zh": "", "homepage": "./mcp-builder", "tags": ["Development & Code Tools"], "category": "Development & Code Tools", "ownerName": "", "sources": ["ComposioHQ/awesome-claude-skills"], "score": 454, "downloads": 0, "stars": 0, "installs": 0, "version": "", "updated_at": 0}, {"slug": "meeting-insights-analyzer", "name": "Meeting Insights Analyzer", "description": "Analyzes meeting transcripts to uncover behavioral patterns including conflict avoidance, speaking ratios, filler words, and leadership style.", "description_zh": "", "homepage": "./meeting-insights-analyzer", "tags": ["Communication & Writing"], "category": "Communication & Writing", "ownerName": "", "sources": ["ComposioHQ/awesome-claude-skills"], "score": 453, "downloads": 0, "stars": 0, "installs": 0, "version": "", "updated_at": 0}, {"slug": "meeting-insights-analyzer", "name": "meeting-insights-analyzer", "description": "Transforms your meeting transcripts into actionable insights about your communication patterns", "description_zh": "", "homepage": "https://github.com/ComposioHQ/awesome-claude-skills/blob/master/meeting-insights-analyzer", "tags": ["🤝 Collaboration & Project Management"], "category": "🤝 Collaboration & Project Management", "ownerName": "ComposioHQ", "sources": ["BehiSecc/awesome-claude-skills"], "score": 452, "downloads": 0, "stars": 0, "installs": 0, "version": "", "updated_at": 0}, {"slug": "meodai-skill-color-expert", "name": "meodai/skill.color-expert", "description": "Color science expert skill with 286K words of reference material covering OKLCH/OKLAB, palette generation, accessibility/contrast, color naming, pigment mixing, and historical color theory", "description_zh": "", "homepage": "https://github.com/meodai/skill.color-expert", "tags": ["Community Skills"], "category": "Community Skills", "ownerName": "meodai", "sources": ["VoltAgent/awesome-agent-skills"], "score": 451, "downloads": 0, "stars": 0, "installs": 0, "version": "", "updated_at": 0}]}