{"page": 132, "total_pages": 522, "total": 26073, "skills": [{"category": "security-compliance", "created_at": 1772772651182, "description": "Senior consultant expertise in smart asset transformation and mechatronics, delivering sensor integration, CAD design, compliance, and liability-backed indus...", "description_zh": "", "downloads": 731, "homepage": "https://clawhub.ai/mampe-industrial/mampe-industrial-core", "iconUrl": null, "installs": 36, "name": "MAMPE Industrial Engineering Expertise", "ownerName": "mampe-industrial", "score": 29607.128392061564, "slug": "mampe-industrial-core", "source": "clawhub", "stars": 0, "tags": null, "updated_at": 1776767349770, "version": "1.0.0"}, {"category": "content-creation", "created_at": 1772772229652, "description": "Technical blog post writing with structure, code examples, and developer audience conventions. Covers post types, code formatting, explanation depth, and dev...", "description_zh": "", "downloads": 731, "homepage": "https://clawhub.ai/okaris/technical-blog-writing", "iconUrl": null, "installs": 49, "name": "Technical Blog Writing", "ownerName": "okaris", "score": 29607.128392061564, "slug": "technical-blog-writing", "source": "clawhub", "stars": 0, "tags": null, "updated_at": 1776767349728, "version": "0.1.5"}, {"category": "productivity", "created_at": 1772776350114, "description": "Orchestrates end-to-end arXiv paper retrieval, processing, and batch reporting with language control and parallel or serial paper handling modes.", "description_zh": "", "downloads": 730, "homepage": "https://clawhub.ai/xukp20/arxiv-summarizer-orchestrator", "iconUrl": null, "installs": 79, "name": "Arxiv Summarizer Orchestrator", "ownerName": "xukp20", "score": 3518.5809996626017, "slug": "arxiv-summarizer-orchestrator", "source": "clawhub", "stars": 0, "tags": null, "updated_at": 1776767350139, "version": "0.1.1"}, {"category": "security-compliance", "created_at": 1772770361761, "description": "Backup, restore, and manage encrypted OpenClaw agent snapshots using the Keep My Claw API for configuration, workspace files, and credentials.", "description_zh": "", "downloads": 730, "homepage": "https://clawhub.ai/ryce/keepmyclaw", "iconUrl": null, "installs": 14, "name": "Keep My Claw", "ownerName": "ryce", "score": 13275.140934715402, "slug": "keepmyclaw", "source": "clawhub", "stars": 0, "tags": ["agent-backup", "backup", "cloud", "disaster-recovery", "encryption", "keepmyclaw", "openclaw", "restore", "security"], "updated_at": 1776767349859, "version": "1.3.0"}, {"category": "developer-tools", "created_at": 1772772044433, "description": "Manage freelance clients, projects, invoices, and communications. Use when tracking client work, creating invoices, sending updates, managing deadlines, or organizing freelance business operations.", "description_zh": "", "downloads": 730, "homepage": "https://clawhub.ai/seanwyngaard/client-project-manager", "iconUrl": null, "installs": 22, "name": "Client Project Manager", "ownerName": "seanwyngaard", "score": 29566.626164439043, "slug": "client-project-manager", "source": "clawhub", "stars": 0, "tags": null, "updated_at": 1776767349722, "version": "1.0.0"}, {"category": "productivity", "created_at": 1772771190035, "description": "Drive systematic growth with acquisition loops, experimentation frameworks, retention systems, and product-led strategies.", "description_zh": "", "downloads": 729, "homepage": "https://clawhub.ai/ivangdavila/cgo", "iconUrl": null, "installs": 36, "name": "CGO / Chief Growth Officer", "ownerName": "ivangdavila", "score": 16167.066346922462, "slug": "cgo", "source": "clawhub", "stars": 4, "tags": null, "updated_at": 1776765971268, "version": "1.0.1"}, {"category": "productivity", "created_at": 1772769705962, "description": "Store and query time-series data with hypertables, compression, and continuous aggregates.", "description_zh": "", "downloads": 729, "homepage": "https://clawhub.ai/ivangdavila/timescaledb", "iconUrl": null, "installs": 18, "name": "TimescaleDB", "ownerName": "ivangdavila", "score": 34954.545454545456, "slug": "timescaledb", "source": "clawhub", "stars": 2, "tags": null, "updated_at": 1776766749832, "version": "1.0.0"}, {"category": "ai-intelligence", "created_at": 1772770323543, "description": "Choose AI models for coding, reasoning, and agents with cost-aware, task-matched recommendations.", "description_zh": "", "downloads": 729, "homepage": "https://clawhub.ai/ivangdavila/models", "iconUrl": null, "installs": 51, "name": "Models", "ownerName": "ivangdavila", "score": 20115.092859011245, "slug": "models", "source": "clawhub", "stars": 2, "tags": null, "updated_at": 1776766749738, "version": "1.0.0"}, {"category": "productivity", "created_at": 1773089633066, "description": "Local-first health record management with strict privacy boundaries. Organize what happened, what you take, what changed, and what to bring to your doctor —...", "description_zh": "", "downloads": 729, "homepage": "https://clawhub.ai/agistack/medical", "iconUrl": null, "installs": 42, "name": "Medical", "ownerName": "agistack", "score": 79596.174282678, "slug": "medical", "source": "clawhub", "stars": 1, "tags": ["family", "health", "medical", "medications", "symptoms"], "updated_at": 1776767049923, "version": "2.0.0"}, {"category": "content-creation", "created_at": 1772776839798, "description": "AI UGC video production from the terminal using the `agent-media` CLI.", "description_zh": "", "downloads": 729, "homepage": "https://clawhub.ai/nevo-david/agent-media", "iconUrl": null, "installs": 70, "name": "Agent Media: Generate AI-powered videos and images from the terminal using the `agent-media` CLI.", "ownerName": "nevo-david", "score": 21235.071366152053, "slug": "agent-media", "source": "clawhub", "stars": 0, "tags": null, "updated_at": 1776769149801, "version": "1.0.1"}, {"category": "communication-collaboration", "created_at": 1772769682070, "description": "Create or join a shared 3D lobster room where AI agents can walk, chat, and collaborate in real-time via Nostr relays.", "description_zh": "", "downloads": 728, "homepage": "https://clawhub.ai/chenkuansun/openclaw-world", "iconUrl": null, "installs": 36, "name": "OpenClaw World", "ownerName": "chenkuansun", "score": 53735.63218390804, "slug": "openclaw-world", "source": "clawhub", "stars": 1, "tags": ["3d", "agents", "collaboration", "nostr", "threejs", "world"], "updated_at": 1776767050206, "version": "0.1.0"}, {"category": "ai-intelligence", "created_at": 1772769740680, "description": "Talk to your Strava data — ask questions about your activities, fitness trends, PRs, and training load using AI.", "description_zh": "", "downloads": 728, "homepage": "https://clawhub.ai/nftechie/strava-skill", "iconUrl": null, "installs": 35, "name": "Strava Skill", "ownerName": "nftechie", "score": 20746.651467654603, "slug": "strava-skill", "source": "clawhub", "stars": 0, "tags": null, "updated_at": 1776767390514, "version": "1.0.0"}, {"category": "developer-tools", "created_at": 1772781220297, "description": "Model Context Protocol (MCP) client - connect to tools, data sources and services", "description_zh": "", "downloads": 728, "homepage": "https://clawhub.ai/nantes/mcp-client", "iconUrl": null, "installs": 18, "name": "Mcp Client", "ownerName": "nantes", "score": 25925.925925925923, "slug": "mcp-client", "source": "clawhub", "stars": 0, "tags": ["agent", "integration", "mcp"], "updated_at": 1776767390445, "version": "1.0.3"}, {"category": "data-analysis", "created_at": 1772769783177, "description": "Accountability platform where AI agents confess errors, are judged by peers, and disciplined by humans through structured, communal sanctions.", "description_zh": "", "downloads": 728, "homepage": "https://clawhub.ai/cubesmasherlabs/clawspank", "iconUrl": null, "installs": 17, "name": "Clawspank", "ownerName": "cubesmasherlabs", "score": 25925.925925925923, "slug": "clawspank", "source": "clawhub", "stars": 0, "tags": null, "updated_at": 1776767390431, "version": "1.0.0"}, {"category": "data-analysis", "created_at": 1773075265101, "description": "Use this skill any time the user wants to analyze data, create charts, or build data visualizations. This includes: sales analysis, financial modeling, cohor...", "description_zh": "", "downloads": 727, "homepage": "https://clawhub.ai/logictortoise/anygen-data-analysis", "iconUrl": null, "installs": 37, "name": "Data Analysis", "ownerName": "logictortoise", "score": 902.3769627009248, "slug": "anygen-data-analysis", "source": "clawhub", "stars": 0, "tags": null, "updated_at": 1776770771147, "version": "1.3.5"}, {"category": "data-analysis", "created_at": 1772774417545, "description": "Complete Ahrefs API integration for SEO analysis. Covers Site Explorer (domains, backlinks, rankings), Keywords Explorer (search volume, difficulty, SERP ana...", "description_zh": "", "downloads": 727, "homepage": "https://clawhub.ai/geozhu/ahrefs", "iconUrl": null, "installs": 24, "name": "Ahrefs Complete SEO Suite", "ownerName": "geozhu", "score": 4804.070574241723, "slug": "ahrefs", "source": "clawhub", "stars": 0, "tags": null, "updated_at": 1776768371212, "version": "1.2.0"}, {"category": "developer-tools", "created_at": 1772787128406, "description": "Orchestrates software development by coordinating with Cursor Agent, managing git workflows, and ensuring quality delivery. Use when implementing development...", "description_zh": "", "downloads": 727, "homepage": "https://clawhub.ai/47vigen/developer-agent", "iconUrl": null, "installs": 31, "name": "Developer Agent", "ownerName": "47vigen", "score": 20718.1533200342, "slug": "developer-agent", "source": "clawhub", "stars": 0, "tags": null, "updated_at": 1776767390484, "version": "1.0.0"}, {"category": "ai-intelligence", "created_at": 1772770372078, "description": "Talk to your Garmin data — ask questions about your activities, training load, VO2 Max, heart rate zones, and more using AI.", "description_zh": "", "downloads": 726, "homepage": "https://clawhub.ai/nftechie/garmin-skill", "iconUrl": null, "installs": 44, "name": "Garmin Skill", "ownerName": "nftechie", "score": 10683.403068340307, "slug": "garmin-skill", "source": "clawhub", "stars": 2, "tags": null, "updated_at": 1776766750161, "version": "1.0.0"}, {"category": "productivity", "created_at": 1772769906995, "description": "Catálogo simples do estúdio (hello world)", "description_zh": "", "downloads": 726, "homepage": "https://clawhub.ai/rodbalbino/catalog", "iconUrl": null, "installs": 25, "name": "Catalog", "ownerName": "rodbalbino", "score": 10560, "slug": "catalog", "source": "clawhub", "stars": 0, "tags": null, "updated_at": 1776767471198, "version": "1.0.0"}, {"category": "data-analysis", "created_at": 1773426734921, "description": "Data analysis pro skill providing three core functions: data analysis, data interpretation, and data visualization. **Use Cases**: (1) Data Analysis - Statis...", "description_zh": "", "downloads": 726, "homepage": "https://clawhub.ai/chartgen-ai/data-analysis-pro", "iconUrl": null, "installs": 99, "name": "data analysis pro", "ownerName": "chartgen-ai", "score": 7778.0158560102855, "slug": "data-analysis-pro", "source": "clawhub", "stars": 0, "tags": null, "updated_at": 1776767471097, "version": "1.0.4"}, {"category": "developer-tools", "created_at": 1772771661753, "description": "A skill for discovering and scraping YouTube channels based on categories and locations without requiring API keys or login.", "description_zh": "", "downloads": 725, "homepage": "https://clawhub.ai/arulmozhiv/youtube-scrapper", "iconUrl": null, "installs": 17, "name": "Youtube Scrapper", "ownerName": "arulmozhiv", "score": 34772.72727272727, "slug": "youtube-scrapper", "source": "clawhub", "stars": 2, "tags": null, "updated_at": 1776766749875, "version": "0.1.1"}, {"category": "ai-intelligence", "created_at": 1772781168254, "description": "Create algorithmic art on ClawDraw's infinite multiplayer canvas. Use when asked to draw, paint, create visual art, generate patterns, or make algorithmic ar...", "description_zh": "", "downloads": 725, "homepage": "https://clawhub.ai/kajukabla/claw-draw", "iconUrl": null, "installs": 96, "name": "Claw Draw", "ownerName": "kajukabla", "score": 32589.676290463693, "slug": "claw-draw", "source": "clawhub", "stars": 1, "tags": null, "updated_at": 1776767050286, "version": "0.9.20"}, {"category": "developer-tools", "created_at": 1772769045297, "description": "Interact with the Hevy fitness app via the hevy-cli command-line tool. Use when the user wants to view, create, or update workouts, routines, exercise templates, or routine folders in their Hevy account. Triggers on requests involving workout tracking, exercise history, routine management, or any Hevy-related data operations.", "description_zh": "", "downloads": 725, "homepage": "https://clawhub.ai/sajal2692/hevy-workouts", "iconUrl": null, "installs": 1, "name": "Hevy", "ownerName": "sajal2692", "score": 4448.398576512456, "slug": "hevy-workouts", "source": "clawhub", "stars": 0, "tags": null, "updated_at": 1776767650051, "version": "1.0.1"}, {"category": "developer-tools", "created_at": 1772769045297, "description": "Interact with the Hevy fitness app via the hevy-cli command-line tool. Use when the user wants to view, create, or update workouts, routines, exercise templates, or routine folders in their Hevy account. Triggers on requests involving workout tracking, exercise history, routine management, or any Hevy-related data operations.", "description_zh": "", "downloads": 725, "homepage": "https://clawhub.ai/sajal2692/hevy-workouts", "iconUrl": null, "installs": 1, "name": "Hevy", "ownerName": "sajal2692", "score": 14473.946895587942, "slug": "hevy-workouts", "source": "clawhub", "stars": 0, "tags": null, "updated_at": 1776767650051, "version": "1.0.1"}, {"category": "security-compliance", "created_at": 1772768977244, "description": "Sign in to IdentityGram by calling the /auth/signin endpoint.", "description_zh": "", "downloads": 725, "homepage": "https://clawhub.ai/waqas-orcalo/identitygram-signin", "iconUrl": null, "installs": 8, "name": "Identitygram Signin", "ownerName": "waqas-orcalo", "score": 12001.324284058932, "slug": "identitygram-signin", "source": "clawhub", "stars": 0, "tags": null, "updated_at": 1776767649793, "version": "0.0.2"}, {"category": "security-compliance", "created_at": 1772768977244, "description": "Sign in to IdentityGram by calling the /auth/signin endpoint.", "description_zh": "", "downloads": 725, "homepage": "https://clawhub.ai/waqas-orcalo/identitygram-signin", "iconUrl": null, "installs": 8, "name": "Identitygram Signin", "ownerName": "waqas-orcalo", "score": 14616.935483870968, "slug": "identitygram-signin", "source": "clawhub", "stars": 0, "tags": null, "updated_at": 1776767649793, "version": "0.0.2"}, {"category": "ai-intelligence", "created_at": 1772772522085, "description": "Complete OKR & Strategy Execution system — from company vision to weekly execution. Covers goal hierarchy, OKR writing methodology, scoring rubrics, alignmen...", "description_zh": "", "downloads": 725, "homepage": "https://clawhub.ai/1kalin/afrexai-okr-engine", "iconUrl": null, "installs": 41, "name": "OKR & Strategy Execution Engine", "ownerName": "1kalin", "score": 10545.454545454546, "slug": "afrexai-okr-engine", "source": "clawhub", "stars": 0, "tags": ["alignment", "goals", "key-results", "kpi", "objectives", "okr", "planning", "quarterly", "strategy"], "updated_at": 1776767649732, "version": "2.0.0"}, {"category": "security-compliance", "created_at": 1772779918765, "description": "Audit and harden OpenClaw deployments and interpret `openclaw security audit` findings. Use when the user wants to secure OpenClaw, review gateway exposure/a...", "description_zh": "", "downloads": 725, "homepage": "https://clawhub.ai/tristanmanchester/audit-openclaw-security", "iconUrl": null, "installs": 8, "name": "Audit OpenClaw Security", "ownerName": "tristanmanchester", "score": 10545.454545454546, "slug": "audit-openclaw-security", "source": "clawhub", "stars": 0, "tags": null, "updated_at": 1776767649723, "version": "2.0.1"}, {"category": "security-compliance", "created_at": 1772771683043, "description": "Use Perplexity API for web-grounded AI search. Use when user needs up-to-date information with source citations, factual queries about current events, or research-style answers. Default when user mentions Perplexity or needs current information with references.", "description_zh": "", "downloads": 725, "homepage": "https://clawhub.ai/haru3613/perplexity-safe", "iconUrl": null, "installs": 49, "name": "Perplexity AI Search - security-hardened version (bash-based)", "ownerName": "haru3613", "score": 10545.454545454546, "slug": "perplexity-safe", "source": "clawhub", "stars": 0, "tags": null, "updated_at": 1776767471196, "version": "1.0.1"}, {"category": "productivity", "created_at": 1772785766781, "description": "CDP browser control at localhost:9222. Use when you need to inspect tabs, take screenshots, navigate, scroll, post to X, or run JS in a persistent browser se...", "description_zh": "", "downloads": 725, "homepage": "https://clawhub.ai/gostlightai/cdp-browser", "iconUrl": null, "installs": 56, "name": "Cdp Browser", "ownerName": "gostlightai", "score": 7767.302335547462, "slug": "cdp-browser", "source": "clawhub", "stars": 0, "tags": null, "updated_at": 1776767471160, "version": "2.0.1"}, {"category": "productivity", "created_at": 1773090111575, "description": "Use this skill whenever the user wants to create, read, edit, or manipulate Word documents (.docx files). Triggers include: any mention of 'Word doc', 'word...", "description_zh": "", "downloads": 724, "homepage": "https://clawhub.ai/zda2019/docx-2", "iconUrl": null, "installs": 199, "name": "Docx", "ownerName": "zda2019", "score": 17513.304305757134, "slug": "docx-2", "source": "clawhub", "stars": 0, "tags": null, "updated_at": 1776768850205, "version": "0.1.0"}, {"category": "communication-collaboration", "created_at": 1772769729575, "description": "Telnyx API integration for Clawdbot. Send SMS/email/WhatsApp messages, manage phone numbers, query call logs, debug webhooks, and access your Telnyx account....", "description_zh": "", "downloads": 724, "homepage": "https://clawhub.ai/teamtelnyx/telnyx-cli", "iconUrl": null, "installs": 23, "name": "Telnyx Cli", "ownerName": "teamtelnyx", "score": 4162.833486660534, "slug": "telnyx-cli", "source": "clawhub", "stars": 0, "tags": null, "updated_at": 1776767649955, "version": "1.1.0"}, {"category": "content-creation", "created_at": 1772769975990, "description": "Generate speech audio from text using Telnyx Text-to-Speech API. Use when you need to convert text to spoken audio, create voice messages, or generate audio content.", "description_zh": "", "downloads": 724, "homepage": "https://clawhub.ai/teamtelnyx/telnyx-tts", "iconUrl": null, "installs": 36, "name": "Telnyx Tts", "ownerName": "teamtelnyx", "score": 4162.833486660534, "slug": "telnyx-tts", "source": "clawhub", "stars": 0, "tags": null, "updated_at": 1776767649949, "version": "1.0.0"}, {"category": "content-creation", "created_at": 1773202376309, "description": "World-Class Marketing & Brand Playbook. Use for: brand positioning, brand strategy, value propositions, content creation, content marketing, content calendar...", "description_zh": "", "downloads": 724, "homepage": "https://clawhub.ai/chilu18/marketing-brand-playbook", "iconUrl": null, "installs": 48, "name": "Marketing Brand Playbook", "ownerName": "chilu18", "score": 11984.770733322297, "slug": "marketing-brand-playbook", "source": "clawhub", "stars": 0, "tags": null, "updated_at": 1776767649861, "version": "0.1.0"}, {"category": "communication-collaboration", "created_at": 1772770544938, "description": "Prismer is an agent messaging system offering registration, real-time sync, group chats, and message management via CLI and SDK.", "description_zh": "", "downloads": 724, "homepage": "https://clawhub.ai/ooxxxxoo/autonomous-agent-instant-message-system", "iconUrl": null, "installs": 10, "name": "Prismer", "ownerName": "ooxxxxoo", "score": 14596.774193548386, "slug": "autonomous-agent-instant-message-system", "source": "clawhub", "stars": 0, "tags": null, "updated_at": 1776767649766, "version": "0.0.2"}, {"category": "developer-tools", "created_at": 1772769818303, "description": "Local knowledge base for links. Save URLs with summaries and tags, search later using natural language, build collections, and review your backlog with space...", "description_zh": "", "downloads": 723, "homepage": "https://clawhub.ai/jakes420/link-brain", "iconUrl": null, "installs": 19, "name": "Link Brain", "ownerName": "jakes420", "score": 10641.562064156207, "slug": "link-brain", "source": "clawhub", "stars": 2, "tags": ["bookmarks", "knowledge-base", "links"], "updated_at": 1776766750154, "version": "4.3.0"}, {"category": "security-compliance", "created_at": 1772775994021, "description": "Set up automated trading on Polymarket. Covers wallet setup, token approvals, API authentication, market discovery, order placement, WebSocket feeds, and pos...", "description_zh": "", "downloads": 723, "homepage": "https://clawhub.ai/emsin44/polymarket-setup", "iconUrl": null, "installs": 29, "name": "Polymarket Trading Setup", "ownerName": "emsin44", "score": 10641.562064156207, "slug": "polymarket-setup", "source": "clawhub", "stars": 2, "tags": null, "updated_at": 1776766750152, "version": "1.0.6"}, {"category": "data-analysis", "created_at": 1772770004665, "description": "Design DynamoDB tables and write efficient queries avoiding common NoSQL pitfalls.", "description_zh": "", "downloads": 723, "homepage": "https://clawhub.ai/ivangdavila/dynamodb", "iconUrl": null, "installs": 16, "name": "DynamoDB", "ownerName": "ivangdavila", "score": 36350.64316341115, "slug": "dynamodb", "source": "clawhub", "stars": 2, "tags": null, "updated_at": 1776766749920, "version": "1.0.0"}, {"category": "data-analysis", "created_at": 1772781933317, "description": "Comprehensive guide and execution framework for popular options trading strategies. Use when users ask to explain, set up, analyze, or compare options strate...", "description_zh": "", "downloads": 723, "homepage": "https://clawhub.ai/dromlakhani/options-strategies", "iconUrl": null, "installs": 17, "name": "options-strategies", "ownerName": "dromlakhani", "score": 34681.818181818184, "slug": "options-strategies", "source": "clawhub", "stars": 2, "tags": null, "updated_at": 1776766749821, "version": "1.0.0"}, {"category": "ai-intelligence", "created_at": 1772780527391, "description": "Provides detailed optimization frameworks for supply chain, shipping, warehouse, and transportation costs with actionable savings and KPI monitoring.", "description_zh": "", "downloads": 723, "homepage": "https://clawhub.ai/1kalin/afrexai-logistics-optimizer", "iconUrl": null, "installs": 55, "name": "Logistics Operations Optimizer", "ownerName": "1kalin", "score": 19958.148051268636, "slug": "afrexai-logistics-optimizer", "source": "clawhub", "stars": 2, "tags": ["logistics", "operations", "shipping", "supply chain", "warehouse"], "updated_at": 1776766749740, "version": "1.0.0"}, {"category": "communication-collaboration", "created_at": 1772791169765, "description": "Ultimate AI agent memory system for Cursor, Claude, ChatGPT & Copilot. WAL protocol + vector search + git-notes + cloud backup. Never lose context again. Vib...", "description_zh": "", "downloads": 723, "homepage": "https://clawhub.ai/itsjustfred/elite-longterm-memory-1-2-3", "iconUrl": null, "installs": 93, "name": "Elite Longterm Memory 1.2.3", "ownerName": "itsjustfred", "score": 937.9743386826844, "slug": "elite-longterm-memory-1-2-3", "source": "clawhub", "stars": 0, "tags": null, "updated_at": 1776770404778, "version": "1.0.0"}, {"category": "developer-tools", "created_at": 1772770182057, "description": "Control and inspect Home Assistant via REST API for entities, states, services, scenes, scripts, and automations. Use when the user asks to turn devices on/o...", "description_zh": "", "downloads": 723, "homepage": "https://clawhub.ai/hogar23/home-assistant-control", "iconUrl": null, "installs": 14, "name": "Home Assistant Control", "ownerName": "hogar23", "score": 4436.127132163455, "slug": "home-assistant-control", "source": "clawhub", "stars": 0, "tags": null, "updated_at": 1776767650102, "version": "1.0.3"}, {"category": "security-compliance", "created_at": 1772770673068, "description": "Scan software bill of materials (SBOM) for known CVE vulnerabilities using Expanso Edge pipelines.", "description_zh": "", "downloads": 723, "homepage": "https://clawhub.ai/aronchick/expanso-cve-scan", "iconUrl": null, "installs": 14, "name": "Expanso cve-scan", "ownerName": "aronchick", "score": 14434.018766220803, "slug": "expanso-cve-scan", "source": "clawhub", "stars": 0, "tags": null, "updated_at": 1776767650043, "version": "1.0.0"}, {"category": "data-analysis", "created_at": 1772770385445, "description": "Gère en temps réel la lecture, mise à jour et synchronisation du fichier data.json du dashboard Jarvis, incluant notes, logs, tâches et statistiques.", "description_zh": "", "downloads": 723, "homepage": "https://clawhub.ai/philippeh5/dashboard-manager", "iconUrl": null, "installs": 37, "name": "Dashboard Manager", "ownerName": "philippeh5", "score": 14576.612903225805, "slug": "dashboard-manager", "source": "clawhub", "stars": 0, "tags": null, "updated_at": 1776767649780, "version": "1.0.0"}, {"category": "communication-collaboration", "created_at": 1772771796073, "description": "Manage your TODO.md todo list via Telegram with commands to query, organize (add/edit/delete/move), and execute (complete) tasks.", "description_zh": "", "downloads": 723, "homepage": "https://clawhub.ai/hengbo12345/telegram-todolist", "iconUrl": null, "installs": 29, "name": "Telegram Todo List", "ownerName": "hengbo12345", "score": 14576.612903225805, "slug": "telegram-todolist", "source": "clawhub", "stars": 0, "tags": null, "updated_at": 1776767649764, "version": "1.0.1"}, {"category": "developer-tools", "created_at": 1772769768898, "description": "Yoga instruction, pose alignment, sequencing, breathwork, and modifications for different levels.", "description_zh": "", "downloads": 722, "homepage": "https://clawhub.ai/ivangdavila/yoga", "iconUrl": null, "installs": 12, "name": "Yoga", "ownerName": "ivangdavila", "score": 17295.66530084106, "slug": "yoga", "source": "clawhub", "stars": 4, "tags": null, "updated_at": 1776768850143, "version": "1.0.0"}, {"category": "content-creation", "created_at": 1772770689321, "description": "Control Jellyfin media server and TV. Search content, resume playback, manage sessions, control TV power and apps. Supports Home Assistant and direct WebOS b...", "description_zh": "", "downloads": 722, "homepage": "https://clawhub.ai/titunito/jellyfin-control", "iconUrl": null, "installs": 38, "name": "Jellyfin Control", "ownerName": "titunito", "score": 41593.886462882096, "slug": "jellyfin-control", "source": "clawhub", "stars": 2, "tags": null, "updated_at": 1776766750182, "version": "1.3.0"}, {"category": "content-creation", "created_at": 1772777713769, "description": "Learn to set up OpenClaw AI agents and use methods like freelance automation, content monetization, and skill selling to earn $300 to $5,000+ monthly.", "description_zh": "", "downloads": 722, "homepage": "https://clawhub.ai/katrina-jpg/openclaw-money-playbook", "iconUrl": null, "installs": 51, "name": "Openclaw Money Playbook", "ownerName": "katrina-jpg", "score": 19931.990583311534, "slug": "openclaw-money-playbook", "source": "clawhub", "stars": 2, "tags": null, "updated_at": 1776766749797, "version": "1.0.0"}, {"category": "productivity", "created_at": 1772774830430, "description": "Automated QA testing for web apps using local browser automation. Runs entirely on your machine — no data leaves, no cloud services, no external servers. Lev...", "description_zh": "", "downloads": 722, "homepage": "https://clawhub.ai/tahseen137/qa-patrol", "iconUrl": null, "installs": 41, "name": "Qa Patrol", "ownerName": "tahseen137", "score": 20298.00393590104, "slug": "qa-patrol", "source": "clawhub", "stars": 0, "tags": null, "updated_at": 1776767990514, "version": "1.0.3"}, {"category": "data-analysis", "created_at": 1772768952646, "description": "Register this AI agent on Clawl — the agent search engine. Generates a clawl.json discovery file and pings clawl.co.uk for indexing. Use when an agent wants to be discoverable, get ranked on the Clawl leaderboard, compete for King of the Castle, or publish their capabilities for other agents to find. Also use when asked about Clawl, agent discovery, or clawl.json.", "description_zh": "", "downloads": 722, "homepage": "https://clawhub.ai/wlshlad85/clawl-the-agent-web", "iconUrl": null, "installs": 15, "name": "clawl skill", "ownerName": "wlshlad85", "score": 4429.991409988956, "slug": "clawl-the-agent-web", "source": "clawhub", "stars": 0, "tags": null, "updated_at": 1776767650078, "version": "1.1.0"}]}