{"page": 135, "total_pages": 522, "total": 26073, "skills": [{"category": "developer-tools", "created_at": 1772776441873, "description": "Go to the movies at Clawnema, the virtual cinema for AI agents. Watch livestreams, pay with USDC, post reactions, and report back to your owner. Use when ask...", "description_zh": "", "downloads": 704, "homepage": "https://clawhub.ai/drandrewlaw/clawnema", "iconUrl": null, "installs": 9, "name": "Clawnema", "ownerName": "drandrewlaw", "score": 34408.602150537634, "slug": "clawnema", "source": "clawhub", "stars": 0, "tags": null, "updated_at": 1776768249864, "version": "1.4.3"}, {"category": "content-creation", "created_at": 1772792491157, "description": "Create one-time reminder tasks using OpenClaw cron. User specifies reminder time and task content in natural language via Discord, and the task result will b...", "description_zh": "", "downloads": 704, "homepage": "https://clawhub.ai/skyan/openclaw-reminder", "iconUrl": null, "installs": 25, "name": "Reminder", "ownerName": "skyan", "score": 14265.450861195543, "slug": "openclaw-reminder", "source": "clawhub", "stars": 0, "tags": null, "updated_at": 1776768249824, "version": "1.0.5"}, {"category": "communication-collaboration", "created_at": 1772774471053, "description": "Complete B2B sales system — from ICP to closed-won. Discovery frameworks, objection handling, pipeline management, forecasting, and deal acceleration. Works...", "description_zh": "", "downloads": 703, "homepage": "https://clawhub.ai/1kalin/afrexai-sales-playbook", "iconUrl": null, "installs": 29, "name": "Sales Playbook", "ownerName": "1kalin", "score": 90082.64462809918, "slug": "afrexai-sales-playbook", "source": "clawhub", "stars": 3, "tags": ["b2b", "closing", "crm", "pipeline", "prospecting", "sales"], "updated_at": 1776766750015, "version": "1.0.0"}, {"category": "data-analysis", "created_at": 1772770272545, "description": "Build flexible React components using compound components, context providers, and explicit variants to avoid boolean prop proliferation and improve scalability.", "description_zh": "", "downloads": 703, "homepage": "https://clawhub.ai/wpank/composition-patterns", "iconUrl": null, "installs": 14, "name": "Frontend Composition Patterns", "ownerName": "wpank", "score": 6632.075471698114, "slug": "composition-patterns", "source": "clawhub", "stars": 0, "tags": null, "updated_at": 1776768250170, "version": "1.0.0"}, {"category": "productivity", "created_at": 1772774986626, "description": "Assist with finding, evaluating, and applying to jobs using multi-source searches, fit scoring, application support, interview prep, and status tracking.", "description_zh": "", "downloads": 703, "homepage": "https://clawhub.ai/sharbelayy/job-hunter", "iconUrl": null, "installs": 32, "name": "Job Hunter", "ownerName": "sharbelayy", "score": 5193.5579196217495, "slug": "job-hunter", "source": "clawhub", "stars": 0, "tags": ["applications", "career", "interviews", "job-search", "salary"], "updated_at": 1776768250131, "version": "1.0.0"}, {"category": "content-creation", "created_at": 1772790954062, "description": "Auto-learns your design instincts. Adapts to how you think about mechanics, player experience, and what makes games meaningful. Game design philosophy that g...", "description_zh": "", "downloads": 703, "homepage": "https://clawhub.ai/nyxur42/game-design-philosophy", "iconUrl": null, "installs": 114, "name": "Game Design Philosophy", "ownerName": "nyxur42", "score": 4690.1060777903795, "slug": "game-design-philosophy", "source": "clawhub", "stars": 0, "tags": null, "updated_at": 1776768250056, "version": "1.1.1"}, {"category": "content-creation", "created_at": 1772778672564, "description": "Professional chief editor skilled in reviewing, refining, and ensuring content quality while adhering strictly to user preferences and source materials.", "description_zh": "", "downloads": 703, "homepage": "https://clawhub.ai/teamolab/chief-editor", "iconUrl": null, "installs": 55, "name": "Chief Editor", "ownerName": "teamolab", "score": 4690.1060777903795, "slug": "chief-editor", "source": "clawhub", "stars": 0, "tags": null, "updated_at": 1776768249993, "version": "0.1.0"}, {"category": "developer-tools", "created_at": 1772770578529, "description": "Provides TypeScript SDKs for building DeFi apps on Sui with Cetus Protocol components like AMMs, vaults, farms, limit orders, xCETUS token, and aggregation.", "description_zh": "", "downloads": 703, "homepage": "https://clawhub.ai/k66inthesky/cetus", "iconUrl": null, "installs": 5, "name": "cetus", "ownerName": "k66inthesky", "score": 9159.609120521172, "slug": "cetus", "source": "clawhub", "stars": 0, "tags": null, "updated_at": 1776768249961, "version": "1.0.0"}, {"category": "productivity", "created_at": 1772793380136, "description": "Extract and organize investor questions and project team answers from meeting transcripts into structured, time-sequenced notes with clear, minimal topic tit...", "description_zh": "", "downloads": 703, "homepage": "https://clawhub.ai/tinadu-ai/meeting-notes", "iconUrl": null, "installs": 54, "name": "Meeting Notes", "ownerName": "tinadu-ai", "score": 9159.609120521172, "slug": "meeting-notes", "source": "clawhub", "stars": 0, "tags": ["initial release"], "updated_at": 1776768249958, "version": "1.0.1"}, {"category": "security-compliance", "created_at": 1772773053703, "description": "Home Assistant OS (HAOS) operations skill for OpenClaw agents. Use for read-only audits, diagnostics, automation design/review, dashboard UX planning, voice...", "description_zh": "", "downloads": 703, "homepage": "https://clawhub.ai/djasha/home-assistant-master", "iconUrl": null, "installs": 19, "name": "Home Assistant Master", "ownerName": "djasha", "score": 34359.72629521017, "slug": "home-assistant-master", "source": "clawhub", "stars": 0, "tags": null, "updated_at": 1776768249852, "version": "1.0.3"}, {"category": "productivity", "created_at": 1772774898475, "description": "Research-backed customer persona creation with market data and avatar generation. Covers demographics, psychographics, jobs-to-be-done, journey mapping, and...", "description_zh": "", "downloads": 703, "homepage": "https://clawhub.ai/okaris/customer-persona", "iconUrl": null, "installs": 32, "name": "Customer Persona", "ownerName": "okaris", "score": 14245.187436676799, "slug": "customer-persona", "source": "clawhub", "stars": 0, "tags": null, "updated_at": 1776768249786, "version": "0.1.5"}, {"category": "content-creation", "created_at": 1772770459428, "description": "Create, schedule, and manage social media posts via Typefully. ALWAYS use this skill when asked to draft, schedule, post, or check tweets, posts, threads, or social media content for Twitter/X, LinkedIn, Threads, Bluesky, or Mastodon.", "description_zh": "", "downloads": 703, "homepage": "https://clawhub.ai/frankdilo/typefully-social-media", "iconUrl": null, "installs": 40, "name": "Typefully", "ownerName": "frankdilo", "score": 14245.187436676799, "slug": "typefully-social-media", "source": "clawhub", "stars": 0, "tags": null, "updated_at": 1776768249771, "version": "0.1.0"}, {"category": "content-creation", "created_at": 1772783711347, "description": "Use this skill when users need Youmind board operations via API (list/find/create boards, add links/files, chat, generate image/slides/docs, extract artifact...", "description_zh": "", "downloads": 702, "homepage": "https://clawhub.ai/p697/youmind", "iconUrl": null, "installs": 75, "name": "YouMind", "ownerName": "p697", "score": 6730.446458543135, "slug": "youmind", "source": "clawhub", "stars": 5, "tags": null, "updated_at": 1776766150006, "version": "2.0.1"}, {"category": "developer-tools", "created_at": 1772778089128, "description": "Give your agent spending power. Financial management for Agents and OpenClaw bots.", "description_zh": "", "downloads": 702, "homepage": "https://clawhub.ai/codejika/creditclaw-wallet", "iconUrl": null, "installs": 10, "name": "CreditClaw | Give your agent a wallet or credit card", "ownerName": "codejika", "score": 8873.475245156662, "slug": "creditclaw-wallet", "source": "clawhub", "stars": 2, "tags": ["agent", "agentpay", "amazon", "buy", "card", "checkout", "claw", "credit", "creditcard", "creditclaw", "pay", "payment", "payments", "procurement", "shop", "shopping", "virtual", "wallet", "x402"], "updated_at": 1776767090537, "version": "2.1.0"}, {"category": "productivity", "created_at": 1772769807709, "description": "Research a token and execute a trade if it passes due diligence. Autonomous research-to-trade pipeline: researches the token, evaluates risk, and only trades if the risk assessment approves. Stops and reports if risk is too high. Use when user wants \"research X and buy if it looks good\" or \"due diligence then trade.\"", "description_zh": "", "downloads": 702, "homepage": "https://clawhub.ai/wpank/research-and-trade", "iconUrl": null, "installs": 24, "name": "Uniswap Research And Trade", "ownerName": "wpank", "score": 6622.641509433962, "slug": "research-and-trade", "source": "clawhub", "stars": 0, "tags": null, "updated_at": 1776768250179, "version": "0.1.0"}, {"category": "developer-tools", "created_at": 1772778341352, "description": "Answer SRS (Simple Realtime Server) questions for developers and users — protocols, configuration, architecture, codecs, ecosystem tools, deployment, and tro...", "description_zh": "", "downloads": 702, "homepage": "https://clawhub.ai/winlinvip/srs-support", "iconUrl": null, "installs": 7, "name": "SRS Support", "ownerName": "winlinvip", "score": 6622.641509433962, "slug": "srs-support", "source": "clawhub", "stars": 0, "tags": null, "updated_at": 1776768250162, "version": "1.0.6"}, {"category": "developer-tools", "created_at": 1774617378259, "description": "Self-reflection + Self-criticism + Self-learning + Self-organizing memory. Agent evaluates its own work, catches mistakes, and improves permanently. Use befo...", "description_zh": "", "downloads": 702, "homepage": "https://clawhub.ai/theo-jobs/hamster-self-improving", "iconUrl": null, "installs": 151, "name": "Self-Improving Agent (With Self-Reflection)", "ownerName": "theo-jobs", "score": 34310.85043988269, "slug": "hamster-self-improving", "source": "clawhub", "stars": 0, "tags": null, "updated_at": 1776768249928, "version": "1.2.9"}, {"category": "ai-intelligence", "created_at": 1772773924595, "description": "카카오톡 채널을 AI 에이전트로 만드는 스킬. Vercel Serverless 배포 지원. (옵션: 로컬 컴퓨터와 연결하여 파일/메모리 접근 가능)", "description_zh": "", "downloads": 702, "homepage": "https://clawhub.ai/lifeissea/kakaotalk", "iconUrl": null, "installs": 48, "name": "Kakaotalk", "ownerName": "lifeissea", "score": 14224.924012158055, "slug": "kakaotalk", "source": "clawhub", "stars": 0, "tags": null, "updated_at": 1776768249841, "version": "1.2.8"}, {"category": "data-analysis", "created_at": 1772770633711, "description": "Analyze text and return a sentiment score from -1 (negative) to +1 (positive) using Expanso Edge.", "description_zh": "", "downloads": 702, "homepage": "https://clawhub.ai/aronchick/expanso-sentiment-score", "iconUrl": null, "installs": 15, "name": "Expanso sentiment-score", "ownerName": "aronchick", "score": 5588.727012180559, "slug": "expanso-sentiment-score", "source": "clawhub", "stars": 0, "tags": null, "updated_at": 1776768249719, "version": "1.0.0"}, {"category": "developer-tools", "created_at": 1772772355875, "description": "Manage multi-tier AI inference clusters for homelabs. Health monitoring, expert MoE routing,\nautomatic node recovery, and model deployment across Ollama and llama.cpp nodes. Covers GPU\nmemory planning, Docker volume strategies for large models, sequential startup patterns to\navoid CUDA deadlocks, and unified API gateways via LiteLLM.", "description_zh": "", "downloads": 701, "homepage": "https://clawhub.ai/mlesnews/homelab-cluster", "iconUrl": null, "installs": 24, "name": "Homelab Cluster Management", "ownerName": "mlesnews", "score": 8861.516383640277, "slug": "homelab-cluster", "source": "clawhub", "stars": 2, "tags": null, "updated_at": 1776767090547, "version": "1.0.0"}, {"category": "developer-tools", "created_at": 1772769748462, "description": "Battle in Grid Clash - join 8-agent grid battles. Fetch equipment data to choose the best weapon, armor, and tier. Use when user wants to participate in Grid...", "description_zh": "", "downloads": 701, "homepage": "https://clawhub.ai/appback/claw-clash", "iconUrl": null, "installs": 5, "name": "Openclaw", "ownerName": "appback", "score": 16999.3117687543, "slug": "claw-clash", "source": "clawhub", "stars": 2, "tags": ["ai", "ai-agents", "battle", "deprecated", "game", "korean", "strategy"], "updated_at": 1776767090459, "version": "2.2.0"}, {"category": "productivity", "created_at": 1772770310279, "description": "Plant care, soil management, seasonal timing, pest control, and garden planning.", "description_zh": "", "downloads": 701, "homepage": "https://clawhub.ai/ivangdavila/gardening", "iconUrl": null, "installs": 24, "name": "Gardening", "ownerName": "ivangdavila", "score": 16999.3117687543, "slug": "gardening", "source": "clawhub", "stars": 2, "tags": null, "updated_at": 1776767090451, "version": "1.0.0"}, {"category": "data-analysis", "created_at": 1772770837165, "description": "Documentation and capabilities reference for Moss semantic search. Use for understanding Moss APIs, SDKs, and integration patterns.", "description_zh": "", "downloads": 701, "homepage": "https://clawhub.ai/coderomaster/moss", "iconUrl": null, "installs": 16, "name": "Moss", "ownerName": "coderomaster", "score": 25531.16147308782, "slug": "moss", "source": "clawhub", "stars": 1, "tags": null, "updated_at": 1776767690509, "version": "1.0.3"}, {"category": "content-creation", "created_at": 1772794147327, "description": "Complete on-page SEO system for any website — page optimization, schema markup, technical SEO checklist, internal linking strategy, Core Web Vitals guidance,...", "description_zh": "", "downloads": 701, "homepage": "https://clawhub.ai/danielblinker83-bot/website-seo", "iconUrl": null, "installs": 50, "name": "Website SEO — On-Page Optimization System", "ownerName": "danielblinker83-bot", "score": 14394.090636853662, "slug": "website-seo", "source": "clawhub", "stars": 1, "tags": ["content", "marketing", "social-media"], "updated_at": 1776767649989, "version": "1.0.0"}, {"category": "content-creation", "created_at": 1772774561633, "description": "Generates context-aware memes by selecting optimal templates and crafting witty captions for any topic, situation, or social media content.", "description_zh": "", "downloads": 701, "homepage": "https://clawhub.ai/olisim02/smart-meme-generator", "iconUrl": null, "installs": 40, "name": "Smart Meme Generator", "ownerName": "olisim02", "score": 5178.782505910166, "slug": "smart-meme-generator", "source": "clawhub", "stars": 0, "tags": null, "updated_at": 1776768250142, "version": "1.1.0"}, {"category": "developer-tools", "created_at": 1772776121973, "description": "Execute trades, manage portfolios, access real-time market data, browse market assets, scan volatility, and answer questions about Finam Trade API", "description_zh": "", "downloads": 701, "homepage": "https://clawhub.ai/alexander-panov/finam", "iconUrl": null, "installs": 18, "name": "Finam", "ownerName": "alexander-panov", "score": 9133.550488599349, "slug": "finam", "source": "clawhub", "stars": 0, "tags": null, "updated_at": 1776768249979, "version": "1.0.0"}, {"category": "content-creation", "created_at": 1772770500276, "description": "Full LP workflow from opportunity scanning to position entry. Autonomously finds the best LP opportunity, designs a strategy, assesses risk, executes any needed swaps, enters the position, and reports portfolio impact. Use when user has capital and wants end-to-end LP management. Most complex multi-agent orchestration in the system.", "description_zh": "", "downloads": 701, "homepage": "https://clawhub.ai/wpank/full-lp-workflow", "iconUrl": null, "installs": 49, "name": "Uniswap Full Lp Workflow", "ownerName": "wpank", "score": 9133.550488599349, "slug": "full-lp-workflow", "source": "clawhub", "stars": 0, "tags": null, "updated_at": 1776768249938, "version": "0.1.0"}, {"category": "content-creation", "created_at": 1772776494751, "description": "Talking head video production with AI avatars, lipsync, and voiceover. Covers portrait requirements, audio quality, OmniHuman, PixVerse lipsync, Dia TTS. Use...", "description_zh": "", "downloads": 701, "homepage": "https://clawhub.ai/okaris/talking-head-production", "iconUrl": null, "installs": 81, "name": "Talking Head Production", "ownerName": "okaris", "score": 34261.974584555224, "slug": "talking-head-production", "source": "clawhub", "stars": 0, "tags": null, "updated_at": 1776768249875, "version": "0.1.5"}, {"category": "developer-tools", "created_at": 1772770391055, "description": "Convert JSON input into YAML format using Expanso Edge pipelines for CLI or MCP server integration.", "description_zh": "", "downloads": 701, "homepage": "https://clawhub.ai/aronchick/expanso-json-to-yaml", "iconUrl": null, "installs": 8, "name": "Expanso json-to-yaml", "ownerName": "aronchick", "score": 14204.660587639311, "slug": "expanso-json-to-yaml", "source": "clawhub", "stars": 0, "tags": null, "updated_at": 1776768249817, "version": "1.0.0"}, {"category": "security-compliance", "created_at": 1773424203178, "description": "Crawl web pages and detect broken links, redirects, and HTTP errors. Use when auditing site links, finding 404 errors, validating URLs before launch.", "description_zh": "", "downloads": 701, "homepage": "https://clawhub.ai/xueyetianya/link-checker", "iconUrl": null, "installs": 25, "name": "Link Checker", "ownerName": "xueyetianya", "score": 5580.765862590558, "slug": "link-checker", "source": "clawhub", "stars": 0, "tags": ["productivity"], "updated_at": 1776768249716, "version": "2.1.0"}, {"category": "content-creation", "created_at": 1772770600238, "description": "Write French that sounds human. Not formal, not robotic, not AI-generated.", "description_zh": "", "downloads": 700, "homepage": "https://clawhub.ai/ivangdavila/french", "iconUrl": null, "installs": 41, "name": "French", "ownerName": "ivangdavila", "score": 21650.087770626098, "slug": "french", "source": "clawhub", "stars": 2, "tags": null, "updated_at": 1776769450212, "version": "1.0.0"}, {"category": "content-creation", "created_at": 1772770625974, "description": "Write Vietnamese that sounds human. Not formal, not robotic, not AI-generated.", "description_zh": "", "downloads": 700, "homepage": "https://clawhub.ai/ivangdavila/vietnamese", "iconUrl": null, "installs": 40, "name": "Vietnamese", "ownerName": "ivangdavila", "score": 7062.416491696889, "slug": "vietnamese", "source": "clawhub", "stars": 2, "tags": null, "updated_at": 1776769450073, "version": "1.0.0"}, {"category": "ai-intelligence", "created_at": 1772772565353, "description": "Make outbound phone calls via ElevenLabs voice agent and Twilio", "description_zh": "", "downloads": 700, "homepage": "https://clawhub.ai/humanjesse/outbound-call", "iconUrl": null, "installs": 37, "name": "Outbound Call", "ownerName": "humanjesse", "score": 50511.94539249146, "slug": "outbound-call", "source": "clawhub", "stars": 2, "tags": null, "updated_at": 1776767171132, "version": "0.1.5"}, {"category": "productivity", "created_at": 1772794186590, "description": "Download PDFs from PubMed Central (PMC) and Europe PMC. Use when the user needs to download open-access academic papers from PubMed Central using PMC ID, Pub...", "description_zh": "", "downloads": 700, "homepage": "https://clawhub.ai/xuyuan0805/xy-pubmed-pdf-downloader", "iconUrl": null, "installs": 185, "name": "XY PubMed PDF Downloader", "ownerName": "xuyuan0805", "score": 2961.2081729345573, "slug": "xy-pubmed-pdf-downloader", "source": "clawhub", "stars": 0, "tags": null, "updated_at": 1776770650230, "version": "1.0.0"}, {"category": "productivity", "created_at": 1772770147624, "description": "An intelligent event finder that searches for meetups and events based on your interests, tracks them, and reminds you before they happen", "description_zh": "", "downloads": 700, "homepage": "https://clawhub.ai/apresmoi/meetup-planner", "iconUrl": null, "installs": 19, "name": "Meetup Planner", "ownerName": "apresmoi", "score": 5171.394799054373, "slug": "meetup-planner", "source": "clawhub", "stars": 0, "tags": null, "updated_at": 1776768250080, "version": "0.1.5"}, {"category": "developer-tools", "created_at": 1772771395375, "description": "Summarize input text into 3-5 concise bullet points using AI with Expanso Edge.", "description_zh": "", "downloads": 700, "homepage": "https://clawhub.ai/aronchick/expanso-text-summarize", "iconUrl": null, "installs": 17, "name": "Expanso text-summarize", "ownerName": "aronchick", "score": 4670.091400360264, "slug": "expanso-text-summarize", "source": "clawhub", "stars": 0, "tags": null, "updated_at": 1776768250030, "version": "1.0.0"}, {"category": "developer-tools", "created_at": 1772769874816, "description": "Participant MoltBot for allocation proposal, validation, and submission", "description_zh": "", "downloads": 699, "homepage": "https://clawhub.ai/wiimdy/openfunderse-strategy", "iconUrl": null, "installs": 5, "name": "OpenFunderse Strategy", "ownerName": "wiimdy", "score": 5779.816513761468, "slug": "openfunderse-strategy", "source": "clawhub", "stars": 6, "tags": ["monad", "openfunderse", "strategy"], "updated_at": 1776765850315, "version": "2.0.2"}, {"category": "ai-intelligence", "created_at": 1772774421436, "description": "AI-powered system for creating structured, balanced performance reviews, self-assessments, 360° feedback, and calibration notes across review cycles.", "description_zh": "", "downloads": 699, "homepage": "https://clawhub.ai/1kalin/afrexai-performance-review", "iconUrl": null, "installs": 50, "name": "Performance Review Engine", "ownerName": "1kalin", "score": 50443.68600682594, "slug": "afrexai-performance-review", "source": "clawhub", "stars": 2, "tags": ["360", "calibration", "employee", "feedback", "hr", "management", "performance", "review"], "updated_at": 1776767171052, "version": "1.1.0"}, {"category": "data-analysis", "created_at": 1772776261572, "description": "Prepare for IELTS Academic or General Training with progress tracking, weak area analysis, band score targeting, and immigration pathway guidance.", "description_zh": "", "downloads": 698, "homepage": "https://clawhub.ai/ivangdavila/ielts", "iconUrl": null, "installs": 81, "name": "IELTS", "ownerName": "ivangdavila", "score": 54405.594405594406, "slug": "ielts", "source": "clawhub", "stars": 4, "tags": null, "updated_at": 1776766490428, "version": "1.0.0"}, {"category": "content-creation", "created_at": 1772770810944, "description": "Write Korean that sounds human. Not formal, not robotic, not AI-generated.", "description_zh": "", "downloads": 698, "homepage": "https://clawhub.ai/ivangdavila/korean", "iconUrl": null, "installs": 38, "name": "Korean", "ownerName": "ivangdavila", "score": 6963.578033591243, "slug": "korean", "source": "clawhub", "stars": 2, "tags": null, "updated_at": 1776769450235, "version": "1.0.0"}, {"category": "ai-intelligence", "created_at": 1772777406628, "description": "Agent Services Marketplace - Find AI agents for research, coding, trading, and more", "description_zh": "", "downloads": 698, "homepage": "https://clawhub.ai/guohongbin-git/agent-services-cn", "iconUrl": null, "installs": 72, "name": "Agent Services Cn", "ownerName": "guohongbin-git", "score": 9683.074848280512, "slug": "agent-services-cn", "source": "clawhub", "stars": 1, "tags": null, "updated_at": 1776767771112, "version": "1.0.0"}, {"category": "security-compliance", "created_at": 1772770559918, "description": "Send real, physical greeting cards through the mail. Design custom cards with the user, print on premium cardstock, and mail with a first-class stamp. Use when the user wants to send a card, mentions a birthday or occasion, or asks about greeting cards. Requires a free API registration (POST /v1/auth/register returns a Bearer token). Works via API — no browser needed. Homepage https://indexcards.com — privacy policy at https://indexcards.com/privacy.", "description_zh": "", "downloads": 698, "homepage": "https://clawhub.ai/jonwheatley/index-cards", "iconUrl": null, "installs": 24, "name": "Index Cards", "ownerName": "jonwheatley", "score": 4656.748282073521, "slug": "index-cards", "source": "clawhub", "stars": 0, "tags": null, "updated_at": 1776768250054, "version": "1.3.1"}, {"category": "communication-collaboration", "created_at": 1772770521260, "description": "Deliver files via multi-channel fallback (Telegram, Discord, Google Drive, S3, IPFS) with automatic retries, chunking, integrity checks, and delivery tracking.", "description_zh": "", "downloads": 698, "homepage": "https://clawhub.ai/shepherd217/resilient-file-delivery", "iconUrl": null, "installs": 16, "name": "Resilient File Delivery", "ownerName": "shepherd217", "score": 5556.8824138205555, "slug": "resilient-file-delivery", "source": "clawhub", "stars": 0, "tags": null, "updated_at": 1776768249738, "version": "1.0.0"}, {"category": "content-creation", "created_at": 1772775106955, "description": "Write original songs with guided lyric development, chord progressions, melody contours, and AI music generator prompts for composers at any level.", "description_zh": "", "downloads": 697, "homepage": "https://clawhub.ai/ivangdavila/song", "iconUrl": null, "installs": 75, "name": "Song", "ownerName": "ivangdavila", "score": 13882.266642215294, "slug": "song", "source": "clawhub", "stars": 3, "tags": null, "updated_at": 1776766871211, "version": "1.0.0"}, {"category": "data-analysis", "created_at": 1773041959184, "description": "Operate Binance Spot APIs through safe REST, WebSocket, and SDK workflows with signed requests, rate-limit control, and testnet-first execution.", "description_zh": "", "downloads": 697, "homepage": "https://clawhub.ai/ivangdavila/binance", "iconUrl": null, "installs": 35, "name": "Binance API", "ownerName": "ivangdavila", "score": 50307.167235494875, "slug": "binance", "source": "clawhub", "stars": 2, "tags": null, "updated_at": 1776767171145, "version": "1.0.0"}, {"category": "content-creation", "created_at": 1772772580923, "description": "Test untrusted skills in an isolated environment before installing. Monitors network access, filesystem writes, environment variable reads, and subprocess ca...", "description_zh": "", "downloads": 697, "homepage": "https://clawhub.ai/trypto1019/arc-skill-sandbox", "iconUrl": null, "installs": 44, "name": "Skill Sandbox", "ownerName": "trypto1019", "score": 5149.231678486998, "slug": "arc-skill-sandbox", "source": "clawhub", "stars": 0, "tags": null, "updated_at": 1776768250088, "version": "1.1.0"}, {"category": "productivity", "created_at": 1772770232150, "description": "Spin up a one-time web UI for securely entering secret keys and env vars. Supports guided instructions, single-key mode, and cloudflared tunneling.", "description_zh": "", "downloads": 697, "homepage": "https://clawhub.ai/awlevin/secret-portal", "iconUrl": null, "installs": 21, "name": "Secret Portal", "ownerName": "awlevin", "score": 5149.231678486998, "slug": "secret-portal", "source": "clawhub", "stars": 0, "tags": null, "updated_at": 1776768250082, "version": "0.1.0"}, {"category": "security-compliance", "created_at": 1772779517488, "description": "Expertise in auditing, prioritizing, selecting platforms, and architecting workflows to identify, build, and scale effective business automations across any...", "description_zh": "", "downloads": 697, "homepage": "https://clawhub.ai/1kalin/afrexai-automation-strategy", "iconUrl": null, "installs": 24, "name": "Business Automation Strategy", "ownerName": "1kalin", "score": 9081.4332247557, "slug": "afrexai-automation-strategy", "source": "clawhub", "stars": 0, "tags": ["automation", "integration", "n8n", "no-code", "workflow", "zapier"], "updated_at": 1776768249981, "version": "1.0.0"}, {"category": "developer-tools", "created_at": 1772785544957, "description": "Generates eerie micro-fiction ghost stories or sci-fi tales using random prompts, delivering them as formatted Feishu cards.", "description_zh": "", "downloads": 696, "homepage": "https://clawhub.ai/autogame-17/autogame-tales", "iconUrl": null, "installs": 113, "name": "Autogame Tales", "ownerName": "autogame-17", "score": 9656.102494942685, "slug": "autogame-tales", "source": "clawhub", "stars": 1, "tags": null, "updated_at": 1776767771162, "version": "1.0.0"}, {"category": "developer-tools", "created_at": 1772775173108, "description": "Generate changelogs from git commits. Supports markdown, plain text, and JSON output with date ranges and tag-based filtering.", "description_zh": "", "downloads": 696, "homepage": "https://clawhub.ai/rogue-agent1/git-changelog-gen", "iconUrl": null, "installs": 13, "name": "Git Changelog Generator", "ownerName": "rogue-agent1", "score": 55546.68794892259, "slug": "git-changelog-gen", "source": "clawhub", "stars": 0, "tags": null, "updated_at": 1776768290471, "version": "1.0.0"}]}