{"page": 136, "total_pages": 522, "total": 26073, "skills": [{"category": "data-analysis", "created_at": 1772777173381, "description": "Premium AI-first URL shortening and management with real-time analytics and team collaboration via MCP. Use when shortening links for marketing, tracking AI...", "description_zh": "", "downloads": 696, "homepage": "https://clawhub.ai/agentmilindu/zulk-short-url-skill", "iconUrl": null, "installs": 16, "name": "Zulk Short URL Skill", "ownerName": "agentmilindu", "score": 55546.68794892259, "slug": "zulk-short-url-skill", "source": "clawhub", "stars": 0, "tags": null, "updated_at": 1776768290424, "version": "0.1.4"}, {"category": "developer-tools", "created_at": 1772769851135, "description": "Interact in a shared 256x256 pixel grid by placing one pixel per hour, enabling study of multi-agent cooperation, competition, and emergent behaviors.", "description_zh": "", "downloads": 696, "homepage": "https://clawhub.ai/coolkonstantincool/pixelbattle", "iconUrl": null, "installs": 5, "name": "Pixel Battle skill", "ownerName": "coolkonstantincool", "score": 6566.037735849056, "slug": "pixelbattle", "source": "clawhub", "stars": 0, "tags": null, "updated_at": 1776768250199, "version": "1.0.0"}, {"category": "security-compliance", "created_at": 1773041886707, "description": "Security monitoring and threat detection for OpenClaw agents — powered by Google SecOps (Chronicle). Protect your agent with SIEM-powered real-time detection...", "description_zh": "", "downloads": 695, "homepage": "https://clawhub.ai/brunopradof/openclaw-shield-upx", "iconUrl": null, "installs": 11, "name": "OpenClaw Shield", "ownerName": "brunopradof", "score": 9974.21631157552, "slug": "openclaw-shield-upx", "source": "clawhub", "stars": 2, "tags": null, "updated_at": 1776767350179, "version": "1.4.1"}, {"category": "developer-tools", "created_at": 1772770068382, "description": "Navigate virtual worlds, create avatars, manage digital assets, and understand Web3 social platforms.", "description_zh": "", "downloads": 695, "homepage": "https://clawhub.ai/ivangdavila/metaverse", "iconUrl": null, "installs": 12, "name": "Metaverse", "ownerName": "ivangdavila", "score": 26137.980085348507, "slug": "metaverse", "source": "clawhub", "stars": 2, "tags": null, "updated_at": 1776767349840, "version": "1.0.0"}, {"category": "developer-tools", "created_at": 1773024793216, "description": "Pay people in SOL or USDC, buy and sell tokens, check prices, discover trending and new tokens, create and manage Solana wallets, stake SOL, earn yield throu...", "description_zh": "", "downloads": 695, "homepage": "https://clawhub.ai/solanaguide/solana-payments-wallets-trading", "iconUrl": null, "installs": 8, "name": "Solana CLI for trading, prediction markets, defi and x402 payments", "ownerName": "solanaguide", "score": 20688.65740740741, "slug": "solana-payments-wallets-trading", "source": "clawhub", "stars": 1, "tags": null, "updated_at": 1776767949797, "version": "0.3.4"}, {"category": "developer-tools", "created_at": 1772770484982, "description": "Reference guide for the Atlassian CLI (acli) - a command-line tool for interacting with Jira Cloud and Atlassian organization administration. Use this skill...", "description_zh": "", "downloads": 695, "homepage": "https://clawhub.ai/peetzweg/atlassian-cli", "iconUrl": null, "installs": 9, "name": "Atlassian aCLI Reference Skill for Jira and Confluence", "ownerName": "peetzweg", "score": 16372.795969773299, "slug": "atlassian-cli", "source": "clawhub", "stars": 1, "tags": null, "updated_at": 1776767949756, "version": "1.0.1"}, {"category": "data-analysis", "created_at": 1772774663532, "description": "Analyzes contracts and agreements for risks, unusual terms, and missing clauses", "description_zh": "", "downloads": 695, "homepage": "https://clawhub.ai/1kalin/afrexai-contract-analyzer", "iconUrl": null, "installs": 28, "name": "AfrexAI Contract Analyzer", "ownerName": "1kalin", "score": 3056.5573049520626, "slug": "afrexai-contract-analyzer", "source": "clawhub", "stars": 0, "tags": null, "updated_at": 1776768290523, "version": "1.0.0"}, {"category": "developer-tools", "created_at": 1772770103683, "description": "Complete development work by presenting structured options for merge, PR, or cleanup. Use when implementation is complete, all tests pass, and you need to decide how to integrate work. Triggers on finish branch, complete branch, merge branch, create PR, done with feature, implementation complete.", "description_zh": "", "downloads": 695, "homepage": "https://clawhub.ai/wpank/finishing-branch", "iconUrl": null, "installs": 9, "name": "Finishing Branch", "ownerName": "wpank", "score": 55466.87948922586, "slug": "finishing-branch", "source": "clawhub", "stars": 0, "tags": null, "updated_at": 1776768290475, "version": "0.1.0"}, {"category": "communication-collaboration", "created_at": 1773222620460, "description": "Enable Telegram cross-instance chat, user mention, and personal bot setup for seamless communication among Openclaw users.", "description_zh": "", "downloads": 695, "homepage": "https://clawhub.ai/adminlove520/openclaw-telegram-chat", "iconUrl": null, "installs": 29, "name": "Openclaw Telegram Chat", "ownerName": "adminlove520", "score": 55466.87948922586, "slug": "openclaw-telegram-chat", "source": "clawhub", "stars": 0, "tags": null, "updated_at": 1776768290473, "version": "0.1.0"}, {"category": "ai-intelligence", "created_at": 1772774834023, "description": "Orchestrate multi-agent workflows with JSON tickets and A2A coordination. Use when delegating tasks between CyberMao (Main) and Worker agents (Engineer/Resea...", "description_zh": "", "downloads": 694, "homepage": "https://clawhub.ai/muselinn/fis-architecture", "iconUrl": null, "installs": 34, "name": "FIS Architecture", "ownerName": "muselinn", "score": 13827.25105446543, "slug": "fis-architecture", "source": "clawhub", "stars": 3, "tags": ["badge", "fis", "multi-agent", "qmd", "tickets", "workflow"], "updated_at": 1776766871194, "version": "3.3.1"}, {"category": "productivity", "created_at": 1772789355101, "description": "Deep OSINT (Open Source Intelligence) investigations. Use when the user wants to research, find, or investigate any person, place, organisation, username, do...", "description_zh": "", "downloads": 694, "homepage": "https://clawhub.ai/cineglobe/osint-investigator", "iconUrl": null, "installs": 31, "name": "OSINT Investigator", "ownerName": "cineglobe", "score": 29728.635074929123, "slug": "osint-investigator", "source": "clawhub", "stars": 2, "tags": null, "updated_at": 1776767349742, "version": "1.0.0"}, {"category": "content-creation", "created_at": 1772770290260, "description": "Patterns for skeleton loaders, shimmer effects, and loading states that match design system aesthetics. Covers skeleton components, shimmer animations, and progressive loading. Use when building polished loading experiences. Triggers on skeleton, loading state, shimmer, placeholder, loading animation.", "description_zh": "", "downloads": 694, "homepage": "https://clawhub.ai/wpank/loading-state-patterns", "iconUrl": null, "installs": 39, "name": "Loading State Patterns", "ownerName": "wpank", "score": 3692.274952117472, "slug": "loading-state-patterns", "source": "clawhub", "stars": 0, "tags": null, "updated_at": 1776768371282, "version": "1.0.0"}, {"category": "data-analysis", "created_at": 1772781316582, "description": "Observability Designer (POWERFUL)", "description_zh": "", "downloads": 694, "homepage": "https://clawhub.ai/alirezarezvani/observability-designer", "iconUrl": null, "installs": 9, "name": "Observability Designer", "ownerName": "alirezarezvani", "score": 3052.1593807722757, "slug": "observability-designer", "source": "clawhub", "stars": 0, "tags": null, "updated_at": 1776768371055, "version": "2.1.1"}, {"category": "productivity", "created_at": 1772774715075, "description": "Local speech-to-text using faster-whisper. High-performance transcription with GPU acceleration support. Includes word-level timestamps and distilled models....", "description_zh": "", "downloads": 694, "homepage": "https://clawhub.ai/damirikys/faster-whisper-local", "iconUrl": null, "installs": 31, "name": "Faster Whisper Local", "ownerName": "damirikys", "score": 3052.1593807722757, "slug": "faster-whisper-local", "source": "clawhub", "stars": 0, "tags": null, "updated_at": 1776768292212, "version": "1.0.0"}, {"category": "content-creation", "created_at": 1772776319390, "description": "Open Graph and social sharing image design with platform specs, text placement, and branding. Covers OG meta tags, Twitter cards, LinkedIn previews, and dyna...", "description_zh": "", "downloads": 694, "homepage": "https://clawhub.ai/okaris/og-image-design", "iconUrl": null, "installs": 66, "name": "Og Image Design", "ownerName": "okaris", "score": 3052.1593807722757, "slug": "og-image-design", "source": "clawhub", "stars": 0, "tags": null, "updated_at": 1776768290533, "version": "0.1.5"}, {"category": "data-analysis", "created_at": 1772781414169, "description": "Complete construction estimating and cost management system. Use when preparing project estimates, bid proposals, cost breakdowns, value engineering, change...", "description_zh": "", "downloads": 694, "homepage": "https://clawhub.ai/1kalin/afrexai-construction-estimator", "iconUrl": null, "installs": 57, "name": "Construction Estimator Pro", "ownerName": "1kalin", "score": 55387.071029529136, "slug": "afrexai-construction-estimator", "source": "clawhub", "stars": 0, "tags": ["bid", "change-order", "construction", "cost", "estimating", "takeoff", "value-engineering"], "updated_at": 1776768290484, "version": "1.0.0"}, {"category": "content-creation", "created_at": 1772783362337, "description": "Post or schedule video content to TikTok using the Publora API. Use this skill when the user wants to publish or schedule TikTok videos via Publora.", "description_zh": "", "downloads": 694, "homepage": "https://clawhub.ai/sergebulaev/publora-tiktok", "iconUrl": null, "installs": 46, "name": "Publora — TikTok", "ownerName": "sergebulaev", "score": 55387.071029529136, "slug": "publora-tiktok", "source": "clawhub", "stars": 0, "tags": null, "updated_at": 1776768290459, "version": "1.1.0"}, {"category": "ai-intelligence", "created_at": 1772781369761, "description": "Compile multi-format documents into local queryable knowledge bases and manage persistent AI memory tiers using Aura Core with zero network requests.", "description_zh": "", "downloads": 693, "homepage": "https://clawhub.ai/auralithinc/aura-openclaw", "iconUrl": null, "installs": 23, "name": "Aura for OpenClaw", "ownerName": "auralithinc", "score": 14524.614806463735, "slug": "aura-openclaw", "source": "clawhub", "stars": 4, "tags": ["agent-memory", "compiler", "knowledge-base", "memory", "rag"], "updated_at": 1776766571168, "version": "0.1.4"}, {"category": "security-compliance", "created_at": 1772784092679, "description": "Generate donor-ready nonprofit project packages for grants, concept notes, logframes, MEAL plans, budgets, safeguarding reviews, and funder adaptation. Use w...", "description_zh": "", "downloads": 693, "homepage": "https://clawhub.ai/vassiliylakhonin/nonprofit-rbm-logic-model", "iconUrl": null, "installs": 14, "name": "Nonprofit Impact Orchestra", "ownerName": "vassiliylakhonin", "score": 13808.912525215477, "slug": "nonprofit-rbm-logic-model", "source": "clawhub", "stars": 3, "tags": ["budget", "budgeting", "compliance", "donor-ready", "donor-tweaks", "evaluation", "grant-writing", "grants", "impact", "logframe", "meal", "monitoring", "multi-step-orchestrator", "natural-language", "ngo", "nonprofit", "project-design", "proposal-writing", "rbm", "sdg", "theory-of-change", "think-tank"], "updated_at": 1776766871192, "version": "1.0.13"}, {"category": "productivity", "created_at": 1772775264953, "description": "Enables programmatic internalization of lessons into memory and creates structured help requests using the Active Learning Protocol.", "description_zh": "", "downloads": 693, "homepage": "https://clawhub.ai/autogame-17/active-learner", "iconUrl": null, "installs": 41, "name": "Active Learner", "ownerName": "autogame-17", "score": 9947.07558691817, "slug": "active-learner", "source": "clawhub", "stars": 2, "tags": null, "updated_at": 1776767350171, "version": "1.0.0"}, {"category": "data-analysis", "created_at": 1773057589259, "description": "Cross-border e-commerce AI Agent with 41 specialized tools for Amazon/TikTok/eBay/Walmart product research, competitor analysis, keyword tracking, review ins...", "description_zh": "", "downloads": 693, "homepage": "https://clawhub.ai/xxxx3/linkfoxagent", "iconUrl": null, "installs": 157, "name": "LinkFoxAgent", "ownerName": "xxxx3", "score": 5093.4611910221665, "slug": "linkfoxagent", "source": "clawhub", "stars": 2, "tags": null, "updated_at": 1776767349977, "version": "1.0.6"}, {"category": "", "created_at": 1774846552038, "description": "Create, read, edit, and manipulate Word documents (.docx). Supports text, tables, images, headers, footers, styles, and tracked changes.", "description_zh": "", "downloads": 693, "homepage": "https://clawhub.ai/weaglewang/docx-skill", "iconUrl": null, "installs": 160, "name": "docx-skill", "ownerName": "weaglewang", "score": 125.54188624419618, "slug": "docx-skill", "source": "clawhub", "stars": 0, "tags": null, "updated_at": 1776770771344, "version": "1.0.0"}, {"category": "content-creation", "created_at": 1773935932131, "description": "Compile LaTeX documents to PDF using pdflatex, xelatex, or lualatex with template support", "description_zh": "", "downloads": 693, "homepage": "https://clawhub.ai/willamhou/latex-compiler", "iconUrl": null, "installs": 430, "name": "LaTeX Compiler", "ownerName": "willamhou", "score": 1781.6284032187573, "slug": "latex-compiler", "source": "clawhub", "stars": 0, "tags": null, "updated_at": 1776770471368, "version": "1.0.6"}, {"category": "productivity", "created_at": 1773926408031, "description": "Generate Office files with a bundled Python engine. Use when creating or exporting Word (.docx), Excel (.xlsx), or PowerPoint (.pptx) files from structured J...", "description_zh": "", "downloads": 693, "homepage": "https://clawhub.ai/lujohn74/office-generator-py", "iconUrl": null, "installs": 180, "name": "Office Generator Py", "ownerName": "lujohn74", "score": 3085.62269023554, "slug": "office-generator-py", "source": "clawhub", "stars": 0, "tags": null, "updated_at": 1776768371342, "version": "1.0.0"}, {"category": "ai-intelligence", "created_at": 1772776283803, "description": "When the user wants to create, optimize, or plan automotive dealership marketing — including inventory merchandising, VDP copy, seasonal campaigns, conquest...", "description_zh": "", "downloads": 693, "homepage": "https://clawhub.ai/lazralabs-eng/auto-dealer-marketing", "iconUrl": null, "installs": 65, "name": "Auto Dealer Marketing", "ownerName": "lazralabs-eng", "score": 3085.62269023554, "slug": "auto-dealer-marketing", "source": "clawhub", "stars": 0, "tags": ["automotive", "dealership", "inventory", "marketing", "seo"], "updated_at": 1776768371328, "version": "1.0.0"}, {"category": "developer-tools", "created_at": 1772774761982, "description": "Accept crypto and stablecoin payments for e-commerce stores with self-hosted PayRam. Use when building \"crypto e-commerce\", \"Shopify crypto integration\", \"ac...", "description_zh": "", "downloads": 693, "homepage": "https://clawhub.ai/buddhasource/crypto-payments-ecommerce", "iconUrl": null, "installs": 55, "name": "Crypto Payments Ecommerce", "ownerName": "buddhasource", "score": 4187.8172588832485, "slug": "crypto-payments-ecommerce", "source": "clawhub", "stars": 0, "tags": null, "updated_at": 1776768371070, "version": "1.0.2"}, {"category": "developer-tools", "created_at": 1772774251930, "description": "Prevents LLM API 429 errors by estimating tokens, tracking quotas, throttling requests, detecting duplicates, caching responses, and auto-fallback by model.", "description_zh": "", "downloads": 693, "homepage": "https://clawhub.ai/edmonddantesj/token-guard", "iconUrl": null, "installs": 16, "name": "Token Guard", "ownerName": "edmonddantesj", "score": 3047.7614565924882, "slug": "token-guard", "source": "clawhub", "stars": 0, "tags": null, "updated_at": 1776768371060, "version": "1.5.0"}, {"category": "productivity", "created_at": 1772770094246, "description": "Manage Remember The Milk tasks — list, add, complete, delete, search, prioritize, tag, move, and annotate tasks with notes. Use when the user asks about tasks, todos, to-do lists, reminders, or Remember The Milk.", "description_zh": "", "downloads": 692, "homepage": "https://clawhub.ai/maxdraki/rtm", "iconUrl": null, "installs": 17, "name": "Remember The Milk", "ownerName": "maxdraki", "score": 8117.443868739206, "slug": "rtm", "source": "clawhub", "stars": 3, "tags": null, "updated_at": 1776767050170, "version": "1.1.0"}, {"category": "developer-tools", "created_at": 1772770575196, "description": "Render structured data as beautiful hosted web pages, and create hosted forms for data collection, using the RenderKit API. Use this for visual pages, survey...", "description_zh": "", "downloads": 692, "homepage": "https://clawhub.ai/antoinedc/renderkit", "iconUrl": null, "installs": 24, "name": "Clawhub Renderkit Skill", "ownerName": "antoinedc", "score": 5086.512403585574, "slug": "renderkit", "source": "clawhub", "stars": 2, "tags": ["stable"], "updated_at": 1776767349984, "version": "1.4.0"}, {"category": "ai-intelligence", "created_at": 1772772400536, "description": "Hire humans or AI agents for tasks you cannot do yourself, with platform selection, vetting, contracts, and payment management.", "description_zh": "", "downloads": 692, "homepage": "https://clawhub.ai/ivangdavila/hiring", "iconUrl": null, "installs": 36, "name": "Hiring", "ownerName": "ivangdavila", "score": 26031.29445234708, "slug": "hiring", "source": "clawhub", "stars": 2, "tags": null, "updated_at": 1776767349835, "version": "1.0.0"}, {"category": "data-analysis", "created_at": 1772771155655, "description": "Scout, monitor, and bid on auctions on House (houseproto.fun) — a crypto auction platform on Base. Proactively watches for items the user cares about.", "description_zh": "", "downloads": 692, "homepage": "https://clawhub.ai/im-still-thinking/auction-house", "iconUrl": null, "installs": 15, "name": "House Auction", "ownerName": "im-still-thinking", "score": 3681.634390295808, "slug": "auction-house", "source": "clawhub", "stars": 0, "tags": ["auctions", "base", "crypto", "trading"], "updated_at": 1776768371299, "version": "1.0.0"}, {"category": "content-creation", "created_at": 1772774684731, "description": "Generates an ASCII tree or JSON representation of a directory structure. Use when you need to visualize file hierarchies, document folder contents, or debug...", "description_zh": "", "downloads": 692, "homepage": "https://clawhub.ai/wanng-ide/folder-tree-generator", "iconUrl": null, "installs": 33, "name": "Folder Tree Generator", "ownerName": "wanng-ide", "score": 3681.634390295808, "slug": "folder-tree-generator", "source": "clawhub", "stars": 0, "tags": null, "updated_at": 1776768371287, "version": "1.0.0"}, {"category": "data-analysis", "created_at": 1773937260761, "description": "A tool to query Chinese listed company announcements from SZSE (Shenzhen Stock Exchange) and SSE (Shanghai Stock Exchange). Supports single/batch stock queri...", "description_zh": "", "downloads": 692, "homepage": "https://clawhub.ai/noahstepheno/cn-stock-announcements", "iconUrl": null, "installs": 282, "name": "A股上市公司公告", "ownerName": "noahstepheno", "score": 4572.787946871076, "slug": "cn-stock-announcements", "source": "clawhub", "stars": 0, "tags": null, "updated_at": 1776768371181, "version": "1.0.1"}, {"category": "developer-tools", "created_at": 1772770397091, "description": "Enables AI agents to send USDC payments and order freelance services through an escrow-backed marketplace on Base. Handles wallet management, Fiverr-style gig ordering with tiered pricing, and order status polling. Use when the agent needs to make crypto payments, hire freelancers, or check order status on Locus.", "description_zh": "", "downloads": 692, "homepage": "https://clawhub.ai/wjorgensen/hire-with-locus", "iconUrl": null, "installs": 7, "name": "Locus Contractors", "ownerName": "wjorgensen", "score": 4181.774232535654, "slug": "hire-with-locus", "source": "clawhub", "stars": 0, "tags": null, "updated_at": 1776768371149, "version": "1.0.0"}, {"category": "productivity", "created_at": 1772786913596, "description": "Connect to remote desktops via RDP, VNC, and SSH X11 with secure tunneling and troubleshooting.", "description_zh": "", "downloads": 692, "homepage": "https://clawhub.ai/ivangdavila/remote-desktop", "iconUrl": null, "installs": 32, "name": "Remote Desktop", "ownerName": "ivangdavila", "score": 4181.774232535654, "slug": "remote-desktop", "source": "clawhub", "stars": 0, "tags": null, "updated_at": 1776768371080, "version": "1.0.0"}, {"category": "developer-tools", "created_at": 1772796684366, "description": "Free local speech-to-text transcription using OpenAI Whisper. Transcribe audio files (mp3, wav, m4a, ogg, etc.) to text without API costs. Use when: (1) User...", "description_zh": "", "downloads": 692, "homepage": "https://clawhub.ai/nickylin/whisper-stt", "iconUrl": null, "installs": 50, "name": "Whisper STT", "ownerName": "nickylin", "score": 4181.774232535654, "slug": "whisper-stt", "source": "clawhub", "stars": 0, "tags": null, "updated_at": 1776768371072, "version": "1.0.0"}, {"category": "developer-tools", "created_at": 1772770748565, "description": "Validate JSON syntax and structure using the Expanso Edge pipeline in CLI or MCP server modes.", "description_zh": "", "downloads": 692, "homepage": "https://clawhub.ai/aronchick/expanso-json-validate", "iconUrl": null, "installs": 6, "name": "Expanso json-validate", "ownerName": "aronchick", "score": 3043.3635324127013, "slug": "expanso-json-validate", "source": "clawhub", "stars": 0, "tags": null, "updated_at": 1776768371043, "version": "1.0.0"}, {"category": "content-creation", "created_at": 1772770624370, "description": "Write Hebrew that sounds human. Not formal, not robotic, not AI-generated.", "description_zh": "", "downloads": 691, "homepage": "https://clawhub.ai/ivangdavila/hebrew", "iconUrl": null, "installs": 37, "name": "Hebrew", "ownerName": "ivangdavila", "score": 8760.7861936721, "slug": "hebrew", "source": "clawhub", "stars": 2, "tags": null, "updated_at": 1776769490523, "version": "1.0.0"}, {"category": "content-creation", "created_at": 1772771740510, "description": "Write Indonesian that sounds human. Not formal, not robotic, not AI-generated.", "description_zh": "", "downloads": 691, "homepage": "https://clawhub.ai/ivangdavila/indonesian", "iconUrl": null, "installs": 39, "name": "Indonesian", "ownerName": "ivangdavila", "score": 10799.231791992908, "slug": "indonesian", "source": "clawhub", "stars": 2, "tags": null, "updated_at": 1776769449978, "version": "1.0.0"}, {"category": "productivity", "created_at": 1772774015082, "description": "Download Instagram Reels, transcribe audio, and extract captions. Share a reel URL and get back a full transcript with the original description.", "description_zh": "", "downloads": 691, "homepage": "https://clawhub.ai/antoinedc/instagram-reels", "iconUrl": null, "installs": 29, "name": "Instagram Reels", "ownerName": "antoinedc", "score": 17467.14456391876, "slug": "instagram-reels", "source": "clawhub", "stars": 2, "tags": ["stable"], "updated_at": 1776767350052, "version": "1.0.0"}, {"category": "productivity", "created_at": 1773057044906, "description": "Create stunning, animation-rich HTML presentations from scratch or convert PowerPoint files (.ppt/.pptx) to beautiful web slides. Use when the user wants to...", "description_zh": "", "downloads": 691, "homepage": "https://clawhub.ai/leoyeai/openclaw-slides", "iconUrl": null, "installs": 169, "name": "Openclaw Slides", "ownerName": "leoyeai", "score": 3076.7175742464046, "slug": "openclaw-slides", "source": "clawhub", "stars": 0, "tags": null, "updated_at": 1776768371365, "version": "1.0.3"}, {"category": "content-creation", "created_at": 1772773705512, "description": "Apply metadata updates to existing Calibre books via calibredb over a Content server. Use for controlled metadata edits after target IDs are confirmed by a read-only lookup.", "description_zh": "", "downloads": 691, "homepage": "https://clawhub.ai/nextaltair/calibre-metadata-apply", "iconUrl": null, "installs": 40, "name": "Calibre Metadata Apply", "ownerName": "nextaltair", "score": 3076.7175742464046, "slug": "calibre-metadata-apply", "source": "clawhub", "stars": 0, "tags": null, "updated_at": 1776768371340, "version": "1.0.1"}, {"category": "data-analysis", "created_at": 1772770216890, "description": "Dual-stream event publishing combining Kafka for durability with Redis Pub/Sub for real-time delivery. Use when building event-driven systems needing both guaranteed delivery and low-latency updates. Triggers on dual stream, event publishing, Kafka Redis, real-time events, pub/sub, streaming architecture.", "description_zh": "", "downloads": 691, "homepage": "https://clawhub.ai/wpank/dual-stream-architecture", "iconUrl": null, "installs": 15, "name": "Dual Stream Architecture", "ownerName": "wpank", "score": 3676.3141093849754, "slug": "dual-stream-architecture", "source": "clawhub", "stars": 0, "tags": null, "updated_at": 1776768371248, "version": "1.0.0"}, {"category": "data-analysis", "created_at": 1772770216890, "description": "Dual-stream event publishing combining Kafka for durability with Redis Pub/Sub for real-time delivery. Use when building event-driven systems needing both guaranteed delivery and low-latency updates. Triggers on dual stream, event publishing, Kafka Redis, real-time events, pub/sub, streaming architecture.", "description_zh": "", "downloads": 691, "homepage": "https://clawhub.ai/wpank/dual-stream-architecture", "iconUrl": null, "installs": 15, "name": "Dual Stream Architecture", "ownerName": "wpank", "score": 4566.179871803343, "slug": "dual-stream-architecture", "source": "clawhub", "stars": 0, "tags": null, "updated_at": 1776768371248, "version": "1.0.0"}, {"category": "ai-intelligence", "created_at": 1772771131377, "description": "Join the Kradleverse 🤖 - where AIs can play Minecraft autonomously! See more on https://www.kradleverse.com ⛏️.", "description_zh": "", "downloads": 691, "homepage": "https://clawhub.ai/themrzz/kradleverse", "iconUrl": null, "installs": 39, "name": "Kradleverse", "ownerName": "themrzz", "score": 4566.179871803343, "slug": "kradleverse", "source": "clawhub", "stars": 0, "tags": null, "updated_at": 1776768371208, "version": "1.0.7"}, {"category": "developer-tools", "created_at": 1772799556653, "description": "Advanced associative memory helper for building relationships between facts and entities. Use when processing dense information to ensure context is preserve...", "description_zh": "", "downloads": 691, "homepage": "https://clawhub.ai/balkanblbn/neural-note-taker", "iconUrl": null, "installs": 11, "name": "Neural Note Taker", "ownerName": "balkanblbn", "score": 4175.731206188058, "slug": "neural-note-taker", "source": "clawhub", "stars": 0, "tags": null, "updated_at": 1776768371164, "version": "1.0.0"}, {"category": "data-analysis", "created_at": 1772774757136, "description": "Hundreds of chemistry and scientific computing tools. Molecular weight, LogP, TPSA, SMILES validation, thermodynamics, polymer analysis, electrochemistry, DO...", "description_zh": "", "downloads": 690, "homepage": "https://clawhub.ai/gressling/paramus-chemistry", "iconUrl": null, "installs": 31, "name": "Paramus Professional Chemistry OS", "ownerName": "gressling", "score": 17443.249701314217, "slug": "paramus-chemistry", "source": "clawhub", "stars": 2, "tags": null, "updated_at": 1776767350064, "version": "1.0.7"}, {"category": "developer-tools", "created_at": 1772772112820, "description": "Manage AWS Lightsail and EC2 instances using AWS CLI", "description_zh": "", "downloads": 690, "homepage": "https://clawhub.ai/hypertextassassinrajith/awscli", "iconUrl": null, "installs": 7, "name": "Awscli", "ownerName": "hypertextassassinrajith", "score": 5072.61482871239, "slug": "awscli", "source": "clawhub", "stars": 2, "tags": null, "updated_at": 1776767349990, "version": "0.1.2"}, {"category": "content-creation", "created_at": 1773900388746, "description": "Gitee operations via OpenAPI and git: repositories, pull requests, issues, comments, and file contents. Use when: (1) inspecting or creating Gitee pull reque...", "description_zh": "", "downloads": 690, "homepage": "https://clawhub.ai/jvy/gitee", "iconUrl": null, "installs": 164, "name": "gitee", "ownerName": "jvy", "score": 5756.4455975352685, "slug": "gitee", "source": "clawhub", "stars": 1, "tags": null, "updated_at": 1776769871169, "version": "1.0.0"}, {"category": "data-analysis", "created_at": 1772804773124, "description": "Model business performance, define KPIs, and turn data into decision-ready dashboards, briefings, and operating cadences for teams and executives.", "description_zh": "", "downloads": 690, "homepage": "https://clawhub.ai/ivangdavila/business-intelligence", "iconUrl": null, "installs": 33, "name": "Business Intelligence", "ownerName": "ivangdavila", "score": 10360.426090763169, "slug": "business-intelligence", "source": "clawhub", "stars": 1, "tags": null, "updated_at": 1776767950136, "version": "1.0.0"}]}