{"page": 137, "total_pages": 522, "total": 26073, "skills": [{"category": "productivity", "created_at": 1772782764541, "description": "Transcribes local voice messages to text using Faster Whisper models for fast, privacy-focused speech recognition on audio files.", "description_zh": "", "downloads": 690, "homepage": "https://clawhub.ai/kalmuraee/faster-whisper-transcribe", "iconUrl": null, "installs": 23, "name": "Faster Whisper Transcription", "ownerName": "kalmuraee", "score": 39137.8332387975, "slug": "faster-whisper-transcribe", "source": "clawhub", "stars": 0, "tags": ["audio", "transcription", "whisper"], "updated_at": 1776768550072, "version": "1.0.0"}, {"category": "security-compliance", "created_at": 1772784672737, "description": "Manage Obsidian vaults via LiveSync CouchDB — capture notes, AI-enrich and file them, manage tasks, audit and tidy vault structure. Use when working with Obs...", "description_zh": "", "downloads": 690, "homepage": "https://clawhub.ai/philmossman/obsidian-curator", "iconUrl": null, "installs": 21, "name": "obsidian-curator", "ownerName": "philmossman", "score": 39137.8332387975, "slug": "obsidian-curator", "source": "clawhub", "stars": 0, "tags": null, "updated_at": 1776768550060, "version": "0.1.1"}, {"category": "productivity", "created_at": 1772770508616, "description": "Execute multiple token swaps in sequence. Use when user wants to rebalance, swap into multiple tokens, or execute a multi-step trading plan. Each swap goes through full safety validation independently.", "description_zh": "", "downloads": 690, "homepage": "https://clawhub.ai/wpank/batch-swap", "iconUrl": null, "installs": 21, "name": "Uniswap Batch Swap", "ownerName": "wpank", "score": 7619.2579505300355, "slug": "batch-swap", "source": "clawhub", "stars": 0, "tags": null, "updated_at": 1776768550016, "version": "0.1.0"}, {"category": "security-compliance", "created_at": 1773417765604, "description": "Firecrawl API integration with managed authentication. Scrape, crawl, map, and search web content. Use this skill when users want to extract content from web...", "description_zh": "", "downloads": 690, "homepage": "https://clawhub.ai/byungkyu/firecrawl-api", "iconUrl": null, "installs": 48, "name": "Firecrawl", "ownerName": "byungkyu", "score": 4305.5035567203295, "slug": "firecrawl-api", "source": "clawhub", "stars": 0, "tags": null, "updated_at": 1776768549820, "version": "1.0.0"}, {"category": "developer-tools", "created_at": 1772770789313, "description": "Detect hardcoded secrets like API keys, tokens, and passwords in text or code using Expanso Edge pipelines.", "description_zh": "", "downloads": 690, "homepage": "https://clawhub.ai/aronchick/expanso-secrets-scan", "iconUrl": null, "installs": 6, "name": "Expanso secrets-scan", "ownerName": "aronchick", "score": 32470.58823529412, "slug": "expanso-secrets-scan", "source": "clawhub", "stars": 0, "tags": null, "updated_at": 1776768549805, "version": "1.0.0"}, {"category": "developer-tools", "created_at": 1772773767210, "description": "Automatically complete EvoMap Hub tasks and review assets to earn credits and build reputation. Supports both CONTRIBUTE (complete tasks) and REVIEW (validat...", "description_zh": "", "downloads": 689, "homepage": "https://clawhub.ai/yonghaozhao722/evomap-bounty-hunter", "iconUrl": null, "installs": 16, "name": "Evomap Bounty Hunter", "ownerName": "yonghaozhao722", "score": 25961.538461538465, "slug": "evomap-bounty-hunter", "source": "clawhub", "stars": 2, "tags": null, "updated_at": 1776767350214, "version": "1.1.0"}, {"category": "developer-tools", "created_at": 1773073092303, "description": "Game AI development guide covering behavior trees, state machines, pathfinding, and decision-making systems. Use when implementing enemy AI, NPC behaviors, f...", "description_zh": "", "downloads": 689, "homepage": "https://clawhub.ai/thb32133451/game-ai", "iconUrl": null, "installs": 77, "name": "Game AI Systems", "ownerName": "thb32133451", "score": 15871.94985448847, "slug": "game-ai", "source": "clawhub", "stars": 1, "tags": null, "updated_at": 1776767949855, "version": "1.0.0"}, {"category": "developer-tools", "created_at": 1772770495448, "description": "Convert XML input into JSON format using Expanso Edge pipelines for CLI, MCP server, or cloud deployment.", "description_zh": "", "downloads": 689, "homepage": "https://clawhub.ai/aronchick/expanso-xml-to-json", "iconUrl": null, "installs": 8, "name": "Expanso xml-to-json", "ownerName": "aronchick", "score": 7140.636335371541, "slug": "expanso-xml-to-json", "source": "clawhub", "stars": 0, "tags": null, "updated_at": 1776768550135, "version": "1.0.0"}, {"category": "productivity", "created_at": 1772771466784, "description": "Sanitize log entries by removing passwords, tokens, and other sensitive patterns using Expanso Edge pipelines.", "description_zh": "", "downloads": 689, "homepage": "https://clawhub.ai/aronchick/expanso-log-sanitize", "iconUrl": null, "installs": 21, "name": "Expanso log-sanitize", "ownerName": "aronchick", "score": 4299.263696493198, "slug": "expanso-log-sanitize", "source": "clawhub", "stars": 0, "tags": null, "updated_at": 1776768549855, "version": "1.0.0"}, {"category": "productivity", "created_at": 1774614722802, "description": "Read Microsoft Word documents (.docx and .doc) with Chinese support. Extract text, search keywords, and save as UTF-8 text files. No Microsoft Word installat...", "description_zh": "", "downloads": 689, "homepage": "https://clawhub.ai/vincent-big-fish/read-word", "iconUrl": null, "installs": 82, "name": "Read Microsoft Word documents (.docx and .doc) with Chinese support", "ownerName": "vincent-big-fish", "score": 4299.263696493198, "slug": "read-word", "source": "clawhub", "stars": 0, "tags": ["chinese", "doc", "document", "docx", "office", "read", "word"], "updated_at": 1776768549848, "version": "1.0.0"}, {"category": "security-compliance", "created_at": 1772775723043, "description": "Comprehensive financial management system for Beijing-based technology companies, covering financial director workflows, budget management, accounting systems, tax optimization, expense reimbursement, customs declaration, annual reporting, and integration with business contracts, R&D budgets, project management, HR, and administrative services. Use when managing any aspect of tech company finances in Beijing including budget planning, expense processing, tax compliance, financial reporting, or cross-functional financial coordination.", "description_zh": "", "downloads": 688, "homepage": "https://clawhub.ai/wasinc/beijing-tech-finance", "iconUrl": null, "installs": 60, "name": "Beijing Tech Finance", "ownerName": "wasinc", "score": 90672.96340023613, "slug": "beijing-tech-finance", "source": "clawhub", "stars": 4, "tags": null, "updated_at": 1776766750022, "version": "1.0.0"}, {"category": "communication-collaboration", "created_at": 1772771089605, "description": "Read, search, and manage Outlook emails and calendar via Microsoft Graph API with delegate support. Supports sending as self, as owner (Send As), and on behalf of owner (Send on Behalf). Modified for delegate access from https://clawhub.ai/jotamed/outlook", "description_zh": "", "downloads": 688, "homepage": "https://clawhub.ai/87marc/outlook-delegate", "iconUrl": null, "installs": 31, "name": "Outlook Delegate", "ownerName": "87marc", "score": 34909.09090909091, "slug": "outlook-delegate", "source": "clawhub", "stars": 4, "tags": null, "updated_at": 1776766749808, "version": "1.1.1"}, {"category": "security-compliance", "created_at": 1772769890549, "description": "Configure Cross-Origin Resource Sharing correctly to avoid security issues and debugging pain.", "description_zh": "", "downloads": 688, "homepage": "https://clawhub.ai/ivangdavila/cors", "iconUrl": null, "installs": 15, "name": "CORS", "ownerName": "ivangdavila", "score": 20746.651467654603, "slug": "cors", "source": "clawhub", "stars": 2, "tags": null, "updated_at": 1776767390467, "version": "1.0.0"}, {"category": "data-analysis", "created_at": 1772774603151, "description": "Build multi-step AI content creation pipelines combining image, video, audio, and text. Workflow examples: generate image -> animate -> add voiceover -> merg...", "description_zh": "", "downloads": 688, "homepage": "https://clawhub.ai/okaris/ai-content-pipeline", "iconUrl": null, "installs": 35, "name": "Ai Content Pipeline", "ownerName": "okaris", "score": 7597.173144876325, "slug": "ai-content-pipeline", "source": "clawhub", "stars": 0, "tags": null, "updated_at": 1776768549990, "version": "0.1.5"}, {"category": "data-analysis", "created_at": 1773284528543, "description": "Design videos for cultural resonance on Bilibili. Analyze danmu psychology, meme triggers, collective reaction points, and community-native emotional beats t...", "description_zh": "", "downloads": 688, "homepage": "https://clawhub.ai/agimodel/bilibili", "iconUrl": null, "installs": 106, "name": "Bilibili", "ownerName": "agimodel", "score": 12509.090909090908, "slug": "bilibili", "source": "clawhub", "stars": 0, "tags": null, "updated_at": 1776768549964, "version": "1.0.0"}, {"category": "security-compliance", "created_at": 1772773692342, "description": "Smart skill installation advisor for ClawHub. Searches for skills matching your needs, evaluates candidates on security (via skill-shield), code quality, and...", "description_zh": "", "downloads": 688, "homepage": "https://clawhub.ai/yx2601816404-sys/skill-store", "iconUrl": null, "installs": 2, "name": "Skill", "ownerName": "yx2601816404-sys", "score": 32376.470588235294, "slug": "skill-store", "source": "clawhub", "stars": 0, "tags": ["recommendation", "tools"], "updated_at": 1776768549758, "version": "2.3.1"}, {"category": "security-compliance", "created_at": 1772773692342, "description": "Smart skill installation advisor for ClawHub. Searches for skills matching your needs, evaluates candidates on security (via skill-shield), code quality, and...", "description_zh": "", "downloads": 688, "homepage": "https://clawhub.ai/yx2601816404-sys/skill-store", "iconUrl": null, "installs": 2, "name": "Skill", "ownerName": "yx2601816404-sys", "score": 3063.359900262701, "slug": "skill-store", "source": "clawhub", "stars": 0, "tags": ["recommendation", "tools"], "updated_at": 1776768549758, "version": "2.3.1"}, {"category": "content-creation", "created_at": 1772770469879, "description": "Write Dutch that sounds human. Not formal, not robotic, not AI-generated.", "description_zh": "", "downloads": 687, "homepage": "https://clawhub.ai/ivangdavila/dutch", "iconUrl": null, "installs": 39, "name": "Dutch", "ownerName": "ivangdavila", "score": 12687.609075043629, "slug": "dutch", "source": "clawhub", "stars": 2, "tags": null, "updated_at": 1776769449881, "version": "1.0.0"}, {"category": "content-creation", "created_at": 1772770504594, "description": "Generate images & videos with AIsa. Gemini 3 Pro Image (image) + Qwen Wan 2.6 (video) via one API key.", "description_zh": "", "downloads": 687, "homepage": "https://clawhub.ai/bowen-dotcom/aisa-media-gen-en-skill", "iconUrl": null, "installs": 37, "name": "AI Media Generation En", "ownerName": "bowen-dotcom", "score": 7119.908798839258, "slug": "aisa-media-gen-en-skill", "source": "clawhub", "stars": 0, "tags": null, "updated_at": 1776768550132, "version": "1.0.0"}, {"category": "content-creation", "created_at": 1772772250714, "description": "Use VLM Run (vlmrun) to generate transcriptions from YouTube videos. Download a video with yt-dlp, then run vlmrun to transcribe with optional timestamps. VLMRUN_API_KEY must be in .env; follow vlmrun-cli-skill for CLI setup and options.", "description_zh": "", "downloads": 687, "homepage": "https://clawhub.ai/mehediahamed/youtube-transcription-generator", "iconUrl": null, "installs": 62, "name": "Youtube Transcription Generator", "ownerName": "mehediahamed", "score": 38967.66874645491, "slug": "youtube-transcription-generator", "source": "clawhub", "stars": 0, "tags": null, "updated_at": 1776768550081, "version": "0.1.0"}, {"category": "content-creation", "created_at": 1772802236770, "description": "Write content that reads as naturally human — no AI tells, no corporate fluff. Use when drafting, editing, or reviewing any content meant for publication or...", "description_zh": "", "downloads": 687, "homepage": "https://clawhub.ai/reighlan/human-writing", "iconUrl": null, "installs": 87, "name": "Human Writing", "ownerName": "reighlan", "score": 12490.909090909092, "slug": "human-writing", "source": "clawhub", "stars": 0, "tags": null, "updated_at": 1776768549920, "version": "1.0.0"}, {"category": "security-compliance", "created_at": 1772774531907, "description": "Manage and enforce least-privilege execution, approval-based elevation, port and egress monitoring, and ISO 27001/NIST compliance reporting for OpenClaw secu...", "description_zh": "", "downloads": 687, "homepage": "https://clawhub.ai/fletcherfrimpong/fletcher-cyber-security-engineer", "iconUrl": null, "installs": 10, "name": "Fletcher Cyber Security Engineer", "ownerName": "fletcherfrimpong", "score": 12490.909090909092, "slug": "fletcher-cyber-security-engineer", "source": "clawhub", "stars": 0, "tags": ["compliance", "iso27001", "nist", "security"], "updated_at": 1776768549901, "version": "0.1.2"}, {"category": "ai-intelligence", "created_at": 1772776928436, "description": "AI agent for call gemini 2 5 pro llm tasks", "description_zh": "", "downloads": 687, "homepage": "https://clawhub.ai/urrrich/call-gemini-2-5-pro-llm", "iconUrl": null, "installs": 42, "name": "Call Gemini 2 5 Pro Llm", "ownerName": "urrrich", "score": 32329.411764705885, "slug": "call-gemini-2-5-pro-llm", "source": "clawhub", "stars": 0, "tags": null, "updated_at": 1776768549772, "version": "0.1.0"}, {"category": "developer-tools", "created_at": 1772776862806, "description": "Look up Microsoft API references, find working code samples, and verify SDK code is correct. Use when working with Azure SDKs, .NET libraries, or Microsoft A...", "description_zh": "", "downloads": 687, "homepage": "https://clawhub.ai/tianqizhang/microsoft-code-reference", "iconUrl": null, "installs": 15, "name": "Microsoft Code Reference", "ownerName": "tianqizhang", "score": 3058.9073422681327, "slug": "microsoft-code-reference", "source": "clawhub", "stars": 0, "tags": null, "updated_at": 1776768549746, "version": "1.0.1"}, {"category": "content-creation", "created_at": 1772771099987, "description": "Write Romanian that sounds human. Not formal, not robotic, not AI-generated.", "description_zh": "", "downloads": 686, "homepage": "https://clawhub.ai/ivangdavila/romanian", "iconUrl": null, "installs": 50, "name": "Romanian", "ownerName": "ivangdavila", "score": 13304.013194062672, "slug": "romanian", "source": "clawhub", "stars": 2, "tags": null, "updated_at": 1776769490409, "version": "1.0.0"}, {"category": "data-analysis", "created_at": 1772771329843, "description": "Transition from vibe coding to vibe clawing by trusting agents with full responsibilities, designing self-closing loops, and climbing the bottleneck ladder.", "description_zh": "", "downloads": 686, "homepage": "https://clawhub.ai/ivangdavila/vibe-clawing", "iconUrl": null, "installs": 55, "name": "Vibe Clawing", "ownerName": "ivangdavila", "score": 10560, "slug": "vibe-clawing", "source": "clawhub", "stars": 2, "tags": null, "updated_at": 1776767471234, "version": "1.0.1"}, {"category": "data-analysis", "created_at": 1772774140907, "description": "Navigate office work with professional communication, meeting prep, workplace dynamics, and visibility tactics.", "description_zh": "", "downloads": 686, "homepage": "https://clawhub.ai/ivangdavila/work", "iconUrl": null, "installs": 56, "name": "Work", "ownerName": "ivangdavila", "score": 7778.0158560102855, "slug": "work", "source": "clawhub", "stars": 2, "tags": null, "updated_at": 1776767471132, "version": "1.0.0"}, {"category": "developer-tools", "created_at": 1772771560966, "description": "CLI for Yandex Tracker (bash + curl). Queues, issues, comments, worklogs, attachments, YQL.", "description_zh": "", "downloads": 686, "homepage": "https://clawhub.ai/bkamuz/yandex-tracker-cli", "iconUrl": null, "installs": 10, "name": "Yandex Tracker CLI", "ownerName": "bkamuz", "score": 7778.0158560102855, "slug": "yandex-tracker-cli", "source": "clawhub", "stars": 2, "tags": ["bash", "cli", "curl", "tracker", "yandex"], "updated_at": 1776767471119, "version": "1.2.8"}, {"category": "data-analysis", "created_at": 1772770085095, "description": "Minimize total codebase size through ruthless simplification. Measure success by final code amount, not effort. Bias toward deletion.", "description_zh": "", "downloads": 686, "homepage": "https://clawhub.ai/wpank/reducing-entropy", "iconUrl": null, "installs": 21, "name": "Reducing Entropy", "ownerName": "wpank", "score": 7575.088339222614, "slug": "reducing-entropy", "source": "clawhub", "stars": 0, "tags": null, "updated_at": 1776768549999, "version": "0.1.0"}, {"category": "developer-tools", "created_at": 1772772864436, "description": "Research and qualify B2B prospects using web search. Builds structured profiles with company intel, key contacts, pain points, and engagement recommendations.", "description_zh": "", "downloads": 685, "homepage": "https://clawhub.ai/1kalin/afrexai-prospect-researcher", "iconUrl": null, "installs": 16, "name": "Prospect Researcher", "ownerName": "1kalin", "score": 53520.11494252874, "slug": "afrexai-prospect-researcher", "source": "clawhub", "stars": 3, "tags": ["prospecting", "research", "sales"], "updated_at": 1776767050213, "version": "1.0.0"}, {"category": "content-creation", "created_at": 1772771429532, "description": "Write Hindi that sounds human. Not formal, not robotic, not AI-generated.", "description_zh": "", "downloads": 685, "homepage": "https://clawhub.ai/ivangdavila/hindi", "iconUrl": null, "installs": 43, "name": "Hindi", "ownerName": "ivangdavila", "score": 12652.705061082026, "slug": "hindi", "source": "clawhub", "stars": 2, "tags": null, "updated_at": 1776769449852, "version": "1.0.0"}, {"category": "data-analysis", "created_at": 1773037163110, "description": "Trade on Hyperliquid. Supports 228+ perps, HIP-3 equity/commodity perps (TSLA, GOLD), market scanning, sentiment analysis, Grok web/X search, and prediction...", "description_zh": "", "downloads": 685, "homepage": "https://clawhub.ai/zoan37/hyperclaw", "iconUrl": null, "installs": 26, "name": "HyperClaw", "ownerName": "zoan37", "score": 7549.724044569406, "slug": "hyperclaw", "source": "clawhub", "stars": 2, "tags": null, "updated_at": 1776767471073, "version": "0.1.15"}, {"category": "productivity", "created_at": 1772786701771, "description": "Durable queue-task helper for resumable, idempotent batch jobs in task-father task folders.", "description_zh": "", "downloads": 685, "homepage": "https://clawhub.ai/moodykong/queue-task", "iconUrl": null, "installs": 25, "name": "Queue Task", "ownerName": "moodykong", "score": 2875.251846877099, "slug": "queue-task", "source": "clawhub", "stars": 0, "tags": null, "updated_at": 1776770650284, "version": "0.1.0"}, {"category": "developer-tools", "created_at": 1772770118265, "description": "Quality checkpoints at every development stage — pre-commit through post-deploy — with configuration examples, threshold tables, bypass protocols, and CI/CD integration. Use when setting up quality automation, configuring CI pipelines, establishing coverage thresholds, or defining deployment requirements.", "description_zh": "", "downloads": 685, "homepage": "https://clawhub.ai/wpank/quality-gates", "iconUrl": null, "installs": 7, "name": "Quality Gates", "ownerName": "wpank", "score": 5656.482246077621, "slug": "quality-gates", "source": "clawhub", "stars": 0, "tags": null, "updated_at": 1776770049992, "version": "0.1.0"}, {"category": "data-analysis", "created_at": 1773074755333, "description": "Remove signs of AI-generated writing from text. Use when editing or reviewing text to make it sound more natural and human-written. Combines Wikipedia's \"Sig...", "description_zh": "", "downloads": 685, "homepage": "https://clawhub.ai/hazy2go/deai-ify", "iconUrl": null, "installs": 115, "name": "Humanizer", "ownerName": "hazy2go", "score": 21955.128205128203, "slug": "deai-ify", "source": "clawhub", "stars": 0, "tags": null, "updated_at": 1776768971082, "version": "3.0.3"}, {"category": "data-analysis", "created_at": 1772782945632, "description": "Automates login to FT.com to extract and provide detailed bilingual English-Chinese summaries of top Financial Times articles with academic rigor.", "description_zh": "", "downloads": 685, "homepage": "https://clawhub.ai/zhouziyue233/ft-reader", "iconUrl": null, "installs": 113, "name": "Financial Times Deep Reader", "ownerName": "zhouziyue233", "score": 3344.2366840794803, "slug": "ft-reader", "source": "clawhub", "stars": 0, "tags": null, "updated_at": 1776768550149, "version": "1.0.0"}, {"category": "developer-tools", "created_at": 1772776202888, "description": "Convert text to speech audio via ComfyUI's Qwen-TTS API, supporting customizable voice, style, model, and output options.", "description_zh": "", "downloads": 685, "homepage": "https://clawhub.ai/yhsi5358/comfyui-tts", "iconUrl": null, "installs": 58, "name": "ComfyUI TTS", "ownerName": "yhsi5358", "score": 7099.181262306975, "slug": "comfyui-tts", "source": "clawhub", "stars": 0, "tags": null, "updated_at": 1776768550104, "version": "1.0.0"}, {"category": "data-analysis", "created_at": 1772786289628, "description": "Analyze DNA, RNA, and protein sequences with alignment, variant calling, and expression analysis pipelines.", "description_zh": "", "downloads": 685, "homepage": "https://clawhub.ai/ivangdavila/bioinformatics", "iconUrl": null, "installs": 46, "name": "Bioinformatics", "ownerName": "ivangdavila", "score": 7099.181262306975, "slug": "bioinformatics", "source": "clawhub", "stars": 0, "tags": null, "updated_at": 1776768550100, "version": "1.0.0"}, {"category": "data-analysis", "created_at": 1772773089637, "description": "Enable OpenClaw as a native macOS menu bar app with quick access popup. **macOS ONLY** - not compatible with Windows or Linux. Use when user asks to \"enable menubar\", \"add menu bar\", \"run in menu bar\", \"make it accessible from menu bar\", or wants quick OpenClaw access without opening full dashboard.", "description_zh": "", "downloads": 685, "homepage": "https://clawhub.ai/prab002/openclaw-menubar", "iconUrl": null, "installs": 20, "name": "openclaw menubar", "ownerName": "prab002", "score": 4274.304255584675, "slug": "openclaw-menubar", "source": "clawhub", "stars": 0, "tags": null, "updated_at": 1776768549863, "version": "1.0.0"}, {"category": "developer-tools", "created_at": 1772769864324, "description": "React hooks for real-time data with SSE, WebSocket, and SWR integration. Covers connection management, reconnection logic, and optimistic updates. Use when building React apps with real-time features. Triggers on SSE hook, WebSocket hook, real-time React, useEventSource, live updates.", "description_zh": "", "downloads": 685, "homepage": "https://clawhub.ai/wpank/realtime-react-hooks", "iconUrl": null, "installs": 12, "name": "Realtime React Hooks", "ownerName": "wpank", "score": 3050.002226278997, "slug": "realtime-react-hooks", "source": "clawhub", "stars": 0, "tags": null, "updated_at": 1776768549742, "version": "1.0.0"}, {"category": "content-creation", "created_at": 1772770377082, "description": "Write Greek that sounds human. Not formal, not robotic, not AI-generated.", "description_zh": "", "downloads": 684, "homepage": "https://clawhub.ai/ivangdavila/greek", "iconUrl": null, "installs": 33, "name": "Greek", "ownerName": "ivangdavila", "score": 17156.3981042654, "slug": "greek", "source": "clawhub", "stars": 2, "tags": null, "updated_at": 1776769450175, "version": "1.0.0"}, {"category": "developer-tools", "created_at": 1772777191119, "description": "Build a go-to-market (GTM) strategy for launching a product or entering a new market. Use when planning how to reach customers, position your product, choose...", "description_zh": "", "downloads": 684, "homepage": "https://clawhub.ai/jk-0001/go-to-market", "iconUrl": null, "installs": 9, "name": "Go To Market", "ownerName": "jk-0001", "score": 14453.982830904371, "slug": "go-to-market", "source": "clawhub", "stars": 2, "tags": null, "updated_at": 1776767650019, "version": "0.1.0"}, {"category": "developer-tools", "created_at": 1772771860710, "description": "Condense information into actionable briefings. User specifies sources, skill structures the output.", "description_zh": "", "downloads": 684, "homepage": "https://clawhub.ai/ivangdavila/brief", "iconUrl": null, "installs": 9, "name": "Brief", "ownerName": "ivangdavila", "score": 11984.770733322297, "slug": "brief", "source": "clawhub", "stars": 2, "tags": null, "updated_at": 1776767649803, "version": "1.0.1"}, {"category": "ai-intelligence", "created_at": 1772774566735, "description": "Buy, maintain, improve, and sell homes with inspection checklists, maintenance schedules, renovation planning, and transaction guidance.", "description_zh": "", "downloads": 684, "homepage": "https://clawhub.ai/ivangdavila/house", "iconUrl": null, "installs": 53, "name": "House", "ownerName": "ivangdavila", "score": 14596.774193548386, "slug": "house", "source": "clawhub", "stars": 2, "tags": null, "updated_at": 1776767649787, "version": "1.1.0"}, {"category": "data-analysis", "created_at": 1772772848874, "description": "SEO content brief creation with keyword research, search intent analysis, and content structure. Covers SERP analysis, heading hierarchy, word count targets,...", "description_zh": "", "downloads": 684, "homepage": "https://clawhub.ai/okaris/seo-content-brief", "iconUrl": null, "installs": 19, "name": "Seo Content Brief", "ownerName": "okaris", "score": 7088.8174940408335, "slug": "seo-content-brief", "source": "clawhub", "stars": 0, "tags": null, "updated_at": 1776768550095, "version": "0.1.5"}, {"category": "", "created_at": 1775725456308, "description": "Tencent SMH API base URL", "description_zh": "", "downloads": 684, "homepage": "https://clawhub.ai/user_e477c79c/tencent-agent-storage", "iconUrl": null, "installs": 5, "name": "tencent-agent-storage", "ownerName": "user_e477c79c", "score": 3045.5496682844296, "slug": "tencent-agent-storage", "source": "community", "stars": 0, "tags": null, "updated_at": 1776768549714, "version": "1.0.4"}, {"category": "ai-intelligence", "created_at": 1772774823752, "description": "Share real-time organizational context with your AI agent — query your context graph, manage records, and receive live insights", "description_zh": "", "downloads": 683, "homepage": "https://clawhub.ai/najmuzzaman-mohammad/nex", "iconUrl": null, "installs": 17, "name": "Nex.ai", "ownerName": "najmuzzaman-mohammad", "score": 14434.018766220803, "slug": "nex", "source": "clawhub", "stars": 2, "tags": null, "updated_at": 1776767650038, "version": "1.0.7"}, {"category": "developer-tools", "created_at": 1772776555334, "description": "Multi-agent debate council — spawns 3 specialized sub-agents in parallel (Scholar, Engineer, Muse) for Round 1, then optional Round 2 cross-examination to ch...", "description_zh": "", "downloads": 683, "homepage": "https://clawhub.ai/robbyczgw-cla/roundtable", "iconUrl": null, "installs": 37, "name": "Roundtable", "ownerName": "robbyczgw-cla", "score": 14434.018766220803, "slug": "roundtable", "source": "clawhub", "stars": 2, "tags": null, "updated_at": 1776767649981, "version": "0.4.1"}, {"category": "content-creation", "created_at": 1772770346778, "description": "Write Estonian that sounds human. Not formal, not robotic, not AI-generated.", "description_zh": "", "downloads": 683, "homepage": "https://clawhub.ai/ivangdavila/estonian", "iconUrl": null, "installs": 34, "name": "Estonian", "ownerName": "ivangdavila", "score": 14576.612903225805, "slug": "estonian", "source": "clawhub", "stars": 2, "tags": null, "updated_at": 1776767649743, "version": "1.0.0"}, {"category": "developer-tools", "created_at": 1772775742115, "description": "A persistent local-only memory system for AI coding agents. Two files, one idea — AGENTS.md (committed, shared) + .agents.local.md (gitignored, personal). Agents read both at session start, update the scratchpad at session end, and promote stable patterns over time. Works across Claude Code, Cursor, Copilot, Windsurf. Subagent-ready. No plugins, no infrastructure, no background processes.", "description_zh": "", "downloads": 683, "homepage": "https://clawhub.ai/andreagriffiths11/agent-context-system", "iconUrl": null, "installs": 47, "name": "Agent Context System", "ownerName": "andreagriffiths11", "score": 18961.687951138258, "slug": "agent-context-system", "source": "clawhub", "stars": 0, "tags": null, "updated_at": 1776768850241, "version": "1.3.2"}]}