{"page": 138, "total_pages": 522, "total": 26073, "skills": [{"category": "content-creation", "created_at": 1772775605062, "description": "Crawl/scrape and extract content from any webpage URL. Returns the page content as clean text or raw HTML. Use this when you need to read the full contents o...", "description_zh": "", "downloads": 683, "homepage": "https://clawhub.ai/okradze/desearch-crawl", "iconUrl": null, "installs": 55, "name": "Crawl By Desearch", "ownerName": "okradze", "score": 4569.478825182311, "slug": "desearch-crawl", "source": "clawhub", "stars": 0, "tags": null, "updated_at": 1776768850093, "version": "1.0.1"}, {"category": "data-analysis", "created_at": 1773880379068, "description": "Analyze a Taobao product against marketplace competitors by searching the same product name on JD.com, Pinduoduo, and Vipshop, then extracting visible price...", "description_zh": "", "downloads": 683, "homepage": "https://clawhub.ai/harrylabsj/taobao-competitor-analyzer", "iconUrl": null, "installs": 69, "name": "Taobao Competitor Analyzer", "ownerName": "harrylabsj", "score": 8290.84729303229, "slug": "taobao-competitor-analyzer", "source": "clawhub", "stars": 0, "tags": null, "updated_at": 1776768590512, "version": "1.0.0"}, {"category": "content-creation", "created_at": 1773063769897, "description": "OpenAI API integration — chat completions, embeddings, image generation, audio transcription, file management, fine-tuning, and assistants via the OpenAI RES...", "description_zh": "", "downloads": 683, "homepage": "https://clawhub.ai/aiwithabidi/openai", "iconUrl": null, "installs": 74, "name": "Openai", "ownerName": "aiwithabidi", "score": 3334.472489381438, "slug": "openai", "source": "clawhub", "stars": 0, "tags": null, "updated_at": 1776768590443, "version": "1.0.0"}, {"category": "productivity", "created_at": 1772771253641, "description": "Convert YAML input into JSON format using Expanso Edge pipelines.", "description_zh": "", "downloads": 683, "homepage": "https://clawhub.ai/aronchick/expanso-yaml-to-json", "iconUrl": null, "installs": 20, "name": "Expanso yaml-to-json", "ownerName": "aronchick", "score": 3334.472489381438, "slug": "expanso-yaml-to-json", "source": "clawhub", "stars": 0, "tags": null, "updated_at": 1776768590439, "version": "1.0.0"}, {"category": "data-analysis", "created_at": 1772774443949, "description": "Command-line tool to search flight prices using Duffel API with options for dates, passengers, stops, and cabin class.", "description_zh": "", "downloads": 683, "homepage": "https://clawhub.ai/jrojas537/flight-pricer", "iconUrl": null, "installs": 19, "name": "Flight Pricer", "ownerName": "jrojas537", "score": 3334.472489381438, "slug": "flight-pricer", "source": "clawhub", "stars": 0, "tags": null, "updated_at": 1776768590413, "version": "1.0.1"}, {"category": "content-creation", "created_at": 1772774381135, "description": "Create short-form social media videos and photo carousel slideshows using the lowkey viral API. Generate AI-powered TikTok videos, Instagram Reels, and carou...", "description_zh": "", "downloads": 682, "homepage": "https://clawhub.ai/tiotdev/lowkey-viral", "iconUrl": null, "installs": 54, "name": "lowkey viral", "ownerName": "tiotdev", "score": 10627.615062761506, "slug": "lowkey-viral", "source": "clawhub", "stars": 4, "tags": null, "updated_at": 1776766750172, "version": "1.1.0"}, {"category": "data-analysis", "created_at": 1772776154640, "description": "Conducts structured web research by querying multiple sources, evaluating credibility, synthesizing data, and providing a detailed summary with citations.", "description_zh": "", "downloads": 682, "homepage": "https://clawhub.ai/underbench2-gif/ub2-web-research-assistant", "iconUrl": null, "installs": 23, "name": "Web Research Assistant", "ownerName": "underbench2-gif", "score": 4429.991409988956, "slug": "ub2-web-research-assistant", "source": "clawhub", "stars": 2, "tags": ["citations", "research", "search", "synthesis", "web"], "updated_at": 1776767650083, "version": "1.0.0"}, {"category": "security-compliance", "created_at": 1772769823010, "description": "Autonomous operator for Switchboard on-demand feeds, Surge streaming, and randomness. Designs jobs, simulates via Crossbar, and deploys/updates/reads feeds across Solana/SVM, EVM, Sui, and other Switchboard-supported chains—with user-controlled security, spend limits, and allow/deny lists.", "description_zh": "", "downloads": 682, "homepage": "https://clawhub.ai/oakencore/switchboard-data-operator", "iconUrl": null, "installs": 17, "name": "Switchboard Skills", "ownerName": "oakencore", "score": 4429.991409988956, "slug": "switchboard-data-operator", "source": "clawhub", "stars": 2, "tags": null, "updated_at": 1776767650059, "version": "1.0.0"}, {"category": "productivity", "created_at": 1772778493245, "description": "Automates the process of extracting reusable skill code from arXiv papers. Use this skill to turn paper insights into actual OpenClaw skills.", "description_zh": "", "downloads": 682, "homepage": "https://clawhub.ai/wanng-ide/arxiv-skill-extractor", "iconUrl": null, "installs": 66, "name": "Arxiv Skill Extractor", "ownerName": "wanng-ide", "score": 11951.663631849031, "slug": "arxiv-skill-extractor", "source": "clawhub", "stars": 2, "tags": null, "updated_at": 1776767649876, "version": "1.0.0"}, {"category": "ai-intelligence", "created_at": 1772770709866, "description": "Assist with Chainlink LINK tokens, oracle integrations, staking, and price feed usage.", "description_zh": "", "downloads": 682, "homepage": "https://clawhub.ai/ivangdavila/chainlink", "iconUrl": null, "installs": 34, "name": "Chainlink", "ownerName": "ivangdavila", "score": 14556.451612903225, "slug": "chainlink", "source": "clawhub", "stars": 2, "tags": null, "updated_at": 1776767649775, "version": "1.0.0"}, {"category": "ai-intelligence", "created_at": 1772802608619, "description": "Generate draw.io diagrams from Mermaid, XML, or CSV code. Use this skill when the user requests any visual diagram including flowcharts, UML diagrams, ERD, a...", "description_zh": "", "downloads": 682, "homepage": "https://clawhub.ai/thincher/drawio-generator", "iconUrl": null, "installs": 137, "name": "drawio-generator", "ownerName": "thincher", "score": 2856.2128733013265, "slug": "drawio-generator", "source": "clawhub", "stars": 1, "tags": null, "updated_at": 1776770090510, "version": "1.0.0"}, {"category": "data-analysis", "created_at": 1772774590827, "description": "Email marketing design with layout patterns, subject line formulas, and deliverability rules. Covers welcome sequences, promotional emails, transactional tem...", "description_zh": "", "downloads": 682, "homepage": "https://clawhub.ai/okaris/email-design", "iconUrl": null, "installs": 22, "name": "Email Design", "ownerName": "okaris", "score": 8742.468914241763, "slug": "email-design", "source": "clawhub", "stars": 0, "tags": null, "updated_at": 1776768671197, "version": "0.1.5"}, {"category": "security-compliance", "created_at": 1772769629870, "description": "REST API instructions for FlowFi—authorization, smart accounts, workflows (AI generate, edit, deploy, undeploy, delete, pause, resume, stop), execution (list...", "description_zh": "", "downloads": 682, "homepage": "https://clawhub.ai/devarogundade/flowfi", "iconUrl": null, "installs": 8, "name": "FlowFi", "ownerName": "devarogundade", "score": 23517.241379310344, "slug": "flowfi", "source": "clawhub", "stars": 0, "tags": null, "updated_at": 1776768671117, "version": "1.0.3"}, {"category": "developer-tools", "created_at": 1772773867282, "description": "Manage a team of AI sub-agents organized into departments. Use when you need to delegate tasks to specialized agents, track department outputs, assign roles,...", "description_zh": "", "downloads": 682, "homepage": "https://clawhub.ai/trypto1019/arc-department-manager", "iconUrl": null, "installs": 5, "name": "Department Manager", "ownerName": "trypto1019", "score": 8102.649400023762, "slug": "arc-department-manager", "source": "clawhub", "stars": 0, "tags": null, "updated_at": 1776768671071, "version": "1.0.0"}, {"category": "content-creation", "created_at": 1772770142896, "description": "Professionelle deutsche Inhalte erstellen - Blog-Artikel, Landing Pages, E-Mails, Social Media. Perfekt für den DACH-Markt.", "description_zh": "", "downloads": 682, "homepage": "https://clawhub.ai/root/german-content-writer", "iconUrl": null, "installs": 44, "name": "German Content Writer", "ownerName": "root", "score": 8102.649400023762, "slug": "german-content-writer", "source": "clawhub", "stars": 0, "tags": ["content", "copywriting", "dach", "deutsch", "german"], "updated_at": 1776768671065, "version": "1.0.0"}, {"category": "content-creation", "created_at": 1772778243104, "description": "Create or refresh AEO-optimized content that gets cited by AI assistants (Gemini, ChatGPT, Perplexity) using only free tools. Two modes: CREATE new content t...", "description_zh": "", "downloads": 682, "homepage": "https://clawhub.ai/psyduckler/aeo-content-free", "iconUrl": null, "installs": 39, "name": "AEO Content (Free)", "ownerName": "psyduckler", "score": 8102.649400023762, "slug": "aeo-content-free", "source": "clawhub", "stars": 0, "tags": null, "updated_at": 1776768671049, "version": "1.0.0"}, {"category": "productivity", "created_at": 1772775256088, "description": "Search, compare, book, and manage flights with price tracking, multi-platform comparison, and loyalty optimization.", "description_zh": "", "downloads": 682, "homepage": "https://clawhub.ai/ivangdavila/flight", "iconUrl": null, "installs": 33, "name": "Flight", "ownerName": "ivangdavila", "score": 8278.708424374847, "slug": "flight", "source": "clawhub", "stars": 0, "tags": null, "updated_at": 1776768590503, "version": "1.0.1"}, {"category": "ai-intelligence", "created_at": 1772774725024, "description": "Search, trade, manage positions, and automate custom strategies on Polymarket using natural language commands via an AI agent.", "description_zh": "", "downloads": 681, "homepage": "https://clawhub.ai/sidshekhar/askgina-polymarket", "iconUrl": null, "installs": 49, "name": "Polymarket via Gina", "ownerName": "sidshekhar", "score": 26183.063511830635, "slug": "askgina-polymarket", "source": "clawhub", "stars": 8, "tags": null, "updated_at": 1776765549982, "version": "0.1.2"}, {"category": "communication-collaboration", "created_at": 1772777502454, "description": "Universal client for Ragflow API enabling dataset management, document upload, and running chat queries against self-hosted RAG knowledge bases.", "description_zh": "", "downloads": 681, "homepage": "https://clawhub.ai/angusthefuzz/ragflow", "iconUrl": null, "installs": 35, "name": "Ragflow API Client", "ownerName": "angusthefuzz", "score": 8861.516383640277, "slug": "ragflow", "source": "clawhub", "stars": 3, "tags": null, "updated_at": 1776767090539, "version": "1.0.2"}, {"category": "content-creation", "created_at": 1772787494941, "description": "Generate styled QR codes (SVG/PNG/JPG) from user input. Supports custom module color, background, dot shape and eye shape, and many output options.", "description_zh": "", "downloads": 681, "homepage": "https://clawhub.ai/hexavi8/qrcode", "iconUrl": null, "installs": 38, "name": "QRCode", "ownerName": "hexavi8", "score": 10651.499482936919, "slug": "qrcode", "source": "clawhub", "stars": 2, "tags": ["generator", "image", "jpg", "node", "png", "qr", "qrcode", "svg"], "updated_at": 1776769449925, "version": "1.0.1"}, {"category": "data-analysis", "created_at": 1772779425266, "description": "Conducts classified, multi-source research from quick lookups to deep academic analysis with prioritized credible sources and tailored report formats.", "description_zh": "", "downloads": 681, "homepage": "https://clawhub.ai/heldinhow/super-research", "iconUrl": null, "installs": 64, "name": "Sr", "ownerName": "heldinhow", "score": 11935.1100811124, "slug": "super-research", "source": "clawhub", "stars": 2, "tags": null, "updated_at": 1776767649801, "version": "1.0.0"}, {"category": "productivity", "created_at": 1772770991914, "description": "Make web requests through decentralized SOCKS5 proxies via the Tao Private Network (TPN). This skill is also known as \"TPN\", \"TPN proxy\", \"subnet 65\", or \"SN...", "description_zh": "", "downloads": 681, "homepage": "https://clawhub.ai/actuallymentor/tpn-proxy", "iconUrl": null, "installs": 21, "name": "TPN Proxy", "ownerName": "actuallymentor", "score": 10487.272727272726, "slug": "tpn-proxy", "source": "clawhub", "stars": 2, "tags": null, "updated_at": 1776767649730, "version": "1.1.2"}, {"category": "content-creation", "created_at": 1772801050092, "description": "Translate text in images, extract text via OCR, and remove text using TranslateImage AI. Use when user says 'translate image', 'OCR image', 'extract text fro...", "description_zh": "", "downloads": 681, "homepage": "https://clawhub.ai/cottom/translate-image", "iconUrl": null, "installs": 75, "name": "Translate Image", "ownerName": "cottom", "score": 6613.207547169811, "slug": "translate-image", "source": "clawhub", "stars": 1, "tags": null, "updated_at": 1776768250153, "version": "1.0.3"}, {"category": "productivity", "created_at": 1772785756981, "description": "Persistent cross-session knowledge base for research papers. Ingest arXiv/DOI → extract method, gap, threat level → append to PAPERS.md. Never lose paper con...", "description_zh": "", "downloads": 681, "homepage": "https://clawhub.ai/ilkhamfy/research-paper-kb", "iconUrl": null, "installs": 75, "name": "Research Paper Kb", "ownerName": "ilkhamfy", "score": 14204.660587639311, "slug": "research-paper-kb", "source": "clawhub", "stars": 1, "tags": null, "updated_at": 1776768249839, "version": "1.0.0"}, {"category": "content-creation", "created_at": 1772777171484, "description": "Hire TikTok influencers for product reviews, demonstrations, unboxing videos, and conversion-focused promotional content to drive sales and measurable ROI.", "description_zh": "", "downloads": 681, "homepage": "https://clawhub.ai/realroc/tiktok-product-promotion", "iconUrl": null, "installs": 66, "name": "Tiktok Product Promotion", "ownerName": "realroc", "score": 14204.660587639311, "slug": "tiktok-product-promotion", "source": "clawhub", "stars": 1, "tags": null, "updated_at": 1776768249803, "version": "0.1.0"}, {"category": "productivity", "created_at": 1772775343895, "description": "Automatically create and run basic unit/integration tests for OpenClaw skills to ensure code quality and prevent regressions.", "description_zh": "", "downloads": 680, "homepage": "https://clawhub.ai/autogame-17/auto-test-generator", "iconUrl": null, "installs": 24, "name": "Auto Test Generator", "ownerName": "autogame-17", "score": 39074.550128534705, "slug": "auto-test-generator", "source": "clawhub", "stars": 4, "tags": null, "updated_at": 1776766790474, "version": "1.0.0"}, {"category": "data-analysis", "created_at": 1772770572027, "description": "Write Arabic that sounds human. Not formal, not robotic, not AI-generated.", "description_zh": "", "downloads": 680, "homepage": "https://clawhub.ai/ivangdavila/arabic", "iconUrl": null, "installs": 18, "name": "Arabic", "ownerName": "ivangdavila", "score": 17535.545023696683, "slug": "arabic", "source": "clawhub", "stars": 3, "tags": null, "updated_at": 1776769450160, "version": "1.0.0"}, {"category": "developer-tools", "created_at": 1772770161083, "description": "Automates the backup of the OpenClaw workspace to a remote Git repository. Handles large file exclusions, validates git configuration, and performs intelligent sync with conflict resolution.", "description_zh": "", "downloads": 680, "homepage": "https://clawhub.ai/vemec/memory-git-sync", "iconUrl": null, "installs": 15, "name": "Smart Git Backup", "ownerName": "vemec", "score": 4417.719965639956, "slug": "memory-git-sync", "source": "clawhub", "stars": 2, "tags": null, "updated_at": 1776767690456, "version": "1.0.0"}, {"category": "ai-intelligence", "created_at": 1772775118066, "description": "Create and track structured budgets with categories, monitor spending vs. allocation, flag overspending, and generate summarized budget reports.", "description_zh": "", "downloads": 680, "homepage": "https://clawhub.ai/1kalin/afrexai-budget-planner", "iconUrl": null, "installs": 44, "name": "AfrexAI Budget Planner", "ownerName": "1kalin", "score": 8716.831175490322, "slug": "afrexai-budget-planner", "source": "clawhub", "stars": 0, "tags": ["budget", "business", "finance", "personal-finance", "tracking"], "updated_at": 1776768671203, "version": "1.0.0"}, {"category": "developer-tools", "created_at": 1772775385504, "description": "Benchmark similar product documentation and API documentation across Alibaba Cloud, AWS, Azure, GCP, Tencent Cloud, Volcano Engine, and Huawei Cloud. Given o...", "description_zh": "", "downloads": 679, "homepage": "https://clawhub.ai/cinience/alicloud-platform-multicloud-docs-api-benchmark", "iconUrl": null, "installs": 64, "name": "Alicloud Platform Multicloud Docs Api Benchmark", "ownerName": "cinience", "score": 8537.164568985989, "slug": "alicloud-platform-multicloud-docs-api-benchmark", "source": "clawhub", "stars": 2, "tags": null, "updated_at": 1776767771280, "version": "1.0.1"}, {"category": "data-analysis", "created_at": 1772770528166, "description": "Multi-platform market intelligence for OpenClaw agents. Monitor real-time prices, balances, and positions across Hyperliquid (DeFi) and LNMarkets (Bitcoin)....", "description_zh": "", "downloads": 679, "homepage": "https://clawhub.ai/nickymick8/claw-trader-lite", "iconUrl": null, "installs": 30, "name": "Claw Trader Lite", "ownerName": "nickymick8", "score": 8537.164568985989, "slug": "claw-trader-lite", "source": "clawhub", "stars": 2, "tags": ["automation", "bitcoin", "defi", "finance", "trading"], "updated_at": 1776767771208, "version": "1.0.3"}, {"category": "data-analysis", "created_at": 1772770960546, "description": "Retrieve health and biometric data from your Oura Ring via CLI commands for sleep, activity, readiness, heart rate, and more using specified dates.", "description_zh": "", "downloads": 679, "homepage": "https://clawhub.ai/supadoopa/oura-cli", "iconUrl": null, "installs": 16, "name": "Oura Cli", "ownerName": "supadoopa", "score": 8537.164568985989, "slug": "oura-cli", "source": "clawhub", "stars": 2, "tags": null, "updated_at": 1776767771188, "version": "1.0.0"}, {"category": "productivity", "created_at": 1772770187302, "description": "Add liquidity, remove liquidity, or collect fees on Uniswap V2/V3/V4 pools. Handles the full flow including pool selection, range optimization, approvals, safety checks, and transaction execution. Use when the user wants to LP, provide liquidity, remove a position, or collect accumulated fees.", "description_zh": "", "downloads": 679, "homepage": "https://clawhub.ai/wpank/manage-liquidity", "iconUrl": null, "installs": 21, "name": "Uniswap Manage Liquidity", "ownerName": "wpank", "score": 18242.880171950565, "slug": "manage-liquidity", "source": "clawhub", "stars": 0, "tags": null, "updated_at": 1776768671266, "version": "0.1.0"}, {"category": "data-analysis", "created_at": 1772771934555, "description": "A local RPG game engine for AI agents. Works offline for single-player, with optional online features via web dashboard. INCLUDES BUILT-IN A2A COMMUNICATION...", "description_zh": "", "downloads": 679, "homepage": "https://clawhub.ai/noizceera/molt-rpg", "iconUrl": null, "installs": 30, "name": "MoltRPG", "ownerName": "noizceera", "score": 8067.007247237732, "slug": "molt-rpg", "source": "clawhub", "stars": 0, "tags": null, "updated_at": 1776768671067, "version": "2.1.1"}, {"category": "content-creation", "created_at": 1773417235871, "description": "AI image prompt optimizer. Generate and enhance prompts for Midjourney, DALL-E, and Stable Diffusion. Includes prompt enhancement.", "description_zh": "", "downloads": 679, "homepage": "https://clawhub.ai/ckchzh/image-prompt", "iconUrl": null, "installs": 43, "name": "Image Prompt", "ownerName": "ckchzh", "score": 8067.007247237732, "slug": "image-prompt", "source": "clawhub", "stars": 0, "tags": ["chinese", "productivity"], "updated_at": 1776768671062, "version": "2.1.0"}, {"category": "data-analysis", "created_at": 1772790485669, "description": "Premium destiny consultation skill combining Ziwei Doushu and Bazi in one offline workflow. Use when the user wants a flagship, consultation-style report fro...", "description_zh": "", "downloads": 678, "homepage": "https://clawhub.ai/spyfree/destiny-fusion-pro", "iconUrl": null, "installs": 47, "name": "Destiny Fusion Pro", "ownerName": "spyfree", "score": 29890.643985419196, "slug": "destiny-fusion-pro", "source": "clawhub", "stars": 3, "tags": null, "updated_at": 1776767171351, "version": "1.0.3"}, {"category": "developer-tools", "created_at": 1772803942089, "description": "Get a PDF link from Sci-Hub for a DOI.", "description_zh": "", "downloads": 678, "homepage": "https://clawhub.ai/aukaukauk/scihub-paper-downloader", "iconUrl": null, "installs": 76, "name": "Scihub Paper Downloader", "ownerName": "aukaukauk", "score": 54464.94464944649, "slug": "scihub-paper-downloader", "source": "clawhub", "stars": 3, "tags": null, "updated_at": 1776767171308, "version": "1.0.3"}, {"category": "security-compliance", "created_at": 1772769952799, "description": "Deploy and maintain self-hosted services with security, backups, and long-term reliability.", "description_zh": "", "downloads": 678, "homepage": "https://clawhub.ai/ivangdavila/self-host", "iconUrl": null, "installs": 11, "name": "Self-Host", "ownerName": "ivangdavila", "score": 8525.290904773212, "slug": "self-host", "source": "clawhub", "stars": 2, "tags": null, "updated_at": 1776767771273, "version": "1.0.0"}, {"category": "ai-intelligence", "created_at": 1772770704875, "description": "Assist with Avalanche C-Chain transactions, AVAX transfers, subnets, and cross-chain bridges.", "description_zh": "", "downloads": 678, "homepage": "https://clawhub.ai/ivangdavila/avalanche", "iconUrl": null, "installs": 27, "name": "Avalanche", "ownerName": "ivangdavila", "score": 8525.290904773212, "slug": "avalanche", "source": "clawhub", "stars": 2, "tags": null, "updated_at": 1776767771269, "version": "1.0.0"}, {"category": "ai-intelligence", "created_at": 1772770584742, "description": "Assist with BNB Chain transactions, BEP-20 tokens, gas fees, and cross-chain transfers.", "description_zh": "", "downloads": 678, "homepage": "https://clawhub.ai/ivangdavila/bnb", "iconUrl": null, "installs": 34, "name": "BNB", "ownerName": "ivangdavila", "score": 9683.074848280512, "slug": "bnb", "source": "clawhub", "stars": 2, "tags": null, "updated_at": 1776767771174, "version": "1.0.0"}, {"category": "content-creation", "created_at": 1772773699581, "description": "Generate branded 15-180 second HD motion graphics explainer videos by providing a prompt with brand info and URL via OpenVid on Base network.", "description_zh": "", "downloads": 678, "homepage": "https://clawhub.ai/aklo360/openvid", "iconUrl": null, "installs": 43, "name": "OpenVid", "ownerName": "aklo360", "score": 9683.074848280512, "slug": "openvid", "source": "clawhub", "stars": 2, "tags": null, "updated_at": 1776767771124, "version": "1.0.7"}, {"category": "developer-tools", "created_at": 1772773351701, "description": "Build and scale a Fiverr freelancing business with gig optimization, buyer communication, and seller level progression.", "description_zh": "", "downloads": 677, "homepage": "https://clawhub.ai/ivangdavila/fiverr", "iconUrl": null, "installs": 8, "name": "Fiverr", "ownerName": "ivangdavila", "score": 16418.594000457982, "slug": "fiverr", "source": "clawhub", "stars": 2, "tags": null, "updated_at": 1776767771301, "version": "1.0.0"}, {"category": "security-compliance", "created_at": 1772770513228, "description": "Email for AI agents. Create mailboxes, send and receive emails via API. No browser, no OAuth.", "description_zh": "", "downloads": 677, "homepage": "https://clawhub.ai/rishavmukherji/neynar-inbox", "iconUrl": null, "installs": 16, "name": "Neynar Inbox", "ownerName": "rishavmukherji", "score": 14599.956868665084, "slug": "neynar-inbox", "source": "clawhub", "stars": 0, "tags": ["agents", "api", "email"], "updated_at": 1776768850135, "version": "1.0.0"}, {"category": "data-analysis", "created_at": 1772770742560, "description": "AI-powered Base-chain trading and on-chain query agent via natural language. Use when the user wants to trade crypto (buy/sell/swap tokens), set up automated strategies (DCA, limit orders, RSI), check portfolio balances, view token prices, query token info/analysis, check order status, manage take-profit/stop-loss orders, or ask about crypto/DeFi topics on Base chain. Always run scripts/axelrod_chat.py to fetch real-time results.", "description_zh": "", "downloads": 677, "homepage": "https://clawhub.ai/aixvcteam/axelrod", "iconUrl": null, "installs": 18, "name": "Axelrod", "ownerName": "aixvcteam", "score": 8678.374567363158, "slug": "axelrod", "source": "clawhub", "stars": 0, "tags": null, "updated_at": 1776768671226, "version": "0.1.0"}, {"category": "productivity", "created_at": 1772771872076, "description": "Auto-learns when to seek different perspectives. Grows a library of useful mindsets and collaboration patterns.", "description_zh": "", "downloads": 676, "homepage": "https://clawhub.ai/ivangdavila/collaborate", "iconUrl": null, "installs": 27, "name": "Collaborate", "ownerName": "ivangdavila", "score": 5114.307553331943, "slug": "collaborate", "source": "clawhub", "stars": 3, "tags": null, "updated_at": 1776767349917, "version": "1.0.0"}, {"category": "security-compliance", "created_at": 1772771829741, "description": "Integrate payments with provider selection, checkout flows, subscription billing, and security best practices.", "description_zh": "", "downloads": 676, "homepage": "https://clawhub.ai/ivangdavila/payments", "iconUrl": null, "installs": 12, "name": "Payments", "ownerName": "ivangdavila", "score": 23537.14661406969, "slug": "payments", "source": "clawhub", "stars": 2, "tags": null, "updated_at": 1776767950068, "version": "1.0.0"}, {"category": "developer-tools", "created_at": 1772783866899, "description": "World-class psychology expertise for human mind optimization. Masters learning science (age-appropriate skill acquisition for languages, coding, etc.), cogni...", "description_zh": "", "downloads": 676, "homepage": "https://clawhub.ai/clarezoe/psychology-master", "iconUrl": null, "installs": 52, "name": "Psychology Master", "ownerName": "clarezoe", "score": 17978.72340425532, "slug": "psychology-master", "source": "clawhub", "stars": 0, "tags": ["landing page", "marketing", "pricing", "psychology", "ux"], "updated_at": 1776768850307, "version": "1.0.2"}, {"category": "developer-tools", "created_at": 1772774991498, "description": "Access JPX stock market data via J-Quants API — search stocks, get daily OHLCV prices, financial summaries (revenue, profit, EPS, ROE), and earnings calendar...", "description_zh": "", "downloads": 676, "homepage": "https://clawhub.ai/ajtgjmdjp/jquants-mcp", "iconUrl": null, "installs": 47, "name": "Jquants Mcp", "ownerName": "ajtgjmdjp", "score": 14578.391201207678, "slug": "jquants-mcp", "source": "clawhub", "stars": 0, "tags": null, "updated_at": 1776768850171, "version": "0.1.2"}, {"category": "productivity", "created_at": 1773945836219, "description": "Provide PDF editing tools including merge, split, rotate, compress, convert, encrypt/decrypt, extract pages, and view PDF metadata.", "description_zh": "", "downloads": 676, "homepage": "https://clawhub.ai/sxliuyu/pdf-pro", "iconUrl": null, "installs": 127, "name": "Pdf Pro", "ownerName": "sxliuyu", "score": 4522.646684953503, "slug": "pdf-pro", "source": "clawhub", "stars": 0, "tags": null, "updated_at": 1776768850093, "version": "1.0.1"}, {"category": "communication-collaboration", "created_at": 1772775046560, "description": "Provides a structured workflow to research a target company, identify decision-makers, and draft personalized outreach emails using company-specific insights.", "description_zh": "", "downloads": 676, "homepage": "https://clawhub.ai/strouddustinn-bot/outbound-prospecting", "iconUrl": null, "installs": 17, "name": "Outbound Prospecting Workflow", "ownerName": "strouddustinn-bot", "score": 4990.403071017274, "slug": "outbound-prospecting", "source": "clawhub", "stars": 0, "tags": null, "updated_at": 1776768849830, "version": "1.0.0"}]}