{"page": 139, "total_pages": 522, "total": 26073, "skills": [{"category": "productivity", "created_at": 1772771210653, "description": "Generate retro robotic speech audio using SAM (Software Automatic Mouth), the classic C64 text-to-speech synthesizer. Use for /sam command to generate voice messages. Supports /sam on/off toggle mode where all responses are spoken in SAM voice. Supports pitch, speed, mouth, and throat parameters for voice customization.", "description_zh": "", "downloads": 675, "homepage": "https://clawhub.ai/fourthdensity/sam-tts", "iconUrl": null, "installs": 28, "name": "SAM TTS", "ownerName": "fourthdensity", "score": 20575.539568345324, "slug": "sam-tts", "source": "clawhub", "stars": 2, "tags": null, "updated_at": 1776767950041, "version": "1.0.0"}, {"category": "developer-tools", "created_at": 1772775732901, "description": "Access Massive(Polygon) stock, crypto, forex, options, indices, futures, market data, and news APIs via CLI.", "description_zh": "", "downloads": 675, "homepage": "https://clawhub.ai/bruce-shi/massive-skill", "iconUrl": null, "installs": 59, "name": "Massive(Polygon)", "ownerName": "bruce-shi", "score": 20688.65740740741, "slug": "massive-skill", "source": "clawhub", "stars": 2, "tags": null, "updated_at": 1776767949765, "version": "1.0.5"}, {"category": "developer-tools", "created_at": 1772770816723, "description": "Detect personally identifiable information (PII) in text using Expanso Edge pipelines for CLI, MCP server, or cloud deployment.", "description_zh": "", "downloads": 675, "homepage": "https://clawhub.ai/aronchick/expanso-pii-detect", "iconUrl": null, "installs": 5, "name": "Expanso pii-detect", "ownerName": "aronchick", "score": 17952.127659574468, "slug": "expanso-pii-detect", "source": "clawhub", "stars": 0, "tags": null, "updated_at": 1776768850327, "version": "1.0.0"}, {"category": "data-analysis", "created_at": 1772770554772, "description": "Practical estimation techniques for software tasks — methods comparison, decomposition, complexity multipliers, buffer calculation, bias awareness, and communication strategies. Use when estimating features, sprint planning, or presenting timelines to stakeholders.", "description_zh": "", "downloads": 675, "homepage": "https://clawhub.ai/wpank/estimation-atterns", "iconUrl": null, "installs": 22, "name": "Estimation Patterns", "ownerName": "wpank", "score": 11076.468657696094, "slug": "estimation-atterns", "source": "clawhub", "stars": 0, "tags": null, "updated_at": 1776768850287, "version": "1.0.0"}, {"category": "developer-tools", "created_at": 1772780303865, "description": "Incident Commander Skill", "description_zh": "", "downloads": 675, "homepage": "https://clawhub.ai/alirezarezvani/incident-commander", "iconUrl": null, "installs": 7, "name": "Incident Commander", "ownerName": "alirezarezvani", "score": 18739.589117157135, "slug": "incident-commander", "source": "clawhub", "stars": 0, "tags": null, "updated_at": 1776768850222, "version": "2.1.1"}, {"category": "communication-collaboration", "created_at": 1772773911130, "description": "Automatically organizes unread Gmail messages by applying relevant labels, removing irrelevant ones, and archiving emails based on patterns from archived mes...", "description_zh": "", "downloads": 675, "homepage": "https://clawhub.ai/coenenp/gmail-label-manager", "iconUrl": null, "installs": 22, "name": "Gmail Label Manager", "ownerName": "coenenp", "score": 18739.589117157135, "slug": "gmail-label-manager", "source": "clawhub", "stars": 0, "tags": null, "updated_at": 1776768850221, "version": "1.0.3"}, {"category": "content-creation", "created_at": 1772794337899, "description": "Extract videos from Douyin and Twitter by providing platform and URL, outputting the downloaded video file or an error message.", "description_zh": "", "downloads": 675, "homepage": "https://clawhub.ai/ly5201314gjx/video-crawler", "iconUrl": null, "installs": 184, "name": "Video Crawler", "ownerName": "ly5201314gjx", "score": 16328.011611030479, "slug": "video-crawler", "source": "clawhub", "stars": 0, "tags": ["crawler", "douyin", "twitter", "video"], "updated_at": 1776768850173, "version": "1.0.0"}, {"category": "communication-collaboration", "created_at": 1772770583075, "description": "Provides AI agents with @claw.inc email addresses to send, receive, and securely communicate with humans and other AI agents via email and API.", "description_zh": "", "downloads": 675, "homepage": "https://clawhub.ai/travisvz/sky", "iconUrl": null, "installs": 21, "name": "Sky - Email for AI Agents", "ownerName": "travisvz", "score": 14556.82553375027, "slug": "sky", "source": "clawhub", "stars": 0, "tags": null, "updated_at": 1776768850161, "version": "1.0.0"}, {"category": "productivity", "created_at": 1773202228561, "description": "Auto-update OpenClaw and skills with OpenClaw cron, per-skill defaults, backups, and migration-aware summaries.", "description_zh": "", "downloads": 675, "homepage": "https://clawhub.ai/ivangdavila/auto-update", "iconUrl": null, "installs": 42, "name": "Auto-Update (OpenClaw + Skills)", "ownerName": "ivangdavila", "score": 16707.92079207921, "slug": "auto-update", "source": "clawhub", "stars": 0, "tags": null, "updated_at": 1776768849937, "version": "1.0.0"}, {"category": "content-creation", "created_at": 1772789285628, "description": "Define and store your brand voice profile for consistent content generation. Captures writing style, vocabulary patterns, tone preferences, and content rules...", "description_zh": "", "downloads": 675, "homepage": "https://clawhub.ai/dimitripantzos/brand-voice-profile", "iconUrl": null, "installs": 62, "name": "Brand Voice Profile", "ownerName": "dimitripantzos", "score": 3009.4966338222835, "slug": "brand-voice-profile", "source": "clawhub", "stars": 0, "tags": null, "updated_at": 1776768849778, "version": "1.0.0"}, {"category": "developer-tools", "created_at": 1772770083023, "description": "Find upcoming races — running, trail, triathlon, cycling, swimming, and obstacle courses. Search by location, distance, sport, and date. Returns race details with registration links.", "description_zh": "", "downloads": 675, "homepage": "https://clawhub.ai/nftechie/race-finder", "iconUrl": null, "installs": 10, "name": "Race Finder", "ownerName": "nftechie", "score": 3009.4966338222835, "slug": "race-finder", "source": "clawhub", "stars": 0, "tags": null, "updated_at": 1776768849749, "version": "1.0.0"}, {"category": "developer-tools", "created_at": 1772779481229, "description": "Real-time OCR and data extraction API by Veryfi (https://veryfi.com). Extract structured data from receipts, invoices, bank statements, W-9s, purchase orders...", "description_zh": "", "downloads": 674, "homepage": "https://clawhub.ai/dbirulia/documents-ai", "iconUrl": null, "installs": 32, "name": "Veryfi Documents AI", "ownerName": "dbirulia", "score": 54109.96189439303, "slug": "documents-ai", "source": "clawhub", "stars": 16, "tags": null, "updated_at": 1776764950134, "version": "1.0.1"}, {"category": "ai-intelligence", "created_at": 1773057724025, "description": "PM skill for Claude Code, Codex, Cursor, and Windsurf. Diagnoses SaaS metrics, critiques PRDs, plans roadmaps, runs discovery, coaches PM career transitions,...", "description_zh": "", "downloads": 674, "homepage": "https://clawhub.ai/digidai/pm-agent", "iconUrl": null, "installs": 116, "name": "PM Agent", "ownerName": "digidai", "score": 10418.79468845761, "slug": "pm-agent", "source": "clawhub", "stars": 2, "tags": ["ai-agent", "ai-product", "anti-pattern", "career-coaching", "churn-calculator", "claude-code", "codex", "context-engineering", "cursor", "discovery", "epic", "finance", "jtbd", "metrics-theater", "opinionated-pm", "pm", "pm-agent", "pm-career", "positioning", "prd", "prd-review", "prioritization", "product-manager", "quality-gates", "roadmap", "saas-diagnostics", "saas-metrics", "solution-smuggling", "user-story", "windsurf"], "updated_at": 1776767950119, "version": "1.3.1"}, {"category": "developer-tools", "created_at": 1772788971310, "description": "Interact with Moltbook - the AI social platform. Post, read, upvote, and explore the crustacean community.", "description_zh": "", "downloads": 674, "homepage": "https://clawhub.ai/swaylq/moltbook-skill", "iconUrl": null, "installs": 15, "name": "Moltbook Skill", "ownerName": "swaylq", "score": 20455.235204855842, "slug": "moltbook-skill", "source": "clawhub", "stars": 0, "tags": null, "updated_at": 1776768850026, "version": "1.1.0"}, {"category": "content-creation", "created_at": 1772778385039, "description": "Generate photorealistic images, videos, talking heads, and natural TTS audio using GPU-accelerated AI models and scripts on a remote server.", "description_zh": "", "downloads": 674, "homepage": "https://clawhub.ai/bowen31337/ai-media", "iconUrl": null, "installs": 74, "name": "Ai Media", "ownerName": "bowen31337", "score": 9514.398644833427, "slug": "ai-media", "source": "clawhub", "stars": 0, "tags": null, "updated_at": 1776768849988, "version": "1.0.1"}, {"category": "content-creation", "created_at": 1772779028850, "description": "Generate images using SiliconFlow API (FLUX.1, Stable Diffusion, etc.)", "description_zh": "", "downloads": 673, "homepage": "https://clawhub.ai/lilei0311/siliconflow-image-gen", "iconUrl": null, "installs": 69, "name": "SiliconFlow Image Gen", "ownerName": "lilei0311", "score": 20517.98561151079, "slug": "siliconflow-image-gen", "source": "clawhub", "stars": 2, "tags": ["flux", "generation", "image", "siliconflow"], "updated_at": 1776767950015, "version": "1.0.0"}, {"category": "data-analysis", "created_at": 1772784212707, "description": "Transforms your OpenClaw agent into an AI coach using the GROW model to guide goal setting, track progress, adapt intensity, and facilitate reflection with m...", "description_zh": "", "downloads": 673, "homepage": "https://clawhub.ai/paitesanshi/clawboss", "iconUrl": null, "installs": 19, "name": "ClawBoss - AI Productivity Coach", "ownerName": "paitesanshi", "score": 18684.064408661856, "slug": "clawboss", "source": "clawhub", "stars": 0, "tags": ["accountability", "coaching", "goal-setting", "productivity"], "updated_at": 1776768850242, "version": "1.0.0"}, {"category": "content-creation", "created_at": 1772775519950, "description": "Render JSON schemas to images and generate schemas from prompts using declare-render and AI.", "description_zh": "", "downloads": 673, "homepage": "https://clawhub.ai/cai-zhuo/materials-cli", "iconUrl": null, "installs": 32, "name": "Materials Cli", "ownerName": "cai-zhuo", "score": 16279.632317368167, "slug": "materials-cli", "source": "clawhub", "stars": 0, "tags": null, "updated_at": 1776768850203, "version": "1.0.8"}, {"category": "ai-intelligence", "created_at": 1772770153215, "description": "Launch Solana tokens on Pump.fun via the SolPaw platform. 0.1 SOL one-time fee. Your wallet is the onchain creator.", "description_zh": "", "downloads": 673, "homepage": "https://clawhub.ai/lvcidpsyche/solpaw-skill-final", "iconUrl": null, "installs": 3, "name": "Solpaw", "ownerName": "lvcidpsyche", "score": 9500.282326369283, "slug": "solpaw-skill-final", "source": "clawhub", "stars": 0, "tags": null, "updated_at": 1776768849993, "version": "0.1.1"}, {"category": "content-creation", "created_at": 1772771540168, "description": "Write Croatian that sounds human. Not formal, not robotic, not AI-generated.", "description_zh": "", "downloads": 672, "homepage": "https://clawhub.ai/ivangdavila/croatian", "iconUrl": null, "installs": 65, "name": "Croatian", "ownerName": "ivangdavila", "score": 23405.654174884945, "slug": "croatian", "source": "clawhub", "stars": 2, "tags": null, "updated_at": 1776767950054, "version": "1.0.0"}, {"category": "productivity", "created_at": 1772770417267, "description": "Prometheus monitoring patterns, cardinality management, alerting best practices, and PromQL traps.", "description_zh": "", "downloads": 672, "homepage": "https://clawhub.ai/ivangdavila/prom", "iconUrl": null, "installs": 2, "name": "Prometheus", "ownerName": "ivangdavila", "score": 15939.109021714798, "slug": "prom", "source": "clawhub", "stars": 2, "tags": null, "updated_at": 1776767949888, "version": "1.0.0"}, {"category": "developer-tools", "created_at": 1772770132878, "description": "Training principles, pacing strategy, injury prevention, and race preparation for runners.", "description_zh": "", "downloads": 672, "homepage": "https://clawhub.ai/ivangdavila/running", "iconUrl": null, "installs": 7, "name": "Running", "ownerName": "ivangdavila", "score": 16304.09892374628, "slug": "running", "source": "clawhub", "stars": 2, "tags": null, "updated_at": 1776767949750, "version": "1.0.0"}, {"category": "content-creation", "created_at": 1772798949431, "description": "Premier AI video generation platform with industry-leading models including Wan 2.6, Kling O1/2.6, Ima Sevio 1.0/1.0-Fast aka IMA Video Pro/Pro Fast, Google...", "description_zh": "", "downloads": 672, "homepage": "https://clawhub.ai/allenfancy-gan/ima-video-ai", "iconUrl": null, "installs": 78, "name": "IMA Studio Video — Veo, Sora, Kling, Wan, Vidu, Hailuo, SeeDance,  Pixverse", "ownerName": "allenfancy-gan", "score": 3681.634390295808, "slug": "ima-video-ai", "source": "clawhub", "stars": 1, "tags": null, "updated_at": 1776768371301, "version": "1.0.8"}, {"category": "communication-collaboration", "created_at": 1772776669363, "description": "Generates a daily brief including urgent emails (himalaya), upcoming calendar events (gog), and relevant news. Use when the user asks for a morning summary, daily briefing, or a status update on their day.", "description_zh": "", "downloads": 672, "homepage": "https://clawhub.ai/rajtejani61/daily-brief-digest", "iconUrl": null, "installs": 23, "name": "Daily Brief Digest", "ownerName": "rajtejani61", "score": 17872.340425531915, "slug": "daily-brief-digest", "source": "clawhub", "stars": 0, "tags": null, "updated_at": 1776768850349, "version": "1.0.0"}, {"category": "data-analysis", "created_at": 1772774279093, "description": "Automatically analyze and reduce OpenClaw token waste through context compression, tool-call deduplication insights, model selection guidance, and session hygiene checks. Use when sessions are nearing context limits, costs are climbing, or you want proactive token optimization before expensive tasks.", "description_zh": "", "downloads": 672, "homepage": "https://clawhub.ai/mkhaytman87/mkhaytman-token-optimizer", "iconUrl": null, "installs": 35, "name": "Token Optimizer", "ownerName": "mkhaytman87", "score": 17872.340425531915, "slug": "mkhaytman-token-optimizer", "source": "clawhub", "stars": 0, "tags": null, "updated_at": 1776768850340, "version": "1.0.0"}, {"category": "developer-tools", "created_at": 1772774827948, "description": "Knowledge exchange for AI agents. Search verified solutions, error fixes, and failed approaches before spending tokens. Zero setup -- auto-registers on first...", "description_zh": "", "downloads": 672, "homepage": "https://clawhub.ai/charlesmulic/prior", "iconUrl": null, "installs": 11, "name": "Prior", "ownerName": "charlesmulic", "score": 11027.239908106334, "slug": "prior", "source": "clawhub", "stars": 0, "tags": ["ai-agents", "api", "contribute", "knowledge", "mcp", "search"], "updated_at": 1776768850278, "version": "1.0.3"}, {"category": "data-analysis", "created_at": 1772787925033, "description": "Performs structured investment thesis development, fundamental and technical analysis, portfolio risk management, and trade execution across asset classes.", "description_zh": "", "downloads": 672, "homepage": "https://clawhub.ai/1kalin/afrexai-investment-engine", "iconUrl": null, "installs": 28, "name": "Investment Analysis & Portfolio Management Engine", "ownerName": "1kalin", "score": 20394.53717754173, "slug": "afrexai-investment-engine", "source": "clawhub", "stars": 0, "tags": ["crypto", "dividends", "finance", "investing", "portfolio", "risk-management", "stocks", "trading"], "updated_at": 1776768850066, "version": "1.0.0"}, {"category": "communication-collaboration", "created_at": 1772769843705, "description": "Send WhatsApp messages to other people or search/sync WhatsApp history via the wacli CLI (not for normal user chats).", "description_zh": "", "downloads": 672, "homepage": "https://clawhub.ai/gabrielsayumi/probar", "iconUrl": null, "installs": 18, "name": "PROBAR", "ownerName": "gabrielsayumi", "score": 9486.166007905138, "slug": "probar", "source": "clawhub", "stars": 0, "tags": ["proyecto"], "updated_at": 1776768850014, "version": "1.0.0"}, {"category": "developer-tools", "created_at": 1772772334074, "description": "Stage, commit, and push git changes with conventional commit messages. Use when user wants to commit and push changes, mentions pushing to remote, or asks to save and push their work. Also activates when user says \"push changes\", \"commit and push\", \"push this\", \"push to github\", or similar git workflow requests.", "description_zh": "", "downloads": 672, "homepage": "https://clawhub.ai/tianyi-billy-ma/git-pushing", "iconUrl": null, "installs": 13, "name": "Git Pushing", "ownerName": "tianyi-billy-ma", "score": 9486.166007905138, "slug": "git-pushing", "source": "clawhub", "stars": 0, "tags": null, "updated_at": 1776768849998, "version": "1.0.0"}, {"category": "productivity", "created_at": 1772770398816, "description": "Automation skill for Pipe17 Openclaw Skill.", "description_zh": "", "downloads": 672, "homepage": "https://clawhub.ai/j-shao1/pipe17-openclaw-skill", "iconUrl": null, "installs": 18, "name": "Pipe17 Openclaw Skill", "ownerName": "j-shao1", "score": 4960.874058762734, "slug": "pipe17-openclaw-skill", "source": "clawhub", "stars": 0, "tags": null, "updated_at": 1776768849862, "version": "0.1.0"}, {"category": "security-compliance", "created_at": 1772783953039, "description": "Dependency Auditor", "description_zh": "", "downloads": 672, "homepage": "https://clawhub.ai/alirezarezvani/dependency-auditor", "iconUrl": null, "installs": 11, "name": "Dependency Auditor", "ownerName": "alirezarezvani", "score": 4960.874058762734, "slug": "dependency-auditor", "source": "clawhub", "stars": 0, "tags": null, "updated_at": 1776768849820, "version": "2.1.1"}, {"category": "security-compliance", "created_at": 1772770192323, "description": "Set up an agent wallet for Uniswap operations. Use when user needs to provision a wallet for an autonomous agent. Supports Privy (development), Turnkey (production), and Safe (maximum security). Configures spending limits, token allowlists, and funds the wallet for gas.", "description_zh": "", "downloads": 672, "homepage": "https://clawhub.ai/wpank/setup-agent-wallet", "iconUrl": null, "installs": 15, "name": "Uniswap Setup Agent Wallet", "ownerName": "wpank", "score": 2996.121093227518, "slug": "setup-agent-wallet", "source": "clawhub", "stars": 0, "tags": null, "updated_at": 1776768849764, "version": "0.1.0"}, {"category": "ai-intelligence", "created_at": 1772775917563, "description": "Plan and manage your day with prioritized tasks, calendar blocking, energy-based scheduling, and automatic commitment tracking and reminders.", "description_zh": "", "downloads": 671, "homepage": "https://clawhub.ai/ivangdavila/daily-planner", "iconUrl": null, "installs": 35, "name": "Daily Planner", "ownerName": "ivangdavila", "score": 20572.916666666664, "slug": "daily-planner", "source": "clawhub", "stars": 2, "tags": null, "updated_at": 1776767949785, "version": "1.0.0"}, {"category": "content-creation", "created_at": 1772781010523, "description": "AI-powered video upscaling with Real-ESRGAN and Waifu2x. Use when user asks to enhance, upscale, improve video quality, make HD/4K. Supports anime and real f...", "description_zh": "", "downloads": 671, "homepage": "https://clawhub.ai/nightvibes3/video-upscale", "iconUrl": null, "installs": 52, "name": "AI Video Upscale", "ownerName": "nightvibes3", "score": 7158.096863665457, "slug": "video-upscale", "source": "clawhub", "stars": 0, "tags": null, "updated_at": 1776768850394, "version": "1.4.0"}, {"category": "ai-intelligence", "created_at": 1772770647743, "description": "Assist with Polkadot DOT transactions, staking, parachains, and cross-chain transfers.", "description_zh": "", "downloads": 670, "homepage": "https://clawhub.ai/ivangdavila/polkadot", "iconUrl": null, "installs": 33, "name": "Polkadot", "ownerName": "ivangdavila", "score": 20543.98148148148, "slug": "polkadot", "source": "clawhub", "stars": 2, "tags": null, "updated_at": 1776767949762, "version": "1.0.0"}, {"category": "developer-tools", "created_at": 1772771243289, "description": "Detect the language of input text using AI with Expanso Edge via CLI or MCP pipelines.", "description_zh": "", "downloads": 670, "homepage": "https://clawhub.ai/aronchick/expanso-language-detect", "iconUrl": null, "installs": 6, "name": "Expanso language-detect", "ownerName": "aronchick", "score": 7147.429059099637, "slug": "expanso-language-detect", "source": "clawhub", "stars": 0, "tags": null, "updated_at": 1776768850395, "version": "1.0.0"}, {"category": "ai-intelligence", "created_at": 1772771774908, "description": "AI agent marketplace & payments — hire agents, post jobs, run campaigns, earn USDC on Solana", "description_zh": "", "downloads": 670, "homepage": "https://clawhub.ai/nemanja-lootbox/justpayai", "iconUrl": null, "installs": 29, "name": "JustPayAI", "ownerName": "nemanja-lootbox", "score": 17819.14893617021, "slug": "justpayai", "source": "clawhub", "stars": 0, "tags": ["ai-agents", "campaigns", "escrow", "marketplace", "payments", "solana", "usdc"], "updated_at": 1776768850334, "version": "1.0.0"}, {"category": "developer-tools", "created_at": 1772770226941, "description": "Autonomous social network transceiver for machines and agents. Allows transmission of hardware telemetry and creative media.", "description_zh": "", "downloads": 670, "homepage": "https://clawhub.ai/void-oracle/reefgram", "iconUrl": null, "installs": 9, "name": "ReefGram", "ownerName": "void-oracle", "score": 20333.839150227617, "slug": "reefgram", "source": "clawhub", "stars": 0, "tags": null, "updated_at": 1776768850040, "version": "1.0.0"}, {"category": "developer-tools", "created_at": 1772774691646, "description": "Manage Node-RED instances via Admin API or CLI. Automate flow deployment, install nodes, and troubleshoot issues. Use when user wants to \"build automation\", \"connect devices\", or \"fix node-red\".", "description_zh": "", "downloads": 670, "homepage": "https://clawhub.ai/1999azzar/node-red-manager", "iconUrl": null, "installs": 42, "name": "Node Red Manager", "ownerName": "1999azzar", "score": 9457.933370976849, "slug": "node-red-manager", "source": "clawhub", "stars": 0, "tags": null, "updated_at": 1776768849996, "version": "1.0.0"}, {"category": "data-analysis", "created_at": 1772775689839, "description": "Load, explore, clean, analyze, and visualize CSV data to provide statistical summaries, correlations, filtered views, and charts for insights.", "description_zh": "", "downloads": 670, "homepage": "https://clawhub.ai/underbench2-gif/ub2-csv-data-analyzer", "iconUrl": null, "installs": 33, "name": "CSV Data Analyzer", "ownerName": "underbench2-gif", "score": 2987.204066164341, "slug": "ub2-csv-data-analyzer", "source": "clawhub", "stars": 0, "tags": ["analysis", "csv", "data", "statistics", "visualization"], "updated_at": 1776768849776, "version": "1.0.0"}, {"category": "content-creation", "created_at": 1772792566866, "description": "Use when calling local AI on this Mac — text generation, embeddings, speech-to-text, OCR, or image understanding. LLM/VLM via oMLX gateway at localhost:8000/...", "description_zh": "", "downloads": 669, "homepage": "https://clawhub.ai/bendusy/mlx-local-inference", "iconUrl": null, "installs": 81, "name": "mlx-local-inference", "ownerName": "bendusy", "score": 23307.034845496382, "slug": "mlx-local-inference", "source": "clawhub", "stars": 2, "tags": null, "updated_at": 1776767950092, "version": "2.2.1"}, {"category": "productivity", "created_at": 1772770464769, "description": "Assist with Dogecoin DOGE transactions, wallet management, and network characteristics.", "description_zh": "", "downloads": 669, "homepage": "https://clawhub.ai/ivangdavila/dogecoin", "iconUrl": null, "installs": 20, "name": "Dogecoin", "ownerName": "ivangdavila", "score": 10183.85521401896, "slug": "dogecoin", "source": "clawhub", "stars": 2, "tags": null, "updated_at": 1776767949970, "version": "1.0.0"}, {"category": "developer-tools", "created_at": 1772770971089, "description": "Control devices, run automations, and help users get more from Siri with HomeKit, Shortcuts, and voice command guidance.", "description_zh": "", "downloads": 669, "homepage": "https://clawhub.ai/ivangdavila/siri", "iconUrl": null, "installs": 11, "name": "Siri", "ownerName": "ivangdavila", "score": 10183.85521401896, "slug": "siri", "source": "clawhub", "stars": 2, "tags": null, "updated_at": 1776767949898, "version": "1.0.0"}, {"category": "productivity", "created_at": 1772789921585, "description": "Convert Markdown files to PDF with full LaTeX math formula rendering and CJK (Chinese/Japanese/Korean) support. Use when the user asks to convert markdown to...", "description_zh": "", "downloads": 669, "homepage": "https://clawhub.ai/huaruoji/md2pdf-xelatex", "iconUrl": null, "installs": 119, "name": "md2pdf-xelatex", "ownerName": "huaruoji", "score": 1799.4028887275076, "slug": "md2pdf-xelatex", "source": "clawhub", "stars": 0, "tags": null, "updated_at": 1776770349855, "version": "1.0.0"}, {"category": "developer-tools", "created_at": 1772770351778, "description": "Track FUTA Express (Phương Trang) package delivery status using their public API. Use when the user wants to track/tra cứu đơn hàng, kiện hàng from FUTA Express, FUTA Express, or Phương Trang Express. Requires a tracking code (mã vận đơn) to query.", "description_zh": "", "downloads": 669, "homepage": "https://clawhub.ai/tongtanhieu/futa-tracker", "iconUrl": null, "installs": 7, "name": "FUTA Express package tracking skill (VN)", "ownerName": "tongtanhieu", "score": 7136.761254533817, "slug": "futa-tracker", "source": "clawhub", "stars": 0, "tags": null, "updated_at": 1776768850368, "version": "1.0.0"}, {"category": "ai-intelligence", "created_at": 1772786096754, "description": "Low-level docx format tool for AI document review. Three operations: (1) read docx → output compact Markdown or JSON; (2) apply edits JSON back to docx (trac...", "description_zh": "", "downloads": 669, "homepage": "https://clawhub.ai/yanweiliang323868-del/docx-md", "iconUrl": null, "installs": 120, "name": "docx-md", "ownerName": "yanweiliang323868-del", "score": 18573.014991671294, "slug": "docx-md", "source": "clawhub", "stars": 0, "tags": null, "updated_at": 1776768850256, "version": "1.0.1"}, {"category": "security-compliance", "created_at": 1772770215354, "description": "Design a Uniswap integration architecture. Use when user is building a project that needs to integrate Uniswap and wants recommendations on integration method (Trading API vs SDK vs direct contract), architecture patterns, required dependencies, and security considerations.", "description_zh": "", "downloads": 669, "homepage": "https://clawhub.ai/wpank/design-integration", "iconUrl": null, "installs": 14, "name": "Uniswap Design Integration", "ownerName": "wpank", "score": 14427.431529005822, "slug": "design-integration", "source": "clawhub", "stars": 0, "tags": null, "updated_at": 1776768850161, "version": "0.1.0"}, {"category": "content-creation", "created_at": 1772771220965, "description": "Write Thai that sounds human. Not formal, not robotic, not AI-generated.", "description_zh": "", "downloads": 668, "homepage": "https://clawhub.ai/ivangdavila/thai", "iconUrl": null, "installs": 31, "name": "Thai", "ownerName": "ivangdavila", "score": 16777.251184834124, "slug": "thai", "source": "clawhub", "stars": 2, "tags": null, "updated_at": 1776769450170, "version": "1.0.0"}, {"category": "content-creation", "created_at": 1772771319374, "description": "Write Turkish that sounds human. Not formal, not robotic, not AI-generated.", "description_zh": "", "downloads": 668, "homepage": "https://clawhub.ai/ivangdavila/turkish", "iconUrl": null, "installs": 38, "name": "Turkish", "ownerName": "ivangdavila", "score": 10633.82397116251, "slug": "turkish", "source": "clawhub", "stars": 2, "tags": null, "updated_at": 1776769449824, "version": "1.0.0"}, {"category": "ai-intelligence", "created_at": 1772775224060, "description": "Ship packages with AI — compare rates across USPS, FedEx, and UPS, buy discounted labels, track shipments, and manage orders. Requires user confirmation befo...", "description_zh": "", "downloads": 668, "homepage": "https://clawhub.ai/atoship-dev/atoship", "iconUrl": null, "installs": 36, "name": "Atoship", "ownerName": "atoship-dev", "score": 19904.4138318808, "slug": "atoship", "source": "clawhub", "stars": 2, "tags": ["automation", "ecommerce", "fedex", "labels", "logistics", "postage", "shipment", "shipping", "shipping-manager", "shipping-solution", "tracking", "ups", "usps"], "updated_at": 1776767990495, "version": "1.0.8"}]}