{"page": 14, "total_pages": 22, "total": 1089, "skills": [{"slug": "metcalfsolutions-satori", "name": "MetcalfSolutions/Satori", "description": "Clinically informed wisdom companion blending psychology frameworks and wisdom traditions into a structured reflective partner.", "description_zh": "", "homepage": "https://github.com/MetcalfSolutions/Satori", "tags": ["Community Contributors"], "category": "Community Contributors", "ownerName": "MetcalfSolutions", "sources": ["sickn33/antigravity-awesome-skills"], "score": 450, "downloads": 0, "stars": 0, "installs": 0, "version": "", "updated_at": 0}, {"slug": "microsoft-teams-automation", "name": "Microsoft Teams Automation", "description": "Automate Teams: messages, channels, teams, chats, and meetings.", "description_zh": "", "homepage": "./microsoft-teams-automation", "tags": ["App Automation via Composio"], "category": "App Automation via Composio", "ownerName": "", "sources": ["ComposioHQ/awesome-claude-skills"], "score": 449, "downloads": 0, "stars": 0, "installs": 0, "version": "", "updated_at": 0}, {"slug": "microsoft-agent-framework-azure-ai-py", "name": "microsoft/agent-framework-azure-ai-py", "description": "Agent Framework for Azure AI Foundry", "description_zh": "", "homepage": "https://officialskills.sh/microsoft/skills/agent-framework-azure-ai-py", "tags": ["Python Skills"], "category": "Python Skills", "ownerName": "", "sources": ["VoltAgent/awesome-agent-skills"], "score": 448, "downloads": 0, "stars": 0, "installs": 0, "version": "", "updated_at": 0}, {"slug": "microsoft-agents-v2-py", "name": "microsoft/agents-v2-py", "description": "Foundry Agents SDK — container-based agents with custom images", "description_zh": "", "homepage": "https://officialskills.sh/microsoft/skills/agents-v2-py", "tags": ["Python Skills"], "category": "Python Skills", "ownerName": "", "sources": ["VoltAgent/awesome-agent-skills"], "score": 447, "downloads": 0, "stars": 0, "installs": 0, "version": "", "updated_at": 0}, {"slug": "microsoft-azure-ai-anomalydetector-java", "name": "microsoft/azure-ai-anomalydetector-java", "description": "Anomaly detection applications", "description_zh": "", "homepage": "https://officialskills.sh/microsoft/skills/azure-ai-anomalydetector-java", "tags": ["Java Skills"], "category": "Java Skills", "ownerName": "", "sources": ["VoltAgent/awesome-agent-skills"], "score": 446, "downloads": 0, "stars": 0, "installs": 0, "version": "", "updated_at": 0}, {"slug": "microsoft-azure-ai-contentsafety-java", "name": "microsoft/azure-ai-contentsafety-java", "description": "Content moderation and safety", "description_zh": "", "homepage": "https://officialskills.sh/microsoft/skills/azure-ai-contentsafety-java", "tags": ["Java Skills"], "category": "Java Skills", "ownerName": "", "sources": ["VoltAgent/awesome-agent-skills"], "score": 445, "downloads": 0, "stars": 0, "installs": 0, "version": "", "updated_at": 0}, {"slug": "microsoft-azure-ai-contentsafety-py", "name": "microsoft/azure-ai-contentsafety-py", "description": "Harmful content detection", "description_zh": "", "homepage": "https://officialskills.sh/microsoft/skills/azure-ai-contentsafety-py", "tags": ["Python Skills"], "category": "Python Skills", "ownerName": "", "sources": ["VoltAgent/awesome-agent-skills"], "score": 444, "downloads": 0, "stars": 0, "installs": 0, "version": "", "updated_at": 0}, {"slug": "microsoft-azure-ai-contentsafety-ts", "name": "microsoft/azure-ai-contentsafety-ts", "description": "Content safety for text and images", "description_zh": "", "homepage": "https://officialskills.sh/microsoft/skills/azure-ai-contentsafety-ts", "tags": ["TypeScript Skills"], "category": "TypeScript Skills", "ownerName": "", "sources": ["VoltAgent/awesome-agent-skills"], "score": 443, "downloads": 0, "stars": 0, "installs": 0, "version": "", "updated_at": 0}, {"slug": "microsoft-azure-ai-contentunderstanding-py", "name": "microsoft/azure-ai-contentunderstanding-py", "description": "Multimodal content extraction", "description_zh": "", "homepage": "https://officialskills.sh/microsoft/skills/azure-ai-contentunderstanding-py", "tags": ["Python Skills"], "category": "Python Skills", "ownerName": "", "sources": ["VoltAgent/awesome-agent-skills"], "score": 442, "downloads": 0, "stars": 0, "installs": 0, "version": "", "updated_at": 0}, {"slug": "microsoft-azure-ai-document-intelligence-dotnet", "name": "microsoft/azure-ai-document-intelligence-dotnet", "description": "Document text, table, and data extraction", "description_zh": "", "homepage": "https://officialskills.sh/microsoft/skills/azure-ai-document-intelligence-dotnet", "tags": [".NET Skills"], "category": ".NET Skills", "ownerName": "", "sources": ["VoltAgent/awesome-agent-skills"], "score": 441, "downloads": 0, "stars": 0, "installs": 0, "version": "", "updated_at": 0}, {"slug": "microsoft-azure-ai-document-intelligence-ts", "name": "microsoft/azure-ai-document-intelligence-ts", "description": "Document text and table extraction", "description_zh": "", "homepage": "https://officialskills.sh/microsoft/skills/azure-ai-document-intelligence-ts", "tags": ["TypeScript Skills"], "category": "TypeScript Skills", "ownerName": "", "sources": ["VoltAgent/awesome-agent-skills"], "score": 440, "downloads": 0, "stars": 0, "installs": 0, "version": "", "updated_at": 0}, {"slug": "microsoft-azure-ai-formrecognizer-java", "name": "microsoft/azure-ai-formrecognizer-java", "description": "Document analysis and form extraction", "description_zh": "", "homepage": "https://officialskills.sh/microsoft/skills/azure-ai-formrecognizer-java", "tags": ["Java Skills"], "category": "Java Skills", "ownerName": "", "sources": ["VoltAgent/awesome-agent-skills"], "score": 439, "downloads": 0, "stars": 0, "installs": 0, "version": "", "updated_at": 0}, {"slug": "microsoft-azure-ai-ml-py", "name": "microsoft/azure-ai-ml-py", "description": "Azure ML workspace and job management", "description_zh": "", "homepage": "https://officialskills.sh/microsoft/skills/azure-ai-ml-py", "tags": ["Python Skills"], "category": "Python Skills", "ownerName": "", "sources": ["VoltAgent/awesome-agent-skills"], "score": 438, "downloads": 0, "stars": 0, "installs": 0, "version": "", "updated_at": 0}, {"slug": "microsoft-azure-ai-openai-dotnet", "name": "microsoft/azure-ai-openai-dotnet", "description": "GPT-4, embeddings, DALL-E, and Whisper client", "description_zh": "", "homepage": "https://officialskills.sh/microsoft/skills/azure-ai-openai-dotnet", "tags": [".NET Skills"], "category": ".NET Skills", "ownerName": "", "sources": ["VoltAgent/awesome-agent-skills"], "score": 437, "downloads": 0, "stars": 0, "installs": 0, "version": "", "updated_at": 0}, {"slug": "microsoft-azure-ai-projects-dotnet", "name": "microsoft/azure-ai-projects-dotnet", "description": "AI Foundry project management SDK", "description_zh": "", "homepage": "https://officialskills.sh/microsoft/skills/azure-ai-projects-dotnet", "tags": [".NET Skills"], "category": ".NET Skills", "ownerName": "", "sources": ["VoltAgent/awesome-agent-skills"], "score": 436, "downloads": 0, "stars": 0, "installs": 0, "version": "", "updated_at": 0}, {"slug": "microsoft-azure-ai-projects-java", "name": "microsoft/azure-ai-projects-java", "description": "AI Foundry project management", "description_zh": "", "homepage": "https://officialskills.sh/microsoft/skills/azure-ai-projects-java", "tags": ["Java Skills"], "category": "Java Skills", "ownerName": "", "sources": ["VoltAgent/awesome-agent-skills"], "score": 435, "downloads": 0, "stars": 0, "installs": 0, "version": "", "updated_at": 0}, {"slug": "microsoft-azure-ai-projects-py", "name": "microsoft/azure-ai-projects-py", "description": "AI Foundry project client and agents", "description_zh": "", "homepage": "https://officialskills.sh/microsoft/skills/azure-ai-projects-py", "tags": ["Python Skills"], "category": "Python Skills", "ownerName": "", "sources": ["VoltAgent/awesome-agent-skills"], "score": 434, "downloads": 0, "stars": 0, "installs": 0, "version": "", "updated_at": 0}, {"slug": "microsoft-azure-ai-projects-ts", "name": "microsoft/azure-ai-projects-ts", "description": "AI Foundry project client and agents", "description_zh": "", "homepage": "https://officialskills.sh/microsoft/skills/azure-ai-projects-ts", "tags": ["TypeScript Skills"], "category": "TypeScript Skills", "ownerName": "", "sources": ["VoltAgent/awesome-agent-skills"], "score": 433, "downloads": 0, "stars": 0, "installs": 0, "version": "", "updated_at": 0}, {"slug": "microsoft-azure-ai-textanalytics-py", "name": "microsoft/azure-ai-textanalytics-py", "description": "NLP: sentiment, entities, key phrases", "description_zh": "", "homepage": "https://officialskills.sh/microsoft/skills/azure-ai-textanalytics-py", "tags": ["Python Skills"], "category": "Python Skills", "ownerName": "", "sources": ["VoltAgent/awesome-agent-skills"], "score": 432, "downloads": 0, "stars": 0, "installs": 0, "version": "", "updated_at": 0}, {"slug": "microsoft-azure-ai-transcription-py", "name": "microsoft/azure-ai-transcription-py", "description": "Speech-to-text transcription", "description_zh": "", "homepage": "https://officialskills.sh/microsoft/skills/azure-ai-transcription-py", "tags": ["Python Skills"], "category": "Python Skills", "ownerName": "", "sources": ["VoltAgent/awesome-agent-skills"], "score": 431, "downloads": 0, "stars": 0, "installs": 0, "version": "", "updated_at": 0}, {"slug": "microsoft-azure-ai-translation-document-py", "name": "microsoft/azure-ai-translation-document-py", "description": "Batch document translation", "description_zh": "", "homepage": "https://officialskills.sh/microsoft/skills/azure-ai-translation-document-py", "tags": ["Python Skills"], "category": "Python Skills", "ownerName": "", "sources": ["VoltAgent/awesome-agent-skills"], "score": 430, "downloads": 0, "stars": 0, "installs": 0, "version": "", "updated_at": 0}, {"slug": "microsoft-azure-ai-translation-text-py", "name": "microsoft/azure-ai-translation-text-py", "description": "Real-time text translation", "description_zh": "", "homepage": "https://officialskills.sh/microsoft/skills/azure-ai-translation-text-py", "tags": ["Python Skills"], "category": "Python Skills", "ownerName": "", "sources": ["VoltAgent/awesome-agent-skills"], "score": 429, "downloads": 0, "stars": 0, "installs": 0, "version": "", "updated_at": 0}, {"slug": "microsoft-azure-ai-translation-ts", "name": "microsoft/azure-ai-translation-ts", "description": "Text and document translation", "description_zh": "", "homepage": "https://officialskills.sh/microsoft/skills/azure-ai-translation-ts", "tags": ["TypeScript Skills"], "category": "TypeScript Skills", "ownerName": "", "sources": ["VoltAgent/awesome-agent-skills"], "score": 428, "downloads": 0, "stars": 0, "installs": 0, "version": "", "updated_at": 0}, {"slug": "microsoft-azure-ai-vision-imageanalysis-java", "name": "microsoft/azure-ai-vision-imageanalysis-java", "description": "Image captioning, OCR, and object detection", "description_zh": "", "homepage": "https://officialskills.sh/microsoft/skills/azure-ai-vision-imageanalysis-java", "tags": ["Java Skills"], "category": "Java Skills", "ownerName": "", "sources": ["VoltAgent/awesome-agent-skills"], "score": 427, "downloads": 0, "stars": 0, "installs": 0, "version": "", "updated_at": 0}, {"slug": "microsoft-azure-ai-vision-imageanalysis-py", "name": "microsoft/azure-ai-vision-imageanalysis-py", "description": "Image captions, tags, OCR, objects", "description_zh": "", "homepage": "https://officialskills.sh/microsoft/skills/azure-ai-vision-imageanalysis-py", "tags": ["Python Skills"], "category": "Python Skills", "ownerName": "", "sources": ["VoltAgent/awesome-agent-skills"], "score": 426, "downloads": 0, "stars": 0, "installs": 0, "version": "", "updated_at": 0}, {"slug": "microsoft-azure-ai-voicelive-dotnet", "name": "microsoft/azure-ai-voicelive-dotnet", "description": "Real-time bidirectional voice AI", "description_zh": "", "homepage": "https://officialskills.sh/microsoft/skills/azure-ai-voicelive-dotnet", "tags": [".NET Skills"], "category": ".NET Skills", "ownerName": "", "sources": ["VoltAgent/awesome-agent-skills"], "score": 425, "downloads": 0, "stars": 0, "installs": 0, "version": "", "updated_at": 0}, {"slug": "microsoft-azure-ai-voicelive-java", "name": "microsoft/azure-ai-voicelive-java", "description": "Real-time bidirectional voice AI", "description_zh": "", "homepage": "https://officialskills.sh/microsoft/skills/azure-ai-voicelive-java", "tags": ["Java Skills"], "category": "Java Skills", "ownerName": "", "sources": ["VoltAgent/awesome-agent-skills"], "score": 424, "downloads": 0, "stars": 0, "installs": 0, "version": "", "updated_at": 0}, {"slug": "microsoft-azure-ai-voicelive-py", "name": "microsoft/azure-ai-voicelive-py", "description": "Real-time bidirectional voice AI", "description_zh": "", "homepage": "https://officialskills.sh/microsoft/skills/azure-ai-voicelive-py", "tags": ["Python Skills"], "category": "Python Skills", "ownerName": "", "sources": ["VoltAgent/awesome-agent-skills"], "score": 423, "downloads": 0, "stars": 0, "installs": 0, "version": "", "updated_at": 0}, {"slug": "microsoft-azure-ai-voicelive-ts", "name": "microsoft/azure-ai-voicelive-ts", "description": "Real-time bidirectional voice AI", "description_zh": "", "homepage": "https://officialskills.sh/microsoft/skills/azure-ai-voicelive-ts", "tags": ["TypeScript Skills"], "category": "TypeScript Skills", "ownerName": "", "sources": ["VoltAgent/awesome-agent-skills"], "score": 422, "downloads": 0, "stars": 0, "installs": 0, "version": "", "updated_at": 0}, {"slug": "microsoft-azure-appconfiguration-java", "name": "microsoft/azure-appconfiguration-java", "description": "Centralized app configuration management", "description_zh": "", "homepage": "https://officialskills.sh/microsoft/skills/azure-appconfiguration-java", "tags": ["Java Skills"], "category": "Java Skills", "ownerName": "", "sources": ["VoltAgent/awesome-agent-skills"], "score": 421, "downloads": 0, "stars": 0, "installs": 0, "version": "", "updated_at": 0}, {"slug": "microsoft-azure-appconfiguration-py", "name": "microsoft/azure-appconfiguration-py", "description": "Feature flags and dynamic settings", "description_zh": "", "homepage": "https://officialskills.sh/microsoft/skills/azure-appconfiguration-py", "tags": ["Python Skills"], "category": "Python Skills", "ownerName": "", "sources": ["VoltAgent/awesome-agent-skills"], "score": 420, "downloads": 0, "stars": 0, "installs": 0, "version": "", "updated_at": 0}, {"slug": "microsoft-azure-appconfiguration-ts", "name": "microsoft/azure-appconfiguration-ts", "description": "App config, feature flags, dynamic refresh", "description_zh": "", "homepage": "https://officialskills.sh/microsoft/skills/azure-appconfiguration-ts", "tags": ["TypeScript Skills"], "category": "TypeScript Skills", "ownerName": "", "sources": ["VoltAgent/awesome-agent-skills"], "score": 419, "downloads": 0, "stars": 0, "installs": 0, "version": "", "updated_at": 0}, {"slug": "microsoft-azure-communication-callautomation-java", "name": "microsoft/azure-communication-callautomation-java", "description": "Call automation with IVR and AI", "description_zh": "", "homepage": "https://officialskills.sh/microsoft/skills/azure-communication-callautomation-java", "tags": ["Java Skills"], "category": "Java Skills", "ownerName": "", "sources": ["VoltAgent/awesome-agent-skills"], "score": 418, "downloads": 0, "stars": 0, "installs": 0, "version": "", "updated_at": 0}, {"slug": "microsoft-azure-communication-callingserver-java", "name": "microsoft/azure-communication-callingserver-java", "description": "CallingServer legacy SDK", "description_zh": "", "homepage": "https://officialskills.sh/microsoft/skills/azure-communication-callingserver-java", "tags": ["Java Skills"], "category": "Java Skills", "ownerName": "", "sources": ["VoltAgent/awesome-agent-skills"], "score": 417, "downloads": 0, "stars": 0, "installs": 0, "version": "", "updated_at": 0}, {"slug": "microsoft-azure-communication-chat-java", "name": "microsoft/azure-communication-chat-java", "description": "Real-time chat with threads and receipts", "description_zh": "", "homepage": "https://officialskills.sh/microsoft/skills/azure-communication-chat-java", "tags": ["Java Skills"], "category": "Java Skills", "ownerName": "", "sources": ["VoltAgent/awesome-agent-skills"], "score": 416, "downloads": 0, "stars": 0, "installs": 0, "version": "", "updated_at": 0}, {"slug": "microsoft-azure-communication-common-java", "name": "microsoft/azure-communication-common-java", "description": "Communication Services common utilities", "description_zh": "", "homepage": "https://officialskills.sh/microsoft/skills/azure-communication-common-java", "tags": ["Java Skills"], "category": "Java Skills", "ownerName": "", "sources": ["VoltAgent/awesome-agent-skills"], "score": 415, "downloads": 0, "stars": 0, "installs": 0, "version": "", "updated_at": 0}, {"slug": "microsoft-azure-communication-sms-java", "name": "microsoft/azure-communication-sms-java", "description": "SMS sending and delivery reports", "description_zh": "", "homepage": "https://officialskills.sh/microsoft/skills/azure-communication-sms-java", "tags": ["Java Skills"], "category": "Java Skills", "ownerName": "", "sources": ["VoltAgent/awesome-agent-skills"], "score": 414, "downloads": 0, "stars": 0, "installs": 0, "version": "", "updated_at": 0}, {"slug": "microsoft-azure-compute-batch-java", "name": "microsoft/azure-compute-batch-java", "description": "Large-scale parallel and HPC batch jobs", "description_zh": "", "homepage": "https://officialskills.sh/microsoft/skills/azure-compute-batch-java", "tags": ["Java Skills"], "category": "Java Skills", "ownerName": "", "sources": ["VoltAgent/awesome-agent-skills"], "score": 413, "downloads": 0, "stars": 0, "installs": 0, "version": "", "updated_at": 0}, {"slug": "microsoft-azure-containerregistry-py", "name": "microsoft/azure-containerregistry-py", "description": "Container image and registry management", "description_zh": "", "homepage": "https://officialskills.sh/microsoft/skills/azure-containerregistry-py", "tags": ["Python Skills"], "category": "Python Skills", "ownerName": "", "sources": ["VoltAgent/awesome-agent-skills"], "score": 412, "downloads": 0, "stars": 0, "installs": 0, "version": "", "updated_at": 0}, {"slug": "microsoft-azure-cosmos-db-py", "name": "microsoft/azure-cosmos-db-py", "description": "Cosmos DB with Python/FastAPI patterns", "description_zh": "", "homepage": "https://officialskills.sh/microsoft/skills/azure-cosmos-db-py", "tags": ["Python Skills"], "category": "Python Skills", "ownerName": "", "sources": ["VoltAgent/awesome-agent-skills"], "score": 411, "downloads": 0, "stars": 0, "installs": 0, "version": "", "updated_at": 0}, {"slug": "microsoft-azure-cosmos-java", "name": "microsoft/azure-cosmos-java", "description": "Cosmos DB NoSQL with global distribution", "description_zh": "", "homepage": "https://officialskills.sh/microsoft/skills/azure-cosmos-java", "tags": ["Java Skills"], "category": "Java Skills", "ownerName": "", "sources": ["VoltAgent/awesome-agent-skills"], "score": 410, "downloads": 0, "stars": 0, "installs": 0, "version": "", "updated_at": 0}, {"slug": "microsoft-azure-cosmos-py", "name": "microsoft/azure-cosmos-py", "description": "Cosmos DB NoSQL client library", "description_zh": "", "homepage": "https://officialskills.sh/microsoft/skills/azure-cosmos-py", "tags": ["Python Skills"], "category": "Python Skills", "ownerName": "", "sources": ["VoltAgent/awesome-agent-skills"], "score": 409, "downloads": 0, "stars": 0, "installs": 0, "version": "", "updated_at": 0}, {"slug": "microsoft-azure-cosmos-rust", "name": "microsoft/azure-cosmos-rust", "description": "Cosmos DB NoSQL client", "description_zh": "", "homepage": "https://officialskills.sh/microsoft/skills/azure-cosmos-rust", "tags": ["Rust Skills"], "category": "Rust Skills", "ownerName": "", "sources": ["VoltAgent/awesome-agent-skills"], "score": 408, "downloads": 0, "stars": 0, "installs": 0, "version": "", "updated_at": 0}, {"slug": "microsoft-azure-cosmos-ts", "name": "microsoft/azure-cosmos-ts", "description": "Cosmos DB NoSQL CRUD and queries", "description_zh": "", "homepage": "https://officialskills.sh/microsoft/skills/azure-cosmos-ts", "tags": ["TypeScript Skills"], "category": "TypeScript Skills", "ownerName": "", "sources": ["VoltAgent/awesome-agent-skills"], "score": 407, "downloads": 0, "stars": 0, "installs": 0, "version": "", "updated_at": 0}, {"slug": "microsoft-azure-data-tables-java", "name": "microsoft/azure-data-tables-java", "description": "NoSQL key-value table storage", "description_zh": "", "homepage": "https://officialskills.sh/microsoft/skills/azure-data-tables-java", "tags": ["Java Skills"], "category": "Java Skills", "ownerName": "", "sources": ["VoltAgent/awesome-agent-skills"], "score": 406, "downloads": 0, "stars": 0, "installs": 0, "version": "", "updated_at": 0}, {"slug": "microsoft-azure-data-tables-py", "name": "microsoft/azure-data-tables-py", "description": "NoSQL key-value table storage", "description_zh": "", "homepage": "https://officialskills.sh/microsoft/skills/azure-data-tables-py", "tags": ["Python Skills"], "category": "Python Skills", "ownerName": "", "sources": ["VoltAgent/awesome-agent-skills"], "score": 405, "downloads": 0, "stars": 0, "installs": 0, "version": "", "updated_at": 0}, {"slug": "microsoft-azure-eventgrid-dotnet", "name": "microsoft/azure-eventgrid-dotnet", "description": "Event Grid topic and domain publishing", "description_zh": "", "homepage": "https://officialskills.sh/microsoft/skills/azure-eventgrid-dotnet", "tags": [".NET Skills"], "category": ".NET Skills", "ownerName": "", "sources": ["VoltAgent/awesome-agent-skills"], "score": 404, "downloads": 0, "stars": 0, "installs": 0, "version": "", "updated_at": 0}, {"slug": "microsoft-azure-eventgrid-java", "name": "microsoft/azure-eventgrid-java", "description": "Event-driven pub/sub messaging", "description_zh": "", "homepage": "https://officialskills.sh/microsoft/skills/azure-eventgrid-java", "tags": ["Java Skills"], "category": "Java Skills", "ownerName": "", "sources": ["VoltAgent/awesome-agent-skills"], "score": 403, "downloads": 0, "stars": 0, "installs": 0, "version": "", "updated_at": 0}, {"slug": "microsoft-azure-eventgrid-py", "name": "microsoft/azure-eventgrid-py", "description": "Event-driven pub/sub routing", "description_zh": "", "homepage": "https://officialskills.sh/microsoft/skills/azure-eventgrid-py", "tags": ["Python Skills"], "category": "Python Skills", "ownerName": "", "sources": ["VoltAgent/awesome-agent-skills"], "score": 402, "downloads": 0, "stars": 0, "installs": 0, "version": "", "updated_at": 0}, {"slug": "microsoft-azure-eventhub-dotnet", "name": "microsoft/azure-eventhub-dotnet", "description": "High-throughput event streaming", "description_zh": "", "homepage": "https://officialskills.sh/microsoft/skills/azure-eventhub-dotnet", "tags": [".NET Skills"], "category": ".NET Skills", "ownerName": "", "sources": ["VoltAgent/awesome-agent-skills"], "score": 401, "downloads": 0, "stars": 0, "installs": 0, "version": "", "updated_at": 0}]}