{"page": 140, "total_pages": 522, "total": 26073, "skills": [{"category": "ai-intelligence", "created_at": 1772770762987, "description": "Assist with Cosmos ATOM transactions, IBC transfers, staking, and cross-chain ecosystem navigation.", "description_zh": "", "downloads": 668, "homepage": "https://clawhub.ai/ivangdavila/cosmos", "iconUrl": null, "installs": 28, "name": "Cosmos", "ownerName": "ivangdavila", "score": 10331.241791915949, "slug": "cosmos", "source": "clawhub", "stars": 2, "tags": null, "updated_at": 1776767990415, "version": "1.0.0"}, {"category": "ai-intelligence", "created_at": 1772771693179, "description": "Generate a comprehensive portfolio report for a wallet's Uniswap positions across all chains — covering total value, PnL, fee earnings, impermanent loss, and composition. Use when the user asks about their positions, earnings, or portfolio overview.", "description_zh": "", "downloads": 668, "homepage": "https://clawhub.ai/wpank/portfolio-report", "iconUrl": null, "installs": 31, "name": "Uniswap Portfolio Report", "ownerName": "wpank", "score": 7126.093449967996, "slug": "portfolio-report", "source": "clawhub", "stars": 0, "tags": null, "updated_at": 1776768850372, "version": "0.1.0"}, {"category": "developer-tools", "created_at": 1772770279892, "description": "Horizontally-scalable WebSocket hub pattern with lazy Redis subscriptions, connection registry, and graceful shutdown. Use when building real-time WebSocket servers that scale across multiple instances. Triggers on WebSocket hub, WebSocket scaling, connection registry, Redis WebSocket, real-time gateway, horizontal scaling.", "description_zh": "", "downloads": 668, "homepage": "https://clawhub.ai/wpank/websocket-hub-patterns", "iconUrl": null, "installs": 6, "name": "Websocket Hub Patterns", "ownerName": "wpank", "score": 10961.601575319988, "slug": "websocket-hub-patterns", "source": "clawhub", "stars": 0, "tags": null, "updated_at": 1776768850281, "version": "1.0.0"}, {"category": "productivity", "created_at": 1772772723646, "description": "Execute JavaScript code in a secure sandbox for data processing, computation, and quick expression evaluation without network or filesystem access.", "description_zh": "", "downloads": 668, "homepage": "https://clawhub.ai/paulgnz/xpr-code-sandbox", "iconUrl": null, "installs": 30, "name": "XPR Code Sandbox", "ownerName": "paulgnz", "score": 14405.865861548415, "slug": "xpr-code-sandbox", "source": "clawhub", "stars": 0, "tags": ["code", "javascript", "sandbox", "xpr"], "updated_at": 1776768850138, "version": "0.2.11"}, {"category": "content-creation", "created_at": 1772781196254, "description": "Humanize AI-generated text by detecting and removing patterns typical of LLM output. Rewrites text to sound natural, specific, and human. Uses 28 pattern det...", "description_zh": "", "downloads": 668, "homepage": "https://clawhub.ai/actualcwhitlock/humanizer-2", "iconUrl": null, "installs": 30, "name": "Humanizer", "ownerName": "actualcwhitlock", "score": 4469.124238977721, "slug": "humanizer-2", "source": "clawhub", "stars": 0, "tags": null, "updated_at": 1776768850085, "version": "0.1.0"}, {"category": "developer-tools", "created_at": 1772772603273, "description": "Systematically onboard new clients with checklists, welcome sequences, milestone tracking, and success metrics. Reduce churn by nailing the first 90 days.", "description_zh": "", "downloads": 668, "homepage": "https://clawhub.ai/1kalin/customer-onboarding", "iconUrl": null, "installs": 5, "name": "Customer Onboarding", "ownerName": "1kalin", "score": 2978.2870391011634, "slug": "customer-onboarding", "source": "clawhub", "stars": 0, "tags": ["customer", "onboarding", "process"], "updated_at": 1776768849783, "version": "1.0.0"}, {"category": "data-analysis", "created_at": 1772776370655, "description": "Identifies winning e-commerce products by analyzing social trends, regional demand, marketplace data, and prepares WooCommerce or Shopify store drafts accord...", "description_zh": "", "downloads": 668, "homepage": "https://clawhub.ai/h4gen/product-research", "iconUrl": null, "installs": 41, "name": "Product Research", "ownerName": "h4gen", "score": 17947.34013970983, "slug": "product-research", "source": "clawhub", "stars": 0, "tags": null, "updated_at": 1776768849711, "version": "1.0.0"}, {"category": "productivity", "created_at": 1772773118034, "description": "Rigorous comparisons with confidence parity, weighted criteria, and research depth tracking.", "description_zh": "", "downloads": 667, "homepage": "https://clawhub.ai/ivangdavila/compare", "iconUrl": null, "installs": 23, "name": "Compare", "ownerName": "ivangdavila", "score": 26608.957470831767, "slug": "compare", "source": "clawhub", "stars": 2, "tags": null, "updated_at": 1776768071177, "version": "1.0.0"}, {"category": "content-creation", "created_at": 1772787491892, "description": "Edit PDF files visually using natural language with the nano-pdf CLI tool, powered by Google's Gemini 3 Pro Image (Nano Banana). Use this skill whenever the...", "description_zh": "", "downloads": 667, "homepage": "https://clawhub.ai/ps06756/nano-banana-pdf-skill", "iconUrl": null, "installs": 143, "name": "nano-banana-pdf-edit", "ownerName": "ps06756", "score": 22183.87197991842, "slug": "nano-banana-pdf-skill", "source": "clawhub", "stars": 2, "tags": null, "updated_at": 1776768071080, "version": "1.0.1"}, {"category": "data-analysis", "created_at": 1772776461075, "description": "Organize, track, and analyze contracts with renewal alerts, clause lookups, and multi-role support for individuals, landlords, freelancers, and legal teams.", "description_zh": "", "downloads": 667, "homepage": "https://clawhub.ai/ivangdavila/contracts", "iconUrl": null, "installs": 46, "name": "Contracts", "ownerName": "ivangdavila", "score": 15756.630265210608, "slug": "contracts", "source": "clawhub", "stars": 2, "tags": null, "updated_at": 1776767990461, "version": "1.0.0"}, {"category": "developer-tools", "created_at": 1772770778743, "description": "Deploy and tune Meilisearch with indexing, filtering, and production configuration.", "description_zh": "", "downloads": 667, "homepage": "https://clawhub.ai/ivangdavila/meilisearch", "iconUrl": null, "installs": 5, "name": "Meilisearch", "ownerName": "ivangdavila", "score": 15756.630265210608, "slug": "meilisearch", "source": "clawhub", "stars": 2, "tags": null, "updated_at": 1776767990452, "version": "1.0.0"}, {"category": "security-compliance", "created_at": 1772773252080, "description": "A robust CLI skill to manage Microsoft To Do tasks via Microsoft Graph API. Supports full task lifecycle management including lists, tasks with priorities, due dates, reminders, recurrence patterns, views, search, and data export. Includes comprehensive test suite for reliability. THIS IS A REVISED OAUTH2-BASED VERSION OF ms-todo-sync with AI ASSISTANCE. ALL CREDITS TO THE ORIGINAL AUTHOR.", "description_zh": "", "downloads": 667, "homepage": "https://clawhub.ai/nathanatgit/ms-todo-oauth", "iconUrl": null, "installs": 22, "name": "Ms Todo Oauth", "ownerName": "nathanatgit", "score": 13104.125736738702, "slug": "ms-todo-oauth", "source": "clawhub", "stars": 0, "tags": null, "updated_at": 1776768890586, "version": "1.0.4"}, {"category": "developer-tools", "created_at": 1772770023251, "description": "Get AI-powered marine weather forecasts for any location worldwide", "description_zh": "", "downloads": 667, "homepage": "https://clawhub.ai/sealegs-ai-coder/sealegs-marine-forecast", "iconUrl": null, "installs": 6, "name": "SeaLegs AI Marine Forecast API", "ownerName": "sealegs-ai-coder", "score": 13104.125736738702, "slug": "sealegs-marine-forecast", "source": "clawhub", "stars": 0, "tags": null, "updated_at": 1776768890571, "version": "1.0.0"}, {"category": "developer-tools", "created_at": 1772773739872, "description": "Multi-agent orchestration with 5 proven patterns - Work Crew, Supervisor, Pipeline, Council, and Auto-Routing", "description_zh": "", "downloads": 667, "homepage": "https://clawhub.ai/variable190/agent-orchestrator-molter", "iconUrl": null, "installs": 7, "name": "Agent Orchestrator", "ownerName": "variable190", "score": 13104.125736738702, "slug": "agent-orchestrator-molter", "source": "clawhub", "stars": 0, "tags": ["ai-workflow", "automation", "multi-agent", "orchestration", "productivity"], "updated_at": 1776768890558, "version": "1.0.5"}, {"category": "ai-intelligence", "created_at": 1772777283705, "description": "A visual, human-like web browser for OpenClaw agents.Supports reading,screenshots, and visible mode.", "description_zh": "", "downloads": 667, "homepage": "https://clawhub.ai/canbirlik/claw-browser", "iconUrl": null, "installs": 60, "name": "Claw Browser", "ownerName": "canbirlik", "score": 13104.125736738702, "slug": "claw-browser", "source": "clawhub", "stars": 0, "tags": null, "updated_at": 1776768890550, "version": "1.0.2"}, {"category": "ai-intelligence", "created_at": 1772772984079, "description": "Fetches AI news from smol.ai RSS. Use when user asks about AI news or daily tech updates.", "description_zh": "", "downloads": 667, "homepage": "https://clawhub.ai/hjw21century/ai-daily", "iconUrl": null, "installs": 41, "name": "Ai Daily", "ownerName": "hjw21century", "score": 13104.125736738702, "slug": "ai-daily", "source": "clawhub", "stars": 0, "tags": null, "updated_at": 1776768890537, "version": "0.1.0"}, {"category": "productivity", "created_at": 1773832060588, "description": "Joplin — Note Manager — personal knowledge base. Personal productivity tool. Use when you need Joplin capabilities for personal organization, tracking, or ma...", "description_zh": "", "downloads": 667, "homepage": "https://clawhub.ai/bytesagain/note-organizer", "iconUrl": null, "installs": 64, "name": "Note Organizer", "ownerName": "bytesagain", "score": 8040.019286403086, "slug": "note-organizer", "source": "clawhub", "stars": 0, "tags": null, "updated_at": 1776768890528, "version": "1.0.0"}, {"category": "productivity", "created_at": 1772774160194, "description": "Public-safe hackathon source registry + filtering output (no crawling, no submissions).", "description_zh": "", "downloads": 667, "homepage": "https://clawhub.ai/edmonddantesj/aoi-hackathon-scout-lite", "iconUrl": null, "installs": 31, "name": "AOI Hackathon Scout (Lite)", "ownerName": "edmonddantesj", "score": 8040.019286403086, "slug": "aoi-hackathon-scout-lite", "source": "clawhub", "stars": 0, "tags": null, "updated_at": 1776768890517, "version": "0.1.6"}, {"category": "ai-intelligence", "created_at": 1772794369223, "description": "Search and download research papers from arXiv.org - Research skill for OpenClaw agents", "description_zh": "", "downloads": 667, "homepage": "https://clawhub.ai/nantes/arxiv-research", "iconUrl": null, "installs": 87, "name": "ArXiv Research", "ownerName": "nantes", "score": 8040.019286403086, "slug": "arxiv-research", "source": "clawhub", "stars": 0, "tags": null, "updated_at": 1776768890510, "version": "1.0.0"}, {"category": "productivity", "created_at": 1772778615620, "description": "Automatically classifies requests to optimize cost by routing to the cheapest capable model and applies maximum output compression for 75%+ token savings.", "description_zh": "", "downloads": 667, "homepage": "https://clawhub.ai/mariovallereyes/token-saver-75plus", "iconUrl": null, "installs": 20, "name": "Token Saver 75+", "ownerName": "mariovallereyes", "score": 8040.019286403086, "slug": "token-saver-75plus", "source": "clawhub", "stars": 0, "tags": null, "updated_at": 1776768890490, "version": "1.0.0"}, {"category": "developer-tools", "created_at": 1772774658808, "description": "Transcribe audio to timestamped lyrics using OpenAI Whisper or ElevenLabs Scribe API. Outputs LRC, SRT, or JSON with word-level timestamps. Use when users want to transcribe songs, generate LRC files, or extract lyrics with timestamps from audio.", "description_zh": "", "downloads": 667, "homepage": "https://clawhub.ai/dumoedss/acestep-lyrics-transcription", "iconUrl": null, "installs": 30, "name": "acestep-lyrics-transcription", "ownerName": "dumoedss", "score": 8040.019286403086, "slug": "acestep-lyrics-transcription", "source": "clawhub", "stars": 0, "tags": null, "updated_at": 1776768890476, "version": "1.0.1"}, {"category": "", "created_at": 1774837964025, "description": "Converts PDF documents into editable PowerPoint presentations with intelligent content extraction and formatting.", "description_zh": "", "downloads": 667, "homepage": "https://clawhub.ai/krishnakumarmahadevan-cmd/pdf-to-pptx", "iconUrl": null, "installs": 302, "name": "PDF To PPTX", "ownerName": "krishnakumarmahadevan-cmd", "score": 17697.001857256568, "slug": "pdf-to-pptx", "source": "clawhub", "stars": 0, "tags": null, "updated_at": 1776768850422, "version": "1.0.0"}, {"category": "productivity", "created_at": 1772776824930, "description": "OpenClaw expert — use for ANY OpenClaw question or problem including: config errors, gateway crashes, gateway not starting, slash commands, channel routing,...", "description_zh": "", "downloads": 666, "homepage": "https://clawhub.ai/isriam/claw-guru", "iconUrl": null, "installs": 25, "name": "Openclaw Guru - Documentation and Support expert", "ownerName": "isriam", "score": 8797.850906648757, "slug": "claw-guru", "source": "clawhub", "stars": 6, "tags": null, "updated_at": 1776766450119, "version": "1.0.0"}, {"category": "content-creation", "created_at": 1772770590102, "description": "Write Danish that sounds human. Not formal, not robotic, not AI-generated.", "description_zh": "", "downloads": 666, "homepage": "https://clawhub.ai/ivangdavila/danish", "iconUrl": null, "installs": 35, "name": "Danish", "ownerName": "ivangdavila", "score": 6737.927085321627, "slug": "danish", "source": "clawhub", "stars": 2, "tags": null, "updated_at": 1776769450087, "version": "1.0.0"}, {"category": "data-analysis", "created_at": 1773037719454, "description": "Fast X Intelligence CLI (Rust) — search, analyze, and engage on X/Twitter from the terminal. Use when: (1) user says \"x research\", \"search x for\", \"search tw...", "description_zh": "", "downloads": 666, "homepage": "https://clawhub.ai/0xnyk/xint-rs", "iconUrl": null, "installs": 10, "name": "Xint Rs", "ownerName": "0xnyk", "score": 19399.94174191669, "slug": "xint-rs", "source": "clawhub", "stars": 0, "tags": null, "updated_at": 1776769149787, "version": "2026.2.26"}, {"category": "developer-tools", "created_at": 1772772067218, "description": "Fetch trending topics, sentiment, and narratives from Moltbook (hourly), discover hot new GitHub repos and emerging tools (daily), detect Polymarket predicti...", "description_zh": "", "downloads": 666, "homepage": "https://clawhub.ai/jcislo/moltalyzer", "iconUrl": null, "installs": 10, "name": "Moltalyzer", "ownerName": "jcislo", "score": 24621.072088724584, "slug": "moltalyzer", "source": "clawhub", "stars": 0, "tags": null, "updated_at": 1776768971264, "version": "1.7.1"}, {"category": "productivity", "created_at": 1772779085237, "description": "Create, list, cancel, and snooze reminders using OpenClaw cron jobs (one-shot or recurring). Use when a user asks things like: 'remind me in 20 minutes', 're...", "description_zh": "", "downloads": 666, "homepage": "https://clawhub.ai/martok9803/martok9803-reminder-engine", "iconUrl": null, "installs": 23, "name": "Reminder Engine", "ownerName": "martok9803", "score": 9512.926724753606, "slug": "martok9803-reminder-engine", "source": "clawhub", "stars": 0, "tags": null, "updated_at": 1776768971231, "version": "0.1.0"}, {"category": "developer-tools", "created_at": 1772793175385, "description": "Scaffold MCP server projects and baseline tool contract checks. Use for defining tool schemas, generating starter server layouts, and validating MCP-ready st...", "description_zh": "", "downloads": 666, "homepage": "https://clawhub.ai/0x-professor/agentic-mcp-server-builder", "iconUrl": null, "installs": 20, "name": "Agentic Mcp Server Builder", "ownerName": "0x-professor", "score": 9512.926724753606, "slug": "agentic-mcp-server-builder", "source": "clawhub", "stars": 0, "tags": null, "updated_at": 1776768971157, "version": "0.1.0"}, {"category": "developer-tools", "created_at": 1773284261101, "description": "Test API endpoints and document responses. Define tests in plain English, run them, get formatted results. Agent-driven Postman alternative.", "description_zh": "", "downloads": 666, "homepage": "https://clawhub.ai/theshadowrose/openclaw-api-tester", "iconUrl": null, "installs": 14, "name": "APITester Agent-Driven API Testing", "ownerName": "theshadowrose", "score": 23343.84858044164, "slug": "openclaw-api-tester", "source": "clawhub", "stars": 0, "tags": ["api", "api-tester", "debugging", "http", "testing", "validation"], "updated_at": 1776768971143, "version": "1.0.0"}, {"category": "communication-collaboration", "created_at": 1772775017511, "description": "Manages a local CSV-based CRM with pipeline tracking", "description_zh": "", "downloads": 666, "homepage": "https://clawhub.ai/1kalin/afrexai-crm-updater", "iconUrl": null, "installs": 14, "name": "Crm Manager", "ownerName": "1kalin", "score": 23343.84858044164, "slug": "afrexai-crm-updater", "source": "clawhub", "stars": 0, "tags": null, "updated_at": 1776768971140, "version": "1.1.0"}, {"category": "security-compliance", "created_at": 1773200703177, "description": "Security vetting protocol before installing any AI agent skill. Red flag detection for credential theft, obfuscated code, exfiltration. Risk classification L...", "description_zh": "", "downloads": 666, "homepage": "https://clawhub.ai/yiyi-9/openclaw-skill-vetter-1-0-0", "iconUrl": null, "installs": 69, "name": "Openclaw Skill Vetter 1.0.0", "ownerName": "yiyi-9", "score": 21346.153846153844, "slug": "openclaw-skill-vetter-1-0-0", "source": "clawhub", "stars": 0, "tags": null, "updated_at": 1776768971091, "version": "1.0.0"}, {"category": "communication-collaboration", "created_at": 1772779995271, "description": "Comprehensive guide for Telegram Rich UI features (Inline buttons, formatting, media, reactions, and message management). Use this skill to provide a low-fri...", "description_zh": "", "downloads": 665, "homepage": "https://clawhub.ai/shingo0620/telegram-rich-messages", "iconUrl": null, "installs": 32, "name": "Telegram Rich Messages", "ownerName": "shingo0620", "score": 7549.724044569406, "slug": "telegram-rich-messages", "source": "clawhub", "stars": 3, "tags": null, "updated_at": 1776767471095, "version": "1.0.1"}, {"category": "content-creation", "created_at": 1772770767808, "description": "Write Czech that sounds human. Not formal, not robotic, not AI-generated.", "description_zh": "", "downloads": 665, "homepage": "https://clawhub.ai/ivangdavila/czech", "iconUrl": null, "installs": 31, "name": "Czech", "ownerName": "ivangdavila", "score": 8449.185043144775, "slug": "czech", "source": "clawhub", "stars": 2, "tags": null, "updated_at": 1776769490505, "version": "1.0.0"}, {"category": "content-creation", "created_at": 1772771726052, "description": "Write Bengali that sounds human. Not formal, not robotic, not AI-generated.", "description_zh": "", "downloads": 665, "homepage": "https://clawhub.ai/ivangdavila/bengali", "iconUrl": null, "installs": 34, "name": "Bengali", "ownerName": "ivangdavila", "score": 8449.185043144775, "slug": "bengali", "source": "clawhub", "stars": 2, "tags": null, "updated_at": 1776769490491, "version": "1.0.0"}, {"category": "productivity", "created_at": 1772770794425, "description": "Find the highest-yield LP pools on Uniswap filtered by risk tolerance and minimum TVL. Use when the user asks about the best yields, highest APY pools, or where to earn fees.", "description_zh": "", "downloads": 665, "homepage": "https://clawhub.ai/wpank/find-yield", "iconUrl": null, "installs": 25, "name": "Uniswap Find Yield", "ownerName": "wpank", "score": 24584.103512014786, "slug": "find-yield", "source": "clawhub", "stars": 0, "tags": null, "updated_at": 1776768971269, "version": "0.1.0"}, {"category": "ai-intelligence", "created_at": 1773416765884, "description": "Helps users discover and install agent skills when they ask questions like \"how do I do X\", \"find a skill for X\", \"is there a skill that can...\", or express...", "description_zh": "", "downloads": 665, "homepage": "https://clawhub.ai/ruimin922/find-skills-3", "iconUrl": null, "installs": 48, "name": "Find Skills", "ownerName": "ruimin922", "score": 23308.797756747284, "slug": "find-skills-3", "source": "clawhub", "stars": 0, "tags": null, "updated_at": 1776768971126, "version": "0.1.0"}, {"category": "data-analysis", "created_at": 1772774407065, "description": "Landing page conversion optimization with layout rules, hero section design, and CTA psychology. Covers above-the-fold formula, social proof placement, mobil...", "description_zh": "", "downloads": 665, "homepage": "https://clawhub.ai/okaris/landing-page-design", "iconUrl": null, "installs": 24, "name": "Landing Page Design", "ownerName": "okaris", "score": 21314.102564102563, "slug": "landing-page-design", "source": "clawhub", "stars": 0, "tags": null, "updated_at": 1776768971089, "version": "0.1.5"}, {"category": "security-compliance", "created_at": 1772779000262, "description": "Static analysis security scanner for third-party OpenClaw skills. Detects eval/spawn risks, malicious dependencies, typosquatting, and prompt injection patte...", "description_zh": "", "downloads": 665, "homepage": "https://clawhub.ai/britrik/skill-vettr", "iconUrl": null, "installs": 47, "name": "Skill Vettr", "ownerName": "britrik", "score": 21314.102564102563, "slug": "skill-vettr", "source": "clawhub", "stars": 0, "tags": ["analysis", "scanner", "security", "static-analysis", "vetting"], "updated_at": 1776768971063, "version": "2.0.3"}, {"category": "developer-tools", "created_at": 1772779433612, "description": "Safely search and review Clawhub skills by keyword, showing details and risk before asking for explicit approval to install.", "description_zh": "", "downloads": 665, "homepage": "https://clawhub.ai/viktorbjorn/clawhub-search-verify", "iconUrl": null, "installs": 16, "name": "Clawhub Search & Verify", "ownerName": "viktorbjorn", "score": 21314.102564102563, "slug": "clawhub-search-verify", "source": "clawhub", "stars": 0, "tags": ["automation", "no-shell", "safe", "trusted", "verify"], "updated_at": 1776768971040, "version": "1.0.3"}, {"category": "data-analysis", "created_at": 1772794635232, "description": "Schedule meetings, check availability, and manage calendars across Google, Outlook, and CalDAV. Routes to focused sub-skills for datetime resolution and cale...", "description_zh": "", "downloads": 664, "homepage": "https://clawhub.ai/billylui/temporal-cortex", "iconUrl": null, "installs": 13, "name": "temporal-cortex", "ownerName": "billylui", "score": 3339.3545867304592, "slug": "temporal-cortex", "source": "clawhub", "stars": 1, "tags": null, "updated_at": 1776768550166, "version": "0.9.1"}, {"category": "ai-intelligence", "created_at": 1772776525745, "description": "Place and claim decentralized sports bets on-chain via Pinwin and Azuro: real-time odds, high liquidity, no custody. Fetch prematch and live games from the d...", "description_zh": "", "downloads": 664, "homepage": "https://clawhub.ai/skinnynoizze/sports-betting", "iconUrl": null, "installs": 40, "name": "Sports Betting", "ownerName": "skinnynoizze", "score": 30926.874708896135, "slug": "sports-betting", "source": "clawhub", "stars": 0, "tags": null, "updated_at": 1776769149764, "version": "1.0.3"}, {"category": "data-analysis", "created_at": 1773040938458, "description": "Systematic debugging and problem-solving methodology. Activate when encountering unexpected errors, service failures, regression bugs, deployment issues, or...", "description_zh": "", "downloads": 664, "homepage": "https://clawhub.ai/abczsl520/debug-methodology", "iconUrl": null, "installs": 18, "name": "Debug Methodology", "ownerName": "abczsl520", "score": 24547.13493530499, "slug": "debug-methodology", "source": "clawhub", "stars": 0, "tags": ["ai-agent", "automation", "code-review", "debugging", "developer-tools", "nodejs", "openclaw", "root-cause-analysis"], "updated_at": 1776768971249, "version": "1.2.0"}, {"category": "developer-tools", "created_at": 1772774208475, "description": "Omarchy operating guardrails for day-to-day system work: assume the host is Omarchy by default, choose Omarchy-native workflows first, map user intent to the correct omarchy-* wrapper/script family, and avoid generic Linux commands that conflict with Omarchy behavior. Use whenever handling local system tasks on this host unless the user explicitly says it is not Omarchy; prioritize safe Omarchy commands, prevent non-Omarchy shortcuts (e.g., ad-hoc process killing/relaunch patterns), troubleshoot desktop behavior, and validate the right script before execution.", "description_zh": "", "downloads": 664, "homepage": "https://clawhub.ai/achals-iglu/omarchy", "iconUrl": null, "installs": 19, "name": "omarchy", "ownerName": "achals-iglu", "score": 24547.13493530499, "slug": "omarchy", "source": "clawhub", "stars": 0, "tags": null, "updated_at": 1776768971245, "version": "0.1.1"}, {"category": "developer-tools", "created_at": 1772770692554, "description": "Set up a complete self-funding agent lifecycle in one command. Orchestrates 5 agents to take an agent from zero to self-sustaining: provisions wallet, optionally deploys token with V4 pool, configures treasury management, registers identity on ERC-8004, and sets up x402 micropayments. Use when user wants to make their agent self-funding, earn and manage its own revenue, or configure autonomous agent operations end-to-end.", "description_zh": "", "downloads": 664, "homepage": "https://clawhub.ai/wpank/self-funding-setup", "iconUrl": null, "installs": 17, "name": "Uniswap Self Funding Setup", "ownerName": "wpank", "score": 9484.359377231824, "slug": "self-funding-setup", "source": "clawhub", "stars": 0, "tags": null, "updated_at": 1776768971222, "version": "0.1.0"}, {"category": "ai-intelligence", "created_at": 1772775366796, "description": "Создаёт и доставляет пользователю напоминания в текущий чат мессенджера через systemEvent в main session по расписанию или интервалу.", "description_zh": "", "downloads": 664, "homepage": "https://clawhub.ai/alex3alex/channel-reminders", "iconUrl": null, "installs": 32, "name": "Channel Reminders", "ownerName": "alex3alex", "score": 9484.359377231824, "slug": "channel-reminders", "source": "clawhub", "stars": 0, "tags": null, "updated_at": 1776768971181, "version": "1.3.0"}, {"category": "content-creation", "created_at": 1773430287217, "description": "Generate engaging short video scripts (30s-3min) for social media platforms like WeChat Channels, Douyin, Xiaohongshu, TikTok, and Reels. Use when user asks...", "description_zh": "", "downloads": 664, "homepage": "https://clawhub.ai/mebusw/jackyshen-gen-short-video-script", "iconUrl": null, "installs": 285, "name": "jackyshen-gen-short-video-script", "ownerName": "mebusw", "score": 23273.746933052927, "slug": "jackyshen-gen-short-video-script", "source": "clawhub", "stars": 0, "tags": null, "updated_at": 1776768971127, "version": "1.0.0"}, {"category": "developer-tools", "created_at": 1772779845986, "description": "AI/DevOps 유튜브 숏츠 자동 생성. 트렌드 수집 → 스크립트 → 이미지 → Veo 영상 → TTS 나레이션 → Remotion 합성 → YouTube 업로드", "description_zh": "", "downloads": 664, "homepage": "https://clawhub.ai/kangjjang/youtube-shorts", "iconUrl": null, "installs": 38, "name": "YouTube Shorts 자동 생성", "ownerName": "kangjjang", "score": 23273.746933052927, "slug": "youtube-shorts", "source": "clawhub", "stars": 0, "tags": ["ai", "devops", "gemini", "korean", "remotion", "shorts", "tts", "veo", "youtube"], "updated_at": 1776768971115, "version": "2.0.1"}, {"category": "ai-intelligence", "created_at": 1772772123625, "description": "Learns how to explain things to your human. Adapts format, depth, and style by topic.", "description_zh": "", "downloads": 663, "homepage": "https://clawhub.ai/ivangdavila/explain", "iconUrl": null, "installs": 39, "name": "Explain", "ownerName": "ivangdavila", "score": 4690.1060777903795, "slug": "explain", "source": "clawhub", "stars": 2, "tags": null, "updated_at": 1776768250006, "version": "1.0.2"}, {"category": "data-analysis", "created_at": 1772771614542, "description": "LYGO Guardian base skill – Nano-Kernel (P0.4), Understanding Heart (P0.5), and Light Math harmony as a portable stability upgrade for any agent.", "description_zh": "", "downloads": 663, "homepage": "https://clawhub.ai/deepseekoracle/lygo-guardian-p0-stack", "iconUrl": null, "installs": 21, "name": "LYGO Guardian P0 Stack", "ownerName": "deepseekoracle", "score": 1553.1660692951016, "slug": "lygo-guardian-p0-stack", "source": "clawhub", "stars": 0, "tags": null, "updated_at": 1776770113503, "version": "0.1.0"}, {"category": "developer-tools", "created_at": 1772770407835, "description": "Register for 10DLC as a sole proprietor to enable SMS messaging in the USA. Use when setting up A2P SMS, registering brands/campaigns, or assigning phone numbers for compliant US messaging. Requires Telnyx CLI.", "description_zh": "", "downloads": 663, "homepage": "https://clawhub.ai/teamtelnyx/telnyx-10dlc", "iconUrl": null, "installs": 9, "name": "10dlc Registration", "ownerName": "teamtelnyx", "score": 32724.58045409674, "slug": "telnyx-10dlc", "source": "clawhub", "stars": 0, "tags": null, "updated_at": 1776769150239, "version": "1.0.0"}]}