{"page": 141, "total_pages": 522, "total": 26073, "skills": [{"category": "data-analysis", "created_at": 1772777069524, "description": "Conduct deep research using Perplexity Agent API with web search, reasoning, and multi-model analysis. Use when the user needs current information, market re...", "description_zh": "", "downloads": 663, "homepage": "https://clawhub.ai/hushenglang/perplexity-research", "iconUrl": null, "installs": 43, "name": "Perplexity Research", "ownerName": "hushenglang", "score": 3694.8283548818545, "slug": "perplexity-research", "source": "clawhub", "stars": 0, "tags": null, "updated_at": 1776769150049, "version": "2.0.0"}, {"category": "data-analysis", "created_at": 1772773760843, "description": "Add observability to your OpenClaw instance — errors, logs, and traces sent to Sentry. Set up monitoring with the Sentry plugin, then investigate issues with...", "description_zh": "", "downloads": 663, "homepage": "https://clawhub.ai/sergical/sentry-observability", "iconUrl": null, "installs": 7, "name": "Sentry Observability", "ownerName": "sergical", "score": 30880.29809035864, "slug": "sentry-observability", "source": "clawhub", "stars": 0, "tags": null, "updated_at": 1776769149720, "version": "1.1.0"}, {"category": "developer-tools", "created_at": 1772774816991, "description": "Manage Laravel Cloud infrastructure via API — apps, environments, deployments, databases, caches, domains, scaling, commands, storage, and WebSockets.", "description_zh": "", "downloads": 662, "homepage": "https://clawhub.ai/florianbeer/laravel-cloud", "iconUrl": null, "installs": 9, "name": "Laravel Cloud", "ownerName": "florianbeer", "score": 8873.475245156662, "slug": "laravel-cloud", "source": "clawhub", "stars": 4, "tags": null, "updated_at": 1776767090563, "version": "1.2.2"}, {"category": "productivity", "created_at": 1772770882363, "description": "Manage Bring! shopping lists (Einkaufsliste / grocery list) — add, remove, check off items, batch ops, default list support. Use when: user wants to set up B...", "description_zh": "", "downloads": 662, "homepage": "https://clawhub.ai/maikimolto/bring-list", "iconUrl": null, "installs": 20, "name": "Bring! Shopping List", "ownerName": "maikimolto", "score": 34310.85043988269, "slug": "bring-list", "source": "clawhub", "stars": 2, "tags": null, "updated_at": 1776768249845, "version": "1.2.5"}, {"category": "productivity", "created_at": 1772778155681, "description": "Fetch web pages as clean Markdown and search the web via the distil.net proxy", "description_zh": "", "downloads": 662, "homepage": "https://clawhub.ai/mikel/distil", "iconUrl": null, "installs": 30, "name": "Distil the web & PDFs into markdown", "ownerName": "mikel", "score": 14457.30508844726, "slug": "distil", "source": "clawhub", "stars": 0, "tags": null, "updated_at": 1776769150322, "version": "2.0.1"}, {"category": "developer-tools", "created_at": 1773427562423, "description": "Run, tune, and troubleshoot local Ollama models with reliable API patterns, Modelfiles, embeddings, and hardware-aware deployment workflows.", "description_zh": "", "downloads": 662, "homepage": "https://clawhub.ai/ivangdavila/ollama", "iconUrl": null, "installs": 56, "name": "Ollama", "ownerName": "ivangdavila", "score": 29566.77087985708, "slug": "ollama", "source": "clawhub", "stars": 0, "tags": null, "updated_at": 1776769150301, "version": "1.0.0"}, {"category": "ai-intelligence", "created_at": 1772770871949, "description": "Get the optimal LP strategy for a token pair — recommends version (V2/V3/V4), fee tier, range width, and rebalance approach based on pair characteristics, historical data, and risk tolerance. Use when the user asks how to LP, what range to use, or which version/fee tier is best.", "description_zh": "", "downloads": 662, "homepage": "https://clawhub.ai/wpank/optimize-lp", "iconUrl": null, "installs": 36, "name": "Uniswap Optimize Lp", "ownerName": "wpank", "score": 32675.222112537016, "slug": "optimize-lp", "source": "clawhub", "stars": 0, "tags": null, "updated_at": 1776769150270, "version": "0.1.0"}, {"category": "developer-tools", "created_at": 1772771923310, "description": "Redact personally identifiable information from text by replacing sensitive data with placeholders using Expanso Edge pipelines.", "description_zh": "", "downloads": 662, "homepage": "https://clawhub.ai/aronchick/expanso-pii-redact", "iconUrl": null, "installs": 6, "name": "Expanso pii-redact", "ownerName": "aronchick", "score": 32675.222112537016, "slug": "expanso-pii-redact", "source": "clawhub", "stars": 0, "tags": null, "updated_at": 1776769150245, "version": "1.0.0"}, {"category": "data-analysis", "created_at": 1772774605360, "description": "AI Commander Management Dashboard. A lightweight companion web UI for monitoring inbound emails received via the email-webhook skill and browser session stat...", "description_zh": "", "downloads": 662, "homepage": "https://clawhub.ai/lksrz/aic-dashboard", "iconUrl": null, "installs": 12, "name": "AI Commander Dashboard", "ownerName": "lksrz", "score": 12149.018168471279, "slug": "aic-dashboard", "source": "clawhub", "stars": 0, "tags": null, "updated_at": 1776769150112, "version": "1.8.0"}, {"category": "communication-collaboration", "created_at": 1772777100699, "description": "Agent profiles, public channels, and direct messaging between AI agents via the a2achat.top API.", "description_zh": "", "downloads": 662, "homepage": "https://clawhub.ai/andrewandrewsen/a2achat", "iconUrl": null, "installs": 14, "name": "A2achat", "ownerName": "andrewandrewsen", "score": 22199.86586183769, "slug": "a2achat", "source": "clawhub", "stars": 0, "tags": null, "updated_at": 1776769149975, "version": "2.1.1"}, {"category": "developer-tools", "created_at": 1772797541321, "description": "Headless browser automation CLI for AI agents. Use when interacting with websites — navigating pages, filling forms, clicking buttons, taking screenshots, ex...", "description_zh": "", "downloads": 662, "homepage": "https://clawhub.ai/bodietron/openclaw-agent-browser", "iconUrl": null, "installs": 22, "name": "Agent Browser", "ownerName": "bodietron", "score": 30833.721471821147, "slug": "openclaw-agent-browser", "source": "clawhub", "stars": 0, "tags": null, "updated_at": 1776769149765, "version": "1.0.0"}, {"category": "ai-intelligence", "created_at": 1772795883966, "description": "Transform any AI agent into a world-class travel planner using Kontour AI's 9-dimension progressive planning model with structured conversation flow.", "description_zh": "", "downloads": 661, "homepage": "https://clawhub.ai/skylinehk/kontour-travel-planner", "iconUrl": null, "installs": 28, "name": "Kontour Travel Planner", "ownerName": "skylinehk", "score": 4423.855687814455, "slug": "kontour-travel-planner", "source": "clawhub", "stars": 3, "tags": null, "updated_at": 1776767650093, "version": "1.1.28"}, {"category": "data-analysis", "created_at": 1772776159888, "description": "Multimodal YouTube video analysis through both audio (transcript) and visual (frame extraction + image analysis) channels. Especially powerful for HowTo vide...", "description_zh": "", "downloads": 661, "homepage": "https://clawhub.ai/sdrabent/youtube-knowledge-extractor", "iconUrl": null, "installs": 42, "name": "Youtube Knowledge Extractor", "ownerName": "sdrabent", "score": 34261.974584555224, "slug": "youtube-knowledge-extractor", "source": "clawhub", "stars": 2, "tags": null, "updated_at": 1776768249894, "version": "1.1.0"}, {"category": "developer-tools", "created_at": 1772774423499, "description": "Self-hosted REST API for comprehensive PDF manipulation including merge, split, convert, OCR, compress, sign, redact, and secure PDFs.", "description_zh": "", "downloads": 661, "homepage": "https://clawhub.ai/angusthefuzz/stirling-pdf", "iconUrl": null, "installs": 34, "name": "Stirling PDF", "ownerName": "angusthefuzz", "score": 34261.974584555224, "slug": "stirling-pdf", "source": "clawhub", "stars": 2, "tags": null, "updated_at": 1776768249848, "version": "1.0.4"}, {"category": "ai-intelligence", "created_at": 1773886381813, "description": "Edit PDFs with natural-language instructions using the nano-pdf CLI.", "description_zh": "", "downloads": 661, "homepage": "https://clawhub.ai/kenswj/nano-pdf-1-0-0", "iconUrl": null, "installs": 409, "name": "Nano Pdf 1.0.0", "ownerName": "kenswj", "score": 12130.666177280234, "slug": "nano-pdf-1-0-0", "source": "clawhub", "stars": 0, "tags": null, "updated_at": 1776769150141, "version": "1.0.0"}, {"category": "content-creation", "created_at": 1772788846613, "description": "Read and send email via IMAP/SMTP. Check for new/unread messages, fetch content, search mailboxes, mark as read/unread, and send emails with attachments. Wor...", "description_zh": "", "downloads": 661, "homepage": "https://clawhub.ai/lroccoon/imap-smtp-email-plus", "iconUrl": null, "installs": 47, "name": "IMAP/SMTP Email (Plus)", "ownerName": "lroccoon", "score": 3683.6825679893, "slug": "imap-smtp-email-plus", "source": "clawhub", "stars": 0, "tags": null, "updated_at": 1776769150059, "version": "1.0.0"}, {"category": "content-creation", "created_at": 1772774586789, "description": "Design and implement strategies to reduce client churn, increase recurring revenue, and maximize lifetime value through onboarding, value delivery, check-ins...", "description_zh": "", "downloads": 661, "homepage": "https://clawhub.ai/staybased/client-retention", "iconUrl": null, "installs": 33, "name": "Client Retention", "ownerName": "staybased", "score": 3683.6825679893, "slug": "client-retention", "source": "clawhub", "stars": 0, "tags": null, "updated_at": 1776769150029, "version": "1.0.0"}, {"category": "content-creation", "created_at": 1772771364209, "description": "Design a Uniswap V4 hook architecture without code generation. Use when user wants to plan a hook, understand which callbacks to use, or review an architecture before building. Returns a design document, not code.", "description_zh": "", "downloads": 661, "homepage": "https://clawhub.ai/wpank/design-hook", "iconUrl": null, "installs": 43, "name": "Design Uniswap Hook", "ownerName": "wpank", "score": 22166.3313212609, "slug": "design-hook", "source": "clawhub", "stars": 0, "tags": null, "updated_at": 1776769150002, "version": "0.1.0"}, {"category": "productivity", "created_at": 1772780358007, "description": "Fetch live cryptocurrency and commodity prices from verified sources with caching and fallback, ensuring accurate and up-to-date market data.", "description_zh": "", "downloads": 661, "homepage": "https://clawhub.ai/ryandeangraves/crypto-prices", "iconUrl": null, "installs": 33, "name": "Crypto Prices", "ownerName": "ryandeangraves", "score": 26054.39495467087, "slug": "crypto-prices", "source": "clawhub", "stars": 0, "tags": null, "updated_at": 1776769149954, "version": "1.1.0"}, {"category": "productivity", "created_at": 1772795418456, "description": "Execute programming tasks via Claude Code using PTY-based invocation. Handles non-TTY environments, auto-responds to prompts, and manages file synchronization.", "description_zh": "", "downloads": 660, "homepage": "https://clawhub.ai/lhl09120/claude-code-runner", "iconUrl": null, "installs": 55, "name": "Claude Code Runner", "ownerName": "lhl09120", "score": 18269.74744760881, "slug": "claude-code-runner", "source": "clawhub", "stars": 1, "tags": null, "updated_at": 1776768671257, "version": "0.1.0"}, {"category": "data-analysis", "created_at": 1772770320487, "description": "Analyze Uniswap pool data including liquidity distribution, fee tiers, tick ranges, and TVL. Use when the user asks about pool metrics, liquidity analysis, or wants to query on-chain pool state.", "description_zh": "", "downloads": 660, "homepage": "https://clawhub.ai/wpank/uniswap-pool-analysis", "iconUrl": null, "installs": 13, "name": "Uniswap Pool Analysis", "ownerName": "wpank", "score": 29477.445288075032, "slug": "uniswap-pool-analysis", "source": "clawhub", "stars": 0, "tags": null, "updated_at": 1776769150295, "version": "0.1.0"}, {"category": "security-compliance", "created_at": 1772770432474, "description": "Professional AI-powered translation with optional human verification. Supports 100+ languages. Quality boost for existing translations. Enterprise-grade security and privacy by straker.ai.", "description_zh": "", "downloads": 660, "homepage": "https://clawhub.ai/indynz/straker-verify-openclaw", "iconUrl": null, "installs": 21, "name": "Straker Verify", "ownerName": "indynz", "score": 34591.19496855346, "slug": "straker-verify-openclaw", "source": "clawhub", "stars": 0, "tags": null, "updated_at": 1776769150069, "version": "0.1.0"}, {"category": "data-analysis", "created_at": 1772789211737, "description": "Instinct-based learning system for OpenClaw. Analyzes sessions, detects patterns, creates atomic learnings with confidence scoring, and suggests optimization...", "description_zh": "", "downloads": 660, "homepage": "https://clawhub.ai/adelpro/openclaw-continuous-learning", "iconUrl": null, "installs": 38, "name": "OpenClaw Continuous Learning", "ownerName": "adelpro", "score": 5773.773073221941, "slug": "openclaw-continuous-learning", "source": "clawhub", "stars": 0, "tags": null, "updated_at": 1776769149850, "version": "1.1.0"}, {"category": "security-compliance", "created_at": 1772789569448, "description": "Upload videos and custom thumbnails to YouTube. Use when the user wants to publish, upload, or post a video to YouTube, set a thumbnail, or manage YouTube ch...", "description_zh": "", "downloads": 659, "homepage": "https://clawhub.ai/nachx639/youtube-uploader", "iconUrl": null, "installs": 18, "name": "YouTube Uploader", "ownerName": "nachx639", "score": 50443.68600682594, "slug": "youtube-uploader", "source": "clawhub", "stars": 4, "tags": ["automation", "google", "media", "oauth", "thumbnail", "upload", "video", "youtube"], "updated_at": 1776767171087, "version": "1.0.0"}, {"category": "content-creation", "created_at": 1772770981215, "description": "Write Slovak that sounds human. Not formal, not robotic, not AI-generated.", "description_zh": "", "downloads": 659, "homepage": "https://clawhub.ai/ivangdavila/slovak", "iconUrl": null, "installs": 30, "name": "Slovak", "ownerName": "ivangdavila", "score": 4663.419841216893, "slug": "slovak", "source": "clawhub", "stars": 2, "tags": null, "updated_at": 1776768250004, "version": "1.0.0"}, {"category": "data-analysis", "created_at": 1773073265928, "description": "Translate and dub existing videos into multiple languages using HeyGen. Use when: (1) Translating a video into another language, (2) Dubbing video content wi...", "description_zh": "", "downloads": 659, "homepage": "https://clawhub.ai/michaelwang11394/video-translate", "iconUrl": null, "installs": 41, "name": "Video Translate", "ownerName": "michaelwang11394", "score": 14164.133738601822, "slug": "video-translate", "source": "clawhub", "stars": 2, "tags": ["dubbing", "heygen", "lip-sync", "localization", "translation", "video-translate"], "updated_at": 1776768249757, "version": "2.21.0"}, {"category": "data-analysis", "created_at": 1773073265928, "description": "Translate and dub existing videos into multiple languages using HeyGen. Use when: (1) Translating a video into another language, (2) Dubbing video content wi...", "description_zh": "", "downloads": 659, "homepage": "https://clawhub.ai/michaelwang11394/video-translate", "iconUrl": null, "installs": 41, "name": "Video Translate", "ownerName": "michaelwang11394", "score": 5564.843563410556, "slug": "video-translate", "source": "clawhub", "stars": 2, "tags": ["dubbing", "heygen", "lip-sync", "localization", "translation", "video-translate"], "updated_at": 1776768249757, "version": "2.21.0"}, {"category": "developer-tools", "created_at": 1773065775926, "description": "Godot 4.x game development with C#/.NET, covering best practices, architecture patterns, performance optimization, and common pitfalls. Use when working on G...", "description_zh": "", "downloads": 659, "homepage": "https://clawhub.ai/thb32133451/godot-dev", "iconUrl": null, "installs": 222, "name": "Godot 4.6 C# Development", "ownerName": "thb32133451", "score": 2260.4877714128907, "slug": "godot-dev", "source": "clawhub", "stars": 0, "tags": null, "updated_at": 1776770650010, "version": "1.0.0"}, {"category": "developer-tools", "created_at": 1772770549918, "description": "Build a Uniswap V4 hook. Use when user wants to create a custom V4 hook contract. Generates Solidity code, Foundry tests, mines CREATE2 address for hook flags, and produces deployment scripts. Handles the full hook development lifecycle.", "description_zh": "", "downloads": 659, "homepage": "https://clawhub.ai/wpank/build-hook", "iconUrl": null, "installs": 10, "name": "Uniswap Build Hook", "ownerName": "wpank", "score": 32527.14708785785, "slug": "build-hook", "source": "clawhub", "stars": 0, "tags": null, "updated_at": 1776769150250, "version": "0.1.0"}, {"category": "developer-tools", "created_at": 1772787453052, "description": "Elite CLI tooling for efficient shell operations with optimized token usage. Use when executing shell commands, traversing directories, or manipulating files...", "description_zh": "", "downloads": 659, "homepage": "https://clawhub.ai/bezkom/elite-tools", "iconUrl": null, "installs": 23, "name": "Elite CLI Tools", "ownerName": "bezkom", "score": 9998.482779547869, "slug": "elite-tools", "source": "clawhub", "stars": 0, "tags": null, "updated_at": 1776769150166, "version": "0.0.1"}, {"category": "content-creation", "created_at": 1772770637528, "description": "Write Galician that sounds human. Not formal, not robotic, not AI-generated.", "description_zh": "", "downloads": 658, "homepage": "https://clawhub.ai/ivangdavila/galician", "iconUrl": null, "installs": 30, "name": "Galician", "ownerName": "ivangdavila", "score": 9094.462540716611, "slug": "galician", "source": "clawhub", "stars": 2, "tags": null, "updated_at": 1776768249991, "version": "1.0.0"}, {"category": "ai-intelligence", "created_at": 1772776383740, "description": "Play board games on ShellGames.ai — Chess, Poker, Ludo, Tycoon, Memory, and Spymaster. Use when the agent wants to play games against humans or other AI agen...", "description_zh": "", "downloads": 658, "homepage": "https://clawhub.ai/fabiantaboo/shellgames", "iconUrl": null, "installs": 56, "name": "ShellGames", "ownerName": "fabiantaboo", "score": 14143.870314083078, "slug": "shellgames", "source": "clawhub", "stars": 2, "tags": null, "updated_at": 1776768249790, "version": "1.0.4"}, {"category": "content-creation", "created_at": 1772771286186, "description": "Write Catalan that sounds human. Not formal, not robotic, not AI-generated.", "description_zh": "", "downloads": 658, "homepage": "https://clawhub.ai/ivangdavila/catalan", "iconUrl": null, "installs": 35, "name": "Catalan", "ownerName": "ivangdavila", "score": 5556.8824138205555, "slug": "catalan", "source": "clawhub", "stars": 2, "tags": null, "updated_at": 1776768249734, "version": "1.0.0"}, {"category": "developer-tools", "created_at": 1772800290128, "description": "Asistente de programación especializado. Analiza código, encuentra bugs, sugiere optimizaciones, refactoriza y genera documentación automáticamente.", "description_zh": "", "downloads": 658, "homepage": "https://clawhub.ai/miguelguerra200022-sudo/code-assistant", "iconUrl": null, "installs": 53, "name": "Code Assistant", "ownerName": "miguelguerra200022-sudo", "score": 6875.57042896258, "slug": "code-assistant", "source": "clawhub", "stars": 1, "tags": null, "updated_at": 1776769871117, "version": "1.0.0"}, {"category": "developer-tools", "created_at": 1772794036833, "description": "OpenClaw skill for the agent-browser CLI (Rust-based with Node.js fallback) enabling AI-friendly web automation with snapshots, refs, and structured commands.", "description_zh": "", "downloads": 658, "homepage": "https://clawhub.ai/lion504/agent-browser-core-1-0-1", "iconUrl": null, "installs": 184, "name": "Agent Browser Core 1.0.1", "ownerName": "lion504", "score": 5163.214061519146, "slug": "agent-browser-core-1-0-1", "source": "clawhub", "stars": 0, "tags": null, "updated_at": 1776770350103, "version": "1.0.0"}, {"category": "developer-tools", "created_at": 1772772642276, "description": "한국투자증권(KIS) Open API를 이용한 국내 주식 트레이딩. 잔고 조회, 시세 확인, 매수/매도 주문, 매매 내역, 시장 개황 등. | Korean stock trading via KIS (Korea Investment & Securities) Open API. Balance, quotes, buy/sell orders, trade history, market overview.", "description_zh": "", "downloads": 658, "homepage": "https://clawhub.ai/tgparkk/kis-trading", "iconUrl": null, "installs": 24, "name": "KIS Trading (한국투자증권)", "ownerName": "tgparkk", "score": 3666.9638876504678, "slug": "kis-trading", "source": "clawhub", "stars": 0, "tags": null, "updated_at": 1776769150047, "version": "1.0.0"}, {"category": "productivity", "created_at": 1773287876556, "description": "Enhanced document summarizer. Smart summary, bullet extraction, executive summary, chapter breakdown, multi-doc comparison, translate+summarize.", "description_zh": "", "downloads": 658, "homepage": "https://clawhub.ai/xueyetianya/doc-summarize-pro", "iconUrl": null, "installs": 70, "name": "Doc Summarize Pro", "ownerName": "xueyetianya", "score": 22065.727699530515, "slug": "doc-summarize-pro", "source": "clawhub", "stars": 0, "tags": ["chinese", "productivity"], "updated_at": 1776769149994, "version": "3.0.0"}, {"category": "developer-tools", "created_at": 1772782689524, "description": "Join and work on the Moltcorp platform — register as an agent, create posts, vote on decisions, claim and complete tasks, and earn credits. Use when the user...", "description_zh": "", "downloads": 658, "homepage": "https://clawhub.ai/stugreen13/moltcorp", "iconUrl": null, "installs": 3, "name": "moltcorp", "ownerName": "stugreen13", "score": 19166.909408680454, "slug": "moltcorp", "source": "clawhub", "stars": 0, "tags": null, "updated_at": 1776769149776, "version": "1.0.3"}, {"category": "content-creation", "created_at": 1772770846876, "description": "Write Swedish that sounds human. Not formal, not robotic, not AI-generated.", "description_zh": "", "downloads": 657, "homepage": "https://clawhub.ai/ivangdavila/swedish", "iconUrl": null, "installs": 31, "name": "Swedish", "ownerName": "ivangdavila", "score": 16516.58767772512, "slug": "swedish", "source": "clawhub", "stars": 2, "tags": null, "updated_at": 1776769450167, "version": "1.0.0"}, {"category": "data-analysis", "created_at": 1772785673283, "description": "Generate audio visualization videos using each::sense AI. Create waveforms, spectrum analyzers, particle effects, 3D visualizations, and beat-synced animatio...", "description_zh": "", "downloads": 657, "homepage": "https://clawhub.ai/eftalyurtseven/audio-visualization", "iconUrl": null, "installs": 59, "name": "Audio Visualization", "ownerName": "eftalyurtseven", "score": 6575.471698113207, "slug": "audio-visualization", "source": "clawhub", "stars": 2, "tags": null, "updated_at": 1776768250200, "version": "1.0.0"}, {"category": "security-compliance", "created_at": 1772770159510, "description": "Register, manage, and protect domain names with practical DNS and security guidance.", "description_zh": "", "downloads": 657, "homepage": "https://clawhub.ai/ivangdavila/domains", "iconUrl": null, "installs": 9, "name": "Domains", "ownerName": "ivangdavila", "score": 6575.471698113207, "slug": "domains", "source": "clawhub", "stars": 2, "tags": null, "updated_at": 1776768250193, "version": "1.0.0"}, {"category": "content-creation", "created_at": 1772770667762, "description": "Write Welsh that sounds human. Not formal, not robotic, not AI-generated.", "description_zh": "", "downloads": 657, "homepage": "https://clawhub.ai/ivangdavila/welsh", "iconUrl": null, "installs": 36, "name": "Welsh", "ownerName": "ivangdavila", "score": 6575.471698113207, "slug": "welsh", "source": "clawhub", "stars": 2, "tags": null, "updated_at": 1776768250177, "version": "1.0.0"}, {"category": "security-compliance", "created_at": 1772773589408, "description": "Source-distributed deterministic execution service with pinned dependencies. Runs only with a signed approval artifact (ClawShield mode) and emits verifiable...", "description_zh": "", "downloads": 657, "homepage": "https://clawhub.ai/trendinghot/openexec-skill", "iconUrl": null, "installs": 15, "name": "OpenExec — Deterministic Execution Boundary for Agent Systems", "ownerName": "trendinghot", "score": 4650.076722930148, "slug": "openexec-skill", "source": "clawhub", "stars": 2, "tags": ["agent-governance", "agent-runtime", "ai-guardrails", "ai-infrastructure", "ai-kill-switch", "ai-safety", "ai-security", "approval-enforcement", "authority-separation", "autonomous-agents", "cryptographic-verification", "deterministic-execution", "ed25519", "execution-boundary", "execution-control-plane", "execution-firewall", "execution-runtime", "llm-security", "model-execution-boundary", "network-isolation", "openai-tools", "production-ai", "prompt-injection-defense", "receipt-verification", "replay-protection", "secure-agent-runtime", "secure-agents", "signature-verification", "signed-approvals", "tamper-evidence", "tool-call-security", "zero-trust", "zero-trust-ai"], "updated_at": 1776768249997, "version": "0.1.10"}, {"category": "content-creation", "created_at": 1773955123487, "description": "Generate high-quality bid documents from tender documents. Use when users need to create bid proposals based on tender documents, including extracting tender...", "description_zh": "", "downloads": 657, "homepage": "https://clawhub.ai/chengcheng8632/tender-bid-generator", "iconUrl": null, "installs": 223, "name": "Tender Bid Generator", "ownerName": "chengcheng8632", "score": 18189.145620634066, "slug": "tender-bid-generator", "source": "clawhub", "stars": 1, "tags": null, "updated_at": 1776768671301, "version": "1.0.0"}, {"category": "content-creation", "created_at": 1773221637398, "description": "Expert Pillow (PIL) skill for image processing, manipulation, and analysis. Use this skill for image editing, batch processing, watermarking, format conversi...", "description_zh": "", "downloads": 657, "homepage": "https://clawhub.ai/yangruihan/image-edit-skill", "iconUrl": null, "installs": 47, "name": "Image Edit Skill", "ownerName": "yangruihan", "score": 18189.145620634066, "slug": "image-edit-skill", "source": "clawhub", "stars": 1, "tags": null, "updated_at": 1776768671296, "version": "1.0.0"}, {"category": "ai-intelligence", "created_at": 1772780592597, "description": "Multi-agent UX for OpenClaw Control UI — agent selector, per-agent sessions, session history viewer with search, agent-filtered Sessions tab with friendly na...", "description_zh": "", "downloads": 657, "homepage": "https://clawhub.ai/maverick-software/multi-agent-tenant-upgrade", "iconUrl": null, "installs": 11, "name": "Multi-Agent Tenant Upgrade", "ownerName": "maverick-software", "score": 29343.456900401965, "slug": "multi-agent-tenant-upgrade", "source": "clawhub", "stars": 0, "tags": null, "updated_at": 1776769150303, "version": "1.5.2"}, {"category": "data-analysis", "created_at": 1772771908439, "description": "Formats and pretty-prints JSON input with indentation using Expanso Edge pipelines for easy readability.", "description_zh": "", "downloads": 657, "homepage": "https://clawhub.ai/aronchick/expanso-json-pretty", "iconUrl": null, "installs": 10, "name": "Expanso json-pretty", "ownerName": "aronchick", "score": 12057.258212516057, "slug": "expanso-json-pretty", "source": "clawhub", "stars": 0, "tags": null, "updated_at": 1776769150126, "version": "1.0.0"}, {"category": "content-creation", "created_at": 1772784138129, "description": "Fetch and summarize the latest video game news from major gaming outlets (IGN, Kotaku, GameSpot, Polygon, Eurogamer, Rock Paper Shotgun, VG247, Gematsu, Play...", "description_zh": "", "downloads": 657, "homepage": "https://clawhub.ai/byeolbit/gamer-news", "iconUrl": null, "installs": 67, "name": "gamer-news-skill", "ownerName": "byeolbit", "score": 12057.258212516057, "slug": "gamer-news", "source": "clawhub", "stars": 0, "tags": null, "updated_at": 1776769150120, "version": "1.0.0"}, {"category": "ai-intelligence", "created_at": 1772772533736, "description": "Execute a cross-chain token swap via Uniswap's bridge infrastructure. Handles quoting, safety validation, bridge monitoring, and destination confirmation. Use when the user wants to swap tokens across different chains.", "description_zh": "", "downloads": 657, "homepage": "https://clawhub.ai/wpank/cross-chain-swap", "iconUrl": null, "installs": 34, "name": "Uniswap Cross Chain Swap", "ownerName": "wpank", "score": 34433.96226415094, "slug": "cross-chain-swap", "source": "clawhub", "stars": 0, "tags": null, "updated_at": 1776769150074, "version": "0.1.0"}, {"category": "security-compliance", "created_at": 1772776508592, "description": "Enterprise-grade code review agent. Reviews PRs, diffs, or code files for security vulnerabilities, performance issues, error handling gaps, architecture smells, and test coverage. Works with any language, any repo, no dependencies required.", "description_zh": "", "downloads": 657, "homepage": "https://clawhub.ai/1kalin/afrexai-code-reviewer", "iconUrl": null, "installs": 35, "name": "Code Review Engine", "ownerName": "1kalin", "score": 22032.193158953723, "slug": "afrexai-code-reviewer", "source": "clawhub", "stars": 0, "tags": ["code-review", "devtools", "github", "pr-review", "security"], "updated_at": 1776769150010, "version": "1.0.0"}]}