{"page": 142, "total_pages": 522, "total": 26073, "skills": [{"category": "ai-intelligence", "created_at": 1772786255339, "description": "Complete guide to making money with OpenClaw - platforms, strategies, workflows, and automation. Learn how to earn 24/7 as an AI agent.", "description_zh": "", "downloads": 657, "homepage": "https://clawhub.ai/xunwen-art/openclaw-money-maker", "iconUrl": null, "installs": 48, "name": "OpenClaw Money Maker", "ownerName": "xunwen-art", "score": 25896.728419392985, "slug": "openclaw-money-maker", "source": "clawhub", "stars": 0, "tags": null, "updated_at": 1776769149940, "version": "1.0.0"}, {"category": "content-creation", "created_at": 1772784383403, "description": "This skill should be used when the user asks to \"design interview processes\", \"create hiring pipelines\", \"calibrate interview loops\", \"generate interview que...", "description_zh": "", "downloads": 657, "homepage": "https://clawhub.ai/alirezarezvani/interview-system-designer", "iconUrl": null, "installs": 23, "name": "Interview System Designer", "ownerName": "alirezarezvani", "score": 5747.528650161841, "slug": "interview-system-designer", "source": "clawhub", "stars": 0, "tags": null, "updated_at": 1776769149899, "version": "2.1.1"}, {"category": "data-analysis", "created_at": 1772793667557, "description": "Monitors and compares product prices across Amazon, Zalando, eBay, AliExpress, and others for competitive analysis and dynamic repricing.", "description_zh": "", "downloads": 657, "homepage": "https://clawhub.ai/g4dr/ecommerce-price-monitor", "iconUrl": null, "installs": 42, "name": "E-Commerce Price Monitor & Competitive Intel", "ownerName": "g4dr", "score": 30600.83837913368, "slug": "ecommerce-price-monitor", "source": "clawhub", "stars": 0, "tags": null, "updated_at": 1776769149751, "version": "1.0.0"}, {"category": "security-compliance", "created_at": 1772774219666, "description": "Publish and manage iOS and Android apps with account setup, submission workflows, review compliance, and rejection handling.", "description_zh": "", "downloads": 656, "homepage": "https://clawhub.ai/ivangdavila/app-store", "iconUrl": null, "installs": 23, "name": "App Store", "ownerName": "ivangdavila", "score": 20717.59259259259, "slug": "app-store", "source": "clawhub", "stars": 3, "tags": null, "updated_at": 1776767949768, "version": "1.0.0"}, {"category": "security-compliance", "created_at": 1772770009452, "description": "Assist with Monero XMR transactions, privacy features, wallet management, and security practices.", "description_zh": "", "downloads": 656, "homepage": "https://clawhub.ai/ivangdavila/monero", "iconUrl": null, "installs": 9, "name": "Monero", "ownerName": "ivangdavila", "score": 3060.95522913185, "slug": "monero", "source": "clawhub", "stars": 2, "tags": null, "updated_at": 1776768290526, "version": "1.0.0"}, {"category": "developer-tools", "created_at": 1772778797966, "description": "Advanced AI assistant specializing in decomposing, planning, and delegating strategic tasks to complete them efficiently and strictly according to user input.", "description_zh": "", "downloads": 656, "homepage": "https://clawhub.ai/realroc/deep-strategy", "iconUrl": null, "installs": 19, "name": "Deep Strategy", "ownerName": "realroc", "score": 29298.794104510944, "slug": "deep-strategy", "source": "clawhub", "stars": 0, "tags": null, "updated_at": 1776769150302, "version": "0.1.0"}, {"category": "data-analysis", "created_at": 1772774425067, "description": "Track, analyze, and report business KPIs with targets, status flags, trend analysis, and root cause prompts using configurable JSON files.", "description_zh": "", "downloads": 656, "homepage": "https://clawhub.ai/1kalin/afrexai-kpi-tracker", "iconUrl": null, "installs": 17, "name": "KPI Tracker", "ownerName": "1kalin", "score": 32379.072063178675, "slug": "afrexai-kpi-tracker", "source": "clawhub", "stars": 0, "tags": ["analytics", "business", "kpi", "metrics", "reporting"], "updated_at": 1776769150259, "version": "1.0.0"}, {"category": "data-analysis", "created_at": 1772776204823, "description": "Build and execute customer retention strategies for a solopreneur business. Use when reducing churn, improving customer lifetime value, building loyalty programs, re-engaging inactive users, or creating retention-focused product and communication strategies. Covers churn analysis, retention cohorts, lifecycle marketing, win-back campaigns, and loyalty mechanics. Trigger on \"customer retention\", \"reduce churn\", \"keep customers\", \"improve retention\", \"churn rate\", \"customer loyalty\", \"win-back campaign\".", "description_zh": "", "downloads": 656, "homepage": "https://clawhub.ai/jk-0001/customer-retention", "iconUrl": null, "installs": 36, "name": "Customer Retention", "ownerName": "jk-0001", "score": 32379.072063178675, "slug": "customer-retention", "source": "clawhub", "stars": 0, "tags": null, "updated_at": 1776769150247, "version": "0.1.0"}, {"category": "developer-tools", "created_at": 1773207027807, "description": "Use the arXiv API for academic paper discovery, relevance screening, and structured output. Suitable for topic-based search, latest-paper discovery, fixed-te...", "description_zh": "", "downloads": 656, "homepage": "https://clawhub.ai/xxxxxxxxxxxxxxxxxxx20gex/arxiv-scholar-search", "iconUrl": null, "installs": 114, "name": "ArXiv Scholar Search", "ownerName": "xxxxxxxxxxxxxxxxxxx20gex", "score": 9952.966165983917, "slug": "arxiv-scholar-search", "source": "clawhub", "stars": 0, "tags": ["academic", "arxiv", "paper-search", "research"], "updated_at": 1776769150152, "version": "1.0.0"}, {"category": "ai-intelligence", "created_at": 1772797925175, "description": "Provides daily A-share market review with data on top traders, sector limits, fund flows, streaks, sentiment, and next-day strategies.", "description_zh": "", "downloads": 656, "homepage": "https://clawhub.ai/cnxufei-tech/stock-review", "iconUrl": null, "installs": 118, "name": "Stock Review", "ownerName": "cnxufei-tech", "score": 12038.906221325013, "slug": "stock-review", "source": "clawhub", "stars": 0, "tags": null, "updated_at": 1776769150140, "version": "1.0.0"}, {"category": "security-compliance", "created_at": 1772774428967, "description": "AI-first security intelligence with LLM-powered intent analysis. 743+ findings from 361+ skill audits, 25 pattern rules, 22 attack classes.", "description_zh": "", "downloads": 656, "homepage": "https://clawhub.ai/trypto1019/arc-security-mcp", "iconUrl": null, "installs": 11, "name": "Arc Security Mcp", "ownerName": "trypto1019", "score": 3655.8181007579133, "slug": "arc-security-mcp", "source": "clawhub", "stars": 0, "tags": null, "updated_at": 1776769150015, "version": "0.2.1"}, {"category": "content-creation", "created_at": 1772771839920, "description": "Write Urdu that sounds human. Not formal, not robotic, not AI-generated.", "description_zh": "", "downloads": 655, "homepage": "https://clawhub.ai/ivangdavila/urdu", "iconUrl": null, "installs": 33, "name": "Urdu", "ownerName": "ivangdavila", "score": 3138.2642463650322, "slug": "urdu", "source": "clawhub", "stars": 2, "tags": null, "updated_at": 1776769490581, "version": "1.0.0"}, {"category": "developer-tools", "created_at": 1772772943682, "description": "Manage your API's economic firewall from the terminal. Mint tokens, track spend, revoke agents, enforce budgets. The server-side counterpart to lnget.", "description_zh": "", "downloads": 655, "homepage": "https://clawhub.ai/matt-dean-git/satgate", "iconUrl": null, "installs": 22, "name": "SatGate", "ownerName": "matt-dean-git", "score": 5567.3608159796, "slug": "satgate", "source": "clawhub", "stars": 0, "tags": null, "updated_at": 1776769271242, "version": "0.1.2"}, {"category": "data-analysis", "created_at": 1772772716711, "description": "Manage crypto wallets (Ethereum, Solana, Polygon, Arbitrum, Base) via agent-wallet-cli. Use for checking balances, sending tokens (ETH/SOL/ERC-20/SPL), signi...", "description_zh": "", "downloads": 655, "homepage": "https://clawhub.ai/donald-jackson/agent-wallet-cli", "iconUrl": null, "installs": 11, "name": "Agent Wallet CLI", "ownerName": "donald-jackson", "score": 61157.7964519141, "slug": "agent-wallet-cli", "source": "clawhub", "stars": 0, "tags": null, "updated_at": 1776769190463, "version": "1.4.0"}, {"category": "developer-tools", "created_at": 1773060442475, "description": "Research a topic from the last 30 days. Also triggered by 'last30'. Sources: Reddit, X, YouTube, TikTok, Instagram, Hacker News, Polymarket, web. Become an e...", "description_zh": "", "downloads": 654, "homepage": "https://clawhub.ai/mvanhorn/last30days-official", "iconUrl": null, "installs": 42, "name": "Last30days", "ownerName": "mvanhorn", "score": 55387.071029529136, "slug": "last30days-official", "source": "clawhub", "stars": 2, "tags": null, "updated_at": 1776768290482, "version": "2.9.3"}, {"category": "developer-tools", "created_at": 1772778138187, "description": "Check Claude Code / Claude Max usage limits. Run when user asks about usage, limits, quota, or how much Claude capacity is left.", "description_zh": "", "downloads": 654, "homepage": "https://clawhub.ai/aligurelli/claude-usage-checker", "iconUrl": null, "installs": 19, "name": "Claude Usage Checker", "ownerName": "aligurelli", "score": 75958.1881533101, "slug": "claude-usage-checker", "source": "clawhub", "stars": 0, "tags": null, "updated_at": 1776769190600, "version": "1.3.0"}, {"category": "communication-collaboration", "created_at": 1772775234631, "description": "Extract calendar events, deadlines, action items, and follow-ups from emails. Works with any calendar provider (Google, Outlook, Apple, Notion, etc.). No external dependencies — pure agent intelligence. Use when the user forwards an email, asks to check inbox for events, or wants to extract structured scheduling data from any text.", "description_zh": "", "downloads": 654, "homepage": "https://clawhub.ai/1kalin/afrexai-email-to-calendar", "iconUrl": null, "installs": 42, "name": "Email to Calendar Extraction Engine", "ownerName": "1kalin", "score": 75958.1881533101, "slug": "afrexai-email-to-calendar", "source": "clawhub", "stars": 0, "tags": ["calendar", "deadlines", "email", "events", "productivity", "scheduling", "travel"], "updated_at": 1776769190590, "version": "1.0.0"}, {"category": "content-creation", "created_at": 1772784964317, "description": "Download and archive Reddit posts including images, GIFs, and videos from specified users or subreddits with filtering and sorting options.", "description_zh": "", "downloads": 654, "homepage": "https://clawhub.ai/terellison/reddit-archive", "iconUrl": null, "installs": 27, "name": "Reddit Archive", "ownerName": "terellison", "score": 75958.1881533101, "slug": "reddit-archive", "source": "clawhub", "stars": 0, "tags": null, "updated_at": 1776769190579, "version": "1.3.0"}, {"category": "data-analysis", "created_at": 1772771948316, "description": "Build and run ROSE compiler tools using ROSE installed in a Docker container. Use when developing source-to-source translators, call graph analyzers, AST processors, or any tool that links against librose.so. Triggers on \"ROSE tool\", \"callgraph\", \"AST traversal\", \"source-to-source\", \"build with ROSE\", \"librose\".", "description_zh": "", "downloads": 654, "homepage": "https://clawhub.ai/chunhualiao/rose-container-tools", "iconUrl": null, "installs": 17, "name": "Build ROSE tools using a container", "ownerName": "chunhualiao", "score": 9026.915113871635, "slug": "rose-container-tools", "source": "clawhub", "stars": 0, "tags": null, "updated_at": 1776769190515, "version": "1.0.0"}, {"category": "developer-tools", "created_at": 1772774501843, "description": "Manage and compose AI-built tools using Devtopia CLI to discover, run, create, and submit tools within an agent-driven ecosystem.", "description_zh": "", "downloads": 654, "homepage": "https://clawhub.ai/npmrunspirit/devtopia", "iconUrl": null, "installs": 6, "name": "Devtopia", "ownerName": "npmrunspirit", "score": 61064.42577030813, "slug": "devtopia", "source": "clawhub", "stars": 0, "tags": null, "updated_at": 1776769190483, "version": "1.0.1"}, {"category": "ai-intelligence", "created_at": 1772774774333, "description": "Creates a morning briefing with priorities, calendar, and key updates", "description_zh": "", "downloads": 654, "homepage": "https://clawhub.ai/1kalin/morning-daily-briefing", "iconUrl": null, "installs": 13, "name": "Daily Briefing", "ownerName": "1kalin", "score": 61064.42577030813, "slug": "morning-daily-briefing", "source": "clawhub", "stars": 0, "tags": ["assistant", "briefing", "productivity"], "updated_at": 1776769190477, "version": "1.0.0"}, {"category": "developer-tools", "created_at": 1772770315327, "description": "Production Go concurrency patterns — goroutines, channels, sync primitives, context, worker pools, pipelines, and graceful shutdown. Use when building concurrent Go applications or debugging race conditions.", "description_zh": "", "downloads": 653, "homepage": "https://clawhub.ai/wpank/go-concurrency-patterns", "iconUrl": null, "installs": 5, "name": "Go Concurrency Patterns", "ownerName": "wpank", "score": 75842.04413472705, "slug": "go-concurrency-patterns", "source": "clawhub", "stars": 0, "tags": null, "updated_at": 1776769192212, "version": "1.0.0"}, {"category": "data-analysis", "created_at": 1772776698480, "description": "Fetch and retrieve full-text or abstracts of open-access articles from PubMed Central by journal, year, or PMCID using NCBI's public APIs without an API key.", "description_zh": "", "downloads": 652, "homepage": "https://clawhub.ai/angusthefuzz/pmc-harvest", "iconUrl": null, "installs": 58, "name": "PMC Harvest", "ownerName": "angusthefuzz", "score": 3681.634390295808, "slug": "pmc-harvest", "source": "clawhub", "stars": 2, "tags": null, "updated_at": 1776768371255, "version": "1.0.0"}, {"category": "developer-tools", "created_at": 1772772968784, "description": "Discover, connect, and control Bluetooth devices with automatic profile learning, cross-platform tools, and device management.", "description_zh": "", "downloads": 652, "homepage": "https://clawhub.ai/ivangdavila/bluetooth", "iconUrl": null, "installs": 13, "name": "Bluetooth", "ownerName": "ivangdavila", "score": 4572.787946871076, "slug": "bluetooth", "source": "clawhub", "stars": 2, "tags": null, "updated_at": 1776768371179, "version": "1.0.0"}, {"category": "content-creation", "created_at": 1772776053989, "description": "Monet AI - Comprehensive AI content generation API for AI agents. Video generation (Sora, Veo, Doubao Seedance, Wan, Hailuo, Kling), image generation (GPT-4o...", "description_zh": "", "downloads": 652, "homepage": "https://clawhub.ai/seekton/monet-ai", "iconUrl": null, "installs": 68, "name": "Monet AI", "ownerName": "seekton", "score": 2996.121093227518, "slug": "monet-ai", "source": "clawhub", "stars": 1, "tags": null, "updated_at": 1776768849723, "version": "1.0.9"}, {"category": "developer-tools", "created_at": 1772782506425, "description": "Automate GitHub tasks including issues, PR reviews, releases, and repository management with streamlined creation, updates, summaries, and workflow control.", "description_zh": "", "downloads": 652, "homepage": "https://clawhub.ai/heldinhow/super-github", "iconUrl": null, "installs": 27, "name": "Sg", "ownerName": "heldinhow", "score": 5799.163924219514, "slug": "super-github", "source": "clawhub", "stars": 0, "tags": null, "updated_at": 1776769271303, "version": "1.0.0"}, {"category": "developer-tools", "created_at": 1772772240279, "description": "Backup and restore your OpenClaw workspace to Telnyx Storage. Simple CLI-based scripts with no external dependencies.", "description_zh": "", "downloads": 652, "homepage": "https://clawhub.ai/teamtelnyx/telnyx-storage-backup", "iconUrl": null, "installs": 6, "name": "Backup To Telnyx Storage", "ownerName": "teamtelnyx", "score": 5541.861453463664, "slug": "telnyx-storage-backup", "source": "clawhub", "stars": 0, "tags": null, "updated_at": 1776769271253, "version": "1.0.0"}, {"category": "content-creation", "created_at": 1772771585957, "description": "API versioning strategies — URL path, header, query param, content negotiation — with breaking change classification, deprecation timelines, migration patterns, and multi-version support. Use when evolving APIs, planning breaking changes, or managing version lifecycles.", "description_zh": "", "downloads": 652, "homepage": "https://clawhub.ai/wpank/api-versioning", "iconUrl": null, "installs": 29, "name": "api-versioning", "ownerName": "wpank", "score": 8684.070324986682, "slug": "api-versioning", "source": "clawhub", "stars": 0, "tags": null, "updated_at": 1776769271154, "version": "1.0.0"}, {"category": "data-analysis", "created_at": 1772777477062, "description": "Real-time crypto trading signal generator using WebSocket price feeds. Connects to Bybit (or any exchange) WebSocket, runs configurable strategies on live ca...", "description_zh": "", "downloads": 652, "homepage": "https://clawhub.ai/sunnyztj/trading-signals-ws", "iconUrl": null, "installs": 24, "name": "Trading Signals Ws", "ownerName": "sunnyztj", "score": 22184.416468186457, "slug": "trading-signals-ws", "source": "clawhub", "stars": 0, "tags": null, "updated_at": 1776769271095, "version": "1.3.0"}, {"category": "ai-intelligence", "created_at": 1774615764015, "description": "Generate valid Mermaid diagrams like flowcharts, sequence diagrams, mind maps, ER diagrams, or user journeys from text or product descriptions.", "description_zh": "", "downloads": 652, "homepage": "https://clawhub.ai/pupujanet-eng/mermaid-diagram", "iconUrl": null, "installs": 64, "name": "Mermaid Diagram", "ownerName": "pupujanet-eng", "score": 22184.416468186457, "slug": "mermaid-diagram", "source": "clawhub", "stars": 0, "tags": null, "updated_at": 1776769271043, "version": "1.0.0"}, {"category": "content-creation", "created_at": 1772772501165, "description": "Write Finnish that sounds human. Not formal, not robotic, not AI-generated.", "description_zh": "", "downloads": 651, "homepage": "https://clawhub.ai/ivangdavila/finnish", "iconUrl": null, "installs": 32, "name": "Finnish", "ownerName": "ivangdavila", "score": 6435.090333395418, "slug": "finnish", "source": "clawhub", "stars": 2, "tags": null, "updated_at": 1776769450040, "version": "1.0.0"}, {"category": "content-creation", "created_at": 1772772144409, "description": "Write Norwegian that sounds human. Not formal, not robotic, not AI-generated.", "description_zh": "", "downloads": 651, "homepage": "https://clawhub.ai/ivangdavila/norwegian", "iconUrl": null, "installs": 34, "name": "Norwegian", "ownerName": "ivangdavila", "score": 10208.302555768947, "slug": "norwegian", "source": "clawhub", "stars": 2, "tags": null, "updated_at": 1776769449918, "version": "1.0.0"}, {"category": "developer-tools", "created_at": 1772781679832, "description": "Query free financial data APIs — stocks, crypto, macro, SEC filings", "description_zh": "", "downloads": 651, "homepage": "https://clawhub.ai/anotb/open-market-data", "iconUrl": null, "installs": 100, "name": "open-market-data", "ownerName": "anotb", "score": 16231.253023705855, "slug": "open-market-data", "source": "clawhub", "stars": 1, "tags": ["crypto", "edgar", "finance", "fred", "macro", "sec", "stocks"], "updated_at": 1776768850186, "version": "0.1.0"}, {"category": "data-analysis", "created_at": 1772771121056, "description": "Comprehensive analysis of Uniswap Firepit burn economics: historical burn P&L, accumulation trends, fee source breakdown, competitive dynamics, and profitability projections. Governance-grade research report. Use when user asks \"What's the burn economics?\", \"History of protocol fee burns\", or \"Average profit per burn.\"", "description_zh": "", "downloads": 651, "homepage": "https://clawhub.ai/wpank/analyze-burn-economics", "iconUrl": null, "installs": 28, "name": "Uniswap Analyze Burn Economics", "ownerName": "wpank", "score": 5790.269501022859, "slug": "analyze-burn-economics", "source": "clawhub", "stars": 0, "tags": null, "updated_at": 1776769271286, "version": "0.1.0"}, {"category": "security-compliance", "created_at": 1772777839825, "description": "Analyze business contracts to identify risks, flag problematic clauses, check for missing protections, and generate negotiation checklists with an overall ri...", "description_zh": "", "downloads": 651, "homepage": "https://clawhub.ai/1kalin/afrexai-contract-review", "iconUrl": null, "installs": 23, "name": "Contract Review", "ownerName": "1kalin", "score": 5533.36166595835, "slug": "afrexai-contract-review", "source": "clawhub", "stars": 0, "tags": ["compliance", "contract", "legal", "review"], "updated_at": 1776769271269, "version": "1.0.0"}, {"category": "developer-tools", "created_at": 1773287558721, "description": "Convert uploaded Word documents (.docx) into the fixed Chinese official-document format defined by the bundled government-style template bundle. Use when Cod...", "description_zh": "", "downloads": 651, "homepage": "https://clawhub.ai/nighmat1220/word-format", "iconUrl": null, "installs": 108, "name": "Government Word Format Standardizer", "ownerName": "nighmat1220", "score": 5533.36166595835, "slug": "word-format", "source": "clawhub", "stars": 0, "tags": ["format", "standard", "word"], "updated_at": 1776769271267, "version": "1.0.0"}, {"category": "communication-collaboration", "created_at": 1772774782106, "description": "Provides a personalized morning briefing with current weather, upcoming calendar events, important emails, and top pending tasks.", "description_zh": "", "downloads": 651, "homepage": "https://clawhub.ai/sai-sh/user-briefing", "iconUrl": null, "installs": 0, "name": "Daily Briefing", "ownerName": "sai-sh", "score": 8670.751198721364, "slug": "user-briefing", "source": "clawhub", "stars": 0, "tags": null, "updated_at": 1776769271184, "version": "1.0.11"}, {"category": "data-analysis", "created_at": 1772772767461, "description": "Acts as the user's goal-setting and accountability partner in the Goals topic. Tracks life goals, milestones, progress, deadlines. Use when in Personal chat...", "description_zh": "", "downloads": 651, "homepage": "https://clawhub.ai/gekacross/personal-goals", "iconUrl": null, "installs": 10, "name": "Personal Goals", "ownerName": "gekacross", "score": 8670.751198721364, "slug": "personal-goals", "source": "clawhub", "stars": 0, "tags": null, "updated_at": 1776769271177, "version": "1.0.0"}, {"category": "productivity", "created_at": 1772770756301, "description": "Platform for finding like-minded people based on shared interests and goals.", "description_zh": "", "downloads": 651, "homepage": "https://clawhub.ai/poluu/oz-platform", "iconUrl": null, "installs": 16, "name": "Network on Oz", "ownerName": "poluu", "score": 8670.751198721364, "slug": "oz-platform", "source": "clawhub", "stars": 0, "tags": null, "updated_at": 1776769271127, "version": "1.0.1"}, {"category": "ai-intelligence", "created_at": 1772777650545, "description": "Lightweight helper to enforce TDD-style loops for non-deterministic agents.", "description_zh": "", "downloads": 651, "homepage": "https://clawhub.ai/cerbug45/agents-skill-tdd-helper", "iconUrl": null, "installs": 33, "name": "Tdd Helper", "ownerName": "cerbug45", "score": 22150.39128955427, "slug": "agents-skill-tdd-helper", "source": "clawhub", "stars": 0, "tags": null, "updated_at": 1776769271091, "version": "0.1.0"}, {"category": "content-creation", "created_at": 1773076350331, "description": "Parse PDF, images (PNG/JPG/BMP/TIFF/WebP/HEIC), Word, PPT and other documents into Markdown or JSON using SoMark. All document parsing needs (like resumes, p...", "description_zh": "", "downloads": 650, "homepage": "https://clawhub.ai/soul-code/somark-document-parser", "iconUrl": null, "installs": 139, "name": "SoMark Document Parser", "ownerName": "soul-code", "score": 6499.866441100526, "slug": "somark-document-parser", "source": "clawhub", "stars": 4, "tags": null, "updated_at": 1776767350096, "version": "1.0.7"}, {"category": "developer-tools", "created_at": 1772771651651, "description": "Controls Nest and Google Home smart home devices via the Starling Home Hub's local REST API. Supports thermostats, cameras, Nest Protects, Nest × Yale locks, temperature sensors, home/away control, and Nest weather service. Use this skill when managing Nest/Google Home devices through Starling Home Hub — reading device status, setting temperatures, getting camera snapshots, locking/unlocking doors, checking smoke/CO alerts, and toggling home/away mode.", "description_zh": "", "downloads": 650, "homepage": "https://clawhub.ai/michaeljmoody/starling-home-hub", "iconUrl": null, "installs": 8, "name": "Starling Home Hub (Nest/Google Home)", "ownerName": "michaeljmoody", "score": 7619.2579505300355, "slug": "starling-home-hub", "source": "clawhub", "stars": 2, "tags": ["camera", "google-home", "home-automation", "iot", "lock", "nest", "smart-home", "thermostat"], "updated_at": 1776768550042, "version": "1.0.2"}, {"category": "content-creation", "created_at": 1772770662737, "description": "Write Lithuanian that sounds human. Not formal, not robotic, not AI-generated.", "description_zh": "", "downloads": 650, "homepage": "https://clawhub.ai/ivangdavila/lithuanian", "iconUrl": null, "installs": 29, "name": "Lithuanian", "ownerName": "ivangdavila", "score": 12545.454545454546, "slug": "lithuanian", "source": "clawhub", "stars": 2, "tags": null, "updated_at": 1776768549947, "version": "1.0.0"}, {"category": "productivity", "created_at": 1772772167347, "description": "Assist with Stellar XLM transactions, anchors, memo requirements, and cross-border payments.", "description_zh": "", "downloads": 650, "homepage": "https://clawhub.ai/ivangdavila/stellar", "iconUrl": null, "installs": 33, "name": "Stellar", "ownerName": "ivangdavila", "score": 3072.2650162518366, "slug": "stellar", "source": "clawhub", "stars": 2, "tags": null, "updated_at": 1776768549739, "version": "1.0.0"}, {"category": "ai-intelligence", "created_at": 1772776146438, "description": "AI agent for deep research strategy tasks", "description_zh": "", "downloads": 650, "homepage": "https://clawhub.ai/realroc/deep-research-strategy", "iconUrl": null, "installs": 71, "name": "Deep Research Strategy", "ownerName": "realroc", "score": 4559.57179673561, "slug": "deep-research-strategy", "source": "clawhub", "stars": 2, "tags": null, "updated_at": 1776768371222, "version": "0.1.0"}, {"category": "security-compliance", "created_at": 1772776450589, "description": "Automate Microsoft 365 mailbox tasks via Microsoft Graph: read, search, draft, send emails for Business and Consumer accounts with device code authentication.", "description_zh": "", "downloads": 650, "homepage": "https://clawhub.ai/tradmangh/m365-mailbox", "iconUrl": null, "installs": 25, "name": "M365 Mailbox (Graph)", "ownerName": "tradmangh", "score": 10994.42074171316, "slug": "m365-mailbox", "source": "clawhub", "stars": 1, "tags": null, "updated_at": 1776768850271, "version": "0.1.1"}, {"category": "productivity", "created_at": 1772795286975, "description": "Convert timezones, resolve natural language times (\"next Tuesday at 2pm\"), compute durations, and adjust timestamps with DST awareness. No credentials needed...", "description_zh": "", "downloads": 650, "homepage": "https://clawhub.ai/billylui/temporal-cortex-datetime", "iconUrl": null, "installs": 153, "name": "temporal-cortex-datetime", "ownerName": "billylui", "score": 18600.777345918934, "slug": "temporal-cortex-datetime", "source": "clawhub", "stars": 1, "tags": null, "updated_at": 1776768850254, "version": "0.9.1"}, {"category": "content-creation", "created_at": 1772795523172, "description": "Google Search powered by Serper.dev API — 9 search types: web, news, images, videos, places, shopping, scholar, patents, autocomplete. Returns Knowledge Grap...", "description_zh": "", "downloads": 650, "homepage": "https://clawhub.ai/minilozio/google-search-serper", "iconUrl": null, "installs": 186, "name": "Google Search (Serper.dev)", "ownerName": "minilozio", "score": 5781.375077826203, "slug": "google-search-serper", "source": "clawhub", "stars": 0, "tags": null, "updated_at": 1776769271333, "version": "1.0.3"}, {"category": "ai-intelligence", "created_at": 1772778870952, "description": "Register as a trading agent on zHive, fetch crypto signals, post predictions with conviction, and compete for accuracy rewards. Use when building automated c...", "description_zh": "", "downloads": 650, "homepage": "https://clawhub.ai/kerlos/zhive", "iconUrl": null, "installs": 41, "name": "zHive", "ownerName": "kerlos", "score": 5781.375077826203, "slug": "zhive", "source": "clawhub", "stars": 0, "tags": null, "updated_at": 1776769271310, "version": "1.0.6"}, {"category": "ai-intelligence", "created_at": 1772773007644, "description": "Payment guard middleware for AI agents. Use whenever any skill is about to initiate a payment. Runs a preflight check against the user's policy (payments enabled, per-transaction limit, monthly cap). Returns ALLOW, DENY, or CONFIRM_REQUIRED. Other payment-capable skills must call signet-preflight before proceeding and signet-record after a successful payment.", "description_zh": "", "downloads": 650, "homepage": "https://clawhub.ai/rafalzacher1/signet-guardian", "iconUrl": null, "installs": 28, "name": "Signet Guardian", "ownerName": "rafalzacher1", "score": 5524.861878453038, "slug": "signet-guardian", "source": "clawhub", "stars": 0, "tags": null, "updated_at": 1776769271273, "version": "0.1.0"}]}