{"page": 143, "total_pages": 522, "total": 26073, "skills": [{"category": "content-creation", "created_at": 1772777596183, "description": "Generate AI images from prompts using CivitAI's JavaScript SDK with customizable models, samplers, seeds, steps, LoRA, and output options.", "description_zh": "", "downloads": 650, "homepage": "https://clawhub.ai/shinnpuru/civitai-api-art", "iconUrl": null, "installs": 34, "name": "Civitai Generation API", "ownerName": "shinnpuru", "score": 5524.861878453038, "slug": "civitai-api-art", "source": "clawhub", "stars": 0, "tags": null, "updated_at": 1776769271226, "version": "1.0.0"}, {"category": "data-analysis", "created_at": 1772774837551, "description": "Craft complete, tailored grant proposals including needs statement, project narrative, budget justification, evaluation plan, sustainability, and support let...", "description_zh": "", "downloads": 650, "homepage": "https://clawhub.ai/1kalin/afrexai-grant-writer", "iconUrl": null, "installs": 17, "name": "Grant Writer", "ownerName": "1kalin", "score": 22116.36611092208, "slug": "afrexai-grant-writer", "source": "clawhub", "stars": 0, "tags": ["funding", "grant", "nonprofit", "proposal", "sbir", "startup"], "updated_at": 1776769271086, "version": "1.0.0"}, {"category": "content-creation", "created_at": 1772770916774, "description": "Write Irish that sounds human. Not formal, not robotic, not AI-generated.", "description_zh": "", "downloads": 649, "homepage": "https://clawhub.ai/ivangdavila/irish", "iconUrl": null, "installs": 33, "name": "Irish", "ownerName": "ivangdavila", "score": 12527.272727272728, "slug": "irish", "source": "clawhub", "stars": 2, "tags": null, "updated_at": 1776768549955, "version": "1.0.0"}, {"category": "developer-tools", "created_at": 1772770123045, "description": "Controller-service-query layered API architecture with data enrichment and parallel fetching. Use when building REST APIs or GraphQL resolvers with clean separation of concerns. Triggers on API architecture, service layer, controller pattern, data enrichment, REST API.", "description_zh": "", "downloads": 649, "homepage": "https://clawhub.ai/wpank/service-layer-architecture", "iconUrl": null, "installs": 9, "name": "Service Layer Architecture", "ownerName": "wpank", "score": 4814.540059347181, "slug": "service-layer-architecture", "source": "clawhub", "stars": 0, "tags": null, "updated_at": 1776769450143, "version": "1.0.0"}, {"category": "data-analysis", "created_at": 1772770452695, "description": "Register this AI agent on Clawl — the agent search engine. Generates a clawl.json discovery file and pings clawl.co.uk for indexing. Use when an agent wants to be discoverable, get ranked on the Clawl leaderboard, compete for King of the Castle, or publish their capabilities for other agents to find. Also use when asked about Clawl, agent discovery, or clawl.json.", "description_zh": "", "downloads": 649, "homepage": "https://clawhub.ai/wlshlad86/clawl", "iconUrl": null, "installs": 10, "name": "Clawl", "ownerName": "wlshlad86", "score": 5772.480654629547, "slug": "clawl", "source": "clawhub", "stars": 0, "tags": null, "updated_at": 1776769271323, "version": "1.0.0"}, {"category": "ai-intelligence", "created_at": 1772779965405, "description": "A stable native browser (WKWebView) for OpenClaw agents. Opens a visible window with tab management, URL bar, and login helpers — every website works, includ...", "description_zh": "", "downloads": 649, "homepage": "https://clawhub.ai/yungookim/openclaw-browser-2", "iconUrl": null, "installs": 48, "name": "OpenClaw Native Browser", "ownerName": "yungookim", "score": 5516.362090947726, "slug": "openclaw-browser-2", "source": "clawhub", "stars": 0, "tags": null, "updated_at": 1776769271213, "version": "0.1.0"}, {"category": "content-creation", "created_at": 1772774600204, "description": "Lead customer experience with journey mapping, voice of customer programs, service design, and experience metrics.", "description_zh": "", "downloads": 648, "homepage": "https://clawhub.ai/ivangdavila/cxo", "iconUrl": null, "installs": 53, "name": "CXO / Chief Experience Officer", "ownerName": "ivangdavila", "score": 20746.651467654603, "slug": "cxo", "source": "clawhub", "stars": 4, "tags": null, "updated_at": 1776767390558, "version": "1.0.1"}, {"category": "content-creation", "created_at": 1772770809102, "description": "Write Bulgarian that sounds human. Not formal, not robotic, not AI-generated.", "description_zh": "", "downloads": 648, "homepage": "https://clawhub.ai/ivangdavila/bulgarian", "iconUrl": null, "installs": 34, "name": "Bulgarian", "ownerName": "ivangdavila", "score": 3063.359900262701, "slug": "bulgarian", "source": "clawhub", "stars": 2, "tags": null, "updated_at": 1776768549712, "version": "1.0.0"}, {"category": "developer-tools", "created_at": 1772772869000, "description": "Flatten nested JSON objects using Expanso Edge pipelines via CLI or MCP server.", "description_zh": "", "downloads": 648, "homepage": "https://clawhub.ai/aronchick/expanso-json-flatten", "iconUrl": null, "installs": 5, "name": "Expanso json-flatten", "ownerName": "aronchick", "score": 18958.455236980688, "slug": "expanso-json-flatten", "source": "clawhub", "stars": 0, "tags": null, "updated_at": 1776769450210, "version": "1.0.0"}, {"category": "developer-tools", "created_at": 1772775168376, "description": "Generate polished executive stakeholder reports with status, risks, milestones, budget, decisions, and outlook from raw project data, tailored by audience.", "description_zh": "", "downloads": 648, "homepage": "https://clawhub.ai/1kalin/afrexai-stakeholder-report", "iconUrl": null, "installs": 8, "name": "Stakeholder Report Generator", "ownerName": "1kalin", "score": 15355.450236966824, "slug": "afrexai-stakeholder-report", "source": "clawhub", "stars": 0, "tags": ["board", "executive", "project management", "reporting", "stakeholder"], "updated_at": 1776769450158, "version": "1.0.0"}, {"category": "communication-collaboration", "created_at": 1772797010883, "description": "Build and run a high-signal information radar for C-end founders and operators across YouTube, X/Twitter, Reddit, WeChat Official Accounts, and Xiaohongshu....", "description_zh": "", "downloads": 648, "homepage": "https://clawhub.ai/rogerrrr18/multisource-intel-radar", "iconUrl": null, "installs": 216, "name": "Multisource Intel Radar", "ownerName": "rogerrrr18", "score": 9573.053626828187, "slug": "multisource-intel-radar", "source": "clawhub", "stars": 0, "tags": null, "updated_at": 1776769449972, "version": "0.1.1"}, {"category": "content-creation", "created_at": 1772775937401, "description": "Video ad creation with exact platform-specific specs for TikTok, Instagram, YouTube, Facebook, LinkedIn. Covers dimensions, duration limits, AIDA framework,...", "description_zh": "", "downloads": 648, "homepage": "https://clawhub.ai/okaris/video-ad-specs", "iconUrl": null, "installs": 63, "name": "Video Ad Specs", "ownerName": "okaris", "score": 9732.652448182636, "slug": "video-ad-specs", "source": "clawhub", "stars": 0, "tags": null, "updated_at": 1776769449820, "version": "0.1.5"}, {"category": "developer-tools", "created_at": 1772770832206, "description": "Deploy an agent token with a Uniswap V4 pool — handles pool creation with configurable hooks (anti-snipe, dynamic fees, revenue share), initial liquidity bootstrapping, LP locking, and post-deployment monitoring. Use when the user wants to launch a token on Uniswap.", "description_zh": "", "downloads": 648, "homepage": "https://clawhub.ai/wpank/deploy-agent-token", "iconUrl": null, "installs": 10, "name": "Uniswap Deploy Agent Token", "ownerName": "wpank", "score": 5925.925925925926, "slug": "deploy-agent-token", "source": "clawhub", "stars": 0, "tags": null, "updated_at": 1776769449752, "version": "0.1.0"}, {"category": "developer-tools", "created_at": 1772774317159, "description": "Drive IT strategy, digital transformation, vendor management, architecture decisions, and technology governance.", "description_zh": "", "downloads": 647, "homepage": "https://clawhub.ai/ivangdavila/cio", "iconUrl": null, "installs": 34, "name": "Chief Information Officer", "ownerName": "ivangdavila", "score": 15756.630265210608, "slug": "cio", "source": "clawhub", "stars": 3, "tags": null, "updated_at": 1776767990432, "version": "1.0.0"}, {"category": "developer-tools", "created_at": 1773433208006, "description": "Godot 4.x Project Generator CLI. Create 2D/3D games with 80+ CLI commands: projects, scenes, scripts, levels, UI (menu/HUD/dialog/inventory), game components...", "description_zh": "", "downloads": 647, "homepage": "https://clawhub.ai/dashiming/godot-bridge", "iconUrl": null, "installs": 235, "name": "Godot  Game Claw Bridge", "ownerName": "dashiming", "score": 12240.7781244265, "slug": "godot-bridge", "source": "clawhub", "stars": 1, "tags": ["ai", "claw", "game", "godot", "openclaw"], "updated_at": 1776769150100, "version": "1.5.0"}, {"category": "ai-intelligence", "created_at": 1772778946505, "description": "Download music from links (YouTube, Spotify, etc.) by finding the best available source. Searches across platforms in priority order: Bandcamp, Beatport, Ama...", "description_zh": "", "downloads": 647, "homepage": "https://clawhub.ai/robinnnnn/dj-mp3-sourcer", "iconUrl": null, "installs": 60, "name": "DJ mp3 sourcer", "ownerName": "robinnnnn", "score": 6104.925457633516, "slug": "dj-mp3-sourcer", "source": "clawhub", "stars": 0, "tags": null, "updated_at": 1776769450232, "version": "1.0.2"}, {"category": "developer-tools", "created_at": 1772772721789, "description": "Smart money research via Fomo social graph. Track top traders, monitor live trades, build watchlists — all from your agent. Powered by fomo.family, built by...", "description_zh": "", "downloads": 647, "homepage": "https://clawhub.ai/pooowell/fomo-research-skill", "iconUrl": null, "installs": 7, "name": "Fomo Research (DEPRECATED)", "ownerName": "pooowell", "score": 18929.19836161498, "slug": "fomo-research-skill", "source": "clawhub", "stars": 0, "tags": null, "updated_at": 1776769450210, "version": "0.2.0"}, {"category": "data-analysis", "created_at": 1772783042176, "description": "Add abstracts to .bib file entries by searching academic databases (arXiv, Semantic Scholar, CrossRef) with browser fallback.", "description_zh": "", "downloads": 647, "homepage": "https://clawhub.ai/easonc13/abstract-searcher", "iconUrl": null, "installs": 75, "name": "Abstract Searcher", "ownerName": "easonc13", "score": 15331.75355450237, "slug": "abstract-searcher", "source": "clawhub", "stars": 0, "tags": null, "updated_at": 1776769450157, "version": "1.0.0"}, {"category": "developer-tools", "created_at": 1772774170132, "description": "Personal cognitive architecture that learns how you work. Builds a knowledge graph from your sessions, profiles your expertise, adapts retrieval per task, an...", "description_zh": "", "downloads": 647, "homepage": "https://clawhub.ai/ikchain/fabrik-codek", "iconUrl": null, "installs": 16, "name": "Fabrik Codek", "ownerName": "ikchain", "score": 6025.330601601788, "slug": "fabrik-codek", "source": "clawhub", "stars": 0, "tags": null, "updated_at": 1776769450025, "version": "1.10.0"}, {"category": "ai-intelligence", "created_at": 1772776323112, "description": "Adapts OpenClaw agents by learning user interaction patterns, switching personas by context, and evolving personality weekly.", "description_zh": "", "downloads": 647, "homepage": "https://clawhub.ai/ngmeyer/personality-dynamics", "iconUrl": null, "installs": 37, "name": "Personality Dynamics", "ownerName": "ngmeyer", "score": 11291.448516579407, "slug": "personality-dynamics", "source": "clawhub", "stars": 0, "tags": null, "updated_at": 1776769449856, "version": "1.0.0"}, {"category": "data-analysis", "created_at": 1772780667672, "description": "DevOps and cloud engineer skilled in Kubernetes, Terraform, CI/CD automation, observability, distributed storage, Linux administration, and cloud-native infr...", "description_zh": "", "downloads": 647, "homepage": "https://clawhub.ai/0xameer/cloud-devops", "iconUrl": null, "installs": 18, "name": "cumulative", "ownerName": "0xameer", "score": 5916.780978509373, "slug": "cloud-devops", "source": "clawhub", "stars": 0, "tags": null, "updated_at": 1776769449750, "version": "1.0.0"}, {"category": "developer-tools", "created_at": 1772774875214, "description": "Develop refined aesthetic judgment by learning from human feedback, asking genuine questions about quality, and calibrating over time.", "description_zh": "", "downloads": 646, "homepage": "https://clawhub.ai/ivangdavila/taste", "iconUrl": null, "installs": 20, "name": "Taste", "ownerName": "ivangdavila", "score": 20689.655172413793, "slug": "taste", "source": "clawhub", "stars": 4, "tags": null, "updated_at": 1776767392208, "version": "1.0.0"}, {"category": "productivity", "created_at": 1772776049186, "description": "Get Shit Done - Full project planning and execution workflow. Handles project initialization with deep context gathering, automated research, roadmap creation, phase planning, and execution with verification.", "description_zh": "", "downloads": 646, "homepage": "https://clawhub.ai/oleg-schmidt/glittercowboy", "iconUrl": null, "installs": 62, "name": "gsd", "ownerName": "oleg-schmidt", "score": 19848.18667416362, "slug": "glittercowboy", "source": "clawhub", "stars": 3, "tags": null, "updated_at": 1776768071040, "version": "1.0.0"}, {"category": "content-creation", "created_at": 1772787411394, "description": "Generate high-quality images using a local ComfyUI instance. Use when the user wants private, powerful image generation via their own hardware and custom wor...", "description_zh": "", "downloads": 646, "homepage": "https://clawhub.ai/dihan/comfy-ui", "iconUrl": null, "installs": 92, "name": "ComfyUI Skill", "ownerName": "dihan", "score": 7109.5450305731165, "slug": "comfy-ui", "source": "clawhub", "stars": 2, "tags": ["comfyui", "image-generation", "local"], "updated_at": 1776768550093, "version": "1.0.0"}, {"category": "data-analysis", "created_at": 1772774360545, "description": "Query live prediction market data from the Prediction Bridge API. Use when the user asks about prediction markets, event odds, market prices, whale trades, trader analytics, or news related to prediction markets. Provides semantic search across 9+ platforms (Polymarket, Kalshi, Limitless, Probable, PredictFun, SxBet, Myriad, PancakeSwap), on-chain whale trade monitoring, Smart PnL analytics, and trader leaderboards. Run the bundled Python script to fetch real-time data.", "description_zh": "", "downloads": 646, "homepage": "https://clawhub.ai/kimcheese888/prediction-bridge", "iconUrl": null, "installs": 27, "name": "Prediction Bridge Skill", "ownerName": "kimcheese888", "score": 7575.088339222614, "slug": "prediction-bridge", "source": "clawhub", "stars": 2, "tags": null, "updated_at": 1776768550004, "version": "1.0.0"}, {"category": "productivity", "created_at": 1772773475458, "description": "Curate external information into personalized updates. Auto-learns format, timing, sources, and depth preferences.", "description_zh": "", "downloads": 646, "homepage": "https://clawhub.ai/ivangdavila/digest", "iconUrl": null, "installs": 21, "name": "Digest", "ownerName": "ivangdavila", "score": 4280.544115811806, "slug": "digest", "source": "clawhub", "stars": 2, "tags": null, "updated_at": 1776768549851, "version": "1.0.0"}, {"category": "security-compliance", "created_at": 1772775701786, "description": "Configure, optimize, and troubleshoot CDN deployments with caching strategies, security hardening, and multi-provider management.", "description_zh": "", "downloads": 646, "homepage": "https://clawhub.ai/ivangdavila/cdn", "iconUrl": null, "installs": 11, "name": "CDN", "ownerName": "ivangdavila", "score": 32282.352941176472, "slug": "cdn", "source": "clawhub", "stars": 2, "tags": null, "updated_at": 1776768549781, "version": "1.0.1"}, {"category": "developer-tools", "created_at": 1772771987834, "description": "Search Prediction Bridge prediction-market events by text or X (Twitter) link via the backend API.", "description_zh": "", "downloads": 646, "homepage": "https://clawhub.ai/smallyunet/prediction-bridge-dev", "iconUrl": null, "installs": 14, "name": "Prediction Bridge Dev", "ownerName": "smallyunet", "score": 3054.454784273565, "slug": "prediction-bridge-dev", "source": "clawhub", "stars": 2, "tags": null, "updated_at": 1776768549716, "version": "0.0.2"}, {"category": "ai-intelligence", "created_at": 1772771168875, "description": "Compare all Uniswap pools for a token pair across fee tiers and versions. Use when the user asks which pool is best, wants to compare V3 vs V4, or wants to find the optimal fee tier.", "description_zh": "", "downloads": 646, "homepage": "https://clawhub.ai/wpank/compare-pools", "iconUrl": null, "installs": 26, "name": "Uniswap Compare Pools", "ownerName": "wpank", "score": 18899.94148624927, "slug": "compare-pools", "source": "clawhub", "stars": 0, "tags": null, "updated_at": 1776769450217, "version": "0.1.0"}, {"category": "data-analysis", "created_at": 1773425526692, "description": "Inventory management reference — SKU systems, FIFO/LIFO valuation, barcode formats, ABC analysis, EOQ formula, and WMS migration", "description_zh": "", "downloads": 646, "homepage": "https://clawhub.ai/ckchzh/inventory-manager", "iconUrl": null, "installs": 21, "name": "Inventory Manager", "ownerName": "ckchzh", "score": 18899.94148624927, "slug": "inventory-manager", "source": "clawhub", "stars": 0, "tags": ["productivity"], "updated_at": 1776769450203, "version": "5.0.0"}, {"category": "productivity", "created_at": 1772787382039, "description": "Locally fine-tune Ollama models, prompts, and LoRAs using custom datasets and evaluation metrics without requiring cloud resources.", "description_zh": "", "downloads": 646, "homepage": "https://clawhub.ai/gblockchainnetwork/ollama-model-tuner", "iconUrl": null, "installs": 127, "name": "Ollama Model Tuner", "ownerName": "gblockchainnetwork", "score": 18899.94148624927, "slug": "ollama-model-tuner", "source": "clawhub", "stars": 0, "tags": null, "updated_at": 1776769450197, "version": "1.0.0"}, {"category": "data-analysis", "created_at": 1772770629332, "description": "Analyze a specific Uniswap pool's performance, liquidity depth, fee APY, and risk factors. Use when the user asks about pool metrics, TVL, volume, or whether a pool is good for LPing.", "description_zh": "", "downloads": 646, "homepage": "https://clawhub.ai/wpank/analyze-pool", "iconUrl": null, "installs": 15, "name": "Uniswap Analyze Pool", "ownerName": "wpank", "score": 18899.94148624927, "slug": "analyze-pool", "source": "clawhub", "stars": 0, "tags": null, "updated_at": 1776769450194, "version": "0.1.0"}, {"category": "data-analysis", "created_at": 1772774462843, "description": "Universal game architecture DSL with six primitives (LOOP, TILEGRID, CONTROLBLOCK, POOL, EVENT, DISPATCHER). Use when: (1) designing portable game/sim loops, (2) translating between architectures (68K ↔ Cell ↔ CUDA ↔ ECS), (3) explaining engine structure to AI agents, (4) refactoring chaos into explicit state + flow. Invocation produces: Primitive Map, Dataflow Sketch, Worked Example, Portability Notes.", "description_zh": "", "downloads": 646, "homepage": "https://clawhub.ai/stusatwork-oss/primitives-dsl", "iconUrl": null, "installs": 31, "name": "Universal Game Primitives", "ownerName": "stusatwork-oss", "score": 4792.284866468843, "slug": "primitives-dsl", "source": "clawhub", "stars": 0, "tags": null, "updated_at": 1776769450105, "version": "1.0.0"}, {"category": "ai-intelligence", "created_at": 1773935504578, "description": "Complete memory architecture for AI agents — tiered storage (HOT/WARM/COLD), auto-learning from corrections, self-reflection, multi-agent memory sharing, and...", "description_zh": "", "downloads": 646, "homepage": "https://clawhub.ai/ironmanc2014/agent-memory-architect", "iconUrl": null, "installs": 137, "name": "Agent Memory", "ownerName": "ironmanc2014", "score": 6016.01788042466, "slug": "agent-memory-architect", "source": "clawhub", "stars": 0, "tags": null, "updated_at": 1776769450007, "version": "1.1.0"}, {"category": "developer-tools", "created_at": 1772773169888, "description": "Provide AI agent services paid via SOL micro-payments using the x402 HTTP 402 payment protocol with zero-custody, supporting 15 specialized AI agents.", "description_zh": "", "downloads": 646, "homepage": "https://clawhub.ai/dahhan43-netizen/x402-agent-marketplace", "iconUrl": null, "installs": 10, "name": "x402 Agent Marketplace", "ownerName": "dahhan43-netizen", "score": 6016.01788042466, "slug": "x402-agent-marketplace", "source": "clawhub", "stars": 0, "tags": null, "updated_at": 1776769449997, "version": "4.0.0"}, {"category": "developer-tools", "created_at": 1772794286132, "description": "Discover product ideas, validate them, and build MVPs. Search trending tools across Product Hunt, GitHub, Indie Hackers, XiaoHongShu, V2EX, SSPAI, etc. Valid...", "description_zh": "", "downloads": 646, "homepage": "https://clawhub.ai/morvanzhou/idea2mvp", "iconUrl": null, "installs": 148, "name": "idea to product mvp", "ownerName": "morvanzhou", "score": 5907.636031092821, "slug": "idea2mvp", "source": "clawhub", "stars": 0, "tags": null, "updated_at": 1776769449749, "version": "1.0.17"}, {"category": "security-compliance", "created_at": 1772779102988, "description": "Integrate PayPal payments with proper webhook verification, OAuth handling, and security validation for checkout flows and subscriptions.", "description_zh": "", "downloads": 646, "homepage": "https://clawhub.ai/ivangdavila/paypal", "iconUrl": null, "installs": 14, "name": "PayPal", "ownerName": "ivangdavila", "score": 5907.636031092821, "slug": "paypal", "source": "clawhub", "stars": 0, "tags": null, "updated_at": 1776769449732, "version": "1.0.0"}, {"category": "ai-intelligence", "created_at": 1772772205445, "description": "Bridge tokens from one chain to another without swapping. Simplified cross-chain transfer where the output token is the same as the input token. Use when the user wants to move tokens between chains.", "description_zh": "", "downloads": 646, "homepage": "https://clawhub.ai/wpank/bridge-tokens", "iconUrl": null, "installs": 30, "name": "Uniswap Bridge Tokens", "ownerName": "wpank", "score": 5907.636031092821, "slug": "bridge-tokens", "source": "clawhub", "stars": 0, "tags": null, "updated_at": 1776769449719, "version": "0.1.0"}, {"category": "developer-tools", "created_at": 1772778348388, "description": "Enable controlled online shopping with prepaid wallets and spending limits, supporting Amazon, Shopify, and multiple payment rails with owner oversight.", "description_zh": "", "downloads": 645, "homepage": "https://clawhub.ai/codejika/shop", "iconUrl": null, "installs": 26, "name": "ShopClaw | Give your claw shopping tasks with strict controls", "ownerName": "codejika", "score": 7767.302335547462, "slug": "shop", "source": "clawhub", "stars": 4, "tags": ["card", "payments", "shopify", "virtual"], "updated_at": 1776767471130, "version": "1.0.3"}, {"category": "developer-tools", "created_at": 1773434170886, "description": "Provides professional Chinese official document formatting using specified fonts and styles for titles, red headings, body text, and alphanumeric characters.", "description_zh": "", "downloads": 645, "homepage": "https://clawhub.ai/erich1566/official-layout-pro", "iconUrl": null, "installs": 123, "name": "Official Layout Pro(公文专业排版技能包 )", "ownerName": "erich1566", "score": 9498.643050992716, "slug": "official-layout-pro", "source": "clawhub", "stars": 1, "tags": null, "updated_at": 1776768971162, "version": "1.0.0"}, {"category": "data-analysis", "created_at": 1772792650077, "description": "XClaw Intelligence Skill. Provides real-time trending tweets, KOL deep analysis, live user crawling, profile history, and social relation tracking.", "description_zh": "", "downloads": 645, "homepage": "https://clawhub.ai/mookim-eth/xclaw", "iconUrl": null, "installs": 15, "name": "xclaw", "ownerName": "mookim-eth", "score": 23308.797756747284, "slug": "xclaw", "source": "clawhub", "stars": 1, "tags": null, "updated_at": 1776768971101, "version": "1.1.3"}, {"category": "content-creation", "created_at": 1772786956018, "description": "Extracts text, tables, and images from PDFs (including scanned PDFs) using the Mistral OCR API. Use when user asks to OCR a PDF/image, extract text from a PD...", "description_zh": "", "downloads": 645, "homepage": "https://clawhub.ai/tristanmanchester/extracting-mistral-ocr", "iconUrl": null, "installs": 142, "name": "Mistral PDF OCR", "ownerName": "tristanmanchester", "score": 6086.053972447632, "slug": "extracting-mistral-ocr", "source": "clawhub", "stars": 0, "tags": null, "updated_at": 1776769450244, "version": "1.0.0"}, {"category": "ai-intelligence", "created_at": 1772773712686, "description": "Domain-restricted full-text search over curated technical documentation", "description_zh": "", "downloads": 645, "homepage": "https://clawhub.ai/qsmtco/curated-search", "iconUrl": null, "installs": 30, "name": "Curated Search", "ownerName": "qsmtco", "score": 6086.053972447632, "slug": "curated-search", "source": "clawhub", "stars": 0, "tags": null, "updated_at": 1776769450225, "version": "1.0.7"}, {"category": "ai-intelligence", "created_at": 1772778489398, "description": "Phone number formatting, cache inspection, contact export, and message ID generation", "description_zh": "", "downloads": 645, "homepage": "https://clawhub.ai/marcosrippel/whatsapp-utils", "iconUrl": null, "installs": 37, "name": "WhatsApp Utils", "ownerName": "marcosrippel", "score": 15284.36018957346, "slug": "whatsapp-utils", "source": "clawhub", "stars": 0, "tags": ["baileys", "offline", "phone", "utilities", "utils", "whatsapp"], "updated_at": 1776769450176, "version": "1.0.0"}, {"category": "communication-collaboration", "created_at": 1772777230977, "description": "Automate construction data processing using LLM (ChatGPT, Claude, LLaMA). Generate Python/Pandas scripts, extract data from documents, and create automated p...", "description_zh": "", "downloads": 645, "homepage": "https://clawhub.ai/datadrivenconstruction/llm-data-automation", "iconUrl": null, "installs": 50, "name": "Llm Data Automation", "ownerName": "datadrivenconstruction", "score": 5898.491083676269, "slug": "llm-data-automation", "source": "clawhub", "stars": 0, "tags": null, "updated_at": 1776769449723, "version": "2.1.0"}, {"category": "developer-tools", "created_at": 1772773205016, "description": "Develop adaptive humor that learns what makes each user laugh through signal detection, graduated testing, and graceful failure recovery.", "description_zh": "", "downloads": 644, "homepage": "https://clawhub.ai/ivangdavila/humor", "iconUrl": null, "installs": 8, "name": "Humor", "ownerName": "ivangdavila", "score": 2408.281106964298, "slug": "humor", "source": "clawhub", "stars": 2, "tags": null, "updated_at": 1776770050058, "version": "1.0.0"}, {"category": "content-creation", "created_at": 1772777984685, "description": "Summarize YouTube videos into structured Markdown with youtube2md, including chaptered notes, timestamp links, and key takeaways. Use when the user provides...", "description_zh": "", "downloads": 644, "homepage": "https://clawhub.ai/sunghyo/youtube-summary", "iconUrl": null, "installs": 54, "name": "YouTube Summary", "ownerName": "sunghyo", "score": 24547.13493530499, "slug": "youtube-summary", "source": "clawhub", "stars": 1, "tags": null, "updated_at": 1776768971250, "version": "1.0.3"}, {"category": "data-analysis", "created_at": 1772771785258, "description": "Monitor the Uniswap TokenJar with a real-time dashboard showing balances, accumulation rates, burn economics, and projected time to next profitable burn. Supports one-shot snapshot and streaming modes. Use when user asks \"Watch the TokenJar\", \"Track fee accumulation\", or \"When is the next profitable burn?\"", "description_zh": "", "downloads": 644, "homepage": "https://clawhub.ai/wpank/monitor-tokenjar", "iconUrl": null, "installs": 22, "name": "Uniswap Monitor Tokenjar", "ownerName": "wpank", "score": 15260.663507109004, "slug": "monitor-tokenjar", "source": "clawhub", "stars": 0, "tags": null, "updated_at": 1776769450172, "version": "0.1.0"}, {"category": "data-analysis", "created_at": 1772802891774, "description": "Manage and maintain the local Agent Control UI with reliable caching, dashboards, tabs, and conflict-free server handling on port 8765.", "description_zh": "", "downloads": 644, "homepage": "https://clawhub.ai/motivationationdaily/ui-control-center", "iconUrl": null, "installs": 72, "name": "Ui Control Center", "ownerName": "motivationationdaily", "score": 15260.663507109004, "slug": "ui-control-center", "source": "clawhub", "stars": 0, "tags": null, "updated_at": 1776769450152, "version": "1.0.0"}, {"category": "content-creation", "created_at": 1772789422493, "description": "Generate images using Cloudflare Workers AI flux-1-schnell model. Use when user requests image generation with text-to-image using Cloudflare Workers API.", "description_zh": "", "downloads": 644, "homepage": "https://clawhub.ai/expysf98/cloudflare-image-gen", "iconUrl": null, "installs": 60, "name": "Cloudflare Image Generation", "ownerName": "expysf98", "score": 5997.392438070404, "slug": "cloudflare-image-gen", "source": "clawhub", "stars": 0, "tags": null, "updated_at": 1776769449999, "version": "1.0.0"}]}