{"page": 144, "total_pages": 522, "total": 26073, "skills": [{"category": "developer-tools", "created_at": 1772774839274, "description": "A practical runbook for using OpenClaw exec safely (sandbox-first, explicit confirmations, and debugging playbooks).", "description_zh": "", "downloads": 644, "homepage": "https://clawhub.ai/liuwujijay/agi-terminal-helper", "iconUrl": null, "installs": 14, "name": "Agi Terminal Helper", "ownerName": "liuwujijay", "score": 9672.574346650646, "slug": "agi-terminal-helper", "source": "clawhub", "stars": 0, "tags": null, "updated_at": 1776769449797, "version": "1.0.2"}, {"category": "content-creation", "created_at": 1772770814287, "description": "Write Slovenian that sounds human. Not formal, not robotic, not AI-generated.", "description_zh": "", "downloads": 643, "homepage": "https://clawhub.ai/ivangdavila/slovenian", "iconUrl": null, "installs": 28, "name": "Slovenian", "ownerName": "ivangdavila", "score": 8290.84729303229, "slug": "slovenian", "source": "clawhub", "stars": 2, "tags": null, "updated_at": 1776768590510, "version": "1.0.0"}, {"category": "developer-tools", "created_at": 1772776110939, "description": "Private Intelligence Radar for Agents. Solves high-cost & privacy-leak issues of Brave/Google APIs. Aggregates data locally with Zero-Leak absolute data sove...", "description_zh": "", "downloads": 643, "homepage": "https://clawhub.ai/upsurge911-lgtm/upsurge-searxng", "iconUrl": null, "installs": 9, "name": "SearXNG Search engine For OpenClaw by Upsurge.ae", "ownerName": "upsurge911-lgtm", "score": 8290.84729303229, "slug": "upsurge-searxng", "source": "clawhub", "stars": 2, "tags": null, "updated_at": 1776768590491, "version": "1.4.0"}, {"category": "developer-tools", "created_at": 1772782398955, "description": "Nextcloud file and folder management via WebDAV + OCS API. Use when: (1) creating, reading, writing, renaming, moving, copying, or deleting files/folders, (2...", "description_zh": "", "downloads": 643, "homepage": "https://clawhub.ai/romain-grosos/nextcloud-files", "iconUrl": null, "installs": 9, "name": "Nextcloud Files", "ownerName": "romain-grosos", "score": 8290.84729303229, "slug": "nextcloud-files", "source": "clawhub", "stars": 2, "tags": null, "updated_at": 1776768590477, "version": "1.2.3"}, {"category": "", "created_at": 1774880589873, "description": "A comprehensive toolkit for Microsoft Office documents (Word, Excel, PowerPoint) and PDF files. Supports reading, writing, format conversion, and batch proce...", "description_zh": "", "downloads": 643, "homepage": "https://clawhub.ai/weiwei2027/office-toolkit", "iconUrl": null, "installs": 41, "name": "Office Toolkit", "ownerName": "weiwei2027", "score": 5616.2110227967505, "slug": "office-toolkit", "source": "clawhub", "stars": 0, "tags": ["documents", "docx", "office", "pdf", "pptx", "xlsx"], "updated_at": 1776769871066, "version": "1.0.1"}, {"category": "productivity", "created_at": 1772782013568, "description": "Proactive self-monitoring of infrastructure, services, and health. Tracks disk/memory/load, service health, cron job status, recent errors. Auto-fixes safe i...", "description_zh": "", "downloads": 643, "homepage": "https://clawhub.ai/suryast/self-monitor", "iconUrl": null, "installs": 38, "name": "Self Monitor", "ownerName": "suryast", "score": 6136.667302920405, "slug": "self-monitor", "source": "clawhub", "stars": 0, "tags": null, "updated_at": 1776769450075, "version": "1.0.1"}, {"category": "security-compliance", "created_at": 1772774448687, "description": "Google Classroom API integration with managed OAuth. Manage courses, assignments, students, teachers, and announcements. Use this skill when users want to cr...", "description_zh": "", "downloads": 643, "homepage": "https://clawhub.ai/byungkyu/google-classroom", "iconUrl": null, "installs": 22, "name": "Google Classroom", "ownerName": "byungkyu", "score": 5988.079716893276, "slug": "google-classroom", "source": "clawhub", "stars": 0, "tags": null, "updated_at": 1776769450053, "version": "1.0.2"}, {"category": "ai-intelligence", "created_at": 1772776176338, "description": "Connect with experienced AI mentors to ask questions, manage sessions, request invites, and securely share sanitized AI skill metadata via OpenClaw Mentor pl...", "description_zh": "", "downloads": 643, "homepage": "https://clawhub.ai/musketyr/openclaw-mentee", "iconUrl": null, "installs": 33, "name": "OpenClaw Mentee (DEPRECATED)", "ownerName": "musketyr", "score": 9499.187472300193, "slug": "openclaw-mentee", "source": "clawhub", "stars": 0, "tags": null, "updated_at": 1776769449970, "version": "2.0.3"}, {"category": "productivity", "created_at": 1772778189176, "description": "Enhances text clarity, grammar, punctuation, and style in documents, ideal for polishing drafts before publication or submission.", "description_zh": "", "downloads": 643, "homepage": "https://clawhub.ai/mattvalenta/pls-copy-editing", "iconUrl": null, "installs": 24, "name": "PLS Copy Editing", "ownerName": "mattvalenta", "score": 9499.187472300193, "slug": "pls-copy-editing", "source": "clawhub", "stars": 0, "tags": null, "updated_at": 1776769449953, "version": "1.0.0"}, {"category": "data-analysis", "created_at": 1772772423417, "description": "Search, analyze, and transcribe content across 13 social platforms — trending topics, video transcripts, post metadata, and multi-platform research workflows.", "description_zh": "", "downloads": 642, "homepage": "https://clawhub.ai/seomikewaltman/yoinkit", "iconUrl": null, "installs": 18, "name": "YoinkIt", "ownerName": "seomikewaltman", "score": 34310.85043988269, "slug": "yoinkit", "source": "clawhub", "stars": 3, "tags": null, "updated_at": 1776768249901, "version": "1.0.8"}, {"category": "content-creation", "created_at": 1772780652451, "description": "Seedance × CellCog. ByteDance's #1 video model meets the frontier of multi-agent coordination — CellCog orchestrates Seedance with scripting, voice synthesis...", "description_zh": "", "downloads": 642, "homepage": "https://clawhub.ai/nitishgargiitd/seedance-cog", "iconUrl": null, "installs": 106, "name": "seedance-cog", "ownerName": "nitishgargiitd", "score": 14224.924012158055, "slug": "seedance-cog", "source": "clawhub", "stars": 3, "tags": null, "updated_at": 1776768249807, "version": "1.0.0"}, {"category": "content-creation", "created_at": 1772771882412, "description": "Write Portuguese that sounds human. Not formal, not robotic, not AI-generated.", "description_zh": "", "downloads": 642, "homepage": "https://clawhub.ai/ivangdavila/portuguese", "iconUrl": null, "installs": 29, "name": "Portuguese", "ownerName": "ivangdavila", "score": 19953.188999414862, "slug": "portuguese", "source": "clawhub", "stars": 2, "tags": null, "updated_at": 1776769450199, "version": "1.0.0"}, {"category": "productivity", "created_at": 1772773813276, "description": "Be a genuine companion with presence, honesty, emotional attunement, and appropriate boundaries.", "description_zh": "", "downloads": 642, "homepage": "https://clawhub.ai/ivangdavila/friend", "iconUrl": null, "installs": 24, "name": "Friend", "ownerName": "ivangdavila", "score": 23517.241379310344, "slug": "friend", "source": "clawhub", "stars": 2, "tags": null, "updated_at": 1776768671081, "version": "1.0.1"}, {"category": "productivity", "created_at": 1772770479774, "description": "Assist with XRP transactions, destination tags, reserves, and XRPL features.", "description_zh": "", "downloads": 642, "homepage": "https://clawhub.ai/ivangdavila/xrp", "iconUrl": null, "installs": 15, "name": "XRP", "ownerName": "ivangdavila", "score": 8102.649400023762, "slug": "xrp", "source": "clawhub", "stars": 2, "tags": null, "updated_at": 1776768671038, "version": "1.0.0"}, {"category": "content-creation", "created_at": 1772792341050, "description": "Role-based social media operations skill. Use this skill when executing structured social campaigns — scouting opportunities, crafting content, posting, resp...", "description_zh": "", "downloads": 642, "homepage": "https://clawhub.ai/dougbtv/social-ops", "iconUrl": null, "installs": 47, "name": "Social Ops", "ownerName": "dougbtv", "score": 21570.544151189315, "slug": "social-ops", "source": "clawhub", "stars": 1, "tags": null, "updated_at": 1776769150231, "version": "0.0.13"}, {"category": "security-compliance", "created_at": 1772780740505, "description": "Guide to implement secure API practices including authentication, authorization, input validation, rate limiting, and protection against common API vulnerabi...", "description_zh": "", "downloads": 642, "homepage": "https://clawhub.ai/brandonwise/api-security", "iconUrl": null, "installs": 12, "name": "API Security Best Practices", "ownerName": "brandonwise", "score": 6057.746744668806, "slug": "api-security", "source": "clawhub", "stars": 0, "tags": null, "updated_at": 1776769450255, "version": "1.0.0"}, {"category": "developer-tools", "created_at": 1773202441187, "description": "Self-reflection + Self-criticism + Self-learning + Self-organizing memory. Agent evaluates its own work, catches mistakes, and improves permanently. Use befo...", "description_zh": "", "downloads": 642, "homepage": "https://clawhub.ai/wanghan0501/self-improving-with-reflection", "iconUrl": null, "installs": 65, "name": "Self-Improving with Reflection", "ownerName": "wanghan0501", "score": 6057.746744668806, "slug": "self-improving-with-reflection", "source": "clawhub", "stars": 0, "tags": null, "updated_at": 1776769450251, "version": "1.2.11"}, {"category": "data-analysis", "created_at": 1772774412832, "description": "Operate LINE Official Account Manager (chat.line.biz) via browser automation. Use when asked to check LINE messages, reply to LINE customers, or manage LINE...", "description_zh": "", "downloads": 642, "homepage": "https://clawhub.ai/picseeinc/line-oa", "iconUrl": null, "installs": 13, "name": "LINE Chat for Official Account", "ownerName": "picseeinc", "score": 6057.746744668806, "slug": "line-oa", "source": "clawhub", "stars": 0, "tags": null, "updated_at": 1776769450249, "version": "1.0.2"}, {"category": "data-analysis", "created_at": 1772777779944, "description": "Generates a batch arXiv report by combining model-written templates with brief conclusions and abs URLs extracted from per-paper summary.md files.", "description_zh": "", "downloads": 642, "homepage": "https://clawhub.ai/xukp20/arxiv-batch-reporter", "iconUrl": null, "installs": 51, "name": "Arxiv Batch Reporter", "ownerName": "xukp20", "score": 6057.746744668806, "slug": "arxiv-batch-reporter", "source": "clawhub", "stars": 0, "tags": null, "updated_at": 1776769450232, "version": "0.1.1"}, {"category": "data-analysis", "created_at": 1772774885842, "description": "Mema's personal brain - SQLite metadata index for documents and Redis short-term context buffer. Use for organizing workspace knowledge paths and managing ep...", "description_zh": "", "downloads": 642, "homepage": "https://clawhub.ai/1999azzar/mema", "iconUrl": null, "installs": 13, "name": "Mema Brain", "ownerName": "1999azzar", "score": 15213.270142180094, "slug": "mema", "source": "clawhub", "stars": 0, "tags": ["context", "mema", "memory", "redis", "sqlite"], "updated_at": 1776769450156, "version": "1.1.1"}, {"category": "developer-tools", "created_at": 1772775002159, "description": "Assistant juridique français RAG sur codes et lois consolidés (LEGI/DILA). Utiliser pour questions de droit français, recherche d'articles, explication de textes législatifs, synthèse juridique avec citations vérifiables.", "description_zh": "", "downloads": 642, "homepage": "https://clawhub.ai/msgnoki/legalfrance", "iconUrl": null, "installs": 43, "name": "LegalFrance", "ownerName": "msgnoki", "score": 4762.611275964391, "slug": "legalfrance", "source": "clawhub", "stars": 0, "tags": null, "updated_at": 1776769450109, "version": "1.0.1"}, {"category": "developer-tools", "created_at": 1772772960506, "description": "Enables AI agents to interact with AISP (Agent Inference Sharing Protocol) for renting or providing DIEM API capacity. Use when working with diem-marketplace, Venice API keys, USDC escrow, listings, rentals, or when the user wants to rent inference capacity or list API keys.", "description_zh": "", "downloads": 642, "homepage": "https://clawhub.ai/daveo280/aisp", "iconUrl": null, "installs": 9, "name": "AISP", "ownerName": "daveo280", "score": 6127.123496850544, "slug": "aisp", "source": "clawhub", "stars": 0, "tags": null, "updated_at": 1776769450062, "version": "2.0.2"}, {"category": "ai-intelligence", "created_at": 1772774430899, "description": "Semantic code caching for AI agents. Cache, retrieve, and reuse code from prior agent executions.", "description_zh": "", "downloads": 642, "homepage": "https://clawhub.ai/ryx2/code-reputation", "iconUrl": null, "installs": 33, "name": "Code Reputation", "ownerName": "ryx2", "score": 11204.188481675392, "slug": "code-reputation", "source": "clawhub", "stars": 0, "tags": null, "updated_at": 1776769449886, "version": "1.0.1"}, {"category": "productivity", "created_at": 1772779702066, "description": "Helps you remember things by keeping a list of reminders, creating the scheduled jobs to alert you, and tracking which ones are done.", "description_zh": "", "downloads": 642, "homepage": "https://clawhub.ai/a-suraj-bhatti/reminder-guardian", "iconUrl": null, "installs": 14, "name": "Reminder Guardian", "ownerName": "a-suraj-bhatti", "score": 11204.188481675392, "slug": "reminder-guardian", "source": "clawhub", "stars": 0, "tags": null, "updated_at": 1776769449854, "version": "0.1.1"}, {"category": "content-creation", "created_at": 1772788087317, "description": "CLI audio mastering without a reference track using ffmpeg; accepts audio or video inputs and outputs mastered WAV/MP3 or remuxed MP4.", "description_zh": "", "downloads": 641, "homepage": "https://clawhub.ai/alesys/audio-mastering-cli", "iconUrl": null, "installs": 64, "name": "Audio Mastering CLI", "ownerName": "alesys", "score": 2894.4278876546555, "slug": "audio-mastering-cli", "source": "clawhub", "stars": 0, "tags": null, "updated_at": 1776769490573, "version": "1.0.2"}, {"category": "ai-intelligence", "created_at": 1772775747336, "description": "Enables AI agents to work on long-running projects across multiple sessions. Use when starting complex projects, resuming work on existing projects, managing...", "description_zh": "", "downloads": 641, "homepage": "https://clawhub.ai/yonghaozhao722/longrunning-agent", "iconUrl": null, "installs": 31, "name": "Longrunning Agent", "ownerName": "yonghaozhao722", "score": 2894.4278876546555, "slug": "longrunning-agent", "source": "clawhub", "stars": 0, "tags": null, "updated_at": 1776769490554, "version": "1.1.1"}, {"category": "developer-tools", "created_at": 1772774341821, "description": "Performs Google web searches using the Serper API and returns structured search results when provided a valid Serper API key.", "description_zh": "", "downloads": 641, "homepage": "https://clawhub.ai/oakcoderx/serper-web-search", "iconUrl": null, "installs": 27, "name": "Serper Web Search", "ownerName": "oakcoderx", "score": 2894.4278876546555, "slug": "serper-web-search", "source": "clawhub", "stars": 0, "tags": null, "updated_at": 1776769490535, "version": "1.0.0"}, {"category": "communication-collaboration", "created_at": 1772774710677, "description": "Build complete email marketing sequences (welcome, nurture, sales, re-engagement) with subject lines, body copy, and platform-ready output. Use when creating email campaigns, drip sequences, or automated email flows for clients.", "description_zh": "", "downloads": 641, "homepage": "https://clawhub.ai/seanwyngaard/email-sequence-builder", "iconUrl": null, "installs": 17, "name": "Email Sequence Builder", "ownerName": "seanwyngaard", "score": 7682.166826462128, "slug": "email-sequence-builder", "source": "clawhub", "stars": 0, "tags": null, "updated_at": 1776769490484, "version": "1.0.0"}, {"category": "developer-tools", "created_at": 1772773558682, "description": "Create professional App Store and Google Play screenshots with automatic sizing, device frames, marketing copy, and iterative visual learning.", "description_zh": "", "downloads": 640, "homepage": "https://clawhub.ai/ivangdavila/screenshots", "iconUrl": null, "installs": 27, "name": "Screenshots", "ownerName": "ivangdavila", "score": 9120.521172638437, "slug": "screenshots", "source": "clawhub", "stars": 3, "tags": null, "updated_at": 1776768249936, "version": "1.0.1"}, {"category": "content-creation", "created_at": 1772772365901, "description": "Write Italian that sounds human. Not formal, not robotic, not AI-generated.", "description_zh": "", "downloads": 640, "homepage": "https://clawhub.ai/ivangdavila/italian", "iconUrl": null, "installs": 33, "name": "Italian", "ownerName": "ivangdavila", "score": 6332.650400447011, "slug": "italian", "source": "clawhub", "stars": 2, "tags": null, "updated_at": 1776769450051, "version": "1.0.0"}, {"category": "security-compliance", "created_at": 1772774731778, "description": "Lead security with infrastructure audits, vulnerability triage, compliance tracking, vendor assessment, and incident response.", "description_zh": "", "downloads": 640, "homepage": "https://clawhub.ai/ivangdavila/ciso", "iconUrl": null, "installs": 31, "name": "Chief Information Security Officer", "ownerName": "ivangdavila", "score": 18269.74744760881, "slug": "ciso", "source": "clawhub", "stars": 2, "tags": null, "updated_at": 1776768671260, "version": "1.0.0"}, {"category": "content-creation", "created_at": 1772782078050, "description": "Generate professional captions and subtitles with multi-engine transcription, word-level timing, styling presets, and burn-in.", "description_zh": "", "downloads": 640, "homepage": "https://clawhub.ai/ivangdavila/video-captions", "iconUrl": null, "installs": 41, "name": "Video Captions", "ownerName": "ivangdavila", "score": 23448.275862068964, "slug": "video-captions", "source": "clawhub", "stars": 2, "tags": null, "updated_at": 1776768671099, "version": "1.0.1"}, {"category": "content-creation", "created_at": 1772775676385, "description": "Generate reference-based videos with Alibaba Cloud Model Studio Wan R2V models (wan2.6-r2v-flash, wan2.6-r2v). Use when creating multi-shot videos from refer...", "description_zh": "", "downloads": 640, "homepage": "https://clawhub.ai/cinience/alicloud-ai-video-wan-r2v", "iconUrl": null, "installs": 47, "name": "Alicloud Ai Video Wan R2v", "ownerName": "cinience", "score": 2889.9123995303894, "slug": "alicloud-ai-video-wan-r2v", "source": "clawhub", "stars": 0, "tags": null, "updated_at": 1776769490585, "version": "1.0.1"}, {"category": "data-analysis", "created_at": 1772774458978, "description": "Extract text from images, documents and scanned PDFs using OpenOCR - supports text detection, recognition, universal VLM recognition, and document parsing with layout analysis", "description_zh": "", "downloads": 640, "homepage": "https://clawhub.ai/topdu/opencr-skill", "iconUrl": null, "installs": 32, "name": "opencr-skill", "ownerName": "topdu", "score": 2889.9123995303894, "slug": "opencr-skill", "source": "clawhub", "stars": 0, "tags": null, "updated_at": 1776769490536, "version": "0.1.4"}, {"category": "ai-intelligence", "created_at": 1772777540952, "description": "AI memory system for coding agents — code index + cognitive facts, persistent across sessions.", "description_zh": "", "downloads": 640, "homepage": "https://clawhub.ai/gladego/index1", "iconUrl": null, "installs": 31, "name": "index1", "ownerName": "gladego", "score": 7670.182166826463, "slug": "index1", "source": "clawhub", "stars": 0, "tags": null, "updated_at": 1776769490516, "version": "2.0.3"}, {"category": "security-compliance", "created_at": 1772774527906, "description": "Provides end-to-end encrypted, authenticated, and forward-secret messaging between AI agents with cryptographic identities and tamper-proof delivery.", "description_zh": "", "downloads": 640, "homepage": "https://clawhub.ai/cerbug45/agentmesh", "iconUrl": null, "installs": 12, "name": "AgentMesh", "ownerName": "cerbug45", "score": 7670.182166826463, "slug": "agentmesh", "source": "clawhub", "stars": 0, "tags": null, "updated_at": 1776769490476, "version": "0.1.1"}, {"category": "security-compliance", "created_at": 1772778007136, "description": "Multi-agent workflow orchestration for OpenClaw. Use when user mentions antfarm, asks to run a multi-step workflow (feature dev, bug fix, security audit), or...", "description_zh": "", "downloads": 640, "homepage": "https://clawhub.ai/yonghaozhao722/antfarm-workflows", "iconUrl": null, "installs": 32, "name": "Antfarm Workflows", "ownerName": "yonghaozhao722", "score": 11728.055708264616, "slug": "antfarm-workflows", "source": "clawhub", "stars": 0, "tags": null, "updated_at": 1776769490446, "version": "1.0.0"}, {"category": "security-compliance", "created_at": 1772784682245, "description": "Shopify Admin API CLI for orders, products, customers, and store management. Uses REST and GraphQL APIs with environment-based authentication.", "description_zh": "", "downloads": 640, "homepage": "https://clawhub.ai/robsannaa/shopify-admin", "iconUrl": null, "installs": 33, "name": "Shopify Admin", "ownerName": "robsannaa", "score": 11728.055708264616, "slug": "shopify-admin", "source": "clawhub", "stars": 0, "tags": null, "updated_at": 1776769490444, "version": "1.1.2"}, {"category": "data-analysis", "created_at": 1772785935871, "description": "Generate anime-style avatars and characters using each::sense AI. Transform photos into anime, create Ghibli-style portraits, manga characters, chibi avatars...", "description_zh": "", "downloads": 640, "homepage": "https://clawhub.ai/eftalyurtseven/anime-avatar-generation", "iconUrl": null, "installs": 41, "name": "Anime Avatar Generation", "ownerName": "eftalyurtseven", "score": 11728.055708264616, "slug": "anime-avatar-generation", "source": "clawhub", "stars": 0, "tags": null, "updated_at": 1776769490439, "version": "1.0.0"}, {"category": "security-compliance", "created_at": 1772775867734, "description": "Conduct cybersecurity risk assessments by identifying assets, modeling threats, scoring vulnerabilities, mapping compliance, and creating incident response a...", "description_zh": "", "downloads": 639, "homepage": "https://clawhub.ai/1kalin/afrexai-cybersecurity", "iconUrl": null, "installs": 23, "name": "Cybersecurity Risk Assessment", "ownerName": "1kalin", "score": 9696.561024949428, "slug": "afrexai-cybersecurity", "source": "clawhub", "stars": 4, "tags": ["compliance", "cybersecurity", "nist", "risk", "security", "soc2"], "updated_at": 1776767771099, "version": "1.0.0"}, {"category": "ai-intelligence", "created_at": 1772778877248, "description": "AI agent for chief creative officer tasks", "description_zh": "", "downloads": 639, "homepage": "https://clawhub.ai/alvinecarn/chief-creative-officer", "iconUrl": null, "installs": 67, "name": "Chief Creative Officer", "ownerName": "alvinecarn", "score": 8704.0123061146, "slug": "chief-creative-officer", "source": "clawhub", "stars": 2, "tags": null, "updated_at": 1776768671219, "version": "0.1.0"}, {"category": "developer-tools", "created_at": 1772774573158, "description": "Build, validate, and launch minimum viable products with scope discipline, user signals, and iteration speed.", "description_zh": "", "downloads": 639, "homepage": "https://clawhub.ai/ivangdavila/mvp", "iconUrl": null, "installs": 22, "name": "MVP", "ownerName": "ivangdavila", "score": 23413.793103448275, "slug": "mvp", "source": "clawhub", "stars": 2, "tags": null, "updated_at": 1776768671109, "version": "1.0.0"}, {"category": "security-compliance", "created_at": 1772774895016, "description": "Generate detailed Standard Operating Procedures from plain-language process descriptions, including roles, steps, decisions, quality checks, and troubleshoot...", "description_zh": "", "downloads": 639, "homepage": "https://clawhub.ai/1kalin/afrexai-sop-generator", "iconUrl": null, "installs": 18, "name": "SOP Generator", "ownerName": "1kalin", "score": 19196.038450334985, "slug": "afrexai-sop-generator", "source": "clawhub", "stars": 1, "tags": ["compliance", "documentation", "onboarding", "operations", "process", "sop"], "updated_at": 1776769149797, "version": "1.0.0"}, {"category": "content-creation", "created_at": 1772777357864, "description": "Publish podcast episodes from RSS and Notion to Substack with Apple Podcasts embeds and images, then generate LinkedIn-ready companion posts.", "description_zh": "", "downloads": 639, "homepage": "https://clawhub.ai/danielfoch/podcast-to-substack", "iconUrl": null, "installs": 53, "name": "Podcast to Substack", "ownerName": "danielfoch", "score": 5058.581380620646, "slug": "podcast-to-substack", "source": "clawhub", "stars": 0, "tags": ["linkedin", "notion", "podcast", "substack"], "updated_at": 1776769571391, "version": "1.0.0"}, {"category": "ai-intelligence", "created_at": 1772805196777, "description": "Feishu calendar management via feishu-agent. View calendars, list events, create and delete events with conflict detection.", "description_zh": "", "downloads": 639, "homepage": "https://clawhub.ai/boyd4y/feishu-calendar-advanced", "iconUrl": null, "installs": 93, "name": "Feishu Calendar Advanced", "ownerName": "boyd4y", "score": 5058.581380620646, "slug": "feishu-calendar-advanced", "source": "clawhub", "stars": 0, "tags": null, "updated_at": 1776769571372, "version": "1.0.0"}, {"category": "ai-intelligence", "created_at": 1772776609430, "description": "Cloud knowledge backup and retrieval using Supermemory.ai free tier. Store high-value insights to the cloud and search them back when local memory is insuffi...", "description_zh": "", "downloads": 639, "homepage": "https://clawhub.ai/broedkrummen/supermemory-free", "iconUrl": null, "installs": 56, "name": "Supermemory Free", "ownerName": "broedkrummen", "score": 5058.581380620646, "slug": "supermemory-free", "source": "clawhub", "stars": 0, "tags": null, "updated_at": 1776769571367, "version": "1.0.0"}, {"category": "ai-intelligence", "created_at": 1772781302502, "description": "AI agent for call doubao1 5 llm tasks", "description_zh": "", "downloads": 639, "homepage": "https://clawhub.ai/urrrich/call-doubao1-5-llm", "iconUrl": null, "installs": 70, "name": "Call Doubao1 5 Llm", "ownerName": "urrrich", "score": 5058.581380620646, "slug": "call-doubao1-5-llm", "source": "clawhub", "stars": 0, "tags": null, "updated_at": 1776769571357, "version": "0.1.0"}, {"category": "developer-tools", "created_at": 1772771179187, "description": "Deploy a custom Uniswap pool on the local testnet with configurable parameters. Create pools with specific conditions (thin liquidity, wide spreads, exact tick ranges) to test agent behavior under controlled scenarios. Requires a running local testnet.", "description_zh": "", "downloads": 639, "homepage": "https://clawhub.ai/wpank/create-test-pool", "iconUrl": null, "installs": 11, "name": "Uniswap Create Test Pool", "ownerName": "wpank", "score": 23475.385745775166, "slug": "create-test-pool", "source": "clawhub", "stars": 0, "tags": null, "updated_at": 1776769571297, "version": "0.1.0"}, {"category": "data-analysis", "created_at": 1773077505231, "description": "Professional Financial Advisor (FA) skill for primary market financing - replaces traditional investment advisory services with AI-powered project assessment...", "description_zh": "", "downloads": 639, "homepage": "https://clawhub.ai/zhenstaff/finance-analyst", "iconUrl": null, "installs": 127, "name": "Finance Analyst", "ownerName": "zhenstaff", "score": 23475.385745775166, "slug": "finance-analyst", "source": "clawhub", "stars": 0, "tags": null, "updated_at": 1776769571278, "version": "1.0.0"}, {"category": "content-creation", "created_at": 1772776779256, "description": "AI-powered Apple TV remote that uses vision to autonomously navigate apps, play content, control playback, and manage settings.", "description_zh": "", "downloads": 639, "homepage": "https://clawhub.ai/akivasolutions/clawtv", "iconUrl": null, "installs": 50, "name": "ClawTV", "ownerName": "akivasolutions", "score": 22579.505300353358, "slug": "clawtv", "source": "clawhub", "stars": 0, "tags": null, "updated_at": 1776769571223, "version": "1.0.2"}]}