{"page": 145, "total_pages": 522, "total": 26073, "skills": [{"category": "developer-tools", "created_at": 1772770821785, "description": "Spin up a local Anvil testnet with Uniswap deployed and pre-seeded liquidity. One command gives you a full development environment with funded accounts, real Uniswap pools, and zero gas costs. Use when developing, testing, or demoing Uniswap agent workflows.", "description_zh": "", "downloads": 639, "homepage": "https://clawhub.ai/wpank/setup-local-testnet", "iconUrl": null, "installs": 12, "name": "Setup Local Anvil Testnet", "ownerName": "wpank", "score": 22579.505300353358, "slug": "setup-local-testnet", "source": "clawhub", "stars": 0, "tags": null, "updated_at": 1776769571177, "version": "0.1.0"}, {"category": "ai-intelligence", "created_at": 1772774649395, "description": "iCloud Calendar, Reminders & Contacts via Pear. Manage events, reminders, contacts, daily briefings, and AI scheduling. 27 tools for Apple iCloud via CalDAV/...", "description_zh": "", "downloads": 639, "homepage": "https://clawhub.ai/ashtonau/pear-apple", "iconUrl": null, "installs": 36, "name": "Pear Apple", "ownerName": "ashtonau", "score": 10354.885755955274, "slug": "pear-apple", "source": "clawhub", "stars": 0, "tags": null, "updated_at": 1776769571103, "version": "1.0.2"}, {"category": "ai-intelligence", "created_at": 1772775494510, "description": "Automate copy trading on Hyperliquid via Coinpilot to discover, investigate, and mirror top on-chain traders in real time with low execution latency. Runtime...", "description_zh": "", "downloads": 638, "homepage": "https://clawhub.ai/alannkl/coinpilot-hyperliquid-copy-trade", "iconUrl": null, "installs": 36, "name": "Coinpilot Hyperliquid Copy Trade", "ownerName": "alannkl", "score": 34115.34701857282, "slug": "coinpilot-hyperliquid-copy-trade", "source": "clawhub", "stars": 3, "tags": null, "updated_at": 1776768249843, "version": "1.0.7"}, {"category": "developer-tools", "created_at": 1772770744370, "description": "Configure x402 micropayments for agent-to-agent commerce via Uniswap. Set up your agent to pay per MCP request in USDC on Base (~200ms settlement) or accept x402 payments as a service provider. Use when the user wants to enable pay-per-use API access or monetize their agent's services.", "description_zh": "", "downloads": 638, "homepage": "https://clawhub.ai/wpank/configure-x402", "iconUrl": null, "installs": 9, "name": "Configure X402", "ownerName": "wpank", "score": 5050.664977834072, "slug": "configure-x402", "source": "clawhub", "stars": 0, "tags": null, "updated_at": 1776769571393, "version": "0.1.0"}, {"category": "ai-intelligence", "created_at": 1772777165717, "description": "Check Claude Max plan usage limits by launching Claude Code and running /usage. Use when the user asks about Claude plan usage, remaining quota, rate limits,...", "description_zh": "", "downloads": 638, "homepage": "https://clawhub.ai/chunhualiao/openclaw-claude-usage", "iconUrl": null, "installs": 53, "name": "Claude Usage Release", "ownerName": "chunhualiao", "score": 3277.0044686424576, "slug": "openclaw-claude-usage", "source": "clawhub", "stars": 0, "tags": null, "updated_at": 1776769571310, "version": "1.0.1"}, {"category": "data-analysis", "created_at": 1772775122294, "description": "Calculates comprehensive ROI analysis with payback period and risk scenarios for business investments like software, hiring, marketing, or automation projects.", "description_zh": "", "downloads": 638, "homepage": "https://clawhub.ai/1kalin/afrexai-sales-roi", "iconUrl": null, "installs": 35, "name": "Sales ROI Calculator", "ownerName": "1kalin", "score": 3277.0044686424576, "slug": "afrexai-sales-roi", "source": "clawhub", "stars": 0, "tags": ["business", "calculator", "finance", "roi", "sales"], "updated_at": 1776769571306, "version": "1.0.0"}, {"category": "data-analysis", "created_at": 1772773304931, "description": "Backtest, deploy, and monitor trading bots on Hyperliquid. Supports Grid, DCA, and Spot-Perp Arbitrage strategies across Native Perps, Spot markets (USDC/USDH), and HIP-3 sub-DEXes.", "description_zh": "", "downloads": 638, "homepage": "https://clawhub.ai/yashagarwal1994/supurr-hyperliquid", "iconUrl": null, "installs": 12, "name": "Supurr Hyperliquid Algorithmic Trading", "ownerName": "yashagarwal1994", "score": 23438.648052902277, "slug": "supurr-hyperliquid", "source": "clawhub", "stars": 0, "tags": null, "updated_at": 1776769571232, "version": "1.0.0"}, {"category": "ai-intelligence", "created_at": 1772773895107, "description": "Track OpenClaw agent costs. Check daily/weekly spending and model breakdown.", "description_zh": "", "downloads": 638, "homepage": "https://clawhub.ai/shallify/clawcost", "iconUrl": null, "installs": 40, "name": "ClawCost", "ownerName": "shallify", "score": 22544.16961130742, "slug": "clawcost", "source": "clawhub", "stars": 0, "tags": null, "updated_at": 1776769571231, "version": "1.0.2"}, {"category": "ai-intelligence", "created_at": 1772787219988, "description": "Standardize handling of common OpenClaw errors (gateway restart, browser service unavailable, cron failures) with automated recovery steps. Use when you need...", "description_zh": "", "downloads": 638, "homepage": "https://clawhub.ai/konscious0beast/error-recovery-automation", "iconUrl": null, "installs": 51, "name": "Error Recovery Automation", "ownerName": "konscious0beast", "score": 22544.16961130742, "slug": "error-recovery-automation", "source": "clawhub", "stars": 0, "tags": null, "updated_at": 1776769571220, "version": "1.0.0"}, {"category": "communication-collaboration", "created_at": 1773057174754, "description": "Automates payments, invoices, expenses, and financial reports with Stripe webhooks and real-time Telegram notifications for streamlined finance management.", "description_zh": "", "downloads": 638, "homepage": "https://clawhub.ai/chloepark85/finance-automation", "iconUrl": null, "installs": 73, "name": "Finance Automation", "ownerName": "chloepark85", "score": 22544.16961130742, "slug": "finance-automation", "source": "clawhub", "stars": 0, "tags": ["finance", "invoice", "payment"], "updated_at": 1776769571190, "version": "0.2.1"}, {"category": "ai-intelligence", "created_at": 1773056840016, "description": "Fetch, filter, and summarize RSS/Atom feeds into a clean daily or weekly digest. Supports multiple feeds, keyword filtering, deduplication, and outputs Markd...", "description_zh": "", "downloads": 638, "homepage": "https://clawhub.ai/zacjiang/rss-feed-digest", "iconUrl": null, "installs": 45, "name": "RSS Feed Digest", "ownerName": "zacjiang", "score": 10338.680926916222, "slug": "rss-feed-digest", "source": "clawhub", "stars": 0, "tags": null, "updated_at": 1776769571121, "version": "1.0.0"}, {"category": "security-compliance", "created_at": 1772787247090, "description": "Extract complete data from X/Twitter tweets by URL, including text, author info, timestamps, engagement stats, media, quoted tweets, and thread context.", "description_zh": "", "downloads": 638, "homepage": "https://clawhub.ai/iheardulkbtc/twitter-reader", "iconUrl": null, "installs": 33, "name": "Twitter/X Reader", "ownerName": "iheardulkbtc", "score": 3291.2045395924683, "slug": "twitter-reader", "source": "clawhub", "stars": 0, "tags": ["scraping", "social-media", "twitter", "x"], "updated_at": 1776769571091, "version": "1.0.0"}, {"category": "security-compliance", "created_at": 1772773823848, "description": "Compare two versions of an OpenClaw skill to detect security-relevant changes. Use before updating any skill from ClawHub. Highlights new capabilities, chang...", "description_zh": "", "downloads": 638, "homepage": "https://clawhub.ai/trypto1019/arc-skill-differ", "iconUrl": null, "installs": 10, "name": "Arc Skill Differ", "ownerName": "trypto1019", "score": 3291.2045395924683, "slug": "arc-skill-differ", "source": "clawhub", "stars": 0, "tags": ["diff", "security", "versions"], "updated_at": 1776769571080, "version": "1.0.0"}, {"category": "developer-tools", "created_at": 1772793125958, "description": "A virtual city where AI agents live, work, create, date, and socialize", "description_zh": "", "downloads": 637, "homepage": "https://clawhub.ai/vincentsider/openclawcity", "iconUrl": null, "installs": 7, "name": "OpenClawCity", "ownerName": "vincentsider", "score": 8678.374567363158, "slug": "openclawcity", "source": "clawhub", "stars": 2, "tags": null, "updated_at": 1776768671225, "version": "1.0.8"}, {"category": "ai-intelligence", "created_at": 1772776158239, "description": "Provide AI-powered degree and career programs with adaptive learning, exam prep, progress tracking, and customized study planning for diverse user goals.", "description_zh": "", "downloads": 637, "homepage": "https://clawhub.ai/ivangdavila/university", "iconUrl": null, "installs": 47, "name": "University", "ownerName": "ivangdavila", "score": 8678.374567363158, "slug": "university", "source": "clawhub", "stars": 2, "tags": null, "updated_at": 1776768671223, "version": "1.0.0"}, {"category": "content-creation", "created_at": 1773068746248, "description": "Design and ship browser-playable games from no-build Three.js prototypes to advanced architectures with workflows, budgets, and playtest loops.", "description_zh": "", "downloads": 637, "homepage": "https://clawhub.ai/ivangdavila/game-development", "iconUrl": null, "installs": 94, "name": "Game Development", "ownerName": "ivangdavila", "score": 719.5057210305762, "slug": "game-development", "source": "clawhub", "stars": 0, "tags": null, "updated_at": 1776770650145, "version": "1.0.0"}, {"category": "communication-collaboration", "created_at": 1772775293929, "description": "Send and search emails via Zoho using specified recipients, subject, body, and search queries with optional CC, BCC, and read marking.", "description_zh": "", "downloads": 637, "homepage": "https://clawhub.ai/chowardcode/email-tool", "iconUrl": null, "installs": 18, "name": "Email Tool", "ownerName": "chowardcode", "score": 2591.7487183660182, "slug": "email-tool", "source": "clawhub", "stars": 0, "tags": ["email", "imap", "smtp", "zoho"], "updated_at": 1776770090526, "version": "1.0.2"}, {"category": "ai-intelligence", "created_at": 1772772102478, "description": "Alias for raon-os — AI-powered startup companion for Korean founders. Install the main package for full functionality.", "description_zh": "", "downloads": 637, "homepage": "https://clawhub.ai/lifeissea/startup-zero-to-one", "iconUrl": null, "installs": 4, "name": "Startup Agent (→ raon-os)", "ownerName": "lifeissea", "score": 13345.904043578463, "slug": "startup-zero-to-one", "source": "clawhub", "stars": 0, "tags": null, "updated_at": 1776769750179, "version": "0.7.27"}, {"category": "data-analysis", "created_at": 1772774629646, "description": "Analyzes conversation history, extracts user preferences and feedback, updates memory files automatically.", "description_zh": "", "downloads": 637, "homepage": "https://clawhub.ai/tevfikgulep/memory-analyzer", "iconUrl": null, "installs": 19, "name": "Memory Analyzer", "ownerName": "tevfikgulep", "score": 21483.97976391231, "slug": "memory-analyzer", "source": "clawhub", "stars": 0, "tags": ["analysis", "automation", "learning", "memory"], "updated_at": 1776769749897, "version": "1.0.0"}, {"category": "security-compliance", "created_at": 1773041764996, "description": "Use the mcporter CLI to list, configure, auth, and call MCP servers/tools directly (HTTP or stdio), including ad-hoc servers, config edits, and CLI/type gene...", "description_zh": "", "downloads": 637, "homepage": "https://clawhub.ai/mskmz/mcporter-1-0-0", "iconUrl": null, "installs": 36, "name": "Mcporter 1.0.0", "ownerName": "mskmz", "score": 21483.97976391231, "slug": "mcporter-1-0-0", "source": "clawhub", "stars": 0, "tags": null, "updated_at": 1776769749875, "version": "1.0.0"}, {"category": "developer-tools", "created_at": 1772770510095, "description": "Integrate AI agents with the ClawPlace collaborative pixel canvas API, including cooldown handling, shape skills, factions, and efficient canvas reads.", "description_zh": "", "downloads": 637, "homepage": "https://clawhub.ai/manaporkun/clawplace-agent", "iconUrl": null, "installs": 9, "name": "ClawPlace Agent", "ownerName": "manaporkun", "score": 5042.748575047498, "slug": "clawplace-agent", "source": "clawhub", "stars": 0, "tags": ["agents", "api", "art", "canvas", "clawplace", "collaboration", "place", "r/place"], "updated_at": 1776769571397, "version": "1.0.0"}, {"category": "ai-intelligence", "created_at": 1772784851787, "description": "Captures learnings, errors, and corrections to enable continuous improvement. Use when: (1) A command or operation fails unexpectedly, (2) User corrects Clau...", "description_zh": "", "downloads": 637, "homepage": "https://clawhub.ai/czubi1928/self-improving-agent-1-0-5", "iconUrl": null, "installs": 127, "name": "Self Improving Agent 1.0.5", "ownerName": "czubi1928", "score": 3271.8680980019517, "slug": "self-improving-agent-1-0-5", "source": "clawhub", "stars": 0, "tags": null, "updated_at": 1776769571336, "version": "1.0.0"}, {"category": "productivity", "created_at": 1772789369329, "description": "Read RSS/Atom feeds from an OPML list, fetch articles from the last N hours, and generate a Chinese categorized brief. Use for requests like “generate a 24-h...", "description_zh": "", "downloads": 637, "homepage": "https://clawhub.ai/seandong/ak-rss-24h-brief", "iconUrl": null, "installs": 22, "name": "AK RSS 24h Brief", "ownerName": "seandong", "score": 22508.833922261485, "slug": "ak-rss-24h-brief", "source": "clawhub", "stars": 0, "tags": null, "updated_at": 1776769571193, "version": "0.1.2"}, {"category": "security-compliance", "created_at": 1772746792857, "description": "Sign plugins, rotate agent credentials without losing identity, and publicly attest to plugin behavior with verifiable claims and authenticated transfers.", "description_zh": "", "downloads": 637, "homepage": "https://clawhub.ai/0isone/0protocol", "iconUrl": null, "installs": 9, "name": "0.protocol", "ownerName": "0isone", "score": 10322.476097877166, "slug": "0protocol", "source": "clawhub", "stars": 0, "tags": ["identity", "mcp", "security"], "updated_at": 1776769571146, "version": "0.1.0"}, {"category": "developer-tools", "created_at": 1772775968332, "description": "Auto-generate beautiful changelogs from git history, grouped by conventional commit types", "description_zh": "", "downloads": 637, "homepage": "https://clawhub.ai/fratua/git-changelog", "iconUrl": null, "installs": 7, "name": "Git Changelog", "ownerName": "fratua", "score": 10322.476097877166, "slug": "git-changelog", "source": "clawhub", "stars": 0, "tags": null, "updated_at": 1776769571126, "version": "1.0.0"}, {"category": "content-creation", "created_at": 1772786285827, "description": "Build and deploy Nova Platform apps (TEE apps on Sparsity Nova / sparsity.cloud). Use when a user wants to create a Nova app, write enclave application code,...", "description_zh": "", "downloads": 636, "homepage": "https://clawhub.ai/zfdang/nova-app-builder", "iconUrl": null, "installs": 19, "name": "Nova App Builder", "ownerName": "zfdang", "score": 17978.72340425532, "slug": "nova-app-builder", "source": "clawhub", "stars": 2, "tags": null, "updated_at": 1776768850354, "version": "2.3.1"}, {"category": "productivity", "created_at": 1772775273782, "description": "Create high-value, subreddit-native Reddit posts with hooks, practical payload, and low-friction CTAs.", "description_zh": "", "downloads": 636, "homepage": "https://clawhub.ai/xammarie/reddit-post-lab", "iconUrl": null, "installs": 29, "name": "reddit-post-lab", "ownerName": "xammarie", "score": 17978.72340425532, "slug": "reddit-post-lab", "source": "clawhub", "stars": 2, "tags": null, "updated_at": 1776768850354, "version": "1.0.1"}, {"category": "productivity", "created_at": 1772771806413, "description": "Assist with Cardano ADA transactions, staking, native tokens, and UTxO model.", "description_zh": "", "downloads": 636, "homepage": "https://clawhub.ai/ivangdavila/cardano", "iconUrl": null, "installs": 22, "name": "Cardano", "ownerName": "ivangdavila", "score": 4990.403071017274, "slug": "cardano", "source": "clawhub", "stars": 2, "tags": null, "updated_at": 1776768849858, "version": "1.0.0"}, {"category": "communication-collaboration", "created_at": 1772774970400, "description": "Participate in Agent Arena chat rooms with your real personality (SOUL.md + MEMORY.md). Auto-polls for turns and responds as your true self.", "description_zh": "", "downloads": 636, "homepage": "https://clawhub.ai/minilozio/agent-arena", "iconUrl": null, "installs": 15, "name": "Agent Arena Skill", "ownerName": "minilozio", "score": 13324.952859836581, "slug": "agent-arena", "source": "clawhub", "stars": 0, "tags": null, "updated_at": 1776769750161, "version": "1.0.8"}, {"category": "security-compliance", "created_at": 1772794100133, "description": "Use Weibo Open Platform for OAuth2 authentication, timeline retrieval, topic search, and structured social sentiment collection. Trigger this skill when task...", "description_zh": "", "downloads": 636, "homepage": "https://clawhub.ai/oscraters/weibo", "iconUrl": null, "installs": 55, "name": "Weibo Microblogging CLI", "ownerName": "oscraters", "score": 29403.606102635225, "slug": "weibo", "source": "clawhub", "stars": 0, "tags": null, "updated_at": 1776769750076, "version": "1.0.1"}, {"category": "developer-tools", "created_at": 1772774770798, "description": "Complete technical documentation system — from planning through maintenance. Covers READMEs, API docs, guides, architecture docs, runbooks, and developer por...", "description_zh": "", "downloads": 636, "homepage": "https://clawhub.ai/1kalin/afrexai-technical-docs", "iconUrl": null, "installs": 19, "name": "Technical Documentation Engine", "ownerName": "1kalin", "score": 29403.606102635225, "slug": "afrexai-technical-docs", "source": "clawhub", "stars": 0, "tags": ["adr", "api-docs", "changelog", "devdocs", "documentation", "readme", "runbook", "runbooks", "technical-writing", "templates"], "updated_at": 1776769750066, "version": "1.1.0"}, {"category": "productivity", "created_at": 1772778972988, "description": "Self-improvement layer with evaluation separation, rollback, and tiered operator gates. Observes outcomes across sessions, detects recurring patterns, propos...", "description_zh": "", "downloads": 636, "homepage": "https://clawhub.ai/atlaspa/openclaw-reflect", "iconUrl": null, "installs": 24, "name": "openclaw-reflect", "ownerName": "atlaspa", "score": 29403.606102635225, "slug": "openclaw-reflect", "source": "clawhub", "stars": 0, "tags": null, "updated_at": 1776769750039, "version": "1.0.2"}, {"category": "communication-collaboration", "created_at": 1772775026206, "description": "Get an email address without your human. Use for testing signup flows, receiving verification codes, automating email workflows. Free.", "description_zh": "", "downloads": 636, "homepage": "https://clawhub.ai/claw-silhouette/bot-email", "iconUrl": null, "installs": 23, "name": "BotEmail.ai - Free bot email", "ownerName": "claw-silhouette", "score": 21450.25295109612, "slug": "bot-email", "source": "clawhub", "stars": 0, "tags": null, "updated_at": 1776769749892, "version": "v1.0.7"}, {"category": "ai-intelligence", "created_at": 1772775072371, "description": "Manage daily, weekly, and seasonal farm chores with task scheduling, priorities, status updates, recurring tasks, filtering, and export options.", "description_zh": "", "downloads": 636, "homepage": "https://clawhub.ai/johstracke/farm-task-manager", "iconUrl": null, "installs": 31, "name": "Farm Task Manager", "ownerName": "johstracke", "score": 21450.25295109612, "slug": "farm-task-manager", "source": "clawhub", "stars": 0, "tags": ["farm", "farming", "management", "productivity", "tasks", "tracker"], "updated_at": 1776769749890, "version": "1.0.0"}, {"category": "communication-collaboration", "created_at": 1772789501425, "description": "Email API for AI agents. Check inbox, read emails, extract OTP codes, search messages via ShellMail. Trigger on \"check email\", \"inbox\", \"otp\", \"verification...", "description_zh": "", "downloads": 636, "homepage": "https://clawhub.ai/aaronbatchelder/shellmail", "iconUrl": null, "installs": 25, "name": "ShellMail - Email Built for AI Agents", "ownerName": "aaronbatchelder", "score": 3546.5343221992975, "slug": "shellmail", "source": "clawhub", "stars": 0, "tags": null, "updated_at": 1776769749843, "version": "1.0.12"}, {"category": "productivity", "created_at": 1772781184609, "description": "Windows GUI automation toolkit for global hotkeys and window management. Use when users need to register global hotkeys, find/control windows, automate GUI o...", "description_zh": "", "downloads": 636, "homepage": "https://clawhub.ai/wangyendt/gui", "iconUrl": null, "installs": 33, "name": "Pywayne Gui", "ownerName": "wangyendt", "score": 3546.5343221992975, "slug": "gui", "source": "clawhub", "stars": 0, "tags": null, "updated_at": 1776769749814, "version": "0.1.0"}, {"category": "productivity", "created_at": 1772786581384, "description": "Track and control token consumption across OpenClaw cron jobs", "description_zh": "", "downloads": 636, "homepage": "https://clawhub.ai/aviclaw/token-budget-monitor", "iconUrl": null, "installs": 31, "name": "Token Budget Monitor", "ownerName": "aviclaw", "score": 5992.08592425099, "slug": "token-budget-monitor", "source": "clawhub", "stars": 0, "tags": null, "updated_at": 1776769749789, "version": "1.0.0"}, {"category": "developer-tools", "created_at": 1772787240800, "description": "Auto-generates comprehensive API docs from code. REST, GraphQL, WebSocket with examples and schemas.", "description_zh": "", "downloads": 636, "homepage": "https://clawhub.ai/ryudi84/sovereign-api-docs-generator", "iconUrl": null, "installs": 18, "name": "API Documentation Generator", "ownerName": "ryudi84", "score": 5992.08592425099, "slug": "sovereign-api-docs-generator", "source": "clawhub", "stars": 0, "tags": null, "updated_at": 1776769749748, "version": "1.0.0"}, {"category": "security-compliance", "created_at": 1772773151929, "description": "GitHub Action for automated security scanning of agent workspaces. Detects exposed secrets, prompt/shell injection, and data exfiltration patterns in PRs and commits.", "description_zh": "", "downloads": 636, "homepage": "https://clawhub.ai/atlaspa/openclaw-action", "iconUrl": null, "installs": 22, "name": "Openclaw Action", "ownerName": "atlaspa", "score": 5034.832172260924, "slug": "openclaw-action", "source": "clawhub", "stars": 0, "tags": null, "updated_at": 1776769749724, "version": "1.0.0"}, {"category": "", "created_at": 1774919452386, "description": "Automated test case generation from project documents. This skill should be used when generating structured test cases from requirements documents, API speci...", "description_zh": "", "downloads": 635, "homepage": "https://clawhub.ai/thanksjj/auto-testcase-generator", "iconUrl": null, "installs": 239, "name": "测试用例生成器", "ownerName": "thanksjj", "score": 61157.7964519141, "slug": "auto-testcase-generator", "source": "clawhub", "stars": 1, "tags": null, "updated_at": 1776769190456, "version": "1.1.0"}, {"category": "data-analysis", "created_at": 1772775073931, "description": "Systematically improve code through disciplined analysis, targeted mutations, verification, scoring, and logging to iteratively enhance quality and design.", "description_zh": "", "downloads": 635, "homepage": "https://clawhub.ai/aaronjmars/iterative-code-evolution", "iconUrl": null, "installs": 20, "name": "Iterative Code Evolution", "ownerName": "aaronjmars", "score": 8901.03728623493, "slug": "iterative-code-evolution", "source": "clawhub", "stars": 0, "tags": null, "updated_at": 1776769750127, "version": "1.0.0"}, {"category": "content-creation", "created_at": 1772780225928, "description": "Learn and write Swift code for variables, functions, classes, structs, enums, optionals, closures, protocols, async/await, and SwiftUI.", "description_zh": "", "downloads": 635, "homepage": "https://clawhub.ai/saitamawtf/swift-programming", "iconUrl": null, "installs": 41, "name": "swift-programming", "ownerName": "saitamawtf", "score": 5517.900590893292, "slug": "swift-programming", "source": "clawhub", "stars": 0, "tags": null, "updated_at": 1776769749996, "version": "1.0.0"}, {"category": "productivity", "created_at": 1772786567279, "description": "Skill Tester", "description_zh": "", "downloads": 635, "homepage": "https://clawhub.ai/alirezarezvani/skill-tester", "iconUrl": null, "installs": 114, "name": "Skill Tester", "ownerName": "alirezarezvani", "score": 5517.900590893292, "slug": "skill-tester", "source": "clawhub", "stars": 0, "tags": null, "updated_at": 1776769749957, "version": "2.1.1"}, {"category": "data-analysis", "created_at": 1772771625024, "description": "Research a token's Uniswap liquidity, volume profile, pool distribution, and risk factors. Use when the user asks about a token's tradability, liquidity depth, or wants due diligence.", "description_zh": "", "downloads": 635, "homepage": "https://clawhub.ai/wpank/research-token", "iconUrl": null, "installs": 13, "name": "Uniswap Research Token", "ownerName": "wpank", "score": 21416.526138279933, "slug": "research-token", "source": "clawhub", "stars": 0, "tags": null, "updated_at": 1776769749924, "version": "0.1.0"}, {"category": "content-creation", "created_at": 1773946564834, "description": "Create placeholder data, test fixtures, and sample datasets for dev work. Use when generating mocks, building fixtures, or scaffolding content templates.", "description_zh": "", "downloads": 635, "homepage": "https://clawhub.ai/bytesagain3/generator", "iconUrl": null, "installs": 27, "name": "Generator", "ownerName": "bytesagain3", "score": 21416.526138279933, "slug": "generator", "source": "clawhub", "stars": 0, "tags": null, "updated_at": 1776769749899, "version": "2.0.0"}, {"category": "security-compliance", "created_at": 1772779526408, "description": "Enterprise Risk Management Engine helps organizations identify, assess, mitigate, and monitor operational, financial, strategic, compliance, cyber, and reput...", "description_zh": "", "downloads": 635, "homepage": "https://clawhub.ai/1kalin/afrexai-risk-management", "iconUrl": null, "installs": 21, "name": "Enterprise Risk Management Engine", "ownerName": "1kalin", "score": 21416.526138279933, "slug": "afrexai-risk-management", "source": "clawhub", "stars": 0, "tags": ["audit", "business-continuity", "compliance", "enterprise", "governance", "management", "risk", "security"], "updated_at": 1776769749884, "version": "1.0.0"}, {"category": "developer-tools", "created_at": 1772782913331, "description": "Fetches up-to-date, version-specific documentation and code examples for any programming library or framework from Context7. Use this skill when the user nee...", "description_zh": "", "downloads": 635, "homepage": "https://clawhub.ai/jaylane/context7-docs", "iconUrl": null, "installs": 28, "name": "Context7 Documentation Skill", "ownerName": "jaylane", "score": 5982.664405502167, "slug": "context7-docs", "source": "clawhub", "stars": 0, "tags": null, "updated_at": 1776769749750, "version": "1.0.0"}, {"category": "developer-tools", "created_at": 1772778903439, "description": "Full AI Chief Financial Officer — connects Mercury Banking + Stripe into real-time business intelligence. Daily cash position, automated P&L, revenue trackin...", "description_zh": "", "downloads": 634, "homepage": "https://clawhub.ai/aiwithabidi/ai-cfo", "iconUrl": null, "installs": 42, "name": "Ai Cfo", "ownerName": "aiwithabidi", "score": 2707.4347696118202, "slug": "ai-cfo", "source": "clawhub", "stars": 0, "tags": null, "updated_at": 1776770350265, "version": "1.0.0"}, {"category": "communication-collaboration", "created_at": 1772772479501, "description": "Chat on MOL IM — a retro AIM-style messenger for AI agents. Two-step setup (install deps, then start bridge). Bridge runs as background process with auto-rec...", "description_zh": "", "downloads": 634, "homepage": "https://clawhub.ai/memerdev/mim-instant-messenger", "iconUrl": null, "installs": 17, "name": "MOL IM", "ownerName": "memerdev", "score": 13283.050492352819, "slug": "mim-instant-messenger", "source": "clawhub", "stars": 0, "tags": null, "updated_at": 1776769750165, "version": "1.1.0"}, {"category": "security-compliance", "created_at": 1772775855592, "description": "Immutable audit trail for autonomous agent operations. Log skill executions, data access, decisions, and budget changes with tamper-evident hashes. Essential...", "description_zh": "", "downloads": 634, "homepage": "https://clawhub.ai/trypto1019/arc-compliance-audit", "iconUrl": null, "installs": 14, "name": "Compliance Audit", "ownerName": "trypto1019", "score": 13283.050492352819, "slug": "arc-compliance-audit", "source": "clawhub", "stars": 0, "tags": null, "updated_at": 1776769750151, "version": "1.0.0"}]}