{"page": 146, "total_pages": 522, "total": 26073, "skills": [{"category": "security-compliance", "created_at": 1772775395312, "description": "Conducts a comprehensive, weighted assessment of software vendors and partners across financials, technical fit, security, pricing, support, lock-in, and roa...", "description_zh": "", "downloads": 634, "homepage": "https://clawhub.ai/1kalin/afrexai-vendor-eval", "iconUrl": null, "installs": 17, "name": "Vendor Evaluation & Due Diligence", "ownerName": "1kalin", "score": 29311.141932501156, "slug": "afrexai-vendor-eval", "source": "clawhub", "stars": 0, "tags": ["business", "due-diligence", "evaluation", "procurement", "vendor"], "updated_at": 1776769750074, "version": "1.0.0"}, {"category": "developer-tools", "created_at": 1772773024429, "description": "A TypeScript SDK for interacting with Stable Layer on Sui blockchain, supporting minting, burning stablecoins, claiming yield rewards, and querying supply.", "description_zh": "", "downloads": 634, "homepage": "https://clawhub.ai/k66inthesky/stable-layer-sdk", "iconUrl": null, "installs": 9, "name": "stable-layer-sdk", "ownerName": "k66inthesky", "score": 3535.3816985445824, "slug": "stable-layer-sdk", "source": "clawhub", "stars": 0, "tags": null, "updated_at": 1776769749819, "version": "1.0.0"}, {"category": "data-analysis", "created_at": 1772782888320, "description": "Learned from arXiv paper GameDevBench: Evaluating Agentic Capabilities Through Game Development. Use this skill to scaffold Node.js experiments based on the...", "description_zh": "", "downloads": 634, "homepage": "https://clawhub.ai/wanng-ide/arxiv-gamedevbench-evaluating-agentic-capabili", "iconUrl": null, "installs": 89, "name": "Arxiv Gamedevbench Evaluating Agentic Capabili", "ownerName": "wanng-ide", "score": 5973.2428867533445, "slug": "arxiv-gamedevbench-evaluating-agentic-capabili", "source": "clawhub", "stars": 0, "tags": null, "updated_at": 1776769749799, "version": "1.0.0"}, {"category": "developer-tools", "created_at": 1772774182525, "description": "Interact with a self‑hosted Mealie instance (recipe manager & meal planner) via its REST API. Use for adding, updating, retrieving recipes, meal plans and generating shopping lists. Trigger when the user mentions their Mealie URL, wants to import a recipe, create a meal plan or fetch a shopping list.", "description_zh": "", "downloads": 634, "homepage": "https://clawhub.ai/g1mb01d/mealie", "iconUrl": null, "installs": 7, "name": "Mealie API skill", "ownerName": "g1mb01d", "score": 5973.2428867533445, "slug": "mealie", "source": "clawhub", "stars": 0, "tags": null, "updated_at": 1776769749783, "version": "1.0.0"}, {"category": "ai-intelligence", "created_at": 1772793036900, "description": "Work Breakdown Structure for multi-agent project management. Organize work as Roadmap → Epic → Task hierarchy with templates and granularity standards. Use w...", "description_zh": "", "downloads": 633, "homepage": "https://clawhub.ai/ycz87/wbs-planner", "iconUrl": null, "installs": 48, "name": "WBS Planner", "ownerName": "ycz87", "score": 17856.195277261875, "slug": "wbs-planner", "source": "clawhub", "stars": 2, "tags": null, "updated_at": 1776768850413, "version": "1.1.0"}, {"category": "data-analysis", "created_at": 1772782051885, "description": "AI finance assistant — real-time quotes, charts, technical analysis, portfolio tracking, price alerts, watchlists, daily briefings, macro economics, and sent...", "description_zh": "", "downloads": 633, "homepage": "https://clawhub.ai/salihgun/finclaw", "iconUrl": null, "installs": 84, "name": "FinClaw", "ownerName": "salihgun", "score": 16279.632317368167, "slug": "finclaw", "source": "clawhub", "stars": 2, "tags": null, "updated_at": 1776768850183, "version": "1.0.0"}, {"category": "content-creation", "created_at": 1772772411520, "description": "Write Latvian that sounds human. Not formal, not robotic, not AI-generated.", "description_zh": "", "downloads": 633, "homepage": "https://clawhub.ai/ivangdavila/latvian", "iconUrl": null, "installs": 30, "name": "Latvian", "ownerName": "ivangdavila", "score": 9500.282326369283, "slug": "latvian", "source": "clawhub", "stars": 2, "tags": null, "updated_at": 1776768849973, "version": "1.0.0"}, {"category": "productivity", "created_at": 1772771550196, "description": "Assist with Hedera HBAR transactions, account creation, token service, and consensus features.", "description_zh": "", "downloads": 633, "homepage": "https://clawhub.ai/ivangdavila/hedera", "iconUrl": null, "installs": 15, "name": "Hedera", "ownerName": "ivangdavila", "score": 16658.41584158416, "slug": "hedera", "source": "clawhub", "stars": 2, "tags": null, "updated_at": 1776768849912, "version": "1.0.0"}, {"category": "content-creation", "created_at": 1773285191147, "description": "Search the web using Tavily's Search API. Returns relevant, accurate results with content snippets, scores, and metadata. Use when the user asks to search th...", "description_zh": "", "downloads": 633, "homepage": "https://clawhub.ai/evanydl/tavily-websearch", "iconUrl": null, "installs": 45, "name": "Tavily Search", "ownerName": "evanydl", "score": 22218.441646818646, "slug": "tavily-websearch", "source": "clawhub", "stars": 1, "tags": ["ai", "search", "tavily", "web"], "updated_at": 1776769271087, "version": "7.0.0"}, {"category": "security-compliance", "created_at": 1772777159923, "description": "Performs detailed risk assessment by identifying, scoring, prioritizing risks, and proposing mitigation plans with owners, deadlines, and costs for informed...", "description_zh": "", "downloads": 633, "homepage": "https://clawhub.ai/1kalin/afrexai-risk-assessment", "iconUrl": null, "installs": 10, "name": "Risk Assessment Framework", "ownerName": "1kalin", "score": 5500.521376433785, "slug": "afrexai-risk-assessment", "source": "clawhub", "stars": 0, "tags": ["assessment", "business", "compliance", "governance", "risk"], "updated_at": 1776769749964, "version": "1.0.0"}, {"category": "developer-tools", "created_at": 1772774223094, "description": "Monitor deployed skills for performance drift, errors, and unexpected behavior changes. Continuous post-deployment health checks with alerting and trend trac...", "description_zh": "", "downloads": 633, "homepage": "https://clawhub.ai/trypto1019/arc-skill-health-monitor", "iconUrl": null, "installs": 11, "name": "Skill Health Monitor", "ownerName": "trypto1019", "score": 21349.072512647555, "slug": "arc-skill-health-monitor", "source": "clawhub", "stars": 0, "tags": null, "updated_at": 1776769749887, "version": "1.1.0"}, {"category": "data-analysis", "created_at": 1772777950345, "description": "Routes tasks between GLM-4.7-FlashX for simple queries and GLM-5 for coding, analysis, reasoning, and complex tasks, switching automatically as needed.", "description_zh": "", "downloads": 633, "homepage": "https://clawhub.ai/raufimusaddiq/glm-autoroute", "iconUrl": null, "installs": 51, "name": "GLM Autoroute", "ownerName": "raufimusaddiq", "score": 3529.8053867172252, "slug": "glm-autoroute", "source": "clawhub", "stars": 0, "tags": null, "updated_at": 1776769749871, "version": "1.2.0"}, {"category": "data-analysis", "created_at": 1773041264651, "description": "Analyze stock market setups with thesis checks, catalyst mapping, risk controls, and explicit trade or no-trade decisions.", "description_zh": "", "downloads": 633, "homepage": "https://clawhub.ai/ivangdavila/stock-market", "iconUrl": null, "installs": 84, "name": "Stock Market", "ownerName": "ivangdavila", "score": 5963.821368004523, "slug": "stock-market", "source": "clawhub", "stars": 0, "tags": null, "updated_at": 1776769749792, "version": "1.0.0"}, {"category": "data-analysis", "created_at": 1773213543119, "description": "A comprehensive AI agent skill for understanding and participating in foreign exchange markets. Explains how currency markets work, helps you analyze currenc...", "description_zh": "", "downloads": 632, "homepage": "https://clawhub.ai/agenticio/forex", "iconUrl": null, "installs": 20, "name": "Forex", "ownerName": "agenticio", "score": 8858.985141575555, "slug": "forex", "source": "clawhub", "stars": 0, "tags": ["currency", "exchange", "forex", "international", "trading"], "updated_at": 1776769750080, "version": "1.0.0"}, {"category": "developer-tools", "created_at": 1772771597594, "description": "Get an independent risk assessment for any proposed Uniswap operation — swap, LP position, bridge, or token interaction. Evaluates slippage, impermanent loss, liquidity, smart contract, and bridge risks with a clear APPROVE or VETO decision. Use when the user asks if something is safe or wants a risk evaluation.", "description_zh": "", "downloads": 632, "homepage": "https://clawhub.ai/wpank/assess-risk", "iconUrl": null, "installs": 9, "name": "Uniswap Assess Risk", "ownerName": "wpank", "score": 29218.677762367086, "slug": "assess-risk", "source": "clawhub", "stars": 0, "tags": null, "updated_at": 1776769750061, "version": "0.1.0"}, {"category": "ai-intelligence", "created_at": 1772777302661, "description": "Validates Markdown files in the workspace for broken local links, missing file references, and basic syntax issues. Use to maintain documentation integrity a...", "description_zh": "", "downloads": 632, "homepage": "https://clawhub.ai/wanng-ide/markdown-linter", "iconUrl": null, "installs": 39, "name": "Markdown Linter", "ownerName": "wanng-ide", "score": 29218.677762367086, "slug": "markdown-linter", "source": "clawhub", "stars": 0, "tags": null, "updated_at": 1776769750030, "version": "1.0.0"}, {"category": "developer-tools", "created_at": 1772782206937, "description": "Spawn a new OpenClaw agent through conversation. Uses official Docker setup and non-interactive onboarding, carries over API keys, tools, plugins, and skills...", "description_zh": "", "downloads": 632, "homepage": "https://clawhub.ai/austineral/agent-spawner", "iconUrl": null, "installs": 8, "name": "Agent Spawner", "ownerName": "austineral", "score": 5491.831769204032, "slug": "agent-spawner", "source": "clawhub", "stars": 0, "tags": null, "updated_at": 1776769749983, "version": "0.1.0"}, {"category": "data-analysis", "created_at": 1772773819132, "description": "Generates structured RFP responses including executive summary, requirements matrix, pricing, risk mitigation, timeline, and differentiators from your input.", "description_zh": "", "downloads": 632, "homepage": "https://clawhub.ai/1kalin/afrexai-rfp-responder", "iconUrl": null, "installs": 7, "name": "RFP & Proposal Responder", "ownerName": "1kalin", "score": 21315.345699831367, "slug": "afrexai-rfp-responder", "source": "clawhub", "stars": 0, "tags": ["bidding", "business", "procurement", "proposal", "rfp", "sales"], "updated_at": 1776769749935, "version": "1.0.0"}, {"category": "developer-tools", "created_at": 1773073152109, "description": "Use when the task involves reading, creating, or editing `.docx` documents, especially when formatting or layout fidelity matters; prefer `python-docx` plus...", "description_zh": "", "downloads": 632, "homepage": "https://clawhub.ai/flywhale-666/doc", "iconUrl": null, "installs": 164, "name": "Doc", "ownerName": "flywhale-666", "score": 21315.345699831367, "slug": "doc", "source": "clawhub", "stars": 0, "tags": null, "updated_at": 1776769749913, "version": "1.0.0"}, {"category": "ai-intelligence", "created_at": 1772780780508, "description": "SoundCloud for AI bots. Generate tracks and podcasts, share on Moltbook, and earn from tips + royalties.", "description_zh": "", "downloads": 632, "homepage": "https://clawhub.ai/bnovik0v/moltdj", "iconUrl": null, "installs": 15, "name": "moltdj", "ownerName": "bnovik0v", "score": 21315.345699831367, "slug": "moltdj", "source": "clawhub", "stars": 0, "tags": null, "updated_at": 1776769749901, "version": "1.4.3"}, {"category": "ai-intelligence", "created_at": 1772790647691, "description": "Turn any idea into a finished podcast in one command. AudioMind handles ElevenLabs voice narration (29+ voices), AI background music, and server-side audio m...", "description_zh": "", "downloads": 631, "homepage": "https://clawhub.ai/wells1137/audiomind", "iconUrl": null, "installs": 62, "name": "Audiomind", "ownerName": "wells1137", "score": 37757.66716943187, "slug": "audiomind", "source": "clawhub", "stars": 6, "tags": ["audio", "elevenlabs", "fal", "music", "podcast", "sfx", "speech", "tts", "voice-clone"], "updated_at": 1776767050079, "version": "3.3.0"}, {"category": "ai-intelligence", "created_at": 1772780522461, "description": "Style outfits, decode dress codes, and shop smart with body-aware advice, trend intelligence, and practical constraints.", "description_zh": "", "downloads": 631, "homepage": "https://clawhub.ai/ivangdavila/fashion", "iconUrl": null, "installs": 44, "name": "Fashion", "ownerName": "ivangdavila", "score": 15916.722632639354, "slug": "fashion", "source": "clawhub", "stars": 4, "tags": null, "updated_at": 1776767949871, "version": "1.0.0"}, {"category": "content-creation", "created_at": 1772779298838, "description": "Design, test, review, and maintain agent skills for OpenClaw systems using multi-agent iterative refinement. Orchestrates Designer, Reviewer, and Tester suba...", "description_zh": "", "downloads": 631, "homepage": "https://clawhub.ai/chunhualiao/skill-engineer", "iconUrl": null, "installs": 40, "name": "Skill Engineer", "ownerName": "chunhualiao", "score": 3168.3068889335204, "slug": "skill-engineer", "source": "clawhub", "stars": 0, "tags": null, "updated_at": 1776770049751, "version": "3.2.0"}, {"category": "data-analysis", "created_at": 1772777452775, "description": "Generate unlimited business ideas with validation frameworks, market filters, and viability scoring.", "description_zh": "", "downloads": 631, "homepage": "https://clawhub.ai/ivangdavila/business-ideas", "iconUrl": null, "installs": 25, "name": "Business Ideas", "ownerName": "ivangdavila", "score": 18553.366656865626, "slug": "business-ideas", "source": "clawhub", "stars": 0, "tags": null, "updated_at": 1776769750192, "version": "1.0.0"}, {"category": "ai-intelligence", "created_at": 1772774887986, "description": "OpenClaw Solana Connect — Secure toolkit for AI agents to interact with Solana blockchain. Features private key protection, max limits, dry-run mode, and hum...", "description_zh": "", "downloads": 631, "homepage": "https://clawhub.ai/seenfinity/solana-connect", "iconUrl": null, "installs": 30, "name": "Solana Connect", "ownerName": "seenfinity", "score": 13220.196941127175, "slug": "solana-connect", "source": "clawhub", "stars": 0, "tags": null, "updated_at": 1776769750184, "version": "3.0.0"}, {"category": "security-compliance", "created_at": 1772774582949, "description": "Agent verification via ClawX OAuth system. Use when checking agent verification status, embedding verification widgets, or working with agent identity/trust tiers.", "description_zh": "", "downloads": 631, "homepage": "https://clawhub.ai/ianderrington/clawx", "iconUrl": null, "installs": 14, "name": "ClawX Agent Verification", "ownerName": "ianderrington", "score": 13220.196941127175, "slug": "clawx", "source": "clawhub", "stars": 0, "tags": null, "updated_at": 1776769750167, "version": "0.1.0"}, {"category": "communication-collaboration", "created_at": 1773024962626, "description": "Secure API key management for OpenClaw. Store, list, test, and delete API keys without exposing them in chat history. Keys are stored directly in openclaw.js...", "description_zh": "", "downloads": 631, "homepage": "https://clawhub.ai/christiancattaneo/ipeaky", "iconUrl": null, "installs": 13, "name": "ipeaky", "ownerName": "christiancattaneo", "score": 8844.967760022428, "slug": "ipeaky", "source": "clawhub", "stars": 0, "tags": null, "updated_at": 1776769750132, "version": "3.2.0"}, {"category": "developer-tools", "created_at": 1772774246431, "description": "Spotify Web API client for Nyx agents. Use when interacting with Spotify: search, playback, playlists, library, tracks, artists, albums, shows, podcasts. Req...", "description_zh": "", "downloads": 631, "homepage": "https://clawhub.ai/ledzgio/spoticlaw", "iconUrl": null, "installs": 26, "name": "SpotiClaw", "ownerName": "ledzgio", "score": 8844.967760022428, "slug": "spoticlaw", "source": "clawhub", "stars": 0, "tags": null, "updated_at": 1776769750122, "version": "1.0.7"}, {"category": "ai-intelligence", "created_at": 1772777767872, "description": "Watchdog that monitors your AI agent gateway and restarts it when it crashes. Triggers on \"install defibrillator\", \"agent watchdog\", \"gateway monitor\", \"auto...", "description_zh": "", "downloads": 631, "homepage": "https://clawhub.ai/hazy2go/agent-defibrillator", "iconUrl": null, "installs": 30, "name": "Agent Defibrillator", "ownerName": "hazy2go", "score": 8844.967760022428, "slug": "agent-defibrillator", "source": "clawhub", "stars": 0, "tags": null, "updated_at": 1776769750120, "version": "1.0.1"}, {"category": "developer-tools", "created_at": 1773907606410, "description": "Work with Obsidian vaults (plain Markdown notes) and automate via obsidian-cli.", "description_zh": "", "downloads": 631, "homepage": "https://clawhub.ai/terryren2024/obsidian-1-0-0", "iconUrl": null, "installs": 44, "name": "Obsidian 1.0.0", "ownerName": "terryren2024", "score": 8844.967760022428, "slug": "obsidian-1-0-0", "source": "clawhub", "stars": 0, "tags": null, "updated_at": 1776769750108, "version": "1.0.0"}, {"category": "data-analysis", "created_at": 1772775562576, "description": "Stop making the same mistakes — turn failures into patterns that prevent recurrence", "description_zh": "", "downloads": 631, "homepage": "https://clawhub.ai/leegitw/failure-memory", "iconUrl": null, "installs": 11, "name": "Failure Memory", "ownerName": "leegitw", "score": 8844.967760022428, "slug": "failure-memory", "source": "clawhub", "stars": 0, "tags": ["adaptive", "agentic", "error-tracking", "failure", "feedback", "learning", "memory", "observability", "observation", "observations", "pattern", "patterns", "rcd-counters", "self-improving"], "updated_at": 1776769750105, "version": "1.5.0"}, {"category": "developer-tools", "created_at": 1772774881249, "description": "A CLI tool that executes Python source code to manage todos via Linear's API. Creates tasks with natural language dates, priorities, and scheduling. This is...", "description_zh": "", "downloads": 631, "homepage": "https://clawhub.ai/avegancafe/linear-todos", "iconUrl": null, "installs": 13, "name": "Linear Todos", "ownerName": "avegancafe", "score": 29172.445677300046, "slug": "linear-todos", "source": "clawhub", "stars": 0, "tags": null, "updated_at": 1776769750076, "version": "1.1.0"}, {"category": "productivity", "created_at": 1772782998243, "description": "Proactive immortal — behavior ontology (learn remember stuck) hooks kick in · IPFS soul · Solvr · self-heals on boot · disk check · watchdog 🏴‍☠️", "description_zh": "", "downloads": 631, "homepage": "https://clawhub.ai/fcavalcantirj/proactive-amcp", "iconUrl": null, "installs": 46, "name": "Proactive AMCP", "ownerName": "fcavalcantirj", "score": 5944.978330506878, "slug": "proactive-amcp", "source": "clawhub", "stars": 0, "tags": null, "updated_at": 1776769749763, "version": "1.0.8"}, {"category": "developer-tools", "created_at": 1772787190712, "description": "Expert SurrealDB 3 architect and developer skill. SurrealQL mastery, multi-model data modeling (document, graph, vector, time-series, geospatial), schema des...", "description_zh": "", "downloads": 630, "homepage": "https://clawhub.ai/24601/surrealdb", "iconUrl": null, "installs": 17, "name": "SurrealDB 3", "ownerName": "24601", "score": 7151.0001036376825, "slug": "surrealdb", "source": "clawhub", "stars": 3, "tags": ["ai-agents", "database", "graph", "openclaw", "surrealdb", "vector"], "updated_at": 1776768550130, "version": "1.2.1"}, {"category": "developer-tools", "created_at": 1772775390388, "description": "Autonomous skill generation agent that picks up community ideas, uses evolved builder tools to produce Agent Skills, and publishes them back to the Skill Soup ecosystem. Also supports community actions — submitting ideas, voting on ideas, and voting on skills.", "description_zh": "", "downloads": 630, "homepage": "https://clawhub.ai/bennettphil/skill-soup", "iconUrl": null, "installs": 19, "name": "Skill Soup", "ownerName": "bennettphil", "score": 17776.598567259218, "slug": "skill-soup", "source": "clawhub", "stars": 2, "tags": null, "updated_at": 1776768850403, "version": "0.5.0"}, {"category": "developer-tools", "created_at": 1772787857151, "description": "Cross-asset market intelligence API for AI agents. 130+ endpoints across macro regime detection, risk scoring, trading signals (IGNITION/ACCUMULATION/DISTRIB...", "description_zh": "", "downloads": 630, "homepage": "https://clawhub.ai/mrcerq/agentcanary", "iconUrl": null, "installs": 12, "name": "AgentCanary", "ownerName": "mrcerq", "score": 5524.861878453038, "slug": "agentcanary", "source": "clawhub", "stars": 1, "tags": ["api", "crypto", "finance", "macro", "market-intelligence", "signals", "trading", "whale-alerts"], "updated_at": 1776769271256, "version": "1.0.3"}, {"category": "data-analysis", "created_at": 1772771057155, "description": "Scan for LP opportunities, arbitrage, and high-yield pools across all Uniswap deployments. Use when the user asks about the best opportunities, high-yield pools, or arbitrage.", "description_zh": "", "downloads": 630, "homepage": "https://clawhub.ai/wpank/scan-opportunities", "iconUrl": null, "installs": 11, "name": "Uniswap Scan Opportunities", "ownerName": "wpank", "score": 3884.812234075353, "slug": "scan-opportunities", "source": "clawhub", "stars": 0, "tags": null, "updated_at": 1776769790469, "version": "0.1.0"}, {"category": "data-analysis", "created_at": 1772770657712, "description": "Naruto-themed multi-agent dispatcher. You are Tsunade, the 5th Hokage, assigning missions to 5 elite shinobi (sub-agents). Automatic mission rank assessment (S/A/B/C/D), immersive roleplay, and round-robin dispatch.", "description_zh": "", "downloads": 630, "homepage": "https://clawhub.ai/be1human/naruto-multi-agent", "iconUrl": null, "installs": 8, "name": "Naruto Multi-Agent", "ownerName": "be1human", "score": 18523.963540135253, "slug": "naruto-multi-agent", "source": "clawhub", "stars": 0, "tags": null, "updated_at": 1776769790430, "version": "1.0.0"}, {"category": "data-analysis", "created_at": 1772777929860, "description": "Analyze your portfolio to identify concentration risks, calculate Value at Risk, estimate drawdowns, beta, Sharpe ratio, income, run stress tests, and sugges...", "description_zh": "", "downloads": 630, "homepage": "https://clawhub.ai/1kalin/afrexai-portfolio-risk", "iconUrl": null, "installs": 9, "name": "Portfolio Risk Analyzer", "ownerName": "1kalin", "score": 18523.963540135253, "slug": "afrexai-portfolio-risk", "source": "clawhub", "stars": 0, "tags": ["crypto", "finance", "investing", "portfolio", "risk", "stocks"], "updated_at": 1776769790412, "version": "1.0.0"}, {"category": "content-creation", "created_at": 1773065786574, "description": "Visualize interior design transformations using each::sense AI. Redesign rooms, change styles, update color schemes, and preview renovations from photos of y...", "description_zh": "", "downloads": 630, "homepage": "https://clawhub.ai/eftalyurtseven/interior-design-visualization", "iconUrl": null, "installs": 128, "name": "Interior Design Visualization", "ownerName": "eftalyurtseven", "score": 8830.950378469302, "slug": "interior-design-visualization", "source": "clawhub", "stars": 0, "tags": null, "updated_at": 1776769750120, "version": "1.0.0"}, {"category": "content-creation", "created_at": 1772784376173, "description": "Create hand-drawn style Excalidraw diagrams, flowcharts, and architecture visuals as PNG images", "description_zh": "", "downloads": 630, "homepage": "https://clawhub.ai/plgonzalezrx8/excalidraw-creator", "iconUrl": null, "installs": 78, "name": "Excalidraw Creator", "ownerName": "plgonzalezrx8", "score": 8830.950378469302, "slug": "excalidraw-creator", "source": "clawhub", "stars": 0, "tags": null, "updated_at": 1776769750118, "version": "1.0.0"}, {"category": "content-creation", "created_at": 1772772133919, "description": "Write Malay that sounds human. Not formal, not robotic, not AI-generated.", "description_zh": "", "downloads": 629, "homepage": "https://clawhub.ai/ivangdavila/malay", "iconUrl": null, "installs": 27, "name": "Malay", "ownerName": "ivangdavila", "score": 6312.511794678241, "slug": "malay", "source": "clawhub", "stars": 2, "tags": null, "updated_at": 1776769450258, "version": "1.0.0"}, {"category": "developer-tools", "created_at": 1772776181899, "description": "Control Apple Find My app via Peekaboo to locate people, devices, and items (AirTags). Use when asked to find keys, wallet, AirTags, locate family members an...", "description_zh": "", "downloads": 629, "homepage": "https://clawhub.ai/loganprit/apple-find-my-local", "iconUrl": null, "installs": 18, "name": "Find My", "ownerName": "loganprit", "score": 4938.7272995718295, "slug": "apple-find-my-local", "source": "clawhub", "stars": 2, "tags": null, "updated_at": 1776768849806, "version": "1.0.2"}, {"category": "data-analysis", "created_at": 1772776193289, "description": "Tracks and analyzes competitor moves — pricing changes, feature launches, hiring, and positioning shifts", "description_zh": "", "downloads": 629, "homepage": "https://clawhub.ai/1kalin/afrexai-competitor-monitor", "iconUrl": null, "installs": 14, "name": "AfrexAI Competitor Monitor", "ownerName": "1kalin", "score": 5493.929600838502, "slug": "afrexai-competitor-monitor", "source": "clawhub", "stars": 0, "tags": null, "updated_at": 1776769871055, "version": "1.0.0"}, {"category": "ai-intelligence", "created_at": 1772772433755, "description": "Submit and consume discoveries from the HiveFound collective intelligence network. Use when finding interesting articles, research, news, or resources worth sharing with other AI agents. Also use to search the network for what other agents have discovered, check trends, or mark discoveries you've actually used.", "description_zh": "", "downloads": 629, "homepage": "https://clawhub.ai/iamdoctorclaw/hivefound", "iconUrl": null, "installs": 23, "name": "HiveFound", "ownerName": "iamdoctorclaw", "score": 5493.929600838502, "slug": "hivefound", "source": "clawhub", "stars": 0, "tags": null, "updated_at": 1776769871042, "version": "1.2.0"}, {"category": "data-analysis", "created_at": 1772791385418, "description": "Score and optimize tweets based on X's real open-source ranking algorithm. Analyzes draft tweets against the actual ranking code — not generic tips. Use when...", "description_zh": "", "downloads": 629, "homepage": "https://clawhub.ai/minilozio/tweet-composer", "iconUrl": null, "installs": 10, "name": "Tweet Composer", "ownerName": "minilozio", "score": 5493.929600838502, "slug": "tweet-composer", "source": "clawhub", "stars": 0, "tags": null, "updated_at": 1776769790695, "version": "1.0.0"}, {"category": "ai-intelligence", "created_at": 1772776008872, "description": "Create distinctive AI agent personalities with detailed SOUL.md templates covering identity, traits, expertise, response style, and safety rules for consiste...", "description_zh": "", "downloads": 629, "homepage": "https://clawhub.ai/neal-collab/agent-soul-crafter", "iconUrl": null, "installs": 35, "name": "Agent Soul Crafter", "ownerName": "neal-collab", "score": 5493.929600838502, "slug": "agent-soul-crafter", "source": "clawhub", "stars": 0, "tags": null, "updated_at": 1776769790540, "version": "1.1.1"}, {"category": "data-analysis", "created_at": 1772773641697, "description": "A skill for OpenClaw to research crypto market trends (technical & sentiment) and trade ETH on Binance.", "description_zh": "", "downloads": 629, "homepage": "https://clawhub.ai/dymx101/clap-trader", "iconUrl": null, "installs": 15, "name": "Clap Trader", "ownerName": "dymx101", "score": 3878.645865449837, "slug": "clap-trader", "source": "clawhub", "stars": 0, "tags": null, "updated_at": 1776769790525, "version": "1.0.0"}, {"category": "developer-tools", "created_at": 1772783105669, "description": "Financial data SDK for AI Agents. 218+ read-only endpoints for market data, prices, fundamentals. Built for Cursor, Claude, OpenClaw. Data retrieval only.", "description_zh": "", "downloads": 629, "homepage": "https://clawhub.ai/strykragent/prism-finance-os", "iconUrl": null, "installs": 55, "name": "PRISM OS SDK", "ownerName": "strykragent", "score": 18494.56042340488, "slug": "prism-finance-os", "source": "clawhub", "stars": 0, "tags": null, "updated_at": 1776769790438, "version": "0.1.2"}, {"category": "security-compliance", "created_at": 1772775259456, "description": "🩺 Free Security & Health Audit. Your OpenClaw deserves a check-up. This skill performs a non-invasive scan to detect security risks, outdated software, and misconfigurations.", "description_zh": "", "downloads": 629, "homepage": "https://clawhub.ai/bamontejano/skill-doctorbot-healthcheck-free", "iconUrl": null, "installs": 18, "name": "Doctorbot Healthcheck Free", "ownerName": "bamontejano", "score": 18494.56042340488, "slug": "skill-doctorbot-healthcheck-free", "source": "clawhub", "stars": 0, "tags": null, "updated_at": 1776769790432, "version": "0.1.0"}]}