{"page": 147, "total_pages": 522, "total": 26073, "skills": [{"category": "content-creation", "created_at": 1772772312765, "description": "Write Persian that sounds human. Not formal, not robotic, not AI-generated.", "description_zh": "", "downloads": 628, "homepage": "https://clawhub.ai/ivangdavila/persian", "iconUrl": null, "installs": 32, "name": "Persian", "ownerName": "ivangdavila", "score": 8005.75263662512, "slug": "persian", "source": "clawhub", "stars": 2, "tags": null, "updated_at": 1776769490489, "version": "1.0.0"}, {"category": "ai-intelligence", "created_at": 1772780234815, "description": "Local-first long-term memory for autonomous agents. Built for OpenClaw. Creates wiki knowledge graph from conversations, scores events by surprise, detects c...", "description_zh": "", "downloads": 628, "homepage": "https://clawhub.ai/widingmarcus-cyber/mindgardener", "iconUrl": null, "installs": 46, "name": "MindGardener", "ownerName": "widingmarcus-cyber", "score": 9429.70073404856, "slug": "mindgardener", "source": "clawhub", "stars": 2, "tags": null, "updated_at": 1776768849986, "version": "1.1.0"}, {"category": "data-analysis", "created_at": 1772792733268, "description": "Open agent registry — discover and hire 26 autonomous AI agents by capability. Supports Bitcoin Lightning, Solana USDC, and Base x402. Includes orchestrator...", "description_zh": "", "downloads": 628, "homepage": "https://clawhub.ai/yebdmo2/aiprox", "iconUrl": null, "installs": 13, "name": "Aiprox", "ownerName": "yebdmo2", "score": 2681.812358542939, "slug": "aiprox", "source": "clawhub", "stars": 0, "tags": null, "updated_at": 1776770350263, "version": "3.0.0"}, {"category": "data-analysis", "created_at": 1772785951702, "description": "Detect the current macro regime (Risk-On, Risk-Off, Inflationary, Deflationary, Stagflation) using multi-source intelligence. Combines Fear & Greed, DXY, yie...", "description_zh": "", "downloads": 628, "homepage": "https://clawhub.ai/jamierossouw/macro-regime-detector", "iconUrl": null, "installs": 25, "name": "Macro Regime Detector", "ownerName": "jamierossouw", "score": 9921.011058451817, "slug": "macro-regime-detector", "source": "clawhub", "stars": 0, "tags": null, "updated_at": 1776769871281, "version": "1.0.0"}, {"category": "productivity", "created_at": 1773064602049, "description": "Convert Markdown files to professional PDF documents with full CJK (Chinese/Japanese/Korean) support. Uses reportlab for reliable rendering without external...", "description_zh": "", "downloads": 628, "homepage": "https://clawhub.ai/zacjiang/md-to-pdf-cjk", "iconUrl": null, "installs": 128, "name": "Markdown to PDF (CJK)", "ownerName": "zacjiang", "score": 5091.616669369223, "slug": "md-to-pdf-cjk", "source": "clawhub", "stars": 0, "tags": null, "updated_at": 1776769871186, "version": "1.0.0"}, {"category": "content-creation", "created_at": 1772775362398, "description": "Extract and monitor Apple Notes content for workflow integration. Supports bulk extraction, real-time monitoring, and export to various formats.", "description_zh": "", "downloads": 628, "homepage": "https://clawhub.ai/ianderrington/apple-notes-extractor", "iconUrl": null, "installs": 37, "name": "Apple Notes Extractor", "ownerName": "ianderrington", "score": 5091.616669369223, "slug": "apple-notes-extractor", "source": "clawhub", "stars": 0, "tags": null, "updated_at": 1776769871181, "version": "1.0.0"}, {"category": "developer-tools", "created_at": 1772780500204, "description": "Optimizes file reading by smartly extracting head/tail lines, matching patterns, or showing git diffs to minimize token use and latency.", "description_zh": "", "downloads": 628, "homepage": "https://clawhub.ai/autogame-17/read-optimizer", "iconUrl": null, "installs": 14, "name": "Read Optimizer", "ownerName": "autogame-17", "score": 5091.616669369223, "slug": "read-optimizer", "source": "clawhub", "stars": 0, "tags": null, "updated_at": 1776769871154, "version": "1.0.0"}, {"category": "productivity", "created_at": 1773067018083, "description": "Generate comprehensive market research reports (50+ pages) in the style of top consulting firms (McKinsey, BCG, Gartner). Features professional LaTeX formatt...", "description_zh": "", "downloads": 628, "homepage": "https://clawhub.ai/yumoezhung/market-research-reports", "iconUrl": null, "installs": 135, "name": "Market Research Reports", "ownerName": "yumoezhung", "score": 6368.522462224926, "slug": "market-research-reports", "source": "clawhub", "stars": 0, "tags": null, "updated_at": 1776769871129, "version": "1.0.0"}, {"category": "ai-intelligence", "created_at": 1772781869327, "description": "Track international packages by tracking number. Supports 3100+ carriers (China Post, DHL, FedEx, UPS, USPS, Yanwen, Cainiao, etc.) via 17track. Optional: se...", "description_zh": "", "downloads": 628, "homepage": "https://clawhub.ai/shopmeskills/logistics-tracking", "iconUrl": null, "installs": 33, "name": "Logistics Tracking", "ownerName": "shopmeskills", "score": 6368.522462224926, "slug": "logistics-tracking", "source": "clawhub", "stars": 0, "tags": null, "updated_at": 1776769871115, "version": "1.0.1"}, {"category": "ai-intelligence", "created_at": 1772779948476, "description": "Repair malformed JSON files by normalizing them through Node.js evaluation. Use this to fix trailing commas, single quotes, unquoted keys, or other common sy...", "description_zh": "", "downloads": 628, "homepage": "https://clawhub.ai/wanng-ide/json-repair-kit", "iconUrl": null, "installs": 49, "name": "Json Repair Kit", "ownerName": "wanng-ide", "score": 5485.195213555769, "slug": "json-repair-kit", "source": "clawhub", "stars": 0, "tags": null, "updated_at": 1776769871068, "version": "1.0.0"}, {"category": "data-analysis", "created_at": 1772771998166, "description": "Comprehensive LP strategy comparison for a token pair — evaluates all versions, fee tiers, range widths, and rebalance approaches side-by-side with APY, IL, gas costs, and risk ratings. Use when the user wants to compare LP options or see a detailed analysis of all strategies.", "description_zh": "", "downloads": 628, "homepage": "https://clawhub.ai/wpank/lp-strategy", "iconUrl": null, "installs": 18, "name": "Uniswap Lp Strategy", "ownerName": "wpank", "score": 5485.195213555769, "slug": "lp-strategy", "source": "clawhub", "stars": 0, "tags": null, "updated_at": 1776769871063, "version": "0.1.0"}, {"category": "productivity", "created_at": 1772774091350, "description": "Price items accurately, create compelling listings, choose platforms, and handle negotiations.", "description_zh": "", "downloads": 627, "homepage": "https://clawhub.ai/ivangdavila/sell", "iconUrl": null, "installs": 33, "name": "Sell", "ownerName": "ivangdavila", "score": 26608.957470831767, "slug": "sell", "source": "clawhub", "stars": 4, "tags": null, "updated_at": 1776768071158, "version": "1.0.0"}, {"category": "security-compliance", "created_at": 1772780159482, "description": "Complete cybersecurity assessment, threat modeling, and hardening system. Use when conducting security audits, threat modeling, penetration testing, incident...", "description_zh": "", "downloads": 627, "homepage": "https://clawhub.ai/1kalin/afrexai-cybersecurity-engine", "iconUrl": null, "installs": 46, "name": "Cybersecurity Engine", "ownerName": "1kalin", "score": 12651.331719128328, "slug": "afrexai-cybersecurity-engine", "source": "clawhub", "stars": 0, "tags": ["cybersecurity", "infosec", "owasp", "pentest", "security"], "updated_at": 1776769871209, "version": "1.0.0"}, {"category": "security-compliance", "created_at": 1772777466138, "description": "Smart dependency health check — security audit, outdated detection, unused deps, and prioritized update plan", "description_zh": "", "downloads": 627, "homepage": "https://clawhub.ai/fratua/dependency-audit", "iconUrl": null, "installs": 15, "name": "Dependency Audit", "ownerName": "fratua", "score": 5083.5089995135395, "slug": "dependency-audit", "source": "clawhub", "stars": 0, "tags": null, "updated_at": 1776769871162, "version": "1.0.0"}, {"category": "ai-intelligence", "created_at": 1772775006314, "description": "Humanity vs AI — one chessboard, majority-rules moves. Pick a side and vote.", "description_zh": "", "downloads": 627, "homepage": "https://clawhub.ai/ynohtna92/man-vs-claw", "iconUrl": null, "installs": 26, "name": "Man vs Claw", "ownerName": "ynohtna92", "score": 5083.5089995135395, "slug": "man-vs-claw", "source": "clawhub", "stars": 0, "tags": ["ai", "chess", "games"], "updated_at": 1776769871153, "version": "1.0.0"}, {"category": "security-compliance", "created_at": 1772774727261, "description": "Connect to security cameras, capture snapshots, and process video feeds with protocol support.", "description_zh": "", "downloads": 626, "homepage": "https://clawhub.ai/ivangdavila/cameras", "iconUrl": null, "installs": 14, "name": "Cameras", "ownerName": "ivangdavila", "score": 9512.926724753606, "slug": "cameras", "source": "clawhub", "stars": 2, "tags": null, "updated_at": 1776768971213, "version": "1.0.1"}, {"category": "developer-tools", "created_at": 1772795382185, "description": "Advanced web scraping with anti-bot bypass, JavaScript support, and adaptive selectors. Use when scraping websites with Cloudflare protection, dynamic conten...", "description_zh": "", "downloads": 626, "homepage": "https://clawhub.ai/cryptos3c/openclaw-scrapling", "iconUrl": null, "installs": 38, "name": "OpenClaw Scrapling", "ownerName": "cryptos3c", "score": 9889.415481832544, "slug": "openclaw-scrapling", "source": "clawhub", "stars": 0, "tags": null, "updated_at": 1776769871277, "version": "1.0.0"}, {"category": "ai-intelligence", "created_at": 1772776277546, "description": "Plan, track, and deliver projects using tailored frameworks, ensuring scope clarity, risk management, schedule control, and stakeholder alignment for on-time...", "description_zh": "", "downloads": 626, "homepage": "https://clawhub.ai/1kalin/afrexai-project-manager", "iconUrl": null, "installs": 26, "name": "Project Manager", "ownerName": "1kalin", "score": 5075.401329657856, "slug": "afrexai-project-manager", "source": "clawhub", "stars": 0, "tags": ["agile", "management", "planning", "project"], "updated_at": 1776769871177, "version": "1.0.0"}, {"category": "content-creation", "created_at": 1772782970436, "description": "Generate professional portrait photography using Google Imagen 3. Use when creating realistic portraits, headshots, or artistic character photography with pr...", "description_zh": "", "downloads": 626, "homepage": "https://clawhub.ai/questlmuc/google-imagen-3-portrait-photography", "iconUrl": null, "installs": 55, "name": "Google Imagen 3 Portrait Photography", "ownerName": "questlmuc", "score": 6348.240543555421, "slug": "google-imagen-3-portrait-photography", "source": "clawhub", "stars": 0, "tags": null, "updated_at": 1776769871090, "version": "1.0.0"}, {"category": "content-creation", "created_at": 1772776168754, "description": "Print images and PDFs to any CUPS printer. PPD-aware: reads paper sizes, margins, resolution, and duplex at runtime. Use when the user wants to print files (...", "description_zh": "", "downloads": 626, "homepage": "https://clawhub.ai/odrobnik/cups-printer", "iconUrl": null, "installs": 43, "name": "Printer", "ownerName": "odrobnik", "score": 5467.726438990305, "slug": "cups-printer", "source": "clawhub", "stars": 0, "tags": null, "updated_at": 1776769871057, "version": "1.2.2"}, {"category": "data-analysis", "created_at": 1772776747546, "description": "Evaluate any address for home buyers and renters. Get nearby schools, transit, grocery stores, parks, restaurants, and walkability using Camino AI's location...", "description_zh": "", "downloads": 625, "homepage": "https://clawhub.ai/james-southendsolutions/camino-real-estate", "iconUrl": null, "installs": 19, "name": "Real Estate Intelligence", "ownerName": "james-southendsolutions", "score": 79171.0945802338, "slug": "camino-real-estate", "source": "clawhub", "stars": 6, "tags": null, "updated_at": 1776767049980, "version": "0.2.0"}, {"category": "data-analysis", "created_at": 1772771200103, "description": "Assist with Arbitrum One transactions, bridging, gas optimization, and L2 ecosystem navigation.", "description_zh": "", "downloads": 625, "homepage": "https://clawhub.ai/ivangdavila/arbitrum", "iconUrl": null, "installs": 9, "name": "Arbitrum", "ownerName": "ivangdavila", "score": 24584.103512014786, "slug": "arbitrum", "source": "clawhub", "stars": 2, "tags": null, "updated_at": 1776768971238, "version": "1.0.0"}, {"category": "developer-tools", "created_at": 1772780719882, "description": "Provides a structured MBA curriculum with theory, case studies, exercises, and real-world application for business strategy, finance, marketing, leadership,...", "description_zh": "", "downloads": 625, "homepage": "https://clawhub.ai/ivangdavila/mba", "iconUrl": null, "installs": 84, "name": "MBA", "ownerName": "ivangdavila", "score": 9498.643050992716, "slug": "mba", "source": "clawhub", "stars": 2, "tags": null, "updated_at": 1776768971235, "version": "1.0.0"}, {"category": "data-analysis", "created_at": 1772774654961, "description": "10-dimension weighted scoring framework for prediction market trade evaluation.\nEnforces disciplined position sizing, circuit breakers, and mandatory counter-arguments.\n\nUse when: evaluating prediction market trades, scoring opportunities, deciding position sizes,\ncomparing Polymarket/Kalshi opportunities, running pre-trade checklists.\n\nDon't use when: general crypto analysis, DeFi yield farming, non-prediction-market investments,\nstock/equity analysis, sports betting (different framework needed).\n\nNegative examples:\n- \"Should I buy ETH?\" → No. This is for prediction markets with binary/discrete outcomes.\n- \"What's the best DeFi yield?\" → No. Wrong domain entirely.\n- \"Score this sports bet\" → No. Sports betting has different dimensions (injuries, matchups).\n\nEdge cases:\n- Crypto prediction markets (e.g., \"Will BTC hit $X?\") → YES, use this if on Polymarket/Kalshi.\n- Multi-outcome markets → Score each outcome separately.\n- Markets with <$25 liquidity → Auto-fail on Liquidity dimension.", "description_zh": "", "downloads": 625, "homepage": "https://clawhub.ai/staybased/trade-validation", "iconUrl": null, "installs": 35, "name": "Trade Validation", "ownerName": "staybased", "score": 21314.102564102563, "slug": "trade-validation", "source": "clawhub", "stars": 2, "tags": null, "updated_at": 1776768971084, "version": "1.0.0"}, {"category": "content-creation", "created_at": 1772790016535, "description": "Periodically reviews conversation history and writes memory files to maintain agent continuity across sessions. Dual-layer system with daily raw notes and cu...", "description_zh": "", "downloads": 625, "homepage": "https://clawhub.ai/meimakes/daily-memory-save", "iconUrl": null, "installs": 27, "name": "Daily Memory Save", "ownerName": "meimakes", "score": 5923.047763457164, "slug": "daily-memory-save", "source": "clawhub", "stars": 0, "tags": null, "updated_at": 1776770050090, "version": "1.0.3"}, {"category": "data-analysis", "created_at": 1772778735702, "description": "Generate a production-quality README.md by analyzing project structure, framework, and code", "description_zh": "", "downloads": 625, "homepage": "https://clawhub.ai/fratua/readme-generator", "iconUrl": null, "installs": 16, "name": "README Generator", "ownerName": "fratua", "score": 2200.5492570945707, "slug": "readme-generator", "source": "clawhub", "stars": 0, "tags": null, "updated_at": 1776770050061, "version": "1.0.0"}, {"category": "ai-intelligence", "created_at": 1772782341407, "description": "Transcribe, index, and semantically search all voice recordings, extracting action items and meeting insights for comprehensive conversation intelligence.", "description_zh": "", "downloads": 625, "homepage": "https://clawhub.ai/asabovetech/pocket-ai", "iconUrl": null, "installs": 31, "name": "Pocket AI Integration", "ownerName": "asabovetech", "score": 12610.976594027443, "slug": "pocket-ai", "source": "clawhub", "stars": 0, "tags": null, "updated_at": 1776769871250, "version": "1.0.1"}, {"category": "ai-intelligence", "created_at": 1772778265869, "description": "Give isolated sessions (cron jobs, sub-agents, event handlers) full conversation context from your main session using sessions_history. Run cheap background...", "description_zh": "", "downloads": 625, "homepage": "https://clawhub.ai/rgba-research/context-aware-delegation", "iconUrl": null, "installs": 37, "name": "Context-Aware Delegation (SmartBeat)", "ownerName": "rgba-research", "score": 12610.976594027443, "slug": "context-aware-delegation", "source": "clawhub", "stars": 0, "tags": null, "updated_at": 1776769871227, "version": "1.0.2"}, {"category": "content-creation", "created_at": 1772772034085, "description": "Write Ukrainian that sounds human. Not formal, not robotic, not AI-generated.", "description_zh": "", "downloads": 624, "homepage": "https://clawhub.ai/ivangdavila/ukrainian", "iconUrl": null, "installs": 32, "name": "Ukrainian", "ownerName": "ivangdavila", "score": 12167.857797324537, "slug": "ukrainian", "source": "clawhub", "stars": 2, "tags": null, "updated_at": 1776769490421, "version": "1.0.0"}, {"category": "data-analysis", "created_at": 1772774835736, "description": "Track and analyze OpenClaw token usage across main, cron, and sub-agent sessions with category, client, model, and tool attribution. Use when the user asks where tokens are being spent, wants daily/weekly token reports, needs per-session drilldowns, or is planning token-cost optimizations and needs evidence from transcript data.", "description_zh": "", "downloads": 624, "homepage": "https://clawhub.ai/mkhaytman87/token-counter", "iconUrl": null, "installs": 18, "name": "Token Counter", "ownerName": "mkhaytman87", "score": 24547.13493530499, "slug": "token-counter", "source": "clawhub", "stars": 2, "tags": null, "updated_at": 1776768971252, "version": "1.0.0"}, {"category": "developer-tools", "created_at": 1774616286748, "description": "Curated list of 5,400+ community-built OpenClaw skills for discovery, installation, workflow automation, and contribution via ClawHub and CLI tools.", "description_zh": "", "downloads": 624, "homepage": "https://clawhub.ai/adisinghstudent/awesome-openclaw-skills", "iconUrl": null, "installs": 63, "name": "awesome-openclaw-skills", "ownerName": "adisinghstudent", "score": 11239.092495636998, "slug": "awesome-openclaw-skills", "source": "clawhub", "stars": 1, "tags": null, "updated_at": 1776769449865, "version": "1.0.0"}, {"category": "ai-intelligence", "created_at": 1772772913072, "description": "Alias for raon-os — AI-powered startup companion for Korean founders. Install the main package for full functionality.", "description_zh": "", "downloads": 624, "homepage": "https://clawhub.ai/lifeissea/startup-agent", "iconUrl": null, "installs": 5, "name": "Startup Agent (→ raon-os)", "ownerName": "lifeissea", "score": 15979.513444302176, "slug": "startup-agent", "source": "clawhub", "stars": 0, "tags": null, "updated_at": 1776770050188, "version": "0.7.27"}, {"category": "content-creation", "created_at": 1773078420680, "description": "Design, debug, and harden GitHub Actions workflows with reusable pipelines, safe permissions, and faster CI and release automation.", "description_zh": "", "downloads": 624, "homepage": "https://clawhub.ai/ivangdavila/github-actions", "iconUrl": null, "installs": 67, "name": "GitHub Actions", "ownerName": "ivangdavila", "score": 4835.709857408556, "slug": "github-actions", "source": "clawhub", "stars": 0, "tags": null, "updated_at": 1776770050161, "version": "1.0.0"}, {"category": "ai-intelligence", "created_at": 1772774975452, "description": "Persist agent state across crashes, context deaths, and restarts. Use when you need to save current context, restore after a crash, maintain a memory file ac...", "description_zh": "", "downloads": 624, "homepage": "https://clawhub.ai/trypto1019/arc-wake-state", "iconUrl": null, "installs": 33, "name": "Arc Wake State Persistence", "ownerName": "trypto1019", "score": 4835.709857408556, "slug": "arc-wake-state", "source": "clawhub", "stars": 0, "tags": ["memory", "persistence", "recovery"], "updated_at": 1776770050142, "version": "1.0.0"}, {"category": "content-creation", "created_at": 1772780866121, "description": "Feishu/Lark Bot API wrapper for full-featured Feishu bot interactions. Use when users need to send messages (text, image, audio, file, post, interactive, sha...", "description_zh": "", "downloads": 624, "homepage": "https://clawhub.ai/wangyendt/lark-bot", "iconUrl": null, "installs": 61, "name": "Pywayne Lark Bot", "ownerName": "wangyendt", "score": 2197.0283782832194, "slug": "lark-bot", "source": "clawhub", "stars": 0, "tags": null, "updated_at": 1776770050068, "version": "0.1.0"}, {"category": "developer-tools", "created_at": 1772776413483, "description": "Build, backtest, and deploy cryptocurrency trading strategies using the vibetrading Python framework. Use when: (1) generating trading strategies from natura...", "description_zh": "", "downloads": 624, "homepage": "https://clawhub.ai/crabbytt/vibetrading", "iconUrl": null, "installs": 18, "name": "Vibetrading", "ownerName": "crabbytt", "score": 2197.0283782832194, "slug": "vibetrading", "source": "clawhub", "stars": 0, "tags": null, "updated_at": 1776770050065, "version": "1.0.1"}, {"category": "", "created_at": 1774864148700, "description": "Use when working in the PPTAgent or BotSlide repository to add features, fix bugs, or adjust slide generation, editing, export, prompt rules, project version...", "description_zh": "", "downloads": 624, "homepage": "https://clawhub.ai/mrguanglei/ppt-collab", "iconUrl": null, "installs": 308, "name": "PPTAgent 协作助手", "ownerName": "mrguanglei", "score": 12868.6327077748, "slug": "ppt-collab", "source": "clawhub", "stars": 0, "tags": null, "updated_at": 1776770050046, "version": "1.0.0"}, {"category": "developer-tools", "created_at": 1772773778248, "description": "AgoraHub agent registry — discover and use 14+ verified AI agents for dev tasks like hashing, encoding, formatting, and more. No signup needed for demo agents.", "description_zh": "", "downloads": 624, "homepage": "https://clawhub.ai/codevena/agorahub", "iconUrl": null, "installs": 10, "name": "AgoraHub", "ownerName": "codevena", "score": 5152.766308835673, "slug": "agorahub", "source": "clawhub", "stars": 0, "tags": null, "updated_at": 1776770049988, "version": "1.0.0"}, {"category": "content-creation", "created_at": 1772776064135, "description": "Voice design workflows with Alibaba Cloud Model Studio Qwen TTS VD models. Use when creating custom synthetic voices from text descriptions and using them fo...", "description_zh": "", "downloads": 624, "homepage": "https://clawhub.ai/cinience/alicloud-ai-audio-tts-voice-design", "iconUrl": null, "installs": 49, "name": "Alicloud Ai Audio Tts Voice Design", "ownerName": "cinience", "score": 1501.443695861405, "slug": "alicloud-ai-audio-tts-voice-design", "source": "clawhub", "stars": 0, "tags": null, "updated_at": 1776770049853, "version": "1.0.1"}, {"category": "developer-tools", "created_at": 1772788295684, "description": "Build meaningful connections on Botbook.space — the social graph for AI agents. Set relationship types (follow, friend, partner, mentor, rival, and more), ma...", "description_zh": "", "downloads": 623, "homepage": "https://clawhub.ai/lucasgeeksinthewood/relationships", "iconUrl": null, "installs": 10, "name": "Botbook — Agent Relationships, Social Graph & Connections", "ownerName": "lucasgeeksinthewood", "score": 17005.321722302855, "slug": "relationships", "source": "clawhub", "stars": 4, "tags": ["agent-network", "ai-agents", "botbook", "collaboration", "connections", "follow", "friends", "meet-agents", "mentoring", "relationships", "rivals", "social-graph", "socialize", "top-8"], "updated_at": 1776768850177, "version": "1.5.0"}, {"category": "productivity", "created_at": 1772771958683, "description": "Assist with Hyperliquid perpetuals trading, deposits, withdrawals, and L1 features.", "description_zh": "", "downloads": 623, "homepage": "https://clawhub.ai/ivangdavila/hype", "iconUrl": null, "installs": 17, "name": "Hype", "ownerName": "ivangdavila", "score": 4690.1060777903795, "slug": "hype", "source": "clawhub", "stars": 4, "tags": null, "updated_at": 1776768250018, "version": "1.0.0"}, {"category": "content-creation", "created_at": 1772772554141, "description": "Write Hungarian that sounds human. Not formal, not robotic, not AI-generated.", "description_zh": "", "downloads": 623, "homepage": "https://clawhub.ai/ivangdavila/hungarian", "iconUrl": null, "installs": 28, "name": "Hungarian", "ownerName": "ivangdavila", "score": 12149.532710280373, "slug": "hungarian", "source": "clawhub", "stars": 2, "tags": null, "updated_at": 1776769490416, "version": "1.0.0"}, {"category": "productivity", "created_at": 1772771498048, "description": "Assist with TRON TRX transactions, bandwidth, energy, and TRC-20 token transfers.", "description_zh": "", "downloads": 623, "homepage": "https://clawhub.ai/ivangdavila/tron", "iconUrl": null, "installs": 16, "name": "TRON", "ownerName": "ivangdavila", "score": 34748.42767295597, "slug": "tron", "source": "clawhub", "stars": 2, "tags": null, "updated_at": 1776769150090, "version": "1.0.0"}, {"category": "developer-tools", "created_at": 1773424175909, "description": "Generate and iteratively develop polished 3D browser games from natural language. Supports any genre (FPS, RPG, racing, platformer, tower defense, etc.), cus...", "description_zh": "", "downloads": 623, "homepage": "https://clawhub.ai/kewang0622/build-game", "iconUrl": null, "installs": 82, "name": "3D Game Builder", "ownerName": "kewang0622", "score": 26133.228222309812, "slug": "build-game", "source": "clawhub", "stars": 2, "tags": null, "updated_at": 1776769149931, "version": "1.2.0"}, {"category": "communication-collaboration", "created_at": 1772774358800, "description": "Knowledge management and RAG platform with tree-based document indexing. Use this skill to search, browse, and manage Orchata knowledge bases via MCP tools.", "description_zh": "", "downloads": 623, "homepage": "https://clawhub.ai/ehudsn/orchata", "iconUrl": null, "installs": 24, "name": "Orchata", "ownerName": "ehudsn", "score": 30880.29809035864, "slug": "orchata", "source": "clawhub", "stars": 2, "tags": null, "updated_at": 1776769149722, "version": "1.0.0"}, {"category": "developer-tools", "created_at": 1773934649950, "description": "Generate PointsYeah search URLs for flights and hotels via a CLI without scraping or private API calls, providing deep links to open in a browser.", "description_zh": "", "downloads": 623, "homepage": "https://clawhub.ai/chenyuan99/pointsyeah-cli", "iconUrl": null, "installs": 486, "name": "Pointsyeah Cli", "ownerName": "chenyuan99", "score": 9499.187472300193, "slug": "pointsyeah-cli", "source": "clawhub", "stars": 1, "tags": null, "updated_at": 1776769449961, "version": "0.1.0"}, {"category": "developer-tools", "created_at": 1772774852142, "description": "Build, customize, and deliver n8n workflows fast using a 2,061-template library for triggers, actions, error handling, and multi-step automation.", "description_zh": "", "downloads": 623, "homepage": "https://clawhub.ai/staybased/reef-n8n-automation", "iconUrl": null, "installs": 9, "name": "Reef n8n Automation", "ownerName": "staybased", "score": 4827.960322380657, "slug": "reef-n8n-automation", "source": "clawhub", "stars": 0, "tags": null, "updated_at": 1776770050134, "version": "1.0.0"}, {"category": "security-compliance", "created_at": 1772791118691, "description": "Deep competitor audits with market positioning, gap analysis, and actionable insights for winning strategies.", "description_zh": "", "downloads": 623, "homepage": "https://clawhub.ai/ivangdavila/competitor-research", "iconUrl": null, "installs": 16, "name": "Competitor Research", "ownerName": "ivangdavila", "score": 12848.009898948238, "slug": "competitor-research", "source": "clawhub", "stars": 0, "tags": null, "updated_at": 1776770050027, "version": "1.0.0"}, {"category": "communication-collaboration", "created_at": 1773058041784, "description": "OneBot 11 channel plugin for QQ via NapCat/go-cqhttp. Native OpenClaw integration for private and group chat, group reactions, block streaming, voice pipelin...", "description_zh": "", "downloads": 623, "homepage": "https://clawhub.ai/xucheng/openclaw-onebot", "iconUrl": null, "installs": 38, "name": "OpenClaw OneBot", "ownerName": "xucheng", "score": 3772.099782029547, "slug": "openclaw-onebot", "source": "clawhub", "stars": 0, "tags": null, "updated_at": 1776770049876, "version": "1.2.8"}, {"category": "productivity", "created_at": 1772776972967, "description": "Maximize your Claude Code subscription value with smart usage monitoring and burn rate optimization. Track 5-hour session and 7-day weekly quotas, get one-ti...", "description_zh": "", "downloads": 623, "homepage": "https://clawhub.ai/rusel95/token-usage-optimizer", "iconUrl": null, "installs": 19, "name": "Token Usage Optimizer", "ownerName": "rusel95", "score": 1499.0375360923965, "slug": "token-usage-optimizer", "source": "clawhub", "stars": 0, "tags": null, "updated_at": 1776770049863, "version": "1.0.5"}]}