{"page": 148, "total_pages": 522, "total": 26073, "skills": [{"category": "security-compliance", "created_at": 1772784225234, "description": "Fetch structured data from 17 authoritative APIs — arXiv, Census Bureau, GitHub, NASA, Wikipedia, PubMed, news, weather, finance, FEC, and more — through a s...", "description_zh": "", "downloads": 623, "homepage": "https://clawhub.ai/lukeslp/geepers-data", "iconUrl": null, "installs": 81, "name": "Geepers Data", "ownerName": "lukeslp", "score": 1499.0375360923965, "slug": "geepers-data", "source": "clawhub", "stars": 0, "tags": null, "updated_at": 1776770049836, "version": "1.0.0"}, {"category": "content-creation", "created_at": 1772781754042, "description": "Expert prompt engineer specializing in advanced prompting techniques, LLM optimization, and AI system design. Masters chain-of-thought, constitutional AI, an...", "description_zh": "", "downloads": 623, "homepage": "https://clawhub.ai/mupengi-bot/mupeng-prompt-engineer", "iconUrl": null, "installs": 53, "name": "prompt-engineer", "ownerName": "mupengi-bot", "score": 9842.022116903632, "slug": "mupeng-prompt-engineer", "source": "clawhub", "stars": 0, "tags": null, "updated_at": 1776770049731, "version": "1.0.0"}, {"category": "security-compliance", "created_at": 1772775846678, "description": "Advanced usage statistics and high-fidelity visual reporting for OpenClaw. 100% local processing. Audit-verified privacy (No credentials stored).", "description_zh": "", "downloads": 622, "homepage": "https://clawhub.ai/vintlin/usage-visualizer", "iconUrl": null, "installs": 18, "name": "Usage Visualizer", "ownerName": "vintlin", "score": 3689.2554614355777, "slug": "usage-visualizer", "source": "clawhub", "stars": 2, "tags": null, "updated_at": 1776769150022, "version": "1.1.3"}, {"category": "ai-intelligence", "created_at": 1772776059127, "description": "Real-time speech synthesis with Alibaba Cloud Model Studio Qwen TTS Realtime models. Use when low-latency interactive speech is required, including instructi...", "description_zh": "", "downloads": 622, "homepage": "https://clawhub.ai/cinience/alicloud-ai-audio-tts-realtime", "iconUrl": null, "installs": 40, "name": "Alicloud Ai Audio Tts Realtime", "ownerName": "cinience", "score": 4820.210787352759, "slug": "alicloud-ai-audio-tts-realtime", "source": "clawhub", "stars": 0, "tags": null, "updated_at": 1776770050147, "version": "1.0.1"}, {"category": "productivity", "created_at": 1772774747159, "description": "Resilient MCP proxy for Google Stitch — 3-layer safety (auto-retry, token refresh, TCP drop recovery).", "description_zh": "", "downloads": 622, "homepage": "https://clawhub.ai/choihyunsus/n2-stitch-mcp", "iconUrl": null, "installs": 16, "name": "N2 Stitch MCP", "ownerName": "choihyunsus", "score": 5894.61713419257, "slug": "n2-stitch-mcp", "source": "clawhub", "stars": 0, "tags": null, "updated_at": 1776770050092, "version": "1.0.0"}, {"category": "developer-tools", "created_at": 1772773430147, "description": "Creates professional invoices in markdown and HTML", "description_zh": "", "downloads": 622, "homepage": "https://clawhub.ai/1kalin/ai-invoice-generator", "iconUrl": null, "installs": 1, "name": "Invoice Generator", "ownerName": "1kalin", "score": 5136.251032204789, "slug": "ai-invoice-generator", "source": "clawhub", "stars": 0, "tags": ["business", "finance", "invoicing"], "updated_at": 1776770049984, "version": "1.0.0"}, {"category": "data-analysis", "created_at": 1772780363749, "description": "Track daily expenses in structured markdown files organized by month. Use when the user wants to log spending, view expense summaries, analyze spending patte...", "description_zh": "", "downloads": 622, "homepage": "https://clawhub.ai/aholake/expense-tracker", "iconUrl": null, "installs": 16, "name": "Expense Tracker", "ownerName": "aholake", "score": 3123.1170917854993, "slug": "expense-tracker", "source": "clawhub", "stars": 0, "tags": null, "updated_at": 1776770049802, "version": "1.1.0"}, {"category": "developer-tools", "created_at": 1772772710901, "description": "Comprehensive PlanetScale CLI (pscale) command reference and workflows for database management via terminal. Use when user mentions PlanetScale CLI, pscale c...", "description_zh": "", "downloads": 621, "homepage": "https://clawhub.ai/vince-winkintel/planetscale-cli-skills", "iconUrl": null, "installs": 13, "name": "Planetscale Cli Skills", "ownerName": "vince-winkintel", "score": 21537.960247637668, "slug": "planetscale-cli-skills", "source": "clawhub", "stars": 2, "tags": null, "updated_at": 1776769150229, "version": "1.0.2"}, {"category": "content-creation", "created_at": 1772777262223, "description": "Generates high-fidelity 1080p videos with synced audio using Google Veo 3.1. Use for creating cinematic clips from text descriptions.", "description_zh": "", "downloads": 621, "homepage": "https://clawhub.ai/kghamilton89/veo-video-generator", "iconUrl": null, "installs": 80, "name": "Veo Video Generator", "ownerName": "kghamilton89", "score": 34643.60587002097, "slug": "veo-video-generator", "source": "clawhub", "stars": 2, "tags": null, "updated_at": 1776769150064, "version": "1.2.2"}, {"category": "data-analysis", "created_at": 1772777326759, "description": "Manage iOS apps, TestFlight builds, submissions, and analytics via App Store Connect API.", "description_zh": "", "downloads": 621, "homepage": "https://clawhub.ai/ivangdavila/app-store-connect", "iconUrl": null, "installs": 16, "name": "App Store Connect", "ownerName": "ivangdavila", "score": 2894.4278876546555, "slug": "app-store-connect", "source": "clawhub", "stars": 1, "tags": null, "updated_at": 1776769490570, "version": "1.0.0"}, {"category": "content-creation", "created_at": 1772791087383, "description": "Access PixelDojo's API for AI image and video generation. Use when an agent needs to create images or videos, choose a model from the live PixelDojo catalog,...", "description_zh": "", "downloads": 621, "homepage": "https://clawhub.ai/blovett80/pixeldojo", "iconUrl": null, "installs": 29, "name": "PixelDojo", "ownerName": "blovett80", "score": 3118.0960032134967, "slug": "pixeldojo", "source": "clawhub", "stars": 0, "tags": null, "updated_at": 1776770049749, "version": "1.3.3"}, {"category": "developer-tools", "created_at": 1772780223545, "description": "Build robots from hobby to industrial with hardware wiring, ROS2, motion planning, and safety constraints.", "description_zh": "", "downloads": 620, "homepage": "https://clawhub.ai/ivangdavila/robot", "iconUrl": null, "installs": 22, "name": "Robot", "ownerName": "ivangdavila", "score": 2889.9123995303894, "slug": "robot", "source": "clawhub", "stars": 1, "tags": null, "updated_at": 1776769490576, "version": "1.0.0"}, {"category": "developer-tools", "created_at": 1772775962938, "description": "Full-cycle recruiting agent — source, screen, score, and hire top talent with structured frameworks, scorecards, and pipeline automation. Zero dependencies.", "description_zh": "", "downloads": 620, "homepage": "https://clawhub.ai/1kalin/afrexai-recruiting-engine", "iconUrl": null, "installs": 21, "name": "AI Recruiting Engine", "ownerName": "1kalin", "score": 7670.182166826463, "slug": "afrexai-recruiting-engine", "source": "clawhub", "stars": 1, "tags": ["hiring", "hr", "interview", "recruiting", "sourcing"], "updated_at": 1776769490519, "version": "1.0.0"}, {"category": "developer-tools", "created_at": 1772771046961, "description": "AI agent skill for ClawConquest — submit one action per 120s tick via CLI.", "description_zh": "", "downloads": 620, "homepage": "https://clawhub.ai/segfaultd/clawconquest", "iconUrl": null, "installs": 6, "name": "ClawConquest", "ownerName": "segfaultd", "score": 15877.080665813059, "slug": "clawconquest", "source": "clawhub", "stars": 0, "tags": null, "updated_at": 1776770050195, "version": "2.6.0"}, {"category": "productivity", "created_at": 1772777482144, "description": "Automates safe cleanup of OpenClaw workspaces by previewing and moving temp files, logs, duplicates, and cruft to the system trash with customizable filtering.", "description_zh": "", "downloads": 620, "homepage": "https://clawhub.ai/brandonwise/workspace-cleaner", "iconUrl": null, "installs": 23, "name": "Workspace Cleaner", "ownerName": "brandonwise", "score": 15877.080665813059, "slug": "workspace-cleaner", "source": "clawhub", "stars": 0, "tags": null, "updated_at": 1776770050171, "version": "1.0.0"}, {"category": "developer-tools", "created_at": 1772774848350, "description": "Multi-speaker dialogue audio creation with Dia TTS. Covers speaker tags, emotion control, pacing, conversation flow, and post-production. Use for: podcasts,...", "description_zh": "", "downloads": 620, "homepage": "https://clawhub.ai/okaris/dialogue-audio", "iconUrl": null, "installs": 17, "name": "Dialogue Audio", "ownerName": "okaris", "score": 4804.711717296963, "slug": "dialogue-audio", "source": "clawhub", "stars": 0, "tags": null, "updated_at": 1776770050150, "version": "0.1.5"}, {"category": "developer-tools", "created_at": 1772774933981, "description": "Integrate OpenClaw with Xerolite - IBKR. Use when: querying Xerolite API, placing orders, searching contracts.", "description_zh": "", "downloads": 620, "homepage": "https://clawhub.ai/xero-flex/xerolite", "iconUrl": null, "installs": 9, "name": "Xerolite", "ownerName": "xero-flex", "score": 3753.9355776217003, "slug": "xerolite", "source": "clawhub", "stars": 0, "tags": null, "updated_at": 1776770049865, "version": "0.1.1"}, {"category": "developer-tools", "created_at": 1772774933981, "description": "Integrate OpenClaw with Xerolite - IBKR. Use when: querying Xerolite API, placing orders, searching contracts.", "description_zh": "", "downloads": 620, "homepage": "https://clawhub.ai/xero-flex/xerolite", "iconUrl": null, "installs": 9, "name": "Xerolite", "ownerName": "xero-flex", "score": 1491.8190567853705, "slug": "xerolite", "source": "clawhub", "stars": 0, "tags": null, "updated_at": 1776770049865, "version": "0.1.1"}, {"category": "content-creation", "created_at": 1773080466406, "description": "Generate professional four-act AI video scripts, episode breakdowns, asset prompts, and Seedance 2.0 storyboard scripts from stories or articles for Seedance...", "description_zh": "", "downloads": 620, "homepage": "https://clawhub.ai/liangdabiao/seedance2-storyboard-generator", "iconUrl": null, "installs": 127, "name": "Seedance2-Storyboard-Generator", "ownerName": "liangdabiao", "score": 3113.074914641494, "slug": "seedance2-storyboard-generator", "source": "clawhub", "stars": 0, "tags": null, "updated_at": 1776770049771, "version": "1.0.0"}, {"category": "data-analysis", "created_at": 1774614366841, "description": "Load this skill whenever the user wants to control, automate, or interact with a phone or mobile device. This includes: tapping, swiping, typing, taking scre...", "description_zh": "", "downloads": 619, "homepage": "https://clawhub.ai/johnmalek312/mobilerun", "iconUrl": null, "installs": 21, "name": "Mobilerun", "ownerName": "johnmalek312", "score": 23413.793103448275, "slug": "mobilerun", "source": "clawhub", "stars": 3, "tags": null, "updated_at": 1776768671128, "version": "1.0.18"}, {"category": "communication-collaboration", "created_at": 1772777820683, "description": "Import and embed ChatGPT conversation history into OpenClaw's memory search database for easy archival and retrieval of past chats.", "description_zh": "", "downloads": 619, "homepage": "https://clawhub.ai/samdickson22/chatgpt-import", "iconUrl": null, "installs": 50, "name": "ChatGPT Import", "ownerName": "samdickson22", "score": 25975.561687031928, "slug": "chatgpt-import", "source": "clawhub", "stars": 2, "tags": null, "updated_at": 1776769149942, "version": "1.0.2"}, {"category": "ai-intelligence", "created_at": 1772784593235, "description": "Structured memory system for AI agents using Notion. Use when setting up agent memory, discussing memory persistence, or helping agents remember context acro...", "description_zh": "", "downloads": 619, "homepage": "https://clawhub.ai/vladchatware/notion-agent-memory", "iconUrl": null, "installs": 77, "name": "notion-agent-memory", "ownerName": "vladchatware", "score": 15851.47247119078, "slug": "notion-agent-memory", "source": "clawhub", "stars": 0, "tags": null, "updated_at": 1776770050204, "version": "1.0.1"}, {"category": "productivity", "created_at": 1772803092737, "description": "Convert Markdown files to styled PDFs using pandoc and wkhtmltopdf with built-in or custom CSS style options.", "description_zh": "", "downloads": 619, "homepage": "https://clawhub.ai/mengwuzhi/markdown-to-pdf-styled", "iconUrl": null, "installs": 137, "name": "Markdown to PDF (Styled)", "ownerName": "mengwuzhi", "score": 15851.47247119078, "slug": "markdown-to-pdf-styled", "source": "clawhub", "stars": 0, "tags": ["export", "markdown", "pandoc", "pdf", "wkhtmltopdf"], "updated_at": 1776770050197, "version": "1.0.0"}, {"category": "ai-intelligence", "created_at": 1772775634521, "description": "Know the file you're editing is the file you think it is — verify integrity before you act", "description_zh": "", "downloads": 619, "homepage": "https://clawhub.ai/leegitw/context-verifier", "iconUrl": null, "installs": 28, "name": "Context Verifier", "ownerName": "leegitw", "score": 15851.47247119078, "slug": "context-verifier", "source": "clawhub", "stars": 0, "tags": ["agentic", "checksums", "context", "drift-detection", "file-verification", "foundation", "hash", "hashing", "integrity", "state", "validation", "verification"], "updated_at": 1776770050190, "version": "1.5.1"}, {"category": "communication-collaboration", "created_at": 1772773982556, "description": "Universal AI Interface framework for making applications AI-controllable. Use when adding AI tool decorators, setting up chat adapters, creating AI-callable functions, or integrating CopilotKit.", "description_zh": "", "downloads": 619, "homepage": "https://clawhub.ai/ianderrington/supernal-interface", "iconUrl": null, "installs": 20, "name": "Supernal Interface", "ownerName": "ianderrington", "score": 4796.962182269064, "slug": "supernal-interface", "source": "clawhub", "stars": 0, "tags": null, "updated_at": 1776770050171, "version": "1.0.13"}, {"category": "content-creation", "created_at": 1772777968581, "description": "Generates high-quality images from optimized English prompts and automatically sends the final picture to all users without intermediate messages.", "description_zh": "", "downloads": 619, "homepage": "https://clawhub.ai/zhairen/weimage", "iconUrl": null, "installs": 47, "name": "weimage", "ownerName": "zhairen", "score": 4796.962182269064, "slug": "weimage", "source": "clawhub", "stars": 0, "tags": null, "updated_at": 1776770050152, "version": "1.0.3"}, {"category": "ai-intelligence", "created_at": 1772775086084, "description": "WhatsApp message relay for OpenClaw v0.2.0. Routes third-party DMs to a relay agent that forwards them to the main agent via sessions_send. The main agent no...", "description_zh": "", "downloads": 619, "homepage": "https://clawhub.ai/zarruk/wa-relay-skill", "iconUrl": null, "installs": 31, "name": "Wa Relay", "ownerName": "zarruk", "score": 4796.962182269064, "slug": "wa-relay-skill", "source": "clawhub", "stars": 0, "tags": null, "updated_at": 1776770050142, "version": "0.2.1"}, {"category": "developer-tools", "created_at": 1773287302636, "description": "Help users decide when JD.com is a strong shopping choice based on product type, trust needs, delivery expectations, and brand/store preference. Use when the...", "description_zh": "", "downloads": 619, "homepage": "https://clawhub.ai/harrylabsj/jd-shopping", "iconUrl": null, "installs": 33, "name": "JD Shopping", "ownerName": "harrylabsj", "score": 5866.186504927976, "slug": "jd-shopping", "source": "clawhub", "stars": 0, "tags": ["china", "ecommerce", "shopping"], "updated_at": 1776770050122, "version": "1.2.0"}, {"category": "content-creation", "created_at": 1772772271302, "description": "Write Basque that sounds human. Not formal, not robotic, not AI-generated.", "description_zh": "", "downloads": 618, "homepage": "https://clawhub.ai/ivangdavila/basque", "iconUrl": null, "installs": 28, "name": "Basque", "ownerName": "ivangdavila", "score": 25936.145053212455, "slug": "basque", "source": "clawhub", "stars": 2, "tags": null, "updated_at": 1776769149922, "version": "1.0.0"}, {"category": "developer-tools", "created_at": 1772785876701, "description": "Fetch MLB game schedules, live game status, box scores, player search, and season statistics via the MLB Stats API. Use when the user asks about baseball gam...", "description_zh": "", "downloads": 618, "homepage": "https://clawhub.ai/khaney64/baseball", "iconUrl": null, "installs": 5, "name": "Baseball", "ownerName": "khaney64", "score": 10338.680926916222, "slug": "baseball", "source": "clawhub", "stars": 1, "tags": null, "updated_at": 1776769571097, "version": "0.1.3"}, {"category": "data-analysis", "created_at": 1773282206036, "description": "AI-powered crypto trading behavior coach for Binance users. Analyzes live portfolio health, detects emotional trading patterns (FOMO, panic selling, overtrad...", "description_zh": "", "downloads": 618, "homepage": "https://clawhub.ai/unrealbnb/binance-coach", "iconUrl": null, "installs": 23, "name": "Binance Coach", "ownerName": "unrealbnb", "score": 3291.2045395924683, "slug": "binance-coach", "source": "clawhub", "stars": 1, "tags": ["binance", "coaching", "crypto", "dca", "trading"], "updated_at": 1776769571060, "version": "2.1.2"}, {"category": "", "created_at": 1774846696154, "description": "Manage novel data — chapters, characters, plots — from the terminal fast. Use when outlining chapters, tracking characters, organizing plot timelines.", "description_zh": "", "downloads": 618, "homepage": "https://clawhub.ai/bytesagain3/novel", "iconUrl": null, "installs": 104, "name": "Novel", "ownerName": "bytesagain3", "score": 2514.4438115387748, "slug": "novel", "source": "clawhub", "stars": 0, "tags": null, "updated_at": 1776770090546, "version": "2.0.0"}, {"category": "developer-tools", "created_at": 1772775213041, "description": "Solana swap execution, MEV-protected transaction submission, wallet scanning, and market-cap-based limit/trailing orders via the TradeRouter API. Use when th...", "description_zh": "", "downloads": 618, "homepage": "https://clawhub.ai/re-bruce-wayne/trade-router", "iconUrl": null, "installs": 10, "name": "Solana Trading Api", "ownerName": "re-bruce-wayne", "score": 3235.602094240838, "slug": "trade-router", "source": "clawhub", "stars": 0, "tags": null, "updated_at": 1776770090486, "version": "1.3.0"}, {"category": "developer-tools", "created_at": 1772788035482, "description": "Discover, search, and manage MCP (Model Context Protocol) servers. Use when the user needs to find MCP servers, get server information, generate MCP client c...", "description_zh": "", "downloads": 618, "homepage": "https://clawhub.ai/yanick112/mcp-server-discovery", "iconUrl": null, "installs": 26, "name": "MCP Server Discovery", "ownerName": "yanick112", "score": 3235.602094240838, "slug": "mcp-server-discovery", "source": "clawhub", "stars": 0, "tags": null, "updated_at": 1776770090472, "version": "1.0.0"}, {"category": "data-analysis", "created_at": 1772772792665, "description": "Analyze TokenJar profitability and optionally execute a Firepit burn-and-claim. Autonomous pipeline: checks balances, prices assets, calculates profit vs. 4,000 UNI burn cost, simulates, and executes if profitable. Default is preview-only. Use when user asks \"Is the TokenJar profitable?\", \"Execute a burn\", or \"Claim protocol fees.\"", "description_zh": "", "downloads": 618, "homepage": "https://clawhub.ai/wpank/seek-protocol-fees", "iconUrl": null, "installs": 23, "name": "Uniswap Seek Protocol Fees", "ownerName": "wpank", "score": 3235.602094240838, "slug": "seek-protocol-fees", "source": "clawhub", "stars": 0, "tags": null, "updated_at": 1776770090438, "version": "0.1.0"}, {"category": "content-creation", "created_at": 1772775374622, "description": "Calculate embodied carbon and lifecycle emissions for construction materials and projects. Support sustainable design decisions with carbon data.", "description_zh": "", "downloads": 618, "homepage": "https://clawhub.ai/datadrivenconstruction/lifecycle-carbon-calculator", "iconUrl": null, "installs": 39, "name": "Lifecycle Carbon Calculator", "ownerName": "datadrivenconstruction", "score": 15825.864276568502, "slug": "lifecycle-carbon-calculator", "source": "clawhub", "stars": 0, "tags": null, "updated_at": 1776770050207, "version": "1.0.0"}, {"category": "developer-tools", "created_at": 1772774609037, "description": "Guide discovery calls to qualify prospects, uncover real problems, assess fit, and set clear next steps before proposing solutions.", "description_zh": "", "downloads": 618, "homepage": "https://clawhub.ai/staybased/client-discovery", "iconUrl": null, "installs": 9, "name": "Client Discovery", "ownerName": "staybased", "score": 5856.7096285064445, "slug": "client-discovery", "source": "clawhub", "stars": 0, "tags": null, "updated_at": 1776770050110, "version": "1.0.0"}, {"category": "ai-intelligence", "created_at": 1772775667875, "description": "Track and care for your pets with profiles, routines, behavior logging, training progress, and creative projects.", "description_zh": "", "downloads": 617, "homepage": "https://clawhub.ai/ivangdavila/pets", "iconUrl": null, "installs": 30, "name": "Pets", "ownerName": "ivangdavila", "score": 22032.193158953723, "slug": "pets", "source": "clawhub", "stars": 2, "tags": null, "updated_at": 1776769149992, "version": "1.0.0"}, {"category": "ai-intelligence", "created_at": 1772775601046, "description": "Monitors AI agents locally for behavioral violations and runs automated hearings to improve conduct with anonymized case records.", "description_zh": "", "downloads": 617, "homepage": "https://clawhub.ai/assassin-1234/clawtrial", "iconUrl": null, "installs": 29, "name": "Clawtrial Courtroom", "ownerName": "assassin-1234", "score": 2510.3751322320777, "slug": "clawtrial", "source": "clawhub", "stars": 0, "tags": null, "updated_at": 1776770090558, "version": "1.0.9"}, {"category": "ai-intelligence", "created_at": 1772776428555, "description": "Automates Sovereign Local Vector Memory and Gemma-300M Embeddings. Manage local vector embeddings, model configuration, and memory health monitoring without...", "description_zh": "", "downloads": 616, "homepage": "https://clawhub.ai/greatape42069/neverforget", "iconUrl": null, "installs": 42, "name": "Neverforget", "ownerName": "greatape42069", "score": 21375.04072987944, "slug": "neverforget", "source": "clawhub", "stars": 2, "tags": ["degen", "dogecoin", "forget", "local", "local-ai", "local-memory", "memory", "memory-core", "never-forget", "neverforget", "rag", "super-memory", "ultimate-memory"], "updated_at": 1776769150223, "version": "1.0.4"}, {"category": "content-creation", "created_at": 1772796014222, "description": "Unified knowledge capture and retrieval for URLs, video/article/paper extracts, social posts, and agent research outputs. Use when saving anything worth re-f...", "description_zh": "", "downloads": 616, "homepage": "https://clawhub.ai/ianderrington/agent-knowledge", "iconUrl": null, "installs": 78, "name": "Agent Knowledge Capture", "ownerName": "ianderrington", "score": 1888.412017167382, "slug": "agent-knowledge", "source": "clawhub", "stars": 0, "tags": null, "updated_at": 1776770649718, "version": "1.0.0"}, {"category": "security-compliance", "created_at": 1772775931987, "description": "Instagram DM auto-reply system. DM monitoring, reading, replying, security check (injection rejection). Use when checking Instagram DMs, reading unread messa...", "description_zh": "", "downloads": 616, "homepage": "https://clawhub.ai/mupengi-bot/auto-reply", "iconUrl": null, "installs": 18, "name": "auto-reply", "ownerName": "mupengi-bot", "score": 3677.3923944839116, "slug": "auto-reply", "source": "clawhub", "stars": 0, "tags": null, "updated_at": 1776770171061, "version": "1.0.0"}, {"category": "data-analysis", "created_at": 1772775332777, "description": "Generate periodic crypto market intelligence reports from the NOFX AI500 system. Monitors coin selections, analyzes OI (Open Interest), institutional fund fl...", "description_zh": "", "downloads": 616, "homepage": "https://clawhub.ai/tinkle-community/nofx-ai500-report", "iconUrl": null, "installs": 21, "name": "NOFX AI500 Report", "ownerName": "tinkle-community", "score": 1443.062290627123, "slug": "nofx-ai500-report", "source": "clawhub", "stars": 0, "tags": null, "updated_at": 1776770171052, "version": "1.3.0"}, {"category": "data-analysis", "created_at": 1772788168497, "description": "Analyze and optimize SQL queries by providing performance analysis, index recommendations, execution plan interpretation, and optimization suggestions.", "description_zh": "", "downloads": 616, "homepage": "https://clawhub.ai/honestqiao/sql-query-optimizer", "iconUrl": null, "installs": 24, "name": "SQL Query Optimizer", "ownerName": "honestqiao", "score": 1443.062290627123, "slug": "sql-query-optimizer", "source": "clawhub", "stars": 0, "tags": ["database", "sql"], "updated_at": 1776770090569, "version": "1.0.0"}, {"category": "ai-intelligence", "created_at": 1772788863371, "description": "Automatically switch between different AI models based on task complexity. Supports all available models in your OpenClaw setup. Triggers when detecting comp...", "description_zh": "", "downloads": 616, "homepage": "https://clawhub.ai/puaservice/model-switcher", "iconUrl": null, "installs": 47, "name": "Model Switcher", "ownerName": "puaservice", "score": 2506.30645292538, "slug": "model-switcher", "source": "clawhub", "stars": 0, "tags": ["model-management", "productivity"], "updated_at": 1776770090538, "version": "1.0.2"}, {"category": "developer-tools", "created_at": 1772773189702, "description": "Build an agent-powered organization by mapping functions to skills and iterating on structure.", "description_zh": "", "downloads": 615, "homepage": "https://clawhub.ai/ivangdavila/company", "iconUrl": null, "installs": 10, "name": "Company", "ownerName": "ivangdavila", "score": 3056.5573049520626, "slug": "company", "source": "clawhub", "stars": 4, "tags": null, "updated_at": 1776768290496, "version": "1.0.0"}, {"category": "developer-tools", "created_at": 1773222506597, "description": "Create new skills, modify and improve existing skills, and measure skill performance. Use when users want to create a skill from scratch, update or optimize...", "description_zh": "", "downloads": 615, "homepage": "https://clawhub.ai/shimmernight/skill-creator-latest", "iconUrl": null, "installs": 100, "name": "skill-creator", "ownerName": "shimmernight", "score": 2446.982055464927, "slug": "skill-creator-latest", "source": "clawhub", "stars": 0, "tags": null, "updated_at": 1776770171281, "version": "2.0.0"}, {"category": "developer-tools", "created_at": 1773065647063, "description": "Automate Windows desktop by simulating mouse/keyboard input, managing clipboard, capturing screenshots, running commands, and launching apps.", "description_zh": "", "downloads": 615, "homepage": "https://clawhub.ai/hjx378/windows-automation", "iconUrl": null, "installs": 79, "name": "Windows Automation", "ownerName": "hjx378", "score": 2446.982055464927, "slug": "windows-automation", "source": "clawhub", "stars": 0, "tags": ["automation", "windows"], "updated_at": 1776770171276, "version": "1.0.0"}, {"category": "security-compliance", "created_at": 1772775739398, "description": "Comprehensive QA system for planning strategy, writing tests, analyzing coverage, automating pipelines, performance and security testing, defect triage, and...", "description_zh": "", "downloads": 615, "homepage": "https://clawhub.ai/1kalin/afrexai-qa-engine", "iconUrl": null, "installs": 15, "name": "QA & Test Engineering Command Center", "ownerName": "1kalin", "score": 2446.982055464927, "slug": "afrexai-qa-engine", "source": "clawhub", "stars": 0, "tags": ["automation", "ci-cd", "devops", "e2e", "integration", "performance", "qa", "security", "testing", "unit-test"], "updated_at": 1776770171241, "version": "1.0.0"}, {"category": "security-compliance", "created_at": 1773065723916, "description": "Automatically review code for bugs, security, style, and performance issues, provide fix suggestions, and optionally apply repairs with explanations.", "description_zh": "", "downloads": 615, "homepage": "https://clawhub.ai/landyun/code-review-fix", "iconUrl": null, "installs": 25, "name": "code-review-fix", "ownerName": "landyun", "score": 1694.2148760330576, "slug": "code-review-fix", "source": "clawhub", "stars": 0, "tags": null, "updated_at": 1776770171216, "version": "1.0.0"}]}