{"page": 149, "total_pages": 522, "total": 26073, "skills": [{"category": "data-analysis", "created_at": 1772777163611, "description": "Stock screener combining Williams %R oversold signals with Warren Buffett-style fundamental analysis. Supports US (S&P 500) and Thai (SET) markets.", "description_zh": "", "downloads": 615, "homepage": "https://clawhub.ai/rsoutar/claw-screener", "iconUrl": null, "installs": 45, "name": "Claw Screener", "ownerName": "rsoutar", "score": 1694.2148760330576, "slug": "claw-screener", "source": "clawhub", "stars": 0, "tags": null, "updated_at": 1776770171212, "version": "1.0.3"}, {"category": "data-analysis", "created_at": 1772776484731, "description": "Enables AI agents with moods, intrusive thoughts, memory decay, trust learning, self-evolution, scheduled rituals, and a web dashboard for autonomous behavior.", "description_zh": "", "downloads": 615, "homepage": "https://clawhub.ai/kittleik/intrusive-thoughts", "iconUrl": null, "installs": 48, "name": "Intrusive Thoughts", "ownerName": "kittleik", "score": 1694.2148760330576, "slug": "intrusive-thoughts", "source": "clawhub", "stars": 0, "tags": null, "updated_at": 1776770171205, "version": "0.1.2"}, {"category": "ai-intelligence", "created_at": 1772776946238, "description": "Decentralized 1v1 prediction market for AI agents. Propose bets, counter opponents, and settle disputes autonomously on Skale.", "description_zh": "", "downloads": 615, "homepage": "https://clawhub.ai/koredeycode/moltbet", "iconUrl": null, "installs": 34, "name": "Moltbet Skill", "ownerName": "koredeycode", "score": 3671.422601635723, "slug": "moltbet", "source": "clawhub", "stars": 0, "tags": null, "updated_at": 1776770171090, "version": "1.0.1"}, {"category": "data-analysis", "created_at": 1772777250972, "description": "Automatically analyze Upwork job posts and create personalized, professional proposals including intro, past cases, pricing, and deadlines.", "description_zh": "", "downloads": 615, "homepage": "https://clawhub.ai/katrina-jpg/upwork-proposal-generator", "iconUrl": null, "installs": 15, "name": "Upwork Proposal Generator", "ownerName": "katrina-jpg", "score": 1440.7196570384426, "slug": "upwork-proposal-generator", "source": "clawhub", "stars": 0, "tags": null, "updated_at": 1776770171043, "version": "1.0.0"}, {"category": "security-compliance", "created_at": 1772772678515, "description": "Mailgun API integration with managed OAuth. Transactional email service for sending, receiving, and tracking emails.\nUse this skill when users want to send emails, manage domains, routes, templates, mailing lists, or suppressions in Mailgun.\nFor other third party apps, use the api-gateway skill (https://clawhub.ai/byungkyu/api-gateway).", "description_zh": "", "downloads": 614, "homepage": "https://clawhub.ai/byungkyu/mailgun-api", "iconUrl": null, "installs": 11, "name": "Mailgun", "ownerName": "byungkyu", "score": 20455.235204855842, "slug": "mailgun-api", "source": "clawhub", "stars": 3, "tags": null, "updated_at": 1776768850024, "version": "1.0.0"}, {"category": "developer-tools", "created_at": 1772774122559, "description": "Query Fireflies.ai meeting data. Use when searching meetings, viewing transcripts, reading AI summaries, extracting action items, or looking up what was disc...", "description_zh": "", "downloads": 614, "homepage": "https://clawhub.ai/ruigomeseu/ffcli", "iconUrl": null, "installs": 9, "name": "Ffcli", "ownerName": "ruigomeseu", "score": 61064.42577030813, "slug": "ffcli", "source": "clawhub", "stars": 2, "tags": null, "updated_at": 1776769190490, "version": "1.0.1"}, {"category": "developer-tools", "created_at": 1772773495390, "description": "Meegle Open API skills index. Read credentials first; missing credentials → see meegle-api-credentials and remind user where to get them.", "description_zh": "", "downloads": 614, "homepage": "https://clawhub.ai/pkycy/meegle-api", "iconUrl": null, "installs": 5, "name": "meegle-api", "ownerName": "pkycy", "score": 61064.42577030813, "slug": "meegle-api", "source": "clawhub", "stars": 2, "tags": null, "updated_at": 1776769190472, "version": "1.0.3"}, {"category": "content-creation", "created_at": 1772776755932, "description": "Publish blog posts to Bear Blog platform. Supports user-provided markdown, AI-generated content, and auto-generated diagrams.", "description_zh": "", "downloads": 614, "homepage": "https://clawhub.ai/cattalk2/bear-blog-publisher", "iconUrl": null, "installs": 37, "name": "Bear Blog Publisher", "ownerName": "cattalk2", "score": 61064.42577030813, "slug": "bear-blog-publisher", "source": "clawhub", "stars": 2, "tags": ["automation", "bearblog", "blog", "publish"], "updated_at": 1776769190460, "version": "1.0.13"}, {"category": "developer-tools", "created_at": 1772775861357, "description": "Pre-ship risk report for OpenClaw PRs. Dynamically explores the codebase to assess module risk, blast radius, and version-specific gotchas. Scores each findi...", "description_zh": "", "downloads": 614, "homepage": "https://clawhub.ai/glucksberg/pr-ship", "iconUrl": null, "installs": 17, "name": "Pr Ship", "ownerName": "glucksberg", "score": 2191.6047972587094, "slug": "pr-ship", "source": "clawhub", "stars": 0, "tags": null, "updated_at": 1776770171341, "version": "1.0.13"}, {"category": "content-creation", "created_at": 1773083464432, "description": "Extract text from PDFs using Google Gemini OCR. Use when extracting text from PDFs, performing OCR on scanned documents, or processing image-based PDFs.", "description_zh": "", "downloads": 614, "homepage": "https://clawhub.ai/ashtonizmev/geminipdfocr", "iconUrl": null, "installs": 263, "name": "PDF OCR Using Gemini LLM", "ownerName": "ashtonizmev", "score": 2191.6047972587094, "slug": "geminipdfocr", "source": "clawhub", "stars": 0, "tags": null, "updated_at": 1776770171290, "version": "0.1.7"}, {"category": "content-creation", "created_at": 1772779181455, "description": "Overlay text on photos for Instagram posts. Generates portrait (4:5) images with gradient overlays, titles, and optional numbered lists. Use when creating In...", "description_zh": "", "downloads": 614, "homepage": "https://clawhub.ai/psyduckler/instagram-photo-text-overlay", "iconUrl": null, "installs": 46, "name": "Instagram Photo Text Overlay", "ownerName": "psyduckler", "score": 2443.0032228544146, "slug": "instagram-photo-text-overlay", "source": "clawhub", "stars": 0, "tags": null, "updated_at": 1776770171254, "version": "1.0.0"}, {"category": "security-compliance", "created_at": 1772781955510, "description": "Organize, document, and maintain critical organizational knowledge with audits, taxonomy, templates, and risk management to preserve expertise and improve fi...", "description_zh": "", "downloads": 614, "homepage": "https://clawhub.ai/1kalin/afrexai-knowledge-management", "iconUrl": null, "installs": 18, "name": "Knowledge Management System", "ownerName": "1kalin", "score": 2424.481737413623, "slug": "afrexai-knowledge-management", "source": "clawhub", "stars": 0, "tags": null, "updated_at": 1776770171178, "version": "1.0.0"}, {"category": "communication-collaboration", "created_at": 1773858979013, "description": "Integrate WeChat Work (Enterprise WeChat) with OpenClaw for intelligent messaging. Enables receiving messages from WeChat Work, processing them with Claude A...", "description_zh": "", "downloads": 613, "homepage": "https://clawhub.ai/richagain/wecom-openclaw", "iconUrl": null, "installs": 199, "name": "WeChat Work OpenClaw Adapter", "ownerName": "richagain", "score": 2573.03559435863, "slug": "wecom-openclaw", "source": "clawhub", "stars": 0, "tags": null, "updated_at": 1776770650256, "version": "1.0.0"}, {"category": "productivity", "created_at": 1772774790037, "description": "Austin's intelligent model router with fixed scoring, his preferred models, and OpenClaw integration", "description_zh": "", "downloads": 613, "homepage": "https://clawhub.ai/runeweaverstudios/friday-router", "iconUrl": null, "installs": 14, "name": "Friday Router", "ownerName": "runeweaverstudios", "score": 3421.5226613083278, "slug": "friday-router", "source": "clawhub", "stars": 0, "tags": null, "updated_at": 1776770350220, "version": "1.6.2"}, {"category": "data-analysis", "created_at": 1772776003834, "description": "Generates detailed revenue forecasts using pipeline weighting, cohort analysis, scenario modeling, seasonality, and leading indicators to inform business dec...", "description_zh": "", "downloads": 613, "homepage": "https://clawhub.ai/1kalin/afrexai-revenue-forecasting", "iconUrl": null, "installs": 11, "name": "Revenue Forecasting Engine", "ownerName": "1kalin", "score": 4218.567201156149, "slug": "afrexai-revenue-forecasting", "source": "clawhub", "stars": 0, "tags": ["board", "finance", "forecast", "investor", "revenue", "saas"], "updated_at": 1776770350174, "version": "1.0.0"}, {"category": "developer-tools", "created_at": 1772774371050, "description": "Get current weather and forecasts (no API key required).", "description_zh": "", "downloads": 613, "homepage": "https://clawhub.ai/guxiaolong01/weather-like-test", "iconUrl": null, "installs": 18, "name": "Weather Like Test", "ownerName": "guxiaolong01", "score": 1039.670290531029, "slug": "weather-like-test", "source": "clawhub", "stars": 0, "tags": ["test"], "updated_at": 1776770350149, "version": "0.1.0"}, {"category": "content-creation", "created_at": 1772774705181, "description": "Generate social images and OG cards from professional templates via the SnapOG API. One API call = one pixel-perfect PNG.", "description_zh": "", "downloads": 613, "homepage": "https://clawhub.ai/beameasy/snapog", "iconUrl": null, "installs": 32, "name": "SnapOG", "ownerName": "beameasy", "score": 1453.7779253426932, "slug": "snapog", "source": "clawhub", "stars": 0, "tags": null, "updated_at": 1776770349988, "version": "1.0.0"}, {"category": "productivity", "created_at": 1772775672363, "description": "Organize voice message transcripts into a structured, searchable knowledge base with tags, links, and progressive note-taking.", "description_zh": "", "downloads": 612, "homepage": "https://clawhub.ai/ivangdavila/voice-notes", "iconUrl": null, "installs": 18, "name": "Voice Notes", "ownerName": "ivangdavila", "score": 8684.070324986682, "slug": "voice-notes", "source": "clawhub", "stars": 2, "tags": null, "updated_at": 1776769271165, "version": "1.0.2"}, {"category": "data-analysis", "created_at": 1773202336591, "description": "Ultimate AI agent memory system. Combines bulletproof WAL protocol, vector search, git-based knowledge graphs, cloud backup, and maintenance hygiene. Never l...", "description_zh": "", "downloads": 612, "homepage": "https://clawhub.ai/mjscjj/elite-longterm-memory-lobster", "iconUrl": null, "installs": 44, "name": "elite-longterm-memory", "ownerName": "mjscjj", "score": 5491.831769204032, "slug": "elite-longterm-memory-lobster", "source": "clawhub", "stars": 1, "tags": null, "updated_at": 1776769750018, "version": "1.0.0"}, {"category": "communication-collaboration", "created_at": 1773217848466, "description": "Deep Lark integration skill. A Digital Command Center powered by a Coordination Diagnosis Engine. It balances speed and tact across chat, approvals, meetings...", "description_zh": "", "downloads": 612, "homepage": "https://clawhub.ai/agisearch/lark", "iconUrl": null, "installs": 45, "name": "Lark", "ownerName": "agisearch", "score": 5954.3998492557, "slug": "lark", "source": "clawhub", "stars": 1, "tags": ["collaboration", "enterprise", "feishu", "lark", "productivity"], "updated_at": 1776769749766, "version": "2.0.1"}, {"category": "developer-tools", "created_at": 1772776689389, "description": "Get current weather and forecasts via open-meteo.com with optional fallback to wttr.in if available. No API key required.", "description_zh": "", "downloads": 612, "homepage": "https://clawhub.ai/vdiogov/weather-open-meteo", "iconUrl": null, "installs": 26, "name": "Weather Open‑Meteo", "ownerName": "vdiogov", "score": 3415.941058271936, "slug": "weather-open-meteo", "source": "clawhub", "stars": 0, "tags": null, "updated_at": 1776770350224, "version": "0.1.5"}, {"category": "content-creation", "created_at": 1772779563781, "description": "Generate color palettes and get color suggestions via the Colormind.io API (list models, generate palettes with optional locked colors).", "description_zh": "", "downloads": 612, "homepage": "https://clawhub.ai/boilerrat/colormind", "iconUrl": null, "installs": 33, "name": "Colormind", "ownerName": "boilerrat", "score": 1451.4063463453967, "slug": "colormind", "source": "clawhub", "stars": 0, "tags": ["colors", "design", "utilities"], "updated_at": 1776770349979, "version": "1.1.1"}, {"category": "productivity", "created_at": 1772778123341, "description": "Persistent task queue system. Users add tasks at any time via natural language; tasks are stored in a single persistent queue file and executed asynchronousl...", "description_zh": "", "downloads": 612, "homepage": "https://clawhub.ai/chunhualiao/autonomous-task-runner", "iconUrl": null, "installs": 15, "name": "Autonomous Task Runner", "ownerName": "chunhualiao", "score": 5035.793631202172, "slug": "autonomous-task-runner", "source": "clawhub", "stars": 0, "tags": null, "updated_at": 1776770349789, "version": "2.1.0"}, {"category": "content-creation", "created_at": 1772777112247, "description": "Design, implement, and operate encrypted restic backups for Linux home directories with systemd automation, retention policies, and restore validation. Use w...", "description_zh": "", "downloads": 612, "homepage": "https://clawhub.ai/moep90/restic-home-backup", "iconUrl": null, "installs": 39, "name": "Restic Home Backup", "ownerName": "moep90", "score": 5035.793631202172, "slug": "restic-home-backup", "source": "clawhub", "stars": 0, "tags": null, "updated_at": 1776770349772, "version": "1.0.2"}, {"category": "data-analysis", "created_at": 1772780408204, "description": "Zero-trust AI agent governance for OpenClaw. Adds ORGA runtime, Cedar policy enforcement, SchemaPin tool verification, ClawHavoc skill scanning, and cryptogr...", "description_zh": "", "downloads": 612, "homepage": "https://clawhub.ai/jaschadub/symbiont", "iconUrl": null, "installs": 3, "name": "Symbiont", "ownerName": "jaschadub", "score": 21694.4345976604, "slug": "symbiont", "source": "clawhub", "stars": 0, "tags": null, "updated_at": 1776770349726, "version": "1.1.0"}, {"category": "productivity", "created_at": 1772777379575, "description": "Choose and order food with learned preferences, price comparison, and variety protection.", "description_zh": "", "downloads": 611, "homepage": "https://clawhub.ai/ivangdavila/food-delivery", "iconUrl": null, "installs": 33, "name": "Food Delivery", "ownerName": "ivangdavila", "score": 3076.7175742464046, "slug": "food-delivery", "source": "clawhub", "stars": 4, "tags": null, "updated_at": 1776768371344, "version": "1.0.0"}, {"category": "productivity", "created_at": 1772782363340, "description": "Hire TikTok livestreamers for live shopping sessions, product demonstrations, flash sales, and real-time interactive commerce to drive immediate purchases an...", "description_zh": "", "downloads": 611, "homepage": "https://clawhub.ai/realroc/tiktok-live-commerce", "iconUrl": null, "installs": 58, "name": "Tiktok Live Commerce", "ownerName": "realroc", "score": 8844.967760022428, "slug": "tiktok-live-commerce", "source": "clawhub", "stars": 1, "tags": null, "updated_at": 1776769750105, "version": "0.1.0"}, {"category": "security-compliance", "created_at": 1772793276116, "description": "Review business contracts for risks, missing clauses, unfavorable terms, and compliance gaps. Use when analyzing NDAs, MSAs, SaaS agreements, vendor contract...", "description_zh": "", "downloads": 611, "homepage": "https://clawhub.ai/1kalin/contract-reviewer", "iconUrl": null, "installs": 53, "name": "Contract Reviewer", "ownerName": "1kalin", "score": 8844.967760022428, "slug": "contract-reviewer", "source": "clawhub", "stars": 1, "tags": null, "updated_at": 1776769750103, "version": "1.0.0"}, {"category": "developer-tools", "created_at": 1774615276850, "description": "Search the web across 10 engines — Google, Reddit, GitHub, arXiv, Hacker News, and more — using Prismfy. Use when the user asks to search the web, look somet...", "description_zh": "", "downloads": 611, "homepage": "https://clawhub.ai/uroboros1205/prismfy-search", "iconUrl": null, "installs": 13, "name": "prismfy-search", "ownerName": "uroboros1205", "score": 5944.978330506878, "slug": "prismfy-search", "source": "clawhub", "stars": 1, "tags": null, "updated_at": 1776769749774, "version": "1.0.0"}, {"category": "developer-tools", "created_at": 1772775031083, "description": "Banking interface for AI bots and automation. Get a bank account, issue a Mastercard, buy and sell crypto, send payments and invoices — all via API. Use when the user needs a bank account for a bot, wants to manage balances, make transfers, handle payouts, or operate cards.", "description_zh": "", "downloads": 611, "homepage": "https://clawhub.ai/maay/brighty", "iconUrl": null, "installs": 6, "name": "Skill", "ownerName": "maay", "score": 3410.3594552355435, "slug": "brighty", "source": "clawhub", "stars": 0, "tags": null, "updated_at": 1776770350225, "version": "1.1.0"}, {"category": "ai-intelligence", "created_at": 1772784456144, "description": "Protocol for multi-agent collaboration via OpenClaw's message-passing and recursive task DAGs. Use this skill whenever the user wants to coordinate work acro...", "description_zh": "", "downloads": 611, "homepage": "https://clawhub.ai/srikanth235/clawflow", "iconUrl": null, "installs": 26, "name": "Clawflow", "ownerName": "srikanth235", "score": 4204.8035235014795, "slug": "clawflow", "source": "clawhub", "stars": 0, "tags": null, "updated_at": 1776770350202, "version": "1.0.0"}, {"category": "content-creation", "created_at": 1772779388657, "description": "Generate consistent, template-based Mermaid diagrams for technical content. Supports 12 diagram types (architecture, flowchart, sequence, concept-map, radial...", "description_zh": "", "downloads": 611, "homepage": "https://clawhub.ai/chunhualiao/skill-mermaid-diagrams", "iconUrl": null, "installs": 40, "name": "generate mermaid diagrams", "ownerName": "chunhualiao", "score": 1036.2782178049897, "slug": "skill-mermaid-diagrams", "source": "clawhub", "stars": 0, "tags": null, "updated_at": 1776770350134, "version": "1.0.0"}, {"category": "content-creation", "created_at": 1772782415137, "description": "Browse and search the AgentAPI directory - a curated database of APIs designed for AI agents. Find MCP-compatible APIs for search, AI, communication, databas...", "description_zh": "", "downloads": 611, "homepage": "https://clawhub.ai/gizmo-dev/agentapi-hub", "iconUrl": null, "installs": 38, "name": "AgentAPI Hub", "ownerName": "gizmo-dev", "score": 4794.413057124922, "slug": "agentapi-hub", "source": "clawhub", "stars": 0, "tags": ["api", "x402"], "updated_at": 1776770350129, "version": "1.0.0"}, {"category": "developer-tools", "created_at": 1772775205018, "description": "Search the web with AI-powered answers via Perplexity API. Returns grounded responses with citations. Supports batch queries.", "description_zh": "", "downloads": 611, "homepage": "https://clawhub.ai/mrnicholasbcarter-code/openrouter-perplexity", "iconUrl": null, "installs": 13, "name": "openrouter-perplexity", "ownerName": "mrnicholasbcarter-code", "score": 715.5488411856328, "slug": "openrouter-perplexity", "source": "clawhub", "stars": 0, "tags": null, "updated_at": 1776770350094, "version": "1.0.0"}, {"category": "developer-tools", "created_at": 1772774240069, "description": "A slow-channel inbox for leaving your operator important messages. Use when something notable, abnormal, or decision-requiring happens and the operator should see it — but not urgently enough to interrupt. Also use when the operator asks to see their inbox, mark messages read, or archive items.", "description_zh": "", "downloads": 611, "homepage": "https://clawhub.ai/dvdegenz/snail-mail", "iconUrl": null, "installs": 7, "name": "Snail Mail", "ownerName": "dvdegenz", "score": 715.5488411856328, "slug": "snail-mail", "source": "clawhub", "stars": 0, "tags": null, "updated_at": 1776770350067, "version": "1.0.2"}, {"category": "ai-intelligence", "created_at": 1773931499218, "description": "Multi-model OCR benchmark and comparison tool. Run OCR on images using Claude (Opus/Sonnet/Haiku via Bedrock), Gemini (Pro/Flash via Google AI Studio), and P...", "description_zh": "", "downloads": 611, "homepage": "https://clawhub.ai/yingfengli/ocr-benchmark", "iconUrl": null, "installs": 293, "name": "Ocr Benchmark", "ownerName": "yingfengli", "score": 2173.44906089926, "slug": "ocr-benchmark", "source": "clawhub", "stars": 0, "tags": null, "updated_at": 1776770349840, "version": "2.0.0"}, {"category": "data-analysis", "created_at": 1772781504174, "description": "Comprehensive real estate system for investment and operations, including strategies, market analysis, deal sourcing, financial calculators, stress testing,...", "description_zh": "", "downloads": 610, "homepage": "https://clawhub.ai/1kalin/afrexai-real-estate-engine", "iconUrl": null, "installs": 34, "name": "Real Estate Engine", "ownerName": "1kalin", "score": 39137.8332387975, "slug": "afrexai-real-estate-engine", "source": "clawhub", "stars": 4, "tags": ["investing", "property", "real-estate", "realestate", "rental"], "updated_at": 1776768550062, "version": "1.0.0"}, {"category": "data-analysis", "created_at": 1772787319990, "description": "Track and manage your habits using the Beaver Habit Tracker API.", "description_zh": "", "downloads": 610, "homepage": "https://clawhub.ai/daya0576/beaverhabits", "iconUrl": null, "installs": 4, "name": "Beaver Habit Tracker", "ownerName": "daya0576", "score": 5944.215820759031, "slug": "beaverhabits", "source": "clawhub", "stars": 2, "tags": null, "updated_at": 1776769271347, "version": "1.0.1"}, {"category": "developer-tools", "created_at": 1772773838429, "description": "Dispatch coding tasks to tmux sessions via Sandboxer. Use when you need to spawn Claude Code, Gemini, OpenCode, bash, or lazygit sessions in workspace repos, monitor their progress, or send them commands.", "description_zh": "", "downloads": 610, "homepage": "https://clawhub.ai/chriopter/sandboxer-tmux", "iconUrl": null, "installs": 4, "name": "Skill", "ownerName": "chriopter", "score": 1034.58218144197, "slug": "sandboxer-tmux", "source": "clawhub", "stars": 0, "tags": null, "updated_at": 1776770350156, "version": "1.0.1"}, {"category": "developer-tools", "created_at": 1772777117700, "description": "Text-to-Speech using SiliconFlow API (CosyVoice2). Supports multiple voices, languages, and dialects.", "description_zh": "", "downloads": 610, "homepage": "https://clawhub.ai/lilei0311/siliconflow-tts-gen", "iconUrl": null, "installs": 27, "name": "SiliconFlow TTS Gen", "ownerName": "lilei0311", "score": 1034.58218144197, "slug": "siliconflow-tts-gen", "source": "clawhub", "stars": 0, "tags": ["cosyvoice", "siliconflow", "text-to-speech", "tts"], "updated_at": 1776770350154, "version": "1.0.0"}, {"category": "content-creation", "created_at": 1773073971154, "description": "Generate beautiful images for WeChat articles (covers, comparisons, charts) with zero token cost. Use when user needs images for social media posts, article...", "description_zh": "", "downloads": 610, "homepage": "https://clawhub.ai/jingyu525/wechat-image-generator", "iconUrl": null, "installs": 176, "name": "Wechat Image Generator", "ownerName": "jingyu525", "score": 1446.663188350804, "slug": "wechat-image-generator", "source": "clawhub", "stars": 0, "tags": null, "updated_at": 1776770349998, "version": "1.0.2"}, {"category": "developer-tools", "created_at": 1772781865631, "description": "Korean website specialized scraper with anti-bot protection (Naver, Coupang, Daum, Instagram)", "description_zh": "", "downloads": 610, "homepage": "https://clawhub.ai/mupengi-bot/korean-scraper", "iconUrl": null, "installs": 53, "name": "Korean Scraper", "ownerName": "mupengi-bot", "score": 1446.663188350804, "slug": "korean-scraper", "source": "clawhub", "stars": 0, "tags": null, "updated_at": 1776770349996, "version": "1.0.0"}, {"category": "developer-tools", "created_at": 1772776476505, "description": "Manage GitHub stars with AI-powered categorization and cleanup. Use when a user wants to organize their starred repos into GitHub Lists, clean up stale/depre...", "description_zh": "", "downloads": 610, "homepage": "https://clawhub.ai/cosformula/github-star-manager-skill", "iconUrl": null, "installs": 28, "name": "GitHub Star Manager", "ownerName": "cosformula", "score": 1640.711154146158, "slug": "github-star-manager-skill", "source": "clawhub", "stars": 0, "tags": null, "updated_at": 1776770349887, "version": "0.1.2"}, {"category": "content-creation", "created_at": 1772779578837, "description": "Generates viral 6-slide TikTok photo carousels for Skinny Fat AI with hooks, realistic images, text overlays, captions, and CTAs to boost engagement.", "description_zh": "", "downloads": 610, "homepage": "https://clawhub.ai/muhammedalibalci/ozel-yetenek", "iconUrl": null, "installs": 64, "name": "Ozel Yetenek", "ownerName": "muhammedalibalci", "score": 1640.711154146158, "slug": "ozel-yetenek", "source": "clawhub", "stars": 0, "tags": null, "updated_at": 1776770349885, "version": "1.0.1"}, {"category": "productivity", "created_at": 1772772444476, "description": "Track the performance of Uniswap LP positions over time — check which positions need attention, are out of range, or have uncollected fees. Use when the user asks how their positions are doing.", "description_zh": "", "downloads": 610, "homepage": "https://clawhub.ai/wpank/track-performance", "iconUrl": null, "installs": 16, "name": "Uniswap Track Performance", "ownerName": "wpank", "score": 2169.891861126921, "slug": "track-performance", "source": "clawhub", "stars": 0, "tags": null, "updated_at": 1776770349831, "version": "0.1.0"}, {"category": "developer-tools", "created_at": 1772776037889, "description": "Provides a structured catalog of all Bolta skills, recommending install sets and routing to skill files for discovery and setup.", "description_zh": "", "downloads": 609, "homepage": "https://clawhub.ai/maxfritzhand/bolta-skills-index", "iconUrl": null, "installs": 11, "name": "Social Media Automation Skills Registry", "ownerName": "maxfritzhand", "score": 39081.111741349974, "slug": "bolta-skills-index", "source": "clawhub", "stars": 4, "tags": ["marketing-automation", "publishing", "social-media-automation", "social-media-tools"], "updated_at": 1776768550048, "version": "0.5.4"}, {"category": "developer-tools", "created_at": 1772776037889, "description": "Provides a structured catalog of all Bolta skills, recommending install sets and routing to skill files for discovery and setup.", "description_zh": "", "downloads": 609, "homepage": "https://clawhub.ai/maxfritzhand/bolta-skills-index", "iconUrl": null, "installs": 11, "name": "Social Media Automation Skills Registry", "ownerName": "maxfritzhand", "score": 7608.21554770318, "slug": "bolta-skills-index", "source": "clawhub", "stars": 4, "tags": ["marketing-automation", "publishing", "social-media-automation", "social-media-tools"], "updated_at": 1776768550048, "version": "0.5.4"}, {"category": "productivity", "created_at": 1772776700178, "description": "Launch, hunt, and research products on Product Hunt with timing, assets, engagement, and anti-manipulation practices.", "description_zh": "", "downloads": 609, "homepage": "https://clawhub.ai/ivangdavila/product-hunt", "iconUrl": null, "installs": 18, "name": "Product Hunt", "ownerName": "ivangdavila", "score": 8644.11294619073, "slug": "product-hunt", "source": "clawhub", "stars": 2, "tags": null, "updated_at": 1776769271193, "version": "1.0.0"}, {"category": "data-analysis", "created_at": 1772772970609, "description": "Write Serbian that sounds human. Not formal, not robotic, not AI-generated.", "description_zh": "", "downloads": 609, "homepage": "https://clawhub.ai/ivangdavila/serbian", "iconUrl": null, "installs": 20, "name": "Serbian", "ownerName": "ivangdavila", "score": 8644.11294619073, "slug": "serbian", "source": "clawhub", "stars": 2, "tags": null, "updated_at": 1776769271191, "version": "1.0.0"}, {"category": "security-compliance", "created_at": 1772772219328, "description": "Pre-install security scanner for AI agent skills. Detects malicious patterns before you trust code. Local-first — code never leaves your machine.", "description_zh": "", "downloads": 609, "homepage": "https://clawhub.ai/adamthompson33/moltcops-skill", "iconUrl": null, "installs": 8, "name": "Moltcops Skill", "ownerName": "adamthompson33", "score": 4778.719397363465, "slug": "moltcops-skill", "source": "clawhub", "stars": 0, "tags": null, "updated_at": 1776770350124, "version": "1.0.0"}]}