{"page": 15, "total_pages": 22, "total": 1089, "skills": [{"slug": "microsoft-azure-eventhub-java", "name": "microsoft/azure-eventhub-java", "description": "Real-time high-throughput streaming", "description_zh": "", "homepage": "https://officialskills.sh/microsoft/skills/azure-eventhub-java", "tags": ["Java Skills"], "category": "Java Skills", "ownerName": "", "sources": ["VoltAgent/awesome-agent-skills"], "score": 400, "downloads": 0, "stars": 0, "installs": 0, "version": "", "updated_at": 0}, {"slug": "microsoft-azure-eventhub-py", "name": "microsoft/azure-eventhub-py", "description": "High-throughput event streaming", "description_zh": "", "homepage": "https://officialskills.sh/microsoft/skills/azure-eventhub-py", "tags": ["Python Skills"], "category": "Python Skills", "ownerName": "", "sources": ["VoltAgent/awesome-agent-skills"], "score": 399, "downloads": 0, "stars": 0, "installs": 0, "version": "", "updated_at": 0}, {"slug": "microsoft-azure-eventhub-rust", "name": "microsoft/azure-eventhub-rust", "description": "Event Hubs streaming client", "description_zh": "", "homepage": "https://officialskills.sh/microsoft/skills/azure-eventhub-rust", "tags": ["Rust Skills"], "category": "Rust Skills", "ownerName": "", "sources": ["VoltAgent/awesome-agent-skills"], "score": 398, "downloads": 0, "stars": 0, "installs": 0, "version": "", "updated_at": 0}, {"slug": "microsoft-azure-eventhub-ts", "name": "microsoft/azure-eventhub-ts", "description": "High-throughput event streaming", "description_zh": "", "homepage": "https://officialskills.sh/microsoft/skills/azure-eventhub-ts", "tags": ["TypeScript Skills"], "category": "TypeScript Skills", "ownerName": "", "sources": ["VoltAgent/awesome-agent-skills"], "score": 397, "downloads": 0, "stars": 0, "installs": 0, "version": "", "updated_at": 0}, {"slug": "microsoft-azure-identity-dotnet", "name": "microsoft/azure-identity-dotnet", "description": "Microsoft Entra ID authentication", "description_zh": "", "homepage": "https://officialskills.sh/microsoft/skills/azure-identity-dotnet", "tags": [".NET Skills"], "category": ".NET Skills", "ownerName": "", "sources": ["VoltAgent/awesome-agent-skills"], "score": 396, "downloads": 0, "stars": 0, "installs": 0, "version": "", "updated_at": 0}, {"slug": "microsoft-azure-identity-java", "name": "microsoft/azure-identity-java", "description": "Microsoft Entra ID authentication", "description_zh": "", "homepage": "https://officialskills.sh/microsoft/skills/azure-identity-java", "tags": ["Java Skills"], "category": "Java Skills", "ownerName": "", "sources": ["VoltAgent/awesome-agent-skills"], "score": 395, "downloads": 0, "stars": 0, "installs": 0, "version": "", "updated_at": 0}, {"slug": "microsoft-azure-identity-py", "name": "microsoft/azure-identity-py", "description": "Microsoft Entra ID authentication", "description_zh": "", "homepage": "https://officialskills.sh/microsoft/skills/azure-identity-py", "tags": ["Python Skills"], "category": "Python Skills", "ownerName": "", "sources": ["VoltAgent/awesome-agent-skills"], "score": 394, "downloads": 0, "stars": 0, "installs": 0, "version": "", "updated_at": 0}, {"slug": "microsoft-azure-identity-rust", "name": "microsoft/azure-identity-rust", "description": "Microsoft Entra ID authentication", "description_zh": "", "homepage": "https://officialskills.sh/microsoft/skills/azure-identity-rust", "tags": ["Rust Skills"], "category": "Rust Skills", "ownerName": "", "sources": ["VoltAgent/awesome-agent-skills"], "score": 393, "downloads": 0, "stars": 0, "installs": 0, "version": "", "updated_at": 0}, {"slug": "microsoft-azure-identity-ts", "name": "microsoft/azure-identity-ts", "description": "Microsoft Entra ID authentication", "description_zh": "", "homepage": "https://officialskills.sh/microsoft/skills/azure-identity-ts", "tags": ["TypeScript Skills"], "category": "TypeScript Skills", "ownerName": "", "sources": ["VoltAgent/awesome-agent-skills"], "score": 392, "downloads": 0, "stars": 0, "installs": 0, "version": "", "updated_at": 0}, {"slug": "microsoft-azure-keyvault-certificates-rust", "name": "microsoft/azure-keyvault-certificates-rust", "description": "Key Vault certificate management", "description_zh": "", "homepage": "https://officialskills.sh/microsoft/skills/azure-keyvault-certificates-rust", "tags": ["Rust Skills"], "category": "Rust Skills", "ownerName": "", "sources": ["VoltAgent/awesome-agent-skills"], "score": 391, "downloads": 0, "stars": 0, "installs": 0, "version": "", "updated_at": 0}, {"slug": "microsoft-azure-keyvault-keys-rust", "name": "microsoft/azure-keyvault-keys-rust", "description": "Key Vault cryptographic key management", "description_zh": "", "homepage": "https://officialskills.sh/microsoft/skills/azure-keyvault-keys-rust", "tags": ["Rust Skills"], "category": "Rust Skills", "ownerName": "", "sources": ["VoltAgent/awesome-agent-skills"], "score": 390, "downloads": 0, "stars": 0, "installs": 0, "version": "", "updated_at": 0}, {"slug": "microsoft-azure-keyvault-keys-ts", "name": "microsoft/azure-keyvault-keys-ts", "description": "Cryptographic key management", "description_zh": "", "homepage": "https://officialskills.sh/microsoft/skills/azure-keyvault-keys-ts", "tags": ["TypeScript Skills"], "category": "TypeScript Skills", "ownerName": "", "sources": ["VoltAgent/awesome-agent-skills"], "score": 389, "downloads": 0, "stars": 0, "installs": 0, "version": "", "updated_at": 0}, {"slug": "microsoft-azure-keyvault-py", "name": "microsoft/azure-keyvault-py", "description": "Secrets, keys, and certificate management", "description_zh": "", "homepage": "https://officialskills.sh/microsoft/skills/azure-keyvault-py", "tags": ["Python Skills"], "category": "Python Skills", "ownerName": "", "sources": ["VoltAgent/awesome-agent-skills"], "score": 388, "downloads": 0, "stars": 0, "installs": 0, "version": "", "updated_at": 0}, {"slug": "microsoft-azure-keyvault-secrets-rust", "name": "microsoft/azure-keyvault-secrets-rust", "description": "Key Vault secret storage", "description_zh": "", "homepage": "https://officialskills.sh/microsoft/skills/azure-keyvault-secrets-rust", "tags": ["Rust Skills"], "category": "Rust Skills", "ownerName": "", "sources": ["VoltAgent/awesome-agent-skills"], "score": 387, "downloads": 0, "stars": 0, "installs": 0, "version": "", "updated_at": 0}, {"slug": "microsoft-azure-keyvault-secrets-ts", "name": "microsoft/azure-keyvault-secrets-ts", "description": "Secret storage and retrieval", "description_zh": "", "homepage": "https://officialskills.sh/microsoft/skills/azure-keyvault-secrets-ts", "tags": ["TypeScript Skills"], "category": "TypeScript Skills", "ownerName": "", "sources": ["VoltAgent/awesome-agent-skills"], "score": 386, "downloads": 0, "stars": 0, "installs": 0, "version": "", "updated_at": 0}, {"slug": "microsoft-azure-maps-search-dotnet", "name": "microsoft/azure-maps-search-dotnet", "description": "Geocoding, routing, and weather services", "description_zh": "", "homepage": "https://officialskills.sh/microsoft/skills/azure-maps-search-dotnet", "tags": [".NET Skills"], "category": ".NET Skills", "ownerName": "", "sources": ["VoltAgent/awesome-agent-skills"], "score": 385, "downloads": 0, "stars": 0, "installs": 0, "version": "", "updated_at": 0}, {"slug": "microsoft-azure-messaging-webpubsub-java", "name": "microsoft/azure-messaging-webpubsub-java", "description": "Real-time WebSocket messaging", "description_zh": "", "homepage": "https://officialskills.sh/microsoft/skills/azure-messaging-webpubsub-java", "tags": ["Java Skills"], "category": "Java Skills", "ownerName": "", "sources": ["VoltAgent/awesome-agent-skills"], "score": 384, "downloads": 0, "stars": 0, "installs": 0, "version": "", "updated_at": 0}, {"slug": "microsoft-azure-messaging-webpubsubservice-py", "name": "microsoft/azure-messaging-webpubsubservice-py", "description": "Real-time WebSocket messaging", "description_zh": "", "homepage": "https://officialskills.sh/microsoft/skills/azure-messaging-webpubsubservice-py", "tags": ["Python Skills"], "category": "Python Skills", "ownerName": "", "sources": ["VoltAgent/awesome-agent-skills"], "score": 383, "downloads": 0, "stars": 0, "installs": 0, "version": "", "updated_at": 0}, {"slug": "microsoft-azure-mgmt-apicenter-dotnet", "name": "microsoft/azure-mgmt-apicenter-dotnet", "description": "API inventory and governance", "description_zh": "", "homepage": "https://officialskills.sh/microsoft/skills/azure-mgmt-apicenter-dotnet", "tags": [".NET Skills"], "category": ".NET Skills", "ownerName": "", "sources": ["VoltAgent/awesome-agent-skills"], "score": 382, "downloads": 0, "stars": 0, "installs": 0, "version": "", "updated_at": 0}, {"slug": "microsoft-azure-mgmt-apicenter-py", "name": "microsoft/azure-mgmt-apicenter-py", "description": "API inventory and governance", "description_zh": "", "homepage": "https://officialskills.sh/microsoft/skills/azure-mgmt-apicenter-py", "tags": ["Python Skills"], "category": "Python Skills", "ownerName": "", "sources": ["VoltAgent/awesome-agent-skills"], "score": 381, "downloads": 0, "stars": 0, "installs": 0, "version": "", "updated_at": 0}, {"slug": "microsoft-azure-mgmt-apimanagement-dotnet", "name": "microsoft/azure-mgmt-apimanagement-dotnet", "description": "API Management provisioning via ARM", "description_zh": "", "homepage": "https://officialskills.sh/microsoft/skills/azure-mgmt-apimanagement-dotnet", "tags": [".NET Skills"], "category": ".NET Skills", "ownerName": "", "sources": ["VoltAgent/awesome-agent-skills"], "score": 380, "downloads": 0, "stars": 0, "installs": 0, "version": "", "updated_at": 0}, {"slug": "microsoft-azure-mgmt-apimanagement-py", "name": "microsoft/azure-mgmt-apimanagement-py", "description": "API Management service administration", "description_zh": "", "homepage": "https://officialskills.sh/microsoft/skills/azure-mgmt-apimanagement-py", "tags": ["Python Skills"], "category": "Python Skills", "ownerName": "", "sources": ["VoltAgent/awesome-agent-skills"], "score": 379, "downloads": 0, "stars": 0, "installs": 0, "version": "", "updated_at": 0}, {"slug": "microsoft-azure-mgmt-applicationinsights-dotnet", "name": "microsoft/azure-mgmt-applicationinsights-dotnet", "description": "Application Insights resource management", "description_zh": "", "homepage": "https://officialskills.sh/microsoft/skills/azure-mgmt-applicationinsights-dotnet", "tags": [".NET Skills"], "category": ".NET Skills", "ownerName": "", "sources": ["VoltAgent/awesome-agent-skills"], "score": 378, "downloads": 0, "stars": 0, "installs": 0, "version": "", "updated_at": 0}, {"slug": "microsoft-azure-mgmt-arizeaiobservabilityeval-dotnet", "name": "microsoft/azure-mgmt-arizeaiobservabilityeval-dotnet", "description": "Arize AI observability management", "description_zh": "", "homepage": "https://officialskills.sh/microsoft/skills/azure-mgmt-arizeaiobservabilityeval-dotnet", "tags": [".NET Skills"], "category": ".NET Skills", "ownerName": "", "sources": ["VoltAgent/awesome-agent-skills"], "score": 377, "downloads": 0, "stars": 0, "installs": 0, "version": "", "updated_at": 0}, {"slug": "microsoft-azure-mgmt-botservice-dotnet", "name": "microsoft/azure-mgmt-botservice-dotnet", "description": "Bot Service provisioning via ARM", "description_zh": "", "homepage": "https://officialskills.sh/microsoft/skills/azure-mgmt-botservice-dotnet", "tags": [".NET Skills"], "category": ".NET Skills", "ownerName": "", "sources": ["VoltAgent/awesome-agent-skills"], "score": 376, "downloads": 0, "stars": 0, "installs": 0, "version": "", "updated_at": 0}, {"slug": "microsoft-azure-mgmt-botservice-py", "name": "microsoft/azure-mgmt-botservice-py", "description": "Bot Service resource management", "description_zh": "", "homepage": "https://officialskills.sh/microsoft/skills/azure-mgmt-botservice-py", "tags": ["Python Skills"], "category": "Python Skills", "ownerName": "", "sources": ["VoltAgent/awesome-agent-skills"], "score": 375, "downloads": 0, "stars": 0, "installs": 0, "version": "", "updated_at": 0}, {"slug": "microsoft-azure-mgmt-fabric-dotnet", "name": "microsoft/azure-mgmt-fabric-dotnet", "description": "Microsoft Fabric capacity management", "description_zh": "", "homepage": "https://officialskills.sh/microsoft/skills/azure-mgmt-fabric-dotnet", "tags": [".NET Skills"], "category": ".NET Skills", "ownerName": "", "sources": ["VoltAgent/awesome-agent-skills"], "score": 374, "downloads": 0, "stars": 0, "installs": 0, "version": "", "updated_at": 0}, {"slug": "microsoft-azure-mgmt-fabric-py", "name": "microsoft/azure-mgmt-fabric-py", "description": "Microsoft Fabric capacity management", "description_zh": "", "homepage": "https://officialskills.sh/microsoft/skills/azure-mgmt-fabric-py", "tags": ["Python Skills"], "category": "Python Skills", "ownerName": "", "sources": ["VoltAgent/awesome-agent-skills"], "score": 373, "downloads": 0, "stars": 0, "installs": 0, "version": "", "updated_at": 0}, {"slug": "microsoft-azure-mgmt-mongodbatlas-dotnet", "name": "microsoft/azure-mgmt-mongodbatlas-dotnet", "description": "MongoDB Atlas as ARM resources", "description_zh": "", "homepage": "https://officialskills.sh/microsoft/skills/azure-mgmt-mongodbatlas-dotnet", "tags": [".NET Skills"], "category": ".NET Skills", "ownerName": "", "sources": ["VoltAgent/awesome-agent-skills"], "score": 372, "downloads": 0, "stars": 0, "installs": 0, "version": "", "updated_at": 0}, {"slug": "microsoft-azure-mgmt-weightsandbiases-dotnet", "name": "microsoft/azure-mgmt-weightsandbiases-dotnet", "description": "Weights & Biases deployment management", "description_zh": "", "homepage": "https://officialskills.sh/microsoft/skills/azure-mgmt-weightsandbiases-dotnet", "tags": [".NET Skills"], "category": ".NET Skills", "ownerName": "", "sources": ["VoltAgent/awesome-agent-skills"], "score": 371, "downloads": 0, "stars": 0, "installs": 0, "version": "", "updated_at": 0}, {"slug": "microsoft-azure-microsoft-playwright-testing-ts", "name": "microsoft/azure-microsoft-playwright-testing-ts", "description": "Playwright tests at scale on Azure", "description_zh": "", "homepage": "https://officialskills.sh/microsoft/skills/azure-microsoft-playwright-testing-ts", "tags": ["TypeScript Skills"], "category": "TypeScript Skills", "ownerName": "", "sources": ["VoltAgent/awesome-agent-skills"], "score": 370, "downloads": 0, "stars": 0, "installs": 0, "version": "", "updated_at": 0}, {"slug": "microsoft-azure-monitor-ingestion-java", "name": "microsoft/azure-monitor-ingestion-java", "description": "Custom log ingestion to Azure Monitor", "description_zh": "", "homepage": "https://officialskills.sh/microsoft/skills/azure-monitor-ingestion-java", "tags": ["Java Skills"], "category": "Java Skills", "ownerName": "", "sources": ["VoltAgent/awesome-agent-skills"], "score": 369, "downloads": 0, "stars": 0, "installs": 0, "version": "", "updated_at": 0}, {"slug": "microsoft-azure-monitor-ingestion-py", "name": "microsoft/azure-monitor-ingestion-py", "description": "Custom log ingestion to Azure Monitor", "description_zh": "", "homepage": "https://officialskills.sh/microsoft/skills/azure-monitor-ingestion-py", "tags": ["Python Skills"], "category": "Python Skills", "ownerName": "", "sources": ["VoltAgent/awesome-agent-skills"], "score": 368, "downloads": 0, "stars": 0, "installs": 0, "version": "", "updated_at": 0}, {"slug": "microsoft-azure-monitor-opentelemetry-exporter-java", "name": "microsoft/azure-monitor-opentelemetry-exporter-java", "description": "OpenTelemetry export to Azure Monitor", "description_zh": "", "homepage": "https://officialskills.sh/microsoft/skills/azure-monitor-opentelemetry-exporter-java", "tags": ["Java Skills"], "category": "Java Skills", "ownerName": "", "sources": ["VoltAgent/awesome-agent-skills"], "score": 367, "downloads": 0, "stars": 0, "installs": 0, "version": "", "updated_at": 0}, {"slug": "microsoft-azure-monitor-opentelemetry-exporter-py", "name": "microsoft/azure-monitor-opentelemetry-exporter-py", "description": "OpenTelemetry export to Application Insights", "description_zh": "", "homepage": "https://officialskills.sh/microsoft/skills/azure-monitor-opentelemetry-exporter-py", "tags": ["Python Skills"], "category": "Python Skills", "ownerName": "", "sources": ["VoltAgent/awesome-agent-skills"], "score": 366, "downloads": 0, "stars": 0, "installs": 0, "version": "", "updated_at": 0}, {"slug": "microsoft-azure-monitor-opentelemetry-py", "name": "microsoft/azure-monitor-opentelemetry-py", "description": "One-line Application Insights setup", "description_zh": "", "homepage": "https://officialskills.sh/microsoft/skills/azure-monitor-opentelemetry-py", "tags": ["Python Skills"], "category": "Python Skills", "ownerName": "", "sources": ["VoltAgent/awesome-agent-skills"], "score": 365, "downloads": 0, "stars": 0, "installs": 0, "version": "", "updated_at": 0}, {"slug": "microsoft-azure-monitor-opentelemetry-ts", "name": "microsoft/azure-monitor-opentelemetry-ts", "description": "Application Insights tracing and metrics", "description_zh": "", "homepage": "https://officialskills.sh/microsoft/skills/azure-monitor-opentelemetry-ts", "tags": ["TypeScript Skills"], "category": "TypeScript Skills", "ownerName": "", "sources": ["VoltAgent/awesome-agent-skills"], "score": 364, "downloads": 0, "stars": 0, "installs": 0, "version": "", "updated_at": 0}, {"slug": "microsoft-azure-monitor-query-java", "name": "microsoft/azure-monitor-query-java", "description": "Query Azure Monitor logs and metrics", "description_zh": "", "homepage": "https://officialskills.sh/microsoft/skills/azure-monitor-query-java", "tags": ["Java Skills"], "category": "Java Skills", "ownerName": "", "sources": ["VoltAgent/awesome-agent-skills"], "score": 363, "downloads": 0, "stars": 0, "installs": 0, "version": "", "updated_at": 0}, {"slug": "microsoft-azure-monitor-query-py", "name": "microsoft/azure-monitor-query-py", "description": "Query Azure Monitor logs and metrics", "description_zh": "", "homepage": "https://officialskills.sh/microsoft/skills/azure-monitor-query-py", "tags": ["Python Skills"], "category": "Python Skills", "ownerName": "", "sources": ["VoltAgent/awesome-agent-skills"], "score": 362, "downloads": 0, "stars": 0, "installs": 0, "version": "", "updated_at": 0}, {"slug": "microsoft-azure-postgres-ts", "name": "microsoft/azure-postgres-ts", "description": "PostgreSQL Flexible Server connection", "description_zh": "", "homepage": "https://officialskills.sh/microsoft/skills/azure-postgres-ts", "tags": ["TypeScript Skills"], "category": "TypeScript Skills", "ownerName": "", "sources": ["VoltAgent/awesome-agent-skills"], "score": 361, "downloads": 0, "stars": 0, "installs": 0, "version": "", "updated_at": 0}, {"slug": "microsoft-azure-resource-manager-cosmosdb-dotnet", "name": "microsoft/azure-resource-manager-cosmosdb-dotnet", "description": "Cosmos DB resource provisioning", "description_zh": "", "homepage": "https://officialskills.sh/microsoft/skills/azure-resource-manager-cosmosdb-dotnet", "tags": [".NET Skills"], "category": ".NET Skills", "ownerName": "", "sources": ["VoltAgent/awesome-agent-skills"], "score": 360, "downloads": 0, "stars": 0, "installs": 0, "version": "", "updated_at": 0}, {"slug": "microsoft-azure-resource-manager-durabletask-dotnet", "name": "microsoft/azure-resource-manager-durabletask-dotnet", "description": "Durable Task Scheduler management", "description_zh": "", "homepage": "https://officialskills.sh/microsoft/skills/azure-resource-manager-durabletask-dotnet", "tags": [".NET Skills"], "category": ".NET Skills", "ownerName": "", "sources": ["VoltAgent/awesome-agent-skills"], "score": 359, "downloads": 0, "stars": 0, "installs": 0, "version": "", "updated_at": 0}, {"slug": "microsoft-azure-resource-manager-mysql-dotnet", "name": "microsoft/azure-resource-manager-mysql-dotnet", "description": "MySQL Flexible Server management", "description_zh": "", "homepage": "https://officialskills.sh/microsoft/skills/azure-resource-manager-mysql-dotnet", "tags": [".NET Skills"], "category": ".NET Skills", "ownerName": "", "sources": ["VoltAgent/awesome-agent-skills"], "score": 358, "downloads": 0, "stars": 0, "installs": 0, "version": "", "updated_at": 0}, {"slug": "microsoft-azure-resource-manager-playwright-dotnet", "name": "microsoft/azure-resource-manager-playwright-dotnet", "description": "Playwright Testing workspace management", "description_zh": "", "homepage": "https://officialskills.sh/microsoft/skills/azure-resource-manager-playwright-dotnet", "tags": [".NET Skills"], "category": ".NET Skills", "ownerName": "", "sources": ["VoltAgent/awesome-agent-skills"], "score": 357, "downloads": 0, "stars": 0, "installs": 0, "version": "", "updated_at": 0}, {"slug": "microsoft-azure-resource-manager-postgresql-dotnet", "name": "microsoft/azure-resource-manager-postgresql-dotnet", "description": "PostgreSQL Flexible Server management", "description_zh": "", "homepage": "https://officialskills.sh/microsoft/skills/azure-resource-manager-postgresql-dotnet", "tags": [".NET Skills"], "category": ".NET Skills", "ownerName": "", "sources": ["VoltAgent/awesome-agent-skills"], "score": 356, "downloads": 0, "stars": 0, "installs": 0, "version": "", "updated_at": 0}, {"slug": "microsoft-azure-resource-manager-redis-dotnet", "name": "microsoft/azure-resource-manager-redis-dotnet", "description": "Azure Cache for Redis provisioning", "description_zh": "", "homepage": "https://officialskills.sh/microsoft/skills/azure-resource-manager-redis-dotnet", "tags": [".NET Skills"], "category": ".NET Skills", "ownerName": "", "sources": ["VoltAgent/awesome-agent-skills"], "score": 355, "downloads": 0, "stars": 0, "installs": 0, "version": "", "updated_at": 0}, {"slug": "microsoft-azure-resource-manager-sql-dotnet", "name": "microsoft/azure-resource-manager-sql-dotnet", "description": "Azure SQL resource management", "description_zh": "", "homepage": "https://officialskills.sh/microsoft/skills/azure-resource-manager-sql-dotnet", "tags": [".NET Skills"], "category": ".NET Skills", "ownerName": "", "sources": ["VoltAgent/awesome-agent-skills"], "score": 354, "downloads": 0, "stars": 0, "installs": 0, "version": "", "updated_at": 0}, {"slug": "microsoft-azure-search-documents-dotnet", "name": "microsoft/azure-search-documents-dotnet", "description": "Full-text, vector, and hybrid search", "description_zh": "", "homepage": "https://officialskills.sh/microsoft/skills/azure-search-documents-dotnet", "tags": [".NET Skills"], "category": ".NET Skills", "ownerName": "", "sources": ["VoltAgent/awesome-agent-skills"], "score": 353, "downloads": 0, "stars": 0, "installs": 0, "version": "", "updated_at": 0}, {"slug": "microsoft-azure-search-documents-py", "name": "microsoft/azure-search-documents-py", "description": "Full-text, vector, and hybrid search", "description_zh": "", "homepage": "https://officialskills.sh/microsoft/skills/azure-search-documents-py", "tags": ["Python Skills"], "category": "Python Skills", "ownerName": "", "sources": ["VoltAgent/awesome-agent-skills"], "score": 352, "downloads": 0, "stars": 0, "installs": 0, "version": "", "updated_at": 0}, {"slug": "microsoft-azure-search-documents-ts", "name": "microsoft/azure-search-documents-ts", "description": "Vector/hybrid search with semantic ranking", "description_zh": "", "homepage": "https://officialskills.sh/microsoft/skills/azure-search-documents-ts", "tags": ["TypeScript Skills"], "category": "TypeScript Skills", "ownerName": "", "sources": ["VoltAgent/awesome-agent-skills"], "score": 351, "downloads": 0, "stars": 0, "installs": 0, "version": "", "updated_at": 0}]}