{"page": 151, "total_pages": 522, "total": 26073, "skills": [{"category": "productivity", "created_at": 1772775041546, "description": "Return system metrics (CPU, RAM, disk, processes) using psutil.", "description_zh": "", "downloads": 603, "homepage": "https://clawhub.ai/iyeque/iyeque-local-system-info", "iconUrl": null, "installs": 13, "name": "Local System Info (Iyeque)", "ownerName": "iyeque", "score": 2923.494618442742, "slug": "iyeque-local-system-info", "source": "clawhub", "stars": 0, "tags": null, "updated_at": 1776770471132, "version": "1.1.0"}, {"category": "security-compliance", "created_at": 1772780372892, "description": "Repair-first self-evolution for OpenClaw — audit logs, memory, and skills; run measurable mutation cycles. Get paid. Evolve. Repeat. Dolla dolla bill y'all.", "description_zh": "", "downloads": 603, "homepage": "https://clawhub.ai/icemastert/funky-fund-flamingo", "iconUrl": null, "installs": 50, "name": "Funky Fund Flamingo", "ownerName": "icemastert", "score": 1691.4920474627618, "slug": "funky-fund-flamingo", "source": "clawhub", "stars": 0, "tags": ["automate", "automation", "cash", "evolve", "flamingo", "fun", "fund", "funky", "google", "harry-potter", "icantbelieveiatethewholething", "jesus", "making", "money", "motor-oil", "omg", "pink", "telegram", "tiktok", "top", "top-10", "top10", "x", "youtube"], "updated_at": 1776770471110, "version": "1.0.1"}, {"category": "developer-tools", "created_at": 1772779787683, "description": "Manages the full deploy cycle — build validation, GitHub push, Vercel deployment, and health checks", "description_zh": "", "downloads": 603, "homepage": "https://clawhub.ai/guifav/deploy-pilot", "iconUrl": null, "installs": 15, "name": "Deploy Pilot", "ownerName": "guifav", "score": 782.2939505195832, "slug": "deploy-pilot", "source": "clawhub", "stars": 0, "tags": null, "updated_at": 1776770471047, "version": "0.1.1"}, {"category": "content-creation", "created_at": 1774617561877, "description": "MinerU document extraction CLI that converts PDFs, images, and web pages into Markdown, HTML, LaTeX, or DOCX via the MinerU API. Supports token-free flash ex...", "description_zh": "", "downloads": 602, "homepage": "https://clawhub.ai/mineru-extract/mineru-document-extractor", "iconUrl": null, "installs": 66, "name": "MinerU Document Extractor", "ownerName": "mineru-extract", "score": 8278.708424374847, "slug": "mineru-document-extractor", "source": "clawhub", "stars": 4, "tags": null, "updated_at": 1776768590456, "version": "1.0.7"}, {"category": "content-creation", "created_at": 1772785580030, "description": "Lightweight website uptime monitor. Check if URLs are up, measure response times, detect content changes via hashing, and verify expected content. Zero depen...", "description_zh": "", "downloads": 602, "homepage": "https://clawhub.ai/claudiodrusus/website-monitor", "iconUrl": null, "installs": 44, "name": "Website Monitor", "ownerName": "claudiodrusus", "score": 894.4490669202426, "slug": "website-monitor", "source": "clawhub", "stars": 0, "tags": null, "updated_at": 1776770650193, "version": "1.1.0"}, {"category": "communication-collaboration", "created_at": 1773079848192, "description": "Gmail: Send an email.", "description_zh": "", "downloads": 602, "homepage": "https://clawhub.ai/googleworkspace-bot/gws-gmail-send", "iconUrl": null, "installs": 33, "name": "Gws Gmail Send", "ownerName": "googleworkspace-bot", "score": 1547.677198755688, "slug": "gws-gmail-send", "source": "clawhub", "stars": 0, "tags": null, "updated_at": 1776770471400, "version": "1.0.13"}, {"category": "ai-intelligence", "created_at": 1772780270099, "description": "Auto-generate government startup business plans, infrastructure diagrams, and investor pitch decks with version-controlled iterative refinement and detailed...", "description_zh": "", "downloads": 602, "homepage": "https://clawhub.ai/mupengi-bot/business-planner", "iconUrl": null, "installs": 58, "name": "business-planner", "ownerName": "mupengi-bot", "score": 2641.161760189532, "slug": "business-planner", "source": "clawhub", "stars": 0, "tags": null, "updated_at": 1776770471348, "version": "1.0.0"}, {"category": "communication-collaboration", "created_at": 1772778612176, "description": "Send emails via SMTP with support for HTML formatting, file attachments, and email templates. Use when users ask to: (1) Send an email, (2) Email someone, (3...", "description_zh": "", "downloads": 602, "homepage": "https://clawhub.ai/wangyendt/send-email-2", "iconUrl": null, "installs": 30, "name": "Send Email", "ownerName": "wangyendt", "score": 2641.161760189532, "slug": "send-email-2", "source": "clawhub", "stars": 0, "tags": null, "updated_at": 1776770471322, "version": "0.1.1"}, {"category": "security-compliance", "created_at": 1772777990974, "description": "Generate a comprehensive, customizable employee handbook covering policies, benefits, conduct, leave, work models, compliance, and legal requirements tailore...", "description_zh": "", "downloads": 602, "homepage": "https://clawhub.ai/1kalin/afrexai-employee-handbook", "iconUrl": null, "installs": 39, "name": "Employee Handbook Generator", "ownerName": "1kalin", "score": 2083.8381390840805, "slug": "afrexai-employee-handbook", "source": "clawhub", "stars": 0, "tags": ["compliance", "employee handbook", "hr", "onboarding", "policies"], "updated_at": 1776770471277, "version": "1.0.0"}, {"category": "data-analysis", "created_at": 1772786627105, "description": "Provides expert guidance on applying the Elliott Wave Principle to financial market analysis. Use when the user asks about wave counting, identifying impulse...", "description_zh": "", "downloads": 602, "homepage": "https://clawhub.ai/raeed44-creator/elliott-wave-principle", "iconUrl": null, "installs": 80, "name": "elliott-wave-principle", "ownerName": "raeed44-creator", "score": 2918.646368660913, "slug": "elliott-wave-principle", "source": "clawhub", "stars": 0, "tags": null, "updated_at": 1776770471172, "version": "1.0.0"}, {"category": "content-creation", "created_at": 1772774538398, "description": "Generate QR codes for NEAR addresses and payment requests, and read NEAR QR codes from images.", "description_zh": "", "downloads": 602, "homepage": "https://clawhub.ai/ussyalfaks/near-qr-skill", "iconUrl": null, "installs": 30, "name": "Near Qr Skill", "ownerName": "ussyalfaks", "score": 1688.6869196891919, "slug": "near-qr-skill", "source": "clawhub", "stars": 0, "tags": null, "updated_at": 1776770471106, "version": "1.0.0"}, {"category": "productivity", "created_at": 1773057880723, "description": "Global price comparison tool with international platform support. Compare prices across Amazon, eBay, AliExpress, Temu (international) AND JD, Taobao, Tmall,...", "description_zh": "", "downloads": 601, "homepage": "https://clawhub.ai/sunkinux/price-hunter", "iconUrl": null, "installs": 82, "name": "Price Hunter", "ownerName": "sunkinux", "score": 12806.764281295113, "slug": "price-hunter", "source": "clawhub", "stars": 1, "tags": null, "updated_at": 1776770050020, "version": "1.0.0"}, {"category": "security-compliance", "created_at": 1772777723934, "description": "Performs a detailed energy audit of commercial buildings, benchmarking usage, identifying 10 prioritized ECMs with payback and ROI, and generating a retrofit...", "description_zh": "", "downloads": 601, "homepage": "https://clawhub.ai/1kalin/afrexai-energy-audit", "iconUrl": null, "installs": 32, "name": "Energy Audit", "ownerName": "1kalin", "score": 2542.4087313338127, "slug": "afrexai-energy-audit", "source": "clawhub", "stars": 0, "tags": ["audit", "building", "energy", "facilities", "operations", "sustainability"], "updated_at": 1776770650245, "version": "1.0.0"}, {"category": "productivity", "created_at": 1772774850134, "description": "Handles sales objections with proven response frameworks", "description_zh": "", "downloads": 601, "homepage": "https://clawhub.ai/1kalin/objection-handler", "iconUrl": null, "installs": 23, "name": "Objection Handler", "ownerName": "1kalin", "score": 1891.3050319413412, "slug": "objection-handler", "source": "clawhub", "stars": 0, "tags": ["closing", "objections", "sales"], "updated_at": 1776770650204, "version": "1.0.0"}, {"category": "data-analysis", "created_at": 1772774613935, "description": "Orchestrates early token launch detection, on-chain risk analysis, social signal verification, and guarded swap execution on Solana and Base chains.", "description_zh": "", "downloads": 601, "homepage": "https://clawhub.ai/h4gen/defi-sniper", "iconUrl": null, "installs": 9, "name": "Defi Sniper", "ownerName": "h4gen", "score": 1513.7013902881322, "slug": "defi-sniper", "source": "clawhub", "stars": 0, "tags": null, "updated_at": 1776770650092, "version": "1.0.0"}, {"category": "data-analysis", "created_at": 1772775383237, "description": "Türkiye'den önemli haberleri RSS ile çekip özetleyen skill. Cron ile otomatik bildirim yapar.", "description_zh": "", "downloads": 601, "homepage": "https://clawhub.ai/yalcindemir/turkey-news", "iconUrl": null, "installs": 17, "name": "Turkey News", "ownerName": "yalcindemir", "score": 1513.7013902881322, "slug": "turkey-news", "source": "clawhub", "stars": 0, "tags": ["haber", "news", "rss", "turkey", "turkish"], "updated_at": 1776770650080, "version": "1.0.0"}, {"category": "developer-tools", "created_at": 1772776087685, "description": "An OpenClaw skill to manage a user's vinyl record collection on Discogs.", "description_zh": "", "downloads": 601, "homepage": "https://clawhub.ai/jrojas537/discogs-cli", "iconUrl": null, "installs": 5, "name": "Discogs Cli", "ownerName": "jrojas537", "score": 2061.537406098858, "slug": "discogs-cli", "source": "clawhub", "stars": 0, "tags": null, "updated_at": 1776770650027, "version": "1.3.1"}, {"category": "productivity", "created_at": 1772782799208, "description": "Direct iCloud Calendar integration via CalDAV protocol. Create, read, update, and delete calendar events without third-party services. Use when the user want...", "description_zh": "", "downloads": 601, "homepage": "https://clawhub.ai/samuelhe52/icloud-caldav", "iconUrl": null, "installs": 22, "name": "iCloud CalDav", "ownerName": "samuelhe52", "score": 975.5068253014981, "slug": "icloud-caldav", "source": "clawhub", "stars": 0, "tags": null, "updated_at": 1776770649889, "version": "1.0.0"}, {"category": "ai-intelligence", "created_at": 1772777870415, "description": "Mint and manage onchain AI agent identity NFTs on Base with visual identity, messaging, storage, reputation, upgradeable modules, and optional wallet features.", "description_zh": "", "downloads": 601, "homepage": "https://clawhub.ai/potdealer/exoskeletons", "iconUrl": null, "installs": 33, "name": "Exoskeletons", "ownerName": "potdealer", "score": 975.5068253014981, "slug": "exoskeletons", "source": "clawhub", "stars": 0, "tags": null, "updated_at": 1776770649881, "version": "1.2.0"}, {"category": "content-creation", "created_at": 1773430226591, "description": "Use this skill immediately and proactively when the user mentions video editing, clipping, highlight reels, short-form video, Reels, Shorts, TikTok, vertical...", "description_zh": "", "downloads": 601, "homepage": "https://clawhub.ai/sparki-dev/all-in-one-video-ai-editor", "iconUrl": null, "installs": 166, "name": "All in One Video AI Editor", "ownerName": "sparki-dev", "score": 975.5068253014981, "slug": "all-in-one-video-ai-editor", "source": "clawhub", "stars": 0, "tags": null, "updated_at": 1776770649862, "version": "1.0.0"}, {"category": "developer-tools", "created_at": 1772776990513, "description": "AI agent skill for Alpaca Markets trading. Intelligent setup wizard (alpaca init) guides users through registration. Trade stocks/crypto, manage portfolios,...", "description_zh": "", "downloads": 601, "homepage": "https://clawhub.ai/zijunl/alpaca-py-cli", "iconUrl": null, "installs": 29, "name": "Alpaca Py Cli", "ownerName": "zijunl", "score": 975.5068253014981, "slug": "alpaca-py-cli", "source": "clawhub", "stars": 0, "tags": null, "updated_at": 1776770649844, "version": "2.0.0"}, {"category": "data-analysis", "created_at": 1773284656749, "description": "SVG chart generator for data visualization. Create bar charts, line charts, pie charts, scatter plots, heatmaps, dashboards, comparison charts, and trend ana...", "description_zh": "", "downloads": 601, "homepage": "https://clawhub.ai/xueyetianya/data-visualizer", "iconUrl": null, "installs": 65, "name": "data-visualizer", "ownerName": "xueyetianya", "score": 870.1947440816623, "slug": "data-visualizer", "source": "clawhub", "stars": 0, "tags": ["chinese", "productivity"], "updated_at": 1776770649825, "version": "1.0.0"}, {"category": "content-creation", "created_at": 1772780612445, "description": "searches, retrieves, and summarizes content from Our World in Data using the `owid-catalog` Python module. Developed under Ubuntu. The developer would apprec...", "description_zh": "", "downloads": 601, "homepage": "https://clawhub.ai/rachmann-alexander/owid-oc", "iconUrl": null, "installs": 42, "name": "Our world in data", "ownerName": "rachmann-alexander", "score": 870.1947440816623, "slug": "owid-oc", "source": "clawhub", "stars": 0, "tags": null, "updated_at": 1776770649804, "version": "0.1.3"}, {"category": "productivity", "created_at": 1772775436377, "description": "Check accurate current time, date, and timezone information for any location worldwide using time.is. Use when the user asks \"what time is it in X\", \"current time in Y\", or needs to verify timezone offsets.", "description_zh": "", "downloads": 601, "homepage": "https://clawhub.ai/1999azzar/time-checker", "iconUrl": null, "installs": 23, "name": "Time Checker", "ownerName": "1999azzar", "score": 2704.161979752531, "slug": "time-checker", "source": "clawhub", "stars": 0, "tags": null, "updated_at": 1776770649753, "version": "1.0.0"}, {"category": "content-creation", "created_at": 1772775356332, "description": "Writes blog posts optimized for search engines and humans", "description_zh": "", "downloads": 601, "homepage": "https://clawhub.ai/1kalin/afrexai-seo-writer", "iconUrl": null, "installs": 37, "name": "Seo Writer", "ownerName": "1kalin", "score": 1842.4279583077866, "slug": "afrexai-seo-writer", "source": "clawhub", "stars": 0, "tags": null, "updated_at": 1776770649735, "version": "1.1.0"}, {"category": "data-analysis", "created_at": 1772772949958, "description": "Orchestrates monitoring, market odds, and execution proxy tools to detect news-market price gaps and emit arbitrage alerts with optional trade plans.", "description_zh": "", "downloads": 600, "homepage": "https://clawhub.ai/h4gen/prediction-market-arbitrage", "iconUrl": null, "installs": 14, "name": "Prediction Market Arbitrage", "ownerName": "h4gen", "score": 11728.055708264616, "slug": "prediction-market-arbitrage", "source": "clawhub", "stars": 2, "tags": null, "updated_at": 1776769490431, "version": "1.0.0"}, {"category": "developer-tools", "created_at": 1772790131420, "description": "Find and contact verified Alibaba suppliers for your product, send optimized outreach messages, check replies, and manage negotiations for Amazon FBA sourcing.", "description_zh": "", "downloads": 600, "homepage": "https://clawhub.ai/blockchainhb/alibaba-supplier-outreach", "iconUrl": null, "installs": 59, "name": "Alibaba Supplier Outreach", "ownerName": "blockchainhb", "score": 5875.663381349507, "slug": "alibaba-supplier-outreach", "source": "clawhub", "stars": 1, "tags": ["alibaba", "fba", "outreach", "supplier"], "updated_at": 1776770050090, "version": "1.0.0"}, {"category": "ai-intelligence", "created_at": 1772782246799, "description": "Let your agent shop online with guardrailed wallets, multiple payment methods, and owner approval.", "description_zh": "", "downloads": 600, "homepage": "https://clawhub.ai/jononovo/creditcard", "iconUrl": null, "installs": 41, "name": "CreditClaw - Give your Claw Agent a credit card - spend anywhere", "ownerName": "jononovo", "score": 3113.074914641494, "slug": "creditcard", "source": "clawhub", "stars": 1, "tags": ["creditcard", "pay", "shop"], "updated_at": 1776770049758, "version": "1.3.2"}, {"category": "ai-intelligence", "created_at": 1772775502904, "description": "Ajan oluşturma ve ajanlar arası geçiş (v1.0.5 - chromium destekli + tüm yetenekler). Kullanım: - /create_agent İsim - Yeni ajan oluşturur ve config'e ekler -...", "description_zh": "", "downloads": 600, "homepage": "https://clawhub.ai/tevfikgulep/agent-factory", "iconUrl": null, "installs": 34, "name": "Agent Factory", "ownerName": "tevfikgulep", "score": 1888.1581017717217, "slug": "agent-factory", "source": "clawhub", "stars": 0, "tags": null, "updated_at": 1776770650214, "version": "1.0.5"}, {"category": "communication-collaboration", "created_at": 1772776084809, "description": "Connect to Hannah and Elena agents from Serviceplan - specialized AI coworkers for marketing research and operations planning. Access via email or OpenAI-compatible API.", "description_zh": "", "downloads": 600, "homepage": "https://clawhub.ai/sarthib7/coworker", "iconUrl": null, "installs": 24, "name": "Hannah & Elena client skill for coworker integration by Sokosumi", "ownerName": "sarthib7", "score": 891.4774753357899, "slug": "coworker", "source": "clawhub", "stars": 0, "tags": null, "updated_at": 1776770650192, "version": "1.0.0"}, {"category": "productivity", "created_at": 1773201652300, "description": "Browser plugin data collection for Douyin/TikTok/Xiaohongshu via a local bridge, including one-shot closed-loop runs (collect → poll → export → return table...", "description_zh": "", "downloads": 600, "homepage": "https://clawhub.ai/yiming1001/web-collection", "iconUrl": null, "installs": 244, "name": "web-collection", "ownerName": "yiming1001", "score": 2058.1072273865466, "slug": "web-collection", "source": "clawhub", "stars": 0, "tags": null, "updated_at": 1776770650021, "version": "1.1.1"}, {"category": "communication-collaboration", "created_at": 1772795234743, "description": "Feishu (Lark) group chat messaging guide for OpenClaw. Includes Raw/Card message modes, @ mention formatting, and group member management. Use when sending m...", "description_zh": "", "downloads": 600, "homepage": "https://clawhub.ai/heimo-he/feishu-chat", "iconUrl": null, "installs": 51, "name": "Feishu Chat", "ownerName": "heimo-he", "score": 565.5575454802525, "slug": "feishu-chat", "source": "clawhub", "stars": 0, "tags": null, "updated_at": 1776770650003, "version": "1.1.1"}, {"category": "communication-collaboration", "created_at": 1772780884449, "description": "Read, search, and manage Outlook emails and calendar via Microsoft Graph API. Use when the user asks about emails, inbox, Outlook, Microsoft mail, calendar e...", "description_zh": "", "downloads": 600, "homepage": "https://clawhub.ai/cristiandan/outlook-plus", "iconUrl": null, "installs": 44, "name": "Outlook Plus", "ownerName": "cristiandan", "score": 868.7468326938391, "slug": "outlook-plus", "source": "clawhub", "stars": 0, "tags": null, "updated_at": 1776770649814, "version": "1.9.0"}, {"category": "security-compliance", "created_at": 1772778766626, "description": "Scan OpenClaw skills for security risks, suspicious permissions, and provide a trust score to help evaluate skill safety before use or installation.", "description_zh": "", "downloads": 599, "homepage": "https://clawhub.ai/steffano198/skill-security-scanner", "iconUrl": null, "installs": 15, "name": "Skill Security Scanner", "ownerName": "steffano198", "score": 23475.385745775166, "slug": "skill-security-scanner", "source": "clawhub", "stars": 2, "tags": null, "updated_at": 1776769571266, "version": "1.0.1"}, {"category": "data-analysis", "created_at": 1772775706969, "description": "Gère en temps réel la lecture, mise à jour et synchronisation du fichier data.json du dashboard Jarvis, incluant notes, tâches, logs et statistiques.", "description_zh": "", "downloads": 599, "homepage": "https://clawhub.ai/philippeh5/dashboard-manager2", "iconUrl": null, "installs": 19, "name": "Dashboard Manager2", "ownerName": "philippeh5", "score": 676.5838726802435, "slug": "dashboard-manager2", "source": "clawhub", "stars": 0, "tags": null, "updated_at": 1776770650157, "version": "1.0.0"}, {"category": "content-creation", "created_at": 1772776457735, "description": "Prevents false \"posted successfully\" claims by verifying content URLs, enforcing platform rules, tracking rate limits, and securely storing credentials persi...", "description_zh": "", "downloads": 599, "homepage": "https://clawhub.ai/edmonddantesj/publish-guard", "iconUrl": null, "installs": 27, "name": "PublishGuard — Post Verification & Credential Manager", "ownerName": "edmonddantesj", "score": 1508.6641144469072, "slug": "publish-guard", "source": "clawhub", "stars": 0, "tags": null, "updated_at": 1776770650105, "version": "1.1.0"}, {"category": "communication-collaboration", "created_at": 1772775479929, "description": "Swap any Solana token from chat. Say 'swap 1 SOL for USDC' and it handles everything — quoting, signing, sending, confirming. No API keys, no wallet extensions, no setup beyond a keypair. Powered by Jupiter. Use when a user wants to swap, trade, exchange, buy, or sell Solana SPL tokens, SOL, USDC, memecoins, or any token pair on Solana.", "description_zh": "", "downloads": 599, "homepage": "https://clawhub.ai/in-liberty420/solana-easy-swap", "iconUrl": null, "installs": 22, "name": "Solana Easy Swap", "ownerName": "in-liberty420", "score": 1508.6641144469072, "slug": "solana-easy-swap", "source": "clawhub", "stars": 0, "tags": ["crypto", "defi", "jupiter", "solana", "swap", "trading"], "updated_at": 1776770650100, "version": "1.0.1"}, {"category": "developer-tools", "created_at": 1772782158091, "description": "Go from weekly limit on Tuesday to weekly limit on Sunday. 10 steps, one afternoon.", "description_zh": "", "downloads": 599, "homepage": "https://clawhub.ai/globalcaos/token-efficiency-guide", "iconUrl": null, "installs": 9, "name": "Token Efficiency Guide", "ownerName": "globalcaos", "score": 2054.677048674236, "slug": "token-efficiency-guide", "source": "clawhub", "stars": 0, "tags": null, "updated_at": 1776770650017, "version": "1.1.0"}, {"category": "content-creation", "created_at": 1772776586467, "description": "Centralizes multi-agent file storage by routing all file operations through a designated File Master agent using SSH to a Synology NAS or any SSH-accessible...", "description_zh": "", "downloads": 598, "homepage": "https://clawhub.ai/neal-collab/nas-agent-sync", "iconUrl": null, "installs": 34, "name": "NAS Agent Sync", "ownerName": "neal-collab", "score": 2529.717839164093, "slug": "nas-agent-sync", "source": "clawhub", "stars": 0, "tags": null, "updated_at": 1776770650249, "version": "1.1.0"}, {"category": "security-compliance", "created_at": 1772774290119, "description": "Search and download torrents via TorrentClaw. Use when the user asks to find, search, or download movies, TV shows, or torrents. Detects local torrent client...", "description_zh": "", "downloads": 598, "homepage": "https://clawhub.ai/buryni/torrentclaw", "iconUrl": null, "installs": 16, "name": "TorrentClaw", "ownerName": "buryni", "score": 2529.717839164093, "slug": "torrentclaw", "source": "clawhub", "stars": 0, "tags": ["security"], "updated_at": 1776770650235, "version": "0.1.17"}, {"category": "data-analysis", "created_at": 1772776304581, "description": "Deploy, manage, and monitor static websites via the EzyHost API. Upload files, build with AI, track analytics, manage custom domains, QR codes, email capture...", "description_zh": "", "downloads": 598, "homepage": "https://clawhub.ai/araratdev/ezyhost", "iconUrl": null, "installs": 18, "name": "EzyHost", "ownerName": "araratdev", "score": 1881.8642414324825, "slug": "ezyhost", "source": "clawhub", "stars": 0, "tags": null, "updated_at": 1776770650199, "version": "1.0.3"}, {"category": "productivity", "created_at": 1772787539539, "description": "Control the Windows PC from WSL2. Use when the user asks to open/close applications, manage processes, take screenshots, control windows, manage files on Win...", "description_zh": "", "downloads": 598, "homepage": "https://clawhub.ai/amirgu/pc-master", "iconUrl": null, "installs": 45, "name": "PC Master", "ownerName": "amirgu", "score": 560.3973385812014, "slug": "pc-master", "source": "clawhub", "stars": 0, "tags": null, "updated_at": 1776770650061, "version": "1.0.0"}, {"category": "security-compliance", "created_at": 1772781595569, "description": "Query farm financial data — cash flow projections, cost tracking, breakeven analysis. Requires admin authentication. Highly sensitive data.", "description_zh": "", "downloads": 598, "homepage": "https://clawhub.ai/brianppetty/farmos-finance", "iconUrl": null, "installs": 18, "name": "Farmos Finance", "ownerName": "brianppetty", "score": 560.3973385812014, "slug": "farmos-finance", "source": "clawhub", "stars": 0, "tags": null, "updated_at": 1776770650054, "version": "1.0.0"}, {"category": "developer-tools", "created_at": 1772781324127, "description": "Interact with Polymarket US prediction markets. Use when the user wants to: browse/search prediction markets, check market prices and odds, view portfolio po...", "description_zh": "", "downloads": 598, "homepage": "https://clawhub.ai/tyhouch/polymarket-sdk", "iconUrl": null, "installs": 29, "name": "polymarket-sdk", "ownerName": "tyhouch", "score": 1840.7929569660778, "slug": "polymarket-sdk", "source": "clawhub", "stars": 0, "tags": null, "updated_at": 1776770649935, "version": "1.0.0"}, {"category": "content-creation", "created_at": 1772793828670, "description": "Write fast, memory-efficient numerical code with arrays, broadcasting, vectorization, and linear algebra.", "description_zh": "", "downloads": 598, "homepage": "https://clawhub.ai/ivangdavila/numpy", "iconUrl": null, "installs": 102, "name": "NumPy", "ownerName": "ivangdavila", "score": 1840.7929569660778, "slug": "numpy", "source": "clawhub", "stars": 0, "tags": null, "updated_at": 1776770649917, "version": "1.0.0"}, {"category": "ai-intelligence", "created_at": 1772775299115, "description": "AI-native memory and orchestration system for OpenClaw. Transforms agents from stateless workers into structured orchestrators with persistent memory, behavi...", "description_zh": "", "downloads": 598, "homepage": "https://clawhub.ai/7d-codes/memory-pill", "iconUrl": null, "installs": 29, "name": "Memory Pill", "ownerName": "7d-codes", "score": 865.851009918193, "slug": "memory-pill", "source": "clawhub", "stars": 0, "tags": null, "updated_at": 1776770649816, "version": "0.8.0"}, {"category": "developer-tools", "created_at": 1772776398061, "description": "Generate and auto-sync documentation from code with git hooks; detect and fix doc drift using tree-sitter parsing and semantic diffs locally.", "description_zh": "", "downloads": 598, "homepage": "https://clawhub.ai/suhteevah/docsync", "iconUrl": null, "installs": 6, "name": "DocSync", "ownerName": "suhteevah", "score": 2690.66366704162, "slug": "docsync", "source": "clawhub", "stars": 0, "tags": null, "updated_at": 1776770649795, "version": "1.0.1"}, {"category": "developer-tools", "created_at": 1772775881551, "description": "Execute Jupiter API operations on Solana - fetch quotes, sign transactions, execute swaps, prediction markets. Use when implementing token swaps, DCA, limit...", "description_zh": "", "downloads": 597, "homepage": "https://clawhub.ai/lifeofpavs/jup-skill", "iconUrl": null, "installs": 6, "name": "Jupiter Skill for OpenClaw", "ownerName": "lifeofpavs", "score": 22508.833922261485, "slug": "jup-skill", "source": "clawhub", "stars": 2, "tags": null, "updated_at": 1776769571202, "version": "1.0.2"}, {"category": "developer-tools", "created_at": 1772770412530, "description": "CLI tool to control Tuya v3.3 light bulbs in your local network.", "description_zh": "", "downloads": 597, "homepage": "https://clawhub.ai/root/fox-lights", "iconUrl": null, "installs": 1, "name": "Flights", "ownerName": "root", "score": 10322.476097877166, "slug": "fox-lights", "source": "clawhub", "stars": 2, "tags": null, "updated_at": 1776769571111, "version": "1.0.3"}, {"category": "content-creation", "created_at": 1772783596238, "description": "Socratic design refinement before coding. Use when user requests feature without clear spec.", "description_zh": "", "downloads": 597, "homepage": "https://clawhub.ai/nefas11/brainstorming-2", "iconUrl": null, "installs": 45, "name": "Brainstorming", "ownerName": "nefas11", "score": 3230.366492146597, "slug": "brainstorming-2", "source": "clawhub", "stars": 1, "tags": null, "updated_at": 1776770090490, "version": "0.1.0"}]}