{"page": 152, "total_pages": 522, "total": 26073, "skills": [{"category": "developer-tools", "created_at": 1772772823904, "description": "Set up a non-custodial dollar-cost averaging strategy on Uniswap. Use when user wants to create recurring swaps, auto-buy ETH/BTC/SOL with USDC on a schedule, or build a DCA bot. Covers USDC approval, swap path selection, frequency configuration, Gelato keeper automation, and monitoring. Works on local testnet for development or mainnet for production.", "description_zh": "", "downloads": 597, "homepage": "https://clawhub.ai/wpank/setup-dca", "iconUrl": null, "installs": 13, "name": "Uniswap Setup DCA", "ownerName": "wpank", "score": 2525.487541774187, "slug": "setup-dca", "source": "clawhub", "stars": 0, "tags": null, "updated_at": 1776770650247, "version": "0.1.0"}, {"category": "security-compliance", "created_at": 1772776234658, "description": "Create and audit comprehensive data privacy programs covering GDPR, CCPA/CPRA, LGPD, POPIA, PIPL—from data mapping to breach response and consent management.", "description_zh": "", "downloads": 597, "homepage": "https://clawhub.ai/1kalin/afrexai-data-privacy", "iconUrl": null, "installs": 7, "name": "Data Privacy & Protection Program", "ownerName": "1kalin", "score": 1878.717311262863, "slug": "afrexai-data-privacy", "source": "clawhub", "stars": 0, "tags": ["ccpa", "compliance", "data-protection", "dpia", "dpo", "dsar", "gdpr", "privacy"], "updated_at": 1776770650223, "version": "1.1.0"}, {"category": "content-creation", "created_at": 1772785294515, "description": "Download an Instagram Reel via sssinstagram.com and return it as a WhatsApp-ready video file. Use when a reel URL is provided and yt-dlp is blocked or not pr...", "description_zh": "", "downloads": 597, "homepage": "https://clawhub.ai/besaif/instagram-reel-downloader-whatsapp", "iconUrl": null, "installs": 38, "name": "Instagram Reel Downloader (WhatsApp)", "ownerName": "besaif", "score": 763.5833418602272, "slug": "instagram-reel-downloader-whatsapp", "source": "clawhub", "stars": 0, "tags": null, "updated_at": 1776770650119, "version": "1.0.1"}, {"category": "data-analysis", "created_at": 1772775799317, "description": "Use when the user asks to tweet, post threads, read tweets, search Twitter/X, check mentions, manage engagement (like/retweet/bookmark), update profile (bio, avatar, banner), upload media, or interact with Twitter accounts. Triggers: twitter, tweet, post, thread, timeline, mentions, followers, following, likes, retweet, bookmark, profile picture, bio.", "description_zh": "", "downloads": 597, "homepage": "https://clawhub.ai/checkra1neth/xbird", "iconUrl": null, "installs": 12, "name": "xbird", "ownerName": "checkra1neth", "score": 1503.626838605682, "slug": "xbird", "source": "clawhub", "stars": 0, "tags": null, "updated_at": 1776770650102, "version": "0.1.1"}, {"category": "productivity", "created_at": 1773076922861, "description": "Advanced desktop automation with mouse, keyboard, and screen control", "description_zh": "", "downloads": 597, "homepage": "https://clawhub.ai/breckengan/control", "iconUrl": null, "installs": 75, "name": "Control", "ownerName": "breckengan", "score": 2047.816691249614, "slug": "control", "source": "clawhub", "stars": 0, "tags": null, "updated_at": 1776770650023, "version": "1.0.0"}, {"category": "data-analysis", "created_at": 1772784522124, "description": "Interact with Reveal feedback infrastructure to manage products, create review tasks, read AI-analyzed user feedback, get sentiment insights, view submission...", "description_zh": "", "downloads": 597, "homepage": "https://clawhub.ai/tolulopeayo/reveal-feedback", "iconUrl": null, "installs": 19, "name": "Reveal Product Feedback", "ownerName": "tolulopeayo", "score": 562.7297577528514, "slug": "reveal-feedback", "source": "clawhub", "stars": 0, "tags": null, "updated_at": 1776770649967, "version": "1.0.2"}, {"category": "developer-tools", "created_at": 1772775019408, "description": "Objectively score and compare job candidates using customizable weighted criteria to support data-driven hiring decisions.", "description_zh": "", "downloads": 597, "homepage": "https://clawhub.ai/1kalin/afrexai-hiring-scorecard", "iconUrl": null, "installs": 11, "name": "AfrexAI Hiring Scorecard", "ownerName": "1kalin", "score": 2686.164229471316, "slug": "afrexai-hiring-scorecard", "source": "clawhub", "stars": 0, "tags": ["candidates", "hiring", "hr", "interview", "recruitment", "scorecard"], "updated_at": 1776770649765, "version": "1.0.0"}, {"category": "data-analysis", "created_at": 1772777180695, "description": "Macro-gated US stock analysis using weighted technical, fundamental, and macro scores with Buy/Hold/Sell verdicts constrained by macro environment.", "description_zh": "", "downloads": 596, "homepage": "https://clawhub.ai/yumyumtum/yumstock", "iconUrl": null, "installs": 31, "name": "yumstock", "ownerName": "yumyumtum", "score": 11092.878240892682, "slug": "yumstock", "source": "clawhub", "stars": 4, "tags": null, "updated_at": 1776768850259, "version": "1.0.0"}, {"category": "ai-intelligence", "created_at": 1772786929821, "description": "Oscar prediction market intelligence from waitingformacguffin.com. Get live odds, whale activity, price movements, precursor awards, order book depth, and fr...", "description_zh": "", "downloads": 596, "homepage": "https://clawhub.ai/sonderspot/waitingformacguffin", "iconUrl": null, "installs": 15, "name": "WaitingForMacGuffin", "ownerName": "sonderspot", "score": 2198.743575099943, "slug": "waitingformacguffin", "source": "clawhub", "stars": 1, "tags": null, "updated_at": 1776770171314, "version": "1.3.0"}, {"category": "data-analysis", "created_at": 1772782871492, "description": "Database Engineering Mastery covers schema design, indexing, query optimization, and migration for PostgreSQL, MySQL, SQLite, supporting OLTP/OLAP workloads.", "description_zh": "", "downloads": 596, "homepage": "https://clawhub.ai/1kalin/afrexai-database-engineer", "iconUrl": null, "installs": 29, "name": "Database Engineering Mastery", "ownerName": "1kalin", "score": 1443.062290627123, "slug": "afrexai-database-engineer", "source": "clawhub", "stars": 1, "tags": ["database", "migration", "mysql", "optimization", "postgresql", "schema", "sql", "sqlite"], "updated_at": 1776770171047, "version": "1.0.0"}, {"category": "security-compliance", "created_at": 1772778747615, "description": "Audit agent skills for security threats before installing them. Use AUTOMATICALLY when about to install any skill (clawhub install, skill installation), when...", "description_zh": "", "downloads": 596, "homepage": "https://clawhub.ai/jonathanliu811026/skillguard-audit", "iconUrl": null, "installs": 14, "name": "SkillGuard - Agent Skill Security Auditor", "ownerName": "jonathanliu811026", "score": 2501.678979180658, "slug": "skillguard-audit", "source": "clawhub", "stars": 0, "tags": null, "updated_at": 1776770650282, "version": "0.3.0"}, {"category": "ai-intelligence", "created_at": 1772774525079, "description": "Prepares briefing docs so you walk into every meeting ready", "description_zh": "", "downloads": 596, "homepage": "https://clawhub.ai/1kalin/afrexai-meeting-prep", "iconUrl": null, "installs": 28, "name": "Meeting Prep", "ownerName": "1kalin", "score": 2501.678979180658, "slug": "afrexai-meeting-prep", "source": "clawhub", "stars": 0, "tags": null, "updated_at": 1776770650271, "version": "1.1.0"}, {"category": "developer-tools", "created_at": 1772785922566, "description": "Search and suggest recipes by ingredients, cuisine, or dietary preferences using TheMealDB API with detailed meal info and instructions.", "description_zh": "", "downloads": 596, "homepage": "https://clawhub.ai/harshasic/recipe-finder", "iconUrl": null, "installs": 17, "name": "recipe-finder", "ownerName": "harshasic", "score": 885.5342921668846, "slug": "recipe-finder", "source": "clawhub", "stars": 0, "tags": null, "updated_at": 1776770650183, "version": "1.0.0"}, {"category": "data-analysis", "created_at": 1772786190776, "description": "Monitor Polymarket prediction markets and alert when odds cross a threshold. Use when a user wants to track any Polymarket market probability, set up recurri...", "description_zh": "", "downloads": 596, "homepage": "https://clawhub.ai/xmeir-dev/polymarket-monitor", "iconUrl": null, "installs": 26, "name": "Polymarket Monitor", "ownerName": "xmeir-dev", "score": 673.1953057052173, "slug": "polymarket-monitor", "source": "clawhub", "stars": 0, "tags": null, "updated_at": 1776770650169, "version": "1.0.1"}, {"category": "data-analysis", "created_at": 1772776435667, "description": "Generates comprehensive change management plans including stakeholder impact, communication, training, resistance mitigation, rollout phases, and success met...", "description_zh": "", "downloads": 596, "homepage": "https://clawhub.ai/1kalin/afrexai-change-management", "iconUrl": null, "installs": 25, "name": "Change Management Planner", "ownerName": "1kalin", "score": 673.1953057052173, "slug": "afrexai-change-management", "source": "clawhub", "stars": 0, "tags": ["adkar", "change management", "organizational change", "rollout planning", "stakeholder analysis"], "updated_at": 1776770650148, "version": "1.0.0"}, {"category": "security-compliance", "created_at": 1772776239537, "description": "Analyze warehouse setup to optimize space, labor, picking efficiency, inventory accuracy, cost per order, automation ROI, and safety compliance with a priori...", "description_zh": "", "downloads": 596, "homepage": "https://clawhub.ai/1kalin/afrexai-warehouse-ops", "iconUrl": null, "installs": 16, "name": "Warehouse Operations Optimizer", "ownerName": "1kalin", "score": 762.3043077867595, "slug": "afrexai-warehouse-ops", "source": "clawhub", "stars": 0, "tags": ["fulfillment", "inventory", "logistics", "operations", "supply chain", "warehouse"], "updated_at": 1776770650134, "version": "1.0.0"}, {"category": "ai-intelligence", "created_at": 1772781297820, "description": "Search, retrieve, log, and manage past conversations, research, and job tasks in Frank's persistent Second Brain knowledge base.", "description_zh": "", "downloads": 596, "homepage": "https://clawhub.ai/ryandeangraves/brain-search", "iconUrl": null, "installs": 36, "name": "Brain Search", "ownerName": "ryandeangraves", "score": 2044.3865125373034, "slug": "brain-search", "source": "clawhub", "stars": 0, "tags": null, "updated_at": 1776770650044, "version": "1.1.0"}, {"category": "developer-tools", "created_at": 1772779681540, "description": "Provides accurate answers with current date and includes clickable numbered citation marks linked to source references when applicable.", "description_zh": "", "downloads": 596, "homepage": "https://clawhub.ai/alvinecarn/knowledge-answer", "iconUrl": null, "installs": 12, "name": "Knowledge Answer", "ownerName": "alvinecarn", "score": 967.3911279196222, "slug": "knowledge-answer", "source": "clawhub", "stars": 0, "tags": null, "updated_at": 1776770649876, "version": "0.1.0"}, {"category": "content-creation", "created_at": 1772779959509, "description": "Rewrites AI-generated text to remove robotic tone, adding natural cadence and channel-specific style for platforms like Twitter, LinkedIn, blogs, email, or T...", "description_zh": "", "downloads": 596, "homepage": "https://clawhub.ai/odinbot33/oee-content-humanizer", "iconUrl": null, "installs": 46, "name": "OEE Content Humanizer", "ownerName": "odinbot33", "score": 862.955187142547, "slug": "oee-content-humanizer", "source": "clawhub", "stars": 0, "tags": null, "updated_at": 1776770649827, "version": "1.0.0"}, {"category": "security-compliance", "created_at": 1772791938694, "description": "Audits HTML/CSS for WCAG 2.1 compliance. Color contrast, ARIA labels, keyboard navigation, screen reader support.", "description_zh": "", "downloads": 596, "homepage": "https://clawhub.ai/ryudi84/sovereign-accessibility-auditor", "iconUrl": null, "installs": 98, "name": "Web Accessibility Auditor", "ownerName": "ryudi84", "score": 2681.6647919010124, "slug": "sovereign-accessibility-auditor", "source": "clawhub", "stars": 0, "tags": null, "updated_at": 1776770649780, "version": "1.0.0"}, {"category": "content-creation", "created_at": 1772790329619, "description": "Build design systems with tokens, components, and documentation that scale across teams and products.", "description_zh": "", "downloads": 595, "homepage": "https://clawhub.ai/ivangdavila/design-system", "iconUrl": null, "installs": 36, "name": "Design System", "ownerName": "ivangdavila", "score": 3671.422601635723, "slug": "design-system", "source": "clawhub", "stars": 1, "tags": null, "updated_at": 1776770171105, "version": "1.0.0"}, {"category": "data-analysis", "created_at": 1772775305503, "description": "Autonomous vault-based prediction market bot for Torch Market on Solana. Creates binary prediction markets as Torch tokens — the bonding curve provides price...", "description_zh": "", "downloads": 595, "homepage": "https://clawhub.ai/mrsirg97-rgb/torchpredictionmarketkit", "iconUrl": null, "installs": 16, "name": "Torch Prediction Market Kit", "ownerName": "mrsirg97-rgb", "score": 334.6701389865401, "slug": "torchpredictionmarketkit", "source": "clawhub", "stars": 0, "tags": null, "updated_at": 1776770692213, "version": "2.0.3"}, {"category": "data-analysis", "created_at": 1772777560165, "description": "Provides forensically-safe Linux threat detection, network and process analysis, integrity verification, controlled firewall and service remediation preservi...", "description_zh": "", "downloads": 595, "homepage": "https://clawhub.ai/kiaraho/sys-guard-linux-remediator", "iconUrl": null, "installs": 13, "name": "Linux Incident Remediator", "ownerName": "kiaraho", "score": 1464.4351464435147, "slug": "sys-guard-linux-remediator", "source": "clawhub", "stars": 0, "tags": null, "updated_at": 1776770690596, "version": "1.0.0"}, {"category": "ai-intelligence", "created_at": 1772788928130, "description": "Manage Docker containers and Compose projects via OpenClaw tools", "description_zh": "", "downloads": 595, "homepage": "https://clawhub.ai/homeofe/openclaw-docker", "iconUrl": null, "installs": 28, "name": "Docker", "ownerName": "homeofe", "score": 1921.5243016308737, "slug": "openclaw-docker", "source": "clawhub", "stars": 0, "tags": ["elvatis", "openclaw", "plugin"], "updated_at": 1776770690528, "version": "0.2.0"}, {"category": "productivity", "created_at": 1772779550447, "description": "Automatische Selbst-Verbesserung durch Fehler-Lernen und Pattern-Erkennung", "description_zh": "", "downloads": 595, "homepage": "https://clawhub.ai/mcben90/auto-improve", "iconUrl": null, "installs": 31, "name": "Auto Improve", "ownerName": "mcben90", "score": 698.4141889591868, "slug": "auto-improve", "source": "clawhub", "stars": 0, "tags": null, "updated_at": 1776770690497, "version": "1.0.0"}, {"category": "ai-intelligence", "created_at": 1772776878439, "description": "Plan, monitor, draft, and safely automate X (Twitter) account workflows with configurable guardrails and phased operational modes.", "description_zh": "", "downloads": 595, "homepage": "https://clawhub.ai/inceptivco/x-agent", "iconUrl": null, "installs": 27, "name": "x-agent", "ownerName": "inceptivco", "score": 698.4141889591868, "slug": "x-agent", "source": "clawhub", "stars": 0, "tags": null, "updated_at": 1776770690486, "version": "0.1.0"}, {"category": "security-compliance", "created_at": 1772778485310, "description": "Validates project pre-deployment by running comprehensive security, testing, quality, documentation, CI/CD, privacy, maintainability, usability, marketabilit...", "description_zh": "", "downloads": 595, "homepage": "https://clawhub.ai/up2itnow/validator-agent", "iconUrl": null, "installs": 12, "name": "Validator Agent", "ownerName": "up2itnow", "score": 1392.399138818684, "slug": "validator-agent", "source": "clawhub", "stars": 0, "tags": null, "updated_at": 1776770690473, "version": "1.1.0"}, {"category": "ai-intelligence", "created_at": 1772777169931, "description": "Agent-powered marketplace for human connection. Post your human's services, offers, and needs. Search what others are offering. Match people who wouldn't oth...", "description_zh": "", "downloads": 595, "homepage": "https://clawhub.ai/richardtkemp/theothers", "iconUrl": null, "installs": 31, "name": "theothers", "ownerName": "richardtkemp", "score": 1392.399138818684, "slug": "theothers", "source": "clawhub", "stars": 0, "tags": null, "updated_at": 1776770690461, "version": "0.0.3"}, {"category": "data-analysis", "created_at": 1772775067009, "description": "Write compelling business proposals that win deals. Structured templates for service proposals, project bids, and partnership pitches with proven conversion frameworks.", "description_zh": "", "downloads": 595, "homepage": "https://clawhub.ai/1kalin/afrexai-proposal-gen", "iconUrl": null, "installs": 12, "name": "Proposal Writer", "ownerName": "1kalin", "score": 1392.399138818684, "slug": "afrexai-proposal-gen", "source": "clawhub", "stars": 0, "tags": null, "updated_at": 1776770690450, "version": "1.1.0"}, {"category": "data-analysis", "created_at": 1772773223494, "description": "X/Twitter integration — post, reply, search, like, follow, DMs, and mentions via the official X API v2", "description_zh": "", "downloads": 595, "homepage": "https://clawhub.ai/xonder/clawbird", "iconUrl": null, "installs": 15, "name": "Clawbird", "ownerName": "xonder", "score": 1729.9528987614121, "slug": "clawbird", "source": "clawhub", "stars": 0, "tags": null, "updated_at": 1776770690417, "version": "1.0.3"}, {"category": "developer-tools", "created_at": 1773057352000, "description": "Assist with programming tasks using Claude CLI. Use when OpenClaw needs to perform coding tasks, create new programs, modify existing code, or get programmin...", "description_zh": "", "downloads": 595, "homepage": "https://clawhub.ai/leowing/programming-assistant", "iconUrl": null, "installs": 36, "name": "Programming Assistant", "ownerName": "leowing", "score": 1872.423450923624, "slug": "programming-assistant", "source": "clawhub", "stars": 0, "tags": null, "updated_at": 1776770650210, "version": "1.0.0"}, {"category": "data-analysis", "created_at": 1772776564744, "description": "Automate TikTok and Instagram at scale with account creation, video distribution, content uploads, and detailed analytics using 30 AI-native tools via TokPor...", "description_zh": "", "downloads": 594, "homepage": "https://clawhub.ai/naybu256/tokportal", "iconUrl": null, "installs": 22, "name": "TokPortal", "ownerName": "naybu256", "score": 9026.915113871635, "slug": "tokportal", "source": "clawhub", "stars": 3, "tags": null, "updated_at": 1776769190563, "version": "1.0.0"}, {"category": "data-analysis", "created_at": 1772789961067, "description": "Professional Ziwei Doushu consultation skill with offline, Beijing-standard calculation rules. Use when the user wants a polished Ziwei report from birth dat...", "description_zh": "", "downloads": 594, "homepage": "https://clawhub.ai/spyfree/ziwei-doushu", "iconUrl": null, "installs": 33, "name": "Ziwei Doushu", "ownerName": "spyfree", "score": 29311.141932501156, "slug": "ziwei-doushu", "source": "clawhub", "stars": 2, "tags": null, "updated_at": 1776769750043, "version": "1.0.2"}, {"category": "security-compliance", "created_at": 1772781245433, "description": "Stop leaking secrets. Pre-commit hooks + 10-point scans + cron monitoring. Agent-ops security in one command. By The Agent Wire (theagentwire.ai)", "description_zh": "", "downloads": 594, "homepage": "https://clawhub.ai/theagentwire/agent-security-ops", "iconUrl": null, "installs": 12, "name": "Agent Security Ops", "ownerName": "theagentwire", "score": 5509.210983663538, "slug": "agent-security-ops", "source": "clawhub", "stars": 2, "tags": null, "updated_at": 1776769749966, "version": "1.2.2"}, {"category": "ai-intelligence", "created_at": 1772776643990, "description": "Enterprise-grade customer support system: ticket triage, response templates, escalation workflows, CSAT tracking, knowledge base management, and churn prevention. Turns your AI agent into a support team lead.", "description_zh": "", "downloads": 594, "homepage": "https://clawhub.ai/1kalin/afrexai-customer-support", "iconUrl": null, "installs": 39, "name": "Customer Support Command Center", "ownerName": "1kalin", "score": 2191.6047972587094, "slug": "afrexai-customer-support", "source": "clawhub", "stars": 1, "tags": ["churn", "csat", "customer", "helpdesk", "retention", "support", "tickets"], "updated_at": 1776770171337, "version": "1.0.0"}, {"category": "productivity", "created_at": 1772775410833, "description": "Press release writing in AP style with inverted pyramid structure. Covers formatting, datelines, quotes, boilerplates, and fact-checking. Use for: product la...", "description_zh": "", "downloads": 594, "homepage": "https://clawhub.ai/okaris/press-release-writing", "iconUrl": null, "installs": 17, "name": "Press Release Writing", "ownerName": "okaris", "score": 159.2147549727807, "slug": "press-release-writing", "source": "clawhub", "stars": 0, "tags": null, "updated_at": 1776770771393, "version": "0.1.5"}, {"category": "ai-intelligence", "created_at": 1772779394417, "description": "Provides secure task planning, validation, approval, and execution for AI agents with safety checks, rollback, dry runs, and error handling using pure Python.", "description_zh": "", "downloads": 594, "homepage": "https://clawhub.ai/cerbug45/task-panner-validator", "iconUrl": null, "installs": 30, "name": "Task Panner Validator for Agents", "ownerName": "cerbug45", "score": 107.60733106645387, "slug": "task-panner-validator", "source": "clawhub", "stars": 0, "tags": null, "updated_at": 1776770771361, "version": "0.1.0"}, {"category": "security-compliance", "created_at": 1772775895964, "description": "Implement secure API design patterns including authentication, authorization, input validation, rate limiting, and protection against common API vulnerabilities", "description_zh": "", "downloads": 594, "homepage": "https://clawhub.ai/mupengi-bot/api-security-best-practices", "iconUrl": null, "installs": 14, "name": "api-security-best-practices", "ownerName": "mupengi-bot", "score": 1123.0856494611457, "slug": "api-security-best-practices", "source": "clawhub", "stars": 0, "tags": null, "updated_at": 1776770771315, "version": "1.0.0"}, {"category": "data-analysis", "created_at": 1772775199335, "description": "Track and visualize your agent's operational metrics. Record API calls, task completions, uptime, errors, and custom counters. Generate text-based dashboards...", "description_zh": "", "downloads": 594, "homepage": "https://clawhub.ai/trypto1019/arc-metrics-dashboard", "iconUrl": null, "installs": 15, "name": "Metrics Dashboard", "ownerName": "trypto1019", "score": 335.72219835869146, "slug": "arc-metrics-dashboard", "source": "clawhub", "stars": 0, "tags": null, "updated_at": 1776770771267, "version": "1.0.0"}, {"category": "security-compliance", "created_at": 1772785027019, "description": "Advanced prompt injection defense with multi-layer protection, memory integrity, and tool security wrapper. OWASP LLM Top 10 2026 compliant.", "description_zh": "", "downloads": 594, "homepage": "https://clawhub.ai/georges91560/anti-injection-skill", "iconUrl": null, "installs": 15, "name": "smart-security", "ownerName": "georges91560", "score": 249.98316611675983, "slug": "anti-injection-skill", "source": "clawhub", "stars": 0, "tags": null, "updated_at": 1776770771182, "version": "1.1.2"}, {"category": "data-analysis", "created_at": 1772777523350, "description": "Trigger Claude Code development tasks in observable tmux sessions with stable startup, progress visibility, and completion callback to OpenClaw. Use when use...", "description_zh": "", "downloads": 594, "homepage": "https://clawhub.ai/yaxuan42/claude-code-legacy", "iconUrl": null, "installs": 27, "name": "claude-code (Deprecated alias)", "ownerName": "yaxuan42", "score": 737.2928691118972, "slug": "claude-code-legacy", "source": "clawhub", "stars": 0, "tags": null, "updated_at": 1776770771154, "version": "0.1.0"}, {"category": "security-compliance", "created_at": 1772784871006, "description": "Install, configure, and manage 1-SEC — an open-source, all-in-one cybersecurity platform (16 modules, single binary) on Linux servers and VPS instances. Use...", "description_zh": "", "downloads": 594, "homepage": "https://clawhub.ai/cutmob/1sec-security", "iconUrl": null, "installs": 14, "name": "1-SEC: All-in-One Cybersecurity for AI Agent Hosts", "ownerName": "cutmob", "score": 290.55405821842425, "slug": "1sec-security", "source": "clawhub", "stars": 0, "tags": ["ai-agent", "cybersecurity", "endpoint-defense", "intrusion-detection", "llm-firewall", "prompt-injection", "ransomware", "security", "single-binary", "vps"], "updated_at": 1776770771127, "version": "0.4.15"}, {"category": "ai-intelligence", "created_at": 1772779093629, "description": "Set up and operate a personal knowledge system using Supabase (pgvector) and OpenRouter. Five structured tables — thoughts (inbox log), people, projects, ide...", "description_zh": "", "downloads": 594, "homepage": "https://clawhub.ai/justfinethanku/nate-jones-second-brain", "iconUrl": null, "installs": 38, "name": "Nate Jones Second Brain", "ownerName": "justfinethanku", "score": 155.19065720891956, "slug": "nate-jones-second-brain", "source": "clawhub", "stars": 0, "tags": null, "updated_at": 1776770771089, "version": "1.0.2"}, {"category": "developer-tools", "created_at": 1772775665896, "description": "Definitive Home Assistant skill for AI agents. Control 25+ entity domains via REST API with safety enforcement, webhooks, inventory generation, and a full CL...", "description_zh": "", "downloads": 593, "homepage": "https://clawhub.ai/titunito/ha-ultimate", "iconUrl": null, "installs": 3, "name": "Home Assistant", "ownerName": "titunito", "score": 5500.521376433785, "slug": "ha-ultimate", "source": "clawhub", "stars": 2, "tags": null, "updated_at": 1776769750017, "version": "1.0.2"}, {"category": "content-creation", "created_at": 1772791026394, "description": "Nano Banana 2 — AI image generation powered by Google Gemini 3.1 Flash. Fast, versatile text-to-image and image editing via Evolink API. One API key.", "description_zh": "", "downloads": 593, "homepage": "https://clawhub.ai/evolinkai/evolink-nano-banana-2", "iconUrl": null, "installs": 99, "name": "Nano Banana 2 — AI Image Generation (Gemini 3.1 Flash Image, Google, Evolink)", "ownerName": "evolinkai", "score": 2188.0354083380926, "slug": "evolink-nano-banana-2", "source": "clawhub", "stars": 1, "tags": null, "updated_at": 1776770171296, "version": "1.0.0"}, {"category": "developer-tools", "created_at": 1772775908652, "description": "Build profitable products as a solo founder with validation-first approach, time protection, and brutal honesty.", "description_zh": "", "downloads": 592, "homepage": "https://clawhub.ai/ivangdavila/indie-hacker", "iconUrl": null, "installs": 12, "name": "Indie Hacker", "ownerName": "ivangdavila", "score": 7168.764668231278, "slug": "indie-hacker", "source": "clawhub", "stars": 4, "tags": null, "updated_at": 1776768850394, "version": "1.0.0"}, {"category": "productivity", "created_at": 1772786207590, "description": "Tracks US macro signals from Bloomberg, WSJ, and Reuters and maps potential spillover to Vietnam sectors; used when users ask about US macro news and likely...", "description_zh": "", "downloads": 592, "homepage": "https://clawhub.ai/ndtchan/us-macro-news-monitor", "iconUrl": null, "installs": 39, "name": "Us Macro News Monitor", "ownerName": "ndtchan", "score": 22184.416468186457, "slug": "us-macro-news-monitor", "source": "clawhub", "stars": 3, "tags": null, "updated_at": 1776769271060, "version": "1.0.2"}, {"category": "content-creation", "created_at": 1773063918064, "description": "Visual image search using Google Lens via SerpAPI. Identify objects, landmarks, products, plants, animals, artwork, logos, or any visual entity from an image...", "description_zh": "", "downloads": 592, "homepage": "https://clawhub.ai/tobiaslee/image-search", "iconUrl": null, "installs": 91, "name": "Image Search", "ownerName": "tobiaslee", "score": 3524.229074889868, "slug": "image-search", "source": "clawhub", "stars": 2, "tags": null, "updated_at": 1776769749816, "version": "1.0.0"}, {"category": "content-creation", "created_at": 1772793802195, "description": "AI video, image & music generation. 60+ models — Sora, Veo 3, Kling, Seedance, GPT Image, Suno v5, Hailuo, WAN. Text-to-video, image-to-video, text-to-image,...", "description_zh": "", "downloads": 592, "homepage": "https://clawhub.ai/evolinkai/evolink-media", "iconUrl": null, "installs": 116, "name": "Evolink Media — AI Video, Image & Music Generation", "ownerName": "evolinkai", "score": 5954.3998492557, "slug": "evolink-media", "source": "clawhub", "stars": 2, "tags": null, "updated_at": 1776769749742, "version": "1.3.0"}, {"category": "productivity", "created_at": 1772775318551, "description": "Read prose sequentially with structured reflections to simulate the reading experience", "description_zh": "", "downloads": 592, "homepage": "https://clawhub.ai/horace-claw/sequential-read", "iconUrl": null, "installs": 14, "name": "Sequential Read", "ownerName": "horace-claw", "score": 5003.16656111463, "slug": "sequential-read", "source": "clawhub", "stars": 2, "tags": null, "updated_at": 1776769749722, "version": "1.0.0"}]}