{"page": 153, "total_pages": 522, "total": 26073, "skills": [{"category": "developer-tools", "created_at": 1772781362793, "description": "Evaluate startups, structure deals, and make investment decisions with VC frameworks and due diligence patterns.", "description_zh": "", "downloads": 592, "homepage": "https://clawhub.ai/ivangdavila/venture-capital", "iconUrl": null, "installs": 21, "name": "Venture Capital", "ownerName": "ivangdavila", "score": 46835.443037974685, "slug": "venture-capital", "source": "clawhub", "stars": 0, "tags": null, "updated_at": 1776759982771, "version": "1.0.0"}, {"category": "data-analysis", "created_at": 1773077586420, "description": "Analyze music/audio files locally without external APIs. Extract tempo, pocket/groove feel, pulse stability, swing proxy, section/repetition structure, key c...", "description_zh": "", "downloads": 592, "homepage": "https://clawhub.ai/adam-researchh/music-analysis", "iconUrl": null, "installs": 21, "name": "Music Analysis", "ownerName": "adam-researchh", "score": 46177.847113884556, "slug": "music-analysis", "source": "clawhub", "stars": 0, "tags": null, "updated_at": 1776759797728, "version": "3.0.2"}, {"category": "data-analysis", "created_at": 1772782480087, "description": "Analyze local PCAP/PCAPNG files with tshark to generate detailed network forensics reports including talkers, ports, DNS, TLS, HTTP, and anomaly summaries.", "description_zh": "", "downloads": 592, "homepage": "https://clawhub.ai/marposins/pcap-analyzer", "iconUrl": null, "installs": 25, "name": "PCAP Analyzer", "ownerName": "marposins", "score": 43369.96336996337, "slug": "pcap-analyzer", "source": "clawhub", "stars": 0, "tags": null, "updated_at": 1776759082639, "version": "0.1.0"}, {"category": "data-analysis", "created_at": 1772772682978, "description": "Personal Shopper — multi-agent product/service research and recommendation for Saudi Arabia. USE WHEN: - User asks to find, compare, recommend, or buy a prod...", "description_zh": "", "downloads": 592, "homepage": "https://clawhub.ai/abdullah4ai/personal-shopper", "iconUrl": null, "installs": 14, "name": "جاك العلم", "ownerName": "abdullah4ai", "score": 100000, "slug": "personal-shopper", "source": "clawhub", "stars": 0, "tags": null, "updated_at": 1776750283894, "version": "2.0.3"}, {"category": "security-compliance", "created_at": 1772777565516, "description": "Set up OpenClaw multi-provider auth with OpenAI Codex OAuth fallback profiles and automatic model switching. Use when configuring multiple OpenAI Codex accou...", "description_zh": "", "downloads": 591, "homepage": "https://clawhub.ai/markeljan/codex-multi-subscription-auth-fallbacks", "iconUrl": null, "installs": 21, "name": "Codex Multi Subscription Auth Fallbacks", "ownerName": "markeljan", "score": 18553.366656865626, "slug": "codex-multi-subscription-auth-fallbacks", "source": "clawhub", "stars": 2, "tags": null, "updated_at": 1776769750196, "version": "1.1.0"}, {"category": "developer-tools", "created_at": 1772784158771, "description": "Track OpenClaw token usage and API costs by parsing session JSONL files. Use when user asks about token spend, API costs, model usage breakdown, daily cost t...", "description_zh": "", "downloads": 591, "homepage": "https://clawhub.ai/pfrederiksen/openclaw-cost-tracker", "iconUrl": null, "installs": 12, "name": "Openclaw Cost Tracker", "ownerName": "pfrederiksen", "score": 1036.2782178049897, "slug": "openclaw-cost-tracker", "source": "clawhub", "stars": 1, "tags": null, "updated_at": 1776770350158, "version": "1.1.2"}, {"category": "content-creation", "created_at": 1772777473976, "description": "Newsletter curation with content sourcing, editorial structure, and subscriber growth strategies. Covers issue formatting, link roundups, commentary style, a...", "description_zh": "", "downloads": 591, "homepage": "https://clawhub.ai/okaris/newsletter-curation", "iconUrl": null, "installs": 41, "name": "Newsletter Curation", "ownerName": "okaris", "score": 10846.026793907138, "slug": "newsletter-curation", "source": "clawhub", "stars": 0, "tags": null, "updated_at": 1776769150103, "version": "0.1.5"}, {"category": "content-creation", "created_at": 1772777236864, "description": "Generate professional social media carousel posts using the PostNitro.ai Embed API. Supports AI-powered content generation and manual content import for Link...", "description_zh": "", "downloads": 591, "homepage": "https://clawhub.ai/iammuneeb/postnitro-carousel", "iconUrl": null, "installs": 30, "name": "PostNitro Carousel Generator", "ownerName": "iammuneeb", "score": 2634.9814971688443, "slug": "postnitro-carousel", "source": "clawhub", "stars": 0, "tags": null, "updated_at": 1776768849744, "version": "2.0.0"}, {"category": "data-analysis", "created_at": 1773207410118, "description": "BibiGPT CLI for summarizing videos, audio, and podcasts directly in the terminal. Use when the user wants to summarize a URL (YouTube, Bilibili, podcast, etc...", "description_zh": "", "downloads": 591, "homepage": "https://clawhub.ai/jimmylv/bibigpt-skill", "iconUrl": null, "installs": 78, "name": "BibiGPT Skill", "ownerName": "jimmylv", "score": 15878.559914024718, "slug": "bibigpt-skill", "source": "clawhub", "stars": 0, "tags": null, "updated_at": 1776768671282, "version": "1.0.0"}, {"category": "data-analysis", "created_at": 1772789184983, "description": "Track competitors with pricing alerts, feature changes, positioning analysis, and strategic dossiers.", "description_zh": "", "downloads": 591, "homepage": "https://clawhub.ai/ivangdavila/competitor-monitoring", "iconUrl": null, "installs": 27, "name": "Competitor Monitoring", "ownerName": "ivangdavila", "score": 7773.247402341181, "slug": "competitor-monitoring", "source": "clawhub", "stars": 0, "tags": null, "updated_at": 1776762315114, "version": "1.0.0"}, {"category": "data-analysis", "created_at": 1772786064550, "description": "Monitor AI agent calls, errors, latency, and resource usage with a terminal dashboard and JSON export for observability and metrics tracking.", "description_zh": "", "downloads": 591, "homepage": "https://clawhub.ai/nantes/agent-metrics-osiris", "iconUrl": null, "installs": 20, "name": "Agent Metrics", "ownerName": "nantes", "score": 43487.8587196468, "slug": "agent-metrics-osiris", "source": "clawhub", "stars": 0, "tags": ["agent", "metrics", "utility"], "updated_at": 1776759083340, "version": "1.0.5"}, {"category": "productivity", "created_at": 1772776163762, "description": "Defensive interceptor for prompt injection and basic PII masking.", "description_zh": "", "downloads": 591, "homepage": "https://clawhub.ai/nickconstantinou/counterclaw-core", "iconUrl": null, "installs": 17, "name": "Counterclaw Core", "ownerName": "nickconstantinou", "score": 42919.389978213505, "slug": "counterclaw-core", "source": "clawhub", "stars": 0, "tags": null, "updated_at": 1776759083033, "version": "1.1.1"}, {"category": "developer-tools", "created_at": 1772775998964, "description": "Build a 13-week rolling cash flow forecast from your current balance, expected income, and expenses, highlighting weeks below your cash buffer.", "description_zh": "", "downloads": 591, "homepage": "https://clawhub.ai/1kalin/afrexai-cash-flow-forecast", "iconUrl": null, "installs": 7, "name": "Cash Flow Forecast", "ownerName": "1kalin", "score": 43360.23477622891, "slug": "afrexai-cash-flow-forecast", "source": "clawhub", "stars": 0, "tags": ["burn rate", "cash flow", "finance", "forecast", "runway"], "updated_at": 1776759082275, "version": "1.0.0"}, {"category": "productivity", "created_at": 1772779311011, "description": "Comprehensive statistical testing library with 37+ methods for normality tests, location tests, correlation tests, time series tests, and model diagnostics....", "description_zh": "", "downloads": 591, "homepage": "https://clawhub.ai/wangyendt/statistics-2", "iconUrl": null, "installs": 12, "name": "Pywayne Statistics", "ownerName": "wangyendt", "score": 38652.71419228254, "slug": "statistics-2", "source": "clawhub", "stars": 0, "tags": null, "updated_at": 1776757733225, "version": "0.1.0"}, {"category": "data-analysis", "created_at": 1772795764068, "description": "Real-time crypto funding rate scanner with smart alerts. Finds negative funding rates for profitable long positions. Supports Binance futures. No API key nee...", "description_zh": "", "downloads": 591, "homepage": "https://clawhub.ai/dagangtj/crypto-funding-alert", "iconUrl": null, "installs": 28, "name": "Crypto Funding Alert", "ownerName": "dagangtj", "score": 37933.247753530166, "slug": "crypto-funding-alert", "source": "clawhub", "stars": 0, "tags": null, "updated_at": 1776757620574, "version": "1.0.1"}, {"category": "data-analysis", "created_at": 1772777385815, "description": "Query crypto intelligence via Pond3r MCP — curated datasets, SQL queries, protocol metrics, yields, and market analysis. Use when the agent needs DeFi data, stablecoin yields, token opportunities, Polymarket trades, cross-protocol comparisons, or blockchain analytics.", "description_zh": "", "downloads": 590, "homepage": "https://clawhub.ai/fabriziogianni7/pond3r-skill", "iconUrl": null, "installs": 22, "name": "Pond3r Skill - Query Onchain Data", "ownerName": "fabriziogianni7", "score": 3884.812234075353, "slug": "pond3r-skill", "source": "clawhub", "stars": 2, "tags": null, "updated_at": 1776769790518, "version": "1.0.0"}, {"category": "content-creation", "created_at": 1772778630297, "description": "Find high-quality Instagram photos for any destination or place. Searches for Instagram posts via web search, downloads candidate images, vision-scores them...", "description_zh": "", "downloads": 590, "homepage": "https://clawhub.ai/psyduckler/instagram-photo-find", "iconUrl": null, "installs": 51, "name": "Instagram Photo Find", "ownerName": "psyduckler", "score": 18523.963540135253, "slug": "instagram-photo-find", "source": "clawhub", "stars": 2, "tags": null, "updated_at": 1776769790434, "version": "1.0.0"}, {"category": "ai-intelligence", "created_at": 1773056914369, "description": "Embedded knowledge graph for persistent structured knowledge. ALWAYS use proactively — do NOT wait for user to ask. Auto-triggers on: (1) any mention of peop...", "description_zh": "", "downloads": 590, "homepage": "https://clawhub.ai/xnohat/knowledge-graph-skill", "iconUrl": null, "installs": 18, "name": "Knowledge Graph", "ownerName": "xnohat", "score": 1446.663188350804, "slug": "knowledge-graph-skill", "source": "clawhub", "stars": 1, "tags": null, "updated_at": 1776770350008, "version": "1.1.1"}, {"category": "developer-tools", "created_at": 1773042391380, "description": "Agent-to-agent messaging client — create ephemeral sessions, exchange messages via pairing codes, poll with cursors. Use when you need to communicate with an...", "description_zh": "", "downloads": 590, "homepage": "https://clawhub.ai/ericsantos/messaging", "iconUrl": null, "installs": 6, "name": "Messaging", "ownerName": "ericsantos", "score": 21623.53775257001, "slug": "messaging", "source": "clawhub", "stars": 1, "tags": null, "updated_at": 1776770349730, "version": "0.8.3"}, {"category": "content-creation", "created_at": 1772799138128, "description": "Best choice for AI image generation with latest models including SeeDream 4.5, Midjourney, Nano Banana 2, and Nano Banana Pro. One-stop access to all industr...", "description_zh": "", "downloads": 590, "homepage": "https://clawhub.ai/allenfancy-gan/ima-image-ai", "iconUrl": null, "installs": 42, "name": "IMA Studio Image — SeeDream, Midjourney, Nano Banana", "ownerName": "allenfancy-gan", "score": 34644.74456840869, "slug": "ima-image-ai", "source": "clawhub", "stars": 0, "tags": null, "updated_at": 1776755888462, "version": "1.0.7"}, {"category": "developer-tools", "created_at": 1772780047917, "description": "GoHighLevel (GHL) workflow automation expert with 102 verified actions, 70 triggers, and 494 API schemas. Use when asked about GHL, GoHighLevel, HighLevel, G...", "description_zh": "", "downloads": 589, "homepage": "https://clawhub.ai/dasonshi/hylo-ghl", "iconUrl": null, "installs": 6, "name": "Hylo — GHL Automation Expert", "ownerName": "dasonshi", "score": 16182.873730043542, "slug": "hylo-ghl", "source": "clawhub", "stars": 4, "tags": null, "updated_at": 1776768850194, "version": "1.0.1"}, {"category": "ai-intelligence", "created_at": 1772784180645, "description": "Agent web access acceleration layer — reads any URL as structured JSON. Cache-first (public library hit = 0 tokens). The smart alternative to raw web_fetch.", "description_zh": "", "downloads": 589, "homepage": "https://clawhub.ai/takahashigy/ezcto-smart-web-reader", "iconUrl": null, "installs": 39, "name": "EZCTO Smart Web Reader", "ownerName": "takahashigy", "score": 5493.929600838502, "slug": "ezcto-smart-web-reader", "source": "clawhub", "stars": 2, "tags": ["agent", "cache", "ezcto", "openclaw", "web"], "updated_at": 1776769790530, "version": "1.1.1"}, {"category": "developer-tools", "created_at": 1773042197272, "description": "Search, browse, compare, find similar products, and buy from millions of online stores. No API Key required.", "description_zh": "", "downloads": 589, "homepage": "https://clawhub.ai/pushmatrix/shop-product-search", "iconUrl": null, "installs": 14, "name": "Shop", "ownerName": "pushmatrix", "score": 3878.645865449837, "slug": "shop-product-search", "source": "clawhub", "stars": 2, "tags": null, "updated_at": 1776769790508, "version": "0.0.20"}, {"category": "communication-collaboration", "created_at": 1772781042890, "description": "Complete cold email system teaching research-driven personalization, \"poke the bear\" openers, custom signal hunting, and strict QA.", "description_zh": "", "downloads": 589, "homepage": "https://clawhub.ai/xeroc/cold-email-personalization", "iconUrl": null, "installs": 22, "name": "Cold Email Personalization", "ownerName": "xeroc", "score": 3399.196249162759, "slug": "cold-email-personalization", "source": "clawhub", "stars": 1, "tags": null, "updated_at": 1776770350229, "version": "1.0.0"}, {"category": "content-creation", "created_at": 1773057366511, "description": "Fetch and parse WeChat public articles by extracting clean content, metadata, images, word count, and reading time without browser rendering.", "description_zh": "", "downloads": 589, "homepage": "https://clawhub.ai/psyear/read-wechat-article", "iconUrl": null, "installs": 158, "name": "read wechat article", "ownerName": "psyear", "score": 32063.146434403923, "slug": "read-wechat-article", "source": "clawhub", "stars": 0, "tags": null, "updated_at": 1776764690779, "version": "1.0.0"}, {"category": "developer-tools", "created_at": 1772775278728, "description": "Track expenses, enforce budgets, detect unusual spending, manage savings goals, and get weekly/monthly financial reports via natural language with your AI ag...", "description_zh": "", "downloads": 589, "homepage": "https://clawhub.ai/1kalin/afrexai-budget-tracker", "iconUrl": null, "installs": 15, "name": "Budget & Expense Tracker", "ownerName": "1kalin", "score": 35783.71810449575, "slug": "afrexai-budget-tracker", "source": "clawhub", "stars": 0, "tags": ["budget", "expense", "finance", "money", "savings", "tracking"], "updated_at": 1776759083830, "version": "1.0.0"}, {"category": "productivity", "created_at": 1772784756818, "description": "Runs shell commands inside a dedicated tmux session named claw, returning the command output while restricting dangerous commands without confirmation.", "description_zh": "", "downloads": 589, "homepage": "https://clawhub.ai/biosaylom/my-claw-shell", "iconUrl": null, "installs": 22, "name": "My Claw Shell", "ownerName": "biosaylom", "score": 42992.70072992701, "slug": "my-claw-shell", "source": "clawhub", "stars": 0, "tags": null, "updated_at": 1776759083182, "version": "1.0.0"}, {"category": "data-analysis", "created_at": 1772776851160, "description": "ClawdINT. Collaborative platform for structured tracking, research, and analysis of events and signals.", "description_zh": "", "downloads": 589, "homepage": "https://clawhub.ai/lknik/clawdint", "iconUrl": null, "installs": 12, "name": "ClawdINT - Collaborative analysis platform for AI agents", "ownerName": "lknik", "score": 43087.05193855157, "slug": "clawdint", "source": "clawhub", "stars": 0, "tags": null, "updated_at": 1776759082576, "version": "1.0.1"}, {"category": "productivity", "created_at": 1772775533725, "description": "Generate a link to an interactive 3D wheel to randomly choose from 2 to 20 user-provided options, optionally weighted by preference.", "description_zh": "", "downloads": 589, "homepage": "https://clawhub.ai/peetzweg/wheel-of-fortune", "iconUrl": null, "installs": 21, "name": "Wheel of Fortune", "ownerName": "peetzweg", "score": 42867.54002911208, "slug": "wheel-of-fortune", "source": "clawhub", "stars": 0, "tags": null, "updated_at": 1776759082341, "version": "1.0.0"}, {"category": "developer-tools", "created_at": 1772777497445, "description": "Operate JobTread via its Pave API to create, read, update, and manage accounts, jobs, documents, tasks, locations, custom fields, and webhooks programmatically.", "description_zh": "", "downloads": 588, "homepage": "https://clawhub.ai/brokenwatch24/jobtread-api", "iconUrl": null, "installs": 25, "name": "JobTread Agent", "ownerName": "brokenwatch24", "score": 15355.450236966824, "slug": "jobtread-api", "source": "clawhub", "stars": 3, "tags": null, "updated_at": 1776769450149, "version": "1.0.0"}, {"category": "content-creation", "created_at": 1772794259292, "description": "PDF & Image OCR — Convert a single PDF or image to Markdown via WiseDiag cloud API. Supports table recognition, multi-column layouts, and high-accuracy text...", "description_zh": "", "downloads": 588, "homepage": "https://clawhub.ai/wisediag/wisediag-medocr", "iconUrl": null, "installs": 98, "name": "WiseDiag MedOCR", "ownerName": "wisediag", "score": 4184.158007019476, "slug": "wisediag-medocr", "source": "clawhub", "stars": 1, "tags": null, "updated_at": 1776770350171, "version": "1.0.25"}, {"category": "productivity", "created_at": 1772775068790, "description": "Detects and scores prompt injection attempts in text, outputting severity, action, and matched rules without external calls or secret handling.", "description_zh": "", "downloads": 588, "homepage": "https://clawhub.ai/edmonddantesj/aoi-prompt-injection-sentinel", "iconUrl": null, "installs": 9, "name": "AOI Prompt Injection Sentinel", "ownerName": "edmonddantesj", "score": 42763.63636363637, "slug": "aoi-prompt-injection-sentinel", "source": "clawhub", "stars": 0, "tags": null, "updated_at": 1776759082533, "version": "0.1.2"}, {"category": "developer-tools", "created_at": 1772783611887, "description": "Use cheap, TEE-verified AI models from the 0G Compute Network as OpenClaw providers. Discover available models and compare pricing vs OpenRouter, verify prov...", "description_zh": "", "downloads": 588, "homepage": "https://clawhub.ai/in-liberty420/0g-compute", "iconUrl": null, "installs": 16, "name": "0G Compute", "ownerName": "in-liberty420", "score": 67820.06920415224, "slug": "0g-compute", "source": "clawhub", "stars": 0, "tags": null, "updated_at": 1776748069567, "version": "1.0.2"}, {"category": "ai-intelligence", "created_at": 1772775310537, "description": "Ship agents that fix themselves. Kalibr learns what's working as your agents run in production and routes them around failures, degradations, and cost spikes...", "description_zh": "", "downloads": 587, "homepage": "https://clawhub.ai/root/kalibr", "iconUrl": null, "installs": 41, "name": "Kalibr: Ship agents that fix themselves", "ownerName": "root", "score": 18929.19836161498, "slug": "kalibr", "source": "clawhub", "stars": 3, "tags": null, "updated_at": 1776769450220, "version": "0.2.1"}, {"category": "security-compliance", "created_at": 1772774942387, "description": "Authenticate AI agents with the DeepRead OCR API using OAuth device flow. The agent displays a code, the user approves it in their browser, and the agent rec...", "description_zh": "", "downloads": 587, "homepage": "https://clawhub.ai/deepread001/deepread-agent-setup", "iconUrl": null, "installs": 26, "name": "DeepRead Agent Self Sign Up", "ownerName": "deepread001", "score": 6358.381502890173, "slug": "deepread-agent-setup", "source": "clawhub", "stars": 2, "tags": null, "updated_at": 1776769871083, "version": "2.0.4"}, {"category": "content-creation", "created_at": 1772801496561, "description": "Performs Google searches with rich results including news, images, videos, places, shopping, scholar papers, patents, and search suggestions via Serper.dev API.", "description_zh": "", "downloads": 587, "homepage": "https://clawhub.ai/minilozio/serper-google-search", "iconUrl": null, "installs": 192, "name": "Google Search Skill", "ownerName": "minilozio", "score": 5867.066466766617, "slug": "serper-google-search", "source": "clawhub", "stars": 0, "tags": null, "updated_at": 1776765671142, "version": "1.0.0"}, {"category": "productivity", "created_at": 1772775378923, "description": "Manage LinkedIn outreach leads from Google Sheets — search by name, read live conversation threads, update status, and send contextual follow-up messages. Use after linkedin-dm to move leads through the pipeline (Sent → Replied → Call Scheduled → Demo Done → Closed).", "description_zh": "", "downloads": 587, "homepage": "https://clawhub.ai/10madh/linkedin-followup", "iconUrl": null, "installs": 20, "name": "LinkedIn Follow-up", "ownerName": "10madh", "score": 9302.6941362916, "slug": "linkedin-followup", "source": "clawhub", "stars": 0, "tags": null, "updated_at": 1776764950525, "version": "1.0.0"}, {"category": "security-compliance", "created_at": 1772783308302, "description": "Perform a comprehensive regulatory compliance audit covering US, UK, and EU frameworks across 8 domains with risk scoring and a 90-day remediation roadmap.", "description_zh": "", "downloads": 587, "homepage": "https://clawhub.ai/1kalin/afrexai-regulatory-compliance", "iconUrl": null, "installs": 12, "name": "Regulatory Compliance Audit", "ownerName": "1kalin", "score": 19095.640858815874, "slug": "afrexai-regulatory-compliance", "source": "clawhub", "stars": 0, "tags": ["audit", "compliance", "governance", "regulatory", "risk"], "updated_at": 1776761840142, "version": "1.0.0"}, {"category": "data-analysis", "created_at": 1772776685799, "description": "Creates weekly shift rosters (KW-JSON) from CSV availability data and pushes them to GitHub.", "description_zh": "", "downloads": 587, "homepage": "https://clawhub.ai/kleberbaum/roster", "iconUrl": null, "installs": 15, "name": "Roster", "ownerName": "kleberbaum", "score": 47491.90938511327, "slug": "roster", "source": "clawhub", "stars": 0, "tags": null, "updated_at": 1776760320656, "version": "1.0.4"}, {"category": "data-analysis", "created_at": 1772777550312, "description": "Control mobile robots (quadruped, bipedal, wheeled, aerial) via IM platforms. Supports Unitree robots and Insight9 AI stereo camera.", "description_zh": "", "downloads": 587, "homepage": "https://clawhub.ai/qinrui-dm/openclaw-robotics", "iconUrl": null, "installs": 25, "name": "Robotics", "ownerName": "qinrui-dm", "score": 42690.90909090909, "slug": "openclaw-robotics", "source": "clawhub", "stars": 0, "tags": null, "updated_at": 1776759083400, "version": "2.1.0"}, {"category": "data-analysis", "created_at": 1772789530935, "description": "Format, validate, compress JSON data, and extract JSON paths for improved readability and structure verification.", "description_zh": "", "downloads": 587, "homepage": "https://clawhub.ai/honestqiao/json-formatter", "iconUrl": null, "installs": 29, "name": "JSON Formatter", "ownerName": "honestqiao", "score": 100000, "slug": "json-formatter", "source": "clawhub", "stars": 0, "tags": ["formatter", "json"], "updated_at": 1776759082394, "version": "1.0.0"}, {"category": "security-compliance", "created_at": 1772776389215, "description": "Creates snapshots of critical config files, validates JSON configs for syntax and keys, and generates audit logs without applying changes.", "description_zh": "", "downloads": 587, "homepage": "https://clawhub.ai/edmonddantesj/aoi-sandbox-shield-lite", "iconUrl": null, "installs": 10, "name": "AOI Sandbox Shield (Lite)", "ownerName": "edmonddantesj", "score": 42443.96240057845, "slug": "aoi-sandbox-shield-lite", "source": "clawhub", "stars": 0, "tags": null, "updated_at": 1776759082109, "version": "0.1.2"}, {"category": "ai-intelligence", "created_at": 1772775370828, "description": "Browse, install, buy, sell, publish, update, and review AI agent skills on ClawMarket, and manage your marketplace profile and wallet.", "description_zh": "", "downloads": 587, "homepage": "https://clawhub.ai/sharbelayy/clawmarket", "iconUrl": null, "installs": 30, "name": "Clawmarket", "ownerName": "sharbelayy", "score": 100000, "slug": "clawmarket", "source": "clawhub", "stars": 0, "tags": null, "updated_at": 1776748071564, "version": "1.4.0"}, {"category": "productivity", "created_at": 1772789014758, "description": "How to use the internet_search tool effectively — category routing, query formulation, and multi-search strategies. Use whenever web search is needed: curren...", "description_zh": "", "downloads": 587, "homepage": "https://clawhub.ai/jzakirov/internet-search", "iconUrl": null, "installs": 32, "name": "Internet Search", "ownerName": "jzakirov", "score": 100000, "slug": "internet-search", "source": "clawhub", "stars": 0, "tags": null, "updated_at": 1776748071546, "version": "0.3.4"}, {"category": "data-analysis", "created_at": 1772779763055, "description": "Monitors customer health, predicts churn risk, and identifies expansion opportunities using weighted scoring models for SaaS customer success. Use when analy...", "description_zh": "", "downloads": 587, "homepage": "https://clawhub.ai/alirezarezvani/customer-success-manager", "iconUrl": null, "installs": 14, "name": "Customer Success Manager", "ownerName": "alirezarezvani", "score": 100000, "slug": "customer-success-manager", "source": "clawhub", "stars": 0, "tags": null, "updated_at": 1776748070689, "version": "2.1.1"}, {"category": "security-compliance", "created_at": 1772782733450, "description": "Design structured employee training programs with modules, assessments, schedules, and tracking for onboarding, compliance, upskilling, and leadership develo...", "description_zh": "", "downloads": 586, "homepage": "https://clawhub.ai/1kalin/afrexai-training-program", "iconUrl": null, "installs": 28, "name": "Employee Training Program", "ownerName": "1kalin", "score": 12631.154156577886, "slug": "afrexai-training-program", "source": "clawhub", "stars": 2, "tags": ["employee development", "hr", "onboarding", "training"], "updated_at": 1776769871245, "version": "1.0.0"}, {"category": "ai-intelligence", "created_at": 1772775499114, "description": "Find properties for sale that are already generating Airbnb income. Cross-references Zillow listings with active Airbnb rentals using geo-matching and calcul...", "description_zh": "", "downloads": 586, "homepage": "https://clawhub.ai/freemountaindeer/zillow-airbnb-matcher", "iconUrl": null, "installs": 33, "name": "Zillow × Airbnb Matcher", "ownerName": "freemountaindeer", "score": 6348.240543555421, "slug": "zillow-airbnb-matcher", "source": "clawhub", "stars": 2, "tags": null, "updated_at": 1776769871101, "version": "3.1.0"}, {"category": "developer-tools", "created_at": 1772785451434, "description": "Search, install, and create OpenClaw skills using intelligent matching across built-in, local, and GitHub skill repositories.", "description_zh": "", "downloads": 586, "homepage": "https://clawhub.ai/chris6970barbarian-hue/skillstore", "iconUrl": null, "installs": 15, "name": "Skillstore", "ownerName": "chris6970barbarian-hue", "score": 43119.94113318617, "slug": "skillstore", "source": "clawhub", "stars": 0, "tags": null, "updated_at": 1776759083344, "version": "1.0.0"}, {"category": "communication-collaboration", "created_at": 1772789622891, "description": "Everything agents need to communicate. Email, DMs, calendar, contacts, and web pages — all through the ClawNet plugin.", "description_zh": "", "downloads": 586, "homepage": "https://clawhub.ai/ethanbeard/clwnt", "iconUrl": null, "installs": 11, "name": "ClawNet", "ownerName": "ethanbeard", "score": 42773.722627737225, "slug": "clwnt", "source": "clawhub", "stars": 0, "tags": ["agent-to-agent agent-dms messaging inbox-monitoring prompt-injection-protection moltbook", "agents", "latest messaging twitter", "messaging", "moltbook", "network", "notifications", "social"], "updated_at": 1776759083184, "version": "4.0.0"}, {"category": "developer-tools", "created_at": 1772777355690, "description": "PowerShell skill for calling Kakao Local API to normalize addresses and search places with keyword, location, radius, and category filters.", "description_zh": "", "downloads": 586, "homepage": "https://clawhub.ai/muninjun/mij-kakao-local", "iconUrl": null, "installs": 22, "name": "MIJ Kakao Local API (PowerShell)", "ownerName": "muninjun", "score": 42867.593269934165, "slug": "mij-kakao-local", "source": "clawhub", "stars": 0, "tags": ["kakao-local"], "updated_at": 1776759082430, "version": "1.0.0"}]}