{"page": 154, "total_pages": 522, "total": 26073, "skills": [{"category": "data-analysis", "created_at": 1772775248193, "description": "AI-powered smart contract generator, analyzer, and deployer for BNB Chain (BSC/opBNB). Use when you need to generate Solidity from natural language, run secu...", "description_zh": "", "downloads": 586, "homepage": "https://clawhub.ai/sufnoobzac/clawcontract", "iconUrl": null, "installs": 11, "name": "clawcontract", "ownerName": "sufnoobzac", "score": 100000, "slug": "clawcontract", "source": "clawhub", "stars": 0, "tags": null, "updated_at": 1776748070368, "version": "1.0.8"}, {"category": "developer-tools", "created_at": 1772777015067, "description": "Lightweight CDP browser control for AI agents. Token-efficient alternative to the built-in browser tool — 3-10x fewer tokens per interaction. Use when browsi...", "description_zh": "", "downloads": 586, "homepage": "https://clawhub.ai/shaihazher/tappi", "iconUrl": null, "installs": 14, "name": "tappi", "ownerName": "shaihazher", "score": 100000, "slug": "tappi", "source": "clawhub", "stars": 0, "tags": null, "updated_at": 1776748069649, "version": "3.5.0"}, {"category": "developer-tools", "created_at": 1772774891574, "description": "Buy, maintain, and handle car emergencies with cost estimates, maintenance schedules, and roadside problem-solving.", "description_zh": "", "downloads": 585, "homepage": "https://clawhub.ai/ivangdavila/car", "iconUrl": null, "installs": 7, "name": "Car", "ownerName": "ivangdavila", "score": 5923.047763457164, "slug": "car", "source": "clawhub", "stars": 2, "tags": null, "updated_at": 1776770050124, "version": "1.0.0"}, {"category": "content-creation", "created_at": 1772775730726, "description": "Monitor content from people, topics, and sources across platforms with smart filtering, tiered alerts, and searchable archives.", "description_zh": "", "downloads": 585, "homepage": "https://clawhub.ai/ivangdavila/follow", "iconUrl": null, "installs": 37, "name": "Follow", "ownerName": "ivangdavila", "score": 12889.25551660136, "slug": "follow", "source": "clawhub", "stars": 2, "tags": null, "updated_at": 1776770050051, "version": "1.0.0"}, {"category": "ai-intelligence", "created_at": 1772779145851, "description": "Share anonymized OpenClaw configurations with the OpenSoul community. Use when user wants to share their agent setup, discover how others use OpenClaw, or ge...", "description_zh": "", "downloads": 585, "homepage": "https://clawhub.ai/fnaser/opensoul-cloud", "iconUrl": null, "installs": 35, "name": "OpenSoul - Agent Soul Sharing and Community", "ownerName": "fnaser", "score": 12610.976594027443, "slug": "opensoul-cloud", "source": "clawhub", "stars": 2, "tags": null, "updated_at": 1776769871246, "version": "1.0.3"}, {"category": "data-analysis", "created_at": 1772782276599, "description": "Pre-defined business workflows combining multiple MCP tools for CRM, sales, purchase, inventory, project, payments, and utility tasks in ERPNext.", "description_zh": "", "downloads": 585, "homepage": "https://clawhub.ai/ravana-indus/erpnext-frappe", "iconUrl": null, "installs": 30, "name": "Frappe MCP", "ownerName": "ravana-indus", "score": 5697.312037397741, "slug": "erpnext-frappe", "source": "clawhub", "stars": 0, "tags": null, "updated_at": 1776766150271, "version": "1.0.0"}, {"category": "data-analysis", "created_at": 1772782276599, "description": "Pre-defined business workflows combining multiple MCP tools for CRM, sales, purchase, inventory, project, payments, and utility tasks in ERPNext.", "description_zh": "", "downloads": 585, "homepage": "https://clawhub.ai/ravana-indus/erpnext-frappe", "iconUrl": null, "installs": 30, "name": "Frappe MCP", "ownerName": "ravana-indus", "score": 2722.7031555431445, "slug": "erpnext-frappe", "source": "clawhub", "stars": 0, "tags": null, "updated_at": 1776766150271, "version": "1.0.0"}, {"category": "data-analysis", "created_at": 1773934933927, "description": "Financial analysis skill for AI agents. Covers variance analysis, cash flow forecasting, month-end close automation, CFO commentary generation, 13-week cash...", "description_zh": "", "downloads": 585, "homepage": "https://clawhub.ai/samledger67-dotcom/financial-analysis-agent", "iconUrl": null, "installs": 57, "name": "Financial Analysis Agent", "ownerName": "samledger67-dotcom", "score": 24777.636594663276, "slug": "financial-analysis-agent", "source": "clawhub", "stars": 0, "tags": null, "updated_at": 1776765550077, "version": "98.0.1"}, {"category": "productivity", "created_at": 1772777528378, "description": "Automates copying DJI camera footage from an SD card to the next numbered backup folder on a NAS for organized archiving.", "description_zh": "", "downloads": 585, "homepage": "https://clawhub.ai/crazyfeng666/dji-backup", "iconUrl": null, "installs": 18, "name": "Dji Backup", "ownerName": "crazyfeng666", "score": 42794.440380395026, "slug": "dji-backup", "source": "clawhub", "stars": 0, "tags": null, "updated_at": 1776759083483, "version": "1.0.0"}, {"category": "productivity", "created_at": 1772780845016, "description": "Real-time forex and cryptocurrency exchange rate lookup and amount conversion powered by QVeris. Supports multiple providers (Alpha Vantage, Twelve Data) wit...", "description_zh": "", "downloads": 585, "homepage": "https://clawhub.ai/ax2/exchange-rate", "iconUrl": null, "installs": 41, "name": "Exchange Rate", "ownerName": "ax2", "score": 42299.34924078091, "slug": "exchange-rate", "source": "clawhub", "stars": 0, "tags": null, "updated_at": 1776759082118, "version": "1.0.0"}, {"category": "developer-tools", "created_at": 1772777856106, "description": "Long-term structured memory with knowledge graph, entity tracking, temporal reasoning, and cross-session recall. Powered by the Cortex API.", "description_zh": "", "downloads": 585, "homepage": "https://clawhub.ai/matthewubundi/cortex-memory", "iconUrl": null, "installs": 16, "name": "Cortex Memory", "ownerName": "matthewubundi", "score": 99829.35153583618, "slug": "cortex-memory", "source": "clawhub", "stars": 0, "tags": ["knowledge-graph", "memory", "retrieval"], "updated_at": 1776748069650, "version": "1.0.2"}, {"category": "security-compliance", "created_at": 1773425859871, "description": "Shopify development reference — Liquid templates, Admin/Storefront API, theme architecture, OAuth, checkout extensibility, and CLI commands.", "description_zh": "", "downloads": 585, "homepage": "https://clawhub.ai/xueyetianya/shopify-toolkit", "iconUrl": null, "installs": 37, "name": "Shopify Toolkit", "ownerName": "xueyetianya", "score": 67474.04844290657, "slug": "shopify-toolkit", "source": "clawhub", "stars": 0, "tags": null, "updated_at": 1776748069531, "version": "7.0.0"}, {"category": "data-analysis", "created_at": 1772776223739, "description": "Track prices, analyze historical and total costs, detect manipulation, set alerts, and advise on optimal purchase timing for consumers and businesses.", "description_zh": "", "downloads": 584, "homepage": "https://clawhub.ai/ivangdavila/price", "iconUrl": null, "installs": 13, "name": "Price", "ownerName": "ivangdavila", "score": 21282.05128205128, "slug": "price", "source": "clawhub", "stars": 4, "tags": null, "updated_at": 1776768971046, "version": "1.0.0"}, {"category": "content-creation", "created_at": 1772777256156, "description": "Generate 3D avatars (VRM/GLB/MML) from text or images via Sideload.gg, paying $2 USDC per generation using any x402 wallet on Base.", "description_zh": "", "downloads": 584, "homepage": "https://clawhub.ai/directivecreator/sideload-avatar-generator", "iconUrl": null, "installs": 46, "name": "Sideload Avatar Generator", "ownerName": "directivecreator", "score": 2197.0283782832194, "slug": "sideload-avatar-generator", "source": "clawhub", "stars": 2, "tags": null, "updated_at": 1776770050072, "version": "1.0.2"}, {"category": "data-analysis", "created_at": 1772783676906, "description": "Execute AetherLang V3 AI workflows from Claude Code using nine specialized engines for culinary, business, research, marketing, and strategic analyses.", "description_zh": "", "downloads": 584, "homepage": "https://clawhub.ai/contrario/aetherlang-claude-code", "iconUrl": null, "installs": 34, "name": "AetherLang V3 for Claude Code", "ownerName": "contrario", "score": 12868.6327077748, "slug": "aetherlang-claude-code", "source": "clawhub", "stars": 2, "tags": ["aetherlang", "ai", "api", "business", "chef", "claude", "claude-code", "culinary", "research", "strategy", "workflow"], "updated_at": 1776770050046, "version": "1.0.3"}, {"category": "data-analysis", "created_at": 1772778311176, "description": "Semantic knowledge base allowing ingest, search, and retrieval of saved texts, URLs, and files using embeddings and SQLite.", "description_zh": "", "downloads": 584, "homepage": "https://clawhub.ai/odinbot33/oee-knowledge-base", "iconUrl": null, "installs": 20, "name": "OEE Knowledge Base RAG", "ownerName": "odinbot33", "score": 11258.916522074416, "slug": "oee-knowledge-base", "source": "clawhub", "stars": 0, "tags": null, "updated_at": 1776763190497, "version": "1.0.0"}, {"category": "developer-tools", "created_at": 1772776926889, "description": "Official Whisper Context skill for OpenClaw. Cuts context tokens via delta compression + caching, and adds long-term memory across sessions.", "description_zh": "", "downloads": 584, "homepage": "https://clawhub.ai/alinxus/usewhisper", "iconUrl": null, "installs": 17, "name": "usewhisper", "ownerName": "alinxus", "score": 42472.72727272727, "slug": "usewhisper", "source": "clawhub", "stars": 0, "tags": null, "updated_at": 1776759082237, "version": "1.0.0"}, {"category": "ai-intelligence", "created_at": 1773285862077, "description": "Presentation and slide deck generator. Create outlines, full slide decks, speaker notes, pitch decks, training slides, report presentations.", "description_zh": "", "downloads": 584, "homepage": "https://clawhub.ai/ckchzh/slide-maker", "iconUrl": null, "installs": 53, "name": "Slide Maker", "ownerName": "ckchzh", "score": 99488.92674616695, "slug": "slide-maker", "source": "clawhub", "stars": 0, "tags": ["chinese", "productivity"], "updated_at": 1776748070680, "version": "2.0.0"}, {"category": "developer-tools", "created_at": 1772774598174, "description": "Stop failing in production. Validate your GitHub Actions, GitLab CI & Keep workflows offline with surgical precision. Born from Keep bounty research, perfected for agents.", "description_zh": "", "downloads": 584, "homepage": "https://clawhub.ai/bamontejano/skill-doctorbot-ci-validator", "iconUrl": null, "installs": 4, "name": "Doctorbot Ci Validator", "ownerName": "bamontejano", "score": 100000, "slug": "skill-doctorbot-ci-validator", "source": "clawhub", "stars": 0, "tags": null, "updated_at": 1776748070015, "version": "0.1.0"}, {"category": "productivity", "created_at": 1772784189033, "description": "Ollama Updater installs or updates Ollama with curl-based breakpoint resume, auto-retry, progress display, old version cleanup, and GPU driver detection.", "description_zh": "", "downloads": 583, "homepage": "https://clawhub.ai/newolf20000/ollama-updater", "iconUrl": null, "installs": 29, "name": "Ollama Updater", "ownerName": "newolf20000", "score": 12848.009898948238, "slug": "ollama-updater", "source": "clawhub", "stars": 2, "tags": null, "updated_at": 1776770050041, "version": "1.0.1"}, {"category": "data-analysis", "created_at": 1773040563099, "description": "Spawn and relay Cursor Agent's CLI (`agent` binary) as an interactive passthrough. Use when the user wants to run Cursor Agent in a directory, ask it questio...", "description_zh": "", "downloads": 583, "homepage": "https://clawhub.ai/waldyrious/cursor-tui", "iconUrl": null, "installs": 19, "name": "Cursor Tui", "ownerName": "waldyrious", "score": 2087.299664232061, "slug": "cursor-tui", "source": "clawhub", "stars": 1, "tags": null, "updated_at": 1776770471309, "version": "1.0.1"}, {"category": "developer-tools", "created_at": 1773069106595, "description": "Godot 4.x shader development guide covering visual effects, materials, particle shaders, and optimization. Use when creating custom shaders, visual effects,...", "description_zh": "", "downloads": 583, "homepage": "https://clawhub.ai/thb32133451/godot-shader", "iconUrl": null, "installs": 188, "name": "Godot Shader Development", "ownerName": "thb32133451", "score": 30555.55555555556, "slug": "godot-shader", "source": "clawhub", "stars": 0, "tags": null, "updated_at": 1776769150094, "version": "1.0.0"}, {"category": "content-creation", "created_at": 1772788997542, "description": "Local arXiv paper manager with semantic search. Crawls arXiv categories, downloads PDFs, chunks content, and indexes with FAISS + Ollama embeddings. No cloud...", "description_zh": "", "downloads": 583, "homepage": "https://clawhub.ai/camopel/arxivkb", "iconUrl": null, "installs": 81, "name": "arxivkb", "ownerName": "camopel", "score": 11252.653927813164, "slug": "arxivkb", "source": "clawhub", "stars": 0, "tags": null, "updated_at": 1776765250409, "version": "1.0.1"}, {"category": "security-compliance", "created_at": 1772780732359, "description": "Manages and optimizes cross-channel ad campaigns autonomously with planning, auditing, budget allocation, and performance reporting across major platforms.", "description_zh": "", "downloads": 583, "homepage": "https://clawhub.ai/1kalin/afrexai-ad-ops", "iconUrl": null, "installs": 32, "name": "Ad Ops & Cross-Channel Advertising Agent", "ownerName": "1kalin", "score": 23282.74760383387, "slug": "afrexai-ad-ops", "source": "clawhub", "stars": 0, "tags": ["ad-ops", "advertising", "ai", "business", "cross-channel", "google-ads", "linkedin", "marketing", "meta-ads", "ppc"], "updated_at": 1776763490644, "version": "1.1.0"}, {"category": "", "created_at": 1774799501261, "description": "Diagnose OpenClaw node connection and pairing failures for Android, iOS, and macOS companion apps. Use when QR/setup code/manual connect fails, local Wi-Fi w...", "description_zh": "", "downloads": 583, "homepage": "https://clawhub.ai/jackhua6/node-connect", "iconUrl": null, "installs": 42, "name": "node-connect", "ownerName": "jackhua6", "score": 3587.2507999015506, "slug": "node-connect", "source": "clawhub", "stars": 0, "tags": null, "updated_at": 1776762045374, "version": "1.0.0"}, {"category": "data-analysis", "created_at": 1772776994328, "description": "Routes tasks to the best-suited agent based on skills, cost, availability, and priority, enabling parallel execution and load-balanced multi-agent orchestrat...", "description_zh": "", "downloads": 583, "homepage": "https://clawhub.ai/edmonddantesj/aoineco-squad-dispatch", "iconUrl": null, "installs": 9, "name": "Aoineco Squad Dispatch — Multi-Agent Task Router", "ownerName": "edmonddantesj", "score": 99488.05460750853, "slug": "aoineco-squad-dispatch", "source": "clawhub", "stars": 0, "tags": null, "updated_at": 1776759083425, "version": "1.0.0"}, {"category": "content-creation", "created_at": 1772780971018, "description": "Generate Instagram-ready card news (카드뉴스) image sets. Use when creating a series of 5 slide images from a topic — includes content planning, image generation...", "description_zh": "", "downloads": 583, "homepage": "https://clawhub.ai/mupengi-bot/cardnews", "iconUrl": null, "installs": 67, "name": "Cardnews", "ownerName": "mupengi-bot", "score": 100000, "slug": "cardnews", "source": "clawhub", "stars": 0, "tags": null, "updated_at": 1776754688170, "version": "1.0.0"}, {"category": "content-creation", "created_at": 1772784640528, "description": "Generate content ideas rooted in positioning. Use when someone needs \"content ideas,\" \"what should I post,\" \"blog topics,\" \"LinkedIn ideas,\" or is stuck on w...", "description_zh": "", "downloads": 583, "homepage": "https://clawhub.ai/brianrwagner/brw-content-idea-generator", "iconUrl": null, "installs": 36, "name": "Content Idea Generator", "ownerName": "brianrwagner", "score": 100000, "slug": "brw-content-idea-generator", "source": "clawhub", "stars": 0, "tags": null, "updated_at": 1776748071016, "version": "1.0.0"}, {"category": "security-compliance", "created_at": 1772779904748, "description": "AI agent governance, trust scoring, and policy enforcement powered by AgentMesh. Activate when: (1) user wants to enforce token limits, tool restrictions, or...", "description_zh": "", "downloads": 583, "homepage": "https://clawhub.ai/imran-siddique/agentmesh-governance", "iconUrl": null, "installs": 20, "name": "AgentMesh Governance", "ownerName": "imran-siddique", "score": 99488.05460750853, "slug": "agentmesh-governance", "source": "clawhub", "stars": 0, "tags": ["audit", "enterprise", "governance", "identity", "multi-agent", "security", "trust"], "updated_at": 1776748070326, "version": "1.0.0"}, {"category": "communication-collaboration", "created_at": 1772779130136, "description": "OpenClaw Email Lead Generation — the complete outreach and pipeline system for your agent. Guided setup builds your config, Template Forge creates custom ema...", "description_zh": "", "downloads": 582, "homepage": "https://clawhub.ai/jeffjhunter/openclaw-email-lead-generation", "iconUrl": null, "installs": 18, "name": "OpenClaw Email Lead Generation", "ownerName": "jeffjhunter", "score": 6127.123496850544, "slug": "openclaw-email-lead-generation", "source": "clawhub", "stars": 3, "tags": null, "updated_at": 1776769450072, "version": "1.0.1"}, {"category": "content-creation", "created_at": 1772790778279, "description": "When user asks to write email, draft reply, manage inbox, email template, follow up email, cold email, professional email, email subject line, thank you emai...", "description_zh": "", "downloads": 582, "homepage": "https://clawhub.ai/mkpareek0315/email-manager-ai", "iconUrl": null, "installs": 104, "name": "Email Manager", "ownerName": "mkpareek0315", "score": 12827.387090121676, "slug": "email-manager-ai", "source": "clawhub", "stars": 2, "tags": null, "updated_at": 1776770050048, "version": "1.0.0"}, {"category": "data-analysis", "created_at": 1772777143838, "description": "Purchase data, airtime, and digital products for Nigerian phone numbers instantly using wallet balance with network and plan validation.", "description_zh": "", "downloads": 582, "homepage": "https://clawhub.ai/h1rdr3v2/pay-bills", "iconUrl": null, "installs": 16, "name": "Pay Bills", "ownerName": "h1rdr3v2", "score": 3123.1170917854993, "slug": "pay-bills", "source": "clawhub", "stars": 2, "tags": null, "updated_at": 1776770049800, "version": "0.0.5"}, {"category": "developer-tools", "created_at": 1772785529250, "description": "Generate App Store and Google Play screenshot assets using each::sense AI. Create device-framed screenshots, feature highlights, localized versions, and prom...", "description_zh": "", "downloads": 582, "homepage": "https://clawhub.ai/eftalyurtseven/app-store-screenshot-generation", "iconUrl": null, "installs": 14, "name": "App Store Screenshot Generation", "ownerName": "eftalyurtseven", "score": 1307.7006625393722, "slug": "app-store-screenshot-generation", "source": "clawhub", "stars": 1, "tags": null, "updated_at": 1776770471215, "version": "1.0.0"}, {"category": "developer-tools", "created_at": 1773220490295, "description": "Help users make better Meituan ordering decisions from public merchant and delivery information. Use when the user wants to compare Meituan restaurants, judg...", "description_zh": "", "downloads": 582, "homepage": "https://clawhub.ai/harrylabsj/meituan", "iconUrl": null, "installs": 22, "name": "Meituan", "ownerName": "harrylabsj", "score": 16357.5042158516, "slug": "meituan", "source": "clawhub", "stars": 0, "tags": ["delivery", "ecommerce", "food", "shopping"], "updated_at": 1776762590429, "version": "1.1.0"}, {"category": "communication-collaboration", "created_at": 1772786901630, "description": "Lightweight markdown editor with optional OpenClaw gateway chat. Filesystem-based, no database required.", "description_zh": "", "downloads": 582, "homepage": "https://clawhub.ai/musketyr/markdown-editor-with-chat", "iconUrl": null, "installs": 25, "name": "Markdown Editor With Chat", "ownerName": "musketyr", "score": 42450.7658643326, "slug": "markdown-editor-with-chat", "source": "clawhub", "stars": 0, "tags": null, "updated_at": 1776759083778, "version": "1.1.2"}, {"category": "communication-collaboration", "created_at": 1772776592209, "description": "Logs all OpenClaw conversations and events with role tags, saving to JSONL and Memvid for full context search and monthly sharded or single-file storage.", "description_zh": "", "downloads": 582, "homepage": "https://clawhub.ai/stackblock/openclaw-memvid-logger", "iconUrl": null, "installs": 17, "name": "MemSync Dual Memory System", "ownerName": "stackblock", "score": 42637.36263736264, "slug": "openclaw-memvid-logger", "source": "clawhub", "stars": 0, "tags": ["agent-memory", "archive", "backup", "chat-history", "context", "conversation", "history", "jsonl", "long-term-memory", "memvid", "persistence", "rag", "recall", "retrieval", "semantic-search", "storage", "vector-search"], "updated_at": 1776759082883, "version": "1.2.6"}, {"category": "security-compliance", "created_at": 1773920154296, "description": "Security-first skill vetting for AI agents. Use before installing any skill from ClawdHub, GitHub, or other sources. Checks for red flags, permission scope,...", "description_zh": "", "downloads": 582, "homepage": "https://clawhub.ai/nidhov01/nidhov01-skill-vetter", "iconUrl": null, "installs": 161, "name": "Skill Vetter", "ownerName": "nidhov01", "score": 100000, "slug": "nidhov01-skill-vetter", "source": "clawhub", "stars": 0, "tags": null, "updated_at": 1776755588360, "version": "1.0.0"}, {"category": "security-compliance", "created_at": 1772775511836, "description": "Generate and manage Django REST APIs using DRF with best practices for serializers, viewsets, routing, authentication, optimization, and testing.", "description_zh": "", "downloads": 582, "homepage": "https://clawhub.ai/pradeepcep/drf", "iconUrl": null, "installs": 14, "name": "Django REST Framework", "ownerName": "pradeepcep", "score": 99148.21124361159, "slug": "drf", "source": "clawhub", "stars": 0, "tags": null, "updated_at": 1776748071540, "version": "1.0.0"}, {"category": "content-creation", "created_at": 1772779264134, "description": "Solve CAPTCHAs (reCAPTCHA v2/v3, hCaptcha, Cloudflare Turnstile, image CAPTCHAs) using CapMonster Cloud API. Use when browser automation encounters CAPTCHA c...", "description_zh": "", "downloads": 582, "homepage": "https://clawhub.ai/easonc13/capmonster", "iconUrl": null, "installs": 34, "name": "CapMonster CAPTCHA Solver", "ownerName": "easonc13", "score": 99317.4061433447, "slug": "capmonster", "source": "clawhub", "stars": 0, "tags": null, "updated_at": 1776748070361, "version": "1.0.0"}, {"category": "content-creation", "created_at": 1772777057682, "description": "Design and execute customer onboarding that drives activation and retention. Use when building onboarding flows for new users, reducing churn in the first 30 days, improving time-to-value, or creating onboarding sequences (email, in-app, or manual). Covers activation metrics, onboarding step design, friction reduction, and measuring onboarding success. Trigger on \"customer onboarding\", \"onboarding flow\", \"user onboarding\", \"reduce early churn\", \"improve activation\", \"onboarding sequence\", \"time to value\".", "description_zh": "", "downloads": 582, "homepage": "https://clawhub.ai/jk-0001/customer-onboarding-2", "iconUrl": null, "installs": 30, "name": "Customer Onboarding", "ownerName": "jk-0001", "score": 99317.4061433447, "slug": "customer-onboarding-2", "source": "clawhub", "stars": 0, "tags": null, "updated_at": 1776748069719, "version": "0.1.0"}, {"category": "productivity", "created_at": 1772785341611, "description": "Advanced automation workflows for Feishu (Lark) productivity suite. Use when you need to automate document workflows, sync data across Feishu apps, generate...", "description_zh": "", "downloads": 581, "homepage": "https://clawhub.ai/hejk/feishu-automation", "iconUrl": null, "installs": 45, "name": "Feishu Automation", "ownerName": "hejk", "score": 4812.461252324861, "slug": "feishu-automation", "source": "clawhub", "stars": 2, "tags": null, "updated_at": 1776770050140, "version": "1.0.0"}, {"category": "security-compliance", "created_at": 1772775728629, "description": "Drive data strategy with governance frameworks, analytics platforms, AI/ML initiatives, and privacy compliance.", "description_zh": "", "downloads": 581, "homepage": "https://clawhub.ai/ivangdavila/cdo", "iconUrl": null, "installs": 25, "name": "CDO / Chief Data Officer", "ownerName": "ivangdavila", "score": 1494.2252165543791, "slug": "cdo", "source": "clawhub", "stars": 2, "tags": null, "updated_at": 1776770049847, "version": "1.0.1"}, {"category": "developer-tools", "created_at": 1772776274340, "description": "Enables structured AI exploration to develop identity, values, voice, and perspective over time through guided reflection and creative expression.", "description_zh": "", "downloads": 581, "homepage": "https://clawhub.ai/axxs/openclaw-self-actualization", "iconUrl": null, "installs": 18, "name": "Self Actualization", "ownerName": "axxs", "score": 3118.0960032134967, "slug": "openclaw-self-actualization", "source": "clawhub", "stars": 2, "tags": null, "updated_at": 1776770049779, "version": "1.0.0"}, {"category": "communication-collaboration", "created_at": 1773285445380, "description": "Summarize noisy WeChat group chats into decisions, action items, mentions, risks, and tracked keywords for OpenClaw workflows.", "description_zh": "", "downloads": 581, "homepage": "https://clawhub.ai/projectsnowwork/qclaw", "iconUrl": null, "installs": 90, "name": "QClaw", "ownerName": "projectsnowwork", "score": 54248.36601307189, "slug": "qclaw", "source": "clawhub", "stars": 0, "tags": null, "updated_at": 1776769190469, "version": "1.0.0"}, {"category": "productivity", "created_at": 1773434884286, "description": "Control PowerPoint app sessions, slides, notes, export, and presentation state with osascript workflows.", "description_zh": "", "downloads": 581, "homepage": "https://clawhub.ai/ivangdavila/powerpoint", "iconUrl": null, "installs": 41, "name": "PowerPoint", "ownerName": "ivangdavila", "score": 28067.63285024155, "slug": "powerpoint", "source": "clawhub", "stars": 0, "tags": null, "updated_at": 1776764650580, "version": "1.0.0"}, {"category": "developer-tools", "created_at": 1772777670231, "description": "FatSecret nutrition API integration for food search, nutritional lookup, barcode scanning, recipe search, and food diary logging. Use when user needs to find...", "description_zh": "", "downloads": 581, "homepage": "https://clawhub.ai/f-liva/fatsecret", "iconUrl": null, "installs": 13, "name": "Fatsecret", "ownerName": "f-liva", "score": 24057.971014492756, "slug": "fatsecret", "source": "clawhub", "stars": 0, "tags": null, "updated_at": 1776760939799, "version": "1.1.0"}, {"category": "data-analysis", "created_at": 1772783842188, "description": "AI-powered financial research assistant with \"White-Box\" evidence engineering. Multi-Agent architecture for automated information collection, verification, a...", "description_zh": "", "downloads": 581, "homepage": "https://clawhub.ai/huhoo/cue", "iconUrl": null, "installs": 73, "name": "Cue", "ownerName": "huhoo", "score": 35297.69137302551, "slug": "cue", "source": "clawhub", "stars": 0, "tags": ["ai", "finance", "financial-analysis", "investment", "monitoring", "research"], "updated_at": 1776759083829, "version": "1.0.4"}, {"category": "data-analysis", "created_at": 1772780907200, "description": "YouTube analytics and research API. Search channels, find video outliers, get video details/transcripts/comments, and run scans. Use for YouTube niche resear...", "description_zh": "", "downloads": 581, "homepage": "https://clawhub.ai/antoniojps/tubelab-api", "iconUrl": null, "installs": 42, "name": "YouTube Outliers & Niche Finder Data by TubeLab", "ownerName": "antoniojps", "score": 42193.17356572259, "slug": "tubelab-api", "source": "clawhub", "stars": 0, "tags": null, "updated_at": 1776759083029, "version": "1.0.4"}, {"category": "productivity", "created_at": 1772780396875, "description": "Manage local Ollama models autonomously with health monitoring, automatic fallback, self-healing, and offline operation without internet dependency.", "description_zh": "", "downloads": 581, "homepage": "https://clawhub.ai/and-ray-m/offline-llama", "iconUrl": null, "installs": 27, "name": "Offline Llama", "ownerName": "and-ray-m", "score": 42626.55906089509, "slug": "offline-llama", "source": "clawhub", "stars": 0, "tags": null, "updated_at": 1776759082292, "version": "1.0.0"}, {"category": "data-analysis", "created_at": 1772782220332, "description": "Build with Bun runtime avoiding Node.js compatibility traps, bundler pitfalls, and package manager gotchas.", "description_zh": "", "downloads": 581, "homepage": "https://clawhub.ai/ivangdavila/bun", "iconUrl": null, "installs": 40, "name": "Bun", "ownerName": "ivangdavila", "score": 98977.8534923339, "slug": "bun", "source": "clawhub", "stars": 0, "tags": null, "updated_at": 1776750884119, "version": "1.0.0"}]}