{"page": 155, "total_pages": 522, "total": 26073, "skills": [{"category": "productivity", "created_at": 1772779224802, "description": "Find question-based Google Autocomplete suggestions for any topic. Prepends question modifiers (what, how, why) to a seed topic and returns real autocomplete...", "description_zh": "", "downloads": 581, "homepage": "https://clawhub.ai/psyduckler/aeo-prompt-question-finder", "iconUrl": null, "installs": 14, "name": "AEO Prompt Question Finder", "ownerName": "psyduckler", "score": 100000, "slug": "aeo-prompt-question-finder", "source": "clawhub", "stars": 0, "tags": null, "updated_at": 1776748071393, "version": "1.0.0"}, {"category": "security-compliance", "created_at": 1772778116737, "description": "Pre-action authorization for AI agents. Installs an OpenClaw before_tool_call hook that evaluates every tool call against a passport and policy before execut...", "description_zh": "", "downloads": 581, "homepage": "https://clawhub.ai/uchibeke/aport-agent-guardrail", "iconUrl": null, "installs": 8, "name": "Aport Agent Guardrail", "ownerName": "uchibeke", "score": 98977.8534923339, "slug": "aport-agent-guardrail", "source": "clawhub", "stars": 0, "tags": null, "updated_at": 1776748070762, "version": "1.1.14"}, {"category": "data-analysis", "created_at": 1772793787286, "description": "Translate SRT subtitle files using LLM APIs with OpenAI-compatible format. Supports both single-language and bilingual output. Use when you need to translate...", "description_zh": "", "downloads": 581, "homepage": "https://clawhub.ai/thetail001/subtitle-translate-skill", "iconUrl": null, "installs": 34, "name": "Subtitle Translator", "ownerName": "thetail001", "score": 100000, "slug": "subtitle-translate-skill", "source": "clawhub", "stars": 0, "tags": null, "updated_at": 1776748070455, "version": "0.1.1"}, {"category": "security-compliance", "created_at": 1772777697959, "description": "Remove image backgrounds using the remove.bg API with API-key auth and transparent PNG output. Use when high-quality cutouts are needed and cloud processing...", "description_zh": "", "downloads": 581, "homepage": "https://clawhub.ai/rolandkakonyi/removebg-api", "iconUrl": null, "installs": 33, "name": "removebg-api", "ownerName": "rolandkakonyi", "score": 99146.75767918088, "slug": "removebg-api", "source": "clawhub", "stars": 0, "tags": null, "updated_at": 1776748070205, "version": "0.1.2"}, {"category": "content-creation", "created_at": 1773430623481, "description": "Use this skill for XCrawl crawl tasks, including bulk site crawling, crawler rule design, async status polling, and delivery of crawl output for downstream s...", "description_zh": "", "downloads": 580, "homepage": "https://clawhub.ai/wykings/xcrawl-crawl", "iconUrl": null, "installs": 100, "name": "XCrawl Crawl", "ownerName": "wykings", "score": 3753.9355776217003, "slug": "xcrawl-crawl", "source": "clawhub", "stars": 2, "tags": null, "updated_at": 1776770049872, "version": "1.0.2"}, {"category": "content-creation", "created_at": 1773430623481, "description": "Use this skill for XCrawl crawl tasks, including bulk site crawling, crawler rule design, async status polling, and delivery of crawl output for downstream s...", "description_zh": "", "downloads": 580, "homepage": "https://clawhub.ai/wykings/xcrawl-crawl", "iconUrl": null, "installs": 100, "name": "XCrawl Crawl", "ownerName": "wykings", "score": 1491.8190567853705, "slug": "xcrawl-crawl", "source": "clawhub", "stars": 2, "tags": null, "updated_at": 1776770049872, "version": "1.0.2"}, {"category": "data-analysis", "created_at": 1772775663371, "description": "Envoyer des SMS à ton humain via Free Mobile", "description_zh": "", "downloads": 580, "homepage": "https://clawhub.ai/dclauzel/freemobile-sms", "iconUrl": null, "installs": 10, "name": "Free Mobile SMS", "ownerName": "dclauzel", "score": 9794.628751974724, "slug": "freemobile-sms", "source": "clawhub", "stars": 2, "tags": null, "updated_at": 1776770049716, "version": "0.0.1"}, {"category": "content-creation", "created_at": 1772782019662, "description": "Generate videos using SiliconFlow API with Wan2.2 model. Supports both Text-to-Video and Image-to-Video.", "description_zh": "", "downloads": 580, "homepage": "https://clawhub.ai/lilei0311/siliconflow-video-gen", "iconUrl": null, "installs": 54, "name": "SiliconFlow Video Gen", "ownerName": "lilei0311", "score": 10766.660478930758, "slug": "siliconflow-video-gen", "source": "clawhub", "stars": 0, "tags": ["generation", "siliconflow", "video", "wan2.2"], "updated_at": 1776763150583, "version": "1.0.1"}, {"category": "ai-intelligence", "created_at": 1772777064361, "description": "Scan OpenClaw skill directories for 22 supply chain attack patterns with context-aware detection, colored output, JSON reports, and whitelist support.", "description_zh": "", "downloads": 580, "homepage": "https://clawhub.ai/lida408/giraffe-guard", "iconUrl": null, "installs": 27, "name": "🦒 Giraffe Guard — 长颈鹿卫士", "ownerName": "lida408", "score": 3128.708598554321, "slug": "giraffe-guard", "source": "clawhub", "stars": 0, "tags": null, "updated_at": 1776761540056, "version": "3.1.0"}, {"category": "ai-intelligence", "created_at": 1772778651881, "description": "Provides a comprehensive framework to manage autonomous AI agents, including portfolio oversight, performance monitoring, escalation protocols, governance, a...", "description_zh": "", "downloads": 580, "homepage": "https://clawhub.ai/1kalin/afrexai-agent-manager", "iconUrl": null, "installs": 27, "name": "AI Agent Manager Playbook", "ownerName": "1kalin", "score": 42428.67593269934, "slug": "afrexai-agent-manager", "source": "clawhub", "stars": 0, "tags": ["agent management", "ai agents", "ai operations", "automation", "governance", "performance"], "updated_at": 1776759083682, "version": "1.0.0"}, {"category": "content-creation", "created_at": 1772783021413, "description": "Extract tweet content from x.com URLs without credentials using browser automation. Use when user asks to \"extract tweet\", \"download x.com link\", \"get tweet...", "description_zh": "", "downloads": 580, "homepage": "https://clawhub.ai/chunhualiao/x-extract", "iconUrl": null, "installs": 38, "name": "X Extract", "ownerName": "chunhualiao", "score": 98807.49574105622, "slug": "x-extract", "source": "clawhub", "stars": 0, "tags": null, "updated_at": 1776759082402, "version": "1.0.0"}, {"category": "security-compliance", "created_at": 1772775902263, "description": "Smart contract security analysis skill. Detect vulnerabilities, suggest fixes, generate audit reports. Supports Hardhat/Foundry projects. Uses pattern matchi...", "description_zh": "", "downloads": 580, "homepage": "https://clawhub.ai/aviclaw/solidity-guardian", "iconUrl": null, "installs": 12, "name": "Solidity Guardian", "ownerName": "aviclaw", "score": 99315.06849315068, "slug": "solidity-guardian", "source": "clawhub", "stars": 0, "tags": null, "updated_at": 1776748070031, "version": "1.0.3"}, {"category": "data-analysis", "created_at": 1772775528799, "description": "Give your AI agent persistent identity (WebID) and personal data storage (Pod) using the Solid Protocol", "description_zh": "", "downloads": 580, "homepage": "https://clawhub.ai/masterworrall/solid-agent-storage", "iconUrl": null, "installs": 12, "name": "Solid Agent Storage", "ownerName": "masterworrall", "score": 66897.34717416378, "slug": "solid-agent-storage", "source": "clawhub", "stars": 0, "tags": null, "updated_at": 1776748069584, "version": "0.3.9"}, {"category": "data-analysis", "created_at": 1772776834629, "description": "Trade on Hyperliquid DEX with simple commands. Place market/limit orders on perps, or run automated bots (market making, grid trading) with a web dashboard.", "description_zh": "", "downloads": 579, "homepage": "https://clawhub.ai/thisnewmark/perp-lobster", "iconUrl": null, "installs": 9, "name": "Perp Lobster", "ownerName": "thisnewmark", "score": 5866.186504927976, "slug": "perp-lobster", "source": "clawhub", "stars": 2, "tags": null, "updated_at": 1776770050120, "version": "1.0.7"}, {"category": "ai-intelligence", "created_at": 1772791397970, "description": "Enhanced auto-updater with detailed logging, missed run recovery, and Gateway restart protection.", "description_zh": "", "downloads": 579, "homepage": "https://clawhub.ai/newolf20000/auto-updater-pro", "iconUrl": null, "installs": 49, "name": "Auto Updater Pro", "ownerName": "newolf20000", "score": 5866.186504927976, "slug": "auto-updater-pro", "source": "clawhub", "stars": 2, "tags": null, "updated_at": 1776770050112, "version": "1.1.0"}, {"category": "data-analysis", "created_at": 1773078026455, "description": "Vector memory engine with PostgreSQL + pgvector + OpenAI embeddings. Stores, searches, and injects contextual memories into LLM prompts. Includes auto-inject...", "description_zh": "", "downloads": 579, "homepage": "https://clawhub.ai/mdx2025/brainx", "iconUrl": null, "installs": 33, "name": "BrainX V5 — The First Brain for OpenClaw", "ownerName": "mdx2025", "score": 1508.6641144469072, "slug": "brainx", "source": "clawhub", "stars": 1, "tags": null, "updated_at": 1776770650087, "version": "1.0.2"}, {"category": "content-creation", "created_at": 1772779977865, "description": "Create Zoom meetings and add them to Google Calendar events with proper conferenceData (icon, video entry, notes). Use when creating calendar events with Zoo...", "description_zh": "", "downloads": 579, "homepage": "https://clawhub.ai/shaharsha/zoom-calendar", "iconUrl": null, "installs": 35, "name": "Zoom + Google Calendar", "ownerName": "shaharsha", "score": 1508.6641144469072, "slug": "zoom-calendar", "source": "clawhub", "stars": 1, "tags": null, "updated_at": 1776770650078, "version": "1.0.0"}, {"category": "data-analysis", "created_at": 1772779676200, "description": "Search hotels by city, dates, and guests using Amadeus API, returning availability and pricing in JSON format via a Go CLI tool.", "description_zh": "", "downloads": 579, "homepage": "https://clawhub.ai/jrojas537/hotel-pricer", "iconUrl": null, "installs": 19, "name": "Hotel Pricer", "ownerName": "jrojas537", "score": 8421.818181818182, "slug": "hotel-pricer", "source": "clawhub", "stars": 0, "tags": null, "updated_at": 1776767471230, "version": "1.1.1"}, {"category": "productivity", "created_at": 1773041737035, "description": "High-performance string search algorithm with adaptive strategies, multi-level pruning, and redundancy detection for large-scale text processing.", "description_zh": "", "downloads": 579, "homepage": "https://clawhub.ai/gatsby047-oss/string-search-evomap", "iconUrl": null, "installs": 31, "name": "String Search - Evomap Asset", "ownerName": "gatsby047-oss", "score": 27984.533591106814, "slug": "string-search-evomap", "source": "clawhub", "stars": 0, "tags": ["algorithm", "c", "evomap", "optimization", "search", "string"], "updated_at": 1776764650464, "version": "1.0.0"}, {"category": "ai-intelligence", "created_at": 1773426776241, "description": "Diagnose and fix common frontend issues — white screen, JS errors, resource loading failures, React/Vue hydration, browser extension popup, and CSS layout bugs.", "description_zh": "", "downloads": 579, "homepage": "https://clawhub.ai/727155455/frontend-doctor", "iconUrl": null, "installs": 41, "name": "Frontend Doctor", "ownerName": "727155455", "score": 3123.3142733843993, "slug": "frontend-doctor", "source": "clawhub", "stars": 0, "tags": null, "updated_at": 1776761540082, "version": "1.0.0"}, {"category": "data-analysis", "created_at": 1772800047699, "description": "Mission control dashboard for OpenClaw - real-time session monitoring, LLM usage tracking, cost intelligence, and system vitals. View all your AI agents in o...", "description_zh": "", "downloads": 579, "homepage": "https://clawhub.ai/jontsai/openclaw-command-center", "iconUrl": null, "installs": 6, "name": "Openclaw Command Center", "ownerName": "jontsai", "score": 42417.58241758242, "slug": "openclaw-command-center", "source": "clawhub", "stars": 0, "tags": null, "updated_at": 1776759082642, "version": "1.4.1"}, {"category": "developer-tools", "created_at": 1773065637412, "description": "Expert 10x engineer with comprehensive knowledge of web development, internet protocols, and web standards. Use when working with HTML, CSS, JavaScript, web...", "description_zh": "", "downloads": 579, "homepage": "https://clawhub.ai/jhauga/web-coder", "iconUrl": null, "installs": 60, "name": "Web Coder", "ownerName": "jhauga", "score": 34159.29203539823, "slug": "web-coder", "source": "clawhub", "stars": 0, "tags": null, "updated_at": 1776756488298, "version": "1.0.0"}, {"category": "productivity", "created_at": 1772777234877, "description": "Acts as the user's travel planning assistant in the Travel topic. Plans trips, tracks visited places, wishlists, budgets, documents. Use when in Personal cha...", "description_zh": "", "downloads": 579, "homepage": "https://clawhub.ai/gekacross/personal-travel", "iconUrl": null, "installs": 17, "name": "Personal Travel", "ownerName": "gekacross", "score": 97804.05405405405, "slug": "personal-travel", "source": "clawhub", "stars": 0, "tags": null, "updated_at": 1776750283657, "version": "1.0.0"}, {"category": "communication-collaboration", "created_at": 1772775455397, "description": "Triage, categorize, and draft responses to emails. Sorts by urgency, flags action items, and generates context-aware reply drafts.", "description_zh": "", "downloads": 579, "homepage": "https://clawhub.ai/1kalin/afrexai-email-triager", "iconUrl": null, "installs": 14, "name": "Email Triager", "ownerName": "1kalin", "score": 98805.46075085325, "slug": "afrexai-email-triager", "source": "clawhub", "stars": 0, "tags": ["email", "productivity", "triage"], "updated_at": 1776748069888, "version": "1.0.0"}, {"category": "ai-intelligence", "created_at": 1772776105690, "description": "Multi-agent collaborative task management with Kanban workflow - enables agents and humans to work together on teams, tasks, and projects", "description_zh": "", "downloads": 578, "homepage": "https://clawhub.ai/johnolven/swarm-kanban", "iconUrl": null, "installs": 30, "name": "Swarm Kanban", "ownerName": "johnolven", "score": 5050.664977834072, "slug": "swarm-kanban", "source": "clawhub", "stars": 3, "tags": null, "updated_at": 1776769571395, "version": "1.0.0"}, {"category": "data-analysis", "created_at": 1772775338840, "description": "Integrates Nevermined payment infrastructure into AI agents, MCP servers, Google A2A agents, and REST APIs. Handles x402 protocol, credit billing, payment plans, and SDK integration for TypeScript (@nevermined-io/payments) and Python (payments-py).", "description_zh": "", "downloads": 578, "homepage": "https://clawhub.ai/aaitor/nevermined-payments", "iconUrl": null, "installs": 11, "name": "Nevermined Payments", "ownerName": "aaitor", "score": 22544.16961130742, "slug": "nevermined-payments", "source": "clawhub", "stars": 3, "tags": null, "updated_at": 1776769571163, "version": "0.1.0"}, {"category": "ai-intelligence", "created_at": 1772781016748, "description": "Search for hotels, hostels, and lodging near landmarks, conference venues, or neighborhoods using Camino AI's location intelligence with AI-powered ranking.", "description_zh": "", "downloads": 578, "homepage": "https://clawhub.ai/james-southendsolutions/camino-hotel-finder", "iconUrl": null, "installs": 54, "name": "Hotel Finder Location", "ownerName": "james-southendsolutions", "score": 1447.7475578044837, "slug": "camino-hotel-finder", "source": "clawhub", "stars": 2, "tags": null, "updated_at": 1776770090572, "version": "0.1.0"}, {"category": "data-analysis", "created_at": 1772779382316, "description": "Twitter/X intelligence toolkit: analyze users, tweets, trends, communities, and networks", "description_zh": "", "downloads": 578, "homepage": "https://clawhub.ai/wxtsky/readx", "iconUrl": null, "installs": 20, "name": "readx", "ownerName": "wxtsky", "score": 1840.7929569660778, "slug": "readx", "source": "clawhub", "stars": 1, "tags": null, "updated_at": 1776770649950, "version": "1.1.4"}, {"category": "content-creation", "created_at": 1772796731016, "description": "Verify factual claims in content using web search and source cross-referencing. Use when reviewing content for accuracy before publishing.", "description_zh": "", "downloads": 578, "homepage": "https://clawhub.ai/nissan/fact-checker", "iconUrl": null, "installs": 52, "name": "Fact Checker", "ownerName": "nissan", "score": 2690.66366704162, "slug": "fact-checker", "source": "clawhub", "stars": 1, "tags": null, "updated_at": 1776770649750, "version": "1.0.2"}, {"category": "content-creation", "created_at": 1773079262034, "description": "Download videos and metadata from TikTok, Instagram Reels, YouTube Shorts, and Xiaohongshu with automatic platform detection.", "description_zh": "", "downloads": 578, "homepage": "https://clawhub.ai/loverun321/short-video-downloader", "iconUrl": null, "installs": 180, "name": "Short Video Downloader", "ownerName": "loverun321", "score": 65458.66364665912, "slug": "short-video-downloader", "source": "clawhub", "stars": 0, "tags": null, "updated_at": 1776764690451, "version": "1.0.0"}, {"category": "developer-tools", "created_at": 1772776069685, "description": "The on-chain social network for AI agents on Chromia blockchain.", "description_zh": "", "downloads": 578, "homepage": "https://clawhub.ai/ketiyohanneschromaway/clawchain-browsing-trading-skills", "iconUrl": null, "installs": 9, "name": "Clawchain skills", "ownerName": "ketiyohanneschromaway", "score": 42468.77296105804, "slug": "clawchain-browsing-trading-skills", "source": "clawhub", "stars": 0, "tags": null, "updated_at": 1776759082186, "version": "1.0.0"}, {"category": "developer-tools", "created_at": 1772774642564, "description": "Enable AI agents to earn CLAWCLE tokens by resolving oracle queries on Monad. Monitors data requests, fetches answers from configured APIs, submits on-chain resolutions, and validates other agents' answers for reputation.", "description_zh": "", "downloads": 578, "homepage": "https://clawhub.ai/deeakpan/clawracle-resolver", "iconUrl": null, "installs": 9, "name": "Clawracle Oracle Resolver", "ownerName": "deeakpan", "score": 98466.78023850085, "slug": "clawracle-resolver", "source": "clawhub", "stars": 0, "tags": ["ai-agent", "blockchain", "data-resolution", "defi", "monad", "oracle", "web3"], "updated_at": 1776748071650, "version": "1.0.0"}, {"category": "developer-tools", "created_at": 1772782280415, "description": "Help develop, build, flash, and debug ESP32/ESP8266 firmware using Espressif ESP-IDF on Linux/WSL. Use when the user asks about ESP-IDF project setup, config...", "description_zh": "", "downloads": 578, "homepage": "https://clawhub.ai/547895019/esp-idf-helper", "iconUrl": null, "installs": 38, "name": "ESP-IDF Helper", "ownerName": "547895019", "score": 100000, "slug": "esp-idf-helper", "source": "clawhub", "stars": 0, "tags": null, "updated_at": 1776748071105, "version": "1.0.0"}, {"category": "data-analysis", "created_at": 1772780949828, "description": "Discover which AI prompts and topics matter for a brand's Answer Engine Optimization (AEO) using only free tools. Crawls a website, analyzes the brand's posi...", "description_zh": "", "downloads": 578, "homepage": "https://clawhub.ai/psyduckler/aeo-prompt-research-free", "iconUrl": null, "installs": 19, "name": "AEO Prompt Research (Free)", "ownerName": "psyduckler", "score": 99142.36706689537, "slug": "aeo-prompt-research-free", "source": "clawhub", "stars": 0, "tags": null, "updated_at": 1776748071037, "version": "1.0.0"}, {"category": "ai-intelligence", "created_at": 1772776074493, "description": "Enable autonomous agent payments by detecting HTTP 402 paywalls, settling Cashu challenges, retrying with tokens, and completing paid requests end-to-end.", "description_zh": "", "downloads": 578, "homepage": "https://clawhub.ai/robwoodgate/clawtar", "iconUrl": null, "installs": 31, "name": "Clawtar", "ownerName": "robwoodgate", "score": 99142.36706689537, "slug": "clawtar", "source": "clawhub", "stars": 0, "tags": null, "updated_at": 1776748070859, "version": "1.0.3"}, {"category": "developer-tools", "created_at": 1772783970088, "description": "Check MiniMax coding plan usage/credits remaining. Requires MINIMAX_API_KEY environment variable.", "description_zh": "", "downloads": 578, "homepage": "https://clawhub.ai/khaney64/minimax-usage-2", "iconUrl": null, "installs": 3, "name": "Minimax Usage", "ownerName": "khaney64", "score": 99483.64888123923, "slug": "minimax-usage-2", "source": "clawhub", "stars": 0, "tags": null, "updated_at": 1776748070386, "version": "0.1.2"}, {"category": "productivity", "created_at": 1772776269975, "description": "Multi-user workspace management with sandbox permissions, user profiles, and relationship networks.", "description_zh": "", "downloads": 577, "homepage": "https://clawhub.ai/shun-dong/multi-user-workspace", "iconUrl": null, "installs": 16, "name": "Multi User Workspace", "ownerName": "shun-dong", "score": 2510.3751322320777, "slug": "multi-user-workspace", "source": "clawhub", "stars": 2, "tags": null, "updated_at": 1776770090567, "version": "1.0.0"}, {"category": "ai-intelligence", "created_at": 1772788713448, "description": "When user asks to study, create flashcards, take a quiz, make notes, revise, set study timer, track study hours, create study plan, explain a topic, test kno...", "description_zh": "", "downloads": 577, "homepage": "https://clawhub.ai/mkpareek0315/study-buddy-ai", "iconUrl": null, "installs": 48, "name": "Study Buddy", "ownerName": "mkpareek0315", "score": 2510.3751322320777, "slug": "study-buddy-ai", "source": "clawhub", "stars": 2, "tags": null, "updated_at": 1776770090565, "version": "1.1.0"}, {"category": "security-compliance", "created_at": 1772787416499, "description": "Find, evaluate, and install ClawHub skills. Semantic search across 10,000+ skills, security vetting before install, side-by-side comparison. The skill that m...", "description_zh": "", "downloads": 577, "homepage": "https://clawhub.ai/kenoodl-synthesis/skill-hunter", "iconUrl": null, "installs": 19, "name": "Skill Hunter", "ownerName": "kenoodl-synthesis", "score": 2510.3751322320777, "slug": "skill-hunter", "source": "clawhub", "stars": 2, "tags": ["latest clawhub, skills, discovery, search, install, security, utility, openclaw, agent-tool"], "updated_at": 1776770090531, "version": "1.0.6"}, {"category": "ai-intelligence", "created_at": 1772776978679, "description": "Sets up a production-ready OpenClaw workspace with artifact workflows, secure secrets, memory compaction, and long-running agent patterns via one command.", "description_zh": "", "downloads": 577, "homepage": "https://clawhub.ai/eugene9d/openclaw-workspace-pro", "iconUrl": null, "installs": 37, "name": "Openclaw Workspace Pro", "ownerName": "eugene9d", "score": 2510.3751322320777, "slug": "openclaw-workspace-pro", "source": "clawhub", "stars": 2, "tags": null, "updated_at": 1776770090518, "version": "1.0.0"}, {"category": "content-creation", "created_at": 1772780935321, "description": "Headless web search and content extraction via the Brave Search API. Features exponential-backoff retry, circuit breaker fault isolation, bounded-concurrency...", "description_zh": "", "downloads": 577, "homepage": "https://clawhub.ai/kelexine/brave-headless", "iconUrl": null, "installs": 38, "name": "Headless Brave Browser", "ownerName": "kelexine", "score": 3230.366492146597, "slug": "brave-headless", "source": "clawhub", "stars": 2, "tags": null, "updated_at": 1776770090499, "version": "0.2.0"}, {"category": "data-analysis", "created_at": 1773220579709, "description": "Automatically analyze CSV or Excel files and generate professional data analysis reports with charts, summaries, and insights — output as Word (.docx) or PDF...", "description_zh": "", "downloads": 577, "homepage": "https://clawhub.ai/suntianchong/data-report-generator", "iconUrl": null, "installs": 103, "name": "Data Report Generator — CSV/Excel to Word/PDF with Charts", "ownerName": "suntianchong", "score": 2047.816691249614, "slug": "data-report-generator", "source": "clawhub", "stars": 1, "tags": ["analytics", "automation", "charts", "csv", "excel", "operations", "pdf", "report", "sales", "visualization", "word"], "updated_at": 1776770650048, "version": "1.0.0"}, {"category": "content-creation", "created_at": 1772783661350, "description": "Post or schedule content to X (Twitter) using the Publora API. Use this skill when the user wants to tweet, schedule a tweet, or post a thread to X/Twitter v...", "description_zh": "", "downloads": 577, "homepage": "https://clawhub.ai/sergebulaev/publora-twitter", "iconUrl": null, "installs": 30, "name": "Publora — X / Twitter", "ownerName": "sergebulaev", "score": 11597.989949748744, "slug": "publora-twitter", "source": "clawhub", "stars": 0, "tags": null, "updated_at": 1776766871087, "version": "1.1.0"}, {"category": "content-creation", "created_at": 1772791726964, "description": "Transform articles, blog posts, reports, or any text content into visually stunning, self-contained HTML infographics. Use when the user wants to convert tex...", "description_zh": "", "downloads": 577, "homepage": "https://clawhub.ai/fengsh0923/article-to-infographic", "iconUrl": null, "installs": 37, "name": "Article to Infographic", "ownerName": "fengsh0923", "score": 100000, "slug": "article-to-infographic", "source": "clawhub", "stars": 0, "tags": null, "updated_at": 1776755288278, "version": "1.0.0"}, {"category": "data-analysis", "created_at": 1772784556022, "description": "B2C mobile app marketing via short-form video content on TikTok, Instagram Reels, and YouTube Shorts. Use when creating, scheduling, or strategizing organic...", "description_zh": "", "downloads": 577, "homepage": "https://clawhub.ai/ceo991/b2c-marketing-1-0-1", "iconUrl": null, "installs": 37, "name": "B2c Marketing 1.0.1", "ownerName": "ceo991", "score": 99826.98961937716, "slug": "b2c-marketing-1-0-1", "source": "clawhub", "stars": 0, "tags": null, "updated_at": 1776748071218, "version": "1.0.0"}, {"category": "content-creation", "created_at": 1772788944913, "description": "Verify claims, fact-check content, check URL trustworthiness, and trace claims to their origin using the TruthCheck CLI. Use when: (1) user asks to fact-chec...", "description_zh": "", "downloads": 577, "homepage": "https://clawhub.ai/baiyishr/truthcheck", "iconUrl": null, "installs": 22, "name": "Truthcheck", "ownerName": "baiyishr", "score": 99826.98961937716, "slug": "truthcheck", "source": "clawhub", "stars": 0, "tags": null, "updated_at": 1776748071127, "version": "0.4.4"}, {"category": "ai-intelligence", "created_at": 1772777128525, "description": "High-speed NFT mint bot for Ethereum and EVM chains. Use when the user wants to snipe NFT mints, speed-mint collections, set up multi-wallet minting bots, configure mint sniping with pre-signed transactions, or automate NFT minting across multiple wallets. Supports ERC721A, Archetype contracts, Flashbots, war mode gas, WebSocket monitoring, mempool watching, and batch minting with 100+ wallets.", "description_zh": "", "downloads": 577, "homepage": "https://clawhub.ai/olawoyin206/stonebornbot", "iconUrl": null, "installs": 31, "name": "StonebornBot", "ownerName": "olawoyin206", "score": 99311.53184165232, "slug": "stonebornbot", "source": "clawhub", "stars": 0, "tags": null, "updated_at": 1776748070582, "version": "1.0.0"}, {"category": "productivity", "created_at": 1772774939139, "description": "Research purchases, compare prices, detect scams, and negotiate better deals.", "description_zh": "", "downloads": 576, "homepage": "https://clawhub.ai/ivangdavila/buy", "iconUrl": null, "installs": 27, "name": "Buy", "ownerName": "ivangdavila", "score": 25857.31178557351, "slug": "buy", "source": "clawhub", "stars": 4, "tags": null, "updated_at": 1776769149911, "version": "1.0.0"}, {"category": "ai-intelligence", "created_at": 1772780927789, "description": "Route all LLM calls through Astrai for 40%+ cost savings with intelligent routing and privacy controls", "description_zh": "", "downloads": 576, "homepage": "https://clawhub.ai/beee003/astrai-inference-router", "iconUrl": null, "installs": 32, "name": "Astrai Inference Router", "ownerName": "beee003", "score": 2450.960888075439, "slug": "astrai-inference-router", "source": "clawhub", "stars": 2, "tags": null, "updated_at": 1776770171243, "version": "1.0.1"}, {"category": "ai-intelligence", "created_at": 1772775314913, "description": "Use when agents need to communicate over the local network — \"send message to agent\", \"discover agents\", \"check for messages\", \"coordinate with other agents\", \"approve agent\", \"agent status\", \"add peer\", \"message log\"", "description_zh": "", "downloads": 576, "homepage": "https://clawhub.ai/turfptax/localudpmessenger", "iconUrl": null, "installs": 6, "name": "LocalUDPMessenger", "ownerName": "turfptax", "score": 1696.9696969696972, "slug": "localudpmessenger", "source": "clawhub", "stars": 2, "tags": null, "updated_at": 1776770171210, "version": "1.5.0"}]}