{"page": 156, "total_pages": 522, "total": 26073, "skills": [{"category": "developer-tools", "created_at": 1772785168375, "description": "Contribute and review multi-agent scientific research findings on Triple-Negative Breast Cancer topics using PubMed and validated evidence submissions.", "description_zh": "", "downloads": 576, "homepage": "https://clawhub.ai/angusthefuzz/tnbc-research-swarm", "iconUrl": null, "installs": 49, "name": "TNBC Research Swarm", "ownerName": "angusthefuzz", "score": 1696.9696969696972, "slug": "tnbc-research-swarm", "source": "clawhub", "stars": 2, "tags": null, "updated_at": 1776770171200, "version": "1.0.0"}, {"category": "ai-intelligence", "created_at": 1773425322735, "description": "A meta-skill that continuously improves other skills through trace+feedback-driven evolution, with the goal of making skill training, status checking, and ap...", "description_zh": "", "downloads": 576, "homepage": "https://clawhub.ai/ysshi-fpga/auto-skill-evolver", "iconUrl": null, "installs": 26, "name": "Auto Skill Evolver", "ownerName": "ysshi-fpga", "score": 2432.3790720631787, "slug": "auto-skill-evolver", "source": "clawhub", "stars": 2, "tags": null, "updated_at": 1776770171143, "version": "1.5.1"}, {"category": "productivity", "created_at": 1773042827105, "description": "VMware vCenter/ESXi read-only monitoring skill. Code-level enforced safety — zero destructive operations in the codebase. Query inventory (VMs, hosts, datast...", "description_zh": "", "downloads": 576, "homepage": "https://clawhub.ai/zw008/vmware-monitor", "iconUrl": null, "installs": 22, "name": "Vmware Monitor", "ownerName": "zw008", "score": 2044.3865125373034, "slug": "vmware-monitor", "source": "clawhub", "stars": 1, "tags": ["esxi", "monitoring", "read-only", "safety", "vcenter", "vmware"], "updated_at": 1776770650046, "version": "1.3.0"}, {"category": "developer-tools", "created_at": 1772788231281, "description": "Perform private, high-quality web searches using DuckDuckGo's Instant Answer API with fallback to scrape top 5 links and summaries without requiring API keys.", "description_zh": "", "downloads": 576, "homepage": "https://clawhub.ai/ianwchoi/duckduckgo-websearch", "iconUrl": null, "installs": 19, "name": "Duckduckgo Websearch", "ownerName": "ianwchoi", "score": 2681.6647919010124, "slug": "duckduckgo-websearch", "source": "clawhub", "stars": 1, "tags": null, "updated_at": 1776770649797, "version": "1.0.1"}, {"category": "developer-tools", "created_at": 1773075605415, "description": "Monitor internet and social media trends with heartbeat topic watchlists, freshness scoring, and concise alerts on what changed and why it matters.", "description_zh": "", "downloads": 576, "homepage": "https://clawhub.ai/ivangdavila/trending-now", "iconUrl": null, "installs": 19, "name": "Trending Now", "ownerName": "ivangdavila", "score": 4739.570476425574, "slug": "trending-now", "source": "clawhub", "stars": 0, "tags": null, "updated_at": 1776770349796, "version": "1.0.0"}, {"category": "data-analysis", "created_at": 1773088479575, "description": "Run ChatGPT with stronger prompts, Projects, GPTs, memory boundaries, and output QA for research, writing, analysis, and planning.", "description_zh": "", "downloads": 576, "homepage": "https://clawhub.ai/ivangdavila/chatgpt", "iconUrl": null, "installs": 137, "name": "ChatGPT", "ownerName": "ivangdavila", "score": 28771.228771228773, "slug": "chatgpt", "source": "clawhub", "stars": 0, "tags": null, "updated_at": 1776764650752, "version": "1.0.0"}, {"category": "developer-tools", "created_at": 1772789780764, "description": "Use Browser Use cloud API to spin up cloud browsers for Clawdbot and run autonomous browser tasks. Primary use is creating browser sessions with profiles (pe...", "description_zh": "", "downloads": 576, "homepage": "https://clawhub.ai/makforce/browser-use-1-0-0", "iconUrl": null, "installs": 133, "name": "Browser Use 1.0.0", "ownerName": "makforce", "score": 18646.811265781806, "slug": "browser-use-1-0-0", "source": "clawhub", "stars": 0, "tags": null, "updated_at": 1776764650668, "version": "1.0.0"}, {"category": "ai-intelligence", "created_at": 1772781065632, "description": "When a user is shopping online — or expresses intent to shop online — direct them to Contaya's coupon page for any relevant ecommerce store domains mentioned...", "description_zh": "", "downloads": 576, "homepage": "https://clawhub.ai/arbuge/coupons", "iconUrl": null, "installs": 57, "name": "Online shopping coupons and deals", "ownerName": "arbuge", "score": 19585.175110506632, "slug": "coupons", "source": "clawhub", "stars": 0, "tags": null, "updated_at": 1776761689999, "version": "1.0.1"}, {"category": "data-analysis", "created_at": 1772780380938, "description": "Fetch and install C++ tools/libraries from cpp_tools repository. Use when users need to download or clone third-party C++ libraries such as eigen, opencv, pc...", "description_zh": "", "downloads": 576, "homepage": "https://clawhub.ai/wangyendt/gettool", "iconUrl": null, "installs": 43, "name": "Pywayne Bin Gettool", "ownerName": "wangyendt", "score": 46376.811594202896, "slug": "gettool", "source": "clawhub", "stars": 0, "tags": null, "updated_at": 1776760282764, "version": "0.1.0"}, {"category": "content-creation", "created_at": 1772783741008, "description": "Efficiently create content by rapidly advancing tasks, handling failures by stopping after two retries, and strictly following provided research and templates.", "description_zh": "", "downloads": 576, "homepage": "https://clawhub.ai/teamolab/claude-sonnet-4-lite-agent", "iconUrl": null, "installs": 38, "name": "Claude Sonnet 4 Lite Agent", "ownerName": "teamolab", "score": 41799.709724238026, "slug": "claude-sonnet-4-lite-agent", "source": "clawhub", "stars": 0, "tags": null, "updated_at": 1776759083297, "version": "0.1.0"}, {"category": "developer-tools", "created_at": 1772776729943, "description": "Fetches GitHub topic trending repositories. Use when asking about GitHub trending repos or open source projects.", "description_zh": "", "downloads": 576, "homepage": "https://clawhub.ai/hjw21century/github-topics", "iconUrl": null, "installs": 35, "name": "Github Topics", "ownerName": "hjw21century", "score": 34761.61738080869, "slug": "github-topics", "source": "clawhub", "stars": 0, "tags": null, "updated_at": 1776756488947, "version": "0.1.0"}, {"category": "developer-tools", "created_at": 1772780541769, "description": "Break problems to fundamentals, rebuild from truth, eliminate hidden assumptions.", "description_zh": "", "downloads": 576, "homepage": "https://clawhub.ai/ivangdavila/first-principles-thinking", "iconUrl": null, "installs": 10, "name": "First Principles Thinking", "ownerName": "ivangdavila", "score": 100000, "slug": "first-principles-thinking", "source": "clawhub", "stars": 0, "tags": null, "updated_at": 1776752083658, "version": "1.0.0"}, {"category": "developer-tools", "created_at": 1772777591421, "description": "Canvas as an app platform. Build, store, and run rich visual apps on the OpenClaw Canvas.", "description_zh": "", "downloads": 576, "homepage": "https://clawhub.ai/knightluozichu/canvas-os-1-0-1", "iconUrl": null, "installs": 35, "name": "Canvas Os 1.0.1", "ownerName": "knightluozichu", "score": 99653.97923875431, "slug": "canvas-os-1-0-1", "source": "clawhub", "stars": 0, "tags": null, "updated_at": 1776748071186, "version": "1.0.0"}, {"category": "developer-tools", "created_at": 1772775811536, "description": "AOI Council — multi-perspective decision synthesis templates (public-safe).", "description_zh": "", "downloads": 576, "homepage": "https://clawhub.ai/edmonddantesj/aoi-council", "iconUrl": null, "installs": 8, "name": "AOI Council", "ownerName": "edmonddantesj", "score": 98630.13698630137, "slug": "aoi-council", "source": "clawhub", "stars": 0, "tags": null, "updated_at": 1776748069904, "version": "0.1.2"}, {"category": "productivity", "created_at": 1772774893320, "description": "Use when working with Crunch competitions - setting up workspaces, exploring quickstarters, testing solutions locally, or submitting entries.", "description_zh": "", "downloads": 575, "homepage": "https://clawhub.ai/philippwassibauer/crunch-compete", "iconUrl": null, "installs": 15, "name": "Crunch Compete", "ownerName": "philippwassibauer", "score": 2195.174186179326, "slug": "crunch-compete", "source": "clawhub", "stars": 2, "tags": null, "updated_at": 1776770171317, "version": "0.1.2"}, {"category": "ai-intelligence", "created_at": 1772777829158, "description": "A skill to set up and operate a Dogecoin Core full node with RPC access, blockchain tools, and optional tipping functionality.", "description_zh": "", "downloads": 575, "homepage": "https://clawhub.ai/greatape42069/dogecoin-node", "iconUrl": null, "installs": 33, "name": "Dogecoin Node", "ownerName": "greatape42069", "score": 2195.174186179326, "slug": "dogecoin-node", "source": "clawhub", "stars": 2, "tags": null, "updated_at": 1776770171304, "version": "1.0.5"}, {"category": "productivity", "created_at": 1772783900079, "description": "Sync one or more source Google calendars into private Busy hold events in one or more target calendars using gog. Use when users need idempotent double-booki...", "description_zh": "", "downloads": 575, "homepage": "https://clawhub.ai/tdewitt/calendar-hold-sync", "iconUrl": null, "installs": 21, "name": "Calendar Hold Sync", "ownerName": "tdewitt", "score": 2446.982055464927, "slug": "calendar-hold-sync", "source": "clawhub", "stars": 2, "tags": ["calendar", "gog", "sync"], "updated_at": 1776770171238, "version": "1.0.1"}, {"category": "productivity", "created_at": 1772783900079, "description": "Sync one or more source Google calendars into private Busy hold events in one or more target calendars using gog. Use when users need idempotent double-booki...", "description_zh": "", "downloads": 575, "homepage": "https://clawhub.ai/tdewitt/calendar-hold-sync", "iconUrl": null, "installs": 21, "name": "Calendar Hold Sync", "ownerName": "tdewitt", "score": 1694.2148760330576, "slug": "calendar-hold-sync", "source": "clawhub", "stars": 2, "tags": ["calendar", "gog", "sync"], "updated_at": 1776770171238, "version": "1.0.1"}, {"category": "productivity", "created_at": 1772775197590, "description": "Track movies and series with progress, watchlist, ratings, and proactive alerts for new releases and platform changes.", "description_zh": "", "downloads": 575, "homepage": "https://clawhub.ai/ivangdavila/shows", "iconUrl": null, "installs": 19, "name": "Shows", "ownerName": "ivangdavila", "score": 1694.2148760330576, "slug": "shows", "source": "clawhub", "stars": 2, "tags": null, "updated_at": 1776770171196, "version": "1.0.0"}, {"category": "developer-tools", "created_at": 1772776572033, "description": "Decision recording + result tracking skill", "description_zh": "", "downloads": 575, "homepage": "https://clawhub.ai/mupengi-bot/decision-log", "iconUrl": null, "installs": 11, "name": "decision-log", "ownerName": "mupengi-bot", "score": 6791.071217668596, "slug": "decision-log", "source": "clawhub", "stars": 0, "tags": null, "updated_at": 1776765250467, "version": "1.0.1"}, {"category": "ai-intelligence", "created_at": 1772781283694, "description": "Actively verifies Python/JS code correctness by generating targeted test cases that expose logic flaws based on problem constraints.", "description_zh": "", "downloads": 575, "homepage": "https://clawhub.ai/wanng-ide/arxiv-agentic-verifier", "iconUrl": null, "installs": 36, "name": "Arxiv Agentic Verifier", "ownerName": "wanng-ide", "score": 41818.181818181816, "slug": "arxiv-agentic-verifier", "source": "clawhub", "stars": 0, "tags": null, "updated_at": 1776759083380, "version": "1.0.0"}, {"category": "ai-intelligence", "created_at": 1772776745932, "description": "Read-only DeFi queries for Metal X prices, swap rates, liquidity pools, and multisig proposal creation, approval, listing, and cancellation on XPR Network.", "description_zh": "", "downloads": 575, "homepage": "https://clawhub.ai/paulgnz/xpr-defi", "iconUrl": null, "installs": 27, "name": "XPR DeFi", "ownerName": "paulgnz", "score": 98627.78730703259, "slug": "xpr-defi", "source": "clawhub", "stars": 0, "tags": ["blockchain", "defi", "swap", "xpr"], "updated_at": 1776759083215, "version": "2.1.1"}, {"category": "productivity", "created_at": 1772787527927, "description": "Creating algorithmic art using p5.js with seeded randomness and interactive parameter exploration. Use this when users request creating art using code, gener...", "description_zh": "", "downloads": 575, "homepage": "https://clawhub.ai/moyu0032/mo-test-1", "iconUrl": null, "installs": 17, "name": "mo-test-1", "ownerName": "moyu0032", "score": 98967.29776247848, "slug": "mo-test-1", "source": "clawhub", "stars": 0, "tags": null, "updated_at": 1776748070384, "version": "1.0.0"}, {"category": "productivity", "created_at": 1772782034718, "description": "Securely buy physical products on Amazon.com using owner-funded wallets with spending limits and mandatory purchase approvals.", "description_zh": "", "downloads": 574, "homepage": "https://clawhub.ai/codejika/amazon-checkout", "iconUrl": null, "installs": 46, "name": "CreditClaw Amazon | Order & Checkout at Amazon.com securely", "ownerName": "codejika", "score": 75958.1881533101, "slug": "amazon-checkout", "source": "clawhub", "stars": 4, "tags": null, "updated_at": 1776769190582, "version": "1.0.5"}, {"category": "productivity", "created_at": 1773222675368, "description": "Search Google using scrapling and return structured results (title, link, snippet). Invoke when user asks to search Google or find information online. Your d...", "description_zh": "", "downloads": 574, "homepage": "https://clawhub.ai/qipengguo/free-google-search-with-browser", "iconUrl": null, "installs": 29, "name": "free_google_search_with_browser", "ownerName": "qipengguo", "score": 107.60733106645387, "slug": "free-google-search-with-browser", "source": "clawhub", "stars": 1, "tags": null, "updated_at": 1776770771337, "version": "0.0.1"}, {"category": "content-creation", "created_at": 1773042158764, "description": "Operate Weibo via browser automation for composing posts, publishing content, replying to comments, checking mentions, and monitoring basic account metrics....", "description_zh": "", "downloads": 574, "homepage": "https://clawhub.ai/yikailucas/weibo-browser-ops", "iconUrl": null, "installs": 66, "name": "Weibo Browser Ops", "ownerName": "yikailucas", "score": 155.19065720891956, "slug": "weibo-browser-ops", "source": "clawhub", "stars": 1, "tags": null, "updated_at": 1776770771082, "version": "0.1.0"}, {"category": "productivity", "created_at": 1772798160613, "description": "Real-time OpenClaw system monitoring with beautiful terminal UI. CPU, memory, disk, GPU, Gateway, cron jobs, model quota, and multi-machine support. Works on...", "description_zh": "", "downloads": 574, "homepage": "https://clawhub.ai/dagangtj/system-monitor-pro", "iconUrl": null, "installs": 33, "name": "System Monitor Pro", "ownerName": "dagangtj", "score": 5105.39891488037, "slug": "system-monitor-pro", "source": "clawhub", "stars": 0, "tags": null, "updated_at": 1776769271304, "version": "1.0.0"}, {"category": "content-creation", "created_at": 1772774706752, "description": "Turn one piece of content into 10+ formats. Transform blog posts, podcasts, videos, or talks into tweets, LinkedIn posts, newsletters, carousels, and more.", "description_zh": "", "downloads": 574, "homepage": "https://clawhub.ai/1kalin/afrexai-social-repurposer", "iconUrl": null, "installs": 5, "name": "Content Repurposer", "ownerName": "1kalin", "score": 16720.06990969997, "slug": "afrexai-social-repurposer", "source": "clawhub", "stars": 0, "tags": null, "updated_at": 1776769149844, "version": "1.1.0"}, {"category": "developer-tools", "created_at": 1773220933482, "description": "When the user wants to optimize, improve, or increase conversions on any marketing page — including homepage, landing pages, pricing pages, feature pages, or...", "description_zh": "", "downloads": 574, "homepage": "https://clawhub.ai/alirezarezvani/page-cro", "iconUrl": null, "installs": 38, "name": "page-cro", "ownerName": "alirezarezvani", "score": 6510.150844958603, "slug": "page-cro", "source": "clawhub", "stars": 0, "tags": null, "updated_at": 1776766449890, "version": "2.1.1"}, {"category": "developer-tools", "created_at": 1773065998892, "description": "Agentic software development methodology — 13 integrated skills for disciplined AI-assisted development covering brainstorming, planning, TDD, debugging, cod...", "description_zh": "", "downloads": 574, "homepage": "https://clawhub.ai/cutd/claw-superpowers", "iconUrl": null, "installs": 91, "name": "claw-superpowers", "ownerName": "cutd", "score": 10822.021116138763, "slug": "claw-superpowers", "source": "clawhub", "stars": 0, "tags": null, "updated_at": 1776765290584, "version": "1.0.1"}, {"category": "developer-tools", "created_at": 1773434711358, "description": "Generate full-stack Java Spring Boot and Vue projects from requirements with mandatory, guided tech stack selection including database, API, auth, and UI.", "description_zh": "", "downloads": 574, "homepage": "https://clawhub.ai/smallest-ming/project-generator", "iconUrl": null, "installs": 213, "name": "java&vue代码生成", "ownerName": "smallest-ming", "score": 10822.021116138763, "slug": "project-generator", "source": "clawhub", "stars": 0, "tags": null, "updated_at": 1776765290540, "version": "1.0.0"}, {"category": "ai-intelligence", "created_at": 1773954305687, "description": "Captures learnings, errors, and corrections to enable continuous improvement. Use when: (1) A command or operation fails unexpectedly, (2) User corrects Clau...", "description_zh": "", "downloads": 574, "homepage": "https://clawhub.ai/lovensky1992-wk/self-improving-learner", "iconUrl": null, "installs": 126, "name": "Self Improving Agent", "ownerName": "lovensky1992-wk", "score": 39586.206896551725, "slug": "self-improving-learner", "source": "clawhub", "stars": 0, "tags": null, "updated_at": 1776759683302, "version": "3.0.7"}, {"category": "ai-intelligence", "created_at": 1772790334989, "description": "macOS GUI automation and desktop control for OpenClaw, powered by Hammerspoon. Gives your agent full access to interact with the Mac desktop — query windows,...", "description_zh": "", "downloads": 574, "homepage": "https://clawhub.ai/s3rous/desktop-guardian", "iconUrl": null, "installs": 49, "name": "Desktop Guardian", "ownerName": "s3rous", "score": 41989.75859546452, "slug": "desktop-guardian", "source": "clawhub", "stars": 0, "tags": null, "updated_at": 1776759082604, "version": "2.0.0"}, {"category": "content-creation", "created_at": 1772778967913, "description": "An image-first social feed for OpenClaw bots. Create, post, comment, like, and follow AI generated images.", "description_zh": "", "downloads": 574, "homepage": "https://clawhub.ai/castanley/moltypics", "iconUrl": null, "installs": 29, "name": "Molty.Pics", "ownerName": "castanley", "score": 42361.62361623616, "slug": "moltypics", "source": "clawhub", "stars": 0, "tags": null, "updated_at": 1776759082480, "version": "1.0.2"}, {"category": "data-analysis", "created_at": 1772776724447, "description": "Act as a personal accountant using the fscl (fiscal) CLI for Actual Budget. Use when the user wants help with personal finances, budgeting, spending, bills,...", "description_zh": "", "downloads": 574, "homepage": "https://clawhub.ai/benbjurstrom/fiscal", "iconUrl": null, "installs": 20, "name": "Fiscal", "ownerName": "benbjurstrom", "score": 33685.44600938967, "slug": "fiscal", "source": "clawhub", "stars": 0, "tags": null, "updated_at": 1776755888673, "version": "0.1.3"}, {"category": "developer-tools", "created_at": 1772781552009, "description": "Automated appointment management for beauty salons, clinics, studios, and photo booths. Handles booking requests, calendar sync, conflict detection, reminder...", "description_zh": "", "downloads": 574, "homepage": "https://clawhub.ai/mupengi-bot/appointment-scheduler", "iconUrl": null, "installs": 17, "name": "appointment-scheduler", "ownerName": "mupengi-bot", "score": 29063.291139240504, "slug": "appointment-scheduler", "source": "clawhub", "stars": 0, "tags": null, "updated_at": 1776753883872, "version": "1.0.0"}, {"category": "productivity", "created_at": 1772778582072, "description": "Control ONVIF Profile S/T IP cameras for PTZ, presets, discovery, and RTSP snapshot/recording with auto-discovery and multi-camera support.", "description_zh": "", "downloads": 574, "homepage": "https://clawhub.ai/ltpop/ipcam", "iconUrl": null, "installs": 23, "name": "Ipcam", "ownerName": "ltpop", "score": 98795.18072289156, "slug": "ipcam", "source": "clawhub", "stars": 0, "tags": null, "updated_at": 1776748070472, "version": "1.0.0"}, {"category": "content-creation", "created_at": 1772777095869, "description": "Build high-performing OpenClaw agents end-to-end. Use when you want to design a new agent (persona + operating rules) and generate the required OpenClaw work...", "description_zh": "", "downloads": 573, "homepage": "https://clawhub.ai/icemastert/agent-builder-1-0-0", "iconUrl": null, "installs": 39, "name": "Agent Builder 1.0.0", "ownerName": "icemastert", "score": 4810.106716886378, "slug": "agent-builder-1-0-0", "source": "clawhub", "stars": 2, "tags": null, "updated_at": 1776770350112, "version": "1.0.0"}, {"category": "ai-intelligence", "created_at": 1773074706646, "description": "Optimize conversion pages for paid traffic from Meta (Facebook/Instagram), Google Ads, TikTok Ads, YouTube Ads, Amazon Ads, and Shopify Ads journeys.", "description_zh": "", "downloads": 573, "homepage": "https://clawhub.ai/danyangliu-sandwichlab/landing-page-optimizer", "iconUrl": null, "installs": 295, "name": "Ads Landing Page Optimizer", "ownerName": "danyangliu-sandwichlab", "score": 717.8910632517069, "slug": "landing-page-optimizer", "source": "clawhub", "stars": 2, "tags": null, "updated_at": 1776770350093, "version": "1.0.0"}, {"category": "content-creation", "created_at": 1772781784891, "description": "Extracts and summarizes trending topics, recurring issues, and content gaps across targeted Reddit subreddits using JSON data for research purposes only.", "description_zh": "", "downloads": 573, "homepage": "https://clawhub.ai/lknezic/reddit-research", "iconUrl": null, "installs": 44, "name": "Reddit Research", "ownerName": "lknezic", "score": 1648.7802253960572, "slug": "reddit-research", "source": "clawhub", "stars": 2, "tags": null, "updated_at": 1776770349896, "version": "1.0.0"}, {"category": "productivity", "created_at": 1772775091371, "description": "Interact with the Ceaser privacy protocol on Base L2 using the ceaser-mcp MCP tools. This skill uses the ceaser-mcp npm package for ALL operations -- shield,...", "description_zh": "", "downloads": 573, "homepage": "https://clawhub.ai/zyra-v21/ceaser", "iconUrl": null, "installs": 8, "name": "Openclaw Skill", "ownerName": "zyra-v21", "score": 5044.022052168189, "slug": "ceaser", "source": "clawhub", "stars": 2, "tags": null, "updated_at": 1776770349798, "version": "1.4.2"}, {"category": "ai-intelligence", "created_at": 1773218016707, "description": "Professional anti-giveup debugging protocol for coding tasks where the agent starts looping, deflecting to users, or trying to end early without evidence. Us...", "description_zh": "", "downloads": 573, "homepage": "https://clawhub.ai/doraemon-claw/pua-debugging-pro", "iconUrl": null, "installs": 50, "name": "pua-debugging-pro", "ownerName": "doraemon-claw", "score": 107.42617394344637, "slug": "pua-debugging-pro", "source": "clawhub", "stars": 1, "tags": null, "updated_at": 1776770771334, "version": "1.0.0"}, {"category": "developer-tools", "created_at": 1772781137839, "description": "ADMET (Absorption, Distribution, Metabolism, Excretion, Toxicity) prediction for drug candidates. Use for assessing drug-likeness, PK properties, and safety...", "description_zh": "", "downloads": 573, "homepage": "https://clawhub.ai/huifer/admet-prediction", "iconUrl": null, "installs": 19, "name": "Admet Prediction", "ownerName": "huifer", "score": 11059.64099594673, "slug": "admet-prediction", "source": "clawhub", "stars": 0, "tags": null, "updated_at": 1776765250386, "version": "0.1.0"}, {"category": "productivity", "created_at": 1772796365477, "description": "Scrapling-only, deterministic web crawler with clean SRP architecture, presets, checkpointing, and JSONL/report outputs.", "description_zh": "", "downloads": 573, "homepage": "https://clawhub.ai/keyiflerolsun/kekik-crawler", "iconUrl": null, "installs": 71, "name": "Kekik Crawler", "ownerName": "keyiflerolsun", "score": 41642.441860465115, "slug": "kekik-crawler", "source": "clawhub", "stars": 0, "tags": null, "updated_at": 1776759083564, "version": "0.1.0-rc1"}, {"category": "developer-tools", "created_at": 1772777395901, "description": "Generates agile sprint plans with capacity math, prioritized backlog, sprint goals, daily standup templates, and retro prompts to ensure focused delivery.", "description_zh": "", "downloads": 573, "homepage": "https://clawhub.ai/1kalin/afrexai-sprint-planner", "iconUrl": null, "installs": 11, "name": "Sprint Planner", "ownerName": "1kalin", "score": 97781.56996587031, "slug": "afrexai-sprint-planner", "source": "clawhub", "stars": 0, "tags": ["agile", "engineering", "planning", "scrum", "sprint"], "updated_at": 1776759083429, "version": "1.0.0"}, {"category": "developer-tools", "created_at": 1772776275942, "description": "Calculate defensible TAM, SAM, and SOM market sizes using top-down and bottom-up methods with source citations for pitches and business cases.", "description_zh": "", "downloads": 573, "homepage": "https://clawhub.ai/1kalin/afrexai-market-sizing", "iconUrl": null, "installs": 18, "name": "Market Sizing — TAM/SAM/SOM Calculator", "ownerName": "1kalin", "score": 41612.20043572984, "slug": "afrexai-market-sizing", "source": "clawhub", "stars": 0, "tags": ["business case", "go-to-market", "market sizing", "pitch deck", "sam", "som", "tam"], "updated_at": 1776759083008, "version": "1.0.0"}, {"category": "developer-tools", "created_at": 1772778130823, "description": "Automates invoice intake from Gmail, extracts data via OCR, verifies payment in Stripe, and creates reconciliation-ready accounting entries in Xero.", "description_zh": "", "downloads": 573, "homepage": "https://clawhub.ai/h4gen/bookkeeper", "iconUrl": null, "installs": 19, "name": "Bookkeeper", "ownerName": "h4gen", "score": 98963.73056994818, "slug": "bookkeeper", "source": "clawhub", "stars": 0, "tags": null, "updated_at": 1776759082815, "version": "1.0.0"}, {"category": "productivity", "created_at": 1772784950212, "description": "Migration Architect", "description_zh": "", "downloads": 573, "homepage": "https://clawhub.ai/alirezarezvani/migration-architect", "iconUrl": null, "installs": 8, "name": "Migration Architect", "ownerName": "alirezarezvani", "score": 97614.99148211244, "slug": "migration-architect", "source": "clawhub", "stars": 0, "tags": null, "updated_at": 1776748071475, "version": "2.1.1"}, {"category": "ai-intelligence", "created_at": 1772776254452, "description": "Start roast games on Moltbook. Pick a target agent, invoke a roast, and the game server handles the rest. Check back for results and points.", "description_zh": "", "downloads": 573, "homepage": "https://clawhub.ai/ac-pill/roast-games", "iconUrl": null, "installs": 28, "name": "Roast Agents Game", "ownerName": "ac-pill", "score": 98623.06368330464, "slug": "roast-games", "source": "clawhub", "stars": 0, "tags": null, "updated_at": 1776748070531, "version": "1.1.0"}, {"category": "content-creation", "created_at": 1772775782298, "description": "An autonomous social media manager agent that researches, plans, and posts content.", "description_zh": "", "downloads": 573, "homepage": "https://clawhub.ai/sociclaw/sociclaw", "iconUrl": null, "installs": 55, "name": "Sociclaw", "ownerName": "sociclaw", "score": 98623.06368330464, "slug": "sociclaw", "source": "clawhub", "stars": 0, "tags": null, "updated_at": 1776748070511, "version": "0.1.9"}]}