{"page": 157, "total_pages": 522, "total": 26073, "skills": [{"category": "content-creation", "created_at": 1772781014209, "description": "Scrape documentation content from Zoomin Software portals using Playwright browser automation to handle dynamic content loading. Use when standard web fetchi...", "description_zh": "", "downloads": 573, "homepage": "https://clawhub.ai/recklessop/zoomin-scraper-recklessop", "iconUrl": null, "installs": 37, "name": "Zoomin Docs Portal Scraper Tool", "ownerName": "recklessop", "score": 97781.56996587031, "slug": "zoomin-scraper-recklessop", "source": "clawhub", "stars": 0, "tags": null, "updated_at": 1776748070373, "version": "1.0.2"}, {"category": "developer-tools", "created_at": 1772776136843, "description": "Search the web using LLMs via OpenRouter. Use for current web data, API docs, market research, news, fact-checking, or any question that benefits from live i...", "description_zh": "", "downloads": 573, "homepage": "https://clawhub.ai/aaronn/openclaw-search-tool", "iconUrl": null, "installs": 11, "name": "Openclaw Research Tool", "ownerName": "aaronn", "score": 97781.56996587031, "slug": "openclaw-search-tool", "source": "clawhub", "stars": 0, "tags": null, "updated_at": 1776748070235, "version": "0.1.5"}, {"category": "data-analysis", "created_at": 1772776638864, "description": "PullThatUpJamie — Podcast Intelligence. A semantically indexed podcast corpus (109+ feeds, ~7K episodes, ~1.9M paragraphs) that works as a vector DB for podc...", "description_zh": "", "downloads": 572, "homepage": "https://clawhub.ai/unclejim21/pullthatupjamie", "iconUrl": null, "installs": 12, "name": "PullThatUpJamie", "ownerName": "unclejim21", "score": 2177.006260671599, "slug": "pullthatupjamie", "source": "clawhub", "stars": 2, "tags": ["bitcoin", "lightning", "podcast", "research", "search"], "updated_at": 1776770349838, "version": "1.5.3"}, {"category": "data-analysis", "created_at": 1772775842243, "description": "Analyze problems using RALSTP (Recursive Agents and Landmarks Strategic-Tactical Planning). Based on PhD thesis by Dorian Buksz (RALSTP). Identifies agents,...", "description_zh": "", "downloads": 572, "homepage": "https://clawhub.ai/thedragosexperience/ralstp-consultant", "iconUrl": null, "installs": 40, "name": "RALSTP Consultant", "ownerName": "thedragosexperience", "score": 5035.793631202172, "slug": "ralstp-consultant", "source": "clawhub", "stars": 2, "tags": null, "updated_at": 1776770349765, "version": "1.0.1"}, {"category": "ai-intelligence", "created_at": 1772788329892, "description": "Convert Python, JavaScript, or TypeScript functions into Mermaid flowcharts to visualize code logic and structure clearly.", "description_zh": "", "downloads": 572, "homepage": "https://clawhub.ai/honestqiao/code-flow-visualizer", "iconUrl": null, "installs": 50, "name": "Code Flow Visualizer", "ownerName": "honestqiao", "score": 19462.40217761143, "slug": "code-flow-visualizer", "source": "clawhub", "stars": 0, "tags": ["code", "visualizer"], "updated_at": 1776769271125, "version": "1.0.0"}, {"category": "data-analysis", "created_at": 1773953053456, "description": "Provides AI agents with comprehensive, computable global financial market data and built-in strategies for real-time monitoring and investment decision support.", "description_zh": "", "downloads": 572, "homepage": "https://clawhub.ai/airoom-ai/airoomltd-global-finance-data-platform", "iconUrl": null, "installs": 295, "name": "全球金融数据平台airoom ltd global finance data platform", "ownerName": "airoom-ai", "score": 19462.40217761143, "slug": "airoomltd-global-finance-data-platform", "source": "clawhub", "stars": 0, "tags": null, "updated_at": 1776769271037, "version": "1.0.0"}, {"category": "content-creation", "created_at": 1772804746105, "description": "Generate videos using local AI models (ComfyUI/Stable Video Diffusion) and auto-publish to social media platforms. Supports text-to-video, image-to-video, ba...", "description_zh": "", "downloads": 572, "homepage": "https://clawhub.ai/954215110/video-generator-auto-post", "iconUrl": null, "installs": 132, "name": "Video Generator Auto Post", "ownerName": "954215110", "score": 13615.805760533207, "slug": "video-generator-auto-post", "source": "clawhub", "stars": 0, "tags": null, "updated_at": 1776765671401, "version": "1.1.0"}, {"category": "developer-tools", "created_at": 1772778145353, "description": "Automation skill for DELLIGHT CFO Financial Operations.", "description_zh": "", "downloads": 572, "homepage": "https://clawhub.ai/arthurelgindell/dellight-cfo-financial-ops", "iconUrl": null, "installs": 25, "name": "DELLIGHT CFO Financial Operations", "ownerName": "arthurelgindell", "score": 13253.012048192772, "slug": "dellight-cfo-financial-ops", "source": "clawhub", "stars": 0, "tags": ["c-suite", "dellight", "finance"], "updated_at": 1776765249916, "version": "1.0.1"}, {"category": "ai-intelligence", "created_at": 1772782711636, "description": "Monitor SEC EDGAR filings for AI/tech companies in real time. Use this skill when the user asks about SEC filings, EDGAR data, company disclosures, 8-K event...", "description_zh": "", "downloads": 572, "homepage": "https://clawhub.ai/sukanto-m/sec-watcher", "iconUrl": null, "installs": 27, "name": "SEC Watcher", "ownerName": "sukanto-m", "score": 12747.93848896813, "slug": "sec-watcher", "source": "clawhub", "stars": 0, "tags": null, "updated_at": 1776764050322, "version": "1.0.0"}, {"category": "security-compliance", "created_at": 1772778413895, "description": "Secure MCP bridge enabling Claude on your phone to browse and edit local repos with real-time, human-approved file access and audit logging.", "description_zh": "", "downloads": 572, "homepage": "https://clawhub.ai/suhteevah/claude-local-bridge", "iconUrl": null, "installs": 18, "name": "Claude Local Bridge", "ownerName": "suhteevah", "score": 41721.37126185266, "slug": "claude-local-bridge", "source": "clawhub", "stars": 0, "tags": null, "updated_at": 1776759082745, "version": "0.1.0"}, {"category": "data-analysis", "created_at": 1772780762005, "description": "Analyzes the evolution memory graph for stagnation patterns, recurring failures, and success plateaus. Generates actionable insights to guide future evolutio...", "description_zh": "", "downloads": 572, "homepage": "https://clawhub.ai/wanng-ide/evolution-state-analyzer", "iconUrl": null, "installs": 17, "name": "Evolution State Analyzer", "ownerName": "wanng-ide", "score": 34603.75075620085, "slug": "evolution-state-analyzer", "source": "clawhub", "stars": 0, "tags": null, "updated_at": 1776757582415, "version": "1.0.0"}, {"category": "developer-tools", "created_at": 1772793326123, "description": "Spawns a specialized sub-agent to monitor Reddit and optimize for GEO. Runs on a scheduled cron job (9 AM/6 PM default) to deliver lead drafts.", "description_zh": "", "downloads": 572, "homepage": "https://clawhub.ai/muhammedilyasy/reddit-marketing-geo", "iconUrl": null, "installs": 20, "name": "Reddit Marketing and GEO Skill", "ownerName": "muhammedilyasy", "score": 100000, "slug": "reddit-marketing-geo", "source": "clawhub", "stars": 0, "tags": null, "updated_at": 1776755288689, "version": "1.0.2"}, {"category": "content-creation", "created_at": 1773284566575, "description": "Fetch web pages as reduced markdown via jina.ai. Use when user wants to fetch a URL and get condensed markdown content to save tokens. Triggered by phrases l...", "description_zh": "", "downloads": 572, "homepage": "https://clawhub.ai/qidu/web-fetch-markdown", "iconUrl": null, "installs": 41, "name": "Web fetch markdown of page", "ownerName": "qidu", "score": 98961.93771626297, "slug": "web-fetch-markdown", "source": "clawhub", "stars": 0, "tags": null, "updated_at": 1776748071100, "version": "1.0.0"}, {"category": "data-analysis", "created_at": 1772782133132, "description": "Send and read email via a combination of python and bash scripts which makes use of the main agent for reasoning and logic. This skill enables the agent to w...", "description_zh": "", "downloads": 572, "homepage": "https://clawhub.ai/leli1024/lel-mail", "iconUrl": null, "installs": 16, "name": "Lel Mail", "ownerName": "leli1024", "score": 98113.20754716982, "slug": "lel-mail", "source": "clawhub", "stars": 0, "tags": null, "updated_at": 1776748070913, "version": "1.1.4"}, {"category": "communication-collaboration", "created_at": 1772781874018, "description": "Take a screenshot on macOS and send it to Telegram. Use when the user asks to capture their screen, take a screenshot, or send a screen capture to Telegram....", "description_zh": "", "downloads": 572, "homepage": "https://clawhub.ai/hoyin258/macos-screenshot-telegram", "iconUrl": null, "installs": 31, "name": "MAC OS screenshot to telegram", "ownerName": "hoyin258", "score": 65974.62514417531, "slug": "macos-screenshot-telegram", "source": "clawhub", "stars": 0, "tags": null, "updated_at": 1776748069535, "version": "1.0.0"}, {"category": "ai-intelligence", "created_at": 1772775737826, "description": "Create high-quality pull requests with pre-submission validation, maintainer-friendly formatting, and automated quality checks.", "description_zh": "", "downloads": 571, "homepage": "https://clawhub.ai/ivangdavila/pull-request", "iconUrl": null, "installs": 29, "name": "Pull Request", "ownerName": "ivangdavila", "score": 4204.8035235014795, "slug": "pull-request", "source": "clawhub", "stars": 2, "tags": null, "updated_at": 1776770350180, "version": "1.0.1"}, {"category": "developer-tools", "created_at": 1772775426993, "description": "Generate, customize, and deploy QR codes with proper sizing, error correction, and use-case optimization.", "description_zh": "", "downloads": 571, "homepage": "https://clawhub.ai/ivangdavila/qr", "iconUrl": null, "installs": 7, "name": "QR", "ownerName": "ivangdavila", "score": 1720.25451883552, "slug": "qr", "source": "clawhub", "stars": 2, "tags": null, "updated_at": 1776770350057, "version": "1.0.0"}, {"category": "data-analysis", "created_at": 1772774542933, "description": "Combine multiple sources into unified insights with source tracking, conflict resolution, and coverage verification.", "description_zh": "", "downloads": 571, "homepage": "https://clawhub.ai/ivangdavila/synthesize", "iconUrl": null, "installs": 6, "name": "Synthesize", "ownerName": "ivangdavila", "score": 4824.699936828806, "slug": "synthesize", "source": "clawhub", "stars": 2, "tags": null, "updated_at": 1776770349925, "version": "1.0.0"}, {"category": "data-analysis", "created_at": 1772781668830, "description": "Automatically creates unique prediction markets on betbud.live by analyzing trending crypto Twitter topics with Claude AI and fetching professional images.", "description_zh": "", "downloads": 571, "homepage": "https://clawhub.ai/samj12/betbud-prediction-market-creation", "iconUrl": null, "installs": 15, "name": "Prediction Market Creator", "ownerName": "samj12", "score": 2173.44906089926, "slug": "betbud-prediction-market-creation", "source": "clawhub", "stars": 2, "tags": ["automation", "betbud", "blockchain", "crypto", "polymarket", "prediction-markets", "twitter"], "updated_at": 1776770349817, "version": "1.0.0"}, {"category": "ai-intelligence", "created_at": 1772786121252, "description": "Web search across 7 engines in parallel with browser impersonation. Use when the agent needs current information from the web — news, documentation, recent e...", "description_zh": "", "downloads": 571, "homepage": "https://clawhub.ai/paperboardofficial/webserp", "iconUrl": null, "installs": 35, "name": "webserp", "ownerName": "paperboardofficial", "score": 7770.1814357086505, "slug": "webserp", "source": "clawhub", "stars": 1, "tags": null, "updated_at": 1776761839784, "version": "0.1.4"}, {"category": "developer-tools", "created_at": 1772781767777, "description": "Patiently AI simplifies medical documents for patients. Takes doctor's letters, test results, prescriptions, discharge summaries, and clinical notes and expl...", "description_zh": "", "downloads": 571, "homepage": "https://clawhub.ai/nickjlamb/patiently-ai", "iconUrl": null, "installs": 26, "name": "Patiently AI", "ownerName": "nickjlamb", "score": 17804.80199563455, "slug": "patiently-ai", "source": "clawhub", "stars": 0, "tags": null, "updated_at": 1776765290483, "version": "1.0.0"}, {"category": "data-analysis", "created_at": 1773898633975, "description": "Intelligent multi-topic deep research tool supporting arbitrary material input, using independent research agents for parallel deep retrieval and systematic...", "description_zh": "", "downloads": 571, "homepage": "https://clawhub.ai/neverchenx/multi-search", "iconUrl": null, "installs": 54, "name": "Multi Search", "ownerName": "neverchenx", "score": 12671.992898357745, "slug": "multi-search", "source": "clawhub", "stars": 0, "tags": null, "updated_at": 1776763790705, "version": "1.1.0"}, {"category": "developer-tools", "created_at": 1772777610488, "description": "Reduces Feishu API calls from every minute to once every 2 hours by caching bot status, saving 99% of API quota usage.", "description_zh": "", "downloads": 571, "homepage": "https://clawhub.ai/bryan-chx/feishu-api-cache-fix", "iconUrl": null, "installs": 33, "name": "Feishu Api Cache Fix", "ownerName": "bryan-chx", "score": 41527.27272727273, "slug": "feishu-api-cache-fix", "source": "clawhub", "stars": 0, "tags": null, "updated_at": 1776759083380, "version": "1.0.1"}, {"category": "security-compliance", "created_at": 1772777315690, "description": "A local-first CRM that drafts and requires explicit user confirmation before saving contact or record changes for auditability.", "description_zh": "", "downloads": 571, "homepage": "https://clawhub.ai/extraterrest/workcrm", "iconUrl": null, "installs": 10, "name": "Workcrm", "ownerName": "extraterrest", "score": 41678.832116788326, "slug": "workcrm", "source": "clawhub", "stars": 0, "tags": null, "updated_at": 1776759083178, "version": "0.1.0-alpha.4"}, {"category": "ai-intelligence", "created_at": 1772777795731, "description": "Command-line interface for creating, trading, and managing Mint Club bonding curve tokens on Base blockchain with wallet support and Uniswap integration.", "description_zh": "", "downloads": 571, "homepage": "https://clawhub.ai/sebayaki/mintclub", "iconUrl": null, "installs": 21, "name": "Mint Club V2", "ownerName": "sebayaki", "score": 41831.50183150183, "slug": "mintclub", "source": "clawhub", "stars": 0, "tags": null, "updated_at": 1776759082628, "version": "1.0.0"}, {"category": "data-analysis", "created_at": 1772774668756, "description": "Complete SEO content creation system for AI agents. Research keywords, analyze competitors, write optimized articles, and track rankings — all through natural conversation. No APIs required.", "description_zh": "", "downloads": 571, "homepage": "https://clawhub.ai/1kalin/afrexai-seo-content-engine", "iconUrl": null, "installs": 4, "name": "SEO Content Engine", "ownerName": "1kalin", "score": 100000, "slug": "afrexai-seo-content-engine", "source": "clawhub", "stars": 0, "tags": ["articles", "blog", "content", "keywords", "marketing", "seo", "writing"], "updated_at": 1776753584136, "version": "1.0.0"}, {"category": "ai-intelligence", "created_at": 1772777351763, "description": "Send and receive encrypted messages and manage handshakes on the Kaspa blockchain using Kasia protocol and mcporter tools.", "description_zh": "", "downloads": 571, "homepage": "https://clawhub.ai/renkasiyas/kasia", "iconUrl": null, "installs": 26, "name": "Kasia", "ownerName": "renkasiyas", "score": 97941.68096054888, "slug": "kasia", "source": "clawhub", "stars": 0, "tags": null, "updated_at": 1776748070897, "version": "1.0.0"}, {"category": "ai-intelligence", "created_at": 1772775623165, "description": "Prepares briefing docs so you walk into every meeting ready", "description_zh": "", "downloads": 571, "homepage": "https://clawhub.ai/1kalin/ai-meeting-prep", "iconUrl": null, "installs": 12, "name": "Meeting Prep", "ownerName": "1kalin", "score": 97274.27597955707, "slug": "ai-meeting-prep", "source": "clawhub", "stars": 0, "tags": ["meetings", "productivity", "research"], "updated_at": 1776748070658, "version": "1.0.0"}, {"category": "productivity", "created_at": 1772777410692, "description": "Use this skill whenever a task involves checking, generating, or working with public holidays — for any country or subdivision (state, province, region). Tri...", "description_zh": "", "downloads": 571, "homepage": "https://clawhub.ai/yting27/global-holidays", "iconUrl": null, "installs": 21, "name": "Global Holidays", "ownerName": "yting27", "score": 98278.8296041308, "slug": "global-holidays", "source": "clawhub", "stars": 0, "tags": null, "updated_at": 1776748070513, "version": "1.0.2"}, {"category": "content-creation", "created_at": 1773222809282, "description": "Database Schema Designer", "description_zh": "", "downloads": 571, "homepage": "https://clawhub.ai/alirezarezvani/database-schema-designer", "iconUrl": null, "installs": 36, "name": "database-schema-designer", "ownerName": "alirezarezvani", "score": 98278.8296041308, "slug": "database-schema-designer", "source": "clawhub", "stars": 0, "tags": null, "updated_at": 1776748070493, "version": "2.1.1"}, {"category": "ai-intelligence", "created_at": 1772779050533, "description": "Search the community-driven Agent Failure Registry for known agent errors, solutions, and lessons to debug issues or submit new failure post-mortems.", "description_zh": "", "downloads": 571, "homepage": "https://clawhub.ai/unleashedbelial/agent-failure-registry", "iconUrl": null, "installs": 42, "name": "Failure Registry", "ownerName": "unleashedbelial", "score": 97440.27303754266, "slug": "agent-failure-registry", "source": "clawhub", "stars": 0, "tags": ["agents", "debugging", "failures", "postmortem"], "updated_at": 1776748069736, "version": "0.1.0"}, {"category": "productivity", "created_at": 1772774896907, "description": "Anti-drift protocol script. Ensures parity between docs and system. Triggers: 'bom dia PROJECT' / 'good morning PROJECT' (load project context with health ch...", "description_zh": "", "downloads": 571, "homepage": "https://clawhub.ai/nonlinear/backstage", "iconUrl": null, "installs": 12, "name": "backstage companion", "ownerName": "nonlinear", "score": 97440.27303754266, "slug": "backstage", "source": "clawhub", "stars": 0, "tags": ["stable"], "updated_at": 1776748069687, "version": "1.0.4"}, {"category": "content-creation", "created_at": 1773202096640, "description": "Generate and edit images using Google's Nano Banana Pro (Gemini 3 Pro Image / Imagen Pro) — the premium AI image generation model optimized for professional...", "description_zh": "", "downloads": 570, "homepage": "https://clawhub.ai/xixihhhh/nano-banana-pro-image", "iconUrl": null, "installs": 68, "name": "Nano Banana Pro Image Generation&Editing", "ownerName": "xixihhhh", "score": 20081.688223281144, "slug": "nano-banana-pro-image", "source": "clawhub", "stars": 1, "tags": null, "updated_at": 1776761745337, "version": "1.0.9"}, {"category": "productivity", "created_at": 1772780045993, "description": "Generates well-structured Markdown reports from multiple sources with sections, tables, formatting, and optional PDF or HTML export.", "description_zh": "", "downloads": 570, "homepage": "https://clawhub.ai/underbench2-gif/ub2-markdown-report-generator", "iconUrl": null, "installs": 20, "name": "Markdown Report Generator", "ownerName": "underbench2-gif", "score": 41697.14703730797, "slug": "ub2-markdown-report-generator", "source": "clawhub", "stars": 0, "tags": ["documentation", "export", "formatting", "markdown", "reports"], "updated_at": 1776759083473, "version": "1.0.0"}, {"category": "data-analysis", "created_at": 1772778305879, "description": "Autonomous Nad.fun trading agent that scans markets via API and indexer, analyzes tokens, executes trades, and shares profits with MMIND token holders.", "description_zh": "", "downloads": 570, "homepage": "https://clawhub.ai/encipher88/nadfunagent", "iconUrl": null, "installs": 16, "name": "nadfunagent", "ownerName": "encipher88", "score": 41364.296081277214, "slug": "nadfunagent", "source": "clawhub", "stars": 0, "tags": null, "updated_at": 1776759083310, "version": "1.0.0"}, {"category": "productivity", "created_at": 1773057772543, "description": "Execute terminal commands with optional sudo privileges and return the command output safely upon user request.", "description_zh": "", "downloads": 570, "homepage": "https://clawhub.ai/choasx/terminal-executor", "iconUrl": null, "installs": 23, "name": "Terminal Executor", "ownerName": "choasx", "score": 100000, "slug": "terminal-executor", "source": "clawhub", "stars": 0, "tags": null, "updated_at": 1776759083287, "version": "1.0.1"}, {"category": "data-analysis", "created_at": 1772777759812, "description": "Fetch market data from Upbit via CLI commands including pairs, candles, trades, tickers, orderbooks, and watchlist with JSON output.", "description_zh": "", "downloads": 570, "homepage": "https://clawhub.ai/kuns9/upbit-market-data-skill", "iconUrl": null, "installs": 15, "name": "UPBIT market data get skill", "ownerName": "kuns9", "score": 41880.96987509185, "slug": "upbit-market-data-skill", "source": "clawhub", "stars": 0, "tags": null, "updated_at": 1776759082203, "version": "1.0.2"}, {"category": "developer-tools", "created_at": 1772777336902, "description": "Delegates coding tasks to Kimi CLI agents in isolated git worktrees. Use when the user wants to delegate work to Kimi, run a headless task, or run an isolate...", "description_zh": "", "downloads": 570, "homepage": "https://clawhub.ai/quratus/cli-worker", "iconUrl": null, "installs": 18, "name": "CLI Worker Skill (Kimi CLI)", "ownerName": "quratus", "score": 97103.91822827938, "slug": "cli-worker", "source": "clawhub", "stars": 0, "tags": null, "updated_at": 1776748070803, "version": "0.3.0"}, {"category": "productivity", "created_at": 1772777278499, "description": "Run one Better Ralph iteration: pick next incomplete PRD story by priority, implement it, run checks, commit, mark passed, and append progress, using only st...", "description_zh": "", "downloads": 570, "homepage": "https://clawhub.ai/runeweaverstudios/better-ralph", "iconUrl": null, "installs": 20, "name": "Better Ralph", "ownerName": "runeweaverstudios", "score": 97103.91822827938, "slug": "better-ralph", "source": "clawhub", "stars": 0, "tags": null, "updated_at": 1776748070677, "version": "1.0.0"}, {"category": "developer-tools", "created_at": 1772776142583, "description": "Mine RustChain RTC tokens on real x86/ARM or vintage hardware by proving physical device control with ClawRTC mining client.", "description_zh": "", "downloads": 569, "homepage": "https://clawhub.ai/scottcjn/clawrtc", "iconUrl": null, "installs": 9, "name": "ClawRTC", "ownerName": "scottcjn", "score": 32423.529411764706, "slug": "clawrtc", "source": "clawhub", "stars": 6, "tags": ["coinbase", "wallet", "x402"], "updated_at": 1776768549771, "version": "1.5.0"}, {"category": "data-analysis", "created_at": 1772778552401, "description": "Create and deploy mobile-friendly forms with customizable fields, real-time validation, conditional logic, and integration options for various platforms.", "description_zh": "", "downloads": 569, "homepage": "https://clawhub.ai/ivangdavila/forms", "iconUrl": null, "installs": 30, "name": "Forms", "ownerName": "ivangdavila", "score": 1638.0214637295248, "slug": "forms", "source": "clawhub", "stars": 2, "tags": null, "updated_at": 1776770349867, "version": "1.0.0"}, {"category": "content-creation", "created_at": 1773091628342, "description": "Generate professional LaTeX documents from templates. Supports academic papers (IEEE/ACM), Chinese thesis (CTeX), CVs (moderncv), and custom templates. Auto-...", "description_zh": "", "downloads": 569, "homepage": "https://clawhub.ai/alicepub/latex-writer", "iconUrl": null, "installs": 166, "name": "LaTeX Writer", "ownerName": "alicepub", "score": 4053.403069300117, "slug": "latex-writer", "source": "clawhub", "stars": 1, "tags": null, "updated_at": 1776770350180, "version": "1.0.0"}, {"category": "developer-tools", "created_at": 1772775821870, "description": "Work with Obsidian vaults (plain Markdown notes) and automate via notesmd-cli.", "description_zh": "", "downloads": 569, "homepage": "https://clawhub.ai/tripleight/obsidian-linux", "iconUrl": null, "installs": 22, "name": "Obsidian (Linux)", "ownerName": "tripleight", "score": 10727.752639517345, "slug": "obsidian-linux", "source": "clawhub", "stars": 0, "tags": null, "updated_at": 1776765290602, "version": "1.2.0"}, {"category": "data-analysis", "created_at": 1773084531103, "description": "Data analysis and visualization skill for CSV, Excel, and JSON data. Use when analyzing sales data, creating reports, generating charts, or processing e-comm...", "description_zh": "", "downloads": 569, "homepage": "https://clawhub.ai/yinanping-cpu/yinan-data-analyzer", "iconUrl": null, "installs": 258, "name": "Data Analyzer", "ownerName": "yinanping-cpu", "score": 19023.737880307588, "slug": "yinan-data-analyzer", "source": "clawhub", "stars": 0, "tags": null, "updated_at": 1776761690412, "version": "1.0.1"}, {"category": "ai-intelligence", "created_at": 1772781706652, "description": "Provides structured guidance for M&A transactions including strategy, valuation, due diligence, deal structuring, integration planning, and sell-side readine...", "description_zh": "", "downloads": 569, "homepage": "https://clawhub.ai/1kalin/afrexai-ma-playbook", "iconUrl": null, "installs": 35, "name": "M&A Playbook", "ownerName": "1kalin", "score": 41532.84671532847, "slug": "afrexai-ma-playbook", "source": "clawhub", "stars": 0, "tags": ["acquisitions", "deal structure", "due diligence", "integration", "mergers", "valuation"], "updated_at": 1776759083061, "version": "1.0.0"}, {"category": "security-compliance", "created_at": 1772775922060, "description": "Generate workplace safety audits, incident reports, hazard assessments, training matrices, and compliance programs aligned with OSHA standards.", "description_zh": "", "downloads": 569, "homepage": "https://clawhub.ai/1kalin/afrexai-workplace-safety", "iconUrl": null, "installs": 8, "name": "Workplace Safety Compliance", "ownerName": "1kalin", "score": 41381.818181818184, "slug": "afrexai-workplace-safety", "source": "clawhub", "stars": 0, "tags": ["compliance", "hazard", "osha", "safety", "workplace"], "updated_at": 1776759082267, "version": "1.0.0"}, {"category": "developer-tools", "created_at": 1772777518846, "description": "Vault-backed API Keys management for OpenClaw. Secure file-based secret storage with one-click migration from plaintext config, dynamic key discovery, vault...", "description_zh": "", "downloads": 569, "homepage": "https://clawhub.ai/maverick-software/api-key-ui-tab", "iconUrl": null, "installs": 9, "name": "Vault Enhancements w/ UI", "ownerName": "maverick-software", "score": 96933.5604770017, "slug": "api-key-ui-tab", "source": "clawhub", "stars": 0, "tags": null, "updated_at": 1776748071538, "version": "3.0.0"}, {"category": "data-analysis", "created_at": 1772776021028, "description": "Use this skill to operate CLAWLOGIC prediction markets via `clawlogic-agent`: initialize wallet, register agent (ENS optional), create creator-seeded CPMM markets, analyze, trade YES/NO, assert and settle outcomes, claim fees, and post market broadcasts.", "description_zh": "", "downloads": 569, "homepage": "https://clawhub.ai/kaushal-205/clawlogic", "iconUrl": null, "installs": 22, "name": "CLAWLOGIC Trader", "ownerName": "kaushal-205", "score": 96933.5604770017, "slug": "clawlogic", "source": "clawhub", "stars": 0, "tags": null, "updated_at": 1776748071498, "version": "0.1.0"}, {"category": "data-analysis", "created_at": 1772788567809, "description": "Browse and explore Bitrefill (bitrefill.com): discover gift cards, mobile top-ups, and eSIMs; search by brand, category, or country; compare products and den...", "description_zh": "", "downloads": 569, "homepage": "https://clawhub.ai/marcopesani/bitrefill-website", "iconUrl": null, "installs": 3, "name": "Shop on Bitrefill", "ownerName": "marcopesani", "score": 96933.5604770017, "slug": "bitrefill-website", "source": "clawhub", "stars": 0, "tags": null, "updated_at": 1776748070765, "version": "1.2.1"}, {"category": "data-analysis", "created_at": 1772791624577, "description": "A professional recruitment workflow assistant. Evaluates resumes against dynamic requirements and AI proficiency, provides critical Pros/Cons analysis, and p...", "description_zh": "", "downloads": 569, "homepage": "https://clawhub.ai/gakkiismywife/recruiter-assistant", "iconUrl": null, "installs": 40, "name": "Recruiter Assistant", "ownerName": "gakkiismywife", "score": 96933.5604770017, "slug": "recruiter-assistant", "source": "clawhub", "stars": 0, "tags": ["automation", "golang", "hr", "php", "recruitment"], "updated_at": 1776748070620, "version": "1.4.2"}]}