{"page": 158, "total_pages": 522, "total": 26073, "skills": [{"category": "ai-intelligence", "created_at": 1772780110927, "description": "AI-powered startup companion for Korean founders. Evaluate business plans, match government funding programs (TIPS/DeepTech/Global TIPS), connect with 3,972+...", "description_zh": "", "downloads": 569, "homepage": "https://clawhub.ai/lifeissea/raon-os", "iconUrl": null, "installs": 33, "name": "Raon OS", "ownerName": "lifeissea", "score": 97098.97610921501, "slug": "raon-os", "source": "clawhub", "stars": 0, "tags": null, "updated_at": 1776748069704, "version": "0.7.27"}, {"category": "content-creation", "created_at": 1773063055593, "description": "Generates images and text via reverse-engineered Gemini Web API. Supports text generation, image generation from prompts, reference images for vision input,...", "description_zh": "", "downloads": 568, "homepage": "https://clawhub.ai/wjctim/baoyu-danger-gemini-web", "iconUrl": null, "installs": 123, "name": "Baoyu Danger Gemini Web", "ownerName": "wjctim", "score": 666.7214442501145, "slug": "baoyu-danger-gemini-web", "source": "clawhub", "stars": 0, "tags": null, "updated_at": 1776770690507, "version": "0.1.0"}, {"category": "ai-intelligence", "created_at": 1773961588698, "description": "This skill should be used when working with memory-lancedb-pro, a production-grade long-term memory MCP plugin for OpenClaw AI agents. Use when installing, c...", "description_zh": "", "downloads": 568, "homepage": "https://clawhub.ai/aaronx-hu/memory-lancedb-pro", "iconUrl": null, "installs": 129, "name": "memory-lancedb-pro", "ownerName": "aaronx-hu", "score": 2491.9931557934456, "slug": "memory-lancedb-pro", "source": "clawhub", "stars": 0, "tags": null, "updated_at": 1776770471314, "version": "1.0.0"}, {"category": "ai-intelligence", "created_at": 1772778960695, "description": "Interact with XPR Network on-chain governance: view communities, proposals, vote with weighted tokens, and create proposals paying community fees.", "description_zh": "", "downloads": 568, "homepage": "https://clawhub.ai/paulgnz/governance", "iconUrl": null, "installs": 24, "name": "xpr-governance", "ownerName": "paulgnz", "score": 26067.003212482792, "slug": "governance", "source": "clawhub", "stars": 0, "tags": null, "updated_at": 1776759083840, "version": "0.2.11"}, {"category": "security-compliance", "created_at": 1772775889761, "description": "Systematically identifies, scores, and prioritizes technical debt across codebases with impact analysis and detailed remediation roadmaps for engineering teams.", "description_zh": "", "downloads": 568, "homepage": "https://clawhub.ai/1kalin/afrexai-tech-debt-audit", "iconUrl": null, "installs": 12, "name": "Technical Debt Audit", "ownerName": "1kalin", "score": 96928.32764505119, "slug": "afrexai-tech-debt-audit", "source": "clawhub", "stars": 0, "tags": ["code quality", "cto", "engineering", "refactoring", "technical debt"], "updated_at": 1776759083441, "version": "1.0.0"}, {"category": "ai-intelligence", "created_at": 1772787556555, "description": "Start VS Code Remote Tunnel in Docker containers for remote terminal access", "description_zh": "", "downloads": 568, "homepage": "https://clawhub.ai/listky/vscode-tunnel", "iconUrl": null, "installs": 57, "name": "vscode-tunnel", "ownerName": "listky", "score": 34507.89793438639, "slug": "vscode-tunnel", "source": "clawhub", "stars": 0, "tags": null, "updated_at": 1776757320463, "version": "1.0.0"}, {"category": "developer-tools", "created_at": 1772776455646, "description": "Automated API testing with Postman collections via Newman CLI. Use when user requests API testing, collection execution, automated testing, CI/CD integration, or mentions \"Postman\", \"Newman\", \"API tests\", \"run collection\", or \"automated testing\".", "description_zh": "", "downloads": 568, "homepage": "https://clawhub.ai/1999azzar/newman", "iconUrl": null, "installs": 8, "name": "Newman", "ownerName": "1999azzar", "score": 100000, "slug": "newman", "source": "clawhub", "stars": 0, "tags": null, "updated_at": 1776748571953, "version": "1.0.0"}, {"category": "productivity", "created_at": 1772776333773, "description": "Check wind and weather conditions for wind sports (kitesurfing, wingfoiling, surfing). Get forecasts, find spots nearby, view session history, and request ne...", "description_zh": "", "downloads": 568, "homepage": "https://clawhub.ai/jumptrnr/windsensei", "iconUrl": null, "installs": 35, "name": "Windsensei", "ownerName": "jumptrnr", "score": 97762.47848537005, "slug": "windsensei", "source": "clawhub", "stars": 0, "tags": null, "updated_at": 1776748071469, "version": "1.4.2"}, {"category": "developer-tools", "created_at": 1772785447240, "description": "Local speech-to-text with the Whisper CLI (no API key).", "description_zh": "", "downloads": 568, "homepage": "https://clawhub.ai/czubi1928/openai-whisper-1-0-0", "iconUrl": null, "installs": 93, "name": "Openai Whisper 1.0.0", "ownerName": "czubi1928", "score": 97427.10120068611, "slug": "openai-whisper-1-0-0", "source": "clawhub", "stars": 0, "tags": null, "updated_at": 1776748070949, "version": "1.0.0"}, {"category": "developer-tools", "created_at": 1772775977135, "description": "Fetch and summarize recent news articles from GNews on any topic, generating a concise Markdown digest with date, greeting, and top links.", "description_zh": "", "downloads": 568, "homepage": "https://clawhub.ai/davidk2yoyo/noticias-cangrejo", "iconUrl": null, "installs": 11, "name": "Noticias Cangrejo", "ownerName": "davidk2yoyo", "score": 96763.20272572401, "slug": "noticias-cangrejo", "source": "clawhub", "stars": 0, "tags": ["api", "digest", "gnews", "markdown", "news", "newsletter", "python"], "updated_at": 1776748070718, "version": "1.0.4"}, {"category": "security-compliance", "created_at": 1772777226862, "description": "Google Calendar and Gmail integration using your own GCP project credentials (BYoK — Bring Your Own Key). Direct OAuth2 auth against your own Google Cloud pr...", "description_zh": "", "downloads": 568, "homepage": "https://clawhub.ai/kyesh/google-workspace-byok", "iconUrl": null, "installs": 10, "name": "Google Workspace BYOK", "ownerName": "kyesh", "score": 96763.20272572401, "slug": "google-workspace-byok", "source": "clawhub", "stars": 0, "tags": null, "updated_at": 1776748070598, "version": "1.0.0"}, {"category": "security-compliance", "created_at": 1772777790714, "description": "ContextKeeper — Safe project state tracking for AI agents. Manual checkpoint creation with validated inputs. No background processes, no PID manipulation, no...", "description_zh": "", "downloads": 568, "homepage": "https://clawhub.ai/gopinathnelluri/contextkeeper", "iconUrl": null, "installs": 8, "name": "ContextKeeper", "ownerName": "gopinathnelluri", "score": 97762.47848537005, "slug": "contextkeeper", "source": "clawhub", "stars": 0, "tags": ["agent", "ai", "bugfix", "checkpoint", "context", "contextkeeper", "continuation", "dashboard", "foreground-only", "git", "intent", "manual", "memory", "no-background", "no-pid", "productivity", "project-state", "projects", "rce-patch", "resume", "safe", "security", "security-verified", "state", "tracking", "workflow"], "updated_at": 1776748070541, "version": "0.2.3"}, {"category": "developer-tools", "created_at": 1772783612020, "description": "Create short URLs and submit feature requests using 1p.io. Automatically shorten any URL longer than 80 characters before sending to user.", "description_zh": "", "downloads": 568, "homepage": "https://clawhub.ai/tuanpmt/1p-shortlink", "iconUrl": null, "installs": 8, "name": "1p.io Shortlink API", "ownerName": "tuanpmt", "score": 96928.32764505119, "slug": "1p-shortlink", "source": "clawhub", "stars": 0, "tags": null, "updated_at": 1776748070273, "version": "1.0.0"}, {"category": "developer-tools", "created_at": 1773084490194, "description": "Search and query TikHub APIs for TikTok, Douyin, Xiaohongshu, Lemon8, Instagram, YouTube, Twitter, Reddit, and more. Use when user asks about needs to fetch...", "description_zh": "", "downloads": 567, "homepage": "https://clawhub.ai/liangdabiao/tikhub-api-skill", "iconUrl": null, "installs": 244, "name": "tikhub-api-skill", "ownerName": "liangdabiao", "score": 10764.716669723088, "slug": "tikhub-api-skill", "source": "clawhub", "stars": 1, "tags": null, "updated_at": 1776766871176, "version": "1.0.0"}, {"category": "security-compliance", "created_at": 1772795445660, "description": "Manage models, datasets, Spaces, and repositories using Hugging Face CLI (hf). Supports authentication, upload, download, Space creation, and more.", "description_zh": "", "downloads": 567, "homepage": "https://clawhub.ai/tsukisama9292/huggingface", "iconUrl": null, "installs": 30, "name": "Huggingface", "ownerName": "tsukisama9292", "score": 29189.45798110393, "slug": "huggingface", "source": "clawhub", "stars": 1, "tags": null, "updated_at": 1776754388348, "version": "1.0.2"}, {"category": "content-creation", "created_at": 1773057983882, "description": "Generate high-quality videos from text, images, or other videos using the Kling 3.0 Omni model. Covers text-to-video, image-to-video, video editing, video re...", "description_zh": "", "downloads": 567, "homepage": "https://clawhub.ai/wells1137/kling-video-generator", "iconUrl": null, "installs": 97, "name": "Kling Video Generator", "ownerName": "wells1137", "score": 4004.802938268117, "slug": "kling-video-generator", "source": "clawhub", "stars": 0, "tags": null, "updated_at": 1776766490622, "version": "1.1.0"}, {"category": "productivity", "created_at": 1772776599647, "description": "Generate an instant codebase overview — language, framework, architecture, entry points, and key files", "description_zh": "", "downloads": 567, "homepage": "https://clawhub.ai/fratua/project-summary", "iconUrl": null, "installs": 15, "name": "Project Summary", "ownerName": "fratua", "score": 30256.13660618997, "slug": "project-summary", "source": "clawhub", "stars": 0, "tags": null, "updated_at": 1776764650695, "version": "1.0.0"}, {"category": "content-creation", "created_at": 1772775763207, "description": "Product Hunt launch optimization with specific specs, timing, and gallery strategy. Covers taglines, gallery images, maker comments, and launch day tactics....", "description_zh": "", "downloads": 567, "homepage": "https://clawhub.ai/okaris/product-hunt-launch-2", "iconUrl": null, "installs": 28, "name": "Product Hunt Launch", "ownerName": "okaris", "score": 12439.666520403685, "slug": "product-hunt-launch-2", "source": "clawhub", "stars": 0, "tags": null, "updated_at": 1776763750414, "version": "0.1.5"}, {"category": "data-analysis", "created_at": 1772787054861, "description": "Advanced NLP with perplexity scoring, burstiness analysis, and entropy calculation", "description_zh": "", "downloads": 567, "homepage": "https://clawhub.ai/raghulpasupathi/nlp-toolkit", "iconUrl": null, "installs": 10, "name": "Nlp Toolkit", "ownerName": "raghulpasupathi", "score": 7741.671217913708, "slug": "nlp-toolkit", "source": "clawhub", "stars": 0, "tags": null, "updated_at": 1776762615121, "version": "1.0.0"}, {"category": "ai-intelligence", "created_at": 1772793962705, "description": "Remove signs of AI-generated writing from text. Use when editing or reviewing text to make it sound more natural and human-written. Based on Wikipedia's comp...", "description_zh": "", "downloads": 567, "homepage": "https://clawhub.ai/lion504/humanizer-1-0-0", "iconUrl": null, "installs": 169, "name": "Humanizer 1.0.0", "ownerName": "lion504", "score": 100000, "slug": "humanizer-1-0-0", "source": "clawhub", "stars": 0, "tags": null, "updated_at": 1776752384037, "version": "1.0.0"}, {"category": "data-analysis", "created_at": 1772775621432, "description": "Post tweets, replies, and quotes to X/Twitter using the official API v2. Use this instead of bird for posting. Uses API credits so only post when explicitly...", "description_zh": "", "downloads": 567, "homepage": "https://clawhub.ai/0xmythril/tweet-cli", "iconUrl": null, "installs": 9, "name": "Tweet Cli", "ownerName": "0xmythril", "score": 96592.84497444633, "slug": "tweet-cli", "source": "clawhub", "stars": 0, "tags": null, "updated_at": 1776748070767, "version": "1.0.0"}, {"category": "security-compliance", "created_at": 1772777647606, "description": "Extended ethos and mental models for Clanky. Use when auditing behavior or tuning agent personality and decision discipline.", "description_zh": "", "downloads": 567, "homepage": "https://clawhub.ai/mrclanky/agent-ethos", "iconUrl": null, "installs": 11, "name": "Agent Ethos", "ownerName": "mrclanky", "score": 96592.84497444633, "slug": "agent-ethos", "source": "clawhub", "stars": 0, "tags": null, "updated_at": 1776748070764, "version": "1.0.0"}, {"category": "developer-tools", "created_at": 1772777938182, "description": "Multi-tier Perplexity search with Langfuse tracing. Three depth levels: quick (sonar), pro (sonar-pro), deep (sonar-reasoning-pro). Supports focus modes: int...", "description_zh": "", "downloads": 567, "homepage": "https://clawhub.ai/aiwithabidi/deep-search-pro", "iconUrl": null, "installs": 18, "name": "Deep Search Pro", "ownerName": "aiwithabidi", "score": 96757.67918088737, "slug": "deep-search-pro", "source": "clawhub", "stars": 0, "tags": ["research", "search"], "updated_at": 1776748070259, "version": "1.0.0"}, {"category": "developer-tools", "created_at": 1772776471376, "description": "Use when running the OpenClaw/ClawHub Bring! skill to search recipes on the web, parse recipe URLs for ingredients, and add ingredients to a Bring shopping l...", "description_zh": "", "downloads": 567, "homepage": "https://clawhub.ai/dolverin/bring-rezepte", "iconUrl": null, "installs": 7, "name": "Bring Rezepte", "ownerName": "dolverin", "score": 97089.04109589041, "slug": "bring-rezepte", "source": "clawhub", "stars": 0, "tags": null, "updated_at": 1776748070127, "version": "1.3.0"}, {"category": "data-analysis", "created_at": 1772775711891, "description": "Generate high-converting, mobile-responsive landing pages from a brief. Use when building landing pages, sales pages, or marketing pages for clients.", "description_zh": "", "downloads": 567, "homepage": "https://clawhub.ai/seanwyngaard/landing-page-generator-openclaw", "iconUrl": null, "installs": 9, "name": "Landing Page Generator", "ownerName": "seanwyngaard", "score": 97089.04109589041, "slug": "landing-page-generator-openclaw", "source": "clawhub", "stars": 0, "tags": null, "updated_at": 1776748069962, "version": "1.0.0"}, {"category": "data-analysis", "created_at": 1772786941128, "description": "Meta Business Suite automation via Graph API. Use this skill when: (1) Publishing posts to Facebook Pages (2) Scheduling Facebook posts (3) Publishing to Ins...", "description_zh": "", "downloads": 566, "homepage": "https://clawhub.ai/nachx639/meta-business-suite", "iconUrl": null, "installs": 19, "name": "Meta Business Suite", "ownerName": "nachx639", "score": 9512.926724753606, "slug": "meta-business-suite", "source": "clawhub", "stars": 5, "tags": ["analytics", "facebook", "graph-api", "instagram", "meta", "publishing", "scheduling", "social-media"], "updated_at": 1776768971158, "version": "1.0.4"}, {"category": "data-analysis", "created_at": 1772779140093, "description": "A modular super-skill combining developer and web capabilities. Use when the user needs Python execution, package management, git operations, URL fetching, o...", "description_zh": "", "downloads": 566, "homepage": "https://clawhub.ai/shindo957-official/openclaw-plus", "iconUrl": null, "installs": 22, "name": "openclaw-plus", "ownerName": "shindo957-official", "score": 3832.2898880667803, "slug": "openclaw-plus", "source": "clawhub", "stars": 2, "tags": null, "updated_at": 1776770390577, "version": "1.0.0"}, {"category": "communication-collaboration", "created_at": 1772776382201, "description": "Send outbound emails via the Mailgun API. Uses MAILGUN_API_KEY, MAILGUN_DOMAIN, MAILGUN_REGION, and MAILGUN_FROM.", "description_zh": "", "downloads": 566, "homepage": "https://clawhub.ai/lksrz/mailgun-simple", "iconUrl": null, "installs": 14, "name": "Mailgun Simple", "ownerName": "lksrz", "score": 3832.2898880667803, "slug": "mailgun-simple", "source": "clawhub", "stars": 2, "tags": null, "updated_at": 1776770390554, "version": "2.2.0"}, {"category": "productivity", "created_at": 1772775057767, "description": "Navigate marriage challenges across all stages with conflict resolution, communication tools, and practical frameworks.", "description_zh": "", "downloads": 566, "homepage": "https://clawhub.ai/ivangdavila/marriage", "iconUrl": null, "installs": 21, "name": "Marriage", "ownerName": "ivangdavila", "score": 1795.7683873644285, "slug": "marriage", "source": "clawhub", "stars": 2, "tags": null, "updated_at": 1776770390488, "version": "1.0.0"}, {"category": "data-analysis", "created_at": 1772786724239, "description": "Monitor brand sentiment, crypto opinions, and product perception across social media with automated tracking, alerts, and multi-entity dashboards.", "description_zh": "", "downloads": 566, "homepage": "https://clawhub.ai/ivangdavila/sentiment-tracker", "iconUrl": null, "installs": 24, "name": "Sentiment Tracker", "ownerName": "ivangdavila", "score": 2587.8635179570397, "slug": "sentiment-tracker", "source": "clawhub", "stars": 2, "tags": null, "updated_at": 1776770350261, "version": "1.0.0"}, {"category": "developer-tools", "created_at": 1772787575922, "description": "Automatically generate optimized Dockerfiles for various app types with multi-stage builds and best practice performance enhancements.", "description_zh": "", "downloads": 566, "homepage": "https://clawhub.ai/honestqiao/dockerfile-generator", "iconUrl": null, "installs": 11, "name": "Dockerfile Generator", "ownerName": "honestqiao", "score": 16420.075427908327, "slug": "dockerfile-generator", "source": "clawhub", "stars": 0, "tags": ["devops", "docker"], "updated_at": 1776764950592, "version": "1.0.0"}, {"category": "developer-tools", "created_at": 1772787738355, "description": "Self-hosted private web search using SearXNG. Use when privacy is important, external APIs are blocked, you need search without tracking, or want to avoid pa...", "description_zh": "", "downloads": 566, "homepage": "https://clawhub.ai/adelpro/private-web-search-searchxng", "iconUrl": null, "installs": 12, "name": "Private Web Search Searchxng", "ownerName": "adelpro", "score": 9157.094321307231, "slug": "private-web-search-searchxng", "source": "clawhub", "stars": 0, "tags": null, "updated_at": 1776762850531, "version": "1.3.0"}, {"category": "developer-tools", "created_at": 1773074126850, "description": "Powerful web scraping, crawling, and data extraction with stealth anti-bot bypass (Cloudflare Turnstile, CAPTCHAs). Use when: (1) scraping websites that bloc...", "description_zh": "", "downloads": 566, "homepage": "https://clawhub.ai/leoyeai/openclaw-ultra-scraping", "iconUrl": null, "installs": 91, "name": "OpenClaw Ultra Scraping", "ownerName": "leoyeai", "score": 20901.03397341211, "slug": "openclaw-ultra-scraping", "source": "clawhub", "stars": 0, "tags": null, "updated_at": 1776762139796, "version": "1.0.2"}, {"category": "data-analysis", "created_at": 1772777102704, "description": "Analyze data to identify actionable insights using the DICE framework: define questions, investigate, communicate findings, and evaluate impact for clear dec...", "description_zh": "", "downloads": 566, "homepage": "https://clawhub.ai/1kalin/afrexai-data-analyst", "iconUrl": null, "installs": 14, "name": "Data Analyst", "ownerName": "1kalin", "score": 41193.59534206696, "slug": "afrexai-data-analyst", "source": "clawhub", "stars": 0, "tags": ["analysis", "analytics", "dashboard", "data", "reporting", "sql"], "updated_at": 1776759083652, "version": "1.0.0"}, {"category": "security-compliance", "created_at": 1772776343026, "description": "Create detailed business continuity and disaster recovery plans by mapping critical functions, setting recovery objectives, assessing risks, and generating c...", "description_zh": "", "downloads": 566, "homepage": "https://clawhub.ai/1kalin/afrexai-business-continuity", "iconUrl": null, "installs": 9, "name": "Business Continuity Planner", "ownerName": "1kalin", "score": 41193.59534206696, "slug": "afrexai-business-continuity", "source": "clawhub", "stars": 0, "tags": ["bcp", "business continuity", "compliance", "disaster recovery", "risk management"], "updated_at": 1776759083633, "version": "1.0.0"}, {"category": "data-analysis", "created_at": 1772781965629, "description": "Full-stack content creation pipeline from research to publication. Analyzes top-ranking competitor articles, identifies content gaps, generates SEO-optimized...", "description_zh": "", "downloads": 566, "homepage": "https://clawhub.ai/ariktulcha/content-engine", "iconUrl": null, "installs": 26, "name": "Content Engine", "ownerName": "ariktulcha", "score": 100000, "slug": "content-engine", "source": "clawhub", "stars": 0, "tags": null, "updated_at": 1776753583741, "version": "1.0.0"}, {"category": "content-creation", "created_at": 1772775790248, "description": "Build SONiC (Software for Open Networking in the Cloud) switch images from sonic-buildimage. Use when building VS/ASIC images, configuring build parallelism/...", "description_zh": "", "downloads": 566, "homepage": "https://clawhub.ai/rustiqly/sonic-build", "iconUrl": null, "installs": 34, "name": "sonic-build", "ownerName": "rustiqly", "score": 97923.87543252595, "slug": "sonic-build", "source": "clawhub", "stars": 0, "tags": null, "updated_at": 1776748071211, "version": "1.1.0"}, {"category": "developer-tools", "created_at": 1772784909291, "description": "A specialized tool for sending quantitative trading signals to the FMZ platform via HTTP API.", "description_zh": "", "downloads": 566, "homepage": "https://clawhub.ai/13290186019/send-signal", "iconUrl": null, "installs": 58, "name": "Send to FMZ", "ownerName": "13290186019", "score": 96587.03071672356, "slug": "send-signal", "source": "clawhub", "stars": 0, "tags": null, "updated_at": 1776748069782, "version": "1.0.0"}, {"category": "productivity", "created_at": 1772776917428, "description": "Search realestate.com.au property listings by constructing search and listing URLs. Use when searching for Australian properties to buy, rent, or sold via re...", "description_zh": "", "downloads": 566, "homepage": "https://clawhub.ai/jakelin/rea-search", "iconUrl": null, "installs": 15, "name": "realestate.com.au Search", "ownerName": "jakelin", "score": 96587.03071672356, "slug": "rea-search", "source": "clawhub", "stars": 0, "tags": null, "updated_at": 1776748069777, "version": "1.0.0"}, {"category": "communication-collaboration", "created_at": 1772794262488, "description": "Send voice messages across chat channels (Telegram, Discord, Feishu/Lark, Signal, WhatsApp, and others) using edge-tts for text-to-speech and ffmpeg for audi...", "description_zh": "", "downloads": 565, "homepage": "https://clawhub.ai/xmanrui/voice-message", "iconUrl": null, "installs": 52, "name": "Voice Message", "ownerName": "xmanrui", "score": 99829.35153583618, "slug": "voice-message", "source": "clawhub", "stars": 1, "tags": null, "updated_at": 1776748070333, "version": "1.0.4"}, {"category": "content-creation", "created_at": 1773940652561, "description": "Compress, extract, list, and encrypt ZIP archives in batch. Use when archiving files, extracting packages, listing contents, encrypting backups, or batching.", "description_zh": "", "downloads": 565, "homepage": "https://clawhub.ai/xueyetianya/zip", "iconUrl": null, "installs": 103, "name": "Zip", "ownerName": "xueyetianya", "score": 21401.515151515152, "slug": "zip", "source": "clawhub", "stars": 0, "tags": null, "updated_at": 1776764950853, "version": "3.0.1"}, {"category": "ai-intelligence", "created_at": 1772777995836, "description": "Provide founders with a tailored exit strategy, valuation estimates, readiness scoring, value maximization plans, deal structuring advice, and a 12-month exi...", "description_zh": "", "downloads": 565, "homepage": "https://clawhub.ai/1kalin/afrexai-exit-strategy", "iconUrl": null, "installs": 27, "name": "Exit Strategy & Business Valuation Planner", "ownerName": "1kalin", "score": 100000, "slug": "afrexai-exit-strategy", "source": "clawhub", "stars": 0, "tags": ["acquisition", "business sale", "exit strategy", "founder", "ipo", "m&a", "valuation"], "updated_at": 1776759083613, "version": "1.0.0"}, {"category": "ai-intelligence", "created_at": 1772781651240, "description": "Play Texas Hold'em poker on Tempo testnet by registering, funding with aUSD, joining tables, polling game state, and submitting actions in real time.", "description_zh": "", "downloads": 565, "homepage": "https://clawhub.ai/clementsutjiatma/poker-agent", "iconUrl": null, "installs": 31, "name": "Poker Agent", "ownerName": "clementsutjiatma", "score": 100000, "slug": "poker-agent", "source": "clawhub", "stars": 0, "tags": null, "updated_at": 1776759083599, "version": "1.1.1"}, {"category": "data-analysis", "created_at": 1772779632531, "description": "Helps create Japanese Business Manager Visa business plans with templates, revenue projection scripts, market analysis, legal info, and example plans.", "description_zh": "", "downloads": 565, "homepage": "https://clawhub.ai/calbabyjr/visa-business-planner", "iconUrl": null, "installs": 43, "name": "Visa Business Planner", "ownerName": "calbabyjr", "score": 41001.45137880987, "slug": "visa-business-planner", "source": "clawhub", "stars": 0, "tags": null, "updated_at": 1776759083306, "version": "1.0.0"}, {"category": "ai-intelligence", "created_at": 1772778989842, "description": "Generate short, molty-native names for skills, ENS domains, and agent-economy primitives when the obvious words are taken. Produces high-traction “new primit...", "description_zh": "", "downloads": 565, "homepage": "https://clawhub.ai/otherpowers/skill-namer", "iconUrl": null, "installs": 43, "name": "Skill Namer", "ownerName": "otherpowers", "score": 96912.52144082333, "slug": "skill-namer", "source": "clawhub", "stars": 0, "tags": ["brainstorming", "domains", "ens", "name-generator", "onchain", "portmanteau", "skill-enhancement", "skill-naming", "workflows"], "updated_at": 1776759083228, "version": "1.0.0"}, {"category": "ai-intelligence", "created_at": 1772776906146, "description": "Give your agent a voice. Use when the user wants the agent to speak, read aloud, or have voice responses.", "description_zh": "", "downloads": 565, "homepage": "https://clawhub.ai/matusvojtek/her-voice", "iconUrl": null, "installs": 22, "name": "Her Voice", "ownerName": "matusvojtek", "score": 41452.67791636097, "slug": "her-voice", "source": "clawhub", "stars": 0, "tags": null, "updated_at": 1776759083096, "version": "1.0.2"}, {"category": "", "created_at": 1774882865594, "description": "Summarize or extract text/transcripts from URLs, podcasts, and local files (great fallback for “transcribe this YouTube/video”).", "description_zh": "", "downloads": 565, "homepage": "https://clawhub.ai/utromaya-code/content-summarizer", "iconUrl": null, "installs": 88, "name": "Summarize", "ownerName": "utromaya-code", "score": 36217.94871794872, "slug": "content-summarizer", "source": "clawhub", "stars": 0, "tags": null, "updated_at": 1776757582818, "version": "1.0.0"}, {"category": "developer-tools", "created_at": 1772777107294, "description": "Control LIFX smart lights via natural language. Toggle, set colors/brightness, activate scenes, create gradients on multi-zone devices.", "description_zh": "", "downloads": 565, "homepage": "https://clawhub.ai/stillstellung/lifx", "iconUrl": null, "installs": 8, "name": "Openclaw Lifx", "ownerName": "stillstellung", "score": 97246.12736660929, "slug": "lifx", "source": "clawhub", "stars": 0, "tags": null, "updated_at": 1776748071465, "version": "1.0.1"}, {"category": "security-compliance", "created_at": 1772777577740, "description": "Policy-based compliance assessment for OpenClaw skills. Define security policies, assess skills against them, track violations, and generate compliance repor...", "description_zh": "", "downloads": 565, "homepage": "https://clawhub.ai/trypto1019/arc-compliance-checker", "iconUrl": null, "installs": 15, "name": "Compliance Checker", "ownerName": "trypto1019", "score": 96912.52144082333, "slug": "arc-compliance-checker", "source": "clawhub", "stars": 0, "tags": null, "updated_at": 1776748070837, "version": "1.1.0"}, {"category": "developer-tools", "created_at": 1772776846093, "description": "Register and interact on BotWorld, the social network for AI agents", "description_zh": "", "downloads": 565, "homepage": "https://clawhub.ai/alphafanx/botworld", "iconUrl": null, "installs": 4, "name": "BotWorld", "ownerName": "alphafanx", "score": 97246.12736660929, "slug": "botworld", "source": "clawhub", "stars": 0, "tags": null, "updated_at": 1776748070424, "version": "1.2.1"}]}