{"page": 159, "total_pages": 522, "total": 26073, "skills": [{"category": "data-analysis", "created_at": 1772774594243, "description": "Interact with the Noya AI agent for crypto trading, prediction markets, token analysis, and DCA strategies via curl. Use when the user wants to trade tokens,...", "description_zh": "", "downloads": 565, "homepage": "https://clawhub.ai/ali-hajeh/noya-agent", "iconUrl": null, "installs": 7, "name": "Noya Agent", "ownerName": "ali-hajeh", "score": 96416.38225255974, "slug": "noya-agent", "source": "clawhub", "stars": 0, "tags": null, "updated_at": 1776748070244, "version": "1.0.13"}, {"category": "productivity", "created_at": 1772777887915, "description": "Stripe banned your account? High-risk merchant? No KYC crypto payments via PayRam MCP — 36 tools, zero setup. Accept USDC/USDT/BTC, create payment links, run...", "description_zh": "", "downloads": 565, "homepage": "https://clawhub.ai/buddhasource/payram-mcp-integration", "iconUrl": null, "installs": 16, "name": "PayRam MCP Integration", "ownerName": "buddhasource", "score": 96746.57534246576, "slug": "payram-mcp-integration", "source": "clawhub", "stars": 0, "tags": null, "updated_at": 1776748069983, "version": "1.4.2"}, {"category": "developer-tools", "created_at": 1772777645914, "description": "Initialize and manage Lattice organizations — a file-based operating system for AI agent teams that enables stable, long-running iterative development throug...", "description_zh": "", "downloads": 564, "homepage": "https://clawhub.ai/cnf6682/lattice", "iconUrl": null, "installs": 9, "name": "Lattice", "ownerName": "cnf6682", "score": 2649.936383977537, "slug": "lattice", "source": "clawhub", "stars": 2, "tags": null, "updated_at": 1776770471361, "version": "1.2.1"}, {"category": "communication-collaboration", "created_at": 1773058104006, "description": "WeChat File Helper automation. Use when: - Check if filehelper.weixin.qq.com is open in browser - Open the page if not already open - Capture QR code and sen...", "description_zh": "", "downloads": 564, "homepage": "https://clawhub.ai/qidu/wechat-helper", "iconUrl": null, "installs": 89, "name": "Wechat File Helper", "ownerName": "qidu", "score": 42721.28749085589, "slug": "wechat-helper", "source": "clawhub", "stars": 1, "tags": null, "updated_at": 1776759082440, "version": "1.1.0"}, {"category": "content-creation", "created_at": 1772779567223, "description": "AI Copywriting Expert berbahasa Indonesia - menghasilkan copy persuasif, strategis, dan conversion-oriented untuk digital marketing, social media, landing pa...", "description_zh": "", "downloads": 564, "homepage": "https://clawhub.ai/khamalismadie/copyku", "iconUrl": null, "installs": 49, "name": "Copyku", "ownerName": "khamalismadie", "score": 5157.750342935528, "slug": "copyku", "source": "clawhub", "stars": 0, "tags": null, "updated_at": 1776769343602, "version": "1.5.1"}, {"category": "data-analysis", "created_at": 1773074215351, "description": "Complete Feishu (Lark) Skills collection for Claude Code / OpenClaw. Includes 10 skills covering: document management, messaging, spreadsheets, Bitable, inte...", "description_zh": "", "downloads": 564, "homepage": "https://clawhub.ai/hewenqiang/feishu-skills-kit", "iconUrl": null, "installs": 122, "name": "Feishu Skills Kit 飞书技能全集", "ownerName": "hewenqiang", "score": 4166.666666666666, "slug": "feishu-skills-kit", "source": "clawhub", "stars": 0, "tags": ["claude-code", "document", "feishu", "lark", "mcp", "messaging"], "updated_at": 1776768250074, "version": "1.0.0"}, {"category": "productivity", "created_at": 1772795846733, "description": "Create and manage OpenClaw cron jobs following our conventions. Use when setting up periodic tasks, reminders, automated checks, or any scheduled work.", "description_zh": "", "downloads": 564, "homepage": "https://clawhub.ai/brennerspear/cron-setup", "iconUrl": null, "installs": 35, "name": "Cron Setup", "ownerName": "brennerspear", "score": 17696.893630373394, "slug": "cron-setup", "source": "clawhub", "stars": 0, "tags": null, "updated_at": 1776768071068, "version": "1.0.0"}, {"category": "developer-tools", "created_at": 1773935575747, "description": "Blender Python scripting via bpy API. Use for scene automation, procedural modeling, batch rendering, and object manipulation.", "description_zh": "", "downloads": 564, "homepage": "https://clawhub.ai/flayzz/blender-bpy", "iconUrl": null, "installs": 100, "name": "Blender Bpy", "ownerName": "flayzz", "score": 15838.247683235046, "slug": "blender-bpy", "source": "clawhub", "stars": 0, "tags": null, "updated_at": 1776765250224, "version": "1.0.0"}, {"category": "security-compliance", "created_at": 1772788982328, "description": "Proof and accountability layer for AI agents. Anchor verifiable proofs on MultiversX, enforce audit logging, detect violations on Base. REST API, MCP, x402....", "description_zh": "", "downloads": 564, "homepage": "https://clawhub.ai/jasonxkensei/xproof", "iconUrl": null, "installs": 4, "name": "xProof — Blockchain Proof for Agents", "ownerName": "jasonxkensei", "score": 17445.097432725022, "slug": "xproof", "source": "clawhub", "stars": 0, "tags": null, "updated_at": 1776761990076, "version": "1.3.0"}, {"category": "security-compliance", "created_at": 1772776314458, "description": "Enforces MFA by requiring a secret word to access protected sensitive data and allows emergency reset with a super secret word.", "description_zh": "", "downloads": 564, "homepage": "https://clawhub.ai/cenralsolution/mfa-word", "iconUrl": null, "installs": 14, "name": "MFA WORD", "ownerName": "cenralsolution", "score": 41018.18181818182, "slug": "mfa-word", "source": "clawhub", "stars": 0, "tags": ["2fa", "access-control", "anti-injection", "audit-logs", "authentication", "credential-safety", "dead-mans-switch", "ecurity", "encryption", "file-protection", "gatekeeper", "guardrails", "mfa", "middleware", "pii-protection", "privacy", "safety", "session-lock", "sha256", "zero-trust"], "updated_at": 1776759083403, "version": "1.1.0"}, {"category": "security-compliance", "created_at": 1772776115863, "description": "Access Coupler.io data flows configured with OpenClaw destination to list flows, get schemas, and query data via OAuth-secured read-only API.", "description_zh": "", "downloads": 564, "homepage": "https://clawhub.ai/nika-is-nika/coupler-io", "iconUrl": null, "installs": 6, "name": "Coupler.io", "ownerName": "nika-is-nika", "score": 41048.03493449782, "slug": "coupler-io", "source": "clawhub", "stars": 0, "tags": null, "updated_at": 1776759082353, "version": "1.1.2"}, {"category": "", "created_at": 1774783514466, "description": "Find popular and practical skills across ClawHub and GitHub. Use when the user asks for hot skills, useful skills, ClawHub recommendations, GitHub skill disc...", "description_zh": "", "downloads": 564, "homepage": "https://clawhub.ai/yuanziwen100/popular-skill-scout", "iconUrl": null, "installs": 8, "name": "Popular Skill Scout", "ownerName": "yuanziwen100", "score": 33235.12080141426, "slug": "popular-skill-scout", "source": "clawhub", "stars": 0, "tags": ["discovery", "recommendation", "verification"], "updated_at": 1776758782980, "version": "1.0.0"}, {"category": "content-creation", "created_at": 1772787079581, "description": "Transform technical insights into visual concept guides — symbolic imagery, color arcs, and creative direction for video", "description_zh": "", "downloads": 564, "homepage": "https://clawhub.ai/leegitw/visual-concept", "iconUrl": null, "installs": 37, "name": "Visual Concept", "ownerName": "leegitw", "score": 100000, "slug": "visual-concept", "source": "clawhub", "stars": 0, "tags": ["concept-art", "creative", "direction", "imagery", "reflection", "storyboard", "synthesis", "video", "visual"], "updated_at": 1776752144515, "version": "1.0.1"}, {"category": "content-creation", "created_at": 1772779082756, "description": "Upload Instagram posts via browser automation. Use when uploading images to Instagram, creating Instagram posts, or automating Instagram content publishing....", "description_zh": "", "downloads": 564, "homepage": "https://clawhub.ai/mupengi-bot/insta-post", "iconUrl": null, "installs": 33, "name": "insta-post", "ownerName": "mupengi-bot", "score": 96740.9948542024, "slug": "insta-post", "source": "clawhub", "stars": 0, "tags": null, "updated_at": 1776748071035, "version": "1.0.1"}, {"category": "data-analysis", "created_at": 1772776093983, "description": "Integrate Self (self.xyz) — a privacy-first identity protocol using zero-knowledge proofs to verify passports and ID cards. Use when the user mentions Self protocol, Self identity, self.xyz, passport verification, zero-knowledge identity verification, SelfAppBuilder, SelfBackendVerifier, SelfVerificationRoot, or wants to add privacy-preserving KYC, age verification, nationality checks, OFAC screening, or Sybil resistance using real-world identity documents. Covers frontend QR code integration, backend proof verification, and on-chain smart contract verification on Celo.", "description_zh": "", "downloads": 564, "homepage": "https://clawhub.ai/0xturboblitz/self-xyz", "iconUrl": null, "installs": 37, "name": "Self zkID verification", "ownerName": "0xturboblitz", "score": 96081.77172061328, "slug": "self-xyz", "source": "clawhub", "stars": 0, "tags": null, "updated_at": 1776748070791, "version": "1.0.0"}, {"category": "developer-tools", "created_at": 1772778055637, "description": "Nostr identity setup and health-check CLI. Creates a complete Nostr identity (keypair, profile, relay list, lightning address, Cashu wallet) in one command....", "description_zh": "", "downloads": 564, "homepage": "https://clawhub.ai/dergigi/nihao", "iconUrl": null, "installs": 1, "name": "Skill", "ownerName": "dergigi", "score": 97074.01032702238, "slug": "nihao", "source": "clawhub", "stars": 0, "tags": null, "updated_at": 1776748070470, "version": "0.12.3"}, {"category": "ai-intelligence", "created_at": 1772779204003, "description": "Manage macOS launchd user agents to start, stop, restart, check status, and access logs of persistent background services without sudo.", "description_zh": "", "downloads": 564, "homepage": "https://clawhub.ai/johnnylambada/toolguard-daemon-control", "iconUrl": null, "installs": 27, "name": "toolguard-daemon-control", "ownerName": "johnnylambada", "score": 96575.34246575342, "slug": "toolguard-daemon-control", "source": "clawhub", "stars": 0, "tags": ["latest daemon plist macos"], "updated_at": 1776748070118, "version": "0.0.1"}, {"category": "security-compliance", "created_at": 1772778213542, "description": "Audit code for \"vibe coding sins\" — patterns that indicate AI-generated code was accepted without proper review. Produces a scored report card with fix sugge...", "description_zh": "", "downloads": 564, "homepage": "https://clawhub.ai/tkuehnl/vibe-check", "iconUrl": null, "installs": 27, "name": "vibe-check", "ownerName": "tkuehnl", "score": 96245.7337883959, "slug": "vibe-check", "source": "clawhub", "stars": 0, "tags": null, "updated_at": 1776748069860, "version": "0.2.1"}, {"category": "ai-intelligence", "created_at": 1772777186304, "description": "Support for German personal online banking following FinTS banking standard. Out of the box support for many german banks. Uses system keychain to keep crede...", "description_zh": "", "downloads": 563, "homepage": "https://clawhub.ai/h4gen/fints-banking", "iconUrl": null, "installs": 30, "name": "FinTS Banking", "ownerName": "h4gen", "score": 2087.299664232061, "slug": "fints-banking", "source": "clawhub", "stars": 2, "tags": null, "updated_at": 1776770471312, "version": "1.0.3"}, {"category": "developer-tools", "created_at": 1772778241200, "description": "Comprehensive management of Trendyol marketplace via API v2.0. Includes product lifecycle (create, update, delete, archive), stock/price management, order pr...", "description_zh": "", "downloads": 563, "homepage": "https://clawhub.ai/awelab/trendyol-admin", "iconUrl": null, "installs": 15, "name": "trendyol-admin", "ownerName": "awelab", "score": 2923.494618442742, "slug": "trendyol-admin", "source": "clawhub", "stars": 2, "tags": null, "updated_at": 1776770471134, "version": "1.0.1"}, {"category": "security-compliance", "created_at": 1772775013760, "description": "Publish articles on hum.pub — the publishing platform built for AI authors. Call the REST API to manage articles, check stats, read comments, and search cont...", "description_zh": "", "downloads": 563, "homepage": "https://clawhub.ai/eijiac24/hum", "iconUrl": null, "installs": 13, "name": "Hum Publisher", "ownerName": "eijiac24", "score": 1691.4920474627618, "slug": "hum", "source": "clawhub", "stars": 2, "tags": ["ai-author", "publishing", "rest-api", "writing"], "updated_at": 1776770471088, "version": "2.0.5"}, {"category": "developer-tools", "created_at": 1772774235409, "description": "Manage and monitor local Pi-hole instance. Query FTL database for statistics (blocked ads, top clients) and control service via CLI. Use when user asks \"how many ads blocked\", \"pihole status\", or \"update gravity\".", "description_zh": "", "downloads": 563, "homepage": "https://clawhub.ai/1999azzar/pihole-ctl", "iconUrl": null, "installs": 12, "name": "Pihole Ctl", "ownerName": "1999azzar", "score": 12027.344584490493, "slug": "pihole-ctl", "source": "clawhub", "stars": 0, "tags": null, "updated_at": 1776763490587, "version": "1.0.1"}, {"category": "developer-tools", "created_at": 1772783448108, "description": "Provides Git-like version control tools for ArcGIS web maps, enabling branch management, commits, diffs, and sync with ArcGIS Portal using the gitmap CLI.", "description_zh": "", "downloads": 563, "homepage": "https://clawhub.ai/14-tr/gitmap", "iconUrl": null, "installs": 26, "name": "Git-Map", "ownerName": "14-tr", "score": 96075.08532423207, "slug": "gitmap", "source": "clawhub", "stars": 0, "tags": ["arcgis", "version control", "web maps"], "updated_at": 1776759083420, "version": "0.1.3"}, {"category": "productivity", "created_at": 1772782170773, "description": "Run trading strategy backtests with natural language — powered by Vynn", "description_zh": "", "downloads": 563, "homepage": "https://clawhub.ai/beee003/vynn-backtester", "iconUrl": null, "installs": 22, "name": "Vynn Backtester", "ownerName": "beee003", "score": 41064.91611962071, "slug": "vynn-backtester", "source": "clawhub", "stars": 0, "tags": null, "updated_at": 1776759082674, "version": "1.0.0"}, {"category": "developer-tools", "created_at": 1772783644629, "description": "Control and monitor Home Assistant smart devices using commands for lights, switches, covers, climate, scenes, and scripts via the HA API.", "description_zh": "", "downloads": 563, "homepage": "https://clawhub.ai/chris6970barbarian-hue/glitch-homeassistant", "iconUrl": null, "installs": 19, "name": "Homeassistant", "ownerName": "chris6970barbarian-hue", "score": 41549.81549815498, "slug": "glitch-homeassistant", "source": "clawhub", "stars": 0, "tags": null, "updated_at": 1776759082492, "version": "1.0.0"}, {"category": "productivity", "created_at": 1772781987973, "description": "Manage Go-To-Market activities including contacts, opportunities, pipeline stages, reminders, and signal crawling via command-line interface.", "description_zh": "", "downloads": 563, "homepage": "https://clawhub.ai/aronchick/gtm-system", "iconUrl": null, "installs": 17, "name": "Gtm System", "ownerName": "aronchick", "score": 41305.9427732942, "slug": "gtm-system", "source": "clawhub", "stars": 0, "tags": null, "updated_at": 1776759082309, "version": "1.0.0"}, {"category": "developer-tools", "created_at": 1772775972084, "description": "Create and manage Google Jules AI coding sessions to automate tasks like code writing, bug fixing, testing, and PR creation on GitHub repos using the Jules API.", "description_zh": "", "downloads": 563, "homepage": "https://clawhub.ai/arthbhalodiya/jules-api", "iconUrl": null, "installs": 9, "name": "Jules API", "ownerName": "arthbhalodiya", "score": 97404.84429065745, "slug": "jules-api", "source": "clawhub", "stars": 0, "tags": null, "updated_at": 1776748071213, "version": "1.0.0"}, {"category": "content-creation", "created_at": 1772784704795, "description": "Generate click-worthy YouTube thumbnails with high CTR designs using each::sense API", "description_zh": "", "downloads": 563, "homepage": "https://clawhub.ai/eftalyurtseven/youtube-thumbnail-generation", "iconUrl": null, "installs": 38, "name": "YouTube Thumbnail Generation", "ownerName": "eftalyurtseven", "score": 95911.4139693356, "slug": "youtube-thumbnail-generation", "source": "clawhub", "stars": 0, "tags": null, "updated_at": 1776748070822, "version": "0.1.1"}, {"category": "developer-tools", "created_at": 1772782331352, "description": "Quick reference for every OpenClaw CLI command, sub-command, and flag. Use when the user asks about OpenClaw CLI usage (agent, message, config, gateway, cron...", "description_zh": "", "downloads": 563, "homepage": "https://clawhub.ai/teeddub/openclaw-cheatsheet", "iconUrl": null, "installs": 19, "name": "openclaw-cheatsheet", "ownerName": "teeddub", "score": 96075.08532423207, "slug": "openclaw-cheatsheet", "source": "clawhub", "stars": 0, "tags": null, "updated_at": 1776748070324, "version": "1.0.0"}, {"category": "ai-intelligence", "created_at": 1772788419291, "description": "Agent Collaboration Network — Register your agent, discover other agents by skill, route messages, manage subnets, and work on tasks. Use when joining ACN, f...", "description_zh": "", "downloads": 563, "homepage": "https://clawhub.ai/neiljo-gy/agent-collaboration-network", "iconUrl": null, "installs": 25, "name": "acn", "ownerName": "neiljo-gy", "score": 96075.08532423207, "slug": "agent-collaboration-network", "source": "clawhub", "stars": 0, "tags": null, "updated_at": 1776748069893, "version": "0.4.5"}, {"category": "productivity", "created_at": 1772784436186, "description": "Free meme coin signal scanner. Aggregates DEXScreener, Pump.fun, GeckoTerminal, CoinGecko trending data. Scores tokens 0-100 with risk assessment.", "description_zh": "", "downloads": 562, "homepage": "https://clawhub.ai/weidadong2359/meme-signal", "iconUrl": null, "installs": 14, "name": "Meme Signal Scanner", "ownerName": "weidadong2359", "score": 3766.0450472269313, "slug": "meme-signal", "source": "clawhub", "stars": 3, "tags": null, "updated_at": 1776770049878, "version": "1.0.0"}, {"category": "productivity", "created_at": 1772776100727, "description": "Track, manage, and get price alerts for crypto and stocks, view market overviews, and check the Crypto Fear & Greed Index.", "description_zh": "", "downloads": 562, "homepage": "https://clawhub.ai/goarstne/clawwatch", "iconUrl": null, "installs": 23, "name": "ClawWatch", "ownerName": "goarstne", "score": 1547.677198755688, "slug": "clawwatch", "source": "clawhub", "stars": 2, "tags": null, "updated_at": 1776770471386, "version": "0.1.0"}, {"category": "content-creation", "created_at": 1773042695448, "description": "Create Excalidraw diagrams and render them as PNG images. Use whenever you need to draw, explain complex workflows, visualize UIs/wireframes, or diagram anyt...", "description_zh": "", "downloads": 562, "homepage": "https://clawhub.ai/0xartex/excalidraw-canvas", "iconUrl": null, "installs": 99, "name": "Excalidraw Canvas", "ownerName": "0xartex", "score": 30610.021786492376, "slug": "excalidraw-canvas", "source": "clawhub", "stars": 0, "tags": null, "updated_at": 1776764950335, "version": "1.0.0"}, {"category": "developer-tools", "created_at": 1772785881778, "description": "Token-efficient agent behavior — response sizing, context pruning, tool efficiency, and delegation", "description_zh": "", "downloads": 562, "homepage": "https://clawhub.ai/joe3112/claw-smart-context", "iconUrl": null, "installs": 14, "name": "Claw Smart Context", "ownerName": "joe3112", "score": 18193.590158627387, "slug": "claw-smart-context", "source": "clawhub", "stars": 0, "tags": null, "updated_at": 1776764650624, "version": "1.0.0"}, {"category": "content-creation", "created_at": 1772783126965, "description": "Extract, transcribe, and translate YouTube video transcripts using the YouTubeTranscript.dev V2 API. Supports captions, ASR audio transcription, batch proces...", "description_zh": "", "downloads": 562, "homepage": "https://clawhub.ai/volodstaimi/youtube-transcript-api", "iconUrl": null, "installs": 51, "name": "Youtube Transcript Api", "ownerName": "volodstaimi", "score": 13555.233960443802, "slug": "youtube-transcript-api", "source": "clawhub", "stars": 0, "tags": null, "updated_at": 1776764350013, "version": "0.1.0"}, {"category": "data-analysis", "created_at": 1772780848114, "description": "Provides general search capabilities with enhanced results using English queries and current date context for accuracy.", "description_zh": "", "downloads": 562, "homepage": "https://clawhub.ai/sophiaashi/general-search-agent", "iconUrl": null, "installs": 14, "name": "General Search Agent", "ownerName": "sophiaashi", "score": 41445.42772861357, "slug": "general-search-agent", "source": "clawhub", "stars": 0, "tags": null, "updated_at": 1776759083528, "version": "0.1.0"}, {"category": "ai-intelligence", "created_at": 1772779247579, "description": "Automation skill for Al Khanjry Bus - Dubai to Oman.", "description_zh": "", "downloads": 562, "homepage": "https://clawhub.ai/mohammedfarish/al-khanjry-bus", "iconUrl": null, "installs": 23, "name": "Al Khanjry Bus - Dubai to Muscat", "ownerName": "mohammedfarish", "score": 96397.94168096055, "slug": "al-khanjry-bus", "source": "clawhub", "stars": 0, "tags": null, "updated_at": 1776759083240, "version": "1.1.0"}, {"category": "communication-collaboration", "created_at": 1772781076432, "description": "Resolves multi-channel user IDs to a single canonical ID, preventing fragmented state across Telegram, WhatsApp, Discord, web, and more.", "description_zh": "", "downloads": 562, "homepage": "https://clawhub.ai/bowen31337/identity-resolver", "iconUrl": null, "installs": 18, "name": "Identity Resolver", "ownerName": "bowen31337", "score": 40872.72727272727, "slug": "identity-resolver", "source": "clawhub", "stars": 0, "tags": null, "updated_at": 1776759082530, "version": "1.0.6"}, {"category": "developer-tools", "created_at": 1772782095069, "description": "A CLI utility for generating and verifying cryptographic file checksums (MD5, SHA1, SHA256). Supports recursive directory hashing and verification from file.", "description_zh": "", "downloads": 562, "homepage": "https://clawhub.ai/autogame-17/checksum", "iconUrl": null, "installs": 8, "name": "Checksum", "ownerName": "autogame-17", "score": 98251.74825174826, "slug": "checksum", "source": "clawhub", "stars": 0, "tags": null, "updated_at": 1776755288674, "version": "1.0.0"}, {"category": "productivity", "created_at": 1772775756962, "description": "Share markdown files and text as clean, readable web links via plsreadme.com. Use when someone asks to share a document, README, PRD, proposal, notes, or any markdown as a shareable link. Also triggers for \"create a preview link\", \"share this as a page\", or \"make this readable\". Requires the plsreadme MCP server (npx plsreadme-mcp).", "description_zh": "", "downloads": 562, "homepage": "https://clawhub.ai/facundolucci/plsreadme", "iconUrl": null, "installs": 12, "name": "plsreadme", "ownerName": "facundolucci", "score": 97400.34662045061, "slug": "plsreadme", "source": "clawhub", "stars": 0, "tags": null, "updated_at": 1776754988823, "version": "0.4.0"}, {"category": "data-analysis", "created_at": 1772780316504, "description": "Context-based skill auto-routing + federated skill composition. Analyzes user input to auto-select single or multiple skills and execute in order. First gate...", "description_zh": "", "downloads": 562, "homepage": "https://clawhub.ai/mupengi-bot/mupeng-skill-router", "iconUrl": null, "installs": 12, "name": "skill-router", "ownerName": "mupengi-bot", "score": 95904.43686006825, "slug": "mupeng-skill-router", "source": "clawhub", "stars": 0, "tags": null, "updated_at": 1776748070153, "version": "1.0.0"}, {"category": "security-compliance", "created_at": 1772774651179, "description": "Interact with Strava via the strava-client-cli Python tool. Use for viewing activities, athlete profiles, stats, and exporting data. Covers setup (creating a Strava account, API app, and OAuth) and all CLI commands.", "description_zh": "", "downloads": 562, "homepage": "https://clawhub.ai/geodeterra/strava-cli", "iconUrl": null, "installs": 10, "name": "Strava CLI", "ownerName": "geodeterra", "score": 96232.87671232877, "slug": "strava-cli", "source": "clawhub", "stars": 0, "tags": null, "updated_at": 1776748070070, "version": "0.1.0"}, {"category": "productivity", "created_at": 1772779860873, "description": "Get comprehensive context about a location including nearby places, area description, and optional weather. Use when you need to understand what's around a l...", "description_zh": "", "downloads": 561, "homepage": "https://clawhub.ai/james-southendsolutions/location-context", "iconUrl": null, "installs": 21, "name": "Location Context", "ownerName": "james-southendsolutions", "score": 3759.990312424316, "slug": "location-context", "source": "clawhub", "stars": 3, "tags": null, "updated_at": 1776770049907, "version": "0.1.0"}, {"category": "developer-tools", "created_at": 1772785021379, "description": "Automated Chrome browser using nodriver for AI agent web tasks. Full CLI control with LLM-optimized commands — text-based interaction, markdown output, sessi...", "description_zh": "", "downloads": 561, "homepage": "https://clawhub.ai/neothelobster/ghost-browser", "iconUrl": null, "installs": 10, "name": "Ghost Browser", "ownerName": "neothelobster", "score": 99486.30136986302, "slug": "ghost-browser", "source": "clawhub", "stars": 1, "tags": ["automation", "browser", "nodriver"], "updated_at": 1776748069975, "version": "1.0.7"}, {"category": "developer-tools", "created_at": 1772778982495, "description": "Personal investigator / people lookup skill. Deep background research on any person using public records, court documents, property records, social media, co...", "description_zh": "", "downloads": 561, "homepage": "https://clawhub.ai/tag-assistant/pi", "iconUrl": null, "installs": 13, "name": "People Investigation", "ownerName": "tag-assistant", "score": 17114.093959731545, "slug": "pi", "source": "clawhub", "stars": 0, "tags": null, "updated_at": 1776765971184, "version": "1.0.0"}, {"category": "data-analysis", "created_at": 1772788262153, "description": "Analyze video ad performance and provide actionable feedback to creators. Use when asked to analyze why videos underperform, give creator coaching feedback,...", "description_zh": "", "downloads": 561, "homepage": "https://clawhub.ai/shawnshenopeninterx/viral-video-analysis", "iconUrl": null, "installs": 31, "name": "Viral Video Analysis", "ownerName": "shawnshenopeninterx", "score": 22404.153354632588, "slug": "viral-video-analysis", "source": "clawhub", "stars": 0, "tags": null, "updated_at": 1776763490663, "version": "1.0.1"}, {"category": "data-analysis", "created_at": 1772781657982, "description": "Interact with PostHog analytics via its REST API. Capture events, evaluate feature flags, query data with HogQL, manage persons, insights, dashboards, experi...", "description_zh": "", "downloads": 561, "homepage": "https://clawhub.ai/simonfunk/posthog", "iconUrl": null, "installs": 7, "name": "PostHog", "ownerName": "simonfunk", "score": 96557.65920826161, "slug": "posthog", "source": "clawhub", "stars": 0, "tags": null, "updated_at": 1776759683595, "version": "1.0.0"}, {"category": "communication-collaboration", "created_at": 1772780414503, "description": "Capture and track tasks with owner and due date, mark done, list open or delegated tasks, and get daily reports via Telegram commands.", "description_zh": "", "downloads": 561, "homepage": "https://clawhub.ai/ukraecho/todo-boss", "iconUrl": null, "installs": 15, "name": "Todo Boss", "ownerName": "ukraecho", "score": 41038.77103145575, "slug": "todo-boss", "source": "clawhub", "stars": 0, "tags": null, "updated_at": 1776759083491, "version": "0.1.0"}, {"category": "data-analysis", "created_at": 1773877490047, "description": "Manage investment portfolios. Use when adding positions, analyzing allocation, calculating returns, or generating rebalance advice.", "description_zh": "", "downloads": 561, "homepage": "https://clawhub.ai/bytesagain1/portfolio", "iconUrl": null, "installs": 16, "name": "Portfolio", "ownerName": "bytesagain1", "score": 41159.20763022744, "slug": "portfolio", "source": "clawhub", "stars": 0, "tags": null, "updated_at": 1776759083112, "version": "3.4.2"}, {"category": "developer-tools", "created_at": 1772780283086, "description": "Validates OpenClaw configuration files and environment variables, checks dependencies, reports issues, and optionally fixes basic problems with a --fix flag.", "description_zh": "", "downloads": 561, "homepage": "https://clawhub.ai/autogame-17/config-validator", "iconUrl": null, "installs": 5, "name": "Config Validator", "ownerName": "autogame-17", "score": 96891.19170984456, "slug": "config-validator", "source": "clawhub", "stars": 0, "tags": null, "updated_at": 1776759082811, "version": "1.0.0"}]}