{"page": 16, "total_pages": 22, "total": 1089, "skills": [{"slug": "microsoft-azure-security-keyvault-keys-dotnet", "name": "microsoft/azure-security-keyvault-keys-dotnet", "description": "Cryptographic key management", "description_zh": "", "homepage": "https://officialskills.sh/microsoft/skills/azure-security-keyvault-keys-dotnet", "tags": [".NET Skills"], "category": ".NET Skills", "ownerName": "", "sources": ["VoltAgent/awesome-agent-skills"], "score": 350, "downloads": 0, "stars": 0, "installs": 0, "version": "", "updated_at": 0}, {"slug": "microsoft-azure-security-keyvault-keys-java", "name": "microsoft/azure-security-keyvault-keys-java", "description": "Cryptographic key management", "description_zh": "", "homepage": "https://officialskills.sh/microsoft/skills/azure-security-keyvault-keys-java", "tags": ["Java Skills"], "category": "Java Skills", "ownerName": "", "sources": ["VoltAgent/awesome-agent-skills"], "score": 349, "downloads": 0, "stars": 0, "installs": 0, "version": "", "updated_at": 0}, {"slug": "microsoft-azure-security-keyvault-secrets-java", "name": "microsoft/azure-security-keyvault-secrets-java", "description": "Secret management for passwords and keys", "description_zh": "", "homepage": "https://officialskills.sh/microsoft/skills/azure-security-keyvault-secrets-java", "tags": ["Java Skills"], "category": "Java Skills", "ownerName": "", "sources": ["VoltAgent/awesome-agent-skills"], "score": 348, "downloads": 0, "stars": 0, "installs": 0, "version": "", "updated_at": 0}, {"slug": "microsoft-azure-servicebus-dotnet", "name": "microsoft/azure-servicebus-dotnet", "description": "Enterprise messaging with queues and topics", "description_zh": "", "homepage": "https://officialskills.sh/microsoft/skills/azure-servicebus-dotnet", "tags": [".NET Skills"], "category": ".NET Skills", "ownerName": "", "sources": ["VoltAgent/awesome-agent-skills"], "score": 347, "downloads": 0, "stars": 0, "installs": 0, "version": "", "updated_at": 0}, {"slug": "microsoft-azure-servicebus-py", "name": "microsoft/azure-servicebus-py", "description": "Enterprise messaging with queues and topics", "description_zh": "", "homepage": "https://officialskills.sh/microsoft/skills/azure-servicebus-py", "tags": ["Python Skills"], "category": "Python Skills", "ownerName": "", "sources": ["VoltAgent/awesome-agent-skills"], "score": 346, "downloads": 0, "stars": 0, "installs": 0, "version": "", "updated_at": 0}, {"slug": "microsoft-azure-servicebus-ts", "name": "microsoft/azure-servicebus-ts", "description": "Messaging with queues and topics", "description_zh": "", "homepage": "https://officialskills.sh/microsoft/skills/azure-servicebus-ts", "tags": ["TypeScript Skills"], "category": "TypeScript Skills", "ownerName": "", "sources": ["VoltAgent/awesome-agent-skills"], "score": 345, "downloads": 0, "stars": 0, "installs": 0, "version": "", "updated_at": 0}, {"slug": "microsoft-azure-speech-to-text-rest-py", "name": "microsoft/azure-speech-to-text-rest-py", "description": "REST speech-to-text for short audio", "description_zh": "", "homepage": "https://officialskills.sh/microsoft/skills/azure-speech-to-text-rest-py", "tags": ["Python Skills"], "category": "Python Skills", "ownerName": "", "sources": ["VoltAgent/awesome-agent-skills"], "score": 344, "downloads": 0, "stars": 0, "installs": 0, "version": "", "updated_at": 0}, {"slug": "microsoft-azure-storage-blob-java", "name": "microsoft/azure-storage-blob-java", "description": "Blob storage for file management", "description_zh": "", "homepage": "https://officialskills.sh/microsoft/skills/azure-storage-blob-java", "tags": ["Java Skills"], "category": "Java Skills", "ownerName": "", "sources": ["VoltAgent/awesome-agent-skills"], "score": 343, "downloads": 0, "stars": 0, "installs": 0, "version": "", "updated_at": 0}, {"slug": "microsoft-azure-storage-blob-py", "name": "microsoft/azure-storage-blob-py", "description": "Blob object storage client", "description_zh": "", "homepage": "https://officialskills.sh/microsoft/skills/azure-storage-blob-py", "tags": ["Python Skills"], "category": "Python Skills", "ownerName": "", "sources": ["VoltAgent/awesome-agent-skills"], "score": 342, "downloads": 0, "stars": 0, "installs": 0, "version": "", "updated_at": 0}, {"slug": "microsoft-azure-storage-blob-rust", "name": "microsoft/azure-storage-blob-rust", "description": "Blob object storage client", "description_zh": "", "homepage": "https://officialskills.sh/microsoft/skills/azure-storage-blob-rust", "tags": ["Rust Skills"], "category": "Rust Skills", "ownerName": "", "sources": ["VoltAgent/awesome-agent-skills"], "score": 341, "downloads": 0, "stars": 0, "installs": 0, "version": "", "updated_at": 0}, {"slug": "microsoft-azure-storage-blob-ts", "name": "microsoft/azure-storage-blob-ts", "description": "Blob upload, download, and management", "description_zh": "", "homepage": "https://officialskills.sh/microsoft/skills/azure-storage-blob-ts", "tags": ["TypeScript Skills"], "category": "TypeScript Skills", "ownerName": "", "sources": ["VoltAgent/awesome-agent-skills"], "score": 340, "downloads": 0, "stars": 0, "installs": 0, "version": "", "updated_at": 0}, {"slug": "microsoft-azure-storage-file-datalake-py", "name": "microsoft/azure-storage-file-datalake-py", "description": "Hierarchical data lake storage", "description_zh": "", "homepage": "https://officialskills.sh/microsoft/skills/azure-storage-file-datalake-py", "tags": ["Python Skills"], "category": "Python Skills", "ownerName": "", "sources": ["VoltAgent/awesome-agent-skills"], "score": 339, "downloads": 0, "stars": 0, "installs": 0, "version": "", "updated_at": 0}, {"slug": "microsoft-azure-storage-file-share-py", "name": "microsoft/azure-storage-file-share-py", "description": "SMB file share management", "description_zh": "", "homepage": "https://officialskills.sh/microsoft/skills/azure-storage-file-share-py", "tags": ["Python Skills"], "category": "Python Skills", "ownerName": "", "sources": ["VoltAgent/awesome-agent-skills"], "score": 338, "downloads": 0, "stars": 0, "installs": 0, "version": "", "updated_at": 0}, {"slug": "microsoft-azure-storage-file-share-ts", "name": "microsoft/azure-storage-file-share-ts", "description": "SMB file share operations", "description_zh": "", "homepage": "https://officialskills.sh/microsoft/skills/azure-storage-file-share-ts", "tags": ["TypeScript Skills"], "category": "TypeScript Skills", "ownerName": "", "sources": ["VoltAgent/awesome-agent-skills"], "score": 337, "downloads": 0, "stars": 0, "installs": 0, "version": "", "updated_at": 0}, {"slug": "microsoft-azure-storage-queue-py", "name": "microsoft/azure-storage-queue-py", "description": "Simple message queuing", "description_zh": "", "homepage": "https://officialskills.sh/microsoft/skills/azure-storage-queue-py", "tags": ["Python Skills"], "category": "Python Skills", "ownerName": "", "sources": ["VoltAgent/awesome-agent-skills"], "score": 336, "downloads": 0, "stars": 0, "installs": 0, "version": "", "updated_at": 0}, {"slug": "microsoft-azure-storage-queue-ts", "name": "microsoft/azure-storage-queue-ts", "description": "Queue message operations", "description_zh": "", "homepage": "https://officialskills.sh/microsoft/skills/azure-storage-queue-ts", "tags": ["TypeScript Skills"], "category": "TypeScript Skills", "ownerName": "", "sources": ["VoltAgent/awesome-agent-skills"], "score": 335, "downloads": 0, "stars": 0, "installs": 0, "version": "", "updated_at": 0}, {"slug": "microsoft-azure-web-pubsub-ts", "name": "microsoft/azure-web-pubsub-ts", "description": "Real-time WebSocket pub/sub messaging", "description_zh": "", "homepage": "https://officialskills.sh/microsoft/skills/azure-web-pubsub-ts", "tags": ["TypeScript Skills"], "category": "TypeScript Skills", "ownerName": "", "sources": ["VoltAgent/awesome-agent-skills"], "score": 334, "downloads": 0, "stars": 0, "installs": 0, "version": "", "updated_at": 0}, {"slug": "microsoft-cloud-solution-architect", "name": "microsoft/cloud-solution-architect", "description": "Design well-architected Azure cloud systems", "description_zh": "", "homepage": "https://officialskills.sh/microsoft/skills/cloud-solution-architect", "tags": ["Core Skills"], "category": "Core Skills", "ownerName": "", "sources": ["VoltAgent/awesome-agent-skills"], "score": 333, "downloads": 0, "stars": 0, "installs": 0, "version": "", "updated_at": 0}, {"slug": "microsoft-continual-learning", "name": "microsoft/continual-learning", "description": "Continual learning patterns for Azure AI", "description_zh": "", "homepage": "https://officialskills.sh/microsoft/skills/continual-learning", "tags": ["Core Skills"], "category": "Core Skills", "ownerName": "", "sources": ["VoltAgent/awesome-agent-skills"], "score": 332, "downloads": 0, "stars": 0, "installs": 0, "version": "", "updated_at": 0}, {"slug": "microsoft-copilot-sdk", "name": "microsoft/copilot-sdk", "description": "Build applications powered by GitHub Copilot SDK", "description_zh": "", "homepage": "https://officialskills.sh/microsoft/skills/copilot-sdk", "tags": ["Core Skills"], "category": "Core Skills", "ownerName": "", "sources": ["VoltAgent/awesome-agent-skills"], "score": 331, "downloads": 0, "stars": 0, "installs": 0, "version": "", "updated_at": 0}, {"slug": "microsoft-entra-agent-id", "name": "microsoft/entra-agent-id", "description": "Microsoft Entra Agent ID OAuth2 identities via Graph API", "description_zh": "", "homepage": "https://officialskills.sh/microsoft/skills/entra-agent-id", "tags": ["Core Skills"], "category": "Core Skills", "ownerName": "", "sources": ["VoltAgent/awesome-agent-skills"], "score": 330, "downloads": 0, "stars": 0, "installs": 0, "version": "", "updated_at": 0}, {"slug": "microsoft-fastapi-router-py", "name": "microsoft/fastapi-router-py", "description": "FastAPI routers with CRUD and auth", "description_zh": "", "homepage": "https://officialskills.sh/microsoft/skills/fastapi-router-py", "tags": ["Python Skills"], "category": "Python Skills", "ownerName": "", "sources": ["VoltAgent/awesome-agent-skills"], "score": 329, "downloads": 0, "stars": 0, "installs": 0, "version": "", "updated_at": 0}, {"slug": "microsoft-frontend-design-review", "name": "microsoft/frontend-design-review", "description": "Review and create distinctive frontend interfaces", "description_zh": "", "homepage": "https://officialskills.sh/microsoft/skills/frontend-design-review", "tags": ["Core Skills"], "category": "Core Skills", "ownerName": "", "sources": ["VoltAgent/awesome-agent-skills"], "score": 328, "downloads": 0, "stars": 0, "installs": 0, "version": "", "updated_at": 0}, {"slug": "microsoft-frontend-ui-dark-ts", "name": "microsoft/frontend-ui-dark-ts", "description": "Dark-themed React with Tailwind and animations", "description_zh": "", "homepage": "https://officialskills.sh/microsoft/skills/frontend-ui-dark-ts", "tags": ["TypeScript Skills"], "category": "TypeScript Skills", "ownerName": "", "sources": ["VoltAgent/awesome-agent-skills"], "score": 327, "downloads": 0, "stars": 0, "installs": 0, "version": "", "updated_at": 0}, {"slug": "microsoft-github-issue-creator", "name": "microsoft/github-issue-creator", "description": "Structured GitHub issue reports from notes", "description_zh": "", "homepage": "https://officialskills.sh/microsoft/skills/github-issue-creator", "tags": ["Core Skills"], "category": "Core Skills", "ownerName": "", "sources": ["VoltAgent/awesome-agent-skills"], "score": 326, "downloads": 0, "stars": 0, "installs": 0, "version": "", "updated_at": 0}, {"slug": "microsoft-m365-agents-dotnet", "name": "microsoft/m365-agents-dotnet", "description": "M365, Teams, and Copilot Studio agents", "description_zh": "", "homepage": "https://officialskills.sh/microsoft/skills/m365-agents-dotnet", "tags": [".NET Skills"], "category": ".NET Skills", "ownerName": "", "sources": ["VoltAgent/awesome-agent-skills"], "score": 325, "downloads": 0, "stars": 0, "installs": 0, "version": "", "updated_at": 0}, {"slug": "microsoft-m365-agents-py", "name": "microsoft/m365-agents-py", "description": "M365, Teams, and Copilot Studio agents", "description_zh": "", "homepage": "https://officialskills.sh/microsoft/skills/m365-agents-py", "tags": ["Python Skills"], "category": "Python Skills", "ownerName": "", "sources": ["VoltAgent/awesome-agent-skills"], "score": 324, "downloads": 0, "stars": 0, "installs": 0, "version": "", "updated_at": 0}, {"slug": "microsoft-m365-agents-ts", "name": "microsoft/m365-agents-ts", "description": "M365, Teams, and Copilot Studio agents", "description_zh": "", "homepage": "https://officialskills.sh/microsoft/skills/m365-agents-ts", "tags": ["TypeScript Skills"], "category": "TypeScript Skills", "ownerName": "", "sources": ["VoltAgent/awesome-agent-skills"], "score": 323, "downloads": 0, "stars": 0, "installs": 0, "version": "", "updated_at": 0}, {"slug": "microsoft-mcp-builder", "name": "microsoft/mcp-builder", "description": "MCP server creation guide for LLM tool integration", "description_zh": "", "homepage": "https://officialskills.sh/microsoft/skills/mcp-builder", "tags": ["Core Skills"], "category": "Core Skills", "ownerName": "", "sources": ["VoltAgent/awesome-agent-skills"], "score": 322, "downloads": 0, "stars": 0, "installs": 0, "version": "", "updated_at": 0}, {"slug": "microsoft-microsoft-azure-webjobs-extensions-authentication-events-dotnet", "name": "microsoft/microsoft-azure-webjobs-extensions-authentication-events-dotnet", "description": "Entra ID custom auth events handler", "description_zh": "", "homepage": "https://officialskills.sh/microsoft/skills/microsoft-azure-webjobs-extensions-authentication-events-dotnet", "tags": [".NET Skills"], "category": ".NET Skills", "ownerName": "", "sources": ["VoltAgent/awesome-agent-skills"], "score": 321, "downloads": 0, "stars": 0, "installs": 0, "version": "", "updated_at": 0}, {"slug": "microsoft-podcast-generation", "name": "microsoft/podcast-generation", "description": "AI podcast audio with Azure OpenAI Realtime API", "description_zh": "", "homepage": "https://officialskills.sh/microsoft/skills/podcast-generation", "tags": ["Core Skills"], "category": "Core Skills", "ownerName": "", "sources": ["VoltAgent/awesome-agent-skills"], "score": 320, "downloads": 0, "stars": 0, "installs": 0, "version": "", "updated_at": 0}, {"slug": "microsoft-pydantic-models-py", "name": "microsoft/pydantic-models-py", "description": "Pydantic models for API schemas", "description_zh": "", "homepage": "https://officialskills.sh/microsoft/skills/pydantic-models-py", "tags": ["Python Skills"], "category": "Python Skills", "ownerName": "", "sources": ["VoltAgent/awesome-agent-skills"], "score": 319, "downloads": 0, "stars": 0, "installs": 0, "version": "", "updated_at": 0}, {"slug": "microsoft-react-flow-node-ts", "name": "microsoft/react-flow-node-ts", "description": "React Flow node components with Zustand", "description_zh": "", "homepage": "https://officialskills.sh/microsoft/skills/react-flow-node-ts", "tags": ["TypeScript Skills"], "category": "TypeScript Skills", "ownerName": "", "sources": ["VoltAgent/awesome-agent-skills"], "score": 318, "downloads": 0, "stars": 0, "installs": 0, "version": "", "updated_at": 0}, {"slug": "microsoft-skill-creator", "name": "microsoft/skill-creator", "description": "Guide for creating effective skills for AI coding agents", "description_zh": "", "homepage": "https://officialskills.sh/microsoft/skills/skill-creator", "tags": ["Core Skills"], "category": "Core Skills", "ownerName": "", "sources": ["VoltAgent/awesome-agent-skills"], "score": 317, "downloads": 0, "stars": 0, "installs": 0, "version": "", "updated_at": 0}, {"slug": "microsoft-skills", "name": "microsoft/skills", "description": "Official Microsoft skills - Azure cloud services, Bot Framework, Cognitive Services, and enterprise development patterns across .NET, Python, TypeScript, Go, Rust, and Java.", "description_zh": "", "homepage": "https://github.com/microsoft/skills", "tags": ["Official Sources"], "category": "Official Sources", "ownerName": "microsoft", "sources": ["sickn33/antigravity-awesome-skills"], "score": 316, "downloads": 0, "stars": 0, "installs": 0, "version": "", "updated_at": 0}, {"slug": "microsoft-zustand-store-ts", "name": "microsoft/zustand-store-ts", "description": "Zustand stores with middleware patterns", "description_zh": "", "homepage": "https://officialskills.sh/microsoft/skills/zustand-store-ts", "tags": ["TypeScript Skills"], "category": "TypeScript Skills", "ownerName": "", "sources": ["VoltAgent/awesome-agent-skills"], "score": 315, "downloads": 0, "stars": 0, "installs": 0, "version": "", "updated_at": 0}, {"slug": "milkomida77-guardian-agent-prompts", "name": "milkomida77/guardian-agent-prompts", "description": "Source for the Multi-Agent Task Orchestrator skill - production-tested delegation patterns, anti-duplication, and quality gates for coordinated agent work.", "description_zh": "", "homepage": "https://github.com/milkomida77/guardian-agent-prompts", "tags": ["Community Contributors"], "category": "Community Contributors", "ownerName": "milkomida77", "sources": ["sickn33/antigravity-awesome-skills"], "score": 314, "downloads": 0, "stars": 0, "installs": 0, "version": "", "updated_at": 0}, {"slug": "minimax-ai-android-native-dev", "name": "MiniMax-AI/android-native-dev", "description": "Android native development with Kotlin/Jetpack Compose, Material Design 3, and accessibility", "description_zh": "", "homepage": "https://officialskills.sh/MiniMax-AI/skills/android-native-dev", "tags": ["TypeScript Skills"], "category": "TypeScript Skills", "ownerName": "", "sources": ["VoltAgent/awesome-agent-skills"], "score": 313, "downloads": 0, "stars": 0, "installs": 0, "version": "", "updated_at": 0}, {"slug": "minimax-ai-cli", "name": "MiniMax-AI/cli", "description": "Official MiniMax CLI - text, image, video, speech, music, vision, and web-search workflows for MiniMax models and APIs.", "description_zh": "", "homepage": "https://github.com/MiniMax-AI/cli", "tags": ["Official Sources"], "category": "Official Sources", "ownerName": "MiniMax-AI", "sources": ["sickn33/antigravity-awesome-skills"], "score": 312, "downloads": 0, "stars": 0, "installs": 0, "version": "", "updated_at": 0}, {"slug": "minimax-ai-cli", "name": "MiniMax-AI/cli", "description": "Generate text, image, video, speech, and music via MiniMax AI", "description_zh": "", "homepage": "https://officialskills.sh/MiniMax-AI/skills/cli", "tags": ["TypeScript Skills"], "category": "TypeScript Skills", "ownerName": "", "sources": ["VoltAgent/awesome-agent-skills"], "score": 311, "downloads": 0, "stars": 0, "installs": 0, "version": "", "updated_at": 0}, {"slug": "minimax-ai-frontend-dev", "name": "MiniMax-AI/frontend-dev", "description": "Full-stack frontend with cinematic animations, AI-generated media via MiniMax API, and generative art", "description_zh": "", "homepage": "https://officialskills.sh/MiniMax-AI/skills/frontend-dev", "tags": ["TypeScript Skills"], "category": "TypeScript Skills", "ownerName": "", "sources": ["VoltAgent/awesome-agent-skills"], "score": 310, "downloads": 0, "stars": 0, "installs": 0, "version": "", "updated_at": 0}, {"slug": "minimax-ai-fullstack-dev", "name": "MiniMax-AI/fullstack-dev", "description": "Backend architecture with REST API design, auth flows, real-time features, and database integration", "description_zh": "", "homepage": "https://officialskills.sh/MiniMax-AI/skills/fullstack-dev", "tags": ["TypeScript Skills"], "category": "TypeScript Skills", "ownerName": "", "sources": ["VoltAgent/awesome-agent-skills"], "score": 309, "downloads": 0, "stars": 0, "installs": 0, "version": "", "updated_at": 0}, {"slug": "minimax-ai-gif-sticker-maker", "name": "MiniMax-AI/gif-sticker-maker", "description": "Convert photos into animated GIF stickers in Funko Pop / Pop Mart style via MiniMax API", "description_zh": "", "homepage": "https://officialskills.sh/MiniMax-AI/skills/gif-sticker-maker", "tags": ["TypeScript Skills"], "category": "TypeScript Skills", "ownerName": "", "sources": ["VoltAgent/awesome-agent-skills"], "score": 308, "downloads": 0, "stars": 0, "installs": 0, "version": "", "updated_at": 0}, {"slug": "minimax-ai-ios-application-dev", "name": "MiniMax-AI/ios-application-dev", "description": "iOS development with UIKit, SnapKit, and SwiftUI covering navigation, Dark Mode, and HIG compliance", "description_zh": "", "homepage": "https://officialskills.sh/MiniMax-AI/skills/ios-application-dev", "tags": ["TypeScript Skills"], "category": "TypeScript Skills", "ownerName": "", "sources": ["VoltAgent/awesome-agent-skills"], "score": 307, "downloads": 0, "stars": 0, "installs": 0, "version": "", "updated_at": 0}, {"slug": "minimax-ai-minimax-docx", "name": "MiniMax-AI/minimax-docx", "description": "Professional DOCX document creation and editing using OpenXML SDK", "description_zh": "", "homepage": "https://officialskills.sh/MiniMax-AI/skills/minimax-docx", "tags": ["TypeScript Skills"], "category": "TypeScript Skills", "ownerName": "", "sources": ["VoltAgent/awesome-agent-skills"], "score": 306, "downloads": 0, "stars": 0, "installs": 0, "version": "", "updated_at": 0}, {"slug": "minimax-ai-minimax-pdf", "name": "MiniMax-AI/minimax-pdf", "description": "Generate, fill, and reformat PDFs with a token-based design system and 15 cover styles", "description_zh": "", "homepage": "https://officialskills.sh/MiniMax-AI/skills/minimax-pdf", "tags": ["TypeScript Skills"], "category": "TypeScript Skills", "ownerName": "", "sources": ["VoltAgent/awesome-agent-skills"], "score": 305, "downloads": 0, "stars": 0, "installs": 0, "version": "", "updated_at": 0}, {"slug": "minimax-ai-minimax-xlsx", "name": "MiniMax-AI/minimax-xlsx", "description": "Create, read, analyze, and validate Excel/spreadsheet files with zero format loss", "description_zh": "", "homepage": "https://officialskills.sh/MiniMax-AI/skills/minimax-xlsx", "tags": ["TypeScript Skills"], "category": "TypeScript Skills", "ownerName": "", "sources": ["VoltAgent/awesome-agent-skills"], "score": 304, "downloads": 0, "stars": 0, "installs": 0, "version": "", "updated_at": 0}, {"slug": "minimax-ai-pptx-generator", "name": "MiniMax-AI/pptx-generator", "description": "Create and edit PowerPoint presentations from scratch with PptxGenJS", "description_zh": "", "homepage": "https://officialskills.sh/MiniMax-AI/skills/pptx-generator", "tags": ["TypeScript Skills"], "category": "TypeScript Skills", "ownerName": "", "sources": ["VoltAgent/awesome-agent-skills"], "score": 303, "downloads": 0, "stars": 0, "installs": 0, "version": "", "updated_at": 0}, {"slug": "minimax-ai-shader-dev", "name": "MiniMax-AI/shader-dev", "description": "GLSL shader techniques for ray marching, fluid simulation, particle systems, and procedural generation", "description_zh": "", "homepage": "https://officialskills.sh/MiniMax-AI/skills/shader-dev", "tags": ["TypeScript Skills"], "category": "TypeScript Skills", "ownerName": "", "sources": ["VoltAgent/awesome-agent-skills"], "score": 302, "downloads": 0, "stars": 0, "installs": 0, "version": "", "updated_at": 0}, {"slug": "miro-automation", "name": "Miro Automation", "description": "Automate Miro: boards, sticky notes, shapes, connectors, and items.", "description_zh": "", "homepage": "./miro-automation", "tags": ["App Automation via Composio"], "category": "App Automation via Composio", "ownerName": "", "sources": ["ComposioHQ/awesome-claude-skills"], "score": 301, "downloads": 0, "stars": 0, "installs": 0, "version": "", "updated_at": 0}]}