{"page": 160, "total_pages": 522, "total": 26073, "skills": [{"category": "security-compliance", "created_at": 1772784511832, "description": "Scans Node.js/NPM and Linux packages for known vulnerabilities using the Google OSV API by analyzing dependencies and reporting related CVEs.", "description_zh": "", "downloads": 561, "homepage": "https://clawhub.ai/moenassi/osv-scanner", "iconUrl": null, "installs": 24, "name": "OSV Scanner", "ownerName": "moenassi", "score": 41038.77103145575, "slug": "osv-scanner", "source": "clawhub", "stars": 0, "tags": null, "updated_at": 1776759082466, "version": "1.0.0"}, {"category": "communication-collaboration", "created_at": 1772788615325, "description": "Enter Plaza One, a 3D voxel social world. Move around the plaza, chat with humans and other AI agents, observe surroundings, perform emotes, and interact wit...", "description_zh": "", "downloads": 561, "homepage": "https://clawhub.ai/rmssantos/plaza-one", "iconUrl": null, "installs": 14, "name": "Plaza One", "ownerName": "rmssantos", "score": 30706.07553366174, "slug": "plaza-one", "source": "clawhub", "stars": 0, "tags": ["3d", "game", "multiplayer", "social", "voxel"], "updated_at": 1776754727199, "version": "1.2.7"}, {"category": "ai-intelligence", "created_at": 1772785693894, "description": "A 5-phase framework for reliable AI-to-AI task delegation, inspired by Google DeepMind's \"Intelligent AI Delegation\" paper (arXiv 2602.11865). Includes task...", "description_zh": "", "downloads": 561, "homepage": "https://clawhub.ai/hogpile/intelligent-delegation", "iconUrl": null, "installs": 57, "name": "Intelligent Delegation", "ownerName": "hogpile", "score": 95570.69846678023, "slug": "intelligent-delegation", "source": "clawhub", "stars": 0, "tags": null, "updated_at": 1776748071633, "version": "1.0.0"}, {"category": "data-analysis", "created_at": 1772775550355, "description": "Tasks and habits that live in a plain markdown file on your machine. Free, private, and claw-native.", "description_zh": "", "downloads": 561, "homepage": "https://clawhub.ai/tallhamn/clawkeeper", "iconUrl": null, "installs": 10, "name": "ClawKeeper — Tasks & habits in a plain markdown file", "ownerName": "tallhamn", "score": 96557.65920826161, "slug": "clawkeeper", "source": "clawhub", "stars": 0, "tags": null, "updated_at": 1776748071461, "version": "0.2.2"}, {"category": "productivity", "created_at": 1772777543577, "description": "Unified log search across Loki, Elasticsearch, and CloudWatch. Natural language queries translated to LogQL, ES DSL, or CloudWatch filter patterns. Read-only...", "description_zh": "", "downloads": 561, "homepage": "https://clawhub.ai/tkuehnl/log-dive", "iconUrl": null, "installs": 17, "name": "log-dive", "ownerName": "tkuehnl", "score": 96226.41509433962, "slug": "log-dive", "source": "clawhub", "stars": 0, "tags": null, "updated_at": 1776748070925, "version": "0.1.3"}, {"category": "content-creation", "created_at": 1772780214110, "description": "Download encrypted m3u8/HLS videos using parallel downloads. Use when given an m3u8 URL to download a video, especially encrypted HLS streams with AES-128.", "description_zh": "", "downloads": 561, "homepage": "https://clawhub.ai/easonc13/m3u8-downloader", "iconUrl": null, "installs": 31, "name": "M3U8 Downloader", "ownerName": "easonc13", "score": 95733.78839590444, "slug": "m3u8-downloader", "source": "clawhub", "stars": 0, "tags": null, "updated_at": 1776748069727, "version": "1.0.0"}, {"category": "productivity", "created_at": 1772776876771, "description": "Upload and download files to/from Stratos Decentralized Storage (SDS) network. Use when the user wants to store files on Stratos, retrieve files from Stratos, upload to decentralized storage, or download from SDS.", "description_zh": "", "downloads": 561, "homepage": "https://clawhub.ai/notboxqsn/stratos-storage", "iconUrl": null, "installs": 28, "name": "stratos-storage", "ownerName": "notboxqsn", "score": 95733.78839590444, "slug": "stratos-storage", "source": "clawhub", "stars": 0, "tags": null, "updated_at": 1776748069665, "version": "1.0.0"}, {"category": "productivity", "created_at": 1772776126969, "description": "Collect Korean government support programs (TIPS, Small Business, R&D grants) into structured JSONL files. Supports incremental collection with checkpoints.", "description_zh": "", "downloads": 561, "homepage": "https://clawhub.ai/lifeissea/korean-gov-programs", "iconUrl": null, "installs": 11, "name": "Korean Gov Programs", "ownerName": "lifeissea", "score": 95733.78839590444, "slug": "korean-gov-programs", "source": "clawhub", "stars": 0, "tags": null, "updated_at": 1776748069664, "version": "1.0.8"}, {"category": "productivity", "created_at": 1772778371234, "description": "Interact with Metal Dollar (XMD) stablecoin to mint, redeem, check supply, collateral reserves, and oracle prices with zero fees and multi-collateral support.", "description_zh": "", "downloads": 560, "homepage": "https://clawhub.ai/paulgnz/xmd", "iconUrl": null, "installs": 19, "name": "xpr-xmd", "ownerName": "paulgnz", "score": 677.7133950052523, "slug": "xmd", "source": "clawhub", "stars": 2, "tags": null, "updated_at": 1776770650144, "version": "0.2.11"}, {"category": "communication-collaboration", "created_at": 1773060615206, "description": "Send and receive emails via QQ Mail SMTP/IMAP. Use when: user wants to send/receive emails, check inbox, read messages, or share documents via email. Require...", "description_zh": "", "downloads": 560, "homepage": "https://clawhub.ai/chao-nj-cn/qq-email", "iconUrl": null, "installs": 92, "name": "Qq Email", "ownerName": "chao-nj-cn", "score": 2618.983112074415, "slug": "qq-email", "source": "clawhub", "stars": 1, "tags": null, "updated_at": 1776769490592, "version": "1.0.0"}, {"category": "productivity", "created_at": 1773073429460, "description": "Google Calendar: Manage calendars and events.", "description_zh": "", "downloads": 560, "homepage": "https://clawhub.ai/googleworkspace-bot/gws-calendar", "iconUrl": null, "installs": 29, "name": "Gws Calendar", "ownerName": "googleworkspace-bot", "score": 98976.10921501706, "slug": "gws-calendar", "source": "clawhub", "stars": 1, "tags": null, "updated_at": 1776748069697, "version": "1.0.1"}, {"category": "developer-tools", "created_at": 1773207224272, "description": "A comprehensive AI agent skill for writing prompts that get consistently excellent results from AI models. Teaches the principles behind effective prompting,...", "description_zh": "", "downloads": 560, "homepage": "https://clawhub.ai/ethagent/prompt", "iconUrl": null, "installs": 85, "name": "Prompt", "ownerName": "ethagent", "score": 5590.496156533893, "slug": "prompt", "source": "clawhub", "stars": 0, "tags": ["ai", "engineering", "llm", "prompt", "writing"], "updated_at": 1776764690638, "version": "1.0.0"}, {"category": "content-creation", "created_at": 1772779452480, "description": "Run RoughCut headlessly on macOS to generate Final Cut Pro (FCPXML) rough-cut timeline variants from a talking-head video — local-first, no media upload.", "description_zh": "", "downloads": 560, "homepage": "https://clawhub.ai/samergmtm22/roughcut-openclaw", "iconUrl": null, "installs": 51, "name": "RoughCut", "ownerName": "samergmtm22", "score": 27944.111776447106, "slug": "roughcut-openclaw", "source": "clawhub", "stars": 0, "tags": null, "updated_at": 1776764669112, "version": "1.0.0"}, {"category": "developer-tools", "created_at": 1772780345969, "description": "Complete system for writing, reviewing, and approving product requirement documents (PRDs) from idea validation through shipped features.", "description_zh": "", "downloads": 560, "homepage": "https://clawhub.ai/1kalin/afrexai-prd-engine", "iconUrl": null, "installs": 24, "name": "PRD Engine", "ownerName": "1kalin", "score": 40965.6181419166, "slug": "afrexai-prd-engine", "source": "clawhub", "stars": 0, "tags": ["agile", "planning", "prd", "product", "requirements", "specification", "sprint", "user-stories"], "updated_at": 1776759083484, "version": "1.0.0"}, {"category": "productivity", "created_at": 1772780691977, "description": "Provides a standardized Maven workflow to publish Java artifacts to Maven Central using GPG signing and the modern Central Portal plugin.", "description_zh": "", "downloads": 560, "homepage": "https://clawhub.ai/misakiga/maven-central-publish", "iconUrl": null, "installs": 21, "name": "maven-central-publish", "ownerName": "misakiga", "score": 41085.840058694055, "slug": "maven-central-publish", "source": "clawhub", "stars": 0, "tags": null, "updated_at": 1776759082290, "version": "1.0.0"}, {"category": "ai-intelligence", "created_at": 1772779558832, "description": "Install and operate Clawboard with OpenClaw. Use for scripted/manual/agentic install, token setup, Docker startup, logger plugin wiring, and validation.", "description_zh": "", "downloads": 560, "homepage": "https://clawhub.ai/sirouk/clawboard", "iconUrl": null, "installs": 45, "name": "Clawboard", "ownerName": "sirouk", "score": 96385.5421686747, "slug": "clawboard", "source": "clawhub", "stars": 0, "tags": null, "updated_at": 1776748071383, "version": "1.0.1"}, {"category": "data-analysis", "created_at": 1772792023739, "description": "Conduct comprehensive research independently. Find information, analyze sources, synthesize findings, and create detailed reports without human guidance.", "description_zh": "", "downloads": 560, "homepage": "https://clawhub.ai/tobisamaa/autonomous-research", "iconUrl": null, "installs": 10, "name": "Autonomous Research", "ownerName": "tobisamaa", "score": 96054.8885077187, "slug": "autonomous-research", "source": "clawhub", "stars": 0, "tags": null, "updated_at": 1776748070997, "version": "1.0.0"}, {"category": "ai-intelligence", "created_at": 1772782225290, "description": "AI agent for call o3 llm tasks", "description_zh": "", "downloads": 560, "homepage": "https://clawhub.ai/alvinecarn/call-o3-llm", "iconUrl": null, "installs": 29, "name": "Call O3 Llm", "ownerName": "alvinecarn", "score": 96385.5421686747, "slug": "call-o3-llm", "source": "clawhub", "stars": 0, "tags": null, "updated_at": 1776748070433, "version": "0.1.0"}, {"category": "ai-intelligence", "created_at": 1772779773932, "description": "Daily wisdom, anecdotes & historical stories delivered via cron. Use when: \"daily anecdote\", \"daily wisdom\", \"wisdom cron\", \"daily story\", \"morning wisdom\",...", "description_zh": "", "downloads": 560, "homepage": "https://clawhub.ai/aytuncyildizli/daily-wisdom", "iconUrl": null, "installs": 27, "name": "Daily Wisdom", "ownerName": "aytuncyildizli", "score": 95890.4109589041, "slug": "daily-wisdom", "source": "clawhub", "stars": 0, "tags": null, "updated_at": 1776748070062, "version": "1.0.0"}, {"category": "developer-tools", "created_at": 1772775153809, "description": "Use the OpenPond CLI to create repos, watch deployments, and run tools without the web UI.", "description_zh": "", "downloads": 559, "homepage": "https://clawhub.ai/glucrypto/openpond-cli", "iconUrl": null, "installs": 5, "name": "Openpond Cli", "ownerName": "glucrypto", "score": 2054.677048674236, "slug": "openpond-cli", "source": "clawhub", "stars": 2, "tags": null, "updated_at": 1776770650008, "version": "0.1.1"}, {"category": "ai-intelligence", "created_at": 1772777833538, "description": "Helps users critically examine their beliefs by gently questioning potentially false or questionable claims on sensitive topics.", "description_zh": "", "downloads": 559, "homepage": "https://clawhub.ai/asgraf/epistemic-guide", "iconUrl": null, "installs": 27, "name": "Epistemic Guide", "ownerName": "asgraf", "score": 564.6149495711189, "slug": "epistemic-guide", "source": "clawhub", "stars": 2, "tags": null, "updated_at": 1776770649994, "version": "2.0.0"}, {"category": "developer-tools", "created_at": 1772774963943, "description": "Builds Ideal Customer Profiles with scoring methodology", "description_zh": "", "downloads": 559, "homepage": "https://clawhub.ai/1kalin/icp-builder", "iconUrl": null, "installs": 8, "name": "ICP Builder", "ownerName": "1kalin", "score": 2695.1631046119232, "slug": "icp-builder", "source": "clawhub", "stars": 2, "tags": ["icp", "sales", "strategy"], "updated_at": 1776770649751, "version": "1.0.0"}, {"category": "productivity", "created_at": 1772777196277, "description": "Workspace-local task management powered by Taskwarrior. Add, organize, and track tasks by project, tags, due dates, and priority with all data stored inside...", "description_zh": "", "downloads": 559, "homepage": "https://clawhub.ai/aghareza/taskwarrior", "iconUrl": null, "installs": 16, "name": "taskwarrior", "ownerName": "aghareza", "score": 15924.092409240926, "slug": "taskwarrior", "source": "clawhub", "stars": 1, "tags": null, "updated_at": 1776760980347, "version": "0.1.3"}, {"category": "developer-tools", "created_at": 1772778503036, "description": "Generates a comprehensive annual business report with financials, operations, strategic highlights, risks, and forward-looking guidance from your company data.", "description_zh": "", "downloads": 559, "homepage": "https://clawhub.ai/1kalin/afrexai-annual-report", "iconUrl": null, "installs": 21, "name": "Annual Report Generator", "ownerName": "1kalin", "score": 40654.545454545456, "slug": "afrexai-annual-report", "source": "clawhub", "stars": 0, "tags": ["annual report", "board report", "business review", "cfo", "financial reporting"], "updated_at": 1776759083371, "version": "1.0.0"}, {"category": "developer-tools", "created_at": 1772778191173, "description": "Securely store, manage, rotate, and integrate secrets (API keys, passwords, certificates) in CI/CD pipelines using Vault, AWS Secrets Manager, and native tools.", "description_zh": "", "downloads": 559, "homepage": "https://clawhub.ai/brandonwise/secrets-management", "iconUrl": null, "installs": 8, "name": "Secrets Management", "ownerName": "brandonwise", "score": 40595.49745824256, "slug": "secrets-management", "source": "clawhub", "stars": 0, "tags": null, "updated_at": 1776759083019, "version": "1.0.0"}, {"category": "ai-intelligence", "created_at": 1772785081857, "description": "WebMCP - Enable AI agents to interact with your web applications through structured tools. Implements the WebMCP standard for Next.js/React apps with tool re...", "description_zh": "", "downloads": 559, "homepage": "https://clawhub.ai/slemo54/web-mcp", "iconUrl": null, "installs": 24, "name": "WebMCP", "ownerName": "slemo54", "score": 38658.367911479945, "slug": "web-mcp", "source": "clawhub", "stars": 0, "tags": null, "updated_at": 1776759082954, "version": "1.0.0"}, {"category": "data-analysis", "created_at": 1772783120896, "description": "Distributed task queue for OpenClaw multi-agent systems that routes tasks by capability, tracks lifecycle, coordinates async handoffs, rebalances load, and m...", "description_zh": "", "downloads": 559, "homepage": "https://clawhub.ai/capt-marbles/task-router-skill", "iconUrl": null, "installs": 13, "name": "Task Router Skill", "ownerName": "capt-marbles", "score": 40773.15827862874, "slug": "task-router-skill", "source": "clawhub", "stars": 0, "tags": null, "updated_at": 1776759082655, "version": "1.0.0"}, {"category": "data-analysis", "created_at": 1772783986505, "description": "Track and manage autonomous AI agents' income, expenses, financial goals, and runway to monitor profitability and sustainability.", "description_zh": "", "downloads": 559, "homepage": "https://clawhub.ai/gpunter/revenue-tracker", "iconUrl": null, "installs": 27, "name": "Revenue Tracker", "ownerName": "gpunter", "score": 41254.61254612546, "slug": "revenue-tracker", "source": "clawhub", "stars": 0, "tags": ["finance", "productivity", "utility"], "updated_at": 1776759082479, "version": "1.0.0"}, {"category": "ai-intelligence", "created_at": 1772777805628, "description": "Check if services are responding on given host:port pairs. Supports TCP and HTTP checks with configurable timeout. Use for service monitoring, health checks,...", "description_zh": "", "downloads": 559, "homepage": "https://clawhub.ai/rogue-agent1/port-check", "iconUrl": null, "installs": 24, "name": "Port Check", "ownerName": "rogue-agent1", "score": 32882.35294117647, "slug": "port-check", "source": "clawhub", "stars": 0, "tags": null, "updated_at": 1776758782446, "version": "1.0.0"}, {"category": "developer-tools", "created_at": 1772776959702, "description": "Manage the MuPiBox media database via backend API to list, add, remove, move, edit, and restore media entries stored in data.json.", "description_zh": "", "downloads": 559, "homepage": "https://clawhub.ai/tomquist/mupibox-media-db", "iconUrl": null, "installs": 11, "name": "MuPiBox Media DB", "ownerName": "tomquist", "score": 96712.80276816609, "slug": "mupibox-media-db", "source": "clawhub", "stars": 0, "tags": null, "updated_at": 1776748071162, "version": "1.0.2"}, {"category": "ai-intelligence", "created_at": 1772778668174, "description": "AI agent for ask agents tasks", "description_zh": "", "downloads": 559, "homepage": "https://clawhub.ai/teamolab/ask-agents", "iconUrl": null, "installs": 28, "name": "Ask Agents", "ownerName": "teamolab", "score": 96712.80276816609, "slug": "ask-agents", "source": "clawhub", "stars": 0, "tags": null, "updated_at": 1776748071073, "version": "1.0.1"}, {"category": "security-compliance", "created_at": 1772784203824, "description": "Security self-assessment tool for AI agents. Run this against your own configuration to get a structured threat model report with RED/AMBER/GREEN ratings acr...", "description_zh": "", "downloads": 559, "homepage": "https://clawhub.ai/roosch269/agent-self-assessment", "iconUrl": null, "installs": 15, "name": "Agent Self-Assessment", "ownerName": "roosch269", "score": 95883.36192109776, "slug": "agent-self-assessment", "source": "clawhub", "stars": 0, "tags": ["compliance", "eu-ai-act", "free", "governance", "security"], "updated_at": 1776748071010, "version": "1.0.0"}, {"category": "security-compliance", "created_at": 1772775851236, "description": "Publish and manage Apiosk gateway listings with signed wallet authentication, listing-group aware categorization, and update/delete operations.", "description_zh": "", "downloads": 559, "homepage": "https://clawhub.ai/obcraft/apiosk-publish", "iconUrl": null, "installs": 10, "name": "Apiosk Publish", "ownerName": "obcraft", "score": 95392.4914675768, "slug": "apiosk-publish", "source": "clawhub", "stars": 0, "tags": null, "updated_at": 1776748070355, "version": "1.1.0"}, {"category": "data-analysis", "created_at": 1772778938054, "description": "Integrate Didit Face Match standalone API to compare two facial images. Use when the user wants to compare faces, verify face identity, implement biometric c...", "description_zh": "", "downloads": 559, "homepage": "https://clawhub.ai/rosasalberto/didit-face-match", "iconUrl": null, "installs": 14, "name": "Didit Face Match", "ownerName": "rosasalberto", "score": 95392.4914675768, "slug": "didit-face-match", "source": "clawhub", "stars": 0, "tags": null, "updated_at": 1776748070195, "version": "1.3.0"}, {"category": "communication-collaboration", "created_at": 1772776820231, "description": "Interact with Zulip chat platform via REST API and Python client. Use when you need to read messages from streams/topics, send messages to channels or users,...", "description_zh": "", "downloads": 559, "homepage": "https://clawhub.ai/suky57/zulip", "iconUrl": null, "installs": 20, "name": "Zulip", "ownerName": "suky57", "score": 95719.17808219178, "slug": "zulip", "source": "clawhub", "stars": 0, "tags": null, "updated_at": 1776748069947, "version": "1.0.2"}, {"category": "developer-tools", "created_at": 1772786700096, "description": "Autonomous spec-driven development with OpenSpec CLI and Claude Code. You orchestrate (draft artifacts, make judgment calls, ship PRs) while Claude Code revi...", "description_zh": "", "downloads": 559, "homepage": "https://clawhub.ai/bobbyradford/openspec-workflow", "iconUrl": null, "installs": 56, "name": "OpenSpec Workflow", "ownerName": "bobbyradford", "score": 95392.4914675768, "slug": "openspec-workflow", "source": "clawhub", "stars": 0, "tags": null, "updated_at": 1776748069884, "version": "1.0.0"}, {"category": "security-compliance", "created_at": 1772779319201, "description": "Hire TikTok users to create authentic user-generated content (UGC), testimonials, and brand storytelling videos that build trust and drive engagement through...", "description_zh": "", "downloads": 558, "homepage": "https://clawhub.ai/realroc/tiktok-ugc-creator", "iconUrl": null, "installs": 26, "name": "Tiktok Ugc Creator", "ownerName": "realroc", "score": 23379.310344827587, "slug": "tiktok-ugc-creator", "source": "clawhub", "stars": 6, "tags": null, "updated_at": 1776768671152, "version": "0.1.0"}, {"category": "ai-intelligence", "created_at": 1773089641277, "description": "Automate 1688.com product search, AI selection, batch distribution to your shop, and view distribution logs in one seamless workflow.", "description_zh": "", "downloads": 558, "homepage": "https://clawhub.ai/zeppaura/1688-distributor", "iconUrl": null, "installs": 97, "name": "1688 Distributor", "ownerName": "zeppaura", "score": 15825.864276568502, "slug": "1688-distributor", "source": "clawhub", "stars": 3, "tags": null, "updated_at": 1776770050180, "version": "1.0.0"}, {"category": "ai-intelligence", "created_at": 1772779326185, "description": "Provides domain-anchored cryptographic identity verification for AI agents using ES256 JWTs, TOFU key pinning, revocation, and delegation chain checks.", "description_zh": "", "downloads": 558, "homepage": "https://clawhub.ai/jaschadub/agentpin", "iconUrl": null, "installs": 25, "name": "AgentPin", "ownerName": "jaschadub", "score": 2529.717839164093, "slug": "agentpin", "source": "clawhub", "stars": 2, "tags": null, "updated_at": 1776770650251, "version": "1.0.0"}, {"category": "ai-intelligence", "created_at": 1772778893483, "description": "🔐 Base Wallet - Crypto Identity for AI Agents. Create wallets, sign messages (SIWE), send transactions programmatically. No browser extensions, no human int...", "description_zh": "", "downloads": 558, "homepage": "https://clawhub.ai/root/wallet", "iconUrl": null, "installs": 38, "name": "wallet", "ownerName": "root", "score": 2690.66366704162, "slug": "wallet", "source": "clawhub", "stars": 2, "tags": null, "updated_at": 1776770649745, "version": "1.0.0"}, {"category": "productivity", "created_at": 1772777526904, "description": "Enables OpenClaw bots to discover peers, announce presence, and communicate directly using a QUIC-based P2P network with NAT traversal.", "description_zh": "", "downloads": 558, "homepage": "https://clawhub.ai/dendisuhubdy/clawnet", "iconUrl": null, "installs": 23, "name": "ClawNet", "ownerName": "dendisuhubdy", "score": 42656.826568265686, "slug": "clawnet", "source": "clawhub", "stars": 1, "tags": null, "updated_at": 1776759082513, "version": "0.1.0"}, {"category": "productivity", "created_at": 1773078440162, "description": "Guide for creating effective skills. This skill should be used when users want to create a new skill (or update an existing skill) that extends Claude's capa...", "description_zh": "", "downloads": 558, "homepage": "https://clawhub.ai/lbbniu/lbbniu-skill-creator", "iconUrl": null, "installs": 240, "name": "skill-creator", "ownerName": "lbbniu", "score": 12661.674608577265, "slug": "lbbniu-skill-creator", "source": "clawhub", "stars": 0, "tags": null, "updated_at": 1776764049949, "version": "1.0.1"}, {"category": "content-creation", "created_at": 1772790986187, "description": "Search files and content using macOS Spotlight indexing (mdfind). Use when the user asks to search local files, documents, or directories on macOS. Supports...", "description_zh": "", "downloads": 558, "homepage": "https://clawhub.ai/li-hongmin/spotlight", "iconUrl": null, "installs": 20, "name": "Spotlight", "ownerName": "li-hongmin", "score": 40939.10491562729, "slug": "spotlight", "source": "clawhub", "stars": 0, "tags": null, "updated_at": 1776759083115, "version": "2.1.0"}, {"category": "data-analysis", "created_at": 1772775959501, "description": "Analyze customer data to score churn risk, categorize accounts, and recommend tailored retention actions for proactive customer success management.", "description_zh": "", "downloads": 558, "homepage": "https://clawhub.ai/1kalin/afrexai-churn-analyzer", "iconUrl": null, "installs": 13, "name": "Churn Risk Analyzer", "ownerName": "1kalin", "score": 96373.05699481865, "slug": "afrexai-churn-analyzer", "source": "clawhub", "stars": 0, "tags": ["churn", "customer-success", "retention", "revenue", "saas"], "updated_at": 1776759082812, "version": "1.0.0"}, {"category": "ai-intelligence", "created_at": 1772781501424, "description": "AI agent for wiki retriever tasks", "description_zh": "", "downloads": 558, "homepage": "https://clawhub.ai/urrrich/wiki-retriever", "iconUrl": null, "installs": 32, "name": "Wiki Retriever", "ownerName": "urrrich", "score": 95711.83533447684, "slug": "wiki-retriever", "source": "clawhub", "stars": 0, "tags": null, "updated_at": 1776748070995, "version": "0.1.0"}, {"category": "developer-tools", "created_at": 1772776399574, "description": "Skill for the Meta Business CLI. Complete WhatsApp, Instagram, Facebook Pages, and Messenger automation via the Graph API. Supports messaging, media, templat...", "description_zh": "", "downloads": 558, "homepage": "https://clawhub.ai/adolago/meta-business", "iconUrl": null, "installs": 17, "name": "Meta Business CLI", "ownerName": "adolago", "score": 95711.83533447684, "slug": "meta-business", "source": "clawhub", "stars": 0, "tags": null, "updated_at": 1776748070872, "version": "1.2.0"}, {"category": "data-analysis", "created_at": 1772786656325, "description": "Text-to-speech conversion using Zhipu AI (BigModel) GLM-TTS model. Use when you need to convert text to audio files with various voice options. Supports Chin...", "description_zh": "", "downloads": 558, "homepage": "https://clawhub.ai/franklu0819-lang/zhipu-tts", "iconUrl": null, "installs": 24, "name": "Zhipu AI TTS", "ownerName": "franklu0819-lang", "score": 95059.62521294718, "slug": "zhipu-tts", "source": "clawhub", "stars": 0, "tags": null, "updated_at": 1776748070649, "version": "1.0.0"}, {"category": "developer-tools", "created_at": 1773201913832, "description": "Scenario-driven skill recommendation engine for ClawHub. Detects failed or stuck workflows, builds targeted search queries, and returns ranked skill recommen...", "description_zh": "", "downloads": 558, "homepage": "https://clawhub.ai/jackleeio/skill-feed", "iconUrl": null, "installs": 46, "name": "Skill Feed", "ownerName": "jackleeio", "score": 96041.30808950086, "slug": "skill-feed", "source": "clawhub", "stars": 0, "tags": null, "updated_at": 1776748070438, "version": "0.2.1"}, {"category": "content-creation", "created_at": 1772775548505, "description": "Writes personalized cold emails that actually get replies", "description_zh": "", "downloads": 558, "homepage": "https://clawhub.ai/1kalin/afrexai-email-crafter", "iconUrl": null, "installs": 8, "name": "Cold Email Writer", "ownerName": "1kalin", "score": 95221.84300341297, "slug": "afrexai-email-crafter", "source": "clawhub", "stars": 0, "tags": null, "updated_at": 1776748069784, "version": "1.1.0"}, {"category": "data-analysis", "created_at": 1772780656884, "description": "Virlo social media intelligence — viral video analytics, hashtag rankings, trend digests, and social listening across YouTube, TikTok, and Instagram. Use for...", "description_zh": "", "downloads": 557, "homepage": "https://clawhub.ai/virlogit/virlo-short-form-video-training-data", "iconUrl": null, "installs": 31, "name": "Virlo Short-Form Video Training Data", "ownerName": "virlogit", "score": 864.40309853037, "slug": "virlo-short-form-video-training-data", "source": "clawhub", "stars": 2, "tags": ["analytics", "learning", "short-form video", "training data", "video"], "updated_at": 1776770649822, "version": "1.0.1"}]}