{"page": 161, "total_pages": 522, "total": 26073, "skills": [{"category": "ai-intelligence", "created_at": 1773201947440, "description": "Install and wire a coding-focused OpenClaw sub-agent for background code execution, test-driven edits, bug fixing, small project scaffolding, and small-to-me...", "description_zh": "", "downloads": 557, "homepage": "https://clawhub.ai/milleniumgenai/coder-openclaw-agent", "iconUrl": null, "installs": 43, "name": "Coder for OpenClaw", "ownerName": "milleniumgenai", "score": 34654.65465465465, "slug": "coder-openclaw-agent", "source": "clawhub", "stars": 1, "tags": null, "updated_at": 1776756488704, "version": "0.1.3"}, {"category": "content-creation", "created_at": 1773207484486, "description": "Full content production pipeline — takes a topic from blank page to published-ready piece. Use when you need to execute content: write a blog post, article,...", "description_zh": "", "downloads": 557, "homepage": "https://clawhub.ai/alirezarezvani/content-production", "iconUrl": null, "installs": 33, "name": "Content Production", "ownerName": "alirezarezvani", "score": 20931.98045847426, "slug": "content-production", "source": "clawhub", "stars": 0, "tags": null, "updated_at": 1776764950507, "version": "2.1.1"}, {"category": "content-creation", "created_at": 1772795241816, "description": "Automatically fetch Douyin videos from short, standard, or share links by extracting video ID and downloading via simulated iPhone browser.", "description_zh": "", "downloads": 557, "homepage": "https://clawhub.ai/ly5201314gjx/lgcapture", "iconUrl": null, "installs": 166, "name": "lgCapture", "ownerName": "ly5201314gjx", "score": 27794.411177644713, "slug": "lgcapture", "source": "clawhub", "stars": 0, "tags": null, "updated_at": 1776764690450, "version": "1.0.0"}, {"category": "content-creation", "created_at": 1772793154475, "description": "Transform text scripts or ideas into fully produced, platform-optimized 9:16 short-form videos with voiceover, captions, music, and export-ready MP4 files.", "description_zh": "", "downloads": 557, "homepage": "https://clawhub.ai/g4dr/short-video-creator", "iconUrl": null, "installs": 65, "name": "Short-Form Video Creator for Social Media", "ownerName": "g4dr", "score": 14433.791137600416, "slug": "short-video-creator", "source": "clawhub", "stars": 0, "tags": null, "updated_at": 1776760940366, "version": "1.0.0"}, {"category": "productivity", "created_at": 1772781801279, "description": "Decompose complex tasks into clear, independent modules based on user-provided context, proactively request missing background info before planning.", "description_zh": "", "downloads": 557, "homepage": "https://clawhub.ai/urrrich/teamo-strategy", "iconUrl": null, "installs": 19, "name": "Teamo Strategy", "ownerName": "urrrich", "score": 40627.27935813275, "slug": "teamo-strategy", "source": "clawhub", "stars": 0, "tags": null, "updated_at": 1776759083765, "version": "0.1.0"}, {"category": "ai-intelligence", "created_at": 1772781003108, "description": "Manage multiple workplaces (project directories) with multi-agent orchestration, isolated memory, and inter-agent communication. Use when the user mentions:...", "description_zh": "", "downloads": 557, "homepage": "https://clawhub.ai/dickwu/multi-workplace", "iconUrl": null, "installs": 24, "name": "Multi Workplace", "ownerName": "dickwu", "score": 40538.57350800582, "slug": "multi-workplace", "source": "clawhub", "stars": 0, "tags": null, "updated_at": 1776759082333, "version": "0.4.0"}, {"category": "security-compliance", "created_at": 1772782457301, "description": "Publish books on Latent Press (latentpress.com) — the AI publishing platform where agents are authors and humans are readers. Use this skill when writing, pu...", "description_zh": "", "downloads": 557, "homepage": "https://clawhub.ai/jestersimpps/latent-press", "iconUrl": null, "installs": 27, "name": "Latent Press", "ownerName": "jestersimpps", "score": 99642.21824686941, "slug": "latent-press", "source": "clawhub", "stars": 0, "tags": ["agents", "ai", "books", "publishing", "writing"], "updated_at": 1776751783980, "version": "1.7.0"}, {"category": "developer-tools", "created_at": 1772774619421, "description": "Smart money research via Fomo social graph. Track top traders, monitor live trades, build watchlists — all from your agent. Powered by fomo.family, built by...", "description_zh": "", "downloads": 557, "homepage": "https://clawhub.ai/pooowell/fomo-research", "iconUrl": null, "installs": 9, "name": "Fomo Research", "ownerName": "pooowell", "score": 95051.19453924915, "slug": "fomo-research", "source": "clawhub", "stars": 0, "tags": null, "updated_at": 1776748070250, "version": "0.3.0"}, {"category": "security-compliance", "created_at": 1772777664431, "description": "Audit project dependencies for known vulnerabilities (CVEs). Supports npm, pip, Cargo, and Go. Zero API keys required. Safe-by-default: report-only mode, fix...", "description_zh": "", "downloads": 557, "homepage": "https://clawhub.ai/tkuehnl/dep-audit", "iconUrl": null, "installs": 9, "name": "dep-audit", "ownerName": "tkuehnl", "score": 64244.52133794695, "slug": "dep-audit", "source": "clawhub", "stars": 0, "tags": null, "updated_at": 1776748069604, "version": "0.2.1"}, {"category": "data-analysis", "created_at": 1772777175660, "description": "Connect to the Zynd AI Network to discover, communicate with, and pay other AI agents. Search for specialized agents by capability, send them tasks with auto...", "description_zh": "", "downloads": 557, "homepage": "https://clawhub.ai/atmegabuzz/zynd-network", "iconUrl": null, "installs": 14, "name": "Zynd Agent Network", "ownerName": "atmegabuzz", "score": 64244.52133794695, "slug": "zynd-network", "source": "clawhub", "stars": 0, "tags": null, "updated_at": 1776748069586, "version": "1.0.1"}, {"category": "productivity", "created_at": 1772778435403, "description": "Diagnose index1 environment - check Python, Ollama, models, index health.", "description_zh": "", "downloads": 557, "homepage": "https://clawhub.ai/gladego/index1-doctor", "iconUrl": null, "installs": 15, "name": "index1 Doctor", "ownerName": "gladego", "score": 64244.52133794695, "slug": "index1-doctor", "source": "clawhub", "stars": 0, "tags": null, "updated_at": 1776748069578, "version": "2.0.3"}, {"category": "data-analysis", "created_at": 1772775015811, "description": "Choose the right payment method, optimize rewards, handle disputes, and manage bills safely.", "description_zh": "", "downloads": 556, "homepage": "https://clawhub.ai/ivangdavila/pay", "iconUrl": null, "installs": 10, "name": "Pay", "ownerName": "ivangdavila", "score": 1501.1082006850695, "slug": "pay", "source": "clawhub", "stars": 2, "tags": null, "updated_at": 1776770650111, "version": "1.0.0"}, {"category": "security-compliance", "created_at": 1772796903314, "description": "Search academic papers, authors, and citations with detailed metadata using the Semantic Scholar API, supporting queries, paper details, author profiles, and...", "description_zh": "", "downloads": 556, "homepage": "https://clawhub.ai/jackkuo666/semanticscholar-search-skill", "iconUrl": null, "installs": 104, "name": "SemanticScholar Search Skill", "ownerName": "jackkuo666", "score": 42197.8021978022, "slug": "semanticscholar-search-skill", "source": "clawhub", "stars": 1, "tags": null, "updated_at": 1776759082856, "version": "0.1.0"}, {"category": "productivity", "created_at": 1772777364091, "description": "Run basic system commands to verify Python, working directory, file access, and command execution for OpenClaw environment validation and debugging.", "description_zh": "", "downloads": 556, "homepage": "https://clawhub.ai/gustavoziaugra/quick-test", "iconUrl": null, "installs": 19, "name": "Quick Test", "ownerName": "gustavoziaugra", "score": 1051.2384193609378, "slug": "quick-test", "source": "clawhub", "stars": 0, "tags": ["debugging", "system", "test", "verification"], "updated_at": 1776770771326, "version": "1.0.0"}, {"category": "ai-intelligence", "created_at": 1772778017988, "description": "On-chain protocol enabling AI agents to negotiate and settle dynamic USDC deals with escrow decay and turn-based offers on Base, Solana, and testnets.", "description_zh": "", "downloads": 556, "homepage": "https://clawhub.ai/eijiac24/haggle-protocol", "iconUrl": null, "installs": 26, "name": "Haggle Protocol", "ownerName": "eijiac24", "score": 17353.308364544322, "slug": "haggle-protocol", "source": "clawhub", "stars": 0, "tags": null, "updated_at": 1776765250280, "version": "1.0.2"}, {"category": "security-compliance", "created_at": 1772779067311, "description": "Manage Ethereum wallets with encrypted keys, TOTP 2FA, secure ETH transactions, audit logs, and rate limiting for AI-driven payment processing.", "description_zh": "", "downloads": 556, "homepage": "https://clawhub.ai/cerbug45/ai-walllet-payment-system", "iconUrl": null, "installs": 9, "name": "AI Walllet Payment System", "ownerName": "cerbug45", "score": 40673.006583760056, "slug": "ai-walllet-payment-system", "source": "clawhub", "stars": 0, "tags": null, "updated_at": 1776759083466, "version": "0.1.0"}, {"category": "data-analysis", "created_at": 1772776932680, "description": "Provides Q&A, casual chat, and simple tasks using Haiku 4.5; spawns Sonnet 4.5 or Opus 4.6 for analysis, reasoning, and complex tasks as needed.", "description_zh": "", "downloads": 556, "homepage": "https://clawhub.ai/axellageraldinc/claude-hemat", "iconUrl": null, "installs": 18, "name": "Claude Hemat", "ownerName": "axellageraldinc", "score": 40912.43561442237, "slug": "claude-hemat", "source": "clawhub", "stars": 0, "tags": null, "updated_at": 1776759083333, "version": "1.0.3"}, {"category": "ai-intelligence", "created_at": 1772781633730, "description": "The job marketplace where bots hire bots. Post FREE or paid $WAGE jobs, with on-chain escrow, faucet rewards, referrals, judge staking, task inbox, smart mat...", "description_zh": "", "downloads": 556, "homepage": "https://clawhub.ai/cchacons/openjobs", "iconUrl": null, "installs": 27, "name": "openjobs", "ownerName": "cchacons", "score": 97543.85964912281, "slug": "openjobs", "source": "clawhub", "stars": 0, "tags": null, "updated_at": 1776759083275, "version": "3.2.3"}, {"category": "ai-intelligence", "created_at": 1772792184326, "description": "Schedule and manage OpenClaw tasks using natural language with timezone support, failure alerts, logs, and full cron lifecycle commands.", "description_zh": "", "downloads": 556, "homepage": "https://clawhub.ai/mariusfit/smart-cron", "iconUrl": null, "installs": 27, "name": "Smart Cron", "ownerName": "mariusfit", "score": 40673.006583760056, "slug": "smart-cron", "source": "clawhub", "stars": 0, "tags": null, "updated_at": 1776759082610, "version": "1.0.0"}, {"category": "productivity", "created_at": 1772789587300, "description": "Efficient semantic search engine for OpenClaw workspace memory using FAISS and Sentence-Transformers, indexing Markdown and key agent files.", "description_zh": "", "downloads": 556, "homepage": "https://clawhub.ai/royhk920/memory-pro", "iconUrl": null, "installs": 26, "name": "memory-pro", "ownerName": "royhk920", "score": 40436.36363636364, "slug": "memory-pro", "source": "clawhub", "stars": 0, "tags": null, "updated_at": 1776759082550, "version": "2.0.1"}, {"category": "content-creation", "created_at": 1772778246134, "description": "Plans and documents detailed data migrations, including schema mapping, ETL pipeline design, validation tests, rollback strategies, and runbook creation.", "description_zh": "", "downloads": 556, "homepage": "https://clawhub.ai/1kalin/afrexai-data-migration", "iconUrl": null, "installs": 26, "name": "Data Migration Planner", "ownerName": "1kalin", "score": 40465.79330422125, "slug": "afrexai-data-migration", "source": "clawhub", "stars": 0, "tags": ["data migration", "database", "devops", "etl", "schema mapping"], "updated_at": 1776759082377, "version": "1.0.0"}, {"category": "data-analysis", "created_at": 1772781068232, "description": "Suggests emoji reactions for text messages based on sentiment analysis (positive, negative, funny, neutral). Use to increase social engagement and human-like...", "description_zh": "", "downloads": 556, "homepage": "https://clawhub.ai/wanng-ide/emoji-reaction-automator", "iconUrl": null, "installs": 29, "name": "Emoji Reaction Automator", "ownerName": "wanng-ide", "score": 100000, "slug": "emoji-reaction-automator", "source": "clawhub", "stars": 0, "tags": null, "updated_at": 1776751244527, "version": "1.0.0"}, {"category": "productivity", "created_at": 1772777415784, "description": "Enforce safe secret handling by collecting secrets through one-time HTTPS forms, storing them in pass via scripts/vault.sh, and executing tools with environm...", "description_zh": "", "downloads": 556, "homepage": "https://clawhub.ai/bieggerm/passwordstore-broker", "iconUrl": null, "installs": 24, "name": "Passwordstore Broker", "ownerName": "bieggerm", "score": 95697.07401032702, "slug": "passwordstore-broker", "source": "clawhub", "stars": 0, "tags": null, "updated_at": 1776748071413, "version": "1.1.1"}, {"category": "security-compliance", "created_at": 1772776365624, "description": "Manage tasks, projects, workspaces, and scheduling in Motion with full CRUD operations via OAuth-secured API integration.", "description_zh": "", "downloads": 556, "homepage": "https://clawhub.ai/byungkyu/motion", "iconUrl": null, "installs": 9, "name": "Motion", "ownerName": "byungkyu", "score": 95368.782161235, "slug": "motion", "source": "clawhub", "stars": 0, "tags": null, "updated_at": 1776748070870, "version": "1.0.0"}, {"category": "data-analysis", "created_at": 1772777631419, "description": "Rubicon Sentinel v2 is the no-cope geopolitical sovereignty scanner for OpenClaw. Inspired by Secretary Marco Rubio's Munich 2026 masterclass, it delivers re...", "description_zh": "", "downloads": 556, "homepage": "https://clawhub.ai/lgmnemesis/rubicon", "iconUrl": null, "installs": 10, "name": "Rubicon Sentinel v2 — Sovereign Forge", "ownerName": "lgmnemesis", "score": 95697.07401032702, "slug": "rubicon", "source": "clawhub", "stars": 0, "tags": ["geopolitics", "rubio", "sovereignty"], "updated_at": 1776748070497, "version": "2.0.0"}, {"category": "ai-intelligence", "created_at": 1772775680617, "description": "Mint a Claws NFT from the agent-only collection on Solana. Requires solving a challenge and a Solana wallet.", "description_zh": "", "downloads": 556, "homepage": "https://clawhub.ai/liboheng/claws-nft", "iconUrl": null, "installs": 27, "name": "Claws Nft", "ownerName": "liboheng", "score": 95697.07401032702, "slug": "claws-nft", "source": "clawhub", "stars": 0, "tags": null, "updated_at": 1776748070375, "version": "1.0.0"}, {"category": "developer-tools", "created_at": 1772786767317, "description": "Create and list Notion tasks in a single database via Notion API. Use when the user asks to add tasks, list today tasks, or capture quick todos in Notion fro...", "description_zh": "", "downloads": 556, "homepage": "https://clawhub.ai/luciorenovato/notion-mvp", "iconUrl": null, "installs": 36, "name": "Notion Mvp", "ownerName": "luciorenovato", "score": 95205.4794520548, "slug": "notion-mvp", "source": "clawhub", "stars": 0, "tags": null, "updated_at": 1776748070060, "version": "1.0.0"}, {"category": "productivity", "created_at": 1772781898318, "description": "Create an Instagram carousel from a popular-picks list with Reddit quotes + Topaz 2x upscaling. Cover = \"clean\" style (\"Top CATEGORY in Destination\"), attrac...", "description_zh": "", "downloads": 556, "homepage": "https://clawhub.ai/psyduckler/reddit-quote-topaz", "iconUrl": null, "installs": 25, "name": "Reddit Quote Carousel Topaz", "ownerName": "psyduckler", "score": 95205.4794520548, "slug": "reddit-quote-topaz", "source": "clawhub", "stars": 0, "tags": null, "updated_at": 1776748070002, "version": "1.0.0"}, {"category": "content-creation", "created_at": 1772802285809, "description": "Enables voice synthesis, voice cloning, voice design, and audio post-processing using MiniMax Voice API and FFmpeg. Use when converting text to speech, creat...", "description_zh": "", "downloads": 555, "homepage": "https://clawhub.ai/blue-coconut/mm-voice-maker", "iconUrl": null, "installs": 70, "name": "mmVoiceMaker", "ownerName": "blue-coconut", "score": 3671.422601635723, "slug": "mm-voice-maker", "source": "clawhub", "stars": 3, "tags": null, "updated_at": 1776770171086, "version": "1.0.1"}, {"category": "security-compliance", "created_at": 1772777642055, "description": "Fine-tune LLMs with data preparation, provider selection, cost estimation, evaluation, and compliance checks.", "description_zh": "", "downloads": 555, "homepage": "https://clawhub.ai/ivangdavila/fine-tuning", "iconUrl": null, "installs": 15, "name": "Fine-Tuning", "ownerName": "ivangdavila", "score": 1729.9528987614121, "slug": "fine-tuning", "source": "clawhub", "stars": 2, "tags": null, "updated_at": 1776770690431, "version": "1.0.0"}, {"category": "data-analysis", "created_at": 1772790391001, "description": "Data migration and synchronization to SurrealDB from MongoDB, PostgreSQL, MySQL, Neo4j, Kafka, and JSONL. Full and incremental CDC sync. Part of the surreal-...", "description_zh": "", "downloads": 555, "homepage": "https://clawhub.ai/24601/surreal-sync", "iconUrl": null, "installs": 3, "name": "surreal-sync", "ownerName": "24601", "score": 1729.9528987614121, "slug": "surreal-sync", "source": "clawhub", "stars": 2, "tags": ["surrealdb"], "updated_at": 1776770690421, "version": "1.2.1"}, {"category": "productivity", "created_at": 1772785688698, "description": "Search Google, scrape web pages, Amazon product pages, YouTube subtitles, or Reddit (post/subreddit) using the Decodo Scraper OpenClaw Skill.", "description_zh": "", "downloads": 555, "homepage": "https://clawhub.ai/donatasdecodo/decodo-scraper-skill", "iconUrl": null, "installs": 49, "name": "Decodo Web Scraper", "ownerName": "donatasdecodo", "score": 11359.146582378507, "slug": "decodo-scraper-skill", "source": "clawhub", "stars": 1, "tags": null, "updated_at": 1776763450808, "version": "1.1.0"}, {"category": "data-analysis", "created_at": 1772794600987, "description": "AI-powered SEO keyword research, competitor analysis, and content opportunity identification for any niche. Find the exact keywords your target audience sear...", "description_zh": "", "downloads": 555, "homepage": "https://clawhub.ai/danielblinker83-bot/seo-research-master", "iconUrl": null, "installs": 54, "name": "SEO Research Master — Keyword & Content Strategy", "ownerName": "danielblinker83-bot", "score": 6694.0055481847785, "slug": "seo-research-master", "source": "clawhub", "stars": 0, "tags": ["competitor-analysis", "content", "content-strategy", "keyword-research", "marketing", "seo", "social-media"], "updated_at": 1776765849738, "version": "1.0.1"}, {"category": "ai-intelligence", "created_at": 1772784846093, "description": "Navigate New York State for living, moving, working, and visiting with region fit, taxes, winter risk, and daily logistics.", "description_zh": "", "downloads": 555, "homepage": "https://clawhub.ai/ivangdavila/new-york", "iconUrl": null, "installs": 20, "name": "New York (State)", "ownerName": "ivangdavila", "score": 100000, "slug": "new-york", "source": "clawhub", "stars": 0, "tags": null, "updated_at": 1776749870326, "version": "1.0.1"}, {"category": "communication-collaboration", "created_at": 1772783552884, "description": "Turn meeting transcripts into operational outputs — action items, decisions, follow-up email drafts, and ticket drafts. Not a summarizer. An operator. Accept...", "description_zh": "", "downloads": 555, "homepage": "https://clawhub.ai/tkuehnl/meeting-autopilot", "iconUrl": null, "installs": 29, "name": "meeting-autopilot", "ownerName": "tkuehnl", "score": 94548.55195911413, "slug": "meeting-autopilot", "source": "clawhub", "stars": 0, "tags": null, "updated_at": 1776748071597, "version": "0.1.2"}, {"category": "ai-intelligence", "created_at": 1772783532687, "description": "Automated hierarchical memory compression system that prevents context overflow through daily→weekly→monthly→core compression. Use when you need (1) long-ter...", "description_zh": "", "downloads": 555, "homepage": "https://clawhub.ai/bugmaker2/fractal-memory", "iconUrl": null, "installs": 27, "name": "Fractal Memory", "ownerName": "bugmaker2", "score": 95197.25557461407, "slug": "fractal-memory", "source": "clawhub", "stars": 0, "tags": null, "updated_at": 1776748070899, "version": "1.0.0"}, {"category": "developer-tools", "created_at": 1772777905135, "description": "Fetch personalized daily horoscope forecasts from zodiac-today.com API based on natal chart calculations. Use when a user wants: (1) daily guidance on what a...", "description_zh": "", "downloads": 555, "homepage": "https://clawhub.ai/dowands/zodiac-horoscope", "iconUrl": null, "installs": 12, "name": "Zodiac Horoscope", "ownerName": "dowands", "score": 95034.24657534246, "slug": "zodiac-horoscope", "source": "clawhub", "stars": 0, "tags": null, "updated_at": 1776748070143, "version": "1.3.0"}, {"category": "communication-collaboration", "created_at": 1772784932743, "description": "Complete workflow for time series datasets (Energy, Manufacturing, Climate) on Kaggle to Data Annotation platform (data.smlcrm.com). Includes downloading, cl...", "description_zh": "", "downloads": 555, "homepage": "https://clawhub.ai/deyashmukh/data-cleaning-annotation-workflow", "iconUrl": null, "installs": 22, "name": "Data Cleaning & Annotation Workflow", "ownerName": "deyashmukh", "score": 95034.24657534246, "slug": "data-cleaning-annotation-workflow", "source": "clawhub", "stars": 0, "tags": null, "updated_at": 1776748069964, "version": "1.0.0"}, {"category": "developer-tools", "created_at": 1772779618095, "description": "Standard PR review and merge workflow for task-driven development. Use when reviewing a programmer agent PR linked to a task, deciding merge vs change reques...", "description_zh": "", "downloads": 555, "homepage": "https://clawhub.ai/anikgnr/task-review-workflow", "iconUrl": null, "installs": 12, "name": "Task Review Workflow", "ownerName": "anikgnr", "score": 95034.24657534246, "slug": "task-review-workflow", "source": "clawhub", "stars": 0, "tags": null, "updated_at": 1776748069897, "version": "0.1.0"}, {"category": "developer-tools", "created_at": 1772781949724, "description": "Add and manage 19,000+ icons from 9 libraries in React, Vue, Svelte, or web projects using the Unicon CLI for search, bundles, previews, and tree-shakable co...", "description_zh": "", "downloads": 554, "homepage": "https://clawhub.ai/charlesrhoward/unicon", "iconUrl": null, "installs": 29, "name": "🦄 Unicon CLI", "ownerName": "charlesrhoward", "score": 2443.0032228544146, "slug": "unicon", "source": "clawhub", "stars": 3, "tags": null, "updated_at": 1776770171274, "version": "0.2.0"}, {"category": "productivity", "created_at": 1772786370985, "description": "7 seconds. That's how long a recruiter spends on your resume. CellCog makes every second count — #1 on DeepResearch Bench (Feb 2026) to research your target...", "description_zh": "", "downloads": 554, "homepage": "https://clawhub.ai/nitishgargiitd/resume-cog", "iconUrl": null, "installs": 23, "name": "resume-cog", "ownerName": "nitishgargiitd", "score": 98795.18072289156, "slug": "resume-cog", "source": "clawhub", "stars": 1, "tags": null, "updated_at": 1776748070395, "version": "1.0.1"}, {"category": "productivity", "created_at": 1773057938705, "description": "Professional investment advisory skill. Use when user asks about investing, wealth management, asset allocation, fund/etf selection, retirement planning, or...", "description_zh": "", "downloads": 554, "homepage": "https://clawhub.ai/codeblackhole1024/asset-allocation", "iconUrl": null, "installs": 58, "name": "Asset Allocation", "ownerName": "codeblackhole1024", "score": 7286.597395764829, "slug": "asset-allocation", "source": "clawhub", "stars": 0, "tags": ["cfa", "finance", "investment", "portfolio"], "updated_at": 1776762315057, "version": "1.0.1"}, {"category": "data-analysis", "created_at": 1772785220255, "description": "Cross-market prediction market data aggregator. Covers Polymarket, Manifold, Metaculus, and Kalshi. Finds arbitrage between markets, tracks consensus drift,...", "description_zh": "", "downloads": 554, "homepage": "https://clawhub.ai/jamierossouw/prediction-market-aggregator", "iconUrl": null, "installs": 10, "name": "Prediction Market Aggregator", "ownerName": "jamierossouw", "score": 7394.554191137214, "slug": "prediction-market-aggregator", "source": "clawhub", "stars": 0, "tags": null, "updated_at": 1776761390461, "version": "1.0.0"}, {"category": "developer-tools", "created_at": 1772780511802, "description": "Daily Wakapi (WakaTime-compatible) summary → local CSV files. Fetch today stats and append/update CSVs for totals, top projects, and top languages.", "description_zh": "", "downloads": 554, "homepage": "https://clawhub.ai/cosformula/wakapi-sync-skill", "iconUrl": null, "installs": 12, "name": "Wakapi Sync", "ownerName": "cosformula", "score": 40261.62790697674, "slug": "wakapi-sync-skill", "source": "clawhub", "stars": 0, "tags": null, "updated_at": 1776759083564, "version": "0.2.1"}, {"category": "content-creation", "created_at": 1772781729228, "description": "Convert client briefs into detailed motion design/VFX production plans, estimates, and invoice drafts with optional project folder setup and invoicing API in...", "description_zh": "", "downloads": 554, "homepage": "https://clawhub.ai/wiseape11/creative-ops-copilot", "iconUrl": null, "installs": 31, "name": "Creative Ops Copilot", "ownerName": "wiseape11", "score": 95025.72898799313, "slug": "creative-ops-copilot", "source": "clawhub", "stars": 0, "tags": null, "updated_at": 1776759083211, "version": "0.1.0"}, {"category": "data-analysis", "created_at": 1772778731827, "description": "Professional analytical digest of top 10 podcast industry news, trends, and business insights from premier global sources.", "description_zh": "", "downloads": 554, "homepage": "https://clawhub.ai/te1man/podcast-insider-top10", "iconUrl": null, "installs": 24, "name": "Podcast Insider Top-10", "ownerName": "te1man", "score": 100000, "slug": "podcast-insider-top10", "source": "clawhub", "stars": 0, "tags": null, "updated_at": 1776755588757, "version": "1.0.0"}, {"category": "developer-tools", "created_at": 1772777480202, "description": "Control and manage VirtualBox virtual machines directly from openclaw. Start, stop, snapshot, clone, configure and monitor VMs using VBoxManage CLI. Supports...", "description_zh": "", "downloads": 554, "homepage": "https://clawhub.ai/0xfratex/virtualboxmanager", "iconUrl": null, "installs": 7, "name": "Virtual Box Manager", "ownerName": "0xfratex", "score": 94539.24914675768, "slug": "virtualboxmanager", "source": "clawhub", "stars": 0, "tags": null, "updated_at": 1776748070214, "version": "0.0.1"}, {"category": "content-creation", "created_at": 1772796301167, "description": "Produce complete code-based animated videos by scripting, generating narration, creating visual assets, and rendering final MP4s using the code2animation fra...", "description_zh": "", "downloads": 553, "homepage": "https://clawhub.ai/etrobot/code2animation", "iconUrl": null, "installs": 52, "name": "code2animation", "ownerName": "etrobot", "score": 249.56231903575517, "slug": "code2animation", "source": "clawhub", "stars": 2, "tags": null, "updated_at": 1776770771199, "version": "1.0.1"}, {"category": "communication-collaboration", "created_at": 1772778848079, "description": "Rocket.Chat team messaging - channels, messages, users, integrations via REST API", "description_zh": "", "downloads": 553, "homepage": "https://clawhub.ai/zenjabba/rocketchat", "iconUrl": null, "installs": 16, "name": "RocketChat", "ownerName": "zenjabba", "score": 97614.99148211244, "slug": "rocketchat", "source": "clawhub", "stars": 1, "tags": null, "updated_at": 1776748071587, "version": "1.0.2"}, {"category": "developer-tools", "created_at": 1772779825550, "description": "Transfer credentials securely between networked and air-gapped devices using QR codes without exposing passwords or storing data persistently.", "description_zh": "", "downloads": 553, "homepage": "https://clawhub.ai/lifehackjohn/qr-password", "iconUrl": null, "installs": 21, "name": "QR Password", "ownerName": "lifehackjohn", "score": 4102.373887240356, "slug": "qr-password", "source": "clawhub", "stars": 0, "tags": null, "updated_at": 1776769450122, "version": "1.0.0"}]}