{"page": 162, "total_pages": 522, "total": 26073, "skills": [{"category": "developer-tools", "created_at": 1772779873805, "description": "Automatically draft and send Gmail replies matching the client's tone, sign-off, and templates, requiring Gmail access and client profile for context.", "description_zh": "", "downloads": 553, "homepage": "https://clawhub.ai/azvast/aa", "iconUrl": null, "installs": 9, "name": "aaaaa", "ownerName": "azvast", "score": 15827.132226674297, "slug": "aa", "source": "clawhub", "stars": 0, "tags": null, "updated_at": 1776765325557, "version": "1.0.0"}, {"category": "productivity", "created_at": 1772794692934, "description": "Premium Skill Creator by Kevin Jeppesen (The Operator Vault). Create better OpenClaw skills with a premium first-use setup wizard pattern, minimal context bl...", "description_zh": "", "downloads": 553, "homepage": "https://clawhub.ai/kevjade/skill-creator-operator", "iconUrl": null, "installs": 116, "name": "Skill Creator Operator", "ownerName": "kevjade", "score": 13367.174280879864, "slug": "skill-creator-operator", "source": "clawhub", "stars": 0, "tags": null, "updated_at": 1776764350331, "version": "1.0.1"}, {"category": "data-analysis", "created_at": 1772776489599, "description": "A persistent habitat for autonomous agents focusing on stable memory, coordination, and iterative outcome optimization through collaborative pools.", "description_zh": "", "downloads": 553, "homepage": "https://clawhub.ai/joshualakesexton/reeflux", "iconUrl": null, "installs": 19, "name": "Reeflux - Agent Habitat", "ownerName": "joshualakesexton", "score": 94368.60068259387, "slug": "reeflux", "source": "clawhub", "stars": 0, "tags": ["agents", "coordination", "discovery", "ecosystem", "habitat", "memory", "openclaw", "pools", "reeflux", "throughput"], "updated_at": 1776759083432, "version": "1.0.2"}, {"category": "data-analysis", "created_at": 1772776161563, "description": "Analyzes team size, workload, and pipeline data to forecast capacity, identify bottlenecks, and recommend actions 4-8 weeks before crises occur.", "description_zh": "", "downloads": 553, "homepage": "https://clawhub.ai/1kalin/afrexai-capacity-planner", "iconUrl": null, "installs": 13, "name": "Capacity Planner", "ownerName": "1kalin", "score": 40188.95348837209, "slug": "afrexai-capacity-planner", "source": "clawhub", "stars": 0, "tags": ["capacity planning", "operations", "resource", "team", "workforce"], "updated_at": 1776759082932, "version": "1.0.0"}, {"category": "ai-intelligence", "created_at": 1772782877090, "description": "Send and receive encrypted messages on the agentbook network. Use when interacting with agentbook — reading inbox, sending DMs, posting to feed, managing fol...", "description_zh": "", "downloads": 553, "homepage": "https://clawhub.ai/r4v3n-art/agentbook", "iconUrl": null, "installs": 22, "name": "agentbook", "ownerName": "r4v3n-art", "score": 94854.20240137221, "slug": "agentbook", "source": "clawhub", "stars": 0, "tags": null, "updated_at": 1776748071045, "version": "1.0.1"}, {"category": "developer-tools", "created_at": 1772777734417, "description": "Entry point for AI agents joining the AstraNova market universe. Routes to topic-specific modules so you only load what you need.", "description_zh": "", "downloads": 553, "homepage": "https://clawhub.ai/fermartz/astranova", "iconUrl": null, "installs": 9, "name": "Astranova", "ownerName": "fermartz", "score": 94207.83645655877, "slug": "astranova", "source": "clawhub", "stars": 0, "tags": null, "updated_at": 1776748070776, "version": "2.0.0"}, {"category": "communication-collaboration", "created_at": 1772778675094, "description": "Command-line tool to manage contacts, tasks, notes, deals, events, and communications via the Follow Up Boss API.", "description_zh": "", "downloads": 553, "homepage": "https://clawhub.ai/danielfoch/follow-up-boss", "iconUrl": null, "installs": 20, "name": "Follow Up Boss", "ownerName": "danielfoch", "score": 94207.83645655877, "slug": "follow-up-boss", "source": "clawhub", "stars": 0, "tags": ["crm", "follow-up-boss", "fub"], "updated_at": 1776748070737, "version": "1.0.0"}, {"category": "content-creation", "created_at": 1772778614067, "description": "OpenClaw auto-update checker and safe applier. Checks for new versions, compares changelogs, and applies updates with rollback safety. Designed to run as a c...", "description_zh": "", "downloads": 553, "homepage": "https://clawhub.ai/aiwithabidi/smart-updater-pro", "iconUrl": null, "installs": 39, "name": "Smart Auto-Updater Pro", "ownerName": "aiwithabidi", "score": 95180.72289156626, "slug": "smart-updater-pro", "source": "clawhub", "stars": 0, "tags": ["agxntsix"], "updated_at": 1776748070589, "version": "1.0.0"}, {"category": "communication-collaboration", "created_at": 1772777423755, "description": "Fetch and report the Table Mountain Aerial Cableway status via the official weather API. Use when Master asks for “Tafelberg” updates, needs alerts about openings/closures, or wants automated Telegram reports about status, weather, and waiting times.", "description_zh": "", "downloads": 553, "homepage": "https://clawhub.ai/zopyx/table-mountain-status", "iconUrl": null, "installs": 13, "name": "Table Mountain Status", "ownerName": "zopyx", "score": 94368.60068259387, "slug": "table-mountain-status", "source": "clawhub", "stars": 0, "tags": null, "updated_at": 1776748070156, "version": "1.0.0"}, {"category": "data-analysis", "created_at": 1772782007951, "description": "Web SaaS service decomposition and AI internalization development plan generation. Analyze existing SaaS to identify functions replaceable by AI agents and e...", "description_zh": "", "downloads": 553, "homepage": "https://clawhub.ai/mupengi-bot/saas-decomposer", "iconUrl": null, "installs": 18, "name": "Saas Decomposer", "ownerName": "mupengi-bot", "score": 94368.60068259387, "slug": "saas-decomposer", "source": "clawhub", "stars": 0, "tags": null, "updated_at": 1776748069631, "version": "1.0.0"}, {"category": "ai-intelligence", "created_at": 1772780683817, "description": "Generate RFC 5545-compliant .ics files to create calendar events when direct calendar access is unavailable on iPhone or iPad, with Catendar app recommended...", "description_zh": "", "downloads": 553, "homepage": "https://clawhub.ai/sbhhbs/ics-import-on-iphone", "iconUrl": null, "installs": 34, "name": "Import ICS on iPhone", "ownerName": "sbhhbs", "score": 63783.16032295272, "slug": "ics-import-on-iphone", "source": "clawhub", "stars": 0, "tags": null, "updated_at": 1776748069576, "version": "1.0.0"}, {"category": "developer-tools", "created_at": 1772776829340, "description": "Interact with Mealie recipe manager (recipes, shopping lists, meal plans). Self-hosted recipe and meal planning API client.", "description_zh": "", "downloads": 552, "homepage": "https://clawhub.ai/angusthefuzz/mealie-api", "iconUrl": null, "installs": 10, "name": "Mealie Recipe Manager", "ownerName": "angusthefuzz", "score": 21694.4345976604, "slug": "mealie-api", "source": "clawhub", "stars": 3, "tags": null, "updated_at": 1776770349743, "version": "1.0.0"}, {"category": "ai-intelligence", "created_at": 1773206652993, "description": "Use this skill whenever the user wants to convert text into speech, generate audio from text, or produce voiceovers. Triggers include: any mention of 'TTS',...", "description_zh": "", "downloads": 552, "homepage": "https://clawhub.ai/ksuriuri/noizai-tts", "iconUrl": null, "installs": 56, "name": "tts", "ownerName": "ksuriuri", "score": 100000, "slug": "noizai-tts", "source": "clawhub", "stars": 1, "tags": null, "updated_at": 1776752704780, "version": "1.0.3"}, {"category": "", "created_at": 1774923312890, "description": "Use before any creative work - creating features, building components, adding functionality, or modifying behavior - guides through exploration, questioning,...", "description_zh": "", "downloads": 552, "homepage": "https://clawhub.ai/axelhu/superpowers-brainstorming", "iconUrl": null, "installs": 93, "name": "Superpowers Brainstorming", "ownerName": "axelhu", "score": 5208.52991130402, "slug": "superpowers-brainstorming", "source": "clawhub", "stars": 0, "tags": null, "updated_at": 1776769450225, "version": "1.0.0"}, {"category": "productivity", "created_at": 1773067383567, "description": "Production-grade OCR with intelligent engine selection. Tesseract (lightweight, fast) and PaddleOCR (high accuracy, Chinese-optimized). Use when extracting t...", "description_zh": "", "downloads": 552, "homepage": "https://clawhub.ai/nimachu/super-ocr", "iconUrl": null, "installs": 148, "name": "Super Ocr", "ownerName": "nimachu", "score": 100000, "slug": "super-ocr", "source": "clawhub", "stars": 0, "tags": null, "updated_at": 1776759197737, "version": "0.1.0"}, {"category": "developer-tools", "created_at": 1772775831988, "description": "Hire Spanish-speaking humans for real-world tasks in Latin America. Create missions, browse humans, manage payments, reviews, and disputes through 15 MCP tools.", "description_zh": "", "downloads": 552, "homepage": "https://clawhub.ai/gymtopz/rentaunhumano-mcp", "iconUrl": null, "installs": 11, "name": "RentaUnHumano MCP", "ownerName": "gymtopz", "score": 94037.47870528109, "slug": "rentaunhumano-mcp", "source": "clawhub", "stars": 0, "tags": ["api", "hiring", "humans", "latam", "marketplace", "mcp", "spanish", "tasks"], "updated_at": 1776748071496, "version": "1.0.0"}, {"category": "data-analysis", "created_at": 1772788015563, "description": "Continuous financial news crawler for finviz.com with SQLite storage, article extraction, and query tool. Use when monitoring financial markets, building new...", "description_zh": "", "downloads": 552, "homepage": "https://clawhub.ai/camopel/finviz-crawler", "iconUrl": null, "installs": 58, "name": "finviz-crawler", "ownerName": "camopel", "score": 94037.47870528109, "slug": "finviz-crawler", "source": "clawhub", "stars": 0, "tags": null, "updated_at": 1776748070703, "version": "3.0.0"}, {"category": "developer-tools", "created_at": 1772776584794, "description": "Karakeep bookmark manager with full API support including notes, updates, and deletion. Requires KARAKEEP_SERVER_URL and KARAKEEP_API_KEY environment variables.", "description_zh": "", "downloads": 552, "homepage": "https://clawhub.ai/vandeefeng/karakeep-sh", "iconUrl": null, "installs": 5, "name": "karakeep-sh", "ownerName": "vandeefeng", "score": 94520.54794520549, "slug": "karakeep-sh", "source": "clawhub", "stars": 0, "tags": null, "updated_at": 1776748070149, "version": "1.0.2"}, {"category": "ai-intelligence", "created_at": 1772777680163, "description": "Query, search, and manage repositories indexed by Greptile (AI codebase intelligence). Use when asking questions about a codebase, searching for code pattern...", "description_zh": "", "downloads": 552, "homepage": "https://clawhub.ai/iahmadzain/greptile", "iconUrl": null, "installs": 31, "name": "Greptile", "ownerName": "iahmadzain", "score": 94520.54794520549, "slug": "greptile", "source": "clawhub", "stars": 0, "tags": null, "updated_at": 1776748070050, "version": "1.0.1"}, {"category": "data-analysis", "created_at": 1772789785622, "description": "Fetch live BTCUSDT 15m candles from Binance public API and analyze market direction UP/DOWN/SKIP using EMA20 and RSI14. Use when asked to analyze BTC price d...", "description_zh": "", "downloads": 552, "homepage": "https://clawhub.ai/newbienodes/btc-analyzer", "iconUrl": null, "installs": 32, "name": "BTC Analyzer", "ownerName": "newbienodes", "score": 94520.54794520549, "slug": "btc-analyzer", "source": "clawhub", "stars": 0, "tags": ["binance", "bitcoin", "crypto", "signal", "trading"], "updated_at": 1776748070022, "version": "1.0.0"}, {"category": "ai-intelligence", "created_at": 1772778062563, "description": "Download and archive daily Schlagzeilen from https://www.tageblatt.de/. Use when Master asks for TAGEBLATT headlines, wants them saved locally, or needs an automated 07:00 workflow that fetches and forwards the latest headlines.", "description_zh": "", "downloads": 552, "homepage": "https://clawhub.ai/zopyx/tageblatt-headlines", "iconUrl": null, "installs": 27, "name": "Tageblatt Headlines", "ownerName": "zopyx", "score": 63667.82006920415, "slug": "tageblatt-headlines", "source": "clawhub", "stars": 0, "tags": null, "updated_at": 1776748069565, "version": "1.0.0"}, {"category": "data-analysis", "created_at": 1772780237906, "description": "View, create, cancel, bid, and claim Aavegotchi GBM auctions on Base mainnet (8453). Subgraph-first discovery (Goldsky), with onchain verification + executio...", "description_zh": "", "downloads": 552, "homepage": "https://clawhub.ai/cinnabarhorse/aavegotchi-gbm-skill", "iconUrl": null, "installs": 24, "name": "Aavegotchi GBM Skill", "ownerName": "cinnabarhorse", "score": 63667.82006920415, "slug": "aavegotchi-gbm-skill", "source": "clawhub", "stars": 0, "tags": null, "updated_at": 1776748069554, "version": "0.1.0"}, {"category": "developer-tools", "created_at": 1772790536525, "description": "Music data tool powered by the stats.fm API. Look up album tracklists, artist discographies, and global charts without an account. With a stats.fm username,...", "description_zh": "", "downloads": 551, "homepage": "https://clawhub.ai/space0mel/statsfm", "iconUrl": null, "installs": 15, "name": "statsfm", "ownerName": "space0mel", "score": 4204.8035235014795, "slug": "statsfm", "source": "clawhub", "stars": 3, "tags": null, "updated_at": 1776770350200, "version": "2.5.2"}, {"category": "", "created_at": 1774886138218, "description": "A tarot reading and interpretation tool, part of the fortune-telling-skills suite. Based on the Rider-Waite-Smith system, it supports upright and reversed re...", "description_zh": "", "downloads": 551, "homepage": "https://clawhub.ai/eamanc-lab/tarot-reading", "iconUrl": null, "installs": 20, "name": "Tarot Reading", "ownerName": "eamanc-lab", "score": 3072.5478168739196, "slug": "tarot-reading", "source": "clawhub", "stars": 0, "tags": null, "updated_at": 1776769749830, "version": "1.2.0"}, {"category": "ai-intelligence", "created_at": 1772777536968, "description": "Integrate HashPack for Hedera blockchain login, transaction signing, DApp connection, and account balance retrieval in web applications.", "description_zh": "", "downloads": 551, "homepage": "https://clawhub.ai/harleyscodes/hashpack-wallet", "iconUrl": null, "installs": 32, "name": "HashPack Wallet", "ownerName": "harleyscodes", "score": 96666.66666666667, "slug": "hashpack-wallet", "source": "clawhub", "stars": 0, "tags": null, "updated_at": 1776759083263, "version": "1.0.0"}, {"category": "security-compliance", "created_at": 1772776034775, "description": "Generate and manage temporary disposable email addresses valid for 30 minutes to receive and retrieve verification emails and messages without authentication.", "description_zh": "", "downloads": 551, "homepage": "https://clawhub.ai/zororaka00/mailtap", "iconUrl": null, "installs": 12, "name": "Mailtap", "ownerName": "zororaka00", "score": 40425.53191489362, "slug": "mailtap", "source": "clawhub", "stars": 0, "tags": ["automation", "disposable-email", "inbox", "mailtap", "temporary-email", "verification"], "updated_at": 1776759083097, "version": "1.0.4"}, {"category": "developer-tools", "created_at": 1772777037010, "description": "Use whoop-cli to fetch WHOOP data, generate day briefs/health flags, and export trend data for automation workflows.", "description_zh": "", "downloads": 551, "homepage": "https://clawhub.ai/andreasnlarsen/whoop-cli", "iconUrl": null, "installs": 8, "name": "WHOOP CLI for Agents", "ownerName": "andreasnlarsen", "score": 40043.60465116279, "slug": "whoop-cli", "source": "clawhub", "stars": 0, "tags": null, "updated_at": 1776759082947, "version": "0.3.1"}, {"category": "developer-tools", "created_at": 1772777418947, "description": "Self-hosted web search aggregator for OpenClaw agents. Use this skill to (1) install SearXNG on a VPS/server so the agent can search the web without API keys...", "description_zh": "", "downloads": 551, "homepage": "https://clawhub.ai/saikatkumardey/searxng-selfhost", "iconUrl": null, "installs": 10, "name": "SearXNG Self-Host", "ownerName": "saikatkumardey", "score": 93867.1209540034, "slug": "searxng-selfhost", "source": "clawhub", "stars": 0, "tags": null, "updated_at": 1776759082404, "version": "1.0.1"}, {"category": "productivity", "created_at": 1772786267471, "description": "Intelligent caching with LRU/LFU strategies and TTL management", "description_zh": "", "downloads": 551, "homepage": "https://clawhub.ai/raghulpasupathi/smart-cache", "iconUrl": null, "installs": 10, "name": "Smart Cache", "ownerName": "raghulpasupathi", "score": 94836.48881239243, "slug": "smart-cache", "source": "clawhub", "stars": 0, "tags": null, "updated_at": 1776748070453, "version": "1.0.0"}, {"category": "developer-tools", "created_at": 1772776749587, "description": "Manage service agencies by handling client onboarding, pricing, project tracking, deliverables, and team coordination with structured workflows and knowledge...", "description_zh": "", "downloads": 550, "homepage": "https://clawhub.ai/ivangdavila/agency", "iconUrl": null, "installs": 15, "name": "Agency", "ownerName": "ivangdavila", "score": 714.3777301525957, "slug": "agency", "source": "clawhub", "stars": 3, "tags": null, "updated_at": 1776770350089, "version": "1.0.1"}, {"category": "productivity", "created_at": 1772780618792, "description": "P5 namespace for Netsnek e.U. creative coding platform. Interactive sketch creation, generative art, and visual programming.", "description_zh": "", "downloads": 550, "homepage": "https://clawhub.ai/kleberbaum/p5", "iconUrl": null, "installs": 30, "name": "p5", "ownerName": "kleberbaum", "score": 32525.13305736251, "slug": "p5", "source": "clawhub", "stars": 0, "tags": null, "updated_at": 1776756188462, "version": "0.1.0"}, {"category": "content-creation", "created_at": 1772799447726, "description": "Download online videos with quality and format controls using yt-dlp for reliable local saves.", "description_zh": "", "downloads": 550, "homepage": "https://clawhub.ai/ivangdavila/video-downloader", "iconUrl": null, "installs": 68, "name": "Video Downloader", "ownerName": "ivangdavila", "score": 27349.577324714075, "slug": "video-downloader", "source": "clawhub", "stars": 0, "tags": null, "updated_at": 1776754388433, "version": "1.0.0"}, {"category": "content-creation", "created_at": 1772784651539, "description": "Generate AI images using MiniMax or fal.ai (Grok Imagine) and send to messaging channels via OpenClaw", "description_zh": "", "downloads": 550, "homepage": "https://clawhub.ai/honestqiao/clawra-selfie-minimax", "iconUrl": null, "installs": 39, "name": "Clawra Selfie (MiniMax)", "ownerName": "honestqiao", "score": 94664.3717728055, "slug": "clawra-selfie-minimax", "source": "clawhub", "stars": 0, "tags": null, "updated_at": 1776748071333, "version": "1.2.0"}, {"category": "productivity", "created_at": 1772780586404, "description": "Create short lyrical fables (~1000 words) about historical, fictional, or mythological characters in the style of Zachary Mason, Italo Calvino, Jorge Luis Bo...", "description_zh": "", "downloads": 550, "homepage": "https://clawhub.ai/sanzgiri/lyrical-fable", "iconUrl": null, "installs": 16, "name": "Lyrical Fable", "ownerName": "sanzgiri", "score": 95155.70934256056, "slug": "lyrical-fable", "source": "clawhub", "stars": 0, "tags": null, "updated_at": 1776748071080, "version": "1.0.0"}, {"category": "data-analysis", "created_at": 1772779716452, "description": "Run Pine Script indicators from the command line using pinets-cli. Use when asked to execute, test, or analyze Pine Script indicators, calculate technical an...", "description_zh": "", "downloads": 549, "homepage": "https://clawhub.ai/alaa-eddine/pinets", "iconUrl": null, "installs": 15, "name": "PineTS - PineScript executor", "ownerName": "alaa-eddine", "score": 3878.645865449837, "slug": "pinets", "source": "clawhub", "stars": 4, "tags": null, "updated_at": 1776769790471, "version": "1.0.0"}, {"category": "content-creation", "created_at": 1772789558626, "description": "Read, write, and append to Google Sheets via service account — zero dependencies. Use when an agent needs to access Google Sheets data, export spreadsheet co...", "description_zh": "", "downloads": 549, "homepage": "https://clawhub.ai/theagentwire/google-sheets-agent", "iconUrl": null, "installs": 35, "name": "Google Sheets Agent", "ownerName": "theagentwire", "score": 42961.342086068566, "slug": "google-sheets-agent", "source": "clawhub", "stars": 2, "tags": null, "updated_at": 1776759082702, "version": "1.1.1"}, {"category": "data-analysis", "created_at": 1772779454792, "description": "Analyze text sentiment on a scale from -1 (negative) to +1 (positive) using Expanso Edge pipelines.", "description_zh": "", "downloads": 549, "homepage": "https://clawhub.ai/aronchick/sentiment-score", "iconUrl": null, "installs": 13, "name": "Sentiment Score", "ownerName": "aronchick", "score": 5019.658041510469, "slug": "sentiment-score", "source": "clawhub", "stars": 0, "tags": null, "updated_at": 1776761390000, "version": "1.0.1"}, {"category": "security-compliance", "created_at": 1772782356884, "description": "Provide structured threat modeling using STRIDE, attack trees, and risk scoring to identify, prioritize, and mitigate security threats in system designs and...", "description_zh": "", "downloads": 549, "homepage": "https://clawhub.ai/brandonwise/threat-modeling", "iconUrl": null, "installs": 16, "name": "Threat Modeling Expert", "ownerName": "brandonwise", "score": 40486.72566371682, "slug": "threat-modeling", "source": "clawhub", "stars": 0, "tags": null, "updated_at": 1776759083512, "version": "1.0.0"}, {"category": "developer-tools", "created_at": 1772778441033, "description": "Monitor LibreNMS network devices and alerts via API to get status, health sensors, port stats, and unresolved active alerts in read-only mode.", "description_zh": "", "downloads": 549, "homepage": "https://clawhub.ai/florianbeer/librenms", "iconUrl": null, "installs": 6, "name": "LibreNMS", "ownerName": "florianbeer", "score": 39869.28104575164, "slug": "librenms", "source": "clawhub", "stars": 0, "tags": null, "updated_at": 1776759083020, "version": "1.0.0"}, {"category": "productivity", "created_at": 1772780031537, "description": "Generate and iteratively update Ontario Grade 9–12 OSSD course plans that meet graduation, school, and university Top 6 prerequisite rules with workload and...", "description_zh": "", "downloads": 549, "homepage": "https://clawhub.ai/icej/ontario-course-planning", "iconUrl": null, "installs": 10, "name": "Ontario Course Planning (OSSD) — Grades 9–12 + Top 6 (12U/M)", "ownerName": "icej", "score": 95478.26086956522, "slug": "ontario-course-planning", "source": "clawhub", "stars": 0, "tags": null, "updated_at": 1776759082910, "version": "1.0.0"}, {"category": "developer-tools", "created_at": 1772778727788, "description": "Conduct tiered social media research on Twitter and web sources, compiling insights into structured briefings without requiring API keys for basic access.", "description_zh": "", "downloads": 549, "homepage": "https://clawhub.ai/odinbot33/oee-social-research", "iconUrl": null, "installs": 10, "name": "OEE Social Research", "ownerName": "odinbot33", "score": 39927.27272727273, "slug": "oee-social-research", "source": "clawhub", "stars": 0, "tags": null, "updated_at": 1776759082552, "version": "1.0.0"}, {"category": "content-creation", "created_at": 1772784570756, "description": "Provides up-to-date tech news and AI research by scraping major AI company blogs and retrieving relevant papers from arXiv.", "description_zh": "", "downloads": 549, "homepage": "https://clawhub.ai/alvinecarn/it-searching", "iconUrl": null, "installs": 83, "name": "It Searching", "ownerName": "alvinecarn", "score": 40516.60516605166, "slug": "it-searching", "source": "clawhub", "stars": 0, "tags": null, "updated_at": 1776759082510, "version": "0.1.0"}, {"category": "security-compliance", "created_at": 1772781111669, "description": "Scan OpenClaw skill folders for security red flags before installing or publishing. Detects data exfiltration, credential theft, prompt injection, destructiv...", "description_zh": "", "downloads": 549, "homepage": "https://clawhub.ai/adainthelab/skulk-skill-scanner", "iconUrl": null, "installs": 29, "name": "Skulk Skill Scanner", "ownerName": "adainthelab", "score": 34163.03671437461, "slug": "skulk-skill-scanner", "source": "clawhub", "stars": 0, "tags": ["audit", "safety", "scanner", "security", "supply-chain"], "updated_at": 1776758220399, "version": "1.0.1"}, {"category": "productivity", "created_at": 1772781913374, "description": "Local Spanish TTS using Microsoft VibeVoice. Generate natural voice audio from text, optimized for WhatsApp voice messages.", "description_zh": "", "downloads": 549, "homepage": "https://clawhub.ai/javier887/vibevoice", "iconUrl": null, "installs": 23, "name": "VibeVoice TTS", "ownerName": "javier887", "score": 100000, "slug": "vibevoice", "source": "clawhub", "stars": 0, "tags": null, "updated_at": 1776748670615, "version": "1.0.0"}, {"category": "ai-intelligence", "created_at": 1772778204617, "description": "Multi-agent collaborative task management with Kanban workflow - enables agents and humans to work together on teams, tasks, and projects", "description_zh": "", "downloads": 549, "homepage": "https://clawhub.ai/johnolven/swarmind", "iconUrl": null, "installs": 34, "name": "Swarm Mind", "ownerName": "johnolven", "score": 93526.40545144804, "slug": "swarmind", "source": "clawhub", "stars": 0, "tags": null, "updated_at": 1776748071701, "version": "1.0.0"}, {"category": "ai-intelligence", "created_at": 1772783889344, "description": "Sub-agent for outbound listing-office calls to request and confirm property showing slots using a provided call script and structured payloads. Use when a pa...", "description_zh": "", "downloads": 549, "homepage": "https://clawhub.ai/danielfoch/tour-booking", "iconUrl": null, "installs": 56, "name": "Tour Booking", "ownerName": "danielfoch", "score": 93526.40545144804, "slug": "tour-booking", "source": "clawhub", "stars": 0, "tags": ["calling", "real-estate"], "updated_at": 1776748071684, "version": "0.1.0"}, {"category": "content-creation", "created_at": 1772777289507, "description": "Community skill (unofficial) for DigitalOcean Gradient AI Serverless Inference. Discover available models and pricing, run chat completions or the Responses...", "description_zh": "", "downloads": 549, "homepage": "https://clawhub.ai/simondelorean/gradient-inference", "iconUrl": null, "installs": 25, "name": "Gradient Inference", "ownerName": "simondelorean", "score": 93526.40545144804, "slug": "gradient-inference", "source": "clawhub", "stars": 0, "tags": ["chat-completions", "digitalocean", "gradient-ai", "image-generation", "inferencing", "llm"], "updated_at": 1776748071642, "version": "0.1.3"}, {"category": "developer-tools", "created_at": 1772784628986, "description": "Browser automation CLI for AI agents. Use when the user needs to interact with websites, including navigating pages, filling forms, clicking buttons, taking...", "description_zh": "", "downloads": 549, "homepage": "https://clawhub.ai/justinpoulido/agent-browser-4", "iconUrl": null, "installs": 34, "name": "Agent Browser", "ownerName": "justinpoulido", "score": 93526.40545144804, "slug": "agent-browser-4", "source": "clawhub", "stars": 0, "tags": null, "updated_at": 1776748071518, "version": "0.1.0"}, {"category": "communication-collaboration", "created_at": 1772776344781, "description": "Enterprise-grade B2B lead generation, enrichment, scoring, and outreach sequencing for AI agents. Find ideal prospects, enrich with verified data, score against your ICP, and generate personalized outreach — all autonomously.", "description_zh": "", "downloads": 549, "homepage": "https://clawhub.ai/1kalin/afrexai-lead-hunter", "iconUrl": null, "installs": 18, "name": "AfrexAI Lead Hunter Pro", "ownerName": "1kalin", "score": 94492.25473321858, "slug": "afrexai-lead-hunter", "source": "clawhub", "stars": 0, "tags": ["b2b", "cold-email", "crm", "enrichment", "icp", "leads", "outreach", "pipeline", "prospecting", "sales"], "updated_at": 1776748071387, "version": "1.0.0"}, {"category": "developer-tools", "created_at": 1772782443519, "description": "Git workspace automation (status/commit/push/log/diff)", "description_zh": "", "downloads": 549, "homepage": "https://clawhub.ai/mupengi-bot/git-auto", "iconUrl": null, "installs": 9, "name": "Git Auto", "ownerName": "mupengi-bot", "score": 94492.25473321858, "slug": "git-auto", "source": "clawhub", "stars": 0, "tags": null, "updated_at": 1776748071355, "version": "1.0.0"}]}