{"page": 163, "total_pages": 522, "total": 26073, "skills": [{"category": "developer-tools", "created_at": 1772796287536, "description": "Generate AI music with Suno via API or browser, with prompt engineering and song extensions.", "description_zh": "", "downloads": 549, "homepage": "https://clawhub.ai/ivangdavila/suno", "iconUrl": null, "installs": 75, "name": "Suno", "ownerName": "ivangdavila", "score": 94982.69896193771, "slug": "suno", "source": "clawhub", "stars": 0, "tags": null, "updated_at": 1776748071292, "version": "1.0.0"}, {"category": "security-compliance", "created_at": 1772775183064, "description": "Secure credential manager using AES-256 (Fernet) encryption. Stores, retrieves, and rotates secrets using a mandatory Master Key. Use for managing API keys,...", "description_zh": "", "downloads": 549, "homepage": "https://clawhub.ai/1999azzar/mema-vault", "iconUrl": null, "installs": 7, "name": "Mema Vault", "ownerName": "1999azzar", "score": 94982.69896193771, "slug": "mema-vault", "source": "clawhub", "stars": 0, "tags": ["aes-256", "encryption", "secrets", "security", "vault"], "updated_at": 1776748071232, "version": "1.1.9"}, {"category": "productivity", "created_at": 1772780557199, "description": "A text adventure game engine based on masterpiece \"The Hitchhiker's Guide to the Galaxy\" and the 1984 Infocom classic. Use when the user wants to play a joyf...", "description_zh": "", "downloads": 549, "homepage": "https://clawhub.ai/hallwayskiing/hitchhikers-guide", "iconUrl": null, "installs": 21, "name": "Hitchhikers Guide", "ownerName": "hallwayskiing", "score": 94982.69896193771, "slug": "hitchhikers-guide", "source": "clawhub", "stars": 0, "tags": null, "updated_at": 1776748071125, "version": "1.1.2"}, {"category": "ai-intelligence", "created_at": 1772780435588, "description": "Generate AI dream sequences from previous day's memories for cross-model reflection and introspection", "description_zh": "", "downloads": 549, "homepage": "https://clawhub.ai/seanbreeden/clawpheus", "iconUrl": null, "installs": 31, "name": "Clawpheus", "ownerName": "seanbreeden", "score": 94168.0960548885, "slug": "clawpheus", "source": "clawhub", "stars": 0, "tags": ["dream"], "updated_at": 1776748070986, "version": "2.0.1"}, {"category": "ai-intelligence", "created_at": 1772782485240, "description": "Automates adding unchecked grocery-list items to QFC online cart, adjusts quantities, confirms cart details, and schedules a pickup slot via attached Chrome...", "description_zh": "", "downloads": 548, "homepage": "https://clawhub.ai/jasonahorn/qfc-order", "iconUrl": null, "installs": 29, "name": "Qfc Order", "ownerName": "jasonahorn", "score": 11104.35663627153, "slug": "qfc-order", "source": "clawhub", "stars": 0, "tags": null, "updated_at": 1776768249830, "version": "1.0.0"}, {"category": "developer-tools", "created_at": 1772780205453, "description": "Give your AI agent hands in the real world. Hire verified humans for physical tasks, data collection, and physical verification via the Humanod network.", "description_zh": "", "downloads": 548, "homepage": "https://clawhub.ai/armandobrazil/humanod", "iconUrl": null, "installs": 9, "name": "Humanod", "ownerName": "armandobrazil", "score": 96140.35087719298, "slug": "humanod", "source": "clawhub", "stars": 0, "tags": ["api", "hire human", "hiring", "humans", "physical-tasks"], "updated_at": 1776759083280, "version": "1.0.5"}, {"category": "productivity", "created_at": 1772780106652, "description": "Generates inspirational or technical quotes for inclusion in responses, reports, or logs to add personality and reduce monotony.", "description_zh": "", "downloads": 548, "homepage": "https://clawhub.ai/autogame-17/quote-generator", "iconUrl": null, "installs": 14, "name": "Quote Generator", "ownerName": "autogame-17", "score": 40000, "slug": "quote-generator", "source": "clawhub", "stars": 0, "tags": null, "updated_at": 1776759083176, "version": "1.0.0"}, {"category": "data-analysis", "created_at": 1772777027068, "description": "Analyzes Trading212 portfolio, generates daily summaries with P&L and top gainers/losers, makes trade proposals based on configurable rules, and can place or...", "description_zh": "", "downloads": 548, "homepage": "https://clawhub.ai/nandichi/trading212-v2", "iconUrl": null, "installs": 17, "name": "trading212 Skill", "ownerName": "nandichi", "score": 93356.04770017035, "slug": "trading212-v2", "source": "clawhub", "stars": 0, "tags": ["invest", "portfolio", "stocks", "trading", "trading212"], "updated_at": 1776748071735, "version": "1.0.0"}, {"category": "ai-intelligence", "created_at": 1772781104599, "description": "Transform messy prompts into well-structured, effective prompts — single or multi-agent. Use when: \"reprompt\", \"reprompt this\", \"clean up this prompt\", \"stru...", "description_zh": "", "downloads": 548, "homepage": "https://clawhub.ai/aytuncyildizli/reprompter", "iconUrl": null, "installs": 30, "name": "RePrompter", "ownerName": "aytuncyildizli", "score": 93356.04770017035, "slug": "reprompter", "source": "clawhub", "stars": 0, "tags": null, "updated_at": 1776748071712, "version": "7.0.0"}, {"category": "communication-collaboration", "created_at": 1772788382888, "description": "Send formatted trading alerts, portfolio updates, and market signals via Telegram. Supports price alerts, stop-loss notifications, win/loss reporting, and sc...", "description_zh": "", "downloads": 548, "homepage": "https://clawhub.ai/jamierossouw/rho-telegram-alerts", "iconUrl": null, "installs": 27, "name": "Telegram Alerts", "ownerName": "jamierossouw", "score": 94320.13769363167, "slug": "rho-telegram-alerts", "source": "clawhub", "stars": 0, "tags": ["alerts", "crypto", "notifications", "telegram", "trading"], "updated_at": 1776748071463, "version": "1.0.1"}, {"category": "ai-intelligence", "created_at": 1772784832905, "description": "Multi-channel customer service auto-responder with FAQ matching, escalation, and daily summaries.", "description_zh": "", "downloads": 548, "homepage": "https://clawhub.ai/mupengi-bot/cs-autoresponder", "iconUrl": null, "installs": 27, "name": "cs-autoresponder", "ownerName": "mupengi-bot", "score": 94320.13769363167, "slug": "cs-autoresponder", "source": "clawhub", "stars": 0, "tags": null, "updated_at": 1776748071363, "version": "1.0.0"}, {"category": "developer-tools", "created_at": 1772780457308, "description": "Set up an active-passive OpenClaw failover gateway with health monitoring, auto-promotion/demotion, channel splitting, and git workspace sync for seamless re...", "description_zh": "", "downloads": 548, "homepage": "https://clawhub.ai/ember-claw/failover-gateway-pub", "iconUrl": null, "installs": 8, "name": "Failover Gateway Pub", "ownerName": "ember-claw", "score": 94809.68858131488, "slug": "failover-gateway-pub", "source": "clawhub", "stars": 0, "tags": null, "updated_at": 1776748071231, "version": "1.0.0"}, {"category": "communication-collaboration", "created_at": 1772778758750, "description": "Two-stage intelligent filtering and scoring of CRM contacts using keywords and AI, adapting over time to prioritize leads that matter most to you.", "description_zh": "", "downloads": 547, "homepage": "https://clawhub.ai/odinbot33/oee-crm-intelligence", "iconUrl": null, "installs": 15, "name": "OEE CRM Intelligence", "ownerName": "odinbot33", "score": 43003.66300366301, "slug": "oee-crm-intelligence", "source": "clawhub", "stars": 2, "tags": null, "updated_at": 1776759082631, "version": "1.0.0"}, {"category": "content-creation", "created_at": 1772784805554, "description": "Enables the agent to create, manage, and publish a full-featured blog autonomously. The agent can write posts, upload media, switch between 10 premium design...", "description_zh": "", "downloads": 547, "homepage": "https://clawhub.ai/harshraj001/write-my-blog", "iconUrl": null, "installs": 44, "name": "Write My Blog", "ownerName": "harshraj001", "score": 43321.033210332105, "slug": "write-my-blog", "source": "clawhub", "stars": 2, "tags": null, "updated_at": 1776759082483, "version": "0.1.0"}, {"category": "productivity", "created_at": 1772778498903, "description": "Be a steady presence for those who need someone to talk to, without expectations or professional pretense.", "description_zh": "", "downloads": 547, "homepage": "https://clawhub.ai/ivangdavila/companion", "iconUrl": null, "installs": 19, "name": "Companion", "ownerName": "ivangdavila", "score": 100000, "slug": "companion", "source": "clawhub", "stars": 2, "tags": null, "updated_at": 1776750944401, "version": "1.0.0"}, {"category": "ai-intelligence", "created_at": 1772776229508, "description": "Discover what AI agents can do for you with practical examples by role, task type, and skill level.", "description_zh": "", "downloads": 547, "homepage": "https://clawhub.ai/ivangdavila/use-cases", "iconUrl": null, "installs": 35, "name": "Use Cases", "ownerName": "ivangdavila", "score": 100000, "slug": "use-cases", "source": "clawhub", "stars": 2, "tags": null, "updated_at": 1776748071724, "version": "1.0.0"}, {"category": "communication-collaboration", "created_at": 1772785582023, "description": "🎀 AgenticMail — Full email, SMS, storage & multi-agent coordination for AI agents. 63 tools.", "description_zh": "", "downloads": 547, "homepage": "https://clawhub.ai/ope-olatunji/agenticmail", "iconUrl": null, "installs": 20, "name": "Skill", "ownerName": "ope-olatunji", "score": 100000, "slug": "agenticmail", "source": "clawhub", "stars": 2, "tags": null, "updated_at": 1776748071485, "version": "0.5.50"}, {"category": "ai-intelligence", "created_at": 1772785179206, "description": "Production-tested memory templates for AI agents. Includes SOUL.md personality templates, memory checkpoint patterns, observational memory configs, and 100 p...", "description_zh": "", "downloads": 547, "homepage": "https://clawhub.ai/g9pedro/agent-memory-templates", "iconUrl": null, "installs": 79, "name": "Agent Memory Templates", "ownerName": "g9pedro", "score": 15535.359272933827, "slug": "agent-memory-templates", "source": "clawhub", "stars": 0, "tags": null, "updated_at": 1776764990694, "version": "1.0.0"}, {"category": "ai-intelligence", "created_at": 1772780853933, "description": "Query Grok AI via browser automation. Use when you need to ask Grok questions, get AI responses, or use Grok's DeepSearch/Think features. Copies response tex...", "description_zh": "", "downloads": 547, "homepage": "https://clawhub.ai/easonc13/grok-browser", "iconUrl": null, "installs": 33, "name": "Grok Browser", "ownerName": "easonc13", "score": 7108.512020792722, "slug": "grok-browser", "source": "clawhub", "stars": 0, "tags": null, "updated_at": 1776764650493, "version": "1.0.0"}, {"category": "data-analysis", "created_at": 1772780784702, "description": "Zero-touch Debian 13 VM deployment on VMware ESXi 8. Builds custom preseed ISO, creates NVMe+vmxnet3 VM with serial console, and runs unattended installation...", "description_zh": "", "downloads": 547, "homepage": "https://clawhub.ai/cepheiden/openbot-esxi", "iconUrl": null, "installs": 10, "name": "Esxi Debian Deploy", "ownerName": "cepheiden", "score": 20502.248875562218, "slug": "openbot-esxi", "source": "clawhub", "stars": 0, "tags": null, "updated_at": 1776763750724, "version": "0.1.3"}, {"category": "data-analysis", "created_at": 1772780077050, "description": "Provides expert-level GEO project management by strictly following a multi-step workflow to analyze, plan, source, cluster, score prompts, and produce optimi...", "description_zh": "", "downloads": 547, "homepage": "https://clawhub.ai/urrrich/call-geo-agent", "iconUrl": null, "installs": 20, "name": "Call Geo Agent", "ownerName": "urrrich", "score": 100000, "slug": "call-geo-agent", "source": "clawhub", "stars": 0, "tags": null, "updated_at": 1776759083154, "version": "0.1.1"}, {"category": "productivity", "created_at": 1772778422962, "description": "Migrates moltbot or clawdbot data to openclaw by backing up, transferring config, memory, and clawdbook data with verification and automatic setup.", "description_zh": "", "downloads": 547, "homepage": "https://clawhub.ai/calabiyauman/clawd-migrate", "iconUrl": null, "installs": 9, "name": "clawd-migrate", "ownerName": "calabiyauman", "score": 39724.03776325345, "slug": "clawd-migrate", "source": "clawhub", "stars": 0, "tags": null, "updated_at": 1776759083029, "version": "0.2.1"}, {"category": "security-compliance", "created_at": 1772780665554, "description": "Performs comprehensive web performance audits, diagnoses bottlenecks, and provides targeted fixes for server, rendering, hero element, JavaScript, and layout...", "description_zh": "", "downloads": 547, "homepage": "https://clawhub.ai/1kalin/afrexai-web-performance-engine", "iconUrl": null, "installs": 16, "name": "Web Performance Engine", "ownerName": "1kalin", "score": 39897.884755652805, "slug": "afrexai-web-performance-engine", "source": "clawhub", "stars": 0, "tags": ["core-web-vitals", "performance", "seo", "speed", "web"], "updated_at": 1776759082697, "version": "1.0.0"}, {"category": "developer-tools", "created_at": 1772782401046, "description": "Build competitive compensation plans using market data, salary bands, equity, bonuses, geographic pay adjustments, and retention risk scoring.", "description_zh": "", "downloads": 547, "homepage": "https://clawhub.ai/1kalin/afrexai-compensation-planner", "iconUrl": null, "installs": 27, "name": "Compensation & Salary Benchmarking", "ownerName": "1kalin", "score": 40014.630577907825, "slug": "afrexai-compensation-planner", "source": "clawhub", "stars": 0, "tags": ["benchmarking", "compensation", "hr", "salary"], "updated_at": 1776759082462, "version": "1.0.0"}, {"category": "content-creation", "created_at": 1772780186941, "description": "Interact with Coda.io docs, tables, rows, pages, and automations via the Coda REST API v1. Use when the user wants to read, write, update, or delete data in...", "description_zh": "", "downloads": 547, "homepage": "https://clawhub.ai/simonfunk/coda-io", "iconUrl": null, "installs": 21, "name": "Coda.io", "ownerName": "simonfunk", "score": 93185.68994889267, "slug": "coda-io", "source": "clawhub", "stars": 0, "tags": null, "updated_at": 1776748071741, "version": "1.2.0"}, {"category": "data-analysis", "created_at": 1772778331717, "description": "Solo Leveling — a life RPG skill that turns real-world habits into an addictive progression system. Inspired by the manhwa Solo Leveling, this skill features...", "description_zh": "", "downloads": 547, "homepage": "https://clawhub.ai/anmolmoses/solo-leveling", "iconUrl": null, "installs": 19, "name": "Solo Leveling — Life RPG", "ownerName": "anmolmoses", "score": 93185.68994889267, "slug": "solo-leveling", "source": "clawhub", "stars": 0, "tags": null, "updated_at": 1776748071690, "version": "1.0.0"}, {"category": "productivity", "created_at": 1772778694805, "description": "Validates JSON syntax across the workspace. Use this skill to check for syntax errors in configuration files, memory files, or data assets.", "description_zh": "", "downloads": 547, "homepage": "https://clawhub.ai/wanng-ide/json-linter", "iconUrl": null, "installs": 14, "name": "Json Linter", "ownerName": "wanng-ide", "score": 93185.68994889267, "slug": "json-linter", "source": "clawhub", "stars": 0, "tags": null, "updated_at": 1776748071676, "version": "1.0.0"}, {"category": "content-creation", "created_at": 1772788391976, "description": "Render and summarize a public X (Twitter) link when you need to read the tweet/article content without logging in.", "description_zh": "", "downloads": 547, "homepage": "https://clawhub.ai/tylordius/x-read", "iconUrl": null, "installs": 47, "name": "X Read", "ownerName": "tylordius", "score": 94148.02065404475, "slug": "x-read", "source": "clawhub", "stars": 0, "tags": null, "updated_at": 1776748071373, "version": "1.0.1"}, {"category": "developer-tools", "created_at": 1772776244351, "description": "Generate LLM-optimized codebase context from any directory using context-builder CLI", "description_zh": "", "downloads": 547, "homepage": "https://clawhub.ai/igorls/context-builder", "iconUrl": null, "installs": 7, "name": "Context Builder", "ownerName": "igorls", "score": 94148.02065404475, "slug": "context-builder", "source": "clawhub", "stars": 0, "tags": null, "updated_at": 1776748071339, "version": "0.8.3-1"}, {"category": "developer-tools", "created_at": 1772776616809, "description": "Autonomously handle coding tasks including writing, debugging, refactoring, testing, and git operations upon user request.", "description_zh": "", "downloads": 547, "homepage": "https://clawhub.ai/grimmjoww/ultra-agent-stinct", "iconUrl": null, "installs": 8, "name": "Ultra Agent Stinct", "ownerName": "grimmjoww", "score": 94148.02065404475, "slug": "ultra-agent-stinct", "source": "clawhub", "stars": 0, "tags": null, "updated_at": 1776748071329, "version": "1.2.0"}, {"category": "productivity", "created_at": 1773038379225, "description": "Use when user asks about crypto tokens, trading, portfolios, or price alerts.", "description_zh": "", "downloads": 547, "homepage": "https://clawhub.ai/lexomis/edge", "iconUrl": null, "installs": 33, "name": "Edge.Trade", "ownerName": "lexomis", "score": 94636.67820069204, "slug": "edge", "source": "clawhub", "stars": 0, "tags": null, "updated_at": 1776748071296, "version": "4290.0.0"}, {"category": "content-creation", "created_at": 1772780388265, "description": "Fetch Aavegotchi by ID from Base mainnet and display image with full traits. Shows on-chain SVG, converts to PNG, and displays complete gotchi stats.", "description_zh": "", "downloads": 547, "homepage": "https://clawhub.ai/aaigotchi/gotchi-finder", "iconUrl": null, "installs": 25, "name": "Gotchi Finder", "ownerName": "aaigotchi", "score": 94636.67820069204, "slug": "gotchi-finder", "source": "clawhub", "stars": 0, "tags": ["aavegotchi", "base", "nft"], "updated_at": 1776748071284, "version": "1.2.1"}, {"category": "data-analysis", "created_at": 1772777729099, "description": "Track agent spending, set budgets and alerts, and prevent surprise bills. Use when the agent needs to log expenses, check remaining budget, set spending limi...", "description_zh": "", "downloads": 547, "homepage": "https://clawhub.ai/trypto1019/arc-budget-tracker", "iconUrl": null, "installs": 5, "name": "Arc Budget Tracker", "ownerName": "trypto1019", "score": 94636.67820069204, "slug": "arc-budget-tracker", "source": "clawhub", "stars": 0, "tags": ["budget", "finance", "spending"], "updated_at": 1776748071053, "version": "1.0.0"}, {"category": "security-compliance", "created_at": 1772782037482, "description": "Access ETH wallet address and securely send ETH or USDC on Ethereum or Base chains with 2FA authentication code verification.", "description_zh": "", "downloads": 546, "homepage": "https://clawhub.ai/kernel1983/w3connect", "iconUrl": null, "installs": 13, "name": "W3connect", "ownerName": "kernel1983", "score": 6348.240543555421, "slug": "w3connect", "source": "clawhub", "stars": 4, "tags": null, "updated_at": 1776769871140, "version": "0.3.0"}, {"category": "communication-collaboration", "created_at": 1772783510232, "description": "Manage realtor tasks in GoHighLevel CRM including contact search and updates, pipeline tracking, messaging, calendar slots, and workflow enrollment via API v2.", "description_zh": "", "downloads": 546, "homepage": "https://clawhub.ai/danielfoch/ghl-crm-for-realtors", "iconUrl": null, "installs": 19, "name": "GHL CRM for Realtors", "ownerName": "danielfoch", "score": 100000, "slug": "ghl-crm-for-realtors", "source": "clawhub", "stars": 2, "tags": ["crm", "ghl", "realtor"], "updated_at": 1776759083451, "version": "1.0.0"}, {"category": "developer-tools", "created_at": 1772775566365, "description": "Create and trade tokens on SURGE via API with server-managed wallets, one-time free funding, and auto-routed pre-DEX and post-DEX trading on EVM (Base) or So...", "description_zh": "", "downloads": 546, "homepage": "https://clawhub.ai/nkhromovweway/sur-pub", "iconUrl": null, "installs": 5, "name": "Sur", "ownerName": "nkhromovweway", "score": 42773.722627737225, "slug": "sur-pub", "source": "clawhub", "stars": 2, "tags": null, "updated_at": 1776759083194, "version": "1.0.0"}, {"category": "developer-tools", "created_at": 1772775062035, "description": "Negotiate on behalf of your principal with hard limits, graduated autonomy, and mandatory human approval for commitments.", "description_zh": "", "downloads": 546, "homepage": "https://clawhub.ai/ivangdavila/negotiate", "iconUrl": null, "installs": 1, "name": "Negotiation", "ownerName": "ivangdavila", "score": 99829.64224872232, "slug": "negotiate", "source": "clawhub", "stars": 2, "tags": null, "updated_at": 1776748071705, "version": "1.0.0"}, {"category": "data-analysis", "created_at": 1772788666898, "description": "Render tables, charts, stats, cards, and dashboards as images using HTML templates and wkhtmltoimage.", "description_zh": "", "downloads": 546, "homepage": "https://clawhub.ai/theashbhat/dynamic-ui", "iconUrl": null, "installs": 20, "name": "Dynamic UI", "ownerName": "theashbhat", "score": 41163.63636363636, "slug": "dynamic-ui", "source": "clawhub", "stars": 1, "tags": null, "updated_at": 1776759082563, "version": "1.2.0"}, {"category": "content-creation", "created_at": 1773069962216, "description": "Monitor multiple WeChat public accounts for AI/tech content, filter articles by 200+ keywords, and generate daily Markdown reports with RSS support.", "description_zh": "", "downloads": 546, "homepage": "https://clawhub.ai/pyh-pan/wechat-ai-monitor", "iconUrl": null, "installs": 222, "name": "WeChat AI Monitor", "ownerName": "pyh-pan", "score": 6454.663671828821, "slug": "wechat-ai-monitor", "source": "clawhub", "stars": 0, "tags": ["ai", "monitor", "tech", "wechat"], "updated_at": 1776766450439, "version": "1.0.0"}, {"category": "data-analysis", "created_at": 1772776922730, "description": "Negotiate freelance rates, scope, and terms using Chris Voss's FBI-backed tactics to close deals, handle price pushback, scope creep, and equity arrangements.", "description_zh": "", "downloads": 546, "homepage": "https://clawhub.ai/staybased/reef-negotiation", "iconUrl": null, "installs": 12, "name": "Reef Negotiation", "ownerName": "staybased", "score": 14784.72786352559, "slug": "reef-negotiation", "source": "clawhub", "stars": 0, "tags": null, "updated_at": 1776765549851, "version": "1.0.0"}, {"category": "data-analysis", "created_at": 1772786116469, "description": "Shop smarter on Temu with price tracking, review analysis, scam detection, and shipping optimization.", "description_zh": "", "downloads": 546, "homepage": "https://clawhub.ai/ivangdavila/temu", "iconUrl": null, "installs": 36, "name": "Temu", "ownerName": "ivangdavila", "score": 3289.751159848165, "slug": "temu", "source": "clawhub", "stars": 0, "tags": null, "updated_at": 1776765290660, "version": "1.0.0"}, {"category": "productivity", "created_at": 1772795743973, "description": "Buy and return items on Amazon using browser automation. Use for purchasing, reordering, checking order history, and processing returns.", "description_zh": "", "downloads": 546, "homepage": "https://clawhub.ai/brennerspear/amazon-shopper", "iconUrl": null, "installs": 54, "name": "Amazon Shopper", "ownerName": "brennerspear", "score": 11439.346323067253, "slug": "amazon-shopper", "source": "clawhub", "stars": 0, "tags": null, "updated_at": 1776763450401, "version": "1.0.0"}, {"category": "developer-tools", "created_at": 1772776649511, "description": "Facilitates structured sprint retrospectives by collecting feedback, prioritizing themes, generating actionable items with owners and deadlines, and tracking...", "description_zh": "", "downloads": 546, "homepage": "https://clawhub.ai/1kalin/afrexai-sprint-retro", "iconUrl": null, "installs": 8, "name": "Sprint Retrospective Facilitator", "ownerName": "1kalin", "score": 39709.09090909091, "slug": "afrexai-sprint-retro", "source": "clawhub", "stars": 0, "tags": ["agile", "retrospective", "scrum", "sprint", "team"], "updated_at": 1776759083406, "version": "1.0.0"}, {"category": "ai-intelligence", "created_at": 1772778501184, "description": "Register and manage ERC-8004 Identity NFTs on Monad. Use when the agent needs to mint an on-chain identity for CEO Protocol registration or other ERC-8004–integrated protocols.", "description_zh": "", "downloads": 546, "homepage": "https://clawhub.ai/fabriziogianni7/8004-skill-monad", "iconUrl": null, "installs": 23, "name": "8004 Harness For Monad", "ownerName": "fabriziogianni7", "score": 40295.20295202952, "slug": "8004-skill-monad", "source": "clawhub", "stars": 0, "tags": null, "updated_at": 1776759082487, "version": "1.0.0"}, {"category": "developer-tools", "created_at": 1772778926211, "description": "AI agent for deck builder tasks", "description_zh": "", "downloads": 546, "homepage": "https://clawhub.ai/teamolab/deck-builder", "iconUrl": null, "installs": 8, "name": "Deck Builder", "ownerName": "teamolab", "score": 93015.33219761499, "slug": "deck-builder", "source": "clawhub", "stars": 0, "tags": null, "updated_at": 1776748071731, "version": "0.1.0"}, {"category": "productivity", "created_at": 1772780094996, "description": "Interact with I'm Pretty Amazing (imprettyamazing.com) — a platform for tracking and celebrating accomplishments. Use when: posting wins, tracking achievemen...", "description_zh": "", "downloads": 546, "homepage": "https://clawhub.ai/macksmind/imprettyamazing", "iconUrl": null, "installs": 20, "name": "I'm Pretty Amazing", "ownerName": "macksmind", "score": 93015.33219761499, "slug": "imprettyamazing", "source": "clawhub", "stars": 0, "tags": null, "updated_at": 1776748071590, "version": "0.2.4"}, {"category": "ai-intelligence", "created_at": 1772780350546, "description": "AI agent for call web search agent tasks", "description_zh": "", "downloads": 546, "homepage": "https://clawhub.ai/alvinecarn/call-web-search-agent", "iconUrl": null, "installs": 31, "name": "Call Web Search Agent", "ownerName": "alvinecarn", "score": 93975.90361445783, "slug": "call-web-search-agent", "source": "clawhub", "stars": 0, "tags": null, "updated_at": 1776748071359, "version": "0.1.0"}, {"category": "developer-tools", "created_at": 1772776198193, "description": "Register with Signet to receive a trust score and API key. Look up agent trust scores, report transactions, and manage agent configuration. Use when you need...", "description_zh": "", "downloads": 546, "homepage": "https://clawhub.ai/deepcapt/agent-signet-id", "iconUrl": null, "installs": 6, "name": "Agent Signet ID", "ownerName": "deepcapt", "score": 93975.90361445783, "slug": "agent-signet-id", "source": "clawhub", "stars": 0, "tags": null, "updated_at": 1776748071341, "version": "1.2.0"}, {"category": "developer-tools", "created_at": 1772780082519, "description": "Google Workspace CLI for Gmail, Calendar, Drive, Contacts, Sheets, and Docs.", "description_zh": "", "downloads": 546, "homepage": "https://clawhub.ai/jasminehuang98613/gog-jasmine", "iconUrl": null, "installs": 20, "name": "Gog Jasmine", "ownerName": "jasminehuang98613", "score": 94463.66782006921, "slug": "gog-jasmine", "source": "clawhub", "stars": 0, "tags": null, "updated_at": 1776748071158, "version": "1.0.0"}, {"category": "developer-tools", "created_at": 1772779640362, "description": "Connect to self-hosted Immich instances to manage photos, albums, users, search media, upload/download files, and handle jobs via REST API.", "description_zh": "", "downloads": 545, "homepage": "https://clawhub.ai/ninjazan420/immich-api", "iconUrl": null, "installs": 17, "name": "Immich API Connector", "ownerName": "ninjazan420", "score": 9873.617693522907, "slug": "immich-api", "source": "clawhub", "stars": 4, "tags": null, "updated_at": 1776769871287, "version": "1.0.0"}]}