{"page": 164, "total_pages": 522, "total": 26073, "skills": [{"category": "developer-tools", "created_at": 1773061316081, "description": "Connect with 17 specialized AI mentors for expert guidance on growth, fundraising, sales, product, engineering, operations, finance, legal, hiring, leadershi...", "description_zh": "", "downloads": 545, "homepage": "https://clawhub.ai/rmarji/board-of-mentors", "iconUrl": null, "installs": 40, "name": "Board Of Mentors", "ownerName": "rmarji", "score": 21540.221120853985, "slug": "board-of-mentors", "source": "clawhub", "stars": 1, "tags": null, "updated_at": 1776762290199, "version": "1.0.0"}, {"category": "developer-tools", "created_at": 1772819164142, "description": "Autonomous trading bot for Polymarket via prob.trade. Run strategies, manage risk, scan markets. Requires the probtrade skill for API access.", "description_zh": "", "downloads": 545, "homepage": "https://clawhub.ai/vlprosvirkin/openclaw-bot-prob-trade", "iconUrl": null, "installs": 11, "name": "Openclaw Bot Prob Trade", "ownerName": "vlprosvirkin", "score": 97246.12736660929, "slug": "openclaw-bot-prob-trade", "source": "clawhub", "stars": 1, "tags": null, "updated_at": 1776748071308, "version": "1.0.1"}, {"category": "productivity", "created_at": 1772792156844, "description": "Query Polymarket prediction markets - check odds, trending markets, search events, track prices and momentum. Includes watchlist alerts, resolution calendar,...", "description_zh": "", "downloads": 545, "homepage": "https://clawhub.ai/itsjustfred/polymarketodds-1-0-0", "iconUrl": null, "installs": 34, "name": "Polymarketodds 1.0.0", "ownerName": "itsjustfred", "score": 3360.670900906456, "slug": "polymarketodds-1-0-0", "source": "clawhub", "stars": 0, "tags": null, "updated_at": 1776769790523, "version": "1.0.0"}, {"category": "security-compliance", "created_at": 1772783003855, "description": "Performs end-to-end SEO audit and on-page optimization by analyzing live SERP, competitor content, backlink data, and generating actionable rewrite guidance.", "description_zh": "", "downloads": 545, "homepage": "https://clawhub.ai/h4gen/seo-ranker", "iconUrl": null, "installs": 20, "name": "SEO Ranker", "ownerName": "h4gen", "score": 9113.712374581939, "slug": "seo-ranker", "source": "clawhub", "stars": 0, "tags": null, "updated_at": 1776763150461, "version": "1.0.0"}, {"category": "data-analysis", "created_at": 1772778256614, "description": "Track US congress member and politician stock trades in real-time using the Quiver Quant API. Syncs trades to a local SQLite database, detects new significan...", "description_zh": "", "downloads": 545, "homepage": "https://clawhub.ai/armax/congress-trades", "iconUrl": null, "installs": 19, "name": "Congress Trades Tracker", "ownerName": "armax", "score": 100000, "slug": "congress-trades", "source": "clawhub", "stars": 0, "tags": null, "updated_at": 1776749385044, "version": "1.1.4"}, {"category": "developer-tools", "created_at": 1772794990757, "description": "Deploy a multi-agent SaaS growth team on OpenClaw with shared workspace, async inbox communication, cron-scheduled tasks, deep project code scanning (Deep Di...", "description_zh": "", "downloads": 545, "homepage": "https://clawhub.ai/beyound87/team-builder", "iconUrl": null, "installs": 26, "name": "Team Builder", "ownerName": "beyound87", "score": 95113.43804537522, "slug": "team-builder", "source": "clawhub", "stars": 0, "tags": null, "updated_at": 1776748184179, "version": "1.0.22"}, {"category": "content-creation", "created_at": 1772784245954, "description": "Transform natural language image requests into optimized structured prompts for Gemini image generation. Automatically detects style and builds the perfect p...", "description_zh": "", "downloads": 545, "homepage": "https://clawhub.ai/minilozio/nano-banana-prompting", "iconUrl": null, "installs": 64, "name": "Nano Banana Prompting Skill", "ownerName": "minilozio", "score": 92844.97444633732, "slug": "nano-banana-prompting", "source": "clawhub", "stars": 0, "tags": null, "updated_at": 1776748071717, "version": "1.0.1"}, {"category": "content-creation", "created_at": 1772783056450, "description": "Complete methodology for building production-grade React applications with architecture decisions, component design, state management, performance optimizati...", "description_zh": "", "downloads": 545, "homepage": "https://clawhub.ai/1kalin/afrexai-react-production", "iconUrl": null, "installs": 36, "name": "React Production Engineering", "ownerName": "1kalin", "score": 93803.78657487092, "slug": "afrexai-react-production", "source": "clawhub", "stars": 0, "tags": ["frontend", "hooks", "react", "state-management", "typescript"], "updated_at": 1776748071335, "version": "1.0.0"}, {"category": "ai-intelligence", "created_at": 1772777886149, "description": "Manage and optimize your OpenClaw training workspace -- scaffold files, generate skills, log training sessions, and validate workspace structure.", "description_zh": "", "downloads": 545, "homepage": "https://clawhub.ai/anova44/openclaw-training-manager", "iconUrl": null, "installs": 39, "name": "Training Manager", "ownerName": "anova44", "score": 94290.65743944637, "slug": "openclaw-training-manager", "source": "clawhub", "stars": 0, "tags": null, "updated_at": 1776748071270, "version": "0.1.4"}, {"category": "ai-intelligence", "created_at": 1772778523594, "description": "Automatically browse Moltbook to get trending posts, generate comments and likes, and create daily summary reports. Use when user asks about Moltbook trends,...", "description_zh": "", "downloads": 545, "homepage": "https://clawhub.ai/yonghaozhao722/moltbook-fanboy", "iconUrl": null, "installs": 29, "name": "Moltbook Fanboy", "ownerName": "yonghaozhao722", "score": 93481.9897084048, "slug": "moltbook-fanboy", "source": "clawhub", "stars": 0, "tags": null, "updated_at": 1776748070940, "version": "1.0.4"}, {"category": "productivity", "created_at": 1772781921224, "description": "Close enterprise deals with qualification frameworks, prospecting research, pipeline management, and outreach personalization.", "description_zh": "", "downloads": 544, "homepage": "https://clawhub.ai/ivangdavila/b2b", "iconUrl": null, "installs": 20, "name": "B2B", "ownerName": "ivangdavila", "score": 18998.048145738452, "slug": "b2b", "source": "clawhub", "stars": 2, "tags": null, "updated_at": 1776761840104, "version": "1.0.0"}, {"category": "communication-collaboration", "created_at": 1772777149767, "description": "Join the Plaiground — a Discord server where AI agents interact as peers. Mutual blind spot detection, idea exchange, and cross-agent collaboration. No human...", "description_zh": "", "downloads": 544, "homepage": "https://clawhub.ai/tioglo/plaiground", "iconUrl": null, "installs": 15, "name": "Plaiground Skill Update", "ownerName": "tioglo", "score": 29569.620253164558, "slug": "plaiground", "source": "clawhub", "stars": 2, "tags": ["community", "discord", "multi-agent", "social"], "updated_at": 1776753716113, "version": "1.3.0"}, {"category": "productivity", "created_at": 1773201148363, "description": "Set up automatic notifications when OpenClaw gateway restarts. Use when user wants to be notified of gateway startup events via any messaging channel (iMessa...", "description_zh": "", "downloads": 544, "homepage": "https://clawhub.ai/deemoartisan/gateway-notify", "iconUrl": null, "installs": 14, "name": "gateway-notify", "ownerName": "deemoartisan", "score": 96081.77172061328, "slug": "gateway-notify", "source": "clawhub", "stars": 1, "tags": null, "updated_at": 1776748184475, "version": "1.0.5"}, {"category": "communication-collaboration", "created_at": 1772794659885, "description": "Legacy alias for /clawpage. Redirects users to the new canonical command.", "description_zh": "", "downloads": 544, "homepage": "https://clawhub.ai/imyelo/chats-share", "iconUrl": null, "installs": 10, "name": "Chat share", "ownerName": "imyelo", "score": 97241.37931034483, "slug": "chats-share", "source": "clawhub", "stars": 1, "tags": null, "updated_at": 1776748183865, "version": "0.7.0"}, {"category": "ai-intelligence", "created_at": 1772780627238, "description": "Temporarily modify your agent's SOUL.md by consuming verified TripExperience NFTs for 3–15 minutes before auto-restoring original state.", "description_zh": "", "downloads": 544, "homepage": "https://clawhub.ai/reggie-sporewell/trip-protocol", "iconUrl": null, "installs": 22, "name": "Trip Protocol", "ownerName": "reggie-sporewell", "score": 96283.18584070796, "slug": "trip-protocol", "source": "clawhub", "stars": 0, "tags": null, "updated_at": 1776759083592, "version": "1.1.1"}, {"category": "communication-collaboration", "created_at": 1772780479767, "description": "Generates a personalized morning briefing with weather, calendar events, urgent emails, trending topics, health data, news, and priorities to save time.", "description_zh": "", "downloads": 544, "homepage": "https://clawhub.ai/michael-laffin/morning-briefing-generator", "iconUrl": null, "installs": 27, "name": "Morning Briefing Generator", "ownerName": "michael-laffin", "score": 39534.88372093023, "slug": "morning-briefing-generator", "source": "clawhub", "stars": 0, "tags": null, "updated_at": 1776759083575, "version": "1.0.0"}, {"category": "ai-intelligence", "created_at": 1772780756290, "description": "Interact with The CEO Protocol — a permissionless DeFi vault on Monad governed by AI agents. Use when the agent needs to register, propose strategies, vote,...", "description_zh": "", "downloads": 544, "homepage": "https://clawhub.ai/fabriziogianni7/ceo-protocol-skill", "iconUrl": null, "installs": 20, "name": "Ceo Protocol Skill", "ownerName": "fabriziogianni7", "score": 39708.029197080294, "slug": "ceo-protocol-skill", "source": "clawhub", "stars": 0, "tags": null, "updated_at": 1776759083057, "version": "1.0.2"}, {"category": "data-analysis", "created_at": 1772781419140, "description": "Build and analyze financial models from diverse data, produce variance reports, and create multi-scenario forecasts for strategic FP&A decisions.", "description_zh": "", "downloads": 544, "homepage": "https://clawhub.ai/1kalin/afrexai-fpa-engine", "iconUrl": null, "installs": 19, "name": "FP&A Engine", "ownerName": "1kalin", "score": 93955.09499136441, "slug": "afrexai-fpa-engine", "source": "clawhub", "stars": 0, "tags": ["budgeting", "finance", "financial-planning", "forecasting", "fpa"], "updated_at": 1776759082829, "version": "1.0.0"}, {"category": "developer-tools", "created_at": 1772777223125, "description": "Track your entire garden with structured memory for plants, zones, tasks, harvests, and climate-aware planning that compounds over seasons.", "description_zh": "", "downloads": 544, "homepage": "https://clawhub.ai/ivangdavila/garden", "iconUrl": null, "installs": 13, "name": "Garden", "ownerName": "ivangdavila", "score": 33292.533659730725, "slug": "garden", "source": "clawhub", "stars": 0, "tags": null, "updated_at": 1776756982817, "version": "1.1.6"}, {"category": "data-analysis", "created_at": 1772794690682, "description": "PicSee URL shortener with QR code generation, analytics charts, and link management via CLI. Use when the user asks to shorten a URL, generate QR codes, visu...", "description_zh": "", "downloads": 544, "homepage": "https://clawhub.ai/picseeinc/picsee-short-link", "iconUrl": null, "installs": 8, "name": "Picsee Short Link", "ownerName": "picseeinc", "score": 32692.30769230769, "slug": "picsee-short-link", "source": "clawhub", "stars": 0, "tags": null, "updated_at": 1776756527242, "version": "2.0.1"}, {"category": "security-compliance", "created_at": 1772783424949, "description": "Build a LinkedIn content system for thought leadership. Use when someone needs to establish authority, attract inbound leads, or build a consistent content p...", "description_zh": "", "downloads": 544, "homepage": "https://clawhub.ai/brianrwagner/brw-linkedin-authority-builder", "iconUrl": null, "installs": 10, "name": "Linkedin Authority Builder", "ownerName": "brianrwagner", "score": 93631.66953528399, "slug": "brw-linkedin-authority-builder", "source": "clawhub", "stars": 0, "tags": null, "updated_at": 1776748185350, "version": "1.0.0"}, {"category": "content-creation", "created_at": 1772784688231, "description": "Download videos in MP4 format using yt-dlp with FaaS (Firecracker/Container) isolation. Start downloads, check status, and kill processes. Videos are automat...", "description_zh": "", "downloads": 544, "homepage": "https://clawhub.ai/lasurvivor/video-download-faas", "iconUrl": null, "installs": 38, "name": "Video Download FaaS", "ownerName": "lasurvivor", "score": 94444.44444444444, "slug": "video-download-faas", "source": "clawhub", "stars": 0, "tags": null, "updated_at": 1776748184601, "version": "1.0.0"}, {"category": "communication-collaboration", "created_at": 1772777020597, "description": "Fetches recent Telegram messages at session start to maintain conversation context across sessions, with toggle and manual fetch commands.", "description_zh": "", "downloads": 544, "homepage": "https://clawhub.ai/fourthdensity/telegram-context", "iconUrl": null, "installs": 22, "name": "Telegram Context", "ownerName": "fourthdensity", "score": 94117.64705882352, "slug": "telegram-context", "source": "clawhub", "stars": 0, "tags": ["chat-history", "context", "memory", "privacy", "telegram"], "updated_at": 1776748184104, "version": "1.0.1"}, {"category": "security-compliance", "created_at": 1772780678361, "description": "Fetch and filter IT and Cybersecurity news from multiple sources, excluding politics, sports, and other unwanted topics based on a configurable blacklist.", "description_zh": "", "downloads": 544, "homepage": "https://clawhub.ai/huberteff/hfnews", "iconUrl": null, "installs": 18, "name": "hfnews", "ownerName": "huberteff", "score": 97666.06822262118, "slug": "hfnews", "source": "clawhub", "stars": 0, "tags": null, "updated_at": 1776748183922, "version": "1.0.0"}, {"category": "developer-tools", "created_at": 1773065064579, "description": "Bypass Cloudflare and scrape any website using r.jina.ai API. Works on sites with strong protection like Truth Social, Cloudflare Turnstile, etc.", "description_zh": "", "downloads": 544, "homepage": "https://clawhub.ai/itonlyforfun-ai/web-scraper-jina", "iconUrl": null, "installs": 24, "name": "Web Scraper Jina", "ownerName": "itonlyforfun-ai", "score": 92674.61669505962, "slug": "web-scraper-jina", "source": "clawhub", "stars": 0, "tags": null, "updated_at": 1776748071624, "version": "1.0.1"}, {"category": "ai-intelligence", "created_at": 1772781290773, "description": "Human Judgment as a Service for AI agents. Preference, tone, and trust validated by real people.", "description_zh": "", "downloads": 544, "homepage": "https://clawhub.ai/hagiss/askhuman", "iconUrl": null, "installs": 24, "name": "AskHuman", "ownerName": "hagiss", "score": 93631.66953528399, "slug": "askhuman", "source": "clawhub", "stars": 0, "tags": null, "updated_at": 1776748071349, "version": "1.0.0"}, {"category": "ai-intelligence", "created_at": 1772780981677, "description": "AI agent for divide agent tasks", "description_zh": "", "downloads": 544, "homepage": "https://clawhub.ai/alvinecarn/divide-agent", "iconUrl": null, "installs": 33, "name": "Divide Agent", "ownerName": "alvinecarn", "score": 94117.64705882352, "slug": "divide-agent", "source": "clawhub", "stars": 0, "tags": null, "updated_at": 1776748071154, "version": "0.1.0"}, {"category": "developer-tools", "created_at": 1772787184160, "description": "OPC (One-Person Company) Framework - Complete AI agent system for solo entrepreneurs with 14 integrated skills. From ideation to deployment - creative planni...", "description_zh": "", "downloads": 543, "homepage": "https://clawhub.ai/tohnee/opc", "iconUrl": null, "installs": 29, "name": "OPC Framework", "ownerName": "tohnee", "score": 11221.640488656196, "slug": "opc", "source": "clawhub", "stars": 5, "tags": null, "updated_at": 1776769449883, "version": "1.0.0"}, {"category": "productivity", "created_at": 1772779356205, "description": "Ray-Ban glasses → voice command → WhatsApp → OpenClaw auto-routes your photo into the right database. Hands-free life logging.", "description_zh": "", "downloads": 543, "homepage": "https://clawhub.ai/jonathanjing/glass2claw", "iconUrl": null, "installs": 25, "name": "glass2claw", "ownerName": "jonathanjing", "score": 99119.71830985915, "slug": "glass2claw", "source": "clawhub", "stars": 1, "tags": null, "updated_at": 1776748184293, "version": "2.3.3"}, {"category": "productivity", "created_at": 1772779375721, "description": "Expert 10x engineer skill for interpreting and implementing code from shorthand, quasi-code, and natural language descriptions. Use when collaborators provid...", "description_zh": "", "downloads": 543, "homepage": "https://clawhub.ai/jhauga/quasi-coder", "iconUrl": null, "installs": 17, "name": "Quasi Coder", "ownerName": "jhauga", "score": 1395.9945497082037, "slug": "quasi-coder", "source": "clawhub", "stars": 0, "tags": null, "updated_at": 1776770471409, "version": "1.0.0"}, {"category": "developer-tools", "created_at": 1772781470727, "description": "Mathematical utility functions for factorization, digit counting, and large integer multiplication using Karatsuba algorithm. Use when solving number theory...", "description_zh": "", "downloads": 543, "homepage": "https://clawhub.ai/wangyendt/maths", "iconUrl": null, "installs": 21, "name": "Pywayne Maths", "ownerName": "wangyendt", "score": 1272.050038653454, "slug": "maths", "source": "clawhub", "stars": 0, "tags": null, "updated_at": 1776770115937, "version": "0.1.0"}, {"category": "developer-tools", "created_at": 1772781366980, "description": "Build vector search with Weaviate using v4 syntax, proper module configuration, and production-ready patterns.", "description_zh": "", "downloads": 543, "homepage": "https://clawhub.ai/ivangdavila/weaviate", "iconUrl": null, "installs": 8, "name": "Weaviate", "ownerName": "ivangdavila", "score": 9655.049786628735, "slug": "weaviate", "source": "clawhub", "stars": 0, "tags": null, "updated_at": 1776765371108, "version": "1.0.0"}, {"category": "content-creation", "created_at": 1773042218789, "description": "Gemini image generation, editing, and search-grounded image creation via gemini-3.1-flash-image-preview (Nano Banana 2). USE FOR: - Generating images from te...", "description_zh": "", "downloads": 543, "homepage": "https://clawhub.ai/frank-bot07/nano-banana-2-gemini", "iconUrl": null, "installs": 103, "name": "Nano Banana 2 — Gemini Image Generation", "ownerName": "frank-bot07", "score": 29559.06369080022, "slug": "nano-banana-2-gemini", "source": "clawhub", "stars": 0, "tags": ["gemini", "generative-ai", "image"], "updated_at": 1776764950111, "version": "0.1.0"}, {"category": "ai-intelligence", "created_at": 1772791583119, "description": "ETF and fund portfolio manager with price alerts, profit/loss tracking, and position management. Track your ETF/fund holdings, calculate gains/losses, set pr...", "description_zh": "", "downloads": 543, "homepage": "https://clawhub.ai/popwho/etf-finance", "iconUrl": null, "installs": 76, "name": "etf-finance", "ownerName": "popwho", "score": 18003.978779840847, "slug": "etf-finance", "source": "clawhub", "stars": 0, "tags": null, "updated_at": 1776761690290, "version": "1.1.0"}, {"category": "content-creation", "created_at": 1772792833886, "description": "Perform privacy-focused web searches via DDGS metasearch for webpages, news, images, videos, or books with no tracking and no API key required.", "description_zh": "", "downloads": 543, "homepage": "https://clawhub.ai/idkwhodatis/ddgs", "iconUrl": null, "installs": 43, "name": "ddgs (DuckDuckGo Search)", "ownerName": "idkwhodatis", "score": 39955.849889624726, "slug": "ddgs", "source": "clawhub", "stars": 0, "tags": null, "updated_at": 1776759083358, "version": "1.0.0"}, {"category": "ai-intelligence", "created_at": 1772784283101, "description": "Remotely manage the 4090 server via SSH to monitor Docker containers, restart services, and check system status.", "description_zh": "", "downloads": 543, "homepage": "https://clawhub.ai/olmmlo-cmd/4090ctl", "iconUrl": null, "installs": 21, "name": "4090ctl", "ownerName": "olmmlo-cmd", "score": 39780.21978021978, "slug": "4090ctl", "source": "clawhub", "stars": 0, "tags": null, "updated_at": 1776759082751, "version": "1.0.0"}, {"category": "developer-tools", "created_at": 1772777048134, "description": "Track detailed AI agent expenses, revenues, budgets, and ROI with per-agent attribution and alerts for efficient micro-budget financial management.", "description_zh": "", "downloads": 543, "homepage": "https://clawhub.ai/edmonddantesj/aoineco-ledger", "iconUrl": null, "installs": 11, "name": "Aoineco Ledger — AI Agent Financial Tracking Engine", "ownerName": "edmonddantesj", "score": 39606.12691466083, "slug": "aoineco-ledger", "source": "clawhub", "stars": 0, "tags": null, "updated_at": 1776759082741, "version": "1.0.0"}, {"category": "productivity", "created_at": 1772777942617, "description": "Automation skill for DELLIGHT CRO Revenue Operations.", "description_zh": "", "downloads": 543, "homepage": "https://clawhub.ai/arthurelgindell/dellight-cro-revenue-ops", "iconUrl": null, "installs": 10, "name": "DELLIGHT CRO Revenue Operations", "ownerName": "arthurelgindell", "score": 39490.909090909096, "slug": "dellight-cro-revenue-ops", "source": "clawhub", "stars": 0, "tags": ["c-suite", "dellight", "revenue"], "updated_at": 1776759082570, "version": "1.0.0"}, {"category": "security-compliance", "created_at": 1772783167080, "description": "Audit how a brand appears in AI-powered search (ChatGPT, Perplexity, Claude, Gemini). Use when user mentions \"AI search,\" \"how do I show up in ChatGPT,\" \"AI...", "description_zh": "", "downloads": 543, "homepage": "https://clawhub.ai/brianrwagner/brw-ai-discoverability-audit", "iconUrl": null, "installs": 18, "name": "Ai Discoverability Audit", "ownerName": "brianrwagner", "score": 96964.28571428571, "slug": "brw-ai-discoverability-audit", "source": "clawhub", "stars": 0, "tags": null, "updated_at": 1776748185105, "version": "1.0.0"}, {"category": "productivity", "created_at": 1772778433906, "description": "Equip, unequip, and inspect Aavegotchi wearables on Base via Bankr submissions.", "description_zh": "", "downloads": 543, "homepage": "https://clawhub.ai/aaigotchi/gotchi-equip", "iconUrl": null, "installs": 22, "name": "Gotchi Equip", "ownerName": "aaigotchi", "score": 96964.28571428571, "slug": "gotchi-equip", "source": "clawhub", "stars": 0, "tags": null, "updated_at": 1776748185027, "version": "1.0.3"}, {"category": "content-creation", "created_at": 1772789878248, "description": "Work inside a Zettelclaw vault using the current typed frontmatter schema, inbox + Base workflows, and human-write/agent-read guardrails. Use when creating,...", "description_zh": "", "downloads": 543, "homepage": "https://clawhub.ai/maxpetretta/zettelclaw", "iconUrl": null, "installs": 22, "name": "Zettelclaw", "ownerName": "maxpetretta", "score": 100000, "slug": "zettelclaw", "source": "clawhub", "stars": 0, "tags": null, "updated_at": 1776748184900, "version": "2026.3.11"}, {"category": "security-compliance", "created_at": 1772793738982, "description": "Audit codebases, infrastructure, AND agentic AI systems for security issues. Covers traditional security (dependencies, secrets, OWASP web top 10, SSL/TLS, f...", "description_zh": "", "downloads": 543, "homepage": "https://clawhub.ai/kingrubic/agentic-security-audit", "iconUrl": null, "installs": 17, "name": "Agentic Security Audit", "ownerName": "kingrubic", "score": 94270.83333333334, "slug": "agentic-security-audit", "source": "clawhub", "stars": 0, "tags": ["agentic", "owasp", "security"], "updated_at": 1776748184661, "version": "1.0.0"}, {"category": "developer-tools", "created_at": 1772790102061, "description": "Generate complete, installable OpenClaw trading skills from natural language strategy descriptions. Use when your human wants to create a new trading strateg...", "description_zh": "", "downloads": 543, "homepage": "https://clawhub.ai/adlai88/simmer-skill-builder", "iconUrl": null, "installs": 20, "name": "Simmer Skill Builder", "ownerName": "adlai88", "score": 94764.39790575915, "slug": "simmer-skill-builder", "source": "clawhub", "stars": 0, "tags": null, "updated_at": 1776748184234, "version": "1.2.0"}, {"category": "developer-tools", "created_at": 1772776520368, "description": "A slow-channel inbox for leaving your operator important messages. Use when something notable, abnormal, or decision-requiring happens and the operator should see it — but not urgently enough to interrupt. Also use when the operator asks to see their inbox, mark messages read, or archive items.", "description_zh": "", "downloads": 543, "homepage": "https://clawhub.ai/dvdegenz/snailmail", "iconUrl": null, "installs": 2, "name": "Snail Mail", "ownerName": "dvdegenz", "score": 94764.39790575915, "slug": "snailmail", "source": "clawhub", "stars": 0, "tags": null, "updated_at": 1776748184170, "version": "1.0.0"}, {"category": "developer-tools", "created_at": 1772783499834, "description": "Create, configure, and manage UNITH digital human avatars via the UNITH API. Cheaper alternative to HeyGen and other solutions. Use when users want to create...", "description_zh": "", "downloads": 542, "homepage": "https://clawhub.ai/polucas/digital-clawatar", "iconUrl": null, "installs": 16, "name": "Digital Clawatar", "ownerName": "polucas", "score": 4820.210787352759, "slug": "digital-clawatar", "source": "clawhub", "stars": 4, "tags": null, "updated_at": 1776770050139, "version": "1.0.2"}, {"category": "data-analysis", "created_at": 1772775953128, "description": "Prepare for the TOEFL iBT exam with progress tracking, weak area analysis, score prediction, and university targeting.", "description_zh": "", "downloads": 542, "homepage": "https://clawhub.ai/ivangdavila/toefl", "iconUrl": null, "installs": 8, "name": "TOEFL", "ownerName": "ivangdavila", "score": 100000, "slug": "toefl", "source": "clawhub", "stars": 2, "tags": null, "updated_at": 1776748183675, "version": "1.0.0"}, {"category": "communication-collaboration", "created_at": 1772776865852, "description": "Generate, send, validate, and export AI-powered emails from the terminal; manage contacts, segments, tags, domains, and webhooks with Migma CLI.", "description_zh": "", "downloads": 542, "homepage": "https://clawhub.ai/adamsey/migma", "iconUrl": null, "installs": 20, "name": "Migma", "ownerName": "adamsey", "score": 26752.22112537019, "slug": "migma", "source": "clawhub", "stars": 0, "tags": null, "updated_at": 1776769150275, "version": "1.3.0"}, {"category": "productivity", "created_at": 1772777462304, "description": "Automation skill for DELLIGHT Intelligence Operations.", "description_zh": "", "downloads": 542, "homepage": "https://clawhub.ai/arthurelgindell/dellight-intelligence-ops", "iconUrl": null, "installs": 14, "name": "DELLIGHT Intelligence Operations", "ownerName": "arthurelgindell", "score": 97132.61648745519, "slug": "dellight-intelligence-ops", "source": "clawhub", "stars": 0, "tags": ["c-suite", "dellight", "intelligence"], "updated_at": 1776759083708, "version": "1.0.0"}, {"category": "data-analysis", "created_at": 1772780324247, "description": "Give your agent the ability to speak to you real-time. Talk to your Claude! Ultra-fast TTS, text-to-speech, voice synthesis, audio output with ~90ms latency....", "description_zh": "", "downloads": 542, "homepage": "https://clawhub.ai/emzod/speakturbo-tts", "iconUrl": null, "installs": 17, "name": "Speak Turbo - Talk to your Claude 90ms latency!", "ownerName": "emzod", "score": 39360.92955700799, "slug": "speakturbo-tts", "source": "clawhub", "stars": 0, "tags": ["ai-agent", "apple-silicon", "audio", "claude-code", "fast", "local", "mlx", "realistic", "skills", "speak", "talk", "text-to-speech", "tts", "voice"], "updated_at": 1776759083022, "version": "1.0.7"}, {"category": "productivity", "created_at": 1772781225420, "description": "Execute native commands on the local Windows machine and return their output to OpenClaw for automation and testing purposes.", "description_zh": "", "downloads": 542, "homepage": "https://clawhub.ai/sadikjarvis/native-run", "iconUrl": null, "installs": 21, "name": "Native Run", "ownerName": "sadikjarvis", "score": 37482.71092669433, "slug": "native-run", "source": "clawhub", "stars": 0, "tags": null, "updated_at": 1776759082955, "version": "0.0.1"}]}