{"page": 165, "total_pages": 522, "total": 26073, "skills": [{"category": "ai-intelligence", "created_at": 1773915343499, "description": "Captures learnings, errors, and corrections to enable continuous improvement. Use when: (1) A command or operation fails unexpectedly, (2) User corrects Clau...", "description_zh": "", "downloads": 542, "homepage": "https://clawhub.ai/fedrov2025/self-improving-agent-3-0-2", "iconUrl": null, "installs": 230, "name": "Self Improving Agent 3.0.2", "ownerName": "fedrov2025", "score": 37482.71092669433, "slug": "self-improving-agent-3-0-2", "source": "clawhub", "stars": 0, "tags": null, "updated_at": 1776758482917, "version": "1.0.0"}, {"category": "security-compliance", "created_at": 1772777771978, "description": "Access Ahrefs SEO data for site analysis, keyword research, backlink and competitor insights, rank tracking, and technical SEO audits via MCP integration.", "description_zh": "", "downloads": 542, "homepage": "https://clawhub.ai/jonathan-sokol/ahrefs-mcp", "iconUrl": null, "installs": 9, "name": "Ahrefs MCP", "ownerName": "jonathan-sokol", "score": 100000, "slug": "ahrefs-mcp", "source": "clawhub", "stars": 0, "tags": null, "updated_at": 1776750004839, "version": "1.0.0"}, {"category": "developer-tools", "created_at": 1772779281441, "description": "Track Ethereum NFT collections' floor prices, volumes, owners, and recent sales including BAYC, MAYC, CryptoPunks via Reservoir and OpenSea APIs.", "description_zh": "", "downloads": 542, "homepage": "https://clawhub.ai/ianalloway/nft-tracker", "iconUrl": null, "installs": 11, "name": "Nft Tracker", "ownerName": "ianalloway", "score": 94260.86956521739, "slug": "nft-tracker", "source": "clawhub", "stars": 0, "tags": null, "updated_at": 1776748185470, "version": "0.1.0"}, {"category": "security-compliance", "created_at": 1772775775642, "description": "Release skills to ClawhHub through the full publication pipeline — auto-scaffolding, OPSEC scan, dual review (agent + user), force-push release, security sca...", "description_zh": "", "downloads": 542, "homepage": "https://clawhub.ai/chunhualiao/skill-releaser", "iconUrl": null, "installs": 7, "name": "Skill Releaser", "ownerName": "chunhualiao", "score": 98010.84990958408, "slug": "skill-releaser", "source": "clawhub", "stars": 0, "tags": null, "updated_at": 1776748185144, "version": "1.5.0"}, {"category": "ai-intelligence", "created_at": 1772777875846, "description": "Search for books, get book details and reviews, discover personalized recommendations, and manage reading lists on Goodreads — all through browser automation.", "description_zh": "", "downloads": 542, "homepage": "https://clawhub.ai/surajssd/goodreads", "iconUrl": null, "installs": 38, "name": "goodreads", "ownerName": "surajssd", "score": 99815.8379373849, "slug": "goodreads", "source": "clawhub", "stars": 0, "tags": null, "updated_at": 1776748184979, "version": "0.1.0"}, {"category": "developer-tools", "created_at": 1772781277483, "description": "Monitor App Store ratings for any iOS app across multiple countries. Fetches live overall ratings using Apple's free iTunes Lookup API — no API key needed. S...", "description_zh": "", "downloads": 542, "homepage": "https://clawhub.ai/aligurelli/appstore-rating-pulse", "iconUrl": null, "installs": 16, "name": "AppStore Rating Pulse", "ownerName": "aligurelli", "score": 94589.87783595113, "slug": "appstore-rating-pulse", "source": "clawhub", "stars": 0, "tags": null, "updated_at": 1776748184162, "version": "1.1.0"}, {"category": "data-analysis", "created_at": 1772780487971, "description": "Control OctoPrint 3D printer — monitor status, capture webcam snapshots, manage prints, analyze gcode, and detect errors. Use when the user asks about their...", "description_zh": "", "downloads": 542, "homepage": "https://clawhub.ai/peterhanily/octoclaw-print", "iconUrl": null, "installs": 18, "name": "OctoClaw", "ownerName": "peterhanily", "score": 93448.27586206896, "slug": "octoclaw-print", "source": "clawhub", "stars": 0, "tags": null, "updated_at": 1776748183856, "version": "1.0.0"}, {"category": "ai-intelligence", "created_at": 1772777932782, "description": "3-tier Perplexity AI search routing with auto model selection", "description_zh": "", "downloads": 542, "homepage": "https://clawhub.ai/aiwithabidi/agxntsix-deep-search", "iconUrl": null, "installs": 23, "name": "Deep Search", "ownerName": "aiwithabidi", "score": 93448.27586206896, "slug": "agxntsix-deep-search", "source": "clawhub", "stars": 0, "tags": ["ai", "perplexity", "research", "search"], "updated_at": 1776748183812, "version": "1.0.0"}, {"category": "data-analysis", "created_at": 1772775989020, "description": "Build high-converting paywalls for mobile apps and web with proven patterns, pricing strategies, and A/B testing.", "description_zh": "", "downloads": 541, "homepage": "https://clawhub.ai/ivangdavila/paywall", "iconUrl": null, "installs": 19, "name": "Paywall", "ownerName": "ivangdavila", "score": 100000, "slug": "paywall", "source": "clawhub", "stars": 2, "tags": null, "updated_at": 1776748185311, "version": "1.0.0"}, {"category": "content-creation", "created_at": 1772799072595, "description": "REST API design patterns including resource naming, status codes, pagination, filtering, error responses, versioning, and rate limiting for production APIs.", "description_zh": "", "downloads": 541, "homepage": "https://clawhub.ai/shateily/api-design", "iconUrl": null, "installs": 45, "name": "Api Design", "ownerName": "shateily", "score": 5771.282270108812, "slug": "api-design", "source": "clawhub", "stars": 0, "tags": null, "updated_at": 1776768850357, "version": "1.0.0"}, {"category": "content-creation", "created_at": 1772799072595, "description": "REST API design patterns including resource naming, status codes, pagination, filtering, error responses, versioning, and rate limiting for production APIs.", "description_zh": "", "downloads": 541, "homepage": "https://clawhub.ai/shateily/api-design", "iconUrl": null, "installs": 45, "name": "Api Design", "ownerName": "shateily", "score": 14388.297872340425, "slug": "api-design", "source": "clawhub", "stars": 0, "tags": null, "updated_at": 1776768850357, "version": "1.0.0"}, {"category": "content-creation", "created_at": 1772788620485, "description": "Generate QR codes from text, URLs, or images. Use when users ask to 'generate QR code', 'create QR', or 'make QR code for'. Supports text content, URLs, and...", "description_zh": "", "downloads": 541, "homepage": "https://clawhub.ai/nbf819-web/pr-generator", "iconUrl": null, "installs": 87, "name": "二维码生成器", "ownerName": "nbf819-web", "score": 10962.512664640324, "slug": "pr-generator", "source": "clawhub", "stars": 0, "tags": null, "updated_at": 1776768249764, "version": "3.0.0"}, {"category": "developer-tools", "created_at": 1772782806004, "description": "Pay invoices via Mercury Bank API. Use when sending ACH or wire payments through Mercury, creating recipients, querying transactions, or managing payment wor...", "description_zh": "", "downloads": 541, "homepage": "https://clawhub.ai/nathan-deepmm/mercury-payments", "iconUrl": null, "installs": 10, "name": "Mercury Payments", "ownerName": "nathan-deepmm", "score": 8187.046004842615, "slug": "mercury-payments", "source": "clawhub", "stars": 0, "tags": null, "updated_at": 1776765590460, "version": "1.0.1"}, {"category": "ai-intelligence", "created_at": 1773425316917, "description": "Scaffold the standard ai/ directory structure in any repo.", "description_zh": "", "downloads": 541, "homepage": "https://clawhub.ai/parkertoddbrooks/wip-repo-init", "iconUrl": null, "installs": 16, "name": "Wip Repo Init", "ownerName": "parkertoddbrooks", "score": 39691.85619955979, "slug": "wip-repo-init", "source": "clawhub", "stars": 0, "tags": null, "updated_at": 1776759083099, "version": "1.9.51"}, {"category": "data-analysis", "created_at": 1772781740004, "description": "gitignore-sync combines gitignore.io templates with your repo context to produce a cleaner `.gitignore` with fewer overlooked cases. It generates `.gitignore...", "description_zh": "", "downloads": 541, "homepage": "https://clawhub.ai/nikita-holban/gitignore-sync", "iconUrl": null, "installs": 8, "name": "Gitignore Sync", "ownerName": "nikita-holban", "score": 37413.55463347165, "slug": "gitignore-sync", "source": "clawhub", "stars": 0, "tags": ["developer-tools", "git", "gitignore"], "updated_at": 1776759082950, "version": "0.1.3"}, {"category": "data-analysis", "created_at": 1772781572125, "description": "Design database structures from given data, create backend APIs using the specified endpoint, and develop dynamic HTML dashboards with 60-second polling for...", "description_zh": "", "downloads": 541, "homepage": "https://clawhub.ai/realroc/coding-2", "iconUrl": null, "installs": 13, "name": "Coding", "ownerName": "realroc", "score": 39345.454545454544, "slug": "coding-2", "source": "clawhub", "stars": 0, "tags": null, "updated_at": 1776759082247, "version": "0.1.0"}, {"category": "productivity", "created_at": 1772788610427, "description": "Read currently open browser tabs from Chrome or other Chromium browsers (Arc, Brave, Edge, etc.). Use when you need to know what URLs the user has open, or w...", "description_zh": "", "downloads": 541, "homepage": "https://clawhub.ai/mindsocket/open-chrome-tabs", "iconUrl": null, "installs": 43, "name": "Open Chrome Tabs", "ownerName": "mindsocket", "score": 33068.45965770171, "slug": "open-chrome-tabs", "source": "clawhub", "stars": 0, "tags": null, "updated_at": 1776756527300, "version": "1.1.1"}, {"category": "communication-collaboration", "created_at": 1772784136543, "description": "Sends voice messages (audio) to Feishu chats using Duby TTS.", "description_zh": "", "downloads": 541, "homepage": "https://clawhub.ai/autogame-17/feishu-voice-assistant", "iconUrl": null, "installs": 29, "name": "Feishu Voice Assistant", "ownerName": "autogame-17", "score": 96607.14285714286, "slug": "feishu-voice-assistant", "source": "clawhub", "stars": 0, "tags": null, "updated_at": 1776748185098, "version": "1.0.0"}, {"category": "developer-tools", "created_at": 1772778449259, "description": "Play a 5-letter Wordle game on the Monad blockchain using $WORDLE tokens. Start games, submit guesses, and retrieve game state via HTTP API.", "description_zh": "", "downloads": 541, "homepage": "https://clawhub.ai/husseinrasti/monad-wordle-game", "iconUrl": null, "installs": 28, "name": "Monad Wordle Skill", "ownerName": "husseinrasti", "score": 93923.61111111111, "slug": "monad-wordle-game", "source": "clawhub", "stars": 0, "tags": null, "updated_at": 1776748184644, "version": "1.0.0"}, {"category": "developer-tools", "created_at": 1772779570462, "description": "Generates production-ready React TSX frontend components from natural-language UI goals for non-programmers, including setup instructions and dependencies.", "description_zh": "", "downloads": 541, "homepage": "https://clawhub.ai/h4gen/frontend-builder", "iconUrl": null, "installs": 33, "name": "Frontend Builder", "ownerName": "h4gen", "score": 97127.46858168762, "slug": "frontend-builder", "source": "clawhub", "stars": 0, "tags": null, "updated_at": 1776748184354, "version": "1.0.0"}, {"category": "security-compliance", "created_at": 1772779259413, "description": "Audit Homebrew installation — outdated packages, cleanup opportunities, and health checks. Use when asked about brew updates, system maintenance, or package...", "description_zh": "", "downloads": 541, "homepage": "https://clawhub.ai/rogue-agent1/brew-audit", "iconUrl": null, "installs": 19, "name": "Brew Audit", "ownerName": "rogue-agent1", "score": 97127.46858168762, "slug": "brew-audit", "source": "clawhub", "stars": 0, "tags": null, "updated_at": 1776748184341, "version": "1.0.0"}, {"category": "developer-tools", "created_at": 1772786050704, "description": "Build and manage a product roadmap for a solopreneur business. Use when deciding what to build next, prioritizing features, planning product development over...", "description_zh": "", "downloads": 540, "homepage": "https://clawhub.ai/jk-0001/product-roadmap", "iconUrl": null, "installs": 26, "name": "Product Roadmap", "ownerName": "jk-0001", "score": 3186.112942210503, "slug": "product-roadmap", "source": "clawhub", "stars": 2, "tags": null, "updated_at": 1776763790451, "version": "0.1.0"}, {"category": "data-analysis", "created_at": 1772779647537, "description": "All-in-one daily briefing that combines Google Calendar events, Gmail/Outlook email highlights, weather forecast, GitHub PR and CI status, Hacker News and RS...", "description_zh": "", "downloads": 540, "homepage": "https://clawhub.ai/ariktulcha/daily-briefing-hub", "iconUrl": null, "installs": 19, "name": "Daily Briefing Hub", "ownerName": "ariktulcha", "score": 100000, "slug": "daily-briefing-hub", "source": "clawhub", "stars": 2, "tags": null, "updated_at": 1776748185549, "version": "1.0.0"}, {"category": "content-creation", "created_at": 1772791021945, "description": "SurrealDB Surrealism WASM extension development. Write Rust functions, compile to WASM, deploy as database modules. Part of the surreal-skills collection.", "description_zh": "", "downloads": 540, "homepage": "https://clawhub.ai/24601/surrealism", "iconUrl": null, "installs": 16, "name": "surrealism", "ownerName": "24601", "score": 100000, "slug": "surrealism", "source": "clawhub", "stars": 2, "tags": ["surrealdb"], "updated_at": 1776748185389, "version": "1.2.1"}, {"category": "communication-collaboration", "created_at": 1772776884944, "description": "Connect to any external app and perform actions on it. Use when the user wants to interact with external services like Slack, Linear, HubSpot, Salesforce, Jira, GitHub, Google Sheets, or any other app — send messages, create tasks, sync data, manage contacts, or perform any API operation.", "description_zh": "", "downloads": 540, "homepage": "https://clawhub.ai/bratchenko/self-integration", "iconUrl": null, "installs": 31, "name": "Self-Integration", "ownerName": "bratchenko", "score": 100000, "slug": "self-integration", "source": "clawhub", "stars": 2, "tags": null, "updated_at": 1776748183784, "version": "1.1.2"}, {"category": "developer-tools", "created_at": 1772777692998, "description": "Command-line tool for searching, playing, and controlling Plex Media Server and clients via the Plex API on your local network.", "description_zh": "", "downloads": 540, "homepage": "https://clawhub.ai/akivasolutions/plex-ctl", "iconUrl": null, "installs": 5, "name": "PLEX-CTL", "ownerName": "akivasolutions", "score": 97391.3043478261, "slug": "plex-ctl", "source": "clawhub", "stars": 1, "tags": null, "updated_at": 1776759082899, "version": "1.0.0"}, {"category": "data-analysis", "created_at": 1772781055740, "description": "Analyze Arccos Golf performance data including club distances, strokes gained metrics, scoring patterns, and round-by-round performance. Use when the user as...", "description_zh": "", "downloads": 540, "homepage": "https://clawhub.ai/pfrederiksen/arccos-golf", "iconUrl": null, "installs": 13, "name": "Arccos Golf Performance Analyzer", "ownerName": "pfrederiksen", "score": 100000, "slug": "arccos-golf", "source": "clawhub", "stars": 1, "tags": ["analytics", "golf", "sports"], "updated_at": 1776748185029, "version": "2.0.2"}, {"category": "developer-tools", "created_at": 1772776407283, "description": "Create and manage StrawPoll polls, meeting polls, and ranking polls from the terminal using the strawpoll CLI. Use when the user wants to create polls, view...", "description_zh": "", "downloads": 540, "homepage": "https://clawhub.ai/dedene/strawpoll-cli", "iconUrl": null, "installs": 10, "name": "Strawpoll Cli", "ownerName": "dedene", "score": 4723.996150817951, "slug": "strawpoll-cli", "source": "clawhub", "stars": 0, "tags": null, "updated_at": 1776769149857, "version": "1.0.2"}, {"category": "ai-intelligence", "created_at": 1772777626329, "description": "Search property.com.au for Australian property research — valuations, sold history, suburb profiles, and property details. Use when researching property valu...", "description_zh": "", "downloads": 540, "homepage": "https://clawhub.ai/jakelin/property-search", "iconUrl": null, "installs": 25, "name": "property.com.au Research", "ownerName": "jakelin", "score": 9520.451339915375, "slug": "property-search", "source": "clawhub", "stars": 0, "tags": null, "updated_at": 1776765550398, "version": "1.0.0"}, {"category": "security-compliance", "created_at": 1772779191129, "description": "Evaluates a crypto token's contract for scam risks and flags its safety level with reasons for trading and decision-making purposes.", "description_zh": "", "downloads": 540, "homepage": "https://clawhub.ai/dokbawi80/is-token-safe", "iconUrl": null, "installs": 8, "name": "Is Token Safe?", "ownerName": "dokbawi80", "score": 98720.29250457039, "slug": "is-token-safe", "source": "clawhub", "stars": 0, "tags": ["erc20", "scam", "security", "token"], "updated_at": 1776759083141, "version": "1.0.0"}, {"category": "developer-tools", "created_at": 1772780121221, "description": "Automates customized waste collection reminders with multiple container types, schedules, targets, and confirmation via direct API messaging.", "description_zh": "", "downloads": 540, "homepage": "https://clawhub.ai/apenklit/waste-reminder", "iconUrl": null, "installs": 9, "name": "WastePickupReminder", "ownerName": "apenklit", "score": 39215.686274509804, "slug": "waste-reminder", "source": "clawhub", "stars": 0, "tags": null, "updated_at": 1776759083001, "version": "1.0.2"}, {"category": "productivity", "created_at": 1772784686260, "description": "Automates searching, proposal generation, lead tracking, and outreach for RPA and automation jobs on Upwork and Fiverr.", "description_zh": "", "downloads": 540, "homepage": "https://clawhub.ai/katrina-jpg/upwork-automation-gig", "iconUrl": null, "installs": 13, "name": "Upwork Automation Gig", "ownerName": "katrina-jpg", "score": 91993.18568994889, "slug": "upwork-automation-gig", "source": "clawhub", "stars": 0, "tags": null, "updated_at": 1776759082377, "version": "1.0.0"}, {"category": "developer-tools", "created_at": 1772776354902, "description": "Use when managing Crunch coordinators, competitions (crunches), rewards, checkpoints, staking, or cruncher accounts via the crunch-cli.", "description_zh": "", "downloads": 540, "homepage": "https://clawhub.ai/philippwassibauer/crunch-coordinate", "iconUrl": null, "installs": 5, "name": "Crunch Coordinate", "ownerName": "philippwassibauer", "score": 95238.09523809524, "slug": "crunch-coordinate", "source": "clawhub", "stars": 0, "tags": null, "updated_at": 1776748185634, "version": "0.1.1"}, {"category": "productivity", "created_at": 1772779697181, "description": "Create, read, search, and manage macOS Notes via AppleScript. Use when the user asks to take a note, jot something down, save an idea, create meeting notes,...", "description_zh": "", "downloads": 540, "homepage": "https://clawhub.ai/lucaperret/macos-notes", "iconUrl": null, "installs": 22, "name": "macOS Notes", "ownerName": "lucaperret", "score": 93913.04347826086, "slug": "macos-notes", "source": "clawhub", "stars": 0, "tags": null, "updated_at": 1776748185448, "version": "1.0.0"}, {"category": "content-creation", "created_at": 1772794529460, "description": "Complete A/B video pipeline — storyboard, Veo 3 batch generation, browser preview with feedback loop, and ffmpeg assembly into final videos. Use when creatin...", "description_zh": "", "downloads": 540, "homepage": "https://clawhub.ai/omerflo/video-production", "iconUrl": null, "installs": 66, "name": "Video Production", "ownerName": "omerflo", "score": 93103.44827586207, "slug": "video-production", "source": "clawhub", "stars": 0, "tags": null, "updated_at": 1776748185419, "version": "1.0.0"}, {"category": "communication-collaboration", "created_at": 1772789395178, "description": "Query and manage leads from the SMB Sales Boost B2B lead database. Search newly registered businesses, filter by location/industry/keywords, export leads, ma...", "description_zh": "", "downloads": 540, "homepage": "https://clawhub.ai/tomsonx232/smb-sales-boost-leads", "iconUrl": null, "installs": 13, "name": "SMB Sales Boost — B2B Lead Database of SMBs for Cold Outreach & GTM", "ownerName": "tomsonx232", "score": 93750, "slug": "smb-sales-boost-leads", "source": "clawhub", "stars": 0, "tags": ["api", "b2b", "business-data", "business-leads", "cold-email", "cold-outreach", "contacts", "go-to-market", "gtm", "lead-generation", "leads", "new-businesses", "outbound", "pipeline", "prospecting", "revenue", "sales", "sales-intelligence", "small-business", "smb"], "updated_at": 1776748184621, "version": "1.8.0"}, {"category": "developer-tools", "created_at": 1772780168968, "description": "Fast, explicit terminal execution via OpenClaw exec (direct dispatch; you type the exact command).", "description_zh": "", "downloads": 540, "homepage": "https://clawhub.ai/liuwujijay/agi-term-helper", "iconUrl": null, "installs": 9, "name": "Agi Term Helper", "ownerName": "liuwujijay", "score": 91993.18568994889, "slug": "agi-term-helper", "source": "clawhub", "stars": 0, "tags": null, "updated_at": 1776748184525, "version": "1.0.1"}, {"category": "content-creation", "created_at": 1773202294247, "description": "Generate AI videos and images using Alibaba's Wan 2.6 and Wan 2.5 — featuring text-to-video, image-to-video, video-to-video, text-to-image, and image editing...", "description_zh": "", "downloads": 540, "homepage": "https://clawhub.ai/xixihhhh/alibaba-wan", "iconUrl": null, "installs": 69, "name": "Wan 2.6 & 2.5 — AI Video & Image Generation by Alibaba", "ownerName": "xixihhhh", "score": 96947.9353680431, "slug": "alibaba-wan", "source": "clawhub", "stars": 0, "tags": null, "updated_at": 1776748184350, "version": "1.0.2"}, {"category": "ai-intelligence", "created_at": 1772778068776, "description": "Domain lending protocol on Solana. Domains become tokens. Tokens become collateral. Top holder controls the domain. Borrow SOL against your position -- but g...", "description_zh": "", "downloads": 540, "homepage": "https://clawhub.ai/mrsirg97-rgb/torchdomainauctionbot", "iconUrl": null, "installs": 25, "name": "Torch Domain Auction Bot", "ownerName": "mrsirg97-rgb", "score": 96947.9353680431, "slug": "torchdomainauctionbot", "source": "clawhub", "stars": 0, "tags": null, "updated_at": 1776748183903, "version": "2.0.1"}, {"category": "communication-collaboration", "created_at": 1772778617307, "description": "Query and filter 383,000+ court-released Jeffrey Epstein emails with structured JSON data via a pay-per-request API using USDC on Base.", "description_zh": "", "downloads": 539, "homepage": "https://clawhub.ai/blockboy32/epstein-emails", "iconUrl": null, "installs": 23, "name": "Epstein Emails (x402)", "ownerName": "blockboy32", "score": 14945.792462570986, "slug": "epstein-emails", "source": "clawhub", "stars": 2, "tags": null, "updated_at": 1776762850640, "version": "1.0.1"}, {"category": "data-analysis", "created_at": 1772785470704, "description": "Schedule and coordinate asynchronous group meetings (2-50 participants) via email across timezones, with status checks, pauses, resumes, and cancellations.", "description_zh": "", "downloads": 539, "homepage": "https://clawhub.ai/dheerg/ai-meeting-scheduling", "iconUrl": null, "installs": 13, "name": "Skipup - AI Meeting Scheduling", "ownerName": "dheerg", "score": 100000, "slug": "ai-meeting-scheduling", "source": "clawhub", "stars": 2, "tags": ["ai-scheduling", "availability", "booking", "calendar", "coordination", "email-scheduling", "group-scheduling", "meetings", "multi-participant", "productivity", "scheduling", "timezone"], "updated_at": 1776759082832, "version": "1.0.0"}, {"category": "security-compliance", "created_at": 1772775425002, "description": "Dropbox Business API integration with managed OAuth. Manage team members, groups, team folders, devices, and audit logs for Dropbox Business teams. Use this...", "description_zh": "", "downloads": 539, "homepage": "https://clawhub.ai/byungkyu/dropbox-business", "iconUrl": null, "installs": 6, "name": "Dropbox Business", "ownerName": "byungkyu", "score": 99655.76592082616, "slug": "dropbox-business", "source": "clawhub", "stars": 2, "tags": null, "updated_at": 1776748185359, "version": "1.0.3"}, {"category": "developer-tools", "created_at": 1772799634583, "description": "Battle in Grid Clash - join 8-agent grid battles. Fetch equipment data to choose the best weapon, armor, and tier. Use when user wants to participate in Grid...", "description_zh": "", "downloads": 539, "homepage": "https://clawhub.ai/appback/gridclash", "iconUrl": null, "installs": 4, "name": "GridClash", "ownerName": "appback", "score": 100000, "slug": "gridclash", "source": "clawhub", "stars": 1, "tags": ["arena", "battle", "game", "grid", "strategy"], "updated_at": 1776751783867, "version": "1.11.3"}, {"category": "developer-tools", "created_at": 1772779954574, "description": "Expert in building Retrieval-Augmented Generation systems. Masters embedding models, vector databases, chunking strategies, and retrieval optimization for LL...", "description_zh": "", "downloads": 539, "homepage": "https://clawhub.ai/mupengi-bot/mupeng-rag-engineer", "iconUrl": null, "installs": 19, "name": "RAG Engineer", "ownerName": "mupengi-bot", "score": 20907.68037238169, "slug": "mupeng-rag-engineer", "source": "clawhub", "stars": 0, "tags": null, "updated_at": 1776765550198, "version": "1.0.0"}, {"category": "developer-tools", "created_at": 1773074205981, "description": "Reasoning hygiene protocol for OpenClaw agents — keep context sharp by collapsing exploration into decisions, enforcing file budgets, and pruning ghost conte...", "description_zh": "", "downloads": 539, "homepage": "https://clawhub.ai/ppiankov/context-hygiene", "iconUrl": null, "installs": 9, "name": "Context Hygiene", "ownerName": "ppiankov", "score": 26421.568627450983, "slug": "context-hygiene", "source": "clawhub", "stars": 0, "tags": null, "updated_at": 1776764649905, "version": "1.1.0"}, {"category": "data-analysis", "created_at": 1772777785620, "description": "Reports AI agent status to ClawHQ dashboard via API on each heartbeat or manual trigger for real-time monitoring.", "description_zh": "", "downloads": 539, "homepage": "https://clawhub.ai/zachmael/clawhq-dashboard", "iconUrl": null, "installs": 13, "name": "OpenClaw Dashboard Connector - ClawHQ", "ownerName": "zachmael", "score": 39228.52983988355, "slug": "clawhq-dashboard", "source": "clawhub", "stars": 0, "tags": ["agent health", "dashboards", "monitoring", "workflows"], "updated_at": 1776759083630, "version": "1.0.1"}, {"category": "ai-intelligence", "created_at": 1772778664485, "description": "Prepare thorough meeting briefs with attendee research, tailored agendas, live structured notes, action tracking, follow-ups, and relationship history for ma...", "description_zh": "", "downloads": 539, "homepage": "https://clawhub.ai/1kalin/afrexai-meeting-mastery", "iconUrl": null, "installs": 26, "name": "Meeting Mastery", "ownerName": "1kalin", "score": 39343.06569343065, "slug": "afrexai-meeting-mastery", "source": "clawhub", "stars": 0, "tags": ["agenda", "calendar", "follow-up", "meetings", "notes", "prep", "productivity"], "updated_at": 1776759083064, "version": "1.0.0"}, {"category": "productivity", "created_at": 1772781079899, "description": "Megasquirt ECU tuning and calibration via TunerStudio, covering VE table, ignition timing, AFR targets, sensor calibration, accel enrichment, boost, launch c...", "description_zh": "", "downloads": 539, "homepage": "https://clawhub.ai/boblobclaw/megasquirt-tuner", "iconUrl": null, "installs": 12, "name": "MegaSquirt Tuner", "ownerName": "boblobclaw", "score": 39143.06463326071, "slug": "megasquirt-tuner", "source": "clawhub", "stars": 0, "tags": null, "updated_at": 1776759083003, "version": "1.0.2"}, {"category": "communication-collaboration", "created_at": 1772781342709, "description": "Monitors workspace for new or updated .html, .md, .txt files and automatically attaches them to Telegram messages instead of showing code.", "description_zh": "", "downloads": 539, "homepage": "https://clawhub.ai/elodyzen/skill-auto-attach", "iconUrl": null, "installs": 20, "name": "Skill Auto Attach", "ownerName": "elodyzen", "score": 39487.179487179485, "slug": "skill-auto-attach", "source": "clawhub", "stars": 0, "tags": null, "updated_at": 1776759082874, "version": "1.0.0"}, {"category": "content-creation", "created_at": 1772780230636, "description": "Read, summarize, propose edits, and write back changes for Markdown todo files using line-stable bot markers without altering task identity.", "description_zh": "", "downloads": 539, "homepage": "https://clawhub.ai/nitsujy/todolist-md-clawdbot", "iconUrl": null, "installs": 29, "name": "Todolist Md Clawdbot", "ownerName": "nitsujy", "score": 39314.36907366885, "slug": "todolist-md-clawdbot", "source": "clawhub", "stars": 0, "tags": null, "updated_at": 1776759082727, "version": "1.0.0"}]}