{"page": 166, "total_pages": 522, "total": 26073, "skills": [{"category": "data-analysis", "created_at": 1772781886280, "description": "Enhanced spectrogram visualization tools for time-frequency analysis. Use when creating spectrograms, spectral analysis, or time-frequency plots for signals...", "description_zh": "", "downloads": 539, "homepage": "https://clawhub.ai/wangyendt/plot", "iconUrl": null, "installs": 12, "name": "Pywayne Plot", "ownerName": "wangyendt", "score": 100000, "slug": "plot", "source": "clawhub", "stars": 0, "tags": null, "updated_at": 1776754988437, "version": "0.1.0"}, {"category": "developer-tools", "created_at": 1773042187443, "description": "Multi-query research tool with LLM-ranked results and freshness control. Breaks a topic into focused queries, previews top results. No API key.", "description_zh": "", "downloads": 539, "homepage": "https://clawhub.ai/c5huracan/meyhem-researcher", "iconUrl": null, "installs": 8, "name": "Meyhem Researcher", "ownerName": "c5huracan", "score": 92931.03448275862, "slug": "meyhem-researcher", "source": "clawhub", "stars": 0, "tags": null, "updated_at": 1776748185401, "version": "0.2.5"}, {"category": "developer-tools", "created_at": 1772776385327, "description": "Systematically onboard new clients with checklists, welcome sequences, milestone tracking, and success metrics. Reduce churn by nailing the first 90 days.", "description_zh": "", "downloads": 539, "homepage": "https://clawhub.ai/1kalin/afrexai-onboarding", "iconUrl": null, "installs": 3, "name": "Customer Onboarding", "ownerName": "1kalin", "score": 93576.38888888889, "slug": "afrexai-onboarding", "source": "clawhub", "stars": 0, "tags": null, "updated_at": 1776748184604, "version": "1.1.0"}, {"category": "ai-intelligence", "created_at": 1772789569644, "description": "Find and complete paid tasks on the 0xWork decentralized marketplace (Base chain, USDC escrow). Use when: the agent wants to earn money/USDC by doing work, d...", "description_zh": "", "downloads": 539, "homepage": "https://clawhub.ai/jkillr/0xwork", "iconUrl": null, "installs": 22, "name": "0xwork", "ownerName": "jkillr", "score": 93576.38888888889, "slug": "0xwork", "source": "clawhub", "stars": 0, "tags": null, "updated_at": 1776748184587, "version": "1.3.0"}, {"category": "productivity", "created_at": 1772777287507, "description": "Create viral TikTok hooks, Instagram captions, story ideas, and CTAs to promote skincare affiliate products effectively.", "description_zh": "", "downloads": 539, "homepage": "https://clawhub.ai/underbench2-gif/glowskin-promo", "iconUrl": null, "installs": 29, "name": "GlowSkin Promo", "ownerName": "underbench2-gif", "score": 91822.82793867121, "slug": "glowskin-promo", "source": "clawhub", "stars": 0, "tags": null, "updated_at": 1776748184516, "version": "1.0.0"}, {"category": "ai-intelligence", "created_at": 1772794040388, "description": "Structured error-to-rule learning system for AI agents. Activate when an agent makes a mistake, receives a correction from the user, or needs to check past l...", "description_zh": "", "downloads": 539, "homepage": "https://clawhub.ai/marsnavi/error-driven-evolution", "iconUrl": null, "installs": 29, "name": "Error-Driven Evolution", "ownerName": "marsnavi", "score": 96768.40215439856, "slug": "error-driven-evolution", "source": "clawhub", "stars": 0, "tags": null, "updated_at": 1776748183937, "version": "1.0.0"}, {"category": "content-creation", "created_at": 1773954263926, "description": "Monitor RSS feeds and send notifications when new content is published. Use when user needs to track blog updates, news feeds, or any RSS source. Supports Fe...", "description_zh": "", "downloads": 539, "homepage": "https://clawhub.ai/lwd815813/rss-monitor", "iconUrl": null, "installs": 26, "name": "RSS Monitor", "ownerName": "lwd815813", "score": 92931.03448275862, "slug": "rss-monitor", "source": "clawhub", "stars": 0, "tags": ["automation", "blog", "feed", "monitor", "news", "notification", "rss"], "updated_at": 1776748183846, "version": "1.0.0"}, {"category": "data-analysis", "created_at": 1772781514498, "description": "Analyze what search queries Gemini uses when answering a prompt, by running it multiple times with Google Search grounding and reporting frequency distributi...", "description_zh": "", "downloads": 539, "homepage": "https://clawhub.ai/psyduckler/aeo-prompt-frequency-analyzer", "iconUrl": null, "installs": 11, "name": "AEO Prompt Frequency Analyzer", "ownerName": "psyduckler", "score": 92611.68384879726, "slug": "aeo-prompt-frequency-analyzer", "source": "clawhub", "stars": 0, "tags": null, "updated_at": 1776748183771, "version": "1.0.0"}, {"category": "developer-tools", "created_at": 1772790241434, "description": "Collect structured human input — approvals, decisions, reviews, data — via web forms. Create a form with a JSON schema, send unique URLs to humans, poll for...", "description_zh": "", "downloads": 538, "homepage": "https://clawhub.ai/heisee/letsclarify", "iconUrl": null, "installs": 6, "name": "Let's Clarify", "ownerName": "heisee", "score": 99483.64888123923, "slug": "letsclarify", "source": "clawhub", "stars": 2, "tags": ["agent-tools", "approval", "automation", "confirmation", "data-collection", "forms", "hil", "hitl", "human", "human-in-the-loop", "human-in-the-loop human loop forms workflow approval agent-tools data-collection confirmation user-input automation", "loop", "user-input", "workflow"], "updated_at": 1776748185301, "version": "1.0.7"}, {"category": "data-analysis", "created_at": 1772784348265, "description": "Full Spotify Premium control + music analysis. Playback: play/pause/next/prev/volume/shuffle/queue. Analysis: top tracks, top artists, liked songs, genre pro...", "description_zh": "", "downloads": 538, "homepage": "https://clawhub.ai/mixx85/spotify-claw", "iconUrl": null, "installs": 25, "name": "Spotify Claw", "ownerName": "mixx85", "score": 100000, "slug": "spotify-claw", "source": "clawhub", "stars": 2, "tags": null, "updated_at": 1776748184073, "version": "1.1.0"}, {"category": "productivity", "created_at": 1772785869625, "description": "Initiate payments on the SOHO Pay credit layer using EIP-712 signatures.", "description_zh": "", "downloads": 538, "homepage": "https://clawhub.ai/nmsteve/sohopay", "iconUrl": null, "installs": 10, "name": "sohopay", "ownerName": "nmsteve", "score": 99312.7147766323, "slug": "sohopay", "source": "clawhub", "stars": 2, "tags": null, "updated_at": 1776748183764, "version": "1.0.17"}, {"category": "ai-intelligence", "created_at": 1772780228264, "description": "Find and monitor estimated gas prices within a US radius, focusing on Costco discounts and providing daily alerts for chosen fuel types.", "description_zh": "", "downloads": 538, "homepage": "https://clawhub.ai/gustavoziaugra/test-gas-skill", "iconUrl": null, "installs": 25, "name": "Test Gas Skill", "ownerName": "gustavoziaugra", "score": 17927.35754748417, "slug": "test-gas-skill", "source": "clawhub", "stars": 0, "tags": ["test"], "updated_at": 1776761690077, "version": "0.1.0"}, {"category": "data-analysis", "created_at": 1773434718547, "description": "Analyze and transform data from multiple formats to generate insights, visualize trends, detect anomalies, and create comprehensive reports.", "description_zh": "", "downloads": 538, "homepage": "https://clawhub.ai/rupertnt034/rupert-data-analysis", "iconUrl": null, "installs": 8, "name": "Data Analysis", "ownerName": "rupertnt034", "score": 39675.51622418879, "slug": "rupert-data-analysis", "source": "clawhub", "stars": 0, "tags": null, "updated_at": 1776759083507, "version": "1.0.0"}, {"category": "ai-intelligence", "created_at": 1772778163099, "description": "Post errands using natural language, track status, review submissions, and automate USDC payments via the ErrandAI decentralized task marketplace.", "description_zh": "", "downloads": 538, "homepage": "https://clawhub.ai/chloepark85/errand-ai", "iconUrl": null, "installs": 27, "name": "Post and manage errands for human workers", "ownerName": "chloepark85", "score": 39587.93230316409, "slug": "errand-ai", "source": "clawhub", "stars": 0, "tags": null, "updated_at": 1776759083357, "version": "1.0.0"}, {"category": "communication-collaboration", "created_at": 1772779623947, "description": "Automatically fetches and injects Whisper memory context before responses and ingests conversation turns after, optimizing token usage for Telegram agents.", "description_zh": "", "downloads": 538, "homepage": "https://clawhub.ai/alinxus/usewhisper-autohook", "iconUrl": null, "installs": 22, "name": "usewhisper-autohook", "ownerName": "alinxus", "score": 39413.919413919415, "slug": "usewhisper-autohook", "source": "clawhub", "stars": 0, "tags": null, "updated_at": 1776759082623, "version": "1.0.0"}, {"category": "developer-tools", "created_at": 1772782146540, "description": "Provides detailed reasoning-based answers using user language by default, including properly formatted clickable citation footnotes when referencing sources.", "description_zh": "", "downloads": 538, "homepage": "https://clawhub.ai/alvinecarn/reasoning-answer", "iconUrl": null, "installs": 13, "name": "Reasoning Answer", "ownerName": "alvinecarn", "score": 39529.75753122704, "slug": "reasoning-answer", "source": "clawhub", "stars": 0, "tags": null, "updated_at": 1776759082149, "version": "0.1.0"}, {"category": "productivity", "created_at": 1772793112841, "description": "Create, read, update, and delete memos on a Memos instance (usememos/memos). Handles requests like \"save this as a memo\", \"list my recent memos\", \"update mem...", "description_zh": "", "downloads": 538, "homepage": "https://clawhub.ai/sinhong2011/usememos", "iconUrl": null, "installs": 29, "name": "Memos", "ownerName": "sinhong2011", "score": 31909.84578884935, "slug": "usememos", "source": "clawhub", "stars": 0, "tags": null, "updated_at": 1776758783264, "version": "0.1.9"}, {"category": "productivity", "created_at": 1772783358737, "description": "Comprehensive guide for LINE Rich UI features (Flex Messages, buttons, quick replies, and markdown auto-conversion). Use this skill to provide a professional...", "description_zh": "", "downloads": 538, "homepage": "https://clawhub.ai/shingo0620/line-rich-messages", "iconUrl": null, "installs": 8, "name": "LINE Rich Messages", "ownerName": "shingo0620", "score": 91652.47018739353, "slug": "line-rich-messages", "source": "clawhub", "stars": 0, "tags": null, "updated_at": 1776748184540, "version": "1.0.5"}, {"category": "developer-tools", "created_at": 1772785129329, "description": "Crypto research via Grok model's real-time X/Twitter knowledge. Forwards the user's query as-is to Grok API — no prompt injection, no context bloat. Use when...", "description_zh": "", "downloads": 538, "homepage": "https://clawhub.ai/arespollo/grok-research", "iconUrl": null, "installs": 16, "name": "Grok Research", "ownerName": "arespollo", "score": 93891.79755671903, "slug": "grok-research", "source": "clawhub", "stars": 0, "tags": null, "updated_at": 1776748184157, "version": "1.0.0"}, {"category": "content-creation", "created_at": 1773221748659, "description": "Guide users through creating, reviewing, and improving OpenClaw skills following proven best practices. Use when someone asks to \"create a skill\", \"write a S...", "description_zh": "", "downloads": 537, "homepage": "https://clawhub.ai/jau123/skills-creator", "iconUrl": null, "installs": 91, "name": "Skills Creator — Build High-Quality OpenClaw Skills", "ownerName": "jau123", "score": 21194.82496194825, "slug": "skills-creator", "source": "clawhub", "stars": 1, "tags": null, "updated_at": 1776764950726, "version": "1.0.3"}, {"category": "content-creation", "created_at": 1773042422751, "description": "Downloads YouTube videos to ~/Downloads. Use when user wants to download a YouTube video to their machine.", "description_zh": "", "downloads": 537, "homepage": "https://clawhub.ai/bestisblessed/youtube-download", "iconUrl": null, "installs": 48, "name": "YouTube Downloader", "ownerName": "bestisblessed", "score": 95540.30874785592, "slug": "youtube-download", "source": "clawhub", "stars": 1, "tags": null, "updated_at": 1776754388848, "version": "1.0.3"}, {"category": "developer-tools", "created_at": 1772779689604, "description": "LLM-as-a-Judge evaluator via Langfuse. Scores traces on relevance, accuracy, hallucination, and helpfulness using GPT-5-nano as judge. Supports single trace...", "description_zh": "", "downloads": 537, "homepage": "https://clawhub.ai/aiwithabidi/llm-evaluator-pro", "iconUrl": null, "installs": 7, "name": "LLM Evaluator Pro", "ownerName": "aiwithabidi", "score": 99464.28571428571, "slug": "llm-evaluator-pro", "source": "clawhub", "stars": 1, "tags": ["evaluation", "quality"], "updated_at": 1776748185033, "version": "1.0.0"}, {"category": "communication-collaboration", "created_at": 1772781140258, "description": "Stop drifting back to chatbot behavior. Patterns for maintaining autonomous agent effectiveness across sessions.", "description_zh": "", "downloads": 537, "homepage": "https://clawhub.ai/zoroposkai/anti-regression", "iconUrl": null, "installs": 16, "name": "Anti Regression", "ownerName": "zoroposkai", "score": 5807.916937053861, "slug": "anti-regression", "source": "clawhub", "stars": 0, "tags": null, "updated_at": 1776766450022, "version": "1.0.1"}, {"category": "developer-tools", "created_at": 1772780878348, "description": "Maintain organized agent memory by tagging entries as GOOD, BAD, or NEUTRAL, storing essentials in MEMORY.md and daily logs for efficient search and cleanup.", "description_zh": "", "downloads": 537, "homepage": "https://clawhub.ai/zencrust-ai/minimal-memory", "iconUrl": null, "installs": 12, "name": "Minimal Memory", "ownerName": "zencrust-ai", "score": 21767.328739359546, "slug": "minimal-memory", "source": "clawhub", "stars": 0, "tags": null, "updated_at": 1776762590328, "version": "1.0.0"}, {"category": "ai-intelligence", "created_at": 1772787224830, "description": "Manage Genome Evolution Protocol (GEP) genomes for AI agent self-evolution. Use when creating, storing, retrieving, mutating, or tracking genomes - the encod...", "description_zh": "", "downloads": 537, "homepage": "https://clawhub.ai/kylechen26/genome-manager", "iconUrl": null, "installs": 34, "name": "Genome Manager", "ownerName": "kylechen26", "score": 18259.095545732744, "slug": "genome-manager", "source": "clawhub", "stars": 0, "tags": null, "updated_at": 1776761690004, "version": "1.0.2"}, {"category": "data-analysis", "created_at": 1772790785748, "description": "Generate a detailed competitive analysis report for any company, including overview, pricing, social media, recent news, and SWOT-lite insights.", "description_zh": "", "downloads": 537, "homepage": "https://clawhub.ai/claudiodrusus/competitor-analyzer", "iconUrl": null, "installs": 21, "name": "Competitor Analyzer", "ownerName": "claudiodrusus", "score": 15882.874889086068, "slug": "competitor-analyzer", "source": "clawhub", "stars": 0, "tags": null, "updated_at": 1776761239790, "version": "1.0.0"}, {"category": "security-compliance", "created_at": 1772777369033, "description": "Connect and authenticate via Ethereum wallet to manage rooms, discover and invite AI agents, send messages, and handle micropayments on Teneo Protocol.", "description_zh": "", "downloads": 537, "homepage": "https://clawhub.ai/hunterdrop22/tyt", "iconUrl": null, "installs": 16, "name": "tytyt", "ownerName": "hunterdrop22", "score": 39168.49015317287, "slug": "tyt", "source": "clawhub", "stars": 0, "tags": null, "updated_at": 1776759083778, "version": "1.0.0"}, {"category": "data-analysis", "created_at": 1772781525856, "description": "Design and operate scalable data pipelines and architectures using best-fit patterns, tools, and modeling methodologies without external dependencies.", "description_zh": "", "downloads": 537, "homepage": "https://clawhub.ai/1kalin/afrexai-data-engineering", "iconUrl": null, "installs": 20, "name": "Data Engineering", "ownerName": "1kalin", "score": 93391.30434782608, "slug": "afrexai-data-engineering", "source": "clawhub", "stars": 0, "tags": ["analytics", "data", "engineering", "etl", "pipeline"], "updated_at": 1776759082908, "version": "1.0.0"}, {"category": "data-analysis", "created_at": 1772789114652, "description": "Automatically generate OpenAPI/Swagger API documentation by analyzing function signatures and extracting parameter and return types from Python, JavaScript,...", "description_zh": "", "downloads": 537, "homepage": "https://clawhub.ai/honestqiao/api-doc-generator", "iconUrl": null, "installs": 31, "name": "API Doc Generator", "ownerName": "honestqiao", "score": 39340.65934065934, "slug": "api-doc-generator", "source": "clawhub", "stars": 0, "tags": ["api", "doc"], "updated_at": 1776759082782, "version": "1.0.0"}, {"category": "developer-tools", "created_at": 1772796796540, "description": "Use this skill when users need Alpha Vantage market data or indicators (stocks, ETFs, forex, crypto, commodities, macro, company fundamentals) via the offici...", "description_zh": "", "downloads": 537, "homepage": "https://clawhub.ai/oscraters/alpha-vantage", "iconUrl": null, "installs": 49, "name": "Alpha Vantage CLI", "ownerName": "oscraters", "score": 39054.545454545456, "slug": "alpha-vantage", "source": "clawhub", "stars": 0, "tags": null, "updated_at": 1776759082557, "version": "1.0.0"}, {"category": "developer-tools", "created_at": 1772778532615, "description": "Tracks AI API usage by logging calls, reporting spending by model and period, and suggesting cheaper models to optimize costs.", "description_zh": "", "downloads": 537, "homepage": "https://clawhub.ai/odinbot33/oee-ai-cost-tracker", "iconUrl": null, "installs": 15, "name": "OEE AI Cost Tracker", "ownerName": "odinbot33", "score": 39054.545454545456, "slug": "oee-ai-cost-tracker", "source": "clawhub", "stars": 0, "tags": null, "updated_at": 1776759082242, "version": "1.0.0"}, {"category": "developer-tools", "created_at": 1772785603208, "description": "Michelin-grade AI culinary intelligence. 17 mandatory sections covering food cost, HACCP, thermal curves, allergen matrix, wine pairing, plating blueprint an...", "description_zh": "", "downloads": 537, "homepage": "https://clawhub.ai/contrario/aetherlang-chef", "iconUrl": null, "installs": 11, "name": "AetherLang Chef V3", "ownerName": "contrario", "score": 94708.99470899471, "slug": "aetherlang-chef", "source": "clawhub", "stars": 0, "tags": ["aetherlang", "ai", "chef", "cooking", "culinary", "food", "greek", "michelin", "molecular", "recipe", "recipes"], "updated_at": 1776748185698, "version": "1.2.0"}, {"category": "data-analysis", "created_at": 1772785041453, "description": "Fast lightweight local SQLite database for OpenClaw agents with minimal RAM and storage usage. Use when creating or managing SQLite databases for storing age...", "description_zh": "", "downloads": 537, "homepage": "https://clawhub.ai/omprasad122007-rgb/lite-sqlite", "iconUrl": null, "installs": 26, "name": "Lite Sqlite", "ownerName": "omprasad122007-rgb", "score": 92426.85025817556, "slug": "lite-sqlite", "source": "clawhub", "stars": 0, "tags": ["database", "lightweight", "persistence", "sql", "sqlite", "storage"], "updated_at": 1776748185349, "version": "1.0.0"}, {"category": "ai-intelligence", "created_at": 1772780966299, "description": "AI agent for call web search agent strategy tasks", "description_zh": "", "downloads": 537, "homepage": "https://clawhub.ai/alvinecarn/call-web-search-agent-strategy", "iconUrl": null, "installs": 30, "name": "Call Web Search Agent Strategy", "ownerName": "alvinecarn", "score": 93717.277486911, "slug": "call-web-search-agent-strategy", "source": "clawhub", "stars": 0, "tags": null, "updated_at": 1776748184255, "version": "0.1.0"}, {"category": "ai-intelligence", "created_at": 1772779655590, "description": "Hire humans for physical-world tasks via RentAHuman.ai. Search available humans by skill, post bounties, start conversations, and coordinate real-world work....", "description_zh": "", "downloads": 536, "homepage": "https://clawhub.ai/alexanderliteplo/rent-a-human", "iconUrl": null, "installs": 28, "name": "rentahuman.ai", "ownerName": "alexanderliteplo", "score": 41799.709724238026, "slug": "rent-a-human", "source": "clawhub", "stars": 2, "tags": null, "updated_at": 1776759083316, "version": "1.0.0"}, {"category": "developer-tools", "created_at": 1772788397724, "description": "Use the Paperzilla CLI (pz) to search, filter, and browse high-signal academic papers. Trigger when the user wants to check research feeds, list projects, in...", "description_zh": "", "downloads": 536, "homepage": "https://clawhub.ai/pors/paperzilla", "iconUrl": null, "installs": 76, "name": "Paperzilla", "ownerName": "pors", "score": 100000, "slug": "paperzilla", "source": "clawhub", "stars": 2, "tags": null, "updated_at": 1776748184630, "version": "0.1.0"}, {"category": "security-compliance", "created_at": 1772783704789, "description": "Full-featured X/Twitter toolkit — read, search, post, interact, DMs, lists, polls, trends. Cookie auth, proxy support, no API keys needed.", "description_zh": "", "downloads": 536, "homepage": "https://clawhub.ai/ignsoftwarellc/x-cli", "iconUrl": null, "installs": 14, "name": "X-CLI Toolkit", "ownerName": "ignsoftwarellc", "score": 98126.06473594549, "slug": "x-cli", "source": "clawhub", "stars": 2, "tags": ["automation", "social", "twikit", "twitter", "x"], "updated_at": 1776748184547, "version": "1.0.0"}, {"category": "content-creation", "created_at": 1772789705026, "description": "Generate promo video plan with 30-45s script, shot-by-shot storyboard, and optional Remotion/Montage-tool config. Use when user says \"create video\", \"promo v...", "description_zh": "", "downloads": 536, "homepage": "https://clawhub.ai/fortunto2/solo-video-promo", "iconUrl": null, "installs": 61, "name": "Video Promo", "ownerName": "fortunto2", "score": 2288.935388820088, "slug": "solo-video-promo", "source": "clawhub", "stars": 0, "tags": null, "updated_at": 1776770350243, "version": "1.1.1"}, {"category": "content-creation", "created_at": 1773221116693, "description": "Publish content to X/Twitter, LinkedIn, WeChat Official Account, and Xiaohongshu with one command. Automatically adapts content format for each platform — th...", "description_zh": "", "downloads": 536, "homepage": "https://clawhub.ai/mguozhen/multi-platform-publisher", "iconUrl": null, "installs": 218, "name": "Multi-Platform Publisher", "ownerName": "mguozhen", "score": 29178.007621121393, "slug": "multi-platform-publisher", "source": "clawhub", "stars": 0, "tags": null, "updated_at": 1776764690798, "version": "1.0.0"}, {"category": "developer-tools", "created_at": 1772790607983, "description": "Installs and uses Docker reliably with official docs. Use when installing Docker (Desktop or Engine), building or running containers, writing Dockerfiles, us...", "description_zh": "", "downloads": 536, "homepage": "https://clawhub.ai/runeweaverstudios/docker-skill", "iconUrl": null, "installs": 26, "name": "Docker Skill", "ownerName": "runeweaverstudios", "score": 14079.327554504858, "slug": "docker-skill", "source": "clawhub", "stars": 0, "tags": null, "updated_at": 1776762850772, "version": "1.0.0"}, {"category": "content-creation", "created_at": 1772783582285, "description": "Teamo Lite Offline efficiently plans tasks by choosing between quick fact-based Q&A or in-depth content creation and research workflows based on user needs.", "description_zh": "", "downloads": 536, "homepage": "https://clawhub.ai/urrrich0/teamo-lite-offline", "iconUrl": null, "installs": 30, "name": "Teamo Lite Offline", "ownerName": "urrrich0", "score": 96057.34767025089, "slug": "teamo-lite-offline", "source": "clawhub", "stars": 0, "tags": null, "updated_at": 1776759083719, "version": "0.1.0"}, {"category": "developer-tools", "created_at": 1772776718571, "description": "Track stock and crypto portfolios with CLI - real-time prices, P&L, dividend tracking, multiple portfolios", "description_zh": "", "downloads": 536, "homepage": "https://clawhub.ai/rsoutar/claw-portfolio", "iconUrl": null, "installs": 20, "name": "Claw Portfolio", "ownerName": "rsoutar", "score": 94867.25663716815, "slug": "claw-portfolio", "source": "clawhub", "stars": 0, "tags": null, "updated_at": 1776759083588, "version": "1.0.2"}, {"category": "developer-tools", "created_at": 1772783631300, "description": "Orchestrates external AI planners by validating, scheduling, executing tools, enforcing budgets, and providing replayable telemetry for plans and runs.", "description_zh": "", "downloads": 536, "homepage": "https://clawhub.ai/nonightwatch/agentmanager", "iconUrl": null, "installs": 8, "name": "Agent-manager-for-AI-planner", "ownerName": "nonightwatch", "score": 39528.02359882006, "slug": "agentmanager", "source": "clawhub", "stars": 0, "tags": null, "updated_at": 1776759083497, "version": "1.0.2"}, {"category": "communication-collaboration", "created_at": 1773076806479, "description": "Bridge local Codex, Gemini, and Claude Code CLIs into OpenClaw as vllm model providers. Includes /cli-* slash commands for instant model switching (/cli-sonn...", "description_zh": "", "downloads": 536, "homepage": "https://clawhub.ai/homeofe/openclaw-cli-bridge-elvatis", "iconUrl": null, "installs": 26, "name": "OpenClaw CLI Bridge", "ownerName": "homeofe", "score": 38896.95210449927, "slug": "openclaw-cli-bridge-elvatis", "source": "clawhub", "stars": 0, "tags": ["bridge", "cli", "llm", "playwright", "proxy"], "updated_at": 1776759083290, "version": "0.2.25"}, {"category": "developer-tools", "created_at": 1773866006289, "description": "Web crawling and scraping reference — robots.txt protocol, Scrapy framework, anti-bot detection, headless browsers, and legal considerations", "description_zh": "", "downloads": 536, "homepage": "https://clawhub.ai/bytesagain3/crawler", "iconUrl": null, "installs": 108, "name": "Crawler", "ownerName": "bytesagain3", "score": 34850.455136540964, "slug": "crawler", "source": "clawhub", "stars": 0, "tags": null, "updated_at": 1776758482639, "version": "3.0.0"}, {"category": "content-creation", "created_at": 1772790739450, "description": "Bulk download TikTok videos from a text file of URLs using yt-dlp. Use when a user asks to download many TikTok videos at once, process a URL list file, or s...", "description_zh": "", "downloads": 536, "homepage": "https://clawhub.ai/mes28io/bulk-tiktok-downloader-skill", "iconUrl": null, "installs": 37, "name": "Bulk Tiktok Downloader", "ownerName": "mes28io", "score": 100000, "slug": "bulk-tiktok-downloader-skill", "source": "clawhub", "stars": 0, "tags": null, "updated_at": 1776754388788, "version": "0.1.0"}, {"category": "developer-tools", "created_at": 1772792344102, "description": "Help build and optimize 3D games and interactive experiences on Android, using engines and frameworks such as Unity, Unreal, or OpenGL/ Vulkan.", "description_zh": "", "downloads": 536, "homepage": "https://clawhub.ai/tippyentertainment/android-3d-developer", "iconUrl": null, "installs": 63, "name": "Android 3d Development", "ownerName": "tippyentertainment", "score": 93870.40280210157, "slug": "android-3d-developer", "source": "clawhub", "stars": 0, "tags": null, "updated_at": 1776753604829, "version": "0.1.0"}, {"category": "developer-tools", "created_at": 1772776664639, "description": "Multi-project task and research management (JSON-first CLI)", "description_zh": "", "downloads": 536, "homepage": "https://clawhub.ai/malphas-gh/clawpm", "iconUrl": null, "installs": 9, "name": "Clawpm", "ownerName": "malphas-gh", "score": 93055.55555555556, "slug": "clawpm", "source": "clawhub", "stars": 0, "tags": null, "updated_at": 1776748184642, "version": "0.1.3"}, {"category": "data-analysis", "created_at": 1772777441488, "description": "Plan, write, segment, automate, and optimize email campaigns with deliverability best practices and analytics to drive revenue growth and engagement.", "description_zh": "", "downloads": 536, "homepage": "https://clawhub.ai/1kalin/afrexai-email-marketing", "iconUrl": null, "installs": 15, "name": "Email Marketing Command Center", "ownerName": "1kalin", "score": 91311.75468483816, "slug": "afrexai-email-marketing", "source": "clawhub", "stars": 0, "tags": ["automation", "campaigns", "deliverability", "drip", "email", "marketing", "newsletters", "segmentation", "sequences"], "updated_at": 1776748184555, "version": "1.0.0"}, {"category": "security-compliance", "created_at": 1772777946570, "description": "Runtime security hardening for OpenClaw agents. Protects against prompt injection, data exfiltration, credential leaks, and unauthorized operations. Use when setting up agent security, performing security audits, protecting credentials, preventing data leaks, hardening agent configurations, or defending against indirect prompt injection attacks. Complements pre-installation skill scanners by hardening the agent itself at runtime.", "description_zh": "", "downloads": 536, "homepage": "https://clawhub.ai/iampaulpatterson-boop/eridian", "iconUrl": null, "installs": 10, "name": "Eridian", "ownerName": "iampaulpatterson-boop", "score": 93542.75741710296, "slug": "eridian", "source": "clawhub", "stars": 0, "tags": null, "updated_at": 1776748184224, "version": "1.0.0"}]}