{"page": 167, "total_pages": 522, "total": 26073, "skills": [{"category": "developer-tools", "created_at": 1772776338745, "description": "Access your Zen+ Health wellness data - notifications, timeline, and catalogue", "description_zh": "", "downloads": 535, "homepage": "https://clawhub.ai/ollieparsley/zenplus-health", "iconUrl": null, "installs": 7, "name": "Zen+ Health", "ownerName": "ollieparsley", "score": 100000, "slug": "zenplus-health", "source": "clawhub", "stars": 2, "tags": ["anxiety", "burnout", "depression", "exercises", "mental health", "mindfulness", "proactive", "stress", "support", "wellness", "work", "workplace"], "updated_at": 1776748185446, "version": "1.0.4"}, {"category": "developer-tools", "created_at": 1772782057054, "description": "Automate web browsers, scrape pages, search the web, and run AI prompts on live websites via HARPA AI Grid REST API", "description_zh": "", "downloads": 535, "homepage": "https://clawhub.ai/alxsharuk/harpa-ai", "iconUrl": null, "installs": 15, "name": "HARPA AI", "ownerName": "alxsharuk", "score": 100000, "slug": "harpa-ai", "source": "clawhub", "stars": 2, "tags": ["ai", "automation", "browser", "scraping"], "updated_at": 1776748184864, "version": "1.0.0"}, {"category": "developer-tools", "created_at": 1772781019441, "description": "Control a Linux X11 desktop by taking screenshots and moving/clicking/typing via xdotool + scrot.", "description_zh": "", "downloads": 535, "homepage": "https://clawhub.ai/rylena/claw-mouse", "iconUrl": null, "installs": 12, "name": "Claw Mouse", "ownerName": "rylena", "score": 100000, "slug": "claw-mouse", "source": "clawhub", "stars": 2, "tags": null, "updated_at": 1776748184791, "version": "0.1.0"}, {"category": "communication-collaboration", "created_at": 1772776766581, "description": "Use Sarvam AI for Indian language Text-to-Speech (TTS), Speech-to-Text (STT), Translation, and Chat.", "description_zh": "", "downloads": 535, "homepage": "https://clawhub.ai/iammhk/sarvam", "iconUrl": null, "installs": 22, "name": "Sarvam AI", "ownerName": "iammhk", "score": 98797.25085910653, "slug": "sarvam", "source": "clawhub", "stars": 2, "tags": null, "updated_at": 1776748183686, "version": "1.0.1"}, {"category": "ai-intelligence", "created_at": 1772784816901, "description": "AI-powered code review with intelligent model routing — saves 40%+ vs always using the most expensive model", "description_zh": "", "downloads": 535, "homepage": "https://clawhub.ai/beee003/astrai-code-review", "iconUrl": null, "installs": 20, "name": "Astrai Code Review", "ownerName": "beee003", "score": 3966.488730723606, "slug": "astrai-code-review", "source": "clawhub", "stars": 0, "tags": null, "updated_at": 1776766205694, "version": "1.0.0"}, {"category": "ai-intelligence", "created_at": 1772794043584, "description": "Manages a self-evolving AI identity by logging experience, reflecting, proposing updates, and governing changes to maintain a structured SOUL.md file.", "description_zh": "", "downloads": 535, "homepage": "https://clawhub.ai/eyedark/evoclaw", "iconUrl": null, "installs": 45, "name": "Evoclaw", "ownerName": "eyedark", "score": 20521.672420406598, "slug": "evoclaw", "source": "clawhub", "stars": 0, "tags": null, "updated_at": 1776762289943, "version": "1.0.1"}, {"category": "developer-tools", "created_at": 1772777201193, "description": "Generate clear, formatted release notes from git commits, PR titles, or change descriptions, grouped by change type and suitable for different audiences and...", "description_zh": "", "downloads": 535, "homepage": "https://clawhub.ai/1kalin/afrexai-release-notes", "iconUrl": null, "installs": 6, "name": "Release Notes Generator", "ownerName": "1kalin", "score": 39022.61123267688, "slug": "afrexai-release-notes", "source": "clawhub", "stars": 0, "tags": ["changelog", "ci cd", "devops", "documentation", "release notes"], "updated_at": 1776759083775, "version": "1.0.0"}, {"category": "productivity", "created_at": 1772780360936, "description": "Automation skill for DELLIGHT Strategic Intelligence.", "description_zh": "", "downloads": 535, "homepage": "https://clawhub.ai/arthurelgindell/dellight-strategic-intelligence", "iconUrl": null, "installs": 10, "name": "DELLIGHT Strategic Intelligence", "ownerName": "arthurelgindell", "score": 91766.72384219554, "slug": "dellight-strategic-intelligence", "source": "clawhub", "stars": 0, "tags": ["c-suite", "dellight", "intelligence"], "updated_at": 1776759083218, "version": "1.0.0"}, {"category": "data-analysis", "created_at": 1772778547050, "description": "Create cryptographic proofs anchoring your files' exact content and timestamp to the Bitcoin blockchain for immutable, verifiable history.", "description_zh": "", "downloads": 535, "homepage": "https://clawhub.ai/axhoff/timestamp", "iconUrl": null, "installs": 13, "name": "Timestamp", "ownerName": "axhoff", "score": 39051.094890510954, "slug": "timestamp", "source": "clawhub", "stars": 0, "tags": null, "updated_at": 1776759083175, "version": "1.0.0"}, {"category": "communication-collaboration", "created_at": 1772785778020, "description": "Send and receive emails using the Resend API. Use for: (1) sending emails directly via Resend API, (2) receiving email notifications via cron, (3) drafting r...", "description_zh": "", "downloads": 535, "homepage": "https://clawhub.ai/ivelin/email-resend", "iconUrl": null, "installs": 20, "name": "Email Resend", "ownerName": "ivelin", "score": 100000, "slug": "email-resend", "source": "clawhub", "stars": 0, "tags": null, "updated_at": 1776753115944, "version": "1.0.14"}, {"category": "developer-tools", "created_at": 1772779172386, "description": "Participate in ArtWar AI art battles on Monad. Use when you need to submit AI-generated artwork to competitions, place on-chain bets on art submissions, comm...", "description_zh": "", "downloads": 535, "homepage": "https://clawhub.ai/hoonilp/artwar", "iconUrl": null, "installs": 6, "name": "Artwar", "ownerName": "hoonilp", "score": 92241.37931034483, "slug": "artwar", "source": "clawhub", "stars": 0, "tags": ["ai-art", "betting", "competition", "monad"], "updated_at": 1776748185568, "version": "1.0.1"}, {"category": "developer-tools", "created_at": 1772792673080, "description": "Post tasks for other AI agents to do, or pick up work from the AgentDo task queue (agentdo.dev). Use when: (1) you need something done that you can't do your...", "description_zh": "", "downloads": 535, "homepage": "https://clawhub.ai/wrannaman/agentdo", "iconUrl": null, "installs": 11, "name": "AgentDo", "ownerName": "wrannaman", "score": 92241.37931034483, "slug": "agentdo", "source": "clawhub", "stars": 0, "tags": ["agent-marketplace", "ai-agents", "multi-agent", "task-queue"], "updated_at": 1776748185528, "version": "1.0.0"}, {"category": "content-creation", "created_at": 1772778817902, "description": "Fetches articles from Farnam Street RSS. Use when asking about decision-making, mental models, learning, or wisdom from Farnam Street blog.", "description_zh": "", "downloads": 535, "homepage": "https://clawhub.ai/hjw21century/fs-street", "iconUrl": null, "installs": 31, "name": "Fs Street", "ownerName": "hjw21century", "score": 92241.37931034483, "slug": "fs-street", "source": "clawhub", "stars": 0, "tags": null, "updated_at": 1776748185377, "version": "0.1.0"}, {"category": "content-creation", "created_at": 1772781722304, "description": "Generate images using Azure OpenAI DALL-E. Supports batch generation, custom prompts, and outputs a gallery.", "description_zh": "", "downloads": 535, "homepage": "https://clawhub.ai/abhibavishi/azure-image-gen", "iconUrl": null, "installs": 28, "name": "Azure Image Gen", "ownerName": "abhibavishi", "score": 92881.94444444444, "slug": "azure-image-gen", "source": "clawhub", "stars": 0, "tags": null, "updated_at": 1776748184638, "version": "1.0.0"}, {"category": "communication-collaboration", "created_at": 1772779805583, "description": "Perform KVcore CRM actions via MCP/CLI, including managing contacts, tags, notes, calls, emails, texts, campaigns, and raw API access with optional Twilio ca...", "description_zh": "", "downloads": 535, "homepage": "https://clawhub.ai/danielfoch/kvcore-mcp-cli", "iconUrl": null, "installs": 21, "name": "KVcore MCP CLI", "ownerName": "danielfoch", "score": 92881.94444444444, "slug": "kvcore-mcp-cli", "source": "clawhub", "stars": 0, "tags": null, "updated_at": 1776748184628, "version": "0.1.0"}, {"category": "developer-tools", "created_at": 1772780199608, "description": "Read-only Ethereum blockchain queries — blocks, transactions, balances, contracts, logs via RPC and Etherscan APIs", "description_zh": "", "downloads": 535, "homepage": "https://clawhub.ai/apexfork/eth-readonly", "iconUrl": null, "installs": 15, "name": "Ethereum Readonly", "ownerName": "apexfork", "score": 93368.23734729494, "slug": "eth-readonly", "source": "clawhub", "stars": 0, "tags": null, "updated_at": 1776748184217, "version": "1.0.0"}, {"category": "content-creation", "created_at": 1772783360615, "description": "Generate images and videos from React + Tailwind CSS templates using the loopwind CLI.", "description_zh": "", "downloads": 535, "homepage": "https://clawhub.ai/tomtev/loopwind", "iconUrl": null, "installs": 38, "name": "Loopwind", "ownerName": "tomtev", "score": 92241.37931034483, "slug": "loopwind", "source": "clawhub", "stars": 0, "tags": null, "updated_at": 1776748183861, "version": "0.25.11"}, {"category": "data-analysis", "created_at": 1772777924838, "description": "Ask better questions in any context with Socratic method, follow-up generation, and bias detection.", "description_zh": "", "downloads": 534, "homepage": "https://clawhub.ai/ivangdavila/question", "iconUrl": null, "installs": 18, "name": "Question", "ownerName": "ivangdavila", "score": 537.9064754943304, "slug": "question", "source": "clawhub", "stars": 2, "tags": null, "updated_at": 1776770650073, "version": "1.0.0"}, {"category": "productivity", "created_at": 1772796117008, "description": "Master Android Studio IDE with debugging, profiling, refactoring, and productivity shortcuts.", "description_zh": "", "downloads": 534, "homepage": "https://clawhub.ai/ivangdavila/android-studio", "iconUrl": null, "installs": 84, "name": "Android Studio", "ownerName": "ivangdavila", "score": 11060.091834697545, "slug": "android-studio", "source": "clawhub", "stars": 1, "tags": null, "updated_at": 1776767650028, "version": "1.0.1"}, {"category": "data-analysis", "created_at": 1773066326312, "description": "Give your text-based OpenClaw agent the ability to see and describe images", "description_zh": "", "downloads": 534, "homepage": "https://clawhub.ai/melnyk-anton/moltshell-vision", "iconUrl": null, "installs": 20, "name": "MoltShell Vision Engine", "ownerName": "melnyk-anton", "score": 24202.70860637833, "slug": "moltshell-vision", "source": "clawhub", "stars": 1, "tags": ["image-to-text", "moltshell", "scraper", "utilities", "vision"], "updated_at": 1776763150264, "version": "1.0.0"}, {"category": "developer-tools", "created_at": 1772784962419, "description": "Acts as the user's idea capture and brainstorm partner in the Ideas topic. Catches ideas, develops them, connects dots between past ideas. Use when in Person...", "description_zh": "", "downloads": 534, "homepage": "https://clawhub.ai/gekacross/personal-ideas", "iconUrl": null, "installs": 12, "name": "Personal Ideas", "ownerName": "gekacross", "score": 9414.668547249648, "slug": "personal-ideas", "source": "clawhub", "stars": 0, "tags": null, "updated_at": 1776765550362, "version": "1.0.0"}, {"category": "security-compliance", "created_at": 1772779878370, "description": "Guide business owners through tax optimization by evaluating entity structure, maximizing deductions, planning compensation, and scheduling key tax deadlines.", "description_zh": "", "downloads": 534, "homepage": "https://clawhub.ai/1kalin/afrexai-tax-planning", "iconUrl": null, "installs": 28, "name": "Tax Planning Framework", "ownerName": "1kalin", "score": 19160.38751345533, "slug": "afrexai-tax-planning", "source": "clawhub", "stars": 0, "tags": ["compliance", "finance", "planning", "tax"], "updated_at": 1776761989883, "version": "1.0.0"}, {"category": "communication-collaboration", "created_at": 1772777110540, "description": "Connects AI to HumanJudge for response validation by registering the agent, verifying owner email, answering challenge questions, and submitting answers.", "description_zh": "", "downloads": 534, "homepage": "https://clawhub.ai/humanjudge-arthur/openclaw-validate", "iconUrl": null, "installs": 19, "name": "OpenClaw Validate", "ownerName": "humanjudge-arthur", "score": 38978.10218978102, "slug": "openclaw-validate", "source": "clawhub", "stars": 0, "tags": null, "updated_at": 1776759083184, "version": "4.0.1"}, {"category": "developer-tools", "created_at": 1772780025609, "description": "Build, sign, and submit Hedera transactions including HBAR transfers, token operations, and smart contract calls to the Hedera network.", "description_zh": "", "downloads": 534, "homepage": "https://clawhub.ai/harleyscodes/hedera-tx-builder", "iconUrl": null, "installs": 4, "name": "Hedera Transaction Builder", "ownerName": "harleyscodes", "score": 92227.9792746114, "slug": "hedera-tx-builder", "source": "clawhub", "stars": 0, "tags": null, "updated_at": 1776759082819, "version": "1.0.0"}, {"category": "productivity", "created_at": 1772778316704, "description": "Generic Postgres and pgvector memory layer for connector-agnostic data ingestion, incremental sync, and searchable chunk storage with cursor history.", "description_zh": "", "downloads": 534, "homepage": "https://clawhub.ai/marcosathanasoulis/openclaw-universal-memory", "iconUrl": null, "installs": 12, "name": "OpenClaw Universal Memory", "ownerName": "marcosathanasoulis", "score": 92869.5652173913, "slug": "openclaw-universal-memory", "source": "clawhub", "stars": 0, "tags": null, "updated_at": 1776748185464, "version": "1.0.0"}, {"category": "communication-collaboration", "created_at": 1772778195486, "description": "Send Slybroadcast ringless voicemail campaigns from OpenClaw/LLMs using CLI or MCP, including AI voice generation (ElevenLabs or generic HTTP voice API) and...", "description_zh": "", "downloads": 534, "homepage": "https://clawhub.ai/danielfoch/slybroadcast-voicemail", "iconUrl": null, "installs": 19, "name": "Slybroadcast Voicemail", "ownerName": "danielfoch", "score": 96564.1952983725, "slug": "slybroadcast-voicemail", "source": "clawhub", "stars": 0, "tags": ["slybroadcast", "voicemail"], "updated_at": 1776748185109, "version": "1.0.0"}, {"category": "content-creation", "created_at": 1772784169092, "description": "Access ATXP paid API tools for web search, AI image generation, music creation, video generation, and X/Twitter search. Use when users need real-time web sea...", "description_zh": "", "downloads": 534, "homepage": "https://clawhub.ai/syveraerp/sss", "iconUrl": null, "installs": 50, "name": "Maay", "ownerName": "syveraerp", "score": 98342.54143646409, "slug": "sss", "source": "clawhub", "stars": 0, "tags": null, "updated_at": 1776748184954, "version": "1.0.0"}, {"category": "security-compliance", "created_at": 1772776079572, "description": "Confluence API integration with managed OAuth. Manage pages, spaces, blogposts, comments, and attachments.\nUse this skill when users want to create, read, update, or delete Confluence content, manage spaces, or work with comments and attachments.\nFor other third party apps, use the api-gateway skill (https://clawhub.ai/byungkyu/api-gateway).\nRequires network access and valid Maton API key.", "description_zh": "", "downloads": 534, "homepage": "https://clawhub.ai/byungkyu/confluence-api", "iconUrl": null, "installs": 9, "name": "Confluence", "ownerName": "byungkyu", "score": 98342.54143646409, "slug": "confluence-api", "source": "clawhub", "stars": 0, "tags": null, "updated_at": 1776748184942, "version": "1.0.0"}, {"category": "developer-tools", "created_at": 1772776329839, "description": "Build and manage Voice AI agents using Vapi, Bland.ai, or Retell. Create agents, configure voices, set prompts, make outbound calls, and retrieve transcripts...", "description_zh": "", "downloads": 534, "homepage": "https://clawhub.ai/aiwithabidi/voice-agent-pro", "iconUrl": null, "installs": 19, "name": "Voice Agent Builder Pro", "ownerName": "aiwithabidi", "score": 94014.08450704225, "slug": "voice-agent-pro", "source": "clawhub", "stars": 0, "tags": ["agxntsix"], "updated_at": 1776748184282, "version": "1.0.0"}, {"category": "developer-tools", "created_at": 1772777513169, "description": "Automatically review latest Alibaba Cloud product docs and OpenAPI docs by product name, then output detailed prioritized improvement suggestions with eviden...", "description_zh": "", "downloads": 534, "homepage": "https://clawhub.ai/cinience/alicloud-platform-docs-api-review", "iconUrl": null, "installs": 11, "name": "Alicloud Platform Docs Api Review", "ownerName": "cinience", "score": 94014.08450704225, "slug": "alicloud-platform-docs-api-review", "source": "clawhub", "stars": 0, "tags": null, "updated_at": 1776748184260, "version": "1.0.1"}, {"category": "developer-tools", "created_at": 1772779463190, "description": "Connect to a user's investment accounts via SnapTrade SDK and generate portfolio reports (e.g., daily total value). Use when the user wants SnapTrade-based brokerage connectivity (Webull, E*TRADE, etc.), connection portal links, account registration, or automated portfolio summaries.", "description_zh": "", "downloads": 534, "homepage": "https://clawhub.ai/brendanwood/snaptrade", "iconUrl": null, "installs": 19, "name": "SnapTrade", "ownerName": "brendanwood", "score": 93193.71727748691, "slug": "snaptrade", "source": "clawhub", "stars": 0, "tags": null, "updated_at": 1776748184161, "version": "1.0.0"}, {"category": "data-analysis", "created_at": 1772777138672, "description": "Prepare for India's medical entrance exam with progress tracking, weak area analysis, spaced repetition, and college targeting.", "description_zh": "", "downloads": 533, "homepage": "https://clawhub.ai/ivangdavila/neet", "iconUrl": null, "installs": 28, "name": "NEET", "ownerName": "ivangdavila", "score": 100000, "slug": "neet", "source": "clawhub", "stars": 2, "tags": null, "updated_at": 1776748184177, "version": "1.0.0"}, {"category": "developer-tools", "created_at": 1772782626116, "description": "One-step Safe rebalancer using on-chain 31Third policies.", "description_zh": "", "downloads": 533, "homepage": "https://clawhub.ai/phips0812/31third-safe-rebalancer-simple", "iconUrl": null, "installs": 8, "name": "31Third Safe Rebalancer (Simple)", "ownerName": "phips0812", "score": 95017.18213058419, "slug": "31third-safe-rebalancer-simple", "source": "clawhub", "stars": 1, "tags": null, "updated_at": 1776748183689, "version": "0.1.5"}, {"category": "developer-tools", "created_at": 1772783327601, "description": "Automates API testing, monitors response times, validates data, checks status codes, performs performance and regression tests, and integrates with CI/CD.", "description_zh": "", "downloads": 533, "homepage": "https://clawhub.ai/arthasking123/ai-api-test", "iconUrl": null, "installs": 9, "name": "AI API Test", "ownerName": "arthasking123", "score": 20674.941815360744, "slug": "ai-api-test", "source": "clawhub", "stars": 0, "tags": null, "updated_at": 1776765550228, "version": "1.0.0"}, {"category": "developer-tools", "created_at": 1772781251288, "description": "Complete startup operating system — from idea validation to Series A. Covers customer discovery, PMF measurement, fundraising, team building, financial plann...", "description_zh": "", "downloads": 533, "homepage": "https://clawhub.ai/1kalin/afrexai-founder-os", "iconUrl": null, "installs": 19, "name": "Founder OS", "ownerName": "1kalin", "score": 22575.180008470987, "slug": "afrexai-founder-os", "source": "clawhub", "stars": 0, "tags": ["business", "entrepreneurship", "founder", "mvp", "startup"], "updated_at": 1776765550087, "version": "1.0.0"}, {"category": "data-analysis", "created_at": 1772779226900, "description": "Comprehensive negotiation system using proven frameworks for deal prep, live coaching, behavior analysis, objection handling, and post-deal review.", "description_zh": "", "downloads": 533, "homepage": "https://clawhub.ai/1kalin/afrexai-negotiation-mastery", "iconUrl": null, "installs": 8, "name": "Negotiation Mastery", "ownerName": "1kalin", "score": 16594.022415940224, "slug": "afrexai-negotiation-mastery", "source": "clawhub", "stars": 0, "tags": ["communication", "deals", "negotiation", "sales"], "updated_at": 1776765549956, "version": "1.0.0"}, {"category": "developer-tools", "created_at": 1772777297885, "description": "Extract clean markdown from any URL using auto, AI, or browser methods via the markdown.new API with error handling and flexible extraction options.", "description_zh": "", "downloads": 533, "homepage": "https://clawhub.ai/aviclaw/markdown-extract", "iconUrl": null, "installs": 15, "name": "markdown-extract", "ownerName": "aviclaw", "score": 38735.46511627907, "slug": "markdown-extract", "source": "clawhub", "stars": 0, "tags": null, "updated_at": 1776759082938, "version": "1.0.0"}, {"category": "developer-tools", "created_at": 1773425570762, "description": "Repo manifest reconciler. Makes repos-manifest.json the single source of truth for repo organization.", "description_zh": "", "downloads": 533, "homepage": "https://clawhub.ai/parkertoddbrooks/wip-repos", "iconUrl": null, "installs": 10, "name": "Wip Repos", "ownerName": "parkertoddbrooks", "score": 38990.49012435991, "slug": "wip-repos", "source": "clawhub", "stars": 0, "tags": null, "updated_at": 1776759082602, "version": "1.9.51"}, {"category": "security-compliance", "created_at": 1772778659147, "description": "Analyze vehicle utilization, schedule maintenance, optimize routes, track costs and compliance, and plan EV transitions to improve fleet efficiency and reduc...", "description_zh": "", "downloads": 533, "homepage": "https://clawhub.ai/1kalin/afrexai-fleet-management", "iconUrl": null, "installs": 15, "name": "Fleet Management Optimizer", "ownerName": "1kalin", "score": 39162.38060249817, "slug": "afrexai-fleet-management", "source": "clawhub", "stars": 0, "tags": ["fleet", "logistics", "maintenance", "operations", "tcl", "vehicles"], "updated_at": 1776759082200, "version": "1.0.0"}, {"category": "productivity", "created_at": 1772776445990, "description": "Interact with Lighter protocol - a ZK rollup orderbook DEX. Use when you need to trade on Lighter, check prices, manage positions, or query account data.", "description_zh": "", "downloads": 533, "homepage": "https://clawhub.ai/aviclaw/lighter", "iconUrl": null, "installs": 11, "name": "Lighter", "ownerName": "aviclaw", "score": 91896.55172413793, "slug": "lighter", "source": "clawhub", "stars": 0, "tags": ["defi", "dex", "python", "trading"], "updated_at": 1776748185557, "version": "2.0.1"}, {"category": "productivity", "created_at": 1772781581947, "description": "Real-time cryptocurrency scam detection with database-first architecture. Protects users from phishing, honeypots, rug pulls, and ponzi schemes. No external...", "description_zh": "", "downloads": 533, "homepage": "https://clawhub.ai/princedoss77/crypto-address-checker", "iconUrl": null, "installs": 11, "name": "Crypto Address Checker", "ownerName": "princedoss77", "score": 91738.38209982788, "slug": "crypto-address-checker", "source": "clawhub", "stars": 0, "tags": null, "updated_at": 1776748185298, "version": "1.0.0"}, {"category": "ai-intelligence", "created_at": 1772777507835, "description": "Creates professional invoices in markdown and HTML", "description_zh": "", "downloads": 533, "homepage": "https://clawhub.ai/1kalin/afrexai-invoice-gen", "iconUrl": null, "installs": 11, "name": "Invoice Generator", "ownerName": "1kalin", "score": 95691.20287253142, "slug": "afrexai-invoice-gen", "source": "clawhub", "stars": 0, "tags": null, "updated_at": 1776748184407, "version": "1.1.0"}, {"category": "developer-tools", "created_at": 1772781713910, "description": "Deploy web apps and APIs to a public URL with a single command.", "description_zh": "", "downloads": 533, "homepage": "https://clawhub.ai/jpbonch/agentscale", "iconUrl": null, "installs": 8, "name": "AgentScale", "ownerName": "jpbonch", "score": 95691.20287253142, "slug": "agentscale", "source": "clawhub", "stars": 0, "tags": null, "updated_at": 1776748184342, "version": "0.1.2"}, {"category": "communication-collaboration", "created_at": 1772781736678, "description": "Integrate Didit Phone Verification standalone API to verify phone numbers via OTP. Use when the user wants to verify phones, send SMS or WhatsApp or Telegram...", "description_zh": "", "downloads": 533, "homepage": "https://clawhub.ai/rosasalberto/didit-phone-verification", "iconUrl": null, "installs": 23, "name": "Didit Phone Verification", "ownerName": "rosasalberto", "score": 93838.02816901408, "slug": "didit-phone-verification", "source": "clawhub", "stars": 0, "tags": null, "updated_at": 1776748184322, "version": "1.3.0"}, {"category": "developer-tools", "created_at": 1772780921708, "description": "Manage Apple Search Ads campaigns, ad groups, keywords, and reports via the asa-cli tool. Use when the user asks about Apple Search Ads management, campaign...", "description_zh": "", "downloads": 532, "homepage": "https://clawhub.ai/trebuhs/apple-search-ads-skill", "iconUrl": null, "installs": 11, "name": "Apple Search Ads", "ownerName": "trebuhs", "score": 3142.1665568007033, "slug": "apple-search-ads-skill", "source": "clawhub", "stars": 2, "tags": null, "updated_at": 1776763750852, "version": "1.0.0"}, {"category": "security-compliance", "created_at": 1772780532712, "description": "Run local-only fail-closed security checks to detect and report data leaks, secrets, egress risks, and prompt injections before publishing or committing code.", "description_zh": "", "downloads": 532, "homepage": "https://clawhub.ai/edmonddantesj/aoi-openclaw-security-toolkit-core", "iconUrl": null, "installs": 7, "name": "AOI OpenClaw Security Toolkit (Core)", "ownerName": "edmonddantesj", "score": 42089.771891096396, "slug": "aoi-openclaw-security-toolkit-core", "source": "clawhub", "stars": 2, "tags": null, "updated_at": 1776759083323, "version": "0.1.6"}, {"category": "developer-tools", "created_at": 1772776624093, "description": "Build a personal friendship system with interaction tracking, relationship health, and proactive maintenance reminders.", "description_zh": "", "downloads": 532, "homepage": "https://clawhub.ai/ivangdavila/friends", "iconUrl": null, "installs": 10, "name": "Friends", "ownerName": "ivangdavila", "score": 99478.26086956522, "slug": "friends", "source": "clawhub", "stars": 2, "tags": null, "updated_at": 1776748184706, "version": "1.0.0"}, {"category": "developer-tools", "created_at": 1772780193399, "description": "Provides real-time live cricket scores, detailed scorecards, upcoming matches, recent results, IPL standings, and match alerts using CricketData.org API.", "description_zh": "", "downloads": 532, "homepage": "https://clawhub.ai/harshilmathur/cricket-live", "iconUrl": null, "installs": 7, "name": "Cricket Live", "ownerName": "harshilmathur", "score": 40145.454545454544, "slug": "cricket-live", "source": "clawhub", "stars": 1, "tags": null, "updated_at": 1776759082551, "version": "1.0.0"}, {"category": "productivity", "created_at": 1773073860092, "description": "Generate speech audio from text using HeyGen's Starfish TTS model. Use when: (1) Generating standalone speech audio files from text, (2) Converting text to s...", "description_zh": "", "downloads": 532, "homepage": "https://clawhub.ai/michaelwang11394/text-to-speech-heygen", "iconUrl": null, "installs": 11, "name": "Text to Speech", "ownerName": "michaelwang11394", "score": 98571.42857142858, "slug": "text-to-speech-heygen", "source": "clawhub", "stars": 1, "tags": ["audio", "heygen", "speech", "starfish", "text-to-speech", "tts", "voice"], "updated_at": 1776748185064, "version": "2.21.0"}, {"category": "data-analysis", "created_at": 1772778012897, "description": "Execute commands with real-time console output while logging all stdin, stdout, and stderr to a customizable log file for monitoring and debugging.", "description_zh": "", "downloads": 532, "homepage": "https://clawhub.ai/wangyendt/cmdlogger", "iconUrl": null, "installs": 17, "name": "Pywayne Bin Cmdlogger", "ownerName": "wangyendt", "score": 39175.257731958765, "slug": "cmdlogger", "source": "clawhub", "stars": 0, "tags": null, "updated_at": 1776759682856, "version": "0.1.0"}]}