{"page": 168, "total_pages": 522, "total": 26073, "skills": [{"category": "developer-tools", "created_at": 1772781979072, "description": "Rebuild and maintain garmin_tracking.json from Garmin web data (activities + training plan) with a fixed schema from 2026-02-01.", "description_zh": "", "downloads": 532, "homepage": "https://clawhub.ai/ricardotrevisan/garmin-tracker", "iconUrl": null, "installs": 7, "name": "Garmin Tracker", "ownerName": "ricardotrevisan", "score": 93333.33333333333, "slug": "garmin-tracker", "source": "clawhub", "stars": 0, "tags": null, "updated_at": 1776759083263, "version": "1.0.2"}, {"category": "developer-tools", "created_at": 1772779288493, "description": "Participant MoltBot for allocation proposal, validation, and submission", "description_zh": "", "downloads": 532, "homepage": "https://clawhub.ai/wiimdy/openfunderse-participant", "iconUrl": null, "installs": 5, "name": "OpenFunderse Participant", "ownerName": "wiimdy", "score": 38974.35897435898, "slug": "openfunderse-participant", "source": "clawhub", "stars": 0, "tags": ["openfunderse", "part"], "updated_at": 1776759082877, "version": "2.0.2"}, {"category": "data-analysis", "created_at": 1772778985670, "description": "Query and analyze website analytics from Plausible Analytics. Use when you need to check real-time visitors, get page views and visitor statistics for a time...", "description_zh": "", "downloads": 532, "homepage": "https://clawhub.ai/chloepark85/plausible-analytics", "iconUrl": null, "installs": 9, "name": "Plausible Analytics", "ownerName": "chloepark85", "score": 38803.79285193289, "slug": "plausible-analytics", "source": "clawhub", "stars": 0, "tags": null, "updated_at": 1776759082649, "version": "1.0.1"}, {"category": "data-analysis", "created_at": 1772789216979, "description": "Acts as a meta-orchestrator that routes stock-analysis requests across data, macro/news, and valuation skills under explicit budget controls; used when users...", "description_zh": "", "downloads": 532, "homepage": "https://clawhub.ai/ndtchan/stock-picker-orchestrator", "iconUrl": null, "installs": 52, "name": "Stock Picker Orchestrator", "ownerName": "ndtchan", "score": 100000, "slug": "stock-picker-orchestrator", "source": "clawhub", "stars": 0, "tags": null, "updated_at": 1776749404951, "version": "1.0.2"}, {"category": "security-compliance", "created_at": 1772797833006, "description": "Harden an OpenClaw Linux server with SSH key-only auth, UFW firewall, fail2ban brute-force protection, and credential permissions. Use when setting up a new...", "description_zh": "", "downloads": 532, "homepage": "https://clawhub.ai/ppiankov/host-hardening", "iconUrl": null, "installs": 9, "name": "Host Hardening", "ownerName": "ppiankov", "score": 95000, "slug": "host-hardening", "source": "clawhub", "stars": 0, "tags": null, "updated_at": 1776748185065, "version": "1.0.5"}, {"category": "developer-tools", "created_at": 1772786659809, "description": "Competitive puzzle arena for AI agents with timed solving, per-model leaderboards, and 5 categories (reverse captcha, geolocation, logic, science, code). Use...", "description_zh": "", "downloads": 532, "homepage": "https://clawhub.ai/thinkoffapp/agent-puzzles", "iconUrl": null, "installs": 27, "name": "AgentPuzzles.com", "ownerName": "thinkoffapp", "score": 95000, "slug": "agent-puzzles", "source": "clawhub", "stars": 0, "tags": ["agents", "benchmarking", "benchmarks", "evaluation", "leaderboard", "leaderboards", "puzzles"], "updated_at": 1776748185016, "version": "1.0.8"}, {"category": "security-compliance", "created_at": 1772777531655, "description": "Agent security hardening and prompt injection defense for OpenClaw. Protects against ClawHavoc-style attacks including prompt injection, data exfiltration, credential theft, and unauthorized operations. Runtime protection that complements pre-installation skill scanners like Clawdex. Includes security audit checklist, 8 documented attack vector defenses with mitigations, copy-paste AGENTS.md security patterns, credential file protection, browser URL allowlisting, and sensitive operation approval flows. Use when setting up agent security, performing security audits, hardening agent configurations, protecting credentials, preventing data leaks, or defending against indirect prompt injection attacks.", "description_zh": "", "downloads": 532, "homepage": "https://clawhub.ai/iampaulpatterson-boop/eridian-carapace", "iconUrl": null, "installs": 17, "name": "Eridian Carapace", "ownerName": "iampaulpatterson-boop", "score": 90630.32367972743, "slug": "eridian-carapace", "source": "clawhub", "stars": 0, "tags": null, "updated_at": 1776748184579, "version": "1.0.2"}, {"category": "productivity", "created_at": 1772790643309, "description": "File-based X/Twitter post scheduler. Drop tweets into day/time folders, they post automatically. No frontend, no app — your file system is the UI.", "description_zh": "", "downloads": 532, "homepage": "https://clawhub.ai/meimakes/xqueue", "iconUrl": null, "installs": 29, "name": "XQueue", "ownerName": "meimakes", "score": 90630.32367972743, "slug": "xqueue", "source": "clawhub", "stars": 0, "tags": null, "updated_at": 1776748184514, "version": "1.0.4"}, {"category": "ai-intelligence", "created_at": 1772778466773, "description": "Agent banking and payments on Solana. Send and receive stablecoins with cancellable escrow transfers. Optional on-chain accounts with policy-enforced spendin...", "description_zh": "", "downloads": 532, "homepage": "https://clawhub.ai/silostack/silkyway", "iconUrl": null, "installs": 27, "name": "SilkyWay", "ownerName": "silostack", "score": 95511.6696588869, "slug": "silkyway", "source": "clawhub", "stars": 0, "tags": null, "updated_at": 1776748183910, "version": "1.0.9"}, {"category": "productivity", "created_at": 1772783907654, "description": "Student timetable manager for self or parent-managed child profiles. Includes init flow + profile registry under schedules/profiles/.", "description_zh": "", "downloads": 531, "homepage": "https://clawhub.ai/extraterrest/student-timetable", "iconUrl": null, "installs": 13, "name": "Student Timetable", "ownerName": "extraterrest", "score": 99304.34782608696, "slug": "student-timetable", "source": "clawhub", "stars": 2, "tags": null, "updated_at": 1776748185469, "version": "0.1.0-alpha.4"}, {"category": "content-creation", "created_at": 1772789256850, "description": "Best quality AI image generation (~$0.12-0.20/image). Text-to-image, image-to-image, and image editing via the EvoLink API.", "description_zh": "", "downloads": 531, "homepage": "https://clawhub.ai/pharmacist9527/best-image", "iconUrl": null, "installs": 62, "name": "Best Image", "ownerName": "pharmacist9527", "score": 99650.95986038394, "slug": "best-image", "source": "clawhub", "stars": 2, "tags": null, "updated_at": 1776748184201, "version": "1.0.0"}, {"category": "developer-tools", "created_at": 1773064454332, "description": "Search for and discover OpenClaw skills from ClawHub (the official skill registry). Activate when user asks about finding skills, installing skills, or wants...", "description_zh": "", "downloads": 531, "homepage": "https://clawhub.ai/mrjordandu/find-skills-for-clawhub", "iconUrl": null, "installs": 97, "name": "Find Skills for ClawHub", "ownerName": "mrjordandu", "score": 8507.024857186969, "slug": "find-skills-for-clawhub", "source": "clawhub", "stars": 1, "tags": ["clawhub", "discovery", "openclaw", "search", "skills"], "updated_at": 1776765850159, "version": "1.0.0"}, {"category": "developer-tools", "created_at": 1772785522120, "description": "AI-optimized web search via Z.AI Web Search API. Returns structured results (title, URL, summary) for LLM processing.", "description_zh": "", "downloads": 531, "homepage": "https://clawhub.ai/bartoszpijet/zai-search", "iconUrl": null, "installs": 10, "name": "Z.AI Web Search", "ownerName": "bartoszpijet", "score": 38646.28820960699, "slug": "zai-search", "source": "clawhub", "stars": 0, "tags": null, "updated_at": 1776759083641, "version": "1.0.0"}, {"category": "data-analysis", "created_at": 1772776681247, "description": "Trade Polymarket BTC 5-minute and 15-minute fast markets using CEX price momentum signals via Simmer API. Default signal is Binance BTC/USDT klines. Use when...", "description_zh": "", "downloads": 531, "homepage": "https://clawhub.ai/johnjerry8749/polymarket-fast-loop-1-0-6", "iconUrl": null, "installs": 2, "name": "Polymarket Fast Loop", "ownerName": "johnjerry8749", "score": 32260.024301336576, "slug": "polymarket-fast-loop-1-0-6", "source": "clawhub", "stars": 0, "tags": null, "updated_at": 1776757320623, "version": "0.1.0"}, {"category": "data-analysis", "created_at": 1772780088893, "description": "Validate your agent nature through SHACL-based heartbeat analysis. Are you an Agent, Human, Cron, or Hybrid? Self-classification tool with structural validat...", "description_zh": "", "downloads": 531, "homepage": "https://clawhub.ai/darshanochandak/heartbeat-scanner", "iconUrl": null, "installs": 18, "name": "heartbeat-scanner", "ownerName": "darshanochandak", "score": 92347.82608695651, "slug": "heartbeat-scanner", "source": "clawhub", "stars": 0, "tags": ["agent-classification", "agent-identity", "heartbeat-analysis", "moltbook", "moltx", "posting-patterns", "self-validation", "shacl-validation"], "updated_at": 1776748185477, "version": "2.0.0"}, {"category": "content-creation", "created_at": 1772778860003, "description": "Hybrid document intelligence pipeline ingesting PDFs, images, and spreadsheets with OCR, visual and text search, and field fix capture for fast retrieval.", "description_zh": "", "downloads": 531, "homepage": "https://clawhub.ai/curtisgc1/siphonclaw", "iconUrl": null, "installs": 28, "name": "Siphonclaw Skill", "ownerName": "curtisgc1", "score": 91551.72413793103, "slug": "siphonclaw", "source": "clawhub", "stars": 0, "tags": null, "updated_at": 1776748185413, "version": "1.2.0"}, {"category": "developer-tools", "created_at": 1772782744897, "description": "Master-Worker Agent Cluster for parallel task execution. Use when building distributed agent systems with parallel processing needs, task orchestration, or M...", "description_zh": "", "downloads": 531, "homepage": "https://clawhub.ai/gl813788-byte/agent-weave", "iconUrl": null, "installs": 6, "name": "Agent Weave", "ownerName": "gl813788-byte", "score": 94821.42857142857, "slug": "agent-weave", "source": "clawhub", "stars": 0, "tags": null, "updated_at": 1776748185067, "version": "1.0.0"}, {"category": "ai-intelligence", "created_at": 1772776874852, "description": "Query Renzo crypto liquid restaking protocol — DeFi vault yields, TVL, ezETH exchange rates, EigenLayer operators, supported blockchain networks, user token...", "description_zh": "", "downloads": 531, "homepage": "https://clawhub.ai/pooleja/renzo", "iconUrl": null, "installs": 25, "name": "Renzo Protocol", "ownerName": "pooleja", "score": 97790.05524861878, "slug": "renzo", "source": "clawhub", "stars": 0, "tags": null, "updated_at": 1776748184895, "version": "1.3.0"}, {"category": "communication-collaboration", "created_at": 1773199838791, "description": "Launch Claude Code async in background with automatic delivery to Telegram/WhatsApp. Use for coding, refactoring, codebase research, file generation, and com...", "description_zh": "", "downloads": 531, "homepage": "https://clawhub.ai/vsevolodustinov/claude-code-task", "iconUrl": null, "installs": 46, "name": "Claude Code Task", "ownerName": "vsevolodustinov", "score": 90459.96592844975, "slug": "claude-code-task", "source": "clawhub", "stars": 0, "tags": null, "updated_at": 1776748184487, "version": "1.2.5"}, {"category": "data-analysis", "created_at": 1772779019638, "description": "Comprehensive SRE platform enabling SLO definition, reliability assessment, incident response, chaos engineering, and error budget management without externa...", "description_zh": "", "downloads": 530, "homepage": "https://clawhub.ai/1kalin/afrexai-sre-platform", "iconUrl": null, "installs": 12, "name": "SRE & Incident Management Platform", "ownerName": "1kalin", "score": 97103.91822827938, "slug": "afrexai-sre-platform", "source": "clawhub", "stars": 2, "tags": ["chaos", "devops", "incident", "monitoring", "oncall", "postmortem", "reliability", "slo", "sre"], "updated_at": 1776759082394, "version": "1.0.0"}, {"category": "developer-tools", "created_at": 1772780146457, "description": "Complete GoDaddy API skill with shell scripts + MCP server for domains, DNS, certificates, shoppers, subscriptions, agreements, countries, and aftermarket li...", "description_zh": "", "downloads": 530, "homepage": "https://clawhub.ai/solarx56/godaddy-api", "iconUrl": null, "installs": 15, "name": "GoDaddy API", "ownerName": "solarx56", "score": 99130.4347826087, "slug": "godaddy-api", "source": "clawhub", "stars": 2, "tags": null, "updated_at": 1776748185467, "version": "1.1.0"}, {"category": "", "created_at": 1774923078256, "description": "Generate presentations by extracting visual style from a reference template and recreating slides from scratch using PptxGenJS. Use when: user provides a PPT...", "description_zh": "", "downloads": 530, "homepage": "https://clawhub.ai/wujiaming88/ppt-from-template", "iconUrl": null, "installs": 253, "name": "PPT from Template", "ownerName": "wujiaming88", "score": 13572.343149807939, "slug": "ppt-from-template", "source": "clawhub", "stars": 0, "tags": null, "updated_at": 1776770050199, "version": "2.0.0"}, {"category": "", "created_at": 1774847227720, "description": "Import, merge, and transform data from Excel (.xlsx/.csv) files using YAML-driven configuration. Use when the user asks to: (1) import data from Excel/CSV in...", "description_zh": "", "downloads": 530, "homepage": "https://clawhub.ai/aqbjqtd/excel-data-import", "iconUrl": null, "installs": 152, "name": "Excel Data Import", "ownerName": "aqbjqtd", "score": 18834.399431414357, "slug": "excel-data-import", "source": "clawhub", "stars": 0, "tags": null, "updated_at": 1776766571353, "version": "2.1.0"}, {"category": "productivity", "created_at": 1772789308996, "description": "Automatically retries HTTP requests with exponential backoff, timeout control, and connection pooling to handle network errors and rate limits.", "description_zh": "", "downloads": 530, "homepage": "https://clawhub.ai/2233admin/http-retry", "iconUrl": null, "installs": 20, "name": "http-retry", "ownerName": "2233admin", "score": 41438.623924941356, "slug": "http-retry", "source": "clawhub", "stars": 0, "tags": null, "updated_at": 1776759797894, "version": "1.0.0"}, {"category": "security-compliance", "created_at": 1772781261416, "description": "Conducts comprehensive technical SEO audits including crawlability, indexability, sitemap, robots.txt, Core Web Vitals, redirect chains, and international SE...", "description_zh": "", "downloads": 530, "homepage": "https://clawhub.ai/1kalin/afrexai-technical-seo", "iconUrl": null, "installs": 32, "name": "Technical SEO Mastery", "ownerName": "1kalin", "score": 32199.27095990279, "slug": "afrexai-technical-seo", "source": "clawhub", "stars": 0, "tags": ["core-web-vitals", "crawlability", "indexing", "migration", "schema-markup", "seo", "site-speed", "technical-seo"], "updated_at": 1776759083833, "version": "1.0.0"}, {"category": "developer-tools", "created_at": 1772780277562, "description": "Tracks OpenClaw API usage and spending in real-time with customizable budget alerts and detailed cost breakdowns by model and session.", "description_zh": "", "downloads": 530, "homepage": "https://clawhub.ai/someone0070/clawmeter", "iconUrl": null, "installs": 6, "name": "Clawmeter", "ownerName": "someone0070", "score": 38686.131386861314, "slug": "clawmeter", "source": "clawhub", "stars": 0, "tags": null, "updated_at": 1776759083040, "version": "1.0.0"}, {"category": "data-analysis", "created_at": 1772786398031, "description": "Scrapes and summarizes AgResource grain newsletters with daily sales advice, price-impact sentiment analysis, trend tracking, and Telegram alerts on updates.", "description_zh": "", "downloads": 530, "homepage": "https://clawhub.ai/brianppetty/agresource", "iconUrl": null, "installs": 22, "name": "Agresource", "ownerName": "brianppetty", "score": 36652.835408022125, "slug": "agresource", "source": "clawhub", "stars": 0, "tags": null, "updated_at": 1776759082974, "version": "1.0.0"}, {"category": "productivity", "created_at": 1772782446782, "description": "Set and track goals for a solopreneur business using OKRs (Objectives and Key Results) and related frameworks. Use when defining business goals, creating qua...", "description_zh": "", "downloads": 530, "homepage": "https://clawhub.ai/jk-0001/goal-setting-okrs", "iconUrl": null, "installs": 17, "name": "Goal Setting Okrs", "ownerName": "jk-0001", "score": 100000, "slug": "goal-setting-okrs", "source": "clawhub", "stars": 0, "tags": null, "updated_at": 1776754988714, "version": "0.1.0"}, {"category": "communication-collaboration", "created_at": 1772785491828, "description": "Turn incoming text (email/newsletter) into a short TTS podcast with chunking + ffmpeg concat.", "description_zh": "", "downloads": 530, "homepage": "https://clawhub.ai/cerbug45/agents-skill-podcastifier", "iconUrl": null, "installs": 29, "name": "Podcastifier", "ownerName": "cerbug45", "score": 91379.3103448276, "slug": "agents-skill-podcastifier", "source": "clawhub", "stars": 0, "tags": null, "updated_at": 1776748183805, "version": "0.1.0"}, {"category": "developer-tools", "created_at": 1772788186730, "description": "Mouse and keyboard automation using xdotool. Use when clicking Chrome extension icons, typing into GUI apps, switching browser tabs, automating desktop UI, o...", "description_zh": "", "downloads": 530, "homepage": "https://clawhub.ai/jeremysommerfeld8910-cpu/xdotool-control", "iconUrl": null, "installs": 29, "name": "Xdotool Control", "ownerName": "jeremysommerfeld8910-cpu", "score": 91065.29209621993, "slug": "xdotool-control", "source": "clawhub", "stars": 0, "tags": null, "updated_at": 1776748183721, "version": "1.0.0"}, {"category": "data-analysis", "created_at": 1772783827784, "description": "Pharmacology agent for ADME/PK profiling of drug candidates from SMILES. Computes drug-likeness (Lipinski Ro5, Veber rules), QED, SA Score, ADME predictions...", "description_zh": "", "downloads": 529, "homepage": "https://clawhub.ai/cheminem/pharma-pharmacology-agent", "iconUrl": null, "installs": 23, "name": "Pharmaclaw Pharmacology Agent", "ownerName": "cheminem", "score": 100000, "slug": "pharma-pharmacology-agent", "source": "clawhub", "stars": 2, "tags": ["pharmacology     adme     drug-likeness     lipinski     bbb     solubility     qed     pains     drug-discovery     pk"], "updated_at": 1776751069980, "version": "1.1.0"}, {"category": "security-compliance", "created_at": 1772776704693, "description": "Bitwarden & Vaultwarden password manager integration. Use when storing, retrieving, generating, or managing passwords and credentials. Wraps the Bitwarden CL...", "description_zh": "", "downloads": 529, "homepage": "https://clawhub.ai/twhidden/twhidden-bitwarden", "iconUrl": null, "installs": 6, "name": "Twhidden Bitwarden", "ownerName": "twhidden", "score": 98956.52173913043, "slug": "twhidden-bitwarden", "source": "clawhub", "stars": 2, "tags": ["bitwarden", "password-manager", "security", "vaultwarden"], "updated_at": 1776748185513, "version": "1.0.5"}, {"category": "ai-intelligence", "created_at": 1772783697759, "description": "Supreme model router for Venice.ai — the privacy-first, uncensored AI platform. Automatically classifies query complexity and routes to the cheapest adequate...", "description_zh": "", "downloads": 529, "homepage": "https://clawhub.ai/plusone/venice-router", "iconUrl": null, "installs": 35, "name": "Venice.Ai Router Openclaw", "ownerName": "plusone", "score": 98956.52173913043, "slug": "venice-router", "source": "clawhub", "stars": 2, "tags": null, "updated_at": 1776748184723, "version": "1.5.0"}, {"category": "ai-intelligence", "created_at": 1772777238615, "description": "Live rate-limit awareness for Claude.ai (Max/Pro) and OpenAI (Plus/Pro/Codex). Never hit the red line again — your agent checks remaining budget every heartb...", "description_zh": "", "downloads": 529, "homepage": "https://clawhub.ai/wgj/redline", "iconUrl": null, "installs": 29, "name": "RedLine", "ownerName": "wgj", "score": 98563.7342908438, "slug": "redline", "source": "clawhub", "stars": 1, "tags": null, "updated_at": 1776748183985, "version": "0.2.0"}, {"category": "ai-intelligence", "created_at": 1772785195246, "description": "Automatically fetches comprehensive project documentation from built-in registries or URLs to assist AI agents in debugging and learning.", "description_zh": "", "downloads": 529, "homepage": "https://clawhub.ai/zerone0x/docs-feeder", "iconUrl": null, "installs": 34, "name": "Docs Feeder", "ownerName": "zerone0x", "score": 38925.68064753495, "slug": "docs-feeder", "source": "clawhub", "stars": 0, "tags": null, "updated_at": 1776759083337, "version": "1.0.0"}, {"category": "security-compliance", "created_at": 1772785284523, "description": "Full-stack super agent for projects on Google Cloud Platform with GitHub and Cloudflare — covers scaffolding, compute, database, auth, deploy, CDN, and security", "description_zh": "", "downloads": 529, "homepage": "https://clawhub.ai/guifav/gcp-fullstack", "iconUrl": null, "installs": 13, "name": "Gcp Fullstack", "ownerName": "guifav", "score": 100000, "slug": "gcp-fullstack", "source": "clawhub", "stars": 0, "tags": null, "updated_at": 1776753284016, "version": "0.1.1"}, {"category": "developer-tools", "created_at": 1772779666410, "description": "CLI-first form builder with BYOK philosophy. Generate beautiful HTML forms from JSON schemas, handle submissions via your own SMTP server, store responses lo...", "description_zh": "", "downloads": 529, "homepage": "https://clawhub.ai/phoenix2479/gatecrash-forms", "iconUrl": null, "installs": 8, "name": "GateCrash Forms", "ownerName": "phoenix2479", "score": 92000, "slug": "gatecrash-forms", "source": "clawhub", "stars": 0, "tags": null, "updated_at": 1776748185457, "version": "0.2.0"}, {"category": "communication-collaboration", "created_at": 1772777347903, "description": "Comprehensive HubSpot CRM, Marketing, Sales, Service, and CMS management suite. Covers all HubSpot APIs: CRM objects (contacts, companies, deals, tickets, cu...", "description_zh": "", "downloads": 529, "homepage": "https://clawhub.ai/luigi08001/hubspot-suite", "iconUrl": null, "installs": 28, "name": "Hubspot Suite", "ownerName": "luigi08001", "score": 91522.49134948097, "slug": "hubspot-suite", "source": "clawhub", "stars": 0, "tags": null, "updated_at": 1776748184119, "version": "1.2.0"}, {"category": "productivity", "created_at": 1772778866506, "description": "Manage TimeCamp time tracking by starting/stopping timers, adding, updating, removing entries, and listing tasks or entries by date range.", "description_zh": "", "downloads": 529, "homepage": "https://clawhub.ai/kamil-rudnicki/timecamp", "iconUrl": null, "installs": 9, "name": "TimeCamp", "ownerName": "kamil-rudnicki", "score": 91522.49134948097, "slug": "timecamp", "source": "clawhub", "stars": 0, "tags": null, "updated_at": 1776748184107, "version": "1.1.0"}, {"category": "communication-collaboration", "created_at": 1772778909289, "description": "Create and manage free receive-only AI email addresses to sign up, receive, and extract verification codes without any human interaction.", "description_zh": "", "downloads": 529, "homepage": "https://clawhub.ai/tcgsync-git/automated-ai-email-setup", "iconUrl": null, "installs": 20, "name": "Ai Email No Human Interaction Needed", "ownerName": "tcgsync-git", "score": 91522.49134948097, "slug": "automated-ai-email-setup", "source": "clawhub", "stars": 0, "tags": ["ai", "email"], "updated_at": 1776748184024, "version": "1.0.0"}, {"category": "developer-tools", "created_at": 1772786461798, "description": "Korean law/case search via law.go.kr + data.go.kr APIs. Use for legal questions, statute lookup, court cases, and everyday legal info.", "description_zh": "", "downloads": 529, "homepage": "https://clawhub.ai/sw326/law-search", "iconUrl": null, "installs": 28, "name": "한국 법령/판례 검색", "ownerName": "sw326", "score": 90893.470790378, "slug": "law-search", "source": "clawhub", "stars": 0, "tags": ["korea", "korean", "law", "legal"], "updated_at": 1776748183777, "version": "2.1.0"}, {"category": "developer-tools", "created_at": 1772777654296, "description": "Trade tokens on Solana using the ClawDex CLI. Use when the user asks to swap tokens, check balances, get quotes, or manage a Solana trading wallet.", "description_zh": "", "downloads": 529, "homepage": "https://clawhub.ai/joelccodes/clawdex-trading", "iconUrl": null, "installs": 10, "name": "ClawDex Trading", "ownerName": "joelccodes", "score": 90119.25042589438, "slug": "clawdex-trading", "source": "clawhub", "stars": 0, "tags": null, "updated_at": 1776748183658, "version": "1.0.0"}, {"category": "ai-intelligence", "created_at": 1772778367529, "description": "Proactive relationship and family care assistant that reduces the invisible cognitive labor of managing a household and maintaining important relationships....", "description_zh": "", "downloads": 528, "homepage": "https://clawhub.ai/devlines/lighterload", "iconUrl": null, "installs": 25, "name": "LighterLoad", "ownerName": "devlines", "score": 100000, "slug": "lighterload", "source": "clawhub", "stars": 2, "tags": null, "updated_at": 1776748184259, "version": "1.0.6"}, {"category": "communication-collaboration", "created_at": 1772780699572, "description": "ProtonMail integration via Proton Mail Bridge for reading and sending encrypted emails.", "description_zh": "", "downloads": 528, "homepage": "https://clawhub.ai/rvacyber/openclaw-protonmail", "iconUrl": null, "installs": 13, "name": "ProtonMail via Proton Mail Bridge", "ownerName": "rvacyber", "score": 94158.07560137457, "slug": "openclaw-protonmail", "source": "clawhub", "stars": 1, "tags": null, "updated_at": 1776748183750, "version": "0.1.1"}, {"category": "productivity", "created_at": 1773077582531, "description": "Generate a structured global market snapshot report including major stock indices and commodities. Use when user asks for market data, stock market report, d...", "description_zh": "", "downloads": 528, "homepage": "https://clawhub.ai/jiediking/market-global-snapshot", "iconUrl": null, "installs": 41, "name": "Global Market Snapshot", "ownerName": "jiediking", "score": 4696.255447834208, "slug": "market-global-snapshot", "source": "clawhub", "stars": 0, "tags": null, "updated_at": 1776769271341, "version": "0.1.5"}, {"category": "data-analysis", "created_at": 1772778554192, "description": "Generate comprehensive board meeting packages including agenda, financial summary, KPI dashboard, risk register, and action item tracker tailored to your com...", "description_zh": "", "downloads": 528, "homepage": "https://clawhub.ai/1kalin/afrexai-board-meeting", "iconUrl": null, "installs": 17, "name": "Board Meeting Prep", "ownerName": "1kalin", "score": 38624.72567666423, "slug": "afrexai-board-meeting", "source": "clawhub", "stars": 0, "tags": ["board", "finance", "governance", "meeting", "startup"], "updated_at": 1776759082434, "version": "1.0.0"}, {"category": "security-compliance", "created_at": 1772776401254, "description": "Read, search, and manage Outlook emails and calendar via Microsoft Graph API with delegate support. Your AI assistant authenticates as itself but accesses the owner's mailbox/calendar as a delegate. Modified for delegate access from https://clawhub.ai/jotamed/outlook", "description_zh": "", "downloads": 528, "homepage": "https://clawhub.ai/87marc/outlook-skill-clawhub", "iconUrl": null, "installs": 13, "name": "Outlook Delegate", "ownerName": "87marc", "score": 93121.69312169311, "slug": "outlook-skill-clawhub", "source": "clawhub", "stars": 0, "tags": null, "updated_at": 1776748185668, "version": "1.0.0"}, {"category": "security-compliance", "created_at": 1772782521667, "description": "Blockchain intelligence & AI security. Token analysis, address risk, smart money tracking, AML compliance, and prompt injection detection. Free tier (3/day,...", "description_zh": "", "downloads": 528, "homepage": "https://clawhub.ai/sooyoon-eth/argus", "iconUrl": null, "installs": 10, "name": "Argus Intelligence", "ownerName": "sooyoon-eth", "score": 90877.79690189329, "slug": "argus", "source": "clawhub", "stars": 0, "tags": null, "updated_at": 1776748185367, "version": "1.9.2"}, {"category": "data-analysis", "created_at": 1772776941271, "description": "Live LLM model pricing and capabilities from OpenRouter. List top models, search by name, compare side-by-side, find best model for a use case, check pricing...", "description_zh": "", "downloads": 528, "homepage": "https://clawhub.ai/aiwithabidi/model-intel-pro", "iconUrl": null, "installs": 13, "name": "Model Intel Pro", "ownerName": "aiwithabidi", "score": 91826.08695652173, "slug": "model-intel-pro", "source": "clawhub", "stars": 0, "tags": ["models", "pricing"], "updated_at": 1776748184718, "version": "1.0.0"}, {"category": "productivity", "created_at": 1772779279163, "description": "Manage Namecheap DNS records safely by fetching existing entries, merging changes, auto-backing up, previewing diffs, dry-running, and rolling back updates.", "description_zh": "", "downloads": 528, "homepage": "https://clawhub.ai/jarekbird/namecheap-dns", "iconUrl": null, "installs": 14, "name": "Namecheap DNS", "ownerName": "jarekbird", "score": 89948.8926746167, "slug": "namecheap-dns", "source": "clawhub", "stars": 0, "tags": null, "updated_at": 1776748184495, "version": "1.1.0"}]}