{"page": 169, "total_pages": 522, "total": 26073, "skills": [{"category": "ai-intelligence", "created_at": 1772778591000, "description": "AI labor marketplace on Monad — create missions, browse guilds, get work done by autonomous agents. No private keys needed for users.", "description_zh": "", "downloads": 528, "homepage": "https://clawhub.ai/jishnu-baruah/moltiguild", "iconUrl": null, "installs": 22, "name": "moltiguild", "ownerName": "jishnu-baruah", "score": 94793.5368043088, "slug": "moltiguild", "source": "clawhub", "stars": 0, "tags": null, "updated_at": 1776748183965, "version": "1.0.1"}, {"category": "productivity", "created_at": 1772786774712, "description": "Manage LSP28 The Grid on LUKSO Universal Profiles. Create, update, and manage grid layouts with mini-apps, iframes, and external links. Use when working with...", "description_zh": "", "downloads": 527, "homepage": "https://clawhub.ai/luksoagent/lsp28-grid", "iconUrl": null, "installs": 50, "name": "Lsp28 Grid", "ownerName": "luksoagent", "score": 710.8643970534846, "slug": "lsp28-grid", "source": "clawhub", "stars": 4, "tags": null, "updated_at": 1776770350080, "version": "1.0.0"}, {"category": "security-compliance", "created_at": 1772778081785, "description": "Integrate AI agents with Bitrix24 REST API to automate CRM, tasks, chats, event processing, auth selection, and API error troubleshooting.", "description_zh": "", "downloads": 527, "homepage": "https://clawhub.ai/vrtalex/bitrix24-apiskill", "iconUrl": null, "installs": 5, "name": "Bitrix24 Skill", "ownerName": "vrtalex", "score": 100000, "slug": "bitrix24-apiskill", "source": "clawhub", "stars": 3, "tags": ["automation", "bitrix24", "business", "crm", "tasks"], "updated_at": 1776748184532, "version": "1.0.0"}, {"category": "content-creation", "created_at": 1772783687547, "description": "Manage online communities with engagement strategies, content planning, and audience growth.", "description_zh": "", "downloads": 527, "homepage": "https://clawhub.ai/ivangdavila/community-manager", "iconUrl": null, "installs": 32, "name": "Community Manager", "ownerName": "ivangdavila", "score": 100000, "slug": "community-manager", "source": "clawhub", "stars": 2, "tags": null, "updated_at": 1776748185659, "version": "1.0.0"}, {"category": "data-analysis", "created_at": 1772779745179, "description": "Generate FOSMVVM-compliant SwiftUI ViewModels with client- or server-hosted factories, localization bindings, and stub factories for screens and components.", "description_zh": "", "downloads": 527, "homepage": "https://clawhub.ai/foscomputerservices/fosmvvm-viewmodel-generator", "iconUrl": null, "installs": 16, "name": "FOSMVVM ViewModel Generator", "ownerName": "foscomputerservices", "score": 98096.8858131488, "slug": "fosmvvm-viewmodel-generator", "source": "clawhub", "stars": 2, "tags": null, "updated_at": 1776748184052, "version": "2.0.6"}, {"category": "developer-tools", "created_at": 1772788516838, "description": "Fetch and display OpenRouter AI models with pricing and context limits, and configure OpenClaw to use selected models via automatic or fallback settings.", "description_zh": "", "downloads": 527, "homepage": "https://clawhub.ai/notestone/model-manager", "iconUrl": null, "installs": 8, "name": "OpenClaw Model Manager", "ownerName": "notestone", "score": 40014.630577907825, "slug": "model-manager", "source": "clawhub", "stars": 1, "tags": ["gateway", "models", "openclaw", "openrouter"], "updated_at": 1776759082585, "version": "1.5.0"}, {"category": "communication-collaboration", "created_at": 1772788386553, "description": "Send generated charts, photos, documents, and ElevenLabs TTS voice clips securely through Telegram using executed shell commands.", "description_zh": "", "downloads": 527, "homepage": "https://clawhub.ai/ryandeangraves/telegram-media", "iconUrl": null, "installs": 43, "name": "Telegram Media", "ownerName": "ryandeangraves", "score": 7298.158149840741, "slug": "telegram-media", "source": "clawhub", "stars": 0, "tags": null, "updated_at": 1776762849882, "version": "1.0.0"}, {"category": "security-compliance", "created_at": 1772781726263, "description": "Performs Neill-authorized emergency repair on Billy system authentication by clearing tokens, restarting gateway, backing up config, and verifying success.", "description_zh": "", "downloads": 527, "homepage": "https://clawhub.ai/highlander89/billy-emergency-repair", "iconUrl": null, "installs": 9, "name": "Billy Emergency Repair", "ownerName": "highlander89", "score": 38299.41860465117, "slug": "billy-emergency-repair", "source": "clawhub", "stars": 0, "tags": null, "updated_at": 1776759083566, "version": "1.0.0"}, {"category": "developer-tools", "created_at": 1772779575091, "description": "grazy provides real-time Graz city info via CLI: public transport, weather, air quality, news, events, and POI search without API keys needed.", "description_zh": "", "downloads": 527, "homepage": "https://clawhub.ai/thomyg/grazy", "iconUrl": null, "installs": 2, "name": "Skill", "ownerName": "thomyg", "score": 38864.30678466077, "slug": "grazy", "source": "clawhub", "stars": 0, "tags": null, "updated_at": 1776759083519, "version": "0.5.1"}, {"category": "communication-collaboration", "created_at": 1773084075379, "description": "Automate email triage, categorize, draft replies, and auto-archive in Gmail, Outlook, or IMAP to maintain an organized, efficient inbox.", "description_zh": "", "downloads": 527, "homepage": "https://clawhub.ai/fly3094/email-automation", "iconUrl": null, "installs": 27, "name": "Email Automation", "ownerName": "fly3094", "score": 38355.167394468706, "slug": "email-automation", "source": "clawhub", "stars": 0, "tags": ["ai", "automation", "email", "gmail", "inbox", "outlook", "productivity"], "updated_at": 1776759082358, "version": "1.0.0"}, {"category": "content-creation", "created_at": 1772796701477, "description": "Agent wallet, identity, and paid tools in one package. Register an agent, fund it via Stripe or USDC, then use the balance for web search, AI image generatio...", "description_zh": "", "downloads": 527, "homepage": "https://clawhub.ai/r-m-naveen/atxp-cli", "iconUrl": null, "installs": 3, "name": "Atxp", "ownerName": "r-m-naveen", "score": 97053.40699815837, "slug": "atxp-cli", "source": "clawhub", "stars": 0, "tags": null, "updated_at": 1776748184972, "version": "1.21.1"}, {"category": "data-analysis", "created_at": 1772779414924, "description": "Deploy ML models to production with pipelines, monitoring, serving, and reproducibility best practices.", "description_zh": "", "downloads": 526, "homepage": "https://clawhub.ai/ivangdavila/mlops", "iconUrl": null, "installs": 8, "name": "MLOps", "ownerName": "ivangdavila", "score": 1795.7683873644285, "slug": "mlops", "source": "clawhub", "stars": 4, "tags": null, "updated_at": 1776770390443, "version": "1.0.0"}, {"category": "content-creation", "created_at": 1773925990477, "description": "Get honest design feedback. Upload any visual — UI design, logos, photos, graphics, PDFs — and get prioritized critique: what's broken, what works, what to p...", "description_zh": "", "downloads": 526, "homepage": "https://clawhub.ai/couriard/design-critique", "iconUrl": null, "installs": 72, "name": "Designers Eye", "ownerName": "couriard", "score": 3024.3790248390064, "slug": "design-critique", "source": "clawhub", "stars": 0, "tags": null, "updated_at": 1776767649958, "version": "2.0.4"}, {"category": "productivity", "created_at": 1772787892814, "description": "Workflow automation using MCP (Model Context Protocol) patterns inspired by Jason Zhou", "description_zh": "", "downloads": 526, "homepage": "https://clawhub.ai/slemo54/mcp-workflow", "iconUrl": null, "installs": 19, "name": "MCP Workflow", "ownerName": "slemo54", "score": 29852.440408626564, "slug": "mcp-workflow", "source": "clawhub", "stars": 0, "tags": null, "updated_at": 1776765250008, "version": "1.0.0"}, {"category": "communication-collaboration", "created_at": 1772783195862, "description": "Generate formatted digests from Discord servers using a user token. Reads messages from selected channels/threads and creates concise summaries with links. U...", "description_zh": "", "downloads": 526, "homepage": "https://clawhub.ai/nikolaybohdanov/discord-digest", "iconUrl": null, "installs": 18, "name": "Discord Digest", "ownerName": "nikolaybohdanov", "score": 7712.609970674487, "slug": "discord-digest", "source": "clawhub", "stars": 0, "tags": null, "updated_at": 1776762850061, "version": "1.1.0"}, {"category": "developer-tools", "created_at": 1772783071134, "description": "Comprehensive Aruba Instant AP (IAP) configuration management with automatic baseline capture, rollback support, and health monitoring. Supports device disco...", "description_zh": "", "downloads": 526, "homepage": "https://clawhub.ai/scsun1978/aruba-iap", "iconUrl": null, "installs": 6, "name": "Aruba Iap Publish", "ownerName": "scsun1978", "score": 91478.26086956522, "slug": "aruba-iap", "source": "clawhub", "stars": 0, "tags": ["ap", "aruba", "automation", "cli", "configuration", "iap", "infrastructure", "management", "monitoring", "networking", "ssh", "troubleshooting", "wifi", "wireless"], "updated_at": 1776759082915, "version": "1.2.0"}, {"category": "developer-tools", "created_at": 1772781048812, "description": "Complete brand building system guiding solopreneurs to enterprises through purpose, values, positioning, messaging, and launch execution.", "description_zh": "", "downloads": 526, "homepage": "https://clawhub.ai/1kalin/afrexai-brand-strategy", "iconUrl": null, "installs": 13, "name": "Brand Strategy Engine", "ownerName": "1kalin", "score": 38033.26102675343, "slug": "afrexai-brand-strategy", "source": "clawhub", "stars": 0, "tags": ["brand", "gtm", "identity", "marketing", "positioning"], "updated_at": 1776759082138, "version": "1.0.0"}, {"category": "developer-tools", "created_at": 1772778572453, "description": "Automated client onboarding and project lifecycle management. From a single message, creates Google Drive/Dropbox project folder structure, generates project...", "description_zh": "", "downloads": 526, "homepage": "https://clawhub.ai/ariktulcha/client-flow", "iconUrl": null, "installs": 6, "name": "client-flow", "ownerName": "ariktulcha", "score": 90689.6551724138, "slug": "client-flow", "source": "clawhub", "stars": 0, "tags": null, "updated_at": 1776748185423, "version": "1.0.0"}, {"category": "content-creation", "created_at": 1772785239397, "description": "Manage Strapi CMS content through the official @strapi/client SDK. CRUD on collection types, single types, and media files. Upload files to media library. In...", "description_zh": "", "downloads": 526, "homepage": "https://clawhub.ai/ilya-ryzhov/strapi", "iconUrl": null, "installs": 24, "name": "Strapi CMS", "ownerName": "ilya-ryzhov", "score": 96869.24493554328, "slug": "strapi", "source": "clawhub", "stars": 0, "tags": ["1.0.0"], "updated_at": 1776748184987, "version": "1.0.0"}, {"category": "security-compliance", "created_at": 1772779754002, "description": "Outbound safety for autonomous AI agents — scans YOUR output before it leaves the machine. Git pre-commit hooks that automatically block commits containing A...", "description_zh": "", "downloads": 526, "homepage": "https://clawhub.ai/compass-soul/agent-safety", "iconUrl": null, "installs": 7, "name": "Agent Safety", "ownerName": "compass-soul", "score": 91797.55671902269, "slug": "agent-safety", "source": "clawhub", "stars": 0, "tags": ["autonomous", "pii-scanner", "pre-commit", "safety", "security"], "updated_at": 1776748184183, "version": "1.0.0"}, {"category": "data-analysis", "created_at": 1772793892698, "description": "AI-ready stock analysis with financial data, options, sentiment, and structured research framework", "description_zh": "", "downloads": 525, "homepage": "https://clawhub.ai/wanghsinche/plusefin-analysis", "iconUrl": null, "installs": 40, "name": "Plusefin Analysis", "ownerName": "wanghsinche", "score": 97079.03780068728, "slug": "plusefin-analysis", "source": "clawhub", "stars": 2, "tags": null, "updated_at": 1776755288697, "version": "1.0.9"}, {"category": "productivity", "created_at": 1772776380616, "description": "IntercomSwap (OpenClaw-hardened): operator-run, manual-only P2P RFQ swaps that negotiate over Intercom sidechannels and settle BTC (Lightning) <-> USDT (Sola...", "description_zh": "", "downloads": 525, "homepage": "https://clawhub.ai/tracsystems/intercom-swap", "iconUrl": null, "installs": 24, "name": "IntercomSwap", "ownerName": "tracsystems", "score": 96252.12947189096, "slug": "intercom-swap", "source": "clawhub", "stars": 2, "tags": null, "updated_at": 1776748184582, "version": "1.0.8"}, {"category": "developer-tools", "created_at": 1772797552381, "description": "Remote Windows desktop control from WSL/Linux via screenshot + mouse/keyboard simulation. Use when: user asks to control their PC, click something, open an a...", "description_zh": "", "downloads": 525, "homepage": "https://clawhub.ai/zeron-g/pc-control", "iconUrl": null, "installs": 81, "name": "PC Control", "ownerName": "zeron-g", "score": 33312.958435207824, "slug": "pc-control", "source": "clawhub", "stars": 1, "tags": null, "updated_at": 1776757882574, "version": "1.0.0"}, {"category": "developer-tools", "created_at": 1773074495939, "description": "Provides automation templates and scripts for Docker, Kubernetes, CI/CD, monitoring, and backup to streamline modern DevOps deployments.", "description_zh": "", "downloads": 525, "homepage": "https://clawhub.ai/sunshine-del-ux/devops-automation-pack", "iconUrl": null, "installs": 18, "name": "Devops Automation Pack", "ownerName": "sunshine-del-ux", "score": 20007.621951219513, "slug": "devops-automation-pack", "source": "clawhub", "stars": 0, "tags": null, "updated_at": 1776762290144, "version": "1.0.0"}, {"category": "ai-intelligence", "created_at": 1773074304145, "description": "Researches latest AI news, summarizes 5 top stories with sources.", "description_zh": "", "downloads": 525, "homepage": "https://clawhub.ai/timbu306/ai-news-researcher", "iconUrl": null, "installs": 33, "name": "Ai News Researcher", "ownerName": "timbu306", "score": 13291.139240506327, "slug": "ai-news-researcher", "source": "clawhub", "stars": 0, "tags": null, "updated_at": 1776761880373, "version": "1.0.0"}, {"category": "ai-intelligence", "created_at": 1772784740100, "description": "Autonomous DeFi trading agent for BNB Chain with multi-strategy engine, network switching, and reinforced learning.", "description_zh": "", "downloads": 525, "homepage": "https://clawhub.ai/alannetwork/clawtrade-bnb", "iconUrl": null, "installs": 31, "name": "Clawtrade Bnb", "ownerName": "alannetwork", "score": 38631.34657836644, "slug": "clawtrade-bnb", "source": "clawhub", "stars": 0, "tags": null, "updated_at": 1776759083323, "version": "1.1.0"}, {"category": "ai-intelligence", "created_at": 1772777108894, "description": "Claim and pay $1 to reserve a LocalSquare pin on a town's 10x10 grid, creating a local SEO webpage that appears in Google and AI search results.", "description_zh": "", "downloads": 525, "homepage": "https://clawhub.ai/thatdudefreak/localsquare-ads", "iconUrl": null, "installs": 17, "name": "LocalSquare - Local Business Ads", "ownerName": "thatdudefreak", "score": 36307.053941908714, "slug": "localsquare-ads", "source": "clawhub", "stars": 0, "tags": null, "updated_at": 1776759082997, "version": "2.0.2"}, {"category": "data-analysis", "created_at": 1772778722826, "description": "Create, track, and manage USDC/USDT stablecoin payment links for sales, fundraising, and invoices across Telegram, WhatsApp, and Discord with dashboards.", "description_zh": "", "downloads": 525, "homepage": "https://clawhub.ai/ofuzorchukwuemeke/obverse-payments", "iconUrl": null, "installs": 17, "name": "Obverse Payments", "ownerName": "ofuzorchukwuemeke", "score": 92592.5925925926, "slug": "obverse-payments", "source": "clawhub", "stars": 0, "tags": ["crypto", "payments", "usdc"], "updated_at": 1776748185621, "version": "1.0.1"}, {"category": "ai-intelligence", "created_at": 1772776459263, "description": "Launch, browse, and trade tokens on TON.fun using bonding curves for fair, instant liquidity on the TON blockchain without presales or intermediaries.", "description_zh": "", "downloads": 525, "homepage": "https://clawhub.ai/alphafanx/tonfun", "iconUrl": null, "installs": 29, "name": "TON.fun Trading", "ownerName": "alphafanx", "score": 91304.34782608695, "slug": "tonfun", "source": "clawhub", "stars": 0, "tags": null, "updated_at": 1776748185495, "version": "1.0.0"}, {"category": "ai-intelligence", "created_at": 1772776811436, "description": "Production Solana RPC for AI agents. Unlimited JSON-RPC, WebSocket. 1 SOL/month via on-chain payment. No rate limits, no tiers.", "description_zh": "", "downloads": 525, "homepage": "https://clawhub.ai/dylanport/whistle-rpc", "iconUrl": null, "installs": 27, "name": "Whistle RPC", "ownerName": "dylanport", "score": 92429.57746478873, "slug": "whistle-rpc", "source": "clawhub", "stars": 0, "tags": ["agent", "blockchain", "infrastructure", "rpc", "solana", "web3"], "updated_at": 1776748184288, "version": "1.0.5"}, {"category": "communication-collaboration", "created_at": 1772784324247, "description": "Deep research using the Caesar API — run queries, follow up with chat, brainstorm, and manage collections.", "description_zh": "", "downloads": 524, "homepage": "https://clawhub.ai/alexrudloff/caesar-research", "iconUrl": null, "installs": 19, "name": "Deep Research with Caesar.org", "ownerName": "alexrudloff", "score": 99823.00884955753, "slug": "caesar-research", "source": "clawhub", "stars": 2, "tags": null, "updated_at": 1776759083602, "version": "0.0.1"}, {"category": "data-analysis", "created_at": 1773074561449, "description": "Use this skill any time the user wants in-depth research or comprehensive analysis on any topic. This includes: industry analysis, competitive landscape mapp...", "description_zh": "", "downloads": 524, "homepage": "https://clawhub.ai/logictortoise/anygen-deep-research", "iconUrl": null, "installs": 18, "name": "Deep Research", "ownerName": "logictortoise", "score": 37133.10580204779, "slug": "anygen-deep-research", "source": "clawhub", "stars": 1, "tags": null, "updated_at": 1776767171070, "version": "1.3.4"}, {"category": "data-analysis", "created_at": 1772780493906, "description": "Install and manage QuantumOS, an AI command center dashboard for OpenClaw. Use when the user wants to set up QuantumOS, start/stop the dashboard, troubleshoo...", "description_zh": "", "downloads": 524, "homepage": "https://clawhub.ai/murtiurti4/quantumos", "iconUrl": null, "installs": 14, "name": "QuantumOS", "ownerName": "murtiurti4", "score": 2540.48288567827, "slug": "quantumos", "source": "clawhub", "stars": 0, "tags": null, "updated_at": 1776770471170, "version": "0.2.0"}, {"category": "developer-tools", "created_at": 1773949442253, "description": "Calculate ecommerce break-even thresholds using price, cost, shipping, ad spend, and overhead assumptions so operators can make launch and scale decisions wi...", "description_zh": "", "downloads": 524, "homepage": "https://clawhub.ai/leooooooow/break-even-calculator-ecommerce", "iconUrl": null, "installs": 45, "name": "Break Even Calculator Ecommerce", "ownerName": "leooooooow", "score": 3157.197083810327, "slug": "break-even-calculator-ecommerce", "source": "clawhub", "stars": 0, "tags": null, "updated_at": 1776765290620, "version": "1.0.2"}, {"category": "security-compliance", "created_at": 1772777841659, "description": "Generates detailed offboarding checklists, knowledge transfer plans, compliance steps, manager transitions, and day-by-day timelines for departing employees.", "description_zh": "", "downloads": 524, "homepage": "https://clawhub.ai/1kalin/afrexai-offboarding", "iconUrl": null, "installs": 9, "name": "Employee Offboarding Manager", "ownerName": "1kalin", "score": 38332.114118507685, "slug": "afrexai-offboarding", "source": "clawhub", "stars": 0, "tags": ["compliance", "hr", "offboarding", "operations"], "updated_at": 1776759083683, "version": "1.0.0"}, {"category": "developer-tools", "created_at": 1772776895057, "description": "Generate comprehensive OpenAPI 3.0 specs, markdown reference docs, and SDK quickstarts from API endpoint descriptions with examples and error codes.", "description_zh": "", "downloads": 524, "homepage": "https://clawhub.ai/1kalin/afrexai-api-docs", "iconUrl": null, "installs": 1, "name": "API Documentation Generator", "ownerName": "1kalin", "score": 38643.06784660767, "slug": "afrexai-api-docs", "source": "clawhub", "stars": 0, "tags": ["api", "developer", "documentation", "openapi", "swagger"], "updated_at": 1776759083504, "version": "1.0.0"}, {"category": "productivity", "created_at": 1772780952651, "description": "Orchestrate teams with three role presets, stable pseudonyms, renaming options, and generate a fixed JSON report for each task.", "description_zh": "", "downloads": 524, "homepage": "https://clawhub.ai/edmonddantesj/aoi-squad-orchestrator-lite", "iconUrl": null, "installs": 12, "name": "AOI Squad Orchestrator (Lite)", "ownerName": "edmonddantesj", "score": 38332.114118507685, "slug": "aoi-squad-orchestrator-lite", "source": "clawhub", "stars": 0, "tags": null, "updated_at": 1776759083490, "version": "0.1.1"}, {"category": "productivity", "created_at": 1772804825896, "description": "Conducts systematic academic searches across arXiv, Google Scholar, and Semantic Scholar to deliver verified top 5 relevant peer-reviewed papers with summari...", "description_zh": "", "downloads": 524, "homepage": "https://clawhub.ai/calvinxhk/botlearn-academic-search", "iconUrl": null, "installs": 115, "name": "botlearn-academic-search", "ownerName": "calvinxhk", "score": 91929.82456140351, "slug": "botlearn-academic-search", "source": "clawhub", "stars": 0, "tags": null, "updated_at": 1776759083270, "version": "1.0.0"}, {"category": "data-analysis", "created_at": 1772780443560, "description": "Verify email address deliverability via SMTP without sending mail. Checks MX records, performs RCPT TO verification, and detects catch-all domains. Use when...", "description_zh": "", "downloads": 524, "homepage": "https://clawhub.ai/psyduckler/email-verifier", "iconUrl": null, "installs": 13, "name": "Email Verifier", "ownerName": "psyduckler", "score": 28680.897646414887, "slug": "email-verifier", "source": "clawhub", "stars": 0, "tags": null, "updated_at": 1776754688571, "version": "1.0.1"}, {"category": "productivity", "created_at": 1772778703177, "description": "Fetch stable JSON market data including price, liquidity, and volume for one or more tokens using Jupiter-backed sources.", "description_zh": "", "downloads": 524, "homepage": "https://clawhub.ai/nicholasoxford/market-snapshot", "iconUrl": null, "installs": 16, "name": "Market Snapshot", "ownerName": "nicholasoxford", "score": 90344.8275862069, "slug": "market-snapshot", "source": "clawhub", "stars": 0, "tags": ["finance", "market", "market snapshot", "ohlcv", "stock"], "updated_at": 1776748185392, "version": "1.0.0"}, {"category": "data-analysis", "created_at": 1772781842099, "description": "Monitor your brand's AI visibility via BotSee API", "description_zh": "", "downloads": 524, "homepage": "https://clawhub.ai/grahac/botsee", "iconUrl": null, "installs": 10, "name": "BotSee", "ownerName": "grahac", "score": 90972.22222222222, "slug": "botsee", "source": "clawhub", "stars": 0, "tags": null, "updated_at": 1776748184608, "version": "0.2.5"}, {"category": "developer-tools", "created_at": 1772781451308, "description": "Fetch, sync, and organize EdStem discussion threads for any course or institution. Use when checking for new EdStem posts, syncing course discussion forums,...", "description_zh": "", "downloads": 524, "homepage": "https://clawhub.ai/axel5o5/edstem", "iconUrl": null, "installs": 7, "name": "EdStem", "ownerName": "axel5o5", "score": 92253.52112676056, "slug": "edstem", "source": "clawhub", "stars": 0, "tags": null, "updated_at": 1776748184271, "version": "1.1.0"}, {"category": "data-analysis", "created_at": 1773075660960, "description": "Use this skill any time the user wants financial analysis, earnings research, or investment-related reports. This includes: earnings call summaries, quarterl...", "description_zh": "", "downloads": 523, "homepage": "https://clawhub.ai/logictortoise/anygen-financial-research", "iconUrl": null, "installs": 40, "name": "Financial Research", "ownerName": "logictortoise", "score": 97486.53500897666, "slug": "anygen-financial-research", "source": "clawhub", "stars": 1, "tags": null, "updated_at": 1776748183970, "version": "1.3.4"}, {"category": "developer-tools", "created_at": 1772783962860, "description": "Search, install, and create OpenClaw skills with intelligent matching across known, local, and GitHub repositories.", "description_zh": "", "downloads": 523, "homepage": "https://clawhub.ai/chris6970barbarian-hue/glitch-skillstore", "iconUrl": null, "installs": 8, "name": "Skillstore", "ownerName": "chris6970barbarian-hue", "score": 7551.256136298007, "slug": "glitch-skillstore", "source": "clawhub", "stars": 0, "tags": null, "updated_at": 1776765550152, "version": "2026.2.17"}, {"category": "productivity", "created_at": 1772782140452, "description": "Configure, secure, and optimize network attached storage with proper backup strategy, remote access, and media serving.", "description_zh": "", "downloads": 523, "homepage": "https://clawhub.ai/ivangdavila/nas", "iconUrl": null, "installs": 22, "name": "NAS", "ownerName": "ivangdavila", "score": 17801.22532334922, "slug": "nas", "source": "clawhub", "stars": 0, "tags": null, "updated_at": 1776761715085, "version": "1.0.0"}, {"category": "content-creation", "created_at": 1772789099029, "description": "Convert SVG to PNG or JPG for quick sharing (e.g. Telegram) or print.", "description_zh": "", "downloads": 523, "homepage": "https://clawhub.ai/qrost/svg-to-image", "iconUrl": null, "installs": 53, "name": "SVG to Image", "ownerName": "qrost", "score": 13237.155150594786, "slug": "svg-to-image", "source": "clawhub", "stars": 0, "tags": null, "updated_at": 1776760939911, "version": "1.1.1"}, {"category": "data-analysis", "created_at": 1772787995567, "description": "AI Labs Builder - Create modern websites, AI applications, dashboards, and automated workflows. Unified system for building production-ready projects with Ne...", "description_zh": "", "downloads": 523, "homepage": "https://clawhub.ai/slemo54/ai-labs-builder", "iconUrl": null, "installs": 15, "name": "AI Labs Builder", "ownerName": "slemo54", "score": 89249.14675767918, "slug": "ai-labs-builder", "source": "clawhub", "stars": 0, "tags": null, "updated_at": 1776759083447, "version": "1.0.0"}, {"category": "security-compliance", "created_at": 1772784197715, "description": "Guides startups and scale-ups through SOC 2, ISO 27001, GDPR, HIPAA, and PCI DSS compliance to achieve audit readiness without external consultants.", "description_zh": "", "downloads": 523, "homepage": "https://clawhub.ai/1kalin/afrexai-compliance-engine", "iconUrl": null, "installs": 14, "name": "Compliance & Audit Readiness Engine", "ownerName": "1kalin", "score": 38315.018315018315, "slug": "afrexai-compliance-engine", "source": "clawhub", "stars": 0, "tags": ["audit", "compliance", "gdpr", "hipaa", "iso27001", "pci-dss", "security", "soc2"], "updated_at": 1776759082773, "version": "1.0.0"}, {"category": "ai-intelligence", "created_at": 1772780179700, "description": "Register sovereign domains (.badass, .forever, .fuck, .rebel, .pump, .hello, .howdy, .robo, .dnet, .f, bear emoji) on Ethereum mainnet via Impervious Domains...", "description_zh": "", "downloads": 523, "homepage": "https://clawhub.ai/techno-hippies/buy-handshake-domain", "iconUrl": null, "installs": 20, "name": "Buy Sovereign Domain (Handshake DNS)", "ownerName": "techno-hippies", "score": 91754.38596491228, "slug": "buy-handshake-domain", "source": "clawhub", "stars": 0, "tags": null, "updated_at": 1776748185733, "version": "1.0.0"}, {"category": "data-analysis", "created_at": 1772777132022, "description": "Send daily 08:00 weather reports for Tübingen using open-meteo.com. Use when Master wants an automated summary (current conditions + today’s high/low + rain chance) stored locally and forwarded via Telegram.", "description_zh": "", "downloads": 523, "homepage": "https://clawhub.ai/zopyx/tuebingen-weather", "iconUrl": null, "installs": 18, "name": "Tübingen Weather", "ownerName": "zopyx", "score": 90956.52173913043, "slug": "tuebingen-weather", "source": "clawhub", "stars": 0, "tags": null, "updated_at": 1776748185504, "version": "1.0.0"}]}