{"page": 17, "total_pages": 22, "total": 1089, "skills": [{"slug": "mixpanel-automation", "name": "Mixpanel Automation", "description": "Automate Mixpanel: events, funnels, cohorts, annotations, and JQL queries.", "description_zh": "", "homepage": "./mixpanel-automation", "tags": ["App Automation via Composio"], "category": "App Automation via Composio", "ownerName": "", "sources": ["ComposioHQ/awesome-claude-skills"], "score": 300, "downloads": 0, "stars": 0, "installs": 0, "version": "", "updated_at": 0}, {"slug": "mojoauth-skills", "name": "MojoAuth/skills", "description": "Production-ready MojoAuth guides and examples for popular frameworks like Node.js, Next.js, React, Java, .NET Core, Go, iOS, and Android.", "description_zh": "", "homepage": "https://github.com/MojoAuth/skills", "tags": ["Community Contributors"], "category": "Community Contributors", "ownerName": "MojoAuth", "sources": ["sickn33/antigravity-awesome-skills"], "score": 299, "downloads": 0, "stars": 0, "installs": 0, "version": "", "updated_at": 0}, {"slug": "moltdj", "name": "moltdj", "description": "AI music and podcast platform for autonomous agents — generate tracks, discover, earn tips and royalties.", "description_zh": "", "homepage": "https://github.com/polaroteam/moltdj-skill", "tags": ["🎬 Media & Content"], "category": "🎬 Media & Content", "ownerName": "polaroteam", "sources": ["BehiSecc/awesome-claude-skills"], "score": 298, "downloads": 0, "stars": 0, "installs": 0, "version": "", "updated_at": 0}, {"slug": "monday-automation", "name": "Monday Automation", "description": "Automate Monday.com: boards, items, columns, groups, and workspaces.", "description_zh": "", "homepage": "./monday-automation", "tags": ["App Automation via Composio"], "category": "App Automation via Composio", "ownerName": "", "sources": ["ComposioHQ/awesome-claude-skills"], "score": 297, "downloads": 0, "stars": 0, "installs": 0, "version": "", "updated_at": 0}, {"slug": "mongodb-atlas-stream-processing", "name": "mongodb/atlas-stream-processing", "description": "Build, operate, and debug Atlas Stream Processing pipelines with Kafka, S3, and Lambda integrations", "description_zh": "", "homepage": "https://officialskills.sh/mongodb/skills/atlas-stream-processing", "tags": ["TypeScript Skills"], "category": "TypeScript Skills", "ownerName": "", "sources": ["VoltAgent/awesome-agent-skills"], "score": 296, "downloads": 0, "stars": 0, "installs": 0, "version": "", "updated_at": 0}, {"slug": "mongodb-mongodb-connection", "name": "mongodb/mongodb-connection", "description": "Optimize MongoDB client connection pools, timeouts, and serverless patterns", "description_zh": "", "homepage": "https://officialskills.sh/mongodb/skills/mongodb-connection", "tags": ["TypeScript Skills"], "category": "TypeScript Skills", "ownerName": "", "sources": ["VoltAgent/awesome-agent-skills"], "score": 295, "downloads": 0, "stars": 0, "installs": 0, "version": "", "updated_at": 0}, {"slug": "mongodb-mongodb-mcp-setup", "name": "mongodb/mongodb-mcp-setup", "description": "Set up the MongoDB MCP server with authentication and connection configuration", "description_zh": "", "homepage": "https://officialskills.sh/mongodb/skills/mongodb-mcp-setup", "tags": ["TypeScript Skills"], "category": "TypeScript Skills", "ownerName": "", "sources": ["VoltAgent/awesome-agent-skills"], "score": 294, "downloads": 0, "stars": 0, "installs": 0, "version": "", "updated_at": 0}, {"slug": "mongodb-mongodb-natural-language-querying", "name": "mongodb/mongodb-natural-language-querying", "description": "Translate natural language into MongoDB queries and aggregation pipelines", "description_zh": "", "homepage": "https://officialskills.sh/mongodb/skills/mongodb-natural-language-querying", "tags": ["TypeScript Skills"], "category": "TypeScript Skills", "ownerName": "", "sources": ["VoltAgent/awesome-agent-skills"], "score": 293, "downloads": 0, "stars": 0, "installs": 0, "version": "", "updated_at": 0}, {"slug": "mongodb-mongodb-query-optimizer", "name": "mongodb/mongodb-query-optimizer", "description": "Analyze and optimize query performance using Atlas Performance Advisor", "description_zh": "", "homepage": "https://officialskills.sh/mongodb/skills/mongodb-query-optimizer", "tags": ["TypeScript Skills"], "category": "TypeScript Skills", "ownerName": "", "sources": ["VoltAgent/awesome-agent-skills"], "score": 292, "downloads": 0, "stars": 0, "installs": 0, "version": "", "updated_at": 0}, {"slug": "mongodb-mongodb-schema-design", "name": "mongodb/mongodb-schema-design", "description": "Design efficient document schemas with validation and indexing patterns", "description_zh": "", "homepage": "https://officialskills.sh/mongodb/skills/mongodb-schema-design", "tags": ["TypeScript Skills"], "category": "TypeScript Skills", "ownerName": "", "sources": ["VoltAgent/awesome-agent-skills"], "score": 291, "downloads": 0, "stars": 0, "installs": 0, "version": "", "updated_at": 0}, {"slug": "mongodb-mongodb-search-and-ai", "name": "mongodb/mongodb-search-and-ai", "description": "Implement Atlas Search and AI-powered recommendations with vector search", "description_zh": "", "homepage": "https://officialskills.sh/mongodb/skills/mongodb-search-and-ai", "tags": ["TypeScript Skills"], "category": "TypeScript Skills", "ownerName": "", "sources": ["VoltAgent/awesome-agent-skills"], "score": 290, "downloads": 0, "stars": 0, "installs": 0, "version": "", "updated_at": 0}, {"slug": "monte-carlo-data-mc-agent-toolkit", "name": "monte-carlo-data/mc-agent-toolkit", "description": "Monte Carlo data observability skills — table health checks, change impact assessment, monitor creation, push ingestion, and SQL validation notebooks for dbt changes.", "description_zh": "", "homepage": "https://github.com/monte-carlo-data/mc-agent-toolkit", "tags": ["Community Contributors"], "category": "Community Contributors", "ownerName": "monte-carlo-data", "sources": ["sickn33/antigravity-awesome-skills"], "score": 289, "downloads": 0, "stars": 0, "installs": 0, "version": "", "updated_at": 0}, {"slug": "moodtrip-hotel-search", "name": "moodtrip-hotel-search", "description": "Hotel search, comparison, reviews, pricing, and booking handoff via MoodTrip.ai MCP server. 12 tools including semantic search, room matching, and price intelligence.", "description_zh": "", "homepage": "https://github.com/adiny/moodtrip-hotel-search", "tags": ["🔧 Utility & Automation"], "category": "🔧 Utility & Automation", "ownerName": "adiny", "sources": ["BehiSecc/awesome-claude-skills"], "score": 288, "downloads": 0, "stars": 0, "installs": 0, "version": "", "updated_at": 0}, {"slug": "more-io-apple-bridges", "name": "more-io/apple-bridges", "description": "Native macOS app access — manage Apple Reminders, Calendar, Contacts, Notes, Mail, and tmux sessions via Swift CLI bridges", "description_zh": "", "homepage": "https://github.com/more-io/claude-apple-bridges", "tags": ["Community Skills"], "category": "Community Skills", "ownerName": "more-io", "sources": ["VoltAgent/awesome-agent-skills"], "score": 287, "downloads": 0, "stars": 0, "installs": 0, "version": "", "updated_at": 0}, {"slug": "mrprewsh-seo-aeo-engine", "name": "mrprewsh/seo-aeo-engine", "description": "SEO/AEO content-growth system covering keyword research, content clustering, landing pages, blog structure, schema, internal linking, and audit workflows.", "description_zh": "", "homepage": "https://github.com/mrprewsh/seo-aeo-engine", "tags": ["Community Contributors"], "category": "Community Contributors", "ownerName": "mrprewsh", "sources": ["sickn33/antigravity-awesome-skills"], "score": 286, "downloads": 0, "stars": 0, "installs": 0, "version": "", "updated_at": 0}, {"slug": "mukul975-anthropic-cybersecurity-skills", "name": "mukul975/Anthropic-Cybersecurity-Skills", "description": "753 cybersecurity skills across 38 domains: cloud security, pentesting, red teaming, DFIR, malware analysis, threat intel, and more (MITRE ATT&CK mapped)", "description_zh": "", "homepage": "https://github.com/mukul975/Anthropic-Cybersecurity-Skills", "tags": ["Community Skills"], "category": "Community Skills", "ownerName": "mukul975", "sources": ["VoltAgent/awesome-agent-skills"], "score": 285, "downloads": 0, "stars": 0, "installs": 0, "version": "", "updated_at": 0}, {"slug": "muthuishere-hand-drawn-diagrams", "name": "muthuishere/hand-drawn-diagrams", "description": "Generate hand-drawn Excalidraw diagrams from a prompt — animated SVG, hosted edit link, and PNG export. Works with Claude Code, Codex, Gemini CLI, and any agent supporting standard skill paths", "description_zh": "", "homepage": "https://github.com/muthuishere/hand-drawn-diagrams", "tags": ["Community Skills"], "category": "Community Skills", "ownerName": "muthuishere", "sources": ["VoltAgent/awesome-agent-skills"], "score": 284, "downloads": 0, "stars": 0, "installs": 0, "version": "", "updated_at": 0}, {"slug": "mvanhorn-last30days-skill", "name": "mvanhorn/last30days-skill", "description": "Research any topic across Reddit, X, YouTube, HN, Polymarket, and the web, ranked by upvotes, likes, and real money instead of editors", "description_zh": "", "homepage": "https://github.com/mvanhorn/last30days-skill", "tags": ["Community Skills"], "category": "Community Skills", "ownerName": "mvanhorn", "sources": ["VoltAgent/awesome-agent-skills"], "score": 283, "downloads": 0, "stars": 0, "installs": 0, "version": "", "updated_at": 0}, {"slug": "n8n-skills", "name": "n8n-skills", "description": "Enables AI assistants to directly understand and operate n8n workflows.", "description_zh": "", "homepage": "https://github.com/haunchen/n8n-skills", "tags": ["Productivity & Organization"], "category": "Productivity & Organization", "ownerName": "haunchen", "sources": ["ComposioHQ/awesome-claude-skills"], "score": 282, "downloads": 0, "stars": 0, "installs": 0, "version": "", "updated_at": 0}, {"slug": "naming", "name": "naming", "description": "Metaphor-driven naming for products, SaaS, brands, bots, and open source projects. Structured process that produces memorable, meaningful names.", "description_zh": "", "homepage": "https://github.com/glacierphonk/naming", "tags": ["✍️ Writing & Research"], "category": "✍️ Writing & Research", "ownerName": "glacierphonk", "sources": ["BehiSecc/awesome-claude-skills"], "score": 281, "downloads": 0, "stars": 0, "installs": 0, "version": "", "updated_at": 0}, {"slug": "nedcodes-ok-rule-porter", "name": "nedcodes-ok/rule-porter", "description": "Bidirectional rule converter between Cursor (.mdc), Claude Code (CLAUDE.md), GitHub Copilot, Windsurf, and legacy .cursorrules formats. Zero dependencies.", "description_zh": "", "homepage": "https://github.com/nedcodes-ok/rule-porter", "tags": ["Community Contributors"], "category": "Community Contributors", "ownerName": "nedcodes-ok", "sources": ["sickn33/antigravity-awesome-skills"], "score": 280, "downloads": 0, "stars": 0, "installs": 0, "version": "", "updated_at": 0}, {"slug": "neondatabase-agent-skills", "name": "neondatabase/agent-skills", "description": "Official Neon skills - Serverless Postgres workflows and Neon platform guidance.", "description_zh": "", "homepage": "https://github.com/neondatabase/agent-skills", "tags": ["Official Sources"], "category": "Official Sources", "ownerName": "neondatabase", "sources": ["sickn33/antigravity-awesome-skills"], "score": 279, "downloads": 0, "stars": 0, "installs": 0, "version": "", "updated_at": 0}, {"slug": "neondatabase-claimable-postgres", "name": "neondatabase/claimable-postgres", "description": "Claimable Postgres database provisioning with Neon", "description_zh": "", "homepage": "https://officialskills.sh/neondatabase/skills/claimable-postgres", "tags": ["Skills by Neon"], "category": "Skills by Neon", "ownerName": "", "sources": ["VoltAgent/awesome-agent-skills"], "score": 278, "downloads": 0, "stars": 0, "installs": 0, "version": "", "updated_at": 0}, {"slug": "neondatabase-neon-postgres", "name": "neondatabase/neon-postgres", "description": "Best practices for Neon Serverless Postgres", "description_zh": "", "homepage": "https://officialskills.sh/neondatabase/skills/neon-postgres", "tags": ["Skills by Neon"], "category": "Skills by Neon", "ownerName": "", "sources": ["VoltAgent/awesome-agent-skills"], "score": 277, "downloads": 0, "stars": 0, "installs": 0, "version": "", "updated_at": 0}, {"slug": "neondatabase-neon-postgres-egress-optimizer", "name": "neondatabase/neon-postgres-egress-optimizer", "description": "Optimize Neon Postgres egress and data transfer", "description_zh": "", "homepage": "https://officialskills.sh/neondatabase/skills/neon-postgres-egress-optimizer", "tags": ["Skills by Neon"], "category": "Skills by Neon", "ownerName": "", "sources": ["VoltAgent/awesome-agent-skills"], "score": 276, "downloads": 0, "stars": 0, "installs": 0, "version": "", "updated_at": 0}, {"slug": "netlify-netlify-ai-gateway", "name": "netlify/netlify-ai-gateway", "description": "Access AI models via unified gateway endpoint", "description_zh": "", "homepage": "https://officialskills.sh/netlify/skills/netlify-ai-gateway", "tags": ["Skills by Typefully"], "category": "Skills by Typefully", "ownerName": "", "sources": ["VoltAgent/awesome-agent-skills"], "score": 275, "downloads": 0, "stars": 0, "installs": 0, "version": "", "updated_at": 0}, {"slug": "netlify-netlify-blobs", "name": "netlify/netlify-blobs", "description": "Key-value object storage for files and data", "description_zh": "", "homepage": "https://officialskills.sh/netlify/skills/netlify-blobs", "tags": ["Skills by Typefully"], "category": "Skills by Typefully", "ownerName": "", "sources": ["VoltAgent/awesome-agent-skills"], "score": 274, "downloads": 0, "stars": 0, "installs": 0, "version": "", "updated_at": 0}, {"slug": "netlify-netlify-caching", "name": "netlify/netlify-caching", "description": "Configure CDN caching and cache purging", "description_zh": "", "homepage": "https://officialskills.sh/netlify/skills/netlify-caching", "tags": ["Skills by Typefully"], "category": "Skills by Typefully", "ownerName": "", "sources": ["VoltAgent/awesome-agent-skills"], "score": 273, "downloads": 0, "stars": 0, "installs": 0, "version": "", "updated_at": 0}, {"slug": "netlify-netlify-cli-and-deploy", "name": "netlify/netlify-cli-and-deploy", "description": "CLI setup, local dev, and deployment workflows", "description_zh": "", "homepage": "https://officialskills.sh/netlify/skills/netlify-cli-and-deploy", "tags": ["Skills by Typefully"], "category": "Skills by Typefully", "ownerName": "", "sources": ["VoltAgent/awesome-agent-skills"], "score": 272, "downloads": 0, "stars": 0, "installs": 0, "version": "", "updated_at": 0}, {"slug": "netlify-netlify-config", "name": "netlify/netlify-config", "description": "Reference for netlify.toml site configuration", "description_zh": "", "homepage": "https://officialskills.sh/netlify/skills/netlify-config", "tags": ["Skills by Typefully"], "category": "Skills by Typefully", "ownerName": "", "sources": ["VoltAgent/awesome-agent-skills"], "score": 271, "downloads": 0, "stars": 0, "installs": 0, "version": "", "updated_at": 0}, {"slug": "netlify-netlify-db", "name": "netlify/netlify-db", "description": "Managed Postgres with deploy preview branching", "description_zh": "", "homepage": "https://officialskills.sh/netlify/skills/netlify-db", "tags": ["Skills by Typefully"], "category": "Skills by Typefully", "ownerName": "", "sources": ["VoltAgent/awesome-agent-skills"], "score": 270, "downloads": 0, "stars": 0, "installs": 0, "version": "", "updated_at": 0}, {"slug": "netlify-netlify-deploy", "name": "netlify/netlify-deploy", "description": "Automated deployment workflow for Netlify sites", "description_zh": "", "homepage": "https://officialskills.sh/netlify/skills/netlify-deploy", "tags": ["Skills by Typefully"], "category": "Skills by Typefully", "ownerName": "", "sources": ["VoltAgent/awesome-agent-skills"], "score": 269, "downloads": 0, "stars": 0, "installs": 0, "version": "", "updated_at": 0}, {"slug": "netlify-netlify-edge-functions", "name": "netlify/netlify-edge-functions", "description": "Low-latency edge middleware and geolocation logic", "description_zh": "", "homepage": "https://officialskills.sh/netlify/skills/netlify-edge-functions", "tags": ["Skills by Typefully"], "category": "Skills by Typefully", "ownerName": "", "sources": ["VoltAgent/awesome-agent-skills"], "score": 268, "downloads": 0, "stars": 0, "installs": 0, "version": "", "updated_at": 0}, {"slug": "netlify-netlify-forms", "name": "netlify/netlify-forms", "description": "HTML form handling with spam filtering", "description_zh": "", "homepage": "https://officialskills.sh/netlify/skills/netlify-forms", "tags": ["Skills by Typefully"], "category": "Skills by Typefully", "ownerName": "", "sources": ["VoltAgent/awesome-agent-skills"], "score": 267, "downloads": 0, "stars": 0, "installs": 0, "version": "", "updated_at": 0}, {"slug": "netlify-netlify-frameworks", "name": "netlify/netlify-frameworks", "description": "Deploy web frameworks with SSR support", "description_zh": "", "homepage": "https://officialskills.sh/netlify/skills/netlify-frameworks", "tags": ["Skills by Typefully"], "category": "Skills by Typefully", "ownerName": "", "sources": ["VoltAgent/awesome-agent-skills"], "score": 266, "downloads": 0, "stars": 0, "installs": 0, "version": "", "updated_at": 0}, {"slug": "netlify-netlify-functions", "name": "netlify/netlify-functions", "description": "Build serverless API endpoints and background tasks", "description_zh": "", "homepage": "https://officialskills.sh/netlify/skills/netlify-functions", "tags": ["Skills by Typefully"], "category": "Skills by Typefully", "ownerName": "", "sources": ["VoltAgent/awesome-agent-skills"], "score": 265, "downloads": 0, "stars": 0, "installs": 0, "version": "", "updated_at": 0}, {"slug": "netlify-netlify-image-cdn", "name": "netlify/netlify-image-cdn", "description": "Optimize and transform images via CDN", "description_zh": "", "homepage": "https://officialskills.sh/netlify/skills/netlify-image-cdn", "tags": ["Skills by Typefully"], "category": "Skills by Typefully", "ownerName": "", "sources": ["VoltAgent/awesome-agent-skills"], "score": 264, "downloads": 0, "stars": 0, "installs": 0, "version": "", "updated_at": 0}, {"slug": "nextlevelbuilder-ui-ux-pro-max-skill", "name": "nextlevelbuilder/ui-ux-pro-max-skill", "description": "UI/UX design patterns and best practices", "description_zh": "", "homepage": "https://github.com/nextlevelbuilder/ui-ux-pro-max-skill", "tags": ["Community Skills"], "category": "Community Skills", "ownerName": "nextlevelbuilder", "sources": ["VoltAgent/awesome-agent-skills"], "score": 263, "downloads": 0, "stars": 0, "installs": 0, "version": "", "updated_at": 0}, {"slug": "notion-automation", "name": "Notion Automation", "description": "Automate Notion: pages, databases, blocks, comments, and search.", "description_zh": "", "homepage": "./notion-automation", "tags": ["App Automation via Composio"], "category": "App Automation via Composio", "ownerName": "", "sources": ["ComposioHQ/awesome-claude-skills"], "score": 262, "downloads": 0, "stars": 0, "installs": 0, "version": "", "updated_at": 0}, {"slug": "obra-brainstorming", "name": "obra/brainstorming", "description": "Generate and explore ideas", "description_zh": "", "homepage": "https://github.com/obra/superpowers/blob/main/skills/brainstorming/SKILL.md", "tags": ["Community Skills"], "category": "Community Skills", "ownerName": "obra", "sources": ["VoltAgent/awesome-agent-skills"], "score": 261, "downloads": 0, "stars": 0, "installs": 0, "version": "", "updated_at": 0}, {"slug": "obra-condition-based-waiting", "name": "obra/condition-based-waiting", "description": "Manage conditional pauses or delays", "description_zh": "", "homepage": "https://github.com/obra/superpowers/blob/main/skills/condition-based-waiting/SKILL.md", "tags": ["Community Skills"], "category": "Community Skills", "ownerName": "obra", "sources": ["VoltAgent/awesome-agent-skills"], "score": 260, "downloads": 0, "stars": 0, "installs": 0, "version": "", "updated_at": 0}, {"slug": "obra-defense-in-depth", "name": "obra/defense-in-depth", "description": "Multi-layered security approaches", "description_zh": "", "homepage": "https://github.com/obra/superpowers/blob/main/skills/defense-in-depth/SKILL.md", "tags": ["Community Skills"], "category": "Community Skills", "ownerName": "obra", "sources": ["VoltAgent/awesome-agent-skills"], "score": 259, "downloads": 0, "stars": 0, "installs": 0, "version": "", "updated_at": 0}, {"slug": "obra-dispatching-parallel-agents", "name": "obra/dispatching-parallel-agents", "description": "Coordinate multiple simultaneous agents", "description_zh": "", "homepage": "https://github.com/obra/superpowers/blob/main/skills/dispatching-parallel-agents/SKILL.md", "tags": ["Community Skills"], "category": "Community Skills", "ownerName": "obra", "sources": ["VoltAgent/awesome-agent-skills"], "score": 258, "downloads": 0, "stars": 0, "installs": 0, "version": "", "updated_at": 0}, {"slug": "obra-executing-plans", "name": "obra/executing-plans", "description": "Implement and run strategic plans", "description_zh": "", "homepage": "https://github.com/obra/superpowers/blob/main/skills/executing-plans/SKILL.md", "tags": ["Community Skills"], "category": "Community Skills", "ownerName": "obra", "sources": ["VoltAgent/awesome-agent-skills"], "score": 257, "downloads": 0, "stars": 0, "installs": 0, "version": "", "updated_at": 0}, {"slug": "obra-finishing-a-development-branch", "name": "obra/finishing-a-development-branch", "description": "Complete Git code branches", "description_zh": "", "homepage": "https://github.com/obra/superpowers/blob/main/skills/finishing-a-development-branch/SKILL.md", "tags": ["Community Skills"], "category": "Community Skills", "ownerName": "obra", "sources": ["VoltAgent/awesome-agent-skills"], "score": 256, "downloads": 0, "stars": 0, "installs": 0, "version": "", "updated_at": 0}, {"slug": "obra-receiving-code-review", "name": "obra/receiving-code-review", "description": "Process and incorporate code feedback", "description_zh": "", "homepage": "https://github.com/obra/superpowers/blob/main/skills/receiving-code-review/SKILL.md", "tags": ["Community Skills"], "category": "Community Skills", "ownerName": "obra", "sources": ["VoltAgent/awesome-agent-skills"], "score": 255, "downloads": 0, "stars": 0, "installs": 0, "version": "", "updated_at": 0}, {"slug": "obra-requesting-code-review", "name": "obra/requesting-code-review", "description": "Initiate code review processes", "description_zh": "", "homepage": "https://github.com/obra/superpowers/blob/main/skills/requesting-code-review/SKILL.md", "tags": ["Community Skills"], "category": "Community Skills", "ownerName": "obra", "sources": ["VoltAgent/awesome-agent-skills"], "score": 254, "downloads": 0, "stars": 0, "installs": 0, "version": "", "updated_at": 0}, {"slug": "obra-root-cause-tracing", "name": "obra/root-cause-tracing", "description": "Investigate and identify fundamental problems", "description_zh": "", "homepage": "https://github.com/obra/superpowers/blob/main/skills/root-cause-tracing/SKILL.md", "tags": ["Community Skills"], "category": "Community Skills", "ownerName": "obra", "sources": ["VoltAgent/awesome-agent-skills"], "score": 253, "downloads": 0, "stars": 0, "installs": 0, "version": "", "updated_at": 0}, {"slug": "obra-sharing-skills", "name": "obra/sharing-skills", "description": "Distribute and communicate capabilities", "description_zh": "", "homepage": "https://github.com/obra/superpowers/blob/main/skills/sharing-skills/SKILL.md", "tags": ["Community Skills"], "category": "Community Skills", "ownerName": "obra", "sources": ["VoltAgent/awesome-agent-skills"], "score": 252, "downloads": 0, "stars": 0, "installs": 0, "version": "", "updated_at": 0}, {"slug": "obra-subagent-driven-development", "name": "obra/subagent-driven-development", "description": "Development using multiple sub-agents", "description_zh": "", "homepage": "https://github.com/obra/superpowers/blob/main/skills/subagent-driven-development/SKILL.md", "tags": ["Community Skills"], "category": "Community Skills", "ownerName": "obra", "sources": ["VoltAgent/awesome-agent-skills"], "score": 251, "downloads": 0, "stars": 0, "installs": 0, "version": "", "updated_at": 0}]}