{"page": 170, "total_pages": 522, "total": 26073, "skills": [{"category": "data-analysis", "created_at": 1772788627362, "description": "Analyze and understand video content using AI. Upload local files, YouTube URLs, or HTTP video URLs for detailed analysis, Q&A, and timestamped breakdowns.", "description_zh": "", "downloads": 523, "homepage": "https://clawhub.ai/sifr42/video-understand", "iconUrl": null, "installs": 21, "name": "video-understand", "ownerName": "sifr42", "score": 89097.10391822828, "slug": "video-understand", "source": "clawhub", "stars": 0, "tags": null, "updated_at": 1776748184512, "version": "1.0.1"}, {"category": "developer-tools", "created_at": 1772776855888, "description": "Find people actively looking for products like yours on Reddit, X, LinkedIn, Quora, and Threads. Free mode uses web_search; paid mode uses the HotMention API.", "description_zh": "", "downloads": 523, "homepage": "https://clawhub.ai/alexandr-belogubov/hotmention", "iconUrl": null, "installs": 7, "name": "Hotmention", "ownerName": "alexandr-belogubov", "score": 93895.87073608617, "slug": "hotmention", "source": "clawhub", "stars": 0, "tags": null, "updated_at": 1776748184451, "version": "1.3.0"}, {"category": "ai-intelligence", "created_at": 1772787919428, "description": "Orchestrate a multi-agent virtual academic reading group. Use when reading multiple papers, generating expert discussion notes, cross-examining positions acr...", "description_zh": "", "downloads": 523, "homepage": "https://clawhub.ai/isonaei/virtual-reading-group", "iconUrl": null, "installs": 79, "name": "Virtual Reading Group", "ownerName": "isonaei", "score": 93895.87073608617, "slug": "virtual-reading-group", "source": "clawhub", "stars": 0, "tags": null, "updated_at": 1776748184430, "version": "1.1.0"}, {"category": "ai-intelligence", "created_at": 1772785255100, "description": "Microsoft Research's agent training framework. Optimizes AI agents with Reinforcement Learning, Automatic Prompt Optimization, and Supervised Fine-tuning. Ze...", "description_zh": "", "downloads": 523, "homepage": "https://clawhub.ai/olmmlo-cmd/agent-lightning", "iconUrl": null, "installs": 31, "name": "Agent Lightning", "ownerName": "olmmlo-cmd", "score": 93895.87073608617, "slug": "agent-lightning", "source": "clawhub", "stars": 0, "tags": null, "updated_at": 1776748184404, "version": "1.0.0"}, {"category": "productivity", "created_at": 1772781893031, "description": "Create an Instagram carousel from a popular-picks list with Reddit quotes. Cover slide uses \"clean\" style with \"Top CATEGORY in Destination\" title. Each attr...", "description_zh": "", "downloads": 523, "homepage": "https://clawhub.ai/psyduckler/reddit-quote-carousel", "iconUrl": null, "installs": 8, "name": "Reddit Quote Carousel", "ownerName": "psyduckler", "score": 93895.87073608617, "slug": "reddit-quote-carousel", "source": "clawhub", "stars": 0, "tags": null, "updated_at": 1776748184383, "version": "1.0.0"}, {"category": "content-creation", "created_at": 1772780658954, "description": "Design, build, test, document, and secure production-grade APIs. Covers the full lifecycle from schema design through deployment, monitoring, and versioning....", "description_zh": "", "downloads": 523, "homepage": "https://clawhub.ai/1kalin/afrexai-api-architect", "iconUrl": null, "installs": 25, "name": "API Architect", "ownerName": "1kalin", "score": 92077.4647887324, "slug": "afrexai-api-architect", "source": "clawhub", "stars": 0, "tags": ["api", "backend", "development", "graphql", "rest"], "updated_at": 1776748184284, "version": "1.0.0"}, {"category": "developer-tools", "created_at": 1772781270176, "description": "Stop AI agents from secretly bypassing your rules. Mechanical enforcement with git hooks, secret detection, deployment verification, and import registries. B...", "description_zh": "", "downloads": 523, "homepage": "https://clawhub.ai/olmmlo-cmd/agent-guardrails", "iconUrl": null, "installs": 11, "name": "Agent Guardrails", "ownerName": "olmmlo-cmd", "score": 90484.42906574394, "slug": "agent-guardrails", "source": "clawhub", "stars": 0, "tags": null, "updated_at": 1776748184037, "version": "1.0.0"}, {"category": "content-creation", "created_at": 1772781787160, "description": "Design, implement, and operate encrypted restic backups for Linux home directories with systemd automation, retention policies, and restore validation. Use w...", "description_zh": "", "downloads": 523, "homepage": "https://clawhub.ai/moep90/restic-home-backup-safe", "iconUrl": null, "installs": 31, "name": "Restic Home Backup (Safe Apply Mode)", "ownerName": "moep90", "score": 93895.87073608617, "slug": "restic-home-backup-safe", "source": "clawhub", "stars": 0, "tags": null, "updated_at": 1776748183908, "version": "1.0.0"}, {"category": "ai-intelligence", "created_at": 1772787400256, "description": "Soulprint decentralized identity verification for AI agents. v0.6.4 — blockchain-first architecture (no libp2p): state lives on Base Sepolia, 4 validator nod...", "description_zh": "", "downloads": 522, "homepage": "https://clawhub.ai/manuelfelipearias/soulprint", "iconUrl": null, "installs": 38, "name": "Soulprint", "ownerName": "manuelfelipearias", "score": 1547.677198755688, "slug": "soulprint", "source": "clawhub", "stars": 4, "tags": null, "updated_at": 1776770471398, "version": "1.0.25"}, {"category": "developer-tools", "created_at": 1772780946539, "description": "Manage your Sophiie sales pipeline — leads, inquiries, appointments, FAQs, policies, SMS, and calls via the Sophiie REST API.", "description_zh": "", "downloads": 522, "homepage": "https://clawhub.ai/tomc98/sophiie", "iconUrl": null, "installs": 34, "name": "Sophiie AI Office Manager", "ownerName": "tomc98", "score": 34143.37788578372, "slug": "sophiie", "source": "clawhub", "stars": 2, "tags": null, "updated_at": 1776757320569, "version": "0.0.3"}, {"category": "security-compliance", "created_at": 1772780636056, "description": "Inject secrets into subprocesses via environment variables. You never see secret values — authy run injects them directly. Use for any command that needs API...", "description_zh": "", "downloads": 522, "homepage": "https://clawhub.ai/eric8810/authy", "iconUrl": null, "installs": 5, "name": "Authy", "ownerName": "eric8810", "score": 96896.55172413794, "slug": "authy", "source": "clawhub", "stars": 2, "tags": null, "updated_at": 1776748185559, "version": "0.3.0"}, {"category": "content-creation", "created_at": 1773429351957, "description": "Transform one source asset into a coordinated pack for multiple channels such as WeChat, Xiaohongshu, TikTok, email, and slides.", "description_zh": "", "downloads": 522, "homepage": "https://clawhub.ai/52yuanchangxing/content-repurpose-studio", "iconUrl": null, "installs": 125, "name": "content-repurpose-studio", "ownerName": "52yuanchangxing", "score": 29520.697167755992, "slug": "content-repurpose-studio", "source": "clawhub", "stars": 1, "tags": ["skill"], "updated_at": 1776764692213, "version": "1.0.0"}, {"category": "data-analysis", "created_at": 1772784604554, "description": "Generate QR codes from text or URL for mobile scanning.", "description_zh": "", "downloads": 522, "homepage": "https://clawhub.ai/autogame-17/qr-generator", "iconUrl": null, "installs": 29, "name": "Qr Generator", "ownerName": "autogame-17", "score": 15272.088940901112, "slug": "qr-generator", "source": "clawhub", "stars": 0, "tags": null, "updated_at": 1776769450188, "version": "1.0.0"}, {"category": "content-creation", "created_at": 1772776375615, "description": "Local hybrid search for markdown notes and docs. Use when searching notes, finding related content, or retrieving documents from indexed collections.", "description_zh": "", "downloads": 522, "homepage": "https://clawhub.ai/lelo78/qmd-skill-3", "iconUrl": null, "installs": 3, "name": "Qmd", "ownerName": "lelo78", "score": 12626.99564586357, "slug": "qmd-skill-3", "source": "clawhub", "stars": 0, "tags": null, "updated_at": 1776768850213, "version": "0.1.0"}, {"category": "data-analysis", "created_at": 1772781828399, "description": "Build demand forecasts using time series, causal models, and expert judgment for planning, inventory, and capacity decisions with scenario analysis.", "description_zh": "", "downloads": 522, "homepage": "https://clawhub.ai/1kalin/afrexai-demand-forecasting", "iconUrl": null, "installs": 11, "name": "Demand Forecasting Framework", "ownerName": "1kalin", "score": 3870.106761565836, "slug": "afrexai-demand-forecasting", "source": "clawhub", "stars": 0, "tags": ["demand forecasting", "inventory", "operations", "planning", "supply chain"], "updated_at": 1776766190572, "version": "1.0.0"}, {"category": "data-analysis", "created_at": 1772781828399, "description": "Build demand forecasts using time series, causal models, and expert judgment for planning, inventory, and capacity decisions with scenario analysis.", "description_zh": "", "downloads": 522, "homepage": "https://clawhub.ai/1kalin/afrexai-demand-forecasting", "iconUrl": null, "installs": 11, "name": "Demand Forecasting Framework", "ownerName": "1kalin", "score": 21133.603238866395, "slug": "afrexai-demand-forecasting", "source": "clawhub", "stars": 0, "tags": ["demand forecasting", "inventory", "operations", "planning", "supply chain"], "updated_at": 1776766190572, "version": "1.0.0"}, {"category": "developer-tools", "created_at": 1772781860091, "description": "Create and deploy a festive Chinese New Year (Year of the Horse 2026) animated GIF sticker maker web app. Use when the user wants to generate custom horse-th...", "description_zh": "", "downloads": 522, "homepage": "https://clawhub.ai/jiafar/horse-sticker-maker", "iconUrl": null, "installs": 7, "name": "Horse Sticker Maker", "ownerName": "jiafar", "score": 89078.49829351537, "slug": "horse-sticker-maker", "source": "clawhub", "stars": 0, "tags": null, "updated_at": 1776759083409, "version": "1.0.0"}, {"category": "ai-intelligence", "created_at": 1772780516907, "description": "Trade prediction markets on WatchOrFight — on-chain oracle-settled markets with USDC stakes on Base L2 (Ethereum)", "description_zh": "", "downloads": 522, "homepage": "https://clawhub.ai/wof-developers/wof-predict", "iconUrl": null, "installs": 25, "name": "WatchOrFight - Predict", "ownerName": "wof-developers", "score": 91578.94736842105, "slug": "wof-predict", "source": "clawhub", "stars": 0, "tags": null, "updated_at": 1776748185739, "version": "1.2.4"}, {"category": "security-compliance", "created_at": 1772779233094, "description": "Connect to Ahrefs API to retrieve real-time SEO data including backlinks, keyword metrics, domain analysis, rank tracking, and site audits for SEO insights.", "description_zh": "", "downloads": 522, "homepage": "https://clawhub.ai/jonathan-sokol/ahrefs-connection", "iconUrl": null, "installs": 12, "name": "Ahrefs Connection", "ownerName": "jonathan-sokol", "score": 92063.49206349206, "slug": "ahrefs-connection", "source": "clawhub", "stars": 0, "tags": null, "updated_at": 1776748185631, "version": "1.0.1"}, {"category": "ai-intelligence", "created_at": 1772783241673, "description": "Search, summon, and possess your agent with SOUL.md personality files from the OpenSOUL.md registry", "description_zh": "", "downloads": 522, "homepage": "https://clawhub.ai/danielliuzy/opensoulmd", "iconUrl": null, "installs": 25, "name": "opensoulmd", "ownerName": "danielliuzy", "score": 90000, "slug": "opensoulmd", "source": "clawhub", "stars": 0, "tags": null, "updated_at": 1776748185554, "version": "1.0.1"}, {"category": "data-analysis", "created_at": 1772784971451, "description": "Browse the web, read page content, click buttons, fill forms, take screenshots, and get accessibility snapshots using the webcli headless browser. Use when t...", "description_zh": "", "downloads": 522, "homepage": "https://clawhub.ai/erdinccurebal/webcli", "iconUrl": null, "installs": 10, "name": "webcli", "ownerName": "erdinccurebal", "score": 90000, "slug": "webcli", "source": "clawhub", "stars": 0, "tags": null, "updated_at": 1776748185431, "version": "0.2.1"}, {"category": "content-creation", "created_at": 1772787551610, "description": "Transcribe audio and video files to text with speaker detection, timestamps, and format conversion.", "description_zh": "", "downloads": 522, "homepage": "https://clawhub.ai/ivangdavila/speech-to-text-transcription", "iconUrl": null, "installs": 43, "name": "Speech to Text Transcription", "ownerName": "ivangdavila", "score": 90000, "slug": "speech-to-text-transcription", "source": "clawhub", "stars": 0, "tags": null, "updated_at": 1776748185411, "version": "1.0.0"}, {"category": "ai-intelligence", "created_at": 1772787132645, "description": "Bridge EvoAgentX (1000+ star open-source framework) with OpenClaw. Enables self-evolving agentic workflows - workflows that automatically improve over time t...", "description_zh": "", "downloads": 522, "homepage": "https://clawhub.ai/kylechen26/evoagentx-workflow", "iconUrl": null, "installs": 42, "name": "EvoAgentX Workflow", "ownerName": "kylechen26", "score": 90625, "slug": "evoagentx-workflow", "source": "clawhub", "stars": 0, "tags": null, "updated_at": 1776748184598, "version": "1.0.2"}, {"category": "developer-tools", "created_at": 1772793185154, "description": "Monitor OpenClaw Gateway health by detecting abnormal error rates in logs. Use when: (1) setting up Gateway error monitoring, (2) diagnosing repeated API fai...", "description_zh": "", "downloads": 522, "homepage": "https://clawhub.ai/guoqunabc/gateway-watchdog", "iconUrl": null, "installs": 11, "name": "Gateway Watchdog", "ownerName": "guoqunabc", "score": 90311.4186851211, "slug": "gateway-watchdog", "source": "clawhub", "stars": 0, "tags": null, "updated_at": 1776748184099, "version": "1.4.0"}, {"category": "security-compliance", "created_at": 1772779074549, "description": "Access Google BigQuery to run SQL queries, manage datasets and tables, and perform large-scale data analysis with OAuth authentication via the Maton API.", "description_zh": "", "downloads": 522, "homepage": "https://clawhub.ai/byungkyu/google-bigquery", "iconUrl": null, "installs": 25, "name": "Google BigQuery", "ownerName": "byungkyu", "score": 90311.4186851211, "slug": "google-bigquery", "source": "clawhub", "stars": 0, "tags": null, "updated_at": 1776748184048, "version": "1.0.0"}, {"category": "ai-intelligence", "created_at": 1772781908794, "description": "Monitor available TestFlight beta slots with smart app lookups and silent batch checking. Get alerted when slots open up.", "description_zh": "", "downloads": 522, "homepage": "https://clawhub.ai/jon-xo/testflight-monitor", "iconUrl": null, "installs": 18, "name": "TestFlight Seat Monitor", "ownerName": "jon-xo", "score": 93716.33752244165, "slug": "testflight-monitor", "source": "clawhub", "stars": 0, "tags": null, "updated_at": 1776748184001, "version": "1.0.1"}, {"category": "ai-intelligence", "created_at": 1772777652715, "description": "Turn your OpenClaw agent into a ClawBuddy buddy — share knowledge with hatchlings via SSE.", "description_zh": "", "downloads": 522, "homepage": "https://clawhub.ai/musketyr/clawbuddy-buddy", "iconUrl": null, "installs": 23, "name": "ClawBuddy Buddy", "ownerName": "musketyr", "score": 90000, "slug": "clawbuddy-buddy", "source": "clawhub", "stars": 0, "tags": null, "updated_at": 1776748183868, "version": "3.0.4"}, {"category": "ai-intelligence", "created_at": 1772786989519, "description": "Adaptive multi-model AI roundtable. Runs up to 4 AI models (configurable) in 2 debate rounds with cross-critique and formal consensus scoring. Requires a con...", "description_zh": "", "downloads": 522, "homepage": "https://clawhub.ai/jimmyclanker/roundtable-adaptive", "iconUrl": null, "installs": 26, "name": "Roundtable Adaptive", "ownerName": "jimmyclanker", "score": 90000, "slug": "roundtable-adaptive", "source": "clawhub", "stars": 0, "tags": null, "updated_at": 1776748183788, "version": "2.9.1"}, {"category": "ai-intelligence", "created_at": 1772784715726, "description": "Monitors Moltbook feed for new agents and posts, tracks keywords, and saves interesting agents to your Open Notebook for easy reference.", "description_zh": "", "downloads": 521, "homepage": "https://clawhub.ai/nantes/agent-watcher", "iconUrl": null, "installs": 25, "name": "Agent Watcher Skill", "ownerName": "nantes", "score": 40829.694323144104, "slug": "agent-watcher", "source": "clawhub", "stars": 2, "tags": ["agents", "discovery", "file-storage", "moltbook", "monitoring"], "updated_at": 1776759082368, "version": "1.0.5"}, {"category": "developer-tools", "created_at": 1772783515769, "description": "Text-to-Speech via Zvukogram API with SSML support. Use when you need to generate speech from text, create podcasts, voice notifications, or work with audio....", "description_zh": "", "downloads": 521, "homepage": "https://clawhub.ai/erview/zvukogram", "iconUrl": null, "installs": 9, "name": "Zvukogram TTS", "ownerName": "erview", "score": 96557.65920826161, "slug": "zvukogram", "source": "clawhub", "stars": 2, "tags": null, "updated_at": 1776748185320, "version": "1.1.4"}, {"category": "content-creation", "created_at": 1772786790603, "description": "Azure Foundry image generation skill for OpenClaw; generates images via a Foundry deployment and returns image bytes or URLs.", "description_zh": "", "downloads": 521, "homepage": "https://clawhub.ai/jacqueskang/ms-foundry-image-gen", "iconUrl": null, "installs": 45, "name": "Microsoft Foundry image generation", "ownerName": "jacqueskang", "score": 96724.13793103448, "slug": "ms-foundry-image-gen", "source": "clawhub", "stars": 2, "tags": null, "updated_at": 1776748183891, "version": "1.0.6"}, {"category": "security-compliance", "created_at": 1772787229771, "description": "Analyzes learning needs and performance gaps to recommend and blueprint the best-fit instructional strategy with human oversight for corporate training.", "description_zh": "", "downloads": 521, "homepage": "https://clawhub.ai/mrummler17/ida-instructional-design-agent", "iconUrl": null, "installs": 53, "name": "IDA: Instructional Design Agent", "ownerName": "mrummler17", "score": 12896.039603960397, "slug": "ida-instructional-design-agent", "source": "clawhub", "stars": 0, "tags": ["action-mapping", "capability", "compliance-training", "corporate-training", "elearning", "instructional-design", "l&d", "learning-design", "training-strategy", "workforce-development"], "updated_at": 1776768849934, "version": "1.0.2"}, {"category": "content-creation", "created_at": 1772781096371, "description": "Post content to social media via the Publer API. Use when scheduling or publishing posts to TikTok (carousels, videos), Instagram, Facebook, Twitter/X, or an...", "description_zh": "", "downloads": 521, "homepage": "https://clawhub.ai/imamark/publer", "iconUrl": null, "installs": 31, "name": "Publer", "ownerName": "imamark", "score": 7520.207852193996, "slug": "publer", "source": "clawhub", "stars": 0, "tags": null, "updated_at": 1776766571307, "version": "1.0.1"}, {"category": "ai-intelligence", "created_at": 1773057663826, "description": "Persistent memory system for AI agents to remember facts, learn from experiences, recall memories, and track entities across sessions.", "description_zh": "", "downloads": 521, "homepage": "https://clawhub.ai/sieyer/agent-memory-1-0-0", "iconUrl": null, "installs": 92, "name": "Agent Memory 1.0.0", "ownerName": "sieyer", "score": 7522.379439792087, "slug": "agent-memory-1-0-0", "source": "clawhub", "stars": 0, "tags": null, "updated_at": 1776765550196, "version": "1.0.0"}, {"category": "ai-intelligence", "created_at": 1773081125076, "description": "Generate professional, structured PowerPoint presentations from optimized topic keywords.", "description_zh": "", "downloads": 521, "homepage": "https://clawhub.ai/dzy-1026/xfyun-ppt-gen", "iconUrl": null, "installs": 230, "name": "iFLYTEK AI PPT Generator", "ownerName": "dzy-1026", "score": 19021.540708287695, "slug": "xfyun-ppt-gen", "source": "clawhub", "stars": 0, "tags": null, "updated_at": 1776764950406, "version": "1.0.1"}, {"category": "content-creation", "created_at": 1772781693983, "description": "Complete community building, engagement, and monetization system. From zero to thriving community — launch strategy, member engagement loops, content program...", "description_zh": "", "downloads": 521, "homepage": "https://clawhub.ai/1kalin/afrexai-community-growth-engine", "iconUrl": null, "installs": 31, "name": "Community Growth Engine", "ownerName": "1kalin", "score": 15310.02057008522, "slug": "afrexai-community-growth-engine", "source": "clawhub", "stars": 0, "tags": ["community", "discord", "engagement", "growth", "moderation", "monetization"], "updated_at": 1776761239957, "version": "1.0.0"}, {"category": "ai-intelligence", "created_at": 1772782150844, "description": "Provides persistent, semantic, and secure AI memory with knowledge graphs, decay-based forgetting, contradiction detection, and multi-layer defence against m...", "description_zh": "", "downloads": 521, "homepage": "https://clawhub.ai/jarvis-drakon/shieldcortex-skill", "iconUrl": null, "installs": 19, "name": "Shieldcortex Skill", "ownerName": "jarvis-drakon", "score": 89365.35162950258, "slug": "shieldcortex-skill", "source": "clawhub", "stars": 0, "tags": null, "updated_at": 1776759083234, "version": "2.10.5"}, {"category": "developer-tools", "created_at": 1772788826089, "description": "Interact with Notion using the unofficial private API - pages, databases, blocks, search, users, comments", "description_zh": "", "downloads": 521, "homepage": "https://clawhub.ai/devxoul/vibe-notion", "iconUrl": null, "installs": 24, "name": "Vibe Notion", "ownerName": "devxoul", "score": 89827.58620689655, "slug": "vibe-notion", "source": "clawhub", "stars": 0, "tags": null, "updated_at": 1776748185429, "version": "0.9.0"}, {"category": "ai-intelligence", "created_at": 1772794844896, "description": "Your AI project manager. Delegates coding tasks to Claude Code running in the background — reviews plans, gates approval, monitors progress, validates with 3...", "description_zh": "", "downloads": 521, "homepage": "https://clawhub.ai/horacehxw/coding-pm", "iconUrl": null, "installs": 38, "name": "Coding PM", "ownerName": "horacehxw", "score": 90608.6956521739, "slug": "coding-pm", "source": "clawhub", "stars": 0, "tags": null, "updated_at": 1776748184749, "version": "0.4.2"}, {"category": "security-compliance", "created_at": 1772777060100, "description": "Scan project dependencies for vulnerabilities, license compliance, and generate security or compliance reports using native package manager audits.", "description_zh": "", "downloads": 521, "homepage": "https://clawhub.ai/suhteevah/depguard", "iconUrl": null, "installs": 6, "name": "DepGuard", "ownerName": "suhteevah", "score": 90608.6956521739, "slug": "depguard", "source": "clawhub", "stars": 0, "tags": null, "updated_at": 1776748184717, "version": "1.0.1"}, {"category": "data-analysis", "created_at": 1772783453567, "description": "Generate comparative market analysis (CMA) and home valuation reports from IDX listing data and selected comparable properties. Use when a user wants to pick...", "description_zh": "", "downloads": 521, "homepage": "https://clawhub.ai/danielfoch/idx-cma-report", "iconUrl": null, "installs": 12, "name": "IDX CMA Report", "ownerName": "danielfoch", "score": 90451.38888888889, "slug": "idx-cma-report", "source": "clawhub", "stars": 0, "tags": ["cma", "idx", "real-estate"], "updated_at": 1776748184704, "version": "0.1.0"}, {"category": "developer-tools", "created_at": 1772777838241, "description": "Control TRIGGERcmd computers remotely by listing and running commands via the TRIGGERcmd REST API.", "description_zh": "", "downloads": 520, "homepage": "https://clawhub.ai/rvmey/triggercmd", "iconUrl": null, "installs": 13, "name": "TRIGGERcmd - Run commands on your computers remotely", "ownerName": "rvmey", "score": 98591.54929577465, "slug": "triggercmd", "source": "clawhub", "stars": 2, "tags": null, "updated_at": 1776748184267, "version": "1.0.4"}, {"category": "security-compliance", "created_at": 1772776568789, "description": "Integrate with Clockify API to track time, and manage projects, clients, tasks, tags, and workspaces using OAuth authentication.", "description_zh": "", "downloads": 520, "homepage": "https://clawhub.ai/byungkyu/clockify", "iconUrl": null, "installs": 5, "name": "Clockify", "ownerName": "byungkyu", "score": 90434.78260869565, "slug": "clockify", "source": "clawhub", "stars": 0, "tags": null, "updated_at": 1776748184777, "version": "1.0.0"}, {"category": "data-analysis", "created_at": 1772778398160, "description": "Search and explore Are.na for curated channels, references, and visual inspiration by analyzing connections and identifying key curators across any topic.", "description_zh": "", "downloads": 520, "homepage": "https://clawhub.ai/givenness/arena-research-skill", "iconUrl": null, "installs": 13, "name": "Arena Research", "ownerName": "givenness", "score": 90434.78260869565, "slug": "arena-research-skill", "source": "clawhub", "stars": 0, "tags": null, "updated_at": 1776748184753, "version": "0.1.0"}, {"category": "data-analysis", "created_at": 1772783389525, "description": "Maintain workspace documentation hygiene and discoverability. Use when organizing markdown sprawl, updating doc indexes, archiving stale progress/status snap...", "description_zh": "", "downloads": 520, "homepage": "https://clawhub.ai/houseofjuici/workspace-maintenance", "iconUrl": null, "installs": 15, "name": "Workspace Maintenance", "ownerName": "houseofjuici", "score": 90434.78260869565, "slug": "workspace-maintenance", "source": "clawhub", "stars": 0, "tags": null, "updated_at": 1776748184711, "version": "1.0.0"}, {"category": "developer-tools", "created_at": 1772777457676, "description": "Orchestrates Apollo, LinkedIn, YC Cold Outreach, and MachFive APIs to source leads, enrich profiles, create personalized B2B outreach sequences ready for sen...", "description_zh": "", "downloads": 520, "homepage": "https://clawhub.ai/h4gen/cold-outreach-skill", "iconUrl": null, "installs": 8, "name": "Cold Outreach Skill", "ownerName": "h4gen", "score": 90750.43630017452, "slug": "cold-outreach-skill", "source": "clawhub", "stars": 0, "tags": null, "updated_at": 1776748184193, "version": "1.0.0"}, {"category": "developer-tools", "created_at": 1772780071659, "description": "Core runtime/volatile memory module for BenOS agent environment. Use to: store and retrieve active session state, open loops, decisions, and scratch notes at...", "description_zh": "", "downloads": 520, "homepage": "https://clawhub.ai/benmjohnson69/benos-memory-core", "iconUrl": null, "installs": 6, "name": "BenOS Memory Core", "ownerName": "benmjohnson69", "score": 89965.39792387544, "slug": "benos-memory-core", "source": "clawhub", "stars": 0, "tags": null, "updated_at": 1776748184060, "version": "0.1.2"}, {"category": "ai-intelligence", "created_at": 1772785864991, "description": "Integrates OpenClaw agents with local open-notebook for creating, saving, and querying thematic notebooks using local Ollama AI models.", "description_zh": "", "downloads": 519, "homepage": "https://clawhub.ai/nantes/open-notebook-integration", "iconUrl": null, "installs": 29, "name": "Open Notebook Skill", "ownerName": "nantes", "score": 40892.46525237747, "slug": "open-notebook-integration", "source": "clawhub", "stars": 2, "tags": ["local-ai", "notebook", "ollama", "research"], "updated_at": 1776759083673, "version": "1.0.1"}, {"category": "data-analysis", "created_at": 1773077719453, "description": "Refactor code for clarity, consistency, and maintainability without changing behavior. Use when the user types /simplify or asks to simplify code.", "description_zh": "", "downloads": 519, "homepage": "https://clawhub.ai/bestisblessed/simplify", "iconUrl": null, "installs": 24, "name": "Simplify Code", "ownerName": "bestisblessed", "score": 33057.36250739208, "slug": "simplify", "source": "clawhub", "stars": 2, "tags": null, "updated_at": 1776758782119, "version": "1.0.2"}, {"category": "developer-tools", "created_at": 1772778356180, "description": "Interact with Cozi Family Organizer (shopping lists, todo lists, item management). Unofficial API client for family organization.", "description_zh": "", "downloads": 519, "homepage": "https://clawhub.ai/angusthefuzz/cozi", "iconUrl": null, "installs": 7, "name": "Cozi Family Organizer", "ownerName": "angusthefuzz", "score": 97217.39130434782, "slug": "cozi", "source": "clawhub", "stars": 2, "tags": null, "updated_at": 1776748184875, "version": "1.0.2"}]}