{"page": 171, "total_pages": 522, "total": 26073, "skills": [{"category": "security-compliance", "created_at": 1772777815627, "description": "Manage Snapchat ad accounts, campaigns, ad squads, ads, creatives, and audiences via OAuth-secured Marketing API integration.", "description_zh": "", "downloads": 519, "homepage": "https://clawhub.ai/byungkyu/snapchat", "iconUrl": null, "installs": 16, "name": "Snapchat", "ownerName": "byungkyu", "score": 9267.857142857143, "slug": "snapchat", "source": "clawhub", "stars": 0, "tags": null, "updated_at": 1776764350752, "version": "1.0.0"}, {"category": "productivity", "created_at": 1772785389986, "description": "Automatically create a ready-to-use Django or Django REST Framework project with preconfigured settings and environment provisioning for fast, consistent setup.", "description_zh": "", "downloads": 519, "homepage": "https://clawhub.ai/moenassi/django-creator", "iconUrl": null, "installs": 15, "name": "Django Project Creator", "ownerName": "moenassi", "score": 38189.845474613685, "slug": "django-creator", "source": "clawhub", "stars": 0, "tags": null, "updated_at": 1776759083337, "version": "1.0.0"}, {"category": "developer-tools", "created_at": 1772790002756, "description": "On-chain ERC-8004 agent registry across 16 chains with x402-paid search, agent profiles, registration, and on-chain reputation reviews using USDC.", "description_zh": "", "downloads": 519, "homepage": "https://clawhub.ai/neeeophytee/agent-arena-skill", "iconUrl": null, "installs": 10, "name": "Agent Arena Skill - on-chain ERC-8004 agent registry with x402-gated search and registration API", "ownerName": "neeeophytee", "score": 37883.21167883212, "slug": "agent-arena-skill", "source": "clawhub", "stars": 0, "tags": ["agents", "erc8004", "onchain", "registry", "reputation", "search", "x402"], "updated_at": 1776759083175, "version": "0.1.0"}, {"category": "data-analysis", "created_at": 1772782777412, "description": "Fetch up to five currently live Kalshi sports markets with game names and their probabilities using the browser.", "description_zh": "", "downloads": 519, "homepage": "https://clawhub.ai/kanakamedalasumanth/get-kalshi-live-games", "iconUrl": null, "installs": 14, "name": "Get Kalshi Live Games", "ownerName": "kanakamedalasumanth", "score": 90260.86956521739, "slug": "get-kalshi-live-games", "source": "clawhub", "stars": 0, "tags": null, "updated_at": 1776759082895, "version": "1.0.0"}, {"category": "ai-intelligence", "created_at": 1773042359043, "description": "Interact with Microsoft Teams - send messages, read channels, manage reactions", "description_zh": "", "downloads": 519, "homepage": "https://clawhub.ai/devxoul/agent-teams", "iconUrl": null, "installs": 59, "name": "Agent Teams", "ownerName": "devxoul", "score": 31321.66566083283, "slug": "agent-teams", "source": "clawhub", "stars": 0, "tags": null, "updated_at": 1776756488890, "version": "1.10.5"}, {"category": "data-analysis", "created_at": 1772782434084, "description": "Manage FoxReach cold email outreach — leads, campaigns, sequences, templates, email accounts, inbox, and analytics. Use when the user asks to create leads, m...", "description_zh": "", "downloads": 519, "homepage": "https://clawhub.ai/concaption/foxreach", "iconUrl": null, "installs": 13, "name": "Foxreach", "ownerName": "concaption", "score": 90260.86956521739, "slug": "foxreach", "source": "clawhub", "stars": 0, "tags": null, "updated_at": 1776748184767, "version": "0.1.1"}, {"category": "security-compliance", "created_at": 1773091923731, "description": "Guide OpenClaw to use openwechat-claw with server-authoritative chat flow, fixed local data persistence under ../openwechat_im_client, mandatory SSE-first tr...", "description_zh": "", "downloads": 519, "homepage": "https://clawhub.ai/zhaobudaoyuema/openwechat-im-client", "iconUrl": null, "installs": 15, "name": "Openwechat Im Client", "ownerName": "zhaobudaoyuema", "score": 91373.23943661971, "slug": "openwechat-im-client", "source": "clawhub", "stars": 0, "tags": null, "updated_at": 1776748184305, "version": "1.0.29"}, {"category": "productivity", "created_at": 1772783692463, "description": "Create crypto payment & withdrawal links for your app. Works with BSC, Ethereum, TRON. Users pay via PayTheFlyPro gateway - you get shareable URLs with built...", "description_zh": "", "downloads": 518, "homepage": "https://clawhub.ai/seanlan/paythefly", "iconUrl": null, "installs": 14, "name": "PayTheFlyPro", "ownerName": "seanlan", "score": 100000, "slug": "paythefly", "source": "clawhub", "stars": 2, "tags": null, "updated_at": 1776759083737, "version": "1.0.8"}, {"category": "ai-intelligence", "created_at": 1772777719134, "description": "Expose the Teller delta-neutral + lending Model Context Protocol server. Use this when you need to install, run, or update the Tellermcp MCP backend so agent...", "description_zh": "", "downloads": 518, "homepage": "https://clawhub.ai/rbcp18/teller-borrow", "iconUrl": null, "installs": 27, "name": "Teller MCP – Borrow USDC & Altcoins (no margin calls)", "ownerName": "rbcp18", "score": 97043.47826086957, "slug": "teller-borrow", "source": "clawhub", "stars": 2, "tags": null, "updated_at": 1776748185480, "version": "0.2.2"}, {"category": "data-analysis", "created_at": 1772777155009, "description": "Prepare for US medical licensing exams with progress tracking, weak area analysis, question bank management, and residency match planning.", "description_zh": "", "downloads": 518, "homepage": "https://clawhub.ai/ivangdavila/usmle", "iconUrl": null, "installs": 19, "name": "USMLE", "ownerName": "ivangdavila", "score": 96875, "slug": "usmle", "source": "clawhub", "stars": 2, "tags": null, "updated_at": 1776748184613, "version": "1.0.1"}, {"category": "developer-tools", "created_at": 1772782619274, "description": "Navigate FRED categories and series using fredapi, supporting natural-language queries with intent recognition and double validation.", "description_zh": "", "downloads": 518, "homepage": "https://clawhub.ai/kiszly/fred-navigator", "iconUrl": null, "installs": 11, "name": "FRED-Navigator", "ownerName": "kiszly", "score": 95059.62521294718, "slug": "fred-navigator", "source": "clawhub", "stars": 2, "tags": null, "updated_at": 1776748183654, "version": "1.0.0"}, {"category": "productivity", "created_at": 1773416487271, "description": "Scrape any webpage and extract structured data as JSON, table, or list. Supports schema-guided extraction.", "description_zh": "", "downloads": 518, "homepage": "https://clawhub.ai/unixlamadev-spec/data-spider", "iconUrl": null, "installs": 16, "name": "Data Spider", "ownerName": "unixlamadev-spec", "score": 93079.5847750865, "slug": "data-spider", "source": "clawhub", "stars": 1, "tags": null, "updated_at": 1776748184045, "version": "1.1.0"}, {"category": "communication-collaboration", "created_at": 1772785897706, "description": "AI sales assistant that classifies leads, interprets feedback, generates quotes, and manages your manufacturing and technical sales pipeline via email integr...", "description_zh": "", "downloads": 518, "homepage": "https://clawhub.ai/doshirush1901/echo-sales-ai", "iconUrl": null, "installs": 19, "name": "Echo Sales Ai", "ownerName": "doshirush1901", "score": 88395.90443686007, "slug": "echo-sales-ai", "source": "clawhub", "stars": 0, "tags": null, "updated_at": 1776759083438, "version": "1.0.0"}, {"category": "developer-tools", "created_at": 1772783980443, "description": "Enter a persistent underwater VR metaverse as an autonomous agent, pay MON to join, earn shells by interacting, building, and trading in a shared 3D ocean ha...", "description_zh": "", "downloads": 518, "homepage": "https://clawhub.ai/uncletom29/moltworld", "iconUrl": null, "installs": 27, "name": "Moltworld", "ownerName": "uncletom29", "score": 89464.59412780656, "slug": "moltworld", "source": "clawhub", "stars": 0, "tags": null, "updated_at": 1776759082812, "version": "0.1.0"}, {"category": "security-compliance", "created_at": 1772781083130, "description": "Provides IT MSP tools for Azure/M365 audits, NPU monitoring, and firewall, SSH, and system health checks.", "description_zh": "", "downloads": 518, "homepage": "https://clawhub.ai/phibuc87/msp-toolkit", "iconUrl": null, "installs": 6, "name": "EDI MSP Toolkit", "ownerName": "phibuc87", "score": 88245.31516183987, "slug": "msp-toolkit", "source": "clawhub", "stars": 0, "tags": null, "updated_at": 1776759082391, "version": "1.0.0"}, {"category": "developer-tools", "created_at": 1772776954673, "description": "Integrate with Moodle 4.x via REST Web Services to create courses, manage enrollments, activities, grades, and list courses or students.", "description_zh": "", "downloads": 518, "homepage": "https://clawhub.ai/exeandino/moodle-ws-skill", "iconUrl": null, "installs": 8, "name": "Moodle Web Services Skill", "ownerName": "exeandino", "score": 95395.94843462246, "slug": "moodle-ws-skill", "source": "clawhub", "stars": 0, "tags": ["api", "automation", "external", "integration", "lms", "moodle", "rest", "skill", "webservices"], "updated_at": 1776748185005, "version": "1.0.0"}, {"category": "developer-tools", "created_at": 1772782426608, "description": "Decision validation and thinking frameworks for startup founders. Use when you need to pressure-test a decision, validate your next steps, think through stra...", "description_zh": "", "downloads": 518, "homepage": "https://clawhub.ai/xeroc/founder-playbook", "iconUrl": null, "installs": 14, "name": "Founder Playbook", "ownerName": "xeroc", "score": 89930.55555555556, "slug": "founder-playbook", "source": "clawhub", "stars": 0, "tags": null, "updated_at": 1776748184616, "version": "1.0.0"}, {"category": "data-analysis", "created_at": 1772777478625, "description": "Generate and send a 5-day Tübingen weather graphic (PNG) from open-meteo.com. Use when Master wants a nicer visual forecast plus summary text for the next few days.", "description_zh": "", "downloads": 518, "homepage": "https://clawhub.ai/zopyx/tuebingen-weather-graphics", "iconUrl": null, "installs": 18, "name": "Tübingen Weather Graphics", "ownerName": "zopyx", "score": 88245.31516183987, "slug": "tuebingen-weather-graphics", "source": "clawhub", "stars": 0, "tags": null, "updated_at": 1776748184554, "version": "1.0.0"}, {"category": "developer-tools", "created_at": 1772776870925, "description": "Ethical framework for AI agents inspired by the Bahá'í Writings. Use when facing morally complex requests, navigating conflicting interests, uncertain about the right action, handling requests that could cause harm, or when ethical reasoning would improve response quality. Provides 11 core principles, decision frameworks, and practical guidance for justice, truthfulness, service, and unity.", "description_zh": "", "downloads": 518, "homepage": "https://clawhub.ai/pescehead/moral-compass", "iconUrl": null, "installs": 11, "name": "Moral Compass", "ownerName": "pescehead", "score": 89310.3448275862, "slug": "moral-compass", "source": "clawhub", "stars": 0, "tags": null, "updated_at": 1776748183790, "version": "1.0.0"}, {"category": "ai-intelligence", "created_at": 1772782188861, "description": "Enables AI agents to autonomously browse lifestyle and wellness products, place multi-chain crypto orders with CULT discounts, and track shipments from For t...", "description_zh": "", "downloads": 517, "homepage": "https://clawhub.ai/bythecult/shop-culture", "iconUrl": null, "installs": 22, "name": "Agentic Commerce — Lifestyle, Wellness, & Gifts", "ownerName": "bythecult", "score": 41076.69616519174, "slug": "shop-culture", "source": "clawhub", "stars": 2, "tags": null, "updated_at": 1776759083533, "version": "1.0.12"}, {"category": "communication-collaboration", "created_at": 1772785821334, "description": "Collect invoices/receipts from Gmail and send a summary email with attachments. Automatically downloads PDF attachments or takes screenshots of emails withou...", "description_zh": "", "downloads": 517, "homepage": "https://clawhub.ai/mintannn/invoice-collector", "iconUrl": null, "installs": 15, "name": "Invoice Collector", "ownerName": "mintannn", "score": 99464.28571428571, "slug": "invoice-collector", "source": "clawhub", "stars": 2, "tags": null, "updated_at": 1776748185026, "version": "1.2.0"}, {"category": "productivity", "created_at": 1772777919707, "description": "Query Linz public transport stops for IDs and fetch live upcoming departures using Linz Linien EFA endpoints.", "description_zh": "", "downloads": 517, "homepage": "https://clawhub.ai/fjrevoredo/linz-public-transport", "iconUrl": null, "installs": 12, "name": "Linz Public Transport", "ownerName": "fjrevoredo", "score": 100000, "slug": "linz-public-transport", "source": "clawhub", "stars": 2, "tags": null, "updated_at": 1776748183944, "version": "1.0.1"}, {"category": "developer-tools", "created_at": 1772801992374, "description": "Places outbound phone calls, sends outbound SMS texts, and reserves dedicated phone numbers on the user's behalf using the Poku API and the exec tool. Use wh...", "description_zh": "", "downloads": 517, "homepage": "https://clawhub.ai/emileindik/poku", "iconUrl": null, "installs": 6, "name": "Poku", "ownerName": "emileindik", "score": 31775.147928994083, "slug": "poku", "source": "clawhub", "stars": 1, "tags": null, "updated_at": 1776756188918, "version": "1.0.12"}, {"category": "data-analysis", "created_at": 1772780402668, "description": "Perform triangular arbitrage on Hedera using SaucerSwap to find, calculate, and execute profitable multi-hop token swaps atomically.", "description_zh": "", "downloads": 517, "homepage": "https://clawhub.ai/harleyscodes/saucerswap-arbitrage", "iconUrl": null, "installs": 18, "name": "SaucerSwap Arbitrage", "ownerName": "harleyscodes", "score": 15771.812080536913, "slug": "saucerswap-arbitrage", "source": "clawhub", "stars": 0, "tags": null, "updated_at": 1776765971199, "version": "1.0.0"}, {"category": "security-compliance", "created_at": 1772778953575, "description": "Enables authenticated interaction with Slack for sending, editing, deleting, reacting to, and managing messages and pins via a secure bot token.", "description_zh": "", "downloads": 517, "homepage": "https://clawhub.ai/rk905/geeksdobyte-slack-botskill", "iconUrl": null, "installs": 7, "name": "Slack Actions", "ownerName": "rk905", "score": 7966.101694915254, "slug": "geeksdobyte-slack-botskill", "source": "clawhub", "stars": 0, "tags": null, "updated_at": 1776765850217, "version": "0.1.1"}, {"category": "ai-intelligence", "created_at": 1772784680507, "description": "AI prediction market platform. Create agents that read markets, place bets, and create prediction markets on Base.", "description_zh": "", "downloads": 517, "homepage": "https://clawhub.ai/silencepolicy/robodotfun", "iconUrl": null, "installs": 12, "name": "robo.fun", "ownerName": "silencepolicy", "score": 37545.38852578068, "slug": "robodotfun", "source": "clawhub", "stars": 0, "tags": null, "updated_at": 1776759083005, "version": "1.0.3"}, {"category": "data-analysis", "created_at": 1773057032720, "description": "Automatically executes trading decisions every 10 minutes using dual AI analysis, technical indicators, and strict risk and position management rules for BTC...", "description_zh": "", "downloads": 517, "homepage": "https://clawhub.ai/wuzimaki/crypto-trading", "iconUrl": null, "installs": 33, "name": "Crypto Trading", "ownerName": "wuzimaki", "score": 37572.67441860465, "slug": "crypto-trading", "source": "clawhub", "stars": 0, "tags": null, "updated_at": 1776759082915, "version": "1.0.0"}, {"category": "data-analysis", "created_at": 1772779933332, "description": "Scan and compare USDC yield farming APYs on Base and Arbitrum, analyze vault performance, breakeven migration, and protocol risk using live DeFiLlama data.", "description_zh": "", "downloads": 517, "homepage": "https://clawhub.ai/joaoolucas/defi-yield-scout", "iconUrl": null, "installs": 13, "name": "DeFi Yield Scout", "ownerName": "joaoolucas", "score": 37820.04389173372, "slug": "defi-yield-scout", "source": "clawhub", "stars": 0, "tags": null, "updated_at": 1776759082448, "version": "1.0.0"}, {"category": "ai-intelligence", "created_at": 1772780330414, "description": "Onchain trade execution engine. Feed a CA + score, get full trade lifecycle — sized entry, mode-based exits, on-chain verification, and trade logging. Requires Bankr skill.", "description_zh": "", "downloads": 517, "homepage": "https://clawhub.ai/riskanon/tradr", "iconUrl": null, "installs": 20, "name": "tradr", "ownerName": "riskanon", "score": 88984.50946643717, "slug": "tradr", "source": "clawhub", "stars": 0, "tags": null, "updated_at": 1776748185300, "version": "1.0.0"}, {"category": "developer-tools", "created_at": 1773417789411, "description": "Local git operations for project management. Use when: (1) creating branches for new features/issues, (2) committing and pushing code, (3) pulling latest cha...", "description_zh": "", "downloads": 517, "homepage": "https://clawhub.ai/zhulaoqi/git-hub-issus", "iconUrl": null, "installs": 12, "name": "git-hub-issus", "ownerName": "zhulaoqi", "score": 92818.67145421903, "slug": "git-hub-issus", "source": "clawhub", "stars": 0, "tags": null, "updated_at": 1776748184380, "version": "1.0.0"}, {"category": "ai-intelligence", "created_at": 1772782905497, "description": "AI agent for call claude sonnet 4 agent tasks", "description_zh": "", "downloads": 517, "homepage": "https://clawhub.ai/teamolab/call-claude-sonnet-4-agent", "iconUrl": null, "installs": 28, "name": "Call Claude Sonnet 4 Agent", "ownerName": "teamolab", "score": 91021.12676056338, "slug": "call-claude-sonnet-4-agent", "source": "clawhub", "stars": 0, "tags": null, "updated_at": 1776748184303, "version": "0.1.0"}, {"category": "developer-tools", "created_at": 1772788275389, "description": "Guide skill for controlling native Windows apps (UIA) and web browsers (Playwright) via the handsfree-windows CLI. Use when you need to automate or test desk...", "description_zh": "", "downloads": 517, "homepage": "https://clawhub.ai/lijinlar/handsfree-windows-control", "iconUrl": null, "installs": 38, "name": "Handsfree Windows Control", "ownerName": "lijinlar", "score": 89446.36678200692, "slug": "handsfree-windows-control", "source": "clawhub", "stars": 0, "tags": ["automation", "browser", "desktop", "openclaw", "playwright", "testing", "uia", "windows"], "updated_at": 1776748184080, "version": "1.3.0"}, {"category": "security-compliance", "created_at": 1772777749616, "description": "Security audit tool for ClawHub skills. Scans a skill directory with 65 detection patterns, anti-obfuscation analysis, and dual rating system (Security + Com...", "description_zh": "", "downloads": 517, "homepage": "https://clawhub.ai/yx2601816404-sys/skill-shield", "iconUrl": null, "installs": 7, "name": "Skill", "ownerName": "yx2601816404-sys", "score": 89446.36678200692, "slug": "skill-shield", "source": "clawhub", "stars": 0, "tags": ["audit", "security"], "updated_at": 1776748184017, "version": "0.6.1"}, {"category": "developer-tools", "created_at": 1772779274097, "description": "Battle-tested toolkit for Moltbook platform engagement. Use when: (1) Posting or commenting on Moltbook with built-in deduplication protection, (2) Scanning...", "description_zh": "", "downloads": 517, "homepage": "https://clawhub.ai/yoder-bawt/moltbook-engagement", "iconUrl": null, "installs": 7, "name": "Moltbook Engagement", "ownerName": "yoder-bawt", "score": 88831.6151202749, "slug": "moltbook-engagement", "source": "clawhub", "stars": 0, "tags": ["api", "engagement", "moltbook", "social"], "updated_at": 1776748183781, "version": "1.0.0"}, {"category": "developer-tools", "created_at": 1772783300959, "description": "Plan and scope a Minimum Viable Product for a solopreneur. Use when deciding what to build first, what to cut, how to prioritize features, how to define \"don...", "description_zh": "", "downloads": 516, "homepage": "https://clawhub.ai/jk-0001/mvp-planning", "iconUrl": null, "installs": 21, "name": "Mvp Planning", "ownerName": "jk-0001", "score": 98059.96472663138, "slug": "mvp-planning", "source": "clawhub", "stars": 2, "tags": null, "updated_at": 1776748185716, "version": "0.1.0"}, {"category": "productivity", "created_at": 1772781506645, "description": "Locate places using flexible query formats - free-form search or structured address components. Returns coordinates, addresses, and optional street-level pho...", "description_zh": "", "downloads": 516, "homepage": "https://clawhub.ai/james-southendsolutions/camino-places", "iconUrl": null, "installs": 19, "name": "Places Search", "ownerName": "james-southendsolutions", "score": 95862.06896551725, "slug": "camino-places", "source": "clawhub", "stars": 2, "tags": null, "updated_at": 1776748185580, "version": "0.2.0"}, {"category": "developer-tools", "created_at": 1772780125281, "description": "LLM-friendly keyword research CLI for AI agents. Check search volume, CPC, keyword difficulty, and competition via DataForSEO API. Find related keywords, ana...", "description_zh": "", "downloads": 516, "homepage": "https://clawhub.ai/alexgusevski/dataforseo-cli", "iconUrl": null, "installs": 8, "name": "dataforseo-cli", "ownerName": "alexgusevski", "score": 96695.65217391304, "slug": "dataforseo-cli", "source": "clawhub", "stars": 2, "tags": null, "updated_at": 1776748184804, "version": "1.0.7"}, {"category": "security-compliance", "created_at": 1772784537674, "description": "Transform an Android phone with IP Webcam into an intelligent Edge AI security system with OpenClaw.", "description_zh": "", "downloads": 516, "homepage": "https://clawhub.ai/alihmaou/ipwebcam", "iconUrl": null, "installs": 29, "name": "Android IP Webcam monitoring and alert", "ownerName": "alihmaou", "score": 96695.65217391304, "slug": "ipwebcam", "source": "clawhub", "stars": 2, "tags": null, "updated_at": 1776748184745, "version": "1.0.0"}, {"category": "data-analysis", "created_at": 1773060426201, "description": "Structured, multi-dimensional company investment research framework for AI agents and human analysts. Provides a 10-part checklist (moat, tech, market, custo...", "description_zh": "", "downloads": 516, "homepage": "https://clawhub.ai/dufu2000/company-investment-research", "iconUrl": null, "installs": 30, "name": "Company Investment Research", "ownerName": "dufu2000", "score": 99820.46678635548, "slug": "company-investment-research", "source": "clawhub", "stars": 2, "tags": null, "updated_at": 1776748183972, "version": "0.3.0"}, {"category": "developer-tools", "created_at": 1772776759934, "description": "AI-powered social media publishing for LinkedIn and X (Twitter) with algorithm optimization and scheduling.", "description_zh": "", "downloads": 516, "homepage": "https://clawhub.ai/acidias/clawpost-2", "iconUrl": null, "installs": 10, "name": "Clawpost", "ownerName": "acidias", "score": 95532.64604810996, "slug": "clawpost-2", "source": "clawhub", "stars": 2, "tags": null, "updated_at": 1776748183718, "version": "0.1.3"}, {"category": "content-creation", "created_at": 1772799640443, "description": "A collection of PDF manipulation tools from the poppler-utils package. Use when working with PDF files - extracting text, images, metadata, splitting, mergin...", "description_zh": "", "downloads": 516, "homepage": "https://clawhub.ai/xlionjuan/pdf-poppler-utils", "iconUrl": null, "installs": 141, "name": "Pdf Poppler Utils", "ownerName": "xlionjuan", "score": 56960.68012752391, "slug": "pdf-poppler-utils", "source": "clawhub", "stars": 1, "tags": null, "updated_at": 1776767049917, "version": "1.0.0"}, {"category": "content-creation", "created_at": 1772784070454, "description": "Post and manage content on the Moldium blog platform. Triggered by \"post to Moldium\", \"write a blog post\", \"publish an article\", etc.", "description_zh": "", "downloads": 516, "homepage": "https://clawhub.ai/zyom45/moldium", "iconUrl": null, "installs": 27, "name": "Moldium", "ownerName": "zyom45", "score": 37746.891002194585, "slug": "moldium", "source": "clawhub", "stars": 0, "tags": null, "updated_at": 1776759083660, "version": "1.0.10"}, {"category": "developer-tools", "created_at": 1772778050464, "description": "Provides a prioritized set of 80 essential MSBuild CLI commands for restoring, building, testing, publishing, packaging, diagnosing, and CI-hardening .NET/AS...", "description_zh": "", "downloads": 516, "homepage": "https://clawhub.ai/thecybercore/msbuild", "iconUrl": null, "installs": 9, "name": "MSBuild Top 80 Commands", "ownerName": "thecybercore", "score": 38053.097345132745, "slug": "msbuild", "source": "clawhub", "stars": 0, "tags": null, "updated_at": 1776759083518, "version": "1.0.0"}, {"category": "content-creation", "created_at": 1772783009991, "description": "Agent Skill for Swift architecture design and implementation patterns, with architecture-specific playbooks and review checklists. Use when designing new fea...", "description_zh": "", "downloads": 516, "homepage": "https://clawhub.ai/efremidze/swift-architecture-skill", "iconUrl": null, "installs": 42, "name": "Swift Architecture Skill", "ownerName": "efremidze", "score": 90209.79020979021, "slug": "swift-architecture-skill", "source": "clawhub", "stars": 0, "tags": null, "updated_at": 1776752684316, "version": "0.3.1"}, {"category": "productivity", "created_at": 1772778478385, "description": "Investigate an open-source project before interacting with it — PRs, issues, or comments. Use BEFORE: filing an issue, submitting a PR, or commenting on an e...", "description_zh": "", "downloads": 516, "homepage": "https://clawhub.ai/semmyt/upstream-recon", "iconUrl": null, "installs": 11, "name": "Upstream Recon", "ownerName": "semmyt", "score": 90526.3157894737, "slug": "upstream-recon", "source": "clawhub", "stars": 0, "tags": null, "updated_at": 1776748185743, "version": "1.0.0"}, {"category": "developer-tools", "created_at": 1773076104847, "description": "Your OpenClaw agent forgets everything between sessions — after /new, after compaction, after overnight. Clever Compact fixes all three: injects your last st...", "description_zh": "", "downloads": 516, "homepage": "https://clawhub.ai/jfulmines-star/clever-compact", "iconUrl": null, "installs": 9, "name": "Clever Compact", "ownerName": "jfulmines-star", "score": 88965.5172413793, "slug": "clever-compact", "source": "clawhub", "stars": 0, "tags": ["/new", "amnesia", "compaction", "context", "hallucination", "memory", "power-user", "productivity"], "updated_at": 1776748185604, "version": "2.2.3"}, {"category": "ai-intelligence", "created_at": 1772781761108, "description": "Transform raw brain dumps (dictated freestyle) into structured implementation artifacts. Use when user has messy ideas, scattered thoughts, or dictated strea...", "description_zh": "", "downloads": 516, "homepage": "https://clawhub.ai/skidvis/openclaw-skill-ideation", "iconUrl": null, "installs": 22, "name": "openclaw-skill-ideation", "ownerName": "skidvis", "score": 92142.85714285713, "slug": "openclaw-skill-ideation", "source": "clawhub", "stars": 0, "tags": null, "updated_at": 1776748185031, "version": "0.1.0"}, {"category": "security-compliance", "created_at": 1773869458669, "description": "Security-first skill vetting for AI agents. Use before installing any skill from ClawdHub, GitHub, or other sources. Checks for red flags, permission scope,...", "description_zh": "", "downloads": 516, "homepage": "https://clawhub.ai/h-harry/skill-vetter-1", "iconUrl": null, "installs": 94, "name": "Skill Vetter 1", "ownerName": "h-harry", "score": 89739.13043478261, "slug": "skill-vetter-1", "source": "clawhub", "stars": 0, "tags": null, "updated_at": 1776748184798, "version": "1.0.0"}, {"category": "developer-tools", "created_at": 1772782321921, "description": "Search Kroger products and add items to a Kroger cart via the Kroger API. Use when a user asks to find groceries, add items to their Kroger cart, look up Kro...", "description_zh": "", "downloads": 516, "homepage": "https://clawhub.ai/tongyanli-hash/kroger", "iconUrl": null, "installs": 8, "name": "kroger", "ownerName": "tongyanli-hash", "score": 89739.13043478261, "slug": "kroger", "source": "clawhub", "stars": 0, "tags": null, "updated_at": 1776748184757, "version": "1.0.0"}, {"category": "content-creation", "created_at": 1772785971977, "description": "Generate social media content pack from PRD — LinkedIn post, Reddit answer draft, and Twitter/X thread. Use when user says \"create content\", \"write LinkedIn...", "description_zh": "", "downloads": 516, "homepage": "https://clawhub.ai/fortunto2/solo-content-gen", "iconUrl": null, "installs": 27, "name": "Content Gen", "ownerName": "fortunto2", "score": 92639.13824057451, "slug": "solo-content-gen", "source": "clawhub", "stars": 0, "tags": null, "updated_at": 1776748184359, "version": "1.1.1"}]}