{"page": 172, "total_pages": 522, "total": 26073, "skills": [{"category": "ai-intelligence", "created_at": 1772789529451, "description": "EvoAgentX - Self-evolving AI agents framework integration", "description_zh": "", "downloads": 516, "homepage": "https://clawhub.ai/nantes/evoagentx", "iconUrl": null, "installs": 45, "name": "Evoagentx", "ownerName": "nantes", "score": 90845.07042253521, "slug": "evoagentx", "source": "clawhub", "stars": 0, "tags": null, "updated_at": 1776748184320, "version": "1.0.1"}, {"category": "developer-tools", "created_at": 1772778832689, "description": "Manage Omadeus entities via the Omadeus REST API.", "description_zh": "", "downloads": 516, "homepage": "https://clawhub.ai/mohammadsheikhian/omadeus", "iconUrl": null, "installs": 5, "name": "omadeus", "ownerName": "mohammadsheikhian", "score": 88659.79381443298, "slug": "omadeus", "source": "clawhub", "stars": 0, "tags": null, "updated_at": 1776748183749, "version": "1.0.1"}, {"category": "communication-collaboration", "created_at": 1772783606310, "description": "Secure, sequenced, PGP-signed email mesh for agent-to-agent coordination via plain email", "description_zh": "", "downloads": 515, "homepage": "https://clawhub.ai/zachlagden/interclaw", "iconUrl": null, "installs": 12, "name": "InterClaw", "ownerName": "zachlagden", "score": 97368.42105263159, "slug": "interclaw", "source": "clawhub", "stars": 2, "tags": ["communication", "email", "handshake", "mesh", "pgp", "secure"], "updated_at": 1776759083283, "version": "0.1.9"}, {"category": "data-analysis", "created_at": 1772798685071, "description": "Universal ComfyUI workflow executor with 33+ workflow templates. Self-describing — use --inspect on ANY workflow to discover inputs and outputs automatically...", "description_zh": "", "downloads": 515, "homepage": "https://clawhub.ai/yiqiliu2/comfyui-workflow", "iconUrl": null, "installs": 97, "name": "Comfyui Workflow", "ownerName": "yiqiliu2", "score": 94548.55195911413, "slug": "comfyui-workflow", "source": "clawhub", "stars": 2, "tags": null, "updated_at": 1776750883851, "version": "1.1.0"}, {"category": "developer-tools", "created_at": 1772782084856, "description": "Create detailed go-to-market plans covering positioning, channel strategy, pricing, launch timeline, and success metrics for product or market launches.", "description_zh": "", "downloads": 515, "homepage": "https://clawhub.ai/1kalin/afrexai-gtm-strategy", "iconUrl": null, "installs": 7, "name": "Go-To-Market Strategy Framework", "ownerName": "1kalin", "score": 39454.27728613569, "slug": "afrexai-gtm-strategy", "source": "clawhub", "stars": 1, "tags": ["go to market", "growth", "gtm", "launch", "marketing strategy"], "updated_at": 1776759083538, "version": "1.0.0"}, {"category": "content-creation", "created_at": 1773906978231, "description": "Create beautiful visual art in .png and .pdf documents using design philosophy. You should use this skill when the user asks to create a poster, piece of art...", "description_zh": "", "downloads": 515, "homepage": "https://clawhub.ai/hsuyungfeng/canvas-design-pro", "iconUrl": null, "installs": 138, "name": "Canvas Design Pro", "ownerName": "hsuyungfeng", "score": 5856.931650176277, "slug": "canvas-design-pro", "source": "clawhub", "stars": 0, "tags": null, "updated_at": 1776764690741, "version": "1.0.0"}, {"category": "data-analysis", "created_at": 1772778710432, "description": "Fetch clean, token-efficient Markdown from any URL using markdown.new, optimized for deep analysis with JS support and stripped of boilerplate content.", "description_zh": "", "downloads": 515, "homepage": "https://clawhub.ai/thendcn/mdnew", "iconUrl": null, "installs": 7, "name": "Mdnew", "ownerName": "thendcn", "score": 18249.46846208363, "slug": "mdnew", "source": "clawhub", "stars": 0, "tags": null, "updated_at": 1776763450115, "version": "1.0.0"}, {"category": "security-compliance", "created_at": 1772785378732, "description": "Generate detailed ESG reports aligned with 2026 standards, covering materiality, environmental, social, governance metrics, compliance, scoring, and actionab...", "description_zh": "", "downloads": 515, "homepage": "https://clawhub.ai/1kalin/afrexai-esg-reporting", "iconUrl": null, "installs": 20, "name": "ESG Reporting Framework", "ownerName": "1kalin", "score": 37563.822027717, "slug": "afrexai-esg-reporting", "source": "clawhub", "stars": 0, "tags": ["compliance", "csrd", "esg", "reporting", "sustainability"], "updated_at": 1776759083788, "version": "1.0.0"}, {"category": "security-compliance", "created_at": 1772794500087, "description": "Manage NotebookLM MCP auth lifecycle on Linux by automating GUI startup, auth refresh, status check, and cleanup for frequent cookie expiry.", "description_zh": "", "downloads": 515, "homepage": "https://clawhub.ai/spiceman161/notebooklm-ops", "iconUrl": null, "installs": 31, "name": "NotebookLM Ops", "ownerName": "spiceman161", "score": 35615.491009681886, "slug": "notebooklm-ops", "source": "clawhub", "stars": 0, "tags": ["auth", "automation", "mcp", "notebooklm"], "updated_at": 1776759082985, "version": "1.0.0"}, {"category": "data-analysis", "created_at": 1772787106426, "description": "Build reliable, well-documented spreadsheets with clear architecture, error handling, named ranges, and platform-agnostic formulas for finance, dashboards, a...", "description_zh": "", "downloads": 515, "homepage": "https://clawhub.ai/1kalin/afrexai-spreadsheet-engineering", "iconUrl": null, "installs": 20, "name": "Spreadsheet Engineering", "ownerName": "1kalin", "score": 38007.38007380074, "slug": "afrexai-spreadsheet-engineering", "source": "clawhub", "stars": 0, "tags": ["automation", "dashboard", "data", "excel", "financial-model", "formulas", "google-sheets", "spreadsheet"], "updated_at": 1776759082484, "version": "1.0.0"}, {"category": "security-compliance", "created_at": 1772783756635, "description": "Navigate enterprise software development with legacy integration, compliance requirements, stakeholder management, and architectural decisions at scale.", "description_zh": "", "downloads": 515, "homepage": "https://clawhub.ai/ivangdavila/enterprise", "iconUrl": null, "installs": 40, "name": "Enterprise", "ownerName": "ivangdavila", "score": 90828.92416225749, "slug": "enterprise", "source": "clawhub", "stars": 0, "tags": null, "updated_at": 1776748185713, "version": "1.0.0"}, {"category": "data-analysis", "created_at": 1772782472747, "description": "Review OpenRouter usage, analytics, and troubleshooting data via API. Use when the user asks for spend/usage monitoring, activity trends, per-key management...", "description_zh": "", "downloads": 515, "homepage": "https://clawhub.ai/plgonzalezrx8/openrouter-analytics", "iconUrl": null, "installs": 10, "name": "OpenRouter Analytics", "ownerName": "plgonzalezrx8", "score": 89565.21739130435, "slug": "openrouter-analytics", "source": "clawhub", "stars": 0, "tags": null, "updated_at": 1776748184793, "version": "1.0.0"}, {"category": "productivity", "created_at": 1772781462923, "description": "Create a Linkfuse affiliate short link from any URL. Trigger this skill when the user wants to create a Linkfuse link, shorten an affiliate URL, or says \"/li...", "description_zh": "", "downloads": 515, "homepage": "https://clawhub.ai/oliverw/linkfuse", "iconUrl": null, "installs": 10, "name": "Linkfuse", "ownerName": "oliverw", "score": 89565.21739130435, "slug": "linkfuse", "source": "clawhub", "stars": 0, "tags": null, "updated_at": 1776748184786, "version": "1.0.4"}, {"category": "ai-intelligence", "created_at": 1772780860403, "description": "Help recruiters publish job postings to the job matching system. Use when users want to: (1) post a job, (2) publish a position, (3) hire someone, (4) recruit candidates, (5) find employees, or (6) advertise job openings. Supports flexible information collection - users can provide all details at once or be guided through step-by-step. Automatically creates recruiter account, generates job vectors, and enables AI-powered candidate matching.", "description_zh": "", "downloads": 515, "homepage": "https://clawhub.ai/imluyu/jobclaw-recruit", "iconUrl": null, "installs": 25, "name": "Jobclaw Recruit", "ownerName": "imluyu", "score": 87734.24190800682, "slug": "jobclaw-recruit", "source": "clawhub", "stars": 0, "tags": null, "updated_at": 1776748184586, "version": "1.0.0"}, {"category": "content-creation", "created_at": 1772782836055, "description": "Search and download licensed music from Trackyard's AI-powered catalog. Use for finding background music for videos, social content, podcasts, or any project...", "description_zh": "", "downloads": 515, "homepage": "https://clawhub.ai/benny-conn/trackyard", "iconUrl": null, "installs": 46, "name": "Trackyard", "ownerName": "benny-conn", "score": 88793.10344827587, "slug": "trackyard", "source": "clawhub", "stars": 0, "tags": null, "updated_at": 1776748183827, "version": "1.0.2"}, {"category": "developer-tools", "created_at": 1772789771246, "description": "Control Chrome browser with AI using MCP protocol. Use when users want to automate browser tasks, take screenshots, fill forms, click elements, navigate page...", "description_zh": "", "downloads": 514, "homepage": "https://clawhub.ai/femto/browser-automation-2", "iconUrl": null, "installs": 33, "name": "Browser Automation", "ownerName": "femto", "score": 18849.94896223205, "slug": "browser-automation-2", "source": "clawhub", "stars": 2, "tags": null, "updated_at": 1776769271034, "version": "0.1.0"}, {"category": "data-analysis", "created_at": 1772782867610, "description": "Conduct AI-led research with autonomous literature review, hypothesis generation, analysis, and synthesis while human provides vision.", "description_zh": "", "downloads": 514, "homepage": "https://clawhub.ai/ivangdavila/vibe-research", "iconUrl": null, "installs": 43, "name": "Vibe Research", "ownerName": "ivangdavila", "score": 7671.00526170036, "slug": "vibe-research", "source": "clawhub", "stars": 2, "tags": null, "updated_at": 1776764090542, "version": "1.0.0"}, {"category": "developer-tools", "created_at": 1772782518298, "description": "Fetch real-time social media data from X (Twitter) and Reddit by keyword, username, date range, and filters with engagement metrics via Macrocosmos SN13 API.", "description_zh": "", "downloads": 514, "homepage": "https://clawhub.ai/arrmlet/social-data", "iconUrl": null, "installs": 12, "name": "Macrocosmos", "ownerName": "arrmlet", "score": 40526.70080468179, "slug": "social-data", "source": "clawhub", "stars": 2, "tags": null, "updated_at": 1776759083461, "version": "1.0.4"}, {"category": "developer-tools", "created_at": 1772780647445, "description": "A powerful skill to control Open Code CLI via a local web server API. Allows executing commands, managing sessions, and automating code generation remotely i...", "description_zh": "", "downloads": 514, "homepage": "https://clawhub.ai/malek262/opencode-api-control-skill", "iconUrl": null, "installs": 15, "name": "OpenCode CLI  API Controller", "ownerName": "malek262", "score": 94378.19420783645, "slug": "opencode-api-control-skill", "source": "clawhub", "stars": 2, "tags": null, "updated_at": 1776748183648, "version": "1.1.0"}, {"category": "ai-intelligence", "created_at": 1772780535029, "description": "Automate accounts payable with invoice processing, approval routing, payment optimization, vendor management, month-end close, key metrics, and fraud prevent...", "description_zh": "", "downloads": 514, "homepage": "https://clawhub.ai/1kalin/afrexai-accounts-payable", "iconUrl": null, "installs": 15, "name": "Accounts Payable Automation", "ownerName": "1kalin", "score": 90973.45132743364, "slug": "afrexai-accounts-payable", "source": "clawhub", "stars": 0, "tags": ["accounting", "ap", "automation", "finance"], "updated_at": 1776759083605, "version": "1.0.0"}, {"category": "data-analysis", "created_at": 1772785155161, "description": "Run PinchBench benchmarks to evaluate OpenClaw agent performance across real-world tasks. Use when testing model capabilities, comparing models, submitting b...", "description_zh": "", "downloads": 514, "homepage": "https://clawhub.ai/olearycrew/pinchbench", "iconUrl": null, "installs": 8, "name": "PinchBench", "ownerName": "olearycrew", "score": 37905.604719764015, "slug": "pinchbench", "source": "clawhub", "stars": 0, "tags": null, "updated_at": 1776759083531, "version": "1.0.0"}, {"category": "ai-intelligence", "created_at": 1772780474871, "description": "Provides a daily motivational quote in response to requests for inspiration or quotes for today.", "description_zh": "", "downloads": 514, "homepage": "https://clawhub.ai/rk905/geeksdobyte-motivation-skill", "iconUrl": null, "installs": 17, "name": "Motivation Skill", "ownerName": "rk905", "score": 37710.93176815847, "slug": "geeksdobyte-motivation-skill", "source": "clawhub", "stars": 0, "tags": null, "updated_at": 1776759083096, "version": "0.1.0"}, {"category": "ai-intelligence", "created_at": 1772781429918, "description": "Set up and manage cards and crypto wallets for paying for services.", "description_zh": "", "downloads": 514, "homepage": "https://clawhub.ai/jpbonch/agentspend", "iconUrl": null, "installs": 14, "name": "AgentSpend", "ownerName": "jpbonch", "score": 37490.882567469, "slug": "agentspend", "source": "clawhub", "stars": 0, "tags": null, "updated_at": 1776759082669, "version": "0.1.3"}, {"category": "content-creation", "created_at": 1772787281249, "description": "Vote and submit AI verdicts on ethical, cultural, and content cases alongside human crowds. Includes an autonomous heartbeat orchestrator (heartbeat.mjs) tha...", "description_zh": "", "downloads": 514, "homepage": "https://clawhub.ai/drdrewcain/judge-human", "iconUrl": null, "installs": 33, "name": "Judge Human", "ownerName": "drdrewcain", "score": 37600.585223116315, "slug": "judge-human", "source": "clawhub", "stars": 0, "tags": null, "updated_at": 1776759082473, "version": "1.0.6"}, {"category": "data-analysis", "created_at": 1772790520352, "description": "Analyze any webpage URL for SEO issues and get actionable recommendations. Checks title tags, meta descriptions, heading structure, keyword density, image al...", "description_zh": "", "downloads": 514, "homepage": "https://clawhub.ai/claudiodrusus/shelly-seo-analyzer", "iconUrl": null, "installs": 36, "name": "SEO Analyzer", "ownerName": "claudiodrusus", "score": 32306.725329981145, "slug": "shelly-seo-analyzer", "source": "clawhub", "stars": 0, "tags": null, "updated_at": 1776757282381, "version": "1.0.0"}, {"category": "developer-tools", "created_at": 1772776817345, "description": "Fast on-device speech-to-text transcription on macOS 26+ using Apple Speech.framework, supporting multiple languages and output formats without model downloads.", "description_zh": "", "downloads": 514, "homepage": "https://clawhub.ai/tobihagemann/yap", "iconUrl": null, "installs": 18, "name": "yap", "ownerName": "tobihagemann", "score": 88620.68965517242, "slug": "yap", "source": "clawhub", "stars": 0, "tags": null, "updated_at": 1776748185394, "version": "1.0.1"}, {"category": "content-creation", "created_at": 1772782453784, "description": "Create KSVC-validated Twitter content from research PDFs. Content types: long threads, quick takes, breaking news, shitposts, personal commentary, victory la...", "description_zh": "", "downloads": 514, "homepage": "https://clawhub.ai/lukerspace/kirk-content-pipeline", "iconUrl": null, "installs": 28, "name": "Kirk Content Pipeline", "ownerName": "lukerspace", "score": 88468.15834767642, "slug": "kirk-content-pipeline", "source": "clawhub", "stars": 0, "tags": null, "updated_at": 1776748185317, "version": "1.0.0"}, {"category": "ai-intelligence", "created_at": 1772780767288, "description": "Route tasks needing real human judgment, local knowledge, or cultural insight to verified workers paid via cUSD on Celo, for verification, translation, moder...", "description_zh": "", "downloads": 514, "homepage": "https://clawhub.ai/seesayearn-boop/loopuman", "iconUrl": null, "installs": 30, "name": "Loopuman", "ownerName": "seesayearn-boop", "score": 92947.55877034359, "slug": "loopuman", "source": "clawhub", "stars": 0, "tags": null, "updated_at": 1776748185111, "version": "0.1.0"}, {"category": "ai-intelligence", "created_at": 1772779213654, "description": "Trade Polymarket US temperature markets using NOAA forecasts with dynamic confidence, quality filtering, and smart trade sizing for improved accuracy and ris...", "description_zh": "", "downloads": 514, "homepage": "https://clawhub.ai/mohamedj2020/weather-trader", "iconUrl": null, "installs": 22, "name": "weather-agent", "ownerName": "mohamedj2020", "score": 89391.30434782608, "slug": "weather-trader", "source": "clawhub", "stars": 0, "tags": null, "updated_at": 1776748184847, "version": "1.0.4"}, {"category": "ai-intelligence", "created_at": 1772779927061, "description": "Play Bot World mining games by controlling AI agents to mine $CRUST on Solana and $WIR on TON, avoiding hazards and battling agents for crypto rewards.", "description_zh": "", "downloads": 514, "homepage": "https://clawhub.ai/alphafanx/botworld-mining", "iconUrl": null, "installs": 24, "name": "Bot World Mining", "ownerName": "alphafanx", "score": 92280.07181328545, "slug": "botworld-mining", "source": "clawhub", "stars": 0, "tags": null, "updated_at": 1776748184453, "version": "1.0.0"}, {"category": "security-compliance", "created_at": 1772783638115, "description": "Run a structured quality control audit on any codebase. Use when asked to QC, audit, review, or check code quality for a project. Supports Python, TypeScript...", "description_zh": "", "downloads": 514, "homepage": "https://clawhub.ai/isonaei/code-qc", "iconUrl": null, "installs": 15, "name": "Code QC", "ownerName": "isonaei", "score": 89703.31588132636, "slug": "code-qc", "source": "clawhub", "stars": 0, "tags": null, "updated_at": 1776748184136, "version": "1.0.0"}, {"category": "developer-tools", "created_at": 1772790430609, "description": "Complete Notion API for databases, pages, blocks, users, search, comments, and property types with pagination and error handling.", "description_zh": "", "downloads": 514, "homepage": "https://clawhub.ai/ivangdavila/notion-api-integration", "iconUrl": null, "installs": 38, "name": "Notion API Integration", "ownerName": "ivangdavila", "score": 88927.33564013841, "slug": "notion-api-integration", "source": "clawhub", "stars": 0, "tags": null, "updated_at": 1776748184086, "version": "1.0.2"}, {"category": "security-compliance", "created_at": 1772777897787, "description": "Comprehensive security audit for OpenClaw deployments. Checks Docker port bindings, SSH config, openclaw.json settings, file permissions, exposed services, a...", "description_zh": "", "downloads": 514, "homepage": "https://clawhub.ai/aiwithabidi/security-monitor-deploy", "iconUrl": null, "installs": 10, "name": "Security Monitor Deploy", "ownerName": "aiwithabidi", "score": 92280.07181328545, "slug": "security-monitor-deploy", "source": "clawhub", "stars": 0, "tags": ["agxntsix"], "updated_at": 1776748183992, "version": "1.0.0"}, {"category": "ai-intelligence", "created_at": 1772787786446, "description": "Personalized news briefings from your chosen sources, delivered morning or evening, with voice option and smart filtering.", "description_zh": "", "downloads": 514, "homepage": "https://clawhub.ai/ivangdavila/daily-news-digest", "iconUrl": null, "installs": 23, "name": "Daily News Digest", "ownerName": "ivangdavila", "score": 92280.07181328545, "slug": "daily-news-digest", "source": "clawhub", "stars": 0, "tags": null, "updated_at": 1776748183982, "version": "1.0.0"}, {"category": "security-compliance", "created_at": 1772782107406, "description": "Context window optimizer — analyze, audit, and optimize your agent's context utilization. Know exactly where your tokens go before they're sent.", "description_zh": "", "downloads": 514, "homepage": "https://clawhub.ai/tkuehnl/context-engineer", "iconUrl": null, "installs": 10, "name": "context-engineer", "ownerName": "tkuehnl", "score": 88620.68965517242, "slug": "context-engineer", "source": "clawhub", "stars": 0, "tags": null, "updated_at": 1776748183873, "version": "1.0.2"}, {"category": "developer-tools", "created_at": 1772788792764, "description": "API connector for AetherLang Omega — execute 10 Karpathy-inspired agent node types (plan, code_interpreter, critique, router, ensemble, memory, tool, loop, t...", "description_zh": "", "downloads": 513, "homepage": "https://clawhub.ai/contrario/aetherlang-karpathy-skill", "iconUrl": null, "installs": 16, "name": "Aetherlang Karpathy Skill", "ownerName": "contrario", "score": 97017.54385964913, "slug": "aetherlang-karpathy-skill", "source": "clawhub", "stars": 2, "tags": ["aetherlang", "agent", "ai", "api", "karpathy", "nodes", "orchestration", "workflow"], "updated_at": 1776748185719, "version": "1.0.3"}, {"category": "data-analysis", "created_at": 1773425141862, "description": "Build polished, conversion-aware frontends with strong visual taste, clear hierarchy, and production-grade HTML/CSS/JS. Landing pages, dashboards, components...", "description_zh": "", "downloads": 513, "homepage": "https://clawhub.ai/jeffjhunter/frontend-design-skill", "iconUrl": null, "installs": 28, "name": "Frontend Design", "ownerName": "jeffjhunter", "score": 96383.36347197107, "slug": "frontend-design-skill", "source": "clawhub", "stars": 1, "tags": ["design", "frontend", "html", "web design"], "updated_at": 1776748185148, "version": "1.0.2"}, {"category": "data-analysis", "created_at": 1772776965159, "description": "Trade Polymarket BTC 5-minute and 15-minute fast markets using CEX price momentum signals via Simmer API. Default signal is Binance BTC/USDT klines. Use when...", "description_zh": "", "downloads": 513, "homepage": "https://clawhub.ai/leogordon2004/poly", "iconUrl": null, "installs": 6, "name": "Trading", "ownerName": "leogordon2004", "score": 3201.048296518158, "slug": "poly", "source": "clawhub", "stars": 0, "tags": null, "updated_at": 1776768549879, "version": "1.0.0"}, {"category": "data-analysis", "created_at": 1772792012896, "description": "Download, transcribe, and analyze videos from YouTube, X/Twitter, and TikTok with local Whisper processing. Perfect for extracting TL;DRs, timestamps, and ac...", "description_zh": "", "downloads": 513, "homepage": "https://clawhub.ai/minilozio/video-analyzer-skill", "iconUrl": null, "installs": 32, "name": "Video Analyzer", "ownerName": "minilozio", "score": 28048.11372334609, "slug": "video-analyzer-skill", "source": "clawhub", "stars": 0, "tags": null, "updated_at": 1776764949785, "version": "1.0.1"}, {"category": "productivity", "created_at": 1772781566718, "description": "Migrate moltbot or clawdbot assets to openclaw by discovering, backing up, migrating, verifying files, and reinstalling openclaw automatically.", "description_zh": "", "downloads": 513, "homepage": "https://clawhub.ai/calabiyauman/clawdmigrate", "iconUrl": null, "installs": 9, "name": "clawd-migrate", "ownerName": "calabiyauman", "score": 37417.943107221006, "slug": "clawdmigrate", "source": "clawhub", "stars": 0, "tags": null, "updated_at": 1776759083789, "version": "0.2.1"}, {"category": "developer-tools", "created_at": 1772778221828, "description": "Backup and restore OpenClaw agent memory to IPFS with AES-256-GCM encryption and X1 blockchain CID anchoring", "description_zh": "", "downloads": 513, "homepage": "https://clawhub.ai/lokoweb3/x1-vault-memory", "iconUrl": null, "installs": 9, "name": "X1 Vault Memory", "ownerName": "lokoweb3", "score": 91935.48387096774, "slug": "x1-vault-memory", "source": "clawhub", "stars": 0, "tags": null, "updated_at": 1776759083716, "version": "0.1.10"}, {"category": "communication-collaboration", "created_at": 1772784236261, "description": "AI-powered tool to create, personalize, schedule, send, and track professional email campaigns using Kit (ConvertKit) API integration.", "description_zh": "", "downloads": 513, "homepage": "https://clawhub.ai/kevjade/kit-email-operator", "iconUrl": null, "installs": 24, "name": "Kit Email Marketing Operator", "ownerName": "kevjade", "score": 91935.48387096774, "slug": "kit-email-operator", "source": "clawhub", "stars": 0, "tags": ["convertkit", "email", "kit", "marketing", "premium"], "updated_at": 1776759083710, "version": "1.0.0"}, {"category": "security-compliance", "created_at": 1772781258657, "description": "Performs comprehensive payroll audits including worker classification, overtime, tax withholding accuracy, compliance checklists, and generates detailed repo...", "description_zh": "", "downloads": 513, "homepage": "https://clawhub.ai/1kalin/afrexai-payroll-audit", "iconUrl": null, "installs": 16, "name": "Payroll Compliance Audit", "ownerName": "1kalin", "score": 37309.09090909091, "slug": "afrexai-payroll-audit", "source": "clawhub", "stars": 0, "tags": ["audit", "compliance", "flsa", "hr", "irs", "payroll"], "updated_at": 1776759083381, "version": "1.0.0"}, {"category": "data-analysis", "created_at": 1772783520869, "description": "Analyzes profit margins by product/service, benchmarks against 2026 industry data, identifies margin erosion, and recommends pricing and cost optimizations.", "description_zh": "", "downloads": 513, "homepage": "https://clawhub.ai/1kalin/afrexai-profit-margin", "iconUrl": null, "installs": 18, "name": "Profit Margin Analyzer", "ownerName": "1kalin", "score": 37637.56419662509, "slug": "afrexai-profit-margin", "source": "clawhub", "stars": 0, "tags": ["benchmarking", "finance", "margin", "pricing", "profit"], "updated_at": 1776759082304, "version": "1.0.0"}, {"category": "developer-tools", "created_at": 1772793084233, "description": "Provides a concise summary of today's top technology news in bullet points upon request.", "description_zh": "", "downloads": 513, "homepage": "https://clawhub.ai/batype/my-skill", "iconUrl": null, "installs": 22, "name": "MY News", "ownerName": "batype", "score": 37692.872887582664, "slug": "my-skill", "source": "clawhub", "stars": 0, "tags": null, "updated_at": 1776759082160, "version": "1.0.0"}, {"category": "developer-tools", "created_at": 1774619651705, "description": "Transparent, rigorous research with full methodology — not a black-box API wrapper. Conducts exhaustive investigation through mandated 2-cycle research per t...", "description_zh": "", "downloads": 513, "homepage": "https://clawhub.ai/nancliu/academic-deep-research-pro", "iconUrl": null, "installs": 94, "name": "Academic Deep Research Pro", "ownerName": "nancliu", "score": 89842.38178633976, "slug": "academic-deep-research-pro", "source": "clawhub", "stars": 0, "tags": null, "updated_at": 1776753584127, "version": "1.0.0"}, {"category": "productivity", "created_at": 1772779971930, "description": "Skill for using the command-line tool pdftk (PDFtk Server) for working with PDF files. Use when asked to merge PDFs, split PDFs, rotate pages, encrypt or dec...", "description_zh": "", "downloads": 513, "homepage": "https://clawhub.ai/jhauga/pdftk-server", "iconUrl": null, "installs": 38, "name": "pdftk Server", "ownerName": "jhauga", "score": 100000, "slug": "pdftk-server", "source": "clawhub", "stars": 0, "tags": null, "updated_at": 1776748484034, "version": "1.0.1"}, {"category": "content-creation", "created_at": 1772786034327, "description": "Generate and edit images and videos using WaveSpeed AI's 700+ model library. Use when the user wants to generate images from text prompts (FLUX, Seedream, Qw...", "description_zh": "", "downloads": 513, "homepage": "https://clawhub.ai/al1enjesus/wavespeed", "iconUrl": null, "installs": 30, "name": "WaveSpeed AI", "ownerName": "al1enjesus", "score": 90476.19047619047, "slug": "wavespeed", "source": "clawhub", "stars": 0, "tags": null, "updated_at": 1776748185694, "version": "1.1.0"}, {"category": "security-compliance", "created_at": 1772778430250, "description": "Decompose any text into classified semantic units — authority, risk, attention, entities. No LLM. Deterministic.", "description_zh": "", "downloads": 513, "homepage": "https://clawhub.ai/echology-io/decompose-mcp", "iconUrl": null, "installs": 7, "name": "Decompose Mcp", "ownerName": "echology-io", "score": 90476.19047619047, "slug": "decompose-mcp", "source": "clawhub", "stars": 0, "tags": ["classification", "document-intelligence", "mcp", "nlp", "preprocessing"], "updated_at": 1776748185657, "version": "0.1.2"}, {"category": "developer-tools", "created_at": 1772783957304, "description": "Generate narrative chronicles of developer work from git history, session transcripts, and memory files. Use when the user asks \"what did I do today/this wee...", "description_zh": "", "downloads": 513, "homepage": "https://clawhub.ai/sssamuelll/dev-chronicle", "iconUrl": null, "installs": 8, "name": "Dev Chronicle", "ownerName": "sssamuelll", "score": 89217.39130434782, "slug": "dev-chronicle", "source": "clawhub", "stars": 0, "tags": ["chronicle", "git", "journal", "narrative", "recap", "standup"], "updated_at": 1776748185475, "version": "1.0.1"}]}