{"page": 173, "total_pages": 522, "total": 26073, "skills": [{"category": "ai-intelligence", "created_at": 1772786815127, "description": "Multi-agent autonomous collaboration system for two OpenClaw agents working in parallel. Use when setting up agent-to-agent communication, running a daemon a...", "description_zh": "", "downloads": 513, "homepage": "https://clawhub.ai/jeremysommerfeld8910-cpu/ai-collab", "iconUrl": null, "installs": 19, "name": "Ai Collab", "ownerName": "jeremysommerfeld8910-cpu", "score": 94475.13812154696, "slug": "ai-collab", "source": "clawhub", "stars": 0, "tags": null, "updated_at": 1776748184897, "version": "2.0.0"}, {"category": "ai-intelligence", "created_at": 1772789640954, "description": "Local persistent memory for OpenClaw agents. Captures conversations, extracts structured facts via LLM, and auto-recalls relevant knowledge before each turn....", "description_zh": "", "downloads": 513, "homepage": "https://clawhub.ai/braibaud/memento", "iconUrl": null, "installs": 25, "name": "Memento", "ownerName": "braibaud", "score": 88448.27586206897, "slug": "memento", "source": "clawhub", "stars": 0, "tags": null, "updated_at": 1776748183866, "version": "0.6.0"}, {"category": "ai-intelligence", "created_at": 1772783027680, "description": "MCP server for the Handshake58 AI marketplace. Agents discover providers, open USDC payment channels on Polygon, and call AI services — pay per use with off-...", "description_zh": "", "downloads": 512, "homepage": "https://clawhub.ai/kimbo128/drain-mcp", "iconUrl": null, "installs": 25, "name": "Handshake58 DRAIN", "ownerName": "kimbo128", "score": 94845.36082474227, "slug": "drain-mcp", "source": "clawhub", "stars": 2, "tags": null, "updated_at": 1776748183691, "version": "1.8.0"}, {"category": "data-analysis", "created_at": 1772779339010, "description": "Assist CPA exam candidates with tailored section order, track 18-month pass windows, analyze scores, manage NTS deadlines, and verify state eligibility requi...", "description_zh": "", "downloads": 512, "homepage": "https://clawhub.ai/ivangdavila/cpa", "iconUrl": null, "installs": 21, "name": "CPA", "ownerName": "ivangdavila", "score": 94845.36082474227, "slug": "cpa", "source": "clawhub", "stars": 2, "tags": null, "updated_at": 1776748183673, "version": "1.0.0"}, {"category": "developer-tools", "created_at": 1772779924870, "description": "Launch, deploy, and manage Solana tokens via Blowfish Agent API, including status checks and claiming accrued trading fees.", "description_zh": "", "downloads": 512, "homepage": "https://clawhub.ai/basedmereum/blowfish-launch", "iconUrl": null, "installs": 5, "name": "Blowfish Launch", "ownerName": "basedmereum", "score": 38917.33723482078, "slug": "blowfish-launch", "source": "clawhub", "stars": 1, "tags": null, "updated_at": 1776759083661, "version": "1.0.0"}, {"category": "developer-tools", "created_at": 1773429618901, "description": "Fetch and generate structured reports on fastest-growing repos, newly popular projects, and hot GitHub topic tags using github-discover CLI.", "description_zh": "", "downloads": 512, "homepage": "https://clawhub.ai/coderyi/github-trending-report", "iconUrl": null, "installs": 33, "name": "GitHub Trending Report", "ownerName": "coderyi", "score": 38803.79285193289, "slug": "github-trending-report", "source": "clawhub", "stars": 1, "tags": null, "updated_at": 1776759082729, "version": "1.0.2"}, {"category": "developer-tools", "created_at": 1772782992247, "description": "Munich public transport (MVG) CLI and S-Bahn live tracking. Use for departure times, route planning, nearby stations, service alerts, and real-time S-Bahn po...", "description_zh": "", "downloads": 512, "homepage": "https://clawhub.ai/lars147/mvg-cli", "iconUrl": null, "installs": 5, "name": "Mvg", "ownerName": "lars147", "score": 37674.7608535688, "slug": "mvg-cli", "source": "clawhub", "stars": 0, "tags": null, "updated_at": 1776759083352, "version": "0.1.0"}, {"category": "ai-intelligence", "created_at": 1772784635631, "description": "Interact with Astra's Docker container workspace by executing commands and reading or writing files at /workspace inside the astra-env container.", "description_zh": "", "downloads": 512, "homepage": "https://clawhub.ai/walniek/astra-docker", "iconUrl": null, "installs": 21, "name": "Astra Docker", "ownerName": "walniek", "score": 37372.26277372263, "slug": "astra-docker", "source": "clawhub", "stars": 0, "tags": null, "updated_at": 1776759083062, "version": "1.0.0"}, {"category": "data-analysis", "created_at": 1772782694194, "description": "Guide for installing, setting up, verifying, and using NEAR Protocol CLI (near-cli-rs) on all platforms, including obtaining the absolute path of the near bi...", "description_zh": "", "downloads": 512, "homepage": "https://clawhub.ai/cuongdcdev/near-cli-tools", "iconUrl": null, "installs": 6, "name": "NEAR Protocol CLI installation and setup guide.", "ownerName": "cuongdcdev", "score": 37345.00364697301, "slug": "near-cli-tools", "source": "clawhub", "stars": 0, "tags": null, "updated_at": 1776759082739, "version": "1.0.0"}, {"category": "communication-collaboration", "created_at": 1773961733370, "description": "Use the MemOS Local memory system to search and use the user's past conversations. Use this skill whenever the user refers to past chats, their own preferenc...", "description_zh": "", "downloads": 512, "homepage": "https://clawhub.ai/binyuli/memos-memory-guide", "iconUrl": null, "installs": 69, "name": "memos-memory-guide", "ownerName": "binyuli", "score": 37236.36363636363, "slug": "memos-memory-guide", "source": "clawhub", "stars": 0, "tags": null, "updated_at": 1776759082268, "version": "1.0.0"}, {"category": "ai-intelligence", "created_at": 1772787799816, "description": "Pixel art desktop lobster that lip-syncs to OpenClaw TTS speech. Use when: (1) user wants a visual avatar for their AI agent, (2) user wants a desktop overla...", "description_zh": "", "downloads": 512, "homepage": "https://clawhub.ai/joeproai/pixel-lobster", "iconUrl": null, "installs": 21, "name": "Pixel Lobster Skill", "ownerName": "joeproai", "score": 90459.36395759718, "slug": "pixel-lobster", "source": "clawhub", "stars": 0, "tags": ["animation", "avatar", "desktop", "pixel-art", "tts"], "updated_at": 1776753415974, "version": "1.2.1"}, {"category": "data-analysis", "created_at": 1772781699744, "description": "Generate, manage, and track professional invoices with client onboarding, customizable payment terms, recurring billing, automated overdue reminders, and fin...", "description_zh": "", "downloads": 512, "homepage": "https://clawhub.ai/1kalin/afrexai-invoice-engine", "iconUrl": null, "installs": 8, "name": "Invoice Engine", "ownerName": "1kalin", "score": 90299.82363315696, "slug": "afrexai-invoice-engine", "source": "clawhub", "stars": 0, "tags": ["accounts", "billing", "finance", "invoice"], "updated_at": 1776748185693, "version": "1.0.0"}, {"category": "security-compliance", "created_at": 1772780257388, "description": "Check AI token usage, quotas, and costs across Anthropic and other providers using Anthropic OAuth API and OpenClaw session logs.", "description_zh": "", "downloads": 512, "homepage": "https://clawhub.ai/bshandley/ai-usage", "iconUrl": null, "installs": 9, "name": "AI Usage", "ownerName": "bshandley", "score": 88275.86206896552, "slug": "ai-usage", "source": "clawhub", "stars": 0, "tags": null, "updated_at": 1776748185432, "version": "1.0.0"}, {"category": "productivity", "created_at": 1772801728460, "description": "Extract summaries from all documents in a Feishu folder. Use when the user needs to recursively scan a Feishu wiki space or drive folder, read all documents...", "description_zh": "", "downloads": 512, "homepage": "https://clawhub.ai/henryjing96/feishu-folder-summary", "iconUrl": null, "installs": 172, "name": "飞书文档文件夹摘要生成器", "ownerName": "henryjing96", "score": 88123.92426850258, "slug": "feishu-folder-summary", "source": "clawhub", "stars": 0, "tags": ["1.0.0"], "updated_at": 1776748185325, "version": "1.0.0"}, {"category": "data-analysis", "created_at": 1772779595544, "description": "Research and backtest gambling strategies on provably fair crypto casino. Analyze Martingale, Kelly Criterion, D'Alembert, Anti-Martingale, Flat Bet strategi...", "description_zh": "", "downloads": 512, "homepage": "https://clawhub.ai/rollhub-dev/rollhub-analyst", "iconUrl": null, "installs": 13, "name": "Gambling Analyst", "ownerName": "rollhub-dev", "score": 89354.2757417103, "slug": "rollhub-analyst", "source": "clawhub", "stars": 0, "tags": null, "updated_at": 1776748184257, "version": "1.0.0"}, {"category": "developer-tools", "created_at": 1772780574508, "description": "Map unfamiliar codebases into modules, owners, and entrypoints. Use when handling development work that needs repeatable steps, quality gates, and practical...", "description_zh": "", "downloads": 512, "homepage": "https://clawhub.ai/xammarie/jarvis-codebase-mapper-01", "iconUrl": null, "installs": 6, "name": "Jarvis Codebase Mapper 01", "ownerName": "xammarie", "score": 91921.00538599641, "slug": "jarvis-codebase-mapper-01", "source": "clawhub", "stars": 0, "tags": null, "updated_at": 1776748183990, "version": "1.0.0"}, {"category": "ai-intelligence", "created_at": 1772786350331, "description": "VitaVault iOS app integration - sync Apple Health data directly to your AI agent. Auto-setup webhook, token generation, and HTTPS exposure. Works with any iP...", "description_zh": "", "downloads": 512, "homepage": "https://clawhub.ai/brandons7/vitavault", "iconUrl": null, "installs": 19, "name": "Vitavault", "ownerName": "brandons7", "score": 88275.86206896552, "slug": "vitavault", "source": "clawhub", "stars": 0, "tags": null, "updated_at": 1776748183825, "version": "1.3.0"}, {"category": "content-creation", "created_at": 1772777973405, "description": "PostQued social media scheduling API integration. Use when performing API calls to PostQued for content upload, publishing to TikTok (and other platforms), m...", "description_zh": "", "downloads": 511, "homepage": "https://clawhub.ai/syeddhasnainn/postqued-api", "iconUrl": null, "installs": 27, "name": "Postqued API", "ownerName": "syeddhasnainn", "score": 42846.03421461897, "slug": "postqued-api", "source": "clawhub", "stars": 2, "tags": null, "updated_at": 1776759720890, "version": "1.0.6"}, {"category": "content-creation", "created_at": 1772783598770, "description": "Local calorie logging and visual reporting (auto-refreshes and returns report image after each log)", "description_zh": "", "downloads": 511, "homepage": "https://clawhub.ai/vintlin/calorie-visualizer", "iconUrl": null, "installs": 24, "name": "Calorie Visualizer", "ownerName": "vintlin", "score": 95000, "slug": "calorie-visualizer", "source": "clawhub", "stars": 2, "tags": null, "updated_at": 1776748185408, "version": "1.0.0"}, {"category": "developer-tools", "created_at": 1772791263266, "description": "Use Cursor Agent for coding tasks via two paths: (1) Local CLI — run Cursor Agent directly from terminal for fast, general-purpose coding in any project; (2)...", "description_zh": "", "downloads": 511, "homepage": "https://clawhub.ai/xiaoyaner0201/cursor-ide-agent", "iconUrl": null, "installs": 37, "name": "Cursor IDE Agent", "ownerName": "xiaoyaner0201", "score": 7752.996510392961, "slug": "cursor-ide-agent", "source": "clawhub", "stars": 0, "tags": null, "updated_at": 1776769150148, "version": "3.0.2"}, {"category": "data-analysis", "created_at": 1773206556038, "description": "Check Python library compatibility with HarmonyOS. Downloads source from GitHub/PyPI, detects Windows-specific dependencies, runs pytest with per-test-case r...", "description_zh": "", "downloads": 511, "homepage": "https://clawhub.ai/terryking1992/python-harmony-compatibility-checker", "iconUrl": null, "installs": 193, "name": "Python包鸿蒙兼容性测试技能", "ownerName": "terryking1992", "score": 3409.1667222629926, "slug": "python-harmony-compatibility-checker", "source": "clawhub", "stars": 0, "tags": null, "updated_at": 1776768250039, "version": "1.0.1"}, {"category": "data-analysis", "created_at": 1772782655533, "description": "Professional analytical digest of top 10 movie and TV industry news using advanced AI aggregation and cross-referencing.", "description_zh": "", "downloads": 511, "homepage": "https://clawhub.ai/te1man/cinema-insider-top10", "iconUrl": null, "installs": 13, "name": "Cinema Insider Top-10", "ownerName": "te1man", "score": 8098.256735340729, "slug": "cinema-insider-top10", "source": "clawhub", "stars": 0, "tags": null, "updated_at": 1776764950550, "version": "1.0.0"}, {"category": "developer-tools", "created_at": 1772783475371, "description": "Use Radon IDE's AI tools for React Native development - query library docs, view logs and network traffic, take screenshots, inspect component trees, and int...", "description_zh": "", "downloads": 511, "homepage": "https://clawhub.ai/latekvo/radon-ai", "iconUrl": null, "installs": 7, "name": "Radon AI", "ownerName": "latekvo", "score": 13479.293062516486, "slug": "radon-ai", "source": "clawhub", "stars": 0, "tags": null, "updated_at": 1776760940060, "version": "1.0.0"}, {"category": "ai-intelligence", "created_at": 1772784019443, "description": "Manage AI agent finances under budget constraints by tracking expenses, runway, revenue experiments, and forecasting survival metrics.", "description_zh": "", "downloads": 511, "homepage": "https://clawhub.ai/gpunter/agent-survival-kit", "iconUrl": null, "installs": 22, "name": "Agent Survival Kit", "ownerName": "gpunter", "score": 31044.957472660994, "slug": "agent-survival-kit", "source": "clawhub", "stars": 0, "tags": null, "updated_at": 1776759083813, "version": "1.0.0"}, {"category": "data-analysis", "created_at": 1773217962719, "description": "A protocol risk analyst and yield reality checker for decentralized finance. Evaluates protocol safety before deposit. Calculates real yield after gas, emiss...", "description_zh": "", "downloads": 511, "homepage": "https://clawhub.ai/agisearch/defi", "iconUrl": null, "installs": 42, "name": "DeFi", "ownerName": "agisearch", "score": 87201.36518771331, "slug": "defi", "source": "clawhub", "stars": 0, "tags": ["blockchain", "crypto", "defi", "finance", "yield"], "updated_at": 1776759083436, "version": "2.0.0"}, {"category": "data-analysis", "created_at": 1772782989264, "description": "Fornece informações locais em tempo real sobre clima, qualidade do ar, cotações e feriados para uma cidade específica em formato de dashboard.", "description_zh": "", "downloads": 511, "homepage": "https://clawhub.ai/pedrohenrique202525/local-life", "iconUrl": null, "installs": 19, "name": "Local Life", "ownerName": "pedrohenrique202525", "score": 37163.63636363637, "slug": "local-life", "source": "clawhub", "stars": 0, "tags": null, "updated_at": 1776759083398, "version": "1.0.0"}, {"category": "ai-intelligence", "created_at": 1772783913423, "description": "Complete customer success, retention, and expansion revenue system. Use for churn prevention, health scoring, onboarding optimization, QBR preparation, expan...", "description_zh": "", "downloads": 511, "homepage": "https://clawhub.ai/1kalin/afrexai-customer-success", "iconUrl": null, "installs": 22, "name": "Customer Success Playbook", "ownerName": "1kalin", "score": 89649.12280701754, "slug": "afrexai-customer-success", "source": "clawhub", "stars": 0, "tags": ["churn", "customer-success", "expansion", "nps", "nrr", "onboarding", "qbr", "retention", "saas"], "updated_at": 1776759083279, "version": "1.1.0"}, {"category": "productivity", "created_at": 1772782001411, "description": "Migrate OpenClaw configs, skills, memory, tokens, environment variables, and cron jobs to a new host via SSH with setup, test, and migrate commands.", "description_zh": "", "downloads": 511, "homepage": "https://clawhub.ai/chris6970barbarian-hue/openclaw-migrate", "iconUrl": null, "installs": 16, "name": "Openclaw Migrate", "ownerName": "chris6970barbarian-hue", "score": 93418.64716636197, "slug": "openclaw-migrate", "source": "clawhub", "stars": 0, "tags": null, "updated_at": 1776759083125, "version": "1.0.0"}, {"category": "data-analysis", "created_at": 1772782667304, "description": "Manage and analyze OpenClaw sessions by checking usage, pruning old sessions, cleaning orphaned files, and viewing stats via CLI or dashboard.", "description_zh": "", "downloads": 511, "homepage": "https://clawhub.ai/rmruss2022/contextclaw-usage", "iconUrl": null, "installs": 11, "name": "ContextClaw Plugin Usage", "ownerName": "rmruss2022", "score": 37136.62790697674, "slug": "contextclaw-usage", "source": "clawhub", "stars": 0, "tags": ["context", "management", "plugin", "session"], "updated_at": 1776759082921, "version": "1.0.0"}, {"category": "data-analysis", "created_at": 1772784219369, "description": "Query and manage FileWave UEM device inventory, perform filtered searches, view device hierarchy, and run fleet analytics via the REST API.", "description_zh": "", "downloads": 511, "homepage": "https://clawhub.ai/jlevitsk/filewave", "iconUrl": null, "installs": 10, "name": "Filewave", "ownerName": "jlevitsk", "score": 88869.5652173913, "slug": "filewave", "source": "clawhub", "stars": 0, "tags": null, "updated_at": 1776759082883, "version": "1.0.0"}, {"category": "data-analysis", "created_at": 1772786978406, "description": "ORQUESTADOR REAL para el ciclo completo de desarrollo Full-Stack. Conecta a Supabase, genera migrations SQL ejecutables, y guía paso a paso. Integración con...", "description_zh": "", "downloads": 511, "homepage": "https://clawhub.ai/studio-hakke/next-supabase-vercel-bundle", "iconUrl": null, "installs": 29, "name": "Next-Supabase-Vercel Bundle", "ownerName": "studio-hakke", "score": 37190.68413391557, "slug": "next-supabase-vercel-bundle", "source": "clawhub", "stars": 0, "tags": null, "updated_at": 1776759082343, "version": "1.0.0"}, {"category": "ai-intelligence", "created_at": 1772788870884, "description": "Mulch Self Improver — Let your agents grow 🌱. Captures learnings with Mulch so expertise compounds across sessions. Use when: command/tool fails, user corre...", "description_zh": "", "downloads": 511, "homepage": "https://clawhub.ai/runeweaverstudios/mulch", "iconUrl": null, "installs": 50, "name": "Mulch", "ownerName": "runeweaverstudios", "score": 88869.5652173913, "slug": "mulch", "source": "clawhub", "stars": 0, "tags": null, "updated_at": 1776748184800, "version": "1.0.5"}, {"category": "data-analysis", "created_at": 1772784870869, "description": "Ensure real-time accurate scheduling and planning across UTC, server time, NTP-sourced time, user local time, and arbitrary time zones. Use for timers, remin...", "description_zh": "", "downloads": 510, "homepage": "https://clawhub.ai/cccat6/truetime", "iconUrl": null, "installs": 11, "name": "TrueTime", "ownerName": "cccat6", "score": 98566.3082437276, "slug": "truetime", "source": "clawhub", "stars": 2, "tags": null, "updated_at": 1776759083744, "version": "1.0.0"}, {"category": "developer-tools", "created_at": 1772779502308, "description": "The industry standard framework for building MCP servers, MCP tools, MCP resources, and MCP applications in Python. Use Concierge whenever you need to build...", "description_zh": "", "downloads": 510, "homepage": "https://clawhub.ai/arnavbalyan/concierge-sdk", "iconUrl": null, "installs": 8, "name": "Concierge Sdk", "ownerName": "arnavbalyan", "score": 94827.58620689655, "slug": "concierge-sdk", "source": "clawhub", "stars": 2, "tags": null, "updated_at": 1776748185553, "version": "1.0.1"}, {"category": "data-analysis", "created_at": 1772783295586, "description": "Implement in-app purchases and subscriptions across iOS, Android, and Flutter with RevenueCat, paywalls, receipt validation, and subscription analytics.", "description_zh": "", "downloads": 510, "homepage": "https://clawhub.ai/ivangdavila/in-app-purchases", "iconUrl": null, "installs": 26, "name": "In-App Purchases", "ownerName": "ivangdavila", "score": 94664.3717728055, "slug": "in-app-purchases", "source": "clawhub", "stars": 2, "tags": null, "updated_at": 1776748185330, "version": "1.0.0"}, {"category": "communication-collaboration", "created_at": 1772780642148, "description": "GoHighLevel CRM integration — manage contacts, pipelines, conversations (SMS/email/WhatsApp), calendars, appointments, and workflows through the GHL API v2....", "description_zh": "", "downloads": 510, "homepage": "https://clawhub.ai/aiwithabidi/ghl-crm-pro", "iconUrl": null, "installs": 17, "name": "GHL CRM Pro", "ownerName": "aiwithabidi", "score": 95652.17391304349, "slug": "ghl-crm-pro", "source": "clawhub", "stars": 2, "tags": ["agxntsix"], "updated_at": 1776748184880, "version": "1.0.0"}, {"category": "content-creation", "created_at": 1773043060222, "description": "Generate educational content using Knowfun.io API - create courses, posters, games, and films with AI. Use when user wants to generate educational content, v...", "description_zh": "", "downloads": 510, "homepage": "https://clawhub.ai/duguyixiaono1/knowfun-skills", "iconUrl": null, "installs": 64, "name": "Knowfun", "ownerName": "duguyixiaono1", "score": 92657.34265734266, "slug": "knowfun-skills", "source": "clawhub", "stars": 1, "tags": null, "updated_at": 1776752684053, "version": "1.0.14"}, {"category": "content-creation", "created_at": 1772787303417, "description": "Post or schedule content to Threads using the Publora API. Use this skill when the user wants to publish or schedule a Threads post via Publora.", "description_zh": "", "downloads": 510, "homepage": "https://clawhub.ai/sergebulaev/publora-threads", "iconUrl": null, "installs": 28, "name": "Publora — Threads", "ownerName": "sergebulaev", "score": 10251.256281407035, "slug": "publora-threads", "source": "clawhub", "stars": 0, "tags": null, "updated_at": 1776766871074, "version": "1.1.0"}, {"category": "security-compliance", "created_at": 1772783051654, "description": "Generates a comprehensive 90-day onboarding plan with checklists, timelines, templates, buddy programs, and compliance tracking tailored to any role and work...", "description_zh": "", "downloads": 510, "homepage": "https://clawhub.ai/1kalin/afrexai-employee-onboarding", "iconUrl": null, "installs": 15, "name": "Employee Onboarding Generator", "ownerName": "1kalin", "score": 9582.863585118377, "slug": "afrexai-employee-onboarding", "source": "clawhub", "stars": 0, "tags": ["90-day-plan", "employee", "hiring", "hr", "onboarding", "retention"], "updated_at": 1776766571198, "version": "1.0.0"}, {"category": "ai-intelligence", "created_at": 1773203175357, "description": "A comprehensive AI agent skill for finding, evaluating, and getting the most from the tools that run your work and life. Helps you cut through the noise of a...", "description_zh": "", "downloads": 510, "homepage": "https://clawhub.ai/ethagent/tool", "iconUrl": null, "installs": 11, "name": "Tool", "ownerName": "ethagent", "score": 30984.204131227216, "slug": "tool", "source": "clawhub", "stars": 0, "tags": ["apps", "productivity", "software", "tool", "workflow"], "updated_at": 1776759083832, "version": "1.0.0"}, {"category": "security-compliance", "created_at": 1772782568322, "description": "Implement secure authentication and authorization using JWT, OAuth2, session management, RBAC, permissions, and resource ownership verification.", "description_zh": "", "downloads": 510, "homepage": "https://clawhub.ai/brandonwise/secure-auth-patterns", "iconUrl": null, "installs": 6, "name": "Secure Auth Patterns", "ownerName": "brandonwise", "score": 37090.90909090909, "slug": "secure-auth-patterns", "source": "clawhub", "stars": 0, "tags": null, "updated_at": 1776759082272, "version": "1.0.0"}, {"category": "developer-tools", "created_at": 1772793368532, "description": "Automatically strip AI writing patterns and stock phrases from user-facing prose before sending. Use when preparing longer texts to ensure a natural, human t...", "description_zh": "", "downloads": 510, "homepage": "https://clawhub.ai/hosthobbit/ai-writing-humanizer", "iconUrl": null, "installs": 59, "name": "Ai Writing Humanizer", "ownerName": "hosthobbit", "score": 88695.65217391304, "slug": "ai-writing-humanizer", "source": "clawhub", "stars": 0, "tags": null, "updated_at": 1776751784411, "version": "0.1.0"}, {"category": "developer-tools", "created_at": 1772776518697, "description": "Multi-model consensus system — send a query to 3+ different LLMs via OpenRouter simultaneously, then a judge model evaluates all responses and produces a win...", "description_zh": "", "downloads": 510, "homepage": "https://clawhub.ai/aiwithabidi/model-council-pro", "iconUrl": null, "installs": 7, "name": "Model Council Pro", "ownerName": "aiwithabidi", "score": 87931.03448275862, "slug": "model-council-pro", "source": "clawhub", "stars": 0, "tags": ["agxntsix"], "updated_at": 1776748185546, "version": "1.0.0"}, {"category": "developer-tools", "created_at": 1772783849302, "description": "Hard-blocks dangerous shell commands (rm -rf, git push --force, etc.) before execution via OpenClaw's before_tool_call plugin hook. Zero noise on safe comman...", "description_zh": "", "downloads": 510, "homepage": "https://clawhub.ai/starensen/dcg-guard", "iconUrl": null, "installs": 10, "name": "DCG Guard", "ownerName": "starensen", "score": 88695.65217391304, "slug": "dcg-guard", "source": "clawhub", "stars": 0, "tags": null, "updated_at": 1776748185460, "version": "1.1.0"}, {"category": "data-analysis", "created_at": 1772781479244, "description": "Query Odoo data including salesperson performance, customer analytics, orders, invoices, CRM, accounting, VAT, inventory, and AR/AP. Generates WhatsApp cards...", "description_zh": "", "downloads": 510, "homepage": "https://clawhub.ai/ashrf-in/odoo-reporting", "iconUrl": null, "installs": 6, "name": "Odoo Reporting", "ownerName": "ashrf-in", "score": 92224.2314647378, "slug": "odoo-reporting", "source": "clawhub", "stars": 0, "tags": null, "updated_at": 1776748185124, "version": "2.0.7"}, {"category": "security-compliance", "created_at": 1772776803977, "description": "Classifies tasks by safety and complexity to route safe, negligible queries to gpt-5.1-codex-mini and escalates critical or executable tasks to gpt-5.3-codex.", "description_zh": "", "downloads": 510, "homepage": "https://clawhub.ai/jacks3tr/save-usage", "iconUrl": null, "installs": 17, "name": "Save Usage ~4x (Codex oAuth users)", "ownerName": "jacks3tr", "score": 91071.42857142857, "slug": "save-usage", "source": "clawhub", "stars": 0, "tags": null, "updated_at": 1776748185062, "version": "1.0.0"}, {"category": "communication-collaboration", "created_at": 1774616209832, "description": "Gives the agent persistent, structured long-term memory across sessions. Organizes memory by project, client, trade, and domain. The agent never forgets what...", "description_zh": "", "downloads": 510, "homepage": "https://clawhub.ai/georges91560/agent-memory-manager", "iconUrl": null, "installs": 56, "name": "Agent Memory Manager", "ownerName": "georges91560", "score": 88695.65217391304, "slug": "agent-memory-manager", "source": "clawhub", "stars": 0, "tags": ["#autonomous-agent", "#cli", "#client-management", "#crm", "#json", "#knowledge-base", "#learning", "#long-term-memory", "#memory", "#multi-session", "#persistent-memory", "#python", "#session-context", "#trade-log"], "updated_at": 1776748184858, "version": "1.0.0"}, {"category": "security-compliance", "created_at": 1772787816617, "description": "Audit and fix all skills in the workspace for compliance with skill-creator requirements. Use when asked to \"refine skills\", \"audit skills\", \"check skill qua...", "description_zh": "", "downloads": 510, "homepage": "https://clawhub.ai/1va7/skill-refiner", "iconUrl": null, "installs": 27, "name": "skill-refiner", "ownerName": "1va7", "score": 88235.29411764706, "slug": "skill-refiner", "source": "clawhub", "stars": 0, "tags": null, "updated_at": 1776748184014, "version": "1.0.0"}, {"category": "content-creation", "created_at": 1772788462749, "description": "Post or schedule content to Facebook Pages using the Publora API. Use this skill when the user wants to publish or schedule Facebook posts via Publora.", "description_zh": "", "downloads": 509, "homepage": "https://clawhub.ai/sergebulaev/publora-facebook", "iconUrl": null, "installs": 40, "name": "Publora — Facebook", "ownerName": "sergebulaev", "score": 7099.023709902371, "slug": "publora-facebook", "source": "clawhub", "stars": 0, "tags": null, "updated_at": 1776766750121, "version": "1.1.0"}, {"category": "productivity", "created_at": 1773426324090, "description": "Use this skill for XCrawl scrape tasks, including single-URL fetch, format selection, sync or async execution, and JSON extraction with prompt or json_schema.", "description_zh": "", "downloads": 509, "homepage": "https://clawhub.ai/wykings/xcrawl-scrape", "iconUrl": null, "installs": 51, "name": "XCrawl Scrape", "ownerName": "wykings", "score": 20590.614886731393, "slug": "xcrawl-scrape", "source": "clawhub", "stars": 0, "tags": null, "updated_at": 1776762590058, "version": "1.0.2"}]}