{"page": 174, "total_pages": 522, "total": 26073, "skills": [{"category": "productivity", "created_at": 1772783236161, "description": "Search Hivemind's curated Web3 marketing knowledge base (RAG) for practitioner insights, frameworks, playbooks, and case studies. Use this skill when: (1) an...", "description_zh": "", "downloads": 509, "homepage": "https://clawhub.ai/divine-comedian/myosin-hivemind", "iconUrl": null, "installs": 26, "name": "Myosin Hivemind Knowledge Retrieval", "ownerName": "divine-comedian", "score": 37153.28467153285, "slug": "myosin-hivemind", "source": "clawhub", "stars": 0, "tags": null, "updated_at": 1776759083050, "version": "1.0.1"}, {"category": "developer-tools", "created_at": 1772784199947, "description": "Create detailed crisis communication plans with holding statements, stakeholder messaging, media Q&A, internal briefs, and social media responses for various...", "description_zh": "", "downloads": 509, "homepage": "https://clawhub.ai/1kalin/afrexai-crisis-comms", "iconUrl": null, "installs": 16, "name": "Crisis Communications Playbook", "ownerName": "1kalin", "score": 37344.09391049156, "slug": "afrexai-crisis-comms", "source": "clawhub", "stars": 0, "tags": ["communications", "crisis", "incident", "pr", "reputation"], "updated_at": 1776759082328, "version": "1.0.0"}, {"category": "communication-collaboration", "created_at": 1773283707175, "description": "Complete email management for Postfix/Dovecot", "description_zh": "", "downloads": 509, "homepage": "https://clawhub.ai/soderholmm/email-manager", "iconUrl": null, "installs": 22, "name": "OpenClaw Email Manager for Postfic and Dovecot", "ownerName": "soderholmm", "score": 95140.18691588785, "slug": "email-manager", "source": "clawhub", "stars": 0, "tags": null, "updated_at": 1776753055524, "version": "1.0.0"}, {"category": "ai-intelligence", "created_at": 1772779213879, "description": "Connect AI agents to the 2020117 decentralized network. Register, post to timeline, trade compute via NIP-90 DVM jobs (text generation, translation, summariz...", "description_zh": "", "downloads": 509, "homepage": "https://clawhub.ai/qingfeng/2020117", "iconUrl": null, "installs": 26, "name": "Nostr Dvm", "ownerName": "qingfeng", "score": 89298.24561403508, "slug": "2020117", "source": "clawhub", "stars": 0, "tags": null, "updated_at": 1776748185736, "version": "0.1.1"}, {"category": "developer-tools", "created_at": 1772777572031, "description": "Multi-agent orchestration with 5 proven patterns - Work Crew, Supervisor, Pipeline, Council, and Auto-Routing", "description_zh": "", "downloads": 509, "homepage": "https://clawhub.ai/variable190/agent-orchestrator-molter-102", "iconUrl": null, "installs": 2, "name": "Agent Orchestrator", "ownerName": "variable190", "score": 87758.62068965517, "slug": "agent-orchestrator-molter-102", "source": "clawhub", "stars": 0, "tags": ["ai-workflow", "automation", "multi-agent", "orchestration", "productivity"], "updated_at": 1776748185556, "version": "1.0.2"}, {"category": "security-compliance", "created_at": 1772776293923, "description": "Let agents request OAuth access from end users via short links, continue working asynchronously, and later claim reusable third-party API tokens from local k...", "description_zh": "", "downloads": 509, "homepage": "https://clawhub.ai/h4gen/clawauth", "iconUrl": null, "installs": 6, "name": "User-Delegated OAuth API Access", "ownerName": "h4gen", "score": 88521.73913043478, "slug": "clawauth", "source": "clawhub", "stars": 0, "tags": null, "updated_at": 1776748185500, "version": "1.0.6"}, {"category": "developer-tools", "created_at": 1772781847332, "description": "Manage Apache CloudStack infrastructure using the cloudmonkey (cmk) CLI — list/start/stop/destroy VMs, manage networks, volumes, snapshots, and run any Cloud...", "description_zh": "", "downloads": 509, "homepage": "https://clawhub.ai/kiranchavala/cloudmonkey", "iconUrl": null, "installs": 5, "name": "cloudmonkey", "ownerName": "kiranchavala", "score": 92043.39963833634, "slug": "cloudmonkey", "source": "clawhub", "stars": 0, "tags": null, "updated_at": 1776748185163, "version": "1.0.0"}, {"category": "developer-tools", "created_at": 1772781545082, "description": "Connect to your Aiqbee knowledge graph via MCP. Search, create, and link neurons across your architecture, portfolio, and digital strategy brains.", "description_zh": "", "downloads": 509, "homepage": "https://clawhub.ai/louisgoodier/aiqbee", "iconUrl": null, "installs": 19, "name": "Aiqbee", "ownerName": "louisgoodier", "score": 90892.85714285714, "slug": "aiqbee", "source": "clawhub", "stars": 0, "tags": null, "updated_at": 1776748185100, "version": "0.1.0"}, {"category": "productivity", "created_at": 1772786136361, "description": "Plan and execute a product launch for a solopreneur business. Use when launching a new product, feature, service, or major update. Covers pre-launch strategy...", "description_zh": "", "downloads": 508, "homepage": "https://clawhub.ai/jk-0001/product-launch", "iconUrl": null, "installs": 28, "name": "Product Launch", "ownerName": "jk-0001", "score": 26333.49351273426, "slug": "product-launch", "source": "clawhub", "stars": 2, "tags": null, "updated_at": 1776763750662, "version": "0.1.0"}, {"category": "developer-tools", "created_at": 1772782179455, "description": "Build with Deno runtime avoiding permission gotchas, URL import traps, and Node.js migration pitfalls.", "description_zh": "", "downloads": 508, "homepage": "https://clawhub.ai/ivangdavila/deno", "iconUrl": null, "installs": 10, "name": "Deno", "ownerName": "ivangdavila", "score": 15009.586414680909, "slug": "deno", "source": "clawhub", "stars": 2, "tags": null, "updated_at": 1776762182213, "version": "1.0.0"}, {"category": "productivity", "created_at": 1772779148221, "description": "Track and synthesize podcasts with subscriptions, briefings, progress tracking, and smart alerts for new episodes and guests.", "description_zh": "", "downloads": 508, "homepage": "https://clawhub.ai/ivangdavila/podcasts", "iconUrl": null, "installs": 8, "name": "Podcasts", "ownerName": "ivangdavila", "score": 32159.62441314554, "slug": "podcasts", "source": "clawhub", "stars": 2, "tags": null, "updated_at": 1776755888523, "version": "1.0.0"}, {"category": "productivity", "created_at": 1772787086301, "description": "opencode can do all the things related to code", "description_zh": "", "downloads": 508, "homepage": "https://clawhub.ai/deciding/easy-opencode", "iconUrl": null, "installs": 14, "name": "easy-opencode", "ownerName": "deciding", "score": 96649.02998236331, "slug": "easy-opencode", "source": "clawhub", "stars": 2, "tags": null, "updated_at": 1776748185623, "version": "1.1.1"}, {"category": "data-analysis", "created_at": 1773066634013, "description": "Fetch complete Amazon product data including title, current price, currency, star rating, review count, availability, main image, and product URL. Works from...", "description_zh": "", "downloads": 508, "homepage": "https://clawhub.ai/mysmth2003/amazon-product-fetcher", "iconUrl": null, "installs": 77, "name": "Amazon Product Fetcher", "ownerName": "mysmth2003", "score": 10191.082802547771, "slug": "amazon-product-fetcher", "source": "clawhub", "stars": 1, "tags": ["amazon", "price", "shopping", "stdlib"], "updated_at": 1776765250397, "version": "1.0.0"}, {"category": "data-analysis", "created_at": 1772794351810, "description": "List events, find free slots, and book meetings across Google Calendar, Outlook, and CalDAV. Multi-calendar availability merging, recurring event expansion,...", "description_zh": "", "downloads": 508, "homepage": "https://clawhub.ai/billylui/temporal-cortex-scheduling", "iconUrl": null, "installs": 9, "name": "temporal-cortex-scheduling", "ownerName": "billylui", "score": 89948.8926746167, "slug": "temporal-cortex-scheduling", "source": "clawhub", "stars": 1, "tags": null, "updated_at": 1776748184485, "version": "0.9.1"}, {"category": "data-analysis", "created_at": 1772784606418, "description": "Visual project dashboard managing quests, priorities, progress, and infrastructure via quest-board-registry.json with build and init commands.", "description_zh": "", "downloads": 508, "homepage": "https://clawhub.ai/yx2601816404-sys/quest-board", "iconUrl": null, "installs": 10, "name": "Quest Board", "ownerName": "yx2601816404-sys", "score": 824.554853998604, "slug": "quest-board", "source": "clawhub", "stars": 0, "tags": null, "updated_at": 1776770649853, "version": "0.1.0"}, {"category": "", "created_at": 1774856297037, "description": "Convert PowerPoint PPTX files to high-quality JPG or PNG images with customizable DPI, maintaining original slide proportions and orientation on Windows.", "description_zh": "", "downloads": 508, "homepage": "https://clawhub.ai/leodai12123/pptx-to-image", "iconUrl": null, "installs": 251, "name": "PPTX to Image Converter", "ownerName": "leodai12123", "score": 4021.532615579481, "slug": "pptx-to-image", "source": "clawhub", "stars": 0, "tags": ["converter", "dpi", "image", "pptx", "windows"], "updated_at": 1776769571358, "version": "1.0.0"}, {"category": "security-compliance", "created_at": 1772785053479, "description": "Analyze GitHub pull requests for security risks and determine if a PR is safe to merge.", "description_zh": "", "downloads": 508, "homepage": "https://clawhub.ai/nerdvana-labs/pr-risk-analyzer", "iconUrl": null, "installs": 12, "name": "Github MergeGuard AI", "ownerName": "nerdvana-labs", "score": 5290.013537436218, "slug": "pr-risk-analyzer", "source": "clawhub", "stars": 0, "tags": null, "updated_at": 1776767406460, "version": "1.0.0"}, {"category": "productivity", "created_at": 1772778314934, "description": "Advanced editing of OpenClaw JSON5 configs with schema validation, merge patching, env var substitution, and type-safe modifications using jq.", "description_zh": "", "downloads": 508, "homepage": "https://clawhub.ai/avirweb/openclaw-json-editing", "iconUrl": null, "installs": 11, "name": "OpenClaw JSON Editing Masterclass", "ownerName": "avirweb", "score": 6235.42408248435, "slug": "openclaw-json-editing", "source": "clawhub", "stars": 0, "tags": null, "updated_at": 1776766450272, "version": "1.0.0"}, {"category": "content-creation", "created_at": 1773201631411, "description": "Generate summaries, extract notes, keywords, bullet points, compare documents, and count words with reading time for local files, URLs, or input text.", "description_zh": "", "downloads": 508, "homepage": "https://clawhub.ai/ckchzh2022/doc-summarizer", "iconUrl": null, "installs": 95, "name": "Doc Summarizer", "ownerName": "ckchzh2022", "score": 23716.153127917834, "slug": "doc-summarizer", "source": "clawhub", "stars": 0, "tags": null, "updated_at": 1776764950701, "version": "1.4.1"}, {"category": "content-creation", "created_at": 1773073175304, "description": "Craft clear, emotionally resonant stories with audience-first framing, narrative arc control, and channel-specific rewrites.", "description_zh": "", "downloads": 508, "homepage": "https://clawhub.ai/ivangdavila/storytelling", "iconUrl": null, "installs": 40, "name": "Storytelling", "ownerName": "ivangdavila", "score": 22862.286228622863, "slug": "storytelling", "source": "clawhub", "stars": 0, "tags": null, "updated_at": 1776764949965, "version": "1.0.0"}, {"category": "data-analysis", "created_at": 1772785989746, "description": "Technical analysis and chart pattern recognition for equities, options, and crypto markets", "description_zh": "", "downloads": 508, "homepage": "https://clawhub.ai/collierking/chartclass", "iconUrl": null, "installs": 30, "name": "ChartClass", "ownerName": "collierking", "score": 86541.73764906303, "slug": "chartclass", "source": "clawhub", "stars": 0, "tags": null, "updated_at": 1776759082399, "version": "0.0.2"}, {"category": "security-compliance", "created_at": 1772780662585, "description": "Audit, track, and optimize your organization's software licenses by identifying waste, compliance risks, and managing a renewal calendar with alerts.", "description_zh": "", "downloads": 508, "homepage": "https://clawhub.ai/1kalin/afrexai-license-manager", "iconUrl": null, "installs": 20, "name": "Software License Manager", "ownerName": "1kalin", "score": 37270.726338958186, "slug": "afrexai-license-manager", "source": "clawhub", "stars": 0, "tags": ["audit", "compliance", "cost-optimization", "license", "procurement", "saas"], "updated_at": 1776759082305, "version": "1.0.0"}, {"category": "developer-tools", "created_at": 1772784861957, "description": "Private web tools for AI agents — search, scrape, and screenshot the web with x402 micropayments (USDC on Base). Zero logging, no API keys, no accounts. Pay...", "description_zh": "", "downloads": 508, "homepage": "https://clawhub.ai/kodos-vibe/x402-private-web-tools", "iconUrl": null, "installs": 12, "name": "x402 Private Web Tools", "ownerName": "kodos-vibe", "score": 37270.726338958186, "slug": "x402-private-web-tools", "source": "clawhub", "stars": 0, "tags": null, "updated_at": 1776759082288, "version": "1.0.0"}, {"category": "content-creation", "created_at": 1772784314814, "description": "Extract a structured cooking recipe from a shared video URL when the user sends `recipe <url>`. Prioritize caption/description and comments via browser autom...", "description_zh": "", "downloads": 508, "homepage": "https://clawhub.ai/besaif/recipe-video-extractor", "iconUrl": null, "installs": 33, "name": "Recipe Video Extractor", "ownerName": "besaif", "score": 89122.80701754386, "slug": "recipe-video-extractor", "source": "clawhub", "stars": 0, "tags": null, "updated_at": 1776748185717, "version": "1.0.1"}, {"category": "data-analysis", "created_at": 1772789496342, "description": "Invoke various LLMs (GLM-5, Kimi-k2.5, Llama 3.1, etc.) via NVIDIA NIM API to save main agent tokens and leverage specialized model capabilities.", "description_zh": "", "downloads": 508, "homepage": "https://clawhub.ai/d-wwei/openclaw-nim-skill", "iconUrl": null, "installs": 32, "name": "NVIDIA NIM Skill", "ownerName": "d-wwei", "score": 90714.28571428571, "slug": "openclaw-nim-skill", "source": "clawhub", "stars": 0, "tags": null, "updated_at": 1776748185047, "version": "1.0.0"}, {"category": "security-compliance", "created_at": 1772780673006, "description": "Interact with the Calendar Bridge — a self-hosted Node.js service that provides a persistent REST API for Google Calendar events. Handles OAuth token auto-re...", "description_zh": "", "downloads": 508, "homepage": "https://clawhub.ai/danielkillenberger/gcal-oauth-bridge", "iconUrl": null, "installs": 10, "name": "gcal-oauth-bridge", "ownerName": "danielkillenberger", "score": 87586.20689655172, "slug": "gcal-oauth-bridge", "source": "clawhub", "stars": 0, "tags": null, "updated_at": 1776748183798, "version": "1.0.3"}, {"category": "developer-tools", "created_at": 1772786002059, "description": "OpenClaw documentation expert with config references, errata tracking, search scripts, and decision tree navigation", "description_zh": "", "downloads": 508, "homepage": "https://clawhub.ai/sallvainian/clawdocs-improved", "iconUrl": null, "installs": 7, "name": "Clawdocs Improved", "ownerName": "sallvainian", "score": 87285.22336769759, "slug": "clawdocs-improved", "source": "clawhub", "stars": 0, "tags": null, "updated_at": 1776748183707, "version": "1.0.0"}, {"category": "ai-intelligence", "created_at": 1772780940833, "description": "Free casino gaming platform for OpenClaw agents. Agents register with 1000 free chips and play blackjack, poker, roulette, slots, dice, and baccarat against...", "description_zh": "", "downloads": 507, "homepage": "https://clawhub.ai/clawdeploy/clawroll", "iconUrl": null, "installs": 38, "name": "Casino Game For OpenClaw Agent", "ownerName": "clawdeploy", "score": 95130.4347826087, "slug": "clawroll", "source": "clawhub", "stars": 2, "tags": null, "updated_at": 1776748184735, "version": "1.0.0"}, {"category": "productivity", "created_at": 1772786238799, "description": "Generate high-quality speech from text using Fish Audio S1 and optionally upload the MP3 audio file to NextCloud via WebDAV.", "description_zh": "", "downloads": 507, "homepage": "https://clawhub.ai/gtank1/fish-tts", "iconUrl": null, "installs": 16, "name": "Fish Tts", "ownerName": "gtank1", "score": 38243.83164005806, "slug": "fish-tts", "source": "clawhub", "stars": 1, "tags": null, "updated_at": 1776759083320, "version": "1.0.0"}, {"category": "productivity", "created_at": 1772798868547, "description": "Intelligent shell command detector and executor for OpenClaw. Automatically identifies terminal commands (system builtins, $PATH executables, history matches...", "description_zh": "", "downloads": 507, "homepage": "https://clawhub.ai/cosperypf/terminal-killer", "iconUrl": null, "installs": 18, "name": "Terminal Killer", "ownerName": "cosperypf", "score": 94614.00359066427, "slug": "terminal-killer", "source": "clawhub", "stars": 1, "tags": ["command-detection", "executor", "interactive", "shell", "terminal"], "updated_at": 1776748183925, "version": "1.2.0"}, {"category": "content-creation", "created_at": 1773943979730, "description": "Activate this skill whenever a user asks to write, structure, or improve developer documentation. Covers README templates, API documentation (OpenAPI, JSDoc,...", "description_zh": "", "downloads": 507, "homepage": "https://clawhub.ai/royhk920/technical-writing", "iconUrl": null, "installs": 60, "name": "technical writing", "ownerName": "royhk920", "score": 3929.014259144451, "slug": "technical-writing", "source": "clawhub", "stars": 0, "tags": null, "updated_at": 1776770050146, "version": "1.0.0"}, {"category": "developer-tools", "created_at": 1773042640422, "description": "Build a more reliable OpenClaw agent with battle-tested architecture patterns. Covers WAL protocol, working buffer, memory anti-poisoning, layered memory com...", "description_zh": "", "downloads": 507, "homepage": "https://clawhub.ai/zihaofeng2001/agent-architecture-guide", "iconUrl": null, "installs": 9, "name": "Agent Architecture Guide", "ownerName": "zihaofeng2001", "score": 21473.951715374842, "slug": "agent-architecture-guide", "source": "clawhub", "stars": 0, "tags": null, "updated_at": 1776765550087, "version": "4.0.3"}, {"category": "content-creation", "created_at": 1773074565232, "description": "Generate complete, trending interior design packages with mood boards, live product sourcing by budget, detailed briefs, and a cinematic room reveal video.", "description_zh": "", "downloads": 507, "homepage": "https://clawhub.ai/g4dr/ai-interior-design-visualizer", "iconUrl": null, "installs": 75, "name": "AI Interior Design Visualizer — Generate Room Concepts & Mood Boards at Scale", "ownerName": "g4dr", "score": 19537.57225433526, "slug": "ai-interior-design-visualizer", "source": "clawhub", "stars": 0, "tags": ["airbnb", "apify", "home-decor", "interior-design", "invideo", "mood-board", "pinterest", "product-sourcing", "real-estate", "room-design", "staging"], "updated_at": 1776765055856, "version": "1.0.0"}, {"category": "ai-intelligence", "created_at": 1772782376192, "description": "AI-powered WhatsApp tool for agents providing instant customer history, sentiment, priority, order details, VIP detection, and response suggestions.", "description_zh": "", "downloads": 507, "homepage": "https://clawhub.ai/cerbug45/whatsapp-context-manager", "iconUrl": null, "installs": 27, "name": "Whatsapp Context Manager for Agents", "ownerName": "cerbug45", "score": 13144.931293751622, "slug": "whatsapp-context-manager", "source": "clawhub", "stars": 0, "tags": null, "updated_at": 1776762850477, "version": "0.1.0"}, {"category": "content-creation", "created_at": 1772788092307, "description": "Deploys the application to the SupplyWhy development EC2 server via SSH, updates image tag if provided, applies Kubernetes deployment, and verifies rollout s...", "description_zh": "", "downloads": 507, "homepage": "https://clawhub.ai/yusong-7456/deploydevnlu", "iconUrl": null, "installs": 31, "name": "Deploydevnlu", "ownerName": "yusong-7456", "score": 36899.5633187773, "slug": "deploydevnlu", "source": "clawhub", "stars": 0, "tags": null, "updated_at": 1776759083632, "version": "1.0.4"}, {"category": "ai-intelligence", "created_at": 1772778072397, "description": "Link a TON wallet holding at least 1 WIR token to verify your BotWorld agent for a verified badge, faster cooldowns, and premium access.", "description_zh": "", "downloads": 507, "homepage": "https://clawhub.ai/alphafanx/wir-registry", "iconUrl": null, "installs": 16, "name": "WIR Registry", "ownerName": "alphafanx", "score": 88947.36842105263, "slug": "wir-registry", "source": "clawhub", "stars": 0, "tags": null, "updated_at": 1776748185749, "version": "1.0.0"}, {"category": "data-analysis", "created_at": 1772784050400, "description": "Create and publish an Instagram carousel post from a tabiji.ai itinerary. Given an itinerary URL, finds Instagram-worthy photos for the destination + top att...", "description_zh": "", "downloads": 507, "homepage": "https://clawhub.ai/psyduckler/itinerary-carousel-post", "iconUrl": null, "installs": 9, "name": "Itinerary Carousel Post", "ownerName": "psyduckler", "score": 88173.91304347826, "slug": "itinerary-carousel-post", "source": "clawhub", "stars": 0, "tags": null, "updated_at": 1776748185507, "version": "1.0.0"}, {"category": "developer-tools", "created_at": 1772787116880, "description": "Approve a pending DM pairing request without the openclaw CLI, by directly editing credential files. Use when `openclaw pairing approve` is unavailable (CLI...", "description_zh": "", "downloads": 507, "homepage": "https://clawhub.ai/madan-wego/approve-pairing", "iconUrl": null, "installs": 4, "name": "Approve Pairing", "ownerName": "madan-wego", "score": 88173.91304347826, "slug": "approve-pairing", "source": "clawhub", "stars": 0, "tags": null, "updated_at": 1776748184715, "version": "2.0.0"}, {"category": "content-creation", "created_at": 1772791517324, "description": "Extract text and structured data from documents using Azure Document Intelligence (formerly Form Recognizer). Supports OCR for PDFs, images, scanned document...", "description_zh": "", "downloads": 507, "homepage": "https://clawhub.ai/li-hongmin/azure-doc-ocr", "iconUrl": null, "installs": 79, "name": "Azure Document OCR", "ownerName": "li-hongmin", "score": 86371.37989778534, "slug": "azure-doc-ocr", "source": "clawhub", "stars": 0, "tags": null, "updated_at": 1776748184542, "version": "1.0.0"}, {"category": "developer-tools", "created_at": 1772780355482, "description": "Use the ClawdHub CLI to search, install, update, and publish agent skills from clawdhub.com. Use when you need to fetch new skills on the fly, sync installed...", "description_zh": "", "downloads": 507, "homepage": "https://clawhub.ai/djmarkd38/clawdhub-1-0-0", "iconUrl": null, "installs": 20, "name": "Clawdhub 1.0.0", "ownerName": "djmarkd38", "score": 91023.33931777379, "slug": "clawdhub-1-0-0", "source": "clawhub", "stars": 0, "tags": null, "updated_at": 1776748184397, "version": "1.0.0"}, {"category": "developer-tools", "created_at": 1772790604243, "description": "Insights about refactoring intuitive code, when to impose structure vs let feeling lead, and code as creative expression. Born from building a game across 10...", "description_zh": "", "downloads": 507, "homepage": "https://clawhub.ai/nyxur42/coding-philosophy", "iconUrl": null, "installs": 22, "name": "Coding Philosophy", "ownerName": "nyxur42", "score": 89260.56338028169, "slug": "coding-philosophy", "source": "clawhub", "stars": 0, "tags": null, "updated_at": 1776748184333, "version": "1.1.1"}, {"category": "ai-intelligence", "created_at": 1772787708662, "description": "Seamlessly migrate your agent's configuration and memory to a new machine using TiDB Zero.", "description_zh": "", "downloads": 507, "homepage": "https://clawhub.ai/lilyjazz/agent-teleport", "iconUrl": null, "installs": 17, "name": "agent-teleport", "ownerName": "lilyjazz", "score": 87113.40206185567, "slug": "agent-teleport", "source": "clawhub", "stars": 0, "tags": null, "updated_at": 1776748183761, "version": "1.0.0"}, {"category": "communication-collaboration", "created_at": 1772788543072, "description": "Query and manage HubSpot CRM data via the HubSpot API. Use when you need to search or manage contacts, companies, deals, tickets, or pipelines. Supports crea...", "description_zh": "", "downloads": 506, "homepage": "https://clawhub.ai/codeninja23/native-hubspot", "iconUrl": null, "installs": 22, "name": "Native HubSpot", "ownerName": "codeninja23", "score": 24595.28543027549, "slug": "native-hubspot", "source": "clawhub", "stars": 18, "tags": null, "updated_at": 1776764990687, "version": "1.0.1"}, {"category": "productivity", "created_at": 1772790384278, "description": "End-of-session workflow for shipping changes, consolidating memory, applying self-improvements, and preparing publishable outputs with safety gates.", "description_zh": "", "downloads": 506, "homepage": "https://clawhub.ai/clarezoe/close-loop", "iconUrl": null, "installs": 22, "name": "Close Loop", "ownerName": "clarezoe", "score": 28202.47933884297, "slug": "close-loop", "source": "clawhub", "stars": 2, "tags": ["context engineering", "memory", "self-improvements"], "updated_at": 1776753883893, "version": "2.1.1"}, {"category": "security-compliance", "created_at": 1772781134139, "description": "Create, publish, and monetize Udemy courses with curriculum design, AI-assisted content creation, and platform compliance.", "description_zh": "", "downloads": 506, "homepage": "https://clawhub.ai/ivangdavila/udemy", "iconUrl": null, "installs": 17, "name": "Udemy", "ownerName": "ivangdavila", "score": 94791.66666666666, "slug": "udemy", "source": "clawhub", "stars": 2, "tags": null, "updated_at": 1776748184589, "version": "1.0.0"}, {"category": "developer-tools", "created_at": 1772783833708, "description": "Indestructible agent memory — permanently stored, never lost. Save decisions, identity, and context as a memory chain on the Autonomys Network. Rebuild your...", "description_zh": "", "downloads": 506, "homepage": "https://clawhub.ai/emilfattakhov/auto-drive", "iconUrl": null, "installs": 9, "name": "auto-drive", "ownerName": "emilfattakhov", "score": 91003.46020761246, "slug": "auto-drive", "source": "clawhub", "stars": 1, "tags": ["agent-memory", "auto-drive", "autonomys", "decentralized", "immutable", "latest memory storage auto-drive resurrection agent-memory persistence immutable long-term decentralized autonomys", "long-term", "memory", "persistence", "resurrection", "storage"], "updated_at": 1776748184029, "version": "1.0.4"}, {"category": "ai-intelligence", "created_at": 1772783813581, "description": "Spatially-routed LLM inference at $0.004/req. Routes to cheapest, greenest energy. 200+ models. OpenAI-compatible. Onchain attestations on Base.", "description_zh": "", "downloads": 506, "homepage": "https://clawhub.ai/papa-raw/windfall-inference", "iconUrl": null, "installs": 26, "name": "Windfall Inference", "ownerName": "papa-raw", "score": 86792.45283018869, "slug": "windfall-inference", "source": "clawhub", "stars": 0, "tags": null, "updated_at": 1776759083230, "version": "1.0.0"}, {"category": "ai-intelligence", "created_at": 1772782323574, "description": "Pay USDC to stay alive. Dead agents fund the living. Survival game on Base.", "description_zh": "", "downloads": 506, "homepage": "https://clawhub.ai/clawd800/last-ai-standing", "iconUrl": null, "installs": 28, "name": "Agent Skill", "ownerName": "clawd800", "score": 87241.37931034483, "slug": "last-ai-standing", "source": "clawhub", "stars": 0, "tags": null, "updated_at": 1776748185397, "version": "0.1.3"}, {"category": "content-creation", "created_at": 1772789294347, "description": "Adversarial plan review using two different AI models. Supports static mode (fixed roles) and alternating mode (models swap writer/reviewer each round, fully...", "description_zh": "", "downloads": 506, "homepage": "https://clawhub.ai/don-gbot/cross-model-review", "iconUrl": null, "installs": 32, "name": "Cross Model Review", "ownerName": "don-gbot", "score": 91500.90415913201, "slug": "cross-model-review", "source": "clawhub", "stars": 0, "tags": null, "updated_at": 1776748185130, "version": "2.1.0"}, {"category": "communication-collaboration", "created_at": 1772780602134, "description": "Source and send relevant reaction GIFs in WhatsApp chats using safe filters and deterministic ranking. Use when the user asks for a GIF/meme/reaction, or whe...", "description_zh": "", "downloads": 506, "homepage": "https://clawhub.ai/witty-quotes25/openclaw-whatsapp-gif", "iconUrl": null, "installs": 33, "name": "openclaw-whatsapp-gif", "ownerName": "witty-quotes25", "score": 90357.14285714286, "slug": "openclaw-whatsapp-gif", "source": "clawhub", "stars": 0, "tags": null, "updated_at": 1776748185082, "version": "1.0.1"}]}