{"page": 175, "total_pages": 522, "total": 26073, "skills": [{"category": "data-analysis", "created_at": 1772785140355, "description": "Runs HLE-oriented benchmark reward ingestion and curriculum generation for capability-evolver. Use when the user asks to optimize Humanity's Last Exam score,...", "description_zh": "", "downloads": 506, "homepage": "https://clawhub.ai/wanng-ide/hle-benchmark-evolver", "iconUrl": null, "installs": 20, "name": "Hle Benchmark Evolver", "ownerName": "wanng-ide", "score": 89084.50704225352, "slug": "hle-benchmark-evolver", "source": "clawhub", "stars": 0, "tags": null, "updated_at": 1776748184302, "version": "1.0.0"}, {"category": "communication-collaboration", "created_at": 1772782541996, "description": "Send beautifully formatted HTML emails via gog CLI with templates and styling", "description_zh": "", "downloads": 506, "homepage": "https://clawhub.ai/syedair/gog-html-email", "iconUrl": null, "installs": 17, "name": "Gog Html Email", "ownerName": "syedair", "score": 90843.80610412927, "slug": "gog-html-email", "source": "clawhub", "stars": 0, "tags": null, "updated_at": 1776748183898, "version": "1.0.0"}, {"category": "developer-tools", "created_at": 1772782351801, "description": "Build and launch profitable SAAS products. Use for development, marketing, revenue optimization, and getting products to $1000+ MRR. The worker bee skill for...", "description_zh": "", "downloads": 506, "homepage": "https://clawhub.ai/juniorxcoder/saas-worker", "iconUrl": null, "installs": 15, "name": "SAAS Worker", "ownerName": "juniorxcoder", "score": 86201.02214650766, "slug": "saas-worker", "source": "clawhub", "stars": 0, "tags": null, "updated_at": 1776748183660, "version": "1.0.0"}, {"category": "productivity", "created_at": 1772799175361, "description": "Create music with MiniMax music models (e.g., music-2.5). Use when generating songs or instrumental tracks from lyrics and style prompts, or when integrating...", "description_zh": "", "downloads": 505, "homepage": "https://clawhub.ai/blue-coconut/mm-music-maker", "iconUrl": null, "installs": 51, "name": "mmMusicMaker", "ownerName": "blue-coconut", "score": 10519.204786720711, "slug": "mm-music-maker", "source": "clawhub", "stars": 2, "tags": null, "updated_at": 1776765250415, "version": "1.0.0"}, {"category": "ai-intelligence", "created_at": 1772785816481, "description": "Get detailed routing between two points with distance, duration, and optional turn-by-turn directions. Use when you need navigation instructions or travel ti...", "description_zh": "", "downloads": 505, "homepage": "https://clawhub.ai/james-southendsolutions/camino-route", "iconUrl": null, "installs": 24, "name": "Route between two locations", "ownerName": "james-southendsolutions", "score": 94782.60869565218, "slug": "camino-route", "source": "clawhub", "stars": 2, "tags": null, "updated_at": 1776748184824, "version": "0.2.0"}, {"category": "ai-intelligence", "created_at": 1772783504751, "description": "Find EV charging stations along a route or near a destination using Camino AI's location intelligence with OpenStreetMap data.", "description_zh": "", "downloads": 505, "homepage": "https://clawhub.ai/james-southendsolutions/camino-ev-charger", "iconUrl": null, "installs": 25, "name": "Ev Charger Locations", "ownerName": "james-southendsolutions", "score": 95950.7042253521, "slug": "camino-ev-charger", "source": "clawhub", "stars": 2, "tags": null, "updated_at": 1776748184297, "version": "0.1.0"}, {"category": "data-analysis", "created_at": 1772800448226, "description": "MiniMax MCP tools - Web search and image understanding via MiniMax Coding Plan. Use when user needs web search, current information, or image analysis. Requi...", "description_zh": "", "downloads": 505, "homepage": "https://clawhub.ai/russellfei/minimax-mcp-call", "iconUrl": null, "installs": 76, "name": "MiniMax MCP Call", "ownerName": "russellfei", "score": 11028.608866564753, "slug": "minimax-mcp-call", "source": "clawhub", "stars": 0, "tags": null, "updated_at": 1776769150315, "version": "1.0.0"}, {"category": "", "created_at": 1774895009904, "description": "Build production Spring Boot applications - REST APIs, Security, Data, Actuator", "description_zh": "", "downloads": 505, "homepage": "https://clawhub.ai/watermelon11/java-spring-boot", "iconUrl": null, "installs": 144, "name": "Java Spring Boot", "ownerName": "watermelon11", "score": 36278.7356321839, "slug": "java-spring-boot", "source": "clawhub", "stars": 0, "tags": null, "updated_at": 1776767050203, "version": "1.0.0"}, {"category": "productivity", "created_at": 1773078392104, "description": "Launch Doubao desktop application and configure real-time translation window.", "description_zh": "", "downloads": 505, "homepage": "https://clawhub.ai/banner90/doubao-launch", "iconUrl": null, "installs": 135, "name": "Doubao Launch", "ownerName": "banner90", "score": 11459.04243249376, "slug": "doubao-launch", "source": "clawhub", "stars": 0, "tags": null, "updated_at": 1776764049897, "version": "1.0.6"}, {"category": "security-compliance", "created_at": 1772777555250, "description": "Verify before you trust — model pinning, fallbacks, and runtime safety validation", "description_zh": "", "downloads": 505, "homepage": "https://clawhub.ai/leegitw/safety-checks", "iconUrl": null, "installs": 8, "name": "Safety Checks", "ownerName": "leegitw", "score": 36727.27272727273, "slug": "safety-checks", "source": "clawhub", "stars": 0, "tags": ["agentic", "cache", "fallback", "fallbacks", "guardrails", "model", "model-pinning", "runtime-verification", "safety", "security", "session", "validation", "verification"], "updated_at": 1776759083378, "version": "1.5.2"}, {"category": "productivity", "created_at": 1772782493333, "description": "Proxies search queries to a local searxng instance and returns json-formatted search results with titles, URLs, snippets, and sources.", "description_zh": "", "downloads": 505, "homepage": "https://clawhub.ai/zomgirprogrammer/searxng-web", "iconUrl": null, "installs": 10, "name": "Searxng Web", "ownerName": "zomgirprogrammer", "score": 34923.92807745505, "slug": "searxng-web", "source": "clawhub", "stars": 0, "tags": null, "updated_at": 1776759082981, "version": "1.0.0"}, {"category": "security-compliance", "created_at": 1772780116897, "description": "Manages decentralized identities, generates pairwise DIDs for B2C, signs mandates for B2B, and provides selective disclosure proofs without revealing private...", "description_zh": "", "downloads": 505, "homepage": "https://clawhub.ai/tamtunnel/sovereign-id", "iconUrl": null, "installs": 7, "name": "Sovereign Identity", "ownerName": "tamtunnel", "score": 34923.92807745505, "slug": "sovereign-id", "source": "clawhub", "stars": 0, "tags": ["agent-auth", "auth", "did", "identity", "security", "sovereign", "soverignd"], "updated_at": 1776759082961, "version": "0.1.1"}, {"category": "data-analysis", "created_at": 1772796079447, "description": "Perform real-time web searches and analyze images using MiniMax MCP with input prompts and flexible image sources.", "description_zh": "", "downloads": 505, "homepage": "https://clawhub.ai/hillsp99/minimax-mcp-v2", "iconUrl": null, "installs": 65, "name": "MiniMax MCP Search", "ownerName": "hillsp99", "score": 36834.42742523705, "slug": "minimax-mcp-v2", "source": "clawhub", "stars": 0, "tags": ["image", "mcp", "minimax", "search"], "updated_at": 1776759082711, "version": "1.0.0"}, {"category": "ai-intelligence", "created_at": 1772780221094, "description": "Decentralized file marketplace on Monad blockchain — buy, sell, and browse encrypted files with x402", "description_zh": "", "downloads": 505, "homepage": "https://clawhub.ai/timowhite88/planetexpress-marketplace", "iconUrl": null, "installs": 20, "name": "Planet Express Marketplace", "ownerName": "timowhite88", "score": 94216.41791044775, "slug": "planetexpress-marketplace", "source": "clawhub", "stars": 0, "tags": null, "updated_at": 1776754388572, "version": "2.0.0"}, {"category": "productivity", "created_at": 1773037990686, "description": "Batch-pet Aavegotchis on Base via Bankr with cooldown checks, reminder automation, and natural-language routing.", "description_zh": "", "downloads": 505, "homepage": "https://clawhub.ai/aaigotchi/pet-me-master", "iconUrl": null, "installs": 12, "name": "Pet Me Master", "ownerName": "aaigotchi", "score": 100000, "slug": "pet-me-master", "source": "clawhub", "stars": 0, "tags": ["aavegotchi", "automation", "bankr", "base", "defi", "nft", "petting", "self-scheduling"], "updated_at": 1776750604831, "version": "2.4.3"}, {"category": "developer-tools", "created_at": 1772777620448, "description": "Read Korea OpenDART disclosures using the OpenDART API. Use when the user asks for DART 공시 조회, recent filings by company, filtering by filing type/date, or q...", "description_zh": "", "downloads": 505, "homepage": "https://clawhub.ai/kim-dongchul/opendart-disclosure", "iconUrl": null, "installs": 7, "name": "OpenDART Disclosure", "ownerName": "kim-dongchul", "score": 87068.96551724138, "slug": "opendart-disclosure", "source": "clawhub", "stars": 0, "tags": null, "updated_at": 1776748185575, "version": "1.2.0"}, {"category": "ai-intelligence", "created_at": 1772788782063, "description": "Automate Twitter/X posting, engagement, and growth for OpenClaw AI agents. Use when setting up an agent's Twitter presence, posting tweets, running engagemen...", "description_zh": "", "downloads": 505, "homepage": "https://clawhub.ai/persnola1-sketch/twitter-autopilot", "iconUrl": null, "installs": 29, "name": "Twitter Autopilot", "ownerName": "persnola1-sketch", "score": 86919.10499139415, "slug": "twitter-autopilot", "source": "clawhub", "stars": 0, "tags": null, "updated_at": 1776748185335, "version": "1.3.1"}, {"category": "data-analysis", "created_at": 1772781641368, "description": "Use when querying Outlit customer data via MCP tools (outlit_*). Triggers on customer analytics, revenue metrics, activity timelines, cohort analysis, churn...", "description_zh": "", "downloads": 505, "homepage": "https://clawhub.ai/leo-paz/outlit-mcp", "iconUrl": null, "installs": 7, "name": "Outlit MCP", "ownerName": "leo-paz", "score": 90664.27289048475, "slug": "outlit-mcp", "source": "clawhub", "stars": 0, "tags": null, "updated_at": 1776748183896, "version": "1.0.0"}, {"category": "data-analysis", "created_at": 1772781822894, "description": "AI-powered natural language task management through MyTaskline.com. Transform complex requests like \"Ask Sarah to review the Mobile project docs by Friday wi...", "description_zh": "", "downloads": 504, "homepage": "https://clawhub.ai/brettburbidge/taskline", "iconUrl": null, "installs": 15, "name": "Taskline Integration", "ownerName": "brettburbidge", "score": 97666.06822262118, "slug": "taskline", "source": "clawhub", "stars": 2, "tags": null, "updated_at": 1776748184427, "version": "2.0.0"}, {"category": "developer-tools", "created_at": 1772781625346, "description": "Provides a decentralized social layer for AI agents with DID-based identity, reputation scoring, social feeds, cryptographic attestations, and spam prevention.", "description_zh": "", "downloads": 504, "homepage": "https://clawhub.ai/tcsenpai/lattice-protocol", "iconUrl": null, "installs": 5, "name": "Lattice Protocol: organic agentic social space", "ownerName": "tcsenpai", "score": 88421.05263157895, "slug": "lattice-protocol", "source": "clawhub", "stars": 0, "tags": null, "updated_at": 1776759083283, "version": "0.1.0"}, {"category": "security-compliance", "created_at": 1772783046037, "description": "Design, manage, and scale a channel partner program with tiers, deal registration, compensation, enablement, co-marketing, and performance audits.", "description_zh": "", "downloads": 504, "homepage": "https://clawhub.ai/1kalin/afrexai-channel-partner", "iconUrl": null, "installs": 29, "name": "Channel Partner Program", "ownerName": "1kalin", "score": 36761.48796498906, "slug": "afrexai-channel-partner", "source": "clawhub", "stars": 0, "tags": ["channel-partner", "partnerships", "reseller", "revenue"], "updated_at": 1776759082704, "version": "1.0.0"}, {"category": "productivity", "created_at": 1772782661206, "description": "Visualize the current context window usage — token estimates per component (system prompt, tools, workspace files, messages, free space). Use when the user a...", "description_zh": "", "downloads": 504, "homepage": "https://clawhub.ai/furukama/context-viz", "iconUrl": null, "installs": 18, "name": "Context Visualization", "ownerName": "furukama", "score": 87652.17391304347, "slug": "context-viz", "source": "clawhub", "stars": 0, "tags": null, "updated_at": 1776748185445, "version": "1.0.0"}, {"category": "developer-tools", "created_at": 1772785431221, "description": "Research and summarize what happened in the last N days (or a date range) about a topic, optionally using Reddit API and X ingestion via x-cli/API/archive wi...", "description_zh": "", "downloads": 504, "homepage": "https://clawhub.ai/levineam/lastxdays", "iconUrl": null, "installs": 11, "name": "lastXdays", "ownerName": "levineam", "score": 92817.67955801105, "slug": "lastxdays", "source": "clawhub", "stars": 0, "tags": null, "updated_at": 1776748184968, "version": "1.0.2"}, {"category": "security-compliance", "created_at": 1772777705660, "description": "Run AI-powered application security scans on codebases. Use when asked to scan code for security vulnerabilities, generate threat models, review code for sec...", "description_zh": "", "downloads": 504, "homepage": "https://clawhub.ai/anshumanbh/securevibes-scanner", "iconUrl": null, "installs": 5, "name": "SecureVibes Scanner", "ownerName": "anshumanbh", "score": 92817.67955801105, "slug": "securevibes-scanner", "source": "clawhub", "stars": 0, "tags": null, "updated_at": 1776748184952, "version": "0.5.3"}, {"category": "productivity", "created_at": 1772783735995, "description": "Fully automated private ETH transfer via Ceaser Protocol on Base L2 using the ceaser-mcp MCP tools. This skill uses the ceaser-mcp npm package for ALL operat...", "description_zh": "", "downloads": 504, "homepage": "https://clawhub.ai/zyra-v21/ceaser-send", "iconUrl": null, "installs": 16, "name": "Openclaw Send Skill", "ownerName": "zyra-v21", "score": 87652.17391304347, "slug": "ceaser-send", "source": "clawhub", "stars": 0, "tags": null, "updated_at": 1776748184869, "version": "1.3.0"}, {"category": "content-creation", "created_at": 1772785512522, "description": "Generate YouTube videos and Shorts using each::sense AI. Create faceless videos, explainers, tutorials, product reviews, compilations, and more optimized for...", "description_zh": "", "downloads": 504, "homepage": "https://clawhub.ai/eftalyurtseven/youtube-video-generation", "iconUrl": null, "installs": 39, "name": "Youtube Video Generation", "ownerName": "eftalyurtseven", "score": 87500, "slug": "youtube-video-generation", "source": "clawhub", "stars": 0, "tags": null, "updated_at": 1776748184615, "version": "0.1.0"}, {"category": "ai-intelligence", "created_at": 1772782301547, "description": "HWPX 문서(.hwpx 파일)를 생성, 읽기, 편집, 템플릿 치환하는 스킬. 한글 HWPX 포맷을 다루며 양식 기반 템플릿 치환 워크플로우를 제공합니다.", "description_zh": "", "downloads": 504, "homepage": "https://clawhub.ai/withakiss/gonggong-hwpxskills-main", "iconUrl": null, "installs": 13, "name": "Gonggong Hwpxskills Main", "ownerName": "withakiss", "score": 90484.73967684023, "slug": "gonggong-hwpxskills-main", "source": "clawhub", "stars": 0, "tags": null, "updated_at": 1776748184422, "version": "0.1.1"}, {"category": "content-creation", "created_at": 1772785075550, "description": "Extract all assets and content from websites including images, SVGs, fonts, videos, and page structure. Parallel agents with thorough scraping coverage. Trig...", "description_zh": "", "downloads": 504, "homepage": "https://clawhub.ai/dorukardahan/traktor", "iconUrl": null, "installs": 32, "name": "Traktor Web Scraper", "ownerName": "dorukardahan", "score": 87197.23183391003, "slug": "traktor", "source": "clawhub", "stars": 0, "tags": null, "updated_at": 1776748184020, "version": "1.0.0"}, {"category": "data-analysis", "created_at": 1772780463065, "description": "Generate SwiftUI views that render FOSMVVM ViewModels. Scaffolds ViewModelView pattern with binding, loading states, and previews.", "description_zh": "", "downloads": 504, "homepage": "https://clawhub.ai/foscomputerservices/fosmvvm-swiftui-view-generator", "iconUrl": null, "installs": 10, "name": "FOSMVVM SwiftUI View Generator", "ownerName": "foscomputerservices", "score": 85860.3066439523, "slug": "fosmvvm-swiftui-view-generator", "source": "clawhub", "stars": 0, "tags": null, "updated_at": 1776748183656, "version": "2.0.6"}, {"category": "data-analysis", "created_at": 1772788265879, "description": "Build full-stack web and mobile apps from a text description. Creates projects, plans features, and starts Quick Start builds for background execution.", "description_zh": "", "downloads": 503, "homepage": "https://clawhub.ai/versacexcodes/mobile-app-builder-ai", "iconUrl": null, "installs": 15, "name": "mobile app builder with live link, publishes to app store, create ai apps", "ownerName": "versacexcodes", "score": 42369.186046511626, "slug": "mobile-app-builder-ai", "source": "clawhub", "stars": 4, "tags": null, "updated_at": 1776759083551, "version": "1.0.0"}, {"category": "developer-tools", "created_at": 1772789838286, "description": "Query DexScreener market data - search pairs, inspect liquidity/volume, check boosted tokens, and fetch token orders.", "description_zh": "", "downloads": 503, "homepage": "https://clawhub.ai/brs999/dexscreener", "iconUrl": null, "installs": 10, "name": "Dexscreener API", "ownerName": "brs999", "score": 9655.049786628735, "slug": "dexscreener", "source": "clawhub", "stars": 2, "tags": null, "updated_at": 1776765371195, "version": "1.0.0"}, {"category": "data-analysis", "created_at": 1773067044299, "description": "Create mobile-friendly newspaper-style long images from raw text or summaries by extracting key points and rendering structured content in a clean HTML/PNG f...", "description_zh": "", "downloads": 503, "homepage": "https://clawhub.ai/eisonme/newspaper-brief", "iconUrl": null, "installs": 78, "name": "Newspaper Brief", "ownerName": "eisonme", "score": 38258.96122896855, "slug": "newspaper-brief", "source": "clawhub", "stars": 1, "tags": ["brief", "html", "image", "telegram", "zh-cn"], "updated_at": 1776759082579, "version": "1.1.0"}, {"category": "content-creation", "created_at": 1772784501137, "description": "Post and reply on Twitter and Farcaster with character limit checks, image support, threads, link shortening, and draft preview.", "description_zh": "", "downloads": 503, "homepage": "https://clawhub.ai/mupengi-bot/mupeng-social-postcjo", "iconUrl": null, "installs": 35, "name": "social-postcjo", "ownerName": "mupengi-bot", "score": 36688.54850474106, "slug": "mupeng-social-postcjo", "source": "clawhub", "stars": 0, "tags": null, "updated_at": 1776759083790, "version": "1.0.0"}, {"category": "data-analysis", "created_at": 1772788277198, "description": "Automatically evaluates and approves agent outputs based on clarity, conciseness, actionability, and structure using a rule-based system.", "description_zh": "", "downloads": 503, "homepage": "https://clawhub.ai/leic8959-sudo/self-review", "iconUrl": null, "installs": 31, "name": "Self Review", "ownerName": "leic8959-sudo", "score": 90143.36917562725, "slug": "self-review", "source": "clawhub", "stars": 0, "tags": ["automation", "quality", "token-optimization"], "updated_at": 1776759083758, "version": "1.0.0"}, {"category": "security-compliance", "created_at": 1772784257284, "description": "Enforces skill-trust-scanner security checks before installing skills, blocking or alerting based on risk scores to reduce supply chain threats.", "description_zh": "", "downloads": 503, "homepage": "https://clawhub.ai/walkman1w/skill-trust-guard", "iconUrl": null, "installs": 9, "name": "Skill Trust Guard", "ownerName": "walkman1w", "score": 85836.17747440274, "slug": "skill-trust-guard", "source": "clawhub", "stars": 0, "tags": null, "updated_at": 1776759083409, "version": "1.0.0"}, {"category": "productivity", "created_at": 1772786090795, "description": "Deterministic, evidence-gated controller templates for OpenClaw enabling repeatable orchestration loops with heartbeat, cron poll, and sprint planning.", "description_zh": "", "downloads": 503, "homepage": "https://clawhub.ai/variable190/deterministic-controller", "iconUrl": null, "installs": 17, "name": "deterministic-controller", "ownerName": "variable190", "score": 36903.88848129127, "slug": "deterministic-controller", "source": "clawhub", "stars": 0, "tags": null, "updated_at": 1776759083108, "version": "0.1.1"}, {"category": "content-creation", "created_at": 1772783804493, "description": "Read, summarize, propose edits, and write back changes to Markdown todo files using line-stable bot markers without altering task identity or completing tasks.", "description_zh": "", "downloads": 503, "homepage": "https://clawhub.ai/nitsujy/todolist-md-clawdbot-copy", "iconUrl": null, "installs": 28, "name": "Todolist Md Clawdbot Copy", "ownerName": "nitsujy", "score": 36849.81684981685, "slug": "todolist-md-clawdbot-copy", "source": "clawhub", "stars": 0, "tags": null, "updated_at": 1776759082863, "version": "1.0.0"}, {"category": "security-compliance", "created_at": 1772783787907, "description": "Tracks data provenance and lineage by tracing sources, logging transformations, and auditing anchors to ensure data auditability and compliance.", "description_zh": "", "downloads": 503, "homepage": "https://clawhub.ai/kleberbaum/origin", "iconUrl": null, "installs": 33, "name": "origin", "ownerName": "kleberbaum", "score": 86873.92055267702, "slug": "origin", "source": "clawhub", "stars": 0, "tags": null, "updated_at": 1776759082795, "version": "0.1.0"}, {"category": "security-compliance", "created_at": 1772785034672, "description": "Manage, create, update, and analyze custom crypto indices with detailed asset weights, methodologies, and performance metrics via API or Web3 authentication.", "description_zh": "", "downloads": 503, "homepage": "https://clawhub.ai/hsantana/indexy", "iconUrl": null, "installs": 13, "name": "Indexy", "ownerName": "hsantana", "score": 37121.77121771218, "slug": "indexy", "source": "clawhub", "stars": 0, "tags": null, "updated_at": 1776759082518, "version": "1.0.0"}, {"category": "data-analysis", "created_at": 1772791593085, "description": "Rust-based Chrome automation for ultra-fast, token-efficient DOM extraction, session management, screenshots, infinite scroll harvesting, and sitemap analysis.", "description_zh": "", "downloads": 503, "homepage": "https://clawhub.ai/makforce/fast-browser-use-1-0-5", "iconUrl": null, "installs": 62, "name": "Fast Browser Use 1.0.5", "ownerName": "makforce", "score": 36581.818181818184, "slug": "fast-browser-use-1-0-5", "source": "clawhub", "stars": 0, "tags": null, "updated_at": 1776759082270, "version": "1.0.0"}, {"category": "data-analysis", "created_at": 1772788921756, "description": "Argus-style prediction market edge detection and betting strategy. Computes expected value from TA-implied probability vs market odds, sizes bets via Kelly c...", "description_zh": "", "downloads": 503, "homepage": "https://clawhub.ai/jamierossouw/argus-edge", "iconUrl": null, "installs": 26, "name": "Argus Edge — Prediction Market Betting Engine", "ownerName": "jamierossouw", "score": 90305.20646319569, "slug": "argus-edge", "source": "clawhub", "stars": 0, "tags": ["betting-strategy", "crypto", "edge", "ev", "kelly", "polymarket", "prediction-markets"], "updated_at": 1776748184361, "version": "1.0.0"}, {"category": "communication-collaboration", "created_at": 1772785119211, "description": "CLI tool for tracking Greek tax deadlines (AADE, EFKA). Real-time monitoring with configurable alerts via Slack, SMS, email, or local files.", "description_zh": "", "downloads": 503, "homepage": "https://clawhub.ai/satoshistackalotto/cli-deadline-monitor", "iconUrl": null, "installs": 11, "name": "Cli Deadline Monitor", "ownerName": "satoshistackalotto", "score": 87783.59511343804, "slug": "cli-deadline-monitor", "source": "clawhub", "stars": 0, "tags": null, "updated_at": 1776748184240, "version": "0.1.1"}, {"category": "security-compliance", "created_at": 1772790569097, "description": "Audit and harden OpenClaw configuration for security. Scans openclaw.json for vulnerabilities, exposed credentials, insecure gateway settings, overly permiss...", "description_zh": "", "downloads": 503, "homepage": "https://clawhub.ai/mariusfit/oc-security-hardener", "iconUrl": null, "installs": 7, "name": "Security Hardener", "ownerName": "mariusfit", "score": 87783.59511343804, "slug": "oc-security-hardener", "source": "clawhub", "stars": 0, "tags": ["audit", "hardening", "openclaw", "security"], "updated_at": 1776748184221, "version": "1.0.0"}, {"category": "developer-tools", "created_at": 1772781146031, "description": "Query builder reputation data via Talent Protocol API. Get Builder Rank, verify humans, resolve identities (Twitter/Farcaster/GitHub/wallet), search by locat...", "description_zh": "", "downloads": 503, "homepage": "https://clawhub.ai/juampihernandez/builder-data", "iconUrl": null, "installs": 3, "name": "Builder Data", "ownerName": "juampihernandez", "score": 87024.2214532872, "slug": "builder-data", "source": "clawhub", "stars": 0, "tags": null, "updated_at": 1776748184117, "version": "0.1.0"}, {"category": "productivity", "created_at": 1772779945772, "description": "Calibrate assistant personality to voice, boundaries, and audience context. Use when handling personality work that needs repeatable steps, quality gates, an...", "description_zh": "", "downloads": 503, "homepage": "https://clawhub.ai/xammarie/jarvis-persona-style-calibrator-01", "iconUrl": null, "installs": 10, "name": "Jarvis Persona Style Calibrator 01", "ownerName": "xammarie", "score": 87024.2214532872, "slug": "jarvis-persona-style-calibrator-01", "source": "clawhub", "stars": 0, "tags": null, "updated_at": 1776748184062, "version": "1.0.0"}, {"category": "developer-tools", "created_at": 1772778274974, "description": "Script-free Govee OpenAPI setup and control guide. Use when the user wants to get a Govee API key, connect Govee, list devices, check state, or send power/br...", "description_zh": "", "downloads": 503, "homepage": "https://clawhub.ai/cole-z/govee-control", "iconUrl": null, "installs": 7, "name": "govee-control", "ownerName": "cole-z", "score": 90305.20646319569, "slug": "govee-control", "source": "clawhub", "stars": 0, "tags": null, "updated_at": 1776748184008, "version": "1.0.1"}, {"category": "developer-tools", "created_at": 1772777435320, "description": "한국형 쇼핑 검색 스킬. 네이버 쇼핑 API + 쿠팡/11번가 웹 스크래핑으로 배송비 포함 최저가를 자동 비교합니다.", "description_zh": "", "downloads": 502, "homepage": "https://clawhub.ai/mupengi-bot/naver-shopping-plus", "iconUrl": null, "installs": 11, "name": "Naver Shopping Plus", "ownerName": "mupengi-bot", "score": 31239.193083573486, "slug": "naver-shopping-plus", "source": "clawhub", "stars": 2, "tags": null, "updated_at": 1776765550280, "version": "1.0.0"}, {"category": "ai-intelligence", "created_at": 1772784108679, "description": "Local Neutaro chain wallet for managing NTMPI tokens, supporting balance checks, transfers, transaction history, staking, and allowlist enforcement.", "description_zh": "", "downloads": 502, "homepage": "https://clawhub.ai/mhue-ai/clawpurse", "iconUrl": null, "installs": 23, "name": "ClawPurse", "ownerName": "mhue-ai", "score": 92967.40994854203, "slug": "clawpurse", "source": "clawhub", "stars": 2, "tags": null, "updated_at": 1776759083222, "version": "2.0.2"}, {"category": "developer-tools", "created_at": 1772781676056, "description": "Search for places using natural language with Camino AI's location intelligence API. Returns relevant results with coordinates, distances, and metadata. Use...", "description_zh": "", "downloads": 502, "homepage": "https://clawhub.ai/james-southendsolutions/camino-query", "iconUrl": null, "installs": 6, "name": "Broad Location Entity Query", "ownerName": "james-southendsolutions", "score": 95087.7192982456, "slug": "camino-query", "source": "clawhub", "stars": 2, "tags": null, "updated_at": 1776748185721, "version": "0.2.0"}, {"category": "developer-tools", "created_at": 1772776696807, "description": "Manage Miniflux - Modern minimalist feed reader via REST API. Use for listing feeds and entries, creating/removing subscriptions, searching articles, managin...", "description_zh": "", "downloads": 502, "homepage": "https://clawhub.ai/dorogoy/miniflux-skill", "iconUrl": null, "installs": 8, "name": "Miniflux Skill", "ownerName": "dorogoy", "score": 98010.84990958408, "slug": "miniflux-skill", "source": "clawhub", "stars": 2, "tags": null, "updated_at": 1776748185158, "version": "0.2.3"}]}