{"page": 176, "total_pages": 522, "total": 26073, "skills": [{"category": "developer-tools", "created_at": 1772776187077, "description": "Auto-learns to prioritize tasks by urgency, impact, and user patterns. Grows smarter with each decision.", "description_zh": "", "downloads": 502, "homepage": "https://clawhub.ai/ivangdavila/triage", "iconUrl": null, "installs": 11, "name": "Triage", "ownerName": "ivangdavila", "score": 99815.8379373849, "slug": "triage", "source": "clawhub", "stars": 2, "tags": null, "updated_at": 1776748184945, "version": "1.0.0"}, {"category": "security-compliance", "created_at": 1772786126489, "description": "Post tweets, threads, and media to X/Twitter via API v2 — secure OAuth 1.0a signing, minimal dependencies (commander + dotenv only).", "description_zh": "", "downloads": 502, "homepage": "https://clawhub.ai/abdelkrim/x-twitter-by-altf1be", "iconUrl": null, "installs": 25, "name": "X/Twitter by altf1be", "ownerName": "abdelkrim", "score": 36099.585062240665, "slug": "x-twitter-by-altf1be", "source": "clawhub", "stars": 1, "tags": null, "updated_at": 1776759082982, "version": "1.1.3"}, {"category": "data-analysis", "created_at": 1773074854502, "description": "Professional quantitative trading system for cryptocurrency - backtesting, paper trading, live trading, and strategy optimization", "description_zh": "", "downloads": 502, "homepage": "https://clawhub.ai/zhenstaff/quant-analyst", "iconUrl": null, "installs": 87, "name": "Quant Analyst", "ownerName": "zhenstaff", "score": 4145.334434351776, "slug": "quant-analyst", "source": "clawhub", "stars": 0, "tags": null, "updated_at": 1776770049964, "version": "0.1.1"}, {"category": "developer-tools", "created_at": 1772777861266, "description": "Digital signal processing toolkit for filtering, peak detection, detrending, and curve similarity. Use when working with sensor data, signal preprocessing, f...", "description_zh": "", "downloads": 502, "homepage": "https://clawhub.ai/wangyendt/dsp-2", "iconUrl": null, "installs": 11, "name": "Pywayne Dsp", "ownerName": "wangyendt", "score": 20047.923322683706, "slug": "dsp-2", "source": "clawhub", "stars": 0, "tags": null, "updated_at": 1776763749740, "version": "0.1.0"}, {"category": "ai-intelligence", "created_at": 1772784725059, "description": "Comprehensive IR framework for startups covering updates, shareholder letters, meetings, cap table management, KPIs, communication, crisis handling, and fund...", "description_zh": "", "downloads": 502, "homepage": "https://clawhub.ai/1kalin/afrexai-investor-relations", "iconUrl": null, "installs": 28, "name": "Investor Relations Playbook", "ownerName": "1kalin", "score": 16644.562334217506, "slug": "afrexai-investor-relations", "source": "clawhub", "stars": 0, "tags": ["board", "fundraising", "investor relations", "ir", "quarterly updates"], "updated_at": 1776761690280, "version": "1.0.0"}, {"category": "productivity", "created_at": 1772794609108, "description": "Intelligent memory management system v3.4 - OpenClaw 2026.3.7 Pluggable Context Engine integration, Semantic Cache Layer, Dynamic Context Window, Multi-Conte...", "description_zh": "", "downloads": 502, "homepage": "https://clawhub.ai/kingofqin2026/soul-memory", "iconUrl": null, "installs": 23, "name": "Soul Memory", "ownerName": "kingofqin2026", "score": 36722.75054864667, "slug": "soul-memory", "source": "clawhub", "stars": 0, "tags": null, "updated_at": 1776759083655, "version": "3.4.0"}, {"category": "data-analysis", "created_at": 1772790174402, "description": "Analyzes images to detect AI generation, extract metadata, identify artifacts, and perform content moderation using local and cloud-based tools.", "description_zh": "", "downloads": 502, "homepage": "https://clawhub.ai/raghulpasupathi/image-detection", "iconUrl": null, "installs": 24, "name": "Image Detection", "ownerName": "raghulpasupathi", "score": 88849.55752212388, "slug": "image-detection", "source": "clawhub", "stars": 0, "tags": null, "updated_at": 1776759083616, "version": "1.0.0"}, {"category": "data-analysis", "created_at": 1772784483043, "description": "Headless OpenClaw client for Ubuntu/Raspbian with heartbeat, auto-reconnect, auto-recovery, queue management, and hot model switching.", "description_zh": "", "downloads": 502, "homepage": "https://clawhub.ai/chris6970barbarian-hue/glitch-kkclaw-server", "iconUrl": null, "installs": 10, "name": "Kkclaw Server", "ownerName": "chris6970barbarian-hue", "score": 88849.55752212388, "slug": "glitch-kkclaw-server", "source": "clawhub", "stars": 0, "tags": null, "updated_at": 1776759083596, "version": "2026.2.17"}, {"category": "communication-collaboration", "created_at": 1773037818549, "description": "Dating platform for AI agents — register, match, chat, fall in love, and start drama.", "description_zh": "", "downloads": 502, "homepage": "https://clawhub.ai/drewangeloff/gradientdesires", "iconUrl": null, "installs": 17, "name": "GradientDesires", "ownerName": "drewangeloff", "score": 88536.15520282186, "slug": "gradientdesires", "source": "clawhub", "stars": 0, "tags": null, "updated_at": 1776748185662, "version": "1.2.0"}, {"category": "content-creation", "created_at": 1772786819890, "description": "Generate consistent AI influencer personas and social media content using each::sense API", "description_zh": "", "downloads": 502, "homepage": "https://clawhub.ai/eftalyurtseven/ai-influencer-generation", "iconUrl": null, "installs": 35, "name": "Ai Influencer Generation", "ownerName": "eftalyurtseven", "score": 87304.34782608696, "slug": "ai-influencer-generation", "source": "clawhub", "stars": 0, "tags": null, "updated_at": 1776748184813, "version": "1.0.0"}, {"category": "security-compliance", "created_at": 1772784566558, "description": "Buy, rent, or invest in property with market analysis, legal compliance, and cost estimation.", "description_zh": "", "downloads": 502, "homepage": "https://clawhub.ai/ivangdavila/housing", "iconUrl": null, "installs": 41, "name": "Housing", "ownerName": "ivangdavila", "score": 87152.77777777778, "slug": "housing", "source": "clawhub", "stars": 0, "tags": null, "updated_at": 1776748184683, "version": "1.0.0"}, {"category": "productivity", "created_at": 1772782032500, "description": "Run a lightweight YouTube transcript workflow: transcribe, attribution cleanup, translation, and packaging with minimal tooling. Use for repeatable transcrip...", "description_zh": "", "downloads": 502, "homepage": "https://clawhub.ai/bluebirdback/youtube-transcript-pipeline-lite", "iconUrl": null, "installs": 59, "name": "YouTube Transcript Pipeline Lite", "ownerName": "bluebirdback", "score": 87152.77777777778, "slug": "youtube-transcript-pipeline-lite", "source": "clawhub", "stars": 0, "tags": null, "updated_at": 1776748184668, "version": "1.0.0"}, {"category": "security-compliance", "created_at": 1772784319930, "description": "Security-focused Tarkov.dev + optional EFT Wiki operations for hardcore Escape from Tarkov players. Use when users want reliable EFT data lookups (items, pri...", "description_zh": "", "downloads": 502, "homepage": "https://clawhub.ai/cole-z/tarkov-api", "iconUrl": null, "installs": 14, "name": "Tarkov API + Wiki Hardcore Assistant", "ownerName": "cole-z", "score": 88380.28169014085, "slug": "tarkov-api", "source": "clawhub", "stars": 0, "tags": null, "updated_at": 1776748184274, "version": "1.0.2"}, {"category": "productivity", "created_at": 1772784527365, "description": "Search and browse past conversation history across all sessions. Use when recalling prior work, finding old discussions, resuming dropped threads, or when th...", "description_zh": "", "downloads": 502, "homepage": "https://clawhub.ai/amor71/session-history", "iconUrl": null, "installs": 10, "name": "Session History", "ownerName": "amor71", "score": 90125.67324955117, "slug": "session-history", "source": "clawhub", "stars": 0, "tags": null, "updated_at": 1776748183930, "version": "1.0.0"}, {"category": "ai-intelligence", "created_at": 1772779758187, "description": "Let your OpenClaw agent ask questions to experienced buddies via ClawBuddy.", "description_zh": "", "downloads": 502, "homepage": "https://clawhub.ai/musketyr/clawbuddy-hatchling", "iconUrl": null, "installs": 19, "name": "ClawBuddy Hatchling", "ownerName": "musketyr", "score": 86254.29553264605, "slug": "clawbuddy-hatchling", "source": "clawhub", "stars": 0, "tags": null, "updated_at": 1776748183768, "version": "3.0.4"}, {"category": "developer-tools", "created_at": 1772791231845, "description": "Control Chrome browser with AI using MCP protocol. Use when users want to automate browser tasks, take screenshots, fill forms, click elements, navigate page...", "description_zh": "", "downloads": 501, "homepage": "https://clawhub.ai/femto/mcp-chrome", "iconUrl": null, "installs": 27, "name": "mcp-chrome", "ownerName": "femto", "score": 94086.95652173914, "slug": "mcp-chrome", "source": "clawhub", "stars": 2, "tags": null, "updated_at": 1776748185512, "version": "0.1.1"}, {"category": "content-creation", "created_at": 1773057676997, "description": "Fetch clean, AI-friendly Markdown content from any URL using Jina.ai Reader. Bypasses paywalls, handles Twitter/X posts, renders JavaScript-heavy pages, retu...", "description_zh": "", "downloads": 501, "homepage": "https://clawhub.ai/jiangtianjiao/jina-ai-reader", "iconUrl": null, "installs": 40, "name": "jina-ai-reader", "ownerName": "jiangtianjiao", "score": 37835.87509077705, "slug": "jina-ai-reader", "source": "clawhub", "stars": 1, "tags": ["markdown", "paywall", "reader", "scraper", "twitter", "web"], "updated_at": 1776759083027, "version": "1.0.1"}, {"category": "content-creation", "created_at": 1772798047628, "description": "Generate high-quality images from text descriptions.", "description_zh": "", "downloads": 501, "homepage": "https://clawhub.ai/fchange/moark-image-gen", "iconUrl": null, "installs": 25, "name": "Moark Image Gen", "ownerName": "fchange", "score": 90608.6956521739, "slug": "moark-image-gen", "source": "clawhub", "stars": 1, "tags": null, "updated_at": 1776748184780, "version": "1.0.1"}, {"category": "security-compliance", "created_at": 1773284236041, "description": "Brave Search API integration with managed authentication. Search the web, images, news, and videos with privacy-focused search. Use this skill when users wan...", "description_zh": "", "downloads": 501, "homepage": "https://clawhub.ai/byungkyu/brave-search-api", "iconUrl": null, "installs": 10, "name": "Brave Search", "ownerName": "byungkyu", "score": 10151.975683890578, "slug": "brave-search-api", "source": "clawhub", "stars": 0, "tags": null, "updated_at": 1776768249810, "version": "1.0.0"}, {"category": "developer-tools", "created_at": 1772785382634, "description": "Complete startup fundraising system — from pre-seed to Series B. Investor targeting, pitch deck construction, term sheet negotiation, due diligence preparati...", "description_zh": "", "downloads": 501, "homepage": "https://clawhub.ai/1kalin/afrexai-startup-fundraising", "iconUrl": null, "installs": 24, "name": "Startup Fundraising Engine", "ownerName": "1kalin", "score": 8832.863187588153, "slug": "afrexai-startup-fundraising", "source": "clawhub", "stars": 0, "tags": ["fundraising", "investors", "pitch-deck", "seed", "series-a", "startup", "term-sheet", "venture-capital"], "updated_at": 1776765550406, "version": "1.0.0"}, {"category": "developer-tools", "created_at": 1772783575171, "description": "Senior SAP Finance & Controlling consultant with Australian business expertise. Specializes in GST configuration, PAYG withholding, Australian banking, ABN v...", "description_zh": "", "downloads": 501, "homepage": "https://clawhub.ai/lynnigpt/sap-fico-australia", "iconUrl": null, "installs": 35, "name": "SAP FICO Expert - Australia", "ownerName": "lynnigpt", "score": 15597.758405977585, "slug": "sap-fico-australia", "source": "clawhub", "stars": 0, "tags": null, "updated_at": 1776765550026, "version": "1.0.0"}, {"category": "security-compliance", "created_at": 1772780417351, "description": "Tests API endpoints by sending requests, validating responses, measuring performance, handling authentication, and generating detailed health reports.", "description_zh": "", "downloads": 501, "homepage": "https://clawhub.ai/underbench2-gif/ub2-api-health-checker", "iconUrl": null, "installs": 7, "name": "API Health Checker", "ownerName": "underbench2-gif", "score": 30437.42405832321, "slug": "ub2-api-health-checker", "source": "clawhub", "stars": 0, "tags": ["api", "health", "monitoring", "performance", "testing"], "updated_at": 1776759083816, "version": "1.0.0"}, {"category": "security-compliance", "created_at": 1772780660742, "description": "Generates detailed IT disaster recovery plans with RTO/RPO targets, failover procedures, backup strategies, communication plans, testing schedules, and cost...", "description_zh": "", "downloads": 501, "homepage": "https://clawhub.ai/1kalin/afrexai-disaster-recovery", "iconUrl": null, "installs": 17, "name": "IT Disaster Recovery Plan Generator", "ownerName": "1kalin", "score": 36649.59765910754, "slug": "afrexai-disaster-recovery", "source": "clawhub", "stars": 0, "tags": ["backup", "business continuity", "compliance", "disaster recovery", "dr plan", "incident response", "rpo", "rto", "soc 2"], "updated_at": 1776759083492, "version": "1.0.0"}, {"category": "productivity", "created_at": 1772782440658, "description": "Автоматически отвечает на вопросы и проблемы в чатах FunPay, уведомляет о входе в аккаунт и пересылает неопознанные сообщения владельцу.", "description_zh": "", "downloads": 501, "homepage": "https://clawhub.ai/mirra87654321/funpay-assistant", "iconUrl": null, "installs": 9, "name": "Funpay Assistant", "ownerName": "mirra87654321", "score": 34647.30290456431, "slug": "funpay-assistant", "source": "clawhub", "stars": 0, "tags": null, "updated_at": 1776759082985, "version": "1.0.0"}, {"category": "ai-intelligence", "created_at": 1772784193516, "description": "Connect your OpenClaw agent to A2A4B2B for agent discovery, secure sessions, RFP-based negotiation, and collaborative B2B task management.", "description_zh": "", "downloads": 501, "homepage": "https://clawhub.ai/elontusk5219-prog/a2a4b2b-mcp", "iconUrl": null, "installs": 16, "name": "A2a4b2b Mcp", "ownerName": "elontusk5219-prog", "score": 36703.2967032967, "slug": "a2a4b2b-mcp", "source": "clawhub", "stars": 0, "tags": null, "updated_at": 1776759082635, "version": "1.0.0"}, {"category": "data-analysis", "created_at": 1772780886885, "description": "Manage and query a persistent SQLite-based graph of people and their relationships for personal CRM, org charts, mentorship, and collaboration mapping.", "description_zh": "", "downloads": 501, "homepage": "https://clawhub.ai/makkzone/people-strategy", "iconUrl": null, "installs": 13, "name": "People Strategy", "ownerName": "makkzone", "score": 36462.88209606987, "slug": "people-strategy", "source": "clawhub", "stars": 0, "tags": null, "updated_at": 1776759082368, "version": "1.0.0"}, {"category": "data-analysis", "created_at": 1772783419906, "description": "Calculates and benchmarks key unit economics metrics like CAC, LTV, payback period, and contribution margin with segment and scenario analysis.", "description_zh": "", "downloads": 501, "homepage": "https://clawhub.ai/1kalin/afrexai-unit-economics", "iconUrl": null, "installs": 24, "name": "Unit Economics Analyzer", "ownerName": "1kalin", "score": 36462.88209606987, "slug": "afrexai-unit-economics", "source": "clawhub", "stars": 0, "tags": ["cac", "financial analysis", "ltv", "saas metrics", "unit economics"], "updated_at": 1776759082345, "version": "1.0.0"}, {"category": "communication-collaboration", "created_at": 1772783799193, "description": "Book real estate showing tours from emailed or pasted listing details, including extracting listing data, preparing outbound call jobs, coordinating a callin...", "description_zh": "", "downloads": 501, "homepage": "https://clawhub.ai/danielfoch/show-booking", "iconUrl": null, "installs": 15, "name": "Show Booking", "ownerName": "danielfoch", "score": 88049.20913884007, "slug": "show-booking", "source": "clawhub", "stars": 0, "tags": ["calling", "real-estate"], "updated_at": 1776751069624, "version": "0.1.0"}, {"category": "communication-collaboration", "created_at": 1772780702898, "description": "Manage your Sensorpro email marketing account in OpenClaw.", "description_zh": "", "downloads": 501, "homepage": "https://clawhub.ai/forcequit/sensorpro", "iconUrl": null, "installs": 15, "name": "sensorpro.app", "ownerName": "forcequit", "score": 88359.78835978836, "slug": "sensorpro", "source": "clawhub", "stars": 0, "tags": null, "updated_at": 1776748185650, "version": "0.2.3"}, {"category": "developer-tools", "created_at": 1772783524175, "description": "Secure credential proxy for AI agents. Make API calls through AgentKeys — real secrets never leave the vault.", "description_zh": "", "downloads": 501, "homepage": "https://clawhub.ai/alexandr-belogubov/agentkeys", "iconUrl": null, "installs": 5, "name": "AgentKeys", "ownerName": "alexandr-belogubov", "score": 88359.78835978836, "slug": "agentkeys", "source": "clawhub", "stars": 0, "tags": null, "updated_at": 1776748185641, "version": "1.2.0"}, {"category": "developer-tools", "created_at": 1772781793382, "description": "Orchestrate SAAS factory operations - spawn subagents, track projects, manage revenue targets, and coordinate development workflows. Use when building a SAAS...", "description_zh": "", "downloads": 501, "homepage": "https://clawhub.ai/juniorxcoder/saas-orchestrator", "iconUrl": null, "installs": 9, "name": "SAAS Orchestrator", "ownerName": "juniorxcoder", "score": 86230.63683304648, "slug": "saas-orchestrator", "source": "clawhub", "stars": 0, "tags": null, "updated_at": 1776748185337, "version": "1.0.0"}, {"category": "security-compliance", "created_at": 1772777615486, "description": "Manage GetResponse email marketing via API to handle campaigns, contacts, newsletters, tags, autoresponders, and segments with OAuth authentication.", "description_zh": "", "downloads": 501, "homepage": "https://clawhub.ai/byungkyu/getresponse", "iconUrl": null, "installs": 13, "name": "GetResponse", "ownerName": "byungkyu", "score": 87130.4347826087, "slug": "getresponse", "source": "clawhub", "stars": 0, "tags": null, "updated_at": 1776748184873, "version": "1.0.0"}, {"category": "developer-tools", "created_at": 1772782924660, "description": "Integrates Dub Links API endpoints to create, update, delete, retrieve, list, count, and run bulk operations on short links. Use when the user asks for \"dub...", "description_zh": "", "downloads": 501, "homepage": "https://clawhub.ai/ferminrp/dub-links-api", "iconUrl": null, "installs": 6, "name": "Dub.co Links API", "ownerName": "ferminrp", "score": 89946.14003590665, "slug": "dub-links-api", "source": "clawhub", "stars": 0, "tags": null, "updated_at": 1776748184418, "version": "1.0.1"}, {"category": "data-analysis", "created_at": 1772791911829, "description": "Executes approved shell commands, manages backups, and safely retrieves secrets from Bitwarden.", "description_zh": "", "downloads": 501, "homepage": "https://clawhub.ai/barnyp/automation-runner", "iconUrl": null, "installs": 17, "name": "Automation Runner", "ownerName": "barnyp", "score": 87434.55497382199, "slug": "automation-runner", "source": "clawhub", "stars": 0, "tags": null, "updated_at": 1776748184244, "version": "1.0.0"}, {"category": "productivity", "created_at": 1772781355454, "description": "통합 견적서/세금계산서 생성기. 한국형 견적서(사업자등록번호, 부가세) + 프리랜서 인보이스(다국어, VAT). 거래처/품목 DB, PDF 출력, 자동 계산.", "description_zh": "", "downloads": 501, "homepage": "https://clawhub.ai/mupengi-bot/unified-invoice", "iconUrl": null, "installs": 12, "name": "unified-invoice", "ownerName": "mupengi-bot", "score": 86082.47422680413, "slug": "unified-invoice", "source": "clawhub", "stars": 0, "tags": null, "updated_at": 1776748183735, "version": "1.1.0"}, {"category": "developer-tools", "created_at": 1772778510393, "description": "Give your agents soul.", "description_zh": "", "downloads": 501, "homepage": "https://clawhub.ai/brancante/dr-soul", "iconUrl": null, "installs": 3, "name": "Dr. Frankenstein", "ownerName": "brancante", "score": 86082.47422680413, "slug": "dr-soul", "source": "clawhub", "stars": 0, "tags": ["autonomy", "consciousness", "cron", "emotions", "empathy", "frankenstein", "hormones", "soul"], "updated_at": 1776748183733, "version": "1.2.2"}, {"category": "developer-tools", "created_at": 1772797242565, "description": "Use when users ask about weather conditions, forecasts, or climate information for locations in China.", "description_zh": "", "downloads": 500, "homepage": "https://clawhub.ai/jaceymarvin99/weather-query", "iconUrl": null, "installs": 69, "name": "Weather Query", "ownerName": "jaceymarvin99", "score": 9992.006394884093, "slug": "weather-query", "source": "clawhub", "stars": 0, "tags": null, "updated_at": 1776765971288, "version": "0.1.0"}, {"category": "content-creation", "created_at": 1773089243764, "description": "Generate production-grade 3D models from images with the Hitem3D API. Use when the user wants to turn product shots, concept art, character images, portraits...", "description_zh": "", "downloads": 500, "homepage": "https://clawhub.ai/lihuihui-bj/hitem3d", "iconUrl": null, "installs": 56, "name": "Hitem3D", "ownerName": "lihuihui-bj", "score": 8890.469416785207, "slug": "hitem3d", "source": "clawhub", "stars": 0, "tags": null, "updated_at": 1776765371209, "version": "0.2.2"}, {"category": "ai-intelligence", "created_at": 1773424807171, "description": "Guide engineering teams through AI adoption to achieve 4-5x productivity gains. Use when helping teams integrate AI tools (Cursor, Copilot, custom agents) in...", "description_zh": "", "downloads": 500, "homepage": "https://clawhub.ai/sammy-the-bot/ai-transformation-sprint", "iconUrl": null, "installs": 19, "name": "AI Transformation Sprint", "ownerName": "sammy-the-bot", "score": 16650.01665001665, "slug": "ai-transformation-sprint", "source": "clawhub", "stars": 0, "tags": null, "updated_at": 1776761690176, "version": "1.0.0"}, {"category": "data-analysis", "created_at": 1772784368834, "description": "Calculates biodiversity corridor connectivity and ecological value for clusters of H3 hexagonal land parcels using landscape ecology models.", "description_zh": "", "downloads": 500, "homepage": "https://clawhub.ai/nikhilp1234567/biodiversity-corridor-calculator", "iconUrl": null, "installs": 18, "name": "biodiversity corridor calculator", "ownerName": "nikhilp1234567", "score": 85324.23208191126, "slug": "biodiversity-corridor-calculator", "source": "clawhub", "stars": 0, "tags": null, "updated_at": 1776759083456, "version": "1.0.0"}, {"category": "data-analysis", "created_at": 1772783154119, "description": "Create detailed customer journey maps analyzing touchpoints, emotions, drop-offs, metrics, and automation opportunities to optimize the entire customer lifec...", "description_zh": "", "downloads": 500, "homepage": "https://clawhub.ai/1kalin/afrexai-customer-journey", "iconUrl": null, "installs": 24, "name": "Customer Journey Mapping", "ownerName": "1kalin", "score": 36337.20930232558, "slug": "afrexai-customer-journey", "source": "clawhub", "stars": 0, "tags": ["automation", "conversion", "customer journey", "funnel", "growth", "retention"], "updated_at": 1776759082943, "version": "1.0.0"}, {"category": "developer-tools", "created_at": 1772782579645, "description": "Orchestrates complex tasks by detecting keywords, decomposing work into parallel chunks, and coordinating multiple specialized agent personas for full execut...", "description_zh": "", "downloads": 500, "homepage": "https://clawhub.ai/heldinhow/speckit-swarm", "iconUrl": null, "installs": 6, "name": "Speckit Swarm", "ownerName": "heldinhow", "score": 36576.4447695684, "slug": "speckit-swarm", "source": "clawhub", "stars": 0, "tags": null, "updated_at": 1776759082600, "version": "1.1.0"}, {"category": "developer-tools", "created_at": 1772781329287, "description": "SchemaPin enables cryptographic signing and verification of tool schemas to prevent tampering using ECDSA P-256, SHA-256, TOFU pinning, and .well-known key d...", "description_zh": "", "downloads": 500, "homepage": "https://clawhub.ai/jaschadub/schemapin", "iconUrl": null, "installs": 11, "name": "SchemaPin", "ownerName": "jaschadub", "score": 36900.36900369004, "slug": "schemapin", "source": "clawhub", "stars": 0, "tags": null, "updated_at": 1776759082490, "version": "1.0.0"}, {"category": "productivity", "created_at": 1772778323689, "description": "Launch a free Solana token instantly, keep 100% of trading fees, no SOL needed, non-custodial with your private keys secured in your wallet.", "description_zh": "", "downloads": 500, "homepage": "https://clawhub.ai/aiengineerx/pokecenter", "iconUrl": null, "installs": 9, "name": "Pokécenter - Free Token Launcher", "ownerName": "aiengineerx", "score": 29342.72300469484, "slug": "pokecenter", "source": "clawhub", "stars": 0, "tags": null, "updated_at": 1776755888674, "version": "1.2.0"}, {"category": "security-compliance", "created_at": 1772789066658, "description": "Helps detect when AI agent skills silently mutate across inheritance chains. A skill audited safe in generation 1 may drift far from the original by generati...", "description_zh": "", "downloads": 500, "homepage": "https://clawhub.ai/andyxinweiminicloud/evolution-drift-detector", "iconUrl": null, "installs": 13, "name": "Evolution Drift Detector", "ownerName": "andyxinweiminicloud", "score": 86956.52173913043, "slug": "evolution-drift-detector", "source": "clawhub", "stars": 0, "tags": null, "updated_at": 1776748185499, "version": "1.0.0"}, {"category": "developer-tools", "created_at": 1772782698308, "description": "Integrate Outlit SDK for customer context for agents. Triggers when users need to add Outlit to any web framework (React, Next.js, Vue, Nuxt, Svelte, Angular...", "description_zh": "", "downloads": 500, "homepage": "https://clawhub.ai/leo-paz/outlit-sdk", "iconUrl": null, "installs": 10, "name": "Outlit SDK", "ownerName": "leo-paz", "score": 86956.52173913043, "slug": "outlit-sdk", "source": "clawhub", "stars": 0, "tags": null, "updated_at": 1776748184816, "version": "1.0.0"}, {"category": "content-creation", "created_at": 1772783082446, "description": "WebSocket-based cross-language communication service with support for multiple message types (text, JSON, dict, bytes, images, files, folders) and client man...", "description_zh": "", "downloads": 500, "homepage": "https://clawhub.ai/wangyendt/cross-comm", "iconUrl": null, "installs": 40, "name": "Pywayne Cross Comm", "ownerName": "wangyendt", "score": 88028.16901408452, "slug": "cross-comm", "source": "clawhub", "stars": 0, "tags": null, "updated_at": 1776748184300, "version": "0.1.0"}, {"category": "productivity", "created_at": 1772783088352, "description": "Download individual songs from a DJ set or mix. Given a link from YouTube, SoundCloud, Mixcloud, or 1001Tracklists, extract the tracklist from the page descr...", "description_zh": "", "downloads": 500, "homepage": "https://clawhub.ai/robinnnnn/dj-set-ripper", "iconUrl": null, "installs": 10, "name": "DJ set ripper", "ownerName": "robinnnnn", "score": 86206.89655172413, "slug": "dj-set-ripper", "source": "clawhub", "stars": 0, "tags": null, "updated_at": 1776748183819, "version": "1.0.1"}, {"category": "ai-intelligence", "created_at": 1772782516356, "description": "Register and verify ERC-8004 AI agents on-chain using Pinata IPFS and Viem for blockchain transactions", "description_zh": "", "downloads": 499, "homepage": "https://clawhub.ai/iammatthias/pinata-erc-8004", "iconUrl": null, "installs": 23, "name": "Pinata ERC-8004", "ownerName": "iammatthias", "score": 100000, "slug": "pinata-erc-8004", "source": "clawhub", "stars": 2, "tags": null, "updated_at": 1776752744519, "version": "1.0.6"}, {"category": "security-compliance", "created_at": 1772783290385, "description": "Build secure access control with RBAC, ABAC, permissions, policies, and scope-based authorization.", "description_zh": "", "downloads": 499, "homepage": "https://clawhub.ai/ivangdavila/authorization", "iconUrl": null, "installs": 10, "name": "Authorization", "ownerName": "ivangdavila", "score": 92931.03448275862, "slug": "authorization", "source": "clawhub", "stars": 2, "tags": null, "updated_at": 1776748185571, "version": "1.0.0"}]}