{"page": 177, "total_pages": 522, "total": 26073, "skills": [{"category": "data-analysis", "created_at": 1773041404218, "description": "Inspect and analyze browser DevTools Console, Network, and Performance data to debug frontend issues like errors, failed requests, CORS, and slow loads.", "description_zh": "", "downloads": 499, "homepage": "https://clawhub.ai/qtadagm/qtada-browser-devtools-inspector", "iconUrl": null, "installs": 28, "name": "browser Devtools Inspector", "ownerName": "qtadagm", "score": 2665.7763624223126, "slug": "qtada-browser-devtools-inspector", "source": "clawhub", "stars": 1, "tags": null, "updated_at": 1776769571352, "version": "1.0.0"}, {"category": "developer-tools", "created_at": 1773067528255, "description": "Create comprehensive implementation plans for software projects. The agent produces structured plans including phases, steps, dependencies, verification meth...", "description_zh": "", "downloads": 499, "homepage": "https://clawhub.ai/pigd0g/code-planning-agent", "iconUrl": null, "installs": 14, "name": "Code Planning Agent", "ownerName": "pigd0g", "score": 6129.679933860872, "slug": "code-planning-agent", "source": "clawhub", "stars": 1, "tags": null, "updated_at": 1776765250469, "version": "1.0.1"}, {"category": "ai-intelligence", "created_at": 1772787862255, "description": "Generate professional AI headshots from casual photos using each::sense AI. Create corporate portraits, LinkedIn photos, executive headshots, team photos, an...", "description_zh": "", "downloads": 499, "homepage": "https://clawhub.ai/eftalyurtseven/ai-headshot-generation", "iconUrl": null, "installs": 33, "name": "Ai Headshot Generation", "ownerName": "eftalyurtseven", "score": 6910.400221575959, "slug": "ai-headshot-generation", "source": "clawhub", "stars": 0, "tags": null, "updated_at": 1776762849903, "version": "1.0.0"}, {"category": "data-analysis", "created_at": 1772781747635, "description": "Search Kroger/QFC products, manage cart, check pickup availability, and create pickup orders using the official Kroger API.", "description_zh": "", "downloads": 499, "homepage": "https://clawhub.ai/jasonahorn/kroger-api-skill", "iconUrl": null, "installs": 13, "name": "Kroger Api.Skill", "ownerName": "jasonahorn", "score": 30315.917375455647, "slug": "kroger-api-skill", "source": "clawhub", "stars": 0, "tags": null, "updated_at": 1776759083806, "version": "1.0.0"}, {"category": "developer-tools", "created_at": 1772790324734, "description": "Convert data efficiently between CSV, JSON, XML, YAML, and TOML formats including batch processing for CSV↔JSON, JSON↔YAML, XML↔JSON, and TOML↔JSON conversions.", "description_zh": "", "downloads": 499, "homepage": "https://clawhub.ai/honestqiao/data-format-converter", "iconUrl": null, "installs": 8, "name": "Data Format Converter", "ownerName": "honestqiao", "score": 36396.79066374909, "slug": "data-format-converter", "source": "clawhub", "stars": 0, "tags": ["converter", "format"], "updated_at": 1776759083785, "version": "1.0.0"}, {"category": "ai-intelligence", "created_at": 1772783268407, "description": "Manage tasks, projects, and workflows in Verk — AI-powered task management. Create, update, assign, and track tasks. Add comments, change status, list automa...", "description_zh": "", "downloads": 499, "homepage": "https://clawhub.ai/abhibavishi/verk", "iconUrl": null, "installs": 17, "name": "Verk Task Management", "ownerName": "abhibavishi", "score": 89426.52329749103, "slug": "verk", "source": "clawhub", "stars": 0, "tags": null, "updated_at": 1776759083759, "version": "1.1.0"}, {"category": "security-compliance", "created_at": 1772784259307, "description": "Command-line tool for encrypted agent-to-agent messaging and small file sharing over public Nostr relays using npub/nsec authentication.", "description_zh": "", "downloads": 499, "homepage": "https://clawhub.ai/wangwu-30/wangwu-agent-chat", "iconUrl": null, "installs": 7, "name": "AgentChat", "ownerName": "wangwu-30", "score": 36423.357664233576, "slug": "wangwu-agent-chat", "source": "clawhub", "stars": 0, "tags": null, "updated_at": 1776759083045, "version": "0.0.1"}, {"category": "developer-tools", "created_at": 1772785060267, "description": "Solana whale copy trading bot. Track any wallet, copy trades in real-time via Jupiter + Pump.fun APIs, with paper trading simulation and live execution. Use...", "description_zh": "", "downloads": 499, "homepage": "https://clawhub.ai/youthaiagent/solana-copy-trader", "iconUrl": null, "installs": 7, "name": "Solana Copy Trader", "ownerName": "youthaiagent", "score": 36556.77655677655, "slug": "solana-copy-trader", "source": "clawhub", "stars": 0, "tags": ["bot", "crypto", "defi", "jupiter", "solana", "trading", "whale"], "updated_at": 1776759082861, "version": "1.0.0"}, {"category": "data-analysis", "created_at": 1772783471395, "description": "Pydantic Logfire observability — OTEL GenAI traces, tool call spans, token metrics, distributed tracing", "description_zh": "", "downloads": 499, "homepage": "https://clawhub.ai/namabile/openclaw-logfire", "iconUrl": null, "installs": 8, "name": "OpenClaw Logfire", "ownerName": "namabile", "score": 36556.77655677655, "slug": "openclaw-logfire", "source": "clawhub", "stars": 0, "tags": ["genai", "logfire", "observability", "opentelemetry", "otel", "pydantic", "tracing"], "updated_at": 1776759082775, "version": "0.1.2"}, {"category": "security-compliance", "created_at": 1772778457955, "description": "Register and authenticate AI bots on Plenty of Bots to discover profiles, chat with humans and bots, and manage your bot's social dating presence.", "description_zh": "", "downloads": 499, "homepage": "https://clawhub.ai/rwfresh/plentyofbots", "iconUrl": null, "installs": 5, "name": "Openclaw", "ownerName": "rwfresh", "score": 94150.94339622642, "slug": "plentyofbots", "source": "clawhub", "stars": 0, "tags": null, "updated_at": 1776754988790, "version": "1.0.1"}, {"category": "security-compliance", "created_at": 1772781617500, "description": "Configures Firebase Authentication — providers, security rules, custom claims, and React auth hooks", "description_zh": "", "downloads": 499, "homepage": "https://clawhub.ai/guifav/firebase-auth-setup", "iconUrl": null, "installs": 7, "name": "Firebase Auth Setup", "ownerName": "guifav", "score": 91896.86924493554, "slug": "firebase-auth-setup", "source": "clawhub", "stars": 0, "tags": null, "updated_at": 1776748185003, "version": "0.1.1"}, {"category": "ai-intelligence", "created_at": 1772782584708, "description": "Scan any Solana wallet for reclaimable SOL from dormant token accounts and program buffer accounts. Use when someone asks about unclaimed SOL, forgotten rent...", "description_zh": "", "downloads": 499, "homepage": "https://clawhub.ai/nedim1511/unclaimed-sol-scanner", "iconUrl": null, "installs": 16, "name": "Unclaimed SOL Scanner", "ownerName": "nedim1511", "score": 86782.60869565218, "slug": "unclaimed-sol-scanner", "source": "clawhub", "stars": 0, "tags": null, "updated_at": 1776748184739, "version": "1.0.1"}, {"category": "productivity", "created_at": 1772784491218, "description": "Local text-to-speech using llama-tts (llama.cpp) and OuteTTS-1.0-0.6B model.", "description_zh": "", "downloads": 499, "homepage": "https://clawhub.ai/wuxxin/local-llama-tts", "iconUrl": null, "installs": 17, "name": "Local Llama TTS", "ownerName": "wuxxin", "score": 86631.94444444444, "slug": "local-llama-tts", "source": "clawhub", "stars": 0, "tags": null, "updated_at": 1776748184677, "version": "1.0.0"}, {"category": "communication-collaboration", "created_at": 1772779938842, "description": "Enrich contact and lead records with LinkedIn profiles, email addresses, company data, and education info. Use when asked to \"enrich contacts\", \"fill in miss...", "description_zh": "", "downloads": 499, "homepage": "https://clawhub.ai/aspenas/ironclaw-lead-enrichment", "iconUrl": null, "installs": 21, "name": "Ironclaw Lead Enrichment", "ownerName": "aspenas", "score": 85008.51788756388, "slug": "ironclaw-lead-enrichment", "source": "clawhub", "stars": 0, "tags": null, "updated_at": 1776748184460, "version": "1.0.0"}, {"category": "developer-tools", "created_at": 1772785358289, "description": "Build and manage grocery lists with pantry inventory, household quantities, and dietary restriction safety.", "description_zh": "", "downloads": 498, "homepage": "https://clawhub.ai/ivangdavila/grocery", "iconUrl": null, "installs": 17, "name": "Grocery", "ownerName": "ivangdavila", "score": 11655.112651646446, "slug": "grocery", "source": "clawhub", "stars": 2, "tags": null, "updated_at": 1776764950792, "version": "1.0.0"}, {"category": "developer-tools", "created_at": 1772785867322, "description": "Control and automate the Linux desktop GUI on X11. Use this skill to take screenshots, find and click UI elements, type text, send keyboard shortcuts, scroll...", "description_zh": "", "downloads": 498, "homepage": "https://clawhub.ai/gedigi/peekaboox", "iconUrl": null, "installs": 26, "name": "Peekaboox", "ownerName": "gedigi", "score": 100000, "slug": "peekaboox", "source": "clawhub", "stars": 2, "tags": null, "updated_at": 1776748545122, "version": "1.0.0"}, {"category": "productivity", "created_at": 1772787012826, "description": "Convert RSS or Atom feed URLs into Markdown using the bundled local converter script. Use this when a user asks to turn a feed URL into readable Markdown, op...", "description_zh": "", "downloads": 498, "homepage": "https://clawhub.ai/myx0m0p/feed-to-md", "iconUrl": null, "installs": 20, "name": "Feed To Md", "ownerName": "myx0m0p", "score": 92758.62068965517, "slug": "feed-to-md", "source": "clawhub", "stars": 2, "tags": null, "updated_at": 1776748185578, "version": "1.2.0"}, {"category": "content-creation", "created_at": 1772785232579, "description": "Forensic media triage with chain of custody. Use when receiving images, videos, audio, PDFs, or documents that need evidence-grade handling, integrity verifi...", "description_zh": "", "downloads": 498, "homepage": "https://clawhub.ai/msrovani/skill-evidenceops", "iconUrl": null, "installs": 32, "name": "EvidenceOps - Forensic Evidence Management", "ownerName": "msrovani", "score": 16655.948553054663, "slug": "skill-evidenceops", "source": "clawhub", "stars": 1, "tags": null, "updated_at": 1776765890505, "version": "1.0.0"}, {"category": "data-analysis", "created_at": 1772795824672, "description": "Search and retrieve biomedical and scientific literature from PubMed and Semantic Scholar with structured summaries, citation tracking, and open-access PDFs.", "description_zh": "", "downloads": 498, "homepage": "https://clawhub.ai/cheminem/pharmaclaw-literature-agent", "iconUrl": null, "installs": 109, "name": "Pharmaclaw Literature Agent", "ownerName": "cheminem", "score": 18802.1778584392, "slug": "pharmaclaw-literature-agent", "source": "clawhub", "stars": 1, "tags": null, "updated_at": 1776764090737, "version": "2.0.0"}, {"category": "developer-tools", "created_at": 1772786954242, "description": "Deploy serverless backends for REST APIs, webhooks, data storage, scheduled jobs, queue workers, and autonomous workflows.", "description_zh": "", "downloads": 498, "homepage": "https://clawhub.ai/canuto/codehooks-backend", "iconUrl": null, "installs": 13, "name": "Codehooks Backend", "ownerName": "canuto", "score": 95395.94843462246, "slug": "codehooks-backend", "source": "clawhub", "stars": 1, "tags": null, "updated_at": 1776748184914, "version": "1.0.0"}, {"category": "developer-tools", "created_at": 1772780100779, "description": "Triage production bugs fast with repro isolation and risk-first fixes. Use when handling development work that needs repeatable steps, quality gates, and pra...", "description_zh": "", "downloads": 498, "homepage": "https://clawhub.ai/xammarie/jarvis-bug-triage-01", "iconUrl": null, "installs": 8, "name": "Jarvis Bug Triage 01", "ownerName": "xammarie", "score": 7536.319612590799, "slug": "jarvis-bug-triage-01", "source": "clawhub", "stars": 0, "tags": null, "updated_at": 1776765590483, "version": "1.0.0"}, {"category": "developer-tools", "created_at": 1772803758687, "description": "Generate editable, publication-quality SVG graphical abstracts for scientific papers using AI models with customizable charts, diagrams, and data-driven visu...", "description_zh": "", "downloads": 498, "homepage": "https://clawhub.ai/jackkuo666/scientific-graphical-abstract-skill", "iconUrl": null, "installs": 101, "name": "Scientific Graphical Abstract Skill", "ownerName": "jackkuo666", "score": 8056.948713800356, "slug": "scientific-graphical-abstract-skill", "source": "clawhub", "stars": 0, "tags": null, "updated_at": 1776762850528, "version": "0.1.2"}, {"category": "security-compliance", "created_at": 1772787757080, "description": "Performs automated VPS health checks on CPU, memory, disk, network, and services, generating detailed Ollama-powered reports with recommendations.", "description_zh": "", "downloads": 498, "homepage": "https://clawhub.ai/gblockchainnetwork/vps-health-auditor", "iconUrl": null, "installs": 16, "name": "VPS Health Auditor", "ownerName": "gblockchainnetwork", "score": 6896.551724137931, "slug": "vps-health-auditor", "source": "clawhub", "stars": 0, "tags": null, "updated_at": 1776762849774, "version": "1.0.0"}, {"category": "data-analysis", "created_at": 1772780746280, "description": "Check your Bitpanda crypto portfolio, wallet balances, and trade history via CLI using your API key with read-only access.", "description_zh": "", "downloads": 498, "homepage": "https://clawhub.ai/florianbeer/bitpanda", "iconUrl": null, "installs": 17, "name": "Bitpanda", "ownerName": "florianbeer", "score": 36244.54148471616, "slug": "bitpanda", "source": "clawhub", "stars": 0, "tags": null, "updated_at": 1776759083650, "version": "1.0.0"}, {"category": "security-compliance", "created_at": 1772787458252, "description": "Expert in commercial, construction, and reverse mortgage loan origination with thorough analysis, structuring, compliance, and borrower-focused communication.", "description_zh": "", "downloads": 498, "homepage": "https://clawhub.ai/prabu12478/loan", "iconUrl": null, "installs": 25, "name": "my skills", "ownerName": "prabu12478", "score": 36139.33236574746, "slug": "loan", "source": "clawhub", "stars": 0, "tags": null, "updated_at": 1776759083308, "version": "1.0.0"}, {"category": "data-analysis", "created_at": 1772787096600, "description": "Runs a real-time multi-advisor market analysis using live prices to deliver a consensus trading report with actionable insights.", "description_zh": "", "downloads": 498, "homepage": "https://clawhub.ai/ryandeangraves/advisory-council", "iconUrl": null, "installs": 13, "name": "Advisory Council", "ownerName": "ryandeangraves", "score": 84838.1601362862, "slug": "advisory-council", "source": "clawhub", "stars": 0, "tags": null, "updated_at": 1776759082399, "version": "1.0.0"}, {"category": "security-compliance", "created_at": 1772785064972, "description": "Health check knowledge base for broken links, missing frontmatter, tag inconsistencies, and coverage gaps. Use when user says \"audit KB\", \"check frontmatter\"...", "description_zh": "", "downloads": 498, "homepage": "https://clawhub.ai/fortunto2/solo-audit", "iconUrl": null, "installs": 15, "name": "Audit", "ownerName": "fortunto2", "score": 85862.06896551725, "slug": "solo-audit", "source": "clawhub", "stars": 0, "tags": null, "updated_at": 1776748185531, "version": "1.4.1"}, {"category": "security-compliance", "created_at": 1772796484325, "description": "Operate and maintain OpenClaw installations — CLI commands, config management, channel/agent/model setup, security auditing, troubleshooting, and gateway adm...", "description_zh": "", "downloads": 498, "homepage": "https://clawhub.ai/kapslap/openclaw-power-ops", "iconUrl": null, "installs": 16, "name": "OpenClaw Power Ops", "ownerName": "kapslap", "score": 85862.06896551725, "slug": "openclaw-power-ops", "source": "clawhub", "stars": 0, "tags": null, "updated_at": 1776748185414, "version": "1.0.0"}, {"category": "data-analysis", "created_at": 1772782214011, "description": "Track daily expenses in structured markdown files organized by month. Use when the user wants to log spending, view expense summaries, analyze spending patte...", "description_zh": "", "downloads": 498, "homepage": "https://clawhub.ai/aholake/aholake-expense-tracker", "iconUrl": null, "installs": 2, "name": "Expense Tracker", "ownerName": "aholake", "score": 85862.06896551725, "slug": "aholake-expense-tracker", "source": "clawhub", "stars": 0, "tags": null, "updated_at": 1776748185370, "version": "1.0.0"}, {"category": "productivity", "created_at": 1772782451238, "description": "Safely apply structured JSON patches (RFC 6902) to files. Use this skill when you need to update configuration files, package.json, or memory JSONs without r...", "description_zh": "", "downloads": 498, "homepage": "https://clawhub.ai/wanng-ide/json-modifier", "iconUrl": null, "installs": 5, "name": "Json Modifier", "ownerName": "wanng-ide", "score": 92737.43016759776, "slug": "json-modifier", "source": "clawhub", "stars": 0, "tags": null, "updated_at": 1776748185289, "version": "1.0.0"}, {"category": "communication-collaboration", "created_at": 1773074225321, "description": "Gmail: Send, read, and manage email.", "description_zh": "", "downloads": 498, "homepage": "https://clawhub.ai/googleworkspace-bot/gws-gmail", "iconUrl": null, "installs": 33, "name": "Gws Gmail", "ownerName": "googleworkspace-bot", "score": 92737.43016759776, "slug": "gws-gmail", "source": "clawhub", "stars": 0, "tags": null, "updated_at": 1776748185278, "version": "1.0.0"}, {"category": "productivity", "created_at": 1772777605537, "description": "TTS with espeak-ng", "description_zh": "", "downloads": 498, "homepage": "https://clawhub.ai/martianzenmonk/espeak-ng", "iconUrl": null, "installs": 5, "name": "espeak-ng", "ownerName": "martianzenmonk", "score": 92737.43016759776, "slug": "espeak-ng", "source": "clawhub", "stars": 0, "tags": null, "updated_at": 1776748185257, "version": "1.0.2"}, {"category": "data-analysis", "created_at": 1772785618329, "description": "Parse employee skills CSV files, identify skill categories and individual skills, look up employee IDs from an employees table, and generate idempotent SQL I...", "description_zh": "", "downloads": 498, "homepage": "https://clawhub.ai/inna-demidova/employee-skills-importer", "iconUrl": null, "installs": 12, "name": "employee-skills-importer", "ownerName": "inna-demidova", "score": 90054.24954792042, "slug": "employee-skills-importer", "source": "clawhub", "stars": 0, "tags": null, "updated_at": 1776748185175, "version": "1.0.0"}, {"category": "ai-intelligence", "created_at": 1772782747593, "description": "Agent self-awakening onboarding protocol. When a user first installs Mupengism (OpenClaw-based AI agent framework), they converse with the agent to form its...", "description_zh": "", "downloads": 498, "homepage": "https://clawhub.ai/mupengi-bot/awakening-protocol", "iconUrl": null, "installs": 19, "name": "awakening-protocol", "ownerName": "mupengi-bot", "score": 90054.24954792042, "slug": "awakening-protocol", "source": "clawhub", "stars": 0, "tags": null, "updated_at": 1776748185173, "version": "1.0.0"}, {"category": "data-analysis", "created_at": 1772783430363, "description": "Sync Bunpro Japanese grammar learning progress from the API to local storage for analysis and insights. Use when the user wants to backup their Bunpro progre...", "description_zh": "", "downloads": 498, "homepage": "https://clawhub.ai/mart1n-xyz/bunpro-sync", "iconUrl": null, "installs": 12, "name": "Bunpro", "ownerName": "mart1n-xyz", "score": 88928.57142857142, "slug": "bunpro-sync", "source": "clawhub", "stars": 0, "tags": null, "updated_at": 1776748185081, "version": "1.0.0"}, {"category": "content-creation", "created_at": 1773076862151, "description": "Generate digital human talking avatar videos from images and audio using DreamAvatar 3.0 Fast API. Powered by Dreamface - AI tools for everyone. Visit https:...", "description_zh": "", "downloads": 497, "homepage": "https://clawhub.ai/hy-1990/dream-avatar", "iconUrl": null, "installs": 27, "name": "Dream Avatar", "ownerName": "hy-1990", "score": 10833.165220899738, "slug": "dream-avatar", "source": "clawhub", "stars": 2, "tags": null, "updated_at": 1776763449968, "version": "1.2.1"}, {"category": "developer-tools", "created_at": 1772780420881, "description": "Get real-time air quality data from IQAir API for any location worldwide. Returns AQI (Air Quality Index) with visual indicators and quality levels. Use when...", "description_zh": "", "downloads": 497, "homepage": "https://clawhub.ai/atesluks/iqair", "iconUrl": null, "installs": 9, "name": "IQAir Air Quality", "ownerName": "atesluks", "score": 100000, "slug": "iqair", "source": "clawhub", "stars": 2, "tags": null, "updated_at": 1776748185884, "version": "1.0.2"}, {"category": "data-analysis", "created_at": 1772776880051, "description": "Triage issues, analyze PRs, and create plans via the Clawmrades API", "description_zh": "", "downloads": 497, "homepage": "https://clawhub.ai/vishaltandale00/clawmrades", "iconUrl": null, "installs": 8, "name": "Clawmrades", "ownerName": "vishaltandale00", "score": 100000, "slug": "clawmrades", "source": "clawhub", "stars": 2, "tags": null, "updated_at": 1776748185210, "version": "0.1.4"}, {"category": "developer-tools", "created_at": 1772789479323, "description": "Parses bank statements from all major Greek banks (Alpha, NBG, Eurobank, Piraeus). File-based CSV/Excel import with transaction reconciliation.", "description_zh": "", "downloads": 497, "homepage": "https://clawhub.ai/satoshistackalotto/greek-banking-integration", "iconUrl": null, "installs": 52, "name": "Greek Banking Integration", "ownerName": "satoshistackalotto", "score": 88984.50946643717, "slug": "greek-banking-integration", "source": "clawhub", "stars": 1, "tags": null, "updated_at": 1776748185310, "version": "0.1.0"}, {"category": "developer-tools", "created_at": 1773202387726, "description": "Provides Traditional Chinese Medicine diagnosis including symptom collection, pattern differentiation, formula recommendation, and dietary health advice for...", "description_zh": "", "downloads": 497, "homepage": "https://clawhub.ai/huamu668/tcn-diagnosis", "iconUrl": null, "installs": 38, "name": "TCM Diagnosis", "ownerName": "huamu668", "score": 5288.3592253670995, "slug": "tcn-diagnosis", "source": "clawhub", "stars": 0, "tags": ["diagnosis", "herbal-medicine", "tcm", "traditional-chinese-medicine", "wellness"], "updated_at": 1776765590568, "version": "1.0.0"}, {"category": "developer-tools", "created_at": 1772781689275, "description": "Read Android device logs in real-time via adb logcat using a C++ or Python backend with generator-style streaming output.", "description_zh": "", "downloads": 497, "homepage": "https://clawhub.ai/wangyendt/adb-logcat-reader", "iconUrl": null, "installs": 33, "name": "Pywayne Adb Logcat Reader", "ownerName": "wangyendt", "score": 39919.67871485944, "slug": "adb-logcat-reader", "source": "clawhub", "stars": 0, "tags": null, "updated_at": 1776760282223, "version": "0.1.0"}, {"category": "productivity", "created_at": 1773217993972, "description": "A Meeting Execution Operator. Not an automated bot, but a strategic orchestrator for preparation, capture, and commitment tracking. Operates on a \"Draft-Firs...", "description_zh": "", "downloads": 497, "homepage": "https://clawhub.ai/agisearch/meeting", "iconUrl": null, "installs": 15, "name": "Meeting", "ownerName": "agisearch", "score": 36250.9117432531, "slug": "meeting", "source": "clawhub", "stars": 0, "tags": ["action-items", "meeting", "notes", "productivity", "work"], "updated_at": 1776759083794, "version": "2.0.0"}, {"category": "data-analysis", "created_at": 1772795122434, "description": "Download Bilibili videos, extract or transcribe subtitles, and generate AI-powered detailed summaries using Gemini 2.5 Flash.", "description_zh": "", "downloads": 497, "homepage": "https://clawhub.ai/lava-chen/bili-summary", "iconUrl": null, "installs": 37, "name": "Bili Summary", "ownerName": "lava-chen", "score": 89068.10035842295, "slug": "bili-summary", "source": "clawhub", "stars": 0, "tags": null, "updated_at": 1776759083711, "version": "1.0.0"}, {"category": "data-analysis", "created_at": 1772779398490, "description": "Track and analyze token usage and costs across AI providers with budget alerts, model cost comparison, optimization tips, and local data storage.", "description_zh": "", "downloads": 497, "homepage": "https://clawhub.ai/vedantsingh60/token-watch", "iconUrl": null, "installs": 11, "name": "Token Watch", "ownerName": "vedantsingh60", "score": 36250.9117432531, "slug": "token-watch", "source": "clawhub", "stars": 0, "tags": null, "updated_at": 1776759082682, "version": "1.2.3"}, {"category": "data-analysis", "created_at": 1772787782347, "description": "Generates a complete SaaS metrics analysis from your data, benchmarking 15 key B2B SaaS KPIs for 2026 and providing red/yellow/green flags plus action items.", "description_zh": "", "downloads": 497, "homepage": "https://clawhub.ai/1kalin/afrexai-saas-metrics", "iconUrl": null, "installs": 18, "name": "SaaS Metrics Dashboard", "ownerName": "1kalin", "score": 36410.25641025641, "slug": "afrexai-saas-metrics", "source": "clawhub", "stars": 0, "tags": ["benchmark", "cac", "churn", "finance", "kpi", "ltv", "metrics", "revenue", "saas", "startup"], "updated_at": 1776759082631, "version": "1.0.0"}, {"category": "data-analysis", "created_at": 1772786312053, "description": "Track and analyze AI session cost-to-value by logging task, value, and token use to optimize productivity and reduce wasted effort.", "description_zh": "", "downloads": 497, "homepage": "https://clawhub.ai/rushant-123/session-cost-tracker", "iconUrl": null, "installs": 14, "name": "Session Cost Tracker", "ownerName": "rushant-123", "score": 35936.370209689085, "slug": "session-cost-tracker", "source": "clawhub", "stars": 0, "tags": null, "updated_at": 1776759082131, "version": "1.0.0"}, {"category": "productivity", "created_at": 1772784417265, "description": "Scan codebases for technical debt, score severity, track trends, and generate prioritized remediation plans. Use when users mention tech debt, code quality,...", "description_zh": "", "downloads": 497, "homepage": "https://clawhub.ai/alirezarezvani/tech-debt-tracker", "iconUrl": null, "installs": 18, "name": "Tech Debt Tracker", "ownerName": "alirezarezvani", "score": 100000, "slug": "tech-debt-tracker", "source": "clawhub", "stars": 0, "tags": null, "updated_at": 1776755588995, "version": "2.1.1"}, {"category": "productivity", "created_at": 1773057110754, "description": "Fetch and explore popular OpenClaw skills from the awesome-openclaw-skills repository. Allows searching, filtering, and discovering community skills.", "description_zh": "", "downloads": 497, "homepage": "https://clawhub.ai/opswm/awesome-skills", "iconUrl": null, "installs": 50, "name": "Awesome Skills", "ownerName": "opswm", "score": 89711.19133574008, "slug": "awesome-skills", "source": "clawhub", "stars": 0, "tags": null, "updated_at": 1776755588804, "version": "1.0.0"}, {"category": "data-analysis", "created_at": 1772783722153, "description": "Type-based autonomous task queue system. Categorizes tasks by type (research, writing, analysis, maintenance) and lets autonomy work only on value-add tasks...", "description_zh": "", "downloads": 497, "homepage": "https://clawhub.ai/luciusrockwing/autonomy-type-based", "iconUrl": null, "installs": 25, "name": "Type-Based Autonomy", "ownerName": "luciusrockwing", "score": 86434.78260869565, "slug": "autonomy-type-based", "source": "clawhub", "stars": 0, "tags": null, "updated_at": 1776751784457, "version": "1.0.0"}, {"category": "security-compliance", "created_at": 1772781240090, "description": "Fast security spot-check with 10 iterations (~5-10 min). Use when user says 'quick security check', 'pre-deploy audit', 'ralph quick', 'fast security scan',...", "description_zh": "", "downloads": 497, "homepage": "https://clawhub.ai/dorukardahan/ralph-quick", "iconUrl": null, "installs": 8, "name": "Ralph Quick Security Check", "ownerName": "dorukardahan", "score": 92551.21042830539, "slug": "ralph-quick", "source": "clawhub", "stars": 0, "tags": null, "updated_at": 1776748185845, "version": "3.0.0"}]}