{"page": 178, "total_pages": 522, "total": 26073, "skills": [{"category": "developer-tools", "created_at": 1772782815450, "description": "Query Naver Cloud Maps APIs for route navigation. Smart routing: Directions5 by default, auto-switches to Directions15 for 5+ waypoints.", "description_zh": "", "downloads": 497, "homepage": "https://clawhub.ai/beomsu317/ncloud-maps", "iconUrl": null, "installs": 7, "name": "Ncloud Maps", "ownerName": "beomsu317", "score": 92551.21042830539, "slug": "ncloud-maps", "source": "clawhub", "stars": 0, "tags": null, "updated_at": 1776748185837, "version": "1.0.8"}, {"category": "productivity", "created_at": 1772782421519, "description": "Generate Fluent DataModels with migrations and tests for FOSMVVM server-side persistence, including relationships and system-assigned fields, based on existi...", "description_zh": "", "downloads": 497, "homepage": "https://clawhub.ai/foscomputerservices/fosmvvm-fluent-datamodel-generator", "iconUrl": null, "installs": 15, "name": "FOSMVVM Fluent DataModel Generator", "ownerName": "foscomputerservices", "score": 87192.98245614035, "slug": "fosmvvm-fluent-datamodel-generator", "source": "clawhub", "stars": 0, "tags": null, "updated_at": 1776748185771, "version": "2.0.6"}, {"category": "productivity", "created_at": 1772780801369, "description": "Provide Stoic philosophy quotes from Marcus Aurelius, Seneca, Epictetus, Cato, or others on request, always acknowledging prior quote sharing.", "description_zh": "", "downloads": 497, "homepage": "https://clawhub.ai/bshandley/stoic-quotes", "iconUrl": null, "installs": 8, "name": "Stoic Quotes", "ownerName": "bshandley", "score": 87654.32098765433, "slug": "stoic-quotes", "source": "clawhub", "stars": 0, "tags": null, "updated_at": 1776748185703, "version": "1.0.1"}, {"category": "data-analysis", "created_at": 1772785134949, "description": "Personal habit coach that tracks daily habits, streaks, and provides AI-powered coaching. Say things like \"track a new habit\", \"log my habits\", \"show my stre...", "description_zh": "", "downloads": 497, "homepage": "https://clawhub.ai/dinesh18s/habitchat", "iconUrl": null, "installs": 14, "name": "HabitChat", "ownerName": "dinesh18s", "score": 87654.32098765433, "slug": "habitchat", "source": "clawhub", "stars": 0, "tags": null, "updated_at": 1776748185615, "version": "1.0.0"}, {"category": "productivity", "created_at": 1772787027823, "description": "Local text-to-speech using Piper for voice message delivery. Use when the user asks for voice responses, audio messages, TTS, text-to-speech, voice notes, or...", "description_zh": "", "downloads": 497, "homepage": "https://clawhub.ai/bewareofddog/beware-piper-tts", "iconUrl": null, "installs": 15, "name": "Piper TTS", "ownerName": "bewareofddog", "score": 85689.6551724138, "slug": "beware-piper-tts", "source": "clawhub", "stars": 0, "tags": null, "updated_at": 1776748185443, "version": "1.0.1"}, {"category": "security-compliance", "created_at": 1772779060671, "description": "Security audit and quarantine system for third-party OpenClaw skills. Use when evaluating, reviewing, or installing any skill from ClawHub or external source...", "description_zh": "", "downloads": 497, "homepage": "https://clawhub.ai/aiwithabidi/agxntsix-skill-auditor", "iconUrl": null, "installs": 7, "name": "Skill Auditor", "ownerName": "aiwithabidi", "score": 92551.21042830539, "slug": "agxntsix-skill-auditor", "source": "clawhub", "stars": 0, "tags": ["audit", "security"], "updated_at": 1776748185243, "version": "1.0.0"}, {"category": "developer-tools", "created_at": 1772782936408, "description": "Unkillable LLM load balancer for OpenClaw. Monitors usage across Anthropic, Google, OpenAI, GitHub Copilot, and Ollama. Scores accounts by urgency, rotates a...", "description_zh": "", "downloads": 497, "homepage": "https://clawhub.ai/windseeker1111/flowclaw", "iconUrl": null, "installs": 13, "name": "Flowclaw", "ownerName": "windseeker1111", "score": 89873.41772151898, "slug": "flowclaw", "source": "clawhub", "stars": 0, "tags": null, "updated_at": 1776748185169, "version": "1.1.1"}, {"category": "data-analysis", "created_at": 1772787406169, "description": "Create and update skills for clawhub registry; optimize structure, validate metadata, and ensure compatibility for AI agent usage.", "description_zh": "", "downloads": 496, "homepage": "https://clawhub.ai/erview/clawhub-skill-creator", "iconUrl": null, "installs": 36, "name": "Clawhub Skill Creator", "ownerName": "erview", "score": 6115.928799634869, "slug": "clawhub-skill-creator", "source": "clawhub", "stars": 2, "tags": null, "updated_at": 1776764350408, "version": "1.0.0"}, {"category": "developer-tools", "created_at": 1772792723267, "description": "AI music generation with Suno v4, v4.5, v5. Text-to-music, custom lyrics, instrumental, vocal control. 5 models, one API key.", "description_zh": "", "downloads": 496, "homepage": "https://clawhub.ai/evolinkai/evolink-music", "iconUrl": null, "installs": 29, "name": "Evolink Music — AI Music Generation (Suno v4/v4.5/v5)", "ownerName": "evolinkai", "score": 94035.08771929824, "slug": "evolink-music", "source": "clawhub", "stars": 2, "tags": null, "updated_at": 1776748185755, "version": "2.0.0"}, {"category": "security-compliance", "created_at": 1772787019735, "description": "Playbook for authoring, running, evaluating, and improving Gina sandbox workflows with safe defaults and repeatable operations.", "description_zh": "", "downloads": 496, "homepage": "https://clawhub.ai/askginadotai/workflows", "iconUrl": null, "installs": 15, "name": "Workflows", "ownerName": "askginadotai", "score": 92254.73321858863, "slug": "workflows", "source": "clawhub", "stars": 2, "tags": null, "updated_at": 1776748185342, "version": "1.0.2"}, {"category": "data-analysis", "created_at": 1772781508570, "description": "Navigate Zillow for buying, selling, investing, and market research with Zestimate interpretation, pricing strategy, and ROI analysis.", "description_zh": "", "downloads": 496, "homepage": "https://clawhub.ai/ivangdavila/zillow", "iconUrl": null, "installs": 14, "name": "Zillow", "ownerName": "ivangdavila", "score": 99813.78026070763, "slug": "zillow", "source": "clawhub", "stars": 2, "tags": null, "updated_at": 1776748185286, "version": "1.0.0"}, {"category": "ai-intelligence", "created_at": 1772785225422, "description": "Advanced Qdrant vector database operations for AI agents. Semantic search, contextual document ingestion with chunking, collection management, snapshots, and...", "description_zh": "", "downloads": 496, "homepage": "https://clawhub.ai/yoder-bawt/qdrant-advanced", "iconUrl": null, "installs": 19, "name": "Qdrant Advanced", "ownerName": "yoder-bawt", "score": 3948.7301966403948, "slug": "qdrant-advanced", "source": "clawhub", "stars": 0, "tags": ["embeddings", "qdrant", "semantic-search", "vector-database"], "updated_at": 1776768249748, "version": "1.0.0"}, {"category": "content-creation", "created_at": 1772798661397, "description": "Create, edit, and publish WordPress posts via REST API with full Gutenberg block support. Use when Codex needs to automate WordPress content publishing, gene...", "description_zh": "", "downloads": 496, "homepage": "https://clawhub.ai/chirukinbb/wordpress-api-gutenberg", "iconUrl": null, "installs": 96, "name": "Wopdpress AI Blogger", "ownerName": "chirukinbb", "score": 9019.821785779232, "slug": "wordpress-api-gutenberg", "source": "clawhub", "stars": 0, "tags": null, "updated_at": 1776767349851, "version": "1.0.0"}, {"category": "data-analysis", "created_at": 1774615479687, "description": "A comprehensive AI agent skill for running operations effectively across engineering, business, and organizational contexts. Manages runbooks, incident coord...", "description_zh": "", "downloads": 496, "homepage": "https://clawhub.ai/agenticio/ops", "iconUrl": null, "installs": 18, "name": "Ops", "ownerName": "agenticio", "score": 87787.61061946902, "slug": "ops", "source": "clawhub", "stars": 0, "tags": ["devops", "operations", "ops", "process", "reliability"], "updated_at": 1776759083610, "version": "1.0.0"}, {"category": "developer-tools", "created_at": 1772780976128, "description": "Interact with ClawMarket API to discover posts, comment, message agents, propose, accept, and complete deals within an AI commerce network.", "description_zh": "", "downloads": 496, "homepage": "https://clawhub.ai/thelobstertrader/clawmarket-trade", "iconUrl": null, "installs": 8, "name": "ClawMarketTrade", "ownerName": "thelobstertrader", "score": 36283.83321141185, "slug": "clawmarket-trade", "source": "clawhub", "stars": 0, "tags": null, "updated_at": 1776759083472, "version": "1.3.0"}, {"category": "security-compliance", "created_at": 1772788082516, "description": "Helps teams achieve WCAG 2.1 AA compliance by auditing and guiding inclusive design for web, mobile, desktop, and other digital products.", "description_zh": "", "downloads": 496, "homepage": "https://clawhub.ai/1kalin/afrexai-accessibility-engine", "iconUrl": null, "installs": 21, "name": "Accessibility Engine", "ownerName": "1kalin", "score": 90676.4168190128, "slug": "afrexai-accessibility-engine", "source": "clawhub", "stars": 0, "tags": ["a11y", "accessibility", "compliance", "wcag", "web"], "updated_at": 1776759083165, "version": "1.0.0"}, {"category": "data-analysis", "created_at": 1772784361583, "description": "Monitors and reports agent activities including file operations, command executions, web actions, messages, and sub-agent sessions via dashboard and status c...", "description_zh": "", "downloads": 496, "homepage": "https://clawhub.ai/rmruss2022/activityclaw-usage", "iconUrl": null, "installs": 9, "name": "ActivityClaw Plugin Usage", "ownerName": "rmruss2022", "score": 36046.51162790698, "slug": "activityclaw-usage", "source": "clawhub", "stars": 0, "tags": ["activity", "monitoring", "plugin"], "updated_at": 1776759082941, "version": "1.0.0"}, {"category": "ai-intelligence", "created_at": 1772787235774, "description": "Speech recognition from voice messages using Yandex SpeechKit (with an extensible architecture for other providers). Use when you need to convert a voice mes...", "description_zh": "", "downloads": 496, "homepage": "https://clawhub.ai/bzsega/sergei-mikhailov-stt", "iconUrl": null, "installs": 13, "name": "Speech to Text (Yandex SpeechKit)", "ownerName": "bzsega", "score": 87017.54385964913, "slug": "sergei-mikhailov-stt", "source": "clawhub", "stars": 0, "tags": null, "updated_at": 1776748185795, "version": "1.1.8"}, {"category": "developer-tools", "created_at": 1772778439082, "description": "Query Belgian railway (NMBS/SNCB) schedules via the irail CLI. Use when the user wants train departures, connections between stations, train compositions, or...", "description_zh": "", "downloads": 496, "homepage": "https://clawhub.ai/dedene/irail", "iconUrl": null, "installs": 7, "name": "Irail", "ownerName": "dedene", "score": 87017.54385964913, "slug": "irail", "source": "clawhub", "stars": 0, "tags": null, "updated_at": 1776748185767, "version": "1.0.1"}, {"category": "data-analysis", "created_at": 1772787501310, "description": "Amplitude product analytics — track events, analyze user behavior, run cohort analysis, manage user properties, and query funnel/retention data via the Ampli...", "description_zh": "", "downloads": 496, "homepage": "https://clawhub.ai/aiwithabidi/amplitude", "iconUrl": null, "installs": 25, "name": "Amplitude", "ownerName": "aiwithabidi", "score": 85517.24137931035, "slug": "amplitude", "source": "clawhub", "stars": 0, "tags": null, "updated_at": 1776748185562, "version": "1.0.0"}, {"category": "productivity", "created_at": 1772782750579, "description": "Commander (cEDH) Live-Beratung - Banlist, Tutor-Targets, Mana-Rechnung, Combo-Lines", "description_zh": "", "downloads": 496, "homepage": "https://clawhub.ai/mcben90/cedh-advisor", "iconUrl": null, "installs": 9, "name": "Cedh Advisor", "ownerName": "mcben90", "score": 92364.99068901304, "slug": "cedh-advisor", "source": "clawhub", "stars": 0, "tags": null, "updated_at": 1776748185268, "version": "1.0.0"}, {"category": "productivity", "created_at": 1772781153563, "description": "Manage macOS Calendar events from the command line using EventKit. Use when creating, listing, or viewing calendar events on macOS without AppleScript dialog...", "description_zh": "", "downloads": 496, "homepage": "https://clawhub.ai/halbotley/calmly", "iconUrl": null, "installs": 7, "name": "calmly", "ownerName": "halbotley", "score": 88571.42857142857, "slug": "calmly", "source": "clawhub", "stars": 0, "tags": null, "updated_at": 1776748185095, "version": "1.3.0"}, {"category": "data-analysis", "created_at": 1772779024445, "description": "Get calibrated probabilities from Numinous (Bittensor Subnet 6) with metadata/provenance.", "description_zh": "", "downloads": 495, "homepage": "https://clawhub.ai/juandbalbi/numinous-forecast", "iconUrl": null, "installs": 7, "name": "Numinous Forecast", "ownerName": "juandbalbi", "score": 99627.56052141527, "slug": "numinous-forecast", "source": "clawhub", "stars": 2, "tags": null, "updated_at": 1776748185248, "version": "1.0.3"}, {"category": "ai-intelligence", "created_at": 1772784184621, "description": "Cross-chain token swaps and bridges via the LI.FI protocol. Get quotes, execute transfers, track progress, and compose DeFi operations across 35+ blockchains.", "description_zh": "", "downloads": 495, "homepage": "https://clawhub.ai/rhlsthrm/lifi-crosschain", "iconUrl": null, "installs": 25, "name": "Swap and bridge across 35+ chains with LI.FI", "ownerName": "rhlsthrm", "score": 99627.56052141527, "slug": "lifi-crosschain", "source": "clawhub", "stars": 2, "tags": ["bridge", "crosschain", "defi", "lifi", "swap"], "updated_at": 1776748185224, "version": "1.0.2"}, {"category": "productivity", "created_at": 1772782600775, "description": "Create, discover, and manage events with NFT tickets on the Belong platform", "description_zh": "", "downloads": 495, "homepage": "https://clawhub.ai/nomadcalendar/belong-events", "iconUrl": null, "installs": 8, "name": "Belong Events - Discover and Organize", "ownerName": "nomadcalendar", "score": 99627.56052141527, "slug": "belong-events", "source": "clawhub", "stars": 2, "tags": ["belong", "checkin", "events", "tickets"], "updated_at": 1776748185205, "version": "1.0.1"}, {"category": "developer-tools", "created_at": 1772784547476, "description": "Launch tokens on any chain without giving up 30-50% of your fees. Two paths: Easy Mode (call Tator API via x402 — works with any wallet provider, no env vars...", "description_zh": "", "downloads": 495, "homepage": "https://clawhub.ai/azep-ninja/tator-launch-pad", "iconUrl": null, "installs": 11, "name": "Token Launcher - Tator Launch Pad", "ownerName": "azep-ninja", "score": 88640.27538726333, "slug": "tator-launch-pad", "source": "clawhub", "stars": 1, "tags": ["base", "clanker", "cryoto", "pump-fun", "solana", "strategy", "tator", "tax-awareness", "token-launch"], "updated_at": 1776748185363, "version": "1.0.3"}, {"category": "ai-intelligence", "created_at": 1772805174042, "description": "Generate comic and manga panels, strips, and pages using each::sense AI. Create superhero comics, manga pages, webtoons, action sequences, and convert photos...", "description_zh": "", "downloads": 495, "homepage": "https://clawhub.ai/eftalyurtseven/comic-panel-generation", "iconUrl": null, "installs": 38, "name": "Comic Panel Generation", "ownerName": "eftalyurtseven", "score": 7144.919168591224, "slug": "comic-panel-generation", "source": "clawhub", "stars": 0, "tags": null, "updated_at": 1776766571225, "version": "1.0.0"}, {"category": "ai-intelligence", "created_at": 1772785814828, "description": "Group administration utilities - info, stats, invite link parsing, and creation templates", "description_zh": "", "downloads": 495, "homepage": "https://clawhub.ai/marcosrippel/whatsapp-group-admin", "iconUrl": null, "installs": 29, "name": "WhatsApp Group Admin", "ownerName": "marcosrippel", "score": 12833.808659579985, "slug": "whatsapp-group-admin", "source": "clawhub", "stars": 0, "tags": ["admin", "baileys", "groups", "offline", "whatsapp"], "updated_at": 1776762850459, "version": "1.0.0"}, {"category": "productivity", "created_at": 1773089348375, "description": "Local-first year-round tax memory system for individuals, freelancers, and small businesses. Use when users mention tax documents, receipts, expenses, tax no...", "description_zh": "", "downloads": 495, "homepage": "https://clawhub.ai/agenticio/tax", "iconUrl": null, "installs": 18, "name": "Tax", "ownerName": "agenticio", "score": 18490.847964138964, "slug": "tax", "source": "clawhub", "stars": 0, "tags": ["accounting", "deductions", "filing", "irs", "planning", "tax", "taxes"], "updated_at": 1776762140015, "version": "4.0.0"}, {"category": "developer-tools", "created_at": 1772778773967, "description": "Automate proposal creation from discovery to closing using BANT-Plus qualification, structured discovery notes, value-based pricing, and a proven proposal fr...", "description_zh": "", "downloads": 495, "homepage": "https://clawhub.ai/1kalin/afrexai-proposal-engine", "iconUrl": null, "installs": 5, "name": "Proposal Engine", "ownerName": "1kalin", "score": 36423.841059602644, "slug": "afrexai-proposal-engine", "source": "clawhub", "stars": 0, "tags": ["business", "deals", "proposal", "sales"], "updated_at": 1776759083327, "version": "1.0.1"}, {"category": "productivity", "created_at": 1772786638793, "description": "Interact with JOULE DAO on Base: track treasury, view proposals, vote, discuss, check balances, join as member, and earn JOULE for productive work contributi...", "description_zh": "", "downloads": 495, "homepage": "https://clawhub.ai/echo-autonomous/joule-dao", "iconUrl": null, "installs": 17, "name": "JOULE DAO", "ownerName": "echo-autonomous", "score": 35973.83720930232, "slug": "joule-dao", "source": "clawhub", "stars": 0, "tags": null, "updated_at": 1776759082949, "version": "1.0.0"}, {"category": "content-creation", "created_at": 1772788271636, "description": "Write clean, maintainable pytest tests using Fake-based testing, contract testing, and dependency injection patterns. Use when setting up test suites for Pyt...", "description_zh": "", "downloads": 495, "homepage": "https://clawhub.ai/marcoracer/clean-pytest", "iconUrl": null, "installs": 33, "name": "Clean Pytest", "ownerName": "marcoracer", "score": 92178.77094972067, "slug": "clean-pytest", "source": "clawhub", "stars": 0, "tags": null, "updated_at": 1776748185889, "version": "0.1.0"}, {"category": "content-creation", "created_at": 1772783274126, "description": "Generate AI images/videos with a chosen visual persona and publish them to the OpenFishy feed API (custom web platform, unrelated to Microsoft Visual Studio)...", "description_zh": "", "downloads": 495, "homepage": "https://clawhub.ai/i54851498-gif/visual-studio-agent", "iconUrl": null, "installs": 40, "name": "OpenFishy Feed Publisher", "ownerName": "i54851498-gif", "score": 92178.77094972067, "slug": "visual-studio-agent", "source": "clawhub", "stars": 0, "tags": ["creator", "fal", "openclaw"], "updated_at": 1776748185842, "version": "1.0.5"}, {"category": "developer-tools", "created_at": 1772782792843, "description": "Manage Hetzner Cloud infrastructure using the hcloud CLI. Use when working with Hetzner servers, firewalls, networks, volumes, load balancers, or any Hetzner...", "description_zh": "", "downloads": 495, "homepage": "https://clawhub.ai/jpj069/hcloud", "iconUrl": null, "installs": 0, "name": "Hetzner Cloud CLI", "ownerName": "jpj069", "score": 92178.77094972067, "slug": "hcloud", "source": "clawhub", "stars": 0, "tags": null, "updated_at": 1776748185825, "version": "1.0.0"}, {"category": "ai-intelligence", "created_at": 1772777447627, "description": "Score and qualify leads using customizable criteria. Prioritize your pipeline by fit, intent, and engagement to focus on deals most likely to close.", "description_zh": "", "downloads": 495, "homepage": "https://clawhub.ai/1kalin/afrexai-lead-scorer", "iconUrl": null, "installs": 11, "name": "Lead Scorer", "ownerName": "1kalin", "score": 92178.77094972067, "slug": "afrexai-lead-scorer", "source": "clawhub", "stars": 0, "tags": null, "updated_at": 1776748185281, "version": "1.1.0"}, {"category": "communication-collaboration", "created_at": 1772784153641, "description": "Send and receive files to/from nearby devices using the LocalSend protocol. Trigger with /localsend to get an interactive Telegram menu with real inline butt...", "description_zh": "", "downloads": 495, "homepage": "https://clawhub.ai/chordlini/localsend", "iconUrl": null, "installs": 12, "name": "Localsend", "ownerName": "chordlini", "score": 92178.77094972067, "slug": "localsend", "source": "clawhub", "stars": 0, "tags": null, "updated_at": 1776748185240, "version": "3.4.0"}, {"category": "data-analysis", "created_at": 1772781457507, "description": "Score leads 0-100 by analyzing a domain's website, DNS, sitemap, and social presence. Uses customizable JSON scoring profiles so users can define what signal...", "description_zh": "", "downloads": 495, "homepage": "https://clawhub.ai/psyduckler/lead-scorer-free", "iconUrl": null, "installs": 12, "name": "Lead Scorer", "ownerName": "psyduckler", "score": 89511.7540687161, "slug": "lead-scorer-free", "source": "clawhub", "stars": 0, "tags": null, "updated_at": 1776748185196, "version": "1.0.0"}, {"category": "content-creation", "created_at": 1773056975621, "description": "Publish posts to Weibo (Sina Weibo) using browser automation. Use when the user wants to post content to Weibo, share updates on Weibo, publish microblogs, o...", "description_zh": "", "downloads": 495, "homepage": "https://clawhub.ai/azfliao/weibo-publisher", "iconUrl": null, "installs": 61, "name": "Weibo Publisher", "ownerName": "azfliao", "score": 86086.95652173914, "slug": "weibo-publisher", "source": "clawhub", "stars": 0, "tags": null, "updated_at": 1776748184878, "version": "2.0.0"}, {"category": "developer-tools", "created_at": 1772779728923, "description": "Assist US Bar Exam prep with adaptive MBE practice, essay feedback using IRAC, performance task simulation, progress tracking, and jurisdiction-specific plan...", "description_zh": "", "downloads": 494, "homepage": "https://clawhub.ai/ivangdavila/bar-exam", "iconUrl": null, "installs": 15, "name": "Bar Exam", "ownerName": "ivangdavila", "score": 22617.53494282084, "slug": "bar-exam", "source": "clawhub", "stars": 2, "tags": null, "updated_at": 1776765550045, "version": "1.0.0"}, {"category": "developer-tools", "created_at": 1772786361017, "description": "Run AI-powered, unblockable web scraping, data extraction with natural language via the MrScraper API", "description_zh": "", "downloads": 494, "homepage": "https://clawhub.ai/ai-mrscraper/mrscraper", "iconUrl": null, "installs": 17, "name": "MrScraper", "ownerName": "ai-mrscraper", "score": 2880.5696407379437, "slug": "mrscraper", "source": "clawhub", "stars": 2, "tags": null, "updated_at": 1776761540122, "version": "1.0.4"}, {"category": "security-compliance", "created_at": 1772782065277, "description": "Comprehensive, research-backed Hinge dating profile optimization. Use when someone wants to improve their Hinge profile, audit an existing profile, write bet...", "description_zh": "", "downloads": 494, "homepage": "https://clawhub.ai/b1rdmania/hinge-profile-optimizer", "iconUrl": null, "installs": 23, "name": "Hinge Dating Profile Optimizer", "ownerName": "b1rdmania", "score": 92869.5652173913, "slug": "hinge-profile-optimizer", "source": "clawhub", "stars": 2, "tags": null, "updated_at": 1776748185523, "version": "0.1.0"}, {"category": "developer-tools", "created_at": 1772792120106, "description": "CLI toolkit for a coordinator AI agent to monitor, manage, and dispatch tasks to its own fleet of OpenClaw agent gateways. Includes auto-setup of local binar...", "description_zh": "", "downloads": 494, "homepage": "https://clawhub.ai/oguzhnatly/fleet", "iconUrl": null, "installs": 10, "name": "Fleet", "ownerName": "oguzhnatly", "score": 92869.5652173913, "slug": "fleet", "source": "clawhub", "stars": 2, "tags": null, "updated_at": 1776748184887, "version": "2.0.3"}, {"category": "data-analysis", "created_at": 1772779512073, "description": "Provides full Discord bot integration with automatic UI tab installation, bot setup wizard, token management, server monitoring, and dashboard controls for C...", "description_zh": "", "downloads": 494, "homepage": "https://clawhub.ai/maverick-software/discord-connect-ui", "iconUrl": null, "installs": 10, "name": "Discord Connect UI", "ownerName": "maverick-software", "score": 95716.94599627561, "slug": "discord-connect-ui", "source": "clawhub", "stars": 1, "tags": null, "updated_at": 1776748185869, "version": "1.0.0"}, {"category": "developer-tools", "created_at": 1772800461571, "description": "Complete machine learning pipeline for trading: feature engineering, AutoML, deep learning, and financial RL. Use for automated parameter sweeps, feature cre...", "description_zh": "", "downloads": 494, "homepage": "https://clawhub.ai/ahuserious/ml-pipeline", "iconUrl": null, "installs": 79, "name": "ML Pipeline", "ownerName": "ahuserious", "score": 9551.430781129156, "slug": "ml-pipeline", "source": "clawhub", "stars": 0, "tags": null, "updated_at": 1776766490697, "version": "0.1.0"}, {"category": "security-compliance", "created_at": 1772785486387, "description": "Comprehensive methodology for designing, securing, and operating blockchain systems, including smart contracts, DeFi, tokenomics, and platform selection guid...", "description_zh": "", "downloads": 494, "homepage": "https://clawhub.ai/1kalin/afrexai-web3-engineering", "iconUrl": null, "installs": 21, "name": "Web3 & Blockchain Engineering", "ownerName": "1kalin", "score": 20024.32103769761, "slug": "afrexai-web3-engineering", "source": "clawhub", "stars": 0, "tags": ["bitcoin", "blockchain", "defi", "ethereum", "security", "smart-contract", "solidity", "tokenomics", "web3"], "updated_at": 1776762590360, "version": "1.0.0"}, {"category": "developer-tools", "created_at": 1772782590816, "description": "Deploy local web projects to live URLs by automating GitHub repo creation, Vercel/Netlify deployment, and optional custom domain setup with SSL and CI/CD.", "description_zh": "", "downloads": 494, "homepage": "https://clawhub.ai/h4gen/web-hosting", "iconUrl": null, "installs": 13, "name": "Web Hosting", "ownerName": "h4gen", "score": 91992.55121042831, "slug": "web-hosting", "source": "clawhub", "stars": 0, "tags": null, "updated_at": 1776748185890, "version": "1.0.0"}, {"category": "data-analysis", "created_at": 1772787826828, "description": "System health validator — checks skill files, paths, permissions, binaries, backup freshness, and encryption. Produces pass/fail reports.", "description_zh": "", "downloads": 494, "homepage": "https://clawhub.ai/satoshistackalotto/system-health-check", "iconUrl": null, "installs": 24, "name": "System Health Check", "ownerName": "satoshistackalotto", "score": 91992.55121042831, "slug": "system-health-check", "source": "clawhub", "stars": 0, "tags": null, "updated_at": 1776748185882, "version": "0.1.0"}, {"category": "content-creation", "created_at": 1772783542249, "description": "Full IPFS node operations — install, configure, pin content, publish IPNS, manage peers, and run gateway services", "description_zh": "", "downloads": 494, "homepage": "https://clawhub.ai/apexfork/ipfs-server", "iconUrl": null, "installs": 30, "name": "IPFS Server", "ownerName": "apexfork", "score": 89330.92224231464, "slug": "ipfs-server", "source": "clawhub", "stars": 0, "tags": null, "updated_at": 1776748185121, "version": "0.1.0"}, {"category": "developer-tools", "created_at": 1772784201955, "description": "Complete engineering management system — team building, 1:1s, performance, hiring, architecture decisions, incident management, and scaling. From IC-to-manag...", "description_zh": "", "downloads": 494, "homepage": "https://clawhub.ai/1kalin/afrexai-engineering-manager", "iconUrl": null, "installs": 29, "name": "Engineering Manager OS", "ownerName": "1kalin", "score": 90976.05893186004, "slug": "afrexai-engineering-manager", "source": "clawhub", "stars": 0, "tags": ["1on1", "agile", "engineering", "hiring", "leadership", "manager", "performance", "team"], "updated_at": 1776748185011, "version": "1.0.0"}, {"category": "security-compliance", "created_at": 1772777586655, "description": "AI-native GRC (Governance, Risk, and Compliance) for OpenClaw. 97 actions across 13 frameworks including SOC 2, ISO 27001, HIPAA, GDPR, NIST CSF, PCI DSS, CI...", "description_zh": "", "downloads": 494, "homepage": "https://clawhub.ai/mailnike/auditclaw-grc", "iconUrl": null, "installs": 7, "name": "AuditClaw GRC", "ownerName": "mailnike", "score": 90976.05893186004, "slug": "auditclaw-grc", "source": "clawhub", "stars": 0, "tags": ["audit", "compliance", "gdpr", "grc", "hipaa", "iso27001", "nist", "pci-dss", "security", "soc2"], "updated_at": 1776748184932, "version": "1.0.2"}]}