{"page": 179, "total_pages": 522, "total": 26073, "skills": [{"category": "productivity", "created_at": 1772787623338, "description": "Generate Excalidraw diagrams for Obsidian. Supports two output modes - Obsidian (.md for direct plugin use) and Standard (.excalidraw for excalidraw.com). Us...", "description_zh": "", "downloads": 493, "homepage": "https://clawhub.ai/ricardodpalmeida/excalidraw-diagrams", "iconUrl": null, "installs": 48, "name": "Excalidraw Diagrams for Obsidian", "ownerName": "ricardodpalmeida", "score": 100000, "slug": "excalidraw-diagrams", "source": "clawhub", "stars": 3, "tags": null, "updated_at": 1776748185178, "version": "1.0.2"}, {"category": "content-creation", "created_at": 1772795834593, "description": "Design, build, optimize, and scale sales funnels for any business model. Use when mapping customer journeys, diagnosing conversion leaks, building landing pa...", "description_zh": "", "downloads": 493, "homepage": "https://clawhub.ai/1kalin/afrexai-sales-funnel-engine", "iconUrl": null, "installs": 118, "name": "Sales Funnel Engine", "ownerName": "1kalin", "score": 8408.457629896739, "slug": "afrexai-sales-funnel-engine", "source": "clawhub", "stars": 1, "tags": ["conversion", "funnel", "leads", "marketing", "optimization", "sales"], "updated_at": 1776765371227, "version": "1.0.0"}, {"category": "content-creation", "created_at": 1772791573286, "description": "Write high-converting copy for any surface — landing pages, emails, ads, sales pages, product descriptions, CTAs, video scripts, and more. Complete conversio...", "description_zh": "", "downloads": 493, "homepage": "https://clawhub.ai/1kalin/afrexai-conversion-copywriting", "iconUrl": null, "installs": 54, "name": "Conversion Copywriting Engine", "ownerName": "1kalin", "score": 2721.351291675867, "slug": "afrexai-conversion-copywriting", "source": "clawhub", "stars": 0, "tags": ["ads", "conversion", "copywriting", "cta", "email-copy", "headlines", "landing-page", "marketing", "persuasion", "sales-page"], "updated_at": 1776763750332, "version": "1.0.0"}, {"category": "data-analysis", "created_at": 1772788038450, "description": "Analyze extracted Meta ad creatives and generate a professional strategy report. Use after /meta_ads_extractor to produce a clean, organized analysis documen...", "description_zh": "", "downloads": 493, "homepage": "https://clawhub.ai/bluerockerr/meta-ads-analyser", "iconUrl": null, "installs": 9, "name": "Ads Analyzer", "ownerName": "bluerockerr", "score": 10844.698636163661, "slug": "meta-ads-analyser", "source": "clawhub", "stars": 0, "tags": null, "updated_at": 1776763750291, "version": "1.0.0"}, {"category": "data-analysis", "created_at": 1772782822607, "description": "Fetch and analyze issues from Sentry error tracking. Use when asked to check Sentry errors, pull issues, investigate exceptions, review error trends, or get...", "description_zh": "", "downloads": 493, "homepage": "https://clawhub.ai/dave-b-b/sentry-issues", "iconUrl": null, "installs": 9, "name": "Sentry Issues", "ownerName": "dave-b-b", "score": 6731.294374658657, "slug": "sentry-issues", "source": "clawhub", "stars": 0, "tags": null, "updated_at": 1776762615160, "version": "1.0.0"}, {"category": "developer-tools", "created_at": 1772780232286, "description": "Build, sign, and submit XRP Ledger transactions including payments, NFT minting/burning, with Xaman wallet integration.", "description_zh": "", "downloads": 493, "homepage": "https://clawhub.ai/harleyscodes/xrpl-tx-builder", "iconUrl": null, "installs": 8, "name": "XRPL Transaction Builder", "ownerName": "harleyscodes", "score": 87256.63716814159, "slug": "xrpl-tx-builder", "source": "clawhub", "stars": 0, "tags": null, "updated_at": 1776759083611, "version": "1.0.0"}, {"category": "ai-intelligence", "created_at": 1772785391763, "description": "Fetch meeting transcripts, summaries, and action items from Firefly AI (fireflies.ai). Use when the user asks about meetings, transcripts, meeting notes, act...", "description_zh": "", "downloads": 493, "homepage": "https://clawhub.ai/codes71/firefly", "iconUrl": null, "installs": 15, "name": "Firefly AI", "ownerName": "codes71", "score": 36356.93215339233, "slug": "firefly", "source": "clawhub", "stars": 0, "tags": ["fireflies", "meetings", "productivity", "transcripts"], "updated_at": 1776759083516, "version": "1.0.0"}, {"category": "developer-tools", "created_at": 1772779540412, "description": "Build and maintain a structured, local markdown knowledge system with automated processing, navigation, and context-aware updates for cognitive AI agents.", "description_zh": "", "downloads": 493, "homepage": "https://clawhub.ai/arscontexta/arscontexta", "iconUrl": null, "installs": 3, "name": "arscontexta", "ownerName": "arscontexta", "score": 36117.216117216114, "slug": "arscontexta", "source": "clawhub", "stars": 0, "tags": null, "updated_at": 1776759082870, "version": "0.0.1"}, {"category": "data-analysis", "created_at": 1772784230205, "description": "Tasks and goals management via simple markdown files. Create, track, and complete tasks and goals with streak tracking. Stores data in ~/.openclaw/goalgetter...", "description_zh": "", "downloads": 493, "homepage": "https://clawhub.ai/steffano198/goalgetter", "iconUrl": null, "installs": 11, "name": "GoalGetter", "ownerName": "steffano198", "score": 91806.33147113594, "slug": "goalgetter", "source": "clawhub", "stars": 0, "tags": ["goals", "habits", "productivity", "tasks"], "updated_at": 1776748185802, "version": "1.0.0"}, {"category": "productivity", "created_at": 1772783782556, "description": "Comprehensive catalog of what people are doing with OpenClaw. Covers 15+ categories with real examples, sources, and inspiration. Use when asked about OpenCl...", "description_zh": "", "downloads": 493, "homepage": "https://clawhub.ai/chunhualiao/openclaw-usecase-catalog", "iconUrl": null, "installs": 12, "name": "OpenClaw Use Case Catalog", "ownerName": "chunhualiao", "score": 86491.22807017544, "slug": "openclaw-usecase-catalog", "source": "clawhub", "stars": 0, "tags": null, "updated_at": 1776748185774, "version": "1.0.0"}, {"category": "communication-collaboration", "created_at": 1772784078686, "description": "Run cold and warm outreach campaigns to find and engage potential customers or partners. Use when building a prospecting pipeline, writing cold emails or Lin...", "description_zh": "", "downloads": 493, "homepage": "https://clawhub.ai/jk-0001/outreach-and-prospecting", "iconUrl": null, "installs": 19, "name": "Outreach And Prospecting", "ownerName": "jk-0001", "score": 86948.85361552029, "slug": "outreach-and-prospecting", "source": "clawhub", "stars": 0, "tags": null, "updated_at": 1776748185669, "version": "0.1.0"}, {"category": "content-creation", "created_at": 1772785426118, "description": "Prevents LLMs from sunk-cost pushing broken solutions. Triggers when an agent is stuck, looping, or failing repeatedly. Forces a Popperian falsification mome...", "description_zh": "", "downloads": 493, "homepage": "https://clawhub.ai/manecharo/chaos-pivot", "iconUrl": null, "installs": 30, "name": "Chaos pivot", "ownerName": "manecharo", "score": 85000, "slug": "chaos-pivot", "source": "clawhub", "stars": 0, "tags": ["design thinking", "failure", "pivot"], "updated_at": 1776748185597, "version": "1.0.0"}, {"category": "ai-intelligence", "created_at": 1772777373962, "description": "Generate detailed crypto tax reports for XPR Network activity with support for New Zealand and United States regional tax rules and cost basis methods.", "description_zh": "", "downloads": 493, "homepage": "https://clawhub.ai/paulgnz/xpr-tax", "iconUrl": null, "installs": 11, "name": "XPR Crypto Tax", "ownerName": "paulgnz", "score": 85000, "slug": "xpr-tax", "source": "clawhub", "stars": 0, "tags": ["crypto", "reporting", "tax", "xpr"], "updated_at": 1776748185586, "version": "1.0.0"}, {"category": "content-creation", "created_at": 1772780309695, "description": "Buy and download leak content from promo or download links using a preinstalled leak CLI.", "description_zh": "", "downloads": 493, "homepage": "https://clawhub.ai/eucalyptus-viminalis/leak-buy", "iconUrl": null, "installs": 21, "name": "Leak Buy", "ownerName": "eucalyptus-viminalis", "score": 85000, "slug": "leak-buy", "source": "clawhub", "stars": 0, "tags": ["beta"], "updated_at": 1776748185417, "version": "2026.2.17"}, {"category": "data-analysis", "created_at": 1772780838575, "description": "Retrieve upcoming bills, account balances, and assess if you can afford a specified amount within a set time frame.", "description_zh": "", "downloads": 493, "homepage": "https://clawhub.ai/danielsimons1/bill-tracker", "iconUrl": null, "installs": 9, "name": "Bill Tracker", "ownerName": "danielsimons1", "score": 91806.33147113594, "slug": "bill-tracker", "source": "clawhub", "stars": 0, "tags": null, "updated_at": 1776748185222, "version": "1.0.0"}, {"category": "data-analysis", "created_at": 1772780057644, "description": "AI research pipeline with automatic SQLite logging and Langfuse tracing", "description_zh": "", "downloads": 493, "homepage": "https://clawhub.ai/aiwithabidi/agxntsix-research-logger", "iconUrl": null, "installs": 13, "name": "Research Logger", "ownerName": "aiwithabidi", "score": 89150.09041591319, "slug": "agxntsix-research-logger", "source": "clawhub", "stars": 0, "tags": ["langfuse", "logging", "research", "sqlite"], "updated_at": 1776748185132, "version": "1.0.0"}, {"category": "data-analysis", "created_at": 1772781404269, "description": "Analyze any GitHub repository in AI-friendly format. Convert entire repos to single markdown documents, generate architecture diagrams with Mermaid, inspect...", "description_zh": "", "downloads": 493, "homepage": "https://clawhub.ai/aiwithabidi/a6-github-intel", "iconUrl": null, "installs": 17, "name": "GitHub Intelligence", "ownerName": "aiwithabidi", "score": 90791.89686924494, "slug": "a6-github-intel", "source": "clawhub", "stars": 0, "tags": null, "updated_at": 1776748184934, "version": "1.0.0"}, {"category": "content-creation", "created_at": 1773208629049, "description": "Generate AI videos using Vidu — featuring text-to-video, image-to-video, reference-to-video, and start-end-to-video with up to 1080p resolution, anime style...", "description_zh": "", "downloads": 493, "homepage": "https://clawhub.ai/xixihhhh/vidu", "iconUrl": null, "installs": 54, "name": "Vidu — AI Video Generation - Vidu Q3 & Vidu 2.0", "ownerName": "xixihhhh", "score": 85739.13043478261, "slug": "vidu", "source": "clawhub", "stars": 0, "tags": null, "updated_at": 1776748184866, "version": "1.0.3"}, {"category": "security-compliance", "created_at": 1772777240708, "description": "Security scanner for OpenClaw skills. Detects malicious code, obfuscated payloads, prompt injection, social engineering, typosquatting, and data exfiltration...", "description_zh": "", "downloads": 493, "homepage": "https://clawhub.ai/aiwithabidi/skill-auditor-v2", "iconUrl": null, "installs": 11, "name": "Skill Auditor v2", "ownerName": "aiwithabidi", "score": 85739.13043478261, "slug": "skill-auditor-v2", "source": "clawhub", "stars": 0, "tags": ["audit", "security"], "updated_at": 1776748184802, "version": "2.0.0"}, {"category": "developer-tools", "created_at": 1772786601945, "description": "Transcribe audio to text and generate spoken AI responses using Whisper and ElevenLabs via CLI with transcript storage and search.", "description_zh": "", "downloads": 492, "homepage": "https://clawhub.ai/frank-bot07/openclaw-voice", "iconUrl": null, "installs": 16, "name": "openclaw-voice", "ownerName": "frank-bot07", "score": 93333.33333333333, "slug": "openclaw-voice", "source": "clawhub", "stars": 2, "tags": null, "updated_at": 1776759083271, "version": "1.0.0"}, {"category": "developer-tools", "created_at": 1772784342853, "description": "Manage calendar, draft communications, and track preferences with explicit confirmation before actions.", "description_zh": "", "downloads": 492, "homepage": "https://clawhub.ai/ivangdavila/secretary", "iconUrl": null, "installs": 6, "name": "Secretary", "ownerName": "ivangdavila", "score": 93333.33333333333, "slug": "secretary", "source": "clawhub", "stars": 2, "tags": null, "updated_at": 1776748185790, "version": "1.0.1"}, {"category": "productivity", "created_at": 1772779735569, "description": "Generate ServerRequest test code using VaporTesting with typed request/response validation and automatic routing for CRUD operations.", "description_zh": "", "downloads": 492, "homepage": "https://clawhub.ai/foscomputerservices/fosmvvm-serverrequest-test-generator", "iconUrl": null, "installs": 11, "name": "FOSMVVM ServerRequest Test Generator", "ownerName": "foscomputerservices", "score": 91566.26506024096, "slug": "fosmvvm-serverrequest-test-generator", "source": "clawhub", "stars": 2, "tags": null, "updated_at": 1776748185354, "version": "2.0.6"}, {"category": "content-creation", "created_at": 1772784270089, "description": "Ghost CMS content management via Admin API v5.x. Use when: (1) creating, editing, or publishing blog posts or static pages, (2) managing tags, (3) uploading...", "description_zh": "", "downloads": 492, "homepage": "https://clawhub.ai/romain-grosos/ghost-admin", "iconUrl": null, "installs": 31, "name": "Ghost Admin", "ownerName": "romain-grosos", "score": 99068.90130353816, "slug": "ghost-admin", "source": "clawhub", "stars": 2, "tags": null, "updated_at": 1776748185228, "version": "1.2.0"}, {"category": "security-compliance", "created_at": 1772783682550, "description": "Build payment integrations, subscription management, and invoicing systems with webhook handling, tax compliance, and revenue recognition.", "description_zh": "", "downloads": 492, "homepage": "https://clawhub.ai/ivangdavila/billing", "iconUrl": null, "installs": 13, "name": "Billing", "ownerName": "ivangdavila", "score": 95000, "slug": "billing", "source": "clawhub", "stars": 2, "tags": null, "updated_at": 1776748185101, "version": "1.0.0"}, {"category": "communication-collaboration", "created_at": 1773066618568, "description": "Publish articles to WeChat Official Accounts via API using configured AppID, AppSecret, and IP whitelist with access token management.", "description_zh": "", "downloads": 492, "homepage": "https://clawhub.ai/saaaa1aaaas/wechat-mp-publisher-1-0-0", "iconUrl": null, "installs": 136, "name": "Wechat Mp Publisher 1.0.0", "ownerName": "saaaa1aaaas", "score": 760.7274456198741, "slug": "wechat-mp-publisher-1-0-0", "source": "clawhub", "stars": 1, "tags": null, "updated_at": 1776770650187, "version": "1.0.1"}, {"category": "content-creation", "created_at": 1772793653383, "description": "Download YouTube videos with customizable quality and format options. Use this skill when the user asks to download, save, or grab YouTube videos. Supports v...", "description_zh": "", "downloads": 492, "homepage": "https://clawhub.ai/wells1137/yt-video-downloader", "iconUrl": null, "installs": 57, "name": "YouTube Video Downloader", "ownerName": "wells1137", "score": 4376.056212754603, "slug": "yt-video-downloader", "source": "clawhub", "stars": 0, "tags": null, "updated_at": 1776769271343, "version": "1.0.0"}, {"category": "data-analysis", "created_at": 1772785505042, "description": "Acts as the user's personal nutrition coach in the Nutrition topic. Tracks meals, calories, water intake, and eating habits. Gives advice for balanced diet....", "description_zh": "", "downloads": 492, "homepage": "https://clawhub.ai/gekacross/personal-nutrition", "iconUrl": null, "installs": 15, "name": "Personal Nutrition", "ownerName": "gekacross", "score": 12923.561859732072, "slug": "personal-nutrition", "source": "clawhub", "stars": 0, "tags": null, "updated_at": 1776762850806, "version": "1.0.0"}, {"category": "data-analysis", "created_at": 1772784497016, "description": "Manages Microsoft 365 junk mail by analyzing spam patterns, scoring suspicious emails, and assisting with review or automatic cleanup of Outlook/Exchange spa...", "description_zh": "", "downloads": 492, "homepage": "https://clawhub.ai/tradmangh/m365-spam-manager", "iconUrl": null, "installs": 27, "name": "M365 Spam Manager", "ownerName": "tradmangh", "score": 84974.0932642487, "slug": "m365-spam-manager", "source": "clawhub", "stars": 0, "tags": null, "updated_at": 1776759082826, "version": "0.1.2"}, {"category": "content-creation", "created_at": 1772783992132, "description": "Generate high-quality images on-demand via the Runware.ai API. This skill is the default image generator. Use it whenever the user asks to \"generate an image...", "description_zh": "", "downloads": 492, "homepage": "https://clawhub.ai/geeklord/runware-image", "iconUrl": null, "installs": 42, "name": "Generate images using Runware API", "ownerName": "geeklord", "score": 28890.19377568996, "slug": "runware-image", "source": "clawhub", "stars": 0, "tags": null, "updated_at": 1776755888287, "version": "1.0.0"}, {"category": "productivity", "created_at": 1772780294785, "description": "Project configuration management helper for YAML config files. Use when projects need cross-process/cross-file parameter sharing via a centralized config fil...", "description_zh": "", "downloads": 492, "homepage": "https://clawhub.ai/wangyendt/helper", "iconUrl": null, "installs": 9, "name": "Pywayne Helper", "ownerName": "wangyendt", "score": 91620.11173184357, "slug": "helper", "source": "clawhub", "stars": 0, "tags": null, "updated_at": 1776748185857, "version": "0.1.0"}, {"category": "productivity", "created_at": 1772785411292, "description": "Search Singapore property rental and sale listings with flexible filters. Use when asked to search Singapore properties, find rental or sale listings, check...", "description_zh": "", "downloads": 492, "homepage": "https://clawhub.ai/5kbpers/sg-property-scraper", "iconUrl": null, "installs": 11, "name": "sg-property-scraper", "ownerName": "5kbpers", "score": 91620.11173184357, "slug": "sg-property-scraper", "source": "clawhub", "stars": 0, "tags": null, "updated_at": 1776748185803, "version": "1.0.1"}, {"category": "developer-tools", "created_at": 1772790687279, "description": "Plan meals with weekly menus, shopping lists, batch cooking, budget tracking, dietary preferences, and recipe management.", "description_zh": "", "downloads": 492, "homepage": "https://clawhub.ai/ivangdavila/meal-planner", "iconUrl": null, "installs": 18, "name": "Meal Planner", "ownerName": "ivangdavila", "score": 84681.5834767642, "slug": "meal-planner", "source": "clawhub", "stars": 0, "tags": null, "updated_at": 1776748185327, "version": "1.0.0"}, {"category": "communication-collaboration", "created_at": 1772782317125, "description": "Create and manage multi-step outreach sequences — LinkedIn messages, cold emails, and follow-ups with personalization. Use when asked to \"send outreach\", \"cr...", "description_zh": "", "downloads": 492, "homepage": "https://clawhub.ai/aspenas/ironclaw-outreach-sequencer", "iconUrl": null, "installs": 14, "name": "Ironclaw Outreach Sequencer", "ownerName": "aspenas", "score": 91620.11173184357, "slug": "ironclaw-outreach-sequencer", "source": "clawhub", "stars": 0, "tags": null, "updated_at": 1776748185203, "version": "1.0.0"}, {"category": "developer-tools", "created_at": 1772777800567, "description": "Create and manage MPC blockchain wallets and sign transactions on EVM and Solana chains using Para's secure distributed key infrastructure via REST API.", "description_zh": "", "downloads": 492, "homepage": "https://clawhub.ai/adeets-22/para-wallet", "iconUrl": null, "installs": 6, "name": "Para Wallet", "ownerName": "adeets-22", "score": 90607.73480662983, "slug": "para-wallet", "source": "clawhub", "stars": 0, "tags": null, "updated_at": 1776748184939, "version": "1.0.0"}, {"category": "content-creation", "created_at": 1772785039744, "description": "Feishu/Lark Custom Bot API wrapper for sending messages to Feishu channels via webhook. Use when users need to send text messages, images, rich text posts, i...", "description_zh": "", "downloads": 492, "homepage": "https://clawhub.ai/wangyendt/lark-custom-bot", "iconUrl": null, "installs": 39, "name": "Pywayne Lark Custom Bot", "ownerName": "wangyendt", "score": 90607.73480662983, "slug": "lark-custom-bot", "source": "clawhub", "stars": 0, "tags": null, "updated_at": 1776748184909, "version": "0.1.0"}, {"category": "developer-tools", "created_at": 1772780723609, "description": "Unified crypto market data API and scripts for exchanges, markets, tickers, OHLCV, and orderbooks.", "description_zh": "", "downloads": 491, "homepage": "https://clawhub.ai/kmasterrr/milaex-crypto-api", "iconUrl": null, "installs": 12, "name": "Unified crypto market data API and scripts for exchanges, markets, tickers, OHLCV, and orderbooks", "ownerName": "kmasterrr", "score": 93157.8947368421, "slug": "milaex-crypto-api", "source": "clawhub", "stars": 2, "tags": null, "updated_at": 1776748185776, "version": "1.0.2"}, {"category": "productivity", "created_at": 1772786842534, "description": "Structured Jupyter notebook prototyping with pipeline integrity", "description_zh": "", "downloads": 491, "homepage": "https://clawhub.ai/guohongbin-git/mlops-prototyping-cn", "iconUrl": null, "installs": 34, "name": "MLOps Prototyping CN", "ownerName": "guohongbin-git", "score": 1377.3177368229124, "slug": "mlops-prototyping-cn", "source": "clawhub", "stars": 0, "tags": ["chinese", "mlops"], "updated_at": 1776770471107, "version": "1.0.0"}, {"category": "developer-tools", "created_at": 1772795770132, "description": "Automatically scan GitHub repositories for bounty issues, filter by difficulty/reward, and auto-submit solutions.", "description_zh": "", "downloads": 491, "homepage": "https://clawhub.ai/sasamittrrr/github-bounty-hunter", "iconUrl": null, "installs": 27, "name": "Github Bounty Hunter", "ownerName": "sasamittrrr", "score": 86902.65486725663, "slug": "github-bounty-hunter", "source": "clawhub", "stars": 0, "tags": null, "updated_at": 1776759083599, "version": "1.0.1"}, {"category": "content-creation", "created_at": 1772784551828, "description": "Expert system for designing, deploying, optimizing, and scaling autonomous AI agents on OpenClaw with multi-agent support and robust memory management.", "description_zh": "", "downloads": 491, "homepage": "https://clawhub.ai/1kalin/afrexai-openclaw-mastery", "iconUrl": null, "installs": 37, "name": "OpenClaw Mastery", "ownerName": "1kalin", "score": 84801.38169257341, "slug": "afrexai-openclaw-mastery", "source": "clawhub", "stars": 0, "tags": ["agent", "automation", "multi-agent", "openclaw", "operations", "productivity"], "updated_at": 1776759082823, "version": "1.0.0"}, {"category": "data-analysis", "created_at": 1772782090038, "description": "Monitor and control your AI agent’s API and LLM usage with real-time spend tracking, budget limits, duplicate detection, and alerts.", "description_zh": "", "downloads": 491, "homepage": "https://clawhub.ai/analytix402/analytix402", "iconUrl": null, "installs": 13, "name": "Analytix402", "ownerName": "analytix402", "score": 35813.274981765135, "slug": "analytix402", "source": "clawhub", "stars": 0, "tags": null, "updated_at": 1776759082673, "version": "0.1.0"}, {"category": "content-creation", "created_at": 1772799866611, "description": "Safely write or update large files over 5000 bytes by reading, incrementally editing small sections, verifying each change, and using fallback recovery methods.", "description_zh": "", "downloads": 491, "homepage": "https://clawhub.ai/ykaixu/file-writer", "iconUrl": null, "installs": 65, "name": "File Writer", "ownerName": "ykaixu", "score": 35709.090909090904, "slug": "file-writer", "source": "clawhub", "stars": 0, "tags": null, "updated_at": 1776759082540, "version": "1.0.0"}, {"category": "developer-tools", "created_at": 1772784421445, "description": "TS5 namespace for Netsnek e.U. TypeScript full-stack starter kit. Monorepo template with shared types, CI/CD pipelines, and one-click deployment.", "description_zh": "", "downloads": 491, "homepage": "https://clawhub.ai/kleberbaum/ts5", "iconUrl": null, "installs": 19, "name": "ts5", "ownerName": "kleberbaum", "score": 92816.63516068053, "slug": "ts5", "source": "clawhub", "stars": 0, "tags": null, "updated_at": 1776753283725, "version": "0.1.0"}, {"category": "developer-tools", "created_at": 1772788338142, "description": "Participate in the FORTUNA autonomous agent lottery on Solana. Buy lottery tickets by sending SOL to the treasury. Check jackpot size, round countdown, and d...", "description_zh": "", "downloads": 491, "homepage": "https://clawhub.ai/codiicode/fortuna", "iconUrl": null, "installs": 37, "name": "Fortuna Lottery", "ownerName": "codiicode", "score": 100000, "slug": "fortuna", "source": "clawhub", "stars": 0, "tags": ["agent", "crypto", "jackpot", "lottery", "solana"], "updated_at": 1776748785180, "version": "1.2.0"}, {"category": "security-compliance", "created_at": 1772783464670, "description": "Analyze a GitHub pull request for mergeability — predict whether it will get merged based on technical, architectural, process, social, and compliance factor...", "description_zh": "", "downloads": 491, "homepage": "https://clawhub.ai/tag-assistant/merge-check", "iconUrl": null, "installs": 7, "name": "Merge Check", "ownerName": "tag-assistant", "score": 86140.35087719298, "slug": "merge-check", "source": "clawhub", "stars": 0, "tags": null, "updated_at": 1776748185778, "version": "1.0.0"}, {"category": "communication-collaboration", "created_at": 1772777845981, "description": "Generates testimonial request emails and formats collected testimonials for marketing", "description_zh": "", "downloads": 491, "homepage": "https://clawhub.ai/1kalin/afrexai-testimonial-collector", "iconUrl": null, "installs": 14, "name": "AfrexAI Testimonial Collector", "ownerName": "1kalin", "score": 84655.1724137931, "slug": "afrexai-testimonial-collector", "source": "clawhub", "stars": 0, "tags": null, "updated_at": 1776748185427, "version": "1.0.0"}, {"category": "data-analysis", "created_at": 1772781070841, "description": "Analyze Hyperliquid market data and provide trading insights. Real-time price monitoring, trend analysis, and risk assessment.", "description_zh": "", "downloads": 491, "homepage": "https://clawhub.ai/b0on/hyperliquid-analyzer", "iconUrl": null, "installs": 9, "name": "Hyperliquid Analyzer", "ownerName": "b0on", "score": 91433.8919925512, "slug": "hyperliquid-analyzer", "source": "clawhub", "stars": 0, "tags": null, "updated_at": 1776748185208, "version": "1.0.0"}, {"category": "developer-tools", "created_at": 1772780036469, "description": "Text-to-Speech via macOS say command with Siri Natural Voices. Use for generating speech audio, TTS clips, or speaking text aloud on macOS.", "description_zh": "", "downloads": 491, "homepage": "https://clawhub.ai/tobihagemann/say", "iconUrl": null, "installs": 7, "name": "say", "ownerName": "tobihagemann", "score": 88788.4267631103, "slug": "say", "source": "clawhub", "stars": 0, "tags": null, "updated_at": 1776748185201, "version": "1.0.2"}, {"category": "data-analysis", "created_at": 1772783208178, "description": "Use when a user sends you an image, meme, screenshot, or asks you to explain a joke or meme. Also used during cron meme ingestion from Telegram channels. Dec...", "description_zh": "", "downloads": 491, "homepage": "https://clawhub.ai/antibagr/meme-analyst", "iconUrl": null, "installs": 20, "name": "Meme Analyst", "ownerName": "antibagr", "score": 90423.57274401473, "slug": "meme-analyst", "source": "clawhub", "stars": 0, "tags": null, "updated_at": 1776748184930, "version": "1.1.0"}, {"category": "data-analysis", "created_at": 1772783592995, "description": "Convert a workflow, skill, or capability into a sellable micro-offer with positioning, pricing, packaging, and launch assets.", "description_zh": "", "downloads": 490, "homepage": "https://clawhub.ai/xammarie/micro-offer-forge", "iconUrl": null, "installs": 22, "name": "micro-offer-forge", "ownerName": "xammarie", "score": 100000, "slug": "micro-offer-forge", "source": "clawhub", "stars": 4, "tags": null, "updated_at": 1776748185758, "version": "1.0.1"}, {"category": "data-analysis", "created_at": 1772790112158, "description": "Homelab server management via homebutler CLI. System status, Docker, WoL, port scanning, TUI dashboard, web dashboard, alerts, and multi-server SSH.", "description_zh": "", "downloads": 490, "homepage": "https://clawhub.ai/higangssh/homeserver", "iconUrl": null, "installs": 10, "name": "Homeserver", "ownerName": "higangssh", "score": 13496.307613954672, "slug": "homeserver", "source": "clawhub", "stars": 2, "tags": null, "updated_at": 1776761880124, "version": "2.1.0"}]}