{"page": 18, "total_pages": 22, "total": 1089, "skills": [{"slug": "obra-systematic-debugging", "name": "obra/systematic-debugging", "description": "Methodical problem-solving in code", "description_zh": "", "homepage": "https://github.com/obra/superpowers/blob/main/skills/systematic-debugging/SKILL.md", "tags": ["Community Skills"], "category": "Community Skills", "ownerName": "obra", "sources": ["VoltAgent/awesome-agent-skills"], "score": 250, "downloads": 0, "stars": 0, "installs": 0, "version": "", "updated_at": 0}, {"slug": "obra-test-driven-development", "name": "obra/test-driven-development", "description": "Write tests before implementing code", "description_zh": "", "homepage": "https://github.com/obra/superpowers/blob/main/skills/test-driven-development/SKILL.md", "tags": ["Community Skills"], "category": "Community Skills", "ownerName": "obra", "sources": ["VoltAgent/awesome-agent-skills"], "score": 249, "downloads": 0, "stars": 0, "installs": 0, "version": "", "updated_at": 0}, {"slug": "obra-testing-anti-patterns", "name": "obra/testing-anti-patterns", "description": "Identify ineffective testing practices", "description_zh": "", "homepage": "https://github.com/obra/superpowers/blob/main/skills/testing-anti-patterns/SKILL.md", "tags": ["Community Skills"], "category": "Community Skills", "ownerName": "obra", "sources": ["VoltAgent/awesome-agent-skills"], "score": 248, "downloads": 0, "stars": 0, "installs": 0, "version": "", "updated_at": 0}, {"slug": "obra-testing-skills-with-subagents", "name": "obra/testing-skills-with-subagents", "description": "Collaborative testing approaches", "description_zh": "", "homepage": "https://github.com/obra/superpowers/blob/main/skills/testing-skills-with-subagents/SKILL.md", "tags": ["Community Skills"], "category": "Community Skills", "ownerName": "obra", "sources": ["VoltAgent/awesome-agent-skills"], "score": 247, "downloads": 0, "stars": 0, "installs": 0, "version": "", "updated_at": 0}, {"slug": "obra-using-git-worktrees", "name": "obra/using-git-worktrees", "description": "Manage multiple Git working trees", "description_zh": "", "homepage": "https://github.com/obra/superpowers/blob/main/skills/using-git-worktrees/SKILL.md", "tags": ["Community Skills"], "category": "Community Skills", "ownerName": "obra", "sources": ["VoltAgent/awesome-agent-skills"], "score": 246, "downloads": 0, "stars": 0, "installs": 0, "version": "", "updated_at": 0}, {"slug": "obra-using-superpowers", "name": "obra/using-superpowers", "description": "Leverage core platform capabilities", "description_zh": "", "homepage": "https://github.com/obra/superpowers/blob/main/skills/using-superpowers/SKILL.md", "tags": ["Community Skills"], "category": "Community Skills", "ownerName": "obra", "sources": ["VoltAgent/awesome-agent-skills"], "score": 245, "downloads": 0, "stars": 0, "installs": 0, "version": "", "updated_at": 0}, {"slug": "obra-verification-before-completion", "name": "obra/verification-before-completion", "description": "Validate work before finalizing", "description_zh": "", "homepage": "https://github.com/obra/superpowers/blob/main/skills/verification-before-completion/SKILL.md", "tags": ["Community Skills"], "category": "Community Skills", "ownerName": "obra", "sources": ["VoltAgent/awesome-agent-skills"], "score": 244, "downloads": 0, "stars": 0, "installs": 0, "version": "", "updated_at": 0}, {"slug": "obra-writing-plans", "name": "obra/writing-plans", "description": "Create strategic documentation", "description_zh": "", "homepage": "https://github.com/obra/superpowers/blob/main/skills/writing-plans/SKILL.md", "tags": ["Community Skills"], "category": "Community Skills", "ownerName": "obra", "sources": ["VoltAgent/awesome-agent-skills"], "score": 243, "downloads": 0, "stars": 0, "installs": 0, "version": "", "updated_at": 0}, {"slug": "obra-writing-skills", "name": "obra/writing-skills", "description": "Develop and document capabilities", "description_zh": "", "homepage": "https://github.com/obra/superpowers/blob/main/skills/writing-skills/SKILL.md", "tags": ["Community Skills"], "category": "Community Skills", "ownerName": "obra", "sources": ["VoltAgent/awesome-agent-skills"], "score": 242, "downloads": 0, "stars": 0, "installs": 0, "version": "", "updated_at": 0}, {"slug": "octav-api-skill", "name": "octav-api-skill", "description": "Query Octav's crypto portfolio API: wallet balances, transaction history, DeFi protocol positions, and token analytics across 20+ chains.", "description_zh": "", "homepage": "https://github.com/Octav-Labs/octav-api-skill", "tags": ["📊 Data & Analysis"], "category": "📊 Data & Analysis", "ownerName": "Octav-Labs", "sources": ["BehiSecc/awesome-claude-skills"], "score": 241, "downloads": 0, "stars": 0, "installs": 0, "version": "", "updated_at": 0}, {"slug": "official-skills-repository-issues", "name": "Official Skills Repository Issues", "description": "[Claude Documentation](https://docs.claude.com/)", "description_zh": "", "homepage": "https://github.com/anthropics/skills/issues", "tags": ["Getting Help"], "category": "Getting Help", "ownerName": "anthropics", "sources": ["travisvn/awesome-claude-skills"], "score": 240, "downloads": 0, "stars": 0, "installs": 0, "version": "", "updated_at": 0}, {"slug": "ognjengt-founder-skills", "name": "ognjengt/founder-skills", "description": "Claude skills for founders with packaged startup workflows", "description_zh": "", "homepage": "https://github.com/ognjengt/founder-skills", "tags": ["Community Skills"], "category": "Community Skills", "ownerName": "ognjengt", "sources": ["VoltAgent/awesome-agent-skills"], "score": 239, "downloads": 0, "stars": 0, "installs": 0, "version": "", "updated_at": 0}, {"slug": "oiloil-ui-ux-guide", "name": "oiloil-ui-ux-guide", "description": "Modern UI/UX guidance and review skill with guide and review modes. Covers CRAP, task-first UX, HCI laws, interaction psychology, and modern minimal style.", "description_zh": "", "homepage": "https://github.com/oil-oil/oiloil-ui-ux-guide", "tags": ["🛠 Development & Code Tools"], "category": "🛠 Development & Code Tools", "ownerName": "oil-oil", "sources": ["BehiSecc/awesome-claude-skills"], "score": 238, "downloads": 0, "stars": 0, "installs": 0, "version": "", "updated_at": 0}, {"slug": "omkamal-pypict-skill", "name": "omkamal/pypict-skill", "description": "Pairwise test generation", "description_zh": "", "homepage": "https://github.com/omkamal/pypict-claude-skill/blob/main/SKILL.md", "tags": ["Community Skills"], "category": "Community Skills", "ownerName": "omkamal", "sources": ["VoltAgent/awesome-agent-skills"], "score": 237, "downloads": 0, "stars": 0, "installs": 0, "version": "", "updated_at": 0}, {"slug": "onedrive-automation", "name": "OneDrive Automation", "description": "Automate OneDrive: files, folders, search, sharing, permissions, and versioning.", "description_zh": "", "homepage": "./one-drive-automation", "tags": ["App Automation via Composio"], "category": "App Automation via Composio", "ownerName": "", "sources": ["ComposioHQ/awesome-claude-skills"], "score": 236, "downloads": 0, "stars": 0, "installs": 0, "version": "", "updated_at": 0}, {"slug": "op7418-nanobanana-ppt-skills", "name": "op7418/NanoBanana-PPT-Skills", "description": "AI-powered PPT generation with document analysis and styled images", "description_zh": "", "homepage": "https://github.com/op7418/NanoBanana-PPT-Skills", "tags": ["Community Skills"], "category": "Community Skills", "ownerName": "op7418", "sources": ["VoltAgent/awesome-agent-skills"], "score": 235, "downloads": 0, "stars": 0, "installs": 0, "version": "", "updated_at": 0}, {"slug": "op7418-youtube-clipper-skill", "name": "op7418/Youtube-clipper-skill", "description": "YouTube clip generation and editing with automated workflows", "description_zh": "", "homepage": "https://github.com/op7418/Youtube-clipper-skill", "tags": ["Community Skills"], "category": "Community Skills", "ownerName": "op7418", "sources": ["VoltAgent/awesome-agent-skills"], "score": 234, "downloads": 0, "stars": 0, "installs": 0, "version": "", "updated_at": 0}, {"slug": "openaccountants-openaccountants", "name": "openaccountants/openaccountants", "description": "371 tax classification skills across 134 countries", "description_zh": "", "homepage": "https://github.com/openaccountants/openaccountants", "tags": ["Community Skills"], "category": "Community Skills", "ownerName": "openaccountants", "sources": ["VoltAgent/awesome-agent-skills"], "score": 233, "downloads": 0, "stars": 0, "installs": 0, "version": "", "updated_at": 0}, {"slug": "openai-aspnet-core", "name": "openai/aspnet-core", "description": "Build, review, and architect ASP.NET Core apps (Blazor, MVC, Minimal APIs, etc.)", "description_zh": "", "homepage": "https://officialskills.sh/openai/skills/aspnet-core", "tags": ["TypeScript Skills"], "category": "TypeScript Skills", "ownerName": "", "sources": ["VoltAgent/awesome-agent-skills"], "score": 232, "downloads": 0, "stars": 0, "installs": 0, "version": "", "updated_at": 0}, {"slug": "openai-chatgpt-apps", "name": "openai/chatgpt-apps", "description": "Build, scaffold, and troubleshoot ChatGPT Apps SDK apps with MCP server and widget UI", "description_zh": "", "homepage": "https://officialskills.sh/openai/skills/chatgpt-apps", "tags": ["TypeScript Skills"], "category": "TypeScript Skills", "ownerName": "", "sources": ["VoltAgent/awesome-agent-skills"], "score": 231, "downloads": 0, "stars": 0, "installs": 0, "version": "", "updated_at": 0}, {"slug": "openai-cloudflare-deploy", "name": "openai/cloudflare-deploy", "description": "Deploy apps to Cloudflare using Workers, Pages, and platform services", "description_zh": "", "homepage": "https://officialskills.sh/openai/skills/cloudflare-deploy", "tags": ["TypeScript Skills"], "category": "TypeScript Skills", "ownerName": "", "sources": ["VoltAgent/awesome-agent-skills"], "score": 230, "downloads": 0, "stars": 0, "installs": 0, "version": "", "updated_at": 0}, {"slug": "openai-develop-web-game", "name": "openai/develop-web-game", "description": "Build and test web games iteratively using Playwright with time-stepping", "description_zh": "", "homepage": "https://officialskills.sh/openai/skills/develop-web-game", "tags": ["TypeScript Skills"], "category": "TypeScript Skills", "ownerName": "", "sources": ["VoltAgent/awesome-agent-skills"], "score": 229, "downloads": 0, "stars": 0, "installs": 0, "version": "", "updated_at": 0}, {"slug": "openai-doc", "name": "openai/doc", "description": "Read, create, and edit .docx documents with formatting and layout fidelity", "description_zh": "", "homepage": "https://officialskills.sh/openai/skills/doc", "tags": ["TypeScript Skills"], "category": "TypeScript Skills", "ownerName": "", "sources": ["VoltAgent/awesome-agent-skills"], "score": 228, "downloads": 0, "stars": 0, "installs": 0, "version": "", "updated_at": 0}, {"slug": "openai-figma", "name": "openai/figma", "description": "Use the Figma MCP server to fetch design context and translate nodes into production code", "description_zh": "", "homepage": "https://officialskills.sh/openai/skills/figma", "tags": ["TypeScript Skills"], "category": "TypeScript Skills", "ownerName": "", "sources": ["VoltAgent/awesome-agent-skills"], "score": 227, "downloads": 0, "stars": 0, "installs": 0, "version": "", "updated_at": 0}, {"slug": "openai-figma-code-connect-components", "name": "openai/figma-code-connect-components", "description": "Connect Figma design components to code components using Code Connect", "description_zh": "", "homepage": "https://officialskills.sh/openai/skills/figma-code-connect-components", "tags": ["TypeScript Skills"], "category": "TypeScript Skills", "ownerName": "", "sources": ["VoltAgent/awesome-agent-skills"], "score": 226, "downloads": 0, "stars": 0, "installs": 0, "version": "", "updated_at": 0}, {"slug": "openai-figma-create-design-system-rules", "name": "openai/figma-create-design-system-rules", "description": "Rules for implementing Figma designs using the Figma MCP server", "description_zh": "", "homepage": "https://officialskills.sh/openai/skills/figma-create-design-system-rules", "tags": ["TypeScript Skills"], "category": "TypeScript Skills", "ownerName": "", "sources": ["VoltAgent/awesome-agent-skills"], "score": 225, "downloads": 0, "stars": 0, "installs": 0, "version": "", "updated_at": 0}, {"slug": "openai-figma-create-new-file", "name": "openai/figma-create-new-file", "description": "Create a new blank Figma file or FigJam file", "description_zh": "", "homepage": "https://officialskills.sh/openai/skills/figma-create-new-file", "tags": ["TypeScript Skills"], "category": "TypeScript Skills", "ownerName": "", "sources": ["VoltAgent/awesome-agent-skills"], "score": 224, "downloads": 0, "stars": 0, "installs": 0, "version": "", "updated_at": 0}, {"slug": "openai-figma-generate-design", "name": "openai/figma-generate-design", "description": "Translate app pages and layouts into Figma using design system tokens", "description_zh": "", "homepage": "https://officialskills.sh/openai/skills/figma-generate-design", "tags": ["TypeScript Skills"], "category": "TypeScript Skills", "ownerName": "", "sources": ["VoltAgent/awesome-agent-skills"], "score": 223, "downloads": 0, "stars": 0, "installs": 0, "version": "", "updated_at": 0}, {"slug": "openai-figma-generate-library", "name": "openai/figma-generate-library", "description": "Build or update a professional-grade design system in Figma from a codebase", "description_zh": "", "homepage": "https://officialskills.sh/openai/skills/figma-generate-library", "tags": ["TypeScript Skills"], "category": "TypeScript Skills", "ownerName": "", "sources": ["VoltAgent/awesome-agent-skills"], "score": 222, "downloads": 0, "stars": 0, "installs": 0, "version": "", "updated_at": 0}, {"slug": "openai-figma-implement-design", "name": "openai/figma-implement-design", "description": "Translate Figma designs into production-ready code with 1:1 visual fidelity", "description_zh": "", "homepage": "https://officialskills.sh/openai/skills/figma-implement-design", "tags": ["TypeScript Skills"], "category": "TypeScript Skills", "ownerName": "", "sources": ["VoltAgent/awesome-agent-skills"], "score": 221, "downloads": 0, "stars": 0, "installs": 0, "version": "", "updated_at": 0}, {"slug": "openai-figma-use", "name": "openai/figma-use", "description": "Prerequisite skill for every use_figma tool call — write/read actions in Figma context", "description_zh": "", "homepage": "https://officialskills.sh/openai/skills/figma-use", "tags": ["TypeScript Skills"], "category": "TypeScript Skills", "ownerName": "", "sources": ["VoltAgent/awesome-agent-skills"], "score": 220, "downloads": 0, "stars": 0, "installs": 0, "version": "", "updated_at": 0}, {"slug": "openai-frontend-skill", "name": "openai/frontend-skill", "description": "Create visually strong landing pages, websites, and app UIs with restrained composition", "description_zh": "", "homepage": "https://officialskills.sh/openai/skills/frontend-skill", "tags": ["TypeScript Skills"], "category": "TypeScript Skills", "ownerName": "", "sources": ["VoltAgent/awesome-agent-skills"], "score": 219, "downloads": 0, "stars": 0, "installs": 0, "version": "", "updated_at": 0}, {"slug": "openai-gh-address-comments", "name": "openai/gh-address-comments", "description": "Address review and issue comments on open GitHub PRs via CLI", "description_zh": "", "homepage": "https://officialskills.sh/openai/skills/gh-address-comments", "tags": ["TypeScript Skills"], "category": "TypeScript Skills", "ownerName": "", "sources": ["VoltAgent/awesome-agent-skills"], "score": 218, "downloads": 0, "stars": 0, "installs": 0, "version": "", "updated_at": 0}, {"slug": "openai-gh-fix-ci", "name": "openai/gh-fix-ci", "description": "Debug and fix failing GitHub Actions PR checks using log inspection", "description_zh": "", "homepage": "https://officialskills.sh/openai/skills/gh-fix-ci", "tags": ["TypeScript Skills"], "category": "TypeScript Skills", "ownerName": "", "sources": ["VoltAgent/awesome-agent-skills"], "score": 217, "downloads": 0, "stars": 0, "installs": 0, "version": "", "updated_at": 0}, {"slug": "openai-imagegen", "name": "openai/imagegen", "description": "Generate and edit images using OpenAI's Image API for projects", "description_zh": "", "homepage": "https://officialskills.sh/openai/skills/imagegen", "tags": ["TypeScript Skills"], "category": "TypeScript Skills", "ownerName": "", "sources": ["VoltAgent/awesome-agent-skills"], "score": 216, "downloads": 0, "stars": 0, "installs": 0, "version": "", "updated_at": 0}, {"slug": "openai-jupyter-notebook", "name": "openai/jupyter-notebook", "description": "Create clean, reproducible Jupyter notebooks for experiments and tutorials", "description_zh": "", "homepage": "https://officialskills.sh/openai/skills/jupyter-notebook", "tags": ["TypeScript Skills"], "category": "TypeScript Skills", "ownerName": "", "sources": ["VoltAgent/awesome-agent-skills"], "score": 215, "downloads": 0, "stars": 0, "installs": 0, "version": "", "updated_at": 0}, {"slug": "openai-linear", "name": "openai/linear", "description": "Manage issues, projects, and team workflows in Linear", "description_zh": "", "homepage": "https://officialskills.sh/openai/skills/linear", "tags": ["TypeScript Skills"], "category": "TypeScript Skills", "ownerName": "", "sources": ["VoltAgent/awesome-agent-skills"], "score": 214, "downloads": 0, "stars": 0, "installs": 0, "version": "", "updated_at": 0}, {"slug": "openai-netlify-deploy", "name": "openai/netlify-deploy", "description": "Automate Netlify deployments with CLI auth, linking, and environment support", "description_zh": "", "homepage": "https://officialskills.sh/openai/skills/netlify-deploy", "tags": ["TypeScript Skills"], "category": "TypeScript Skills", "ownerName": "", "sources": ["VoltAgent/awesome-agent-skills"], "score": 213, "downloads": 0, "stars": 0, "installs": 0, "version": "", "updated_at": 0}, {"slug": "openai-notion-knowledge-capture", "name": "openai/notion-knowledge-capture", "description": "Convert conversations into structured, searchable Notion wiki entries", "description_zh": "", "homepage": "https://officialskills.sh/openai/skills/notion-knowledge-capture", "tags": ["TypeScript Skills"], "category": "TypeScript Skills", "ownerName": "", "sources": ["VoltAgent/awesome-agent-skills"], "score": 212, "downloads": 0, "stars": 0, "installs": 0, "version": "", "updated_at": 0}, {"slug": "openai-notion-meeting-intelligence", "name": "openai/notion-meeting-intelligence", "description": "Prep meetings by pulling Notion context and tailoring agendas", "description_zh": "", "homepage": "https://officialskills.sh/openai/skills/notion-meeting-intelligence", "tags": ["TypeScript Skills"], "category": "TypeScript Skills", "ownerName": "", "sources": ["VoltAgent/awesome-agent-skills"], "score": 211, "downloads": 0, "stars": 0, "installs": 0, "version": "", "updated_at": 0}, {"slug": "openai-notion-research-documentation", "name": "openai/notion-research-documentation", "description": "Research Notion content and synthesize findings into structured briefs", "description_zh": "", "homepage": "https://officialskills.sh/openai/skills/notion-research-documentation", "tags": ["TypeScript Skills"], "category": "TypeScript Skills", "ownerName": "", "sources": ["VoltAgent/awesome-agent-skills"], "score": 210, "downloads": 0, "stars": 0, "installs": 0, "version": "", "updated_at": 0}, {"slug": "openai-notion-spec-to-implementation", "name": "openai/notion-spec-to-implementation", "description": "Convert Notion specs into linked implementation plans and tasks", "description_zh": "", "homepage": "https://officialskills.sh/openai/skills/notion-spec-to-implementation", "tags": ["TypeScript Skills"], "category": "TypeScript Skills", "ownerName": "", "sources": ["VoltAgent/awesome-agent-skills"], "score": 209, "downloads": 0, "stars": 0, "installs": 0, "version": "", "updated_at": 0}, {"slug": "openai-openai-docs", "name": "openai/openai-docs", "description": "Provide authoritative guidance from OpenAI developer documentation", "description_zh": "", "homepage": "https://officialskills.sh/openai/skills/openai-docs", "tags": ["TypeScript Skills"], "category": "TypeScript Skills", "ownerName": "", "sources": ["VoltAgent/awesome-agent-skills"], "score": 208, "downloads": 0, "stars": 0, "installs": 0, "version": "", "updated_at": 0}, {"slug": "openai-pdf", "name": "openai/pdf", "description": "Read, create, and review PDFs with layout and visual formatting integrity", "description_zh": "", "homepage": "https://officialskills.sh/openai/skills/pdf", "tags": ["TypeScript Skills"], "category": "TypeScript Skills", "ownerName": "", "sources": ["VoltAgent/awesome-agent-skills"], "score": 207, "downloads": 0, "stars": 0, "installs": 0, "version": "", "updated_at": 0}, {"slug": "openai-playwright", "name": "openai/playwright", "description": "Automate real browser interactions for navigation, forms, and scraping", "description_zh": "", "homepage": "https://officialskills.sh/openai/skills/playwright", "tags": ["TypeScript Skills"], "category": "TypeScript Skills", "ownerName": "", "sources": ["VoltAgent/awesome-agent-skills"], "score": 206, "downloads": 0, "stars": 0, "installs": 0, "version": "", "updated_at": 0}, {"slug": "openai-playwright-interactive", "name": "openai/playwright-interactive", "description": "Persistent browser and Electron interaction via js_repl for iterative UI debugging", "description_zh": "", "homepage": "https://officialskills.sh/openai/skills/playwright-interactive", "tags": ["TypeScript Skills"], "category": "TypeScript Skills", "ownerName": "", "sources": ["VoltAgent/awesome-agent-skills"], "score": 205, "downloads": 0, "stars": 0, "installs": 0, "version": "", "updated_at": 0}, {"slug": "openai-render-deploy", "name": "openai/render-deploy", "description": "Deploy applications to Render's cloud platform using Git-backed services", "description_zh": "", "homepage": "https://officialskills.sh/openai/skills/render-deploy", "tags": ["TypeScript Skills"], "category": "TypeScript Skills", "ownerName": "", "sources": ["VoltAgent/awesome-agent-skills"], "score": 204, "downloads": 0, "stars": 0, "installs": 0, "version": "", "updated_at": 0}, {"slug": "openai-screenshot", "name": "openai/screenshot", "description": "Capture desktop, app windows, or pixel regions across OS platforms", "description_zh": "", "homepage": "https://officialskills.sh/openai/skills/screenshot", "tags": ["TypeScript Skills"], "category": "TypeScript Skills", "ownerName": "", "sources": ["VoltAgent/awesome-agent-skills"], "score": 203, "downloads": 0, "stars": 0, "installs": 0, "version": "", "updated_at": 0}, {"slug": "openai-security-best-practices", "name": "openai/security-best-practices", "description": "Review code for language-specific security vulnerabilities", "description_zh": "", "homepage": "https://officialskills.sh/openai/skills/security-best-practices", "tags": ["TypeScript Skills"], "category": "TypeScript Skills", "ownerName": "", "sources": ["VoltAgent/awesome-agent-skills"], "score": 202, "downloads": 0, "stars": 0, "installs": 0, "version": "", "updated_at": 0}, {"slug": "openai-security-ownership-map", "name": "openai/security-ownership-map", "description": "Map people-to-file ownership, compute bus factor, and identify risks", "description_zh": "", "homepage": "https://officialskills.sh/openai/skills/security-ownership-map", "tags": ["TypeScript Skills"], "category": "TypeScript Skills", "ownerName": "", "sources": ["VoltAgent/awesome-agent-skills"], "score": 201, "downloads": 0, "stars": 0, "installs": 0, "version": "", "updated_at": 0}]}