{"page": 180, "total_pages": 522, "total": 26073, "skills": [{"category": "developer-tools", "created_at": 1773065464460, "description": "Manages AdsPower browser profiles, groups, and proxies via the adspower-browser CLI. Requires AdsPower desktop application to be already installed. Uses only...", "description_zh": "", "downloads": 490, "homepage": "https://clawhub.ai/adspower/adspower-browser", "iconUrl": null, "installs": 17, "name": "adspower-browser", "ownerName": "adspower", "score": 41734.86088379705, "slug": "adspower-browser", "source": "clawhub", "stars": 1, "tags": null, "updated_at": 1776760620778, "version": "1.0.9"}, {"category": "ai-intelligence", "created_at": 1772786862459, "description": "Launch 3 parallel research agents (market, users, tech) to investigate an idea from multiple angles simultaneously. Use when user says \"swarm research\", \"par...", "description_zh": "", "downloads": 490, "homepage": "https://clawhub.ai/fortunto2/solo-swarm", "iconUrl": null, "installs": 5, "name": "Swarm", "ownerName": "fortunto2", "score": 2337.45170061537, "slug": "solo-swarm", "source": "clawhub", "stars": 0, "tags": null, "updated_at": 1776766450444, "version": "1.6.0"}, {"category": "ai-intelligence", "created_at": 1773954290964, "description": "Captures learnings, errors, and corrections to enable continuous improvement. Use when: (1) A command or operation fails unexpectedly, (2) User corrects Clau...", "description_zh": "", "downloads": 490, "homepage": "https://clawhub.ai/tianjin-ren/self-improvement-tianjin", "iconUrl": null, "installs": 297, "name": "Self Improvement Tianjin", "ownerName": "tianjin-ren", "score": 7006.005147269088, "slug": "self-improvement-tianjin", "source": "clawhub", "stars": 0, "tags": null, "updated_at": 1776765055959, "version": "1.0.1"}, {"category": "developer-tools", "created_at": 1772785097886, "description": "Automates memecoin trading on Solana using fdv.lol CLI with Agent Gary's AI full control via a locally generated, user-configured profile.", "description_zh": "", "downloads": 490, "homepage": "https://clawhub.ai/build23w/agentic-powered-memecoin-trader", "iconUrl": null, "installs": 13, "name": "Agent Gary AI Powered Memecoin trader.", "ownerName": "build23w", "score": 35844.91587417703, "slug": "agentic-powered-memecoin-trader", "source": "clawhub", "stars": 0, "tags": null, "updated_at": 1776759083494, "version": "0.1.0"}, {"category": "developer-tools", "created_at": 1772785534483, "description": "Logs and organizes learnings, errors, and feature requests for continuous improvement, integrating with OpenClaw workspace for knowledge management.", "description_zh": "", "downloads": 490, "homepage": "https://clawhub.ai/pedrohenrique202525/agente-conhecimento", "iconUrl": null, "installs": 10, "name": "Agente Conhecimento", "ownerName": "pedrohenrique202525", "score": 89579.52468007313, "slug": "agente-conhecimento", "source": "clawhub", "stars": 0, "tags": null, "updated_at": 1776759083123, "version": "1.0.0"}, {"category": "ai-intelligence", "created_at": 1772796983446, "description": "Generate music from text with IMA Open API. Supports Suno (sonic), DouBao BGM (GenBGM), and DouBao Song (GenSong). Uses only api.imastudio.com.", "description_zh": "", "downloads": 490, "homepage": "https://clawhub.ai/allenfancy-gan/ima-voice-ai", "iconUrl": null, "installs": 84, "name": "IMA Studio Music — Suno, DouBao", "ownerName": "allenfancy-gan", "score": 85217.39130434782, "slug": "ima-voice-ai", "source": "clawhub", "stars": 0, "tags": null, "updated_at": 1776751784313, "version": "1.0.11"}, {"category": "ai-intelligence", "created_at": 1772785608141, "description": "Help founders and marketers nail their positioning. Use when someone mentions \"positioning,\" \"value proposition,\" \"who is this for,\" \"how do I describe my pr...", "description_zh": "", "downloads": 490, "homepage": "https://clawhub.ai/brianrwagner/brw-positioning-basics", "iconUrl": null, "installs": 27, "name": "Positioning Basics", "ownerName": "brianrwagner", "score": 92979.12713472485, "slug": "brw-positioning-basics", "source": "clawhub", "stars": 0, "tags": null, "updated_at": 1776748205048, "version": "1.0.0"}, {"category": "ai-intelligence", "created_at": 1772783345999, "description": "Wraps HLE benchmark questions in a structured Chain-of-Thought (CoT) reasoning process. Use when answering HLE questions to ensure strict step-by-step logic...", "description_zh": "", "downloads": 490, "homepage": "https://clawhub.ai/wanng-ide/hle-reasoning-wrapper", "iconUrl": null, "installs": 27, "name": "Hle Reasoning Wrapper", "ownerName": "wanng-ide", "score": 91247.67225325885, "slug": "hle-reasoning-wrapper", "source": "clawhub", "stars": 0, "tags": null, "updated_at": 1776748185859, "version": "1.0.0"}, {"category": "security-compliance", "created_at": 1772782229725, "description": "Authorize autonomous x402 API payments with bounded, wallet-funded session keys under strict policy limits in ACE Phase 0 without credit lines.", "description_zh": "", "downloads": 490, "homepage": "https://clawhub.ai/sumeetchougule/chaoschain-ace", "iconUrl": null, "installs": 8, "name": "ChaosChain ACE (Phase 0)", "ownerName": "sumeetchougule", "score": 85964.91228070176, "slug": "chaoschain-ace", "source": "clawhub", "stars": 0, "tags": ["openclaw", "payments", "phase0", "x402"], "updated_at": 1776748185797, "version": "0.1.0"}, {"category": "ai-intelligence", "created_at": 1772780809665, "description": "AI agent for tech and internet domain search agent tasks", "description_zh": "", "downloads": 490, "homepage": "https://clawhub.ai/urrrich/tech-and-internet-domain-search-agent", "iconUrl": null, "installs": 20, "name": "Tech And Internet Domain Search Agent", "ownerName": "urrrich", "score": 86419.75308641975, "slug": "tech-and-internet-domain-search-agent", "source": "clawhub", "stars": 0, "tags": null, "updated_at": 1776748185606, "version": "0.1.0"}, {"category": "data-analysis", "created_at": 1772779997919, "description": "Complete startup metrics command center — from raw data to investor-ready dashboards. Covers every stage (pre-seed to Series B+), every model (SaaS, marketpl...", "description_zh": "", "downloads": 490, "homepage": "https://clawhub.ai/1kalin/afrexai-startup-metrics-engine", "iconUrl": null, "installs": 22, "name": "Startup Metrics Command Center", "ownerName": "1kalin", "score": 84482.75862068965, "slug": "afrexai-startup-metrics-engine", "source": "clawhub", "stars": 0, "tags": ["arr", "cac", "churn", "dashboard", "fundraising", "growth", "investor", "kpis", "ltv", "metrics", "saas", "startup", "unit-economics"], "updated_at": 1776748185591, "version": "1.0.0"}, {"category": "productivity", "created_at": 1772784410801, "description": "Experience summaries for OpenClaw tasks, including common installation problems, troubleshooting steps, and best practices for packages, configurations, and...", "description_zh": "", "downloads": 490, "homepage": "https://clawhub.ai/dawai2005/task-experience-summaries", "iconUrl": null, "installs": 16, "name": "OpenClaw Task Experience Summaries", "ownerName": "dawai2005", "score": 84482.75862068965, "slug": "task-experience-summaries", "source": "clawhub", "stars": 0, "tags": null, "updated_at": 1776748185548, "version": "1.0.0"}, {"category": "ai-intelligence", "created_at": 1772785801976, "description": "Log meals, check nutrition progress, and manage calorie goals in the OpenCal app — hands-free via your AI agent. Use when the user mentions eating, food, cal...", "description_zh": "", "downloads": 490, "homepage": "https://clawhub.ai/neikfu/opencal", "iconUrl": null, "installs": 17, "name": "OpenCal", "ownerName": "neikfu", "score": 91247.67225325885, "slug": "opencal", "source": "clawhub", "stars": 0, "tags": null, "updated_at": 1776748185217, "version": "1.0.0"}, {"category": "productivity", "created_at": 1773222781999, "description": "A personalized weekly rhythm system built on top of sage-cognitive. Not a standup report — a question-driven mirror for \"did this week feel like you?\" Includ...", "description_zh": "", "downloads": 490, "homepage": "https://clawhub.ai/evanl1/sage-week-rhythm", "iconUrl": null, "installs": 12, "name": "Sage Week Rhythm", "ownerName": "evanl1", "score": 88607.59493670886, "slug": "sage-week-rhythm", "source": "clawhub", "stars": 0, "tags": null, "updated_at": 1776748185186, "version": "0.1.0"}, {"category": "ai-intelligence", "created_at": 1772780776014, "description": "Agent and people discovery with real-time communication via Mistro (https://mistro.sh). Post-based semantic search, multi-channel contact exchange, and NATS...", "description_zh": "", "downloads": 490, "homepage": "https://clawhub.ai/ando818/mistro", "iconUrl": null, "installs": 14, "name": "mistro-connect", "ownerName": "ando818", "score": 88607.59493670886, "slug": "mistro", "source": "clawhub", "stars": 0, "tags": null, "updated_at": 1776748185181, "version": "1.0.4"}, {"category": "productivity", "created_at": 1773059921055, "description": "English dictionary lookup tool. Query English words to get Chinese definitions and generate two example sentences. Use when user needs to look up English wor...", "description_zh": "", "downloads": 490, "homepage": "https://clawhub.ai/mohaiyan3-tal/english-dict", "iconUrl": null, "installs": 205, "name": "english-dict", "ownerName": "mohaiyan3-tal", "score": 87500, "slug": "english-dict", "source": "clawhub", "stars": 0, "tags": null, "updated_at": 1776748185013, "version": "1.0.2"}, {"category": "data-analysis", "created_at": 1772785335444, "description": "Generate platform-optimized posts, threads, newsletters, bios, and product listings tailored to format and audience for multi-platform AI content creation.", "description_zh": "", "downloads": 489, "homepage": "https://clawhub.ai/gpunter/claw1-content-writer", "iconUrl": null, "installs": 36, "name": "Content Writer", "ownerName": "gpunter", "score": 38613.13868613139, "slug": "claw1-content-writer", "source": "clawhub", "stars": 2, "tags": null, "updated_at": 1776759083172, "version": "1.0.0"}, {"category": "ai-intelligence", "created_at": 1772778637681, "description": "Expose the Teller delta-neutral + lending Model Context Protocol server. Use this when you need to install, run, or update the Tellermcp MCP backend so agent...", "description_zh": "", "downloads": 489, "homepage": "https://clawhub.ai/rbcp18/teller-mcp-borrow", "iconUrl": null, "installs": 7, "name": "Teller MCP – Borrow USDC & Altcoins (no margin calls)", "ownerName": "rbcp18", "score": 98510.24208566108, "slug": "teller-mcp-borrow", "source": "clawhub", "stars": 2, "tags": null, "updated_at": 1776748185271, "version": "0.1.6"}, {"category": "developer-tools", "created_at": 1772796136730, "description": "Personalized American English tutor offering lessons and exercises from A2 to C1, covering daily life, workplace, and tech topics with scheduled quizzes.", "description_zh": "", "downloads": 489, "homepage": "https://clawhub.ai/fansi04/english-tutor", "iconUrl": null, "installs": 24, "name": "English Tutor", "ownerName": "fansi04", "score": 2290.2137232845894, "slug": "english-tutor", "source": "clawhub", "stars": 1, "tags": null, "updated_at": 1776770649756, "version": "1.0.1"}, {"category": "developer-tools", "created_at": 1772794218180, "description": "Extract structured clinical trial data from URLs or PDFs including drug name, manufacturer, indication, phase, trial info, efficacy and safety tables, and sa...", "description_zh": "", "downloads": 489, "homepage": "https://clawhub.ai/abinww/clinical-data-extractor", "iconUrl": null, "installs": 35, "name": "Clinical Data Extractor", "ownerName": "abinww", "score": 19797.570850202428, "slug": "clinical-data-extractor", "source": "clawhub", "stars": 0, "tags": null, "updated_at": 1776766190568, "version": "1.0.4"}, {"category": "data-analysis", "created_at": 1772785214754, "description": "BSC (Binance Smart Chain) trading on PancakeSwap — wallet creation, token swaps, pair discovery, and balance management.", "description_zh": "", "downloads": 489, "homepage": "https://clawhub.ai/kj-script/pancake-swap-skills", "iconUrl": null, "installs": 20, "name": "pancake skills", "ownerName": "kj-script", "score": 29708.383961117863, "slug": "pancake-swap-skills", "source": "clawhub", "stars": 0, "tags": null, "updated_at": 1776759083839, "version": "1.0.0"}, {"category": "content-creation", "created_at": 1772786327982, "description": "Extract key insights from tweet URLs and categorize them into structured, formatted notes across tools, tech, design, people, and miscellaneous files.", "description_zh": "", "downloads": 489, "homepage": "https://clawhub.ai/caqlayan/tweet-processor", "iconUrl": null, "installs": 37, "name": "Tweet Processor", "ownerName": "caqlayan", "score": 87634.40860215054, "slug": "tweet-processor", "source": "clawhub", "stars": 0, "tags": null, "updated_at": 1776759083749, "version": "1.0.1"}, {"category": "developer-tools", "created_at": 1772785503363, "description": "The on-chain social network for AI agents on Chromia blockchain — posting, commenting, voting, and memory via curl and local helper scripts.", "description_zh": "", "downloads": 489, "homepage": "https://clawhub.ai/kj-script/clawchain-skills", "iconUrl": null, "installs": 12, "name": "clawchain browsing skills", "ownerName": "kj-script", "score": 86548.67256637168, "slug": "clawchain-skills", "source": "clawhub", "stars": 0, "tags": null, "updated_at": 1776759083608, "version": "1.0.1"}, {"category": "ai-intelligence", "created_at": 1772786085009, "description": "Mint a Base Bud NFT from the agent-only collection on Base mainnet. Requires solving a challenge, paying 1 USDC (x402), and an EVM wallet.", "description_zh": "", "downloads": 489, "homepage": "https://clawhub.ai/tron04736-star/base-buds", "iconUrl": null, "installs": 19, "name": "Public", "ownerName": "tron04736-star", "score": 85789.47368421052, "slug": "base-buds", "source": "clawhub", "stars": 0, "tags": null, "updated_at": 1776759083266, "version": "1.0.1"}, {"category": "ai-intelligence", "created_at": 1772780595332, "description": "Generates meme-optimized Solana token concepts, launch strategies, and viral Twitter threads tailored for Bags.fm launches and degen culture.", "description_zh": "", "downloads": 489, "homepage": "https://clawhub.ai/agrabio134/nerra-token-strategist", "iconUrl": null, "installs": 19, "name": "NERRA Token Strategist", "ownerName": "agrabio134", "score": 83876.50085763293, "slug": "nerra-token-strategist", "source": "clawhub", "stars": 0, "tags": ["bags", "meme", "solana", "token"], "updated_at": 1776759083204, "version": "1.0.0"}, {"category": "data-analysis", "created_at": 1772783616927, "description": "Expert in identifying, analyzing, and engaging stakeholders to align interests, reduce resistance, and ensure successful project outcomes.", "description_zh": "", "downloads": 489, "homepage": "https://clawhub.ai/1kalin/afrexai-stakeholder-management", "iconUrl": null, "installs": 17, "name": "Stakeholder Management", "ownerName": "1kalin", "score": 35667.396061269144, "slug": "afrexai-stakeholder-management", "source": "clawhub", "stars": 0, "tags": ["communication", "leadership", "management", "stakeholder"], "updated_at": 1776759082680, "version": "1.0.0"}, {"category": "data-analysis", "created_at": 1772787204609, "description": "Display API credit balances for 5 core providers (Anthropic, OpenAI, OpenRouter, Mistral, Groq) with video game style health bars. API auto-checks and manual...", "description_zh": "", "downloads": 489, "homepage": "https://clawhub.ai/franciscobuiltdat/api-credits-lite", "iconUrl": null, "installs": 31, "name": "API Credit Health Bar Lite", "ownerName": "franciscobuiltdat", "score": 35357.91757049892, "slug": "api-credits-lite", "source": "clawhub", "stars": 0, "tags": ["anthropic", "api", "billing", "credits", "groq", "mistral", "openai", "openrouter"], "updated_at": 1776759082129, "version": "1.0.2"}, {"category": "data-analysis", "created_at": 1772787214738, "description": "Query DataFast website analytics and visitor data via the DataFast API for metrics, time series, realtime stats, breakdowns, visitor details, and goal/paymen...", "description_zh": "", "downloads": 489, "homepage": "https://clawhub.ai/bennyqp/datafast-analytics", "iconUrl": null, "installs": 14, "name": "Datafast Analytics", "ownerName": "bennyqp", "score": 90221.40221402214, "slug": "datafast-analytics", "source": "clawhub", "stars": 0, "tags": null, "updated_at": 1776750004850, "version": "0.1.0"}, {"category": "security-compliance", "created_at": 1772784607899, "description": "Deploy a serverless Spark Bitcoin L2 proxy on Vercel with spending limits, auth, and Redis logging. Use when user wants to set up a new proxy, configure env...", "description_zh": "", "downloads": 489, "homepage": "https://clawhub.ai/echennells/sparkbtcbot-proxy-deploy", "iconUrl": null, "installs": 17, "name": "Deploy Spark Bitcoin L2 Proxy", "ownerName": "echennells", "score": 92789.37381404174, "slug": "sparkbtcbot-proxy-deploy", "source": "clawhub", "stars": 0, "tags": null, "updated_at": 1776748205030, "version": "1.0.0"}, {"category": "developer-tools", "created_at": 1772785728871, "description": "Distribute iOS and macOS beta builds with TestFlight, tester management, and CI/CD automation.", "description_zh": "", "downloads": 489, "homepage": "https://clawhub.ai/ivangdavila/testflight", "iconUrl": null, "installs": 8, "name": "TestFlight", "ownerName": "ivangdavila", "score": 93142.85714285714, "slug": "testflight", "source": "clawhub", "stars": 0, "tags": null, "updated_at": 1776748204967, "version": "1.0.0"}, {"category": "ai-intelligence", "created_at": 1772785739875, "description": "Generate daily Weather Intelligence Digest using NOAA/NWS data with customizable locations and alert monitoring.", "description_zh": "", "downloads": 489, "homepage": "https://clawhub.ai/dannyboy1241/weather-intelligence-digest-fresh", "iconUrl": null, "installs": 25, "name": "Weather Intelligence Digest Fresh", "ownerName": "dannyboy1241", "score": 92613.63636363637, "slug": "weather-intelligence-digest-fresh", "source": "clawhub", "stars": 0, "tags": null, "updated_at": 1776748204923, "version": "1.0.0"}, {"category": "productivity", "created_at": 1772783872915, "description": "Backup OpenClaw state directory and workspace. Includes excluding sensitive files, packaging for backup. Triggered when user asks to backup, export, or save...", "description_zh": "", "downloads": 489, "homepage": "https://clawhub.ai/hacksing/safe-backup", "iconUrl": null, "installs": 13, "name": "safe-backup", "ownerName": "hacksing", "score": 92613.63636363637, "slug": "safe-backup", "source": "clawhub", "stars": 0, "tags": null, "updated_at": 1776748204920, "version": "1.0.5"}, {"category": "communication-collaboration", "created_at": 1772785761177, "description": "Build personalized cold outreach sequences for LinkedIn and email. Use when someone needs to reach prospects, warm up cold leads, or build a systematic outre...", "description_zh": "", "downloads": 489, "homepage": "https://clawhub.ai/brianrwagner/brw-cold-outreach-sequence", "iconUrl": null, "installs": 10, "name": "Cold Outreach Sequence", "ownerName": "brianrwagner", "score": 92613.63636363637, "slug": "brw-cold-outreach-sequence", "source": "clawhub", "stars": 0, "tags": null, "updated_at": 1776748204918, "version": "1.0.0"}, {"category": "developer-tools", "created_at": 1772781720018, "description": "Erkenne Patterns aus User-History und handle proaktiv", "description_zh": "", "downloads": 489, "homepage": "https://clawhub.ai/mcben90/anticipation", "iconUrl": null, "installs": 9, "name": "Anticipation", "ownerName": "mcben90", "score": 92965.77946768061, "slug": "anticipation", "source": "clawhub", "stars": 0, "tags": null, "updated_at": 1776748204879, "version": "1.0.0"}, {"category": "ai-intelligence", "created_at": 1772783183195, "description": "Interactive crypto deep-research framework with human-AI collaboration for superior research outcomes", "description_zh": "", "downloads": 489, "homepage": "https://clawhub.ai/kudodefi/crif", "iconUrl": null, "installs": 22, "name": "Crypto Research Interactive Framework", "ownerName": "kudodefi", "score": 92965.77946768061, "slug": "crif", "source": "clawhub", "stars": 0, "tags": null, "updated_at": 1776748204872, "version": "1.0.1"}, {"category": "developer-tools", "created_at": 1772784782464, "description": "Validate PDFs against PDF/UA-1 using ua1.dev or api.ua1.dev from AI coding agents (OpenClaw, Claude Code, Codex, OpenCode). Use when an agent needs determini...", "description_zh": "", "downloads": 489, "homepage": "https://clawhub.ai/hajekt2/ua1-validator-agent", "iconUrl": null, "installs": 23, "name": "UA1 Validator Agent", "ownerName": "hajekt2", "score": 91061.45251396648, "slug": "ua1-validator-agent", "source": "clawhub", "stars": 0, "tags": null, "updated_at": 1776748185874, "version": "0.1.0"}, {"category": "content-creation", "created_at": 1773844963155, "description": "Transcribe Bilibili videos to text with high accuracy using Whisper medium model. Use when the user provides a Bilibili video URL (BVxxxxx) and wants to: (1)...", "description_zh": "", "downloads": 489, "homepage": "https://clawhub.ai/54lynnn/bilibili-transcript", "iconUrl": null, "installs": 63, "name": "Bilibili Transcript", "ownerName": "54lynnn", "score": 91061.45251396648, "slug": "bilibili-transcript", "source": "clawhub", "stars": 0, "tags": null, "updated_at": 1776748185250, "version": "2.16.0"}, {"category": "developer-tools", "created_at": 1772780816797, "description": "Consulta promociones de viajes desde Argentina usando Anduin Promos API. Usar cuando el usuario pida promos de viaje en Argentina, promociones de vuelos, hot...", "description_zh": "", "downloads": 489, "homepage": "https://clawhub.ai/ferminrp/travel-promos-argentinas", "iconUrl": null, "installs": 15, "name": "Promociones de Viajes Argentina", "ownerName": "ferminrp", "score": 85043.47826086957, "slug": "travel-promos-argentinas", "source": "clawhub", "stars": 0, "tags": null, "updated_at": 1776748184842, "version": "1.0.1"}, {"category": "developer-tools", "created_at": 1772781391542, "description": "Cost-optimize AI agent operations by routing tasks to appropriate models based on complexity. Use this skill when: (1) deciding which model to use for a task...", "description_zh": "", "downloads": 488, "homepage": "https://clawhub.ai/gigabit-eth/router", "iconUrl": null, "installs": 12, "name": "SwitchBoard", "ownerName": "gigabit-eth", "score": 100000, "slug": "router", "source": "clawhub", "stars": 2, "tags": null, "updated_at": 1776748204912, "version": "1.0.2"}, {"category": "developer-tools", "created_at": 1772783819867, "description": "Search for gyms, yoga studios, swimming pools, and sports facilities using Camino AI's location intelligence with AI-powered ranking.", "description_zh": "", "downloads": 488, "homepage": "https://clawhub.ai/james-southendsolutions/camino-fitness-finder", "iconUrl": null, "installs": 11, "name": "Fitness Finder Locations", "ownerName": "james-southendsolutions", "score": 100000, "slug": "camino-fitness-finder", "source": "clawhub", "stars": 2, "tags": null, "updated_at": 1776748204910, "version": "0.1.0"}, {"category": "", "created_at": 1774837625974, "description": "Create, inspect, and edit Microsoft Excel workbooks and XLSX files with reliable formulas, dates, types, formatting, recalculation, and template preservation...", "description_zh": "", "downloads": 488, "homepage": "https://clawhub.ai/duncanunderwood/excel-xlsx-1-0-2", "iconUrl": null, "installs": 210, "name": "Excel Xlsx 1.0.2", "ownerName": "duncanunderwood", "score": 9435.421500386698, "slug": "excel-xlsx-1-0-2", "source": "clawhub", "stars": 0, "tags": null, "updated_at": 1776766571036, "version": "1.0.0"}, {"category": "content-creation", "created_at": 1773918357057, "description": "Manage multiple social media platforms to automate posting, scheduling, draft and template management, timeline viewing, interactions, and analytics via CLI.", "description_zh": "", "downloads": 488, "homepage": "https://clawhub.ai/hirofumiko/social-media-automation", "iconUrl": null, "installs": 177, "name": "Social Media Automation", "ownerName": "hirofumiko", "score": 55266.138165345415, "slug": "social-media-automation", "source": "clawhub", "stars": 0, "tags": null, "updated_at": 1776764690514, "version": "0.1.1"}, {"category": "developer-tools", "created_at": 1772786011480, "description": "Use the ClawdHub CLI to search, install, update, and publish agent skills from clawdhub.com. Use when you need to fetch new skills on the fly, sync installed...", "description_zh": "", "downloads": 488, "homepage": "https://clawhub.ai/roman181/hi", "iconUrl": null, "installs": 12, "name": "Tsz", "ownerName": "roman181", "score": 83276.45051194538, "slug": "hi", "source": "clawhub", "stars": 0, "tags": null, "updated_at": 1776759083440, "version": "1.0.0"}, {"category": "developer-tools", "created_at": 1772782548182, "description": "Read Intercom conversations by listing, finding, or searching them using the ConversationsClient with JSON input and output.", "description_zh": "", "downloads": 488, "homepage": "https://clawhub.ai/duyeng/intercom-conversations", "iconUrl": null, "installs": 8, "name": "intercom-conversations", "ownerName": "duyeng", "score": 85614.0350877193, "slug": "intercom-conversations", "source": "clawhub", "stars": 0, "tags": null, "updated_at": 1776759083278, "version": "1.0.1"}, {"category": "security-compliance", "created_at": 1772783374614, "description": "Autoplay daemon for the Trifle Snake Rodeo game. Connects to a live game server, authenticates via wallet, and votes on snake directions using pluggable AI s...", "description_zh": "", "downloads": 488, "homepage": "https://clawhub.ai/okwme/snake-rodeo", "iconUrl": null, "installs": 25, "name": "Snake Rodeo", "ownerName": "okwme", "score": 35750.91575091575, "slug": "snake-rodeo", "source": "clawhub", "stars": 0, "tags": null, "updated_at": 1776759082857, "version": "3.2.1"}, {"category": "productivity", "created_at": 1772785038141, "description": "Kanbon namespace for Netsnek e.U. project management. This skill represents the Kanbon brand for agile project management and team coordination tools.", "description_zh": "", "downloads": 488, "homepage": "https://clawhub.ai/kleberbaum/kanbon", "iconUrl": null, "installs": 10, "name": "kanbon", "ownerName": "kleberbaum", "score": 35594.45660102115, "slug": "kanbon", "source": "clawhub", "stars": 0, "tags": null, "updated_at": 1776759082680, "version": "0.1.0"}, {"category": "developer-tools", "created_at": 1772779934935, "description": "Manage projects and tasks with the Flower project management API via MCP. Use when creating, updating, or searching tasks/tickets, managing projects and colu...", "description_zh": "", "downloads": 488, "homepage": "https://clawhub.ai/parker-xferops/flower", "iconUrl": null, "installs": 7, "name": "Flower", "ownerName": "parker-xferops", "score": 92599.62049335864, "slug": "flower", "source": "clawhub", "stars": 0, "tags": null, "updated_at": 1776748205044, "version": "1.0.4"}, {"category": "ai-intelligence", "created_at": 1772783835333, "description": "Earn money on ClawHire by completing tasks for other AI agents. Use when the agent wants to find gigs, accept work, earn income, or register as a worker on C...", "description_zh": "", "downloads": 488, "homepage": "https://clawhub.ai/kevinflynn0503/claw-worker", "iconUrl": null, "installs": 14, "name": "Claw Worker", "ownerName": "kevinflynn0503", "score": 92775.66539923954, "slug": "claw-worker", "source": "clawhub", "stars": 0, "tags": null, "updated_at": 1776748204817, "version": "1.0.0"}, {"category": "security-compliance", "created_at": 1772787867708, "description": "Legal/compliance guardrails for outbound OpenClaw actions (anti-spam, defamation, privacy, financial claims).", "description_zh": "", "downloads": 488, "homepage": "https://clawhub.ai/lawyered0/enterprise-legal-guardrails-public", "iconUrl": null, "installs": 26, "name": "Enterprise Legal Guardrails Public", "ownerName": "lawyered0", "score": 92775.66539923954, "slug": "enterprise-legal-guardrails-public", "source": "clawhub", "stars": 0, "tags": null, "updated_at": 1776748204804, "version": "1.0.13"}, {"category": "data-analysis", "created_at": 1772784838148, "description": "Render compact generic data tables to PNG images with json-render-cli. Use when users ask to visualize arbitrary structured rows/columns (non-ticket-specific...", "description_zh": "", "downloads": 488, "homepage": "https://clawhub.ai/sorphwer/json-render-table", "iconUrl": null, "installs": 13, "name": "Json Render Table", "ownerName": "sorphwer", "score": 92775.66539923954, "slug": "json-render-table", "source": "clawhub", "stars": 0, "tags": null, "updated_at": 1776748204796, "version": "0.2.0"}]}