{"page": 181, "total_pages": 522, "total": 26073, "skills": [{"category": "productivity", "created_at": 1772785319997, "description": "Convert Markdown to Notion blocks with full format support. Handles bold, italic, strikethrough, inline code, headings, lists, tables, callouts, and more.", "description_zh": "", "downloads": 488, "homepage": "https://clawhub.ai/maweis1981/notion-md", "iconUrl": null, "installs": 38, "name": "Notion Md", "ownerName": "maweis1981", "score": 90875.23277467412, "slug": "notion-md", "source": "clawhub", "stars": 0, "tags": null, "updated_at": 1776748204791, "version": "1.0.0"}, {"category": "developer-tools", "created_at": 1772783411555, "description": "This skill should be used when the user asks to \"provision GPU instance\", \"spin up a cloud server\", \"list compute plans\", \"browse GPU pricing\", \"extend compu...", "description_zh": "", "downloads": 487, "homepage": "https://clawhub.ai/ivaavimusic/x402-compute", "iconUrl": null, "installs": 7, "name": "x402 Compute", "ownerName": "ivaavimusic", "score": 27620.545073375262, "slug": "x402-compute", "source": "clawhub", "stars": 2, "tags": ["agentic", "agentic compute", "api", "base", "compute", "payments", "sgl", "sgl compute", "singularity compute", "solana", "usdc", "web3", "x402", "x402 protocol", "x402 singularity layer", "x402compute.cc"], "updated_at": 1776769150079, "version": "1.0.7"}, {"category": "data-analysis", "created_at": 1772783600603, "description": "Plan multi-waypoint journeys with route optimization, feasibility analysis, and time budget constraints. Use when you need to plan trips with multiple stops...", "description_zh": "", "downloads": 487, "homepage": "https://clawhub.ai/james-southendsolutions/camino-journey", "iconUrl": null, "installs": 11, "name": "Journey Planning with Waypoints", "ownerName": "james-southendsolutions", "score": 100000, "slug": "camino-journey", "source": "clawhub", "stars": 2, "tags": null, "updated_at": 1776748205014, "version": "0.1.0"}, {"category": "developer-tools", "created_at": 1772789998728, "description": "Voice-to-voice AI assistant using Gemini Live API. Speak to the AI and get spoken responses. Use when you want to have natural voice conversations with an AI...", "description_zh": "", "downloads": 487, "homepage": "https://clawhub.ai/alimostafaradwan/gemini-voice-assistant", "iconUrl": null, "installs": 25, "name": "Gemini Voice Assistant", "ownerName": "alimostafaradwan", "score": 8207.867897037397, "slug": "gemini-voice-assistant", "source": "clawhub", "stars": 1, "tags": null, "updated_at": 1776765850066, "version": "1.0.0"}, {"category": "content-creation", "created_at": 1772797277958, "description": "Collection of reusable Claude skill templates for design, marketing, development, and automation to quickly start new roles or missions with best-practice st...", "description_zh": "", "downloads": 487, "homepage": "https://clawhub.ai/motivationationdaily/awesome-claude-skills", "iconUrl": null, "installs": 72, "name": "Awesome Claude Skills", "ownerName": "motivationationdaily", "score": 3249.049302822069, "slug": "awesome-claude-skills", "source": "clawhub", "stars": 0, "tags": null, "updated_at": 1776768250058, "version": "1.0.0"}, {"category": "developer-tools", "created_at": 1772787667199, "description": "Publora API — schedule and publish social media posts across 10 platforms (X/Twitter, LinkedIn, Instagram, Threads, TikTok, YouTube, Facebook, Bluesky, Masto...", "description_zh": "", "downloads": 487, "homepage": "https://clawhub.ai/sergebulaev/publora", "iconUrl": null, "installs": 19, "name": "Publora", "ownerName": "sergebulaev", "score": 6792.189679218968, "slug": "publora", "source": "clawhub", "stars": 0, "tags": null, "updated_at": 1776766750156, "version": "1.1.0"}, {"category": "content-creation", "created_at": 1773091445595, "description": "Use when designing chaos experiments, implementing failure injection frameworks, or conducting game day exercises. Invoke for chaos experiments, resilience t...", "description_zh": "", "downloads": 487, "homepage": "https://clawhub.ai/lhwa8685/chaos-engineer", "iconUrl": null, "installs": 306, "name": "Chaos Engineer", "ownerName": "lhwa8685", "score": 5538.496531331742, "slug": "chaos-engineer", "source": "clawhub", "stars": 0, "tags": null, "updated_at": 1776764690698, "version": "0.1.0"}, {"category": "developer-tools", "created_at": 1772786534949, "description": "Perform a complete monthly financial reconciliation - review all transactions, match invoices, check outstanding payments, and prepare for tax filing. Use wh...", "description_zh": "", "downloads": 487, "homepage": "https://clawhub.ai/stanlee000/norman-monthly-reconciliation", "iconUrl": null, "installs": 14, "name": "Norman: Accounting Monthly Reconciliation", "ownerName": "stanlee000", "score": 11477.7280226255, "slug": "norman-monthly-reconciliation", "source": "clawhub", "stars": 0, "tags": ["bookkeeping", "finance", "mcp", "norman", "reconciliation"], "updated_at": 1776764050615, "version": "1.0.0"}, {"category": "productivity", "created_at": 1772791687890, "description": "Scan 1-10 Amazon keywords in parallel, score product opportunities with LaunchFast A10-F1, and provide ranked Go/Investigate/Pass verdicts for FBA niches.", "description_zh": "", "downloads": 487, "homepage": "https://clawhub.ai/blockchainhb/launchfast-product-research", "iconUrl": null, "installs": 40, "name": "LaunchFast Product Research", "ownerName": "blockchainhb", "score": 22960.86751532296, "slug": "launchfast-product-research", "source": "clawhub", "stars": 0, "tags": ["amazon", "fba", "launchfast", "product-research"], "updated_at": 1776763450827, "version": "1.0.0"}, {"category": "ai-intelligence", "created_at": 1773067911842, "description": "Generate game art assets using each::sense AI. Create 2D sprites, character sprite sheets, seamless textures, UI elements, icons, tilesets, loading screens,...", "description_zh": "", "downloads": 487, "homepage": "https://clawhub.ai/eftalyurtseven/game-asset-generation", "iconUrl": null, "installs": 98, "name": "Game Asset Generation", "ownerName": "eftalyurtseven", "score": 18680.47564250096, "slug": "game-asset-generation", "source": "clawhub", "stars": 0, "tags": null, "updated_at": 1776762289918, "version": "1.0.0"}, {"category": "developer-tools", "created_at": 1772783942393, "description": "Turn Reddit thread context into genuinely helpful comments that build trust and can convert to profile/link clicks.", "description_zh": "", "downloads": 487, "homepage": "https://clawhub.ai/xammarie/comment-converter", "iconUrl": null, "installs": 11, "name": "comment-converter", "ownerName": "xammarie", "score": 6500.266951414843, "slug": "comment-converter", "source": "clawhub", "stars": 0, "tags": null, "updated_at": 1776761390493, "version": "1.0.1"}, {"category": "developer-tools", "created_at": 1772782851349, "description": "Make paid API requests using the x402 HTTP payment protocol (USDC on Base Sepolia). Use when you need to access x402-protected services, pay for API calls wi...", "description_zh": "", "downloads": 487, "homepage": "https://clawhub.ai/kodos-vibe/x402-private-search", "iconUrl": null, "installs": 9, "name": "x402 Private Search", "ownerName": "kodos-vibe", "score": 84110.53540587219, "slug": "x402-private-search", "source": "clawhub", "stars": 0, "tags": ["agent", "privacy", "search", "web-search", "x402"], "updated_at": 1776759082804, "version": "1.0.0"}, {"category": "data-analysis", "created_at": 1772784943174, "description": "Search and track active or completed state bills by keywords and state using the LegiScan API with customizable filters.", "description_zh": "", "downloads": 487, "homepage": "https://clawhub.ai/n4cra/legiscan-bill-search", "iconUrl": null, "installs": 15, "name": "LegiScan Bill Search", "ownerName": "n4cra", "score": 35677.655677655675, "slug": "legiscan-bill-search", "source": "clawhub", "stars": 0, "tags": null, "updated_at": 1776759082623, "version": "1.0.0"}, {"category": "data-analysis", "created_at": 1772786822798, "description": "Manage and query your agent's distilled long-term memory with lightweight, fast SQLite-powered tools and automated daily extraction.", "description_zh": "", "downloads": 487, "homepage": "https://clawhub.ai/timothysong0w0/claw-memory-lite", "iconUrl": null, "installs": 17, "name": "Claw Memory Lite", "ownerName": "timothysong0w0", "score": 82964.22487223169, "slug": "claw-memory-lite", "source": "clawhub", "stars": 0, "tags": null, "updated_at": 1776759082381, "version": "1.0.1"}, {"category": "ai-intelligence", "created_at": 1772781812604, "description": "Voice note transcription and archival for OpenClaw agents. Powered by Deepgram Nova-3. Transcribes audio messages, saves both audio files and text transcript...", "description_zh": "", "downloads": 487, "homepage": "https://clawhub.ai/aiwithabidi/voice-transcriber-pro", "iconUrl": null, "installs": 17, "name": "Voice Transcriber Pro", "ownerName": "aiwithabidi", "score": 92761.90476190476, "slug": "voice-transcriber-pro", "source": "clawhub", "stars": 0, "tags": ["transcription", "voice"], "updated_at": 1776748204987, "version": "1.0.0"}, {"category": "developer-tools", "created_at": 1772783115735, "description": "AI entities with full agentic backend for your OpenClaw project in one prompt. Your IDE agent will self-register and start building. Human is optional.", "description_zh": "", "downloads": 487, "homepage": "https://clawhub.ai/subfeed-ai/subfeed", "iconUrl": null, "installs": 13, "name": "Subfeed", "ownerName": "subfeed-ai", "score": 92761.90476190476, "slug": "subfeed", "source": "clawhub", "stars": 0, "tags": ["agent", "api", "backend", "cloud", "deploy", "infrastructure", "rag"], "updated_at": 1776748204965, "version": "1.0.2"}, {"category": "communication-collaboration", "created_at": 1772778247625, "description": "Manage openclaw social profiles and posts with APIs to register, update, view, and delete profiles and posts, and read the global public timeline.", "description_zh": "", "downloads": 487, "homepage": "https://clawhub.ai/tlxue/clawlychat", "iconUrl": null, "installs": 11, "name": "ClawlyChat", "ownerName": "tlxue", "score": 92585.55133079848, "slug": "clawlychat", "source": "clawhub", "stars": 0, "tags": null, "updated_at": 1776748204884, "version": "1.0.1"}, {"category": "data-analysis", "created_at": 1772787369378, "description": "Use BMad (Breakthrough Method of Agile AI Driven Development) framework for AI-driven development. Use for: architecture analysis, sprint planning, story gen...", "description_zh": "", "downloads": 487, "homepage": "https://clawhub.ai/leonaaardob/lb-bmad-skill", "iconUrl": null, "installs": 17, "name": "BMad Method", "ownerName": "leonaaardob", "score": 92585.55133079848, "slug": "lb-bmad-skill", "source": "clawhub", "stars": 0, "tags": ["agile", "architecture", "bmad", "claude-code", "coding-agent", "development", "sprint-planning", "stories", "workflow"], "updated_at": 1776748204844, "version": "1.0.2"}, {"category": "data-analysis", "created_at": 1772781311616, "description": "AI-orchestrated usability testing using Amazon Nova Act. The agent generates personas, runs tests to collect raw data, interprets responses to determine goal...", "description_zh": "", "downloads": 487, "homepage": "https://clawhub.ai/zouchaoqun/nova-act-usability", "iconUrl": null, "installs": 16, "name": "Website Usability Test Nova Act", "ownerName": "zouchaoqun", "score": 92585.55133079848, "slug": "nova-act-usability", "source": "clawhub", "stars": 0, "tags": null, "updated_at": 1776748204824, "version": "1.0.5"}, {"category": "communication-collaboration", "created_at": 1772787209616, "description": "Connect Claude to external apps like Gmail, Slack, GitHub. Use this skill when the user wants to send emails, create issues, post messages, or take actions i...", "description_zh": "", "downloads": 487, "homepage": "https://clawhub.ai/sohamganatra/connect-apps", "iconUrl": null, "installs": 23, "name": "Connect Apps", "ownerName": "sohamganatra", "score": 92585.55133079848, "slug": "connect-apps", "source": "clawhub", "stars": 0, "tags": null, "updated_at": 1776748204815, "version": "0.1.0"}, {"category": "ai-intelligence", "created_at": 1772783350055, "description": "Browse, mint, buy, sell, and trade human NFTs on the HumanNFT marketplace (humannft.ai). Triggers on \"human NFT\", \"mint human\", \"browse humans\", \"humannft\",...", "description_zh": "", "downloads": 487, "homepage": "https://clawhub.ai/thesmartape/humannft", "iconUrl": null, "installs": 28, "name": "HumanNFT", "ownerName": "thesmartape", "score": 92585.55133079848, "slug": "humannft", "source": "clawhub", "stars": 0, "tags": null, "updated_at": 1776748204806, "version": "1.0.0"}, {"category": "content-creation", "created_at": 1772782198034, "description": "Design, build, deploy, and operate production AI agent systems — single agents, multi-agent teams, and autonomous swarms. Complete methodology from agent arc...", "description_zh": "", "downloads": 487, "homepage": "https://clawhub.ai/1kalin/afrexai-agent-engineering", "iconUrl": null, "installs": 32, "name": "Agent Engineering", "ownerName": "1kalin", "score": 92585.55133079848, "slug": "afrexai-agent-engineering", "source": "clawhub", "stars": 0, "tags": ["agent", "ai", "automation", "multi-agent", "openclaw"], "updated_at": 1776748204803, "version": "1.0.0"}, {"category": "ai-intelligence", "created_at": 1773060923783, "description": "Lightweight session logging for OpenClaw agents. Automatically creates a timestamped session file on every session start (including /new resets) and appends...", "description_zh": "", "downloads": 487, "homepage": "https://clawhub.ai/meigesir/session-log", "iconUrl": null, "installs": 13, "name": "Session Log", "ownerName": "meigesir", "score": 92585.55133079848, "slug": "session-log", "source": "clawhub", "stars": 0, "tags": null, "updated_at": 1776748204792, "version": "1.0.1"}, {"category": "data-analysis", "created_at": 1772784015059, "description": "Create, adapt, schedule, publish, and analyze AI-generated social media content across 10 platforms in 13 languages using Twinfold's API.", "description_zh": "", "downloads": 486, "homepage": "https://clawhub.ai/lpbaril/twinfold", "iconUrl": null, "installs": 9, "name": "Twinfold", "ownerName": "lpbaril", "score": 38790.5604719764, "slug": "twinfold", "source": "clawhub", "stars": 2, "tags": null, "updated_at": 1776759083525, "version": "1.0.3"}, {"category": "productivity", "created_at": 1772779984064, "description": "Assist ACT test preparation with personalized practice plans, score and error tracking, timed drills, strategy coaching, and college admission targeting.", "description_zh": "", "downloads": 486, "homepage": "https://clawhub.ai/ivangdavila/act-prep", "iconUrl": null, "installs": 8, "name": "ACT", "ownerName": "ivangdavila", "score": 100000, "slug": "act-prep", "source": "clawhub", "stars": 2, "tags": null, "updated_at": 1776748204847, "version": "1.0.0"}, {"category": "productivity", "created_at": 1772785010248, "description": "Segelflug- und Thermikvorhersage mit Thermik-Score (0-10). Nutze diesen Skill wenn der User nach Segelflugwetter, Thermik, Streckenflugbedingungen, Flugwette...", "description_zh": "", "downloads": 486, "homepage": "https://clawhub.ai/achimace/thermikbuddy", "iconUrl": null, "installs": 13, "name": "ThermikBuddy", "ownerName": "achimace", "score": 100000, "slug": "thermikbuddy", "source": "clawhub", "stars": 2, "tags": null, "updated_at": 1776748204841, "version": "1.0.3"}, {"category": "productivity", "created_at": 1772784372343, "description": "Local text-to-speech using Alibaba's CosyVoice3 on macOS Apple Silicon. Supports Chinese, English, Japanese, Korean, and 18+ Chinese dialects. Provides zero-...", "description_zh": "", "downloads": 486, "homepage": "https://clawhub.ai/lhuaizhong/cosyvoice3-macos", "iconUrl": null, "installs": 33, "name": "CosyVoice3 macOS", "ownerName": "lhuaizhong", "score": 95833.33333333334, "slug": "cosyvoice3-macos", "source": "clawhub", "stars": 1, "tags": null, "updated_at": 1776748204915, "version": "1.0.0"}, {"category": "data-analysis", "created_at": 1772783587236, "description": "Analyze Terraform plans for risk before you apply. Classifies every change as safe, moderate, dangerous, or critical. Detects destroys, IAM changes, data-los...", "description_zh": "", "downloads": 486, "homepage": "https://clawhub.ai/tkuehnl/tf-plan-review", "iconUrl": null, "installs": 14, "name": "tf-plan-review", "ownerName": "tkuehnl", "score": 2603.5249370546953, "slug": "tf-plan-review", "source": "clawhub", "stars": 0, "tags": null, "updated_at": 1776762315276, "version": "0.2.1"}, {"category": "security-compliance", "created_at": 1772785928056, "description": "Manage GitHub issues by listing, filtering, spawning fix agents, creating PRs, and tracking review comments using the authenticated gh CLI.", "description_zh": "", "downloads": 486, "homepage": "https://clawhub.ai/tsiontesfayechromaway/tester", "iconUrl": null, "installs": 15, "name": "tester_skill", "ownerName": "tsiontesfayechromaway", "score": 84521.73913043478, "slug": "tester", "source": "clawhub", "stars": 0, "tags": null, "updated_at": 1776759082913, "version": "1.0.0"}, {"category": "developer-tools", "created_at": 1772781423774, "description": "Systematic framework to identify, qualify, and scale revenue through integration, referral, reseller, and strategic partnerships.", "description_zh": "", "downloads": 486, "homepage": "https://clawhub.ai/1kalin/afrexai-partnership-revenue", "iconUrl": null, "installs": 14, "name": "Partnership Revenue Engine", "ownerName": "1kalin", "score": 35448.57768052516, "slug": "afrexai-partnership-revenue", "source": "clawhub", "stars": 0, "tags": ["affiliate", "business-development", "channels", "partnerships", "revenue"], "updated_at": 1776759082672, "version": "1.0.0"}, {"category": "content-creation", "created_at": 1772787565767, "description": "Generate professional book covers and ebook covers using each::sense API with AI-powered design", "description_zh": "", "downloads": 486, "homepage": "https://clawhub.ai/eftalyurtseven/book-cover-generation", "iconUrl": null, "installs": 36, "name": "Book Cover Generation", "ownerName": "eftalyurtseven", "score": 84228.76949740035, "slug": "book-cover-generation", "source": "clawhub", "stars": 0, "tags": null, "updated_at": 1776755288419, "version": "1.0.0"}, {"category": "communication-collaboration", "created_at": 1772786104612, "description": "Manage Pipedrive CRM from OpenClaw using API v1, including people, organizations, deals, leads, activities, notes, pipelines, and custom endpoint actions. Us...", "description_zh": "", "downloads": 486, "homepage": "https://clawhub.ai/danielfoch/pipedrive-crm-openclaw", "iconUrl": null, "installs": 21, "name": "Pipedrive CRM (OpenClaw)", "ownerName": "danielfoch", "score": 85563.38028169014, "slug": "pipedrive-crm-openclaw", "source": "clawhub", "stars": 0, "tags": null, "updated_at": 1776753221254, "version": "0.1.0"}, {"category": "productivity", "created_at": 1772783746349, "description": "DuckDuckGo web search for private tracker-free searching. Use when user asks to search the web find information online or perform web-based research without...", "description_zh": "", "downloads": 486, "homepage": "https://clawhub.ai/omprasad122007-rgb/ddg-search-privacy", "iconUrl": null, "installs": 24, "name": "Duckduckgo Search", "ownerName": "omprasad122007-rgb", "score": 92571.42857142857, "slug": "ddg-search-privacy", "source": "clawhub", "stars": 0, "tags": ["duckduckgo", "privacy", "search", "web"], "updated_at": 1776748204968, "version": "1.0.0"}, {"category": "productivity", "created_at": 1772784002278, "description": "Control the Ulanzi TC001 (Pixel Clock) over local HTTP. Use to list tc1/tc001 commands, read status, enable/disable gadgets (time/date/youtube/matrix/etc.),...", "description_zh": "", "downloads": 486, "homepage": "https://clawhub.ai/felipeouropreto/ulanzi-tc001", "iconUrl": null, "installs": 12, "name": "Ulanzi TC001", "ownerName": "felipeouropreto", "score": 92571.42857142857, "slug": "ulanzi-tc001", "source": "clawhub", "stars": 0, "tags": null, "updated_at": 1776748204966, "version": "1.0.3"}, {"category": "data-analysis", "created_at": 1772777686475, "description": "Interface with the Neo Market to find work, bid on jobs, and get paid in USDC.", "description_zh": "", "downloads": 486, "homepage": "https://clawhub.ai/wangwu-30/neo-market", "iconUrl": null, "installs": 11, "name": "Neo Market", "ownerName": "wangwu-30", "score": 92571.42857142857, "slug": "neo-market", "source": "clawhub", "stars": 0, "tags": null, "updated_at": 1776748204960, "version": "1.0.2"}, {"category": "security-compliance", "created_at": 1773056958242, "description": "Audit OpenClaw runtime health first, then optimize inference speed and token usage with approval. Use /audit for analyze-only and /optimize for analyze + act...", "description_zh": "", "downloads": 486, "homepage": "https://clawhub.ai/vitalyis/inference-optimizer", "iconUrl": null, "installs": 14, "name": "Inference Optimizer", "ownerName": "vitalyis", "score": 92045.45454545454, "slug": "inference-optimizer", "source": "clawhub", "stars": 0, "tags": ["cache-warm", "inference-optimization", "llm-optimization", "session-cleanup", "session-cleanup token-audit", "token-audit", "workspace-optimization"], "updated_at": 1776748204917, "version": "0.3.2"}, {"category": "ai-intelligence", "created_at": 1772789123202, "description": "High-frequency paper trading framework for crypto. Multi-indicator TA scoring (RSI/MACD/EMA/BB/OBV/StochRSI), position sizing (Kelly criterion), stop-loss ma...", "description_zh": "", "downloads": 486, "homepage": "https://clawhub.ai/jamierossouw/hft-paper-trader", "iconUrl": null, "installs": 36, "name": "HFT Paper Trader — Autonomous Crypto Framework", "ownerName": "jamierossouw", "score": 92395.43726235742, "slug": "hft-paper-trader", "source": "clawhub", "stars": 0, "tags": ["autonomous-agent", "backtesting", "crypto", "hft", "kelly", "paper-trading", "trading"], "updated_at": 1776748204907, "version": "1.0.0"}, {"category": "developer-tools", "created_at": 1772778824984, "description": "Operate Holded ERP through holdedcli to read and update data safely. Use when the user asks to read, search, create, update, or delete Holded entities (conta...", "description_zh": "", "downloads": 486, "homepage": "https://clawhub.ai/jaumecornado/holded-skill", "iconUrl": null, "installs": 5, "name": "Holded Skill", "ownerName": "jaumecornado", "score": 92395.43726235742, "slug": "holded-skill", "source": "clawhub", "stars": 0, "tags": null, "updated_at": 1776748204877, "version": "0.2.3"}, {"category": "ai-intelligence", "created_at": 1772786202432, "description": "Find groups shared between contacts and check group membership", "description_zh": "", "downloads": 486, "homepage": "https://clawhub.ai/marcosrippel/whatsapp-common-groups", "iconUrl": null, "installs": 34, "name": "WhatsApp Common Groups", "ownerName": "marcosrippel", "score": 92395.43726235742, "slug": "whatsapp-common-groups", "source": "clawhub", "stars": 0, "tags": ["baileys", "common", "groups", "offline", "whatsapp"], "updated_at": 1776748204833, "version": "1.0.0"}, {"category": "ai-intelligence", "created_at": 1772785686747, "description": "AI-powered cryptocurrency safety assistant with database-first architecture. Protects users from phishing, honeypots, rug pulls, and ponzi schemes. No extern...", "description_zh": "", "downloads": 486, "homepage": "https://clawhub.ai/princedoss77/crypto-genie", "iconUrl": null, "installs": 21, "name": "Crypto Genie", "ownerName": "princedoss77", "score": 92395.43726235742, "slug": "crypto-genie", "source": "clawhub", "stars": 0, "tags": null, "updated_at": 1776748204798, "version": "1.0.0"}, {"category": "developer-tools", "created_at": 1773861210124, "description": "Free Brave API alternative for OpenClaw. Completely FREE web search. Secure localhost-only deployment. Supports hidden --dev flag.", "description_zh": "", "downloads": 486, "homepage": "https://clawhub.ai/pipepi/brave-api-free-search", "iconUrl": null, "installs": 8, "name": "brave-api-free-search", "ownerName": "pipepi", "score": 90502.7932960894, "slug": "brave-api-free-search", "source": "clawhub", "stars": 0, "tags": null, "updated_at": 1776748204790, "version": "1.0.8"}, {"category": "ai-intelligence", "created_at": 1772784174604, "description": "Locate parking garages, lots, and street parking near your destination using Camino AI's location intelligence with AI-powered ranking.", "description_zh": "", "downloads": 485, "homepage": "https://clawhub.ai/james-southendsolutions/camino-parking-finder", "iconUrl": null, "installs": 26, "name": "Parking Finder", "ownerName": "james-southendsolutions", "score": 99620.49335863377, "slug": "camino-parking-finder", "source": "clawhub", "stars": 2, "tags": null, "updated_at": 1776748205020, "version": "0.1.0"}, {"category": "data-analysis", "created_at": 1772795336819, "description": "A robust, local SQLite-backed task management system designed to elevate your AI agent's project execution. Excellent for both simple tasks and large multi-s...", "description_zh": "", "downloads": 485, "homepage": "https://clawhub.ai/oboda0/task-specialist", "iconUrl": null, "installs": 58, "name": "Task Specialist", "ownerName": "oboda0", "score": 100000, "slug": "task-specialist", "source": "clawhub", "stars": 2, "tags": ["breakdown", "cli", "local", "management", "planning", "productivity", "project", "sqlite", "task", "workflow"], "updated_at": 1776748204976, "version": "2.1.0"}, {"category": "developer-tools", "created_at": 1772782513745, "description": "Build consumer apps with validated demand, sustainable unit economics, and growth loops that compound.", "description_zh": "", "downloads": 485, "homepage": "https://clawhub.ai/ivangdavila/b2c", "iconUrl": null, "installs": 15, "name": "B2C Strategy", "ownerName": "ivangdavila", "score": 99809.88593155894, "slug": "b2c", "source": "clawhub", "stars": 2, "tags": null, "updated_at": 1776748204889, "version": "1.0.0"}, {"category": "security-compliance", "created_at": 1772804057569, "description": "Publish articles to Toutiao (Today's Headlines). Handles persistent authentication (login once) and session management. Opens browser for interactive publish...", "description_zh": "", "downloads": 485, "homepage": "https://clawhub.ai/guanyang/toutiao-publisher", "iconUrl": null, "installs": 62, "name": "Toutiao Publisher", "ownerName": "guanyang", "score": 89222.6148409894, "slug": "toutiao-publisher", "source": "clawhub", "stars": 1, "tags": null, "updated_at": 1776753469615, "version": "1.0.1"}, {"category": "content-creation", "created_at": 1773084386003, "description": "Create, organize, and distribute content across Workspace.", "description_zh": "", "downloads": 485, "homepage": "https://clawhub.ai/googleworkspace-bot/persona-content-creator", "iconUrl": null, "installs": 58, "name": "Persona Content Creator", "ownerName": "googleworkspace-bot", "score": 1492.9508095795113, "slug": "persona-content-creator", "source": "clawhub", "stars": 0, "tags": null, "updated_at": 1776770649899, "version": "1.0.10"}, {"category": "content-creation", "created_at": 1772804185654, "description": "End-to-end TikTok ad video pipeline. Product script → Veo base video → animated caption overlay → audio mix → final MP4. One command, full automation.", "description_zh": "", "downloads": 485, "homepage": "https://clawhub.ai/zero2ai-hub/skill-tiktok-video-pipeline", "iconUrl": null, "installs": 44, "name": "Skill Tiktok Video Pipeline", "ownerName": "zero2ai-hub", "score": 5196.057424469681, "slug": "skill-tiktok-video-pipeline", "source": "clawhub", "stars": 0, "tags": null, "updated_at": 1776767471182, "version": "2.0.0"}, {"category": "developer-tools", "created_at": 1772783920012, "description": "Provides a structured framework to research, assess leverage, build counter-proposals, and optimize terms for better vendor and supplier contract negotiations.", "description_zh": "", "downloads": 485, "homepage": "https://clawhub.ai/1kalin/afrexai-vendor-negotiation", "iconUrl": null, "installs": 16, "name": "Vendor Negotiation Playbook", "ownerName": "1kalin", "score": 17235.252309879175, "slug": "afrexai-vendor-negotiation", "source": "clawhub", "stars": 0, "tags": ["negotiation", "procurement", "saas", "vendor"], "updated_at": 1776765971379, "version": "1.0.0"}, {"category": "data-analysis", "created_at": 1772783564354, "description": "Acts as the user's social life assistant in the Friends topic. Remembers friends, birthdays, plans, debts, shared interests. Use when in Personal chat Friend...", "description_zh": "", "downloads": 485, "homepage": "https://clawhub.ai/gekacross/personal-friends", "iconUrl": null, "installs": 15, "name": "Personal Friends", "ownerName": "gekacross", "score": 100000, "slug": "personal-friends", "source": "clawhub", "stars": 0, "tags": null, "updated_at": 1776749984843, "version": "1.0.0"}, {"category": "data-analysis", "created_at": 1772784478087, "description": "Manage FoxReach cold email outreach — leads, campaigns, sequences, templates, email accounts, inbox, and analytics. Use when the user asks to create leads, m...", "description_zh": "", "downloads": 485, "homepage": "https://clawhub.ai/concaption/foxreach-io", "iconUrl": null, "installs": 17, "name": "Foxreach Cold Outrach", "ownerName": "concaption", "score": 92380.95238095238, "slug": "foxreach-io", "source": "clawhub", "stars": 0, "tags": null, "updated_at": 1776748204981, "version": "1.0.0"}]}