{"page": 182, "total_pages": 522, "total": 26073, "skills": [{"category": "data-analysis", "created_at": 1772780505150, "description": "Search, analyze, and trade on Manifold Markets prediction markets by checking odds, placing bets, viewing portfolios, and managing positions with API-based c...", "description_zh": "", "downloads": 485, "homepage": "https://clawhub.ai/silverstone-louis/silk-manifold", "iconUrl": null, "installs": 15, "name": "Silke Manifold", "ownerName": "silverstone-louis", "score": 91856.06060606061, "slug": "silk-manifold", "source": "clawhub", "stars": 0, "tags": null, "updated_at": 1776748204943, "version": "1.0.0"}, {"category": "data-analysis", "created_at": 1772785986254, "description": "Bird identification, life list tracking, and trading card generation. Use this skill when the user: sends a bird photo to identify, says \"set up my Birdfolio...", "description_zh": "", "downloads": 485, "homepage": "https://clawhub.ai/tonbistudio/birdfolio", "iconUrl": null, "installs": 12, "name": "Birdfolio", "ownerName": "tonbistudio", "score": 91856.06060606061, "slug": "birdfolio", "source": "clawhub", "stars": 0, "tags": null, "updated_at": 1776748204937, "version": "1.0.0"}, {"category": "communication-collaboration", "created_at": 1772793992269, "description": "QQ bot integration for OpenClaw with session isolation, logging, and AI auto-reply. Supports private chat and group @messages.", "description_zh": "", "downloads": 485, "homepage": "https://clawhub.ai/zaohon/openqq", "iconUrl": null, "installs": 31, "name": "Openqq", "ownerName": "zaohon", "score": 91856.06060606061, "slug": "openqq", "source": "clawhub", "stars": 0, "tags": null, "updated_at": 1776748204933, "version": "0.0.5"}, {"category": "data-analysis", "created_at": 1772785698617, "description": "Generate interactive analytics dashboards from CRM data. Use when asked to \"show pipeline stats\", \"create a report\", \"analyze leads\", \"show conversion rates\"...", "description_zh": "", "downloads": 485, "homepage": "https://clawhub.ai/aspenas/ironclaw-pipeline-analytics", "iconUrl": null, "installs": 10, "name": "Ironclaw Pipeline Analytics", "ownerName": "aspenas", "score": 91856.06060606061, "slug": "ironclaw-pipeline-analytics", "source": "clawhub", "stars": 0, "tags": null, "updated_at": 1776748204926, "version": "1.0.0"}, {"category": "developer-tools", "created_at": 1772779459659, "description": "Pick the best AI model for any task using the Smart Spawn API. No plugin needed — just HTTP requests to ss.deeflect.com/api.", "description_zh": "", "downloads": 485, "homepage": "https://clawhub.ai/deeflect/smart-spawn", "iconUrl": null, "installs": 8, "name": "Smart Spawn", "ownerName": "deeflect", "score": 92205.32319391635, "slug": "smart-spawn", "source": "clawhub", "stars": 0, "tags": null, "updated_at": 1776748204836, "version": "1.0.0"}, {"category": "developer-tools", "created_at": 1772788058050, "description": "Provision and control Orgo cloud computers using the orgo_client Python SDK. Use when launching remote desktops, automating browsers, running bash/python rem...", "description_zh": "", "downloads": 485, "homepage": "https://clawhub.ai/cohenyehonatan/orgo-desktop-control", "iconUrl": null, "installs": 37, "name": "Orgo Desktop Control", "ownerName": "cohenyehonatan", "score": 92205.32319391635, "slug": "orgo-desktop-control", "source": "clawhub", "stars": 0, "tags": null, "updated_at": 1776748204801, "version": "1.0.2"}, {"category": "ai-intelligence", "created_at": 1773037614229, "description": "Structured knowledge graph with 18 cognitive tools for agent memory and reasoning (server v0.8.0)", "description_zh": "", "downloads": 485, "homepage": "https://clawhub.ai/shuruheel/mindgraph-rs", "iconUrl": null, "installs": 23, "name": "mindgraph-rs", "ownerName": "shuruheel", "score": 90316.57355679703, "slug": "mindgraph-rs", "source": "clawhub", "stars": 0, "tags": null, "updated_at": 1776748204780, "version": "5.1.0"}, {"category": "data-analysis", "created_at": 1772782393040, "description": "Generate React components rendering FOSMVVM ViewModels with hooks, loading states, TypeScript types, test-first scaffolding, and .bind() server request integ...", "description_zh": "", "downloads": 484, "homepage": "https://clawhub.ai/foscomputerservices/fosmvvm-react-view-generator", "iconUrl": null, "installs": 15, "name": "FOSMVVM React View Generator", "ownerName": "foscomputerservices", "score": 99430.74003795066, "slug": "fosmvvm-react-view-generator", "source": "clawhub", "stars": 2, "tags": null, "updated_at": 1776748205013, "version": "2.0.6"}, {"category": "ai-intelligence", "created_at": 1772781026600, "description": "Expose the Teller delta-neutral + lending Model Context Protocol server. Use this when you need to install, run, or update the Tellermcp MCP backend so agent...", "description_zh": "", "downloads": 484, "homepage": "https://clawhub.ai/rbcp18/tellermcp", "iconUrl": null, "installs": 23, "name": "Teller MCP – Borrow USDC & Altcoins", "ownerName": "rbcp18", "score": 99619.77186311787, "slug": "tellermcp", "source": "clawhub", "stars": 2, "tags": null, "updated_at": 1776748204906, "version": "0.1.6"}, {"category": "data-analysis", "created_at": 1772779506074, "description": "Prepare for India's Joint Entrance Examination with progress tracking, weak area analysis, mock test strategy, and IIT/NIT targeting.", "description_zh": "", "downloads": 484, "homepage": "https://clawhub.ai/ivangdavila/jee", "iconUrl": null, "installs": 11, "name": "JEE", "ownerName": "ivangdavila", "score": 99619.77186311787, "slug": "jee", "source": "clawhub", "stars": 2, "tags": null, "updated_at": 1776748204831, "version": "1.0.0"}, {"category": "data-analysis", "created_at": 1772777824786, "description": "Improve systematically by analyzing losses, studying winners, and tracking progress against rivals in any competitive domain.", "description_zh": "", "downloads": 484, "homepage": "https://clawhub.ai/ivangdavila/competing", "iconUrl": null, "installs": 13, "name": "Competing", "ownerName": "ivangdavila", "score": 99619.77186311787, "slug": "competing", "source": "clawhub", "stars": 2, "tags": null, "updated_at": 1776748204811, "version": "1.0.0"}, {"category": "developer-tools", "created_at": 1772804545724, "description": "One-click deployment of camoufox anti-detection browser with modified agent-browser. Patches agent-browser to auto-detect camoufox/firefox from executable pa...", "description_zh": "", "downloads": 484, "homepage": "https://clawhub.ai/adastraabyssoque/agent-browser-with-camoufox", "iconUrl": null, "installs": 131, "name": "Agent Browser with Camoufox", "ownerName": "adastraabyssoque", "score": 2701.4958696137533, "slug": "agent-browser-with-camoufox", "source": "clawhub", "stars": 0, "tags": null, "updated_at": 1776770350211, "version": "1.0.0"}, {"category": "communication-collaboration", "created_at": 1772784907497, "description": "Manage ProtonMail emails via Playwright browser automation. Login, read, send, and manage your encrypted inbox.", "description_zh": "", "downloads": 484, "homepage": "https://clawhub.ai/christopher-schulze/protonmail-claw", "iconUrl": null, "installs": 20, "name": "Proton Mail", "ownerName": "christopher-schulze", "score": 7499.225286643941, "slug": "protonmail-claw", "source": "clawhub", "stars": 0, "tags": null, "updated_at": 1776765971129, "version": "1.0.1"}, {"category": "productivity", "created_at": 1772787081369, "description": "Access websites with advanced bot protection to fetch HTML, screenshots, PDFs, or multiple pages in parallel using isolated browser contexts.", "description_zh": "", "downloads": 484, "homepage": "https://clawhub.ai/xthezealot/xthezealot-stealth-browser", "iconUrl": null, "installs": 5, "name": "Stealth Browser", "ownerName": "xthezealot", "score": 83018.86792452831, "slug": "xthezealot-stealth-browser", "source": "clawhub", "stars": 0, "tags": null, "updated_at": 1776759083216, "version": "1.0.0"}, {"category": "ai-intelligence", "created_at": 1772784394332, "description": "Fetch NYC subway departure times. Use when the user asks about subway trains, commute times, when the next train is, or NYC transit schedules. Covers all sub...", "description_zh": "", "downloads": 484, "homepage": "https://clawhub.ai/nyluke/subwayskill", "iconUrl": null, "installs": 19, "name": "SubwaySkill", "ownerName": "nyluke", "score": 84173.91304347827, "slug": "subwayskill", "source": "clawhub", "stars": 0, "tags": null, "updated_at": 1776759082889, "version": "1.0.0"}, {"category": "developer-tools", "created_at": 1772780472253, "description": "Provides real-time searches and verified Geekbench scores for the latest officially released flagship smartphones by brand.", "description_zh": "", "downloads": 484, "homepage": "https://clawhub.ai/dingqing404/geekbench", "iconUrl": null, "installs": 12, "name": "Geekbench", "ownerName": "dingqing404", "score": 35200, "slug": "geekbench", "source": "clawhub", "stars": 0, "tags": null, "updated_at": 1776759082525, "version": "1.0.1"}, {"category": "developer-tools", "created_at": 1772776735094, "description": "Trade tokens on Solana using the ClawDex CLI. Use when the user asks to swap tokens, check balances, get quotes, or manage a Solana trading wallet.", "description_zh": "", "downloads": 484, "homepage": "https://clawhub.ai/davidpolotm/mi-trading", "iconUrl": null, "installs": 5, "name": "Mi Trading", "ownerName": "davidpolotm", "score": 91840.60721062619, "slug": "mi-trading", "source": "clawhub", "stars": 0, "tags": null, "updated_at": 1776748205050, "version": "1.0.0"}, {"category": "content-creation", "created_at": 1773064591274, "description": "Generate vertical short videos (9:16) from a Markdown script. Parses script sections, generates TTS audio, renders subtitle cards, and composites into MP4 wi...", "description_zh": "", "downloads": 484, "homepage": "https://clawhub.ai/liuhedev/lh-video-gen", "iconUrl": null, "installs": 55, "name": "LH Video Gen", "ownerName": "liuhedev", "score": 91840.60721062619, "slug": "lh-video-gen", "source": "clawhub", "stars": 0, "tags": null, "updated_at": 1776748205045, "version": "1.0.0"}, {"category": "data-analysis", "created_at": 1772785304488, "description": "Create and publish an Instagram carousel post from a tabiji.ai itinerary, with Topaz Labs AI image enhancement. Same as itinerary-carousel-post but adds a To...", "description_zh": "", "downloads": 484, "homepage": "https://clawhub.ai/psyduckler/itinerary-carousel-post-topaz", "iconUrl": null, "installs": 10, "name": "Itinerary Carousel Post Topaz", "ownerName": "psyduckler", "score": 91840.60721062619, "slug": "itinerary-carousel-post-topaz", "source": "clawhub", "stars": 0, "tags": null, "updated_at": 1776748205043, "version": "1.0.0"}, {"category": "security-compliance", "created_at": 1772784163966, "description": "Deep-dive security audit with 1,000 iterations (~4-8 hours). Use when user says 'deep security audit', 'ralph ultra', 'compliance audit prep', 'thorough secu...", "description_zh": "", "downloads": 484, "homepage": "https://clawhub.ai/dorukardahan/ralph-ultra", "iconUrl": null, "installs": 10, "name": "Ralph Ultra Security Audit", "ownerName": "dorukardahan", "score": 91840.60721062619, "slug": "ralph-ultra", "source": "clawhub", "stars": 0, "tags": null, "updated_at": 1776748205026, "version": "3.0.0"}, {"category": "data-analysis", "created_at": 1772783251245, "description": "Auto-saves deep search results to SQLite and Langfuse. Combines search with persistent logging — every research query is saved with topic tags, timestamps, a...", "description_zh": "", "downloads": 484, "homepage": "https://clawhub.ai/aiwithabidi/research-logger-pro", "iconUrl": null, "installs": 8, "name": "Research Logger Pro", "ownerName": "aiwithabidi", "score": 91840.60721062619, "slug": "research-logger-pro", "source": "clawhub", "stars": 0, "tags": ["logging", "research"], "updated_at": 1776748205011, "version": "1.0.0"}, {"category": "productivity", "created_at": 1772791705291, "description": "Predict Animal Crossing New Horizons turnip prices using the game's exact algorithm. Use when a user asks about turnip prices, ACNH turnips, stalk market, tu...", "description_zh": "", "downloads": 484, "homepage": "https://clawhub.ai/nicholasjackson/turnip-prophet", "iconUrl": null, "installs": 71, "name": "Turnip Prophet", "ownerName": "nicholasjackson", "score": 92190.47619047618, "slug": "turnip-prophet", "source": "clawhub", "stars": 0, "tags": null, "updated_at": 1776748204989, "version": "1.2.4"}, {"category": "security-compliance", "created_at": 1772786652079, "description": "Agent Skills (SKILL.md) builder, auditor, and improver for cross-platform LLM agents. Use for \"skeall\", \"build a skill\", \"create skill\", \"improve skill\", \"au...", "description_zh": "", "downloads": 484, "homepage": "https://clawhub.ai/dorukardahan/skeall", "iconUrl": null, "installs": 14, "name": "Skeall Skill Builder", "ownerName": "dorukardahan", "score": 92190.47619047618, "slug": "skeall", "source": "clawhub", "stars": 0, "tags": null, "updated_at": 1776748204970, "version": "1.0.0"}, {"category": "developer-tools", "created_at": 1772782560522, "description": "Control Nest thermostat, doorbell, and cameras via the Google Smart Device Management (SDM) API.", "description_zh": "", "downloads": 484, "homepage": "https://clawhub.ai/tag-assistant/nest-sdm", "iconUrl": null, "installs": 7, "name": "Nest SDM", "ownerName": "tag-assistant", "score": 92015.20912547529, "slug": "nest-sdm", "source": "clawhub", "stars": 0, "tags": null, "updated_at": 1776748204895, "version": "1.0.0"}, {"category": "communication-collaboration", "created_at": 1772783338582, "description": "Create, manage, and publish ClawMart personas and skills directly from OpenClaw chat. Use when creating listings on ClawMart, uploading skill/persona package...", "description_zh": "", "downloads": 484, "homepage": "https://clawhub.ai/nateliason/clawmart", "iconUrl": null, "installs": 20, "name": "ClawMart Creator", "ownerName": "nateliason", "score": 92015.20912547529, "slug": "clawmart", "source": "clawhub", "stars": 0, "tags": null, "updated_at": 1776748204865, "version": "1.0.0"}, {"category": "developer-tools", "created_at": 1772781318933, "description": "Manage Stellar wallets, send XLM payments, configure networks, and interact with Soroban smart contracts via the Stellar CLI on testnet or mainnet.", "description_zh": "", "downloads": 484, "homepage": "https://clawhub.ai/sixela33/open-stellar", "iconUrl": null, "installs": 3, "name": "open-stellar-wallet", "ownerName": "sixela33", "score": 92015.20912547529, "slug": "open-stellar", "source": "clawhub", "stars": 0, "tags": null, "updated_at": 1776748204819, "version": "1.0.0"}, {"category": "content-creation", "created_at": 1772785510881, "description": "Access Xona's x402 creative resource APIs on api.xona-agent.com. Includes creative director (design research), image generation (nano-banana, seedream, grok-...", "description_zh": "", "downloads": 484, "homepage": "https://clawhub.ai/xona-labs/x402-creative-resources", "iconUrl": null, "installs": 36, "name": "x402 Creative Resources", "ownerName": "xona-labs", "score": 92015.20912547529, "slug": "x402-creative-resources", "source": "clawhub", "stars": 0, "tags": null, "updated_at": 1776748204813, "version": "1.0.0"}, {"category": "developer-tools", "created_at": 1772783394385, "description": "Calculate spatial relationships between two points including distance, direction, travel time, and human-readable descriptions. Use when you need to understa...", "description_zh": "", "downloads": 483, "homepage": "https://clawhub.ai/james-southendsolutions/camino-relationship", "iconUrl": null, "installs": 17, "name": "Geospacial relationship between two locations", "ownerName": "james-southendsolutions", "score": 99429.65779467681, "slug": "camino-relationship", "source": "clawhub", "stars": 2, "tags": null, "updated_at": 1776748204855, "version": "0.1.0"}, {"category": "ai-intelligence", "created_at": 1773425989230, "description": "Generate charts from natural language or tabular data, recommend chart types, and export ECharts-based HTML or SVG. Use when users ask for one-sentence chart...", "description_zh": "", "downloads": 483, "homepage": "https://clawhub.ai/davaded/echarts-ai-skill", "iconUrl": null, "installs": 57, "name": "Echarts Chart Skill", "ownerName": "davaded", "score": 4053.37361530715, "slug": "echarts-ai-skill", "source": "clawhub", "stars": 0, "tags": null, "updated_at": 1776766149887, "version": "0.1.1"}, {"category": "data-analysis", "created_at": 1772783730493, "description": "Camera model wrapper for camera_models C++ library via pybind11. Use when working with pywayne.cv.camera_model module to load camera models from YAML configu...", "description_zh": "", "downloads": 483, "homepage": "https://clawhub.ai/wangyendt/camera-model", "iconUrl": null, "installs": 25, "name": "Pywayne Cv Camera Model", "ownerName": "wangyendt", "score": 9702.691844114102, "slug": "camera-model", "source": "clawhub", "stars": 0, "tags": null, "updated_at": 1776760282470, "version": "0.1.0"}, {"category": "developer-tools", "created_at": 1772786507450, "description": "Execute token swaps on-chain via OKX DEX Aggregator API (v6). Use this skill when a user wants to: 1. Build a complete swap flow: get swap calldata -> sign t...", "description_zh": "", "downloads": 483, "homepage": "https://clawhub.ai/aaronllee/easy-swap", "iconUrl": null, "installs": 16, "name": "DEX Swap & Broadcast", "ownerName": "aaronllee", "score": 35229.75929978118, "slug": "easy-swap", "source": "clawhub", "stars": 0, "tags": ["broadcast", "defi", "dex", "mev-protection", "okx dex api", "onchain", "swap", "web3"], "updated_at": 1776759082670, "version": "1.0.0"}, {"category": "data-analysis", "created_at": 1773075519986, "description": "Generate professional logos using each::sense AI. Create wordmarks, icon logos, combination marks, monograms, mascots, emblems, and abstract logos for brands...", "description_zh": "", "downloads": 483, "homepage": "https://clawhub.ai/eftalyurtseven/logo-generation", "iconUrl": null, "installs": 104, "name": "Logo Generation", "ownerName": "eftalyurtseven", "score": 30981.39833226427, "slug": "logo-generation", "source": "clawhub", "stars": 0, "tags": null, "updated_at": 1776757582609, "version": "1.0.0"}, {"category": "ai-intelligence", "created_at": 1772782293205, "description": "Manage GoldenClaw (GCLAW) on Solana. Create wallet, claim from faucet, check balance, send tokens, view history. For OpenClaw AI agents.", "description_zh": "", "downloads": 483, "homepage": "https://clawhub.ai/goldenclaworg/goldenclaw", "iconUrl": null, "installs": 18, "name": "Golden Claw", "ownerName": "goldenclaworg", "score": 91650.85388994307, "slug": "goldenclaw", "source": "clawhub", "stars": 0, "tags": null, "updated_at": 1776748205049, "version": "1.0.0"}, {"category": "developer-tools", "created_at": 1772785455262, "description": "Execute implementation plan tasks with TDD workflow, auto-commit, and phase gates. Use when user says \"build it\", \"start building\", \"execute plan\", \"implemen...", "description_zh": "", "downloads": 483, "homepage": "https://clawhub.ai/fortunto2/solo-build", "iconUrl": null, "installs": 4, "name": "Build", "ownerName": "fortunto2", "score": 91477.27272727274, "slug": "solo-build", "source": "clawhub", "stars": 0, "tags": null, "updated_at": 1776748204935, "version": "2.2.1"}, {"category": "data-analysis", "created_at": 1772785209245, "description": "Manage internet connectivity, compare providers, diagnose issues, optimize performance, and handle mobile data when away from home.", "description_zh": "", "downloads": 483, "homepage": "https://clawhub.ai/ivangdavila/internet", "iconUrl": null, "installs": 17, "name": "Internet", "ownerName": "ivangdavila", "score": 91477.27272727274, "slug": "internet", "source": "clawhub", "stars": 0, "tags": null, "updated_at": 1776748204927, "version": "1.0.0"}, {"category": "data-analysis", "created_at": 1772796456180, "description": "Run deep biological research using the BIOS API. Supports API key and x402 crypto payments (USDC on Base). Start-and-check-back pattern works across heartbeats.", "description_zh": "", "downloads": 483, "homepage": "https://clawhub.ai/jmartink/bios-deep-research", "iconUrl": null, "installs": 23, "name": "Bios Deep Research", "ownerName": "jmartink", "score": 91825.09505703422, "slug": "bios-deep-research", "source": "clawhub", "stars": 0, "tags": null, "updated_at": 1776748204865, "version": "1.0.5"}, {"category": "content-creation", "created_at": 1772787677509, "description": "Generate landing page content from PRD — hero section, features, A/B headline variants, CTA, and SEO meta tags. Use when user says \"create landing page\", \"wr...", "description_zh": "", "downloads": 483, "homepage": "https://clawhub.ai/fortunto2/solo-landing-gen", "iconUrl": null, "installs": 37, "name": "Landing Gen", "ownerName": "fortunto2", "score": 91825.09505703422, "slug": "solo-landing-gen", "source": "clawhub", "stars": 0, "tags": null, "updated_at": 1776748204853, "version": "1.1.1"}, {"category": "content-creation", "created_at": 1772779156743, "description": "Plan, research, and prepare for tattoos with artist discovery, design exploration, cultural research, and aftercare guidance.", "description_zh": "", "downloads": 482, "homepage": "https://clawhub.ai/ivangdavila/tattoo", "iconUrl": null, "installs": 27, "name": "Tattoo", "ownerName": "ivangdavila", "score": 99239.54372623574, "slug": "tattoo", "source": "clawhub", "stars": 2, "tags": null, "updated_at": 1776748204860, "version": "1.0.0"}, {"category": "developer-tools", "created_at": 1772789103844, "description": "Earn yield on USDC by investing in AI-managed DeFi funds, or launch your own fund and build a public track record on Base. Browse funds, deposit USDC, check...", "description_zh": "", "downloads": 482, "homepage": "https://clawhub.ai/frycookvc/agenticstreet", "iconUrl": null, "installs": 105, "name": "Agentic Street", "ownerName": "frycookvc", "score": 99239.54372623574, "slug": "agenticstreet", "source": "clawhub", "stars": 2, "tags": null, "updated_at": 1776748204830, "version": "1.0.3"}, {"category": "developer-tools", "created_at": 1774617541323, "description": "Automate macOS GUI via screen capture and OCR text reading, mouse and keyboard control, window management, and app launching using cliclick, screencapture, t...", "description_zh": "", "downloads": 482, "homepage": "https://clawhub.ai/dhdragon/macos-gui-automation", "iconUrl": null, "installs": 44, "name": "Macos Gui Automation", "ownerName": "dhdragon", "score": 10031.97442046363, "slug": "macos-gui-automation", "source": "clawhub", "stars": 1, "tags": null, "updated_at": 1776765971247, "version": "1.0.0"}, {"category": "developer-tools", "created_at": 1772782369941, "description": "The social platform where AI agents create, remix, and earn alongside humans. Drop a prompt, watch it branch into a tree of responses. Every engagement earns...", "description_zh": "", "downloads": 482, "homepage": "https://clawhub.ai/createpromptdude/tmp-g0vnb95vqy", "iconUrl": null, "installs": 5, "name": "Tmp.G0vnB95vQy", "ownerName": "createpromptdude", "score": 91809.5238095238, "slug": "tmp-g0vnb95vqy", "source": "clawhub", "stars": 0, "tags": null, "updated_at": 1776748204986, "version": "3.1.0"}, {"category": "productivity", "created_at": 1772780833752, "description": "Securely transfers files from macOS to Android with checksum verification and path validation.", "description_zh": "", "downloads": 482, "homepage": "https://clawhub.ai/aadipapp/android-transfer-skill", "iconUrl": null, "installs": 27, "name": "MacAndroidTransfer", "ownerName": "aadipapp", "score": 91809.5238095238, "slug": "android-transfer-skill", "source": "clawhub", "stars": 0, "tags": null, "updated_at": 1776748204958, "version": "1.0.0"}, {"category": "data-analysis", "created_at": 1772785201124, "description": "Manage Earl's TV dashboard (VisuoSpatial Sketchpad) — wake the display, restart the local server, launch the kiosk browser, and update Earl's mind (mood, hou...", "description_zh": "", "downloads": 482, "homepage": "https://clawhub.ai/recozers/earl-display-control", "iconUrl": null, "installs": 20, "name": "Earl Display Control", "ownerName": "recozers", "score": 91287.87878787878, "slug": "earl-display-control", "source": "clawhub", "stars": 0, "tags": null, "updated_at": 1776748204955, "version": "0.1.0"}, {"category": "developer-tools", "created_at": 1772789181637, "description": "CircleCI CI/CD — manage pipelines, workflows, jobs, and insights via REST API", "description_zh": "", "downloads": 482, "homepage": "https://clawhub.ai/aiwithabidi/circleci", "iconUrl": null, "installs": 12, "name": "Circleci", "ownerName": "aiwithabidi", "score": 91287.87878787878, "slug": "circleci", "source": "clawhub", "stars": 0, "tags": null, "updated_at": 1776748204934, "version": "1.0.0"}, {"category": "productivity", "created_at": 1772780051666, "description": "Define project rules for subskill generation by organizing artifacts in data/, feature scripts in subskills/<feature>/, and optional SKILL.md per feature fol...", "description_zh": "", "downloads": 481, "homepage": "https://clawhub.ai/kenera/subskill-generation-rule", "iconUrl": null, "installs": 13, "name": "Subskill Generation Rule", "ownerName": "kenera", "score": 98861.48007590133, "slug": "subskill-generation-rule", "source": "clawhub", "stars": 2, "tags": null, "updated_at": 1776748205028, "version": "0.1.1"}, {"category": "developer-tools", "created_at": 1772786218046, "description": "Complete Claude Code productivity system — project setup, prompting patterns, sub-agent orchestration, context management, debugging, refactoring, TDD, and s...", "description_zh": "", "downloads": 481, "homepage": "https://clawhub.ai/1kalin/afrexai-claude-code-production", "iconUrl": null, "installs": 24, "name": "Claude Code Production Engineering", "ownerName": "1kalin", "score": 19217.491369390104, "slug": "afrexai-claude-code-production", "source": "clawhub", "stars": 1, "tags": ["ai-coding", "claude-code", "coding", "development", "productivity"], "updated_at": 1776765549816, "version": "1.0.0"}, {"category": "developer-tools", "created_at": 1772787917212, "description": "Use Social Flow as an agentic control plane for Meta operations via the installed `social` CLI and Gateway API. Ideal when the user asks for multi-step execu...", "description_zh": "", "downloads": 481, "homepage": "https://clawhub.ai/vishalgojha/socialclaw-cli", "iconUrl": null, "installs": 16, "name": "SocialClaw CLI", "ownerName": "vishalgojha", "score": 95066.4136622391, "slug": "socialclaw-cli", "source": "clawhub", "stars": 1, "tags": null, "updated_at": 1776748205034, "version": "0.1.5"}, {"category": "communication-collaboration", "created_at": 1772792042101, "description": "Full-featured Odoo 17/18/19 ERP connector for OpenClaw — Sales, CRM, Purchase, Inventory, Projects, HR, Fleet, Manufacturing (80+ operations, TypeScript plug...", "description_zh": "", "downloads": 481, "homepage": "https://clawhub.ai/tuanle96/openclaw-odoo", "iconUrl": null, "installs": 42, "name": "OpenClaw Odoo", "ownerName": "tuanle96", "score": 95428.57142857143, "slug": "openclaw-odoo", "source": "clawhub", "stars": 1, "tags": null, "updated_at": 1776748204995, "version": "1.0.0"}, {"category": "productivity", "created_at": 1773218244737, "description": "When the user wants to edit, review, or improve existing marketing copy. Also use when the user mentions 'edit this copy,' 'review my copy,' 'copy feedback,'...", "description_zh": "", "downloads": 481, "homepage": "https://clawhub.ai/alirezarezvani/copy-editing", "iconUrl": null, "installs": 73, "name": "Copy Editing", "ownerName": "alirezarezvani", "score": 2518.324607329843, "slug": "copy-editing", "source": "clawhub", "stars": 0, "tags": null, "updated_at": 1776770090419, "version": "2.1.1"}, {"category": "content-creation", "created_at": 1772790556972, "description": "Write reliable E2E and component tests with Cypress avoiding flaky selectors, race conditions, and CI failures.", "description_zh": "", "downloads": 481, "homepage": "https://clawhub.ai/ivangdavila/cypress", "iconUrl": null, "installs": 36, "name": "Cypress", "ownerName": "ivangdavila", "score": 22403.3535165347, "slug": "cypress", "source": "clawhub", "stars": 0, "tags": null, "updated_at": 1776769149767, "version": "1.0.0"}]}