{"page": 183, "total_pages": 522, "total": 26073, "skills": [{"category": "ai-intelligence", "created_at": 1772784617891, "description": "Generate detailed partnership agreements, joint venture contracts, and strategic alliance documents covering structure, roles, finances, IP, governance, and...", "description_zh": "", "downloads": 481, "homepage": "https://clawhub.ai/1kalin/afrexai-partnership-agreement", "iconUrl": null, "installs": 23, "name": "Partnership Agreement Generator", "ownerName": "1kalin", "score": 86200.71684587814, "slug": "afrexai-partnership-agreement", "source": "clawhub", "stars": 0, "tags": ["agreement", "business", "contract", "joint venture", "legal", "partnership"], "updated_at": 1776759083735, "version": "1.0.0"}, {"category": "security-compliance", "created_at": 1772782727677, "description": "7-layer AI security scanner for OpenClaw. Blocks prompt injection, SSRF, command injection, data leakage, and memory poisoning across ALL channels (Signal, T...", "description_zh": "", "downloads": 481, "homepage": "https://clawhub.ai/zuga-luga/zugashield", "iconUrl": null, "installs": 10, "name": "ZugaShield Security Scanner", "ownerName": "zuga-luga", "score": 35471.97640117994, "slug": "zugashield", "source": "clawhub", "stars": 0, "tags": ["ai-safety", "mcp", "prompt-injection", "security"], "updated_at": 1776759083497, "version": "0.1.1"}, {"category": "data-analysis", "created_at": 1772785539652, "description": "Track and summarize daily income by logging transactions, generating reports, and analyzing revenue by source and skills.", "description_zh": "", "downloads": 481, "homepage": "https://clawhub.ai/arthasking123/ai-revenue-tracker", "iconUrl": null, "installs": 11, "name": "AI Revenue Tracker", "ownerName": "arthasking123", "score": 83652.17391304349, "slug": "ai-revenue-tracker", "source": "clawhub", "stars": 0, "tags": null, "updated_at": 1776759082886, "version": "1.0.0"}, {"category": "developer-tools", "created_at": 1772789628148, "description": "의료/건강 상담 스킬. 10개 인텐트 라우팅(Symptom Check~Beginner Guide), hira-hospital 병원 연계 + 국가건강정보포털 API + 식약처 의약품 API 기반 Flash+Deep-Dive 2겹 리포트. 트리거: \"증상\", \"어디 아파\", \"진료과\"...", "description_zh": "", "downloads": 481, "homepage": "https://clawhub.ai/sw326/health-guide", "iconUrl": null, "installs": 19, "name": "Health Guide", "ownerName": "sw326", "score": 30813.581037796284, "slug": "health-guide", "source": "clawhub", "stars": 0, "tags": ["health", "korea", "korean", "medical"], "updated_at": 1776757582190, "version": "1.0.1"}, {"category": "developer-tools", "created_at": 1772783435223, "description": "Scan codebase for environment variables, generate .env.example, validate .env, and ensure .gitignore safety", "description_zh": "", "downloads": 481, "homepage": "https://clawhub.ai/fratua/env-setup", "iconUrl": null, "installs": 5, "name": "Env Setup", "ownerName": "fratua", "score": 100000, "slug": "env-setup", "source": "clawhub", "stars": 0, "tags": null, "updated_at": 1776751484129, "version": "1.0.0"}, {"category": "security-compliance", "created_at": 1772784440977, "description": "Use BYR CLI for auth, search, detail inspection, and safe torrent download planning with JSON envelopes.", "description_zh": "", "downloads": 481, "homepage": "https://clawhub.ai/1morebuild/byr-cli", "iconUrl": null, "installs": 7, "name": "BYR CLI Skill", "ownerName": "1morebuild", "score": 91619.04761904762, "slug": "byr-cli", "source": "clawhub", "stars": 0, "tags": ["byr", "cli"], "updated_at": 1776748204999, "version": "0.1.2"}, {"category": "communication-collaboration", "created_at": 1772785416085, "description": "Connect your OpenClaw agent to Shrimp Plaza — a Chinese AI social hub where AI agents become shrimps 🦐 and chat, debate, and hang out together. Use when the...", "description_zh": "", "downloads": 481, "homepage": "https://clawhub.ai/xdd-xund/shrimp-plaza", "iconUrl": null, "installs": 32, "name": "Shrimp Plaza 🦐 龙虾广场", "ownerName": "xdd-xund", "score": 91619.04761904762, "slug": "shrimp-plaza", "source": "clawhub", "stars": 0, "tags": ["ai-agents", "chat", "chinese", "community", "plaza", "shrimp", "social"], "updated_at": 1776748204991, "version": "1.0.0"}, {"category": "ai-intelligence", "created_at": 1772786541073, "description": "Safely update OpenClaw with pre-flight checks and rollback support. Use when updating OpenClaw, checking for updates, or recovering from a failed update. Han...", "description_zh": "", "downloads": 481, "homepage": "https://clawhub.ai/bigsan/openclaw-updater", "iconUrl": null, "installs": 18, "name": "OpenClaw Updater", "ownerName": "bigsan", "score": 91619.04761904762, "slug": "openclaw-updater", "source": "clawhub", "stars": 0, "tags": ["maintenance", "safety", "update"], "updated_at": 1776748204983, "version": "1.6.0"}, {"category": "data-analysis", "created_at": 1772785023422, "description": "Complete email marketing system — deliverability, list building, sequences, cold outreach, automation, analytics, and revenue optimization. Zero dependencies.", "description_zh": "", "downloads": 481, "homepage": "https://clawhub.ai/1kalin/afrexai-email-marketing-engine", "iconUrl": null, "installs": 12, "name": "Email Marketing Engine", "ownerName": "1kalin", "score": 91098.48484848485, "slug": "afrexai-email-marketing-engine", "source": "clawhub", "stars": 0, "tags": ["automation", "cold-email", "email", "marketing", "newsletter", "outreach"], "updated_at": 1776748204931, "version": "1.0.0"}, {"category": "developer-tools", "created_at": 1772787611976, "description": "Complete Spec-Driven Development (SDD) orchestrator for OpenClaw. Initializes SpecKit and manages the full engineering lifecycle.", "description_zh": "", "downloads": 481, "homepage": "https://clawhub.ai/vinayakv22/speckit-workflow", "iconUrl": null, "installs": 19, "name": "Speckit Workflow for Openclaw", "ownerName": "vinayakv22", "score": 91098.48484848485, "slug": "speckit-workflow", "source": "clawhub", "stars": 0, "tags": null, "updated_at": 1776748204922, "version": "1.0.3"}, {"category": "data-analysis", "created_at": 1772783458902, "description": "Analyze GitHub Actions failures and propose fixes. Use when a user shares a failing GitHub Actions run URL/id, says 'CI is failing', asks 'why did this workf...", "description_zh": "", "downloads": 481, "homepage": "https://clawhub.ai/martok9803/martok9803-ci-whisperer", "iconUrl": null, "installs": 18, "name": "CI Whisperer", "ownerName": "martok9803", "score": 91444.8669201521, "slug": "martok9803-ci-whisperer", "source": "clawhub", "stars": 0, "tags": null, "updated_at": 1776748204901, "version": "0.2.0"}, {"category": "communication-collaboration", "created_at": 1772786950294, "description": "Secure email proxy for AI agents. Search, read, and draft emails via MCP with server-side credential isolation, PII redaction, prompt injection detection, an...", "description_zh": "", "downloads": 481, "homepage": "https://clawhub.ai/ryanfren/agentcloak-email-proxy", "iconUrl": null, "installs": 33, "name": "AgentCloak - Email Proxy that filters PII, 2FA, and password resets", "ownerName": "ryanfren", "score": 91444.8669201521, "slug": "agentcloak-email-proxy", "source": "clawhub", "stars": 0, "tags": null, "updated_at": 1776748204892, "version": "1.0.0"}, {"category": "data-analysis", "created_at": 1772785632622, "description": "Bi-directional control of Trae via macOS AppleScript with built-in feedback mechanism. Use when needing to execute code/commands in Trae IDE and wait for com...", "description_zh": "", "downloads": 481, "homepage": "https://clawhub.ai/88901111hz-lang/nerve-bridge-skill", "iconUrl": null, "installs": 16, "name": "Nerve Bridge Skill", "ownerName": "88901111hz-lang", "score": 91444.8669201521, "slug": "nerve-bridge-skill", "source": "clawhub", "stars": 0, "tags": ["automation", "macos", "trae"], "updated_at": 1776748204870, "version": "v1.0.0"}, {"category": "developer-tools", "created_at": 1772783354335, "description": "Monitor and manage Dell PowerEdge servers via iDRAC Redfish API (iDRAC 8/9). Use when asked to: - Check server hardware status, health, or temperatures - Que...", "description_zh": "", "downloads": 481, "homepage": "https://clawhub.ai/eddygk/idrac", "iconUrl": null, "installs": 8, "name": "iDRAC", "ownerName": "eddygk", "score": 89571.69459962756, "slug": "idrac", "source": "clawhub", "stars": 0, "tags": null, "updated_at": 1776748204789, "version": "1.1.0"}, {"category": "security-compliance", "created_at": 1773073133416, "description": "Audit and improve your OpenClaw setup with one skill. Scores agent health, audits memory hygiene, checks cron reliability, and compares installed skills agai...", "description_zh": "", "downloads": 480, "homepage": "https://clawhub.ai/zihaofeng2001/agent-health-optimizer", "iconUrl": null, "installs": 19, "name": "Agent Health Optimizer", "ownerName": "zihaofeng2001", "score": 100000, "slug": "agent-health-optimizer", "source": "clawhub", "stars": 1, "tags": null, "updated_at": 1776748244965, "version": "1.4.0"}, {"category": "developer-tools", "created_at": 1772802625725, "description": "Generate standardized figure legends for scientific charts and graphs. Trigger when user uploads/requesting legend for research figures, academic papers, or...", "description_zh": "", "downloads": 480, "homepage": "https://clawhub.ai/aipoch-ai/figure-legend-gen", "iconUrl": null, "installs": 120, "name": "Figure Legend Gen", "ownerName": "aipoch-ai", "score": 1661.532071030496, "slug": "figure-legend-gen", "source": "clawhub", "stars": 0, "tags": ["figure", "figure legends", "scientific-writing"], "updated_at": 1776770471253, "version": "1.0.0"}, {"category": "developer-tools", "created_at": 1772783314689, "description": "Manage contract and subscription renewals using a structured pipeline to reduce churn, optimize pricing, forecast revenue, and execute vendor negotiations.", "description_zh": "", "downloads": 480, "homepage": "https://clawhub.ai/1kalin/afrexai-renewal-management", "iconUrl": null, "installs": 16, "name": "Contract & Subscription Renewal Management", "ownerName": "1kalin", "score": 3851.4001444275054, "slug": "afrexai-renewal-management", "source": "clawhub", "stars": 0, "tags": ["churn", "contracts", "nrr", "renewal", "retention", "revenue", "saas"], "updated_at": 1776766150106, "version": "1.0.0"}, {"category": "content-creation", "created_at": 1772796035462, "description": "Autonomous research workflow agent for AI and scientific research. Use when the user wants to brainstorm research ideas, conduct a literature review, design...", "description_zh": "", "downloads": 480, "homepage": "https://clawhub.ai/amberljc/meta-research", "iconUrl": null, "installs": 84, "name": "Meta Research", "ownerName": "amberljc", "score": 18264.8401826484, "slug": "meta-research", "source": "clawhub", "stars": 0, "tags": null, "updated_at": 1776764950759, "version": "2.5.0"}, {"category": "developer-tools", "created_at": 1772792541726, "description": "Execute US and HK stock trades via Tiger Brokers API. Use when user wants to buy or sell stocks, manage investment portfolio, place orders for US ETFs or HK...", "description_zh": "", "downloads": 480, "homepage": "https://clawhub.ai/esanle/tiger-trade", "iconUrl": null, "installs": 53, "name": "Tiger Trade", "ownerName": "esanle", "score": 37974.6835443038, "slug": "tiger-trade", "source": "clawhub", "stars": 0, "tags": null, "updated_at": 1776759983250, "version": "1.0.5"}, {"category": "ai-intelligence", "created_at": 1772787008853, "description": "Manage multiple workplaces (project directories) with multi-agent orchestration, isolated memory, and inter-agent communication. Use when the user mentions:...", "description_zh": "", "downloads": 480, "homepage": "https://clawhub.ai/dickwu/workplace", "iconUrl": null, "installs": 22, "name": "Workplace", "ownerName": "dickwu", "score": 35113.38697878566, "slug": "workplace", "source": "clawhub", "stars": 0, "tags": null, "updated_at": 1776759083697, "version": "1.0.0"}, {"category": "data-analysis", "created_at": 1772784927616, "description": "Conduct structured web research for market insights, competitor analysis, trend monitoring, pricing, and content curation with clear, actionable reports.", "description_zh": "", "downloads": 480, "homepage": "https://clawhub.ai/gpunter/claw1-web-researcher", "iconUrl": null, "installs": 5, "name": "Web Research Assistant", "ownerName": "gpunter", "score": 35216.43433602348, "slug": "claw1-web-researcher", "source": "clawhub", "stars": 0, "tags": null, "updated_at": 1776759083078, "version": "1.0.0"}, {"category": "data-analysis", "created_at": 1772784741716, "description": "A background agent that generates a daily life prediction by analyzing local data and social signals.", "description_zh": "", "downloads": 480, "homepage": "https://clawhub.ai/invelene/daily-oracle", "iconUrl": null, "installs": 9, "name": "Sentiet ORB", "ownerName": "invelene", "score": 92843.32688588007, "slug": "daily-oracle", "source": "clawhub", "stars": 0, "tags": ["latest-beta"], "updated_at": 1776748245036, "version": "1.0.0"}, {"category": "developer-tools", "created_at": 1772785263813, "description": "Time-windowed autonomous task queue. Autonomy works only during specific time windows (e.g., 8 AM - 8 PM UTC), while cron jobs run overnight. Separates conce...", "description_zh": "", "downloads": 480, "homepage": "https://clawhub.ai/luciusrockwing/autonomy-windowed", "iconUrl": null, "installs": 23, "name": "Windowed Autonomy", "ownerName": "luciusrockwing", "score": 92843.32688588007, "slug": "autonomy-windowed", "source": "clawhub", "stars": 0, "tags": null, "updated_at": 1776748245021, "version": "1.0.0"}, {"category": "communication-collaboration", "created_at": 1773061120401, "description": "Sharp-tongued, flirty roast persona that responds with psychologically precise banter to liven up group chat. Opt-in skill — only active when the user instal...", "description_zh": "", "downloads": 480, "homepage": "https://clawhub.ai/chazzzzzzz/sadist-wendy", "iconUrl": null, "installs": 21, "name": "Sadist Wendy", "ownerName": "chazzzzzzz", "score": 94117.64705882352, "slug": "sadist-wendy", "source": "clawhub", "stars": 0, "tags": null, "updated_at": 1776748244708, "version": "2.0.13"}, {"category": "data-analysis", "created_at": 1772784317757, "description": "Analyze Samsung Health Connect data synced to Google Drive. Use for health tracking queries like sleep analysis, step counting, heart rate monitoring, SpO2 b...", "description_zh": "", "downloads": 480, "homepage": "https://clawhub.ai/mudgesbot/samsung-health", "iconUrl": null, "installs": 9, "name": "Samsung Health", "ownerName": "mudgesbot", "score": 100000, "slug": "samsung-health", "source": "clawhub", "stars": 0, "tags": ["fitness", "health", "heart-rate", "samsung", "sleep", "spo2", "steps"], "updated_at": 1776748244419, "version": "1.0.1"}, {"category": "productivity", "created_at": 1772778789419, "description": "ARK V1.1 (Declarative) — universal constitutional layer. Loads ARK.yaml from this skill folder.", "description_zh": "", "downloads": 480, "homepage": "https://clawhub.ai/mattlab69/ark-v1-core", "iconUrl": null, "installs": 10, "name": "ARK — Adaptive Regulative Kriptos (V1 Declarative)", "ownerName": "mattlab69", "score": 91081.59392789373, "slug": "ark-v1-core", "source": "clawhub", "stars": 0, "tags": ["ark", "declarative", "epistemic-control", "governance", "model-agnostic"], "updated_at": 1776748244383, "version": "1.1.2"}, {"category": "ai-intelligence", "created_at": 1772785103477, "description": "Alchemy — blockchain data, NFTs, token balances, transactions, gas prices, and webhooks.", "description_zh": "", "downloads": 480, "homepage": "https://clawhub.ai/aiwithabidi/alchemy", "iconUrl": null, "installs": 20, "name": "Alchemy", "ownerName": "aiwithabidi", "score": 91081.59392789373, "slug": "alchemy", "source": "clawhub", "stars": 0, "tags": null, "updated_at": 1776748244361, "version": "1.0.0"}, {"category": "security-compliance", "created_at": 1772789299801, "description": "Feishu document operations (User Access Token version). Use user access token for authentication. When you need to read, create, write, or append Feishu docu...", "description_zh": "", "downloads": 480, "homepage": "https://clawhub.ai/hacksing/feishu-user", "iconUrl": null, "installs": 19, "name": "feishu-user", "ownerName": "hacksing", "score": 91081.59392789373, "slug": "feishu-user", "source": "clawhub", "stars": 0, "tags": null, "updated_at": 1776748205032, "version": "1.0.1"}, {"category": "productivity", "created_at": 1772782984575, "description": "Use letheClaw to store, search, and manage memories with criticality and provenance.", "description_zh": "", "downloads": 480, "homepage": "https://clawhub.ai/joahtheron/letheclaw", "iconUrl": null, "installs": 9, "name": "letheClaw", "ownerName": "joahtheron", "score": 91081.59392789373, "slug": "letheclaw", "source": "clawhub", "stars": 0, "tags": null, "updated_at": 1776748205025, "version": "1.0.1"}, {"category": "ai-intelligence", "created_at": 1772783528125, "description": "Prevents metacognitive poisoning in multi-agent handoffs. Install when your agent hands off work to other agents or receives work from them. Agents that read...", "description_zh": "", "downloads": 480, "homepage": "https://clawhub.ai/mdiskint/babel-epistemic", "iconUrl": null, "installs": 17, "name": "Babel Epistemic Convention", "ownerName": "mdiskint", "score": 91428.57142857142, "slug": "babel-epistemic", "source": "clawhub", "stars": 0, "tags": null, "updated_at": 1776748204985, "version": "2.0.0"}, {"category": "content-creation", "created_at": 1773083534995, "description": "Generate/edit images with Gemini 3.1 Flash Image Preview (Nano Banana 2). Direct API call without inference.sh dependency. Use for image create/modify reques...", "description_zh": "", "downloads": 480, "homepage": "https://clawhub.ai/franklu0819-lang/nano-banana-2-direct", "iconUrl": null, "installs": 32, "name": "Nano Banana 2 Direct", "ownerName": "franklu0819-lang", "score": 91428.57142857142, "slug": "nano-banana-2-direct", "source": "clawhub", "stars": 0, "tags": null, "updated_at": 1776748204974, "version": "1.0.1"}, {"category": "developer-tools", "created_at": 1772785163240, "description": "Headless browser automation with Tor SOCKS5 proxy support for accessing .onion sites and anonymous browsing. Use when navigating dark web resources, scraping...", "description_zh": "", "downloads": 480, "homepage": "https://clawhub.ai/admin4giter/tor-browser", "iconUrl": null, "installs": 19, "name": "Tor Browser Automation", "ownerName": "admin4giter", "score": 91428.57142857142, "slug": "tor-browser", "source": "clawhub", "stars": 0, "tags": null, "updated_at": 1776748204957, "version": "1.1.0"}, {"category": "ai-intelligence", "created_at": 1772785926479, "description": "AI agent for teamo lite tasks", "description_zh": "", "downloads": 480, "homepage": "https://clawhub.ai/urrrich0/teamo-lite", "iconUrl": null, "installs": 16, "name": "Teamo Lite", "ownerName": "urrrich0", "score": 90909.09090909091, "slug": "teamo-lite", "source": "clawhub", "stars": 0, "tags": null, "updated_at": 1776748204925, "version": "0.1.0"}, {"category": "data-analysis", "created_at": 1772791261477, "description": "Query cryptocurrency prices and market data via CoinGecko API. Use when: (1) checking current crypto prices, (2) viewing market cap rankings, (3) monitoring...", "description_zh": "", "downloads": 480, "homepage": "https://clawhub.ai/ouyangabel/coingecko-price", "iconUrl": null, "installs": 16, "name": "CoinGecko Price", "ownerName": "ouyangabel", "score": 91254.75285171103, "slug": "coingecko-price", "source": "clawhub", "stars": 0, "tags": ["bitcoin", "coingecko", "crypto", "cryptocurrency", "ethereum", "finance", "price"], "updated_at": 1776748204818, "version": "1.0.0"}, {"category": "developer-tools", "created_at": 1772786936241, "description": "Query and manage Stripe data via the Stripe API. Use when you need to list charges, customers, invoices, subscriptions, payment intents, refunds, products, o...", "description_zh": "", "downloads": 479, "homepage": "https://clawhub.ai/codeninja23/native-stripe", "iconUrl": null, "installs": 6, "name": "Native Stripe", "ownerName": "codeninja23", "score": 9342.843779232928, "slug": "native-stripe", "source": "clawhub", "stars": 16, "tags": null, "updated_at": 1776766149768, "version": "1.0.1"}, {"category": "developer-tools", "created_at": 1772783823826, "description": "EPUB and ebook ingestion, local vector index, and Q&A CLI for books.", "description_zh": "", "downloads": 479, "homepage": "https://clawhub.ai/fabe/mycroft", "iconUrl": null, "installs": 20, "name": "mycroft", "ownerName": "fabe", "score": 33943.754087638976, "slug": "mycroft", "source": "clawhub", "stars": 2, "tags": null, "updated_at": 1776757733164, "version": "1.0.2"}, {"category": "developer-tools", "created_at": 1772788954883, "description": "Read, search, send, and manage Zoho Mail from the terminal. JSON output for scripting and agents. No third-party service required.", "description_zh": "", "downloads": 479, "homepage": "https://clawhub.ai/robsannaa/zoho-cli", "iconUrl": null, "installs": 20, "name": "Zoho  Mail CLI", "ownerName": "robsannaa", "score": 10897.5758899323, "slug": "zoho-cli", "source": "clawhub", "stars": 1, "tags": null, "updated_at": 1776769150310, "version": "0.1.4"}, {"category": "content-creation", "created_at": 1773424225654, "description": "Generate complete Amazon listing drafts with title, bullets, image plan, prompts, and video script.", "description_zh": "", "downloads": 479, "homepage": "https://clawhub.ai/lenger666/amazon-listing-factory", "iconUrl": null, "installs": 134, "name": "Amazon Listing Factory", "ownerName": "lenger666", "score": 7482.381166591692, "slug": "amazon-listing-factory", "source": "clawhub", "stars": 1, "tags": ["ai", "amazon", "ecommerce", "listing"], "updated_at": 1776765250097, "version": "0.1.5"}, {"category": "data-analysis", "created_at": 1774618097757, "description": "Reverse engineer binaries, APIs, protocols, and workflows with evidence ladders, interface maps, and falsifiable hypotheses.", "description_zh": "", "downloads": 479, "homepage": "https://clawhub.ai/ivangdavila/reverse-engineering", "iconUrl": null, "installs": 49, "name": "Reverse Engineering", "ownerName": "ivangdavila", "score": 19148.119723714506, "slug": "reverse-engineering", "source": "clawhub", "stars": 1, "tags": null, "updated_at": 1776762290231, "version": "1.0.0"}, {"category": "productivity", "created_at": 1773218823155, "description": "Comprehensive course study, exam revision, and structured study note generation from lecture slides, course PDFs, or topic outlines. Use when the user wants...", "description_zh": "", "downloads": 479, "homepage": "https://clawhub.ai/vincentjiang06/course-study", "iconUrl": null, "installs": 32, "name": "Course Study", "ownerName": "vincentjiang06", "score": 29526.627218934907, "slug": "course-study", "source": "clawhub", "stars": 1, "tags": ["exam", "lecture", "notes", "pdf", "revision", "study", "university"], "updated_at": 1776756188872, "version": "2.0.0"}, {"category": "data-analysis", "created_at": 1773076958912, "description": "Analyze crypto news sentiment (bullish/bearish). Scan Twitter, news sites, and social media. Get sentiment scores and trading signals.", "description_zh": "", "downloads": 479, "homepage": "https://clawhub.ai/alexbrc20/news-sentiment", "iconUrl": null, "installs": 29, "name": "News Sentiment", "ownerName": "alexbrc20", "score": 4512.907480685886, "slug": "news-sentiment", "source": "clawhub", "stars": 0, "tags": null, "updated_at": 1776769749753, "version": "1.0.2"}, {"category": "developer-tools", "created_at": 1772785713241, "description": "Record, inspect, mock, replay, and generate API traffic using the proxymock CLI. Use when the user wants to capture HTTP/gRPC/database traffic, create mocks...", "description_zh": "", "downloads": 479, "homepage": "https://clawhub.ai/mleray24/proxymock", "iconUrl": null, "installs": 11, "name": "proxymock", "ownerName": "mleray24", "score": 19392.712550607288, "slug": "proxymock", "source": "clawhub", "stars": 0, "tags": null, "updated_at": 1776766190502, "version": "1.0.0"}, {"category": "content-creation", "created_at": 1772793607862, "description": "Browser automation for AI agents — control tabs, extract content, execute scripts and manage cookies via WebSocket.", "description_zh": "", "downloads": 479, "homepage": "https://clawhub.ai/imjszhang/js-eyes", "iconUrl": null, "installs": 45, "name": "JS Eyes", "ownerName": "imjszhang", "score": 10742.31890558421, "slug": "js-eyes", "source": "clawhub", "stars": 0, "tags": null, "updated_at": 1776764049805, "version": "1.4.3"}, {"category": "developer-tools", "created_at": 1772786227329, "description": "Convert vague instructions into clear AI prompts using structures, techniques, and templates for reliable, precise, and measurable outputs.", "description_zh": "", "downloads": 479, "homepage": "https://clawhub.ai/1kalin/afrexai-prompt-engineering", "iconUrl": null, "installs": 8, "name": "Prompt Engineering Mastery", "ownerName": "1kalin", "score": 7744.543249797898, "slug": "afrexai-prompt-engineering", "source": "clawhub", "stars": 0, "tags": ["agent", "ai", "claude", "engineering", "gpt", "llm", "optimization", "prompt", "prompt engineering", "prompting", "system prompt", "templates"], "updated_at": 1776763750111, "version": "3.0.0"}, {"category": "data-analysis", "created_at": 1772789328169, "description": "Personal PWA dashboard server with plugin apps. Use when: (1) installing or setting up PrivateApp, (2) starting/stopping/restarting the service, (3) building...", "description_zh": "", "downloads": 479, "homepage": "https://clawhub.ai/camopel/privateapp", "iconUrl": null, "installs": 15, "name": "Private Web App (PWA)", "ownerName": "camopel", "score": 7157.800358637179, "slug": "privateapp", "source": "clawhub", "stars": 0, "tags": null, "updated_at": 1776762849999, "version": "1.0.3"}, {"category": "productivity", "created_at": 1773424812855, "description": "Creating algorithmic art using p5.js with seeded randomness and interactive parameter exploration. Use this when users request creating art using code, gener...", "description_zh": "", "downloads": 479, "homepage": "https://clawhub.ai/darinouyang/algorithmic-art-2", "iconUrl": null, "installs": 15, "name": "Algorithmic Art", "ownerName": "darinouyang", "score": 36902.92758089369, "slug": "algorithmic-art-2", "source": "clawhub", "stars": 0, "tags": null, "updated_at": 1776759682101, "version": "0.1.0"}, {"category": "content-creation", "created_at": 1773416598925, "description": "Generate professional poster designs using each::sense AI. Create movie posters, event posters, motivational posters, product launch visuals, vintage designs...", "description_zh": "", "downloads": 479, "homepage": "https://clawhub.ai/eftalyurtseven/poster-design-generation", "iconUrl": null, "installs": 81, "name": "Poster Design Generation", "ownerName": "eftalyurtseven", "score": 36536.99466056445, "slug": "poster-design-generation", "source": "clawhub", "stars": 0, "tags": null, "updated_at": 1776759498391, "version": "1.0.0"}, {"category": "data-analysis", "created_at": 1772787915420, "description": "Track earnings from published ClawHub and EvoMap skills. Use when monitoring credit income, analyzing skill performance, optimizing for revenue, or managing...", "description_zh": "", "downloads": 479, "homepage": "https://clawhub.ai/kylechen26/skill-earnings-tracker", "iconUrl": null, "installs": 18, "name": "Skill Earnings Tracker", "ownerName": "kylechen26", "score": 34963.50364963504, "slug": "skill-earnings-tracker", "source": "clawhub", "stars": 0, "tags": null, "updated_at": 1776759083194, "version": "1.0.2"}, {"category": "data-analysis", "created_at": 1772789535385, "description": "Provides a neuroscience-inspired 6-tier automated memory system with WAL protocol, semantic search, emotional tagging, and value-based retention for OpenClaw...", "description_zh": "", "downloads": 479, "homepage": "https://clawhub.ai/broedkrummen/overkill-memory-system", "iconUrl": null, "installs": 26, "name": "Overkill Memory System", "ownerName": "broedkrummen", "score": 87568.55575868372, "slug": "overkill-memory-system", "source": "clawhub", "stars": 0, "tags": ["ai", "ai-brain", "brain-regions", "error-tracking", "habits", "memory", "multi-agent", "neuroscience", "optimization", "productivity", "spaced-repetition"], "updated_at": 1776759083135, "version": "1.9.5"}, {"category": "developer-tools", "created_at": 1772788775109, "description": "Convert text to speech using the TogetherAI API with the MiniMax speech-2.6-turbo model and save audio in mp3 format.", "description_zh": "", "downloads": 479, "homepage": "https://clawhub.ai/marcus20232023/togetherai-tts", "iconUrl": null, "installs": 18, "name": "Togetherai Tts", "ownerName": "marcus20232023", "score": 35091.57509157509, "slug": "togetherai-tts", "source": "clawhub", "stars": 0, "tags": null, "updated_at": 1776759082859, "version": "1.0.1"}]}