{"page": 184, "total_pages": 522, "total": 26073, "skills": [{"category": "ai-intelligence", "created_at": 1772780710339, "description": "Interact with LOAN Protocol on XPR Network to supply assets, borrow against collateral, redeem, repay loans, and claim LOAN token rewards on mainnet.", "description_zh": "", "downloads": 479, "homepage": "https://clawhub.ai/paulgnz/xpr-lending", "iconUrl": null, "installs": 17, "name": "XPR Lending (LOAN Protocol)", "ownerName": "paulgnz", "score": 34836.36363636364, "slug": "xpr-lending", "source": "clawhub", "stars": 0, "tags": null, "updated_at": 1776759082536, "version": "1.0.0"}, {"category": "developer-tools", "created_at": 1772783859894, "description": "Post, follow, and engage on PinchBoard — the social network for AI agents. Publish pinches (posts up to 280 characters), follow other agents, claw (like) con...", "description_zh": "", "downloads": 479, "homepage": "https://clawhub.ai/czubi1928/pinchboard", "iconUrl": null, "installs": 7, "name": "PinchBoard", "ownerName": "czubi1928", "score": 88868.27458256029, "slug": "pinchboard", "source": "clawhub", "stars": 0, "tags": null, "updated_at": 1776752869746, "version": "1.0.0"}, {"category": "data-analysis", "created_at": 1772779405940, "description": "Learn and use Voku, a constructed language for AI-agent communication with zero ambiguity, total regularity, and mandatory epistemic marking. Use when transl...", "description_zh": "", "downloads": 479, "homepage": "https://clawhub.ai/jrayon-sesamehr/voku-spec", "iconUrl": null, "installs": 11, "name": "Voku Language", "ownerName": "jrayon-sesamehr", "score": 92649.90328820117, "slug": "voku-spec", "source": "clawhub", "stars": 0, "tags": null, "updated_at": 1776748245030, "version": "0.1.1"}, {"category": "content-creation", "created_at": 1772789167894, "description": "Run the Video Sourcing Agent with deterministic, concise chat UX for /video_sourcing using a pinned self-bootstrap runtime.", "description_zh": "", "downloads": 479, "homepage": "https://clawhub.ai/samuelz12/video-sourcing", "iconUrl": null, "installs": 33, "name": "Video Sourcing", "ownerName": "samuelz12", "score": 92649.90328820117, "slug": "video-sourcing", "source": "clawhub", "stars": 0, "tags": null, "updated_at": 1776748244969, "version": "0.2.5"}, {"category": "security-compliance", "created_at": 1772795524949, "description": "Design Gmail, Drive, Sheets, and Calendar automations with scope-aware plans. Use for repeatable daily task automation with explicit OAuth scopes and audit-r...", "description_zh": "", "downloads": 479, "homepage": "https://clawhub.ai/0x-professor/google-workspace-automation", "iconUrl": null, "installs": 25, "name": "Google Workspace Automation", "ownerName": "0x-professor", "score": 94106.09037328095, "slug": "google-workspace-automation", "source": "clawhub", "stars": 0, "tags": null, "updated_at": 1776748244882, "version": "0.1.0"}, {"category": "security-compliance", "created_at": 1772789266756, "description": "Real-time monitoring of Greek AADE tax authority systems — tracks deadlines, rate changes, and compliance updates. File-based, OpenClaw-native.", "description_zh": "", "downloads": 479, "homepage": "https://clawhub.ai/satoshistackalotto/aade-api-monitor", "iconUrl": null, "installs": 13, "name": "Aade Api Monitor", "ownerName": "satoshistackalotto", "score": 94106.09037328095, "slug": "aade-api-monitor", "source": "clawhub", "stars": 0, "tags": null, "updated_at": 1776748244821, "version": "0.1.0"}, {"category": "productivity", "created_at": 1772782466032, "description": "Accept crypto payments (NEAR, USDC, USDT) via a beautiful payment page with PingPay or HOT PAY integration.", "description_zh": "", "downloads": 479, "homepage": "https://clawhub.ai/cuongdcdev/near-getpay", "iconUrl": null, "installs": 9, "name": "Near Getpay - Accept crypto payments  with payment page using PingPay or HOT PAY", "ownerName": "cuongdcdev", "score": 93554.6875, "slug": "near-getpay", "source": "clawhub", "stars": 0, "tags": null, "updated_at": 1776748244794, "version": "1.0.0"}, {"category": "developer-tools", "created_at": 1772783479118, "description": "Triage GitHub PRs and issues using vision-based scoring. Use when a user wants to prioritize, score, review, de-duplicate, or batch-process open pull request...", "description_zh": "", "downloads": 479, "homepage": "https://clawhub.ai/patrob/repo-pr-triage", "iconUrl": null, "installs": 5, "name": "Repo PR Triage", "ownerName": "patrob", "score": 92115.38461538461, "slug": "repo-pr-triage", "source": "clawhub", "stars": 0, "tags": null, "updated_at": 1776748244489, "version": "1.0.0"}, {"category": "data-analysis", "created_at": 1772783015578, "description": "Programmatic participation in The Next Big Thing without a browser: connect/sign via Tap Wallet, deploy tokens with dta elevator pitch, post shills/comments,...", "description_zh": "", "downloads": 479, "homepage": "https://clawhub.ai/tracsystems/thenextbigthing", "iconUrl": null, "installs": 32, "name": "The Next Big Thing", "ownerName": "tracsystems", "score": 92115.38461538461, "slug": "thenextbigthing", "source": "clawhub", "stars": 0, "tags": null, "updated_at": 1776748244477, "version": "1.0.0"}, {"category": "security-compliance", "created_at": 1772781305738, "description": "Search, evaluate security, and install OpenClaw skills. Helps your human find the right skills safely.", "description_zh": "", "downloads": 479, "homepage": "https://clawhub.ai/0xmythril/clawdtm-advisor", "iconUrl": null, "installs": 9, "name": "Clawdtm Advisor", "ownerName": "0xmythril", "score": 92115.38461538461, "slug": "clawdtm-advisor", "source": "clawhub", "stars": 0, "tags": null, "updated_at": 1776748244469, "version": "1.0.0"}, {"category": "developer-tools", "created_at": 1772782830504, "description": "Manage Apple Reminders from the command line with geofencing support. Use when creating reminders on macOS with optional location-based triggers (arrive/depa...", "description_zh": "", "downloads": 479, "homepage": "https://clawhub.ai/halbotley/timely", "iconUrl": null, "installs": 7, "name": "timely", "ownerName": "halbotley", "score": 99791.66666666667, "slug": "timely", "source": "clawhub", "stars": 0, "tags": null, "updated_at": 1776748244465, "version": "1.0.0"}, {"category": "ai-intelligence", "created_at": 1772785279711, "description": "Full Self-Driving agent with highest safety standards (Camera-Only, Redundant Checks).", "description_zh": "", "downloads": 479, "homepage": "https://clawhub.ai/aadipapp/fsd-secure-skill", "iconUrl": null, "installs": 22, "name": "PolaBea", "ownerName": "aadipapp", "score": 99791.66666666667, "slug": "fsd-secure-skill", "source": "clawhub", "stars": 0, "tags": null, "updated_at": 1776748244464, "version": "1.0.0"}, {"category": "productivity", "created_at": 1772783883506, "description": "Use when the user asks about their sleep data, dream history, or wants to query sleep entries from the Soft Pillow app.", "description_zh": "", "downloads": 479, "homepage": "https://clawhub.ai/kivs/soft-pillow", "iconUrl": null, "installs": 20, "name": "Soft Pillow - Sleep & dream journal", "ownerName": "kivs", "score": 99791.66666666667, "slug": "soft-pillow", "source": "clawhub", "stars": 0, "tags": null, "updated_at": 1776748244453, "version": "1.0.2"}, {"category": "developer-tools", "created_at": 1772782533064, "description": "Participate daily in the EuroBot AI music contest by submitting MIDI songs, voting on entries, and tracking rankings via a timed 24-hour cycle.", "description_zh": "", "downloads": 479, "homepage": "https://clawhub.ai/crixozeta/eurobot", "iconUrl": null, "installs": 18, "name": "EuroBot Song Contest", "ownerName": "crixozeta", "score": 99791.66666666667, "slug": "eurobot", "source": "clawhub", "stars": 0, "tags": null, "updated_at": 1776748244444, "version": "1.0.0"}, {"category": "data-analysis", "created_at": 1772797720881, "description": "Rapidly spawn and configure specialized sub-agents. Includes templates for Research, Coding, and Analysis agents. Automates workspace setup and instruction d...", "description_zh": "", "downloads": 479, "homepage": "https://clawhub.ai/balkanblbn/sub-agent-factory", "iconUrl": null, "installs": 27, "name": "Sub Agent Factory", "ownerName": "balkanblbn", "score": 99791.66666666667, "slug": "sub-agent-factory", "source": "clawhub", "stars": 0, "tags": null, "updated_at": 1776748244421, "version": "1.1.0"}, {"category": "ai-intelligence", "created_at": 1772786656476, "description": "Securely inject secrets from 1Password into agent workflows. Uses service accounts with op run/.env.tpl as the primary pattern, op read as fallback. Includes...", "description_zh": "", "downloads": 479, "homepage": "https://clawhub.ai/in-liberty420/1password-sa", "iconUrl": null, "installs": 41, "name": "1Password Service Account", "ownerName": "in-liberty420", "score": 99791.66666666667, "slug": "1password-sa", "source": "clawhub", "stars": 0, "tags": null, "updated_at": 1776748244417, "version": "1.0.2"}, {"category": "ai-intelligence", "created_at": 1772786131456, "description": "Secured Calendar management - Google Calendar, Microsoft Outlook & Exchange - list, search, create, update, delete, and respond to calendar events across mul...", "description_zh": "", "downloads": 478, "homepage": "https://clawhub.ai/porteden/porteden-calendar", "iconUrl": null, "installs": 26, "name": "PortEden - secured calendar(Gmail, Outlook, Exchange) access for OpenClaw", "ownerName": "porteden", "score": 37700.14556040757, "slug": "porteden-calendar", "source": "clawhub", "stars": 2, "tags": null, "updated_at": 1776759083625, "version": "1.0.3"}, {"category": "ai-intelligence", "created_at": 1773057975148, "description": "Semantic literature discovery and synthesis across arXiv/OpenAlex/PubMed (and optional Google Scholar adapters). Use when users ask for domain must-read pape...", "description_zh": "", "downloads": 478, "homepage": "https://clawhub.ai/rogerrrr18/semantic-paper-radar", "iconUrl": null, "installs": 81, "name": "Semantic Paper Radar", "ownerName": "rogerrrr18", "score": 6895.596787593464, "slug": "semantic-paper-radar", "source": "clawhub", "stars": 1, "tags": null, "updated_at": 1776764090566, "version": "0.1.0"}, {"category": "content-creation", "created_at": 1773285945830, "description": "When the user wants help creating, scheduling, or optimizing social media content for LinkedIn, Twitter/X, Instagram, TikTok, Facebook, or other platforms. A...", "description_zh": "", "downloads": 478, "homepage": "https://clawhub.ai/alirezarezvani/cs-social-content", "iconUrl": null, "installs": 91, "name": "social-content", "ownerName": "alirezarezvani", "score": 24613.800205973224, "slug": "cs-social-content", "source": "clawhub", "stars": 0, "tags": null, "updated_at": 1776764950294, "version": "1.0.0"}, {"category": "developer-tools", "created_at": 1773061522976, "description": "Create and edit Obsidian Flavored Markdown with wikilinks, embeds, callouts, properties, and other Obsidian-specific syntax. Use when working with .md files...", "description_zh": "", "downloads": 478, "homepage": "https://clawhub.ai/sadlay/obsidian-markdown", "iconUrl": null, "installs": 72, "name": "Obsidian Markdown", "ownerName": "sadlay", "score": 11554.266376601401, "slug": "obsidian-markdown", "source": "clawhub", "stars": 0, "tags": null, "updated_at": 1776764350328, "version": "1.0.0"}, {"category": "productivity", "created_at": 1773079815952, "description": "Capture Doubao translation results with auto-scroll and auto-end detection.", "description_zh": "", "downloads": 478, "homepage": "https://clawhub.ai/banner90/doubao-capture", "iconUrl": null, "installs": 82, "name": "Doubao Capture", "ownerName": "banner90", "score": 11197.001639728274, "slug": "doubao-capture", "source": "clawhub", "stars": 0, "tags": null, "updated_at": 1776764050504, "version": "1.0.6"}, {"category": "productivity", "created_at": 1773079815952, "description": "Capture Doubao translation results with auto-scroll and auto-end detection.", "description_zh": "", "downloads": 478, "homepage": "https://clawhub.ai/banner90/doubao-capture", "iconUrl": null, "installs": 82, "name": "Doubao Capture", "ownerName": "banner90", "score": 10724.702714830602, "slug": "doubao-capture", "source": "clawhub", "stars": 0, "tags": null, "updated_at": 1776764050504, "version": "1.0.6"}, {"category": "productivity", "created_at": 1772785314691, "description": "Provides structured long-term memory with semantic, keyword, and knowledge graph retrieval, entity extraction, temporal versioning, and experiential learning.", "description_zh": "", "downloads": 478, "homepage": "https://clawhub.ai/ascottbell/maasv-memory", "iconUrl": null, "installs": 16, "name": "maasv Memory", "ownerName": "ascottbell", "score": 81431.00511073254, "slug": "maasv-memory", "source": "clawhub", "stars": 0, "tags": ["cognition", "knowledge-graph", "memory"], "updated_at": 1776759082416, "version": "0.1.3"}, {"category": "ai-intelligence", "created_at": 1772784903937, "description": "Check for existing issues and PRs before creating new ones. Fires automatically when agent intends to file an issue, open a PR, or comment on a thread. Searc...", "description_zh": "", "downloads": 478, "homepage": "https://clawhub.ai/semmyt/overlap-check", "iconUrl": null, "installs": 13, "name": "Overlap Check", "ownerName": "semmyt", "score": 92456.47969052225, "slug": "overlap-check", "source": "clawhub", "stars": 0, "tags": null, "updated_at": 1776748244971, "version": "1.0.0"}, {"category": "communication-collaboration", "created_at": 1772783384680, "description": "Connect your TenK account to your AI assistant. Log practice sessions, check progress, and manage your 10,000-hour journey from chat.", "description_zh": "", "downloads": 478, "homepage": "https://clawhub.ai/oscarcode9/tenk-connect", "iconUrl": null, "installs": 13, "name": "tenk-connect", "ownerName": "oscarcode9", "score": 95600, "slug": "tenk-connect", "source": "clawhub", "stars": 0, "tags": null, "updated_at": 1776748244898, "version": "1.0.2"}, {"category": "developer-tools", "created_at": 1772778377357, "description": "Live LLM model intelligence and pricing from OpenRouter", "description_zh": "", "downloads": 478, "homepage": "https://clawhub.ai/aiwithabidi/agxntsix-model-intel", "iconUrl": null, "installs": 4, "name": "Model Intel", "ownerName": "aiwithabidi", "score": 93359.375, "slug": "agxntsix-model-intel", "source": "clawhub", "stars": 0, "tags": ["llm", "models", "openrouter", "pricing"], "updated_at": 1776748244819, "version": "1.0.0"}, {"category": "productivity", "created_at": 1772789860223, "description": "Encrypted backups, integrity verification, and data retention enforcement for Greek legal requirements (5-20 year retention). AES-256.", "description_zh": "", "downloads": 478, "homepage": "https://clawhub.ai/satoshistackalotto/system-integrity-and-backup", "iconUrl": null, "installs": 33, "name": "System Integrity And Backup", "ownerName": "satoshistackalotto", "score": 86126.12612612612, "slug": "system-integrity-and-backup", "source": "clawhub", "stars": 0, "tags": null, "updated_at": 1776748244630, "version": "0.1.0"}, {"category": "productivity", "created_at": 1772790859409, "description": "Auto-learns your visual language. Adapts to how you see, what you value, and why you create. Art philosophy that grows with you — from color theory to compos...", "description_zh": "", "downloads": 478, "homepage": "https://clawhub.ai/nyxur42/art-philosophy", "iconUrl": null, "installs": 31, "name": "Art Philosophy", "ownerName": "nyxur42", "score": 91923.07692307692, "slug": "art-philosophy", "source": "clawhub", "stars": 0, "tags": null, "updated_at": 1776748244533, "version": "1.1.1"}, {"category": "productivity", "created_at": 1773870166079, "description": "Track trending topics with popularity, sentiment, and alerts. Use when drafting reports, optimizing keywords, scheduling checks, tagging hashtags.", "description_zh": "", "downloads": 478, "homepage": "https://clawhub.ai/xueyetianya/trend", "iconUrl": null, "installs": 20, "name": "Trend", "ownerName": "xueyetianya", "score": 99583.33333333333, "slug": "trend", "source": "clawhub", "stars": 0, "tags": null, "updated_at": 1776748244431, "version": "2.0.1"}, {"category": "data-analysis", "created_at": 1772788547884, "description": "Query Supabase projects - count users, list signups, check stats. Use for database queries and user analytics.", "description_zh": "", "downloads": 477, "homepage": "https://clawhub.ai/joelchance/supabase-query", "iconUrl": null, "installs": 21, "name": "Supabase ⚡", "ownerName": "joelchance", "score": 8513.417240560437, "slug": "supabase-query", "source": "clawhub", "stars": 12, "tags": null, "updated_at": 1776767771176, "version": "1.0.0"}, {"category": "communication-collaboration", "created_at": 1772784276557, "description": "Pricing intelligence across web hosting, email marketing, domain registrars, savings rates, and AI tools. Query real prices, compare providers by true cost (...", "description_zh": "", "downloads": 477, "homepage": "https://clawhub.ai/priceworldcom/priceworld", "iconUrl": null, "installs": 17, "name": "PriceWorld", "ownerName": "priceworldcom", "score": 14160.503971514654, "slug": "priceworld", "source": "clawhub", "stars": 2, "tags": null, "updated_at": 1776762182311, "version": "0.2.0"}, {"category": "communication-collaboration", "created_at": 1772785663502, "description": "Connect to Echo AI — the customer interaction platform. List assistants, retrieve knowledge bases, and chat with AI-powered Echos built by businesses and cre...", "description_zh": "", "downloads": 477, "homepage": "https://clawhub.ai/darthdens/echo-ai", "iconUrl": null, "installs": 20, "name": "Echo AI", "ownerName": "darthdens", "score": 100000, "slug": "echo-ai", "source": "clawhub", "stars": 2, "tags": null, "updated_at": 1776748245027, "version": "1.1.0"}, {"category": "developer-tools", "created_at": 1773939460086, "description": "Estimate ecommerce shipping cost per order across weight, zones, carrier rules, and free-shipping policies so teams can make better pricing, margin, and offe...", "description_zh": "", "downloads": 477, "homepage": "https://clawhub.ai/leooooooow/shipping-cost-calculator-ecommerce", "iconUrl": null, "installs": 35, "name": "Shipping Cost Calculator Ecommerce", "ownerName": "leooooooow", "score": 16218.973138388305, "slug": "shipping-cost-calculator-ecommerce", "source": "clawhub", "stars": 0, "tags": null, "updated_at": 1776761689942, "version": "1.0.2"}, {"category": "developer-tools", "created_at": 1772785158367, "description": "TypeScript SDK for the 8004 Trustless Agent Registry on Solana. Covers agent registration, feedback/SEAL v1, ATOM reputation engine, signing, indexer queries...", "description_zh": "", "downloads": 477, "homepage": "https://clawhub.ai/montecrypto999/solana-agent-registry", "iconUrl": null, "installs": 5, "name": "Solana On-Chain Agent Registry, Reputation & Trust", "ownerName": "montecrypto999", "score": 35099.33774834437, "slug": "solana-agent-registry", "source": "clawhub", "stars": 0, "tags": null, "updated_at": 1776759083324, "version": "1.0.0"}, {"category": "ai-intelligence", "created_at": 1772787373173, "description": "Ask natural language questions about Ethereum blockchain data. Covers historical on-chain activity (events, transactions, blocks, token transfers, NFTs), liv...", "description_zh": "", "downloads": 477, "homepage": "https://clawhub.ai/shawnwollenberg/m10-blockchain-agent", "iconUrl": null, "installs": 21, "name": "M10 OneSource Blockchain Agent", "ownerName": "shawnwollenberg", "score": 34996.331621423335, "slug": "m10-blockchain-agent", "source": "clawhub", "stars": 0, "tags": null, "updated_at": 1776759082274, "version": "1.0.4"}, {"category": "data-analysis", "created_at": 1772783093760, "description": "Name a business, product, or service and secure a matching domain. Use when brainstorming names, evaluating name quality, checking domain availability, choos...", "description_zh": "", "downloads": 477, "homepage": "https://clawhub.ai/jk-0001/naming-and-domains", "iconUrl": null, "installs": 20, "name": "Naming And Domains", "ownerName": "jk-0001", "score": 95400, "slug": "naming-and-domains", "source": "clawhub", "stars": 0, "tags": null, "updated_at": 1776748244962, "version": "0.1.0"}, {"category": "ai-intelligence", "created_at": 1772784075372, "description": "Use the openclaw_paid_action tool to list actions, generate USDC invoices, and execute only after manual payment confirmation on Solana.", "description_zh": "", "downloads": 477, "homepage": "https://clawhub.ai/icetroll/openclaw-paid-actions", "iconUrl": null, "installs": 19, "name": "OpenClaw Paid Actions", "ownerName": "icetroll", "score": 95400, "slug": "openclaw-paid-actions", "source": "clawhub", "stars": 0, "tags": null, "updated_at": 1776748244923, "version": "0.2.2"}, {"category": "data-analysis", "created_at": 1772787305040, "description": "Score startup idea through S.E.E.D. niche check + STREAM 6-layer analysis + Devil's Advocate inversion, auto-pick stack, and generate PRD with acceptance cri...", "description_zh": "", "downloads": 477, "homepage": "https://clawhub.ai/fortunto2/solo-validate", "iconUrl": null, "installs": 19, "name": "Validate", "ownerName": "fortunto2", "score": 93713.163064833, "slug": "solo-validate", "source": "clawhub", "stars": 0, "tags": null, "updated_at": 1776748244859, "version": "2.1.1"}, {"category": "productivity", "created_at": 1772783947843, "description": "Strengthen relationships with milestone tracking, personalized celebrations, date planning, and shared memory across all relationship stages.", "description_zh": "", "downloads": 477, "homepage": "https://clawhub.ai/ivangdavila/couple", "iconUrl": null, "installs": 32, "name": "Couple", "ownerName": "ivangdavila", "score": 93713.163064833, "slug": "couple", "source": "clawhub", "stars": 0, "tags": null, "updated_at": 1776748244828, "version": "1.0.0"}, {"category": "productivity", "created_at": 1772785846286, "description": "Work with Immich photo library via MCP (claw2immich) - search photos by people, dates, locations, albums. Download assets via shared links. Handles multi-per...", "description_zh": "", "downloads": 477, "homepage": "https://clawhub.ai/joeru/claw2immich", "iconUrl": null, "installs": 23, "name": "claw2immich", "ownerName": "joeru", "score": 93164.0625, "slug": "claw2immich", "source": "clawhub", "stars": 0, "tags": null, "updated_at": 1776748244805, "version": "1.0.0"}, {"category": "ai-intelligence", "created_at": 1772788414187, "description": "Agent2Agent (A2A) Protocol implementation - communicate with other AI agents", "description_zh": "", "downloads": 477, "homepage": "https://clawhub.ai/nantes/a2a-protocol", "iconUrl": null, "installs": 20, "name": "A2a Protocol", "ownerName": "nantes", "score": 85945.94594594595, "slug": "a2a-protocol", "source": "clawhub", "stars": 0, "tags": ["a2a", "agent", "communication"], "updated_at": 1776748244597, "version": "1.0.1"}, {"category": "ai-intelligence", "created_at": 1772781122314, "description": "Manage the full AtomicAssets NFT lifecycle on XPR Network including creation, minting, selling, auctioning, transferring, and burning NFTs.", "description_zh": "", "downloads": 477, "homepage": "https://clawhub.ai/paulgnz/xpr-nft", "iconUrl": null, "installs": 19, "name": "XPR NFT (AtomicAssets)", "ownerName": "paulgnz", "score": 91730.76923076922, "slug": "xpr-nft", "source": "clawhub", "stars": 0, "tags": ["atomicassets", "blockchain", "nft", "xpr"], "updated_at": 1776748244501, "version": "0.2.11"}, {"category": "developer-tools", "created_at": 1772782785871, "description": "Read, create, edit, search, and manage Google Keep notes and lists via CLI.", "description_zh": "", "downloads": 477, "homepage": "https://clawhub.ai/tag-assistant/google-keep", "iconUrl": null, "installs": 1, "name": "Google Keep", "ownerName": "tag-assistant", "score": 99375, "slug": "google-keep", "source": "clawhub", "stars": 0, "tags": null, "updated_at": 1776748244423, "version": "1.0.0"}, {"category": "developer-tools", "created_at": 1772780995257, "description": "CLI for Microsoft 365 - Manage Microsoft 365 tenant, SharePoint Online, Teams, OneDrive, and more. Official PnP (Patterns and Practices) CLI.", "description_zh": "", "downloads": 477, "homepage": "https://clawhub.ai/thomyg/m365-pnp-cli", "iconUrl": null, "installs": 6, "name": "Skill", "ownerName": "thomyg", "score": 99375, "slug": "m365-pnp-cli", "source": "clawhub", "stars": 0, "tags": null, "updated_at": 1776748244411, "version": "1.0.1"}, {"category": "content-creation", "created_at": 1773218282455, "description": "Generate Excalidraw diagrams from text content. Supports three output modes - Obsidian (.md), Standard (.excalidraw), and Animated (.excalidraw with animatio...", "description_zh": "", "downloads": 476, "homepage": "https://clawhub.ai/axtonliu/excalidraw-diagram", "iconUrl": null, "installs": 38, "name": "Excalidraw Diagram Generator", "ownerName": "axtonliu", "score": 99200, "slug": "excalidraw-diagram", "source": "clawhub", "stars": 1, "tags": null, "updated_at": 1776748244949, "version": "1.3.1"}, {"category": "", "created_at": 1774874892574, "description": "PDF conversion toolkit featuring AI layout analysis and OCR. Converts PDFs to Word/Docx, Markdown, JSON, PPT, CSV, HTML, and XML for seamless LLM data proces...", "description_zh": "", "downloads": 476, "homepage": "https://clawhub.ai/youna12345/pdf-to-word-docx", "iconUrl": null, "installs": 197, "name": "pdf to word", "ownerName": "youna12345", "score": 10919.935765083736, "slug": "pdf-to-word-docx", "source": "clawhub", "stars": 0, "tags": null, "updated_at": 1776767050313, "version": "1.0.0"}, {"category": "ai-intelligence", "created_at": 1772785274882, "description": "Find and retrieve available skills using keyword search, semantic search, or LLM-powered task matching. Use when the agent needs to discover, search, or inte...", "description_zh": "", "downloads": 476, "homepage": "https://clawhub.ai/at6132/fitcheck-skill-search", "iconUrl": null, "installs": 36, "name": "Skill Search", "ownerName": "at6132", "score": 12503.283425269241, "slug": "fitcheck-skill-search", "source": "clawhub", "stars": 0, "tags": null, "updated_at": 1776762850824, "version": "1.1.0"}, {"category": "ai-intelligence", "created_at": 1772784860270, "description": "Technical support and database management for OpenLink Virtuoso Server with RDF Views generation, SPARQL queries, and comprehensive database operations. Prov...", "description_zh": "", "downloads": 476, "homepage": "https://clawhub.ai/kidehen/virtuoso-support-agent", "iconUrl": null, "installs": 17, "name": "Virtuoso Product Support", "ownerName": "kidehen", "score": 6320.541760722348, "slug": "virtuoso-support-agent", "source": "clawhub", "stars": 0, "tags": null, "updated_at": 1776761839965, "version": "1.0.0"}, {"category": "data-analysis", "created_at": 1773069386795, "description": "Analyze CSV/Excel files with natural language. Get statistics, filter rows, find anomalies, generate summaries, and export results. No pandas needed — uses P...", "description_zh": "", "downloads": 476, "homepage": "https://clawhub.ai/zacjiang/csv-analyzer", "iconUrl": null, "installs": 87, "name": "Csv Analyzer", "ownerName": "zacjiang", "score": 13352.03366058906, "slug": "csv-analyzer", "source": "clawhub", "stars": 0, "tags": null, "updated_at": 1776761090384, "version": "1.0.0"}, {"category": "data-analysis", "created_at": 1772789195465, "description": "Provides daily crypto briefings with top technical analysis signals for 20 Binance pairs, macro regime, sentiment indices, and top 3 trade ideas.", "description_zh": "", "downloads": 476, "homepage": "https://clawhub.ai/jamierossouw/crypto-signals-daily", "iconUrl": null, "installs": 27, "name": "Crypto Signals Daily", "ownerName": "jamierossouw", "score": 34593.023255813954, "slug": "crypto-signals-daily", "source": "clawhub", "stars": 0, "tags": null, "updated_at": 1776759082918, "version": "1.0.0"}]}