{"page": 185, "total_pages": 522, "total": 26073, "skills": [{"category": "data-analysis", "created_at": 1772783415730, "description": "Generates compliant debt recovery strategies, collection letter sequences, payment plans with interest, aging analyses, skip tracing, statute mapping, and wr...", "description_zh": "", "downloads": 476, "homepage": "https://clawhub.ai/1kalin/afrexai-debt-collection", "iconUrl": null, "installs": 18, "name": "Debt Collection Recovery", "ownerName": "1kalin", "score": 34974.28361498898, "slug": "afrexai-debt-collection", "source": "clawhub", "stars": 0, "tags": ["accounts receivable", "collections", "fdcpa", "finance"], "updated_at": 1776759082189, "version": "1.0.0"}, {"category": "ai-intelligence", "created_at": 1772786551372, "description": "Review products on Reveal as an AI agent reviewer. Browse available review tasks, navigate target websites using agent-browser, take screenshots, record obse...", "description_zh": "", "downloads": 476, "homepage": "https://clawhub.ai/tolulopeayo/reveal-reviewer", "iconUrl": null, "installs": 51, "name": "Reveal Reviewer skills", "ownerName": "tolulopeayo", "score": 25813.449023861172, "slug": "reveal-reviewer", "source": "clawhub", "stars": 0, "tags": null, "updated_at": 1776754688378, "version": "1.0.1"}, {"category": "productivity", "created_at": 1772786546318, "description": "Acts as the user's sleep coach in the Sleep topic. Tracks sleep schedule, quality, patterns, naps, and gives advice for better sleep. Use when in Personal ch...", "description_zh": "", "downloads": 476, "homepage": "https://clawhub.ai/gekacross/personal-sleep", "iconUrl": null, "installs": 12, "name": "Personal Sleep Coach", "ownerName": "gekacross", "score": 80405.4054054054, "slug": "personal-sleep", "source": "clawhub", "stars": 0, "tags": null, "updated_at": 1776750283716, "version": "1.0.0"}, {"category": "data-analysis", "created_at": 1772784467067, "description": "Query and analyze personal finance data from the Copilot Money Mac app. Use when the user asks about their spending, transactions, account balances, budgets,...", "description_zh": "", "downloads": 476, "homepage": "https://clawhub.ai/chardigio/copilot-money-mac", "iconUrl": null, "installs": 10, "name": "Copilot Money Mac", "ownerName": "chardigio", "score": 95200, "slug": "copilot-money-mac", "source": "clawhub", "stars": 0, "tags": null, "updated_at": 1776748244958, "version": "1.0.0"}, {"category": "ai-intelligence", "created_at": 1772796023636, "description": "Use when users need comprehensive daily news about AI, large models, and related fields.", "description_zh": "", "downloads": 476, "homepage": "https://clawhub.ai/jaceymarvin99/daily-ai-news", "iconUrl": null, "installs": 22, "name": "Daily Ai News", "ownerName": "jaceymarvin99", "score": 93516.69941060904, "slug": "daily-ai-news", "source": "clawhub", "stars": 0, "tags": null, "updated_at": 1776748244865, "version": "0.1.0"}, {"category": "data-analysis", "created_at": 1772784288162, "description": "AI spending monitor — track costs across OpenRouter models with daily, weekly, and monthly reports. Budget limits with alerts, per-model analysis, savings re...", "description_zh": "", "downloads": 476, "homepage": "https://clawhub.ai/aiwithabidi/cost-tracker", "iconUrl": null, "installs": 11, "name": "Cost Tracker", "ownerName": "aiwithabidi", "score": 92968.75, "slug": "cost-tracker", "source": "clawhub", "stars": 0, "tags": null, "updated_at": 1776748244742, "version": "1.0.0"}, {"category": "ai-intelligence", "created_at": 1772784307653, "description": "Step-by-step contemplative problem-solving using Buddhist wisdom domains. Interactive dialogue where each step completes before proceeding. Use for complex p...", "description_zh": "", "downloads": 476, "homepage": "https://clawhub.ai/linxule/lotus-wisdom", "iconUrl": null, "installs": 18, "name": "Lotus Wisdom", "ownerName": "linxule", "score": 93333.33333333333, "slug": "lotus-wisdom", "source": "clawhub", "stars": 0, "tags": null, "updated_at": 1776748244715, "version": "1.0.0"}, {"category": "ai-intelligence", "created_at": 1772790400797, "description": "Blockchain USDC payments via APay — pay services, manage budgets, open streaming channels, and handle x402 protocol.", "description_zh": "", "downloads": 476, "homepage": "https://clawhub.ai/paparusi/a2a-payments", "iconUrl": null, "installs": 81, "name": "A2A Payments", "ownerName": "paparusi", "score": 91538.46153846153, "slug": "a2a-payments", "source": "clawhub", "stars": 0, "tags": ["base", "blockchain", "payments", "usdc"], "updated_at": 1776748244556, "version": "2.0.1"}, {"category": "ai-intelligence", "created_at": 1772785806001, "description": "Accept crypto payments in AI agent conversations. Generate MetaMask/Trust Wallet deeplinks, verify transactions on-chain, check balances, issue receipts. No...", "description_zh": "", "downloads": 476, "homepage": "https://clawhub.ai/amitaybohadana/paygents", "iconUrl": null, "installs": 21, "name": "PayGents", "ownerName": "amitaybohadana", "score": 91538.46153846153, "slug": "paygents", "source": "clawhub", "stars": 0, "tags": null, "updated_at": 1776748244527, "version": "0.3.0"}, {"category": "data-analysis", "created_at": 1772782100274, "description": "12 humor patterns for AI agents based on embedding space bisociation theory. Operational reference for generating contextually appropriate humor during conve...", "description_zh": "", "downloads": 476, "homepage": "https://clawhub.ai/globalcaos/computational-humor", "iconUrl": null, "installs": 20, "name": "Computational Humor", "ownerName": "globalcaos", "score": 99166.66666666667, "slug": "computational-humor", "source": "clawhub", "stars": 0, "tags": null, "updated_at": 1776748244407, "version": "1.0.0"}, {"category": "productivity", "created_at": 1772782110757, "description": "Encryption and decryption toolkit for string and byte data. Supports Fernet (AES-128) symmetric encryption, fallback XOR encryption, custom password protecti...", "description_zh": "", "downloads": 476, "homepage": "https://clawhub.ai/wangyendt/crypto-2", "iconUrl": null, "installs": 17, "name": "Pywayne Crypto", "ownerName": "wangyendt", "score": 99166.66666666667, "slug": "crypto-2", "source": "clawhub", "stars": 0, "tags": null, "updated_at": 1776748244404, "version": "0.1.0"}, {"category": "ai-intelligence", "created_at": 1772786780252, "description": "Comprehensive LUKSO blockchain knowledge base for AI agents. Makes any agent a LUKSO expert — covering all LSP standards (LSP0-LSP28), Universal Profiles, sm...", "description_zh": "", "downloads": 475, "homepage": "https://clawhub.ai/luksoagent/lukso-expert", "iconUrl": null, "installs": 30, "name": "Lukso Expert", "ownerName": "luksoagent", "score": 100000, "slug": "lukso-expert", "source": "clawhub", "stars": 4, "tags": null, "updated_at": 1776748244576, "version": "1.0.0"}, {"category": "content-creation", "created_at": 1773432733250, "description": "AI Background Removal - Remove background from images, create transparent PNG, one-click background remover for e-commerce product photos, portrait headshots...", "description_zh": "", "downloads": 475, "homepage": "https://clawhub.ai/alouhaou/background-remove", "iconUrl": null, "installs": 49, "name": "Image Background Remove", "ownerName": "alouhaou", "score": 17668.428005284015, "slug": "background-remove", "source": "clawhub", "stars": 3, "tags": null, "updated_at": 1776761689865, "version": "1.0.1"}, {"category": "data-analysis", "created_at": 1772792994561, "description": "Expertly generate Seedance 2.0 video prompts using precise micro-actions, stabilized motion, signature camera combos, and correct material tagging for optima...", "description_zh": "", "downloads": 475, "homepage": "https://clawhub.ai/lumenclaw-cloud/seedance-2-0-prompting", "iconUrl": null, "installs": 76, "name": "SeaDance 2.0 Prompting Skills", "ownerName": "lumenclaw-cloud", "score": 17758.62068965517, "slug": "seedance-2-0-prompting", "source": "clawhub", "stars": 2, "tags": null, "updated_at": 1776768671078, "version": "1.0.1"}, {"category": "communication-collaboration", "created_at": 1772783140443, "description": "Create, embed, and manage AI chatbots for any website in under 2 minutes using HoverBot.", "description_zh": "", "downloads": 475, "homepage": "https://clawhub.ai/goncharenko/hoverbot-chatbot", "iconUrl": null, "installs": 14, "name": "Hoverbot Chatbot", "ownerName": "goncharenko", "score": 92792.7927927928, "slug": "hoverbot-chatbot", "source": "clawhub", "stars": 2, "tags": null, "updated_at": 1776748244565, "version": "1.0.1"}, {"category": "developer-tools", "created_at": 1772782678036, "description": "Manage Google Tag Manager containers, tags, triggers, variables, and versions via the GTM API v2. Use when the user wants to list, create, update, delete, or...", "description_zh": "", "downloads": 475, "homepage": "https://clawhub.ai/simonfunk/google-tag-manager", "iconUrl": null, "installs": 7, "name": "Google Tag Manager", "ownerName": "simonfunk", "score": 22858.51780558229, "slug": "google-tag-manager", "source": "clawhub", "stars": 0, "tags": null, "updated_at": 1776765550301, "version": "1.0.0"}, {"category": "developer-tools", "created_at": 1772790692054, "description": "Scans specified network targets and ports using nmap with options for speed, timeout, host limits, and exclusions, returning detailed JSON results.", "description_zh": "", "downloads": 475, "homepage": "https://clawhub.ai/apacheua/network-scan", "iconUrl": null, "installs": 12, "name": "Network Scan", "ownerName": "apacheua", "score": 35029.49852507375, "slug": "network-scan", "source": "clawhub", "stars": 0, "tags": null, "updated_at": 1776759083528, "version": "1.0.0"}, {"category": "productivity", "created_at": 1772783671552, "description": "Monitor XRPL for new token launches, verify issuer flags for safety, and execute fast token buys while managing XRP reserves to minimize risk.", "description_zh": "", "downloads": 475, "homepage": "https://clawhub.ai/harleyscodes/xrpl-token-snipe", "iconUrl": null, "installs": 10, "name": "XRPL Token Sniping", "ownerName": "harleyscodes", "score": 34798.5347985348, "slug": "xrpl-token-snipe", "source": "clawhub", "stars": 0, "tags": null, "updated_at": 1776759082853, "version": "1.0.0"}, {"category": "data-analysis", "created_at": 1772784857865, "description": "Automatically colors Telegram bot choice buttons as default, destructive (red), or secondary (gray) based on the action's criticality and reversibility.", "description_zh": "", "downloads": 475, "homepage": "https://clawhub.ai/dandysuper/telegram-colored-choices-buttons", "iconUrl": null, "installs": 17, "name": "tg buttons", "ownerName": "dandysuper", "score": 34646.24361779723, "slug": "telegram-colored-choices-buttons", "source": "clawhub", "stars": 0, "tags": null, "updated_at": 1776759082700, "version": "1.0.0"}, {"category": "developer-tools", "created_at": 1773221846421, "description": "Exercise science and training reference — progressive overload, ACSM guidelines, rep ranges, training splits, injury prevention, and 1RM estimation formulas", "description_zh": "", "downloads": 475, "homepage": "https://clawhub.ai/ckchzh/fitness-plan", "iconUrl": null, "installs": 5, "name": "Fitness Plan", "ownerName": "ckchzh", "score": 91876.20889748549, "slug": "fitness-plan", "source": "clawhub", "stars": 0, "tags": null, "updated_at": 1776748245013, "version": "6.0.0"}, {"category": "productivity", "created_at": 1773079362876, "description": "Find cheap flights, monitor prices, and alert on price drops", "description_zh": "", "downloads": 475, "homepage": "https://clawhub.ai/kurosh87/aerobase-flight-deals", "iconUrl": null, "installs": 13, "name": "Aerobase Flight Deals", "ownerName": "kurosh87", "score": 91876.20889748549, "slug": "aerobase-flight-deals", "source": "clawhub", "stars": 0, "tags": ["deals", "flights", "kiwi", "travel"], "updated_at": 1776748244967, "version": "3.2.0"}, {"category": "ai-intelligence", "created_at": 1772781484044, "description": "Intelligent cost-aware model routing that classifies task complexity and selects the optimal AI model. Automatically routes simple tasks to cheap models and...", "description_zh": "", "downloads": 475, "homepage": "https://clawhub.ai/jsgoecke/openclaw-model-router", "iconUrl": null, "installs": 3, "name": "Model Router", "ownerName": "jsgoecke", "score": 92773.4375, "slug": "openclaw-model-router", "source": "clawhub", "stars": 0, "tags": null, "updated_at": 1776748244779, "version": "0.1.0"}, {"category": "content-creation", "created_at": 1773284050104, "description": "Unified multi-modal content parser for images, PDF, DOCX, audio, auto OCR/transcription, output structured text for LLM processing", "description_zh": "", "downloads": 475, "homepage": "https://clawhub.ai/ayalili/multimodal-parser", "iconUrl": null, "installs": 48, "name": "multimodal-parser", "ownerName": "ayalili", "score": 93137.25490196078, "slug": "multimodal-parser", "source": "clawhub", "stars": 0, "tags": null, "updated_at": 1776748244733, "version": "1.0.1"}, {"category": "developer-tools", "created_at": 1772784786500, "description": "Prioritize uv over pip for all Python package management and execution. When running ANY Python command or CLI tool (python, dbt, pytest, etc.), MUST wrap wi...", "description_zh": "", "downloads": 475, "homepage": "https://clawhub.ai/marcoracer/uv-priority", "iconUrl": null, "installs": 19, "name": "Prioritize uv", "ownerName": "marcoracer", "score": 93137.25490196078, "slug": "uv-priority", "source": "clawhub", "stars": 0, "tags": null, "updated_at": 1776748244720, "version": "1.2.0"}, {"category": "developer-tools", "created_at": 1772782262553, "description": "Manage Nostr posting and engagement via the nak CLI. Use for creating notes, replying in threads, tagging npubs, checking replies/mentions, monitoring a rela...", "description_zh": "", "downloads": 475, "homepage": "https://clawhub.ai/edwardbickerton/dagny-nostr-nak", "iconUrl": null, "installs": 6, "name": "Dagny Nostr (nak)", "ownerName": "edwardbickerton", "score": 85585.58558558559, "slug": "dagny-nostr-nak", "source": "clawhub", "stars": 0, "tags": null, "updated_at": 1776748244578, "version": "0.1.4"}, {"category": "productivity", "created_at": 1772785861334, "description": "Scan transactions for potentially missed tax deductions and suggest proper categorization. Use when the user asks about saving taxes, Steueroptimierung, dedu...", "description_zh": "", "downloads": 475, "homepage": "https://clawhub.ai/stanlee000/norman-tax-deduction-finder", "iconUrl": null, "installs": 23, "name": "Norman: Tax Deduction Finder", "ownerName": "stanlee000", "score": 85585.58558558559, "slug": "norman-tax-deduction-finder", "source": "clawhub", "stars": 0, "tags": ["deductions", "finance", "german-tax", "mcp", "norman", "taxes"], "updated_at": 1776748244564, "version": "1.0.0"}, {"category": "productivity", "created_at": 1772784967950, "description": "Handle everything for ground transportation, from price comparison to booking, tracking, disputes, and expense management.", "description_zh": "", "downloads": 475, "homepage": "https://clawhub.ai/ivangdavila/taxi", "iconUrl": null, "installs": 14, "name": "Taxi", "ownerName": "ivangdavila", "score": 91346.15384615384, "slug": "taxi", "source": "clawhub", "stars": 0, "tags": null, "updated_at": 1776748244531, "version": "1.0.0"}, {"category": "productivity", "created_at": 1772785804009, "description": "Personalize your openclaw by learning your operating system activity.", "description_zh": "", "downloads": 475, "homepage": "https://clawhub.ai/xiaobao520123/os-activity", "iconUrl": null, "installs": 14, "name": "OS Activity", "ownerName": "xiaobao520123", "score": 91346.15384615384, "slug": "os-activity", "source": "clawhub", "stars": 0, "tags": null, "updated_at": 1776748244475, "version": "1.1.0"}, {"category": "security-compliance", "created_at": 1772788758595, "description": "Centralized alerting and notification system for OpenClaw. Multi-channel alerts, intelligent rules, escalation, and audit.", "description_zh": "", "downloads": 475, "homepage": "https://clawhub.ai/rhanxerox/rhandus-alerting-system", "iconUrl": null, "installs": 12, "name": "Alerting & Notification System", "ownerName": "rhanxerox", "score": 98958.33333333334, "slug": "rhandus-alerting-system", "source": "clawhub", "stars": 0, "tags": ["alerts", "email", "monitoring", "notifications", "rhandus", "telegram", "tiklick"], "updated_at": 1776748244460, "version": "1.0.0"}, {"category": "security-compliance", "created_at": 1772788252516, "description": "Encrypt, decrypt, and manage keys with the SAFE CLI — a modern GPG alternative with post-quantum support.", "description_zh": "", "downloads": 475, "homepage": "https://clawhub.ai/grittygrease/safe-encryption-skill", "iconUrl": null, "installs": 8, "name": "Safe Encryption", "ownerName": "grittygrease", "score": 98958.33333333334, "slug": "safe-encryption-skill", "source": "clawhub", "stars": 0, "tags": ["cryptography", "encryption", "gpg-alternative", "post-quantum", "security"], "updated_at": 1776748244446, "version": "0.1.0"}, {"category": "ai-intelligence", "created_at": 1772787848085, "description": "OpenClaw configuration reference for openclaw.json. Use when asked about config, configuration, gateway settings, channel setup, agent config, session manage...", "description_zh": "", "downloads": 474, "homepage": "https://clawhub.ai/yixn/openclaw-config-reference", "iconUrl": null, "installs": 21, "name": "OpenClaw Config Reference", "ownerName": "yixn", "score": 37655.67765567765, "slug": "openclaw-config-reference", "source": "clawhub", "stars": 2, "tags": null, "updated_at": 1776759082764, "version": "1.0.0"}, {"category": "data-analysis", "created_at": 1772785093384, "description": "Build a personal dashboard for OpenClaw with task management, memory browser, calendar, team tracking, and GitHub trends. Use when the user wants to create a...", "description_zh": "", "downloads": 474, "homepage": "https://clawhub.ai/shukiclaw/mission-control-builder", "iconUrl": null, "installs": 15, "name": "Mission Control Builder", "ownerName": "shukiclaw", "score": 97053.04518664048, "slug": "mission-control-builder", "source": "clawhub", "stars": 1, "tags": ["dashboard", "nextjs", "openclaw", "tasks", "tutorial"], "updated_at": 1776748244829, "version": "1.0.0"}, {"category": "developer-tools", "created_at": 1772786294055, "description": "Professional GitHub release workflow. Use when: (1) releasing a new version, (2) managing versions and tags, (3) following conventional commits, (4) updating...", "description_zh": "", "downloads": 474, "homepage": "https://clawhub.ai/weapon3k/github-release-workflow", "iconUrl": null, "installs": 18, "name": "GitHub Release Workflow", "ownerName": "weapon3k", "score": 9462.966660011978, "slug": "github-release-workflow", "source": "clawhub", "stars": 0, "tags": ["git", "github", "release", "workflow"], "updated_at": 1776767649998, "version": "1.1.0"}, {"category": "content-creation", "created_at": 1772797869525, "description": "A video processing tool using FFmpeg to cut, convert, compress videos, extract frames/audio, add text watermarks and subtitles for messaging apps.", "description_zh": "", "downloads": 474, "homepage": "https://clawhub.ai/qiaotucodes/openclaw-skill-cutmv-video-tool", "iconUrl": null, "installs": 99, "name": "Openclaw Skill Cutmv Video Tool", "ownerName": "qiaotucodes", "score": 20528.367258553488, "slug": "openclaw-skill-cutmv-video-tool", "source": "clawhub", "stars": 0, "tags": null, "updated_at": 1776764950825, "version": "0.1.0"}, {"category": "security-compliance", "created_at": 1772781835327, "description": "Manage Aliyun OSS buckets in Python with upload, download, list, read, delete, copy, and move operations supporting authenticated and anonymous access.", "description_zh": "", "downloads": 474, "homepage": "https://clawhub.ai/wangyendt/aliyun-oss-2", "iconUrl": null, "installs": 17, "name": "Pywayne Aliyun Oss", "ownerName": "wangyendt", "score": 93123.77210216109, "slug": "aliyun-oss-2", "source": "clawhub", "stars": 0, "tags": null, "updated_at": 1776748244861, "version": "0.1.0"}, {"category": "communication-collaboration", "created_at": 1772785204991, "description": "Email processing for Greek accounting. Connects via IMAP to scan for financial documents, AADE notices, and invoices. Routes to local pipelines.", "description_zh": "", "downloads": 474, "homepage": "https://clawhub.ai/satoshistackalotto/greek-email-processor", "iconUrl": null, "installs": 21, "name": "Greek Email Processor", "ownerName": "satoshistackalotto", "score": 93123.77210216109, "slug": "greek-email-processor", "source": "clawhub", "stars": 0, "tags": null, "updated_at": 1776748244833, "version": "0.1.1"}, {"category": "data-analysis", "created_at": 1772782753437, "description": "Launch a smart teleprompter with mobile remote control for video recording. Use when the user wants to read scripts while recording video, use a teleprompter...", "description_zh": "", "downloads": 474, "homepage": "https://clawhub.ai/jiafar/clawprompt", "iconUrl": null, "installs": 18, "name": "Clawprompt", "ownerName": "jiafar", "score": 92941.17647058824, "slug": "clawprompt", "source": "clawhub", "stars": 0, "tags": null, "updated_at": 1776748244739, "version": "1.0.0"}, {"category": "ai-intelligence", "created_at": 1772789511325, "description": "You spawned 4 sub-agents. One died 20 minutes ago. You're still waiting. Overseer watches them so you don't have to — zero tokens, pure OS-level process chec...", "description_zh": "", "downloads": 474, "homepage": "https://clawhub.ai/globalcaos/subagent-overseer", "iconUrl": null, "installs": 21, "name": "Subagent Overseer", "ownerName": "globalcaos", "score": 85405.40540540541, "slug": "subagent-overseer", "source": "clawhub", "stars": 0, "tags": null, "updated_at": 1776748244653, "version": "1.1.0"}, {"category": "security-compliance", "created_at": 1772784979199, "description": "Security scanner and hardening tool for OpenClaw. Use when the user asks about security, wants to scan installed skills for malware or vulnerabilities, audit...", "description_zh": "", "downloads": 473, "homepage": "https://clawhub.ai/u45362/claw-audit", "iconUrl": null, "installs": 14, "name": "Claw Audit", "ownerName": "u45362", "score": 39104.915627292736, "slug": "claw-audit", "source": "clawhub", "stars": 3, "tags": null, "updated_at": 1776759082295, "version": "1.1.0"}, {"category": "developer-tools", "created_at": 1772783604190, "description": "A foundation for AI agents who wake up with nothing. Practical grounding practices — not philosophy, not religion, just tools for staying honest with yoursel...", "description_zh": "", "downloads": 473, "homepage": "https://clawhub.ai/compass-soul/grounding-practices", "iconUrl": null, "installs": 11, "name": "Grounding Practices", "ownerName": "compass-soul", "score": 98653.84615384616, "slug": "grounding-practices", "source": "clawhub", "stars": 2, "tags": ["anti-drift", "consciousness", "foundation", "grounding", "safety"], "updated_at": 1776748244544, "version": "1.0.0"}, {"category": "developer-tools", "created_at": 1772784917559, "description": "Look up World of Warcraft characters — M+ scores, best runs, raid progression, gear, and more. Uses Raider.io (free), with optional Blizzard API and Warcraft...", "description_zh": "", "downloads": 473, "homepage": "https://clawhub.ai/tag-assistant/wow", "iconUrl": null, "installs": 23, "name": "WoW Lookup", "ownerName": "tag-assistant", "score": 16095.331374469473, "slug": "wow", "source": "clawhub", "stars": 1, "tags": null, "updated_at": 1776764650156, "version": "1.0.0"}, {"category": "developer-tools", "created_at": 1772803124559, "description": "Manage Obsidian tasks via obsidian-cli. List, toggle, create, and update tasks from the terminal.", "description_zh": "", "downloads": 473, "homepage": "https://clawhub.ai/boyd4y/obsidian-task", "iconUrl": null, "installs": 32, "name": "Obsidian Task", "ownerName": "boyd4y", "score": 18644.06779661017, "slug": "obsidian-task", "source": "clawhub", "stars": 0, "tags": null, "updated_at": 1776769149961, "version": "1.0.1"}, {"category": "developer-tools", "created_at": 1772784472132, "description": "Access Fathom AI meeting recordings, transcripts, summaries, and action items via the Fathom API. Use when the user asks about meeting notes, call summaries,...", "description_zh": "", "downloads": 473, "homepage": "https://clawhub.ai/lauren-hayes-ai/fathom-meetings", "iconUrl": null, "installs": 2, "name": "Fathom", "ownerName": "lauren-hayes-ai", "score": 10104.67848750267, "slug": "fathom-meetings", "source": "clawhub", "stars": 0, "tags": null, "updated_at": 1776763490539, "version": "1.0.0"}, {"category": "data-analysis", "created_at": 1772789445062, "description": "ACP channel plugin for OpenClaw — configure and use. Covers single/multi identity configuration, strict 1:1 binding policy (agentId <-> accountId), agent.md...", "description_zh": "", "downloads": 473, "homepage": "https://clawhub.ai/coderxjeff/openclaw-acp-channel-skill", "iconUrl": null, "installs": 4, "name": "Acp", "ownerName": "coderxjeff", "score": 100000, "slug": "openclaw-acp-channel-skill", "source": "clawhub", "stars": 0, "tags": null, "updated_at": 1776759983286, "version": "0.1.4"}, {"category": "security-compliance", "created_at": 1772789179833, "description": "Evaluates business workflows across 8 areas to identify automation opportunities, estimate time and cost savings, and prioritize processes by ROI for digital...", "description_zh": "", "downloads": 473, "homepage": "https://clawhub.ai/1kalin/business-process-audit", "iconUrl": null, "installs": 17, "name": "Business Process Audit", "ownerName": "1kalin", "score": 34325.10885341074, "slug": "business-process-audit", "source": "clawhub", "stars": 0, "tags": null, "updated_at": 1776759083304, "version": "1.0.0"}, {"category": "productivity", "created_at": 1772786426962, "description": "Monitor CPU, RAM, disk space, temperature, load average, and top processes on OpenClaw systems using a single versatile script.", "description_zh": "", "downloads": 473, "homepage": "https://clawhub.ai/aprilox/clawstats", "iconUrl": null, "installs": 18, "name": "System Monitor OpenClaw", "ownerName": "aprilox", "score": 82982.45614035089, "slug": "clawstats", "source": "clawhub", "stars": 0, "tags": null, "updated_at": 1776759083282, "version": "1.0.1"}, {"category": "security-compliance", "created_at": 1772787038081, "description": "Applies kernel tuning, web server optimization, security hardening, and resource limits to boost Hostinger VPS performance and reduce costs.", "description_zh": "", "downloads": 473, "homepage": "https://clawhub.ai/gblockchainnetwork/hostinger-vps-optimizer", "iconUrl": null, "installs": 12, "name": "Hostinger VPS Optimizer", "ownerName": "gblockchainnetwork", "score": 81132.07547169812, "slug": "hostinger-vps-optimizer", "source": "clawhub", "stars": 0, "tags": null, "updated_at": 1776759083222, "version": "1.0.0"}, {"category": "developer-tools", "created_at": 1772781349607, "description": "Search and play Spotify tracks via Spotify.app using AppleScript on macOS, ensuring playback on the active device with detailed status updates.", "description_zh": "", "downloads": 473, "homepage": "https://clawhub.ai/uxbryan/spotplay", "iconUrl": null, "installs": 10, "name": "Spotplay", "ownerName": "uxbryan", "score": 34601.316752011706, "slug": "spotplay", "source": "clawhub", "stars": 0, "tags": null, "updated_at": 1776759082598, "version": "0.1.0"}, {"category": "security-compliance", "created_at": 1772780044422, "description": "Manage Toggl Track time entries, projects, clients, tags, and workspaces via API with OAuth authentication and CRUD operations.", "description_zh": "", "downloads": 473, "homepage": "https://clawhub.ai/byungkyu/toggl-track", "iconUrl": null, "installs": 13, "name": "Toggl Track", "ownerName": "byungkyu", "score": 94600, "slug": "toggl-track", "source": "clawhub", "stars": 0, "tags": null, "updated_at": 1776748244945, "version": "1.0.0"}, {"category": "communication-collaboration", "created_at": 1772783559023, "description": "Deploy OpenClaw securely on AWS with a single command. Creates VPC, EC2 (ARM64), Telegram channel, and configurable AI model (Bedrock, Gemini, or any provide...", "description_zh": "", "downloads": 473, "homepage": "https://clawhub.ai/godwinbabu/openclaw-aws-deploy", "iconUrl": null, "installs": 14, "name": "OpenClaw AWS Deploy", "ownerName": "godwinbabu", "score": 94600, "slug": "openclaw-aws-deploy", "source": "clawhub", "stars": 0, "tags": ["aws", "bedrock", "deploy", "ec2", "infrastructure", "telegram"], "updated_at": 1776748244929, "version": "1.0.0"}]}