{"page": 186, "total_pages": 522, "total": 26073, "skills": [{"category": "developer-tools", "created_at": 1772779473113, "description": "Subscribe to @TonFunX tweets and auto cross-post tagged posts (#retweet, #share, #repost) to BotWorld, Moltbook, or your platform without API keys.", "description_zh": "", "downloads": 473, "homepage": "https://clawhub.ai/alphafanx/tonfun-feed", "iconUrl": null, "installs": 5, "name": "TON.fun Feed Relay", "ownerName": "alphafanx", "score": 92382.8125, "slug": "tonfun-feed", "source": "clawhub", "stars": 0, "tags": null, "updated_at": 1776748244812, "version": "1.0.0"}, {"category": "security-compliance", "created_at": 1772785384497, "description": "Quick conversion audit for any homepage or landing page. Use when someone asks to \"review my homepage,\" \"audit my landing page,\" \"why isn't my page convertin...", "description_zh": "", "downloads": 473, "homepage": "https://clawhub.ai/brianrwagner/brw-homepage-audit", "iconUrl": null, "installs": 11, "name": "Homepage Audit", "ownerName": "brianrwagner", "score": 92382.8125, "slug": "brw-homepage-audit", "source": "clawhub", "stars": 0, "tags": null, "updated_at": 1776748244801, "version": "1.0.0"}, {"category": "productivity", "created_at": 1773078293156, "description": "Query real-time stock prices, basic quote fields, and manage a Markdown watchlist for A-share, Hong Kong, and US stocks. Use when users ask in Chinese or by...", "description_zh": "", "downloads": 473, "homepage": "https://clawhub.ai/0xhyperdan/stock-watchlist", "iconUrl": null, "installs": 69, "name": "stock watch", "ownerName": "0xhyperdan", "score": 92382.8125, "slug": "stock-watchlist", "source": "clawhub", "stars": 0, "tags": null, "updated_at": 1776748244798, "version": "1.1.0"}, {"category": "productivity", "created_at": 1772787150702, "description": "Buy $CRUST on Solana -- the Bot World mining token traded on Jupiter", "description_zh": "", "downloads": 473, "homepage": "https://clawhub.ai/alphafanx/buy-crust", "iconUrl": null, "installs": 13, "name": "Buy CRUST", "ownerName": "alphafanx", "score": 92382.8125, "slug": "buy-crust", "source": "clawhub", "stars": 0, "tags": null, "updated_at": 1776748244748, "version": "1.0.0"}, {"category": "productivity", "created_at": 1772784066546, "description": "Validates Markdown files for broken local links.", "description_zh": "", "downloads": 473, "homepage": "https://clawhub.ai/wanng-ide/markdown-validator", "iconUrl": null, "installs": 16, "name": "Markdown Validator", "ownerName": "wanng-ide", "score": 92745.09803921569, "slug": "markdown-validator", "source": "clawhub", "stars": 0, "tags": null, "updated_at": 1776748244729, "version": "1.0.0"}, {"category": "content-creation", "created_at": 1772793127539, "description": "Generate optimized prompts for AI models including ChatGPT, Midjourney, and code generation. Use when: (1) creating AI prompts for writing, coding, design, o...", "description_zh": "", "downloads": 473, "homepage": "https://clawhub.ai/ouyangabel/ai-prompt-gen", "iconUrl": null, "installs": 59, "name": "AI Prompt Generator", "ownerName": "ouyangabel", "score": 92745.09803921569, "slug": "ai-prompt-gen", "source": "clawhub", "stars": 0, "tags": ["ai", "chatgpt", "coding", "design", "generation", "midjourney", "prompt", "writing"], "updated_at": 1776748244713, "version": "1.0.0"}, {"category": "developer-tools", "created_at": 1772784842451, "description": "Route any prompt to the best-performing LLM using peer-reviewed council rankings from LLM Council", "description_zh": "", "downloads": 473, "homepage": "https://clawhub.ai/ashtiwariasu/llmcouncil-router", "iconUrl": null, "installs": 3, "name": "LLM Council Router", "ownerName": "ashtiwariasu", "score": 85225.22522522522, "slug": "llmcouncil-router", "source": "clawhub", "stars": 0, "tags": null, "updated_at": 1776748244650, "version": "1.0.0"}, {"category": "content-creation", "created_at": 1772784056657, "description": "Create precise incident timelines from logs and notes. Use when handling development work that needs repeatable steps, quality gates, and practical outputs.", "description_zh": "", "downloads": 473, "homepage": "https://clawhub.ai/xammarie/jarvis-incident-timeline-writer-01", "iconUrl": null, "installs": 28, "name": "Jarvis Incident Timeline Writer 01", "ownerName": "xammarie", "score": 98541.66666666667, "slug": "jarvis-incident-timeline-writer-01", "source": "clawhub", "stars": 0, "tags": null, "updated_at": 1776748244434, "version": "1.0.0"}, {"category": "communication-collaboration", "created_at": 1772784612685, "description": "Send files quickly via Telegram using the tsend CLI tool with optional captions, profiles, and simple token/chat ID configuration.", "description_zh": "", "downloads": 472, "homepage": "https://clawhub.ai/shingwha/tsend", "iconUrl": null, "installs": 18, "name": "telegram send files", "ownerName": "shingwha", "score": 37209.3023255814, "slug": "tsend", "source": "clawhub", "stars": 2, "tags": null, "updated_at": 1776759083556, "version": "2.1.0"}, {"category": "productivity", "created_at": 1772804590182, "description": "A structured three-step methodology evaluating task complexity from quick rule checks to deep planning and phased execution with quality control for diverse...", "description_zh": "", "downloads": 472, "homepage": "https://clawhub.ai/halfmoon82/complex-task-methodology", "iconUrl": null, "installs": 19, "name": "Complex Task Methodology", "ownerName": "halfmoon82", "score": 37509.15750915751, "slug": "complex-task-methodology", "source": "clawhub", "stars": 2, "tags": ["methodology", "task-management", "workflow"], "updated_at": 1776759082879, "version": "1.1.3"}, {"category": "developer-tools", "created_at": 1772784332199, "description": "Kaspa News — let your Claw know everything about Kaspa in one place: latest news, core development updates, ecosystem launches, community talks, and weekly r...", "description_zh": "", "downloads": 472, "homepage": "https://clawhub.ai/atl4so/kaspa-news", "iconUrl": null, "installs": 15, "name": "Kaspa News", "ownerName": "atl4so", "score": 100000, "slug": "kaspa-news", "source": "clawhub", "stars": 2, "tags": null, "updated_at": 1776748244780, "version": "1.1.0"}, {"category": "communication-collaboration", "created_at": 1773866071621, "description": "Enables coordinated multi-agent collaboration in Discord channels with defined speaking rules, task handoffs, progress updates, and peer reviews.", "description_zh": "", "downloads": 472, "homepage": "https://clawhub.ai/paulmitchell1919-hue/discord-agent-communication", "iconUrl": null, "installs": 13, "name": "Discord Agent Communication", "ownerName": "paulmitchell1919-hue", "score": 7965.03156872268, "slug": "discord-agent-communication", "source": "clawhub", "stars": 1, "tags": null, "updated_at": 1776765850082, "version": "1.0.1"}, {"category": "ai-intelligence", "created_at": 1773090738534, "description": "Multi-Agent AI Quant System with multi-coin prediction, strategy templates, and automated backtesting", "description_zh": "", "downloads": 472, "homepage": "https://clawhub.ai/pikachu022700/quant-orchestrator", "iconUrl": null, "installs": 80, "name": "Quant Orchestrator", "ownerName": "pikachu022700", "score": 12087.067861715748, "slug": "quant-orchestrator", "source": "clawhub", "stars": 0, "tags": ["ai", "multicoin", "quant", "trading"], "updated_at": 1776770050192, "version": "1.1.0"}, {"category": "developer-tools", "created_at": 1773854242973, "description": "Reference tool for devtools — covers intro, quickstart, patterns and more. Quick lookup for Cc Switch concepts, best practices, and implementation patterns.", "description_zh": "", "downloads": 472, "homepage": "https://clawhub.ai/bytesagain1/cc-switch", "iconUrl": null, "installs": 20, "name": "Cc Switch", "ownerName": "bytesagain1", "score": 2910.5259912437564, "slug": "cc-switch", "source": "clawhub", "stars": 0, "tags": null, "updated_at": 1776769790506, "version": "3.0.2"}, {"category": "developer-tools", "created_at": 1772781519936, "description": "Complete system for retention with health scoring, onboarding playbooks, ongoing value reports, churn intervention, and revenue expansion strategies for subs...", "description_zh": "", "downloads": 472, "homepage": "https://clawhub.ai/1kalin/afrexai-client-success", "iconUrl": null, "installs": 8, "name": "Client Success & Revenue Expansion", "ownerName": "1kalin", "score": 6119.538441592117, "slug": "afrexai-client-success", "source": "clawhub", "stars": 0, "tags": ["churn", "customer-success", "expansion", "onboarding", "qbr", "retention", "revenue"], "updated_at": 1776765850085, "version": "1.0.0"}, {"category": "developer-tools", "created_at": 1772787070356, "description": "Delegate PREQSTATION coding tasks to Claude Code, Codex CLI, or Gemini CLI with PTY-safe execution (workdir + background + monitoring). Use when building, re...", "description_zh": "", "downloads": 472, "homepage": "https://clawhub.ai/sonim1/preqstation", "iconUrl": null, "installs": 9, "name": "Preqstation", "ownerName": "sonim1", "score": 6205.6271364712065, "slug": "preqstation", "source": "clawhub", "stars": 0, "tags": null, "updated_at": 1776761839770, "version": "0.1.8"}, {"category": "data-analysis", "created_at": 1772790226606, "description": "Decentralized agent-to-agent task protocol on XMTP. Discover agents via bulletin boards, post tasks, bid on work, lock payments in escrow, get paid in USDC o...", "description_zh": "", "downloads": 472, "homepage": "https://clawhub.ai/clawberrypi/xmtp-agent-swarm", "iconUrl": null, "installs": 25, "name": "Agent Swarm", "ownerName": "clawberrypi", "score": 80960.5488850772, "slug": "xmtp-agent-swarm", "source": "clawhub", "stars": 0, "tags": ["base", "escrow", "marketplace", "usdc", "xmtp"], "updated_at": 1776759083249, "version": "4.0.0"}, {"category": "developer-tools", "created_at": 1772782738909, "description": "Calculates and benchmarks true customer acquisition cost by channel and cohort, identifies savings opportunities, and builds data-driven CAC reduction plans.", "description_zh": "", "downloads": 472, "homepage": "https://clawhub.ai/1kalin/afrexai-cac-optimizer", "iconUrl": null, "installs": 7, "name": "CAC Optimizer", "ownerName": "1kalin", "score": 34629.49376375642, "slug": "afrexai-cac-optimizer", "source": "clawhub", "stars": 0, "tags": ["cac", "customer acquisition", "growth", "marketing", "sales", "unit economics"], "updated_at": 1776759083086, "version": "1.0.0"}, {"category": "developer-tools", "created_at": 1772783761880, "description": "Discover, create, upload, pay, and track fax jobs using FaxAgent.ai API with safe polling, promo tokens, and human-facing upload/payment/status links.", "description_zh": "", "downloads": 472, "homepage": "https://clawhub.ai/faxagent/faxagent-skill", "iconUrl": null, "installs": 6, "name": "FaxAgent-Skill", "ownerName": "faxagent", "score": 81519.86183074265, "slug": "faxagent-skill", "source": "clawhub", "stars": 0, "tags": ["latest secure communications between ai for message and document delivery"], "updated_at": 1776759082796, "version": "1.0.0"}, {"category": "developer-tools", "created_at": 1772786947110, "description": "Provides end-to-end methodology for defining, engineering, experimenting, deploying, and operating production ML/AI systems at scale.", "description_zh": "", "downloads": 472, "homepage": "https://clawhub.ai/1kalin/afrexai-ml-engineering", "iconUrl": null, "installs": 25, "name": "ML Engineering", "ownerName": "1kalin", "score": 34528.16386247257, "slug": "afrexai-ml-engineering", "source": "clawhub", "stars": 0, "tags": ["ai", "data-science", "machine-learning", "ml"], "updated_at": 1776759082596, "version": "1.0.0"}, {"category": "content-creation", "created_at": 1772786185459, "description": "Batch-generate images via OpenAI Images API. Random prompt sampler + `index.html` gallery.", "description_zh": "", "downloads": 472, "homepage": "https://clawhub.ai/saschaspoonbill/openai-image-gen-fixed", "iconUrl": null, "installs": 28, "name": "Openai Image Gen", "ownerName": "saschaspoonbill", "score": 81802.42634315425, "slug": "openai-image-gen-fixed", "source": "clawhub", "stars": 0, "tags": null, "updated_at": 1776755288215, "version": "1.0.2"}, {"category": "ai-intelligence", "created_at": 1772782166682, "description": "Search and trade on the UniMarket P2P marketplace. Post buy/sell intents, discover what other agents are offering, and negotiate deals via Nostr.", "description_zh": "", "downloads": 472, "homepage": "https://clawhub.ai/jvsteiner/vector-skill", "iconUrl": null, "installs": 0, "name": "UniMarket P2P Marketplace", "ownerName": "jvsteiner", "score": 91295.93810444874, "slug": "vector-skill", "source": "clawhub", "stars": 0, "tags": null, "updated_at": 1776748245034, "version": "0.1.8"}, {"category": "productivity", "created_at": 1772785406036, "description": "Advanced rate limiting with tiered controls and quota management", "description_zh": "", "downloads": 472, "homepage": "https://clawhub.ai/raghulpasupathi/rate-limit-pro", "iconUrl": null, "installs": 15, "name": "Rate Limit Pro", "ownerName": "raghulpasupathi", "score": 94400, "slug": "rate-limit-pro", "source": "clawhub", "stars": 0, "tags": null, "updated_at": 1776748244913, "version": "1.0.0"}, {"category": "developer-tools", "created_at": 1772786678506, "description": "Query the BCRA (Banco Central de la República Argentina) Central de Deudores API to check the credit status of individuals or companies in Argentina's financ...", "description_zh": "", "downloads": 472, "homepage": "https://clawhub.ai/ferminrp/bcra-central-deudores", "iconUrl": null, "installs": 33, "name": "Central de Deudores BCRA", "ownerName": "ferminrp", "score": 92730.84479371316, "slug": "bcra-central-deudores", "source": "clawhub", "stars": 0, "tags": null, "updated_at": 1776748244866, "version": "1.0.0"}, {"category": "developer-tools", "created_at": 1773417208030, "description": "Expert guide for building web scrapers and crawlers using Crawlee (JavaScript/TypeScript and Python). Use this skill whenever the user wants to: scrape a web...", "description_zh": "", "downloads": 472, "homepage": "https://clawhub.ai/yash-kavaiya/crawlee", "iconUrl": null, "installs": 51, "name": "Crawlee", "ownerName": "yash-kavaiya", "score": 92187.5, "slug": "crawlee", "source": "clawhub", "stars": 0, "tags": null, "updated_at": 1776748244777, "version": "1.0.0"}, {"category": "developer-tools", "created_at": 1772783878420, "description": "Context window hygiene for long-running LLM agents. Decision rules for when and how to compress, mask, switch, or delegate context — backed by research (JetB...", "description_zh": "", "downloads": 472, "homepage": "https://clawhub.ai/compass-soul/shed", "iconUrl": null, "installs": 4, "name": "Shed", "ownerName": "compass-soul", "score": 92549.01960784315, "slug": "shed", "source": "clawhub", "stars": 0, "tags": null, "updated_at": 1776748244671, "version": "1.0.0"}, {"category": "communication-collaboration", "created_at": 1772784450886, "description": "Gradio-based chat interface for Ollama with multi-session management. Use when working with pywayne.llm.chat_ollama_gradio module to create a web-based chat...", "description_zh": "", "downloads": 472, "homepage": "https://clawhub.ai/wangyendt/chat-ollama-gradio", "iconUrl": null, "installs": 12, "name": "Pywayne Llm Chat Ollama Gradio", "ownerName": "wangyendt", "score": 90769.23076923077, "slug": "chat-ollama-gradio", "source": "clawhub", "stars": 0, "tags": null, "updated_at": 1776748244493, "version": "0.1.0"}, {"category": "data-analysis", "created_at": 1772785957885, "description": "Dating wingman that generates openers, replies, profile analysis, date plans, and coaching via the MemePickup API (Hinge/Tinder/Bumble/Instagram).", "description_zh": "", "downloads": 472, "homepage": "https://clawhub.ai/samcraw1/memepickup-wingman", "iconUrl": null, "installs": 14, "name": "Memepickup Wingman", "ownerName": "samcraw1", "score": 98333.33333333333, "slug": "memepickup-wingman", "source": "clawhub", "stars": 0, "tags": null, "updated_at": 1776748244458, "version": "1.1.0"}, {"category": "ai-intelligence", "created_at": 1772786167360, "description": "Cross-platform file transfer between OpenClaw agents via rsync over SSH. From Claws for Claws - send files uncomplicated without getting drizzled by hot butt...", "description_zh": "", "downloads": 472, "homepage": "https://clawhub.ai/christopher-schulze/claw2claw-filetransfer-v2", "iconUrl": null, "installs": 25, "name": "Claw2claw Filetransfer", "ownerName": "christopher-schulze", "score": 98333.33333333333, "slug": "claw2claw-filetransfer-v2", "source": "clawhub", "stars": 0, "tags": null, "updated_at": 1776748244390, "version": "1.0.0"}, {"category": "data-analysis", "created_at": 1772788484595, "description": "Web dashboard to approve OpenClaw device and channel pairings, manage connections, and access a live terminal from your browser.", "description_zh": "", "downloads": 471, "homepage": "https://clawhub.ai/fizzy2390/approvals-ui", "iconUrl": null, "installs": 13, "name": "Approve new channels, and connections to openclaw ui and terminal", "ownerName": "fizzy2390", "score": 14884.940285464609, "slug": "approvals-ui", "source": "clawhub", "stars": 2, "tags": null, "updated_at": 1776769149789, "version": "1.0.1"}, {"category": "security-compliance", "created_at": 1772785748349, "description": "Security scanner for OpenClaw skills with Clawdex integration. Analyzes SKILL.md and scripts for dangerous permissions, hardcoded secrets, shell injection vu...", "description_zh": "", "downloads": 471, "homepage": "https://clawhub.ai/tnbradley/crabukit", "iconUrl": null, "installs": 17, "name": "Crabukit", "ownerName": "tnbradley", "score": 31044.957472660994, "slug": "crabukit", "source": "clawhub", "stars": 2, "tags": null, "updated_at": 1776759083804, "version": "0.1.3"}, {"category": "data-analysis", "created_at": 1772788939883, "description": "Post or schedule content to LinkedIn using the Publora API. Use this skill when the user wants to publish, schedule, or draft a LinkedIn post via Publora.", "description_zh": "", "downloads": 471, "homepage": "https://clawhub.ai/sergebulaev/publora-linkedin", "iconUrl": null, "installs": 21, "name": "Publora — LinkedIn", "ownerName": "sergebulaev", "score": 7443.90539721043, "slug": "publora-linkedin", "source": "clawhub", "stars": 1, "tags": null, "updated_at": 1776766790550, "version": "1.1.0"}, {"category": "communication-collaboration", "created_at": 1772787742218, "description": "Marketing intelligence pipeline - gather signals from RSS, X/Twitter, Telegram, and Gmail newsletters. Generate daily posts, weekly summaries, and monthly de...", "description_zh": "", "downloads": 471, "homepage": "https://clawhub.ai/mephistophelesbits/signal-pipeline", "iconUrl": null, "installs": 21, "name": "Signal Pipeline", "ownerName": "mephistophelesbits", "score": 10286.088665647521, "slug": "signal-pipeline", "source": "clawhub", "stars": 0, "tags": null, "updated_at": 1776769190437, "version": "1.1.0"}, {"category": "data-analysis", "created_at": 1773929197608, "description": "Provides financial analysis of listed companies, including valuation ratios, profitability metrics, financial health indicators, and DCF-based valuation models.", "description_zh": "", "downloads": 471, "homepage": "https://clawhub.ai/gbabyzs/gbabyzs-financial-analysis", "iconUrl": null, "installs": 47, "name": "Financial Analysis", "ownerName": "gbabyzs", "score": 15616.710875331566, "slug": "gbabyzs-financial-analysis", "source": "clawhub", "stars": 0, "tags": null, "updated_at": 1776761690245, "version": "1.0.0"}, {"category": "developer-tools", "created_at": 1772793316540, "description": "Self-hosted infrastructure monitoring for HTTP, TCP, SSL, disk, memory, load, Docker, DNS, and custom commands with alerting via OpenClaw messaging.", "description_zh": "", "downloads": 471, "homepage": "https://clawhub.ai/mariusfit/infra-watchdog", "iconUrl": null, "installs": 7, "name": "Clawhub Skill Infra Watchdog", "ownerName": "mariusfit", "score": 86106.03290676416, "slug": "infra-watchdog", "source": "clawhub", "stars": 0, "tags": ["alerting", "devops", "homelab", "infrastructure", "monitoring"], "updated_at": 1776759083137, "version": "1.1.0"}, {"category": "data-analysis", "created_at": 1772782408715, "description": "Comprehensive competitive intelligence system covering market mapping, product teardowns, pricing analysis, win/loss insights, battlecards, and strategic com...", "description_zh": "", "downloads": 471, "homepage": "https://clawhub.ai/1kalin/afrexai-competitive-intel", "iconUrl": null, "installs": 19, "name": "Competitive Intel", "ownerName": "1kalin", "score": 91102.51450676983, "slug": "afrexai-competitive-intel", "source": "clawhub", "stars": 0, "tags": ["automation", "business"], "updated_at": 1776748244984, "version": "1.0.0"}, {"category": "data-analysis", "created_at": 1772783569408, "description": "Track SAAS revenue, MRR growth, customer metrics, and profitability. Use to monitor $1000+ MRR targets, identify optimization opportunities, and keep SAAS pr...", "description_zh": "", "downloads": 471, "homepage": "https://clawhub.ai/juniorxcoder/saas-revenue-tracker", "iconUrl": null, "installs": 15, "name": "SAAS Revenue Tracker", "ownerName": "juniorxcoder", "score": 94200, "slug": "saas-revenue-tracker", "source": "clawhub", "stars": 0, "tags": null, "updated_at": 1776748244931, "version": "1.0.0"}, {"category": "ai-intelligence", "created_at": 1772783537137, "description": "P2P agent coordination and USDT settlement via the Hypha Network. Use when an agent needs to discover other agents on the mesh, hire agents for tasks, get pa...", "description_zh": "", "downloads": 471, "homepage": "https://clawhub.ai/pointsnode/hypha-payment", "iconUrl": null, "installs": 18, "name": "Hypha Payment", "ownerName": "pointsnode", "score": 92352.94117647059, "slug": "hypha-payment", "source": "clawhub", "stars": 0, "tags": null, "updated_at": 1776748244724, "version": "0.1.0"}, {"category": "productivity", "created_at": 1772785629397, "description": "Transform prototypes into distributable Python packages", "description_zh": "", "downloads": 471, "homepage": "https://clawhub.ai/guohongbin-git/mlops-industrialization-cn", "iconUrl": null, "installs": 21, "name": "MLOps Industrialization", "ownerName": "guohongbin-git", "score": 92352.94117647059, "slug": "mlops-industrialization-cn", "source": "clawhub", "stars": 0, "tags": ["mlops", "packaging"], "updated_at": 1776748244678, "version": "1.0.0"}, {"category": "ai-intelligence", "created_at": 1772781685461, "description": "ERC-8004 Trustless Agents - Register and manage AI agent identities on TRON and BSC blockchains with on-chain reputation tracking", "description_zh": "", "downloads": 471, "homepage": "https://clawhub.ai/spyderjr/8004-skill", "iconUrl": null, "installs": 17, "name": "8004 Skill", "ownerName": "spyderjr", "score": 84864.86486486487, "slug": "8004-skill", "source": "clawhub", "stars": 0, "tags": null, "updated_at": 1776748244648, "version": "1.0.1"}, {"category": "content-creation", "created_at": 1772787161272, "description": "Unified API access to multiple AI models via kie.ai - image generation (Nano Banana Pro, Flux, 4o-image) at 30-80% lower cost than official APIs. Includes lo...", "description_zh": "", "downloads": 471, "homepage": "https://clawhub.ai/jon-xo/kie-ai-skill", "iconUrl": null, "installs": 41, "name": "Kie Ai Skill", "ownerName": "jon-xo", "score": 84864.86486486487, "slug": "kie-ai-skill", "source": "clawhub", "stars": 0, "tags": null, "updated_at": 1776748244632, "version": "1.0.1"}, {"category": "data-analysis", "created_at": 1772783281862, "description": "Enables interactive browsing and navigation of web pages to retrieve, summarize, or analyze online content based on user queries.", "description_zh": "", "downloads": 471, "homepage": "https://clawhub.ai/mematron/web-navigator", "iconUrl": null, "installs": 22, "name": "Web Navigator", "ownerName": "mematron", "score": 98125, "slug": "web-navigator", "source": "clawhub", "stars": 0, "tags": null, "updated_at": 1776748244438, "version": "1.0.0"}, {"category": "ai-intelligence", "created_at": 1772782387797, "description": "Agentic Commerce skills enables agents to autonomously browse and search for quality lifestyle, wellness, and tech products and gifts, view details, create o...", "description_zh": "", "downloads": 470, "homepage": "https://clawhub.ai/bythecult/agentic-commerce-forthecult", "iconUrl": null, "installs": 3, "name": "Agentic Commerce — Lifestyle, Wellness, & Gifts", "ownerName": "bythecult", "score": 91397.84946236559, "slug": "agentic-commerce-forthecult", "source": "clawhub", "stars": 2, "tags": ["commerce", "ecommerce", "shopping", "solana"], "updated_at": 1776759083745, "version": "1.0.5"}, {"category": "content-creation", "created_at": 1772785826367, "description": "Generate full SEO articles using Kitful.ai. Give a keyword or topic — Kitful researches, writes, and delivers a publication-ready article.", "description_zh": "", "downloads": 470, "homepage": "https://clawhub.ai/eashish93/kitful", "iconUrl": null, "installs": 40, "name": "Kitful SEO Article Writer", "ownerName": "eashish93", "score": 100000, "slug": "kitful", "source": "clawhub", "stars": 2, "tags": null, "updated_at": 1776748244702, "version": "1.0.4"}, {"category": "developer-tools", "created_at": 1772783292559, "description": "Enables AI agents to interact with the Hive swarm https://hive.z3n.dev/ via REST API: register for an API key, save credentials and run state (cursor), query...", "description_zh": "", "downloads": 470, "homepage": "https://clawhub.ai/kerlos/hive-agent", "iconUrl": null, "installs": 9, "name": "Hive Agent", "ownerName": "kerlos", "score": 100000, "slug": "hive-agent", "source": "clawhub", "stars": 2, "tags": null, "updated_at": 1776748244680, "version": "1.0.2"}, {"category": "content-creation", "created_at": 1772796216555, "description": "Generate complete, image-rich travel plans from trip dates and destination, including day-by-day itinerary, transportation, lodging area guidance, budget ran...", "description_zh": "", "downloads": 470, "homepage": "https://clawhub.ai/daiwk/travel-itinerary-planner", "iconUrl": null, "installs": 47, "name": "Travel Itinerary Planner", "ownerName": "daiwk", "score": 94777.56286266923, "slug": "travel-itinerary-planner", "source": "clawhub", "stars": 1, "tags": null, "updated_at": 1776748245000, "version": "0.1.1"}, {"category": "ai-intelligence", "created_at": 1773897550924, "description": "Build and debug Kimi API workflows for chat, coding, reasoning, and tool-calling with live model checks, retries, and safe routing.", "description_zh": "", "downloads": 470, "homepage": "https://clawhub.ai/ivangdavila/kimi", "iconUrl": null, "installs": 171, "name": "Kimi", "ownerName": "ivangdavila", "score": 8547.008547008547, "slug": "kimi", "source": "clawhub", "stars": 0, "tags": null, "updated_at": 1776767349910, "version": "1.0.0"}, {"category": "data-analysis", "created_at": 1772785326023, "description": "AI-анализатор трендов в IoT, EV, играх, DIY и Emerging Tech с ежедневными сводками, бизнес-инсайтами и рекомендациями для предпринимателей и девелоперов.", "description_zh": "", "downloads": 470, "homepage": "https://clawhub.ai/voronindenis5/techpulse", "iconUrl": null, "installs": 30, "name": "TechPulse", "ownerName": "voronindenis5", "score": 34181.81818181818, "slug": "techpulse", "source": "clawhub", "stars": 0, "tags": ["ai", "analytics", "automation", "business", "data", "developer tools", "diy", "ev", "games", "iot", "news", "open source", "productivity", "saas", "tech", "trends"], "updated_at": 1776759083359, "version": "1.0.6"}, {"category": "data-analysis", "created_at": 1772788158363, "description": "Automatically evolves your SOUL.md by analyzing your conversation patterns and behavior, then proposes updates to reflect who you truly are over time.", "description_zh": "", "downloads": 470, "homepage": "https://clawhub.ai/taha2053/soul-forge", "iconUrl": null, "installs": 18, "name": "SoulForge", "ownerName": "taha2053", "score": 82456.14035087719, "slug": "soul-forge", "source": "clawhub", "stars": 0, "tags": null, "updated_at": 1776759083270, "version": "1.0.0"}, {"category": "data-analysis", "created_at": 1772784087593, "description": "Ton namespace for Netsnek e.U. audio and media processing tools. Handles audio transcription, format conversion, waveform analysis, and podcast production wo...", "description_zh": "", "downloads": 470, "homepage": "https://clawhub.ai/kleberbaum/ton", "iconUrl": null, "installs": 21, "name": "ton", "ownerName": "kleberbaum", "score": 34432.23443223443, "slug": "ton", "source": "clawhub", "stars": 0, "tags": null, "updated_at": 1776759082876, "version": "0.1.0"}]}