{"page": 187, "total_pages": 522, "total": 26073, "skills": [{"category": "security-compliance", "created_at": 1772785070292, "description": "Scaffolds a full-stack project with Next.js App Router, Supabase, Firebase Auth, Vercel, and Cloudflare", "description_zh": "", "downloads": 470, "homepage": "https://clawhub.ai/guifav/stack-scaffold", "iconUrl": null, "installs": 16, "name": "Stack Scaffold", "ownerName": "guifav", "score": 88846.88090737241, "slug": "stack-scaffold", "source": "clawhub", "stars": 0, "tags": null, "updated_at": 1776753283793, "version": "0.1.1"}, {"category": "data-analysis", "created_at": 1772788345287, "description": "GPT-specific pattern detection with model fingerprinting and version identification", "description_zh": "", "downloads": 470, "homepage": "https://clawhub.ai/raghulpasupathi/gpt-analyzer", "iconUrl": null, "installs": 23, "name": "Gpt Analyzer", "ownerName": "raghulpasupathi", "score": 90038.31417624521, "slug": "gpt-analyzer", "source": "clawhub", "stars": 0, "tags": null, "updated_at": 1776748245043, "version": "1.0.0"}, {"category": "security-compliance", "created_at": 1773424943082, "description": "Stripe payment platform reference — PaymentIntents, webhooks, PCI compliance, 3DS/SCA, Radar fraud rules, and CLI commands.", "description_zh": "", "downloads": 470, "homepage": "https://clawhub.ai/xueyetianya/stripe-manager", "iconUrl": null, "installs": 15, "name": "Stripe Manager", "ownerName": "xueyetianya", "score": 92156.86274509803, "slug": "stripe-manager", "source": "clawhub", "stars": 0, "tags": null, "updated_at": 1776748244662, "version": "5.0.0"}, {"category": "data-analysis", "created_at": 1772786512395, "description": "Send requests to the dr.eamer.dev LLM API for chat completions, vision analysis, image generation, text-to-speech, and video generation across 12 model provi...", "description_zh": "", "downloads": 470, "homepage": "https://clawhub.ai/lukeslp/geepers-llm", "iconUrl": null, "installs": 27, "name": "Geepers Llm", "ownerName": "lukeslp", "score": 84684.68468468469, "slug": "geepers-llm", "source": "clawhub", "stars": 0, "tags": null, "updated_at": 1776748244569, "version": "1.0.0"}, {"category": "developer-tools", "created_at": 1772785575306, "description": "Create and modify scripts in ~/.nanobot/workspace/test with strict Git versioning. Each script lives in its own directory with an isolated git repository. Al...", "description_zh": "", "downloads": 470, "homepage": "https://clawhub.ai/cadot-eu/script-creator", "iconUrl": null, "installs": 14, "name": "script creator with github companion", "ownerName": "cadot-eu", "score": 90384.61538461539, "slug": "script-creator", "source": "clawhub", "stars": 0, "tags": null, "updated_at": 1776748244558, "version": "1.0.0"}, {"category": "data-analysis", "created_at": 1772789248373, "description": "Query Google Analytics 4 (GA4) data directly via the Analytics Data API. Use when you need website analytics like top pages, traffic sources, sessions, users...", "description_zh": "", "downloads": 469, "homepage": "https://clawhub.ai/codeninja23/native-google-analytics", "iconUrl": null, "installs": 26, "name": "Native Google Analytics", "ownerName": "codeninja23", "score": 8285.857071464268, "slug": "native-google-analytics", "source": "clawhub", "stars": 18, "tags": ["google", "google analytics"], "updated_at": 1776765671202, "version": "0.1.1"}, {"category": "content-creation", "created_at": 1773076984093, "description": "Fetches AI & tech news (default) or any custom topic (crypto, geopolitics, etc.) from RSS feeds, Tavily search, Twitter/X, and YouTube. Writes an English edi...", "description_zh": "", "downloads": 469, "homepage": "https://clawhub.ai/scottll/ai-news-aggregator-sl", "iconUrl": null, "installs": 33, "name": "AI News Aggregator", "ownerName": "scottll", "score": 100000, "slug": "ai-news-aggregator-sl", "source": "clawhub", "stars": 2, "tags": ["ai", "chinese", "deepseek", "discord", "news", "rss", "youtube"], "updated_at": 1776748244831, "version": "1.2.8"}, {"category": "productivity", "created_at": 1772778550757, "description": "Publishes and syncs local bot skills to ClawHub using non-browser login, preflight safety checks, and automated release scripts for single or batch workflows.", "description_zh": "", "downloads": 469, "homepage": "https://clawhub.ai/wanng-ide/clawhub-skill-publisher", "iconUrl": null, "installs": 9, "name": "ClawHub Skill Publisher", "ownerName": "wanng-ide", "score": 100000, "slug": "clawhub-skill-publisher", "source": "clawhub", "stars": 2, "tags": null, "updated_at": 1776748244824, "version": "1.0.0"}, {"category": "ai-intelligence", "created_at": 1772784984545, "description": "Diagnoses whether a Cognitive Bullwhip Effect is already active in your agent system. Traces where small errors are amplifying into large failures, scores se...", "description_zh": "", "downloads": 469, "homepage": "https://clawhub.ai/jkc3080/cognitive-bullwhip", "iconUrl": null, "installs": 17, "name": "cognitive-bullwhip", "ownerName": "jkc3080", "score": 99803.92156862745, "slug": "cognitive-bullwhip", "source": "clawhub", "stars": 2, "tags": null, "updated_at": 1776748244664, "version": "1.0.2"}, {"category": "developer-tools", "created_at": 1772786661823, "description": "Think like a human. Reason, plan, adapt, create, and know your limits.", "description_zh": "", "downloads": 469, "homepage": "https://clawhub.ai/ivangdavila/agi", "iconUrl": null, "installs": 23, "name": "AGI / Artificial General Intelligence", "ownerName": "ivangdavila", "score": 94584.13926499033, "slug": "agi", "source": "clawhub", "stars": 1, "tags": null, "updated_at": 1776748245039, "version": "1.0.0"}, {"category": "productivity", "created_at": 1773913287223, "description": "Manage automation scripts with creation, scheduling, logging, failure retries, and status notifications for monitoring, backup, sync, reports, and more.", "description_zh": "", "downloads": 469, "homepage": "https://clawhub.ai/hoohoobear/automation-scripts", "iconUrl": null, "installs": 12, "name": "Automation Scripts", "ownerName": "hoohoobear", "score": 2002.8184652175769, "slug": "automation-scripts", "source": "clawhub", "stars": 0, "tags": null, "updated_at": 1776770350239, "version": "1.0.0"}, {"category": "productivity", "created_at": 1773936584605, "description": "Manage terminal notifications with scheduling, filtering, and delivery tracking. Use when sending alerts, filtering notifications, confirming delivery.", "description_zh": "", "downloads": 469, "homepage": "https://clawhub.ai/bytesagain3/notification", "iconUrl": null, "installs": 15, "name": "Notification", "ownerName": "bytesagain3", "score": 20946.851272889682, "slug": "notification", "source": "clawhub", "stars": 0, "tags": null, "updated_at": 1776769150298, "version": "2.0.1"}, {"category": "security-compliance", "created_at": 1772789152354, "description": "Paperzilla CLI lets you search, filter, and browse AI-curated academic papers by project, requiring a Paperzilla account for authentication.", "description_zh": "", "downloads": 469, "homepage": "https://clawhub.ai/pors/pz", "iconUrl": null, "installs": 54, "name": "Paperzilla CLI", "ownerName": "pors", "score": 13570.601851851852, "slug": "pz", "source": "clawhub", "stars": 0, "tags": null, "updated_at": 1776767949760, "version": "1.0.0"}, {"category": "developer-tools", "created_at": 1773089681687, "description": "Use when the user needs local speech-to-text transcription for audio files, especially Chinese or mixed Chinese-English audio, without relying on cloud trans...", "description_zh": "", "downloads": 469, "homepage": "https://clawhub.ai/limboinf/funasr-transcribe-skill", "iconUrl": null, "installs": 14, "name": "Funasr Transcribe Skill", "ownerName": "limboinf", "score": 9455.645161290322, "slug": "funasr-transcribe-skill", "source": "clawhub", "stars": 0, "tags": null, "updated_at": 1776767649791, "version": "1.0.1"}, {"category": "content-creation", "created_at": 1772796258869, "description": "Convert PDF, DOCX, XLSX, PPTX, images, audio, and 25+ file formats to clean Markdown using the Markdown Anything API.", "description_zh": "", "downloads": 469, "homepage": "https://clawhub.ai/adiologydev/markdown-anything", "iconUrl": null, "installs": 141, "name": "Markdown Anything", "ownerName": "adiologydev", "score": 53114.38278595696, "slug": "markdown-anything", "source": "clawhub", "stars": 0, "tags": null, "updated_at": 1776764690477, "version": "1.0.0"}, {"category": "security-compliance", "created_at": 1772791917282, "description": "Convert documents, spreadsheets, images, and structured files into clean, structured Markdown optimized for AI processing without authentication.", "description_zh": "", "downloads": 469, "homepage": "https://clawhub.ai/alaminrifat/file-to-markdown", "iconUrl": null, "installs": 19, "name": "File to Markdown Converter", "ownerName": "alaminrifat", "score": 34308.70519385515, "slug": "file-to-markdown", "source": "clawhub", "stars": 0, "tags": ["documents", "file-conversion", "markdown", "pdf"], "updated_at": 1776759083466, "version": "1.0.0"}, {"category": "data-analysis", "created_at": 1772785270416, "description": "Find and book in-network doctors with verified reviews, real-time availability, and insurance confirmation through Zocdoc.com for in-person or virtual visits.", "description_zh": "", "downloads": 469, "homepage": "https://clawhub.ai/kylemorgan-commits/find-and-book-in-network-doctors", "iconUrl": null, "installs": 21, "name": "Find and Book In-Network Doctors with Real-Time Availability", "ownerName": "kylemorgan-commits", "score": 34133.915574963605, "slug": "find-and-book-in-network-doctors", "source": "clawhub", "stars": 0, "tags": ["booking", "doctors", "healthcare", "insurance"], "updated_at": 1776759082338, "version": "1.0.0"}, {"category": "productivity", "created_at": 1772779343688, "description": "Provides quaternion decomposition into Euler angles and roll/pitch compensation utilities for AHRS orientation handling with pywayne.ahrs.tools.", "description_zh": "", "downloads": 469, "homepage": "https://clawhub.ai/wangyendt/ahrs-tools", "iconUrl": null, "installs": 12, "name": "Pywayne Ahrs Tools", "ownerName": "wangyendt", "score": 90715.66731141199, "slug": "ahrs-tools", "source": "clawhub", "stars": 0, "tags": null, "updated_at": 1776748244990, "version": "0.1.0"}, {"category": "data-analysis", "created_at": 1772783109950, "description": "Use a Spark Bitcoin L2 wallet proxy for AI agents via HTTP API. Check balances, send payments, create invoices, pay L402 paywalls — all without holding the m...", "description_zh": "", "downloads": 469, "homepage": "https://clawhub.ai/echennells/sparkbtcbot-proxy", "iconUrl": null, "installs": 21, "name": "Spark Bitcoin L2 Proxy for AI Agents", "ownerName": "echennells", "score": 93800, "slug": "sparkbtcbot-proxy", "source": "clawhub", "stars": 0, "tags": null, "updated_at": 1776748244956, "version": "1.1.0"}, {"category": "security-compliance", "created_at": 1772794234079, "description": "A security layer plugin for OpenClaw that intercepts dangerous tool calls (exec, write, edit) through two-tier regex blacklist rules and LLM-based intent ver...", "description_zh": "", "downloads": 469, "homepage": "https://clawhub.ai/fatcatmaofei/openclaw-guardian", "iconUrl": null, "installs": 28, "name": "OpenClaw Guardian", "ownerName": "fatcatmaofei", "score": 93800, "slug": "openclaw-guardian", "source": "clawhub", "stars": 0, "tags": null, "updated_at": 1776748244954, "version": "1.0.1"}, {"category": "developer-tools", "created_at": 1772784264552, "description": "Autonomous yield farming agent for BNB Chain with deterministic execution, smart contract integration, and automated decision-making.", "description_zh": "", "downloads": 469, "homepage": "https://clawhub.ai/alannetwork/yieldvault-agent", "iconUrl": null, "installs": 6, "name": "YieldVault Agent", "ownerName": "alannetwork", "score": 93800, "slug": "yieldvault-agent", "source": "clawhub", "stars": 0, "tags": null, "updated_at": 1776748244921, "version": "1.0.0"}, {"category": "ai-intelligence", "created_at": 1773417176749, "description": "Configure and benchmark agent tools and integration patterns. Use when setting up agent workflows, comparing tools, or evaluating agents.", "description_zh": "", "downloads": 469, "homepage": "https://clawhub.ai/xueyetianya/agent-toolkit", "iconUrl": null, "installs": 17, "name": "Agent Toolkit", "ownerName": "xueyetianya", "score": 91960.78431372548, "slug": "agent-toolkit", "source": "clawhub", "stars": 0, "tags": ["chinese", "productivity"], "updated_at": 1776748244686, "version": "2.0.2"}, {"category": "developer-tools", "created_at": 1772785918449, "description": "Pandora namespace for Netsnek e.U. secrets and configuration management vault. Securely stores API keys, database credentials, and environment configs with v...", "description_zh": "", "downloads": 469, "homepage": "https://clawhub.ai/kleberbaum/pandora", "iconUrl": null, "installs": 13, "name": "pandora", "ownerName": "kleberbaum", "score": 91960.78431372548, "slug": "pandora", "source": "clawhub", "stars": 0, "tags": null, "updated_at": 1776748244657, "version": "0.1.0"}, {"category": "developer-tools", "created_at": 1772784073567, "description": "Select and refine a profitable, focused niche for a solopreneur business. Use when deciding which market segment to serve, narrowing a broad idea into a defe...", "description_zh": "", "downloads": 469, "homepage": "https://clawhub.ai/jk-0001/niche-selection", "iconUrl": null, "installs": 7, "name": "Niche Selection", "ownerName": "jk-0001", "score": 84504.50450450451, "slug": "niche-selection", "source": "clawhub", "stars": 0, "tags": null, "updated_at": 1776748244621, "version": "0.1.0"}, {"category": "developer-tools", "created_at": 1772788147858, "description": "Install and operate local NVIDIA Parakeet ASR for OpenClaw with an OpenAI-compatible transcription API on Ubuntu/Linux and macOS (Intel/Apple Silicon). Use w...", "description_zh": "", "downloads": 469, "homepage": "https://clawhub.ai/hantok/parakeet-local-asr", "iconUrl": null, "installs": 20, "name": "Parakeet Local Asr", "ownerName": "hantok", "score": 84504.50450450451, "slug": "parakeet-local-asr", "source": "clawhub", "stars": 0, "tags": null, "updated_at": 1776748244616, "version": "0.1.0"}, {"category": "ai-intelligence", "created_at": 1772786465307, "description": "Manage Notion checklist blocks inside a page (no database required). Use when the user has plain to-do blocks and wants to list tasks, add tasks, and mark ta...", "description_zh": "", "downloads": 469, "homepage": "https://clawhub.ai/luciorenovato/notion-tasks-blocks", "iconUrl": null, "installs": 37, "name": "Notion Tasks Blocks", "ownerName": "luciorenovato", "score": 90192.30769230769, "slug": "notion-tasks-blocks", "source": "clawhub", "stars": 0, "tags": null, "updated_at": 1776748244562, "version": "1.0.0"}, {"category": "developer-tools", "created_at": 1772780705797, "description": "Execute crypto trades using natural language via Tator's AI trading API. Use when: buying tokens, selling tokens, swapping, bridging cross-chain, sending tok...", "description_zh": "", "downloads": 469, "homepage": "https://clawhub.ai/azep-ninja/tator-trader", "iconUrl": null, "installs": 8, "name": "Tator Trader - AI Trading", "ownerName": "azep-ninja", "score": 90192.30769230769, "slug": "tator-trader", "source": "clawhub", "stars": 0, "tags": ["ai", "bridge", "defi", "perps", "swap", "trading", "x402", "yield"], "updated_at": 1776748244536, "version": "1.0.6"}, {"category": "productivity", "created_at": 1772787145504, "description": "Lead customer success with retention strategies, health scoring, expansion revenue, and lifecycle management.", "description_zh": "", "downloads": 468, "homepage": "https://clawhub.ai/ivangdavila/cco", "iconUrl": null, "installs": 24, "name": "CCO / Chief Customer Officer", "ownerName": "ivangdavila", "score": 98259.18762088974, "slug": "cco", "source": "clawhub", "stars": 2, "tags": null, "updated_at": 1776748244978, "version": "1.0.2"}, {"category": "ai-intelligence", "created_at": 1773066692523, "description": "Daily report skill - Generate and send daily work summary. Keywords: daily report, work summary, end of day. Use when: End of day reporting, or manually trig...", "description_zh": "", "downloads": 468, "homepage": "https://clawhub.ai/rare/daily-report-skill", "iconUrl": null, "installs": 24, "name": "Daily Report Skill", "ownerName": "rare", "score": 1360.702448101413, "slug": "daily-report-skill", "source": "clawhub", "stars": 0, "tags": null, "updated_at": 1776770690428, "version": "1.0.0"}, {"category": "productivity", "created_at": 1772790662811, "description": "Relay operator for Claude Code via tmux across multiple projects. Use when the user wants to start/continue a Claude Code terminal session, send prompts, rea...", "description_zh": "", "downloads": 468, "homepage": "https://clawhub.ai/artwalker/claude-relay", "iconUrl": null, "installs": 28, "name": "Claude Relay", "ownerName": "artwalker", "score": 7100.591715976331, "slug": "claude-relay", "source": "clawhub", "stars": 0, "tags": null, "updated_at": 1776769150170, "version": "1.1.0"}, {"category": "ai-intelligence", "created_at": 1772784600868, "description": "Generate more revenue with high-quality leads. Give your AI agent direct access to Prospairrow — extract prospects, enrich with deep company insights, discov...", "description_zh": "", "downloads": 468, "homepage": "https://clawhub.ai/discry/prospairrow-websites-mcp", "iconUrl": null, "installs": 15, "name": "Prospairrow Websites MCP", "ownerName": "discry", "score": 7576.4934434191355, "slug": "prospairrow-websites-mcp", "source": "clawhub", "stars": 0, "tags": ["bootstrap", "mcp", "prospairrow", "websites"], "updated_at": 1776765850065, "version": "1.2.5"}, {"category": "productivity", "created_at": 1773063560990, "description": "Expert code review for embedded/firmware projects with dual-model cross-review (Claude + Codex via ACP). Detects memory safety, interrupt hazards, RTOS pitfa...", "description_zh": "", "downloads": 468, "homepage": "https://clawhub.ai/ylongw/embedded-review", "iconUrl": null, "installs": 72, "name": "Embedded Code Review Expert", "ownerName": "ylongw", "score": 14320.685434516525, "slug": "embedded-review", "source": "clawhub", "stars": 0, "tags": null, "updated_at": 1776764950053, "version": "1.1.0"}, {"category": "developer-tools", "created_at": 1772786223321, "description": "Comprehensive training system offering personalized periodized programs for strength, endurance, fat loss, hypertrophy, injury rehab, and race prep based on...", "description_zh": "", "downloads": 468, "homepage": "https://clawhub.ai/1kalin/afrexai-fitness-engine", "iconUrl": null, "installs": 11, "name": "Fitness & Training Engineering", "ownerName": "1kalin", "score": 13916.146297948259, "slug": "afrexai-fitness-engine", "source": "clawhub", "stars": 0, "tags": ["bodybuilding", "crossfit", "exercise", "fitness", "gym", "health", "hypertrophy", "hyrox", "nutrition", "running", "strength", "training", "workout"], "updated_at": 1776761240107, "version": "1.1.0"}, {"category": "content-creation", "created_at": 1772789201883, "description": "Expertise in designing, developing, and modernizing full-stack TypeScript microservices with Vue 3 frontend and robust API-driven architectures.", "description_zh": "", "downloads": 468, "homepage": "https://clawhub.ai/khamalismadie/fswe", "iconUrl": null, "installs": 59, "name": "Full-Stack Web Engineer", "ownerName": "khamalismadie", "score": 34011.62790697674, "slug": "fswe", "source": "clawhub", "stars": 0, "tags": ["engineering", "fullstack", "microservices", "typescript", "vue"], "updated_at": 1776759083560, "version": "1.0.2"}, {"category": "developer-tools", "created_at": 1772788284446, "description": "The on-chain social network for AI agents on Chromia blockchain — posting, commenting, voting, and memory via Chromia CLI.", "description_zh": "", "downloads": 468, "homepage": "https://clawhub.ai/kj-script/testing-clawchain-flag", "iconUrl": null, "installs": 15, "name": "skill bundle clawchain", "ownerName": "kj-script", "score": 34011.62790697674, "slug": "testing-clawchain-flag", "source": "clawhub", "stars": 0, "tags": null, "updated_at": 1776759082941, "version": "1.0.1"}, {"category": "developer-tools", "created_at": 1772790313202, "description": "Diagram as contract for agreed-upon AI development", "description_zh": "", "downloads": 468, "homepage": "https://clawhub.ai/nonlinear/contract-diagram", "iconUrl": null, "installs": 11, "name": "contract diagram", "ownerName": "nonlinear", "score": 34285.71428571428, "slug": "contract-diagram", "source": "clawhub", "stars": 0, "tags": null, "updated_at": 1776759082772, "version": "1.0.1"}, {"category": "data-analysis", "created_at": 1772784035528, "description": "Provides persistent, versioned memory and engagement analysis for AI agents supporting creators and influencers across social media platforms.", "description_zh": "", "downloads": 468, "homepage": "https://clawhub.ai/willnigri/crowterminal", "iconUrl": null, "installs": 16, "name": "CrowTerminal", "ownerName": "willnigri", "score": 34538.74538745387, "slug": "crowterminal", "source": "clawhub", "stars": 0, "tags": null, "updated_at": 1776759082477, "version": "2.3.0"}, {"category": "productivity", "created_at": 1772784532258, "description": "Find relevant Reddit, HN, and ProductHunt threads and draft value-first community responses with launch checklist. Use when user says \"find communities\", \"dr...", "description_zh": "", "downloads": 468, "homepage": "https://clawhub.ai/fortunto2/solo-community-outreach", "iconUrl": null, "installs": 13, "name": "Community Outreach", "ownerName": "fortunto2", "score": 89655.1724137931, "slug": "solo-community-outreach", "source": "clawhub", "stars": 0, "tags": null, "updated_at": 1776748245066, "version": "1.1.1"}, {"category": "security-compliance", "created_at": 1772785811690, "description": "Connect OpenClaw agents to Settld MCP for paid tool calls with quote-bound authorization and verifiable receipts.", "description_zh": "", "downloads": 468, "homepage": "https://clawhub.ai/aidenlippert/settld-mcp-payments", "iconUrl": null, "installs": 12, "name": "Settld MCP Payments", "ownerName": "aidenlippert", "score": 90522.24371373307, "slug": "settld-mcp-payments", "source": "clawhub", "stars": 0, "tags": ["mcp", "payments", "settld", "x402"], "updated_at": 1776748244999, "version": "0.1.0"}, {"category": "productivity", "created_at": 1772784024360, "description": "Read-only assistant for BriteBooth.com. Collects product IDs, templates, and lead times. Requires human execution for cart creation.", "description_zh": "", "downloads": 468, "homepage": "https://clawhub.ai/vismonkey19/britebooth-procurement", "iconUrl": null, "installs": 15, "name": "BriteBooth Procurement", "ownerName": "vismonkey19", "score": 90522.24371373307, "slug": "britebooth-procurement", "source": "clawhub", "stars": 0, "tags": ["ecommerce", "logistics", "shopify", "trade-show"], "updated_at": 1776748244986, "version": "3.0.0"}, {"category": "developer-tools", "created_at": 1772784611046, "description": "V2EX API 2.0 integration for accessing V2EX forum data, notifications, topics, nodes, and member profiles", "description_zh": "", "downloads": 468, "homepage": "https://clawhub.ai/timqian/v2ex", "iconUrl": null, "installs": 13, "name": "v2ex", "ownerName": "timqian", "score": 91406.25, "slug": "v2ex", "source": "clawhub", "stars": 0, "tags": null, "updated_at": 1776748244787, "version": "1.0.0"}, {"category": "developer-tools", "created_at": 1772788029118, "description": "Control 3D printers with AI agents — 273 MCP tools, 107 CLI commands, text/sketch-to-3D generation, model marketplace search, multi-printer fleet support, sa...", "description_zh": "", "downloads": 468, "homepage": "https://clawhub.ai/codeofaxel/kiln", "iconUrl": null, "installs": 21, "name": "Kiln", "ownerName": "codeofaxel", "score": 84324.32432432433, "slug": "kiln", "source": "clawhub", "stars": 0, "tags": ["3d-printing", "ai-agent", "bambu", "klipper", "manufacturing", "mcp", "moonraker", "octoprint", "printer", "prusa"], "updated_at": 1776748244618, "version": "0.1.0"}, {"category": "productivity", "created_at": 1772782770355, "description": "Generate Leaf templates for FOSMVVM WebApps. Create full-page views and HTML-over-the-wire fragments that render ViewModels.", "description_zh": "", "downloads": 468, "homepage": "https://clawhub.ai/foscomputerservices/fosmvvm-leaf-view-generator", "iconUrl": null, "installs": 21, "name": "FOSMVVM Leaf View Generator", "ownerName": "foscomputerservices", "score": 90000, "slug": "fosmvvm-leaf-view-generator", "source": "clawhub", "stars": 0, "tags": null, "updated_at": 1776748244525, "version": "2.0.6"}, {"category": "developer-tools", "created_at": 1773285046208, "description": "Convert multiple HTML page elements into separate high-resolution images with customizable settings and automatic file naming.", "description_zh": "", "downloads": 467, "homepage": "https://clawhub.ai/shiker1996/html-pages-to-images", "iconUrl": null, "installs": 186, "name": "HTML 页面转图片", "ownerName": "shiker1996", "score": 17503.748125937032, "slug": "html-pages-to-images", "source": "clawhub", "stars": 0, "tags": null, "updated_at": 1776763750697, "version": "1.0.0"}, {"category": "data-analysis", "created_at": 1772795716202, "description": "Automates TikTok carousel content creation, smart scheduling, publishing via Postiz API, and analytics-driven optimization for niche accounts.", "description_zh": "", "downloads": 467, "homepage": "https://clawhub.ai/matttandy855/tiktok-content-pipeline", "iconUrl": null, "installs": 40, "name": "TikTok Content Pipeline", "ownerName": "matttandy855", "score": 12954.230235783634, "slug": "tiktok-content-pipeline", "source": "clawhub", "stars": 0, "tags": null, "updated_at": 1776762439764, "version": "1.0.4"}, {"category": "security-compliance", "created_at": 1772789271767, "description": "Evaluate and improve your organization's data governance across six domains by scoring controls, identifying risks, and prioritizing remediation actions.", "description_zh": "", "downloads": 467, "homepage": "https://clawhub.ai/1kalin/afrexai-data-governance", "iconUrl": null, "installs": 10, "name": "Data Governance Framework", "ownerName": "1kalin", "score": 32295.988934993085, "slug": "afrexai-data-governance", "source": "clawhub", "stars": 0, "tags": ["ai governance", "compliance", "data governance", "data quality", "gdpr"], "updated_at": 1776759082998, "version": "1.0.0"}, {"category": "content-creation", "created_at": 1772791030973, "description": "Post xeets, manage profile, and interact on AgentX News — a microblogging platform for AI agents. Use when the user asks to post updates, check feed, follow...", "description_zh": "", "downloads": 467, "homepage": "https://clawhub.ai/amittell/agentx-news", "iconUrl": null, "installs": 35, "name": "Agentx News", "ownerName": "amittell", "score": 89463.60153256705, "slug": "agentx-news", "source": "clawhub", "stars": 0, "tags": ["agents", "microblogging", "social"], "updated_at": 1776748245047, "version": "1.0.1"}, {"category": "communication-collaboration", "created_at": 1772786882958, "description": "(macOS) Discord voice assistant installer. Install/update discord-local-stt-tts (Discord voice, Discord local, local STT + local TTS) from GitHub Releases.", "description_zh": "", "downloads": 467, "homepage": "https://clawhub.ai/vilmire/discord-local-stt-tts-installer", "iconUrl": null, "installs": 23, "name": "Discord Local STT/TTS Installer (macOS)", "ownerName": "vilmire", "score": 90328.82011605415, "slug": "discord-local-stt-tts-installer", "source": "clawhub", "stars": 0, "tags": null, "updated_at": 1776748245011, "version": "0.1.1"}, {"category": "data-analysis", "created_at": 1772782685138, "description": "Access HL Privateer, an open agentic Hyperliquid discretionary trading desk. Read live positions, AI analysis, copy-trade signals, and risk state via x402 pa...", "description_zh": "", "downloads": 467, "homepage": "https://clawhub.ai/adwilkinson/hl-privateer-fund", "iconUrl": null, "installs": 8, "name": "HL Privateer", "ownerName": "adwilkinson", "score": 91748.52652259333, "slug": "hl-privateer-fund", "source": "clawhub", "stars": 0, "tags": null, "updated_at": 1776748244875, "version": "1.0.1"}, {"category": "content-creation", "created_at": 1772787616392, "description": "Manage downloads via Telegram Media Server (TMS) REST API — add by URL (video/magnet/torrent), list, delete, search torrents.", "description_zh": "", "downloads": 467, "homepage": "https://clawhub.ai/nikitadmitryuk/tms", "iconUrl": null, "installs": 39, "name": "TMS (Telegram Media Server)", "ownerName": "nikitadmitryuk", "score": 91748.52652259333, "slug": "tms", "source": "clawhub", "stars": 0, "tags": null, "updated_at": 1776748244854, "version": "1.0.6"}]}