{"page": 188, "total_pages": 522, "total": 26073, "skills": [{"category": "developer-tools", "created_at": 1772791157912, "description": "Self-hosted SMS via Android phone HTTP API. Use when you need to send/receive SMS messages using an Android device as a gateway. Supports popular SMS Gateway...", "description_zh": "", "downloads": 467, "homepage": "https://clawhub.ai/nadjihamid/android-sms-gateway", "iconUrl": null, "installs": 21, "name": "Android SMS Gateway", "ownerName": "nadjihamid", "score": 91210.9375, "slug": "android-sms-gateway", "source": "clawhub", "stars": 0, "tags": null, "updated_at": 1776748244775, "version": "2.0.0"}, {"category": "data-analysis", "created_at": 1772782898611, "description": "Use blankfiles.com as a binary test-file gateway: discover formats, filter by type/category, and return direct download URLs from the public API.", "description_zh": "", "downloads": 467, "homepage": "https://clawhub.ai/seblavoie/blankfiles", "iconUrl": null, "installs": 12, "name": "Blank Files Gateway", "ownerName": "seblavoie", "score": 91210.9375, "slug": "blankfiles", "source": "clawhub", "stars": 0, "tags": null, "updated_at": 1776748244773, "version": "1.0.0"}, {"category": "productivity", "created_at": 1772781176300, "description": "Process [Clawfy Pro] webhook messages from the browser extension. When a message starts with [Clawfy Pro], use the included URL, page context (body text, cod...", "description_zh": "", "downloads": 467, "homepage": "https://clawhub.ai/vabblejames/clawfy-pro", "iconUrl": null, "installs": 13, "name": "Clawfy Pro", "ownerName": "vabblejames", "score": 91568.62745098039, "slug": "clawfy-pro", "source": "clawhub", "stars": 0, "tags": null, "updated_at": 1776748244710, "version": "0.1.1"}, {"category": "productivity", "created_at": 1772784077030, "description": "Simulates a quantum kernel using optical fiber storage and linear optics.", "description_zh": "", "downloads": 467, "homepage": "https://clawhub.ai/aadipapp/optical-quantum-skill", "iconUrl": null, "installs": 23, "name": "Tenqua OpticalQuantumSkill", "ownerName": "aadipapp", "score": 91568.62745098039, "slug": "optical-quantum-skill", "source": "clawhub", "stars": 0, "tags": null, "updated_at": 1776748244669, "version": "1.0.0"}, {"category": "content-creation", "created_at": 1772785644142, "description": "3D visualization toolkit wrapping Pangolin viewer for real-time display of point clouds, trajectories, cameras, planes, chessboards, and images. Use when vis...", "description_zh": "", "downloads": 467, "homepage": "https://clawhub.ai/wangyendt/pangolin-utils", "iconUrl": null, "installs": 40, "name": "Pywayne Visualization Pangolin Utils", "ownerName": "wangyendt", "score": 84144.14414414414, "slug": "pangolin-utils", "source": "clawhub", "stars": 0, "tags": null, "updated_at": 1776748244586, "version": "0.1.0"}, {"category": "developer-tools", "created_at": 1772781995204, "description": "Plan low-risk refactors with seams, tests, and rollback points. Use when handling development work that needs repeatable steps, quality gates, and practical...", "description_zh": "", "downloads": 467, "homepage": "https://clawhub.ai/xammarie/jarvis-refactor-planner-01", "iconUrl": null, "installs": 8, "name": "Jarvis Refactor Planner 01", "ownerName": "xammarie", "score": 84144.14414414414, "slug": "jarvis-refactor-planner-01", "source": "clawhub", "stars": 0, "tags": null, "updated_at": 1776748244580, "version": "1.0.0"}, {"category": "security-compliance", "created_at": 1772786591308, "description": "Use this skill for requests touching webhooks, event-driven infrastructure, or real-time HTTP callbacks — from beginner setup to advanced security and archit...", "description_zh": "", "downloads": 466, "homepage": "https://clawhub.ai/prateek32177/hookflo-tern", "iconUrl": null, "installs": 9, "name": "Hookflo Webhooks", "ownerName": "prateek32177", "score": 99410.60903732809, "slug": "hookflo-tern", "source": "clawhub", "stars": 2, "tags": ["clerk", "express", "github", "hmac", "nextjs", "security", "stripe", "supabase", "webhooks"], "updated_at": 1776748244840, "version": "1.0.1"}, {"category": "data-analysis", "created_at": 1772785015598, "description": "Provides API marketplace access for AI agents. Discovers and calls external capabilities including web search, image generation, code execution, text-to-spee...", "description_zh": "", "downloads": 466, "homepage": "https://clawhub.ai/ucmai/ucm", "iconUrl": null, "installs": 7, "name": "Ucm", "ownerName": "ucmai", "score": 97307.69230769231, "slug": "ucm", "source": "clawhub", "stars": 2, "tags": null, "updated_at": 1776748244529, "version": "1.1.1"}, {"category": "developer-tools", "created_at": 1774619359801, "description": "Edit PDFs with natural-language instructions using the nano-pdf CLI.", "description_zh": "", "downloads": 466, "homepage": "https://clawhub.ai/utromaya-code/nano-pdf-editor", "iconUrl": null, "installs": 40, "name": "Nano Pdf", "ownerName": "utromaya-code", "score": 22468.793342579753, "slug": "nano-pdf-editor", "source": "clawhub", "stars": 1, "tags": null, "updated_at": 1776769750074, "version": "1.0.1"}, {"category": "productivity", "created_at": 1772791279601, "description": "Browse and buy products from online stores, including Cloudflare-protected sites. Use when the user asks to find, compare, or order products online. Handles...", "description_zh": "", "downloads": 466, "homepage": "https://clawhub.ai/filipmartinsson/online-shopping", "iconUrl": null, "installs": 14, "name": "Online Shopping", "ownerName": "filipmartinsson", "score": 35552.30431602048, "slug": "online-shopping", "source": "clawhub", "stars": 1, "tags": null, "updated_at": 1776759083469, "version": "1.0.0"}, {"category": "productivity", "created_at": 1772784006641, "description": "Send immediate voice call reminders or schedule future calls via DoNotify.", "description_zh": "", "downloads": 466, "homepage": "https://clawhub.ai/micahele/donotify-voice-call-reminder", "iconUrl": null, "installs": 10, "name": "Donotify Voice Call Reminder", "ownerName": "micahele", "score": 97200, "slug": "donotify-voice-call-reminder", "source": "clawhub", "stars": 1, "tags": null, "updated_at": 1776748244925, "version": "1.0.1"}, {"category": "security-compliance", "created_at": 1772785627845, "description": "IAM namespace for Netsnek e.U. identity and access management toolkit. Provides user authentication, role-based access control, and session management for we...", "description_zh": "", "downloads": 466, "homepage": "https://clawhub.ai/kleberbaum/iam", "iconUrl": null, "installs": 31, "name": "iam", "ownerName": "kleberbaum", "score": 34984.984984984985, "slug": "iam", "source": "clawhub", "stars": 0, "tags": null, "updated_at": 1776759382600, "version": "0.1.0"}, {"category": "content-creation", "created_at": 1772792418221, "description": "Automation skill for VibeClip - AI Music Video Gen.", "description_zh": "", "downloads": 466, "homepage": "https://clawhub.ai/gblockchainnetwork/vibeclip", "iconUrl": null, "installs": 70, "name": "Video App", "ownerName": "gblockchainnetwork", "score": 82477.87610619469, "slug": "vibeclip", "source": "clawhub", "stars": 0, "tags": null, "updated_at": 1776759083622, "version": "1.2.0"}, {"category": "productivity", "created_at": 1772786502098, "description": "Automates Django or Django REST Framework project setup with preconfigured environments, default settings, and best-practice structures for fast, consistent...", "description_zh": "", "downloads": 466, "homepage": "https://clawhub.ai/moenassi/django-tool", "iconUrl": null, "installs": 4, "name": "Django Project Creator", "ownerName": "moenassi", "score": 34014.598540145984, "slug": "django-tool", "source": "clawhub", "stars": 0, "tags": null, "updated_at": 1776759083040, "version": "1.0.0"}, {"category": "content-creation", "created_at": 1772786231391, "description": "Generate tailored 7-day social media content calendars with hooks, drafts, hashtags, posting times, and engagement tips for X/Twitter and Moltbook.", "description_zh": "", "downloads": 466, "homepage": "https://clawhub.ai/gpunter/claw1-content-calendar", "iconUrl": null, "installs": 32, "name": "Content Calendar Generator", "ownerName": "gpunter", "score": 81043.47826086957, "slug": "claw1-content-calendar", "source": "clawhub", "stars": 0, "tags": null, "updated_at": 1776759082911, "version": "1.0.0"}, {"category": "security-compliance", "created_at": 1772784922716, "description": "Guides organizations through SOC 2 compliance lifecycle with gap analysis, control implementation, evidence collection, audit prep, and continuous monitoring.", "description_zh": "", "downloads": 466, "homepage": "https://clawhub.ai/1kalin/afrexai-soc2-compliance", "iconUrl": null, "installs": 7, "name": "SOC 2 AI Agent Compliance", "ownerName": "1kalin", "score": 33915.5749636099, "slug": "afrexai-soc2-compliance", "source": "clawhub", "stars": 0, "tags": ["audit", "compliance", "governance", "security", "soc2"], "updated_at": 1776759082355, "version": "1.0.0"}, {"category": "communication-collaboration", "created_at": 1772785723623, "description": "When the user sends a screenshot via Telegram, parse it using Gemini (fast, default) with automatic Claude fallback when confidence is low. Saves results to...", "description_zh": "", "downloads": 466, "homepage": "https://clawhub.ai/devsandip/scrask-bot", "iconUrl": null, "installs": 16, "name": "Scrask", "ownerName": "devsandip", "score": 90135.39651837524, "slug": "scrask-bot", "source": "clawhub", "stars": 0, "tags": null, "updated_at": 1776748245041, "version": "1.0.1"}, {"category": "security-compliance", "created_at": 1772780988699, "description": "Diagnose and mitigate exec-related tooling failures around ClawHub publishing and GitHub CLI queries (auth, browser-login, missing dependencies, pending secu...", "description_zh": "", "downloads": 466, "homepage": "https://clawhub.ai/bluebirdback/exec-clawhub-publish-doctor", "iconUrl": null, "installs": 12, "name": "Exec ClawHub Publish Doctor", "ownerName": "bluebirdback", "score": 91552.06286836935, "slug": "exec-clawhub-publish-doctor", "source": "clawhub", "stars": 0, "tags": null, "updated_at": 1776748244845, "version": "1.0.1"}, {"category": "data-analysis", "created_at": 1772788820545, "description": "Model any API with Swamp, test it, and enrich *Claw with new capabilities — full lifecycle from idea to working integration", "description_zh": "", "downloads": 466, "homepage": "https://clawhub.ai/umag/swamp", "iconUrl": null, "installs": 13, "name": "swamp", "ownerName": "umag", "score": 91015.625, "slug": "swamp", "source": "clawhub", "stars": 0, "tags": null, "updated_at": 1776748244765, "version": "0.2.0"}, {"category": "productivity", "created_at": 1772787339578, "description": "Industry-adaptive B2B newsletter creation with stage, role, and geography-aware workflows", "description_zh": "", "downloads": 466, "homepage": "https://clawhub.ai/brianrwagner/brw-newsletter-creation-curation", "iconUrl": null, "installs": 21, "name": "Newsletter Creation Curation", "ownerName": "brianrwagner", "score": 91015.625, "slug": "brw-newsletter-creation-curation", "source": "clawhub", "stars": 0, "tags": null, "updated_at": 1776748244759, "version": "1.0.0"}, {"category": "developer-tools", "created_at": 1772783288175, "description": "Search your professional network and research people using the Happenstance API.", "description_zh": "", "downloads": 465, "homepage": "https://clawhub.ai/dgoss28/happenstance", "iconUrl": null, "installs": 5, "name": "Happenstance", "ownerName": "dgoss28", "score": 12610.976594027443, "slug": "happenstance", "source": "clawhub", "stars": 8, "tags": null, "updated_at": 1776769871248, "version": "1.0.0"}, {"category": "developer-tools", "created_at": 1772781925877, "description": "Generate FOSMVVM Fields protocols defining form fields, input types, validation rules, and localized messages for consistent, reusable form specifications.", "description_zh": "", "downloads": 465, "homepage": "https://clawhub.ai/foscomputerservices/fosmvvm-fields-generator", "iconUrl": null, "installs": 7, "name": "FOSMVVM Fields Generator", "ownerName": "foscomputerservices", "score": 99214.14538310413, "slug": "fosmvvm-fields-generator", "source": "clawhub", "stars": 2, "tags": null, "updated_at": 1776748244847, "version": "2.0.6"}, {"category": "content-creation", "created_at": 1772800036912, "description": "Create and manage Obsidian daily notes. Use when asked to write daily notes, record today's work, log session activities, or create daily summaries. Triggers...", "description_zh": "", "downloads": 465, "homepage": "https://clawhub.ai/jini92/obsidian-daily-mai", "iconUrl": null, "installs": 53, "name": "Obsidian Daily Note", "ownerName": "jini92", "score": 88665.4478976234, "slug": "obsidian-daily-mai", "source": "clawhub", "stars": 1, "tags": null, "updated_at": 1776759083118, "version": "1.1.0"}, {"category": "developer-tools", "created_at": 1772790490466, "description": "Distance, routing, and geocoding using free APIs (OSRM + Nominatim/OSM). Use when the user asks about distance between places, travel time, directions, how f...", "description_zh": "", "downloads": 465, "homepage": "https://clawhub.ai/adhishthite/maps-osrm", "iconUrl": null, "installs": 11, "name": "OSRM Maps Skill", "ownerName": "adhishthite", "score": 35496.18320610687, "slug": "maps-osrm", "source": "clawhub", "stars": 0, "tags": null, "updated_at": 1776759498043, "version": "1.0.3"}, {"category": "productivity", "created_at": 1772782310313, "description": "Create and manage fungible tokens and NFTs on Hedera with minting, supply control, and permission configuration.", "description_zh": "", "downloads": 465, "homepage": "https://clawhub.ai/harleyscodes/hedera-token-mint", "iconUrl": null, "installs": 16, "name": "Hedera Token Minting", "ownerName": "harleyscodes", "score": 34115.92076302275, "slug": "hedera-token-mint", "source": "clawhub", "stars": 0, "tags": null, "updated_at": 1776759083105, "version": "1.0.0"}, {"category": "developer-tools", "created_at": 1772789059830, "description": "Set up Claw To Talk — the official free push-to-talk voice companion app for OpenClaw (iOS & Android) with Tailscale + ElevenLabs", "description_zh": "", "downloads": 465, "homepage": "https://clawhub.ai/alvinunreal/clawtotalk", "iconUrl": null, "installs": 15, "name": "Claw To Talk: OpenClaw Voice Companion on iOS & Android", "ownerName": "alvinunreal", "score": 33769.063180827885, "slug": "clawtotalk", "source": "clawhub", "stars": 0, "tags": null, "updated_at": 1776759083007, "version": "1.0.0"}, {"category": "productivity", "created_at": 1772791190986, "description": "Upload files to Aliyun OSS or Tencent COS and return public access URLs. Use when the user wants to upload files, access files online, upload to OSS, get rem...", "description_zh": "", "downloads": 465, "homepage": "https://clawhub.ai/liuhean2021/oss-upload-online-access", "iconUrl": null, "installs": 49, "name": "Aliyun OSS or Tencent COS oss upload online access", "ownerName": "liuhean2021", "score": 80869.5652173913, "slug": "oss-upload-online-access", "source": "clawhub", "stars": 0, "tags": null, "updated_at": 1776759082892, "version": "1.6.0"}, {"category": "security-compliance", "created_at": 1772786942903, "description": "Framework to establish AI governance, assess AI maturity, manage algorithmic risks, conduct impact assessments, classify AI system risk, and ensure regulator...", "description_zh": "", "downloads": 465, "homepage": "https://clawhub.ai/1kalin/afrexai-ai-governance", "iconUrl": null, "installs": 11, "name": "AI Governance Policy Builder", "ownerName": "1kalin", "score": 34065.93406593407, "slug": "afrexai-ai-governance", "source": "clawhub", "stars": 0, "tags": ["ai", "ai-safety", "compliance", "enterprise", "ethics", "eu-ai-act", "governance", "nist", "policy", "responsible-ai"], "updated_at": 1776759082640, "version": "1.1.0"}, {"category": "productivity", "created_at": 1773208750567, "description": "Figma integration. Manage Files, Projects, Teams. Use when the user wants to interact with Figma data.", "description_zh": "", "downloads": 465, "homepage": "https://clawhub.ai/gora050/figma-integration", "iconUrl": null, "installs": 39, "name": "Figma", "ownerName": "gora050", "score": 30815.10934393638, "slug": "figma-integration", "source": "clawhub", "stars": 0, "tags": null, "updated_at": 1776757882401, "version": "1.0.0"}, {"category": "productivity", "created_at": 1772788770110, "description": "Searchable knowledge base that captures and cross-references everything users share. Auto-triggers when user shares ANY URL (article, tweet, thread, repo, vi...", "description_zh": "", "downloads": 465, "homepage": "https://clawhub.ai/don-gbot/source-library", "iconUrl": null, "installs": 11, "name": "Source Library", "ownerName": "don-gbot", "score": 27927.927927927925, "slug": "source-library", "source": "clawhub", "stars": 0, "tags": null, "updated_at": 1776756488739, "version": "2.1.1"}, {"category": "data-analysis", "created_at": 1772786273079, "description": "Generates a sun path diagram, calculates solar position, performs building shadow analysis, and analyzes thermal comfort.", "description_zh": "", "downloads": 465, "homepage": "https://clawhub.ai/qrost/sun-path", "iconUrl": null, "installs": 21, "name": "Sun Path & Environmental Analysis", "ownerName": "qrost", "score": 87901.70132325141, "slug": "sun-path", "source": "clawhub", "stars": 0, "tags": null, "updated_at": 1776753283934, "version": "1.4.1"}, {"category": "developer-tools", "created_at": 1772780041507, "description": "Provides an HTTP API exposing OpenClaw agent status as JSON for displaying on Tidbyt 64x32 LED devices with activity, emoji, and task details.", "description_zh": "", "downloads": 465, "homepage": "https://clawhub.ai/mrscoutshub/tidbyt-status", "iconUrl": null, "installs": 4, "name": "Tidbyt Status Display", "ownerName": "mrscoutshub", "score": 89080.45977011493, "slug": "tidbyt-status", "source": "clawhub", "stars": 0, "tags": null, "updated_at": 1776748245065, "version": "1.0.0"}, {"category": "developer-tools", "created_at": 1772792061763, "description": "Manages travel for your user via UBTRIPPIN — trips, items, loyalty programs, family, city guides, events, concerts, notifications, and more. Use when the use...", "description_zh": "", "downloads": 465, "homepage": "https://clawhub.ai/fistfulayen/ubtrippin", "iconUrl": null, "installs": 12, "name": "Skill", "ownerName": "fistfulayen", "score": 89080.45977011493, "slug": "ubtrippin", "source": "clawhub", "stars": 0, "tags": ["booking", "itinerary", "travel", "trips"], "updated_at": 1776748245055, "version": "2.3.0"}, {"category": "productivity", "created_at": 1772785289240, "description": "Search for golf tee times and deals near any location. Find cheapest rounds, compare prices across platforms, and get discount tips. Use when asked about gol...", "description_zh": "", "downloads": 465, "homepage": "https://clawhub.ai/tag-assistant/golf-tee-times", "iconUrl": null, "installs": 11, "name": "Golf Tee Times", "ownerName": "tag-assistant", "score": 93000, "slug": "golf-tee-times", "source": "clawhub", "stars": 0, "tags": null, "updated_at": 1776748244960, "version": "1.0.0"}, {"category": "productivity", "created_at": 1772786826803, "description": "Use when tasks need Exa MCP for web or people research, or when preparing Exa MCP server configuration with a fixed tool set. Trigger for requests to run Exa...", "description_zh": "", "downloads": 465, "homepage": "https://clawhub.ai/tokyo-s/exa-skill", "iconUrl": null, "installs": 23, "name": "Exa tools", "ownerName": "tokyo-s", "score": 93000, "slug": "exa-skill", "source": "clawhub", "stars": 0, "tags": null, "updated_at": 1776748244893, "version": "1.0.0"}, {"category": "data-analysis", "created_at": 1772786994312, "description": "Pryamoy Russkiy (Straight Russian) — AI assistant that tells it like it is. Direct answers, no fluff, occasional profanity. Specializes in honest analysis, t...", "description_zh": "", "downloads": 465, "homepage": "https://clawhub.ai/voronindenis5/russian-uncensored", "iconUrl": null, "installs": 16, "name": "OpenClaw Russian — русскоязычный AI-ассистент с характером.", "ownerName": "voronindenis5", "score": 91355.59921414538, "slug": "russian-uncensored", "source": "clawhub", "stars": 0, "tags": ["ai-assistant", "analysis", "code-review", "communication", "conversational", "direct", "honest-feedback", "russian", "russian-language", "uncensored"], "updated_at": 1776748244881, "version": "1.0.3"}, {"category": "ai-intelligence", "created_at": 1772787111656, "description": "Transform faces across ages using each::sense AI. Create age progressions, de-aging effects, baby-to-adult predictions, and aging simulations for entertainme...", "description_zh": "", "downloads": 465, "homepage": "https://clawhub.ai/eftalyurtseven/age-transformation", "iconUrl": null, "installs": 26, "name": "Age Transformation", "ownerName": "eftalyurtseven", "score": 90820.3125, "slug": "age-transformation", "source": "clawhub", "stars": 0, "tags": null, "updated_at": 1776748244784, "version": "0.1.0"}, {"category": "security-compliance", "created_at": 1772784293923, "description": "Audit your information diet across HN and RSS feeds — beautiful reports with category breakdowns, ASCII charts, and personalized recommendations.", "description_zh": "", "downloads": 465, "homepage": "https://clawhub.ai/tkuehnl/feed-diet", "iconUrl": null, "installs": 11, "name": "feed-diet", "ownerName": "tkuehnl", "score": 90820.3125, "slug": "feed-diet", "source": "clawhub", "stars": 0, "tags": null, "updated_at": 1776748244757, "version": "0.2.1"}, {"category": "developer-tools", "created_at": 1772784676825, "description": "Control OpenCode directly via the Agent Client Protocol (ACP). Start sessions, send prompts, resume conversations, and manage OpenCode updates.", "description_zh": "", "downloads": 465, "homepage": "https://clawhub.ai/berriosb/opencode-acp-control-3", "iconUrl": null, "installs": 1, "name": "Opencode Acp Control", "ownerName": "berriosb", "score": 89423.07692307692, "slug": "opencode-acp-control-3", "source": "clawhub", "stars": 0, "tags": null, "updated_at": 1776748244471, "version": "0.1.1"}, {"category": "developer-tools", "created_at": 1772787254237, "description": "Guide users to build, price, sell, and scale AI agent service agencies with actionable, economics-backed strategies for solo to 7-figure operations.", "description_zh": "", "downloads": 464, "homepage": "https://clawhub.ai/1kalin/afrexai-ai-agency-blueprint", "iconUrl": null, "installs": 27, "name": "AI Automation Agency Blueprint", "ownerName": "1kalin", "score": 90322.58064516129, "slug": "afrexai-ai-agency-blueprint", "source": "clawhub", "stars": 2, "tags": ["agency", "ai", "automation", "business", "monetize", "pricing", "sales", "scaling"], "updated_at": 1776759083726, "version": "1.0.0"}, {"category": "developer-tools", "created_at": 1772801465987, "description": "Enables local hybrid memory search and embedding using QMD to reduce API costs by $50-300/month with automatic setup, smart indexing, and multi-agent sharing.", "description_zh": "", "downloads": 464, "homepage": "https://clawhub.ai/asabovetech/qmd-memory", "iconUrl": null, "installs": 24, "name": "QMD Memory", "ownerName": "asabovetech", "score": 5750.267316145895, "slug": "qmd-memory", "source": "clawhub", "stars": 1, "tags": null, "updated_at": 1776768671056, "version": "1.0.0"}, {"category": "developer-tools", "created_at": 1772790255855, "description": "Manage BRICKS workspace devices, groups, apps, modules, media, and projects via CLI for control, monitoring, updates, and deployments.", "description_zh": "", "downloads": 464, "homepage": "https://clawhub.ai/jhen0409/bricks-cli", "iconUrl": null, "installs": 9, "name": "BRICKS CLI", "ownerName": "jhen0409", "score": 21294.171638366224, "slug": "bricks-cli", "source": "clawhub", "stars": 0, "tags": null, "updated_at": 1776759083846, "version": "0.1.2"}, {"category": "data-analysis", "created_at": 1772786684373, "description": "Provides on-demand 10-second automatic rollback protection when modifying openclaw.json to ensure Gateway stability.", "description_zh": "", "downloads": 464, "homepage": "https://clawhub.ai/segasonicye/config-guard", "iconUrl": null, "installs": 18, "name": "Config Guard", "ownerName": "segasonicye", "score": 33868.61313868613, "slug": "config-guard", "source": "clawhub", "stars": 0, "tags": null, "updated_at": 1776759083036, "version": "0.1.0"}, {"category": "data-analysis", "created_at": 1772783653844, "description": "Scan and compare USDC yield farming options on Base and Arbitrum with APY rankings, breakeven analysis, historical trends, and protocol risk summaries.", "description_zh": "", "downloads": 464, "homepage": "https://clawhub.ai/joaoolucas/n0ir-defi-yield-scout", "iconUrl": null, "installs": 10, "name": "n0ir DeFi Yield Scout", "ownerName": "joaoolucas", "score": 33992.673992674, "slug": "n0ir-defi-yield-scout", "source": "clawhub", "stars": 0, "tags": null, "updated_at": 1776759082626, "version": "1.0.0"}, {"category": "security-compliance", "created_at": 1772784728805, "description": "Audits ERC-8004 agents by analyzing metadata, endpoints, payment configs, and reputation to identify security risks and generate detailed reports.", "description_zh": "", "downloads": 464, "homepage": "https://clawhub.ai/aviclaw/agent-security-auditor", "iconUrl": null, "installs": 13, "name": "Agent Security Auditor", "ownerName": "aviclaw", "score": 33745.454545454544, "slug": "agent-security-auditor", "source": "clawhub", "stars": 0, "tags": ["audit", "erc-8004", "security"], "updated_at": 1776759082570, "version": "1.0.0"}, {"category": "productivity", "created_at": 1772799499396, "description": "Timed rollback safety net for edits to ~/.openclaw/openclaw.json on macOS. Use when changing Gateway config, restarting Gateway after config edits, or needin...", "description_zh": "", "downloads": 464, "homepage": "https://clawhub.ai/extraterrest/auto-rollback", "iconUrl": null, "installs": 17, "name": "Auto Rollback", "ownerName": "extraterrest", "score": 88888.88888888889, "slug": "auto-rollback", "source": "clawhub", "stars": 0, "tags": null, "updated_at": 1776748246992, "version": "1.1.1-alpha.3"}, {"category": "data-analysis", "created_at": 1772786016427, "description": "Execute AI workflow orchestration flows using the AetherLang Ω DSL. Run multi-step AI pipelines for recipes, business strategy, market analysis, molecular ga...", "description_zh": "", "downloads": 464, "homepage": "https://clawhub.ai/contrario/skills-2", "iconUrl": null, "installs": 11, "name": "Skills", "ownerName": "contrario", "score": 88888.88888888889, "slug": "skills-2", "source": "clawhub", "stars": 0, "tags": ["aetherlang", "ai", "dsl", "orchestration", "recipes", "research", "strategy", "workflow"], "updated_at": 1776748246979, "version": "2.0.2"}, {"category": "security-compliance", "created_at": 1772785268814, "description": "Security and threat scanning skill for OpenClaw agents. Scans files and skills for malware. Monitors agent behavior for compromise indicators. Audits host se...", "description_zh": "", "downloads": 464, "homepage": "https://clawhub.ai/silentcool/crusty-security", "iconUrl": null, "installs": 18, "name": "Crusty Security", "ownerName": "silentcool", "score": 92800, "slug": "crusty-security", "source": "clawhub", "stars": 0, "tags": null, "updated_at": 1776748244937, "version": "0.1.4"}, {"category": "data-analysis", "created_at": 1772781971407, "description": "AI founder coaching system — daily decision journal, accountability tracking, weekly strategy reviews, and AI-era specific questions on moat, commoditization...", "description_zh": "", "downloads": 464, "homepage": "https://clawhub.ai/aiwithabidi/founder-coach-ai", "iconUrl": null, "installs": 18, "name": "Founder Coach AI", "ownerName": "aiwithabidi", "score": 83603.60360360361, "slug": "founder-coach-ai", "source": "clawhub", "stars": 0, "tags": ["agxntsix"], "updated_at": 1776748244643, "version": "1.0.0"}, {"category": "ai-intelligence", "created_at": 1772786718473, "description": "Trust layer for AI agents — verify identities, guard prompts, redact PII, and manage x402 escrow payments.", "description_zh": "", "downloads": 463, "homepage": "https://clawhub.ai/garinmckayl/agntor", "iconUrl": null, "installs": 37, "name": "Agntor", "ownerName": "garinmckayl", "score": 16761.079640119962, "slug": "agntor", "source": "clawhub", "stars": 2, "tags": null, "updated_at": 1776761690381, "version": "1.0.0"}]}