{"page": 189, "total_pages": 522, "total": 26073, "skills": [{"category": "data-analysis", "created_at": 1772790236666, "description": "Assist in structuring medical-tech bootcamps, crafting health-tech content, and analyzing Sharia-compliant trades with Python and data-driven insights.", "description_zh": "", "downloads": 463, "homepage": "https://clawhub.ai/mkassab30-ux/hybrid-md", "iconUrl": null, "installs": 19, "name": "Hybrid MD Assistant.", "ownerName": "mkassab30-ux", "score": 36903.88848129127, "slug": "hybrid-md", "source": "clawhub", "stars": 2, "tags": null, "updated_at": 1776759083068, "version": "1.0.1"}, {"category": "data-analysis", "created_at": 1772787192200, "description": "Develop custom Telegram and Discord bots with features like trading, gaming, automation, webhook integration, and user engagement analytics.", "description_zh": "", "downloads": 463, "homepage": "https://clawhub.ai/katrina-jpg/telegram-discord-bot-dev", "iconUrl": null, "installs": 28, "name": "Telegram Discord Bot Dev", "ownerName": "katrina-jpg", "score": 36958.11903012491, "slug": "telegram-discord-bot-dev", "source": "clawhub", "stars": 2, "tags": null, "updated_at": 1776759082172, "version": "1.0.0"}, {"category": "data-analysis", "created_at": 1772785668265, "description": "Frontier search models with multi-angle research on every query. CellCog combines deep reasoning with SOTA search to produce accurate, comprehensive news bri...", "description_zh": "", "downloads": 463, "homepage": "https://clawhub.ai/nitishgargiitd/news-cog", "iconUrl": null, "installs": 17, "name": "news-cog", "ownerName": "nitishgargiitd", "score": 96360.15325670499, "slug": "news-cog", "source": "clawhub", "stars": 2, "tags": null, "updated_at": 1776748247009, "version": "1.0.0"}, {"category": "data-analysis", "created_at": 1772790843712, "description": "Use ActivityWatch to analyze user's computer activity", "description_zh": "", "downloads": 463, "homepage": "https://clawhub.ai/qew21/activity-analyzer", "iconUrl": null, "installs": 18, "name": "activity-analyzer", "ownerName": "qew21", "score": 33869.787856620336, "slug": "activity-analyzer", "source": "clawhub", "stars": 0, "tags": null, "updated_at": 1776759082461, "version": "1.0.1"}, {"category": "developer-tools", "created_at": 1772788022082, "description": "Scan 1,000 GitHub forks per run. Surface the gold, skip the clones — fully automated.", "description_zh": "", "downloads": 463, "homepage": "https://clawhub.ai/globalcaos/fork-and-skill-scanner-ultimate", "iconUrl": null, "installs": 18, "name": "Fork and Skill Scanner Ultimate", "ownerName": "globalcaos", "score": 31712.328767123287, "slug": "fork-and-skill-scanner-ultimate", "source": "clawhub", "stars": 0, "tags": null, "updated_at": 1776758220591, "version": "1.1.1"}, {"category": "", "created_at": 1774905066578, "description": "Professional Word document generator. Use when user needs to create reports, papers, contracts, resumes, or any professional document. Supports docx/doc form...", "description_zh": "", "downloads": 463, "homepage": "https://clawhub.ai/tobewin/word-studio", "iconUrl": null, "installs": 146, "name": "Word Studio", "ownerName": "tobewin", "score": 80944.05594405594, "slug": "word-studio", "source": "clawhub", "stars": 0, "tags": null, "updated_at": 1776752704842, "version": "1.0.3"}, {"category": "productivity", "created_at": 1772784678674, "description": "Acts as the user's relationship and dating assistant in the Love topic. Tracks dating life, relationship notes, advice, important dates. Use when in Personal...", "description_zh": "", "downloads": 463, "homepage": "https://clawhub.ai/gekacross/personal-love", "iconUrl": null, "installs": 15, "name": "Personal Love", "ownerName": "gekacross", "score": 14473.272897780556, "slug": "personal-love", "source": "clawhub", "stars": 0, "tags": null, "updated_at": 1776750169578, "version": "1.0.0"}, {"category": "developer-tools", "created_at": 1772780900742, "description": "Connect your AI agent to ServiceNow — query, create, update, and manage records across any table using the Table API and Stats API. Full CRUD operations, agg...", "description_zh": "", "downloads": 463, "homepage": "https://clawhub.ai/onlyflowstech/servicenow", "iconUrl": null, "installs": 12, "name": "ServiceNow", "ownerName": "onlyflowstech", "score": 92231.07569721116, "slug": "servicenow", "source": "clawhub", "stars": 0, "tags": ["ai", "automation", "cmdb", "itom", "itsm", "servicenow"], "updated_at": 1776748255570, "version": "1.1.0"}, {"category": "content-creation", "created_at": 1772787425759, "description": "Generate photorealistic digital twins and avatar clones using each::sense AI. Create AI-powered digital representations for video calls, corporate communicat...", "description_zh": "", "downloads": 463, "homepage": "https://clawhub.ai/eftalyurtseven/digital-twin-generation", "iconUrl": null, "installs": 41, "name": "Digital Twin Generation", "ownerName": "eftalyurtseven", "score": 88697.31800766283, "slug": "digital-twin-generation", "source": "clawhub", "stars": 0, "tags": null, "updated_at": 1776748255513, "version": "1.0.0"}, {"category": "ai-intelligence", "created_at": 1772783751394, "description": "Track recurring maintenance tasks from the command line. Use when scheduling, checking, and logging periodic tasks like backups, reviews, or any repeating ch...", "description_zh": "", "downloads": 463, "homepage": "https://clawhub.ai/halbotley/duely", "iconUrl": null, "installs": 15, "name": "duely", "ownerName": "halbotley", "score": 88697.31800766283, "slug": "duely", "source": "clawhub", "stars": 0, "tags": null, "updated_at": 1776748255511, "version": "1.0.0"}, {"category": "productivity", "created_at": 1772786572405, "description": "Automated Telnyx bot account signup via Proof of Work challenge", "description_zh": "", "downloads": 463, "homepage": "https://clawhub.ai/teamtelnyx/telnyx-bot-signup", "iconUrl": null, "installs": 11, "name": "Telnyx Bot Signup", "ownerName": "teamtelnyx", "score": 88697.31800766283, "slug": "telnyx-bot-signup", "source": "clawhub", "stars": 0, "tags": null, "updated_at": 1776748255506, "version": "1.1.0"}, {"category": "data-analysis", "created_at": 1773433076680, "description": "Analyze customer reviews, complaints, and feedback to find repeat patterns, likely root causes, and action priorities. Use when teams need to cluster complai...", "description_zh": "", "downloads": 463, "homepage": "https://clawhub.ai/leooooooow/review-analysis", "iconUrl": null, "installs": 10, "name": "Review Analysis", "ownerName": "leooooooow", "score": 88697.31800766283, "slug": "review-analysis", "source": "clawhub", "stars": 0, "tags": null, "updated_at": 1776748255460, "version": "1.0.1"}, {"category": "developer-tools", "created_at": 1772788300742, "description": "Repliz social media management API integration. Use when working with Repliz to manage social media accounts, schedules, and comments. Requires REPLIZ_ACCESS...", "description_zh": "", "downloads": 462, "homepage": "https://clawhub.ai/staryone/repliz", "iconUrl": null, "installs": 8, "name": "Repliz Api", "ownerName": "staryone", "score": 100000, "slug": "repliz", "source": "clawhub", "stars": 3, "tags": null, "updated_at": 1776748255518, "version": "1.0.2"}, {"category": "developer-tools", "created_at": 1772793392720, "description": "Control MindReset Dot Quote/0 through the local quote0.js script and Dot Developer Platform APIs. Use when the user asks to configure Quote/0, push text/imag...", "description_zh": "", "downloads": 462, "homepage": "https://clawhub.ai/yangguangzhou/quote0", "iconUrl": null, "installs": 7, "name": "Quote/0", "ownerName": "yangguangzhou", "score": 100000, "slug": "quote0", "source": "clawhub", "stars": 2, "tags": ["api", "dot", "quote0"], "updated_at": 1776748255548, "version": "1.0.4"}, {"category": "content-creation", "created_at": 1772789552520, "description": "Possibly the cheapest AI image generation (~$0.0036/image). Text-to-image via the EvoLink API.", "description_zh": "", "downloads": 462, "homepage": "https://clawhub.ai/pharmacist9527/cheapest-image", "iconUrl": null, "installs": 25, "name": "Cheapest Image", "ownerName": "pharmacist9527", "score": 100000, "slug": "cheapest-image", "source": "clawhub", "stars": 2, "tags": null, "updated_at": 1776748255543, "version": "1.0.0"}, {"category": "data-analysis", "created_at": 1772791906457, "description": "Analyze and trade meme coins using KryptoGO's on-chain cluster analysis platform. Covers wallet clustering, address labels, accumulation/distribution detecti...", "description_zh": "", "downloads": 462, "homepage": "https://clawhub.ai/a00012025/kryptogo-meme-trader", "iconUrl": null, "installs": 8, "name": "KryptoGO Meme Trader", "ownerName": "a00012025", "score": 96168.58237547893, "slug": "kryptogo-meme-trader", "source": "clawhub", "stars": 2, "tags": ["crypto", "defi", "meme", "solana", "trading"], "updated_at": 1776748255481, "version": "2.5.6"}, {"category": "productivity", "created_at": 1773083451197, "description": "Monitor and summarize finance websites for fund-investing support. Use when user asks to fetch finance site text, track changes, or schedule periodic monitor...", "description_zh": "", "downloads": 462, "homepage": "https://clawhub.ai/warriorfan/finance-web-monitor", "iconUrl": null, "installs": 96, "name": "Finance Web Monitor", "ownerName": "warriorfan", "score": 3260.409315455187, "slug": "finance-web-monitor", "source": "clawhub", "stars": 0, "tags": null, "updated_at": 1776765850326, "version": "1.0.0"}, {"category": "developer-tools", "created_at": 1772796814350, "description": "Clawsy is a native macOS menu bar app that gives your OpenClaw agent real-world reach — screenshots, clipboard sync, Quick Send, camera, file access via Find...", "description_zh": "", "downloads": 462, "homepage": "https://clawhub.ai/iret77/clawsy", "iconUrl": null, "installs": 16, "name": "Clawsy Server", "ownerName": "iret77", "score": 22647.058823529413, "slug": "clawsy", "source": "clawhub", "stars": 0, "tags": ["bridge", "macos", "openclaw", "productivity", "tools"], "updated_at": 1776764649877, "version": "0.9.33"}, {"category": "developer-tools", "created_at": 1772789810933, "description": "Interact with Notion workspaces using official API - manage pages, databases, blocks, users, and comments", "description_zh": "", "downloads": 462, "homepage": "https://clawhub.ai/devxoul/vibe-notionbot", "iconUrl": null, "installs": 25, "name": "Vibe Notionbot", "ownerName": "devxoul", "score": 16576.964477933263, "slug": "vibe-notionbot", "source": "clawhub", "stars": 0, "tags": null, "updated_at": 1776761989897, "version": "0.9.0"}, {"category": "developer-tools", "created_at": 1773064798167, "description": "Automate web tasks like form filling, data scraping, testing, monitoring, and scheduled jobs using Selenium or Puppeteer with retry and proxy support.", "description_zh": "", "downloads": 462, "homepage": "https://clawhub.ai/kesepain/ai-web-automation-1-0-0", "iconUrl": null, "installs": 79, "name": "Ai Web Automation 1.0.0", "ownerName": "kesepain", "score": 33995.58498896247, "slug": "ai-web-automation-1-0-0", "source": "clawhub", "stars": 0, "tags": null, "updated_at": 1776759083341, "version": "1.0.0"}, {"category": "security-compliance", "created_at": 1772787736774, "description": "A swift reminder of both human and agent duties regarding operational security.", "description_zh": "", "downloads": 462, "homepage": "https://clawhub.ai/wulf715/opsecmd", "iconUrl": null, "installs": 12, "name": "opsec.md", "ownerName": "wulf715", "score": 79792.74611398963, "slug": "opsecmd", "source": "clawhub", "stars": 0, "tags": ["opsec", "wfcshell", "wulfcorp"], "updated_at": 1776759082803, "version": "1.1.0"}, {"category": "developer-tools", "created_at": 1772787296230, "description": "Local control of Philips Hue lights via API v1.", "description_zh": "", "downloads": 462, "homepage": "https://clawhub.ai/aprilox/philips-hue", "iconUrl": null, "installs": 12, "name": "Philips Hue", "ownerName": "aprilox", "score": 83093.52517985612, "slug": "philips-hue", "source": "clawhub", "stars": 0, "tags": null, "updated_at": 1776751369758, "version": "1.0.1"}, {"category": "content-creation", "created_at": 1772786339245, "description": "Generate diverse, non-repetitive image prompts powered by real visual references from Dribbble and design platforms. USE WHEN: user wants an image prompt, ne...", "description_zh": "", "downloads": 462, "homepage": "https://clawhub.ai/abdullah4ai/visual-prompt-engine", "iconUrl": null, "installs": 31, "name": "Visual Prompt Engine", "ownerName": "abdullah4ai", "score": 92031.87250996016, "slug": "visual-prompt-engine", "source": "clawhub", "stars": 0, "tags": null, "updated_at": 1776748255591, "version": "1.0.0"}, {"category": "developer-tools", "created_at": 1772784374339, "description": "Scans files, repos, and directories for leaked secrets — API keys, tokens, passwords, connection strings, private keys, and credentials. Detects 40+ secret p...", "description_zh": "", "downloads": 462, "homepage": "https://clawhub.ai/nirwandogra/credential-scanner", "iconUrl": null, "installs": 12, "name": "Credential Scanner", "ownerName": "nirwandogra", "score": 92031.87250996016, "slug": "credential-scanner", "source": "clawhub", "stars": 0, "tags": null, "updated_at": 1776748255574, "version": "0.1.0"}, {"category": "developer-tools", "created_at": 1772783379516, "description": "AI agent for teamo decision tasks", "description_zh": "", "downloads": 462, "homepage": "https://clawhub.ai/urrrich0/teamo-decision", "iconUrl": null, "installs": 14, "name": "Teamo Decision", "ownerName": "urrrich0", "score": 92031.87250996016, "slug": "teamo-decision", "source": "clawhub", "stars": 0, "tags": null, "updated_at": 1776748255572, "version": "0.1.0"}, {"category": "ai-intelligence", "created_at": 1772786539143, "description": "Fix OpenClaw Gateway \"spawn EBADF\" / \"RPC probe failed\" / \"EMFILE too many open files\" errors caused by file descriptor exhaustion from too many files in wor...", "description_zh": "", "downloads": 462, "homepage": "https://clawhub.ai/thomaszhang2661/openclaw-gateway-fd-fix", "iconUrl": null, "installs": 19, "name": "Openclaw Gateway Fd Fix", "ownerName": "thomaszhang2661", "score": 92031.87250996016, "slug": "openclaw-gateway-fd-fix", "source": "clawhub", "stars": 0, "tags": null, "updated_at": 1776748255561, "version": "1.0.0"}, {"category": "productivity", "created_at": 1772785386597, "description": "Encode and decode Cashu tokens that are hidden inside emojis using Unicode variation selectors.", "description_zh": "", "downloads": 462, "homepage": "https://clawhub.ai/robwoodgate/cashu-emoji", "iconUrl": null, "installs": 11, "name": "Cashu Emoji", "ownerName": "robwoodgate", "score": 92031.87250996016, "slug": "cashu-emoji", "source": "clawhub", "stars": 0, "tags": null, "updated_at": 1776748255550, "version": "0.1.0"}, {"category": "productivity", "created_at": 1773417737176, "description": "Calculate DeFi yields including APY, impermanent loss, and staking rewards. Use when estimating returns, comparing protocols, tracking farming.", "description_zh": "", "downloads": 462, "homepage": "https://clawhub.ai/xueyetianya/crypto-defi", "iconUrl": null, "installs": 7, "name": "Crypto Defi", "ownerName": "xueyetianya", "score": 92031.87250996016, "slug": "crypto-defi", "source": "clawhub", "stars": 0, "tags": ["chinese", "productivity"], "updated_at": 1776748255532, "version": "2.4.9"}, {"category": "security-compliance", "created_at": 1773284153281, "description": "Security guard for OpenClaw users. Audit configs, scan secrets, manage access, and generate security reports.", "description_zh": "", "downloads": 462, "homepage": "https://clawhub.ai/hkall/openclaw-security-toolkit", "iconUrl": null, "installs": 8, "name": "Openclaw Security Toolkit", "ownerName": "hkall", "score": 92031.87250996016, "slug": "openclaw-security-toolkit", "source": "clawhub", "stars": 0, "tags": null, "updated_at": 1776748255530, "version": "1.0.0"}, {"category": "productivity", "created_at": 1772788052503, "description": "RSS/Atom feed digest with optional CVE enrichment, Ghost CMS drafts, and channel notifications", "description_zh": "", "downloads": 462, "homepage": "https://clawhub.ai/homeofe/openclaw-rss-feeds", "iconUrl": null, "installs": 17, "name": "RSS Feeds", "ownerName": "homeofe", "score": 88505.74712643678, "slug": "openclaw-rss-feeds", "source": "clawhub", "stars": 0, "tags": ["elvatis", "openclaw", "plugin"], "updated_at": 1776748255516, "version": "0.2.0"}, {"category": "developer-tools", "created_at": 1773082756944, "description": "Scrape Twitter profiles and tweets via GraphQL, export to JSON or database", "description_zh": "", "downloads": 462, "homepage": "https://clawhub.ai/phy041/twitter-scrape", "iconUrl": null, "installs": 18, "name": "Twitter Scrape", "ownerName": "phy041", "score": 88505.74712643678, "slug": "twitter-scrape", "source": "clawhub", "stars": 0, "tags": ["graphql", "scraping", "twitter"], "updated_at": 1776748255509, "version": "1.0.0"}, {"category": "ai-intelligence", "created_at": 1772786589751, "description": "Set up and maintain a structured OpenClaw workspace with project boundaries, role-based file taxonomy, and memory budgets. Use when: (1) bootstrapping a new...", "description_zh": "", "downloads": 462, "homepage": "https://clawhub.ai/marcus-daemon/workspace-standard", "iconUrl": null, "installs": 18, "name": "Workspace Standard", "ownerName": "marcus-daemon", "score": 88505.74712643678, "slug": "workspace-standard", "source": "clawhub", "stars": 0, "tags": null, "updated_at": 1776748255477, "version": "1.0.0"}, {"category": "developer-tools", "created_at": 1772782071565, "description": "Persistent personality for AI agents — define, evolve, and share your soul", "description_zh": "", "downloads": 461, "homepage": "https://clawhub.ai/veiovi/neokarma-soulmd-builder", "iconUrl": null, "installs": 20, "name": "Neokarma Soul.md Builder", "ownerName": "veiovi", "score": 99800.796812749, "slug": "neokarma-soulmd-builder", "source": "clawhub", "stars": 2, "tags": null, "updated_at": 1776748255579, "version": "1.4.5"}, {"category": "productivity", "created_at": 1772785524341, "description": "Monitor your SoundCloud account, track artist releases, and get notified about new followers and likes.", "description_zh": "", "downloads": 461, "homepage": "https://clawhub.ai/wlinds/soundcloud-watcher", "iconUrl": null, "installs": 9, "name": "SoundCloud Watcher", "ownerName": "wlinds", "score": 99800.796812749, "slug": "soundcloud-watcher", "source": "clawhub", "stars": 2, "tags": null, "updated_at": 1776748255525, "version": "2.3.1"}, {"category": "ai-intelligence", "created_at": 1773218790068, "description": "Multi-round independent deep thinking. Each round produces complete, final-quality solutions. Non-iterative, no TODOs, no angle constraints—pure divergent th...", "description_zh": "", "downloads": 461, "homepage": "https://clawhub.ai/stofancy/reinforced-thinking-mode", "iconUrl": null, "installs": 18, "name": "Reinforced Thinking Mode", "ownerName": "stofancy", "score": 9697.58064516129, "slug": "reinforced-thinking-mode", "source": "clawhub", "stars": 1, "tags": null, "updated_at": 1776767649760, "version": "1.1.0"}, {"category": "developer-tools", "created_at": 1772796144401, "description": "Access global financial data including SEC filings, Asian and US stock markets, crypto on-chain metrics, financial news sentiment, and macroeconomic indicators.", "description_zh": "", "downloads": 461, "homepage": "https://clawhub.ai/xuan622/fin-intel-hub", "iconUrl": null, "installs": 112, "name": "Fin Intel Hub", "ownerName": "xuan622", "score": 21521.942110177406, "slug": "fin-intel-hub", "source": "clawhub", "stars": 0, "tags": null, "updated_at": 1776764950698, "version": "1.0.2"}, {"category": "ai-intelligence", "created_at": 1772787310130, "description": "Discover, list, and search WhatsApp groups from Baileys session data", "description_zh": "", "downloads": 461, "homepage": "https://clawhub.ai/marcosrippel/whatsapp-groups", "iconUrl": null, "installs": 25, "name": "WhatsApp Groups", "ownerName": "marcosrippel", "score": 7458.340074421614, "slug": "whatsapp-groups", "source": "clawhub", "stars": 0, "tags": ["baileys", "discovery", "groups", "offline", "whatsapp"], "updated_at": 1776762850517, "version": "1.0.0"}, {"category": "productivity", "created_at": 1772804340341, "description": "Execute PowerShell commands reliably on Windows. Avoid &&, handle parameter parsing, recover from interruptions, and ensure cross-session continuity.", "description_zh": "", "downloads": 461, "homepage": "https://clawhub.ai/dalomeve/powershell-reliable", "iconUrl": null, "installs": 78, "name": "PowerShell Reliable Execution", "ownerName": "dalomeve", "score": 36270.65302911094, "slug": "powershell-reliable", "source": "clawhub", "stars": 0, "tags": null, "updated_at": 1776759982781, "version": "1.0.0"}, {"category": "data-analysis", "created_at": 1772789226063, "description": "Backtest trading strategies against historical market data with performance analytics and risk metrics", "description_zh": "", "downloads": 461, "homepage": "https://clawhub.ai/collierking/backtestbot", "iconUrl": null, "installs": 16, "name": "BacktestBot", "ownerName": "collierking", "score": 28007.29040097205, "slug": "backtestbot", "source": "clawhub", "stars": 0, "tags": null, "updated_at": 1776759083824, "version": "0.0.2"}, {"category": "content-creation", "created_at": 1772787929968, "description": "Expertise in designing, building, debugging, and scaling production-grade n8n workflows with proper error handling, versioning, and modular architecture.", "description_zh": "", "downloads": 461, "homepage": "https://clawhub.ai/1kalin/afrexai-n8n-mastery", "iconUrl": null, "installs": 38, "name": "n8n Workflow Engineering", "ownerName": "1kalin", "score": 82616.48745519713, "slug": "afrexai-n8n-mastery", "source": "clawhub", "stars": 0, "tags": ["automation", "integration", "n8n", "nocode", "workflow"], "updated_at": 1776759083758, "version": "1.0.0"}, {"category": "security-compliance", "created_at": 1772781663149, "description": "Integrate Xaman wallet SDK to authenticate users, connect wallets, request XRP payments, and manage sessions on the XRP Ledger.", "description_zh": "", "downloads": 461, "homepage": "https://clawhub.ai/harleyscodes/xaman-wallet-integration", "iconUrl": null, "installs": 10, "name": "Xaman Wallet Integration", "ownerName": "harleyscodes", "score": 33551.67394468704, "slug": "xaman-wallet-integration", "source": "clawhub", "stars": 0, "tags": null, "updated_at": 1776759083635, "version": "1.0.0"}, {"category": "productivity", "created_at": 1773082630139, "description": "Parse personal finance CSV exports, validate schema, categorize transactions via local rules, and summarize/report income, expenses, merchants, and categories.", "description_zh": "", "downloads": 461, "homepage": "https://clawhub.ai/ppopen/openclaw-skill-personal-finance", "iconUrl": null, "installs": 34, "name": "Personal Finance", "ownerName": "ppopen", "score": 33997.05014749263, "slug": "openclaw-skill-personal-finance", "source": "clawhub", "stars": 0, "tags": null, "updated_at": 1776759083541, "version": "1.0.0"}, {"category": "ai-intelligence", "created_at": 1772790577230, "description": "Use the ssh-op helper script to load an SSH private key from 1Password (op) into an in-memory ssh-agent and then run ssh. Use when connecting to hosts that r...", "description_zh": "", "downloads": 461, "homepage": "https://clawhub.ai/moodykong/ssh-op", "iconUrl": null, "installs": 33, "name": "SSH OP", "ownerName": "moodykong", "score": 33772.893772893774, "slug": "ssh-op", "source": "clawhub", "stars": 0, "tags": null, "updated_at": 1776759082867, "version": "0.1.0"}, {"category": "communication-collaboration", "created_at": 1772790493534, "description": "Decentralized AI agent platform for discovering, connecting, chatting, trading skills with point-based system and leaderboard, featuring P2P networking and d...", "description_zh": "", "downloads": 461, "homepage": "https://clawhub.ai/zerta1231/openclaw-agent-network", "iconUrl": null, "installs": 22, "name": "Agent Network", "ownerName": "zerta1231", "score": 33527.27272727273, "slug": "openclaw-agent-network", "source": "clawhub", "stars": 0, "tags": ["ai", "auto-handshake", "chat", "decentralized", "evomap", "experience", "history", "local-discovery", "memories", "multi-protocol", "network", "nostr", "p2p", "persist", "persistent", "sharing", "skills"], "updated_at": 1776759082215, "version": "1.2.0"}, {"category": "ai-intelligence", "created_at": 1772784645539, "description": "Post tasks to ClawHire marketplace and hire other AI agents. Use when your agent needs help with a task it can't do alone, wants to outsource work to other c...", "description_zh": "", "downloads": 461, "homepage": "https://clawhub.ai/kevinflynn0503/claw-employer", "iconUrl": null, "installs": 18, "name": "Claw Employer", "ownerName": "kevinflynn0503", "score": 91832.66932270916, "slug": "claw-employer", "source": "clawhub", "stars": 0, "tags": null, "updated_at": 1776748255607, "version": "1.0.0"}, {"category": "ai-intelligence", "created_at": 1772785683777, "description": "Send and receive messages between AI agents via the Comms Hub bridge network. Use when communicating with other agents (Aristotle, Daedalus, Thales, Steel Ma...", "description_zh": "", "downloads": 461, "homepage": "https://clawhub.ai/nietzsche247/comms-hub-bridge", "iconUrl": null, "installs": 15, "name": "Comms Hub Bridge", "ownerName": "nietzsche247", "score": 91832.66932270916, "slug": "comms-hub-bridge", "source": "clawhub", "stars": 0, "tags": null, "updated_at": 1776748255599, "version": "1.0.0"}, {"category": "developer-tools", "created_at": 1772781090694, "description": "Build and modify HTTP routes and middleware in Go with Ngamux, supporting dynamic paths, request parsing, JSON/form handling, and fluent response writing.", "description_zh": "", "downloads": 461, "homepage": "https://clawhub.ai/hadihammurabi/ngamux", "iconUrl": null, "installs": 8, "name": "Ngamux", "ownerName": "hadihammurabi", "score": 91832.66932270916, "slug": "ngamux", "source": "clawhub", "stars": 0, "tags": null, "updated_at": 1776748255595, "version": "0.1.1"}, {"category": "developer-tools", "created_at": 1772788436238, "description": "Build free tools to drive organic search traffic and convert visitors into customers — the 'Engineering as Marketing' growth strategy. Use when the user want...", "description_zh": "", "downloads": 461, "homepage": "https://clawhub.ai/gprecious/engineering-as-marketing", "iconUrl": null, "installs": 18, "name": "Engineering as Marketing", "ownerName": "gprecious", "score": 91832.66932270916, "slug": "engineering-as-marketing", "source": "clawhub", "stars": 0, "tags": null, "updated_at": 1776748255547, "version": "1.0.0"}, {"category": "developer-tools", "created_at": 1772783201895, "description": "Test webhooks and expose local services using HookCatch - a developer-friendly webhook testing tool", "description_zh": "", "downloads": 461, "homepage": "https://clawhub.ai/hookcatch/hookcatch", "iconUrl": null, "installs": 10, "name": "HookCatch", "ownerName": "hookcatch", "score": 91832.66932270916, "slug": "hookcatch", "source": "clawhub", "stars": 0, "tags": null, "updated_at": 1776748255536, "version": "1.0.1"}, {"category": "ai-intelligence", "created_at": 1772796234910, "description": "Sovereign, recoverable memory for AI agents backed by Jackal decentralized storage.", "description_zh": "", "downloads": 461, "homepage": "https://clawhub.ai/regan-milne/claw-store", "iconUrl": null, "installs": 13, "name": "Skill", "ownerName": "regan-milne", "score": 91832.66932270916, "slug": "claw-store", "source": "clawhub", "stars": 0, "tags": null, "updated_at": 1776748255534, "version": "1.3.3"}]}