{"page": 19, "total_pages": 22, "total": 1089, "skills": [{"slug": "openai-security-threat-model", "name": "openai/security-threat-model", "description": "Generate repo-specific threat models identifying trust boundaries", "description_zh": "", "homepage": "https://officialskills.sh/openai/skills/security-threat-model", "tags": ["TypeScript Skills"], "category": "TypeScript Skills", "ownerName": "", "sources": ["VoltAgent/awesome-agent-skills"], "score": 200, "downloads": 0, "stars": 0, "installs": 0, "version": "", "updated_at": 0}, {"slug": "openai-sentry", "name": "openai/sentry", "description": "Inspect Sentry issues, summarize production errors, and pull health data", "description_zh": "", "homepage": "https://officialskills.sh/openai/skills/sentry", "tags": ["TypeScript Skills"], "category": "TypeScript Skills", "ownerName": "", "sources": ["VoltAgent/awesome-agent-skills"], "score": 199, "downloads": 0, "stars": 0, "installs": 0, "version": "", "updated_at": 0}, {"slug": "openai-skills", "name": "openai/skills", "description": "OpenAI Codex skills catalog - Agent skills, Skill Creator, Concise Planning.", "description_zh": "", "homepage": "https://github.com/openai/skills", "tags": ["Official Sources"], "category": "Official Sources", "ownerName": "openai", "sources": ["sickn33/antigravity-awesome-skills"], "score": 198, "downloads": 0, "stars": 0, "installs": 0, "version": "", "updated_at": 0}, {"slug": "openai-slides", "name": "openai/slides", "description": "Create and edit .pptx presentation decks with PptxGenJS", "description_zh": "", "homepage": "https://officialskills.sh/openai/skills/slides", "tags": ["TypeScript Skills"], "category": "TypeScript Skills", "ownerName": "", "sources": ["VoltAgent/awesome-agent-skills"], "score": 197, "downloads": 0, "stars": 0, "installs": 0, "version": "", "updated_at": 0}, {"slug": "openai-sora", "name": "openai/sora", "description": "Generate, remix, and manage short video clips via OpenAI's Sora API", "description_zh": "", "homepage": "https://officialskills.sh/openai/skills/sora", "tags": ["TypeScript Skills"], "category": "TypeScript Skills", "ownerName": "", "sources": ["VoltAgent/awesome-agent-skills"], "score": 196, "downloads": 0, "stars": 0, "installs": 0, "version": "", "updated_at": 0}, {"slug": "openai-speech", "name": "openai/speech", "description": "Generate spoken audio from text using OpenAI's API with built-in voices", "description_zh": "", "homepage": "https://officialskills.sh/openai/skills/speech", "tags": ["TypeScript Skills"], "category": "TypeScript Skills", "ownerName": "", "sources": ["VoltAgent/awesome-agent-skills"], "score": 195, "downloads": 0, "stars": 0, "installs": 0, "version": "", "updated_at": 0}, {"slug": "openai-spreadsheet", "name": "openai/spreadsheet", "description": "Create, edit, analyze, and visualize spreadsheets with formulas", "description_zh": "", "homepage": "https://officialskills.sh/openai/skills/spreadsheet", "tags": ["TypeScript Skills"], "category": "TypeScript Skills", "ownerName": "", "sources": ["VoltAgent/awesome-agent-skills"], "score": 194, "downloads": 0, "stars": 0, "installs": 0, "version": "", "updated_at": 0}, {"slug": "openai-transcribe", "name": "openai/transcribe", "description": "Transcribe audio files to text with optional speaker diarization", "description_zh": "", "homepage": "https://officialskills.sh/openai/skills/transcribe", "tags": ["TypeScript Skills"], "category": "TypeScript Skills", "ownerName": "", "sources": ["VoltAgent/awesome-agent-skills"], "score": 193, "downloads": 0, "stars": 0, "installs": 0, "version": "", "updated_at": 0}, {"slug": "openai-vercel-deploy", "name": "openai/vercel-deploy", "description": "Deploy applications and websites to Vercel with preview or production options", "description_zh": "", "homepage": "https://officialskills.sh/openai/skills/vercel-deploy", "tags": ["TypeScript Skills"], "category": "TypeScript Skills", "ownerName": "", "sources": ["VoltAgent/awesome-agent-skills"], "score": 192, "downloads": 0, "stars": 0, "installs": 0, "version": "", "updated_at": 0}, {"slug": "openai-winui-app", "name": "openai/winui-app", "description": "Bootstrap and develop modern WinUI 3 desktop apps with C# and Windows App SDK", "description_zh": "", "homepage": "https://officialskills.sh/openai/skills/winui-app", "tags": ["TypeScript Skills"], "category": "TypeScript Skills", "ownerName": "", "sources": ["VoltAgent/awesome-agent-skills"], "score": 191, "downloads": 0, "stars": 0, "installs": 0, "version": "", "updated_at": 0}, {"slug": "openai-yeet", "name": "openai/yeet", "description": "Stage, commit, push code, and open a GitHub pull request via CLI", "description_zh": "", "homepage": "https://officialskills.sh/openai/skills/yeet", "tags": ["TypeScript Skills"], "category": "TypeScript Skills", "ownerName": "", "sources": ["VoltAgent/awesome-agent-skills"], "score": 190, "downloads": 0, "stars": 0, "installs": 0, "version": "", "updated_at": 0}, {"slug": "openpaw", "name": "OpenPaw", "description": "38-skill bundle that turns Claude Code into a personal assistant. Includes git, Telegram, Discord, Obsidian, daily briefing, and more. Run via npx pawmode.", "description_zh": "", "homepage": "https://github.com/daxaur/openpaw", "tags": ["🗂️ Collections"], "category": "🗂️ Collections", "ownerName": "daxaur", "sources": ["BehiSecc/awesome-claude-skills"], "score": 189, "downloads": 0, "stars": 0, "installs": 0, "version": "", "updated_at": 0}, {"slug": "orchestra-research-ai-research-skills", "name": "Orchestra-Research/AI-research-SKILLs", "description": "20-module AI research skill library for model architecture, training, and ML paper writing", "description_zh": "", "homepage": "https://github.com/Orchestra-Research/AI-research-SKILLs", "tags": ["Community Skills"], "category": "Community Skills", "ownerName": "Orchestra-Research", "sources": ["VoltAgent/awesome-agent-skills"], "score": 188, "downloads": 0, "stars": 0, "installs": 0, "version": "", "updated_at": 0}, {"slug": "outlook-automation", "name": "Outlook Automation", "description": "Automate Outlook: emails, folders, contacts, and calendar integration.", "description_zh": "", "homepage": "./outlook-automation", "tags": ["App Automation via Composio"], "category": "App Automation via Composio", "ownerName": "", "sources": ["ComposioHQ/awesome-claude-skills"], "score": 187, "downloads": 0, "stars": 0, "installs": 0, "version": "", "updated_at": 0}, {"slug": "outlook-calendar-automation", "name": "Outlook Calendar Automation", "description": "Automate Outlook Calendar: events, attendees, reminders, and recurring schedules.", "description_zh": "", "homepage": "./outlook-calendar-automation", "tags": ["App Automation via Composio"], "category": "App Automation via Composio", "ownerName": "", "sources": ["ComposioHQ/awesome-claude-skills"], "score": 186, "downloads": 0, "stars": 0, "installs": 0, "version": "", "updated_at": 0}, {"slug": "owasp-security", "name": "owasp-security", "description": "OWASP Top 10:2025, ASVS 5.0, and Agentic AI security (2026) with code review checklists, secure patterns, and language-specific quirks for 20+ languages.", "description_zh": "", "homepage": "https://github.com/agamm/claude-code-owasp", "tags": ["🛡 Security & Web Testing"], "category": "🛡 Security & Web Testing", "ownerName": "agamm", "sources": ["BehiSecc/awesome-claude-skills"], "score": 185, "downloads": 0, "stars": 0, "installs": 0, "version": "", "updated_at": 0}, {"slug": "pagerduty-automation", "name": "PagerDuty Automation", "description": "Automate PagerDuty: incidents, services, schedules, escalation policies, and on-call.", "description_zh": "", "homepage": "./pagerduty-automation", "tags": ["App Automation via Composio"], "category": "App Automation via Composio", "ownerName": "", "sources": ["ComposioHQ/awesome-claude-skills"], "score": 184, "downloads": 0, "stars": 0, "installs": 0, "version": "", "updated_at": 0}, {"slug": "paper-search", "name": "paper-search", "description": "Search academic papers via OpenAlex (250M+ works, free, no API key needed). Find papers by keyword, look up details by DOI, with sorting and pagination.", "description_zh": "", "homepage": "https://github.com/ykdojo/paper-search", "tags": ["🔬 Scientific & Research Tools"], "category": "🔬 Scientific & Research Tools", "ownerName": "ykdojo", "sources": ["BehiSecc/awesome-claude-skills"], "score": 183, "downloads": 0, "stars": 0, "installs": 0, "version": "", "updated_at": 0}, {"slug": "paramchoudhary-resumeskills", "name": "Paramchoudhary/ResumeSkills", "description": "20 specialized skills for resume optimization, ATS analysis, interview prep, and career transitions", "description_zh": "", "homepage": "https://github.com/Paramchoudhary/ResumeSkills", "tags": ["Community Skills"], "category": "Community Skills", "ownerName": "Paramchoudhary", "sources": ["VoltAgent/awesome-agent-skills"], "score": 182, "downloads": 0, "stars": 0, "installs": 0, "version": "", "updated_at": 0}, {"slug": "peas-genealogy-research", "name": "peas/genealogy-research", "description": "Genealogy research agent with OCR, FamilySearch, YAML data, and human-in-the-loop", "description_zh": "", "homepage": "https://paulo.com.br/skills/genealogy-research/SKILL.md", "tags": ["Community Skills"], "category": "Community Skills", "ownerName": "", "sources": ["VoltAgent/awesome-agent-skills"], "score": 181, "downloads": 0, "stars": 0, "installs": 0, "version": "", "updated_at": 0}, {"slug": "phuryn-ab-test-analysis", "name": "phuryn/ab-test-analysis", "description": "Analyze A/B test results with statistical significance and recommendations", "description_zh": "", "homepage": "https://github.com/phuryn/pm-skills", "tags": ["TypeScript Skills"], "category": "TypeScript Skills", "ownerName": "phuryn", "sources": ["VoltAgent/awesome-agent-skills"], "score": 180, "downloads": 0, "stars": 0, "installs": 0, "version": "", "updated_at": 0}, {"slug": "pipedrive-automation", "name": "Pipedrive Automation", "description": "Automate Pipedrive: deals, contacts, organizations, activities, and pipelines.", "description_zh": "", "homepage": "./pipedrive-automation", "tags": ["App Automation via Composio"], "category": "App Automation via Composio", "ownerName": "", "sources": ["ComposioHQ/awesome-claude-skills"], "score": 179, "downloads": 0, "stars": 0, "installs": 0, "version": "", "updated_at": 0}, {"slug": "plannotator", "name": "plannotator", "description": "Interactive plan review UI for Claude Code with visual annotation, offline sharing, and Obsidian/Bear integration.", "description_zh": "", "homepage": "https://github.com/backnotprop/plannotator", "tags": ["🤝 Collaboration & Project Management"], "category": "🤝 Collaboration & Project Management", "ownerName": "backnotprop", "sources": ["BehiSecc/awesome-claude-skills"], "score": 178, "downloads": 0, "stars": 0, "installs": 0, "version": "", "updated_at": 0}, {"slug": "plugin-authoring", "name": "plugin-authoring", "description": "Ambient guidance for creating, modifying, and debugging Claude Code plugins with schemas, templates, validation workflows, and troubleshooting.", "description_zh": "", "homepage": "https://github.com/ivan-magda/claude-code-plugin-template", "tags": ["🛠 Development & Code Tools"], "category": "🛠 Development & Code Tools", "ownerName": "ivan-magda", "sources": ["BehiSecc/awesome-claude-skills"], "score": 177, "downloads": 0, "stars": 0, "installs": 0, "version": "", "updated_at": 0}, {"slug": "pm-skills", "name": "pm-skills", "description": "24 product management skills across the Triple Diamond lifecycle with agentskills.io spec compliance, templates, and MCP server support.", "description_zh": "", "homepage": "https://github.com/product-on-purpose/pm-skills", "tags": ["🤝 Collaboration & Project Management"], "category": "🤝 Collaboration & Project Management", "ownerName": "product-on-purpose", "sources": ["BehiSecc/awesome-claude-skills"], "score": 176, "downloads": 0, "stars": 0, "installs": 0, "version": "", "updated_at": 0}, {"slug": "polaris-datainsight-doc-extract", "name": "polaris-datainsight-doc-extract", "description": "Extract structured data from Office documents (DOCX, PPTX, XLSX, HWP, HWPX) using the Polaris AI DataInsight Doc Extract API.", "description_zh": "", "homepage": "https://github.com/jacob-g-park/polaris-datainsight-doc-extract", "tags": ["📄 Document Skills"], "category": "📄 Document Skills", "ownerName": "jacob-g-park", "sources": ["BehiSecc/awesome-claude-skills"], "score": 175, "downloads": 0, "stars": 0, "installs": 0, "version": "", "updated_at": 0}, {"slug": "posthog-automation", "name": "PostHog Automation", "description": "Automate PostHog: events, persons, feature flags, insights, and annotations.", "description_zh": "", "homepage": "./posthog-automation", "tags": ["App Automation via Composio"], "category": "App Automation via Composio", "ownerName": "", "sources": ["ComposioHQ/awesome-claude-skills"], "score": 174, "downloads": 0, "stars": 0, "installs": 0, "version": "", "updated_at": 0}, {"slug": "postmark-automation", "name": "Postmark Automation", "description": "Automate Postmark: transactional emails, templates, servers, and delivery stats.", "description_zh": "", "homepage": "./postmark-automation", "tags": ["App Automation via Composio"], "category": "App Automation via Composio", "ownerName": "", "sources": ["ComposioHQ/awesome-claude-skills"], "score": 173, "downloads": 0, "stars": 0, "installs": 0, "version": "", "updated_at": 0}, {"slug": "prompt-security-clawsec", "name": "prompt-security/clawsec", "description": "Security skill suite with drift detection, automated audits, and skill integrity verification", "description_zh": "", "homepage": "https://github.com/prompt-security/clawsec", "tags": ["Community Skills"], "category": "Community Skills", "ownerName": "prompt-security", "sources": ["VoltAgent/awesome-agent-skills"], "score": 172, "downloads": 0, "stars": 0, "installs": 0, "version": "", "updated_at": 0}, {"slug": "pspdfkit-labs-nutrient-agent-skill", "name": "PSPDFKit-labs/nutrient-agent-skill", "description": "Document processing with Nutrient DWS API: convert (PDF/DOCX/XLSX/PPTX/HTML/images), extract text/tables, OCR (20+ languages), redact PII (pattern + AI), watermark, digital signatures, form filling. [MCP server](https://www.npmjs.com/package/@nutrient-sdk/dws-mcp-server) also available.", "description_zh": "", "homepage": "https://github.com/PSPDFKit-labs/nutrient-agent-skill", "tags": ["Community Skills"], "category": "Community Skills", "ownerName": "PSPDFKit-labs", "sources": ["VoltAgent/awesome-agent-skills"], "score": 171, "downloads": 0, "stars": 0, "installs": 0, "version": "", "updated_at": 0}, {"slug": "public-google-drive", "name": "public-google-drive", "description": "Create and edit Google Docs and Sheets without Google sign-in. Documents are hosted on Memyard and viewable at shareable links.", "description_zh": "", "homepage": "https://github.com/zagmoai/public-google-drive", "tags": ["🤝 Collaboration & Project Management"], "category": "🤝 Collaboration & Project Management", "ownerName": "zagmoai", "sources": ["BehiSecc/awesome-claude-skills"], "score": 170, "downloads": 0, "stars": 0, "installs": 0, "version": "", "updated_at": 0}, {"slug": "pumanitro-global-chat", "name": "pumanitro/global-chat", "description": "Source for the Global Chat Agent Discovery skill - cross-protocol discovery of MCP servers and AI agents across multiple registries.", "description_zh": "", "homepage": "https://github.com/pumanitro/global-chat", "tags": ["Community Contributors"], "category": "Community Contributors", "ownerName": "pumanitro", "sources": ["sickn33/antigravity-awesome-skills"], "score": 169, "downloads": 0, "stars": 0, "installs": 0, "version": "", "updated_at": 0}, {"slug": "qdrant-skills", "name": "qdrant/skills", "description": "Agent skills for Qdrant vector search, covering scaling, performance optimization, search quality, monitoring, deployment, model migration, version upgrades, and SDK usage across Python, TypeScript, Rust, Go, .NET, and Java", "description_zh": "", "homepage": "https://github.com/qdrant/skills", "tags": ["Community Skills"], "category": "Community Skills", "ownerName": "qdrant", "sources": ["VoltAgent/awesome-agent-skills"], "score": 168, "downloads": 0, "stars": 0, "installs": 0, "version": "", "updated_at": 0}, {"slug": "raffle-winner-picker", "name": "Raffle Winner Picker", "description": "Randomly selects winners from lists, spreadsheets, or Google Sheets for giveaways and contests with cryptographically secure randomness.", "description_zh": "", "homepage": "./raffle-winner-picker", "tags": ["Productivity & Organization"], "category": "Productivity & Organization", "ownerName": "", "sources": ["ComposioHQ/awesome-claude-skills"], "score": 167, "downloads": 0, "stars": 0, "installs": 0, "version": "", "updated_at": 0}, {"slug": "rafsilva85-credit-optimizer-v5", "name": "rafsilva85/credit-optimizer-v5", "description": "Manus AI credit optimizer skill — intelligent model routing, context compression, and smart testing. Saves 30-75% on credits with zero quality loss. Audited across 53 scenarios.", "description_zh": "", "homepage": "https://github.com/rafsilva85/credit-optimizer-v5", "tags": ["Community Contributors"], "category": "Community Contributors", "ownerName": "rafsilva85", "sources": ["sickn33/antigravity-awesome-skills"], "score": 166, "downloads": 0, "stars": 0, "installs": 0, "version": "", "updated_at": 0}, {"slug": "raintree-technology-apple-hig-skills", "name": "raintree-technology/apple-hig-skills", "description": "Apple Human Interface Guidelines as 14 agent skills covering platforms, foundations, components, patterns, inputs, and technologies for iOS, macOS, visionOS, watchOS, and tvOS", "description_zh": "", "homepage": "https://github.com/raintree-technology/apple-hig-skills", "tags": ["Community Skills"], "category": "Community Skills", "ownerName": "raintree-technology", "sources": ["VoltAgent/awesome-agent-skills"], "score": 165, "downloads": 0, "stars": 0, "installs": 0, "version": "", "updated_at": 0}, {"slug": "rameerez-claude-code-startup-skills", "name": "rameerez/claude-code-startup-skills", "description": "Skills for building and running software startups, apps, and SaaS", "description_zh": "", "homepage": "https://github.com/rameerez/claude-code-startup-skills", "tags": ["Community Skills"], "category": "Community Skills", "ownerName": "rameerez", "sources": ["VoltAgent/awesome-agent-skills"], "score": 164, "downloads": 0, "stars": 0, "installs": 0, "version": "", "updated_at": 0}, {"slug": "ramzesenok-ios-accessibility-audit-skill", "name": "ramzesenok/iOS-Accessibility-Audit-Skill", "description": "Audit iOS App against Accessibility norms", "description_zh": "", "homepage": "https://github.com/ramzesenok/iOS-Accessibility-Audit-Skill", "tags": ["Community Skills"], "category": "Community Skills", "ownerName": "ramzesenok", "sources": ["VoltAgent/awesome-agent-skills"], "score": 163, "downloads": 0, "stars": 0, "installs": 0, "version": "", "updated_at": 0}, {"slug": "realkimbarrett-avatar-extraction", "name": "realkimbarrett/avatar-extraction", "description": "Define exactly who the buyer is, what they want, what they've tried, and what's driving their decisions", "description_zh": "", "homepage": "https://github.com/realkimbarrett/advertising-skills", "tags": ["TypeScript Skills"], "category": "TypeScript Skills", "ownerName": "realkimbarrett", "sources": ["VoltAgent/awesome-agent-skills"], "score": 162, "downloads": 0, "stars": 0, "installs": 0, "version": "", "updated_at": 0}, {"slug": "reddit-automation", "name": "Reddit Automation", "description": "Automate Reddit: posts, comments, subreddits, voting, and moderation.", "description_zh": "", "homepage": "./reddit-automation", "tags": ["App Automation via Composio"], "category": "App Automation via Composio", "ownerName": "", "sources": ["ComposioHQ/awesome-claude-skills"], "score": 161, "downloads": 0, "stars": 0, "installs": 0, "version": "", "updated_at": 0}, {"slug": "remotion-dev-remotion", "name": "remotion-dev/remotion", "description": "Programmatic video creation with React", "description_zh": "", "homepage": "https://officialskills.sh/remotion-dev/skills/remotion", "tags": ["Skills by Remotion"], "category": "Skills by Remotion", "ownerName": "", "sources": ["VoltAgent/awesome-agent-skills"], "score": 160, "downloads": 0, "stars": 0, "installs": 0, "version": "", "updated_at": 0}, {"slug": "remotion-dev-skills", "name": "remotion-dev/skills", "description": "Official Remotion skills - Video creation in React with 28 modular rules.", "description_zh": "", "homepage": "https://github.com/remotion-dev/skills", "tags": ["Official Sources"], "category": "Official Sources", "ownerName": "remotion-dev", "sources": ["sickn33/antigravity-awesome-skills"], "score": 159, "downloads": 0, "stars": 0, "installs": 0, "version": "", "updated_at": 0}, {"slug": "render-automation", "name": "Render Automation", "description": "Automate Render: services, deploys, and project management.", "description_zh": "", "homepage": "./render-automation", "tags": ["App Automation via Composio"], "category": "App Automation via Composio", "ownerName": "", "sources": ["ComposioHQ/awesome-claude-skills"], "score": 158, "downloads": 0, "stars": 0, "installs": 0, "version": "", "updated_at": 0}, {"slug": "replicate-replicate", "name": "replicate/replicate", "description": "Discover, compare, and run AI models using Replicate's API", "description_zh": "", "homepage": "https://officialskills.sh/replicate/skills/replicate", "tags": ["Skills by Replicate"], "category": "Skills by Replicate", "ownerName": "", "sources": ["VoltAgent/awesome-agent-skills"], "score": 157, "downloads": 0, "stars": 0, "installs": 0, "version": "", "updated_at": 0}, {"slug": "resciencelab-opc-skills", "name": "ReScienceLab/opc-skills", "description": "Agent skills for solopreneurs with SEO, geo, and LLM tools", "description_zh": "", "homepage": "https://github.com/ReScienceLab/opc-skills", "tags": ["Community Skills"], "category": "Community Skills", "ownerName": "ReScienceLab", "sources": ["VoltAgent/awesome-agent-skills"], "score": 156, "downloads": 0, "stars": 0, "installs": 0, "version": "", "updated_at": 0}, {"slug": "resend-resend", "name": "resend/resend", "description": "Send and manage emails via the Resend API", "description_zh": "", "homepage": "https://github.com/resend/resend-skills", "tags": ["TypeScript Skills"], "category": "TypeScript Skills", "ownerName": "resend", "sources": ["VoltAgent/awesome-agent-skills"], "score": 155, "downloads": 0, "stars": 0, "installs": 0, "version": "", "updated_at": 0}, {"slug": "revealjs-skill", "name": "revealjs-skill", "description": "Generate polished, professional presentations using the Reveal.js HTML presentation framework.", "description_zh": "", "homepage": "https://github.com/ryanbbrown/revealjs-skill", "tags": ["📄 Document Skills"], "category": "📄 Document Skills", "ownerName": "ryanbbrown", "sources": ["BehiSecc/awesome-claude-skills"], "score": 154, "downloads": 0, "stars": 0, "installs": 0, "version": "", "updated_at": 0}, {"slug": "rmyndharis-antigravity-skills", "name": "rmyndharis/antigravity-skills", "description": "For the massive contribution of 300+ Enterprise skills and the catalog generation logic.", "description_zh": "", "homepage": "https://github.com/rmyndharis/antigravity-skills", "tags": ["Community Contributors"], "category": "Community Contributors", "ownerName": "rmyndharis", "sources": ["sickn33/antigravity-awesome-skills"], "score": 153, "downloads": 0, "stars": 0, "installs": 0, "version": "", "updated_at": 0}, {"slug": "rootly-ai-labs-rootly-incident-responder", "name": "Rootly-AI-Labs/rootly-incident-responder", "description": "AI-powered incident response with ML similarity matching, solution suggestions, and on-call coordination. Requires [Rootly MCP Server](https://github.com/Rootly-AI-Labs/Rootly-MCP-server)", "description_zh": "", "homepage": "https://github.com/Rootly-AI-Labs/Rootly-MCP-server/blob/main/examples/skills/rootly-incident-responder.md", "tags": ["Community Skills"], "category": "Community Skills", "ownerName": "Rootly-AI-Labs", "sources": ["VoltAgent/awesome-agent-skills"], "score": 152, "downloads": 0, "stars": 0, "installs": 0, "version": "", "updated_at": 0}, {"slug": "roundtable02-tutor-skills", "name": "RoundTable02/tutor-skills", "description": "Transform docs or codebases into Obsidian StudyVaults with interactive quizzes", "description_zh": "", "homepage": "https://github.com/RoundTable02/tutor-skills", "tags": ["Community Skills"], "category": "Community Skills", "ownerName": "RoundTable02", "sources": ["VoltAgent/awesome-agent-skills"], "score": 151, "downloads": 0, "stars": 0, "installs": 0, "version": "", "updated_at": 0}]}