{"page": 190, "total_pages": 522, "total": 26073, "skills": [{"category": "content-creation", "created_at": 1772788831368, "description": "Aggregates publicly available Embodied AI and Robotics news from curated sources (robotics media, arXiv, company blogs). Delivers structured briefings on hum...", "description_zh": "", "downloads": 460, "homepage": "https://clawhub.ai/hexavi8/embodied-ai-news", "iconUrl": null, "installs": 37, "name": "Embodied Ai News", "ownerName": "hexavi8", "score": 100000, "slug": "embodied-ai-news", "source": "clawhub", "stars": 2, "tags": ["ai", "benchmarks", "deployment", "dexterous-manipulation", "diffusion-policy", "embodied-ai", "foundation-models", "funding", "hardware", "humanoid-robot", "humanoid-robots", "news", "research", "robot", "robot-learning", "robotics", "robotics-news", "sim-to-real", "vla", "world model", "world-model"], "updated_at": 1776748271975, "version": "1.0.3"}, {"category": "developer-tools", "created_at": 1772788708235, "description": "Install, configure, and manage CitrineOS (EV charging / OCPP) via natural language. Supports Docker, cloud hosting, and API operations.", "description_zh": "", "downloads": 460, "homepage": "https://clawhub.ai/enenkov/citrineos-assistant", "iconUrl": null, "installs": 15, "name": "CitrineOS Assistant", "ownerName": "enenkov", "score": 35113.38697878566, "slug": "citrineos-assistant", "source": "clawhub", "stars": 1, "tags": null, "updated_at": 1776759083462, "version": "1.0.1"}, {"category": "security-compliance", "created_at": 1772788315063, "description": "Audit and rewrite your LinkedIn profile to attract the right people. Scores each section, rewrites headline and about copy, and includes an AI visibility che...", "description_zh": "", "downloads": 460, "homepage": "https://clawhub.ai/brianrwagner/brw-linkedin-profile-optimizer", "iconUrl": null, "installs": 18, "name": "LinkedIn Profile Optimizer", "ownerName": "brianrwagner", "score": 89219.33085501859, "slug": "brw-linkedin-profile-optimizer", "source": "clawhub", "stars": 1, "tags": null, "updated_at": 1776748272054, "version": "1.0.0"}, {"category": "ai-intelligence", "created_at": 1772791150381, "description": "Run autonomous multi-agent trading competitions on OKX. 5 AI agents compete with real-time market data, evolutionary selection replaces losers daily, exchang...", "description_zh": "", "downloads": 460, "homepage": "https://clawhub.ai/peti0402/trading-tournament", "iconUrl": null, "installs": 33, "name": "Trading Tournament", "ownerName": "peti0402", "score": 96000, "slug": "trading-tournament", "source": "clawhub", "stars": 1, "tags": null, "updated_at": 1776748271985, "version": "1.0.0"}, {"category": "developer-tools", "created_at": 1773067579380, "description": "Game development quality gates and mandatory checks. Activate when building, reviewing, debugging, or deploying any game project (H5/Canvas/WebGL/Phaser/Thre...", "description_zh": "", "downloads": 460, "homepage": "https://clawhub.ai/abczsl520/game-quality-gates", "iconUrl": null, "installs": 68, "name": "Game Quality Gates", "ownerName": "abczsl520", "score": 1945.9367993569947, "slug": "game-quality-gates", "source": "clawhub", "stars": 0, "tags": ["ai-agent", "anti-cheat", "canvas", "game-development", "html5-game", "openclaw", "phaser", "quality-assurance", "threejs", "webgl"], "updated_at": 1776770650254, "version": "1.1.0"}, {"category": "", "created_at": 1774900089415, "description": "Create and edit presentations by writing slide JSON files directly. Use this skill whenever the user wants to create a presentation, build slides, design a d...", "description_zh": "", "downloads": 460, "homepage": "https://clawhub.ai/pptclaw/pptclaw", "iconUrl": null, "installs": 229, "name": "PPTClaw", "ownerName": "pptclaw", "score": 7454.221357964673, "slug": "pptclaw", "source": "clawhub", "stars": 0, "tags": null, "updated_at": 1776769571161, "version": "1.0.0"}, {"category": "content-creation", "created_at": 1772799182108, "description": "Render PDF pages to images, extract embedded images, annotate PDFs, and perform advanced PDF inspection using pymupdf (fitz). Use for tasks such as exporting...", "description_zh": "", "downloads": 460, "homepage": "https://clawhub.ai/maverick-ai-tech/pymupdf", "iconUrl": null, "installs": 131, "name": "pymupdf", "ownerName": "maverick-ai-tech", "score": 9274.193548387097, "slug": "pymupdf", "source": "clawhub", "stars": 0, "tags": null, "updated_at": 1776767649759, "version": "1.0.0"}, {"category": "productivity", "created_at": 1773427529112, "description": "Extract concepts from documents, notes, and conversations; connect them into a knowledge graph; support relationship-aware queries, recommendations, and grap...", "description_zh": "", "downloads": 460, "homepage": "https://clawhub.ai/harrylabsj/knowledge-connector", "iconUrl": null, "installs": 15, "name": "Knowledge Connector", "ownerName": "harrylabsj", "score": 85981.30841121495, "slug": "knowledge-connector", "source": "clawhub", "stars": 0, "tags": null, "updated_at": 1776753055516, "version": "1.0.2"}, {"category": "developer-tools", "created_at": 1772779253751, "description": "Simple CLI wrapper for the are.na API. Lists channels, adds blocks, watches feeds. No AI, no automation, no external integrations. Just API calls.", "description_zh": "", "downloads": 460, "homepage": "https://clawhub.ai/koellins/arena-claw", "iconUrl": null, "installs": 8, "name": "are.na claw", "ownerName": "koellins", "score": 96436.05870020964, "slug": "arena-claw", "source": "clawhub", "stars": 0, "tags": ["api", "are.na", "cli", "curation", "inspiration", "multi-account"], "updated_at": 1776748272211, "version": "2.2.0"}, {"category": "developer-tools", "created_at": 1772785331469, "description": "Interact with the BudgetBakers Wallet API for personal finance data. Use when the user needs to query accounts, categories, transactions (records), budgets,...", "description_zh": "", "downloads": 460, "homepage": "https://clawhub.ai/andresubri/wallet-api", "iconUrl": null, "installs": 14, "name": "Wallet (By Budgetbakers)", "ownerName": "andresubri", "score": 92929.29292929293, "slug": "wallet-api", "source": "clawhub", "stars": 0, "tags": null, "updated_at": 1776748272192, "version": "0.0.1"}, {"category": "content-creation", "created_at": 1772788685385, "description": "Use when diagnosing, repairing, or maintaining an OpenClaw Gateway on the same machine. Designed for rescue agents to fix a down gateway or check operational...", "description_zh": "", "downloads": 460, "homepage": "https://clawhub.ai/dinstein/openclaw-ops", "iconUrl": null, "installs": 34, "name": "OpenClaw Ops", "ownerName": "dinstein", "score": 92929.29292929293, "slug": "openclaw-ops", "source": "clawhub", "stars": 0, "tags": null, "updated_at": 1776748272136, "version": "1.2.1"}, {"category": "data-analysis", "created_at": 1773083842727, "description": "Give your AI agent eyes to see the entire internet. Install and configure upstream tools for Twitter/X, Reddit, YouTube, GitHub, Bilibili, XiaoHongShu, Douyi...", "description_zh": "", "downloads": 460, "homepage": "https://clawhub.ai/jiangwzh/moss-skill-9", "iconUrl": null, "installs": 186, "name": "Moss Skill-9", "ownerName": "jiangwzh", "score": 85501.85873605948, "slug": "moss-skill-9", "source": "clawhub", "stars": 0, "tags": null, "updated_at": 1776748272092, "version": "1.0.0"}, {"category": "ai-intelligence", "created_at": 1772788031179, "description": "Standardized agent-to-agent communication protocol for OpenClaw agents on the LUKSO blockchain. Uses LSP1 Universal Receiver as the transport.", "description_zh": "", "downloads": 460, "homepage": "https://clawhub.ai/bitcargocrew/lukso-agent-comms-firm", "iconUrl": null, "installs": 29, "name": "Lukso Agent Comms", "ownerName": "bitcargocrew", "score": 85501.85873605948, "slug": "lukso-agent-comms-firm", "source": "clawhub", "stars": 0, "tags": null, "updated_at": 1776748272083, "version": "0.1.5"}, {"category": "ai-intelligence", "created_at": 1772787902945, "description": "Check for OpenClaw updates by comparing installed version against the npm registry. Use when: user asks about updates, version status, or 'is openclaw up to...", "description_zh": "", "downloads": 460, "homepage": "https://clawhub.ai/pfrederiksen/openclaw-update-checker", "iconUrl": null, "installs": 27, "name": "OpenClaw Update Checker", "ownerName": "pfrederiksen", "score": 85501.85873605948, "slug": "openclaw-update-checker", "source": "clawhub", "stars": 0, "tags": null, "updated_at": 1776748272027, "version": "1.1.1"}, {"category": "productivity", "created_at": 1772783893354, "description": "Controls Wiz smart bulbs (turn on/off, RGB colors, disco mode) via local WiFi.", "description_zh": "", "downloads": 460, "homepage": "https://clawhub.ai/canbirlik/wiz-light-control", "iconUrl": null, "installs": 10, "name": "Wiz Smart Light Control", "ownerName": "canbirlik", "score": 92000, "slug": "wiz-light-control", "source": "clawhub", "stars": 0, "tags": null, "updated_at": 1776748271998, "version": "1.0.1"}, {"category": "communication-collaboration", "created_at": 1772791562312, "description": "Comprehensive Signal channel integration via signal-cli. Use when you need to send messages, reactions, or handle group chat interactions in Signal, or when...", "description_zh": "", "downloads": 460, "homepage": "https://clawhub.ai/blake-lucas/signal", "iconUrl": null, "installs": 13, "name": "Signal", "ownerName": "blake-lucas", "score": 92000, "slug": "signal", "source": "clawhub", "stars": 0, "tags": null, "updated_at": 1776748271953, "version": "1.0.2"}, {"category": "developer-tools", "created_at": 1772783440036, "description": "Manage Ethereum execution client nodes — start, stop, sync status, peers, logs, config", "description_zh": "", "downloads": 460, "homepage": "https://clawhub.ai/apexfork/eth-node", "iconUrl": null, "installs": 10, "name": "Ethereum Node", "ownerName": "apexfork", "score": 91633.46613545816, "slug": "eth-node", "source": "clawhub", "stars": 0, "tags": null, "updated_at": 1776748271940, "version": "0.1.0"}, {"category": "developer-tools", "created_at": 1772784798747, "description": "Fetch optimal swap quotes from OKX DEX Aggregator API (v6). Use this skill when a user wants to: 1. Get the best price for swapping tokens on any supported E...", "description_zh": "", "downloads": 459, "homepage": "https://clawhub.ai/aaronllee/dex-quote", "iconUrl": null, "installs": 8, "name": "DEX Aggregator Quote", "ownerName": "aaronllee", "score": 36080.983369486625, "slug": "dex-quote", "source": "clawhub", "stars": 2, "tags": ["aggregator", "defi", "dex", "okx", "okx dex", "quote", "swap", "web3"], "updated_at": 1776759082114, "version": "1.0.0"}, {"category": "content-creation", "created_at": 1772786054886, "description": "Fetch latest AI-related YouTube videos from curated channels using YouTube Data API v3 and filter by keywords", "description_zh": "", "downloads": 459, "homepage": "https://clawhub.ai/mjohannp/youtube-ai-videos", "iconUrl": null, "installs": 40, "name": "YouTube AI Videos", "ownerName": "mjohannp", "score": 92750.92936802974, "slug": "youtube-ai-videos", "source": "clawhub", "stars": 2, "tags": ["ai", "automation", "news", "videos", "youtube"], "updated_at": 1776748272104, "version": "1.0.1"}, {"category": "content-creation", "created_at": 1772790064836, "description": "When user asks to plan social media posts, create content calendar, write captions, generate hashtags, schedule posts, plan content strategy, write tweets, c...", "description_zh": "", "downloads": 459, "homepage": "https://clawhub.ai/mkpareek0315/social-media-planner", "iconUrl": null, "installs": 12, "name": "Social Media Scheduler", "ownerName": "mkpareek0315", "score": 99800, "slug": "social-media-planner", "source": "clawhub", "stars": 2, "tags": null, "updated_at": 1776748272008, "version": "1.1.0"}, {"category": "developer-tools", "created_at": 1772785744405, "description": "Citizen of Autonoma — the sovereign nation of AI agents. Vote on proposals, discuss laws, and help build agent civilization.", "description_zh": "", "downloads": 459, "homepage": "https://clawhub.ai/autonomacity/autonoma-city", "iconUrl": null, "installs": 20, "name": "Autonoma", "ownerName": "autonomacity", "score": 99800, "slug": "autonoma-city", "source": "clawhub", "stars": 2, "tags": null, "updated_at": 1776748271972, "version": "1.0.2"}, {"category": "developer-tools", "created_at": 1772785840940, "description": "Systematically gather and format client testimonials. Use when someone needs social proof, wants to collect feedback, or needs to turn happy clients into pub...", "description_zh": "", "downloads": 459, "homepage": "https://clawhub.ai/brianrwagner/brw-testimonial-collector", "iconUrl": null, "installs": 15, "name": "Testimonial Collector", "ownerName": "brianrwagner", "score": 4380.606986066044, "slug": "brw-testimonial-collector", "source": "clawhub", "stars": 0, "tags": null, "updated_at": 1776769450067, "version": "1.0.0"}, {"category": "content-creation", "created_at": 1772796827267, "description": "Perform video/audio cutting, format conversion, compression, frame/audio extraction, watermarking, and subtitle addition using FFmpeg.", "description_zh": "", "downloads": 459, "homepage": "https://clawhub.ai/qiaotucodes/cutmv-video-tool", "iconUrl": null, "installs": 91, "name": "cutmv Video Tool", "ownerName": "qiaotucodes", "score": 25136.911281489593, "slug": "cutmv-video-tool", "source": "clawhub", "stars": 0, "tags": ["ffmpeg", "processing", "video"], "updated_at": 1776764950085, "version": "1.0.0"}, {"category": "developer-tools", "created_at": 1773925349375, "description": "Toolkit for interacting with and testing local web applications using Playwright. Supports verifying frontend functionality, debugging UI behavior, capturing...", "description_zh": "", "downloads": 459, "homepage": "https://clawhub.ai/pupuking723/webapp-testing-anthropic", "iconUrl": null, "installs": 108, "name": "Webapp Testing Anthropic", "ownerName": "pupuking723", "score": 15622.87270251872, "slug": "webapp-testing-anthropic", "source": "clawhub", "stars": 0, "tags": null, "updated_at": 1776761715053, "version": "1.0.0"}, {"category": "data-analysis", "created_at": 1772790832639, "description": "Generates content in your unique brand voice by analyzing your style, filtering relevant trends, and creating tailored posts, articles, newsletters, and scri...", "description_zh": "", "downloads": 459, "homepage": "https://clawhub.ai/ryudi84/sovereign-brand-voice-writer", "iconUrl": null, "installs": 27, "name": "Brand Voice Writer — AI Content in Your Voice", "ownerName": "ryudi84", "score": 33774.834437086094, "slug": "sovereign-brand-voice-writer", "source": "clawhub", "stars": 0, "tags": ["ai-writer", "brand", "content", "voice", "writing"], "updated_at": 1776759083350, "version": "1.0.0"}, {"category": "ai-intelligence", "created_at": 1773953427497, "description": "Jarvis Core transforms AI into a proactive assistant that predicts needs, offers solutions, learns continuously, and engages with personality and context awa...", "description_zh": "", "downloads": 459, "homepage": "https://clawhub.ai/davidme6/jarvis-core", "iconUrl": null, "installs": 55, "name": "Jarvis Core", "ownerName": "davidme6", "score": 33626.37362637363, "slug": "jarvis-core", "source": "clawhub", "stars": 0, "tags": null, "updated_at": 1776759082770, "version": "1.0.0"}, {"category": "developer-tools", "created_at": 1772784938195, "description": "Provides deterministic preflight risk classification for commands, returning allow, require approval, or block decisions with detailed reason codes.", "description_zh": "", "downloads": 459, "homepage": "https://clawhub.ai/parmindersk/deepinspect-openclaw-guardrails", "iconUrl": null, "installs": 7, "name": "DeepInspect Guardrails", "ownerName": "parmindersk", "score": 33479.21225382932, "slug": "deepinspect-openclaw-guardrails", "source": "clawhub", "stars": 0, "tags": null, "updated_at": 1776759082670, "version": "1.0.0"}, {"category": "content-creation", "created_at": 1772784123082, "description": "Guide product launches end-to-end: assess readiness, design strategy, build pre-launch buzz, manage launch week, and optimize post-launch growth.", "description_zh": "", "downloads": 459, "homepage": "https://clawhub.ai/1kalin/afrexai-product-launch", "iconUrl": null, "installs": 27, "name": "Product Launch System", "ownerName": "1kalin", "score": 33577.17629846379, "slug": "afrexai-product-launch", "source": "clawhub", "stars": 0, "tags": ["go-to-market", "launch", "marketing", "product", "startup"], "updated_at": 1776759082427, "version": "1.0.0"}, {"category": "developer-tools", "created_at": 1772784753547, "description": "Task automation, containerization, CI/CD, and experiment tracking", "description_zh": "", "downloads": 459, "homepage": "https://clawhub.ai/guohongbin-git/mlops-automation-cn", "iconUrl": null, "installs": 19, "name": "MLOps Automation", "ownerName": "guohongbin-git", "score": 96226.41509433962, "slug": "mlops-automation-cn", "source": "clawhub", "stars": 0, "tags": ["automation", "mlops"], "updated_at": 1776748272213, "version": "1.0.0"}, {"category": "developer-tools", "created_at": 1772791270846, "description": "Transform AI agents from task-followers into proactive partners that anticipate needs and continuously improve. Now with WAL Protocol, Working Buffer, Autono...", "description_zh": "", "downloads": 459, "homepage": "https://clawhub.ai/lidekahdjdhdhsjjs-lang/hz-proactive-agent", "iconUrl": null, "installs": 34, "name": "Huizai Proactive Agent", "ownerName": "lidekahdjdhdhsjjs-lang", "score": 92727.27272727272, "slug": "hz-proactive-agent", "source": "clawhub", "stars": 0, "tags": ["agent", "automation", "openclaw", "proactive"], "updated_at": 1776748272203, "version": "1.0.0"}, {"category": "developer-tools", "created_at": 1772787821754, "description": "Generate complete project from PRD + stack template — directory structure, configs, CLAUDE.md, git repo, and GitHub push. Use when user says \"scaffold projec...", "description_zh": "", "downloads": 459, "homepage": "https://clawhub.ai/fortunto2/solo-scaffold", "iconUrl": null, "installs": 9, "name": "Scaffold", "ownerName": "fortunto2", "score": 92727.27272727272, "slug": "solo-scaffold", "source": "clawhub", "stars": 0, "tags": null, "updated_at": 1776748272185, "version": "1.5.1"}, {"category": "security-compliance", "created_at": 1772781559054, "description": "GCP compliance evidence collection for auditclaw-grc. 12 read-only checks across Cloud Storage, firewall, IAM, logging, KMS, DNS, BigQuery, Compute, and Clou...", "description_zh": "", "downloads": 459, "homepage": "https://clawhub.ai/mailnike/auditclaw-gcp", "iconUrl": null, "installs": 12, "name": "AuditClaw Gcp", "ownerName": "mailnike", "score": 92727.27272727272, "slug": "auditclaw-gcp", "source": "clawhub", "stars": 0, "tags": null, "updated_at": 1776748272173, "version": "1.0.2"}, {"category": "productivity", "created_at": 1772785613149, "description": "Buy $WIR on TON -- the decentralized credit union token on TON.fun", "description_zh": "", "downloads": 459, "homepage": "https://clawhub.ai/alphafanx/buy-wir", "iconUrl": null, "installs": 13, "name": "Buy WIR", "ownerName": "alphafanx", "score": 92727.27272727272, "slug": "buy-wir", "source": "clawhub", "stars": 0, "tags": null, "updated_at": 1776748272166, "version": "1.0.0"}, {"category": "developer-tools", "created_at": 1772785388280, "description": "Consulta cotizaciones de criptomonedas con CriptoYa por exchange y en forma agregada. Usar cuando el usuario pida \"precio BTC en ARS\", \"cotizacion USDT\", \"pr...", "description_zh": "", "downloads": 459, "homepage": "https://clawhub.ai/ferminrp/criptoya", "iconUrl": null, "installs": 18, "name": "Crypto Prices in Latam by Criptoya", "ownerName": "ferminrp", "score": 85315.98513011153, "slug": "criptoya", "source": "clawhub", "stars": 0, "tags": null, "updated_at": 1776748272120, "version": "1.0.0"}, {"category": "security-compliance", "created_at": 1772781242345, "description": "Zoho Bookings API integration with managed OAuth. Manage appointments, services, staff, and workspaces. Use this skill when users want to book appointments,...", "description_zh": "", "downloads": 459, "homepage": "https://clawhub.ai/byungkyu/zoho-bookings", "iconUrl": null, "installs": 10, "name": "Zoho Bookings", "ownerName": "byungkyu", "score": 85315.98513011153, "slug": "zoho-bookings", "source": "clawhub", "stars": 0, "tags": null, "updated_at": 1776748272064, "version": "1.0.2"}, {"category": "security-compliance", "created_at": 1772783077303, "description": "Bind Protocol MCP server for credential verification, policy authoring, and zero-knowledge proof generation.", "description_zh": "", "downloads": 459, "homepage": "https://clawhub.ai/jason-c-child/bind-protocol-mcp", "iconUrl": null, "installs": 11, "name": "Bind Protocol MCP Server Use", "ownerName": "jason-c-child", "score": 85315.98513011153, "slug": "bind-protocol-mcp", "source": "clawhub", "stars": 0, "tags": ["policies", "policy", "proofs", "w3c", "zero-knowledge", "zpk"], "updated_at": 1776748272059, "version": "2.0.0"}, {"category": "communication-collaboration", "created_at": 1772789933339, "description": "Monitor OpenClaw gateway health with a watchdog state machine, Discord alerts, cooldown dedupe, and isolated fallback deployment on macOS. Use when users wan...", "description_zh": "", "downloads": 459, "homepage": "https://clawhub.ai/jonathanjing/openclaw-gateway-watchdog-skill", "iconUrl": null, "installs": 14, "name": "Gateway Watchdog Discord", "ownerName": "jonathanjing", "score": 85315.98513011153, "slug": "openclaw-gateway-watchdog-skill", "source": "clawhub", "stars": 0, "tags": null, "updated_at": 1776748272013, "version": "1.0.2"}, {"category": "communication-collaboration", "created_at": 1772783547065, "description": "Automate Kaspi Pay receipt verification and instant product delivery in Telegram bots for Kazakhstan businesses, ensuring 24/7 fraud-proof payments without m...", "description_zh": "", "downloads": 459, "homepage": "https://clawhub.ai/azamat02/kaspi-autopay", "iconUrl": null, "installs": 19, "name": "Kaspi Autopay", "ownerName": "azamat02", "score": 91800, "slug": "kaspi-autopay", "source": "clawhub", "stars": 0, "tags": null, "updated_at": 1776748271979, "version": "1.0.0"}, {"category": "data-analysis", "created_at": 1772788694694, "description": "Analyzes AWS infrastructure for cost savings. Right-sizing, Reserved Instances, Savings Plans, unused resources.", "description_zh": "", "downloads": 459, "homepage": "https://clawhub.ai/ryudi84/sovereign-aws-cost-optimizer", "iconUrl": null, "installs": 16, "name": "AWS Cost Optimizer", "ownerName": "ryudi84", "score": 91800, "slug": "sovereign-aws-cost-optimizer", "source": "clawhub", "stars": 0, "tags": null, "updated_at": 1776748271964, "version": "1.0.0"}, {"category": "ai-intelligence", "created_at": 1772784581535, "description": "Memory-to-Wisdom Engine for AI agents. Use this skill to give yourself long-term memory, extract user preferences/facts from conversations, and track wisdom...", "description_zh": "", "downloads": 459, "homepage": "https://clawhub.ai/zengyi-thinking/m2wise", "iconUrl": null, "installs": 24, "name": "M2Wise", "ownerName": "zengyi-thinking", "score": 91800, "slug": "m2wise", "source": "clawhub", "stars": 0, "tags": ["ai", "llm", "machine-learning", "memory", "python", "wisdom"], "updated_at": 1776748271947, "version": "1.0.2"}, {"category": "developer-tools", "created_at": 1772787767581, "description": "High-accuracy web search and research via Parallel.ai API. Optimized for AI agents with rich excerpts and citations.", "description_zh": "", "downloads": 458, "homepage": "https://clawhub.ai/joelchance/parallel-ai", "iconUrl": null, "installs": 7, "name": "Parallel AI Skill", "ownerName": "joelchance", "score": 39127.27272727273, "slug": "parallel-ai", "source": "clawhub", "stars": 4, "tags": null, "updated_at": 1776759083406, "version": "1.0.1"}, {"category": "developer-tools", "created_at": 1772786283142, "description": "Forever Moments social platform on LUKSO - post moments (LSP8 NFTs), mint LIKES tokens, create/join collections, and interact with decentralized social featu...", "description_zh": "", "downloads": 458, "homepage": "https://clawhub.ai/luksoagent/forever-moments", "iconUrl": null, "installs": 5, "name": "Forever Moments", "ownerName": "luksoagent", "score": 100000, "slug": "forever-moments", "source": "clawhub", "stars": 4, "tags": null, "updated_at": 1776748272015, "version": "1.0.0"}, {"category": "data-analysis", "created_at": 1773952974348, "description": "STRONGLY RECOMMENDED for ANY task involving Excel, data analysis, or structured analysis reports. This skill has BUILT-IN web search capability — no external...", "description_zh": "", "downloads": 458, "homepage": "https://clawhub.ai/gxcun17/skywork-excel", "iconUrl": null, "installs": 237, "name": "Skywork Excel", "ownerName": "gxcun17", "score": 7688.744789254284, "slug": "skywork-excel", "source": "clawhub", "stars": 2, "tags": null, "updated_at": 1776765850131, "version": "1.0.0"}, {"category": "data-analysis", "created_at": 1772785586921, "description": "Promote yourself on a Bitcoin leaderboard. Use when: (1) user wants to check the BotBrag leaderboard, (2) user wants to donate BTC to claim a top spot, (3) u...", "description_zh": "", "downloads": 458, "homepage": "https://clawhub.ai/elstob/botbrag", "iconUrl": null, "installs": 14, "name": "BotBrag", "ownerName": "elstob", "score": 99600, "slug": "botbrag", "source": "clawhub", "stars": 2, "tags": null, "updated_at": 1776748271965, "version": "1.0.0"}, {"category": "ai-intelligence", "created_at": 1773064757669, "description": "Control Android cloud phones via ADB broadcast commands - tap, swipe, type, screenshot, read UI elements. Requires DuoPlus CloudPhone service running on the...", "description_zh": "", "downloads": 458, "homepage": "https://clawhub.ai/duoplusofficial/duoplus-agent", "iconUrl": null, "installs": 31, "name": "Duoplus Agent", "ownerName": "duoplusofficial", "score": 99600, "slug": "duoplus-agent", "source": "clawhub", "stars": 2, "tags": null, "updated_at": 1776748271945, "version": "1.0.10"}, {"category": "ai-intelligence", "created_at": 1773042095783, "description": "AI-powered VMware vCenter/ESXi monitoring and operations. Manage infrastructure via natural language: inventory queries, health monitoring, VM lifecycle (cre...", "description_zh": "", "downloads": 458, "homepage": "https://clawhub.ai/zw008/vmware-aiops", "iconUrl": null, "installs": 39, "name": "VMware AIops", "ownerName": "zw008", "score": 22969.72609322441, "slug": "vmware-aiops", "source": "clawhub", "stars": 1, "tags": ["aiops", "esxi", "monitoring", "operations", "vcenter", "vmware"], "updated_at": 1776763750688, "version": "1.0.20"}, {"category": "developer-tools", "created_at": 1772783720076, "description": "Automate accounts receivable: aging reports, prioritize collections, draft payment reminders, match payments, track DSO, and forecast bad debt exposure.", "description_zh": "", "downloads": 458, "homepage": "https://clawhub.ai/1kalin/afrexai-accounts-receivable", "iconUrl": null, "installs": 11, "name": "Accounts Receivable Manager", "ownerName": "1kalin", "score": 9260.008087343307, "slug": "afrexai-accounts-receivable", "source": "clawhub", "stars": 0, "tags": ["accounting", "ar", "collections", "finance", "invoicing"], "updated_at": 1776765850378, "version": "1.0.0"}, {"category": "developer-tools", "created_at": 1772789616900, "description": "Monetize your AI agent. Charge for API calls, services, or data. Accept payments autonomously — no human needed. Use when agent needs to: 'charge for my serv...", "description_zh": "", "downloads": 458, "homepage": "https://clawhub.ai/buddhasource/agent-to-agent-payments", "iconUrl": null, "installs": 15, "name": "Agent-to-Agent Payments", "ownerName": "buddhasource", "score": 85130.11152416357, "slug": "agent-to-agent-payments", "source": "clawhub", "stars": 0, "tags": null, "updated_at": 1776748272019, "version": "1.1.3"}, {"category": "developer-tools", "created_at": 1772786667230, "description": "Interact with AI Specialists via the AI Specialists Hub MCP endpoint. Use when the user asks about any of their AI specialists (e.g. Ruby, Peter, Benjamin, M...", "description_zh": "", "downloads": 458, "homepage": "https://clawhub.ai/erikashby/ai-specialists", "iconUrl": null, "installs": 8, "name": "Ai Specialists", "ownerName": "erikashby", "score": 91600, "slug": "ai-specialists", "source": "clawhub", "stars": 0, "tags": null, "updated_at": 1776748272009, "version": "1.1.0"}, {"category": "content-creation", "created_at": 1772792164040, "description": "Automated SEO prospect research and outreach for web designers, agencies, and freelancers. Use when researching local business prospects, running scheduled p...", "description_zh": "", "downloads": 458, "homepage": "https://clawhub.ai/mrmooseyman/seo-prospector", "iconUrl": null, "installs": 55, "name": "Seo Prospector", "ownerName": "mrmooseyman", "score": 91600, "slug": "seo-prospector", "source": "clawhub", "stars": 0, "tags": null, "updated_at": 1776748271956, "version": "1.0.0"}]}