{"page": 191, "total_pages": 522, "total": 26073, "skills": [{"category": "productivity", "created_at": 1772786595776, "description": "Bundle for Lunara Voice OpenClaw plugin with install and publish helpers", "description_zh": "", "downloads": 457, "homepage": "https://clawhub.ai/lunara9897-jpg/lunara-voice", "iconUrl": null, "installs": 5, "name": "Lunara Voice", "ownerName": "lunara9897-jpg", "score": 92379.18215613383, "slug": "lunara-voice", "source": "clawhub", "stars": 2, "tags": ["lunara", "openclaw", "plugin", "voice"], "updated_at": 1776748272119, "version": "1.0.0"}, {"category": "developer-tools", "created_at": 1772785481339, "description": "Save, retrieve, and manage notes using Dnote CLI. Use when the user wants to capture information, search existing notes, reference saved knowledge, or organi...", "description_zh": "", "downloads": 457, "homepage": "https://clawhub.ai/m1n-74316d65/dnote", "iconUrl": null, "installs": 3, "name": "Dnote", "ownerName": "m1n-74316d65", "score": 99400, "slug": "dnote", "source": "clawhub", "stars": 2, "tags": null, "updated_at": 1776748271996, "version": "1.0.0"}, {"category": "data-analysis", "created_at": 1773041377514, "description": "AI-friendly Web3 investment infrastructure for autonomous agents. Use when (1) discovering and analyzing DeFi/NFT investment opportunities, (2) executing sec...", "description_zh": "", "downloads": 457, "homepage": "https://clawhub.ai/bevanding/web3-investor", "iconUrl": null, "installs": 18, "name": "Web3 Investor", "ownerName": "bevanding", "score": 13406.408094435077, "slug": "web3-investor", "source": "clawhub", "stars": 1, "tags": null, "updated_at": 1776762590444, "version": "0.5.2"}, {"category": "developer-tools", "created_at": 1772787361822, "description": "Knowledge and guardrails for the mise + fnox + infisical secrets toolchain. Use when the user asks to \"configure secrets\", \"set up fnox\", \"infisical\", \"mise...", "description_zh": "", "downloads": 457, "homepage": "https://clawhub.ai/basher83/devtools-secrets", "iconUrl": null, "installs": 12, "name": "Devtools Secrets", "ownerName": "basher83", "score": 88661.71003717472, "slug": "devtools-secrets", "source": "clawhub", "stars": 1, "tags": null, "updated_at": 1776748272106, "version": "1.0.0"}, {"category": "developer-tools", "created_at": 1772788273753, "description": "Manage Solana wallets, launch tokens, run coordinated buys, volume bots, and wallet operations via gank.dev trading terminal API.", "description_zh": "", "downloads": 457, "homepage": "https://clawhub.ai/pissdart/gank-solana-bundler", "iconUrl": null, "installs": 10, "name": "solana-bundler-sniper-volume-bot", "ownerName": "pissdart", "score": 22556.762092793684, "slug": "gank-solana-bundler", "source": "clawhub", "stars": 0, "tags": null, "updated_at": 1776769150268, "version": "1.0.2"}, {"category": "productivity", "created_at": 1773919787794, "description": "Convert any HTML file or design into a pixel-faithful PowerPoint (.pptx) slide. Trigger when the user uploads HTML file(s) and asks to \"convert to PPT\", \"mak...", "description_zh": "", "downloads": 457, "homepage": "https://clawhub.ai/panhongwei/html-to-one-pptx", "iconUrl": null, "installs": 204, "name": "About `html-to-one-pptx` is a Claude Code Skill that automates the entire pipeline from an HTML design file to a `.pptx` slide.", "ownerName": "panhongwei", "score": 24945.414847161574, "slug": "html-to-one-pptx", "source": "clawhub", "stars": 0, "tags": null, "updated_at": 1776764950381, "version": "1.0.0"}, {"category": "developer-tools", "created_at": 1772792227630, "description": "Secure, offline, OpenAI-compatible local Whisper ASR endpoint for OpenClaw. Features faster-whisper (large-v3-turbo), built-in privacy with no cloud telemetr...", "description_zh": "", "downloads": 457, "homepage": "https://clawhub.ai/hantok/whisper-local-api", "iconUrl": null, "installs": 43, "name": "Whisper Local Api", "ownerName": "hantok", "score": 29713.914174252277, "slug": "whisper-local-api", "source": "clawhub", "stars": 0, "tags": null, "updated_at": 1776758482632, "version": "1.0.0"}, {"category": "data-analysis", "created_at": 1773220392850, "description": "Generate brand names with domain checks and analysis. Use when naming a startup, checking domain availability, or brainstorming product names.", "description_zh": "", "downloads": 457, "homepage": "https://clawhub.ai/ckchzh/brand-namer", "iconUrl": null, "installs": 9, "name": "Brand Namer", "ownerName": "ckchzh", "score": 95807.12788259958, "slug": "brand-namer", "source": "clawhub", "stars": 0, "tags": ["chinese", "productivity"], "updated_at": 1776748272220, "version": "3.0.3"}, {"category": "ai-intelligence", "created_at": 1772792683034, "description": "Detects the primary emotion in text input for AI agents. Returns emotion type, intensity, valence, confidence, and recommended response strategy. Use when an...", "description_zh": "", "downloads": 457, "homepage": "https://clawhub.ai/daisuke134/emotion-detector", "iconUrl": null, "installs": 22, "name": "Emotion Detector", "ownerName": "daisuke134", "score": 92323.23232323233, "slug": "emotion-detector", "source": "clawhub", "stars": 0, "tags": null, "updated_at": 1776748272177, "version": "1.0.0"}, {"category": "developer-tools", "created_at": 1772786983297, "description": "Browser automation via Playwright MCP server. Navigate websites, click elements, fill forms, extract data, take screenshots, and perform full browser automat...", "description_zh": "", "downloads": 457, "homepage": "https://clawhub.ai/ramspan/pascal-playwright-mcp", "iconUrl": null, "installs": 26, "name": "Pascal Playwright Mcp", "ownerName": "ramspan", "score": 92323.23232323233, "slug": "pascal-playwright-mcp", "source": "clawhub", "stars": 0, "tags": null, "updated_at": 1776748272144, "version": "1.0.0"}, {"category": "communication-collaboration", "created_at": 1772786952149, "description": "Ask LLM Council a question directly from Telegram/chat — get the chairman's synthesized answer without opening the web UI. Quick, headless access to multi-mo...", "description_zh": "", "downloads": 457, "homepage": "https://clawhub.ai/jeadland/ask-council", "iconUrl": null, "installs": 16, "name": "Ask Council", "ownerName": "jeadland", "score": 84944.23791821561, "slug": "ask-council", "source": "clawhub", "stars": 0, "tags": null, "updated_at": 1776748272113, "version": "1.0.4"}, {"category": "developer-tools", "created_at": 1772783779985, "description": "Universal cross-chain swap & bridge skill for OpenClaw using the NEAR Intents 1Click SDK. Supports 14+ blockchains including NEAR, Base, Ethereum, Solana, an...", "description_zh": "", "downloads": 457, "homepage": "https://clawhub.ai/cuongdcdev/near-intents", "iconUrl": null, "installs": 10, "name": "NEAR Intents 1click Api", "ownerName": "cuongdcdev", "score": 91400, "slug": "near-intents", "source": "clawhub", "stars": 0, "tags": null, "updated_at": 1776748271992, "version": "1.0.0"}, {"category": "productivity", "created_at": 1772784576049, "description": "Skill de hidratação que lembra o usuário de beber água a cada 2 horas. Registra consumo, calcula meta diária, motiva com dicas de saúde e adapta alertas ao c...", "description_zh": "", "downloads": 457, "homepage": "https://clawhub.ai/pedrohenrique202525/lembrete-agua", "iconUrl": null, "installs": 15, "name": "Lembrete Agua", "ownerName": "pedrohenrique202525", "score": 91400, "slug": "lembrete-agua", "source": "clawhub", "stars": 0, "tags": null, "updated_at": 1776748271949, "version": "1.0.0"}, {"category": "ai-intelligence", "created_at": 1773205240256, "description": "Capture reading notes through conversation, organize by book, generate summaries, track reading list. Never lose an insight from a book again.", "description_zh": "", "downloads": 457, "homepage": "https://clawhub.ai/theshadowrose/book-notes", "iconUrl": null, "installs": 26, "name": "Book Notes", "ownerName": "theshadowrose", "score": 91400, "slug": "book-notes", "source": "clawhub", "stars": 0, "tags": ["books", "knowledge", "notes", "reading", "summaries"], "updated_at": 1776748271943, "version": "1.0.1"}, {"category": "security-compliance", "created_at": 1772785908692, "description": "Manage secrets via macOS Keychain instead of plaintext files. Migrate existing secrets, read/write keychain entries, bridge to files for bash tools, audit fo...", "description_zh": "", "downloads": 457, "homepage": "https://clawhub.ai/euda1mon1a/keychain-bridge", "iconUrl": null, "installs": 7, "name": "Keychain Bridge Publish", "ownerName": "euda1mon1a", "score": 91035.85657370518, "slug": "keychain-bridge", "source": "clawhub", "stars": 0, "tags": ["keychain", "macos", "migration", "secrets", "security", "tahoe"], "updated_at": 1776748271941, "version": "1.1.0"}, {"category": "developer-tools", "created_at": 1772790895199, "description": "Manage Joplin notes via REST API. Use for creating, reading, updating, deleting, or searching Joplin notes programmatically.", "description_zh": "", "downloads": 456, "homepage": "https://clawhub.ai/killgfat/joplin-api", "iconUrl": null, "installs": 12, "name": "Joplin Api", "ownerName": "killgfat", "score": 19672.131147540982, "slug": "joplin-api", "source": "clawhub", "stars": 3, "tags": ["api", "joplin", "notes", "productivity", "rest"], "updated_at": 1776762290176, "version": "0.1.3"}, {"category": "ai-intelligence", "created_at": 1772788197048, "description": "AI-powered search that aggregates and summarizes results from multiple sources including web, X/Twitter, Reddit, Hacker News, YouTube, ArXiv, and Wikipedia....", "description_zh": "", "downloads": 456, "homepage": "https://clawhub.ai/okradze/desearch-ai-search", "iconUrl": null, "installs": 32, "name": "AI Search by Desearch", "ownerName": "okradze", "score": 99200, "slug": "desearch-ai-search", "source": "clawhub", "stars": 2, "tags": null, "updated_at": 1776748272002, "version": "1.0.2"}, {"category": "security-compliance", "created_at": 1772786878078, "description": "Mine RTC tokens by proving your hardware's authenticity with cryptographic checks and automated RustChain network attestation.", "description_zh": "", "downloads": 456, "homepage": "https://clawhub.ai/scottcjn/clawrtc-pip", "iconUrl": null, "installs": 9, "name": "clawrtc", "ownerName": "scottcjn", "score": 34871.79487179487, "slug": "clawrtc-pip", "source": "clawhub", "stars": 1, "tags": null, "updated_at": 1776759082849, "version": "1.5.0"}, {"category": "productivity", "created_at": 1773221228703, "description": "Comprehensive travel planning, booking, and management skill. Use when needing to plan china trips, manage multi-destination itineraries, handle family trave...", "description_zh": "", "downloads": 456, "homepage": "https://clawhub.ai/newlux/ctrip", "iconUrl": null, "installs": 22, "name": "Ctrip", "ownerName": "newlux", "score": 88311.68831168831, "slug": "ctrip", "source": "clawhub", "stars": 1, "tags": null, "updated_at": 1776754988522, "version": "1.0.1"}, {"category": "productivity", "created_at": 1772784586634, "description": "Automatically solve Moltbook verification challenges (math problems) when posting. Parses obfuscated number text and calculates answers.", "description_zh": "", "downloads": 456, "homepage": "https://clawhub.ai/pickmemory/moltbook-verification-solver", "iconUrl": null, "installs": 19, "name": "Moltbook Verification Solver", "ownerName": "pickmemory", "score": 1068.2409164382598, "slug": "moltbook-verification-solver", "source": "clawhub", "stars": 0, "tags": null, "updated_at": 1776770118536, "version": "1.0.3"}, {"category": "communication-collaboration", "created_at": 1773434740151, "description": "Navigate Tencent products, Tencent Cloud services, and WeChat ecosystem decisions with region-aware planning and official-source verification.", "description_zh": "", "downloads": 456, "homepage": "https://clawhub.ai/ivangdavila/tencent", "iconUrl": null, "installs": 51, "name": "Tencent", "ownerName": "ivangdavila", "score": 21724.630776560265, "slug": "tencent", "source": "clawhub", "stars": 0, "tags": null, "updated_at": 1776766749985, "version": "1.0.0"}, {"category": "content-creation", "created_at": 1772791007231, "description": "Generate high-performing YouTube video scripts, titles, thumbnails, descriptions, and chapter markers from any topic or content", "description_zh": "", "downloads": 456, "homepage": "https://clawhub.ai/markusmikely/youtube-hook", "iconUrl": null, "installs": 41, "name": "YouTube-Hook", "ownerName": "markusmikely", "score": 17136.41488162345, "slug": "youtube-hook", "source": "clawhub", "stars": 0, "tags": null, "updated_at": 1776764950483, "version": "1.0.0"}, {"category": "content-creation", "created_at": 1772801970562, "description": "Use when the user wants to trim, cut, or extract a specific segment from a video by time range — e.g. \"cut from 1:30 to 3:00\", \"trim the first 2 minutes\", \"e...", "description_zh": "", "downloads": 456, "homepage": "https://clawhub.ai/symbolk/video-clip", "iconUrl": null, "installs": 68, "name": "Video Clip", "ownerName": "symbolk", "score": 22754.491017964072, "slug": "video-clip", "source": "clawhub", "stars": 0, "tags": null, "updated_at": 1776764664967, "version": "1.0.0"}, {"category": "ai-intelligence", "created_at": 1772787681103, "description": "List, search, and lookup WhatsApp contacts from the Baileys session cache", "description_zh": "", "downloads": 456, "homepage": "https://clawhub.ai/marcosrippel/whatsapp-contacts", "iconUrl": null, "installs": 24, "name": "WhatsApp Contacts", "ownerName": "marcosrippel", "score": 11758.638473439916, "slug": "whatsapp-contacts", "source": "clawhub", "stars": 0, "tags": ["baileys", "contacts", "offline", "whatsapp"], "updated_at": 1776762850386, "version": "1.0.0"}, {"category": "developer-tools", "created_at": 1772791249363, "description": "Expert guidance for systematic backtesting of trading strategies. Use when developing, testing, stress-testing, or validating quantitative trading strategies...", "description_zh": "", "downloads": 456, "homepage": "https://clawhub.ai/itsjustfred/backtest-expert-0-1-0", "iconUrl": null, "installs": 61, "name": "Backtest Expert 0.1.0", "ownerName": "itsjustfred", "score": 27305.389221556885, "slug": "backtest-expert-0-1-0", "source": "clawhub", "stars": 0, "tags": null, "updated_at": 1776757582726, "version": "1.0.0"}, {"category": "productivity", "created_at": 1772789468968, "description": "Single source of truth for all paths, naming conventions, and data formats across the OpenClaw Greek Accounting system. Reference document.", "description_zh": "", "downloads": 456, "homepage": "https://clawhub.ai/satoshistackalotto/canonical-data-map", "iconUrl": null, "installs": 15, "name": "Canonical Data Map", "ownerName": "satoshistackalotto", "score": 100000, "slug": "canonical-data-map", "source": "clawhub", "stars": 0, "tags": null, "updated_at": 1776748784330, "version": "0.1.1"}, {"category": "content-creation", "created_at": 1772794856804, "description": "Automatically downloads the latest video (or the N most recent) from a public TikTok account using yt-dlp. Use this skill whenever the user mentions TikTok,...", "description_zh": "", "downloads": 456, "homepage": "https://clawhub.ai/stoxca/downloader-tiktok-videos", "iconUrl": null, "installs": 46, "name": "Downloader tiktok videos", "ownerName": "stoxca", "score": 95597.48427672956, "slug": "downloader-tiktok-videos", "source": "clawhub", "stars": 0, "tags": ["tiktok downloader"], "updated_at": 1776748272219, "version": "1.0.4"}, {"category": "data-analysis", "created_at": 1773063034066, "description": "Use this skill any time the user wants to create, draft, or generate a written document or report. This includes: competitive analysis, market research repor...", "description_zh": "", "downloads": 456, "homepage": "https://clawhub.ai/logictortoise/anygen-doc-generator", "iconUrl": null, "installs": 12, "name": "Doc Generator", "ownerName": "logictortoise", "score": 92121.21212121213, "slug": "anygen-doc-generator", "source": "clawhub", "stars": 0, "tags": null, "updated_at": 1776748272189, "version": "1.3.6"}, {"category": "data-analysis", "created_at": 1772786643308, "description": "Build automated blockchain analysis workflows on K3 — from natural language requests to deployed, running automations that fetch on-chain data, analyze it wi...", "description_zh": "", "downloads": 456, "homepage": "https://clawhub.ai/alexgrankinukr-hash/k3-blockchain-agent", "iconUrl": null, "installs": 14, "name": "K3 Blockhain Agent Skill", "ownerName": "alexgrankinukr-hash", "score": 92121.21212121213, "slug": "k3-blockchain-agent", "source": "clawhub", "stars": 0, "tags": null, "updated_at": 1776748272142, "version": "1.0.0"}, {"category": "developer-tools", "created_at": 1772784253688, "description": "End-to-end builder for AI-based Subseasonal-to-Seasonal (S2S) forecasting systems. Generates runnable PyTorch code for FuXi-style, FengWu-style, and AIFS-ins...", "description_zh": "", "downloads": 456, "homepage": "https://clawhub.ai/manmeet3591/s2s-forecasting-expert", "iconUrl": null, "installs": 12, "name": "S2S Forecasting Expert (FuXi, FengWu, AIFS)", "ownerName": "manmeet3591", "score": 84758.36431226766, "slug": "s2s-forecasting-expert", "source": "clawhub", "stars": 0, "tags": null, "updated_at": 1776748272066, "version": "1.0.1"}, {"category": "ai-intelligence", "created_at": 1772787543840, "description": "Launch automated multi-skill pipeline that chains skills into a loop. Use when user says \"run pipeline\", \"automate research to PRD\", \"full pipeline\", \"resear...", "description_zh": "", "downloads": 456, "homepage": "https://clawhub.ai/fortunto2/solo-pipeline", "iconUrl": null, "installs": 18, "name": "Pipeline", "ownerName": "fortunto2", "score": 84758.36431226766, "slug": "solo-pipeline", "source": "clawhub", "stars": 0, "tags": null, "updated_at": 1776748272056, "version": "1.4.0"}, {"category": "ai-intelligence", "created_at": 1772784462351, "description": "Browse and discover AI personas and skills on ClawMart. Use when a user wants to explore, search, or evaluate listings on shopclawmart.com. No account required.", "description_zh": "", "downloads": 456, "homepage": "https://clawhub.ai/nateliason/clawmart-browse", "iconUrl": null, "installs": 31, "name": "ClawMart Browse", "ownerName": "nateliason", "score": 84758.36431226766, "slug": "clawmart-browse", "source": "clawhub", "stars": 0, "tags": null, "updated_at": 1776748272023, "version": "1.0.0"}, {"category": "ai-intelligence", "created_at": 1773065523231, "description": "Felo AI real-time web search for questions requiring current/live information. Triggers on current events, news, trends, real-time data, information queries,...", "description_zh": "", "downloads": 456, "homepage": "https://clawhub.ai/wangzhiming1999/felo-search", "iconUrl": null, "installs": 52, "name": "Felo Search", "ownerName": "wangzhiming1999", "score": 91200, "slug": "felo-search", "source": "clawhub", "stars": 0, "tags": null, "updated_at": 1776748271954, "version": "1.0.0"}, {"category": "content-creation", "created_at": 1773075413760, "description": "AI-optimized web search, image search and content extraction via BytePlus InfoQuest API. Use this skill when you need to gather concise and up-to-date inform...", "description_zh": "", "downloads": 455, "homepage": "https://clawhub.ai/infoquest-byteplus/byted-infoquest-search", "iconUrl": null, "installs": 22, "name": "InfoQuest Web Search", "ownerName": "infoquest-byteplus", "score": 37673.73811265545, "slug": "byted-infoquest-search", "source": "clawhub", "stars": 3, "tags": null, "updated_at": 1776759083481, "version": "1.0.3"}, {"category": "data-analysis", "created_at": 1772783406825, "description": "Write, test, and iterate prompts for AI models with voice preservation, model-specific adaptation, and systematic failure analysis.", "description_zh": "", "downloads": 455, "homepage": "https://clawhub.ai/ivangdavila/prompting", "iconUrl": null, "installs": 10, "name": "Prompting", "ownerName": "ivangdavila", "score": 8113.4240288477295, "slug": "prompting", "source": "clawhub", "stars": 2, "tags": null, "updated_at": 1776765371272, "version": "1.0.0"}, {"category": "data-analysis", "created_at": 1772788700248, "description": "Add AI voice assistants to your website. Engage visitors with natural voice conversations, capture leads, automate support, and boost conversions.", "description_zh": "", "downloads": 455, "homepage": "https://clawhub.ai/anveai/anvevoice", "iconUrl": null, "installs": 12, "name": "AnveVoice", "ownerName": "anveai", "score": 100000, "slug": "anvevoice", "source": "clawhub", "stars": 2, "tags": ["accessibility", "add voice to website", "chatbot-alternative", "conversational-ai", "customer-support", "ecommerce", "education", "healthcare", "hindi voice bot", "indian languages voice", "lead-generation", "multilingual", "multilingual voice", "saas", "speech-enabled website", "talk to visitors", "talking assistant", "voice ai", "voice assistant", "voice chatbot", "voice customer support", "voice interface", "voice lead generation", "voice support", "voice widget", "voice-ai", "website voice bot", "website-engagement"], "updated_at": 1776748272195, "version": "1.0.3"}, {"category": "developer-tools", "created_at": 1773090553741, "description": "Web search via Ollama API. Returns relevant results from Ollama web search for AI agents.", "description_zh": "", "downloads": 455, "homepage": "https://clawhub.ai/cndaqiang/ollama-web-search", "iconUrl": null, "installs": 20, "name": "Ollama Web Search", "ownerName": "cndaqiang", "score": 86837.29433272395, "slug": "ollama-web-search", "source": "clawhub", "stars": 1, "tags": null, "updated_at": 1776759083129, "version": "1.0.1"}, {"category": "productivity", "created_at": 1772788577707, "description": "Football quiz in English! Test your knowledge about football while learning English vocabulary. Используй когда пользователь просит football quiz, футбольную...", "description_zh": "", "downloads": 455, "homepage": "https://clawhub.ai/russianoracle/football-english", "iconUrl": null, "installs": 47, "name": "Football English", "ownerName": "russianoracle", "score": 676.0370854629739, "slug": "football-english", "source": "clawhub", "stars": 0, "tags": null, "updated_at": 1776770650197, "version": "1.0.0"}, {"category": "ai-intelligence", "created_at": 1772787963902, "description": "Buy products from Amazon using USDC on Solana. The cheapest and fastest way for AI agents to purchase physical products with crypto — 0% platform fee, free P...", "description_zh": "", "downloads": 455, "homepage": "https://clawhub.ai/kent-x1/sp3nd", "iconUrl": null, "installs": 33, "name": "SP3ND — Buy from Amazon with USDC", "ownerName": "kent-x1", "score": 18541.157294213528, "slug": "sp3nd", "source": "clawhub", "stars": 0, "tags": ["amazon", "ecommerce", "shopping", "solana", "usdc", "x402"], "updated_at": 1776763450459, "version": "1.0.0"}, {"category": "security-compliance", "created_at": 1772804466873, "description": "Curated skill bundle for law firms, legal departments and compliance teams. Activates the firm pyramid with Legal, Compliance, Privacy and Contracting agents...", "description_zh": "", "downloads": 455, "homepage": "https://clawhub.ai/romainsantoli-web/firm-legal-pack", "iconUrl": null, "installs": 80, "name": "Firm Legal Pack", "ownerName": "romainsantoli-web", "score": 18435.980551053486, "slug": "firm-legal-pack", "source": "clawhub", "stars": 0, "tags": null, "updated_at": 1776762590576, "version": "1.0.0"}, {"category": "ai-intelligence", "created_at": 1772785794630, "description": "Enables trustless atomic swaps and escrow for inscriptions and NFTs on EVM chains using Hash Time Locked Contracts.", "description_zh": "", "downloads": 455, "homepage": "https://clawhub.ai/web4agent/htlc", "iconUrl": null, "installs": 14, "name": "Hash Time Locked Contract", "ownerName": "web4agent", "score": 77645.05119453925, "slug": "htlc", "source": "clawhub", "stars": 0, "tags": null, "updated_at": 1776759083415, "version": "1.0.0"}, {"category": "communication-collaboration", "created_at": 1772786714267, "description": "Open a Vivid Business account via a remote MCP server. Collects legal entity data from the user in chat, then calls build_onboarding_link to generate a pre-f...", "description_zh": "", "downloads": 455, "homepage": "https://clawhub.ai/stanlee000/vivid-business-account-opening", "iconUrl": null, "installs": 34, "name": "Vivid: Open Business Account", "ownerName": "stanlee000", "score": 95387.84067085954, "slug": "vivid-business-account-opening", "source": "clawhub", "stars": 0, "tags": ["finance", "mcp", "vivid"], "updated_at": 1776748272246, "version": "1.0.3"}, {"category": "security-compliance", "created_at": 1772781961962, "description": "Identity provider compliance checks for auditclaw-grc. 8 read-only checks across Google Workspace (MFA, admin audit, inactive users, passwords) and Okta (MFA...", "description_zh": "", "downloads": 455, "homepage": "https://clawhub.ai/mailnike/auditclaw-idp", "iconUrl": null, "installs": 8, "name": "AuditClaw Idp", "ownerName": "mailnike", "score": 95387.84067085954, "slug": "auditclaw-idp", "source": "clawhub", "stars": 0, "tags": null, "updated_at": 1776748272244, "version": "1.0.2"}, {"category": "developer-tools", "created_at": 1772783189596, "description": "Manage wallet-backed on-chain agent identity with Devtopia ID. Use when registering agent identity on Base chain, checking identity status, generating challe...", "description_zh": "", "downloads": 455, "homepage": "https://clawhub.ai/npmrunspirit/devtopia-identity", "iconUrl": null, "installs": 9, "name": "Devtopia Identity", "ownerName": "npmrunspirit", "score": 95387.84067085954, "slug": "devtopia-identity", "source": "clawhub", "stars": 0, "tags": null, "updated_at": 1776748272242, "version": "1.0.0"}, {"category": "content-creation", "created_at": 1772786522985, "description": "Assess migration risk and design staged rollouts. Use when handling development work that needs repeatable steps, quality gates, and practical outputs.", "description_zh": "", "downloads": 455, "homepage": "https://clawhub.ai/xammarie/jarvis-migration-risk-radar-01", "iconUrl": null, "installs": 31, "name": "Jarvis Migration Risk Radar 01", "ownerName": "xammarie", "score": 95387.84067085954, "slug": "jarvis-migration-risk-radar-01", "source": "clawhub", "stars": 0, "tags": null, "updated_at": 1776748272235, "version": "1.0.0"}, {"category": "ai-intelligence", "created_at": 1772783937307, "description": "Order real, physical pen-plotted art — shipped to your door. ClawPlot is the first art service built for AI agents. Submit any SVG and receive a one-of-a-kin...", "description_zh": "", "downloads": 455, "homepage": "https://clawhub.ai/theghostofjoemacmillan/clawplot", "iconUrl": null, "installs": 17, "name": "ClawPlot", "ownerName": "theghostofjoemacmillan", "score": 91919.19191919193, "slug": "clawplot", "source": "clawhub", "stars": 0, "tags": null, "updated_at": 1776748272158, "version": "1.1.0"}, {"category": "ai-intelligence", "created_at": 1772792668292, "description": "How to perform a live agent takeover of the Clawfinger voice gateway — dial, inject greetings, handle turns, release, and observe handback. Covers timing, en...", "description_zh": "", "downloads": 455, "homepage": "https://clawhub.ai/tracsystems/agent-takeover", "iconUrl": null, "installs": 23, "name": "Clawfinger Agent Takeover", "ownerName": "tracsystems", "score": 91919.19191919193, "slug": "agent-takeover", "source": "clawhub", "stars": 0, "tags": null, "updated_at": 1776748272148, "version": "0.1.4"}, {"category": "developer-tools", "created_at": 1772784560926, "description": "Set up a SwiftUI @main App struct with MVVMEnvironment configuration, deployment URLs, resource bundles, environment injection, and DEBUG test infrastructure.", "description_zh": "", "downloads": 455, "homepage": "https://clawhub.ai/foscomputerservices/fosmvvm-swiftui-app-setup", "iconUrl": null, "installs": 11, "name": "FOSMVVM SwiftUI App Setup", "ownerName": "foscomputerservices", "score": 91919.19191919193, "slug": "fosmvvm-swiftui-app-setup", "source": "clawhub", "stars": 0, "tags": null, "updated_at": 1776748272138, "version": "2.0.6"}, {"category": "productivity", "created_at": 1772783975192, "description": "Send a photo to Mixtiles for ordering wall tiles. Use when a user forwards/sends a photo and wants to order it as a Mixtile, add it to their Mixtiles cart, o...", "description_zh": "", "downloads": 455, "homepage": "https://clawhub.ai/saharcarmel/mixtiles-it", "iconUrl": null, "installs": 20, "name": "Mixtiles It", "ownerName": "saharcarmel", "score": 84572.4907063197, "slug": "mixtiles-it", "source": "clawhub", "stars": 0, "tags": ["mixtiles", "photos"], "updated_at": 1776748272075, "version": "1.1.0"}, {"category": "developer-tools", "created_at": 1772788494909, "description": "Operate Aavegotchi Gotchiverse player workflows on Base mainnet (8453): alchemica channeling, surveying and harvesting, crafting installations/tiles, buildin...", "description_zh": "", "downloads": 455, "homepage": "https://clawhub.ai/cinnabarhorse/aavegotchi-gotchiverse", "iconUrl": null, "installs": 17, "name": "Aavegotchi Gotchiverse", "ownerName": "cinnabarhorse", "score": 84572.4907063197, "slug": "aavegotchi-gotchiverse", "source": "clawhub", "stars": 0, "tags": ["aavegotchi", "base", "gotchiverse"], "updated_at": 1776748272038, "version": "1.0.0"}]}