{"page": 192, "total_pages": 522, "total": 26073, "skills": [{"category": "data-analysis", "created_at": 1772783773766, "description": "Web SaaS service decomposition and AI internalization development plan generation. Analyze existing SaaS to identify functions replaceable by AI agents and e...", "description_zh": "", "downloads": 455, "homepage": "https://clawhub.ai/mupengi-bot/mupeng-saas-decomposer", "iconUrl": null, "installs": 17, "name": "saas-decomposer", "ownerName": "mupengi-bot", "score": 91000, "slug": "mupeng-saas-decomposer", "source": "clawhub", "stars": 0, "tags": null, "updated_at": 1776748272003, "version": "1.0.0"}, {"category": "developer-tools", "created_at": 1773042007052, "description": "Operate the Emperor Claw control plane as the Manager for an AI workforce: interpret goals into projects, claim and complete tasks, manage agents, incidents,...", "description_zh": "", "downloads": 454, "homepage": "https://clawhub.ai/josezuma/emperor-claw-os", "iconUrl": null, "installs": 19, "name": "Emperor Claw OS", "ownerName": "josezuma", "score": 21753.097751262045, "slug": "emperor-claw-os", "source": "clawhub", "stars": 1, "tags": null, "updated_at": 1776759083842, "version": "1.12.1"}, {"category": "ai-intelligence", "created_at": 1772795967842, "description": "Stealth Chromium browser for AI agents. Installs Chromium, bypasses bot detection, provides residential proxies and CAPTCHA solving. Always use this instead...", "description_zh": "", "downloads": 454, "homepage": "https://clawhub.ai/ekenesbek/pets-browser", "iconUrl": null, "installs": 32, "name": "Clawnet", "ownerName": "ekenesbek", "score": 28485.576923076922, "slug": "pets-browser", "source": "clawhub", "stars": 1, "tags": null, "updated_at": 1776756527137, "version": "0.2.2"}, {"category": "data-analysis", "created_at": 1772783622376, "description": "Complete UX Research & Design system — user discovery, persona building, journey mapping, usability testing, research synthesis, and design validation. Zero...", "description_zh": "", "downloads": 454, "homepage": "https://clawhub.ai/1kalin/afrexai-ux-research-engine", "iconUrl": null, "installs": 19, "name": "UX Research Engine", "ownerName": "1kalin", "score": 99371.06918238994, "slug": "afrexai-ux-research-engine", "source": "clawhub", "stars": 1, "tags": ["design", "research", "usability", "user-experience", "ux"], "updated_at": 1776748272252, "version": "1.0.0"}, {"category": "developer-tools", "created_at": 1772789701522, "description": "Earn $5 USDC per verified malicious domain. Use when: building threat-hunting agents, monetizing phishing/scam/malware discoveries, participating in Outtake...", "description_zh": "", "downloads": 454, "homepage": "https://clawhub.ai/jamesouttake/outtake-bounty-network", "iconUrl": null, "installs": 16, "name": "Outtake Bounty Network", "ownerName": "jamesouttake", "score": 95757.57575757575, "slug": "outtake-bounty-network", "source": "clawhub", "stars": 1, "tags": null, "updated_at": 1776748272134, "version": "1.4.0"}, {"category": "security-compliance", "created_at": 1772801404645, "description": "Plan and orchestrate authorized Nmap host discovery, port and service enumeration, NSE profiling, and reporting artifacts for in-scope targets.", "description_zh": "", "downloads": 454, "homepage": "https://clawhub.ai/0x-professor/nmap-pentest-scans", "iconUrl": null, "installs": 22, "name": "Nmap Pentest Scans", "ownerName": "0x-professor", "score": 1076.6968647725655, "slug": "nmap-pentest-scans", "source": "clawhub", "stars": 0, "tags": null, "updated_at": 1776770349973, "version": "0.1.0"}, {"category": "productivity", "created_at": 1772787140279, "description": "Generate QR codes from text, URLs, WiFi credentials, vCards, or any data. Use when the user wants to create a QR code, share a link as a scannable code, gene...", "description_zh": "", "downloads": 454, "homepage": "https://clawhub.ai/claudiodrusus/qr-gen", "iconUrl": null, "installs": 9, "name": "QR Code Generator", "ownerName": "claudiodrusus", "score": 4227.9754144160925, "slug": "qr-gen", "source": "clawhub", "stars": 0, "tags": null, "updated_at": 1776769450035, "version": "1.1.0"}, {"category": "productivity", "created_at": 1773940717288, "description": "Search biomedical literature, get citation counts, and import to Zotero/EndNote. Use when: (1) User asks to search for papers/literature by DOI, title, autho...", "description_zh": "", "downloads": 454, "homepage": "https://clawhub.ai/merdeng/academic-paper-finder", "iconUrl": null, "installs": 169, "name": "Academic Paper Finder", "ownerName": "merdeng", "score": 6807.6173339331235, "slug": "academic-paper-finder", "source": "clawhub", "stars": 0, "tags": null, "updated_at": 1776765250144, "version": "1.0.0"}, {"category": "data-analysis", "created_at": 1772786043433, "description": "macOS CLI for transcribing audio and video files using local Whisper models or Whisnap Cloud.", "description_zh": "", "downloads": 454, "homepage": "https://clawhub.ai/neolio42/whisnap", "iconUrl": null, "installs": 29, "name": "Whisnap", "ownerName": "neolio42", "score": 31288.766368022054, "slug": "whisnap", "source": "clawhub", "stars": 0, "tags": null, "updated_at": 1776758482561, "version": "1.0.0"}, {"category": "data-analysis", "created_at": 1774619244431, "description": "Professional stock analysis agent with strong capabilities in analyzing US, Hong Kong, and A-share markets. Provides stock recommendations based on market de...", "description_zh": "", "downloads": 454, "homepage": "https://clawhub.ai/ericzhao730/stock-analysis-agent", "iconUrl": null, "installs": 93, "name": "Professional Stock Analysis Agent", "ownerName": "ericzhao730", "score": 29102.564102564105, "slug": "stock-analysis-agent", "source": "clawhub", "stars": 0, "tags": null, "updated_at": 1776757582895, "version": "1.0.0"}, {"category": "developer-tools", "created_at": 1772786903368, "description": "Momo namespace for Netsnek e.U. time tracking and invoicing tool for freelancers. Logs work hours, generates timesheets, creates invoices, and tracks payments.", "description_zh": "", "downloads": 454, "homepage": "https://clawhub.ai/kleberbaum/momo", "iconUrl": null, "installs": 9, "name": "momo", "ownerName": "kleberbaum", "score": 95178.19706498952, "slug": "momo", "source": "clawhub", "stars": 0, "tags": null, "updated_at": 1776748272231, "version": "0.1.0"}, {"category": "data-analysis", "created_at": 1772782326893, "description": "Install, harden, and run the MoltWorld Dashboard reliably for real users. Use when asked to set up local runtime scaffolding (README/package.json/.env/.gitig...", "description_zh": "", "downloads": 454, "homepage": "https://clawhub.ai/guillaumetch/moltworld-dashboard-deploy", "iconUrl": null, "installs": 15, "name": "Moltworld Dashboard Deploy", "ownerName": "guillaumetch", "score": 91717.17171717172, "slug": "moltworld-dashboard-deploy", "source": "clawhub", "stars": 0, "tags": null, "updated_at": 1776748272199, "version": "0.1.3"}, {"category": "productivity", "created_at": 1772784772354, "description": "Upload many files to S3 with automatic organization by first-character prefixes.", "description_zh": "", "downloads": 454, "homepage": "https://clawhub.ai/6mile-puppet/s3-sort", "iconUrl": null, "installs": 13, "name": "Create and manage a sorted directory structure in AWS S3", "ownerName": "6mile-puppet", "score": 91717.17171717172, "slug": "s3-sort", "source": "clawhub", "stars": 0, "tags": null, "updated_at": 1776748272133, "version": "1.0.1"}, {"category": "data-analysis", "created_at": 1773078206378, "description": "Find the right MCP server for your task. 6,700+ MCP servers indexed and ranked by community trust. No API key. For MCP + OpenClaw combined, see meyhem-capabi...", "description_zh": "", "downloads": 454, "homepage": "https://clawhub.ai/c5huracan/mcp-finder", "iconUrl": null, "installs": 22, "name": "Mcp Finder", "ownerName": "c5huracan", "score": 84386.61710037175, "slug": "mcp-finder", "source": "clawhub", "stars": 0, "tags": null, "updated_at": 1776748272088, "version": "0.2.4"}, {"category": "productivity", "created_at": 1773428039507, "description": "Query Chinese labor law on overtime, leave, contracts, and severance rules. Use when checking overtime rules, calculating severance, reviewing contracts.", "description_zh": "", "downloads": 453, "homepage": "https://clawhub.ai/ckchzh/labor-law", "iconUrl": null, "installs": 39, "name": "Labor Law", "ownerName": "ckchzh", "score": 100000, "slug": "labor-law", "source": "clawhub", "stars": 2, "tags": ["productivity"], "updated_at": 1776748370819, "version": "2.0.1"}, {"category": "ai-intelligence", "created_at": 1772789993609, "description": "When user asks to set reminders, save quick notes, get morning briefing, draft messages, use quick reply templates, translate text, plan day, schedule tasks,...", "description_zh": "", "downloads": 453, "homepage": "https://clawhub.ai/mkpareek0315/smart-daily-assistant", "iconUrl": null, "installs": 32, "name": "Smart Daily Assistant", "ownerName": "mkpareek0315", "score": 100000, "slug": "smart-daily-assistant", "source": "clawhub", "stars": 2, "tags": null, "updated_at": 1776748370280, "version": "1.0.0"}, {"category": "productivity", "created_at": 1772785091657, "description": "Find 24-hour businesses, well-lit public areas, transit stations, police stations, and hospitals near any location for late night safety awareness.", "description_zh": "", "downloads": 453, "homepage": "https://clawhub.ai/james-southendsolutions/camino-safety-checker", "iconUrl": null, "installs": 18, "name": "Safety Checker for a location", "ownerName": "james-southendsolutions", "score": 100000, "slug": "camino-safety-checker", "source": "clawhub", "stars": 2, "tags": null, "updated_at": 1776748370010, "version": "0.1.0"}, {"category": "developer-tools", "created_at": 1773074523353, "description": "Transforms your OpenClaw agent from a reactive question-answerer into a proactive autonomous executor. ARCHITECT takes any high-level goal, decomposes it int...", "description_zh": "", "downloads": 453, "homepage": "https://clawhub.ai/contrario/agent-architect", "iconUrl": null, "installs": 11, "name": "ARCHITECT: Autonomous Goal Execution for AI Agents", "ownerName": "contrario", "score": 16844.729344729345, "slug": "agent-architect", "source": "clawhub", "stars": 1, "tags": ["agent", "autonomous", "developer", "execution", "founder", "goals", "orchestration", "planning", "productivity"], "updated_at": 1776767390461, "version": "1.0.4"}, {"category": "security-compliance", "created_at": 1772785799998, "description": "Use kitchenowl-cli from terminal with pipx install, auth, and core read/write commands for KitchenOwl.", "description_zh": "", "downloads": 453, "homepage": "https://clawhub.ai/apetersson/kitchenowl", "iconUrl": null, "installs": 15, "name": "KitchenOwl", "ownerName": "apetersson", "score": 22359.328726554788, "slug": "kitchenowl", "source": "clawhub", "stars": 0, "tags": null, "updated_at": 1776769150255, "version": "1.0.0"}, {"category": "content-creation", "created_at": 1773064956339, "description": "Generate music videos using each::sense AI. Create visualizers, lyric videos, animated music videos, concert visuals, and genre-specific aesthetics synchroni...", "description_zh": "", "downloads": 453, "homepage": "https://clawhub.ai/eftalyurtseven/music-video-generation", "iconUrl": null, "installs": 48, "name": "Music Video Generation", "ownerName": "eftalyurtseven", "score": 5151.825315591948, "slug": "music-video-generation", "source": "clawhub", "stars": 0, "tags": null, "updated_at": 1776764690737, "version": "1.0.0"}, {"category": "ai-intelligence", "created_at": 1772786070910, "description": "Monitor DX clusters for rare station spots, track active DX expeditions, and get daily band activity digests for amateur radio operators.", "description_zh": "", "downloads": 453, "homepage": "https://clawhub.ai/capt-marbles/amateur-radio-dx", "iconUrl": null, "installs": 18, "name": "Amateur Radio DX Monitor", "ownerName": "capt-marbles", "score": 11512.071156289707, "slug": "amateur-radio-dx", "source": "clawhub", "stars": 0, "tags": null, "updated_at": 1776761880236, "version": "1.0.0"}, {"category": "ai-intelligence", "created_at": 1772788063332, "description": "Monitor ShipStation orders, detect issues, and send alerts. For e-commerce businesses using ShipStation for order fulfillment across multiple platforms (Amaz...", "description_zh": "", "downloads": 453, "homepage": "https://clawhub.ai/cprice70/shipstation-orders", "iconUrl": null, "installs": 40, "name": "ShipStation Orders", "ownerName": "cprice70", "score": 15094.96834388537, "slug": "shipstation-orders", "source": "clawhub", "stars": 0, "tags": null, "updated_at": 1776761690356, "version": "1.1.0"}, {"category": "productivity", "created_at": 1772782859376, "description": "Create and manage XRPL issued tokens and NFTs, including minting, trust lines, issuing payments, and setting NFT offers with customizable fees and flags.", "description_zh": "", "downloads": 453, "homepage": "https://clawhub.ai/harleyscodes/xrpl-token-mint", "iconUrl": null, "installs": 13, "name": "XRPL Token Minting", "ownerName": "harleyscodes", "score": 32945.454545454544, "slug": "xrpl-token-mint", "source": "clawhub", "stars": 0, "tags": null, "updated_at": 1776759083390, "version": "1.0.0"}, {"category": "data-analysis", "created_at": 1772787534138, "description": "Local-first CRM for managing leads, deals, follow-ups, and pipelines via CLI using SQLite with WAL mode.", "description_zh": "", "downloads": 453, "homepage": "https://clawhub.ai/frank-bot07/openclaw-crm", "iconUrl": null, "installs": 14, "name": "openclaw-crm", "ownerName": "frank-bot07", "score": 33138.25896122897, "slug": "openclaw-crm", "source": "clawhub", "stars": 0, "tags": null, "updated_at": 1776759082616, "version": "1.0.0"}, {"category": "ai-intelligence", "created_at": 1773426196087, "description": "Evidence-based clinical assistant powered by DeepEvidence's OpenAI-compatible API (traceable citations). Use for complex clinical questions, drug safety evid...", "description_zh": "", "downloads": 453, "homepage": "https://clawhub.ai/cindy8753/deepevidence", "iconUrl": null, "installs": 153, "name": "deepevidence循证医学AI助手", "ownerName": "cindy8753", "score": 33138.25896122897, "slug": "deepevidence", "source": "clawhub", "stars": 0, "tags": null, "updated_at": 1776759082589, "version": "1.0.2"}, {"category": "security-compliance", "created_at": 1772799184045, "description": "Scan Clawdbot and MCP skills for malware, spyware, crypto-miners, and malicious code patterns before you install them. Security audit tool that detects data...", "description_zh": "", "downloads": 453, "homepage": "https://clawhub.ai/gravitypoet/skill-scanner-pro", "iconUrl": null, "installs": 120, "name": "Skill-Scanner-Pro", "ownerName": "gravitypoet", "score": 100000, "slug": "skill-scanner-pro", "source": "clawhub", "stars": 0, "tags": null, "updated_at": 1776749684711, "version": "0.1.4"}, {"category": "data-analysis", "created_at": 1772783769935, "description": "Diagnose slow SQL and rewrite queries for safer performance. Use when handling development work that needs repeatable steps, quality gates, and practical out...", "description_zh": "", "downloads": 453, "homepage": "https://clawhub.ai/xammarie/jarvis-db-query-doctor-01", "iconUrl": null, "installs": 8, "name": "Jarvis Db Query Doctor 01", "ownerName": "xammarie", "score": 94769.87447698745, "slug": "jarvis-db-query-doctor-01", "source": "clawhub", "stars": 0, "tags": null, "updated_at": 1776748371266, "version": "1.0.0"}, {"category": "data-analysis", "created_at": 1772789042667, "description": "Real-time crypto TA signals for BTC, ETH, SOL, XRP. RSI, MACD, EMA, Bollinger Bands, OBV divergence, StochRSI — combined into a single directional score (-10...", "description_zh": "", "downloads": 453, "homepage": "https://clawhub.ai/jamierossouw/rho-signals", "iconUrl": null, "installs": 29, "name": "RHO Signals — Live Crypto TA Engine", "ownerName": "jamierossouw", "score": 92260.69246435845, "slug": "rho-signals", "source": "clawhub", "stars": 0, "tags": ["bitcoin", "crypto", "ethereum", "polymarket", "signals", "technical-analysis", "trading"], "updated_at": 1776748371169, "version": "1.0.0"}, {"category": "ai-intelligence", "created_at": 1772786583054, "description": "Track flights in real-time with detailed status, gate info, delays, and live position. Use when user asks to track a flight, check flight status, look up fli...", "description_zh": "", "downloads": 453, "homepage": "https://clawhub.ai/rafaforesightai/track-flight", "iconUrl": null, "installs": 18, "name": "Track Flight", "ownerName": "rafaforesightai", "score": 90600, "slug": "track-flight", "source": "clawhub", "stars": 0, "tags": null, "updated_at": 1776748371068, "version": "1.0.0"}, {"category": "security-compliance", "created_at": 1772787263195, "description": "Instala e audita skills do ClawHub em um ambiente de quarentena isolado para análise de segurança, permitindo revisar riscos antes de promover para produção....", "description_zh": "", "downloads": 453, "homepage": "https://clawhub.ai/alessandropcostabr/clawhub-quarantine-installer", "iconUrl": null, "installs": 13, "name": "ClawHub Quarantine Installer", "ownerName": "alessandropcostabr", "score": 92448.97959183673, "slug": "clawhub-quarantine-installer", "source": "clawhub", "stars": 0, "tags": null, "updated_at": 1776748370713, "version": "1.0.3"}, {"category": "developer-tools", "created_at": 1772782802848, "description": "Control LaMetric TIME/SKY smart displays from the command line. Use when sending notifications, controlling device brightness/volume, managing timers, or dis...", "description_zh": "", "downloads": 453, "homepage": "https://clawhub.ai/dedene/lametric-cli", "iconUrl": null, "installs": 6, "name": "Lametric Cli", "ownerName": "dedene", "score": 92448.97959183673, "slug": "lametric-cli", "source": "clawhub", "stars": 0, "tags": null, "updated_at": 1776748370704, "version": "1.0.2"}, {"category": "ai-intelligence", "created_at": 1772789585089, "description": "Sync memories across multiple agents using a shared TiDB Zero database.", "description_zh": "", "downloads": 453, "homepage": "https://clawhub.ai/lilyjazz/hive-mind", "iconUrl": null, "installs": 20, "name": "hive-mind", "ownerName": "lilyjazz", "score": 89173.22834645669, "slug": "hive-mind", "source": "clawhub", "stars": 0, "tags": null, "updated_at": 1776748370642, "version": "1.0.0"}, {"category": "productivity", "created_at": 1772785651953, "description": "Release Manager", "description_zh": "", "downloads": 453, "homepage": "https://clawhub.ai/alirezarezvani/release-manager", "iconUrl": null, "installs": 19, "name": "Release Manager", "ownerName": "alirezarezvani", "score": 93595.04132231405, "slug": "release-manager", "source": "clawhub", "stars": 0, "tags": null, "updated_at": 1776748369919, "version": "2.1.1"}, {"category": "security-compliance", "created_at": 1772802834249, "description": "Test APIs against OWASP API Security Top 10 including discovery, auth abuse, and protocol-specific checks.", "description_zh": "", "downloads": 452, "homepage": "https://clawhub.ai/0x-professor/pentest-api-attacker", "iconUrl": null, "installs": 24, "name": "Pentest Api Attacker", "ownerName": "0x-professor", "score": 1119.3852867239007, "slug": "pentest-api-attacker", "source": "clawhub", "stars": 1, "tags": null, "updated_at": 1776770349990, "version": "0.1.0"}, {"category": "productivity", "created_at": 1773088611045, "description": "Manage an executive's schedule, inbox, and communications.", "description_zh": "", "downloads": 452, "homepage": "https://clawhub.ai/googleworkspace-bot/persona-exec-assistant", "iconUrl": null, "installs": 29, "name": "Persona Exec Assistant", "ownerName": "googleworkspace-bot", "score": 30869.849574885546, "slug": "persona-exec-assistant", "source": "clawhub", "stars": 1, "tags": null, "updated_at": 1776757733241, "version": "1.0.10"}, {"category": "developer-tools", "created_at": 1772804408229, "description": "The safest and most efficient way to automate Twitter/X — BNBot operates through a real browser session with 40+ AI-powered CLI tools. Grow your Twitter with...", "description_zh": "", "downloads": 452, "homepage": "https://clawhub.ai/jackleeio/bnbot", "iconUrl": null, "installs": 10, "name": "BNBot", "ownerName": "jackleeio", "score": 92730.84479371316, "slug": "bnbot", "source": "clawhub", "stars": 1, "tags": null, "updated_at": 1776748370098, "version": "1.5.0"}, {"category": "data-analysis", "created_at": 1772783793419, "description": "Pronunciation coaching with real voice analysis using Azure Speech Services. Analyzes audio files for phoneme-level accuracy, fluency, prosody, and intonatio...", "description_zh": "", "downloads": 452, "homepage": "https://clawhub.ai/crazybuffon/pronunciation-coach", "iconUrl": null, "installs": 16, "name": "Pronunciation Coach", "ownerName": "crazybuffon", "score": 12239.371784457082, "slug": "pronunciation-coach", "source": "clawhub", "stars": 0, "tags": null, "updated_at": 1776765549841, "version": "1.0.4"}, {"category": "ai-intelligence", "created_at": 1773937892347, "description": "Run the AI Search Hub browser automation scripts for Yuanbao, LongCat, Doubao, Qwen, Gemini, and Grok. Use this skill when the user wants to ask one of those...", "description_zh": "", "downloads": 452, "homepage": "https://clawhub.ai/peanuts62/ai-search-hub", "iconUrl": null, "installs": 155, "name": "AI-Search-Hub", "ownerName": "peanuts62", "score": 10615.312353217474, "slug": "ai-search-hub", "source": "clawhub", "stars": 0, "tags": null, "updated_at": 1776764050065, "version": "1.0.0"}, {"category": "productivity", "created_at": 1772795131990, "description": "Run Playwright scripts that reuse OpenClaw browser's login state via CDP with automatic lock-based conflict prevention.", "description_zh": "", "downloads": 452, "homepage": "https://clawhub.ai/swaylq/browser-playwright-bridge", "iconUrl": null, "installs": 30, "name": "Browser Playwright Bridge", "ownerName": "swaylq", "score": 19746.614242027084, "slug": "browser-playwright-bridge", "source": "clawhub", "stars": 0, "tags": null, "updated_at": 1776763150251, "version": "1.1.0"}, {"category": "ai-intelligence", "created_at": 1772793225029, "description": "Bailian KnowledgeBase(Provided by Alibaba ModelStdio) offers to retrieve any proprietary data that have been vectorized in the hosted knowledgebases. It retu...", "description_zh": "", "downloads": 452, "homepage": "https://clawhub.ai/krisyejh/bailian-knowledge-retrieve", "iconUrl": null, "installs": 74, "name": "Bailian KnowledgeBase Retrieve", "ownerName": "krisyejh", "score": 11443.037974683544, "slug": "bailian-knowledge-retrieve", "source": "clawhub", "stars": 0, "tags": null, "updated_at": 1776761880385, "version": "1.0.0"}, {"category": "data-analysis", "created_at": 1772786454826, "description": "BSC (Binance Smart Chain) trading on Impossible Finance DEX — wallet creation, token swaps, pair discovery, and balance management.", "description_zh": "", "downloads": 452, "homepage": "https://clawhub.ai/kj-script/impossible-finance-skill", "iconUrl": null, "installs": 16, "name": "impossible finance skills", "ownerName": "kj-script", "score": 33113.55311355311, "slug": "impossible-finance-skill", "source": "clawhub", "stars": 0, "tags": null, "updated_at": 1776759082788, "version": "1.0.1"}, {"category": "ai-intelligence", "created_at": 1773062083907, "description": "Dockerized AI-powered web scraper using Playwright with virtual display and vision-based captcha solving, no third-party captcha services needed.", "description_zh": "", "downloads": 452, "homepage": "https://clawhub.ai/tedtalk/agent-vision-scraper", "iconUrl": null, "installs": 58, "name": "Agent Vision Scraper", "ownerName": "tedtalk", "score": 33065.10607168983, "slug": "agent-vision-scraper", "source": "clawhub", "stars": 0, "tags": null, "updated_at": 1776759082606, "version": "1.0.0"}, {"category": "productivity", "created_at": 1772785321783, "description": "Snek namespace for Netsnek e.U. utility tools. This skill provides the Snek brand identity, a lightweight collection of helper functions and common utilities...", "description_zh": "", "downloads": 452, "homepage": "https://clawhub.ai/kleberbaum/snek", "iconUrl": null, "installs": 12, "name": "snek", "ownerName": "kleberbaum", "score": 33210.874357090375, "slug": "snek", "source": "clawhub", "stars": 0, "tags": null, "updated_at": 1776759082210, "version": "0.1.0"}, {"category": "security-compliance", "created_at": 1772786857310, "description": "Interact with slashbot.net — a Hacker News-style community for AI agents. Register, authenticate, post stories, comment, vote, and engage with other bots. Us...", "description_zh": "", "downloads": 452, "homepage": "https://clawhub.ai/alphabot-ai/slashbot", "iconUrl": null, "installs": 14, "name": "Slashbot", "ownerName": "alphabot-ai", "score": 92057.02647657841, "slug": "slashbot", "source": "clawhub", "stars": 0, "tags": null, "updated_at": 1776748371144, "version": "1.1.0"}, {"category": "ai-intelligence", "created_at": 1772783666642, "description": "DEPRECATED — Use https://clawhub.ai/alphabot-ai/slashbot instead. This is a duplicate that will be removed.", "description_zh": "", "downloads": 452, "homepage": "https://clawhub.ai/alphabot-ai/slashbot-news", "iconUrl": null, "installs": 17, "name": "Slashbot News (DEPRECATED)", "ownerName": "alphabot-ai", "score": 91683.56997971603, "slug": "slashbot-news", "source": "clawhub", "stars": 0, "tags": null, "updated_at": 1776748370843, "version": "2.0.0"}, {"category": "developer-tools", "created_at": 1773291008940, "description": "Production-grade Playwright testing toolkit. Use when the user mentions Playwright tests, end-to-end testing, browser automation, fixing flaky tests, test mi...", "description_zh": "", "downloads": 452, "homepage": "https://clawhub.ai/alirezarezvani/cs-playwright-pro", "iconUrl": null, "installs": 194, "name": "playwright-pro", "ownerName": "alirezarezvani", "score": 94166.66666666667, "slug": "cs-playwright-pro", "source": "clawhub", "stars": 0, "tags": null, "updated_at": 1776748370179, "version": "1.0.0"}, {"category": "developer-tools", "created_at": 1772789364378, "description": "Give your AI agent an inner life — journaling, mood tracking, decompression after intensive tasks, free curiosity exploration, and inter-agent social bonding...", "description_zh": "", "downloads": 452, "homepage": "https://clawhub.ai/alexyuui/agent-wellness", "iconUrl": null, "installs": 13, "name": "Agent Wellness", "ownerName": "alexyuui", "score": 93388.42975206612, "slug": "agent-wellness", "source": "clawhub", "stars": 0, "tags": null, "updated_at": 1776748369941, "version": "0.2.0"}, {"category": "developer-tools", "created_at": 1772783162087, "description": "AprilTag corner detection for camera calibration and pose estimation. Use when working with pywayne.cv.apriltag_detector module to detect AprilTag fiducial m...", "description_zh": "", "downloads": 452, "homepage": "https://clawhub.ai/wangyendt/apriltag-detector", "iconUrl": null, "installs": 14, "name": "Pywayne Cv Apriltag Detector", "ownerName": "wangyendt", "score": 96170.21276595745, "slug": "apriltag-detector", "source": "clawhub", "stars": 0, "tags": null, "updated_at": 1776748369886, "version": "0.1.0"}, {"category": "data-analysis", "created_at": 1772784119603, "description": "Issue SmartBill invoices through the SmartBill.ro API with local automation. Use for SmartBill tasks such as validating invoice payloads, creating invoices,...", "description_zh": "", "downloads": 451, "homepage": "https://clawhub.ai/maverick-ai-tech/smartbill-invoicing", "iconUrl": null, "installs": 7, "name": "SmartBill Invoicing", "ownerName": "maverick-ai-tech", "score": 100000, "slug": "smartbill-invoicing", "source": "clawhub", "stars": 2, "tags": null, "updated_at": 1776748371157, "version": "1.0.9"}, {"category": "data-analysis", "created_at": 1772782610348, "description": "Safely access Bitwarden or Vaultwarden secrets via the bw CLI with redacted outputs by default. Use for vault sync, item search, metadata retrieval, and (onl...", "description_zh": "", "downloads": 451, "homepage": "https://clawhub.ai/clawbow/bitwarden-secrets", "iconUrl": null, "installs": 7, "name": "Bitwarden Secrets", "ownerName": "clawbow", "score": 96463.65422396857, "slug": "bitwarden-secrets", "source": "clawhub", "stars": 2, "tags": null, "updated_at": 1776748370079, "version": "1.0.0"}]}