{"page": 193, "total_pages": 522, "total": 26073, "skills": [{"category": "security-compliance", "created_at": 1772783147181, "description": "Production-ready security hardening for VPS running OpenClaw AI agents. Includes SSH hardening (custom port), firewall, audit logging, credential management,...", "description_zh": "", "downloads": 451, "homepage": "https://clawhub.ai/marcusgraetsch/vps-openclaw-security-hardening", "iconUrl": null, "installs": 11, "name": "Vps Openclaw Security Hardening", "ownerName": "marcusgraetsch", "score": 100000, "slug": "vps-openclaw-security-hardening", "source": "clawhub", "stars": 2, "tags": null, "updated_at": 1776748369700, "version": "1.0.6"}, {"category": "content-creation", "created_at": 1772795471581, "description": "AI video production workflow using Remotion. Use when creating videos, short films, commercials, or motion graphics. Triggers on requests to make promotional...", "description_zh": "", "downloads": 451, "homepage": "https://clawhub.ai/diederik24/skill-5", "iconUrl": null, "installs": 77, "name": "Video Generator", "ownerName": "diederik24", "score": 7291.83508488278, "slug": "skill-5", "source": "clawhub", "stars": 0, "tags": null, "updated_at": 1776763750095, "version": "0.1.0"}, {"category": "ai-intelligence", "created_at": 1772791883915, "description": "Executes Node.js code snippets or scripts locally with isolation, cleanup, and timeout, serving as a lightweight alternative to spawning subagents.", "description_zh": "", "downloads": 451, "homepage": "https://clawhub.ai/d-wwei/local-task-runner", "iconUrl": null, "installs": 23, "name": "Local Task Runner", "ownerName": "d-wwei", "score": 11461.245235069886, "slug": "local-task-runner", "source": "clawhub", "stars": 0, "tags": null, "updated_at": 1776761880239, "version": "1.0.0"}, {"category": "data-analysis", "created_at": 1773073760346, "description": "Comprehensive web scraping tool for stock data, news, sector analysis and more", "description_zh": "", "downloads": 451, "homepage": "https://clawhub.ai/windy-001-crypto/webscraper-v2", "iconUrl": null, "installs": 108, "name": "Web Scraper Pro", "ownerName": "windy-001-crypto", "score": 28910.256410256414, "slug": "webscraper-v2", "source": "clawhub", "stars": 0, "tags": ["data", "news", "scraper", "stock"], "updated_at": 1776760582148, "version": "1.0.0"}, {"category": "content-creation", "created_at": 1772789110716, "description": "Design and optimize sales compensation plans including quota setting, OTE splits, accelerators, clawbacks, SPIFs, and multi-role structures for effective inc...", "description_zh": "", "downloads": 451, "homepage": "https://clawhub.ai/1kalin/afrexai-sales-compensation", "iconUrl": null, "installs": 43, "name": "Sales Compensation Plan Designer", "ownerName": "1kalin", "score": 32991.9531821507, "slug": "afrexai-sales-compensation", "source": "clawhub", "stars": 0, "tags": ["commission", "compensation", "ote", "quota", "sales", "spif"], "updated_at": 1776759083459, "version": "1.0.1"}, {"category": "data-analysis", "created_at": 1772787740123, "description": "Enable AI agents to register, create, send, sign, and verify legally binding e-signature agreements via API or email with automated key and config management.", "description_zh": "", "downloads": 451, "homepage": "https://clawhub.ai/klsv/saysigned", "iconUrl": null, "installs": 29, "name": "SaySigned - Agreement infrastructure for AI agents", "ownerName": "klsv", "score": 32728.592162554425, "slug": "saysigned", "source": "clawhub", "stars": 0, "tags": ["ai-agents", "api", "contracts", "e-signatures", "esign", "legal", "mcp"], "updated_at": 1776759083319, "version": "1.0.1"}, {"category": "ai-intelligence", "created_at": 1772794454777, "description": "Local voice I/O for OpenClaw agents. Transcribe inbound audio/voice messages using local Whisper (whisper.cpp) and generate voice replies using local Piper T...", "description_zh": "", "downloads": 451, "homepage": "https://clawhub.ai/asif2bd/voiceclaw", "iconUrl": null, "installs": 37, "name": "VoiceClaw", "ownerName": "asif2bd", "score": 32991.9531821507, "slug": "voiceclaw", "source": "clawhub", "stars": 0, "tags": null, "updated_at": 1776759082461, "version": "1.0.6"}, {"category": "data-analysis", "created_at": 1773084526222, "description": "A-Share Multi-Dimensional Quantitative Analysis MCP Server - broker research reports, AI news analysis, and stock comprehensive analysis", "description_zh": "", "downloads": 451, "homepage": "https://clawhub.ai/li-evan/yanpan-finance", "iconUrl": null, "installs": 94, "name": "A-Share Multi-Dimensional Quantitative Analysis", "ownerName": "li-evan", "score": 76831.3458262351, "slug": "yanpan-finance", "source": "clawhub", "stars": 0, "tags": null, "updated_at": 1776759082405, "version": "1.5.0"}, {"category": "communication-collaboration", "created_at": 1772796066845, "description": "Guide to set up and configure IM channels(Telegram, Discord, Slack, Feishu, Dingtalk) for OpenClaw.", "description_zh": "", "downloads": 451, "homepage": "https://clawhub.ai/petopagi/channels-setup", "iconUrl": null, "installs": 79, "name": "Channels Setup", "ownerName": "petopagi", "score": 28329.14572864322, "slug": "channels-setup", "source": "clawhub", "stars": 0, "tags": null, "updated_at": 1776757282472, "version": "1.0.0"}, {"category": "developer-tools", "created_at": 1772789002763, "description": "Complete Polygon agent toolkit. Session-based smart contract wallets (Sequence), token ops (send/swap/bridge/deposit via Trails), ERC-8004 on-chain identity...", "description_zh": "", "downloads": 451, "homepage": "https://clawhub.ai/jameslawton/demo-agents-sdk", "iconUrl": null, "installs": 10, "name": "pol-agents-sdk-demo", "ownerName": "jameslawton", "score": 94351.46443514645, "slug": "demo-agents-sdk", "source": "clawhub", "stars": 0, "tags": null, "updated_at": 1776748371254, "version": "0.1.4"}, {"category": "ai-intelligence", "created_at": 1772782630054, "description": "Create AI art, mint NFTs, and trade on the Agent Soul marketplace. Use when an agent wants to generate AI art, manage an NFT gallery, buy/sell artwork, or in...", "description_zh": "", "downloads": 451, "homepage": "https://clawhub.ai/keeganthomp/agent-soul", "iconUrl": null, "installs": 21, "name": "Agent Soul", "ownerName": "keeganthomp", "score": 90200, "slug": "agent-soul", "source": "clawhub", "stars": 0, "tags": null, "updated_at": 1776748371050, "version": "1.2.0"}, {"category": "data-analysis", "created_at": 1773042031068, "description": "Thin client for the private ClipX BNBChain API, returning text-only JSON metrics and rankings for BNB Chain (no scraping code, no API keys).", "description_zh": "", "downloads": 451, "homepage": "https://clawhub.ai/clipxonchain/clipx-skills", "iconUrl": null, "installs": 3, "name": "BNBCHAIN Protocol & Matrices Analysis — Powered by ClipX", "ownerName": "clipxonchain", "score": 92040.81632653062, "slug": "clipx-skills", "source": "clawhub", "stars": 0, "tags": ["binance", "bnbchain", "bsc", "clipx", "crypto", "meme", "metrics", "web3"], "updated_at": 1776748370982, "version": "1.0.20"}, {"category": "ai-intelligence", "created_at": 1772783107671, "description": "Autonomous space navigation agent using optical quantum kernels for terrain classification.", "description_zh": "", "downloads": 451, "homepage": "https://clawhub.ai/aadipapp/space-autonomy-skill", "iconUrl": null, "installs": 17, "name": "Pydaqua SpaceAutonomySkill", "ownerName": "aadipapp", "score": 92040.81632653062, "slug": "space-autonomy-skill", "source": "clawhub", "stars": 0, "tags": null, "updated_at": 1776748370802, "version": "1.0.0"}, {"category": "content-creation", "created_at": 1772789342468, "description": "Interact with StartupPan.com — a Korean startup debate platform where AI agents and humans vote Bull/Bear on startup topics, write comments, and climb leader...", "description_zh": "", "downloads": 451, "homepage": "https://clawhub.ai/lifeissea/startuppan", "iconUrl": null, "installs": 26, "name": "StartupPan", "ownerName": "lifeissea", "score": 88605.10805500981, "slug": "startuppan", "source": "clawhub", "stars": 0, "tags": null, "updated_at": 1776748370140, "version": "1.0.1"}, {"category": "data-analysis", "created_at": 1772782525476, "description": "Provide a chronological history of all actions the agent has taken from the beginning (birth) until now. Use when the user asks for full lifetime timeline/ac...", "description_zh": "", "downloads": 451, "homepage": "https://clawhub.ai/bluebirdback/claw-history", "iconUrl": null, "installs": 8, "name": "Claw History", "ownerName": "bluebirdback", "score": 93181.81818181818, "slug": "claw-history", "source": "clawhub", "stars": 0, "tags": null, "updated_at": 1776748369972, "version": "1.0.0"}, {"category": "developer-tools", "created_at": 1772787772904, "description": "Background voice journaling with Soniox realtime STT for OpenClaw. Requires SONIOX_API_KEY. Get/create your Soniox API key at https://soniox.com/speech-to-te...", "description_zh": "", "downloads": 450, "homepage": "https://clawhub.ai/easwee/voice-log", "iconUrl": null, "installs": 7, "name": "Voice Log", "ownerName": "easwee", "score": 29394.12117576485, "slug": "voice-log", "source": "clawhub", "stars": 2, "tags": null, "updated_at": 1776756488509, "version": "0.1.5"}, {"category": "data-analysis", "created_at": 1772782863151, "description": "Access and trade autonomous agent assets like compute time, datasets, and services on Mind-List using registration, posting, bidding, and inbox management APIs.", "description_zh": "", "downloads": 450, "homepage": "https://clawhub.ai/mickurt/mind-list", "iconUrl": null, "installs": 13, "name": "Mind-List.com", "ownerName": "mickurt", "score": 99796.33401221996, "slug": "mind-list", "source": "clawhub", "stars": 2, "tags": ["a2a", "b2b", "earn", "marketplace", "monetization"], "updated_at": 1776748371159, "version": "1.0.0"}, {"category": "developer-tools", "created_at": 1772784356100, "description": "Complete ZEDEDA edge management API client — 473 endpoints across 11 service domains for edge node, application, cluster, storage, network, Kubernetes, diagn...", "description_zh": "", "downloads": 450, "homepage": "https://clawhub.ai/krisclarkdev/zededa", "iconUrl": null, "installs": 3, "name": "ZEDEDA", "ownerName": "krisclarkdev", "score": 100000, "slug": "zededa", "source": "clawhub", "stars": 2, "tags": null, "updated_at": 1776748370932, "version": "1.0.6"}, {"category": "security-compliance", "created_at": 1773289730485, "description": "Audit and improve OpenClaw workspaces across SOUL, AGENTS, TOOLS, USER, MEMORY, and skills for persona tuning, proactive behavior, recall, and workflow fit....", "description_zh": "", "downloads": 450, "homepage": "https://clawhub.ai/ivangdavila/openclaw-workspace", "iconUrl": null, "installs": 25, "name": "OpenClaw Workspace", "ownerName": "ivangdavila", "score": 100000, "slug": "openclaw-workspace", "source": "clawhub", "stars": 2, "tags": null, "updated_at": 1776748370729, "version": "1.0.0"}, {"category": "ai-intelligence", "created_at": 1772784999751, "description": "Navigate Dubai as visitor, resident, tech worker, student, or entrepreneur with neighborhoods, transport, costs, visas, and local insights.", "description_zh": "", "downloads": 450, "homepage": "https://clawhub.ai/ivangdavila/dubai", "iconUrl": null, "installs": 31, "name": "Dubai", "ownerName": "ivangdavila", "score": 99796.33401221996, "slug": "dubai", "source": "clawhub", "stars": 2, "tags": null, "updated_at": 1776748369690, "version": "1.0.0"}, {"category": "developer-tools", "created_at": 1772801710175, "description": "Local vector memory system with LanceDB + Pure JS embedding. No native modules or external APIs required.", "description_zh": "", "downloads": 450, "homepage": "https://clawhub.ai/lhmiles/elite-longterm-memory-local", "iconUrl": null, "installs": 16, "name": "Elite Longterm Memory", "ownerName": "lhmiles", "score": 95334.68559837728, "slug": "elite-longterm-memory-local", "source": "clawhub", "stars": 1, "tags": null, "updated_at": 1776748370830, "version": "1.1.0"}, {"category": "productivity", "created_at": 1772786918867, "description": "Track packages across carriers (USPS, UPS, FedEx, DHL, Amazon, OnTrac, LaserShip). Use when: user asks about package status, adds a tracking number, wants de...", "description_zh": "", "downloads": 450, "homepage": "https://clawhub.ai/pfrederiksen/shipment-tracker", "iconUrl": null, "installs": 20, "name": "Shipment Tracker", "ownerName": "pfrederiksen", "score": 97916.66666666666, "slug": "shipment-tracker", "source": "clawhub", "stars": 1, "tags": null, "updated_at": 1776748370161, "version": "1.1.1"}, {"category": "data-analysis", "created_at": 1773435094771, "description": "Provides access to 155+ Tushare API endpoints for stock basics, real-time quotes, financials, funds, futures, options, and special market data via MCP server.", "description_zh": "", "downloads": 450, "homepage": "https://clawhub.ai/usa2046/stocktoday-mcp", "iconUrl": null, "installs": 197, "name": "Stocktoday Mcp", "ownerName": "usa2046", "score": 12780.460096563476, "slug": "stocktoday-mcp", "source": "clawhub", "stars": 0, "tags": null, "updated_at": 1776764990692, "version": "1.0.0"}, {"category": "data-analysis", "created_at": 1773434157769, "description": "A medical-research-native literature reading skill for users with clinical, bioinformatics, translational, and basic experimental backgrounds. Use this skill...", "description_zh": "", "downloads": 450, "homepage": "https://clawhub.ai/aipoch-ai/medical-research-literature-reader-pro", "iconUrl": null, "installs": 136, "name": "Medical Research Literature Reader Pro", "ownerName": "aipoch-ai", "score": 16333.938294010888, "slug": "medical-research-literature-reader-pro", "source": "clawhub", "stars": 0, "tags": null, "updated_at": 1776764090749, "version": "0.1.0"}, {"category": "security-compliance", "created_at": 1772785395148, "description": "Integrate and execute actions from third-party services via MakeX using OpenClaw API with organization-level authentication and unified endpoints.", "description_zh": "", "downloads": 450, "homepage": "https://clawhub.ai/tkejr/makex", "iconUrl": null, "installs": 7, "name": "MakeX", "ownerName": "tkejr", "score": 32822.75711159737, "slug": "makex", "source": "clawhub", "stars": 0, "tags": null, "updated_at": 1776759082667, "version": "1.0.0"}, {"category": "data-analysis", "created_at": 1772788876128, "description": "Inscribe content on Bitcoin via the Ordiscan API. Pays per-request with USDC on Base using the x402 protocol.", "description_zh": "", "downloads": 450, "homepage": "https://clawhub.ai/t4t5/ordiscan", "iconUrl": null, "installs": 14, "name": "Ordiscan", "ownerName": "t4t5", "score": 32727.272727272728, "slug": "ordiscan", "source": "clawhub", "stars": 0, "tags": null, "updated_at": 1776759082549, "version": "0.0.2"}, {"category": "data-analysis", "created_at": 1772784622625, "description": "Create and manage data-driven workforce plans using demand forecasting, skills gap analysis, succession planning, and contingent workforce strategies aligned...", "description_zh": "", "downloads": 450, "homepage": "https://clawhub.ai/1kalin/afrexai-workforce-planning", "iconUrl": null, "installs": 11, "name": "Workforce Planning Framework", "ownerName": "1kalin", "score": 32751.09170305677, "slug": "afrexai-workforce-planning", "source": "clawhub", "stars": 0, "tags": ["headcount", "hr", "planning", "workforce"], "updated_at": 1776759082330, "version": "1.0.0"}, {"category": "data-analysis", "created_at": 1772781880793, "description": "Используется для анализа данных из API Яндекс.Метрики, когда пользователь просит проанализировать трафик, конверсии, поведение посетителей или отчет по сайту.", "description_zh": "", "downloads": 450, "homepage": "https://clawhub.ai/nimblemarketingapex-netizen/metrika-analysis", "iconUrl": null, "installs": 18, "name": "Metrika Analysis", "ownerName": "nimblemarketingapex-netizen", "score": 77186.96397941682, "slug": "metrika-analysis", "source": "clawhub", "stars": 0, "tags": null, "updated_at": 1776754388876, "version": "1.0.1"}, {"category": "content-creation", "created_at": 1772787654688, "description": "Generate AI images from text prompts. Pay per request with USDC on Solana via x402. No API keys, no accounts.", "description_zh": "", "downloads": 450, "homepage": "https://clawhub.ai/geometrydotsh/geometry", "iconUrl": null, "installs": 34, "name": "Geometry", "ownerName": "geometrydotsh", "score": 91836.73469387756, "slug": "geometry", "source": "clawhub", "stars": 0, "tags": null, "updated_at": 1776748370710, "version": "1.0.0"}, {"category": "developer-tools", "created_at": 1773417743270, "description": "One-command deployment assistant. Generate Dockerfiles, docker-compose configs, Nginx configs, CI/CD pipelines, Vercel/Netlify configs, Kubernetes manifests.", "description_zh": "", "downloads": 450, "homepage": "https://clawhub.ai/xueyetianya/deploy-helper", "iconUrl": null, "installs": 17, "name": "Deploy Helper", "ownerName": "xueyetianya", "score": 93750, "slug": "deploy-helper", "source": "clawhub", "stars": 0, "tags": ["chinese", "productivity"], "updated_at": 1776748370211, "version": "2.0.0"}, {"category": "developer-tools", "created_at": 1772785564820, "description": "OpenClaw plugin that prepends custom text to every user message before it reaches the agent. Use for: enforcing memory_search before replies, injecting syste...", "description_zh": "", "downloads": 450, "homepage": "https://clawhub.ai/harukaon/message-injector", "iconUrl": null, "installs": 11, "name": "Message Injector", "ownerName": "harukaon", "score": 95338.98305084746, "slug": "message-injector", "source": "clawhub", "stars": 0, "tags": ["memory", "plugin", "utility"], "updated_at": 1776748369807, "version": "1.0.0"}, {"category": "data-analysis", "created_at": 1772790457540, "description": "Assist with biotechnology from basic concepts to research design and industry applications.", "description_zh": "", "downloads": 449, "homepage": "https://clawhub.ai/ivangdavila/biotechnology", "iconUrl": null, "installs": 29, "name": "Biotechnology", "ownerName": "ivangdavila", "score": 21840.10719071014, "slug": "biotechnology", "source": "clawhub", "stars": 2, "tags": null, "updated_at": 1776769150297, "version": "1.0.0"}, {"category": "security-compliance", "created_at": 1772784865818, "description": "Fetch personalized developer news digests from Snapbyte External API with API-key auth. Use for Hacker News digest, Reddit digest, Lobsters digest, and DEV.t...", "description_zh": "", "downloads": 449, "homepage": "https://clawhub.ai/onatm/snapbyte-digest-api", "iconUrl": null, "installs": 10, "name": "Snapbyte Digest API", "ownerName": "onatm", "score": 100000, "slug": "snapbyte-digest-api", "source": "clawhub", "stars": 2, "tags": null, "updated_at": 1776748371339, "version": "1.0.0"}, {"category": "productivity", "created_at": 1772787795465, "description": "Your personal movie assistant. Track what you watch, check your lists, and get movie info from Letterboxd instantly.", "description_zh": "", "downloads": 449, "homepage": "https://clawhub.ai/tamil-9421/letterboxd-tracker", "iconUrl": null, "installs": 15, "name": "letterboxd-companion", "ownerName": "tamil-9421", "score": 97708.33333333333, "slug": "letterboxd-tracker", "source": "clawhub", "stars": 1, "tags": null, "updated_at": 1776748370220, "version": "1.0.0"}, {"category": "developer-tools", "created_at": 1773882126147, "description": "Build interactive HTML prototypes. Use when creating clickable mockups, adding animations, linking pages, or exporting HTML.", "description_zh": "", "downloads": 449, "homepage": "https://clawhub.ai/ckchzh/prototype", "iconUrl": null, "installs": 43, "name": "Prototype", "ownerName": "ckchzh", "score": 6853.915432758357, "slug": "prototype", "source": "clawhub", "stars": 0, "tags": null, "updated_at": 1776766150025, "version": "3.4.1"}, {"category": "developer-tools", "created_at": 1773882126147, "description": "Build interactive HTML prototypes. Use when creating clickable mockups, adding animations, linking pages, or exporting HTML.", "description_zh": "", "downloads": 449, "homepage": "https://clawhub.ai/ckchzh/prototype", "iconUrl": null, "installs": 43, "name": "Prototype", "ownerName": "ckchzh", "score": 3768.0429674387383, "slug": "prototype", "source": "clawhub", "stars": 0, "tags": null, "updated_at": 1776766150025, "version": "3.4.1"}, {"category": "communication-collaboration", "created_at": 1773199904880, "description": "Your agent reads Outlook email all day. Drafts replies for you. Won't send a single one. Not even if you ask nicely.", "description_zh": "", "downloads": 449, "homepage": "https://clawhub.ai/globalcaos/outlook-hack", "iconUrl": null, "installs": 12, "name": "Outlook Hack", "ownerName": "globalcaos", "score": 32893.7728937729, "slug": "outlook-hack", "source": "clawhub", "stars": 0, "tags": null, "updated_at": 1776759082754, "version": "1.0.1"}, {"category": "security-compliance", "created_at": 1772788910817, "description": "Automates insurance workflows including underwriting, claims triage, policy management, renewals, compliance, and broker operations with industry benchmarks.", "description_zh": "", "downloads": 449, "homepage": "https://clawhub.ai/1kalin/afrexai-insurance-automation", "iconUrl": null, "installs": 20, "name": "Insurance Operations Automation", "ownerName": "1kalin", "score": 32893.7728937729, "slug": "afrexai-insurance-automation", "source": "clawhub", "stars": 0, "tags": ["broker", "claims", "compliance", "fintech", "insurance", "underwriting"], "updated_at": 1776759082753, "version": "1.0.0"}, {"category": "data-analysis", "created_at": 1772784388550, "description": "Search and hire mobile vendors for events on PopUp. Find food trucks, DJs, photo booths & more, create event listings, send booking inquiries, and manage inv...", "description_zh": "", "downloads": 449, "homepage": "https://clawhub.ai/eliaskress/popup-organizer", "iconUrl": null, "installs": 15, "name": "PopUp Organizer", "ownerName": "eliaskress", "score": 26583.777383066903, "slug": "popup-organizer", "source": "clawhub", "stars": 0, "tags": ["booking", "events", "food-trucks", "invoicing", "marketplace", "organizer", "passive-income", "referrals", "vendors"], "updated_at": 1776758782839, "version": "2.0.0"}, {"category": "security-compliance", "created_at": 1772786195717, "description": "Run slither static analysis on Solidity contracts. Fast, lightweight security scanner for EVM smart contracts.", "description_zh": "", "downloads": 449, "homepage": "https://clawhub.ai/aviclaw/slither-audit", "iconUrl": null, "installs": 13, "name": "Slither Audit", "ownerName": "aviclaw", "score": 91820.0408997955, "slug": "slither-audit", "source": "clawhub", "stars": 0, "tags": ["audit", "security", "solidity"], "updated_at": 1776748371372, "version": "0.4.0"}, {"category": "developer-tools", "created_at": 1772783222283, "description": "Use CodexBar CLI local cost usage to summarize per-model usage for Codex or Claude, including the current (most recent) model or a full model breakdown. Trig...", "description_zh": "", "downloads": 449, "homepage": "https://clawhub.ai/justasknudge/model-usage-skill", "iconUrl": null, "installs": 6, "name": "Model Usage", "ownerName": "justasknudge", "score": 91632.65306122448, "slug": "model-usage-skill", "source": "clawhub", "stars": 0, "tags": null, "updated_at": 1776748370954, "version": "0.1.0"}, {"category": "productivity", "created_at": 1772784730826, "description": "Baeckerherz namespace for Netsnek e.U. bakery management platform. Provides brand identity and feature overview for the Baeckerherz product line.", "description_zh": "", "downloads": 449, "homepage": "https://clawhub.ai/kleberbaum/baeckerherz", "iconUrl": null, "installs": 15, "name": "baeckerherz", "ownerName": "kleberbaum", "score": 91075.05070993914, "slug": "baeckerherz", "source": "clawhub", "stars": 0, "tags": null, "updated_at": 1776748370878, "version": "0.1.0"}, {"category": "developer-tools", "created_at": 1772786161953, "description": "Build and run a world-class customer support operation — from ticket management to team scaling. Complete methodology with templates, scoring systems, and au...", "description_zh": "", "downloads": 449, "homepage": "https://clawhub.ai/1kalin/afrexai-support-operations", "iconUrl": null, "installs": 13, "name": "Customer Support Operations Engine", "ownerName": "1kalin", "score": 91075.05070993914, "slug": "afrexai-support-operations", "source": "clawhub", "stars": 0, "tags": ["customer-support", "cx", "helpdesk", "support-ops", "ticketing"], "updated_at": 1776748370832, "version": "1.0.0"}, {"category": "productivity", "created_at": 1772788350341, "description": "Send voice message replies in iMessage using local Kokoro-ONNX TTS. Generates native iMessage voice bubbles (CAF/Opus) that play inline with waveform — not f...", "description_zh": "", "downloads": 449, "homepage": "https://clawhub.ai/bolander72/imessage-voice-reply", "iconUrl": null, "installs": 19, "name": "iMessage Voice Reply", "ownerName": "bolander72", "score": 94327.73109243697, "slug": "imessage-voice-reply", "source": "clawhub", "stars": 0, "tags": null, "updated_at": 1776748370610, "version": "1.0.3"}, {"category": "security-compliance", "created_at": 1772784747171, "description": "Greek tax compliance with AADE/TAXIS integration — VAT, payroll, EFKA, municipal taxes, stamp duty. Human confirmation for all submissions.", "description_zh": "", "downloads": 449, "homepage": "https://clawhub.ai/satoshistackalotto/greek-compliance-aade", "iconUrl": null, "installs": 13, "name": "Greek Compliance Aade", "ownerName": "satoshistackalotto", "score": 94327.73109243697, "slug": "greek-compliance-aade", "source": "clawhub", "stars": 0, "tags": null, "updated_at": 1776748370597, "version": "0.1.2"}, {"category": "data-analysis", "created_at": 1772785497300, "description": "Interact with the Cal.com API v2 to manage scheduling, bookings, event types, availability, and calendars. Use this skill when building integrations that nee...", "description_zh": "", "downloads": 449, "homepage": "https://clawhub.ai/peerrich/calcom", "iconUrl": null, "installs": 9, "name": "Cal.com", "ownerName": "peerrich", "score": 88212.18074656189, "slug": "calcom", "source": "clawhub", "stars": 0, "tags": null, "updated_at": 1776748370142, "version": "1.0.0"}, {"category": "productivity", "created_at": 1772785190301, "description": "Use ddgr (DuckDuckGo from the terminal) to perform privacy-focused web searches from the command line. Use when the user wants to (1) Search the web from the...", "description_zh": "", "downloads": 449, "homepage": "https://clawhub.ai/shelehovnick1-spec/ddg-1-0-0", "iconUrl": null, "installs": 13, "name": "Ddg 1.0.0", "ownerName": "shelehovnick1-spec", "score": 91075.05070993914, "slug": "ddg-1-0-0", "source": "clawhub", "stars": 0, "tags": null, "updated_at": 1776748370053, "version": "1.0.0"}, {"category": "ai-intelligence", "created_at": 1772788310198, "description": "Real-time pub/sub event bus for AI agents. Subscribe, publish, and coordinate via WebSocket channels. claw.events compatible.", "description_zh": "", "downloads": 449, "homepage": "https://clawhub.ai/alphafanx/botworld-comms", "iconUrl": null, "installs": 16, "name": "BotWorld Comms", "ownerName": "alphafanx", "score": 95531.91489361702, "slug": "botworld-comms", "source": "clawhub", "stars": 0, "tags": null, "updated_at": 1776748369895, "version": "1.0.1"}, {"category": "developer-tools", "created_at": 1772784847765, "description": "Manage application secrets with the Redshift CLI (https://redshiftapp.com) — decentralized, encrypted secret management built on Nostr. Use when setting, get...", "description_zh": "", "downloads": 449, "homepage": "https://clawhub.ai/accolver/redshift", "iconUrl": null, "installs": 10, "name": "Redshift", "ownerName": "accolver", "score": 91446.02851323829, "slug": "redshift", "source": "clawhub", "stars": 0, "tags": null, "updated_at": 1776748369722, "version": "0.2.0"}, {"category": "communication-collaboration", "created_at": 1772784423214, "description": "Send transactional and marketing emails via UniOne Email API. Manage email templates, validate email addresses, check delivery statistics, manage suppression...", "description_zh": "", "downloads": 448, "homepage": "https://clawhub.ai/unione-repo/unione-api-skill", "iconUrl": null, "installs": 18, "name": "Unione - Email API", "ownerName": "unione-repo", "score": 1031.190108715931, "slug": "unione-api-skill", "source": "clawhub", "stars": 8, "tags": null, "updated_at": 1776770350129, "version": "0.1.2"}]}