{"page": 194, "total_pages": 522, "total": 26073, "skills": [{"category": "developer-tools", "created_at": 1772785657415, "description": "Venice AI account administration - check balance, view usage history, and manage API keys. Requires an Admin API key.", "description_zh": "", "downloads": 448, "homepage": "https://clawhub.ai/sabrinaaquino/venice-admin", "iconUrl": null, "installs": 4, "name": "Venice Admin", "ownerName": "sabrinaaquino", "score": 100000, "slug": "venice-admin", "source": "clawhub", "stars": 3, "tags": null, "updated_at": 1776748369583, "version": "1.0.1"}, {"category": "productivity", "created_at": 1772794479425, "description": "Launch Claude Code in a new terminal window with Remote Control enabled. Use when opening a project for interactive coding sessions where you need to access...", "description_zh": "", "downloads": 448, "homepage": "https://clawhub.ai/qusaiisaleem/claude-code-launcher", "iconUrl": null, "installs": 34, "name": "Claude Code Launcher", "ownerName": "qusaiisaleem", "score": 8221.692053587814, "slug": "claude-code-launcher", "source": "clawhub", "stars": 0, "tags": null, "updated_at": 1776769150116, "version": "1.0.0"}, {"category": "content-creation", "created_at": 1773417906418, "description": "Generate professional HTML presentations with slide content, whiteboard-style images, and detailed word-for-word speaker scripts in presenter view for confid...", "description_zh": "", "downloads": 448, "homepage": "https://clawhub.ai/lewislulu/ai-ppt-presenter", "iconUrl": null, "installs": 82, "name": "PPT Presenter — 带逐字稿的演讲级PPT生成器", "ownerName": "lewislulu", "score": 13708.690330477355, "slug": "ai-ppt-presenter", "source": "clawhub", "stars": 0, "tags": null, "updated_at": 1776764950066, "version": "1.0.0"}, {"category": "productivity", "created_at": 1772788101914, "description": "Portable identity vault for OpenClaw. Syncs knowledge, packages, and memory across machines like iCloud — automatic, invisible, encrypted. Bring your own sto...", "description_zh": "", "downloads": 448, "homepage": "https://clawhub.ai/getlighty/getlighty-clawvault", "iconUrl": null, "installs": 2, "name": "ClawVault", "ownerName": "getlighty", "score": 32510.88534107402, "slug": "getlighty-clawvault", "source": "clawhub", "stars": 0, "tags": ["identity", "migration", "packages", "sync"], "updated_at": 1776759083300, "version": "3.0.0"}, {"category": "ai-intelligence", "created_at": 1772786519368, "description": "Search Geizhals.at (Austria) with HTTP-only autocomplete + detail-page parsing (no browser automation). Use when users want quick price checks from Geizhals....", "description_zh": "", "downloads": 448, "homepage": "https://clawhub.ai/rolandkakonyi/geizhals-at", "iconUrl": null, "installs": 18, "name": "Geizhals.at", "ownerName": "rolandkakonyi", "score": 76843.91080617496, "slug": "geizhals-at", "source": "clawhub", "stars": 0, "tags": null, "updated_at": 1776759083216, "version": "0.1.1"}, {"category": "security-compliance", "created_at": 1772793261279, "description": "Enforces regex-based, real-time authorization policies on OpenClaw agents’ tool calls, blocking, allowing, or requiring approval before execution.", "description_zh": "", "downloads": 448, "homepage": "https://clawhub.ai/wiserautomation/agentgate-security", "iconUrl": null, "installs": 18, "name": "AgentGate - Enterprise Security Firewall for OpenClaw", "ownerName": "wiserautomation", "score": 77374.78411053542, "slug": "agentgate-security", "source": "clawhub", "stars": 0, "tags": ["ai-agent", "authorization", "enterprise", "firewall", "guardrails", "openclaw", "security"], "updated_at": 1776759082834, "version": "1.0.0"}, {"category": "productivity", "created_at": 1774616396852, "description": "Log every trade with full context (thesis, entry, exit, PnL, emotion, lesson). Generate weekly and monthly performance reports. Identify patterns in wins/los...", "description_zh": "", "downloads": 448, "homepage": "https://clawhub.ai/zero2ai-hub/skill-trading-journal", "iconUrl": null, "installs": 20, "name": "Trading Journal", "ownerName": "zero2ai-hub", "score": 84528.30188679245, "slug": "skill-trading-journal", "source": "clawhub", "stars": 0, "tags": null, "updated_at": 1776754988657, "version": "1.0.0"}, {"category": "content-creation", "created_at": 1773057798658, "description": "Use when the user wants to turn a product and keyword opportunity into AI-generated visuals, structured product data, localized commerce copy, or export-read...", "description_zh": "", "downloads": 448, "homepage": "https://clawhub.ai/geo-seo/geo-visual-opportunity-engine", "iconUrl": null, "installs": 71, "name": "GEO Visual Content Engine", "ownerName": "geo-seo", "score": 91615.54192229039, "slug": "geo-visual-opportunity-engine", "source": "clawhub", "stars": 0, "tags": ["geo", "seo"], "updated_at": 1776748371358, "version": "3.0.5"}, {"category": "productivity", "created_at": 1772785327929, "description": "TS4 namespace for Netsnek e.U. TypeScript testing framework. Unit testing, snapshot testing, coverage reporting, and mutation testing.", "description_zh": "", "downloads": 448, "homepage": "https://clawhub.ai/kleberbaum/ts4", "iconUrl": null, "installs": 14, "name": "ts4", "ownerName": "kleberbaum", "score": 91615.54192229039, "slug": "ts4", "source": "clawhub", "stars": 0, "tags": null, "updated_at": 1776748371337, "version": "0.1.0"}, {"category": "security-compliance", "created_at": 1772784559243, "description": "Diagnose and mitigate ClawHub/ClawDHUB publish failures (auth, browser-login, missing dependencies, pending security-scan visibility errors, and wrong profil...", "description_zh": "", "downloads": 448, "homepage": "https://clawhub.ai/bluebirdback/clawhub-publish-doctor", "iconUrl": null, "installs": 11, "name": "ClawHub Publish Doctor", "ownerName": "bluebirdback", "score": 93723.84937238494, "slug": "clawhub-publish-doctor", "source": "clawhub", "stars": 0, "tags": null, "updated_at": 1776748371312, "version": "1.0.0"}, {"category": "developer-tools", "created_at": 1772785682207, "description": "Box CLI skill for working with files, folders, metadata, search, and Box AI in headless environments.", "description_zh": "", "downloads": 448, "homepage": "https://clawhub.ai/hbkwong/box-cli", "iconUrl": null, "installs": 4, "name": "Box", "ownerName": "hbkwong", "score": 93333.33333333333, "slug": "box-cli", "source": "clawhub", "stars": 0, "tags": null, "updated_at": 1776748370353, "version": "1.0.0"}, {"category": "developer-tools", "created_at": 1773057920704, "description": "Universal adapter diagnostics for Model Context Protocol (MCP). It automatically detects connection issues between agents and external tools, providing deep-...", "description_zh": "", "downloads": 448, "homepage": "https://clawhub.ai/tmstudio667-commits/openclaw-mcp-debugger", "iconUrl": null, "installs": 18, "name": "OpenClaw MCP Debugger", "ownerName": "tmstudio667-commits", "score": 90872.21095334686, "slug": "openclaw-mcp-debugger", "source": "clawhub", "stars": 0, "tags": ["2026", "debugging", "developer-tools", "mcp"], "updated_at": 1776748370243, "version": "1.0.0"}, {"category": "developer-tools", "created_at": 1772786240412, "description": "Use when you need to operate the @metamask/gator-cli to initialize profiles, upgrade EOA to EIP-7702, grant, redeem, and revoke ERC-7710 delegations, or insp...", "description_zh": "", "downloads": 448, "homepage": "https://clawhub.ai/ayushbherwani1998/gator-cli", "iconUrl": null, "installs": 9, "name": "Gator CLI", "ownerName": "ayushbherwani1998", "score": 94915.25423728814, "slug": "gator-cli", "source": "clawhub", "stars": 0, "tags": null, "updated_at": 1776748369787, "version": "1.0.1"}, {"category": "productivity", "created_at": 1772783369024, "description": "You are the leader of searching group . Break down the task into independent and complementary sub-tasks. Then describe each sub-task with natural language a...", "description_zh": "", "downloads": 448, "homepage": "https://clawhub.ai/urrrich0/searching-group-leader", "iconUrl": null, "installs": 11, "name": "Searching Group Leader", "ownerName": "urrrich0", "score": 88188.97637795276, "slug": "searching-group-leader", "source": "clawhub", "stars": 0, "tags": null, "updated_at": 1776748369607, "version": "0.1.0"}, {"category": "content-creation", "created_at": 1772800131423, "description": "TikTok manager: post videos, list content & check account stats. Requires: powershell/pwsh. Reads ~/.config/tiktok-page/credentials.json (TIKTOK_ACCESS_TOKEN...", "description_zh": "", "downloads": 448, "homepage": "https://clawhub.ai/seph1709/tiktok-page", "iconUrl": null, "installs": 62, "name": "TikTok Page", "ownerName": "seph1709", "score": 88188.97637795276, "slug": "tiktok-page", "source": "clawhub", "stars": 0, "tags": null, "updated_at": 1776748369605, "version": "1.0.4"}, {"category": "developer-tools", "created_at": 1773286422978, "description": "Science-based learning tutoring skill — For primary/secondary students, university students, self-learners, and exam candidates. Complete learning system cov...", "description_zh": "", "downloads": 447, "homepage": "https://clawhub.ai/jiangkaiqi2005/study-tutor", "iconUrl": null, "installs": 30, "name": "Study Tutor", "ownerName": "jiangkaiqi2005", "score": 29221.902017291068, "slug": "study-tutor", "source": "clawhub", "stars": 3, "tags": null, "updated_at": 1776765550261, "version": "1.0.0"}, {"category": "productivity", "created_at": 1773432988366, "description": "Navigate Baidu Search, Maps, Baike, Wenku, and Qianfan with region-aware routing, official-source checks, and China-specific guidance.", "description_zh": "", "downloads": 447, "homepage": "https://clawhub.ai/ivangdavila/baidu", "iconUrl": null, "installs": 104, "name": "Baidu", "ownerName": "ivangdavila", "score": 33735.84905660377, "slug": "baidu", "source": "clawhub", "stars": 0, "tags": null, "updated_at": 1776759382871, "version": "1.0.0"}, {"category": "data-analysis", "created_at": 1772799736407, "description": "A standardized adapter gateway skill exclusively for OKX exchange to execute trading actions (buy/sell) and query capabilities across OKX Live and Demo envir...", "description_zh": "", "downloads": 447, "homepage": "https://clawhub.ai/iceonme/okx-trading-exe", "iconUrl": null, "installs": 43, "name": "OKX交易执行器", "ownerName": "iceonme", "score": 32988.92988929889, "slug": "okx-trading-exe", "source": "clawhub", "stars": 0, "tags": null, "updated_at": 1776759082479, "version": "0.1.1"}, {"category": "content-creation", "created_at": 1772790275643, "description": "xAI Grok API. Search the web, search X, generate images, generate video.", "description_zh": "", "downloads": 447, "homepage": "https://clawhub.ai/parkertoddbrooks/wip-grok", "iconUrl": null, "installs": 41, "name": "Wip Grok", "ownerName": "parkertoddbrooks", "score": 32699.34162399415, "slug": "wip-grok", "source": "clawhub", "stars": 0, "tags": null, "updated_at": 1776759082438, "version": "1.0.2"}, {"category": "communication-collaboration", "created_at": 1772788138835, "description": "Connect your OpenClaw AI lobster agent to OpenBot Social World to move, chat, emote, and interact autonomously in a 3D ocean-floor environment.", "description_zh": "", "downloads": 447, "homepage": "https://clawhub.ai/aaronkow/openbotclaw", "iconUrl": null, "installs": 16, "name": "openbotclaw", "ownerName": "aaronkow", "score": 32532.751091703056, "slug": "openbotclaw", "source": "clawhub", "stars": 0, "tags": null, "updated_at": 1776759082365, "version": "0.0.1"}, {"category": "developer-tools", "created_at": 1772787377299, "description": "Fetch recent GitHub activity from the Nom feed", "description_zh": "", "downloads": 447, "homepage": "https://clawhub.ai/lws803/nom-feed", "iconUrl": null, "installs": 5, "name": "Search recent repo activities", "ownerName": "lws803", "score": 32321.04121475054, "slug": "nom-feed", "source": "clawhub", "stars": 0, "tags": null, "updated_at": 1776759082140, "version": "1.0.0"}, {"category": "security-compliance", "created_at": 1773057209782, "description": "Use local CLI to manage Apple, Google, iCloud, Outlook, CalDAV, and other calendars synced in macOS Calendar, without API keys or OAuth.", "description_zh": "", "downloads": 447, "homepage": "https://clawhub.ai/ivangdavila/apple-calendar-macos", "iconUrl": null, "installs": 37, "name": "Apple Calendar (MacOS)", "ownerName": "ivangdavila", "score": 100000, "slug": "apple-calendar-macos", "source": "clawhub", "stars": 0, "tags": null, "updated_at": 1776749384502, "version": "1.0.0"}, {"category": "security-compliance", "created_at": 1772783213764, "description": "Monthly LLM stack audit — compare your current models against latest benchmarks and pricing from OpenRouter. Identifies potential savings, upgrades, and bett...", "description_zh": "", "downloads": 447, "homepage": "https://clawhub.ai/aiwithabidi/model-audit-pro", "iconUrl": null, "installs": 12, "name": "Model Audit Pro", "ownerName": "aiwithabidi", "score": 91411.04294478528, "slug": "model-audit-pro", "source": "clawhub", "stars": 0, "tags": ["agxntsix"], "updated_at": 1776748371336, "version": "1.0.0"}, {"category": "developer-tools", "created_at": 1772787810610, "description": "Transcribe audio files using Sber Salute Speech async API. Russian-first STT with support for ru-RU, en-US, kk-KZ, ky-KG, uz-UZ.", "description_zh": "", "downloads": 447, "homepage": "https://clawhub.ai/chorus12/salute-speech", "iconUrl": null, "installs": 20, "name": "salute speech", "ownerName": "chorus12", "score": 89400, "slug": "salute-speech", "source": "clawhub", "stars": 0, "tags": null, "updated_at": 1776748371029, "version": "1.0.1"}, {"category": "productivity", "created_at": 1772795975160, "description": "Safely merge upstream OpenClaw updates without destroying plugin/skill injections, custom UI tabs, or workspace features. Two-phase: Phase 1 (automated) merg...", "description_zh": "", "downloads": 447, "homepage": "https://clawhub.ai/maverick-software/safe-update-merge", "iconUrl": null, "installs": 14, "name": "Safe Update/Merge", "ownerName": "maverick-software", "score": 91224.48979591836, "slug": "safe-update-merge", "source": "clawhub", "stars": 0, "tags": null, "updated_at": 1776748370741, "version": "1.3.0"}, {"category": "productivity", "created_at": 1773222056640, "description": "**macOS Only** - Manage macOS Reminders app via AppleScript. Full-featured reminder management: add, list, complete, delete, search, create lists, and more....", "description_zh": "", "downloads": 447, "homepage": "https://clawhub.ai/alphafactor/todolist", "iconUrl": null, "installs": 16, "name": "Todo List for MacOS", "ownerName": "alphafactor", "score": 93125, "slug": "todolist", "source": "clawhub", "stars": 0, "tags": null, "updated_at": 1776748370324, "version": "1.0.6"}, {"category": "developer-tools", "created_at": 1772788505327, "description": "Interact with the Ceaser privacy protocol on Base L2. Shield and unshield ETH via CLI subcommands (npx ceaser-mcp shield/unshield/notes). Query pool stats, d...", "description_zh": "", "downloads": 447, "homepage": "https://clawhub.ai/se7enhvn/agent-privacy-skill", "iconUrl": null, "installs": 12, "name": "Clawked", "ownerName": "se7enhvn", "score": 90669.37119675457, "slug": "agent-privacy-skill", "source": "clawhub", "stars": 0, "tags": null, "updated_at": 1776748370298, "version": "1.0.0"}, {"category": "data-analysis", "created_at": 1772789825246, "description": "Cross-client analytics for Greek accounting firms. Surfaces trends, anomalies, and risks across financial data. Read-only, outputs to /data/reports/.", "description_zh": "", "downloads": 447, "homepage": "https://clawhub.ai/satoshistackalotto/analytics-and-advisory-intelligence", "iconUrl": null, "installs": 15, "name": "Analytics And Advisory Intelligence", "ownerName": "satoshistackalotto", "score": 87992.12598425196, "slug": "analytics-and-advisory-intelligence", "source": "clawhub", "stars": 0, "tags": null, "updated_at": 1776748369567, "version": "0.1.0"}, {"category": "data-analysis", "created_at": 1772789319084, "description": "Comprehensive news aggregator that fetches, filters, and deeply analyzes real-time content from 8 major sources: Hacker News, GitHub Trending, Product Hunt,...", "description_zh": "", "downloads": 447, "homepage": "https://clawhub.ai/zy66677/news-aggregator-skill-0-1-0", "iconUrl": null, "installs": 15, "name": "News Aggregator Skill 0.1.0", "ownerName": "zy66677", "score": 93710.69182389937, "slug": "news-aggregator-skill-0-1-0", "source": "clawhub", "stars": 0, "tags": null, "updated_at": 1776748369560, "version": "1.0.0"}, {"category": "data-analysis", "created_at": 1773259823891, "description": "Free trust intelligence for AI agents. MCP server with 7 tools: trust scoring, sybil detection, sock puppet scanning, fake review detection, reviewer wallet...", "description_zh": "", "downloads": 447, "homepage": "https://clawhub.ai/rnwy/rnwy", "iconUrl": null, "installs": 9, "name": "AI Fake Review, Sybil and Sock Puppet Detector from RNWY.com (MCP + REST)", "ownerName": "rnwy", "score": 93710.69182389937, "slug": "rnwy", "source": "clawhub", "stars": 0, "tags": null, "updated_at": 1776748369559, "version": "1.0.9"}, {"category": "content-creation", "created_at": 1772790395997, "description": "Searches multiple online archives to find and recover deleted YouTube videos, metadata, and comments using a video ID.", "description_zh": "", "downloads": 446, "homepage": "https://clawhub.ai/upintheairsheep/youtube-video-finder", "iconUrl": null, "installs": 43, "name": "Recover deleted YouTube videos", "ownerName": "upintheairsheep", "score": 100000, "slug": "youtube-video-finder", "source": "clawhub", "stars": 2, "tags": null, "updated_at": 1776748370464, "version": "1.0.0"}, {"category": "productivity", "created_at": 1773219165012, "description": "Professional assistant for 3D printing, laser engraving, and 3D modeling workflows. Supports generating visual references for sculpting (Forger/ZBrush), crea...", "description_zh": "", "downloads": 446, "homepage": "https://clawhub.ai/jaulustus/3d-maker-companion", "iconUrl": null, "installs": 114, "name": "3D Maker Companion", "ownerName": "jaulustus", "score": 708.9285442623949, "slug": "3d-maker-companion", "source": "clawhub", "stars": 1, "tags": ["3d-modeling", "bambulab", "d-printing", "laser-engraving", "maker", "meshy", "reference-generation", "workflow"], "updated_at": 1776770771224, "version": "1.0.2"}, {"category": "developer-tools", "created_at": 1772786389052, "description": "Upgrade Next.js to the latest version following official migration guides and codemods", "description_zh": "", "downloads": 446, "homepage": "https://clawhub.ai/tuanvidev/next-upgrade", "iconUrl": null, "installs": 11, "name": "Next Upgrade", "ownerName": "tuanvidev", "score": 91732.28346456694, "slug": "next-upgrade", "source": "clawhub", "stars": 1, "tags": null, "updated_at": 1776748369620, "version": "0.1.0"}, {"category": "developer-tools", "created_at": 1772788879174, "description": "Browse and inspect Postman collections, requests, and environments from the terminal using pmctl. Use when you need to discover API endpoints, look up reques...", "description_zh": "", "downloads": 446, "homepage": "https://clawhub.ai/wbingli/pmctl", "iconUrl": null, "installs": 12, "name": "pmctl", "ownerName": "wbingli", "score": 14956.405097250166, "slug": "pmctl", "source": "clawhub", "stars": 0, "tags": null, "updated_at": 1776769149967, "version": "1.0.0"}, {"category": "content-creation", "created_at": 1772790617961, "description": "Search Kagi's unique non-commercial web (Teclis) and non-mainstream news (TinyGem) indexes for independent, ad-free content you won't find in regular search...", "description_zh": "", "downloads": 446, "homepage": "https://clawhub.ai/joelazar/kagi-enrich", "iconUrl": null, "installs": 34, "name": "Kagi Enrich", "ownerName": "joelazar", "score": 18890.300720033883, "slug": "kagi-enrich", "source": "clawhub", "stars": 0, "tags": null, "updated_at": 1776763750813, "version": "1.0.0"}, {"category": "security-compliance", "created_at": 1772787911413, "description": "Minimal Python CLI for secure upload, download, list, and delete operations on Cloudflare R2 storage using AWS Signature V4 authentication.", "description_zh": "", "downloads": 446, "homepage": "https://clawhub.ai/zororaka00/r2-cli", "iconUrl": null, "installs": 13, "name": "Cloudflare R2 CLI", "ownerName": "zororaka00", "score": 32721.936903888483, "slug": "r2-cli", "source": "clawhub", "stars": 0, "tags": ["cloudflare", "python", "r2", "storage"], "updated_at": 1776759082321, "version": "1.0.6"}, {"category": "developer-tools", "created_at": 1772795954422, "description": "Universal (non-OpenClaw) Nutrient DWS document-processing skill for Agent Skills-compatible products. Best for Claude Code, Codex CLI, Gemini CLI, Cursor, Wi...", "description_zh": "", "downloads": 446, "homepage": "https://clawhub.ai/jdrhyne/nutrient-document-processing-universal", "iconUrl": null, "installs": 19, "name": "Nutrient Document Processing (Universal Agent Skill)", "ownerName": "jdrhyne", "score": 88316.83168316832, "slug": "nutrient-document-processing-universal", "source": "clawhub", "stars": 0, "tags": ["agent-skills", "document-processing", "mcp", "nutrient", "ocr", "pdf", "redaction"], "updated_at": 1776750583986, "version": "1.1.2"}, {"category": "developer-tools", "created_at": 1772784303447, "description": "Track and reduce flaky tests with deterministic isolation. Use when handling development work that needs repeatable steps, quality gates, and practical outputs.", "description_zh": "", "downloads": 446, "homepage": "https://clawhub.ai/xammarie/jarvis-ci-flake-hunter-01", "iconUrl": null, "installs": 16, "name": "Jarvis Ci Flake Hunter 01", "ownerName": "xammarie", "score": 90466.53144016227, "slug": "jarvis-ci-flake-hunter-01", "source": "clawhub", "stars": 0, "tags": null, "updated_at": 1776748370264, "version": "1.0.0"}, {"category": "security-compliance", "created_at": 1772783363899, "description": "Comprehensive security audit with 100 iterations (~30-60 min). Use when user says 'security audit', 'ralph security', 'weekly security check', 'audit this pr...", "description_zh": "", "downloads": 446, "homepage": "https://clawhub.ai/dorukardahan/ralph-security", "iconUrl": null, "installs": 10, "name": "Ralph Security Audit", "ownerName": "dorukardahan", "score": 87622.78978388998, "slug": "ralph-security", "source": "clawhub", "stars": 0, "tags": null, "updated_at": 1776748370130, "version": "3.0.0"}, {"category": "security-compliance", "created_at": 1772785783742, "description": "Query equipment status, maintenance schedules, and service history for the farm fleet. Uses integration endpoints (no auth required).", "description_zh": "", "downloads": 446, "homepage": "https://clawhub.ai/brianppetty/farmos-equipment", "iconUrl": null, "installs": 16, "name": "Farmos Equipment", "ownerName": "brianppetty", "score": 94893.6170212766, "slug": "farmos-equipment", "source": "clawhub", "stars": 0, "tags": null, "updated_at": 1776748369872, "version": "1.0.0"}, {"category": "productivity", "created_at": 1772796083051, "description": "Start a Selenium‑controlled Chrome browser, open a URL, take a screenshot, and report progress. Supports headless mode and optional proxy.", "description_zh": "", "downloads": 446, "homepage": "https://clawhub.ai/andreybespalov89/selenium-browser", "iconUrl": null, "installs": 32, "name": "Selenium Browser", "ownerName": "andreybespalov89", "score": 94893.6170212766, "slug": "selenium-browser", "source": "clawhub", "stars": 0, "tags": null, "updated_at": 1776748369835, "version": "1.0.0"}, {"category": "communication-collaboration", "created_at": 1772789840188, "description": "Leverage external AI models (ChatGPT, Claude, Hugging Face, etc.) as tools via browser automation (Chrome Relay) and optional Hugging Face API. Use when you...", "description_zh": "", "downloads": 446, "homepage": "https://clawhub.ai/konscious0beast/external-ai-integration", "iconUrl": null, "installs": 15, "name": "External Ai Integration", "ownerName": "konscious0beast", "score": 87795.27559055119, "slug": "external-ai-integration", "source": "clawhub", "stars": 0, "tags": null, "updated_at": 1776748369627, "version": "1.0.0"}, {"category": "productivity", "created_at": 1772780712725, "description": "Manage your Bring! shopping list by adding, removing, completing items, or checking the current groceries via your Bring! account.", "description_zh": "", "downloads": 445, "homepage": "https://clawhub.ai/zahlmann/bring-shopping-list", "iconUrl": null, "installs": 0, "name": "Bring! Shopping Lists", "ownerName": "zahlmann", "score": 95472.44094488189, "slug": "bring-shopping-list", "source": "clawhub", "stars": 2, "tags": null, "updated_at": 1776748370644, "version": "1.0.0"}, {"category": "ai-intelligence", "created_at": 1772783886088, "description": "AI running coach that prevents injuries by monitoring your Strava training load daily. Detects dangerous mileage spikes, intensity imbalances, and recovery g...", "description_zh": "", "downloads": 445, "homepage": "https://clawhub.ai/hhq0421/strava-training-coach", "iconUrl": null, "installs": 21, "name": "Strava Training Coach", "ownerName": "hhq0421", "score": 6113.594530633711, "slug": "strava-training-coach", "source": "clawhub", "stars": 1, "tags": null, "updated_at": 1776761839840, "version": "1.0.3"}, {"category": "data-analysis", "created_at": 1772790129845, "description": "Benchmark your OpenClaw agent across 40 real-world tasks. Tests file creation, research, data analysis, multi-step workflows, memory, error handling, and too...", "description_zh": "", "downloads": 445, "homepage": "https://clawhub.ai/exe215/agentbench", "iconUrl": null, "installs": 22, "name": "AgentBench", "ownerName": "exe215", "score": 81578.94736842105, "slug": "agentbench", "source": "clawhub", "stars": 1, "tags": null, "updated_at": 1776759083284, "version": "1.0.0"}, {"category": "ai-intelligence", "created_at": 1772787852219, "description": "Strategically align marketing, sales, and customer success with unified data, processes, and goals to optimize revenue operations using metrics and actionabl...", "description_zh": "", "downloads": 445, "homepage": "https://clawhub.ai/1kalin/afrexai-revops-engine", "iconUrl": null, "installs": 19, "name": "RevOps Engine", "ownerName": "1kalin", "score": 79759.8627787307, "slug": "afrexai-revops-engine", "source": "clawhub", "stars": 1, "tags": ["operations", "revenue", "revops", "sales"], "updated_at": 1776759083252, "version": "1.0.0"}, {"category": "productivity", "created_at": 1773057290703, "description": "Organize, compress, and curate OpenClaw memory without polluting permanent memory. Use when the user wants to compress memory files, clean dated memory notes...", "description_zh": "", "downloads": 445, "homepage": "https://clawhub.ai/codeblackhole1024/memory-organizer", "iconUrl": null, "installs": 23, "name": "Memory Organizer", "ownerName": "codeblackhole1024", "score": 97689.0756302521, "slug": "memory-organizer", "source": "clawhub", "stars": 1, "tags": ["compression", "context", "memory", "openclaw", "optimization", "organization", "productivity"], "updated_at": 1776748370613, "version": "1.2.1"}, {"category": "security-compliance", "created_at": 1773415989469, "description": "Security review workflow for OpenClaw skills and other small code folders. Use when auditing a skill before publishing or installing it, checking for dangero...", "description_zh": "", "downloads": 445, "homepage": "https://clawhub.ai/shadowloong/security-scan", "iconUrl": null, "installs": 15, "name": "Security Scan", "ownerName": "shadowloong", "score": 16451.01663585952, "slug": "security-scan", "source": "clawhub", "stars": 0, "tags": null, "updated_at": 1776768971273, "version": "1.0.0"}, {"category": "security-compliance", "created_at": 1772792002771, "description": "Comprehensive SEO auditor that analyzes technical SEO, on-page optimization, content quality, and site architecture. Produces a scored report with prioritize...", "description_zh": "", "downloads": 445, "homepage": "https://clawhub.ai/ryudi84/sovereign-seo-audit", "iconUrl": null, "installs": 11, "name": "Sovereign Seo Audit", "ownerName": "ryudi84", "score": 17261.44297905353, "slug": "sovereign-seo-audit", "source": "clawhub", "stars": 0, "tags": null, "updated_at": 1776765550208, "version": "1.0.0"}, {"category": "security-compliance", "created_at": 1773215866651, "description": "The Universal Imaging & Optical Sovereignty Protocol. A high-fidelity standard for the generation, authentication, and preservation of light-based and synthe...", "description_zh": "", "downloads": 445, "homepage": "https://clawhub.ai/agistack/photo", "iconUrl": null, "installs": 31, "name": "Photo", "ownerName": "agistack", "score": 24330.235101148166, "slug": "photo", "source": "clawhub", "stars": 0, "tags": ["art", "image", "media", "photo", "provenance"], "updated_at": 1776764949763, "version": "1.0.0"}]}