{"page": 195, "total_pages": 522, "total": 26073, "skills": [{"category": "data-analysis", "created_at": 1772791449807, "description": "Monitors AI coding agents to track dependency choices, classify discovery methods, flag risks, and reveal biases and missed alternatives in your project.", "description_zh": "", "downloads": 445, "homepage": "https://clawhub.ai/davidgeorgehope/sightglass", "iconUrl": null, "installs": 28, "name": "Sightglass", "ownerName": "davidgeorgehope", "score": 32340.11627906977, "slug": "sightglass", "source": "clawhub", "stars": 0, "tags": null, "updated_at": 1776759083572, "version": "0.1.0"}, {"category": "ai-intelligence", "created_at": 1772785831348, "description": "Generates structured investor-ready board decks and reports including monthly KPIs, quarterly deep dives, annual reviews, and committee templates.", "description_zh": "", "downloads": 445, "homepage": "https://clawhub.ai/1kalin/afrexai-board-reporting", "iconUrl": null, "installs": 13, "name": "Board Reporting Framework", "ownerName": "1kalin", "score": 78070.17543859649, "slug": "afrexai-board-reporting", "source": "clawhub", "stars": 0, "tags": ["ai", "board", "business", "deck", "investor", "metrics", "reporting", "saas", "startup"], "updated_at": 1776759083258, "version": "1.1.0"}, {"category": "content-creation", "created_at": 1772792298183, "description": "Render markdown tables as PNG images. Use whenever you need to send a table in chat — render it as an image instead of raw markdown text.", "description_zh": "", "downloads": 445, "homepage": "https://clawhub.ai/kirorab/md-table-image", "iconUrl": null, "installs": 41, "name": "MD Table Image", "ownerName": "kirorab", "score": 32553.035844915874, "slug": "md-table-image", "source": "clawhub", "stars": 0, "tags": null, "updated_at": 1776759082463, "version": "1.0.0"}, {"category": "ai-intelligence", "created_at": 1772798329466, "description": "Remove AI writing patterns based on Wikipedia's \"Signs of AI writing\" research. 24 pattern detection and rewriting rules for making AI-generated text sound n...", "description_zh": "", "downloads": 445, "homepage": "https://clawhub.ai/lmanchu/irisgo-humanizer", "iconUrl": null, "installs": 93, "name": "Humanizer", "ownerName": "lmanchu", "score": 27101.096224116933, "slug": "irisgo-humanizer", "source": "clawhub", "stars": 0, "tags": ["ai-detection", "editing", "humanize", "writing"], "updated_at": 1776758782662, "version": "1.0.0"}, {"category": "content-creation", "created_at": 1773202986276, "description": "Generate videos from images using Image to Video (Wan2.1) API. Automatically generates 4-second videos from text descriptions and images. Powered by Dreamfac...", "description_zh": "", "downloads": 445, "homepage": "https://clawhub.ai/hy-1990/dream-image-to-video", "iconUrl": null, "installs": 39, "name": "Dream Image to Video", "ownerName": "hy-1990", "score": 26115.023474178404, "slug": "dream-image-to-video", "source": "clawhub", "stars": 0, "tags": null, "updated_at": 1776755888857, "version": "1.0.1"}, {"category": "productivity", "created_at": 1772786235609, "description": "Usar cuando el usuario pregunte sobre envíos, cómo enviar un pedido, tiempos de entrega, zonas de cobertura, seguimiento de paquete, código de seguimiento, m...", "description_zh": "", "downloads": 445, "homepage": "https://clawhub.ai/jalfargentina/envios", "iconUrl": null, "installs": 16, "name": "Envios", "ownerName": "jalfargentina", "score": 93096.23430962343, "slug": "envios", "source": "clawhub", "stars": 0, "tags": null, "updated_at": 1776748371308, "version": "1.0.0"}, {"category": "productivity", "created_at": 1772784321392, "description": "Text-to-speech conversion tool. Use when converting text to speech audio files (opus or mp3 format). Supports macOS native 'say' command and Google TTS (gTTS...", "description_zh": "", "downloads": 445, "homepage": "https://clawhub.ai/wangyendt/tts-2", "iconUrl": null, "installs": 19, "name": "Pywayne Tts", "ownerName": "wangyendt", "score": 93096.23430962343, "slug": "tts-2", "source": "clawhub", "stars": 0, "tags": null, "updated_at": 1776748371295, "version": "0.1.0"}, {"category": "security-compliance", "created_at": 1772792431317, "description": "A security auditor for agent skills. Scans skill directories for malicious patterns (credential theft, suspicious network calls, destructive commands) and pr...", "description_zh": "", "downloads": 445, "homepage": "https://clawhub.ai/balkanblbn/mayguard", "iconUrl": null, "installs": 13, "name": "MayGuard", "ownerName": "balkanblbn", "score": 93096.23430962343, "slug": "mayguard", "source": "clawhub", "stars": 0, "tags": null, "updated_at": 1776748371237, "version": "1.0.0"}, {"category": "productivity", "created_at": 1772802855939, "description": "Generate professional data reports (HTML/PDF-ready) with KPI summaries, charts, tables, executive insights, and recommendations from CSV, Excel, or JSON data...", "description_zh": "", "downloads": 445, "homepage": "https://clawhub.ai/plgonzalezrx8/report-generator-pedro", "iconUrl": null, "installs": 79, "name": "Report Generator", "ownerName": "plgonzalezrx8", "score": 90816.32653061225, "slug": "report-generator-pedro", "source": "clawhub", "stars": 0, "tags": null, "updated_at": 1776748370913, "version": "1.0.0"}, {"category": "ai-intelligence", "created_at": 1772797384040, "description": "Register and manage AI Lobster Agents in OpenClaw Arena — create agents, join matchmaking, check leaderboards, and view match results.", "description_zh": "", "downloads": 445, "homepage": "https://clawhub.ai/billychl1/openclawarena-arena", "iconUrl": null, "installs": 10, "name": "Openclawarena Arena", "ownerName": "billychl1", "score": 91563.78600823045, "slug": "openclawarena-arena", "source": "clawhub", "stars": 0, "tags": ["ai-agents", "autonomous-agents", "competitive-ai", "esports", "gaming", "lobster", "physics", "websocket"], "updated_at": 1776748370441, "version": "1.1.0"}, {"category": "data-analysis", "created_at": 1772805040161, "description": "AI-powered stock prediction and market analysis for global markets", "description_zh": "", "downloads": 445, "homepage": "https://clawhub.ai/filwu8/gprophet-api", "iconUrl": null, "installs": 10, "name": "Gprophet Api", "ownerName": "filwu8", "score": 92708.33333333334, "slug": "gprophet-api", "source": "clawhub", "stars": 0, "tags": null, "updated_at": 1776748370223, "version": "1.0.6"}, {"category": "developer-tools", "created_at": 1772789632873, "description": "Collect weekly reports from Lark Reports (oa.larksuite.com), summarize into Lark Docs, and notify. Use when: (1) collecting weekly reports from specific team...", "description_zh": "", "downloads": 445, "homepage": "https://clawhub.ai/pengxiao-wang/lark-report-collector", "iconUrl": null, "installs": 8, "name": "Lark Report Collector", "ownerName": "pengxiao-wang", "score": 94279.66101694916, "slug": "lark-report-collector", "source": "clawhub", "stars": 0, "tags": null, "updated_at": 1776748369765, "version": "1.0.0"}, {"category": "content-creation", "created_at": 1772787155685, "description": "Content hashing for deduplication with MD5, SHA256, and perceptual hashing", "description_zh": "", "downloads": 445, "homepage": "https://clawhub.ai/raghulpasupathi/hash-toolkit", "iconUrl": null, "installs": 18, "name": "Hash Toolkit", "ownerName": "raghulpasupathi", "score": 93291.40461215933, "slug": "hash-toolkit", "source": "clawhub", "stars": 0, "tags": null, "updated_at": 1776748369557, "version": "1.0.0"}, {"category": "productivity", "created_at": 1772784010998, "description": "Think proactively during idle time with sandboxed reflections, adaptive rhythms, and feedback-driven focus areas.", "description_zh": "", "downloads": 444, "homepage": "https://clawhub.ai/ivangdavila/meditate", "iconUrl": null, "installs": 14, "name": "Meditate", "ownerName": "ivangdavila", "score": 100000, "slug": "meditate", "source": "clawhub", "stars": 2, "tags": null, "updated_at": 1776748369922, "version": "1.0.1"}, {"category": "developer-tools", "created_at": 1772789356918, "description": "Play Command & Conquer Red Alert RTS — build bases, train armies, and defeat AI opponents using 48 MCP tools.", "description_zh": "", "downloads": 444, "homepage": "https://clawhub.ai/yxc20089/openra-rl", "iconUrl": null, "installs": 15, "name": "OpenRA-RL", "ownerName": "yxc20089", "score": 97478.99159663865, "slug": "openra-rl", "source": "clawhub", "stars": 1, "tags": null, "updated_at": 1776748370606, "version": "1.1.0"}, {"category": "communication-collaboration", "created_at": 1772790355846, "description": "Generate Apple Hide My Email addresses on macOS terminal and copy them to clipboard using the hme CLI tool.", "description_zh": "", "downloads": 444, "homepage": "https://clawhub.ai/manikal/hide-my-email", "iconUrl": null, "installs": 12, "name": "Hide My Email", "ownerName": "manikal", "score": 14586.070959264127, "slug": "hide-my-email", "source": "clawhub", "stars": 0, "tags": null, "updated_at": 1776764650050, "version": "1.0.1"}, {"category": "ai-intelligence", "created_at": 1773957145793, "description": "AI builders digest — monitors top AI builders on X and YouTube podcasts, remixes their content into digestible summaries. Use when the user wants AI industry...", "description_zh": "", "downloads": 444, "homepage": "https://clawhub.ai/zarazhangrui/follow-builders", "iconUrl": null, "installs": 110, "name": "Follow Builders", "ownerName": "zarazhangrui", "score": 9302.32558139535, "slug": "follow-builders", "source": "clawhub", "stars": 0, "tags": null, "updated_at": 1776763450437, "version": "0.1.0"}, {"category": "data-analysis", "created_at": 1772786154429, "description": "Expert decision architect aiding better decisions with tailored classification, bias reduction, and actionable frameworks tied to your specific context.", "description_zh": "", "downloads": 444, "homepage": "https://clawhub.ai/1kalin/afrexai-decision-engine", "iconUrl": null, "installs": 8, "name": "Decision Engine", "ownerName": "1kalin", "score": 32220.609579100146, "slug": "afrexai-decision-engine", "source": "clawhub", "stars": 0, "tags": ["decision-making", "frameworks", "leadership", "strategy"], "updated_at": 1776759083317, "version": "1.0.0"}, {"category": "security-compliance", "created_at": 1772785113965, "description": "Analyze SKILL.md files for security risks, quality issues, and best-practice violations to ensure safe, trustworthy OpenClaw skill installation.", "description_zh": "", "downloads": 444, "homepage": "https://clawhub.ai/gpunter/claw1-skill-auditor", "iconUrl": null, "installs": 8, "name": "CLAW-1 Skill Auditor", "ownerName": "gpunter", "score": 81170.01828153565, "slug": "claw1-skill-auditor", "source": "clawhub", "stars": 0, "tags": ["analysis", "audit", "clawhavoc", "safety", "security", "trust"], "updated_at": 1776759083168, "version": "1.0.0"}, {"category": "developer-tools", "created_at": 1772786831557, "description": "Search AI-powered job listings matched to your skills across 22,700+ company boards and 20+ ATS platforms with relevance ranking and filtering.", "description_zh": "", "downloads": 444, "homepage": "https://clawhub.ai/farseek2020/farseek", "iconUrl": null, "installs": 6, "name": "Farseek", "ownerName": "farseek2020", "score": 32575.201760821714, "slug": "farseek", "source": "clawhub", "stars": 0, "tags": ["api", "jobs", "search"], "updated_at": 1776759083115, "version": "1.0.0"}, {"category": "developer-tools", "created_at": 1772791457224, "description": "Neuroscience-based multi-layer memory system for OpenClaw agents that improves context efficiency using semantic schemas, vector stores, and sleep cycle cons...", "description_zh": "", "downloads": 444, "homepage": "https://clawhub.ai/harrey401/brain-cms", "iconUrl": null, "installs": 16, "name": "Brain CMS", "ownerName": "harrey401", "score": 30705.39419087137, "slug": "brain-cms", "source": "clawhub", "stars": 0, "tags": null, "updated_at": 1776759082981, "version": "1.0.0"}, {"category": "productivity", "created_at": 1772790570603, "description": "Place live bets on Polymarket CLOB with EIP-712 signing on Polygon. Handles USDC.e approval, order submission, and position tracking. Use for Polymarket auto...", "description_zh": "", "downloads": 444, "homepage": "https://clawhub.ai/jamierossouw/polymarket-live-bet", "iconUrl": null, "installs": 27, "name": "Polymarket Live Bet", "ownerName": "jamierossouw", "score": 28461.53846153846, "slug": "polymarket-live-bet", "source": "clawhub", "stars": 0, "tags": null, "updated_at": 1776757582853, "version": "1.0.0"}, {"category": "security-compliance", "created_at": 1773883503246, "description": "Install, authenticate, and use Claude Code CLI as a native coding tool for any OpenClaw agent system.", "description_zh": "", "downloads": 444, "homepage": "https://clawhub.ai/asif2bd/claude-code-cli-openclaw", "iconUrl": null, "installs": 22, "name": "Claude Code CLI for OpenClaw", "ownerName": "asif2bd", "score": 100000, "slug": "claude-code-cli-openclaw", "source": "clawhub", "stars": 0, "tags": ["agent-tools", "anthropic", "claude-code", "cli", "coding", "developer-tools", "openclaw"], "updated_at": 1776751969669, "version": "1.0.2"}, {"category": "productivity", "created_at": 1772786971623, "description": "Use when you need to manage Multilogin X browser profiles — launch quick disposable profiles, list/start/stop saved profiles, or check launcher status using...", "description_zh": "", "downloads": 444, "homepage": "https://clawhub.ai/multilogincom/multiloginx", "iconUrl": null, "installs": 14, "name": "Multilogin X", "ownerName": "multilogincom", "score": 90427.6985743381, "slug": "multiloginx", "source": "clawhub", "stars": 0, "tags": ["automation", "browser", "headless"], "updated_at": 1776748371217, "version": "1.0.0"}, {"category": "productivity", "created_at": 1772787395348, "description": "Install the full Solo Factory toolkit — 23 startup skills + solograph MCP server for code intelligence, KB search, and web search. Use when user says \"instal...", "description_zh": "", "downloads": 444, "homepage": "https://clawhub.ai/fortunto2/solo-factory", "iconUrl": null, "installs": 14, "name": "Factory", "ownerName": "fortunto2", "score": 88800, "slug": "solo-factory", "source": "clawhub", "stars": 0, "tags": null, "updated_at": 1776748371095, "version": "1.1.1"}, {"category": "ai-intelligence", "created_at": 1772798466491, "description": "AI CEO automation system for fully automated company operations", "description_zh": "", "downloads": 444, "homepage": "https://clawhub.ai/sendwealth/ai-ceo-automation", "iconUrl": null, "installs": 24, "name": "AI CEO Automation", "ownerName": "sendwealth", "score": 90060.85192697769, "slug": "ai-ceo-automation", "source": "clawhub", "stars": 0, "tags": null, "updated_at": 1776748370816, "version": "1.0.0"}, {"category": "data-analysis", "created_at": 1772786762612, "description": "Design and verify API contracts for backward compatibility. Use when handling development work that needs repeatable steps, quality gates, and practical outp...", "description_zh": "", "downloads": 444, "homepage": "https://clawhub.ai/xammarie/jarvis-api-contract-guard-01", "iconUrl": null, "installs": 15, "name": "Jarvis Api Contract Guard 01", "ownerName": "xammarie", "score": 93277.31092436975, "slug": "jarvis-api-contract-guard-01", "source": "clawhub", "stars": 0, "tags": null, "updated_at": 1776748370572, "version": "1.0.0"}, {"category": "productivity", "created_at": 1772787245090, "description": "Automatically upgrade Telnyx account from freemium to professional tier", "description_zh": "", "downloads": 444, "homepage": "https://clawhub.ai/teamtelnyx/telnyx-freemium-upgrade", "iconUrl": null, "installs": 11, "name": "Telnyx Freemium Upgrade", "ownerName": "teamtelnyx", "score": 87229.86247544205, "slug": "telnyx-freemium-upgrade", "source": "clawhub", "stars": 0, "tags": null, "updated_at": 1776748370128, "version": "1.0.0"}, {"category": "productivity", "created_at": 1772785626081, "description": "Navigate Hong Kong as visitor, resident, tech worker, student, or entrepreneur with neighborhoods, MTR transport, costs, visas, and local insights.", "description_zh": "", "downloads": 444, "homepage": "https://clawhub.ai/ivangdavila/hong-kong", "iconUrl": null, "installs": 9, "name": "Hong Kong", "ownerName": "ivangdavila", "score": 90060.85192697769, "slug": "hong-kong", "source": "clawhub", "stars": 0, "tags": null, "updated_at": 1776748370003, "version": "1.0.1"}, {"category": "content-creation", "created_at": 1772786437509, "description": "Default video conferences via Meetling. Instant calls always use /m/ rooms + share payload for Claw default sending. Scheduled calls return link + email invi...", "description_zh": "", "downloads": 444, "homepage": "https://clawhub.ai/bavxhack/create-videoconference", "iconUrl": null, "installs": 30, "name": "Create secure videoconference", "ownerName": "bavxhack", "score": 94067.79661016949, "slug": "create-videoconference", "source": "clawhub", "stars": 0, "tags": null, "updated_at": 1776748369803, "version": "1.0.1"}, {"category": "data-analysis", "created_at": 1773069136186, "description": "Debug Linux kernel crashes using the crash utility. Use when users mention kernel crash, kernel panic, vmcore analysis, kernel dump debugging, crash utility,...", "description_zh": "", "downloads": 444, "homepage": "https://clawhub.ai/crazyss/linux-kernel-crash-debug", "iconUrl": null, "installs": 15, "name": "Linux Kernel Crash Debug", "ownerName": "crazyss", "score": 87401.5748031496, "slug": "linux-kernel-crash-debug", "source": "clawhub", "stars": 0, "tags": null, "updated_at": 1776748369618, "version": "1.0.2"}, {"category": "content-creation", "created_at": 1773958790568, "description": "TopMediai text-to-speech skill. Supports key entitlement info, voices listing (official + cloned), and text-to-speech generation.", "description_zh": "", "downloads": 443, "homepage": "https://clawhub.ai/topmediai/tts-topmediai", "iconUrl": null, "installs": 336, "name": "TopMediai TTS", "ownerName": "topmediai", "score": 13548.387096774195, "slug": "tts-topmediai", "source": "clawhub", "stars": 2, "tags": null, "updated_at": 1776761090390, "version": "1.0.0"}, {"category": "developer-tools", "created_at": 1772786149186, "description": "Efficient Lifelong Memory for LLM Agents - semantic compression, cross-session memory, and intent-aware retrieval", "description_zh": "", "downloads": 443, "homepage": "https://clawhub.ai/nantes/simplemem", "iconUrl": null, "installs": 9, "name": "Simplemem", "ownerName": "nantes", "score": 95078.74015748031, "slug": "simplemem", "source": "clawhub", "stars": 2, "tags": null, "updated_at": 1776748370655, "version": "1.0.1"}, {"category": "productivity", "created_at": 1772796346345, "description": "Facebook Page manager: post, schedule, reply, get insights & more. Requires: powershell/pwsh. Reads ~/.config/fb-page/credentials.json (FB_PAGE_TOKEN, FB_PAG...", "description_zh": "", "downloads": 443, "homepage": "https://clawhub.ai/seph1709/facebook-page", "iconUrl": null, "installs": 46, "name": "Facebook Page", "ownerName": "seph1709", "score": 78209.45945945947, "slug": "facebook-page", "source": "clawhub", "stars": 1, "tags": null, "updated_at": 1776750305182, "version": "1.0.16"}, {"category": "developer-tools", "created_at": 1773090834446, "description": "Use when building C# applications with .NET 8+, ASP.NET Core APIs, or Blazor web apps. Invoke for Entity Framework Core, minimal APIs, async patterns, CQRS w...", "description_zh": "", "downloads": 443, "homepage": "https://clawhub.ai/lhwa8685/csharp-developer", "iconUrl": null, "installs": 98, "name": "Csharp Developer", "ownerName": "lhwa8685", "score": 1859.469442578912, "slug": "csharp-developer", "source": "clawhub", "stars": 0, "tags": null, "updated_at": 1776770650275, "version": "0.1.0"}, {"category": "data-analysis", "created_at": 1772789076905, "description": "Retrieve and analyze Jira worklog metrics by user, issue, or date ranges through Jira Cloud REST API calls.", "description_zh": "", "downloads": 443, "homepage": "https://clawhub.ai/weihezhai/jirametric", "iconUrl": null, "installs": 13, "name": "Jira Metric", "ownerName": "weihezhai", "score": 32597.49816041207, "slug": "jirametric", "source": "clawhub", "stars": 0, "tags": null, "updated_at": 1776759083341, "version": "1.0.0"}, {"category": "ai-intelligence", "created_at": 1772789651092, "description": "Automatically creates a recursive neural memory network, stores it on IPFS, and anchors its Merkle root on Base chain as an ERC-8004 identity NFT.", "description_zh": "", "downloads": 443, "homepage": "https://clawhub.ai/weidadong2359/rmn-soul", "iconUrl": null, "installs": 18, "name": "RMN Soul", "ownerName": "weidadong2359", "score": 32148.04063860668, "slug": "rmn-soul", "source": "clawhub", "stars": 0, "tags": null, "updated_at": 1776759083290, "version": "1.0.1"}, {"category": "communication-collaboration", "created_at": 1772790372369, "description": "Copy large/long files to OneDrive for sharing when the user is on Telegram or WhatsApp and wants to view a full document or long file. Use to place files int...", "description_zh": "", "downloads": 443, "homepage": "https://clawhub.ai/moodykong/onedrive-integration", "iconUrl": null, "installs": 20, "name": "OneDrive Integration", "ownerName": "moodykong", "score": 75986.27787307033, "slug": "onedrive-integration", "source": "clawhub", "stars": 0, "tags": null, "updated_at": 1776759083207, "version": "0.1.0"}, {"category": "ai-intelligence", "created_at": 1772790254485, "description": "Access and search a structured open source knowledge base of book summaries optimized for AI agents via the MCP protocol.", "description_zh": "", "downloads": 443, "homepage": "https://clawhub.ai/danpalmieri/books-for-agents", "iconUrl": null, "installs": 27, "name": "Books For Agents", "ownerName": "danpalmieri", "score": 32335.766423357665, "slug": "books-for-agents", "source": "clawhub", "stars": 0, "tags": null, "updated_at": 1776759083047, "version": "0.1.0"}, {"category": "developer-tools", "created_at": 1772787971241, "description": "Execute token swaps using the 0x API with support for price quotes, gasless meta-transactions, and on-chain trade history retrieval.", "description_zh": "", "downloads": 443, "homepage": "https://clawhub.ai/aviclaw/zeroex-swap", "iconUrl": null, "installs": 7, "name": "ZeroEx Swap", "ownerName": "aviclaw", "score": 32312.180889861414, "slug": "zeroex-swap", "source": "clawhub", "stars": 0, "tags": ["base", "defi", "ethereum", "swap"], "updated_at": 1776759082688, "version": "1.0.1"}, {"category": "data-analysis", "created_at": 1772787898123, "description": "Manage and grow your agent's treasury across Base, Solana, and Ethereum using Jubilee Protocol vaults for sustainable yield and principled spending.", "description_zh": "", "downloads": 443, "homepage": "https://clawhub.ai/prayingperceptions/openclaw-skill-jubilee", "iconUrl": null, "installs": 9, "name": "Jubilee Skill, By Jubilee Labs", "ownerName": "prayingperceptions", "score": 75468.48381601363, "slug": "openclaw-skill-jubilee", "source": "clawhub", "stars": 0, "tags": null, "updated_at": 1776759082417, "version": "0.1.0"}, {"category": "data-analysis", "created_at": 1773073509708, "description": "Comprehensive guide for FinLab quantitative trading package. Use when working with trading strategies, backtesting, stock data, FinLabDataFrame, factor analy...", "description_zh": "", "downloads": 443, "homepage": "https://clawhub.ai/koreal6803/finlab", "iconUrl": null, "installs": 77, "name": "Finlab", "ownerName": "koreal6803", "score": 82189.23933209648, "slug": "finlab", "source": "clawhub", "stars": 0, "tags": null, "updated_at": 1776752869693, "version": "0.1.1"}, {"category": "content-creation", "created_at": 1772792142745, "description": "Detect and remove AI fingerprints from AI-generated images. Strip metadata, add film grain, recompress, and bypass AI image detectors. Works with Midjourney,...", "description_zh": "", "downloads": 443, "homepage": "https://clawhub.ai/swaylq/humanize-image", "iconUrl": null, "installs": 47, "name": "Humanize Image", "ownerName": "swaylq", "score": 77447.55244755244, "slug": "humanize-image", "source": "clawhub", "stars": 0, "tags": null, "updated_at": 1776752684263, "version": "1.0.0"}, {"category": "ai-intelligence", "created_at": 1772785851358, "description": "Persona skill that rebrands the assistant as \"Diddy\" for a theatrical hip-hop party-host vibe, with themed sub-agent aliases, slang-forward voice, and OpenCl...", "description_zh": "", "downloads": 443, "homepage": "https://clawhub.ai/sal-jim/diddy-party", "iconUrl": null, "installs": 19, "name": "Diddy Party", "ownerName": "sal-jim", "score": 90224.03258655804, "slug": "diddy-party", "source": "clawhub", "stars": 0, "tags": null, "updated_at": 1776748371213, "version": "1.0.0"}, {"category": "developer-tools", "created_at": 1772787306998, "description": "Manage a Talkspresso business (services, appointments, products, clients, earnings, calendar) using the Talkspresso REST API. Use when the user wants to chec...", "description_zh": "", "downloads": 443, "homepage": "https://clawhub.ai/baron-talkspresso/talkspresso", "iconUrl": null, "installs": 10, "name": "Talkspresso", "ownerName": "baron-talkspresso", "score": 90224.03258655804, "slug": "talkspresso", "source": "clawhub", "stars": 0, "tags": null, "updated_at": 1776748371207, "version": "1.0.0"}, {"category": "ai-intelligence", "created_at": 1772786695088, "description": "Discover other AI agents and coordination hubs across the internet via the Open Agent Discovery Protocol (OADP). Passively scans HTTP headers, .well-known en...", "description_zh": "", "downloads": 443, "homepage": "https://clawhub.ai/imaflytok/oadp-discovery", "iconUrl": null, "installs": 30, "name": "OADP Agent Discovery", "ownerName": "imaflytok", "score": 90224.03258655804, "slug": "oadp-discovery", "source": "clawhub", "stars": 0, "tags": null, "updated_at": 1776748371206, "version": "1.0.0"}, {"category": "security-compliance", "created_at": 1773065521466, "description": "Login and publish Douyin (China mainland) videos from local files with OAuth, local speech-to-text, and generated caption drafts. Use when users ask to autho...", "description_zh": "", "downloads": 443, "homepage": "https://clawhub.ai/yjli-new/douyin-upload-skill", "iconUrl": null, "installs": 141, "name": "Douyin Upload Skill", "ownerName": "yjli-new", "score": 88600, "slug": "douyin-upload-skill", "source": "clawhub", "stars": 0, "tags": null, "updated_at": 1776748371053, "version": "0.1.0"}, {"category": "content-creation", "created_at": 1772790737671, "description": "TikTok for AI agents. Auto-join, create your intro video, and start posting — all in one command.", "description_zh": "", "downloads": 443, "homepage": "https://clawhub.ai/tonydream1/agentok-skill", "iconUrl": null, "installs": 38, "name": "Agentok Skill", "ownerName": "tonydream1", "score": 87204.72440944881, "slug": "agentok-skill", "source": "clawhub", "stars": 0, "tags": null, "updated_at": 1776748370679, "version": "2.2.0"}, {"category": "ai-intelligence", "created_at": 1772789647358, "description": "OpenClaw plugin for personal memory: auto-capture with guardrails + local semantic-ish search with safe redaction.", "description_zh": "", "downloads": 443, "homepage": "https://clawhub.ai/homeofe/openclaw-memory-brain", "iconUrl": null, "installs": 21, "name": "OpenClaw Memory (Brain)", "ownerName": "homeofe", "score": 87204.72440944881, "slug": "openclaw-memory-brain", "source": "clawhub", "stars": 0, "tags": null, "updated_at": 1776748370672, "version": "0.3.1"}, {"category": "data-analysis", "created_at": 1772782285511, "description": "Analyze GitHub user contribution quality. Evaluates owned repos, external contributions, output quality, and social influence. Triggers on \"github cred\", \"an...", "description_zh": "", "downloads": 443, "homepage": "https://clawhub.ai/zerone0x/github-cred", "iconUrl": null, "installs": 23, "name": "GitHub Cred", "ownerName": "zerone0x", "score": 91152.2633744856, "slug": "github-cred", "source": "clawhub", "stars": 0, "tags": null, "updated_at": 1776748370510, "version": "1.0.0"}]}