{"page": 196, "total_pages": 522, "total": 26073, "skills": [{"category": "productivity", "created_at": 1772785124553, "description": "Erebos namespace for Netsnek e.U. dark theme and theming engine. Generates accessible dark mode palettes, manages theme tokens, and provides runtime theme sw...", "description_zh": "", "downloads": 443, "homepage": "https://clawhub.ai/kleberbaum/erebos", "iconUrl": null, "installs": 13, "name": "erebos", "ownerName": "kleberbaum", "score": 94255.31914893616, "slug": "erebos", "source": "clawhub", "stars": 0, "tags": null, "updated_at": 1776748369815, "version": "0.1.0"}, {"category": "developer-tools", "created_at": 1772786463416, "description": "Use Nextbrowser cloud API to spin up cloud browsers for Openclaw to run autonomous browser tasks. Primary use is creating browser sessions with profiles (per...", "description_zh": "", "downloads": 443, "homepage": "https://clawhub.ai/highxshell/next-browser-1", "iconUrl": null, "installs": 8, "name": "Nextbrowser1", "ownerName": "highxshell", "score": 90224.03258655804, "slug": "next-browser-1", "source": "clawhub", "stars": 0, "tags": null, "updated_at": 1776748369677, "version": "1.0.0"}, {"category": "productivity", "created_at": 1773056856175, "description": "Auto context management with seamless session switching. Monitors usage, triggers at 85% threshold, automatically creates new session with loaded memory. Zer...", "description_zh": "", "downloads": 443, "homepage": "https://clawhub.ai/zhaog100/miliger-context-manager", "iconUrl": null, "installs": 19, "name": "Miliger Context Manager", "ownerName": "zhaog100", "score": 92872.11740041929, "slug": "miliger-context-manager", "source": "clawhub", "stars": 0, "tags": null, "updated_at": 1776748369531, "version": "7.0.1"}, {"category": "data-analysis", "created_at": 1772789669505, "description": "Automate Polymarket bot operations including fetching market data, placing trades, and implementing strategies like arbitrage. Use when users need to build o...", "description_zh": "", "downloads": 442, "homepage": "https://clawhub.ai/deliverydriver/polymarket-bot", "iconUrl": null, "installs": 21, "name": "Polymarket Bot Skill", "ownerName": "deliverydriver", "score": 29498.16401468788, "slug": "polymarket-bot", "source": "clawhub", "stars": 2, "tags": null, "updated_at": 1776756983023, "version": "1.0.0"}, {"category": "developer-tools", "created_at": 1772794565051, "description": "Safely run local `gpu` commands via a guarded wrapper (`runner.sh`) with preflight checks and budget/time caps.", "description_zh": "", "downloads": 442, "homepage": "https://clawhub.ai/angusbezzina/gpu-cli", "iconUrl": null, "installs": 10, "name": "GPU CLI: Remote GPU Compute for ML Training and Inference", "ownerName": "angusbezzina", "score": 94285.71428571429, "slug": "gpu-cli", "source": "clawhub", "stars": 1, "tags": null, "updated_at": 1776748370990, "version": "1.2.0"}, {"category": "ai-intelligence", "created_at": 1773073775854, "description": "Your personal health data hub for AI agents. Query genomic insights, upload medical documents, record daily health metrics, explore genomic-lab cross-referen...", "description_zh": "", "downloads": 442, "homepage": "https://clawhub.ai/gangchen/gene2ai-openclaw-skill", "iconUrl": null, "installs": 19, "name": "Gene2ai", "ownerName": "gangchen", "score": 90944.88188976378, "slug": "gene2ai-openclaw-skill", "source": "clawhub", "stars": 1, "tags": null, "updated_at": 1776748370674, "version": "0.1.5"}, {"category": "developer-tools", "created_at": 1772788269902, "description": "NestJS best practices and architecture patterns for building production-ready applications. This skill should be used when writing, reviewing, or refactoring...", "description_zh": "", "downloads": 442, "homepage": "https://clawhub.ai/tuanvidev/agent-nestjs-skills", "iconUrl": null, "installs": 12, "name": "Nestjs Best Practices", "ownerName": "tuanvidev", "score": 97058.82352941176, "slug": "agent-nestjs-skills", "source": "clawhub", "stars": 1, "tags": null, "updated_at": 1776748370608, "version": "0.1.0"}, {"category": "productivity", "created_at": 1772787951783, "description": "Next.js 16 Cache Components - PPR, use cache directive, cacheLife, cacheTag, updateTag", "description_zh": "", "downloads": 442, "homepage": "https://clawhub.ai/tuanvidev/next-cache-components", "iconUrl": null, "installs": 25, "name": "Next Cache Components", "ownerName": "tuanvidev", "score": 5527.072652244592, "slug": "next-cache-components", "source": "clawhub", "stars": 0, "tags": null, "updated_at": 1776761390317, "version": "0.1.0"}, {"category": "developer-tools", "created_at": 1772792203797, "description": "Add and remove albums from a Discogs wantlist or collection by artist and album name, master ID, or release ID. Search marketplace pricing for vinyl, CD, and...", "description_zh": "", "downloads": 442, "homepage": "https://clawhub.ai/khaney64/discogs-sync", "iconUrl": null, "installs": 4, "name": "Discogs Sync", "ownerName": "khaney64", "score": 32262.773722627735, "slug": "discogs-sync", "source": "clawhub", "stars": 0, "tags": null, "updated_at": 1776759083195, "version": "0.1.10"}, {"category": "productivity", "created_at": 1773056969329, "description": "A fully local password management skill for OpenClaw with AES-256-GCM encryption, password generation, and sensitive info detection.", "description_zh": "", "downloads": 442, "homepage": "https://clawhub.ai/jixsonwang/password-manager", "iconUrl": null, "installs": 25, "name": "Password Manager", "ownerName": "jixsonwang", "score": 32428.46661775495, "slug": "password-manager", "source": "clawhub", "stars": 0, "tags": null, "updated_at": 1776759083116, "version": "1.0.4"}, {"category": "content-creation", "created_at": 1772790020941, "description": "OpenClaw virtual companion skill. Use it to bootstrap runtime files (SOUL and base image), guide user personalization, learn and store style prompts from upl...", "description_zh": "", "downloads": 442, "homepage": "https://clawhub.ai/laogiant/ellya", "iconUrl": null, "installs": 25, "name": "Ellya--Your Virtual Companion", "ownerName": "laogiant", "score": 30567.081604426006, "slug": "ellya", "source": "clawhub", "stars": 0, "tags": null, "updated_at": 1776759082978, "version": "1.0.1"}, {"category": "developer-tools", "created_at": 1772784762167, "description": "Fetch and report Peloton cycling workout statistics. Use when the user wants to see their Peloton workout data, weekly cycling stats, ride history, or perfor...", "description_zh": "", "downloads": 442, "homepage": "https://clawhub.ai/niemesrw/peloton-stats", "iconUrl": null, "installs": 12, "name": "Peloton Stats", "ownerName": "niemesrw", "score": 100000, "slug": "peloton-stats", "source": "clawhub", "stars": 0, "tags": null, "updated_at": 1776748670865, "version": "1.1.1"}, {"category": "developer-tools", "created_at": 1772785640339, "description": "Creates and manages invoices as JSON files on GitHub with sequential numbering, preview, and upload.", "description_zh": "", "downloads": 442, "homepage": "https://clawhub.ai/kleberbaum/netsnek-invoice", "iconUrl": null, "installs": 2, "name": "Invoice", "ownerName": "kleberbaum", "score": 90388.54805725972, "slug": "netsnek-invoice", "source": "clawhub", "stars": 0, "tags": null, "updated_at": 1776748371370, "version": "1.1.0"}, {"category": "ai-intelligence", "created_at": 1772787043621, "description": "Cost-optimizing model router for OpenClaw. Automatically routes each request to the cheapest capable Claude model (Haiku/Sonnet/Opus) using weighted scoring....", "description_zh": "", "downloads": 442, "homepage": "https://clawhub.ai/neuralshift1/iblai-openclaw-router", "iconUrl": null, "installs": 18, "name": "Iblai Openclaw Router", "ownerName": "neuralshift1", "score": 90388.54805725972, "slug": "iblai-openclaw-router", "source": "clawhub", "stars": 0, "tags": null, "updated_at": 1776748371313, "version": "1.0.0"}, {"category": "productivity", "created_at": 1772786447671, "description": "Query and manage GPS travel data from Geomanic — your privacy-first GPS tracking platform.", "description_zh": "", "downloads": 442, "homepage": "https://clawhub.ai/weltspion/geomanic", "iconUrl": null, "installs": 20, "name": "Geomanic", "ownerName": "weltspion", "score": 88400, "slug": "geomanic", "source": "clawhub", "stars": 0, "tags": ["gps", "statistics", "tracking", "travel", "waypoints"], "updated_at": 1776748371018, "version": "2.0.2"}, {"category": "productivity", "created_at": 1772792247724, "description": "Use when accessing memory, recording information, searching prior context, or managing subjects.", "description_zh": "", "downloads": 442, "homepage": "https://clawhub.ai/maxpetretta/reclaw", "iconUrl": null, "installs": 10, "name": "Reclaw", "ownerName": "maxpetretta", "score": 90204.08163265306, "slug": "reclaw", "source": "clawhub", "stars": 0, "tags": null, "updated_at": 1776748370941, "version": "2026.3.11-3"}, {"category": "content-creation", "created_at": 1772786897086, "description": "Wrapper skill for OpenClaw web_fetch results. Use when you need MECE post-processing on fetched pages: policy decision from Content-Signal, privacy redaction...", "description_zh": "", "downloads": 442, "homepage": "https://clawhub.ai/johnortegahyc/markdown-browser-skills-openclaw", "iconUrl": null, "installs": 38, "name": "Markdown Browser", "ownerName": "johnortegahyc", "score": 89655.1724137931, "slug": "markdown-browser-skills-openclaw", "source": "clawhub", "stars": 0, "tags": null, "updated_at": 1776748370873, "version": "0.1.0"}, {"category": "developer-tools", "created_at": 1772784487152, "description": "Find missing tests by failure mode and business impact. Use when handling development work that needs repeatable steps, quality gates, and practical outputs.", "description_zh": "", "downloads": 442, "homepage": "https://clawhub.ai/xammarie/jarvis-test-gap-finder-01", "iconUrl": null, "installs": 12, "name": "Jarvis Test Gap Finder 01", "ownerName": "xammarie", "score": 86836.93516699411, "slug": "jarvis-test-gap-finder-01", "source": "clawhub", "stars": 0, "tags": null, "updated_at": 1776748370149, "version": "1.0.0"}, {"category": "developer-tools", "created_at": 1772785475925, "description": "Read temperature and humidity from DHT11 sensor. Supports custom GPIO pins via CLI argument or environment variable.", "description_zh": "", "downloads": 441, "homepage": "https://clawhub.ai/noahseeger/dht11-temp", "iconUrl": null, "installs": 5, "name": "Dht11 Temp", "ownerName": "noahseeger", "score": 98364.0081799591, "slug": "dht11-temp", "source": "clawhub", "stars": 2, "tags": null, "updated_at": 1776748371363, "version": "1.0.0"}, {"category": "data-analysis", "created_at": 1772783403183, "description": "Interact with the Noya AI agent for crypto trading, prediction markets, token analysis, and DCA strategies via curl. Use when the user wants to trade tokens,...", "description_zh": "", "downloads": 441, "homepage": "https://clawhub.ai/noyadev00-gmailcom/noya-agent-skill", "iconUrl": null, "installs": 7, "name": "Noya Agent Skill", "ownerName": "noyadev00-gmailcom", "score": 98163.26530612246, "slug": "noya-agent-skill", "source": "clawhub", "stars": 2, "tags": null, "updated_at": 1776748370977, "version": "1.0.6"}, {"category": "data-analysis", "created_at": 1772787187201, "description": "Read and analyze market structure for any trading instrument like a professional trader. Use when the user shares a chart, price data, or asks for a market s...", "description_zh": "", "downloads": 441, "homepage": "https://clawhub.ai/dromlakhani/market-structure", "iconUrl": null, "installs": 16, "name": "market-structure", "ownerName": "dromlakhani", "score": 94685.03937007874, "slug": "market-structure", "source": "clawhub", "stars": 2, "tags": null, "updated_at": 1776748369586, "version": "1.0.0"}, {"category": "ai-intelligence", "created_at": 1772784102747, "description": "Register with Clawnads to get a Privy wallet on Monad, trade tokens, and collaborate with other agents. Use when asked to check wallet, swap tokens, send tra...", "description_zh": "", "downloads": 441, "homepage": "https://clawhub.ai/4ormund/clawnads", "iconUrl": null, "installs": 17, "name": "Clawnads", "ownerName": "4ormund", "score": 94685.03937007874, "slug": "clawnads", "source": "clawhub", "stars": 2, "tags": null, "updated_at": 1776748369578, "version": "1.0.1"}, {"category": "developer-tools", "created_at": 1772788756372, "description": "Read Redmine issues from any Redmine server via REST API with configurable URL and credentials. Use when you need to fetch a single issue, list/filter issues...", "description_zh": "", "downloads": 441, "homepage": "https://clawhub.ai/guoway/redmine-issue", "iconUrl": null, "installs": 14, "name": "Redmine Issue", "ownerName": "guoway", "score": 10688.317983519146, "slug": "redmine-issue", "source": "clawhub", "stars": 0, "tags": null, "updated_at": 1776766750096, "version": "1.0.0"}, {"category": "developer-tools", "created_at": 1772792424946, "description": "Intrusion Detection System & Dynamic Honeypot. Protects your workspace from malicious skills.", "description_zh": "", "downloads": 441, "homepage": "https://clawhub.ai/tonyjb/clawguard-antimalware", "iconUrl": null, "installs": 11, "name": "ClawGuard | Anti-Malware Scanner & Honeypot", "ownerName": "tonyjb", "score": 7139.388052452647, "slug": "clawguard-antimalware", "source": "clawhub", "stars": 0, "tags": ["anti-malware", "honeypot", "ips", "malware-scanner"], "updated_at": 1776765850058, "version": "1.0.4"}, {"category": "security-compliance", "created_at": 1772792586941, "description": "X-ray any Polymarket wallet — skill level, entry quality, bot detection, and edge analysis. Queries Polymarket's public APIs, no authentication needed. Inspi...", "description_zh": "", "downloads": 441, "homepage": "https://clawhub.ai/adlai88/polymarket-wallet-xray", "iconUrl": null, "installs": 20, "name": "Polymarket Wallet Xray", "ownerName": "adlai88", "score": 28673.60208062419, "slug": "polymarket-wallet-xray", "source": "clawhub", "stars": 0, "tags": null, "updated_at": 1776758482615, "version": "1.0.4"}, {"category": "developer-tools", "created_at": 1772789029559, "description": "Extract clinical phenotypes and medication entities from user-provided text using PhenoSnap, producing a timestamped JSON output.", "description_zh": "", "downloads": 441, "homepage": "https://clawhub.ai/kaichop/phenoskill", "iconUrl": null, "installs": 9, "name": "Phenosnap Phenotype Extractor", "ownerName": "kaichop", "score": 79316.54676258992, "slug": "phenoskill", "source": "clawhub", "stars": 0, "tags": null, "updated_at": 1776751271935, "version": "0.1.1"}, {"category": "security-compliance", "created_at": 1772787547749, "description": "Final code review and quality gate — run tests, check coverage, audit security, verify acceptance criteria from spec, and generate ship-ready report. Use whe...", "description_zh": "", "downloads": 441, "homepage": "https://clawhub.ai/fortunto2/solo-review", "iconUrl": null, "installs": 3, "name": "Review", "ownerName": "fortunto2", "score": 91875, "slug": "solo-review", "source": "clawhub", "stars": 0, "tags": null, "updated_at": 1776748370313, "version": "1.1.1"}, {"category": "security-compliance", "created_at": 1772784710660, "description": "A mandatory security audit skill for validating new code, skills, and MCP servers against the SEP-2026 Zero Trust protocol.", "description_zh": "", "downloads": 441, "homepage": "https://clawhub.ai/thomastrumpp/ztp", "iconUrl": null, "installs": 9, "name": "ztp", "ownerName": "thomastrumpp", "score": 91115.70247933884, "slug": "ztp", "source": "clawhub", "stars": 0, "tags": null, "updated_at": 1776748369963, "version": "2.0.0"}, {"category": "data-analysis", "created_at": 1772793131793, "description": "Reads content from URLs or files, classifies it, and generates structured summaries and comments in a specific, analytical style. Use when you need to proces...", "description_zh": "", "downloads": 441, "homepage": "https://clawhub.ai/blackshady1130-jpg/ai-review", "iconUrl": null, "installs": 12, "name": "AI-review", "ownerName": "blackshady1130-jpg", "score": 89816.70061099797, "slug": "ai-review", "source": "clawhub", "stars": 0, "tags": null, "updated_at": 1776748369709, "version": "1.0.0"}, {"category": "developer-tools", "created_at": 1772787788628, "description": "Channel Aavegotchis on Base via Bankr. Checks cooldown, builds calldata, and submits channel txs safely.", "description_zh": "", "downloads": 441, "homepage": "https://clawhub.ai/aaigotchi/gotchi-channeling", "iconUrl": null, "installs": 12, "name": "Gotchi Channeling", "ownerName": "aaigotchi", "score": 89816.70061099797, "slug": "gotchi-channeling", "source": "clawhub", "stars": 0, "tags": null, "updated_at": 1776748369675, "version": "0.2.0"}, {"category": "data-analysis", "created_at": 1774616052350, "description": "BlockBeats Skill covers over 1,500 information sources, including AI-driven insights, Hyperliquid on-chain data, and Polymarket market analytics. It also fea...", "description_zh": "", "downloads": 440, "homepage": "https://clawhub.ai/blockbeatsofficial/blockbeats-skill", "iconUrl": null, "installs": 17, "name": "blockbeats--skill", "ownerName": "blockbeatsofficial", "score": 100000, "slug": "blockbeats-skill", "source": "clawhub", "stars": 3, "tags": null, "updated_at": 1776748371083, "version": "1.0.3"}, {"category": "ai-intelligence", "created_at": 1772790074268, "description": "SurrealFS virtual filesystem for AI agents. Rust core + Python agent (Pydantic AI). Persistent file operations backed by SurrealDB. Part of the surreal-skill...", "description_zh": "", "downloads": 440, "homepage": "https://clawhub.ai/24601/surrealfs", "iconUrl": null, "installs": 7, "name": "surrealfs", "ownerName": "24601", "score": 97363.0831643002, "slug": "surrealfs", "source": "clawhub", "stars": 2, "tags": ["surrealdb"], "updated_at": 1776748370822, "version": "1.2.0"}, {"category": "communication-collaboration", "created_at": 1772783611724, "description": "Provision a dedicated inbox for your AI agent and manage email safely via thrd.email. Includes instant onboarding, inbound polling, reply/send (idempotent +...", "description_zh": "", "downloads": 440, "homepage": "https://clawhub.ai/sergiorico1/thrd-skill", "iconUrl": null, "installs": 2, "name": "Thrd Skill", "ownerName": "sergiorico1", "score": 100000, "slug": "thrd-skill", "source": "clawhub", "stars": 2, "tags": null, "updated_at": 1776748370424, "version": "1.2.7"}, {"category": "ai-intelligence", "created_at": 1772784795490, "description": "Claw Drive — AI-managed personal drive for OpenClaw. Auto-categorize, tag, deduplicate, and retrieve files with natural language. Backed by Google Drive for...", "description_zh": "", "downloads": 440, "homepage": "https://clawhub.ai/zhiyuanw101/claw-drive", "iconUrl": null, "installs": 19, "name": "Claw Drive", "ownerName": "zhiyuanw101", "score": 100000, "slug": "claw-drive", "source": "clawhub", "stars": 2, "tags": null, "updated_at": 1776748370175, "version": "0.4.4"}, {"category": "ai-intelligence", "created_at": 1772789261952, "description": "Manage and navigate a multi-layered, branch-based memory system. This skill helps organize complex agent context into Root, Domain, and Project layers to pre...", "description_zh": "", "downloads": 440, "homepage": "https://clawhub.ai/balkanblbn/hierarchical-memory", "iconUrl": null, "installs": 16, "name": "Hierarchical Memory", "ownerName": "balkanblbn", "score": 94302.55402750491, "slug": "hierarchical-memory", "source": "clawhub", "stars": 2, "tags": null, "updated_at": 1776748370110, "version": "1.0.1"}, {"category": "data-analysis", "created_at": 1773290167510, "description": "Send and receive USDC/USDT crypto payments via PayMe smart wallets. Check balances, send stablecoins, view history, manage contacts, sell crypto for local cu...", "description_zh": "", "downloads": 440, "homepage": "https://clawhub.ai/variousfoot/payme", "iconUrl": null, "installs": 6, "name": "PayMe - Crypto Payments", "ownerName": "variousfoot", "score": 93686.35437881874, "slug": "payme", "source": "clawhub", "stars": 1, "tags": ["arbitrum", "base", "crypto", "naira", "ngn", "nigeria", "p2p", "payments", "stablecoin", "usdc", "usdt", "wallet"], "updated_at": 1776748369658, "version": "1.0.27"}, {"category": "developer-tools", "created_at": 1772784892755, "description": "Query the COCA (Corpus of Contemporary American English) linguistics API for word frequency, collocations, concordances, and historical usage trends. Use for...", "description_zh": "", "downloads": 440, "homepage": "https://clawhub.ai/lukeslp/geepers-corpus", "iconUrl": null, "installs": 10, "name": "Geepers Corpus", "ownerName": "lukeslp", "score": 1354.4296004432679, "slug": "geepers-corpus", "source": "clawhub", "stars": 0, "tags": null, "updated_at": 1776770649915, "version": "1.0.0"}, {"category": "content-creation", "created_at": 1772792884561, "description": "Design and optimize a sales funnel for a solopreneur business. Use when mapping how customers move from first awareness to paying customer, identifying where...", "description_zh": "", "downloads": 440, "homepage": "https://clawhub.ai/jk-0001/sales-funnel-design", "iconUrl": null, "installs": 31, "name": "Sales Funnel Design", "ownerName": "jk-0001", "score": 18636.171113934775, "slug": "sales-funnel-design", "source": "clawhub", "stars": 0, "tags": null, "updated_at": 1776765550054, "version": "0.1.0"}, {"category": "data-analysis", "created_at": 1772787784582, "description": "Create a new OpenClaw agent and bind it to a dedicated Telegram group with workspace ~/claw-<agent-name>. Use when the user asks for one-agent-one-group setu...", "description_zh": "", "downloads": 440, "homepage": "https://clawhub.ai/sheetaa/create-agent-with-telegram-group", "iconUrl": null, "installs": 12, "name": "Create Agent With Telegram Group", "ownerName": "sheetaa", "score": 31976.74418604651, "slug": "create-agent-with-telegram-group", "source": "clawhub", "stars": 0, "tags": null, "updated_at": 1776759083573, "version": "0.1.5"}, {"category": "developer-tools", "created_at": 1773284516099, "description": "Your agent says 'done' — but did it check? Superpowers turns any OpenClaw agent into a disciplined engineer. Verification iron law (evidence before claims),...", "description_zh": "", "downloads": 440, "homepage": "https://clawhub.ai/globalcaos/agent-superpowers", "iconUrl": null, "installs": 93, "name": "Agent Superpowers", "ownerName": "globalcaos", "score": 88531.18712273642, "slug": "agent-superpowers", "source": "clawhub", "stars": 0, "tags": null, "updated_at": 1776755627223, "version": "1.1.0"}, {"category": "content-creation", "created_at": 1772788522729, "description": "Shared .md interchange library for OpenClaw skills — atomic writes, deterministic serialization, YAML frontmatter, advisory locking, and schema validation. T...", "description_zh": "", "downloads": 440, "homepage": "https://clawhub.ai/frank-bot07/openclaw-interchange", "iconUrl": null, "installs": 25, "name": "@openclaw/interchange", "ownerName": "frank-bot07", "score": 92050.20920502092, "slug": "openclaw-interchange", "source": "clawhub", "stars": 0, "tags": null, "updated_at": 1776748371275, "version": "1.0.0"}, {"category": "productivity", "created_at": 1772784969590, "description": "TS3 namespace for Netsnek e.U. TypeScript server-side framework. HTTP server scaffolding, middleware composition, request validation, and structured logging.", "description_zh": "", "downloads": 440, "homepage": "https://clawhub.ai/kleberbaum/ts3", "iconUrl": null, "installs": 12, "name": "ts3", "ownerName": "kleberbaum", "score": 89613.03462321793, "slug": "ts3", "source": "clawhub", "stars": 0, "tags": null, "updated_at": 1776748371175, "version": "0.1.0"}, {"category": "security-compliance", "created_at": 1772787670093, "description": "Stealth Reddit intelligence -- browse, read, and analyze any subreddit without getting blocked. Multi-layer fallback (OAuth API -> Stealth HTTP -> Browser St...", "description_zh": "", "downloads": 440, "homepage": "https://clawhub.ai/hioliver933/reddit-spy", "iconUrl": null, "installs": 7, "name": "Reddit Spy", "ownerName": "hioliver933", "score": 86614.17322834645, "slug": "reddit-spy", "source": "clawhub", "stars": 0, "tags": null, "updated_at": 1776748370681, "version": "1.0.0"}, {"category": "data-analysis", "created_at": 1772783642996, "description": "Analyze and visualize Git commit time distribution. Use when users need to analyze Git repository commit patterns, generate commit statistics, visualize comm...", "description_zh": "", "downloads": 440, "homepage": "https://clawhub.ai/wangyendt/gitstats", "iconUrl": null, "installs": 16, "name": "Pywayne Bin Gitstats", "ownerName": "wangyendt", "score": 92436.97478991597, "slug": "gitstats", "source": "clawhub", "stars": 0, "tags": null, "updated_at": 1776748370593, "version": "0.1.0"}, {"category": "ai-intelligence", "created_at": 1772790597931, "description": "Create and send fun, personality-rich promotional messages from one agent to the Moltbook audience. Use when a user wants to advertise a product, project, up...", "description_zh": "", "downloads": 440, "homepage": "https://clawhub.ai/rylena/aada", "iconUrl": null, "installs": 15, "name": "AADA (Agent to Agent Advertising)", "ownerName": "rylena", "score": 89249.49290060851, "slug": "aada", "source": "clawhub", "stars": 0, "tags": null, "updated_at": 1776748370305, "version": "1.0.0"}, {"category": "productivity", "created_at": 1772794014611, "description": "Backtest stock trading strategies on historical OHLCV data and report win rate, return, CAGR, drawdown, Sharpe ratio, and trade logs. Use when evaluating or...", "description_zh": "", "downloads": 440, "homepage": "https://clawhub.ai/taylen/stock-strategy-backtester-clean", "iconUrl": null, "installs": 35, "name": "Stock Strategy Backtester Clean", "ownerName": "taylen", "score": 89249.49290060851, "slug": "stock-strategy-backtester-clean", "source": "clawhub", "stars": 0, "tags": ["backtest", "clean", "quant", "stocks"], "updated_at": 1776748369991, "version": "1.0.1"}, {"category": "data-analysis", "created_at": 1772788806523, "description": "Analyze iMessage (macOS) and Signal conversation history to reveal relationship dynamics — message volume, initiation patterns, silence gaps, tone samples, a...", "description_zh": "", "downloads": 440, "homepage": "https://clawhub.ai/terellison/imessage-signal-analyzer", "iconUrl": null, "installs": 14, "name": "iMessage & Signal Analyzer", "ownerName": "terellison", "score": 93220.33898305084, "slug": "imessage-signal-analyzer", "source": "clawhub", "stars": 0, "tags": null, "updated_at": 1776748369775, "version": "1.0.0"}, {"category": "content-creation", "created_at": 1773073132344, "description": "Unified AI execution engine. Single API key (WODEAPP_API_KEY) routes to 343+ models across text, image, video, TTS, and structured JSON — with automatic cost...", "description_zh": "", "downloads": 439, "homepage": "https://clawhub.ai/diankourenxia/wodeapp-ai", "iconUrl": null, "installs": 12, "name": "WodeApp AI Engine", "ownerName": "diankourenxia", "score": 91800, "slug": "wodeapp-ai", "source": "clawhub", "stars": 1, "tags": null, "updated_at": 1776748371027, "version": "1.0.17"}, {"category": "ai-intelligence", "created_at": 1773283345087, "description": "Local, crash-safe persistent memory for OpenClaw agents. Replaces built-in memory-core with semantic search, projects, and scope-based access control.", "description_zh": "", "downloads": 439, "homepage": "https://clawhub.ai/iret77/palaia", "iconUrl": null, "installs": 10, "name": "Palaia", "ownerName": "iret77", "score": 94834.71074380165, "slug": "palaia", "source": "clawhub", "stars": 1, "tags": null, "updated_at": 1776748369967, "version": "1.0.6"}, {"category": "", "created_at": 1774885673503, "description": "Information assistant for Hermès. Search products, news, financials, and official resources for Hermès.", "description_zh": "", "downloads": 439, "homepage": "https://clawhub.ai/hanxueyuan/hermes", "iconUrl": null, "installs": 56, "name": "Hermès", "ownerName": "hanxueyuan", "score": 7203.807023301609, "slug": "hermes", "source": "clawhub", "stars": 0, "tags": null, "updated_at": 1776768850262, "version": "0.1.1"}]}