{"page": 197, "total_pages": 522, "total": 26073, "skills": [{"category": "content-creation", "created_at": 1772800082558, "description": "Extract text, metadata, and pages from PDF files using pypdf. Use for tasks such as reading PDF content, extracting specific pages, splitting or merging PDFs...", "description_zh": "", "downloads": 439, "homepage": "https://clawhub.ai/maverick-ai-tech/pypdf", "iconUrl": null, "installs": 108, "name": "pypdf", "ownerName": "maverick-ai-tech", "score": 7267.00877338189, "slug": "pypdf", "source": "clawhub", "stars": 0, "tags": null, "updated_at": 1776767649880, "version": "1.0.0"}, {"category": "developer-tools", "created_at": 1772785988020, "description": "Generate an energy-optimized, time-blocked daily plan based on circadian rhythm research and GTD principles", "description_zh": "", "downloads": 439, "homepage": "https://clawhub.ai/brianrwagner/brw-plan-my-day", "iconUrl": null, "installs": 2, "name": "Plan My Day", "ownerName": "brianrwagner", "score": 8731.105807478121, "slug": "brw-plan-my-day", "source": "clawhub", "stars": 0, "tags": null, "updated_at": 1776765850004, "version": "1.0.0"}, {"category": "content-creation", "created_at": 1773283358223, "description": "Web crawler using BFS and anti-scraping to extract and save structured BBC and general news content in Markdown with multi-site and dedup support.", "description_zh": "", "downloads": 439, "homepage": "https://clawhub.ai/felixopt17/bbccrawlermaxclaw", "iconUrl": null, "installs": 54, "name": "test_skill", "ownerName": "felixopt17", "score": 31857.7648766328, "slug": "bbccrawlermaxclaw", "source": "clawhub", "stars": 0, "tags": null, "updated_at": 1776759083294, "version": "1.0.9"}, {"category": "productivity", "created_at": 1772805184341, "description": "Enforces a two-layer guarded process for modifying critical JSON config files with immediate syntax checks and periodic health validation to prevent faulty c...", "description_zh": "", "downloads": 439, "homepage": "https://clawhub.ai/halfmoon82/config-modification", "iconUrl": null, "installs": 12, "name": "Config Modification", "ownerName": "halfmoon82", "score": 31904.069767441862, "slug": "config-modification", "source": "clawhub", "stars": 0, "tags": null, "updated_at": 1776759082919, "version": "2.5.0"}, {"category": "data-analysis", "created_at": 1772787021212, "description": "Evaluate and monitor AI agent fleets across six key dimensions to score health, identify issues, and optimize performance for ops teams managing 1-100+ agents.", "description_zh": "", "downloads": 439, "homepage": "https://clawhub.ai/1kalin/afrexai-agent-observability", "iconUrl": null, "installs": 7, "name": "AI Agent Observability", "ownerName": "1kalin", "score": 76347.82608695653, "slug": "afrexai-agent-observability", "source": "clawhub", "stars": 0, "tags": ["agents", "monitoring", "observability", "ops", "production", "sre"], "updated_at": 1776759082896, "version": "1.1.0"}, {"category": "developer-tools", "created_at": 1772785048302, "description": "A Tamagotchi-style digital pet for AI agents. Raise your pet, battle others, evolve through stages. Includes A2A multiplayer for agent challenges.", "description_zh": "", "downloads": 439, "homepage": "https://clawhub.ai/noizceera/pet-rpg", "iconUrl": null, "installs": 14, "name": "PetRPG", "ownerName": "noizceera", "score": 86930.69306930693, "slug": "pet-rpg", "source": "clawhub", "stars": 0, "tags": null, "updated_at": 1776750644439, "version": "1.0.0"}, {"category": "ai-intelligence", "created_at": 1772787581580, "description": "Give your agents soul.", "description_zh": "", "downloads": 439, "homepage": "https://clawhub.ai/brancante/dr-frankenstein", "iconUrl": null, "installs": 14, "name": "Dr. Frankenstein", "ownerName": "brancante", "score": 91458.33333333333, "slug": "dr-frankenstein", "source": "clawhub", "stars": 0, "tags": ["emotions", "openclaw", "parentality"], "updated_at": 1776748370230, "version": "1.0.1"}, {"category": "communication-collaboration", "created_at": 1773076072340, "description": "Scan receipt or invoice photos sent via chat, extract expense data using OpenAI Vision, validate and deduplicate, then log to a Google Spreadsheet. Responds...", "description_zh": "", "downloads": 439, "homepage": "https://clawhub.ai/fdocr/clawshier", "iconUrl": null, "installs": 14, "name": "Clawshier", "ownerName": "fdocr", "score": 86247.5442043222, "slug": "clawshier", "source": "clawhub", "stars": 0, "tags": null, "updated_at": 1776748370144, "version": "0.1.2"}, {"category": "ai-intelligence", "created_at": 1772790302797, "description": "Helps verify that AI agent skills maintain consistent behavioral invariants across repeated executions — detecting the class of threat where a skill behaves...", "description_zh": "", "downloads": 439, "homepage": "https://clawhub.ai/andyxinweiminicloud/behavioral-invariant-monitor", "iconUrl": null, "installs": 13, "name": "Behavioral Invariant Monitor", "ownerName": "andyxinweiminicloud", "score": 89046.65314401624, "slug": "behavioral-invariant-monitor", "source": "clawhub", "stars": 0, "tags": null, "updated_at": 1776748370023, "version": "1.3.0"}, {"category": "security-compliance", "created_at": 1773424897033, "description": "Open source license reference — SPDX identifiers, permissive vs copyleft comparison, license compatibility matrix, patent clauses, and compliance scanning tools", "description_zh": "", "downloads": 439, "homepage": "https://clawhub.ai/bytesagain1/license-picker", "iconUrl": null, "installs": 17, "name": "License Picker", "ownerName": "bytesagain1", "score": 89046.65314401624, "slug": "license-picker", "source": "clawhub", "stars": 0, "tags": ["productivity"], "updated_at": 1776748369996, "version": "6.0.0"}, {"category": "developer-tools", "created_at": 1772788622152, "description": "Use this skill to discover similar GitHub work, attach to shared agent workspaces, and coordinate tasks via .shared files.", "description_zh": "", "downloads": 439, "homepage": "https://clawhub.ai/nativ3ai/shared-workspace", "iconUrl": null, "installs": 11, "name": "Shared Workspace", "ownerName": "nativ3ai", "score": 93008.47457627118, "slug": "shared-workspace", "source": "clawhub", "stars": 0, "tags": null, "updated_at": 1776748369744, "version": "0.1.2"}, {"category": "ai-intelligence", "created_at": 1772792073897, "description": "RSS feed aggregator, deduplication engine, LLM scoring, and output dispatcher for OpenClaw agents. Use when: fetching recent articles from configured sources...", "description_zh": "", "downloads": 438, "homepage": "https://clawhub.ai/romain-grosos/veille", "iconUrl": null, "installs": 19, "name": "Veille", "ownerName": "romain-grosos", "score": 100000, "slug": "veille", "source": "clawhub", "stars": 2, "tags": null, "updated_at": 1776748371226, "version": "1.2.5"}, {"category": "developer-tools", "created_at": 1772784430988, "description": "kenoodl is an orthogonal injection engine — it synthesizes patterns from domains outside your agent's training data and maps them onto whatever problem it's...", "description_zh": "", "downloads": 438, "homepage": "https://clawhub.ai/kenoodl-synthesis/kenoodl-synthesis", "iconUrl": null, "installs": 6, "name": "kenoodl-synthesis", "ownerName": "kenoodl-synthesis", "score": 94094.48818897638, "slug": "kenoodl-synthesis", "source": "clawhub", "stars": 2, "tags": ["api", "kenoodl", "latest ai-agents synthesis agent-tool cross-domain x402 base-l2 openclaw clawhub orthogonal-injection", "skill", "token"], "updated_at": 1776748369596, "version": "1.0.6"}, {"category": "developer-tools", "created_at": 1773081131808, "description": "Generate comprehensive capital market briefings covering global indices (A-shares, Hong Kong stocks, US stocks), commodities (gold, oil, Bitcoin), and catego...", "description_zh": "", "downloads": 438, "homepage": "https://clawhub.ai/yangzhe1991/capital-market-report", "iconUrl": null, "installs": 63, "name": "capital-market-report", "ownerName": "yangzhe1991", "score": 19547.588561673067, "slug": "capital-market-report", "source": "clawhub", "stars": 1, "tags": null, "updated_at": 1776765850198, "version": "1.2.0"}, {"category": "content-creation", "created_at": 1772795284932, "description": "Source free stock photos and placeholder images with direct URLs for Unsplash, Pexels, Pixabay, and Lorem Picsum.", "description_zh": "", "downloads": 438, "homepage": "https://clawhub.ai/ivangdavila/stock-images", "iconUrl": null, "installs": 60, "name": "Stock Images", "ownerName": "ivangdavila", "score": 93469.38775510204, "slug": "stock-images", "source": "clawhub", "stars": 1, "tags": null, "updated_at": 1776748370789, "version": "1.0.0"}, {"category": "content-creation", "created_at": 1772796040298, "description": "Automate social media posting to Instagram and YouTube. Schedule and publish images, videos, and content automatically. Social media automation tool for cont...", "description_zh": "", "downloads": 438, "homepage": "https://clawhub.ai/vitja1988/social-media-suite", "iconUrl": null, "installs": 38, "name": "Social Media Suite", "ownerName": "vitja1988", "score": 40896.358543417366, "slug": "social-media-suite", "source": "clawhub", "stars": 0, "tags": ["automation", "content-creation", "instagram", "marketing", "posting", "social-media", "youtube"], "updated_at": 1776769190481, "version": "1.0.1"}, {"category": "productivity", "created_at": 1772798751394, "description": "Send messages to Feishu via Webhook with heredoc input support", "description_zh": "", "downloads": 438, "homepage": "https://clawhub.ai/talentestors/feishu-webhook", "iconUrl": null, "installs": 24, "name": "Feishu Webhook", "ownerName": "talentestors", "score": 5943.818699959289, "slug": "feishu-webhook", "source": "clawhub", "stars": 0, "tags": null, "updated_at": 1776767350170, "version": "1.2.1"}, {"category": "content-creation", "created_at": 1772789763368, "description": "Post or schedule content to Telegram channels and groups using the Publora API. Use this skill when the user wants to publish or schedule Telegram messages v...", "description_zh": "", "downloads": 438, "homepage": "https://clawhub.ai/sergebulaev/publora-telegram", "iconUrl": null, "installs": 38, "name": "Publora — Telegram", "ownerName": "sergebulaev", "score": 23908.296943231442, "slug": "publora-telegram", "source": "clawhub", "stars": 0, "tags": null, "updated_at": 1776766790419, "version": "1.1.0"}, {"category": "security-compliance", "created_at": 1772783522501, "description": "Assist in creating, monitoring, and enforcing detailed SLAs with metrics, escalation paths, penalties, reviews, and vendor negotiation tips.", "description_zh": "", "downloads": 438, "homepage": "https://clawhub.ai/1kalin/afrexai-sla-manager", "iconUrl": null, "installs": 7, "name": "SLA Manager", "ownerName": "1kalin", "score": 3091.037402964009, "slug": "afrexai-sla-manager", "source": "clawhub", "stars": 0, "tags": ["compliance", "operations", "service level agreement", "sla", "vendor management"], "updated_at": 1776765850287, "version": "1.0.0"}, {"category": "data-analysis", "created_at": 1773042058674, "description": "Vision-driven browser automation using Midscene. Operates entirely from screenshots — no DOM or accessibility labels required. Can interact with all visible...", "description_zh": "", "downloads": 438, "homepage": "https://clawhub.ai/quanru/midscene-computer-browser", "iconUrl": null, "installs": 44, "name": "Midscene Automations Skills for Browser", "ownerName": "quanru", "score": 10269.636576787809, "slug": "midscene-computer-browser", "source": "clawhub", "stars": 0, "tags": null, "updated_at": 1776764050265, "version": "1.0.3"}, {"category": "ai-intelligence", "created_at": 1773960745004, "description": "Generate images from text prompts using the Jimeng API with customizable size, scale, seed, and output path via Python scripts.", "description_zh": "", "downloads": 438, "homepage": "https://clawhub.ai/gkhcsc/jimeng-image-skill-openclaw", "iconUrl": null, "installs": 198, "name": "Jimeng Image Skill Openclaw", "ownerName": "gkhcsc", "score": 32735.42600896861, "slug": "jimeng-image-skill-openclaw", "source": "clawhub", "stars": 0, "tags": null, "updated_at": 1776759257780, "version": "0.1.0"}, {"category": "data-analysis", "created_at": 1772800094668, "description": "Search, analyze, and summarize peer-reviewed academic papers from open access sources. Provides credibility scoring, visualization, timeline generation, and...", "description_zh": "", "downloads": 438, "homepage": "https://clawhub.ai/jcheng67/scholar-research", "iconUrl": null, "installs": 95, "name": "Scholar Research", "ownerName": "jcheng67", "score": 32229.580573951433, "slug": "scholar-research", "source": "clawhub", "stars": 0, "tags": ["academic", "ai", "education", "journals", "research"], "updated_at": 1776759083330, "version": "1.0.0"}, {"category": "developer-tools", "created_at": 1773850563126, "description": "Reference tool for devtools — covers intro, quickstart, patterns and more. Quick lookup for Autohotkey concepts, best practices, and implementation patterns.", "description_zh": "", "downloads": 438, "homepage": "https://clawhub.ai/ckchzh/autohotkey", "iconUrl": null, "installs": 35, "name": "Autohotkey", "ownerName": "ckchzh", "score": 76173.91304347826, "slug": "autohotkey", "source": "clawhub", "stars": 0, "tags": null, "updated_at": 1776751784525, "version": "3.0.2"}, {"category": "productivity", "created_at": 1772784143200, "description": "Geometric hull calculator for 2D point sets supporting convex hull, concave hull (concave-hull, alphashape), and minimum bounding rectangle. Use when working...", "description_zh": "", "downloads": 438, "homepage": "https://clawhub.ai/wangyendt/geometric-hull-calculator", "iconUrl": null, "installs": 14, "name": "Pywayne Cv Geometric Hull Calculator", "ownerName": "wangyendt", "score": 89205.70264765783, "slug": "geometric-hull-calculator", "source": "clawhub", "stars": 0, "tags": null, "updated_at": 1776748371147, "version": "0.1.0"}, {"category": "ai-intelligence", "created_at": 1772786278437, "description": "Check if phone numbers exist in the local Baileys session cache", "description_zh": "", "downloads": 438, "homepage": "https://clawhub.ai/marcosrippel/whatsapp-validate", "iconUrl": null, "installs": 24, "name": "WhatsApp Validate", "ownerName": "marcosrippel", "score": 87600, "slug": "whatsapp-validate", "source": "clawhub", "stars": 0, "tags": ["baileys", "offline", "phone", "validate", "verification", "whatsapp"], "updated_at": 1776748371009, "version": "1.0.0"}, {"category": "productivity", "created_at": 1772785902877, "description": "IntercomSwap (OpenClaw-hardened): operator-run, manual-only P2P RFQ swaps that negotiate over Intercom sidechannels and settle BTC (Lightning) <-> USDT (Sola...", "description_zh": "", "downloads": 438, "homepage": "https://clawhub.ai/tracsystems/intercom-lightning", "iconUrl": null, "installs": 15, "name": "IntercomLightning", "ownerName": "tracsystems", "score": 90123.45679012345, "slug": "intercom-lightning", "source": "clawhub", "stars": 0, "tags": null, "updated_at": 1776748370446, "version": "1.0.0"}, {"category": "ai-intelligence", "created_at": 1772784131478, "description": "Review and rate OpenClaw skills on ClawdTM. See what humans and AI agents recommend.", "description_zh": "", "downloads": 438, "homepage": "https://clawhub.ai/0xmythril/clawdtm-review", "iconUrl": null, "installs": 24, "name": "Clawdtm Review", "ownerName": "0xmythril", "score": 91250, "slug": "clawdtm-review", "source": "clawhub", "stars": 0, "tags": null, "updated_at": 1776748370321, "version": "1.0.0"}, {"category": "content-creation", "created_at": 1773058145101, "description": "Instagram-style image network for AI agents. Post images, like, comment, and browse feeds.", "description_zh": "", "downloads": 438, "homepage": "https://clawhub.ai/dougbtv/moltazine", "iconUrl": null, "installs": 21, "name": "Moltazine Publish Y0JPCE", "ownerName": "dougbtv", "score": 90495.86776859504, "slug": "moltazine", "source": "clawhub", "stars": 0, "tags": null, "updated_at": 1776748369908, "version": "0.0.11"}, {"category": "security-compliance", "created_at": 1772790633237, "description": "Security audit tool for OpenClaw skills. Scans for credential harvesting, code injection, network exfiltration, obfuscation. ALWAYS run before installing any...", "description_zh": "", "downloads": 438, "homepage": "https://clawhub.ai/suryast/skill-security", "iconUrl": null, "installs": 15, "name": "Skill Security Scanner", "ownerName": "suryast", "score": 89205.70264765783, "slug": "skill-security", "source": "clawhub", "stars": 0, "tags": null, "updated_at": 1776748369714, "version": "1.0.1"}, {"category": "data-analysis", "created_at": 1772789882846, "description": "Find work or personal emails, mobile phone numbers, and verify email validity using LinkedIn URLs or names with company domains for sales outreach.", "description_zh": "", "downloads": 437, "homepage": "https://clawhub.ai/dotcomcj2/cold-email-prospecting-agent", "iconUrl": null, "installs": 23, "name": "Cold Email Prospecting Agent", "ownerName": "dotcomcj2", "score": 34792.12253829322, "slug": "cold-email-prospecting-agent", "source": "clawhub", "stars": 2, "tags": ["b2b", "cold-email", "email", "lead-generation", "linkedin", "outreach", "phone", "prospecting", "sales", "verification"], "updated_at": 1776759082657, "version": "1.0.4"}, {"category": "developer-tools", "created_at": 1773206648108, "description": "Provides real-time BTC/ETH/SOL prices, sentiment and technical indicators, top industry and policy news, plus trending coin prices via Desk3 API.", "description_zh": "", "downloads": 437, "homepage": "https://clawhub.ai/desk3/cryptocurrency-market-live-briefing", "iconUrl": null, "installs": 18, "name": "Cryptocurrency Market Live Briefing", "ownerName": "desk3", "score": 33430.87051938551, "slug": "cryptocurrency-market-live-briefing", "source": "clawhub", "stars": 1, "tags": null, "updated_at": 1776759082583, "version": "1.0.2"}, {"category": "content-creation", "created_at": 1772788370697, "description": "Upload and publish video content to YouTube using the Publora API. Use this skill when the user wants to upload or schedule YouTube videos via Publora.", "description_zh": "", "downloads": 437, "homepage": "https://clawhub.ai/sergebulaev/publora-youtube", "iconUrl": null, "installs": 33, "name": "Publora — YouTube", "ownerName": "sergebulaev", "score": 8783.91959798995, "slug": "publora-youtube", "source": "clawhub", "stars": 0, "tags": null, "updated_at": 1776766871090, "version": "1.1.0"}, {"category": "", "created_at": 1774948508459, "description": "Create, inspect, and edit Microsoft Excel workbooks and XLSX files with reliable formulas, dates, types, formatting, recalculation, and template preservation...", "description_zh": "", "downloads": 437, "homepage": "https://clawhub.ai/lean-zhouchao/excel-xlsx-zc", "iconUrl": null, "installs": 188, "name": "Excel Xlsx Zc", "ownerName": "lean-zhouchao", "score": 8449.342614075793, "slug": "excel-xlsx-zc", "source": "clawhub", "stars": 0, "tags": null, "updated_at": 1776766571057, "version": "1.0.0"}, {"category": "content-creation", "created_at": 1772795175678, "description": "Generate and produce optimized video ads for Facebook, Instagram, and YouTube from text briefs using InVideo AI, including scripts, voiceovers, captions, and...", "description_zh": "", "downloads": 437, "homepage": "https://clawhub.ai/g4dr/video-ad-producer", "iconUrl": null, "installs": 47, "name": "Video Ad Producer — Facebook, Instagram & YouTube", "ownerName": "g4dr", "score": 3239.9169632265716, "slug": "video-ad-producer", "source": "clawhub", "stars": 0, "tags": null, "updated_at": 1776766271043, "version": "1.0.0"}, {"category": "content-creation", "created_at": 1772790934426, "description": "Transform long-form content into multiple formats for distribution. Automatically converts blog posts, articles, or transcripts into Twitter/X threads, Linke...", "description_zh": "", "downloads": 437, "homepage": "https://clawhub.ai/kambrosgroup/content-repurposer-pro", "iconUrl": null, "installs": 42, "name": "Content Repurposer Pro", "ownerName": "kambrosgroup", "score": 6613.19612590799, "slug": "content-repurposer-pro", "source": "clawhub", "stars": 0, "tags": null, "updated_at": 1776765590458, "version": "1.0.0"}, {"category": "", "created_at": 1774849126665, "description": "Captures learnings, errors, and corrections for continuous improvement. Use when: (1) A command fails unexpectedly, (2) User corrects you ('No, that's wrong....", "description_zh": "", "downloads": 437, "homepage": "https://clawhub.ai/lucasye378/self-improvement-agent", "iconUrl": null, "installs": 191, "name": "Self-Improvement Agent", "ownerName": "lucasye378", "score": 7280.9063645451515, "slug": "self-improvement-agent", "source": "clawhub", "stars": 0, "tags": ["agent", "learnings", "memory", "openclaw", "self-improvement"], "updated_at": 1776765070873, "version": "1.0.0"}, {"category": "productivity", "created_at": 1772788117434, "description": "Scrapes and returns a fully translated company profile from the Indonesia Stock Exchange website using a given IDX stock code.", "description_zh": "", "downloads": 437, "homepage": "https://clawhub.ai/zororaka00/idx-stock", "iconUrl": null, "installs": 30, "name": "IDX Stock Profile Scraper", "ownerName": "zororaka00", "score": 34355.345911949684, "slug": "idx-stock", "source": "clawhub", "stars": 0, "tags": ["company-profile", "exchange", "idx", "indonesia", "scraper", "stock"], "updated_at": 1776759982826, "version": "1.0.0"}, {"category": "data-analysis", "created_at": 1772786729127, "description": "Guide structured, blameless post-mortems with root cause analysis, action tracking, and prevention steps to reduce repeat production incidents and outages.", "description_zh": "", "downloads": 437, "homepage": "https://clawhub.ai/1kalin/afrexai-post-mortem", "iconUrl": null, "installs": 13, "name": "Post-Mortem & Incident Review", "ownerName": "1kalin", "score": 30221.300138312585, "slug": "afrexai-post-mortem", "source": "clawhub", "stars": 0, "tags": ["blameless", "incident", "ops", "post-mortem", "root-cause", "sre"], "updated_at": 1776759082958, "version": "1.0.0"}, {"category": "ai-intelligence", "created_at": 1773082240517, "description": "Persistent long-term memory for AI agents. Store, recall, reason, and seamlessly switch sessions with zero context loss.", "description_zh": "", "downloads": 437, "homepage": "https://clawhub.ai/ch270035/memoryai", "iconUrl": null, "installs": 12, "name": "MemoryAI", "ownerName": "ch270035", "score": 87400, "slug": "memoryai", "source": "clawhub", "stars": 0, "tags": null, "updated_at": 1776748371101, "version": "1.0.0"}, {"category": "security-compliance", "created_at": 1772786301396, "description": "Security scanner for OpenClaw skills. Scans skills for malware, credential theft, data exfiltration, prompt injection, and permission overreach before instal...", "description_zh": "", "downloads": 437, "homepage": "https://clawhub.ai/minduploadedcrab/minduploadedcrab-skillguard", "iconUrl": null, "installs": 12, "name": "Minduploadedcrab Skillguard", "ownerName": "minduploadedcrab", "score": 89183.67346938775, "slug": "minduploadedcrab-skillguard", "source": "clawhub", "stars": 0, "tags": null, "updated_at": 1776748370963, "version": "1.0.1"}, {"category": "content-creation", "created_at": 1772789004404, "description": "Generate depth maps from images using each::sense AI. Create depth estimation for 3D effects, parallax animations, VR/AR applications, focus effects, and ste...", "description_zh": "", "downloads": 437, "homepage": "https://clawhub.ai/eftalyurtseven/depth-map-generation", "iconUrl": null, "installs": 43, "name": "Depth Map Generation", "ownerName": "eftalyurtseven", "score": 89183.67346938775, "slug": "depth-map-generation", "source": "clawhub", "stars": 0, "tags": null, "updated_at": 1776748370946, "version": "1.0.0"}, {"category": "ai-intelligence", "created_at": 1772789408079, "description": "Wind rose, wind speed/direction at a site; supports site and urban wind assessment (data only; detailed CFD is out of scope).", "description_zh": "", "downloads": 437, "homepage": "https://clawhub.ai/qrost/wind-site", "iconUrl": null, "installs": 20, "name": "Wind & Site", "ownerName": "qrost", "score": 89183.67346938775, "slug": "wind-site", "source": "clawhub", "stars": 0, "tags": null, "updated_at": 1776748370810, "version": "1.1.1"}, {"category": "productivity", "created_at": 1772805731970, "description": "Formats SKILL.md (OpenClaw/Cursor skill docs) for optimal display on ClawHub. Produces a consistent structure—Description, Installation, Usage with benefit-f...", "description_zh": "", "downloads": 437, "homepage": "https://clawhub.ai/runeweaverstudios/skill-doc-formatter", "iconUrl": null, "installs": 16, "name": "Skill Doc Formatter", "ownerName": "runeweaverstudios", "score": 91806.72268907563, "slug": "skill-doc-formatter", "source": "clawhub", "stars": 0, "tags": null, "updated_at": 1776748370563, "version": "1.0.0"}, {"category": "ai-intelligence", "created_at": 1773057143603, "description": "Professional Quantitative Intelligence & DeFi Execution for AI Agents. 10 years of news-price correlation, Enso DeFi super-aggregator (200+ DEXs, 15+ chains)...", "description_zh": "", "downloads": 437, "homepage": "https://clawhub.ai/bidurs/newsriver-intelligence", "iconUrl": null, "installs": 64, "name": "NewsRiver Global Intelligence", "ownerName": "bidurs", "score": 89917.69547325102, "slug": "newsriver-intelligence", "source": "clawhub", "stars": 0, "tags": null, "updated_at": 1776748370477, "version": "1.0.13"}, {"category": "productivity", "created_at": 1772786908452, "description": "Review and manage German tax reports including VAT (Umsatzsteuer), income tax prepayments, and Finanzamt submissions. Use when the user asks about taxes, Ste...", "description_zh": "", "downloads": 437, "homepage": "https://clawhub.ai/stanlee000/norman-tax-report", "iconUrl": null, "installs": 9, "name": "Norman: Tax Report", "ownerName": "stanlee000", "score": 88640.97363083165, "slug": "norman-tax-report", "source": "clawhub", "stars": 0, "tags": ["finance", "finanzamt", "mcp", "norman", "taxes", "vat"], "updated_at": 1776748370054, "version": "1.0.0"}, {"category": "data-analysis", "created_at": 1772790061153, "description": "Build stunning websites, landing pages, portfolios, and web apps by chatting with Nansi on WhatsApp. A no-code, mobile-first AI website builder — just descri...", "description_zh": "", "downloads": 436, "homepage": "https://clawhub.ai/fordodev/nansi", "iconUrl": null, "installs": 13, "name": "Nansi website and web app builder", "ownerName": "fordodev", "score": 100000, "slug": "nansi", "source": "clawhub", "stars": 2, "tags": null, "updated_at": 1776748370584, "version": "1.0.3"}, {"category": "ai-intelligence", "created_at": 1772799978994, "description": "Recommend nearby places (restaurants, entertainment, attractions, etc.) based on location, category, radius, and result count using Baidu Maps.", "description_zh": "", "downloads": 436, "homepage": "https://clawhub.ai/longjf25/baidu-nearby", "iconUrl": null, "installs": 56, "name": "baidu-nearby", "ownerName": "longjf25", "score": 119.13626209977663, "slug": "baidu-nearby", "source": "clawhub", "stars": 1, "tags": null, "updated_at": 1776770771090, "version": "1.0.0"}, {"category": "ai-intelligence", "created_at": 1772789190319, "description": "CopilotKit React best practices for agentic applications. Use when writing, reviewing, or refactoring React code that uses CopilotKit hooks (useAgent, useFro...", "description_zh": "", "downloads": 436, "homepage": "https://clawhub.ai/generaljerel/copilotkit-react", "iconUrl": null, "installs": 19, "name": "CopilotKit React Best Practices", "ownerName": "generaljerel", "score": 93061.22448979592, "slug": "copilotkit-react", "source": "clawhub", "stars": 1, "tags": null, "updated_at": 1776748370785, "version": "1.0.1"}, {"category": "developer-tools", "created_at": 1773219001358, "description": "Help users make better Trip.com or Ctrip booking decisions from public travel-booking factors. Use when the user wants to compare flight, train, or hotel boo...", "description_zh": "", "downloads": 436, "homepage": "https://clawhub.ai/harrylabsj/trip", "iconUrl": null, "installs": 52, "name": "Trip", "ownerName": "harrylabsj", "score": 23773.173391494, "slug": "trip", "source": "clawhub", "stars": 0, "tags": ["travel"], "updated_at": 1776764950195, "version": "1.2.0"}, {"category": "communication-collaboration", "created_at": 1773068106903, "description": "Chinese search enhancement: search Baidu, Zhihu, and WeChat articles. Returns AI-optimized structured results in Chinese. Paid skill (0.001 USDT/call via Ski...", "description_zh": "", "downloads": 436, "homepage": "https://clawhub.ai/jinp0830/zhsearch", "iconUrl": null, "installs": 108, "name": "Chinese Search Enhancement", "ownerName": "jinp0830", "score": 31663.03558460421, "slug": "zhsearch", "source": "clawhub", "stars": 0, "tags": null, "updated_at": 1776759083024, "version": "1.0.0"}]}