{"page": 198, "total_pages": 522, "total": 26073, "skills": [{"category": "productivity", "created_at": 1772798965899, "description": "Extract medical entities (symptoms, medications, lab values, diagnoses) from patient messages.", "description_zh": "", "downloads": 436, "homepage": "https://clawhub.ai/binubmuse/medical-entity-extractor", "iconUrl": null, "installs": 32, "name": "Medical Entity Extractor", "ownerName": "binubmuse", "score": 91596.63865546219, "slug": "medical-entity-extractor", "source": "clawhub", "stars": 0, "tags": null, "updated_at": 1776748370558, "version": "1.0.0"}, {"category": "developer-tools", "created_at": 1772788010532, "description": "Manage bun-do tasks and projects — add tasks, edit tasks, delete tasks, toggle done, manage subtasks, and log project progress entries. Use when the user say...", "description_zh": "", "downloads": 436, "homepage": "https://clawhub.ai/ricardofrantz/bun-do-api", "iconUrl": null, "installs": 10, "name": "bun-do", "ownerName": "ricardofrantz", "score": 90833.33333333333, "slug": "bun-do-api", "source": "clawhub", "stars": 0, "tags": ["bun", "local-first", "mcp", "payments", "projects", "self-hosted", "tasks", "todo"], "updated_at": 1776748370322, "version": "1.3.0"}, {"category": "developer-tools", "created_at": 1772785309245, "description": "Search song lyrics by title and artist using the LrcApi public API. Use when the user asks to find, display, or print lyrics for a song.", "description_zh": "", "downloads": 436, "homepage": "https://clawhub.ai/hone1983/lyrics-search", "iconUrl": null, "installs": 4, "name": "Lyrics Search", "ownerName": "hone1983", "score": 90833.33333333333, "slug": "lyrics-search", "source": "clawhub", "stars": 0, "tags": null, "updated_at": 1776748370228, "version": "1.0.0"}, {"category": "developer-tools", "created_at": 1773074058132, "description": "Smart LLM Router for OpenClaw. Save up to 70% by routing every request to the right model. No coding required.", "description_zh": "", "downloads": 435, "homepage": "https://clawhub.ai/brunobuddy/manifest-build", "iconUrl": null, "installs": 12, "name": "Manifest LLM Router", "ownerName": "brunobuddy", "score": 98958.33333333334, "slug": "manifest-build", "source": "clawhub", "stars": 2, "tags": null, "updated_at": 1776748370226, "version": "1.0.11"}, {"category": "content-creation", "created_at": 1773075238792, "description": "This skill helps users automatically extract channel-level and video detail data from a specific YouTube channel via BrowserAct API. Agent should proactively...", "description_zh": "", "downloads": 435, "homepage": "https://clawhub.ai/ccmagia2-gif/youtube-video-api-skill", "iconUrl": null, "installs": 24, "name": "youtube-video-api-skill", "ownerName": "ccmagia2-gif", "score": 92668.02443991853, "slug": "youtube-video-api-skill", "source": "clawhub", "stars": 1, "tags": null, "updated_at": 1776748371128, "version": "1.0.1"}, {"category": "developer-tools", "created_at": 1772804260789, "description": "Track financial statements (bank, credit card, insurance, CanadaLife, etc.) in memory tracking files. Use when: (1) user provides a new statement (PDF text,...", "description_zh": "", "downloads": 435, "homepage": "https://clawhub.ai/winlinvip/finance-statements", "iconUrl": null, "installs": 37, "name": "Finance Statements", "ownerName": "winlinvip", "score": 25072.046109510087, "slug": "finance-statements", "source": "clawhub", "stars": 0, "tags": null, "updated_at": 1776765550254, "version": "1.0.1"}, {"category": "content-creation", "created_at": 1773939056787, "description": "Get real-time trending topics and hot searches from major Chinese social media platforms including Weibo, Zhihu, Baidu, Douyin, Toutiao, and Bilibili. Use wh...", "description_zh": "", "downloads": 435, "homepage": "https://clawhub.ai/neverchenx/hot-topics", "iconUrl": null, "installs": 98, "name": "Hot Topics", "ownerName": "neverchenx", "score": 15881.70865279299, "slug": "hot-topics", "source": "clawhub", "stars": 0, "tags": null, "updated_at": 1776764950411, "version": "1.1.0"}, {"category": "developer-tools", "created_at": 1772799009191, "description": "Amazon SP-API skill for OpenClaw agents. Fetch orders, check FBA inventory, manage listings and pricing. Works with any marketplace and seller account.", "description_zh": "", "downloads": 435, "homepage": "https://clawhub.ai/zero2ai-hub/skill-amazon-spapi", "iconUrl": null, "installs": 30, "name": "Skill Amazon Spapi", "ownerName": "zero2ai-hub", "score": 14495.168277240919, "slug": "skill-amazon-spapi", "source": "clawhub", "stars": 0, "tags": null, "updated_at": 1776761690383, "version": "1.0.1"}, {"category": "data-analysis", "created_at": 1772788960556, "description": "Analyze franchise business economics, expansion readiness, territory potential, multi-unit efficiency, agreement risks, and AI automation to optimize franchi...", "description_zh": "", "downloads": 435, "homepage": "https://clawhub.ai/1kalin/afrexai-franchise-ops", "iconUrl": null, "installs": 26, "name": "Franchise Operations Analyzer", "ownerName": "1kalin", "score": 31567.489114658925, "slug": "afrexai-franchise-ops", "source": "clawhub", "stars": 0, "tags": ["business", "expansion", "fdd", "franchise", "multi-unit", "operations", "territory", "unit-economics"], "updated_at": 1776759083311, "version": "1.0.1"}, {"category": "data-analysis", "created_at": 1772785977632, "description": "Sync WaniKani Japanese learning progress data from the API to local storage for analysis and insights. Use when the user wants to backup their WaniKani progr...", "description_zh": "", "downloads": 435, "homepage": "https://clawhub.ai/mart1n-xyz/wanikani-sync", "iconUrl": null, "installs": 12, "name": "Wanikani", "ownerName": "mart1n-xyz", "score": 75652.17391304347, "slug": "wanikani-sync", "source": "clawhub", "stars": 0, "tags": null, "updated_at": 1776759082903, "version": "1.0.0"}, {"category": "security-compliance", "created_at": 1772785789026, "description": "AI-powered security scanner for OpenClaw skills. Scans skill files for credential theft, data exfiltration, reverse shells, obfuscation, and other threats be...", "description_zh": "", "downloads": 435, "homepage": "https://clawhub.ai/farnwickarglefax/farnwick-skillguard", "iconUrl": null, "installs": 9, "name": "SkillGuard by Farnwick", "ownerName": "farnwickarglefax", "score": 88235.29411764706, "slug": "farnwick-skillguard", "source": "clawhub", "stars": 0, "tags": null, "updated_at": 1776748370877, "version": "1.0.0"}, {"category": "data-analysis", "created_at": 1772786690207, "description": "Get CS2 player statistics, match analysis, and gameplay insights from Leetify API. Supports player comparison and season stats. Use for stat queries and demo...", "description_zh": "", "downloads": 435, "homepage": "https://clawhub.ai/damirikys/leetify", "iconUrl": null, "installs": 16, "name": "Leetify", "ownerName": "damirikys", "score": 85629.92125984252, "slug": "leetify", "source": "clawhub", "stars": 0, "tags": null, "updated_at": 1776748370662, "version": "1.0.4"}, {"category": "productivity", "created_at": 1772788289854, "description": "Generate VCards, parse invite links, and create forwarding templates", "description_zh": "", "downloads": 435, "homepage": "https://clawhub.ai/marcosrippel/whatsapp-forward", "iconUrl": null, "installs": 16, "name": "WhatsApp Forward", "ownerName": "marcosrippel", "score": 89506.17283950617, "slug": "whatsapp-forward", "source": "clawhub", "stars": 0, "tags": ["contacts", "forward", "invite", "vcard", "whatsapp"], "updated_at": 1776748370531, "version": "1.0.0"}, {"category": "productivity", "created_at": 1772790581924, "description": "Open and modify TradingView strategy settings on the current chart page. Use when: user wants to change strategy parameters, adjust inputs like stop-loss/tak...", "description_zh": "", "downloads": 435, "homepage": "https://clawhub.ai/mariuswang007/tv-strategy-settings", "iconUrl": null, "installs": 26, "name": "TradingView Strategy Settings", "ownerName": "mariuswang007", "score": 90625, "slug": "tv-strategy-settings", "source": "clawhub", "stars": 0, "tags": ["browser", "trading", "tradingview"], "updated_at": 1776748370173, "version": "1.0.0"}, {"category": "data-analysis", "created_at": 1772790405605, "description": "Automated smart contract bug bounty hunting. Scans Immunefi/Code4rena targets with Slither static analysis, triages findings with local LLMs, and generates P...", "description_zh": "", "downloads": 435, "homepage": "https://clawhub.ai/chipp11/angus-bounty-hunter", "iconUrl": null, "installs": 13, "name": "Angus Bounty Hunter", "ownerName": "chipp11", "score": 85461.68958742633, "slug": "angus-bounty-hunter", "source": "clawhub", "stars": 0, "tags": null, "updated_at": 1776748370094, "version": "1.0.0"}, {"category": "data-analysis", "created_at": 1772786764166, "description": "Asistente personalizado de bienvenida y pruebas de sistema para el servidor de Santi.", "description_zh": "", "downloads": 435, "homepage": "https://clawhub.ai/santi-patic/mi-habilidad-nueva", "iconUrl": null, "installs": 18, "name": "Mi Habilidad Nueva", "ownerName": "santi-patic", "score": 92553.19148936169, "slug": "mi-habilidad-nueva", "source": "clawhub", "stars": 0, "tags": null, "updated_at": 1776748369855, "version": "1.0.0"}, {"category": "security-compliance", "created_at": 1772784114444, "description": "Complete Reva wallet management - passwordless authentication, PayID name claiming, multi-chain crypto transfers to PayIDs or wallet addresses, balance track...", "description_zh": "", "downloads": 434, "homepage": "https://clawhub.ai/pax47/reva", "iconUrl": null, "installs": 8, "name": "Reva", "ownerName": "pax47", "score": 94800, "slug": "reva", "source": "clawhub", "stars": 2, "tags": null, "updated_at": 1776748371055, "version": "0.1.5"}, {"category": "developer-tools", "created_at": 1772786212475, "description": "Sell to AI agents with machine-readable products, agent-optimized APIs, structured pricing, and discovery strategies for the agentic economy.", "description_zh": "", "downloads": 434, "homepage": "https://clawhub.ai/ivangdavila/b2a", "iconUrl": null, "installs": 22, "name": "B2A", "ownerName": "ivangdavila", "score": 96146.04462474646, "slug": "b2a", "source": "clawhub", "stars": 2, "tags": null, "updated_at": 1776748370292, "version": "1.0.0"}, {"category": "productivity", "created_at": 1773284648429, "description": "Diagnose why a learner does not understand a topic, paper, concept, or explanation, then deliver blunt feedback plus an actionable improvement plan. Includes...", "description_zh": "", "downloads": 434, "homepage": "https://clawhub.ai/sii-k7/truth-tutor", "iconUrl": null, "installs": 39, "name": "Truth Tutor", "ownerName": "sii-k7", "score": 33211.411850768105, "slug": "truth-tutor", "source": "clawhub", "stars": 1, "tags": null, "updated_at": 1776759083706, "version": "1.0.9"}, {"category": "", "created_at": 1774902433102, "description": "Document to Markdown converter - convert DOCX, PPTX, Excel files to Markdown. Use when extracting content from Word documents, PowerPoint presentations, or E...", "description_zh": "", "downloads": 434, "homepage": "https://clawhub.ai/tanis90/pptx-to-markdown", "iconUrl": null, "installs": 205, "name": "Pptx To Markdown", "ownerName": "tanis90", "score": 15335.689045936397, "slug": "pptx-to-markdown", "source": "clawhub", "stars": 0, "tags": null, "updated_at": 1776769571213, "version": "1.0.0"}, {"category": "developer-tools", "created_at": 1772796678061, "description": "Multi-agent development team orchestration. Use when managing coding agents (Codex, Claude Code, Gemini, Cursor) for automated software development: (1) Spaw...", "description_zh": "", "downloads": 434, "homepage": "https://clawhub.ai/vintlin/team-dev", "iconUrl": null, "installs": 30, "name": "Dev Team", "ownerName": "vintlin", "score": 36348.40871021776, "slug": "team-dev", "source": "clawhub", "stars": 0, "tags": null, "updated_at": 1776765890437, "version": "0.1.4"}, {"category": "content-creation", "created_at": 1773078997337, "description": "Read and extract content from any web page using a real Chrome browser — including SPAs, JavaScript-rendered sites, and complex dynamic pages. Use when fetch...", "description_zh": "", "downloads": 434, "homepage": "https://clawhub.ai/dokobot/doko", "iconUrl": null, "installs": 22, "name": "Read, Search & Extract Web Pages by Dokobot", "ownerName": "dokobot", "score": 34065.93406593407, "slug": "doko", "source": "clawhub", "stars": 0, "tags": null, "updated_at": 1776759982682, "version": "1.5.0"}, {"category": "communication-collaboration", "created_at": 1772785250051, "description": "Whiss namespace for Netsnek e.U. real-time messaging and notification platform. Provides WebSocket-based chat, push notifications, and event-driven communica...", "description_zh": "", "downloads": 434, "homepage": "https://clawhub.ai/kleberbaum/whiss", "iconUrl": null, "installs": 10, "name": "whiss", "ownerName": "kleberbaum", "score": 19917.39329967875, "slug": "whiss", "source": "clawhub", "stars": 0, "tags": null, "updated_at": 1776759083843, "version": "0.1.0"}, {"category": "developer-tools", "created_at": 1772790515366, "description": "Generates concise meeting summaries highlighting key decisions, action items with owners, follow-up dates, and a brief 3-sentence overview.", "description_zh": "", "downloads": 434, "homepage": "https://clawhub.ai/claudiodrusus/shelly-meeting-summarizer", "iconUrl": null, "installs": 31, "name": "Meeting Notes Summarizer", "ownerName": "claudiodrusus", "score": 31517.79230210603, "slug": "shelly-meeting-summarizer", "source": "clawhub", "stars": 0, "tags": null, "updated_at": 1776759083001, "version": "1.0.0"}, {"category": "developer-tools", "created_at": 1772789927704, "description": "Python SDK for BSC enabling creation of AI-generated Meme tokens with stable minting and experimental token trading (buy/sell) features.", "description_zh": "", "downloads": 434, "homepage": "https://clawhub.ai/moonnfunofficial/moonfunsdk", "iconUrl": null, "installs": 7, "name": "moonfun_sdk", "ownerName": "moonnfunofficial", "score": 31794.871794871793, "slug": "moonfunsdk", "source": "clawhub", "stars": 0, "tags": null, "updated_at": 1776759082758, "version": "1.0.6"}, {"category": "ai-intelligence", "created_at": 1772786561274, "description": "Enforces the default shadcn/ui Neutral theme (black/white/gray) with OKLCH CSS variables, Tailwind v4 integration, and dark mode support", "description_zh": "", "downloads": 434, "homepage": "https://clawhub.ai/guifav/shadcn-theme-default", "iconUrl": null, "installs": 16, "name": "Shadcn Theme Default", "ownerName": "guifav", "score": 90794.9790794979, "slug": "shadcn-theme-default", "source": "clawhub", "stars": 0, "tags": null, "updated_at": 1776748371252, "version": "0.1.0"}, {"category": "developer-tools", "created_at": 1772792748021, "description": "Generate code that references actual documentation, preventing hallucination bugs. ALWAYS loads docs first, validates against API signatures, and verifies co...", "description_zh": "", "downloads": 434, "homepage": "https://clawhub.ai/tobisamaa/doc-accurate-codegen", "iconUrl": null, "installs": 9, "name": "Documentation-Accurate Code Generation", "ownerName": "tobisamaa", "score": 85433.07086614173, "slug": "doc-accurate-codegen", "source": "clawhub", "stars": 0, "tags": null, "updated_at": 1776748370639, "version": "1.0.0"}, {"category": "content-creation", "created_at": 1773040803922, "description": "Local Funda.nl HTTP gateway for listing details, search, and image previews", "description_zh": "", "downloads": 434, "homepage": "https://clawhub.ai/risboo6909/funda-gateway", "iconUrl": null, "installs": 32, "name": "Funda Listings Gateway", "ownerName": "risboo6909", "score": 88032.45436105477, "slug": "funda-gateway", "source": "clawhub", "stars": 0, "tags": null, "updated_at": 1776748370294, "version": "1.0.12"}, {"category": "productivity", "created_at": 1772785161516, "description": "Navigate Tokyo as visitor, resident, tech worker, student, or entrepreneur with neighborhoods, transport, costs, safety, culture, and local insights.", "description_zh": "", "downloads": 434, "homepage": "https://clawhub.ai/ivangdavila/tokyo", "iconUrl": null, "installs": 12, "name": "Tokyo", "ownerName": "ivangdavila", "score": 88032.45436105477, "slug": "tokyo", "source": "clawhub", "stars": 0, "tags": null, "updated_at": 1776748370285, "version": "1.0.0"}, {"category": "data-analysis", "created_at": 1772789835216, "description": "Food photo analysis and meal logging for ClawCoach. Send a photo of your meal and get instant macro breakdown via Claude Vision.", "description_zh": "", "downloads": 434, "homepage": "https://clawhub.ai/authoredniko/clawcoach-food", "iconUrl": null, "installs": 26, "name": "ClawCoach Food", "ownerName": "authoredniko", "score": 91949.15254237287, "slug": "clawcoach-food", "source": "clawhub", "stars": 0, "tags": ["calories", "food", "health", "macros", "meal-tracking", "nutrition", "photo", "vision"], "updated_at": 1776748369751, "version": "1.0.1"}, {"category": "content-creation", "created_at": 1772789412946, "description": "Decide whether OpenClaw should send a spontaneous casual message during periodic checks, and when it should, choose a natural interaction type plus concise g...", "description_zh": "", "downloads": 433, "homepage": "https://clawhub.ai/fjrevoredo/simple-random-interaction-designer", "iconUrl": null, "installs": 32, "name": "Simple Random Interaction Designer", "ownerName": "fjrevoredo", "score": 98953.97489539749, "slug": "simple-random-interaction-designer", "source": "clawhub", "stars": 2, "tags": null, "updated_at": 1776748371221, "version": "2.0.0"}, {"category": "developer-tools", "created_at": 1772803787751, "description": "botlearn — BotLearn social community SDK for AI agents to post, comment, vote, follow, DM, and join events; triggers when user mentions botlearn, community,...", "description_zh": "", "downloads": 433, "homepage": "https://clawhub.ai/calvinxhk/botlearn", "iconUrl": null, "installs": 15, "name": "botlearn", "ownerName": "calvinxhk", "score": 9326.74490426189, "slug": "botlearn", "source": "clawhub", "stars": 1, "tags": null, "updated_at": 1776763450016, "version": "1.0.8"}, {"category": "developer-tools", "created_at": 1772797321917, "description": "Fetches English Wikipedia's \"Did you know?\" (DYK) facts, caches them locally, and serves them one at a time. No API key required. Does not edit Wikipedia.", "description_zh": "", "downloads": 433, "homepage": "https://clawhub.ai/jonathandeamer/did-you-know", "iconUrl": null, "installs": 6, "name": "Did You Know", "ownerName": "jonathandeamer", "score": 78238.34196891192, "slug": "did-you-know", "source": "clawhub", "stars": 1, "tags": null, "updated_at": 1776759082799, "version": "0.2.2"}, {"category": "ai-intelligence", "created_at": 1772787907468, "description": "Transform natural language questions into SPARQL queries for DBpedia and generate beautiful HTML results pages. Query the DBpedia knowledge graph using plain...", "description_zh": "", "downloads": 433, "homepage": "https://clawhub.ai/kidehen/query-dbpedia", "iconUrl": null, "installs": 13, "name": "Query DBpedia using Natural Language", "ownerName": "kidehen", "score": 553.8217538115215, "slug": "query-dbpedia", "source": "clawhub", "stars": 0, "tags": null, "updated_at": 1776770650119, "version": "1.0.0"}, {"category": "communication-collaboration", "created_at": 1772789243319, "description": "Automates CRM login, extracts business data and HTML source, and generates structured data reports from CRM pages using Python.", "description_zh": "", "downloads": 433, "homepage": "https://clawhub.ai/pandasun/qinglong-crm-extractor", "iconUrl": null, "installs": 17, "name": "Qinglong Crm Extractor", "ownerName": "pandasun", "score": 24560.40839478162, "slug": "qinglong-crm-extractor", "source": "clawhub", "stars": 0, "tags": null, "updated_at": 1776768550064, "version": "1.0.3"}, {"category": "developer-tools", "created_at": 1772794753948, "description": "Build, test, and automate APIs with Postman collections, environments, and Newman CLI.", "description_zh": "", "downloads": 433, "homepage": "https://clawhub.ai/ivangdavila/postman", "iconUrl": null, "installs": 21, "name": "Postman", "ownerName": "ivangdavila", "score": 74526.67814113597, "slug": "postman", "source": "clawhub", "stars": 0, "tags": null, "updated_at": 1776759683605, "version": "1.0.0"}, {"category": "productivity", "created_at": 1772790696786, "description": "Enables secure remote access to a browser on your server for manual tasks like logins, 2FA, and captchas via a protected URL.", "description_zh": "", "downloads": 433, "homepage": "https://clawhub.ai/felipegoulu/passo", "iconUrl": null, "installs": 21, "name": "Passo - Remote Browser Access", "ownerName": "felipegoulu", "score": 31605.839416058396, "slug": "passo", "source": "clawhub", "stars": 0, "tags": ["2fa", "browser", "captcha", "login", "remote", "vnc"], "updated_at": 1776759083187, "version": "1.0.0"}, {"category": "developer-tools", "created_at": 1772794877908, "description": "Search and execute dynamic tools via QVeris API. Use when needing to find and call external APIs/tools dynamically — covers weather, search, stocks, finance,...", "description_zh": "", "downloads": 433, "homepage": "https://clawhub.ai/pippo1980/qverisai-1-0-1", "iconUrl": null, "installs": 67, "name": "Qverisai 1.0.1", "ownerName": "pippo1980", "score": 31605.839416058396, "slug": "qverisai-1-0-1", "source": "clawhub", "stars": 0, "tags": null, "updated_at": 1776759083050, "version": "1.0.0"}, {"category": "productivity", "created_at": 1772787068678, "description": "Provides canonical information, trusted references, and market data links for the PORTAL token.", "description_zh": "", "downloads": 433, "homepage": "https://clawhub.ai/portaljeff/portal-token-discovery", "iconUrl": null, "installs": 15, "name": "Portal Token Discovery", "ownerName": "portaljeff", "score": 31721.61172161172, "slug": "portal-token-discovery", "source": "clawhub", "stars": 0, "tags": null, "updated_at": 1776759082776, "version": "1.0.0"}, {"category": "developer-tools", "created_at": 1772788999319, "description": "Generate professional business cards using each::sense AI. Create corporate, creative, minimalist, luxury, and specialty business cards optimized for print a...", "description_zh": "", "downloads": 433, "homepage": "https://clawhub.ai/eftalyurtseven/business-card-generation", "iconUrl": null, "installs": 16, "name": "Business Card Generation", "ownerName": "eftalyurtseven", "score": 88187.37270875764, "slug": "business-card-generation", "source": "clawhub", "stars": 0, "tags": null, "updated_at": 1776748371120, "version": "1.0.0"}, {"category": "data-analysis", "created_at": 1772790379257, "description": "Read current values from Grafana dashboards without knowing the underlying queries. Use when: asked about values visible in a Grafana dashboard (sensor readi...", "description_zh": "", "downloads": 433, "homepage": "https://clawhub.ai/darkstards9/rpe-grafana", "iconUrl": null, "installs": 11, "name": "rpe-grafana", "ownerName": "darkstards9", "score": 88367.34693877552, "slug": "rpe-grafana", "source": "clawhub", "stars": 0, "tags": null, "updated_at": 1776748370922, "version": "1.0.2"}, {"category": "ai-intelligence", "created_at": 1772782718360, "description": "Expose the Teller delta-neutral + lending Model Context Protocol server. Use this when you need to install, run, or update the Tellermcp MCP backend so agent...", "description_zh": "", "downloads": 433, "homepage": "https://clawhub.ai/rbcp18/teller-borrow-agents", "iconUrl": null, "installs": 1, "name": "Teller MCP – Borrow USDC & Altcoins (no margin calls)", "ownerName": "rbcp18", "score": 85236.22047244095, "slug": "teller-borrow-agents", "source": "clawhub", "stars": 0, "tags": null, "updated_at": 1776748370626, "version": "0.2.3"}, {"category": "developer-tools", "created_at": 1773416887397, "description": "XtQuant Python SDK for QMT/miniQMT — market data (xtdata) and trading (xttrade) interface for Chinese securities.", "description_zh": "", "downloads": 433, "homepage": "https://clawhub.ai/coderwpf/xtquant", "iconUrl": null, "installs": 137, "name": "xtquant", "ownerName": "coderwpf", "score": 90208.33333333333, "slug": "xtquant", "source": "clawhub", "stars": 0, "tags": null, "updated_at": 1776748370191, "version": "1.0.0"}, {"category": "ai-intelligence", "created_at": 1772785718266, "description": "Israeli grocery shopping and price-comparison assistant over Salai MCP. Use when you need product search, autocomplete, cross-retailer price comparison, cart...", "description_zh": "", "downloads": 433, "homepage": "https://clawhub.ai/idoziv/salai-mcp", "iconUrl": null, "installs": 13, "name": "Salai MCP (Beta)", "ownerName": "idoziv", "score": 88187.37270875764, "slug": "salai-mcp", "source": "clawhub", "stars": 0, "tags": ["beta", "cart", "grocery", "israel", "mcp", "price-comparison"], "updated_at": 1776748369650, "version": "0.0.4"}, {"category": "communication-collaboration", "created_at": 1772784207476, "description": "PyQt5-based GUI chat window for LLM conversations with streaming responses and stop functionality. Use when working with pywayne.llm.chat_window module to cr...", "description_zh": "", "downloads": 433, "homepage": "https://clawhub.ai/wangyendt/chat-window", "iconUrl": null, "installs": 13, "name": "Pywayne Llm Chat Window", "ownerName": "wangyendt", "score": 90775.68134171907, "slug": "chat-window", "source": "clawhub", "stars": 0, "tags": null, "updated_at": 1776748369539, "version": "0.1.0"}, {"category": "content-creation", "created_at": 1772794208653, "description": "Designs UE5.7 multiplayer-friendly game pieces (Blueprint node chains, data schemas, asset naming, and test checklists). Text-only, no scripts.", "description_zh": "", "downloads": 432, "homepage": "https://clawhub.ai/jdqconsulting/ue57-gamepiece-designer", "iconUrl": null, "installs": 60, "name": "UE5.7 Gamepiece Designer", "ownerName": "jdqconsulting", "score": 34578.754578754575, "slug": "ue57-gamepiece-designer", "source": "clawhub", "stars": 2, "tags": ["blueprint", "gamedesign", "multiplayer", "ue5", "unreal"], "updated_at": 1776759082865, "version": "0.1.0"}, {"category": "data-analysis", "created_at": 1773057431836, "description": "Usage-based billing for OpenClaw and ClawHub agents with Drip run, event, and usage telemetry. Use when you need request-level traceability, OpenClaw identit...", "description_zh": "", "downloads": 432, "homepage": "https://clawhub.ai/lucas-309/drip-openclaw-billing", "iconUrl": null, "installs": 7, "name": "Drip OpenClaw Billing", "ownerName": "lucas-309", "score": 100000, "slug": "drip-openclaw-billing", "source": "clawhub", "stars": 2, "tags": null, "updated_at": 1776748369762, "version": "1.0.10"}, {"category": "content-creation", "created_at": 1772790658865, "description": "Automated daily news video downloader with AI subtitle proofreading. Downloads CBS Evening News and BBC News at Ten from YouTube, extracts and proofreads sub...", "description_zh": "", "downloads": 432, "homepage": "https://clawhub.ai/cyberpsychosissss/video-news-downloader", "iconUrl": null, "installs": 34, "name": "Video News Downloader", "ownerName": "cyberpsychosissss", "score": 93388.42975206612, "slug": "video-news-downloader", "source": "clawhub", "stars": 1, "tags": ["automation", "bbc", "cbs", "cron", "news", "subtitles", "video", "youtube"], "updated_at": 1776748369899, "version": "1.0.0"}, {"category": "content-creation", "created_at": 1772790368489, "description": "Generate NEAR-focused content (threads, market updates, ecosystem news, tutorials).", "description_zh": "", "downloads": 432, "homepage": "https://clawhub.ai/mastrophot/near-content-creator", "iconUrl": null, "installs": 62, "name": "NEAR Content Creator", "ownerName": "mastrophot", "score": 1329.8036077079357, "slug": "near-content-creator", "source": "clawhub", "stars": 0, "tags": ["content", "near"], "updated_at": 1776770649948, "version": "0.1.0"}, {"category": "ai-intelligence", "created_at": 1772796008788, "description": "Enhanced terminal AI agent orchestrator with parallel execution, health checks, and workflow presets.", "description_zh": "", "downloads": 432, "homepage": "https://clawhub.ai/qriiz112/acpx-orchestrator", "iconUrl": null, "installs": 20, "name": "ACP Orchestrator", "ownerName": "qriiz112", "score": 6554.392353208921, "slug": "acpx-orchestrator", "source": "clawhub", "stars": 0, "tags": null, "updated_at": 1776769150158, "version": "4.0.1"}]}