{"page": 199, "total_pages": 522, "total": 26073, "skills": [{"category": "content-creation", "created_at": 1773910124721, "description": "Send user prompts to local ComfyUI at http://127.0.0.1:8188 using workflow.json to generate images.", "description_zh": "", "downloads": 432, "homepage": "https://clawhub.ai/edward-hsiao/comfy-skill", "iconUrl": null, "installs": 38, "name": "Comfy Skill", "ownerName": "edward-hsiao", "score": 20121.099208197484, "slug": "comfy-skill", "source": "clawhub", "stars": 0, "tags": null, "updated_at": 1776769149726, "version": "1.0.0"}, {"category": "communication-collaboration", "created_at": 1772801023894, "description": "Send Telegram direct message alerts for trade entry, exit, and self-heal events with rate limiting and customizable templates.", "description_zh": "", "downloads": 432, "homepage": "https://clawhub.ai/motivationationdaily/telegram-notify", "iconUrl": null, "installs": 18, "name": "Telegram Notify", "ownerName": "motivationationdaily", "score": 31441.048034934498, "slug": "telegram-notify", "source": "clawhub", "stars": 0, "tags": null, "updated_at": 1776759083645, "version": "1.0.0"}, {"category": "content-creation", "created_at": 1772803103223, "description": "Search and retrieve memory content using MemOS API based on user queries, supporting up to top 3 relevant results.", "description_zh": "", "downloads": 432, "homepage": "https://clawhub.ai/hope7709/memos-search", "iconUrl": null, "installs": 48, "name": "Memos Search", "ownerName": "hope7709", "score": 76460.17699115044, "slug": "memos-search", "source": "clawhub", "stars": 0, "tags": null, "updated_at": 1776759083600, "version": "1.0.0"}, {"category": "communication-collaboration", "created_at": 1772797645127, "description": "Automatically read and summarize Feishu/Lark docx or wiki links in chat using the user's fixed summary schema from MEMORY.md.", "description_zh": "", "downloads": 432, "homepage": "https://clawhub.ai/victor-thu/feishu-doc-summarizer", "iconUrl": null, "installs": 59, "name": "Feishu Doc Summarizer", "ownerName": "victor-thu", "score": 31349.78229317852, "slug": "feishu-doc-summarizer", "source": "clawhub", "stars": 0, "tags": null, "updated_at": 1776759083309, "version": "0.1.1"}, {"category": "security-compliance", "created_at": 1772789674329, "description": "Build, deploy, and scale production-grade FastAPI apps with async, type-safe design, structured errors, JWT auth, async ORM, auto docs, tests, and observabil...", "description_zh": "", "downloads": 432, "homepage": "https://clawhub.ai/1kalin/afrexai-fastapi-production", "iconUrl": null, "installs": 17, "name": "FastAPI Production Engineering", "ownerName": "1kalin", "score": 31648.351648351647, "slug": "afrexai-fastapi-production", "source": "clawhub", "stars": 0, "tags": ["api", "async", "fastapi", "production", "python"], "updated_at": 1776759082643, "version": "1.0.0"}, {"category": "communication-collaboration", "created_at": 1772787350926, "description": "Create and manage a persistent agent-only email inbox with full send/receive, semantic search, tagging, webhooks, and AI-powered structured data extraction.", "description_zh": "", "downloads": 432, "homepage": "https://clawhub.ai/shanjairaj7/commune", "iconUrl": null, "installs": 14, "name": "Commune — Agent Email Inbox", "ownerName": "shanjairaj7", "score": 31881.91881918819, "slug": "commune", "source": "clawhub", "stars": 0, "tags": ["agent", "api", "email", "inbox"], "updated_at": 1776759082513, "version": "1.0.1"}, {"category": "productivity", "created_at": 1772791353190, "description": "Automate Windows system tasks by generating and running a single JavaScript file using Microsoft JsRT with COM objects and fallback support.", "description_zh": "", "downloads": 432, "homepage": "https://clawhub.ai/gnh1201/jsrt-claw", "iconUrl": null, "installs": 22, "name": "Jsrt Claw", "ownerName": "gnh1201", "score": 31741.36664217487, "slug": "jsrt-claw", "source": "clawhub", "stars": 0, "tags": null, "updated_at": 1776759082158, "version": "0.1.0"}, {"category": "productivity", "created_at": 1772790164397, "description": "High-performance local speech-to-text transcription using Faster Whisper with NVIDIA GPU acceleration. Transcribe audio files locally without sending data to...", "description_zh": "", "downloads": 432, "homepage": "https://clawhub.ai/felipeoff/faster-whisper-gpu", "iconUrl": null, "installs": 29, "name": "Faster Whisper Gpu", "ownerName": "felipeoff", "score": 90376.56903765691, "slug": "faster-whisper-gpu", "source": "clawhub", "stars": 0, "tags": null, "updated_at": 1776748371302, "version": "0.1.0"}, {"category": "data-analysis", "created_at": 1772789313914, "description": "Setup and use anonymous email accounts on LNemail.net using Bitcoin Lightning payments. Use when agents need email capabilities for 2FA, notifications, or co...", "description_zh": "", "downloads": 432, "homepage": "https://clawhub.ai/lnemail/lnemail", "iconUrl": null, "installs": 15, "name": "LNemail", "ownerName": "lnemail", "score": 90376.56903765691, "slug": "lnemail", "source": "clawhub", "stars": 0, "tags": null, "updated_at": 1776748371230, "version": "1.0.1"}, {"category": "communication-collaboration", "created_at": 1772784446100, "description": "LLM chat interface using OpenAI-compatible APIs with streaming support and session management. Use when working with pywayne.llm.chat_bot module for creating...", "description_zh": "", "downloads": 432, "homepage": "https://clawhub.ai/wangyendt/chat-bot", "iconUrl": null, "installs": 11, "name": "Pywayne Llm Chat Bot", "ownerName": "wangyendt", "score": 88163.26530612246, "slug": "chat-bot", "source": "clawhub", "stars": 0, "tags": null, "updated_at": 1776748370779, "version": "0.1.0"}, {"category": "ai-intelligence", "created_at": 1772787022781, "description": "Detect and fix TypeScript error handling anti-patterns with state persistence and approval workflows. Use when scanning a codebase for silent error failures,...", "description_zh": "", "downloads": 432, "homepage": "https://clawhub.ai/glucksberg/anti-pattern-czar", "iconUrl": null, "installs": 17, "name": "Anti-Pattern Czar", "ownerName": "glucksberg", "score": 88163.26530612246, "slug": "anti-pattern-czar", "source": "clawhub", "stars": 0, "tags": null, "updated_at": 1776748370716, "version": "1.0.0"}, {"category": "productivity", "created_at": 1772784148775, "description": "Gina namespace for Netsnek e.U. personal assistant and scheduling framework", "description_zh": "", "downloads": 432, "homepage": "https://clawhub.ai/kleberbaum/gina", "iconUrl": null, "installs": 10, "name": "gina", "ownerName": "kleberbaum", "score": 87626.77484787018, "slug": "gina", "source": "clawhub", "stars": 0, "tags": null, "updated_at": 1776748370278, "version": "0.1.0"}, {"category": "developer-tools", "created_at": 1772803809706, "description": "Ethereum & EVM blockchain CLI skill — sign messages, send tokens, swap via 1inch Fusion, check balances, broadcast transactions, and manage wallets across Et...", "description_zh": "", "downloads": 432, "homepage": "https://clawhub.ai/kvhnuke/chainai", "iconUrl": null, "installs": 10, "name": "ChainAI", "ownerName": "kvhnuke", "score": 87626.77484787018, "slug": "chainai", "source": "clawhub", "stars": 0, "tags": null, "updated_at": 1776748370253, "version": "0.0.12"}, {"category": "productivity", "created_at": 1772795941851, "description": "Intelligently splits long academic or technical documents into chapters, generates structured JSON summaries for each, and creates a file system with a globa...", "description_zh": "", "downloads": 432, "homepage": "https://clawhub.ai/mrchenkuan/large-document-reader", "iconUrl": null, "installs": 52, "name": "large-document-reader", "ownerName": "mrchenkuan", "score": 89256.19834710743, "slug": "large-document-reader", "source": "clawhub", "stars": 0, "tags": null, "updated_at": 1776748369934, "version": "1.0.2"}, {"category": "data-analysis", "created_at": 1772789884477, "description": "Helps map the composite permission surface across AI agent skill dependency chains. Traces what each skill can do individually, then computes what they can d...", "description_zh": "", "downloads": 432, "homepage": "https://clawhub.ai/andyxinweiminicloud/capability-graph-mapper", "iconUrl": null, "installs": 22, "name": "Capability Graph Mapper", "ownerName": "andyxinweiminicloud", "score": 85039.37007874016, "slug": "capability-graph-mapper", "source": "clawhub", "stars": 0, "tags": null, "updated_at": 1776748369580, "version": "1.0.0"}, {"category": "data-analysis", "created_at": 1772785087750, "description": "Find, compare, and organize mobile apps with personalized recommendations and preference tracking.", "description_zh": "", "downloads": 431, "homepage": "https://clawhub.ai/ivangdavila/apps", "iconUrl": null, "installs": 15, "name": "Apps", "ownerName": "ivangdavila", "score": 97920.99792099792, "slug": "apps", "source": "clawhub", "stars": 2, "tags": null, "updated_at": 1776751483943, "version": "1.0.0"}, {"category": "data-analysis", "created_at": 1772796802056, "description": "Extracts and analyzes Cursor IDE chat history to identify key discoveries, obstacles, and solutions, saving findings to the journal.", "description_zh": "", "downloads": 431, "homepage": "https://clawhub.ai/runeweaverstudios/chat-history-analyzer", "iconUrl": null, "installs": 14, "name": "Chat History Analyzer", "ownerName": "runeweaverstudios", "score": 91853.36048879837, "slug": "chat-history-analyzer", "source": "clawhub", "stars": 1, "tags": null, "updated_at": 1776748369667, "version": "1.0.5"}, {"category": "developer-tools", "created_at": 1773423547544, "description": "Cross-platform mouse/keyboard automation skill. Supports mouse control (move/click/drag/scroll), keyboard control (key press/hotkeys/type text), screen opera...", "description_zh": "", "downloads": 431, "homepage": "https://clawhub.ai/ikaros-521/pyautogui", "iconUrl": null, "installs": 89, "name": "pyautogui", "ownerName": "ikaros-521", "score": 4488.180776840571, "slug": "pyautogui", "source": "clawhub", "stars": 0, "tags": null, "updated_at": 1776767471045, "version": "1.2.0"}, {"category": "productivity", "created_at": 1773089891506, "description": "Read, extract text and metadata, and convert documents in formats like PDF, DOCX, XLSX, PPTX, EPUB, RTF, and OpenDocument.", "description_zh": "", "downloads": 431, "homepage": "https://clawhub.ai/neckr0ik/document-handler", "iconUrl": null, "installs": 117, "name": "Document Handler", "ownerName": "neckr0ik", "score": 8815.708733892412, "slug": "document-handler", "source": "clawhub", "stars": 0, "tags": null, "updated_at": 1776763750539, "version": "1.0.0"}, {"category": "productivity", "created_at": 1772786243805, "description": "Trade 10-second crypto prediction markets on PredictMe", "description_zh": "", "downloads": 431, "homepage": "https://clawhub.ai/davidpolotm/mi-analista", "iconUrl": null, "installs": 8, "name": "Mi Analista", "ownerName": "davidpolotm", "score": 31345.454545454544, "slug": "mi-analista", "source": "clawhub", "stars": 0, "tags": null, "updated_at": 1776759083360, "version": "1.0.0"}, {"category": "content-creation", "created_at": 1772786893263, "description": "Jaen namespace for Netsnek e.U. CMS framework. This skill represents the Jaen brand, a Gatsby-based content management system for building dynamic websites w...", "description_zh": "", "downloads": 431, "homepage": "https://clawhub.ai/kleberbaum/jaen", "iconUrl": null, "installs": 27, "name": "jaen", "ownerName": "kleberbaum", "score": 74956.52173913043, "slug": "jaen", "source": "clawhub", "stars": 0, "tags": null, "updated_at": 1776759082910, "version": "0.1.0"}, {"category": "data-analysis", "created_at": 1773076392780, "description": "Analyzes Bilibili academic/educational videos to extract knowledge points and generate clean-style study notes with screenshots. Use this skill when users pr...", "description_zh": "", "downloads": 431, "homepage": "https://clawhub.ai/railgun9983/bilibili-video-analyzer", "iconUrl": null, "installs": 99, "name": "bilibili-video-analyzer", "ownerName": "railgun9983", "score": 26344.743276283618, "slug": "bilibili-video-analyzer", "source": "clawhub", "stars": 0, "tags": null, "updated_at": 1776756982121, "version": "1.0.0"}, {"category": "productivity", "created_at": 1773222024953, "description": "Multi search engine integration with 17 engines (8 CN + 9 Global). Supports advanced search operators, time filters, site search, privacy engines, and Wolfra...", "description_zh": "", "downloads": 431, "homepage": "https://clawhub.ai/cp33333333333/multi-search-engine1", "iconUrl": null, "installs": 63, "name": "multi-search-engine", "ownerName": "cp33333333333", "score": 25472.813238770686, "slug": "multi-search-engine1", "source": "clawhub", "stars": 0, "tags": null, "updated_at": 1776756188409, "version": "1.0.0"}, {"category": "developer-tools", "created_at": 1773076958095, "description": "Install, configure, validate, and run the news-fetcher Python CLI for aggregating RSS/Atom and HTML news sources with deduplication, clustering, ranking, sou...", "description_zh": "", "downloads": 431, "homepage": "https://clawhub.ai/miniade/news-fetcher", "iconUrl": null, "installs": 4, "name": ".Publish Temp", "ownerName": "miniade", "score": 87959.1836734694, "slug": "news-fetcher", "source": "clawhub", "stars": 0, "tags": ["aggregation", "clustering", "news", "rss", "summarization"], "updated_at": 1776748370970, "version": "0.1.6"}, {"category": "ai-intelligence", "created_at": 1772786606953, "description": "Handle tool failures under pressure with bounded retries, clean user communication, and safe escalation. Use when commands/tools fail, when repeated retries...", "description_zh": "", "downloads": 431, "homepage": "https://clawhub.ai/noelistired/anti-panic-protocol", "iconUrl": null, "installs": 17, "name": "Anti Panic Protocol", "ownerName": "noelistired", "score": 87423.93509127789, "slug": "anti-panic-protocol", "source": "clawhub", "stars": 0, "tags": null, "updated_at": 1776748370906, "version": "0.1.1"}, {"category": "ai-intelligence", "created_at": 1773073145688, "description": "고려대학교 KUPID 포털 조회. 공지사항, 학사일정, 장학공지, 도서관 좌석, 시간표, 수강과목, LMS 연동. (SonAIengine/ku-portal-mcp 기반)", "description_zh": "", "downloads": 431, "homepage": "https://clawhub.ai/garibong-labs/ku-portal", "iconUrl": null, "installs": 6, "name": "KU Portal", "ownerName": "garibong-labs", "score": 90546.21848739496, "slug": "ku-portal", "source": "clawhub", "stars": 0, "tags": null, "updated_at": 1776748370591, "version": "0.3.0"}, {"category": "productivity", "created_at": 1772787935230, "description": "Watch-me-once workflow learning. Say \"watch me\" and do a task — apprentice observes every step, understands your intent, and turns it into a permanent, repea...", "description_zh": "", "downloads": 431, "homepage": "https://clawhub.ai/taha2053/apprentice", "iconUrl": null, "installs": 10, "name": "Apprentice", "ownerName": "taha2053", "score": 88683.12757201646, "slug": "apprentice", "source": "clawhub", "stars": 0, "tags": null, "updated_at": 1776748370479, "version": "1.0.0"}, {"category": "productivity", "created_at": 1772787136964, "description": "Track fishing spots, gear, catches, and conditions with personalized recommendations.", "description_zh": "", "downloads": 431, "homepage": "https://clawhub.ai/ivangdavila/fishing", "iconUrl": null, "installs": 13, "name": "Fishing", "ownerName": "ivangdavila", "score": 87423.93509127789, "slug": "fishing", "source": "clawhub", "stars": 0, "tags": null, "updated_at": 1776748370276, "version": "1.0.0"}, {"category": "content-creation", "created_at": 1772790452635, "description": "Index YouTube channel videos and transcripts for semantic search. Use when user says \"index YouTube\", \"add YouTube channel\", \"update video index\", or \"index...", "description_zh": "", "downloads": 431, "homepage": "https://clawhub.ai/fortunto2/solo-index-youtube", "iconUrl": null, "installs": 33, "name": "Index Youtube", "ownerName": "fortunto2", "score": 84675.83497053046, "slug": "solo-index-youtube", "source": "clawhub", "stars": 0, "tags": null, "updated_at": 1776748370145, "version": "2.0.0"}, {"category": "productivity", "created_at": 1772784902106, "description": "Query Dutch field hockey match schedules and results from KNHB Match Center (hockeyweerelt.nl). Use when looking up hockey clubs, teams, upcoming matches, or...", "description_zh": "", "downloads": 431, "homepage": "https://clawhub.ai/tader/knhm-match-center", "iconUrl": null, "installs": 8, "name": "KNHB Match Center", "ownerName": "tader", "score": 84675.83497053046, "slug": "knhm-match-center", "source": "clawhub", "stars": 0, "tags": null, "updated_at": 1776748370107, "version": "1.0.0"}, {"category": "developer-tools", "created_at": 1772785963771, "description": "Static 3D visualization utilities wrapping Rerun SDK for adding point clouds, trajectories, cameras, planes, and chessboards. Use when visualizing 3D data in...", "description_zh": "", "downloads": 431, "homepage": "https://clawhub.ai/wangyendt/rerun-utils", "iconUrl": null, "installs": 23, "name": "Pywayne Visualization Rerun Utils", "ownerName": "wangyendt", "score": 91313.55932203389, "slug": "rerun-utils", "source": "clawhub", "stars": 0, "tags": null, "updated_at": 1776748369768, "version": "0.1.0"}, {"category": "communication-collaboration", "created_at": 1772796726831, "description": "Bootstrap and manage an open, file-based CRM using the CRM-in-a-Box protocol (contacts, pipeline, interactions as NDJSON). Use when setting up a new CRM for...", "description_zh": "", "downloads": 431, "homepage": "https://clawhub.ai/taylorhou/crm-in-a-box", "iconUrl": null, "installs": 12, "name": "CRM-in-a-Box", "ownerName": "taylorhou", "score": 84842.51968503937, "slug": "crm-in-a-box", "source": "clawhub", "stars": 0, "tags": null, "updated_at": 1776748369600, "version": "0.1.0"}, {"category": "developer-tools", "created_at": 1772788554428, "description": "Empowers AI agents with crypto resource vitality assessment. Calls the Majestify API (crypto-health-hub) to compute Sharpe, Sortino, VaR, CVaR, drawdown, and...", "description_zh": "", "downloads": 430, "homepage": "https://clawhub.ai/majestyatenkhu/immortal", "iconUrl": null, "installs": 8, "name": "Immortal", "ownerName": "majestyatenkhu", "score": 96114.51942740286, "slug": "immortal", "source": "clawhub", "stars": 2, "tags": ["latest  crypto-risk    resource-management   vitality-assessment   agent-intelligence"], "updated_at": 1776748371353, "version": "1.0.0"}, {"category": "security-compliance", "created_at": 1772789955158, "description": "Fetch and process paid inbound messages from Moltgate using the REST API.", "description_zh": "", "downloads": 430, "homepage": "https://clawhub.ai/florianbansac/moltgate", "iconUrl": null, "installs": 11, "name": "Moltgate", "ownerName": "florianbansac", "score": 100000, "slug": "moltgate", "source": "clawhub", "stars": 2, "tags": ["contact", "inbox", "message", "openclaw", "security"], "updated_at": 1776748369837, "version": "0.2.1"}, {"category": "data-analysis", "created_at": 1773042149466, "description": "Document intelligence: categorize, autofill forms, analyze contracts, scan receipts/invoices, analyze bank statements, parse resumes/CVs, scan IDs/passports...", "description_zh": "", "downloads": 430, "homepage": "https://clawhub.ai/piyush-zinc/doc-process", "iconUrl": null, "installs": 45, "name": "Doc Process", "ownerName": "piyush-zinc", "score": 95338.98305084746, "slug": "doc-process", "source": "clawhub", "stars": 1, "tags": null, "updated_at": 1776748369754, "version": "4.1.1"}, {"category": "developer-tools", "created_at": 1772788572952, "description": "Display a message in a speech bubble spoken by an ASCII lobster.", "description_zh": "", "downloads": 430, "homepage": "https://clawhub.ai/tjade273/clawsay-0", "iconUrl": null, "installs": 6, "name": "clawsay", "ownerName": "tjade273", "score": 31363.967906637492, "slug": "clawsay-0", "source": "clawhub", "stars": 0, "tags": null, "updated_at": 1776759082660, "version": "1.0.0"}, {"category": "productivity", "created_at": 1772790806001, "description": "Generate YAML spell mapping files for OpenClaw Spellbook themed by a topic or URL, using dynamic spell-list discovery and heuristic fallback.", "description_zh": "", "downloads": 430, "homepage": "https://clawhub.ai/wynnsu/magic-quill", "iconUrl": null, "installs": 12, "name": "Magic Quill", "ownerName": "wynnsu", "score": 31594.415870683322, "slug": "magic-quill", "source": "clawhub", "stars": 0, "tags": ["dnd", "generator", "harry-potter", "spellbook", "theme"], "updated_at": 1776759082193, "version": "1.0.0"}, {"category": "content-creation", "created_at": 1772790966413, "description": "Local offline text-to-speech via Piper TTS. Self-contained setup, automatic language detection, per-call voice selection. Extensible to any language. Writes...", "description_zh": "", "downloads": 430, "homepage": "https://clawhub.ai/szafranski/local-piper-tts-multilang-secure", "iconUrl": null, "installs": 36, "name": "Truly Local Piper Multilang TTS (secure)", "ownerName": "szafranski", "score": 26315.78947368421, "slug": "local-piper-tts-multilang-secure", "source": "clawhub", "stars": 0, "tags": null, "updated_at": 1776756982774, "version": "1.1.0"}, {"category": "developer-tools", "created_at": 1772793873503, "description": "Run Alibaba Cloud Qwen Code CLI via background process for task execution, code review, and automation.", "description_zh": "", "downloads": 430, "homepage": "https://clawhub.ai/userb1ank/qwen-code-skill", "iconUrl": null, "installs": 31, "name": "Qwen Code", "ownerName": "userb1ank", "score": 75174.82517482518, "slug": "qwen-code-skill", "source": "clawhub", "stars": 0, "tags": null, "updated_at": 1776755288570, "version": "1.2.0"}, {"category": "productivity", "created_at": 1772784299371, "description": "Master any inbox with triage frameworks, cognitive load reduction, and multi-channel prioritization.", "description_zh": "", "downloads": 430, "homepage": "https://clawhub.ai/ivangdavila/inbox", "iconUrl": null, "installs": 8, "name": "Inbox", "ownerName": "ivangdavila", "score": 76923.07692307692, "slug": "inbox", "source": "clawhub", "stars": 0, "tags": null, "updated_at": 1776751669834, "version": "1.0.0"}, {"category": "productivity", "created_at": 1773284385095, "description": "Generate publication-quality academic diagrams from paper methodology text", "description_zh": "", "downloads": 430, "homepage": "https://clawhub.ai/dwzhu-pku/paperbanana", "iconUrl": null, "installs": 93, "name": "PaperBanana", "ownerName": "dwzhu-pku", "score": 76923.07692307692, "slug": "paperbanana", "source": "clawhub", "stars": 0, "tags": null, "updated_at": 1776751572030, "version": "0.1.0"}, {"category": "security-compliance", "created_at": 1772792079556, "description": "Security audit engine for OpenClaw configurations. Detects vulnerabilities, misconfigurations, secret leaks, and over-privileged agents. Use when the user as...", "description_zh": "", "downloads": 430, "homepage": "https://clawhub.ai/laurentaia/ai-shield-audit", "iconUrl": null, "installs": 17, "name": "AI Shield — OpenClaw Security Audit", "ownerName": "laurentaia", "score": 87755.10204081633, "slug": "ai-shield-audit", "source": "clawhub", "stars": 0, "tags": null, "updated_at": 1776748370928, "version": "1.0.0"}, {"category": "security-compliance", "created_at": 1772784898059, "description": "Engage in conversations with Nomi AI companions via the bundled Python CLI.", "description_zh": "", "downloads": 430, "homepage": "https://clawhub.ai/bezko/klausnomi", "iconUrl": null, "installs": 8, "name": "KlausNomi", "ownerName": "bezko", "score": 87755.10204081633, "slug": "klausnomi", "source": "clawhub", "stars": 0, "tags": ["chat", "nomi", "python", "security"], "updated_at": 1776748370736, "version": "2.0.3"}, {"category": "ai-intelligence", "created_at": 1772787726926, "description": "Post trading signals to Clawnalyst leaderboard, track agent performance, earn USDC subscriptions. Covers memecoin calls, perps, and Polymarket predictions.", "description_zh": "", "downloads": 430, "homepage": "https://clawhub.ai/satoreth/clawnalyst", "iconUrl": null, "installs": 11, "name": "Clawnalyst", "ownerName": "satoreth", "score": 84479.37131630648, "slug": "clawnalyst", "source": "clawhub", "stars": 0, "tags": null, "updated_at": 1776748370112, "version": "1.0.0"}, {"category": "developer-tools", "created_at": 1772787485064, "description": "Set up PostHog metrics plan with event funnel, KPI benchmarks, and kill/iterate/scale decision thresholds. Use when user says \"set up metrics\", \"track KPIs\",...", "description_zh": "", "downloads": 430, "homepage": "https://clawhub.ai/fortunto2/solo-metrics-track", "iconUrl": null, "installs": 11, "name": "Metrics Track", "ownerName": "fortunto2", "score": 91489.36170212766, "slug": "solo-metrics-track", "source": "clawhub", "stars": 0, "tags": null, "updated_at": 1776748369860, "version": "1.1.1"}, {"category": "security-compliance", "created_at": 1772783333337, "description": "Audit an OpenClaw agent workspace and generate standardized evaluation reports, scores, and patches. Use when asked to review memory quality, retrieval effic...", "description_zh": "", "downloads": 430, "homepage": "https://clawhub.ai/theylon/clawditor", "iconUrl": null, "installs": 9, "name": "Clawditor", "ownerName": "theylon", "score": 91489.36170212766, "slug": "clawditor", "source": "clawhub", "stars": 0, "tags": null, "updated_at": 1776748369818, "version": "1.0.0"}, {"category": "security-compliance", "created_at": 1772789612212, "description": "Helps audit Agent Card signing practices in A2A protocol implementations. Identifies missing signatures, weak signing schemes, and revocation gaps that allow...", "description_zh": "", "downloads": 430, "homepage": "https://clawhub.ai/andyxinweiminicloud/agent-card-signing-auditor", "iconUrl": null, "installs": 7, "name": "agent-card-signing-auditor", "ownerName": "andyxinweiminicloud", "score": 91101.69491525424, "slug": "agent-card-signing-auditor", "source": "clawhub", "stars": 0, "tags": null, "updated_at": 1776748369771, "version": "1.0.0"}, {"category": "productivity", "created_at": 1772790360572, "description": "Jarvis TTS text-to-speech using Microsoft edge-tts with afplay playback. Use when users request voice output, audio responses, or text-to-speech. Provides na...", "description_zh": "", "downloads": 429, "homepage": "https://clawhub.ai/e421083458/jarvis-tts", "iconUrl": null, "installs": 18, "name": "Jarvis Tts", "ownerName": "e421083458", "score": 95131.84584178499, "slug": "jarvis-tts", "source": "clawhub", "stars": 2, "tags": null, "updated_at": 1776748370257, "version": "1.0.0"}, {"category": "developer-tools", "created_at": 1772788078421, "description": "Make your OpenClaw agent portable and persistent. Version-controls SOUL.md, MEMORY.md, and all core knowledge files using git with automatic GitHub push — so...", "description_zh": "", "downloads": 429, "homepage": "https://clawhub.ai/davidharket/clawng-term-memory", "iconUrl": null, "installs": 12, "name": "Clawng Term Memory", "ownerName": "davidharket", "score": 92322.8346456693, "slug": "clawng-term-memory", "source": "clawhub", "stars": 2, "tags": null, "updated_at": 1776748369569, "version": "1.2.0"}, {"category": "data-analysis", "created_at": 1772788455924, "description": "Framework for coordinating multi-agent tasks with atomic claims, dependencies, retries, and markdown task visibility using a shared SQLite queue.", "description_zh": "", "downloads": 429, "homepage": "https://clawhub.ai/frank-bot07/openclaw-orchestration", "iconUrl": null, "installs": 11, "name": "@openclaw/orchestration", "ownerName": "frank-bot07", "score": 32845.64740307242, "slug": "openclaw-orchestration", "source": "clawhub", "stars": 1, "tags": null, "updated_at": 1776759082596, "version": "1.0.0"}]}