{"page": 2, "total_pages": 7, "total": 325, "skills": [{"slug": "iftikharg786", "name": "@iftikharg786", "description": "[@halith-smh](https://github.com/halith-smh)", "description_zh": "", "homepage": "https://github.com/iftikharg786", "tags": ["Repo Contributors"], "category": "Repo Contributors", "ownerName": "", "sources": ["sickn33/antigravity-awesome-skills"], "score": 1050, "downloads": 0, "stars": 0, "installs": 0, "version": "", "updated_at": 0}, {"slug": "ivankoriako", "name": "@ivankoriako", "description": "[@rcigor](https://github.com/rcigor)", "description_zh": "", "homepage": "https://github.com/ivankoriako", "tags": ["Repo Contributors"], "category": "Repo Contributors", "ownerName": "", "sources": ["sickn33/antigravity-awesome-skills"], "score": 1049, "downloads": 0, "stars": 0, "installs": 0, "version": "", "updated_at": 0}, {"slug": "jackjin1997", "name": "@jackjin1997", "description": "[@HuynhNhatKhanh](https://github.com/HuynhNhatKhanh)", "description_zh": "", "homepage": "https://github.com/jackjin1997", "tags": ["Repo Contributors"], "category": "Repo Contributors", "ownerName": "", "sources": ["sickn33/antigravity-awesome-skills"], "score": 1048, "downloads": 0, "stars": 0, "installs": 0, "version": "", "updated_at": 0}, {"slug": "jayeharrill", "name": "@JayeHarrill", "description": "[@AssassinMaeve](https://github.com/AssassinMaeve)", "description_zh": "", "homepage": "https://github.com/JayeHarrill", "tags": ["Repo Contributors"], "category": "Repo Contributors", "ownerName": "", "sources": ["sickn33/antigravity-awesome-skills"], "score": 1047, "downloads": 0, "stars": 0, "installs": 0, "version": "", "updated_at": 0}, {"slug": "jiawei248", "name": "@jiawei248", "description": "[@tanveer-farooq](https://github.com/tanveer-farooq)", "description_zh": "", "homepage": "https://github.com/jiawei248", "tags": ["Repo Contributors"], "category": "Repo Contributors", "ownerName": "", "sources": ["sickn33/antigravity-awesome-skills"], "score": 1046, "downloads": 0, "stars": 0, "installs": 0, "version": "", "updated_at": 0}, {"slug": "jonohobs", "name": "@Jonohobs", "description": "[@JaskiratAnand](https://github.com/JaskiratAnand)", "description_zh": "", "homepage": "https://github.com/Jonohobs", "tags": ["Repo Contributors"], "category": "Repo Contributors", "ownerName": "", "sources": ["sickn33/antigravity-awesome-skills"], "score": 1045, "downloads": 0, "stars": 0, "installs": 0, "version": "", "updated_at": 0}, {"slug": "joselhurtado", "name": "@joselhurtado", "description": "[@jonathimer](https://github.com/jonathimer)", "description_zh": "", "homepage": "https://github.com/joselhurtado", "tags": ["Repo Contributors"], "category": "Repo Contributors", "ownerName": "", "sources": ["sickn33/antigravity-awesome-skills"], "score": 1044, "downloads": 0, "stars": 0, "installs": 0, "version": "", "updated_at": 0}, {"slug": "justmiroslav", "name": "@justmiroslav", "description": "[@1bcMax](https://github.com/1bcMax)", "description_zh": "", "homepage": "https://github.com/justmiroslav", "tags": ["Repo Contributors"], "category": "Repo Contributors", "ownerName": "", "sources": ["sickn33/antigravity-awesome-skills"], "score": 1043, "downloads": 0, "stars": 0, "installs": 0, "version": "", "updated_at": 0}, {"slug": "kage-art", "name": "@kage-art", "description": "[@whatiskadudoing](https://github.com/whatiskadudoing)", "description_zh": "", "homepage": "https://github.com/kage-art", "tags": ["Repo Contributors"], "category": "Repo Contributors", "ownerName": "", "sources": ["sickn33/antigravity-awesome-skills"], "score": 1042, "downloads": 0, "stars": 0, "installs": 0, "version": "", "updated_at": 0}, {"slug": "kennyzheng-builds", "name": "@kennyzheng-builds", "description": "[@keyserfaty](https://github.com/keyserfaty)", "description_zh": "", "homepage": "https://github.com/kennyzheng-builds", "tags": ["Repo Contributors"], "category": "Repo Contributors", "ownerName": "", "sources": ["sickn33/antigravity-awesome-skills"], "score": 1041, "downloads": 0, "stars": 0, "installs": 0, "version": "", "updated_at": 0}, {"slug": "khaitrang1995", "name": "@KhaiTrang1995", "description": "[@LocNguyenSGU](https://github.com/LocNguyenSGU)", "description_zh": "", "homepage": "https://github.com/KhaiTrang1995", "tags": ["Repo Contributors"], "category": "Repo Contributors", "ownerName": "", "sources": ["sickn33/antigravity-awesome-skills"], "score": 1040, "downloads": 0, "stars": 0, "installs": 0, "version": "", "updated_at": 0}, {"slug": "kostakost2", "name": "@kostakost2", "description": "[@junited31](https://github.com/junited31)", "description_zh": "", "homepage": "https://github.com/kostakost2", "tags": ["Repo Contributors"], "category": "Repo Contributors", "ownerName": "", "sources": ["sickn33/antigravity-awesome-skills"], "score": 1039, "downloads": 0, "stars": 0, "installs": 0, "version": "", "updated_at": 0}, {"slug": "kriptoburak", "name": "@kriptoburak", "description": "[@BenedictKing](https://github.com/BenedictKing)", "description_zh": "", "homepage": "https://github.com/kriptoburak", "tags": ["Repo Contributors"], "category": "Repo Contributors", "ownerName": "", "sources": ["sickn33/antigravity-awesome-skills"], "score": 1038, "downloads": 0, "stars": 0, "installs": 0, "version": "", "updated_at": 0}, {"slug": "krishna-modi12", "name": "@Krishna-Modi12", "description": "[@k-kolomeitsev](https://github.com/k-kolomeitsev)", "description_zh": "", "homepage": "https://github.com/Krishna-Modi12", "tags": ["Repo Contributors"], "category": "Repo Contributors", "ownerName": "", "sources": ["sickn33/antigravity-awesome-skills"], "score": 1037, "downloads": 0, "stars": 0, "installs": 0, "version": "", "updated_at": 0}, {"slug": "ksgisang", "name": "@ksgisang", "description": "[@KrisnaSantosa15](https://github.com/KrisnaSantosa15)", "description_zh": "", "homepage": "https://github.com/ksgisang", "tags": ["Repo Contributors"], "category": "Repo Contributors", "ownerName": "", "sources": ["sickn33/antigravity-awesome-skills"], "score": 1036, "downloads": 0, "stars": 0, "installs": 0, "version": "", "updated_at": 0}, {"slug": "marbeegit", "name": "@MArbeeGit", "description": "[@majorelalexis-stack](https://github.com/majorelalexis-stack)", "description_zh": "", "homepage": "https://github.com/MArbeeGit", "tags": ["Repo Contributors"], "category": "Repo Contributors", "ownerName": "", "sources": ["sickn33/antigravity-awesome-skills"], "score": 1035, "downloads": 0, "stars": 0, "installs": 0, "version": "", "updated_at": 0}, {"slug": "marvin19700118", "name": "@Marvin19700118", "description": "[@djmahe4](https://github.com/djmahe4)", "description_zh": "", "homepage": "https://github.com/Marvin19700118", "tags": ["Repo Contributors"], "category": "Repo Contributors", "ownerName": "", "sources": ["sickn33/antigravity-awesome-skills"], "score": 1034, "downloads": 0, "stars": 0, "installs": 0, "version": "", "updated_at": 0}, {"slug": "matheuscampagnolo", "name": "@MatheusCampagnolo", "description": "[@donbagger](https://github.com/donbagger)", "description_zh": "", "homepage": "https://github.com/MatheusCampagnolo", "tags": ["Repo Contributors"], "category": "Repo Contributors", "ownerName": "", "sources": ["sickn33/antigravity-awesome-skills"], "score": 1033, "downloads": 0, "stars": 0, "installs": 0, "version": "", "updated_at": 0}, {"slug": "maxdml", "name": "@maxdml", "description": "[@IanJ332](https://github.com/IanJ332)", "description_zh": "", "homepage": "https://github.com/maxdml", "tags": ["Repo Contributors"], "category": "Repo Contributors", "ownerName": "", "sources": ["sickn33/antigravity-awesome-skills"], "score": 1032, "downloads": 0, "stars": 0, "installs": 0, "version": "", "updated_at": 0}, {"slug": "mertbaskurt", "name": "@mertbaskurt", "description": "[@modi2meet](https://github.com/modi2meet)", "description_zh": "", "homepage": "https://github.com/mertbaskurt", "tags": ["Repo Contributors"], "category": "Repo Contributors", "ownerName": "", "sources": ["sickn33/antigravity-awesome-skills"], "score": 1031, "downloads": 0, "stars": 0, "installs": 0, "version": "", "updated_at": 0}, {"slug": "mohammad-faiz-cloud-engineer", "name": "@Mohammad-Faiz-Cloud-Engineer", "description": "[@zinzied](https://github.com/zinzied)", "description_zh": "", "homepage": "https://github.com/Mohammad-Faiz-Cloud-Engineer", "tags": ["Repo Contributors"], "category": "Repo Contributors", "ownerName": "", "sources": ["sickn33/antigravity-awesome-skills"], "score": 1030, "downloads": 0, "stars": 0, "installs": 0, "version": "", "updated_at": 0}, {"slug": "musayrlsms", "name": "@Musayrlsms", "description": "[@arathiesh](https://github.com/arathiesh)", "description_zh": "", "homepage": "https://github.com/Musayrlsms", "tags": ["Repo Contributors"], "category": "Repo Contributors", "ownerName": "", "sources": ["sickn33/antigravity-awesome-skills"], "score": 1029, "downloads": 0, "stars": 0, "installs": 0, "version": "", "updated_at": 0}, {"slug": "nedcodes-ok", "name": "@nedcodes-ok", "description": "[@MMEHDI0606](https://github.com/MMEHDI0606)", "description_zh": "", "homepage": "https://github.com/nedcodes-ok", "tags": ["Repo Contributors"], "category": "Repo Contributors", "ownerName": "", "sources": ["sickn33/antigravity-awesome-skills"], "score": 1028, "downloads": 0, "stars": 0, "installs": 0, "version": "", "updated_at": 0}, {"slug": "nickdesi", "name": "@nickdesi", "description": "[@connerlambden](https://github.com/connerlambden)", "description_zh": "", "homepage": "https://github.com/nickdesi", "tags": ["Repo Contributors"], "category": "Repo Contributors", "ownerName": "", "sources": ["sickn33/antigravity-awesome-skills"], "score": 1027, "downloads": 0, "stars": 0, "installs": 0, "version": "", "updated_at": 0}, {"slug": "nocodemf", "name": "@nocodemf", "description": "[@marsiandeployer](https://github.com/marsiandeployer)", "description_zh": "", "homepage": "https://github.com/nocodemf", "tags": ["Repo Contributors"], "category": "Repo Contributors", "ownerName": "", "sources": ["sickn33/antigravity-awesome-skills"], "score": 1026, "downloads": 0, "stars": 0, "installs": 0, "version": "", "updated_at": 0}, {"slug": "octo-patch", "name": "@octo-patch", "description": "[@fruitwyatt](https://github.com/fruitwyatt)", "description_zh": "", "homepage": "https://github.com/octo-patch", "tags": ["Repo Contributors"], "category": "Repo Contributors", "ownerName": "", "sources": ["sickn33/antigravity-awesome-skills"], "score": 1025, "downloads": 0, "stars": 0, "installs": 0, "version": "", "updated_at": 0}, {"slug": "onsraa", "name": "@Onsraa", "description": "[@SebConejo](https://github.com/SebConejo)", "description_zh": "", "homepage": "https://github.com/Onsraa", "tags": ["Repo Contributors"], "category": "Repo Contributors", "ownerName": "", "sources": ["sickn33/antigravity-awesome-skills"], "score": 1024, "downloads": 0, "stars": 0, "installs": 0, "version": "", "updated_at": 0}, {"slug": "pabloasmd", "name": "@PabloASMD", "description": "[@yubing744](https://github.com/yubing744)", "description_zh": "", "homepage": "https://github.com/PabloASMD", "tags": ["Repo Contributors"], "category": "Repo Contributors", "ownerName": "", "sources": ["sickn33/antigravity-awesome-skills"], "score": 1023, "downloads": 0, "stars": 0, "installs": 0, "version": "", "updated_at": 0}, {"slug": "programadorbrasil", "name": "@ProgramadorBrasil", "description": "[@prewsh](https://github.com/prewsh)", "description_zh": "", "homepage": "https://github.com/ProgramadorBrasil", "tags": ["Repo Contributors"], "category": "Repo Contributors", "ownerName": "", "sources": ["sickn33/antigravity-awesome-skills"], "score": 1022, "downloads": 0, "stars": 0, "installs": 0, "version": "", "updated_at": 0}, {"slug": "ramonriosjr", "name": "@RamonRiosJr", "description": "[@Tiger-Foxx](https://github.com/Tiger-Foxx)", "description_zh": "", "homepage": "https://github.com/RamonRiosJr", "tags": ["Repo Contributors"], "category": "Repo Contributors", "ownerName": "", "sources": ["sickn33/antigravity-awesome-skills"], "score": 1021, "downloads": 0, "stars": 0, "installs": 0, "version": "", "updated_at": 0}, {"slug": "ronanguilloux", "name": "@ronanguilloux", "description": "[@sraphaz](https://github.com/sraphaz)", "description_zh": "", "homepage": "https://github.com/ronanguilloux", "tags": ["Repo Contributors"], "category": "Repo Contributors", "ownerName": "", "sources": ["sickn33/antigravity-awesome-skills"], "score": 1020, "downloads": 0, "stars": 0, "installs": 0, "version": "", "updated_at": 0}, {"slug": "roundtable02", "name": "@RoundTable02", "description": "[@ChaosRealmsAI](https://github.com/ChaosRealmsAI)", "description_zh": "", "homepage": "https://github.com/RoundTable02", "tags": ["Repo Contributors"], "category": "Repo Contributors", "ownerName": "", "sources": ["sickn33/antigravity-awesome-skills"], "score": 1019, "downloads": 0, "stars": 0, "installs": 0, "version": "", "updated_at": 0}, {"slug": "sck000", "name": "@sck000", "description": "[@github-actions[bot]](https://github.com/apps/github-actions)", "description_zh": "", "homepage": "https://github.com/sck000", "tags": ["Repo Contributors"], "category": "Repo Contributors", "ownerName": "", "sources": ["sickn33/antigravity-awesome-skills"], "score": 1018, "downloads": 0, "stars": 0, "installs": 0, "version": "", "updated_at": 0}, {"slug": "shmlkv", "name": "@shmlkv", "description": "[@rafsilva85](https://github.com/rafsilva85)", "description_zh": "", "homepage": "https://github.com/shmlkv", "tags": ["Repo Contributors"], "category": "Repo Contributors", "ownerName": "", "sources": ["sickn33/antigravity-awesome-skills"], "score": 1017, "downloads": 0, "stars": 0, "installs": 0, "version": "", "updated_at": 0}, {"slug": "sickn33", "name": "@sickn33", "description": "[@munir-abbasi](https://github.com/munir-abbasi)", "description_zh": "", "homepage": "https://github.com/sickn33", "tags": ["Repo Contributors"], "category": "Repo Contributors", "ownerName": "", "sources": ["sickn33/antigravity-awesome-skills"], "score": 1016, "downloads": 0, "stars": 0, "installs": 0, "version": "", "updated_at": 0}, {"slug": "skyruh", "name": "@skyruh", "description": "[@ar27111994](https://github.com/ar27111994)", "description_zh": "", "homepage": "https://github.com/skyruh", "tags": ["Repo Contributors"], "category": "Repo Contributors", "ownerName": "", "sources": ["sickn33/antigravity-awesome-skills"], "score": 1015, "downloads": 0, "stars": 0, "installs": 0, "version": "", "updated_at": 0}, {"slug": "snakeeye-sudo", "name": "@SnakeEye-sudo", "description": "[@talesperito](https://github.com/talesperito)", "description_zh": "", "homepage": "https://github.com/SnakeEye-sudo", "tags": ["Repo Contributors"], "category": "Repo Contributors", "ownerName": "", "sources": ["sickn33/antigravity-awesome-skills"], "score": 1014, "downloads": 0, "stars": 0, "installs": 0, "version": "", "updated_at": 0}, {"slug": "sohamganatra", "name": "@sohamganatra", "description": "[@Silverov](https://github.com/Silverov)", "description_zh": "", "homepage": "https://github.com/sohamganatra", "tags": ["Repo Contributors"], "category": "Repo Contributors", "ownerName": "", "sources": ["sickn33/antigravity-awesome-skills"], "score": 1013, "downloads": 0, "stars": 0, "installs": 0, "version": "", "updated_at": 0}, {"slug": "spideyashith", "name": "@spideyashith", "description": "[@tomjwxf](https://github.com/tomjwxf)", "description_zh": "", "homepage": "https://github.com/spideyashith", "tags": ["Repo Contributors"], "category": "Repo Contributors", "ownerName": "", "sources": ["sickn33/antigravity-awesome-skills"], "score": 1012, "downloads": 0, "stars": 0, "installs": 0, "version": "", "updated_at": 0}, {"slug": "ssumanbiswas", "name": "@ssumanbiswas", "description": "[@Champbreed](https://github.com/Champbreed)", "description_zh": "", "homepage": "https://github.com/ssumanbiswas", "tags": ["Repo Contributors"], "category": "Repo Contributors", "ownerName": "", "sources": ["sickn33/antigravity-awesome-skills"], "score": 1011, "downloads": 0, "stars": 0, "installs": 0, "version": "", "updated_at": 0}, {"slug": "suhaibjanjua", "name": "@suhaibjanjua", "description": "[@GuppyTheCat](https://github.com/GuppyTheCat)", "description_zh": "", "homepage": "https://github.com/suhaibjanjua", "tags": ["Repo Contributors"], "category": "Repo Contributors", "ownerName": "", "sources": ["sickn33/antigravity-awesome-skills"], "score": 1010, "downloads": 0, "stars": 0, "installs": 0, "version": "", "updated_at": 0}, {"slug": "superjmn", "name": "@SuperJMN", "description": "[@Enreign](https://github.com/Enreign)", "description_zh": "", "homepage": "https://github.com/SuperJMN", "tags": ["Repo Contributors"], "category": "Repo Contributors", "ownerName": "", "sources": ["sickn33/antigravity-awesome-skills"], "score": 1009, "downloads": 0, "stars": 0, "installs": 0, "version": "", "updated_at": 0}, {"slug": "svobikl", "name": "@Svobikl", "description": "[@kromahlusenii-ops](https://github.com/kromahlusenii-ops)", "description_zh": "", "homepage": "https://github.com/Svobikl", "tags": ["Repo Contributors"], "category": "Repo Contributors", "ownerName": "", "sources": ["sickn33/antigravity-awesome-skills"], "score": 1008, "downloads": 0, "stars": 0, "installs": 0, "version": "", "updated_at": 0}, {"slug": "taksrules", "name": "@taksrules", "description": "[@liyin2015](https://github.com/liyin2015)", "description_zh": "", "homepage": "https://github.com/taksrules", "tags": ["Repo Contributors"], "category": "Repo Contributors", "ownerName": "", "sources": ["sickn33/antigravity-awesome-skills"], "score": 1007, "downloads": 0, "stars": 0, "installs": 0, "version": "", "updated_at": 0}, {"slug": "tomgranot", "name": "@TomGranot", "description": "[@truongnmt](https://github.com/truongnmt)", "description_zh": "", "homepage": "https://github.com/TomGranot", "tags": ["Repo Contributors"], "category": "Repo Contributors", "ownerName": "", "sources": ["sickn33/antigravity-awesome-skills"], "score": 1006, "downloads": 0, "stars": 0, "installs": 0, "version": "", "updated_at": 0}, {"slug": "tsilverberg", "name": "@tsilverberg", "description": "[@thuanlm215](https://github.com/thuanlm215)", "description_zh": "", "homepage": "https://github.com/tsilverberg", "tags": ["Repo Contributors"], "category": "Repo Contributors", "ownerName": "", "sources": ["sickn33/antigravity-awesome-skills"], "score": 1005, "downloads": 0, "stars": 0, "installs": 0, "version": "", "updated_at": 0}, {"slug": "umutbozdag", "name": "@umutbozdag", "description": "[@hqhq1025](https://github.com/hqhq1025)", "description_zh": "", "homepage": "https://github.com/umutbozdag", "tags": ["Repo Contributors"], "category": "Repo Contributors", "ownerName": "", "sources": ["sickn33/antigravity-awesome-skills"], "score": 1004, "downloads": 0, "stars": 0, "installs": 0, "version": "", "updated_at": 0}, {"slug": "urrhb", "name": "@UrRhb", "description": "[@uriva](https://github.com/uriva)", "description_zh": "", "homepage": "https://github.com/UrRhb", "tags": ["Repo Contributors"], "category": "Repo Contributors", "ownerName": "", "sources": ["sickn33/antigravity-awesome-skills"], "score": 1003, "downloads": 0, "stars": 0, "installs": 0, "version": "", "updated_at": 0}, {"slug": "viktor-ferenczi", "name": "@viktor-ferenczi", "description": "[@vprudnikoff](https://github.com/vprudnikoff)", "description_zh": "", "homepage": "https://github.com/viktor-ferenczi", "tags": ["Repo Contributors"], "category": "Repo Contributors", "ownerName": "", "sources": ["sickn33/antigravity-awesome-skills"], "score": 1002, "downloads": 0, "stars": 0, "installs": 0, "version": "", "updated_at": 0}, {"slug": "viliawang-pm", "name": "@viliawang-pm", "description": "[@uucz](https://github.com/uucz)", "description_zh": "", "homepage": "https://github.com/viliawang-pm", "tags": ["Repo Contributors"], "category": "Repo Contributors", "ownerName": "", "sources": ["sickn33/antigravity-awesome-skills"], "score": 1001, "downloads": 0, "stars": 0, "installs": 0, "version": "", "updated_at": 0}]}