{"page": 20, "total_pages": 22, "total": 1089, "skills": [{"slug": "rudrankriyam-app-store-connect-cli-skills", "name": "rudrankriyam/app-store-connect-cli-skills", "description": "Automate App Store deployments and management using ASC CLI", "description_zh": "", "homepage": "https://github.com/rudrankriyam/app-store-connect-cli-skills", "tags": ["Community Skills"], "category": "Community Skills", "ownerName": "rudrankriyam", "sources": ["VoltAgent/awesome-agent-skills"], "score": 150, "downloads": 0, "stars": 0, "installs": 0, "version": "", "updated_at": 0}, {"slug": "salesforce-automation", "name": "Salesforce Automation", "description": "Automate Salesforce: objects, records, SOQL queries, and bulk operations.", "description_zh": "", "homepage": "./salesforce-automation", "tags": ["App Automation via Composio"], "category": "App Automation via Composio", "ownerName": "", "sources": ["ComposioHQ/awesome-claude-skills"], "score": 149, "downloads": 0, "stars": 0, "installs": 0, "version": "", "updated_at": 0}, {"slug": "sanity-io-content-experimentation-best-practices", "name": "sanity-io/content-experimentation-best-practices", "description": "Content A/B testing and experimentation workflows", "description_zh": "", "homepage": "https://officialskills.sh/sanity-io/skills/content-experimentation-best-practices", "tags": ["Skills by Sanity Team"], "category": "Skills by Sanity Team", "ownerName": "", "sources": ["VoltAgent/awesome-agent-skills"], "score": 148, "downloads": 0, "stars": 0, "installs": 0, "version": "", "updated_at": 0}, {"slug": "sanity-io-content-modeling-best-practices", "name": "sanity-io/content-modeling-best-practices", "description": "Guidelines for designing scalable content models in Sanity", "description_zh": "", "homepage": "https://officialskills.sh/sanity-io/skills/content-modeling-best-practices", "tags": ["Skills by Sanity Team"], "category": "Skills by Sanity Team", "ownerName": "", "sources": ["VoltAgent/awesome-agent-skills"], "score": 147, "downloads": 0, "stars": 0, "installs": 0, "version": "", "updated_at": 0}, {"slug": "sanity-io-sanity-best-practices", "name": "sanity-io/sanity-best-practices", "description": "Best practices for Sanity Studio, GROQ queries, and content workflows", "description_zh": "", "homepage": "https://officialskills.sh/sanity-io/skills/sanity-best-practices", "tags": ["Skills by Sanity Team"], "category": "Skills by Sanity Team", "ownerName": "", "sources": ["VoltAgent/awesome-agent-skills"], "score": 146, "downloads": 0, "stars": 0, "installs": 0, "version": "", "updated_at": 0}, {"slug": "sanity-io-seo-aeo-best-practices", "name": "sanity-io/seo-aeo-best-practices", "description": "SEO and answer engine optimization patterns for content sites", "description_zh": "", "homepage": "https://officialskills.sh/sanity-io/skills/seo-aeo-best-practices", "tags": ["Skills by Sanity Team"], "category": "Skills by Sanity Team", "ownerName": "", "sources": ["VoltAgent/awesome-agent-skills"], "score": 145, "downloads": 0, "stars": 0, "installs": 0, "version": "", "updated_at": 0}, {"slug": "scopeblind-scopeblind-gateway", "name": "scopeblind/scopeblind-gateway", "description": "Official Scopeblind MCP governance toolkit - Cedar policy authoring, shadow-to-enforce rollout, and signed-receipt verification guidance for agent tool calls.", "description_zh": "", "homepage": "https://github.com/scopeblind/scopeblind-gateway", "tags": ["Official Sources"], "category": "Official Sources", "ownerName": "scopeblind", "sources": ["sickn33/antigravity-awesome-skills"], "score": 144, "downloads": 0, "stars": 0, "installs": 0, "version": "", "updated_at": 0}, {"slug": "segment-automation", "name": "Segment Automation", "description": "Automate Segment: sources, destinations, tracking, and warehouse connections.", "description_zh": "", "homepage": "./segment-automation", "tags": ["App Automation via Composio"], "category": "App Automation via Composio", "ownerName": "", "sources": ["ComposioHQ/awesome-claude-skills"], "score": 143, "downloads": 0, "stars": 0, "installs": 0, "version": "", "updated_at": 0}, {"slug": "sendgrid-automation", "name": "SendGrid Automation", "description": "Automate SendGrid: emails, templates, contacts, lists, and campaign stats.", "description_zh": "", "homepage": "./sendgrid-automation", "tags": ["App Automation via Composio"], "category": "App Automation via Composio", "ownerName": "", "sources": ["ComposioHQ/awesome-claude-skills"], "score": 142, "downloads": 0, "stars": 0, "installs": 0, "version": "", "updated_at": 0}, {"slug": "sentry-automation", "name": "Sentry Automation", "description": "Automate Sentry: issues, events, projects, releases, and alerts.", "description_zh": "", "homepage": "./sentry-automation", "tags": ["App Automation via Composio"], "category": "App Automation via Composio", "ownerName": "", "sources": ["ComposioHQ/awesome-claude-skills"], "score": 141, "downloads": 0, "stars": 0, "installs": 0, "version": "", "updated_at": 0}, {"slug": "shopify-automation", "name": "Shopify Automation", "description": "Automate Shopify: products, orders, customers, inventory, and GraphQL queries.", "description_zh": "", "homepage": "./shopify-automation", "tags": ["App Automation via Composio"], "category": "App Automation via Composio", "ownerName": "", "sources": ["ComposioHQ/awesome-claude-skills"], "score": 140, "downloads": 0, "stars": 0, "installs": 0, "version": "", "updated_at": 0}, {"slug": "shunsukehayashi-agent-skill-bus", "name": "ShunsukeHayashi/agent-skill-bus", "description": "Self-improving task orchestration for AI agent systems", "description_zh": "", "homepage": "https://github.com/ShunsukeHayashi/agent-skill-bus", "tags": ["Community Skills"], "category": "Community Skills", "ownerName": "ShunsukeHayashi", "sources": ["VoltAgent/awesome-agent-skills"], "score": 139, "downloads": 0, "stars": 0, "installs": 0, "version": "", "updated_at": 0}, {"slug": "silverov-yandex-direct-skill", "name": "Silverov/yandex-direct-skill", "description": "Yandex Direct (API v5) advertising audit skill — 55 automated checks, A-F scoring, campaign/ad/keyword analysis for the Russian PPC market (MIT).", "description_zh": "", "homepage": "https://github.com/Silverov/yandex-direct-skill", "tags": ["Community Contributors"], "category": "Community Contributors", "ownerName": "Silverov", "sources": ["sickn33/antigravity-awesome-skills"], "score": 138, "downloads": 0, "stars": 0, "installs": 0, "version": "", "updated_at": 0}, {"slug": "simon-willison-claude-skills-are-awesome-maybe-a-bigger-deal-than-mcp", "name": "Simon Willison: Claude Skills are awesome, maybe a bigger deal than MCP", "description": "Technical deep dive and analysis", "description_zh": "", "homepage": "https://simonwillison.net/2025/Oct/16/claude-skills", "tags": ["📰 Articles & Blog Posts"], "category": "📰 Articles & Blog Posts", "ownerName": "", "sources": ["travisvn/awesome-claude-skills"], "score": 137, "downloads": 0, "stars": 0, "installs": 0, "version": "", "updated_at": 0}, {"slug": "skill-creator", "name": "Skill Creator", "description": "Provides guidance for creating effective Claude Skills that extend capabilities with specialized knowledge, workflows, and tool integrations.", "description_zh": "", "homepage": "./skill-creator", "tags": ["Development & Code Tools"], "category": "Development & Code Tools", "ownerName": "", "sources": ["ComposioHQ/awesome-claude-skills"], "score": 136, "downloads": 0, "stars": 0, "installs": 0, "version": "", "updated_at": 0}, {"slug": "skillcheck-free", "name": "SkillCheck-Free", "description": "Free SKILL.md validator with 30+ checks across structure, naming, and semantics. Catches common errors before deploying Claude Code skills.", "description_zh": "", "homepage": "https://github.com/olgasafonova/SkillCheck-Free", "tags": ["🔧 Utility & Automation"], "category": "🔧 Utility & Automation", "ownerName": "olgasafonova", "sources": ["BehiSecc/awesome-claude-skills"], "score": 135, "downloads": 0, "stars": 0, "installs": 0, "version": "", "updated_at": 0}, {"slug": "skills-api-endpoint", "name": "Skills API Endpoint", "description": "/v1/skills API documentation", "description_zh": "", "homepage": "https://platform.claude.com/docs/en/api/beta/skills", "tags": ["Documentation"], "category": "Documentation", "ownerName": "", "sources": ["travisvn/awesome-claude-skills"], "score": 134, "downloads": 0, "stars": 0, "installs": 0, "version": "", "updated_at": 0}, {"slug": "skills-explained", "name": "Skills Explained", "description": "Official Anthropic blog post covering progressive disclosure, use cases, and when to use Skills vs other tools", "description_zh": "", "homepage": "https://claude.com/blog/skills-explained", "tags": ["📰 Articles & Blog Posts"], "category": "📰 Articles & Blog Posts", "ownerName": "", "sources": ["travisvn/awesome-claude-skills"], "score": 133, "downloads": 0, "stars": 0, "installs": 0, "version": "", "updated_at": 0}, {"slug": "skills-marketplace", "name": "Skills Marketplace", "description": "Discover and share skills", "description_zh": "", "homepage": "https://claude.ai/marketplace", "tags": ["Community Resources"], "category": "Community Resources", "ownerName": "", "sources": ["ComposioHQ/awesome-claude-skills"], "score": 132, "downloads": 0, "stars": 0, "installs": 0, "version": "", "updated_at": 0}, {"slug": "slack-automation", "name": "Slack Automation", "description": "Automate Slack: messages, channels, search, reactions, threads, and scheduling.", "description_zh": "", "homepage": "./slack-automation", "tags": ["App Automation via Composio"], "category": "App Automation via Composio", "ownerName": "", "sources": ["ComposioHQ/awesome-claude-skills"], "score": 131, "downloads": 0, "stars": 0, "installs": 0, "version": "", "updated_at": 0}, {"slug": "slack-gif-creator", "name": "Slack GIF Creator", "description": "Creates animated GIFs optimized for Slack with validators for size constraints and composable animation primitives.", "description_zh": "", "homepage": "./slack-gif-creator", "tags": ["Creative & Media"], "category": "Creative & Media", "ownerName": "", "sources": ["ComposioHQ/awesome-claude-skills"], "score": 130, "downloads": 0, "stars": 0, "installs": 0, "version": "", "updated_at": 0}, {"slug": "slashworks-biz-idea-os", "name": "Slashworks-biz/idea-os", "description": "Source for the idea-os skill - five-phase pipeline (triage -> clarify -> research -> PRD -> plan) that turns raw ideas into a build-ready PRD and execution plan.", "description_zh": "", "homepage": "https://github.com/Slashworks-biz/idea-os", "tags": ["Community Contributors"], "category": "Community Contributors", "ownerName": "Slashworks-biz", "sources": ["sickn33/antigravity-awesome-skills"], "score": 129, "downloads": 0, "stars": 0, "installs": 0, "version": "", "updated_at": 0}, {"slug": "smixs-creative-director-skill", "name": "smixs/creative-director-skill", "description": "AI creative director with recursive self-assessment: 20+ methodologies (SIT, TRIZ, Bisociation, SCAMPER, Synectics), 3-axis evaluation calibrated against Cannes/D&AD/HumanKind, 5-phase process from brief to presentation", "description_zh": "", "homepage": "https://github.com/smixs/creative-director-skill", "tags": ["Community Skills"], "category": "Community Skills", "ownerName": "smixs", "sources": ["VoltAgent/awesome-agent-skills"], "score": 128, "downloads": 0, "stars": 0, "installs": 0, "version": "", "updated_at": 0}, {"slug": "spartan-ai-toolkit", "name": "spartan-ai-toolkit", "description": "Engineering workflow commands with quality gates, TDD enforcement, and atomic commits for AI coding agents.", "description_zh": "", "homepage": "https://github.com/spartan-stratos/spartan-ai-toolkit", "tags": ["🛠 Development & Code Tools"], "category": "🛠 Development & Code Tools", "ownerName": "spartan-stratos", "sources": ["BehiSecc/awesome-claude-skills"], "score": 127, "downloads": 0, "stars": 0, "installs": 0, "version": "", "updated_at": 0}, {"slug": "square-automation", "name": "Square Automation", "description": "Automate Square: payments, customers, catalog, orders, and locations.", "description_zh": "", "homepage": "./square-automation", "tags": ["App Automation via Composio"], "category": "App Automation via Composio", "ownerName": "", "sources": ["ComposioHQ/awesome-claude-skills"], "score": 126, "downloads": 0, "stars": 0, "installs": 0, "version": "", "updated_at": 0}, {"slug": "ssojet-skills", "name": "SSOJet/skills", "description": "Production-ready SSOJet skills and integration guides for popular frameworks and platforms — Node.js, Next.js, React, Java, .NET Core, Go, iOS, Android, and more. Works seamlessly with SSOJet SAML, OIDC, and enterprise SSO flows. Works with Cursor, Antigravity, Claude Code, and Windsurf.", "description_zh": "", "homepage": "https://github.com/ssojet/skills", "tags": ["Community Contributors"], "category": "Community Contributors", "ownerName": "ssojet", "sources": ["sickn33/antigravity-awesome-skills"], "score": 125, "downloads": 0, "stars": 0, "installs": 0, "version": "", "updated_at": 0}, {"slug": "sstklen-infinite-gratitude", "name": "sstklen/infinite-gratitude", "description": "Multi-agent research skill from the AI Dojo series (MIT).", "description_zh": "", "homepage": "https://github.com/sstklen/infinite-gratitude", "tags": ["Community Contributors"], "category": "Community Contributors", "ownerName": "sstklen", "sources": ["sickn33/antigravity-awesome-skills"], "score": 124, "downloads": 0, "stars": 0, "installs": 0, "version": "", "updated_at": 0}, {"slug": "stripe-automation", "name": "Stripe Automation", "description": "Automate Stripe: charges, customers, products, subscriptions, and refunds.", "description_zh": "", "homepage": "./stripe-automation", "tags": ["App Automation via Composio"], "category": "App Automation via Composio", "ownerName": "", "sources": ["ComposioHQ/awesome-claude-skills"], "score": 123, "downloads": 0, "stars": 0, "installs": 0, "version": "", "updated_at": 0}, {"slug": "stripe-stripe-best-practices", "name": "stripe/stripe-best-practices", "description": "Best practices for building Stripe integrations", "description_zh": "", "homepage": "https://officialskills.sh/stripe/skills/stripe-best-practices", "tags": ["Skills by Stripe Team"], "category": "Skills by Stripe Team", "ownerName": "", "sources": ["VoltAgent/awesome-agent-skills"], "score": 122, "downloads": 0, "stars": 0, "installs": 0, "version": "", "updated_at": 0}, {"slug": "stripe-upgrade-stripe", "name": "stripe/upgrade-stripe", "description": "Upgrade Stripe SDK and API versions", "description_zh": "", "homepage": "https://officialskills.sh/stripe/skills/upgrade-stripe", "tags": ["Skills by Stripe Team"], "category": "Skills by Stripe Team", "ownerName": "", "sources": ["VoltAgent/awesome-agent-skills"], "score": 121, "downloads": 0, "stars": 0, "installs": 0, "version": "", "updated_at": 0}, {"slug": "supabase-automation", "name": "Supabase Automation", "description": "Automate Supabase: SQL queries, table schemas, edge functions, and storage.", "description_zh": "", "homepage": "./supabase-automation", "tags": ["App Automation via Composio"], "category": "App Automation via Composio", "ownerName": "", "sources": ["ComposioHQ/awesome-claude-skills"], "score": 120, "downloads": 0, "stars": 0, "installs": 0, "version": "", "updated_at": 0}, {"slug": "supabase-agent-skills", "name": "supabase/agent-skills", "description": "Supabase official skills - Postgres Best Practices.", "description_zh": "", "homepage": "https://github.com/supabase/agent-skills", "tags": ["Official Sources"], "category": "Official Sources", "ownerName": "supabase", "sources": ["sickn33/antigravity-awesome-skills"], "score": 119, "downloads": 0, "stars": 0, "installs": 0, "version": "", "updated_at": 0}, {"slug": "supabase-postgres-best-practices", "name": "supabase/postgres-best-practices", "description": "PostgreSQL best practices for Supabase", "description_zh": "", "homepage": "https://officialskills.sh/supabase/skills/postgres-best-practices", "tags": ["Skills by Supabase Team"], "category": "Skills by Supabase Team", "ownerName": "", "sources": ["VoltAgent/awesome-agent-skills"], "score": 118, "downloads": 0, "stars": 0, "installs": 0, "version": "", "updated_at": 0}, {"slug": "superpowers-skills", "name": "superpowers-skills", "description": "Community-editable skills repository", "description_zh": "", "homepage": "https://github.com/obra/superpowers-skills", "tags": ["Collections & Libraries"], "category": "Collections & Libraries", "ownerName": "obra", "sources": ["travisvn/awesome-claude-skills"], "score": 117, "downloads": 0, "stars": 0, "installs": 0, "version": "", "updated_at": 0}, {"slug": "synk-skill-security-scanner", "name": "Synk Skill Security Scanner", "description": "[Agent Trust Hub](https://ai.gendigital.com/agent-trust-hub)", "description_zh": "", "homepage": "https://github.com/snyk/agent-scan", "tags": ["🔒 Security Notice"], "category": "🔒 Security Notice", "ownerName": "snyk", "sources": ["VoltAgent/awesome-agent-skills"], "score": 116, "downloads": 0, "stars": 0, "installs": 0, "version": "", "updated_at": 0}, {"slug": "systematic-debugging", "name": "systematic-debugging", "description": "Use when encountering any bug, test failure, or unexpected behavior, before proposing fixes", "description_zh": "", "homepage": "https://github.com/obra/superpowers/blob/main/skills/systematic-debugging", "tags": ["🛡 Security & Web Testing"], "category": "🛡 Security & Web Testing", "ownerName": "obra", "sources": ["BehiSecc/awesome-claude-skills"], "score": 115, "downloads": 0, "stars": 0, "installs": 0, "version": "", "updated_at": 0}, {"slug": "tailored-resume-generator", "name": "Tailored Resume Generator", "description": "Analyzes job descriptions and generates tailored resumes that highlight relevant experience, skills, and achievements to maximize interview chances.", "description_zh": "", "homepage": "./tailored-resume-generator", "tags": ["Productivity & Organization"], "category": "Productivity & Organization", "ownerName": "", "sources": ["ComposioHQ/awesome-claude-skills"], "score": 114, "downloads": 0, "stars": 0, "installs": 0, "version": "", "updated_at": 0}, {"slug": "talkstream-ru-text", "name": "talkstream/ru-text", "description": "Russian text quality: ~1,040 rules for typography, info-style, editorial, UX writing, business correspondence. Cross-platform: Claude Code, Codex CLI, Gemini CLI, Cursor.", "description_zh": "", "homepage": "https://github.com/talkstream/ru-text", "tags": ["Community Skills"], "category": "Community Skills", "ownerName": "talkstream", "sources": ["VoltAgent/awesome-agent-skills"], "score": 113, "downloads": 0, "stars": 0, "installs": 0, "version": "", "updated_at": 0}, {"slug": "task-observer", "name": "task-observer", "description": "A meta-skill that builds and improves all your skills, including itself.", "description_zh": "", "homepage": "https://github.com/rebelytics/one-skill-to-rule-them-all", "tags": ["🔧 Utility & Automation"], "category": "🔧 Utility & Automation", "ownerName": "rebelytics", "sources": ["BehiSecc/awesome-claude-skills"], "score": 112, "downloads": 0, "stars": 0, "installs": 0, "version": "", "updated_at": 0}, {"slug": "telegram-automation", "name": "Telegram Automation", "description": "Automate Telegram: messages, chats, media, groups, and bots.", "description_zh": "", "homepage": "./telegram-automation", "tags": ["App Automation via Composio"], "category": "App Automation via Composio", "ownerName": "", "sources": ["ComposioHQ/awesome-claude-skills"], "score": 111, "downloads": 0, "stars": 0, "installs": 0, "version": "", "updated_at": 0}, {"slug": "theme-factory", "name": "Theme Factory", "description": "Applies professional font and color themes to artifacts including slides, docs, reports, and HTML landing pages with 10 pre-set themes.", "description_zh": "", "homepage": "./theme-factory", "tags": ["Creative & Media"], "category": "Creative & Media", "ownerName": "", "sources": ["ComposioHQ/awesome-claude-skills"], "score": 110, "downloads": 0, "stars": 0, "installs": 0, "version": "", "updated_at": 0}, {"slug": "threat-hunting-with-sigma-rules", "name": "threat-hunting-with-sigma-rules", "description": "Use Sigma detection rules to hunt for threats and analyze security events.", "description_zh": "", "homepage": "https://github.com/jthack/threat-hunting-with-sigma-rules-skill", "tags": ["Security & Systems"], "category": "Security & Systems", "ownerName": "jthack", "sources": ["ComposioHQ/awesome-claude-skills"], "score": 109, "downloads": 0, "stars": 0, "installs": 0, "version": "", "updated_at": 0}, {"slug": "tiktok-automation", "name": "TikTok Automation", "description": "Automate TikTok: video uploads, queries, and creator management.", "description_zh": "", "homepage": "./tiktok-automation", "tags": ["App Automation via Composio"], "category": "App Automation via Composio", "ownerName": "", "sources": ["ComposioHQ/awesome-claude-skills"], "score": 108, "downloads": 0, "stars": 0, "installs": 0, "version": "", "updated_at": 0}, {"slug": "tinybirdco-tinybird-best-practices", "name": "tinybirdco/tinybird-best-practices", "description": "Tinybird project guidelines for datasources, pipes, endpoints, and SQL", "description_zh": "", "homepage": "https://officialskills.sh/tinybirdco/skills/tinybird-best-practices", "tags": ["Skills by Tinybird Team"], "category": "Skills by Tinybird Team", "ownerName": "", "sources": ["VoltAgent/awesome-agent-skills"], "score": 107, "downloads": 0, "stars": 0, "installs": 0, "version": "", "updated_at": 0}, {"slug": "tinybirdco-tinybird-cli-guidelines", "name": "tinybirdco/tinybird-cli-guidelines", "description": "Tinybird CLI usage guidelines and commands", "description_zh": "", "homepage": "https://officialskills.sh/tinybirdco/skills/tinybird-cli-guidelines", "tags": ["Skills by Tinybird Team"], "category": "Skills by Tinybird Team", "ownerName": "", "sources": ["VoltAgent/awesome-agent-skills"], "score": 106, "downloads": 0, "stars": 0, "installs": 0, "version": "", "updated_at": 0}, {"slug": "tinybirdco-tinybird-python-sdk-guidelines", "name": "tinybirdco/tinybird-python-sdk-guidelines", "description": "Tinybird Python SDK usage guidelines", "description_zh": "", "homepage": "https://officialskills.sh/tinybirdco/skills/tinybird-python-sdk-guidelines", "tags": ["Skills by Tinybird Team"], "category": "Skills by Tinybird Team", "ownerName": "", "sources": ["VoltAgent/awesome-agent-skills"], "score": 105, "downloads": 0, "stars": 0, "installs": 0, "version": "", "updated_at": 0}, {"slug": "tinybirdco-tinybird-typescript-sdk-guidelines", "name": "tinybirdco/tinybird-typescript-sdk-guidelines", "description": "Tinybird TypeScript SDK usage guidelines", "description_zh": "", "homepage": "https://officialskills.sh/tinybirdco/skills/tinybird-typescript-sdk-guidelines", "tags": ["Skills by Tinybird Team"], "category": "Skills by Tinybird Team", "ownerName": "", "sources": ["VoltAgent/awesome-agent-skills"], "score": 104, "downloads": 0, "stars": 0, "installs": 0, "version": "", "updated_at": 0}, {"slug": "todoist-automation", "name": "Todoist Automation", "description": "Automate Todoist: tasks, projects, sections, labels, and filters.", "description_zh": "", "homepage": "./todoist-automation", "tags": ["App Automation via Composio"], "category": "App Automation via Composio", "ownerName": "", "sources": ["ComposioHQ/awesome-claude-skills"], "score": 103, "downloads": 0, "stars": 0, "installs": 0, "version": "", "updated_at": 0}, {"slug": "trail-of-bits-security-skills", "name": "Trail of Bits Security Skills", "description": "Security skills for static analysis with CodeQL/Semgrep, variant analysis, code auditing, and fix verification.", "description_zh": "", "homepage": "https://github.com/trailofbits/skills", "tags": ["🛡 Security & Web Testing"], "category": "🛡 Security & Web Testing", "ownerName": "trailofbits", "sources": ["BehiSecc/awesome-claude-skills"], "score": 102, "downloads": 0, "stars": 0, "installs": 0, "version": "", "updated_at": 0}, {"slug": "trailofbits-ask-questions-if-underspecified", "name": "trailofbits/ask-questions-if-underspecified", "description": "Prompt for clarification on ambiguous requirements", "description_zh": "", "homepage": "https://officialskills.sh/trailofbits/skills/ask-questions-if-underspecified", "tags": ["Skills by Typefully"], "category": "Skills by Typefully", "ownerName": "", "sources": ["VoltAgent/awesome-agent-skills"], "score": 101, "downloads": 0, "stars": 0, "installs": 0, "version": "", "updated_at": 0}]}