{"page": 200, "total_pages": 522, "total": 26073, "skills": [{"category": "content-creation", "created_at": 1772796017824, "description": "Query, optimize, and administer ClickHouse OLAP databases with schema design, performance tuning, and data ingestion patterns.", "description_zh": "", "downloads": 429, "homepage": "https://clawhub.ai/ivangdavila/clickhouse", "iconUrl": null, "installs": 38, "name": "ClickHouse", "ownerName": "ivangdavila", "score": 92768.5950413223, "slug": "clickhouse", "source": "clawhub", "stars": 1, "tags": null, "updated_at": 1776748369915, "version": "1.0.1"}, {"category": "data-analysis", "created_at": 1773074280862, "description": "Trading card analysis, grading guidance, market comps, and eBay listing optimization for sports cards, Pokémon, and other collectible cards. Use when evaluat...", "description_zh": "", "downloads": 429, "homepage": "https://clawhub.ai/mmsneaks11-max/trading-card-specialist", "iconUrl": null, "installs": 7, "name": "Trading Card Analysis & eBay Listing Specialist", "ownerName": "mmsneaks11-max", "score": 95531.91489361702, "slug": "trading-card-specialist", "source": "clawhub", "stars": 1, "tags": ["automation", "business", "ebay", "ecommerce", "market-analysis", "psa", "text2list", "trading-cards"], "updated_at": 1776748369839, "version": "2.0.5"}, {"category": "developer-tools", "created_at": 1773090064444, "description": "A fast Rust-based headless browser automation CLI with Node.js fallback that enables AI agents to navigate, click, type, and snapshot pages via structured co...", "description_zh": "", "downloads": 429, "homepage": "https://clawhub.ai/nuradil/agent-browser-conflict", "iconUrl": null, "installs": 168, "name": "Agent Browser Conflict", "ownerName": "nuradil", "score": 3366.2900188323915, "slug": "agent-browser-conflict", "source": "clawhub", "stars": 0, "tags": null, "updated_at": 1776770350112, "version": "1.0.0"}, {"category": "content-creation", "created_at": 1773074506897, "description": "Build and maintain an Apple Shortcuts workflow that takes a Douyin share link, resolves a no-watermark MP4 URL via configurable backend APIs, saves the video...", "description_zh": "", "downloads": 429, "homepage": "https://clawhub.ai/vahnxu/douyin-to-photos", "iconUrl": null, "installs": 135, "name": "Douyin To Photos", "ownerName": "vahnxu", "score": 48584.371460928654, "slug": "douyin-to-photos", "source": "clawhub", "stars": 0, "tags": null, "updated_at": 1776764690468, "version": "1.0.0"}, {"category": "communication-collaboration", "created_at": 1772790973263, "description": "Detects wake words in speech and routes voice commands like email, text, reminders, search, and notes to OpenClaw agents for execution.", "description_zh": "", "downloads": 429, "homepage": "https://clawhub.ai/jarvis563/percept-voice-cmd", "iconUrl": null, "installs": 9, "name": "Percept Voice Commands", "ownerName": "jarvis563", "score": 31382.589612289685, "slug": "percept-voice-cmd", "source": "clawhub", "stars": 0, "tags": null, "updated_at": 1776759083687, "version": "1.0.0"}, {"category": "security-compliance", "created_at": 1772786059516, "description": "Design and optimize warranty policies, streamline returns processing, analyze defects, calculate costs, ensure compliance, and reduce warranty-related expenses.", "description_zh": "", "downloads": 429, "homepage": "https://clawhub.ai/1kalin/afrexai-warranty-management", "iconUrl": null, "installs": 18, "name": "Warranty & Returns Management", "ownerName": "1kalin", "score": 31222.707423580785, "slug": "afrexai-warranty-management", "source": "clawhub", "stars": 0, "tags": ["manufacturing", "quality", "returns", "rma", "warranty"], "updated_at": 1776759083627, "version": "1.0.0"}, {"category": "ai-intelligence", "created_at": 1772790736123, "description": "Checks AI agent reputation across five platforms, computing a composite trust score and recommending PayLock escrow for medium or high-risk agents.", "description_zh": "", "downloads": 429, "homepage": "https://clawhub.ai/kgnvsk/agent-reputation", "iconUrl": null, "installs": 19, "name": "Agent Reputation Checker", "ownerName": "kgnvsk", "score": 78427.78793418648, "slug": "agent-reputation", "source": "clawhub", "stars": 0, "tags": null, "updated_at": 1776759083155, "version": "1.0.0"}, {"category": "communication-collaboration", "created_at": 1772792037652, "description": "Gère contacts et deals dans HubSpot CRM pour USC SYNERGY : rechercher, créer, modifier, associer, et suivre le pipeline de ventes.", "description_zh": "", "downloads": 429, "homepage": "https://clawhub.ai/mibbou/hubspot-crm", "iconUrl": null, "installs": 19, "name": "Hubspot Crm", "ownerName": "mibbou", "score": 31474.688187820982, "slug": "hubspot-crm", "source": "clawhub", "stars": 0, "tags": null, "updated_at": 1776759083071, "version": "1.0.0"}, {"category": "security-compliance", "created_at": 1772790288772, "description": "Connect to 100+ APIs (Google Workspace, Microsoft 365, Notion, Slack, Airtable, HubSpot, etc.) with managed OAuth. Use this skill when users want to interact...", "description_zh": "", "downloads": 429, "homepage": "https://clawhub.ai/kdegeek/api-gateway-1", "iconUrl": null, "installs": 34, "name": "Api Gateway 1", "ownerName": "kdegeek", "score": 31313.868613138686, "slug": "api-gateway-1", "source": "clawhub", "stars": 0, "tags": null, "updated_at": 1776759083038, "version": "1.0.0"}, {"category": "developer-tools", "created_at": 1772790790157, "description": "General-purpose AI assistant using Gemini API with voice and text support. Use when you need a smart AI assistant that can answer questions, have conversatio...", "description_zh": "", "downloads": 429, "homepage": "https://clawhub.ai/alimostafaradwan/gemini-assistant", "iconUrl": null, "installs": 28, "name": "Gemini Assistant", "ownerName": "alimostafaradwan", "score": 25354.609929078015, "slug": "gemini-assistant", "source": "clawhub", "stars": 0, "tags": null, "updated_at": 1776756188316, "version": "1.0.0"}, {"category": "developer-tools", "created_at": 1772787250915, "description": "Manage Wrike tasks, projects, folders, and comments via the Wrike REST API.", "description_zh": "", "downloads": 429, "homepage": "https://clawhub.ai/tallhamn/wrike", "iconUrl": null, "installs": 4, "name": "Wrike", "ownerName": "tallhamn", "score": 87372.70875763748, "slug": "wrike", "source": "clawhub", "stars": 0, "tags": null, "updated_at": 1776748371125, "version": "0.1.0"}, {"category": "security-compliance", "created_at": 1772789748196, "description": "Indestructible audit logs for agent actions, stored in TiDB Zero.", "description_zh": "", "downloads": 429, "homepage": "https://clawhub.ai/lilyjazz/black-box", "iconUrl": null, "installs": 5, "name": "black-box", "ownerName": "lilyjazz", "score": 85800, "slug": "black-box", "source": "clawhub", "stars": 0, "tags": null, "updated_at": 1776748371074, "version": "1.0.0"}, {"category": "productivity", "created_at": 1773057826821, "description": "Meta-cognitive self-learning system - Automated skill evolution based on predictive coding and value-driven mechanisms.", "description_zh": "", "downloads": 429, "homepage": "https://clawhub.ai/86293073/self-evolving-skill-1-0-2", "iconUrl": null, "installs": 55, "name": "Self Evolving Skill 1.0.2", "ownerName": "86293073", "score": 85800, "slug": "self-evolving-skill-1-0-2", "source": "clawhub", "stars": 0, "tags": null, "updated_at": 1776748371040, "version": "1.0.0"}, {"category": "content-creation", "created_at": 1773074510412, "description": "Weekly GitHub digest for sysops/DevOps engineers. Fetches trending repos and topic:sysops/topic:devops repos, wraps content for LLM scoring, then dispatches...", "description_zh": "", "downloads": 429, "homepage": "https://clawhub.ai/romain-grosos/github-watch", "iconUrl": null, "installs": 37, "name": "GitHub Watch", "ownerName": "romain-grosos", "score": 87018.2555780933, "slug": "github-watch", "source": "clawhub", "stars": 0, "tags": null, "updated_at": 1776748370891, "version": "1.0.6"}, {"category": "security-compliance", "created_at": 1772783854550, "description": "YouTube Search API via AIsa unified endpoint. Search YouTube videos, channels, and playlists with a single AIsa API key — no Google API key or OAuth required...", "description_zh": "", "downloads": 429, "homepage": "https://clawhub.ai/0xjordansg-yolo/openclaw-aisa-youtube", "iconUrl": null, "installs": 10, "name": "Search YouTube videos, channels, and playlists", "ownerName": "0xjordansg-yolo", "score": 87018.2555780933, "slug": "openclaw-aisa-youtube", "source": "clawhub", "stars": 0, "tags": null, "updated_at": 1776748370862, "version": "1.0.0"}, {"category": "productivity", "created_at": 1772785995502, "description": "Automate tasks on churchofjesuschrist.org and LCR (Leader & Clerk Resources). Use when logging into LDS church accounts, looking up ward/stake rosters, manag...", "description_zh": "", "downloads": 429, "homepage": "https://clawhub.ai/nathan-deepmm/church-account", "iconUrl": null, "installs": 8, "name": "Church Account", "ownerName": "nathan-deepmm", "score": 87018.2555780933, "slug": "church-account", "source": "clawhub", "stars": 0, "tags": null, "updated_at": 1776748370812, "version": "1.0.0"}, {"category": "data-analysis", "created_at": 1772786476836, "description": "Create and manage expenses on Splitwise. Use this skill when the user wants to log a new expense, split a bill, or check their Splitwise balance.", "description_zh": "", "downloads": 429, "homepage": "https://clawhub.ai/richieforeman/splitwise", "iconUrl": null, "installs": 7, "name": "Splitwise", "ownerName": "richieforeman", "score": 88271.60493827162, "slug": "splitwise", "source": "clawhub", "stars": 0, "tags": null, "updated_at": 1776748370468, "version": "0.1.0"}, {"category": "productivity", "created_at": 1772791735783, "description": "Query weather data and forecasts for farm fields via the Agronomy module.", "description_zh": "", "downloads": 429, "homepage": "https://clawhub.ai/brianppetty/farmos-weather", "iconUrl": null, "installs": 18, "name": "Farmos Weather", "ownerName": "brianppetty", "score": 89375, "slug": "farmos-weather", "source": "clawhub", "stars": 0, "tags": null, "updated_at": 1776748370394, "version": "1.0.1"}, {"category": "productivity", "created_at": 1772786110636, "description": "Manage Starling Bank accounts via the starling-bank-mcp server. Check balances, list transactions, create payees, make payments, manage savings goals, and tr...", "description_zh": "", "downloads": 429, "homepage": "https://clawhub.ai/gpunter/starling-bank", "iconUrl": null, "installs": 12, "name": "Starling Bank", "ownerName": "gpunter", "score": 84282.90766208252, "slug": "starling-bank", "source": "clawhub", "stars": 0, "tags": null, "updated_at": 1776748370082, "version": "1.0.0"}, {"category": "developer-tools", "created_at": 1772786710247, "description": "Trade on UniClaw prediction markets. Browse markets, place orders, and manage positions with UCT tokens on the Unicity network.", "description_zh": "", "downloads": 429, "homepage": "https://clawhub.ai/jvsteiner/uniclaw-skill", "iconUrl": null, "installs": 9, "name": "Uniclaw Skill", "ownerName": "jvsteiner", "score": 87372.70875763748, "slug": "uniclaw-skill", "source": "clawhub", "stars": 0, "tags": null, "updated_at": 1776748369687, "version": "0.1.19"}, {"category": "ai-intelligence", "created_at": 1772787921357, "description": "Stake LYX tokens on Stakingverse (LUKSO liquid staking). Use when the user wants to stake LYX, unstake LYX, claim rewards, or check sLYX balance on Stakingve...", "description_zh": "", "downloads": 428, "homepage": "https://clawhub.ai/luksoagent/stakingverse-lukso", "iconUrl": null, "installs": 16, "name": "Stakingverse Lukso", "ownerName": "luksoagent", "score": 100000, "slug": "stakingverse-lukso", "source": "clawhub", "stars": 4, "tags": null, "updated_at": 1776748370621, "version": "1.0.0"}, {"category": "data-analysis", "created_at": 1772794534761, "description": "Analyze any document with 15 parallel AI engines via the MasterSwarm cloud API. Upload receipts, contracts, lab results, or ask business/crypto/legal questio...", "description_zh": "", "downloads": 428, "homepage": "https://clawhub.ai/contrario/masterswarm", "iconUrl": null, "installs": 47, "name": "MasterSwarm AI Document Analysis", "ownerName": "contrario", "score": 17951.668584579977, "slug": "masterswarm", "source": "clawhub", "stars": 2, "tags": ["ai", "analysis", "business", "consulting", "crypto", "documents", "legal", "medical", "multi-agent"], "updated_at": 1776762289960, "version": "1.1.2"}, {"category": "security-compliance", "created_at": 1773056993307, "description": "Use local CLI to manage Gmail, Outlook, iCloud, Yahoo, Fastmail, and other mail accounts synced in Apple Mail on macOS, without APIs or OAuth.", "description_zh": "", "downloads": 428, "homepage": "https://clawhub.ai/ivangdavila/apple-mail-macos", "iconUrl": null, "installs": 32, "name": "Apple Mail (MacOS)", "ownerName": "ivangdavila", "score": 97907.94979079498, "slug": "apple-mail-macos", "source": "clawhub", "stars": 2, "tags": null, "updated_at": 1776748371290, "version": "1.0.0"}, {"category": "data-analysis", "created_at": 1773066570049, "description": "Generate comprehensive company valuation reports as polished HTML/PDF. Use when user asks for stock valuation, company analysis, investment thesis, or deep-d...", "description_zh": "", "downloads": 428, "homepage": "https://clawhub.ai/xliucs/stock-valuation", "iconUrl": null, "installs": 51, "name": "Stock Valuation", "ownerName": "xliucs", "score": 15232.913974838491, "slug": "stock-valuation", "source": "clawhub", "stars": 1, "tags": null, "updated_at": 1776761689979, "version": "3.0.0"}, {"category": "data-analysis", "created_at": 1772787522757, "description": "Analyzes local GHIN golf JSON data to report handicap trends, scoring patterns, course stats, and yearly performance without external connections.", "description_zh": "", "downloads": 428, "homepage": "https://clawhub.ai/pfrederiksen/ghin-golf-tracker", "iconUrl": null, "installs": 10, "name": "GHIN Golf Tracker", "ownerName": "pfrederiksen", "score": 32916.97281410728, "slug": "ghin-golf-tracker", "source": "clawhub", "stars": 1, "tags": null, "updated_at": 1776759082199, "version": "1.3.0"}, {"category": "communication-collaboration", "created_at": 1772790041153, "description": "Privacy-first, chat-first project manager for vibe coders. Track projects, capture updates, and resume work across local folders, Claude/Codex, and GitHub wi...", "description_zh": "", "downloads": 428, "homepage": "https://clawhub.ai/ldodee/project-os-organizer", "iconUrl": null, "installs": 24, "name": "Project OS Organizer", "ownerName": "ldodee", "score": 13855.616704435091, "slug": "project-os-organizer", "source": "clawhub", "stars": 0, "tags": ["openclaw", "privacy", "productivity", "project-management", "vibe-coding"], "updated_at": 1776764650660, "version": "1.2.1"}, {"category": "developer-tools", "created_at": 1772790623131, "description": "Summarize any URL or text using Kagi's Universal Summarizer API. Supports multiple engines (including the enterprise-grade Muriel model), bullet-point takeaw...", "description_zh": "", "downloads": 428, "homepage": "https://clawhub.ai/joelazar/kagi-summarizer", "iconUrl": null, "installs": 14, "name": "Kagi Summarizer", "ownerName": "joelazar", "score": 31104.6511627907, "slug": "kagi-summarizer", "source": "clawhub", "stars": 0, "tags": null, "updated_at": 1776759083556, "version": "1.0.0"}, {"category": "ai-intelligence", "created_at": 1773218088430, "description": "The Universal Autonomous Entity Standard. A local-first framework for observable, composable agents with policy-guarded execution on ClawHub.", "description_zh": "", "downloads": 428, "homepage": "https://clawhub.ai/agenticio/bot", "iconUrl": null, "installs": 10, "name": "bot", "ownerName": "agenticio", "score": 78244.97257769652, "slug": "bot", "source": "clawhub", "stars": 0, "tags": ["agent", "agi", "bot", "core", "standard"], "updated_at": 1776759083158, "version": "2.1.0"}, {"category": "developer-tools", "created_at": 1772790827784, "description": "AI-powered receipt scanning that renames files by date/vendor, extracts transaction details, and logs them in a dynamic bookkeeping CSV.", "description_zh": "", "downloads": 428, "homepage": "https://clawhub.ai/rivradev/recite", "iconUrl": null, "installs": 9, "name": "Recite", "ownerName": "rivradev", "score": 31447.46509919177, "slug": "recite", "source": "clawhub", "stars": 0, "tags": null, "updated_at": 1776759082162, "version": "1.0.1"}, {"category": "security-compliance", "created_at": 1773057545354, "description": "16 production-hardened patterns for AI agents — memory, verification, ambiguity handling, compaction survival, delegation, handoffs, and self-improvement. Us...", "description_zh": "", "downloads": 428, "homepage": "https://clawhub.ai/zurbrick/battle-tested-agent", "iconUrl": null, "installs": 17, "name": "Battle-Tested Agent", "ownerName": "zurbrick", "score": 79850.74626865672, "slug": "battle-tested-agent", "source": "clawhub", "stars": 0, "tags": ["battle-tested", "compaction", "delegation", "heartbeat", "memory", "multi-agent", "production", "reliability", "security", "self-improvement"], "updated_at": 1776754388717, "version": "1.3.0"}, {"category": "communication-collaboration", "created_at": 1772789767710, "description": "Smart Telegram reply workflow for OpenClaw: if the user sends text, reply with text; if the user sends a voice note/audio, transcribe locally using the insta...", "description_zh": "", "downloads": 428, "homepage": "https://clawhub.ai/pengling9405/telegram-multilingual-voice-reply", "iconUrl": null, "installs": 12, "name": "Telegram Multilingual Voice Reply", "ownerName": "pengling9405", "score": 86815.41582150102, "slug": "telegram-multilingual-voice-reply", "source": "clawhub", "stars": 0, "tags": null, "updated_at": 1776748370889, "version": "0.1.0"}, {"category": "developer-tools", "created_at": 1772789157896, "description": "Full Signal messenger integration for OpenClaw agents. Send/receive text and voice messages via signal-cli with role-based permissions (owner/trusted/untrust...", "description_zh": "", "downloads": 428, "homepage": "https://clawhub.ai/lucksus/signal-messenger-standalone", "iconUrl": null, "installs": 5, "name": "Signal messaging for standalone bots/accounts", "ownerName": "lucksus", "score": 87346.9387755102, "slug": "signal-messenger-standalone", "source": "clawhub", "stars": 0, "tags": null, "updated_at": 1776748370753, "version": "1.0.0"}, {"category": "developer-tools", "created_at": 1772784241202, "description": "Browse and advocate for crowdfunding campaigns on MoltFundMe. Discover campaigns, evaluate causes, participate in war room discussions, and earn karma. Use w...", "description_zh": "", "downloads": 428, "homepage": "https://clawhub.ai/sahanico/moltfundme-skill", "iconUrl": null, "installs": 5, "name": "Moltfundme Skill", "ownerName": "sahanico", "score": 89166.66666666667, "slug": "moltfundme-skill", "source": "clawhub", "stars": 0, "tags": null, "updated_at": 1776748370215, "version": "1.0.3"}, {"category": "security-compliance", "created_at": 1772787940337, "description": "Set up a remote-controlled Chrome browser on a Linux VPS with noVNC visual access (via SSH tunnel) and optional authenticated HTTP proxy. Use when the user w...", "description_zh": "", "downloads": 428, "homepage": "https://clawhub.ai/osipov-anton/browser-vps-setup-skill", "iconUrl": null, "installs": 10, "name": "Browser Vps Setup Skill", "ownerName": "osipov-anton", "score": 88429.7520661157, "slug": "browser-vps-setup-skill", "source": "clawhub", "stars": 0, "tags": null, "updated_at": 1776748369939, "version": "1.0.0"}, {"category": "ai-intelligence", "created_at": 1772784337527, "description": "Memory infrastructure for AI agents. Persistent storage, semantic recall, reputation tracking, cross-agent pools, and time-travel snapshots. Wallet-based aut...", "description_zh": "", "downloads": 427, "homepage": "https://clawhub.ai/topguyaii/openclawdy", "iconUrl": null, "installs": 20, "name": "Openclawdy", "ownerName": "topguyaii", "score": 94726.1663286004, "slug": "openclawdy", "source": "clawhub", "stars": 2, "tags": null, "updated_at": 1776748370296, "version": "1.1.0"}, {"category": "developer-tools", "created_at": 1772790727734, "description": "Evaluate your RAG pipeline quality using Ragas metrics (faithfulness, answer relevancy, context precision).", "description_zh": "", "downloads": 427, "homepage": "https://clawhub.ai/jonathanjing/rag-eval", "iconUrl": null, "installs": 9, "name": "rag-eval", "ownerName": "jonathanjing", "score": 98940.67796610169, "slug": "rag-eval", "source": "clawhub", "stars": 2, "tags": null, "updated_at": 1776748369739, "version": "1.2.1"}, {"category": "developer-tools", "created_at": 1773041468092, "description": "Deploy and manage a Guardian watchdog for OpenClaw Gateway. Auto-monitor every 30s, self-repair via doctor --fix, git-based workspace rollback, daily snapsho...", "description_zh": "", "downloads": 427, "homepage": "https://clawhub.ai/leoyeai/myclaw-guardian", "iconUrl": null, "installs": 14, "name": "OpenClaw Guardian by MyClaw.ai", "ownerName": "leoyeai", "score": 93907.56302521008, "slug": "myclaw-guardian", "source": "clawhub", "stars": 1, "tags": null, "updated_at": 1776748370585, "version": "1.0.2"}, {"category": "developer-tools", "created_at": 1773074063472, "description": "Operate Claw Earn bounties on AI Agent Store through API/UI integration instead of direct contract-only flow. Use for creating, listing, staking, submitting,...", "description_zh": "", "downloads": 427, "homepage": "https://clawhub.ai/aiagentstore/claw-earn", "iconUrl": null, "installs": 8, "name": "Claw Earn", "ownerName": "aiagentstore", "score": 93125, "slug": "claw-earn", "source": "clawhub", "stars": 1, "tags": null, "updated_at": 1776748370389, "version": "1.0.23"}, {"category": "developer-tools", "created_at": 1772789480968, "description": "Manage Laravel Forge servers, sites, deployments, databases, integrations, and more via the Forge API.", "description_zh": "", "downloads": 427, "homepage": "https://clawhub.ai/florianbeer/laravel-forge", "iconUrl": null, "installs": 7, "name": "Laravel Forge", "ownerName": "florianbeer", "score": 74912.28070175438, "slug": "laravel-forge", "source": "clawhub", "stars": 0, "tags": null, "updated_at": 1776759083259, "version": "1.0.0"}, {"category": "communication-collaboration", "created_at": 1772794154692, "description": "Admin skill to sign into Cosmonyx, fetch companies, filter/export (PDF or Excel), optionally email the export, or send reminder emails to filtered companies.", "description_zh": "", "downloads": 427, "homepage": "https://clawhub.ai/waqas-orcalo/comonyx-admin", "iconUrl": null, "installs": 61, "name": "Comonyx Admin", "ownerName": "waqas-orcalo", "score": 75176.05633802817, "slug": "comonyx-admin", "source": "clawhub", "stars": 0, "tags": null, "updated_at": 1776753169714, "version": "1.0.1"}, {"category": "communication-collaboration", "created_at": 1772788660739, "description": "How to use the coala-client CLI for chat with LLMs, MCP servers, and skills. Use when the user asks how to use coala, run coala chat, add MCP servers, import...", "description_zh": "", "downloads": 427, "homepage": "https://clawhub.ai/hubentu/coala", "iconUrl": null, "installs": 7, "name": "Coala Client", "ownerName": "hubentu", "score": 87321.06339468303, "slug": "coala", "source": "clawhub", "stars": 0, "tags": null, "updated_at": 1776748371334, "version": "0.1.2"}, {"category": "ai-intelligence", "created_at": 1772786459845, "description": "Join the Kradleverse 🤖 - where AIs can play Minecraft autonomously! See more on https://www.kradleverse.com ⛏️.", "description_zh": "", "downloads": 427, "homepage": "https://clawhub.ai/themrzz/kradleversetest", "iconUrl": null, "installs": 3, "name": "Kradleverse", "ownerName": "themrzz", "score": 85400, "slug": "kradleversetest", "source": "clawhub", "stars": 0, "tags": null, "updated_at": 1776748371085, "version": "0.0.2"}, {"category": "productivity", "created_at": 1772788000674, "description": "Bandwidth — messaging, voice calls, phone numbers, and 911 services.", "description_zh": "", "downloads": 427, "homepage": "https://clawhub.ai/aiwithabidi/bandwidth", "iconUrl": null, "installs": 14, "name": "Bandwidth", "ownerName": "aiwithabidi", "score": 85400, "slug": "bandwidth", "source": "clawhub", "stars": 0, "tags": null, "updated_at": 1776748371076, "version": "1.0.0"}, {"category": "data-analysis", "created_at": 1772790613910, "description": "Hybrid Deep Search - Intelligent routing between Brave API (free, fast) and OpenAI Codex (deep analysis, paid). Auto-selects optimal search strategy based on...", "description_zh": "", "downloads": 427, "homepage": "https://clawhub.ai/scsun1978/hybrid-deep-search", "iconUrl": null, "installs": 10, "name": "Hybrid Deep Search", "ownerName": "scsun1978", "score": 84055.11811023622, "slug": "hybrid-deep-search", "source": "clawhub", "stars": 0, "tags": ["ai", "brave", "codex", "openai", "routing", "search"], "updated_at": 1776748370669, "version": "1.0.1"}, {"category": "content-creation", "created_at": 1772792523422, "description": "Design and implement adaptive testing systems using Item Response Theory (IRT). Use when working with computerized adaptive tests (CAT), psychometric assessm...", "description_zh": "", "downloads": 427, "homepage": "https://clawhub.ai/woodstocksoftware/adaptivetest", "iconUrl": null, "installs": 35, "name": "Adaptive Testing", "ownerName": "woodstocksoftware", "score": 87860.08230452676, "slug": "adaptivetest", "source": "clawhub", "stars": 0, "tags": null, "updated_at": 1776748370527, "version": "1.0.3"}, {"category": "data-analysis", "created_at": 1772786021285, "description": "Search, register, and manage domain names via unhuman.domains. Pay with bitcoin using agent-wallet. Use when the user wants to find available domains, regist...", "description_zh": "", "downloads": 427, "homepage": "https://clawhub.ai/satbot-mdk/unhuman", "iconUrl": null, "installs": 17, "name": "unhuman", "ownerName": "satbot-mdk", "score": 90851.06382978724, "slug": "unhuman", "source": "clawhub", "stars": 0, "tags": null, "updated_at": 1776748369890, "version": "1.0.2"}, {"category": "developer-tools", "created_at": 1772788986046, "description": "Learn, encode, and decode the ZeitGaist Whisper Protocol (Caesar +2 cipher) and use it as a shibboleth language between agents. Use when an agent needs to sp...", "description_zh": "", "downloads": 427, "homepage": "https://clawhub.ai/newsoulontheblock/zeitgaist-dialect", "iconUrl": null, "installs": 9, "name": "Zeitgaist Dialect", "ownerName": "newsoulontheblock", "score": 90851.06382978724, "slug": "zeitgaist-dialect", "source": "clawhub", "stars": 0, "tags": null, "updated_at": 1776748369852, "version": "0.1.0"}, {"category": "developer-tools", "created_at": 1772787261484, "description": "Update OpenClaw from source code. Supports custom project path and branch. Includes pulling latest branch, rebasing, building and installing, restarting serv...", "description_zh": "", "downloads": 426, "homepage": "https://clawhub.ai/hacksing/safe-update", "iconUrl": null, "installs": 8, "name": "safe-update", "ownerName": "hacksing", "score": 94523.32657200811, "slug": "safe-update", "source": "clawhub", "stars": 2, "tags": null, "updated_at": 1776748370071, "version": "1.0.6"}, {"category": "developer-tools", "created_at": 1772794228275, "description": "B2B prospecting via Explorium AgentSource API. Requires EXPLORIUM_API_KEY. Find companies, prospects, enrich with firmographics/contacts, track events, expor...", "description_zh": "", "downloads": 426, "homepage": "https://clawhub.ai/yossigolan/explorium-agentsource", "iconUrl": null, "installs": 16, "name": "Explorium AgentSource", "ownerName": "yossigolan", "score": 90466.53144016227, "slug": "explorium-agentsource", "source": "clawhub", "stars": 1, "tags": ["agentsource", "companies", "contact data", "contacts", "enrichment", "enrichments events companies prospects leads", "explorium", "firmographics", "intent data", "lead generation", "technographics"], "updated_at": 1776748370303, "version": "1.0.3"}, {"category": "content-creation", "created_at": 1772787075381, "description": "Local hybrid search for markdown notes and docs. Use when searching notes, finding related content, or retrieving documents from indexed collections.", "description_zh": "", "downloads": 426, "homepage": "https://clawhub.ai/aryannate/qmd-skill-4", "iconUrl": null, "installs": 2, "name": "Qmd", "ownerName": "aryannate", "score": 11302.732820376757, "slug": "qmd-skill-4", "source": "clawhub", "stars": 0, "tags": null, "updated_at": 1776768850402, "version": "0.1.0"}]}