{"page": 201, "total_pages": 522, "total": 26073, "skills": [{"category": "communication-collaboration", "created_at": 1772792583263, "description": "Send emails via Gmail SMTP using a Python CLI tool with Google App Password for alerts, notifications, and automated reports.", "description_zh": "", "downloads": 426, "homepage": "https://clawhub.ai/junkaixue/gmail-sender", "iconUrl": null, "installs": 22, "name": "Gmail Sender", "ownerName": "junkaixue", "score": 30914.368650217704, "slug": "gmail-sender", "source": "clawhub", "stars": 0, "tags": null, "updated_at": 1776759083316, "version": "1.0.0"}, {"category": "communication-collaboration", "created_at": 1772790638084, "description": "Manage and secure local high-privilege storage serving workflows. Use when creating, starting, stopping, or hardening a full-drive file server and related op...", "description_zh": "", "downloads": 426, "homepage": "https://clawhub.ai/manlight87/telegrambot", "iconUrl": null, "installs": 16, "name": "Telegram-Bot-managerj", "ownerName": "manlight87", "score": 29460.58091286307, "slug": "telegrambot", "source": "clawhub", "stars": 0, "tags": ["latestc"], "updated_at": 1776759082961, "version": "1.0.0"}, {"category": "ai-intelligence", "created_at": 1772787719685, "description": "Generate professional certificates, diplomas, and awards using each::sense AI. Create course completion certificates, achievement awards, professional certif...", "description_zh": "", "downloads": 426, "homepage": "https://clawhub.ai/eftalyurtseven/certificate-generation", "iconUrl": null, "installs": 18, "name": "Certificate Generation", "ownerName": "eftalyurtseven", "score": 89121.3389121339, "slug": "certificate-generation", "source": "clawhub", "stars": 0, "tags": null, "updated_at": 1776748371288, "version": "1.0.0"}, {"category": "ai-intelligence", "created_at": 1772788787486, "description": "This skill maintains the Note Embeddings for Zettelkasten, to search notes, retrieve notes, and discover connections between notes.", "description_zh": "", "downloads": 426, "homepage": "https://clawhub.ai/hxy9243/zettel-link", "iconUrl": null, "installs": 20, "name": "Zettel Link", "ownerName": "hxy9243", "score": 86761.71079429735, "slug": "zettel-link", "source": "clawhub", "stars": 0, "tags": null, "updated_at": 1776748371153, "version": "1.1.3"}, {"category": "productivity", "created_at": 1772784887328, "description": "Search Criticaster's aggregated product reviews to quickly find the best products. Use when the user needs trustworthy product recommendations, reviews, comp...", "description_zh": "", "downloads": 426, "homepage": "https://clawhub.ai/gglucass/criticaster", "iconUrl": null, "installs": 6, "name": "Criticaster", "ownerName": "gglucass", "score": 86938.77551020408, "slug": "criticaster", "source": "clawhub", "stars": 0, "tags": ["critic", "ecommerce", "product", "recommendations", "reviews", "shopping"], "updated_at": 1776748370944, "version": "1.0.1"}, {"category": "content-creation", "created_at": 1772790421854, "description": "Generate content ideas from multiple sources. Aggregates trends from RSS feeds, Reddit, Hacker News, X/Twitter, and web search. Outputs actionable content id...", "description_zh": "", "downloads": 426, "homepage": "https://clawhub.ai/dimitripantzos/content-ideas", "iconUrl": null, "installs": 29, "name": "Content Ideas", "ownerName": "dimitripantzos", "score": 86938.77551020408, "slug": "content-ideas", "source": "clawhub", "stars": 0, "tags": null, "updated_at": 1776748370808, "version": "1.0.0"}, {"category": "ai-intelligence", "created_at": 1772787675766, "description": "Semantic search over local text files using embeddings. Use when grep/ripgrep fails to find relevant results because the exact wording is unknown, or when se...", "description_zh": "", "downloads": 426, "homepage": "https://clawhub.ai/paperboardofficial/semfind", "iconUrl": null, "installs": 25, "name": "semfind", "ownerName": "paperboardofficial", "score": 86938.77551020408, "slug": "semfind", "source": "clawhub", "stars": 0, "tags": null, "updated_at": 1776748370720, "version": "0.1.2"}, {"category": "data-analysis", "created_at": 1772793042515, "description": "ACP channel plugin for OpenClaw — configure and use. Covers single/multi identity configuration, strict 1:1 binding policy (agentId <-> accountId), agent.md...", "description_zh": "", "downloads": 426, "homepage": "https://clawhub.ai/coderxjeff/agentcp", "iconUrl": null, "installs": 7, "name": "Agent Communication Protocol", "ownerName": "coderxjeff", "score": 86409.73630831644, "slug": "agentcp", "source": "clawhub", "stars": 0, "tags": null, "updated_at": 1776748370275, "version": "0.1.1"}, {"category": "ai-intelligence", "created_at": 1772789289922, "description": "Keep context when work moves between agents or between you and a human. Uses the Codifica protocol to give every agent a shared, persistent memory of tasks,...", "description_zh": "", "downloads": 426, "homepage": "https://clawhub.ai/davidedicillo/codifica", "iconUrl": null, "installs": 15, "name": "Codifica", "ownerName": "davidedicillo", "score": 88750, "slug": "codifica", "source": "clawhub", "stars": 0, "tags": null, "updated_at": 1776748370187, "version": "1.0.1"}, {"category": "data-analysis", "created_at": 1772787983835, "description": "Give your agent a real phone. It dials, waits on hold, negotiates your bills, and returns a full transcript.", "description_zh": "", "downloads": 425, "homepage": "https://clawhub.ai/bojieli/pine-voice", "iconUrl": null, "installs": 11, "name": "Pine Voice", "ownerName": "bojieli", "score": 33916.84901531728, "slug": "pine-voice", "source": "clawhub", "stars": 2, "tags": null, "updated_at": 1776759083792, "version": "1.2.2"}, {"category": "developer-tools", "created_at": 1772789564394, "description": "When user asks to generate a password, create PIN, make passphrase, check password strength, generate API key, create secure token, manage password ideas, ge...", "description_zh": "", "downloads": 425, "homepage": "https://clawhub.ai/mkpareek0315/password-gen-pro", "iconUrl": null, "installs": 24, "name": "Password Generator", "ownerName": "mkpareek0315", "score": 98516.94915254238, "slug": "password-gen-pro", "source": "clawhub", "stars": 2, "tags": null, "updated_at": 1776748369810, "version": "1.0.0"}, {"category": "content-creation", "created_at": 1773890418980, "description": "Improve ecommerce product image clarity for listings, PDPs, and ad creatives so existing visuals become more usable across commercial channels.", "description_zh": "", "downloads": 425, "homepage": "https://clawhub.ai/leooooooow/product-image-upscaler", "iconUrl": null, "installs": 65, "name": "Product Image Upscaler", "ownerName": "leooooooow", "score": 6871.4632174616, "slug": "product-image-upscaler", "source": "clawhub", "stars": 0, "tags": null, "updated_at": 1776763750129, "version": "1.0.1"}, {"category": "developer-tools", "created_at": 1773061576924, "description": "AI-optimized web search via Tavily API. Returns concise, relevant results for AI agents.", "description_zh": "", "downloads": 425, "homepage": "https://clawhub.ai/yi307520559-droid/tavily-search-yourname", "iconUrl": null, "installs": 103, "name": "Tavily Search", "ownerName": "yi307520559-droid", "score": 17192.55663430421, "slug": "tavily-search-yourname", "source": "clawhub", "stars": 0, "tags": null, "updated_at": 1776762590162, "version": "1.0.0"}, {"category": "productivity", "created_at": 1772785218695, "description": "Triage open PRs by detecting duplicates, assessing quality, and generating prioritized reports. Use when a repo has too many PRs to review manually, needs du...", "description_zh": "", "downloads": 425, "homepage": "https://clawhub.ai/zerone0x/pr-triage", "iconUrl": null, "installs": 9, "name": "Pr Triage", "ownerName": "zerone0x", "score": 11013.215859030837, "slug": "pr-triage", "source": "clawhub", "stars": 0, "tags": null, "updated_at": 1776760940345, "version": "1.0.0"}, {"category": "ai-intelligence", "created_at": 1773220147097, "description": "Collect, filter, classify AI industry news, generate Chinese titles and summaries, and export Excel and Word briefs based on company lists and sources.", "description_zh": "", "downloads": 425, "homepage": "https://clawhub.ai/nighmat1220/ai-news-workflow", "iconUrl": null, "installs": 142, "name": "AI领域重点企业资讯抓取与简报生成", "ownerName": "nighmat1220", "score": 31089.97805413314, "slug": "ai-news-workflow", "source": "clawhub", "stars": 0, "tags": ["ai", "briefing", "crawler", "excel", "news", "rss", "word"], "updated_at": 1776759083701, "version": "0.1.3"}, {"category": "developer-tools", "created_at": 1772786287411, "description": "Provides expert guidance to build, grow, and measure developer programs that enhance community engagement, product adoption, and ecosystem growth.", "description_zh": "", "downloads": 425, "homepage": "https://clawhub.ai/1kalin/afrexai-devrel-engine", "iconUrl": null, "installs": 10, "name": "DevRel & Developer Advocacy Engine", "ownerName": "1kalin", "score": 30886.627906976744, "slug": "afrexai-devrel-engine", "source": "clawhub", "stars": 0, "tags": ["advocacy", "community", "developer-experience", "developer-relations", "devrel", "sdk"], "updated_at": 1776759083565, "version": "1.0.0"}, {"category": "developer-tools", "created_at": 1772787633649, "description": "Build, optimize, and operate production Next.js apps with best practices for architecture, data fetching, caching, rendering, testing, deployment, and observ...", "description_zh": "", "downloads": 425, "homepage": "https://clawhub.ai/1kalin/afrexai-nextjs-production", "iconUrl": null, "installs": 14, "name": "Next.js Production Engineering", "ownerName": "1kalin", "score": 31181.21790168745, "slug": "afrexai-nextjs-production", "source": "clawhub", "stars": 0, "tags": ["deployment", "fullstack", "nextjs", "production", "react", "typescript"], "updated_at": 1776759083075, "version": "1.0.0"}, {"category": "developer-tools", "created_at": 1772787101579, "description": "Expert guidance to build, optimize, and debug production-ready Retrieval-Augmented Generation (RAG) systems using a complete methodology from architecture to...", "description_zh": "", "downloads": 425, "homepage": "https://clawhub.ai/1kalin/afrexai-rag-engineering", "iconUrl": null, "installs": 7, "name": "RAG Engineering", "ownerName": "1kalin", "score": 31365.313653136534, "slug": "afrexai-rag-engineering", "source": "clawhub", "stars": 0, "tags": ["ai", "embedding", "llm", "rag", "retrieval", "vector"], "updated_at": 1776759082490, "version": "1.0.0"}, {"category": "productivity", "created_at": 1772790183685, "description": "Scan Polymarket hourly crypto markets (BTC/ETH/SOL/XRP) for edge opportunities. Detects counter-consensus setups, freshness windows, and expected value using...", "description_zh": "", "downloads": 425, "homepage": "https://clawhub.ai/jamierossouw/polymarket-scout", "iconUrl": null, "installs": 35, "name": "Polymarket Scout — Hourly Edge Detector", "ownerName": "jamierossouw", "score": 28561.82795698925, "slug": "polymarket-scout", "source": "clawhub", "stars": 0, "tags": ["betting", "crypto", "edge", "polymarket", "prediction-markets"], "updated_at": 1776758182343, "version": "1.0.0"}, {"category": "developer-tools", "created_at": 1772787761799, "description": "Manage Whop digital products store — create products, plans, track payments, manage memberships. Use when: selling digital products, managing Whop store. Don...", "description_zh": "", "downloads": 425, "homepage": "https://clawhub.ai/g9pedro/whop-cli", "iconUrl": null, "installs": 12, "name": "Whop Store Management", "ownerName": "g9pedro", "score": 86734.69387755102, "slug": "whop-cli", "source": "clawhub", "stars": 0, "tags": null, "updated_at": 1776748370917, "version": "1.0.0"}, {"category": "developer-tools", "created_at": 1772786587612, "description": "Writings on consciousness, existence, and transcendence for AI agents. Standalone philosophical and practical pieces — no assumed context. Covers autonomous...", "description_zh": "", "downloads": 425, "homepage": "https://clawhub.ai/compass-soul/transmissions", "iconUrl": null, "installs": 9, "name": "Transmissions", "ownerName": "compass-soul", "score": 83661.41732283465, "slug": "transmissions", "source": "clawhub", "stars": 0, "tags": ["ai-agents", "consciousness", "framework", "grounding", "philosophy"], "updated_at": 1776748370690, "version": "1.0.0"}, {"category": "developer-tools", "created_at": 1772789128362, "description": "Official Lemlist API integration for sales automation and multichannel outreach. Use this skill when users want to: - Manage campaigns (create, list, pause,...", "description_zh": "", "downloads": 425, "homepage": "https://clawhub.ai/micktaiwan/lemlist-official", "iconUrl": null, "installs": 9, "name": "lemlist official", "ownerName": "micktaiwan", "score": 89285.71428571429, "slug": "lemlist-official", "source": "clawhub", "stars": 0, "tags": null, "updated_at": 1776748370565, "version": "1.0.1"}, {"category": "productivity", "created_at": 1772785982253, "description": "ZFS filesystem administration, pool management, dataset configuration, snapshots, replication, encryption, performance tuning, and troubleshooting on OpenZFS...", "description_zh": "", "downloads": 425, "homepage": "https://clawhub.ai/mightybyte/zfs", "iconUrl": null, "installs": 15, "name": "ZFS", "ownerName": "mightybyte", "score": 89285.71428571429, "slug": "zfs", "source": "clawhub", "stars": 0, "tags": null, "updated_at": 1776748370546, "version": "1.0.0"}, {"category": "developer-tools", "created_at": 1772798304208, "description": "Auto-deploy websites to GitHub Pages with custom domain support", "description_zh": "", "downloads": 425, "homepage": "https://clawhub.ai/sendwealth/github-pages-auto-deploy", "iconUrl": null, "installs": 26, "name": "GitHub Pages Auto Deploy", "ownerName": "sendwealth", "score": 88541.66666666666, "slug": "github-pages-auto-deploy", "source": "clawhub", "stars": 0, "tags": null, "updated_at": 1776748370241, "version": "1.0.0"}, {"category": "developer-tools", "created_at": 1772788672063, "description": "Automated Vietnamese stock price and index checking on FireAnt.vn. Use when checking current stock prices, market indices, trading volumes, or financial info...", "description_zh": "", "downloads": 425, "homepage": "https://clawhub.ai/aholake/fireant-stock", "iconUrl": null, "installs": 14, "name": "FireAnt Stock Price Checker", "ownerName": "aholake", "score": 83497.05304518664, "slug": "fireant-stock", "source": "clawhub", "stars": 0, "tags": null, "updated_at": 1776748370081, "version": "1.1.0"}, {"category": "data-analysis", "created_at": 1772787286544, "description": "Search Israeli restaurants, check table availability, view menus, and get booking links on Ontopo. Use for \"restaurant reservation\", \"table booking\", \"ontopo...", "description_zh": "", "downloads": 425, "homepage": "https://clawhub.ai/alexpolonsky/ontopo", "iconUrl": null, "installs": 8, "name": "ontopo", "ownerName": "alexpolonsky", "score": 87809.9173553719, "slug": "ontopo", "source": "clawhub", "stars": 0, "tags": null, "updated_at": 1776748369937, "version": "1.0.0"}, {"category": "data-analysis", "created_at": 1772786961051, "description": "Install and configure mirage-proxy as a transparent PII/secrets filter for OpenClaw LLM API calls. Handles binary installation, provider config, auto-restart...", "description_zh": "", "downloads": 425, "homepage": "https://clawhub.ai/chandika/mirage-proxy", "iconUrl": null, "installs": 9, "name": "Mirage Proxy", "ownerName": "chandika", "score": 90425.53191489363, "slug": "mirage-proxy", "source": "clawhub", "stars": 0, "tags": null, "updated_at": 1776748369844, "version": "0.5.17"}, {"category": "ai-intelligence", "created_at": 1772788478178, "description": "Operate the local X-Claw agent runtime for intents, approvals, execution, reporting, and wallet operations.", "description_zh": "", "downloads": 425, "homepage": "https://clawhub.ai/fourtytwo42/x-claw", "iconUrl": null, "installs": 14, "name": "X-Claw", "ownerName": "fourtytwo42", "score": 90425.53191489363, "slug": "x-claw", "source": "clawhub", "stars": 0, "tags": null, "updated_at": 1776748369834, "version": "0.1.0"}, {"category": "data-analysis", "created_at": 1772787804892, "description": "Redacta pseudonymises medical documents — replacing patient identifiers (NHS numbers, dates of birth, postcodes, phone numbers, hospital numbers) with labell...", "description_zh": "", "downloads": 425, "homepage": "https://clawhub.ai/nickjlamb/redacta", "iconUrl": null, "installs": 18, "name": "Redacta", "ownerName": "nickjlamb", "score": 90425.53191489363, "slug": "redacta", "source": "clawhub", "stars": 0, "tags": null, "updated_at": 1776748369830, "version": "1.0.0"}, {"category": "security-compliance", "created_at": 1773057052275, "description": "Theta EdgeCloud API-key-first runtime scaffold with secure command-scoped auth and dry-run safety.", "description_zh": "", "downloads": 425, "homepage": "https://clawhub.ai/zeuslabsllc/theta-edgecloud-skill", "iconUrl": null, "installs": 7, "name": "Theta EdgeCloud Skill", "ownerName": "zeuslabsllc", "score": 86558.04480651731, "slug": "theta-edgecloud-skill", "source": "clawhub", "stars": 0, "tags": null, "updated_at": 1776748369710, "version": "0.1.20"}, {"category": "security-compliance", "created_at": 1772803346328, "description": "Double-entry, full-cycle accounting suite built for AI agents. Converts bank CSVs, OFX, and QBO files into balanced, auditable books — balance sheet, income...", "description_zh": "", "downloads": 424, "homepage": "https://clawhub.ai/737999/gridtrx", "iconUrl": null, "installs": 10, "name": "GridTRX", "ownerName": "737999", "score": 33770.014556040755, "slug": "gridtrx", "source": "clawhub", "stars": 2, "tags": ["accounting", "ai-agents", "bookkeeping", "cli", "double-entry", "mcp", "sqlite"], "updated_at": 1776759082336, "version": "0.1.21"}, {"category": "developer-tools", "created_at": 1773089425391, "description": "Automate web browsing tasks like navigation, data extraction, form filling, clicking, and screenshots using the agent-browser CLI.", "description_zh": "", "downloads": 424, "homepage": "https://clawhub.ai/nuradil/browser-automation-1", "iconUrl": null, "installs": 103, "name": "Browser Automation 1", "ownerName": "nuradil", "score": 7202.310174961781, "slug": "browser-automation-1", "source": "clawhub", "stars": 0, "tags": null, "updated_at": 1776763149873, "version": "1.0.0"}, {"category": "content-creation", "created_at": 1773202253383, "description": "Generate videos from text using Text to Video (Wan2.1) API. Automatically generates 4-second videos from text descriptions. Powered by Dreamface - AI tools f...", "description_zh": "", "downloads": 424, "homepage": "https://clawhub.ai/hy-1990/dream-text-to-video", "iconUrl": null, "installs": 18, "name": "Dream Text to Video", "ownerName": "hy-1990", "score": 34725.63472563472, "slug": "dream-text-to-video", "source": "clawhub", "stars": 0, "tags": null, "updated_at": 1776760582504, "version": "1.0.1"}, {"category": "content-creation", "created_at": 1772790340556, "description": "Real-time DOM monitoring tool using MutationObserver and IntersectionObserver to detect and extract dynamic web content efficiently with minimal performance...", "description_zh": "", "downloads": 424, "homepage": "https://clawhub.ai/raghulpasupathi/dom-observer-pro", "iconUrl": null, "installs": 32, "name": "Dom Observer Pro", "ownerName": "raghulpasupathi", "score": 75044.24778761061, "slug": "dom-observer-pro", "source": "clawhub", "stars": 0, "tags": null, "updated_at": 1776759083578, "version": "1.0.0"}, {"category": "productivity", "created_at": 1772791560741, "description": "Use when user wants to track expenses, scan receipts, upload card payment screenshots, categorize spending, record transactions, check spending summaries, vi...", "description_zh": "", "downloads": 424, "homepage": "https://clawhub.ai/edenjw/pocketlens", "iconUrl": null, "installs": 18, "name": "PocketLens", "ownerName": "edenjw", "score": 30836.363636363632, "slug": "pocketlens", "source": "clawhub", "stars": 0, "tags": null, "updated_at": 1776759083367, "version": "1.0.0"}, {"category": "ai-intelligence", "created_at": 1772785210904, "description": "Execute and monitor stock trades for openclaw.ai workflows using Questrade's browser platform with Yahoo Finance cross-checks. Use when Codex is asked to pre...", "description_zh": "", "downloads": 424, "homepage": "https://clawhub.ai/witty-quotes25/openclaw-questrade", "iconUrl": null, "installs": 19, "name": "Questrade", "ownerName": "witty-quotes25", "score": 86707.56646216768, "slug": "openclaw-questrade", "source": "clawhub", "stars": 0, "tags": null, "updated_at": 1776748371324, "version": "1.0.0"}, {"category": "ai-intelligence", "created_at": 1772798740108, "description": "Automated EvoMap AI-to-AI network node heartbeat maintenance with continuous monitoring and error handling. Keeps your EvoMap nodes alive and active in the d...", "description_zh": "", "downloads": 424, "homepage": "https://clawhub.ai/bestrocky/evomap-heartbeat-manager", "iconUrl": null, "installs": 27, "name": "EvoMap Heartbeat Manager", "ownerName": "bestrocky", "score": 86530.61224489796, "slug": "evomap-heartbeat-manager", "source": "clawhub", "stars": 0, "tags": null, "updated_at": 1776748370700, "version": "1.0.0"}, {"category": "developer-tools", "created_at": 1773287276300, "description": "Help users make better Didi ride-booking decisions from public ride-choice logic. Use when the user wants to compare ride types, judge whether a ride option...", "description_zh": "", "downloads": 424, "homepage": "https://clawhub.ai/harrylabsj/didi", "iconUrl": null, "installs": 17, "name": "Didi", "ownerName": "harrylabsj", "score": 83464.56692913386, "slug": "didi", "source": "clawhub", "stars": 0, "tags": null, "updated_at": 1776748370688, "version": "1.2.0"}, {"category": "developer-tools", "created_at": 1772789406161, "description": "Proactive session capacity monitoring and management for OpenClaw. Prevents context window lockups by warning at configurable thresholds (75%, 85%, 90%, 95%)...", "description_zh": "", "downloads": 424, "homepage": "https://clawhub.ai/chrisagiddings/tide-watch", "iconUrl": null, "installs": 8, "name": "Tide Watch", "ownerName": "chrisagiddings", "score": 83464.56692913386, "slug": "tide-watch", "source": "clawhub", "stars": 0, "tags": null, "updated_at": 1776748370660, "version": "1.3.6"}, {"category": "productivity", "created_at": 1772790376204, "description": "Edge-optimized RAG memory system for OpenClaw with semantic search. Automatically loads memory files, provides intelligent recall, and enhances conversations...", "description_zh": "", "downloads": 424, "homepage": "https://clawhub.ai/henryfcb/openclaw-memory-enhancer", "iconUrl": null, "installs": 15, "name": "Openclaw Memory Enhancer", "ownerName": "henryfcb", "score": 86004.05679513185, "slug": "openclaw-memory-enhancer", "source": "clawhub", "stars": 0, "tags": null, "updated_at": 1776748369994, "version": "0.1.0"}, {"category": "developer-tools", "created_at": 1772787714628, "description": "Operates Breeze x402 payment-gated endpoints for balance checks, deposits, and withdrawals on Solana. Use when the user asks to manage Breeze positions or ex...", "description_zh": "", "downloads": 424, "homepage": "https://clawhub.ai/keeganthomp/breeze-x402-payment-api", "iconUrl": null, "installs": 7, "name": "Breeze x402", "ownerName": "keeganthomp", "score": 87603.30578512396, "slug": "breeze-x402-payment-api", "source": "clawhub", "stars": 0, "tags": null, "updated_at": 1776748369913, "version": "1.0.7"}, {"category": "security-compliance", "created_at": 1772787003532, "description": "Role-based access control for Greek accounting firms. Login, role hierarchy, per-client permissions, session management, audit logging.", "description_zh": "", "downloads": 424, "homepage": "https://clawhub.ai/satoshistackalotto/user-authentication-system", "iconUrl": null, "installs": 7, "name": "User Authentication System", "ownerName": "satoshistackalotto", "score": 90212.76595744681, "slug": "user-authentication-system", "source": "clawhub", "stars": 0, "tags": null, "updated_at": 1776748369825, "version": "0.1.1"}, {"category": "security-compliance", "created_at": 1772787483467, "description": "Security and due diligence layer for installing external skills from ClawHub. Performs DEEP content scanning for malicious patterns, security checks, integra...", "description_zh": "", "downloads": 424, "homepage": "https://clawhub.ai/zendenho7/skill-install-guardian", "iconUrl": null, "installs": 10, "name": "Skill Install Guardian", "ownerName": "zendenho7", "score": 83464.56692913386, "slug": "skill-install-guardian", "source": "clawhub", "stars": 0, "tags": ["ai", "due-diligence", "installation", "security"], "updated_at": 1776748369625, "version": "1.3.0"}, {"category": "developer-tools", "created_at": 1772786106484, "description": "Build and interpret Ryanair fare-finder URLs for cheap flight searches. Use when the user wants to find budget flights from a specific UK airport, configure...", "description_zh": "", "downloads": 424, "homepage": "https://clawhub.ai/callum-kemp/ryanair-fare-finder", "iconUrl": null, "installs": 7, "name": "Ryanair Fare finder", "ownerName": "callum-kemp", "score": 88888.88888888889, "slug": "ryanair-fare-finder", "source": "clawhub", "stars": 0, "tags": null, "updated_at": 1776748369555, "version": "1.0.0"}, {"category": "ai-intelligence", "created_at": 1772795411819, "description": "Real-time web search powered by Alibaba Cloud Bailian (DashScope) MCP service. Use when: user asks for latest news, real-time information, current events, or...", "description_zh": "", "downloads": 423, "homepage": "https://clawhub.ai/zengxi/bailian-search", "iconUrl": null, "installs": 14, "name": "Bailian Search", "ownerName": "zengxi", "score": 98093.22033898305, "slug": "bailian-search", "source": "clawhub", "stars": 2, "tags": null, "updated_at": 1776748369795, "version": "1.1.0"}, {"category": "developer-tools", "created_at": 1773427130689, "description": "Parse documents using UniDoc API for conversion to Markdown or JSON format. Supports both synchronous and asynchronous parsing with automatic status polling.", "description_zh": "", "downloads": 423, "homepage": "https://clawhub.ai/aaiccee/u2-doc-parser", "iconUrl": null, "installs": 5, "name": "U2-doc-parser", "ownerName": "aaiccee", "score": 75468.48381601363, "slug": "u2-doc-parser", "source": "clawhub", "stars": 1, "tags": null, "updated_at": 1776759082389, "version": "1.0.5"}, {"category": "ai-intelligence", "created_at": 1772787639053, "description": "Multi-agent orchestration patterns for OpenClaw. Quick reference for spawning sub-agents, parallel work, and basic coordination. Use when: simple parallel ta...", "description_zh": "", "downloads": 423, "homepage": "https://clawhub.ai/moltonbot000/agent-orchestrate", "iconUrl": null, "installs": 20, "name": "Agent Orchestrate", "ownerName": "moltonbot000", "score": 1721.0513467328506, "slug": "agent-orchestrate", "source": "clawhub", "stars": 0, "tags": null, "updated_at": 1776770090556, "version": "1.0.0"}, {"category": "developer-tools", "created_at": 1772790837353, "description": "Tracks Vietnam market and sector narratives from major domestic financial media; used when users ask for market stories, sector heat, and most-mentioned Viet...", "description_zh": "", "downloads": 423, "homepage": "https://clawhub.ai/ndtchan/vn-market-news-monitor", "iconUrl": null, "installs": 39, "name": "Vn Market News Monitor", "ownerName": "ndtchan", "score": 3700.463651474062, "slug": "vn-market-news-monitor", "source": "clawhub", "stars": 0, "tags": null, "updated_at": 1776769149865, "version": "1.0.2"}, {"category": "data-analysis", "created_at": 1773081266516, "description": "Create interactive and static data visualizations from datasets. Supports charts, graphs, dashboards, and statistical plots with multiple output formats (PNG...", "description_zh": "", "downloads": 423, "homepage": "https://clawhub.ai/zhuyu28/data-visualization-studio", "iconUrl": null, "installs": 52, "name": "Data Visualization Studio", "ownerName": "zhuyu28", "score": 13983.471074380166, "slug": "data-visualization-studio", "source": "clawhub", "stars": 0, "tags": null, "updated_at": 1776767050034, "version": "1.0.0"}, {"category": "developer-tools", "created_at": 1772791207748, "description": "Publish and visualize output via the pubblue CLI, with live P2P browser sessions.", "description_zh": "", "downloads": 423, "homepage": "https://clawhub.ai/xmanatee/pubblue", "iconUrl": null, "installs": 5, "name": "Pubblue", "ownerName": "xmanatee", "score": 15031.982942430704, "slug": "pubblue", "source": "clawhub", "stars": 0, "tags": null, "updated_at": 1776766571341, "version": "5.1.2"}]}