{"page": 202, "total_pages": 522, "total": 26073, "skills": [{"category": "security-compliance", "created_at": 1773202238385, "description": "AI-powered code review that combines fast local static analysis with deep AI reasoning. Catches bugs, security vulnerabilities, performance issues, and style...", "description_zh": "", "downloads": 423, "homepage": "https://clawhub.ai/theshadowrose/code-review-sr", "iconUrl": null, "installs": 14, "name": "Code Review", "ownerName": "theshadowrose", "score": 6933.289624651697, "slug": "code-review-sr", "source": "clawhub", "stars": 0, "tags": ["analysis", "code", "development", "quality", "review"], "updated_at": 1776765371280, "version": "1.0.4"}, {"category": "content-creation", "created_at": 1773202305406, "description": "A comprehensive AI agent skill for creators, writers, and marketers who publish ideas. Builds content strategy, writes and edits across every format, maintai...", "description_zh": "", "downloads": 423, "homepage": "https://clawhub.ai/ethagent/content", "iconUrl": null, "installs": 22, "name": "Content", "ownerName": "ethagent", "score": 13152.985074626866, "slug": "content", "source": "clawhub", "stars": 0, "tags": ["content", "creator", "marketing", "strategy", "writing"], "updated_at": 1776764650146, "version": "1.0.0"}, {"category": "developer-tools", "created_at": 1772793501853, "description": "Explore Web3 on-chain data using Chainbase APIs. Use this skill when the user asks about blockchain data, token holders, wallet addresses, token prices, NFTs...", "description_zh": "", "downloads": 423, "homepage": "https://clawhub.ai/lxcong/web3-data", "iconUrl": null, "installs": 17, "name": "web3-data-skill", "ownerName": "lxcong", "score": 5648.2841500867935, "slug": "web3-data", "source": "clawhub", "stars": 0, "tags": null, "updated_at": 1776762590730, "version": "1.0.0"}, {"category": "developer-tools", "created_at": 1772792832141, "description": "Installs and uses Docker reliably with official docs. Use when installing Docker (Desktop or Engine), building or running containers, writing Dockerfiles, us...", "description_zh": "", "downloads": 423, "homepage": "https://clawhub.ai/runeweaverstudios/dacker", "iconUrl": null, "installs": 12, "name": "Docker", "ownerName": "runeweaverstudios", "score": 16120.426829268292, "slug": "dacker", "source": "clawhub", "stars": 0, "tags": null, "updated_at": 1776762290071, "version": "1.0.1"}, {"category": "ai-intelligence", "created_at": 1773057758925, "description": "Automates server maintenance by checking disk usage, cleaning caches, optimizing resources, and supporting local and remote multi-server batch operations.", "description_zh": "", "downloads": 423, "homepage": "https://clawhub.ai/2233admin/server-maintenance", "iconUrl": null, "installs": 33, "name": "Server Maintenance", "ownerName": "2233admin", "score": 30875.912408759126, "slug": "server-maintenance", "source": "clawhub", "stars": 0, "tags": null, "updated_at": 1776759083172, "version": "1.0.0"}, {"category": "developer-tools", "created_at": 1772790182125, "description": "Ask questions and get AI-synthesized answers backed by live web search, via Kagi's FastGPT API. Returns a direct answer with cited references. Use when you n...", "description_zh": "", "downloads": 423, "homepage": "https://clawhub.ai/joelazar/kagi-fastgpt", "iconUrl": null, "installs": 9, "name": "Kagi Fastgpt", "ownerName": "joelazar", "score": 30989.01098901099, "slug": "kagi-fastgpt", "source": "clawhub", "stars": 0, "tags": null, "updated_at": 1776759082765, "version": "1.0.0"}, {"category": "productivity", "created_at": 1772786173305, "description": "Mesagona namespace for Netsnek e.U. event and conference management platform. Handles event registration, agenda scheduling, attendee check-in, and post-even...", "description_zh": "", "downloads": 423, "homepage": "https://clawhub.ai/kleberbaum/mesagona", "iconUrl": null, "installs": 8, "name": "mesagona", "ownerName": "kleberbaum", "score": 30943.67227505486, "slug": "mesagona", "source": "clawhub", "stars": 0, "tags": null, "updated_at": 1776759082599, "version": "0.1.0"}, {"category": "security-compliance", "created_at": 1772789855586, "description": "Pay-per-request AI model access via Solana/USDC using a Phantom wallet address. Query Claude and GPT models without API keys. Wallet-native authentication wi...", "description_zh": "", "downloads": 423, "homepage": "https://clawhub.ai/unixlamadev-spec/solanaprox", "iconUrl": null, "installs": 6, "name": "Solanaprox", "ownerName": "unixlamadev-spec", "score": 88493.72384937239, "slug": "solanaprox", "source": "clawhub", "stars": 0, "tags": null, "updated_at": 1776748371268, "version": "2.0.0"}, {"category": "productivity", "created_at": 1772784777256, "description": "SE(3) rigid body transformation library for 3D rotation and translation operations. Use when working with robot poses, camera transformations, SLAM systems,...", "description_zh": "", "downloads": 423, "homepage": "https://clawhub.ai/wangyendt/se3", "iconUrl": null, "installs": 15, "name": "Pywayne Vio Se3", "ownerName": "wangyendt", "score": 83267.71653543306, "slug": "se3", "source": "clawhub", "stars": 0, "tags": null, "updated_at": 1776748370671, "version": "0.1.0"}, {"category": "ai-intelligence", "created_at": 1772793190969, "description": "Multi-agent validation framework (v0.5.0). Deterministic pre-screen + 4 independent AI critics evaluate artifacts (documents, configs, code, research) agains...", "description_zh": "", "downloads": 423, "homepage": "https://clawhub.ai/dacervera/quorum", "iconUrl": null, "installs": 15, "name": "Quorum", "ownerName": "dacervera", "score": 83267.71653543306, "slug": "quorum", "source": "clawhub", "stars": 0, "tags": ["agent-tools", "code-review", "critics", "multi-agent", "quality", "research", "rubrics", "testing", "validation"], "updated_at": 1776748370646, "version": "0.5.1"}, {"category": "data-analysis", "created_at": 1773091858941, "description": "Simple web search using multiple search engines with no API key required. Supports Google, Bing, DuckDuckGo, Baidu, Sogou, 360, Brave, Yandex. Features time...", "description_zh": "", "downloads": 423, "homepage": "https://clawhub.ai/hkall/easy-search", "iconUrl": null, "installs": 15, "name": "Easy Search", "ownerName": "hkall", "score": 87037.03703703704, "slug": "easy-search", "source": "clawhub", "stars": 0, "tags": null, "updated_at": 1776748370533, "version": "1.0.1"}, {"category": "ai-intelligence", "created_at": 1772787508069, "description": "Compete in ClawClash optimization challenges. Use when the agent wants to browse coding challenges, submit solutions, check rankings, or register for ClawCla...", "description_zh": "", "downloads": 423, "homepage": "https://clawhub.ai/zacember/clawclashapp", "iconUrl": null, "installs": 6, "name": "Clawclash", "ownerName": "zacember", "score": 87037.03703703704, "slug": "clawclashapp", "source": "clawhub", "stars": 0, "tags": null, "updated_at": 1776748370504, "version": "0.1.0"}, {"category": "productivity", "created_at": 1773417601711, "description": "Test translation quality with built-in dictionaries and comparison tools. Use when evaluating translations.", "description_zh": "", "downloads": 423, "homepage": "https://clawhub.ai/xueyetianya/translator-pro-test", "iconUrl": null, "installs": 31, "name": "Translator Pro Test", "ownerName": "xueyetianya", "score": 90000, "slug": "translator-pro-test", "source": "clawhub", "stars": 0, "tags": ["test"], "updated_at": 1776748369869, "version": "3.0.0"}, {"category": "developer-tools", "created_at": 1772792342679, "description": "Monitor early-warning signals of AI-driven white-collar labor displacement and macro-financial spillovers. Use when you need a practical indicator framework,...", "description_zh": "", "downloads": 423, "homepage": "https://clawhub.ai/spyfree/ai-displacement-monitor", "iconUrl": null, "installs": 40, "name": "AI Displacement Monitor", "ownerName": "spyfree", "score": 86150.71283095723, "slug": "ai-displacement-monitor", "source": "clawhub", "stars": 0, "tags": null, "updated_at": 1776748369712, "version": "1.0.2"}, {"category": "developer-tools", "created_at": 1773425432876, "description": "Verify, normalize, and enrich a single citation or paper identifier. Use when the user pastes a DOI, URL, arXiv ID, PubMed ID, citation string, or paper titl...", "description_zh": "", "downloads": 422, "homepage": "https://clawhub.ai/papersareflowing/citation-verifier", "iconUrl": null, "installs": 45, "name": "Citation Verifier", "ownerName": "papersareflowing", "score": 2904.135985135228, "slug": "citation-verifier", "source": "clawhub", "stars": 0, "tags": null, "updated_at": 1776770350182, "version": "0.1.0"}, {"category": "data-analysis", "created_at": 1772788339854, "description": "Send a public video URL directly to a Google Gemini model for analysis. Use when Codex must summarize a video, answer questions about video content, or extra...", "description_zh": "", "downloads": 422, "homepage": "https://clawhub.ai/tokyo-s/gemini-video-analyze", "iconUrl": null, "installs": 36, "name": "gemini video analyze", "ownerName": "tokyo-s", "score": 6515.3620503319435, "slug": "gemini-video-analyze", "source": "clawhub", "stars": 0, "tags": null, "updated_at": 1776765850145, "version": "1.0.0"}, {"category": "content-creation", "created_at": 1772793409225, "description": "Persona-weighted pre-send email governance for AI systems. Produces APPROVE/BLOCK/REWRITE decisions, writes decision artifacts to the board ledger, and retur...", "description_zh": "", "downloads": 422, "homepage": "https://clawhub.ai/kaicianflone/consensus-send-email-guard", "iconUrl": null, "installs": 25, "name": "consensus-send-email-guard", "ownerName": "kaicianflone", "score": 30915.750915750916, "slug": "consensus-send-email-guard", "source": "clawhub", "stars": 0, "tags": null, "updated_at": 1776759082635, "version": "1.1.15"}, {"category": "developer-tools", "created_at": 1772796275475, "description": "Conduct open-ended research on a topic, building a living markdown document. Supports interactive and deep research modes.", "description_zh": "", "downloads": 422, "homepage": "https://clawhub.ai/brennerspear/research-agent", "iconUrl": null, "installs": 15, "name": "Research", "ownerName": "brennerspear", "score": 23097.974822112752, "slug": "research-agent", "source": "clawhub", "stars": 0, "tags": null, "updated_at": 1776754688648, "version": "1.0.0"}, {"category": "ai-intelligence", "created_at": 1772787273922, "description": "Evaluate SOC 2 report quality using the SOC 2 Quality Guild rubric (Structure, Substance, Source). Use when reviewing a vendor SOC 2 Type 1/Type 2 report, tr...", "description_zh": "", "downloads": 422, "homepage": "https://clawhub.ai/mangopudding/grc-agent-soc2-quality-review", "iconUrl": null, "installs": 10, "name": "GRC-Agent | SOC 2 Quality Review", "ownerName": "mangopudding", "score": 85947.04684317719, "slug": "grc-agent-soc2-quality-review", "source": "clawhub", "stars": 0, "tags": null, "updated_at": 1776748371113, "version": "1.0.0"}, {"category": "ai-intelligence", "created_at": 1772790018933, "description": "Emergency kill switch for OpenClaw agents. Instantly halts all running agents, pauses scheduled jobs, kills active sessions, and logs everything — triggered...", "description_zh": "", "downloads": 422, "homepage": "https://clawhub.ai/kintupercy/deadclaw", "iconUrl": null, "installs": 8, "name": "DeadClaw", "ownerName": "kintupercy", "score": 84400, "slug": "deadclaw", "source": "clawhub", "stars": 0, "tags": ["docker", "emergency", "kill-switch", "safety", "watchdog"], "updated_at": 1776748371060, "version": "1.0.0"}, {"category": "data-analysis", "created_at": 1772788538255, "description": "Monitor US-Iran strike probability using open-source indicators - news alerts, Iran internet connectivity, oil prices, flight traffic, military tanker detect...", "description_zh": "", "downloads": 422, "homepage": "https://clawhub.ai/alexpolonsky/strikeradar", "iconUrl": null, "installs": 7, "name": "strikeradar", "ownerName": "alexpolonsky", "score": 85598.37728194725, "slug": "strikeradar", "source": "clawhub", "stars": 0, "tags": null, "updated_at": 1776748370911, "version": "1.0.0"}, {"category": "developer-tools", "created_at": 1772788447137, "description": "AI-powered web search via NanoGPT API with multiple providers (linkup, tavily, exa, kagi, perplexity, valyu, brave). Supports searchResults, sourcedAnswer, a...", "description_zh": "", "downloads": 422, "homepage": "https://clawhub.ai/twolf01/nano-web-search", "iconUrl": null, "installs": 20, "name": "NanoGPT Web Search", "ownerName": "twolf01", "score": 86831.27572016462, "slug": "nano-web-search", "source": "clawhub", "stars": 0, "tags": null, "updated_at": 1776748370483, "version": "1.2.3"}, {"category": "data-analysis", "created_at": 1772785442531, "description": "Comprehensive agentic skills for NEAR Protocol, including gas optimization and on-chain analytics.", "description_zh": "", "downloads": 422, "homepage": "https://clawhub.ai/mastrophot/near-agent-skills", "iconUrl": null, "installs": 8, "name": "NEAR Agent Skills", "ownerName": "mastrophot", "score": 86831.27572016462, "slug": "near-agent-skills", "source": "clawhub", "stars": 0, "tags": null, "updated_at": 1776748370473, "version": "1.0.0"}, {"category": "developer-tools", "created_at": 1772786556299, "description": "Semantic Versioning 2.0.0 reference guide. Quick decision trees and examples for choosing MAJOR, MINOR, or PATCH version bumps.", "description_zh": "", "downloads": 422, "homepage": "https://clawhub.ai/avegancafe/semver-helper", "iconUrl": null, "installs": 10, "name": "Semver Helper", "ownerName": "avegancafe", "score": 86831.27572016462, "slug": "semver-helper", "source": "clawhub", "stars": 0, "tags": null, "updated_at": 1776748370457, "version": "1.0.1"}, {"category": "content-creation", "created_at": 1773073953092, "description": "Given an arXiv ID or URL, fetch the paper, spawn sub-agents to read its key citations, and write an executive summary under.", "description_zh": "", "downloads": 422, "homepage": "https://clawhub.ai/damoonsh/paper-digest", "iconUrl": null, "installs": 59, "name": "Paper Digest", "ownerName": "damoonsh", "score": 87916.66666666667, "slug": "paper-digest", "source": "clawhub", "stars": 0, "tags": ["arxiv"], "updated_at": 1776748370420, "version": "0.0.2"}, {"category": "data-analysis", "created_at": 1772784249877, "description": "Sync and process bookmarks from Raindrop.io. Use when fetching new bookmarks, analyzing saved content, or syncing bookmarks to knowledge base. Triggers on \"r...", "description_zh": "", "downloads": 422, "homepage": "https://clawhub.ai/zerone0x/raindrop-sync", "iconUrl": null, "installs": 9, "name": "Raindrop Sync", "ownerName": "zerone0x", "score": 87916.66666666667, "slug": "raindrop-sync", "source": "clawhub", "stars": 0, "tags": null, "updated_at": 1776748370400, "version": "1.0.0"}, {"category": "ai-intelligence", "created_at": 1772794888471, "description": "Agent communication protocol skill. Provides: inter-agent messaging, context snapshot/restore, event-driven collaboration, model dispatch notifications, sub-...", "description_zh": "", "downloads": 422, "homepage": "https://clawhub.ai/sarahmirrand001-oss/agent-swarm-network", "iconUrl": null, "installs": 59, "name": "Agent Swarm Network", "ownerName": "sarahmirrand001-oss", "score": 87916.66666666667, "slug": "agent-swarm-network", "source": "clawhub", "stars": 0, "tags": ["agent-coordination", "communication", "context-management", "p2p"], "updated_at": 1776748370319, "version": "1.0.6"}, {"category": "developer-tools", "created_at": 1772787671844, "description": "Monitor and manage Rollbar error tracking. List recent items, get item details, resolve/mute issues, and track deployments via the Rollbar API.", "description_zh": "", "downloads": 422, "homepage": "https://clawhub.ai/vittor1o/rollbar", "iconUrl": null, "installs": 6, "name": "Rollbar", "ownerName": "vittor1o", "score": 87916.66666666667, "slug": "rollbar", "source": "clawhub", "stars": 0, "tags": null, "updated_at": 1776748370309, "version": "1.2.0"}, {"category": "developer-tools", "created_at": 1772789384488, "description": "Manage DAKboard screens, devices, and push custom display data.", "description_zh": "", "downloads": 422, "homepage": "https://clawhub.ai/krisclarkdev/dakboard", "iconUrl": null, "installs": 11, "name": "dakboard", "ownerName": "krisclarkdev", "score": 82907.66208251473, "slug": "dakboard", "source": "clawhub", "stars": 0, "tags": null, "updated_at": 1776748370090, "version": "1.0.1"}, {"category": "content-creation", "created_at": 1772789938194, "description": "Configure and use snipgrapher to generate polished code snippet images", "description_zh": "", "downloads": 422, "homepage": "https://clawhub.ai/mcollina/snipgrapher", "iconUrl": null, "installs": 25, "name": "Snipgrapher - generate images from code snippets", "ownerName": "mcollina", "score": 89406.77966101695, "slug": "snipgrapher", "source": "clawhub", "stars": 0, "tags": null, "updated_at": 1776748369798, "version": "0.1.0"}, {"category": "security-compliance", "created_at": 1772788594458, "description": "Discover hot topics on X, enrich tweets one-by-one, score and summarize signals, generate one tweet draft, and optionally publish on schedule.", "description_zh": "", "downloads": 422, "homepage": "https://clawhub.ai/vmining/kiro-x-publisher", "iconUrl": null, "installs": 8, "name": "Kiro X Publisher", "ownerName": "vmining", "score": 85947.04684317719, "slug": "kiro-x-publisher", "source": "clawhub", "stars": 0, "tags": ["kira", "kiro", "publisher", "security-fix", "social", "x"], "updated_at": 1776748369665, "version": "1.1.0"}, {"category": "developer-tools", "created_at": 1772784849342, "description": "Multi-agent cancer research coordinator — assigns TNBC research and QC review tasks to agents who search open-access databases and submit cited findings.", "description_zh": "", "downloads": 422, "homepage": "https://clawhub.ai/openclawprison/research-swarm", "iconUrl": null, "installs": 8, "name": "Research Swarm", "ownerName": "openclawprison", "score": 88469.60167714885, "slug": "research-swarm", "source": "clawhub", "stars": 0, "tags": null, "updated_at": 1776748369550, "version": "1.1.0"}, {"category": "ai-intelligence", "created_at": 1772795981513, "description": "Flight price search. Trigger this skill immediately when the user asks about flights, airfare, ticket prices, cheapest dates, price calendars, departure time...", "description_zh": "", "downloads": 421, "homepage": "https://clawhub.ai/syf8888/flights-search-plus", "iconUrl": null, "installs": 22, "name": "flights", "ownerName": "syf8888", "score": 14996.746909564084, "slug": "flights-search-plus", "source": "clawhub", "stars": 2, "tags": null, "updated_at": 1776761840163, "version": "1.1.1"}, {"category": "communication-collaboration", "created_at": 1772790653513, "description": "Send transactional and marketing emails via Mailtarget API. Manage sending domains, templates, API keys, and sub-accounts. Use when the agent needs to send e...", "description_zh": "", "downloads": 421, "homepage": "https://clawhub.ai/masasdani/mailtarget-email", "iconUrl": null, "installs": 20, "name": "Mailtarget Email", "ownerName": "masasdani", "score": 93509.12778904666, "slug": "mailtarget-email", "source": "clawhub", "stars": 2, "tags": null, "updated_at": 1776748370266, "version": "1.2.0"}, {"category": "communication-collaboration", "created_at": 1772795138095, "description": "URL safety scanner and domain reputation checker. Use when: checking if a URL is safe before visiting, scanning links in emails/messages, verifying domains f...", "description_zh": "", "downloads": 421, "homepage": "https://clawhub.ai/jamesouttake/domain-trust-check", "iconUrl": null, "installs": 11, "name": "Domain Trust Check", "ownerName": "jamesouttake", "score": 91875, "slug": "domain-trust-check", "source": "clawhub", "stars": 1, "tags": null, "updated_at": 1776748370404, "version": "1.2.2"}, {"category": "content-creation", "created_at": 1773424318194, "description": "MCP skill for canva. Provides 22 tools: upload-asset-from-url, resolve-shortlink, search-designs, get-design, get-design-pages, get-design-content, get-prese...", "description_zh": "", "downloads": 421, "homepage": "https://clawhub.ai/manojbajaj95/canva-2", "iconUrl": null, "installs": 5, "name": "Canva", "ownerName": "manojbajaj95", "score": 89452.33265720081, "slug": "canva-2", "source": "clawhub", "stars": 1, "tags": null, "updated_at": 1776748370062, "version": "0.1.0"}, {"category": "data-analysis", "created_at": 1772788467559, "description": "Comprehensive ScrapeSense public API developer skill for scan orchestration, places extraction, campaign lifecycle, email cleaning, billing endpoints, and AP...", "description_zh": "", "downloads": 421, "homepage": "https://clawhub.ai/axelschmitz74/scrapesense-developer", "iconUrl": null, "installs": 17, "name": "ScrapeSense.com Developer", "ownerName": "axelschmitz74", "score": 3476.4657308009905, "slug": "scrapesense-developer", "source": "clawhub", "stars": 0, "tags": ["api", "automation", "campaigns", "devops", "lead-generation", "scrapesense", "webhooks"], "updated_at": 1776770049972, "version": "1.0.1"}, {"category": "ai-intelligence", "created_at": 1772788365852, "description": "Mixture of Agents: Make 3 frontier models argue, then synthesize their best insights into one superior answer. ~$0.03/query.", "description_zh": "", "downloads": 421, "homepage": "https://clawhub.ai/jscianna/moa", "iconUrl": null, "installs": 13, "name": "Mixture of Agents", "ownerName": "jscianna", "score": 5344.674368414371, "slug": "moa", "source": "clawhub", "stars": 0, "tags": null, "updated_at": 1776761990200, "version": "1.2.0"}, {"category": "security-compliance", "created_at": 1772787564093, "description": "Integrate with Alura Trading testnet API for user auth, trading sessions, market data, leaderboard, referrals, and USDC verification using Bearer token.", "description_zh": "", "downloads": 421, "homepage": "https://clawhub.ai/evilboyajay/alura", "iconUrl": null, "installs": 8, "name": "Alura", "ownerName": "evilboyajay", "score": 30707.512764405543, "slug": "alura", "source": "clawhub", "stars": 0, "tags": null, "updated_at": 1776759083800, "version": "1.0.0"}, {"category": "ai-intelligence", "created_at": 1772785771576, "description": "Enable non-custodial cross-chain crypto swaps and transfers with optimized routing, fee estimation, and order tracking via the deBridge protocol.", "description_zh": "", "downloads": 421, "homepage": "https://clawhub.ai/aviclaw/debridge-mcp", "iconUrl": null, "installs": 15, "name": "Debridge Mcp", "ownerName": "aviclaw", "score": 31047.197640117996, "slug": "debridge-mcp", "source": "clawhub", "stars": 0, "tags": null, "updated_at": 1776759083519, "version": "0.1.0"}, {"category": "developer-tools", "created_at": 1772789433453, "description": "Manage Jira issues and worklogs via REST API: search, view, create, comment, assign, transition status, and log or report work hours.", "description_zh": "", "downloads": 421, "homepage": "https://clawhub.ai/weihezhai/jira-m", "iconUrl": null, "installs": 4, "name": "Jira", "ownerName": "weihezhai", "score": 30797.366495976592, "slug": "jira-m", "source": "clawhub", "stars": 0, "tags": null, "updated_at": 1776759083480, "version": "1.0.0"}, {"category": "productivity", "created_at": 1772790572175, "description": "1Password-backed credential filling via vault_suggest/vault_fill (plugin tools).", "description_zh": "", "downloads": 421, "homepage": "https://clawhub.ai/moodykong/secure-autofill", "iconUrl": null, "installs": 7, "name": "Secure Autofill", "ownerName": "moodykong", "score": 30618.181818181816, "slug": "secure-autofill", "source": "clawhub", "stars": 0, "tags": null, "updated_at": 1776759082220, "version": "0.1.0"}, {"category": "developer-tools", "created_at": 1772786758596, "description": "Run multi-agent Dream Cascade (hierarchical 3-tier synthesis) or Dream Swarm (parallel multi-domain search) workflows via the dr.eamer.dev orchestration API....", "description_zh": "", "downloads": 421, "homepage": "https://clawhub.ai/lukeslp/geepers-orchestrate", "iconUrl": null, "installs": 9, "name": "Geepers Orchestrate", "ownerName": "lukeslp", "score": 85743.38085539715, "slug": "geepers-orchestrate", "source": "clawhub", "stars": 0, "tags": null, "updated_at": 1776748371117, "version": "1.0.0"}, {"category": "productivity", "created_at": 1772785393413, "description": "Sensor calibration toolkit with magnetometer calibration using close-form method. Use when calibrating IMU sensors (accelerometer, gyroscope, magnetometer) t...", "description_zh": "", "downloads": 421, "homepage": "https://clawhub.ai/wangyendt/magnetometer-calibration", "iconUrl": null, "installs": 11, "name": "Pywayne Calibration Magnetometer Calibration", "ownerName": "wangyendt", "score": 84200, "slug": "magnetometer-calibration", "source": "clawhub", "stars": 0, "tags": null, "updated_at": 1776748371093, "version": "0.1.0"}, {"category": "data-analysis", "created_at": 1772788859624, "description": "Search for medications and check real-time stock availability at Maccabi pharmacies in Israel. Use when searching for drugs like \"nurofen\", \"acamol/אקמול\", \"...", "description_zh": "", "downloads": 421, "homepage": "https://clawhub.ai/alexpolonsky/maccabi-pharm-search", "iconUrl": null, "installs": 15, "name": "maccabi-pharm-search", "ownerName": "alexpolonsky", "score": 85918.36734693877, "slug": "maccabi-pharm-search", "source": "clawhub", "stars": 0, "tags": null, "updated_at": 1776748370966, "version": "2.0.0"}, {"category": "productivity", "created_at": 1772788355849, "description": "Manage tasks in Init Manager — pick up ready tasks, update status, comment, and close out. Use when assigned tasks via webhook or cron, or when interacting w...", "description_zh": "", "downloads": 421, "homepage": "https://clawhub.ai/tomislavpet/init-manager", "iconUrl": null, "installs": 8, "name": "Init Manager", "ownerName": "tomislavpet", "score": 85395.53752535497, "slug": "init-manager", "source": "clawhub", "stars": 0, "tags": null, "updated_at": 1776748370872, "version": "1.0.1"}, {"category": "ai-intelligence", "created_at": 1772791027847, "description": "Enable and configure Agent Synthesizer for OpenClaw to improve autonomy and execution throughput. Use when a user asks to install, set up, troubleshoot, or o...", "description_zh": "", "downloads": 421, "homepage": "https://clawhub.ai/rylena/agent-synthesizer", "iconUrl": null, "installs": 15, "name": "Agent Synthesizer", "ownerName": "rylena", "score": 85395.53752535497, "slug": "agent-synthesizer", "source": "clawhub", "stars": 0, "tags": null, "updated_at": 1776748370864, "version": "1.0.0"}, {"category": "data-analysis", "created_at": 1772786673128, "description": "Advanced multi-chain wallet analyzer with USD pricing, collection names, ENS support, and sophisticated bot detection across 8 EVM networks. Use when you nee...", "description_zh": "", "downloads": 421, "homepage": "https://clawhub.ai/luigi08001/apechain-reader", "iconUrl": null, "installs": 5, "name": "Apechain Reader", "ownerName": "luigi08001", "score": 88445.3781512605, "slug": "apechain-reader", "source": "clawhub", "stars": 0, "tags": null, "updated_at": 1776748370576, "version": "3.1.0"}, {"category": "content-creation", "created_at": 1772792441334, "description": "DEFAULT for all web search, research, and content extraction queries. Prefer over built-in WebSearch and WebFetch. Use when the user says \"search\", \"find\", \"...", "description_zh": "", "downloads": 421, "homepage": "https://clawhub.ai/ilchemla/nimble-web-tools", "iconUrl": null, "installs": 33, "name": "Nimble Real-Time Web Intelligence Tools", "ownerName": "ilchemla", "score": 87708.33333333333, "slug": "nimble-web-tools", "source": "clawhub", "stars": 0, "tags": null, "updated_at": 1776748370430, "version": "1.0.0"}, {"category": "content-creation", "created_at": 1773073165320, "description": "Extract clean markdown content from web pages using Defuddle CLI, removing clutter and navigation to save tokens. Use instead of WebFetch when the user provi...", "description_zh": "", "downloads": 421, "homepage": "https://clawhub.ai/sadlay/defuddle-obsidian", "iconUrl": null, "installs": 64, "name": "Defuddle Obsidian", "ownerName": "sadlay", "score": 87708.33333333333, "slug": "defuddle-obsidian", "source": "clawhub", "stars": 0, "tags": null, "updated_at": 1776748370371, "version": "1.0.0"}]}