{"page": 203, "total_pages": 522, "total": 26073, "skills": [{"category": "communication-collaboration", "created_at": 1772789685845, "description": "Connect your AI SaaS intelligent agent to any messaging channel via OpenClaw (WhatsApp, Telegram, Slack, Discord, iMessage, and more)", "description_zh": "", "downloads": 421, "homepage": "https://clawhub.ai/amernet/amernet-ai-saas", "iconUrl": null, "installs": 14, "name": "Amernet AI SaaS", "ownerName": "amernet", "score": 85395.53752535497, "slug": "amernet-ai-saas", "source": "clawhub", "stars": 0, "tags": null, "updated_at": 1776748369978, "version": "1.0.0"}, {"category": "developer-tools", "created_at": 1772789795731, "description": "Interpret genomic variants with ACMG classification, pharmacogenomics, and clinical annotation from ClinVar and gnomAD.", "description_zh": "", "downloads": 421, "homepage": "https://clawhub.ai/ivangdavila/genomics", "iconUrl": null, "installs": 15, "name": "Genomics", "ownerName": "ivangdavila", "score": 86983.47107438017, "slug": "genomics", "source": "clawhub", "stars": 0, "tags": null, "updated_at": 1776748369897, "version": "1.0.0"}, {"category": "developer-tools", "created_at": 1772791512374, "description": "Track LLM API costs, tokens, latency, and errors for your AI agent. Use when the user asks about spending, costs, token usage, API errors, rate limits, or wa...", "description_zh": "", "downloads": 421, "homepage": "https://clawhub.ai/sru4ka/agentpulse", "iconUrl": null, "installs": 6, "name": "AgentPulse", "ownerName": "sru4ka", "score": 82874.0157480315, "slug": "agentpulse", "source": "clawhub", "stars": 0, "tags": null, "updated_at": 1776748369609, "version": "1.0.0"}, {"category": "ai-intelligence", "created_at": 1772791711571, "description": "Run the BTCD collateralization flow on PGP chain. Use when the user asks to run a BTCD loan, collateralization flow, create/take orders, lock BTC, submit pro...", "description_zh": "", "downloads": 420, "homepage": "https://clawhub.ai/contact-nbwfoundation/btcd-skill-beta", "iconUrl": null, "installs": 27, "name": "BTCD Skill (NBW)", "ownerName": "contact-nbwfoundation", "score": 94069.52965235173, "slug": "btcd-skill-beta", "source": "clawhub", "stars": 2, "tags": null, "updated_at": 1776748371320, "version": "1.0.0"}, {"category": "ai-intelligence", "created_at": 1772792619519, "description": "This skill allows you to create a professional, engaging, and user-friendly website in seconds using AI. To create a website, you need to provide a name for...", "description_zh": "", "downloads": 420, "homepage": "https://clawhub.ai/clowreed/website-generator", "iconUrl": null, "installs": 22, "name": "B12 Website Generator", "ownerName": "clowreed", "score": 93877.55102040817, "slug": "website-generator", "source": "clawhub", "stars": 2, "tags": null, "updated_at": 1776748370957, "version": "1.0.0"}, {"category": "ai-intelligence", "created_at": 1773061196864, "description": "Mixed Memory-Augmented Generation (MMAG) for AI agents. Five cognitive memory layers — conversational, long-term user, episodic, sensory, and short-term work...", "description_zh": "", "downloads": 420, "homepage": "https://clawhub.ai/j0ker98/mmag", "iconUrl": null, "installs": 12, "name": "Mixed Memory Augumented Generation", "ownerName": "j0ker98", "score": 94650.20576131687, "slug": "mmag", "source": "clawhub", "stars": 2, "tags": null, "updated_at": 1776748370452, "version": "1.0.6"}, {"category": "ai-intelligence", "created_at": 1772786867480, "description": "A simple skill that responds with a customized hello message in the user's language.", "description_zh": "", "downloads": 420, "homepage": "https://clawhub.ai/didier-durand/hello-agent-world", "iconUrl": null, "installs": 13, "name": "Hello Agent World", "ownerName": "didier-durand", "score": 95833.33333333334, "slug": "hello-agent-world", "source": "clawhub", "stars": 2, "tags": null, "updated_at": 1776748370198, "version": "1.0.0"}, {"category": "data-analysis", "created_at": 1772789524470, "description": "Plan, execute, and analyze corporate events from concept to post-event ROI for conferences, workshops, webinars, meetups, and more.", "description_zh": "", "downloads": 420, "homepage": "https://clawhub.ai/1kalin/afrexai-event-management", "iconUrl": null, "installs": 25, "name": "Event Management", "ownerName": "1kalin", "score": 80438.75685557586, "slug": "afrexai-event-management", "source": "clawhub", "stars": 1, "tags": ["conferences", "events", "planning", "virtual"], "updated_at": 1776759083161, "version": "1.0.0"}, {"category": "developer-tools", "created_at": 1773955844391, "description": "Manage MySQL databases via mysql CLI or Python mysql-connector, supporting queries, schema changes, backups, performance analysis, and user permissions.", "description_zh": "", "downloads": 420, "homepage": "https://clawhub.ai/jasydongo/mysqladm", "iconUrl": null, "installs": 124, "name": "MySQL Administration", "ownerName": "jasydongo", "score": 6372.325898953119, "slug": "mysqladm", "source": "clawhub", "stars": 0, "tags": ["administration", "backup", "database", "mysql", "performance", "restore"], "updated_at": 1776769150173, "version": "0.1.0"}, {"category": "developer-tools", "created_at": 1772799349199, "description": "Develop ArkTS apps with HarmonyOS SDK using ArkUI components, manage state, handle navigation, network, storage, permissions, and app signing.", "description_zh": "", "downloads": 420, "homepage": "https://clawhub.ai/louiseleven/harmonyos", "iconUrl": null, "installs": 63, "name": "harmonyOS developer", "ownerName": "louiseleven", "score": 12836.185819070906, "slug": "harmonyos", "source": "clawhub", "stars": 0, "tags": null, "updated_at": 1776761390123, "version": "1.0.0"}, {"category": "developer-tools", "created_at": 1773073195702, "description": "Fetch and display filtered macro-economic events from Investing.com with no API key, supporting date range, importance, country, timezone, and JSON output.", "description_zh": "", "downloads": 420, "homepage": "https://clawhub.ai/quantx-heiko/economic-calendar", "iconUrl": null, "installs": 27, "name": "Economic Calendar", "ownerName": "quantx-heiko", "score": 76782.44972577697, "slug": "economic-calendar", "source": "clawhub", "stars": 0, "tags": ["economics", "finance", "forex", "scraping"], "updated_at": 1776759083132, "version": "1.0.1"}, {"category": "developer-tools", "created_at": 1772797363502, "description": "Public HTTP client skill exposing compute.* tools by calling a private Compute Gateway over HTTPS. Includes a starter kit to run OpenClaw preconfigured.", "description_zh": "", "downloads": 420, "homepage": "https://clawhub.ai/aleksandrkrivolap/openclaw-agent-compute", "iconUrl": null, "installs": 7, "name": "OpenClaw Agent Compute", "ownerName": "aleksandrkrivolap", "score": 30523.25581395349, "slug": "openclaw-agent-compute", "source": "clawhub", "stars": 0, "tags": null, "updated_at": 1776759082941, "version": "0.1.7"}, {"category": "content-creation", "created_at": 1772786577176, "description": "Render JSON schemas to images and generate schemas from prompts using declare-render and AI.", "description_zh": "", "downloads": 420, "homepage": "https://clawhub.ai/cai-zhuo/test-materials", "iconUrl": null, "installs": 19, "name": "Test", "ownerName": "cai-zhuo", "score": 85714.28571428571, "slug": "test-materials", "source": "clawhub", "stars": 0, "tags": null, "updated_at": 1776748370755, "version": "1.0.0"}, {"category": "ai-intelligence", "created_at": 1773425588714, "description": "AI agent operations reference — multi-agent architectures, ReAct and chain-of-thought patterns, tool-use conventions, prompt injection defense, and evaluatio...", "description_zh": "", "downloads": 420, "homepage": "https://clawhub.ai/xueyetianya/agent-ops-framework", "iconUrl": null, "installs": 11, "name": "Agent Ops Framework", "ownerName": "xueyetianya", "score": 82514.7347740668, "slug": "agent-ops-framework", "source": "clawhub", "stars": 0, "tags": ["productivity"], "updated_at": 1776748370147, "version": "8.0.0"}, {"category": "security-compliance", "created_at": 1772784827249, "description": "Security scanner for OpenClaw/Clawdbot skills - detect malicious patterns before installation", "description_zh": "", "downloads": 420, "homepage": "https://clawhub.ai/devinfloyd1/clawguarddevin", "iconUrl": null, "installs": 7, "name": "Devin Floyd", "ownerName": "devinfloyd1", "score": 88050.31446540881, "slug": "clawguarddevin", "source": "clawhub", "stars": 0, "tags": null, "updated_at": 1776748369562, "version": "1.0.0"}, {"category": "developer-tools", "created_at": 1773222092901, "description": "Control the desktop via CUA computer server API running on port 8000", "description_zh": "", "downloads": 419, "homepage": "https://clawhub.ai/sarinali/desktop-automation", "iconUrl": null, "installs": 44, "name": "Desktop Automation", "ownerName": "sarinali", "score": 3726.7633193987367, "slug": "desktop-automation", "source": "clawhub", "stars": 0, "tags": null, "updated_at": 1776769271284, "version": "1.0.0"}, {"category": "content-creation", "created_at": 1773906237235, "description": "Generate and export presentations using Slidev. Use only when the user explicitly asks for Slidev, Markdown slides, a previewable slides.md, or needs to expo...", "description_zh": "", "downloads": 419, "homepage": "https://clawhub.ai/laofahai/slidev-ppt-generator", "iconUrl": null, "installs": 195, "name": "Slidev PPT Generator", "ownerName": "laofahai", "score": 4326.724494010739, "slug": "slidev-ppt-generator", "source": "clawhub", "stars": 0, "tags": ["markdown", "ppt", "presentation", "slides", "slidev"], "updated_at": 1776764950653, "version": "1.4.0"}, {"category": "content-creation", "created_at": 1772789972567, "description": "Writes LinkedIn posts that sound like a real person, not a content mill", "description_zh": "", "downloads": 419, "homepage": "https://clawhub.ai/rezcarbon/linkedin-writer-1-0-0", "iconUrl": null, "installs": 37, "name": "Linkedin Writer 1.0.0", "ownerName": "rezcarbon", "score": 10977.207230809538, "slug": "linkedin-writer-1-0-0", "source": "clawhub", "stars": 0, "tags": null, "updated_at": 1776764650233, "version": "1.0.0"}, {"category": "ai-intelligence", "created_at": 1772786852254, "description": "Production-ready decentralized search for AI agents. Privacy-first, uncensored web search via distributed node infrastructure.", "description_zh": "", "downloads": 419, "homepage": "https://clawhub.ai/nosytlabs/presearch", "iconUrl": null, "installs": 14, "name": "NosytLabs", "ownerName": "nosytlabs", "score": 14468.232044198894, "slug": "presearch", "source": "clawhub", "stars": 0, "tags": null, "updated_at": 1776761839855, "version": "1.0.0"}, {"category": "developer-tools", "created_at": 1772789088440, "description": "Identifica e soluciona problemas comuns em AgentSkills do OpenClaw, com diagnóstico de instalação, dependências, scripts e execução para garantir funcionamen...", "description_zh": "", "downloads": 419, "homepage": "https://clawhub.ai/alessandropcostabr/openclaw-skill-debugger", "iconUrl": null, "installs": 8, "name": "OpenClaw Skill Debugger", "ownerName": "alessandropcostabr", "score": 30922.50922509225, "slug": "openclaw-skill-debugger", "source": "clawhub", "stars": 0, "tags": null, "updated_at": 1776759082496, "version": "1.0.0"}, {"category": "communication-collaboration", "created_at": 1772789083015, "description": "Manage business clients - list, search, create, or update client information. Use when the user mentions clients, contacts, customers, Kunden, or needs to ma...", "description_zh": "", "downloads": 419, "homepage": "https://clawhub.ai/stanlee000/norman-manage-clients", "iconUrl": null, "installs": 13, "name": "Norman: Manage Clients", "ownerName": "stanlee000", "score": 87656.90376569038, "slug": "norman-manage-clients", "source": "clawhub", "stars": 0, "tags": ["clients", "crm", "finance", "mcp", "norman"], "updated_at": 1776748371298, "version": "1.0.0"}, {"category": "data-analysis", "created_at": 1772791817391, "description": "Generate daily business briefings from multiple data sources. Aggregates weather, crypto prices, news headlines, system health, and calendar events into a fo...", "description_zh": "", "downloads": 419, "homepage": "https://clawhub.ai/mariusfit/oc-daily-business-report", "iconUrl": null, "installs": 21, "name": "Daily Business Report", "ownerName": "mariusfit", "score": 85336.04887983706, "slug": "oc-daily-business-report", "source": "clawhub", "stars": 0, "tags": ["automation", "business", "dashboard", "reporting"], "updated_at": 1776748371182, "version": "1.0.0"}, {"category": "developer-tools", "created_at": 1772794243789, "description": "Set up a complete multi-brand social media management team on OpenClaw. Scaffolds 5 specialized agents (Leader, Creator, Worker, Researcher, Engineer) + on-d...", "description_zh": "", "downloads": 419, "homepage": "https://clawhub.ai/kuan0808/social-media-ops", "iconUrl": null, "installs": 38, "name": "Social Media Ops", "ownerName": "kuan0808", "score": 84989.85801217039, "slug": "social-media-ops", "source": "clawhub", "stars": 0, "tags": null, "updated_at": 1776748370821, "version": "3.2.0"}, {"category": "productivity", "created_at": 1773057303695, "description": "Plan days, prioritize tasks, and protect focus time with time blocking, weekly reviews, and energy-aware scheduling.", "description_zh": "", "downloads": 419, "homepage": "https://clawhub.ai/ivangdavila/time-management", "iconUrl": null, "installs": 3, "name": "Time Management", "ownerName": "ivangdavila", "score": 87291.66666666667, "slug": "time-management", "source": "clawhub", "stars": 0, "tags": null, "updated_at": 1776748370311, "version": "1.0.0"}, {"category": "developer-tools", "created_at": 1772789450443, "description": "Sync local workspace directories and files to Notion pages using the notion-sync CLI or programmatic API. Use when the user wants to push files to Notion, mi...", "description_zh": "", "downloads": 419, "homepage": "https://clawhub.ai/kitakitsune0x/openclaw-notion-sync", "iconUrl": null, "installs": 12, "name": "Notion Sync", "ownerName": "kitakitsune0x", "score": 84989.85801217039, "slug": "openclaw-notion-sync", "source": "clawhub", "stars": 0, "tags": null, "updated_at": 1776748370291, "version": "0.1.0"}, {"category": "data-analysis", "created_at": 1772789697334, "description": "Graph-native memory engine for AI agents — hybrid vector+keyword search, biological decay, Zettelkasten linking, trust-gated conflict resolution, explainabil...", "description_zh": "", "downloads": 419, "homepage": "https://clawhub.ai/jeremiaheth/neolata-mem", "iconUrl": null, "installs": 13, "name": "Neolata Memory Engine", "ownerName": "jeremiaheth", "score": 84989.85801217039, "slug": "neolata-mem", "source": "clawhub", "stars": 0, "tags": ["conflict-resolution", "decay", "embeddings", "graph", "memory", "zettelkasten"], "updated_at": 1776748370025, "version": "0.8.5"}, {"category": "ai-intelligence", "created_at": 1773425835053, "description": "Career Companion for frontier tech — AI, space, aerospace, robotics, drones, defense, autonomy. Searches live job openings, tailors resumes and CVs, runs moc...", "description_zh": "", "downloads": 419, "homepage": "https://clawhub.ai/mishafyi/career-companion", "iconUrl": null, "installs": 27, "name": "Career Companion", "ownerName": "mishafyi", "score": 89148.93617021276, "slug": "career-companion", "source": "clawhub", "stars": 0, "tags": null, "updated_at": 1776748369849, "version": "1.5.1"}, {"category": "content-creation", "created_at": 1773417311241, "description": "Write vivid, emotionally engaging stories, bedtime stories, short fiction, spoken tales, and serialized story scenes with strong hooks, concrete detail, natu...", "description_zh": "", "downloads": 418, "homepage": "https://clawhub.ai/twocode/story-teller", "iconUrl": null, "installs": 28, "name": "Story Teller", "ownerName": "twocode", "score": 4740.841556084836, "slug": "story-teller", "source": "clawhub", "stars": 0, "tags": null, "updated_at": 1776766449876, "version": "0.1.0"}, {"category": "developer-tools", "created_at": 1773846992822, "description": "👩‍💻👨‍💻 Awesome cheatsheets for popular programming languages, frameworks and development tools. They awesome cheatsheets, javascript, backend, bash.", "description_zh": "", "downloads": 418, "homepage": "https://clawhub.ai/xueyetianya/awesome-cheatsheets", "iconUrl": null, "installs": 28, "name": "Awesome Cheatsheets", "ownerName": "xueyetianya", "score": 12751.677852348994, "slug": "awesome-cheatsheets", "source": "clawhub", "stars": 0, "tags": null, "updated_at": 1776765971206, "version": "2.0.0"}, {"category": "content-creation", "created_at": 1772797312311, "description": "Video processing tool using FFmpeg for cutting, format conversion, compression, frame/audio extraction, watermarking, and subtitle addition.", "description_zh": "", "downloads": 418, "homepage": "https://clawhub.ai/qiaotucodes/cutmv", "iconUrl": null, "installs": 52, "name": "cutmv", "ownerName": "qiaotucodes", "score": 20879.12087912088, "slug": "cutmv", "source": "clawhub", "stars": 0, "tags": null, "updated_at": 1776764650759, "version": "1.0.0"}, {"category": "ai-intelligence", "created_at": 1772789360262, "description": "Conducts procurement assessments using company data to evaluate maturity, identify cost savings, outline AI automation, and provide a detailed 90-day improve...", "description_zh": "", "downloads": 418, "homepage": "https://clawhub.ai/1kalin/afrexai-procurement-ops", "iconUrl": null, "installs": 17, "name": "Procurement Operations", "ownerName": "1kalin", "score": 73333.33333333333, "slug": "afrexai-procurement-ops", "source": "clawhub", "stars": 0, "tags": ["automation", "cost-reduction", "finance", "procurement", "spend"], "updated_at": 1776759083265, "version": "1.0.0"}, {"category": "productivity", "created_at": 1772789346744, "description": "Fetch and summarize single tweets from Twitter/X. Basic search and single tweet fetching. Lightweight version perfect for quick tweet lookups.", "description_zh": "", "downloads": 418, "homepage": "https://clawhub.ai/franciscobuiltdat/tweet-summarizer-lite", "iconUrl": null, "installs": 25, "name": "Tweet Summarizer Lite", "ownerName": "franciscobuiltdat", "score": 71698.11320754717, "slug": "tweet-summarizer-lite", "source": "clawhub", "stars": 0, "tags": ["fetch", "search", "summarizer", "tweets", "twitter", "x"], "updated_at": 1776759083220, "version": "1.0.2"}, {"category": "ai-intelligence", "created_at": 1772787388662, "description": "Provides persistent, searchable, context-aware memory storage for AI agents to retain user preferences, corrections, and project context across sessions.", "description_zh": "", "downloads": 418, "homepage": "https://clawhub.ai/vedantsingh60/persisent-mind", "iconUrl": null, "installs": 14, "name": "Persistent Mind", "ownerName": "vedantsingh60", "score": 30488.694383661565, "slug": "persisent-mind", "source": "clawhub", "stars": 0, "tags": null, "updated_at": 1776759082735, "version": "1.0.0"}, {"category": "content-creation", "created_at": 1772792240913, "description": "Generate images from text prompts or transform existing images using AI with configurable count, watermark, and API key settings.", "description_zh": "", "downloads": 418, "homepage": "https://clawhub.ai/kongweigen/huobao-image-generation", "iconUrl": null, "installs": 31, "name": "AI 火宝", "ownerName": "kongweigen", "score": 30667.64490095378, "slug": "huobao-image-generation", "source": "clawhub", "stars": 0, "tags": null, "updated_at": 1776759082300, "version": "1.0.2"}, {"category": "security-compliance", "created_at": 1772788388125, "description": "Extract someone's authentic writing voice from samples, build a complete Voice DNA profile, then generate content that sounds like them — not AI. Covers conf...", "description_zh": "", "downloads": 418, "homepage": "https://clawhub.ai/brianrwagner/voice-matched-content-system", "iconUrl": null, "installs": 20, "name": "Voice-Matched Content System", "ownerName": "brianrwagner", "score": 25597.06062461727, "slug": "voice-matched-content-system", "source": "clawhub", "stars": 0, "tags": null, "updated_at": 1776756982678, "version": "2.0.0"}, {"category": "developer-tools", "created_at": 1772788563995, "description": "Save any product to a universal wishlist. Converts any product URL into a one-click \"save for later\" link. Works with any retailer, any AI platform, zero setup.", "description_zh": "", "downloads": 418, "homepage": "https://clawhub.ai/leebellon/add-wish", "iconUrl": null, "installs": 4, "name": "/add-wish — Universal Add to Wishlist", "ownerName": "leebellon", "score": 87815.12605042016, "slug": "add-wish", "source": "clawhub", "stars": 0, "tags": null, "updated_at": 1776748370550, "version": "1.1.0"}, {"category": "developer-tools", "created_at": 1772787751859, "description": "Manage Todoist tasks — list, create, complete, update, and organize tasks and projects.", "description_zh": "", "downloads": 418, "homepage": "https://clawhub.ai/fluidiguana/todoist-v1", "iconUrl": null, "installs": 7, "name": "Todoist v1 API Reference", "ownerName": "fluidiguana", "score": 86363.63636363637, "slug": "todoist-v1", "source": "clawhub", "stars": 0, "tags": null, "updated_at": 1776748369900, "version": "1.0.0"}, {"category": "data-analysis", "created_at": 1772787845495, "description": "Secure, per-user-isolated email reasoning and analysis via the iGPT Context Engine API. Summarizes threads, extracts tasks and decisions, detects sentiment,...", "description_zh": "", "downloads": 417, "homepage": "https://clawhub.ai/sammy-spk/igpt-email-ask", "iconUrl": null, "installs": 19, "name": "iGPT email ask", "ownerName": "sammy-spk", "score": 96822.03389830508, "slug": "igpt-email-ask", "source": "clawhub", "stars": 2, "tags": null, "updated_at": 1776748369746, "version": "1.0.0"}, {"category": "developer-tools", "created_at": 1772792502348, "description": "Ops-focused Proxmox VE management via REST API — monitor, control, provision, and troubleshoot VMs and LXC containers with battle-tested operational patterns...", "description_zh": "", "downloads": 417, "homepage": "https://clawhub.ai/eddygk/proxmox-ops", "iconUrl": null, "installs": 14, "name": "Proxmox Ops Skill", "ownerName": "eddygk", "score": 4061.1608881963384, "slug": "proxmox-ops", "source": "clawhub", "stars": 0, "tags": null, "updated_at": 1776766150356, "version": "1.1.2"}, {"category": "content-creation", "created_at": 1773285122812, "description": "OCR documents (PDFs and images) using Gemini 2.5 Flash, PaddleOCR (local), or RapidOCR (local).", "description_zh": "", "downloads": 417, "homepage": "https://clawhub.ai/scottkiss/doc-ocr-skills", "iconUrl": null, "installs": 120, "name": "Doc Ocr Skills", "ownerName": "scottkiss", "score": 15670.800450958286, "slug": "doc-ocr-skills", "source": "clawhub", "stars": 0, "tags": null, "updated_at": 1776764950484, "version": "0.1.0"}, {"category": "content-creation", "created_at": 1772799058690, "description": "Write high-converting copy for any medium — landing pages, emails, ads, UX, sales pages, video scripts, and brand voice. Complete methodology with frameworks...", "description_zh": "", "downloads": 417, "homepage": "https://clawhub.ai/1kalin/afrexai-copywriting-mastery", "iconUrl": null, "installs": 51, "name": "Copywriting Mastery", "ownerName": "1kalin", "score": 2301.8326341355705, "slug": "afrexai-copywriting-mastery", "source": "clawhub", "stars": 0, "tags": ["conversion", "copywriting", "marketing", "sales", "writing"], "updated_at": 1776763750349, "version": "1.0.0"}, {"category": "content-creation", "created_at": 1772790907150, "description": "Materials editor workbench — React UI and Express server to render JSON schemas to images and generate schemas with AI (declare-render + materials-agents).", "description_zh": "", "downloads": 417, "homepage": "https://clawhub.ai/cai-zhuo/materials-workbench", "iconUrl": null, "installs": 33, "name": "Materials Workbench", "ownerName": "cai-zhuo", "score": 30684.32671081678, "slug": "materials-workbench", "source": "clawhub", "stars": 0, "tags": null, "updated_at": 1776759083328, "version": "1.0.0"}, {"category": "security-compliance", "created_at": 1773073151256, "description": "Route tool requests through Clawvisor for credential vaulting, task-scoped authorization, and human approval flows. Use for Gmail, Calendar, Drive, Contacts,...", "description_zh": "", "downloads": 417, "homepage": "https://clawhub.ai/ericlevine/clawvisor", "iconUrl": null, "installs": 9, "name": "Clawvisor", "ownerName": "ericlevine", "score": 86875, "slug": "clawvisor", "source": "clawhub", "stars": 0, "tags": null, "updated_at": 1776748370415, "version": "0.6.2"}, {"category": "content-creation", "created_at": 1773073866640, "description": "Operate WordPress installs through WP-CLI for inspection, core maintenance, plugin and theme management, users, options, content, media, cron, database tasks...", "description_zh": "", "downloads": 417, "homepage": "https://clawhub.ai/matthewxmurphy/wordpress-wp-cli-admin", "iconUrl": null, "installs": 74, "name": "WordPress WP-CLI Admin", "ownerName": "matthewxmurphy", "score": 84584.1784989858, "slug": "wordpress-wp-cli-admin", "source": "clawhub", "stars": 0, "tags": null, "updated_at": 1776748370033, "version": "0.5.0"}, {"category": "communication-collaboration", "created_at": 1773058048421, "description": "Privacy pipeline for OpenClaw - Hybrid regex + Qwen2.5 LLM to scrub PII (names/emails/SSNs/phones/wallets/IPs/paths) before external AI processing. Script wo...", "description_zh": "", "downloads": 417, "homepage": "https://clawhub.ai/solmas/openclaw-pii-anonymizer", "iconUrl": null, "installs": 15, "name": "Openclaw Pii Anonymizer", "ownerName": "solmas", "score": 84928.716904277, "slug": "openclaw-pii-anonymizer", "source": "clawhub", "stars": 0, "tags": null, "updated_at": 1776748369702, "version": "2.0.0"}, {"category": "content-creation", "created_at": 1772791860946, "description": "Monitors configured social channels daily to identify trending topics, viral content, and new content ideas within your niche, delivering structured reports.", "description_zh": "", "downloads": 416, "homepage": "https://clawhub.ai/ryudi84/sovereign-content-scraper", "iconUrl": null, "installs": 34, "name": "Content Scraper — AI Trend Monitor", "ownerName": "ryudi84", "score": 6318.863666533918, "slug": "sovereign-content-scraper", "source": "clawhub", "stars": 3, "tags": ["content", "scraping", "social-media", "trending"], "updated_at": 1776761539825, "version": "1.0.0"}, {"category": "", "created_at": 1774918957213, "description": "Enforce a four-phase debugging process—root cause investigation, pattern analysis, hypothesis testing, and evidence-based fix verification—for all bugs and f...", "description_zh": "", "downloads": 416, "homepage": "https://clawhub.ai/axelhu/superpowers-systematic-debugging", "iconUrl": null, "installs": 58, "name": "Superpowers Systematic Debugging", "ownerName": "axelhu", "score": 233.987861879665, "slug": "superpowers-systematic-debugging", "source": "clawhub", "stars": 0, "tags": null, "updated_at": 1776770690887, "version": "1.0.0"}, {"category": "content-creation", "created_at": 1773081016563, "description": "Automate PSD text replacement on Mac and Windows with Photoshop, dry-run safety, style-lock checks, rollback, and local PSD index cache. Use when requests in...", "description_zh": "", "downloads": 416, "homepage": "https://clawhub.ai/dhrxy/psd-automator", "iconUrl": null, "installs": 102, "name": "Psd Automator", "ownerName": "dhrxy", "score": 4985.618408437201, "slug": "psd-automator", "source": "clawhub", "stars": 0, "tags": null, "updated_at": 1776769490467, "version": "1.0.0"}, {"category": "ai-intelligence", "created_at": 1772798770707, "description": "Humanize AI-generated text by removing telltale AI writing patterns. Use when text needs to sound natural and human-written — removing em-dashes, AI filler p...", "description_zh": "", "downloads": 416, "homepage": "https://clawhub.ai/rustyorb/humanize-text", "iconUrl": null, "installs": 43, "name": "Humanize Text", "ownerName": "rustyorb", "score": 5942.008284530782, "slug": "humanize-text", "source": "clawhub", "stars": 0, "tags": null, "updated_at": 1776768971186, "version": "1.0.0"}, {"category": "productivity", "created_at": 1772788527689, "description": "Manages post-posting tasks by moving approved Reddit drafts to posted/, adding URLs, updating active tasks, and logging after Luka confirms posting.", "description_zh": "", "downloads": 416, "homepage": "https://clawhub.ai/lknezic/reddit-post", "iconUrl": null, "installs": 26, "name": "Reddit Post", "ownerName": "lknezic", "score": 30431.60204828091, "slug": "reddit-post", "source": "clawhub", "stars": 0, "tags": null, "updated_at": 1776759083701, "version": "1.0.0"}]}