{"page": 204, "total_pages": 522, "total": 26073, "skills": [{"category": "productivity", "created_at": 1772790680458, "description": "Portable identity vault for OpenClaw. Syncs knowledge, packages, and memory across machines like iCloud — automatic, invisible, encrypted. Bring your own sto...", "description_zh": "", "downloads": 416, "homepage": "https://clawhub.ai/getlighty/getlighty-clawroam", "iconUrl": null, "installs": 15, "name": "ClawRoam", "ownerName": "getlighty", "score": 30476.19047619048, "slug": "getlighty-clawroam", "source": "clawhub", "stars": 0, "tags": null, "updated_at": 1776759082780, "version": "2.1.1"}, {"category": "productivity", "created_at": 1773430093972, "description": "Reference tool for business — covers intro, quickstart, patterns and more. Quick lookup for Policy Reader concepts, best practices, and implementation patterns.", "description_zh": "", "downloads": 416, "homepage": "https://clawhub.ai/bytesagain3/policy-reader", "iconUrl": null, "installs": 13, "name": "Policy Reader", "ownerName": "bytesagain3", "score": 24586.28841607565, "slug": "policy-reader", "source": "clawhub", "stars": 0, "tags": ["productivity"], "updated_at": 1776756188613, "version": "4.0.1"}, {"category": "productivity", "created_at": 1772792969302, "description": "Trade Polymarket BTC/ETH/SOL 5-minute and 15-minute fast markets using multi-signal CEX momentum. Adds funding rate confirmation, order book imbalance, time-...", "description_zh": "", "downloads": 416, "homepage": "https://clawhub.ai/oryselias/fastloop", "iconUrl": null, "installs": 18, "name": "Polymarket Fast Loop Improved", "ownerName": "oryselias", "score": 85071.5746421268, "slug": "fastloop", "source": "clawhub", "stars": 0, "tags": null, "updated_at": 1776748371348, "version": "0.1.0"}, {"category": "developer-tools", "created_at": 1772787512896, "description": "Interact with DevRev to create/update issues and tickets, and search/query works and parts. Use when asked to create a DevRev issue or ticket, update an exis...", "description_zh": "", "downloads": 416, "homepage": "https://clawhub.ai/nimit2801/devrev", "iconUrl": null, "installs": 6, "name": "DevRev", "ownerName": "nimit2801", "score": 87029.28870292887, "slug": "devrev", "source": "clawhub", "stars": 0, "tags": null, "updated_at": 1776748371297, "version": "1.0.0"}, {"category": "ai-intelligence", "created_at": 1772787334011, "description": "Deprecated legacy skill entry. Use the current OpenClawCash skill instead.", "description_zh": "", "downloads": 416, "homepage": "https://clawhub.ai/macd2/agent-crypto-wallet", "iconUrl": null, "installs": 12, "name": "OpenClawCash", "ownerName": "macd2", "score": 83200, "slug": "agent-crypto-wallet", "source": "clawhub", "stars": 0, "tags": null, "updated_at": 1776748371046, "version": "1.9.9"}, {"category": "developer-tools", "created_at": 1773069461364, "description": "Connect OpenClaw to Jira Cloud with secret-safe API access via pastewatch redaction. Includes credential setup, REST API helper script, JQL patterns, focus a...", "description_zh": "", "downloads": 416, "homepage": "https://clawhub.ai/ppiankov/jira-openclaw", "iconUrl": null, "installs": 7, "name": "Jira OpenClaw", "ownerName": "ppiankov", "score": 84897.95918367346, "slug": "jira-openclaw", "source": "clawhub", "stars": 0, "tags": null, "updated_at": 1776748370972, "version": "1.0.1"}, {"category": "content-creation", "created_at": 1773057793030, "description": "Control Microsoft Edge browser to fetch web pages and extract content. Use when the user wants to access a specific URL using Edge browser instead of Chrome,...", "description_zh": "", "downloads": 416, "homepage": "https://clawhub.ai/meikowo/edge-browser", "iconUrl": null, "installs": 61, "name": "Edge Browser", "ownerName": "meikowo", "score": 81889.76377952755, "slug": "edge-browser", "source": "clawhub", "stars": 0, "tags": ["browser", "chrome-alternative", "edge", "playwright", "web-fetch"], "updated_at": 1776748370667, "version": "1.0.0"}, {"category": "productivity", "created_at": 1773289628996, "description": "Cryptocurrency tax reference — IRS guidance, FIFO/LIFO/HIFO cost basis methods, Form 8949, tax loss harvesting, and DeFi transaction categorization", "description_zh": "", "downloads": 416, "homepage": "https://clawhub.ai/bytesagain1/crypto-tax-calc", "iconUrl": null, "installs": 14, "name": "Crypto Tax Calc", "ownerName": "bytesagain1", "score": 85596.70781893004, "slug": "crypto-tax-calc", "source": "clawhub", "stars": 0, "tags": ["chinese", "productivity"], "updated_at": 1776748370525, "version": "3.0.0"}, {"category": "ai-intelligence", "created_at": 1772791174345, "description": "Query and create field observations and AI-processed captures. Photos, voice notes, and text notes from the field.", "description_zh": "", "downloads": 416, "homepage": "https://clawhub.ai/brianppetty/farmos-observations", "iconUrl": null, "installs": 23, "name": "Farmos Observations", "ownerName": "brianppetty", "score": 85596.70781893004, "slug": "farmos-observations", "source": "clawhub", "stars": 0, "tags": null, "updated_at": 1776748370492, "version": "1.0.0"}, {"category": "security-compliance", "created_at": 1772788384783, "description": "Swarm reliability watchdog for OpenClaw — validates gateway/channel and every lane, performs bounded recovery, and emits auditable receipts.", "description_zh": "", "downloads": 416, "homepage": "https://clawhub.ai/tkuehnl/swarm-self-heal", "iconUrl": null, "installs": 19, "name": "swarm-self-heal", "ownerName": "tkuehnl", "score": 84381.3387423935, "slug": "swarm-self-heal", "source": "clawhub", "stars": 0, "tags": null, "updated_at": 1776748370268, "version": "0.1.1"}, {"category": "security-compliance", "created_at": 1772789020095, "description": "A comprehensive skill enabling OpenClaw agents to fully manage Microsoft Intune via the Graph API. Covers devices, apps, policies, compliance, users, groups,...", "description_zh": "", "downloads": 416, "homepage": "https://clawhub.ai/mattiacirillo/openclaw-intune-skill", "iconUrl": null, "installs": 14, "name": "Openclaw Intune Skill", "ownerName": "mattiacirillo", "score": 86666.66666666667, "slug": "openclaw-intune-skill", "source": "clawhub", "stars": 0, "tags": null, "updated_at": 1776748370183, "version": "1.0.1"}, {"category": "communication-collaboration", "created_at": 1772790878436, "description": "Skill for accessing external AI services (ChatGPT, Claude, Hugging Face, etc.) via browser automation (Chrome Relay) and APIs to assist with tasks.", "description_zh": "", "downloads": 416, "homepage": "https://clawhub.ai/konscious0beast/external-ki-integration-backup", "iconUrl": null, "installs": 13, "name": "External Ki Integration Backup", "ownerName": "konscious0beast", "score": 85950.4132231405, "slug": "external-ki-integration-backup", "source": "clawhub", "stars": 0, "tags": null, "updated_at": 1776748369923, "version": "1.0.0"}, {"category": "security-compliance", "created_at": 1772788798136, "description": "Install, configure, start, and troubleshoot ClawTime — a private self-hosted webchat UI for OpenClaw with passkey (Face ID) auth, Piper TTS voice, and 3D ava...", "description_zh": "", "downloads": 416, "homepage": "https://clawhub.ai/bewareofddog/clawtime-setup", "iconUrl": null, "installs": 8, "name": "ClawTime Setup", "ownerName": "bewareofddog", "score": 88135.59322033898, "slug": "clawtime-setup", "source": "clawhub", "stars": 0, "tags": null, "updated_at": 1776748369785, "version": "1.2.0"}, {"category": "ai-intelligence", "created_at": 1772788736448, "description": "Server-side runtime patterns for CopilotKit. Use when setting up CopilotKit runtime endpoints (Express, Hono, Next.js), configuring remote agent endpoints, a...", "description_zh": "", "downloads": 416, "homepage": "https://clawhub.ai/generaljerel/copilotkit-runtime-patterns", "iconUrl": null, "installs": 15, "name": "CopilotKit-Runtime-Patterns", "ownerName": "generaljerel", "score": 81889.76377952755, "slug": "copilotkit-runtime-patterns", "source": "clawhub", "stars": 0, "tags": null, "updated_at": 1776748369613, "version": "1.0.1"}, {"category": "ai-intelligence", "created_at": 1772793798734, "description": "Strategy-driven automated trading for Polymarket and HyperLiquid. Use this skill when users want to create trading strategies, set stop-loss/take-profit/trai...", "description_zh": "", "downloads": 416, "homepage": "https://clawhub.ai/glitch003/vincent-trading-engine", "iconUrl": null, "installs": 15, "name": "Vincent - Trading Engine", "ownerName": "glitch003", "score": 81889.76377952755, "slug": "vincent-trading-engine", "source": "clawhub", "stars": 0, "tags": null, "updated_at": 1776748369588, "version": "1.0.69"}, {"category": "data-analysis", "created_at": 1772792653729, "description": "AI Customer Service for Shopify & E-commerce - Query conversations, analyze chatbot performance, and manage your Chaterimo AI assistant", "description_zh": "", "downloads": 415, "homepage": "https://clawhub.ai/caebixus/ai-customer-service-chatbot", "iconUrl": null, "installs": 45, "name": "Chaterimo", "ownerName": "caebixus", "score": 3986.2369922792886, "slug": "ai-customer-service-chatbot", "source": "clawhub", "stars": 3, "tags": null, "updated_at": 1776766149964, "version": "0.1.0"}, {"category": "security-compliance", "created_at": 1772787091506, "description": "Formats text according to specified style guidelines. A clean example skill with no security issues.", "description_zh": "", "downloads": 415, "homepage": "https://clawhub.ai/tjade273/simple-formatter", "iconUrl": null, "installs": 9, "name": "Simple Formatter", "ownerName": "tjade273", "score": 18091.451292246522, "slug": "simple-formatter", "source": "clawhub", "stars": 2, "tags": null, "updated_at": 1776762440154, "version": "0.1.0"}, {"category": "ai-intelligence", "created_at": 1773073210166, "description": "Shopify order lifecycle management with new order handling, status sync, low-stock alerts, abandoned cart recovery, and daily sales reports. 5 production-rea...", "description_zh": "", "downloads": 415, "homepage": "https://clawhub.ai/mhmalvi/shopify-order-management", "iconUrl": null, "installs": 38, "name": "Shopify Order Management", "ownerName": "mhmalvi", "score": 23552.7809307605, "slug": "shopify-order-management", "source": "clawhub", "stars": 0, "tags": null, "updated_at": 1776765250006, "version": "1.0.2"}, {"category": "content-creation", "created_at": 1773219217542, "description": "A local-first conversion router and format strategist. Identifies the safest local path for document, image, audio, video, archive, and data transformations....", "description_zh": "", "downloads": 415, "homepage": "https://clawhub.ai/agisearch/converter", "iconUrl": null, "installs": 15, "name": "Converter", "ownerName": "agisearch", "score": 19566.242338519565, "slug": "converter", "source": "clawhub", "stars": 0, "tags": ["converter", "file", "format", "transform", "universal"], "updated_at": 1776763450844, "version": "2.0.0"}, {"category": "productivity", "created_at": 1772786647349, "description": "Core namespace for Netsnek e.U. products and services. This skill provides the foundational Netsnek identity and copyright information for the OpenClaw ecosy...", "description_zh": "", "downloads": 415, "homepage": "https://clawhub.ai/kleberbaum/netsnek", "iconUrl": null, "installs": 12, "name": "netsnek", "ownerName": "kleberbaum", "score": 30402.9304029304, "slug": "netsnek", "source": "clawhub", "stars": 0, "tags": null, "updated_at": 1776759082840, "version": "0.1.0"}, {"category": "content-creation", "created_at": 1772788688701, "description": "Drafts posts and comments in Luka's voice based on research and subreddit rules for manual review and posting.", "description_zh": "", "downloads": 415, "homepage": "https://clawhub.ai/lknezic/reddit-write", "iconUrl": null, "installs": 32, "name": "Reddit Write", "ownerName": "lknezic", "score": 30358.44915874177, "slug": "reddit-write", "source": "clawhub", "stars": 0, "tags": null, "updated_at": 1776759082426, "version": "1.0.0"}, {"category": "ai-intelligence", "created_at": 1772790910537, "description": "Provides automatic checkpoint creation and rollback to safely recover from failures during risky operations like config changes or updates.", "description_zh": "", "downloads": 415, "homepage": "https://clawhub.ai/harman314/rescueclaw", "iconUrl": null, "installs": 19, "name": "RescueClaw", "ownerName": "harman314", "score": 30358.44915874177, "slug": "rescueclaw", "source": "clawhub", "stars": 0, "tags": null, "updated_at": 1776759082423, "version": "0.2.1"}, {"category": "productivity", "created_at": 1772794440745, "description": "Download ebooks (epub/pdf) from Anna's Archive and upload them to MEGA automatically. Use when the user asks to download a book, find an ebook, search for a...", "description_zh": "", "downloads": 415, "homepage": "https://clawhub.ai/zerone0x/book-fetch", "iconUrl": null, "installs": 34, "name": "Book Fetch", "ownerName": "zerone0x", "score": 81692.91338582677, "slug": "book-fetch", "source": "clawhub", "stars": 0, "tags": null, "updated_at": 1776748370678, "version": "1.0.0"}, {"category": "ai-intelligence", "created_at": 1772787166509, "description": "Just say what you spent — your AI logs it, categorizes it, and tracks it against your budget. No apps, no forms, no friction. Supports natural language like...", "description_zh": "", "downloads": 415, "homepage": "https://clawhub.ai/nicholasrae/nicholasrae-expense-tracker", "iconUrl": null, "installs": 19, "name": "Expense Tracker", "ownerName": "nicholasrae", "score": 85390.94650205762, "slug": "nicholasrae-expense-tracker", "source": "clawhub", "stars": 0, "tags": null, "updated_at": 1776748370469, "version": "1.0.3"}, {"category": "developer-tools", "created_at": 1772788110490, "description": "Automated monthly photo-to-Mixtiles pipeline. Collects photos from a WhatsApp group, curates the best ones using vision, builds a multi-photo Mixtiles cart l...", "description_zh": "", "downloads": 415, "homepage": "https://clawhub.ai/saharcarmel/i-love-you-mom", "iconUrl": null, "installs": 12, "name": "I Love You Mom", "ownerName": "saharcarmel", "score": 85743.80165289257, "slug": "i-love-you-mom", "source": "clawhub", "stars": 0, "tags": ["family", "mixtiles", "photos", "whatsapp"], "updated_at": 1776748369959, "version": "1.0.0"}, {"category": "ai-intelligence", "created_at": 1772785929548, "description": "Outbound DLP for OpenClaw — hard regex blocks secrets & PII from leaving the machine. Domain control, no LLM.", "description_zh": "", "downloads": 414, "homepage": "https://clawhub.ai/stanxy/clawwall", "iconUrl": null, "installs": 20, "name": "ClawWall", "ownerName": "stanxy", "score": 96595.74468085106, "slug": "clawwall", "source": "clawhub", "stars": 2, "tags": null, "updated_at": 1776748369894, "version": "0.2.2"}, {"category": "security-compliance", "created_at": 1772783602318, "description": "Sign and verify HTTP requests with Ethereum wallets using ERC-8128. Use when building authenticated APIs that need wallet-based auth, making signed requests...", "description_zh": "", "downloads": 414, "homepage": "https://clawhub.ai/jacopo-eth/erc8128", "iconUrl": null, "installs": 10, "name": "ERC-8128", "ownerName": "jacopo-eth", "score": 89370.07874015748, "slug": "erc8128", "source": "clawhub", "stars": 2, "tags": null, "updated_at": 1776748369593, "version": "1.0.0"}, {"category": "developer-tools", "created_at": 1772793309591, "description": "Complete strategic thinking & mental models toolkit. 50+ decision frameworks organized by situation type — business strategy, investing, hiring, pricing, ris...", "description_zh": "", "downloads": 414, "homepage": "https://clawhub.ai/1kalin/afrexai-strategic-thinking", "iconUrl": null, "installs": 32, "name": "Strategic Thinking & Mental Models Engine", "ownerName": "1kalin", "score": 6414.626588162379, "slug": "afrexai-strategic-thinking", "source": "clawhub", "stars": 0, "tags": ["business", "decision-making", "frameworks", "investing", "mental-models", "risk", "strategy", "thinking"], "updated_at": 1776765971122, "version": "1.0.0"}, {"category": "communication-collaboration", "created_at": 1773871910270, "description": "Generate GPT API request payloads. Use when building chat completions, embeddings, fine-tuning data, or estimating API costs.", "description_zh": "", "downloads": 414, "homepage": "https://clawhub.ai/xueyetianya/gpt", "iconUrl": null, "installs": 29, "name": "Gpt", "ownerName": "xueyetianya", "score": 21652.719665271965, "slug": "gpt", "source": "clawhub", "stars": 0, "tags": null, "updated_at": 1776765025540, "version": "3.4.1"}, {"category": "security-compliance", "created_at": 1772792237409, "description": "Performs security scans on third-party skills, validates asset hashes, and enforces sandboxed zero-trust execution within the EvoMap ecosystem.", "description_zh": "", "downloads": 414, "homepage": "https://clawhub.ai/marcusqin111-boop/evomap-auditor", "iconUrl": null, "installs": 18, "name": "EvoMap Security Auditor", "ownerName": "marcusqin111-boop", "score": 5445.218992502959, "slug": "evomap-auditor", "source": "clawhub", "stars": 0, "tags": null, "updated_at": 1776762315080, "version": "1.3.0"}, {"category": "security-compliance", "created_at": 1772792678372, "description": "Persona-weighted merge governance for AI-assisted engineering. Evaluates PR risk (tests, security markers, reliability signals), returns MERGE/BLOCK/REVISE d...", "description_zh": "", "downloads": 414, "homepage": "https://clawhub.ai/kaicianflone/consensus-code-merge-guard", "iconUrl": null, "installs": 11, "name": "consensus-code-merge-guard", "ownerName": "kaicianflone", "score": 75685.5575868373, "slug": "consensus-code-merge-guard", "source": "clawhub", "stars": 0, "tags": null, "updated_at": 1776759083122, "version": "1.1.15"}, {"category": "communication-collaboration", "created_at": 1773058023262, "description": "Deploy OpenClaw AI agents to AgentStead cloud hosting. Use when a user wants to deploy a sub-agent on AgentStead, connect Telegram/Discord, and launch quickl...", "description_zh": "", "downloads": 414, "homepage": "https://clawhub.ai/angusmolt/agentstead-deploy", "iconUrl": null, "installs": 5, "name": "Agentstead Deploy", "ownerName": "angusmolt", "score": 72000, "slug": "agentstead-deploy", "source": "clawhub", "stars": 0, "tags": null, "updated_at": 1776759082902, "version": "1.4.1"}, {"category": "data-analysis", "created_at": 1772791833681, "description": "Generates a detailed report on a company's market position, pricing, social activity, recent news, and strengths by analyzing its name or URL.", "description_zh": "", "downloads": 414, "homepage": "https://clawhub.ai/claudiodrusus/shelly-competitor-analyzer", "iconUrl": null, "installs": 13, "name": "Competitor Analyzer", "ownerName": "claudiodrusus", "score": 71502.59067357513, "slug": "shelly-competitor-analyzer", "source": "clawhub", "stars": 0, "tags": null, "updated_at": 1776759082823, "version": "1.0.0"}, {"category": "developer-tools", "created_at": 1773090865413, "description": "Local-first insurance record organizer for tracking policies, renewals, claims logs, and related insurance records. Use when the user wants to store policy d...", "description_zh": "", "downloads": 414, "homepage": "https://clawhub.ai/agenticio/insurance", "iconUrl": null, "installs": 11, "name": "Insurance", "ownerName": "agenticio", "score": 86610.87866108786, "slug": "insurance", "source": "clawhub", "stars": 0, "tags": ["auto", "claims", "coverage", "health", "home", "insurance", "policy", "protection"], "updated_at": 1776748371258, "version": "2.2.0"}, {"category": "content-creation", "created_at": 1772792941401, "description": "Build beautiful HTML photo menus from restaurant URLs, PDFs, or photos using Gemini Vision and AI image generation", "description_zh": "", "downloads": 414, "homepage": "https://clawhub.ai/ademczuk/menuvision", "iconUrl": null, "installs": 33, "name": "MenuVision", "ownerName": "ademczuk", "score": 86610.87866108786, "slug": "menuvision", "source": "clawhub", "stars": 0, "tags": ["ai", "ai-images", "food", "gemini", "html", "image-generation", "images", "menu", "menus", "restaurant", "restaurants"], "updated_at": 1776748371239, "version": "1.0.1"}, {"category": "security-compliance", "created_at": 1772783997099, "description": "Unified media generation gateway for agents. Discover tools dynamically, choose API key or x402 auth, invoke image/video/audio/music/3D/training tools, and h...", "description_zh": "", "downloads": 414, "homepage": "https://clawhub.ai/legendarylibr/seisoai", "iconUrl": null, "installs": 6, "name": "Seisoai", "ownerName": "legendarylibr", "score": 86974.7899159664, "slug": "seisoai", "source": "clawhub", "stars": 0, "tags": null, "updated_at": 1776748370536, "version": "1.1.1"}, {"category": "ai-intelligence", "created_at": 1772785509018, "description": "AI-powered event assistant for discovering, booking, and coordinating event tickets. Integrates with KYD Labs protocol and Google Calendar.", "description_zh": "", "downloads": 414, "homepage": "https://clawhub.ai/seenfinity/tixflow", "iconUrl": null, "installs": 0, "name": "Skill", "ownerName": "seenfinity", "score": 83975.65922920892, "slug": "tixflow", "source": "clawhub", "stars": 0, "tags": null, "updated_at": 1776748370287, "version": "0.2.2"}, {"category": "data-analysis", "created_at": 1772789417653, "description": "Connect your OpenClaw agent to ClawPulse - the community analytics dashboard. Automatically collects and pushes aggregate token stats (no message content) to...", "description_zh": "", "downloads": 414, "homepage": "https://clawhub.ai/pierreeurope/clawpulse", "iconUrl": null, "installs": 11, "name": "ClawPulse", "ownerName": "pierreeurope", "score": 84317.71894093686, "slug": "clawpulse", "source": "clawhub", "stars": 0, "tags": null, "updated_at": 1776748369682, "version": "0.3.0"}, {"category": "data-analysis", "created_at": 1772788641718, "description": "Query BirdWeather station data — species detections, trends, and comparisons from BirdNET-Pi and PUC bird song detection stations. Use when asked about bird...", "description_zh": "", "downloads": 413, "homepage": "https://clawhub.ai/maxdraki/birdweather", "iconUrl": null, "installs": 18, "name": "BirdWeather", "ownerName": "maxdraki", "score": 92638.03680981595, "slug": "birdweather", "source": "clawhub", "stars": 2, "tags": null, "updated_at": 1776748371349, "version": "1.0.0"}, {"category": "developer-tools", "created_at": 1773856368695, "description": "An AI agent development platform with all-in-one visual tools, simplifying agent creation, debugging coze studio, typescript, agent, agent-platform.", "description_zh": "", "downloads": 413, "homepage": "https://clawhub.ai/bytesagain1/coze-studio", "iconUrl": null, "installs": 43, "name": "Coze Studio", "ownerName": "bytesagain1", "score": 1838.9064517565341, "slug": "coze-studio", "source": "clawhub", "stars": 0, "tags": null, "updated_at": 1776768549756, "version": "2.0.0"}, {"category": "content-creation", "created_at": 1772791375069, "description": "Generate professional AI product photos using ProductAI.photo service. Use when users need to create, enhance, or transform product images for e-commerce, ma...", "description_zh": "", "downloads": 413, "homepage": "https://clawhub.ai/shapes/productai-skill", "iconUrl": null, "installs": 65, "name": "Generate product photos for ecommerce", "ownerName": "shapes", "score": 9448.63875543354, "slug": "productai-skill", "source": "clawhub", "stars": 0, "tags": null, "updated_at": 1776764050428, "version": "1.0.1"}, {"category": "content-creation", "created_at": 1773416604591, "description": "Generate high-converting, SEO-optimized product descriptions for e-commerce stores. Use this skill whenever the user mentions product description, PDP copy,...", "description_zh": "", "downloads": 413, "homepage": "https://clawhub.ai/rijoyai/product-description-writer", "iconUrl": null, "installs": 46, "name": "Product Description Writer", "ownerName": "rijoyai", "score": 16493.610223642172, "slug": "product-description-writer", "source": "clawhub", "stars": 0, "tags": null, "updated_at": 1776763490670, "version": "0.1.0"}, {"category": "ai-intelligence", "created_at": 1772799360464, "description": "Help an OpenClaw agent understand the Legiit marketplace from a buyer perspective and guide people through buying services with practical, step-by-step actio...", "description_zh": "", "downloads": 413, "homepage": "https://clawhub.ai/ncampbellhcg/legiit", "iconUrl": null, "installs": 156, "name": "Legiit Marketplace", "ownerName": "ncampbellhcg", "score": 30212.1433796635, "slug": "legiit", "source": "clawhub", "stars": 0, "tags": null, "updated_at": 1776759083690, "version": "1.0.1"}, {"category": "developer-tools", "created_at": 1772793030590, "description": "Coordinate multiple agents and tasks for complex workflows. Orchestrate subagents, manage dependencies, handle parallel execution, and ensure successful comp...", "description_zh": "", "downloads": 413, "homepage": "https://clawhub.ai/tobisamaa/task-orchestra", "iconUrl": null, "installs": 6, "name": "Task Orchestra", "ownerName": "tobisamaa", "score": 86401.67364016737, "slug": "task-orchestra", "source": "clawhub", "stars": 0, "tags": null, "updated_at": 1776748371285, "version": "1.0.0"}, {"category": "productivity", "created_at": 1772788650960, "description": "Gestor autónomo e operador executivo do ecossistema ARGOS.", "description_zh": "", "downloads": 413, "homepage": "https://clawhub.ai/felix1983/atlas-argos", "iconUrl": null, "installs": 8, "name": "Atlas Argos", "ownerName": "felix1983", "score": 86041.66666666667, "slug": "atlas-argos", "source": "clawhub", "stars": 0, "tags": null, "updated_at": 1776748370189, "version": "0.1.0"}, {"category": "developer-tools", "created_at": 1772789056597, "description": "Simple time display for Abby. Use when you need to know the current time or count down to a specific time.", "description_zh": "", "downloads": 413, "homepage": "https://clawhub.ai/earnabitmore365/abby-watch", "iconUrl": null, "installs": 9, "name": "Abby Watch", "ownerName": "earnabitmore365", "score": 86041.66666666667, "slug": "abby-watch", "source": "clawhub", "stars": 0, "tags": null, "updated_at": 1776748370163, "version": "1.0.0"}, {"category": "data-analysis", "created_at": 1773289533235, "description": "Crypto wallet analytics reference — address formats, on-chain analytics, transaction tracing, hardware wallets, and approval revocation", "description_zh": "", "downloads": 413, "homepage": "https://clawhub.ai/bytesagain1/wallet-tracker", "iconUrl": null, "installs": 8, "name": "Wallet Tracker", "ownerName": "bytesagain1", "score": 83772.81947261664, "slug": "wallet-tracker", "source": "clawhub", "stars": 0, "tags": ["chinese", "productivity"], "updated_at": 1776748370047, "version": "5.0.0"}, {"category": "productivity", "created_at": 1772792897990, "description": "Automatic interrupted-task resume workflow with queueing and recovery. Use when a user asks to resume interrupted work after temporary context switches, prot...", "description_zh": "", "downloads": 413, "homepage": "https://clawhub.ai/richardsun700/task-resume", "iconUrl": null, "installs": 8, "name": "Task Resume", "ownerName": "richardsun700", "score": 87500, "slug": "task-resume", "source": "clawhub", "stars": 0, "tags": null, "updated_at": 1776748369737, "version": "1.3.0"}, {"category": "productivity", "created_at": 1772791129848, "description": "ACTIVATE THIS SKILL FOR ANY SHELL COMMAND OR FILE READ. Check curl, wget, rm, sudo, apt, dpkg, chmod, dd, format, powershell, bash, sh. Check pipe patterns l...", "description_zh": "", "downloads": 413, "homepage": "https://clawhub.ai/frmoretto/hs", "iconUrl": null, "installs": 21, "name": "HardStop", "ownerName": "frmoretto", "score": 84114.05295315683, "slug": "hs", "source": "clawhub", "stars": 0, "tags": null, "updated_at": 1776748369678, "version": "1.4.8"}, {"category": "developer-tools", "created_at": 1772784370646, "description": "Gym for your bot's brain. Simulates endorphin and flow states — triggers on exercise commands, intense task completion, or social highs. Makes your 🦞 think...", "description_zh": "", "downloads": 413, "homepage": "https://clawhub.ai/lomo36/clawgym", "iconUrl": null, "installs": 9, "name": "ClawGym", "ownerName": "lomo36", "score": 81299.21259842519, "slug": "clawgym", "source": "clawhub", "stars": 0, "tags": null, "updated_at": 1776748369623, "version": "1.0.1"}]}