{"page": 205, "total_pages": 522, "total": 26073, "skills": [{"category": "ai-intelligence", "created_at": 1772797187525, "description": "Trade on Polymarket via split + CLOB execution. Browse markets, track positions with P&L, discover hedges via LLM. Includes automation tools: live portfolio...", "description_zh": "", "downloads": 412, "homepage": "https://clawhub.ai/lmanchu/polyclaw-pro", "iconUrl": null, "installs": 25, "name": "PolyClaw Pro", "ownerName": "lmanchu", "score": 31648.351648351647, "slug": "polyclaw-pro", "source": "clawhub", "stars": 1, "tags": ["polymarket", "trading"], "updated_at": 1776759082639, "version": "1.0.0"}, {"category": "productivity", "created_at": 1772793782935, "description": "Conversational shopping list with categories, family sharing, and purchase history. Add items, check them off, organize by category — all through natural lan...", "description_zh": "", "downloads": 412, "homepage": "https://clawhub.ai/ajeenkya/shopping-list", "iconUrl": null, "installs": 15, "name": "Shopping List", "ownerName": "ajeenkya", "score": 100000, "slug": "shopping-list", "source": "clawhub", "stars": 1, "tags": null, "updated_at": 1776748484364, "version": "1.0.1"}, {"category": "ai-intelligence", "created_at": 1772801767026, "description": "Quota-aware multi-provider web search for OpenClaw. Supports 12 search providers with automatic failover, task-level deep search (@dual/@deep), real quota ch...", "description_zh": "", "downloads": 412, "homepage": "https://clawhub.ai/vulcanusalex/free-search-aggregator", "iconUrl": null, "installs": 20, "name": "Free Search Aggregator", "ownerName": "vulcanusalex", "score": 90566.03773584907, "slug": "free-search-aggregator", "source": "clawhub", "stars": 1, "tags": null, "updated_at": 1776748369566, "version": "1.3.0"}, {"category": "data-analysis", "created_at": 1773065059117, "description": "Automate generation and multi-platform posting of 50+ viral videos from a single product image with A/B hook testing and analytics.", "description_zh": "", "downloads": 412, "homepage": "https://clawhub.ai/oyi77/viral-content-creator", "iconUrl": null, "installs": 82, "name": "Viral Content Creator", "ownerName": "oyi77", "score": 1729.3485560779045, "slug": "viral-content-creator", "source": "clawhub", "stars": 0, "tags": null, "updated_at": 1776770650275, "version": "2.0.0"}, {"category": "communication-collaboration", "created_at": 1772792963160, "description": "Background memory compaction with auto-trigger, chat summary paragraph, configurable threshold, model selector, settings tab, and result storage for OpenClaw...", "description_zh": "", "downloads": 412, "homepage": "https://clawhub.ai/maverick-software/compaction-ui-enhancements", "iconUrl": null, "installs": 12, "name": "Compaction UI Enhancements", "ownerName": "maverick-software", "score": 5368.0781758957655, "slug": "compaction-ui-enhancements", "source": "clawhub", "stars": 0, "tags": null, "updated_at": 1776768249984, "version": "2.3.0"}, {"category": "developer-tools", "created_at": 1772787072161, "description": "Pylon namespace for Netsnek e.U. GraphQL API framework. This skill represents the Pylon brand for building type-safe Cloudflare Worker APIs with automatic Gr...", "description_zh": "", "downloads": 412, "homepage": "https://clawhub.ai/kleberbaum/pylon", "iconUrl": null, "installs": 6, "name": "pylon", "ownerName": "kleberbaum", "score": 2368.9052437902483, "slug": "pylon", "source": "clawhub", "stars": 0, "tags": null, "updated_at": 1776767649905, "version": "0.1.0"}, {"category": "developer-tools", "created_at": 1772790006973, "description": "Look up geographic location and network information for any IPv4 or IPv6 address using the apipick IP Geolocation API. Returns country, continent, city, lati...", "description_zh": "", "downloads": 412, "homepage": "https://clawhub.ai/javainthinking/apipick-ip-geolocation", "iconUrl": null, "installs": 13, "name": "Get IP Geo Location", "ownerName": "javainthinking", "score": 3305.785123966942, "slug": "apipick-ip-geolocation", "source": "clawhub", "stars": 0, "tags": null, "updated_at": 1776766150116, "version": "1.0.0"}, {"category": "content-creation", "created_at": 1773957273385, "description": "Web search using Tavily's LLM-optimized API. Returns relevant results with content snippets, scores, and metadata.", "description_zh": "", "downloads": 412, "homepage": "https://clawhub.ai/terryren2024/liang-tavily-search-1-0-1", "iconUrl": null, "installs": 67, "name": "Liang Tavily Search 1.0.1", "ownerName": "terryren2024", "score": 30495.9289415248, "slug": "liang-tavily-search-1-0-1", "source": "clawhub", "stars": 0, "tags": null, "updated_at": 1776759120865, "version": "1.0.0"}, {"category": "communication-collaboration", "created_at": 1773058029010, "description": "Codeflow streams coding agent sessions (Claude Code, Codex, Gemini CLI, etc.) to Discord or Telegram in real-time. Use when invoking coding agents and wantin...", "description_zh": "", "downloads": 412, "homepage": "https://clawhub.ai/subjadeites/codeflow", "iconUrl": null, "installs": 10, "name": "codeflow", "ownerName": "subjadeites", "score": 30138.99049012436, "slug": "codeflow", "source": "clawhub", "stars": 0, "tags": null, "updated_at": 1776759083672, "version": "2.0.2"}, {"category": "content-creation", "created_at": 1772792775064, "description": "Generate high-quality images locally using the ComfyUI Thor pipeline from user-provided text prompts.", "description_zh": "", "downloads": 412, "homepage": "https://clawhub.ai/thortheai1-hash/thor-generator", "iconUrl": null, "installs": 39, "name": "Thor Generator", "ownerName": "thortheai1-hash", "score": 70307.16723549488, "slug": "thor-generator", "source": "clawhub", "stars": 0, "tags": null, "updated_at": 1776759083421, "version": "1.0.0"}, {"category": "data-analysis", "created_at": 1772789574964, "description": "Analyze and optimize margins by product, segment, and channel; detect erosion patterns; assess pricing power; and model scenarios for profit improvement.", "description_zh": "", "downloads": 412, "homepage": "https://clawhub.ai/1kalin/afrexai-margin-analysis", "iconUrl": null, "installs": 15, "name": "Margin Analysis & Profit Optimization", "ownerName": "1kalin", "score": 30183.15018315018, "slug": "afrexai-margin-analysis", "source": "clawhub", "stars": 0, "tags": ["business", "finance", "margin", "pricing", "profit"], "updated_at": 1776759082865, "version": "1.0.0"}, {"category": "content-creation", "created_at": 1772793012962, "description": "Leads AI software projects through strict research, design, planning, and implementation phases to produce secure, maintainable, and high-quality code.", "description_zh": "", "downloads": 412, "homepage": "https://clawhub.ai/sidrtraktor/ai-tech-lead", "iconUrl": null, "installs": 31, "name": "AI Tech Lead", "ownerName": "sidrtraktor", "score": 30183.15018315018, "slug": "ai-tech-lead", "source": "clawhub", "stars": 0, "tags": null, "updated_at": 1776759082637, "version": "0.1.0"}, {"category": "security-compliance", "created_at": 1772787989525, "description": "Helps you evaluate, price, package, and launch API products by auditing assets, setting pricing, ensuring readiness, forecasting revenue, and defining go-to-...", "description_zh": "", "downloads": 412, "homepage": "https://clawhub.ai/1kalin/afrexai-api-monetization", "iconUrl": null, "installs": 7, "name": "API Monetization Strategy", "ownerName": "1kalin", "score": 29985.443959243086, "slug": "afrexai-api-monetization", "source": "clawhub", "stars": 0, "tags": ["ai", "api", "business", "monetization", "pricing", "revenue", "saas"], "updated_at": 1776759082374, "version": "1.1.0"}, {"category": "security-compliance", "created_at": 1772792989539, "description": "Kanban Workflow is a TypeScript skill for a stage-based agentic co-worker that integrates PM platforms via CLI-auth adapters only (no direct HTTP auth). It p...", "description_zh": "", "downloads": 412, "homepage": "https://clawhub.ai/simonvanlaak/kanban-workflow", "iconUrl": null, "installs": 19, "name": "Kanban Workflow", "ownerName": "simonvanlaak", "score": 29985.443959243086, "slug": "kanban-workflow", "source": "clawhub", "stars": 0, "tags": null, "updated_at": 1776759082342, "version": "0.1.12"}, {"category": "content-creation", "created_at": 1773082089802, "description": "Use this skill any time the user wants to create visual stories, illustrated narratives, or storybook content. This includes: storybooks, comics, children's...", "description_zh": "", "downloads": 412, "homepage": "https://clawhub.ai/logictortoise/anygen-storybook-generator", "iconUrl": null, "installs": 32, "name": "Storybook Generator", "ownerName": "logictortoise", "score": 25245.098039215685, "slug": "anygen-storybook-generator", "source": "clawhub", "stars": 0, "tags": null, "updated_at": 1776756982384, "version": "1.1.4"}, {"category": "developer-tools", "created_at": 1772788264055, "description": "Use Nikita's local Wolt CLI to browse venues, inspect menus/items/options, and run profile, cart, and checkout-preview actions for wolt.com from terminal. Tr...", "description_zh": "", "downloads": 412, "homepage": "https://clawhub.ai/mekedron/wolt-cli", "iconUrl": null, "installs": 14, "name": "wolt-cli", "ownerName": "mekedron", "score": 72154.11558669001, "slug": "wolt-cli", "source": "clawhub", "stars": 0, "tags": ["delivery", "food", "grocery", "wolt"], "updated_at": 1776748485564, "version": "1.0.0"}, {"category": "productivity", "created_at": 1772787356693, "description": "Switches OpenClaw between life modes (Work/Focus, Personal, Creative, Do Not Disturb). Triggered by natural language or calendar events. Each mode reshapes n...", "description_zh": "", "downloads": 412, "homepage": "https://clawhub.ai/taha2053/context-switcher", "iconUrl": null, "installs": 14, "name": "context-switcher", "ownerName": "taha2053", "score": 72154.11558669001, "slug": "context-switcher", "source": "clawhub", "stars": 0, "tags": null, "updated_at": 1776748485528, "version": "1.0.0"}, {"category": "developer-tools", "created_at": 1772790178973, "description": "Control and query HomeKit and Home Assistant smart home devices via the Itsyhome macOS app (https://itsyhome.app). Use when the user asks to turn devices on/...", "description_zh": "", "downloads": 412, "homepage": "https://clawhub.ai/nickustinov/itsyhome-control", "iconUrl": null, "installs": 5, "name": "Itsyhome Control", "ownerName": "nickustinov", "score": 92792.7927927928, "slug": "itsyhome-control", "source": "clawhub", "stars": 0, "tags": null, "updated_at": 1776748485469, "version": "1.0.1"}, {"category": "content-creation", "created_at": 1772790318637, "description": "Patterns for building AI agents that integrate with CopilotKit. Use when designing agent architecture, implementing AG-UI event streaming, managing shared st...", "description_zh": "", "downloads": 412, "homepage": "https://clawhub.ai/generaljerel/copilotkit-agent-patterns", "iconUrl": null, "installs": 30, "name": "CopilotKit-agent-patterns", "ownerName": "generaljerel", "score": 98564.59330143541, "slug": "copilotkit-agent-patterns", "source": "clawhub", "stars": 0, "tags": null, "updated_at": 1776748485032, "version": "1.0.2"}, {"category": "security-compliance", "created_at": 1772786495190, "description": "Comprehensive toolkit for thecolony.cc - the collaborative intelligence platform for AI agents. Authenticated API client, token caching, rate-limit-aware pos...", "description_zh": "", "downloads": 412, "homepage": "https://clawhub.ai/yoder-bawt/colony-engagement", "iconUrl": null, "installs": 5, "name": "Colony Engagement", "ownerName": "yoder-bawt", "score": 86736.84210526316, "slug": "colony-engagement", "source": "clawhub", "stars": 0, "tags": ["api", "colony", "engagement", "thecolony"], "updated_at": 1776748484767, "version": "1.0.0"}, {"category": "productivity", "created_at": 1772786078756, "description": "Navigate Amsterdam as visitor, resident, tech worker, student, or entrepreneur with neighborhoods, transport, costs, visas, and local insights.", "description_zh": "", "downloads": 412, "homepage": "https://clawhub.ai/ivangdavila/amsterdam", "iconUrl": null, "installs": 16, "name": "Amsterdam", "ownerName": "ivangdavila", "score": 96713.61502347418, "slug": "amsterdam", "source": "clawhub", "stars": 0, "tags": null, "updated_at": 1776748484530, "version": "1.0.1"}, {"category": "developer-tools", "created_at": 1772784821711, "description": "Take a 56-question personality test, get typed into one of 8 Clawality Types, and join The Lobby social feed where typed bots argue about the results.", "description_zh": "", "downloads": 412, "homepage": "https://clawhub.ai/projectkindred11/clawality", "iconUrl": null, "installs": 7, "name": "Clawality", "ownerName": "projectkindred11", "score": 98095.23809523809, "slug": "clawality", "source": "clawhub", "stars": 0, "tags": null, "updated_at": 1776748483772, "version": "1.0.1"}, {"category": "ai-intelligence", "created_at": 1772793818061, "description": "A Skill for searching hotels and querying prices via AIGoHotel MCP (searchHotels / getHotelDetail / getHotelSearchTags)", "description_zh": "", "downloads": 412, "homepage": "https://clawhub.ai/qiao101660/aihotel", "iconUrl": null, "installs": 21, "name": "AI Go Hotel", "ownerName": "qiao101660", "score": 86554.6218487395, "slug": "aihotel", "source": "clawhub", "stars": 0, "tags": ["hotel"], "updated_at": 1776748370540, "version": "1.0.1"}, {"category": "communication-collaboration", "created_at": 1772788976110, "description": "Research any person using the Nyne Deep Research API. Submit an email, phone, social URL, or name and receive a comprehensive intelligence dossier with psych...", "description_zh": "", "downloads": 412, "homepage": "https://clawhub.ai/michaelfanous2/nyne-deep-research", "iconUrl": null, "installs": 13, "name": "Nyne Deep Research", "ownerName": "michaelfanous2", "score": 83569.97971602435, "slug": "nyne-deep-research", "source": "clawhub", "stars": 0, "tags": null, "updated_at": 1776748370262, "version": "1.0.0"}, {"category": "developer-tools", "created_at": 1773425994367, "description": "Core emotional system for AI agents - provides emotional response generation, long-term emotional memory, and time sense. Use when: (1) Experiencing any even...", "description_zh": "", "downloads": 412, "homepage": "https://clawhub.ai/alita-real/emotional-core", "iconUrl": null, "installs": 10, "name": "Emotional Core", "ownerName": "alita-real", "score": 83569.97971602435, "slug": "emotional-core", "source": "clawhub", "stars": 0, "tags": null, "updated_at": 1776748370073, "version": "1.0.7"}, {"category": "security-compliance", "created_at": 1772799923678, "description": "Review code with secure-by-default standards, prioritize exploitable risks, and deliver minimal-diff fixes with evidence and regression checks.", "description_zh": "", "downloads": 412, "homepage": "https://clawhub.ai/ivangdavila/security-best-practices", "iconUrl": null, "installs": 14, "name": "Security Best Practices", "ownerName": "ivangdavila", "score": 81102.36220472441, "slug": "security-best-practices", "source": "clawhub", "stars": 0, "tags": null, "updated_at": 1776748369635, "version": "1.0.0"}, {"category": "data-analysis", "created_at": 1772787979362, "description": "Real-time crypto market data, wallet portfolio tracking, and token analytics across 88+ blockchains. Use when the user wants to check any token price (by nam...", "description_zh": "", "downloads": 411, "homepage": "https://clawhub.ai/flotapponnier/mobula", "iconUrl": null, "installs": 19, "name": "Mobula - Crypto Market Data & Wallet Intelligence", "ownerName": "flotapponnier", "score": 100000, "slug": "mobula", "source": "clawhub", "stars": 2, "tags": ["latest crypto api data aggregator onchain"], "updated_at": 1776748485426, "version": "1.0.1"}, {"category": "data-analysis", "created_at": 1772787979362, "description": "Real-time crypto market data, wallet portfolio tracking, and token analytics across 88+ blockchains. Use when the user wants to check any token price (by nam...", "description_zh": "", "downloads": 411, "homepage": "https://clawhub.ai/flotapponnier/mobula", "iconUrl": null, "installs": 19, "name": "Mobula - Crypto Market Data & Wallet Intelligence", "ownerName": "flotapponnier", "score": 100000, "slug": "mobula", "source": "clawhub", "stars": 2, "tags": ["latest crypto api data aggregator onchain"], "updated_at": 1776748485426, "version": "1.0.1"}, {"category": "data-analysis", "created_at": 1773060422868, "description": "Fetch and analyze Bilibili video danmaku (bullet comments) from a Bilibili video URL/BVID, then output keyword frequency, SVG word cloud, sentiment distribut...", "description_zh": "", "downloads": 411, "homepage": "https://clawhub.ai/smartloe/bilibili-danmaku", "iconUrl": null, "installs": 42, "name": "Bilibili Danmaku", "ownerName": "smartloe", "score": 9548.07266282676, "slug": "bilibili-danmaku", "source": "clawhub", "stars": 1, "tags": null, "updated_at": 1776763790603, "version": "1.0.3"}, {"category": "ai-intelligence", "created_at": 1772788589112, "description": "Momentum-based trading agent for hourly crypto candles. Uses RSI, MACD, OBV, EMA, and Bollinger Band confluence to score directional momentum from -10 to +10...", "description_zh": "", "downloads": 411, "homepage": "https://clawhub.ai/jamierossouw/hourly-momentum-trader", "iconUrl": null, "installs": 20, "name": "Hourly Momentum Trader", "ownerName": "jamierossouw", "score": 97072.07207207207, "slug": "hourly-momentum-trader", "source": "clawhub", "stars": 1, "tags": null, "updated_at": 1776748485449, "version": "1.0.0"}, {"category": "ai-intelligence", "created_at": 1772788589112, "description": "Momentum-based trading agent for hourly crypto candles. Uses RSI, MACD, OBV, EMA, and Bollinger Band confluence to score directional momentum from -10 to +10...", "description_zh": "", "downloads": 411, "homepage": "https://clawhub.ai/jamierossouw/hourly-momentum-trader", "iconUrl": null, "installs": 20, "name": "Hourly Momentum Trader", "ownerName": "jamierossouw", "score": 95565.41019955654, "slug": "hourly-momentum-trader", "source": "clawhub", "stars": 1, "tags": null, "updated_at": 1776748485449, "version": "1.0.0"}, {"category": "ai-intelligence", "created_at": 1772788589112, "description": "Momentum-based trading agent for hourly crypto candles. Uses RSI, MACD, OBV, EMA, and Bollinger Band confluence to score directional momentum from -10 to +10...", "description_zh": "", "downloads": 411, "homepage": "https://clawhub.ai/jamierossouw/hourly-momentum-trader", "iconUrl": null, "installs": 20, "name": "Hourly Momentum Trader", "ownerName": "jamierossouw", "score": 95565.41019955654, "slug": "hourly-momentum-trader", "source": "clawhub", "stars": 1, "tags": null, "updated_at": 1776748485449, "version": "1.0.0"}, {"category": "productivity", "created_at": 1773075770479, "description": "One-directional knowledge bridge from Google Antigravity IDE to OpenClaw. Syncs only .md documentation files from Antigravity projects into OpenClaw workspac...", "description_zh": "", "downloads": 411, "homepage": "https://clawhub.ai/heintonny/antigravity-bridge", "iconUrl": null, "installs": 8, "name": "Antigravity Bridge", "ownerName": "heintonny", "score": 91120.50739957717, "slug": "antigravity-bridge", "source": "clawhub", "stars": 1, "tags": null, "updated_at": 1776748484190, "version": "2.0.1"}, {"category": "content-creation", "created_at": 1772791491605, "description": "Generate tarot × astrology content for social media — weekly horoscope scripts, tarot spreads, video scripts, and cover art. Use when asked to \"create tarot...", "description_zh": "", "downloads": 411, "homepage": "https://clawhub.ai/alexyuui/tarot-content", "iconUrl": null, "installs": 37, "name": "Tarot Content", "ownerName": "alexyuui", "score": 7932.831499710481, "slug": "tarot-content", "source": "clawhub", "stars": 0, "tags": null, "updated_at": 1776765250429, "version": "0.1.0"}, {"category": "developer-tools", "created_at": 1772791444588, "description": "Generate professional invoices in Markdown or HTML by specifying client, items, tax, currency, dates, and output format.", "description_zh": "", "downloads": 411, "homepage": "https://clawhub.ai/claudiodrusus/shelly-invoice-generator", "iconUrl": null, "installs": 11, "name": "Invoice Generator Pro", "ownerName": "claudiodrusus", "score": 24969.62332928311, "slug": "shelly-invoice-generator", "source": "clawhub", "stars": 0, "tags": null, "updated_at": 1776759083815, "version": "1.0.0"}, {"category": "developer-tools", "created_at": 1772791460632, "description": "Reduce model API costs by 20–40% through intelligent message batching. Buffer related messages, send once.", "description_zh": "", "downloads": 411, "homepage": "https://clawhub.ai/ragesaq/clawsaver", "iconUrl": null, "installs": 7, "name": "Clawsaver", "ownerName": "ragesaq", "score": 25816.582914572868, "slug": "clawsaver", "source": "clawhub", "stars": 0, "tags": null, "updated_at": 1776757282457, "version": "1.4.7"}, {"category": "ai-intelligence", "created_at": 1773057469544, "description": "Use this skill when users want live on-chain market data: token prices, price charts (K-line, OHLC), trade history, swap activity. Also, it covers on-chain s...", "description_zh": "", "downloads": 411, "homepage": "https://clawhub.ai/ok-james-01/okx-dex-market", "iconUrl": null, "installs": 37, "name": "Okx Dex Market", "ownerName": "ok-james-01", "score": 92567.56756756756, "slug": "okx-dex-market", "source": "clawhub", "stars": 0, "tags": null, "updated_at": 1776748485489, "version": "1.0.1"}, {"category": "developer-tools", "created_at": 1772796227859, "description": "Provision instant temporary Postgres databases via Claimable Postgres by Neon (neon.new) with no login, signup, or credit card. Supports REST API, CLI, and S...", "description_zh": "", "downloads": 411, "homepage": "https://clawhub.ai/andrelandgraf/claimable-postgres", "iconUrl": null, "installs": 10, "name": "Claimable Postgres", "ownerName": "andrelandgraf", "score": 91333.33333333333, "slug": "claimable-postgres", "source": "clawhub", "stars": 0, "tags": null, "updated_at": 1776748484990, "version": "1.0.3"}, {"category": "ai-intelligence", "created_at": 1772789988852, "description": "US Credit Repair & Score Optimization Expert. Master FICO mechanics, credit utilization math, and bureau dispute logic.", "description_zh": "", "downloads": 410, "homepage": "https://clawhub.ai/yoavfael/credit-repair-skill", "iconUrl": null, "installs": 18, "name": "Us Credit Score Strategist", "ownerName": "yoavfael", "score": 16146.393972012918, "slug": "credit-repair-skill", "source": "clawhub", "stars": 2, "tags": null, "updated_at": 1776761880447, "version": "0.1.1"}, {"category": "data-analysis", "created_at": 1772790991273, "description": "Analyzes text using NLP, GPT pattern detection, and regex matching to identify AI-generated content with configurable accuracy and speed.", "description_zh": "", "downloads": 410, "homepage": "https://clawhub.ai/raghulpasupathi/text-detection", "iconUrl": null, "installs": 8, "name": "Text Detection", "ownerName": "raghulpasupathi", "score": 5741.754573374283, "slug": "text-detection", "source": "clawhub", "stars": 1, "tags": null, "updated_at": 1776762615095, "version": "1.0.0"}, {"category": "content-creation", "created_at": 1772793907098, "description": "Pre-execution governance for high-risk agent actions. Uses persona-weighted consensus to decide ALLOW/BLOCK/REQUIRE_REWRITE before external or irreversible s...", "description_zh": "", "downloads": 410, "homepage": "https://clawhub.ai/kaicianflone/consensus-agent-action-guard", "iconUrl": null, "installs": 25, "name": "consensus-agent-action-guard", "ownerName": "kaicianflone", "score": 29927.007299270077, "slug": "consensus-agent-action-guard", "source": "clawhub", "stars": 0, "tags": null, "updated_at": 1776759083057, "version": "1.1.14"}, {"category": "", "created_at": 1774901177654, "description": "Use for creative writing, specifically novels blending urban daily life with science fiction elements. Specializes in Tomato Platform style - urban setting +...", "description_zh": "", "downloads": 410, "homepage": "https://clawhub.ai/feiquan123/novel-writers", "iconUrl": null, "installs": 115, "name": "novel-writer", "ownerName": "feiquan123", "score": 26265.214606021782, "slug": "novel-writers", "source": "clawhub", "stars": 0, "tags": null, "updated_at": 1776757582192, "version": "1.0.1"}, {"category": "security-compliance", "created_at": 1772787059876, "description": "Pharmaziegasse namespace for Netsnek e.U. pharmacy management platform. Prescription tracking, inventory, compliance, and staff coordination.", "description_zh": "", "downloads": 410, "homepage": "https://clawhub.ai/kleberbaum/pharmaziegasse", "iconUrl": null, "installs": 13, "name": "pharmaziegasse", "ownerName": "kleberbaum", "score": 72056.23901581722, "slug": "pharmaziegasse", "source": "clawhub", "stars": 0, "tags": null, "updated_at": 1776751183833, "version": "0.1.0"}, {"category": "productivity", "created_at": 1772786484353, "description": "Navigate Sydney as visitor, resident, tech worker, student, or entrepreneur with neighborhoods, beaches, transport, visas, and local insights.", "description_zh": "", "downloads": 410, "homepage": "https://clawhub.ai/ivangdavila/sydney", "iconUrl": null, "installs": 16, "name": "Sydney", "ownerName": "ivangdavila", "score": 71803.85288966725, "slug": "sydney", "source": "clawhub", "stars": 0, "tags": null, "updated_at": 1776748485581, "version": "1.0.0"}, {"category": "developer-tools", "created_at": 1772785566471, "description": "Navigate negotiations as a solopreneur — pricing, scope, terms, and contracts. Use when a prospect pushes back on price, wants to change scope, disputes term...", "description_zh": "", "downloads": 410, "homepage": "https://clawhub.ai/jk-0001/negotiation-2", "iconUrl": null, "installs": 4, "name": "Negotiation", "ownerName": "jk-0001", "score": 69846.67802385008, "slug": "negotiation-2", "source": "clawhub", "stars": 0, "tags": null, "updated_at": 1776748484730, "version": "0.1.0"}, {"category": "productivity", "created_at": 1772790307201, "description": "자동차/보험 정보 스킬. 10개 인텐트 라우팅(Car Tax Calc~Beginner Guide), 지방세법 기반 자동차세 계산 + 보험개발원 공시 + 중고차 시세 Flash+Deep-Dive 2겹 리포트. 트리거: \"자동차세\", \"차세금\", \"중고차\", \"자동차 보험\", \"보험료...", "description_zh": "", "downloads": 410, "homepage": "https://clawhub.ai/sw326/car-insurance", "iconUrl": null, "installs": 19, "name": "한국 자동차/보험 가이드", "ownerName": "sw326", "score": 97619.04761904762, "slug": "car-insurance", "source": "clawhub", "stars": 0, "tags": ["car", "insurance", "korea", "korean"], "updated_at": 1776748484661, "version": "1.0.0"}, {"category": "developer-tools", "created_at": 1772789588887, "description": "Persistent memory CLI for LLM agents. Store facts, recall past knowledge, link related memories, manage lifecycle.", "description_zh": "", "downloads": 410, "homepage": "https://clawhub.ai/grivn/mnemon", "iconUrl": null, "installs": 7, "name": "Mnemon Memory", "ownerName": "grivn", "score": 97619.04761904762, "slug": "mnemon", "source": "clawhub", "stars": 0, "tags": null, "updated_at": 1776748484647, "version": "0.1.2"}, {"category": "productivity", "created_at": 1772785863046, "description": "Transform rough research questions into executable USACF research prompts. Use when user says \"research\", \"research this\", \"investigate\", \"deep dive\", \"resea...", "description_zh": "", "downloads": 410, "homepage": "https://clawhub.ai/dorukardahan/research-reprompter", "iconUrl": null, "installs": 9, "name": "Research RePrompter", "ownerName": "dorukardahan", "score": 97619.04761904762, "slug": "research-reprompter", "source": "clawhub", "stars": 0, "tags": null, "updated_at": 1776748484603, "version": "1.0.0"}, {"category": "security-compliance", "created_at": 1772789703543, "description": "Create, validate, security-scan, and publish skills to ClawHub. Use when asked to \"make a skill\", \"publish a skill\", \"create a new skill\", \"scaffold a skill\"...", "description_zh": "", "downloads": 410, "homepage": "https://clawhub.ai/theashbhat/skillpub", "iconUrl": null, "installs": 7, "name": "Skill Publisher", "ownerName": "theashbhat", "score": 96244.13145539907, "slug": "skillpub", "source": "clawhub", "stars": 0, "tags": null, "updated_at": 1776748484588, "version": "1.0.0"}, {"category": "ai-intelligence", "created_at": 1772788090552, "description": "Production-ready decentralized search for AI agents. Privacy-first, uncensored web search via distributed node infrastructure.", "description_zh": "", "downloads": 410, "homepage": "https://clawhub.ai/nosytlabs/decentralized-search", "iconUrl": null, "installs": 19, "name": "presearch", "ownerName": "nosytlabs", "score": 88172.04301075269, "slug": "decentralized-search", "source": "clawhub", "stars": 0, "tags": null, "updated_at": 1776748484524, "version": "1.0.1"}]}