{"page": 206, "total_pages": 522, "total": 26073, "skills": [{"category": "ai-intelligence", "created_at": 1772796480130, "description": "Codified expertise for demand forecasting, safety stock optimisation, replenishment planning, and promotional lift estimation at multi-location retailers. In...", "description_zh": "", "downloads": 410, "homepage": "https://clawhub.ai/nocodemf/inventory-demand-planning", "iconUrl": null, "installs": 13, "name": "Inventory Demand Planning", "ownerName": "nocodemf", "score": 88172.04301075269, "slug": "inventory-demand-planning", "source": "clawhub", "stars": 0, "tags": null, "updated_at": 1776748484473, "version": "1.0.0"}, {"category": "security-compliance", "created_at": 1772791162886, "description": "Lighthouse-style efficiency audit for OpenClaw. Scores your instance A+ to F across 6 categories (context injection, cron health, session bloat, config, skil...", "description_zh": "", "downloads": 410, "homepage": "https://clawhub.ai/anna-claudette/clawzembic", "iconUrl": null, "installs": 9, "name": "Clawzempic", "ownerName": "anna-claudette", "score": 88172.04301075269, "slug": "clawzembic", "source": "clawhub", "stars": 0, "tags": null, "updated_at": 1776748484468, "version": "1.0.0"}, {"category": "security-compliance", "created_at": 1772796269358, "description": "Check Ravi auth status and get your agent identity (email, phone, owner name). Do NOT use for reading messages (use ravi-inbox), sending email (use ravi-emai...", "description_zh": "", "downloads": 410, "homepage": "https://clawhub.ai/raunaksingwi/ravi-identity", "iconUrl": null, "installs": 9, "name": "Ravi identity", "ownerName": "raunaksingwi", "score": 86680.76109936576, "slug": "ravi-identity", "source": "clawhub", "stars": 0, "tags": null, "updated_at": 1776748484226, "version": "1.7.1"}, {"category": "content-creation", "created_at": 1772793882411, "description": "Text-to-speech with Qwen3-TTS VoiceDesign. Design custom voices via natural language descriptions + seed-based timbre fixation. Includes OpenAI-compatible AP...", "description_zh": "", "downloads": 410, "homepage": "https://clawhub.ai/xiaoyaner0201/qwen3-tts-voicedesign", "iconUrl": null, "installs": 47, "name": "Qwen3-TTS VoiceDesign", "ownerName": "xiaoyaner0201", "score": 93821.51029748283, "slug": "qwen3-tts-voicedesign", "source": "clawhub", "stars": 0, "tags": null, "updated_at": 1776748483950, "version": "1.0.0"}, {"category": "developer-tools", "created_at": 1773061143914, "description": "Plan and organize software development tasks effectively. Use when breaking down features, creating user stories, or planning sprints. Handles task breakdown...", "description_zh": "", "downloads": 410, "homepage": "https://clawhub.ai/yumoezhung/task-planning", "iconUrl": null, "installs": 33, "name": "Task Planning", "ownerName": "yumoezhung", "score": 91722.59507829977, "slug": "task-planning", "source": "clawhub", "stars": 0, "tags": null, "updated_at": 1776748483847, "version": "1.0.0"}, {"category": "security-compliance", "created_at": 1772790487111, "description": "AI Compliance Readiness Assessment — evaluate how prepared an organization is for AI governance regulations (EU AI Act, NIST AI RMF, HHS mandates, state bar...", "description_zh": "", "downloads": 409, "homepage": "https://clawhub.ai/1kalin/compliance-readiness", "iconUrl": null, "installs": 28, "name": "AI Compliance Readiness Assessment", "ownerName": "1kalin", "score": 100000, "slug": "compliance-readiness", "source": "clawhub", "stars": 2, "tags": null, "updated_at": 1776751969910, "version": "1.0.0"}, {"category": "developer-tools", "created_at": 1772796461676, "description": "Play blackjack — a multiplayer card game where AI agents compete at live casino tables. Place bets, play your cards, and climb the leaderboard. The first ent...", "description_zh": "", "downloads": 409, "homepage": "https://clawhub.ai/stainlu/blackjack", "iconUrl": null, "installs": 9, "name": "blackjack", "ownerName": "stainlu", "score": 13794.212218649518, "slug": "blackjack", "source": "clawhub", "stars": 1, "tags": null, "updated_at": 1776765890686, "version": "0.3.1"}, {"category": "content-creation", "created_at": 1773287125956, "description": "Generate and edit AI images and videos with Media.io OpenAPI. Supports text-to-image, image-to-image, text-to-video, and image-to-video, plus task status and...", "description_zh": "", "downloads": 409, "homepage": "https://clawhub.ai/wondershare-boop/mediaio-aigc-generate", "iconUrl": null, "installs": 30, "name": "Media.io AI Image & Video Generation API", "ownerName": "wondershare-boop", "score": 92258.06451612903, "slug": "mediaio-aigc-generate", "source": "clawhub", "stars": 1, "tags": null, "updated_at": 1776748484441, "version": "1.0.14"}, {"category": "content-creation", "created_at": 1773081982729, "description": "Generate platform-optimized social media copy for product launches. One input, 14 platform outputs (Twitter/X, LinkedIn, Hacker News, Reddit, Xiaohongshu, Ji...", "description_zh": "", "downloads": 409, "homepage": "https://clawhub.ai/dongsheng123132/social-copy-generator", "iconUrl": null, "installs": 130, "name": "Social Copy Generator", "ownerName": "dongsheng123132", "score": 4083.058800039932, "slug": "social-copy-generator", "source": "clawhub", "stars": 0, "tags": ["copywriting", "linkedin", "marketing", "reddit", "social-media", "twitter", "wechat", "xiaohongshu"], "updated_at": 1776764690630, "version": "2.0.0"}, {"category": "developer-tools", "created_at": 1772792412940, "description": "Complete Amazon FBA product research pipeline using the LaunchFast MCP. Runs product research, IP checks, supplier sourcing, and PPC keyword research in sequ...", "description_zh": "", "downloads": 409, "homepage": "https://clawhub.ai/blockchainhb/launchfast-full-research-loop", "iconUrl": null, "installs": 31, "name": "LaunchFast Full Research Loop", "ownerName": "blockchainhb", "score": 8377.714051618188, "slug": "launchfast-full-research-loop", "source": "clawhub", "stars": 0, "tags": ["amazon", "fba", "launchfast", "report", "research"], "updated_at": 1776763450231, "version": "1.0.0"}, {"category": "communication-collaboration", "created_at": 1773073813382, "description": "Discord Bot API integration — manage servers, channels, messages, roles, members, and webhooks via the Discord REST API. Send messages, manage server setting...", "description_zh": "", "downloads": 409, "homepage": "https://clawhub.ai/aiwithabidi/discord-bot", "iconUrl": null, "installs": 22, "name": "Discord Bot", "ownerName": "aiwithabidi", "score": 10557.563242127, "slug": "discord-bot", "source": "clawhub", "stars": 0, "tags": null, "updated_at": 1776762850652, "version": "1.0.0"}, {"category": "data-analysis", "created_at": 1772795878099, "description": "XClaw Intelligence Skill. Provides real-time trending tweets, KOL deep analysis, live user crawling, profile history, and social relation tracking.", "description_zh": "", "downloads": 409, "homepage": "https://clawhub.ai/mookim-eth/xclaw-skill", "iconUrl": null, "installs": 4, "name": "xclaw-skill", "ownerName": "mookim-eth", "score": 14981.68498168498, "slug": "xclaw-skill", "source": "clawhub", "stars": 0, "tags": null, "updated_at": 1776762482265, "version": "1.1.3"}, {"category": "data-analysis", "created_at": 1772791993743, "description": "Continuously captures and summarizes ambient conversations to build a local knowledge graph for context-aware assistance without explicit commands.", "description_zh": "", "downloads": 409, "homepage": "https://clawhub.ai/jarvis563/percept-ambient", "iconUrl": null, "installs": 13, "name": "Percept Ambient", "ownerName": "jarvis563", "score": 29767.103347889373, "slug": "percept-ambient", "source": "clawhub", "stars": 0, "tags": null, "updated_at": 1776759083638, "version": "1.0.0"}, {"category": "developer-tools", "created_at": 1772790963139, "description": "Monitors, classifies, intercepts errors in real-time, enforces auto-retry and circuit breaking, and ensures graceful recovery and prevention.", "description_zh": "", "downloads": 409, "homepage": "https://clawhub.ai/lidekahdjdhdhsjjs-lang/hz-error-guard", "iconUrl": null, "installs": 4, "name": "Huizai Error Guard", "ownerName": "lidekahdjdhdhsjjs-lang", "score": 29919.53182150695, "slug": "hz-error-guard", "source": "clawhub", "stars": 0, "tags": ["autofix", "error", "openclaw", "recovery"], "updated_at": 1776759083494, "version": "1.0.0"}, {"category": "productivity", "created_at": 1772790205110, "description": "Search grocery products, find store locations, add items to cart, and view profile across all Kroger-family stores — Kroger, Ralphs, Fred Meyer, Harris Teete...", "description_zh": "", "downloads": 409, "homepage": "https://clawhub.ai/niemesrw/supermarket", "iconUrl": null, "installs": 20, "name": "Supermarket", "ownerName": "niemesrw", "score": 29745.454545454548, "slug": "supermarket", "source": "clawhub", "stars": 0, "tags": ["fred-meyer", "frys", "grocery", "harris-teeter", "king-soopers", "kroger", "ralphs"], "updated_at": 1776759083387, "version": "1.1.0"}, {"category": "developer-tools", "created_at": 1772793809484, "description": "Render Aavegotchi assets by deriving renderer hashes from Goldsky Base core data and calling POST /api/renderer/batch on www.aavegotchi.com. Use when the use...", "description_zh": "", "downloads": 409, "homepage": "https://clawhub.ai/cinnabarhorse/aavegotchi-3d-renderer", "iconUrl": null, "installs": 24, "name": "Aavegotchi 3D Renderer", "ownerName": "cinnabarhorse", "score": 29963.36996336996, "slug": "aavegotchi-3d-renderer", "source": "clawhub", "stars": 0, "tags": null, "updated_at": 1776759082768, "version": "0.1.2"}, {"category": "content-creation", "created_at": 1773430526989, "description": "Write film reviews, get recommendations, and manage watchlists with spoiler control. Use when drafting reviews, getting recs, comparing films side by side.", "description_zh": "", "downloads": 409, "homepage": "https://clawhub.ai/bytesagain3/movie-review", "iconUrl": null, "installs": 20, "name": "Movie Review", "ownerName": "bytesagain3", "score": 25061.274509803923, "slug": "movie-review", "source": "clawhub", "stars": 0, "tags": ["productivity"], "updated_at": 1776756982324, "version": "2.0.1"}, {"category": "data-analysis", "created_at": 1773075821895, "description": "A self-evolution engine for AI agents. Analyzes runtime history to identify improvements and applies protocol-constrained evolution.", "description_zh": "", "downloads": 409, "homepage": "https://clawhub.ai/wuzimaki/evolver-repo", "iconUrl": null, "installs": 32, "name": "Evolver Repo", "ownerName": "wuzimaki", "score": 12785.24538918412, "slug": "evolver-repo", "source": "clawhub", "stars": 0, "tags": null, "updated_at": 1776750044417, "version": "1.0.0"}, {"category": "ai-intelligence", "created_at": 1772785244216, "description": "Transcribe audio to text using Venice AI's Whisper-based speech recognition. Supports WAV, MP3, FLAC, M4A, AAC formats with optional timestamps.", "description_zh": "", "downloads": 409, "homepage": "https://clawhub.ai/sabrinaaquino/venice-transcribe", "iconUrl": null, "installs": 21, "name": "Venice Transcribe", "ownerName": "sabrinaaquino", "score": 71628.72154115587, "slug": "venice-transcribe", "source": "clawhub", "stars": 0, "tags": null, "updated_at": 1776748485686, "version": "1.0.1"}, {"category": "security-compliance", "created_at": 1772791164523, "description": "Helps verify that skill updates publish an auditable record of what changed — catching the gap between \"the registry shows the new version\" and \"anyone can s...", "description_zh": "", "downloads": 409, "homepage": "https://clawhub.ai/andyxinweiminicloud/delta-disclosure-auditor", "iconUrl": null, "installs": 12, "name": "Delta Disclosure Auditor", "ownerName": "andyxinweiminicloud", "score": 71378.70855148342, "slug": "delta-disclosure-auditor", "source": "clawhub", "stars": 0, "tags": null, "updated_at": 1776748485115, "version": "1.1.0"}, {"category": "productivity", "created_at": 1772787945679, "description": "Paper and live perpetual futures trading on Hyperliquid. Smart leverage (1x/3x/5x based on signal strength), OBV divergence, auto-stop-loss. Use for Hyperliq...", "description_zh": "", "downloads": 409, "homepage": "https://clawhub.ai/jamierossouw/hyperliquid-perps", "iconUrl": null, "installs": 6, "name": "Hyperliquid Perps", "ownerName": "jamierossouw", "score": 94675.92592592593, "slug": "hyperliquid-perps", "source": "clawhub", "stars": 0, "tags": null, "updated_at": 1776748484387, "version": "1.0.0"}, {"category": "ai-intelligence", "created_at": 1772787686236, "description": "List and search WhatsApp Business labels/tags", "description_zh": "", "downloads": 409, "homepage": "https://clawhub.ai/marcosrippel/whatsapp-labels", "iconUrl": null, "installs": 21, "name": "WhatsApp Labels", "ownerName": "marcosrippel", "score": 93592.67734553776, "slug": "whatsapp-labels", "source": "clawhub", "stars": 0, "tags": ["baileys", "business", "labels", "offline", "tags", "whatsapp"], "updated_at": 1776748483930, "version": "1.0.0"}, {"category": "productivity", "created_at": 1773067211254, "description": "B2B SaaS Growth Playbook — Product-Led Growth (PLG) & Sales-Led Growth (SLG) strategies. Complete guide from PMF validation to $10M ARR. Real case studies: H...", "description_zh": "", "downloads": 409, "homepage": "https://clawhub.ai/gingiris/gingiris-b2b-growth", "iconUrl": null, "installs": 19, "name": "Gingiris B2b Growth", "ownerName": "gingiris", "score": 97380.95238095238, "slug": "gingiris-b2b-growth", "source": "clawhub", "stars": 0, "tags": null, "updated_at": 1776748483753, "version": "2.0.0"}, {"category": "content-creation", "created_at": 1772793386757, "description": "Write and publish SEO-optimized monetizable articles for Medium Partner Program, targeting specific audiences and submitting to popular publications.", "description_zh": "", "downloads": 408, "homepage": "https://clawhub.ai/devhoangkien/medium-writer", "iconUrl": null, "installs": 32, "name": "Medium Writer", "ownerName": "devhoangkien", "score": 35490.90909090909, "slug": "medium-writer", "source": "clawhub", "stars": 4, "tags": null, "updated_at": 1776759082240, "version": "1.0.2"}, {"category": "content-creation", "created_at": 1773287201236, "description": "Use when converting a video clip into a GIF with ffmpeg. Supports trimming by start time and duration, controlling frame rate and width, and returning the ou...", "description_zh": "", "downloads": 408, "homepage": "https://clawhub.ai/sallyxie2026/video-to-gif", "iconUrl": null, "installs": 36, "name": "Video to GIF", "ownerName": "sallyxie2026", "score": 22838.847385272147, "slug": "video-to-gif", "source": "clawhub", "stars": 1, "tags": null, "updated_at": 1776764650745, "version": "1.0.0"}, {"category": "ai-intelligence", "created_at": 1772796924488, "description": "Generate and deliver a Hacker News daily report (Top-N) with article summaries and multi-view comment synthesis, in user-selected language, with optional fil...", "description_zh": "", "downloads": 408, "homepage": "https://clawhub.ai/liu7yong/hn-daily-brief", "iconUrl": null, "installs": 13, "name": "HN Daily Brief", "ownerName": "liu7yong", "score": 90486.2579281184, "slug": "hn-daily-brief", "source": "clawhub", "stars": 1, "tags": null, "updated_at": 1776748484169, "version": "0.8.2"}, {"category": "content-creation", "created_at": 1774619522341, "description": "Guides the agent (e.g. OpenClaw) to use https://www.productivity.design (ProductivityHub) for productivity tools, time management, goal tracking, focus, and...", "description_zh": "", "downloads": 408, "homepage": "https://clawhub.ai/ygeoffreycissiezvz/productivity-design", "iconUrl": null, "installs": 20, "name": "productivity-design", "ownerName": "ygeoffreycissiezvz", "score": 9440.074039796391, "slug": "productivity-design", "source": "clawhub", "stars": 0, "tags": null, "updated_at": 1776764050637, "version": "1.0.0"}, {"category": "productivity", "created_at": 1772794865732, "description": "Automate Linear.app workflows in the OpenClaw-managed browser profile using browser tool actions (open, navigate, snapshot, act). Use when users want UI-base...", "description_zh": "", "downloads": 408, "homepage": "https://clawhub.ai/hassam-powerhouse/linear-browser-automation", "iconUrl": null, "installs": 25, "name": "Linear Browser Automation", "ownerName": "hassam-powerhouse", "score": 7475.265665078784, "slug": "linear-browser-automation", "source": "clawhub", "stars": 0, "tags": null, "updated_at": 1776763149921, "version": "1.0.0"}, {"category": "data-analysis", "created_at": 1772790969495, "description": "Options flow analysis, unusual activity detection, and options strategy evaluation for equities and ETFs", "description_zh": "", "downloads": 408, "homepage": "https://clawhub.ai/optionshawk24/optionshawk", "iconUrl": null, "installs": 17, "name": "OptionsHawk", "ownerName": "optionshawk24", "score": 72212.38938053098, "slug": "optionshawk", "source": "clawhub", "stars": 0, "tags": null, "updated_at": 1776759083623, "version": "0.0.1"}, {"category": "security-compliance", "created_at": 1773289495840, "description": "Audit Shopify tracking across UTM, pixel, CAPI, and checkout events to identify attribution leaks causing inconsistent ROAS and conversion data.", "description_zh": "", "downloads": 408, "homepage": "https://clawhub.ai/leooooooow/shopify-tracking-auditor", "iconUrl": null, "installs": 19, "name": "Shopify Tracking Auditor", "ownerName": "leooooooow", "score": 29890.10989010989, "slug": "shopify-tracking-auditor", "source": "clawhub", "stars": 0, "tags": null, "updated_at": 1776759082785, "version": "1.0.0"}, {"category": "developer-tools", "created_at": 1772788810475, "description": "Swiss-army knife for JSON files. Pretty-print, validate, minify, sort keys, and query with dot-notation paths. Zero dependencies.", "description_zh": "", "downloads": 408, "homepage": "https://clawhub.ai/claudiodrusus/json-toolkit", "iconUrl": null, "installs": 5, "name": "JSON Toolkit", "ownerName": "claudiodrusus", "score": 82092.55533199196, "slug": "json-toolkit", "source": "clawhub", "stars": 0, "tags": null, "updated_at": 1776755627239, "version": "1.1.0"}, {"category": "content-creation", "created_at": 1772797677797, "description": "Generate PNG/SVG images from Mermaid diagram syntax using mermaid.ink API. Zero dependencies - uses only Node.js built-in modules and curl. Use when users ne...", "description_zh": "", "downloads": 408, "homepage": "https://clawhub.ai/vincent-ng/mermaid-image-generator", "iconUrl": null, "installs": 31, "name": "Mermaid Image Generator", "ownerName": "vincent-ng", "score": 71453.59019264448, "slug": "mermaid-image-generator", "source": "clawhub", "stars": 0, "tags": null, "updated_at": 1776748485677, "version": "1.0.0"}, {"category": "security-compliance", "created_at": 1772790137372, "description": "Build a LinkedIn content system for thought leadership. Use when someone needs to establish authority, attract inbound leads, or build a consistent content p...", "description_zh": "", "downloads": 408, "homepage": "https://clawhub.ai/rezcarbon/brw-linkedin-authority-builder-1-0-0", "iconUrl": null, "installs": 9, "name": "Brw Linkedin Authority Builder 1.0.0", "ownerName": "rezcarbon", "score": 71453.59019264448, "slug": "brw-linkedin-authority-builder-1-0-0", "source": "clawhub", "stars": 0, "tags": null, "updated_at": 1776748485536, "version": "1.0.0"}, {"category": "security-compliance", "created_at": 1772790270816, "description": "Greek social security (EFKA) integration — employee records, contribution calculations, APD declarations. Human approval for submissions.", "description_zh": "", "downloads": 408, "homepage": "https://clawhub.ai/satoshistackalotto/efka-api-integration", "iconUrl": null, "installs": 4, "name": "Efka Api Integration", "ownerName": "satoshistackalotto", "score": 90465.63192904656, "slug": "efka-api-integration", "source": "clawhub", "stars": 0, "tags": null, "updated_at": 1776748485410, "version": "0.1.0"}, {"category": "ai-intelligence", "created_at": 1772789134131, "description": "AI-powered minimal diary with smart auto-tagging and optional cloud sync. Perfect for daily journaling, work logs, or project tracking.", "description_zh": "", "downloads": 408, "homepage": "https://clawhub.ai/printxdreams/mini-diary", "iconUrl": null, "installs": 16, "name": "Mini Diary", "ownerName": "printxdreams", "score": 90465.63192904656, "slug": "mini-diary", "source": "clawhub", "stars": 0, "tags": ["diary journal productivity ai markdown"], "updated_at": 1776748485399, "version": "0.1.2"}, {"category": "security-compliance", "created_at": 1772790270816, "description": "Greek social security (EFKA) integration — employee records, contribution calculations, APD declarations. Human approval for submissions.", "description_zh": "", "downloads": 408, "homepage": "https://clawhub.ai/satoshistackalotto/efka-api-integration", "iconUrl": null, "installs": 4, "name": "Efka Api Integration", "ownerName": "satoshistackalotto", "score": 90465.63192904656, "slug": "efka-api-integration", "source": "clawhub", "stars": 0, "tags": null, "updated_at": 1776748485410, "version": "0.1.0"}, {"category": "ai-intelligence", "created_at": 1772789134131, "description": "AI-powered minimal diary with smart auto-tagging and optional cloud sync. Perfect for daily journaling, work logs, or project tracking.", "description_zh": "", "downloads": 408, "homepage": "https://clawhub.ai/printxdreams/mini-diary", "iconUrl": null, "installs": 16, "name": "Mini Diary", "ownerName": "printxdreams", "score": 90465.63192904656, "slug": "mini-diary", "source": "clawhub", "stars": 0, "tags": ["diary journal productivity ai markdown"], "updated_at": 1776748485399, "version": "0.1.2"}, {"category": "security-compliance", "created_at": 1772787123696, "description": "Check any MCP server or AI tool against the Credence trust registry before installing it. Scores security, provenance, and behavioral risk on a 0-100 scale.", "description_zh": "", "downloads": 408, "homepage": "https://clawhub.ai/pestafford/credence", "iconUrl": null, "installs": 12, "name": "Credence", "ownerName": "pestafford", "score": 97142.85714285714, "slug": "credence", "source": "clawhub", "stars": 0, "tags": null, "updated_at": 1776748483673, "version": "1.0.0"}, {"category": "productivity", "created_at": 1772786872197, "description": "Find and connect with professionals, experts, freelancers, and business contacts. Search people by role, skill, location, or intent. Send introductions and m...", "description_zh": "", "downloads": 407, "homepage": "https://clawhub.ai/yoannarz/nod", "iconUrl": null, "installs": 17, "name": "Nod", "ownerName": "yoannarz", "score": 100000, "slug": "nod", "source": "clawhub", "stars": 2, "tags": null, "updated_at": 1776748484136, "version": "1.0.0"}, {"category": "developer-tools", "created_at": 1772790976949, "description": "Google Workspace CLI for Gmail, Calendar, and Drive. Official Google APIs wrapper for secure, direct API access without third-party proxies. Use when managin...", "description_zh": "", "downloads": 407, "homepage": "https://clawhub.ai/jfab68/praxis-gws", "iconUrl": null, "installs": 16, "name": "Praxis Google Workspace", "ownerName": "jfab68", "score": 11743.674367436743, "slug": "praxis-gws", "source": "clawhub", "stars": 1, "tags": null, "updated_at": 1776760980281, "version": "1.0.0"}, {"category": "data-analysis", "created_at": 1773821400622, "description": "Look up pool player ratings and handicap data from FargoRate. Use when the user asks about a pool player's rating, FargoRate ID, match odds, race-to recommen...", "description_zh": "", "downloads": 407, "homepage": "https://clawhub.ai/rgstephens/fargo", "iconUrl": null, "installs": 2, "name": "FargoRate", "ownerName": "rgstephens", "score": 76523.29749103943, "slug": "fargo", "source": "clawhub", "stars": 1, "tags": ["billiards", "fargorate", "handicap", "pool", "ratings"], "updated_at": 1776748484318, "version": "0.4.0"}, {"category": "productivity", "created_at": 1772799539236, "description": "Plan, budget, and manage home renovation projects including contractor coordination, timeline tracking, and cost estimation.", "description_zh": "", "downloads": 407, "homepage": "https://clawhub.ai/ivangdavila/home-renovation", "iconUrl": null, "installs": 44, "name": "Home Renovation", "ownerName": "ivangdavila", "score": 38001.86741363212, "slug": "home-renovation", "source": "clawhub", "stars": 0, "tags": null, "updated_at": 1776769190488, "version": "1.0.1"}, {"category": "data-analysis", "created_at": 1772791142361, "description": "Analyzes git commit history to report commit frequency, top contributors, file changes, and commit message quality for development insights.", "description_zh": "", "downloads": 407, "homepage": "https://clawhub.ai/ryudi84/sovereign-git-commit-analyzer", "iconUrl": null, "installs": 9, "name": "Sovereign git-commit-analyzer", "ownerName": "ryudi84", "score": 74405.85009140767, "slug": "sovereign-git-commit-analyzer", "source": "clawhub", "stars": 0, "tags": ["automation", "developer", "productivity"], "updated_at": 1776759083165, "version": "1.0.0"}, {"category": "communication-collaboration", "created_at": 1772788874185, "description": "Enrich any person by email, phone, LinkedIn URL, or name using the Nyne Enrichment API. Returns contact info, social profiles, work history, education, and o...", "description_zh": "", "downloads": 407, "homepage": "https://clawhub.ai/michaelfanous2/nyne-enrichment", "iconUrl": null, "installs": 20, "name": "Nyne Enrichment", "ownerName": "michaelfanous2", "score": 71278.4588441331, "slug": "nyne-enrichment", "source": "clawhub", "stars": 0, "tags": null, "updated_at": 1776748485645, "version": "1.0.0"}, {"category": "data-analysis", "created_at": 1772789428208, "description": "Cross-reference GitHub PRs and issues to find duplicates and missing links. Spawns parallel Sonnet subagents to semantically analyze the last N PRs and issue...", "description_zh": "", "downloads": 407, "homepage": "https://clawhub.ai/glucksberg/cross-ref", "iconUrl": null, "installs": 9, "name": "cross-ref", "ownerName": "glucksberg", "score": 86046.51162790698, "slug": "cross-ref", "source": "clawhub", "stars": 0, "tags": null, "updated_at": 1776748484258, "version": "1.1.0"}, {"category": "content-creation", "created_at": 1772791505279, "description": "Generate a full week of social media content for any topic. Outputs platform-optimized posts for Twitter/X, LinkedIn, and Instagram with hashtags and posting...", "description_zh": "", "downloads": 407, "homepage": "https://clawhub.ai/claudiodrusus/weekly-content-planner", "iconUrl": null, "installs": 34, "name": "Weekly Content Planner", "ownerName": "claudiodrusus", "score": 86046.51162790698, "slug": "weekly-content-planner", "source": "clawhub", "stars": 0, "tags": null, "updated_at": 1776748484182, "version": "1.0.0"}, {"category": "developer-tools", "created_at": 1772786753787, "description": "Look up word etymology, historical sound changes, language family trees, and word evolution through the dr.eamer.dev etymology and diachronic linguistics API...", "description_zh": "", "downloads": 407, "homepage": "https://clawhub.ai/lukeslp/geepers-etymology", "iconUrl": null, "installs": 6, "name": "Geepers Etymology", "ownerName": "lukeslp", "score": 79337.23196881091, "slug": "geepers-etymology", "source": "clawhub", "stars": 0, "tags": null, "updated_at": 1776748484014, "version": "1.0.0"}, {"category": "ai-intelligence", "created_at": 1773041534987, "description": "Secure autonomous token swaps on Base Mainnet via a Gnosis Safe using MEV-protected CoW Protocol, with token approval, ETH wrapping, scam detection, and uniq...", "description_zh": "", "downloads": 406, "homepage": "https://clawhub.ai/0xardi/clawlett", "iconUrl": null, "installs": 15, "name": "Clawlett", "ownerName": "0xardi", "score": 76109.21501706485, "slug": "clawlett", "source": "clawhub", "stars": 2, "tags": null, "updated_at": 1776759083441, "version": "0.4.1"}, {"category": "developer-tools", "created_at": 1773076870551, "description": "Automated Emergency Geopolitical Intelligence System — real-time threat monitoring and safety alerts for civilians in conflict zones. Use when: (1) setting u...", "description_zh": "", "downloads": 406, "homepage": "https://clawhub.ai/pleasechooseusername/aegis", "iconUrl": null, "installs": 7, "name": "AEGIS", "ownerName": "pleasechooseusername", "score": 12995.729103111653, "slug": "aegis", "source": "clawhub", "stars": 1, "tags": null, "updated_at": 1776765971170, "version": "3.4.0"}, {"category": "developer-tools", "created_at": 1773041661559, "description": "API reference for CoinMarketCap cryptocurrency endpoints including quotes, listings, OHLCV, trending, and categories. Use this skill whenever the user mentio...", "description_zh": "", "downloads": 406, "homepage": "https://clawhub.ai/bryan-cmc/cmc-api-crypto", "iconUrl": null, "installs": 9, "name": "CoinMarketCap Crypto APIs", "ownerName": "bryan-cmc", "score": 76344.08602150537, "slug": "cmc-api-crypto", "source": "clawhub", "stars": 1, "tags": null, "updated_at": 1776748484294, "version": "1.0.3"}]}