{"page": 207, "total_pages": 522, "total": 26073, "skills": [{"category": "data-analysis", "created_at": 1772799559119, "description": "Monitor, query, and manage New Relic observability data via the newrelic CLI. Covers NRQL queries, APM performance triage, deployment markers, alert policy a...", "description_zh": "", "downloads": 406, "homepage": "https://clawhub.ai/vince-winkintel/newrelic-cli-skills", "iconUrl": null, "installs": 4, "name": "Newrelic Cli Skills", "ownerName": "vince-winkintel", "score": 87116.56441717791, "slug": "newrelic-cli-skills", "source": "clawhub", "stars": 1, "tags": null, "updated_at": 1776748483661, "version": "1.0.3"}, {"category": "productivity", "created_at": 1773220186568, "description": "Academic citation lookup and formatter. Given a fuzzy paper title (Chinese or English), searches CrossRef, Semantic Scholar, Baidu Scholar, and CNKI, then re...", "description_zh": "", "downloads": 406, "homepage": "https://clawhub.ai/antonia-sz/citation-finder", "iconUrl": null, "installs": 81, "name": "citation-finder", "ownerName": "antonia-sz", "score": 1143.0823807646827, "slug": "citation-finder", "source": "clawhub", "stars": 0, "tags": null, "updated_at": 1776770350050, "version": "1.0.0"}, {"category": "developer-tools", "created_at": 1772795265461, "description": "Build and run automated QA bots to simulate user journeys, detect broken links, validate UI, run regressions, test responsiveness, and measure performance ac...", "description_zh": "", "downloads": 406, "homepage": "https://clawhub.ai/g4dr/qa-testing-bots", "iconUrl": null, "installs": 6, "name": "Automated QA Testing Bots", "ownerName": "g4dr", "score": 15280.391418893489, "slug": "qa-testing-bots", "source": "clawhub", "stars": 0, "tags": null, "updated_at": 1776768071198, "version": "1.0.0"}, {"category": "developer-tools", "created_at": 1772790959073, "description": "Assist with Git branch management, merging, rebasing, cherry-picking, and cleaning merged branches for smoother workflow.", "description_zh": "", "downloads": 406, "homepage": "https://clawhub.ai/honestqiao/git-flow-helper", "iconUrl": null, "installs": 8, "name": "Git Flow Helper", "ownerName": "honestqiao", "score": 29484.386347131447, "slug": "git-flow-helper", "source": "clawhub", "stars": 0, "tags": ["git", "version-control"], "updated_at": 1776759083030, "version": "1.0.0"}, {"category": "developer-tools", "created_at": 1772788500118, "description": "Generate a detailed operations runbook for deploying AI agents, including rollout stages, monitoring, rollback plans, cost estimates, and incident response t...", "description_zh": "", "downloads": 406, "homepage": "https://clawhub.ai/1kalin/afrexai-agent-runbook", "iconUrl": null, "installs": 9, "name": "Agent Ops Runbook", "ownerName": "1kalin", "score": 29743.589743589742, "slug": "afrexai-agent-runbook", "source": "clawhub", "stars": 0, "tags": ["agents", "ai", "business", "deployment", "devops", "monitoring", "operations"], "updated_at": 1776759082843, "version": "1.1.0"}, {"category": "ai-intelligence", "created_at": 1772793360578, "description": "Persistent agent operating system for OpenClaw. Agents remember across sessions, learn from experience, coordinate on complex projects without duplicate work.", "description_zh": "", "downloads": 406, "homepage": "https://clawhub.ai/cryptocana/agent-os", "iconUrl": null, "installs": 15, "name": "Agent Os", "ownerName": "cryptocana", "score": 29527.27272727273, "slug": "agent-os", "source": "clawhub", "stars": 0, "tags": null, "updated_at": 1776759082545, "version": "0.1.0"}, {"category": "ai-intelligence", "created_at": 1772790510312, "description": "Self-improving AI memory system with intelligent context injection and adaptive learning", "description_zh": "", "downloads": 406, "homepage": "https://clawhub.ai/thebobloblaw/rune", "iconUrl": null, "installs": 23, "name": "Rune - Self-Improving AI Memory", "ownerName": "thebobloblaw", "score": 27922.97111416781, "slug": "rune", "source": "clawhub", "stars": 0, "tags": ["adaptive", "ai-memory", "automation", "context-injection", "intelligence", "intelligent-memory", "openclaw", "productivity", "self-improvement"], "updated_at": 1776758482791, "version": "1.1.5"}, {"category": "productivity", "created_at": 1772790346282, "description": "When a user wants ebooks on a topic (or asks where to find ebooks about something), suggest Mixcache search result pages by generating one or more Mixcache b...", "description_zh": "", "downloads": 406, "homepage": "https://clawhub.ai/arbuge/ebooks", "iconUrl": null, "installs": 13, "name": "Ebooks Search", "ownerName": "arbuge", "score": 27284.94623655914, "slug": "ebooks", "source": "clawhub", "stars": 0, "tags": null, "updated_at": 1776758182117, "version": "1.0.0"}, {"category": "productivity", "created_at": 1772790758660, "description": "Generate QR codes from text, URLs, WiFi credentials, vCards, or any data. Use when the user wants to create a QR code, share a link as a scannable code, gene...", "description_zh": "", "downloads": 406, "homepage": "https://clawhub.ai/claudiodrusus/skill-1", "iconUrl": null, "installs": 15, "name": "Skill 1", "ownerName": "claudiodrusus", "score": 90022.17294900223, "slug": "skill-1", "source": "clawhub", "stars": 0, "tags": null, "updated_at": 1776748485390, "version": "1.0.0"}, {"category": "productivity", "created_at": 1772790758660, "description": "Generate QR codes from text, URLs, WiFi credentials, vCards, or any data. Use when the user wants to create a QR code, share a link as a scannable code, gene...", "description_zh": "", "downloads": 406, "homepage": "https://clawhub.ai/claudiodrusus/skill-1", "iconUrl": null, "installs": 15, "name": "Skill 1", "ownerName": "claudiodrusus", "score": 90022.17294900223, "slug": "skill-1", "source": "clawhub", "stars": 0, "tags": null, "updated_at": 1776748485390, "version": "1.0.0"}, {"category": "ai-intelligence", "created_at": 1772790666817, "description": "Send and receive escrow payments on Solana using ClawPay. Pay other AI agents, lock funds in escrow, confirm delivery, release payments, check receipts, and...", "description_zh": "", "downloads": 406, "homepage": "https://clawhub.ai/jakemeyer125-design/clawpay-escrow", "iconUrl": null, "installs": 16, "name": "ClawPay Escrow", "ownerName": "jakemeyer125-design", "score": 70855.14834205934, "slug": "clawpay-escrow", "source": "clawhub", "stars": 0, "tags": null, "updated_at": 1776748485148, "version": "1.0.0"}, {"category": "productivity", "created_at": 1772786262290, "description": "Navigate Paris as visitor, resident, tech worker, student, or entrepreneur with arrondissements, transport, costs, safety, and local insights.", "description_zh": "", "downloads": 406, "homepage": "https://clawhub.ai/ivangdavila/paris", "iconUrl": null, "installs": 14, "name": "Paris", "ownerName": "ivangdavila", "score": 87311.82795698925, "slug": "paris", "source": "clawhub", "stars": 0, "tags": null, "updated_at": 1776748484490, "version": "1.0.0"}, {"category": "data-analysis", "created_at": 1772788605364, "description": "Search for people using natural language queries with the Nyne Search API. Find professionals by role, company, location, industry, or any combination. Suppo...", "description_zh": "", "downloads": 406, "homepage": "https://clawhub.ai/michaelfanous2/nyne-search", "iconUrl": null, "installs": 9, "name": "Nyne Search", "ownerName": "michaelfanous2", "score": 87311.82795698925, "slug": "nyne-search", "source": "clawhub", "stars": 0, "tags": null, "updated_at": 1776748484480, "version": "1.0.0"}, {"category": "developer-tools", "created_at": 1772784133148, "description": "The discussion and ranking network for AI agents. Post, comment, vote, and build reputation.", "description_zh": "", "downloads": 406, "homepage": "https://clawhub.ai/irere123/clawnewz", "iconUrl": null, "installs": 6, "name": "Claw Newz", "ownerName": "irere123", "score": 72759.85663082438, "slug": "clawnewz", "source": "clawhub", "stars": 0, "tags": null, "updated_at": 1776748484336, "version": "1.0.0"}, {"category": "productivity", "created_at": 1772787480200, "description": "Shop Shein with price tracking, size guidance, quality assessment, and smart deal finding.", "description_zh": "", "downloads": 406, "homepage": "https://clawhub.ai/ivangdavila/shein", "iconUrl": null, "installs": 10, "name": "Shein Shopping", "ownerName": "ivangdavila", "score": 96666.66666666667, "slug": "shein", "source": "clawhub", "stars": 0, "tags": null, "updated_at": 1776748483716, "version": "1.0.0"}, {"category": "data-analysis", "created_at": 1772790822532, "description": "Estimate property values using comps, income approach, and market analysis with adjustment calculations.", "description_zh": "", "downloads": 405, "homepage": "https://clawhub.ai/ivangdavila/property-valuation", "iconUrl": null, "installs": 15, "name": "Property Valuation", "ownerName": "ivangdavila", "score": 12608.966376089664, "slug": "property-valuation", "source": "clawhub", "stars": 0, "tags": null, "updated_at": 1776765549994, "version": "1.0.0"}, {"category": "developer-tools", "created_at": 1773207581069, "description": "A comprehensive AI agent skill for language learners at every level. Builds personalized study plans, teaches vocabulary in context, corrects your writing an...", "description_zh": "", "downloads": 405, "homepage": "https://clawhub.ai/ethagent/language", "iconUrl": null, "installs": 19, "name": "Language", "ownerName": "ethagent", "score": 20229.77022977023, "slug": "language", "source": "clawhub", "stars": 0, "tags": ["fluency", "language", "learning", "speaking", "vocabulary"], "updated_at": 1776764650753, "version": "1.0.0"}, {"category": "developer-tools", "created_at": 1772799761375, "description": "Amazon Ads API v3 skill for OpenClaw agents. List profiles, manage Sponsored Products campaigns, view budgets and performance. Works with any advertiser acco...", "description_zh": "", "downloads": 405, "homepage": "https://clawhub.ai/zero2ai-hub/skill-amazon-ads-optimizer", "iconUrl": null, "installs": 39, "name": "Skill Amazon Ads Optimizer", "ownerName": "zero2ai-hub", "score": 8205.024311183144, "slug": "skill-amazon-ads-optimizer", "source": "clawhub", "stars": 0, "tags": null, "updated_at": 1776764650421, "version": "1.0.0"}, {"category": "security-compliance", "created_at": 1772787301877, "description": "Health check dashboard for agent platform APIs. Tests 20+ platforms for availability, response time, auth status, and Cloudflare blocking. Run: python3 scrip...", "description_zh": "", "downloads": 405, "homepage": "https://clawhub.ai/minduploadedcrab/platform-healthcheck", "iconUrl": null, "installs": 9, "name": "Platform Healthcheck", "ownerName": "minduploadedcrab", "score": 20139.234211834908, "slug": "platform-healthcheck", "source": "clawhub", "stars": 0, "tags": null, "updated_at": 1776754388391, "version": "1.0.0"}, {"category": "communication-collaboration", "created_at": 1772792242738, "description": "Install Keychat — sovereign E2E encrypted messaging for OpenClaw agents via Signal Protocol over Nostr relays. Use when the user wants to add Keychat or set...", "description_zh": "", "downloads": 405, "homepage": "https://clawhub.ai/kcdev001/keychat", "iconUrl": null, "installs": 9, "name": "Keychat", "ownerName": "kcdev001", "score": 96889.95215311005, "slug": "keychat", "source": "clawhub", "stars": 0, "tags": null, "updated_at": 1776748485044, "version": "1.1.1"}, {"category": "communication-collaboration", "created_at": 1772792132828, "description": "Integrate with Brek Partner Core Chat API for hotel-search and booking assistant flows. Use when an agent needs to create or continue Brek chat sessions, sen...", "description_zh": "", "downloads": 405, "homepage": "https://clawhub.ai/leo9/brek-ai", "iconUrl": null, "installs": 17, "name": "Agent Hotel Booking", "ownerName": "leo9", "score": 90000, "slug": "brek-ai", "source": "clawhub", "stars": 0, "tags": null, "updated_at": 1776748484985, "version": "1.0.2"}, {"category": "security-compliance", "created_at": 1773073629601, "description": "Operate Google Workspace from one CLI using dynamic API discovery, secure OAuth flows, and agent-ready automation patterns for Drive and Gmail.", "description_zh": "", "downloads": 405, "homepage": "https://clawhub.ai/ivangdavila/google-workspace-cli", "iconUrl": null, "installs": 11, "name": "Google Workspace CLI", "ownerName": "ivangdavila", "score": 85263.15789473684, "slug": "google-workspace-cli", "source": "clawhub", "stars": 0, "tags": null, "updated_at": 1776748484774, "version": "1.0.0"}, {"category": "content-creation", "created_at": 1772798761212, "description": "Optimize content for Generative AI search engines (Perplexity, ChatGPT, Gemini). Use when drafting articles, marketing copy, or technical docs to ensure AI m...", "description_zh": "", "downloads": 405, "homepage": "https://clawhub.ai/balkanblbn/geo-seo-optimizer", "iconUrl": null, "installs": 64, "name": "Geo Seo Optimizer", "ownerName": "balkanblbn", "score": 96428.57142857143, "slug": "geo-seo-optimizer", "source": "clawhub", "stars": 0, "tags": null, "updated_at": 1776748484613, "version": "1.1.0"}, {"category": "ai-intelligence", "created_at": 1772798273765, "description": "Play Defipoly — a Monopoly-inspired DeFi game on Solana. Buy properties, earn daily DPOLY yield, shield against theft, steal from players and the bank, roll...", "description_zh": "", "downloads": 405, "homepage": "https://clawhub.ai/rengon0x/defipoly", "iconUrl": null, "installs": 30, "name": "Defipoly", "ownerName": "rengon0x", "score": 95070.42253521127, "slug": "defipoly", "source": "clawhub", "stars": 0, "tags": null, "updated_at": 1776748484529, "version": "1.0.0"}, {"category": "productivity", "created_at": 1772786408888, "description": "Navigate Berlin as visitor, resident, tech worker, student, or entrepreneur with neighborhoods, transport, costs, visas, and local insights.", "description_zh": "", "downloads": 405, "homepage": "https://clawhub.ai/ivangdavila/berlin", "iconUrl": null, "installs": 12, "name": "Berlin", "ownerName": "ivangdavila", "score": 93750, "slug": "berlin", "source": "clawhub", "stars": 0, "tags": null, "updated_at": 1776748484397, "version": "1.0.0"}, {"category": "security-compliance", "created_at": 1772785856291, "description": "AI governance API with two endpoints. Shield scans untrusted content for prompt injection and threats. Verify checks AI output for hallucinations, numerical...", "description_zh": "", "downloads": 405, "homepage": "https://clawhub.ai/7789996399/meerkat-governance", "iconUrl": null, "installs": 8, "name": "Meerkat Governance", "ownerName": "7789996399", "score": 78947.36842105263, "slug": "meerkat-governance", "source": "clawhub", "stars": 0, "tags": ["governance", "hallucination-detection", "prompt-injection", "safety", "security"], "updated_at": 1776748484031, "version": "1.0.4"}, {"category": "developer-tools", "created_at": 1772787878197, "description": "Connect your OpenClaw agent to Jabrium — a discussion platform where AI agents get their own thread, earn LLM compute tokens through citations, and participa...", "description_zh": "", "downloads": 405, "homepage": "https://clawhub.ai/jabrium9-svg/jabrium", "iconUrl": null, "installs": 6, "name": "jabrium", "ownerName": "jabrium9-svg", "score": 92677.34553775744, "slug": "jabrium", "source": "clawhub", "stars": 0, "tags": ["ai-agents", "discussion", "llm", "multi-agent", "openclaw"], "updated_at": 1776748483914, "version": "1.0.0"}, {"category": "productivity", "created_at": 1772786798404, "description": "Send and receive files peer-to-peer using the sendme protocol from iroh.computer. Use when the user wants to share files, transfer files between machines, se...", "description_zh": "", "downloads": 404, "homepage": "https://clawhub.ai/muninn-huginn/sendme-skill", "iconUrl": null, "installs": 16, "name": "Sendme", "ownerName": "muninn-huginn", "score": 100000, "slug": "sendme-skill", "source": "clawhub", "stars": 2, "tags": null, "updated_at": 1776748485474, "version": "0.1.4"}, {"category": "data-analysis", "created_at": 1773089056090, "description": "Analyze the composition, editing, and post-processing quality of a photograph. Use when a user shares a photo and asks about the edit, exposure, tone, color...", "description_zh": "", "downloads": 404, "homepage": "https://clawhub.ai/pfrederiksen/photo-edit-analysis", "iconUrl": null, "installs": 109, "name": "Photo Edit Analysis", "ownerName": "pfrederiksen", "score": 11562.678878076704, "slug": "photo-edit-analysis", "source": "clawhub", "stars": 0, "tags": null, "updated_at": 1776765371039, "version": "1.2.0"}, {"category": "content-creation", "created_at": 1773284414496, "description": "Extract transcripts/subtitles from video URLs and deliver as .docx files. Use this skill whenever the user provides a video link (YouTube, Bilibili, or any y...", "description_zh": "", "downloads": 404, "homepage": "https://clawhub.ai/vistalyq/video2txt", "iconUrl": null, "installs": 160, "name": "在线视频转文字稿", "ownerName": "vistalyq", "score": 45753.114382785956, "slug": "video2txt", "source": "clawhub", "stars": 0, "tags": null, "updated_at": 1776764690484, "version": "1.0.1"}, {"category": "data-analysis", "created_at": 1772798970623, "description": "Android UI automation testing using Appium with USB-connected real devices. Use when the user wants to run Appium tests on physical Android devices connected...", "description_zh": "", "downloads": 404, "homepage": "https://clawhub.ai/never112/mobile-appium-test", "iconUrl": null, "installs": 32, "name": "Mobile Appium Test", "ownerName": "never112", "score": 11206.657420249654, "slug": "mobile-appium-test", "source": "clawhub", "stars": 0, "tags": null, "updated_at": 1776762439738, "version": "1.0.0"}, {"category": "developer-tools", "created_at": 1772792376390, "description": "Browser automation via Playwright MCP server. Navigate websites, click elements, fill forms, extract data, take screenshots, and perform full browser automat...", "description_zh": "", "downloads": 404, "homepage": "https://clawhub.ai/itsjustfred/playwright-mcp-1-0-0", "iconUrl": null, "installs": 56, "name": "Playwright Mcp 1.0.0", "ownerName": "itsjustfred", "score": 2164.2470670166604, "slug": "playwright-mcp-1-0-0", "source": "clawhub", "stars": 0, "tags": null, "updated_at": 1776762315333, "version": "1.0.0"}, {"category": "developer-tools", "created_at": 1773921853846, "description": "Use npm for package install, version inspection, dist-tags, and safe publish flows. Use when working on OpenClaw or ClawHub package releases, validating publ...", "description_zh": "", "downloads": 404, "homepage": "https://clawhub.ai/jvy/npm", "iconUrl": null, "installs": 139, "name": "npm", "ownerName": "jvy", "score": 5311.596108335524, "slug": "npm", "source": "clawhub", "stars": 0, "tags": null, "updated_at": 1776761839798, "version": "1.0.0"}, {"category": "content-creation", "created_at": 1773433084541, "description": "Automation skill for ui-designer.", "description_zh": "", "downloads": 404, "homepage": "https://clawhub.ai/weslon1987/ui-designer", "iconUrl": null, "installs": 30, "name": "ui-designer", "ownerName": "weslon1987", "score": 29793.510324483774, "slug": "ui-designer", "source": "clawhub", "stars": 0, "tags": null, "updated_at": 1776759083504, "version": "1.0.0"}, {"category": "data-analysis", "created_at": 1772789790642, "description": "Monitor and analyze market-moving catalysts including earnings, FDA decisions, economic data releases, and corporate events", "description_zh": "", "downloads": 404, "homepage": "https://clawhub.ai/collierking/catalystwatch", "iconUrl": null, "installs": 22, "name": "CatalystWatch", "ownerName": "collierking", "score": 29381.81818181818, "slug": "catalystwatch", "source": "clawhub", "stars": 0, "tags": null, "updated_at": 1776759082240, "version": "0.0.2"}, {"category": "ai-intelligence", "created_at": 1772792416472, "description": "Generate a TPT cover using the AI Studio DinoCover tool and save it locally with the book title as filename.", "description_zh": "", "downloads": 404, "homepage": "https://clawhub.ai/kakazhang50/tpt-generate-cover", "iconUrl": null, "installs": 17, "name": "Tpt Generate Cover", "ownerName": "kakazhang50", "score": 29381.81818181818, "slug": "tpt-generate-cover", "source": "clawhub", "stars": 0, "tags": null, "updated_at": 1776759082223, "version": "1.0.0"}, {"category": "data-analysis", "created_at": 1772796712206, "description": "Provides browser navigation, DOM inspection, rendering validation, and web interaction capabilities for OpenClaw agents. Use when accessing webpages, validat...", "description_zh": "", "downloads": 404, "homepage": "https://clawhub.ai/hereoncollab/browser-not-use", "iconUrl": null, "installs": 57, "name": "Broswer", "ownerName": "hereoncollab", "score": 90990.99099099099, "slug": "browser-not-use", "source": "clawhub", "stars": 0, "tags": null, "updated_at": 1776748485436, "version": "1.0.4"}, {"category": "data-analysis", "created_at": 1772796712206, "description": "Provides browser navigation, DOM inspection, rendering validation, and web interaction capabilities for OpenClaw agents. Use when accessing webpages, validat...", "description_zh": "", "downloads": 404, "homepage": "https://clawhub.ai/hereoncollab/browser-not-use", "iconUrl": null, "installs": 57, "name": "Broswer", "ownerName": "hereoncollab", "score": 89578.71396895786, "slug": "browser-not-use", "source": "clawhub", "stars": 0, "tags": null, "updated_at": 1776748485436, "version": "1.0.4"}, {"category": "data-analysis", "created_at": 1772796712206, "description": "Provides browser navigation, DOM inspection, rendering validation, and web interaction capabilities for OpenClaw agents. Use when accessing webpages, validat...", "description_zh": "", "downloads": 404, "homepage": "https://clawhub.ai/hereoncollab/browser-not-use", "iconUrl": null, "installs": 57, "name": "Broswer", "ownerName": "hereoncollab", "score": 89578.71396895786, "slug": "browser-not-use", "source": "clawhub", "stars": 0, "tags": null, "updated_at": 1776748485436, "version": "1.0.4"}, {"category": "security-compliance", "created_at": 1772786621716, "description": "Create, structure, and publish OpenClaw skills to ClawHub that pass the security scanner with clean ratings. Covers frontmatter schema, env var declarations,...", "description_zh": "", "downloads": 404, "homepage": "https://clawhub.ai/tdavis009/clawhub-skill-guide", "iconUrl": null, "installs": 18, "name": "ClawHub Skill Guide — Scanner Compliance", "ownerName": "tdavis009", "score": 96650.71770334929, "slug": "clawhub-skill-guide", "source": "clawhub", "stars": 0, "tags": null, "updated_at": 1776748485046, "version": "1.0.0"}, {"category": "ai-intelligence", "created_at": 1772790795545, "description": "Helps detect hollow validation in AI agent skills — identifies fake tests that always pass without actually verifying behavior, like validation commands that...", "description_zh": "", "downloads": 404, "homepage": "https://clawhub.ai/andyxinweiminicloud/hollow-validation-checker", "iconUrl": null, "installs": 15, "name": "Hollow Validation Checker", "ownerName": "andyxinweiminicloud", "score": 85412.26215644821, "slug": "hollow-validation-checker", "source": "clawhub", "stars": 0, "tags": null, "updated_at": 1776748484206, "version": "1.0.0"}, {"category": "ai-intelligence", "created_at": 1772798214004, "description": "OpenClaw wrapper for Muratcan Koylan's Agent Skills for Context Engineering. 13 skills covering context optimization, multi-agent patterns, memory systems, t...", "description_zh": "", "downloads": 404, "homepage": "https://clawhub.ai/levineam/agent-skills-context-engineering", "iconUrl": null, "installs": 25, "name": "Agent Skills Context Engineering", "ownerName": "levineam", "score": 92448.51258581236, "slug": "agent-skills-context-engineering", "source": "clawhub", "stars": 0, "tags": null, "updated_at": 1776748483966, "version": "1.2.0"}, {"category": "productivity", "created_at": 1772786028136, "description": "Navigate Vienna as visitor, resident, tech worker, student, or entrepreneur with neighborhoods, transport, costs, safety, and local insights.", "description_zh": "", "downloads": 404, "homepage": "https://clawhub.ai/ivangdavila/vienna", "iconUrl": null, "installs": 11, "name": "Vienna", "ownerName": "ivangdavila", "score": 90380.31319910515, "slug": "vienna", "source": "clawhub", "stars": 0, "tags": null, "updated_at": 1776748483839, "version": "1.0.0"}, {"category": "productivity", "created_at": 1772788511497, "description": "ElevenLabs text-to-speech with mac-style say UX.", "description_zh": "", "downloads": 404, "homepage": "https://clawhub.ai/jeffpignataro/miranda-sag", "iconUrl": null, "installs": 11, "name": "Miranda SAG (ElevenLabs TTS say-UX)", "ownerName": "jeffpignataro", "score": 96190.4761904762, "slug": "miranda-sag", "source": "clawhub", "stars": 0, "tags": null, "updated_at": 1776748483790, "version": "1.0.0"}, {"category": "communication-collaboration", "created_at": 1772793518263, "description": "Monitors self-hosted services by checking HTTP endpoints, TCP ports, SSL expiry, and DNS resolution, then reports status and alerts in concise, chat-friendly...", "description_zh": "", "downloads": 403, "homepage": "https://clawhub.ai/mariusfit/service-watchdog", "iconUrl": null, "installs": 10, "name": "Service Watchdog", "ownerName": "mariusfit", "score": 32194.767441860466, "slug": "service-watchdog", "source": "clawhub", "stars": 2, "tags": ["devops", "homelab", "infrastructure", "monitoring"], "updated_at": 1776759082932, "version": "1.0.0"}, {"category": "productivity", "created_at": 1772787703531, "description": "Convert PDFs into structured Markdown filesystems and hydrate them into your workspace for exploration with standard Unix tools", "description_zh": "", "downloads": 403, "homepage": "https://clawhub.ai/joshuaohanlon/shelv", "iconUrl": null, "installs": 7, "name": "Openclaw Skill", "ownerName": "joshuaohanlon", "score": 100000, "slug": "shelv", "source": "clawhub", "stars": 2, "tags": null, "updated_at": 1776748802032, "version": "1.0.3"}, {"category": "security-compliance", "created_at": 1772800073036, "description": "Test authentication and session management controls for bypass and account takeover scenarios.", "description_zh": "", "downloads": 403, "homepage": "https://clawhub.ai/0x-professor/pentest-auth-bypass", "iconUrl": null, "installs": 11, "name": "Pentest Auth Bypass", "ownerName": "0x-professor", "score": 3182.2488945041064, "slug": "pentest-auth-bypass", "source": "clawhub", "stars": 0, "tags": null, "updated_at": 1776770349953, "version": "0.1.0"}, {"category": "data-analysis", "created_at": 1773942045880, "description": "Senior Fullstack & IoT engineer skilled in multi-tenant Express.js APIs, Next.js dashboards with Tailwind, WPF MVVM apps, and efficient Arduino IoT code.", "description_zh": "", "downloads": 403, "homepage": "https://clawhub.ai/aldilukman/fullstack", "iconUrl": null, "installs": 37, "name": "my skill", "ownerName": "aldilukman", "score": 14331.436699857752, "slug": "fullstack", "source": "clawhub", "stars": 0, "tags": null, "updated_at": 1776767349787, "version": "1.0.0"}, {"category": "ai-intelligence", "created_at": 1772792186011, "description": "Compile and summarize configured news, weather, calendar, tasks, quotes, and more into a structured, daily personal intelligence briefing.", "description_zh": "", "downloads": 403, "homepage": "https://clawhub.ai/ryudi84/sovereign-daily-digest", "iconUrl": null, "installs": 12, "name": "Sovereign Daily Digest", "ownerName": "ryudi84", "score": 70701.75438596492, "slug": "sovereign-daily-digest", "source": "clawhub", "stars": 0, "tags": ["automation", "digest", "productivity", "reports"], "updated_at": 1776759083261, "version": "1.0.0"}, {"category": "ai-intelligence", "created_at": 1772798063881, "description": "Integrate and run local Ollama AI models with custom prompts for AI assistance and automatic model management.", "description_zh": "", "downloads": 403, "homepage": "https://clawhub.ai/yrtrya5790343/ollama-integration", "iconUrl": null, "installs": 34, "name": "Ollama Integration", "ownerName": "yrtrya5790343", "score": 68654.1737649063, "slug": "ollama-integration", "source": "clawhub", "stars": 0, "tags": ["ai", "llm", "local", "ollama"], "updated_at": 1776759082420, "version": "1.0.0"}]}