{"page": 208, "total_pages": 522, "total": 26073, "skills": [{"category": "communication-collaboration", "created_at": 1772796839481, "description": "Use this skill whenever the user wants to interact with the Faces AI platform — including logging in or registering, creating or managing face personas, runn...", "description_zh": "", "downloads": 403, "homepage": "https://clawhub.ai/sybileak/faces", "iconUrl": null, "installs": 31, "name": "Faces", "ownerName": "sybileak", "score": 29567.131327953044, "slug": "faces", "source": "clawhub", "stars": 0, "tags": null, "updated_at": 1776759082317, "version": "1.3.2"}, {"category": "content-creation", "created_at": 1773077499039, "description": "Cross-platform content repurposer. Takes one piece of content and rewrites it for multiple Chinese social media platforms, adapting tone, format, length, and...", "description_zh": "", "downloads": 403, "homepage": "https://clawhub.ai/alexandrali1989-cell/content-rewriter", "iconUrl": null, "installs": 39, "name": "Content Rewriter 内容多平台改写", "ownerName": "alexandrali1989-cell", "score": 27138.04713804714, "slug": "content-rewriter", "source": "clawhub", "stars": 0, "tags": ["chinese", "content", "repurpose", "rewrite", "social-media"], "updated_at": 1776758182537, "version": "1.0.0"}, {"category": "data-analysis", "created_at": 1772793575962, "description": "Analyze YouTube notifications for investment and trading insights. Use when user wants investment advice from YouTube, analyzing stock crypto or financial co...", "description_zh": "", "downloads": 403, "homepage": "https://clawhub.ai/esanle/youtube-notification-analysis", "iconUrl": null, "installs": 38, "name": "Youtube Notification Analysis", "ownerName": "esanle", "score": 89356.9844789357, "slug": "youtube-notification-analysis", "source": "clawhub", "stars": 0, "tags": null, "updated_at": 1776748485421, "version": "1.0.2"}, {"category": "data-analysis", "created_at": 1772793575962, "description": "Analyze YouTube notifications for investment and trading insights. Use when user wants investment advice from YouTube, analyzing stock crypto or financial co...", "description_zh": "", "downloads": 403, "homepage": "https://clawhub.ai/esanle/youtube-notification-analysis", "iconUrl": null, "installs": 38, "name": "Youtube Notification Analysis", "ownerName": "esanle", "score": 89356.9844789357, "slug": "youtube-notification-analysis", "source": "clawhub", "stars": 0, "tags": null, "updated_at": 1776748485421, "version": "1.0.2"}, {"category": "productivity", "created_at": 1772786616033, "description": "Navigate Boston as visitor, resident, tech worker, student, or entrepreneur with neighborhoods, transport, costs, and local insights.", "description_zh": "", "downloads": 403, "homepage": "https://clawhub.ai/ivangdavila/boston", "iconUrl": null, "installs": 13, "name": "Boston", "ownerName": "ivangdavila", "score": 68654.1737649063, "slug": "boston", "source": "clawhub", "stars": 0, "tags": null, "updated_at": 1776748484716, "version": "1.0.0"}, {"category": "productivity", "created_at": 1773425289212, "description": "Reference tool for business — covers intro, formulas, regulations and more. Quick lookup for Dropship Helper concepts, best practices, and implementation pat...", "description_zh": "", "downloads": 403, "homepage": "https://clawhub.ai/ckchzh/dropship-helper", "iconUrl": null, "installs": 15, "name": "Dropship Helper", "ownerName": "ckchzh", "score": 68654.1737649063, "slug": "dropship-helper", "source": "clawhub", "stars": 0, "tags": ["productivity"], "updated_at": 1776748484698, "version": "4.0.2"}, {"category": "productivity", "created_at": 1772786319501, "description": "Navigate Toronto as visitor, resident, tech worker, student, or entrepreneur with neighborhoods, transit, costs, immigration, and local insights.", "description_zh": "", "downloads": 403, "homepage": "https://clawhub.ai/ivangdavila/toronto", "iconUrl": null, "installs": 16, "name": "Toronto", "ownerName": "ivangdavila", "score": 68654.1737649063, "slug": "toronto", "source": "clawhub", "stars": 0, "tags": null, "updated_at": 1776748484671, "version": "1.0.1"}, {"category": "content-creation", "created_at": 1772798831172, "description": "Rewrite text in any of 10 tones (professional, casual, friendly, formal, empathetic, persuasive, academic, simple, witty, urgent) while preserving meaning. x...", "description_zh": "", "downloads": 403, "homepage": "https://clawhub.ai/daisuke134/tone-rewriter", "iconUrl": null, "installs": 52, "name": "tone-rewriter", "ownerName": "daisuke134", "score": 94600.93896713616, "slug": "tone-rewriter", "source": "clawhub", "stars": 0, "tags": null, "updated_at": 1776748484542, "version": "1.0.0"}, {"category": "content-creation", "created_at": 1772792470255, "description": "Summarize any YouTube video by dropping the link in chat. Supports custom prompts — paste the URL followed by your instructions (e.g. 'focus on the technical...", "description_zh": "", "downloads": 403, "homepage": "https://clawhub.ai/chapati23/yt-summary", "iconUrl": null, "installs": 23, "name": "Youtube Summary", "ownerName": "chapati23", "score": 78557.50487329435, "slug": "yt-summary", "source": "clawhub", "stars": 0, "tags": null, "updated_at": 1776748484009, "version": "1.3.2"}, {"category": "ai-intelligence", "created_at": 1772789409644, "description": "Review Apollo ecosystem issues with a classify-first workflow (reproduce for behavior issues, evidence-check for consultative asks) and draft maintainer-grad...", "description_zh": "", "downloads": 402, "homepage": "https://clawhub.ai/nobodyiam/apollo-issue-review", "iconUrl": null, "installs": 16, "name": "Apollo Issue Review", "ownerName": "nobodyiam", "score": 27676.894176581092, "slug": "apollo-issue-review", "source": "clawhub", "stars": 2, "tags": null, "updated_at": 1776757882196, "version": "1.0.0"}, {"category": "developer-tools", "created_at": 1772799091169, "description": "Improve Etsy listings with buyer-intent keywords, margin-safe pricing checks, and structured experiments that raise qualified traffic and conversion.", "description_zh": "", "downloads": 402, "homepage": "https://clawhub.ai/ivangdavila/etsy", "iconUrl": null, "installs": 17, "name": "Etsy", "ownerName": "ivangdavila", "score": 24407.17177559283, "slug": "etsy", "source": "clawhub", "stars": 1, "tags": null, "updated_at": 1776765310788, "version": "1.0.0"}, {"category": "developer-tools", "created_at": 1772801145229, "description": "Autonomous development workflow with multi-agent Claw Architecture. Single-agent mode for simple features; multi-agent mode decomposes cross-domain work into...", "description_zh": "", "downloads": 402, "homepage": "https://clawhub.ai/raunakkathuria/buildwright", "iconUrl": null, "installs": 3, "name": "buildwright", "ownerName": "raunakkathuria", "score": 93569.84478935698, "slug": "buildwright", "source": "clawhub", "stars": 1, "tags": null, "updated_at": 1776748485405, "version": "0.0.9"}, {"category": "developer-tools", "created_at": 1772801145229, "description": "Autonomous development workflow with multi-agent Claw Architecture. Single-agent mode for simple features; multi-agent mode decomposes cross-domain work into...", "description_zh": "", "downloads": 402, "homepage": "https://clawhub.ai/raunakkathuria/buildwright", "iconUrl": null, "installs": 3, "name": "buildwright", "ownerName": "raunakkathuria", "score": 93569.84478935698, "slug": "buildwright", "source": "clawhub", "stars": 1, "tags": null, "updated_at": 1776748485405, "version": "0.0.9"}, {"category": "security-compliance", "created_at": 1772791486330, "description": "Generates file-type-specific code review checklists covering security, performance, style, and testing best practices for pull requests.", "description_zh": "", "downloads": 402, "homepage": "https://clawhub.ai/ryudi84/sovereign-code-review-helper", "iconUrl": null, "installs": 8, "name": "Sovereign code-review-helper", "ownerName": "ryudi84", "score": 2980.4270462633453, "slug": "sovereign-code-review-helper", "source": "clawhub", "stars": 0, "tags": ["automation", "developer", "productivity"], "updated_at": 1776766207080, "version": "1.0.0"}, {"category": "productivity", "created_at": 1773064633941, "description": "Create and edit Obsidian Bases (.base files) with views, filters, formulas, and summaries. Use when working with .base files, creating database-like views of...", "description_zh": "", "downloads": 402, "homepage": "https://clawhub.ai/sadlay/obsidian-bases", "iconUrl": null, "installs": 61, "name": "Obsidian Bases", "ownerName": "sadlay", "score": 18715.083798882682, "slug": "obsidian-bases", "source": "clawhub", "stars": 0, "tags": null, "updated_at": 1776764350298, "version": "1.0.0"}, {"category": "communication-collaboration", "created_at": 1773058098540, "description": "Transcribe Telegram voice messages and audio notes into text using the OpenAI Whisper API. Use when (1) a user sends a voice message or audio note via Telegr...", "description_zh": "", "downloads": 402, "homepage": "https://clawhub.ai/dreadterror/telegram-voice-transcribe", "iconUrl": null, "installs": 17, "name": "Telegram Voice Transcribe", "ownerName": "dreadterror", "score": 70402.80210157618, "slug": "telegram-voice-transcribe", "source": "clawhub", "stars": 0, "tags": ["audio", "free", "speech-to-text", "stt", "telegram", "voice", "whisper"], "updated_at": 1776748485532, "version": "1.3.1"}, {"category": "productivity", "created_at": 1772789800797, "description": "Check active Aavegotchi DAO proposals and vote on Snapshot via Bankr EIP-712 signatures.", "description_zh": "", "downloads": 402, "homepage": "https://clawhub.ai/aaigotchi/gotchi-dao-voting", "iconUrl": null, "installs": 9, "name": "Gotchi DAO Voting", "ownerName": "aaigotchi", "score": 70402.80210157618, "slug": "gotchi-dao-voting", "source": "clawhub", "stars": 0, "tags": null, "updated_at": 1776748485525, "version": "1.1.0"}, {"category": "communication-collaboration", "created_at": 1772789338776, "description": "Context window health monitoring for OpenClaw agents — threshold warnings via Telegram, pre-compaction snapshots, and memory rotation.", "description_zh": "", "downloads": 402, "homepage": "https://clawhub.ai/assistantheinrich-prog/session-health-monitor", "iconUrl": null, "installs": 9, "name": "Session Health Monitor", "ownerName": "assistantheinrich-prog", "score": 84631.57894736843, "slug": "session-health-monitor", "source": "clawhub", "stars": 0, "tags": null, "updated_at": 1776748484816, "version": "1.1.0"}, {"category": "productivity", "created_at": 1773069427837, "description": "Google Workflow: Cross-service productivity workflows.", "description_zh": "", "downloads": 402, "homepage": "https://clawhub.ai/googleworkspace-bot/gws-workflow", "iconUrl": null, "installs": 15, "name": "Gws Workflow", "ownerName": "googleworkspace-bot", "score": 94366.19718309859, "slug": "gws-workflow", "source": "clawhub", "stars": 0, "tags": null, "updated_at": 1776748484546, "version": "1.0.0"}, {"category": "developer-tools", "created_at": 1772789943778, "description": "YNAB (You Need A Budget) budget management via API. Add transactions, track goals, monitor spending, create transfers, and generate budget reports. Use this...", "description_zh": "", "downloads": 402, "homepage": "https://clawhub.ai/f-liva/ynab-api", "iconUrl": null, "installs": 6, "name": "Ynab Api", "ownerName": "f-liva", "score": 86451.6129032258, "slug": "ynab-api", "source": "clawhub", "stars": 0, "tags": null, "updated_at": 1776748484483, "version": "2.3.0"}, {"category": "productivity", "created_at": 1772789891697, "description": "Run OpenClaw as a system-level LaunchDaemon on macOS for 24/7 operation, surviving screen lock, logout, and user switching. Uses caffeinate to prevent sleep....", "description_zh": "", "downloads": 402, "homepage": "https://clawhub.ai/happydog-intj/openclaw-macos-always-on", "iconUrl": null, "installs": 13, "name": "OpenClaw macOS Always-On", "ownerName": "happydog-intj", "score": 78362.5730994152, "slug": "openclaw-macos-always-on", "source": "clawhub", "stars": 0, "tags": null, "updated_at": 1776748484024, "version": "1.0.1"}, {"category": "ai-intelligence", "created_at": 1773091293302, "description": "Multi-Agent AI Quant System with factor mining, strategy generation, and automated backtesting", "description_zh": "", "downloads": 401, "homepage": "https://clawhub.ai/pikachu022700/quant-orchestrator-free", "iconUrl": null, "installs": 100, "name": "Quant Orchestrator (Free)", "ownerName": "pikachu022700", "score": 1411.8724033518768, "slug": "quant-orchestrator-free", "source": "clawhub", "stars": 0, "tags": ["ai", "free", "quant", "trading"], "updated_at": 1776770050066, "version": "1.0.0"}, {"category": "data-analysis", "created_at": 1772787644604, "description": "Business card scanner + Google Contacts manager. Auto-detects business card images, extracts contact info via OCR (imageModel), confirms with user, saves to...", "description_zh": "", "downloads": 401, "homepage": "https://clawhub.ai/project820/bizcard", "iconUrl": null, "installs": 11, "name": "Bizcard", "ownerName": "project820", "score": 5534.851621808143, "slug": "bizcard", "source": "clawhub", "stars": 0, "tags": null, "updated_at": 1776769190567, "version": "0.1.2"}, {"category": "productivity", "created_at": 1772791989549, "description": "Connect OpenClaw to OneBot protocol for QQ bot integration. Use when receiving or sending QQ messages via NapCat or other OneBot servers.", "description_zh": "", "downloads": 401, "homepage": "https://clawhub.ai/gu-heping/onebot-adapter", "iconUrl": null, "installs": 20, "name": "OneBot Adapter", "ownerName": "gu-heping", "score": 15387.567152724483, "slug": "onebot-adapter", "source": "clawhub", "stars": 0, "tags": ["bot", "napcat", "onebot", "qq"], "updated_at": 1776762290245, "version": "1.0.0"}, {"category": "developer-tools", "created_at": 1772799588081, "description": "Use GitHub Spec Kit for Spec-Driven Development. Initialize projects, create specifications, and build software using the /speckit.* slash commands. Supports...", "description_zh": "", "downloads": 401, "homepage": "https://clawhub.ai/aungmyokyaw/spec-kit", "iconUrl": null, "installs": 61, "name": "Spec Kit", "ownerName": "aungmyokyaw", "score": 12665.824384080859, "slug": "spec-kit", "source": "clawhub", "stars": 0, "tags": null, "updated_at": 1776761445389, "version": "1.0.0"}, {"category": "developer-tools", "created_at": 1772797211351, "description": "STM32CubeMX CLI operations for configuring pins, peripherals, DMA, interrupts, and generating code. Use cases: (1) Add/modify STM32 peripheral configuration...", "description_zh": "", "downloads": 401, "homepage": "https://clawhub.ai/aidankong/stm32-cubemx", "iconUrl": null, "installs": 76, "name": "STM32 CubeMX", "ownerName": "aidankong", "score": 10445.428497004428, "slug": "stm32-cubemx", "source": "clawhub", "stars": 0, "tags": null, "updated_at": 1776760940540, "version": "1.0.3"}, {"category": "data-analysis", "created_at": 1772789176591, "description": "Analyze company spend data to identify waste, benchmark costs by industry, optimize vendor contracts, and forecast cash flow with a prioritized action plan.", "description_zh": "", "downloads": 401, "homepage": "https://clawhub.ai/1kalin/afrexai-spend-intelligence", "iconUrl": null, "installs": 18, "name": "Spend Intelligence", "ownerName": "1kalin", "score": 71863.79928315412, "slug": "afrexai-spend-intelligence", "source": "clawhub", "stars": 0, "tags": ["cost optimization", "finance", "procurement", "spend analysis"], "updated_at": 1776759083707, "version": "1.0.0"}, {"category": "data-analysis", "created_at": 1772790266103, "description": "Detects suicide ideation, self-harm, and mental health crises using NLP and sentiment analysis, providing real-time alerts and connecting users to help resou...", "description_zh": "", "downloads": 401, "homepage": "https://clawhub.ai/raghulpasupathi/crisis-detector", "iconUrl": null, "installs": 22, "name": "Crisis Detector", "ownerName": "raghulpasupathi", "score": 29334.308705193856, "slug": "crisis-detector", "source": "clawhub", "stars": 0, "tags": null, "updated_at": 1776759083676, "version": "1.0.0"}, {"category": "productivity", "created_at": 1772788334187, "description": "Automates dollar-cost averaging into BTC/ETH during extreme fear (F&G <10) and rebalances to yield above F&G 50, removing emotion from fear buying.", "description_zh": "", "downloads": 401, "homepage": "https://clawhub.ai/bowen31337/fear-harvester", "iconUrl": null, "installs": 17, "name": "FearHarvester", "ownerName": "bowen31337", "score": 29184.86171761281, "slug": "fear-harvester", "source": "clawhub", "stars": 0, "tags": ["autonomous", "crypto", "dca", "trading"], "updated_at": 1776759083626, "version": "0.1.0"}, {"category": "productivity", "created_at": 1772791555476, "description": "Use when user wants to track expenses, scan receipts, upload card payment screenshots, categorize spending, record transactions, check spending summaries, vi...", "description_zh": "", "downloads": 401, "homepage": "https://clawhub.ai/edenjw/pocket-lens", "iconUrl": null, "installs": 5, "name": "PocketLens", "ownerName": "edenjw", "score": 29463.629684055843, "slug": "pocket-lens", "source": "clawhub", "stars": 0, "tags": null, "updated_at": 1776759082208, "version": "1.0.0"}, {"category": "productivity", "created_at": 1772787554824, "description": "Migrate Next.js projects from Vercel to Cloudflare Workers with Supabase/Hyperdrive support. Use when user wants to move a Next.js app off Vercel to reduce c...", "description_zh": "", "downloads": 401, "homepage": "https://clawhub.ai/jiafar/vercel-to-cloudflare", "iconUrl": null, "installs": 11, "name": "Vercel to Cloudflare Worker Migration", "ownerName": "jiafar", "score": 90315.31531531531, "slug": "vercel-to-cloudflare", "source": "clawhub", "stars": 0, "tags": null, "updated_at": 1776748485500, "version": "1.0.0"}, {"category": "communication-collaboration", "created_at": 1772788097526, "description": "Generate Discord server graphics using each::sense AI. Create server icons, banners, role icons, welcome graphics, event banners, bot avatars, emojis, and mo...", "description_zh": "", "downloads": 401, "homepage": "https://clawhub.ai/eftalyurtseven/discord-graphics-generation", "iconUrl": null, "installs": 16, "name": "Discord Graphics Generation", "ownerName": "eftalyurtseven", "score": 98044.0097799511, "slug": "discord-graphics-generation", "source": "clawhub", "stars": 0, "tags": null, "updated_at": 1776748485313, "version": "1.0.0"}, {"category": "productivity", "created_at": 1772790261066, "description": "OpenClaw plugin that bridges to the Clawfinger voice gateway. Provides tools for live call takeover, TTS injection, outbound dialing, hangup, context/knowled...", "description_zh": "", "downloads": 401, "homepage": "https://clawhub.ai/tracsystems/clawfinger", "iconUrl": null, "installs": 10, "name": "Clawfinger", "ownerName": "tracsystems", "score": 84421.05263157895, "slug": "clawfinger", "source": "clawhub", "stars": 0, "tags": null, "updated_at": 1776748484788, "version": "0.1.3"}, {"category": "content-creation", "created_at": 1772796019394, "description": "Prevent context loss during LLM compaction via Write-Ahead Logging (WAL), Working Buffer, and automatic recovery. Three mechanisms that ensure critical state...", "description_zh": "", "downloads": 401, "homepage": "https://clawhub.ai/rustyorb/compaction-survival", "iconUrl": null, "installs": 25, "name": "Compaction Survival System", "ownerName": "rustyorb", "score": 68313.45826235093, "slug": "compaction-survival", "source": "clawhub", "stars": 0, "tags": ["compaction", "context", "memory", "persistence"], "updated_at": 1776748484675, "version": "1.0.0"}, {"category": "productivity", "created_at": 1772795051425, "description": "Create and manage grid trading strategies with OpenMM. Automated buy/sell around center price.", "description_zh": "", "downloads": 401, "homepage": "https://clawhub.ai/adacapo21/openmm-grid-trading", "iconUrl": null, "installs": 22, "name": "OpenMM Grid Trading", "ownerName": "adacapo21", "score": 92824.07407407407, "slug": "openmm-grid-trading", "source": "clawhub", "stars": 0, "tags": ["grid", "marketmaking", "openmm", "trading"], "updated_at": 1776748484406, "version": "0.1.0"}, {"category": "security-compliance", "created_at": 1772789901207, "description": "Audit a ClawHub skill for security risks BEFORE installation.", "description_zh": "", "downloads": 401, "homepage": "https://clawhub.ai/jonathanjing/skill-trust-auditor", "iconUrl": null, "installs": 12, "name": "skill-trust-auditor", "ownerName": "jonathanjing", "score": 84778.01268498943, "slug": "skill-trust-auditor", "source": "clawhub", "stars": 0, "tags": null, "updated_at": 1776748484207, "version": "1.1.3"}, {"category": "developer-tools", "created_at": 1772789281561, "description": "Manage your agentcash wallet and call any x402-protected API with automatic payment. No API keys, no subscriptions — just a funded wallet (USDC on Base). USE...", "description_zh": "", "downloads": 401, "homepage": "https://clawhub.ai/fmhall/agentcash-wallet", "iconUrl": null, "installs": 5, "name": "Agentcash Wallet", "ownerName": "fmhall", "score": 89709.17225950783, "slug": "agentcash-wallet", "source": "clawhub", "stars": 0, "tags": null, "updated_at": 1776748484153, "version": "0.1.0"}, {"category": "productivity", "created_at": 1772798080472, "description": "OpenClaw plugin providing a config-driven /shortcuts command with safe placeholder defaults. Use when you want a /shortcuts command that lists your local com...", "description_zh": "", "downloads": 401, "homepage": "https://clawhub.ai/homeofe/openclaw-shortcuts", "iconUrl": null, "installs": 9, "name": "OpenClaw Shortcuts", "ownerName": "homeofe", "score": 89709.17225950783, "slug": "openclaw-shortcuts", "source": "clawhub", "stars": 0, "tags": null, "updated_at": 1776748484094, "version": "0.1.0"}, {"category": "productivity", "created_at": 1773073105642, "description": "Transform conversations and discussions into structured Notion documentation", "description_zh": "", "downloads": 401, "homepage": "https://clawhub.ai/neptunear/knowledge-capture", "iconUrl": null, "installs": 23, "name": "Knowledge Capture", "ownerName": "neptunear", "score": 78167.64132553607, "slug": "knowledge-capture", "source": "clawhub", "stars": 0, "tags": null, "updated_at": 1776748484012, "version": "0.1.0"}, {"category": "content-creation", "created_at": 1773060675375, "description": "Generate floor plans and architectural layouts using each::sense AI. Create apartment designs, house layouts, office spaces, retail stores, restaurants, and...", "description_zh": "", "downloads": 401, "homepage": "https://clawhub.ai/eftalyurtseven/floor-plan-generation", "iconUrl": null, "installs": 76, "name": "Floor Plan Generation", "ownerName": "eftalyurtseven", "score": 89709.17225950783, "slug": "floor-plan-generation", "source": "clawhub", "stars": 0, "tags": null, "updated_at": 1776748483824, "version": "1.0.0"}, {"category": "developer-tools", "created_at": 1772787517117, "description": "Sovereign document intelligence & archival system. Extracts structured data from invoices, receipts, and contracts 100% locally using AI.", "description_zh": "", "downloads": 401, "homepage": "https://clawhub.ai/astonysh/docuclaw", "iconUrl": null, "installs": 16, "name": "DocuClaw", "ownerName": "astonysh", "score": 95476.19047619049, "slug": "docuclaw", "source": "clawhub", "stars": 0, "tags": ["data", "digitalization", "documents"], "updated_at": 1776748483735, "version": "0.1.0"}, {"category": "data-analysis", "created_at": 1773067084684, "description": "Analyzes RFP/RFI responses for coverage gaps, builds competitive feature comparison matrices, and plans proof-of-concept (POC) engagements for pre-sales engi...", "description_zh": "", "downloads": 401, "homepage": "https://clawhub.ai/alirezarezvani/sales-engineer", "iconUrl": null, "installs": 12, "name": "Sales Engineer", "ownerName": "alirezarezvani", "score": 95476.19047619049, "slug": "sales-engineer", "source": "clawhub", "stars": 0, "tags": null, "updated_at": 1776748483685, "version": "2.1.1"}, {"category": "developer-tools", "created_at": 1773041898759, "description": "CLI tool for creating and trading meme tokens on Four.Meme (BSC), with structured JSON outputs for config, token details, pricing quotes, on-chain events, an...", "description_zh": "", "downloads": 400, "homepage": "https://clawhub.ai/four-meme-community/four-meme-ai", "iconUrl": null, "installs": 4, "name": "FourMeme", "ownerName": "four-meme-community", "score": 8106.738726566457, "slug": "four-meme-ai", "source": "clawhub", "stars": 4, "tags": null, "updated_at": 1776763150643, "version": "1.0.7"}, {"category": "data-analysis", "created_at": 1772793436186, "description": "Interact with the openLesson tutoring API to generate learning plans, start audio-based sessions, analyze reasoning gaps, and manage tutoring workflows.", "description_zh": "", "downloads": 400, "homepage": "https://clawhub.ai/dncolomer/open-lesson", "iconUrl": null, "installs": 17, "name": "openlesson", "ownerName": "dncolomer", "score": 31814.895155459144, "slug": "open-lesson", "source": "clawhub", "stars": 2, "tags": null, "updated_at": 1776759082127, "version": "1.0.2"}, {"category": "security-compliance", "created_at": 1773222559191, "description": "Produce structured geopolitical, strategic, and policy analysis in a clear think-tank style. Use when assessing international risks, policy options, security...", "description_zh": "", "downloads": 400, "homepage": "https://clawhub.ai/vassiliylakhonin/global-think-tank-analyst", "iconUrl": null, "installs": 11, "name": "Global Think Tank Analyst", "ownerName": "vassiliylakhonin", "score": 25516.40340218712, "slug": "global-think-tank-analyst", "source": "clawhub", "stars": 1, "tags": ["analysis", "geopolitics", "international-relations", "policy", "policy-analysis", "policy-brief", "risk-analysis", "risk-assessment", "strategic-foresight", "strategy", "think-tank"], "updated_at": 1776757320495, "version": "0.2.5"}, {"category": "developer-tools", "created_at": 1772785400978, "description": "Manage Plane.so projects and work items using a zero-dependency Python CLI. List projects, create/update/assign issues, add comments, search workspace. The p...", "description_zh": "", "downloads": 400, "homepage": "https://clawhub.ai/luiseduardoaugusto/plane-so-cli", "iconUrl": null, "installs": 7, "name": "Plane.so CLI", "ownerName": "luiseduardoaugusto", "score": 78358.20895522389, "slug": "plane-so-cli", "source": "clawhub", "stars": 1, "tags": null, "updated_at": 1776754388580, "version": "1.2.0"}, {"category": "communication-collaboration", "created_at": 1772790929609, "description": "Agent-native CRM built for AI agents to manage sales pipelines autonomously", "description_zh": "", "downloads": 400, "homepage": "https://clawhub.ai/giorgallidis/clawcrm", "iconUrl": null, "installs": 23, "name": "Clawcrm", "ownerName": "giorgallidis", "score": 100000, "slug": "clawcrm", "source": "clawhub", "stars": 1, "tags": null, "updated_at": 1776748484601, "version": "1.0.7"}, {"category": "data-analysis", "created_at": 1773041279470, "description": "Fetches cryptocurrency market data, prices, technical analysis, news, and trends using the CoinMarketCap MCP. Use for ANY question involving cryptocurrencies...", "description_zh": "", "downloads": 400, "homepage": "https://clawhub.ai/bryan-cmc/cmc-mcp", "iconUrl": null, "installs": 14, "name": "CoinMarketCap MCP", "ownerName": "bryan-cmc", "score": 97222.22222222222, "slug": "cmc-mcp", "source": "clawhub", "stars": 1, "tags": null, "updated_at": 1776748484362, "version": "1.0.3"}, {"category": "ai-intelligence", "created_at": 1772797759058, "description": "General-purpose self-healing loop that learns from past failures, retries safely, and records reusable fixes.", "description_zh": "", "downloads": 400, "homepage": "https://clawhub.ai/dalomeve/memory-self-heal", "iconUrl": null, "installs": 28, "name": "Memory Self-Heal", "ownerName": "dalomeve", "score": 93959.73154362416, "slug": "memory-self-heal", "source": "clawhub", "stars": 1, "tags": null, "updated_at": 1776748483837, "version": "1.1.0"}, {"category": "ai-intelligence", "created_at": 1773061391788, "description": "7 runnable Monte Carlo simulation tools extracted from a viral quant article. Importance sampling, particle filters, copulas, agent-based markets, variance r...", "description_zh": "", "downloads": 400, "homepage": "https://clawhub.ai/marcindudekdev/quant-sim-toolkit", "iconUrl": null, "installs": 72, "name": "Quant Simulation Toolkit", "ownerName": "marcindudekdev", "score": 1627.4717226788182, "slug": "quant-sim-toolkit", "source": "clawhub", "stars": 0, "tags": ["copula", "finance", "importance-sampling", "monte-carlo", "particle-filter", "prediction-markets", "quant", "simulation"], "updated_at": 1776770090524, "version": "1.0.0"}]}