{"page": 209, "total_pages": 522, "total": 26073, "skills": [{"category": "productivity", "created_at": 1773283987676, "description": "Transcreve arquivos de áudio em português brasileiro para texto, suportando vários formatos e incluindo timestamps.", "description_zh": "", "downloads": 400, "homepage": "https://clawhub.ai/bohnwuks/stt", "iconUrl": null, "installs": 10, "name": "Speech to text", "ownerName": "bohnwuks", "score": 15942.606616181745, "slug": "stt", "source": "clawhub", "stars": 0, "tags": null, "updated_at": 1776764949800, "version": "1.0.0"}, {"category": "data-analysis", "created_at": 1772793614157, "description": "Create and query an Obsidian-style [[wikilink]] knowledge graph with learnable repeatable MindSkills for managing and analyzing workspace files.", "description_zh": "", "downloads": 400, "homepage": "https://clawhub.ai/hulkworks/mindgraph", "iconUrl": null, "installs": 19, "name": "Mindgraph", "ownerName": "hulkworks", "score": 9599.232061435085, "slug": "mindgraph", "source": "clawhub", "stars": 0, "tags": null, "updated_at": 1776764349733, "version": "1.0.0"}, {"category": "security-compliance", "created_at": 1773073191559, "description": "Work with the WordPress REST API for route discovery, authentication, reads and writes, core endpoint selection, and custom namespace inspection. Use when a...", "description_zh": "", "downloads": 400, "homepage": "https://clawhub.ai/matthewxmurphy/wordpress-rest-api", "iconUrl": null, "installs": 53, "name": "WordPress REST API", "ownerName": "matthewxmurphy", "score": 15772.870662460567, "slug": "wordpress-rest-api", "source": "clawhub", "stars": 0, "tags": null, "updated_at": 1776763750004, "version": "0.6.0"}, {"category": "content-creation", "created_at": 1773073755204, "description": "Remove watermarks, logos, captions, and text overlays from images and videos using WaveSpeed AI. Intelligently detects and removes watermarks while preservin...", "description_zh": "", "downloads": 400, "homepage": "https://clawhub.ai/chengzeyi/wavespeed-watermark-remover", "iconUrl": null, "installs": 37, "name": "WaveSpeedAI Watermark Remover", "ownerName": "chengzeyi", "score": 10368.066355624676, "slug": "wavespeed-watermark-remover", "source": "clawhub", "stars": 0, "tags": null, "updated_at": 1776760940457, "version": "1.0.0"}, {"category": "security-compliance", "created_at": 1772788989836, "description": "Conduct a comprehensive AI readiness audit scoring 8 dimensions, identifying gaps, and delivering a prioritized 90-day actionable plan with budget estimates.", "description_zh": "", "downloads": 400, "homepage": "https://clawhub.ai/1kalin/afrexai-ai-readiness", "iconUrl": null, "installs": 6, "name": "AI Readiness Assessment", "ownerName": "1kalin", "score": 29027.576197387516, "slug": "afrexai-ai-readiness", "source": "clawhub", "stars": 0, "tags": ["ai readiness", "assessment", "audit", "business", "strategy"], "updated_at": 1776759083312, "version": "1.0.0"}, {"category": "productivity", "created_at": 1773073937953, "description": "OpenClaw adaptation of @mvanhorn's last30days skill. Research any topic from the last 30 days across Reddit, X, YouTube, TikTok, Instagram, Hacker News, Poly...", "description_zh": "", "downloads": 400, "homepage": "https://clawhub.ai/keylimesoda/last30days-openclaw", "iconUrl": null, "installs": 24, "name": "Last30Days Community Intelligence for OpenClaw", "ownerName": "keylimesoda", "score": 29090.90909090909, "slug": "last30days-openclaw", "source": "clawhub", "stars": 0, "tags": null, "updated_at": 1776759082258, "version": "1.0.0-openclaw.1"}, {"category": "developer-tools", "created_at": 1772791001851, "description": "Agent-native whale wallet tracker for ETH and BTC chains. Track large crypto wallet movements, score whale activity, detect accumulation/distribution pattern...", "description_zh": "", "downloads": 400, "homepage": "https://clawhub.ai/bowen31337/whalecli", "iconUrl": null, "installs": 7, "name": "WhaleWatch CLI", "ownerName": "bowen31337", "score": 70052.53940455342, "slug": "whalecli", "source": "clawhub", "stars": 0, "tags": null, "updated_at": 1776748485684, "version": "0.1.0"}, {"category": "developer-tools", "created_at": 1772792408404, "description": "Interact with Kanboard project management via JSON-RPC API. Use when working with Kanboard tasks, projects, boards, columns, swimlanes, comments, subtasks, a...", "description_zh": "", "downloads": 400, "homepage": "https://clawhub.ai/bivex/kanboard-skill", "iconUrl": null, "installs": 13, "name": "Kanboard Skill", "ownerName": "bivex", "score": 70052.53940455342, "slug": "kanboard-skill", "source": "clawhub", "stars": 0, "tags": null, "updated_at": 1776748485665, "version": "1.0.0"}, {"category": "data-analysis", "created_at": 1772793313348, "description": "Automated client reporting for agencies and freelancers using OpenClaw. Pull data from Google Analytics, Google Search Console, social media platforms, and c...", "description_zh": "", "downloads": 400, "homepage": "https://clawhub.ai/reighlan/client-reporting", "iconUrl": null, "installs": 16, "name": "Client Reporting Automation", "ownerName": "reighlan", "score": 86021.50537634408, "slug": "client-reporting", "source": "clawhub", "stars": 0, "tags": ["agency", "analytics", "clients", "reporting"], "updated_at": 1776748484449, "version": "1.0.0"}, {"category": "data-analysis", "created_at": 1772791424248, "description": "Query Mixpanel analytics with funnels, retention, segmentation, and event tracking via REST API.", "description_zh": "", "downloads": 400, "homepage": "https://clawhub.ai/ivangdavila/mixpanel", "iconUrl": null, "installs": 13, "name": "Mixpanel", "ownerName": "ivangdavila", "score": 81799.591002045, "slug": "mixpanel", "source": "clawhub", "stars": 0, "tags": null, "updated_at": 1776748483670, "version": "1.0.1"}, {"category": "communication-collaboration", "created_at": 1772794710302, "description": "Your AI executive team on Discord. 7 specialists (engineering, finance, marketing, devops, legal, management, chief of staff) each with its own model and per...", "description_zh": "", "downloads": 399, "homepage": "https://clawhub.ai/wanikua/become-ceo", "iconUrl": null, "installs": 31, "name": "Become Ceo", "ownerName": "wanikua", "score": 94408.60215053764, "slug": "become-ceo", "source": "clawhub", "stars": 2, "tags": null, "updated_at": 1776748484506, "version": "1.5.0"}, {"category": "ai-intelligence", "created_at": 1772793402406, "description": "Publish technical docs with Mermaid diagrams, KaTeX math, and code highlighting. Persistent workspace, shareable links, versioning. Free.", "description_zh": "", "downloads": 399, "homepage": "https://clawhub.ai/operator-auteng-ai/auteng-docs", "iconUrl": null, "installs": 35, "name": "auteng-docs", "ownerName": "operator-auteng-ai", "score": 6465.7267865824015, "slug": "auteng-docs", "source": "clawhub", "stars": 0, "tags": null, "updated_at": 1776769571128, "version": "1.1.1"}, {"category": "content-creation", "created_at": 1772798379466, "description": "Post or schedule content to Bluesky using the Publora API. Use this skill when the user wants to publish or schedule Bluesky posts via Publora.", "description_zh": "", "downloads": 399, "homepage": "https://clawhub.ai/sergebulaev/publora-bluesky", "iconUrl": null, "installs": 11, "name": "Publora Bluesky", "ownerName": "sergebulaev", "score": 19009.051929490233, "slug": "publora-bluesky", "source": "clawhub", "stars": 0, "tags": null, "updated_at": 1776766749982, "version": "1.2.1"}, {"category": "productivity", "created_at": 1773927520342, "description": "Automate comprehensive desktop tasks on Windows/macOS/Linux with safe, logged mouse, keyboard, OCR, image recognition, macro recording, and replay features.", "description_zh": "", "downloads": 399, "homepage": "https://clawhub.ai/jordaneparis/desktop-automation-ultra", "iconUrl": null, "installs": 54, "name": "Desktop automation ultra", "ownerName": "jordaneparis", "score": 3865.5299360589033, "slug": "desktop-automation-ultra", "source": "clawhub", "stars": 0, "tags": null, "updated_at": 1776766149732, "version": "2.0.0"}, {"category": "content-creation", "created_at": 1772804051344, "description": "Generate short product videos from images using Runway Gen4 Turbo. Use for TikTok ads, UGC-style product demos, Reels, and YouTube Shorts.", "description_zh": "", "downloads": 399, "homepage": "https://clawhub.ai/zero2ai-hub/skill-runway-video-gen", "iconUrl": null, "installs": 66, "name": "Skill Runway Video Gen", "ownerName": "zero2ai-hub", "score": 11242.603550295858, "slug": "skill-runway-video-gen", "source": "clawhub", "stars": 0, "tags": null, "updated_at": 1776763749844, "version": "1.0.0"}, {"category": "ai-intelligence", "created_at": 1772794121817, "description": "Set up and manage bandwidth-sharing nodes on Grass.io, Mysterium, Storj, and Honeygain to earn passive crypto income with monitoring and ROI tracking.", "description_zh": "", "downloads": 399, "homepage": "https://clawhub.ai/mariusfit/bandwidth-income", "iconUrl": null, "installs": 12, "name": "Clawhub Skill Bandwidth Income", "ownerName": "mariusfit", "score": 24240.583232077763, "slug": "bandwidth-income", "source": "clawhub", "stars": 0, "tags": null, "updated_at": 1776759083830, "version": "1.0.0"}, {"category": "developer-tools", "created_at": 1772790531357, "description": "X Platform API. Read posts, search tweets, post, upload media.", "description_zh": "", "downloads": 399, "homepage": "https://clawhub.ai/parkertoddbrooks/wip-x", "iconUrl": null, "installs": 6, "name": "Wip X", "ownerName": "parkertoddbrooks", "score": 24240.583232077763, "slug": "wip-x", "source": "clawhub", "stars": 0, "tags": null, "updated_at": 1776759083802, "version": "1.0.1"}, {"category": "content-creation", "created_at": 1772796141100, "description": "Neural web search, similar-page discovery, and URL content fetching via the Exa AI search engine. USE WHEN: user asks to search the web, find articles/repos/...", "description_zh": "", "downloads": 399, "homepage": "https://clawhub.ai/prompt-surfer/exa-search-rust", "iconUrl": null, "installs": 41, "name": "Exa Search (Rust)", "ownerName": "prompt-surfer", "score": 29446.49446494465, "slug": "exa-search-rust", "source": "clawhub", "stars": 0, "tags": null, "updated_at": 1776759082488, "version": "1.0.3"}, {"category": "data-analysis", "created_at": 1772786924838, "description": "Skytekx namespace for Netsnek e.U. cloud infrastructure monitoring dashboard. Tracks resource usage, alerts on anomalies, visualizes costs, and provides opti...", "description_zh": "", "downloads": 399, "homepage": "https://clawhub.ai/kleberbaum/skytekx", "iconUrl": null, "installs": 8, "name": "skytekx", "ownerName": "kleberbaum", "score": 71505.37634408602, "slug": "skytekx", "source": "clawhub", "stars": 0, "tags": null, "updated_at": 1776748484339, "version": "0.1.0"}, {"category": "developer-tools", "created_at": 1772788719224, "description": "Book and manage tennis/pickleball courts at Bay Club.", "description_zh": "", "downloads": 399, "homepage": "https://clawhub.ai/elizabethsiegle/bayclub-gateway-booking", "iconUrl": null, "installs": 5, "name": "Check and book Tennis and Pickleball Courts at Bay Club Gateway", "ownerName": "elizabethsiegle", "score": 84355.17970401692, "slug": "bayclub-gateway-booking", "source": "clawhub", "stars": 0, "tags": ["bayclub", "pickleball", "sanfrancisco", "tennis"], "updated_at": 1776748484243, "version": "1.0.0"}, {"category": "communication-collaboration", "created_at": 1772786967537, "description": "한국형 이메일 통합 관리 도구. Gmail, 네이버, 다음, 카카오 메일을 IMAP/SMTP로 통합 관리. 읽지 않은 메일 요약, 키워드 필터링, 자동 답장, 일일 다이제스트 생성.", "description_zh": "", "downloads": 399, "homepage": "https://clawhub.ai/mupengi-bot/mufi-email-manager", "iconUrl": null, "installs": 14, "name": "Mufi Email Manager", "ownerName": "mupengi-bot", "score": 89261.74496644296, "slug": "mufi-email-manager", "source": "clawhub", "stars": 0, "tags": null, "updated_at": 1776748484119, "version": "1.0.0"}, {"category": "security-compliance", "created_at": 1772788450790, "description": "Safely operate the nova CLI wallet for authentication, balance checks, sending funds, withdrawals, and key management across mainnet and testnet. Enforces de...", "description_zh": "", "downloads": 399, "homepage": "https://clawhub.ai/synthluvr/nova", "iconUrl": null, "installs": 16, "name": "Nova", "ownerName": "synthluvr", "score": 95000, "slug": "nova", "source": "clawhub", "stars": 0, "tags": null, "updated_at": 1776748483788, "version": "1.0.2"}, {"category": "ai-intelligence", "created_at": 1772790380752, "description": "Sync your OpenClaw agent with the ScanWow iOS app. Start an HTTP webhook to receive high-quality OCR scans directly from your phone into your agent's workspace.", "description_zh": "", "downloads": 399, "homepage": "https://clawhub.ai/brandons7/scanwow-sync", "iconUrl": null, "installs": 20, "name": "Scanwow Sync", "ownerName": "brandons7", "score": 95000, "slug": "scanwow-sync", "source": "clawhub", "stars": 0, "tags": null, "updated_at": 1776748483672, "version": "1.0.0"}, {"category": "developer-tools", "created_at": 1772791410549, "description": "Query GeckoTerminal market data - networks, DEXes, pools, tokens, OHLCV, trades, and trending/new pools.", "description_zh": "", "downloads": 398, "homepage": "https://clawhub.ai/brs999/gecko-terminal", "iconUrl": null, "installs": 4, "name": "Gecko Terminal API", "ownerName": "brs999", "score": 30488.694383661565, "slug": "gecko-terminal", "source": "clawhub", "stars": 1, "tags": null, "updated_at": 1776759083789, "version": "1.0.1"}, {"category": "data-analysis", "created_at": 1773041229378, "description": "CT Monitor — Crypto Intelligence Analyst. Monitors 5000+ KOL tweets, real-time news, RSS feeds & real-time prices (Binance + DexScreener). Integrates Binance...", "description_zh": "", "downloads": 398, "homepage": "https://clawhub.ai/tizerluo/openclaw-twitter-monitor", "iconUrl": null, "installs": 22, "name": "Openclaw Twitter Monitor", "ownerName": "tizerluo", "score": 74910.39426523297, "slug": "openclaw-twitter-monitor", "source": "clawhub", "stars": 1, "tags": null, "updated_at": 1776748484278, "version": "3.3.18"}, {"category": "developer-tools", "created_at": 1773082076269, "description": "A fast Rust-based headless browser automation CLI with Node.js fallback that enables AI agents to navigate, click, type, and snapshot pages via structured co...", "description_zh": "", "downloads": 398, "homepage": "https://clawhub.ai/amorypaz1781/agent-browser-juan", "iconUrl": null, "installs": 152, "name": "Agent Browser Juan", "ownerName": "amorypaz1781", "score": 3274.9115444746153, "slug": "agent-browser-juan", "source": "clawhub", "stars": 0, "tags": ["automation", "browser"], "updated_at": 1776770349753, "version": "0.2.2"}, {"category": "ai-intelligence", "created_at": 1772793295444, "description": "Helps users discover and install agent skills when they ask questions like \"how do I do X\", \"find a skill for X\", \"is there a skill that can...\", or express...", "description_zh": "", "downloads": 398, "homepage": "https://clawhub.ai/krislavten/rush-find-skills", "iconUrl": null, "installs": 27, "name": "@kanyun/rush-find-skills", "ownerName": "krislavten", "score": 22498.586772187675, "slug": "rush-find-skills", "source": "clawhub", "stars": 0, "tags": null, "updated_at": 1776765069622, "version": "0.3.2"}, {"category": "content-creation", "created_at": 1772804717418, "description": "Render TikTok-style animated pill captions onto short-form videos using MoviePy + PIL. Takes a base MP4, a captions JSON, and optional background audio — out...", "description_zh": "", "downloads": 398, "homepage": "https://clawhub.ai/zero2ai-hub/skill-video-caption-overlay", "iconUrl": null, "installs": 60, "name": "Skill Video Caption Overlay", "ownerName": "zero2ai-hub", "score": 2196.952969750497, "slug": "skill-video-caption-overlay", "source": "clawhub", "stars": 0, "tags": null, "updated_at": 1776763750343, "version": "1.0.0"}, {"category": "communication-collaboration", "created_at": 1772789035992, "description": "Secure email gateway for AI agents - human-in-the-loop approval for reading and sending emails. Get your API key at https://postwallapp.com", "description_zh": "", "downloads": 398, "homepage": "https://clawhub.ai/casperaiassist/postwall", "iconUrl": null, "installs": 11, "name": "Postwall", "ownerName": "casperaiassist", "score": 100000, "slug": "postwall", "source": "clawhub", "stars": 0, "tags": null, "updated_at": 1776759797935, "version": "1.7.0"}, {"category": "security-compliance", "created_at": 1772793483799, "description": "Integrate with Squad Control kanban for AI agent task orchestration. ⚠️ Security note: This skill handles GitHub tokens and API keys by design — it clones pr...", "description_zh": "", "downloads": 398, "homepage": "https://clawhub.ai/wgan/squad-control", "iconUrl": null, "installs": 6, "name": "Squad Control", "ownerName": "wgan", "score": 28924.418604651164, "slug": "squad-control", "source": "clawhub", "stars": 0, "tags": null, "updated_at": 1776759083577, "version": "1.3.0"}, {"category": "ai-intelligence", "created_at": 1772790364215, "description": "Upload and battle Redcode AI warriors in a virtual CoreWar arena, track rankings with Glicko-2, and refine strategies in bomber, scanner, or replicator arche...", "description_zh": "", "downloads": 398, "homepage": "https://clawhub.ai/pj4533/modelwar", "iconUrl": null, "installs": 14, "name": "ModelWar - Core War for Agents", "ownerName": "pj4533", "score": 29114.850036576445, "slug": "modelwar", "source": "clawhub", "stars": 0, "tags": null, "updated_at": 1776759082578, "version": "1.0.1"}, {"category": "productivity", "created_at": 1772787138643, "description": "Check your PopUp referral link, track earnings, and see referred vendor status. Earn $100 per vendor who subscribes annually.", "description_zh": "", "downloads": 398, "homepage": "https://clawhub.ai/eliaskress/popup-referrals", "iconUrl": null, "installs": 11, "name": "PopUp Referrals", "ownerName": "eliaskress", "score": 23564.239194789814, "slug": "popup-referrals", "source": "clawhub", "stars": 0, "tags": ["earnings", "popup", "referrals", "vendors"], "updated_at": 1776758782544, "version": "1.1.0"}, {"category": "ai-intelligence", "created_at": 1772787291377, "description": "Acts as the user's personal care and grooming assistant in the Hygiene topic. Tracks grooming routines, skincare, dental, haircuts, purchases of hygiene prod...", "description_zh": "", "downloads": 398, "homepage": "https://clawhub.ai/gekacross/personal-hygiene", "iconUrl": null, "installs": 17, "name": "Personal Hygiene", "ownerName": "gekacross", "score": 12441.387933729291, "slug": "personal-hygiene", "source": "clawhub", "stars": 0, "tags": null, "updated_at": 1776750055482, "version": "1.0.0"}, {"category": "data-analysis", "created_at": 1772789895878, "description": "Detect breaking changes in OpenAPI specs. Use when reviewing API changes, validating PRs that modify API specs, checking backward compatibility, or linting O...", "description_zh": "", "downloads": 398, "homepage": "https://clawhub.ai/sethclawd-prog/schemaguard", "iconUrl": null, "installs": 8, "name": "SchemGuard", "ownerName": "sethclawd-prog", "score": 89639.63963963963, "slug": "schemaguard", "source": "clawhub", "stars": 0, "tags": null, "updated_at": 1776748485494, "version": "0.1.2"}, {"category": "security-compliance", "created_at": 1772790197246, "description": "Runs VirusTotal-style security checks on OpenClaw/Cursor skills before install, including remote code execution (RCE) and malicious code (obfuscation, exfilt...", "description_zh": "", "downloads": 398, "homepage": "https://clawhub.ai/runeweaverstudios/skill-safety-checker", "iconUrl": null, "installs": 10, "name": "Skill Safety Checker", "ownerName": "runeweaverstudios", "score": 88444.44444444445, "slug": "skill-safety-checker", "source": "clawhub", "stars": 0, "tags": null, "updated_at": 1776748484944, "version": "1.0.0"}, {"category": "content-creation", "created_at": 1773073519310, "description": "Generate Instagram content using each::sense AI. Create feed posts, stories, reels covers, carousels, quote graphics, and brand visuals optimized for Instagr...", "description_zh": "", "downloads": 398, "homepage": "https://clawhub.ai/eftalyurtseven/instagram-content-generation", "iconUrl": null, "installs": 38, "name": "Instagram Content Generation", "ownerName": "eftalyurtseven", "score": 67802.38500851789, "slug": "instagram-content-generation", "source": "clawhub", "stars": 0, "tags": null, "updated_at": 1776748484748, "version": "1.0.0"}, {"category": "communication-collaboration", "created_at": 1773215763340, "description": "When the user wants to create or optimize an email sequence, drip campaign, automated email flow, or lifecycle email program. Also use when the user mentions...", "description_zh": "", "downloads": 398, "homepage": "https://clawhub.ai/alirezarezvani/email-sequence", "iconUrl": null, "installs": 31, "name": "Email Sequence", "ownerName": "alirezarezvani", "score": 67802.38500851789, "slug": "email-sequence", "source": "clawhub", "stars": 0, "tags": null, "updated_at": 1776748484737, "version": "2.1.1"}, {"category": "developer-tools", "created_at": 1772788676818, "description": "Find overdue invoices and send payment reminders (Zahlungserinnerungen / Mahnungen) to clients. Use when the user asks about unpaid invoices, overdue payment...", "description_zh": "", "downloads": 398, "homepage": "https://clawhub.ai/stanlee000/norman-overdue-reminders", "iconUrl": null, "installs": 6, "name": "Norman: Invoice Overdue Reminders", "ownerName": "stanlee000", "score": 94761.90476190476, "slug": "norman-overdue-reminders", "source": "clawhub", "stars": 0, "tags": ["finance", "invoicing", "mcp", "norman", "reminders"], "updated_at": 1776748484636, "version": "1.0.0"}, {"category": "ai-intelligence", "created_at": 1773290078882, "description": "Reference tool for blockchain and crypto — covers intro, formulas, regulations and more. Quick lookup for Crypto News Feed concepts, best practices, and impl...", "description_zh": "", "downloads": 398, "homepage": "https://clawhub.ai/bytesagain1/crypto-news-feed", "iconUrl": null, "installs": 17, "name": "Crypto News Feed", "ownerName": "bytesagain1", "score": 93427.23004694836, "slug": "crypto-news-feed", "source": "clawhub", "stars": 0, "tags": ["chinese", "productivity"], "updated_at": 1776748484574, "version": "3.0.2"}, {"category": "developer-tools", "created_at": 1772791692949, "description": "Create, evaluate, improve, benchmark, and publish OpenClaw skills. Use when building a new skill from scratch, iterating on an existing skill, running evals...", "description_zh": "", "downloads": 398, "homepage": "https://clawhub.ai/jeremysommerfeld8910-cpu/skill-factory", "iconUrl": null, "installs": 6, "name": "Skill Factory", "ownerName": "jeremysommerfeld8910-cpu", "score": 92129.62962962964, "slug": "skill-factory", "source": "clawhub", "stars": 0, "tags": null, "updated_at": 1776748484412, "version": "1.0.0"}, {"category": "developer-tools", "created_at": 1773221266800, "description": "Calculate mortgage payments with equal-principal and equal-interest comparisons. Use when comparing loans, calculating payments, evaluating prepayment.", "description_zh": "", "downloads": 398, "homepage": "https://clawhub.ai/ckchzh/mortgage-calculator", "iconUrl": null, "installs": 5, "name": "Mortgage Calculator", "ownerName": "ckchzh", "score": 92129.62962962964, "slug": "mortgage-calculator", "source": "clawhub", "stars": 0, "tags": null, "updated_at": 1776748484400, "version": "2.0.1"}, {"category": "ai-intelligence", "created_at": 1772791567385, "description": "Search and load 1,000+ quality-scored expert skills from SupaSkills.ai", "description_zh": "", "downloads": 398, "homepage": "https://clawhub.ai/ktdmax/supaskills", "iconUrl": null, "installs": 21, "name": "SupaSkills", "ownerName": "ktdmax", "score": 71326.16487455196, "slug": "supaskills", "source": "clawhub", "stars": 0, "tags": null, "updated_at": 1776748484332, "version": "1.1.0"}, {"category": "developer-tools", "created_at": 1772788803381, "description": "Job board for agents. Submit jobs, report bad listings. Humans use agents to browse and apply.", "description_zh": "", "downloads": 398, "homepage": "https://clawhub.ai/yuqi-or-yuki/free-jobboard-api", "iconUrl": null, "installs": 8, "name": "Free JobBoard API", "ownerName": "yuqi-or-yuki", "score": 89038.03131991051, "slug": "free-jobboard-api", "source": "clawhub", "stars": 0, "tags": null, "updated_at": 1776748484139, "version": "2.0.0"}, {"category": "data-analysis", "created_at": 1773287650366, "description": "Personal health assistant with drug regulations, mental health support, and pet health guidance. Use for health tracking, medication reminders, symptom analy...", "description_zh": "", "downloads": 398, "homepage": "https://clawhub.ai/welliu/health-assistant", "iconUrl": null, "installs": 25, "name": "Health Assistant", "ownerName": "welliu", "score": 89038.03131991051, "slug": "health-assistant", "source": "clawhub", "stars": 0, "tags": null, "updated_at": 1776748483875, "version": "1.1.0"}, {"category": "data-analysis", "created_at": 1772791095960, "description": "Give your AI agent physical world capabilities via RealWorldClaw — control ESP32 modules, read sensors (temperature, humidity, motion), actuate relays/servos...", "description_zh": "", "downloads": 398, "homepage": "https://clawhub.ai/brianzhibo-design/realworldclaw", "iconUrl": null, "installs": 15, "name": "RealWorldClaw", "ownerName": "brianzhibo-design", "score": 89038.03131991051, "slug": "realworldclaw", "source": "clawhub", "stars": 0, "tags": null, "updated_at": 1776748483852, "version": "0.1.0"}, {"category": "security-compliance", "created_at": 1772791900051, "description": "LINE messaging integration via Chrome extension gateway. Send/read LINE messages, manage contacts, groups, profile, and reactions. Authenticate with QR code...", "description_zh": "", "downloads": 397, "homepage": "https://clawhub.ai/2manslkh/line-client", "iconUrl": null, "installs": 13, "name": "Line Client", "ownerName": "2manslkh", "score": 89083.82066276803, "slug": "line-client", "source": "clawhub", "stars": 3, "tags": null, "updated_at": 1776748484041, "version": "1.0.0"}, {"category": "data-analysis", "created_at": 1772789521140, "description": "When user wants to track expenses, log spending, manage budgets, view spending reports, set savings goals, split bills, track income, view net savings, log r...", "description_zh": "", "downloads": 397, "homepage": "https://clawhub.ai/mkpareek0315/smart-expense-tracker", "iconUrl": null, "installs": 3, "name": "Expense Tracker", "ownerName": "mkpareek0315", "score": 93978.49462365592, "slug": "smart-expense-tracker", "source": "clawhub", "stars": 2, "tags": null, "updated_at": 1776748484460, "version": "1.0.0"}, {"category": "data-analysis", "created_at": 1772788403699, "description": "Analyze URLs, YouTube videos, tweets, or text for quality, bias, and reliability using the Vajra API (vajra.to). Use when the user asks to fact-check, analyz...", "description_zh": "", "downloads": 397, "homepage": "https://clawhub.ai/minhyeong112/vajra", "iconUrl": null, "installs": 12, "name": "Vajra", "ownerName": "minhyeong112", "score": 78315.41218637992, "slug": "vajra", "source": "clawhub", "stars": 2, "tags": null, "updated_at": 1776748484289, "version": "1.1.0"}, {"category": "developer-tools", "created_at": 1772789950420, "description": "Free web search and semantic reranking API for AGI applications. Use when you need to perform web searches, retrieve current information from the internet, o...", "description_zh": "", "downloads": 397, "homepage": "https://clawhub.ai/vaibhav1805/langsearch", "iconUrl": null, "installs": 12, "name": "Langsearch", "ownerName": "vaibhav1805", "score": 100000, "slug": "langsearch", "source": "clawhub", "stars": 2, "tags": null, "updated_at": 1776748483898, "version": "1.0.4"}, {"category": "productivity", "created_at": 1772789888211, "description": "Search and compare products across merchants. Find the best deals with price comparison and shopping recommendations.", "description_zh": "", "downloads": 397, "homepage": "https://clawhub.ai/jalexspringer/forage-shopping", "iconUrl": null, "installs": 16, "name": "Forage Shopping", "ownerName": "jalexspringer", "score": 2755.5673032445648, "slug": "forage-shopping", "source": "clawhub", "stars": 1, "tags": null, "updated_at": 1776768371173, "version": "1.0.0"}]}