{"page": 21, "total_pages": 22, "total": 1089, "skills": [{"slug": "trailofbits-audit-context-building", "name": "trailofbits/audit-context-building", "description": "Deep architectural context via ultra-granular code analysis", "description_zh": "", "homepage": "https://officialskills.sh/trailofbits/skills/audit-context-building", "tags": ["Skills by Typefully"], "category": "Skills by Typefully", "ownerName": "", "sources": ["VoltAgent/awesome-agent-skills"], "score": 100, "downloads": 0, "stars": 0, "installs": 0, "version": "", "updated_at": 0}, {"slug": "trailofbits-building-secure-contracts", "name": "trailofbits/building-secure-contracts", "description": "Smart contract security toolkit with vulnerability scanners for 6 blockchains", "description_zh": "", "homepage": "https://officialskills.sh/trailofbits/skills/building-secure-contracts", "tags": ["Skills by Typefully"], "category": "Skills by Typefully", "ownerName": "", "sources": ["VoltAgent/awesome-agent-skills"], "score": 100, "downloads": 0, "stars": 0, "installs": 0, "version": "", "updated_at": 0}, {"slug": "trailofbits-burpsuite-project-parser", "name": "trailofbits/burpsuite-project-parser", "description": "Search and extract data from Burp Suite project files", "description_zh": "", "homepage": "https://officialskills.sh/trailofbits/skills/burpsuite-project-parser", "tags": ["Skills by Typefully"], "category": "Skills by Typefully", "ownerName": "", "sources": ["VoltAgent/awesome-agent-skills"], "score": 100, "downloads": 0, "stars": 0, "installs": 0, "version": "", "updated_at": 0}, {"slug": "trailofbits-claude-in-chrome-troubleshooting", "name": "trailofbits/claude-in-chrome-troubleshooting", "description": "Diagnose and fix Claude in Chrome MCP extension connectivity issues", "description_zh": "", "homepage": "https://officialskills.sh/trailofbits/skills/claude-in-chrome-troubleshooting", "tags": ["Skills by Typefully"], "category": "Skills by Typefully", "ownerName": "", "sources": ["VoltAgent/awesome-agent-skills"], "score": 100, "downloads": 0, "stars": 0, "installs": 0, "version": "", "updated_at": 0}, {"slug": "trailofbits-constant-time-analysis", "name": "trailofbits/constant-time-analysis", "description": "Detect compiler-induced timing side-channels in crypto code", "description_zh": "", "homepage": "https://officialskills.sh/trailofbits/skills/constant-time-analysis", "tags": ["Skills by Typefully"], "category": "Skills by Typefully", "ownerName": "", "sources": ["VoltAgent/awesome-agent-skills"], "score": 100, "downloads": 0, "stars": 0, "installs": 0, "version": "", "updated_at": 0}, {"slug": "trailofbits-culture-index", "name": "trailofbits/culture-index", "description": "Index and search culture documentation", "description_zh": "", "homepage": "https://officialskills.sh/trailofbits/skills/culture-index", "tags": ["Skills by Typefully"], "category": "Skills by Typefully", "ownerName": "", "sources": ["VoltAgent/awesome-agent-skills"], "score": 100, "downloads": 0, "stars": 0, "installs": 0, "version": "", "updated_at": 0}, {"slug": "trailofbits-differential-review", "name": "trailofbits/differential-review", "description": "Security-focused diff review with git history analysis", "description_zh": "", "homepage": "https://officialskills.sh/trailofbits/skills/differential-review", "tags": ["Skills by Typefully"], "category": "Skills by Typefully", "ownerName": "", "sources": ["VoltAgent/awesome-agent-skills"], "score": 100, "downloads": 0, "stars": 0, "installs": 0, "version": "", "updated_at": 0}, {"slug": "trailofbits-dwarf-expert", "name": "trailofbits/dwarf-expert", "description": "DWARF debugging format expertise", "description_zh": "", "homepage": "https://officialskills.sh/trailofbits/skills/dwarf-expert", "tags": ["Skills by Typefully"], "category": "Skills by Typefully", "ownerName": "", "sources": ["VoltAgent/awesome-agent-skills"], "score": 100, "downloads": 0, "stars": 0, "installs": 0, "version": "", "updated_at": 0}, {"slug": "trailofbits-entry-point-analyzer", "name": "trailofbits/entry-point-analyzer", "description": "Identify state-changing entry points in smart contracts", "description_zh": "", "homepage": "https://officialskills.sh/trailofbits/skills/entry-point-analyzer", "tags": ["Skills by Typefully"], "category": "Skills by Typefully", "ownerName": "", "sources": ["VoltAgent/awesome-agent-skills"], "score": 100, "downloads": 0, "stars": 0, "installs": 0, "version": "", "updated_at": 0}, {"slug": "trailofbits-firebase-apk-scanner", "name": "trailofbits/firebase-apk-scanner", "description": "Scan Android APKs for Firebase misconfigurations and security vulnerabilities", "description_zh": "", "homepage": "https://officialskills.sh/trailofbits/skills/firebase-apk-scanner", "tags": ["Skills by Typefully"], "category": "Skills by Typefully", "ownerName": "", "sources": ["VoltAgent/awesome-agent-skills"], "score": 100, "downloads": 0, "stars": 0, "installs": 0, "version": "", "updated_at": 0}, {"slug": "trailofbits-insecure-defaults", "name": "trailofbits/insecure-defaults", "description": "Detect insecure default configurations like hardcoded secrets, default credentials, and weak crypto", "description_zh": "", "homepage": "https://officialskills.sh/trailofbits/skills/insecure-defaults", "tags": ["Skills by Typefully"], "category": "Skills by Typefully", "ownerName": "", "sources": ["VoltAgent/awesome-agent-skills"], "score": 100, "downloads": 0, "stars": 0, "installs": 0, "version": "", "updated_at": 0}, {"slug": "trailofbits-modern-python", "name": "trailofbits/modern-python", "description": "Modern Python tooling with uv, ruff, ty, and pytest best practices", "description_zh": "", "homepage": "https://officialskills.sh/trailofbits/skills/modern-python", "tags": ["Skills by Typefully"], "category": "Skills by Typefully", "ownerName": "", "sources": ["VoltAgent/awesome-agent-skills"], "score": 100, "downloads": 0, "stars": 0, "installs": 0, "version": "", "updated_at": 0}, {"slug": "trailofbits-property-based-testing", "name": "trailofbits/property-based-testing", "description": "Property-based testing for multiple languages and smart contracts", "description_zh": "", "homepage": "https://officialskills.sh/trailofbits/skills/property-based-testing", "tags": ["Skills by Typefully"], "category": "Skills by Typefully", "ownerName": "", "sources": ["VoltAgent/awesome-agent-skills"], "score": 100, "downloads": 0, "stars": 0, "installs": 0, "version": "", "updated_at": 0}, {"slug": "trailofbits-semgrep-rule-creator", "name": "trailofbits/semgrep-rule-creator", "description": "Create and refine Semgrep rules for vulnerability detection", "description_zh": "", "homepage": "https://officialskills.sh/trailofbits/skills/semgrep-rule-creator", "tags": ["Skills by Typefully"], "category": "Skills by Typefully", "ownerName": "", "sources": ["VoltAgent/awesome-agent-skills"], "score": 100, "downloads": 0, "stars": 0, "installs": 0, "version": "", "updated_at": 0}, {"slug": "trailofbits-semgrep-rule-variant-creator", "name": "trailofbits/semgrep-rule-variant-creator", "description": "Port existing Semgrep rules to new target languages with test-driven validation", "description_zh": "", "homepage": "https://officialskills.sh/trailofbits/skills/semgrep-rule-variant-creator", "tags": ["Skills by Typefully"], "category": "Skills by Typefully", "ownerName": "", "sources": ["VoltAgent/awesome-agent-skills"], "score": 100, "downloads": 0, "stars": 0, "installs": 0, "version": "", "updated_at": 0}, {"slug": "trailofbits-sharp-edges", "name": "trailofbits/sharp-edges", "description": "Identify error-prone APIs and dangerous configurations", "description_zh": "", "homepage": "https://officialskills.sh/trailofbits/skills/sharp-edges", "tags": ["Skills by Typefully"], "category": "Skills by Typefully", "ownerName": "", "sources": ["VoltAgent/awesome-agent-skills"], "score": 100, "downloads": 0, "stars": 0, "installs": 0, "version": "", "updated_at": 0}, {"slug": "trailofbits-spec-to-code-compliance", "name": "trailofbits/spec-to-code-compliance", "description": "Specification-to-code compliance checker for blockchain audits", "description_zh": "", "homepage": "https://officialskills.sh/trailofbits/skills/spec-to-code-compliance", "tags": ["Skills by Typefully"], "category": "Skills by Typefully", "ownerName": "", "sources": ["VoltAgent/awesome-agent-skills"], "score": 100, "downloads": 0, "stars": 0, "installs": 0, "version": "", "updated_at": 0}, {"slug": "trailofbits-static-analysis", "name": "trailofbits/static-analysis", "description": "Static analysis toolkit with CodeQL, Semgrep, and SARIF", "description_zh": "", "homepage": "https://officialskills.sh/trailofbits/skills/static-analysis", "tags": ["Skills by Typefully"], "category": "Skills by Typefully", "ownerName": "", "sources": ["VoltAgent/awesome-agent-skills"], "score": 100, "downloads": 0, "stars": 0, "installs": 0, "version": "", "updated_at": 0}, {"slug": "trailofbits-testing-handbook-skills", "name": "trailofbits/testing-handbook-skills", "description": "Testing Handbook skills: fuzzers, static analysis, sanitizers", "description_zh": "", "homepage": "https://officialskills.sh/trailofbits/skills/testing-handbook-skills", "tags": ["Skills by Typefully"], "category": "Skills by Typefully", "ownerName": "", "sources": ["VoltAgent/awesome-agent-skills"], "score": 100, "downloads": 0, "stars": 0, "installs": 0, "version": "", "updated_at": 0}, {"slug": "trailofbits-variant-analysis", "name": "trailofbits/variant-analysis", "description": "Find similar vulnerabilities via pattern-based analysis", "description_zh": "", "homepage": "https://officialskills.sh/trailofbits/skills/variant-analysis", "tags": ["Skills by Typefully"], "category": "Skills by Typefully", "ownerName": "", "sources": ["VoltAgent/awesome-agent-skills"], "score": 100, "downloads": 0, "stars": 0, "installs": 0, "version": "", "updated_at": 0}, {"slug": "transloadit-skills", "name": "transloadit/skills", "description": "Transloadit skill collection (6)", "description_zh": "", "homepage": "https://github.com/transloadit/skills", "tags": ["Community Skills"], "category": "Community Skills", "ownerName": "transloadit", "sources": ["VoltAgent/awesome-agent-skills"], "score": 100, "downloads": 0, "stars": 0, "installs": 0, "version": "", "updated_at": 0}, {"slug": "travisvn-awesome-claude-skills", "name": "travisvn/awesome-claude-skills", "description": "Loki Mode and Playwright integration.", "description_zh": "", "homepage": "https://github.com/travisvn/awesome-claude-skills", "tags": ["Community Contributors"], "category": "Community Contributors", "ownerName": "travisvn", "sources": ["sickn33/antigravity-awesome-skills"], "score": 100, "downloads": 0, "stars": 0, "installs": 0, "version": "", "updated_at": 0}, {"slug": "trello-automation", "name": "Trello Automation", "description": "Automate Trello: boards, cards, lists, members, and checklists.", "description_zh": "", "homepage": "./trello-automation", "tags": ["App Automation via Composio"], "category": "App Automation via Composio", "ownerName": "", "sources": ["ComposioHQ/awesome-claude-skills"], "score": 100, "downloads": 0, "stars": 0, "installs": 0, "version": "", "updated_at": 0}, {"slug": "truongduy2611-app-store-preflight-skills", "name": "truongduy2611/app-store-preflight-skills", "description": "Scan iOS/macOS projects to catch common mistakes that lead to App Store rejection before submission", "description_zh": "", "homepage": "https://github.com/truongduy2611/app-store-preflight-skills", "tags": ["Community Skills"], "category": "Community Skills", "ownerName": "truongduy2611", "sources": ["VoltAgent/awesome-agent-skills"], "score": 100, "downloads": 0, "stars": 0, "installs": 0, "version": "", "updated_at": 0}, {"slug": "trycourier-courier-skills", "name": "trycourier/courier-skills", "description": "Multi-channel notifications via email, SMS, push, and chat", "description_zh": "", "homepage": "https://github.com/trycourier/courier-skills", "tags": ["Skills by Courier"], "category": "Skills by Courier", "ownerName": "trycourier", "sources": ["VoltAgent/awesome-agent-skills"], "score": 100, "downloads": 0, "stars": 0, "installs": 0, "version": "", "updated_at": 0}, {"slug": "tsilverberg-webapp-uat", "name": "tsilverberg/webapp-uat", "description": "Full browser UAT skill — Playwright testing with console/network error capture, WCAG 2.2 AA accessibility checks, i18n validation, responsive testing, and P0-P3 bug triage. Read-only by default, works with React, Vue, Angular, Ionic, Next.js.", "description_zh": "", "homepage": "https://github.com/tsilverberg/webapp-uat", "tags": ["Community Contributors"], "category": "Community Contributors", "ownerName": "tsilverberg", "sources": ["sickn33/antigravity-awesome-skills"], "score": 100, "downloads": 0, "stars": 0, "installs": 0, "version": "", "updated_at": 0}, {"slug": "twitter-algorithm-optimizer", "name": "Twitter Algorithm Optimizer", "description": "Analyze and optimize tweets for maximum reach using Twitter's open-source algorithm insights. Rewrite and edit tweets to improve engagement and visibility.", "description_zh": "", "homepage": "./twitter-algorithm-optimizer", "tags": ["Communication & Writing"], "category": "Communication & Writing", "ownerName": "", "sources": ["ComposioHQ/awesome-claude-skills"], "score": 100, "downloads": 0, "stars": 0, "installs": 0, "version": "", "updated_at": 0}, {"slug": "twitter-automation", "name": "Twitter Automation", "description": "Automate Twitter/X: tweets, search, users, lists, and engagement.", "description_zh": "", "homepage": "./twitter-automation", "tags": ["App Automation via Composio"], "category": "App Automation via Composio", "ownerName": "", "sources": ["ComposioHQ/awesome-claude-skills"], "score": 100, "downloads": 0, "stars": 0, "installs": 0, "version": "", "updated_at": 0}, {"slug": "typefully-typefully", "name": "typefully/typefully", "description": "Create, schedule, and publish social media content across X, LinkedIn, Threads, Bluesky, and Mastodon", "description_zh": "", "homepage": "https://officialskills.sh/typefully/skills/typefully", "tags": ["Skills by Typefully"], "category": "Skills by Typefully", "ownerName": "", "sources": ["VoltAgent/awesome-agent-skills"], "score": 100, "downloads": 0, "stars": 0, "installs": 0, "version": "", "updated_at": 0}, {"slug": "uberskills", "name": "uberSKILLS", "description": "Design, test, and deploy Claude Code Agent Skills through a visual, AI-assisted workflow.", "description_zh": "", "homepage": "https://github.com/uberskillsdev/uberSKILLS", "tags": ["Community Contributors"], "category": "Community Contributors", "ownerName": "uberskillsdev", "sources": ["sickn33/antigravity-awesome-skills"], "score": 100, "downloads": 0, "stars": 0, "installs": 0, "version": "", "updated_at": 0}, {"slug": "umutbozdag-agent-skills-manager", "name": "umutbozdag/agent-skills-manager", "description": "Source for the manage-skills skill - cross-tool skill discovery, creation, editing, toggling, copying, moving, and deletion workflows across major agent coding tools.", "description_zh": "", "homepage": "https://github.com/umutbozdag/agent-skills-manager", "tags": ["Community Contributors"], "category": "Community Contributors", "ownerName": "umutbozdag", "sources": ["sickn33/antigravity-awesome-skills"], "score": 100, "downloads": 0, "stars": 0, "installs": 0, "version": "", "updated_at": 0}, {"slug": "unity-agent-skills", "name": "unity-agent-skills", "description": "Agent skills set for AI-assisted Unity debugging — structured logging, runtime commands, variable watching, and more.", "description_zh": "", "homepage": "https://github.com/jahro-console/unity-agent-skills", "tags": ["🛠 Development & Code Tools"], "category": "🛠 Development & Code Tools", "ownerName": "jahro-console", "sources": ["BehiSecc/awesome-claude-skills"], "score": 100, "downloads": 0, "stars": 0, "installs": 0, "version": "", "updated_at": 0}, {"slug": "urrhb-agentflow", "name": "UrRhb/agentflow", "description": "Kanban-driven AI development pipeline for orchestrating multi-worker Claude Code workflows with deterministic quality gates, adversarial review, cost tracking, and crash-proof execution (MIT).", "description_zh": "", "homepage": "https://github.com/UrRhb/agentflow", "tags": ["Community Contributors"], "category": "Community Contributors", "ownerName": "UrRhb", "sources": ["sickn33/antigravity-awesome-skills"], "score": 100, "downloads": 0, "stars": 0, "installs": 0, "version": "", "updated_at": 0}, {"slug": "uucz-moyu", "name": "uucz/moyu", "description": "Anti-over-engineering skill with 5 variants and 10 platforms", "description_zh": "", "homepage": "https://github.com/uucz/moyu", "tags": ["Community Skills"], "category": "Community Skills", "ownerName": "uucz", "sources": ["VoltAgent/awesome-agent-skills"], "score": 100, "downloads": 0, "stars": 0, "installs": 0, "version": "", "updated_at": 0}, {"slug": "uxuiprinciples-agent-skills", "name": "uxuiprinciples/agent-skills", "description": "Research-backed UX/UI agent skills for auditing interfaces against 168 principles, detecting antipatterns, and injecting UX context into AI coding sessions.", "description_zh": "", "homepage": "https://github.com/uxuiprinciples/agent-skills", "tags": ["Community Contributors"], "category": "Community Contributors", "ownerName": "uxuiprinciples", "sources": ["sickn33/antigravity-awesome-skills"], "score": 100, "downloads": 0, "stars": 0, "installs": 0, "version": "", "updated_at": 0}, {"slug": "vercel-automation", "name": "Vercel Automation", "description": "Automate Vercel: deployments, projects, domains, environment variables, and logs.", "description_zh": "", "homepage": "./vercel-automation", "tags": ["App Automation via Composio"], "category": "App Automation via Composio", "ownerName": "", "sources": ["ComposioHQ/awesome-claude-skills"], "score": 100, "downloads": 0, "stars": 0, "installs": 0, "version": "", "updated_at": 0}, {"slug": "vercel-labs-agent-skills", "name": "vercel-labs/agent-skills", "description": "Vercel Labs official skills - React Best Practices, Web Design Guidelines.", "description_zh": "", "homepage": "https://github.com/vercel-labs/agent-skills", "tags": ["Official Sources"], "category": "Official Sources", "ownerName": "vercel-labs", "sources": ["sickn33/antigravity-awesome-skills"], "score": 100, "downloads": 0, "stars": 0, "installs": 0, "version": "", "updated_at": 0}, {"slug": "vercel-labs-composition-patterns", "name": "vercel-labs/composition-patterns", "description": "React component composition and reusable patterns", "description_zh": "", "homepage": "https://officialskills.sh/vercel-labs/skills/composition-patterns", "tags": ["Skills by Typefully"], "category": "Skills by Typefully", "ownerName": "", "sources": ["VoltAgent/awesome-agent-skills"], "score": 100, "downloads": 0, "stars": 0, "installs": 0, "version": "", "updated_at": 0}, {"slug": "vercel-labs-next-best-practices", "name": "vercel-labs/next-best-practices", "description": "Next.js best practices and recommended patterns", "description_zh": "", "homepage": "https://officialskills.sh/vercel-labs/skills/next-best-practices", "tags": ["Skills by Typefully"], "category": "Skills by Typefully", "ownerName": "", "sources": ["VoltAgent/awesome-agent-skills"], "score": 100, "downloads": 0, "stars": 0, "installs": 0, "version": "", "updated_at": 0}, {"slug": "vercel-labs-next-cache-components", "name": "vercel-labs/next-cache-components", "description": "Caching strategies and cache-aware components in Next.js", "description_zh": "", "homepage": "https://officialskills.sh/vercel-labs/skills/next-cache-components", "tags": ["Skills by Typefully"], "category": "Skills by Typefully", "ownerName": "", "sources": ["VoltAgent/awesome-agent-skills"], "score": 100, "downloads": 0, "stars": 0, "installs": 0, "version": "", "updated_at": 0}, {"slug": "vercel-labs-next-upgrade", "name": "vercel-labs/next-upgrade", "description": "Upgrade Next.js projects to newer versions", "description_zh": "", "homepage": "https://officialskills.sh/vercel-labs/skills/next-upgrade", "tags": ["Skills by Typefully"], "category": "Skills by Typefully", "ownerName": "", "sources": ["VoltAgent/awesome-agent-skills"], "score": 100, "downloads": 0, "stars": 0, "installs": 0, "version": "", "updated_at": 0}, {"slug": "vercel-labs-react-best-practices", "name": "vercel-labs/react-best-practices", "description": "React best practices and patterns", "description_zh": "", "homepage": "https://officialskills.sh/vercel-labs/skills/react-best-practices", "tags": ["Skills by Typefully"], "category": "Skills by Typefully", "ownerName": "", "sources": ["VoltAgent/awesome-agent-skills"], "score": 100, "downloads": 0, "stars": 0, "installs": 0, "version": "", "updated_at": 0}, {"slug": "vercel-labs-react-native-skills", "name": "vercel-labs/react-native-skills", "description": "React Native best practices and performance guidelines", "description_zh": "", "homepage": "https://officialskills.sh/vercel-labs/skills/react-native-skills", "tags": ["Skills by Typefully"], "category": "Skills by Typefully", "ownerName": "", "sources": ["VoltAgent/awesome-agent-skills"], "score": 100, "downloads": 0, "stars": 0, "installs": 0, "version": "", "updated_at": 0}, {"slug": "vercel-labs-web-design-guidelines", "name": "vercel-labs/web-design-guidelines", "description": "Web design guidelines and standards", "description_zh": "", "homepage": "https://officialskills.sh/vercel-labs/skills/web-design-guidelines", "tags": ["Skills by Typefully"], "category": "Skills by Typefully", "ownerName": "", "sources": ["VoltAgent/awesome-agent-skills"], "score": 100, "downloads": 0, "stars": 0, "installs": 0, "version": "", "updated_at": 0}, {"slug": "vibeforge1111-vibeship-spawner-skills", "name": "vibeforge1111/vibeship-spawner-skills", "description": "AI agents, integrations, maker tools, and other production-grade skill packs.", "description_zh": "", "homepage": "https://github.com/vibeforge1111/vibeship-spawner-skills", "tags": ["Community Contributors"], "category": "Community Contributors", "ownerName": "vibeforge1111", "sources": ["sickn33/antigravity-awesome-skills"], "score": 100, "downloads": 0, "stars": 0, "installs": 0, "version": "", "updated_at": 0}, {"slug": "video-downloader", "name": "Video Downloader", "description": "Downloads videos from YouTube and other platforms for offline viewing, editing, or archival with support for various formats and quality options.", "description_zh": "", "homepage": "./video-downloader", "tags": ["Creative & Media"], "category": "Creative & Media", "ownerName": "", "sources": ["ComposioHQ/awesome-claude-skills"], "score": 100, "downloads": 0, "stars": 0, "installs": 0, "version": "", "updated_at": 0}, {"slug": "video-prompting-skill", "name": "video-prompting-skill", "description": "Draft and refine prompts for video generation models (LTX-2, Sora, Veo 3, etc.)", "description_zh": "", "homepage": "https://github.com/Square-Zero-Labs/video-prompting-skill", "tags": ["🎬 Media & Content"], "category": "🎬 Media & Content", "ownerName": "Square-Zero-Labs", "sources": ["BehiSecc/awesome-claude-skills"], "score": 100, "downloads": 0, "stars": 0, "installs": 0, "version": "", "updated_at": 0}, {"slug": "voidborne-d-humanize-chinese", "name": "voidborne-d/humanize-chinese", "description": "Chinese AI-text detection and humanization toolkit for scoring, rewriting, academic AIGC reduction, and style conversion workflows.", "description_zh": "", "homepage": "https://github.com/voidborne-d/humanize-chinese", "tags": ["Community Contributors"], "category": "Community Contributors", "ownerName": "voidborne-d", "sources": ["sickn33/antigravity-awesome-skills"], "score": 100, "downloads": 0, "stars": 0, "installs": 0, "version": "", "updated_at": 0}, {"slug": "voltagent-awesome-agent-skills", "name": "VoltAgent/awesome-agent-skills", "description": "Curated collection of 1000+ official and community agent skills from leading development teams (MIT).", "description_zh": "", "homepage": "https://github.com/VoltAgent/awesome-agent-skills", "tags": ["Community Contributors"], "category": "Community Contributors", "ownerName": "VoltAgent", "sources": ["sickn33/antigravity-awesome-skills"], "score": 100, "downloads": 0, "stars": 0, "installs": 0, "version": "", "updated_at": 0}, {"slug": "voltagent-create-voltagent", "name": "voltagent/create-voltagent", "description": "Project setup guide with CLI and manual steps", "description_zh": "", "homepage": "https://officialskills.sh/voltagent/skills/create-voltagent", "tags": ["Skills by VoltAgent"], "category": "Skills by VoltAgent", "ownerName": "", "sources": ["VoltAgent/awesome-agent-skills"], "score": 100, "downloads": 0, "stars": 0, "installs": 0, "version": "", "updated_at": 0}]}