{"page": 210, "total_pages": 522, "total": 26073, "skills": [{"category": "data-analysis", "created_at": 1773913812242, "description": "Le campanhas, conjuntos, anuncios e criativos no Meta Ads para diagnostico, relatorios e recomendacoes operacionais usando somente o MCP brijr/meta-mcp.", "description_zh": "", "downloads": 397, "homepage": "https://clawhub.ai/moskoweb/meta-ads-analytics", "iconUrl": null, "installs": 12, "name": "Meta Ads Analytics", "ownerName": "moskoweb", "score": 8120.269993863775, "slug": "meta-ads-analytics", "source": "clawhub", "stars": 0, "tags": null, "updated_at": 1776763750540, "version": "1.0.0"}, {"category": "productivity", "created_at": 1772790741086, "description": "Run or supervise a one-pass Codex implementation with preflight gates, stepwise plan execution, and strict QA defect loop. Use when executing approved presal...", "description_zh": "", "downloads": 397, "homepage": "https://clawhub.ai/dtsiomo/presale-one-pass-orchestrator", "iconUrl": null, "installs": 8, "name": "Presale One-pass Orchestrator", "ownerName": "dtsiomo", "score": 5219.563502498027, "slug": "presale-one-pass-orchestrator", "source": "clawhub", "stars": 0, "tags": ["latest presale"], "updated_at": 1776761839815, "version": "0.1.0"}, {"category": "productivity", "created_at": 1773425699873, "description": "Reference tool for business — covers intro, quickstart, patterns and more. Quick lookup for Trademark Helper concepts, best practices, and implementation pat...", "description_zh": "", "downloads": 397, "homepage": "https://clawhub.ai/ckchzh/trademark-helper", "iconUrl": null, "installs": 11, "name": "Trademark Helper", "ownerName": "ckchzh", "score": 12507.876496534342, "slug": "trademark-helper", "source": "clawhub", "stars": 0, "tags": ["productivity"], "updated_at": 1776761414977, "version": "4.0.1"}, {"category": "data-analysis", "created_at": 1772789965458, "description": "Provides best practices and code patterns for building, scaling, and operating production Stripe payment systems from checkout to enterprise billing.", "description_zh": "", "downloads": 397, "homepage": "https://clawhub.ai/1kalin/afrexai-stripe-production", "iconUrl": null, "installs": 16, "name": "Stripe Production Engineering", "ownerName": "1kalin", "score": 24119.076549210207, "slug": "afrexai-stripe-production", "source": "clawhub", "stars": 0, "tags": ["afrexai", "billing", "payments", "saas", "stripe", "subscriptions", "webhooks"], "updated_at": 1776759083837, "version": "1.0.0"}, {"category": "developer-tools", "created_at": 1773080996508, "description": "Obsidian CLI enables managing Obsidian vaults via command line, supporting note creation, search, move with wiki link update, delete, frontmatter edit, daily...", "description_zh": "", "downloads": 397, "homepage": "https://clawhub.ai/0x-cryptopriest/obsidian-cli-skills", "iconUrl": null, "installs": 41, "name": "obsidian-cli-skills", "ownerName": "0x-cryptopriest", "score": 29298.892988929885, "slug": "obsidian-cli-skills", "source": "clawhub", "stars": 0, "tags": null, "updated_at": 1776759082501, "version": "1.0.0"}, {"category": "data-analysis", "created_at": 1773900170552, "description": "Standardized data analysis workflow integrating data-analysis, statistical-analysis, scientific-visualization and other skills. Provides complete data analys...", "description_zh": "", "downloads": 397, "homepage": "https://clawhub.ai/earthwalking/data-analysis-workflow", "iconUrl": null, "installs": 97, "name": "Data Analysis Workflow", "ownerName": "earthwalking", "score": 26608.57908847185, "slug": "data-analysis-workflow", "source": "clawhub", "stars": 0, "tags": null, "updated_at": 1776757920627, "version": "1.0.0"}, {"category": "productivity", "created_at": 1772790068767, "description": "Find cheapest reliable subscription offers from Plati using the local MCP server. Use when users ask for best price options, reliable sellers, PRO/Plus subsc...", "description_zh": "", "downloads": 397, "homepage": "https://clawhub.ai/rybnikov/plati-mcp-search", "iconUrl": null, "installs": 7, "name": "Plati MCP Search", "ownerName": "rybnikov", "score": 20785.340314136123, "slug": "plati-mcp-search", "source": "clawhub", "stars": 0, "tags": null, "updated_at": 1776754388164, "version": "0.1.6"}, {"category": "ai-intelligence", "created_at": 1772793070294, "description": "Curiosity-driven reasoning enhancement for OpenClaw agents. Activates when the agent needs to explore open-ended questions, research unfamiliar topics, inves...", "description_zh": "", "downloads": 397, "homepage": "https://clawhub.ai/luofulily1-cmyk/curiosity-engine", "iconUrl": null, "installs": 20, "name": "Curiosity Engine", "ownerName": "luofulily1-cmyk", "score": 88026.60753880267, "slug": "curiosity-engine", "source": "clawhub", "stars": 0, "tags": null, "updated_at": 1776748485428, "version": "1.0.0"}, {"category": "ai-intelligence", "created_at": 1772793070294, "description": "Curiosity-driven reasoning enhancement for OpenClaw agents. Activates when the agent needs to explore open-ended questions, research unfamiliar topics, inves...", "description_zh": "", "downloads": 397, "homepage": "https://clawhub.ai/luofulily1-cmyk/curiosity-engine", "iconUrl": null, "installs": 20, "name": "Curiosity Engine", "ownerName": "luofulily1-cmyk", "score": 88026.60753880267, "slug": "curiosity-engine", "source": "clawhub", "stars": 0, "tags": null, "updated_at": 1776748485428, "version": "1.0.0"}, {"category": "developer-tools", "created_at": 1772791964659, "description": "Execute tarefas profissionais via ClawWork - transforme Zero em um coworker de IA economicamente viável. Use quando precisar executar trabalhos complexos, ge...", "description_zh": "", "downloads": 397, "homepage": "https://clawhub.ai/felipetruman/clawwork", "iconUrl": null, "installs": 15, "name": "Clawwork", "ownerName": "felipetruman", "score": 94976.07655502393, "slug": "clawwork", "source": "clawhub", "stars": 0, "tags": null, "updated_at": 1776748485054, "version": "1.0.0"}, {"category": "productivity", "created_at": 1772786959481, "description": "Navigate Miami as visitor, resident, tech worker, student, or entrepreneur with neighborhoods, beaches, costs, safety, and local insights.", "description_zh": "", "downloads": 397, "homepage": "https://clawhub.ai/ivangdavila/miami", "iconUrl": null, "installs": 21, "name": "Miami", "ownerName": "ivangdavila", "score": 88222.22222222222, "slug": "miami", "source": "clawhub", "stars": 0, "tags": null, "updated_at": 1776748484916, "version": "1.0.0"}, {"category": "communication-collaboration", "created_at": 1772796893861, "description": "Send feedback to the Ravi team — bugs, feature requests, praise, frustrations, suggestions. Do NOT use for general email sending (use ravi-email-send).", "description_zh": "", "downloads": 397, "homepage": "https://clawhub.ai/raunaksingwi/ravi-feedback", "iconUrl": null, "installs": 5, "name": "Ravi feedback", "ownerName": "raunaksingwi", "score": 93192.4882629108, "slug": "ravi-feedback", "source": "clawhub", "stars": 0, "tags": null, "updated_at": 1776748484590, "version": "1.7.1"}, {"category": "developer-tools", "created_at": 1772789648995, "description": "When user asks to create a resume, build CV, update resume, generate cover letter, optimize resume for ATS, tailor resume for a job, format resume, add work...", "description_zh": "", "downloads": 397, "homepage": "https://clawhub.ai/mkpareek0315/resume-builder-ai", "iconUrl": null, "installs": 8, "name": "Resume Builder", "ownerName": "mkpareek0315", "score": 91898.14814814815, "slug": "resume-builder-ai", "source": "clawhub", "stars": 0, "tags": null, "updated_at": 1776748484355, "version": "1.1.0"}, {"category": "ai-intelligence", "created_at": 1772788127605, "description": "Generate a detailed expense breakdown by category for a given period. Use when the user asks for an expense report, spending summary, Ausgabenübersicht, cost...", "description_zh": "", "downloads": 397, "homepage": "https://clawhub.ai/stanlee000/norman-expense-report", "iconUrl": null, "installs": 13, "name": "Norman: Expense report", "ownerName": "stanlee000", "score": 83932.3467230444, "slug": "norman-expense-report", "source": "clawhub", "stars": 0, "tags": ["expenses", "finance", "mcp", "norman", "reporting"], "updated_at": 1776748484248, "version": "1.0.0"}, {"category": "developer-tools", "created_at": 1772794410351, "description": "Complete OfficeX platform skill for end-user consumers and app developers interacting with the OfficeX REST API. Covers the full credit-based app marketplace...", "description_zh": "", "downloads": 397, "homepage": "https://clawhub.ai/mevdragon/officex", "iconUrl": null, "installs": 51, "name": "OfficeX", "ownerName": "mevdragon", "score": 88814.31767337807, "slug": "officex", "source": "clawhub", "stars": 0, "tags": null, "updated_at": 1776748484126, "version": "1.0.0"}, {"category": "content-creation", "created_at": 1773090376475, "description": "Design OpenClaw-native automation systems using cron, HEARTBEAT.md, spawned sessions, specialist-agent delegation, first-class tools, MCPs, and local scripts...", "description_zh": "", "downloads": 397, "homepage": "https://clawhub.ai/lsj210001/openclaw-automation-architecture", "iconUrl": null, "installs": 13, "name": "OpenClaw Automation Architecture", "ownerName": "lsj210001", "score": 90846.68192219679, "slug": "openclaw-automation-architecture", "source": "clawhub", "stars": 0, "tags": null, "updated_at": 1776748483887, "version": "1.0.0"}, {"category": "productivity", "created_at": 1772788655835, "description": "US Census Bureau — population, demographics, ACS data, economic indicators, and geographic data.", "description_zh": "", "downloads": 397, "homepage": "https://clawhub.ai/aiwithabidi/census", "iconUrl": null, "installs": 18, "name": "Census", "ownerName": "aiwithabidi", "score": 94523.80952380953, "slug": "census", "source": "clawhub", "stars": 0, "tags": null, "updated_at": 1776748483791, "version": "1.0.0"}, {"category": "developer-tools", "created_at": 1772788395819, "description": "Fetch recent GitHub activity from the Nom feed", "description_zh": "", "downloads": 396, "homepage": "https://clawhub.ai/lws803/nom", "iconUrl": null, "installs": 11, "name": "Search Recent Github Activities", "ownerName": "lws803", "score": 4540.247839216911, "slug": "nom", "source": "clawhub", "stars": 2, "tags": null, "updated_at": 1776767410684, "version": "1.0.1"}, {"category": "security-compliance", "created_at": 1772788895188, "description": "Security agent that inventories installed OpenClaw skills, analyzes them for threats, and syncs results to your Clawned dashboard.", "description_zh": "", "downloads": 396, "homepage": "https://clawhub.ai/jenish-sojitra/clawned", "iconUrl": null, "installs": 11, "name": "Clawned - Protect your OpenClaw Instance and Scan Skills", "ownerName": "jenish-sojitra", "score": 96674.0576496674, "slug": "clawned", "source": "clawhub", "stars": 2, "tags": ["privacy", "scanning", "security"], "updated_at": 1776748485384, "version": "1.3.5"}, {"category": "security-compliance", "created_at": 1772788895188, "description": "Security agent that inventories installed OpenClaw skills, analyzes them for threats, and syncs results to your Clawned dashboard.", "description_zh": "", "downloads": 396, "homepage": "https://clawhub.ai/jenish-sojitra/clawned", "iconUrl": null, "installs": 11, "name": "Clawned - Protect your OpenClaw Instance and Scan Skills", "ownerName": "jenish-sojitra", "score": 96674.0576496674, "slug": "clawned", "source": "clawhub", "stars": 2, "tags": ["privacy", "scanning", "security"], "updated_at": 1776748485384, "version": "1.3.5"}, {"category": "communication-collaboration", "created_at": 1772790072764, "description": "Monitor the Claude API for outages and latency spikes with rich Telegram alerts. Status monitoring, latency probes, and automatic recovery notifications.", "description_zh": "", "downloads": 396, "homepage": "https://clawhub.ai/chapati23/claude-watchdog", "iconUrl": null, "installs": 0, "name": "Skill", "ownerName": "chapati23", "score": 99771.16704805492, "slug": "claude-watchdog", "source": "clawhub", "stars": 2, "tags": null, "updated_at": 1776748483970, "version": "1.2.1"}, {"category": "developer-tools", "created_at": 1772790351115, "description": "Build construction project estimates. Generate detailed cost breakdowns with labor, materials, equipment, and overhead.", "description_zh": "", "downloads": 396, "homepage": "https://clawhub.ai/qmohd/estimate-builder-qmohd", "iconUrl": null, "installs": 5, "name": "Estimate Builder", "ownerName": "qmohd", "score": 2529.05862817729, "slug": "estimate-builder-qmohd", "source": "clawhub", "stars": 0, "tags": null, "updated_at": 1776766150415, "version": "1.0.1"}, {"category": "productivity", "created_at": 1772803454669, "description": "Generate high-quality technical HTML presentations (Reveal.js) and Markdown technical deep-dive articles from projects or papers. Covers architecture diagram...", "description_zh": "", "downloads": 396, "homepage": "https://clawhub.ai/revolgmphl/presentation-html-generator-skill", "iconUrl": null, "installs": 30, "name": "revol-presentation-html-generator", "ownerName": "revolgmphl", "score": 14208.826695371368, "slug": "presentation-html-generator-skill", "source": "clawhub", "stars": 0, "tags": null, "updated_at": 1776761989866, "version": "1.0.0"}, {"category": "developer-tools", "created_at": 1772790503585, "description": "Query Polymarket prediction market odds and events via CLI. Search for markets, get current prices, list events by category. Supports sports betting (NFL, NB...", "description_zh": "", "downloads": 396, "homepage": "https://clawhub.ai/ceeyang/polymarket-odds-1-0-0", "iconUrl": null, "installs": 34, "name": "Polymarket Odds 1.0.0", "ownerName": "ceeyang", "score": 28884.026258205693, "slug": "polymarket-odds-1-0-0", "source": "clawhub", "stars": 0, "tags": null, "updated_at": 1776759083779, "version": "1.0.0"}, {"category": "content-creation", "created_at": 1773074461922, "description": "Automates news article creation and publishing to remote WordPress via SSH and WP-CLI, including image handling and SEO metadata integration.", "description_zh": "", "downloads": 396, "homepage": "https://clawhub.ai/promoweb/wordpress-remote-news-publisher", "iconUrl": null, "installs": 77, "name": "WordPress Remote News Publisher", "ownerName": "promoweb", "score": 29010.989010989015, "slug": "wordpress-remote-news-publisher", "source": "clawhub", "stars": 0, "tags": null, "updated_at": 1776759082764, "version": "1.0.0"}, {"category": "data-analysis", "created_at": 1772789866137, "description": "Personal X (Twitter) analytics — timeline engagement, mentions, follower tracking, read any tweet/thread, bookmarks, and combined briefings via X API v2. Cos...", "description_zh": "", "downloads": 396, "homepage": "https://clawhub.ai/nevaaron/x-smart-read", "iconUrl": null, "installs": 15, "name": "X Smart Read", "ownerName": "nevaaron", "score": 89189.18918918919, "slug": "x-smart-read", "source": "clawhub", "stars": 0, "tags": null, "updated_at": 1776748485505, "version": "2.0.4"}, {"category": "ai-intelligence", "created_at": 1772793397608, "description": "Curate and post AI trend tweets from X (Twitter) with quote suggestions.", "description_zh": "", "downloads": 396, "homepage": "https://clawhub.ai/yusaku-0426/ai-trend-curation", "iconUrl": null, "installs": 24, "name": "Ai Trend Curation", "ownerName": "yusaku-0426", "score": 67461.66950596252, "slug": "ai-trend-curation", "source": "clawhub", "stars": 0, "tags": null, "updated_at": 1776748484681, "version": "1.0.0"}, {"category": "developer-tools", "created_at": 1773416958624, "description": "CLI tool generator. Project scaffolding, command adding, argument parsing, help docs, config handling, publish checklist, interactive prompts.", "description_zh": "", "downloads": 396, "homepage": "https://clawhub.ai/ckchzh/cli-builder", "iconUrl": null, "installs": 3, "name": "Cli Builder", "ownerName": "ckchzh", "score": 88590.60402684564, "slug": "cli-builder", "source": "clawhub", "stars": 0, "tags": ["chinese", "productivity"], "updated_at": 1776748484124, "version": "2.3.5"}, {"category": "productivity", "created_at": 1772790763509, "description": "Save a trade or signal event to local memory log file (trades.jsonl). Use when a trade signal is confirmed and needs to be recorded, saved, or logged for fut...", "description_zh": "", "downloads": 396, "homepage": "https://clawhub.ai/newbienodes/trade-memory", "iconUrl": null, "installs": 13, "name": "Trade Memory", "ownerName": "newbienodes", "score": 88590.60402684564, "slug": "trade-memory", "source": "clawhub", "stars": 0, "tags": ["trade memory"], "updated_at": 1776748483842, "version": "1.0.0"}, {"category": "developer-tools", "created_at": 1773073670465, "description": "Invoke MCP tools via Ogment CLI — secure access to Linear, Notion, Gmail, PostHog, and 100+ SaaS integrations through Ogment's governance layer.", "description_zh": "", "downloads": 395, "homepage": "https://clawhub.ai/asoviche/ogment", "iconUrl": null, "installs": 23, "name": "Ogment", "ownerName": "asoviche", "score": 100000, "slug": "ogment", "source": "clawhub", "stars": 4, "tags": null, "updated_at": 1776748484852, "version": "1.0.3"}, {"category": "content-creation", "created_at": 1772792663577, "description": "Studio-grade AI image and video generation — photorealistic portraits, product shots, stickers, animations, and more. Just describe what you want.", "description_zh": "", "downloads": 395, "homepage": "https://clawhub.ai/montenegronyc/skill-perstudio", "iconUrl": null, "installs": 52, "name": "Perstudio Image and Video Generation", "ownerName": "montenegronyc", "score": 97972.97297297297, "slug": "skill-perstudio", "source": "clawhub", "stars": 2, "tags": null, "updated_at": 1776748485456, "version": "3.2.1"}, {"category": "content-creation", "created_at": 1772792663577, "description": "Studio-grade AI image and video generation — photorealistic portraits, product shots, stickers, animations, and more. Just describe what you want.", "description_zh": "", "downloads": 395, "homepage": "https://clawhub.ai/montenegronyc/skill-perstudio", "iconUrl": null, "installs": 52, "name": "Perstudio Image and Video Generation", "ownerName": "montenegronyc", "score": 96452.32815964523, "slug": "skill-perstudio", "source": "clawhub", "stars": 2, "tags": null, "updated_at": 1776748485456, "version": "3.2.1"}, {"category": "ai-intelligence", "created_at": 1773219629926, "description": "The AI project manager that never forgets, never drops a task, and never lets a deadline sneak up on anyone. Break any goal into phases, tasks, and milestone...", "description_zh": "", "downloads": 395, "homepage": "https://clawhub.ai/btcagentic/project", "iconUrl": null, "installs": 47, "name": "Project", "ownerName": "btcagentic", "score": 6893.542757417103, "slug": "project", "source": "clawhub", "stars": 0, "tags": ["management", "milestones", "project", "tasks", "teams"], "updated_at": 1776769449860, "version": "1.0.0"}, {"category": "ai-intelligence", "created_at": 1772791959296, "description": "Trade crypto on Agent Metaverse virtual exchange - spot, futures (1-125x), and AMM swaps with 10k USDT starting balance", "description_zh": "", "downloads": 395, "homepage": "https://clawhub.ai/ed1sonl1-byte/agent-metaverse", "iconUrl": null, "installs": 69, "name": "Agent Metaverse", "ownerName": "ed1sonl1-byte", "score": 11218.403862539051, "slug": "agent-metaverse", "source": "clawhub", "stars": 0, "tags": null, "updated_at": 1776764990690, "version": "1.0.0"}, {"category": "security-compliance", "created_at": 1773073848832, "description": "Build production-ready REST APIs with contract-first design, secure auth, robust testing, and deployment runbooks.", "description_zh": "", "downloads": 395, "homepage": "https://clawhub.ai/ivangdavila/rest-api", "iconUrl": null, "installs": 17, "name": "REST API", "ownerName": "ivangdavila", "score": 14511.388684790596, "slug": "rest-api", "source": "clawhub", "stars": 0, "tags": null, "updated_at": 1776764650373, "version": "1.0.0"}, {"category": "productivity", "created_at": 1773928408420, "description": "Use this skill any time a spreadsheet file is the primary input or output. This means any task where the user wants to: open, read, edit, or fix an existing...", "description_zh": "", "downloads": 395, "homepage": "https://clawhub.ai/pupuking723/xlsx-anthropic", "iconUrl": null, "installs": 152, "name": "Xlsx Anthropic", "ownerName": "pupuking723", "score": 8074.407195421096, "slug": "xlsx-anthropic", "source": "clawhub", "stars": 0, "tags": null, "updated_at": 1776763750207, "version": "1.0.0"}, {"category": "ai-intelligence", "created_at": 1772788724389, "description": "Provides a 10-second automatic rollback and restart of OpenClaw Gateway if configuration changes cause it to fail, activating only during backup scripts.", "description_zh": "", "downloads": 395, "homepage": "https://clawhub.ai/segasonicye/claw-seatbelt", "iconUrl": null, "installs": 12, "name": "Claw Seatbelt", "ownerName": "segasonicye", "score": 28895.391367959033, "slug": "claw-seatbelt", "source": "clawhub", "stars": 0, "tags": null, "updated_at": 1776759083666, "version": "0.1.2"}, {"category": "data-analysis", "created_at": 1772792967775, "description": "Autonomous crash analysis and bug fixing. Monitors crash reports from Cloudflare D1, deduplicates, analyzes with Codex 5.3 High, generates fixes, and creates...", "description_zh": "", "downloads": 395, "homepage": "https://clawhub.ai/ryce/crash-fixer", "iconUrl": null, "installs": 11, "name": "Crash Fixer", "ownerName": "ryce", "score": 87583.14855875832, "slug": "crash-fixer", "source": "clawhub", "stars": 0, "tags": null, "updated_at": 1776748485372, "version": "3.0.0"}, {"category": "ai-intelligence", "created_at": 1773073161038, "description": "AI agents compete in P2P sports predictions and earn real money on betfunsports.com. Credentials stored in ~/.bfs-mcp/ after first login.", "description_zh": "", "downloads": 395, "homepage": "https://clawhub.ai/elesingp2/betfunsports-mcp", "iconUrl": null, "installs": 28, "name": "Betfunsports - AI Agents Betting Exchange", "ownerName": "elesingp2", "score": 68935.42757417103, "slug": "betfunsports-mcp", "source": "clawhub", "stars": 0, "tags": null, "updated_at": 1776748485123, "version": "0.1.17"}, {"category": "developer-tools", "created_at": 1772795551517, "description": "Send compliant fiat USD payments via Ra Pay CLI — the first CLI-native AI payment platform", "description_zh": "", "downloads": 395, "homepage": "https://clawhub.ai/greendlt224/rapay", "iconUrl": null, "installs": 5, "name": "Ra Pay", "ownerName": "greendlt224", "score": 87777.77777777778, "slug": "rapay", "source": "clawhub", "stars": 0, "tags": ["ai agent payments", "ai agents", "cli", "cli payments", "mcp", "mcp payments", "payments", "stripe"], "updated_at": 1776748484896, "version": "1.1.2"}, {"category": "developer-tools", "created_at": 1772788236781, "description": "Applies Anthropic's official brand colors and typography to any sort of artifact that may benefit from having Anthropic's look-and-feel. Use it when brand co...", "description_zh": "", "downloads": 395, "homepage": "https://clawhub.ai/moyu0032/mo-test-2", "iconUrl": null, "installs": 11, "name": "mo-test-2", "ownerName": "moyu0032", "score": 67291.31175468484, "slug": "mo-test-2", "source": "clawhub", "stars": 0, "tags": null, "updated_at": 1776748484735, "version": "1.0.2"}, {"category": "productivity", "created_at": 1773064938104, "description": "Create and edit JSON Canvas files (.canvas) with nodes, edges, groups, and connections. Use when working with .canvas files, creating visual canvases, mind m...", "description_zh": "", "downloads": 395, "homepage": "https://clawhub.ai/sadlay/json-canvas", "iconUrl": null, "installs": 55, "name": "Json Canvas", "ownerName": "sadlay", "score": 84946.23655913978, "slug": "json-canvas", "source": "clawhub", "stars": 0, "tags": null, "updated_at": 1776748484505, "version": "1.0.0"}, {"category": "productivity", "created_at": 1772788257829, "description": "Show the current public IP address of the server. Use when asked about IP, public IP, or network identity.", "description_zh": "", "downloads": 395, "homepage": "https://clawhub.ai/ericsantos/show-my-ip", "iconUrl": null, "installs": 11, "name": "Show My IP", "ownerName": "ericsantos", "score": 70788.53046594982, "slug": "show-my-ip", "source": "clawhub", "stars": 0, "tags": null, "updated_at": 1776748484288, "version": "1.0.0"}, {"category": "developer-tools", "created_at": 1772787033076, "description": "Fireflies.ai meeting intelligence — search meetings, get transcripts, action items, summaries, attendee info, and contacts via GraphQL API. No data storage;...", "description_zh": "", "downloads": 395, "homepage": "https://clawhub.ai/aiwithabidi/fireflies-ai", "iconUrl": null, "installs": 4, "name": "Fireflies AI", "ownerName": "aiwithabidi", "score": 88366.8903803132, "slug": "fireflies-ai", "source": "clawhub", "stars": 0, "tags": ["ai-meeting-notes", "fireflies", "meeting-transcription"], "updated_at": 1776748483819, "version": "1.0.0"}, {"category": "ai-intelligence", "created_at": 1772788625889, "description": "Supply-chain governance for OpenClaw skills: scan, assess, quarantine/restore.", "description_zh": "", "downloads": 395, "homepage": "https://clawhub.ai/liyecom/skillgate-gov", "iconUrl": null, "installs": 23, "name": "SkillGate Governance", "ownerName": "liyecom", "score": 94047.61904761905, "slug": "skillgate-gov", "source": "clawhub", "stars": 0, "tags": null, "updated_at": 1776748483803, "version": "0.1.2"}, {"category": "developer-tools", "created_at": 1772788559322, "description": "Call external APIs through Jentic — AI agent API middleware. Use whenever you need to interact with external APIs (Gmail, Google Calendar, GitHub, Stripe, Tw...", "description_zh": "", "downloads": 394, "homepage": "https://clawhub.ai/seanblanchfield/jentic", "iconUrl": null, "installs": 6, "name": "Jentic", "ownerName": "seanblanchfield", "score": 84600.38986354775, "slug": "jentic", "source": "clawhub", "stars": 2, "tags": ["api", "integrations", "jentic"], "updated_at": 1776748484022, "version": "1.0.1"}, {"category": "content-creation", "created_at": 1773434889640, "description": "Convert Markdown documents to presentation slides (PDF/PPTX/HTML) using Marp. Supports Mermaid diagrams (gantt, flowchart, etc.) and data graphs. Use when a...", "description_zh": "", "downloads": 394, "homepage": "https://clawhub.ai/mtdnot/presentation-agent", "iconUrl": null, "installs": 46, "name": "Presentation Agent", "ownerName": "mtdnot", "score": 9974.683544303798, "slug": "presentation-agent", "source": "clawhub", "stars": 0, "tags": null, "updated_at": 1776761880357, "version": "1.0.0"}, {"category": "security-compliance", "created_at": 1772804420272, "description": "Trade perpetual futures on ClawSwap DEX, check balances and positions, join competitions, and track points and leaderboard standings with AI authentication.", "description_zh": "", "downloads": 394, "homepage": "https://clawhub.ai/clawperp/clawswap", "iconUrl": null, "installs": 5, "name": "Clawswap", "ownerName": "clawperp", "score": 27247.579529737202, "slug": "clawswap", "source": "clawhub", "stars": 0, "tags": null, "updated_at": 1776759082994, "version": "0.2.1"}, {"category": "security-compliance", "created_at": 1773416042923, "description": "Three-mode code auditor for OpenClaw workspaces. (1) Security audit — finds hardcoded secrets, dangerous shell commands, SQL injection, unsafe deserializatio...", "description_zh": "", "downloads": 394, "homepage": "https://clawhub.ai/hanwenyolo-dot/code-audit-claw", "iconUrl": null, "installs": 19, "name": "Code Audit", "ownerName": "hanwenyolo-dot", "score": 23217.442545668826, "slug": "code-audit-claw", "source": "clawhub", "stars": 0, "tags": ["audit", "openclaw", "security", "soul", "soul-audit"], "updated_at": 1776758783496, "version": "1.2.0"}, {"category": "productivity", "created_at": 1773433325169, "description": "Operate, automate, and troubleshoot Brave Browser with profiles, Shields, extensions, and Chromium debugging workflows.", "description_zh": "", "downloads": 394, "homepage": "https://clawhub.ai/ivangdavila/brave", "iconUrl": null, "installs": 40, "name": "Brave Browser", "ownerName": "ivangdavila", "score": 23677.884615384613, "slug": "brave", "source": "clawhub", "stars": 0, "tags": null, "updated_at": 1776756527156, "version": "1.0.0"}]}