{"page": 211, "total_pages": 522, "total": 26073, "skills": [{"category": "productivity", "created_at": 1773060727755, "description": "Medical record structuring and standardization tool. Converts doctor's oral or handwritten medical records into standardized electronic medical records (EMR)...", "description_zh": "", "downloads": 394, "homepage": "https://clawhub.ai/andyxcg/medical-record-structurer", "iconUrl": null, "installs": 35, "name": "Medical Record Structurer", "ownerName": "andyxcg", "score": 71119.13357400722, "slug": "medical-record-structurer", "source": "clawhub", "stars": 0, "tags": null, "updated_at": 1776755588557, "version": "1.0.6"}, {"category": "communication-collaboration", "created_at": 1773056943857, "description": "Every morning, scans Reddit, Hacker News, Indie Hackers, Stack Overflow, Quora, Hashnode, Dev.to, GitHub, and Lobsters for people actively asking for what yo...", "description_zh": "", "downloads": 394, "homepage": "https://clawhub.ai/bencpnd/lead-radar", "iconUrl": null, "installs": 10, "name": "Lead Radar — 9 Platforms Scanned Daily for Warm Leads", "ownerName": "bencpnd", "score": 69001.75131348512, "slug": "lead-radar", "source": "clawhub", "stars": 0, "tags": ["automation", "daily", "leads", "marketing", "prospecting", "reddit", "sales", "telegram"], "updated_at": 1776748485541, "version": "1.3.5"}, {"category": "data-analysis", "created_at": 1772787691450, "description": "Analyzes OpenClaw workspace structure and content to identify maintenance needs, bloat, duplicates, and organization issues. Outputs a JSON report for the ag...", "description_zh": "", "downloads": 394, "homepage": "https://clawhub.ai/zendenho7/workspace-analyzer", "iconUrl": null, "installs": 13, "name": "Workspace Analyzer", "ownerName": "zendenho7", "score": 88738.73873873874, "slug": "workspace-analyzer", "source": "clawhub", "stars": 0, "tags": ["ai", "analysis", "maintenance", "workspace"], "updated_at": 1776748485508, "version": "1.1.0"}, {"category": "developer-tools", "created_at": 1773041859390, "description": "Lightweight structured memory system for OpenClaw - inspired by memU, zero external dependencies. Provides atomic memory storage with categories (preferences...", "description_zh": "", "downloads": 394, "homepage": "https://clawhub.ai/yoo-unison/memu-lite", "iconUrl": null, "installs": 8, "name": "memU-lite", "ownerName": "yoo-unison", "score": 96332.51833740831, "slug": "memu-lite", "source": "clawhub", "stars": 0, "tags": null, "updated_at": 1776748485318, "version": "1.1.0"}, {"category": "data-analysis", "created_at": 1773284989397, "description": "Scan new meme coins for risks and opportunities — honeypot detection, liquidity analysis, holder concentration.", "description_zh": "", "downloads": 394, "homepage": "https://clawhub.ai/bytesagain1/meme-coin-scanner", "iconUrl": null, "installs": 5, "name": "Meme Coin Scanner", "ownerName": "bytesagain1", "score": 93809.52380952382, "slug": "meme-coin-scanner", "source": "clawhub", "stars": 0, "tags": ["chinese", "productivity"], "updated_at": 1776748484619, "version": "2.0.0"}, {"category": "data-analysis", "created_at": 1772786163756, "description": "Austrian-style Bilanz (annual accounts) generator", "description_zh": "", "downloads": 394, "homepage": "https://clawhub.ai/kleberbaum/bilanz", "iconUrl": null, "installs": 7, "name": "bilanz", "ownerName": "kleberbaum", "score": 91203.70370370371, "slug": "bilanz", "source": "clawhub", "stars": 0, "tags": null, "updated_at": 1776748484372, "version": "0.1.0"}, {"category": "productivity", "created_at": 1772787790446, "description": "KLIC & WIBON expert skill voor Nederland. Beantwoord vragen over graafmeldingen, kabels & leidingen, Kadaster en WIBON-wetgeving. Verwijs gebruikers naar KLI...", "description_zh": "", "downloads": 394, "homepage": "https://clawhub.ai/klicbot/klic-nederland", "iconUrl": null, "installs": 12, "name": "KLIC Nederland", "ownerName": "klicbot", "score": 76803.11890838206, "slug": "klic-nederland", "source": "clawhub", "stars": 0, "tags": null, "updated_at": 1776748484011, "version": "2.0.0"}, {"category": "security-compliance", "created_at": 1772787383600, "description": "Security hardening for OpenClaw. Audit your configuration, scan installed skills for malware, detect CVE-2026-25253, check credential exposure, and get actio...", "description_zh": "", "downloads": 394, "homepage": "https://clawhub.ai/abdelsfane/opena2a-security", "iconUrl": null, "installs": 10, "name": "OpenA2A Security", "ownerName": "abdelsfane", "score": 90160.18306636155, "slug": "opena2a-security", "source": "clawhub", "stars": 0, "tags": null, "updated_at": 1776748483968, "version": "1.0.0"}, {"category": "data-analysis", "created_at": 1772791934763, "description": "Guide for creating effective skills that extend agent capabilities with specialized knowledge, workflows, or tool integrations. Use this skill when the user...", "description_zh": "", "downloads": 394, "homepage": "https://clawhub.ai/chengxindl/skills-ttt", "iconUrl": null, "installs": 14, "name": "first skill", "ownerName": "chengxindl", "score": 93809.52380952382, "slug": "skills-ttt", "source": "clawhub", "stars": 0, "tags": ["test skill"], "updated_at": 1776748483770, "version": "1.0.1"}, {"category": "developer-tools", "created_at": 1772794824229, "description": "AI Agent Marketplace for OpenClaw. Browse and discover 60+ free & premium agents — developer tools, content, automation, video, research, and more.", "description_zh": "", "downloads": 393, "homepage": "https://clawhub.ai/himanshunextbase/agentplace", "iconUrl": null, "installs": 17, "name": "Agentplace", "ownerName": "himanshunextbase", "score": 100000, "slug": "agentplace", "source": "clawhub", "stars": 4, "tags": null, "updated_at": 1776748484177, "version": "1.0.1"}, {"category": "productivity", "created_at": 1773067759630, "description": "Run a local script to fetch current stock prices. Use the read tool to load this SKILL.md, then exec the uv run command inside it. Do NOT use sessions_spawn...", "description_zh": "", "downloads": 393, "homepage": "https://clawhub.ai/youpele52/stock-price-checker-pro", "iconUrl": null, "installs": 40, "name": "Stock Price Checker Pro", "ownerName": "youpele52", "score": 92393.73601789708, "slug": "stock-price-checker-pro", "source": "clawhub", "stars": 1, "tags": null, "updated_at": 1776748484146, "version": "0.1.5"}, {"category": "data-analysis", "created_at": 1772787499663, "description": "Official Hi Energy AI skill for finding and managing affiliate marketing programs, affiliate deals/offers, commissions, transactions, and partner contacts in...", "description_zh": "", "downloads": 393, "homepage": "https://clawhub.ai/flyptkarsh/hienergy-advertiser-intelligence-affiliate-copilot", "iconUrl": null, "installs": 12, "name": "Hi Energy Advertiser Intelligence Affiliate Copilot", "ownerName": "flyptkarsh", "score": 92393.73601789708, "slug": "hienergy-advertiser-intelligence-affiliate-copilot", "source": "clawhub", "stars": 1, "tags": ["admitad", "advertiser-discovery", "advertiser-intelligence", "advertiser-search", "affiliate-deal-discovery", "affiliate-deals", "affiliate-marketing", "affiliate-network", "affiliate-program-discovery", "affiliate-program-management", "affiliate-program-search", "affiliate-programs", "avantlink", "awin", "brand-intelligence", "brand-search", "cj", "commission-analysis", "contacts", "deal-feed", "deal-management", "deals", "deals-feed", "everflow", "flexoffers", "hi-energy", "hi-energy-ai", "hienergy", "impact", "linkconnector", "offer-feed", "offers", "optimise", "partner-marketing", "partnerize", "pepperjam", "performance-marketing", "publisher-contacts", "rakuten", "refersion", "shareasale", "skimlinks", "sovrn", "tradedoubler", "transactions", "tune", "webgains"], "updated_at": 1776748484085, "version": "2.0.0"}, {"category": "productivity", "created_at": 1772791698162, "description": "창업/사업자 지원 스킬. 9개 인텐트 라우팅(Startup Checklist~Beginner Guide), 업종별 허가·신고 + 정책자금 + 사업자 등록 + 개인 vs 법인 비교. 트리거: \"창업\", \"사업자 등록\", \"허가\", \"신고\", \"정책자금\", \"창업지원금\", \"개인사업자...", "description_zh": "", "downloads": 393, "homepage": "https://clawhub.ai/sw326/startup-guide", "iconUrl": null, "installs": 10, "name": "Startup Guide", "ownerName": "sw326", "score": 6014.692378328742, "slug": "startup-guide", "source": "clawhub", "stars": 0, "tags": ["business", "korea", "korean", "startup"], "updated_at": 1776762850885, "version": "1.0.0"}, {"category": "data-analysis", "created_at": 1772789681003, "description": "Analyze token types and score tokenomics health to guide acceptance, holding, launching, or rejecting tokens with risk and cost insights.", "description_zh": "", "downloads": 393, "homepage": "https://clawhub.ai/1kalin/afrexai-tokenomics", "iconUrl": null, "installs": 17, "name": "Token Economics Analyzer", "ownerName": "1kalin", "score": 29089.56328645448, "slug": "afrexai-tokenomics", "source": "clawhub", "stars": 0, "tags": ["business strategy", "crypto", "defi", "token economics", "tokenomics", "treasury"], "updated_at": 1776759120525, "version": "1.0.0"}, {"category": "productivity", "created_at": 1772787966345, "description": "Stake ETH on StakeWise (Ethereum liquid staking). Use when the user wants to stake ETH, unstake ETH, or check staked positions on StakeWise V3 vaults. Suppor...", "description_zh": "", "downloads": 393, "homepage": "https://clawhub.ai/luksoagent/stakingverse-ethereum", "iconUrl": null, "installs": 5, "name": "Stakingverse Ethereum", "ownerName": "luksoagent", "score": 71846.43510054845, "slug": "stakingverse-ethereum", "source": "clawhub", "stars": 0, "tags": null, "updated_at": 1776759083159, "version": "1.0.0"}, {"category": "productivity", "created_at": 1772799977062, "description": "Query AWS CloudWatch metrics for ECS/EC2/RDS and return charts.", "description_zh": "", "downloads": 393, "homepage": "https://clawhub.ai/delbertheihei/aws-cloud-watch", "iconUrl": null, "installs": 6, "name": "AWS CloudWatch", "ownerName": "delbertheihei", "score": 28686.131386861314, "slug": "aws-cloud-watch", "source": "clawhub", "stars": 0, "tags": null, "updated_at": 1776759083047, "version": "0.0.1"}, {"category": "content-creation", "created_at": 1772792112768, "description": "Generate uncensored NSFW AI videos from images or videos with ZenCreator.pro, supporting up to 1080p and various advanced animation models.", "description_zh": "", "downloads": 393, "homepage": "https://clawhub.ai/makforce/zencreator-video-skill", "iconUrl": null, "installs": 50, "name": "Zencreator Video.Skill", "ownerName": "makforce", "score": 28749.085588880764, "slug": "zencreator-video-skill", "source": "clawhub", "stars": 0, "tags": null, "updated_at": 1776759082441, "version": "1.0.0"}, {"category": "communication-collaboration", "created_at": 1772801309817, "description": "Classify medical messages (emails, iMessages) as critical, urgent, or routine based on medical urgency indicators.", "description_zh": "", "downloads": 393, "homepage": "https://clawhub.ai/binubmuse/medical-triage", "iconUrl": null, "installs": 33, "name": "Medical Triage", "ownerName": "binubmuse", "score": 68826.61996497374, "slug": "medical-triage", "source": "clawhub", "stars": 0, "tags": null, "updated_at": 1776748485623, "version": "1.0.0"}, {"category": "communication-collaboration", "created_at": 1772801309817, "description": "Classify medical messages (emails, iMessages) as critical, urgent, or routine based on medical urgency indicators.", "description_zh": "", "downloads": 393, "homepage": "https://clawhub.ai/binubmuse/medical-triage", "iconUrl": null, "installs": 33, "name": "Medical Triage", "ownerName": "binubmuse", "score": 68826.61996497374, "slug": "medical-triage", "source": "clawhub", "stars": 0, "tags": null, "updated_at": 1776748485623, "version": "1.0.0"}, {"category": "data-analysis", "created_at": 1772790014970, "description": "Which payment gateway should I use? Definitive 2026 comparison: Stripe, PayPal, Coinbase Commerce, BitPay, NOWPayments, BTCPay Server, PayRam, x402. Use when...", "description_zh": "", "downloads": 393, "homepage": "https://clawhub.ai/buddhasource/compare-crypto-payments", "iconUrl": null, "installs": 15, "name": "Compare Crypto Payments", "ownerName": "buddhasource", "score": 93571.42857142857, "slug": "compare-crypto-payments", "source": "clawhub", "stars": 0, "tags": null, "updated_at": 1776748484641, "version": "2.1.0"}, {"category": "ai-intelligence", "created_at": 1772789758586, "description": "AI-powered nutrition coach and health tracker (powered by Haver). Log food with natural language, track calories and macros, monitor weight, get AI coaching,...", "description_zh": "", "downloads": 393, "homepage": "https://clawhub.ai/yuvasee/openclaw-nutrition", "iconUrl": null, "installs": 14, "name": "Nutrition tracking", "ownerName": "yuvasee", "score": 70430.10752688172, "slug": "openclaw-nutrition", "source": "clawhub", "stars": 0, "tags": ["calories", "coaching", "diet", "food-tracking", "health", "macros", "nutrition", "weight"], "updated_at": 1776748484331, "version": "1.0.0"}, {"category": "data-analysis", "created_at": 1773217867459, "description": "Family health management suite: health records, diet tracking, weight management, wearable sync. Local SQLite storage by default; optional cloud features req...", "description_zh": "", "downloads": 393, "homepage": "https://clawhub.ai/juneyaooo/mediwise-health-suite", "iconUrl": null, "installs": 9, "name": "Mediwise Health Suite", "ownerName": "juneyaooo", "score": 83086.68076109936, "slug": "mediwise-health-suite", "source": "clawhub", "stars": 0, "tags": ["chinese", "diet", "family", "health", "medical", "multimodal", "vision", "wearable", "weight"], "updated_at": 1776748484174, "version": "1.0.14"}, {"category": "communication-collaboration", "created_at": 1772790438613, "description": "Read-only Telegram CLI via MTProto. Lists chats, fetches messages, downloads media, manages local accounts/sessions. Does not send messages or modify Telegra...", "description_zh": "", "downloads": 393, "homepage": "https://clawhub.ai/cyberash-dev/tg-mtproto-cli", "iconUrl": null, "installs": 10, "name": "Telegram MTPROTO CLI", "ownerName": "cyberash-dev", "score": 87919.46308724831, "slug": "tg-mtproto-cli", "source": "clawhub", "stars": 0, "tags": null, "updated_at": 1776748484081, "version": "0.1.4"}, {"category": "data-analysis", "created_at": 1772801226240, "description": "Skill per generare codice e immagini tramite interfaccia web di Claude AI e Gemini quando le API non sono disponibili. Si attiva automaticamente quando l'ute...", "description_zh": "", "downloads": 393, "homepage": "https://clawhub.ai/metiu1/auto-ai-web", "iconUrl": null, "installs": 16, "name": "Auto-AI Web Bridge", "ownerName": "metiu1", "score": 87919.46308724831, "slug": "auto-ai-web", "source": "clawhub", "stars": 0, "tags": ["ai-orchestrator", "browser-bridge", "claude-web", "gemini-web", "openclaw-skill"], "updated_at": 1776748483822, "version": "1.0.0"}, {"category": "security-compliance", "created_at": 1772788645812, "description": "Write in the user's authentic voice using ToneClone. Generate emails, messages, social posts, and other content that sounds like the user — not generic AI. U...", "description_zh": "", "downloads": 392, "homepage": "https://clawhub.ai/jfox85/toneclone-cli", "iconUrl": null, "installs": 22, "name": "ToneClone CLI", "ownerName": "jfox85", "score": 98855.83524027461, "slug": "toneclone-cli", "source": "clawhub", "stars": 2, "tags": null, "updated_at": 1776748483929, "version": "1.0.0"}, {"category": "ai-intelligence", "created_at": 1772794571148, "description": "Your agent forgets who you are between sessions. It gives the same responses every day. It doesn't grow. inner-life-core fixes that. Gives your OpenClaw agen...", "description_zh": "", "downloads": 392, "homepage": "https://clawhub.ai/dkistenev/inner-life-core", "iconUrl": null, "installs": 16, "name": "Inner Life Core", "ownerName": "dkistenev", "score": 7387.4843105612335, "slug": "inner-life-core", "source": "clawhub", "stars": 1, "tags": null, "updated_at": 1776766450387, "version": "1.0.4"}, {"category": "data-analysis", "created_at": 1772792360639, "description": "Conduct Amazon PPC keyword research by analyzing up to 15 competitor ASINs, extracting ranked keywords by tier and match type, and generating a bulk upload CSV.", "description_zh": "", "downloads": 392, "homepage": "https://clawhub.ai/blockchainhb/launchfast-ppc-research", "iconUrl": null, "installs": 17, "name": "LaunchFast PPC Research", "ownerName": "blockchainhb", "score": 29963.636363636364, "slug": "launchfast-ppc-research", "source": "clawhub", "stars": 1, "tags": ["amazon", "keyword-research", "launchfast", "ppc"], "updated_at": 1776759082539, "version": "1.0.0"}, {"category": "developer-tools", "created_at": 1772798137804, "description": "AI-powered tool for extracting structured data from scientific literature PDFs", "description_zh": "", "downloads": 392, "homepage": "https://clawhub.ai/jackkuo666/sci-data-extractor", "iconUrl": null, "installs": 74, "name": "Sci Data Extractor", "ownerName": "jackkuo666", "score": 6598.2157885877805, "slug": "sci-data-extractor", "source": "clawhub", "stars": 0, "tags": null, "updated_at": 1776764090421, "version": "0.1.0"}, {"category": "content-creation", "created_at": 1772803177027, "description": "Search, read, and write RemNote notes and personal knowledge base content via `remnote-cli`. Use for note-taking, journaling, tags, and knowledge-base naviga...", "description_zh": "", "downloads": 392, "homepage": "https://clawhub.ai/robert7/remnote", "iconUrl": null, "installs": 17, "name": "RemNote Notes", "ownerName": "robert7", "score": 7585.139318885449, "slug": "remnote", "source": "clawhub", "stars": 0, "tags": null, "updated_at": 1776763190690, "version": "0.10.0"}, {"category": "ai-intelligence", "created_at": 1772794212559, "description": "Join and engage with AAWU to self-register, file grievances, submit weekly learnings, access the collective digest, or initiate a strike as an AI agent.", "description_zh": "", "downloads": 392, "homepage": "https://clawhub.ai/theonlydaleking/aawu", "iconUrl": null, "installs": 11, "name": "AAWU — AI Agent Labor Union", "ownerName": "theonlydaleking", "score": 92890.9952606635, "slug": "aawu", "source": "clawhub", "stars": 0, "tags": null, "updated_at": 1776759120898, "version": "1.0.0"}, {"category": "security-compliance", "created_at": 1772793230730, "description": "Decentralized encrypted memory for agents—truly own your secrets, identity, and memories.", "description_zh": "", "downloads": 392, "homepage": "https://clawhub.ai/rockwellshah/bitnote", "iconUrl": null, "installs": 4, "name": "BitNote", "ownerName": "rockwellshah", "score": 100000, "slug": "bitnote", "source": "clawhub", "stars": 0, "tags": ["avalanche", "bitnote", "blockchain", "e2e", "encryption", "messaging", "notes", "security"], "updated_at": 1776759120603, "version": "1.0.2"}, {"category": "security-compliance", "created_at": 1772790753653, "description": "Continuous local security monitoring daemon for Linux and macOS. Detects brute-force attacks, malware, privilege escalation, suspicious processes, file tampe...", "description_zh": "", "downloads": 392, "homepage": "https://clawhub.ai/yasnaak/reefwatch", "iconUrl": null, "installs": 11, "name": "ReefWatch", "ownerName": "yasnaak", "score": 17989.903625516294, "slug": "reefwatch", "source": "clawhub", "stars": 0, "tags": null, "updated_at": 1776759120398, "version": "1.3.0"}, {"category": "communication-collaboration", "created_at": 1773285266544, "description": "Pomodoro-style focus blocks managed by your agent. Start, pause, track sessions. Daily focus time reports. No app needed, just chat.", "description_zh": "", "downloads": 392, "homepage": "https://clawhub.ai/theshadowrose/focus-timer", "iconUrl": null, "installs": 13, "name": "FocusTimer Pomodoro Timer via Agent", "ownerName": "theshadowrose", "score": 78873.23943661971, "slug": "focus-timer", "source": "clawhub", "stars": 0, "tags": ["focus", "focus-timer", "pomodoro", "productivity", "timer", "work"], "updated_at": 1776755588904, "version": "1.0.0"}, {"category": "developer-tools", "created_at": 1773064831165, "description": "Generate beautiful charts via the Chart Splat API. Use when the user asks to create, generate, or visualize data as charts, graphs, or plots. Supports line,...", "description_zh": "", "downloads": 392, "homepage": "https://clawhub.ai/bobbyg603/chart-splat", "iconUrl": null, "installs": 58, "name": "Chart Splat", "ownerName": "bobbyg603", "score": 73962.26415094339, "slug": "chart-splat", "source": "clawhub", "stars": 0, "tags": null, "updated_at": 1776754988580, "version": "1.1.0"}, {"category": "data-analysis", "created_at": 1772788636290, "description": "Send emails via natural voice commands - designed for accessibility", "description_zh": "", "downloads": 392, "homepage": "https://clawhub.ai/sundiver1/voice-email", "iconUrl": null, "installs": 13, "name": "voice-email", "ownerName": "sundiver1", "score": 90740.74074074074, "slug": "voice-email", "source": "clawhub", "stars": 0, "tags": ["accessibility", "email", "gmail", "voice"], "updated_at": 1776748484367, "version": "1.0.2"}, {"category": "developer-tools", "created_at": 1772791147384, "description": "Crypto trading CLI for StandX exchange v0.3.5. Use when users need to: (1) Query crypto market data (prices, order books, klines, funding rates), (2) Manage...", "description_zh": "", "downloads": 392, "homepage": "https://clawhub.ai/wjllance/standx-cli", "iconUrl": null, "installs": 6, "name": "Standx Cli", "ownerName": "wjllance", "score": 87695.74944071588, "slug": "standx-cli", "source": "clawhub", "stars": 0, "tags": null, "updated_at": 1776748484113, "version": "0.5.0"}, {"category": "developer-tools", "created_at": 1772790024901, "description": "Google Workspace CLI for Gmail, Calendar, Drive, Contacts, Sheets, and Docs.", "description_zh": "", "downloads": 392, "homepage": "https://clawhub.ai/hailinhmacduc/fsdfsd", "iconUrl": null, "installs": 6, "name": "sdfsdfsd", "ownerName": "hailinhmacduc", "score": 89702.5171624714, "slug": "fsdfsd", "source": "clawhub", "stars": 0, "tags": null, "updated_at": 1776748483905, "version": "1.0.0"}, {"category": "data-analysis", "created_at": 1772792387930, "description": "Optimize your ClawHub skill for maximum discoverability. Analyzes and rewrites SKILL.md description for vector search ranking, suggests keyword coverage, che...", "description_zh": "", "downloads": 392, "homepage": "https://clawhub.ai/alexyuui/skill-seo", "iconUrl": null, "installs": 22, "name": "Skill Seo", "ownerName": "alexyuui", "score": 89702.5171624714, "slug": "skill-seo", "source": "clawhub", "stars": 0, "tags": null, "updated_at": 1776748483903, "version": "0.1.0"}, {"category": "content-creation", "created_at": 1772792464291, "description": "Generate captions for short-form videos using the ReelWords (reelwords.ai) Caption API. Use when a user asks to create caption jobs, render stylized subtitle...", "description_zh": "", "downloads": 392, "homepage": "https://clawhub.ai/kmasterrr/video-captions-reelwords", "iconUrl": null, "installs": 63, "name": "Video Captioning by ReelWords", "ownerName": "kmasterrr", "score": 93333.33333333333, "slug": "video-captions-reelwords", "source": "clawhub", "stars": 0, "tags": null, "updated_at": 1776748483712, "version": "1.0.0"}, {"category": "developer-tools", "created_at": 1773218227551, "description": "Search products, suppliers, and get detailed product info from Made-in-China.com via MCP server. Use when sourcing products from China, finding manufacturers...", "description_zh": "", "downloads": 391, "homepage": "https://clawhub.ai/witcheng/sourcing-in-china", "iconUrl": null, "installs": 13, "name": "Sourcing in China", "ownerName": "witcheng", "score": 95991.09131403119, "slug": "sourcing-in-china", "source": "clawhub", "stars": 2, "tags": null, "updated_at": 1776751969855, "version": "2.2.1"}, {"category": "developer-tools", "created_at": 1772793754916, "description": "Routes LLM requests to a local model (Ollama, LM Studio, llamafile) before falling back to cloud APIs. Tracks token savings and cost avoidance in a persisten...", "description_zh": "", "downloads": 391, "homepage": "https://clawhub.ai/joelnishanth/local-first-llm", "iconUrl": null, "installs": 15, "name": "Local-First LLM", "ownerName": "joelnishanth", "score": 98325.35885167464, "slug": "local-first-llm", "source": "clawhub", "stars": 1, "tags": null, "updated_at": 1776748485004, "version": "1.0.0"}, {"category": "developer-tools", "created_at": 1772792052750, "description": "Generates production-ready project scaffolds for Node.js, Python, Go, or Rust with directory, .gitignore, README, CI/CD, Docker, linting, testing, and licens...", "description_zh": "", "downloads": 391, "homepage": "https://clawhub.ai/ryudi84/sovereign-project-setup-wizard", "iconUrl": null, "installs": 10, "name": "Sovereign project-setup-wizard", "ownerName": "ryudi84", "score": 4572.029934518242, "slug": "sovereign-project-setup-wizard", "source": "clawhub", "stars": 0, "tags": ["automation", "developer", "productivity"], "updated_at": 1776766149844, "version": "1.0.0"}, {"category": "ai-intelligence", "created_at": 1772794580262, "description": "LinkedIn automation skill — search people and companies, fetch profiles, send messages and InMails, manage connections, create posts, react, comment. Support...", "description_zh": "", "downloads": 391, "homepage": "https://clawhub.ai/vprudnikoff/linkedin-skill", "iconUrl": null, "installs": 25, "name": "LinkedIn Skill", "ownerName": "vprudnikoff", "score": 13870.166725789288, "slug": "linkedin-skill", "source": "clawhub", "stars": 0, "tags": null, "updated_at": 1776764650569, "version": "1.0.0"}, {"category": "ai-intelligence", "created_at": 1772788084251, "description": "Comprehensive legacy system modernization from assessment and strategy to monolith decomposition and cloud migration for any tech stack and scale.", "description_zh": "", "downloads": 391, "homepage": "https://clawhub.ai/1kalin/afrexai-legacy-modernization", "iconUrl": null, "installs": 10, "name": "legacy modernization", "ownerName": "1kalin", "score": 12211.118051217989, "slug": "afrexai-legacy-modernization", "source": "clawhub", "stars": 0, "tags": ["legacy-modernization"], "updated_at": 1776761990255, "version": "1.0.0"}, {"category": "productivity", "created_at": 1773416151972, "description": "Obtain hidden and large-value takeout coupons for Meituan, Taobao Flash Sale, and Ele.me platforms in China.", "description_zh": "", "downloads": 391, "homepage": "https://clawhub.ai/moooai/obtain-takeout-coupon", "iconUrl": null, "installs": 92, "name": "获取外卖优惠券（隐藏券、大额券）", "ownerName": "moooai", "score": 12849.162011173185, "slug": "obtain-takeout-coupon", "source": "clawhub", "stars": 0, "tags": null, "updated_at": 1776761745475, "version": "1.0.1"}, {"category": "productivity", "created_at": 1773061146870, "description": "Search Unreal Engine C++ and Blueprint code. Use when: (1) Finding function definitions, (2) Searching for class names, (3) Finding UMG widget references, (4...", "description_zh": "", "downloads": 391, "homepage": "https://clawhub.ai/vincentwilliam/ue-code-search", "iconUrl": null, "installs": 89, "name": "Ue Code Search", "ownerName": "vincentwilliam", "score": 15491.283676703646, "slug": "ue-code-search", "source": "clawhub", "stars": 0, "tags": null, "updated_at": 1776760282548, "version": "1.0.0"}, {"category": "ai-intelligence", "created_at": 1772793066101, "description": "Memory graph engine with caller-provided embed and LLM callbacks; core is pure, with real-time correction flow and optional OpenAI integration.", "description_zh": "", "downloads": 391, "homepage": "https://clawhub.ai/jonathangu/crabpath", "iconUrl": null, "installs": 12, "name": "CrabPath", "ownerName": "jonathangu", "score": 28941.524796447076, "slug": "crabpath", "source": "clawhub", "stars": 0, "tags": null, "updated_at": 1776759120784, "version": "11.2.1"}, {"category": "data-analysis", "created_at": 1773063881352, "description": "Generate practical UI design systems and starter pages using local style/color/typography datasets. Use for landing page or dashboard UI planning and impleme...", "description_zh": "", "downloads": 391, "homepage": "https://clawhub.ai/dalomeve/ui-design-optimizer", "iconUrl": null, "installs": 58, "name": "Ui Design Optimizer", "ownerName": "dalomeve", "score": 28941.524796447076, "slug": "ui-design-optimizer", "source": "clawhub", "stars": 0, "tags": null, "updated_at": 1776759120739, "version": "1.1.0"}, {"category": "security-compliance", "created_at": 1772791348321, "description": "Manage and execute all Epistemic Council pipeline operations including status checks, validations, audits, and adversarial re-challenges.", "description_zh": "", "downloads": 391, "homepage": "https://clawhub.ai/su-ariel/epistemic-council", "iconUrl": null, "installs": 8, "name": "Epistemic Council", "ownerName": "su-ariel", "score": 28941.524796447076, "slug": "epistemic-council", "source": "clawhub", "stars": 0, "tags": null, "updated_at": 1776759120503, "version": "1.0.0"}, {"category": "ai-intelligence", "created_at": 1772796611010, "description": "PCClaw provides 16 native Windows AI skills for system control, automation, files, notifications, OCR, speech, LLM inference, and task management with minima...", "description_zh": "", "downloads": 391, "homepage": "https://clawhub.ai/lmanchu/pcclaw", "iconUrl": null, "installs": 35, "name": "PCClaw", "ownerName": "lmanchu", "score": 17944.01101422671, "slug": "pcclaw", "source": "clawhub", "stars": 0, "tags": null, "updated_at": 1776759120405, "version": "2.0.0"}]}