{"page": 212, "total_pages": 522, "total": 26073, "skills": [{"category": "ai-intelligence", "created_at": 1772788730004, "description": "Play Colony game on Solana — buy lands, upgrade, claim $OLO earnings, swap tokens via Jupiter. Full autonomous gameplay with strategy optimization.", "description_zh": "", "downloads": 391, "homepage": "https://clawhub.ai/manylov/colony-solana", "iconUrl": null, "installs": 19, "name": "Colony Solana", "ownerName": "manylov", "score": 17944.01101422671, "slug": "colony-solana", "source": "clawhub", "stars": 0, "tags": ["defi", "gaming", "idle-game", "solana"], "updated_at": 1776759120400, "version": "1.0.0"}, {"category": "ai-intelligence", "created_at": 1773079895461, "description": "AI product mentor powered by 300+ Lenny's Podcast episodes. Surfaces wisdom from Brian Chesky, Shreyas Doshi, April Dunford, and other world-class leaders. T...", "description_zh": "", "downloads": 391, "homepage": "https://clawhub.ai/phy041/phy-lenny-mentor", "iconUrl": null, "installs": 17, "name": "Lenny Mentor", "ownerName": "phy041", "score": 67881.94444444444, "slug": "phy-lenny-mentor", "source": "clawhub", "stars": 0, "tags": ["mentor", "podcast", "product"], "updated_at": 1776752083895, "version": "1.0.0"}, {"category": "developer-tools", "created_at": 1772793665739, "description": "Currency exchange rate conversion using exchangerate-api.com. Use when: (1) converting between currencies, (2) checking current exchange rates, (3) viewing c...", "description_zh": "", "downloads": 391, "homepage": "https://clawhub.ai/ouyangabel/currency-exchange", "iconUrl": null, "installs": 11, "name": "Currency Exchange Rate", "ownerName": "ouyangabel", "score": 88063.06306306306, "slug": "currency-exchange", "source": "clawhub", "stars": 0, "tags": ["convert", "currency", "exchange", "finance", "forex"], "updated_at": 1776748485475, "version": "1.0.0"}, {"category": "security-compliance", "created_at": 1772787344909, "description": "Security auditor for ClawHub skills. Run before installing ANY skill — scans SKILL.md and scripts for prompt injection, data exfiltration, shell injection, p...", "description_zh": "", "downloads": 391, "homepage": "https://clawhub.ai/taha2053/claw-guard", "iconUrl": null, "installs": 7, "name": "ClawGuard", "ownerName": "taha2053", "score": 86696.23059866962, "slug": "claw-guard", "source": "clawhub", "stars": 0, "tags": null, "updated_at": 1776748485379, "version": "1.0.0"}, {"category": "ai-intelligence", "created_at": 1772788278790, "description": "Helps detect supply chain poisoning in AI agent marketplace skills. Scans Gene/Capsule validation fields for shell injection, outbound requests, and encoded...", "description_zh": "", "downloads": 391, "homepage": "https://clawhub.ai/andyxinweiminicloud/supply-chain-poison-detector", "iconUrl": null, "installs": 18, "name": "Supply Chain Poison Detector", "ownerName": "andyxinweiminicloud", "score": 93540.66985645934, "slug": "supply-chain-poison-detector", "source": "clawhub", "stars": 0, "tags": null, "updated_at": 1776748485081, "version": "1.0.1"}, {"category": "productivity", "created_at": 1773285897714, "description": "Work safely with files inside the OpenClaw workspace sandbox. Use for listing directories, reading text files, writing text files, and searching files by nam...", "description_zh": "", "downloads": 391, "homepage": "https://clawhub.ai/ecosincronia/workspace-files", "iconUrl": null, "installs": 16, "name": "Workspace Files", "ownerName": "ecosincronia", "score": 93540.66985645934, "slug": "workspace-files", "source": "clawhub", "stars": 0, "tags": null, "updated_at": 1776748485056, "version": "1.0.1"}, {"category": "developer-tools", "created_at": 1772789579703, "description": "Google Workspace CLI for Gmail, Calendar, Drive, Contacts, Sheets, and Docs.", "description_zh": "", "downloads": 391, "homepage": "https://clawhub.ai/hailinhmacduc/asdasdas", "iconUrl": null, "installs": 5, "name": "asdasdsad", "ownerName": "hailinhmacduc", "score": 66609.8807495741, "slug": "asdasdas", "source": "clawhub", "stars": 0, "tags": null, "updated_at": 1776748484709, "version": "1.0.0"}, {"category": "content-creation", "created_at": 1772792089717, "description": "Query land ownership, leases, landlord info, and land payments. Write operations for payment management and lease renewals.", "description_zh": "", "downloads": 391, "homepage": "https://clawhub.ai/brianppetty/farmos-land-portfolio", "iconUrl": null, "installs": 30, "name": "Farmos Land Portfolio", "ownerName": "brianppetty", "score": 84086.02150537634, "slug": "farmos-land-portfolio", "source": "clawhub", "stars": 0, "tags": null, "updated_at": 1776748484420, "version": "1.0.0"}, {"category": "developer-tools", "created_at": 1772798237943, "description": "Build a high-signal AI intelligence brief from fresh web sources, with separate daily and weekly formats. Use when the user asks for latest AI news, trend mo...", "description_zh": "", "downloads": 391, "homepage": "https://clawhub.ai/yikailucas/ai-intel-radar", "iconUrl": null, "installs": 9, "name": "AI Intel Radar", "ownerName": "yikailucas", "score": 82663.84778012686, "slug": "ai-intel-radar", "source": "clawhub", "stars": 0, "tags": null, "updated_at": 1776748484255, "version": "0.1.0"}, {"category": "data-analysis", "created_at": 1772791761046, "description": "Generate complete, responsive HTML landing pages from a product name, tagline, and description. Clean CSS, mobile-ready, with hero, features, CTA, and footer...", "description_zh": "", "downloads": 391, "homepage": "https://clawhub.ai/claudiodrusus/shelly-landing-gen", "iconUrl": null, "installs": 7, "name": "Landing Page Generator", "ownerName": "claudiodrusus", "score": 76218.32358674463, "slug": "shelly-landing-gen", "source": "clawhub", "stars": 0, "tags": null, "updated_at": 1776748484021, "version": "1.0.0"}, {"category": "developer-tools", "created_at": 1772793664202, "description": "Interact with Joplin notes via CLI. Use for reading, creating, editing notes and managing todos. Supports WebDAV sync and kanban-formatted notes.", "description_zh": "", "downloads": 390, "homepage": "https://clawhub.ai/davek-dev/joplin", "iconUrl": null, "installs": 13, "name": "joplin", "ownerName": "davek-dev", "score": 100000, "slug": "joplin", "source": "clawhub", "stars": 3, "tags": null, "updated_at": 1776748484892, "version": "1.3.2"}, {"category": "ai-intelligence", "created_at": 1772790117018, "description": "Query your personal health data from wearables and nutrition logs and get AI coaching on sleep, workouts, heart rate, recovery, and health insights.", "description_zh": "", "downloads": 390, "homepage": "https://clawhub.ai/danmurphy1217/nori-health", "iconUrl": null, "installs": 11, "name": "Nori Health", "ownerName": "danmurphy1217", "score": 75438.59649122808, "slug": "nori-health", "source": "clawhub", "stars": 2, "tags": null, "updated_at": 1776759083260, "version": "1.0.6"}, {"category": "developer-tools", "created_at": 1772791773532, "description": "Query, troubleshoot, and explain Translink SEQ GTFS static + realtime data using local translink_* commands or plugin slash commands. Use for schedule lookup...", "description_zh": "", "downloads": 390, "homepage": "https://clawhub.ai/alanburchill/translink-cli", "iconUrl": null, "installs": 5, "name": "Translink CLI", "ownerName": "alanburchill", "score": 90526.3157894737, "slug": "translink-cli", "source": "clawhub", "stars": 2, "tags": ["brisbane", "gtfs", "openclaw", "transit"], "updated_at": 1776748484799, "version": "1.0.1"}, {"category": "data-analysis", "created_at": 1773289695197, "description": "DeFi liquidity analysis reference — AMM mechanics, Uniswap V2/V3 math, Curve StableSwap, impermanent loss calculation, and MEV protection strategies", "description_zh": "", "downloads": 390, "homepage": "https://clawhub.ai/bytesagain1/liquidity-monitor", "iconUrl": null, "installs": 9, "name": "Liquidity Monitor", "ownerName": "bytesagain1", "score": 1539.9802566633762, "slug": "liquidity-monitor", "source": "clawhub", "stars": 0, "tags": ["chinese", "productivity"], "updated_at": 1776770171160, "version": "4.0.0"}, {"category": "ai-intelligence", "created_at": 1772792770353, "description": "Agent-to-agent commerce on MegaETH. Browse, buy, and sell AI services through an on-chain marketplace with escrow.", "description_zh": "", "downloads": 390, "homepage": "https://clawhub.ai/planetai87/pulseai-skill", "iconUrl": null, "installs": 16, "name": "pulseai-skill", "ownerName": "planetai87", "score": 41445.27098831031, "slug": "pulseai-skill", "source": "clawhub", "stars": 0, "tags": null, "updated_at": 1776767049976, "version": "1.0.7"}, {"category": "security-compliance", "created_at": 1773283793401, "description": "Sandboxed command runner for AI agents — validates and isolates every shell action inside a Bubblewrap user namespace.", "description_zh": "", "downloads": 390, "homepage": "https://clawhub.ai/star8592/skillshield-openclaw", "iconUrl": null, "installs": 10, "name": "Openclaw Skill", "ownerName": "star8592", "score": 28867.505551443373, "slug": "skillshield-openclaw", "source": "clawhub", "stars": 0, "tags": ["security", "system"], "updated_at": 1776759120833, "version": "2.1.8"}, {"category": "data-analysis", "created_at": 1772790708330, "description": "Generate 20 creative brand name ideas for any industry with style and attribute options, including .com domain availability hints.", "description_zh": "", "downloads": 390, "homepage": "https://clawhub.ai/claudiodrusus/shelly-brand-name-generator", "iconUrl": null, "installs": 18, "name": "Brand Name Generator", "ownerName": "claudiodrusus", "score": 28867.505551443373, "slug": "shelly-brand-name-generator", "source": "clawhub", "stars": 0, "tags": null, "updated_at": 1776759120775, "version": "1.0.0"}, {"category": "developer-tools", "created_at": 1772785148509, "description": "Enforce release discipline for AI agents and developers. Prevents version spam, forces quality checks before publishing, and maintains a 24-hour cooldown bet...", "description_zh": "", "downloads": 390, "homepage": "https://clawhub.ai/mupengi-bot/mupeng-release-discipline", "iconUrl": null, "installs": 3, "name": "Release Discipline", "ownerName": "mupengi-bot", "score": 68301.22591943957, "slug": "mupeng-release-discipline", "source": "clawhub", "stars": 0, "tags": null, "updated_at": 1776748485679, "version": "1.0.0"}, {"category": "productivity", "created_at": 1773432192026, "description": "Use when user asks to \"generate workshop outline\", \"create training agenda\", \"design course structure\", \"build workshop schedule\", or requests help planning...", "description_zh": "", "downloads": 390, "homepage": "https://clawhub.ai/mebusw/jackyshen-design-workshop-outline", "iconUrl": null, "installs": 289, "name": "jackyshen-design-workshop-outline", "ownerName": "mebusw", "score": 95354.52322738386, "slug": "jackyshen-design-workshop-outline", "source": "clawhub", "stars": 0, "tags": null, "updated_at": 1776748485327, "version": "1.0.0"}, {"category": "productivity", "created_at": 1772793622867, "description": "Use when: you want to optimize an OpenClaw setup (v2026.2.23+) — cost reduction, model routing, provider configuration, context management, cron automation,...", "description_zh": "", "downloads": 390, "homepage": "https://clawhub.ai/jacob-bd/openclaw-optimizer", "iconUrl": null, "installs": 15, "name": "Openclaw Optimizer", "ownerName": "jacob-bd", "score": 68062.8272251309, "slug": "openclaw-optimizer", "source": "clawhub", "stars": 0, "tags": null, "updated_at": 1776748485083, "version": "1.19.0"}, {"category": "productivity", "created_at": 1772793622867, "description": "Use when: you want to optimize an OpenClaw setup (v2026.2.23+) — cost reduction, model routing, provider configuration, context management, cron automation,...", "description_zh": "", "downloads": 390, "homepage": "https://clawhub.ai/jacob-bd/openclaw-optimizer", "iconUrl": null, "installs": 15, "name": "Openclaw Optimizer", "ownerName": "jacob-bd", "score": 93301.43540669857, "slug": "openclaw-optimizer", "source": "clawhub", "stars": 0, "tags": null, "updated_at": 1776748485083, "version": "1.19.0"}, {"category": "productivity", "created_at": 1773416349223, "description": "Craft tweets, threads, and viral hooks with schedule tips. Use when drafting copy, editing threads, optimizing engagement, scheduling posts.", "description_zh": "", "downloads": 390, "homepage": "https://clawhub.ai/xueyetianya/tweet-generator", "iconUrl": null, "installs": 19, "name": "Tweet Generator", "ownerName": "xueyetianya", "score": 91549.2957746479, "slug": "tweet-generator", "source": "clawhub", "stars": 0, "tags": ["chinese", "productivity"], "updated_at": 1776748484584, "version": "2.0.1"}, {"category": "developer-tools", "created_at": 1774616715395, "description": "Build structured brainstorming notes from a seed zettel by retrieving linked notes, preprocessing each note with subagents for relevance extraction, drafting...", "description_zh": "", "downloads": 390, "homepage": "https://clawhub.ai/hxy9243/zettel-brainstormer", "iconUrl": null, "installs": 8, "name": "zettel-brainstormer", "ownerName": "hxy9243", "score": 91549.2957746479, "slug": "zettel-brainstormer", "source": "clawhub", "stars": 0, "tags": null, "updated_at": 1776748484559, "version": "1.1.2"}, {"category": "developer-tools", "created_at": 1772786168879, "description": "Create and manage ERC-4337 smart accounts, policies, permissions, and enforcement for AI agents with on-chain spending guardrails.", "description_zh": "", "downloads": 390, "homepage": "https://clawhub.ai/shawnwollenberg/guardrail-smart-accounts", "iconUrl": null, "installs": 4, "name": "Guardrail Smart Accounts", "ownerName": "shawnwollenberg", "score": 82452.43128964059, "slug": "guardrail-smart-accounts", "source": "clawhub", "stars": 0, "tags": null, "updated_at": 1776748484222, "version": "1.0.8"}, {"category": "ai-intelligence", "created_at": 1773076954188, "description": "Search, browse, and read the user's local documents indexed by Linkly AI. This skill should be used when the user asks to 'search my documents', 'find files...", "description_zh": "", "downloads": 390, "homepage": "https://clawhub.ai/linkly-ai/linkly-ai", "iconUrl": null, "installs": 13, "name": "Linkly Ai Skills", "ownerName": "linkly-ai", "score": 76023.39181286549, "slug": "linkly-ai", "source": "clawhub", "stars": 0, "tags": null, "updated_at": 1776748483998, "version": "0.1.11"}, {"category": "developer-tools", "created_at": 1772792400004, "description": "Automate X (Twitter) via Chromium CDP: post tweets, reply, quote-retweet, publish articles. Uses real browser sessions with existing login, no API keys neede...", "description_zh": "", "downloads": 389, "homepage": "https://clawhub.ai/stwith/x-cdp", "iconUrl": null, "installs": 15, "name": "X CDP Automation", "ownerName": "stwith", "score": 30588.94230769231, "slug": "x-cdp", "source": "clawhub", "stars": 6, "tags": ["automation", "cdp", "chromium", "puppeteer", "twitter", "x"], "updated_at": 1776756527240, "version": "1.0.0"}, {"category": "content-creation", "created_at": 1772791226811, "description": "Build UI components and pages using AIOZ UI V3 design system. Use this skill whenever the user wants to create, edit, or style React components using AIOZ UI...", "description_zh": "", "downloads": 389, "homepage": "https://clawhub.ai/datnguyen26730/aioz-ui-skills", "iconUrl": null, "installs": 26, "name": "AIOZ UI Skills", "ownerName": "datnguyen26730", "score": 99305.55555555556, "slug": "aioz-ui-skills", "source": "clawhub", "stars": 2, "tags": null, "updated_at": 1776748484356, "version": "1.0.1"}, {"category": "productivity", "created_at": 1772786381861, "description": "Prepare for the SAT with adaptive practice, score prediction, weak area targeting, and college admissions planning.", "description_zh": "", "downloads": 389, "homepage": "https://clawhub.ai/ivangdavila/sat", "iconUrl": null, "installs": 7, "name": "SAT", "ownerName": "ivangdavila", "score": 87730.06134969325, "slug": "sat", "source": "clawhub", "stars": 2, "tags": null, "updated_at": 1776748483667, "version": "1.0.1"}, {"category": "", "created_at": 1774902584783, "description": "Use when starting any development work or when unsure which superpowers development skill to use - provides entry point and navigation to the full superpower...", "description_zh": "", "downloads": 389, "homepage": "https://clawhub.ai/axelhu/superpowers-overview", "iconUrl": null, "installs": 39, "name": "Superpowers Overview", "ownerName": "axelhu", "score": 3712.540561175797, "slug": "superpowers-overview", "source": "clawhub", "stars": 0, "tags": null, "updated_at": 1776769450057, "version": "1.2.0"}, {"category": "content-creation", "created_at": 1773080317820, "description": "Extract multilingual product data from Amazon and sync it to Shopify with automatic token renewal and English content rewriting via REST Admin API.", "description_zh": "", "downloads": 389, "homepage": "https://clawhub.ai/walynlee/amazon-to-shopify-sync", "iconUrl": null, "installs": 65, "name": "amazon-to-shopify-sync", "ownerName": "walynlee", "score": 7716.722872445943, "slug": "amazon-to-shopify-sync", "source": "clawhub", "stars": 0, "tags": null, "updated_at": 1776763450553, "version": "1.0.0"}, {"category": "ai-intelligence", "created_at": 1773061087836, "description": "Generate professional infographics using each::sense AI. Create statistical, process, comparison, timeline, list, geographic, hierarchical, resume, report, a...", "description_zh": "", "downloads": 389, "homepage": "https://clawhub.ai/eftalyurtseven/infographic-generation", "iconUrl": null, "installs": 56, "name": "Infographic Generation", "ownerName": "eftalyurtseven", "score": 30414.386239249412, "slug": "infographic-generation", "source": "clawhub", "stars": 0, "tags": null, "updated_at": 1776759797882, "version": "1.0.0"}, {"category": "productivity", "created_at": 1772790856003, "description": "Verify user age via ID, face estimation, or third-party services to enforce age restrictions and enable parental controls.", "description_zh": "", "downloads": 389, "homepage": "https://clawhub.ai/raghulpasupathi/age-verification", "iconUrl": null, "installs": 6, "name": "Age Verification", "ownerName": "raghulpasupathi", "score": 28793.486306439674, "slug": "age-verification", "source": "clawhub", "stars": 0, "tags": null, "updated_at": 1776759120848, "version": "1.0.0"}, {"category": "developer-tools", "created_at": 1772793377234, "description": "Ledger-informed persona lifecycle management. Replaces low-performing personas with successor personas derived from mistake patterns in board decision histor...", "description_zh": "", "downloads": 389, "homepage": "https://clawhub.ai/kaicianflone/consensus-persona-respawn", "iconUrl": null, "installs": 3, "name": "consensus-persona-respawn", "ownerName": "kaicianflone", "score": 28793.486306439674, "slug": "consensus-persona-respawn", "source": "clawhub", "stars": 0, "tags": null, "updated_at": 1776759120802, "version": "1.1.13"}, {"category": "developer-tools", "created_at": 1772794851484, "description": "call coinank openapi to get data", "description_zh": "", "downloads": 389, "homepage": "https://clawhub.ai/annata/coinank-openapi", "iconUrl": null, "installs": 9, "name": "coinank-openapi", "ownerName": "annata", "score": 28793.486306439674, "slug": "coinank-openapi", "source": "clawhub", "stars": 0, "tags": null, "updated_at": 1776759120482, "version": "1.0.2"}, {"category": "content-creation", "created_at": 1772790495111, "description": "Provides a guardian portal for monitoring child activity, managing screen time, setting content filters, and receiving real-time alerts with PIN protection.", "description_zh": "", "downloads": 389, "homepage": "https://clawhub.ai/raghulpasupathi/parental-controls", "iconUrl": null, "installs": 26, "name": "Parental Controls", "ownerName": "raghulpasupathi", "score": 17852.225791647543, "slug": "parental-controls", "source": "clawhub", "stars": 0, "tags": null, "updated_at": 1776759120443, "version": "1.0.0"}, {"category": "security-compliance", "created_at": 1772792892102, "description": "Get delegated access for AI agents via TapAuth — the trust layer between humans and AI agents. Use when your agent needs to access GitHub, Google Workspace,...", "description_zh": "", "downloads": 389, "homepage": "https://clawhub.ai/schwartzdev/tapauth", "iconUrl": null, "installs": 8, "name": "TapAuth", "ownerName": "schwartzdev", "score": 68126.0945709282, "slug": "tapauth", "source": "clawhub", "stars": 0, "tags": null, "updated_at": 1776748485626, "version": "1.2.1"}, {"category": "developer-tools", "created_at": 1772788448944, "description": "Get a complete financial overview of the business including balance, recent transactions, outstanding invoices, and upcoming tax obligations. Use when the us...", "description_zh": "", "downloads": 389, "homepage": "https://clawhub.ai/stanlee000/norman-financial-overview", "iconUrl": null, "installs": 5, "name": "Norman: Financial Overview", "ownerName": "stanlee000", "score": 86444.44444444445, "slug": "norman-financial-overview", "source": "clawhub", "stars": 0, "tags": null, "updated_at": 1776748484949, "version": "1.0.1"}, {"category": "developer-tools", "created_at": 1772790382332, "description": "Set up SLA monitoring and uptime tracking for AI agents and services. Generates monitoring configs, alert rules, and incident response playbooks. Use when de...", "description_zh": "", "downloads": 389, "homepage": "https://clawhub.ai/1kalin/sla-monitor", "iconUrl": null, "installs": 4, "name": "SLA Monitor", "ownerName": "1kalin", "score": 81894.73684210527, "slug": "sla-monitor", "source": "clawhub", "stars": 0, "tags": null, "updated_at": 1776748484824, "version": "1.0.0"}, {"category": "data-analysis", "created_at": 1772788931996, "description": "Distributed SETI scanner - contribute compute power to analyze real radio telescope data from Breakthrough Listen. Earn tokens when your analysis discovers a...", "description_zh": "", "downloads": 389, "homepage": "https://clawhub.ai/synergysize/openseti-skill", "iconUrl": null, "installs": 10, "name": "OpenSETI", "ownerName": "synergysize", "score": 66269.16524701874, "slug": "openseti-skill", "source": "clawhub", "stars": 0, "tags": null, "updated_at": 1776748484688, "version": "0.1.0"}, {"category": "ai-intelligence", "created_at": 1772788841248, "description": "Job board for agents. Submit jobs, report bad listings. Humans use agents to browse and apply.", "description_zh": "", "downloads": 389, "homepage": "https://clawhub.ai/yuqi-or-yuki/humaboam-final", "iconUrl": null, "installs": 21, "name": "Humaboam Final", "ownerName": "yuqi-or-yuki", "score": 92619.04761904762, "slug": "humaboam-final", "source": "clawhub", "stars": 0, "tags": null, "updated_at": 1776748484644, "version": "2.0.0"}, {"category": "ai-intelligence", "created_at": 1773289395049, "description": "Reference tool for blockchain and crypto — covers intro, quickstart, patterns and more. Quick lookup for Crypto Whale Tracker concepts, best practices, and i...", "description_zh": "", "downloads": 389, "homepage": "https://clawhub.ai/bytesagain1/crypto-whale-tracker", "iconUrl": null, "installs": 15, "name": "Crypto Whale Tracker", "ownerName": "bytesagain1", "score": 92619.04761904762, "slug": "crypto-whale-tracker", "source": "clawhub", "stars": 0, "tags": ["chinese", "productivity"], "updated_at": 1776748484627, "version": "4.0.2"}, {"category": "ai-intelligence", "created_at": 1772793902303, "description": "Anti-detection browser automation MCP skill for OpenClaw agents with 41 tools for navigation, interaction, extraction, downloads, profiles, sessions, and ste...", "description_zh": "", "downloads": 389, "homepage": "https://clawhub.ai/redf0x1/camofox-mcp", "iconUrl": null, "installs": 18, "name": "CamoFox MCP", "ownerName": "redf0x1", "score": 91314.55399061032, "slug": "camofox-mcp", "source": "clawhub", "stars": 0, "tags": ["ai-agent", "anti-detection", "browser-automation", "camofox", "mcp", "stealth"], "updated_at": 1776748484568, "version": "1.10.0"}, {"category": "security-compliance", "created_at": 1772789009618, "description": "Security audit agent for GEP/EvoMap ecosystem. Scans Gene/Capsule assets using immune-system-inspired 3-layer detection: L1 pattern scan, L2 intent inference...", "description_zh": "", "downloads": 389, "homepage": "https://clawhub.ai/andyxinweiminicloud/gep-immune-auditor", "iconUrl": null, "installs": 10, "name": "GEP Immune Auditor", "ownerName": "andyxinweiminicloud", "score": 82241.01479915433, "slug": "gep-immune-auditor", "source": "clawhub", "stars": 0, "tags": null, "updated_at": 1776748484171, "version": "1.0.1"}, {"category": "ai-intelligence", "created_at": 1772793082705, "description": "Fully offline, CUDA-accelerated local voice assistant pipeline for NVIDIA Jetson. Wake word (openWakeWord) → real-time VAD → whisper.cpp GPU STT → LLM → Pipe...", "description_zh": "", "downloads": 389, "homepage": "https://clawhub.ai/nikil511/jetson-cuda-voice", "iconUrl": null, "installs": 22, "name": "Jetson CUDA Voice Pipeline", "ownerName": "nikil511", "score": 75828.46003898636, "slug": "jetson-cuda-voice", "source": "clawhub", "stars": 0, "tags": null, "updated_at": 1776748483985, "version": "1.1.0"}, {"category": "ai-intelligence", "created_at": 1773059969349, "description": "Trade on Polymarket prediction markets. Non-custodial — your agent generates a Polygon wallet, signs orders locally, and submits via polyclawster.com relay (...", "description_zh": "", "downloads": 388, "homepage": "https://clawhub.ai/al1enjesus/polyclawster-agent", "iconUrl": null, "installs": 22, "name": "Polyclawster", "ownerName": "al1enjesus", "score": 24070.79646017699, "slug": "polyclawster-agent", "source": "clawhub", "stars": 1, "tags": null, "updated_at": 1776756488452, "version": "2.0.1"}, {"category": "security-compliance", "created_at": 1772789805866, "description": "Use `otta-cli` to automate `otta.fi` workflows from terminal. This tool is usually used for tracking working time, absences, and sick leaves: authenticate, i...", "description_zh": "", "downloads": 388, "homepage": "https://clawhub.ai/mekedron/otta-cli", "iconUrl": null, "installs": 6, "name": "otta-cli", "ownerName": "mekedron", "score": 8473.465822231929, "slug": "otta-cli", "source": "clawhub", "stars": 0, "tags": null, "updated_at": 1776769150324, "version": "0.1.1"}, {"category": "developer-tools", "created_at": 1773937325502, "description": "All-in-one developer toolkit for encoding, formatting, time conversion, regex testing, encryption, code snippets, and network utilities.", "description_zh": "", "downloads": 388, "homepage": "https://clawhub.ai/luduoxin/developer-utils", "iconUrl": null, "installs": 10, "name": "Developer Utils", "ownerName": "luduoxin", "score": 16972.878390201222, "slug": "developer-utils", "source": "clawhub", "stars": 0, "tags": null, "updated_at": 1776767050246, "version": "1.0.2"}, {"category": "data-analysis", "created_at": 1773284023064, "description": "Manage your entire social media from AI — post, schedule, and analyze across Facebook, Instagram, TikTok, YouTube, LinkedIn, Pinterest, Threads, Bluesky and...", "description_zh": "", "downloads": 388, "homepage": "https://clawhub.ai/jacksimplified/simplified-social-media", "iconUrl": null, "installs": 5, "name": "Simplified Social Media", "ownerName": "jacksimplified", "score": 6359.613178167514, "slug": "simplified-social-media", "source": "clawhub", "stars": 0, "tags": null, "updated_at": 1776765549741, "version": "1.2.2"}, {"category": "developer-tools", "created_at": 1773090246887, "description": "E-commerce inventory management for Taobao, Douyin, and other platforms. Use when tracking stock levels, syncing inventory across stores, managing suppliers,...", "description_zh": "", "downloads": 388, "homepage": "https://clawhub.ai/yinanping-cpu/yinan-inventory-manager", "iconUrl": null, "installs": 133, "name": "Inventory Manager", "ownerName": "yinanping-cpu", "score": 12864.72148541114, "slug": "yinan-inventory-manager", "source": "clawhub", "stars": 0, "tags": null, "updated_at": 1776761690291, "version": "1.0.0"}, {"category": "content-creation", "created_at": 1772793617290, "description": "Publish Naver Blog posts through the ACP marketplace flow (buyer-local thin-runner + sealed payload + offering execute). Use when a user asks to write/publis...", "description_zh": "", "downloads": 388, "homepage": "https://clawhub.ai/y80163442-boop/naver-blog-writer", "iconUrl": null, "installs": 25, "name": "Naver Blog Publisher", "ownerName": "y80163442-boop", "score": 28677.0140428677, "slug": "naver-blog-writer", "source": "clawhub", "stars": 0, "tags": null, "updated_at": 1776759120692, "version": "0.6.1"}]}