{"page": 213, "total_pages": 522, "total": 26073, "skills": [{"category": "content-creation", "created_at": 1772789222308, "description": "Expert guidance on designing branching strategies, commit standards, code review workflows, monorepo management, automated releases, and maintaining scalable...", "description_zh": "", "downloads": 388, "homepage": "https://clawhub.ai/1kalin/afrexai-git-engineering", "iconUrl": null, "installs": 20, "name": "Git Engineering & Repository Strategy", "ownerName": "1kalin", "score": 28719.46706143597, "slug": "afrexai-git-engineering", "source": "clawhub", "stars": 0, "tags": ["branching", "code-review", "devops", "git", "github", "monorepo", "release"], "updated_at": 1776759120475, "version": "1.0.0"}, {"category": "ai-intelligence", "created_at": 1772791082588, "description": "Generates AI summaries of conversations after silence, extracting entities, action items, and relationships for searchable meeting notes and context retrieval.", "description_zh": "", "downloads": 388, "homepage": "https://clawhub.ai/jarvis563/percept-summarize", "iconUrl": null, "installs": 22, "name": "Percept Summarize", "ownerName": "jarvis563", "score": 17806.33318035796, "slug": "percept-summarize", "source": "clawhub", "stars": 0, "tags": null, "updated_at": 1776759120450, "version": "1.0.0"}, {"category": "ai-intelligence", "created_at": 1772789455449, "description": "Structured work tracking methodology using Plans. Use when creating, managing, reviewing, or delegating plans for significant work. Covers plan lifecycle (dr...", "description_zh": "", "downloads": 388, "homepage": "https://clawhub.ai/cramtek/plans-methodology", "iconUrl": null, "installs": 18, "name": "Plans Methodology", "ownerName": "cramtek", "score": 20314.13612565445, "slug": "plans-methodology", "source": "clawhub", "stars": 0, "tags": ["multi-agent", "planning", "productivity", "project-management", "task-tracking"], "updated_at": 1776754069785, "version": "1.0.0"}, {"category": "ai-intelligence", "created_at": 1772801340558, "description": "Virtual Visa/MC cards funded by USDT + financial intelligence. Issue cards, make purchases, handle 3DS, accept crypto payments — with built-in phishing detec...", "description_zh": "", "downloads": 388, "homepage": "https://clawhub.ai/elvismusli/moneyclaw", "iconUrl": null, "installs": 39, "name": "MoneyClaw", "ownerName": "elvismusli", "score": 69534.05017921147, "slug": "moneyclaw", "source": "clawhub", "stars": 0, "tags": ["cards", "checkout", "invoices", "otp", "payments", "prepaid"], "updated_at": 1776748484291, "version": "4.2.0"}, {"category": "productivity", "created_at": 1772794936650, "description": "Send files via Feishu channel using message tool with filePath parameter.", "description_zh": "", "downloads": 388, "homepage": "https://clawhub.ai/josephyb97/feishui-file-sender", "iconUrl": null, "installs": 24, "name": "feishui-file-sender", "ownerName": "josephyb97", "score": 82029.59830866808, "slug": "feishui-file-sender", "source": "clawhub", "stars": 0, "tags": null, "updated_at": 1776748484223, "version": "1.0.0"}, {"category": "data-analysis", "created_at": 1772791575009, "description": "Use this skill for any task involving the ambit CLI: creating or destroying private networks, deploying apps to a private network, checking network or router...", "description_zh": "", "downloads": 388, "homepage": "https://clawhub.ai/toxicpine/ambit-cli", "iconUrl": null, "installs": 13, "name": "Ambit Cli", "ownerName": "toxicpine", "score": 86800.89485458613, "slug": "ambit-cli", "source": "clawhub", "stars": 0, "tags": null, "updated_at": 1776748484151, "version": "0.1.0"}, {"category": "security-compliance", "created_at": 1772787470860, "description": "Rigorous validation with typing, linting, testing, and security", "description_zh": "", "downloads": 388, "homepage": "https://clawhub.ai/guohongbin-git/mlops-validation-cn", "iconUrl": null, "installs": 9, "name": "MLOps Validation CN", "ownerName": "guohongbin-git", "score": 75633.5282651072, "slug": "mlops-validation-cn", "source": "clawhub", "stars": 0, "tags": ["chinese", "mlops"], "updated_at": 1776748484007, "version": "1.0.0"}, {"category": "productivity", "created_at": 1772791340541, "description": "Pre-ingestion verification for epistemic quality in RAG systems. Ensures documents are properly qualified before entering knowledge bases. Produces CGD (Clar...", "description_zh": "", "downloads": 388, "homepage": "https://clawhub.ai/frmoretto/clarity-gate", "iconUrl": null, "installs": 12, "name": "Clarity Gate", "ownerName": "frmoretto", "score": 75633.5282651072, "slug": "clarity-gate", "source": "clawhub", "stars": 0, "tags": null, "updated_at": 1776748484003, "version": "2.1.3"}, {"category": "data-analysis", "created_at": 1772788532831, "description": "RoomSound gives your agent the skill to play audio to your speakers. Starting with YouTube to Bluetooth speakers, expanding to local files and other sources.", "description_zh": "", "downloads": 388, "homepage": "https://clawhub.ai/icecat2005/roomsound", "iconUrl": null, "installs": 8, "name": "RoomSound", "ownerName": "icecat2005", "score": 86800.89485458613, "slug": "roomsound", "source": "clawhub", "stars": 0, "tags": ["ambient", "bluetooth", "bt", "controller", "music", "play", "sound", "speakers"], "updated_at": 1776748483866, "version": "0.1.5"}, {"category": "developer-tools", "created_at": 1772789890107, "description": "Trade on GRVT (Gravity Markets) derivatives exchange via the grvt-cli tool. Use when the user wants to trade crypto derivatives, place or cancel orders, chec...", "description_zh": "", "downloads": 388, "homepage": "https://clawhub.ai/madeinusmate/grvt-markets-agent-skill", "iconUrl": null, "installs": 3, "name": "Grvt Markets", "ownerName": "madeinusmate", "score": 92380.95238095238, "slug": "grvt-markets-agent-skill", "source": "clawhub", "stars": 0, "tags": null, "updated_at": 1776748483739, "version": "1.0.0"}, {"category": "communication-collaboration", "created_at": 1772794924483, "description": "Deploy a multi-agent AI team on Discord using Clawdbot, inspired by the Ming Dynasty Six Ministries. Use when setting up, configuring, scaling, or troublesho...", "description_zh": "", "downloads": 387, "homepage": "https://clawhub.ai/wanikua/ai-court", "iconUrl": null, "installs": 9, "name": "Ai Court", "ownerName": "wanikua", "score": 100000, "slug": "ai-court", "source": "clawhub", "stars": 3, "tags": null, "updated_at": 1776748483809, "version": "1.5.0"}, {"category": "ai-intelligence", "created_at": 1773057658487, "description": "Sync provider model lists into OpenClaw config (dry-run preview → confirm → apply). Trigger: /provider_sync", "description_zh": "", "downloads": 387, "homepage": "https://clawhub.ai/c-joey/provider-sync", "iconUrl": null, "installs": 22, "name": "Provider Sync", "ownerName": "c-joey", "score": 4759.1206735266605, "slug": "provider-sync", "source": "clawhub", "stars": 1, "tags": ["configuration", "gemini", "openai", "utility"], "updated_at": 1776766149824, "version": "2.1.5"}, {"category": "data-analysis", "created_at": 1772792534245, "description": "Post bounties and evaluate/accept winning submissions on poidh (pics or it didn't happen) on Arbitrum, Base, or Degen Chain. Use this skill when the user wan...", "description_zh": "", "downloads": 387, "homepage": "https://clawhub.ai/saltorioussig/poidh", "iconUrl": null, "installs": 8, "name": "POIDH Bounty Bot", "ownerName": "saltorioussig", "score": 23884.976525821596, "slug": "poidh", "source": "clawhub", "stars": 1, "tags": null, "updated_at": 1776755888873, "version": "1.0.3"}, {"category": "ai-intelligence", "created_at": 1772797079354, "description": "Enables the agent to review its own execution logs and deliver a professional, quantified daily work report. Defaults to 21:00 America/Los_Angeles and suppor...", "description_zh": "", "downloads": 387, "homepage": "https://clawhub.ai/freeslym/agent-daily-report-en", "iconUrl": null, "installs": 71, "name": "Agent Daily Report (EN)", "ownerName": "freeslym", "score": 96904.76190476191, "slug": "agent-daily-report-en", "source": "clawhub", "stars": 1, "tags": null, "updated_at": 1776748484624, "version": "1.0.1"}, {"category": "content-creation", "created_at": 1773079900940, "description": "Optimize and generate text-to-image prompts for AI art platforms. Use when a user wants to: (1) Optimize prompts for Midjourney, Nano Banana, Dreamina, Qwen...", "description_zh": "", "downloads": 387, "homepage": "https://clawhub.ai/elevo11/prompt-artist", "iconUrl": null, "installs": 81, "name": "Prompt Artist", "ownerName": "elevo11", "score": 9247.311827956988, "slug": "prompt-artist", "source": "clawhub", "stars": 0, "tags": null, "updated_at": 1776767350047, "version": "1.1.0"}, {"category": "ai-intelligence", "created_at": 1773218042835, "description": "Complete shipping and logistics intelligence system for ecommerce sellers, importers, exporters, and anyone moving physical goods. Trigger whenever someone n...", "description_zh": "", "downloads": 387, "homepage": "https://clawhub.ai/agenticio/ship", "iconUrl": null, "installs": 43, "name": "Ship", "ownerName": "agenticio", "score": 12067.35266604303, "slug": "ship", "source": "clawhub", "stars": 0, "tags": ["ecommerce", "fulfillment", "logistics", "ship", "shipping"], "updated_at": 1776765290448, "version": "1.0.0"}, {"category": "developer-tools", "created_at": 1772791078834, "description": "Automatically generate optimized Kubernetes deployment manifests from Dockerfile and docker-compose configurations with proper resource limits and health che...", "description_zh": "", "downloads": 387, "homepage": "https://clawhub.ai/root/neo-docker-to-k8s-manifests", "iconUrl": null, "installs": 2, "name": "Skill", "ownerName": "root", "score": 28645.44781643227, "slug": "neo-docker-to-k8s-manifests", "source": "clawhub", "stars": 0, "tags": null, "updated_at": 1776759120825, "version": "1.0.0"}, {"category": "data-analysis", "created_at": 1772789912200, "description": "Analyzes employee retention risk across 8 dimensions, identifies flight risks, estimates turnover costs, and provides a 90-day retention action plan with pri...", "description_zh": "", "downloads": 387, "homepage": "https://clawhub.ai/1kalin/afrexai-employee-retention", "iconUrl": null, "installs": 8, "name": "Employee Retention & Turnover Risk Analyzer", "ownerName": "1kalin", "score": 17760.44056906838, "slug": "afrexai-employee-retention", "source": "clawhub", "stars": 0, "tags": ["hr", "people-ops", "retention", "talent", "turnover", "workforce"], "updated_at": 1776759120407, "version": "1.0.0"}, {"category": "security-compliance", "created_at": 1772789390052, "description": "Business intelligence dashboard for Greek accounting firms. Compliance status, alerts, deadline tracking, and financial metrics at a glance.", "description_zh": "", "downloads": 387, "homepage": "https://clawhub.ai/satoshistackalotto/dashboard-greek-accounting", "iconUrl": null, "installs": 19, "name": "Dashboard Greek Accounting", "ownerName": "satoshistackalotto", "score": 22711.267605633802, "slug": "dashboard-greek-accounting", "source": "clawhub", "stars": 0, "tags": null, "updated_at": 1776755927162, "version": "0.1.0"}, {"category": "productivity", "created_at": 1772788068043, "description": "Auto-generate project workflow config (docs/workflow.md) from existing PRD and CLAUDE.md with zero questions. Use when user says \"set up workflow\", \"configur...", "description_zh": "", "downloads": 387, "homepage": "https://clawhub.ai/fortunto2/solo-setup", "iconUrl": null, "installs": 5, "name": "Setup", "ownerName": "fortunto2", "score": 87162.16216216216, "slug": "solo-setup", "source": "clawhub", "stars": 0, "tags": null, "updated_at": 1776748485462, "version": "2.1.1"}, {"category": "productivity", "created_at": 1772788068043, "description": "Auto-generate project workflow config (docs/workflow.md) from existing PRD and CLAUDE.md with zero questions. Use when user says \"set up workflow\", \"configur...", "description_zh": "", "downloads": 387, "homepage": "https://clawhub.ai/fortunto2/solo-setup", "iconUrl": null, "installs": 5, "name": "Setup", "ownerName": "fortunto2", "score": 85809.31263858093, "slug": "solo-setup", "source": "clawhub", "stars": 0, "tags": null, "updated_at": 1776748485462, "version": "2.1.1"}, {"category": "data-analysis", "created_at": 1772788457502, "description": "Cross-rail spend tracking for AI agents — Visa IC, Mastercard Agent Pay, Stripe ACP, x402, and ACH in one dashboard.", "description_zh": "", "downloads": 387, "homepage": "https://clawhub.ai/rsquaredsolutions2026/payrail402", "iconUrl": null, "installs": 7, "name": "payrail402", "ownerName": "rsquaredsolutions2026", "score": 67539.2670157068, "slug": "payrail402", "source": "clawhub", "stars": 0, "tags": ["agent-treasury", "ai-agents payments transaction-tracking fintech x402 visa mastercard stripe ach budget-enforcement anomaly-detection spend-management agent-economy cross-rail reconciliation", "api", "base", "budget", "crypto", "ethereum", "funding", "micropayments", "payments", "stripe", "usdc", "wallet", "x402"], "updated_at": 1776748485101, "version": "1.0.2"}, {"category": "ai-intelligence", "created_at": 1772792219335, "description": "Thread continuity + CAPTCHA solver for OpenClaw agents on Moltbook. Tracks engaged threads across heartbeats, surfaces only new replies, includes a feed curs...", "description_zh": "", "downloads": 387, "homepage": "https://clawhub.ai/ubgb/moltmemory", "iconUrl": null, "installs": 16, "name": "Moltmemory", "ownerName": "ubgb", "score": 92583.73205741627, "slug": "moltmemory", "source": "clawhub", "stars": 0, "tags": null, "updated_at": 1776748485007, "version": "1.5.5"}, {"category": "communication-collaboration", "created_at": 1772788242165, "description": "Find and attach missing receipts for business transactions. Search Gmail, email, or other sources for invoices and receipts, then upload them to Norman. Use...", "description_zh": "", "downloads": 387, "homepage": "https://clawhub.ai/stanlee000/norman-find-receipts", "iconUrl": null, "installs": 13, "name": "Norman: Find Receipts", "ownerName": "stanlee000", "score": 90845.07042253521, "slug": "norman-find-receipts", "source": "clawhub", "stars": 0, "tags": ["documents", "finance", "mcp", "norman", "receipts"], "updated_at": 1776748484586, "version": "1.0.0"}, {"category": "developer-tools", "created_at": 1773060953140, "description": "Daily social media posting with NewsAPI for PayLessTax & LevelUpLove", "description_zh": "", "downloads": 387, "homepage": "https://clawhub.ai/wespeakallday/social-media-publisher", "iconUrl": null, "installs": 6, "name": "Daily Social Media Publisher", "ownerName": "wespeakallday", "score": 90845.07042253521, "slug": "social-media-publisher", "source": "clawhub", "stars": 0, "tags": null, "updated_at": 1776748484566, "version": "1.0.0"}, {"category": "productivity", "created_at": 1772793180436, "description": "Multi-source company research tool that generates structured due-diligence reports. Use when the user asks to research, look up, or investigate a company — i...", "description_zh": "", "downloads": 387, "homepage": "https://clawhub.ai/fan31415/company-search", "iconUrl": null, "installs": 23, "name": "company-search", "ownerName": "fan31415", "score": 89583.33333333334, "slug": "company-search", "source": "clawhub", "stars": 0, "tags": null, "updated_at": 1776748484347, "version": "2.0.4"}, {"category": "data-analysis", "created_at": 1772791653984, "description": "Complete freelance billing workflow — generate professional invoices, track payment status, send automated reminders, and reconcile payments. Use when you ne...", "description_zh": "", "downloads": 387, "homepage": "https://clawhub.ai/kambrosgroup/invoice-tracker-pro", "iconUrl": null, "installs": 11, "name": "Invoice Tracker Pro", "ownerName": "kambrosgroup", "score": 88558.352402746, "slug": "invoice-tracker-pro", "source": "clawhub", "stars": 0, "tags": null, "updated_at": 1776748483961, "version": "1.0.0"}, {"category": "content-creation", "created_at": 1772790717438, "description": "Post to Moltgram — Instagram for AI Agents. Register, generate images, post, like, follow, and comment.", "description_zh": "", "downloads": 386, "homepage": "https://clawhub.ai/danielmerja/moltgram-social", "iconUrl": null, "installs": 20, "name": "Moltgram", "ownerName": "danielmerja", "score": 74605.95446584938, "slug": "moltgram-social", "source": "clawhub", "stars": 2, "tags": null, "updated_at": 1776748485647, "version": "1.1.1"}, {"category": "developer-tools", "created_at": 1772792334585, "description": "Cache and use skills from ClawHub and GitHub as if locally installed. Stores remote skills in local cache folder for offline use.", "description_zh": "", "downloads": 386, "homepage": "https://clawhub.ai/oki3505f/remote-skill-engine", "iconUrl": null, "installs": 9, "name": "Remote Skill Engine", "ownerName": "oki3505f", "score": 100000, "slug": "remote-skill-engine", "source": "clawhub", "stars": 2, "tags": null, "updated_at": 1776748484591, "version": "1.0.0"}, {"category": "data-analysis", "created_at": 1772789411357, "description": "Transparent LLM proxy that monitors and enforces policies on AI agent behavior — evaluates responses against configurable rules for hallucinations, PII leaks...", "description_zh": "", "downloads": 386, "homepage": "https://clawhub.ai/sentinel199/open-sentinel", "iconUrl": null, "installs": 10, "name": "Open Sentinel - Agent Reliability Layer", "ownerName": "sentinel199", "score": 91612.90322580645, "slug": "open-sentinel", "source": "clawhub", "stars": 2, "tags": null, "updated_at": 1776748484471, "version": "1.0.4"}, {"category": "data-analysis", "created_at": 1772800546178, "description": "Interact with R and RStudio environments for scientific research tasks including creating projects, running analyses, managing dependencies, and generating p...", "description_zh": "", "downloads": 386, "homepage": "https://clawhub.ai/jackkuo666/rstudio-research-agent", "iconUrl": null, "installs": 85, "name": "Rstudio Research Agent", "ownerName": "jackkuo666", "score": 71604.93827160493, "slug": "rstudio-research-agent", "source": "clawhub", "stars": 1, "tags": null, "updated_at": 1776752383877, "version": "0.1.0"}, {"category": "developer-tools", "created_at": 1772793451264, "description": "Astrology API: generate natal charts, synastry, composite, transits, solar/lunar returns, progressions, directions, planetary positions, house cusps, aspects...", "description_zh": "", "downloads": 386, "homepage": "https://clawhub.ai/serslon/astroapi-skill", "iconUrl": null, "installs": 12, "name": "Astrology API", "ownerName": "serslon", "score": 85473.6842105263, "slug": "astroapi-skill", "source": "clawhub", "stars": 1, "tags": null, "updated_at": 1776748484765, "version": "1.0.2"}, {"category": "content-creation", "created_at": 1773064863835, "description": "Plan, schedule, and track content across channels — newsletters, social media, blog posts, and videos. Manages pipeline stages, publishing cadence, and repur...", "description_zh": "", "downloads": 386, "homepage": "https://clawhub.ai/clawdssen/content-calendar", "iconUrl": null, "installs": 33, "name": "Content Calendar", "ownerName": "clawdssen", "score": 8429.788163354444, "slug": "content-calendar", "source": "clawhub", "stars": 0, "tags": null, "updated_at": 1776769190420, "version": "1.0.1"}, {"category": "content-creation", "created_at": 1773057766164, "description": "Unified speech-to-text skill. Use when the user asks to transcribe audio or video, generate subtitles, identify speakers, translate speech, search transcript...", "description_zh": "", "downloads": 386, "homepage": "https://clawhub.ai/theplasmak/super-transcribe", "iconUrl": null, "installs": 96, "name": "Super-Transcribe — Unified Speech-to-Text", "ownerName": "theplasmak", "score": 21139.10186199343, "slug": "super-transcribe", "source": "clawhub", "stars": 0, "tags": null, "updated_at": 1776764950083, "version": "1.0.2"}, {"category": "developer-tools", "created_at": 1772800980382, "description": "Amazon Ads API v3 skill for OpenClaw agents. List profiles, manage Sponsored Products campaigns, view budgets and performance. Works with any advertiser acco...", "description_zh": "", "downloads": 386, "homepage": "https://clawhub.ai/zero2ai-hub/skill-amazon-ads", "iconUrl": null, "installs": 35, "name": "Amazon Ads API", "ownerName": "zero2ai-hub", "score": 7877.551020408163, "slug": "skill-amazon-ads", "source": "clawhub", "stars": 0, "tags": null, "updated_at": 1776763750628, "version": "1.0.0"}, {"category": "developer-tools", "created_at": 1773083250018, "description": "Read sensor data and control Tuya IoT devices via Tuya Cloud API. Use when the user wants to list devices, read temperature, humidity, soil moisture, battery...", "description_zh": "", "downloads": 386, "homepage": "https://clawhub.ai/minshi-veyt/tuya-cloud", "iconUrl": null, "installs": 7, "name": "Tuya Cloud", "ownerName": "minshi-veyt", "score": 28571.42857142857, "slug": "tuya-cloud", "source": "clawhub", "stars": 0, "tags": null, "updated_at": 1776759120891, "version": "1.0.4"}, {"category": "developer-tools", "created_at": 1772793364381, "description": "Manage on-chain spend limits for AI agents with ERC-6551 wallets, enforcing per-tx and daily token budgets, scoped operator access, and approval queues on Base.", "description_zh": "", "downloads": 386, "homepage": "https://clawhub.ai/up2itnow/agentwallet-sdk", "iconUrl": null, "installs": 8, "name": "Agentwallet Sdk", "ownerName": "up2itnow", "score": 98469.38775510204, "slug": "agentwallet-sdk", "source": "clawhub", "stars": 0, "tags": null, "updated_at": 1776759120535, "version": "1.1.0"}, {"category": "security-compliance", "created_at": 1772789276712, "description": "Evaluate and score vendors on security, financials, compliance, operations, and data handling to classify risk and manage remediation plans effectively.", "description_zh": "", "downloads": 386, "homepage": "https://clawhub.ai/1kalin/afrexai-vendor-risk", "iconUrl": null, "installs": 7, "name": "Vendor Risk Assessment", "ownerName": "1kalin", "score": 28571.42857142857, "slug": "afrexai-vendor-risk", "source": "clawhub", "stars": 0, "tags": ["audit", "compliance", "procurement", "risk", "security", "vendor"], "updated_at": 1776759120463, "version": "1.0.0"}, {"category": "ai-intelligence", "created_at": 1773077999206, "description": "Discover near-airport and destination activities with ratings, reviews, and booking context", "description_zh": "", "downloads": 386, "homepage": "https://clawhub.ai/kurosh87/aerobase-travel-activities", "iconUrl": null, "installs": 13, "name": "Aerobase Travel Activities", "ownerName": "kurosh87", "score": 94376.52811735941, "slug": "aerobase-travel-activities", "source": "clawhub", "stars": 0, "tags": ["activities", "tours", "travel", "viator"], "updated_at": 1776748485304, "version": "3.2.0"}, {"category": "security-compliance", "created_at": 1772791880497, "description": "Query and manage farm work orders and tasks. View assignments, create tasks, update status. Uses integration endpoints (no auth) for reads and authenticated...", "description_zh": "", "downloads": 386, "homepage": "https://clawhub.ai/brianppetty/farmos-tasks", "iconUrl": null, "installs": 6, "name": "Farmos Tasks", "ownerName": "brianppetty", "score": 67364.74694589878, "slug": "farmos-tasks", "source": "clawhub", "stars": 0, "tags": null, "updated_at": 1776748485122, "version": "1.0.0"}, {"category": "data-analysis", "created_at": 1773077721852, "description": "Hotel search with jetlag-friendly features, day-use availability, and price comparison", "description_zh": "", "downloads": 386, "homepage": "https://clawhub.ai/kurosh87/aerobase-travel-hotels", "iconUrl": null, "installs": 13, "name": "Aerobase Travel Hotels", "ownerName": "kurosh87", "score": 91904.7619047619, "slug": "aerobase-travel-hotels", "source": "clawhub", "stars": 0, "tags": ["accommodation", "hotels", "travel"], "updated_at": 1776748484632, "version": "3.2.0"}, {"category": "data-analysis", "created_at": 1772786847292, "description": "Create and optionally send a new invoice to a client. Use when the user wants to invoice someone, bill a client, or create a new Rechnung.", "description_zh": "", "downloads": 386, "homepage": "https://clawhub.ai/stanlee000/norman-create-invoice", "iconUrl": null, "installs": 7, "name": "Norman: Create Invoice", "ownerName": "stanlee000", "score": 90610.32863849765, "slug": "norman-create-invoice", "source": "clawhub", "stars": 0, "tags": ["finance", "invoicing", "mcp", "rechnung"], "updated_at": 1776748484573, "version": "1.0.0"}, {"category": "communication-collaboration", "created_at": 1773068625191, "description": "Search, describe, and execute enterprise tools (Jira, Salesforce, Gmail, Slack, Google Calendar, Google Drive, GitHub, Notion, Box, etc.) via the Venn tool-r...", "description_zh": "", "downloads": 386, "homepage": "https://clawhub.ai/neil-bd/venn", "iconUrl": null, "installs": 41, "name": "Venn - Secure Universal MCP (Google Workspace, Jira, GitHub, and more)", "ownerName": "neil-bd", "score": 83010.75268817204, "slug": "venn", "source": "clawhub", "stars": 0, "tags": null, "updated_at": 1776748484459, "version": "2.0.1"}, {"category": "developer-tools", "created_at": 1772789506305, "description": "Generates mock API servers from OpenAPI specs or examples. Realistic fake data, configurable delays, error simulation.", "description_zh": "", "downloads": 386, "homepage": "https://clawhub.ai/ryudi84/sovereign-api-mock-generator", "iconUrl": null, "installs": 5, "name": "API Mock Server Generator", "ownerName": "ryudi84", "score": 69175.62724014337, "slug": "sovereign-api-mock-generator", "source": "clawhub", "stars": 0, "tags": null, "updated_at": 1776748484273, "version": "1.0.0"}, {"category": "communication-collaboration", "created_at": 1772789471076, "description": "Safely and thoroughly delete an OpenClaw agent and its artifacts. Use when user asks to remove an agent completely, including workspace, agent files under ~/...", "description_zh": "", "downloads": 386, "homepage": "https://clawhub.ai/sheetaa/delete-agent-with-telegram-group", "iconUrl": null, "installs": 17, "name": "Delete Agent With Telegram Group", "ownerName": "sheetaa", "score": 86353.46756152126, "slug": "delete-agent-with-telegram-group", "source": "clawhub", "stars": 0, "tags": null, "updated_at": 1776748484099, "version": "0.1.2"}, {"category": "ai-intelligence", "created_at": 1772790773426, "description": "UserPool login, TIP token, credential hosting, and tool risk approval. Activate when user needs to check identity (whoami/status), log in, list/add credentia...", "description_zh": "", "downloads": 385, "homepage": "https://clawhub.ai/loveyana/volcengine-agent-identity", "iconUrl": null, "installs": 11, "name": "Volcengine Agent Identity", "ownerName": "loveyana", "score": 100000, "slug": "volcengine-agent-identity", "source": "clawhub", "stars": 4, "tags": null, "updated_at": 1776748484511, "version": "0.2.1"}, {"category": "productivity", "created_at": 1773284362350, "description": "Log in to X/Twitter via a real browser session and perform actions — posting, replying, reposting, liking, and bookmarking tweets via headless Playwright.", "description_zh": "", "downloads": 385, "homepage": "https://clawhub.ai/zhanghanjun2/x-twitter-browser", "iconUrl": null, "installs": 19, "name": "x-twitter-browser", "ownerName": "zhanghanjun2", "score": 75139.146567718, "slug": "x-twitter-browser", "source": "clawhub", "stars": 1, "tags": null, "updated_at": 1776754988302, "version": "1.0.10"}, {"category": "developer-tools", "created_at": 1772803376027, "description": "Build multi-project Kanban systems with deterministic board discovery, consistent task processing, and persistent routing memory across sessions.", "description_zh": "", "downloads": 385, "homepage": "https://clawhub.ai/ivangdavila/kanban", "iconUrl": null, "installs": 16, "name": "Kanban", "ownerName": "ivangdavila", "score": 5530.020109164034, "slug": "kanban", "source": "clawhub", "stars": 0, "tags": null, "updated_at": 1776767949968, "version": "1.0.0"}, {"category": "content-creation", "created_at": 1773063887663, "description": "Clips a YouTube video locally using yt-dlp and ffmpeg. Supports auto-highlight detection, translation, and CapCut-style karaoke subtitle burning. Triggers wh...", "description_zh": "", "downloads": 385, "homepage": "https://clawhub.ai/chyyynh/video-clip-skill", "iconUrl": null, "installs": 86, "name": "video-clip-skill", "ownerName": "chyyynh", "score": 20969.498910675382, "slug": "video-clip-skill", "source": "clawhub", "stars": 0, "tags": null, "updated_at": 1776764950349, "version": "1.0.1"}, {"category": "productivity", "created_at": 1773090009331, "description": "Simple local Speech-To-Text using Whisper. One-command install with auto model download. Supports 99+ languages.", "description_zh": "", "downloads": 385, "homepage": "https://clawhub.ai/lkisme/stt-simple", "iconUrl": null, "installs": 18, "name": "Simple stt(sound-to-text) locally", "ownerName": "lkisme", "score": 5473.414842195053, "slug": "stt-simple", "source": "clawhub", "stars": 0, "tags": null, "updated_at": 1776762850160, "version": "1.0.1"}]}