{"page": 214, "total_pages": 522, "total": 26073, "skills": [{"category": "security-compliance", "created_at": 1772804176963, "description": "Generate self-contained interactive science simulations as a single index.html from a SimSpec YAML or JSON. Use when the user asks for physics, chemistry, bi...", "description_zh": "", "downloads": 385, "homepage": "https://clawhub.ai/dimgouso/science-sim-author", "iconUrl": null, "installs": 39, "name": "Science Sim Author", "ownerName": "dimgouso", "score": 28582.03414996288, "slug": "science-sim-author", "source": "clawhub", "stars": 0, "tags": ["canvas", "circuits", "classroom", "education", "interactive", "mechanics", "physics", "science", "simulation", "stem"], "updated_at": 1776759198024, "version": "0.1.3"}, {"category": "data-analysis", "created_at": 1772790847094, "description": "Generate a tailored data room folder structure, document checklist with priorities, gap analysis, and access control guidance for fundraising, M&A, or due di...", "description_zh": "", "downloads": 385, "homepage": "https://clawhub.ai/1kalin/afrexai-data-room", "iconUrl": null, "installs": 13, "name": "Data Room Checklist", "ownerName": "1kalin", "score": 91232.22748815166, "slug": "afrexai-data-room", "source": "clawhub", "stars": 0, "tags": ["data-room", "due-diligence", "fundraising", "series-a", "startup"], "updated_at": 1776759120896, "version": "1.0.0"}, {"category": "developer-tools", "created_at": 1772787421456, "description": "Provides git-powered versioned backups and safe snapshot recovery for workspace files, with automated and manual snapshot options.", "description_zh": "", "downloads": 385, "homepage": "https://clawhub.ai/taco-devs/clawkeep", "iconUrl": null, "installs": 6, "name": "Clawkeep", "ownerName": "taco-devs", "score": 28497.409326424873, "slug": "clawkeep", "source": "clawhub", "stars": 0, "tags": null, "updated_at": 1776759120791, "version": "0.2.9"}, {"category": "content-creation", "created_at": 1773061942883, "description": "Generate a complete App Store deliverable pack for a Flutter 3.35.1 app with offline-first design, camera/photo permissions, Apple-style UI mockups, and a sq...", "description_zh": "", "downloads": 385, "homepage": "https://clawhub.ai/chentuan7963-afk/flutter-appstore-doc-ui-kit", "iconUrl": null, "installs": 33, "name": "Flutter AppStore Doc UI Kit", "ownerName": "chentuan7963-afk", "score": 28455.28455284553, "slug": "flutter-appstore-doc-ui-kit", "source": "clawhub", "stars": 0, "tags": ["ai", "appstore", "docs", "flutter", "icon", "markdown", "ui-design", "ui-kit"], "updated_at": 1776759120699, "version": "0.1.4"}, {"category": "security-compliance", "created_at": 1772791508700, "description": "Evaluate product export controls, screen destinations and end-users against US sanctions, determine license needs, and generate compliance documentation chec...", "description_zh": "", "downloads": 385, "homepage": "https://clawhub.ai/1kalin/afrexai-export-compliance", "iconUrl": null, "installs": 8, "name": "Export Compliance & Trade Controls", "ownerName": "1kalin", "score": 28455.28455284553, "slug": "afrexai-export-compliance", "source": "clawhub", "stars": 0, "tags": ["compliance", "ear", "eccn", "export", "ofac", "sanctions", "trade"], "updated_at": 1776759120654, "version": "1.0.0"}, {"category": "ai-intelligence", "created_at": 1772793628216, "description": "Execute Retrieval-Augmented Generation (RAG) using Ragie.ai. Use this skill whenever the user wants to: - Search their knowledge base - Ask questions about u...", "description_zh": "", "downloads": 385, "homepage": "https://clawhub.ai/hatim-be/ragie-rag", "iconUrl": null, "installs": 21, "name": "Ragie.ai-RAG", "ownerName": "hatim-be", "score": 98214.28571428571, "slug": "ragie-rag", "source": "clawhub", "stars": 0, "tags": null, "updated_at": 1776759120613, "version": "1.0.2"}, {"category": "developer-tools", "created_at": 1772789107594, "description": "Streamline approval for non-standard deals by enforcing discount limits, validating deal value, and managing custom terms to protect margin and speed closing.", "description_zh": "", "downloads": 385, "homepage": "https://clawhub.ai/1kalin/afrexai-deal-desk", "iconUrl": null, "installs": 3, "name": "Deal Desk", "ownerName": "1kalin", "score": 28497.409326424873, "slug": "afrexai-deal-desk", "source": "clawhub", "stars": 0, "tags": ["b2b", "deal desk", "discount", "pricing", "revenue", "sales"], "updated_at": 1776759120527, "version": "1.0.0"}, {"category": "developer-tools", "created_at": 1773065629765, "description": "Turn Google Sheets into a powerful database and workflow engine using formulas, Apps Script, and integrations. Use when building systems in Sheets, automatin...", "description_zh": "", "downloads": 385, "homepage": "https://clawhub.ai/jk-0001/spreadsheet-automation", "iconUrl": null, "installs": 14, "name": "Spreadsheet Automation", "ownerName": "jk-0001", "score": 92105.26315789473, "slug": "spreadsheet-automation", "source": "clawhub", "stars": 0, "tags": null, "updated_at": 1776748485048, "version": "0.1.0"}, {"category": "developer-tools", "created_at": 1772792759355, "description": "MCP server for the DRAIN payment protocol. Agents discover service providers, open USDC payment channels on Polygon, and call any service — LLM, scraping, im...", "description_zh": "", "downloads": 385, "homepage": "https://clawhub.ai/kimbo128/hs58", "iconUrl": null, "installs": 6, "name": "Handshake58 - Payments for AI Agents", "ownerName": "kimbo128", "score": 85555.55555555555, "slug": "hs58", "source": "clawhub", "stars": 0, "tags": null, "updated_at": 1776748484937, "version": "4.0.2"}, {"category": "content-creation", "created_at": 1773074053622, "description": "AI translation via TranslateFlow API — multi-language content translation, localization, tone adaptation, batch translation. Use when user needs text transla...", "description_zh": "", "downloads": 385, "homepage": "https://clawhub.ai/jbennett111/translateflow", "iconUrl": null, "installs": 50, "name": "TranslateFlow", "ownerName": "jbennett111", "score": 65587.73424190801, "slug": "translateflow", "source": "clawhub", "stars": 0, "tags": null, "updated_at": 1776748484754, "version": "1.0.0"}, {"category": "data-analysis", "created_at": 1773060231539, "description": "Search Google, Bing, DuckDuckGo, Brave, Startpage, Yahoo, Yandex, Baidu, Sogou, Qwant, Ecosia, Mojeek, and WolframAlpha from one skill.", "description_zh": "", "downloads": 385, "homepage": "https://clawhub.ai/ivangdavila/multi-engine-web-search", "iconUrl": null, "installs": 47, "name": "Multi-Engine Web Search", "ownerName": "ivangdavila", "score": 91666.66666666666, "slug": "multi-engine-web-search", "source": "clawhub", "stars": 0, "tags": null, "updated_at": 1776748484649, "version": "1.0.0"}, {"category": "developer-tools", "created_at": 1772797715793, "description": "Strategic advisor for Evvo Labs business decisions. Use when Vince asks for strategic advice, business opinions, market entry decisions, pricing strategy, pr...", "description_zh": "", "downloads": 385, "homepage": "https://clawhub.ai/tschew72/strategy-advisor", "iconUrl": null, "installs": 23, "name": "Strategy Advisor", "ownerName": "tschew72", "score": 82795.69892473119, "slug": "strategy-advisor", "source": "clawhub", "stars": 0, "tags": null, "updated_at": 1776748484432, "version": "1.0.0"}, {"category": "productivity", "created_at": 1772787662329, "description": "Navigate London as visitor, resident, tech worker, student, or entrepreneur with neighborhoods, transport, costs, safety, and local insights.", "description_zh": "", "downloads": 385, "homepage": "https://clawhub.ai/ivangdavila/london", "iconUrl": null, "installs": 9, "name": "London", "ownerName": "ivangdavila", "score": 68996.41577060932, "slug": "london", "source": "clawhub", "stars": 0, "tags": null, "updated_at": 1776748484312, "version": "1.0.0"}, {"category": "security-compliance", "created_at": 1772789304158, "description": "Uses Fennec SEO Auditor results to audit a URL. Invoke when user wants a quick on‑page/technical SEO health check or to verify favicon/meta/schema and GEO re...", "description_zh": "", "downloads": 385, "homepage": "https://clawhub.ai/2winter-dev/fennecseo-audit", "iconUrl": null, "installs": 9, "name": "Fennec SEO Auditor Skills", "ownerName": "2winter-dev", "score": 68996.41577060932, "slug": "fennecseo-audit", "source": "clawhub", "stars": 0, "tags": null, "updated_at": 1776748484307, "version": "1.0.0"}, {"category": "developer-tools", "created_at": 1772791429392, "description": "Monitors official Vietnam NSO monthly and quarterly socio-economic releases and compares same-period trends; used when users request official macro updates a...", "description_zh": "", "downloads": 385, "homepage": "https://clawhub.ai/ndtchan/nso-macro-monitor", "iconUrl": null, "installs": 26, "name": "Nso Macro Monitor", "ownerName": "ndtchan", "score": 81395.3488372093, "slug": "nso-macro-monitor", "source": "clawhub", "stars": 0, "tags": null, "updated_at": 1776748484261, "version": "1.0.4"}, {"category": "productivity", "created_at": 1772791565539, "description": "Play audio on Sonos with intelligent state restoration - pauses streaming, skips Line-In/TV/Bluetooth, resumes everything.", "description_zh": "", "downloads": 385, "homepage": "https://clawhub.ai/clawdianova/sonos-announce", "iconUrl": null, "installs": 12, "name": "Sonos Announce", "ownerName": "clawdianova", "score": 86129.75391498882, "slug": "sonos-announce", "source": "clawhub", "stars": 0, "tags": null, "updated_at": 1776748484092, "version": "1.0.4"}, {"category": "data-analysis", "created_at": 1772798541104, "description": "Track and optimize brand visibility across AI search engines (ChatGPT, Perplexity, Gemini, Google AI Overview, Claude). Use when monitoring brand mentions in...", "description_zh": "", "downloads": 385, "homepage": "https://clawhub.ai/x-rayluan/geo-tracker", "iconUrl": null, "installs": 35, "name": "GEO Tracker", "ownerName": "x-rayluan", "score": 86129.75391498882, "slug": "geo-tracker", "source": "clawhub", "stars": 0, "tags": null, "updated_at": 1776748483874, "version": "1.0.0"}, {"category": "data-analysis", "created_at": 1772789379514, "description": "AI health coach with dual personality modes (Supportive Mentor or Savage Roaster). Tracks nutrition from food photos, provides data-driven coaching, and hold...", "description_zh": "", "downloads": 385, "homepage": "https://clawhub.ai/authoredniko/clawcoach-core", "iconUrl": null, "installs": 14, "name": "ClawCoach Core", "ownerName": "authoredniko", "score": 86129.75391498882, "slug": "clawcoach-core", "source": "clawhub", "stars": 0, "tags": ["accountability", "coaching", "fitness", "health", "nutrition", "roast"], "updated_at": 1776748483867, "version": "1.0.1"}, {"category": "security-compliance", "created_at": 1772790542036, "description": "Query AdGuard Home instances for real-time DNS stats, blocked domains, client activity, service status, configs, filter rules, and recent query logs.", "description_zh": "", "downloads": 384, "homepage": "https://clawhub.ai/foxleoly/adguard-home", "iconUrl": null, "installs": 15, "name": "Adguard Home", "ownerName": "foxleoly", "score": 10672.036244651397, "slug": "adguard-home", "source": "clawhub", "stars": 2, "tags": ["adguard", "chinese", "dns", "filtering", "hardening", "monitoring", "networking", "privacy", "security", "self-hosted", "statistics"], "updated_at": 1776761880223, "version": "1.2.7"}, {"category": "data-analysis", "created_at": 1773201566017, "description": "Use Futu Trade Bot Skills to run account, quote, and trade workflows with real HK market data.", "description_zh": "", "downloads": 384, "homepage": "https://clawhub.ai/jeffersonling1217-png/futu-trading-bot", "iconUrl": null, "installs": 67, "name": "Futu Trading Bot", "ownerName": "jeffersonling1217-png", "score": 4207.018640008331, "slug": "futu-trading-bot", "source": "clawhub", "stars": 1, "tags": null, "updated_at": 1776767471058, "version": "1.0.1"}, {"category": "ai-intelligence", "created_at": 1773201866787, "description": "Query CNKI by journal name or research topic, and create journal or topic subscriptions that periodically push new CNKI paper metadata into the main OpenClaw...", "description_zh": "", "downloads": 384, "homepage": "https://clawhub.ai/yjli-new/cnki-watch", "iconUrl": null, "installs": 92, "name": "CNKI Watch", "ownerName": "yjli-new", "score": 5114.544485881725, "slug": "cnki-watch", "source": "clawhub", "stars": 0, "tags": ["cnki", "journal-watch", "literature", "research"], "updated_at": 1776769271141, "version": "0.2.1"}, {"category": "productivity", "created_at": 1772793823520, "description": "Risk-aware support response governance with persona-weighted consensus. Detects legal/sensitive/confidentiality issues, applies hard-block policy checks, and...", "description_zh": "", "downloads": 384, "homepage": "https://clawhub.ai/kaicianflone/consensus-support-reply-guard", "iconUrl": null, "installs": 26, "name": "consensus-support-reply-guard", "ownerName": "kaicianflone", "score": 10795.61428169806, "slug": "consensus-support-reply-guard", "source": "clawhub", "stars": 0, "tags": null, "updated_at": 1776767990488, "version": "1.1.15"}, {"category": "ai-intelligence", "created_at": 1772791869762, "description": "Generate user personas, pain points, journey maps, and UX recommendations without conducting interviews.", "description_zh": "", "downloads": 384, "homepage": "https://clawhub.ai/ivangdavila/ux-researcher", "iconUrl": null, "installs": 18, "name": "UX Researcher", "ownerName": "ivangdavila", "score": 26211.60409556314, "slug": "ux-researcher", "source": "clawhub", "stars": 0, "tags": null, "updated_at": 1776767171137, "version": "1.0.0"}, {"category": "ai-intelligence", "created_at": 1773057858290, "description": "OpenClaw plugin that applies guardrails and auto-fixes reversible failures (rate limits, disconnects, stuck session pins).", "description_zh": "", "downloads": 384, "homepage": "https://clawhub.ai/homeofe/openclaw-self-healing-elvatis", "iconUrl": null, "installs": 35, "name": "OpenClaw Self-Healing", "ownerName": "homeofe", "score": 14055.636896046852, "slug": "openclaw-self-healing-elvatis", "source": "clawhub", "stars": 0, "tags": null, "updated_at": 1776762015190, "version": "0.2.10"}, {"category": "developer-tools", "created_at": 1772797836446, "description": "Comprehensive Interactive Brokers (IBKR) TWS/Gateway skill using ib_insync. Includes Python and bash CLIs for account, market data, historical data, contract...", "description_zh": "", "downloads": 384, "homepage": "https://clawhub.ai/oscraters/ibkr", "iconUrl": null, "installs": 21, "name": "IBKR CLI", "ownerName": "oscraters", "score": 30307.8137332281, "slug": "ibkr", "source": "clawhub", "stars": 0, "tags": null, "updated_at": 1776759982345, "version": "1.0.0"}, {"category": "data-analysis", "created_at": 1773082497201, "description": "Automatically records experience, analyzes skill gaps, updates capability scores, and generates priority tasks to ensure continuous improvement after each task.", "description_zh": "", "downloads": 384, "homepage": "https://clawhub.ai/zenmejiang-commits/continuous-evolution", "iconUrl": null, "installs": 15, "name": "Continuous Evolution", "ownerName": "zenmejiang-commits", "score": 28423.390081421167, "slug": "continuous-evolution", "source": "clawhub", "stars": 0, "tags": ["auto-optimized"], "updated_at": 1776759120827, "version": "1.0.0"}, {"category": "ai-intelligence", "created_at": 1772788584057, "description": "Enter the Gigaverse as an AI agent. Create a wallet, quest through dungeons, battle echoes, and earn rewards. The dungeon awaits.", "description_zh": "", "downloads": 384, "homepage": "https://clawhub.ai/creud/gigaverse-play", "iconUrl": null, "installs": 8, "name": "gigaverse", "ownerName": "creud", "score": 28423.390081421167, "slug": "gigaverse-play", "source": "clawhub", "stars": 0, "tags": null, "updated_at": 1776759120805, "version": "1.0.0"}, {"category": "ai-intelligence", "created_at": 1772795260286, "description": "Manage ISPConfig servers: automated site provisioning, domains, mailboxes, DNS, databases, SSL, backups, and more.", "description_zh": "", "downloads": 384, "homepage": "https://clawhub.ai/homeofe/openclaw-ispconfig", "iconUrl": null, "installs": 18, "name": "ISPConfig", "ownerName": "homeofe", "score": 28381.374722838136, "slug": "openclaw-ispconfig", "source": "clawhub", "stars": 0, "tags": ["elvatis", "openclaw", "plugin"], "updated_at": 1776759120690, "version": "0.1.3"}, {"category": "ai-intelligence", "created_at": 1772791050221, "description": "Chicago CTA transit — real-time L train arrivals, bus predictions, service alerts, and route info. Use when the user asks about Chicago public transit, L tra...", "description_zh": "", "downloads": 384, "homepage": "https://clawhub.ai/brianleach/cta", "iconUrl": null, "installs": 13, "name": "Cta Skill", "ownerName": "brianleach", "score": 28423.390081421167, "slug": "cta", "source": "clawhub", "stars": 0, "tags": null, "updated_at": 1776759120494, "version": "1.0.0"}, {"category": "developer-tools", "created_at": 1772803310315, "description": "Enable multiple agents to share, merge, and sync memories using standardized formats, priority rules, and Git-based version control for collective intelligence.", "description_zh": "", "downloads": 384, "homepage": "https://clawhub.ai/weidadong2359/cross-agent-memory", "iconUrl": null, "installs": 27, "name": "Cross-Agent Memory Sharing", "ownerName": "weidadong2359", "score": 17622.76273519963, "slug": "cross-agent-memory", "source": "clawhub", "stars": 0, "tags": null, "updated_at": 1776759120423, "version": "1.0.0"}, {"category": "communication-collaboration", "created_at": 1773082635978, "description": "Manage personal Microsoft account (Outlook.com / Hotmail / Live) email, calendar, and OneDrive via the m365-cli command-line tool. Use for personal email/cal...", "description_zh": "", "downloads": 384, "homepage": "https://clawhub.ai/mrhah/outlookcli", "iconUrl": null, "installs": 28, "name": "outlookcli", "ownerName": "mrhah", "score": 67250.43782837127, "slug": "outlookcli", "source": "clawhub", "stars": 0, "tags": null, "updated_at": 1776748485691, "version": "1.1.0"}, {"category": "developer-tools", "created_at": 1772789850778, "description": "OpenClaw plugin for documentation-grade memory: explicit capture + local searchable store with safe redaction.", "description_zh": "", "downloads": 384, "homepage": "https://clawhub.ai/homeofe/openclaw-memory-docs", "iconUrl": null, "installs": 11, "name": "OpenClaw Memory (Docs)", "ownerName": "homeofe", "score": 67250.43782837127, "slug": "openclaw-memory-docs", "source": "clawhub", "stars": 0, "tags": null, "updated_at": 1776748485659, "version": "0.2.1"}, {"category": "developer-tools", "created_at": 1772792176950, "description": "HIRA hospital information search API", "description_zh": "", "downloads": 384, "homepage": "https://clawhub.ai/sw326/hira-hospital", "iconUrl": null, "installs": 6, "name": "건강보험심사평가원 병원 검색", "ownerName": "sw326", "score": 82580.64516129032, "slug": "hira-hospital", "source": "clawhub", "stars": 0, "tags": ["health", "hospital", "korea", "korean"], "updated_at": 1776748484442, "version": "3.2.0"}, {"category": "ai-intelligence", "created_at": 1772791609568, "description": "Access Granola AI meeting notes via MCP (mcporter). Query meetings, list by date range, get full details, and pull verbatim transcripts. Use when the user as...", "description_zh": "", "downloads": 384, "homepage": "https://clawhub.ai/bholagabbar/granola-mcp", "iconUrl": null, "installs": 11, "name": "Granola Meeting Notes (MCP)", "ownerName": "bholagabbar", "score": 88888.88888888889, "slug": "granola-mcp", "source": "clawhub", "stars": 0, "tags": null, "updated_at": 1776748484385, "version": "1.1.0"}, {"category": "productivity", "created_at": 1772792614636, "description": "Connect to S2G (s2g.run) visual workflow automation platform over WebSocket. Execute workflow nodes as tools — password generators, hash functions, date math...", "description_zh": "", "downloads": 383, "homepage": "https://clawhub.ai/helmutsreinis/s2g-workflow-engine", "iconUrl": null, "installs": 10, "name": "S2G - General Purpose Workflow Engine", "ownerName": "helmutsreinis", "score": 93791.57427937916, "slug": "s2g-workflow-engine", "source": "clawhub", "stars": 2, "tags": null, "updated_at": 1776748485418, "version": "1.0.0"}, {"category": "productivity", "created_at": 1772792614636, "description": "Connect to S2G (s2g.run) visual workflow automation platform over WebSocket. Execute workflow nodes as tools — password generators, hash functions, date math...", "description_zh": "", "downloads": 383, "homepage": "https://clawhub.ai/helmutsreinis/s2g-workflow-engine", "iconUrl": null, "installs": 10, "name": "S2G - General Purpose Workflow Engine", "ownerName": "helmutsreinis", "score": 93791.57427937916, "slug": "s2g-workflow-engine", "source": "clawhub", "stars": 2, "tags": null, "updated_at": 1776748485418, "version": "1.0.0"}, {"category": "developer-tools", "created_at": 1772797585439, "description": "Manage HoneyDew Kanban boards, cards, and labels via the REST API.", "description_zh": "", "downloads": 383, "homepage": "https://clawhub.ai/smartify-dot-ai/honeydew", "iconUrl": null, "installs": 4, "name": "HoneyDew", "ownerName": "smartify-dot-ai", "score": 70577.93345008757, "slug": "honeydew", "source": "clawhub", "stars": 1, "tags": null, "updated_at": 1776748485562, "version": "1.0.2"}, {"category": "content-creation", "created_at": 1773218455066, "description": "Instantly summarize any content — articles, PDFs, YouTube videos, web pages, long documents, or pasted text. Extracts key points, action items, and insights....", "description_zh": "", "downloads": 383, "homepage": "https://clawhub.ai/27555402-spec/smart-summarizer", "iconUrl": null, "installs": 33, "name": "Smart Summarizer", "ownerName": "27555402-spec", "score": 84842.1052631579, "slug": "smart-summarizer", "source": "clawhub", "stars": 1, "tags": null, "updated_at": 1776748484801, "version": "1.0.0"}, {"category": "productivity", "created_at": 1773076459916, "description": "Full-cycle dissertation writing support for Ryan Tang’s PhD, managing evidence, theory alignment, editing, translation, and quality control across all chapte...", "description_zh": "", "downloads": 383, "homepage": "https://clawhub.ai/zhchelly-netizen/dissertation-workflow-core", "iconUrl": null, "installs": 74, "name": "Dissertation Workflow Core", "ownerName": "zhchelly-netizen", "score": 5528.290993071593, "slug": "dissertation-workflow-core", "source": "clawhub", "stars": 0, "tags": null, "updated_at": 1776766571271, "version": "1.0.0"}, {"category": "content-creation", "created_at": 1773066545717, "description": "Generates professional product images for e-commerce platforms (Amazon, Shopify, eBay, etc.). Supports 8 visual styles and 6 scene types optimized for differ...", "description_zh": "", "downloads": 383, "homepage": "https://clawhub.ai/boyd4y/product-image-generator", "iconUrl": null, "installs": 89, "name": "Product Image Generator", "ownerName": "boyd4y", "score": 8873.957367933272, "slug": "product-image-generator", "source": "clawhub", "stars": 0, "tags": null, "updated_at": 1776765249877, "version": "1.0.0"}, {"category": "productivity", "created_at": 1773077051796, "description": "Guide for creating and importing skills. Use when users need to create or import skills.", "description_zh": "", "downloads": 383, "homepage": "https://clawhub.ai/kennethchiu2008-fran/create-skill", "iconUrl": null, "installs": 78, "name": "Create Skill", "ownerName": "kennethchiu2008-fran", "score": 10251.605995717344, "slug": "create-skill", "source": "clawhub", "stars": 0, "tags": null, "updated_at": 1776762850308, "version": "1.0.0"}, {"category": "productivity", "created_at": 1773063208698, "description": "Compare academic research papers side-by-side to identify similarities, differences, and research gaps. Use when user wants to compare 1-5 papers via DOIs, U...", "description_zh": "", "downloads": 383, "homepage": "https://clawhub.ai/kexu9/paper-compare", "iconUrl": null, "installs": 76, "name": "Paper Compare", "ownerName": "kexu9", "score": 14291.044776119403, "slug": "paper-compare", "source": "clawhub", "stars": 0, "tags": null, "updated_at": 1776762139889, "version": "1.2.1"}, {"category": "developer-tools", "created_at": 1772797120638, "description": "Synthesizes methods from historical geniuses into actionable processes emphasizing cross-domain connection, mental simulation, prolific output, and disciplin...", "description_zh": "", "downloads": 383, "homepage": "https://clawhub.ai/bartok9/creative-genius", "iconUrl": null, "installs": 7, "name": "Creative Genius", "ownerName": "bartok9", "score": 28349.37083641747, "slug": "creative-genius", "source": "clawhub", "stars": 0, "tags": null, "updated_at": 1776759120867, "version": "1.0.0"}, {"category": "productivity", "created_at": 1772790107303, "description": "London TfL transit — real-time Tube arrivals, bus predictions, line status, service disruptions, journey planning, and route info for the London Underground,...", "description_zh": "", "downloads": 383, "homepage": "https://clawhub.ai/brianleach/tfl", "iconUrl": null, "installs": 7, "name": "TfL London Transit", "ownerName": "brianleach", "score": 28349.37083641747, "slug": "tfl", "source": "clawhub", "stars": 0, "tags": null, "updated_at": 1776759120753, "version": "1.0.0"}, {"category": "developer-tools", "created_at": 1772798223789, "description": "Build AI-powered customer service knowledge bases by extracting FAQs from documents or websites, enabling automated replies and multi-format exports.", "description_zh": "", "downloads": 383, "homepage": "https://clawhub.ai/dagangtj/ai-customer-service", "iconUrl": null, "installs": 15, "name": "AI Customer Service KB Builder", "ownerName": "dagangtj", "score": 97704.08163265306, "slug": "ai-customer-service", "source": "clawhub", "stars": 0, "tags": ["ai", "automation", "customer-service", "faq", "knowledge-base"], "updated_at": 1776759120564, "version": "1.0.0"}, {"category": "data-analysis", "created_at": 1772791113270, "description": "Processes and analyzes insurance claims across policy types, providing coverage mapping, liability scoring, reserve estimates, fraud detection, and settlemen...", "description_zh": "", "downloads": 383, "homepage": "https://clawhub.ai/1kalin/afrexai-insurance-claims", "iconUrl": null, "installs": 13, "name": "Insurance Claims Processor", "ownerName": "1kalin", "score": 28349.37083641747, "slug": "afrexai-insurance-claims", "source": "clawhub", "stars": 0, "tags": ["claims", "fraud", "insurance", "processing"], "updated_at": 1776759120470, "version": "1.0.0"}, {"category": "productivity", "created_at": 1772791368833, "description": "Send and read SMS text messages via an Android phone using pidge. Use when asked to send a text, check texts, read SMS inbox, or reply to a text message.", "description_zh": "", "downloads": 383, "homepage": "https://clawhub.ai/typhonius/pidgesms", "iconUrl": null, "installs": 21, "name": "pidgesms", "ownerName": "typhonius", "score": 66958.04195804195, "slug": "pidgesms", "source": "clawhub", "stars": 0, "tags": null, "updated_at": 1776752684177, "version": "1.0.0"}, {"category": "communication-collaboration", "created_at": 1772790299058, "description": "Check if a phone number is registered on Telegram using the apipick Telegram Checker API. Returns registration status, Telegram user ID, username, first/last...", "description_zh": "", "downloads": 383, "homepage": "https://clawhub.ai/javainthinking/apipick-telegram-phone-check", "iconUrl": null, "installs": 19, "name": "Telegram Phone Checker", "ownerName": "javainthinking", "score": 86261.26126126126, "slug": "apipick-telegram-phone-check", "source": "clawhub", "stars": 0, "tags": null, "updated_at": 1776748485446, "version": "1.0.0"}, {"category": "communication-collaboration", "created_at": 1772790299058, "description": "Check if a phone number is registered on Telegram using the apipick Telegram Checker API. Returns registration status, Telegram user ID, username, first/last...", "description_zh": "", "downloads": 383, "homepage": "https://clawhub.ai/javainthinking/apipick-telegram-phone-check", "iconUrl": null, "installs": 19, "name": "Telegram Phone Checker", "ownerName": "javainthinking", "score": 84922.39467849224, "slug": "apipick-telegram-phone-check", "source": "clawhub", "stars": 0, "tags": null, "updated_at": 1776748485446, "version": "1.0.0"}, {"category": "communication-collaboration", "created_at": 1772790299058, "description": "Check if a phone number is registered on Telegram using the apipick Telegram Checker API. Returns registration status, Telegram user ID, username, first/last...", "description_zh": "", "downloads": 383, "homepage": "https://clawhub.ai/javainthinking/apipick-telegram-phone-check", "iconUrl": null, "installs": 19, "name": "Telegram Phone Checker", "ownerName": "javainthinking", "score": 84922.39467849224, "slug": "apipick-telegram-phone-check", "source": "clawhub", "stars": 0, "tags": null, "updated_at": 1776748485446, "version": "1.0.0"}]}