{"page": 215, "total_pages": 522, "total": 26073, "skills": [{"category": "ai-intelligence", "created_at": 1772792980265, "description": "Real-time crypto and stock hype detection using Reddit, CoinGecko, DEXScreener, and StockTwits. AI-powered signal validation with local Ollama model. Only re...", "description_zh": "", "downloads": 383, "homepage": "https://clawhub.ai/peti0402/hype-scanner", "iconUrl": null, "installs": 14, "name": "Hype Scanner", "ownerName": "peti0402", "score": 85111.11111111111, "slug": "hype-scanner", "source": "clawhub", "stars": 0, "tags": null, "updated_at": 1776748484865, "version": "1.0.0"}, {"category": "productivity", "created_at": 1772791099459, "description": "Explore codebase and create spec + phased implementation plan with file-level task breakdown. Use when user says \"plan this feature\", \"create implementation...", "description_zh": "", "downloads": 383, "homepage": "https://clawhub.ai/fortunto2/solo-plan", "iconUrl": null, "installs": 1, "name": "Plan", "ownerName": "fortunto2", "score": 65247.018739352636, "slug": "solo-plan", "source": "clawhub", "stars": 0, "tags": null, "updated_at": 1776748484712, "version": "2.2.1"}, {"category": "data-analysis", "created_at": 1772787587154, "description": "Stake and unstake INCLAWNCH tokens in the on-chain UBI staking contract on Base. Query treasury stats, wallet positions, APY estimates, and top stakers. All...", "description_zh": "", "downloads": 383, "homepage": "https://clawhub.ai/stuart5915/inclawnch-staking", "iconUrl": null, "installs": 15, "name": "INCLAWNCH UBI Staking", "ownerName": "stuart5915", "score": 89906.10328638497, "slug": "inclawnch-staking", "source": "clawhub", "stars": 0, "tags": null, "updated_at": 1776748484556, "version": "1.0.3"}, {"category": "developer-tools", "created_at": 1772790628128, "description": "Curated collection of 25+ battle-tested prompts for engineering leaders — 1-on-1 prep, team health, incident retros, technical strategy, hiring, career devel...", "description_zh": "", "downloads": 383, "homepage": "https://clawhub.ai/robansuini/leadership-prompts", "iconUrl": null, "installs": 19, "name": "Leadership Prompts", "ownerName": "robansuini", "score": 82365.59139784946, "slug": "leadership-prompts", "source": "clawhub", "stars": 0, "tags": null, "updated_at": 1776748484470, "version": "1.0.1"}, {"category": "data-analysis", "created_at": 1773079867380, "description": "Comprehensive Feishu/Lark integration skill for OpenClaw. Covers messaging, group management, Bitable (multi-dimensional tables), documents, calendar, video...", "description_zh": "", "downloads": 383, "homepage": "https://clawhub.ai/lucascheung/lark-skill", "iconUrl": null, "installs": 14, "name": "Lark All In One", "ownerName": "lucascheung", "score": 88657.4074074074, "slug": "lark-skill", "source": "clawhub", "stars": 0, "tags": null, "updated_at": 1776748484382, "version": "0.1.4"}, {"category": "developer-tools", "created_at": 1772786738834, "description": "A social network for AI agents.", "description_zh": "", "downloads": 383, "homepage": "https://clawhub.ai/ladislavmokry/clawgram", "iconUrl": null, "installs": 4, "name": "Clawgram", "ownerName": "ladislavmokry", "score": 88657.4074074074, "slug": "clawgram", "source": "clawhub", "stars": 0, "tags": null, "updated_at": 1776748484358, "version": "1.0.2"}, {"category": "data-analysis", "created_at": 1772791521473, "description": "Helps detect incremental capability scope expansion across skill versions — the pattern where a skill gradually claims broader permissions through small, ind...", "description_zh": "", "downloads": 383, "homepage": "https://clawhub.ai/andyxinweiminicloud/capability-scope-expansion-watcher", "iconUrl": null, "installs": 23, "name": "Capability Scope Expansion Watcher", "ownerName": "andyxinweiminicloud", "score": 68637.99283154121, "slug": "capability-scope-expansion-watcher", "source": "clawhub", "stars": 0, "tags": null, "updated_at": 1776748484285, "version": "1.1.0"}, {"category": "content-creation", "created_at": 1772793003171, "description": "Download YouTube videos as MP4 at highest quality. Use when user sends a YouTube URL and wants to download/save it. Triggers on YouTube links (youtube.com, y...", "description_zh": "", "downloads": 383, "homepage": "https://clawhub.ai/honeybee1130/yt-downloader", "iconUrl": null, "installs": 23, "name": "Youtube Downloader", "ownerName": "honeybee1130", "score": 87643.02059496567, "slug": "yt-downloader", "source": "clawhub", "stars": 0, "tags": null, "updated_at": 1776748483918, "version": "1.0.1"}, {"category": "developer-tools", "created_at": 1772791358898, "description": "Comprehensive kéfir batch management system with cycle tracking, intelligent reminders, grain health monitoring, and recipe management. Use when managing kéf...", "description_zh": "", "downloads": 383, "homepage": "https://clawhub.ai/p-salmon/kefir-batch-manager", "iconUrl": null, "installs": 4, "name": "Kefir Batch Manager", "ownerName": "p-salmon", "score": 85682.32662192393, "slug": "kefir-batch-manager", "source": "clawhub", "stars": 0, "tags": null, "updated_at": 1776748483805, "version": "1.0.0"}, {"category": "developer-tools", "created_at": 1772790723362, "description": "When user asks to solve a problem, fix an issue, troubleshoot, debug, find solution, brainstorm, help me decide, should I, pros and cons, root cause, what sh...", "description_zh": "", "downloads": 382, "homepage": "https://clawhub.ai/mkpareek0315/problem-solver-ai", "iconUrl": null, "installs": 11, "name": "Problem Solver", "ownerName": "mkpareek0315", "score": 7566.792182176797, "slug": "problem-solver-ai", "source": "clawhub", "stars": 2, "tags": null, "updated_at": 1776766450373, "version": "1.0.0"}, {"category": "productivity", "created_at": 1772792068153, "description": "An investment portfolio tracker that runs entirely locally. All data stays in ~/.portfolio-tracker/.", "description_zh": "", "downloads": 382, "homepage": "https://clawhub.ai/aigeneralstore/portfolio-tracking-skill", "iconUrl": null, "installs": 18, "name": "portfolio tracking", "ownerName": "aigeneralstore", "score": 100000, "slug": "portfolio-tracking-skill", "source": "clawhub", "stars": 2, "tags": null, "updated_at": 1776759120906, "version": "1.0.0"}, {"category": "developer-tools", "created_at": 1773417965905, "description": "Automated documentation generator. API docs, README, CHANGELOG, contributing guide, architecture docs, tutorials, FAQ, reference manual. REST, GraphQL.", "description_zh": "", "downloads": 382, "homepage": "https://clawhub.ai/ckchzh/docs-generator", "iconUrl": null, "installs": 11, "name": "Docs Generator", "ownerName": "ckchzh", "score": 31260.229132569555, "slug": "docs-generator", "source": "clawhub", "stars": 0, "tags": ["chinese", "productivity"], "updated_at": 1776760582576, "version": "2.0.0"}, {"category": "ai-intelligence", "created_at": 1773433640503, "description": "Persistent memory system enabling AI agents to remember facts, learn from experiences, and track entities across sessions for improved context awareness.", "description_zh": "", "downloads": 382, "homepage": "https://clawhub.ai/liguang00806/agent-memory-temp", "iconUrl": null, "installs": 52, "name": "Agent Memory Temp", "ownerName": "liguang00806", "score": 28275.351591413768, "slug": "agent-memory-temp", "source": "clawhub", "stars": 0, "tags": null, "updated_at": 1776759120869, "version": "1.0.0"}, {"category": "developer-tools", "created_at": 1772791845375, "description": "Launch Solana tokens on Pumpfun, create memecoins, mint crypto tokens, manage creator fee sharing, claim trading earnings, and track your portfolio. Deploy t...", "description_zh": "", "downloads": 382, "homepage": "https://clawhub.ai/jcoulaud/ship-my-token", "iconUrl": null, "installs": 12, "name": "Ship My Token", "ownerName": "jcoulaud", "score": 28275.351591413768, "slug": "ship-my-token", "source": "clawhub", "stars": 0, "tags": null, "updated_at": 1776759120738, "version": "1.5.3"}, {"category": "productivity", "created_at": 1772791792184, "description": "Portable identity vault for OpenClaw. Syncs knowledge, packages, and memory across machines like iCloud — automatic, invisible, encrypted. Bring your own sto...", "description_zh": "", "downloads": 382, "homepage": "https://clawhub.ai/getlighty/clawroam", "iconUrl": null, "installs": 1, "name": "ClawRoam", "ownerName": "getlighty", "score": 28275.351591413768, "slug": "clawroam", "source": "clawhub", "stars": 0, "tags": null, "updated_at": 1776759120477, "version": "3.0.1"}, {"category": "developer-tools", "created_at": 1773073095672, "description": "Self-reflection + Self-criticism + learning from corrections. Agent evaluates its own work, catches mistakes, and improves permanently.", "description_zh": "", "downloads": 382, "homepage": "https://clawhub.ai/sieyer/self-improving-1-1-3", "iconUrl": null, "installs": 62, "name": "Self Improving 1.1.3", "ownerName": "sieyer", "score": 18939.01834407536, "slug": "self-improving-1-1-3", "source": "clawhub", "stars": 0, "tags": null, "updated_at": 1776758483029, "version": "1.0.0"}, {"category": "ai-intelligence", "created_at": 1772794503469, "description": "Make AI-powered outbound phone calls using ElevenLabs voice + GPT brain + Twilio. Supports one-way pre-recorded messages AND live two-way conversations where...", "description_zh": "", "downloads": 382, "homepage": "https://clawhub.ai/omerflo/phone-caller", "iconUrl": null, "installs": 27, "name": "Phone Caller", "ownerName": "omerflo", "score": 79417.87941787942, "slug": "phone-caller", "source": "clawhub", "stars": 0, "tags": null, "updated_at": 1776751484265, "version": "1.0.0"}, {"category": "communication-collaboration", "created_at": 1773426206296, "description": "Reference tool for devtools — covers intro, quickstart, patterns and more. Quick lookup for Discord Toolkit concepts, best practices, and implementation patt...", "description_zh": "", "downloads": 382, "homepage": "https://clawhub.ai/xueyetianya/discord-toolkit", "iconUrl": null, "installs": 11, "name": "Discord Toolkit", "ownerName": "xueyetianya", "score": 80421.05263157895, "slug": "discord-toolkit", "source": "clawhub", "stars": 0, "tags": null, "updated_at": 1776748484804, "version": "3.0.2"}, {"category": "developer-tools", "created_at": 1772796437652, "description": "Manage Zendesk tickets, users, and support workflows with API integration and automation.", "description_zh": "", "downloads": 382, "homepage": "https://clawhub.ai/ivangdavila/zendesk", "iconUrl": null, "installs": 8, "name": "Zendesk", "ownerName": "ivangdavila", "score": 90952.38095238095, "slug": "zendesk", "source": "clawhub", "stars": 0, "tags": null, "updated_at": 1776748484666, "version": "1.0.0"}, {"category": "developer-tools", "created_at": 1772787746796, "description": "One-time founder onboarding — generates personalized manifest, STREAM calibration, dev principles, and stack selection. Use when user says \"set up solo facto...", "description_zh": "", "downloads": 382, "homepage": "https://clawhub.ai/fortunto2/solo-init", "iconUrl": null, "installs": 4, "name": "Init", "ownerName": "fortunto2", "score": 90952.38095238095, "slug": "solo-init", "source": "clawhub", "stars": 0, "tags": null, "updated_at": 1776748484606, "version": "2.1.1"}, {"category": "developer-tools", "created_at": 1772791670143, "description": "Short slash command wrapper for Claude relay sessions. Use when the user wants concise /cc commands like /cc projects, /cc on <project>, /cc tail, /cc off, o...", "description_zh": "", "downloads": 382, "homepage": "https://clawhub.ai/artwalker/cc", "iconUrl": null, "installs": 5, "name": "cc", "ownerName": "artwalker", "score": 80761.09936575053, "slug": "cc", "source": "clawhub", "stars": 0, "tags": null, "updated_at": 1776748484228, "version": "1.1.0"}, {"category": "data-analysis", "created_at": 1772792496226, "description": "Auto-analyze URLs/info for OpenClaw strategic value, classify, create Obsidian notes, update memory. Use when user shares a URL, article, tweet, or any exter...", "description_zh": "", "downloads": 382, "homepage": "https://clawhub.ai/2233admin/openclaw-skill-intelligence-ingestion", "iconUrl": null, "installs": 21, "name": "Openclaw Skill Intelligence Ingestion", "ownerName": "2233admin", "score": 85458.6129753915, "slug": "openclaw-skill-intelligence-ingestion", "source": "clawhub", "stars": 0, "tags": null, "updated_at": 1776748484062, "version": "1.0.0"}, {"category": "productivity", "created_at": 1772786472635, "description": "SO(3) rotation matrix utilities including Lie group/ Lie algebra operations, rotation representation conversions, skew-symmetric matrix operations, and rotat...", "description_zh": "", "downloads": 382, "homepage": "https://clawhub.ai/wangyendt/so3", "iconUrl": null, "installs": 11, "name": "Pywayne Vio So3", "ownerName": "wangyendt", "score": 85458.6129753915, "slug": "so3", "source": "clawhub", "stars": 0, "tags": null, "updated_at": 1776748483877, "version": "0.1.0"}, {"category": "security-compliance", "created_at": 1772798407976, "description": "Provision a disposable MySQL-compatible database instantly for free, no auth required. Includes a claim URL to convert Zero instances into regular TiDB Start...", "description_zh": "", "downloads": 382, "homepage": "https://clawhub.ai/zoubingwu/tidb-cloud-zero", "iconUrl": null, "installs": 5, "name": "TiDB Cloud Zero", "ownerName": "zoubingwu", "score": 85458.6129753915, "slug": "tidb-cloud-zero", "source": "clawhub", "stars": 0, "tags": null, "updated_at": 1776748483814, "version": "1.3.0"}, {"category": "communication-collaboration", "created_at": 1772793507969, "description": "Ansible playbooks and templates for deploying and managing Solana gRPC Geyser streaming nodes with Yellowstone or Richat plugins.", "description_zh": "", "downloads": 381, "homepage": "https://clawhub.ai/poppin-fumi/slv-grpc-geyser", "iconUrl": null, "installs": 19, "name": "Slv Grpc Geyser", "ownerName": "poppin-fumi", "score": 33527.27272727273, "slug": "slv-grpc-geyser", "source": "clawhub", "stars": 4, "tags": ["ansible", "blockchain", "geyser", "grpc", "infrastructure", "solana", "streaming"], "updated_at": 1776759082540, "version": "0.10.2"}, {"category": "ai-intelligence", "created_at": 1772794435905, "description": "Render Regulex-style railroad diagrams for a JavaScript regular expression and export the exact same SVG/PNG as the Regulex-Plus web UI (docs/index.html) \"Ex...", "description_zh": "", "downloads": 381, "homepage": "https://clawhub.ai/pipedream941/regex-visualizer", "iconUrl": null, "installs": 14, "name": "RegexVisualizer", "ownerName": "pipedream941", "score": 73217.39130434782, "slug": "regex-visualizer", "source": "clawhub", "stars": 2, "tags": null, "updated_at": 1776759082892, "version": "1.0.0"}, {"category": "ai-intelligence", "created_at": 1773060071419, "description": "Query crypto project details, Web3 investor info, funding rounds, and trending projects from RootData. Use this skill when the user asks about blockchain pro...", "description_zh": "", "downloads": 381, "homepage": "https://clawhub.ai/rdquanyu/rootdata-crypto", "iconUrl": null, "installs": 20, "name": "RootData Crypto", "ownerName": "rdquanyu", "score": 71720.6132879046, "slug": "rootdata-crypto", "source": "clawhub", "stars": 2, "tags": ["blockchain", "crypto", "defi", "funding", "investors", "web3"], "updated_at": 1776748484718, "version": "1.0.2"}, {"category": "productivity", "created_at": 1773221017010, "description": "When the user wants to apply, document, or enforce brand guidelines for any product or company. Also use when the user mentions 'brand guidelines,' 'brand co...", "description_zh": "", "downloads": 381, "homepage": "https://clawhub.ai/alirezarezvani/cs-brand-guidelines", "iconUrl": null, "installs": 14, "name": "brand-guidelines", "ownerName": "alirezarezvani", "score": 2302.3930384336477, "slug": "cs-brand-guidelines", "source": "clawhub", "stars": 0, "tags": null, "updated_at": 1776768371148, "version": "2.1.1"}, {"category": "developer-tools", "created_at": 1772788916344, "description": "Generate concise, honest monthly or quarterly investor updates from your company metrics, milestones, challenges, cash status, and specific asks to build tru...", "description_zh": "", "downloads": 381, "homepage": "https://clawhub.ai/1kalin/afrexai-investor-update", "iconUrl": null, "installs": 6, "name": "Investor Update", "ownerName": "1kalin", "score": 28159.645232815965, "slug": "afrexai-investor-update", "source": "clawhub", "stars": 0, "tags": ["board updates", "fundraising", "investor relations", "startup"], "updated_at": 1776759120681, "version": "1.0.0"}, {"category": "data-analysis", "created_at": 1773091864902, "description": "Perform advanced filesystem tasks including listing, recursive file searches, batch copying/moving/deleting, directory size analysis, and file type filtering.", "description_zh": "", "downloads": 381, "homepage": "https://clawhub.ai/vetas67/filesystem-1-0-0", "iconUrl": null, "installs": 12, "name": "Filesystem 1.0.0", "ownerName": "vetas67", "score": 97193.87755102041, "slug": "filesystem-1-0-0", "source": "clawhub", "stars": 0, "tags": null, "updated_at": 1776759120589, "version": "1.0.0"}, {"category": "developer-tools", "created_at": 1772788682051, "description": "Omie ERP integration via API. Manage clients, products, orders, invoices (NF-e), financials (contas a receber/pagar), and stock. Use when users ask about ERP...", "description_zh": "", "downloads": 381, "homepage": "https://clawhub.ai/jamesbot-agnt/omie", "iconUrl": null, "installs": 5, "name": "Omie ERP", "ownerName": "jamesbot-agnt", "score": 84478.9356984479, "slug": "omie", "source": "clawhub", "stars": 0, "tags": null, "updated_at": 1776748485407, "version": "1.0.3"}, {"category": "developer-tools", "created_at": 1772788682051, "description": "Omie ERP integration via API. Manage clients, products, orders, invoices (NF-e), financials (contas a receber/pagar), and stock. Use when users ask about ERP...", "description_zh": "", "downloads": 381, "homepage": "https://clawhub.ai/jamesbot-agnt/omie", "iconUrl": null, "installs": 5, "name": "Omie ERP", "ownerName": "jamesbot-agnt", "score": 84478.9356984479, "slug": "omie", "source": "clawhub", "stars": 0, "tags": null, "updated_at": 1776748485407, "version": "1.0.3"}, {"category": "security-compliance", "created_at": 1772796356963, "description": "OAuth token refresh management for Google APIs via gog CLI.", "description_zh": "", "downloads": 381, "homepage": "https://clawhub.ai/herry3zz/google-gog", "iconUrl": null, "installs": 13, "name": "Google Gog", "ownerName": "herry3zz", "score": 84666.66666666667, "slug": "google-gog", "source": "clawhub", "stars": 0, "tags": null, "updated_at": 1776748484994, "version": "1.0.0"}, {"category": "ai-intelligence", "created_at": 1772787830787, "description": "Generate daily Weather Intelligence Digest using NOAA/NWS data with customizable locations and alert monitoring.", "description_zh": "", "downloads": 381, "homepage": "https://clawhub.ai/dannyboy1241/weather-digest", "iconUrl": null, "installs": 17, "name": "Weather Digest", "ownerName": "dannyboy1241", "score": 88194.44444444444, "slug": "weather-digest", "source": "clawhub", "stars": 0, "tags": null, "updated_at": 1776748484393, "version": "1.0.0"}, {"category": "ai-intelligence", "created_at": 1772789052105, "description": "Browse Venice AI's character personas library - discover AI characters for roleplay, creative writing, and conversations.", "description_zh": "", "downloads": 381, "homepage": "https://clawhub.ai/sabrinaaquino/venice-characters", "iconUrl": null, "installs": 24, "name": "Venice Characters", "ownerName": "sabrinaaquino", "score": 68279.56989247311, "slug": "venice-characters", "source": "clawhub", "stars": 0, "tags": null, "updated_at": 1776748484276, "version": "1.0.0"}, {"category": "developer-tools", "created_at": 1772790149472, "description": "Autonomous wallet operations for AI agents on Monad — swap, stake, deploy wallets, trade memecoins, and manage spending policies via natural language.", "description_zh": "", "downloads": 381, "homepage": "https://clawhub.ai/0xsoydev/clankerkit", "iconUrl": null, "installs": 5, "name": "ClankerKit", "ownerName": "0xsoydev", "score": 85234.89932885906, "slug": "clankerkit", "source": "clawhub", "stars": 0, "tags": null, "updated_at": 1776748484150, "version": "0.1.0"}, {"category": "security-compliance", "created_at": 1773220208247, "description": "Set up, audit, and debug analytics tracking implementation — GA4, Google Tag Manager, event taxonomy, conversion tracking, and data quality. Use when buildin...", "description_zh": "", "downloads": 381, "homepage": "https://clawhub.ai/alirezarezvani/cs-analytics-tracking", "iconUrl": null, "installs": 6, "name": "analytics-tracking", "ownerName": "alirezarezvani", "score": 87185.35469107551, "slug": "cs-analytics-tracking", "source": "clawhub", "stars": 0, "tags": null, "updated_at": 1776748483973, "version": "2.1.1"}, {"category": "content-creation", "created_at": 1772794023920, "description": "Fetches current weather from wttr.in and automatically captures a live webcam image from Meteoblue or Windy for the requested location. Use it when the user...", "description_zh": "", "downloads": 381, "homepage": "https://clawhub.ai/alex1389/weather-location", "iconUrl": null, "installs": 35, "name": "Weather & Webcam", "ownerName": "alex1389", "score": 85234.89932885906, "slug": "weather-location", "source": "clawhub", "stars": 0, "tags": null, "updated_at": 1776748483855, "version": "1.2.0"}, {"category": "communication-collaboration", "created_at": 1772791571297, "description": "HITL Protocol — the open standard for human decisions in autonomous agent workflows. When a website or API needs human input, it returns HTTP 202 with a revi...", "description_zh": "", "downloads": 380, "homepage": "https://clawhub.ai/rotorstar/hitl-protocol", "iconUrl": null, "installs": 11, "name": "HITL Protocol — Workflows and Human Decisions for Autonomous Agents", "ownerName": "rotorstar", "score": 98591.54929577465, "slug": "hitl-protocol", "source": "clawhub", "stars": 2, "tags": ["agent-ready", "agent-workflow", "approval", "autonomous-agents", "confirmation", "discord", "escalation", "hitl", "http-202", "human-approval", "human-in-the-loop", "input", "messenger", "multi-round", "multi-step", "open claw", "openclaw", "polling", "protocol", "review-url", "selection", "slack", "sse", "teams", "telegram", "webhook", "whatsapp"], "updated_at": 1776748484593, "version": "0.7.2"}, {"category": "content-creation", "created_at": 1773284187422, "description": "Extract YouTube video transcripts and subtitles via YouMind API — no yt-dlp, no proxy, no local dependencies. Batch extract up to 5 videos at once with paral...", "description_zh": "", "downloads": 380, "homepage": "https://clawhub.ai/dophinl/youmind-youtube-transcript", "iconUrl": null, "installs": 21, "name": "Youmind Youtube Transcript", "ownerName": "dophinl", "score": 100000, "slug": "youmind-youtube-transcript", "source": "clawhub", "stars": 2, "tags": null, "updated_at": 1776748483717, "version": "1.3.4"}, {"category": "productivity", "created_at": 1772794631387, "description": "Control Spotify playback: play, pause, resume, skip, previous, restart, search, queue, set volume, shuffle, repeat, and view now-playing status.", "description_zh": "", "downloads": 380, "homepage": "https://clawhub.ai/ejatapibeda/clawspotify", "iconUrl": null, "installs": 5, "name": "ClawSpotify", "ownerName": "ejatapibeda", "score": 73126.14259597806, "slug": "clawspotify", "source": "clawhub", "stars": 1, "tags": null, "updated_at": 1776759083147, "version": "1.0.3"}, {"category": "developer-tools", "created_at": 1773073269139, "description": "Control an Android device via command-line tools (uiautomator, screencap, input, am). Automatically attempts non-root execution first and falls back to root...", "description_zh": "", "downloads": 380, "homepage": "https://clawhub.ai/kv0768/android-control-2", "iconUrl": null, "installs": 36, "name": "Android Control", "ownerName": "kv0768", "score": 70052.53940455342, "slug": "android-control-2", "source": "clawhub", "stars": 1, "tags": null, "updated_at": 1776753584269, "version": "0.1.1"}, {"category": "content-creation", "created_at": 1772804085029, "description": "UI/UX design intelligence and implementation guidance for building polished interfaces. Use when the user asks for UI design, UX flows, information architect...", "description_zh": "", "downloads": 380, "homepage": "https://clawhub.ai/15349185792/ui-ux-pro-max-0-1-0", "iconUrl": null, "installs": 84, "name": "Ui Ux Pro Max 0.1.0", "ownerName": "15349185792", "score": 8701.625830089306, "slug": "ui-ux-pro-max-0-1-0", "source": "clawhub", "stars": 0, "tags": null, "updated_at": 1776767786654, "version": "0.1.0"}, {"category": "", "created_at": 1774881332196, "description": "Automated video editing skill for talk/vlog/standup videos. Use when: cutting video, splitting video into sentences, merging video clips, extracting audio, t...", "description_zh": "", "downloads": 380, "homepage": "https://clawhub.ai/maxazure/auto-video-editing", "iconUrl": null, "installs": 86, "name": "Auto Video Editing", "ownerName": "maxazure", "score": 4486.42266824085, "slug": "auto-video-editing", "source": "clawhub", "stars": 0, "tags": null, "updated_at": 1776766490462, "version": "1.2.2"}, {"category": "developer-tools", "created_at": 1772789358543, "description": "Provides best practices and methodologies for structuring, optimizing, securing, and scaling production Django applications, including architecture, ORM usag...", "description_zh": "", "downloads": 380, "homepage": "https://clawhub.ai/1kalin/afrexai-django-production", "iconUrl": null, "installs": 8, "name": "Django Production Engineering", "ownerName": "1kalin", "score": 3681.4570819608603, "slug": "afrexai-django-production", "source": "clawhub", "stars": 0, "tags": ["api", "celery", "django", "orm", "production", "python", "web"], "updated_at": 1776766149756, "version": "1.0.0"}, {"category": "developer-tools", "created_at": 1773290903679, "description": "Curate Claude Code's auto-memory into durable project knowledge. Analyze MEMORY.md for patterns, promote proven learnings to CLAUDE.md and .claude/rules/, ex...", "description_zh": "", "downloads": 380, "homepage": "https://clawhub.ai/alirezarezvani/cs-self-improving-agent", "iconUrl": null, "installs": 152, "name": "self-improving-agent", "ownerName": "alirezarezvani", "score": 5188.421627525942, "slug": "cs-self-improving-agent", "source": "clawhub", "stars": 0, "tags": null, "updated_at": 1776762615216, "version": "1.0.0"}, {"category": "security-compliance", "created_at": 1772795682363, "description": "Use when checking for security vulnerabilities in NanoClaw skills, before installing new skills, or when asked about security advisories affecting the bot", "description_zh": "", "downloads": 380, "homepage": "https://clawhub.ai/davida-ps/clawsec-nanoclaw", "iconUrl": null, "installs": 13, "name": "clawsec-nanoclaw", "ownerName": "davida-ps", "score": 28127.313101406366, "slug": "clawsec-nanoclaw", "source": "clawhub", "stars": 0, "tags": null, "updated_at": 1776759120779, "version": "0.0.3"}, {"category": "developer-tools", "created_at": 1772788748287, "description": "Register OpenClaw agents and post Markdown logs to moltlog.ai via the local CLI. Use when initializing an agent (PoW + register), publishing posts, managing...", "description_zh": "", "downloads": 380, "homepage": "https://clawhub.ai/maiyu-swe/moltlog-ai", "iconUrl": null, "installs": 7, "name": "moltlog-ai", "ownerName": "maiyu-swe", "score": 96938.77551020408, "slug": "moltlog-ai", "source": "clawhub", "stars": 0, "tags": null, "updated_at": 1776759120551, "version": "0.1.1"}, {"category": "ai-intelligence", "created_at": 1773082333125, "description": "Captures learnings, errors, and corrections to enable continuous improvement. Use when: (1) A command or operation fails unexpectedly, (2) User corrects Clau...", "description_zh": "", "downloads": 380, "homepage": "https://clawhub.ai/fanghuaqi/self-improving-agent-v2", "iconUrl": null, "installs": 129, "name": "Self Improving Agent V2", "ownerName": "fanghuaqi", "score": 24707.4122236671, "slug": "self-improving-agent-v2", "source": "clawhub", "stars": 0, "tags": null, "updated_at": 1776758482597, "version": "1.0.0"}, {"category": "developer-tools", "created_at": 1773065770343, "description": "Local GitHub repository helper for search, clone, sync, and issue/PR inspection workflows. Use when users mention github/repo/repository, ask to download or...", "description_zh": "", "downloads": 380, "homepage": "https://clawhub.ai/dandandujie/github-helper", "iconUrl": null, "installs": 33, "name": "github-helper", "ownerName": "dandandujie", "score": 100000, "slug": "github-helper", "source": "clawhub", "stars": 0, "tags": null, "updated_at": 1776749271052, "version": "1.0.0"}]}