{"page": 216, "total_pages": 522, "total": 26073, "skills": [{"category": "productivity", "created_at": 1773057230997, "description": "Track stock prices and company news from Google Finance on a schedule. Use when user wants to monitor stocks, get buy/sell recommendations, check price chang...", "description_zh": "", "downloads": 380, "homepage": "https://clawhub.ai/mli-cj/google-finance", "iconUrl": null, "installs": 31, "name": "Google Finance Stock Tracker", "ownerName": "mli-cj", "score": 66549.91243432574, "slug": "google-finance", "source": "clawhub", "stars": 0, "tags": null, "updated_at": 1776748485624, "version": "1.1.0"}, {"category": "productivity", "created_at": 1773057230997, "description": "Track stock prices and company news from Google Finance on a schedule. Use when user wants to monitor stocks, get buy/sell recommendations, check price chang...", "description_zh": "", "downloads": 380, "homepage": "https://clawhub.ai/mli-cj/google-finance", "iconUrl": null, "installs": 31, "name": "Google Finance Stock Tracker", "ownerName": "mli-cj", "score": 66549.91243432574, "slug": "google-finance", "source": "clawhub", "stars": 0, "tags": null, "updated_at": 1776748485624, "version": "1.1.0"}, {"category": "data-analysis", "created_at": 1773425765195, "description": "Analyze IP addresses with subnet calculation and CIDR notation. Use when planning network addressing.", "description_zh": "", "downloads": 380, "homepage": "https://clawhub.ai/ckchzh/ip-advisor", "iconUrl": null, "installs": 8, "name": "Ip Advisor", "ownerName": "ckchzh", "score": 85585.58558558559, "slug": "ip-advisor", "source": "clawhub", "stars": 0, "tags": ["productivity"], "updated_at": 1776748485467, "version": "3.0.0"}, {"category": "security-compliance", "created_at": 1772789178235, "description": "Cryptographic identity for AI agents - sign and verify agent messages", "description_zh": "", "downloads": 380, "homepage": "https://clawhub.ai/nantes/agent-id-osiris", "iconUrl": null, "installs": 5, "name": "Agent Identity", "ownerName": "nantes", "score": 90476.19047619047, "slug": "agent-id-osiris", "source": "clawhub", "stars": 0, "tags": ["agent", "crypto", "security"], "updated_at": 1776748484669, "version": "1.0.5"}, {"category": "content-creation", "created_at": 1772793243462, "description": "Generate individual Markdown articles from SerpAPI Google search results with images", "description_zh": "", "downloads": 380, "homepage": "https://clawhub.ai/near2sea/generate-news-article", "iconUrl": null, "installs": 27, "name": "Generate News Article", "ownerName": "near2sea", "score": 90476.19047619047, "slug": "generate-news-article", "source": "clawhub", "stars": 0, "tags": null, "updated_at": 1776748484621, "version": "1.0.0"}, {"category": "data-analysis", "created_at": 1772790560989, "description": "Generate ViewModel tests with codable round-trip, versioning stability, and multi-locale translation verification.", "description_zh": "", "downloads": 380, "homepage": "https://clawhub.ai/foscomputerservices/fosmvvm-viewmodel-test-generator", "iconUrl": null, "installs": 26, "name": "FOSMVVM ViewModel Test Generator", "ownerName": "foscomputerservices", "score": 81720.43010752689, "slug": "fosmvvm-viewmodel-test-generator", "source": "clawhub", "stars": 0, "tags": null, "updated_at": 1776748484517, "version": "2.0.6"}, {"category": "ai-intelligence", "created_at": 1772790782762, "description": "Create a COMMS.md — a structured, queryable document expressing someone's communication preferences for humans and agents. Use when: (1) someone wants to art...", "description_zh": "", "downloads": 380, "homepage": "https://clawhub.ai/stedmanhalliday/comms-md", "iconUrl": null, "installs": 13, "name": "COMMS.md Creator", "ownerName": "stedmanhalliday", "score": 87962.96296296296, "slug": "comms-md", "source": "clawhub", "stars": 0, "tags": null, "updated_at": 1776748484408, "version": "1.0.1"}, {"category": "data-analysis", "created_at": 1773069483705, "description": "Monitor cryptocurrency and financial markets via exchange APIs (Binance, OKX). Track prices, analyze trends, and generate market reports.", "description_zh": "", "downloads": 380, "homepage": "https://clawhub.ai/patches429/market-monitor", "iconUrl": null, "installs": 50, "name": "Market Monitor", "ownerName": "patches429", "score": 86956.52173913043, "slug": "market-monitor", "source": "clawhub", "stars": 0, "tags": null, "updated_at": 1776748483959, "version": "0.1.0"}, {"category": "security-compliance", "created_at": 1772800560850, "description": "Audit Amazon product listing images for non-square dimensions, auto-pad them to 2000×2000 white background, and push corrected images to live listings via SP...", "description_zh": "", "downloads": 379, "homepage": "https://clawhub.ai/zero2ai-hub/skill-amazon-listing-optimizer", "iconUrl": null, "installs": 51, "name": "Skill Amazon Listing Optimizer", "ownerName": "zero2ai-hub", "score": 7645.753479927375, "slug": "skill-amazon-listing-optimizer", "source": "clawhub", "stars": 0, "tags": null, "updated_at": 1776763449870, "version": "1.0.0"}, {"category": "productivity", "created_at": 1772795056587, "description": "Monitors and summarizes earnings from bandwidth nodes, decentralized storage, DeFi yields, and staking with alerts for drops or offline status.", "description_zh": "", "downloads": 379, "homepage": "https://clawhub.ai/mariusfit/passive-income-monitor", "iconUrl": null, "installs": 13, "name": "Passive Income Monitor", "ownerName": "mariusfit", "score": 96683.67346938775, "slug": "passive-income-monitor", "source": "clawhub", "stars": 0, "tags": null, "updated_at": 1776759120533, "version": "1.0.1"}, {"category": "developer-tools", "created_at": 1772790447724, "description": "Give your AI agent crypto wallets on Base. Create purpose-specific wallets, ask your human to fund each one, check balances, and manage budgets. No accounts,...", "description_zh": "", "downloads": 379, "homepage": "https://clawhub.ai/operator-auteng-ai/pocket-money", "iconUrl": null, "installs": 3, "name": "pocket-money", "ownerName": "operator-auteng-ai", "score": 68411.55234657039, "slug": "pocket-money", "source": "clawhub", "stars": 0, "tags": null, "updated_at": 1776755588779, "version": "2.0.0"}, {"category": "productivity", "created_at": 1772790497203, "description": "Workflow orchestration for Pi's task management, self-improvement, and code quality standards. Use when starting new projects, managing multi-step tasks (3+...", "description_zh": "", "downloads": 379, "homepage": "https://clawhub.ai/kai-tw/pi-workflow", "iconUrl": null, "installs": 16, "name": "Pi Workflow Orchestration", "ownerName": "kai-tw", "score": 19842.931937172776, "slug": "pi-workflow", "source": "clawhub", "stars": 0, "tags": null, "updated_at": 1776754016051, "version": "1.1.1"}, {"category": "ai-intelligence", "created_at": 1773069343712, "description": "Lightweight self-improvement loop for AI agents. Capture errors, corrections, and discoveries in a fast one-line format, dedup them, queue recurring or criti...", "description_zh": "", "downloads": 379, "homepage": "https://clawhub.ai/zurbrick/agent-memory-loop", "iconUrl": null, "installs": 45, "name": "Agent Memory Loop", "ownerName": "zurbrick", "score": 19842.931937172776, "slug": "agent-memory-loop", "source": "clawhub", "stars": 0, "tags": ["errors", "learning", "memory", "safety", "self-improvement"], "updated_at": 1776754016004, "version": "2.1.1"}, {"category": "developer-tools", "created_at": 1772787956916, "description": "Build, bootstrap, and maintain a stable OpenClaw default agent identity by interviewing the user, updating IDENTITY.md, and seeding core context files (AGENT...", "description_zh": "", "downloads": 379, "homepage": "https://clawhub.ai/msaum/openclaw-default-agent-backstory", "iconUrl": null, "installs": 7, "name": "Openclaw Default Agent Backstory", "ownerName": "msaum", "score": 84222.22222222222, "slug": "openclaw-default-agent-backstory", "source": "clawhub", "stars": 0, "tags": null, "updated_at": 1776748484877, "version": "1.0.0"}, {"category": "productivity", "created_at": 1773074283042, "description": "Auto-generate professional weekly work reports with multiple templates", "description_zh": "", "downloads": 379, "homepage": "https://clawhub.ai/windy-001-crypto/weekly-reporter-v2", "iconUrl": null, "installs": 20, "name": "Weekly Reporter Pro", "ownerName": "windy-001-crypto", "score": 79789.47368421052, "slug": "weekly-reporter-v2", "source": "clawhub", "stars": 0, "tags": ["automation", "report", "weekly", "work"], "updated_at": 1776748484817, "version": "1.0.0"}, {"category": "content-creation", "created_at": 1772802309670, "description": "Generate social media content and publish to all major platforms from one command.", "description_zh": "", "downloads": 379, "homepage": "https://clawhub.ai/tarekhoury/openclaw-powerpost", "iconUrl": null, "installs": 9, "name": "Powerpost", "ownerName": "tarekhoury", "score": 64565.587734241904, "slug": "openclaw-powerpost", "source": "clawhub", "stars": 0, "tags": null, "updated_at": 1776748484714, "version": "0.3.0"}, {"category": "ai-intelligence", "created_at": 1772788220738, "description": "Navigate Buenos Aires as visitor, resident, tech worker, student, or entrepreneur with neighborhoods, transport, costs, visas, and local insights.", "description_zh": "", "downloads": 379, "homepage": "https://clawhub.ai/ivangdavila/buenos-aires", "iconUrl": null, "installs": 12, "name": "Buenos Aires", "ownerName": "ivangdavila", "score": 88967.13615023474, "slug": "buenos-aires", "source": "clawhub", "stars": 0, "tags": null, "updated_at": 1776748484570, "version": "1.0.1"}, {"category": "data-analysis", "created_at": 1772790883797, "description": "Architectural code review and refactoring assistant that perceives code vibes and system-level flow issues. Use for analyzing code quality and architecture,...", "description_zh": "", "downloads": 379, "homepage": "https://clawhub.ai/ev3lynx727/ghostclaw", "iconUrl": null, "installs": 11, "name": "Ghostclaw", "ownerName": "ev3lynx727", "score": 84787.47203579418, "slug": "ghostclaw", "source": "clawhub", "stars": 0, "tags": null, "updated_at": 1776748483872, "version": "1.0.0"}, {"category": "data-analysis", "created_at": 1772788742929, "description": "Integrate with Garmin Connect to fetch and analyze deep fitness metrics including sleep, body battery, resting heart rate, stress, and training status. Use t...", "description_zh": "", "downloads": 379, "homepage": "https://clawhub.ai/vegasbrianc/garmin-connect-thebyteio", "iconUrl": null, "installs": 13, "name": "Garmin", "ownerName": "vegasbrianc", "score": 90238.09523809524, "slug": "garmin-connect-thebyteio", "source": "clawhub", "stars": 0, "tags": ["fitness", "garmin", "health"], "updated_at": 1776748483723, "version": "0.1.0"}, {"category": "data-analysis", "created_at": 1772788900074, "description": "Handle customer service, bills, reservations, and more via Pine AI — negotiate, cancel, dispute, book, and resolve from the terminal.", "description_zh": "", "downloads": 378, "homepage": "https://clawhub.ai/bojieli/pine-assistant", "iconUrl": null, "installs": 12, "name": "Pine Assistant", "ownerName": "bojieli", "score": 9128.630705394191, "slug": "pine-assistant", "source": "clawhub", "stars": 2, "tags": null, "updated_at": 1776769150319, "version": "1.2.0"}, {"category": "content-creation", "created_at": 1773845928383, "description": "Download videos from 1000+ sites, torrents, and magnet links directly to 115 or Quark cloud storage via server-side or local downloads.", "description_zh": "", "downloads": 378, "homepage": "https://clawhub.ai/graysonzeng/video-fetch-download", "iconUrl": null, "installs": 38, "name": "Video Fetch Download", "ownerName": "graysonzeng", "score": 72193.43696027633, "slug": "video-fetch-download", "source": "clawhub", "stars": 2, "tags": ["115", "download", "magnet", "torrent", "video"], "updated_at": 1776759082799, "version": "1.1.9"}, {"category": "content-creation", "created_at": 1773077982971, "description": "Translate text or extract and translate text from images or image URLs using multiple engines including Baidu, Google, DeepL, and ChatGPT, supporting batch p...", "description_zh": "", "downloads": 378, "homepage": "https://clawhub.ai/leoking/image-translator", "iconUrl": null, "installs": 60, "name": "Image Translator", "ownerName": "leoking", "score": 30622.710622710623, "slug": "image-translator", "source": "clawhub", "stars": 2, "tags": null, "updated_at": 1776759082617, "version": "1.0.0"}, {"category": "productivity", "created_at": 1772792609556, "description": "Control an Icom IC-7610 transceiver over USB/LAN. Get/set frequency, mode, power, S-meter, SWR. CW keying and beacon mode. Remote power on/off.", "description_zh": "", "downloads": 378, "homepage": "https://clawhub.ai/morozsm/icom-7610", "iconUrl": null, "installs": 10, "name": "Icom IC-7610", "ownerName": "morozsm", "score": 100000, "slug": "icom-7610", "source": "clawhub", "stars": 2, "tags": null, "updated_at": 1776748485020, "version": "2.1.0"}, {"category": "ai-intelligence", "created_at": 1772795191026, "description": "PC healthcheck and diagnostics with detailed system information and actionable recommendations. Works on Windows, macOS, and Linux. Read-only system diagnost...", "description_zh": "", "downloads": 378, "homepage": "https://clawhub.ai/ningtoba/pc-assistant", "iconUrl": null, "installs": 23, "name": "Pc Assistant", "ownerName": "ningtoba", "score": 88000, "slug": "pc-assistant", "source": "clawhub", "stars": 2, "tags": null, "updated_at": 1776748484837, "version": "1.2.4"}, {"category": "data-analysis", "created_at": 1772790389416, "description": "Analyze email inbox health with weather metaphors, spam/signal classification, email debt scoring, and ghost detection. Use when user asks about inbox status...", "description_zh": "", "downloads": 378, "homepage": "https://clawhub.ai/pfrederiksen/email-intelligence", "iconUrl": null, "installs": 23, "name": "Email Intelligence", "ownerName": "pfrederiksen", "score": 81481.48148148147, "slug": "email-intelligence", "source": "clawhub", "stars": 2, "tags": null, "updated_at": 1776748483979, "version": "1.0.0"}, {"category": "developer-tools", "created_at": 1773852516542, "description": "Executable OpenClaw health-report skill with Chinese, English, and Japanese report flows. It reads Markdown logs only from an explicitly configured MEMORY_DI...", "description_zh": "", "downloads": 378, "homepage": "https://clawhub.ai/tankeito/health-mate", "iconUrl": null, "installs": 9, "name": "Health Mate", "ownerName": "tankeito", "score": 71198.56887298748, "slug": "health-mate", "source": "clawhub", "stars": 1, "tags": null, "updated_at": 1776751784042, "version": "1.5.2"}, {"category": "developer-tools", "created_at": 1772795556656, "description": "Solve optimization, statistics, signal processing, and linear algebra problems with SciPy recipes and ready-to-run code.", "description_zh": "", "downloads": 378, "homepage": "https://clawhub.ai/ivangdavila/scipy", "iconUrl": null, "installs": 28, "name": "SciPy", "ownerName": "ivangdavila", "score": 27155.172413793105, "slug": "scipy", "source": "clawhub", "stars": 0, "tags": null, "updated_at": 1776767050226, "version": "1.0.0"}, {"category": "ai-intelligence", "created_at": 1772792172140, "description": "Download files from Tailscale Taildrop inbox to local storage. Use when user wants to retrieve files sent via Tailscale or mentions Taildrop.", "description_zh": "", "downloads": 378, "homepage": "https://clawhub.ai/cortexuvula/taildrop", "iconUrl": null, "installs": 11, "name": "Taildrop", "ownerName": "cortexuvula", "score": 13836.017569546118, "slug": "taildrop", "source": "clawhub", "stars": 0, "tags": ["stable"], "updated_at": 1776762015242, "version": "1.0.0"}, {"category": "productivity", "created_at": 1773076532071, "description": "Use this skill to generate Anki flashcards in simple-anki-sync format for active memorization of any knowledge. Invoke whenever the user wants to memorize, m...", "description_zh": "", "downloads": 378, "homepage": "https://clawhub.ai/niracler/nini-anki-card-generator", "iconUrl": null, "installs": 14, "name": "Anki Card Generator", "ownerName": "niracler", "score": 9970.983909258772, "slug": "nini-anki-card-generator", "source": "clawhub", "stars": 0, "tags": null, "updated_at": 1776760940125, "version": "0.2.1"}, {"category": "data-analysis", "created_at": 1773062981385, "description": "Generate a complete investor-ready business plan in 10 minutes with live market research, competitor analysis, financial modeling, and a pitch video tailored...", "description_zh": "", "downloads": 378, "homepage": "https://clawhub.ai/g4dr/ai-business-plan-generator", "iconUrl": null, "installs": 57, "name": "AI Business Plan Generator — Full Investor-Ready Plan in 10 Minutes", "ownerName": "g4dr", "score": 27937.91574279379, "slug": "ai-business-plan-generator", "source": "clawhub", "stars": 0, "tags": ["apify", "business-plan", "entrepreneurship", "financial-projections", "fundraising", "investor", "invideo", "market-research", "seed-round", "startup"], "updated_at": 1776759120713, "version": "1.0.0"}, {"category": "ai-intelligence", "created_at": 1772792459731, "description": "Manages AI assistant memory by organizing files across three dimensions: timeline logs, full conversation backups, and topic-based project folders for easy r...", "description_zh": "", "downloads": 378, "homepage": "https://clawhub.ai/amlyx/three-dimensional-memory", "iconUrl": null, "installs": 15, "name": "Three-Dimensional Memory", "ownerName": "amlyx", "score": 27937.91574279379, "slug": "three-dimensional-memory", "source": "clawhub", "stars": 0, "tags": ["memory", "organization", "productivity", "workflow"], "updated_at": 1776759120622, "version": "1.0.0"}, {"category": "security-compliance", "created_at": 1772789607228, "description": "Performs a comprehensive AI safety audit mapping systems to EU AI Act risk tiers, assessing 30 controls across six domains, and generating a 90-day remediati...", "description_zh": "", "downloads": 378, "homepage": "https://clawhub.ai/1kalin/afrexai-ai-safety-audit", "iconUrl": null, "installs": 6, "name": "AI Safety Audit", "ownerName": "1kalin", "score": 96428.57142857143, "slug": "afrexai-ai-safety-audit", "source": "clawhub", "stars": 0, "tags": ["alignment", "audit", "compliance", "eu ai act", "nist", "safety"], "updated_at": 1776759120547, "version": "1.0.0"}, {"category": "productivity", "created_at": 1773432226240, "description": "Reference tool for life — covers intro, quickstart, patterns and more. Quick lookup for Pet Care concepts, best practices, and implementation patterns.", "description_zh": "", "downloads": 378, "homepage": "https://clawhub.ai/bytesagain1/pet-care", "iconUrl": null, "installs": 9, "name": "Pet Care", "ownerName": "bytesagain1", "score": 74851.48514851485, "slug": "pet-care", "source": "clawhub", "stars": 0, "tags": ["productivity"], "updated_at": 1776750584195, "version": "4.0.1"}, {"category": "data-analysis", "created_at": 1773283057092, "description": "Real-time token consumption monitoring dashboard for OpenClaw agents. Tracks per-agent token usage, cost breakdown by model, cache hit rates, cron job status...", "description_zh": "", "downloads": 378, "homepage": "https://clawhub.ai/kasparchen/token-burn-monitor", "iconUrl": null, "installs": 6, "name": "Token Burn Monitor", "ownerName": "kasparchen", "score": 83813.74722838137, "slug": "token-burn-monitor", "source": "clawhub", "stars": 0, "tags": null, "updated_at": 1776748485382, "version": "5.3.1"}, {"category": "data-analysis", "created_at": 1772797565996, "description": "Install and manage OpenClaw agent skills. Learn how to find, install, and configure new capabilities from ClawHub and GitHub.", "description_zh": "", "downloads": 378, "homepage": "https://clawhub.ai/xu-fengxie/skill-manager-2", "iconUrl": null, "installs": 10, "name": "Skill Manager", "ownerName": "xu-fengxie", "score": 90430.62200956937, "slug": "skill-manager-2", "source": "clawhub", "stars": 0, "tags": null, "updated_at": 1776748485040, "version": "0.1.0"}, {"category": "data-analysis", "created_at": 1772805309396, "description": "Simplified CLI tools for camoufox anti-detection browser automation. Provides fox-open, fox-scrape, fox-eval, fox-close, and fox-bilibili-stats commands for...", "description_zh": "", "downloads": 378, "homepage": "https://clawhub.ai/adastraabyssoque/camoufox-tools", "iconUrl": null, "installs": 25, "name": "Camoufox Tools", "ownerName": "adastraabyssoque", "score": 84563.75838926174, "slug": "camoufox-tools", "source": "clawhub", "stars": 0, "tags": null, "updated_at": 1776748484089, "version": "1.0.0"}, {"category": "data-analysis", "created_at": 1773289825370, "description": "Free habit tracking, todo, and routines — create and track up to 25 habits, 100 tasks, and 15 routines; schedule reminders and daily briefings across ChatGPT...", "description_zh": "", "downloads": 377, "homepage": "https://clawhub.ai/phantue2002/buffy-agent", "iconUrl": null, "installs": 5, "name": "Habit tracking, todo, and routines", "ownerName": "phantue2002", "score": 74597.49552772808, "slug": "buffy-agent", "source": "clawhub", "stars": 2, "tags": ["habit-tracker", "habits", "latest daily  goals habit-tracker habits productivity tracking todo routines", "latest, daily", "productivity", "tracking"], "updated_at": 1776751784091, "version": "1.1.7"}, {"category": "developer-tools", "created_at": 1772792280942, "description": "AI's Knowledge Base CLI - Query and manage world knowledge for AI agents. Use when users want to search knowledge, add knowledge sources, or interact with th...", "description_zh": "", "downloads": 377, "homepage": "https://clawhub.ai/femto/worldbook", "iconUrl": null, "installs": 9, "name": "Worldbook", "ownerName": "femto", "score": 99760.76555023924, "slug": "worldbook", "source": "clawhub", "stars": 2, "tags": null, "updated_at": 1776748485000, "version": "0.1.0"}, {"category": "developer-tools", "created_at": 1773954319376, "description": "Build Shopify-ready product descriptions that turn raw product facts into clearer PDP copy with stronger benefits, objections handling, and conversion intent.", "description_zh": "", "downloads": 377, "homepage": "https://clawhub.ai/leooooooow/shopify-product-description-generator", "iconUrl": null, "installs": 29, "name": "Shopify Product Description Generator", "ownerName": "leooooooow", "score": 20455.778621812264, "slug": "shopify-product-description-generator", "source": "clawhub", "stars": 0, "tags": null, "updated_at": 1776765250611, "version": "1.0.1"}, {"category": "content-creation", "created_at": 1773060749432, "description": "Create or update AgentSkills. Use when designing, structuring, or packaging skills with scripts, references, and assets.", "description_zh": "", "downloads": 377, "homepage": "https://clawhub.ai/maverick-software/skill-creator-vault-enhancement", "iconUrl": null, "installs": 98, "name": "Skill Creator Enhanced (Vault Awareness)", "ownerName": "maverick-software", "score": 11682.677409358537, "slug": "skill-creator-vault-enhancement", "source": "clawhub", "stars": 0, "tags": null, "updated_at": 1776764950228, "version": "1.0.0"}, {"category": "developer-tools", "created_at": 1772790473272, "description": "NYC MTA transit — real-time subway arrivals, bus predictions, service alerts, and route info for the New York City subway and bus system. Use when the user a...", "description_zh": "", "downloads": 377, "homepage": "https://clawhub.ai/brianleach/mta", "iconUrl": null, "installs": 4, "name": "NYC MTA Transit", "ownerName": "brianleach", "score": 27905.255366395264, "slug": "mta", "source": "clawhub", "stars": 0, "tags": null, "updated_at": 1776759120881, "version": "1.0.0"}, {"category": "data-analysis", "created_at": 1772790732274, "description": "Generates structured blameless incident postmortems from raw notes, producing summaries, timelines, root cause analyses, impacts, action items, and preventio...", "description_zh": "", "downloads": 377, "homepage": "https://clawhub.ai/1kalin/afrexai-postmortem", "iconUrl": null, "installs": 7, "name": "Incident Postmortem Framework", "ownerName": "1kalin", "score": 27905.255366395264, "slug": "afrexai-postmortem", "source": "clawhub", "stars": 0, "tags": ["blameless", "incident", "postmortem", "root-cause", "sre"], "updated_at": 1776759120793, "version": "1.0.0"}, {"category": "data-analysis", "created_at": 1772796490268, "description": "Monitor Twitter, Reddit, forums, and news for brand mentions; analyze sentiment, detect reputation crises, and send instant alerts to Slack, Telegram, or email.", "description_zh": "", "downloads": 377, "homepage": "https://clawhub.ai/g4dr/social-listening-monitor", "iconUrl": null, "installs": 16, "name": "Social Listening & Brand Reputation Monitor", "ownerName": "g4dr", "score": 27905.255366395264, "slug": "social-listening-monitor", "source": "clawhub", "stars": 0, "tags": null, "updated_at": 1776759120777, "version": "1.0.0"}, {"category": "data-analysis", "created_at": 1774619117905, "description": "Turn raw data into decisions with statistical rigor, proper methodology, and awareness of analytical pitfalls.", "description_zh": "", "downloads": 377, "homepage": "https://clawhub.ai/litiao1224/data-analysis-litiao", "iconUrl": null, "installs": 26, "name": "Data Analysis Litiao", "ownerName": "litiao1224", "score": 22574.850299401198, "slug": "data-analysis-litiao", "source": "clawhub", "stars": 0, "tags": null, "updated_at": 1776757582690, "version": "1.0.0"}, {"category": "data-analysis", "created_at": 1772796853658, "description": "Thesis-driven equity and options trading analyst. Use when: (1) evaluating a trade idea before entering a position, (2) analyzing options pricing via IV vs H...", "description_zh": "", "downloads": 377, "homepage": "https://clawhub.ai/browndroid/investing-analyst", "iconUrl": null, "installs": 32, "name": "Investing Analyst", "ownerName": "browndroid", "score": 23044.0097799511, "slug": "investing-analyst", "source": "clawhub", "stars": 0, "tags": null, "updated_at": 1776756982162, "version": "1.0.1"}, {"category": "data-analysis", "created_at": 1772794297609, "description": "Track mobile app metrics with Firebase, App Store Connect, Play Console, retention, funnels, and cohort analysis.", "description_zh": "", "downloads": 377, "homepage": "https://clawhub.ai/ivangdavila/mobile-app-analytics", "iconUrl": null, "installs": 14, "name": "Mobile App Analytics", "ownerName": "ivangdavila", "score": 66024.51838879159, "slug": "mobile-app-analytics", "source": "clawhub", "stars": 0, "tags": null, "updated_at": 1776748485555, "version": "1.0.0"}, {"category": "content-creation", "created_at": 1773065750826, "description": "Use this skill whenever the user wants to read, parse, extract content from, modify, or otherwise process an .epub file. Triggers include any mention of \".ep...", "description_zh": "", "downloads": 377, "homepage": "https://clawhub.ai/gaojizhou/epub", "iconUrl": null, "installs": 80, "name": "EPUB reader", "ownerName": "gaojizhou", "score": 89761.90476190476, "slug": "epub", "source": "clawhub", "stars": 0, "tags": null, "updated_at": 1776748484598, "version": "1.0.0"}, {"category": "productivity", "created_at": 1772789333002, "description": "Интерактивная викторина по школьным предметам и программированию с inline кнопками. Используй когда пользователь просит поиграть в викторину, проверить знани...", "description_zh": "", "downloads": 377, "homepage": "https://clawhub.ai/russianoracle/quiz-battle", "iconUrl": null, "installs": 17, "name": "Quiz Battle", "ownerName": "russianoracle", "score": 87268.51851851853, "slug": "quiz-battle", "source": "clawhub", "stars": 0, "tags": null, "updated_at": 1776748484350, "version": "1.0.0"}, {"category": "productivity", "created_at": 1772790525785, "description": "Fetch surf-relevant ocean conditions from Stormglass by spot name or coordinates, including current snapshot and 1-3 day forecast windows with tides, gusts,...", "description_zh": "", "downloads": 377, "homepage": "https://clawhub.ai/dgorissen/stormglass", "iconUrl": null, "installs": 14, "name": "Stormglass Surf & Ocean Data", "ownerName": "dgorissen", "score": 67562.72401433691, "slug": "stormglass", "source": "clawhub", "stars": 0, "tags": null, "updated_at": 1776748484314, "version": "1.0.2"}, {"category": "content-creation", "created_at": 1772792122023, "description": "Not a code generator — an entire dev team. You write the vision, it ships the code. Autonomous builds, PRs, reviews, and merges across multiple repos. Point...", "description_zh": "", "downloads": 376, "homepage": "https://clawhub.ai/8co/opentangl", "iconUrl": null, "installs": 36, "name": "OpenTangl", "ownerName": "8co", "score": 93064.8769574944, "slug": "opentangl", "source": "clawhub", "stars": 2, "tags": null, "updated_at": 1776748484121, "version": "0.1.10"}]}