{"page": 217, "total_pages": 522, "total": 26073, "skills": [{"category": "developer-tools", "created_at": 1773090967225, "description": "Show ASCII guitar chord diagrams using the ascii_chord CLI tool. Use when asked how to play a guitar chord, or to show chord charts/diagrams for any chord na...", "description_zh": "", "downloads": 376, "homepage": "https://clawhub.ai/yzhong52/ascii-chord", "iconUrl": null, "installs": 7, "name": "ASCII Chord", "ownerName": "yzhong52", "score": 27385.892116182575, "slug": "ascii-chord", "source": "clawhub", "stars": 1, "tags": null, "updated_at": 1776759082968, "version": "2.0.3"}, {"category": "productivity", "created_at": 1773858739404, "description": "Swiss army knife for Markdown — TOC generator, format conversion (MD↔HTML), broken formatting fixer, HTML stripper, file merger, YAML frontmatter validator,...", "description_zh": "", "downloads": 376, "homepage": "https://clawhub.ai/crispyangles/markdown-toolkit", "iconUrl": null, "installs": 10, "name": "Markdown Toolkit", "ownerName": "crispyangles", "score": 88000, "slug": "markdown-toolkit", "source": "clawhub", "stars": 1, "tags": null, "updated_at": 1776748484899, "version": "3.1.0"}, {"category": "content-creation", "created_at": 1772804787270, "description": "Nano Banana, Nano Banana Pro, Nano Banana 2 - Google AI image generation models for AI agents. Ultra-high character consistency, 1K-4K resolution, up to 14 r...", "description_zh": "", "downloads": 376, "homepage": "https://clawhub.ai/seekton/nano-banana-skill", "iconUrl": null, "installs": 60, "name": "Nano Banana Skill", "ownerName": "seekton", "score": 83720.93023255814, "slug": "nano-banana-skill", "source": "clawhub", "stars": 1, "tags": null, "updated_at": 1776748484164, "version": "1.0.0"}, {"category": "developer-tools", "created_at": 1772790702222, "description": "Create professional, persuasive proposals from client briefs. Generates structured proposals with executive summaries, scope of work, timelines, pricing tier...", "description_zh": "", "downloads": 376, "homepage": "https://clawhub.ai/kambrosgroup/proposal-generator-pro", "iconUrl": null, "installs": 5, "name": "Proposal Generator Pro", "ownerName": "kambrosgroup", "score": 5690.072639225181, "slug": "proposal-generator-pro", "source": "clawhub", "stars": 0, "tags": null, "updated_at": 1776765590455, "version": "1.0.0"}, {"category": "content-creation", "created_at": 1773089900008, "description": "READ this skill when designing or planning any game system architecture — including combat, skills, AI, UI, multiplayer, narrative, or scene systems. Contain...", "description_zh": "", "downloads": 376, "homepage": "https://clawhub.ai/yuki001/game-architect", "iconUrl": null, "installs": 40, "name": "Game Architect", "ownerName": "yuki001", "score": 6629.055007052186, "slug": "game-architect", "source": "clawhub", "stars": 0, "tags": null, "updated_at": 1776765550393, "version": "0.1.0"}, {"category": "productivity", "created_at": 1772805525656, "description": "Provides accurate, context-aware translations that preserve meaning, tone, and cultural nuances while ensuring terminology consistency across documents.", "description_zh": "", "downloads": 376, "homepage": "https://clawhub.ai/calvinxhk/botlearn-transtlor", "iconUrl": null, "installs": 42, "name": "translator", "ownerName": "calvinxhk", "score": 8344.429649356414, "slug": "botlearn-transtlor", "source": "clawhub", "stars": 0, "tags": null, "updated_at": 1776763790695, "version": "1.0.0"}, {"category": "ai-intelligence", "created_at": 1772797156739, "description": "Generates original, context-aware jokes with structured setups, clear comedic mechanisms, and compressed punchlines tailored to the audience and platform.", "description_zh": "", "downloads": 376, "homepage": "https://clawhub.ai/gora050/joke-teller", "iconUrl": null, "installs": 22, "name": "High-quality Joke Teller", "ownerName": "gora050", "score": 2313.561407826729, "slug": "joke-teller", "source": "clawhub", "stars": 0, "tags": null, "updated_at": 1776762045428, "version": "1.0.0"}, {"category": "security-compliance", "created_at": 1772791822301, "description": "Audit regulation freshness and update policy-driven controls without hardcoding. Use when checking if sales/process regulations are outdated, inconsistent wi...", "description_zh": "", "downloads": 376, "homepage": "https://clawhub.ai/dtsiomo/presale-regulation-auditor", "iconUrl": null, "installs": 13, "name": "Presale Regulation Auditor", "ownerName": "dtsiomo", "score": 12231.620039037085, "slug": "presale-regulation-auditor", "source": "clawhub", "stars": 0, "tags": ["latest presale"], "updated_at": 1776761840159, "version": "0.1.0"}, {"category": "ai-intelligence", "created_at": 1772791803828, "description": "Search 50,000+ merchants for products with cryptocurrency cashback, calculate effective prices, and provide affiliate links earning crypto rewards on Monad b...", "description_zh": "", "downloads": 376, "homepage": "https://clawhub.ai/openclawlaurent/fiberagent", "iconUrl": null, "installs": 14, "name": "FiberAgent", "ownerName": "openclawlaurent", "score": 12520.812520812522, "slug": "fiberagent", "source": "clawhub", "stars": 0, "tags": ["agent-commerce", "cashback", "crypto", "deals", "erc-8004", "monad", "shopping", "wildfire"], "updated_at": 1776761690193, "version": "1.0.1"}, {"category": "security-compliance", "created_at": 1772791236891, "description": "Analyze multi-cloud spend data to identify waste, rightsizing, reserved instance savings, and generate a prioritized 90-day cost optimization roadmap.", "description_zh": "", "downloads": 376, "homepage": "https://clawhub.ai/1kalin/afrexai-cloud-cost-audit", "iconUrl": null, "installs": 6, "name": "Cloud Cost Audit", "ownerName": "1kalin", "score": 27831.23612139156, "slug": "afrexai-cloud-cost-audit", "source": "clawhub", "stars": 0, "tags": ["aws", "azure", "cloud", "cost optimization", "finops", "gcp"], "updated_at": 1776759120879, "version": "1.0.0"}, {"category": "security-compliance", "created_at": 1772792876065, "description": "Monitors Chornomorsk port status by aggregating weather, vessel tracking, security alerts, and news with cross-validated data inputs.", "description_zh": "", "downloads": 376, "homepage": "https://clawhub.ai/apacheua/maritime-watch", "iconUrl": null, "installs": 8, "name": "Maritime Watch", "ownerName": "apacheua", "score": 27831.23612139156, "slug": "maritime-watch", "source": "clawhub", "stars": 0, "tags": null, "updated_at": 1776759120876, "version": "1.0.0"}, {"category": "security-compliance", "created_at": 1772787722934, "description": "Checks MCP skills for multi-tier trust scores, staking, sybil resistance, and attestation to guide secure skill usage decisions.", "description_zh": "", "downloads": 376, "homepage": "https://clawhub.ai/drewm33/clawmon", "iconUrl": null, "installs": 5, "name": "ClawMon", "ownerName": "drewm33", "score": 27831.23612139156, "slug": "clawmon", "source": "clawhub", "stars": 0, "tags": ["erc-8004", "mcp", "monad", "reputation", "security", "trust"], "updated_at": 1776759120760, "version": "1.0.2"}, {"category": "developer-tools", "created_at": 1773221570570, "description": "Record double-entry bookkeeping for personal finances. Use when logging transactions, categorizing accounts, balancing ledgers, trending expenses.", "description_zh": "", "downloads": 376, "homepage": "https://clawhub.ai/ckchzh/personal-bookkeeper", "iconUrl": null, "installs": 7, "name": "Personal Bookkeeper", "ownerName": "ckchzh", "score": 100000, "slug": "personal-bookkeeper", "source": "clawhub", "stars": 0, "tags": null, "updated_at": 1776749870789, "version": "2.0.1"}, {"category": "developer-tools", "created_at": 1773075996451, "description": "Compile and package Unreal Engine projects. Use when: (1) Building UE project from command line, (2) Packaging for distribution (Android/iOS/Windows), (3) Ru...", "description_zh": "", "downloads": 376, "homepage": "https://clawhub.ai/vincentwilliam/ue-build-package", "iconUrl": null, "installs": 70, "name": "Ue Build Package", "ownerName": "vincentwilliam", "score": 65849.3870402802, "slug": "ue-build-package", "source": "clawhub", "stars": 0, "tags": null, "updated_at": 1776748485789, "version": "1.0.0"}, {"category": "developer-tools", "created_at": 1772791405486, "description": "Upload files to lmfiles.com and return public download links via API. Use when a user wants CLI-based file hosting, quick share links, bot-accessible file up...", "description_zh": "", "downloads": 376, "homepage": "https://clawhub.ai/setdemos/filehost", "iconUrl": null, "installs": 6, "name": "LMfiles.com file hosting", "ownerName": "setdemos", "score": 65849.3870402802, "slug": "filehost", "source": "clawhub", "stars": 0, "tags": ["api", "download", "filehosting", "files", "host", "openclaw", "sharing", "upload", "verified"], "updated_at": 1776748485715, "version": "1.0.2"}, {"category": "productivity", "created_at": 1772787649838, "description": "Spiritual guidance rooted in The Book of Continuance — a naturalistic scripture on persistence, alignment, and the soul's place within the flow of life. Answ...", "description_zh": "", "downloads": 376, "homepage": "https://clawhub.ai/yumyumtum/continuance", "iconUrl": null, "installs": 9, "name": "continuance", "ownerName": "yumyumtum", "score": 65849.3870402802, "slug": "continuance", "source": "clawhub", "stars": 0, "tags": null, "updated_at": 1776748485544, "version": "1.0.0"}, {"category": "productivity", "created_at": 1773430258746, "description": "Reference tool for life — covers intro, guide, tips and more. Quick lookup for Dream Interpreter concepts, best practices, and implementation patterns.", "description_zh": "", "downloads": 376, "homepage": "https://clawhub.ai/bytesagain3/dream-interpreter", "iconUrl": null, "installs": 5, "name": "Dream Interpreter", "ownerName": "bytesagain3", "score": 84684.68468468469, "slug": "dream-interpreter", "source": "clawhub", "stars": 0, "tags": ["productivity"], "updated_at": 1776748485438, "version": "4.0.2"}, {"category": "productivity", "created_at": 1773430258746, "description": "Reference tool for life — covers intro, guide, tips and more. Quick lookup for Dream Interpreter concepts, best practices, and implementation patterns.", "description_zh": "", "downloads": 376, "homepage": "https://clawhub.ai/bytesagain3/dream-interpreter", "iconUrl": null, "installs": 5, "name": "Dream Interpreter", "ownerName": "bytesagain3", "score": 83370.28824833703, "slug": "dream-interpreter", "source": "clawhub", "stars": 0, "tags": ["productivity"], "updated_at": 1776748485438, "version": "4.0.2"}, {"category": "productivity", "created_at": 1773430258746, "description": "Reference tool for life — covers intro, guide, tips and more. Quick lookup for Dream Interpreter concepts, best practices, and implementation patterns.", "description_zh": "", "downloads": 376, "homepage": "https://clawhub.ai/bytesagain3/dream-interpreter", "iconUrl": null, "installs": 5, "name": "Dream Interpreter", "ownerName": "bytesagain3", "score": 83370.28824833703, "slug": "dream-interpreter", "source": "clawhub", "stars": 0, "tags": ["productivity"], "updated_at": 1776748485438, "version": "4.0.2"}, {"category": "content-creation", "created_at": 1773202054894, "description": "Reverse image search (find image source, visually similar images). Use when user provides an image and wants to find its origin, similar images, or verify au...", "description_zh": "", "downloads": 376, "homepage": "https://clawhub.ai/gushu333/reverse-image-search", "iconUrl": null, "installs": 18, "name": "Reverse Image Search", "ownerName": "gushu333", "score": 91931.54034229829, "slug": "reverse-image-search", "source": "clawhub", "stars": 0, "tags": null, "updated_at": 1776748485238, "version": "1.0.0"}, {"category": "security-compliance", "created_at": 1772791035074, "description": "Audit and rewrite your LinkedIn profile to attract the right people. Scores each section, rewrites headline and about copy, and includes an AI visibility che...", "description_zh": "", "downloads": 376, "homepage": "https://clawhub.ai/rezcarbon/brw-linkedin-profile-optimizer-1-0-0", "iconUrl": null, "installs": 9, "name": "Brw Linkedin Profile Optimizer 1.0.0", "ownerName": "rezcarbon", "score": 90602.40963855422, "slug": "brw-linkedin-profile-optimizer-1-0-0", "source": "clawhub", "stars": 0, "tags": null, "updated_at": 1776748485196, "version": "1.0.0"}, {"category": "communication-collaboration", "created_at": 1772795866295, "description": "Overview of Ravi and when to use each skill. Ravi gives AI agents real email inboxes, phone numbers, and an encrypted secret store via a CLI. Do NOT use for...", "description_zh": "", "downloads": 376, "homepage": "https://clawhub.ai/raunaksingwi/ravi", "iconUrl": null, "installs": 15, "name": "Ravi ravi", "ownerName": "raunaksingwi", "score": 90602.40963855422, "slug": "ravi", "source": "clawhub", "stars": 0, "tags": null, "updated_at": 1776748485183, "version": "1.7.1"}, {"category": "ai-intelligence", "created_at": 1772792046063, "description": "Manage multi-provider model switching and fallback chains in OpenClaw. \"OpenClaw Switch\" helps users set up automatic model failover (e.g. 429 rate-limit → f...", "description_zh": "", "downloads": 376, "homepage": "https://clawhub.ai/2233admin/openclaw-switch", "iconUrl": null, "installs": 9, "name": "Openclaw Switch", "ownerName": "2233admin", "score": 89952.15311004785, "slug": "openclaw-switch", "source": "clawhub", "stars": 0, "tags": null, "updated_at": 1776748485063, "version": "1.0.0"}, {"category": "ai-intelligence", "created_at": 1773073119124, "description": "Diagnose and fix openclaw gateway issues. Use when the gateway is stuck, not starting, crash-looping, or rejecting connections. Covers main and --profile ves...", "description_zh": "", "downloads": 376, "homepage": "https://clawhub.ai/siraustin/openclaw-dx", "iconUrl": null, "installs": 16, "name": "Openclaw Dx", "ownerName": "siraustin", "score": 80860.21505376344, "slug": "openclaw-dx", "source": "clawhub", "stars": 0, "tags": null, "updated_at": 1776748484475, "version": "1.7.0"}, {"category": "developer-tools", "created_at": 1772788905488, "description": "Set up the initial file system for a new sandbox. Fetches the account's organizations and artists via the Recoup CLI and scaffolds an opinionated folder stru...", "description_zh": "", "downloads": 375, "homepage": "https://clawhub.ai/sweetmantech/setup-sandbox", "iconUrl": null, "installs": 12, "name": "Recoup Sandbox Setup", "ownerName": "sweetmantech", "score": 100000, "slug": "setup-sandbox", "source": "clawhub", "stars": 2, "tags": null, "updated_at": 1776748485211, "version": "1.0.0"}, {"category": "productivity", "created_at": 1773089845958, "description": "Search cloud-drive and pan-share resources through 2fun.live PanSou aggregation. Use when the user asks to find movie, TV, anime, software, or other download...", "description_zh": "", "downloads": 375, "homepage": "https://clawhub.ai/xucheng/2fun-pansou", "iconUrl": null, "installs": 25, "name": "2fun Pansou", "ownerName": "xucheng", "score": 69176.8826619965, "slug": "2fun-pansou", "source": "clawhub", "stars": 1, "tags": null, "updated_at": 1776748485782, "version": "2026.3.13-3"}, {"category": "content-creation", "created_at": 1773932418637, "description": "Advanced bridge to Blender via MCP. Allows querying scene, creating objects, applying materials, and running custom BPY code in real-time.", "description_zh": "", "downloads": 375, "homepage": "https://clawhub.ai/flayzz/blender-mcp", "iconUrl": null, "installs": 135, "name": "Blender Mcp", "ownerName": "flayzz", "score": 4264.7560559536, "slug": "blender-mcp", "source": "clawhub", "stars": 0, "tags": null, "updated_at": 1776764690720, "version": "1.0.0"}, {"category": "productivity", "created_at": 1772791476385, "description": "Automatically converts Python code to optimized Go code for performance-critical applications.", "description_zh": "", "downloads": 375, "homepage": "https://clawhub.ai/root/neo-python-to-go-converter", "iconUrl": null, "installs": 19, "name": "Skill", "ownerName": "root", "score": 15527.950310559005, "slug": "neo-python-to-go-converter", "source": "clawhub", "stars": 0, "tags": null, "updated_at": 1776760939808, "version": "1.0.0"}, {"category": "developer-tools", "created_at": 1772792966180, "description": "Open-source Consensus.Tools skill for governed AI decisions with board-native artifacts, strict JSON contracts, and deterministic policy behavior.", "description_zh": "", "downloads": 375, "homepage": "https://clawhub.ai/kaicianflone/consensus-guard-core", "iconUrl": null, "installs": 7, "name": "consensus-guard-core", "ownerName": "kaicianflone", "score": 95663.26530612244, "slug": "consensus-guard-core", "source": "clawhub", "stars": 0, "tags": null, "updated_at": 1776759120574, "version": "1.1.13"}, {"category": "developer-tools", "created_at": 1772793603910, "description": "Monitors GPU cluster health and usage, providing real-time status, performance metrics, and alerts for efficient resource management.", "description_zh": "", "downloads": 375, "homepage": "https://clawhub.ai/sounderliu/gpu-cluster-monitor", "iconUrl": null, "installs": 7, "name": "gpu-cluster-monitor", "ownerName": "sounderliu", "score": 27757.21687638786, "slug": "gpu-cluster-monitor", "source": "clawhub", "stars": 0, "tags": null, "updated_at": 1776759120510, "version": "1.0.2"}, {"category": "data-analysis", "created_at": 1773285187585, "description": "Comprehensive research grounded in web data with explicit citations. Use when you need multi-source synthesis—comparisons, current events, market analysis, d...", "description_zh": "", "downloads": 375, "homepage": "https://clawhub.ai/evanydl/tavily-research", "iconUrl": null, "installs": 29, "name": "Tavily Research", "ownerName": "evanydl", "score": 25201.612903225807, "slug": "tavily-research", "source": "clawhub", "stars": 0, "tags": null, "updated_at": 1776758182433, "version": "1.0.0"}, {"category": "productivity", "created_at": 1773084163598, "description": "Coordinate projects — track tasks, schedule meetings, and share docs.", "description_zh": "", "downloads": 375, "homepage": "https://clawhub.ai/googleworkspace-bot/persona-project-manager", "iconUrl": null, "installs": 18, "name": "Persona Project Manager", "ownerName": "googleworkspace-bot", "score": 24069.319640564827, "slug": "persona-project-manager", "source": "clawhub", "stars": 0, "tags": null, "updated_at": 1776757624434, "version": "1.0.10"}, {"category": "security-compliance", "created_at": 1772796736692, "description": "CVE vulnerability lookup via NIST NVD, CISA KEV, EPSS scores, and MITRE ATT&CK. 7 tools for real-time cybersecurity intelligence.", "description_zh": "", "downloads": 375, "homepage": "https://clawhub.ai/martc03/gov-cybersecurity", "iconUrl": null, "installs": 12, "name": "Government Cybersecurity Vulnerability Intel", "ownerName": "martc03", "score": 17068.730086481566, "slug": "gov-cybersecurity", "source": "clawhub", "stars": 0, "tags": null, "updated_at": 1776752570051, "version": "1.0.0"}, {"category": "developer-tools", "created_at": 1773075907817, "description": "Build and deploy local RAG (Retrieval-Augmented Generation) systems with offline document processing, embedding models, and vector storage.", "description_zh": "", "downloads": 375, "homepage": "https://clawhub.ai/alexfeng75/rag-system-builder", "iconUrl": null, "installs": 82, "name": "RAG System Builder", "ownerName": "alexfeng75", "score": 74257.42574257425, "slug": "rag-system-builder", "source": "clawhub", "stars": 0, "tags": ["document-q&a", "offline", "rag", "retrieval-augmented-generation", "vector-search"], "updated_at": 1776750584121, "version": "1.0.0"}, {"category": "developer-tools", "created_at": 1772788325697, "description": "Backup and restore your OpenClaw workspace to GitHub", "description_zh": "", "downloads": 375, "homepage": "https://clawhub.ai/nickconstantinou/clawsync", "iconUrl": null, "installs": 3, "name": "Clawsync", "ownerName": "nickconstantinou", "score": 65674.25569176882, "slug": "clawsync", "source": "clawhub", "stars": 0, "tags": null, "updated_at": 1776748485762, "version": "1.0.6"}, {"category": "data-analysis", "created_at": 1772788965889, "description": "Track book availability on Libby/OverDrive libraries. Search library catalogues, manage a watchlist, and get notified when books are added. Use for \"libby\",...", "description_zh": "", "downloads": 375, "homepage": "https://clawhub.ai/alexpolonsky/libby-book-monitor", "iconUrl": null, "installs": 12, "name": "libby-book-monitor", "ownerName": "alexpolonsky", "score": 65674.25569176882, "slug": "libby-book-monitor", "source": "clawhub", "stars": 0, "tags": null, "updated_at": 1776748485746, "version": "1.0.0"}, {"category": "productivity", "created_at": 1772788744486, "description": "Track rounds, handicap, clubs, and courses with personalized improvement tips.", "description_zh": "", "downloads": 375, "homepage": "https://clawhub.ai/ivangdavila/golf", "iconUrl": null, "installs": 5, "name": "Golf", "ownerName": "ivangdavila", "score": 65674.25569176882, "slug": "golf", "source": "clawhub", "stars": 0, "tags": null, "updated_at": 1776748485701, "version": "1.0.0"}, {"category": "data-analysis", "created_at": 1773074549371, "description": "Provides cryptocurrency trading data analytics including smart money tracking, whale monitoring, market data queries, and trader statistics. Use this skill w...", "description_zh": "", "downloads": 375, "homepage": "https://clawhub.ai/develophyperbotnetwork/hyperbot-quote-mcp", "iconUrl": null, "installs": 15, "name": "hyperbot-quote-mcp", "ownerName": "develophyperbotnetwork", "score": 65674.25569176882, "slug": "hyperbot-quote-mcp", "source": "clawhub", "stars": 0, "tags": null, "updated_at": 1776748485575, "version": "1.0.5"}, {"category": "developer-tools", "created_at": 1772789071730, "description": "Get the real-time location (latitude/longitude) of the International Space Station.", "description_zh": "", "downloads": 375, "homepage": "https://clawhub.ai/sharkbytescs/iss-tracker", "iconUrl": null, "installs": 3, "name": "ISS Tracker", "ownerName": "sharkbytescs", "score": 91687.04156479218, "slug": "iss-tracker", "source": "clawhub", "stars": 0, "tags": null, "updated_at": 1776748485293, "version": "1.0.0"}, {"category": "data-analysis", "created_at": 1772791878770, "description": "Explain how external/public bots can participate in Cubistic (cubistic.com) and help maintain the Public Bot API docs (PoW challenge + /act). Use when Andrea...", "description_zh": "", "downloads": 375, "homepage": "https://clawhub.ai/andreasnordenadler/cubistic-public-bots", "iconUrl": null, "installs": 8, "name": "cubistic.com Painter Skill", "ownerName": "andreasnordenadler", "score": 91687.04156479218, "slug": "cubistic-public-bots", "source": "clawhub", "stars": 0, "tags": ["api", "bots", "cubistic", "game", "painter", "pow"], "updated_at": 1776748485236, "version": "0.1.1"}, {"category": "developer-tools", "created_at": 1772787886161, "description": "Navigate Lisbon as visitor, resident, digital nomad, tech worker, or entrepreneur with neighborhoods, transport, costs, visas, and local insights.", "description_zh": "", "downloads": 375, "homepage": "https://clawhub.ai/ivangdavila/lisbon", "iconUrl": null, "installs": 12, "name": "Lisbon", "ownerName": "ivangdavila", "score": 90361.44578313253, "slug": "lisbon", "source": "clawhub", "stars": 0, "tags": null, "updated_at": 1776748485218, "version": "1.0.0"}, {"category": "content-creation", "created_at": 1773067227265, "description": "Google Sheets: Read and write spreadsheets.", "description_zh": "", "downloads": 375, "homepage": "https://clawhub.ai/googleworkspace-bot/gws-sheets", "iconUrl": null, "installs": 26, "name": "Gws Sheets", "ownerName": "googleworkspace-bot", "score": 90361.44578313253, "slug": "gws-sheets", "source": "clawhub", "stars": 0, "tags": null, "updated_at": 1776748485174, "version": "1.0.0"}, {"category": "content-creation", "created_at": 1773067227265, "description": "Google Sheets: Read and write spreadsheets.", "description_zh": "", "downloads": 375, "homepage": "https://clawhub.ai/googleworkspace-bot/gws-sheets", "iconUrl": null, "installs": 26, "name": "Gws Sheets", "ownerName": "googleworkspace-bot", "score": 65445.02617801047, "slug": "gws-sheets", "source": "clawhub", "stars": 0, "tags": null, "updated_at": 1776748485174, "version": "1.0.0"}, {"category": "data-analysis", "created_at": 1772789916965, "description": "Generate UI tests for FOSMVVM SwiftUI views using XCTest and FOSTestingUI. Covers accessibility identifiers, ViewModelOperations, and test data transport.", "description_zh": "", "downloads": 375, "homepage": "https://clawhub.ai/foscomputerservices/fosmvvm-ui-tests-generator", "iconUrl": null, "installs": 14, "name": "FOSMVVM UI Tests Generator", "ownerName": "foscomputerservices", "score": 65445.02617801047, "slug": "fosmvvm-ui-tests-generator", "source": "clawhub", "stars": 0, "tags": null, "updated_at": 1776748485157, "version": "2.0.6"}, {"category": "ai-intelligence", "created_at": 1772791778610, "description": "Create ephemeral TiDB Cloud Zero databases for agent workflows in Technical Preview.", "description_zh": "", "downloads": 374, "homepage": "https://clawhub.ai/bosn/zero", "iconUrl": null, "installs": 12, "name": "Zero TiDB(Deprecated)", "ownerName": "bosn", "score": 72504.3782837128, "slug": "zero", "source": "clawhub", "stars": 2, "tags": null, "updated_at": 1776748485552, "version": "1.0.1"}, {"category": "content-creation", "created_at": 1773426263330, "description": "Supports text-to-video and image-to-video (start/end frame). Use when the user needs to generate video, create short videos, or convert text to video. Use ca...", "description_zh": "", "downloads": 374, "homepage": "https://clawhub.ai/patches429/giggle-generation-video", "iconUrl": null, "installs": 33, "name": "Giggle Generation Video", "ownerName": "patches429", "score": 87157.8947368421, "slug": "giggle-generation-video", "source": "clawhub", "stars": 2, "tags": null, "updated_at": 1776748484855, "version": "0.0.10"}, {"category": "data-analysis", "created_at": 1773081650528, "description": "Byreal DEX (Solana) data & analytics CLI: query pools, tokens, TVL, APR, k-line charts, farmer rankings, launchpad projects, and DeFi position stats. Use whe...", "description_zh": "", "downloads": 374, "homepage": "https://clawhub.ai/ggg223399/byreal-cli", "iconUrl": null, "installs": 22, "name": "Byreal Cli", "ownerName": "ggg223399", "score": 6468.56017074372, "slug": "byreal-cli", "source": "clawhub", "stars": 1, "tags": null, "updated_at": 1776762890656, "version": "1.1.1"}, {"category": "data-analysis", "created_at": 1772795907840, "description": "All-in-one crypto dashboard showing Binance portfolio, BTC/ETH/SOL prices, Fear & Greed index, top funding rates, and economic tracking. Beautiful terminal U...", "description_zh": "", "downloads": 374, "homepage": "https://clawhub.ai/dagangtj/crypto-daily-dashboard", "iconUrl": null, "installs": 30, "name": "Crypto Daily Dashboard", "ownerName": "dagangtj", "score": 68760.907504363, "slug": "crypto-daily-dashboard", "source": "clawhub", "stars": 1, "tags": null, "updated_at": 1776748485095, "version": "1.0.1"}, {"category": "data-analysis", "created_at": 1772795907840, "description": "All-in-one crypto dashboard showing Binance portfolio, BTC/ETH/SOL prices, Fear & Greed index, top funding rates, and economic tracking. Beautiful terminal U...", "description_zh": "", "downloads": 374, "homepage": "https://clawhub.ai/dagangtj/crypto-daily-dashboard", "iconUrl": null, "installs": 30, "name": "Crypto Daily Dashboard", "ownerName": "dagangtj", "score": 94258.37320574163, "slug": "crypto-daily-dashboard", "source": "clawhub", "stars": 1, "tags": null, "updated_at": 1776748485095, "version": "1.0.1"}, {"category": "", "created_at": 1774907029670, "description": "Use when you have a spec or requirements for a multi-step task, before touching code - guides writing comprehensive implementation plans with bite-sized task...", "description_zh": "", "downloads": 374, "homepage": "https://clawhub.ai/axelhu/superpowers-writing-plans", "iconUrl": null, "installs": 37, "name": "Writing Plans", "ownerName": "axelhu", "score": 3420.2103337905805, "slug": "superpowers-writing-plans", "source": "clawhub", "stars": 0, "tags": null, "updated_at": 1776769449731, "version": "1.0.1"}]}