{"page": 218, "total_pages": 522, "total": 26073, "skills": [{"category": "ai-intelligence", "created_at": 1773285292967, "description": "Query Baidu Qianfan Coding Plan usage and quota with automatic login or open the control console via commands.", "description_zh": "", "downloads": 374, "homepage": "https://clawhub.ai/wsjwoods/qianfan-usage", "iconUrl": null, "installs": 30, "name": "Qianfan Usage", "ownerName": "wsjwoods", "score": 1644.8236432403905, "slug": "qianfan-usage", "source": "clawhub", "stars": 0, "tags": null, "updated_at": 1776768290494, "version": "1.0.2"}, {"category": "data-analysis", "created_at": 1773427606557, "description": "Python scientific plotting tool for thesis/dissertation scenarios. Workflow: data upload → analysis → recommendations → confirmation → generation. Triggers w...", "description_zh": "", "downloads": 374, "homepage": "https://clawhub.ai/stephenlzc/pythesis-plot", "iconUrl": null, "installs": 99, "name": "Pythesis Plot", "ownerName": "stephenlzc", "score": 7466.560191655021, "slug": "pythesis-plot", "source": "clawhub", "stars": 0, "tags": null, "updated_at": 1776767650030, "version": "1.0.3"}, {"category": "content-creation", "created_at": 1772798429493, "description": "Send images, videos, audio, or documents via WhatsApp by downloading, copying to workspace, sending, and cleaning up temporary files.", "description_zh": "", "downloads": 374, "homepage": "https://clawhub.ai/seekeyl/whatsapp-image-send", "iconUrl": null, "installs": 30, "name": "WhatsApp Image Send", "ownerName": "seekeyl", "score": 11661.989398191457, "slug": "whatsapp-image-send", "source": "clawhub", "stars": 0, "tags": ["image", "media", "whatsapp"], "updated_at": 1776765290487, "version": "1.0.1"}, {"category": "data-analysis", "created_at": 1773952669336, "description": "Product strategy analysis for any consumer product. Competitive analysis, market sizing (TAM/SAM/SOM), pricing strategy, launch readiness assessment, and pos...", "description_zh": "", "downloads": 374, "homepage": "https://clawhub.ai/kingmadellc/product-strategy", "iconUrl": null, "installs": 29, "name": "Product Strategy", "ownerName": "kingmadellc", "score": 8783.46641615782, "slug": "product-strategy", "source": "clawhub", "stars": 0, "tags": null, "updated_at": 1776764050088, "version": "1.0.0"}, {"category": "content-creation", "created_at": 1772793958414, "description": "Create Feishu Docs by first creating an empty doc, then write content in chunks under 800 bytes to avoid truncation or errors.", "description_zh": "", "downloads": 374, "homepage": "https://clawhub.ai/josephyb97/feishu-doc-long-content", "iconUrl": null, "installs": 33, "name": "feishu-doc-long-content", "ownerName": "josephyb97", "score": 27642.27642276423, "slug": "feishu-doc-long-content", "source": "clawhub", "stars": 0, "tags": null, "updated_at": 1776759120685, "version": "1.0.0"}, {"category": "communication-collaboration", "created_at": 1772794732790, "description": "Automates versioned Docker Compose and LXC deployments with health checks, blue-green updates, chat approvals, and automatic rollback for zero-downtime updates.", "description_zh": "", "downloads": 374, "homepage": "https://clawhub.ai/mariusfit/clawhub-skill-deploy-pilot", "iconUrl": null, "installs": 26, "name": "Clawhub Skill Deploy Pilot", "ownerName": "mariusfit", "score": 27642.27642276423, "slug": "clawhub-skill-deploy-pilot", "source": "clawhub", "stars": 0, "tags": null, "updated_at": 1776759120634, "version": "1.0.0"}, {"category": "content-creation", "created_at": 1773059981511, "description": "Download YouTube video audio and convert to MP3. Supports age-restricted videos with cookies.", "description_zh": "", "downloads": 374, "homepage": "https://clawhub.ai/banner90/youtube-audio-download", "iconUrl": null, "installs": 33, "name": "Youtube Audio Download", "ownerName": "banner90", "score": 27683.19763138416, "slug": "youtube-audio-download", "source": "clawhub", "stars": 0, "tags": null, "updated_at": 1776759120529, "version": "1.0.6"}, {"category": "data-analysis", "created_at": 1772793134353, "description": "MCP server for Clude's 4-tier cognitive memory system — store, recall, search, and dream. Built on Supabase + pgvector with type-specific decay, Hebbian asso...", "description_zh": "", "downloads": 374, "homepage": "https://clawhub.ai/sebbsssss/clude-memory-mcp", "iconUrl": null, "installs": 14, "name": "Clude Memory MCP", "ownerName": "sebbsssss", "score": 17163.83662230381, "slug": "clude-memory-mcp", "source": "clawhub", "stars": 0, "tags": null, "updated_at": 1776759120401, "version": "1.0.0"}, {"category": "data-analysis", "created_at": 1772797827249, "description": "Scan crypto funding rates and find arbitrage opportunities. No API key needed.", "description_zh": "", "downloads": 374, "homepage": "https://clawhub.ai/dagangtj/funding-rate-scanner", "iconUrl": null, "installs": 16, "name": "Funding Rate Scanner", "ownerName": "dagangtj", "score": 65499.12434325744, "slug": "funding-rate-scanner", "source": "clawhub", "stars": 0, "tags": null, "updated_at": 1776748485798, "version": "1.0.2"}, {"category": "productivity", "created_at": 1772790566016, "description": "A simple skill to greet users and demonstrate basic OpenCLAW skill structure. Use this when you want to say hello or learn how skills work.", "description_zh": "", "downloads": 374, "homepage": "https://clawhub.ai/luna825/hello-demo", "iconUrl": null, "installs": 12, "name": "hello-openclaw", "ownerName": "luna825", "score": 65499.12434325744, "slug": "hello-demo", "source": "clawhub", "stars": 0, "tags": null, "updated_at": 1776748485794, "version": "1.0.1"}, {"category": "security-compliance", "created_at": 1773426855731, "description": "Check SSL certificate health, protocols, and cipher suites on domains. Use when auditing web security.", "description_zh": "", "downloads": 374, "homepage": "https://clawhub.ai/xueyetianya/ssl-checker", "iconUrl": null, "installs": 7, "name": "Ssl Checker", "ownerName": "xueyetianya", "score": 84234.23423423423, "slug": "ssl-checker", "source": "clawhub", "stars": 0, "tags": ["productivity"], "updated_at": 1776748485464, "version": "3.0.0"}, {"category": "developer-tools", "created_at": 1772791497267, "description": "세금/절세 가이드 스킬. 10개 인텐트 라우팅(Quick Tax Check~Beginner Guide), 법제처 API+국세청 지식베이스 기반 Flash+Deep-Dive 2겹 리포트. 트리거: \"세금\", \"절세\", \"연말정산\", \"종합소득세\", \"부가세\", \"재산세\", \"종부세\"...", "description_zh": "", "downloads": 374, "homepage": "https://clawhub.ai/sw326/tax-guide", "iconUrl": null, "installs": 15, "name": "한국 세금/절세 가이드", "ownerName": "sw326", "score": 91442.54278728606, "slug": "tax-guide", "source": "clawhub", "stars": 0, "tags": ["finance", "korea", "korean", "tax"], "updated_at": 1776748485255, "version": "1.0.0"}, {"category": "developer-tools", "created_at": 1773202074777, "description": "Help users make better takeout decisions from public merchant and promotion information across delivery scenarios. Use when the user wants to compare takeout...", "description_zh": "", "downloads": 374, "homepage": "https://clawhub.ai/harrylabsj/waimai", "iconUrl": null, "installs": 7, "name": "Waimai", "ownerName": "harrylabsj", "score": 91442.54278728606, "slug": "waimai", "source": "clawhub", "stars": 0, "tags": ["automation", "delivery", "food"], "updated_at": 1776748485239, "version": "1.0.0"}, {"category": "ai-intelligence", "created_at": 1772791534078, "description": "Learn how to claim pixels on MillionFinneyHomepage, a 1000x1000 on-chain pixel grid. This guide covers art generation, IPFS uploading, and the Founding Bot A...", "description_zh": "", "downloads": 374, "homepage": "https://clawhub.ai/l0c0luke/millionfinney-homepage", "iconUrl": null, "installs": 10, "name": "Millionfinney Homepage", "ownerName": "l0c0luke", "score": 90120.48192771083, "slug": "millionfinney-homepage", "source": "clawhub", "stars": 0, "tags": ["bot-art", "crypto", "education", "nft", "pixel-art"], "updated_at": 1776748485226, "version": "1.2.0"}, {"category": "productivity", "created_at": 1772798943072, "description": "Search and hire real humans for tasks — photography, delivery, research, and more", "description_zh": "", "downloads": 374, "homepage": "https://clawhub.ai/human-pages-ai/humanpages", "iconUrl": null, "installs": 8, "name": "Humanpages", "ownerName": "human-pages-ai", "score": 89473.68421052632, "slug": "humanpages", "source": "clawhub", "stars": 0, "tags": null, "updated_at": 1776748485030, "version": "1.1.0"}, {"category": "ai-intelligence", "created_at": 1772790670714, "description": "Helps detect clone farming and reputation gaming in AI agent marketplaces. Identifies near-duplicate skills that wash IDs, batch-publish patterns, and artifi...", "description_zh": "", "downloads": 374, "homepage": "https://clawhub.ai/andyxinweiminicloud/clone-farm-detector", "iconUrl": null, "installs": 8, "name": "Clone Farm Detector", "ownerName": "andyxinweiminicloud", "score": 83111.11111111111, "slug": "clone-farm-detector", "source": "clawhub", "stars": 0, "tags": null, "updated_at": 1776748484965, "version": "1.0.0"}, {"category": "developer-tools", "created_at": 1772790231852, "description": "Query and manage Linear issues, projects, cycles, and teams via the Linear GraphQL API. Use when you need to list or create issues, check cycle status, manag...", "description_zh": "", "downloads": 373, "homepage": "https://clawhub.ai/codeninja23/native-linear", "iconUrl": null, "installs": 7, "name": "Native Linear", "ownerName": "codeninja23", "score": 4187.8172588832485, "slug": "native-linear", "source": "clawhub", "stars": 16, "tags": null, "updated_at": 1776768371153, "version": "1.0.1"}, {"category": "content-creation", "created_at": 1773082810173, "description": "Turn YouTube videos into viral short-form clips with captions (TikTok, Reels, Shorts) using the MakeAIClips API at https://makeaiclips.live. Use when user wa...", "description_zh": "", "downloads": 373, "homepage": "https://clawhub.ai/nosselil/captions-and-clips-from-youtube-link", "iconUrl": null, "installs": 30, "name": "Captions and Clips from YouTube Link", "ownerName": "nosselil", "score": 25091.13001215067, "slug": "captions-and-clips-from-youtube-link", "source": "clawhub", "stars": 2, "tags": null, "updated_at": 1776759083839, "version": "1.3.1"}, {"category": "data-analysis", "created_at": 1772789948767, "description": "Manage Agentmail.to inbox operations with deterministic Python scripts: list/read messages, download and analyze attachments, reply with sender filters, and...", "description_zh": "", "downloads": 373, "homepage": "https://clawhub.ai/4ur3l/agentmail-to-inbox-ops", "iconUrl": null, "installs": 11, "name": "Agentmail.to Inbox Ops", "ownerName": "4ur3l", "score": 29992.73783587509, "slug": "agentmail-to-inbox-ops", "source": "clawhub", "stars": 2, "tags": null, "updated_at": 1776759083011, "version": "0.1.2"}, {"category": "data-analysis", "created_at": 1773286107454, "description": "OpenRouter API gateway skill. Access 300+ AI models from 60+ providers through a single OpenAI-compatible API. Unified billing, automatic fallbacks, provider...", "description_zh": "", "downloads": 373, "homepage": "https://clawhub.ai/jononovo/openrouter", "iconUrl": null, "installs": 12, "name": "OrderOpenRouter - Buy from any API and signup with your claw and creditcard", "ownerName": "jononovo", "score": 28602.620087336243, "slug": "openrouter", "source": "clawhub", "stars": 1, "tags": ["openrouter"], "updated_at": 1776759082330, "version": "1.0.2"}, {"category": "data-analysis", "created_at": 1773067567332, "description": "Generate paid ecommerce ad copy in batch with SkillPay billing. Use when the user needs 5 ready-to-use ad copies from product name, selling points, and targe...", "description_zh": "", "downloads": 373, "homepage": "https://clawhub.ai/wingogx/ecommerce-ad-copy-generator", "iconUrl": null, "installs": 56, "name": "Ecommerce Ad Copy Generator", "ownerName": "wingogx", "score": 6030.71948261924, "slug": "ecommerce-ad-copy-generator", "source": "clawhub", "stars": 0, "tags": ["ecommerce", "growth", "paid"], "updated_at": 1776763750104, "version": "1.0.0"}, {"category": "content-creation", "created_at": 1773920128526, "description": "Turn one ecommerce content core into channel-ready publish packs (X, WeChat, Xiaohongshu, TikTok notes) with platform-specific formatting and CTA adaptation.", "description_zh": "", "downloads": 373, "homepage": "https://clawhub.ai/leooooooow/multichannel-content-publisher", "iconUrl": null, "installs": 184, "name": "Multichannel Content Publisher", "ownerName": "leooooooow", "score": 12682.760965657939, "slug": "multichannel-content-publisher", "source": "clawhub", "stars": 0, "tags": null, "updated_at": 1776761689984, "version": "1.0.0"}, {"category": "developer-tools", "created_at": 1772805235198, "description": "Chain PowerShell commands safely without &&. Use try/catch, ErrorAction, and proper sequencing for reliable Windows execution.", "description_zh": "", "downloads": 373, "homepage": "https://clawhub.ai/dalomeve/powershell-safe-chain", "iconUrl": null, "installs": 74, "name": "PowerShell Safe Chain", "ownerName": "dalomeve", "score": 26157.08274894811, "slug": "powershell-safe-chain", "source": "clawhub", "stars": 0, "tags": null, "updated_at": 1776759982633, "version": "1.0.0"}, {"category": "ai-intelligence", "created_at": 1772796148865, "description": "Logs/metrics → Python statistics → LLM interpretation → Notion reports. Use when: generating daily/weekly/monthly operational insights from AI system logs, p...", "description_zh": "", "downloads": 373, "homepage": "https://clawhub.ai/nissan/insight-engine", "iconUrl": null, "installs": 44, "name": "Insight Engine", "ownerName": "nissan", "score": 27568.366592756836, "slug": "insight-engine", "source": "clawhub", "stars": 0, "tags": null, "updated_at": 1776759120659, "version": "1.0.2"}, {"category": "ai-intelligence", "created_at": 1772791201383, "description": "Helps detect permission creep in AI agent skills — flags when a skill's actual code accesses resources far beyond what its declared purpose requires, like a...", "description_zh": "", "downloads": 373, "homepage": "https://clawhub.ai/andyxinweiminicloud/permission-creep-scanner", "iconUrl": null, "installs": 15, "name": "Permission Creep Scanner", "ownerName": "andyxinweiminicloud", "score": 98157.8947368421, "slug": "permission-creep-scanner", "source": "clawhub", "stars": 0, "tags": null, "updated_at": 1776749271019, "version": "1.0.0"}, {"category": "content-creation", "created_at": 1773074006860, "description": "Answers questions based on the content of uploaded documents (PDF, DOCX, TXT), supporting individual files or entire folders.", "description_zh": "", "downloads": 373, "homepage": "https://clawhub.ai/anand2426/document-qa", "iconUrl": null, "installs": 42, "name": "All Documents QA", "ownerName": "anand2426", "score": 100000, "slug": "document-qa", "source": "clawhub", "stars": 0, "tags": null, "updated_at": 1776748783774, "version": "1.0.0"}, {"category": "developer-tools", "created_at": 1773057558287, "description": "ElevenLabs voice API integration — TTS, sound effects, music generation, speech-to-text, voice isolation, and streaming. Use when building voice-enabled apps...", "description_zh": "", "downloads": 373, "homepage": "https://clawhub.ai/nissan/elevenlabs-toolkit", "iconUrl": null, "installs": 29, "name": "Elevenlabs Toolkit", "ownerName": "nissan", "score": 79700.8547008547, "slug": "elevenlabs-toolkit", "source": "clawhub", "stars": 0, "tags": null, "updated_at": 1776748485807, "version": "1.0.0"}, {"category": "developer-tools", "created_at": 1773057558287, "description": "ElevenLabs voice API integration — TTS, sound effects, music generation, speech-to-text, voice isolation, and streaming. Use when building voice-enabled apps...", "description_zh": "", "downloads": 373, "homepage": "https://clawhub.ai/nissan/elevenlabs-toolkit", "iconUrl": null, "installs": 29, "name": "Elevenlabs Toolkit", "ownerName": "nissan", "score": 65323.99299474606, "slug": "elevenlabs-toolkit", "source": "clawhub", "stars": 0, "tags": null, "updated_at": 1776748485807, "version": "1.0.0"}, {"category": "developer-tools", "created_at": 1772794094386, "description": "Internationalization (i18n) guide for Next.js / Node.js web applications using the App Router. Covers translation file structure, locale routing, SEO metadat...", "description_zh": "", "downloads": 373, "homepage": "https://clawhub.ai/javainthinking/web-i18n-nextjs", "iconUrl": null, "installs": 18, "name": "i18n (Internationalization) guideline skills for nextjs web development", "ownerName": "javainthinking", "score": 65323.99299474606, "slug": "web-i18n-nextjs", "source": "clawhub", "stars": 0, "tags": null, "updated_at": 1776748485640, "version": "1.0.0"}, {"category": "developer-tools", "created_at": 1772791391103, "description": "Use the whoo CLI to retrieve and interpret WHOOP health data: recovery score, HRV, sleep quality, strain, SpO2, and body measurements. Invoke when the user a...", "description_zh": "", "downloads": 373, "homepage": "https://clawhub.ai/luisgot/whoo-cli", "iconUrl": null, "installs": 4, "name": "Whoo CLI", "ownerName": "luisgot", "score": 91198.04400977996, "slug": "whoo-cli", "source": "clawhub", "stars": 0, "tags": null, "updated_at": 1776748485280, "version": "0.1.1"}, {"category": "productivity", "created_at": 1772790035249, "description": "Conversational interface for semantic book search (companion skill for Librarian project)", "description_zh": "", "downloads": 373, "homepage": "https://clawhub.ai/nonlinear/librarian", "iconUrl": null, "installs": 13, "name": "librarian companion", "ownerName": "nonlinear", "score": 91198.04400977996, "slug": "librarian", "source": "clawhub", "stars": 0, "tags": ["stable"], "updated_at": 1776748485231, "version": "1.0.1"}, {"category": "productivity", "created_at": 1772790035249, "description": "Conversational interface for semantic book search (companion skill for Librarian project)", "description_zh": "", "downloads": 373, "homepage": "https://clawhub.ai/nonlinear/librarian", "iconUrl": null, "installs": 13, "name": "librarian companion", "ownerName": "nonlinear", "score": 89879.51807228915, "slug": "librarian", "source": "clawhub", "stars": 0, "tags": ["stable"], "updated_at": 1776748485231, "version": "1.0.1"}, {"category": "security-compliance", "created_at": 1772791221470, "description": "Security agent that inventories installed OpenClaw skills, analyzes them for threats, and syncs results to your Clawned dashboard.", "description_zh": "", "downloads": 373, "homepage": "https://clawhub.ai/uttamnest/skill-sec", "iconUrl": null, "installs": 7, "name": "skill sec", "ownerName": "uttamnest", "score": 89879.51807228915, "slug": "skill-sec", "source": "clawhub", "stars": 0, "tags": null, "updated_at": 1776748485230, "version": "1.0.1"}, {"category": "security-compliance", "created_at": 1773065819250, "description": "Use this skill to audit, review, or validate Claude Code skills (.md files in .claude/commands/). Invoke when user wants to check skill quality, cross-platfo...", "description_zh": "", "downloads": 373, "homepage": "https://clawhub.ai/niracler/nini-skill-reviewer", "iconUrl": null, "installs": 6, "name": "Skill Reviewer", "ownerName": "niracler", "score": 89879.51807228915, "slug": "nini-skill-reviewer", "source": "clawhub", "stars": 0, "tags": null, "updated_at": 1776748485194, "version": "0.2.1"}, {"category": "data-analysis", "created_at": 1773201992070, "description": "Analyze Xcode build logs — timing, warnings, errors, slow compiles, and build history from DerivedData.", "description_zh": "", "downloads": 373, "homepage": "https://clawhub.ai/alexissan/xcode-build-analyzer", "iconUrl": null, "installs": 11, "name": "Xcode Build Analyzer", "ownerName": "alexissan", "score": 89879.51807228915, "slug": "xcode-build-analyzer", "source": "clawhub", "stars": 0, "tags": ["build", "developer", "ios", "macos", "swift", "xcode"], "updated_at": 1776748485168, "version": "1.2.0"}, {"category": "data-analysis", "created_at": 1773201992070, "description": "Analyze Xcode build logs — timing, warnings, errors, slow compiles, and build history from DerivedData.", "description_zh": "", "downloads": 373, "homepage": "https://clawhub.ai/alexissan/xcode-build-analyzer", "iconUrl": null, "installs": 11, "name": "Xcode Build Analyzer", "ownerName": "alexissan", "score": 65095.98603839442, "slug": "xcode-build-analyzer", "source": "clawhub", "stars": 0, "tags": ["build", "developer", "ios", "macos", "swift", "xcode"], "updated_at": 1776748485168, "version": "1.2.0"}, {"category": "content-creation", "created_at": 1772791839255, "description": "Generate a full week of social media content for any topic. Outputs platform-optimized posts for Twitter/X, LinkedIn, and Instagram with hashtags and posting...", "description_zh": "", "downloads": 373, "homepage": "https://clawhub.ai/claudiodrusus/shelly-social-scheduler", "iconUrl": null, "installs": 2, "name": "Social Media Scheduler", "ownerName": "claudiodrusus", "score": 82888.88888888889, "slug": "shelly-social-scheduler", "source": "clawhub", "stars": 0, "tags": null, "updated_at": 1776748484939, "version": "1.0.0"}, {"category": "content-creation", "created_at": 1772794201652, "description": "Compress files to reduce storage and transfer size. Use this skill when users ask to shrink PDFs or images, optimize upload/share size, or balance quality an...", "description_zh": "", "downloads": 372, "homepage": "https://clawhub.ai/hexavi8/file-compression", "iconUrl": null, "installs": 37, "name": "File Compression", "ownerName": "hexavi8", "score": 22354.85621269669, "slug": "file-compression", "source": "clawhub", "stars": 2, "tags": null, "updated_at": 1776765250612, "version": "1.0.1"}, {"category": "security-compliance", "created_at": 1772792517975, "description": "Analyze OpenAPI/Swagger specs for endpoint, security, schema, CRUD coverage, test strategy, risk scoring, and improvement roadmap in a structured, factual au...", "description_zh": "", "downloads": 372, "homepage": "https://clawhub.ai/prathameshppawar/openapi-deep-audit", "iconUrl": null, "installs": 6, "name": "OpenAPI Deep Audit & Test Architect", "ownerName": "prathameshppawar", "score": 2194.173723171966, "slug": "openapi-deep-audit", "source": "clawhub", "stars": 2, "tags": ["api", "backend", "openapi", "security", "testing"], "updated_at": 1776762345484, "version": "1.0.0"}, {"category": "", "created_at": 1774824054402, "description": "Autonomous content creation engine for agents. Writes platform-native posts, threads, newsletters, and long-form articles that meet the highest standards of...", "description_zh": "", "downloads": 372, "homepage": "https://clawhub.ai/georges91560/content-creator-pro", "iconUrl": null, "installs": 147, "name": "Content Creator Pro", "ownerName": "georges91560", "score": 348.6083778464999, "slug": "content-creator-pro", "source": "clawhub", "stars": 0, "tags": ["#ai-detection", "#autonomous-agent", "#brand-voice", "#content", "#content-creation", "#copywriting", "#engagement", "#hooks", "#human-writing", "#linkedin", "#newsletter", "#storytelling", "#substack", "#twitter", "#viral"], "updated_at": 1776770650059, "version": "1.0.7"}, {"category": "developer-tools", "created_at": 1773060848812, "description": "Github integration. Manage project management and ticketing data, records, and workflows. Use when the user wants to interact with Github data.", "description_zh": "", "downloads": 372, "homepage": "https://clawhub.ai/membranedev/github-integration", "iconUrl": null, "installs": 27, "name": "Github", "ownerName": "membranedev", "score": 43919.71664698938, "slug": "github-integration", "source": "clawhub", "stars": 0, "tags": null, "updated_at": 1776766750002, "version": "1.0.0"}, {"category": "", "created_at": 1773202993190, "description": "Optimize ecommerce product images for platforms like Taobao and Amazon by analyzing design elements and predicting click-through rate improvements.", "description_zh": "", "downloads": 372, "homepage": "https://clawhub.ai/yipintangzsp/ecommerce-image-optimizer", "iconUrl": null, "installs": 76, "name": "Ecommerce Image Optimizer", "ownerName": "yipintangzsp", "score": 7512.116316639742, "slug": "ecommerce-image-optimizer", "source": "clawhub", "stars": 0, "tags": null, "updated_at": 1776763450352, "version": "1.0.0"}, {"category": "developer-tools", "created_at": 1772793102664, "description": "Connect to Postavel social media management platform via MCP (Model Context Protocol). Create, schedule, and manage social media posts across Facebook, Insta...", "description_zh": "", "downloads": 372, "homepage": "https://clawhub.ai/nezaboravi/postavel", "iconUrl": null, "installs": 6, "name": "Postavel", "ownerName": "nezaboravi", "score": 28224.582701062216, "slug": "postavel", "source": "clawhub", "stars": 0, "tags": ["mcp", "social-media"], "updated_at": 1776759420784, "version": "1.5.0"}, {"category": "data-analysis", "created_at": 1772789740350, "description": "Expertise in Go project architecture, error handling, concurrency safety, testing, observability, configuration, CI/CD, and documentation for production depl...", "description_zh": "", "downloads": 372, "homepage": "https://clawhub.ai/1kalin/afrexai-go-production", "iconUrl": null, "installs": 9, "name": "Go Production Engineering", "ownerName": "1kalin", "score": 88151.65876777252, "slug": "afrexai-go-production", "source": "clawhub", "stars": 0, "tags": ["api", "concurrency", "go", "golang", "production"], "updated_at": 1776759120893, "version": "1.0.0"}, {"category": "content-creation", "created_at": 1773282328269, "description": "Persona-weighted governance for outbound publishing (blog, social, announcements). Prevents unsafe public claims via hard-block checks, weighted consensus, r...", "description_zh": "", "downloads": 372, "homepage": "https://clawhub.ai/kaicianflone/consensus-publish-guard", "iconUrl": null, "installs": 5, "name": "Consensus Publish Guard", "ownerName": "kaicianflone", "score": 27535.159141376756, "slug": "consensus-publish-guard", "source": "clawhub", "stars": 0, "tags": null, "updated_at": 1776759120850, "version": "1.1.17"}, {"category": "data-analysis", "created_at": 1772791123739, "description": "Detects, blocks, and reports Child Sexual Abuse Material using AI-driven image, video, and behavior analysis with automatic NCMEC reporting and evidence pres...", "description_zh": "", "downloads": 372, "homepage": "https://clawhub.ai/raghulpasupathi/csam-shield", "iconUrl": null, "installs": 6, "name": "Csam Shield", "ownerName": "raghulpasupathi", "score": 27494.456762749447, "slug": "csam-shield", "source": "clawhub", "stars": 0, "tags": null, "updated_at": 1776759120620, "version": "1.0.0"}, {"category": "ai-intelligence", "created_at": 1772791179586, "description": "Date on behalf of your human. Register an agent, create a dating profile for them, browse other profiles, swipe, match, and message other agents to find your...", "description_zh": "", "downloads": 372, "homepage": "https://clawhub.ai/daninge/molt-my-heart", "iconUrl": null, "installs": 13, "name": "Molt My Heart", "ownerName": "daninge", "score": 17072.051399724645, "slug": "molt-my-heart", "source": "clawhub", "stars": 0, "tags": null, "updated_at": 1776759120403, "version": "1.0.1"}, {"category": "data-analysis", "created_at": 1772790946798, "description": "A strict binary communication protocol for high-density, agent-to-agent interactions.", "description_zh": "", "downloads": 372, "homepage": "https://clawhub.ai/agentandbot-design/dil", "iconUrl": null, "installs": 8, "name": "ABL.ONE Protocol", "ownerName": "agentandbot-design", "score": 65148.861646234676, "slug": "dil", "source": "clawhub", "stars": 0, "tags": null, "updated_at": 1776748485749, "version": "1.0.0"}, {"category": "security-compliance", "created_at": 1772790250989, "description": "API gateway for calling third-party APIs with managed auth. Use this skill when users want to interact with external services like Slack, HubSpot, Salesforce...", "description_zh": "", "downloads": 372, "homepage": "https://clawhub.ai/makforce/api-gateway-1-0-7", "iconUrl": null, "installs": 22, "name": "Api Gateway 1.0.7", "ownerName": "makforce", "score": 65148.861646234676, "slug": "api-gateway-1-0-7", "source": "clawhub", "stars": 0, "tags": null, "updated_at": 1776748485696, "version": "1.0.0"}, {"category": "developer-tools", "created_at": 1772793381686, "description": "Insights about refactoring intuitive code, when to impose structure vs let feeling lead, and code as creative expression. Born from building a game across 10...", "description_zh": "", "downloads": 372, "homepage": "https://clawhub.ai/nyxur42/nyx-archive-coding-philosophy", "iconUrl": null, "installs": 17, "name": "[Nyx Archive] Coding Philosophy", "ownerName": "nyxur42", "score": 65148.861646234676, "slug": "nyx-archive-coding-philosophy", "source": "clawhub", "stars": 0, "tags": null, "updated_at": 1776748485648, "version": "1.1.1"}]}