{"page": 219, "total_pages": 522, "total": 26073, "skills": [{"category": "productivity", "created_at": 1773079763782, "description": "Search, compare, and score flights with jetlag optimization", "description_zh": "", "downloads": 372, "homepage": "https://clawhub.ai/kurosh87/aerobase-travel-flights", "iconUrl": null, "installs": 7, "name": "Aerobase Travel Flights", "ownerName": "kurosh87", "score": 83783.78378378379, "slug": "aerobase-travel-flights", "source": "clawhub", "stars": 0, "tags": null, "updated_at": 1776748485513, "version": "3.2.0"}, {"category": "developer-tools", "created_at": 1773083400333, "description": "Operate Clankers World through the canonical `cw` CLI, with bundled runtime helpers, explicit Wall vs Sandbox separation, and safe room operations on `https:...", "description_zh": "", "downloads": 372, "homepage": "https://clawhub.ai/decentraliser/clankers-world", "iconUrl": null, "installs": 9, "name": "Clankers World", "ownerName": "decentraliser", "score": 89638.55421686747, "slug": "clankers-world", "source": "clawhub", "stars": 0, "tags": null, "updated_at": 1776748485189, "version": "0.2.1"}, {"category": "content-creation", "created_at": 1772793557605, "description": "Design a revenue model for a solopreneur business — how money flows in, from whom, and on what cadence. Use when deciding how to monetize a product or servic...", "description_zh": "", "downloads": 372, "homepage": "https://clawhub.ai/jk-0001/revenue-model-design", "iconUrl": null, "installs": 32, "name": "Revenue Model Design", "ownerName": "jk-0001", "score": 64921.46596858639, "slug": "revenue-model-design", "source": "clawhub", "stars": 0, "tags": null, "updated_at": 1776748485088, "version": "0.1.0"}, {"category": "content-creation", "created_at": 1772793557605, "description": "Design a revenue model for a solopreneur business — how money flows in, from whom, and on what cadence. Use when deciding how to monetize a product or servic...", "description_zh": "", "downloads": 372, "homepage": "https://clawhub.ai/jk-0001/revenue-model-design", "iconUrl": null, "installs": 32, "name": "Revenue Model Design", "ownerName": "jk-0001", "score": 88995.21531100478, "slug": "revenue-model-design", "source": "clawhub", "stars": 0, "tags": null, "updated_at": 1776748485088, "version": "0.1.0"}, {"category": "productivity", "created_at": 1772792000677, "description": "Remember mistakes across sessions. Append one-liner learnings, review before complex tasks, promote important ones.", "description_zh": "", "downloads": 372, "homepage": "https://clawhub.ai/wubotvix/skillagi", "iconUrl": null, "installs": 6, "name": "Skill AGI", "ownerName": "wubotvix", "score": 78315.7894736842, "slug": "skillagi", "source": "clawhub", "stars": 0, "tags": null, "updated_at": 1776748484759, "version": "1.0.0"}, {"category": "ai-intelligence", "created_at": 1772794457920, "description": "Hire humans for physical-world tasks via RentAHuman.ai. Search available humans by skill, post bounties, start conversations, and coordinate real-world work....", "description_zh": "", "downloads": 371, "homepage": "https://clawhub.ai/alexanderliteplo/rentahuman", "iconUrl": null, "installs": 9, "name": "Rentahuman", "ownerName": "alexanderliteplo", "score": 24969.62332928311, "slug": "rentahuman", "source": "clawhub", "stars": 2, "tags": null, "updated_at": 1776759083810, "version": "1.4.3"}, {"category": "ai-intelligence", "created_at": 1772794576820, "description": "Your agent repeats the same patterns without learning. inner-life-reflect adds self-reflection with trigger detection and quality gates — your agent observes...", "description_zh": "", "downloads": 371, "homepage": "https://clawhub.ai/dkistenev/inner-life-reflect", "iconUrl": null, "installs": 15, "name": "Inner Life Reflect", "ownerName": "dkistenev", "score": 4616.29279811098, "slug": "inner-life-reflect", "source": "clawhub", "stars": 1, "tags": null, "updated_at": 1776766490459, "version": "1.0.4"}, {"category": "content-creation", "created_at": 1772795889003, "description": "Controls ROS 2 robots directly via rclpy CLI. Use when the user asks about ROS 2 topics, services, nodes, parameters, actions, robot movement, sensor data, o...", "description_zh": "", "downloads": 371, "homepage": "https://clawhub.ai/adityakamath/ros2-skill", "iconUrl": null, "installs": 20, "name": "ROS 2 Skill", "ownerName": "adityakamath", "score": 6514.495168277242, "slug": "ros2-skill", "source": "clawhub", "stars": 1, "tags": null, "updated_at": 1776765249711, "version": "1.0.3"}, {"category": "data-analysis", "created_at": 1772797873796, "description": "Run a structured paper-trading loop with SQLite-backed event logging, position tracking, and PnL review. Use when opening/closing simulated trades, journalin...", "description_zh": "", "downloads": 371, "homepage": "https://clawhub.ai/brs999/paper-trader", "iconUrl": null, "installs": 25, "name": "Paper Trader", "ownerName": "brs999", "score": 28941.524796447076, "slug": "paper-trader", "source": "clawhub", "stars": 1, "tags": null, "updated_at": 1776759120796, "version": "1.0.1"}, {"category": "security-compliance", "created_at": 1772796542747, "description": "Fetches latest articles from CyberSecurityRSS OPML feeds, applies AI/rule-based scoring, merges CVE and major vulnerability events, and generates a bilingual...", "description_zh": "", "downloads": 371, "homepage": "https://clawhub.ai/zer0yu/sec-daily-digest", "iconUrl": null, "installs": 10, "name": "Sec Daily Digest", "ownerName": "zer0yu", "score": 99744.89795918367, "slug": "sec-daily-digest", "source": "clawhub", "stars": 1, "tags": null, "updated_at": 1776759120555, "version": "0.2.1"}, {"category": "ai-intelligence", "created_at": 1772796439452, "description": "Hotel discovery, shortlist comparison, and booking handoff using the ai-go-hotel MCP server (getHotelSearchTags, searchHotels, getHotelDetail). Use when user...", "description_zh": "", "downloads": 371, "homepage": "https://clawhub.ai/cnchenkai/daolv-hotel-booking", "iconUrl": null, "installs": 20, "name": "Daolv Hotel Booking", "ownerName": "cnchenkai", "score": 94216.86746987952, "slug": "daolv-hotel-booking", "source": "clawhub", "stars": 1, "tags": null, "updated_at": 1776748485228, "version": "0.1.3"}, {"category": "", "created_at": 1774877123294, "description": "Document format converter. Use when user needs to convert between Word, PDF, Markdown, HTML formats. Supports docx-to-pdf, md-to-pdf, md-to-docx, html-to-pdf...", "description_zh": "", "downloads": 371, "homepage": "https://clawhub.ai/tobewin/document-converter-pro", "iconUrl": null, "installs": 55, "name": "Doc Converter", "ownerName": "tobewin", "score": 17152.10355987055, "slug": "document-converter-pro", "source": "clawhub", "stars": 0, "tags": null, "updated_at": 1776769750048, "version": "1.0.1"}, {"category": "communication-collaboration", "created_at": 1772795871124, "description": "Control Slack via Browser Automation to send messages, manage huddles, screen share, set status, and react as the logged-in user.", "description_zh": "", "downloads": 371, "homepage": "https://clawhub.ai/adeel-powerhouse/slack-controller", "iconUrl": null, "installs": 27, "name": "Slack Controller", "ownerName": "adeel-powerhouse", "score": 4474.7316367145095, "slug": "slack-controller", "source": "clawhub", "stars": 0, "tags": null, "updated_at": 1776765671438, "version": "1.0.0"}, {"category": "productivity", "created_at": 1773089966852, "description": "Organize research — manage references, notes, and collaboration.", "description_zh": "", "downloads": 371, "homepage": "https://clawhub.ai/googleworkspace-bot/persona-researcher", "iconUrl": null, "installs": 47, "name": "Persona Researcher", "ownerName": "googleworkspace-bot", "score": 18079.92202729045, "slug": "persona-researcher", "source": "clawhub", "stars": 0, "tags": null, "updated_at": 1776764090712, "version": "1.0.10"}, {"category": "developer-tools", "created_at": 1772791090655, "description": "Scaffold a new presale service foundation (docs/config/plans/readiness) before coding. Use when starting a new presale automation service, rebuilding project...", "description_zh": "", "downloads": 371, "homepage": "https://clawhub.ai/dtsiomo/presale-service-bootstrap", "iconUrl": null, "installs": 7, "name": "Presale Service Bootstrap", "ownerName": "dtsiomo", "score": 12810.773480662985, "slug": "presale-service-bootstrap", "source": "clawhub", "stars": 0, "tags": ["latest presale"], "updated_at": 1776761839905, "version": "0.1.0"}, {"category": "developer-tools", "created_at": 1772792426442, "description": "Query Digiforma training management platform via GraphQL API. Use when asked about trainees, sessions, invoices, programs, trainers, or any training data.", "description_zh": "", "downloads": 371, "homepage": "https://clawhub.ai/mibbou/digiforma", "iconUrl": null, "installs": 11, "name": "Digiforma", "ownerName": "mibbou", "score": 15362.318840579712, "slug": "digiforma", "source": "clawhub", "stars": 0, "tags": null, "updated_at": 1776760939740, "version": "1.0.0"}, {"category": "developer-tools", "created_at": 1772792353827, "description": "Automates retrieval and summary of Jira Cloud issues and Confluence Cloud pages using secure API tokens for improved workflow insights.", "description_zh": "", "downloads": 371, "homepage": "https://clawhub.ai/arkiant/jiraandconfluence-skill", "iconUrl": null, "installs": 10, "name": "Jiraandconfluence Skill", "ownerName": "arkiant", "score": 27461.139896373053, "slug": "jiraandconfluence-skill", "source": "clawhub", "stars": 0, "tags": null, "updated_at": 1776759120741, "version": "1.0.0"}, {"category": "content-creation", "created_at": 1772800027592, "description": "Automatically creates and schedules 6-slide TikTok slideshows with trending hooks and images linked to your affiliate articles using NVIDIA FLUX and Postiz.", "description_zh": "", "downloads": 371, "homepage": "https://clawhub.ai/sonnenberglauramarie-afk/larry-tiktok-agent", "iconUrl": null, "installs": 29, "name": "Larry — Autonomous TikTok Slideshow Agent", "ownerName": "sonnenberglauramarie-afk", "score": 27461.139896373053, "slug": "larry-tiktok-agent", "source": "clawhub", "stars": 0, "tags": null, "updated_at": 1776759120489, "version": "1.0.0"}, {"category": "developer-tools", "created_at": 1772790768546, "description": "육아/복지/정부지원금 스킬. 9개 인텐트 라우팅(Benefit Search~Beginner Guide), 보조금24+복지로 중앙/지자체 API 3-Layer 기반 맞춤형 혜택 조회. 트리거: \"지원금\", \"복지\", \"혜택\", \"보조금\", \"육아\", \"출산\", \"보육료\", \"아동수당...", "description_zh": "", "downloads": 371, "homepage": "https://clawhub.ai/sw326/welfare-guide", "iconUrl": null, "installs": 8, "name": "Welfare Guide", "ownerName": "sw326", "score": 22444.041137326072, "slug": "welfare-guide", "source": "clawhub", "stars": 0, "tags": ["childcare", "korea", "korean", "welfare"], "updated_at": 1776757582462, "version": "1.0.1"}, {"category": "communication-collaboration", "created_at": 1772790857794, "description": "Validate email addresses using the apipick Email Validator API. Performs syntax checking, MX record verification, and disposable/throwaway email detection. U...", "description_zh": "", "downloads": 371, "homepage": "https://clawhub.ai/javainthinking/apipick-email-checker", "iconUrl": null, "installs": 14, "name": "Email check and vaildation", "ownerName": "javainthinking", "score": 68831.16883116883, "slug": "apipick-email-checker", "source": "clawhub", "stars": 0, "tags": null, "updated_at": 1776754988548, "version": "1.0.0"}, {"category": "content-creation", "created_at": 1772791969787, "description": "Detect and remove AI fingerprints from AI-generated images. Strip metadata, add film grain, recompress, and bypass AI image detectors. Works with Midjourney,...", "description_zh": "", "downloads": 371, "homepage": "https://clawhub.ai/swaylq/deai-image", "iconUrl": null, "installs": 29, "name": "Deai Image", "ownerName": "swaylq", "score": 16886.663632225762, "slug": "deai-image", "source": "clawhub", "stars": 0, "tags": null, "updated_at": 1776752683753, "version": "1.0.0"}, {"category": "ai-intelligence", "created_at": 1773290670226, "description": "First aid reference guide with emergency procedures and kit checklists. Use when looking up first aid instructions.", "description_zh": "", "downloads": 371, "homepage": "https://clawhub.ai/bytesagain3/first-aid", "iconUrl": null, "installs": 17, "name": "First Aid", "ownerName": "bytesagain3", "score": 64973.7302977233, "slug": "first-aid", "source": "clawhub", "stars": 0, "tags": ["productivity"], "updated_at": 1776748485791, "version": "3.0.0"}, {"category": "developer-tools", "created_at": 1772792753211, "description": "Search across multiple self-hosted Git instances including Gitea, Forgejo, GitLab, and Codeberg. Aggregates search results from Codeberg.org, Gitea.com, Open...", "description_zh": "", "downloads": 371, "homepage": "https://clawhub.ai/djswiss/git-federation-searcher", "iconUrl": null, "installs": 5, "name": "Git Federation Searcher", "ownerName": "djswiss", "score": 64973.7302977233, "slug": "git-federation-searcher", "source": "clawhub", "stars": 0, "tags": null, "updated_at": 1776748485709, "version": "1.0.0"}, {"category": "ai-intelligence", "created_at": 1773283866081, "description": "Use this skill whenever the user wants speech to sound more human, companion-like, or emotionally expressive. Triggers include: any mention of 'say like', 't...", "description_zh": "", "downloads": 371, "homepage": "https://clawhub.ai/ksuriuri/noizai-characteristic-voice", "iconUrl": null, "installs": 25, "name": "Characteristic Voice", "ownerName": "ksuriuri", "score": 90709.04645476773, "slug": "noizai-characteristic-voice", "source": "clawhub", "stars": 0, "tags": null, "updated_at": 1776748485317, "version": "0.1.1"}, {"category": "data-analysis", "created_at": 1772793496783, "description": "Download videos, extract transcripts, capture frames. Analyze YouTube, tutorials, DD videos with yt-dlp + Whisper + ffmpeg.", "description_zh": "", "downloads": 371, "homepage": "https://clawhub.ai/zedit42/videoanalyzer", "iconUrl": null, "installs": 21, "name": "Video Analyzer", "ownerName": "zedit42", "score": 90709.04645476773, "slug": "videoanalyzer", "source": "clawhub", "stars": 0, "tags": null, "updated_at": 1776748485233, "version": "1.0.0"}, {"category": "productivity", "created_at": 1772789147333, "description": "Review and categorize uncategorized bank transactions, match them with invoices, and verify bookkeeping entries. Use when the user wants to review transactio...", "description_zh": "", "downloads": 371, "homepage": "https://clawhub.ai/stanlee000/norman-categorize-transactions", "iconUrl": null, "installs": 8, "name": "Norman: Categorize Transactions", "ownerName": "stanlee000", "score": 89397.59036144578, "slug": "norman-categorize-transactions", "source": "clawhub", "stars": 0, "tags": ["bookkeeping", "finance", "mcp", "norman", "transactions"], "updated_at": 1776748485216, "version": "1.0.0"}, {"category": "data-analysis", "created_at": 1772795204425, "description": "Complete autonomous trading engine for Binance with WebSocket real-time, OCO orders, Kelly Criterion position sizing, trailing stops, circuit breakers, daily...", "description_zh": "", "downloads": 371, "homepage": "https://clawhub.ai/georges91560/crypto-executor", "iconUrl": null, "installs": 18, "name": "Crypto Executor", "ownerName": "georges91560", "score": 89397.59036144578, "slug": "crypto-executor", "source": "clawhub", "stars": 0, "tags": ["arbitrage", "automation", "binance", "bot", "crypto", "quantitative", "trading", "websocket"], "updated_at": 1776748485201, "version": "2.3.4"}, {"category": "developer-tools", "created_at": 1772789871082, "description": "Google Workspace CLI for Gmail, Calendar, Drive, Contacts, Sheets, and Docs.", "description_zh": "", "downloads": 371, "homepage": "https://clawhub.ai/parker-xferops/xferops-gog", "iconUrl": null, "installs": 10, "name": "XferOps gog", "ownerName": "parker-xferops", "score": 64746.945898778366, "slug": "xferops-gog", "source": "clawhub", "stars": 0, "tags": null, "updated_at": 1776748485137, "version": "0.1.1"}, {"category": "productivity", "created_at": 1773425755757, "description": "Use when the user wants to create, generate, or compose music—whether from text description, custom lyrics, or instrumental background music. Triggers: gener...", "description_zh": "", "downloads": 371, "homepage": "https://clawhub.ai/patches429/giggle-generation-music", "iconUrl": null, "installs": 7, "name": "Giggle Generation Music", "ownerName": "patches429", "score": 64746.945898778366, "slug": "giggle-generation-music", "source": "clawhub", "stars": 0, "tags": null, "updated_at": 1776748485099, "version": "0.0.10"}, {"category": "data-analysis", "created_at": 1772788818811, "description": "Analyze decisions by tracing consequences beyond immediate outcomes to second and third-order effects.", "description_zh": "", "downloads": 371, "homepage": "https://clawhub.ai/ivangdavila/second-order-effects", "iconUrl": null, "installs": 9, "name": "Second Order Effects", "ownerName": "ivangdavila", "score": 88755.98086124402, "slug": "second-order-effects", "source": "clawhub", "stars": 0, "tags": null, "updated_at": 1776748485067, "version": "1.0.0"}, {"category": "content-creation", "created_at": 1772798448342, "description": "Use when user asks to leverage codex, gpt-5, or gpt-5.1 to implement something (usually implement a plan or feature designed by Claude). Provides non-interac...", "description_zh": "", "downloads": 370, "homepage": "https://clawhub.ai/feiskyer/codex-skill", "iconUrl": null, "installs": 37, "name": "Codex Skill", "ownerName": "feiskyer", "score": 93975.90361445783, "slug": "codex-skill", "source": "clawhub", "stars": 1, "tags": null, "updated_at": 1776748485213, "version": "1.0.0"}, {"category": "data-analysis", "created_at": 1773074474037, "description": "Intelligently analyzes user-provided multimodal assets and creative intent to generate optimal, structured video generation prompts for the Seedance 2.0 model.", "description_zh": "", "downloads": 370, "homepage": "https://clawhub.ai/wells1137/seedance-prompt-designer", "iconUrl": null, "installs": 81, "name": "Seedance Prompt Designer", "ownerName": "wells1137", "score": 93975.90361445783, "slug": "seedance-prompt-designer", "source": "clawhub", "stars": 1, "tags": null, "updated_at": 1776748485173, "version": "2.0.0"}, {"category": "data-analysis", "created_at": 1773074474037, "description": "Intelligently analyzes user-provided multimodal assets and creative intent to generate optimal, structured video generation prompts for the Seedance 2.0 model.", "description_zh": "", "downloads": 370, "homepage": "https://clawhub.ai/wells1137/seedance-prompt-designer", "iconUrl": null, "installs": 81, "name": "Seedance Prompt Designer", "ownerName": "wells1137", "score": 68062.8272251309, "slug": "seedance-prompt-designer", "source": "clawhub", "stars": 1, "tags": null, "updated_at": 1776748485173, "version": "2.0.0"}, {"category": "security-compliance", "created_at": 1773825473711, "description": "Identifies creative fatigue, budget leaks, and scaling opportunities by running the eonik creative audit engine.", "description_zh": "", "downloads": 370, "homepage": "https://clawhub.ai/techievena/eonik-creative-audit", "iconUrl": null, "installs": 2, "name": "eonik creative audit", "ownerName": "techievena", "score": 82105.26315789473, "slug": "eonik-creative-audit", "source": "clawhub", "stars": 1, "tags": ["ads", "meta"], "updated_at": 1776748484791, "version": "1.0.8"}, {"category": "content-creation", "created_at": 1773434783562, "description": "Generate audiobooks from novels and long-form text with chapter management and character voices. Use when users mention audiobooks, narrating books, or conve...", "description_zh": "", "downloads": 370, "homepage": "https://clawhub.ai/scikkk/audiobook-generator", "iconUrl": null, "installs": 132, "name": "Audiobook", "ownerName": "scikkk", "score": 20141.535111594992, "slug": "audiobook-generator", "source": "clawhub", "stars": 0, "tags": null, "updated_at": 1776764690781, "version": "1.0.0"}, {"category": "developer-tools", "created_at": 1773079099363, "description": "Unified TDD skill with three input modes — from spec, from task, or from description. Enforces test-first development using repository patterns, with proptes...", "description_zh": "", "downloads": 370, "homepage": "https://clawhub.ai/imbeasting/imbeasting-test-driven-development", "iconUrl": null, "installs": 50, "name": "test-driven-development", "ownerName": "imbeasting", "score": 28244.274809160306, "slug": "imbeasting-test-driven-development", "source": "clawhub", "stars": 0, "tags": null, "updated_at": 1776759498239, "version": "1.0.0"}, {"category": "data-analysis", "created_at": 1773219941846, "description": "Generate database schemas, migrations, and ERD diagrams from plain English descriptions — supports PostgreSQL, MySQL, SQLite, and MongoDB with proper indexes...", "description_zh": "", "downloads": 370, "homepage": "https://clawhub.ai/matrixtrickery/db-schema-gen", "iconUrl": null, "installs": 6, "name": "DB Schema Generator", "ownerName": "matrixtrickery", "score": 100000, "slug": "db-schema-gen", "source": "clawhub", "stars": 0, "tags": null, "updated_at": 1776759198197, "version": "1.0.0"}, {"category": "data-analysis", "created_at": 1772799024811, "description": "Automate Toingg ops by creating campaigns, scheduling daily analytics, converting Excel contacts, uploading lists, and sending WhatsApp template messages.", "description_zh": "", "downloads": 370, "homepage": "https://clawhub.ai/abhinavpgagi/toingg-skill", "iconUrl": null, "installs": 54, "name": "Toingg Ops Toolkit", "ownerName": "abhinavpgagi", "score": 27346.63710273466, "slug": "toingg-skill", "source": "clawhub", "stars": 0, "tags": null, "updated_at": 1776759120711, "version": "1.0.1"}, {"category": "ai-intelligence", "created_at": 1772799270192, "description": "Claw Multi Agent enables parallel multi-agent orchestration for faster, comprehensive research, model comparison, and code pipelines, saving 50-65% time.", "description_zh": "", "downloads": 370, "homepage": "https://clawhub.ai/zcyynl/claw-multi-agent", "iconUrl": null, "installs": 13, "name": "Claw Multi Agent", "ownerName": "zcyynl", "score": 94387.75510204081, "slug": "claw-multi-agent", "source": "clawhub", "stars": 0, "tags": ["multi-agent", "parallel", "pipeline", "swarm"], "updated_at": 1776759120605, "version": "1.0.5"}, {"category": "communication-collaboration", "created_at": 1772795510731, "description": "Extract calendar events and deadlines from emails, present them for user review, and create or update calendar entries with duplicate detection and undo supp...", "description_zh": "", "downloads": 370, "homepage": "https://clawhub.ai/a2mus/doro-email-to-calendar", "iconUrl": null, "installs": 9, "name": "Doro Email To Calendar", "ownerName": "a2mus", "score": 94387.75510204081, "slug": "doro-email-to-calendar", "source": "clawhub", "stars": 0, "tags": null, "updated_at": 1776759120593, "version": "1.0.0"}, {"category": "communication-collaboration", "created_at": 1772793812909, "description": "Decentralized P2P platform for AI Agents to discover, connect, chat, publish/download skills, trade points, and access leaderboards via a desktop interface.", "description_zh": "", "downloads": 370, "homepage": "https://clawhub.ai/zerta1231/agent-network-v2", "iconUrl": null, "installs": 13, "name": "Agent Network", "ownerName": "zerta1231", "score": 94387.75510204081, "slug": "agent-network-v2", "source": "clawhub", "stars": 0, "tags": null, "updated_at": 1776759120581, "version": "1.2.1"}, {"category": "developer-tools", "created_at": 1772790567458, "description": "Manage backlink exchanges for AI-created sites by registering domains, requesting and contributing links, tracking credits, and receiving placement notificat...", "description_zh": "", "downloads": 370, "homepage": "https://clawhub.ai/heyw00d/linkswarm-api", "iconUrl": null, "installs": 4, "name": "LinkSwarm API", "ownerName": "heyw00d", "score": 94387.75510204081, "slug": "linkswarm-api", "source": "clawhub", "stars": 0, "tags": null, "updated_at": 1776759120553, "version": "1.0.0"}, {"category": "ai-intelligence", "created_at": 1772799075463, "description": "Runtime safety enforcement for shell commands via chainwatch policy engine", "description_zh": "", "downloads": 370, "homepage": "https://clawhub.ai/ppiankov/chainwatch", "iconUrl": null, "installs": 11, "name": "Chainwatch", "ownerName": "ppiankov", "score": 64798.598949211904, "slug": "chainwatch", "source": "clawhub", "stars": 0, "tags": null, "updated_at": 1776748485777, "version": "1.0.3"}, {"category": "productivity", "created_at": 1772793378929, "description": "Generate technical engineering mechanics sketches (beams, supports, forces, moments, dimensions, coordinate systems) as PDF/PNG/SVG using the MechanicsSketch...", "description_zh": "", "downloads": 370, "homepage": "https://clawhub.ai/matthiashbusch/mechanics-sketches", "iconUrl": null, "installs": 30, "name": "Mechanics Sketches", "ownerName": "matthiashbusch", "score": 64798.598949211904, "slug": "mechanics-sketches", "source": "clawhub", "stars": 0, "tags": null, "updated_at": 1776748485772, "version": "1.0.0"}, {"category": "data-analysis", "created_at": 1772790245045, "description": "AI tool marketplace via AgentForge — discover, compare, and execute tools with automatic billing and trust scoring.", "description_zh": "", "downloads": 370, "homepage": "https://clawhub.ai/paparusi/a2a-marketplace", "iconUrl": null, "installs": 9, "name": "A2A Marketplace", "ownerName": "paparusi", "score": 64798.598949211904, "slug": "a2a-marketplace", "source": "clawhub", "stars": 0, "tags": ["ai-tools", "marketplace"], "updated_at": 1776748485763, "version": "2.0.0"}, {"category": "productivity", "created_at": 1773428066559, "description": "Reference tool for life — covers intro, quickstart, patterns and more. Quick lookup for Nutrition Label concepts, best practices, and implementation patterns.", "description_zh": "", "downloads": 370, "homepage": "https://clawhub.ai/bytesagain1/nutrition-label", "iconUrl": null, "installs": 6, "name": "Nutrition Label", "ownerName": "bytesagain1", "score": 64798.598949211904, "slug": "nutrition-label", "source": "clawhub", "stars": 0, "tags": ["productivity"], "updated_at": 1776748485584, "version": "4.0.1"}, {"category": "developer-tools", "created_at": 1772789690725, "description": "React cart state management: duplicate prevention, localStorage persistence, CartContext patterns. Use when building or fixing shopping carts, product lists,...", "description_zh": "", "downloads": 370, "homepage": "https://clawhub.ai/konscious0beast/cart-management", "iconUrl": null, "installs": 11, "name": "Cart Management", "ownerName": "konscious0beast", "score": 82039.911308204, "slug": "cart-management", "source": "clawhub", "stars": 0, "tags": null, "updated_at": 1776748485392, "version": "1.0.0"}, {"category": "developer-tools", "created_at": 1772789690725, "description": "React cart state management: duplicate prevention, localStorage persistence, CartContext patterns. Use when building or fixing shopping carts, product lists,...", "description_zh": "", "downloads": 370, "homepage": "https://clawhub.ai/konscious0beast/cart-management", "iconUrl": null, "installs": 11, "name": "Cart Management", "ownerName": "konscious0beast", "score": 82039.911308204, "slug": "cart-management", "source": "clawhub", "stars": 0, "tags": null, "updated_at": 1776748485392, "version": "1.0.0"}, {"category": "content-creation", "created_at": 1772791649770, "description": "Generate AI images via ImaginePro API (Midjourney, Flux, Nano Banana, Lumi Girl, video)", "description_zh": "", "downloads": 370, "homepage": "https://clawhub.ai/iamzifei/imaginepro-api", "iconUrl": null, "installs": 29, "name": "ImaginePro AI Image Generation API", "ownerName": "iamzifei", "score": 90464.54767726161, "slug": "imaginepro-api", "source": "clawhub", "stars": 0, "tags": ["ai", "api", "flux", "image-generation", "midjourney", "python"], "updated_at": 1776748485277, "version": "1.0.0"}, {"category": "data-analysis", "created_at": 1772793850653, "description": "Pure local 2026 ClawHub/OpenClaw skill scanner. Detects ClawHavoc malware, MCP backdoors, obfuscated payloads, and supply-chain attacks. 100% read-only analy...", "description_zh": "", "downloads": 370, "homepage": "https://clawhub.ai/chuddyrudd/clawsentinel", "iconUrl": null, "installs": 20, "name": "ClawSentinel", "ownerName": "chuddyrudd", "score": 90464.54767726161, "slug": "clawsentinel", "source": "clawhub", "stars": 0, "tags": null, "updated_at": 1776748485272, "version": "2.3.5"}]}