{"page": 22, "total_pages": 22, "total": 1089, "skills": [{"slug": "voltagent-voltagent-best-practices", "name": "voltagent/voltagent-best-practices", "description": "Architecture and usage patterns for agents, workflows, memory, and servers", "description_zh": "", "homepage": "https://officialskills.sh/voltagent/skills/voltagent-best-practices", "tags": ["Skills by VoltAgent"], "category": "Skills by VoltAgent", "ownerName": "", "sources": ["VoltAgent/awesome-agent-skills"], "score": 100, "downloads": 0, "stars": 0, "installs": 0, "version": "", "updated_at": 0}, {"slug": "voltagent-voltagent-core-reference", "name": "voltagent/voltagent-core-reference", "description": "Reference for the VoltAgent class options and lifecycle methods", "description_zh": "", "homepage": "https://officialskills.sh/voltagent/skills/voltagent-core-reference", "tags": ["Skills by VoltAgent"], "category": "Skills by VoltAgent", "ownerName": "", "sources": ["VoltAgent/awesome-agent-skills"], "score": 100, "downloads": 0, "stars": 0, "installs": 0, "version": "", "updated_at": 0}, {"slug": "voltagent-voltagent-docs-bundle", "name": "voltagent/voltagent-docs-bundle", "description": "Lookup embedded docs from @voltagent/core for version-matched documentation", "description_zh": "", "homepage": "https://officialskills.sh/voltagent/skills/voltagent-docs-bundle", "tags": ["Skills by VoltAgent"], "category": "Skills by VoltAgent", "ownerName": "", "sources": ["VoltAgent/awesome-agent-skills"], "score": 100, "downloads": 0, "stars": 0, "installs": 0, "version": "", "updated_at": 0}, {"slug": "vudovn-antigravity-kit", "name": "vudovn/antigravity-kit", "description": "AI Agent templates with Skills, Agents, and Workflows (33 skills, MIT).", "description_zh": "", "homepage": "https://github.com/vudovn/antigravity-kit", "tags": ["Community Contributors"], "category": "Community Contributors", "ownerName": "vudovn", "sources": ["sickn33/antigravity-awesome-skills"], "score": 100, "downloads": 0, "stars": 0, "installs": 0, "version": "", "updated_at": 0}, {"slug": "wanshuiyin-auto-claude-code-research-in-sleep", "name": "wanshuiyin/Auto-claude-code-research-in-sleep", "description": "Autonomous ML research with cross-model review loops and GPU deployment", "description_zh": "", "homepage": "https://github.com/wanshuiyin/Auto-claude-code-research-in-sleep", "tags": ["Community Skills"], "category": "Community Skills", "ownerName": "wanshuiyin", "sources": ["VoltAgent/awesome-agent-skills"], "score": 100, "downloads": 0, "stars": 0, "installs": 0, "version": "", "updated_at": 0}, {"slug": "warmskull-idea-darwin", "name": "warmskull/idea-darwin", "description": "Darwinian idea-evolution workflow for structured ideation rounds, mutation, crossbreeding, critique, and lineage tracking.", "description_zh": "", "homepage": "https://github.com/warmskull/idea-darwin", "tags": ["Community Contributors"], "category": "Community Contributors", "ownerName": "warmskull", "sources": ["sickn33/antigravity-awesome-skills"], "score": 100, "downloads": 0, "stars": 0, "installs": 0, "version": "", "updated_at": 0}, {"slug": "webapp-testing", "name": "Webapp Testing", "description": "Tests local web applications using Playwright for verifying frontend functionality, debugging UI behavior, and capturing screenshots.", "description_zh": "", "homepage": "./webapp-testing", "tags": ["Development & Code Tools"], "category": "Development & Code Tools", "ownerName": "", "sources": ["ComposioHQ/awesome-claude-skills"], "score": 100, "downloads": 0, "stars": 0, "installs": 0, "version": "", "updated_at": 0}, {"slug": "webflow-automation", "name": "Webflow Automation", "description": "Automate Webflow: CMS collections, items, sites, publishing, and assets.", "description_zh": "", "homepage": "./webflow-automation", "tags": ["App Automation via Composio"], "category": "App Automation via Composio", "ownerName": "", "sources": ["ComposioHQ/awesome-claude-skills"], "score": 100, "downloads": 0, "stars": 0, "installs": 0, "version": "", "updated_at": 0}, {"slug": "webzler-agentmemory", "name": "webzler/agentMemory", "description": "Source for the agent-memory-mcp skill.", "description_zh": "", "homepage": "https://github.com/webzler/agentMemory", "tags": ["Community Contributors"], "category": "Community Contributors", "ownerName": "webzler", "sources": ["sickn33/antigravity-awesome-skills"], "score": 100, "downloads": 0, "stars": 0, "installs": 0, "version": "", "updated_at": 0}, {"slug": "whatiskadudoing-fp-ts-skills", "name": "whatiskadudoing/fp-ts-skills", "description": "Practical fp-ts skills for TypeScript – fp-ts-pragmatic, fp-ts-react, fp-ts-errors (v4.4.0).", "description_zh": "", "homepage": "https://github.com/whatiskadudoing/fp-ts-skills", "tags": ["Community Contributors"], "category": "Community Contributors", "ownerName": "whatiskadudoing", "sources": ["sickn33/antigravity-awesome-skills"], "score": 100, "downloads": 0, "stars": 0, "installs": 0, "version": "", "updated_at": 0}, {"slug": "whatsapp-automation", "name": "WhatsApp Automation", "description": "Automate WhatsApp: messages, media, templates, groups, and business profiles.", "description_zh": "", "homepage": "./whatsapp-automation", "tags": ["App Automation via Composio"], "category": "App Automation via Composio", "ownerName": "", "sources": ["ComposioHQ/awesome-claude-skills"], "score": 100, "downloads": 0, "stars": 0, "installs": 0, "version": "", "updated_at": 0}, {"slug": "wittlesus-cursorrules-pro", "name": "Wittlesus/cursorrules-pro", "description": "Professional .cursorrules configurations for 8 frameworks - Next.js, React, Python, Go, Rust, and more. Works with Cursor, Claude Code, and Windsurf.", "description_zh": "", "homepage": "https://github.com/Wittlesus/cursorrules-pro", "tags": ["Community Contributors"], "category": "Community Contributors", "ownerName": "Wittlesus", "sources": ["sickn33/antigravity-awesome-skills"], "score": 100, "downloads": 0, "stars": 0, "installs": 0, "version": "", "updated_at": 0}, {"slug": "wolfe-jam-faf-skills", "name": "Wolfe-Jam/faf-skills", "description": "AI-context and project DNA skills — .faf format management, AI-readiness scoring, bi-sync, MCP server building, and championship-grade testing (17 skills, MIT).", "description_zh": "", "homepage": "https://github.com/Wolfe-Jam/faf-skills", "tags": ["Community Contributors"], "category": "Community Contributors", "ownerName": "Wolfe-Jam", "sources": ["sickn33/antigravity-awesome-skills"], "score": 100, "downloads": 0, "stars": 0, "installs": 0, "version": "", "updated_at": 0}, {"slug": "wondelai-skills", "name": "wondelai/skills", "description": "25 agent skills for UX design, marketing/CRO, sales, product strategy, and growth based on books by Norman, Cialdini, Ries, Hormozi, and others.", "description_zh": "", "homepage": "https://github.com/wondelai/skills", "tags": ["🗂️ Collections"], "category": "🗂️ Collections", "ownerName": "wondelai", "sources": ["BehiSecc/awesome-claude-skills"], "score": 100, "downloads": 0, "stars": 0, "installs": 0, "version": "", "updated_at": 0}, {"slug": "wordpress-wordpress-router", "name": "WordPress/wordpress-router", "description": "Classifies WordPress repos and routes to the right workflow", "description_zh": "", "homepage": "https://officialskills.sh/WordPress/skills/wordpress-router", "tags": ["TypeScript Skills"], "category": "TypeScript Skills", "ownerName": "", "sources": ["VoltAgent/awesome-agent-skills"], "score": 100, "downloads": 0, "stars": 0, "installs": 0, "version": "", "updated_at": 0}, {"slug": "wordpress-wp-abilities-api", "name": "WordPress/wp-abilities-api", "description": "Capability-based permissions and REST API authentication", "description_zh": "", "homepage": "https://officialskills.sh/WordPress/skills/wp-abilities-api", "tags": ["TypeScript Skills"], "category": "TypeScript Skills", "ownerName": "", "sources": ["VoltAgent/awesome-agent-skills"], "score": 100, "downloads": 0, "stars": 0, "installs": 0, "version": "", "updated_at": 0}, {"slug": "wordpress-wp-block-development", "name": "WordPress/wp-block-development", "description": "Gutenberg blocks: block.json, attributes, rendering, deprecations", "description_zh": "", "homepage": "https://officialskills.sh/WordPress/skills/wp-block-development", "tags": ["TypeScript Skills"], "category": "TypeScript Skills", "ownerName": "", "sources": ["VoltAgent/awesome-agent-skills"], "score": 100, "downloads": 0, "stars": 0, "installs": 0, "version": "", "updated_at": 0}, {"slug": "wordpress-wp-block-themes", "name": "WordPress/wp-block-themes", "description": "Block themes: theme.json, templates, patterns, style variations", "description_zh": "", "homepage": "https://officialskills.sh/WordPress/skills/wp-block-themes", "tags": ["TypeScript Skills"], "category": "TypeScript Skills", "ownerName": "", "sources": ["VoltAgent/awesome-agent-skills"], "score": 100, "downloads": 0, "stars": 0, "installs": 0, "version": "", "updated_at": 0}, {"slug": "wordpress-wp-interactivity-api", "name": "WordPress/wp-interactivity-api", "description": "Frontend interactivity with data-wp-* directives and stores", "description_zh": "", "homepage": "https://officialskills.sh/WordPress/skills/wp-interactivity-api", "tags": ["TypeScript Skills"], "category": "TypeScript Skills", "ownerName": "", "sources": ["VoltAgent/awesome-agent-skills"], "score": 100, "downloads": 0, "stars": 0, "installs": 0, "version": "", "updated_at": 0}, {"slug": "wordpress-wp-performance", "name": "WordPress/wp-performance", "description": "Profiling, caching, database optimization, Server-Timing", "description_zh": "", "homepage": "https://officialskills.sh/WordPress/skills/wp-performance", "tags": ["TypeScript Skills"], "category": "TypeScript Skills", "ownerName": "", "sources": ["VoltAgent/awesome-agent-skills"], "score": 100, "downloads": 0, "stars": 0, "installs": 0, "version": "", "updated_at": 0}, {"slug": "wordpress-wp-phpstan", "name": "WordPress/wp-phpstan", "description": "PHPStan static analysis for WordPress projects", "description_zh": "", "homepage": "https://officialskills.sh/WordPress/skills/wp-phpstan", "tags": ["TypeScript Skills"], "category": "TypeScript Skills", "ownerName": "", "sources": ["VoltAgent/awesome-agent-skills"], "score": 100, "downloads": 0, "stars": 0, "installs": 0, "version": "", "updated_at": 0}, {"slug": "wordpress-wp-playground", "name": "WordPress/wp-playground", "description": "WordPress Playground for instant local environments", "description_zh": "", "homepage": "https://officialskills.sh/WordPress/skills/wp-playground", "tags": ["TypeScript Skills"], "category": "TypeScript Skills", "ownerName": "", "sources": ["VoltAgent/awesome-agent-skills"], "score": 100, "downloads": 0, "stars": 0, "installs": 0, "version": "", "updated_at": 0}, {"slug": "wordpress-wp-plugin-development", "name": "WordPress/wp-plugin-development", "description": "Plugin architecture, hooks, settings API, security", "description_zh": "", "homepage": "https://officialskills.sh/WordPress/skills/wp-plugin-development", "tags": ["TypeScript Skills"], "category": "TypeScript Skills", "ownerName": "", "sources": ["VoltAgent/awesome-agent-skills"], "score": 100, "downloads": 0, "stars": 0, "installs": 0, "version": "", "updated_at": 0}, {"slug": "wordpress-wp-project-triage", "name": "WordPress/wp-project-triage", "description": "Detects project type, tooling, and versions automatically", "description_zh": "", "homepage": "https://officialskills.sh/WordPress/skills/wp-project-triage", "tags": ["TypeScript Skills"], "category": "TypeScript Skills", "ownerName": "", "sources": ["VoltAgent/awesome-agent-skills"], "score": 100, "downloads": 0, "stars": 0, "installs": 0, "version": "", "updated_at": 0}, {"slug": "wordpress-wp-rest-api", "name": "WordPress/wp-rest-api", "description": "REST API routes/endpoints, schema, auth, and response shaping", "description_zh": "", "homepage": "https://officialskills.sh/WordPress/skills/wp-rest-api", "tags": ["TypeScript Skills"], "category": "TypeScript Skills", "ownerName": "", "sources": ["VoltAgent/awesome-agent-skills"], "score": 100, "downloads": 0, "stars": 0, "installs": 0, "version": "", "updated_at": 0}, {"slug": "wordpress-wp-wpcli-and-ops", "name": "WordPress/wp-wpcli-and-ops", "description": "WP-CLI commands, automation, multisite, search-replace", "description_zh": "", "homepage": "https://officialskills.sh/WordPress/skills/wp-wpcli-and-ops", "tags": ["TypeScript Skills"], "category": "TypeScript Skills", "ownerName": "", "sources": ["VoltAgent/awesome-agent-skills"], "score": 100, "downloads": 0, "stars": 0, "installs": 0, "version": "", "updated_at": 0}, {"slug": "wordpress-wpds", "name": "WordPress/wpds", "description": "WordPress Design System", "description_zh": "", "homepage": "https://officialskills.sh/WordPress/skills/wpds", "tags": ["TypeScript Skills"], "category": "TypeScript Skills", "ownerName": "", "sources": ["VoltAgent/awesome-agent-skills"], "score": 100, "downloads": 0, "stars": 0, "installs": 0, "version": "", "updated_at": 0}, {"slug": "wrike-automation", "name": "Wrike Automation", "description": "Automate Wrike: tasks, folders, projects, comments, and workflows.", "description_zh": "", "homepage": "./wrike-automation", "tags": ["App Automation via Composio"], "category": "App Automation via Composio", "ownerName": "", "sources": ["ComposioHQ/awesome-claude-skills"], "score": 100, "downloads": 0, "stars": 0, "installs": 0, "version": "", "updated_at": 0}, {"slug": "wshuyi-x-article-publisher-skill", "name": "wshuyi/x-article-publisher-skill", "description": "Publish articles to X/Twitter", "description_zh": "", "homepage": "https://github.com/wshuyi/x-article-publisher-skill", "tags": ["Community Skills"], "category": "Community Skills", "ownerName": "wshuyi", "sources": ["VoltAgent/awesome-agent-skills"], "score": 100, "downloads": 0, "stars": 0, "installs": 0, "version": "", "updated_at": 0}, {"slug": "xquik-dev-tweetclaw", "name": "Xquik-dev/tweetclaw", "description": "40+ X/Twitter actions: post, extract, monitor, compose", "description_zh": "", "homepage": "https://github.com/Xquik-dev/tweetclaw", "tags": ["Community Skills"], "category": "Community Skills", "ownerName": "Xquik-dev", "sources": ["VoltAgent/awesome-agent-skills"], "score": 100, "downloads": 0, "stars": 0, "installs": 0, "version": "", "updated_at": 0}, {"slug": "youtube-automation", "name": "YouTube Automation", "description": "Automate YouTube: videos, channels, playlists, comments, and subscriptions.", "description_zh": "", "homepage": "./youtube-automation", "tags": ["App Automation via Composio"], "category": "App Automation via Composio", "ownerName": "", "sources": ["ComposioHQ/awesome-claude-skills"], "score": 100, "downloads": 0, "stars": 0, "installs": 0, "version": "", "updated_at": 0}, {"slug": "zebbern-claude-code-guide", "name": "zebbern/claude-code-guide", "description": "Comprehensive Security suite & Guide (Source for ~60 new skills).", "description_zh": "", "homepage": "https://github.com/zebbern/claude-code-guide", "tags": ["Community Contributors"], "category": "Community Contributors", "ownerName": "zebbern", "sources": ["sickn33/antigravity-awesome-skills"], "score": 100, "downloads": 0, "stars": 0, "installs": 0, "version": "", "updated_at": 0}, {"slug": "zechenzhangagi-ai-research-skills", "name": "zechenzhangAGI/AI-research-SKILLs", "description": "77 AI research skills for model training, inference, and MLOps", "description_zh": "", "homepage": "https://github.com/zechenzhangAGI/AI-research-SKILLs", "tags": ["Community Skills"], "category": "Community Skills", "ownerName": "zechenzhangAGI", "sources": ["VoltAgent/awesome-agent-skills"], "score": 100, "downloads": 0, "stars": 0, "installs": 0, "version": "", "updated_at": 0}, {"slug": "zendesk-automation", "name": "Zendesk Automation", "description": "Automate Zendesk: tickets, users, organizations, search, and macros.", "description_zh": "", "homepage": "./zendesk-automation", "tags": ["App Automation via Composio"], "category": "App Automation via Composio", "ownerName": "", "sources": ["ComposioHQ/awesome-claude-skills"], "score": 100, "downloads": 0, "stars": 0, "installs": 0, "version": "", "updated_at": 0}, {"slug": "zircote-claude", "name": "zircote/.claude", "description": "Archived Claude Code dotfiles/config repo with a Shopify development skill reference.", "description_zh": "", "homepage": "https://github.com/zircote/.claude", "tags": ["Community Contributors"], "category": "Community Contributors", "ownerName": "zircote", "sources": ["sickn33/antigravity-awesome-skills"], "score": 100, "downloads": 0, "stars": 0, "installs": 0, "version": "", "updated_at": 0}, {"slug": "zoho-crm-automation", "name": "Zoho CRM Automation", "description": "Automate Zoho CRM: leads, contacts, deals, accounts, and modules.", "description_zh": "", "homepage": "./zoho-crm-automation", "tags": ["App Automation via Composio"], "category": "App Automation via Composio", "ownerName": "", "sources": ["ComposioHQ/awesome-claude-skills"], "score": 100, "downloads": 0, "stars": 0, "installs": 0, "version": "", "updated_at": 0}, {"slug": "zoom-automation", "name": "Zoom Automation", "description": "Automate Zoom: meetings, recordings, participants, webinars, and reports.", "description_zh": "", "homepage": "./zoom-automation", "tags": ["App Automation via Composio"], "category": "App Automation via Composio", "ownerName": "", "sources": ["ComposioHQ/awesome-claude-skills"], "score": 100, "downloads": 0, "stars": 0, "installs": 0, "version": "", "updated_at": 0}, {"slug": "zscole-model-hierarchy-skill", "name": "zscole/model-hierarchy-skill", "description": "Cost-optimized model routing based on task complexity", "description_zh": "", "homepage": "https://github.com/zscole/model-hierarchy-skill", "tags": ["Community Skills"], "category": "Community Skills", "ownerName": "zscole", "sources": ["VoltAgent/awesome-agent-skills"], "score": 100, "downloads": 0, "stars": 0, "installs": 0, "version": "", "updated_at": 0}, {"slug": "zw008-vmware-aiops", "name": "zw008/VMware-AIops", "description": "AI-powered VMware vCenter/ESXi monitoring and operations: inventory queries, health/alarms, VM lifecycle (create, delete, snapshot, clone, migrate), vSAN management, Aria Operations analytics, and scheduled log scanning. Supports Claude Code, Gemini CLI, Codex, Aider, Trae, Kimi, and MCP.", "description_zh": "", "homepage": "https://github.com/zw008/VMware-AIops", "tags": ["Community Skills"], "category": "Community Skills", "ownerName": "zw008", "sources": ["VoltAgent/awesome-agent-skills"], "score": 100, "downloads": 0, "stars": 0, "installs": 0, "version": "", "updated_at": 0}]}