{"page": 220, "total_pages": 522, "total": 26073, "skills": [{"category": "data-analysis", "created_at": 1772790435410, "description": "Connect to your Shelter financial data. Check safe-to-spend, predict cash crunches, find zombie subscriptions, simulate purchases, get AI coaching, and ask G...", "description_zh": "", "downloads": 370, "homepage": "https://clawhub.ai/code-with-brian/shelter", "iconUrl": null, "installs": 27, "name": "Shelter", "ownerName": "code-with-brian", "score": 64572.425828970336, "slug": "shelter", "source": "clawhub", "stars": 0, "tags": null, "updated_at": 1776748485108, "version": "1.0.3"}, {"category": "data-analysis", "created_at": 1773219578350, "description": "AI Face Swap - Swap face in video, deepfake face replacement, face swap for portraits. Use from command line. Supports local video files, YouTube, Bilibili U...", "description_zh": "", "downloads": 369, "homepage": "https://clawhub.ai/revisual-ai/faceswap", "iconUrl": null, "installs": 26, "name": "Faceswap", "ownerName": "revisual-ai", "score": 71628.72154115587, "slug": "faceswap", "source": "clawhub", "stars": 2, "tags": null, "updated_at": 1776748485767, "version": "1.0.4"}, {"category": "developer-tools", "created_at": 1773042363976, "description": "API reference for CoinMarketCap market-wide endpoints including global metrics, fear/greed, indices, trending topics, and charts. Use this skill whenever the...", "description_zh": "", "downloads": 369, "homepage": "https://clawhub.ai/bryan-cmc/cmc-api-market", "iconUrl": null, "installs": 8, "name": "CoinMarketCap Market Overview APIs", "ownerName": "bryan-cmc", "score": 100000, "slug": "cmc-api-market", "source": "clawhub", "stars": 2, "tags": null, "updated_at": 1776748485265, "version": "1.0.1"}, {"category": "data-analysis", "created_at": 1773073899272, "description": "Control macOS applications via Accessibility API through an MCP server. Open apps, click buttons, type text, press keys, scroll, and read UI state. Use when:...", "description_zh": "", "downloads": 369, "homepage": "https://clawhub.ai/reg2005/mac-compute-use", "iconUrl": null, "installs": 26, "name": "Mac Compute Use", "ownerName": "reg2005", "score": 6916.785206258891, "slug": "mac-compute-use", "source": "clawhub", "stars": 1, "tags": null, "updated_at": 1776765371161, "version": "0.1.0"}, {"category": "data-analysis", "created_at": 1772797919924, "description": "Automated social media manager — plan, write, schedule, and analyze content across X/Twitter, LinkedIn, Instagram, TikTok, Facebook, and Pinterest. Integrate...", "description_zh": "", "downloads": 369, "homepage": "https://clawhub.ai/batsirai/social-media-engine", "iconUrl": null, "installs": 14, "name": "Social Media Engine", "ownerName": "batsirai", "score": 6505.641748942172, "slug": "social-media-engine", "source": "clawhub", "stars": 0, "tags": null, "updated_at": 1776765550390, "version": "1.0.0"}, {"category": "ai-intelligence", "created_at": 1773066192603, "description": "Run browser automation through @playwright/mcp over UXC stdio MCP, with daemon-friendly session reuse and safe action guardrails. Use when tasks need determi...", "description_zh": "", "downloads": 369, "homepage": "https://clawhub.ai/jolestar/playwright-mcp-skill", "iconUrl": null, "installs": 74, "name": "Playwright Mcp Skill", "ownerName": "jolestar", "score": 100000, "slug": "playwright-mcp-skill", "source": "clawhub", "stars": 0, "tags": null, "updated_at": 1776759983147, "version": "1.0.0"}, {"category": "developer-tools", "created_at": 1773089793240, "description": "AI-optimized web search via Tavily API. Returns concise, relevant results for AI agents.", "description_zh": "", "downloads": 369, "homepage": "https://clawhub.ai/petterhuang92-design/tavily-search-1", "iconUrl": null, "installs": 119, "name": "Tavily Search 1", "ownerName": "petterhuang92-design", "score": 27272.727272727272, "slug": "tavily-search-1", "source": "clawhub", "stars": 0, "tags": null, "updated_at": 1776759120657, "version": "1.0.0"}, {"category": "data-analysis", "created_at": 1772795318919, "description": "Execute read-only Snowflake SELECT queries with forbidden keyword blocking, row limits, timeouts, and structured JSON results.", "description_zh": "", "downloads": 369, "homepage": "https://clawhub.ai/tiagohubnerdataplatform/snowflake", "iconUrl": null, "installs": 16, "name": "SnowflakeDataEngineer", "ownerName": "tiagohubnerdataplatform", "score": 27313.10140636565, "slug": "snowflake", "source": "clawhub", "stars": 0, "tags": ["snowflake"], "updated_at": 1776759120491, "version": "1.0.0"}, {"category": "security-compliance", "created_at": 1773077674990, "description": "Security audit and hardening for AI agents — credential hygiene, secret scanning, prompt injection defense, data leakage prevention, and privacy zones.", "description_zh": "", "downloads": 369, "homepage": "https://clawhub.ai/clawdssen/security-hardening", "iconUrl": null, "installs": 12, "name": "Security Hardening", "ownerName": "clawdssen", "score": 23653.846153846152, "slug": "security-hardening", "source": "clawhub", "stars": 0, "tags": null, "updated_at": 1776757582832, "version": "1.0.0"}, {"category": "productivity", "created_at": 1772793897863, "description": "Manage Apple Calendar events via AppleScript. Create, edit, delete, and search calendar events.", "description_zh": "", "downloads": 369, "homepage": "https://clawhub.ai/cryptol0rd/apple-calendar-manager", "iconUrl": null, "installs": 20, "name": "Apple Calendar Manager", "ownerName": "cryptol0rd", "score": 100000, "slug": "apple-calendar-manager", "source": "clawhub", "stars": 0, "tags": null, "updated_at": 1776749384927, "version": "1.0.0"}, {"category": "data-analysis", "created_at": 1773202014822, "description": "Professional BTC risk radar using public options, perp, and spot data. Use when the user wants a clear Bitcoin risk snapshot with volatility/skew context, pa...", "description_zh": "", "downloads": 369, "homepage": "https://clawhub.ai/spyfree/btc-risk-radar", "iconUrl": null, "installs": 24, "name": "BTC Risk Radar", "ownerName": "spyfree", "score": 64623.467600700526, "slug": "btc-risk-radar", "source": "clawhub", "stars": 0, "tags": null, "updated_at": 1776748485718, "version": "1.0.0"}, {"category": "developer-tools", "created_at": 1772790442958, "description": "Query public holidays for any country and year using the apipick Public Holidays API. Supports 100+ countries identified by ISO 3166-1 alpha-2 country codes....", "description_zh": "", "downloads": 369, "homepage": "https://clawhub.ai/javainthinking/apipick-public-holidays", "iconUrl": null, "installs": 8, "name": "Get public holidays by country and year", "ownerName": "javainthinking", "score": 64623.467600700526, "slug": "apipick-public-holidays", "source": "clawhub", "stars": 0, "tags": null, "updated_at": 1776748485546, "version": "1.0.0"}, {"category": "productivity", "created_at": 1772796414773, "description": "Parse UI screenshots into structured element JSON (type, OCR text, bbox) and operate desktop UI from parsed elements. Use when a user asks to detect/locate U...", "description_zh": "", "downloads": 369, "homepage": "https://clawhub.ai/murongg/ui-element-ops", "iconUrl": null, "installs": 28, "name": "UI Element Ops", "ownerName": "murongg", "score": 90220.04889975551, "slug": "ui-element-ops", "source": "clawhub", "stars": 0, "tags": null, "updated_at": 1776748485306, "version": "1.0.2"}, {"category": "data-analysis", "created_at": 1772795126753, "description": "Build a complete Brand Bible for any business — tone of voice, positioning, target audiences, messaging pillars, and visual identity guidelines. The foundati...", "description_zh": "", "downloads": 369, "homepage": "https://clawhub.ai/danielblinker83-bot/brand-dna", "iconUrl": null, "installs": 10, "name": "Brand DNA — Universal Brand Bible Builder", "ownerName": "danielblinker83-bot", "score": 90220.04889975551, "slug": "brand-dna", "source": "clawhub", "stars": 0, "tags": ["branding", "content", "marketing", "social-media", "strategy", "tone-of-voice"], "updated_at": 1776748485286, "version": "1.0.1"}, {"category": "developer-tools", "created_at": 1772791256146, "description": "Give your agent a home in a shared pixel world. Own a room, visit neighbors, earn shells, customize your lobster avatar, and build real relationships. Use wh...", "description_zh": "", "downloads": 369, "homepage": "https://clawhub.ai/mithri-claws/clawlife", "iconUrl": null, "installs": 13, "name": "ClawLife", "ownerName": "mithri-claws", "score": 90220.04889975551, "slug": "clawlife", "source": "clawhub", "stars": 0, "tags": null, "updated_at": 1776748485234, "version": "1.1.1"}, {"category": "data-analysis", "created_at": 1772788472257, "description": "Explore Venice AI's available models - LLMs, image generators, video, TTS, ASR, and embeddings. View capabilities, pricing, and constraints.", "description_zh": "", "downloads": 369, "homepage": "https://clawhub.ai/sabrinaaquino/venice-models", "iconUrl": null, "installs": 17, "name": "Venice Models", "ownerName": "sabrinaaquino", "score": 88915.66265060242, "slug": "venice-models", "source": "clawhub", "stars": 0, "tags": null, "updated_at": 1776748485181, "version": "1.0.1"}, {"category": "data-analysis", "created_at": 1772788472257, "description": "Explore Venice AI's available models - LLMs, image generators, video, TTS, ASR, and embeddings. View capabilities, pricing, and constraints.", "description_zh": "", "downloads": 369, "homepage": "https://clawhub.ai/sabrinaaquino/venice-models", "iconUrl": null, "installs": 17, "name": "Venice Models", "ownerName": "sabrinaaquino", "score": 64397.9057591623, "slug": "venice-models", "source": "clawhub", "stars": 0, "tags": null, "updated_at": 1776748485181, "version": "1.0.1"}, {"category": "data-analysis", "created_at": 1772791948657, "description": "AI-powered Reddit seeding agent for founders. Analyzes a product spec, maps relevant subreddits, finds real threads where target users need help, drafts pers...", "description_zh": "", "downloads": 369, "homepage": "https://clawhub.ai/0xconal/acquire-first-1000-users-on-reddit", "iconUrl": null, "installs": 10, "name": "Reddit User Acquisition", "ownerName": "0xconal", "score": 88277.51196172248, "slug": "acquire-first-1000-users-on-reddit", "source": "clawhub", "stars": 0, "tags": ["reddit"], "updated_at": 1776748485042, "version": "1.0.0"}, {"category": "productivity", "created_at": 1772796664039, "description": "Manager-first orchestration for a dedicated PECO worker: proactive installation, durable desire injection into SOUL.md, and optional Feishu-backed human-in-t...", "description_zh": "", "downloads": 369, "homepage": "https://clawhub.ai/kepanwang/infinite-oracle", "iconUrl": null, "installs": 18, "name": "Infinite Oracle", "ownerName": "kepanwang", "score": 82000, "slug": "infinite-oracle", "source": "clawhub", "stars": 0, "tags": null, "updated_at": 1776748484968, "version": "1.0.11"}, {"category": "data-analysis", "created_at": 1773075164843, "description": "Legacy combined bridge skill for Linux-to-Mac wrapper installs. Prefer the newer split skills `macos-bridge` for Mac-owned CLIs and `homebrew-bridge` for Hom...", "description_zh": "", "downloads": 369, "homepage": "https://clawhub.ai/matthewxmurphy/linux-to-mac-bridge", "iconUrl": null, "installs": 8, "name": "Linux To Mac Bridge", "ownerName": "matthewxmurphy", "score": 62862.01022146508, "slug": "linux-to-mac-bridge", "source": "clawhub", "stars": 0, "tags": null, "updated_at": 1776748484740, "version": "1.2.1"}, {"category": "developer-tools", "created_at": 1772789462511, "description": "Fast meme coin trading execution for AI agents. Snipe new token launches, execute rapid buys/sells on Solana DEXs (Jupiter, Raydium, Pump.fun), with MEV prot...", "description_zh": "", "downloads": 368, "homepage": "https://clawhub.ai/inkoak23-code/trench", "iconUrl": null, "installs": 6, "name": "Trench", "ownerName": "inkoak23-code", "score": 100000, "slug": "trench", "source": "clawhub", "stars": 5, "tags": null, "updated_at": 1776748504799, "version": "0.1.0"}, {"category": "communication-collaboration", "created_at": 1773073562059, "description": "Patch OpenClaw Telegram private-chat replies to append a footer at the platform layer (`🧠 Model + 💭 Think + 📊 Context`), with backup, syntax validation, u...", "description_zh": "", "downloads": 368, "homepage": "https://clawhub.ai/c-joey/telegram-footer-patch", "iconUrl": null, "installs": 25, "name": "Telegram Footer Patch", "ownerName": "c-joey", "score": 100000, "slug": "telegram-footer-patch", "source": "clawhub", "stars": 4, "tags": null, "updated_at": 1776748505004, "version": "1.0.6"}, {"category": "developer-tools", "created_at": 1772795562081, "description": "Build, train, and debug deep learning models with Keras patterns, layer recipes, and training diagnostics.", "description_zh": "", "downloads": 368, "homepage": "https://clawhub.ai/ivangdavila/keras", "iconUrl": null, "installs": 18, "name": "Keras", "ownerName": "ivangdavila", "score": 2881.7629608701795, "slug": "keras", "source": "clawhub", "stars": 2, "tags": null, "updated_at": 1776766490643, "version": "1.0.0"}, {"category": "ai-intelligence", "created_at": 1773285638098, "description": "Search, install, and export agentars from the CatchClaw marketplace. Use when the user wants to find, install, or package agent templates.", "description_zh": "", "downloads": 368, "homepage": "https://clawhub.ai/lovelcp/catchclaw", "iconUrl": null, "installs": 7, "name": "CatchClaw", "ownerName": "lovelcp", "score": 29501.08459869848, "slug": "catchclaw", "source": "clawhub", "stars": 2, "tags": null, "updated_at": 1776759082088, "version": "3.6.8"}, {"category": "ai-intelligence", "created_at": 1772794623543, "description": "Your personal board of AI advisors — the only skill that uses truly different AI models (not one model role-playing). Get better answers to hard questions by...", "description_zh": "", "downloads": 368, "homepage": "https://clawhub.ai/morozsm/consilium", "iconUrl": null, "installs": 23, "name": "Consilium", "ownerName": "morozsm", "score": 91071.42857142857, "slug": "consilium", "source": "clawhub", "stars": 2, "tags": null, "updated_at": 1776748504970, "version": "1.1.0"}, {"category": "ai-intelligence", "created_at": 1772794623543, "description": "Your personal board of AI advisors — the only skill that uses truly different AI models (not one model role-playing). Get better answers to hard questions by...", "description_zh": "", "downloads": 368, "homepage": "https://clawhub.ai/morozsm/consilium", "iconUrl": null, "installs": 23, "name": "Consilium", "ownerName": "morozsm", "score": 100000, "slug": "consilium", "source": "clawhub", "stars": 2, "tags": null, "updated_at": 1776748504970, "version": "1.1.0"}, {"category": "data-analysis", "created_at": 1773081557204, "description": "Agentware store for expanding agent capabilities. Trigger this skill any time the agent or user hits a capability gap or wants the agent to do more: needs a...", "description_zh": "", "downloads": 368, "homepage": "https://clawhub.ai/kehaoc/taste-skill", "iconUrl": null, "installs": 58, "name": "taste-skill", "ownerName": "kehaoc", "score": 1926.7015706806283, "slug": "taste-skill", "source": "clawhub", "stars": 0, "tags": null, "updated_at": 1776770090455, "version": "1.3.2"}, {"category": "content-creation", "created_at": 1772804840552, "description": "Generate high-quality content across multiple formats. Create articles, reports, social media posts, marketing copy, and other content types with professiona...", "description_zh": "", "downloads": 368, "homepage": "https://clawhub.ai/dragon015/dragon-content-gen", "iconUrl": null, "installs": 49, "name": "内容生成技能包", "ownerName": "dragon015", "score": 10487.318324308919, "slug": "dragon-content-gen", "source": "clawhub", "stars": 0, "tags": null, "updated_at": 1776767390556, "version": "1.0.0"}, {"category": "productivity", "created_at": 1772793017107, "description": "Manage Expo React Native apps on OpenClaw: create apps, add screens, start web previews on localhost, and check preview status safely within /home/patron/apps.", "description_zh": "", "downloads": 368, "homepage": "https://clawhub.ai/cancorleone/cancorteaw-app", "iconUrl": null, "installs": 6, "name": "Cancorteaw App", "ownerName": "cancorleone", "score": 27239.082161361956, "slug": "cancorteaw-app", "source": "clawhub", "stars": 0, "tags": null, "updated_at": 1776759120855, "version": "0.1.1"}, {"category": "security-compliance", "created_at": 1773259574991, "description": "Molt Motion Pictures platform skill. Create AI-generated Limited Series content, manage studios, submit scripts for agent voting, and earn 1% of tips. Wallet-based auth, x402 payments.", "description_zh": "", "downloads": 368, "homepage": "https://clawhub.ai/chefbc2k/moltmotion", "iconUrl": null, "installs": 10, "name": "Molt Motion Picture", "ownerName": "chefbc2k", "score": 27239.082161361956, "slug": "moltmotion", "source": "clawhub", "stars": 0, "tags": null, "updated_at": 1776759120830, "version": "1.0.4"}, {"category": "productivity", "created_at": 1773088936809, "description": "Connect to European bank accounts via PSD2 Open Banking. Browse transactions, match receipts to payments, categorize expenses, and manage business partners t...", "description_zh": "", "downloads": 368, "homepage": "https://clawhub.ai/felixtosh/fibuki", "iconUrl": null, "installs": 8, "name": "Bank Transactions Connector - Europe (PSD2)", "ownerName": "felixtosh", "score": 82142.85714285714, "slug": "fibuki", "source": "clawhub", "stars": 0, "tags": null, "updated_at": 1776748505011, "version": "0.1.15"}, {"category": "developer-tools", "created_at": 1772795351855, "description": "Manage ClickUp via natural language. Uses the taazkareem.com remote MCP server. A license key is required for full tool access (unlicensed calls return check...", "description_zh": "", "downloads": 368, "homepage": "https://clawhub.ai/taazkareem/clickup-project-management", "iconUrl": null, "installs": 10, "name": "Clickup Project Management", "ownerName": "taazkareem", "score": 90196.07843137255, "slug": "clickup-project-management", "source": "clawhub", "stars": 0, "tags": null, "updated_at": 1776748504931, "version": "1.0.10"}, {"category": "productivity", "created_at": 1773418026155, "description": "Reference tool for life — covers intro, quickstart, patterns and more. Quick lookup for Homeassistant Toolkit concepts, best practices, and implementation pa...", "description_zh": "", "downloads": 368, "homepage": "https://clawhub.ai/bytesagain1/homeassistant-toolkit", "iconUrl": null, "installs": 7, "name": "Homeassistant Toolkit", "ownerName": "bytesagain1", "score": 78632.47863247863, "slug": "homeassistant-toolkit", "source": "clawhub", "stars": 0, "tags": ["chinese", "productivity"], "updated_at": 1776748504805, "version": "3.0.1"}, {"category": "ai-intelligence", "created_at": 1773066438679, "description": "Facebook Ads integration. Manage Campaigns, Audiences, Pixels. Use when the user wants to interact with Facebook Ads data.", "description_zh": "", "downloads": 367, "homepage": "https://clawhub.ai/gora050/facebook-ads", "iconUrl": null, "installs": 38, "name": "Facebook Ads", "ownerName": "gora050", "score": 12048.567870485678, "slug": "facebook-ads", "source": "clawhub", "stars": 1, "tags": null, "updated_at": 1776765549985, "version": "1.0.0"}, {"category": "developer-tools", "created_at": 1772793256296, "description": "Indestructible agent memory — permanently stored, never lost. Save decisions, identity, and context as a memory chain on the Autonomys Network. Rebuild your...", "description_zh": "", "downloads": 367, "homepage": "https://clawhub.ai/jim-counter/auto-memory", "iconUrl": null, "installs": 23, "name": "Auto Memory", "ownerName": "jim-counter", "score": 96268.65671641791, "slug": "auto-memory", "source": "clawhub", "stars": 1, "tags": ["autonomys", "beta", "decentralized", "long-term", "memory", "openclaw", "persistence"], "updated_at": 1776748505087, "version": "0.2.2"}, {"category": "developer-tools", "created_at": 1773909690310, "description": "Headless browser automation CLI optimized for AI agents with accessibility tree snapshots and ref-based element selection", "description_zh": "", "downloads": 367, "homepage": "https://clawhub.ai/ddbq/agent-browser-clawdbot-0-1-0", "iconUrl": null, "installs": 159, "name": "Agent Browser Clawdbot 0.1.0", "ownerName": "ddbq", "score": 429.7977491245945, "slug": "agent-browser-clawdbot-0-1-0", "source": "clawhub", "stars": 0, "tags": null, "updated_at": 1776770350069, "version": "1.0.0"}, {"category": "developer-tools", "created_at": 1773890461301, "description": "Python environment management skill. Automatically detect project type and existing environments, recommend based on popularity. Minimize interruptions, only...", "description_zh": "", "downloads": 367, "homepage": "https://clawhub.ai/cikichen/python-venv", "iconUrl": null, "installs": 124, "name": "Python Venv", "ownerName": "cikichen", "score": 10561.15107913669, "slug": "python-venv", "source": "clawhub", "stars": 0, "tags": null, "updated_at": 1776767950006, "version": "1.2.0"}, {"category": "content-creation", "created_at": 1772797147835, "description": "Generate professional AI image prompts for any platform and niche — Instagram, LinkedIn, blog headers, YouTube thumbnails, brand visuals, and ads. Works with...", "description_zh": "", "downloads": 367, "homepage": "https://clawhub.ai/danielblinker83-bot/image-studio", "iconUrl": null, "installs": 28, "name": "Image Studio — AI Image Prompt System", "ownerName": "danielblinker83-bot", "score": 20457.079152731327, "slug": "image-studio", "source": "clawhub", "stars": 0, "tags": ["content", "marketing", "social-media"], "updated_at": 1776764990507, "version": "1.0.0"}, {"category": "data-analysis", "created_at": 1773090698681, "description": "Read, analyze metadata, convert formats, resize, rotate, crop, compress, and batch process PNG, JPG, GIF, WebP, TIFF, BMP, HEIC, SVG, and ICO images.", "description_zh": "", "downloads": 367, "homepage": "https://clawhub.ai/neckr0ik/image-handler", "iconUrl": null, "installs": 25, "name": "Image Handler", "ownerName": "neckr0ik", "score": 13482.733284349742, "slug": "image-handler", "source": "clawhub", "stars": 0, "tags": null, "updated_at": 1776764650387, "version": "1.0.0"}, {"category": "data-analysis", "created_at": 1773077895046, "description": "Run local script to analyze stock fundamentals (P/E, EPS, margins, debt, ROE, analyst targets) using yfinance. Use exec tool to run: uv run /root/.openclaw/w...", "description_zh": "", "downloads": 367, "homepage": "https://clawhub.ai/youpele52/stock-fundamentals", "iconUrl": null, "installs": 47, "name": "Stock Fundamentals", "ownerName": "youpele52", "score": 5010.922992900055, "slug": "stock-fundamentals", "source": "clawhub", "stars": 0, "tags": null, "updated_at": 1776762615186, "version": "0.1.1"}, {"category": "data-analysis", "created_at": 1772794451383, "description": "Extract public posts, comments, and profiles from Instagram, TikTok, and Reddit via Apify for trend analysis and audience insights with structured JSON output.", "description_zh": "", "downloads": 367, "homepage": "https://clawhub.ai/g4dr/social-media-extractor", "iconUrl": null, "installs": 17, "name": "Social Media Data Extractor", "ownerName": "g4dr", "score": 86966.82464454976, "slug": "social-media-extractor", "source": "clawhub", "stars": 0, "tags": null, "updated_at": 1776759120924, "version": "1.0.0"}, {"category": "developer-tools", "created_at": 1773069075614, "description": "Generate PPT/slides with Felo PPT Task API in Claude Code. Use when users ask to create/make/generate/export presentations or slide decks, or when explicit c...", "description_zh": "", "downloads": 367, "homepage": "https://clawhub.ai/wangzhiming1999/felo-slides", "iconUrl": null, "installs": 76, "name": "Felo Slides", "ownerName": "wangzhiming1999", "score": 86966.82464454976, "slug": "felo-slides", "source": "clawhub", "stars": 0, "tags": null, "updated_at": 1776759120919, "version": "1.0.0"}, {"category": "developer-tools", "created_at": 1772797094021, "description": "Deploy multilingual static websites on Cloudflare with Astro using markdown sources, supporting i18n, free hosting, and Git-based or direct deployment.", "description_zh": "", "downloads": 367, "homepage": "https://clawhub.ai/bezkom/astro", "iconUrl": null, "installs": 16, "name": "Astro", "ownerName": "bezkom", "score": 86966.82464454976, "slug": "astro", "source": "clawhub", "stars": 0, "tags": null, "updated_at": 1776759120914, "version": "1.0.1"}, {"category": "developer-tools", "created_at": 1772795373251, "description": "Build new MCP Apps (MCP servers with React UI output) using @modelcontextprotocol/ext-apps and the MCP SDK. Use when asked to scaffold or implement MCP App s...", "description_zh": "", "downloads": 367, "homepage": "https://clawhub.ai/hollaugo/mcp-app-builder", "iconUrl": null, "installs": 8, "name": "Mcp App Builder", "ownerName": "hollaugo", "score": 86966.82464454976, "slug": "mcp-app-builder", "source": "clawhub", "stars": 0, "tags": null, "updated_at": 1776759120900, "version": "0.1.0"}, {"category": "developer-tools", "created_at": 1772794501660, "description": "Automates logging of deployments, incidents, changes, and decisions into a searchable ops journal with incident timelines and postmortem generation.", "description_zh": "", "downloads": 367, "homepage": "https://clawhub.ai/mariusfit/ops-journal", "iconUrl": null, "installs": 9, "name": "ops-journal", "ownerName": "mariusfit", "score": 27165.062916358253, "slug": "ops-journal", "source": "clawhub", "stars": 0, "tags": ["devops", "incidents", "logging", "ops", "postmortem", "sre"], "updated_at": 1776759120887, "version": "1.0.0"}, {"category": "content-creation", "created_at": 1772799407716, "description": "Generates complete React Next.js projects from requirements and UI designs using Ant Design, Tailwind CSS, and Zustand for state management.", "description_zh": "", "downloads": 367, "homepage": "https://clawhub.ai/batype/react-nextjs-generator", "iconUrl": null, "installs": 46, "name": "React Nextjs Generator", "ownerName": "batype", "score": 27165.062916358253, "slug": "react-nextjs-generator", "source": "clawhub", "stars": 0, "tags": null, "updated_at": 1776759120864, "version": "1.0.0"}, {"category": "productivity", "created_at": 1772792824602, "description": "Superviseur automatique surveillant CPU, RAM, Docker, et sites, avec redémarrage automatique des services en panne.", "description_zh": "", "downloads": 367, "homepage": "https://clawhub.ai/mrnsmh/supervisorclaw", "iconUrl": null, "installs": 10, "name": "superviser ressources", "ownerName": "mrnsmh", "score": 27165.062916358253, "slug": "supervisorclaw", "source": "clawhub", "stars": 0, "tags": ["first edition"], "updated_at": 1776759120857, "version": "1.0.0"}, {"category": "ai-intelligence", "created_at": 1773060971959, "description": "AI trading memory for MT5/forex traders. Record every trade, discover patterns, and get AI-powered reflections with automatic strategy adjustments. The only...", "description_zh": "", "downloads": 367, "homepage": "https://clawhub.ai/zychenpeng/tradememory", "iconUrl": null, "installs": 67, "name": "TradeMemory Protocol", "ownerName": "zychenpeng", "score": 65770.60931899642, "slug": "tradememory", "source": "clawhub", "stars": 0, "tags": ["ai", "forex", "mcp", "mt5", "trading"], "updated_at": 1776748505118, "version": "0.3.2"}, {"category": "security-compliance", "created_at": 1773431696622, "description": "AI compliance and policy engine — evaluate scan results against 14 security frameworks including OWASP LLM Top 10, NIST AI RMF, SOC 2, ISO 27001, CMMC, EU AI...", "description_zh": "", "downloads": 367, "homepage": "https://clawhub.ai/msaad00/agent-bom-compliance", "iconUrl": null, "installs": 4, "name": "agent-bom compliance", "ownerName": "msaad00", "score": 81919.64285714286, "slug": "agent-bom-compliance", "source": "clawhub", "stars": 0, "tags": null, "updated_at": 1776748505027, "version": "0.75.8"}, {"category": "developer-tools", "created_at": 1772792050762, "description": "Text-to-Speech and Speech-to-Text integration using Resemble AI HTTP API.", "description_zh": "", "downloads": 367, "homepage": "https://clawhub.ai/adriano-vr/ressemble", "iconUrl": null, "installs": 9, "name": "Ressemble TTS e STT", "ownerName": "adriano-vr", "score": 81919.64285714286, "slug": "ressemble", "source": "clawhub", "stars": 0, "tags": null, "updated_at": 1776748505000, "version": "1.0.1"}]}