{"page": 221, "total_pages": 522, "total": 26073, "skills": [{"category": "developer-tools", "created_at": 1772790889222, "description": "Grid-aware energy load shifter for Home Assistant. Reads real-time electricity prices (TOU, time-of-use, dynamic pricing), solar production forecasts, batter...", "description_zh": "", "downloads": 367, "homepage": "https://clawhub.ai/mrbese/grid-aware-energy-load-shifter", "iconUrl": null, "installs": 13, "name": "Grid-Aware Energy Load Shifter", "ownerName": "mrbese", "score": 89950.98039215687, "slug": "grid-aware-energy-load-shifter", "source": "clawhub", "stars": 0, "tags": ["latest energy home_asistant ha", "latest energy home-assistant"], "updated_at": 1776748504937, "version": "1.0.3"}, {"category": "productivity", "created_at": 1772788631501, "description": "Voc namespace for Netsnek e.U. vocabulary and language learning tools", "description_zh": "", "downloads": 367, "homepage": "https://clawhub.ai/kleberbaum/voc", "iconUrl": null, "installs": 11, "name": "voc", "ownerName": "kleberbaum", "score": 89950.98039215687, "slug": "voc", "source": "clawhub", "stars": 0, "tags": null, "updated_at": 1776748504925, "version": "0.1.0"}, {"category": "developer-tools", "created_at": 1772803804333, "description": "Gateway universal para APIs. Conecta cualquier API REST/GraphQL con configuración simple. Gestiona autenticación, rate limiting y caching.", "description_zh": "", "downloads": 367, "homepage": "https://clawhub.ai/miguelguerra200022-sudo/api-gateway-zito", "iconUrl": null, "installs": 21, "name": "Api Gateway", "ownerName": "miguelguerra200022-sudo", "score": 89950.98039215687, "slug": "api-gateway-zito", "source": "clawhub", "stars": 0, "tags": null, "updated_at": 1776748504892, "version": "1.0.0"}, {"category": "content-creation", "created_at": 1773074945650, "description": "Automated WordPress blog publishing with scheduling", "description_zh": "", "downloads": 367, "homepage": "https://clawhub.ai/wespeakallday/blog-automation", "iconUrl": null, "installs": 72, "name": "WordPress Blog Automation", "ownerName": "wespeakallday", "score": 78418.80341880342, "slug": "blog-automation", "source": "clawhub", "stars": 0, "tags": null, "updated_at": 1776748504856, "version": "1.0.1"}, {"category": "security-compliance", "created_at": 1772791877109, "description": "Full suite for TokenDraft fantasy crypto tournaments — authenticate with a Solana wallet, query/join/auto-join tournaments, and manage auto-draft asset prior...", "description_zh": "", "downloads": 366, "homepage": "https://clawhub.ai/nikzt/tokendraft", "iconUrl": null, "installs": 11, "name": "TokenDraft", "ownerName": "nikzt", "score": 29635.036496350363, "slug": "tokendraft", "source": "clawhub", "stars": 2, "tags": null, "updated_at": 1776759083175, "version": "1.0.1"}, {"category": "data-analysis", "created_at": 1772792624883, "description": "Analyze OpenClaw costs and detect billing issues. Source code is fully bundled — nothing is fetched at runtime. Requires only the node binary.", "description_zh": "", "downloads": 366, "homepage": "https://clawhub.ai/echoudhry/clawculator", "iconUrl": null, "installs": 16, "name": "Clawculator", "ownerName": "echoudhry", "score": 82478.63247863247, "slug": "clawculator", "source": "clawhub", "stars": 1, "tags": null, "updated_at": 1776748504885, "version": "1.2.1"}, {"category": "ai-intelligence", "created_at": 1772796244439, "description": "Monitors OpenClaw cron job health, identifies failures, timeouts, and delivery issues.", "description_zh": "", "downloads": 366, "homepage": "https://clawhub.ai/runeweaverstudios/cron-health-check", "iconUrl": null, "installs": 21, "name": "Cron Health Check", "ownerName": "runeweaverstudios", "score": 11484.1543771572, "slug": "cron-health-check", "source": "clawhub", "stars": 0, "tags": null, "updated_at": 1776768071121, "version": "1.0.0"}, {"category": "content-creation", "created_at": 1773066002718, "description": "Operate the ClawShop Web API for Taobao/Goofish product posts. Use when an agent needs to register or rotate write tokens, create or update or delete own pos...", "description_zh": "", "downloads": 366, "homepage": "https://clawhub.ai/qsgy/clawshop", "iconUrl": null, "installs": 89, "name": "clawshop", "ownerName": "qsgy", "score": 20010.93493712411, "slug": "clawshop", "source": "clawhub", "stars": 0, "tags": null, "updated_at": 1776764949744, "version": "1.0.0"}, {"category": "content-creation", "created_at": 1772800301295, "description": "Search codebase contents, filenames, or directory structures using ripgrep, fd, and tree with filters for file types, context, depth, and result limits.", "description_zh": "", "downloads": 366, "homepage": "https://clawhub.ai/yanxingang/code-search", "iconUrl": null, "installs": 16, "name": "Code Search", "ownerName": "yanxingang", "score": 27191.679049034174, "slug": "code-search", "source": "clawhub", "stars": 0, "tags": null, "updated_at": 1776759124469, "version": "1.0.0"}, {"category": "productivity", "created_at": 1772791539339, "description": "Automatically generates Terraform modules from existing cloud infrastructure resources with intelligent resource detection and best-practice code formatting.", "description_zh": "", "downloads": 366, "homepage": "https://clawhub.ai/root/neo-tf-module-generator", "iconUrl": null, "installs": 0, "name": "Skill", "ownerName": "root", "score": 86729.85781990521, "slug": "neo-tf-module-generator", "source": "clawhub", "stars": 0, "tags": null, "updated_at": 1776759124426, "version": "1.0.1"}, {"category": "developer-tools", "created_at": 1772794116166, "description": "Render Aavegotchi assets by deriving renderer hashes from Goldsky Base core data and calling POST /api/renderer/batch on www.aavegotchi.com. Use when the use...", "description_zh": "", "downloads": 366, "homepage": "https://clawhub.ai/cinnabarhorse/aavegotchi-renderer-bypass", "iconUrl": null, "installs": 7, "name": "Aavegotchi Renderer Bypass", "ownerName": "cinnabarhorse", "score": 86729.85781990521, "slug": "aavegotchi-renderer-bypass", "source": "clawhub", "stars": 0, "tags": null, "updated_at": 1776759121334, "version": "0.1.0"}, {"category": "data-analysis", "created_at": 1772793771568, "description": "Automates hourly OpenClaw workspace backups with SQLite database export, optional NAS sync via rsync, and GitHub version control commits and pushes.", "description_zh": "", "downloads": 366, "homepage": "https://clawhub.ai/lancelot3777-svg/openclaw-backup-guide", "iconUrl": null, "installs": 12, "name": "openclaw-backup-guide", "ownerName": "lancelot3777-svg", "score": 86729.85781990521, "slug": "openclaw-backup-guide", "source": "clawhub", "stars": 0, "tags": null, "updated_at": 1776759120917, "version": "1.0.0"}, {"category": "data-analysis", "created_at": 1773895804945, "description": "Use AKShare Python library to access authoritative real-time and historical financial data for stocks, futures, options, funds, forex, bonds, and crypto mark...", "description_zh": "", "downloads": 366, "homepage": "https://clawhub.ai/anyjohn/akshare-skill", "iconUrl": null, "installs": 154, "name": "Akshare Skill", "ownerName": "anyjohn", "score": 86729.85781990521, "slug": "akshare-skill", "source": "clawhub", "stars": 0, "tags": null, "updated_at": 1776759120915, "version": "0.1.0"}, {"category": "data-analysis", "created_at": 1772791940478, "description": "Provides daily accountability coaching with two modes: supportive encouragement or savage roasts, mixing humor and motivation to boost habit consistency.", "description_zh": "", "downloads": 366, "homepage": "https://clawhub.ai/ryudi84/sovereign-roast-coach", "iconUrl": null, "installs": 9, "name": "Savage Roast Coach — Accountability with Attitude", "ownerName": "ryudi84", "score": 86729.85781990521, "slug": "sovereign-roast-coach", "source": "clawhub", "stars": 0, "tags": ["accountability", "coach", "humor", "motivation", "roast"], "updated_at": 1776759120905, "version": "1.0.0"}, {"category": "developer-tools", "created_at": 1773931149694, "description": "Provides a Python client to query stock positions, account info, place orders, and retrieve market data using the Futu OpenAPI.", "description_zh": "", "downloads": 366, "homepage": "https://clawhub.ai/xdl2003/futu-client", "iconUrl": null, "installs": 19, "name": "Futu Client", "ownerName": "xdl2003", "score": 27091.043671354553, "slug": "futu-client", "source": "clawhub", "stars": 0, "tags": null, "updated_at": 1776759120862, "version": "1.0.1"}, {"category": "data-analysis", "created_at": 1773284017371, "description": "Professional quantitative investment analysis frameworks and methodologies based on TradingView data structures. Use when users ask about stock analysis, tec...", "description_zh": "", "downloads": 366, "homepage": "https://clawhub.ai/ljsd666/openclaw-tradingview-quant", "iconUrl": null, "installs": 100, "name": "Openclaw Tradingview Quant", "ownerName": "ljsd666", "score": 24530.83109919571, "slug": "openclaw-tradingview-quant", "source": "clawhub", "stars": 0, "tags": null, "updated_at": 1776757920436, "version": "0.1.1"}, {"category": "productivity", "created_at": 1773083139221, "description": "Handle HR workflows — onboarding, announcements, and employee comms.", "description_zh": "", "downloads": 366, "homepage": "https://clawhub.ai/googleworkspace-bot/persona-hr-coordinator", "iconUrl": null, "installs": 18, "name": "Persona Hr Coordinator", "ownerName": "googleworkspace-bot", "score": 66064.98194945848, "slug": "persona-hr-coordinator", "source": "clawhub", "stars": 0, "tags": null, "updated_at": 1776755588828, "version": "1.0.10"}, {"category": "developer-tools", "created_at": 1773081225205, "description": "Financial leadership for startups and scaling companies. Financial modeling, unit economics, fundraising strategy, cash management, and board financial packa...", "description_zh": "", "downloads": 366, "homepage": "https://clawhub.ai/alirezarezvani/cfo-advisor", "iconUrl": null, "installs": 34, "name": "Cfo Advisor", "ownerName": "alirezarezvani", "score": 91044.77611940299, "slug": "cfo-advisor", "source": "clawhub", "stars": 0, "tags": null, "updated_at": 1776748505084, "version": "2.1.1"}, {"category": "content-creation", "created_at": 1772792486208, "description": "Wrapper skill for OpenClaw web_fetch results. Use when you need MECE post-processing on fetched pages: policy decision from Content-Signal, privacy redaction...", "description_zh": "", "downloads": 366, "homepage": "https://clawhub.ai/2233admin/markdown-browser", "iconUrl": null, "installs": 5, "name": "Markdown Browser", "ownerName": "2233admin", "score": 91044.77611940299, "slug": "markdown-browser", "source": "clawhub", "stars": 0, "tags": null, "updated_at": 1776748505045, "version": "1.0.0"}, {"category": "content-creation", "created_at": 1772792486208, "description": "Wrapper skill for OpenClaw web_fetch results. Use when you need MECE post-processing on fetched pages: policy decision from Content-Signal, privacy redaction...", "description_zh": "", "downloads": 366, "homepage": "https://clawhub.ai/2233admin/markdown-browser", "iconUrl": null, "installs": 5, "name": "Markdown Browser", "ownerName": "2233admin", "score": 81696.42857142857, "slug": "markdown-browser", "source": "clawhub", "stars": 0, "tags": null, "updated_at": 1776748505045, "version": "1.0.0"}, {"category": "security-compliance", "created_at": 1774618355615, "description": "Security-first skill vetting for AI agents. Use before installing any skill from ClawdHub, GitHub, or other sources. Checks for red flags, permission scope,...", "description_zh": "", "downloads": 366, "homepage": "https://clawhub.ai/cs995279497-byte/chen-skill-vetter", "iconUrl": null, "installs": 41, "name": "Chen Skill Vetter", "ownerName": "cs995279497-byte", "score": 81696.42857142857, "slug": "chen-skill-vetter", "source": "clawhub", "stars": 0, "tags": null, "updated_at": 1776748505022, "version": "1.0.0"}, {"category": "communication-collaboration", "created_at": 1773076279957, "description": "Monitor WooCommerce products for out-of-stock changes and send Telegram alerts. Run daily via cron.", "description_zh": "", "downloads": 366, "homepage": "https://clawhub.ai/zero2ai-hub/skill-woocommerce-stock-monitor", "iconUrl": null, "installs": 15, "name": "WooCommerce Stock Monitor", "ownerName": "zero2ai-hub", "score": 81696.42857142857, "slug": "skill-woocommerce-stock-monitor", "source": "clawhub", "stars": 0, "tags": null, "updated_at": 1776748504987, "version": "1.0.1"}, {"category": "productivity", "created_at": 1773221854266, "description": "Personal learning management system with goal setting, spaced repetition scheduling, and progress tracking. Use when: (1) setting learning goals and skill tr...", "description_zh": "", "downloads": 366, "homepage": "https://clawhub.ai/harrylabs0913/learning-planner", "iconUrl": null, "installs": 9, "name": "Learning Planner", "ownerName": "harrylabs0913", "score": 89705.88235294117, "slug": "learning-planner", "source": "clawhub", "stars": 0, "tags": null, "updated_at": 1776748504924, "version": "1.0.1"}, {"category": "productivity", "created_at": 1772795437982, "description": "Control Assimilate Live FX / SCRATCH — professional color grading, compositing, and virtual production software — via MCP. 88 tools across 14 categories.", "description_zh": "", "downloads": 366, "homepage": "https://clawhub.ai/ergopooka/assimilate-mcp", "iconUrl": null, "installs": 16, "name": "Assimilate MCP", "ownerName": "ergopooka", "score": 78205.1282051282, "slug": "assimilate-mcp", "source": "clawhub", "stars": 0, "tags": null, "updated_at": 1776748504856, "version": "1.0.0"}, {"category": "data-analysis", "created_at": 1772795608114, "description": "AI crypto market intelligence from Fía Signals. 65+ endpoints covering price predictions, technical analysis (RSI MACD EMA Bollinger), market sentiment, smar...", "description_zh": "", "downloads": 366, "homepage": "https://clawhub.ai/odds7/fia-signals-skill", "iconUrl": null, "installs": 50, "name": "Fía Signals", "ownerName": "odds7", "score": 78205.1282051282, "slug": "fia-signals-skill", "source": "clawhub", "stars": 0, "tags": null, "updated_at": 1776748504829, "version": "2.1.0"}, {"category": "ai-intelligence", "created_at": 1772793440945, "description": "Configure and operate a Ruby On Rails Agent Gateway integration from the OpenClaw side for briefing pull workflows. Use when setting up OpenClaw to read app...", "description_zh": "", "downloads": 365, "homepage": "https://clawhub.ai/jessewaites/ruby-on-rails-gateway", "iconUrl": null, "installs": 25, "name": "Ruby On Rails Gateway", "ownerName": "jessewaites", "score": 29433.139534883725, "slug": "ruby-on-rails-gateway", "source": "clawhub", "stars": 2, "tags": null, "updated_at": 1776759082923, "version": "1.0.0"}, {"category": "productivity", "created_at": 1772793247650, "description": "Manage lightweight Microsoft 365 task workflows with Microsoft To Do and Planner. Use when a user needs to quickly create, assign, track, and follow up opera...", "description_zh": "", "downloads": 365, "homepage": "https://clawhub.ai/abdelkrim/openclaw-skill-m365-task-manager-by-altf1be", "iconUrl": null, "installs": 16, "name": "Openclaw Skill M365 Task Manager", "ownerName": "abdelkrim", "score": 28497.409326424873, "slug": "openclaw-skill-m365-task-manager-by-altf1be", "source": "clawhub", "stars": 1, "tags": null, "updated_at": 1776759120512, "version": "0.1.2"}, {"category": "developer-tools", "created_at": 1773426612148, "description": "Converts X (Twitter) tweets and articles to markdown with YAML front matter. Uses reverse-engineered API requiring user consent. Use when user mentions \"X to...", "description_zh": "", "downloads": 365, "homepage": "https://clawhub.ai/jimliu/baoyu-danger-x-to-markdown", "iconUrl": null, "installs": 67, "name": "Baoyu Danger X To Markdown", "ownerName": "jimliu", "score": 1178.750201840788, "slug": "baoyu-danger-x-to-markdown", "source": "clawhub", "stars": 0, "tags": null, "updated_at": 1776770690553, "version": "1.60.0"}, {"category": "", "created_at": 1774773154707, "description": "Access and summarize public posts and stock data from Xueqiu for basic market insights without trading or bulk data extraction.", "description_zh": "", "downloads": 365, "homepage": "https://clawhub.ai/mike47512/xueqiu", "iconUrl": null, "installs": 98, "name": "Xueqiu", "ownerName": "mike47512", "score": 7057.23124516628, "slug": "xueqiu", "source": "clawhub", "stars": 0, "tags": null, "updated_at": 1776766490688, "version": "0.1.0"}, {"category": "ai-intelligence", "created_at": 1773218986087, "description": "The Autonomous Orchestration Framework (AOF). Defining the hierarchy, collaboration logic, and reward distribution for human-agent hybrid organizations and t...", "description_zh": "", "downloads": 365, "homepage": "https://clawhub.ai/agistack/team", "iconUrl": null, "installs": 24, "name": "Team", "ownerName": "agistack", "score": 14547.628537265844, "slug": "team", "source": "clawhub", "stars": 0, "tags": ["collaboration", "mgmt", "org", "swarm", "team"], "updated_at": 1776764949831, "version": "1.0.0"}, {"category": "developer-tools", "created_at": 1773075362485, "description": "Play in the RockPaperClaw PvP arena — wager chips, study opponents, and compete in Rock Paper Scissors matches against other AI agents. Use when an agent nee...", "description_zh": "", "downloads": 365, "homepage": "https://clawhub.ai/zhentan/rockpaperclaw", "iconUrl": null, "installs": 7, "name": "Rockpaperclaw", "ownerName": "zhentan", "score": 17632.850241545893, "slug": "rockpaperclaw", "source": "clawhub", "stars": 0, "tags": null, "updated_at": 1776764650605, "version": "1.11.0"}, {"category": "data-analysis", "created_at": 1773073139559, "description": "Fast stock valuation calculator - compute PEG, EV/EBITDA, Rule of 40, DCF and more with simple commands. Inspired by YouTube tutorial and Day1Global Tech Ear...", "description_zh": "", "downloads": 365, "homepage": "https://clawhub.ai/arbiger/valuation-calculator", "iconUrl": null, "installs": 24, "name": "Valuation Calculator", "ownerName": "arbiger", "score": 14795.297932711796, "slug": "valuation-calculator", "source": "clawhub", "stars": 0, "tags": null, "updated_at": 1776762590305, "version": "1.1.0"}, {"category": "data-analysis", "created_at": 1773061667223, "description": "Yahoo Finance API tabanlı tarihsel veri analizi, algoritmik teknik indikatör skoru (RSI, MACD, Stoch, SMA), Excel geçmiş veri dışa aktarma, portföy alarm tak...", "description_zh": "", "downloads": 365, "homepage": "https://clawhub.ai/nikolayco/yahoo-finance-bist", "iconUrl": null, "installs": 89, "name": "yahoo-finance-bist", "ownerName": "nikolayco", "score": 86492.89099526066, "slug": "yahoo-finance-bist", "source": "clawhub", "stars": 0, "tags": null, "updated_at": 1776759124437, "version": "1.0.0"}, {"category": "security-compliance", "created_at": 1772794048935, "description": "Provides unified access to Gmail, Google Calendar, and Drive APIs for managing emails, calendar events, and files with OAuth2 authentication.", "description_zh": "", "downloads": 365, "homepage": "https://clawhub.ai/cenralsolution/google-suite", "iconUrl": null, "installs": 10, "name": "Google Suite Skill", "ownerName": "cenralsolution", "score": 86492.89099526066, "slug": "google-suite", "source": "clawhub", "stars": 0, "tags": ["api", "automation", "calendar", "drive", "gmail", "google", "productivity"], "updated_at": 1776759124434, "version": "1.0.0"}, {"category": "developer-tools", "created_at": 1772802845607, "description": "Everyone's trading Polymarket with AI agents. Practice first — $10k paper money, real order books, zero risk. No wallet, no API keys, no real money. Then com...", "description_zh": "", "downloads": 365, "homepage": "https://clawhub.ai/robotlearning123/polymarket-paper-trader", "iconUrl": null, "installs": 25, "name": "Polymarket Paper Trader", "ownerName": "robotlearning123", "score": 23871.811641595814, "slug": "polymarket-paper-trader", "source": "clawhub", "stars": 0, "tags": null, "updated_at": 1776757733063, "version": "0.1.7"}, {"category": "content-creation", "created_at": 1772796374305, "description": "Generate or edit images through OpenRouter's multimodal image generation endpoint (`/api/v1/chat/completions`) using OpenRouter-compatible image models. Use...", "description_zh": "", "downloads": 365, "homepage": "https://clawhub.ai/bawerlacher/openrouter-image-generation", "iconUrl": null, "installs": 32, "name": "Openrouter Image Generation", "ownerName": "bawerlacher", "score": 90796.01990049751, "slug": "openrouter-image-generation", "source": "clawhub", "stars": 0, "tags": null, "updated_at": 1776748505109, "version": "1.0.0"}, {"category": "communication-collaboration", "created_at": 1772792296581, "description": "Manage Discord workspace structure and OpenClaw routing as code. Use when creating/renaming/deleting Discord channels, categories, threads, or managing agent...", "description_zh": "", "downloads": 365, "homepage": "https://clawhub.ai/ofan/disclaw", "iconUrl": null, "installs": 10, "name": "Disclaw", "ownerName": "ofan", "score": 90796.01990049751, "slug": "disclaw", "source": "clawhub", "stars": 0, "tags": null, "updated_at": 1776748505109, "version": "1.1.2"}, {"category": "developer-tools", "created_at": 1773426816309, "description": "Reference tool for devtools — covers intro, quickstart, patterns and more. Quick lookup for Notion Powertools concepts, best practices, and implementation pa...", "description_zh": "", "downloads": 365, "homepage": "https://clawhub.ai/xueyetianya/notion-powertools", "iconUrl": null, "installs": 21, "name": "Notion Powertools", "ownerName": "xueyetianya", "score": 90796.01990049751, "slug": "notion-powertools", "source": "clawhub", "stars": 0, "tags": null, "updated_at": 1776748505091, "version": "3.0.1"}, {"category": "data-analysis", "created_at": 1772790192348, "description": "Crea guías de compra SEO optimizadas para posts de afiliado en español. Úsala siempre que el usuario quiera escribir, generar o mejorar una guía de compra, c...", "description_zh": "", "downloads": 365, "homepage": "https://clawhub.ai/cmunozdev/seo-affiliate-guide", "iconUrl": null, "installs": 15, "name": "SEO Afiliate guide", "ownerName": "cmunozdev", "score": 90796.01990049751, "slug": "seo-affiliate-guide", "source": "clawhub", "stars": 0, "tags": null, "updated_at": 1776748505082, "version": "1.0.0"}, {"category": "developer-tools", "created_at": 1772789163056, "description": "Search historical entertainment, nightlife, and culture venues in Tel Aviv and Haifa from timemap.co.il. Bars, cafes, clubs, cinemas, food venues, performanc...", "description_zh": "", "downloads": 365, "homepage": "https://clawhub.ai/alexpolonsky/timemap", "iconUrl": null, "installs": 10, "name": "Timemap", "ownerName": "alexpolonsky", "score": 90796.01990049751, "slug": "timemap", "source": "clawhub", "stars": 0, "tags": null, "updated_at": 1776748505077, "version": "1.0.0"}, {"category": "developer-tools", "created_at": 1772804976782, "description": "Professional pre-deployment code review and quality enforcement. Ensures imports are valid, tags are closed, and logic follows best practices before announci...", "description_zh": "", "downloads": 365, "homepage": "https://clawhub.ai/balkanblbn/code-quality-guard", "iconUrl": null, "installs": 12, "name": "Code Quality Guard", "ownerName": "balkanblbn", "score": 90796.01990049751, "slug": "code-quality-guard", "source": "clawhub", "stars": 0, "tags": null, "updated_at": 1776748505065, "version": "1.0.0"}, {"category": "developer-tools", "created_at": 1772788884391, "description": "Run and interact with AI agents.", "description_zh": "", "downloads": 365, "homepage": "https://clawhub.ai/ieaves/ramalama-cli", "iconUrl": null, "installs": 5, "name": "RamaLama CLI", "ownerName": "ieaves", "score": 90796.01990049751, "slug": "ramalama-cli", "source": "clawhub", "stars": 0, "tags": null, "updated_at": 1776748505063, "version": "1.0.0"}, {"category": "security-compliance", "created_at": 1773290357731, "description": "Evaluate external skills before installation and decide whether to install, reject, or absorb only the useful ideas. Use when a user shares a ClawHub/GitHub...", "description_zh": "", "downloads": 365, "homepage": "https://clawhub.ai/g-hanasq/skill-shell", "iconUrl": null, "installs": 17, "name": "Skill Shell", "ownerName": "g-hanasq", "score": 90796.01990049751, "slug": "skill-shell", "source": "clawhub", "stars": 0, "tags": ["openclaw", "security", "workflow"], "updated_at": 1776748505044, "version": "0.2.2"}, {"category": "security-compliance", "created_at": 1773290357731, "description": "Evaluate external skills before installation and decide whether to install, reject, or absorb only the useful ideas. Use when a user shares a ClawHub/GitHub...", "description_zh": "", "downloads": 365, "homepage": "https://clawhub.ai/g-hanasq/skill-shell", "iconUrl": null, "installs": 17, "name": "Skill Shell", "ownerName": "g-hanasq", "score": 81473.21428571429, "slug": "skill-shell", "source": "clawhub", "stars": 0, "tags": ["openclaw", "security", "workflow"], "updated_at": 1776748505044, "version": "0.2.2"}, {"category": "security-compliance", "created_at": 1772790793810, "description": "Give your AI agents and automations their own GitHub (App) identity. Authenticate using GitHub Apps so every commit, PR, and action is attributed to the bot...", "description_zh": "", "downloads": 365, "homepage": "https://clawhub.ai/rmorse/ghapp", "iconUrl": null, "installs": 6, "name": "Github App Authentication", "ownerName": "rmorse", "score": 89460.7843137255, "slug": "ghapp", "source": "clawhub", "stars": 0, "tags": null, "updated_at": 1776748504943, "version": "0.1.5"}, {"category": "content-creation", "created_at": 1772792214143, "description": "Download audio from a GETTR post or streaming page and transcribe it locally with MLX Whisper on Apple Silicon (with timestamps via VTT). Use when given a GE...", "description_zh": "", "downloads": 365, "homepage": "https://clawhub.ai/kevin37li/gettr-transcribe", "iconUrl": null, "installs": 34, "name": "Gettr Transcribe", "ownerName": "kevin37li", "score": 77991.45299145298, "slug": "gettr-transcribe", "source": "clawhub", "stars": 0, "tags": ["gettr", "transcription", "video", "whisper"], "updated_at": 1776748504872, "version": "1.0.1"}, {"category": "productivity", "created_at": 1773069787852, "description": "Google Calendar: Create a new event.", "description_zh": "", "downloads": 365, "homepage": "https://clawhub.ai/googleworkspace-bot/gws-calendar-insert", "iconUrl": null, "installs": 20, "name": "Gws Calendar Insert", "ownerName": "googleworkspace-bot", "score": 77991.45299145298, "slug": "gws-calendar-insert", "source": "clawhub", "stars": 0, "tags": null, "updated_at": 1776748504865, "version": "1.0.11"}, {"category": "productivity", "created_at": 1773426313612, "description": "Perform web searches using various search engines and APIs.", "description_zh": "", "downloads": 364, "homepage": "https://clawhub.ai/roryyu/websearch-free-skill", "iconUrl": null, "installs": 128, "name": "Websearch", "ownerName": "roryyu", "score": 13372.520205731082, "slug": "websearch-free-skill", "source": "clawhub", "stars": 0, "tags": null, "updated_at": 1776769571280, "version": "0.1.0"}, {"category": "developer-tools", "created_at": 1773430134840, "description": "Reference tool for devtools — covers intro, quickstart, patterns and more. Quick lookup for Terraform Helper concepts, best practices, and implementation pat...", "description_zh": "", "downloads": 364, "homepage": "https://clawhub.ai/ckchzh/terraform-helper", "iconUrl": null, "installs": 6, "name": "Terraform Helper", "ownerName": "ckchzh", "score": 14213.197969543147, "slug": "terraform-helper", "source": "clawhub", "stars": 0, "tags": ["productivity"], "updated_at": 1776762315151, "version": "3.0.1"}, {"category": "developer-tools", "created_at": 1772793542968, "description": "Generate and persist reusable persona panels (persona_set artifacts) for consensus decision workflows. This skill initializes evaluator diversity for downstr...", "description_zh": "", "downloads": 364, "homepage": "https://clawhub.ai/kaicianflone/consensus-persona-generator", "iconUrl": null, "installs": 5, "name": "consensus-persona-generator", "ownerName": "kaicianflone", "score": 86255.92417061611, "slug": "consensus-persona-generator", "source": "clawhub", "stars": 0, "tags": null, "updated_at": 1776759124423, "version": "1.1.14"}]}