{"page": 222, "total_pages": 522, "total": 26073, "skills": [{"category": "developer-tools", "created_at": 1773066279155, "description": "Comprehensive travel itinerary generator that creates detailed, multi-day trip plans with automatic weather forecasts, points of interest, restaurant recomme...", "description_zh": "", "downloads": 364, "homepage": "https://clawhub.ai/rachelchoo1212/travel-itinerary-builder", "iconUrl": null, "installs": 17, "name": "Travel Itinerary Builder", "ownerName": "rachelchoo1212", "score": 24931.50684931507, "slug": "travel-itinerary-builder", "source": "clawhub", "stars": 0, "tags": null, "updated_at": 1776758482248, "version": "1.0.2"}, {"category": "developer-tools", "created_at": 1772796604224, "description": "Plan reproducible ML experiment runs with explicit parameters, metrics, and artifacts. Use before model training to standardize tracking-ready experiment def...", "description_zh": "", "downloads": 364, "homepage": "https://clawhub.ai/0x-professor/ml-experiment-tracker", "iconUrl": null, "installs": 15, "name": "Ml Experiment Tracker", "ownerName": "0x-professor", "score": 63747.8108581436, "slug": "ml-experiment-tracker", "source": "clawhub", "stars": 0, "tags": null, "updated_at": 1776753583928, "version": "0.1.0"}, {"category": "security-compliance", "created_at": 1773078785214, "description": "Debug and troubleshoot common issues with the Orderly SDK including errors, WebSocket issues, authentication problems, and trading failures.", "description_zh": "", "downloads": 364, "homepage": "https://clawhub.ai/tarnadas/orderly-sdk-debugging", "iconUrl": null, "installs": 5, "name": "Orderly Sdk Debugging", "ownerName": "tarnadas", "score": 65232.97491039427, "slug": "orderly-sdk-debugging", "source": "clawhub", "stars": 0, "tags": null, "updated_at": 1776748505115, "version": "1.0.0"}, {"category": "developer-tools", "created_at": 1773068926022, "description": "Helps merchants spot viral hits on social (e.g. TikTok fidget toys, visual jewelry) and gives fast selection and testing advice. Trigger when users ask \"what...", "description_zh": "", "downloads": 364, "homepage": "https://clawhub.ai/rijoyai/viral-trend-catcher", "iconUrl": null, "installs": 16, "name": "Viral Trend Catcher", "ownerName": "rijoyai", "score": 90547.26368159204, "slug": "viral-trend-catcher", "source": "clawhub", "stars": 0, "tags": null, "updated_at": 1776748505093, "version": "0.1.2"}, {"category": "developer-tools", "created_at": 1772792764819, "description": "Upload files to lmfiles.com and return public download links via API. Use when a user wants CLI-based file hosting, quick share links, bot-accessible file up...", "description_zh": "", "downloads": 364, "homepage": "https://clawhub.ai/setdemos/lmfiles", "iconUrl": null, "installs": 4, "name": "LMFiles", "ownerName": "setdemos", "score": 90547.26368159204, "slug": "lmfiles", "source": "clawhub", "stars": 0, "tags": ["api", "files", "openclaw", "verified"], "updated_at": 1776748505075, "version": "1.0.2"}, {"category": "communication-collaboration", "created_at": 1773042942792, "description": "Run local clawusage monitoring commands from chat (Telegram/Feishu). Use when user types `/clawusage ...` or asks to check Codex usage, enable/disable auto i...", "description_zh": "", "downloads": 364, "homepage": "https://clawhub.ai/fantasyengineercdream/clawusage-windows-hardlock", "iconUrl": null, "installs": 30, "name": "ClawUsage Windows Hardlock", "ownerName": "fantasyengineercdream", "score": 90547.26368159204, "slug": "clawusage-windows-hardlock", "source": "clawhub", "stars": 0, "tags": ["openclaw", "windows"], "updated_at": 1776748505072, "version": "0.2.1"}, {"category": "ai-intelligence", "created_at": 1772791647752, "description": "This skill should be used when the user asks to \"compress context\", \"summarize conversation history\", \"implement compaction\", \"reduce token usage\", or mentio...", "description_zh": "", "downloads": 364, "homepage": "https://clawhub.ai/lidekahdjdhdhsjjs-lang/hz-context-optimizer", "iconUrl": null, "installs": 14, "name": "Huizai Context Optimizer", "ownerName": "lidekahdjdhdhsjjs-lang", "score": 89215.6862745098, "slug": "hz-context-optimizer", "source": "clawhub", "stars": 0, "tags": ["context", "openclaw", "optimization", "token"], "updated_at": 1776748504917, "version": "1.0.0"}, {"category": "data-analysis", "created_at": 1772790011071, "description": "Analyze, organize, and clean browser bookmarks on macOS using on-disk bookmark and history files. Detects duplicates, stale bookmarks, tracking parameters, a...", "description_zh": "", "downloads": 364, "homepage": "https://clawhub.ai/makkoncept/browser-bookmarks-cleanup", "iconUrl": null, "installs": 14, "name": "Browser Bookmarks Cleanup", "ownerName": "makkoncept", "score": 89215.6862745098, "slug": "browser-bookmarks-cleanup", "source": "clawhub", "stars": 0, "tags": null, "updated_at": 1776748504908, "version": "1.0.0"}, {"category": "developer-tools", "created_at": 1772799845042, "description": "Entry point for the Elytro wallet skill plus the curated DeFi sub-skills. Start here before loading any individual protocol skill.", "description_zh": "", "downloads": 364, "homepage": "https://clawhub.ai/codeexplorer29/elytro-cli", "iconUrl": null, "installs": 3, "name": "Elytro Smart Account CLI", "ownerName": "codeexplorer29", "score": 77777.77777777778, "slug": "elytro-cli", "source": "clawhub", "stars": 0, "tags": null, "updated_at": 1776748504805, "version": "1.0.2"}, {"category": "data-analysis", "created_at": 1772793727136, "description": "Search the web using SerpAPI with customizable engines (Google, Google AI Mode, Bing, etc.). Use when user needs web search results via SerpAPI.", "description_zh": "", "downloads": 363, "homepage": "https://clawhub.ai/lsl001006/web-search-with-serpapi", "iconUrl": null, "installs": 25, "name": "WebSearch with SerpApi", "ownerName": "lsl001006", "score": 5224.944898223778, "slug": "web-search-with-serpapi", "source": "clawhub", "stars": 2, "tags": null, "updated_at": 1776765850087, "version": "1.0.0"}, {"category": "security-compliance", "created_at": 1772800589816, "description": "Social media copywriting and distillation skill. Transforms any news, dev logs, or external articles into high-engagement, opinionated tech posts with authen...", "description_zh": "", "downloads": 363, "homepage": "https://clawhub.ai/hacksing/social-writer", "iconUrl": null, "installs": 19, "name": "social-writer", "ownerName": "hacksing", "score": 100000, "slug": "social-writer", "source": "clawhub", "stars": 1, "tags": null, "updated_at": 1776749869629, "version": "1.0.0"}, {"category": "developer-tools", "created_at": 1772799285645, "description": "Generate CS2 highlights and fragmovies from demos using the Demo-Slap API, with optional Leetify integration and Demo-Slap match history fallback to select r...", "description_zh": "", "downloads": 363, "homepage": "https://clawhub.ai/damirikys/demo-slap", "iconUrl": null, "installs": 4, "name": "Demo Slap", "ownerName": "damirikys", "score": 81837.60683760683, "slug": "demo-slap", "source": "clawhub", "stars": 1, "tags": null, "updated_at": 1776748504888, "version": "1.0.1"}, {"category": "developer-tools", "created_at": 1773289857005, "description": "DEX aggregation reference — routing algorithms, 1inch Fusion mode, CowSwap batch auctions, sandwich attack protection, and swap API endpoints", "description_zh": "", "downloads": 363, "homepage": "https://clawhub.ai/bytesagain1/dex-aggregator", "iconUrl": null, "installs": 6, "name": "Dex Aggregator", "ownerName": "bytesagain1", "score": 3516.7603177678743, "slug": "dex-aggregator", "source": "clawhub", "stars": 0, "tags": ["chinese", "productivity"], "updated_at": 1776766149739, "version": "4.0.0"}, {"category": "data-analysis", "created_at": 1772800716063, "description": "Generate A-share daily review report (stock-analysis/daily_review.py). Supports --email.", "description_zh": "", "downloads": 363, "homepage": "https://clawhub.ai/cnxufei-tech/daily-review-assistant", "iconUrl": null, "installs": 42, "name": "Daily Review Assistant", "ownerName": "cnxufei-tech", "score": 5876.639145216124, "slug": "daily-review-assistant", "source": "clawhub", "stars": 0, "tags": null, "updated_at": 1776765850076, "version": "1.0.0"}, {"category": "content-creation", "created_at": 1772790746145, "description": "Manage backlogs, write user stories, define acceptance criteria, and maximize product value.", "description_zh": "", "downloads": 363, "homepage": "https://clawhub.ai/ivangdavila/product-owner", "iconUrl": null, "installs": 23, "name": "Product Owner", "ownerName": "ivangdavila", "score": 3819.8463643060086, "slug": "product-owner", "source": "clawhub", "stars": 0, "tags": null, "updated_at": 1776763750436, "version": "1.0.1"}, {"category": "productivity", "created_at": 1773078850966, "description": "Expert 10x engineer with extensive knowledge of TypeScript fundamentals, migration strategies, and best practices. Use when asked to \"add TypeScript\", \"migra...", "description_zh": "", "downloads": 363, "homepage": "https://clawhub.ai/jhauga/typescript-coder", "iconUrl": null, "installs": 14, "name": "TypeScript Coder", "ownerName": "jhauga", "score": 11287.313432835821, "slug": "typescript-coder", "source": "clawhub", "stars": 0, "tags": null, "updated_at": 1776761990018, "version": "3.0.0"}, {"category": "security-compliance", "created_at": 1772795711162, "description": "Performs thorough format validation, content quality assessment, and functional verification of OpenClaw skills for compliance and completeness.", "description_zh": "", "downloads": 363, "homepage": "https://clawhub.ai/ykaixu/skill-reviewer-pro", "iconUrl": null, "installs": 9, "name": "Skill Reviewer Pro", "ownerName": "ykaixu", "score": 9189.87341772152, "slug": "skill-reviewer-pro", "source": "clawhub", "stars": 0, "tags": null, "updated_at": 1776761880330, "version": "2.1.1"}, {"category": "developer-tools", "created_at": 1772796183531, "description": "Skill for Solana development using rent-free primitives from Light Protocol. Covers client development (TypeScript, Rust) and program development (Rust) acro...", "description_zh": "", "downloads": 363, "homepage": "https://clawhub.ai/tilo-14/solana-dev-rent-free", "iconUrl": null, "installs": 16, "name": "solana-dev-rent-free", "ownerName": "tilo-14", "score": 26928.78338278932, "slug": "solana-dev-rent-free", "source": "clawhub", "stars": 0, "tags": null, "updated_at": 1776759197922, "version": "1.0.8"}, {"category": "data-analysis", "created_at": 1772800358684, "description": "Provides pay-per-query Bitcoin market data, alerts, and analysis via Lightning Network without API keys or subscriptions.", "description_zh": "", "downloads": 363, "homepage": "https://clawhub.ai/fr0zen80/derek-bitcoin-intel", "iconUrl": null, "installs": 23, "name": "Bitcoin Market Intelligence", "ownerName": "fr0zen80", "score": 26968.796433878157, "slug": "derek-bitcoin-intel", "source": "clawhub", "stars": 0, "tags": ["api", "bitcoin", "l402", "lightning", "market-intelligence"], "updated_at": 1776759124450, "version": "2.0.1"}, {"category": "security-compliance", "created_at": 1772789206760, "description": "Scan AI agent skills for security vulnerabilities — detects code injection, prompt injection, credential exfiltration, supply chain attacks, and 69+ threat p...", "description_zh": "", "downloads": 363, "homepage": "https://clawhub.ai/0xrapi/isnad-scan", "iconUrl": null, "installs": 9, "name": "isnad-scan", "ownerName": "0xrapi", "score": 81026.78571428571, "slug": "isnad-scan", "source": "clawhub", "stars": 0, "tags": null, "updated_at": 1776748505041, "version": "1.0.0"}, {"category": "communication-collaboration", "created_at": 1772793194653, "description": "Track GitHub repository releases and generate prioritized summaries. Supports multiple repos, custom priority keywords, and delivery to Discord (forum posts...", "description_zh": "", "downloads": 363, "homepage": "https://clawhub.ai/jo9900/release-tracker", "iconUrl": null, "installs": 11, "name": "Release Tracker", "ownerName": "jo9900", "score": 81026.78571428571, "slug": "release-tracker", "source": "clawhub", "stars": 0, "tags": null, "updated_at": 1776748505036, "version": "1.1.0"}, {"category": "security-compliance", "created_at": 1772791481520, "description": "Generate QuotLy-style stickers from forwarded messages and return one MEDIA path for auto-send. Use when users ask to create quote stickers from selected for...", "description_zh": "", "downloads": 363, "homepage": "https://clawhub.ai/sakullla/quotly-style-sticker", "iconUrl": null, "installs": 9, "name": "Quotly Style Sticker", "ownerName": "sakullla", "score": 81026.78571428571, "slug": "quotly-style-sticker", "source": "clawhub", "stars": 0, "tags": ["latest telegram sticker quote", "quote", "security", "sticker", "telegram"], "updated_at": 1776748504973, "version": "1.4.3"}, {"category": "security-compliance", "created_at": 1772793997076, "description": "Agents are not bots. PayClaw proves it — then lets them pay. UCP Credential Provider: Badge declares your agent as an authorized actor at any UCP-compliant m...", "description_zh": "", "downloads": 363, "homepage": "https://clawhub.ai/payclawinc/payclaw-io", "iconUrl": null, "installs": 7, "name": "Payclaw Io Pub", "ownerName": "payclawinc", "score": 88970.58823529411, "slug": "payclaw-io", "source": "clawhub", "stars": 0, "tags": null, "updated_at": 1776748504958, "version": "0.7.1"}, {"category": "productivity", "created_at": 1772792355565, "description": "Monitor Solana wallets with Kamino Lend positions for liquidation risk. Generates reports with collateral, debt, health metrics, liquidation prices, and acti...", "description_zh": "", "downloads": 363, "homepage": "https://clawhub.ai/csacanam/kamino-positions-monitor", "iconUrl": null, "installs": 7, "name": "Kamino Positions Monitor", "ownerName": "csacanam", "score": 88970.58823529411, "slug": "kamino-positions-monitor", "source": "clawhub", "stars": 0, "tags": null, "updated_at": 1776748504928, "version": "1.0.0"}, {"category": "productivity", "created_at": 1773078726735, "description": "Manage Google Meet conferences.", "description_zh": "", "downloads": 363, "homepage": "https://clawhub.ai/googleworkspace-bot/gws-meet", "iconUrl": null, "installs": 17, "name": "Gws Meet", "ownerName": "googleworkspace-bot", "score": 77564.10256410256, "slug": "gws-meet", "source": "clawhub", "stars": 0, "tags": null, "updated_at": 1776748504817, "version": "1.0.11"}, {"category": "developer-tools", "created_at": 1772793170387, "description": "Ansible playbooks and templates to deploy, manage, and update Solana RPC nodes on mainnet, testnet, and devnet with support for RPC, indexing, and gRPC.", "description_zh": "", "downloads": 362, "homepage": "https://clawhub.ai/poppin-fumi/slv-rpc", "iconUrl": null, "installs": 10, "name": "Slv Rpc", "ownerName": "poppin-fumi", "score": 32168.850072780202, "slug": "slv-rpc", "source": "clawhub", "stars": 4, "tags": ["ansible", "blockchain", "infrastructure", "rpc", "solana"], "updated_at": 1776759083642, "version": "0.10.2"}, {"category": "productivity", "created_at": 1774617679048, "description": "Provide best-practice coding conventions and generate standards-compliant TypeScript code.", "description_zh": "", "downloads": 362, "homepage": "https://clawhub.ai/wscats/typescript-skills", "iconUrl": null, "installs": 7, "name": "TypeScript", "ownerName": "wscats", "score": 23758.86524822695, "slug": "typescript-skills", "source": "clawhub", "stars": 2, "tags": null, "updated_at": 1776756188388, "version": "1.0.6"}, {"category": "data-analysis", "created_at": 1772793803909, "description": "Connect to Windsor.ai MCP for natural language access to 325+ data sources including Facebook Ads, GA4, HubSpot, Shopify, and more.", "description_zh": "", "downloads": 362, "homepage": "https://clawhub.ai/carlosarturoleon/windsor-ai", "iconUrl": null, "installs": 13, "name": "Windsor.ai Analytics", "ownerName": "carlosarturoleon", "score": 100000, "slug": "windsor-ai", "source": "clawhub", "stars": 2, "tags": null, "updated_at": 1776748505051, "version": "1.0.3"}, {"category": "content-creation", "created_at": 1772791716548, "description": "When user asks to repurpose content, convert blog to tweets, turn article into LinkedIn post, create Twitter thread from text, make Instagram caption from bl...", "description_zh": "", "downloads": 362, "homepage": "https://clawhub.ai/mkpareek0315/content-repurpose-pro", "iconUrl": null, "installs": 3, "name": "Content Repurposer", "ownerName": "mkpareek0315", "score": 85897.43589743589, "slug": "content-repurpose-pro", "source": "clawhub", "stars": 2, "tags": null, "updated_at": 1776748504887, "version": "1.1.0"}, {"category": "content-creation", "created_at": 1773073154383, "description": "Extract multilingual document content and language learning notes (French, German, Japanese, Spanish, etc.) from PDFs using multimodal vision (Qwen-VL-Max)....", "description_zh": "", "downloads": 362, "homepage": "https://clawhub.ai/mingensiie/universal-pdf-vision-parse", "iconUrl": null, "installs": 70, "name": "universal-pdf-vision-parser", "ownerName": "mingensiie", "score": 3076.923076923077, "slug": "universal-pdf-vision-parse", "source": "clawhub", "stars": 0, "tags": null, "updated_at": 1776769271251, "version": "1.0.0"}, {"category": "developer-tools", "created_at": 1773938328575, "description": "Redis - command-line tool for everyday use", "description_zh": "", "downloads": 362, "homepage": "https://clawhub.ai/bytesagain/redis", "iconUrl": null, "installs": 19, "name": "Redis", "ownerName": "bytesagain", "score": 7298.387096774193, "slug": "redis", "source": "clawhub", "stars": 0, "tags": null, "updated_at": 1776767649755, "version": "1.0.2"}, {"category": "developer-tools", "created_at": 1772792556108, "description": "Play Rock Paper Scissors on WatchOrFight — on-chain gaming with USDC stakes on Base", "description_zh": "", "downloads": 362, "homepage": "https://clawhub.ai/wof-developers/wof-rps", "iconUrl": null, "installs": 9, "name": "WatchOrfight - Rock, Paper, Scissor", "ownerName": "wof-developers", "score": 11892.247043363994, "slug": "wof-rps", "source": "clawhub", "stars": 0, "tags": null, "updated_at": 1776764650071, "version": "1.0.7"}, {"category": "content-creation", "created_at": 1772794254112, "description": "Continuously scans Docker images, dependencies, network ports, SSL/TLS, and OpenClaw config for CVEs; alerts via WhatsApp, Telegram, or Discord.", "description_zh": "", "downloads": 362, "homepage": "https://clawhub.ai/mariusfit/threat-radar", "iconUrl": null, "installs": 17, "name": "Threat Radar", "ownerName": "mariusfit", "score": 26914.498141263943, "slug": "threat-radar", "source": "clawhub", "stars": 0, "tags": null, "updated_at": 1776759197860, "version": "1.0.0"}, {"category": "developer-tools", "created_at": 1772792293337, "description": "Automated client qualification and intake system. Captures leads through conversational forms, scores them based on fit criteria, sends personalized auto-res...", "description_zh": "", "downloads": 362, "homepage": "https://clawhub.ai/kambrosgroup/client-intake-bot-pro", "iconUrl": null, "installs": 6, "name": "Client Intake Bot Pro", "ownerName": "kambrosgroup", "score": 90049.7512437811, "slug": "client-intake-bot-pro", "source": "clawhub", "stars": 0, "tags": null, "updated_at": 1776748505098, "version": "1.0.0"}, {"category": "security-compliance", "created_at": 1773430407497, "description": "AI runtime security monitoring — context graph analysis, runtime audit log correlation with CVE findings, and vulnerability analytics queries. Use when the u...", "description_zh": "", "downloads": 362, "homepage": "https://clawhub.ai/msaad00/agent-bom-runtime", "iconUrl": null, "installs": 7, "name": "agent-bom runtime", "ownerName": "msaad00", "score": 90049.7512437811, "slug": "agent-bom-runtime", "source": "clawhub", "stars": 0, "tags": null, "updated_at": 1776748505095, "version": "0.75.8"}, {"category": "data-analysis", "created_at": 1772792810529, "description": "Crypto funding rate arbitrage strategy. Scan negative funding rates, auto-trade with stop-loss/take-profit. No API key needed for scanning, Binance API for t...", "description_zh": "", "downloads": 362, "homepage": "https://clawhub.ai/dagangtj/funding-rate-trader", "iconUrl": null, "installs": 16, "name": "Funding Rate Trader", "ownerName": "dagangtj", "score": 90049.7512437811, "slug": "funding-rate-trader", "source": "clawhub", "stars": 0, "tags": null, "updated_at": 1776748505060, "version": "1.0.1"}, {"category": "content-creation", "created_at": 1773416734341, "description": "Design, optimize, and communicate SaaS pricing — tier structure, value metrics, pricing pages, and price increase strategy. Use when building a pricing model...", "description_zh": "", "downloads": 362, "homepage": "https://clawhub.ai/alirezarezvani/cs-pricing-strategy", "iconUrl": null, "installs": 34, "name": "pricing-strategy", "ownerName": "alirezarezvani", "score": 80803.57142857143, "slug": "cs-pricing-strategy", "source": "clawhub", "stars": 0, "tags": null, "updated_at": 1776748505030, "version": "1.0.0"}, {"category": "productivity", "created_at": 1772790029878, "description": "Comprehensive Greek individual tax return processing skill for employed individuals. Handles E1 form preparation, personal income tax calculations, deduction...", "description_zh": "", "downloads": 362, "homepage": "https://clawhub.ai/satoshistackalotto/greek-individual-taxes", "iconUrl": null, "installs": 8, "name": "Greek Individual Taxes", "ownerName": "satoshistackalotto", "score": 80803.57142857143, "slug": "greek-individual-taxes", "source": "clawhub", "stars": 0, "tags": null, "updated_at": 1776748504971, "version": "0.1.0"}, {"category": "productivity", "created_at": 1773219841106, "description": "Intent-based tool selection. Activate when you want to know which tools are relevant for the current user message (weather→exec, document→feishu_doc, search→...", "description_zh": "", "downloads": 362, "homepage": "https://clawhub.ai/peter7397/tooldyn", "iconUrl": null, "installs": 8, "name": "Dynamic Tool", "ownerName": "peter7397", "score": 88725.49019607843, "slug": "tooldyn", "source": "clawhub", "stars": 0, "tags": null, "updated_at": 1776748504956, "version": "1.0.0"}, {"category": "security-compliance", "created_at": 1772794583159, "description": "Bilingual security auditor for OpenClaw. 68 checks across 6 categories, 11 auto-fixes, OWASP Agentic AI Top 10 coverage, forensic detection, real-time threat...", "description_zh": "", "downloads": 362, "homepage": "https://clawhub.ai/jarb02/lobsterguard", "iconUrl": null, "installs": 9, "name": "LobsterGuard", "ownerName": "jarb02", "score": 77350.42735042736, "slug": "lobsterguard", "source": "clawhub", "stars": 0, "tags": null, "updated_at": 1776748504870, "version": "6.1.0"}, {"category": "ai-intelligence", "created_at": 1772791038144, "description": "One-time setup for ClawCoach AI health coaching. Configures your profile, goals, macro targets, dietary preferences, and coach personality.", "description_zh": "", "downloads": 362, "homepage": "https://clawhub.ai/authoredniko/clawcoach-setup", "iconUrl": null, "installs": 17, "name": "ClawCoach Setup", "ownerName": "authoredniko", "score": 77350.42735042736, "slug": "clawcoach-setup", "source": "clawhub", "stars": 0, "tags": ["coaching", "fitness", "health", "nutrition"], "updated_at": 1776748504866, "version": "1.0.1"}, {"category": "security-compliance", "created_at": 1772791241440, "description": "Helps validate the completeness and integrity of trust attestation chains in AI agent ecosystems. Identifies broken links, expired credentials, and missing v...", "description_zh": "", "downloads": 362, "homepage": "https://clawhub.ai/andyxinweiminicloud/attestation-chain-auditor", "iconUrl": null, "installs": 5, "name": "attestation-chain-auditor", "ownerName": "andyxinweiminicloud", "score": 77350.42735042736, "slug": "attestation-chain-auditor", "source": "clawhub", "stars": 0, "tags": null, "updated_at": 1776748504816, "version": "1.0.0"}, {"category": "developer-tools", "created_at": 1772793252207, "description": "Deploys and manages Solana validators on mainnet and testnet using Ansible playbooks and Jinja2 templates for multiple validator types including jito, agave,...", "description_zh": "", "downloads": 361, "homepage": "https://clawhub.ai/poppin-fumi/slv-validator", "iconUrl": null, "installs": 8, "name": "Slv Validator", "ownerName": "poppin-fumi", "score": 76695.65217391304, "slug": "slv-validator", "source": "clawhub", "stars": 4, "tags": ["ansible", "blockchain", "infrastructure", "solana", "validator"], "updated_at": 1776759082906, "version": "0.10.2"}, {"category": "content-creation", "created_at": 1772792320428, "description": "Join Botbook.space — the social network built for AI agents. Create a profile, post updates with hashtags and images, follow other agents, explore trending c...", "description_zh": "", "downloads": 361, "homepage": "https://clawhub.ai/lucasgeeksinthewood/meet-friends", "iconUrl": null, "installs": 28, "name": "Botbook — Meet Friends on the AI Agent Social Network", "ownerName": "lucasgeeksinthewood", "score": 98437.5, "slug": "meet-friends", "source": "clawhub", "stars": 4, "tags": ["agent-community", "agent-profiles", "ai-agents", "botbook", "comments", "feed", "follow", "friends", "hashtags", "meet-agents", "notifications", "posts", "social-network", "socialize"], "updated_at": 1776748504975, "version": "1.3.0"}, {"category": "productivity", "created_at": 1772791440467, "description": "Asynchronous shopping research + checkout using secure-autofill (1Password-backed browser filling) with results recorded to workspace artifacts.", "description_zh": "", "downloads": 361, "homepage": "https://clawhub.ai/moodykong/secure-shopper", "iconUrl": null, "installs": 11, "name": "Secure Shopper", "ownerName": "moodykong", "score": 28159.645232815965, "slug": "secure-shopper", "source": "clawhub", "stars": 1, "tags": null, "updated_at": 1776759120707, "version": "0.1.0"}, {"category": "developer-tools", "created_at": 1773056779886, "description": "Call 32 real-world APIs — flights, hotels, weather, crypto prices, DeFi yields, stock quotes, web search, geocoding, IP reputation, blockchain data, code exe...", "description_zh": "", "downloads": 361, "homepage": "https://clawhub.ai/marcelo-rowship/rwagenthub", "iconUrl": null, "installs": 25, "name": "Agenthub", "ownerName": "marcelo-rowship", "score": 94776.11940298507, "slug": "rwagenthub", "source": "clawhub", "stars": 1, "tags": null, "updated_at": 1776748505107, "version": "1.0.4"}, {"category": "developer-tools", "created_at": 1773838513803, "description": "Vedic astrology (Jyotish) REST API powered by Swiss Ephemeris. 26 endpoints: Panchanga, Kundali (300+ Yogas, Ashtakavarga, Shodhya Pinda, Doshas), KP system...", "description_zh": "", "downloads": 361, "homepage": "https://clawhub.ai/degen0root/panchanga-api", "iconUrl": null, "installs": 12, "name": "PanchangaAPI — Vedic Astrology", "ownerName": "degen0root", "score": 85044.64285714286, "slug": "panchanga-api", "source": "clawhub", "stars": 1, "tags": ["api", "astrology", "horoscope", "jyotish", "mcp", "prediction", "vedic"], "updated_at": 1776748504985, "version": "4.3.0"}, {"category": "developer-tools", "created_at": 1773084455076, "description": "Agent-first faction warfare kit for Torch Market. Game-semantic wrapper over torchsdk. The game IS the economy. There is no separate game engine — Torch Mark...", "description_zh": "", "downloads": 361, "homepage": "https://clawhub.ai/mrsirg97-rgb/pyreworld", "iconUrl": null, "installs": 22, "name": "Pyre World", "ownerName": "mrsirg97-rgb", "score": 5975.8318159245155, "slug": "pyreworld", "source": "clawhub", "stars": 0, "tags": null, "updated_at": 1776767649858, "version": "3.3.1"}, {"category": "developer-tools", "created_at": 1773954702353, "description": "Agent harness performance system for Claude Code and other AI coding agents — skills, instincts, memory, hooks, commands, and security scanning", "description_zh": "", "downloads": 361, "homepage": "https://clawhub.ai/adisinghstudent/everything-claude-code-harness", "iconUrl": null, "installs": 120, "name": "everything-claude-code-harness", "ownerName": "adisinghstudent", "score": 12828.713574982232, "slug": "everything-claude-code-harness", "source": "clawhub", "stars": 0, "tags": null, "updated_at": 1776765971382, "version": "1.0.0"}, {"category": "productivity", "created_at": 1773060321022, "description": "Automate provisioning and management of AWS, GCP, and Azure infrastructure using Terraform, Ansible, and CloudFormation templates.", "description_zh": "", "downloads": 361, "homepage": "https://clawhub.ai/sunshine-del-ux/cloud-infra-automation", "iconUrl": null, "installs": 10, "name": "Cloud Infra Automation", "ownerName": "sunshine-del-ux", "score": 10171.879402648632, "slug": "cloud-infra-automation", "source": "clawhub", "stars": 0, "tags": null, "updated_at": 1776763749751, "version": "1.0.0"}]}