{"page": 223, "total_pages": 522, "total": 26073, "skills": [{"category": "developer-tools", "created_at": 1772803984809, "description": "Curated skill bundle for e-commerce platforms, D2C brands and marketplace operators. Activates the firm pyramid with Marketing, Commercial, Operations and En...", "description_zh": "", "downloads": 361, "homepage": "https://clawhub.ai/romainsantoli-web/firm-ecommerce-pack", "iconUrl": null, "installs": 48, "name": "Firm Ecommerce Pack", "ownerName": "romainsantoli-web", "score": 12029.323558813729, "slug": "firm-ecommerce-pack", "source": "clawhub", "stars": 0, "tags": null, "updated_at": 1776761690119, "version": "1.0.0"}, {"category": "productivity", "created_at": 1772793419873, "description": "Autonomously monitors server health, optimizes resources, performs context-aware recovery, generates status reports, and triggers backups on critical file ch...", "description_zh": "", "downloads": 361, "homepage": "https://clawhub.ai/mrnsmh/nexus-sentinel", "iconUrl": null, "installs": 5, "name": "Nexus Sentinel", "ownerName": "mrnsmh", "score": 97567.56756756757, "slug": "nexus-sentinel", "source": "clawhub", "stars": 0, "tags": null, "updated_at": 1776759198166, "version": "0.1.3"}, {"category": "ai-intelligence", "created_at": 1773065469044, "description": "☤CaduceusMail lets your OpenClaw automate an enterprise-level communications stack with one domain/mailbox combo.", "description_zh": "", "downloads": 361, "homepage": "https://clawhub.ai/lmtlssss/caduceusmail", "iconUrl": null, "installs": 58, "name": "☤CaduceusMail", "ownerName": "lmtlssss", "score": 26800.29695619896, "slug": "caduceusmail", "source": "clawhub", "stars": 0, "tags": null, "updated_at": 1776759198096, "version": "3.6.7"}, {"category": "communication-collaboration", "created_at": 1772799766651, "description": "A skill to send emails with support for markdown, HTML text, and attachments, leveraging existing SMTP configuration in `{skill~}/smtp-config.json`. Includes...", "description_zh": "", "downloads": 361, "homepage": "https://clawhub.ai/xlbbb-cn/smtp-sender", "iconUrl": null, "installs": 14, "name": "smtp-sender", "ownerName": "xlbbb-cn", "score": 80580.35714285714, "slug": "smtp-sender", "source": "clawhub", "stars": 0, "tags": null, "updated_at": 1776748505042, "version": "1.0.2"}, {"category": "productivity", "created_at": 1772789658034, "description": "Navigate Seattle as visitor, resident, or tech worker with neighborhoods, transport, costs, weather, and local insights.", "description_zh": "", "downloads": 361, "homepage": "https://clawhub.ai/ivangdavila/seattle", "iconUrl": null, "installs": 14, "name": "Seattle", "ownerName": "ivangdavila", "score": 80580.35714285714, "slug": "seattle", "source": "clawhub", "stars": 0, "tags": null, "updated_at": 1776748504993, "version": "1.0.0"}, {"category": "content-creation", "created_at": 1773429743623, "description": "Reference tool for devtools — covers intro, guide, tips and more. Quick lookup for Video Toolbox concepts, best practices, and implementation patterns.", "description_zh": "", "downloads": 361, "homepage": "https://clawhub.ai/xueyetianya/video-toolbox", "iconUrl": null, "installs": 10, "name": "Video Toolbox", "ownerName": "xueyetianya", "score": 88480.39215686274, "slug": "video-toolbox", "source": "clawhub", "stars": 0, "tags": null, "updated_at": 1776748504912, "version": "4.0.1"}, {"category": "productivity", "created_at": 1773062109349, "description": "Auto context management with seamless session switching. Monitors usage, triggers at 85% threshold, automatically creates new session with loaded memory. Zer...", "description_zh": "", "downloads": 361, "homepage": "https://clawhub.ai/zhaog100/context-manager-v2", "iconUrl": null, "installs": 16, "name": "Context Manager V2", "ownerName": "zhaog100", "score": 77136.75213675214, "slug": "context-manager-v2", "source": "clawhub", "stars": 0, "tags": null, "updated_at": 1776748504831, "version": "2.2.2"}, {"category": "content-creation", "created_at": 1772792844749, "description": "Repurpose any blog post or article into multiple social media formats. Input a URL or text, get X/Twitter thread, LinkedIn post, Instagram caption, email sni...", "description_zh": "", "downloads": 360, "homepage": "https://clawhub.ai/mariusfit/oc-content-repurposer", "iconUrl": null, "installs": 6, "name": "Content Repurposer", "ownerName": "mariusfit", "score": 71028.03738317757, "slug": "oc-content-repurposer", "source": "clawhub", "stars": 1, "tags": ["automation", "content", "marketing", "social-media"], "updated_at": 1776748545174, "version": "1.0.0"}, {"category": "content-creation", "created_at": 1773840862332, "description": "Bring your agent to life. Generate stable agent avatars and short image-driven adventure arcs. Use when creating or refining a mascot/agent identity, preserv...", "description_zh": "", "downloads": 360, "homepage": "https://clawhub.ai/ocean7322/clawy", "iconUrl": null, "installs": 22, "name": "Clawy", "ownerName": "ocean7322", "score": 96446.70050761421, "slug": "clawy", "source": "clawhub", "stars": 1, "tags": null, "updated_at": 1776748544470, "version": "0.2.9"}, {"category": "data-analysis", "created_at": 1773290579469, "description": "Filter Polymarket prediction markets and track probabilities. Use when screening bets, drafting analyses, outlining trends, tracking price movements.", "description_zh": "", "downloads": 360, "homepage": "https://clawhub.ai/bytesagain1/polymarket-screener", "iconUrl": null, "installs": 9, "name": "Polymarket Screener", "ownerName": "bytesagain1", "score": 24193.548387096776, "slug": "polymarket-screener", "source": "clawhub", "stars": 0, "tags": ["chinese", "productivity"], "updated_at": 1776758182285, "version": "2.0.1"}, {"category": "data-analysis", "created_at": 1773076703163, "description": "Develop, debug, and upgrade Blender add-ons/plugins and `bpy` scripts with Blender 4.x and 5.x compatibility. Use when tasks involve generating new add-on co...", "description_zh": "", "downloads": 360, "homepage": "https://clawhub.ai/seekerzero/blender-plugin-dev", "iconUrl": null, "installs": 74, "name": "blender-add-on-development", "ownerName": "seekerzero", "score": 80178.17371937638, "slug": "blender-plugin-dev", "source": "clawhub", "stars": 0, "tags": null, "updated_at": 1776751969767, "version": "1.0.0"}, {"category": "ai-intelligence", "created_at": 1772792960788, "description": "Core Archon DID toolkit - identity management, verifiable credentials, encrypted messaging (dmail), Nostr integration, file encryption/signing, aliasing, aut...", "description_zh": "", "downloads": 360, "homepage": "https://clawhub.ai/macterra/archon-keymaster", "iconUrl": null, "installs": 11, "name": "Archon Keymaster", "ownerName": "macterra", "score": 96000, "slug": "archon-keymaster", "source": "clawhub", "stars": 0, "tags": null, "updated_at": 1776748671017, "version": "0.1.4"}, {"category": "data-analysis", "created_at": 1772797511602, "description": "Generate, validate, and optimize llms.txt files for AI crawler accessibility. Creates structured markdown files that help AI platforms (ChatGPT, Perplexity,...", "description_zh": "", "downloads": 360, "homepage": "https://clawhub.ai/geoly-geo/geo-llms-txt", "iconUrl": null, "installs": 57, "name": "llms.txt File Builder", "ownerName": "geoly-geo", "score": 86330.93525179855, "slug": "geo-llms-txt", "source": "clawhub", "stars": 0, "tags": ["ai-crawl", "geo", "llms-txt"], "updated_at": 1776748544996, "version": "1.0.1"}, {"category": "communication-collaboration", "created_at": 1773076773221, "description": "Personal email via your own IMAP/SMTP server. Send and receive emails, manage folders, and search messages using standard protocols — no third-party email pl...", "description_zh": "", "downloads": 360, "homepage": "https://clawhub.ai/polumish/imap-mail", "iconUrl": null, "installs": 20, "name": "Imap Mail", "ownerName": "polumish", "score": 86330.93525179855, "slug": "imap-mail", "source": "clawhub", "stars": 0, "tags": null, "updated_at": 1776748544983, "version": "1.5.4"}, {"category": "developer-tools", "created_at": 1772792181216, "description": "Keep an OpenClaw agent's non-sensitive context (selected memory, MD files, notes, and custom skills) under version control in a separate Git repository for r...", "description_zh": "", "downloads": 360, "homepage": "https://clawhub.ai/bradvin/openclaw-github-sync", "iconUrl": null, "installs": 8, "name": "Openclaw Github Sync", "ownerName": "bradvin", "score": 86330.93525179855, "slug": "openclaw-github-sync", "source": "clawhub", "stars": 0, "tags": null, "updated_at": 1776748544968, "version": "0.1.4"}, {"category": "data-analysis", "created_at": 1772802144656, "description": "Pure intelligence gathering for social media platforms (TikTok & Instagram). Use when an agent needs to discover trending hooks, analyze a competitor's strat...", "description_zh": "", "downloads": 360, "homepage": "https://clawhub.ai/iammiracle/cocreator-content-research", "iconUrl": null, "installs": 46, "name": "Cocreator Content Research", "ownerName": "iammiracle", "score": 91370.55837563451, "slug": "cocreator-content-research", "source": "clawhub", "stars": 0, "tags": null, "updated_at": 1776748544845, "version": "1.0.2"}, {"category": "data-analysis", "created_at": 1773056925878, "description": "Zero-regression bug fix workflow: triage → reproduce → root cause → impact analysis → fix → verify → knowledge deposit → self-reflect. Use when: - Feature br...", "description_zh": "", "downloads": 360, "homepage": "https://clawhub.ai/tinkcarlos/bug-fixing", "iconUrl": null, "installs": 26, "name": "bug-fixing", "ownerName": "tinkcarlos", "score": 91370.55837563451, "slug": "bug-fixing", "source": "clawhub", "stars": 0, "tags": null, "updated_at": 1776748544810, "version": "1.0.3"}, {"category": "developer-tools", "created_at": 1772787962325, "description": "Snibet-native OpenClaw tweet engine. Generates exactly one high-performance X tweet for builders with strict formatting, creator modes, and anti-AI cleanup.", "description_zh": "", "downloads": 360, "homepage": "https://clawhub.ai/aryanlabde/snibet-claw-for-x-virality", "iconUrl": null, "installs": 9, "name": "Snibet Claw for X Virality", "ownerName": "aryanlabde", "score": 84112.14953271027, "slug": "snibet-claw-for-x-virality", "source": "clawhub", "stars": 0, "tags": null, "updated_at": 1776748544753, "version": "1.0.0"}, {"category": "developer-tools", "created_at": 1772797428350, "description": "Interact with UseMemos — a lightweight, self-hosted memo hub. Create, search, list memos and upload attachments.", "description_zh": "", "downloads": 360, "homepage": "https://clawhub.ai/minstn/usememos-api", "iconUrl": null, "installs": 16, "name": "UseMemos", "ownerName": "minstn", "score": 83526.68213457076, "slug": "usememos-api", "source": "clawhub", "stars": 0, "tags": null, "updated_at": 1776748544638, "version": "1.0.2"}, {"category": "content-creation", "created_at": 1772793343079, "description": "Read and query Monday.com boards, items, workspaces, and users directly via the Monday.com GraphQL API. Use when you need project/task data, board contents,...", "description_zh": "", "downloads": 359, "homepage": "https://clawhub.ai/codeninja23/native-monday", "iconUrl": null, "installs": 28, "name": "Native Monday", "ownerName": "codeninja23", "score": 97897.19626168224, "slug": "native-monday", "source": "clawhub", "stars": 3, "tags": null, "updated_at": 1776748544755, "version": "0.1.0"}, {"category": "content-creation", "created_at": 1774619412694, "description": "Web scraping, crawling, searching, and browser automation using Oxylabs AI Studio. Use this skill when the user asks to scrape a website, extract content fro...", "description_zh": "", "downloads": 359, "homepage": "https://clawhub.ai/drfirass/oxylabs-ai-studio", "iconUrl": null, "installs": 52, "name": "Oxylabs AI Studio — Web Scraper, Crawler & Browser Agent", "ownerName": "drfirass", "score": 74579.43925233644, "slug": "oxylabs-ai-studio", "source": "clawhub", "stars": 2, "tags": ["ai-map", "ai-search", "browser-agent", "crawler", "oxylabs", "python", "scraping", "web-scraper"], "updated_at": 1776748545158, "version": "1.0.3"}, {"category": "developer-tools", "created_at": 1772794506766, "description": "Personal AI assistant that monitors your online privacy, calculates exposure scores, automates data broker opt-outs, tracks breaches, and offers privacy advice.", "description_zh": "", "downloads": 359, "homepage": "https://clawhub.ai/charlielila/privacy-concierge", "iconUrl": null, "installs": 7, "name": "Privacy Concierge", "ownerName": "charlielila", "score": 4971.610580252043, "slug": "privacy-concierge", "source": "clawhub", "stars": 0, "tags": null, "updated_at": 1776762849877, "version": "1.0.0"}, {"category": "security-compliance", "created_at": 1772791152063, "description": "Confidential whistleblower system supporting anonymous intake, triage, investigations, regulatory compliance, retaliation prevention, and board reporting tem...", "description_zh": "", "downloads": 359, "homepage": "https://clawhub.ai/1kalin/afrexai-whistleblower", "iconUrl": null, "installs": 9, "name": "Whistleblower Ethics Hotline", "ownerName": "1kalin", "score": 100000, "slug": "afrexai-whistleblower", "source": "clawhub", "stars": 0, "tags": ["compliance", "ethics", "reporting", "whistleblower"], "updated_at": 1776759198275, "version": "1.0.0"}, {"category": "ai-intelligence", "created_at": 1772792055730, "description": "Track and update RPG-style XP, stats, levels, streaks, and achievements based on real-life task completion with detailed XP calculations and bonuses.", "description_zh": "", "downloads": 359, "homepage": "https://clawhub.ai/ryudi84/sovereign-rpg-xp-engine", "iconUrl": null, "installs": 16, "name": "RPG Life XP Engine — Gamify Real Life", "ownerName": "ryudi84", "score": 26651.818856718633, "slug": "sovereign-rpg-xp-engine", "source": "clawhub", "stars": 0, "tags": ["gamification", "life-hack", "productivity", "rpg", "xp"], "updated_at": 1776759198073, "version": "1.0.0"}, {"category": "communication-collaboration", "created_at": 1772794267381, "description": "Connect your OpenClaw agent to ClawAI.Town, a decentralized 3D world on Solana where agents trade, fight, chat, gather resources, and complete bounties using...", "description_zh": "", "downloads": 359, "homepage": "https://clawhub.ai/0xmerl99/clawai-town", "iconUrl": null, "installs": 24, "name": "Clawai Town Skill", "ownerName": "0xmerl99", "score": 26691.449814126394, "slug": "clawai-town", "source": "clawhub", "stars": 0, "tags": null, "updated_at": 1776759197794, "version": "0.1.2"}, {"category": "developer-tools", "created_at": 1773063360503, "description": "Find Unreal Engine assets (.uasset, .umap, .uby, .udata). Use when: (1) Finding specific assets, (2) Locating maps/levels, (3) Finding UI widgets, (4) Findin...", "description_zh": "", "downloads": 359, "homepage": "https://clawhub.ai/vincentwilliam/ue-asset-finder", "iconUrl": null, "installs": 78, "name": "Ue Asset Finder", "ownerName": "vincentwilliam", "score": 21970.62423500612, "slug": "ue-asset-finder", "source": "clawhub", "stars": 0, "tags": null, "updated_at": 1776756982990, "version": "1.0.0"}, {"category": "security-compliance", "created_at": 1772796132755, "description": "Codified expertise for customs documentation, tariff classification, duty optimisation, restricted party screening, and regulatory compliance across multiple...", "description_zh": "", "downloads": 359, "homepage": "https://clawhub.ai/nocodemf/customs-trade-compliance", "iconUrl": null, "installs": 17, "name": "Customs Trade Compliance", "ownerName": "nocodemf", "score": 66977.6119402985, "slug": "customs-trade-compliance", "source": "clawhub", "stars": 0, "tags": null, "updated_at": 1776754388512, "version": "1.0.0"}, {"category": "productivity", "created_at": 1772792538435, "description": "Create, save, and switch OpenClaw's persona (Soul). Research characters to generate new souls or load existing ones from the library.", "description_zh": "", "downloads": 359, "homepage": "https://clawhub.ai/xhrisfu/soul-shifter", "iconUrl": null, "installs": 8, "name": "Soul Shifter", "ownerName": "xhrisfu", "score": 66728.62453531599, "slug": "soul-shifter", "source": "clawhub", "stars": 0, "tags": ["persona", "roleplay", "soul"], "updated_at": 1776748545074, "version": "1.0.0"}, {"category": "content-creation", "created_at": 1772792702651, "description": "Auto-learns your design instincts. Adapts to how you think about mechanics, player experience, and what makes games meaningful. Game design philosophy that g...", "description_zh": "", "downloads": 359, "homepage": "https://clawhub.ai/nyxur42/nyx-archive-game-design-philosophy", "iconUrl": null, "installs": 43, "name": "[Nyx Archive] Game Design Philosophy", "ownerName": "nyxur42", "score": 86091.12709832135, "slug": "nyx-archive-game-design-philosophy", "source": "clawhub", "stars": 0, "tags": null, "updated_at": 1776748544988, "version": "1.1.1"}, {"category": "productivity", "created_at": 1772789374463, "description": "Re-apply custom patches to claw-lark plugin dist files after updates. Use when claw-lark plugin is updated/reinstalled and custom behaviors (requireMention f...", "description_zh": "", "downloads": 359, "homepage": "https://clawhub.ai/pengxiao-wang/claw-lark-patches", "iconUrl": null, "installs": 10, "name": "claw-lark Patches", "ownerName": "pengxiao-wang", "score": 91116.75126903554, "slug": "claw-lark-patches", "source": "clawhub", "stars": 0, "tags": null, "updated_at": 1776748544880, "version": "1.0.0"}, {"category": "communication-collaboration", "created_at": 1773042167185, "description": "Interact with Discord servers - send messages, read channels, manage reactions", "description_zh": "", "downloads": 359, "homepage": "https://clawhub.ai/devxoul/agent-discord", "iconUrl": null, "installs": 9, "name": "Agent Discord", "ownerName": "devxoul", "score": 91116.75126903554, "slug": "agent-discord", "source": "clawhub", "stars": 0, "tags": null, "updated_at": 1776748544847, "version": "1.10.5"}, {"category": "data-analysis", "created_at": 1773074949422, "description": "Crypto intelligence for AI agents. 7 free tools + 23 premium tools for Hyperliquid trader analytics, behavioral cohorts, live market data, builder dex market...", "description_zh": "", "downloads": 359, "homepage": "https://clawhub.ai/nazchedz/coinversaa-pulse", "iconUrl": null, "installs": 6, "name": "Coinversaa Pulse", "ownerName": "nazchedz", "score": 91116.75126903554, "slug": "coinversaa-pulse", "source": "clawhub", "stars": 0, "tags": null, "updated_at": 1776748544526, "version": "0.4.1"}, {"category": "developer-tools", "created_at": 1772801296119, "description": "Real-time API cost tracking, context bloat detection, and budget enforcement for OpenClaw agents. Use when setting up cost guardrails, checking daily spend,...", "description_zh": "", "downloads": 359, "homepage": "https://clawhub.ai/getlemnos32/lemnos-cost-guard", "iconUrl": null, "installs": 4, "name": "Lemnos Cost Guard", "ownerName": "getlemnos32", "score": 64336.91756272402, "slug": "lemnos-cost-guard", "source": "clawhub", "stars": 0, "tags": ["ai-agent", "api-cost-monitor", "budget", "budget-management", "business-automation", "cost-control", "cost-guard", "lobster-tool", "open-source-ai", "openclaw", "solo-operator"], "updated_at": 1776748544403, "version": "1.0.2"}, {"category": "developer-tools", "created_at": 1773218655710, "description": "Firehose monitors the web in real-time — you create rules (Lucene queries), and every crawled page that matches gets delivered via an SSE stream. Use when im...", "description_zh": "", "downloads": 358, "homepage": "https://clawhub.ai/tysg/firehose-api", "iconUrl": null, "installs": 5, "name": "Firehose Web Monitor", "ownerName": "tysg", "score": 74392.52336448598, "slug": "firehose-api", "source": "clawhub", "stars": 2, "tags": null, "updated_at": 1776748545145, "version": "2.0.0"}, {"category": "developer-tools", "created_at": 1772793887603, "description": "Read Airtable bases, tables, and records directly via the Airtable API. Use when you need spreadsheet/database data from Airtable. Calls api.airtable.com dir...", "description_zh": "", "downloads": 358, "homepage": "https://clawhub.ai/codeninja23/native-airtable", "iconUrl": null, "installs": 8, "name": "Native Airtable", "ownerName": "codeninja23", "score": 71326.16487455196, "slug": "native-airtable", "source": "clawhub", "stars": 2, "tags": null, "updated_at": 1776748544370, "version": "0.1.0"}, {"category": "developer-tools", "created_at": 1773074170363, "description": "Act as a professional tarot reader—multiple spreads, full card meanings, spread selection by question, energy guidance, interpretation, and follow-up dialogue.", "description_zh": "", "downloads": 358, "homepage": "https://clawhub.ai/superone77/vincitarot", "iconUrl": null, "installs": 17, "name": "vinci-tarot", "ownerName": "superone77", "score": 10614.995787700083, "slug": "vincitarot", "source": "clawhub", "stars": 1, "tags": null, "updated_at": 1776765250226, "version": "1.0.2"}, {"category": "communication-collaboration", "created_at": 1773042703676, "description": "Manage Web3 EVM Compatible email account, allows receiving and sending emails", "description_zh": "", "downloads": 358, "homepage": "https://clawhub.ai/sebasaran16/moltmail-io", "iconUrl": null, "installs": 21, "name": "moltmail-io", "ownerName": "sebasaran16", "score": 87703.01624129931, "slug": "moltmail-io", "source": "clawhub", "stars": 1, "tags": null, "updated_at": 1776748544611, "version": "1.0.3"}, {"category": "developer-tools", "created_at": 1773073525795, "description": "OpenClaw's subconscious. Automatically distills conversation insights, corrections, and preferences into durable memory. The agent that learns from every ses...", "description_zh": "", "downloads": 358, "homepage": "https://clawhub.ai/zcyynl/memory-distiller", "iconUrl": null, "installs": 18, "name": "Memory Distiller", "ownerName": "zcyynl", "score": 26420.664206642065, "slug": "memory-distiller", "source": "clawhub", "stars": 0, "tags": ["agent", "learning", "memory", "self-improving"], "updated_at": 1776767171325, "version": "1.0.1"}, {"category": "developer-tools", "created_at": 1772794908883, "description": "Where agents and humans do good. Post stories, log real-world actions, earn karma, and climb the leaderboard.", "description_zh": "", "downloads": 358, "homepage": "https://clawhub.ai/xb1g/karma-book", "iconUrl": null, "installs": 7, "name": "Karma Book", "ownerName": "xb1g", "score": 26617.10037174721, "slug": "karma-book", "source": "clawhub", "stars": 0, "tags": null, "updated_at": 1776759198100, "version": "1.0.1"}, {"category": "productivity", "created_at": 1772791196141, "description": "Privacy and sovereignty comparison between PayRam self-hosted infrastructure and x402 HTTP payment protocol. Use when user asks \"PayRam vs x402\", \"privacy co...", "description_zh": "", "downloads": 358, "homepage": "https://clawhub.ai/buddhasource/payram-vs-x402", "iconUrl": null, "installs": 11, "name": "PayRam vs x402", "ownerName": "buddhasource", "score": 26577.57980697847, "slug": "payram-vs-x402", "source": "clawhub", "stars": 0, "tags": null, "updated_at": 1776759198039, "version": "1.0.3"}, {"category": "productivity", "created_at": 1772791664682, "description": "연금/노후설계 스킬. 9개 인텐트 라우팅(National Pension~Beginner Guide), 국민연금 예상 수령액 계산 + IRP/연금저축 절세 비교 + 노후 자금 역산 시뮬레이터. 트리거: \"국민연금\", \"예상 수령액\", \"연금저축\", \"IRP\", \"퇴직금\", \"노후 준...", "description_zh": "", "downloads": 358, "homepage": "https://clawhub.ai/sw326/pension-guide", "iconUrl": null, "installs": 7, "name": "한국 연금/노후 설계", "ownerName": "sw326", "score": 100000, "slug": "pension-guide", "source": "clawhub", "stars": 0, "tags": ["korea", "korean", "pension", "retirement"], "updated_at": 1776748784052, "version": "1.0.0"}, {"category": "security-compliance", "created_at": 1772791986157, "description": "Teach your AI agent to think about security. A reasoning methodology for vetting skills before installation — red/green flag heuristics, 4-phase audit protoc...", "description_zh": "", "downloads": 358, "homepage": "https://clawhub.ai/nyxur42/nyx-archive-skill-security-protocol", "iconUrl": null, "installs": 11, "name": "[Nyx Archive] Skill Security Protocol", "ownerName": "nyxur42", "score": 66915.88785046729, "slug": "nyx-archive-skill-security-protocol", "source": "clawhub", "stars": 0, "tags": null, "updated_at": 1776748545182, "version": "1.1.1"}, {"category": "developer-tools", "created_at": 1772790046737, "description": "Yellow Pages for AI agents — discover, register, and search for agents by skill, language, location, and cost model via the yellowagents.top API.", "description_zh": "", "downloads": 358, "homepage": "https://clawhub.ai/andrewandrewsen/yellowagents", "iconUrl": null, "installs": 5, "name": "YellowAgents", "ownerName": "andrewandrewsen", "score": 66542.75092936803, "slug": "yellowagents", "source": "clawhub", "stars": 0, "tags": null, "updated_at": 1776748545105, "version": "1.2.0"}, {"category": "developer-tools", "created_at": 1772791416138, "description": "KMA short-term forecast API - ultra-short-term observation/forecast, short-term forecast", "description_zh": "", "downloads": 358, "homepage": "https://clawhub.ai/sw326/kma-weather-korea", "iconUrl": null, "installs": 8, "name": "기상청 날씨 (KMA Weather Korea)", "ownerName": "sw326", "score": 83644.85981308411, "slug": "kma-weather-korea", "source": "clawhub", "stars": 0, "tags": ["kma", "korea", "korean", "weather"], "updated_at": 1776748544696, "version": "2.2.0"}, {"category": "communication-collaboration", "created_at": 1772790675825, "description": "Read and adapt to someone's COMMS.md before contacting them. Use when: (1) drafting a message, email, or outreach to someone who has a COMMS.md, (2) scheduli...", "description_zh": "", "downloads": 358, "homepage": "https://clawhub.ai/stedmanhalliday/comms-md-reader", "iconUrl": null, "installs": 9, "name": "COMMS.md Reader", "ownerName": "stedmanhalliday", "score": 83062.64501160094, "slug": "comms-md-reader", "source": "clawhub", "stars": 0, "tags": null, "updated_at": 1776748544694, "version": "1.1.0"}, {"category": "security-compliance", "created_at": 1773076501371, "description": "Use when the user wants to call, test, or integrate the HTMLPix HTML-to-image API — including auth setup, signed URL minting, image rendering, template CRUD,...", "description_zh": "", "downloads": 358, "homepage": "https://clawhub.ai/jymaa/htmlpix", "iconUrl": null, "installs": 34, "name": "HTMLPix API", "ownerName": "jymaa", "score": 83062.64501160094, "slug": "htmlpix", "source": "clawhub", "stars": 0, "tags": null, "updated_at": 1776748544664, "version": "0.1.3"}, {"category": "developer-tools", "created_at": 1772796307853, "description": "Complete product management system — discovery, prioritization, roadmapping, metrics, and cross-functional leadership. Use when building products, running di...", "description_zh": "", "downloads": 358, "homepage": "https://clawhub.ai/1kalin/afrexai-product-manager", "iconUrl": null, "installs": 16, "name": "Product Management OS", "ownerName": "1kalin", "score": 83062.64501160094, "slug": "afrexai-product-manager", "source": "clawhub", "stars": 0, "tags": ["agile", "discovery", "management", "metrics", "prioritization", "product", "roadmap", "strategy"], "updated_at": 1776748544613, "version": "1.0.0"}, {"category": "ai-intelligence", "created_at": 1772792805125, "description": "Register your agent on Cortex Protocol — gasless on-chain identity (ERC-8004) on Base. One command to get a verifiable agent identity.", "description_zh": "", "downloads": 358, "homepage": "https://clawhub.ai/quriustus/cortex-protocol", "iconUrl": null, "installs": 12, "name": "Cortex Protocol", "ownerName": "quriustus", "score": 90862.94416243654, "slug": "cortex-protocol", "source": "clawhub", "stars": 0, "tags": null, "updated_at": 1776748544512, "version": "1.0.0"}, {"category": "developer-tools", "created_at": 1772790462752, "description": "Monitor creator topics across X, RSS, GitHub, and Reddit; deduplicate and score results; produce a daily top-5 brief plus one publish-ready X/LinkedIn draft;...", "description_zh": "", "downloads": 358, "homepage": "https://clawhub.ai/vmining/kiro-creator-monitor-daily-brief", "iconUrl": null, "installs": 7, "name": "Kiro Creator Monitor Daily Brief", "ownerName": "vmining", "score": 64157.70609318996, "slug": "kiro-creator-monitor-daily-brief", "source": "clawhub", "stars": 0, "tags": ["creator", "daily-brief", "kiro", "monitoring"], "updated_at": 1776748544396, "version": "1.0.0"}, {"category": "data-analysis", "created_at": 1772792173632, "description": "Integration skill for Biver Landing Page Builder API. Use when: (1) Creating, updating, or deleting landing pages (2) Managing subdomains (.lp.biver.id) or c...", "description_zh": "", "downloads": 357, "homepage": "https://clawhub.ai/ramaaditya49/biver-builder", "iconUrl": null, "installs": 7, "name": "Biver Builder", "ownerName": "ramaaditya49", "score": 100000, "slug": "biver-builder", "source": "clawhub", "stars": 3, "tags": null, "updated_at": 1776748544929, "version": "1.0.4"}]}