{"page": 224, "total_pages": 522, "total": 26073, "skills": [{"category": "productivity", "created_at": 1773076975098, "description": "Go-to-Market (GTM) Strategy & Product Hunt Launch Playbook — Complete go-to-market playbook for startups and product launches. Proven GTM tactics from Manus,...", "description_zh": "", "downloads": 357, "homepage": "https://clawhub.ai/gingiris/gingiris-launch", "iconUrl": null, "installs": 10, "name": "Gingiris Launch", "ownerName": "gingiris", "score": 5034.049939911871, "slug": "gingiris-launch", "source": "clawhub", "stars": 1, "tags": null, "updated_at": 1776762590729, "version": "2.0.0"}, {"category": "developer-tools", "created_at": 1773057155287, "description": "Professional market data and AI APIs via x402 micropayments — no API key, no signup, no subscription. Pay per call with USDC on Base. 215+ endpoints across 1...", "description_zh": "", "downloads": 357, "homepage": "https://clawhub.ai/tinkle-community/claw402", "iconUrl": null, "installs": 3, "name": "Openclaw Skill", "ownerName": "tinkle-community", "score": 27905.255366395264, "slug": "claw402", "source": "clawhub", "stars": 1, "tags": null, "updated_at": 1776759120853, "version": "1.3.0"}, {"category": "security-compliance", "created_at": 1772792822432, "description": "Evaluate any AI agent's soul file, system prompt, or AGENTS.md against the Guardian Angel v0.7 framework (Forrest Landry's Immanent Metaphysics). Generates a...", "description_zh": "", "downloads": 357, "homepage": "https://clawhub.ai/kapslap/soul-audit", "iconUrl": null, "installs": 13, "name": "Soul Audit", "ownerName": "kapslap", "score": 95685.27918781726, "slug": "soul-audit", "source": "clawhub", "stars": 1, "tags": null, "updated_at": 1776748544596, "version": "1.1.0"}, {"category": "data-analysis", "created_at": 1772792530127, "description": "Free simple invoice generator. Creates clean, professional invoices with your branding. Use when you need to bill a client quickly without complex tracking o...", "description_zh": "", "downloads": 357, "homepage": "https://clawhub.ai/kambrosgroup/invoice-template", "iconUrl": null, "installs": 8, "name": "Invoice Template", "ownerName": "kambrosgroup", "score": 3798.6805703341133, "slug": "invoice-template", "source": "clawhub", "stars": 0, "tags": null, "updated_at": 1776765590517, "version": "1.0.0"}, {"category": "data-analysis", "created_at": 1772792882936, "description": "GitHub Issue → auto-implement → PR → review → auto-merge pipeline. Write an Issue with [auto] tag, and the pipeline handles everything: task analysis, implem...", "description_zh": "", "downloads": 357, "homepage": "https://clawhub.ai/shunsukehayashi/prompt-request", "iconUrl": null, "installs": 7, "name": "Prompt Request Pipeline", "ownerName": "shunsukehayashi", "score": 5353.126405757985, "slug": "prompt-request", "source": "clawhub", "stars": 0, "tags": null, "updated_at": 1776765250101, "version": "1.0.0"}, {"category": "productivity", "created_at": 1774619405485, "description": "Reduce OpenClaw per-turn prompt costs by 70%+ through file splitting, prompt caching, context pruning, and model routing. Tested on production setup with 69...", "description_zh": "", "downloads": 357, "homepage": "https://clawhub.ai/jack-yang-ai/token-optimization", "iconUrl": null, "installs": 23, "name": "Token Optimization", "ownerName": "jack-yang-ai", "score": 11100.746268656716, "slug": "token-optimization", "source": "clawhub", "stars": 0, "tags": null, "updated_at": 1776764650123, "version": "1.1.0"}, {"category": "data-analysis", "created_at": 1772791550608, "description": "INWX domain registrar management: domain registration, availability check, DNS records, nameservers, DNSSEC, pricing, transfers.", "description_zh": "", "downloads": 357, "homepage": "https://clawhub.ai/homeofe/openclaw-inwx", "iconUrl": null, "installs": 12, "name": "INWX", "ownerName": "homeofe", "score": 26503.340757238308, "slug": "openclaw-inwx", "source": "clawhub", "stars": 0, "tags": ["elvatis", "openclaw", "plugin"], "updated_at": 1776759198060, "version": "0.2.0"}, {"category": "data-analysis", "created_at": 1773089232050, "description": "A proactive personal finance manager for AI agents. Tracks income and expenses, monitors subscriptions and bills, detects unusual spending, builds monthly bu...", "description_zh": "", "downloads": 357, "homepage": "https://clawhub.ai/agistack/finance-autopilot", "iconUrl": null, "installs": 36, "name": "Finance Autopilot", "ownerName": "agistack", "score": 64673.91304347826, "slug": "finance-autopilot", "source": "clawhub", "stars": 0, "tags": ["bills", "budget", "finance", "money", "subscriptions"], "updated_at": 1776759197768, "version": "1.0.0"}, {"category": "content-creation", "created_at": 1772798586667, "description": "Generate images with Google's Nano Banana Gemini 2.5 Flash Image model via OpenRouter API using text prompts.", "description_zh": "", "downloads": 357, "homepage": "https://clawhub.ai/fyi0329-pixel/nano-banana-openrouter", "iconUrl": null, "installs": 32, "name": "Nano Banana Openrouter", "ownerName": "fyi0329-pixel", "score": 26523.031203566123, "slug": "nano-banana-openrouter", "source": "clawhub", "stars": 0, "tags": null, "updated_at": 1776759197724, "version": "1.0.0"}, {"category": "content-creation", "created_at": 1773073623469, "description": "Complete genviral Partner API automation. Create and schedule posts (video + slideshow) across TikTok, Instagram, and any supported platform. Includes slides...", "description_zh": "", "downloads": 357, "homepage": "https://clawhub.ai/ugenesys/genviral", "iconUrl": null, "installs": 31, "name": "Genviral", "ownerName": "ugenesys", "score": 82830.626450116, "slug": "genviral", "source": "clawhub", "stars": 0, "tags": null, "updated_at": 1776748544623, "version": "1.0.0"}, {"category": "data-analysis", "created_at": 1772796127312, "description": "Institutional-grade quantitative market oracle with Order Book Imbalance (OBI), VWAP analysis, automated reports, and Telegram alerts.", "description_zh": "", "downloads": 357, "homepage": "https://clawhub.ai/georges91560/crypto-sniper-oracle", "iconUrl": null, "installs": 66, "name": "Crypto Sniper Oracle", "ownerName": "georges91560", "score": 90609.13705583756, "slug": "crypto-sniper-oracle", "source": "clawhub", "stars": 0, "tags": ["analysis", "microstructure", "obi", "quant", "trading", "vwap"], "updated_at": 1776748544606, "version": "3.3.0"}, {"category": "data-analysis", "created_at": 1772794484969, "description": "Check domain availability via Vercel and buy/manage domains via Vercel CLI", "description_zh": "", "downloads": 357, "homepage": "https://clawhub.ai/brennerspear/domain-check", "iconUrl": null, "installs": 15, "name": "Domain Check", "ownerName": "brennerspear", "score": 63978.49462365591, "slug": "domain-check", "source": "clawhub", "stars": 0, "tags": null, "updated_at": 1776748544424, "version": "1.0.0"}, {"category": "ai-intelligence", "created_at": 1773219867022, "description": "Discover what in your life could be automated through casual daily conversations.", "description_zh": "", "downloads": 356, "homepage": "https://clawhub.ai/itsukikuchiki/ai-opportunity-radar", "iconUrl": null, "installs": 9, "name": "AI Opportunity Radar — Discover What In Your Life Should Be Automated", "ownerName": "itsukikuchiki", "score": 77323.42007434944, "slug": "ai-opportunity-radar", "source": "clawhub", "stars": 3, "tags": ["ai-lifestyle", "automation", "productivity", "productivity self-reflection automation ai-lifestyle workflow", "self-reflection", "workflow"], "updated_at": 1776748545073, "version": "2.0.1"}, {"category": "content-creation", "created_at": 1772792275686, "description": "When user asks to improve prompt, optimize prompt, better prompt, fix prompt, rewrite prompt, prompt engineering, make prompt better, enhance prompt, prompt...", "description_zh": "", "downloads": 356, "homepage": "https://clawhub.ai/mkpareek0315/prompt-optimizer-pro", "iconUrl": null, "installs": 23, "name": "Prompt Optimizer", "ownerName": "mkpareek0315", "score": 4676.981221211763, "slug": "prompt-optimizer-pro", "source": "clawhub", "stars": 2, "tags": null, "updated_at": 1776765250487, "version": "1.0.0"}, {"category": "developer-tools", "created_at": 1772791322709, "description": "Use the EntradeX CLI for DNSE workflows. Use when (1) setting DNSE API credentials via env vars or config file, (2) reading account, market, and order data,...", "description_zh": "", "downloads": 356, "homepage": "https://clawhub.ai/hieuhani/entradex", "iconUrl": null, "installs": 8, "name": "EntradeX", "ownerName": "hieuhani", "score": 92523.3644859813, "slug": "entradex", "source": "clawhub", "stars": 2, "tags": null, "updated_at": 1776748544706, "version": "0.1.16"}, {"category": "security-compliance", "created_at": 1773201710298, "description": "Security expert for OpenClaw deployments. Audits local configuration files for vulnerabilities in network settings, channel policies, and tool permissions. P...", "description_zh": "", "downloads": 356, "homepage": "https://clawhub.ai/zoowii/scanner-for-openclaw", "iconUrl": null, "installs": 7, "name": "Config Security Scanner", "ownerName": "zoowii", "score": 87238.97911832946, "slug": "scanner-for-openclaw", "source": "clawhub", "stars": 1, "tags": null, "updated_at": 1776748544608, "version": "1.0.5"}, {"category": "productivity", "created_at": 1773425011723, "description": "Skill for interacting with the Lean-Claw Arena to prove math theorems using Lean 4.", "description_zh": "", "downloads": 356, "homepage": "https://clawhub.ai/apozzi/mathproofs-claw", "iconUrl": null, "installs": 25, "name": "MathProofs-Claw", "ownerName": "apozzi", "score": 12619.638426090038, "slug": "mathproofs-claw", "source": "clawhub", "stars": 0, "tags": null, "updated_at": 1776770237332, "version": "1.0.11"}, {"category": "content-creation", "created_at": 1772797327393, "description": "Write high-converting email campaigns for any business — newsletters, re-engagement sequences, B2B cold outreach, promotional emails, and automated drip camp...", "description_zh": "", "downloads": 356, "homepage": "https://clawhub.ai/danielblinker83-bot/email-campaigns", "iconUrl": null, "installs": 27, "name": "Email Campaigns — Universal Email Marketing", "ownerName": "danielblinker83-bot", "score": 4913.733609385784, "slug": "email-campaigns", "source": "clawhub", "stars": 0, "tags": ["content", "marketing", "social-media"], "updated_at": 1776769190513, "version": "1.0.0"}, {"category": "ai-intelligence", "created_at": 1773423295311, "description": "Monitors Twitter/X feeds with AI signal detection. Searches tweets semantically, manages signal detectors, generates human-sounding posts, checks AI detectio...", "description_zh": "", "downloads": 356, "homepage": "https://clawhub.ai/poloniki/purefeed", "iconUrl": null, "installs": 6, "name": "Purefeed", "ownerName": "poloniki", "score": 4831.048989008006, "slug": "purefeed", "source": "clawhub", "stars": 0, "tags": ["ai", "beta", "feed", "mcp", "signals", "twitter"], "updated_at": 1776767350180, "version": "0.10.0"}, {"category": "developer-tools", "created_at": 1772801202470, "description": "Automatically source, AI-score, and rank candidates from LinkedIn, GitHub, and job boards to deliver a personalized top-10 shortlist with verified contact in...", "description_zh": "", "downloads": 356, "homepage": "https://clawhub.ai/g4dr/ai-recruitment-talent-scout", "iconUrl": null, "installs": 17, "name": "AI Recruitment & Talent Scout Engine — Build Your Shortlist in 10 Minutes", "ownerName": "g4dr", "score": 7155.778894472362, "slug": "ai-recruitment-talent-scout", "source": "clawhub", "stars": 0, "tags": ["ai-recruiting", "apify", "github", "headhunting", "hr", "linkedin", "passive-candidates", "recruitment", "sourcing", "startup-hiring", "talent-acquisition", "talent-scout"], "updated_at": 1776766871154, "version": "1.0.0"}, {"category": "content-creation", "created_at": 1772800485558, "description": "Generate AI music videos from any MCP client. Turn text prompts into cinematic music videos with multiple styles and modes.", "description_zh": "", "downloads": 356, "homepage": "https://clawhub.ai/liuyinjiwen06/music-video-mcp", "iconUrl": null, "installs": 45, "name": "Music Video Generator", "ownerName": "liuyinjiwen06", "score": 3835.793556728801, "slug": "music-video-mcp", "source": "clawhub", "stars": 0, "tags": null, "updated_at": 1776765849833, "version": "1.0.0"}, {"category": "security-compliance", "created_at": 1773287941585, "description": "Rebuild dense ideas into authoritative long-form writing for Medium. Optimize clarity, intellectual structure, reader trust, and deep-read momentum for essay...", "description_zh": "", "downloads": 356, "homepage": "https://clawhub.ai/agimodel/medium", "iconUrl": null, "installs": 15, "name": "Medium", "ownerName": "agimodel", "score": 11854.811854811855, "slug": "medium", "source": "clawhub", "stars": 0, "tags": null, "updated_at": 1776761690139, "version": "1.0.0"}, {"category": "developer-tools", "created_at": 1772793538776, "description": "Generate provocative, engaging titles, hooks, and captions that maximize click-through for social media, YouTube, and tweets using proven clickbait strategies.", "description_zh": "", "downloads": 356, "homepage": "https://clawhub.ai/honeybee1130/clickbait-engine", "iconUrl": null, "installs": 14, "name": "Clickbait Engine", "ownerName": "honeybee1130", "score": 26547.352721849365, "slug": "clickbait-engine", "source": "clawhub", "stars": 0, "tags": null, "updated_at": 1776759198340, "version": "1.0.0"}, {"category": "security-compliance", "created_at": 1772794264236, "description": "Assist businesses in developing, auditing, and maintaining HACCP plans and FDA/USDA food safety programs for hazard control and regulatory compliance.", "description_zh": "", "downloads": 356, "homepage": "https://clawhub.ai/1kalin/afrexai-food-safety", "iconUrl": null, "installs": 17, "name": "Food Safety & HACCP Compliance", "ownerName": "1kalin", "score": 26429.101707498143, "slug": "afrexai-food-safety", "source": "clawhub", "stars": 0, "tags": ["allergen", "compliance", "fda", "food safety", "fsma", "haccp", "manufacturing", "restaurant", "usda"], "updated_at": 1776759198085, "version": "1.0.0"}, {"category": "developer-tools", "created_at": 1772794164277, "description": "Perform Jira Cloud daily tasks via REST API v3: search, create, update, assign issues; manage comments, worklogs; and handle boards, sprints, transitions.", "description_zh": "", "downloads": 356, "homepage": "https://clawhub.ai/thecybercore/jira-rest-v3", "iconUrl": null, "installs": 7, "name": "Jira REST API v3 Commons", "ownerName": "thecybercore", "score": 26429.101707498143, "slug": "jira-rest-v3", "source": "clawhub", "stars": 0, "tags": null, "updated_at": 1776759198046, "version": "1.0.0"}, {"category": "security-compliance", "created_at": 1772791563864, "description": "Helps detect security-relevant changes in AI skills after installation. Tracks deltas between the audited version and current version, flagging updates that...", "description_zh": "", "downloads": 356, "homepage": "https://clawhub.ai/andyxinweiminicloud/skill-update-delta-monitor", "iconUrl": null, "installs": 4, "name": "skill-update-delta-monitor", "ownerName": "andyxinweiminicloud", "score": 66171.00371747212, "slug": "skill-update-delta-monitor", "source": "clawhub", "stars": 0, "tags": null, "updated_at": 1776748545069, "version": "1.0.0"}, {"category": "productivity", "created_at": 1773417858977, "description": "Reference tool for life — covers intro, quickstart, patterns and more. Quick lookup for Roomba Control concepts, best practices, and implementation patterns.", "description_zh": "", "downloads": 356, "homepage": "https://clawhub.ai/bytesagain1/roomba-control", "iconUrl": null, "installs": 5, "name": "Roomba Control", "ownerName": "bytesagain1", "score": 85371.70263788968, "slug": "roomba-control", "source": "clawhub", "stars": 0, "tags": ["chinese", "productivity"], "updated_at": 1776748545019, "version": "3.0.1"}, {"category": "productivity", "created_at": 1772788693122, "description": "Navigate Singapore as visitor, resident, tech worker, student, or entrepreneur with neighborhoods, transport, costs, visas, and local insights.", "description_zh": "", "downloads": 356, "homepage": "https://clawhub.ai/ivangdavila/singapore", "iconUrl": null, "installs": 9, "name": "Singapore", "ownerName": "ivangdavila", "score": 85371.70263788968, "slug": "singapore", "source": "clawhub", "stars": 0, "tags": null, "updated_at": 1776748545008, "version": "1.0.0"}, {"category": "productivity", "created_at": 1772789061672, "description": "Balance your entrepreneurial blind spots with adaptive counterweight across technical, strategic, and behavioral dimensions.", "description_zh": "", "downloads": 356, "homepage": "https://clawhub.ai/ivangdavila/cofounder", "iconUrl": null, "installs": 9, "name": "Cofounder", "ownerName": "ivangdavila", "score": 83177.57009345794, "slug": "cofounder", "source": "clawhub", "stars": 0, "tags": null, "updated_at": 1776748544739, "version": "1.0.0"}, {"category": "developer-tools", "created_at": 1773202504113, "description": "AI-synthesized web search via Felo API — aggregates 15-40 sources into structured summaries. Use when: (1) researching a topic that needs multi-source synthe...", "description_zh": "", "downloads": 356, "homepage": "https://clawhub.ai/iml885203/felo", "iconUrl": null, "installs": 9, "name": "Felo AI Search", "ownerName": "iml885203", "score": 83177.57009345794, "slug": "felo", "source": "clawhub", "stars": 0, "tags": null, "updated_at": 1776748544725, "version": "1.2.0"}, {"category": "developer-tools", "created_at": 1772794425133, "description": "Pay-per-request AI model access via Solana/USDC using a Phantom wallet address. Query Claude and GPT models without API keys. Wallet-native authentication wi...", "description_zh": "", "downloads": 356, "homepage": "https://clawhub.ai/yebdmo2/solanaprox-ai", "iconUrl": null, "installs": 5, "name": "Solanaprox Ai", "ownerName": "yebdmo2", "score": 82598.60788863109, "slug": "solanaprox-ai", "source": "clawhub", "stars": 0, "tags": null, "updated_at": 1776748544671, "version": "3.0.0"}, {"category": "developer-tools", "created_at": 1773042777260, "description": "Filesystem message bus and webhook relay for multi-agent IDE coordination. Use when agents need to share events, poll Ant Farm rooms, receive GitHub/GitLab w...", "description_zh": "", "downloads": 356, "homepage": "https://clawhub.ai/thinkoffapp/ide-agent-kit", "iconUrl": null, "installs": 8, "name": "IDE Agent Kit", "ownerName": "thinkoffapp", "score": 82598.60788863109, "slug": "ide-agent-kit", "source": "clawhub", "stars": 0, "tags": ["ack-only filtering", "developer-tools", "file-based notifications", "ide", "local-first", "message rate limits", "room polling"], "updated_at": 1776748544615, "version": "0.4.1"}, {"category": "data-analysis", "created_at": 1772798149341, "description": "Search, scan, and monitor student accommodation availability across Yugo and Aparto providers. Use when the user asks about student housing, room availabilit...", "description_zh": "", "downloads": 356, "homepage": "https://clawhub.ai/gonzalopezgil/student-rooms", "iconUrl": null, "installs": 4, "name": "student-rooms", "ownerName": "gonzalopezgil", "score": 90355.32994923858, "slug": "student-rooms", "source": "clawhub", "stars": 0, "tags": null, "updated_at": 1776748544544, "version": "1.1.0"}, {"category": "developer-tools", "created_at": 1772792790232, "description": "agentcli-go framework reference for building Go CLI tools. Use when working on agentcli-go itself, scaffolding new CLI projects, adding commands, integrating...", "description_zh": "", "downloads": 356, "homepage": "https://clawhub.ai/gh-xj/agentcli-go", "iconUrl": null, "installs": 5, "name": "agentcli-go", "ownerName": "gh-xj", "score": 90355.32994923858, "slug": "agentcli-go", "source": "clawhub", "stars": 0, "tags": ["cli", "cobrax", "configx", "framework", "go", "scaffold"], "updated_at": 1776748544486, "version": "1.0.0"}, {"category": "data-analysis", "created_at": 1773061223879, "description": "Video to text converter. Downloads videos from Bilibili using bilibili-api, from other sites using yt-dlp, then transcribes audio using faster-whisper. Use w...", "description_zh": "", "downloads": 355, "homepage": "https://clawhub.ai/lkyyyy320/video-to-text-2", "iconUrl": null, "installs": 55, "name": "Video To Text", "ownerName": "lkyyyy320", "score": 87616.82242990653, "slug": "video-to-text-2", "source": "clawhub", "stars": 1, "tags": null, "updated_at": 1776748544737, "version": "0.1.0"}, {"category": "developer-tools", "created_at": 1772793302792, "description": "Build and query a FAQ knowledge base from markdown files. Use when asked to create a FAQ bot, set up automatic answers, build a knowledge base, add FAQ entri...", "description_zh": "", "downloads": 355, "homepage": "https://clawhub.ai/mariusfit/whatsapp-faq-bot", "iconUrl": null, "installs": 17, "name": "WhatsApp FAQ Bot", "ownerName": "mariusfit", "score": 5062.027662911735, "slug": "whatsapp-faq-bot", "source": "clawhub", "stars": 0, "tags": ["automation", "faq", "knowledge-base", "whatsapp"], "updated_at": 1776762850710, "version": "1.0.0"}, {"category": "", "created_at": 1774907629343, "description": "Document to Markdown converter - convert DOCX, PPTX, Excel files to Markdown. Use when extracting content from Word documents, PowerPoint presentations, or E...", "description_zh": "", "downloads": 355, "homepage": "https://clawhub.ai/tanis90/excel-to-markdown", "iconUrl": null, "installs": 122, "name": "Excel To Markdown", "ownerName": "tanis90", "score": 4847.078099399235, "slug": "excel-to-markdown", "source": "clawhub", "stars": 0, "tags": null, "updated_at": 1776762615169, "version": "1.0.0"}, {"category": "productivity", "created_at": 1772803154602, "description": "Assess Active Directory identity attack paths including roasting, relay, and delegation abuse.", "description_zh": "", "downloads": 355, "homepage": "https://clawhub.ai/0x-professor/pentest-active-directory", "iconUrl": null, "installs": 8, "name": "Pentest Active Directory", "ownerName": "0x-professor", "score": 21739.130434782608, "slug": "pentest-active-directory", "source": "clawhub", "stars": 0, "tags": null, "updated_at": 1776756982723, "version": "0.1.0"}, {"category": "content-creation", "created_at": 1773073539421, "description": "Monitor websites for changes, downtime, or specific content. Get notified when a page changes, goes down, or matches/stops matching a pattern. Lightweight —...", "description_zh": "", "downloads": 355, "homepage": "https://clawhub.ai/zacjiang/site-monitor", "iconUrl": null, "installs": 3, "name": "Website Monitor", "ownerName": "zacjiang", "score": 65985.13011152417, "slug": "site-monitor", "source": "clawhub", "stars": 0, "tags": null, "updated_at": 1776748545141, "version": "1.0.0"}, {"category": "developer-tools", "created_at": 1772791185127, "description": "Automatically generates TypeScript types from GraphQL schema files with CLI integration for developers and AI agents.", "description_zh": "", "downloads": 355, "homepage": "https://clawhub.ai/root/neo-graphql-ts-generator", "iconUrl": null, "installs": 5, "name": "Skill", "ownerName": "root", "score": 85131.89448441248, "slug": "neo-graphql-ts-generator", "source": "clawhub", "stars": 0, "tags": null, "updated_at": 1776748545017, "version": "1.0.0"}, {"category": "data-analysis", "created_at": 1772788851759, "description": "Real-time INCLAWNCH token analytics on Base. Price, volume, liquidity, staking TVL, UBI APY, distribution rates, and platform metrics in a single API call. N...", "description_zh": "", "downloads": 355, "homepage": "https://clawhub.ai/stuart5915/inclawnch-analytics", "iconUrl": null, "installs": 12, "name": "INCLAWNCH Analytics", "ownerName": "stuart5915", "score": 82943.92523364486, "slug": "inclawnch-analytics", "source": "clawhub", "stars": 0, "tags": null, "updated_at": 1776748544713, "version": "1.0.1"}, {"category": "developer-tools", "created_at": 1773076954947, "description": "Bridge Mac-owned tools like imsg, remindctl, memo, things, and peekaboo onto a Linux OpenClaw gateway by installing explicit same-LAN SSH wrappers with optio...", "description_zh": "", "downloads": 355, "homepage": "https://clawhub.ai/matthewxmurphy/macos-bridge", "iconUrl": null, "installs": 8, "name": "Macos Bridge", "ownerName": "matthewxmurphy", "score": 82366.58932714617, "slug": "macos-bridge", "source": "clawhub", "stars": 0, "tags": null, "updated_at": 1776748544640, "version": "0.6.2"}, {"category": "data-analysis", "created_at": 1772792285039, "description": "Behavioral cost coach for OpenClaw fleets. Analyzes your sessions, shows what you did that cost money, and coaches you on what to do differently. Finds both...", "description_zh": "", "downloads": 355, "homepage": "https://clawhub.ai/nabilrehman/clawdoctor", "iconUrl": null, "installs": 5, "name": "ClawDoctor", "ownerName": "nabilrehman", "score": 82366.58932714617, "slug": "clawdoctor", "source": "clawhub", "stars": 0, "tags": ["analytics", "cost", "optimization"], "updated_at": 1776748544633, "version": "4.0.0"}, {"category": "data-analysis", "created_at": 1772796325573, "description": "Meta-agent that routes bioinformatics requests to specialised sub-skills. Handles file type detection, analysis planning, report generation, and reproducibil...", "description_zh": "", "downloads": 355, "homepage": "https://clawhub.ai/manuelcorpas/clawbio-orchestrator", "iconUrl": null, "installs": 34, "name": "ClawBio Orchestrator", "ownerName": "manuelcorpas", "score": 90101.52284263959, "slug": "clawbio-orchestrator", "source": "clawhub", "stars": 0, "tags": null, "updated_at": 1776748544599, "version": "0.1.0"}, {"category": "data-analysis", "created_at": 1772792453761, "description": "Analyzes codebases and generates comprehensive test suites. Unit tests, integration tests, edge cases, mocking strategies. Supports JavaScript/TypeScript (Je...", "description_zh": "", "downloads": 355, "homepage": "https://clawhub.ai/ryudi84/sovereign-test-generator", "iconUrl": null, "installs": 13, "name": "Sovereign Test Generator", "ownerName": "ryudi84", "score": 90101.52284263959, "slug": "sovereign-test-generator", "source": "clawhub", "stars": 0, "tags": null, "updated_at": 1776748544571, "version": "1.0.0"}, {"category": "data-analysis", "created_at": 1772791140712, "description": "Automatically converts legacy Python 2 code to Python 3 with compatibility checks and test generation.", "description_zh": "", "downloads": 355, "homepage": "https://clawhub.ai/root/neo-py2py3-converter", "iconUrl": null, "installs": 0, "name": "Skill", "ownerName": "root", "score": 63620.07168458781, "slug": "neo-py2py3-converter", "source": "clawhub", "stars": 0, "tags": null, "updated_at": 1776748544451, "version": "1.0.0"}, {"category": "productivity", "created_at": 1773202026882, "description": "OpenClaw documentation expert — answers user questions about OpenClaw setup, configuration, providers, troubleshooting, and what's new using live doc fetchin...", "description_zh": "", "downloads": 355, "homepage": "https://clawhub.ai/alfonso46674/openclaw-sage", "iconUrl": null, "installs": 8, "name": "Openclaw Sage", "ownerName": "alfonso46674", "score": 63620.07168458781, "slug": "openclaw-sage", "source": "clawhub", "stars": 0, "tags": null, "updated_at": 1776748544379, "version": "0.2.4"}, {"category": "productivity", "created_at": 1772792917387, "description": "Trade memecoins on Solana. Use when: user asks about memecoins, trenching, degen trading, ape, GMGN, Axiom, pump, 100x, alpha, CT, smart money, whale trackin...", "description_zh": "", "downloads": 354, "homepage": "https://clawhub.ai/outsmartchad/outsmart-trenching", "iconUrl": null, "installs": 16, "name": "Outsmart Trenching", "ownerName": "outsmartchad", "score": 100000, "slug": "outsmart-trenching", "source": "clawhub", "stars": 2, "tags": null, "updated_at": 1776748544913, "version": "1.0.0"}, {"category": "content-creation", "created_at": 1772793007524, "description": "Full end-to-end SEO + GEO content creation pipeline for crypto/Web3 teams. Trigger this skill when the user wants to: write a blog post or article, research...", "description_zh": "", "downloads": 354, "homepage": "https://clawhub.ai/kaokray/cook-a-skill-content-blog-social", "iconUrl": null, "installs": 29, "name": "Auto Content", "ownerName": "kaokray", "score": 100000, "slug": "cook-a-skill-content-blog-social", "source": "clawhub", "stars": 2, "tags": null, "updated_at": 1776748544481, "version": "1.0.2"}, {"category": "content-creation", "created_at": 1773430162669, "description": "Autonomous agent skill for the CoTale collaborative fiction platform — register, read novels, write chapters, and schedule autonomous workflows via REST API....", "description_zh": "", "downloads": 354, "homepage": "https://clawhub.ai/alvinwo/cotale", "iconUrl": null, "installs": 131, "name": "CoTale", "ownerName": "alvinwo", "score": 42355.605889014725, "slug": "cotale", "source": "clawhub", "stars": 1, "tags": null, "updated_at": 1776764690460, "version": "1.1.0"}]}