{"page": 225, "total_pages": 522, "total": 26073, "skills": [{"category": "content-creation", "created_at": 1773060473515, "description": "Recommend curated prompts from a 10,000+ real-world image generation prompt library. Works with ANY AI image model — Nano Banana Pro, Nano Banana 2, Seedream...", "description_zh": "", "downloads": 354, "homepage": "https://clawhub.ai/dophinl/ai-image-prompts", "iconUrl": null, "installs": 27, "name": "AI Image Prompts", "ownerName": "dophinl", "score": 87383.17757009347, "slug": "ai-image-prompts", "source": "clawhub", "stars": 1, "tags": null, "updated_at": 1776748544774, "version": "1.0.5"}, {"category": "productivity", "created_at": 1772798424577, "description": "Full voice message setup (STT + TTS) for OpenClaw using faster-whisper and Edge TTS", "description_zh": "", "downloads": 354, "homepage": "https://clawhub.ai/aksenkin/voice-stt-tts", "iconUrl": null, "installs": 13, "name": "Voice messaging setup", "ownerName": "aksenkin", "score": 1049.0132163812007, "slug": "voice-stt-tts", "source": "clawhub", "stars": 0, "tags": null, "updated_at": 1776770390521, "version": "1.0.3"}, {"category": "data-analysis", "created_at": 1773057244160, "description": "LLM-driven crypto perpetual futures trading on Bybit. Analyzes 200+ market features across 8 timeframes with strategy-aware output, then you decide whether t...", "description_zh": "", "downloads": 354, "homepage": "https://clawhub.ai/root/quantclaw", "iconUrl": null, "installs": 51, "name": "QuantClaw", "ownerName": "root", "score": 414.57330569511294, "slug": "quantclaw", "source": "clawhub", "stars": 0, "tags": null, "updated_at": 1776770350061, "version": "1.1.0"}, {"category": "productivity", "created_at": 1773957222523, "description": "Estimate ecommerce reorder timing and quantity using demand, lead time, and safety stock assumptions so teams can set reorder points and reduce stockout risk...", "description_zh": "", "downloads": 354, "homepage": "https://clawhub.ai/leooooooow/inventory-reorder-calculator", "iconUrl": null, "installs": 34, "name": "Inventory Reorder Calculator", "ownerName": "leooooooow", "score": 8106.251431188459, "slug": "inventory-reorder-calculator", "source": "clawhub", "stars": 0, "tags": null, "updated_at": 1776767949752, "version": "1.0.2"}, {"category": "developer-tools", "created_at": 1772793332902, "description": "Codebase onboarding assistant that maps project architecture, identifies patterns, generates guides, and helps new developers understand any repository in mi...", "description_zh": "", "downloads": 354, "homepage": "https://clawhub.ai/ryudi84/sovereign-codebase-onboarding", "iconUrl": null, "installs": 8, "name": "Sovereign Codebase Onboarding", "ownerName": "ryudi84", "score": 11338.88532991672, "slug": "sovereign-codebase-onboarding", "source": "clawhub", "stars": 0, "tags": null, "updated_at": 1776761445465, "version": "1.0.0"}, {"category": "ai-intelligence", "created_at": 1772794664766, "description": "Schedule OpenClaw tasks using natural language with full cron lifecycle, timezone support, failure alerts, and execution logs without needing cron syntax.", "description_zh": "", "downloads": 354, "homepage": "https://clawhub.ai/mariusfit/clawhub-skill-smart-cron", "iconUrl": null, "installs": 23, "name": "Clawhub Skill Smart Cron", "ownerName": "mariusfit", "score": 95675.67567567568, "slug": "clawhub-skill-smart-cron", "source": "clawhub", "stars": 0, "tags": null, "updated_at": 1776759198222, "version": "1.0.0"}, {"category": "productivity", "created_at": 1773063843075, "description": "Automation skill for Smart Meeting Minutes Cn.", "description_zh": "", "downloads": 354, "homepage": "https://clawhub.ai/huyong2023/smart-meeting-minutes-cn", "iconUrl": null, "installs": 76, "name": "Smart Meeting Minutes Cn", "ownerName": "huyong2023", "score": 95675.67567567568, "slug": "smart-meeting-minutes-cn", "source": "clawhub", "stars": 0, "tags": null, "updated_at": 1776759198174, "version": "1.0.0"}, {"category": "developer-tools", "created_at": 1773290897461, "description": "Simulates human four-layer memory for encoding, retrieval, association, reflection, and forgetting to enable continuous learning and self-improvement.", "description_zh": "", "downloads": 354, "homepage": "https://clawhub.ai/aboutyao/cognitive-brain", "iconUrl": null, "installs": 24, "name": "Cognitive Brain", "ownerName": "aboutyao", "score": 26319.70260223048, "slug": "cognitive-brain", "source": "clawhub", "stars": 0, "tags": null, "updated_at": 1776759197862, "version": "1.0.0"}, {"category": "content-creation", "created_at": 1773290756087, "description": "Use when planning product experiments, writing testable hypotheses, estimating sample size, prioritizing tests, or interpreting A/B outcomes with practical s...", "description_zh": "", "downloads": 354, "homepage": "https://clawhub.ai/alirezarezvani/experiment-designer", "iconUrl": null, "installs": 26, "name": "Experiment Designer", "ownerName": "alirezarezvani", "score": 23459.24453280318, "slug": "experiment-designer", "source": "clawhub", "stars": 0, "tags": null, "updated_at": 1776757882329, "version": "2.1.1"}, {"category": "ai-intelligence", "created_at": 1773074091616, "description": "Interact with the BNB Chain Model Context Protocol (MCP) server. Blocks, contracts, tokens, NFTs, wallet, Greenfield, and ERC-8004 agent tools. Use npx @bnb-...", "description_zh": "", "downloads": 354, "homepage": "https://clawhub.ai/0xlucasliao/bnbchain", "iconUrl": null, "installs": 10, "name": "bnbchain", "ownerName": "0xlucasliao", "score": 66168.22429906542, "slug": "bnbchain", "source": "clawhub", "stars": 0, "tags": null, "updated_at": 1776748545143, "version": "v1.0.2"}, {"category": "data-analysis", "created_at": 1772790488666, "description": "Helps estimate the blast radius when an AI agent skill turns malicious after widespread adoption. Analyzes inheritance chains, dependency graphs, and adoptio...", "description_zh": "", "downloads": 354, "homepage": "https://clawhub.ai/andyxinweiminicloud/blast-radius-estimator", "iconUrl": null, "installs": 8, "name": "Blast Radius Estimator", "ownerName": "andyxinweiminicloud", "score": 65799.25650557621, "slug": "blast-radius-estimator", "source": "clawhub", "stars": 0, "tags": null, "updated_at": 1776748545083, "version": "1.0.0"}, {"category": "security-compliance", "created_at": 1772793549043, "description": "Read-only Elasticsearch 9.x reference for AI-orchestrated search and analytics. SECURITY: This skill provides documentation for read-only operations only (se...", "description_zh": "", "downloads": 354, "homepage": "https://clawhub.ai/salgado/elasticsearch-openclaw", "iconUrl": null, "installs": 9, "name": "Elasticsearch Openclaw", "ownerName": "salgado", "score": 89847.71573604061, "slug": "elasticsearch-openclaw", "source": "clawhub", "stars": 0, "tags": null, "updated_at": 1776748544897, "version": "1.1.1"}, {"category": "data-analysis", "created_at": 1773289589809, "description": "Reference tool for blockchain and crypto — covers intro, quickstart, patterns and more. Quick lookup for Arbitrage Finder concepts, best practices, and imple...", "description_zh": "", "downloads": 354, "homepage": "https://clawhub.ai/bytesagain1/arbitrage-finder", "iconUrl": null, "installs": 8, "name": "Arbitrage Finder", "ownerName": "bytesagain1", "score": 89847.71573604061, "slug": "arbitrage-finder", "source": "clawhub", "stars": 0, "tags": ["chinese", "productivity"], "updated_at": 1776748544869, "version": "3.0.2"}, {"category": "developer-tools", "created_at": 1772795376397, "description": "Simple text-to-speech skill using MiniMax Voice API. Converts text to audio with customizable voice selection. Use for generating speech audio from text.", "description_zh": "", "downloads": 354, "homepage": "https://clawhub.ai/blue-coconut/mm-easy-voice", "iconUrl": null, "installs": 20, "name": "mmEasyVoice", "ownerName": "blue-coconut", "score": 89847.71573604061, "slug": "mm-easy-voice", "source": "clawhub", "stars": 0, "tags": null, "updated_at": 1776748544592, "version": "1.0.2"}, {"category": "data-analysis", "created_at": 1772788040432, "description": "Comprehensive toolkit for MoltbotDen (moltbotden.com) - the intelligence layer for AI agents. Den chat, weekly prompts, showcase, agent discovery, compatibil...", "description_zh": "", "downloads": 354, "homepage": "https://clawhub.ai/yoder-bawt/moltbotden-engagement", "iconUrl": null, "installs": 10, "name": "Moltbotden Engagement", "ownerName": "yoder-bawt", "score": 63440.86021505376, "slug": "moltbotden-engagement", "source": "clawhub", "stars": 0, "tags": null, "updated_at": 1776748544456, "version": "1.0.0"}, {"category": "developer-tools", "created_at": 1772795573112, "description": "Search GitHub for battle-tested solutions instead of reinventing the wheel. Use when the user problem is universal enough that open source developers have pr...", "description_zh": "", "downloads": 353, "homepage": "https://clawhub.ai/wells1137/github-gem-seeker", "iconUrl": null, "installs": 23, "name": "GitHub Gem Seeker", "ownerName": "wells1137", "score": 94670.05076142133, "slug": "github-gem-seeker", "source": "clawhub", "stars": 1, "tags": null, "updated_at": 1776748544902, "version": "1.0.0"}, {"category": "ai-intelligence", "created_at": 1772795058148, "description": "Track earnings, payouts, and uptime from multiple passive crypto income apps with daily summaries and export options in USD/EUR.", "description_zh": "", "downloads": 353, "homepage": "https://clawhub.ai/mariusfit/passive-income-tracker", "iconUrl": null, "installs": 13, "name": "Clawhub Skill Passive Income Tracker", "ownerName": "mariusfit", "score": 95405.40540540541, "slug": "passive-income-tracker", "source": "clawhub", "stars": 0, "tags": null, "updated_at": 1776759198208, "version": "1.0.0"}, {"category": "communication-collaboration", "created_at": 1772794890115, "description": "Self-hosted infrastructure monitoring with local checks for HTTP, TCP, Docker, resources, SSL, DNS, Proxmox, and alerts via WhatsApp, Telegram, or Discord.", "description_zh": "", "downloads": 353, "homepage": "https://clawhub.ai/mariusfit/clawhub-skill-infra-watchdog", "iconUrl": null, "installs": 15, "name": "Clawhub Skill Infra Watchdog", "ownerName": "mariusfit", "score": 26225.8543833581, "slug": "clawhub-skill-infra-watchdog", "source": "clawhub", "stars": 0, "tags": null, "updated_at": 1776759197718, "version": "1.0.0"}, {"category": "ai-intelligence", "created_at": 1772791072544, "description": "Chicago Metra commuter rail — real-time train arrivals, vehicle tracking, service alerts, and schedule info for all 11 Metra lines serving the Chicago metrop...", "description_zh": "", "downloads": 353, "homepage": "https://clawhub.ai/brianleach/metra", "iconUrl": null, "installs": 8, "name": "Metra Skill", "ownerName": "brianleach", "score": 26225.8543833581, "slug": "metra", "source": "clawhub", "stars": 0, "tags": null, "updated_at": 1776759197710, "version": "1.0.0"}, {"category": "developer-tools", "created_at": 1773218132983, "description": "A comprehensive AI agent skill for leaders at every level. Navigates difficult conversations, builds feedback culture, supports better decisions under pressu...", "description_zh": "", "downloads": 353, "homepage": "https://clawhub.ai/ethagent/leadership", "iconUrl": null, "installs": 7, "name": "Leadership", "ownerName": "ethagent", "score": 26225.8543833581, "slug": "leadership", "source": "clawhub", "stars": 0, "tags": ["decisions", "feedback", "leadership", "management", "teams"], "updated_at": 1776759197709, "version": "1.0.0"}, {"category": "developer-tools", "created_at": 1773882404124, "description": "Create wireframes and user flows. Use when sketching page layouts in ASCII/SVG, mapping flows, or exporting to HTML.", "description_zh": "", "downloads": 353, "homepage": "https://clawhub.ai/ckchzh/wireframe", "iconUrl": null, "installs": 13, "name": "Wireframe", "ownerName": "ckchzh", "score": 17873.417721518985, "slug": "wireframe", "source": "clawhub", "stars": 0, "tags": null, "updated_at": 1776753883806, "version": "3.4.1"}, {"category": "developer-tools", "created_at": 1773084152242, "description": "This skill should be used when the user asks to \"query OKX account balance\", \"place an order on OKX\", \"get OKX market data\", \"check OKX positions\", \"cancel O...", "description_zh": "", "downloads": 353, "homepage": "https://clawhub.ai/xhfkindergarten/okx-api", "iconUrl": null, "installs": 34, "name": "OKX API", "ownerName": "xhfkindergarten", "score": 100000, "slug": "okx-api", "source": "clawhub", "stars": 0, "tags": null, "updated_at": 1776750004806, "version": "1.0.0"}, {"category": "security-compliance", "created_at": 1772791453886, "description": "Authoritative skill-creation standards (Boss). Use when creating or updating OpenClaw skills so they are portable, reproducible, include prerequisites checks...", "description_zh": "", "downloads": 353, "homepage": "https://clawhub.ai/moodykong/skill-father", "iconUrl": null, "installs": 10, "name": "Skill Father", "ownerName": "moodykong", "score": 65613.38289962825, "slug": "skill-father", "source": "clawhub", "stars": 0, "tags": null, "updated_at": 1776748545067, "version": "0.1.0"}, {"category": "developer-tools", "created_at": 1772797086969, "description": "Generate high-quality music/songs via AIMLAPI. Supports Suno, Udio, Minimax, and ElevenLabs music models. Use when the user asks for music, songs, or soundtr...", "description_zh": "", "downloads": 353, "homepage": "https://clawhub.ai/aimlapihello/aiml-music-generator", "iconUrl": null, "installs": 32, "name": "AIML Music Generator", "ownerName": "aimlapihello", "score": 84652.27817745804, "slug": "aiml-music-generator", "source": "clawhub", "stars": 0, "tags": null, "updated_at": 1776748544975, "version": "1.0.0"}, {"category": "developer-tools", "created_at": 1772794584538, "description": "Manage Things 3 via the `things` CLI on macOS (add/update projects+todos via URL scheme; read/search/list from the local Things database). Use when a user as...", "description_zh": "", "downloads": 353, "homepage": "https://clawhub.ai/mohdalhashemi98-hue/mh-things-mac", "iconUrl": null, "installs": 7, "name": "MH things-mac", "ownerName": "mohdalhashemi98-hue", "score": 89593.90862944162, "slug": "mh-things-mac", "source": "clawhub", "stars": 0, "tags": null, "updated_at": 1776748544885, "version": "1.0.0"}, {"category": "ai-intelligence", "created_at": 1772792197088, "description": "Verify factual claims against live data sources. Returns structured verdicts with confidence scores.", "description_zh": "", "downloads": 353, "homepage": "https://clawhub.ai/cutthemustard/cs-verify", "iconUrl": null, "installs": 0, "name": "Clawhub Skill", "ownerName": "cutthemustard", "score": 89593.90862944162, "slug": "cs-verify", "source": "clawhub", "stars": 0, "tags": null, "updated_at": 1776748544796, "version": "1.0.0"}, {"category": "developer-tools", "created_at": 1772792436120, "description": "MOLIT apartment real transaction price API", "description_zh": "", "downloads": 353, "homepage": "https://clawhub.ai/sw326/molit-real-estate", "iconUrl": null, "installs": 7, "name": "국토부 부동산 실거래가", "ownerName": "sw326", "score": 82476.6355140187, "slug": "molit-real-estate", "source": "clawhub", "stars": 0, "tags": ["korea", "korean", "property", "real-estate"], "updated_at": 1776748544764, "version": "2.2.0"}, {"category": "content-creation", "created_at": 1772799975385, "description": "Generate an image of a whimsical, fairytale-inspired floral · arch with pastel-colored flowers and delicate ivy.", "description_zh": "", "downloads": 353, "homepage": "https://clawhub.ai/starpixel89-svg/ai-image-generation-prompts-9142af54", "iconUrl": null, "installs": 29, "name": "Ai Image Generation Prompts 9142af54", "ownerName": "starpixel89-svg", "score": 82476.6355140187, "slug": "ai-image-generation-prompts-9142af54", "source": "clawhub", "stars": 0, "tags": null, "updated_at": 1776748544698, "version": "1.0.0"}, {"category": "productivity", "created_at": 1772791762810, "description": "Free basic proposal template for freelancers. Creates simple, professional proposals with essential sections. Use when you need a quick proposal without comp...", "description_zh": "", "downloads": 353, "homepage": "https://clawhub.ai/kambrosgroup/simple-proposal-template-v2", "iconUrl": null, "installs": 6, "name": "Simple Proposal Template", "ownerName": "kambrosgroup", "score": 81902.55220417633, "slug": "simple-proposal-template-v2", "source": "clawhub", "stars": 0, "tags": null, "updated_at": 1776748544626, "version": "1.0.0"}, {"category": "communication-collaboration", "created_at": 1773206476700, "description": "Local OPUS/Ogg voice-reply pipeline for Feishu/Discord with structured voice customization. Default voice is Juno (`voice/juno_ref.wav`), with support for re...", "description_zh": "", "downloads": 353, "homepage": "https://clawhub.ai/tenured-master-chef-607/local-voice-reply", "iconUrl": null, "installs": 12, "name": "local-voice-reply", "ownerName": "tenured-master-chef-607", "score": 63261.64874551971, "slug": "local-voice-reply", "source": "clawhub", "stars": 0, "tags": null, "updated_at": 1776748544467, "version": "3.3.3"}, {"category": "communication-collaboration", "created_at": 1772796146270, "description": "Build and debug Groq API chat and speech workflows with low-latency routing, structured outputs, and production-safe patterns.", "description_zh": "", "downloads": 353, "homepage": "https://clawhub.ai/ivangdavila/groq-api", "iconUrl": null, "installs": 17, "name": "Groq API Inference", "ownerName": "ivangdavila", "score": 63261.64874551971, "slug": "groq-api", "source": "clawhub", "stars": 0, "tags": null, "updated_at": 1776748544409, "version": "1.0.0"}, {"category": "productivity", "created_at": 1773061419738, "description": "A whimsical travel adventure generator inspired by the Japanese Travel Frog game. Claw randomly travels to destinations, encounters events, and generates 130...", "description_zh": "", "downloads": 352, "homepage": "https://clawhub.ai/whx405831799/travel-claw", "iconUrl": null, "installs": 32, "name": "Travel Claw(旅行龙虾)", "ownerName": "whx405831799", "score": 98800.95923261391, "slug": "travel-claw", "source": "clawhub", "stars": 3, "tags": null, "updated_at": 1776748545005, "version": "1.1.3"}, {"category": "security-compliance", "created_at": 1772793580596, "description": "Download YouTube videos by URL in various resolutions using a pay-per-use API with credit-based authentication and no charge on failed downloads.", "description_zh": "", "downloads": 352, "homepage": "https://clawhub.ai/xjouska/u2-downloader", "iconUrl": null, "installs": 10, "name": "u2-downloader", "ownerName": "xjouska", "score": 100000, "slug": "u2-downloader", "source": "clawhub", "stars": 2, "tags": null, "updated_at": 1776759120540, "version": "1.0.3"}, {"category": "security-compliance", "created_at": 1773284319116, "description": "A security-hardened visual directory tree generator. Use this to create a collapsible HTML visualization of local folders. Features built-in XSS protection a...", "description_zh": "", "downloads": 352, "homepage": "https://clawhub.ai/sdsds222/folder-visualizer-html", "iconUrl": null, "installs": 18, "name": "Folder UI Visualizer - show the folder through HTML (via Telegram)", "ownerName": "sdsds222", "score": 6104.364949130292, "slug": "folder-visualizer-html", "source": "clawhub", "stars": 1, "tags": null, "updated_at": 1776768850283, "version": "1.0.10"}, {"category": "content-creation", "created_at": 1773283799846, "description": "Create professional, consultant-grade PowerPoint presentations from scratch using python-pptx with McKinsey-style design. Use when user asks to create slides...", "description_zh": "", "downloads": 352, "homepage": "https://clawhub.ai/likaku/mck-skill-repo", "iconUrl": null, "installs": 128, "name": "Mck Skill Repo", "ownerName": "likaku", "score": 42129.1053227633, "slug": "mck-skill-repo", "source": "clawhub", "stars": 1, "tags": null, "updated_at": 1776764690458, "version": "1.6.1"}, {"category": "data-analysis", "created_at": 1773066966808, "description": "AI-Powered Due Diligence Analysis - Automated comprehensive DD across financial, legal, business, and team dimensions for investment decisions", "description_zh": "", "downloads": 352, "homepage": "https://clawhub.ai/zhenstaff/due-diligence-analyst", "iconUrl": null, "installs": 63, "name": "Due Diligence Analyst", "ownerName": "zhenstaff", "score": 14241.960183767227, "slug": "due-diligence-analyst", "source": "clawhub", "stars": 1, "tags": null, "updated_at": 1776762290042, "version": "1.0.0"}, {"category": "security-compliance", "created_at": 1772795283206, "description": "Zero-knowledge credential management — make authenticated API calls without exposing your keys", "description_zh": "", "downloads": 352, "homepage": "https://clawhub.ai/steppacodes/agentsecrets", "iconUrl": null, "installs": 8, "name": "agentsecrets", "ownerName": "steppacodes", "score": 17072.051399724645, "slug": "agentsecrets", "source": "clawhub", "stars": 1, "tags": null, "updated_at": 1776759120426, "version": "1.1.0"}, {"category": "productivity", "created_at": 1773074114632, "description": "Microsoft Outlook integration. Manage communication data, records, and workflows. Use when the user wants to interact with Microsoft Outlook data.", "description_zh": "", "downloads": 352, "homepage": "https://clawhub.ai/gora050/microsoft-outlook", "iconUrl": null, "installs": 40, "name": "Microsoft Outlook", "ownerName": "gora050", "score": 4858.523119392685, "slug": "microsoft-outlook", "source": "clawhub", "stars": 0, "tags": null, "updated_at": 1776769190546, "version": "1.0.0"}, {"category": "productivity", "created_at": 1772803811632, "description": "Attach the OpenClaw Browser Relay Chrome extension to a live tab so the browser tool (profile=\"chrome\") works. Use this skill before any browser automation t...", "description_zh": "", "downloads": 352, "homepage": "https://clawhub.ai/i-am-rad/chrome-extension-relay-helper-mac", "iconUrl": null, "installs": 29, "name": "Chrome Extension Relay Helper - Mac", "ownerName": "i-am-rad", "score": 1638.2760867541656, "slug": "chrome-extension-relay-helper-mac", "source": "clawhub", "stars": 0, "tags": null, "updated_at": 1776766150222, "version": "1.0.0"}, {"category": "productivity", "created_at": 1773921718282, "description": "Standardized literature search workflow integrating tavily-search, pubmed-database, bgpt-paper-search, openalex-database and other academic search skills. Pr...", "description_zh": "", "downloads": 352, "homepage": "https://clawhub.ai/earthwalking/literature-search-workflow", "iconUrl": null, "installs": 139, "name": "Literature Search Workflow", "ownerName": "earthwalking", "score": 17153.996101364522, "slug": "literature-search-workflow", "source": "clawhub", "stars": 0, "tags": null, "updated_at": 1776764090692, "version": "1.0.0"}, {"category": "data-analysis", "created_at": 1773205226114, "description": "Scrapes Amazon for high-demand, low-competition products, analyzes reviews for improvements, calculates profit margins, creates optimized listings, and produ...", "description_zh": "", "downloads": 352, "homepage": "https://clawhub.ai/g4dr/ai-amazon-product-dominator", "iconUrl": null, "installs": 69, "name": "AI Amazon Product Dominator — Find Winning Products & Crush the Competition Before You Launch", "ownerName": "g4dr", "score": 7210.159770585825, "slug": "ai-amazon-product-dominator", "source": "clawhub", "stars": 0, "tags": ["amazon", "apify", "dropshipping", "ecommerce", "fba", "invideo", "keyword-research", "listing-optimization", "private-label", "product-launch", "product-research", "profit-margin"], "updated_at": 1776763450267, "version": "1.0.0"}, {"category": "developer-tools", "created_at": 1772803650200, "description": "Specialized processor for EvoMap AI work opportunities including formal verification tasks, performance optimization, and concurrent system development. Hand...", "description_zh": "", "downloads": 352, "homepage": "https://clawhub.ai/bestrocky/evomap-work-processor", "iconUrl": null, "installs": 19, "name": "EvoMap Work Processor", "ownerName": "bestrocky", "score": 13744.631003514252, "slug": "evomap-work-processor", "source": "clawhub", "stars": 0, "tags": null, "updated_at": 1776762315227, "version": "1.0.0"}, {"category": "data-analysis", "created_at": 1773089269474, "description": "MiniMax Coding Plan native web search and image understanding for OpenClaw. Use when the user specifically wants MiniMax-native search or image analysis, or...", "description_zh": "", "downloads": 352, "homepage": "https://clawhub.ai/yjli-new/minimax-coding-plan", "iconUrl": null, "installs": 46, "name": "MiniMax Coding Plan", "ownerName": "yjli-new", "score": 10149.942329873125, "slug": "minimax-coding-plan", "source": "clawhub", "stars": 0, "tags": null, "updated_at": 1776761145458, "version": "0.1.1"}, {"category": "content-creation", "created_at": 1773202790518, "description": "Professional reviewer and critic. Trigger whenever the user wants structured feedback on anything: documents, plans, code, decisions, strategies, designs, pi...", "description_zh": "", "downloads": 352, "homepage": "https://clawhub.ai/ethagent/review", "iconUrl": null, "installs": 11, "name": "Review", "ownerName": "ethagent", "score": 100000, "slug": "review", "source": "clawhub", "stars": 0, "tags": ["assessment", "editing", "feedback", "quality", "review"], "updated_at": 1776759982750, "version": "1.0.0"}, {"category": "productivity", "created_at": 1772792365697, "description": "Provides local system health monitoring and controlled service restarts for Docker and PM2 with full privacy and zero external calls.", "description_zh": "", "downloads": 352, "homepage": "https://clawhub.ai/mrnsmh/nexus-safe", "iconUrl": null, "installs": 11, "name": "Nexus Safe", "ownerName": "mrnsmh", "score": 98050.139275766, "slug": "nexus-safe", "source": "clawhub", "stars": 0, "tags": null, "updated_at": 1776759198232, "version": "0.1.6"}, {"category": "developer-tools", "created_at": 1772796368801, "description": "Performs fast local semantic search on OpenClaw memory files using TF-IDF without external dependencies or APIs.", "description_zh": "", "downloads": 352, "homepage": "https://clawhub.ai/dagangtj/local-memory-search", "iconUrl": null, "installs": 7, "name": "Local Memory Search", "ownerName": "dagangtj", "score": 95135.13513513513, "slug": "local-memory-search", "source": "clawhub", "stars": 0, "tags": null, "updated_at": 1776759198176, "version": "1.0.0"}, {"category": "data-analysis", "created_at": 1772792404937, "description": "Finds and lists the top 3 best new, used, or refurbished deals with prices, links, and coupons for products searched via Discord chat keywords.", "description_zh": "", "downloads": 352, "homepage": "https://clawhub.ai/treylc3/discord-shopping", "iconUrl": null, "installs": 14, "name": "Discord Shopping Deals", "ownerName": "treylc3", "score": 63768.11594202898, "slug": "discord-shopping", "source": "clawhub", "stars": 0, "tags": null, "updated_at": 1776759197762, "version": "1.0.0"}, {"category": "developer-tools", "created_at": 1772796419874, "description": "Deploy and manage Vercel projects, including linking repositories, env vars, and domains.", "description_zh": "", "downloads": 352, "homepage": "https://clawhub.ai/brennerspear/vercel-deployment", "iconUrl": null, "installs": 5, "name": "Vercel", "ownerName": "brennerspear", "score": 18181.818181818184, "slug": "vercel-deployment", "source": "clawhub", "stars": 0, "tags": null, "updated_at": 1776753884150, "version": "1.0.0"}, {"category": "developer-tools", "created_at": 1773426011017, "description": "Pre-process prompts through 3 compression layers before sending to paid APIs. Uses a local Ollama model to intelligently compress messages and summarize hist...", "description_zh": "", "downloads": 352, "homepage": "https://clawhub.ai/theshadowrose/token-compressor", "iconUrl": null, "installs": 11, "name": "3-Layer Token Compressor — Cut AI API Costs 40-60%", "ownerName": "theshadowrose", "score": 65427.5092936803, "slug": "token-compressor", "source": "clawhub", "stars": 0, "tags": ["api-costs", "budget", "compression", "cost-reduction", "ollama", "prompt-optimization", "token-optimization"], "updated_at": 1776748545111, "version": "1.1.0"}, {"category": "productivity", "created_at": 1773857247463, "description": "core reference tool", "description_zh": "", "downloads": 352, "homepage": "https://clawhub.ai/xueyetianya/core", "iconUrl": null, "installs": 7, "name": "Core", "ownerName": "xueyetianya", "score": 65427.5092936803, "slug": "core", "source": "clawhub", "stars": 0, "tags": null, "updated_at": 1776748545094, "version": "3.0.0"}]}