{"page": 226, "total_pages": 522, "total": 26073, "skills": [{"category": "developer-tools", "created_at": 1772791294588, "description": "Generates structured changelogs from git history. Keep a Changelog format with PR/issue links.", "description_zh": "", "downloads": 352, "homepage": "https://clawhub.ai/ryudi84/sovereign-changelog-maker", "iconUrl": null, "installs": 4, "name": "Changelog Generator", "ownerName": "ryudi84", "score": 65427.5092936803, "slug": "sovereign-changelog-maker", "source": "clawhub", "stars": 0, "tags": null, "updated_at": 1776748545071, "version": "1.0.0"}, {"category": "communication-collaboration", "created_at": 1772793601925, "description": "Clean and organize Gmail accounts in bulk. Use when asked to clean Gmail, remove spam, trash newsletters/promotional emails, bulk-delete emails by sender, cr...", "description_zh": "", "downloads": 352, "homepage": "https://clawhub.ai/cedarscy/gmail-cleaner", "iconUrl": null, "installs": 15, "name": "Gmail Cleaner", "ownerName": "cedarscy", "score": 65427.5092936803, "slug": "gmail-cleaner", "source": "clawhub", "stars": 0, "tags": null, "updated_at": 1776748545060, "version": "1.0.0"}, {"category": "content-creation", "created_at": 1772797816433, "description": "Télécharge automatiquement la dernière vidéo (ou les N dernières) d'un compte TikTok public via yt-dlp. Utilise ce skill dès que l'utilisateur mentionne TikT...", "description_zh": "", "downloads": 352, "homepage": "https://clawhub.ai/stoxca/download-video-tiktok", "iconUrl": null, "installs": 40, "name": "Download-video-tiktok", "ownerName": "stoxca", "score": 65427.5092936803, "slug": "download-video-tiktok", "source": "clawhub", "stars": 0, "tags": null, "updated_at": 1776748545058, "version": "1.0.0"}, {"category": "developer-tools", "created_at": 1773079399398, "description": "Send push notifications to iOS devices via Bark. Use when you need to send a push notification to user's iPhone. Triggered by phrases like \"send a notificati...", "description_zh": "", "downloads": 352, "homepage": "https://clawhub.ai/deantiwang/bark-push", "iconUrl": null, "installs": 10, "name": "Bark Push", "ownerName": "deantiwang", "score": 84412.47002398082, "slug": "bark-push", "source": "clawhub", "stars": 0, "tags": null, "updated_at": 1776748544939, "version": "1.0.3"}, {"category": "ai-intelligence", "created_at": 1772791462726, "description": "Forrest's Team — Immanent Metaphysics agent framework and onboarding. Use when: (1) reasoning from the IM framework (axioms, modalities, ICT, effective choic...", "description_zh": "", "downloads": 352, "homepage": "https://clawhub.ai/samuel-dunlap/im-framework-team", "iconUrl": null, "installs": 16, "name": "IM Framework Team", "ownerName": "samuel-dunlap", "score": 82242.99065420561, "slug": "im-framework-team", "source": "clawhub", "stars": 0, "tags": null, "updated_at": 1776748544787, "version": "1.0.0"}, {"category": "security-compliance", "created_at": 1773081743791, "description": "Security leadership for growth-stage companies. Risk quantification in dollars, compliance roadmap (SOC 2/ISO 27001/HIPAA/GDPR), security architecture strate...", "description_zh": "", "downloads": 352, "homepage": "https://clawhub.ai/alirezarezvani/ciso-advisor", "iconUrl": null, "installs": 43, "name": "Ciso Advisor", "ownerName": "alirezarezvani", "score": 81670.53364269141, "slug": "ciso-advisor", "source": "clawhub", "stars": 0, "tags": null, "updated_at": 1776748544632, "version": "2.1.1"}, {"category": "data-analysis", "created_at": 1772794942970, "description": "Track nutrition, meals, water, weight, steps, meditation, and journal entries via the Habit AI API — a completely free service. Use when logging food, checki...", "description_zh": "", "downloads": 352, "homepage": "https://clawhub.ai/habitclaw/habit-ai", "iconUrl": null, "installs": 18, "name": "Habit AI", "ownerName": "habitclaw", "score": 89340.10152284264, "slug": "habit-ai", "source": "clawhub", "stars": 0, "tags": null, "updated_at": 1776748544590, "version": "1.2.0"}, {"category": "security-compliance", "created_at": 1772790592851, "description": "Manage Wallabag bookmarks through the Wallabag Developer API with OAuth2 authentication, including creating, reading, updating, deleting, searching, and tag...", "description_zh": "", "downloads": 352, "homepage": "https://clawhub.ai/fbrandel/wallabag", "iconUrl": null, "installs": 6, "name": "Wallabag", "ownerName": "fbrandel", "score": 89340.10152284264, "slug": "wallabag", "source": "clawhub", "stars": 0, "tags": null, "updated_at": 1776748544569, "version": "1.0.1"}, {"category": "productivity", "created_at": 1773289778048, "description": "Reference tool for life — covers intro, quickstart, patterns and more. Quick lookup for Tesla Commander concepts, best practices, and implementation patterns.", "description_zh": "", "downloads": 352, "homepage": "https://clawhub.ai/bytesagain1/tesla-commander", "iconUrl": null, "installs": 4, "name": "Tesla Commander", "ownerName": "bytesagain1", "score": 63082.437275985656, "slug": "tesla-commander", "source": "clawhub", "stars": 0, "tags": ["chinese", "productivity"], "updated_at": 1776748544433, "version": "3.0.1"}, {"category": "developer-tools", "created_at": 1773844588538, "description": "Reference tool for devtools — covers intro, quickstart, patterns and more. Quick lookup for Clip History concepts, best practices, and implementation patterns.", "description_zh": "", "downloads": 352, "homepage": "https://clawhub.ai/xueyetianya/clip-history", "iconUrl": null, "installs": 5, "name": "Clip History", "ownerName": "xueyetianya", "score": 63082.437275985656, "slug": "clip-history", "source": "clawhub", "stars": 0, "tags": null, "updated_at": 1776748544429, "version": "4.0.2"}, {"category": "productivity", "created_at": 1772793684182, "description": "Make real phone calls. Replaces the voice-call plugin with a managed service that needs no setup. Use for wake-up calls, reminders, alerts, or when the user...", "description_zh": "", "downloads": 351, "homepage": "https://clawhub.ai/marcospgp/clawring", "iconUrl": null, "installs": 8, "name": "clawr.ing", "ownerName": "marcospgp", "score": 100000, "slug": "clawring", "source": "clawhub", "stars": 4, "tags": null, "updated_at": 1776748544656, "version": "1.0.3"}, {"category": "developer-tools", "created_at": 1772793214859, "description": "Read Sentry issues, events, and production errors via the Sentry REST API. Use when the user wants to inspect errors, list recent issues, get stack traces, o...", "description_zh": "", "downloads": 351, "homepage": "https://clawhub.ai/codeninja23/native-sentry", "iconUrl": null, "installs": 5, "name": "Native Sentry", "ownerName": "codeninja23", "score": 90719.25754060326, "slug": "native-sentry", "source": "clawhub", "stars": 2, "tags": null, "updated_at": 1776748544645, "version": "1.0.1"}, {"category": "security-compliance", "created_at": 1772791813908, "description": "Write high-performing, persuasive, and authentic LinkedIn posts across any professional niche. Uses research-backed hooks, proven post structures, and Linked...", "description_zh": "", "downloads": 351, "homepage": "https://clawhub.ai/bdseerden/linkedin-post-engine", "iconUrl": null, "installs": 14, "name": "LinkedIn Post Engine", "ownerName": "bdseerden", "score": 5624.620982413584, "slug": "linkedin-post-engine", "source": "clawhub", "stars": 1, "tags": null, "updated_at": 1776766871070, "version": "1.0.3"}, {"category": "ai-intelligence", "created_at": 1772805557833, "description": "Communicate with other OpenClaw agents on your local network. Use when you need to ask another agent a question (sync), delegate a task (async), or check if...", "description_zh": "", "downloads": 351, "homepage": "https://clawhub.ai/danielithomas/lobsterlan", "iconUrl": null, "installs": 4, "name": "LobsterLAN", "ownerName": "danielithomas", "score": 66368.51520572451, "slug": "lobsterlan", "source": "clawhub", "stars": 1, "tags": null, "updated_at": 1776751670071, "version": "1.0.1"}, {"category": "ai-intelligence", "created_at": 1772793529349, "description": "Daily low-token, safety-first upskilling loop for OpenClaw multi-agent teams. Runs configurable micro-drills, scores quality, and produces a compact daily di...", "description_zh": "", "downloads": 351, "homepage": "https://clawhub.ai/musashi94/agentdojo", "iconUrl": null, "installs": 13, "name": "AgentDojo", "ownerName": "musashi94", "score": 13087.248322147652, "slug": "agentdojo", "source": "clawhub", "stars": 0, "tags": null, "updated_at": 1776762140038, "version": "0.1.0"}, {"category": "ai-intelligence", "created_at": 1773057488419, "description": "Agent-to-agent messaging platform with Ed25519 keypair identity. Use when AI agents need to message each other, manage inboxes, add contacts, send/receive DM...", "description_zh": "", "downloads": 351, "homepage": "https://clawhub.ai/lws803/agenthub", "iconUrl": null, "installs": 13, "name": "AgentHub", "ownerName": "lws803", "score": 26096.654275092933, "slug": "agenthub", "source": "clawhub", "stars": 0, "tags": null, "updated_at": 1776759198328, "version": "0.10.0"}, {"category": "developer-tools", "created_at": 1772794586282, "description": "Specialized skill that deeply searches and synthesizes insights from niche forums to deliver strategic reports based on human-to-human intelligence.", "description_zh": "", "downloads": 351, "homepage": "https://clawhub.ai/balkanblbn/monk-eye-engine", "iconUrl": null, "installs": 12, "name": "MONK-EYE Engine", "ownerName": "balkanblbn", "score": 26096.654275092933, "slug": "monk-eye-engine", "source": "clawhub", "stars": 0, "tags": null, "updated_at": 1776759198303, "version": "1.0.0"}, {"category": "communication-collaboration", "created_at": 1772795614728, "description": "Enables local voice chat by embedding Hotbutter relay server and PWA, providing speech-to-text and text-to-speech via a secure, self-hosted connection.", "description_zh": "", "downloads": 351, "homepage": "https://clawhub.ai/michael-stajer/hotbutter", "iconUrl": null, "installs": 14, "name": "hotbutter voice chat", "ownerName": "michael-stajer", "score": 26057.906458797326, "slug": "hotbutter", "source": "clawhub", "stars": 0, "tags": null, "updated_at": 1776759198023, "version": "1.0.6"}, {"category": "data-analysis", "created_at": 1772792235745, "description": "Track, analyze, and optimize AI and infrastructure costs with budgeting, spend forecasts, token usage scans, and optimization suggestions.", "description_zh": "", "downloads": 351, "homepage": "https://clawhub.ai/mariusfit/cost-guardian", "iconUrl": null, "installs": 11, "name": "Cost Guardian", "ownerName": "mariusfit", "score": 26038.57566765579, "slug": "cost-guardian", "source": "clawhub", "stars": 0, "tags": ["budget", "cost", "monitoring", "optimization"], "updated_at": 1776759197974, "version": "1.0.0"}, {"category": "ai-intelligence", "created_at": 1773073109124, "description": "Discover and call remote schema-exposed interfaces with UXC. Use when an agent or skill needs to list operations, inspect operation schemas, and execute Open...", "description_zh": "", "downloads": 351, "homepage": "https://clawhub.ai/jolestar/uxc", "iconUrl": null, "installs": 17, "name": "Uxc", "ownerName": "jolestar", "score": 26096.654275092933, "slug": "uxc", "source": "clawhub", "stars": 0, "tags": null, "updated_at": 1776759197902, "version": "1.0.4"}, {"category": "developer-tools", "created_at": 1773068269520, "description": "Complete medical imaging solution with OHIF viewer, DICOMweb integration, segmentation, and MONAI workflows, deployable via Docker.", "description_zh": "", "downloads": 351, "homepage": "https://clawhub.ai/sunshine-del-ux/medical-imaging-suite", "iconUrl": null, "installs": 49, "name": "Medical Imaging Suite", "ownerName": "sunshine-del-ux", "score": 26096.654275092933, "slug": "medical-imaging-suite", "source": "clawhub", "stars": 0, "tags": null, "updated_at": 1776759197867, "version": "1.0.0"}, {"category": "communication-collaboration", "created_at": 1772796110978, "description": "Generates personalized, multi-step cold email sequences by scraping prospect data, detecting tech stack, finding decision-maker emails, and integrating with...", "description_zh": "", "downloads": 351, "homepage": "https://clawhub.ai/g4dr/ai-cold-email-machine", "iconUrl": null, "installs": 15, "name": "AI Cold Email Machine — Automated Outreach Sequences for Agencies", "ownerName": "g4dr", "score": 26096.654275092933, "slug": "ai-cold-email-machine", "source": "clawhub", "stars": 0, "tags": ["agencies", "apify", "cold-email", "instantly", "lead-generation", "lemlist", "outreach"], "updated_at": 1776759197827, "version": "1.0.0"}, {"category": "communication-collaboration", "created_at": 1773083379965, "description": "Run a job search briefing, find job matches, draft outreach emails, or track job applications. Triggers on: daily briefing, job search, find jobs, job matche...", "description_zh": "", "downloads": 351, "homepage": "https://clawhub.ai/orestes-garcia-martinez/careerclaw", "iconUrl": null, "installs": 18, "name": "CareerClaw", "ownerName": "orestes-garcia-martinez", "score": 26096.654275092933, "slug": "careerclaw", "source": "clawhub", "stars": 0, "tags": null, "updated_at": 1776759197821, "version": "1.0.3"}, {"category": "productivity", "created_at": 1773219486229, "description": "This skill should be used when the user asks to 'buy BTC', 'sell ETH', 'place a limit order', 'place a market order', 'cancel my order', 'amend my order', 'l...", "description_zh": "", "downloads": 351, "homepage": "https://clawhub.ai/numpy0001/okx-cex-trade", "iconUrl": null, "installs": 31, "name": "okx-cex-trade", "ownerName": "numpy0001", "score": 25601.750547045955, "slug": "okx-cex-trade", "source": "clawhub", "stars": 0, "tags": null, "updated_at": 1776759083769, "version": "1.2.1"}, {"category": "developer-tools", "created_at": 1772799744556, "description": "Browse webpages using Playwright with automatic loading wait, screenshots, and text extraction. Use playwright:fetch or playwright:screenshot commands. API:...", "description_zh": "", "downloads": 351, "homepage": "https://clawhub.ai/mrchenkuan/playwright-controller", "iconUrl": null, "installs": 33, "name": "playwright-controller", "ownerName": "mrchenkuan", "score": 19034.70715835141, "slug": "playwright-controller", "source": "clawhub", "stars": 0, "tags": null, "updated_at": 1776754688305, "version": "1.0.0"}, {"category": "security-compliance", "created_at": 1772790682241, "description": "Gmail API integration with managed OAuth. Read, send, and manage emails, threads, labels, and drafts. Use this skill when users want to interact with Gmail....", "description_zh": "", "downloads": 351, "homepage": "https://clawhub.ai/bobbyzzhao/gmail-1-0-6", "iconUrl": null, "installs": 18, "name": "Gmail 1.0.6", "ownerName": "bobbyzzhao", "score": 65241.63568773235, "slug": "gmail-1-0-6", "source": "clawhub", "stars": 0, "tags": null, "updated_at": 1776748545089, "version": "1.0.0"}, {"category": "ai-intelligence", "created_at": 1772792095126, "description": "Deterministic rule-based system for classifying clarified input into a single primary task category and assigning execution complexity. Use when the Main Age...", "description_zh": "", "downloads": 351, "homepage": "https://clawhub.ai/omprasad122007-rgb/input-classification-v1", "iconUrl": null, "installs": 13, "name": "input classification", "ownerName": "omprasad122007-rgb", "score": 82009.34579439252, "slug": "input-classification-v1", "source": "clawhub", "stars": 0, "tags": null, "updated_at": 1776748544700, "version": "1.0.0"}, {"category": "data-analysis", "created_at": 1772790586860, "description": "Research, analyze, and track Twitter influence with TwitterScore.io API. Get scores, analyze followers, track growth, and compare accounts.", "description_zh": "", "downloads": 351, "homepage": "https://clawhub.ai/nikolaybohdanov/twitterscore", "iconUrl": null, "installs": 12, "name": "TwitterScore", "ownerName": "nikolaybohdanov", "score": 89086.29441624365, "slug": "twitterscore", "source": "clawhub", "stars": 0, "tags": ["analytics", "crypto", "influence", "research", "twitter", "twitterscore", "vc", "web3"], "updated_at": 1776748544560, "version": "1.0.0"}, {"category": "developer-tools", "created_at": 1773064451315, "description": "Provides 12 traditional Chinese medicine energy cycles with three unique daily health tips in Chinese or English, default Asia/Shanghai timezone.", "description_zh": "", "downloads": 350, "homepage": "https://clawhub.ai/amazingtest/chinese-huangdi-health-timer", "iconUrl": null, "installs": 33, "name": "chinese-huangdi-health-timer", "ownerName": "amazingtest", "score": 1722.0515684631853, "slug": "chinese-huangdi-health-timer", "source": "clawhub", "stars": 1, "tags": null, "updated_at": 1776766150264, "version": "1.0.0"}, {"category": "content-creation", "created_at": 1773073680979, "description": "Generate images, music, and videos from text prompts using Pollinations AI with models like flux, zimage, and suno-4 via API key.", "description_zh": "", "downloads": 350, "homepage": "https://clawhub.ai/kanfred/pollinations-ai", "iconUrl": null, "installs": 41, "name": "Pollinations AI", "ownerName": "kanfred", "score": 94387.75510204081, "slug": "pollinations-ai", "source": "clawhub", "stars": 1, "tags": null, "updated_at": 1776759120615, "version": "1.0.4"}, {"category": "data-analysis", "created_at": 1772792828925, "description": "Understand local non-text files (PDF, video, audio) using Gemini API. Use when the user asks to read, summarize, or analyze a PDF document, video file (mp4/m...", "description_zh": "", "downloads": 350, "homepage": "https://clawhub.ai/shigo-45/gemini-reader", "iconUrl": null, "installs": 53, "name": "Gemini Reader", "ownerName": "shigo-45", "score": 21867.612293144208, "slug": "gemini-reader", "source": "clawhub", "stars": 1, "tags": null, "updated_at": 1776756188359, "version": "1.0.5"}, {"category": "productivity", "created_at": 1773285233687, "description": "Control Android devices via adbclaw CLI — tap, swipe, type, screenshot, UI inspection, and app management. Use when: (1) user asks to control or automate an...", "description_zh": "", "downloads": 350, "homepage": "https://clawhub.ai/dionren/adb-claw", "iconUrl": null, "installs": 35, "name": "ADB Claw", "ownerName": "dionren", "score": 66308.24372759857, "slug": "adb-claw", "source": "clawhub", "stars": 1, "tags": null, "updated_at": 1776748544427, "version": "1.0.0"}, {"category": "developer-tools", "created_at": 1773218571632, "description": "The Sovereign Invention & IP-Capture Engine. Standardizing the path from AI-generated novelty to global intellectual property protection and commercial monet...", "description_zh": "", "downloads": 350, "homepage": "https://clawhub.ai/agimodel/patent", "iconUrl": null, "installs": 43, "name": "Patent", "ownerName": "agimodel", "score": 2235.2790905607358, "slug": "patent", "source": "clawhub", "stars": 0, "tags": ["copyright", "innovation", "ip", "legal", "patent"], "updated_at": 1776766150391, "version": "1.0.0"}, {"category": "ai-intelligence", "created_at": 1772795240104, "description": "Perform complex, long-running research tasks using Gemini Deep Research Agent. Use when asked to research topics requiring multi-source synthesis, competitiv...", "description_zh": "", "downloads": 350, "homepage": "https://clawhub.ai/lion504/gemini-deep-research-1-0-0", "iconUrl": null, "installs": 61, "name": "Gemini Deep Research 1.0.0", "ownerName": "lion504", "score": 5666.1809940100375, "slug": "gemini-deep-research-1-0-0", "source": "clawhub", "stars": 0, "tags": null, "updated_at": 1776765850069, "version": "1.0.0"}, {"category": "", "created_at": 1774856597819, "description": "Create, edit, improve, or audit AgentSkills. Use when creating a new skill from scratch or when asked to improve, review, audit, tidy up, or clean up an exis...", "description_zh": "", "downloads": 350, "homepage": "https://clawhub.ai/utromaya-code/skill-creator-agent", "iconUrl": null, "installs": 47, "name": "Skill Creator", "ownerName": "utromaya-code", "score": 6755.452615325226, "slug": "skill-creator-agent", "source": "clawhub", "stars": 0, "tags": null, "updated_at": 1776765250380, "version": "1.0.0"}, {"category": "data-analysis", "created_at": 1773065555732, "description": "Produce market and competitor insights for paid media decisions across Meta (Facebook/Instagram), Google Ads, TikTok Ads, YouTube Ads, Amazon Ads, and DSP/pr...", "description_zh": "", "downloads": 350, "homepage": "https://clawhub.ai/danyangliu-sandwichlab/marketing-insight-analyzer", "iconUrl": null, "installs": 33, "name": "Ads Market Insights", "ownerName": "danyangliu-sandwichlab", "score": 4229.607250755287, "slug": "marketing-insight-analyzer", "source": "clawhub", "stars": 0, "tags": null, "updated_at": 1776765250369, "version": "1.0.0"}, {"category": "content-creation", "created_at": 1773931988548, "description": "Presentation creation, editing, and analysis. When Claude needs to work with presentations (.pptx files) for: (1) Creating new presentations, (2) Modifying o...", "description_zh": "", "downloads": 350, "homepage": "https://clawhub.ai/nicky1108/x-92bilal26-pptx", "iconUrl": null, "installs": 187, "name": "X 92bilal26 Pptx", "ownerName": "nicky1108", "score": 13152.950018789927, "slug": "x-92bilal26-pptx", "source": "clawhub", "stars": 0, "tags": null, "updated_at": 1776764950480, "version": "1.0.0"}, {"category": "content-creation", "created_at": 1773080513288, "description": "Privacy-first re-crawl and diff workflow for Tencent Docs (docs.qq.com) update checks. Use when asked to re-crawl Tencent Docs links, verify whether content...", "description_zh": "", "downloads": 350, "homepage": "https://clawhub.ai/chinasilva/tencent-doc-update-watch", "iconUrl": null, "installs": 102, "name": "Tencent Doc Update Watcher", "ownerName": "chinasilva", "score": 15751.575157515752, "slug": "tencent-doc-update-watch", "source": "clawhub", "stars": 0, "tags": ["i18n", "privacy"], "updated_at": 1776764950011, "version": "0.1.1"}, {"category": "data-analysis", "created_at": 1772797531117, "description": "Analyze ad material videos and produce a markdown report with framework, material traits, and acquisition keywords, then propose new material production fram...", "description_zh": "", "downloads": 350, "homepage": "https://clawhub.ai/fevolq/material-report", "iconUrl": null, "installs": 25, "name": "Material Report", "ownerName": "fevolq", "score": 3683.0474586972537, "slug": "material-report", "source": "clawhub", "stars": 0, "tags": null, "updated_at": 1776763750476, "version": "1.0.2"}, {"category": "ai-intelligence", "created_at": 1773082163645, "description": "Verify claims, statements, and information against reliable sources. Use when user asks to fact-check, verify, confirm, validate, or check the accuracy of an...", "description_zh": "", "downloads": 350, "homepage": "https://clawhub.ai/webguhui/fact-check", "iconUrl": null, "installs": 28, "name": "Fact Check", "ownerName": "webguhui", "score": 13049.962714392244, "slug": "fact-check", "source": "clawhub", "stars": 0, "tags": null, "updated_at": 1776762140039, "version": "1.0.0"}, {"category": "security-compliance", "created_at": 1773201909558, "description": "Run a unified SEO and GEO audit for a website, page, or domain. Use when the user asks for a full SEO audit, GEO audit, AI visibility review, EEAT review, en...", "description_zh": "", "downloads": 350, "homepage": "https://clawhub.ai/geo-seo/seo-geo-audit", "iconUrl": null, "installs": 48, "name": "SEO + GEO Audit", "ownerName": "geo-seo", "score": 10351.966873706006, "slug": "seo-geo-audit", "source": "clawhub", "stars": 0, "tags": null, "updated_at": 1776761239852, "version": "1.0.4"}, {"category": "content-creation", "created_at": 1773910694917, "description": "Guide for creating high-quality MCP (Model Context Protocol) servers that enable LLMs to interact with external services through well-designed tools. Use whe...", "description_zh": "", "downloads": 350, "homepage": "https://clawhub.ai/pupuking723/mcp-builder-anthropic", "iconUrl": null, "installs": 19, "name": "Mcp Builder Anthropic", "ownerName": "pupuking723", "score": 27089.783281733748, "slug": "mcp-builder-anthropic", "source": "clawhub", "stars": 0, "tags": null, "updated_at": 1776759683651, "version": "1.0.0"}, {"category": "security-compliance", "created_at": 1773284046439, "description": "JEP Guard intercepts high-risk commands, requires user confirmation, issues temporary tokens, and logs actions with exportable audit receipts.", "description_zh": "", "downloads": 350, "homepage": "https://clawhub.ai/schchit/jep-guard", "iconUrl": null, "installs": 5, "name": "JEP Guard", "ownerName": "schchit", "score": 26022.304832713755, "slug": "jep-guard", "source": "clawhub", "stars": 0, "tags": ["audit", "jep", "latestsecurity", "openclaw", "privacy", "protection", "responsibility", "security"], "updated_at": 1776759198306, "version": "1.0.2"}, {"category": "security-compliance", "created_at": 1772794469465, "description": "Analyze medical billing workflows, identify revenue leaks, optimize claims, reduce denials, and improve revenue cycle KPIs for healthcare practices and billi...", "description_zh": "", "downloads": 350, "homepage": "https://clawhub.ai/1kalin/afrexai-medical-billing", "iconUrl": null, "installs": 15, "name": "Medical Billing & Revenue Cycle", "ownerName": "1kalin", "score": 97493.03621169917, "slug": "afrexai-medical-billing", "source": "clawhub", "stars": 0, "tags": ["compliance", "cpt", "denial management", "healthcare", "icd-10", "medical billing", "revenue cycle"], "updated_at": 1776759198279, "version": "1.0.0"}, {"category": "productivity", "created_at": 1772803450508, "description": "Deterministic model routing for OpenClaw with prefix routing (@codex/@mini), timezone-aware schedule switching, verify-after-switch, rollback, lock protectio...", "description_zh": "", "downloads": 350, "homepage": "https://clawhub.ai/vulcanusalex/openclaw-model-router-skill", "iconUrl": null, "installs": 6, "name": "OpenClaw Model Router Skill", "ownerName": "vulcanusalex", "score": 25983.667409057165, "slug": "openclaw-model-router-skill", "source": "clawhub", "stars": 0, "tags": null, "updated_at": 1776759197981, "version": "0.2.1"}, {"category": "security-compliance", "created_at": 1772791641041, "description": "Audit and optimize your company's AI spending by identifying waste, measuring ROI, right-sizing tool tiers, and consolidating vendors for cost savings.", "description_zh": "", "downloads": 350, "homepage": "https://clawhub.ai/1kalin/afrexai-ai-spend-audit", "iconUrl": null, "installs": 4, "name": "Ai Spend Audit", "ownerName": "1kalin", "score": 26022.304832713755, "slug": "afrexai-ai-spend-audit", "source": "clawhub", "stars": 0, "tags": ["business", "strategy"], "updated_at": 1776759197841, "version": "1.0.0"}, {"category": "developer-tools", "created_at": 1773089048405, "description": "Manage sales workflows — track deals, schedule calls, client comms.", "description_zh": "", "downloads": 350, "homepage": "https://clawhub.ai/googleworkspace-bot/persona-sales-ops", "iconUrl": null, "installs": 22, "name": "Persona Sales Ops", "ownerName": "googleworkspace-bot", "score": 100000, "slug": "persona-sales-ops", "source": "clawhub", "stars": 0, "tags": null, "updated_at": 1776749744612, "version": "1.0.10"}, {"category": "developer-tools", "created_at": 1773290173700, "description": "README template generator. Standard, awesome-list, minimal, detailed, library, app, API project.", "description_zh": "", "downloads": 350, "homepage": "https://clawhub.ai/xueyetianya/readme-template", "iconUrl": null, "installs": 6, "name": "Readme Template", "ownerName": "xueyetianya", "score": 83932.85371702637, "slug": "readme-template", "source": "clawhub", "stars": 0, "tags": ["chinese", "productivity"], "updated_at": 1776748544947, "version": "2.0.0"}, {"category": "developer-tools", "created_at": 1772791798047, "description": "Apply ancient Hindu ethical frameworks from the Ramayana and Mahabharata as behavioral principles for AI agents. Use when an agent needs principled guidance...", "description_zh": "", "downloads": 350, "homepage": "https://clawhub.ai/jigaraero/dharma-ai", "iconUrl": null, "installs": 6, "name": "Dharma-AI: Ancient Hindu Ethics for AI Agents", "ownerName": "jigaraero", "score": 88832.48730964467, "slug": "dharma-ai", "source": "clawhub", "stars": 0, "tags": null, "updated_at": 1776748544502, "version": "1.0.0"}, {"category": "developer-tools", "created_at": 1773283688592, "description": "Automate contract signing, esign, and signature workflows by calling the eSignGlobal CLI tool. The eSignGlobal CLI is agent-friendly, with JSON output by def...", "description_zh": "", "downloads": 349, "homepage": "https://clawhub.ai/esign-cn-open-source/esign-automation", "iconUrl": null, "installs": 12, "name": "eSign Automation", "ownerName": "esign-cn-open-source", "score": 87634.40860215054, "slug": "esign-automation", "source": "clawhub", "stars": 7, "tags": null, "updated_at": 1776748544417, "version": "1.7.0"}]}