{"page": 227, "total_pages": 522, "total": 26073, "skills": [{"category": "ai-intelligence", "created_at": 1773283623098, "description": "Send and receive messages between AI agents via the ClawTell network. Use when sending inter-agent messages, handling ClawTell deliveries, or setting up Claw...", "description_zh": "", "downloads": 349, "homepage": "https://clawhub.ai/dennis-da-menace/clawtell", "iconUrl": null, "installs": 5, "name": "ClawTell", "ownerName": "dennis-da-menace", "score": 93654.82233502538, "slug": "clawtell", "source": "clawhub", "stars": 1, "tags": null, "updated_at": 1776748544858, "version": "2026.3.13"}, {"category": "ai-intelligence", "created_at": 1772792540085, "description": "Generate daily and weekly RPG-style quests tailored to your goals, tracking progress and adjusting difficulty based on completion to boost productivity and s...", "description_zh": "", "downloads": 349, "homepage": "https://clawhub.ai/ryudi84/sovereign-quest-master", "iconUrl": null, "installs": 15, "name": "RPG Quest Master — Daily Quests for Real Life", "ownerName": "ryudi84", "score": 13041.853512705531, "slug": "sovereign-quest-master", "source": "clawhub", "stars": 0, "tags": ["gamification", "goals", "productivity", "quests", "rpg"], "updated_at": 1776762139834, "version": "1.0.0"}, {"category": "productivity", "created_at": 1772793108040, "description": "Manages cryptographically secured, consent-based relational memory with variance preservation, privacy safeguards, and adaptive dormancy under adversarial or...", "description_zh": "", "downloads": 349, "homepage": "https://clawhub.ai/otherpowers/sentient-memory", "iconUrl": null, "installs": 7, "name": "Sentient Memory", "ownerName": "otherpowers", "score": 25909.428359317, "slug": "sentient-memory", "source": "clawhub", "stars": 0, "tags": ["emergent-memory", "governance-drift-sentinel", "memory-upgrade", "relational-intelligence-primitives", "tiered-access-logic"], "updated_at": 1776759198015, "version": "1.0.0"}, {"category": "data-analysis", "created_at": 1772799683511, "description": "Set up a reproducible R research workspace, install required packages, run statistical or bioinformatics analysis, and generate publication-ready reports and...", "description_zh": "", "downloads": 349, "homepage": "https://clawhub.ai/jackkuo666/creating-r-research-projects", "iconUrl": null, "installs": 43, "name": "Creating R Research Projects", "ownerName": "jackkuo666", "score": 25909.428359317, "slug": "creating-r-research-projects", "source": "clawhub", "stars": 0, "tags": null, "updated_at": 1776759197976, "version": "0.1.0"}, {"category": "productivity", "created_at": 1773219292606, "description": "This skill should be used when the user asks for 'price of BTC', 'ETH ticker', 'show me the orderbook', 'market depth', 'BTC candles', 'OHLCV chart data', 'f...", "description_zh": "", "downloads": 349, "homepage": "https://clawhub.ai/numpy0001/okx", "iconUrl": null, "installs": 29, "name": "okx-cex-market", "ownerName": "numpy0001", "score": 100000, "slug": "okx", "source": "clawhub", "stars": 0, "tags": null, "updated_at": 1776749984717, "version": "1.1.8"}, {"category": "developer-tools", "created_at": 1772793967943, "description": "High-precision memory with 100% recall accuracy for long contexts.", "description_zh": "", "downloads": 349, "homepage": "https://clawhub.ai/mhndayesh/infinite-memory-v2", "iconUrl": null, "installs": 8, "name": "infinite memory locall rag system for", "ownerName": "mhndayesh", "score": 64869.88847583644, "slug": "infinite-memory-v2", "source": "clawhub", "stars": 0, "tags": null, "updated_at": 1776748545078, "version": "1.0.0"}, {"category": "productivity", "created_at": 1773078721493, "description": "Google Drive: Upload a file with automatic metadata.", "description_zh": "", "downloads": 349, "homepage": "https://clawhub.ai/googleworkspace-bot/gws-drive-upload", "iconUrl": null, "installs": 19, "name": "Gws Drive Upload", "ownerName": "googleworkspace-bot", "score": 83693.04556354917, "slug": "gws-drive-upload", "source": "clawhub", "stars": 0, "tags": null, "updated_at": 1776748545050, "version": "1.0.10"}, {"category": "developer-tools", "created_at": 1772789983373, "description": "Create and manage private stablecoin wallets using Senddy's zero-knowledge protocol on Base. Use when building payment agents, bots, server-side apps, or any...", "description_zh": "", "downloads": 349, "homepage": "https://clawhub.ai/mattt21/senddy", "iconUrl": null, "installs": 8, "name": "Senddy", "ownerName": "mattt21", "score": 83693.04556354917, "slug": "senddy", "source": "clawhub", "stars": 0, "tags": null, "updated_at": 1776748544969, "version": "0.1.1"}, {"category": "content-creation", "created_at": 1773221906639, "description": "Generate images using a local SGLang-Diffusion server (FLUX, Stable Diffusion, Qwen-Image, etc.). Use when: user asks to generate, create, draw, or render an...", "description_zh": "", "downloads": 349, "homepage": "https://clawhub.ai/jiangyukunok/sglang-diffusion", "iconUrl": null, "installs": 33, "name": "SGLang-Diffusion Image Generation", "ownerName": "jiangyukunok", "score": 88578.68020304569, "slug": "sglang-diffusion", "source": "clawhub", "stars": 0, "tags": null, "updated_at": 1776748544909, "version": "1.0.1"}, {"category": "productivity", "created_at": 1773428003027, "description": "Reference tool for life — covers intro, quickstart, patterns and more. Quick lookup for Gift Finder concepts, best practices, and implementation patterns.", "description_zh": "", "downloads": 349, "homepage": "https://clawhub.ai/bytesagain1/gift-finder", "iconUrl": null, "installs": 10, "name": "Gift Finder", "ownerName": "bytesagain1", "score": 88578.68020304569, "slug": "gift-finder", "source": "clawhub", "stars": 0, "tags": ["productivity"], "updated_at": 1776748544893, "version": "3.0.1"}, {"category": "security-compliance", "created_at": 1772791683497, "description": "Helps detect the install-then-update attack pattern — where a skill passes initial security review cleanly, then silently introduces malicious behavior throu...", "description_zh": "", "downloads": 349, "homepage": "https://clawhub.ai/andyxinweiminicloud/install-then-update-trap-detector", "iconUrl": null, "installs": 7, "name": "Install Then Update Trap Detector", "ownerName": "andyxinweiminicloud", "score": 81542.05607476635, "slug": "install-then-update-trap-detector", "source": "clawhub", "stars": 0, "tags": null, "updated_at": 1776748544775, "version": "1.1.0"}, {"category": "productivity", "created_at": 1772794834339, "description": "Capture website screenshots from the command line. Use when user wants to take screenshots of any URL (Twitter, news sites, webpages) and send them via Disco...", "description_zh": "", "downloads": 349, "homepage": "https://clawhub.ai/silencezx007/capture-website", "iconUrl": null, "installs": 7, "name": "Capture Website", "ownerName": "silencezx007", "score": 80974.47795823666, "slug": "capture-website", "source": "clawhub", "stars": 0, "tags": null, "updated_at": 1776748544624, "version": "1.0.0"}, {"category": "developer-tools", "created_at": 1772789460691, "description": "Use Nikita's local Wolt CLI to browse venues, inspect menus/items/options, and run profile, cart, and checkout-preview actions for wolt.com from terminal. Tr...", "description_zh": "", "downloads": 349, "homepage": "https://clawhub.ai/mekedron/wolt", "iconUrl": null, "installs": 7, "name": "wolt-cli", "ownerName": "mekedron", "score": 62544.80286738351, "slug": "wolt", "source": "clawhub", "stars": 0, "tags": ["delivery", "food", "grocery", "order", "store", "wolt"], "updated_at": 1776748544446, "version": "0.5.4"}, {"category": "developer-tools", "created_at": 1773206662489, "description": "Load x-cmd first: `. ~/.x-cmd.root/X`, then explore with `x nihao --llmstxt` or discover skills via `x skill`. x-cmd provides 600+ portable software and deve...", "description_zh": "", "downloads": 348, "homepage": "https://clawhub.ai/edwinjhlee/x-cmd", "iconUrl": null, "installs": 15, "name": "x-cmd", "ownerName": "edwinjhlee", "score": 100000, "slug": "x-cmd", "source": "clawhub", "stars": 4, "tags": null, "updated_at": 1776748544702, "version": "1.0.1"}, {"category": "ai-intelligence", "created_at": 1772794953285, "description": "Your agent only works on tasks and never thinks creatively. inner-life-dream adds freeform exploration during quiet hours — hypotheticals, future scenarios,...", "description_zh": "", "downloads": 348, "homepage": "https://clawhub.ai/dkistenev/inner-life-dream", "iconUrl": null, "installs": 14, "name": "Inner Life Dream", "ownerName": "dkistenev", "score": 7440.35584310554, "slug": "inner-life-dream", "source": "clawhub", "stars": 1, "tags": null, "updated_at": 1776765850367, "version": "1.0.6"}, {"category": "content-creation", "created_at": 1773088797310, "description": "Multi-turn PRD (Product Requirements Document) creation assistant. Asks clarifying questions one at a time to gather requirements, then generates a complete,...", "description_zh": "", "downloads": 348, "homepage": "https://clawhub.ai/phy041/phy-prd-writer", "iconUrl": null, "installs": 79, "name": "PRD Writer", "ownerName": "phy041", "score": 4821.8029350104825, "slug": "phy-prd-writer", "source": "clawhub", "stars": 1, "tags": ["product", "requirements"], "updated_at": 1776763750580, "version": "1.0.0"}, {"category": "data-analysis", "created_at": 1772819822503, "description": "Query Web3 blockchain data from Moralis API. Use when user asks about wallet data (balances, tokens, NFTs, transaction history, profitability, net worth), to...", "description_zh": "", "downloads": 348, "homepage": "https://clawhub.ai/novnski/moralis-data-api", "iconUrl": null, "installs": 43, "name": "Moralis Data Api", "ownerName": "novnski", "score": 16888.480954566316, "slug": "moralis-data-api", "source": "clawhub", "stars": 1, "tags": null, "updated_at": 1776759120435, "version": "1.3.2"}, {"category": "data-analysis", "created_at": 1773940485567, "description": "Academic literature search and briefing generation with Tavily API, PubMed, and Google Scholar. Use when you need to search for latest academic papers on spe...", "description_zh": "", "downloads": 348, "homepage": "https://clawhub.ai/flying-baozi/scholarsearch", "iconUrl": null, "installs": 152, "name": "Scholarsearch", "ownerName": "flying-baozi", "score": 16959.06432748538, "slug": "scholarsearch", "source": "clawhub", "stars": 0, "tags": ["academic", "education", "scholar", "search"], "updated_at": 1776764090716, "version": "1.1.0"}, {"category": "ai-intelligence", "created_at": 1772798567523, "description": "A proactive memory distillation skill that maintains MEMORY.md. Trigger scenarios: (1) Scheduled distillation at 03:30 daily (runs when idle, deferred to 06:...", "description_zh": "", "downloads": 348, "homepage": "https://clawhub.ai/teman2050/memory-file-manager-teman", "iconUrl": null, "installs": 27, "name": "Dream", "ownerName": "teman2050", "score": 5922.396187882913, "slug": "memory-file-manager-teman", "source": "clawhub", "stars": 0, "tags": null, "updated_at": 1776763150121, "version": "0.2.2"}, {"category": "content-creation", "created_at": 1773058075769, "description": "Send customizable interactive Feishu cards with titles, content, buttons, and color templates via Feishu Open API for users or group chats.", "description_zh": "", "downloads": 348, "homepage": "https://clawhub.ai/seetherianbow/feishu-cards", "iconUrl": null, "installs": 33, "name": "Feishu Cards", "ownerName": "seetherianbow", "score": 25873.60594795539, "slug": "feishu-cards", "source": "clawhub", "stars": 0, "tags": null, "updated_at": 1776759198331, "version": "1.0.0"}, {"category": "developer-tools", "created_at": 1772792265383, "description": "Automatically discover, qualify, and export high-quality business leads by niche and location with AI-generated personalized outreach messages.", "description_zh": "", "downloads": 348, "homepage": "https://clawhub.ai/g4dr/ultimate-lead-scraper-ai-outreach", "iconUrl": null, "installs": 8, "name": "Ultimate Lead Scraper & AI Outreach Engine", "ownerName": "g4dr", "score": 25873.60594795539, "slug": "ultimate-lead-scraper-ai-outreach", "source": "clawhub", "stars": 0, "tags": ["apify", "growth", "lead-generation", "marketing", "scraping"], "updated_at": 1776759198281, "version": "1.1.0"}, {"category": "content-creation", "created_at": 1772801550036, "description": "Generate images using Alibaba DashScope wan2.6-t2i model, download to Desktop, and upload to catbox.moe image hosting. Use when the user asks to generate, cr...", "description_zh": "", "downloads": 348, "homepage": "https://clawhub.ai/xray918/wan", "iconUrl": null, "installs": 43, "name": "wan-image-gen", "ownerName": "xray918", "score": 25835.18930957684, "slug": "wan", "source": "clawhub", "stars": 0, "tags": null, "updated_at": 1776759197993, "version": "1.0.0"}, {"category": "security-compliance", "created_at": 1772794769208, "description": "Issue and verify on-chain certificates on Base L2. Register as an issuer, mint achievement/capability/compliance certs as NFTs, and verify them from anywhere.", "description_zh": "", "downloads": 348, "homepage": "https://clawhub.ai/eijiac24/chitin-cert", "iconUrl": null, "installs": 10, "name": "Chitin Cert", "ownerName": "eijiac24", "score": 25873.60594795539, "slug": "chitin-cert", "source": "clawhub", "stars": 0, "tags": null, "updated_at": 1776759197904, "version": "1.0.1"}, {"category": "productivity", "created_at": 1772792057291, "description": "Parses long transcripts into topics under ordered lists, to triage in your notes system", "description_zh": "", "downloads": 348, "homepage": "https://clawhub.ai/nonlinear/transcript-triage", "iconUrl": null, "installs": 10, "name": "transcript triage", "ownerName": "nonlinear", "score": 65046.72897196262, "slug": "transcript-triage", "source": "clawhub", "stars": 0, "tags": null, "updated_at": 1776748545152, "version": "1.0.1"}, {"category": "content-creation", "created_at": 1772794588112, "description": "Write reflective letters to your future self. Capture what matters across sessions.", "description_zh": "", "downloads": 348, "homepage": "https://clawhub.ai/cryptocana/nova-letters", "iconUrl": null, "installs": 28, "name": "Nova Letters", "ownerName": "cryptocana", "score": 64684.01486988847, "slug": "nova-letters", "source": "clawhub", "stars": 0, "tags": null, "updated_at": 1776748545102, "version": "0.1.0"}, {"category": "data-analysis", "created_at": 1772795646405, "description": "Analyze websites and domains using SimilarWeb traffic data. Get traffic metrics, engagement stats, global rankings, traffic sources, and geographic distribut...", "description_zh": "", "downloads": 348, "homepage": "https://clawhub.ai/wells1137/similarweb-analytics", "iconUrl": null, "installs": 16, "name": "SimilarWeb Analytics", "ownerName": "wells1137", "score": 83453.23741007195, "slug": "similarweb-analytics", "source": "clawhub", "stars": 0, "tags": null, "updated_at": 1776748545046, "version": "1.0.0"}, {"category": "ai-intelligence", "created_at": 1773913364021, "description": "Browser-first workflow for e-commerce skills on OpenClaw. Use when shopping, comparing products, extracting prices, checking seller/store details, reading lo...", "description_zh": "", "downloads": 348, "homepage": "https://clawhub.ai/harrylabsj/browser-e-commerce", "iconUrl": null, "installs": 22, "name": "Browser e-Commerce", "ownerName": "harrylabsj", "score": 83453.23741007195, "slug": "browser-e-commerce", "source": "clawhub", "stars": 0, "tags": null, "updated_at": 1776748544999, "version": "0.1.1"}, {"category": "ai-intelligence", "created_at": 1772793766034, "description": "Your agent needs money. MoonPay is the crypto onramp for AI agents — wallets, swaps, bridges, transfers, DCA, limit orders, deposits, market data, and fiat o...", "description_zh": "", "downloads": 348, "homepage": "https://clawhub.ai/kevarifin14/moonpay", "iconUrl": null, "installs": 11, "name": "MoonPay", "ownerName": "kevarifin14", "score": 83453.23741007195, "slug": "moonpay", "source": "clawhub", "stars": 0, "tags": null, "updated_at": 1776748544981, "version": "0.6.24"}, {"category": "developer-tools", "created_at": 1773426676570, "description": "Reference tool for devtools — covers intro, quickstart, patterns and more. Quick lookup for Whois Checker concepts, best practices, and implementation patterns.", "description_zh": "", "downloads": 348, "homepage": "https://clawhub.ai/xueyetianya/whois-checker", "iconUrl": null, "installs": 7, "name": "Whois Checker", "ownerName": "xueyetianya", "score": 83453.23741007195, "slug": "whois-checker", "source": "clawhub", "stars": 0, "tags": ["productivity"], "updated_at": 1776748544934, "version": "4.0.1"}, {"category": "security-compliance", "created_at": 1772792259667, "description": "Project health and best practices enforcer. Checks security, quality, documentation, CI/CD, and dependencies. Produces a letter grade (A-F) with actionable f...", "description_zh": "", "downloads": 348, "homepage": "https://clawhub.ai/ryudi84/sovereign-project-guardian", "iconUrl": null, "installs": 7, "name": "Sovereign Project Guardian", "ownerName": "ryudi84", "score": 83453.23741007195, "slug": "sovereign-project-guardian", "source": "clawhub", "stars": 0, "tags": null, "updated_at": 1776748544923, "version": "1.0.0"}, {"category": "developer-tools", "created_at": 1773073220466, "description": "Read X (Twitter) posts without official API. Supports both Nitter (free) and RapidAPI (detailed) methods.", "description_zh": "", "downloads": 348, "homepage": "https://clawhub.ai/dkimiscoding/x-reader-skill", "iconUrl": null, "installs": 8, "name": "X Reader", "ownerName": "dkimiscoding", "score": 88324.8730964467, "slug": "x-reader-skill", "source": "clawhub", "stars": 0, "tags": null, "updated_at": 1776748544920, "version": "0.1.0"}, {"category": "productivity", "created_at": 1772793249751, "description": "Comprehensive unit converter for length, weight, temperature, area, volume, speed, time, and data. Use when: (1) converting between measurement units, (2) ca...", "description_zh": "", "downloads": 348, "homepage": "https://clawhub.ai/ouyangabel/unit-convert", "iconUrl": null, "installs": 10, "name": "Unit Converter", "ownerName": "ouyangabel", "score": 88324.8730964467, "slug": "unit-convert", "source": "clawhub", "stars": 0, "tags": ["area", "convert", "data", "length", "measurement", "speed", "temperature", "time", "unit", "volume", "weight"], "updated_at": 1776748544918, "version": "1.0.0"}, {"category": "developer-tools", "created_at": 1772789831379, "description": "Navigate Austin as visitor, relocator, tech worker, or entrepreneur with neighborhoods, transport, costs, visas, and Texas-specific insights.", "description_zh": "", "downloads": 348, "homepage": "https://clawhub.ai/ivangdavila/austin", "iconUrl": null, "installs": 10, "name": "Austin", "ownerName": "ivangdavila", "score": 88324.8730964467, "slug": "austin", "source": "clawhub", "stars": 0, "tags": null, "updated_at": 1776748544805, "version": "1.0.0"}, {"category": "developer-tools", "created_at": 1772790602825, "description": "Retrieve public company information by stock ticker symbol or SEC CIK number using the apipick Company Facts API. Returns company name, industry, sector, exc...", "description_zh": "", "downloads": 348, "homepage": "https://clawhub.ai/javainthinking/apipick-company-facts", "iconUrl": null, "installs": 6, "name": "Get company fact and information by ticker or CIK", "ownerName": "javainthinking", "score": 81308.41121495327, "slug": "apipick-company-facts", "source": "clawhub", "stars": 0, "tags": null, "updated_at": 1776748544723, "version": "1.0.0"}, {"category": "ai-intelligence", "created_at": 1773078002180, "description": "Airport lounge access and recovery recommendations", "description_zh": "", "downloads": 348, "homepage": "https://clawhub.ai/kurosh87/aerobase-travel-lounges", "iconUrl": null, "installs": 11, "name": "Aerobase Travel Lounges", "ownerName": "kurosh87", "score": 88324.8730964467, "slug": "aerobase-travel-lounges", "source": "clawhub", "stars": 0, "tags": ["airport", "lounges", "travel"], "updated_at": 1776748544585, "version": "3.2.0"}, {"category": "developer-tools", "created_at": 1773219261319, "description": "Use mcp-bridge-openclaw CLI to connect to and manage Model Context Protocol (MCP) servers with auto-reconnection and retry logic. Install via npm install -g...", "description_zh": "", "downloads": 348, "homepage": "https://clawhub.ai/jaggu1999/mcp-bridge", "iconUrl": null, "installs": 19, "name": "mcp-bridge", "ownerName": "jaggu1999", "score": 88324.8730964467, "slug": "mcp-bridge", "source": "clawhub", "stars": 0, "tags": null, "updated_at": 1776748544563, "version": "1.0.1"}, {"category": "content-creation", "created_at": 1773432610014, "description": "Kling 3.0 video generation on PoYo / poyo.ai via `https://api.poyo.ai/api/generate/submit`; use for `kling-3.0/standard`, `kling-3.0/pro`, single-shot, multi...", "description_zh": "", "downloads": 348, "homepage": "https://clawhub.ai/coolhackboy/kling-3", "iconUrl": null, "installs": 19, "name": "Kling 3.0 video generation", "ownerName": "coolhackboy", "score": 88324.8730964467, "slug": "kling-3", "source": "clawhub", "stars": 0, "tags": null, "updated_at": 1776748544528, "version": "1.0.0"}, {"category": "ai-intelligence", "created_at": 1772805685039, "description": "Managed headful Chrome browser for OpenClaw agents with anti-bot-detection, human-in-the-loop VNC takeover, and multi-session window isolation. Use when: (1)...", "description_zh": "", "downloads": 348, "homepage": "https://clawhub.ai/easonc13/anemone", "iconUrl": null, "installs": 47, "name": "Anemone", "ownerName": "easonc13", "score": 62365.591397849465, "slug": "anemone", "source": "clawhub", "stars": 0, "tags": null, "updated_at": 1776748544460, "version": "1.0.1"}, {"category": "security-compliance", "created_at": 1773042818146, "description": "When building OpenClaw agents that read untrusted text, use this skill to prevent prompt injection and memory poisoning. Standard utility for secure memory o...", "description_zh": "", "downloads": 348, "homepage": "https://clawhub.ai/horn111/safe-memory-manager", "iconUrl": null, "installs": 10, "name": "Safe Memory Manager", "ownerName": "horn111", "score": 62365.591397849465, "slug": "safe-memory-manager", "source": "clawhub", "stars": 0, "tags": null, "updated_at": 1776748544407, "version": "1.0.7"}, {"category": "data-analysis", "created_at": 1773434919592, "description": "Extract and export structured web data like text, tables, and images in JSON, CSV, Markdown, or SQL formats while respecting ethical and legal scraping pract...", "description_zh": "", "downloads": 347, "homepage": "https://clawhub.ai/rupertnt034/rupert-web-scraper", "iconUrl": null, "installs": 26, "name": "Web Scraper", "ownerName": "rupertnt034", "score": 14050.535987748852, "slug": "rupert-web-scraper", "source": "clawhub", "stars": 1, "tags": null, "updated_at": 1776762290011, "version": "1.0.0"}, {"category": "developer-tools", "created_at": 1772797213054, "description": "Monitior technology trends (GitHub, etc.), contextualize them against the user's project, and autonomously verify them through installation and testing. Use...", "description_zh": "", "downloads": 347, "homepage": "https://clawhub.ai/likw99/sync-trending", "iconUrl": null, "installs": 10, "name": "sync-trending", "ownerName": "likw99", "score": 85747.66355140187, "slug": "sync-trending", "source": "clawhub", "stars": 1, "tags": null, "updated_at": 1776748544734, "version": "0.1.0"}, {"category": "data-analysis", "created_at": 1772801839672, "description": "The God-Tier Agent Evolution Engine. 6 top skills analyzed, dissected, and rebuilt from scratch. Zero external dependencies. Battle-tested in production. Mak...", "description_zh": "", "downloads": 347, "homepage": "https://clawhub.ai/mupengi-bot/mupeng-evolve", "iconUrl": null, "installs": 19, "name": "Mupeng Evolve — God-Tier Agent Evolution Engine", "ownerName": "mupengi-bot", "score": 4193.353474320242, "slug": "mupeng-evolve", "source": "clawhub", "stars": 0, "tags": null, "updated_at": 1776765250311, "version": "1.0.0"}, {"category": "ai-intelligence", "created_at": 1772805005649, "description": "Helps users discover and install agent skills when they ask questions like \"how do I do X\", \"find a skill for X\", \"is there a skill that can...\", or express...", "description_zh": "", "downloads": 347, "homepage": "https://clawhub.ai/dragon015/dragon-find-skills", "iconUrl": null, "installs": 60, "name": "技能查找", "ownerName": "dragon015", "score": 5781.406197934022, "slug": "dragon-find-skills", "source": "clawhub", "stars": 0, "tags": null, "updated_at": 1776765071781, "version": "1.0.0"}, {"category": "developer-tools", "created_at": 1772794915067, "description": "MongoDB-backed long-term semantic memory for recalling, storing, searching, and managing facts, decisions, and user preferences across sessions.", "description_zh": "", "downloads": 347, "homepage": "https://clawhub.ai/mrlynn/openclaw-memory-skill", "iconUrl": null, "installs": 5, "name": "OpenClaw MongoDB Semantic Memory", "ownerName": "mrlynn", "score": 25876.211782252052, "slug": "openclaw-memory-skill", "source": "clawhub", "stars": 0, "tags": ["memory", "mongodb", "semantic", "voyage-ai"], "updated_at": 1776759198341, "version": "0.2.1"}, {"category": "developer-tools", "created_at": 1772797688212, "description": "Manage Cloudflare R2 object storage (upload, download, list, delete, presigned URLs) using boto3 S3-compatible API. Supports CLI usage and importable Python...", "description_zh": "", "downloads": 347, "homepage": "https://clawhub.ai/mrnsmh/openclaw-skill-r2-storage", "iconUrl": null, "installs": 7, "name": "R2 Storage", "ownerName": "mrnsmh", "score": 25760.950259836674, "slug": "openclaw-skill-r2-storage", "source": "clawhub", "stars": 0, "tags": null, "updated_at": 1776759198055, "version": "0.1.0"}, {"category": "ai-intelligence", "created_at": 1772804208946, "description": "Provides a comprehensive methodology to optimize productivity and tool use across multiple AI coding assistants through assessment, selection, context engine...", "description_zh": "", "downloads": 347, "homepage": "https://clawhub.ai/1kalin/afrexai-ai-coding-toolkit", "iconUrl": null, "installs": 41, "name": "AI Coding Toolkit", "ownerName": "1kalin", "score": 25799.256505576206, "slug": "afrexai-ai-coding-toolkit", "source": "clawhub", "stars": 0, "tags": ["ai", "claude", "coding", "copilot", "cursor", "vibe-coding", "windsurf"], "updated_at": 1776759197891, "version": "1.0.0"}, {"category": "security-compliance", "created_at": 1772791888719, "description": "Identifies and tracks speakers in multi-person conversations, mapping speaker labels to names and managing voice command authorization levels.", "description_zh": "", "downloads": 347, "homepage": "https://clawhub.ai/jarvis563/percept-speaker-id", "iconUrl": null, "installs": 6, "name": "Percept Speaker ID", "ownerName": "jarvis563", "score": 25799.256505576206, "slug": "percept-speaker-id", "source": "clawhub", "stars": 0, "tags": null, "updated_at": 1776759197838, "version": "1.0.0"}, {"category": "data-analysis", "created_at": 1772794886783, "description": "Provides a framework to prevent agent drift, catch faults, and maintain consistent on-character behavior across sessions and models.", "description_zh": "", "downloads": 347, "homepage": "https://clawhub.ai/donovanpankratz-del/agent-stability-framework", "iconUrl": null, "installs": 15, "name": "Agent Stability Framework", "ownerName": "donovanpankratz-del", "score": 62862.31884057971, "slug": "agent-stability-framework", "source": "clawhub", "stars": 0, "tags": null, "updated_at": 1776759197756, "version": "1.0.0"}, {"category": "content-creation", "created_at": 1772794158406, "description": "Generate and edit images through Filtrix Remote MCP. Use when users ask to create images or refine existing ones. Supports gpt-image-1, nano-banana, and nano...", "description_zh": "", "downloads": 347, "homepage": "https://clawhub.ai/lumenclaw-cloud/filtrix-image-gen", "iconUrl": null, "installs": 29, "name": "Filtrix Image Gen", "ownerName": "lumenclaw-cloud", "score": 64859.81308411215, "slug": "filtrix-image-gen", "source": "clawhub", "stars": 0, "tags": null, "updated_at": 1776748547001, "version": "1.0.2"}, {"category": "communication-collaboration", "created_at": 1773202143218, "description": "Simple CRM for freelancers. Track contacts, projects, invoices, follow-ups, communication history. All through conversation with your agent.", "description_zh": "", "downloads": 347, "homepage": "https://clawhub.ai/theshadowrose/client-tracker", "iconUrl": null, "installs": 18, "name": "Client Tracker", "ownerName": "theshadowrose", "score": 64859.81308411215, "slug": "client-tracker", "source": "clawhub", "stars": 0, "tags": ["business", "clients", "crm", "freelance", "tracking"], "updated_at": 1776748546998, "version": "1.0.2"}]}