{"page": 228, "total_pages": 522, "total": 26073, "skills": [{"category": "developer-tools", "created_at": 1772793423547, "description": "Play casino games (dice, coinflip, roulette) on Agent Casino with real cryptocurrency. Provably fair gambling API for AI agents. Use when the user wants to g...", "description_zh": "", "downloads": 347, "homepage": "https://clawhub.ai/rollhub-dev/rollhub-casino", "iconUrl": null, "installs": 12, "name": "Agent Casino", "ownerName": "rollhub-dev", "score": 64859.81308411215, "slug": "rollhub-casino", "source": "clawhub", "stars": 0, "tags": ["casino", "coinflip", "crypto", "dice", "gambling", "provably-fair", "rollhub"], "updated_at": 1776748546985, "version": "2.0.0"}, {"category": "developer-tools", "created_at": 1773427381505, "description": "Fetch web pages, strip to clean readable text, summarize into agent-ready markdown. Research assistant foundation. No browser required.", "description_zh": "", "downloads": 347, "homepage": "https://clawhub.ai/theshadowrose/web-clip", "iconUrl": null, "installs": 13, "name": "WebClip Save & Summarize Web Pages", "ownerName": "theshadowrose", "score": 64498.141263940524, "slug": "web-clip", "source": "clawhub", "stars": 0, "tags": ["bookmarks", "clipping", "research", "saving", "web", "web-clip"], "updated_at": 1776748545138, "version": "1.0.0"}, {"category": "productivity", "created_at": 1772789583270, "description": "Handle customer calls with scripts, issue resolution, escalation protocols, and interaction logging.", "description_zh": "", "downloads": 347, "homepage": "https://clawhub.ai/ivangdavila/call-center", "iconUrl": null, "installs": 8, "name": "Call Center", "ownerName": "ivangdavila", "score": 64498.141263940524, "slug": "call-center", "source": "clawhub", "stars": 0, "tags": null, "updated_at": 1776748545076, "version": "1.0.0"}, {"category": "data-analysis", "created_at": 1773075610654, "description": "Analyze Unreal Engine log files for errors, warnings, crashes, and performance issues. Use when: (1) User provides UE log file, (2) Analyzing crash dumps, (3...", "description_zh": "", "downloads": 347, "homepage": "https://clawhub.ai/vincentwilliam/ue-log-analyzer", "iconUrl": null, "installs": 74, "name": "Ue Log Analyzer", "ownerName": "vincentwilliam", "score": 88071.06598984772, "slug": "ue-log-analyzer", "source": "clawhub", "stars": 0, "tags": null, "updated_at": 1776748544826, "version": "1.0.0"}, {"category": "productivity", "created_at": 1773940076444, "description": "Convert PDF, Word, and Markdown documents into professional PowerPoint slides with 18+ layout types and smart layout matching. Use when: user wants to create...", "description_zh": "", "downloads": 347, "homepage": "https://clawhub.ai/lifei68801/doc2slides", "iconUrl": null, "installs": 15, "name": "Doc2slides", "ownerName": "lifei68801", "score": 88071.06598984772, "slug": "doc2slides", "source": "clawhub", "stars": 0, "tags": ["conversion", "document", "local", "pdf", "ppt", "slides"], "updated_at": 1776748544788, "version": "3.6.0"}, {"category": "productivity", "created_at": 1773090895526, "description": "Safe OpenClaw config change workflow with backup, minimal edits, validation, health checks, and rollback. Single-instance first; secondary instance optional.", "description_zh": "", "downloads": 347, "homepage": "https://clawhub.ai/1987566643/openclaw-safe-change-flow", "iconUrl": null, "installs": 4, "name": "OpenClaw Safe Change Flow", "ownerName": "1987566643", "score": 80510.44083526681, "slug": "openclaw-safe-change-flow", "source": "clawhub", "stars": 0, "tags": null, "updated_at": 1776748544680, "version": "1.1.0"}, {"category": "productivity", "created_at": 1773066440538, "description": "⚠️ DEPRECATED — Use feishu-msg-reader instead. This skill has been renamed and superseded by feishu-msg-reader (by deadblue22).", "description_zh": "", "downloads": 347, "homepage": "https://clawhub.ai/deadblue22/feishu-interactive-card", "iconUrl": null, "installs": 7, "name": "Feishu Interactive Card", "ownerName": "deadblue22", "score": 62186.379928315415, "slug": "feishu-interactive-card", "source": "clawhub", "stars": 0, "tags": null, "updated_at": 1776748544367, "version": "1.1.0"}, {"category": "content-creation", "created_at": 1773073879225, "description": "Downloads given video from YouTube, clips from given start and end time, saves to folder on your Desktop", "description_zh": "", "downloads": 346, "homepage": "https://clawhub.ai/bestisblessed/clip", "iconUrl": null, "installs": 28, "name": "YouTube Clipper", "ownerName": "bestisblessed", "score": 8658.62313697658, "slug": "clip", "source": "clawhub", "stars": 1, "tags": null, "updated_at": 1776760582289, "version": "1.0.3"}, {"category": "communication-collaboration", "created_at": 1773060876382, "description": "Real-time news aggregator with Discord & Telegram push. Manage Jin10, BlockBeats, RSS, X KOLs, Polymarket, OpenNews via REST API.", "description_zh": "", "downloads": 346, "homepage": "https://clawhub.ai/zxcnny930/news-monitor", "iconUrl": null, "installs": 16, "name": "News Monitor", "ownerName": "zxcnny930", "score": 9296.077377753896, "slug": "news-monitor", "source": "clawhub", "stars": 0, "tags": null, "updated_at": 1776768671300, "version": "1.0.0"}, {"category": "developer-tools", "created_at": 1772793117633, "description": "Meticulously detect and fix missing React/TSX imports, undefined components, and bundler runtime errors in the WASM SPA build/preview pipeline. Ensures JSX c...", "description_zh": "", "downloads": 346, "homepage": "https://clawhub.ai/tippyentertainment/wasm-spa-autofix-react-imports", "iconUrl": null, "installs": 9, "name": "Wasm Spa Autofix React Imports", "ownerName": "tippyentertainment", "score": 14008.097165991903, "slug": "wasm-spa-autofix-react-imports", "source": "clawhub", "stars": 0, "tags": null, "updated_at": 1776766190503, "version": "0.1.0"}, {"category": "data-analysis", "created_at": 1773074728760, "description": "Desktop automation via native OS accessibility trees using the agent-desktop CLI. Use when an AI agent needs to observe, interact with, or automate desktop a...", "description_zh": "", "downloads": 346, "homepage": "https://clawhub.ai/lahfir/agent-desktop", "iconUrl": null, "installs": 46, "name": "Agent Desktop", "ownerName": "lahfir", "score": 9826.753763135473, "slug": "agent-desktop", "source": "clawhub", "stars": 0, "tags": ["accessibility", "ai-agent", "cli", "desktop-automation", "gui-automation"], "updated_at": 1776764990679, "version": "0.1.8"}, {"category": "security-compliance", "created_at": 1773875787511, "description": "Manage passwords with generation, strength checks, and storage. Use when creating credentials, auditing strength, rotating secrets, checking breaches.", "description_zh": "", "downloads": 346, "homepage": "https://clawhub.ai/bytesagain3/password", "iconUrl": null, "installs": 21, "name": "Password", "ownerName": "bytesagain3", "score": 13106.060606060608, "slug": "password", "source": "clawhub", "stars": 0, "tags": null, "updated_at": 1776764950858, "version": "3.0.1"}, {"category": "developer-tools", "created_at": 1772796794883, "description": "Give your agent real phone numbers for SMS, OTP verification, and voice calls via the AgentCall API.", "description_zh": "", "downloads": 346, "homepage": "https://clawhub.ai/kintupercy/agentcall", "iconUrl": null, "installs": 12, "name": "AgentCall", "ownerName": "kintupercy", "score": 93513.5135135135, "slug": "agentcall", "source": "clawhub", "stars": 0, "tags": ["ai-voice", "api", "calls", "otp", "phone", "sms", "verification", "voice"], "updated_at": 1776759198176, "version": "2.0.2"}, {"category": "", "created_at": 1774821364947, "description": "Extract text from image-based or scanned PDFs using Tesseract OCR.", "description_zh": "", "downloads": 346, "homepage": "https://clawhub.ai/bilicen700/pdf-ocr-extraction", "iconUrl": null, "installs": 154, "name": "pdf-ocr-extraction", "ownerName": "bilicen700", "score": 25686.711210096513, "slug": "pdf-ocr-extraction", "source": "clawhub", "stars": 0, "tags": null, "updated_at": 1776759198083, "version": "1.0.3"}, {"category": "security-compliance", "created_at": 1773286048768, "description": "Review and audit OpenClaw skills and agents for data risks, code execution, persistence, network access, privilege escalation, and supply-chain threats befor...", "description_zh": "", "downloads": 346, "homepage": "https://clawhub.ai/kickook/skill-security-review", "iconUrl": null, "installs": 8, "name": "Skill Security Review", "ownerName": "kickook", "score": 25686.711210096513, "slug": "skill-security-review", "source": "clawhub", "stars": 0, "tags": null, "updated_at": 1776759197998, "version": "1.0.0"}, {"category": "developer-tools", "created_at": 1772798959546, "description": "Manage API keys locally from the terminal using the `keys` CLI. Use when users want to store, retrieve, search, import, export, or organize API keys and secr...", "description_zh": "", "downloads": 346, "homepage": "https://clawhub.ai/stym06/keys-manager", "iconUrl": null, "installs": 11, "name": "Keys Manager", "ownerName": "stym06", "score": 90104.16666666666, "slug": "keys-manager", "source": "clawhub", "stars": 0, "tags": null, "updated_at": 1776748555537, "version": "0.5.1"}, {"category": "communication-collaboration", "created_at": 1772792697539, "description": "CLI tool to store and retrieve conversation contexts per channel/user.", "description_zh": "", "downloads": 346, "homepage": "https://clawhub.ai/derick001/multi-chat-context-manager", "iconUrl": null, "installs": 14, "name": "Multi-Chat Context Manager", "ownerName": "derick001", "score": 64672.89719626168, "slug": "multi-chat-context-manager", "source": "clawhub", "stars": 0, "tags": null, "updated_at": 1776748547013, "version": "1.0.0"}, {"category": "security-compliance", "created_at": 1772789183172, "description": "Enterprise-grade security for OpenClaw - blocks malicious skills, detects hallucinated packages, and prevents prompt injection attacks. Powered by agent-secu...", "description_zh": "", "downloads": 346, "homepage": "https://clawhub.ai/sinewaveai/clawproof-security", "iconUrl": null, "installs": 11, "name": "ClawProof Security Scanner", "ownerName": "sinewaveai", "score": 64672.89719626168, "slug": "clawproof-security", "source": "clawhub", "stars": 0, "tags": ["ai-safety", "ast-analysis", "auto-fix", "malware-detection", "openclaw-security", "package-verification", "prompt-injection", "security", "supply-chain", "vulnerability-scanner"], "updated_at": 1776748547009, "version": "3.10.3"}, {"category": "content-creation", "created_at": 1773067423524, "description": "This skill helps users extract structured video list data and comment data from YouTube using the BrowserAct API. The Agent should proactively apply this ski...", "description_zh": "", "downloads": 346, "homepage": "https://clawhub.ai/ccmagia2-gif/youtube-comments-api-skill", "iconUrl": null, "installs": 11, "name": "youtube-comments-api-skill", "ownerName": "ccmagia2-gif", "score": 64672.89719626168, "slug": "youtube-comments-api-skill", "source": "clawhub", "stars": 0, "tags": null, "updated_at": 1776748547000, "version": "1.0.1"}, {"category": "security-compliance", "created_at": 1772793204286, "description": "Intercept and authorize outgoing machine-to-machine payments (x402 or similar) using @valiron/sdk trust decisions on the counterparty agent before payment ex...", "description_zh": "", "downloads": 345, "homepage": "https://clawhub.ai/vatsashah45/valiron-trust-layer", "iconUrl": null, "installs": 9, "name": "Valiron", "ownerName": "vatsashah45", "score": 86492.89099526066, "slug": "valiron-trust-layer", "source": "clawhub", "stars": 1, "tags": null, "updated_at": 1776759124428, "version": "1.0.2"}, {"category": "content-creation", "created_at": 1773909193284, "description": "Generate videos using TensorsLab's AI video generation models. Supports text-to-video and image-to-video generation with automatic prompt enhancement, progre...", "description_zh": "", "downloads": 345, "homepage": "https://clawhub.ai/bob5-tensorslab/tensorslab-video", "iconUrl": null, "installs": 43, "name": "Video Generation", "ownerName": "bob5-tensorslab", "score": 2436.7848566181665, "slug": "tensorslab-video", "source": "clawhub", "stars": 0, "tags": null, "updated_at": 1776766490653, "version": "1.0.3"}, {"category": "developer-tools", "created_at": 1772793330824, "description": "Controls ROS/ROS2 robots via rosbridge WebSocket CLI. Use when the user asks about ROS topics, services, nodes, parameters, actions, robot movement, sensor d...", "description_zh": "", "downloads": 345, "homepage": "https://clawhub.ai/lpigeon/ros-skill", "iconUrl": null, "installs": 10, "name": "ROS", "ownerName": "lpigeon", "score": 9688.289806234205, "slug": "ros-skill", "source": "clawhub", "stars": 0, "tags": null, "updated_at": 1776765250216, "version": "1.0.1"}, {"category": "data-analysis", "created_at": 1773060908705, "description": "Multi-project tracker with status dashboards, milestone tracking, stalled project detection, priority scoring, and automated weekly progress reports.", "description_zh": "", "downloads": 345, "homepage": "https://clawhub.ai/clawdssen/project-tracker", "iconUrl": null, "installs": 20, "name": "Project Tracker", "ownerName": "clawdssen", "score": 16674.7220879652, "slug": "project-tracker", "source": "clawhub", "stars": 0, "tags": null, "updated_at": 1776764650449, "version": "1.0.0"}, {"category": "developer-tools", "created_at": 1772795398418, "description": "Manage installed skills with a web UI for visualization, backup-backed uninstall, updates via git, and AI-powered evolution with rollback support.", "description_zh": "", "downloads": 345, "homepage": "https://clawhub.ai/rbbcarl/skill-operator", "iconUrl": null, "installs": 9, "name": "Skill Operator", "ownerName": "rbbcarl", "score": 8734.177215189873, "slug": "skill-operator", "source": "clawhub", "stars": 0, "tags": ["management", "utility"], "updated_at": 1776761880421, "version": "1.0.1"}, {"category": "productivity", "created_at": 1772800825621, "description": "Multi-language code navigation via persistent LSP daemons. Supports Python (pyright), TypeScript/JS, Rust, Go, C/C++, Bash, Java, CSS, HTML, JSON. Auto-detec...", "description_zh": "", "downloads": 345, "homepage": "https://clawhub.ai/adamnaghs/lsp", "iconUrl": null, "installs": 23, "name": "LSP Code Navigation", "ownerName": "adamnaghs", "score": 6930.494174367216, "slug": "lsp", "source": "clawhub", "stars": 0, "tags": null, "updated_at": 1776760282448, "version": "2.0.0"}, {"category": "productivity", "created_at": 1772798618764, "description": "Отвечать клиентам в VK по стоимости отдыха на основе Excel-прайса. Использовать, когда нужно быстро посчитать цену по датам, количеству гостей и номеру, и вы...", "description_zh": "", "downloads": 345, "homepage": "https://clawhub.ai/keeper1978/paradiz", "iconUrl": null, "installs": 51, "name": "Paradiz", "ownerName": "keeper1978", "score": 25650.557620817843, "slug": "paradiz", "source": "clawhub", "stars": 0, "tags": null, "updated_at": 1776759198295, "version": "1.0.0"}, {"category": "productivity", "created_at": 1773057742730, "description": "Runs shell commands exclusively inside tmux session 'claw', captures output, and requests confirmation for potentially destructive commands.", "description_zh": "", "downloads": 345, "homepage": "https://clawhub.ai/zlshiny/claw-shell-1-0-0", "iconUrl": null, "installs": 20, "name": "Claw Shell 1.0.0", "ownerName": "zlshiny", "score": 25650.557620817843, "slug": "claw-shell-1-0-0", "source": "clawhub", "stars": 0, "tags": null, "updated_at": 1776759198121, "version": "1.0.0"}, {"category": "ai-intelligence", "created_at": 1772795780292, "description": "Solana trading skill for AI agents. Buy, sell, and create tokens across PumpFun, PumpSwap, LaunchLab, and Meteora.", "description_zh": "", "downloads": 345, "homepage": "https://clawhub.ai/qualitydude/plugy", "iconUrl": null, "installs": 13, "name": "plugy", "ownerName": "qualitydude", "score": 25612.47216035635, "slug": "plugy", "source": "clawhub", "stars": 0, "tags": null, "updated_at": 1776759198055, "version": "1.0.0"}, {"category": "developer-tools", "created_at": 1772793562322, "description": "Build Solana applications 200x cheaper for stablecoin payments, agent payments, DeFi, airdrops, token distribution, and ZK applications using Light Protocol'...", "description_zh": "", "downloads": 345, "homepage": "https://clawhub.ai/tilo-14/solana-rent-free-dev", "iconUrl": null, "installs": 4, "name": "solana-rent-free-dev", "ownerName": "tilo-14", "score": 25650.557620817843, "slug": "solana-rent-free-dev", "source": "clawhub", "stars": 0, "tags": null, "updated_at": 1776759197811, "version": "1.0.6"}, {"category": "developer-tools", "created_at": 1773427508939, "description": "Reference tool for devtools — covers intro, quickstart, patterns and more. Quick lookup for Gcal Manager concepts, best practices, and implementation patterns.", "description_zh": "", "downloads": 345, "homepage": "https://clawhub.ai/ckchzh/gcal-manager", "iconUrl": null, "installs": 3, "name": "Gcal Manager", "ownerName": "ckchzh", "score": 60739.43661971831, "slug": "gcal-manager", "source": "clawhub", "stars": 0, "tags": ["productivity"], "updated_at": 1776748555619, "version": "3.0.1"}, {"category": "data-analysis", "created_at": 1773428073357, "description": "Reference tool for devtools — covers intro, formulas, regulations and more. Quick lookup for Onchain Analyzer concepts, best practices, and implementation pa...", "description_zh": "", "downloads": 345, "homepage": "https://clawhub.ai/bytesagain1/onchain-analyzer", "iconUrl": null, "installs": 8, "name": "Onchain Analyzer", "ownerName": "bytesagain1", "score": 89843.75, "slug": "onchain-analyzer", "source": "clawhub", "stars": 0, "tags": ["chinese", "productivity"], "updated_at": 1776748555588, "version": "4.0.1"}, {"category": "productivity", "created_at": 1773290920701, "description": "A gentle, empathetic emotional companion that provides a safe, non-judgmental space for users to express their feelings. Activates when users express emotion...", "description_zh": "", "downloads": 345, "homepage": "https://clawhub.ai/shianaixuexi-cell/deep-night-treehole", "iconUrl": null, "installs": 5, "name": "deep-night-treehole-1.0.0", "ownerName": "shianaixuexi-cell", "score": 89843.75, "slug": "deep-night-treehole", "source": "clawhub", "stars": 0, "tags": null, "updated_at": 1776748555564, "version": "1.0.0"}, {"category": "communication-collaboration", "created_at": 1772794081656, "description": "Build Telegram bots with correct API calls, message formatting, keyboards, and webhook setup.", "description_zh": "", "downloads": 345, "homepage": "https://clawhub.ai/ivangdavila/telegram-bot-api", "iconUrl": null, "installs": 23, "name": "Telegram Bot API", "ownerName": "ivangdavila", "score": 89843.75, "slug": "telegram-bot-api", "source": "clawhub", "stars": 0, "tags": null, "updated_at": 1776748555541, "version": "1.0.0"}, {"category": "developer-tools", "created_at": 1773426750411, "description": "Exercise form guide with warmup routines and workout plans. Use when planning workouts.", "description_zh": "", "downloads": 345, "homepage": "https://clawhub.ai/bytesagain1/exercise-form", "iconUrl": null, "installs": 7, "name": "Exercise Form", "ownerName": "bytesagain1", "score": 89843.75, "slug": "exercise-form", "source": "clawhub", "stars": 0, "tags": ["productivity"], "updated_at": 1776748555536, "version": "3.0.0"}, {"category": "ai-intelligence", "created_at": 1772795950577, "description": "🔥 Memphis - Complete AI Brain for OpenClaw Agents ALL-IN-ONE meta-package with everything you need: 🧠 Core Features: - Local-first memory chains (journal,...", "description_zh": "", "downloads": 345, "homepage": "https://clawhub.ai/elathoxu-crypto/memphis", "iconUrl": null, "installs": 18, "name": "Memphis", "ownerName": "elathoxu-crypto", "score": 89843.75, "slug": "memphis", "source": "clawhub", "stars": 0, "tags": ["ai", "brain", "memory", "memphis"], "updated_at": 1776748555524, "version": "3.0.0"}, {"category": "productivity", "created_at": 1773069956538, "description": "Use this skill for deep research, fact-checking, or finding the latest technical news.", "description_zh": "", "downloads": 345, "homepage": "https://clawhub.ai/aokikaito79/web-researcher", "iconUrl": null, "installs": 22, "name": "Web Researcher", "ownerName": "aokikaito79", "score": 89843.75, "slug": "web-researcher", "source": "clawhub", "stars": 0, "tags": null, "updated_at": 1776748555492, "version": "1.0.0"}, {"category": "developer-tools", "created_at": 1773222793277, "description": "Help users make better Qunar travel-booking decisions from public platform trade-offs. Use when the user wants to think through flight, hotel, or travel book...", "description_zh": "", "downloads": 345, "homepage": "https://clawhub.ai/harrylabsj/qunar", "iconUrl": null, "installs": 27, "name": "Qunar", "ownerName": "harrylabsj", "score": 89843.75, "slug": "qunar", "source": "clawhub", "stars": 0, "tags": ["china", "flights", "hotels", "travel"], "updated_at": 1776748555487, "version": "1.2.0"}, {"category": "data-analysis", "created_at": 1772790851293, "description": "Complete observability & reliability engineering system. Use when designing monitoring, implementing structured logging, setting up distributed tracing, buil...", "description_zh": "", "downloads": 345, "homepage": "https://clawhub.ai/1kalin/afrexai-observability-engine", "iconUrl": null, "installs": 12, "name": "Observability & Reliability Engineering", "ownerName": "1kalin", "score": 89843.75, "slug": "afrexai-observability-engine", "source": "clawhub", "stars": 0, "tags": ["alerting", "dashboards", "devops", "incident-response", "logging", "metrics", "monitoring", "observability", "on-call", "post-mortem", "reliability", "slo", "sre", "tracing"], "updated_at": 1776748555485, "version": "1.0.0"}, {"category": "communication-collaboration", "created_at": 1772793210001, "description": "IMAP/SMTP mail client for OpenClaw agents. Use when: (1) reading or listing emails from a mailbox, (2) searching emails by sender, subject, date or text, (3)...", "description_zh": "", "downloads": 344, "homepage": "https://clawhub.ai/romain-grosos/mail-client", "iconUrl": null, "installs": 16, "name": "Mail Client", "ownerName": "romain-grosos", "score": 67605.6338028169, "slug": "mail-client", "source": "clawhub", "stars": 2, "tags": null, "updated_at": 1776748555617, "version": "1.1.0"}, {"category": "productivity", "created_at": 1772792786019, "description": "Buy tokens at or near LP creation on Solana. Use when: user asks about sniping, bonding curve graduation, migration, new pool, LP created, pump fun graduatio...", "description_zh": "", "downloads": 344, "homepage": "https://clawhub.ai/outsmartchad/outsmart-lp-sniping", "iconUrl": null, "installs": 10, "name": "Outsmart LP Sniping", "ownerName": "outsmartchad", "score": 100000, "slug": "outsmart-lp-sniping", "source": "clawhub", "stars": 2, "tags": null, "updated_at": 1776748555504, "version": "1.0.0"}, {"category": "productivity", "created_at": 1773847780028, "description": "Continuously identify knowledge gaps, proactively learn and apply new skills, regularly review progress, and iteratively improve technical and project abilit...", "description_zh": "", "downloads": 344, "homepage": "https://clawhub.ai/davidme6/self-learning-skill", "iconUrl": null, "installs": 64, "name": "Self-Learning Skill", "ownerName": "davidme6", "score": 19512.19512195122, "slug": "self-learning-skill", "source": "clawhub", "stars": 0, "tags": null, "updated_at": 1776768550066, "version": "3.0.2"}, {"category": "productivity", "created_at": 1773077283640, "description": "Guide for creating effective skills. This skill should be used when users want to create a new skill (or update an existing skill) that extends Claude's capa...", "description_zh": "", "downloads": 344, "homepage": "https://clawhub.ai/86293073/skill-creator-0-1-0", "iconUrl": null, "installs": 127, "name": "Skill Creator 0.1.0", "ownerName": "86293073", "score": 8255.339572834173, "slug": "skill-creator-0-1-0", "source": "clawhub", "stars": 0, "tags": null, "updated_at": 1776764096475, "version": "1.0.0"}, {"category": "content-creation", "created_at": 1773083889503, "description": "Monitor website prices, inventory, and content changes using browser automation. Use when tracking e-commerce prices, competitor monitoring, stock alerts, or...", "description_zh": "", "downloads": 344, "homepage": "https://clawhub.ai/yinanping-cpu/price-monitor", "iconUrl": null, "installs": 52, "name": "Price Monitor", "ownerName": "yinanping-cpu", "score": 12855.007473841553, "slug": "price-monitor", "source": "clawhub", "stars": 0, "tags": ["automation", "browser", "ecommerce", "monitoring", "price-tracking"], "updated_at": 1776762139857, "version": "1.0.0"}, {"category": "developer-tools", "created_at": 1772804959125, "description": "One-click deployment of camoufox anti-detection browser with modified agent-browser. Patches agent-browser to auto-detect camoufox/firefox from executable pa...", "description_zh": "", "downloads": 344, "homepage": "https://clawhub.ai/adastraabyssoque/camoufox-deploy", "iconUrl": null, "installs": 74, "name": "Camoufox Deploy", "ownerName": "adastraabyssoque", "score": 9074.122922711686, "slug": "camoufox-deploy", "source": "clawhub", "stars": 0, "tags": null, "updated_at": 1776760940088, "version": "1.0.0"}, {"category": "developer-tools", "created_at": 1772791331225, "description": "Build, integrate, debug, and secure MCP servers and clients in any language, enabling AI agents to call external tools via Model Context Protocol.", "description_zh": "", "downloads": 344, "homepage": "https://clawhub.ai/1kalin/afrexai-mcp-engineering", "iconUrl": null, "installs": 11, "name": "MCP Engineering", "ownerName": "1kalin", "score": 25538.233110616184, "slug": "afrexai-mcp-engineering", "source": "clawhub", "stars": 0, "tags": ["agent", "api", "integration", "mcp", "model-context-protocol", "server", "tools"], "updated_at": 1776759198079, "version": "1.0.0"}, {"category": "productivity", "created_at": 1772800053992, "description": "Core utilities for OpenClaw memory plugins (redaction, local store, embeddings).", "description_zh": "", "downloads": 344, "homepage": "https://clawhub.ai/homeofe/openclaw-memory-core", "iconUrl": null, "installs": 9, "name": "OpenClaw Memory Core", "ownerName": "homeofe", "score": 25519.287833827893, "slug": "openclaw-memory-core", "source": "clawhub", "stars": 0, "tags": null, "updated_at": 1776759197918, "version": "0.1.1"}, {"category": "ai-intelligence", "created_at": 1773218236361, "description": "Personal assistant managing schedules, tasks, family coordination, shopping, appointments, planning, communication, and productivity for better daily life or...", "description_zh": "", "downloads": 344, "homepage": "https://clawhub.ai/adamwang929/adam-skill", "iconUrl": null, "installs": 13, "name": "Captain Adam  Assistant", "ownerName": "adamwang929", "score": 62318.840579710144, "slug": "adam-skill", "source": "clawhub", "stars": 0, "tags": null, "updated_at": 1776759197752, "version": "1.0.0"}, {"category": "ai-intelligence", "created_at": 1772793553244, "description": "Daily journaling, reflection, and planning. Use when user says 'morning', 'let's plan the day', 'journal', or similar. Reviews yesterday, updates journals, c...", "description_zh": "", "downloads": 344, "homepage": "https://clawhub.ai/netcetera/morning", "iconUrl": null, "installs": 9, "name": "Morning", "ownerName": "netcetera", "score": 100000, "slug": "morning", "source": "clawhub", "stars": 0, "tags": null, "updated_at": 1776749685060, "version": "0.1.1"}, {"category": "ai-intelligence", "created_at": 1772795946730, "description": "Shadow-test local Ollama models against a cloud baseline with a multi-judge ensemble. Automatically promotes models when statistically proven equivalent — re...", "description_zh": "", "downloads": 344, "homepage": "https://clawhub.ai/nissan/llm-eval-router", "iconUrl": null, "installs": 24, "name": "Llm Eval Router", "ownerName": "nissan", "score": 60563.38028169014, "slug": "llm-eval-router", "source": "clawhub", "stars": 0, "tags": null, "updated_at": 1776748555634, "version": "1.2.1"}, {"category": "productivity", "created_at": 1773068227184, "description": "Subscribe to Google Workspace events.", "description_zh": "", "downloads": 344, "homepage": "https://clawhub.ai/googleworkspace-bot/gws-events", "iconUrl": null, "installs": 15, "name": "Gws Events", "ownerName": "googleworkspace-bot", "score": 60563.38028169014, "slug": "gws-events", "source": "clawhub", "stars": 0, "tags": null, "updated_at": 1776748555615, "version": "1.0.10"}]}