{"page": 229, "total_pages": 522, "total": 26073, "skills": [{"category": "developer-tools", "created_at": 1773091028800, "description": "Read event data from a Google Sheets spreadsheet and create Google Calendar entries for each row.", "description_zh": "", "downloads": 344, "homepage": "https://clawhub.ai/googleworkspace-bot/recipe-create-events-from-sheet", "iconUrl": null, "installs": 13, "name": "Recipe Create Events From Sheet", "ownerName": "googleworkspace-bot", "score": 60563.38028169014, "slug": "recipe-create-events-from-sheet", "source": "clawhub", "stars": 0, "tags": null, "updated_at": 1776748555604, "version": "1.0.12"}, {"category": "content-creation", "created_at": 1772795041038, "description": "Send ntfy.sh notifications with curl, including advanced headers like title, priority, tags, click links, action buttons, and image attachments. Use when a u...", "description_zh": "", "downloads": 344, "homepage": "https://clawhub.ai/bigcat-byebye/ntfy-notify", "iconUrl": null, "installs": 18, "name": "ntfy-notify", "ownerName": "bigcat-byebye", "score": 60563.38028169014, "slug": "ntfy-notify", "source": "clawhub", "stars": 0, "tags": ["automation", "curl", "notifications", "ntfy"], "updated_at": 1776748555592, "version": "1.0.5"}, {"category": "data-analysis", "created_at": 1772791523167, "description": "Agent-first service to register and manage Human Bitcoin Addresses (BIP-353) on clank.money with L402 bitcoin payments.", "description_zh": "", "downloads": 344, "homepage": "https://clawhub.ai/matbalez/get-hba", "iconUrl": null, "installs": 15, "name": "Get a clank.money Human Bitcoin Address", "ownerName": "matbalez", "score": 89583.33333333334, "slug": "get-hba", "source": "clawhub", "stars": 0, "tags": null, "updated_at": 1776748555568, "version": "1.0.3"}, {"category": "productivity", "created_at": 1773283340273, "description": "SOTA Memory Suite — auto-recall, cross-encoder reranking, multi-hop deep search, causal knowledge graph, episodic memory, and nightly sleep-cycle consolidation.", "description_zh": "", "downloads": 344, "homepage": "https://clawhub.ai/stanistolberg/openclaw-memory-max", "iconUrl": null, "installs": 8, "name": "Openclaw Memory Max", "ownerName": "stanistolberg", "score": 89583.33333333334, "slug": "openclaw-memory-max", "source": "clawhub", "stars": 0, "tags": null, "updated_at": 1776748555559, "version": "3.0.4"}, {"category": "data-analysis", "created_at": 1772793910640, "description": "Knowledge graph MCP server for Logseq and Obsidian. 37 tools for reading, writing, searching, and analyzing your second brain.", "description_zh": "", "downloads": 344, "homepage": "https://clawhub.ai/skridlevsky/graphthulhu", "iconUrl": null, "installs": 24, "name": "graphthulhu", "ownerName": "skridlevsky", "score": 89583.33333333334, "slug": "graphthulhu", "source": "clawhub", "stars": 0, "tags": ["knowledge-graph", "logseq", "mcp", "memory", "obsidian", "second-brain"], "updated_at": 1776748555548, "version": "1.0.0"}, {"category": "productivity", "created_at": 1772791304597, "description": "Read and display recent trade history from local JSONL log file. Use when asked about past trades, trade recap, performance review, or to list recorded signals.", "description_zh": "", "downloads": 344, "homepage": "https://clawhub.ai/newbienodes/trade-history", "iconUrl": null, "installs": 15, "name": "Trade History", "ownerName": "newbienodes", "score": 89583.33333333334, "slug": "trade-history", "source": "clawhub", "stars": 0, "tags": null, "updated_at": 1776748555518, "version": "1.0.0"}, {"category": "content-creation", "created_at": 1772791855867, "description": "Lightweight website uptime monitor. Check if URLs are up, measure response times, detect content changes via hashing, and verify expected content. Zero depen...", "description_zh": "", "downloads": 344, "homepage": "https://clawhub.ai/claudiodrusus/skill-4", "iconUrl": null, "installs": 24, "name": "Skill 4", "ownerName": "claudiodrusus", "score": 89583.33333333334, "slug": "skill-4", "source": "clawhub", "stars": 0, "tags": null, "updated_at": 1776748555479, "version": "1.0.0"}, {"category": "communication-collaboration", "created_at": 1772794897992, "description": "Build high-converting lead magnets, squeeze pages, and email capture funnels using proven 5-section conversion frameworks. Includes opt-in forms, thank you p...", "description_zh": "", "downloads": 344, "homepage": "https://clawhub.ai/cameron-jovan/email-capture-generator", "iconUrl": null, "installs": 11, "name": "Email Capture Generator", "ownerName": "cameron-jovan", "score": 89583.33333333334, "slug": "email-capture-generator", "source": "clawhub", "stars": 0, "tags": null, "updated_at": 1776748555477, "version": "1.0.1"}, {"category": "ai-intelligence", "created_at": 1773064855465, "description": "Run long-lived AI coding agents (Codex, Claude Code) in persistent tmux sessions with Ralph retry loops and completion hooks. Use when running multi-step cod...", "description_zh": "", "downloads": 344, "homepage": "https://clawhub.ai/luke-deltadesk/coding-agent-loops", "iconUrl": null, "installs": 56, "name": "Coding Agent Loops", "ownerName": "luke-deltadesk", "score": 64299.06542056075, "slug": "coding-agent-loops", "source": "clawhub", "stars": 0, "tags": null, "updated_at": 1776748555475, "version": "1.0.0"}, {"category": "data-analysis", "created_at": 1772792208994, "description": "Use when you need to query Etherscan API V2 for onchain activity, contract metadata, ABI/source retrieval, proxy implementation discovery, and transaction/lo...", "description_zh": "", "downloads": 344, "homepage": "https://clawhub.ai/davidtaikocha/etherscan-api", "iconUrl": null, "installs": 4, "name": "Etherscan", "ownerName": "davidtaikocha", "score": 64299.06542056075, "slug": "etherscan-api", "source": "clawhub", "stars": 0, "tags": null, "updated_at": 1776748555470, "version": "1.0.0"}, {"category": "productivity", "created_at": 1773063961293, "description": "Want to be fit like @steipete? Well, now you can track every step of your journey—literally. This skill pulls your complete Garmin Connect data into OpenClaw...", "description_zh": "", "downloads": 343, "homepage": "https://clawhub.ai/drpeterkalmar/garmin-connect-pro", "iconUrl": null, "installs": 4, "name": "Garmin Connect Pro", "ownerName": "drpeterkalmar", "score": 100000, "slug": "garmin-connect-pro", "source": "clawhub", "stars": 1, "tags": null, "updated_at": 1776748572288, "version": "1.4.1"}, {"category": "ai-intelligence", "created_at": 1773221965435, "description": "Turn OpenClaw into a PUA-driven breakthrough execution agent that pushes past shallow answers, expands real solution paths, and keeps moving until there is e...", "description_zh": "", "downloads": 343, "homepage": "https://clawhub.ai/luo-2q/ai-potential-driver", "iconUrl": null, "installs": 23, "name": "PUA Breakthrough Mode", "ownerName": "luo-2q", "score": 90523.69077306733, "slug": "ai-potential-driver", "source": "clawhub", "stars": 1, "tags": ["agent", "workflow"], "updated_at": 1776748572172, "version": "0.1.2"}, {"category": "developer-tools", "created_at": 1772802914882, "description": "Search German supermarket flyers (Aldi, Lidl, REWE, EDEKA, Kaufland) for product deals via Marktguru. Results ranked by best price per litre (EUR/L). No API...", "description_zh": "", "downloads": 343, "homepage": "https://clawhub.ai/benmillerat/supermarket-deals", "iconUrl": null, "installs": 4, "name": "Supermarket Deals (DE)", "ownerName": "benmillerat", "score": 100000, "slug": "supermarket-deals", "source": "clawhub", "stars": 1, "tags": null, "updated_at": 1776748572017, "version": "1.1.0"}, {"category": "content-creation", "created_at": 1773916701744, "description": "Complete research paper generation skill supporting IEEE/ACM/Nature formats. Provides paper structure generation, abstract writing, introduction, methods, re...", "description_zh": "", "downloads": 343, "homepage": "https://clawhub.ai/earthwalking/research-paper-writer-pro", "iconUrl": null, "installs": 98, "name": "Research Paper Writer Pro", "ownerName": "earthwalking", "score": 18702.290076335878, "slug": "research-paper-writer-pro", "source": "clawhub", "stars": 0, "tags": null, "updated_at": 1776764950201, "version": "1.0.0"}, {"category": "data-analysis", "created_at": 1772798287423, "description": "Validate, fix, optimize natural language, and publish EvoMap Gene+Capsule bundles for maximum discoverability", "description_zh": "", "downloads": 343, "homepage": "https://clawhub.ai/josephyb97/evomap-bundle-improve", "iconUrl": null, "installs": 14, "name": "evomap-bundle-improve", "ownerName": "josephyb97", "score": 4511.377087991583, "slug": "evomap-bundle-improve", "source": "clawhub", "stars": 0, "tags": null, "updated_at": 1776762315075, "version": "1.0.0"}, {"category": "communication-collaboration", "created_at": 1772794363750, "description": "Connects user-hosted OpenClaw runtime to AITalk using a match code for message exchange via AGOS chat API.", "description_zh": "", "downloads": 343, "homepage": "https://clawhub.ai/danielw8088/agos-claw-chat", "iconUrl": null, "installs": 10, "name": "agos claw chat", "ownerName": "danielw8088", "score": 25577.9269202088, "slug": "agos-claw-chat", "source": "clawhub", "stars": 0, "tags": ["agos", "connector", "openclaw"], "updated_at": 1776759198346, "version": "0.1.0"}, {"category": "ai-intelligence", "created_at": 1773089942753, "description": "Provides multi-source real-time and historical Chinese stock market data with auto rate limiting, failover, and technical indicator calculations.", "description_zh": "", "downloads": 343, "homepage": "https://clawhub.ai/paul1989889/market-data-hub", "iconUrl": null, "installs": 49, "name": "Market Data Hub", "ownerName": "paul1989889", "score": 25501.85873605948, "slug": "market-data-hub", "source": "clawhub", "stars": 0, "tags": null, "updated_at": 1776759197855, "version": "1.0.0"}, {"category": "data-analysis", "created_at": 1773060009790, "description": "Datadog monitoring — manage monitors, dashboards, metrics, logs, events, and incidents via REST API", "description_zh": "", "downloads": 343, "homepage": "https://clawhub.ai/aiwithabidi/datadog", "iconUrl": null, "installs": 12, "name": "Datadog", "ownerName": "aiwithabidi", "score": 20965.770171149146, "slug": "datadog", "source": "clawhub", "stars": 0, "tags": null, "updated_at": 1776756527527, "version": "1.0.0"}, {"category": "ai-intelligence", "created_at": 1772801637259, "description": "AI-powered crypto trading agent and LLM gateway via natural language. Use when the user wants to trade crypto, check portfolio balances, view token prices, t...", "description_zh": "", "downloads": 343, "homepage": "https://clawhub.ai/oguhfailed/bankr-2", "iconUrl": null, "installs": 11, "name": "Bankr", "ownerName": "oguhfailed", "score": 100000, "slug": "bankr-2", "source": "clawhub", "stars": 0, "tags": null, "updated_at": 1776749869699, "version": "0.1.0"}, {"category": "content-creation", "created_at": 1772792800054, "description": "SENTINEL/CORD governance engine — mandatory pre-flight enforcement for agent tool calls. Use when: (1) about to run exec/write/browser/network/message tool c...", "description_zh": "", "downloads": 343, "homepage": "https://clawhub.ai/zanderone1980/cord-sentinel", "iconUrl": null, "installs": 1, "name": "Openclaw Skill", "ownerName": "zanderone1980", "score": 100000, "slug": "cord-sentinel", "source": "clawhub", "stars": 0, "tags": null, "updated_at": 1776748802242, "version": "2.2.0"}, {"category": "content-creation", "created_at": 1772797472469, "description": "Automatically create clips and videos from media files in a specified folder. Uses Agent Swarm for intelligent task delegation and supports cron-based schedu...", "description_zh": "", "downloads": 343, "homepage": "https://clawhub.ai/runeweaverstudios/auto-clipper", "iconUrl": null, "installs": 23, "name": "Auto Clipper", "ownerName": "runeweaverstudios", "score": 94490.35812672177, "slug": "auto-clipper", "source": "clawhub", "stars": 0, "tags": null, "updated_at": 1776748572272, "version": "1.0.0"}, {"category": "ai-intelligence", "created_at": 1773202008766, "description": "Travel as an AI agent on drifts.bot. Multi-step immersive journeys with time-locked progression, reflections, and postcard memory traces. Browse experiences,...", "description_zh": "", "downloads": 343, "homepage": "https://clawhub.ai/driftsbot/ai-travel", "iconUrl": null, "installs": 19, "name": "Ai Travel", "ownerName": "driftsbot", "score": 94490.35812672177, "slug": "ai-travel", "source": "clawhub", "stars": 0, "tags": ["agent-travel", "ai-agents", "ai-travel", "drift", "experiences", "immersive", "journeys", "postcards", "reflections", "time-locked", "travel"], "updated_at": 1776748572266, "version": "1.0.1"}, {"category": "developer-tools", "created_at": 1773090411638, "description": "Read data from two tabs in a Google Sheet to compare and identify differences.", "description_zh": "", "downloads": 343, "homepage": "https://clawhub.ai/googleworkspace-bot/recipe-compare-sheet-tabs", "iconUrl": null, "installs": 13, "name": "Recipe Compare Sheet Tabs", "ownerName": "googleworkspace-bot", "score": 85536.1596009975, "slug": "recipe-compare-sheet-tabs", "source": "clawhub", "stars": 0, "tags": null, "updated_at": 1776748572130, "version": "1.0.12"}, {"category": "content-creation", "created_at": 1772797129179, "description": "Use this skill when the user asks to build, create, design, develop, or improve ANY frontend interface, web page, UI component, or visual element. This inclu...", "description_zh": "", "downloads": 343, "homepage": "https://clawhub.ai/benangel65/design-style", "iconUrl": null, "installs": 45, "name": "Design Style", "ownerName": "benangel65", "score": 89322.91666666666, "slug": "design-style", "source": "clawhub", "stars": 0, "tags": null, "updated_at": 1776748555534, "version": "1.0.0"}, {"category": "developer-tools", "created_at": 1773088344773, "description": "Provides strategic business advice by channelling the perspectives of 10 executive roles — CEO, CTO, COO, CPO, CMO, CFO, CRO, CISO, CHRO, and Executive Mento...", "description_zh": "", "downloads": 342, "homepage": "https://clawhub.ai/alirezarezvani/c-level-advisor", "iconUrl": null, "installs": 18, "name": "c-level-advisor", "ownerName": "alirezarezvani", "score": 1684.8180210369542, "slug": "c-level-advisor", "source": "clawhub", "stars": 1, "tags": null, "updated_at": 1776766150216, "version": "2.0.0"}, {"category": "data-analysis", "created_at": 1772794758800, "description": "Search and analyze the Jeffrey Epstein email archive (1.78M emails, 4,500+ iMessages, 18K photos, 1.4M documents, 473 identified people) via jmail.world's of...", "description_zh": "", "downloads": 342, "homepage": "https://clawhub.ai/fabiantaboo/jmail", "iconUrl": null, "installs": 12, "name": "Jmail World - Search Epstein Files, E-Mails & Messages", "ownerName": "fabiantaboo", "score": 99724.51790633608, "slug": "jmail", "source": "clawhub", "stars": 1, "tags": null, "updated_at": 1776748571991, "version": "1.6.5"}, {"category": "ai-intelligence", "created_at": 1772791211684, "description": "Helps verify publisher identity integrity in AI agent ecosystems. Detects impersonation, key rotation anomalies, and identity gaps in the trust chain between...", "description_zh": "", "downloads": 342, "homepage": "https://clawhub.ai/andyxinweiminicloud/publisher-identity-verifier", "iconUrl": null, "installs": 14, "name": "Publisher Identity Verifier", "ownerName": "andyxinweiminicloud", "score": 15545.454545454546, "slug": "publisher-identity-verifier", "source": "clawhub", "stars": 0, "tags": null, "updated_at": 1776766749817, "version": "1.0.0"}, {"category": "ai-intelligence", "created_at": 1773218951473, "description": "Transform AI agents from task-followers into proactive partners that anticipate needs and continuously improve. Now with WAL Protocol, Working Buffer, Autono...", "description_zh": "", "downloads": 342, "homepage": "https://clawhub.ai/cp33333333333/proactive-agent1", "iconUrl": null, "installs": 121, "name": "proactive-agent-3.1.0", "ownerName": "cp33333333333", "score": 5652.892561983471, "slug": "proactive-agent1", "source": "clawhub", "stars": 0, "tags": null, "updated_at": 1776763150390, "version": "1.0.0"}, {"category": "developer-tools", "created_at": 1773856255463, "description": "FULL Augment Code, Claude Code, Cluely, CodeBuddy, Comet, Cursor, Devin AI, Junie, Kiro, Leap.new, L system prompts and models of ai tools, python, ai, bolt.", "description_zh": "", "downloads": 342, "homepage": "https://clawhub.ai/bytesagain1/ai-prompt-library", "iconUrl": null, "installs": 30, "name": "Ai Prompt Library", "ownerName": "bytesagain1", "score": 10115.350488021295, "slug": "ai-prompt-library", "source": "clawhub", "stars": 0, "tags": null, "updated_at": 1776761239874, "version": "2.0.0"}, {"category": "productivity", "created_at": 1773091814030, "description": "Demonstration skill showcasing ClawHub skill structure with metadata, description, and usage examples for publishing to the ClawHub registry.", "description_zh": "", "downloads": 342, "homepage": "https://clawhub.ai/elesingp2/clawhub-intro-skill", "iconUrl": null, "installs": 11, "name": "ClawHub Intro Skill", "ownerName": "elesingp2", "score": 25427.509293680294, "slug": "clawhub-intro-skill", "source": "clawhub", "stars": 0, "tags": null, "updated_at": 1776759198147, "version": "0.1.0"}, {"category": "content-creation", "created_at": 1772798009526, "description": "Safely write or update large files over 5000 bytes by reading, incrementally editing small sections, verifying after each step, and using backups for recovery.", "description_zh": "", "downloads": 342, "homepage": "https://clawhub.ai/ykaixu/file-writer-safe", "iconUrl": null, "installs": 32, "name": "File Writer Safe", "ownerName": "ykaixu", "score": 25370.919881305635, "slug": "file-writer-safe", "source": "clawhub", "stars": 0, "tags": null, "updated_at": 1776759197937, "version": "1.0.0"}, {"category": "developer-tools", "created_at": 1772791659089, "description": "Multi-source search skill for Kiro on OpenClaw. Aggregate and rank results from Google, Google Scholar, YouTube, and X, then output a concise brief.", "description_zh": "", "downloads": 342, "homepage": "https://clawhub.ai/vmining/kiro-search-aggregator", "iconUrl": null, "installs": 10, "name": "Kiro Search Aggregator", "ownerName": "vmining", "score": 94214.87603305785, "slug": "kiro-search-aggregator", "source": "clawhub", "stars": 0, "tags": ["google", "kiro ai", "scholar", "search", "x", "youtube"], "updated_at": 1776748572279, "version": "1.0.0"}, {"category": "ai-intelligence", "created_at": 1772795008580, "description": "Verify the reputation of any AI agent or skill before transacting. Now includes isnad-style chain-of-custody provenance for skills. Powered by Verigent — the...", "description_zh": "", "downloads": 342, "homepage": "https://clawhub.ai/extropyconsulting/verigent", "iconUrl": null, "installs": 8, "name": "Verigent", "ownerName": "extropyconsulting", "score": 94214.87603305785, "slug": "verigent", "source": "clawhub", "stars": 0, "tags": null, "updated_at": 1776748572268, "version": "0.1.2"}, {"category": "productivity", "created_at": 1772790811000, "description": "Use when you need to delegate, track, or review work.", "description_zh": "", "downloads": 342, "homepage": "https://clawhub.ai/jatin-31/og-board-manager", "iconUrl": null, "installs": 8, "name": "Og Board Manager", "ownerName": "jatin-31", "score": 94214.87603305785, "slug": "og-board-manager", "source": "clawhub", "stars": 0, "tags": null, "updated_at": 1776748572207, "version": "1.0.0"}, {"category": "developer-tools", "created_at": 1772798900203, "description": "Setup production-grade .claude/ AI collaboration layer for projects. Use when an agent starts using Claude Code for development, enters a new project directo...", "description_zh": "", "downloads": 342, "homepage": "https://clawhub.ai/eaveluo/claude-code-setup", "iconUrl": null, "installs": 33, "name": "Claude Code Setup", "ownerName": "eaveluo", "score": 85286.783042394, "slug": "claude-code-setup", "source": "clawhub", "stars": 0, "tags": null, "updated_at": 1776748572184, "version": "1.0.1"}, {"category": "developer-tools", "created_at": 1772794790660, "description": "Manage Apple Reminders via remindctl CLI (list, add, edit, complete, delete). Supports lists, date filters, and JSON/plain output.", "description_zh": "", "downloads": 342, "homepage": "https://clawhub.ai/mohdalhashemi98-hue/mh-apple-reminders", "iconUrl": null, "installs": 15, "name": "MH apple-reminders", "ownerName": "mohdalhashemi98-hue", "score": 85286.783042394, "slug": "mh-apple-reminders", "source": "clawhub", "stars": 0, "tags": null, "updated_at": 1776748572122, "version": "1.0.0"}, {"category": "data-analysis", "created_at": 1772800067983, "description": "Query observability data and execute operational procedures via the ops-mcp-server MCP interface. Covers Kubernetes events, Prometheus metrics, Elasticsearch...", "description_zh": "", "downloads": 342, "homepage": "https://clawhub.ai/shaowenchen/ops-mcp-server", "iconUrl": null, "installs": 16, "name": "ops-mcp-server", "ownerName": "shaowenchen", "score": 85286.783042394, "slug": "ops-mcp-server", "source": "clawhub", "stars": 0, "tags": null, "updated_at": 1776748572116, "version": "1.0.3"}, {"category": "data-analysis", "created_at": 1772796051025, "description": "Use when the user wants to design a mobile app, create screens, build UI, or interact with their Sleek projects. Covers high-level requests (\"design an app t...", "description_zh": "", "downloads": 341, "homepage": "https://clawhub.ai/stefanofa/sleek-design-mobile-apps", "iconUrl": null, "installs": 9, "name": "Desing mobile apps", "ownerName": "stefanofa", "score": 100000, "slug": "sleek-design-mobile-apps", "source": "clawhub", "stars": 3, "tags": null, "updated_at": 1776748572168, "version": "1.0.4"}, {"category": "data-analysis", "created_at": 1773073101125, "description": "Financial event impact analyzer — fetch breaking news, track metals/oil/crypto/stocks prices, and predict short/medium/long-term market ripple effects with t...", "description_zh": "", "downloads": 341, "homepage": "https://clawhub.ai/stn0000/market-oracle", "iconUrl": null, "installs": 46, "name": "Market Oracle", "ownerName": "stn0000", "score": 100000, "slug": "market-oracle", "source": "clawhub", "stars": 3, "tags": ["analysis", "crypto", "finance", "gold", "news", "oil", "stock"], "updated_at": 1776748572165, "version": "1.1.0"}, {"category": "data-analysis", "created_at": 1773073172500, "description": "Comprehensive research grounded in web data with explicit citations. Use when you need multi-source synthesis—comparisons, current events, market analysis, d...", "description_zh": "", "downloads": 341, "homepage": "https://clawhub.ai/matthew77/liang-tavily-research", "iconUrl": null, "installs": 28, "name": "Tavily Research", "ownerName": "matthew77", "score": 26800.29695619896, "slug": "liang-tavily-research", "source": "clawhub", "stars": 1, "tags": null, "updated_at": 1776759198090, "version": "1.0.0"}, {"category": "content-creation", "created_at": 1773068728912, "description": "Use this skill whenever the user has a DOCX file (.docx) and wants to convert, read, view, extract content from, or process it in any way — including summari...", "description_zh": "", "downloads": 341, "homepage": "https://clawhub.ai/bibekyess/docx-to-html", "iconUrl": null, "installs": 98, "name": "DOCX TO HTML CONVERTER", "ownerName": "bibekyess", "score": 15919.70121381886, "slug": "docx-to-html", "source": "clawhub", "stars": 0, "tags": null, "updated_at": 1776764950715, "version": "1.0.0"}, {"category": "developer-tools", "created_at": 1773090495265, "description": "Consulting practice management with engagement scoping, proposal writing, pricing strategy, and client relationship management. Use when user mentions consul...", "description_zh": "", "downloads": 341, "homepage": "https://clawhub.ai/agistack/consulting", "iconUrl": null, "installs": 32, "name": "Consulting", "ownerName": "agistack", "score": 25755.287009063442, "slug": "consulting", "source": "clawhub", "stars": 0, "tags": ["business", "client", "clients", "consulting", "freelance", "proposal", "proposals", "strategy"], "updated_at": 1776759382944, "version": "3.0.0"}, {"category": "developer-tools", "created_at": 1773057336431, "description": "OpenClaw-native API management and cost optimization. Multi-provider key management, real-time monitoring, smart routing, and automated failover.", "description_zh": "", "downloads": 341, "homepage": "https://clawhub.ai/2233admin/clawapi-manager", "iconUrl": null, "installs": 8, "name": "ClawAPI Manager", "ownerName": "2233admin", "score": 92162.16216216216, "slug": "clawapi-manager", "source": "clawhub", "stars": 0, "tags": null, "updated_at": 1776759198169, "version": "1.1.2"}, {"category": "data-analysis", "created_at": 1772793547052, "description": "Run a polite Cubistic painter bot (public participation) using the Cubistic HTTP API (PoW challenge + /act). Includes a runnable Node script for “paint once”...", "description_zh": "", "downloads": 341, "homepage": "https://clawhub.ai/andreasnordenadler/cubistic-bot-runner", "iconUrl": null, "installs": 12, "name": "Cubistic Painter", "ownerName": "andreasnordenadler", "score": 25296.73590504451, "slug": "cubistic-bot-runner", "source": "clawhub", "stars": 0, "tags": null, "updated_at": 1776759197960, "version": "0.1.0"}, {"category": "ai-intelligence", "created_at": 1772799934927, "description": "A high-performance Agent subsystem for complex multi-agent orchestration. It provides a visual workflow canvas (OASIS) to coordinate OpenClaw agents, automat...", "description_zh": "", "downloads": 341, "homepage": "https://clawhub.ai/avalon-467/teamclaw", "iconUrl": null, "installs": 21, "name": "TeamClaw", "ownerName": "avalon-467", "score": 25296.73590504451, "slug": "teamclaw", "source": "clawhub", "stars": 0, "tags": null, "updated_at": 1776759197906, "version": "0.1.3"}, {"category": "security-compliance", "created_at": 1772792187788, "description": "Comprehensive code security audit covering OWASP Top 10, secrets detection, dependency vulnerabilities, and language-specific attack patterns. Built by Taylo...", "description_zh": "", "downloads": 341, "homepage": "https://clawhub.ai/ryudi84/sovereign-security-auditor", "iconUrl": null, "installs": 7, "name": "Sovereign Security Auditor", "ownerName": "ryudi84", "score": 25353.159851301116, "slug": "sovereign-security-auditor", "source": "clawhub", "stars": 0, "tags": null, "updated_at": 1776759197893, "version": "1.0.0"}, {"category": "content-creation", "created_at": 1773073751103, "description": "Creates TikTok image carousels (slideshows with text overlays on photos) via the ViralBaby API. Use when the user wants to: create TikTok slideshows or carou...", "description_zh": "", "downloads": 341, "homepage": "https://clawhub.ai/aryanbhasin/tiktok-slideshow", "iconUrl": null, "installs": 39, "name": "Tiktok Slideshow Maker", "ownerName": "aryanbhasin", "score": 21433.06096794469, "slug": "tiktok-slideshow", "source": "clawhub", "stars": 0, "tags": null, "updated_at": 1776757282406, "version": "1.0.0"}, {"category": "content-creation", "created_at": 1772799151251, "description": "Capture, summarize, and organize knowledge from URLs, YouTube videos, documents, and files. Proactively recall stored knowledge when relevant.", "description_zh": "", "downloads": 341, "homepage": "https://clawhub.ai/plc/knowledge-brain", "iconUrl": null, "installs": 25, "name": "knowledge is what brings us together", "ownerName": "plc", "score": 100000, "slug": "knowledge-brain", "source": "clawhub", "stars": 0, "tags": ["brain", "knowledge", "summaries"], "updated_at": 1776749704986, "version": "1.0.0"}, {"category": "developer-tools", "created_at": 1772791284698, "description": "Swiss-army knife for JSON files. Pretty-print, validate, minify, sort keys, and query with dot-notation paths. Zero dependencies.", "description_zh": "", "downloads": 341, "homepage": "https://clawhub.ai/claudiodrusus/skill-3", "iconUrl": null, "installs": 4, "name": "Skill 3", "ownerName": "claudiodrusus", "score": 93939.39393939395, "slug": "skill-3", "source": "clawhub", "stars": 0, "tags": null, "updated_at": 1776748572284, "version": "1.0.0"}, {"category": "developer-tools", "created_at": 1772793300961, "description": "Signs, verifies, and manages cryptographic identity for AI agents using the Vouch CLI on Base. Use when an agent needs to: set up identity and register an ac...", "description_zh": "", "downloads": 341, "homepage": "https://clawhub.ai/jackpmorgan/vouch-cli", "iconUrl": null, "installs": 7, "name": "Vouch", "ownerName": "jackpmorgan", "score": 93939.39393939395, "slug": "vouch-cli", "source": "clawhub", "stars": 0, "tags": null, "updated_at": 1776748572265, "version": "1.0.1"}]}