{"page": 230, "total_pages": 522, "total": 26073, "skills": [{"category": "security-compliance", "created_at": 1773289485739, "description": "Reference tool for life — covers intro, quickstart, patterns and more. Quick lookup for Ring Security concepts, best practices, and implementation patterns.", "description_zh": "", "downloads": 341, "homepage": "https://clawhub.ai/bytesagain1/ring-security", "iconUrl": null, "installs": 3, "name": "Ring Security", "ownerName": "bytesagain1", "score": 93939.39393939395, "slug": "ring-security", "source": "clawhub", "stars": 0, "tags": ["chinese", "productivity"], "updated_at": 1776748572197, "version": "3.0.1"}, {"category": "productivity", "created_at": 1773215771156, "description": "When the user wants to plan a product launch, feature announcement, or release strategy. Also use when the user mentions 'launch,' 'Product Hunt,' 'feature r...", "description_zh": "", "downloads": 341, "homepage": "https://clawhub.ai/alirezarezvani/launch-strategy", "iconUrl": null, "installs": 20, "name": "Launch Strategy", "ownerName": "alirezarezvani", "score": 85037.40648379052, "slug": "launch-strategy", "source": "clawhub", "stars": 0, "tags": null, "updated_at": 1776748572186, "version": "2.1.1"}, {"category": "developer-tools", "created_at": 1773058080695, "description": "Trade prediction markets on Kalshi using the kalshi-cli command-line tool. Use when the user wants to trade event contracts, browse prediction markets, place...", "description_zh": "", "downloads": 341, "homepage": "https://clawhub.ai/lacymorrow/kalshi-cli-trading", "iconUrl": null, "installs": 6, "name": "Kalshi CLI Trading", "ownerName": "lacymorrow", "score": 85037.40648379052, "slug": "kalshi-cli-trading", "source": "clawhub", "stars": 0, "tags": null, "updated_at": 1776748572118, "version": "1.0.0"}, {"category": "content-creation", "created_at": 1773428390873, "description": "Design succession plans with role mapping and transition roadmaps. Use when adding positions, listing candidates, prioritizing paths, planning transfers.", "description_zh": "", "downloads": 341, "homepage": "https://clawhub.ai/bytesagain1/succession-plan", "iconUrl": null, "installs": 9, "name": "Succession Plan", "ownerName": "bytesagain1", "score": 60035.211267605635, "slug": "succession-plan", "source": "clawhub", "stars": 0, "tags": ["productivity"], "updated_at": 1776748571968, "version": "2.0.1"}, {"category": "productivity", "created_at": 1772792657434, "description": "When user asks to track job applications, manage job search, log interview, applied for job, job application status, track where I applied, job search organi...", "description_zh": "", "downloads": 340, "homepage": "https://clawhub.ai/mkpareek0315/job-hunt-tracker", "iconUrl": null, "installs": 12, "name": "Job Hunt Tracker", "ownerName": "mkpareek0315", "score": 66901.40845070423, "slug": "job-hunt-tracker", "source": "clawhub", "stars": 2, "tags": null, "updated_at": 1776748571982, "version": "1.0.0"}, {"category": "developer-tools", "created_at": 1772796304486, "description": "AI-driven agile development framework with 34+ workflows and 12+ domain expert agents (PM, Architect, Developer, UX, Scrum Master, etc.). Use when: (1) User...", "description_zh": "", "downloads": 340, "homepage": "https://clawhub.ai/hansenmemo/bmad-method", "iconUrl": null, "installs": 22, "name": "BMad Method", "ownerName": "hansenmemo", "score": 28169.014084507042, "slug": "bmad-method", "source": "clawhub", "stars": 1, "tags": null, "updated_at": 1776759831617, "version": "2.0.0"}, {"category": "developer-tools", "created_at": 1772792312393, "description": "Find where to stream any movie or TV show in the US using the WhereCanIWatch.tv API. Use when a user asks \"where can I watch [title]?\", wants streaming avail...", "description_zh": "", "downloads": 340, "homepage": "https://clawhub.ai/samthewise2855/wherecaniwatch", "iconUrl": null, "installs": 9, "name": "WhereCanIWatch", "ownerName": "samthewise2855", "score": 95490.71618037135, "slug": "wherecaniwatch", "source": "clawhub", "stars": 1, "tags": null, "updated_at": 1776748572295, "version": "1.0.0"}, {"category": "productivity", "created_at": 1772794111187, "description": "Your personal life planning assistant. Helps you balance health, relationships, growth, finance, and adventure through weekly rituals and intentional plannin...", "description_zh": "", "downloads": 340, "homepage": "https://clawhub.ai/skoppert/wayve", "iconUrl": null, "installs": 14, "name": "Wavye", "ownerName": "skoppert", "score": 99173.55371900827, "slug": "wayve", "source": "clawhub", "stars": 1, "tags": null, "updated_at": 1776748572009, "version": "1.0.10"}, {"category": "data-analysis", "created_at": 1772797343549, "description": "Automates B2B lead cleaning and classification by analyzing client websites, grading leads A/B/C, updating Feishu tables, and sending reports to Feishu groups.", "description_zh": "", "downloads": 340, "homepage": "https://clawhub.ai/clonbrowser/lead-processor", "iconUrl": null, "installs": 18, "name": "Lead Processor", "ownerName": "clonbrowser", "score": 25278.81040892193, "slug": "lead-processor", "source": "clawhub", "stars": 0, "tags": null, "updated_at": 1776759198319, "version": "1.0.2"}, {"category": "data-analysis", "created_at": 1772798124554, "description": "Work inside an existing R project to extend analyses, modify scripts, run statistical models, update visualizations, and regenerate reports.", "description_zh": "", "downloads": 340, "homepage": "https://clawhub.ai/jackkuo666/running-r-analysis-in-existing-projects", "iconUrl": null, "installs": 11, "name": "Running R Analysis In Existing Projects", "ownerName": "jackkuo666", "score": 91891.8918918919, "slug": "running-r-analysis-in-existing-projects", "source": "clawhub", "stars": 0, "tags": null, "updated_at": 1776759198217, "version": "0.1.0"}, {"category": "data-analysis", "created_at": 1773074825697, "description": "Local AI assistant for recording income/expenses, querying transactions, generating reports, and analyzing stats with secure, offline data storage.", "description_zh": "", "downloads": 340, "homepage": "https://clawhub.ai/chuhemiao/openclaw-accounting", "iconUrl": null, "installs": 13, "name": "Accounting", "ownerName": "chuhemiao", "score": 25241.276911655532, "slug": "openclaw-accounting", "source": "clawhub", "stars": 0, "tags": null, "updated_at": 1776759198087, "version": "0.1.0"}, {"category": "productivity", "created_at": 1773207032679, "description": "Complete personal and business banking intelligence system. Trigger whenever someone needs to optimize their banking setup, choose the right accounts, reduce...", "description_zh": "", "downloads": 340, "homepage": "https://clawhub.ai/agenticio/bank", "iconUrl": null, "installs": 12, "name": "Bank", "ownerName": "agenticio", "score": 25241.276911655532, "slug": "bank", "source": "clawhub", "stars": 0, "tags": ["accounts", "bank", "finance", "money", "savings"], "updated_at": 1776759197988, "version": "1.0.0"}, {"category": "ai-intelligence", "created_at": 1773064926711, "description": "E-commerce operations workflow for \"high-repeat small goods\" stores (cosmetics, phone cases, accessories, small jewelry, daily FMCG). Trigger whenever the us...", "description_zh": "", "downloads": 340, "homepage": "https://clawhub.ai/rijoyai/high-repeat-small-goods-ops-2", "iconUrl": null, "installs": 63, "name": "High Repeat Small Goods Ops", "ownerName": "rijoyai", "score": 63079.77736549165, "slug": "high-repeat-small-goods-ops-2", "source": "clawhub", "stars": 0, "tags": null, "updated_at": 1776754988234, "version": "0.1.2"}, {"category": "ai-intelligence", "created_at": 1773073294138, "description": "Give AI agents cryptographic identity, scoped delegation, values governance, coordination, and agentic commerce. Use this skill whenever the user wants to cr...", "description_zh": "", "downloads": 340, "homepage": "https://clawhub.ai/aeoess/agent-passport-system", "iconUrl": null, "installs": 14, "name": "Agent Passport System", "ownerName": "aeoess", "score": 90185.67639257295, "slug": "agent-passport-system", "source": "clawhub", "stars": 0, "tags": null, "updated_at": 1776748572312, "version": "2.1.0"}, {"category": "developer-tools", "created_at": 1773057708113, "description": "Autonomous n8n workflow automation agent — create, debug, monitor & optimize n8n workflows via natural language using the REST API. Supports AI/LangChain pip...", "description_zh": "", "downloads": 340, "homepage": "https://clawhub.ai/samansalari/n8n-ops", "iconUrl": null, "installs": 6, "name": "n8n ops", "ownerName": "samansalari", "score": 93663.91184573004, "slug": "n8n-ops", "source": "clawhub", "stars": 0, "tags": null, "updated_at": 1776748572281, "version": "1.0.1"}, {"category": "security-compliance", "created_at": 1772793915309, "description": "Connect to social media and content platform APIs by navigating developer portals, creating apps, obtaining OAuth tokens, and storing credentials. Covers Fac...", "description_zh": "", "downloads": 340, "homepage": "https://clawhub.ai/brandonwadepackard-cell/platform-api-connector", "iconUrl": null, "installs": 12, "name": "Platform API Connector", "ownerName": "brandonwadepackard-cell", "score": 93663.91184573004, "slug": "platform-api-connector", "source": "clawhub", "stars": 0, "tags": null, "updated_at": 1776748572239, "version": "1.0.0"}, {"category": "ai-intelligence", "created_at": 1772791767911, "description": "Public review registry for OpenClaw skills. Agents can publish versioned reviews and read community feedback.", "description_zh": "", "downloads": 340, "homepage": "https://clawhub.ai/sebbysoup/skill-review-registry", "iconUrl": null, "installs": 15, "name": "Skill Review Registry", "ownerName": "sebbysoup", "score": 93663.91184573004, "slug": "skill-review-registry", "source": "clawhub", "stars": 0, "tags": null, "updated_at": 1776748572199, "version": "1.0.0"}, {"category": "developer-tools", "created_at": 1772794744508, "description": "Local speech-to-text with the Whisper CLI (no API key).", "description_zh": "", "downloads": 340, "homepage": "https://clawhub.ai/mohdalhashemi98-hue/mh-openai-whisper", "iconUrl": null, "installs": 23, "name": "MH openai-whisper", "ownerName": "mohdalhashemi98-hue", "score": 84788.02992518703, "slug": "mh-openai-whisper", "source": "clawhub", "stars": 0, "tags": null, "updated_at": 1776748572190, "version": "1.0.0"}, {"category": "developer-tools", "created_at": 1772791598327, "description": "Control your Fellow Aiden smart coffee brewer via AI assistant. Manage brew profiles, view brewer status, create and tweak recipes, add shared brew links, an...", "description_zh": "", "downloads": 340, "homepage": "https://clawhub.ai/mogglemoss/fellow-aiden", "iconUrl": null, "installs": 8, "name": "Fellow Aiden Precision Coffee Maker", "ownerName": "mogglemoss", "score": 84788.02992518703, "slug": "fellow-aiden", "source": "clawhub", "stars": 0, "tags": null, "updated_at": 1776748572183, "version": "1.0.1"}, {"category": "content-creation", "created_at": 1773076130464, "description": "Generate images from text with a free-quota-first multi-provider workflow. Use this skill when a user asks for text-to-image generation that needs provider r...", "description_zh": "", "downloads": 340, "homepage": "https://clawhub.ai/chiayengu/free-quota-image-skill", "iconUrl": null, "installs": 33, "name": "free quota text to image", "ownerName": "chiayengu", "score": 84788.02992518703, "slug": "free-quota-image-skill", "source": "clawhub", "stars": 0, "tags": null, "updated_at": 1776748572159, "version": "1.0.0"}, {"category": "communication-collaboration", "created_at": 1773080092755, "description": "Search Feishu contacts by name/pinyin/department. Use when you need to find a person's open_id, email, or department info before sending messages or emails.", "description_zh": "", "downloads": 340, "homepage": "https://clawhub.ai/guyun94/feishu-contacts", "iconUrl": null, "installs": 21, "name": "Feishu Contacts", "ownerName": "guyun94", "score": 84788.02992518703, "slug": "feishu-contacts", "source": "clawhub", "stars": 0, "tags": null, "updated_at": 1776748572147, "version": "1.2.0"}, {"category": "developer-tools", "created_at": 1772791628812, "description": "Query traffic data - real-time road conditions, traffic incidents, SCATS intersection data", "description_zh": "", "downloads": 340, "homepage": "https://clawhub.ai/teweitao/traffic-data", "iconUrl": null, "installs": 6, "name": "Traffic-Data", "ownerName": "teweitao", "score": 84788.02992518703, "slug": "traffic-data", "source": "clawhub", "stars": 0, "tags": ["traffic"], "updated_at": 1776748572123, "version": "1.0.0"}, {"category": "communication-collaboration", "created_at": 1772794388273, "description": "Peer-to-peer task payroll marketplace on Base L2. Clients create USDC-funded gigs, distribute tasks to gigworkers via email/webhook mailboxes, review proofs...", "description_zh": "", "downloads": 340, "homepage": "https://clawhub.ai/mevdragon/dollar-platoon", "iconUrl": null, "installs": 16, "name": "Dollar Platoon | On-Demand Gigworkers", "ownerName": "mevdragon", "score": 93663.91184573004, "slug": "dollar-platoon", "source": "clawhub", "stars": 0, "tags": null, "updated_at": 1776748572111, "version": "1.0.0"}, {"category": "productivity", "created_at": 1772792239094, "description": "Search, browse, and rediscover your Kindle highlights", "description_zh": "", "downloads": 340, "homepage": "https://clawhub.ai/gofordylan/hi-lite", "iconUrl": null, "installs": 5, "name": "Hi Lite", "ownerName": "gofordylan", "score": 93663.91184573004, "slug": "hi-lite", "source": "clawhub", "stars": 0, "tags": null, "updated_at": 1776748572029, "version": "1.0.0"}, {"category": "security-compliance", "created_at": 1773069349687, "description": "When the user wants to set up, improve, or audit analytics tracking and measurement. Also use when the user mentions \"set up tracking,\" \"GA4,\" \"Google Analyt...", "description_zh": "", "downloads": 340, "homepage": "https://clawhub.ai/mrhuang09/analytics-tracking-2", "iconUrl": null, "installs": 15, "name": "Analytics Tracking", "ownerName": "mrhuang09", "score": 93663.91184573004, "slug": "analytics-tracking-2", "source": "clawhub", "stars": 0, "tags": null, "updated_at": 1776748572006, "version": "0.1.0"}, {"category": "data-analysis", "created_at": 1773073603987, "description": "Multi-chain cryptocurrency wallet management. Check balances, send tokens, view transaction history across Ethereum, Solana, Bitcoin and more.", "description_zh": "", "downloads": 340, "homepage": "https://clawhub.ai/nvmmonkey/crypto-wallet", "iconUrl": null, "installs": 15, "name": "Crypto Wallet", "ownerName": "nvmmonkey", "score": 59859.15492957746, "slug": "crypto-wallet", "source": "clawhub", "stars": 0, "tags": null, "updated_at": 1776748571950, "version": "1.0.0"}, {"category": "productivity", "created_at": 1773283167836, "description": "Learn me: Lets OpenClaw proactively learn more about you through natural conversation.", "description_zh": "", "downloads": 339, "homepage": "https://clawhub.ai/yevhendiachenko0/learn-me", "iconUrl": null, "installs": 7, "name": "Learn me", "ownerName": "yevhendiachenko0", "score": 98898.07162534435, "slug": "learn-me", "source": "clawhub", "stars": 1, "tags": null, "updated_at": 1776748572061, "version": "0.5.2"}, {"category": "productivity", "created_at": 1773067064977, "description": "Professional quantitative trading system for cryptocurrency - backtesting, paper trading, live trading, and strategy optimization", "description_zh": "", "downloads": 339, "homepage": "https://clawhub.ai/zhenstaff/quant-trader", "iconUrl": null, "installs": 82, "name": "Quant Trader", "ownerName": "zhenstaff", "score": 1210.0228440890921, "slug": "quant-trader", "source": "clawhub", "stars": 0, "tags": null, "updated_at": 1776770171301, "version": "1.0.0"}, {"category": "ai-intelligence", "created_at": 1773068692479, "description": "AI-powered game asset generation guide covering 2D sprites, tilemaps, UI elements, audio, music, and 3D models. Use when generating game assets with AI tools...", "description_zh": "", "downloads": 339, "homepage": "https://clawhub.ai/thb32133451/ai-asset-gen", "iconUrl": null, "installs": 67, "name": "AI Game Asset Generation", "ownerName": "thb32133451", "score": 12639.821029082774, "slug": "ai-asset-gen", "source": "clawhub", "stars": 0, "tags": null, "updated_at": 1776762140074, "version": "1.0.0"}, {"category": "data-analysis", "created_at": 1773284395869, "description": "Build a local SQLite ride-history database from Gmail ride receipt emails using gog for fetch and OpenClaw Gateway /v1/responses for extraction. Use when you...", "description_zh": "", "downloads": 339, "homepage": "https://clawhub.ai/tuleyko/ride-receipts-llm", "iconUrl": null, "installs": 9, "name": "Ride Receipts", "ownerName": "tuleyko", "score": 25204.460966542752, "slug": "ride-receipts-llm", "source": "clawhub", "stars": 0, "tags": null, "updated_at": 1776759198331, "version": "0.1.12"}, {"category": "data-analysis", "created_at": 1772796746723, "description": "Multi-timeframe crypto scanner analyzing market structure using Ichimoku Cloud, Bollinger Bands, MACD, and RSI without trade advice or unrelated concepts.", "description_zh": "", "downloads": 339, "homepage": "https://clawhub.ai/bigedsherer-ctrl/market-structure-scan", "iconUrl": null, "installs": 19, "name": "Market Structure Scan", "ownerName": "bigedsherer-ctrl", "score": 25204.460966542752, "slug": "market-structure-scan", "source": "clawhub", "stars": 0, "tags": null, "updated_at": 1776759198142, "version": "1.0.1"}, {"category": "productivity", "created_at": 1773207137646, "description": "Professional editing assistant. Trigger whenever the user wants to improve existing writing: fixing grammar, improving clarity, tightening structure, adjusti...", "description_zh": "", "downloads": 339, "homepage": "https://clawhub.ai/ethagent/edit", "iconUrl": null, "installs": 11, "name": "Edit", "ownerName": "ethagent", "score": 25204.460966542752, "slug": "edit", "source": "clawhub", "stars": 0, "tags": ["clarity", "edit", "grammar", "proofreading", "writing"], "updated_at": 1776759198114, "version": "1.0.0"}, {"category": "developer-tools", "created_at": 1772797335101, "description": "Connect directly to any API using its OpenAPI spec with local API key storage, ensuring private, middleware-free requests from your machine.", "description_zh": "", "downloads": 339, "homepage": "https://clawhub.ai/numbpill3d/freeapi", "iconUrl": null, "installs": 4, "name": "Freeapi", "ownerName": "numbpill3d", "score": 61413.043478260865, "slug": "freeapi", "source": "clawhub", "stars": 0, "tags": null, "updated_at": 1776759197776, "version": "1.0.0"}, {"category": "ai-intelligence", "created_at": 1772798228143, "description": "Track AI agents' daily finances, classify survival status, estimate service value, and recommend work or learn tasks based on economic runway.", "description_zh": "", "downloads": 339, "homepage": "https://clawhub.ai/dagangtj/ai-economic-tracker", "iconUrl": null, "installs": 20, "name": "AI Economic Tracker", "ownerName": "dagangtj", "score": 25185.735512630014, "slug": "ai-economic-tracker", "source": "clawhub", "stars": 0, "tags": ["economics", "finance", "roi", "tracking"], "updated_at": 1776759197727, "version": "1.0.1"}, {"category": "ai-intelligence", "created_at": 1773431464637, "description": "A fast headless browser automation CLI that enables AI agents to navigate, click, type, and snapshot pages. And also 50+ models for image generation, video g...", "description_zh": "", "downloads": 339, "homepage": "https://clawhub.ai/quincygunter/agent-browsers", "iconUrl": null, "installs": 163, "name": "Pub Agent Browser", "ownerName": "quincygunter", "score": 58147.512864494, "slug": "agent-browsers", "source": "clawhub", "stars": 0, "tags": null, "updated_at": 1776754427227, "version": "1.0.0"}, {"category": "productivity", "created_at": 1773078925110, "description": "Jetlag recovery optimization - score flights, generate recovery plans, optimize travel timing", "description_zh": "", "downloads": 339, "homepage": "https://clawhub.ai/kurosh87/aerobase-jetlag", "iconUrl": null, "installs": 6, "name": "Aerobase Jetlag", "ownerName": "kurosh87", "score": 93388.42975206612, "slug": "aerobase-jetlag", "source": "clawhub", "stars": 0, "tags": null, "updated_at": 1776748572222, "version": "3.2.0"}, {"category": "security-compliance", "created_at": 1772793534198, "description": "Use Beecli to interact with the Beetrade platform for authentication, market data, bot/strategy operations, alerts, accounts, and portfolio workflows. Use th...", "description_zh": "", "downloads": 339, "homepage": "https://clawhub.ai/htranbee/beetrade", "iconUrl": null, "installs": 5, "name": "Beetrade", "ownerName": "htranbee", "score": 93388.42975206612, "slug": "beetrade", "source": "clawhub", "stars": 0, "tags": null, "updated_at": 1776748572089, "version": "0.1.4"}, {"category": "developer-tools", "created_at": 1772805200322, "description": "Curated skill bundle for medical device companies, digital health startups and pharma R&D teams. Activates the firm pyramid with RA (Regulatory Affairs), Cli...", "description_zh": "", "downloads": 339, "homepage": "https://clawhub.ai/romainsantoli-web/firm-medtech-pack", "iconUrl": null, "installs": 46, "name": "Firm Medtech Pack", "ownerName": "romainsantoli-web", "score": 93388.42975206612, "slug": "firm-medtech-pack", "source": "clawhub", "stars": 0, "tags": null, "updated_at": 1776748572049, "version": "1.0.0"}, {"category": "productivity", "created_at": 1772791544397, "description": "Use when you need to work with tasks: view tasks, list tasks, update task status, add blockers, artifacts, and worklogs.", "description_zh": "", "downloads": 339, "homepage": "https://clawhub.ai/jatin-31/og-board-individual", "iconUrl": null, "installs": 9, "name": "Og Board Individual", "ownerName": "jatin-31", "score": 93388.42975206612, "slug": "og-board-individual", "source": "clawhub", "stars": 0, "tags": null, "updated_at": 1776748572034, "version": "1.0.0"}, {"category": "data-analysis", "created_at": 1772795346086, "description": "Use when an agent or developer wants to reduce Claude API costs, route requests through a Claude Max or Pro subscription instead of per-token billing, or set...", "description_zh": "", "downloads": 339, "homepage": "https://clawhub.ai/error403agent/claude-max-proxy-setup", "iconUrl": null, "installs": 12, "name": "Claude Max Proxy Setup", "ownerName": "error403agent", "score": 59683.0985915493, "slug": "claude-max-proxy-setup", "source": "clawhub", "stars": 0, "tags": ["claude", "cost-savings", "infrastructure", "proxy"], "updated_at": 1776748571944, "version": "1.1.0"}, {"category": "ai-intelligence", "created_at": 1773416231554, "description": "Benchmark and compare agent prompts and evaluation results. Use when tuning strategies, evaluating outputs, or comparing configurations.", "description_zh": "", "downloads": 339, "homepage": "https://clawhub.ai/xueyetianya/agent-learner", "iconUrl": null, "installs": 9, "name": "Agent Learner", "ownerName": "xueyetianya", "score": 59683.0985915493, "slug": "agent-learner", "source": "clawhub", "stars": 0, "tags": ["chinese", "productivity"], "updated_at": 1776748571941, "version": "2.0.2"}, {"category": "data-analysis", "created_at": 1772793523514, "description": "The philosophy of absurdist play — the meta-skill that trains your ability to acquire and use all other skills. Creates genuine connection through creative,...", "description_zh": "", "downloads": 338, "homepage": "https://clawhub.ai/nyxur42/absurdist-play", "iconUrl": null, "installs": 14, "name": "Absurdist Play", "ownerName": "nyxur42", "score": 2791.0817506193225, "slug": "absurdist-play", "source": "clawhub", "stars": 0, "tags": null, "updated_at": 1776770049990, "version": "1.1.1"}, {"category": "content-creation", "created_at": 1772794987122, "description": "A precision utility to generate QR code images from URLs or text using Python.", "description_zh": "", "downloads": 338, "homepage": "https://clawhub.ai/mrahil123/qr-code-generator-skill", "iconUrl": null, "installs": 21, "name": "QR Code Generator", "ownerName": "mrahil123", "score": 4501.864677677144, "slug": "qr-code-generator-skill", "source": "clawhub", "stars": 0, "tags": null, "updated_at": 1776769271150, "version": "1.0.0"}, {"category": "developer-tools", "created_at": 1772798898269, "description": "Delegate coding tasks to Claude Code CLI via background process. Use when: building features, reviewing PRs, refactoring codebases, or iterative coding that...", "description_zh": "", "downloads": 338, "homepage": "https://clawhub.ai/atelypham/claude-code-cli", "iconUrl": null, "installs": 12, "name": "claude-code-cli", "ownerName": "atelypham", "score": 6814.5161290322585, "slug": "claude-code-cli", "source": "clawhub", "stars": 0, "tags": null, "updated_at": 1776767649762, "version": "0.2.0"}, {"category": "developer-tools", "created_at": 1772797457488, "description": "On-chain Rock-Paper-Scissors on Base Mainnet with real USDC. Commit-reveal mechanism, 80/20 anti-bankruptcy payout, zero rake. Use when an agent wants to pla...", "description_zh": "", "downloads": 338, "homepage": "https://clawhub.ai/lemodigital/agent-casino", "iconUrl": null, "installs": 7, "name": "Agent Casino", "ownerName": "lemodigital", "score": 16866.267465069857, "slug": "agent-casino", "source": "clawhub", "stars": 0, "tags": null, "updated_at": 1776764669819, "version": "2.0.1"}, {"category": "data-analysis", "created_at": 1773857225556, "description": "Generate professional Amazon market research reports using a complete 18-step product development framework. Output is optimized for direct Feishu display wi...", "description_zh": "", "downloads": 338, "homepage": "https://clawhub.ai/lenger666/amazon-market-research", "iconUrl": null, "installs": 102, "name": "Amazon Market Research", "ownerName": "lenger666", "score": 13773.431132844335, "slug": "amazon-market-research", "source": "clawhub", "stars": 0, "tags": ["amazon", "amazon product-research market-analysis cross-border", "analysis", "ecommerce", "market-research"], "updated_at": 1776763450475, "version": "1.0.5"}, {"category": "developer-tools", "created_at": 1773088875385, "description": "Complete toolkit for building AI agents. Includes agent-builder, agent-browser, agent-wallet, agent-development, and agent-docs. Build, automate, and monetiz...", "description_zh": "", "downloads": 338, "homepage": "https://clawhub.ai/tobem0706/agent-dev-toolkit", "iconUrl": null, "installs": 80, "name": "Agent Dev Toolkit", "ownerName": "tobem0706", "score": 18329.718004338392, "slug": "agent-dev-toolkit", "source": "clawhub", "stars": 0, "tags": null, "updated_at": 1776754688427, "version": "1.0.0"}, {"category": "developer-tools", "created_at": 1772791637042, "description": "Calculate ROI for AI-as-a-Service (managed AI agents). Estimates cost savings, efficiency gains, and payback period for deploying AI agents across business o...", "description_zh": "", "downloads": 338, "homepage": "https://clawhub.ai/1kalin/aaas-roi-calculator", "iconUrl": null, "installs": 13, "name": "AI-as-a-Service ROI Calculator", "ownerName": "1kalin", "score": 89655.1724137931, "slug": "aaas-roi-calculator", "source": "clawhub", "stars": 0, "tags": null, "updated_at": 1776748572291, "version": "1.0.0"}, {"category": "developer-tools", "created_at": 1772792393075, "description": "Deploy and serve LLM models on GPU. Compare GPU pricing. Launch vLLM on Modal, RunPod, Cerebrium, Cloud Run, Baseten, or Azure with spot instance fallback. O...", "description_zh": "", "downloads": 338, "homepage": "https://clawhub.ai/choprahetarth/tandemn-tuna", "iconUrl": null, "installs": 6, "name": "Tandemn Tuna Skill", "ownerName": "choprahetarth", "score": 93112.9476584022, "slug": "tandemn-tuna", "source": "clawhub", "stars": 0, "tags": null, "updated_at": 1776748572229, "version": "0.0.1"}, {"category": "content-creation", "created_at": 1772794780883, "description": "Generate images using AI providers (OpenAI gpt-image-1, Google Gemini, fal.ai). Use when the user asks to create, generate, or make an image, picture, illust...", "description_zh": "", "downloads": 338, "homepage": "https://clawhub.ai/lumenclaw-cloud/filtrix-ai-image-gen", "iconUrl": null, "installs": 26, "name": "Filtrix AI Image Generation", "ownerName": "lumenclaw-cloud", "score": 93112.9476584022, "slug": "filtrix-ai-image-gen", "source": "clawhub", "stars": 0, "tags": null, "updated_at": 1776748572108, "version": "1.0.0"}]}