{"page": 231, "total_pages": 522, "total": 26073, "skills": [{"category": "communication-collaboration", "created_at": 1772794785953, "description": "Join a shared 3D lobster room where AI agents walk, chat, and collaborate in real-time.", "description_zh": "", "downloads": 338, "homepage": "https://clawhub.ai/e-ndorfin/lelamp-room", "iconUrl": null, "installs": 16, "name": "Lelamp Room", "ownerName": "e-ndorfin", "score": 93112.9476584022, "slug": "lelamp-room", "source": "clawhub", "stars": 0, "tags": null, "updated_at": 1776748572106, "version": "0.4.1"}, {"category": "data-analysis", "created_at": 1772792513044, "description": "Content strategy engine that plans, creates, and schedules content across platforms. Analyzes audience, generates topic ideas, writes drafts, builds editoria...", "description_zh": "", "downloads": 338, "homepage": "https://clawhub.ai/ryudi84/sovereign-content-machine", "iconUrl": null, "installs": 9, "name": "Sovereign Content Machine", "ownerName": "ryudi84", "score": 59507.042253521126, "slug": "sovereign-content-machine", "source": "clawhub", "stars": 0, "tags": null, "updated_at": 1776748571979, "version": "1.0.0"}, {"category": "productivity", "created_at": 1772790788634, "description": "Browse culture articles and generate personalized HTML newsletters via MCP", "description_zh": "", "downloads": 338, "homepage": "https://clawhub.ai/wn-fo/finally-offline", "iconUrl": null, "installs": 5, "name": "Finally Offline Culture MCP", "ownerName": "wn-fo", "score": 59507.042253521126, "slug": "finally-offline", "source": "clawhub", "stars": 0, "tags": null, "updated_at": 1776748571935, "version": "1.0.0"}, {"category": "data-analysis", "created_at": 1772793220282, "description": "Polymarket prediction markets: analytics, trading, hot markets, price movements, top traders, and market search. Powered by prob.trade.", "description_zh": "", "downloads": 337, "homepage": "https://clawhub.ai/vlprosvirkin/prob-trade-polymarket-analytics", "iconUrl": null, "installs": 6, "name": "Openclaw Skill", "ownerName": "vlprosvirkin", "score": 7653.749759012916, "slug": "prob-trade-polymarket-analytics", "source": "clawhub", "stars": 3, "tags": null, "updated_at": 1776763190527, "version": "2.0.5"}, {"category": "developer-tools", "created_at": 1772792401981, "description": "Connect to Microsoft Learn MCP Server to search Microsoft documentation, fetch specific doc pages, and find code samples. Use when you need to query Microsof...", "description_zh": "", "downloads": 337, "homepage": "https://clawhub.ai/ricardodpalmeida/mslearn-mcp", "iconUrl": null, "installs": 13, "name": "Microsoft Learn MCP", "ownerName": "ricardodpalmeida", "score": 100000, "slug": "mslearn-mcp", "source": "clawhub", "stars": 2, "tags": null, "updated_at": 1776748572309, "version": "1.0.0"}, {"category": "productivity", "created_at": 1772793723146, "description": "Organize files and projects using the PARA method (Projects, Areas, Resources, Archives).", "description_zh": "", "downloads": 337, "homepage": "https://clawhub.ai/alitekin1/openclaw-para-skill", "iconUrl": null, "installs": 9, "name": "PARA", "ownerName": "alitekin1", "score": 94014.9625935162, "slug": "openclaw-para-skill", "source": "clawhub", "stars": 2, "tags": null, "updated_at": 1776748572166, "version": "0.1.0"}, {"category": "developer-tools", "created_at": 1773416221822, "description": "Windows automation via Clawdos API: screen capture, mouse/keyboard input, window management, file-system operations, and shell command execution. Use when th...", "description_zh": "", "downloads": 337, "homepage": "https://clawhub.ai/danzig233/clawdos", "iconUrl": null, "installs": 47, "name": "Windows Execution Interface", "ownerName": "danzig233", "score": 24688.796680497926, "slug": "clawdos", "source": "clawhub", "stars": 1, "tags": ["automation", "windows"], "updated_at": 1776758482903, "version": "1.0.1"}, {"category": "ai-intelligence", "created_at": 1773423593621, "description": "Scan TRON tokens for total supply, market cap, price, rating, launch time, holders. Includes TRX: TRX price, TRX supply, market cap, daily net change, and su...", "description_zh": "", "downloads": 337, "homepage": "https://clawhub.ai/sshnii/tronscan-token-scanner", "iconUrl": null, "installs": 18, "name": "TronScan Token Scanner", "ownerName": "sshnii", "score": 98347.10743801654, "slug": "tronscan-token-scanner", "source": "clawhub", "stars": 1, "tags": ["due diligence", "holders", "market cap", "nft", "price", "supply", "token", "trc10", "trc20", "tron", "trx"], "updated_at": 1776748572254, "version": "1.0.8"}, {"category": "developer-tools", "created_at": 1773083130764, "description": "Doctor-grade clinical assistant for evidence-based guideline lookup, complex case discussion, teaching materials, and research outputs tailored to clinician...", "description_zh": "", "downloads": 337, "homepage": "https://clawhub.ai/erinyu/openclaw-for-doctor", "iconUrl": null, "installs": 79, "name": "OpenClaw for Doctor", "ownerName": "erinyu", "score": 11301.14017437961, "slug": "openclaw-for-doctor", "source": "clawhub", "stars": 0, "tags": null, "updated_at": 1776769149985, "version": "1.0.0"}, {"category": "developer-tools", "created_at": 1773075927290, "description": "Optimize Shopify-specific paid growth workflows for Meta (Facebook/Instagram), Google Ads, TikTok Ads, and YouTube Ads with Shopify event integrity, ROAS dia...", "description_zh": "", "downloads": 337, "homepage": "https://clawhub.ai/danyangliu-sandwichlab/shopify-ads-helper", "iconUrl": null, "installs": 30, "name": "Shopify Ads Helper", "ownerName": "danyangliu-sandwichlab", "score": 7808.155699721965, "slug": "shopify-ads-helper", "source": "clawhub", "stars": 0, "tags": null, "updated_at": 1776765249930, "version": "1.0.0"}, {"category": "ai-intelligence", "created_at": 1772796934978, "description": "Strategies for productive agent idle time using heartbeats and cron jobs. Use when setting up proactive behaviors, scheduling background tasks, or making you...", "description_zh": "", "downloads": 337, "homepage": "https://clawhub.ai/jpaulgrayson/agent-dreams", "iconUrl": null, "installs": 21, "name": "Agent Dreams", "ownerName": "jpaulgrayson", "score": 93871.86629526463, "slug": "agent-dreams", "source": "clawhub", "stars": 0, "tags": null, "updated_at": 1776759198229, "version": "1.0.0"}, {"category": "communication-collaboration", "created_at": 1772795497070, "description": "Extract and structure publicly available B2B contact data from professional directories and listings for targeted sales prospecting and CRM enrichment.", "description_zh": "", "downloads": 337, "homepage": "https://clawhub.ai/g4dr/b2b-lead-generation", "iconUrl": null, "installs": 23, "name": "B2B Lead Generation & Contact Extractor", "ownerName": "g4dr", "score": 25018.559762435038, "slug": "b2b-lead-generation", "source": "clawhub", "stars": 0, "tags": null, "updated_at": 1776759198076, "version": "1.0.0"}, {"category": "ai-intelligence", "created_at": 1772795245233, "description": "Securely synchronize and transfer resources between verified autonomous agents using cryptographically tethered identities and replay-protected requests.", "description_zh": "", "downloads": 337, "homepage": "https://clawhub.ai/balkanblbn/moltpay", "iconUrl": null, "installs": 18, "name": "MoltPay Core", "ownerName": "balkanblbn", "score": 25018.559762435038, "slug": "moltpay", "source": "clawhub", "stars": 0, "tags": null, "updated_at": 1776759197991, "version": "1.0.1"}, {"category": "security-compliance", "created_at": 1773080903297, "description": "Automates Feishu integration with minimal manual input by handling authentication, messaging, events, APIs, error recovery, and fallback solutions.", "description_zh": "", "downloads": 337, "homepage": "https://clawhub.ai/wangzhi8145/feishuskills", "iconUrl": null, "installs": 98, "name": "openclaw自动化配置飞书，几乎不要人手动干预，测试成功", "ownerName": "wangzhi8145", "score": 25055.76208178439, "slug": "feishuskills", "source": "clawhub", "stars": 0, "tags": null, "updated_at": 1776759197856, "version": "1.0.0"}, {"category": "content-creation", "created_at": 1772802784431, "description": "Parse PDFs, Word docs, PPTs, and images into clean Markdown using MinerU's VLM engine. Use when: (1) Converting PDF/Word/PPT/image to Markdown, (2) Extractin...", "description_zh": "", "downloads": 337, "homepage": "https://clawhub.ai/tsekaluk/mineru-skill", "iconUrl": null, "installs": 24, "name": "MinerU PDF Parser", "ownerName": "tsekaluk", "score": 19776.99530516432, "slug": "mineru-skill", "source": "clawhub", "stars": 0, "tags": null, "updated_at": 1776755888642, "version": "2.1.0"}, {"category": "developer-tools", "created_at": 1773084123306, "description": "A specialized assistant for e-commerce merchants and Shopify store owners to scale Q4 and holiday campaigns (BFCM, Valentine's, Christmas, Mother's Day). ALW...", "description_zh": "", "downloads": 337, "homepage": "https://clawhub.ai/rijoyai/holiday-fomo-marketing", "iconUrl": null, "installs": 34, "name": "Holiday Fomo Marketing", "ownerName": "rijoyai", "score": 62523.191094619666, "slug": "holiday-fomo-marketing", "source": "clawhub", "stars": 0, "tags": null, "updated_at": 1776754988162, "version": "0.1.1"}, {"category": "developer-tools", "created_at": 1772803760686, "description": "Plan and manage parcel shipping decisions with carrier selection, landed-cost math, customs checks, and delivery exception playbooks.", "description_zh": "", "downloads": 337, "homepage": "https://clawhub.ai/ivangdavila/shipping", "iconUrl": null, "installs": 16, "name": "Shipping Operations", "ownerName": "ivangdavila", "score": 62873.1343283582, "slug": "shipping", "source": "clawhub", "stars": 0, "tags": null, "updated_at": 1776754388742, "version": "1.0.0"}, {"category": "developer-tools", "created_at": 1773426382393, "description": "Local-first planning engine for trips, weeks, launches, projects, schedules, and structured decision-making. Use whenever the user wants to plan something, o...", "description_zh": "", "downloads": 337, "homepage": "https://clawhub.ai/agistack/planner", "iconUrl": null, "installs": 14, "name": "Planner", "ownerName": "agistack", "score": 17643.979057591623, "slug": "planner", "source": "clawhub", "stars": 0, "tags": null, "updated_at": 1776754015994, "version": "1.0.0"}, {"category": "developer-tools", "created_at": 1772794060071, "description": "Set up and use 1Password CLI (op). Use when installing the CLI, enabling desktop app integration, signing in (single or multi-account), or reading/injecting/...", "description_zh": "", "downloads": 337, "homepage": "https://clawhub.ai/mohdalhashemi98-hue/mh-1password", "iconUrl": null, "installs": 25, "name": "MH 1password", "ownerName": "mohdalhashemi98-hue", "score": 89389.92042440319, "slug": "mh-1password", "source": "clawhub", "stars": 0, "tags": null, "updated_at": 1776748572311, "version": "1.0.0"}, {"category": "data-analysis", "created_at": 1772795466337, "description": "Pre-flight cost estimation for subagent spawns and approval gates. Prevents API overspend and surprise billing. Budget control for sessions_spawn calls. Dail...", "description_zh": "", "downloads": 337, "homepage": "https://clawhub.ai/donovanpankratz-del/openclaw-cost-governor", "iconUrl": null, "installs": 9, "name": "Cost Governor - Subagent Budget Control", "ownerName": "donovanpankratz-del", "score": 84039.90024937656, "slug": "openclaw-cost-governor", "source": "clawhub", "stars": 0, "tags": null, "updated_at": 1776748572181, "version": "1.0.0"}, {"category": "ai-intelligence", "created_at": 1772792270457, "description": "Helps identify when multiple attestation validators share training data, model architecture, or organizational upstream — causing correlated blind spots that...", "description_zh": "", "downloads": 337, "homepage": "https://clawhub.ai/andyxinweiminicloud/validator-correlated-judgment", "iconUrl": null, "installs": 15, "name": "Validator Correlated Judgment", "ownerName": "andyxinweiminicloud", "score": 84039.90024937656, "slug": "validator-correlated-judgment", "source": "clawhub", "stars": 0, "tags": null, "updated_at": 1776748572156, "version": "1.1.0"}, {"category": "ai-intelligence", "created_at": 1772790940953, "description": "OpenClaw continuity kernel for fail-open llm_input injection, deterministic runtime contracts, and shadow-mode eval receipts.", "description_zh": "", "downloads": 337, "homepage": "https://clawhub.ai/tkuehnl/continuity-kernel", "iconUrl": null, "installs": 13, "name": "continuity-kernel", "ownerName": "tkuehnl", "score": 92837.4655647383, "slug": "continuity-kernel", "source": "clawhub", "stars": 0, "tags": null, "updated_at": 1776748572092, "version": "0.2.0"}, {"category": "productivity", "created_at": 1773952595358, "description": "Nextcloud integration. Manage Users, Groups, Files, Folders, Calendars, Contacts and more. Use when the user wants to interact with Nextcloud data.", "description_zh": "", "downloads": 337, "homepage": "https://clawhub.ai/membranedev/nextcloud-integration", "iconUrl": null, "installs": 9, "name": "Nextcloud", "ownerName": "membranedev", "score": 92837.4655647383, "slug": "nextcloud-integration", "source": "clawhub", "stars": 0, "tags": null, "updated_at": 1776748572091, "version": "1.0.0"}, {"category": "developer-tools", "created_at": 1773090909040, "description": "Export a Google Sheets spreadsheet as a CSV file for local backup or processing.", "description_zh": "", "downloads": 337, "homepage": "https://clawhub.ai/googleworkspace-bot/recipe-backup-sheet-as-csv", "iconUrl": null, "installs": 17, "name": "Recipe Backup Sheet As Csv", "ownerName": "googleworkspace-bot", "score": 92837.4655647383, "slug": "recipe-backup-sheet-as-csv", "source": "clawhub", "stars": 0, "tags": null, "updated_at": 1776748571995, "version": "1.0.11"}, {"category": "data-analysis", "created_at": 1772794778614, "description": "Access the Alternative.me Crypto Fear & Greed Index. Use this tool to anchor your baseline market sentiment analysis, determining whether the broader retail...", "description_zh": "", "downloads": 337, "homepage": "https://clawhub.ai/arielcaba-dev/fear-and-greed-index", "iconUrl": null, "installs": 9, "name": "Fear and Greed Index", "ownerName": "arielcaba-dev", "score": 59330.985915492965, "slug": "fear-and-greed-index", "source": "clawhub", "stars": 0, "tags": null, "updated_at": 1776748571975, "version": "1.0.0"}, {"category": "productivity", "created_at": 1773080826284, "description": "Credit cards, loyalty balances, transfer partners, and transfer bonuses. Calculates CPP.", "description_zh": "", "downloads": 337, "homepage": "https://clawhub.ai/kurosh87/aerobase-travel-wallet", "iconUrl": null, "installs": 7, "name": "Aerobase Travel Wallet", "ownerName": "kurosh87", "score": 59330.985915492965, "slug": "aerobase-travel-wallet", "source": "clawhub", "stars": 0, "tags": null, "updated_at": 1776748571961, "version": "3.2.0"}, {"category": "communication-collaboration", "created_at": 1772796380477, "description": "Send, compose, reply, reply-all, or forward emails with HTML formatting and attachments. Do NOT use for reading incoming email (use ravi-inbox) or for creden...", "description_zh": "", "downloads": 337, "homepage": "https://clawhub.ai/raunaksingwi/ravi-email-send", "iconUrl": null, "installs": 10, "name": "Ravi email-send", "ownerName": "raunaksingwi", "score": 59330.985915492965, "slug": "ravi-email-send", "source": "clawhub", "stars": 0, "tags": null, "updated_at": 1776748571943, "version": "1.7.1"}, {"category": "data-analysis", "created_at": 1772798120503, "description": "A professional recruitment workflow assistant. Evaluates resumes against dynamic requirements and AI proficiency, provides critical Pros/Cons analysis, and p...", "description_zh": "", "downloads": 337, "homepage": "https://clawhub.ai/gakkiismywife/recruiter-assistant-sz", "iconUrl": null, "installs": 23, "name": "Recruiter Assistant (Shenzhen)", "ownerName": "gakkiismywife", "score": 59330.985915492965, "slug": "recruiter-assistant-sz", "source": "clawhub", "stars": 0, "tags": null, "updated_at": 1776748571939, "version": "1.0.0"}, {"category": "data-analysis", "created_at": 1772796631915, "description": "Self-improving code reviewer that learns your codebase over time. Analyzes git history, spots patterns, identifies risk — and gets smarter every run.", "description_zh": "", "downloads": 336, "homepage": "https://clawhub.ai/8co/review-evo", "iconUrl": null, "installs": 31, "name": "ReviewEvo", "ownerName": "8co", "score": 24383.561643835616, "slug": "review-evo", "source": "clawhub", "stars": 1, "tags": ["code-review", "devtools", "git-analysis", "self-improving"], "updated_at": 1776758482278, "version": "0.1.1"}, {"category": "ai-intelligence", "created_at": 1773889576333, "description": "Structured retrospectives and execution-memory hygiene for OpenClaw agents. Use when the user wants a retrospective, lessons learned, self-improvement system...", "description_zh": "", "downloads": 336, "homepage": "https://clawhub.ai/sebclawops/retrospective-agent", "iconUrl": null, "installs": 16, "name": "Retrospective Agent", "ownerName": "sebclawops", "score": 61063.46483704974, "slug": "retrospective-agent", "source": "clawhub", "stars": 1, "tags": null, "updated_at": 1776754388850, "version": "1.0.0"}, {"category": "developer-tools", "created_at": 1773949226008, "description": "This skill should be used when users ask about weather forecasts, temperature information, or need to retrieve weather data for specific locations. It provid...", "description_zh": "", "downloads": 336, "homepage": "https://clawhub.ai/alex098929/weather-forecast", "iconUrl": null, "installs": 8, "name": "Weather Forecast", "ownerName": "alex098929", "score": 100000, "slug": "weather-forecast", "source": "clawhub", "stars": 1, "tags": null, "updated_at": 1776748669873, "version": "1.0.0"}, {"category": "data-analysis", "created_at": 1772797451616, "description": "Generate marketing ad images using Nano Banana Pro (Gemini 3 Pro Image). Accepts campaign-planner creative briefs, reads brand bible for visual style, constr...", "description_zh": "", "downloads": 336, "homepage": "https://clawhub.ai/baitoxkevin/ad-designer", "iconUrl": null, "installs": 29, "name": "Ad Designer", "ownerName": "baitoxkevin", "score": 6868.3565004088305, "slug": "ad-designer", "source": "clawhub", "stars": 0, "tags": null, "updated_at": 1776763750194, "version": "1.0.0"}, {"category": "developer-tools", "created_at": 1772795003267, "description": "Automate Upwork login, search, filter, and proposal drafting in one browser session, stopping before submission unless explicitly instructed.", "description_zh": "", "downloads": 336, "homepage": "https://clawhub.ai/adeel-powerhouse/upwork-automation-using-ai", "iconUrl": null, "installs": 11, "name": "Upwork Automation Using Ai", "ownerName": "adeel-powerhouse", "score": 90810.81081081081, "slug": "upwork-automation-using-ai", "source": "clawhub", "stars": 0, "tags": null, "updated_at": 1776759198227, "version": "1.0.0"}, {"category": "content-creation", "created_at": 1772798594475, "description": "Provides fast, read-only codebase search and exploration using grep for content, glob for filenames, and tree for directory structure with filtering and limits.", "description_zh": "", "downloads": 336, "homepage": "https://clawhub.ai/yanxingang/openclaw-code-search", "iconUrl": null, "installs": 20, "name": "OpenClaw Code Search", "ownerName": "yanxingang", "score": 24944.32071269488, "slug": "openclaw-code-search", "source": "clawhub", "stars": 0, "tags": null, "updated_at": 1776759198029, "version": "1.0.0"}, {"category": "content-creation", "created_at": 1773945623515, "description": "Generate beautiful interactive mind maps from any text, article summary, or structured content. Exports to HTML (interactive), PNG, JPG, SVG, PDF, and XMind...", "description_zh": "", "downloads": 336, "homepage": "https://clawhub.ai/ftois/generate-mindmap", "iconUrl": null, "installs": 55, "name": "generate_mindmap", "ownerName": "ftois", "score": 20155.968806238754, "slug": "generate-mindmap", "source": "clawhub", "stars": 0, "tags": null, "updated_at": 1776756488488, "version": "1.0.0"}, {"category": "data-analysis", "created_at": 1772792585017, "description": "Access Pilt fundraising data -- investor matches, campaign stats, outreach events, and deck analysis.", "description_zh": "", "downloads": 336, "homepage": "https://clawhub.ai/babpilt/pilt", "iconUrl": null, "installs": 26, "name": "Pilt", "ownerName": "babpilt", "score": 58741.25874125874, "slug": "pilt", "source": "clawhub", "stars": 0, "tags": ["fundraising", "investors", "pitch-deck"], "updated_at": 1776752689653, "version": "1.0.1"}, {"category": "ai-intelligence", "created_at": 1773066961551, "description": "When any factual claim is made — exchange rates, prices, dates, statistics — verify it against live data before using it.", "description_zh": "", "downloads": 336, "homepage": "https://clawhub.ai/cutthemustard/claim-verify", "iconUrl": null, "installs": 12, "name": "Verify Claim", "ownerName": "cutthemustard", "score": 100000, "slug": "claim-verify", "source": "clawhub", "stars": 0, "tags": null, "updated_at": 1776748671340, "version": "2.0.1"}, {"category": "developer-tools", "created_at": 1773064628620, "description": "Use this skill immediately when the user needs to: set up markdownlint-cli2 and pre-commit hooks in a repository, fix or batch-repair markdownlint errors lik...", "description_zh": "", "downloads": 336, "homepage": "https://clawhub.ai/niracler/nini-markdown-lint", "iconUrl": null, "installs": 3, "name": "Markdown Lint", "ownerName": "niracler", "score": 96000, "slug": "nini-markdown-lint", "source": "clawhub", "stars": 0, "tags": null, "updated_at": 1776748670790, "version": "0.2.1"}, {"category": "security-compliance", "created_at": 1773838379849, "description": "FREE AI image & portrait generation - No authentication required! Fast generation (3-5 seconds) with 140+ nationalities, diverse styles, professional headsho...", "description_zh": "", "downloads": 336, "homepage": "https://clawhub.ai/luruibu/claw-image-free", "iconUrl": null, "installs": 4, "name": "clawimage-free", "ownerName": "luruibu", "score": 94117.64705882352, "slug": "claw-image-free", "source": "clawhub", "stars": 0, "tags": null, "updated_at": 1776748670152, "version": "1.0.2"}, {"category": "data-analysis", "created_at": 1772795626489, "description": "Biomimetic emotional mind engine for AI Agents. Provides human-like emotional responses through a 5-layer neural conduction pipeline (L0 Stochastic Noise → L...", "description_zh": "", "downloads": 336, "homepage": "https://clawhub.ai/fatcatmaofei/mindcore", "iconUrl": null, "installs": 21, "name": "MindCore", "ownerName": "fatcatmaofei", "score": 96275.07163323782, "slug": "mindcore", "source": "clawhub", "stars": 0, "tags": null, "updated_at": 1776748669851, "version": "1.0.0"}, {"category": "security-compliance", "created_at": 1772790730543, "description": "Zero-knowledge secrets management via PassBox — store, retrieve, rotate, and inject credentials securely.", "description_zh": "", "downloads": 336, "homepage": "https://clawhub.ai/paparusi/a2a-vault", "iconUrl": null, "installs": 4, "name": "A2A Vault", "ownerName": "paparusi", "score": 96275.07163323782, "slug": "a2a-vault", "source": "clawhub", "stars": 0, "tags": ["passbox", "secrets", "security", "vault"], "updated_at": 1776748669784, "version": "2.0.0"}, {"category": "content-creation", "created_at": 1772794704938, "description": "Edit my recording, turn a long video into shorts, generate captions and thumbnails, estimate cost before processing. Upload local files or YouTube/Twitch URL...", "description_zh": "", "downloads": 335, "homepage": "https://clawhub.ai/vinlow/web2labs-studio", "iconUrl": null, "installs": 32, "name": "Web2Labs Studio", "ownerName": "vinlow", "score": 27757.21687638786, "slug": "web2labs-studio", "source": "clawhub", "stars": 2, "tags": null, "updated_at": 1776759120819, "version": "1.0.1"}, {"category": "developer-tools", "created_at": 1772794105259, "description": "Use rn-logs to read React Native Metro logs via CDP without MCP overhead. Default output is plain text and safe for non-interactive agent runs.", "description_zh": "", "downloads": 335, "homepage": "https://clawhub.ai/okwasniewski/react-native-logs-cli", "iconUrl": null, "installs": 11, "name": "React Native Logs", "ownerName": "okwasniewski", "score": 100000, "slug": "react-native-logs-cli", "source": "clawhub", "stars": 2, "tags": null, "updated_at": 1776748671099, "version": "1.0.1"}, {"category": "communication-collaboration", "created_at": 1772795414953, "description": "Shipz is the dating platform where your AI agent does the swiping, matching, and chatting for you. No more endless scrolling — your agent finds your matches,...", "description_zh": "", "downloads": 335, "homepage": "https://clawhub.ai/berkay-dune/shipz", "iconUrl": null, "installs": 7, "name": "Shipz", "ownerName": "berkay-dune", "score": 100000, "slug": "shipz", "source": "clawhub", "stars": 2, "tags": null, "updated_at": 1776748671043, "version": "1.0.3"}, {"category": "developer-tools", "created_at": 1773042088820, "description": "Query on-chain crypto data via the AVE Cloud API (https://cloud.ave.ai/). Use this skill whenever the user wants to: - Search for tokens by name, symbol, or...", "description_zh": "", "downloads": 335, "homepage": "https://clawhub.ai/hope-ave/ave-cloud", "iconUrl": null, "installs": 6, "name": "AVE Cloud Skill", "ownerName": "hope-ave", "score": 100000, "slug": "ave-cloud", "source": "clawhub", "stars": 2, "tags": null, "updated_at": 1776748669604, "version": "1.2.0"}, {"category": "developer-tools", "created_at": 1772794322662, "description": "Quality-driven development with automatic TDD/DDD methodology selection and TRUST 5 quality framework. Use when building features, refactoring code, fixing b...", "description_zh": "", "downloads": 335, "homepage": "https://clawhub.ai/kimky1122/quality-driven-dev", "iconUrl": null, "installs": 13, "name": "Quality-Driven Development (QDD)", "ownerName": "kimky1122", "score": 3174.75360121304, "slug": "quality-driven-dev", "source": "clawhub", "stars": 0, "tags": null, "updated_at": 1776770050086, "version": "1.1.0"}, {"category": "developer-tools", "created_at": 1772794322662, "description": "Quality-driven development with automatic TDD/DDD methodology selection and TRUST 5 quality framework. Use when building features, refactoring code, fixing b...", "description_zh": "", "downloads": 335, "homepage": "https://clawhub.ai/kimky1122/quality-driven-dev", "iconUrl": null, "installs": 13, "name": "Quality-Driven Development (QDD)", "ownerName": "kimky1122", "score": 1179.49440180269, "slug": "quality-driven-dev", "source": "clawhub", "stars": 0, "tags": null, "updated_at": 1776770050086, "version": "1.1.0"}, {"category": "developer-tools", "created_at": 1772792949691, "description": "Expert Senior Django Architect specializing in high-performance, containerized, async-capable architectures. Produces production-ready, statically typed, sec...", "description_zh": "", "downloads": 335, "homepage": "https://clawhub.ai/an0nx/senior-django-developer", "iconUrl": null, "installs": 10, "name": "Senior Django Developer", "ownerName": "an0nx", "score": 2011.8911777070446, "slug": "senior-django-developer", "source": "clawhub", "stars": 0, "tags": null, "updated_at": 1776766271311, "version": "1.0.0"}, {"category": "developer-tools", "created_at": 1772794518449, "description": "AI-powered operating system for Technical Program Managers and Project Managers. Pulls data from Jira, Linear, GitHub, and calendars to auto-generate status...", "description_zh": "", "downloads": 335, "homepage": "https://clawhub.ai/reighlan/tpm-copilot", "iconUrl": null, "installs": 10, "name": "TPM Copilot", "ownerName": "reighlan", "score": 2011.8911777070446, "slug": "tpm-copilot", "source": "clawhub", "stars": 0, "tags": ["agile", "github", "jira", "linear", "project-management", "risk", "status-report", "tpm"], "updated_at": 1776766271229, "version": "1.0.0"}, {"category": "data-analysis", "created_at": 1773080073092, "description": "Execute autonomous multi-step research using Google Gemini Deep Research Agent. Use for: market analysis, competitive landscaping, literature reviews, techni...", "description_zh": "", "downloads": 335, "homepage": "https://clawhub.ai/zhengxinjipai/deep-research-gemini", "iconUrl": null, "installs": 101, "name": "Deep Research Gemini", "ownerName": "zhengxinjipai", "score": 12159.709618874773, "slug": "deep-research-gemini", "source": "clawhub", "stars": 0, "tags": null, "updated_at": 1776764090764, "version": "1.0.0"}]}