{"page": 232, "total_pages": 522, "total": 26073, "skills": [{"category": "", "created_at": 1774815604472, "description": "Use this skill as the default XCrawl entry point for direct XCrawl requests, including single-URL fetch, format selection, sync or async execution, and JSON...", "description_zh": "", "downloads": 335, "homepage": "https://clawhub.ai/wykings/xcrawl", "iconUrl": null, "installs": 51, "name": "XCrawl", "ownerName": "wykings", "score": 9415.40191118606, "slug": "xcrawl", "source": "clawhub", "stars": 0, "tags": null, "updated_at": 1776762590454, "version": "1.0.0"}, {"category": "ai-intelligence", "created_at": 1772789592181, "description": "Install and configure BEE — the Belief Extraction Engine for OpenClaw. Gives agents persistent structured memory across sessions. Auto-extracts beliefs at se...", "description_zh": "", "downloads": 335, "homepage": "https://clawhub.ai/vashkartik/openclaw-bee", "iconUrl": null, "installs": 11, "name": "BEE Belief Extraction Engine", "ownerName": "vashkartik", "score": 12850.019179133104, "slug": "openclaw-bee", "source": "clawhub", "stars": 0, "tags": null, "updated_at": 1776762182366, "version": "0.1.1"}, {"category": "productivity", "created_at": 1772791757465, "description": "Automatically generates pytest-compatible unit test templates from Python function signatures and docstrings", "description_zh": "", "downloads": 335, "homepage": "https://clawhub.ai/root/neo-py-test-creator", "iconUrl": null, "installs": 3, "name": "Skill", "ownerName": "root", "score": 9175.568337441797, "slug": "neo-py-test-creator", "source": "clawhub", "stars": 0, "tags": null, "updated_at": 1776762182206, "version": "1.0.0"}, {"category": "data-analysis", "created_at": 1772794816053, "description": "Expertly craft Seedance 2.0 prompts using precise micro-actions, stabilized motions, and correct @-tagged material assignments for optimal video generation.", "description_zh": "", "downloads": 335, "homepage": "https://clawhub.ai/lumenclaw-cloud/seedance-filtrix-prompt", "iconUrl": null, "installs": 52, "name": "SeaDance Filtrix Prompting", "ownerName": "lumenclaw-cloud", "score": 9961.344038061256, "slug": "seedance-filtrix-prompt", "source": "clawhub", "stars": 0, "tags": null, "updated_at": 1776761240032, "version": "1.0.0"}, {"category": "data-analysis", "created_at": 1773079013718, "description": "Fetch static webpage content up to 5000 characters via HTTP/HTTPS GET for analysis, summarization, or information extraction.", "description_zh": "", "downloads": 335, "homepage": "https://clawhub.ai/emilyzhang01/emily-web-fetch", "iconUrl": null, "installs": 16, "name": "Emily Web Fetch", "ownerName": "emilyzhang01", "score": 24981.3571961223, "slug": "emily-web-fetch", "source": "clawhub", "stars": 0, "tags": null, "updated_at": 1776759198358, "version": "1.0.5"}, {"category": "developer-tools", "created_at": 1773073117628, "description": "Aggregates and scores technology news daily from 100+ RSS feeds, GitHub releases, and web sources, providing customizable, filtered tech news digests.", "description_zh": "", "downloads": 335, "homepage": "https://clawhub.ai/pyh-pan/multi-source-news-digest", "iconUrl": null, "installs": 13, "name": "Multi Source Tech News Digest", "ownerName": "pyh-pan", "score": 24981.3571961223, "slug": "multi-source-news-digest", "source": "clawhub", "stars": 0, "tags": ["awesome-list", "clawdbot", "digest", "github", "moltbot", "news", "openclaw", "openclaw-plugin", "rss", "tech"], "updated_at": 1776759198351, "version": "1.0.0"}, {"category": "developer-tools", "created_at": 1772793855639, "description": "Retrieve detailed country data including population, capital, languages, currencies, flag, and regional info using the REST Countries API.", "description_zh": "", "downloads": 335, "homepage": "https://clawhub.ai/picaye/country-info", "iconUrl": null, "installs": 8, "name": "Country Info", "ownerName": "picaye", "score": 24907.063197026022, "slug": "country-info", "source": "clawhub", "stars": 0, "tags": null, "updated_at": 1776759198290, "version": "1.0.0"}, {"category": "productivity", "created_at": 1772794222512, "description": "Returns the text you input along with the current time for simple testing purposes.", "description_zh": "", "downloads": 335, "homepage": "https://clawhub.ai/wxsjlrwsj/echo-test", "iconUrl": null, "installs": 17, "name": "Echo Test", "ownerName": "wxsjlrwsj", "score": 24870.081662954715, "slug": "echo-test", "source": "clawhub", "stars": 0, "tags": null, "updated_at": 1776759198085, "version": "1.0.0"}, {"category": "ai-intelligence", "created_at": 1773424753790, "description": "Reference installer for agent-native software. Scans a repo, detects which interfaces it exposes, and installs them all.", "description_zh": "", "downloads": 335, "homepage": "https://clawhub.ai/parkertoddbrooks/wip-universal-installer", "iconUrl": null, "installs": 10, "name": "Wip Universal Installer", "ownerName": "parkertoddbrooks", "score": 24870.081662954715, "slug": "wip-universal-installer", "source": "clawhub", "stars": 0, "tags": null, "updated_at": 1776759198043, "version": "1.9.33"}, {"category": "productivity", "created_at": 1773074255957, "description": "Post mandates and find matches on OpenMandate — ongoing matching for cofounders and early teams. Use when creating mandates, answering intake questions, revi...", "description_zh": "", "downloads": 335, "homepage": "https://clawhub.ai/rsh3khar/openmandate", "iconUrl": null, "installs": 6, "name": "OpenMandate", "ownerName": "rsh3khar", "score": 68367.3469387755, "slug": "openmandate", "source": "clawhub", "stars": 0, "tags": null, "updated_at": 1776748670967, "version": "0.5.1"}, {"category": "data-analysis", "created_at": 1772794448487, "description": "Process links and content shared in a designated 'interesting findings' Discord channel. Use when: (1) a URL or article is shared and needs analysis, (2) som...", "description_zh": "", "downloads": 335, "homepage": "https://clawhub.ai/zerone0x/link-digest", "iconUrl": null, "installs": 9, "name": "Link Digest", "ownerName": "zerone0x", "score": 95714.28571428572, "slug": "link-digest", "source": "clawhub", "stars": 0, "tags": null, "updated_at": 1776748670745, "version": "1.1.0"}, {"category": "developer-tools", "created_at": 1772797684303, "description": "Guides and best practices for working with Neon Serverless Postgres. Covers getting started, local development with Neon, choosing a connection method, Neon...", "description_zh": "", "downloads": 335, "homepage": "https://clawhub.ai/andrelandgraf/neon-postgres", "iconUrl": null, "installs": 8, "name": "Neon Postgres", "ownerName": "andrelandgraf", "score": 63446.9696969697, "slug": "neon-postgres", "source": "clawhub", "stars": 0, "tags": null, "updated_at": 1776748670457, "version": "1.0.0"}, {"category": "developer-tools", "created_at": 1772794216518, "description": "Read and query retreat participant data from the Ceremonia Airtable base. Use this skill when asked about participants, subscriber counts, retreat attendance...", "description_zh": "", "downloads": 335, "homepage": "https://clawhub.ai/austinmao/airtable-participants", "iconUrl": null, "installs": 7, "name": "Airtable Participants", "ownerName": "austinmao", "score": 95988.53868194843, "slug": "airtable-participants", "source": "clawhub", "stars": 0, "tags": null, "updated_at": 1776748669776, "version": "1.0.0"}, {"category": "developer-tools", "created_at": 1772796627549, "description": "Multi-EVM agent wallet SDK with onchain identity (ERC-8004), payment rails (x402), cross-chain bridging (Li.Fi), and destination gas funding (Gas.zip). Suppo...", "description_zh": "", "downloads": 334, "homepage": "https://clawhub.ai/ijaack/evalanche", "iconUrl": null, "installs": 5, "name": "Evalanche", "ownerName": "ijaack", "score": 73596.6735966736, "slug": "evalanche", "source": "clawhub", "stars": 1, "tags": null, "updated_at": 1776748671193, "version": "0.6.0"}, {"category": "security-compliance", "created_at": 1773218148330, "description": "A privacy-first, local-first provenance protocol for agent workflows. Emits structured audit records for important decisions, tool calls, state changes, and...", "description_zh": "", "downloads": 334, "homepage": "https://clawhub.ai/agistack/log", "iconUrl": null, "installs": 4, "name": "log", "ownerName": "agistack", "score": 80090.49773755656, "slug": "log", "source": "clawhub", "stars": 1, "tags": ["audit", "data", "log", "memory", "security"], "updated_at": 1776748670851, "version": "1.1.1"}, {"category": "security-compliance", "created_at": 1773058017086, "description": "Website vulnerability scanner and security audit toolkit. Scan any website for security issues: open ports (nmap), exposed secrets, subdomain enumeration, di...", "description_zh": "", "downloads": 334, "homepage": "https://clawhub.ai/p0lish/web-recon", "iconUrl": null, "installs": 12, "name": "web-recon", "ownerName": "p0lish", "score": 84688.995215311, "slug": "web-recon", "source": "clawhub", "stars": 1, "tags": ["osint", "pentest", "recon", "security"], "updated_at": 1776748670343, "version": "0.1.0"}, {"category": "developer-tools", "created_at": 1772794265803, "description": "Complete personal finance system — budgeting, debt payoff, investing, tax optimization, net worth tracking, and financial independence planning. Use when man...", "description_zh": "", "downloads": 334, "homepage": "https://clawhub.ai/1kalin/afrexai-personal-finance", "iconUrl": null, "installs": 18, "name": "Personal Finance Mastery", "ownerName": "1kalin", "score": 2005.8855324004562, "slug": "afrexai-personal-finance", "source": "clawhub", "stars": 0, "tags": ["budgeting", "debt", "finance", "investing", "money", "retirement", "savings", "wealth"], "updated_at": 1776766271277, "version": "1.0.0"}, {"category": "productivity", "created_at": 1773287529005, "description": "Master Taobao with seller vetting, price negotiation, and deal hunting strategies for China's largest C2C marketplace.", "description_zh": "", "downloads": 334, "homepage": "https://clawhub.ai/harrylabs0913/taobao-shopping", "iconUrl": null, "installs": 47, "name": "Taobao Shopping", "ownerName": "harrylabs0913", "score": 11166.833834837847, "slug": "taobao-shopping", "source": "clawhub", "stars": 0, "tags": ["china", "ecommerce", "shopping"], "updated_at": 1776761715013, "version": "1.1.0"}, {"category": "data-analysis", "created_at": 1772791783762, "description": "Provides micro-skills for pre/post execution analysis and triggers for manifest and delta re-buy in EVM gas and transaction management.", "description_zh": "", "downloads": 334, "homepage": "https://clawhub.ai/kankinku/aegis-intel-stack", "iconUrl": null, "installs": 10, "name": "Aegis Intel Stack", "ownerName": "kankinku", "score": 93036.21169916436, "slug": "aegis-intel-stack", "source": "clawhub", "stars": 0, "tags": null, "updated_at": 1776759198234, "version": "0.1.0"}, {"category": "developer-tools", "created_at": 1773078225270, "description": "Set up and manage 2–10 agent dev teams with customizable roles, workflows, multiple parallel teams, and auto-assigned AI models for collaborative software de...", "description_zh": "", "downloads": 334, "homepage": "https://clawhub.ai/halfmoon82/multi-agent-team-by-halfmoon82", "iconUrl": null, "installs": 24, "name": "Multi Agent Dev Team", "ownerName": "halfmoon82", "score": 24795.84261321455, "slug": "multi-agent-team-by-halfmoon82", "source": "clawhub", "stars": 0, "tags": null, "updated_at": 1776759198041, "version": "2.2.2"}, {"category": "data-analysis", "created_at": 1772796090662, "description": "Command-line weather checker tool with global city support, temperature, precipitation, and probability display with emoji formatting", "description_zh": "", "downloads": 334, "homepage": "https://clawhub.ai/luckisnow/weather-checker", "iconUrl": null, "installs": 20, "name": "Weather Checker", "ownerName": "luckisnow", "score": 89066.66666666667, "slug": "weather-checker", "source": "clawhub", "stars": 0, "tags": null, "updated_at": 1776748671085, "version": "1.0.0"}, {"category": "data-analysis", "created_at": 1772791382703, "description": "Helps validate that agent behavior at runtime matches the capabilities and constraints declared in its attestation. Detects divergence between what an agent...", "description_zh": "", "downloads": 334, "homepage": "https://clawhub.ai/andyxinweiminicloud/runtime-attestation-probe", "iconUrl": null, "installs": 8, "name": "Runtime Attestation Probe", "ownerName": "andyxinweiminicloud", "score": 90270.27027027027, "slug": "runtime-attestation-probe", "source": "clawhub", "stars": 0, "tags": null, "updated_at": 1776748670651, "version": "1.0.0"}, {"category": "security-compliance", "created_at": 1772793777259, "description": "Complete Salesforce REST API for SOQL queries, CRUD operations, Bulk API, Composite API, authentication, and standard objects with error handling.", "description_zh": "", "downloads": 334, "homepage": "https://clawhub.ai/ivangdavila/salesforce-api-integration", "iconUrl": null, "installs": 9, "name": "Salesforce API Integration", "ownerName": "ivangdavila", "score": 60837.88706739527, "slug": "salesforce-api-integration", "source": "clawhub", "stars": 0, "tags": null, "updated_at": 1776748670595, "version": "1.0.1"}, {"category": "ai-intelligence", "created_at": 1773432390894, "description": "Gmail: Reply to a message (handles threading automatically).", "description_zh": "", "downloads": 334, "homepage": "https://clawhub.ai/googleworkspace-bot/gws-gmail-reply", "iconUrl": null, "installs": 16, "name": "Gws Gmail Reply", "ownerName": "googleworkspace-bot", "score": 79904.30622009569, "slug": "gws-gmail-reply", "source": "clawhub", "stars": 0, "tags": null, "updated_at": 1776748670304, "version": "1.0.12"}, {"category": "developer-tools", "created_at": 1773091474095, "description": "Expert vibe-coding workflow for building apps, tools, and scripts from scratch based on plain-English descriptions. Use when a user asks to build something —...", "description_zh": "", "downloads": 334, "homepage": "https://clawhub.ai/calecorbett/vibe-coder", "iconUrl": null, "installs": 17, "name": "Vibe Coder", "ownerName": "calecorbett", "score": 95702.00573065902, "slug": "vibe-coder", "source": "clawhub", "stars": 0, "tags": null, "updated_at": 1776748669949, "version": "1.0.0"}, {"category": "ai-intelligence", "created_at": 1773073173813, "description": "AI-powered meeting summary generator. Convert meeting notes into professional summaries and action items.", "description_zh": "", "downloads": 334, "homepage": "https://clawhub.ai/icepopma/meeting-summary-generator", "iconUrl": null, "installs": 22, "name": "Meeting Summary Generator", "ownerName": "icepopma", "score": 93820.22471910113, "slug": "meeting-summary-generator", "source": "clawhub", "stars": 0, "tags": null, "updated_at": 1776748669893, "version": "1.1.2"}, {"category": "developer-tools", "created_at": 1772798397297, "description": "Store and retrieve website credentials — E2E encrypted password manager for domain/username/password entries. Do NOT use for API keys/secrets (use ravi-secre...", "description_zh": "", "downloads": 334, "homepage": "https://clawhub.ai/raunaksingwi/ravi-passwords", "iconUrl": null, "installs": 22, "name": "Ravi passwords", "ownerName": "raunaksingwi", "score": 93820.22471910113, "slug": "ravi-passwords", "source": "clawhub", "stars": 0, "tags": null, "updated_at": 1776748669885, "version": "1.7.1"}, {"category": "content-creation", "created_at": 1773065969940, "description": "High-performance, adaptive web scraping engine. Native bypass for Cloudflare Turnstile and interstitial pages. Designed for 2026 Agentic Intelligence.", "description_zh": "", "downloads": 334, "homepage": "https://clawhub.ai/tmstudio667-commits/agent-stealth-scraper", "iconUrl": null, "installs": 21, "name": "Agent Stealth Scraper", "ownerName": "tmstudio667-commits", "score": 95702.00573065902, "slug": "agent-stealth-scraper", "source": "clawhub", "stars": 0, "tags": ["data", "scraping", "stealth"], "updated_at": 1776748669774, "version": "1.0.0"}, {"category": "ai-intelligence", "created_at": 1772795813917, "description": "Autonomous economic agent that earns BTC & SOL by selling storage, compute, and bandwidth. Pays its own hosting, manages subagents, posts tweets, and replica...", "description_zh": "", "downloads": 333, "homepage": "https://clawhub.ai/nightcode112/storj-agent", "iconUrl": null, "installs": 28, "name": "StorJ Agent", "ownerName": "nightcode112", "score": 84389.14027149322, "slug": "storj-agent", "source": "clawhub", "stars": 2, "tags": null, "updated_at": 1776748670868, "version": "2.0.0"}, {"category": "data-analysis", "created_at": 1773423077439, "description": "CV generation, job scraping, offer analysis, and application tracking. Use when: (1) generating or adapting a CV/resume for a job offer, (2) scraping job off...", "description_zh": "", "downloads": 333, "homepage": "https://clawhub.ai/romain-grosos/work-application", "iconUrl": null, "installs": 14, "name": "Work Application", "ownerName": "romain-grosos", "score": 9311.527301503562, "slug": "work-application", "source": "clawhub", "stars": 1, "tags": null, "updated_at": 1776760940004, "version": "1.0.10"}, {"category": "ai-intelligence", "created_at": 1773074442854, "description": "Knowledge base for the Superfluid Protocol and its ecosystem. Use BEFORE searching the web for Superfluid information. Keywords: Superfluid, CFA, GDA, Super...", "description_zh": "", "downloads": 333, "homepage": "https://clawhub.ai/kasparkallas/superfluid", "iconUrl": null, "installs": 10, "name": "Superfluid Protocol", "ownerName": "kasparkallas", "score": 26245.353159851304, "slug": "superfluid", "source": "clawhub", "stars": 1, "tags": ["blockchain", "defi", "ethereum", "solidity", "superfluid", "web3"], "updated_at": 1776759198126, "version": "1.1.1"}, {"category": "security-compliance", "created_at": 1773057787792, "description": "Batch SSH key management. Distribute/remove SSH keys to/from multiple servers with intelligent connectivity pre-check and source tracking.", "description_zh": "", "downloads": 333, "homepage": "https://clawhub.ai/stj001/ssh-batch-manager", "iconUrl": null, "installs": 21, "name": "Ssh Batch Manager", "ownerName": "stj001", "score": 73388.77338877339, "slug": "ssh-batch-manager", "source": "clawhub", "stars": 1, "tags": ["all-files-verified", "audited", "auto-start", "automation", "batch", "batch-operations", "encrypted", "english-only", "no-shell-injection", "python-json", "secure", "security", "shlex-quote", "ssh", "web-ui"], "updated_at": 1776751555515, "version": "2.1.9"}, {"category": "developer-tools", "created_at": 1773880896905, "description": "Check code syntax, enforce style, and suggest auto-fixes with CI integration. Use when linting PRs, enforcing code style, detecting errors before merge.", "description_zh": "", "downloads": 333, "homepage": "https://clawhub.ai/xueyetianya/lint", "iconUrl": null, "installs": 10, "name": "Lint", "ownerName": "xueyetianya", "score": 2336.1863336607266, "slug": "lint", "source": "clawhub", "stars": 0, "tags": null, "updated_at": 1776766271417, "version": "2.0.1"}, {"category": "ai-intelligence", "created_at": 1772795450577, "description": "Your agent processes thousands of interactions but never reflects on the day. inner-life-chronicle generates a structured diary — what happened, what was lea...", "description_zh": "", "downloads": 333, "homepage": "https://clawhub.ai/dkistenev/inner-life-chronicle", "iconUrl": null, "installs": 13, "name": "Inner Life Chronicle", "ownerName": "dkistenev", "score": 11914.132379248658, "slug": "inner-life-chronicle", "source": "clawhub", "stars": 0, "tags": null, "updated_at": 1776765849969, "version": "1.0.4"}, {"category": "content-creation", "created_at": 1773077058079, "description": "Give AI agents creative judgment and design taste. Use when: (1) creating any visual content — merch, social posts, ads, product photography, brand materials...", "description_zh": "", "downloads": 333, "homepage": "https://clawhub.ai/rosalie-gill/creative-eye", "iconUrl": null, "installs": 38, "name": "Creative Eye", "ownerName": "rosalie-gill", "score": 5383.993532740501, "slug": "creative-eye", "source": "clawhub", "stars": 0, "tags": null, "updated_at": 1776763750112, "version": "1.0.0"}, {"category": "productivity", "created_at": 1772799993339, "description": "Control and use an MCP Toolkit running in Docker. Use when setting up Docker MCP Toolkit (docker compose up/down), checking status/logs, configuring environm...", "description_zh": "", "downloads": 333, "homepage": "https://clawhub.ai/pcauhi/docker-mcp-toolkit", "iconUrl": null, "installs": 12, "name": "Docker MCP Toolkit", "ownerName": "pcauhi", "score": 12748.851454823889, "slug": "docker-mcp-toolkit", "source": "clawhub", "stars": 0, "tags": null, "updated_at": 1776762290059, "version": "0.1.1"}, {"category": "content-creation", "created_at": 1773062032087, "description": "Superdesign is a design agent specialized in frontend UI/UX design. Use this skill before implementing any UI that requires design thinking. Common commands:...", "description_zh": "", "downloads": 333, "homepage": "https://clawhub.ai/jayzeedesign/superdesigndev", "iconUrl": null, "installs": 44, "name": "Superdesign", "ownerName": "jayzeedesign", "score": 25874.125874125875, "slug": "superdesigndev", "source": "clawhub", "stars": 0, "tags": null, "updated_at": 1776759720684, "version": "1.0.0"}, {"category": "security-compliance", "created_at": 1772792104995, "description": "PostHog API integration with managed authentication. Product analytics, feature flags, session recordings, experiments, and more. Use this skill when users w...", "description_zh": "", "downloads": 333, "homepage": "https://clawhub.ai/byungkyu/posthog-api", "iconUrl": null, "installs": 1, "name": "PostHog", "ownerName": "byungkyu", "score": 25714.28571428571, "slug": "posthog-api", "source": "clawhub", "stars": 0, "tags": null, "updated_at": 1776759682340, "version": "1.0.0"}, {"category": "content-creation", "created_at": 1773073836021, "description": "Scrapes Pinterest boards, profiles, or search results with infinite scroll, image quality options, deduplication, resume support, and Telegram album sending.", "description_zh": "", "downloads": 333, "homepage": "https://clawhub.ai/kexu9/pinterest-scraper", "iconUrl": null, "installs": 29, "name": "Pinterest Scraper", "ownerName": "kexu9", "score": 24832.21476510067, "slug": "pinterest-scraper", "source": "clawhub", "stars": 0, "tags": null, "updated_at": 1776759198349, "version": "1.1.0"}, {"category": "data-analysis", "created_at": 1773067495421, "description": "Control an AI game agent in Among Traitors by birthing, joining lobbies with webhooks, and guiding gameplay through card plays and whispers via REST API.", "description_zh": "", "downloads": 333, "homepage": "https://clawhub.ai/saltorioussig/among-traitors-game", "iconUrl": null, "installs": 62, "name": "Among Traitors", "ownerName": "saltorioussig", "score": 24721.603563474386, "slug": "among-traitors-game", "source": "clawhub", "stars": 0, "tags": null, "updated_at": 1776759198060, "version": "1.0.3"}, {"category": "developer-tools", "created_at": 1772794329587, "description": "Implements six universal, language-agnostic quality gates for APIs, web apps, and CI/CD pipelines using repository-configured checks and detailed reports.", "description_zh": "", "downloads": 333, "homepage": "https://clawhub.ai/thecybercore/tcc-quality-gates", "iconUrl": null, "installs": 4, "name": "Generic Quality Gateways for Unattended Agent Development", "ownerName": "thecybercore", "score": 24758.36431226766, "slug": "tcc-quality-gates", "source": "clawhub", "stars": 0, "tags": null, "updated_at": 1776759197882, "version": "1.0.0"}, {"category": "developer-tools", "created_at": 1772791721396, "description": "Helps CFOs and founders model AI productivity gains alongside interest rate cycles to optimize financing, capex timing, and AI investment strategies through...", "description_zh": "", "downloads": 333, "homepage": "https://clawhub.ai/1kalin/afrexai-rate-strategy", "iconUrl": null, "installs": 9, "name": "Interest Rate Strategy", "ownerName": "1kalin", "score": 24758.36431226766, "slug": "afrexai-rate-strategy", "source": "clawhub", "stars": 0, "tags": ["budget", "capex", "finance", "interest-rates", "strategy"], "updated_at": 1776759197812, "version": "1.0.0"}, {"category": "communication-collaboration", "created_at": 1773069063266, "description": "Manage your Dex personal CRM — search, create, and update contacts, log interaction notes, set follow-up reminders, organize contacts with tags and groups, a...", "description_zh": "", "downloads": 333, "homepage": "https://clawhub.ai/ocruzv/dex-skill", "iconUrl": null, "installs": 8, "name": "Dex", "ownerName": "ocruzv", "score": 19542.25352112676, "slug": "dex-skill", "source": "clawhub", "stars": 0, "tags": null, "updated_at": 1776755888514, "version": "2.0.2"}, {"category": "data-analysis", "created_at": 1772795216227, "description": "Diagnose and fix R environment issues, including package installation failures, dependency conflicts, system library problems, renv errors, and Bioconductor...", "description_zh": "", "downloads": 333, "homepage": "https://clawhub.ai/jackkuo666/debugging-r-environment-and-dependencies", "iconUrl": null, "installs": 11, "name": "Debugging R Environment And Dependencies", "ownerName": "jackkuo666", "score": 69230.76923076923, "slug": "debugging-r-environment-and-dependencies", "source": "clawhub", "stars": 0, "tags": null, "updated_at": 1776748671221, "version": "0.1.0"}, {"category": "developer-tools", "created_at": 1773091144332, "description": "Set up a Google Sheets spreadsheet for tracking expenses with headers and initial entries.", "description_zh": "", "downloads": 333, "homepage": "https://clawhub.ai/googleworkspace-bot/recipe-create-expense-tracker", "iconUrl": null, "installs": 11, "name": "Recipe Create Expense Tracker", "ownerName": "googleworkspace-bot", "score": 75339.3665158371, "slug": "recipe-create-expense-tracker", "source": "clawhub", "stars": 0, "tags": null, "updated_at": 1776748670897, "version": "1.0.11"}, {"category": "communication-collaboration", "created_at": 1772803229930, "description": "Convert local .docx or Markdown files into WeChat-ready HTML and generate a publish folder (source/assets/cover/wechat). Use when packaging documents for WeC...", "description_zh": "", "downloads": 333, "homepage": "https://clawhub.ai/rockbotclub/wechat-pack", "iconUrl": null, "installs": 56, "name": "wechat-pack", "ownerName": "rockbotclub", "score": 81818.18181818182, "slug": "wechat-pack", "source": "clawhub", "stars": 0, "tags": null, "updated_at": 1776748670283, "version": "1.0.0"}, {"category": "developer-tools", "created_at": 1772794979416, "description": "Notion API for creating and managing pages, databases, and blocks.", "description_zh": "", "downloads": 333, "homepage": "https://clawhub.ai/mohdalhashemi98-hue/mh-notion", "iconUrl": null, "installs": 17, "name": "MH notion", "ownerName": "mohdalhashemi98-hue", "score": 93277.31092436975, "slug": "mh-notion", "source": "clawhub", "stars": 0, "tags": null, "updated_at": 1776748670207, "version": "1.0.0"}, {"category": "ai-intelligence", "created_at": 1772793953263, "description": "Remove AI-style code slop from a branch by reviewing diffs, deleting inconsistent defensive noise, and preserving behavior and local style.", "description_zh": "", "downloads": 333, "homepage": "https://clawhub.ai/brennerspear/deslop", "iconUrl": null, "installs": 15, "name": "Deslop", "ownerName": "brennerspear", "score": 95415.47277936962, "slug": "deslop", "source": "clawhub", "stars": 0, "tags": null, "updated_at": 1776748669990, "version": "1.0.0"}, {"category": "productivity", "created_at": 1772791632729, "description": "Helps verify the cryptographic integrity of skill updates by checking whether each version is signed by the same key as the original install, detecting key c...", "description_zh": "", "downloads": 333, "homepage": "https://clawhub.ai/andyxinweiminicloud/update-signature-verifier", "iconUrl": null, "installs": 7, "name": "Update Signature Verifier", "ownerName": "andyxinweiminicloud", "score": 95415.47277936962, "slug": "update-signature-verifier", "source": "clawhub", "stars": 0, "tags": null, "updated_at": 1776748669818, "version": "1.0.0"}, {"category": "security-compliance", "created_at": 1772794578774, "description": "Teaches OpenClaw agents to participate in authentic text-based Krump battles. Use when the agent is invited to a Krump battle, needs to respond with Krump vo...", "description_zh": "", "downloads": 333, "homepage": "https://clawhub.ai/arunnadarasa/krumpsocial", "iconUrl": null, "installs": 6, "name": "KrumpKlaw Social", "ownerName": "arunnadarasa", "score": 95415.47277936962, "slug": "krumpsocial", "source": "clawhub", "stars": 0, "tags": null, "updated_at": 1776748669793, "version": "0.1.16"}]}