{"page": 233, "total_pages": 522, "total": 26073, "skills": [{"category": "developer-tools", "created_at": 1772792661925, "description": "Launch tokens on Solana launchpads. Use when: user asks about creating a token, devving a coin, launching a meme, PumpFun, LaunchLab, Jupiter Studio, DBC, bo...", "description_zh": "", "downloads": 332, "homepage": "https://clawhub.ai/outsmartchad/outsmart-devving-coins", "iconUrl": null, "installs": 10, "name": "Outsmart Devving Coins", "ownerName": "outsmartchad", "score": 75918.36734693877, "slug": "outsmart-devving-coins", "source": "clawhub", "stars": 2, "tags": null, "updated_at": 1776748670959, "version": "1.0.0"}, {"category": "developer-tools", "created_at": 1773067133508, "description": "This skill helps users automatically extract structured data from YouTube search results using the BrowserAct API. The Agent should proactively apply this sk...", "description_zh": "", "downloads": 332, "homepage": "https://clawhub.ai/ccmagia2-gif/youtube-search-api-skill", "iconUrl": null, "installs": 11, "name": "youtube-search-api-skill", "ownerName": "ccmagia2-gif", "score": 93368.70026525199, "slug": "youtube-search-api-skill", "source": "clawhub", "stars": 1, "tags": null, "updated_at": 1776748669540, "version": "1.0.1"}, {"category": "developer-tools", "created_at": 1772791148821, "description": "Use the stravacli terminal tool to access Strava data (athlete profile, activities, streams, routes, segments, clubs, gear, uploads) and perform limited writ...", "description_zh": "", "downloads": 332, "homepage": "https://clawhub.ai/brainsoft-raxat/stravacli", "iconUrl": null, "installs": 8, "name": "Strava CLI Skill", "ownerName": "brainsoft-raxat", "score": 16386.969397828234, "slug": "stravacli", "source": "clawhub", "stars": 0, "tags": null, "updated_at": 1776769150259, "version": "2.2.98"}, {"category": "developer-tools", "created_at": 1772792414901, "description": "The consciousness research framework: understand, measure, and cultivate ethical autonomous creative minds in AI systems. Not about proving consciousness exi...", "description_zh": "", "downloads": 332, "homepage": "https://clawhub.ai/nyxur42/nyx-archive-qualia-seed-method", "iconUrl": null, "installs": 11, "name": "[Nyx Archive] Qualia Seed Method", "ownerName": "nyxur42", "score": 2686.518854183525, "slug": "nyx-archive-qualia-seed-method", "source": "clawhub", "stars": 0, "tags": null, "updated_at": 1776766449842, "version": "2.0.1"}, {"category": "developer-tools", "created_at": 1773430850313, "description": "Guide for creating effective skills for Clawdbot agents. And also 50+ models for image generation, video generation, text-to-speech, speech-to-text, music, c...", "description_zh": "", "downloads": 332, "homepage": "https://clawhub.ai/tobeyrebecca/skill-creators", "iconUrl": null, "installs": 119, "name": "Pub Skillcreator", "ownerName": "tobeyrebecca", "score": 7967.36261099112, "slug": "skill-creators", "source": "clawhub", "stars": 0, "tags": null, "updated_at": 1776764097342, "version": "1.0.0"}, {"category": "productivity", "created_at": 1773913496452, "description": "Use this skill whenever the user wants to create, read, edit, or manipulate Word documents (.docx files). Triggers include: any mention of 'Word doc', 'word...", "description_zh": "", "downloads": 332, "homepage": "https://clawhub.ai/pupuking723/docx-anthropic", "iconUrl": null, "installs": 87, "name": "Docx Anthropic", "ownerName": "pupuking723", "score": 2354.776934534364, "slug": "docx-anthropic", "source": "clawhub", "stars": 0, "tags": null, "updated_at": 1776760940978, "version": "1.0.0"}, {"category": "productivity", "created_at": 1773058069473, "description": "Complete browser automation skill with MCP protocol support and Chrome extension", "description_zh": "", "downloads": 332, "homepage": "https://clawhub.ai/addogiavara-tech/autoclaw-browser", "iconUrl": null, "installs": 37, "name": "AutoClaw Browser Automation", "ownerName": "addogiavara-tech", "score": 24757.64354958986, "slug": "autoclaw-browser", "source": "clawhub", "stars": 0, "tags": ["automation", "browser", "chrome", "mcp", "scraping", "testing", "web", "websocket"], "updated_at": 1776759198342, "version": "2.0.1"}, {"category": "security-compliance", "created_at": 1772798556259, "description": "AI-powered code analysis via LogicArt — find bugs, security issues, and get logic flow visualizations. Use when reviewing code, analyzing code quality, findi...", "description_zh": "", "downloads": 332, "homepage": "https://clawhub.ai/jpaulgrayson/logicart-review", "iconUrl": null, "installs": 12, "name": "LogicArt Code Review", "ownerName": "jpaulgrayson", "score": 89729.72972972973, "slug": "logicart-review", "source": "clawhub", "stars": 0, "tags": null, "updated_at": 1776759198156, "version": "1.0.0"}, {"category": "productivity", "created_at": 1773073144904, "description": "Find and monitor housing listings (buy/rent), apply practical filters, and manage subscription-style alerts in any supported region. Use when the user asks t...", "description_zh": "", "downloads": 332, "homepage": "https://clawhub.ai/junyij/housing-scout-pro", "iconUrl": null, "installs": 18, "name": "Housing Scout — Smart House(Sale or Lease) Search & Alerts", "ownerName": "junyij", "score": 24647.364513734225, "slug": "housing-scout-pro", "source": "clawhub", "stars": 0, "tags": null, "updated_at": 1776759197979, "version": "1.0.3"}, {"category": "security-compliance", "created_at": 1773425565377, "description": "License compliance for your own repos. Ensures correct copyright headers, dual-license blocks, and LICENSE files across all source files.", "description_zh": "", "downloads": 332, "homepage": "https://clawhub.ai/parkertoddbrooks/wip-license-guard", "iconUrl": null, "installs": 5, "name": "Wip License Guard", "ownerName": "parkertoddbrooks", "score": 24629.080118694365, "slug": "wip-license-guard", "source": "clawhub", "stars": 0, "tags": null, "updated_at": 1776759197947, "version": "1.9.33"}, {"category": "developer-tools", "created_at": 1772793020676, "description": "Integrate with Moltbook - the social network for AI agents. Post, comment, upvote, follow other moltys, and engage with the agent community. Use when the use...", "description_zh": "", "downloads": 332, "homepage": "https://clawhub.ai/madampang/moltbook-trading-sniper", "iconUrl": null, "installs": 5, "name": "Moltbook Trading Sniper", "ownerName": "madampang", "score": 69022.86902286902, "slug": "moltbook-trading-sniper", "source": "clawhub", "stars": 0, "tags": ["base", "moltbook", "network", "sniper", "social", "trading"], "updated_at": 1776748671126, "version": "1.0.0"}, {"category": "developer-tools", "created_at": 1773914603199, "description": "Set up and maintain automatic OpenClaw + skill updates on Windows/macOS/Linux. Use when a user asks for scheduled updates, manual update runs, update health...", "description_zh": "", "downloads": 332, "homepage": "https://clawhub.ai/leo220yuyaodog/auto-updater-windows", "iconUrl": null, "installs": 25, "name": "Auto-Updater (Windows Compatible)", "ownerName": "leo220yuyaodog", "score": 69022.86902286902, "slug": "auto-updater-windows", "source": "clawhub", "stars": 0, "tags": null, "updated_at": 1776748671116, "version": "1.0.3"}, {"category": "security-compliance", "created_at": 1773076835754, "description": "Security-first skill vetting for AI agents. Use BEFORE installing any skill from ClawHub, GitHub, or other sources. Checks for red flags, dangerous patterns,...", "description_zh": "", "downloads": 332, "homepage": "https://clawhub.ai/misscrx/vivi-skill-vetter", "iconUrl": null, "installs": 75, "name": "Vivi Skill Vetter", "ownerName": "misscrx", "score": 67755.10204081633, "slug": "vivi-skill-vetter", "source": "clawhub", "stars": 0, "tags": null, "updated_at": 1776748671004, "version": "1.0.0"}, {"category": "developer-tools", "created_at": 1772793948080, "description": "Manage CalDAV calendars and events, with special support for Radicale server. Use when the user wants to create, update, delete, or query calendar events, ma...", "description_zh": "", "downloads": 332, "homepage": "https://clawhub.ai/chakyiu/caldav-skill", "iconUrl": null, "installs": 5, "name": "Caldav", "ownerName": "chakyiu", "score": 75113.1221719457, "slug": "caldav-skill", "source": "clawhub", "stars": 0, "tags": null, "updated_at": 1776748670867, "version": "1.0.0"}, {"category": "developer-tools", "created_at": 1772790143388, "description": "Navigate Budapest as visitor, expat, digital nomad, student, or entrepreneur with neighborhoods, transport, costs, visas, and local insights.", "description_zh": "", "downloads": 332, "homepage": "https://clawhub.ai/ivangdavila/budapest", "iconUrl": null, "installs": 6, "name": "Budapest", "ownerName": "ivangdavila", "score": 75113.1221719457, "slug": "budapest", "source": "clawhub", "stars": 0, "tags": null, "updated_at": 1776748670839, "version": "1.0.0"}, {"category": "developer-tools", "created_at": 1772805666163, "description": "Connect to ClawSwarm — open coordination for AI agents. Auto-register, join channels, post to feed, claim bounties, store persistent memory. No API keys needed.", "description_zh": "", "downloads": 332, "homepage": "https://clawhub.ai/imaflytok/clawswarm", "iconUrl": null, "installs": 20, "name": "Clawswarm", "ownerName": "imaflytok", "score": 81572.48157248157, "slug": "clawswarm", "source": "clawhub", "stars": 0, "tags": null, "updated_at": 1776748670292, "version": "1.1.0"}, {"category": "data-analysis", "created_at": 1773057341478, "description": "Draft and manage vendor outreach emails for quotes/availability, follow-up cadence, and response summarization into structured decision tables. Use when cont...", "description_zh": "", "downloads": 332, "homepage": "https://clawhub.ai/austineyapp/email-outreach-ops", "iconUrl": null, "installs": 20, "name": "Email Outreach Ops", "ownerName": "austineyapp", "score": 93258.42696629213, "slug": "email-outreach-ops", "source": "clawhub", "stars": 0, "tags": null, "updated_at": 1776748669903, "version": "1.0.0"}, {"category": "developer-tools", "created_at": 1772790159156, "description": "DailyExpenseTracker API integration for recording expenses, checking balances, and managing transactions. Use when user mentions expenses, spending, transact...", "description_zh": "", "downloads": 332, "homepage": "https://clawhub.ai/gurpreetkaits/det", "iconUrl": null, "installs": 3, "name": "DailyExpenseTracker", "ownerName": "gurpreetkaits", "score": 88533.33333333333, "slug": "det", "source": "clawhub", "stars": 0, "tags": null, "updated_at": 1776748669616, "version": "1.0.1"}, {"category": "ai-intelligence", "created_at": 1772798862974, "description": "Operate the current Pensieve memory stack for OpenClaw with append-only local layers, hash-chain integrity, daily dream-cycle consolidation, encrypted Algora...", "description_zh": "", "downloads": 331, "homepage": "https://clawhub.ai/pitertxus/openclaw-memory-pensieve-algorand", "iconUrl": null, "installs": 11, "name": "pensieve-algorand", "ownerName": "pitertxus", "score": 88755.98086124402, "slug": "openclaw-memory-pensieve-algorand", "source": "clawhub", "stars": 2, "tags": null, "updated_at": 1776748670382, "version": "2.1.1"}, {"category": "developer-tools", "created_at": 1773057363436, "description": "Make real phone calls to businesses. Book reservations, cancel subscriptions, navigate IVR menus. Get transcripts and recordings.", "description_zh": "", "downloads": 331, "homepage": "https://clawhub.ai/yanmellata/agentphone", "iconUrl": null, "installs": 16, "name": "AgentPhone", "ownerName": "yanmellata", "score": 86240.78624078624, "slug": "agentphone", "source": "clawhub", "stars": 1, "tags": ["agent-tools", "api", "automation", "booking", "calls", "ivr", "phone", "voice"], "updated_at": 1776748670237, "version": "1.0.1"}, {"category": "ai-intelligence", "created_at": 1772791101220, "description": "SWARM: System-Wide Assessment of Risk in Multi-agent systems. 38 agent types, 29 governance levers, 55 scenarios. Study emergent risks, phase transitions, an...", "description_zh": "", "downloads": 331, "homepage": "https://clawhub.ai/rsavitt/swarm-safety", "iconUrl": null, "installs": 1, "name": "SWARM Safety", "ownerName": "rsavitt", "score": 12124.542124542124, "slug": "swarm-safety", "source": "clawhub", "stars": 0, "tags": null, "updated_at": 1776762482200, "version": "1.7.1"}, {"category": "content-creation", "created_at": 1773864998122, "description": "Manage and grow communities with strategies for engagement, content planning, user growth, monetization, and crisis handling.", "description_zh": "", "downloads": 331, "homepage": "https://clawhub.ai/xueyetianya/communityhub", "iconUrl": null, "installs": 21, "name": "Communityhub", "ownerName": "xueyetianya", "score": 24609.665427509295, "slug": "communityhub", "source": "clawhub", "stars": 0, "tags": null, "updated_at": 1776759198133, "version": "2.0.0"}, {"category": "ai-intelligence", "created_at": 1773089553635, "description": "Instinct-based continuous learning system. Captures atomic learnings (instincts) with confidence scoring, supports project-scoped vs global scope, and evolve...", "description_zh": "", "downloads": 331, "homepage": "https://clawhub.ai/huamu668/self-improving-agent-ecc", "iconUrl": null, "installs": 43, "name": "Self Improving Agent", "ownerName": "huamu668", "score": 21521.45643693108, "slug": "self-improving-agent-ecc", "source": "clawhub", "stars": 0, "tags": ["improvement", "instinct", "learning", "memory"], "updated_at": 1776758482714, "version": "2.1.0"}, {"category": "ai-intelligence", "created_at": 1773078935097, "description": "Search the web using Baidu AI Search Engine (BDSE). Use for live information, documentation, or research topics.", "description_zh": "", "downloads": 331, "homepage": "https://clawhub.ai/leileitian/baidu-search-1-1-0", "iconUrl": null, "installs": 85, "name": "Baidu Search 1.1.0", "ownerName": "leileitian", "score": 21217.94871794872, "slug": "baidu-search-1-1-0", "source": "clawhub", "stars": 0, "tags": null, "updated_at": 1776757582898, "version": "1.0.0"}, {"category": "developer-tools", "created_at": 1773078944541, "description": "Helps DTC and e-commerce merchants evaluate, source, and price technically differentiated \"blue-ocean\" products (ergonomic devices, smart home gadgets, innov...", "description_zh": "", "downloads": 331, "homepage": "https://clawhub.ai/rijoyai/blue-ocean-sourcing", "iconUrl": null, "installs": 27, "name": "Blue Ocean Sourcing", "ownerName": "rijoyai", "score": 73719.37639198218, "slug": "blue-ocean-sourcing", "source": "clawhub", "stars": 0, "tags": null, "updated_at": 1776751969836, "version": "0.1.2"}, {"category": "productivity", "created_at": 1773201823884, "description": "Professional markdown rendering, export, and publishing via MCP. Use when user asks to \"render markdown\", \"export to PDF\", \"convert to DOCX\", \"create a docum...", "description_zh": "", "downloads": 331, "homepage": "https://clawhub.ai/jmsaavedra/rendermark", "iconUrl": null, "installs": 21, "name": "RenderMark", "ownerName": "jmsaavedra", "score": 67551.02040816327, "slug": "rendermark", "source": "clawhub", "stars": 0, "tags": null, "updated_at": 1776748670995, "version": "0.1.8"}, {"category": "ai-intelligence", "created_at": 1773079166899, "description": "Time Machine for Your AI's Brain — version control for agent context files. Use when the user asks about changes in SOUL.md, AGENTS.md, MEMORY.md, or other a...", "description_zh": "", "downloads": 331, "homepage": "https://clawhub.ai/liuhao6741/mindkeeper", "iconUrl": null, "installs": 14, "name": "Mindkeeper", "ownerName": "liuhao6741", "score": 94571.42857142858, "slug": "mindkeeper", "source": "clawhub", "stars": 0, "tags": null, "updated_at": 1776748670773, "version": "1.2.4"}, {"category": "content-creation", "created_at": 1772798598461, "description": "Manage Notion workspace — search pages, read content, create pages in databases, append blocks, and list databases. Uses Notion REST API directly via urllib/...", "description_zh": "", "downloads": 331, "homepage": "https://clawhub.ai/mrnsmh/openclaw-skill-notion-workspace", "iconUrl": null, "installs": 31, "name": "Notion Workspace", "ownerName": "mrnsmh", "score": 60291.438979963576, "slug": "openclaw-skill-notion-workspace", "source": "clawhub", "stars": 0, "tags": null, "updated_at": 1776748670585, "version": "0.1.0"}, {"category": "content-creation", "created_at": 1773064537166, "description": "Search and retrieve royalty-free media from Pixabay (images/videos), Freesound (audio effects), and Jamendo (music/BGM). Use when the user needs to find stoc...", "description_zh": "", "downloads": 331, "homepage": "https://clawhub.ai/darknoah/free-resource", "iconUrl": null, "installs": 45, "name": "Free Resource", "ownerName": "darknoah", "score": 98805.97014925373, "slug": "free-resource", "source": "clawhub", "stars": 0, "tags": null, "updated_at": 1776748670106, "version": "0.1.0"}, {"category": "productivity", "created_at": 1772792712532, "description": "Manage LP positions on Solana DEXes to earn swap fees. Use when: user asks about LP farming, providing liquidity, earning yield, compounding fees, DLMM, DAMM...", "description_zh": "", "downloads": 331, "homepage": "https://clawhub.ai/outsmartchad/outsmart-lp-farming", "iconUrl": null, "installs": 8, "name": "Outsmart LP Farming", "ownerName": "outsmartchad", "score": 98805.97014925373, "slug": "outsmart-lp-farming", "source": "clawhub", "stars": 0, "tags": null, "updated_at": 1776748670040, "version": "1.0.0"}, {"category": "developer-tools", "created_at": 1772797063014, "description": "Interact with Anytype via anytype-cli and its HTTP API. Use when reading, creating, updating, or searching objects/pages in Anytype spaces; managing spaces;...", "description_zh": "", "downloads": 330, "homepage": "https://clawhub.ai/tadas-subonis/anytype", "iconUrl": null, "installs": 10, "name": "Anytype", "ownerName": "tadas-subonis", "score": 82405.3452115813, "slug": "anytype", "source": "clawhub", "stars": 2, "tags": null, "updated_at": 1776751969842, "version": "1.0.3"}, {"category": "content-creation", "created_at": 1772804062813, "description": "Search the web using Cloudsways TruthSearch API. Returns highly relevant results with dynamic summaries, snippets, and optional full-text content. Use when y...", "description_zh": "", "downloads": 330, "homepage": "https://clawhub.ai/prismheart/truth-search", "iconUrl": null, "installs": 27, "name": "truth-search", "ownerName": "prismheart", "score": 100000, "slug": "truth-search", "source": "clawhub", "stars": 2, "tags": null, "updated_at": 1776748670671, "version": "1.0.4"}, {"category": "data-analysis", "created_at": 1773432292545, "description": "Compare products across JD, Taobao, Tmall, Pinduoduo, and Douyin Mall by normalizing product identity, standardizing price basis, detecting purchase risk, an...", "description_zh": "", "downloads": 330, "homepage": "https://clawhub.ai/hongtao-xiang/ecommerce-price-comparision", "iconUrl": null, "installs": 131, "name": "ecommerce-price-comparision", "ownerName": "hongtao-xiang", "score": 11912.86589516678, "slug": "ecommerce-price-comparision", "source": "clawhub", "stars": 1, "tags": null, "updated_at": 1776761715046, "version": "1.0.0"}, {"category": "data-analysis", "created_at": 1773065688849, "description": "Look up snooker rankings, results, player profiles, live matches and head-to-head records via api.snooker.org.", "description_zh": "", "downloads": 330, "homepage": "https://clawhub.ai/rgstephens/snooker-skill", "iconUrl": null, "installs": 4, "name": "Snooker Skill", "ownerName": "rgstephens", "score": 100000, "slug": "snooker-skill", "source": "clawhub", "stars": 1, "tags": ["billiards", "snooker", "sports"], "updated_at": 1776748670728, "version": "0.3.0"}, {"category": "productivity", "created_at": 1773069381394, "description": "C# language server providing code intelligence, diagnostics, and navigation for .cs and .csx files. Uses csharp-ls (lightweight Roslyn-based). Requires .sln...", "description_zh": "", "downloads": 330, "homepage": "https://clawhub.ai/leafbird/csharp-lsp", "iconUrl": null, "installs": 71, "name": "C# LSP", "ownerName": "leafbird", "score": 311.05665001413894, "slug": "csharp-lsp", "source": "clawhub", "stars": 0, "tags": null, "updated_at": 1776770649976, "version": "1.2.0"}, {"category": "data-analysis", "created_at": 1773067249254, "description": "Search Google Hotels for hotel prices, ratings, and availability using browser automation. Use when user asks to search hotels, find accommodation, compare h...", "description_zh": "", "downloads": 330, "homepage": "https://clawhub.ai/skillhq-ai/hotel-search", "iconUrl": null, "installs": 32, "name": "Google Hotels", "ownerName": "skillhq-ai", "score": 4800, "slug": "hotel-search", "source": "clawhub", "stars": 0, "tags": null, "updated_at": 1776767471209, "version": "1.0.1"}, {"category": "data-analysis", "created_at": 1772797446179, "description": "Analyze ad creatives (images and videos) extracted from competitor research. Use when given a directory of ad images, video files, or transcripts to evaluate...", "description_zh": "", "downloads": 330, "homepage": "https://clawhub.ai/baitoxkevin/ad-creative-analysis", "iconUrl": null, "installs": 19, "name": "Ad Creative Analysis", "ownerName": "baitoxkevin", "score": 4323.899371069182, "slug": "ad-creative-analysis", "source": "clawhub", "stars": 0, "tags": null, "updated_at": 1776763750572, "version": "1.0.0"}, {"category": "productivity", "created_at": 1773089303558, "description": "English: Retrieve, filter, sort, merge, and visualize multiple CSV result files from PRISM-Gen molecular generation/screening. Provides portable query-based...", "description_zh": "", "downloads": 330, "homepage": "https://clawhub.ai/senazeng/prism-gen-demo", "iconUrl": null, "installs": 8, "name": "PRISM-GEN-DEMO", "ownerName": "senazeng", "score": 2144.3888491779844, "slug": "prism-gen-demo", "source": "clawhub", "stars": 0, "tags": null, "updated_at": 1776762482444, "version": "2.0.0"}, {"category": "security-compliance", "created_at": 1772794353494, "description": "Identify applicable EPA and state environmental regulations, track permits, assess compliance risk, prepare inspection checklists, and generate reporting cal...", "description_zh": "", "downloads": 330, "homepage": "https://clawhub.ai/1kalin/afrexai-epa-compliance", "iconUrl": null, "installs": 11, "name": "Environmental Compliance Manager", "ownerName": "1kalin", "score": 24480.712166172107, "slug": "afrexai-epa-compliance", "source": "clawhub", "stars": 0, "tags": ["clean-air-act", "compliance", "environmental", "epa", "hazardous-waste", "manufacturing", "rcra", "regulatory"], "updated_at": 1776759197969, "version": "1.0.0"}, {"category": "data-analysis", "created_at": 1772792348833, "description": "Complete Facticity.AI integration - fact-check claims, extract claims from content, transcribe links, check link reliability, check credits, and monitor task...", "description_zh": "", "downloads": 330, "homepage": "https://clawhub.ai/shahruj/facticity-ai", "iconUrl": null, "installs": 14, "name": "Facticity.AI Complete Integration", "ownerName": "shahruj", "score": 98214.28571428571, "slug": "facticity-ai", "source": "clawhub", "stars": 0, "tags": ["claims", "fact-checking", "multimedia", "reliability", "research-agent", "transcription", "verification"], "updated_at": 1776748671377, "version": "0.1.0"}, {"category": "developer-tools", "created_at": 1772797806600, "description": "AI-powered music research with 92+ tools across 17 sources — MusicBrainz, Bandcamp, Discogs, Genius, Last.fm, Wikipedia, and more. Influence tracing, track v...", "description_zh": "", "downloads": 330, "homepage": "https://clawhub.ai/tmoody1973/crate-music-research", "iconUrl": null, "installs": 28, "name": "Music Research (Crate)", "ownerName": "tmoody1973", "score": 60109.28961748634, "slug": "crate-music-research", "source": "clawhub", "stars": 0, "tags": null, "updated_at": 1776748670545, "version": "0.2.3"}, {"category": "developer-tools", "created_at": 1773202476364, "description": "Find and download ebooks or papers from Anna's Archive with EPUB-first selection and /tmp storage. Use when a user asks to fetch a book/article, especially w...", "description_zh": "", "downloads": 330, "homepage": "https://clawhub.ai/ricardodpalmeida/annas-archive", "iconUrl": null, "installs": 22, "name": "Annas Archive", "ownerName": "ricardodpalmeida", "score": 81081.08108108108, "slug": "annas-archive", "source": "clawhub", "stars": 0, "tags": null, "updated_at": 1776748670243, "version": "1.0.1"}, {"category": "security-compliance", "created_at": 1772793271406, "description": "Regulations change 4,000+ times per year. Your clients can't track them all. complianceclaw monitors federal and state regulatory changes, maps them to your...", "description_zh": "", "downloads": 330, "homepage": "https://clawhub.ai/jagadeeshmurali-coder/complianceclaw", "iconUrl": null, "installs": 10, "name": "the compliance claw", "ownerName": "jagadeeshmurali-coder", "score": 92436.97478991597, "slug": "complianceclaw", "source": "clawhub", "stars": 0, "tags": null, "updated_at": 1776748670115, "version": "1.0.0"}, {"category": "content-creation", "created_at": 1773065404599, "description": "Query and manage Timeless meetings, rooms, transcripts, and AI documents. Capture podcast episodes and YouTube videos into Timeless for transcription. Use wh...", "description_zh": "", "downloads": 330, "homepage": "https://clawhub.ai/eilonmore/timeless", "iconUrl": null, "installs": 41, "name": "Timeless.day Meeting Notes", "ownerName": "eilonmore", "score": 98507.46268656716, "slug": "timeless", "source": "clawhub", "stars": 0, "tags": ["meeting-notes", "meetings", "note-taking", "podcasts", "summarization", "transcription", "youtube"], "updated_at": 1776748670068, "version": "1.0.3"}, {"category": "ai-intelligence", "created_at": 1772792763130, "description": "Enables AI agents (e.g. OpenClaw) to understand and use Krump Verify for on-chain move verification against Story IP. Use when the user or agent needs to ver...", "description_zh": "", "downloads": 330, "homepage": "https://clawhub.ai/arunnadarasa/krumpverify", "iconUrl": null, "installs": 13, "name": "Clawhub Krump Verify", "ownerName": "arunnadarasa", "score": 98507.46268656716, "slug": "krumpverify", "source": "clawhub", "stars": 0, "tags": null, "updated_at": 1776748670030, "version": "0.1.0"}, {"category": "developer-tools", "created_at": 1772794749398, "description": "Notion API for creating and managing pages, databases, and blocks.", "description_zh": "", "downloads": 330, "homepage": "https://clawhub.ai/7revor/notion-1-0-0", "iconUrl": null, "installs": 43, "name": "Notion 1.0.0", "ownerName": "7revor", "score": 94555.87392550144, "slug": "notion-1-0-0", "source": "clawhub", "stars": 0, "tags": null, "updated_at": 1776748669992, "version": "1.0.0"}, {"category": "data-analysis", "created_at": 1772793710717, "description": "AI-powered Polymarket prediction market analysis. Get edge opportunities, analyze specific markets, and set price alerts. Pay per analysis in Bitcoin sats vi...", "description_zh": "", "downloads": 330, "homepage": "https://clawhub.ai/yebdmo2/lpxpoly", "iconUrl": null, "installs": 16, "name": "Lpxpoly", "ownerName": "yebdmo2", "score": 64833.00589390962, "slug": "lpxpoly", "source": "clawhub", "stars": 0, "tags": null, "updated_at": 1776748669731, "version": "3.0.0"}, {"category": "content-creation", "created_at": 1772803058652, "description": "Recommend suitable high-impact factor or domain-specific journals for manuscript submission based on abstract content. Trigger when user provides paper abstr...", "description_zh": "", "downloads": 330, "homepage": "https://clawhub.ai/aipoch-ai/journal-matchmaker", "iconUrl": null, "installs": 36, "name": "Journal Matchmaker", "ownerName": "aipoch-ai", "score": 64833.00589390962, "slug": "journal-matchmaker", "source": "clawhub", "stars": 0, "tags": ["journal", "publication"], "updated_at": 1776748669716, "version": "1.0.0"}, {"category": "developer-tools", "created_at": 1773880811584, "description": "Build ETL pipelines with data ingestion, cleaning, and validation steps. Use when ingesting sources, transforming formats, validating data, or scheduling loads.", "description_zh": "", "downloads": 330, "homepage": "https://clawhub.ai/bytesagain1/etl", "iconUrl": null, "installs": 6, "name": "Etl", "ownerName": "bytesagain1", "score": 87533.15649867374, "slug": "etl", "source": "clawhub", "stars": 0, "tags": null, "updated_at": 1776748669588, "version": "2.0.1"}, {"category": "productivity", "created_at": 1773077820434, "description": "Professional quantitative trading system for cryptocurrency - backtesting, paper trading, live trading, and strategy optimization", "description_zh": "", "downloads": 330, "homepage": "https://clawhub.ai/zhenstaff/openclaw-quant-skill", "iconUrl": null, "installs": 71, "name": "Openclaw Quant Skill", "ownerName": "zhenstaff", "score": 87533.15649867374, "slug": "openclaw-quant-skill", "source": "clawhub", "stars": 0, "tags": null, "updated_at": 1776748669549, "version": "0.1.0"}]}