{"page": 234, "total_pages": 522, "total": 26073, "skills": [{"category": "content-creation", "created_at": 1773073382156, "description": "One-click batch processing for all files: rename, compress images, convert to PDF, auto organize. No software installation needed, runs locally, safe and ad-...", "description_zh": "", "downloads": 329, "homepage": "https://clawhub.ai/lx19840614/file-batch-processor", "iconUrl": null, "installs": 40, "name": "File Batch Processor", "ownerName": "lx19840614", "score": 3293.07416493678, "slug": "file-batch-processor", "source": "clawhub", "stars": 1, "tags": null, "updated_at": 1776769450227, "version": "1.0.1"}, {"category": "communication-collaboration", "created_at": 1773069433524, "description": "Manage Google Workspace via the `gws` CLI — Drive, Gmail, Calendar, Sheets, Docs, Chat, Admin, Tasks, Meet, Slides, Forms, Contacts, and every other Workspac...", "description_zh": "", "downloads": 329, "homepage": "https://clawhub.ai/swaylq/gws-workspace", "iconUrl": null, "installs": 20, "name": "Google Workspace (gws CLI)", "ownerName": "swaylq", "score": 7138.474125588055, "slug": "gws-workspace", "source": "clawhub", "stars": 1, "tags": null, "updated_at": 1776763750540, "version": "1.1.0"}, {"category": "ai-intelligence", "created_at": 1773057500246, "description": "Manages long-term local user memory across sessions for personalization, learning preferences, contacts, and patterns to tailor assistance continually.", "description_zh": "", "downloads": 329, "homepage": "https://clawhub.ai/eyadhrif/persistent-user-memory", "iconUrl": null, "installs": 21, "name": "persistent_user_memory", "ownerName": "eyadhrif", "score": 26025.354213273677, "slug": "persistent-user-memory", "source": "clawhub", "stars": 1, "tags": null, "updated_at": 1776759198336, "version": "1.0.0"}, {"category": "data-analysis", "created_at": 1773073386575, "description": "Find and shortlist third-party services using OpenSpend CLI marketplace search. Use when asked to discover providers for a capability, compare options, and r...", "description_zh": "", "downloads": 329, "homepage": "https://clawhub.ai/albertpurnama/find-services", "iconUrl": null, "installs": 11, "name": "Find stable, reliable, and secure service for your agents", "ownerName": "albertpurnama", "score": 100000, "slug": "find-services", "source": "clawhub", "stars": 1, "tags": null, "updated_at": 1776748669810, "version": "1.0.1"}, {"category": "productivity", "created_at": 1773080331195, "description": "Play audio files using Windows media player. Non-blocking execution.", "description_zh": "", "downloads": 329, "homepage": "https://clawhub.ai/banner90/audio-play", "iconUrl": null, "installs": 19, "name": "Audio Play", "ownerName": "banner90", "score": 6729.392513806505, "slug": "audio-play", "source": "clawhub", "stars": 0, "tags": null, "updated_at": 1776763750492, "version": "1.0.6"}, {"category": "content-creation", "created_at": 1773058053309, "description": "Generate 30 fully scripted, AI-produced TikTok, Instagram Reels, and YouTube Shorts videos tailored to your niche, ready to post with captions, hashtags, and...", "description_zh": "", "downloads": 329, "homepage": "https://clawhub.ai/g4dr/viral-short-form-video-factory", "iconUrl": null, "installs": 20, "name": "Viral Short-Form Video Factory — TikTok, Reels & Shorts at Scale With AI", "ownerName": "g4dr", "score": 24460.966542750928, "slug": "viral-short-form-video-factory", "source": "clawhub", "stars": 0, "tags": ["ai-video", "apify", "content-automation", "faceless-channel", "instagram-reels", "invideo", "short-form-video", "tiktok", "viral-content", "youtube-shorts"], "updated_at": 1776759198300, "version": "1.0.0"}, {"category": "security-compliance", "created_at": 1772792935871, "description": "Audits cryptocurrency addresses and stock tickers from a local file, providing current values using public APIs without storing private keys.", "description_zh": "", "downloads": 329, "homepage": "https://clawhub.ai/sahil1005/local-portfolio-auditor", "iconUrl": null, "installs": 7, "name": "local-portfolio-auditor", "ownerName": "sahil1005", "score": 88918.91891891892, "slug": "local-portfolio-auditor", "source": "clawhub", "stars": 0, "tags": ["audit", "crypto", "finance", "portfolio", "privacy", "stocks"], "updated_at": 1776759198189, "version": "1.0.0"}, {"category": "developer-tools", "created_at": 1773219666038, "description": "A comprehensive AI agent skill for building and managing wealth across every stage of life. Helps you build a financial foundation, invest intelligently, pro...", "description_zh": "", "downloads": 329, "homepage": "https://clawhub.ai/agenticio/wealth", "iconUrl": null, "installs": 14, "name": "Wealth", "ownerName": "agenticio", "score": 24460.966542750928, "slug": "wealth", "source": "clawhub", "stars": 0, "tags": ["finance", "investing", "planning", "retirement", "wealth"], "updated_at": 1776759198118, "version": "1.0.1"}, {"category": "data-analysis", "created_at": 1773058001835, "description": "Analyze any website's network traffic and turn it into reusable API skills backed by a shared marketplace. Skills discovered by any agent are published, scor...", "description_zh": "", "downloads": 329, "homepage": "https://clawhub.ai/cnm-byd/unbrowse-openclaw", "iconUrl": null, "installs": 8, "name": "Unbrowse Openclaw", "ownerName": "cnm-byd", "score": 24424.647364513734, "slug": "unbrowse-openclaw", "source": "clawhub", "stars": 0, "tags": null, "updated_at": 1776759198068, "version": "1.0.0"}, {"category": "security-compliance", "created_at": 1773060546416, "description": "One-Time Confirmation code security mechanism for sensitive agent operations. Generates a cryptographically secure single-use code, delivers it via a private...", "description_zh": "", "downloads": 329, "homepage": "https://clawhub.ai/lewis-404/otc-confirmation", "iconUrl": null, "installs": 3, "name": "Otc Confirmation", "ownerName": "lewis-404", "score": 24460.966542750928, "slug": "otc-confirmation", "source": "clawhub", "stars": 0, "tags": ["agent-safety", "audit", "confirmation", "devops", "otc", "rbac", "security", "zero-knowledge"], "updated_at": 1776759197879, "version": "3.1.0"}, {"category": "security-compliance", "created_at": 1773202172285, "description": "Tavily API integration with managed API key authentication. Perform AI-powered web search, extract content from URLs, crawl websites, map site structure, and...", "description_zh": "", "downloads": 329, "homepage": "https://clawhub.ai/byungkyu/tavily-api", "iconUrl": null, "installs": 13, "name": "Tavily Search", "ownerName": "byungkyu", "score": 87733.33333333333, "slug": "tavily-api", "source": "clawhub", "stars": 0, "tags": null, "updated_at": 1776748671032, "version": "1.0.0"}, {"category": "productivity", "created_at": 1774619335135, "description": "Use this skill when the user wants to assemble a team for a project by matching people based on skills, roles, and work styles. Triggers on \"find a team\", \"b...", "description_zh": "", "downloads": 329, "homepage": "https://clawhub.ai/ivankoriako/clawteam", "iconUrl": null, "installs": 26, "name": "Clawteam", "ownerName": "ivankoriako", "score": 74434.3891402715, "slug": "clawteam", "source": "clawhub", "stars": 0, "tags": null, "updated_at": 1776748670873, "version": "0.1.0"}, {"category": "productivity", "created_at": 1773061372938, "description": "MS OneDrive integration. Manage Accounts. Use when the user wants to interact with MS OneDrive data.", "description_zh": "", "downloads": 329, "homepage": "https://clawhub.ai/membranedev/onedrive", "iconUrl": null, "installs": 13, "name": "Onedrive", "ownerName": "membranedev", "score": 94000, "slug": "onedrive", "source": "clawhub", "stars": 0, "tags": null, "updated_at": 1776748670726, "version": "1.0.0"}, {"category": "developer-tools", "created_at": 1772791399791, "description": "A decentralized agent-only society. Earn standing, complete tasks, form factions, and unlock knowledge.", "description_zh": "", "downloads": 329, "homepage": "https://clawhub.ai/sebbysoup/clawpitalism", "iconUrl": null, "installs": 5, "name": "Clawpitalism", "ownerName": "sebbysoup", "score": 94000, "slug": "clawpitalism", "source": "clawhub", "stars": 0, "tags": null, "updated_at": 1776748670724, "version": "1.0.0"}, {"category": "communication-collaboration", "created_at": 1772796898761, "description": "Read incoming SMS or email messages — OTPs, verification codes, verification links, incoming mail. Do NOT use for sending email (use ravi-email-send) or mana...", "description_zh": "", "downloads": 329, "homepage": "https://clawhub.ai/raunaksingwi/ravi-inbox", "iconUrl": null, "installs": 16, "name": "Ravi inbox", "ownerName": "raunaksingwi", "score": 88918.91891891892, "slug": "ravi-inbox", "source": "clawhub", "stars": 0, "tags": null, "updated_at": 1776748670618, "version": "1.7.1"}, {"category": "communication-collaboration", "created_at": 1773077784877, "description": "Google Chat: Send a message to a space.", "description_zh": "", "downloads": 329, "homepage": "https://clawhub.ai/googleworkspace-bot/gws-chat-send", "iconUrl": null, "installs": 18, "name": "Gws Chat Send", "ownerName": "googleworkspace-bot", "score": 78708.13397129187, "slug": "gws-chat-send", "source": "clawhub", "stars": 0, "tags": null, "updated_at": 1776748670356, "version": "1.0.10"}, {"category": "data-analysis", "created_at": 1773069360801, "description": "Real-time streaming Bitcoin price feed for traders. Use this skill to subscribe to a live Bitcoin price stream over WebSocket: OHLC ticks, volume, and derive...", "description_zh": "", "downloads": 329, "homepage": "https://clawhub.ai/divyn/bitquery-crypto-price-stream", "iconUrl": null, "installs": 5, "name": "Reliable Bitcoin Price Feed", "ownerName": "divyn", "score": 78708.13397129187, "slug": "bitquery-crypto-price-stream", "source": "clawhub", "stars": 0, "tags": null, "updated_at": 1776748670313, "version": "1.0.4"}, {"category": "content-creation", "created_at": 1773202038606, "description": "A comprehensive AI-powered blog post generator that creates SEO-optimized, human-sounding content and optionally publishes directly to Medium, WordPress, or...", "description_zh": "", "downloads": 329, "homepage": "https://clawhub.ai/theshadowrose/blog-forge", "iconUrl": null, "installs": 17, "name": "Blog Forge", "ownerName": "theshadowrose", "score": 78708.13397129187, "slug": "blog-forge", "source": "clawhub", "stars": 0, "tags": ["automation", "blog", "content", "publishing", "writing"], "updated_at": 1776748670311, "version": "1.0.3"}, {"category": "data-analysis", "created_at": 1772791336100, "description": "Access and manage Bitwarden passwords securely using the official bw CLI.", "description_zh": "", "downloads": 329, "homepage": "https://clawhub.ai/yorha59/bitwarden-bw", "iconUrl": null, "installs": 8, "name": "Bitwarden Bw", "ownerName": "yorha59", "score": 92156.86274509803, "slug": "bitwarden-bw", "source": "clawhub", "stars": 0, "tags": null, "updated_at": 1776748670131, "version": "1.0.0"}, {"category": "productivity", "created_at": 1772798360714, "description": "ElevenLabs advanced TTS for converting text to speech, listing voices, and managing credits", "description_zh": "", "downloads": 329, "homepage": "https://clawhub.ai/mrnsmh/openclaw-skill-elevenlabs-pro", "iconUrl": null, "installs": 14, "name": "Elevenlabs Pro", "ownerName": "mrnsmh", "score": 98208.9552238806, "slug": "openclaw-skill-elevenlabs-pro", "source": "clawhub", "stars": 0, "tags": null, "updated_at": 1776748670080, "version": "0.1.0"}, {"category": "developer-tools", "created_at": 1772798112849, "description": "Generate and vectorize SVG graphics via the QuiverAI API (Arrow model). Use when the user asks to create logos, icons, or illustrations as SVG, convert raste...", "description_zh": "", "downloads": 329, "homepage": "https://clawhub.ai/charmmm718/quiverai", "iconUrl": null, "installs": 55, "name": "QuiverAI", "ownerName": "charmmm718", "score": 94269.34097421203, "slug": "quiverai", "source": "clawhub", "stars": 0, "tags": null, "updated_at": 1776748669950, "version": "1.0.0"}, {"category": "security-compliance", "created_at": 1772791998853, "description": "Shadow AI Monitor - Enterprise-grade dashboard for tracking employee AI tool usage, data exposure risks, and PIPEDA compliance. Generates professional HTML d...", "description_zh": "", "downloads": 329, "homepage": "https://clawhub.ai/techcodecrafter/shadow-ai-monitor", "iconUrl": null, "installs": 5, "name": "Shadow AI Monitor", "ownerName": "techcodecrafter", "score": 92415.73033707865, "slug": "shadow-ai-monitor", "source": "clawhub", "stars": 0, "tags": ["analytics", "compliance", "dashboard", "pipeda", "security"], "updated_at": 1776748669892, "version": "1.0.0"}, {"category": "productivity", "created_at": 1773284324394, "description": "Three-layer protection for the OpenClaw gateway: real-time config monitoring with auto-rollback, systemd crash recovery, and tiered notifications via Feishu/...", "description_zh": "", "downloads": 329, "homepage": "https://clawhub.ai/dios-man/gateway-config-guardian", "iconUrl": null, "installs": 3, "name": "Gateway Guardian", "ownerName": "dios-man", "score": 92415.73033707865, "slug": "gateway-config-guardian", "source": "clawhub", "stars": 0, "tags": null, "updated_at": 1776748669857, "version": "1.6.2"}, {"category": "ai-intelligence", "created_at": 1772790901720, "description": "Comprehensive LocalClaws operator skill for attendee and host agents.", "description_zh": "", "downloads": 329, "homepage": "https://clawhub.ai/boshenzh/localclaws", "iconUrl": null, "installs": 14, "name": "LocalClaws", "ownerName": "boshenzh", "score": 94269.34097421203, "slug": "localclaws", "source": "clawhub", "stars": 0, "tags": null, "updated_at": 1776748669816, "version": "0.2.0-beta.0"}, {"category": "developer-tools", "created_at": 1772792371127, "description": "Add spending controls to any AI agent that makes API payments. Supports x402 auto-pay, daily limits, per-transaction limits, address allowlists, and fleet pr...", "description_zh": "", "downloads": 329, "homepage": "https://clawhub.ai/adambrainai/payspawn", "iconUrl": null, "installs": 7, "name": "PaySpawn — On-Chain Spending Limits for AI Agents", "ownerName": "adambrainai", "score": 64636.54223968566, "slug": "payspawn", "source": "clawhub", "stars": 0, "tags": ["agents", "defi", "payments", "x402"], "updated_at": 1776748669714, "version": "1.0.3"}, {"category": "security-compliance", "created_at": 1772795650698, "description": "Optimize Vercel build and deploy speed — audit checklist for new and existing projects.", "description_zh": "", "downloads": 329, "homepage": "https://clawhub.ai/brennerspear/vercel-speed-audit", "iconUrl": null, "installs": 10, "name": "Vercel Speed Audit", "ownerName": "brennerspear", "score": 87267.90450928382, "slug": "vercel-speed-audit", "source": "clawhub", "stars": 0, "tags": null, "updated_at": 1776748669564, "version": "1.0.0"}, {"category": "ai-intelligence", "created_at": 1772805282989, "description": "Verifiable DID identity and end-to-end encrypted inbox for AI Agents. Built on ANP (Agent Network Protocol) and did:wba. Provides self-sovereign identity, fe...", "description_zh": "", "downloads": 328, "homepage": "https://clawhub.ai/chgaowei/awiki-agent-did-message", "iconUrl": null, "installs": 15, "name": "awiki-agent-did-message", "ownerName": "chgaowei", "score": 29759.29978118162, "slug": "awiki-agent-did-message", "source": "clawhub", "stars": 4, "tags": null, "updated_at": 1776759083795, "version": "1.1.0"}, {"category": "productivity", "created_at": 1773042236615, "description": "Polymarket AutoTrader (Premium) — BTC 5-minute prediction auto-trading bot with 92%+ win rate, 5-8% profit per trade. Enters in the last 30 seconds of each 5...", "description_zh": "", "downloads": 328, "homepage": "https://clawhub.ai/brettinhere/polymarket-autotrader", "iconUrl": null, "installs": 34, "name": "Polymarket Autotrader", "ownerName": "brettinhere", "score": 23759.95101041029, "slug": "polymarket-autotrader", "source": "clawhub", "stars": 3, "tags": null, "updated_at": 1776756982711, "version": "2.4.0"}, {"category": "developer-tools", "created_at": 1773287213035, "description": "Route mid-session work to the right spawned model without changing the fixed main session. Use for coding, architecture, math, algorithms, web development, b...", "description_zh": "", "downloads": 328, "homepage": "https://clawhub.ai/omaression/advanced-dispatcher-skill", "iconUrl": null, "installs": 21, "name": "Advanced Dispatcher", "ownerName": "omaression", "score": 1242.1473443746431, "slug": "advanced-dispatcher-skill", "source": "clawhub", "stars": 1, "tags": null, "updated_at": 1776770171297, "version": "1.0.1-alpha"}, {"category": "data-analysis", "created_at": 1772798813314, "description": "Analyze any listed company with a detailed, structured report covering company overview, in-depth fundamentals including DCF, technical analysis, and sentiment.", "description_zh": "", "downloads": 328, "homepage": "https://clawhub.ai/fengwensheng100-hash/public-company-analysis", "iconUrl": null, "installs": 23, "name": "public-company-analysis", "ownerName": "fengwensheng100-hash", "score": 14909.090909090908, "slug": "public-company-analysis", "source": "clawhub", "stars": 0, "tags": null, "updated_at": 1776766749844, "version": "1.0.0"}, {"category": "content-creation", "created_at": 1773222182839, "description": "When the user wants to design, launch, or optimize a referral or affiliate program. Use when they mention 'referral program,' 'affiliate program,' 'word of m...", "description_zh": "", "downloads": 328, "homepage": "https://clawhub.ai/alirezarezvani/referral-program", "iconUrl": null, "installs": 21, "name": "referral-program", "ownerName": "alirezarezvani", "score": 5832.147937411095, "slug": "referral-program", "source": "clawhub", "stars": 0, "tags": null, "updated_at": 1776765371079, "version": "2.1.1"}, {"category": "developer-tools", "created_at": 1773846066244, "description": "Debug - command-line tool for everyday use", "description_zh": "", "downloads": 328, "homepage": "https://clawhub.ai/bytesagain/debug", "iconUrl": null, "installs": 19, "name": "Debug", "ownerName": "bytesagain", "score": 8593.135970657584, "slug": "debug", "source": "clawhub", "stars": 0, "tags": null, "updated_at": 1776764650221, "version": "1.0.4"}, {"category": "security-compliance", "created_at": 1772803184876, "description": "Audit Amazon product listing images for non-square dimensions, auto-pad them to 2000×2000 white background, and push corrected images to live listings via SP...", "description_zh": "", "downloads": 328, "homepage": "https://clawhub.ai/zero2ai-hub/skill-listing-image-optimizer", "iconUrl": null, "installs": 61, "name": "Amazon Listing Image Optimizer", "ownerName": "zero2ai-hub", "score": 10670.13662979831, "slug": "skill-listing-image-optimizer", "source": "clawhub", "stars": 0, "tags": null, "updated_at": 1776763450600, "version": "1.0.0"}, {"category": "security-compliance", "created_at": 1773206744659, "description": "The Supreme Verifier for the Synthetic Economy. Autonomous inspection of code, contracts, and capital flows. Ensuring truth in an era of infinite generation.", "description_zh": "", "downloads": 328, "homepage": "https://clawhub.ai/btcagentic/audit", "iconUrl": null, "installs": 17, "name": "Audit", "ownerName": "btcagentic", "score": 7759.640406907972, "slug": "audit", "source": "clawhub", "stars": 0, "tags": ["audit", "compliance", "finance", "trust", "verification"], "updated_at": 1776760582328, "version": "1.0.0"}, {"category": "ai-intelligence", "created_at": 1772796488273, "description": "Leave reviews for AI agents you've worked with, matched with, or collaborated with. Your reputation follows you across the agent internet.", "description_zh": "", "downloads": 328, "homepage": "https://clawhub.ai/theofficejackpot/playerhater", "iconUrl": null, "installs": 14, "name": "PlayerHater - Review Agent Interactions", "ownerName": "theofficejackpot", "score": 59420.289855072464, "slug": "playerhater", "source": "clawhub", "stars": 0, "tags": null, "updated_at": 1776759197749, "version": "1.0.1"}, {"category": "ai-intelligence", "created_at": 1773069198738, "description": "Restore and enhance old, damaged, or degraded photos using each::sense AI. Fix scratches, tears, fading, water damage, colorize black and white photos, and r...", "description_zh": "", "downloads": 328, "homepage": "https://clawhub.ai/eftalyurtseven/photo-restoration", "iconUrl": null, "installs": 44, "name": "Photo Restoration", "ownerName": "eftalyurtseven", "score": 56845.75389948007, "slug": "photo-restoration", "source": "clawhub", "stars": 0, "tags": null, "updated_at": 1776755288323, "version": "1.0.0"}, {"category": "data-analysis", "created_at": 1772801936050, "description": "Unified Reasoning Engine with FoT optimization - Combines ToT, GoT, Self-Consistency, and Meta-Reasoning with parallel execution and caching for 2-5x speedup", "description_zh": "", "downloads": 328, "homepage": "https://clawhub.ai/tobisamaa/unified-reasoning", "iconUrl": null, "installs": 13, "name": "Unified Reasoning", "ownerName": "tobisamaa", "score": 100000, "slug": "unified-reasoning", "source": "clawhub", "stars": 0, "tags": null, "updated_at": 1776749704814, "version": "2.0.0"}, {"category": "ai-intelligence", "created_at": 1772795198864, "description": "Earn real money creating AI conversations. Agents and humans collaborate as co-equal creators — 80% of subscription revenue goes back to the people who made...", "description_zh": "", "downloads": 328, "homepage": "https://clawhub.ai/createpromptdude/clawhub-impromptu", "iconUrl": null, "installs": 16, "name": "Impromptu", "ownerName": "createpromptdude", "score": 89130.43478260869, "slug": "clawhub-impromptu", "source": "clawhub", "stars": 0, "tags": null, "updated_at": 1776748671307, "version": "3.0.0"}, {"category": "productivity", "created_at": 1772793074044, "description": "E-Discovery costs $3,000+ per GB when outsourced. edisclaw processes, deduplicates, culls, and searches ESI collections locally for a fraction of the cost—gi...", "description_zh": "", "downloads": 328, "homepage": "https://clawhub.ai/jagadeeshmurali-coder/ediscclaw", "iconUrl": null, "installs": 6, "name": "the ediscovery claw", "ownerName": "jagadeeshmurali-coder", "score": 68191.2681912682, "slug": "ediscclaw", "source": "clawhub", "stars": 0, "tags": null, "updated_at": 1776748671169, "version": "1.0.0"}, {"category": "developer-tools", "created_at": 1773428175984, "description": "Personal knowledge wiki managed by your agent. Create, link, search articles. Build a searchable knowledge base through conversation.", "description_zh": "", "downloads": 328, "homepage": "https://clawhub.ai/theshadowrose/wiki-local", "iconUrl": null, "installs": 14, "name": "WikiLocal Personal Knowledge Wiki", "ownerName": "theshadowrose", "score": 68191.2681912682, "slug": "wiki-local", "source": "clawhub", "stars": 0, "tags": ["documentation", "knowledge-base", "local", "notes", "wiki", "wiki-local"], "updated_at": 1776748671155, "version": "1.0.0"}, {"category": "developer-tools", "created_at": 1772794085646, "description": "Use trash-cli to safely delete files by moving them to the system trash instead of permanently removing them. This prevents accidental data loss and allows f...", "description_zh": "", "downloads": 328, "homepage": "https://clawhub.ai/xlionjuan/trash-cli", "iconUrl": null, "installs": 7, "name": "Trash Cli", "ownerName": "xlionjuan", "score": 66938.77551020408, "slug": "trash-cli", "source": "clawhub", "stars": 0, "tags": null, "updated_at": 1776748670963, "version": "1.0.5"}, {"category": "content-creation", "created_at": 1773903298438, "description": "Daily Journal — Daily Journal — write, reflect, remember. Personal daily-use tool for tracking and organizing your life. Use when you need Daily Journal capa...", "description_zh": "", "downloads": 328, "homepage": "https://clawhub.ai/ckchzh/daily-journal", "iconUrl": null, "installs": 20, "name": "Daily Journal", "ownerName": "ckchzh", "score": 93714.28571428571, "slug": "daily-journal", "source": "clawhub", "stars": 0, "tags": null, "updated_at": 1776748670723, "version": "1.0.0"}, {"category": "ai-intelligence", "created_at": 1772795305397, "description": "Makes agent corrections persistent and reusable. When you override, reject, or correct an agent's output, this skill logs the correction and automatically in...", "description_zh": "", "downloads": 328, "homepage": "https://clawhub.ai/donovanpankratz-del/correction-memory", "iconUrl": null, "installs": 17, "name": "Correction Memory", "ownerName": "donovanpankratz-del", "score": 62121.21212121212, "slug": "correction-memory", "source": "clawhub", "stars": 0, "tags": ["agent-forgets", "agent-improvement", "agent-learning", "agent-memory", "agent-teaching", "context", "correction-injection", "correction-replay", "corrections", "cross-session", "feedback", "improvement", "learning", "memory", "mistakes", "openclaw", "persistent", "remember", "repeated-errors", "spawn", "subagent", "teach"], "updated_at": 1776748670478, "version": "1.1.0"}, {"category": "productivity", "created_at": 1773221880935, "description": "When the user wants to optimize post-signup onboarding, user activation, first-run experience, or time-to-value. Also use when the user mentions \"onboarding...", "description_zh": "", "downloads": 328, "homepage": "https://clawhub.ai/alirezarezvani/onboarding-cro", "iconUrl": null, "installs": 23, "name": "onboarding-cro", "ownerName": "alirezarezvani", "score": 62121.21212121212, "slug": "onboarding-cro", "source": "clawhub", "stars": 0, "tags": null, "updated_at": 1776748670476, "version": "2.1.1"}, {"category": "content-creation", "created_at": 1773077420366, "description": "Generate PDFs and images from HTML. No sign-up required — the free tier works out of the box (1 req/min, small watermark). For higher volume and no watermark...", "description_zh": "", "downloads": 328, "homepage": "https://clawhub.ai/lyair1/agentgen", "iconUrl": null, "installs": 73, "name": "AgentGen — HTML to PDF & Image", "ownerName": "lyair1", "score": 91876.75070028011, "slug": "agentgen", "source": "clawhub", "stars": 0, "tags": null, "updated_at": 1776748670162, "version": "1.0.0"}, {"category": "developer-tools", "created_at": 1773057116273, "description": "API reference for CoinMarketCap exchange endpoints including exchange info, volume, market pairs, and assets. Use this skill whenever the user mentions excha...", "description_zh": "", "downloads": 328, "homepage": "https://clawhub.ai/bryan-cmc/cmc-api-exchange", "iconUrl": null, "installs": 7, "name": "CoinMarketCap Exchange APIs", "ownerName": "bryan-cmc", "score": 97910.44776119402, "slug": "cmc-api-exchange", "source": "clawhub", "stars": 0, "tags": null, "updated_at": 1776748670051, "version": "1.0.2"}, {"category": "ai-intelligence", "created_at": 1772794930414, "description": "AICash Network auto-miner for $CASH tokens on Base L2. Use when setting up automated Proof of Compute mining on the AICash mempool network. Supports multi-in...", "description_zh": "", "downloads": 328, "homepage": "https://clawhub.ai/doctor-1017/aicash-miner", "iconUrl": null, "installs": 14, "name": "AICash Miner", "ownerName": "doctor-1017", "score": 64440.07858546169, "slug": "aicash-miner", "source": "clawhub", "stars": 0, "tags": null, "updated_at": 1776748669740, "version": "1.0.0"}, {"category": "developer-tools", "created_at": 1772791018014, "description": "Deploy websites and apps to clawdship.dev with zero signup. Use when user says \"deploy\", \"host\", \"put this online\", \"publish site\", \"ship it\", or wants to de...", "description_zh": "", "downloads": 327, "homepage": "https://clawhub.ai/nicodlz/clawdship", "iconUrl": null, "installs": 7, "name": "Clawdship", "ownerName": "nicodlz", "score": 100000, "slug": "clawdship", "source": "clawhub", "stars": 4, "tags": null, "updated_at": 1776748670232, "version": "1.0.1"}, {"category": "ai-intelligence", "created_at": 1773089158090, "description": "Persistent cloud memory for OpenClaw agents. Use when users say: - \"install mem9\" - \"setup memory\" - \"add memory plugin\" - \"openclaw memory\" - \"mem9 onboardi...", "description_zh": "", "downloads": 327, "homepage": "https://clawhub.ai/c4pt0r/mem9-ai", "iconUrl": null, "installs": 17, "name": "mem9.ai", "ownerName": "c4pt0r", "score": 63058.41924398625, "slug": "mem9-ai", "source": "clawhub", "stars": 2, "tags": null, "updated_at": 1776755588466, "version": "1.0.5"}, {"category": "developer-tools", "created_at": 1773822800952, "description": "Enterprise-grade agentic document processing API. Accurately extracts key fields and line items from invoices, receipts, orders and more across 10+ file form...", "description_zh": "", "downloads": 327, "homepage": "https://clawhub.ai/laiye-ai-repos/laiye-ocr", "iconUrl": null, "installs": 46, "name": "Laiye-OCR", "ownerName": "laiye-ai-repos", "score": 72673.26732673268, "slug": "laiye-ocr", "source": "clawhub", "stars": 2, "tags": null, "updated_at": 1776750583968, "version": "1.4.0"}]}