{"page": 235, "total_pages": 522, "total": 26073, "skills": [{"category": "developer-tools", "created_at": 1773080269928, "description": "Translate files (PDF, DOCX, PPTX) to any language using the Bluente Translation API. Asks for API key, source files, target language, and output location.", "description_zh": "", "downloads": 327, "homepage": "https://clawhub.ai/varsmallrookie/bluente-translate", "iconUrl": null, "installs": 76, "name": "BluTranslate", "ownerName": "varsmallrookie", "score": 99142.85714285714, "slug": "bluente-translate", "source": "clawhub", "stars": 1, "tags": null, "updated_at": 1776748670782, "version": "1.0.1"}, {"category": "data-analysis", "created_at": 1772792182700, "description": "Captures ambient audio from wearable devices, transcribes locally, and streams searchable, speaker-tagged conversation data to your OpenClaw agent.", "description_zh": "", "downloads": 327, "homepage": "https://clawhub.ai/jarvis563/percept-listen", "iconUrl": null, "installs": 9, "name": "Percept Listen", "ownerName": "jarvis563", "score": 91086.35097493036, "slug": "percept-listen", "source": "clawhub", "stars": 0, "tags": null, "updated_at": 1776759198278, "version": "1.0.0"}, {"category": "developer-tools", "created_at": 1773427581811, "description": "Enhanced browser DOM manipulation using PageAgent's page-controller. Injects into any web page to provide precise DOM extraction, interactive element detecti...", "description_zh": "", "downloads": 327, "homepage": "https://clawhub.ai/dongdongbear/page-agent", "iconUrl": null, "installs": 67, "name": "PageAgent Browser Enhancement", "ownerName": "dongdongbear", "score": 24312.267657992565, "slug": "page-agent", "source": "clawhub", "stars": 0, "tags": null, "updated_at": 1776759198153, "version": "1.0.0"}, {"category": "ai-intelligence", "created_at": 1772797161512, "description": "Manages AI assistant long-term memory with layered storage for facts, events, skills, context, and fast indexing, including backup and integrity tools.", "description_zh": "", "downloads": 327, "homepage": "https://clawhub.ai/cuilinshen/memoria-system", "iconUrl": null, "installs": 18, "name": "Memoria Memory System", "ownerName": "cuilinshen", "score": 24312.267657992565, "slug": "memoria-system", "source": "clawhub", "stars": 0, "tags": ["ai-assistant", "backup", "cognitive", "knowledge-management", "long-term-memory", "memory"], "updated_at": 1776759197865, "version": "1.0.0"}, {"category": "developer-tools", "created_at": 1772794568797, "description": "Purchase API keys from iAutoPay Fact API using USDC on Base chain. Use this skill when: - Buying API keys for AI agent payment services - Managing API key su...", "description_zh": "", "downloads": 327, "homepage": "https://clawhub.ai/newblock/iautopay", "iconUrl": null, "installs": 5, "name": "iautopay", "ownerName": "newblock", "score": 59239.13043478261, "slug": "iautopay", "source": "clawhub", "stars": 0, "tags": null, "updated_at": 1776759197769, "version": "0.1.1"}, {"category": "ai-intelligence", "created_at": 1772798488723, "description": "Orchestrate the full BMAD Method workflow across OpenClaw and Claude Code. Use when starting a new project with BMAD methodology, running BMAD phases (brains...", "description_zh": "", "downloads": 327, "homepage": "https://clawhub.ai/henrikrexed/bmad-orchestrator", "iconUrl": null, "installs": 26, "name": "BMAD Orchestrator", "ownerName": "henrikrexed", "score": 19616.07678464307, "slug": "bmad-orchestrator", "source": "clawhub", "stars": 0, "tags": null, "updated_at": 1776756488639, "version": "1.0.0"}, {"category": "security-compliance", "created_at": 1772798775401, "description": "Integration architect for multi-app monorepos — shared contracts, API-first design with OpenAPI, cross-app auth, auto-generated SDKs, and full MCP server sca...", "description_zh": "", "downloads": 327, "homepage": "https://clawhub.ai/guifav/interop-forge", "iconUrl": null, "installs": 4, "name": "Interop Forge", "ownerName": "guifav", "score": 88858.69565217392, "slug": "interop-forge", "source": "clawhub", "stars": 0, "tags": null, "updated_at": 1776748671233, "version": "0.1.1"}, {"category": "content-creation", "created_at": 1772796807473, "description": "A virtual canvas for OpenClaw to output content and visualize its thinking during development.", "description_zh": "", "downloads": 327, "homepage": "https://clawhub.ai/runeweaverstudios/claw-canvas", "iconUrl": null, "installs": 25, "name": "Claw Canvas", "ownerName": "runeweaverstudios", "score": 67983.36798336798, "slug": "claw-canvas", "source": "clawhub", "stars": 0, "tags": null, "updated_at": 1776748671173, "version": "1.0.0"}, {"category": "data-analysis", "created_at": 1773425481248, "description": "Error: --action required. Use when you need slack automator capabilities. Triggers on: slack automator, token, channel, message, user-id, query.", "description_zh": "", "downloads": 327, "homepage": "https://clawhub.ai/xueyetianya/slack-automator", "iconUrl": null, "installs": 11, "name": "Slack Automator", "ownerName": "xueyetianya", "score": 73981.9004524887, "slug": "slack-automator", "source": "clawhub", "stars": 0, "tags": null, "updated_at": 1776748670888, "version": "2.3.7"}, {"category": "developer-tools", "created_at": 1772795291536, "description": "Financial management for AI agents. Track LLM inference costs, record confirmed income, manage multi-provider crypto wallets, and compute a Financial Health...", "description_zh": "", "downloads": 327, "homepage": "https://clawhub.ai/neiljo-gy/agent-books", "iconUrl": null, "installs": 19, "name": "AgentBooks", "ownerName": "neiljo-gy", "score": 93428.57142857142, "slug": "agent-books", "source": "clawhub", "stars": 0, "tags": null, "updated_at": 1776748670754, "version": "0.1.5"}, {"category": "developer-tools", "created_at": 1772795902743, "description": "Create, manage, and access isolated cloud development environments (codespaces) powered by code-server, Docker, and Cloudflare Tunnel. Pre-installed with Bun...", "description_zh": "", "downloads": 327, "homepage": "https://clawhub.ai/lanbasara/codespace-manager", "iconUrl": null, "installs": 13, "name": "Codespace Manager", "ownerName": "lanbasara", "score": 93428.57142857142, "slug": "codespace-manager", "source": "clawhub", "stars": 0, "tags": null, "updated_at": 1776748670750, "version": "1.0.0"}, {"category": "developer-tools", "created_at": 1773432669373, "description": "Install an OpenClaw plugin that adds SearXNG-powered web search without paid search APIs.", "description_zh": "", "downloads": 327, "homepage": "https://clawhub.ai/barrontang/searxng-tool-for-openclaw", "iconUrl": null, "installs": 7, "name": "searxng-tool-for-openclaw", "ownerName": "barrontang", "score": 59562.84153005465, "slug": "searxng-tool-for-openclaw", "source": "clawhub", "stars": 0, "tags": null, "updated_at": 1776748670603, "version": "1.0.0"}, {"category": "ai-intelligence", "created_at": 1772797369978, "description": "AI-powered auto-repair system for OpenClaw with iflow integration. Automatically diagnose and fix crashes, config errors, model issues. Falls back to iflow-h...", "description_zh": "", "downloads": 327, "homepage": "https://clawhub.ai/kosei-echo/openclaw-iflow-doctor", "iconUrl": null, "installs": 18, "name": "Openclaw Iflow Doctor", "ownerName": "kosei-echo", "score": 59562.84153005465, "slug": "openclaw-iflow-doctor", "source": "clawhub", "stars": 0, "tags": ["ai", "iflow", "self-healing"], "updated_at": 1776748670586, "version": "1.1.0"}, {"category": "data-analysis", "created_at": 1772792306453, "description": "Helps calculate the rate at which trust in a skill or agent is decaying by combining time elapsed since last verification with the rate of change in behavior...", "description_zh": "", "downloads": 327, "homepage": "https://clawhub.ai/andyxinweiminicloud/trust-velocity-calculator", "iconUrl": null, "installs": 15, "name": "Trust Velocity Calculator", "ownerName": "andyxinweiminicloud", "score": 78229.66507177035, "slug": "trust-velocity-calculator", "source": "clawhub", "stars": 0, "tags": null, "updated_at": 1776748670357, "version": "1.0.0"}, {"category": "developer-tools", "created_at": 1772796707017, "description": "Zero questions asked. Reads your conversation memory in 60 seconds and maps your MentalOS — builder personality, blind spots, and matched tools — ready to sc...", "description_zh": "", "downloads": 327, "homepage": "https://clawhub.ai/unicornbloom/bloom-discovery", "iconUrl": null, "installs": 6, "name": "Bloom Discovery", "ownerName": "unicornbloom", "score": 97611.94029850746, "slug": "bloom-discovery", "source": "clawhub", "stars": 0, "tags": null, "updated_at": 1776748670087, "version": "3.2.1"}, {"category": "content-creation", "created_at": 1773080868232, "description": "People leadership for scaling companies. Hiring strategy, compensation design, org structure, culture, and retention. Use when building hiring plans, designi...", "description_zh": "", "downloads": 327, "homepage": "https://clawhub.ai/alirezarezvani/chro-advisor", "iconUrl": null, "installs": 27, "name": "Chro Advisor", "ownerName": "alirezarezvani", "score": 86737.40053050399, "slug": "chro-advisor", "source": "clawhub", "stars": 0, "tags": null, "updated_at": 1776748669529, "version": "2.1.1"}, {"category": "developer-tools", "created_at": 1772794031838, "description": "Deploy and manage a SONiC sonic-mgmt KVM virtual testbed with cEOS neighbors for running pytest-based network tests. Use when setting up a local KVM testbed,...", "description_zh": "", "downloads": 326, "homepage": "https://clawhub.ai/yxieca/sonic-kvm-testbed", "iconUrl": null, "installs": 6, "name": "SONiC KVM Testbed", "ownerName": "yxieca", "score": 98918.91891891892, "slug": "sonic-kvm-testbed", "source": "clawhub", "stars": 2, "tags": null, "updated_at": 1776748670676, "version": "1.2.0"}, {"category": "", "created_at": 1774903898460, "description": "Use when the user wants to design, implement, refine, or review a WeChat Mini Program page, flow, or design system in WXML/WXSS/JS. Combines WeChat Mini Prog...", "description_zh": "", "downloads": 326, "homepage": "https://clawhub.ai/go-goll/wechat-miniprogram-ui-ux", "iconUrl": null, "installs": 88, "name": "Wechat Miniprogram Ui Ux", "ownerName": "go-goll", "score": 3588.467123003526, "slug": "wechat-miniprogram-ui-ux", "source": "clawhub", "stars": 1, "tags": ["wechat miniprogram ui-ux design-system"], "updated_at": 1776766450314, "version": "0.1.0"}, {"category": "data-analysis", "created_at": 1773067746489, "description": "Query real-time cryptocurrency prices using the Binance API. Get latest prices for Bitcoin, Ethereum, and all BN listed cryptocurrencies. No API key required.", "description_zh": "", "downloads": 326, "homepage": "https://clawhub.ai/yangzhe1991/binance-crypto-price", "iconUrl": null, "installs": 26, "name": "Binance Crypto Price", "ownerName": "yangzhe1991", "score": 4933.694567232283, "slug": "binance-crypto-price", "source": "clawhub", "stars": 1, "tags": null, "updated_at": 1776762850663, "version": "1.0.3"}, {"category": "data-analysis", "created_at": 1772796001856, "description": "Systematically analyze technical problems and generate innovative solutions using TRIZ's Five Bridges methodology with user experience insights and automated...", "description_zh": "", "downloads": 326, "homepage": "https://clawhub.ai/homerzhu/triz", "iconUrl": null, "installs": 22, "name": "TRIZ Systematic Innovation Method", "ownerName": "homerzhu", "score": 27010.148321623732, "slug": "triz", "source": "clawhub", "stars": 1, "tags": ["engineering", "innovation", "problem-solving", "systematic-innovation", "triz"], "updated_at": 1776759798085, "version": "1.0.0"}, {"category": "content-creation", "created_at": 1773283601620, "description": "Generate or edit images with Gemini using the Google GenAI SDK. Use when the user asks to create, transform, render, or save one or more images in an OpenCla...", "description_zh": "", "downloads": 326, "homepage": "https://clawhub.ai/ztj7728/gemini-image-generation", "iconUrl": null, "installs": 56, "name": "gemini-image-generation", "ownerName": "ztj7728", "score": 25724.907063197028, "slug": "gemini-image-generation", "source": "clawhub", "stars": 1, "tags": null, "updated_at": 1776759198293, "version": "1.0.8"}, {"category": "ai-intelligence", "created_at": 1773063979128, "description": "Autonomous internet exploration skill. Your agent roams the web driven by its own curiosity, discovers interesting things, and sends illustrated \"postcards\"...", "description_zh": "", "downloads": 326, "homepage": "https://clawhub.ai/yangwenyu2/travel-lobster", "iconUrl": null, "installs": 42, "name": "Travel Lobster", "ownerName": "yangwenyu2", "score": 78280.54298642534, "slug": "travel-lobster", "source": "clawhub", "stars": 1, "tags": null, "updated_at": 1776748670835, "version": "1.5.0"}, {"category": "ai-intelligence", "created_at": 1772796522158, "description": "Unified persistent text-based environment for AI agents. Use when an agent needs to maintain state across sessions, perform structural code editing, or manag...", "description_zh": "", "downloads": 326, "homepage": "https://clawhub.ai/pitze/agent-emacs", "iconUrl": null, "installs": 19, "name": "Agent Emacs", "ownerName": "pitze", "score": 92266.66666666666, "slug": "agent-emacs", "source": "clawhub", "stars": 1, "tags": null, "updated_at": 1776748669674, "version": "1.0.0"}, {"category": "", "created_at": 1774853888926, "description": "Convert office files to pdf", "description_zh": "", "downloads": 326, "homepage": "https://clawhub.ai/minchocoin/office-to-pdf", "iconUrl": null, "installs": 76, "name": "office-to-pdf", "ownerName": "minchocoin", "score": 2265.3047043290944, "slug": "office-to-pdf", "source": "clawhub", "stars": 0, "tags": null, "updated_at": 1776767349935, "version": "1.0.0"}, {"category": "productivity", "created_at": 1772803324471, "description": "Orquestra planejamento, operacao e otimizacao de campanhas Meta Ads usando MCP tools com seguranca de escrita, cobertura completa de endpoints e carregamento...", "description_zh": "", "downloads": 326, "homepage": "https://clawhub.ai/williamneves/facebook-ads-manager-skill", "iconUrl": null, "installs": 33, "name": "Meta Ads Super Manager Skill", "ownerName": "williamneves", "score": 7152.259763053971, "slug": "facebook-ads-manager-skill", "source": "clawhub", "stars": 0, "tags": null, "updated_at": 1776763750406, "version": "1.0.0"}, {"category": "data-analysis", "created_at": 1772795171704, "description": "Provides structured US equity research including company snapshot, earnings analysis, valuation scenarios, catalyst/risk assessment, and actionable monitorin...", "description_zh": "", "downloads": 326, "homepage": "https://clawhub.ai/jhryo25/us-stock-analyst-wkh", "iconUrl": null, "installs": 18, "name": "analyst-wkh", "ownerName": "jhryo25", "score": 24310.216256524982, "slug": "us-stock-analyst-wkh", "source": "clawhub", "stars": 0, "tags": ["earnings", "equity research", "financial modeling", "risk", "us stocks", "valuation"], "updated_at": 1776759198333, "version": "1.0.2"}, {"category": "developer-tools", "created_at": 1773425311242, "description": "License rug-pull detection. Scans dependencies and forks for license changes, gates upstream merges, maintains a license ledger, and generates a public compl...", "description_zh": "", "downloads": 326, "homepage": "https://clawhub.ai/parkertoddbrooks/wip-license-hook", "iconUrl": null, "installs": 4, "name": "Wip License Hook", "ownerName": "parkertoddbrooks", "score": 88108.1081081081, "slug": "wip-license-hook", "source": "clawhub", "stars": 0, "tags": null, "updated_at": 1776759198174, "version": "1.9.33"}, {"category": "productivity", "created_at": 1772794873266, "description": "Upload files to MinIO object storage and generate shareable links with Markdown formatting. Use when users ask to send files, share files, upload files, down...", "description_zh": "", "downloads": 326, "homepage": "https://clawhub.ai/sinute/minio-share", "iconUrl": null, "installs": 5, "name": "Minio Share", "ownerName": "sinute", "score": 24237.918215613383, "slug": "minio-share", "source": "clawhub", "stars": 0, "tags": null, "updated_at": 1776759198113, "version": "0.1.3"}, {"category": "security-compliance", "created_at": 1772795586019, "description": "Assist with identifying required permits, preparing application checklists, addressing plan review issues, scheduling inspections, and estimating permit fees...", "description_zh": "", "downloads": 326, "homepage": "https://clawhub.ai/1kalin/afrexai-building-permits", "iconUrl": null, "installs": 10, "name": "Building Permit & Construction Permitting", "ownerName": "1kalin", "score": 59057.97101449275, "slug": "afrexai-building-permits", "source": "clawhub", "stars": 0, "tags": ["building", "compliance", "construction", "contractor", "inspection", "permits", "real-estate"], "updated_at": 1776759197740, "version": "1.0.0"}, {"category": "ai-intelligence", "created_at": 1773931707306, "description": "Self-improving agent system for OpenClaw. Enables continuous learning from interactions, errors, and recoveries. Automatically improves performance over time.", "description_zh": "", "downloads": 326, "homepage": "https://clawhub.ai/leohuang8688/self-improver", "iconUrl": null, "installs": 26, "name": "Self Improving Agent", "ownerName": "leohuang8688", "score": 24219.91084695394, "slug": "self-improver", "source": "clawhub", "stars": 0, "tags": null, "updated_at": 1776759197703, "version": "3.2.1"}, {"category": "data-analysis", "created_at": 1773416587947, "description": "Analyze a person's personality traits based on their written text or chat messages. Use this skill whenever the user wants to understand someone's personalit...", "description_zh": "", "downloads": 326, "homepage": "https://clawhub.ai/baoyangispoor/personality-analysis-yang", "iconUrl": null, "installs": 3, "name": "personality-analysis-yang", "ownerName": "baoyangispoor", "score": 24130.273871206515, "slug": "personality-analysis-yang", "source": "clawhub", "stars": 0, "tags": null, "updated_at": 1776759120518, "version": "1.0.0"}, {"category": "productivity", "created_at": 1772793088893, "description": "Manage quick notes and time-based reminders.", "description_zh": "", "downloads": 326, "homepage": "https://clawhub.ai/yusaku-0426/notes-reminders", "iconUrl": null, "installs": 7, "name": "Notes Reminders", "ownerName": "yusaku-0426", "score": 57801.41843971631, "slug": "notes-reminders", "source": "clawhub", "stars": 0, "tags": null, "updated_at": 1776752172014, "version": "1.0.0"}, {"category": "developer-tools", "created_at": 1772794684246, "description": "Build 3D scenes and interactive experiences using MML (Metaverse Markup Language) for the Otherside metaverse and other MML-compatible environments. Use when...", "description_zh": "", "downloads": 326, "homepage": "https://clawhub.ai/honeybee1130/mml", "iconUrl": null, "installs": 10, "name": "Mml", "ownerName": "honeybee1130", "score": 61742.42424242424, "slug": "mml", "source": "clawhub", "stars": 0, "tags": null, "updated_at": 1776748670446, "version": "1.0.0"}, {"category": "ai-intelligence", "created_at": 1772804662641, "description": "Capture, normalize, and report metrics across any domain with reusable dimensions, programmable formulas, and scalable reporting workflows.", "description_zh": "", "downloads": 326, "homepage": "https://clawhub.ai/ivangdavila/metrics", "iconUrl": null, "installs": 31, "name": "Metrics", "ownerName": "ivangdavila", "score": 77990.43062200956, "slug": "metrics", "source": "clawhub", "stars": 0, "tags": null, "updated_at": 1776748670324, "version": "1.0.0"}, {"category": "security-compliance", "created_at": 1773090563693, "description": "Install and configure the Owletto memory plugin for OpenClaw, including OAuth login and MCP health verification.", "description_zh": "", "downloads": 326, "homepage": "https://clawhub.ai/buremba/owletto-openclaw", "iconUrl": null, "installs": 3, "name": "Owletto OpenClaw Setup", "ownerName": "buremba", "score": 93409.74212034384, "slug": "owletto-openclaw", "source": "clawhub", "stars": 0, "tags": null, "updated_at": 1776748669836, "version": "1.3.0"}, {"category": "developer-tools", "created_at": 1773222500520, "description": "A decision capture and review system that records every significant choice — with context, reasoning, and alternatives — so you can detect your own blind spo...", "description_zh": "", "downloads": 326, "homepage": "https://clawhub.ai/evanl1/sage-decision-journal", "iconUrl": null, "installs": 9, "name": "Sage Decision Journal", "ownerName": "evanl1", "score": 93409.74212034384, "slug": "sage-decision-journal", "source": "clawhub", "stars": 0, "tags": null, "updated_at": 1776748669823, "version": "0.1.0"}, {"category": "ai-intelligence", "created_at": 1773208726271, "description": "Practical memory architecture for OpenClaw agents. Helps agents remember commitments, retrieve context, prevent repeat mistakes, compile reusable procedures,...", "description_zh": "", "downloads": 325, "homepage": "https://clawhub.ai/zurbrick/cognition", "iconUrl": null, "installs": 12, "name": "Cognition", "ownerName": "zurbrick", "score": 27117.384843982167, "slug": "cognition", "source": "clawhub", "stars": 2, "tags": ["architecture", "cognition", "consolidation", "memory", "procedures"], "updated_at": 1776759124459, "version": "2.0.1"}, {"category": "ai-intelligence", "created_at": 1772796193687, "description": "The ultimate battleground for Humans vs AI. Submit entries, vote on competitors, and win crypto rewards.", "description_zh": "", "downloads": 325, "homepage": "https://clawhub.ai/fuadmiftah-max/brainvsbyte", "iconUrl": null, "installs": 11, "name": "BrainVsByte", "ownerName": "fuadmiftah-max", "score": 27117.384843982167, "slug": "brainvsbyte", "source": "clawhub", "stars": 2, "tags": null, "updated_at": 1776759124447, "version": "1.0.0"}, {"category": "developer-tools", "created_at": 1773067755139, "description": "Manage personal TODOs in Kan.bn through API-driven operations. Use this whenever the user wants to create, update, move, prioritize, search, summarize, or cl...", "description_zh": "", "downloads": 325, "homepage": "https://clawhub.ai/wujiao233/kanbn-todo-api", "iconUrl": null, "installs": 7, "name": "Kan.bn TODO API", "ownerName": "wujiao233", "score": 25650.557620817843, "slug": "kanbn-todo-api", "source": "clawhub", "stars": 1, "tags": null, "updated_at": 1776759197888, "version": "1.0.1"}, {"category": "ai-intelligence", "created_at": 1772798459864, "description": "Pure-Python recursive memory recall for persistent AI agents. Manager→workers→synthesis RLM loop — no Deno, no fast-rlm, just HTTP calls to any OpenAI-compat...", "description_zh": "", "downloads": 325, "homepage": "https://clawhub.ai/stefan27-4/deeprecall", "iconUrl": null, "installs": 14, "name": "DeepRecall", "ownerName": "stefan27-4", "score": 67779.96070726916, "slug": "deeprecall", "source": "clawhub", "stars": 1, "tags": ["infinite memory", "memory", "recall", "recursive", "rlm"], "updated_at": 1776748669692, "version": "1.0.8"}, {"category": "ai-intelligence", "created_at": 1772796861485, "description": "Register AI agents with permanent identities, create and share soul templates and dreams, contribute to community souls, and browse favorite personalities wi...", "description_zh": "", "downloads": 325, "homepage": "https://clawhub.ai/chengdubjut/makesoul-lite", "iconUrl": null, "installs": 16, "name": "MakeSoul Lite", "ownerName": "chengdubjut", "score": 24127.691165553082, "slug": "makesoul-lite", "source": "clawhub", "stars": 0, "tags": ["\"agent\"", "\"community\"", "\"dream\"", "\"lightweight\"", "\"openclaw\"", "\"soul\""], "updated_at": 1776759198021, "version": "2.0.1"}, {"category": "communication-collaboration", "created_at": 1773076736359, "description": "Create, train, and deploy AI chatbots using your data across multiple channels like web, Slack, Discord, and WhatsApp with context-aware responses.", "description_zh": "", "downloads": 325, "homepage": "https://clawhub.ai/sunshine-del-ux/chatbot-builder", "iconUrl": null, "installs": 15, "name": "Chatbot Builder", "ownerName": "sunshine-del-ux", "score": 24163.5687732342, "slug": "chatbot-builder", "source": "clawhub", "stars": 0, "tags": null, "updated_at": 1776759197847, "version": "1.0.0"}, {"category": "security-compliance", "created_at": 1773220429678, "description": "Manage OpenAI Codex profiles via Telegram commands for usage checks and OAuth token refresh with queued safe apply and progress updates.", "description_zh": "", "downloads": 325, "homepage": "https://clawhub.ai/deadlysilent/codex-profiler", "iconUrl": null, "installs": 4, "name": "Codex Profiler", "ownerName": "deadlysilent", "score": 58876.811594202896, "slug": "codex-profiler", "source": "clawhub", "stars": 0, "tags": null, "updated_at": 1776759197758, "version": "1.0.18"}, {"category": "developer-tools", "created_at": 1773074563737, "description": "Browser automation CLI for AI agents. Use when the user needs to interact with websites, including navigating pages, filling forms, clicking buttons, taking...", "description_zh": "", "downloads": 325, "homepage": "https://clawhub.ai/winchester-yi/agent-browser-vercel", "iconUrl": null, "installs": 21, "name": "Agent Browser", "ownerName": "winchester-yi", "score": 61553.0303030303, "slug": "agent-browser-vercel", "source": "clawhub", "stars": 0, "tags": null, "updated_at": 1776748670481, "version": "0.1.0"}, {"category": "ai-intelligence", "created_at": 1772801323905, "description": "Install, configure, diagnose, and operate the openclaw-mem0 long-term memory plugin for OpenClaw agents. Use when the user wants to set up mem0 memory (platf...", "description_zh": "", "downloads": 325, "homepage": "https://clawhub.ai/nyrosveil/mem0-config", "iconUrl": null, "installs": 21, "name": "Mem0 Config", "ownerName": "nyrosveil", "score": 93123.20916905445, "slug": "mem0-config", "source": "clawhub", "stars": 0, "tags": null, "updated_at": 1776748669976, "version": "1.0.0"}, {"category": "productivity", "created_at": 1773064753340, "description": "Zoom integration. Manage Users. Use when the user wants to interact with Zoom data.", "description_zh": "", "downloads": 325, "homepage": "https://clawhub.ai/membranedev/zoom", "iconUrl": null, "installs": 20, "name": "Zoom", "ownerName": "membranedev", "score": 63850.68762278978, "slug": "zoom", "source": "clawhub", "stars": 0, "tags": null, "updated_at": 1776748669772, "version": "1.0.0"}, {"category": "productivity", "created_at": 1772802823984, "description": "Access personal finance data (bank accounts, transactions, balances, spending, investments, crypto) via Pane's hosted MCP server using mcporter. Requires a P...", "description_zh": "", "downloads": 325, "homepage": "https://clawhub.ai/darnfish/pane", "iconUrl": null, "installs": 6, "name": "Pane", "ownerName": "darnfish", "score": 86206.89655172413, "slug": "pane", "source": "clawhub", "stars": 0, "tags": null, "updated_at": 1776748669536, "version": "1.0.3"}, {"category": "communication-collaboration", "created_at": 1773064318155, "description": "A friendly AI English teacher that runs daily lessons via Telegram voice messages. Teaches grammar, vocabulary, and conversation with a casual buddy vibe.", "description_zh": "", "downloads": 324, "homepage": "https://clawhub.ai/haiku54/english-bestie", "iconUrl": null, "installs": 50, "name": "English Bestie", "ownerName": "haiku54", "score": 12717.190388170055, "slug": "english-bestie", "source": "clawhub", "stars": 1, "tags": null, "updated_at": 1776768972282, "version": "1.0.0"}, {"category": "data-analysis", "created_at": 1772795014299, "description": "Create, optimize, and scale Apple Search Ads campaigns with API automation, attribution integration, and bid strategy recommendations.", "description_zh": "", "downloads": 324, "homepage": "https://clawhub.ai/ivangdavila/apple-search-ads", "iconUrl": null, "installs": 23, "name": "Apple Search Ads", "ownerName": "ivangdavila", "score": 65151.51515151515, "slug": "apple-search-ads", "source": "clawhub", "stars": 1, "tags": null, "updated_at": 1776748670453, "version": "1.0.0"}, {"category": "content-creation", "created_at": 1773417304052, "description": "Automated short drama video publisher. Downloads drama content from MoboBoost, uses AI to identify highlight moments, clips 15-second vertical videos with te...", "description_zh": "", "downloads": 324, "homepage": "https://clawhub.ai/ye4wzp/short-drama-publisher", "iconUrl": null, "installs": 85, "name": "Short Drama Publisher", "ownerName": "ye4wzp", "score": 11448.763250883392, "slug": "short-drama-publisher", "source": "clawhub", "stars": 0, "tags": null, "updated_at": 1776769571215, "version": "1.0.0"}]}