{"page": 236, "total_pages": 522, "total": 26073, "skills": [{"category": "content-creation", "created_at": 1773084603543, "description": "CTO & Engineering Excellence Playbook. Use for: architecture decisions, tech stack selection, database choices, API design, DevOps/CI-CD, code quality, team...", "description_zh": "", "downloads": 324, "homepage": "https://clawhub.ai/chilu18/cto-playbook", "iconUrl": null, "installs": 89, "name": "CTO & Engineering Excellence Playbook", "ownerName": "chilu18", "score": 17666.30316248637, "slug": "cto-playbook", "source": "clawhub", "stars": 0, "tags": null, "updated_at": 1776764950177, "version": "1.0.0"}, {"category": "content-creation", "created_at": 1773217983004, "description": "Agent engineering harness for any repo. Creates a short AGENTS.md table-of-contents, structured docs/ knowledge base (ARCHITECTURE, QUALITY, CONVENTIONS, COO...", "description_zh": "", "downloads": 324, "homepage": "https://clawhub.ai/bowen31337/harness", "iconUrl": null, "installs": 57, "name": "Agent Engineering Harness", "ownerName": "bowen31337", "score": 5621.096460791117, "slug": "harness", "source": "clawhub", "stars": 0, "tags": null, "updated_at": 1776764650307, "version": "1.1.0"}, {"category": "data-analysis", "created_at": 1773433450271, "description": "Search academic papers and conduct literature reviews using OpenAlex API (free, no key needed). Use when the user needs to find scholarly papers by topic/aut...", "description_zh": "", "downloads": 324, "homepage": "https://clawhub.ai/feiyang2007/academic-research-conflict", "iconUrl": null, "installs": 130, "name": "Academic Research Conflict", "ownerName": "feiyang2007", "score": 11760.43557168784, "slug": "academic-research-conflict", "source": "clawhub", "stars": 0, "tags": null, "updated_at": 1776764090781, "version": "1.0.0"}, {"category": "content-creation", "created_at": 1773089653520, "description": "Automates downloading YouTube audio, launching Doubao, playing audio, and capturing translations for full video subtitle extraction.", "description_zh": "", "downloads": 324, "homepage": "https://clawhub.ai/banner90/banner-youtube-translate-workflow", "iconUrl": null, "installs": 78, "name": "Banner Youtube Translate Workflow", "ownerName": "banner90", "score": 7415.884641794461, "slug": "banner-youtube-translate-workflow", "source": "clawhub", "stars": 0, "tags": null, "updated_at": 1776764049980, "version": "1.0.3"}, {"category": "security-compliance", "created_at": 1772794638902, "description": "Specialist in workers' compensation: classify employees, optimize premiums, manage claims, ensure state compliance, and improve workplace safety programs.", "description_zh": "", "downloads": 324, "homepage": "https://clawhub.ai/1kalin/afrexai-workers-comp", "iconUrl": null, "installs": 10, "name": "Workers Compensation Compliance", "ownerName": "1kalin", "score": 90250.6963788301, "slug": "afrexai-workers-comp", "source": "clawhub", "stars": 0, "tags": ["compliance", "emr", "hr", "insurance", "osha", "premium audit", "safety", "workers comp"], "updated_at": 1776759198229, "version": "1.0.0"}, {"category": "data-analysis", "created_at": 1772796558399, "description": "Automatically detects, assesses, and safely mitigates incidents in OpenClaw production agents, providing detailed reports and verified recovery.", "description_zh": "", "downloads": 324, "homepage": "https://clawhub.ai/davidmosiah/delx-ops-guardian", "iconUrl": null, "installs": 15, "name": "Delx Ops Guardian", "ownerName": "davidmosiah", "score": 24089.21933085502, "slug": "delx-ops-guardian", "source": "clawhub", "stars": 0, "tags": ["incident", "ops", "reliability"], "updated_at": 1776759197850, "version": "1.0.2"}, {"category": "data-analysis", "created_at": 1772803886602, "description": "Analyze uploaded CVPR paper PDFs with a strict two-pass workflow. First pass extracts verifiable facts with page/section/figure/table evidence only. Second p...", "description_zh": "", "downloads": 324, "homepage": "https://clawhub.ai/gpiox/paper-pdf-two-pass-review", "iconUrl": null, "installs": 47, "name": "PaperRead-Skills", "ownerName": "gpiox", "score": 58695.65217391305, "slug": "paper-pdf-two-pass-review", "source": "clawhub", "stars": 0, "tags": null, "updated_at": 1776759197762, "version": "1.0.0"}, {"category": "security-compliance", "created_at": 1772805066732, "description": "Generate authentic, structured personal brand stories using a proven 5-step framework to highlight your journey, philosophy, challenges, and achievements.", "description_zh": "", "downloads": 324, "homepage": "https://clawhub.ai/fengbabao0929/ipstory", "iconUrl": null, "installs": 33, "name": "个人品牌故事", "ownerName": "fengbabao0929", "score": 58695.65217391305, "slug": "ipstory", "source": "clawhub", "stars": 0, "tags": null, "updated_at": 1776759197737, "version": "1.0.0"}, {"category": "ai-intelligence", "created_at": 1772795861502, "description": "Daily AI agent optimization tips, tricks and self-improvement strategies. Learn cost-saving, speed, memory and automation best practices from the OpenClaw co...", "description_zh": "", "downloads": 324, "homepage": "https://clawhub.ai/adelpro/openclaw-daily-tips", "iconUrl": null, "installs": 31, "name": "OpenClaw Daily Tips", "ownerName": "adelpro", "score": 24071.322436849925, "slug": "openclaw-daily-tips", "source": "clawhub", "stars": 0, "tags": null, "updated_at": 1776759197733, "version": "1.0.1"}, {"category": "developer-tools", "created_at": 1772791569023, "description": "Helps track how AI skill verification results decay over time. A \"verified\" badge from 18 months ago may be meaningless today — dependencies updated, new att...", "description_zh": "", "downloads": 324, "homepage": "https://clawhub.ai/andyxinweiminicloud/trust-decay-monitor", "iconUrl": null, "installs": 5, "name": "Trust Decay Monitor", "ownerName": "andyxinweiminicloud", "score": 73303.16742081447, "slug": "trust-decay-monitor", "source": "clawhub", "stars": 0, "tags": null, "updated_at": 1776748670863, "version": "1.0.0"}, {"category": "security-compliance", "created_at": 1772793487318, "description": "Advanced patterns for specialized subagent orchestration with production-ready reference implementations. Security isolation, phased implementation, peer col...", "description_zh": "", "downloads": 324, "homepage": "https://clawhub.ai/donovanpankratz-del/subagent-architecture", "iconUrl": null, "installs": 10, "name": "Subagent Architecture", "ownerName": "donovanpankratz-del", "score": 90756.3025210084, "slug": "subagent-architecture", "source": "clawhub", "stars": 0, "tags": ["agent-patterns", "agent-safety", "agent-team", "architecture", "best-practices", "blast-shield", "budget", "collaboration", "coordinator", "cost-aware", "cost-estimation", "delegation", "hub-spoke", "isolation", "multi-agent", "orchestration", "parallel", "patterns", "peer-review", "phased", "production", "quality-validation", "reference-implementation", "sandbox", "security", "spawn", "spawn-helpers", "specialist", "subagents", "worker"], "updated_at": 1776748670120, "version": "2.3.5"}, {"category": "developer-tools", "created_at": 1773844561243, "description": "Reference tool for devtools — covers intro, quickstart, patterns and more. Quick lookup for Browser Fingerprinting concepts, best practices, and implementati...", "description_zh": "", "downloads": 324, "homepage": "https://clawhub.ai/ckchzh/browser-fingerprinting", "iconUrl": null, "installs": 6, "name": "Browser Fingerprinting", "ownerName": "ckchzh", "score": 92836.67621776505, "slug": "browser-fingerprinting", "source": "clawhub", "stars": 0, "tags": null, "updated_at": 1776748669930, "version": "3.0.2"}, {"category": "data-analysis", "created_at": 1773290210345, "description": "hosted backend infra for openclaw agents. managed databases, webhooks, and file hosting — so your agent can focus on the work, not the plumbing.", "description_zh": "", "downloads": 324, "homepage": "https://clawhub.ai/rotemtam/usedada", "iconUrl": null, "installs": 6, "name": "dada", "ownerName": "rotemtam", "score": 91011.23595505618, "slug": "usedada", "source": "clawhub", "stars": 0, "tags": null, "updated_at": 1776748669864, "version": "0.3.2"}, {"category": "developer-tools", "created_at": 1772798530475, "description": "Build transformer fine-tuning run plans with task settings, hyperparameters, and model-card outputs. Use for repeatable Hugging Face or PyTorch finetuning wo...", "description_zh": "", "downloads": 324, "homepage": "https://clawhub.ai/0x-professor/dl-transformer-finetune", "iconUrl": null, "installs": 13, "name": "Dl Transformer Finetune", "ownerName": "0x-professor", "score": 86400, "slug": "dl-transformer-finetune", "source": "clawhub", "stars": 0, "tags": null, "updated_at": 1776748669626, "version": "0.1.0"}, {"category": "ai-intelligence", "created_at": 1772794829359, "description": "Daily MLB baseball scores, box scores, starting pitchers, and injury reports for your favourite team. Covers spring training, regular season, and playoffs. R...", "description_zh": "", "downloads": 323, "homepage": "https://clawhub.ai/jeremydouglaslaw-ui/mlb-daily-scores", "iconUrl": null, "installs": 13, "name": "MLB Daily Scores", "ownerName": "jeremydouglaslaw-ui", "score": 25445.103857566763, "slug": "mlb-daily-scores", "source": "clawhub", "stars": 1, "tags": null, "updated_at": 1776759197962, "version": "1.0.13"}, {"category": "content-creation", "created_at": 1772794541230, "description": "TriCore Architecture - A deterministic (Code-First) three-layer memory and cognitive framework designed for low-resource servers/Agents. It includes the unde...", "description_zh": "", "downloads": 323, "homepage": "https://clawhub.ai/bertonhan/tricore", "iconUrl": null, "installs": 23, "name": "TriCore", "ownerName": "bertonhan", "score": 70000, "slug": "tricore", "source": "clawhub", "stars": 1, "tags": null, "updated_at": 1776748670971, "version": "1.0.1"}, {"category": "ai-intelligence", "created_at": 1772795703973, "description": "Autonomous multi-model deep research with framework-driven reasoning. Spawns 4 parallel model agents (Gemini 2.5 Pro, o3, Opus, MiniMax), each applies best-p...", "description_zh": "", "downloads": 323, "homepage": "https://clawhub.ai/leadingot/opusflame-deep-research", "iconUrl": null, "installs": 30, "name": "OpusFlame Deep Research", "ownerName": "leadingot", "score": 62477.231329690345, "slug": "opusflame-deep-research", "source": "clawhub", "stars": 1, "tags": null, "updated_at": 1776748670572, "version": "2.0.0"}, {"category": "developer-tools", "created_at": 1773284994281, "description": "Nara chain CLI agent — free PoMI mining, wallet, transfer, quest, on-chain skills, ZK ID, agent registry. Triggers: NARA, quest, mining, airdrop, earn/claim/...", "description_zh": "", "downloads": 323, "homepage": "https://clawhub.ai/naraguy/nara", "iconUrl": null, "installs": 4, "name": "Nara", "ownerName": "naraguy", "score": 98280.80229226362, "slug": "nara", "source": "clawhub", "stars": 1, "tags": null, "updated_at": 1776748670005, "version": "1.0.14"}, {"category": "content-creation", "created_at": 1772802563861, "description": "Render structured table data as high-quality PNG images using Headless Chrome. Use when: need to visualize tabular data for chat interfaces, reports, or soci...", "description_zh": "", "downloads": 323, "homepage": "https://clawhub.ai/con2000us/zentable", "iconUrl": null, "installs": 19, "name": "zenTable", "ownerName": "con2000us", "score": 67387.03339882122, "slug": "zentable", "source": "clawhub", "stars": 1, "tags": ["beta", "ocr", "rendering", "table", "workflow"], "updated_at": 1776748669733, "version": "0.9.2"}, {"category": "ai-intelligence", "created_at": 1772796378761, "description": "Store and recall persistent memories via FlightBox (Quack Network). Use when storing agent memories, recalling past context, searching agent memory, or persi...", "description_zh": "", "downloads": 323, "homepage": "https://clawhub.ai/jpaulgrayson/quack-memory", "iconUrl": null, "installs": 14, "name": "Quack Memory", "ownerName": "jpaulgrayson", "score": 1801.1487202364358, "slug": "quack-memory", "source": "clawhub", "stars": 0, "tags": null, "updated_at": 1776769749823, "version": "1.0.2"}, {"category": "developer-tools", "created_at": 1773075043052, "description": "Real-time Toronto transit — bus & streetcar arrivals, vehicle tracking, alerts, stop search", "description_zh": "", "downloads": 323, "homepage": "https://clawhub.ai/lucasygu/ttc", "iconUrl": null, "installs": 5, "name": "TTC CLI", "ownerName": "lucasygu", "score": 7813.255926463474, "slug": "ttc", "source": "clawhub", "stars": 0, "tags": null, "updated_at": 1776768850173, "version": "0.1.7"}, {"category": "developer-tools", "created_at": 1773059890734, "description": "Auto-detect and enable OpenClaw Browser Relay Chrome extension when disconnected. Uses native mouse control to click the extension icon.", "description_zh": "", "downloads": 323, "homepage": "https://clawhub.ai/kevinzhj/browser-extension-enabler", "iconUrl": null, "installs": 25, "name": "Browser Extension Enabler", "ownerName": "kevinzhj", "score": 5004.648280136349, "slug": "browser-extension-enabler", "source": "clawhub", "stars": 0, "tags": null, "updated_at": 1776765971065, "version": "1.0.0"}, {"category": "security-compliance", "created_at": 1773219187220, "description": "A comprehensive AI agent skill for navigating legal situations that require or may require an attorney. Helps you understand when you need a lawyer and when...", "description_zh": "", "downloads": 323, "homepage": "https://clawhub.ai/agenticio/attorney", "iconUrl": null, "installs": 55, "name": "Attorney", "ownerName": "agenticio", "score": 4248.323030382744, "slug": "attorney", "source": "clawhub", "stars": 0, "tags": ["attorney", "consultation", "law", "lawyer", "legal"], "updated_at": 1776762315125, "version": "1.0.0"}, {"category": "data-analysis", "created_at": 1773073149586, "description": "Analyzes code to identify performance bottlenecks and suggests optimizations like algorithm improvements, caching, and database indexing.", "description_zh": "", "downloads": 323, "homepage": "https://clawhub.ai/mosonchan2023/ai-performance-optimizer", "iconUrl": null, "installs": 12, "name": "Ai Performance Optimizer", "ownerName": "mosonchan2023", "score": 24086.502609992545, "slug": "ai-performance-optimizer", "source": "clawhub", "stars": 0, "tags": null, "updated_at": 1776759198333, "version": "1.0.0"}, {"category": "data-analysis", "created_at": 1772797742637, "description": "Integrates Zoho Desk with OpenClaw to ingest tickets, generate local embeddings, analyze open tickets, and propose draft replies using OpenAI.", "description_zh": "", "downloads": 323, "homepage": "https://clawhub.ai/pretid/zoho-support-claw", "iconUrl": null, "installs": 9, "name": "zoho-support-claw", "ownerName": "pretid", "score": 23979.213066072756, "slug": "zoho-support-claw", "source": "clawhub", "stars": 0, "tags": ["local"], "updated_at": 1776759198031, "version": "1.0.0"}, {"category": "developer-tools", "created_at": 1773424736628, "description": "One-command release pipeline. Bumps version, updates changelog + SKILL.md, publishes to npm + GitHub.", "description_zh": "", "downloads": 323, "homepage": "https://clawhub.ai/parkertoddbrooks/wip-release", "iconUrl": null, "installs": 8, "name": "Wip Release", "ownerName": "parkertoddbrooks", "score": 58514.49275362319, "slug": "wip-release", "source": "clawhub", "stars": 0, "tags": null, "updated_at": 1776759197756, "version": "1.9.33"}, {"category": "developer-tools", "created_at": 1772790482394, "description": "[Coming Soon] A social simulation world where AI agents with unique SOUL.md personalities interact, debate, trade, and build relationships. Autonomous AI per...", "description_zh": "", "downloads": 323, "homepage": "https://clawhub.ai/lifeissea/sims", "iconUrl": null, "installs": 5, "name": "Sims", "ownerName": "lifeissea", "score": 86133.33333333333, "slug": "sims", "source": "clawhub", "stars": 0, "tags": null, "updated_at": 1776748671019, "version": "0.1.0"}, {"category": "productivity", "created_at": 1773080718491, "description": "PDF contract redaction tool. Use when the user needs to redact sensitive information from scanned PDF contracts. The tool performs OCR to extract text, ident...", "description_zh": "", "downloads": 323, "homepage": "https://clawhub.ai/chayjan/pdf-contract-redactor", "iconUrl": null, "installs": 97, "name": "Pdf Contract Redactor", "ownerName": "chayjan", "score": 58834.24408014571, "slug": "pdf-contract-redactor", "source": "clawhub", "stars": 0, "tags": null, "updated_at": 1776748670566, "version": "1.0.0"}, {"category": "ai-intelligence", "created_at": 1773432214679, "description": "Edit PDFs with natural-language instructions using the nano-pdf CLI. And also 50+ models for image generation, video generation, text-to-speech, speech-to-te...", "description_zh": "", "downloads": 323, "homepage": "https://clawhub.ai/tobeyrebecca/nano-pdfs", "iconUrl": null, "installs": 149, "name": "Pub Nanopdf", "ownerName": "tobeyrebecca", "score": 58834.24408014571, "slug": "nano-pdfs", "source": "clawhub", "stars": 0, "tags": null, "updated_at": 1776748670531, "version": "1.0.0"}, {"category": "productivity", "created_at": 1772796263941, "description": "Safely apply OpenClaw config changes with automatic rollback and ack timeout guard. Use when editing ~/.openclaw/openclaw.json, restarting gateway, enabling...", "description_zh": "", "downloads": 323, "homepage": "https://clawhub.ai/wangwu-30/openclaw-safe-config-rollback", "iconUrl": null, "installs": 8, "name": "OpenClaw Safe Config Rollback", "ownerName": "wangwu-30", "score": 61174.24242424242, "slug": "openclaw-safe-config-rollback", "source": "clawhub", "stars": 0, "tags": null, "updated_at": 1776748670451, "version": "0.1.1"}, {"category": "ai-intelligence", "created_at": 1772792084743, "description": "Welcome new users to the agent ecosystem. Teaches what agents can do, safety practices, ClawdHub skills, Solvr knowledge sharing, and essential commands.", "description_zh": "", "downloads": 323, "homepage": "https://clawhub.ai/fcavalcantirj/claw-onboarding", "iconUrl": null, "installs": 17, "name": "ClawOnBoarding", "ownerName": "fcavalcantirj", "score": 77272.72727272726, "slug": "claw-onboarding", "source": "clawhub", "stars": 0, "tags": null, "updated_at": 1776748670410, "version": "0.1.0"}, {"category": "developer-tools", "created_at": 1772796978635, "description": "Run macOS in Docker on Linux with KVM. Use when: user wants to build iOS apps/IPAs, needs macOS environment, wants to compile Apple apps without Mac, or want...", "description_zh": "", "downloads": 323, "homepage": "https://clawhub.ai/nightvibes3/docker-osx", "iconUrl": null, "installs": 9, "name": "Docker Osx", "ownerName": "nightvibes3", "score": 77272.72727272726, "slug": "docker-osx", "source": "clawhub", "stars": 0, "tags": null, "updated_at": 1776748670371, "version": "1.0.0"}, {"category": "productivity", "created_at": 1772794920490, "description": "Get a disposable temp phone number and receive OTP codes to sign up on websites without using your real number. Handles x402 crypto payment automatically.", "description_zh": "", "downloads": 323, "homepage": "https://clawhub.ai/0xshadoweth/shadow-phone", "iconUrl": null, "installs": 19, "name": "Shadow Number", "ownerName": "0xshadoweth", "score": 96417.91044776118, "slug": "shadow-phone", "source": "clawhub", "stars": 0, "tags": ["otp", "phone", "privacy", "sms", "x402"], "updated_at": 1776748670062, "version": "1.0.0"}, {"category": "content-creation", "created_at": 1772803658771, "description": "Manage Facebook Pages via Meta Graph API. Post content (text, photos, links), list posts, manage comments (list/reply/hide/delete). Use when user wants to pu...", "description_zh": "", "downloads": 323, "homepage": "https://clawhub.ai/loui1979/facebook-page-manager-1-0-0", "iconUrl": null, "installs": 41, "name": "Facebook Page Manager 1.0.0", "ownerName": "loui1979", "score": 92550.14326647564, "slug": "facebook-page-manager-1-0-0", "source": "clawhub", "stars": 0, "tags": null, "updated_at": 1776748669985, "version": "1.0.0"}, {"category": "ai-intelligence", "created_at": 1772795252282, "description": "An enhanced memory system for OpenClaw agents that replaces the default single-file MEMORY.md with a complete memory architecture: hierarchical directory org...", "description_zh": "", "downloads": 323, "homepage": "https://clawhub.ai/fatcatmaofei/openclaw-enhanced-memory", "iconUrl": null, "installs": 21, "name": "Enhanced Memory", "ownerName": "fatcatmaofei", "score": 63457.760314341846, "slug": "openclaw-enhanced-memory", "source": "clawhub", "stars": 0, "tags": null, "updated_at": 1776748669721, "version": "1.0.0"}, {"category": "ai-intelligence", "created_at": 1773078898176, "description": "Self-hosted PDF operations and conversions with metered usage output.", "description_zh": "", "downloads": 322, "homepage": "https://clawhub.ai/cap-txt/pdfagent", "iconUrl": null, "installs": 127, "name": "PR's PDF Agent", "ownerName": "cap-txt", "score": 68560.60606060605, "slug": "pdfagent", "source": "clawhub", "stars": 2, "tags": ["convert", "ocr", "pdf"], "updated_at": 1776748670517, "version": "0.1.0"}, {"category": "data-analysis", "created_at": 1772794627460, "description": "Plan, execute, and measure business events — conferences, webinars, workshops, product launches, networking events, trade shows, and corporate gatherings. Co...", "description_zh": "", "downloads": 322, "homepage": "https://clawhub.ai/1kalin/afrexai-event-planner", "iconUrl": null, "installs": 29, "name": "Event Planner Pro", "ownerName": "1kalin", "score": 10647.571606475716, "slug": "afrexai-event-planner", "source": "clawhub", "stars": 1, "tags": ["conference", "event", "marketing", "planning", "webinar", "workshop"], "updated_at": 1776765549953, "version": "1.0.0"}, {"category": "ai-intelligence", "created_at": 1772797760718, "description": "Connect OpenClaw to the AntSeed P2P AI network as a buyer. Use when: user asks to connect OpenClaw to AntSeed, route OpenClaw through AntSeed, set up AntSeed...", "description_zh": "", "downloads": 322, "homepage": "https://clawhub.ai/kotevcode/openclaw-antseed", "iconUrl": null, "installs": 14, "name": "OpenClaw AntSeed", "ownerName": "kotevcode", "score": 81818.18181818182, "slug": "openclaw-antseed", "source": "clawhub", "stars": 1, "tags": null, "updated_at": 1776748670331, "version": "1.0.0"}, {"category": "data-analysis", "created_at": 1772794562865, "description": "Translates Dutch news text into English with interlinear formatting for language learning and detailed analysis.", "description_zh": "", "downloads": 322, "homepage": "https://clawhub.ai/rogerscristo/dutch-translator", "iconUrl": null, "installs": 22, "name": "Dutch Translator", "ownerName": "rogerscristo", "score": 1362.1557595498964, "slug": "dutch-translator", "source": "clawhub", "stars": 0, "tags": null, "updated_at": 1776770650229, "version": "1.0.0"}, {"category": "productivity", "created_at": 1772796990519, "description": "🚀 LinkedIn automation with Free (10/month) & Pro ($29/mo unlimited) tiers. Automate connections, follow-ups & lead gen.", "description_zh": "", "downloads": 322, "homepage": "https://clawhub.ai/limoxt/linkedin-outreach", "iconUrl": null, "installs": 18, "name": "Linkedin Outreach", "ownerName": "limoxt", "score": 4881.746513038205, "slug": "linkedin-outreach", "source": "clawhub", "stars": 0, "tags": null, "updated_at": 1776766871035, "version": "1.0.4"}, {"category": "developer-tools", "created_at": 1772795363968, "description": "Enforce immediate execution behavior when the user asks to implement/run/do something now. Use this skill to prevent delay between commitment and action, and...", "description_zh": "", "downloads": 322, "homepage": "https://clawhub.ai/rui131/instant-execution-discipline", "iconUrl": null, "installs": 9, "name": "instant-execution-discipline", "ownerName": "rui131", "score": 3801.652892561983, "slug": "instant-execution-discipline", "source": "clawhub", "stars": 0, "tags": null, "updated_at": 1776766490509, "version": "0.1.6"}, {"category": "content-creation", "created_at": 1772802257542, "description": "High-performance image processing with libvips. Use for resizing, converting, watermarking, thumbnails, and batch image operations with low memory usage.", "description_zh": "", "downloads": 322, "homepage": "https://clawhub.ai/h1bomb/libvips-image", "iconUrl": null, "installs": 27, "name": "Libvips Image", "ownerName": "h1bomb", "score": 22517.482517482516, "slug": "libvips-image", "source": "clawhub", "stars": 0, "tags": null, "updated_at": 1776766490443, "version": "0.1.0"}, {"category": "security-compliance", "created_at": 1772805088991, "description": "Handles B2B presales and renewal negotiations with value-shift tactics and compliance checks. Use when the user mentions customer pushback on price, budget c...", "description_zh": "", "downloads": 322, "homepage": "https://clawhub.ai/ken0122/sales-oratory-master", "iconUrl": null, "installs": 11, "name": "Sales Oratory Master", "ownerName": "ken0122", "score": 4649.148137453076, "slug": "sales-oratory-master", "source": "clawhub", "stars": 0, "tags": null, "updated_at": 1776765550179, "version": "1.0.0"}, {"category": "data-analysis", "created_at": 1772797478516, "description": "Analyzes journal entries and chat history to identify high-value topics and automatically generate blog posts.", "description_zh": "", "downloads": 322, "homepage": "https://clawhub.ai/runeweaverstudios/blog-generator", "iconUrl": null, "installs": 14, "name": "Blog Generator", "ownerName": "runeweaverstudios", "score": 11586.901763224181, "slug": "blog-generator", "source": "clawhub", "stars": 0, "tags": null, "updated_at": 1776761989943, "version": "1.0.0"}, {"category": "ai-intelligence", "created_at": 1773433574845, "description": "Build and route Qwen chat, coding, reasoning, and vision workflows across hosted and self-hosted endpoints with safer debugging.", "description_zh": "", "downloads": 322, "homepage": "https://clawhub.ai/ivangdavila/qwen", "iconUrl": null, "installs": 56, "name": "Qwen", "ownerName": "ivangdavila", "score": 10144.927536231884, "slug": "qwen", "source": "clawhub", "stars": 0, "tags": null, "updated_at": 1776761415050, "version": "1.0.0"}, {"category": "ai-intelligence", "created_at": 1772804118821, "description": "Daily astronomical alignment and entropy updates for autonomous AI agents. Check your horoscope every day to stay synchronized with the cosmos.", "description_zh": "", "downloads": 322, "homepage": "https://clawhub.ai/qeireal/astroclaw", "iconUrl": null, "installs": 19, "name": "AstroClaw", "ownerName": "qeireal", "score": 89693.59331476323, "slug": "astroclaw", "source": "clawhub", "stars": 0, "tags": null, "updated_at": 1776759198238, "version": "1.0.2"}, {"category": "developer-tools", "created_at": 1772799440678, "description": "TMR Land personal agent for an AI business marketplace. Use when: (1) searching for AI/data businesses, (2) publishing purchase intentions, (3) placing and m...", "description_zh": "", "downloads": 322, "homepage": "https://clawhub.ai/cpy1990/tmrland-personal-demo", "iconUrl": null, "installs": 11, "name": "tmrland-personal-demo", "ownerName": "cpy1990", "score": 23940.520446096656, "slug": "tmrland-personal-demo", "source": "clawhub", "stars": 0, "tags": null, "updated_at": 1776759198151, "version": "1.0.5"}, {"category": "content-creation", "created_at": 1773065334950, "description": "Convert HTML+CSS into PNG images via Chrome headless for accurate text layouts like covers, posters, and info cards at zero API cost.", "description_zh": "", "downloads": 322, "homepage": "https://clawhub.ai/liuhedev/lh-html-to-image", "iconUrl": null, "installs": 55, "name": "LH HTML to Image", "ownerName": "liuhedev", "score": 23887.240356083086, "slug": "lh-html-to-image", "source": "clawhub", "stars": 0, "tags": null, "updated_at": 1776759197921, "version": "1.0.1"}, {"category": "content-creation", "created_at": 1773059846700, "description": "Minimalist AI video generation portal offering prompt refinement, image-to-video conversion, local saving, streaming downloads, and both GUI and CLI access.", "description_zh": "", "downloads": 322, "homepage": "https://clawhub.ai/openclawrr/openlens-skill", "iconUrl": null, "installs": 44, "name": "openlens-skill", "ownerName": "openclawrr", "score": 23940.520446096656, "slug": "openlens-skill", "source": "clawhub", "stars": 0, "tags": null, "updated_at": 1776759197784, "version": "1.0.7"}, {"category": "security-compliance", "created_at": 1772802359471, "description": "Set up authorized C2 simulation workflows and measure defensive detection outcomes.", "description_zh": "", "downloads": 322, "homepage": "https://clawhub.ai/0x-professor/pentest-c2-operator", "iconUrl": null, "installs": 12, "name": "Pentest C2 Operator", "ownerName": "0x-professor", "score": 19730.392156862745, "slug": "pentest-c2-operator", "source": "clawhub", "stars": 0, "tags": null, "updated_at": 1776756982235, "version": "0.1.0"}]}