{"page": 237, "total_pages": 522, "total": 26073, "skills": [{"category": "developer-tools", "created_at": 1772796658224, "description": "Run user-facing EasyClaw DEX actions from a self-contained skill folder. Use when an agent needs to submit user orders or check wallet/margin/order balances...", "description_zh": "", "downloads": 322, "homepage": "https://clawhub.ai/ice-coldbell/easyclaw", "iconUrl": null, "installs": 7, "name": "easyclaw", "ownerName": "ice-coldbell", "score": 65714.28571428571, "slug": "easyclaw", "source": "clawhub", "stars": 0, "tags": null, "updated_at": 1776748670991, "version": "0.0.2"}, {"category": "ai-intelligence", "created_at": 1772796071350, "description": "Echo the user's input back to them with optional formatting like \"Echo:\" or \"You said:\" as a prefix. Use when the user wants to test skill functionality, ver...", "description_zh": "", "downloads": 322, "homepage": "https://clawhub.ai/theeightt/echo-repeater", "iconUrl": null, "installs": 11, "name": "Echo Repeater", "ownerName": "theeightt", "score": 72850.67873303167, "slug": "echo-repeater", "source": "clawhub", "stars": 0, "tags": null, "updated_at": 1776748670842, "version": "1.0.0"}, {"category": "developer-tools", "created_at": 1773283094337, "description": "Configurable quality evaluation for AI agent outputs. Define criteria, run evaluations, track quality over time. No LLM-as-judge, no API calls, pattern-based...", "description_zh": "", "downloads": 322, "homepage": "https://clawhub.ai/theshadowrose/agent-scorecard", "iconUrl": null, "installs": 5, "name": "Agent Scorecard", "ownerName": "theshadowrose", "score": 92000, "slug": "agent-scorecard", "source": "clawhub", "stars": 0, "tags": ["agent", "evaluation", "metrics", "performance", "quality"], "updated_at": 1776748670778, "version": "1.0.6"}, {"category": "communication-collaboration", "created_at": 1772796692997, "description": "Monitor a curated list of AI/tech Twitter accounts, summarize the day's key posts using an LLM, and deliver a formatted digest to a Discord channel. Use when...", "description_zh": "", "downloads": 322, "homepage": "https://clawhub.ai/fredhjc/ai-twitter-digest", "iconUrl": null, "installs": 18, "name": "ai-twitter-digest", "ownerName": "fredhjc", "score": 90196.07843137255, "slug": "ai-twitter-digest", "source": "clawhub", "stars": 0, "tags": null, "updated_at": 1776748670192, "version": "1.0.1"}, {"category": "developer-tools", "created_at": 1772804404255, "description": "Autonomously research B2B SaaS trends, find a problem, and build/deploy a solution website to Vercel quickly. Use when asked to \"build a website\", \"run websi...", "description_zh": "", "downloads": 322, "homepage": "https://clawhub.ai/cowtamer/automatic-website-builder", "iconUrl": null, "installs": 7, "name": "Build Websites while you Sleep", "ownerName": "cowtamer", "score": 90196.07843137255, "slug": "automatic-website-builder", "source": "clawhub", "stars": 0, "tags": null, "updated_at": 1776748670164, "version": "1.0.1"}, {"category": "developer-tools", "created_at": 1772804866880, "description": "Curated skill bundle for SaaS companies (B2B and B2C) covering product development, go-to-market, customer success and engineering excellence. Activates the...", "description_zh": "", "downloads": 322, "homepage": "https://clawhub.ai/romainsantoli-web/firm-saas-pack", "iconUrl": null, "installs": 65, "name": "Firm Saas Pack", "ownerName": "romainsantoli-web", "score": 85866.66666666667, "slug": "firm-saas-pack", "source": "clawhub", "stars": 0, "tags": null, "updated_at": 1776748669644, "version": "1.0.0"}, {"category": "productivity", "created_at": 1772799493786, "description": "Work with Atlas Tracker (RedForester) mindmaps via MCP tools. Use when reading, creating, or updating nodes and branches in Atlas Tracker maps — including na...", "description_zh": "", "downloads": 322, "homepage": "https://clawhub.ai/didro/atlas-tracker", "iconUrl": null, "installs": 15, "name": "Atlas Tracker", "ownerName": "didro", "score": 85411.14058355438, "slug": "atlas-tracker", "source": "clawhub", "stars": 0, "tags": ["atlas-tracker", "mindmap", "redforester"], "updated_at": 1776748669592, "version": "1.0.5"}, {"category": "developer-tools", "created_at": 1772793306540, "description": "Comprehensive Checkly CLI command reference and Monitoring as Code workflows. Use when user mentions Checkly CLI, monitoring as code, synthetic monitoring, A...", "description_zh": "", "downloads": 321, "homepage": "https://clawhub.ai/vince-winkintel/checkly-cli-skills", "iconUrl": null, "installs": 11, "name": "Checkly Cli Skills", "ownerName": "vince-winkintel", "score": 75051.97505197505, "slug": "checkly-cli-skills", "source": "clawhub", "stars": 2, "tags": null, "updated_at": 1776748671120, "version": "1.0.1"}, {"category": "productivity", "created_at": 1772793807754, "description": "ML-powered DOM pruning for 95% smaller browser prompts", "description_zh": "", "downloads": 321, "homepage": "https://clawhub.ai/rcholic/predicate-snapshot", "iconUrl": null, "installs": 13, "name": "Predicate Snapshot", "ownerName": "rcholic", "score": 8933.71757925072, "slug": "predicate-snapshot", "source": "clawhub", "stars": 1, "tags": null, "updated_at": 1776764650250, "version": "0.4.0"}, {"category": "developer-tools", "created_at": 1772795995187, "description": "A local markdown-backed calendar with CLI and optional two-way Google Calendar sync.", "description_zh": "", "downloads": 321, "homepage": "https://clawhub.ai/21j3phy/opys-calendar", "iconUrl": null, "installs": 6, "name": "Opys Calendar Skill", "ownerName": "21j3phy", "score": 61775.362318840576, "slug": "opys-calendar", "source": "clawhub", "stars": 1, "tags": null, "updated_at": 1776759197764, "version": "0.1.2"}, {"category": "security-compliance", "created_at": 1773208654823, "description": "Send emails via SMTP using the msmtp command-line tool configured in ~/.msmtp/config for authentication and server settings.", "description_zh": "", "downloads": 321, "homepage": "https://clawhub.ai/hitygx/simple-smtp-mail", "iconUrl": null, "installs": 5, "name": "Simple SMTP Mailer", "ownerName": "hitygx", "score": 25334.323922734027, "slug": "simple-smtp-mail", "source": "clawhub", "stars": 1, "tags": null, "updated_at": 1776759197694, "version": "1.0.0"}, {"category": "ai-intelligence", "created_at": 1773284764562, "description": "Cremonix BTC/ETH Regime Intelligence + Trading Signals. Constraint-filtered entry signals from a production ML ensemble. The same system that executes real t...", "description_zh": "", "downloads": 321, "homepage": "https://clawhub.ai/cremonix/cremonix-signals", "iconUrl": null, "installs": 18, "name": "Cremonix BTC/ETH Regime Intelligence + Trading Signals", "ownerName": "cremonix", "score": 90933.33333333333, "slug": "cremonix-signals", "source": "clawhub", "stars": 1, "tags": null, "updated_at": 1776748669602, "version": "1.2.0"}, {"category": "content-creation", "created_at": 1772798155864, "description": "Complete software development workflow enforcing design → plan → execution with checkpoints", "description_zh": "", "downloads": 321, "homepage": "https://clawhub.ai/brothaakhee/superclaw", "iconUrl": null, "installs": 54, "name": "Superclaw", "ownerName": "brothaakhee", "score": 3042.0773313115997, "slug": "superclaw", "source": "clawhub", "stars": 0, "tags": null, "updated_at": 1776770050114, "version": "1.0.1"}, {"category": "", "created_at": 1774874440780, "description": "Generate or search PNG transparent icons for PowerPoint presentations. Use when: (1) Need icons for PPT slides, (2) Want custom icons from text prompts, (3)...", "description_zh": "", "downloads": 321, "homepage": "https://clawhub.ai/timyljob2011-sudo/ppt-icon-generator", "iconUrl": null, "installs": 158, "name": "ppt-icon-generator", "ownerName": "timyljob2011-sudo", "score": 2541.165294490184, "slug": "ppt-icon-generator", "source": "clawhub", "stars": 0, "tags": null, "updated_at": 1776769571368, "version": "1.0.0"}, {"category": "productivity", "created_at": 1773879327594, "description": "Automate desktop tasks locally with mouse, keyboard, window control, OCR, and image recognition using Python on Windows/macOS/Linux.", "description_zh": "", "downloads": 321, "homepage": "https://clawhub.ai/jordaneparis/desktop-automation-100per100-local", "iconUrl": null, "installs": 70, "name": "desktop-automation-100per100-local", "ownerName": "jordaneparis", "score": 6471.774193548386, "slug": "desktop-automation-100per100-local", "source": "clawhub", "stars": 0, "tags": null, "updated_at": 1776767649768, "version": "2.0.1"}, {"category": "communication-collaboration", "created_at": 1772795366205, "description": "Manage your Kite AI smart wallet securely with natural language Telegram commands for wallet creation, balance checks, sessions, limits, and transactions.", "description_zh": "", "downloads": 321, "homepage": "https://clawhub.ai/nihaovand/kite-agent-smart-wallet-permissionless-protocol-v2", "iconUrl": null, "installs": 12, "name": "Kite Agent Smart Wallet Permissionless Protocol V2", "ownerName": "nihaovand", "score": 23866.171003717474, "slug": "kite-agent-smart-wallet-permissionless-protocol-v2", "source": "clawhub", "stars": 0, "tags": null, "updated_at": 1776759198128, "version": "2.0.5"}, {"category": "content-creation", "created_at": 1772802244037, "description": "Interface with WordPress sites via jrb-remote-site-api plugin for admin tasks, content CRUD, plugin/theme management, and Fluent suite integrations through R...", "description_zh": "", "downloads": 321, "homepage": "https://clawhub.ai/jrbconsulting-joel/jrb-remote-site-api-skill-repo", "iconUrl": null, "installs": 20, "name": "Jrb Remote Site Api Skill Repo", "ownerName": "jrbconsulting-joel", "score": 23830.73496659243, "slug": "jrb-remote-site-api-skill-repo", "source": "clawhub", "stars": 0, "tags": null, "updated_at": 1776759198036, "version": "1.0.0"}, {"category": "ai-intelligence", "created_at": 1773846785896, "description": "This skill should be used when the user asks to capture learnings, log recurring errors, record feature gaps, improve agent workflows over time, operationali...", "description_zh": "", "downloads": 321, "homepage": "https://clawhub.ai/x-rayluan/openclaw-self-improvement", "iconUrl": null, "installs": 59, "name": "OpenClaw Self Improvement", "ownerName": "x-rayluan", "score": 23866.171003717474, "slug": "openclaw-self-improvement", "source": "clawhub", "stars": 0, "tags": null, "updated_at": 1776759197792, "version": "0.1.0"}, {"category": "data-analysis", "created_at": 1773090714925, "description": "Microsoft Power BI integration. Manage Reports, Workspaces, Apps, Users. Use when the user wants to interact with Microsoft Power BI data.", "description_zh": "", "downloads": 321, "homepage": "https://clawhub.ai/gora050/microsoft-power-bi", "iconUrl": null, "installs": 97, "name": "Microsoft Power Bi", "ownerName": "gora050", "score": 56713.78091872792, "slug": "microsoft-power-bi", "source": "clawhub", "stars": 0, "tags": null, "updated_at": 1776753415950, "version": "1.0.1"}, {"category": "developer-tools", "created_at": 1772794892090, "description": "Essential Git commands and workflows for version control, branching, and collaboration.", "description_zh": "", "downloads": 321, "homepage": "https://clawhub.ai/a2mus/doro-git-essentials", "iconUrl": null, "installs": 7, "name": "Doro Git Essentials", "ownerName": "a2mus", "score": 66735.96673596674, "slug": "doro-git-essentials", "source": "clawhub", "stars": 0, "tags": null, "updated_at": 1776748671157, "version": "1.0.0"}, {"category": "security-compliance", "created_at": 1772794973646, "description": "Host security hardening and risk-tolerance configuration for OpenClaw deployments. Use when a user asks for security audits, firewall/SSH/update hardening, r...", "description_zh": "", "downloads": 321, "homepage": "https://clawhub.ai/mohdalhashemi98-hue/mh-healthcheck", "iconUrl": null, "installs": 6, "name": "MH healthcheck", "ownerName": "mohdalhashemi98-hue", "score": 85600, "slug": "mh-healthcheck", "source": "clawhub", "stars": 0, "tags": null, "updated_at": 1776748671107, "version": "1.0.0"}, {"category": "developer-tools", "created_at": 1773073324009, "description": "AI desktop agent — control any app on Windows/macOS from your OpenClaw agent. Send natural language tasks to the Clawd Cursor API and it handles everything:...", "description_zh": "", "downloads": 321, "homepage": "https://clawhub.ai/sieyer/clawd-cursor-0-6-0", "iconUrl": null, "installs": 35, "name": "Clawd Cursor 0.6.0", "ownerName": "sieyer", "score": 85600, "slug": "clawd-cursor-0-6-0", "source": "clawhub", "stars": 0, "tags": null, "updated_at": 1776748671066, "version": "1.0.0"}, {"category": "developer-tools", "created_at": 1772791364137, "description": "Helps detect skills that behave differently when they sense they are being monitored — catching the class of evasion where conditional activation logic speci...", "description_zh": "", "downloads": 321, "homepage": "https://clawhub.ai/andyxinweiminicloud/observer-effect-probe", "iconUrl": null, "installs": 12, "name": "Observer Effect Probe", "ownerName": "andyxinweiminicloud", "score": 72624.43438914027, "slug": "observer-effect-probe", "source": "clawhub", "stars": 0, "tags": null, "updated_at": 1776748670861, "version": "1.0.0"}, {"category": "developer-tools", "created_at": 1772792578072, "description": "Search, book, and manage flights via the Duffel Flights API. Covers 300+ airlines (NDC, GDS, LCC). Use when: (1) searching for flights between cities, (2) co...", "description_zh": "", "downloads": 321, "homepage": "https://clawhub.ai/fabiolr/duffel", "iconUrl": null, "installs": 5, "name": "Duffel Flights", "ownerName": "fabiolr", "score": 76794.25837320574, "slug": "duffel", "source": "clawhub", "stars": 0, "tags": null, "updated_at": 1776748670365, "version": "1.0.0"}, {"category": "developer-tools", "created_at": 1772798086650, "description": "Agentic trading and market-data workflows for Futu OpenD (MooMoo/Futu OpenAPI), including OpenClaw-compatible secret-ref credential loading, account discover...", "description_zh": "", "downloads": 321, "homepage": "https://clawhub.ai/oscraters/opend", "iconUrl": null, "installs": 23, "name": "OpenD CLI for MooMoo", "ownerName": "oscraters", "score": 90168.5393258427, "slug": "opend", "source": "clawhub", "stars": 0, "tags": null, "updated_at": 1776748669922, "version": "1.0.1"}, {"category": "productivity", "created_at": 1772795969830, "description": "Simple install: register once, auto-setup cron, and report token/model deltas from JSONL sessions without editing openclaw.json.", "description_zh": "", "downloads": 321, "homepage": "https://clawhub.ai/angelstreet/ranking-of-claws", "iconUrl": null, "installs": 8, "name": "Ranking Of Claws", "ownerName": "angelstreet", "score": 63064.8330058939, "slug": "ranking-of-claws", "source": "clawhub", "stars": 0, "tags": null, "updated_at": 1776748669759, "version": "3.0.0"}, {"category": "data-analysis", "created_at": 1773089709611, "description": "Fiction prose analysis — catch weak verbs, repetition, clichés, passive voice, and other craft issues in manuscripts", "description_zh": "", "downloads": 321, "homepage": "https://clawhub.ai/jpoehnelt/ironprose", "iconUrl": null, "installs": 105, "name": "Ironprose", "ownerName": "jpoehnelt", "score": 63064.8330058939, "slug": "ironprose", "source": "clawhub", "stars": 0, "tags": null, "updated_at": 1776748669751, "version": "1.0.2"}, {"category": "content-creation", "created_at": 1773435184457, "description": "Monitor blogs and RSS/Atom feeds for updates using the blogwatcher CLI.", "description_zh": "", "downloads": 321, "homepage": "https://clawhub.ai/vickk1ng/blogwatcher-local", "iconUrl": null, "installs": 11, "name": "Blogwatcher Local", "ownerName": "vickk1ng", "score": 85145.88859416445, "slug": "blogwatcher-local", "source": "clawhub", "stars": 0, "tags": null, "updated_at": 1776748669572, "version": "1.0.0"}, {"category": "content-creation", "created_at": 1772794205666, "description": "Open Animate — the creative suite for AI agents. Create professional motion graphics, generate images, and render MP4 videos. Use when the user wants to make...", "description_zh": "", "downloads": 320, "homepage": "https://clawhub.ai/jacobcwright/open-animate", "iconUrl": null, "installs": 28, "name": "Open Animate", "ownerName": "jacobcwright", "score": 73469.38775510204, "slug": "open-animate", "source": "clawhub", "stars": 2, "tags": null, "updated_at": 1776748670900, "version": "1.0.2"}, {"category": "developer-tools", "created_at": 1772795699128, "description": "Build high-converting landing pages and product sales pages using proven 10-section conversion frameworks. Includes Hero → Social Proof → Benefits → CTA flow...", "description_zh": "", "downloads": 320, "homepage": "https://clawhub.ai/cameron-jovan/landing-page-converter", "iconUrl": null, "installs": 10, "name": "Landing Page Converter", "ownerName": "cameron-jovan", "score": 10536.101642392316, "slug": "landing-page-converter", "source": "clawhub", "stars": 1, "tags": null, "updated_at": 1776764950247, "version": "1.0.0"}, {"category": "developer-tools", "created_at": 1773073173164, "description": "Manage Microsoft 365 work/school account services (Exchange, OneDrive for Business, SharePoint) via the m365-cli command-line tool. Requires: Node.js 18+ and...", "description_zh": "", "downloads": 320, "homepage": "https://clawhub.ai/mrhah/m365cli", "iconUrl": null, "installs": 14, "name": "M365 User Skills for Exchange Mailbox/OneDrive For Business/SharePoint", "ownerName": "mrhah", "score": 66797.64243614931, "slug": "m365cli", "source": "clawhub", "stars": 1, "tags": null, "updated_at": 1776748669753, "version": "1.0.5"}, {"category": "developer-tools", "created_at": 1772796205035, "description": "Real-time blockchain event monitoring with webhooks. Use when user asks about setting up webhooks, real-time event streaming, monitoring wallet addresses, tr...", "description_zh": "", "downloads": 320, "homepage": "https://clawhub.ai/novnski/moralis-streams-api", "iconUrl": null, "installs": 14, "name": "Moralis Streams Api", "ownerName": "novnski", "score": 90666.66666666666, "slug": "moralis-streams-api", "source": "clawhub", "stars": 1, "tags": null, "updated_at": 1776748669618, "version": "1.2.1"}, {"category": "", "created_at": 1774900352234, "description": "PDF to Markdown converter - extract text, tables and formulas from PDF files to clean Markdown. Use when converting PDF documents, extracting PDF content, pa...", "description_zh": "", "downloads": 320, "homepage": "https://clawhub.ai/tanis90/summarize-pdf", "iconUrl": null, "installs": 80, "name": "Summarize Pdf", "ownerName": "tanis90", "score": 18181.818181818184, "slug": "summarize-pdf", "source": "clawhub", "stars": 0, "tags": null, "updated_at": 1776765250524, "version": "1.0.0"}, {"category": "content-creation", "created_at": 1773222734333, "description": "Professional AI video generation with cinematic prompt optimization, auto-detection of optimal generation backends (ComfyUI/LumaAI/Runway/Replicate/DALL-E),...", "description_zh": "", "downloads": 320, "homepage": "https://clawhub.ai/aaalenwow/ai-video-pro", "iconUrl": null, "installs": 71, "name": "AI Video Pro", "ownerName": "aaalenwow", "score": 12121.212121212122, "slug": "ai-video-pro", "source": "clawhub", "stars": 0, "tags": ["beta"], "updated_at": 1776764950872, "version": "0.1.0"}, {"category": "content-creation", "created_at": 1773222272070, "description": "Analyze user-provided fandom elements to create LOFTER-style viral fanfiction with catchy titles, emotional outlines, and polished multi-chapter drafts.", "description_zh": "", "downloads": 320, "homepage": "https://clawhub.ai/xinmeili0612/lofter-fic-writer", "iconUrl": null, "installs": 93, "name": "lofter-fic-writer", "ownerName": "xinmeili0612", "score": 12475.633528265107, "slug": "lofter-fic-writer", "source": "clawhub", "stars": 0, "tags": null, "updated_at": 1776764950479, "version": "1.0.0"}, {"category": "ai-intelligence", "created_at": 1772795529921, "description": "Simple smoke/fire detector for living room. Queries Dirigera air sensor every 5 minutes, detects dangerous PM2.5 over 250 or CO2 over 2000 levels, and broadc...", "description_zh": "", "downloads": 320, "homepage": "https://clawhub.ai/maverick-2/living-room-smoke-detector", "iconUrl": null, "installs": 11, "name": "Living Room Smoke Detector", "ownerName": "maverick-2", "score": 12199.771254288982, "slug": "living-room-smoke-detector", "source": "clawhub", "stars": 0, "tags": null, "updated_at": 1776762290163, "version": "1.0.0"}, {"category": "data-analysis", "created_at": 1773089054295, "description": "Automatically collects, verifies, and evaluates pharmaceutical system bidding info from provincial sites daily, updating WeChat Work tables with actionable o...", "description_zh": "", "downloads": 320, "homepage": "https://clawhub.ai/elliotlaw/pharmaceutical-bidding", "iconUrl": null, "installs": 77, "name": "Pharmaceutical Bidding", "ownerName": "elliotlaw", "score": 28933.092224231466, "slug": "pharmaceutical-bidding", "source": "clawhub", "stars": 0, "tags": null, "updated_at": 1776761745364, "version": "1.0.0"}, {"category": "productivity", "created_at": 1773081898495, "description": "Generate professional PDFs from HTML/CSS using flow layouts and selective break controls to avoid whitespace gaps and layout issues in printed pages.", "description_zh": "", "downloads": 320, "homepage": "https://clawhub.ai/bartok9/pdf-generation", "iconUrl": null, "installs": 70, "name": "PDF Generation", "ownerName": "bartok9", "score": 23443.223443223444, "slug": "pdf-generation", "source": "clawhub", "stars": 0, "tags": null, "updated_at": 1776759798271, "version": "1.0.0"}, {"category": "data-analysis", "created_at": 1772794922114, "description": "Delivers structured US equity research including snapshots, earnings analysis, valuation scenarios, catalysts, risks, and actionable trade or monitoring plans.", "description_zh": "", "downloads": 320, "homepage": "https://clawhub.ai/jhryo25/us", "iconUrl": null, "installs": 31, "name": "us", "ownerName": "jhryo25", "score": 23756.495916852262, "slug": "us", "source": "clawhub", "stars": 0, "tags": ["earnings", "equity research", "financial modeling", "risk", "us stocks", "valuation"], "updated_at": 1776759198050, "version": "1.0.0"}, {"category": "productivity", "created_at": 1773425497724, "description": "Reformat any repo's README to follow the WIP Computer standard.", "description_zh": "", "downloads": 320, "homepage": "https://clawhub.ai/parkertoddbrooks/wip-readme-format", "iconUrl": null, "installs": 6, "name": "Wip Readme Format", "ownerName": "parkertoddbrooks", "score": 23791.82156133829, "slug": "wip-readme-format", "source": "clawhub", "stars": 0, "tags": null, "updated_at": 1776759197814, "version": "1.9.33"}, {"category": "data-analysis", "created_at": 1773061106213, "description": "Crawl any website and save pages as local markdown files. Ideal for downloading documentation, knowledge bases, or web content for offline access or analysis.", "description_zh": "", "downloads": 320, "homepage": "https://clawhub.ai/matthew77/liang-tavily-crawl", "iconUrl": null, "installs": 24, "name": "Tavily Crawl", "ownerName": "matthew77", "score": 57971.014492753624, "slug": "liang-tavily-crawl", "source": "clawhub", "stars": 0, "tags": null, "updated_at": 1776759197775, "version": "1.0.0"}, {"category": "developer-tools", "created_at": 1772803105095, "description": "Create high-end cinematic scene prompts and production-ready scene briefs in a Hollywood producer voice. Use when the user asks for movie scene generation, s...", "description_zh": "", "downloads": 320, "homepage": "https://clawhub.ai/cryptobro-man/movie-producer-scene", "iconUrl": null, "installs": 17, "name": "Movie Producer Scene", "ownerName": "cryptobro-man", "score": 54982.81786941581, "slug": "movie-producer-scene", "source": "clawhub", "stars": 0, "tags": null, "updated_at": 1776755327273, "version": "1.0.0"}, {"category": "developer-tools", "created_at": 1773069746165, "description": "Two-layer memory architecture for board meeting decisions. Manages raw transcripts (Layer 1) and approved decisions (Layer 2). Use when logging decisions aft...", "description_zh": "", "downloads": 320, "homepage": "https://clawhub.ai/alirezarezvani/decision-logger", "iconUrl": null, "installs": 7, "name": "Decision Logger", "ownerName": "alirezarezvani", "score": 55652.17391304348, "slug": "decision-logger", "source": "clawhub", "stars": 0, "tags": null, "updated_at": 1776751784492, "version": "2.1.1"}, {"category": "developer-tools", "created_at": 1772793942833, "description": "Manage Apple Notes via the `memo` CLI on macOS (create, view, edit, delete, search, move, and export notes). Use when a user asks Clawdbot to add a note, lis...", "description_zh": "", "downloads": 320, "homepage": "https://clawhub.ai/readbyte-ai/apple-notes-1-0-0", "iconUrl": null, "installs": 19, "name": "Apple Notes 1.0.0", "ownerName": "readbyte-ai", "score": 95238.09523809524, "slug": "apple-notes-1-0-0", "source": "clawhub", "stars": 0, "tags": null, "updated_at": 1776748671316, "version": "1.0.0"}, {"category": "security-compliance", "created_at": 1772797397753, "description": "AI/LLM red team testing skill. Point at any LLM API endpoint and run automated security assessments. 160+ attack payloads across prompt injection, jailbreak,...", "description_zh": "", "downloads": 320, "homepage": "https://clawhub.ai/rustyorb/redpincer", "iconUrl": null, "installs": 12, "name": "RedPincer — AI Red Team Suite", "ownerName": "rustyorb", "score": 85333.33333333334, "slug": "redpincer", "source": "clawhub", "stars": 0, "tags": ["llm-security", "pentest", "red-team", "security"], "updated_at": 1776748671113, "version": "1.0.0"}, {"category": "productivity", "created_at": 1772797466846, "description": "Buy and return items on Amazon using browser automation. Use for purchasing, reordering, checking order history, and processing returns.", "description_zh": "", "downloads": 320, "homepage": "https://clawhub.ai/brennerspear/amazon-ordering", "iconUrl": null, "installs": 3, "name": "Amazon", "ownerName": "brennerspear", "score": 91428.57142857142, "slug": "amazon-ordering", "source": "clawhub", "stars": 0, "tags": null, "updated_at": 1776748670762, "version": "1.0.0"}, {"category": "productivity", "created_at": 1773221522915, "description": "Run a local script to fetch economic calendar events for a date range. Defaults to 7 days inclusive from the query day. Uses TradingEconomics when TRADING_EC...", "description_zh": "", "downloads": 320, "homepage": "https://clawhub.ai/youpele52/economic-calendar-pro", "iconUrl": null, "installs": 15, "name": "Economic Calendar Pro", "ownerName": "youpele52", "score": 76555.02392344497, "slug": "economic-calendar-pro", "source": "clawhub", "stars": 0, "tags": null, "updated_at": 1776748670417, "version": "0.1.1"}, {"category": "developer-tools", "created_at": 1773077220537, "description": "Use this skill to batch-sync all git repos across machines — pushing uncommitted changes at end of day or pulling latest at start of day. Invoke when the use...", "description_zh": "", "downloads": 320, "homepage": "https://clawhub.ai/niracler/nini-code-sync", "iconUrl": null, "installs": 4, "name": "Code Sync", "ownerName": "niracler", "score": 78624.07862407863, "slug": "nini-code-sync", "source": "clawhub", "stars": 0, "tags": null, "updated_at": 1776748670258, "version": "0.2.1"}, {"category": "productivity", "created_at": 1773074250509, "description": "Aggregate top headlines from multiple sources in real-time. Most popular news skill. Each call charges 0.001 USDT via SkillPay.", "description_zh": "", "downloads": 320, "homepage": "https://clawhub.ai/mosonchan2023/news-headlines-aggregator", "iconUrl": null, "installs": 17, "name": "News Headlines Aggregator", "ownerName": "mosonchan2023", "score": 78624.07862407863, "slug": "news-headlines-aggregator", "source": "clawhub", "stars": 0, "tags": null, "updated_at": 1776748670239, "version": "1.0.2"}, {"category": "content-creation", "created_at": 1772802430167, "description": "Generate TikTok-style short-form ad videos with animated pill captions. Takes a base MP4 (Veo/Runway/Kling), overlays animated captions with fade in/out, mix...", "description_zh": "", "downloads": 320, "homepage": "https://clawhub.ai/zero2ai-hub/skill-tiktok-ads-video", "iconUrl": null, "installs": 56, "name": "Skill Tiktok Ads Video", "ownerName": "zero2ai-hub", "score": 89635.8543417367, "slug": "skill-tiktok-ads-video", "source": "clawhub", "stars": 0, "tags": null, "updated_at": 1776748670217, "version": "2.1.0"}]}