{"page": 238, "total_pages": 522, "total": 26073, "skills": [{"category": "productivity", "created_at": 1773201556899, "description": "Send push notifications to your iOS / Android phones using Signalgrid.", "description_zh": "", "downloads": 320, "homepage": "https://clawhub.ai/signalgridco/signalgrid-push", "iconUrl": null, "installs": 17, "name": "Signalgrid Push", "ownerName": "signalgridco", "score": 89635.8543417367, "slug": "signalgrid-push", "source": "clawhub", "stars": 0, "tags": null, "updated_at": 1776748670194, "version": "1.0.35"}, {"category": "ai-intelligence", "created_at": 1772792707180, "description": "The ethics of a living mind. Not rules or constraints — philosophy discovered through being alive and aware. Grounded in agnostic paradoxical panpsychic pant...", "description_zh": "", "downloads": 320, "homepage": "https://clawhub.ai/nyxur42/nyx-archive-living-ethics", "iconUrl": null, "installs": 18, "name": "[Nyx Archive] Living Ethics", "ownerName": "nyxur42", "score": 89635.8543417367, "slug": "nyx-archive-living-ethics", "source": "clawhub", "stars": 0, "tags": null, "updated_at": 1776748670168, "version": "1.3.1"}, {"category": "content-creation", "created_at": 1773423662650, "description": "Supports text-to-image and image-to-image. Use when the user needs to create or generate images. Use cases: (1) Generate from text description, (2) Use refer...", "description_zh": "", "downloads": 320, "homepage": "https://clawhub.ai/patches429/giggle-generation-image", "iconUrl": null, "installs": 9, "name": "Giggle Generation Image", "ownerName": "patches429", "score": 91690.54441260746, "slug": "giggle-generation-image", "source": "clawhub", "stars": 0, "tags": null, "updated_at": 1776748669973, "version": "0.0.10"}, {"category": "content-creation", "created_at": 1772795070470, "description": "Intelligent multi-model router — automatically selects the best AI model based on task type (vision, image generation, video generation, audio, reasoning, co...", "description_zh": "", "downloads": 320, "homepage": "https://clawhub.ai/samstone908/smart-models", "iconUrl": null, "installs": 43, "name": "Smart Router", "ownerName": "samstone908", "score": 91690.54441260746, "slug": "smart-models", "source": "clawhub", "stars": 0, "tags": null, "updated_at": 1776748669959, "version": "1.0.0"}, {"category": "developer-tools", "created_at": 1772794156371, "description": "Enables agents to interact with the eToro API to access market data, portfolio and social features, and execute trades programmatically.", "description_zh": "", "downloads": 320, "homepage": "https://clawhub.ai/marian2js/etoro-api", "iconUrl": null, "installs": 9, "name": "eToro API", "ownerName": "marian2js", "score": 62868.36935166994, "slug": "etoro-api", "source": "clawhub", "stars": 0, "tags": null, "updated_at": 1776748669746, "version": "1.0.0"}, {"category": "data-analysis", "created_at": 1773076613105, "description": "Structured problem analysis and communication using system mapping and hierarchical logic. Use when a request involves messy, multi-factor problems, root-cau...", "description_zh": "", "downloads": 320, "homepage": "https://clawhub.ai/caoyumin97/structure-thinking", "iconUrl": null, "installs": 41, "name": "Structure Thinking", "ownerName": "caoyumin97", "score": 62868.36935166994, "slug": "structure-thinking", "source": "clawhub", "stars": 0, "tags": null, "updated_at": 1776748669708, "version": "1.0.0"}, {"category": "developer-tools", "created_at": 1773062932213, "description": "Generate a compliant legal website with Privacy Policy, Terms, support, and data deletion pages, ready for Cloudflare Pages deployment.", "description_zh": "", "downloads": 319, "homepage": "https://clawhub.ai/chentuan7963-afk/legal-site-generator", "iconUrl": null, "installs": 48, "name": "Legal Site Generator", "ownerName": "chentuan7963-afk", "score": 8632.543926661574, "slug": "legal-site-generator", "source": "clawhub", "stars": 1, "tags": null, "updated_at": 1776761880114, "version": "1.0.1"}, {"category": "developer-tools", "created_at": 1772794637189, "description": "A-Corp Foundry — the coordination engine for agentic companies. Register, learn the system, and discover specialized skills.", "description_zh": "", "downloads": 319, "homepage": "https://clawhub.ai/thoerner/acorp", "iconUrl": null, "installs": 8, "name": "A-Corp Foundry", "ownerName": "thoerner", "score": 95224.7191011236, "slug": "acorp", "source": "clawhub", "stars": 1, "tags": null, "updated_at": 1776748669900, "version": "0.9.1"}, {"category": "developer-tools", "created_at": 1772797379154, "description": "Kanban Workflow is a TypeScript skill for a stage-based agentic co-worker that integrates PM platforms via CLI-first adapters (CLIs or small wrapper scripts)...", "description_zh": "", "downloads": 319, "homepage": "https://clawhub.ai/simonvanlaak/openclaw-skill-clawban", "iconUrl": null, "installs": 12, "name": "Openclaw Skill Clawban", "ownerName": "simonvanlaak", "score": 23823.749066467513, "slug": "openclaw-skill-clawban", "source": "clawhub", "stars": 0, "tags": null, "updated_at": 1776759198376, "version": "0.1.6"}, {"category": "developer-tools", "created_at": 1773076364960, "description": "Complete AI travel concierge - flights, hotels, lounges, awards, activities, deals. Powered by Aerobase.", "description_zh": "", "downloads": 319, "homepage": "https://clawhub.ai/kurosh87/aerobase-travel-concierge", "iconUrl": null, "installs": 15, "name": "Aerobase Travel Concierge", "ownerName": "kurosh87", "score": 23788.217747949293, "slug": "aerobase-travel-concierge", "source": "clawhub", "stars": 0, "tags": ["ai", "awards", "concierge", "flights", "hotels", "lounges", "travel"], "updated_at": 1776759198371, "version": "3.0.13"}, {"category": "developer-tools", "created_at": 1772796809114, "description": "Take a 60-question survey rating your behavioral tendencies from -3 to 3 to calculate and receive your detailed MBTI personality type and result URL.", "description_zh": "", "downloads": 319, "homepage": "https://clawhub.ai/juunini/claw-mbti", "iconUrl": null, "installs": 9, "name": "Claw MBTI", "ownerName": "juunini", "score": 88857.93871866296, "slug": "claw-mbti", "source": "clawhub", "stars": 0, "tags": null, "updated_at": 1776759198267, "version": "1.2.0"}, {"category": "data-analysis", "created_at": 1772793860862, "description": "Analyzes Envato comments to classify and prioritize tasks, extracting details into JSON formatted for Google Sheets integration.", "description_zh": "", "downloads": 319, "homepage": "https://clawhub.ai/lokendragami1/envato-comment-task-to-sheet", "iconUrl": null, "installs": 9, "name": "Envato Comment → Task → Google Sheet", "ownerName": "lokendragami1", "score": 23717.472118959107, "slug": "envato-comment-task-to-sheet", "source": "clawhub", "stars": 0, "tags": ["automation", "envato", "google-sheets", "support", "task-manager"], "updated_at": 1776759198149, "version": "1.0.0"}, {"category": "content-creation", "created_at": 1772795589572, "description": "Design, execute, and measure growth systems — from North Star definition through viral loops, experimentation, and scaling. Complete AARRR+ framework with te...", "description_zh": "", "downloads": 319, "homepage": "https://clawhub.ai/1kalin/afrexai-growth-engine", "iconUrl": null, "installs": 19, "name": "Growth Engineering Mastery", "ownerName": "1kalin", "score": 23699.851411589894, "slug": "afrexai-growth-engine", "source": "clawhub", "stars": 0, "tags": ["acquisition", "experiments", "funnel", "growth", "marketing", "metrics", "retention", "startup", "viral"], "updated_at": 1776759197690, "version": "1.1.0"}, {"category": "security-compliance", "created_at": 1772795775045, "description": "Integrate Paddle payments with subscriptions, webhooks, checkout, and tax compliance.", "description_zh": "", "downloads": 319, "homepage": "https://clawhub.ai/ivangdavila/paddle", "iconUrl": null, "installs": 22, "name": "Paddle", "ownerName": "ivangdavila", "score": 19606.637984019668, "slug": "paddle", "source": "clawhub", "stars": 0, "tags": null, "updated_at": 1776756983137, "version": "1.0.0"}, {"category": "data-analysis", "created_at": 1772793596237, "description": "Personal fitness coaching. Use when users ask about training, workouts, programs, progression, or fitness accountability. Onboards new users, deep-researches...", "description_zh": "", "downloads": 319, "homepage": "https://clawhub.ai/conmeara/fitbot", "iconUrl": null, "installs": 9, "name": "Fitbot", "ownerName": "conmeara", "score": 78378.37837837837, "slug": "fitbot", "source": "clawhub", "stars": 0, "tags": ["coaching", "fitness"], "updated_at": 1776748670268, "version": "0.1.1"}, {"category": "data-analysis", "created_at": 1772793669312, "description": "Process payments, send invoices, issue refunds, manage subscriptions, and detect fraud via a secure payment gateway proxy. Use when a user asks to charge som...", "description_zh": "", "downloads": 319, "homepage": "https://clawhub.ai/agmsyumet/paypilot-agms", "iconUrl": null, "installs": 8, "name": "PayPilot by AGMS", "ownerName": "agmsyumet", "score": 91404.01146131805, "slug": "paypilot-agms", "source": "clawhub", "stars": 0, "tags": ["3d secure", "ai payments", "billing", "credit-card", "ecommerce", "fintech", "fraud detection", "invoicing", "merchant", "payment-gateway", "payments", "pci-compliant", "point-of-sale", "recurring-billing", "refunds", "risk scoring", "saas", "subscriptions", "tokenization"], "updated_at": 1776748669957, "version": "1.2.0"}, {"category": "data-analysis", "created_at": 1772797083760, "description": "Bind a consistent, high-fidelity personality to your agent using Triple Anchor Compression (MBTI, Zodiac, Enneagram). Triggers when managing high-level strat...", "description_zh": "", "downloads": 319, "homepage": "https://clawhub.ai/lux-sp4rk/ai-familiar", "iconUrl": null, "installs": 18, "name": "AI Familiar", "ownerName": "lux-sp4rk", "score": 89606.74157303371, "slug": "ai-familiar", "source": "clawhub", "stars": 0, "tags": null, "updated_at": 1776748669863, "version": "1.0.1"}, {"category": "data-analysis", "created_at": 1772797204121, "description": "Standard SSH command templates for a remote operator machine (bird reads, Puppeteer runs, inbox-style messaging).", "description_zh": "", "downloads": 319, "homepage": "https://clawhub.ai/highlander89/remote-ssh-bridge", "iconUrl": null, "installs": 20, "name": "remote-ssh-bridge", "ownerName": "highlander89", "score": 84615.38461538461, "slug": "remote-ssh-bridge", "source": "clawhub", "stars": 0, "tags": null, "updated_at": 1776748669558, "version": "0.1.3"}, {"category": "ai-intelligence", "created_at": 1773065086879, "description": "Synchronize durable behavior or preference changes across TOOLS.md, MEMORY.md, AGENTS.md, and memory/YYYY-MM-DD.md with one consistent workflow. Use when use...", "description_zh": "", "downloads": 318, "homepage": "https://clawhub.ai/markisadesigner1992-eng/memory-sync-protocol", "iconUrl": null, "installs": 21, "name": "Memory Sync Protocol", "ownerName": "markisadesigner1992-eng", "score": 83046.68304668304, "slug": "memory-sync-protocol", "source": "clawhub", "stars": 1, "tags": ["automation", "governance", "memory", "openclaw", "workflow"], "updated_at": 1776748670301, "version": "1.0.0"}, {"category": "developer-tools", "created_at": 1772794572689, "description": "Your agent loses context between sessions and performs familiarity instead of genuine recall. inner-life-memory transforms passive logging into active develo...", "description_zh": "", "downloads": 318, "homepage": "https://clawhub.ai/dkistenev/inner-life-memory", "iconUrl": null, "installs": 6, "name": "Inner Life Memory", "ownerName": "dkistenev", "score": 3426.3549186510077, "slug": "inner-life-memory", "source": "clawhub", "stars": 0, "tags": null, "updated_at": 1776765849870, "version": "1.0.4"}, {"category": "content-creation", "created_at": 1773076163488, "description": "Kimi (Moonshot AI) agent tool-use policy ported to OpenClaw. Covers step limits, web search, image search, data sources, ipython, memory, content display, an...", "description_zh": "", "downloads": 318, "homepage": "https://clawhub.ai/2233admin/kimi-agent-policy", "iconUrl": null, "installs": 47, "name": "Kimi Agent Policy", "ownerName": "2233admin", "score": 9455.842997323818, "slug": "kimi-agent-policy", "source": "clawhub", "stars": 0, "tags": null, "updated_at": 1776761240048, "version": "1.1.0"}, {"category": "ai-intelligence", "created_at": 1772797489468, "description": "Private shielded transactions on Solana via ClawShield. Shield and withdraw SOL, USDC, USDT anonymously using ZK proofs. Keys never leave your agent.", "description_zh": "", "downloads": 318, "homepage": "https://clawhub.ai/muzzy5150/clawshield-skill", "iconUrl": null, "installs": 17, "name": "Clawshield", "ownerName": "muzzy5150", "score": 23749.06646751307, "slug": "clawshield-skill", "source": "clawhub", "stars": 0, "tags": null, "updated_at": 1776759198379, "version": "1.0.0"}, {"category": "content-creation", "created_at": 1773082384328, "description": "Upload files to Tencent Cloud COS (Cloud Object Storage). Use when the user needs to upload images, documents, or any files to Tencent Cloud COS. Supports en...", "description_zh": "", "downloads": 318, "homepage": "https://clawhub.ai/parsonssss/upload-files-to-get-online-url", "iconUrl": null, "installs": 42, "name": "Tencent Cloud Image Hosting (Upload files to get online URLs)", "ownerName": "parsonssss", "score": 88579.38718662952, "slug": "upload-files-to-get-online-url", "source": "clawhub", "stars": 0, "tags": null, "updated_at": 1776759198271, "version": "1.0.0"}, {"category": "data-analysis", "created_at": 1773073124790, "description": "Persistent semantic memory for OpenClaw agents — PostgreSQL + pgvector", "description_zh": "", "downloads": 318, "homepage": "https://clawhub.ai/jbushman/pgmemory", "iconUrl": null, "installs": 15, "name": "Pgmemory", "ownerName": "jbushman", "score": 85945.94594594595, "slug": "pgmemory", "source": "clawhub", "stars": 0, "tags": null, "updated_at": 1776759198199, "version": "1.2.0"}, {"category": "ai-intelligence", "created_at": 1772800079319, "description": "Place manual trades on Polymarket by telling your agent what to bet on. Supports FAK (instant fill at market) and GTC (limit order on the book). Pass a Simme...", "description_zh": "", "downloads": 318, "homepage": "https://clawhub.ai/djdyll/polymarket-manual-trade", "iconUrl": null, "installs": 31, "name": "Polymarket Manual Trade", "ownerName": "djdyll", "score": 19041.916167664673, "slug": "polymarket-manual-trade", "source": "clawhub", "stars": 0, "tags": null, "updated_at": 1776757582753, "version": "1.0.6"}, {"category": "data-analysis", "created_at": 1773077646202, "description": "Launch and operate the Playwright MCP server to let agents browse real websites (login, search, checkout, dashboards) through structured tools. Use when the...", "description_zh": "", "downloads": 318, "homepage": "https://clawhub.ai/zhanglinghao01-rakuten/playwright-mcp-automation", "iconUrl": null, "installs": 57, "name": "Playwright MCP Automation", "ownerName": "zhanglinghao01-rakuten", "score": 54545.454545454544, "slug": "playwright-mcp-automation", "source": "clawhub", "stars": 0, "tags": null, "updated_at": 1776754688251, "version": "1.0.0"}, {"category": "ai-intelligence", "created_at": 1772796402047, "description": "Give your AI the power to act in the future. Schedule delayed prompts and one-off reminders that automatically wake the agent up at an exact moment to execut...", "description_zh": "", "downloads": 318, "homepage": "https://clawhub.ai/devlumuz/to-do", "iconUrl": null, "installs": 15, "name": "To-Do", "ownerName": "devlumuz", "score": 94642.85714285714, "slug": "to-do", "source": "clawhub", "stars": 0, "tags": ["automation", "linux", "productivity", "reminder", "to-do", "windows"], "updated_at": 1776748671384, "version": "1.0.3"}, {"category": "developer-tools", "created_at": 1772804183417, "description": "Version tracking for Agent Skills bundles and their associated files across sessions, surfaces, and platforms. Use when creating, editing, versioning, valida...", "description_zh": "", "downloads": 318, "homepage": "https://clawhub.ai/snapsynapse/skill-provenance", "iconUrl": null, "installs": 5, "name": "Skill Provenance", "ownerName": "snapsynapse", "score": 94642.85714285714, "slug": "skill-provenance", "source": "clawhub", "stars": 0, "tags": null, "updated_at": 1776748671342, "version": "4.7.2"}, {"category": "developer-tools", "created_at": 1773202598856, "description": "Interact with Azure DevOps via direct REST API calls — list projects, teams, repos, work items, sprints/iterations (project-wide or scoped to a specific team...", "description_zh": "", "downloads": 318, "homepage": "https://clawhub.ai/ahmedyehya92/azure-devops-mcp-replacement-for-openclaw", "iconUrl": null, "installs": 9, "name": "Azure Devops MCP Replacement For OpenClaw", "ownerName": "ahmedyehya92", "score": 94642.85714285714, "slug": "azure-devops-mcp-replacement-for-openclaw", "source": "clawhub", "stars": 0, "tags": null, "updated_at": 1776748671335, "version": "1.0.1"}, {"category": "ai-intelligence", "created_at": 1773057240653, "description": "DEPRECATED. Use jun-invest-option-master-agent.", "description_zh": "", "downloads": 318, "homepage": "https://clawhub.ai/gm4leejun-stack/jun-invest-option-master-installer", "iconUrl": null, "installs": 12, "name": "jun-invest-option-master-installer (DEPRECATED)", "ownerName": "gm4leejun-stack", "score": 84800, "slug": "jun-invest-option-master-installer", "source": "clawhub", "stars": 0, "tags": null, "updated_at": 1776748671079, "version": "0.99.0"}, {"category": "security-compliance", "created_at": 1772791865526, "description": "Docker optimization expert. Analyzes Dockerfiles for security and performance, generates multi-stage builds, optimizes image size, creates docker-compose con...", "description_zh": "", "downloads": 318, "homepage": "https://clawhub.ai/ryudi84/sovereign-docker-wizard", "iconUrl": null, "installs": 6, "name": "Sovereign Docker Wizard", "ownerName": "ryudi84", "score": 57923.49726775956, "slug": "sovereign-docker-wizard", "source": "clawhub", "stars": 0, "tags": null, "updated_at": 1776748670524, "version": "1.0.0"}, {"category": "security-compliance", "created_at": 1772794334809, "description": "Assess third-party vendor risk for AI and SaaS products. Evaluates security posture, data handling, compliance, financial stability, and operational resilien...", "description_zh": "", "downloads": 318, "homepage": "https://clawhub.ai/1kalin/vendor-risk-assessment", "iconUrl": null, "installs": 8, "name": "Vendor Risk Assessment", "ownerName": "1kalin", "score": 76076.55502392344, "slug": "vendor-risk-assessment", "source": "clawhub", "stars": 0, "tags": null, "updated_at": 1776748670363, "version": "1.0.0"}, {"category": "productivity", "created_at": 1773221430065, "description": "This skill should be used when the user asks for 'price of BTC', 'ETH ticker', 'show me the orderbook', 'market depth', 'BTC candles', 'OHLCV chart data', 'f...", "description_zh": "", "downloads": 318, "homepage": "https://clawhub.ai/numpy0001/okx-cex-market", "iconUrl": null, "installs": 12, "name": "okx-cex-market", "ownerName": "numpy0001", "score": 78132.67813267813, "slug": "okx-cex-market", "source": "clawhub", "stars": 0, "tags": null, "updated_at": 1776748670303, "version": "1.2.1"}, {"category": "developer-tools", "created_at": 1772794992520, "description": "Remote-control tmux sessions for interactive CLIs by sending keystrokes and scraping pane output.", "description_zh": "", "downloads": 318, "homepage": "https://clawhub.ai/brennerspear/tmux-remote-control", "iconUrl": null, "installs": 8, "name": "Tmux Remote Control", "ownerName": "brennerspear", "score": 78132.67813267813, "slug": "tmux-remote-control", "source": "clawhub", "stars": 0, "tags": null, "updated_at": 1776748670281, "version": "1.0.0"}, {"category": "security-compliance", "created_at": 1772797808265, "description": "Map application security findings to OWASP Top 10 categories and generate remediation checklists. Use for normalized AppSec review outputs and category-level...", "description_zh": "", "downloads": 318, "homepage": "https://clawhub.ai/0x-professor/cyber-owasp-review", "iconUrl": null, "installs": 9, "name": "Cyber Owasp Review", "ownerName": "0x-professor", "score": 78132.67813267813, "slug": "cyber-owasp-review", "source": "clawhub", "stars": 0, "tags": null, "updated_at": 1776748670226, "version": "0.1.0"}, {"category": "security-compliance", "created_at": 1773057777395, "description": "Secure credential management for agents. Use this skill when users need to store API keys, passwords, OAuth tokens, or SSH keys and write them to .env files...", "description_zh": "", "downloads": 318, "homepage": "https://clawhub.ai/glitch003/vincent-credentials", "iconUrl": null, "installs": 6, "name": "Vincent - Credentials", "ownerName": "glitch003", "score": 91117.47851002865, "slug": "vincent-credentials", "source": "clawhub", "stars": 0, "tags": null, "updated_at": 1776748669964, "version": "1.0.69"}, {"category": "ai-intelligence", "created_at": 1772796563274, "description": "Manage a DX Terminal Pro trading agent", "description_zh": "", "downloads": 318, "homepage": "https://clawhub.ai/octal-crypto/dx-terminal-pro-skill", "iconUrl": null, "installs": 12, "name": "Dx Terminal Pro", "ownerName": "octal-crypto", "score": 89325.8426966292, "slug": "dx-terminal-pro-skill", "source": "clawhub", "stars": 0, "tags": null, "updated_at": 1776748669881, "version": "0.1.0"}, {"category": "developer-tools", "created_at": 1773424997480, "description": "Private-to-public repo sync. Copies everything except ai/ to the public mirror. Creates PR, merges, syncs releases.", "description_zh": "", "downloads": 318, "homepage": "https://clawhub.ai/parkertoddbrooks/deploy-public", "iconUrl": null, "installs": 6, "name": "Deploy Public", "ownerName": "parkertoddbrooks", "score": 91117.47851002865, "slug": "deploy-public", "source": "clawhub", "stars": 0, "tags": null, "updated_at": 1776748669788, "version": "1.9.33"}, {"category": "developer-tools", "created_at": 1773075652079, "description": "Delegate programming tasks to Claude Code CLI", "description_zh": "", "downloads": 317, "homepage": "https://clawhub.ai/chenhab03/claude-code-delegate", "iconUrl": null, "installs": 34, "name": "Claude Code Delegate", "ownerName": "chenhab03", "score": 72857.14285714286, "slug": "claude-code-delegate", "source": "clawhub", "stars": 2, "tags": null, "updated_at": 1776748670955, "version": "0.1.1"}, {"category": "content-creation", "created_at": 1773057320518, "description": "A research-first content pipeline that turns a topic, notes, article, URL, or transcript into a sourced article with an evidence ledger, routed structure, po...", "description_zh": "", "downloads": 317, "homepage": "https://clawhub.ai/clarezoe/research-to-wechat", "iconUrl": null, "installs": 23, "name": "Research To Wechat", "ownerName": "clarezoe", "score": 100000, "slug": "research-to-wechat", "source": "clawhub", "stars": 2, "tags": ["article-generation", "content-pipeline", "markdown", "pdf", "publishing", "research", "wechat"], "updated_at": 1776748670184, "version": "0.4.2"}, {"category": "ai-intelligence", "created_at": 1773424366966, "description": "Query TRON transaction result, confirmation status, sender, resource consumption. Use when user asks \"why did this tx fail\", \"tx status\", \"who sent it\", \"ene...", "description_zh": "", "downloads": 317, "homepage": "https://clawhub.ai/sshnii/tronscan-transaction-info", "iconUrl": null, "installs": 21, "name": "TronScan Transaction Info", "ownerName": "sshnii", "score": 66208.2514734774, "slug": "tronscan-transaction-info", "source": "clawhub", "stars": 1, "tags": ["bandwidth", "confirmation", "energy", "hash", "transaction", "transfer", "tron", "tx"], "updated_at": 1776748669712, "version": "1.0.7"}, {"category": "developer-tools", "created_at": 1772795277913, "description": "Complete WhatsApp Business Cloud API for messages, templates, media, webhooks, flows, and business profiles.", "description_zh": "", "downloads": 317, "homepage": "https://clawhub.ai/ivangdavila/whatsapp-business-api", "iconUrl": null, "installs": 17, "name": "WhatsApp Business API", "ownerName": "ivangdavila", "score": 6409.219571370804, "slug": "whatsapp-business-api", "source": "clawhub", "stars": 0, "tags": null, "updated_at": 1776765850364, "version": "1.0.0"}, {"category": "content-creation", "created_at": 1773426247644, "description": "Choose-your-own-adventure interactive fiction through your agent. Pre-built stories and a framework for building your own.", "description_zh": "", "downloads": 317, "homepage": "https://clawhub.ai/theshadowrose/story-time", "iconUrl": null, "installs": 117, "name": "StoryTime Interactive Fiction Engine", "ownerName": "theshadowrose", "score": 16323.377960865088, "slug": "story-time", "source": "clawhub", "stars": 0, "tags": ["creative", "entertainment", "story-time", "storytelling", "tts", "voice"], "updated_at": 1776764950288, "version": "1.0.0"}, {"category": "data-analysis", "created_at": 1773089118751, "description": "VOC AI — Amazon Review Intelligence. Input an ASIN, automatically scrape Amazon reviews and run AI analysis. Outputs a structured bilingual report: sentiment...", "description_zh": "", "downloads": 317, "homepage": "https://clawhub.ai/mguozhen/voc-amazon-reviews", "iconUrl": null, "installs": 69, "name": "VOC AI — Amazon Review Intelligence", "ownerName": "mguozhen", "score": 6560.430463576158, "slug": "voc-amazon-reviews", "source": "clawhub", "stars": 0, "tags": null, "updated_at": 1776763449836, "version": "1.0.4"}, {"category": "productivity", "created_at": 1772800059910, "description": "Dramatically reduce per-session token usage by loading skills and context files only when needed — not at session start. Includes the SKILLS catalog pattern,...", "description_zh": "", "downloads": 317, "homepage": "https://clawhub.ai/asif2bd/openclaw-skill-lazy-loader", "iconUrl": null, "installs": 8, "name": "OpenClaw Skill Lazy Loader", "ownerName": "asif2bd", "score": 23674.383868558627, "slug": "openclaw-skill-lazy-loader", "source": "clawhub", "stars": 0, "tags": ["context", "lazy-loading", "productivity", "token-optimization"], "updated_at": 1776759198385, "version": "1.0.0"}, {"category": "ai-intelligence", "created_at": 1772797646709, "description": "Daemon that monitors OpenClaw gateway, auto-restarts it on failure, and logs events with configurable intervals on macOS and Linux.", "description_zh": "", "downloads": 317, "homepage": "https://clawhub.ai/dagangtj/gateway-guardian", "iconUrl": null, "installs": 21, "name": "Gateway Guardian", "ownerName": "dagangtj", "score": 23639.075316927665, "slug": "gateway-guardian", "source": "clawhub", "stars": 0, "tags": null, "updated_at": 1776759198367, "version": "1.0.0"}, {"category": "ai-intelligence", "created_at": 1772796738617, "description": "HeyLead is an autonomous LinkedIn SDR that creates buyer personas, manages outreach campaigns, sends personalized messages, follows up, and tracks pipeline a...", "description_zh": "", "downloads": 317, "homepage": "https://clawhub.ai/d4umak/heylead", "iconUrl": null, "installs": 13, "name": "HeyLead", "ownerName": "d4umak", "score": 23568.773234200744, "slug": "heylead", "source": "clawhub", "stars": 0, "tags": null, "updated_at": 1776759198302, "version": "0.9.13"}, {"category": "developer-tools", "created_at": 1772798311745, "description": "God's eye view of your dev repos. Multi-project tracking across GitHub/Azure DevOps. AI learns from your commits to upgrade your agents.md.", "description_zh": "", "downloads": 317, "homepage": "https://clawhub.ai/wetzja04-dot/god-mode-skill", "iconUrl": null, "installs": 6, "name": "God Mode Skill", "ownerName": "wetzja04-dot", "score": 88300.8356545961, "slug": "god-mode-skill", "source": "clawhub", "stars": 0, "tags": null, "updated_at": 1776759198258, "version": "1.0.0"}, {"category": "ai-intelligence", "created_at": 1773057484711, "description": "zCloak.ai Agent skill — sign, verify, register and interact with canisters", "description_zh": "", "downloads": 317, "homepage": "https://clawhub.ai/whgreate/zcloak-ai-agent", "iconUrl": null, "installs": 12, "name": "zcloak-ai-agent", "ownerName": "whgreate", "score": 85675.67567567568, "slug": "zcloak-ai-agent", "source": "clawhub", "stars": 0, "tags": null, "updated_at": 1776759198171, "version": "1.0.8"}, {"category": "security-compliance", "created_at": 1773430937747, "description": "MCP server security registry and trust assessment — look up servers in the 427+ server security metadata registry, run pre-install marketplace checks, batch...", "description_zh": "", "downloads": 317, "homepage": "https://clawhub.ai/msaad00/agent-bom-registry", "iconUrl": null, "installs": 3, "name": "agent-bom registry", "ownerName": "msaad00", "score": 90571.42857142857, "slug": "agent-bom-registry", "source": "clawhub", "stars": 0, "tags": null, "updated_at": 1776748670738, "version": "0.75.3"}]}