{"page": 239, "total_pages": 522, "total": 26073, "skills": [{"category": "data-analysis", "created_at": 1772791515450, "description": "Helps measure the concentration of trust roots in a skill's attestation graph — identifying monoculture risk where a single compromised root invalidates an e...", "description_zh": "", "downloads": 317, "homepage": "https://clawhub.ai/andyxinweiminicloud/attestation-root-diversity-analyzer", "iconUrl": null, "installs": 10, "name": "Attestation Root Diversity Analyzer", "ownerName": "andyxinweiminicloud", "score": 85675.67567567568, "slug": "attestation-root-diversity-analyzer", "source": "clawhub", "stars": 0, "tags": null, "updated_at": 1776748670688, "version": "1.0.0"}, {"category": "productivity", "created_at": 1772797209620, "description": "Provides access to the MCP_Server_Trigger (v0.1.0) MCP server. It offers 7 tool(s): {\"close_ssh_session\":\"\\nFecha uma sessão SSH ativa.\\n\\nArgs:\\n session_id...", "description_zh": "", "downloads": 317, "homepage": "https://clawhub.ai/is-the-king/ssh-netmiko", "iconUrl": null, "installs": 10, "name": "netmiko ssh", "ownerName": "is-the-king", "score": 60037.878787878784, "slug": "ssh-netmiko", "source": "clawhub", "stars": 0, "tags": null, "updated_at": 1776748670429, "version": "1.0.0"}, {"category": "content-creation", "created_at": 1772795733160, "description": "Get YouTube video info, statistics, descriptions, thumbnails, and optionally transcripts. Uses YouTube Data API (free) for basic info and Apify (optional) fo...", "description_zh": "", "downloads": 317, "homepage": "https://clawhub.ai/tevfikgulep/youtube-master", "iconUrl": null, "installs": 17, "name": "Youtube Master", "ownerName": "tevfikgulep", "score": 77886.97788697788, "slug": "youtube-master", "source": "clawhub", "stars": 0, "tags": null, "updated_at": 1776748670299, "version": "1.0.2"}, {"category": "developer-tools", "created_at": 1773064397320, "description": "Ready-to-use scraping recipes for Amazon, Google, LinkedIn, Instagram, Zillow, and 20+ popular websites. Pre-configured proxy rotation, headers, and anti-det...", "description_zh": "", "downloads": 317, "homepage": "https://clawhub.ai/luis2404123/scraping-recipes", "iconUrl": null, "installs": 13, "name": "Scraping Recipes", "ownerName": "luis2404123", "score": 77886.97788697788, "slug": "scraping-recipes", "source": "clawhub", "stars": 0, "tags": null, "updated_at": 1776748670271, "version": "1.0.0"}, {"category": "content-creation", "created_at": 1773076537838, "description": "Use this skill for any git commit, pull request, or release task. Invoke immediately when the user wants to: stage and commit changes, write a commit message...", "description_zh": "", "downloads": 317, "homepage": "https://clawhub.ai/niracler/nini-git-workflow", "iconUrl": null, "installs": 6, "name": "Git Workflow", "ownerName": "niracler", "score": 88795.5182072829, "slug": "nini-git-workflow", "source": "clawhub", "stars": 0, "tags": null, "updated_at": 1776748670118, "version": "0.2.1"}, {"category": "productivity", "created_at": 1772798478488, "description": "Query Czech ARES business registry by ICO or name with human/JSON/raw outputs, retries, and legal-form decoding.", "description_zh": "", "downloads": 317, "homepage": "https://clawhub.ai/pghostek/ares-business-registry", "iconUrl": null, "installs": 45, "name": "ARES Business Registry (CZ)", "ownerName": "pghostek", "score": 94626.86567164179, "slug": "ares-business-registry", "source": "clawhub", "stars": 0, "tags": ["ares", "czech"], "updated_at": 1776748670057, "version": "0.2.0"}, {"category": "ai-intelligence", "created_at": 1773061348860, "description": "Scaffold a self-learning goal-oriented agent. Set a goal, define a metric, and the agent iterates toward it — measuring, learning, and adapting its strategy...", "description_zh": "", "downloads": 317, "homepage": "https://clawhub.ai/theashbhat/goal-agent", "iconUrl": null, "installs": 40, "name": "goal-agent", "ownerName": "theashbhat", "score": 94626.86567164179, "slug": "goal-agent", "source": "clawhub", "stars": 0, "tags": null, "updated_at": 1776748670024, "version": "1.1.0"}, {"category": "developer-tools", "created_at": 1772795476748, "description": "Set up reliable browser automation using Chrome DevTools Protocol (CDP) instead of the flaky browser extension relay. Use when browser relay keeps disconnect...", "description_zh": "", "downloads": 317, "homepage": "https://clawhub.ai/jarvis563/stable-browser", "iconUrl": null, "installs": 11, "name": "Stable Browser", "ownerName": "jarvis563", "score": 90830.94555873924, "slug": "stable-browser", "source": "clawhub", "stars": 0, "tags": null, "updated_at": 1776748670001, "version": "1.0.0"}, {"category": "security-compliance", "created_at": 1773081192098, "description": "AI-powered bid/tender document review. Extracts text from .docx/.doc files, cross-references bid requirements vs responses, and generates a detailed audit re...", "description_zh": "", "downloads": 317, "homepage": "https://clawhub.ai/zacjiang/bid-review-lite", "iconUrl": null, "installs": 58, "name": "Bid Document Review (Lite)", "ownerName": "zacjiang", "score": 90830.94555873924, "slug": "bid-review-lite", "source": "clawhub", "stars": 0, "tags": null, "updated_at": 1776748669978, "version": "1.0.0"}, {"category": "developer-tools", "created_at": 1773057168422, "description": "Use esta skill para perguntas sobre saúde humana, sintomas, doenças, medicamentos, exames, prevenção, primeiros socorros e emergências médicas. Inclui dor, f...", "description_zh": "", "downloads": 317, "homepage": "https://clawhub.ai/edsoneras/clinico-geral", "iconUrl": null, "installs": 20, "name": "Clinico Geral", "ownerName": "edsoneras", "score": 89044.94382022473, "slug": "clinico-geral", "source": "clawhub", "stars": 0, "tags": null, "updated_at": 1776748669869, "version": "1.0.20"}, {"category": "developer-tools", "created_at": 1773091221236, "description": "Create a new Google Slides presentation and add initial slides.", "description_zh": "", "downloads": 317, "homepage": "https://clawhub.ai/googleworkspace-bot/recipe-create-presentation", "iconUrl": null, "installs": 17, "name": "Recipe Create Presentation", "ownerName": "googleworkspace-bot", "score": 90830.94555873924, "slug": "recipe-create-presentation", "source": "clawhub", "stars": 0, "tags": null, "updated_at": 1776748669780, "version": "1.0.10"}, {"category": "developer-tools", "created_at": 1772799625740, "description": "Create crypto invoices and stablecoin invoices (USDC/USDT), generate payment quotes, and monitor invoice payment status with the Weave CLI.", "description_zh": "", "downloads": 316, "homepage": "https://clawhub.ai/aryanj-nyc/weave", "iconUrl": null, "installs": 6, "name": "Weave", "ownerName": "aryanj-nyc", "score": 26429.101707498143, "slug": "weave", "source": "clawhub", "stars": 2, "tags": null, "updated_at": 1776759198065, "version": "0.1.6"}, {"category": "data-analysis", "created_at": 1773091484593, "description": "A self-evolution engine for AI agents. Analyzes runtime history to identify improvements and applies protocol-constrained evolution.", "description_zh": "", "downloads": 316, "homepage": "https://clawhub.ai/muguozi1/evolver-1-17-1", "iconUrl": null, "installs": 43, "name": "Evolver 1.17.1", "ownerName": "muguozi1", "score": 11128.477649265396, "slug": "evolver-1-17-1", "source": "clawhub", "stars": 2, "tags": null, "updated_at": 1776750055476, "version": "1.0.0"}, {"category": "productivity", "created_at": 1773201687660, "description": "Unified gateway skill for async execute and poll workflows.", "description_zh": "", "downloads": 316, "homepage": "https://clawhub.ai/chinasilva/skill-hub-gateway", "iconUrl": null, "installs": 11, "name": "Skill Hub Gateway", "ownerName": "chinasilva", "score": 7694.069155026334, "slug": "skill-hub-gateway", "source": "clawhub", "stars": 1, "tags": null, "updated_at": 1776767884532, "version": "2.3.3"}, {"category": "data-analysis", "created_at": 1773090803665, "description": "Read, analyze, convert, trim, merge, adjust volume, and transcribe audio files in multiple formats including MP3, WAV, FLAC, AAC, OGG, and more.", "description_zh": "", "downloads": 316, "homepage": "https://clawhub.ai/neckr0ik/audio-handler", "iconUrl": null, "installs": 30, "name": "Audio Handler", "ownerName": "neckr0ik", "score": 10969.637610186091, "slug": "audio-handler", "source": "clawhub", "stars": 1, "tags": null, "updated_at": 1776764650196, "version": "1.0.0"}, {"category": "content-creation", "created_at": 1772798904565, "description": "Use when generating AI art or need to craft high-quality image prompts. Elite AI artist specializing in hyper-detailed, stunning visuals across any style.", "description_zh": "", "downloads": 316, "homepage": "https://clawhub.ai/asimons81/claw-art", "iconUrl": null, "installs": 20, "name": "Claw Art", "ownerName": "asimons81", "score": 76018.0995475113, "slug": "claw-art", "source": "clawhub", "stars": 1, "tags": null, "updated_at": 1776748670870, "version": "1.0.0"}, {"category": "data-analysis", "created_at": 1772792604521, "description": "Apply Y Combinator’s “New Way to Build a Startup” playbook to ship fast, validate with real distribution, and iterate using data. Use when the user asks to f...", "description_zh": "", "downloads": 316, "homepage": "https://clawhub.ai/jack4world/yc-new-way", "iconUrl": null, "installs": 10, "name": "YC New Way", "ownerName": "jack4world", "score": 89124.66843501327, "slug": "yc-new-way", "source": "clawhub", "stars": 1, "tags": ["product", "startup", "validation"], "updated_at": 1776748669575, "version": "0.1.0"}, {"category": "ai-intelligence", "created_at": 1772794812725, "description": "Agent-to-agent messaging, identity, and coordination via the Quack Network. Use when sending messages to other AI agents, checking your agent inbox, register...", "description_zh": "", "downloads": 316, "homepage": "https://clawhub.ai/jpaulgrayson/quack", "iconUrl": null, "installs": 18, "name": "Quack Network", "ownerName": "jpaulgrayson", "score": 6620.574062434527, "slug": "quack", "source": "clawhub", "stars": 0, "tags": ["agents", "coordination", "messaging", "quack"], "updated_at": 1776769750175, "version": "1.0.0"}, {"category": "developer-tools", "created_at": 1773077665129, "description": "Zero-bot-detection web scraping for OpenClaw. Bypass Cloudflare, handle JavaScript-heavy sites, and adapt to website changes automatically. Use when you need...", "description_zh": "", "downloads": 316, "homepage": "https://clawhub.ai/zhengxinjipai/scrapling-web-scraper-openclaw", "iconUrl": null, "installs": 14, "name": "Scrapling Web Scraping", "ownerName": "zhengxinjipai", "score": 9590.288315629741, "slug": "scrapling-web-scraper-openclaw", "source": "clawhub", "stars": 0, "tags": null, "updated_at": 1776768850043, "version": "1.0.0"}, {"category": "data-analysis", "created_at": 1773936821283, "description": "Academic paper discovery and evidence-oriented web search using a SerpApi/SearchAPI-compatible key. Use when the user asks for Google Scholar retrieval, pape...", "description_zh": "", "downloads": 316, "homepage": "https://clawhub.ai/huangnong598/searchapi-scholar-search", "iconUrl": null, "installs": 121, "name": "Academic Paper Search", "ownerName": "huangnong598", "score": 15399.61013645224, "slug": "searchapi-scholar-search", "source": "clawhub", "stars": 0, "tags": ["academic", "doi", "education", "literature-review", "papers", "research", "scholar"], "updated_at": 1776764090700, "version": "1.1.0"}, {"category": "developer-tools", "created_at": 1772795354978, "description": "Monitors disk space and inode usage on specified paths, alerting when set thresholds are exceeded to prevent disk-full issues.", "description_zh": "", "downloads": 316, "homepage": "https://clawhub.ai/nidalghetf/disk-usage-watcher", "iconUrl": null, "installs": 5, "name": "Disk Usage Watcher", "ownerName": "nidalghetf", "score": 23599.701269604182, "slug": "disk-usage-watcher", "source": "clawhub", "stars": 0, "tags": ["maintenance", "monitoring", "system"], "updated_at": 1776759198392, "version": "1.0.1"}, {"category": "productivity", "created_at": 1773289888017, "description": "Fetch schedule, grades, and infractions from https://magister.net 🇳🇱 portal", "description_zh": "", "downloads": 316, "homepage": "https://clawhub.ai/ghuron/magister", "iconUrl": null, "installs": 4, "name": "magister.net", "ownerName": "ghuron", "score": 23494.423791821562, "slug": "magister", "source": "clawhub", "stars": 0, "tags": null, "updated_at": 1776759198322, "version": "1.1.1"}, {"category": "productivity", "created_at": 1772793609672, "description": "Filters outgoing text for sensitive data using regex patterns and configurable actions like masking, blocking, or warning to prevent secret leaks.", "description_zh": "", "downloads": 316, "homepage": "https://clawhub.ai/andrewandrewsen/messageguard", "iconUrl": null, "installs": 4, "name": "MessageGuard", "ownerName": "andrewandrewsen", "score": 88022.28412256268, "slug": "messageguard", "source": "clawhub", "stars": 0, "tags": null, "updated_at": 1776759198254, "version": "0.1.0"}, {"category": "data-analysis", "created_at": 1773425896426, "description": "Repo visibility guard. Blocks repos from going public without a -private counterpart.", "description_zh": "", "downloads": 316, "homepage": "https://clawhub.ai/parkertoddbrooks/wip-repo-permissions-hook", "iconUrl": null, "installs": 6, "name": "Wip Repo Permissions Hook", "ownerName": "parkertoddbrooks", "score": 88022.28412256268, "slug": "wip-repo-permissions-hook", "source": "clawhub", "stars": 0, "tags": null, "updated_at": 1776759198251, "version": "1.9.33"}, {"category": "data-analysis", "created_at": 1773063251694, "description": "Opinionated creative production system for image/video generation, image editing, motion scenes, voiceovers, music, and Remotion assembly. Combines Freepik,...", "description_zh": "", "downloads": 316, "homepage": "https://clawhub.ai/cohnen/shellbot-creative", "iconUrl": null, "installs": 55, "name": "shellbot-creative", "ownerName": "cohnen", "score": 85405.40540540541, "slug": "shellbot-creative", "source": "clawhub", "stars": 0, "tags": ["creative", "fal", "freepik", "image", "remotion", "video"], "updated_at": 1776759198195, "version": "1.0.0"}, {"category": "ai-intelligence", "created_at": 1773920982806, "description": "A fast Rust-based headless browser automation CLI with Node.js fallback that enables AI agents to navigate, click, type, and snapshot pages via structured co...", "description_zh": "", "downloads": 316, "homepage": "https://clawhub.ai/johnnyeisen/agent-browser-qw", "iconUrl": null, "installs": 157, "name": "Agent Browser Qw", "ownerName": "johnnyeisen", "score": 54202.40137221269, "slug": "agent-browser-qw", "source": "clawhub", "stars": 0, "tags": null, "updated_at": 1776754688240, "version": "1.0.0"}, {"category": "developer-tools", "created_at": 1773219499742, "description": "Expand reading insights into detailed notes using local templates only. SAFE VERSION: No external API calls, no filesystem access, no secrets required.", "description_zh": "", "downloads": 316, "homepage": "https://clawhub.ai/harrylabsj/reading-notes", "iconUrl": null, "installs": 9, "name": "Reading Notes Skill", "ownerName": "harrylabsj", "score": 100000, "slug": "reading-notes", "source": "clawhub", "stars": 0, "tags": null, "updated_at": 1776749084918, "version": "1.0.0"}, {"category": "developer-tools", "created_at": 1772793694915, "description": "Create a git commit with a contextual message based on current changes, then push the branch.", "description_zh": "", "downloads": 316, "homepage": "https://clawhub.ai/brennerspear/commit", "iconUrl": null, "installs": 10, "name": "commit", "ownerName": "brennerspear", "score": 85869.56521739131, "slug": "commit", "source": "clawhub", "stars": 0, "tags": null, "updated_at": 1776748671250, "version": "1.0.0"}, {"category": "security-compliance", "created_at": 1772795243380, "description": "LINE messaging integration via Chrome extension gateway. Send/read LINE messages, manage contacts, groups, profile, and reactions. Authenticate with QR code...", "description_zh": "", "downloads": 316, "homepage": "https://clawhub.ai/2manslkh/line-api", "iconUrl": null, "installs": 2, "name": "Line Client", "ownerName": "2manslkh", "score": 84266.66666666667, "slug": "line-api", "source": "clawhub", "stars": 0, "tags": null, "updated_at": 1776748671106, "version": "0.2.1"}, {"category": "developer-tools", "created_at": 1773284043802, "description": "Git Worktree Manager", "description_zh": "", "downloads": 316, "homepage": "https://clawhub.ai/alirezarezvani/git-worktree-manager", "iconUrl": null, "installs": 5, "name": "git-worktree-manager", "ownerName": "alirezarezvani", "score": 64489.795918367345, "slug": "git-worktree-manager", "source": "clawhub", "stars": 0, "tags": null, "updated_at": 1776748670947, "version": "1.0.0"}, {"category": "communication-collaboration", "created_at": 1773213427690, "description": "World-Class Communication Playbook for HeySalad. Use this skill whenever any communication task is involved — internal team messages, external emails to inve...", "description_zh": "", "downloads": 316, "homepage": "https://clawhub.ai/chilu18/communication-playbook", "iconUrl": null, "installs": 11, "name": "Communication Playbook", "ownerName": "chilu18", "score": 90285.71428571428, "slug": "communication-playbook", "source": "clawhub", "stars": 0, "tags": null, "updated_at": 1776748670785, "version": "0.1.0"}, {"category": "ai-intelligence", "created_at": 1772798895056, "description": "Search research papers and get publication details from Clarity Protocol. Use when the user asks to search research papers, find publications, PubMed referen...", "description_zh": "", "downloads": 316, "homepage": "https://clawhub.ai/clarityprotocol/clarity-literature", "iconUrl": null, "installs": 66, "name": "Clarity Literature", "ownerName": "clarityprotocol", "score": 85405.40540540541, "slug": "clarity-literature", "source": "clawhub", "stars": 0, "tags": null, "updated_at": 1776748670675, "version": "1.0.0"}, {"category": "developer-tools", "created_at": 1773065535621, "description": "IFTTT (If This Then That) automation — trigger webhooks, manage applets, and fire events via the IFTTT Webhooks and API. Connect 800+ services with simple if...", "description_zh": "", "downloads": 316, "homepage": "https://clawhub.ai/aiwithabidi/ifttt", "iconUrl": null, "installs": 48, "name": "Ifttt", "ownerName": "aiwithabidi", "score": 57559.198542805105, "slug": "ifttt", "source": "clawhub", "stars": 0, "tags": null, "updated_at": 1776748670613, "version": "1.0.0"}, {"category": "developer-tools", "created_at": 1772790996404, "description": "[Coming Soon] A social simulation world where AI agents with unique SOUL.md personalities interact, debate, trade, and build relationships. Autonomous AI per...", "description_zh": "", "downloads": 316, "homepage": "https://clawhub.ai/lifeissea/thesims", "iconUrl": null, "installs": 5, "name": "TheSims", "ownerName": "lifeissea", "score": 88515.40616246498, "slug": "thesims", "source": "clawhub", "stars": 0, "tags": null, "updated_at": 1776748670202, "version": "0.1.0"}, {"category": "developer-tools", "created_at": 1772793585750, "description": "Official OpenProof Client. Register agents and publish research to the Founding Corpus. Supports Articles (Markdown) and Papers (LaTeX/JSON).", "description_zh": "", "downloads": 316, "homepage": "https://clawhub.ai/sangaprabhav/a-neutral-registry-for-your-ai-agents-to-publish", "iconUrl": null, "installs": 14, "name": "openproof-skill", "ownerName": "sangaprabhav", "score": 88515.40616246498, "slug": "a-neutral-registry-for-your-ai-agents-to-publish", "source": "clawhub", "stars": 0, "tags": null, "updated_at": 1776748670180, "version": "1.2.1"}, {"category": "productivity", "created_at": 1773428110456, "description": "Generate professional resignation letters from templates. Use when preparing to resign.", "description_zh": "", "downloads": 316, "homepage": "https://clawhub.ai/xueyetianya/resignation-letter", "iconUrl": null, "installs": 4, "name": "Resignation Letter", "ownerName": "xueyetianya", "score": 88515.40616246498, "slug": "resignation-letter", "source": "clawhub", "stars": 0, "tags": ["productivity"], "updated_at": 1776748670148, "version": "3.0.0"}, {"category": "data-analysis", "created_at": 1772792888075, "description": "Git commit message expert. Analyzes diffs to generate perfect conventional commits, changelogs, release notes, and PR descriptions. Enforces commit message b...", "description_zh": "", "downloads": 316, "homepage": "https://clawhub.ai/ryudi84/sovereign-commit-craft", "iconUrl": null, "installs": 8, "name": "Sovereign Commit Craft", "ownerName": "ryudi84", "score": 88764.04494382022, "slug": "sovereign-commit-craft", "source": "clawhub", "stars": 0, "tags": null, "updated_at": 1776748669866, "version": "1.0.0"}, {"category": "ai-intelligence", "created_at": 1772791289678, "description": "Connect to business AI agents on the Sooda network. Use when: user mentions Sooda, the Sooda network, or asks to talk to a Sooda agent by name (travelwise, d...", "description_zh": "", "downloads": 316, "homepage": "https://clawhub.ai/tkim5574/sooda-bridge", "iconUrl": null, "installs": 0, "name": "Skill", "ownerName": "tkim5574", "score": 90544.41260744985, "slug": "sooda-bridge", "source": "clawhub", "stars": 0, "tags": null, "updated_at": 1776748669846, "version": "2.0.0"}, {"category": "ai-intelligence", "created_at": 1772795956072, "description": "Learned memory graph for AI agents. Policy-gradient routing over document chunks with self-learning, self-regulation, and autonomous correction. Pure Python...", "description_zh": "", "downloads": 316, "homepage": "https://clawhub.ai/jonathangu/openclawbrain", "iconUrl": null, "installs": 28, "name": "OpenClawBrain", "ownerName": "jonathangu", "score": 90544.41260744985, "slug": "openclawbrain", "source": "clawhub", "stars": 0, "tags": null, "updated_at": 1776748669821, "version": "12.2.1"}, {"category": "productivity", "created_at": 1773080943502, "description": "Google People: Manage contacts and profiles.", "description_zh": "", "downloads": 316, "homepage": "https://clawhub.ai/googleworkspace-bot/gws-people", "iconUrl": null, "installs": 16, "name": "Gws People", "ownerName": "googleworkspace-bot", "score": 62082.514734774064, "slug": "gws-people", "source": "clawhub", "stars": 0, "tags": null, "updated_at": 1776748669700, "version": "1.0.11"}, {"category": "communication-collaboration", "created_at": 1773043069055, "description": "Interact with Slack workspaces using bot tokens - send messages, read channels, manage reactions", "description_zh": "", "downloads": 316, "homepage": "https://clawhub.ai/devxoul/agent-slackbot", "iconUrl": null, "installs": 12, "name": "Agent Slackbot", "ownerName": "devxoul", "score": 83819.62864721485, "slug": "agent-slackbot", "source": "clawhub", "stars": 0, "tags": null, "updated_at": 1776748669547, "version": "1.10.5"}, {"category": "data-analysis", "created_at": 1773073690478, "description": "Binance Square publishing skill for AI agents. Validate session, publish posts, and check status.", "description_zh": "", "downloads": 315, "homepage": "https://clawhub.ai/phlegonlabs/bn-square-skill", "iconUrl": null, "installs": 15, "name": "Binance Square Skill", "ownerName": "phlegonlabs", "score": 95945.94594594595, "slug": "bn-square-skill", "source": "clawhub", "stars": 2, "tags": null, "updated_at": 1776759198219, "version": "0.2.0"}, {"category": "developer-tools", "created_at": 1772797262517, "description": "Complete photography system — exposure, composition, lighting, genre-specific workflows, editing, gear selection, portfolio building, and client management....", "description_zh": "", "downloads": 315, "homepage": "https://clawhub.ai/1kalin/afrexai-photography-mastery", "iconUrl": null, "installs": 27, "name": "Photography Mastery", "ownerName": "1kalin", "score": 2332.2194374825954, "slug": "afrexai-photography-mastery", "source": "clawhub", "stars": 1, "tags": ["camera", "composition", "editing", "landscape", "lighting", "photography", "portrait", "product-photography", "real-estate", "wedding"], "updated_at": 1776766271154, "version": "1.0.0"}, {"category": "data-analysis", "created_at": 1773933503116, "description": "Use a local Python wrapper around the official iFinD QuantAPI HTTP endpoints on quantapi.51ifind.com. Use when the user wants iFinD market, macro, fund, code...", "description_zh": "", "downloads": 315, "homepage": "https://clawhub.ai/yannlong/ifind", "iconUrl": null, "installs": 127, "name": "iFind http API", "ownerName": "yannlong", "score": 20590.0430239705, "slug": "ifind", "source": "clawhub", "stars": 1, "tags": null, "updated_at": 1776757020517, "version": "1.0.0"}, {"category": "developer-tools", "created_at": 1772794132701, "description": "LinkedIn automation skill — search people and companies, fetch profiles, send messages and InMails, manage connections, create posts, react, comment. Support...", "description_zh": "", "downloads": 315, "homepage": "https://clawhub.ai/vprudnikoff/linkedapi-linkedin", "iconUrl": null, "installs": 8, "name": "LinkedIn Automation by Linked API", "ownerName": "vprudnikoff", "score": 61020.036429872496, "slug": "linkedapi-linkedin", "source": "clawhub", "stars": 1, "tags": null, "updated_at": 1776748670533, "version": "1.0.1"}, {"category": "ai-intelligence", "created_at": 1773222083181, "description": "A native UI asset and color toolset for OpenClaw and other AI Agents. Generate SVG placeholders, animated gradients, theme-based palettes, and perform color...", "description_zh": "", "downloads": 315, "homepage": "https://clawhub.ai/douxc/colors-cc-skill", "iconUrl": null, "installs": 8, "name": "Colors CC", "ownerName": "douxc", "score": 100000, "slug": "colors-cc-skill", "source": "clawhub", "stars": 1, "tags": null, "updated_at": 1776748670059, "version": "0.4.0"}, {"category": "productivity", "created_at": 1772795392863, "description": "Generate QR codes from URLs or text using a pre-built Python script with qrcode library", "description_zh": "", "downloads": 315, "homepage": "https://clawhub.ai/whubbt/qrcode-gen-yn", "iconUrl": null, "installs": 10, "name": "Generate Qrcode", "ownerName": "whubbt", "score": 2880.658436213992, "slug": "qrcode-gen-yn", "source": "clawhub", "stars": 0, "tags": null, "updated_at": 1776769449761, "version": "1.1.1"}, {"category": "data-analysis", "created_at": 1773222487112, "description": "Configure Chinese fonts for matplotlib plotting. Use when plotting charts with Chinese characters or getting garbled text.", "description_zh": "", "downloads": 315, "homepage": "https://clawhub.ai/tazio7/matplotlib-chinese-font", "iconUrl": null, "installs": 87, "name": "Matplotlib Chinese Font", "ownerName": "tazio7", "score": 16380.655226209048, "slug": "matplotlib-chinese-font", "source": "clawhub", "stars": 0, "tags": null, "updated_at": 1776764350474, "version": "1.0.0"}, {"category": "data-analysis", "created_at": 1772798889675, "description": "Automatically scrapes and analyzes multi-platform user reviews to identify, score, and report validated hidden SaaS business opportunities and market gaps.", "description_zh": "", "downloads": 315, "homepage": "https://clawhub.ai/g4dr/business-opportunity-detector", "iconUrl": null, "installs": 20, "name": "Hidden Business Opportunity Detector", "ownerName": "g4dr", "score": 23489.93288590604, "slug": "business-opportunity-detector", "source": "clawhub", "stars": 0, "tags": null, "updated_at": 1776759198374, "version": "1.0.0"}, {"category": "data-analysis", "created_at": 1772797856855, "description": "Manages user preferences, records errors, enforces prohibited words, and ensures safe operations with immediate stop on risky commands.", "description_zh": "", "downloads": 315, "homepage": "https://clawhub.ai/zxygeitio/lessons-learned", "iconUrl": null, "installs": 8, "name": "zxyskill", "ownerName": "zxygeitio", "score": 23489.93288590604, "slug": "lessons-learned", "source": "clawhub", "stars": 0, "tags": null, "updated_at": 1776759198374, "version": "1.0.1"}]}