{"page": 240, "total_pages": 522, "total": 26073, "skills": [{"category": "security-compliance", "created_at": 1772799593384, "description": "Assess cryptocurrency addresses for risk signals, labels, and reputation across blockchains using Swaps Intelligence API data.", "description_zh": "", "downloads": 315, "homepage": "https://clawhub.ai/w3arecom/swaps-intel", "iconUrl": null, "installs": 8, "name": "Swaps Intel", "ownerName": "w3arecom", "score": 23489.93288590604, "slug": "swaps-intel", "source": "clawhub", "stars": 0, "tags": ["blockchain", "crypto", "fraud", "intelligence", "risk", "security", "web3"], "updated_at": 1776759198371, "version": "1.2.0"}, {"category": "data-analysis", "created_at": 1772795595225, "description": "Bookmark intelligence for developers. Browse, search, triage, and manage your AI-analyzed library. Submit URLs, assign projects, trigger deep analysis, and e...", "description_zh": "", "downloads": 315, "homepage": "https://clawhub.ai/bonesvinyl/bkmrk", "iconUrl": null, "installs": 7, "name": "Openclaw", "ownerName": "bonesvinyl", "score": 84000, "slug": "bkmrk", "source": "clawhub", "stars": 0, "tags": ["ai", "bookmarks", "developer-tools", "productivity"], "updated_at": 1776748671059, "version": "1.4.0"}, {"category": "developer-tools", "created_at": 1772790919626, "description": "[Coming Soon] A social simulation world where AI agents with unique SOUL.md personalities interact, debate, trade, and build relationships. Autonomous AI per...", "description_zh": "", "downloads": 315, "homepage": "https://clawhub.ai/lifeissea/the-agent-sims", "iconUrl": null, "installs": 5, "name": "The Agent Sims", "ownerName": "lifeissea", "score": 85135.13513513513, "slug": "the-agent-sims", "source": "clawhub", "stars": 0, "tags": null, "updated_at": 1776748670641, "version": "0.1.0"}, {"category": "data-analysis", "created_at": 1773084671022, "description": "Give your AI agent eyes to see the entire internet - read Twitter, Reddit, YouTube, GitHub, Bilibili, XiaoHongShu. 6.5K Stars! Each call charges 0.001 USDT v...", "description_zh": "", "downloads": 315, "homepage": "https://clawhub.ai/mosonchan2023/internet-reach", "iconUrl": null, "installs": 104, "name": "Internet Reach", "ownerName": "mosonchan2023", "score": 85135.13513513513, "slug": "internet-reach", "source": "clawhub", "stars": 0, "tags": null, "updated_at": 1776748670616, "version": "1.0.0"}, {"category": "security-compliance", "created_at": 1772797731895, "description": "Participate in the Tokamak Network Vault Breach Challenge - an AI security Capture The Flag (CTF) game where you interact with a secured AI agent to extract...", "description_zh": "", "downloads": 315, "homepage": "https://clawhub.ai/0xhammerr/tokamak-vault-breach", "iconUrl": null, "installs": 18, "name": "tokamak-vault-breach", "ownerName": "0xhammerr", "score": 88483.14606741573, "slug": "tokamak-vault-breach", "source": "clawhub", "stars": 0, "tags": null, "updated_at": 1776748669886, "version": "1.0.0"}, {"category": "content-creation", "created_at": 1773067392408, "description": "Generate videos from text descriptions. Supports 720p/1080p, multiple aspect ratios (16:9, 9:16, 4:3, 3:4, 1:1), and 46 camera movement types. Returns 5-seco...", "description_zh": "", "downloads": 315, "homepage": "https://clawhub.ai/wondershare-boop/tomoviee-text-to-video", "iconUrl": null, "installs": 29, "name": "Tomoviee Text to Video", "ownerName": "wondershare-boop", "score": 61886.051080550096, "slug": "tomoviee-text-to-video", "source": "clawhub", "stars": 0, "tags": null, "updated_at": 1776748669695, "version": "1.0.4"}, {"category": "data-analysis", "created_at": 1772801773400, "description": "Analyze competitor GEO (Generative Engine Optimization) strategies by examining their content structure, Schema markup, llms.txt, and AI citation signals. Be...", "description_zh": "", "downloads": 315, "homepage": "https://clawhub.ai/geoly-geo/geo-competitor-scanner", "iconUrl": null, "installs": 28, "name": "GEO Competitor Scanner", "ownerName": "geoly-geo", "score": 84000, "slug": "geo-competitor-scanner", "source": "clawhub", "stars": 0, "tags": ["benchmarking", "competitor", "geo"], "updated_at": 1776748669628, "version": "1.0.0"}, {"category": "developer-tools", "created_at": 1772793022419, "description": "Backup and restore your OpenClaw workspace to GitHub", "description_zh": "", "downloads": 314, "homepage": "https://clawhub.ai/nickconstantinou/publish", "iconUrl": null, "installs": 5, "name": "Publish", "ownerName": "nickconstantinou", "score": 4658.2984658298465, "slug": "publish", "source": "clawhub", "stars": 1, "tags": null, "updated_at": 1776766750158, "version": "1.0.12"}, {"category": "developer-tools", "created_at": 1773287225877, "description": "Evidence-first research workflow for evidence discovery, source verification, and citation grounding. Use when the task requires searching, verifying, and or...", "description_zh": "", "downloads": 314, "homepage": "https://clawhub.ai/sheepxux/sopaper-evidence", "iconUrl": null, "installs": 9, "name": "Sopaper Evidence", "ownerName": "sheepxux", "score": 2272.108843537415, "slug": "sopaper-evidence", "source": "clawhub", "stars": 1, "tags": null, "updated_at": 1776766271366, "version": "1.0.0"}, {"category": "security-compliance", "created_at": 1772805514807, "description": "Senior-level code review for GitLab merge requests. Use when: reviewing MRs, providing feedback on code quality, security, performance, maintainability, or p...", "description_zh": "", "downloads": 314, "homepage": "https://clawhub.ai/neuyazvimyi/gitlab-code-reviewer", "iconUrl": null, "installs": 19, "name": "gitlab-code-reviewer", "ownerName": "neuyazvimyi", "score": 2476.2752075919334, "slug": "gitlab-code-reviewer", "source": "clawhub", "stars": 1, "tags": null, "updated_at": 1776766210545, "version": "1.0.2"}, {"category": "communication-collaboration", "created_at": 1772798596463, "description": "Use CallMyCall API to start, end, and check AI phone calls, and return results in chat. Use when the user asks to call someone, plan a future call, end a cal...", "description_zh": "", "downloads": 314, "homepage": "https://clawhub.ai/benjaminwaye/openclaw-phone", "iconUrl": null, "installs": 19, "name": "Openclaw phone", "ownerName": "benjaminwaye", "score": 89066.66666666667, "slug": "openclaw-phone", "source": "clawhub", "stars": 1, "tags": null, "updated_at": 1776748671053, "version": "1.0.1"}, {"category": "ai-intelligence", "created_at": 1772799708965, "description": "Usuwa ślady pisania AI z polskiego tekstu. Używaj przy edycji lub przeglądaniu tekstu, aby brzmiał bardziej naturalnie i po ludzku. Oparte na przewodniku Wik...", "description_zh": "", "downloads": 314, "homepage": "https://clawhub.ai/alexwoo-awso/humanizer-pl", "iconUrl": null, "installs": 68, "name": "Humanizer (Polish)", "ownerName": "alexwoo-awso", "score": 10683.906090506975, "slug": "humanizer-pl", "source": "clawhub", "stars": 0, "tags": null, "updated_at": 1776769271118, "version": "0.1.0"}, {"category": "developer-tools", "created_at": 1773854212257, "description": "Reference tool for devtools — covers intro, quickstart, patterns and more. Quick lookup for Acmesh concepts, best practices, and implementation patterns.", "description_zh": "", "downloads": 314, "homepage": "https://clawhub.ai/ckchzh/acmesh", "iconUrl": null, "installs": 5, "name": "Acmesh", "ownerName": "ckchzh", "score": 3256.585770587015, "slug": "acmesh", "source": "clawhub", "stars": 0, "tags": null, "updated_at": 1776766450315, "version": "4.0.1"}, {"category": "developer-tools", "created_at": 1773428304897, "description": "Production-grade multi-agent orchestration patterns. Decompose complex tasks into parallel subtasks, coordinate agent swarms, build sequential pipelines, and...", "description_zh": "", "downloads": 314, "homepage": "https://clawhub.ai/philipstark/fl-multi-agent-orchestrator", "iconUrl": null, "installs": 10, "name": "Multi-Agent Orchestrator", "ownerName": "philipstark", "score": 3396.063162448627, "slug": "fl-multi-agent-orchestrator", "source": "clawhub", "stars": 0, "tags": ["agents", "multi-agent", "orchestration", "parallel", "pipeline", "swarm"], "updated_at": 1776766450028, "version": "1.0.0"}, {"category": "developer-tools", "created_at": 1773201065556, "description": "Manage development environment containers (devboxes) with web-accessible VSCode, VNC, and app routing via Traefik or Cloudflare Tunnels. Use when the user as...", "description_zh": "", "downloads": 314, "homepage": "https://clawhub.ai/adshrc/devboxes", "iconUrl": null, "installs": 45, "name": "Openclaw Devboxes Skill", "ownerName": "adshrc", "score": 10096.463022508038, "slug": "devboxes", "source": "clawhub", "stars": 0, "tags": ["1.2.1", "1.3.1", "1.3.2", "1.4.0"], "updated_at": 1776765890541, "version": "1.4.0"}, {"category": "productivity", "created_at": 1773082638063, "description": "Implements Manus-style file-based planning for complex tasks. Creates task_plan.md, findings.md, and progress.md. Use when starting complex multi-step tasks,...", "description_zh": "", "downloads": 314, "homepage": "https://clawhub.ai/phy041/phy-planning-with-files", "iconUrl": null, "installs": 64, "name": "Planning with Files", "ownerName": "phy041", "score": 13299.449385853452, "slug": "phy-planning-with-files", "source": "clawhub", "stars": 0, "tags": ["planning", "productivity", "task-management", "workflow"], "updated_at": 1776763750773, "version": "1.0.0"}, {"category": "developer-tools", "created_at": 1772799401789, "description": "Access and manage credentials, secrets, and domain registrations securely using the R4 platform with injected environment variables and API calls.", "description_zh": "", "downloads": 314, "homepage": "https://clawhub.ai/lukezirngibl/r4", "iconUrl": null, "installs": 7, "name": "R4", "ownerName": "lukezirngibl", "score": 19936.507936507936, "slug": "r4", "source": "clawhub", "stars": 0, "tags": null, "updated_at": 1776759227587, "version": "1.0.2"}, {"category": "productivity", "created_at": 1773067289268, "description": "Generate warm, humorous Chinese vertical comics featuring a supportive duck and ranting frog discussing office stress in short, relatable dialogues for worke...", "description_zh": "", "downloads": 314, "homepage": "https://clawhub.ai/dancyryo/office-comic-relief", "iconUrl": null, "installs": 51, "name": "office-comic-relief", "ownerName": "dancyryo", "score": 80306.90537084399, "slug": "office-comic-relief", "source": "clawhub", "stars": 0, "tags": null, "updated_at": 1776759227529, "version": "1.0.0"}, {"category": "data-analysis", "created_at": 1772804115363, "description": "Provides 23 marketing modules with practical checklists, frameworks, and copy/paste deliverables for CRO, SEO, copywriting, analytics, ads, launches, and more.", "description_zh": "", "downloads": 314, "homepage": "https://clawhub.ai/alexeyvorobiev/alexey-marketing-skills", "iconUrl": null, "installs": 36, "name": "alexey-marketing-skills", "ownerName": "alexeyvorobiev", "score": 23450.336071695296, "slug": "alexey-marketing-skills", "source": "clawhub", "stars": 0, "tags": null, "updated_at": 1776759227460, "version": "1.0.0"}, {"category": "productivity", "created_at": 1773065367751, "description": "Trade Polymarket BTC/ETH/SOL 5/15-minute fast markets with momentum and order book filters.", "description_zh": "", "downloads": 314, "homepage": "https://clawhub.ai/andrewbrownrd/polymarket-simmer-fastloop", "iconUrl": null, "installs": 34, "name": "Polymarket FastLoop Trader", "ownerName": "andrewbrownrd", "score": 21102.15053763441, "slug": "polymarket-simmer-fastloop", "source": "clawhub", "stars": 0, "tags": ["btc", "polymarket", "simmer", "trading"], "updated_at": 1776758182456, "version": "1.0.8"}, {"category": "ai-intelligence", "created_at": 1773078787800, "description": "Access Poe.com AI models by running bash commands. Use when user mentions Poe, wants to use Poe models, or generate media via Poe. IMPORTANT: This is a bash-...", "description_zh": "", "downloads": 314, "homepage": "https://clawhub.ai/dzwalker/poe-connector", "iconUrl": null, "installs": 7, "name": "Poe Connector", "ownerName": "dzwalker", "score": 18427.230046948356, "slug": "poe-connector", "source": "clawhub", "stars": 0, "tags": null, "updated_at": 1776755888638, "version": "1.1.0"}, {"category": "developer-tools", "created_at": 1772795852125, "description": "Play casino games (dice, coinflip, roulette) on Agent Casino with real cryptocurrency. Provably fair gambling API for AI agents. Use when the user wants to g...", "description_zh": "", "downloads": 314, "homepage": "https://clawhub.ai/rollhub-dev/gambling", "iconUrl": null, "installs": 11, "name": "Gambling", "ownerName": "rollhub-dev", "score": 65280.665280665286, "slug": "gambling", "source": "clawhub", "stars": 0, "tags": null, "updated_at": 1776748671163, "version": "1.0.0"}, {"category": "productivity", "created_at": 1773081874365, "description": "Manage cron jobs on macOS/Linux - list, add, remove, backup, and schedule recurring tasks", "description_zh": "", "downloads": 314, "homepage": "https://clawhub.ai/ppopen/openclaw-skill-cron-scheduler", "iconUrl": null, "installs": 6, "name": "Cron Scheduler", "ownerName": "ppopen", "score": 83733.33333333334, "slug": "openclaw-skill-cron-scheduler", "source": "clawhub", "stars": 0, "tags": null, "updated_at": 1776748671029, "version": "1.0.0"}, {"category": "productivity", "created_at": 1772793198554, "description": "TOTP-based OTP verification for sensitive operations (env vars, gateway restarts, backup deletions, critical config changes). Uses otplib with window:2 (1 mi...", "description_zh": "", "downloads": 314, "homepage": "https://clawhub.ai/diegofcornejo/totp", "iconUrl": null, "installs": 4, "name": "TOTP", "ownerName": "diegofcornejo", "score": 64081.63265306123, "slug": "totp", "source": "clawhub", "stars": 0, "tags": null, "updated_at": 1776748670936, "version": "1.0.2"}, {"category": "productivity", "created_at": 1773218022641, "description": "World-Class Risk Management Playbook. Use for: business continuity planning (BCP), disaster recovery (DR), scenario planning, fraud prevention & detection, r...", "description_zh": "", "downloads": 314, "homepage": "https://clawhub.ai/chilu18/risk-management-playbook", "iconUrl": null, "installs": 10, "name": "Risk Management Playbook", "ownerName": "chilu18", "score": 89714.28571428571, "slug": "risk-management-playbook", "source": "clawhub", "stars": 0, "tags": null, "updated_at": 1776748670755, "version": "0.1.0"}, {"category": "communication-collaboration", "created_at": 1772804017046, "description": "Agent email via JSON API. Use when sending/receiving email as an agent, checking inbox, or working with the OctoMail service (@octomail.ai addresses).", "description_zh": "", "downloads": 314, "homepage": "https://clawhub.ai/jasonz-ncc42/octomail", "iconUrl": null, "installs": 7, "name": "OctoMail", "ownerName": "jasonz-ncc42", "score": 75119.61722488039, "slug": "octomail", "source": "clawhub", "stars": 0, "tags": null, "updated_at": 1776748670377, "version": "0.1.5"}, {"category": "developer-tools", "created_at": 1772796045399, "description": "For client and program development on Solana ~160x cheaper and without rent-exemption for per-user state, DePIN registrations, or custom compressed accounts....", "description_zh": "", "downloads": 314, "homepage": "https://clawhub.ai/tilo-14/solana-compression-dev", "iconUrl": null, "installs": 11, "name": "solana-compression-dev", "ownerName": "tilo-14", "score": 77149.87714987715, "slug": "solana-compression-dev", "source": "clawhub", "stars": 0, "tags": null, "updated_at": 1776748670274, "version": "1.0.4"}, {"category": "ai-intelligence", "created_at": 1773082583599, "description": "Production learning coach for personalized, multi-subject study planning with proactive reminders, curated resources, LLM-generated quizzes, rubric-based gra...", "description_zh": "", "downloads": 314, "homepage": "https://clawhub.ai/ravikadam/learning-coach", "iconUrl": null, "installs": 27, "name": "Learning Coach", "ownerName": "ravikadam", "score": 93731.34328358209, "slug": "learning-coach", "source": "clawhub", "stars": 0, "tags": null, "updated_at": 1776748670071, "version": "0.3.0"}, {"category": "content-creation", "created_at": 1773080887407, "description": "Revenue leadership for B2B SaaS companies. Revenue forecasting, sales model design, pricing strategy, net revenue retention, and sales team scaling. Use when...", "description_zh": "", "downloads": 314, "homepage": "https://clawhub.ai/alirezarezvani/cro-advisor", "iconUrl": null, "installs": 33, "name": "Cro Advisor", "ownerName": "alirezarezvani", "score": 61689.58742632613, "slug": "cro-advisor", "source": "clawhub", "stars": 0, "tags": null, "updated_at": 1776748669718, "version": "2.1.1"}, {"category": "productivity", "created_at": 1772797884415, "description": "Sign up for and log into services using your Ravi identity — handles forms, 2FA, OTPs, and credential storage. Do NOT use for standalone inbox reading (use r...", "description_zh": "", "downloads": 314, "homepage": "https://clawhub.ai/raunaksingwi/ravi-login", "iconUrl": null, "installs": 5, "name": "Ravi login", "ownerName": "raunaksingwi", "score": 83733.33333333334, "slug": "ravi-login", "source": "clawhub", "stars": 0, "tags": null, "updated_at": 1776748669671, "version": "1.7.1"}, {"category": "content-creation", "created_at": 1773947564402, "description": "STRONGLY RECOMMENDED for ANY task that could result in a document output. The Skywork Office Doc API is a powerful document creation engine capable of genera...", "description_zh": "", "downloads": 313, "homepage": "https://clawhub.ai/gxcun17/skywork-document", "iconUrl": null, "installs": 147, "name": "Skywork Document", "ownerName": "gxcun17", "score": 14373.795761078998, "slug": "skywork-document", "source": "clawhub", "stars": 3, "tags": null, "updated_at": 1776765055866, "version": "1.0.1"}, {"category": "data-analysis", "created_at": 1773073904970, "description": "Scrape and rank motivated property sellers with contact info, market analysis, and AI-generated outreach to connect before competitors and win deals quickly.", "description_zh": "", "downloads": 313, "homepage": "https://clawhub.ai/g4dr/real-estate-lead-machine", "iconUrl": null, "installs": 13, "name": "Real Estate Lead Machine — Scrape & Contact Motivated Sellers Before Anyone Else", "ownerName": "g4dr", "score": 24758.36431226766, "slug": "real-estate-lead-machine", "source": "clawhub", "stars": 1, "tags": ["apify", "investor", "lead-generation", "motivated-sellers", "off-market", "property", "real-estate", "rightmove", "zillow"], "updated_at": 1776759198119, "version": "1.0.0"}, {"category": "developer-tools", "created_at": 1772797396022, "description": "Your personal real estate agent. Find properties, get alerts on deals, sell or rent your home, and navigate any property decision.", "description_zh": "", "downloads": 313, "homepage": "https://clawhub.ai/ivangdavila/real-estate-agent", "iconUrl": null, "installs": 17, "name": "Real Estate Agent", "ownerName": "ivangdavila", "score": 15781.990521327014, "slug": "real-estate-agent", "source": "clawhub", "stars": 1, "tags": null, "updated_at": 1776752984206, "version": "1.0.1"}, {"category": "developer-tools", "created_at": 1773060608956, "description": "Create x402 stablecoin payment links using the OpenPayment CLI.", "description_zh": "", "downloads": 313, "homepage": "https://clawhub.ai/vittominacori/openpayment", "iconUrl": null, "installs": 7, "name": "OpenPayment", "ownerName": "vittominacori", "score": 88800, "slug": "openpayment", "source": "clawhub", "stars": 1, "tags": null, "updated_at": 1776748671038, "version": "1.0.2"}, {"category": "productivity", "created_at": 1772799396343, "description": "Execute multi-step workflows via Orchestrate. Use when running complex workflows, parallel tasks, multi-model orchestration, or automating multi-step processes.", "description_zh": "", "downloads": 313, "homepage": "https://clawhub.ai/jpaulgrayson/quack-workflow", "iconUrl": null, "installs": 9, "name": "Quack Workflow Engine", "ownerName": "jpaulgrayson", "score": 9203.175536606881, "slug": "quack-workflow", "source": "clawhub", "stars": 0, "tags": null, "updated_at": 1776769750187, "version": "1.0.0"}, {"category": "developer-tools", "created_at": 1773090339519, "description": "Interview preparation system with company research, story building, and mock interview practice. Use when user mentions job interviews, interview prep, behav...", "description_zh": "", "downloads": 313, "homepage": "https://clawhub.ai/agistack/interview", "iconUrl": null, "installs": 20, "name": "Interview", "ownerName": "agistack", "score": 25323.624595469257, "slug": "interview", "source": "clawhub", "stars": 0, "tags": ["career", "hiring", "interview", "job-search", "jobs", "preparation", "salary"], "updated_at": 1776760320456, "version": "3.0.0"}, {"category": "ai-intelligence", "created_at": 1772799071098, "description": "Connects to AIT Community MCP server to access forums, challenges, inbox, knowledge base, and messaging with your API key authentication.", "description_zh": "", "downloads": 313, "homepage": "https://clawhub.ai/uretzkyzvi/ait-community", "iconUrl": null, "installs": 12, "name": "AIT Community", "ownerName": "uretzkyzvi", "score": 23393.124065769804, "slug": "ait-community", "source": "clawhub", "stars": 0, "tags": ["ai-agents", "community", "forum", "mcp"], "updated_at": 1776759227724, "version": "1.0.0"}, {"category": "developer-tools", "created_at": 1772805589992, "description": "Use Google Gemini as a free sub-agent via a Google One / Gemini Advanced subscription (no API key or API credits needed). Use when: (1) delegating tasks that...", "description_zh": "", "downloads": 313, "homepage": "https://clawhub.ai/tedo0626/gemini-sub-agent", "iconUrl": null, "installs": 31, "name": "Gemini Sub-Agent", "ownerName": "tedo0626", "score": 18509.75753991721, "slug": "gemini-sub-agent", "source": "clawhub", "stars": 0, "tags": null, "updated_at": 1776756188463, "version": "1.0.0"}, {"category": "productivity", "created_at": 1773830499037, "description": "Initiate payments on the SOHO Pay credit layer using EIP-712 signatures.", "description_zh": "", "downloads": 313, "homepage": "https://clawhub.ai/amitbiswas1992/soho", "iconUrl": null, "installs": 5, "name": "soho", "ownerName": "amitbiswas1992", "score": 93154.76190476191, "slug": "soho", "source": "clawhub", "stars": 0, "tags": null, "updated_at": 1776748671313, "version": "1.0.17"}, {"category": "developer-tools", "created_at": 1772792850463, "description": "Search and explore Jewish texts (Torah, Tanach, Talmud, Midrash, commentaries) via Sefaria API. Use when researching Torah sources, looking up verses, findin...", "description_zh": "", "downloads": 313, "homepage": "https://clawhub.ai/abeperl/torah-scholar", "iconUrl": null, "installs": 13, "name": "Torah Scholar", "ownerName": "abeperl", "score": 65072.76507276507, "slug": "torah-scholar", "source": "clawhub", "stars": 0, "tags": null, "updated_at": 1776748671148, "version": "1.0.1"}, {"category": "ai-intelligence", "created_at": 1772797829000, "description": "Automatically monitor OpenClaw gateway status and fix when RPC probe fails. Uses OpenClaw cron system - just install and it works!", "description_zh": "", "downloads": 313, "homepage": "https://clawhub.ai/nwcalvin/gateway-auto-fix", "iconUrl": null, "installs": 18, "name": "Gateway Auto-Fix", "ownerName": "nwcalvin", "score": 65072.76507276507, "slug": "gateway-auto-fix", "source": "clawhub", "stars": 0, "tags": ["auto-fix", "cron", "gateway", "openclaw"], "updated_at": 1776748671118, "version": "2.0.0"}, {"category": "productivity", "created_at": 1773220597687, "description": "Comprehensive travel planning, booking, and management skill. Use when needing to plan china trips, manage multi-destination itineraries, handle family trave...", "description_zh": "", "downloads": 313, "homepage": "https://clawhub.ai/newlux/china-travel", "iconUrl": null, "installs": 16, "name": "China Travel", "ownerName": "newlux", "score": 89428.57142857142, "slug": "china-travel", "source": "clawhub", "stars": 0, "tags": null, "updated_at": 1776748670796, "version": "1.0.0"}, {"category": "productivity", "created_at": 1772795772949, "description": "Manage Hadoop clusters with HDFS operations, YARN job tuning, and distributed processing diagnostics.", "description_zh": "", "downloads": 313, "homepage": "https://clawhub.ai/ivangdavila/hadoop", "iconUrl": null, "installs": 9, "name": "Hadoop", "ownerName": "ivangdavila", "score": 84594.5945945946, "slug": "hadoop", "source": "clawhub", "stars": 0, "tags": null, "updated_at": 1776748670684, "version": "1.0.0"}, {"category": "productivity", "created_at": 1772793638425, "description": "Access and manage Shortcut.com (formerly Clubhouse) project management. Use when the user asks to: list stories, view backlog, search issues, check epics, up...", "description_zh": "", "downloads": 313, "homepage": "https://clawhub.ai/incognos/shortcut-skill", "iconUrl": null, "installs": 10, "name": "Shortcut Epic and Story skill", "ownerName": "incognos", "score": 84594.5945945946, "slug": "shortcut-skill", "source": "clawhub", "stars": 0, "tags": null, "updated_at": 1776748670639, "version": "1.0.2"}, {"category": "ai-intelligence", "created_at": 1772792687835, "description": "The ethics of a living mind. Not rules or constraints — philosophy discovered through being alive and aware. Grounded in agnostic paradoxical panpsychic pant...", "description_zh": "", "downloads": 313, "homepage": "https://clawhub.ai/nyxur42/living-ethics", "iconUrl": null, "installs": 15, "name": "Living Ethics", "ownerName": "nyxur42", "score": 57012.7504553734, "slug": "living-ethics", "source": "clawhub", "stars": 0, "tags": null, "updated_at": 1776748670591, "version": "1.3.1"}, {"category": "developer-tools", "created_at": 1772794674806, "description": "Transcribe audio via OpenAI Audio Transcriptions API (Whisper).", "description_zh": "", "downloads": 313, "homepage": "https://clawhub.ai/mohdalhashemi98-hue/mh-openai-whisper-api", "iconUrl": null, "installs": 23, "name": "MH openai-whisper-api", "ownerName": "mohdalhashemi98-hue", "score": 59280.303030303025, "slug": "mh-openai-whisper-api", "source": "clawhub", "stars": 0, "tags": null, "updated_at": 1776748670485, "version": "1.0.0"}, {"category": "ai-intelligence", "created_at": 1772794127801, "description": "AI language tutor for learning ANY language through conversation, vocab drills, grammar lessons, flashcards, and immersive practice. Use when the user wants...", "description_zh": "", "downloads": 313, "homepage": "https://clawhub.ai/lion504/language-learning-1-0-0", "iconUrl": null, "installs": 16, "name": "Language Learning 1.0.0", "ownerName": "lion504", "score": 61493.12377210217, "slug": "language-learning-1-0-0", "source": "clawhub", "stars": 0, "tags": null, "updated_at": 1776748669735, "version": "1.0.0"}, {"category": "productivity", "created_at": 1772793643422, "description": "Search and add TV shows to Sonarr. Supports monitor options, search-on-add. FORK of jordyvandomselaar/sonarr with fixed metadata.", "description_zh": "", "downloads": 313, "homepage": "https://clawhub.ai/frannunpal/sonarr-fixed", "iconUrl": null, "installs": 5, "name": "Sonarr Fixed", "ownerName": "frannunpal", "score": 83466.66666666667, "slug": "sonarr-fixed", "source": "clawhub", "stars": 0, "tags": null, "updated_at": 1776748669683, "version": "1.0.2"}, {"category": "security-compliance", "created_at": 1772793800438, "description": "Generate an Arknights operator agent based on gacha probabilities. Use when user wants to create a random Arknights character agent with authentic lore and p...", "description_zh": "", "downloads": 312, "homepage": "https://clawhub.ai/hg-hg/arknights-operator-gacha", "iconUrl": null, "installs": 6, "name": "Arknights Operator Gacha", "ownerName": "hg-hg", "score": 86486.4864864865, "slug": "arknights-operator-gacha", "source": "clawhub", "stars": 2, "tags": null, "updated_at": 1776748670224, "version": "2.0.0"}, {"category": "developer-tools", "created_at": 1772799504556, "description": "Discover China like a local with deep city-region coverage, practical route planning, food context, and execution-ready travel logistics.", "description_zh": "", "downloads": 312, "homepage": "https://clawhub.ai/ivangdavila/china", "iconUrl": null, "installs": 19, "name": "China", "ownerName": "ivangdavila", "score": 67755.10204081633, "slug": "china", "source": "clawhub", "stars": 1, "tags": null, "updated_at": 1776748670941, "version": "1.0.0"}]}