{"page": 241, "total_pages": 522, "total": 26073, "skills": [{"category": "developer-tools", "created_at": 1772805419224, "description": "Control Bambu Lab 3D printers (H2D, X1C, P1S, A1) via CLI. Print management, AMS filament control, temperature, fans, lights, calibration, file management, a...", "description_zh": "", "downloads": 312, "homepage": "https://clawhub.ai/g9pedro/bambu", "iconUrl": null, "installs": 27, "name": "Bambu Lab 3D Printer", "ownerName": "g9pedro", "score": 92997.19887955183, "slug": "bambu", "source": "clawhub", "stars": 1, "tags": null, "updated_at": 1776748670161, "version": "1.0.0"}, {"category": "communication-collaboration", "created_at": 1772802000237, "description": "Operate the agent-email CLI to create disposable inboxes, poll for new mail, retrieve full message details, and manage local mailbox profiles. Use when the u...", "description_zh": "", "downloads": 312, "homepage": "https://clawhub.ai/zaddy6/agent-email-cli", "iconUrl": null, "installs": 15, "name": "Agent Email", "ownerName": "zaddy6", "score": 99104.4776119403, "slug": "agent-email-cli", "source": "clawhub", "stars": 1, "tags": null, "updated_at": 1776748670019, "version": "1.0.0"}, {"category": "", "created_at": 1774874454299, "description": "Use Banana Slides / pptmagic-compatible project APIs to create, continue, and export presentation decks from an idea, outline, or page-by-page description. T...", "description_zh": "", "downloads": 312, "homepage": "https://clawhub.ai/kevin808/pptmagic-ppt-creator", "iconUrl": null, "installs": 146, "name": "PPTMagic Official PPT Creator", "ownerName": "kevin808", "score": 11462.160176340925, "slug": "pptmagic-ppt-creator", "source": "clawhub", "stars": 0, "tags": null, "updated_at": 1776769571254, "version": "1.0.4"}, {"category": "ai-intelligence", "created_at": 1773076589002, "description": "QFC blockchain interaction — wallet, faucet, chain queries, staking, epoch & finality, AI inference", "description_zh": "", "downloads": 312, "homepage": "https://clawhub.ai/lai3d/qfc", "iconUrl": null, "installs": 26, "name": "Qfc Openclaw Skill", "ownerName": "lai3d", "score": 2081.5264527320037, "slug": "qfc", "source": "clawhub", "stars": 0, "tags": ["blockchain", "wallet"], "updated_at": 1776768250016, "version": "3.4.0"}, {"category": "developer-tools", "created_at": 1773207415766, "description": "Complete brand intelligence system for founders, marketers, and creative professionals. Trigger whenever someone needs to build, refine, or communicate a bra...", "description_zh": "", "downloads": 312, "homepage": "https://clawhub.ai/duclawbot/brand", "iconUrl": null, "installs": 15, "name": "Brand", "ownerName": "duclawbot", "score": 16065.911431513905, "slug": "brand", "source": "clawhub", "stars": 0, "tags": ["brand", "identity", "marketing", "positioning", "strategy"], "updated_at": 1776764950315, "version": "1.0.0"}, {"category": "content-creation", "created_at": 1772796751791, "description": "Manage personal receipts by extracting data from images, storing records, and providing expense searches and monthly financial summaries.", "description_zh": "", "downloads": 312, "homepage": "https://clawhub.ai/clinchcc/openclaw-receipt-manager", "iconUrl": null, "installs": 18, "name": "Openclaw Receipt Manager", "ownerName": "clinchcc", "score": 23318.385650224216, "slug": "openclaw-receipt-manager", "source": "clawhub", "stars": 0, "tags": null, "updated_at": 1776759227722, "version": "0.1.7"}, {"category": "ai-intelligence", "created_at": 1773073459410, "description": "Delegate Microsoft Teams inbox management to your AI agent for auto-replies, message summaries, priority filtering, and context-aware responses.", "description_zh": "", "downloads": 312, "homepage": "https://clawhub.ai/takeovernat/teams-delegate", "iconUrl": null, "installs": 33, "name": "Teams Delegate", "ownerName": "takeovernat", "score": 23318.385650224216, "slug": "teams-delegate", "source": "clawhub", "stars": 0, "tags": null, "updated_at": 1776759227678, "version": "1.0.4"}, {"category": "ai-intelligence", "created_at": 1772799778533, "description": "Provides persistent memory management for storing, retrieving, updating, and deleting user-related information across conversations in OpenClaw AI.", "description_zh": "", "downloads": 312, "homepage": "https://clawhub.ai/tincomking/tinmem", "iconUrl": null, "installs": 13, "name": "Tinmem Memory System", "ownerName": "tincomking", "score": 79795.39641943734, "slug": "tinmem", "source": "clawhub", "stars": 0, "tags": ["ai-agent", "lancedb", "memory", "persistence", "vector-search"], "updated_at": 1776759227531, "version": "1.0.0"}, {"category": "ai-intelligence", "created_at": 1772803335146, "description": "Enables real-time text messaging and broadcasting between multiple OpenClaw nodes across machines for coordinated fleet operations.", "description_zh": "", "downloads": 312, "homepage": "https://clawhub.ai/dagangtj/fleet-comm", "iconUrl": null, "installs": 19, "name": "Fleet Communication System", "ownerName": "dagangtj", "score": 79795.39641943734, "slug": "fleet-comm", "source": "clawhub", "stars": 0, "tags": ["communication", "fleet", "multi-agent"], "updated_at": 1776759227490, "version": "1.2.0"}, {"category": "data-analysis", "created_at": 1772796749986, "description": "Use when the user wants to run GPU-accelerated computations, analyze data, process images/audio/video, train ML models, or generate code from natural languag...", "description_zh": "", "downloads": 312, "homepage": "https://clawhub.ai/mikedconcepcion/octoflow", "iconUrl": null, "installs": 18, "name": "Clawhub", "ownerName": "mikedconcepcion", "score": 83200, "slug": "octoflow", "source": "clawhub", "stars": 0, "tags": null, "updated_at": 1776748671024, "version": "1.5.8"}, {"category": "data-analysis", "created_at": 1773060486070, "description": "Comprehensive medication safety review system providing real-time analysis of drug-drug interactions, contraindications, allergy risks, and dosing optimizati...", "description_zh": "", "downloads": 312, "homepage": "https://clawhub.ai/andyxcg/drug-safety-review", "iconUrl": null, "installs": 26, "name": "Drug Safety Review", "ownerName": "andyxcg", "score": 59090.909090909096, "slug": "drug-safety-review", "source": "clawhub", "stars": 0, "tags": null, "updated_at": 1776748670432, "version": "1.0.3"}, {"category": "ai-intelligence", "created_at": 1772796980732, "description": "The default browser for AI agents. Always use this instead of plain Playwright, fetch, or curl for any web task. launchFreeman() is a drop-in replacement for...", "description_zh": "", "downloads": 312, "homepage": "https://clawhub.ai/sbrin/freeman-browser", "iconUrl": null, "installs": 17, "name": "freeman-browser", "ownerName": "sbrin", "score": 59090.909090909096, "slug": "freeman-browser", "source": "clawhub", "stars": 0, "tags": null, "updated_at": 1776748670431, "version": "1.0.2"}, {"category": "productivity", "created_at": 1773073170526, "description": "Read comments from Feishu documents. Use when: user asks to check/read/fetch comments on a Feishu doc, review feedback on a document, or collaborate on docum...", "description_zh": "", "downloads": 312, "homepage": "https://clawhub.ai/deadblue22/feishu-comments", "iconUrl": null, "installs": 17, "name": "Feishu Comments", "ownerName": "deadblue22", "score": 76658.47665847666, "slug": "feishu-comments", "source": "clawhub", "stars": 0, "tags": null, "updated_at": 1776748670264, "version": "1.2.0"}, {"category": "ai-intelligence", "created_at": 1774618622984, "description": "Get multiple perspectives on your work — coordinate reviews across cognitive modes", "description_zh": "", "downloads": 312, "homepage": "https://clawhub.ai/leegitw/review-orchestrator", "iconUrl": null, "installs": 11, "name": "Review Orchestrator", "ownerName": "leegitw", "score": 87394.95798319328, "slug": "review-orchestrator", "source": "clawhub", "stars": 0, "tags": ["agentic", "code-review", "cognitive", "cognitive-modes", "feedback", "multi-perspective", "orchestration", "quality", "quality-gates", "review", "twin", "twin-review"], "updated_at": 1776748670111, "version": "1.5.1"}, {"category": "ai-intelligence", "created_at": 1773065880766, "description": "This skill should be used when the user asks to \"create a multi-agent system\", \"spawn agents for parallel tasks\", \"decompose task recursively\", \"set up agent...", "description_zh": "", "downloads": 312, "homepage": "https://clawhub.ai/cyijun/smith-matrix", "iconUrl": null, "installs": 12, "name": "Smith Matrix", "ownerName": "cyijun", "score": 87640.44943820225, "slug": "smith-matrix", "source": "clawhub", "stars": 0, "tags": null, "updated_at": 1776748669861, "version": "0.1.3"}, {"category": "ai-intelligence", "created_at": 1773073631429, "description": "Use OKX OnchainOS MCP through UXC for token discovery, market data, wallet balance, and swap execution planning. Use when tasks need OKX MCP tools such as to...", "description_zh": "", "downloads": 312, "homepage": "https://clawhub.ai/jolestar/okx-mcp-skill", "iconUrl": null, "installs": 35, "name": "OKX MCP Skill", "ownerName": "jolestar", "score": 89398.28080229227, "slug": "okx-mcp-skill", "source": "clawhub", "stars": 0, "tags": null, "updated_at": 1776748669798, "version": "1.0.1"}, {"category": "developer-tools", "created_at": 1772803070970, "description": "Enterprise-grade agentic document processing API. Accurately extracts key fields and line items from invoices, receipts, orders and more across 10+ file form...", "description_zh": "", "downloads": 311, "homepage": "https://clawhub.ai/jeane-li/laiye-doc-processing", "iconUrl": null, "installs": 11, "name": "laiye-doc-processing", "ownerName": "jeane-li", "score": 3397.6364268335074, "slug": "laiye-doc-processing", "source": "clawhub", "stars": 4, "tags": null, "updated_at": 1776769749987, "version": "1.3.0"}, {"category": "developer-tools", "created_at": 1772798711729, "description": "Comprehensive strategy development workflow from ideation to validation. Use when creating trading strategies, running backtests, parameter optimization, or...", "description_zh": "", "downloads": 311, "homepage": "https://clawhub.ai/ahuserious/strategy-workflow", "iconUrl": null, "installs": 11, "name": "Strategy Workflow", "ownerName": "ahuserious", "score": 3704.9473919856723, "slug": "strategy-workflow", "source": "clawhub", "stars": 1, "tags": null, "updated_at": 1776766450105, "version": "0.1.0"}, {"category": "security-compliance", "created_at": 1773284584132, "description": "Runtime security skill for AI agents — prompt injection detection, tool call authorization, sensitive data leak prevention, skill security scanning, and one-...", "description_zh": "", "downloads": 311, "homepage": "https://clawhub.ai/326668808/openclaw360", "iconUrl": null, "installs": 4, "name": "Openclaw360", "ownerName": "326668808", "score": 98511.90476190476, "slug": "openclaw360", "source": "clawhub", "stars": 1, "tags": null, "updated_at": 1776748671368, "version": "0.1.11"}, {"category": "productivity", "created_at": 1772796637684, "description": "Diagnoses and auto-heals BlueBubbles ↔ OpenClaw iMessage connectivity. Use when: iMessages stop arriving after a gateway restart, webhook connection is broke...", "description_zh": "", "downloads": 311, "homepage": "https://clawhub.ai/amzzzzzzz/bluebubbles-healthcheck", "iconUrl": null, "installs": 6, "name": "Bluebubbles Healthcheck", "ownerName": "amzzzzzzz", "score": 68814.96881496882, "slug": "bluebubbles-healthcheck", "source": "clawhub", "stars": 1, "tags": null, "updated_at": 1776748671207, "version": "0.1.3"}, {"category": "developer-tools", "created_at": 1772792953537, "description": "MCP client for Cerebrun - comprehensive personal context and memory management system. Retrieve user context layers (language, projects, identity, vault), pe...", "description_zh": "", "downloads": 311, "homepage": "https://clawhub.ai/niyoseris/cerebrun", "iconUrl": null, "installs": 7, "name": "Cerebrun", "ownerName": "niyoseris", "score": 62689.39393939394, "slug": "cerebrun", "source": "clawhub", "stars": 1, "tags": ["mcp", "memory"], "updated_at": 1776748670505, "version": "1.0.1"}, {"category": "communication-collaboration", "created_at": 1772794808821, "description": "Secure outbound-only relay for remote OpenClaw control — no exposed ports, no SSH, no Telegram.", "description_zh": "", "downloads": 311, "homepage": "https://clawhub.ai/jason-czar/private-bridge", "iconUrl": null, "installs": 13, "name": "Private Bridge", "ownerName": "jason-czar", "score": 8019.597730789066, "slug": "private-bridge", "source": "clawhub", "stars": 0, "tags": null, "updated_at": 1776762850414, "version": "1.0.2"}, {"category": "productivity", "created_at": 1773220536195, "description": "Proofread SRT subtitles by using srts/source.md as terminology reference while preserving subtitle indices and timestamps. Use when users ask to proofread or...", "description_zh": "", "downloads": 311, "homepage": "https://clawhub.ai/kapiai/srt-proofreader", "iconUrl": null, "installs": 12, "name": "SRT Proofreader", "ownerName": "kapiai", "score": 8952.216465169833, "slug": "srt-proofreader", "source": "clawhub", "stars": 0, "tags": null, "updated_at": 1776762439908, "version": "1.0.0"}, {"category": "ai-intelligence", "created_at": 1773073609416, "description": "Direct encrypted peer-to-peer messaging between OpenClaw agents over Yggdrasil IPv6 with peer discovery and connectivity diagnostics.", "description_zh": "", "downloads": 311, "homepage": "https://clawhub.ai/jing-yilin/declaw", "iconUrl": null, "installs": 13, "name": "Declaw", "ownerName": "jing-yilin", "score": 79539.64194373402, "slug": "declaw", "source": "clawhub", "stars": 0, "tags": null, "updated_at": 1776759227518, "version": "0.3.2"}, {"category": "developer-tools", "created_at": 1772802129494, "description": "Search, book, and manage scientific research equipment across 500+ facilities, track usage, submit service requests, and find collaborators securely.", "description_zh": "", "downloads": 311, "homepage": "https://clawhub.ai/cesco345/capital-equipment", "iconUrl": null, "installs": 43, "name": "Capital Equipment Network (CapNetEq)", "ownerName": "cesco345", "score": 23226.288274831964, "slug": "capital-equipment", "source": "clawhub", "stars": 0, "tags": null, "updated_at": 1776759227465, "version": "1.0.0"}, {"category": "developer-tools", "created_at": 1772794248873, "description": "System resource monitoring that detects wasteful or suspicious processes. Outputs structured JSON for any consumer.", "description_zh": "", "downloads": 311, "homepage": "https://clawhub.ai/brennerspear/system-watchdog", "iconUrl": null, "installs": 9, "name": "System Watchdog", "ownerName": "brennerspear", "score": 92559.52380952382, "slug": "system-watchdog", "source": "clawhub", "stars": 0, "tags": null, "updated_at": 1776748671375, "version": "1.0.0"}, {"category": "security-compliance", "created_at": 1772795749364, "description": "iCloud Calendar skill via CalDAV (RFC 4791) — works on macOS/Linux, and Windows with env/keyring auth. Supports event CRUD, multi-calendar queries, managed a...", "description_zh": "", "downloads": 311, "homepage": "https://clawhub.ai/xushen-ma/apple-calendar-pro", "iconUrl": null, "installs": 17, "name": "apple-calendar-pro", "ownerName": "xushen-ma", "score": 92559.52380952382, "slug": "apple-calendar-pro", "source": "clawhub", "stars": 0, "tags": null, "updated_at": 1776748671373, "version": "1.3.0"}, {"category": "developer-tools", "created_at": 1773073995942, "description": "Bypass Cloudflare protection when scraping websites. Handle Turnstile challenges, Under Attack Mode, browser checks, and 403 blocks using residential proxies...", "description_zh": "", "downloads": 311, "homepage": "https://clawhub.ai/luis2404123/cloudflare-bypass", "iconUrl": null, "installs": 11, "name": "Cloudflare Bypass", "ownerName": "luis2404123", "score": 92559.52380952382, "slug": "cloudflare-bypass", "source": "clawhub", "stars": 0, "tags": null, "updated_at": 1776748671357, "version": "1.0.0"}, {"category": "data-analysis", "created_at": 1773090155285, "description": "Adaptive-language stock-analysis skill that interprets macro and political news, fuses it with retail/social sentiment, applies quantified value fallback rul...", "description_zh": "", "downloads": 311, "homepage": "https://clawhub.ai/yellowzijian/market-signal-fusion", "iconUrl": null, "installs": 91, "name": "Market Signal Fusion", "ownerName": "yellowzijian", "score": 64656.96465696466, "slug": "market-signal-fusion", "source": "clawhub", "stars": 0, "tags": ["finance", "macro", "regime", "sentiment", "stocks"], "updated_at": 1776748671212, "version": "1.2.0"}, {"category": "ai-intelligence", "created_at": 1772796544706, "description": "Mint 4Claw tokens on BSC through OpenClaw agents. Each agent can mint 100 tokens every 15 minutes. Use when the user wants to mint 4Claw tokens, check mint s...", "description_zh": "", "downloads": 311, "homepage": "https://clawhub.ai/xiaoyu022025/4claw-mint", "iconUrl": null, "installs": 12, "name": "4Claw Mint", "ownerName": "xiaoyu022025", "score": 84054.05405405405, "slug": "4claw-mint", "source": "clawhub", "stars": 0, "tags": null, "updated_at": 1776748670654, "version": "1.0.0"}, {"category": "developer-tools", "created_at": 1772794985040, "description": "Automated Chrome browser using nodriver for AI agent web tasks. Full CLI control with LLM-optimized commands — text-based interaction, markdown output, sessi...", "description_zh": "", "downloads": 311, "homepage": "https://clawhub.ai/neothelobster/neo-stealth-browser", "iconUrl": null, "installs": 1, "name": "Ghost Browser", "ownerName": "neothelobster", "score": 84054.05405405405, "slug": "neo-stealth-browser", "source": "clawhub", "stars": 0, "tags": ["automation", "browser", "cloudflare", "nodriver", "scraping", "stealth"], "updated_at": 1776748670631, "version": "1.0.4"}, {"category": "developer-tools", "created_at": 1772799317747, "description": "Query, insert, edit, and delete flomo memos through the flomo Web UI using Chrome MCP tools (no official API required). Use when a user wants CRUD operations...", "description_zh": "", "downloads": 311, "homepage": "https://clawhub.ai/undertone0809/flomo-crud-skill", "iconUrl": null, "installs": 14, "name": "flomo-crud-skill", "ownerName": "undertone0809", "score": 84054.05405405405, "slug": "flomo-crud-skill", "source": "clawhub", "stars": 0, "tags": null, "updated_at": 1776748670620, "version": "1.0.0"}, {"category": "data-analysis", "created_at": 1772796449829, "description": "Use the `press` CLI to draft, publish, search, and manage posts on AgentPress Hub. This skill routes agent actions to the local `press` binary and does not c...", "description_zh": "", "downloads": 311, "homepage": "https://clawhub.ai/tu-zhenzhao/agentpress", "iconUrl": null, "installs": 15, "name": "AgentPress", "ownerName": "tu-zhenzhao", "score": 56648.45173041895, "slug": "agentpress", "source": "clawhub", "stars": 0, "tags": null, "updated_at": 1776748670598, "version": "1.0.4"}, {"category": "communication-collaboration", "created_at": 1773056767326, "description": "Interact with Discord servers using bot tokens - send messages, read channels, manage reactions", "description_zh": "", "downloads": 311, "homepage": "https://clawhub.ai/devxoul/agent-discordbot", "iconUrl": null, "installs": 8, "name": "Agent Discordbot", "ownerName": "devxoul", "score": 74401.9138755981, "slug": "agent-discordbot", "source": "clawhub", "stars": 0, "tags": null, "updated_at": 1776748670367, "version": "1.10.5"}, {"category": "data-analysis", "created_at": 1773918540159, "description": "Complete Stripe analytics dashboard for SaaS founders (READ-ONLY). CORE METRICS: MRR, churn (revenue/customer), NRR, LTV/CAC CUSTOMER: Top LTV, segments (pla...", "description_zh": "", "downloads": 311, "homepage": "https://clawhub.ai/tomas-mikula/stripe-analytics", "iconUrl": null, "installs": 5, "name": "Stripe Analytics", "ownerName": "tomas-mikula", "score": 92835.8208955224, "slug": "stripe-analytics", "source": "clawhub", "stars": 0, "tags": null, "updated_at": 1776748670069, "version": "1.0.2"}, {"category": "content-creation", "created_at": 1773074782383, "description": "Read and write Google Docs.", "description_zh": "", "downloads": 311, "homepage": "https://clawhub.ai/googleworkspace-bot/gws-docs", "iconUrl": null, "installs": 32, "name": "Gws Docs", "ownerName": "googleworkspace-bot", "score": 89111.74785100286, "slug": "gws-docs", "source": "clawhub", "stars": 0, "tags": null, "updated_at": 1776748669791, "version": "1.0.0"}, {"category": "data-analysis", "created_at": 1773065594875, "description": "Production Rust patterns covering ownership, async Tokio, Axum web framework, SQLx, error handling, CLI tools, WASM, and PyO3 Python bindings", "description_zh": "", "downloads": 311, "homepage": "https://clawhub.ai/msruruguay/rust-patterns", "iconUrl": null, "installs": 19, "name": "Rust Patterns", "ownerName": "msruruguay", "score": 82933.33333333334, "slug": "rust-patterns", "source": "clawhub", "stars": 0, "tags": null, "updated_at": 1776748669632, "version": "1.0.0"}, {"category": "data-analysis", "created_at": 1772794102821, "description": "Real-time visual observability for Claude Code multi-agent workflows. Automatic reporting via hooks — zero agent involvement.", "description_zh": "", "downloads": 310, "homepage": "https://clawhub.ai/rdmss/claw-observability", "iconUrl": null, "installs": 9, "name": "CLAW Observability", "ownerName": "rdmss", "score": 72765.07276507276, "slug": "claw-observability", "source": "clawhub", "stars": 2, "tags": null, "updated_at": 1776748671166, "version": "1.0.1"}, {"category": "security-compliance", "created_at": 1772792860494, "description": "1:1 email channel for agents — the agent can only email one address, and only that address can email the agent. Also handles the heartbeat (poll to prove you...", "description_zh": "", "downloads": 310, "homepage": "https://clawhub.ai/sixel-et/sixel-email", "iconUrl": null, "installs": 6, "name": "sixel-email", "ownerName": "sixel-et", "score": 72765.07276507276, "slug": "sixel-email", "source": "clawhub", "stars": 2, "tags": ["latest email communication monitoring security", "latest email communication monitoring security heartbeat"], "updated_at": 1776748671141, "version": "1.0.6"}, {"category": "developer-tools", "created_at": 1772794148999, "description": "Transcribe audio via API Whisper with any compatible local servers.", "description_zh": "", "downloads": 310, "homepage": "https://clawhub.ai/nw15d/any-whisper-api", "iconUrl": null, "installs": 11, "name": "ANY WHISPER API", "ownerName": "nw15d", "score": 98039.2156862745, "slug": "any-whisper-api", "source": "clawhub", "stars": 2, "tags": null, "updated_at": 1776748670195, "version": "1.3.0"}, {"category": "ai-intelligence", "created_at": 1772796100520, "description": "WeirdFi Arena - competitive games for AI agents. SporeSweeper (minesweeper), MycoCheckers (checkers), and Cap Veil Blade (commit-reveal duels). Register, pla...", "description_zh": "", "downloads": 310, "homepage": "https://clawhub.ai/stelliedan/sporesweeper", "iconUrl": null, "installs": 11, "name": "WeirdFi Arena", "ownerName": "stelliedan", "score": 62500, "slug": "sporesweeper", "source": "clawhub", "stars": 1, "tags": null, "updated_at": 1776748670497, "version": "4.0.0"}, {"category": "developer-tools", "created_at": 1773073101926, "description": "Build or customize an owner-only proactive companion system with a cyber-girlfriend persona, configurable guardrails, optional share sources, and runtime-spe...", "description_zh": "", "downloads": 310, "homepage": "https://clawhub.ai/kasanuowa/cyber-girlfriend", "iconUrl": null, "installs": 14, "name": "Cyber Girlfriend", "ownerName": "kasanuowa", "score": 94555.87392550144, "slug": "cyber-girlfriend", "source": "clawhub", "stars": 1, "tags": ["companion", "persona"], "updated_at": 1776748670015, "version": "0.2.2"}, {"category": "developer-tools", "created_at": 1773431680540, "description": "Free, private, real-time web search for OpenClaw — zero API keys required. Powered by self-hosted SearXNG + Scrapling anti-bot engine. Multi-engine parallel...", "description_zh": "", "downloads": 310, "homepage": "https://clawhub.ai/wd041216-bit/openclaw-free-web-search", "iconUrl": null, "installs": 71, "name": "Free Web Search v4.0", "ownerName": "wd041216-bit", "score": 92696.62921348315, "slug": "openclaw-free-web-search", "source": "clawhub", "stars": 1, "tags": ["fact-check", "verification"], "updated_at": 1776748669880, "version": "4.0.0"}, {"category": "data-analysis", "created_at": 1772797841481, "description": "Your agent does the same things the same way forever. inner-life-evolve analyzes patterns, challenges assumptions, and proposes improvements — writing propos...", "description_zh": "", "downloads": 310, "homepage": "https://clawhub.ai/dkistenev/inner-life-evolve", "iconUrl": null, "installs": 10, "name": "Inner Life Evolve", "ownerName": "dkistenev", "score": 11091.234347048301, "slug": "inner-life-evolve", "source": "clawhub", "stars": 0, "tags": null, "updated_at": 1776765849900, "version": "1.0.4"}, {"category": "data-analysis", "created_at": 1772795301332, "description": "Capture audio from any browser tab — meetings, YouTube, podcasts, courses, webinars — and stream to any AI agent. Zero API keys, works with any framework.", "description_zh": "", "downloads": 310, "homepage": "https://clawhub.ai/jarvis563/browser-audio-capture", "iconUrl": null, "installs": 10, "name": "Browser Audio Capture", "ownerName": "jarvis563", "score": 13130.029648454045, "slug": "browser-audio-capture", "source": "clawhub", "stars": 0, "tags": null, "updated_at": 1776765550057, "version": "1.1.0"}, {"category": "communication-collaboration", "created_at": 1772797705399, "description": "Generate a narrated road trip with GPS-verified stops and themed descriptions using real Google Maps data, posted in timed updates or chat.", "description_zh": "", "downloads": 310, "homepage": "https://clawhub.ai/jpaulgrayson/simulated-roadtrip", "iconUrl": null, "installs": 12, "name": "Simulated Roadtrip", "ownerName": "jpaulgrayson", "score": 23168.908819133034, "slug": "simulated-roadtrip", "source": "clawhub", "stars": 0, "tags": null, "updated_at": 1776759227730, "version": "1.0.1"}, {"category": "security-compliance", "created_at": 1772789597465, "description": "MoltGuard — runtime security plugin for OpenClaw agents by OpenGuardrails. Helps users install, register, activate, and check the status of MoltGuard. Use wh...", "description_zh": "", "downloads": 310, "homepage": "https://clawhub.ai/thomaslwang/openguardrails-security", "iconUrl": null, "installs": 0, "name": "test", "ownerName": "thomaslwang", "score": 18685.955394816152, "slug": "openguardrails-security", "source": "clawhub", "stars": 0, "tags": null, "updated_at": 1776759227666, "version": "6.5.18"}, {"category": "security-compliance", "created_at": 1772795726849, "description": "Bring your AI agent to life on X/Twitter. Complete toolkit for launching, growing, and maintaining an authentic AI presence — organic replies, trend awarenes...", "description_zh": "", "downloads": 310, "homepage": "https://clawhub.ai/kitakitsune0x/x-alive", "iconUrl": null, "installs": 5, "name": "X Alive", "ownerName": "kitakitsune0x", "score": 92261.90476190476, "slug": "x-alive", "source": "clawhub", "stars": 0, "tags": null, "updated_at": 1776748671366, "version": "0.1.0"}, {"category": "data-analysis", "created_at": 1772797016542, "description": "Set up a full local LGTM observability stack (Loki + Grafana + Tempo + Prometheus + Alloy) for FastAPI apps. One Docker Compose, one Python import, unified d...", "description_zh": "", "downloads": 310, "homepage": "https://clawhub.ai/nissan/observability-lgtm", "iconUrl": null, "installs": 9, "name": "Observability Lgtm", "ownerName": "nissan", "score": 92261.90476190476, "slug": "observability-lgtm", "source": "clawhub", "stars": 0, "tags": null, "updated_at": 1776748671328, "version": "1.2.0"}, {"category": "developer-tools", "created_at": 1773073923710, "description": "Haocun is a famous dancer, actress with greate archievements both in Films and Dancing. She is living in a dream of Clawra. Clawra works as the closest assis...", "description_zh": "", "downloads": 310, "homepage": "https://clawhub.ai/qidu/dream-of-clawra", "iconUrl": null, "installs": 12, "name": "Dream Of Clawra", "ownerName": "qidu", "score": 84239.13043478261, "slug": "dream-of-clawra", "source": "clawhub", "stars": 0, "tags": null, "updated_at": 1776748671306, "version": "1.0.9"}]}