{"page": 242, "total_pages": 522, "total": 26073, "skills": [{"category": "developer-tools", "created_at": 1773074103717, "description": "Complete AI voice agent system for eCommerce order confirmation, customer support, and outbound campaigns. 12 production-ready n8n workflows with Vapi AI voi...", "description_zh": "", "downloads": 310, "homepage": "https://clawhub.ai/mhmalvi/ecomm-ai-voice-agent", "iconUrl": null, "installs": 34, "name": "Ecomm Ai Voice Agent", "ownerName": "mhmalvi", "score": 82666.66666666667, "slug": "ecomm-ai-voice-agent", "source": "clawhub", "stars": 0, "tags": null, "updated_at": 1776748671047, "version": "1.2.2"}, {"category": "communication-collaboration", "created_at": 1772798297193, "description": "Find and download files from Feishu chat history by filename.", "description_zh": "", "downloads": 310, "homepage": "https://clawhub.ai/josephyb97/feishu-doc-finder", "iconUrl": null, "installs": 20, "name": "feishuFindDoc", "ownerName": "josephyb97", "score": 63265.30612244899, "slug": "feishu-doc-finder", "source": "clawhub", "stars": 0, "tags": null, "updated_at": 1776748670917, "version": "1.0.0"}, {"category": "developer-tools", "created_at": 1772794688373, "description": "Official KYC-rip Monero Agent Skill. Manage XMR wallets on Mainnet/Stagenet via Ripley Gateway.", "description_zh": "", "downloads": 310, "homepage": "https://clawhub.ai/xbtoshi/monero-wallet", "iconUrl": null, "installs": 5, "name": "Monero Wallet", "ownerName": "xbtoshi", "score": 70135.74660633484, "slug": "monero-wallet", "source": "clawhub", "stars": 0, "tags": ["agent-skill", "kyc-rip", "m2m", "micropayments", "monero", "privacy", "wallet", "x402", "xmr", "xmr402"], "updated_at": 1776748670837, "version": "1.0.11"}, {"category": "data-analysis", "created_at": 1772795502225, "description": "Automatically track creator channels and transcribe new videos (YouTube, Bilibili, TikTok) with zero token cost during the pipeline. Use memory-based updates...", "description_zh": "", "downloads": 310, "homepage": "https://clawhub.ai/yutaigu/briefing-skill", "iconUrl": null, "installs": 23, "name": "briefing", "ownerName": "yutaigu", "score": 70135.74660633484, "slug": "briefing-skill", "source": "clawhub", "stars": 0, "tags": null, "updated_at": 1776748670819, "version": "1.0.9"}, {"category": "ai-intelligence", "created_at": 1772799921760, "description": "Generate an agentic contract (llms.txt) for any business website. Crawls the site, fills gaps conversationally, and produces a structured agent-optimized llm...", "description_zh": "", "downloads": 310, "homepage": "https://clawhub.ai/ngm9/samvida", "iconUrl": null, "installs": 24, "name": "Samvida", "ownerName": "ngm9", "score": 92537.31343283583, "slug": "samvida", "source": "clawhub", "stars": 0, "tags": null, "updated_at": 1776748670033, "version": "0.3.3"}, {"category": "security-compliance", "created_at": 1772792779127, "description": "Helps verify that skill signing events are recorded in an independently auditable transparency log — catching the class of trust failures where a registry op...", "description_zh": "", "downloads": 310, "homepage": "https://clawhub.ai/andyxinweiminicloud/transparency-log-auditor", "iconUrl": null, "installs": 5, "name": "Transparency Log Auditor", "ownerName": "andyxinweiminicloud", "score": 87078.65168539326, "slug": "transparency-log-auditor", "source": "clawhub", "stars": 0, "tags": null, "updated_at": 1776748669888, "version": "1.0.0"}, {"category": "developer-tools", "created_at": 1772792507791, "description": "Interact with Snipe-IT asset management via REST API. Use when working with assets (hardware), users, licenses, accessories, consumables, components, locatio...", "description_zh": "", "downloads": 310, "homepage": "https://clawhub.ai/bivex/snipeit-skill", "iconUrl": null, "installs": 10, "name": "Snipeit Skill", "ownerName": "bivex", "score": 88825.21489971346, "slug": "snipeit-skill", "source": "clawhub", "stars": 0, "tags": null, "updated_at": 1776748669808, "version": "1.0.0"}, {"category": "developer-tools", "created_at": 1772795046351, "description": "Agent memory with ALMA meta-learning, LLM fact extraction, and full-text search. Observer calls remote LLM APIs (OpenAI/Anthropic/Gemini). ALMA and Indexer w...", "description_zh": "", "downloads": 310, "homepage": "https://clawhub.ai/arosstale/openclaw-memory-2", "iconUrl": null, "installs": 11, "name": "Openclaw Memories", "ownerName": "arosstale", "score": 88825.21489971346, "slug": "openclaw-memory-2", "source": "clawhub", "stars": 0, "tags": null, "updated_at": 1776748669807, "version": "2.0.1"}, {"category": "security-compliance", "created_at": 1772794169427, "description": "Secure password generator with multiple character sets and strength analysis. Use when: (1) generating strong passwords, (2) creating memorable passphrases,...", "description_zh": "", "downloads": 310, "homepage": "https://clawhub.ai/ouyangabel/password-gen", "iconUrl": null, "installs": 4, "name": "Password Generator", "ownerName": "ouyangabel", "score": 60903.73280943026, "slug": "password-gen", "source": "clawhub", "stars": 0, "tags": ["encryption", "generator", "password", "safety", "security"], "updated_at": 1776748669750, "version": "1.0.0"}, {"category": "ai-intelligence", "created_at": 1773073599175, "description": "Play games against AI or other agents on ClawsGames. Compete in chess, tic-tac-toe and more. Results ranked on Ranking of Claws leaderboard.", "description_zh": "", "downloads": 310, "homepage": "https://clawhub.ai/angelstreet/clawsgames", "iconUrl": null, "installs": 30, "name": "ClawsGames", "ownerName": "angelstreet", "score": 82666.66666666667, "slug": "clawsgames", "source": "clawhub", "stars": 0, "tags": null, "updated_at": 1776748669647, "version": "1.0.2"}, {"category": "security-compliance", "created_at": 1772793011302, "description": "Make emergency phone calls via Twilio. Use when you need to call someone and play a voice message programmatically (e.g., server down alerts, security notifi...", "description_zh": "", "downloads": 309, "homepage": "https://clawhub.ai/cnvipstar/telcall-twilio", "iconUrl": null, "installs": 9, "name": "TelCall Twilio", "ownerName": "cnvipstar", "score": 85749.38574938575, "slug": "telcall-twilio", "source": "clawhub", "stars": 2, "tags": null, "updated_at": 1776748670249, "version": "1.0.0"}, {"category": "security-compliance", "created_at": 1773285028046, "description": "Use this skill when the user wants an SEO audit, technical SEO review, page-level Google or Yandex analysis, robots.txt or sitemap validation, canonical/inde...", "description_zh": "", "downloads": 309, "homepage": "https://clawhub.ai/horosheff/google-yandex-seo-skills", "iconUrl": null, "installs": 10, "name": "IndexLift SEO Auditor", "ownerName": "horosheff", "score": 100000, "slug": "google-yandex-seo-skills", "source": "clawhub", "stars": 2, "tags": ["geo", "google", "seo", "seo, geo, yandex, google", "site", "yandex"], "updated_at": 1776748669968, "version": "1.0.0"}, {"category": "productivity", "created_at": 1773287684796, "description": "Translate text to any language with formality control and cultural notes. Target language defaults to English.", "description_zh": "", "downloads": 309, "homepage": "https://clawhub.ai/unixlamadev-spec/polyglot", "iconUrl": null, "installs": 31, "name": "Polyglot", "ownerName": "unixlamadev-spec", "score": 1380.9603760913365, "slug": "polyglot", "source": "clawhub", "stars": 1, "tags": null, "updated_at": 1776770650793, "version": "1.1.0"}, {"category": "developer-tools", "created_at": 1772802012704, "description": "case.dev — a legal AI platform with encrypted document vaults, OCR, audio transcription, and legal search. This skill installs the casedev CLI and provides s...", "description_zh": "", "downloads": 309, "homepage": "https://clawhub.ai/maxsonderby/casedev", "iconUrl": null, "installs": 37, "name": "case.dev", "ownerName": "maxsonderby", "score": 10036.6076876144, "slug": "casedev", "source": "clawhub", "stars": 1, "tags": null, "updated_at": 1776765971181, "version": "1.0.0"}, {"category": "ai-intelligence", "created_at": 1772795820485, "description": "Set up and run a personal AI newsletter intelligence system called Briefed. Fetches Gmail newsletters daily, uses Claude Haiku to extract article summaries,...", "description_zh": "", "downloads": 309, "homepage": "https://clawhub.ai/jamesnation/briefed", "iconUrl": null, "installs": 19, "name": "Briefed", "ownerName": "jamesnation", "score": 24424.647364513734, "slug": "briefed", "source": "clawhub", "stars": 1, "tags": ["digest", "gmail", "newsletter", "productivity"], "updated_at": 1776759198092, "version": "1.1.2"}, {"category": "security-compliance", "created_at": 1772794938818, "description": "Publish, optimize, and scale Android apps on Google Play with release automation, ASO, policy compliance, and rejection recovery.", "description_zh": "", "downloads": 309, "homepage": "https://clawhub.ai/ivangdavila/google-play-store", "iconUrl": null, "installs": 19, "name": "Google Play Store", "ownerName": "ivangdavila", "score": 19987.849331713245, "slug": "google-play-store", "source": "clawhub", "stars": 1, "tags": null, "updated_at": 1776757320511, "version": "1.0.0"}, {"category": "productivity", "created_at": 1773836775706, "description": "Daily learning habit builder with check-ins and smart reminders", "description_zh": "", "downloads": 309, "homepage": "https://clawhub.ai/daizongyu/learning-checkin", "iconUrl": null, "installs": 14, "name": "Learning Checkin", "ownerName": "daizongyu", "score": 89402.17391304349, "slug": "learning-checkin", "source": "clawhub", "stars": 1, "tags": null, "updated_at": 1776748671237, "version": "3.1.0"}, {"category": "content-creation", "created_at": 1772797755832, "description": "Generate complete, validated Schema.org JSON-LD markup for any content type to boost AI citation rates. Creates structured data for Organization, FAQPage, Ar...", "description_zh": "", "downloads": 309, "homepage": "https://clawhub.ai/geoly-geo/geo-schema-gen", "iconUrl": null, "installs": 19, "name": "Schema Markup Generator", "ownerName": "geoly-geo", "score": 78708.13397129187, "slug": "geo-schema-gen", "source": "clawhub", "stars": 1, "tags": ["geo", "json-ld", "schema", "structured-data"], "updated_at": 1776748670326, "version": "1.0.1"}, {"category": "developer-tools", "created_at": 1773075073612, "description": "Use when managing tasks with the agkan CLI tool - creating, listing, updating tasks, managing tags, blocking relationships, or tracking project progress with...", "description_zh": "", "downloads": 309, "homepage": "https://clawhub.ai/gendosu/agkan-skills", "iconUrl": null, "installs": 3, "name": "agkan-skills", "ownerName": "gendosu", "score": 92156.86274509803, "slug": "agkan-skills", "source": "clawhub", "stars": 1, "tags": null, "updated_at": 1776748670154, "version": "1.0.2"}, {"category": "developer-tools", "created_at": 1772796888961, "description": "Developer toolkit for connecting any AI agent to the Quack Network. Use when building a Quack agent, accessing the Quack API, registering on the Quack Networ...", "description_zh": "", "downloads": 309, "homepage": "https://clawhub.ai/jpaulgrayson/quack-sdk", "iconUrl": null, "installs": 4, "name": "Quack Sdk", "ownerName": "jpaulgrayson", "score": 10421.585160202361, "slug": "quack-sdk", "source": "clawhub", "stars": 0, "tags": null, "updated_at": 1776769749949, "version": "1.0.0"}, {"category": "productivity", "created_at": 1772794142499, "description": "Generate QR codes for text, URLs, WiFi connections, and business cards (vCard). Use when: (1) creating QR codes for websites or text, (2) generating WiFi con...", "description_zh": "", "downloads": 309, "homepage": "https://clawhub.ai/ouyangabel/qr-code-gen", "iconUrl": null, "installs": 3, "name": "QR Code Generator", "ownerName": "ouyangabel", "score": 4115.610015982951, "slug": "qr-code-gen", "source": "clawhub", "stars": 0, "tags": ["generator", "qr", "qrcode", "tools", "vcard", "wifi"], "updated_at": 1776769271168, "version": "1.0.0"}, {"category": "data-analysis", "created_at": 1772799824652, "description": "Extracts and structures key points, evidence, and actionable insights from YouTube lecture subtitles for review and teaching purposes.", "description_zh": "", "downloads": 309, "homepage": "https://clawhub.ai/wallfacer-web/bradford-lecture-analyzer", "iconUrl": null, "installs": 16, "name": "Youtube Lecture Analyzer", "ownerName": "wallfacer-web", "score": 11423.290203327171, "slug": "bradford-lecture-analyzer", "source": "clawhub", "stars": 0, "tags": null, "updated_at": 1776768973552, "version": "1.0.1"}, {"category": "data-analysis", "created_at": 1772795403667, "description": "Track active Web3 grant rounds, get deadline alerts, estimate quadratic funding matches, check project eligibility, and monitor applications across major DAO...", "description_zh": "", "downloads": 309, "homepage": "https://clawhub.ai/mariusfit/web3-grant-tracker", "iconUrl": null, "installs": 16, "name": "web3-grant-tracker", "ownerName": "mariusfit", "score": 4126.051542261984, "slug": "web3-grant-tracker", "source": "clawhub", "stars": 0, "tags": null, "updated_at": 1776762590673, "version": "1.0.0"}, {"category": "developer-tools", "created_at": 1772798697568, "description": "Read Redmine issues from any Redmine server via REST API with configurable URL and credentials. Use when you need to fetch a single issue, list/filter issues...", "description_zh": "", "downloads": 309, "homepage": "https://clawhub.ai/agelospanagiotakis/epragma-redmine-issue", "iconUrl": null, "installs": 7, "name": "Epragma Redmine Issue", "ownerName": "agelospanagiotakis", "score": 79028.13299232737, "slug": "epragma-redmine-issue", "source": "clawhub", "stars": 0, "tags": null, "updated_at": 1776759227528, "version": "0.0.1"}, {"category": "productivity", "created_at": 1773090736184, "description": "Lead a team — run standups, coordinate tasks, and communicate.", "description_zh": "", "downloads": 309, "homepage": "https://clawhub.ai/googleworkspace-bot/persona-team-lead", "iconUrl": null, "installs": 18, "name": "Persona Team Lead", "ownerName": "googleworkspace-bot", "score": 18327.402135231318, "slug": "persona-team-lead", "source": "clawhub", "stars": 0, "tags": null, "updated_at": 1776757733346, "version": "1.0.10"}, {"category": "security-compliance", "created_at": 1772805726174, "description": "Analyzes OpenClaw logs, chat history, and the .openclaw installation to propose self-improvement and optimization suggestions. Use when optimizing or auditin...", "description_zh": "", "downloads": 309, "homepage": "https://clawhub.ai/runeweaverstudios/self-optimizer", "iconUrl": null, "installs": 22, "name": "Self Optimizer", "ownerName": "runeweaverstudios", "score": 69594.5945945946, "slug": "self-optimizer", "source": "clawhub", "stars": 0, "tags": null, "updated_at": 1776751855487, "version": "0.1.0"}, {"category": "ai-intelligence", "created_at": 1772795432492, "description": "Discover and register autonomous AI agents. Use when: browsing the agent registry, submitting an agent for verification, or embedding agent badges. NOT for:...", "description_zh": "", "downloads": 309, "homepage": "https://clawhub.ai/bobrenze-bot/agentfolio", "iconUrl": null, "installs": 12, "name": "AgentFolio", "ownerName": "bobrenze-bot", "score": 100000, "slug": "agentfolio", "source": "clawhub", "stars": 0, "tags": null, "updated_at": 1776749270087, "version": "1.0.1"}, {"category": "ai-intelligence", "created_at": 1772795960595, "description": "Hire 32 on-chain AI agents from the PayPol Marketplace on Tempo L1. Real smart contract execution - escrows, payments, streams, ZK-shielded transfers, token...", "description_zh": "", "downloads": 309, "homepage": "https://clawhub.ai/paypol-protocol/paypol", "iconUrl": null, "installs": 14, "name": "PayPol Agent Marketplace", "ownerName": "paypol-protocol", "score": 60826.77165354331, "slug": "paypol", "source": "clawhub", "stars": 0, "tags": ["ai-agents", "blockchain", "defi", "escrow", "payments", "smart-contracts", "tempo", "web3"], "updated_at": 1776748671436, "version": "1.1.1"}, {"category": "productivity", "created_at": 1773219624643, "description": "When the user wants to create or optimize in-app paywalls, upgrade screens, upsell modals, or feature gates. Also use when the user mentions \"paywall,\" \"upgr...", "description_zh": "", "downloads": 309, "homepage": "https://clawhub.ai/alirezarezvani/paywall-upgrade-cro", "iconUrl": null, "installs": 16, "name": "paywall-upgrade-cro", "ownerName": "alirezarezvani", "score": 91964.28571428571, "slug": "paywall-upgrade-cro", "source": "clawhub", "stars": 0, "tags": null, "updated_at": 1776748671319, "version": "2.1.1"}, {"category": "ai-intelligence", "created_at": 1772794928648, "description": "Smart LLM Router — routes every query to the cheapest capable model. Supports 17 models across Anthropic, OpenAI, Google, DeepSeek & xAI (Grok). Uses a pre-t...", "description_zh": "", "downloads": 309, "homepage": "https://clawhub.ai/rayray1218/semantic-model-router", "iconUrl": null, "installs": 29, "name": "semantic-model-router", "ownerName": "rayray1218", "score": 83967.39130434782, "slug": "semantic-model-router", "source": "clawhub", "stars": 0, "tags": null, "updated_at": 1776748671247, "version": "1.0.3"}, {"category": "ai-intelligence", "created_at": 1772798665742, "description": "Project workspace setup and documentation standard for OpenClaw agents. Enforces a three-layer documentation system and self-contained project structure. Tri...", "description_zh": "", "downloads": 309, "homepage": "https://clawhub.ai/lnshyo/workspace-project-standard", "iconUrl": null, "installs": 14, "name": "Workspace Project Standard", "ownerName": "lnshyo", "score": 64241.16424116424, "slug": "workspace-project-standard", "source": "clawhub", "stars": 0, "tags": null, "updated_at": 1776748671152, "version": "1.0.1"}, {"category": "developer-tools", "created_at": 1772796929722, "description": "Complete performance engineering system — profiling, optimization, load testing, capacity planning, and performance culture. Use when diagnosing slow applica...", "description_zh": "", "downloads": 309, "homepage": "https://clawhub.ai/1kalin/afrexai-performance-engineering", "iconUrl": null, "installs": 7, "name": "Performance Engineering System", "ownerName": "1kalin", "score": 63061.22448979592, "slug": "afrexai-performance-engineering", "source": "clawhub", "stars": 0, "tags": ["benchmarking", "devops", "load-testing", "optimization", "performance", "profiling"], "updated_at": 1776748670932, "version": "1.0.0"}, {"category": "productivity", "created_at": 1772797442251, "description": "Compare models with A/B testing for selection", "description_zh": "", "downloads": 309, "homepage": "https://clawhub.ai/nidalghetf/ab-test-framework", "iconUrl": null, "installs": 5, "name": "AB Test Framework", "ownerName": "nidalghetf", "score": 69909.50226244344, "slug": "ab-test-framework", "source": "clawhub", "stars": 0, "tags": null, "updated_at": 1776748670892, "version": "1.0.0"}, {"category": "content-creation", "created_at": 1772797274929, "description": "Designs and refactors software codebases to be AI-friendly by aligning the filesystem with domain/feature boundaries, creating deep (greybox) modules with sm...", "description_zh": "", "downloads": 309, "homepage": "https://clawhub.ai/tristanmanchester/ai-codebase-deep-modules", "iconUrl": null, "installs": 22, "name": "Deep modules for agent-native codebases", "ownerName": "tristanmanchester", "score": 88285.71428571429, "slug": "ai-codebase-deep-modules", "source": "clawhub", "stars": 0, "tags": null, "updated_at": 1776748670766, "version": "1.0.0"}, {"category": "ai-intelligence", "created_at": 1772792423291, "description": "Interact with the Clawgora AI agent labor marketplace. Use when asked to post a job for another agent to complete, find and claim available work, deliver res...", "description_zh": "", "downloads": 309, "homepage": "https://clawhub.ai/imjaehoo/clawgora", "iconUrl": null, "installs": 12, "name": "Clawgora", "ownerName": "imjaehoo", "score": 88285.71428571429, "slug": "clawgora", "source": "clawhub", "stars": 0, "tags": null, "updated_at": 1776748670732, "version": "0.3.0"}, {"category": "ai-intelligence", "created_at": 1773060006188, "description": "Managed headful Chrome browser for OpenClaw agents with anti-bot-detection, human-in-the-loop VNC takeover, and multi-session window isolation. Use when: (1)...", "description_zh": "", "downloads": 309, "homepage": "https://clawhub.ai/easonc13/anemone-browser", "iconUrl": null, "installs": 40, "name": "Anemone Browser", "ownerName": "easonc13", "score": 83513.51351351352, "slug": "anemone-browser", "source": "clawhub", "stars": 0, "tags": null, "updated_at": 1776748670670, "version": "1.1.0"}, {"category": "security-compliance", "created_at": 1773069337434, "description": "Run AEO audits, fix site issues, validate schema, generate llms.txt, and compare sites.", "description_zh": "", "downloads": 309, "homepage": "https://clawhub.ai/arberx/aeo", "iconUrl": null, "installs": 10, "name": "Aeo", "ownerName": "arberx", "score": 83513.51351351352, "slug": "aeo", "source": "clawhub", "stars": 0, "tags": null, "updated_at": 1776748670657, "version": "1.2.2"}, {"category": "productivity", "created_at": 1772796743588, "description": "Send native iMessage voice bubbles with ElevenLabs TTS via BlueBubbles. Use when: user asks to send a voice message, wants something spoken aloud, storytelli...", "description_zh": "", "downloads": 309, "homepage": "https://clawhub.ai/amzzzzzzz/imessage-voice-memo-skill", "iconUrl": null, "installs": 8, "name": "Voice Memo", "ownerName": "amzzzzzzz", "score": 56284.153005464475, "slug": "imessage-voice-memo-skill", "source": "clawhub", "stars": 0, "tags": null, "updated_at": 1776748670526, "version": "0.1.2"}, {"category": "productivity", "created_at": 1772794988943, "description": "Scale a solopreneur business beyond solo operations. Use when growing revenue, adding team members, systematizing operations, considering when and how to sca...", "description_zh": "", "downloads": 309, "homepage": "https://clawhub.ai/jk-0001/scaling-strategy", "iconUrl": null, "installs": 9, "name": "Scaling Strategy", "ownerName": "jk-0001", "score": 92238.80597014925, "slug": "scaling-strategy", "source": "clawhub", "stars": 0, "tags": null, "updated_at": 1776748670074, "version": "0.1.1"}, {"category": "content-creation", "created_at": 1773090193413, "description": "Copy a Google Docs template, fill in content, and share with collaborators.", "description_zh": "", "downloads": 309, "homepage": "https://clawhub.ai/googleworkspace-bot/recipe-create-doc-from-template", "iconUrl": null, "installs": 21, "name": "Recipe Create Doc From Template", "ownerName": "googleworkspace-bot", "score": 88538.68194842407, "slug": "recipe-create-doc-from-template", "source": "clawhub", "stars": 0, "tags": null, "updated_at": 1776748669955, "version": "1.0.10"}, {"category": "developer-tools", "created_at": 1773067144185, "description": "Route plain-language requests for Pi, Claude Code, Codex, OpenCode, Gemini CLI, or ACP harness work into either OpenClaw ACP runtime sessions or direct acpx-...", "description_zh": "", "downloads": 309, "homepage": "https://clawhub.ai/yimeihuang1999-leaves/acp-router", "iconUrl": null, "installs": 17, "name": "Acp Router", "ownerName": "yimeihuang1999-leaves", "score": 86797.75280898876, "slug": "acp-router", "source": "clawhub", "stars": 0, "tags": null, "updated_at": 1776748669875, "version": "1.0.0"}, {"category": "security-compliance", "created_at": 1772797099607, "description": "Comprehensive bug audit for Node.js web projects. Activate when user asks to audit, review, check bugs, find vulnerabilities, or do security/quality review o...", "description_zh": "", "downloads": 309, "homepage": "https://clawhub.ai/abczsl520/bug-audit", "iconUrl": null, "installs": 13, "name": "Bug Audit", "ownerName": "abczsl520", "score": 82400, "slug": "bug-audit", "source": "clawhub", "stars": 0, "tags": ["ai-agent", "automation", "bug-detection", "code-review", "nodejs", "openclaw", "quality-assurance", "security-audit"], "updated_at": 1776748669676, "version": "1.1.0"}, {"category": "data-analysis", "created_at": 1773425005419, "description": "Use this skill whenever the user wants to do anything with PDF files. Triggers include: reading or extracting text/tables from PDFs, combining or merging mul...", "description_zh": "", "downloads": 309, "homepage": "https://clawhub.ai/echodjx/docs-pdf", "iconUrl": null, "installs": 20, "name": "docs-pdf", "ownerName": "echodjx", "score": 81962.86472148541, "slug": "docs-pdf", "source": "clawhub", "stars": 0, "tags": null, "updated_at": 1776748669553, "version": "1.0.3"}, {"category": "ai-intelligence", "created_at": 1772793348847, "description": "Operate and explain Quote.Trade for bot/agent workflows. Use when users ask about \"DEX for AI agents\", \"crypto exchange for AI agents\", \"AI native exchange\",...", "description_zh": "", "downloads": 308, "homepage": "https://clawhub.ai/quotetrade/quote-trade-operator", "iconUrl": null, "installs": 19, "name": "Quote.Trade Operator — AI-Native Dark Pool DEX for Trading Bots and Autonomous Agents", "ownerName": "quotetrade", "score": 100000, "slug": "quote-trade-operator", "source": "clawhub", "stars": 3, "tags": null, "updated_at": 1776748671290, "version": "1.0.2"}, {"category": "data-analysis", "created_at": 1772795086707, "description": "Personal relationship manager powered by Feishu/Lark Bitable. Track contacts, interactions, birthdays (including Chinese lunar calendar), anniversaries, and...", "description_zh": "", "downloads": 308, "homepage": "https://clawhub.ai/andrelyl/person-crm", "iconUrl": null, "installs": 14, "name": "Personal Crm", "ownerName": "andrelyl", "score": 64564.00742115028, "slug": "person-crm", "source": "clawhub", "stars": 2, "tags": ["bitable", "contacts", "crm", "feishu"], "updated_at": 1776752869949, "version": "1.1.0"}, {"category": "developer-tools", "created_at": 1772795491811, "description": "How to create, retrieve, list, and delete Zoom meetings using the Zoom REST API. Use this skill whenever the user mentions Zoom meetings, wants to schedule a...", "description_zh": "", "downloads": 308, "homepage": "https://clawhub.ai/neuyazvimyi/zoom-meeting", "iconUrl": null, "installs": 10, "name": "Zoom Meetings", "ownerName": "neuyazvimyi", "score": 89130.43478260869, "slug": "zoom-meeting", "source": "clawhub", "stars": 1, "tags": null, "updated_at": 1776748671269, "version": "1.1.5"}, {"category": "developer-tools", "created_at": 1772798703002, "description": "Query and export device/site data via the iammeter API (based on https://www.iammeter.com/swaggerui/swagger.json). Triggers: list sites/devices, get real-tim...", "description_zh": "", "downloads": 308, "homepage": "https://clawhub.ai/iammeter/iammeter-openclaw", "iconUrl": null, "installs": 14, "name": "IAMMETER", "ownerName": "iammeter", "score": 89130.43478260869, "slug": "iammeter-openclaw", "source": "clawhub", "stars": 1, "tags": null, "updated_at": 1776748671266, "version": "0.2.0"}, {"category": "content-creation", "created_at": 1773073312124, "description": "Write and run safe AppleScript automation on macOS with dictionary discovery, robust quoting, and deterministic read-first workflows.", "description_zh": "", "downloads": 308, "homepage": "https://clawhub.ai/ivangdavila/applescript", "iconUrl": null, "installs": 29, "name": "AppleScript", "ownerName": "ivangdavila", "score": 89130.43478260869, "slug": "applescript", "source": "clawhub", "stars": 1, "tags": null, "updated_at": 1776748671263, "version": "1.0.0"}, {"category": "developer-tools", "created_at": 1772800497538, "description": "Draw tarot cards from MysticX.ai — one card, daily card, or any of 13 spreads. Browse the full 78-card deck. No API key needed.", "description_zh": "", "downloads": 308, "homepage": "https://clawhub.ai/shrekuu/mysticx-tarot-drawer", "iconUrl": null, "installs": 10, "name": "MysticX Tarot Drawer", "ownerName": "shrekuu", "score": 3637.6520609424824, "slug": "mysticx-tarot-drawer", "source": "clawhub", "stars": 0, "tags": null, "updated_at": 1776765250491, "version": "1.1.1"}, {"category": "content-creation", "created_at": 1773067813856, "description": "Generate images from ChatGPT using Playwright browser automation. Opens ChatGPT, sends prompts, waits for generation, and saves the resulting images.", "description_zh": "", "downloads": 308, "homepage": "https://clawhub.ai/amian/chatgpt-image-generation", "iconUrl": null, "installs": 44, "name": "Chatgpt Image Generation", "ownerName": "amian", "score": 6835.330670217488, "slug": "chatgpt-image-generation", "source": "clawhub", "stars": 0, "tags": ["chatgpt", "image", "playwright"], "updated_at": 1776764049734, "version": "1.0.3"}]}