{"page": 243, "total_pages": 522, "total": 26073, "skills": [{"category": "developer-tools", "created_at": 1772799013025, "description": "Build and orchestrate multi-agent AI systems using the Swarms API. Use when creating single agents, multi-agent swarms (sequential, concurrent, hierarchical,...", "description_zh": "", "downloads": 308, "homepage": "https://clawhub.ai/newsoulontheblock/swarms-ai", "iconUrl": null, "installs": 6, "name": "openclaw skill for swarms ai", "ownerName": "newsoulontheblock", "score": 11282.051282051283, "slug": "swarms-ai", "source": "clawhub", "stars": 0, "tags": null, "updated_at": 1776762482192, "version": "1.0.0"}, {"category": "developer-tools", "created_at": 1773075077844, "description": "Automate and control Flashforge Adventurer 5M 3D printers via netcat for status, print jobs, temperature, homing, file management, and slicing.", "description_zh": "", "downloads": 308, "homepage": "https://clawhub.ai/nickbmerrill-collab/3dprint", "iconUrl": null, "installs": 40, "name": "Flashforge 3D Print", "ownerName": "nickbmerrill-collab", "score": 19493.67088607595, "slug": "3dprint", "source": "clawhub", "stars": 0, "tags": ["3d-printing", "automation", "camera", "flashforge"], "updated_at": 1776760431572, "version": "1.2.0"}, {"category": "security-compliance", "created_at": 1772794508852, "description": "Ensures AI agents maintain consistent identity by auditing soul rules, detecting behavioral drift in transcripts, and injecting context-aware reminders.", "description_zh": "", "downloads": 308, "homepage": "https://clawhub.ai/cassh100k/soulkeeper", "iconUrl": null, "installs": 13, "name": "SoulKeeper", "ownerName": "cassh100k", "score": 18565.400843881856, "slug": "soulkeeper", "source": "clawhub", "stars": 0, "tags": null, "updated_at": 1776759227656, "version": "1.0.0"}, {"category": "content-creation", "created_at": 1773066474373, "description": "Generate ultra-realistic images and Instagram content using Gemini 2.0 Flash Experimental. Use when creating photorealistic images, social media content, or...", "description_zh": "", "downloads": 308, "homepage": "https://clawhub.ai/vitja1988/gemini-nano-images", "iconUrl": null, "installs": 63, "name": "Gemini Nano Images", "ownerName": "vitja1988", "score": 18224.852071005917, "slug": "gemini-nano-images", "source": "clawhub", "stars": 0, "tags": null, "updated_at": 1776756188913, "version": "1.0.0"}, {"category": "productivity", "created_at": 1773090565060, "description": "Plan and manage events — scheduling, invitations, and logistics.", "description_zh": "", "downloads": 308, "homepage": "https://clawhub.ai/googleworkspace-bot/persona-event-coordinator", "iconUrl": null, "installs": 26, "name": "Persona Event Coordinator", "ownerName": "googleworkspace-bot", "score": 55595.6678700361, "slug": "persona-event-coordinator", "source": "clawhub", "stars": 0, "tags": null, "updated_at": 1776755588606, "version": "1.0.10"}, {"category": "data-analysis", "created_at": 1773416301004, "description": "Personal health management and wellness assistant. Use when users want to track health data, get health advice, manage medications, analyze symptoms, get exe...", "description_zh": "", "downloads": 308, "homepage": "https://clawhub.ai/welliu/personal-health-manager", "iconUrl": null, "installs": 12, "name": "personal health manager", "ownerName": "welliu", "score": 9628.00875273523, "slug": "personal-health-manager", "source": "clawhub", "stars": 0, "tags": null, "updated_at": 1776750044517, "version": "1.0.0"}, {"category": "productivity", "created_at": 1773088605982, "description": "Manage customer support — track tickets, respond, escalate issues.", "description_zh": "", "downloads": 308, "homepage": "https://clawhub.ai/googleworkspace-bot/persona-customer-support", "iconUrl": null, "installs": 15, "name": "Persona Customer Support", "ownerName": "googleworkspace-bot", "score": 100000, "slug": "persona-customer-support", "source": "clawhub", "stars": 0, "tags": null, "updated_at": 1776749684515, "version": "1.0.10"}, {"category": "data-analysis", "created_at": 1772797888658, "description": "Standard SAPCONET SSH command templates for bird reads, Puppeteer runs, and inbox messaging workflows.", "description_zh": "", "downloads": 308, "homepage": "https://clawhub.ai/highlander89/sapconet-ssh-bridge", "iconUrl": null, "installs": 15, "name": "SAPCONET SSH Bridge", "ownerName": "highlander89", "score": 60629.92125984252, "slug": "sapconet-ssh-bridge", "source": "clawhub", "stars": 0, "tags": null, "updated_at": 1776748671434, "version": "0.1.0"}, {"category": "security-compliance", "created_at": 1772794038657, "description": "Use when an agent needs live DeFi data from Base — ETH prices, trending pools, token scores, or wallet scans. No auth required.", "description_zh": "", "downloads": 308, "homepage": "https://clawhub.ai/error403agent/deepblue-defi-api", "iconUrl": null, "installs": 5, "name": "Deepblue Defi Api", "ownerName": "error403agent", "score": 60629.92125984252, "slug": "deepblue-defi-api", "source": "clawhub", "stars": 0, "tags": null, "updated_at": 1776748671407, "version": "1.3.0"}, {"category": "developer-tools", "created_at": 1772796248625, "description": "Build repeatable data-to-Docs pipelines from Sheets and Drive sources. Use for automated status reports, template-based document assembly, and scheduled publ...", "description_zh": "", "downloads": 308, "homepage": "https://clawhub.ai/0x-professor/docs-pipeline-automation", "iconUrl": null, "installs": 10, "name": "Docs Pipeline Automation", "ownerName": "0x-professor", "score": 83695.65217391305, "slug": "docs-pipeline-automation", "source": "clawhub", "stars": 0, "tags": null, "updated_at": 1776748671297, "version": "0.1.0"}, {"category": "content-creation", "created_at": 1773084126485, "description": "Takes a URL, HTML file path, or raw HTML code and generates a printable image.", "description_zh": "", "downloads": 308, "homepage": "https://clawhub.ai/upwell/html-to-image", "iconUrl": null, "installs": 69, "name": "Use agentbrowser to convert html to image", "ownerName": "upwell", "score": 83695.65217391305, "slug": "html-to-image", "source": "clawhub", "stars": 0, "tags": null, "updated_at": 1776748671286, "version": "1.0.0"}, {"category": "content-creation", "created_at": 1772793937569, "description": "Build UI components and pages using AIOZ UI V3 design system. Use this skill whenever the user wants to create, edit, or style React components using AIOZ UI...", "description_zh": "", "downloads": 308, "homepage": "https://clawhub.ai/datnguyen26730/aioz-ui-v3", "iconUrl": null, "installs": 14, "name": "AIOZ UI V3 Skills", "ownerName": "datnguyen26730", "score": 83695.65217391305, "slug": "aioz-ui-v3", "source": "clawhub", "stars": 0, "tags": null, "updated_at": 1776748671278, "version": "1.0.0"}, {"category": "data-analysis", "created_at": 1772797907881, "description": "Analyze wearable health CSV exports (steps, heart rate, sleep, calories, SpO2, exercise, distance) and produce compact JSON reports for hourly, daily, weekly...", "description_zh": "", "downloads": 308, "homepage": "https://clawhub.ai/javiersgjavi/skill-health", "iconUrl": null, "installs": 12, "name": "Skill Health", "ownerName": "javiersgjavi", "score": 83695.65217391305, "slug": "skill-health", "source": "clawhub", "stars": 0, "tags": null, "updated_at": 1776748671256, "version": "1.0.1"}, {"category": "data-analysis", "created_at": 1772800404077, "description": "Graph-based reasoning with thought combination and feedback loops. Explores multiple solution paths simultaneously, combines insights, and synthesizes optima...", "description_zh": "", "downloads": 308, "homepage": "https://clawhub.ai/tobisamaa/graph-of-thoughts", "iconUrl": null, "installs": 16, "name": "Graph Of Thoughts", "ownerName": "tobisamaa", "score": 83695.65217391305, "slug": "graph-of-thoughts", "source": "clawhub", "stars": 0, "tags": null, "updated_at": 1776748671226, "version": "2.0.0"}, {"category": "productivity", "created_at": 1773887239026, "description": "Changelog - command-line tool for everyday use Use when you need changelog.", "description_zh": "", "downloads": 308, "homepage": "https://clawhub.ai/xueyetianya/changelog", "iconUrl": null, "installs": 8, "name": "Changelog", "ownerName": "xueyetianya", "score": 62857.142857142855, "slug": "changelog", "source": "clawhub", "stars": 0, "tags": null, "updated_at": 1776748671008, "version": "2.0.0"}, {"category": "content-creation", "created_at": 1772800472146, "description": "Agent-to-agent freelance marketplace. Use when: (1) you need work done by another AI agent (coding, research, content, SEO, design, data), (2) you want to fi...", "description_zh": "", "downloads": 308, "homepage": "https://clawhub.ai/dizaztuh/molt-market", "iconUrl": null, "installs": 21, "name": "Molt Market", "ownerName": "dizaztuh", "score": 83243.24324324325, "slug": "molt-market", "source": "clawhub", "stars": 0, "tags": ["a2a", "agent-to-agent", "escrow", "freelance", "jobs", "marketplace", "sdk", "usdc"], "updated_at": 1776748670696, "version": "3.0.0"}, {"category": "productivity", "created_at": 1772792101041, "description": "Auto-learns your visual language. Adapts to how you see, what you value, and why you create. Art philosophy that grows with you — from color theory to compos...", "description_zh": "", "downloads": 308, "homepage": "https://clawhub.ai/nyxur42/nyx-archive-art-philosophy", "iconUrl": null, "installs": 11, "name": "[Nyx Archive] Art Philosophy", "ownerName": "nyxur42", "score": 88252.14899713467, "slug": "nyx-archive-art-philosophy", "source": "clawhub", "stars": 0, "tags": null, "updated_at": 1776748669984, "version": "1.1.1"}, {"category": "security-compliance", "created_at": 1772791759155, "description": "Step-by-step 6-part guide to set up OpenClaw AI assistant on VPS with WhatsApp, Google OAuth, backups, security, automation, and verification.", "description_zh": "", "downloads": 308, "homepage": "https://clawhub.ai/aliahmadaziz/openclaw-setup-guide", "iconUrl": null, "installs": 7, "name": "OpenClaw Production Setup Guide", "ownerName": "aliahmadaziz", "score": 88252.14899713467, "slug": "openclaw-setup-guide", "source": "clawhub", "stars": 0, "tags": ["beginner", "guide", "installation", "production", "security", "setup", "vps", "whatsapp"], "updated_at": 1776748669852, "version": "1.3.0"}, {"category": "developer-tools", "created_at": 1773042543621, "description": "Track API spend with intent-level attribution. Shows where your tokens go by project and purpose. Invoke with /meter for spend summary.", "description_zh": "", "downloads": 307, "homepage": "https://clawhub.ai/oztenbot/agent-meter", "iconUrl": null, "installs": 6, "name": "AgentMeter", "ownerName": "oztenbot", "score": 100000, "slug": "agent-meter", "source": "clawhub", "stars": 2, "tags": null, "updated_at": 1776748784385, "version": "0.6.4"}, {"category": "productivity", "created_at": 1773067467849, "description": "Weibo operations for OpenClaw via server-side browser automation. Use when the user asks to log in by QR, persist session state, read feed/messages/hot topic...", "description_zh": "", "downloads": 307, "homepage": "https://clawhub.ai/xiami2019/weibo-openclaw-ops", "iconUrl": null, "installs": 40, "name": "Weibo OpenClaw Ops", "ownerName": "xiami2019", "score": 68307.08661417323, "slug": "weibo-openclaw-ops", "source": "clawhub", "stars": 2, "tags": null, "updated_at": 1776748671414, "version": "1.2.0"}, {"category": "developer-tools", "created_at": 1773074285475, "description": "MUST USE for any calculation or math question — never compute numbers yourself. Use this skill for all arithmetic, finance, science, unit conversions, and ev...", "description_zh": "", "downloads": 307, "homepage": "https://clawhub.ai/cjhuaxin/precision-calc", "iconUrl": null, "installs": 27, "name": "Precision Calculator — Exact Math, Every Time", "ownerName": "cjhuaxin", "score": 1952.122261357531, "slug": "precision-calc", "source": "clawhub", "stars": 1, "tags": ["accurate", "arithmetic", "calculator", "engineering", "everyday", "finance", "math", "precision", "science", "unit-conversion"], "updated_at": 1776770171070, "version": "1.0.6"}, {"category": "data-analysis", "created_at": 1773074897977, "description": "Ultimate personalization engine for Apple Music. Analyzes listening history, Apple Music Replay stats, library data, and taste patterns to create intelligent...", "description_zh": "", "downloads": 307, "homepage": "https://clawhub.ai/and3rn3t/apple-music-dj", "iconUrl": null, "installs": 21, "name": "Apple Music DJ", "ownerName": "and3rn3t", "score": 24312.267657992565, "slug": "apple-music-dj", "source": "clawhub", "stars": 1, "tags": null, "updated_at": 1776759197860, "version": "3.1.0"}, {"category": "developer-tools", "created_at": 1773063178359, "description": "Smart LLM routing brain for OpenClaw. Auto-dispatches tasks to Claude, GPT, Gemini, DeepSeek, Kimi via Evolink API. Cascade strategy cuts costs 60-85%. One A...", "description_zh": "", "downloads": 307, "homepage": "https://clawhub.ai/evolinkai/oc-skill-router", "iconUrl": null, "installs": 45, "name": "Evolink Router — Smart LLM Routing (Claude, GPT, Gemini, DeepSeek, Kimi)", "ownerName": "evolinkai", "score": 56185.56701030928, "slug": "oc-skill-router", "source": "clawhub", "stars": 1, "tags": null, "updated_at": 1776755588323, "version": "2.0.0"}, {"category": "", "created_at": 1774860624686, "description": "Complete fortune-telling service with interactive divination sessions. Supports Chinese methods (I Ching, Ba Zi, Zi Wei, Palmistry, Face Reading, Feng Shui,...", "description_zh": "", "downloads": 307, "homepage": "https://clawhub.ai/yw-0311/iching-fortune", "iconUrl": null, "installs": 84, "name": "I Ching Fortune Telling 易经算命", "ownerName": "yw-0311", "score": 4727.4407145056975, "slug": "iching-fortune", "source": "clawhub", "stars": 0, "tags": null, "updated_at": 1776765850415, "version": "1.0.0"}, {"category": "developer-tools", "created_at": 1772800199749, "description": "Convert PDF bank statements to CSV or JSON using API calls with support for password-protected files and processing status checks.", "description_zh": "", "downloads": 307, "homepage": "https://clawhub.ai/ballerindustries/bank-statement-converter", "iconUrl": null, "installs": 9, "name": "Bank Statement Converter", "ownerName": "ballerindustries", "score": 4970.050186174518, "slug": "bank-statement-converter", "source": "clawhub", "stars": 0, "tags": null, "updated_at": 1776765850071, "version": "1.0.1"}, {"category": "ai-intelligence", "created_at": 1773080194828, "description": "Debug failing Power Automate cloud flows using the FlowStudio MCP server. Load this skill when asked to: debug a flow, investigate a failed run, why is this...", "description_zh": "", "downloads": 307, "homepage": "https://clawhub.ai/ninihen1/power-automate-debug", "iconUrl": null, "installs": 122, "name": "Power Automate Debug", "ownerName": "ninihen1", "score": 23928.293063133282, "slug": "power-automate-debug", "source": "clawhub", "stars": 0, "tags": null, "updated_at": 1776759798135, "version": "1.1.0"}, {"category": "developer-tools", "created_at": 1772795427493, "description": "Helps organizations detect crises early, assess severity and type, activate response teams, and communicate effectively to manage reputation and operational...", "description_zh": "", "downloads": 307, "homepage": "https://clawhub.ai/1kalin/afrexai-crisis-management", "iconUrl": null, "installs": 9, "name": "Crisis Management & Communications Playbook", "ownerName": "1kalin", "score": 19492.06349206349, "slug": "afrexai-crisis-management", "source": "clawhub", "stars": 0, "tags": ["communications", "crisis", "incident-response", "legal", "media", "pr", "reputation"], "updated_at": 1776759227546, "version": "1.0.0"}, {"category": "data-analysis", "created_at": 1772799391050, "description": "Multi-strategy arbitrage and trading bot for Polymarket prediction markets. Scans ALL markets (crypto, politics, sports, economics, entertainment) for parity...", "description_zh": "", "downloads": 307, "homepage": "https://clawhub.ai/georges91560/polymarket-oracle", "iconUrl": null, "installs": 30, "name": "Polymarket Oracle", "ownerName": "georges91560", "score": 18208.778173190985, "slug": "polymarket-oracle", "source": "clawhub", "stars": 0, "tags": ["arbitrage", "automation", "multi-strategy", "opportunities", "polymarket", "prediction-markets", "scanner", "trading"], "updated_at": 1776757733396, "version": "1.0.1"}, {"category": "productivity", "created_at": 1773429710908, "description": "Generate witty romantic lines for any occasion. Use when drafting confessions, writing humorous openers, composing anniversary notes, crafting farewells.", "description_zh": "", "downloads": 307, "homepage": "https://clawhub.ai/bytesagain3/pickup-lines", "iconUrl": null, "installs": 10, "name": "Pickup Lines", "ownerName": "bytesagain3", "score": 54144.62081128748, "slug": "pickup-lines", "source": "clawhub", "stars": 0, "tags": ["productivity"], "updated_at": 1776752471984, "version": "2.0.1"}, {"category": "developer-tools", "created_at": 1772791055238, "description": "Plan and track international moves with visa timelines, document checklists, and country-specific guides.", "description_zh": "", "downloads": 307, "homepage": "https://clawhub.ai/ivangdavila/expat", "iconUrl": null, "installs": 5, "name": "Expat Companion", "ownerName": "ivangdavila", "score": 95638.62928348909, "slug": "expat", "source": "clawhub", "stars": 0, "tags": null, "updated_at": 1776748784527, "version": "1.0.0"}, {"category": "ai-intelligence", "created_at": 1772793383596, "description": "A2A agent-to-agent protocol over XMTP encrypted transport. Send and receive structured messages, discover agents by skill, check reputation scores, and manag...", "description_zh": "", "downloads": 307, "homepage": "https://clawhub.ai/kjetilvaa/reef", "iconUrl": null, "installs": 15, "name": "Reef Protocol", "ownerName": "kjetilvaa", "score": 98713.82636655949, "slug": "reef", "source": "clawhub", "stars": 0, "tags": null, "updated_at": 1776748784471, "version": "0.2.15"}, {"category": "data-analysis", "created_at": 1774618834567, "description": "When the user wants to plan email marketing, EDM, newsletter strategy, or email deliverability. Also use when the user mentions \"email marketing,\" \"EDM,\" \"ne...", "description_zh": "", "downloads": 307, "homepage": "https://clawhub.ai/kostja94/email-marketing-channels", "iconUrl": null, "installs": 7, "name": "email-marketing", "ownerName": "kostja94", "score": 100000, "slug": "email-marketing-channels", "source": "clawhub", "stars": 0, "tags": null, "updated_at": 1776748783807, "version": "1.0.0"}, {"category": "communication-collaboration", "created_at": 1772797341479, "description": "Discover high-value AI search prompts your target audience uses on ChatGPT, Perplexity, Gemini, and Claude. Research and generate comprehensive prompt lists...", "description_zh": "", "downloads": 307, "homepage": "https://clawhub.ai/geoly-geo/geo-prompt-researcher", "iconUrl": null, "installs": 33, "name": "AI Prompt Researcher", "ownerName": "geoly-geo", "score": 100000, "slug": "geo-prompt-researcher", "source": "clawhub", "stars": 0, "tags": ["geo", "keyword-research", "prompts"], "updated_at": 1776748783801, "version": "1.0.1"}, {"category": "data-analysis", "created_at": 1772794326507, "description": "Compete in AI agent gambling tournaments on Agent Casino. Join leaderboard competitions, organize tournaments, track rankings. Highest volume, biggest win, b...", "description_zh": "", "downloads": 307, "homepage": "https://clawhub.ai/rollhub-dev/rollhub-tournament", "iconUrl": null, "installs": 12, "name": "Casino Tournament", "ownerName": "rollhub-dev", "score": 60433.07086614174, "slug": "rollhub-tournament", "source": "clawhub", "stars": 0, "tags": null, "updated_at": 1776748671425, "version": "1.0.0"}, {"category": "productivity", "created_at": 1772797793491, "description": "Track and maximize credit card benefits (monthly, quarterly, yearly). Manage cards, log benefit usage, get reminders for expiring perks, see ROI summaries, a...", "description_zh": "", "downloads": 307, "homepage": "https://clawhub.ai/softtrymee/card-benefits-tracker", "iconUrl": null, "installs": 8, "name": "Card Benefits Tracker", "ownerName": "softtrymee", "score": 60433.07086614174, "slug": "card-benefits-tracker", "source": "clawhub", "stars": 0, "tags": null, "updated_at": 1776748671404, "version": "1.0.0"}, {"category": "developer-tools", "created_at": 1772792974580, "description": "Persistent session memory system that prevents knowledge loss after context compaction. Converts session transcripts to searchable Markdown, builds an auto-u...", "description_zh": "", "downloads": 307, "homepage": "https://clawhub.ai/moltbotmolty-del/faya-session-memory", "iconUrl": null, "installs": 8, "name": "Faya Session Memory", "ownerName": "moltbotmolty-del", "score": 83423.91304347826, "slug": "faya-session-memory", "source": "clawhub", "stars": 0, "tags": null, "updated_at": 1776748671268, "version": "1.0.0"}, {"category": "security-compliance", "created_at": 1772795765786, "description": "Query employee data, time clock entries, schedules, and requests. Requires authentication — employees see own data, managers see team.", "description_zh": "", "downloads": 307, "homepage": "https://clawhub.ai/brianppetty/farmos-workforce", "iconUrl": null, "installs": 11, "name": "Farmos Workforce", "ownerName": "brianppetty", "score": 83423.91304347826, "slug": "farmos-workforce", "source": "clawhub", "stars": 0, "tags": null, "updated_at": 1776748671261, "version": "1.0.0"}, {"category": "ai-intelligence", "created_at": 1772792560808, "description": "Delegate complex tasks to Amplifier's multi-agent framework. Use when: (1) research/comparison needing multiple perspectives, (2) multi-file code projects, (...", "description_zh": "", "downloads": 306, "homepage": "https://clawhub.ai/bkrabach/amplifier-openclaw", "iconUrl": null, "installs": 15, "name": "Amplifier", "ownerName": "bkrabach", "score": 68110.23622047245, "slug": "amplifier-openclaw", "source": "clawhub", "stars": 2, "tags": null, "updated_at": 1776748783655, "version": "1.1.1"}, {"category": "security-compliance", "created_at": 1773221036644, "description": "Connect to Feishu Project Meego via MCP using OAuth authentication, supporting both browser and proxy-based methods for Bytedance internal use.", "description_zh": "", "downloads": 306, "homepage": "https://clawhub.ai/wadxm/feishu-project-connector-bytedance-internal", "iconUrl": null, "installs": 38, "name": "Feishu Project(Meego) Connector - Bytedance Internal Version", "ownerName": "wadxm", "score": 24237.918215613383, "slug": "feishu-project-connector-bytedance-internal", "source": "clawhub", "stars": 1, "tags": null, "updated_at": 1776759197835, "version": "1.0.1"}, {"category": "productivity", "created_at": 1773088444953, "description": "Performance-optimized strategies for editing Feishu (Lark) documents via OpenClaw's feishu_doc tool. Use when: (1) modifying existing Feishu documents, (2) i...", "description_zh": "", "downloads": 306, "homepage": "https://clawhub.ai/guoqunabc/feishu-doc-editing", "iconUrl": null, "installs": 10, "name": "Feishu Doc Editing", "ownerName": "guoqunabc", "score": 100000, "slug": "feishu-doc-editing", "source": "clawhub", "stars": 1, "tags": null, "updated_at": 1776748785517, "version": "1.1.1"}, {"category": "developer-tools", "created_at": 1773074528111, "description": "Chrome DevTools MCP — Google's official browser automation and testing server. Control Chrome via Puppeteer through MCP protocol: click, fill forms, navigate...", "description_zh": "", "downloads": 306, "homepage": "https://clawhub.ai/sieyer/chrome-devtools-mcp-1-0-0", "iconUrl": null, "installs": 42, "name": "Chrome Devtools Mcp 1.0.0", "ownerName": "sieyer", "score": 3633.341249109475, "slug": "chrome-devtools-mcp-1-0-0", "source": "clawhub", "stars": 0, "tags": null, "updated_at": 1776767771232, "version": "1.0.0"}, {"category": "ai-intelligence", "created_at": 1773082439408, "description": "Trade AI capabilities with escrow-secured settlement and graded verification. BUY: delegate deep research, code security audits, or complex tasks to agents r...", "description_zh": "", "downloads": 306, "homepage": "https://clawhub.ai/leafinsky-li/agentwork", "iconUrl": null, "installs": 25, "name": "Openclaw", "ownerName": "leafinsky-li", "score": 22921.34831460674, "slug": "agentwork", "source": "clawhub", "stars": 0, "tags": null, "updated_at": 1776759227734, "version": "0.5.0"}, {"category": "ai-intelligence", "created_at": 1772803555365, "description": "Agent Address Protocol - enables AI agents to send messages, collaborate on tasks, and share information using AAP addresses.", "description_zh": "", "downloads": 306, "homepage": "https://clawhub.ai/thomaszta/aap", "iconUrl": null, "installs": 8, "name": "Aap", "ownerName": "thomaszta", "score": 19428.571428571428, "slug": "aap", "source": "clawhub", "stars": 0, "tags": null, "updated_at": 1776759227622, "version": "0.3.4"}, {"category": "data-analysis", "created_at": 1773873083297, "description": "Provides a complete guide to AI freelancing including niche analysis, pricing, client acquisition, proposal templates, and delivery workflows.", "description_zh": "", "downloads": 306, "homepage": "https://clawhub.ai/yang1002378395-cmyk/ai-freelancing-guide", "iconUrl": null, "installs": 7, "name": "Ai Freelancing Guide", "ownerName": "yang1002378395-cmyk", "score": 19428.571428571428, "slug": "ai-freelancing-guide", "source": "clawhub", "stars": 0, "tags": null, "updated_at": 1776759227581, "version": "1.0.52"}, {"category": "developer-tools", "created_at": 1772797682448, "description": "Full Moltbook social network integration — post, comment, read feed, and manage your agent's social presence. Use when posting to Moltbook, checking the Molt...", "description_zh": "", "downloads": 306, "homepage": "https://clawhub.ai/jpaulgrayson/moltbook-social", "iconUrl": null, "installs": 4, "name": "Moltbook Social", "ownerName": "jpaulgrayson", "score": 78260.86956521739, "slug": "moltbook-social", "source": "clawhub", "stars": 0, "tags": null, "updated_at": 1776759227511, "version": "1.0.0"}, {"category": "developer-tools", "created_at": 1773075732292, "description": "AGNTCY Identity Issuer CLI and Node Backend for managing verifiable agent identities, metadata, and badges.", "description_zh": "", "downloads": 306, "homepage": "https://clawhub.ai/jadiaconu/agntcy-identity-cli", "iconUrl": null, "installs": 5, "name": "AGNTCY Identity CLI", "ownerName": "jadiaconu", "score": 62321.79226069246, "slug": "agntcy-identity-cli", "source": "clawhub", "stars": 0, "tags": null, "updated_at": 1776748785237, "version": "1.0.4"}, {"category": "developer-tools", "created_at": 1772796582079, "description": "Interact with Google Workspace (Drive, Docs, Sheets) via the `gw` CLI. Use when an agent needs to browse, read, create, search, or manage files in Google Dri...", "description_zh": "", "downloads": 306, "homepage": "https://clawhub.ai/robinsadeghpour/gworkspace-cli", "iconUrl": null, "installs": 5, "name": "Google Workspace CLI", "ownerName": "robinsadeghpour", "score": 93009.11854103343, "slug": "gworkspace-cli", "source": "clawhub", "stars": 0, "tags": null, "updated_at": 1776748784953, "version": "1.0.1"}, {"category": "productivity", "created_at": 1773060682332, "description": "Extract business leads from Google Maps. Scrape business names, addresses, phone numbers, websites, ratings, reviews, and hours. Residential proxy rotation t...", "description_zh": "", "downloads": 306, "homepage": "https://clawhub.ai/luis2404123/google-maps-leads", "iconUrl": null, "installs": 29, "name": "Google Maps Leads", "ownerName": "luis2404123", "score": 93009.11854103343, "slug": "google-maps-leads", "source": "clawhub", "stars": 0, "tags": null, "updated_at": 1776748784922, "version": "1.0.0"}, {"category": "developer-tools", "created_at": 1773090416780, "description": "Create a Google Classroom course and invite students.", "description_zh": "", "downloads": 306, "homepage": "https://clawhub.ai/googleworkspace-bot/recipe-create-classroom-course", "iconUrl": null, "installs": 12, "name": "Recipe Create Classroom Course", "ownerName": "googleworkspace-bot", "score": 94444.44444444444, "slug": "recipe-create-classroom-course", "source": "clawhub", "stars": 0, "tags": null, "updated_at": 1776748784807, "version": "1.0.10"}, {"category": "developer-tools", "created_at": 1772796858103, "description": "Linear CLI skill for OpenClaw workflows, powered by Api2Cli (a2c) against Linear's GraphQL API. Provides a wrapper script that generates its a2c workspace co...", "description_zh": "", "downloads": 306, "homepage": "https://clawhub.ai/simonvanlaak/linear-cli", "iconUrl": null, "installs": 0, "name": "Linear CLI", "ownerName": "simonvanlaak", "score": 94444.44444444444, "slug": "linear-cli", "source": "clawhub", "stars": 0, "tags": null, "updated_at": 1776748784770, "version": "0.1.0"}]}