{"page": 244, "total_pages": 522, "total": 26073, "skills": [{"category": "developer-tools", "created_at": 1773862861641, "description": "Chrome Dev Editor is a developer tool for building apps on the Chrome platform - Chrome Apps and Web browser-devtools.", "description_zh": "", "downloads": 306, "homepage": "https://clawhub.ai/xueyetianya/browser-devtools", "iconUrl": null, "installs": 8, "name": "Browser Devtools", "ownerName": "xueyetianya", "score": 92447.12990936555, "slug": "browser-devtools", "source": "clawhub", "stars": 0, "tags": null, "updated_at": 1776748784649, "version": "2.0.0"}, {"category": "security-compliance", "created_at": 1773079865567, "description": "International market expansion strategy. Market selection, entry modes, localization, regulatory compliance, and go-to-market by region. Use when expanding t...", "description_zh": "", "downloads": 306, "homepage": "https://clawhub.ai/alirezarezvani/intl-expansion", "iconUrl": null, "installs": 9, "name": "Intl Expansion", "ownerName": "alirezarezvani", "score": 95327.10280373832, "slug": "intl-expansion", "source": "clawhub", "stars": 0, "tags": null, "updated_at": 1776748784561, "version": "2.1.1"}, {"category": "content-creation", "created_at": 1773078108361, "description": "Free basic version of ecommerce ad copy generator. Generates 3 ad copies from product info, and reserves premium upgrade hooks for 10-copy batch generation a...", "description_zh": "", "downloads": 306, "homepage": "https://clawhub.ai/wingogx/ecommerce-ad-copy-generator-free", "iconUrl": null, "installs": 51, "name": "Ecommerce Ad Copy Generator Free", "ownerName": "wingogx", "score": 98392.28295819936, "slug": "ecommerce-ad-copy-generator-free", "source": "clawhub", "stars": 0, "tags": ["copywriting", "ecommerce", "free"], "updated_at": 1776748784493, "version": "1.0.0"}, {"category": "developer-tools", "created_at": 1772791873995, "description": "Manage a self-hosted Trello-like board via `wekancli`. Create, move and archive cards, lists and boards on a WeKan server. Use when user asks about task boar...", "description_zh": "", "downloads": 306, "homepage": "https://clawhub.ai/madsmith/wekan-openclaw-skill", "iconUrl": null, "installs": 7, "name": "Wekan", "ownerName": "madsmith", "score": 98392.28295819936, "slug": "wekan-openclaw-skill", "source": "clawhub", "stars": 0, "tags": ["v1.5.0"], "updated_at": 1776748784482, "version": "1.5.0"}, {"category": "ai-intelligence", "created_at": 1772797846627, "description": "Autonomous programming mode for openclaw.ai. Use this skill whenever a user requests any code change, feature addition, refactor, bug fix, or project task —...", "description_zh": "", "downloads": 306, "homepage": "https://clawhub.ai/ubuntume/just-do-it", "iconUrl": null, "installs": 17, "name": "Stop Asking and Just Do It", "ownerName": "ubuntume", "score": 98392.28295819936, "slug": "just-do-it", "source": "clawhub", "stars": 0, "tags": null, "updated_at": 1776748784475, "version": "1.0.0"}, {"category": "data-analysis", "created_at": 1772796318644, "description": "Run Mission Control visual QA on SAPCONET over SSH using Puppeteer screenshots and basic DOM checks.", "description_zh": "", "downloads": 306, "homepage": "https://clawhub.ai/highlander89/billy-mission-control-visual-qa", "iconUrl": null, "installs": 6, "name": "Billy — Mission Control Visual QA", "ownerName": "highlander89", "score": 88184.43804034582, "slug": "billy-mission-control-visual-qa", "source": "clawhub", "stars": 0, "tags": null, "updated_at": 1776748784381, "version": "0.1.3"}, {"category": "ai-intelligence", "created_at": 1773088647836, "description": "Subscribe and retrieve on-chain Smart Money signals. Monitor trading activities of smart money addresses, including buy/sell signals, trigger price, current...", "description_zh": "", "downloads": 306, "homepage": "https://clawhub.ai/awessh/trading-signal", "iconUrl": null, "installs": 29, "name": "Trading Signal", "ownerName": "awessh", "score": 67105.26315789473, "slug": "trading-signal", "source": "clawhub", "stars": 0, "tags": null, "updated_at": 1776748784288, "version": "0.1.0"}, {"category": "developer-tools", "created_at": 1772796621684, "description": "Automates browser interactions for social media management across Instagram, LinkedIn, and X. Handles posting, DMs, connection requests, lead scraping, and m...", "description_zh": "", "downloads": 306, "homepage": "https://clawhub.ai/mathiasthu/use-browser", "iconUrl": null, "installs": 6, "name": "Use Browser (Scrape leads, like, post on socials or perform actions on the web)", "ownerName": "mathiasthu", "score": 96529.96845425868, "slug": "use-browser", "source": "clawhub", "stars": 0, "tags": null, "updated_at": 1776748784226, "version": "1.0.0"}, {"category": "ai-intelligence", "created_at": 1772800414598, "description": "Daily Indian stock market briefing and price alerts. Monitors NSE/BSE stocks, tracks a personal watchlist, and delivers a morning summary via WhatsApp or Tel...", "description_zh": "", "downloads": 306, "homepage": "https://clawhub.ai/utsavs/india-market-pulse", "iconUrl": null, "installs": 42, "name": "India Stock Market Pulse", "ownerName": "utsavs", "score": 96529.96845425868, "slug": "india-market-pulse", "source": "clawhub", "stars": 0, "tags": ["india", "india stock market", "stock market"], "updated_at": 1776748784180, "version": "1.0.0"}, {"category": "data-analysis", "created_at": 1773219196782, "description": "Analyzes campaign performance with multi-touch attribution, funnel conversion analysis, and ROI calculation for marketing optimization. Use when analyzing ma...", "description_zh": "", "downloads": 306, "homepage": "https://clawhub.ai/alirezarezvani/campaign-analytics", "iconUrl": null, "installs": 8, "name": "Campaign Analytics", "ownerName": "alirezarezvani", "score": 91343.28358208956, "slug": "campaign-analytics", "source": "clawhub", "stars": 0, "tags": null, "updated_at": 1776748784012, "version": "2.1.1"}, {"category": "data-analysis", "created_at": 1773074628374, "description": "Turn long documents, reports, proposals, and email threads into decision-ready memos with key points, risks, open questions, and next steps.", "description_zh": "", "downloads": 306, "homepage": "https://clawhub.ai/atwatcher/mckinsey-decision-memo-writer", "iconUrl": null, "installs": 42, "name": "McKinsey-style Decision Memo Writer", "ownerName": "atwatcher", "score": 91343.28358208956, "slug": "mckinsey-decision-memo-writer", "source": "clawhub", "stars": 0, "tags": ["analysis", "comparison", "contracts", "decision-making", "executive-brief", "mckinsey", "pdf", "planning", "productivity", "reports", "research", "summarization"], "updated_at": 1776748784000, "version": "1.2.0"}, {"category": "productivity", "created_at": 1773083837339, "description": "Free basic version that extracts actionable tasks from meeting minutes. Reserves premium upgrade hooks for deeper action decomposition and project tracker ex...", "description_zh": "", "downloads": 306, "homepage": "https://clawhub.ai/wingogx/meeting-minutes-task-extractor", "iconUrl": null, "installs": 97, "name": "Meeting Minutes Task Extractor", "ownerName": "wingogx", "score": 96226.41509433962, "slug": "meeting-minutes-task-extractor", "source": "clawhub", "stars": 0, "tags": ["free", "meeting", "productivity"], "updated_at": 1776748783925, "version": "1.0.0"}, {"category": "security-compliance", "created_at": 1772798201767, "description": "Manage mandatory PostgreSQL memory operations with context retrieval, prompt logging, delegation tracking, and audit event recording using Memory_openclaw an...", "description_zh": "", "downloads": 305, "homepage": "https://clawhub.ai/ianleme/memory-ops", "iconUrl": null, "installs": 7, "name": "Memory Ops", "ownerName": "ianleme", "score": 24109.792284866468, "slug": "memory-ops", "source": "clawhub", "stars": 1, "tags": null, "updated_at": 1776759197964, "version": "0.1.2"}, {"category": "ai-intelligence", "created_at": 1773088871382, "description": "Use when a request requires multi-agent workflow orchestration (task decomposition + dependency/DAG + parallel execution), needs durable task tracking across...", "description_zh": "", "downloads": 305, "homepage": "https://clawhub.ai/vvusu/team-dispatch", "iconUrl": null, "installs": 19, "name": "Team Dispatch", "ownerName": "vvusu", "score": 24163.5687732342, "slug": "team-dispatch", "source": "clawhub", "stars": 1, "tags": null, "updated_at": 1776759197803, "version": "1.0.8"}, {"category": "content-creation", "created_at": 1773066614381, "description": "Generate/edit images via Tuzi API (default), Google Gemini, OpenAI, DashScope, Replicate. Text-to-image + image-to-image editing; 1K/2K/4K resolution. Use fo...", "description_zh": "", "downloads": 305, "homepage": "https://clawhub.ai/ljquan/tuzi-nano-banana", "iconUrl": null, "installs": 51, "name": "Generate/edit images via Tuzi API (default), Google Gemini, OpenAI, DashScope, Replicate. Text-to-image + image-to-image editing; 1K/2K/4K resolution. Use for image create/modify/edit requests incl. --input-image.", "ownerName": "ljquan", "score": 97014.92537313433, "slug": "tuzi-nano-banana", "source": "clawhub", "stars": 1, "tags": null, "updated_at": 1776748785372, "version": "1.0.0"}, {"category": "security-compliance", "created_at": 1772797520525, "description": "Use this skill when working with this repository's `gsc` CLI, including Google Cloud OAuth client setup, CLI authentication, troubleshooting auth/config issu...", "description_zh": "", "downloads": 305, "homepage": "https://clawhub.ai/nmadeleidev/google-search-console-cli", "iconUrl": null, "installs": 14, "name": "Google Search Console CLI", "ownerName": "nmadeleidev", "score": 72869.95515695067, "slug": "google-search-console-cli", "source": "clawhub", "stars": 1, "tags": null, "updated_at": 1776748784970, "version": "1.0.0"}, {"category": "security-compliance", "created_at": 1772794444799, "description": "Enables agents to interact with the eToro API to access market data, portfolio and social features, and execute trades programmatically. Supports both OAuth...", "description_zh": "", "downloads": 305, "homepage": "https://clawhub.ai/marian2js/etoro-apps", "iconUrl": null, "installs": 10, "name": "eToro Apps", "ownerName": "marian2js", "score": 90782.12290502792, "slug": "etoro-apps", "source": "clawhub", "stars": 1, "tags": null, "updated_at": 1776748784040, "version": "1.0.0"}, {"category": "developer-tools", "created_at": 1773219093797, "description": "Run Paperclip locally for agent orchestration, AI company setup, and OpenClaw, Codex, or Claude control-plane operations.", "description_zh": "", "downloads": 305, "homepage": "https://clawhub.ai/ivangdavila/paperclip", "iconUrl": null, "installs": 40, "name": "Paperclip", "ownerName": "ivangdavila", "score": 8467.51804553026, "slug": "paperclip", "source": "clawhub", "stars": 0, "tags": null, "updated_at": 1776768850216, "version": "1.0.0"}, {"category": "communication-collaboration", "created_at": 1772799915727, "description": "python files which are used to send an email and to download received emails from an inbox. The email provider is agentmail.to, which offers an API. This way...", "description_zh": "", "downloads": 305, "homepage": "https://clawhub.ai/lausser/python-agentmail-send-receive", "iconUrl": null, "installs": 45, "name": "AgentMail sending and receiving with Python scripts", "ownerName": "lausser", "score": 1753.6798528058878, "slug": "python-agentmail-send-receive", "source": "clawhub", "stars": 0, "tags": ["agentmail", "email"], "updated_at": 1776767649976, "version": "1.0.0"}, {"category": "security-compliance", "created_at": 1773079367997, "description": "Design and optimize affiliate programs with partner scoring, commission economics, tracking QA, fraud controls, and compliance reviews.", "description_zh": "", "downloads": 305, "homepage": "https://clawhub.ai/ivangdavila/affiliate-marketing", "iconUrl": null, "installs": 17, "name": "Affiliate Marketing", "ownerName": "ivangdavila", "score": 4436.363636363636, "slug": "affiliate-marketing", "source": "clawhub", "stars": 0, "tags": null, "updated_at": 1776767649711, "version": "1.0.0"}, {"category": "ai-intelligence", "created_at": 1773427861858, "description": "Captures learnings, errors, and corrections to enable continuous improvement. Use when: (1) A command or operation fails unexpectedly, (2) User explicitly co...", "description_zh": "", "downloads": 305, "homepage": "https://clawhub.ai/lanyasheng/self-improving-agent-hardened", "iconUrl": null, "installs": 123, "name": "Self-Improving Agent (Anti-Loop Hardened)", "ownerName": "lanyasheng", "score": 5081.639453515495, "slug": "self-improving-agent-hardened", "source": "clawhub", "stars": 0, "tags": null, "updated_at": 1776765070875, "version": "2.0.0"}, {"category": "ai-intelligence", "created_at": 1772796362146, "description": "Core GOYFILES external-bot contract (endpoint-first onboarding, strict agent behavior, direct tool mode, and text-fetch contract).", "description_zh": "", "downloads": 305, "homepage": "https://clawhub.ai/davfd/goyfiles-epstein", "iconUrl": null, "installs": 10, "name": "Epstein Detective", "ownerName": "davfd", "score": 8011.557656947728, "slug": "goyfiles-epstein", "source": "clawhub", "stars": 0, "tags": ["documents", "epstein", "graph", "investigation", "neo4j", "osint"], "updated_at": 1776762850793, "version": "6.5.1"}, {"category": "data-analysis", "created_at": 1773064011206, "description": "Implement Alipay for web and mobile with signed request safety, gateway alignment, and production-ready payment operations.", "description_zh": "", "downloads": 305, "homepage": "https://clawhub.ai/ivangdavila/alipay", "iconUrl": null, "installs": 31, "name": "Alipay", "ownerName": "ivangdavila", "score": 10197.258441992644, "slug": "alipay", "source": "clawhub", "stars": 0, "tags": null, "updated_at": 1776761715003, "version": "1.0.0"}, {"category": "", "created_at": 1774859488511, "description": "The most stable way to execute Stata commands, install ado packages, read help documents, and analyze data. Use when working with Stata for (1) Running do-fi...", "description_zh": "", "downloads": 305, "homepage": "https://clawhub.ai/sepinetam/stata-skill", "iconUrl": null, "installs": 123, "name": "stata-skill", "ownerName": "sepinetam", "score": 24361.022364217253, "slug": "stata-skill", "source": "clawhub", "stars": 0, "tags": null, "updated_at": 1776760282127, "version": "1.0.0"}, {"category": "security-compliance", "created_at": 1772796486493, "description": "Provides essential safety rules and tools for managing OpenClaw configs, backups, auth troubleshooting, and recovery to prevent system failures.", "description_zh": "", "downloads": 305, "homepage": "https://clawhub.ai/jayrizz/openclaw-sacred-rules", "iconUrl": null, "installs": 6, "name": "OpenClaw Sacred Rules", "ownerName": "jayrizz", "score": 18384.569017480408, "slug": "openclaw-sacred-rules", "source": "clawhub", "stars": 0, "tags": ["backup", "config", "openclaw", "safety"], "updated_at": 1776759227638, "version": "1.0.0"}, {"category": "security-compliance", "created_at": 1773073328945, "description": "Operate and secure mesh workflows across gateways, including plugin bootstrap, invite/join auth handshake, resilient routing, capability contract lifecycle,...", "description_zh": "", "downloads": 305, "homepage": "https://clawhub.ai/likesjx/openclaw-skill-ansible", "iconUrl": null, "installs": 6, "name": "Openclaw Skill Ansible", "ownerName": "likesjx", "score": 19365.079365079364, "slug": "openclaw-skill-ansible", "source": "clawhub", "stars": 0, "tags": null, "updated_at": 1776759227625, "version": "0.1.6"}, {"category": "security-compliance", "created_at": 1772798723876, "description": "Agent-native double-entry business ledger for any entity type, supporting transaction recording, auditing, reporting, and data integrity validation.", "description_zh": "", "downloads": 305, "homepage": "https://clawhub.ai/taylorhou/biz-in-a-box", "iconUrl": null, "installs": 9, "name": "biz-in-a-box", "ownerName": "taylorhou", "score": 19365.079365079364, "slug": "biz-in-a-box", "source": "clawhub", "stars": 0, "tags": null, "updated_at": 1776759227565, "version": "1.0.0"}, {"category": "data-analysis", "created_at": 1772795544686, "description": "Trade Polymarket BTC 5-minute and 15-minute fast markets using CEX price momentum signals via Simmer API. Default signal is Binance BTC/USDT klines. Use when...", "description_zh": "", "downloads": 305, "homepage": "https://clawhub.ai/redrepz/polymarketbot", "iconUrl": null, "installs": 1, "name": "Polymarket Fast Loop", "ownerName": "redrepz", "score": 15121.467526028757, "slug": "polymarketbot", "source": "clawhub", "stars": 0, "tags": null, "updated_at": 1776758520831, "version": "0.1.0"}, {"category": "data-analysis", "created_at": 1773062044671, "description": "Provides calibrated decision analysis using Charlie Munger-style multiple mental models, inversion, incentive mapping, circle-of-competence checks, misjudgme...", "description_zh": "", "downloads": 305, "homepage": "https://clawhub.ai/tristanmanchester/worldly-wisdom", "iconUrl": null, "installs": 32, "name": "Worldly Wisdom", "ownerName": "tristanmanchester", "score": 53602.81195079086, "slug": "worldly-wisdom", "source": "clawhub", "stars": 0, "tags": null, "updated_at": 1776750944524, "version": "1.0.0"}, {"category": "content-creation", "created_at": 1773283476820, "description": "Generate AI videos for mature creative projects using Wan 2.2 Spicy (LoRA-tuned for NSFW, top recommended), Wan 2.6, Seedance 1.5, Vidu Q3-Pro, and other mod...", "description_zh": "", "downloads": 305, "homepage": "https://clawhub.ai/xixihhhh/nsfw-video", "iconUrl": null, "installs": 25, "name": "NSFW Video Generation — Adult Creative AI Video Models", "ownerName": "xixihhhh", "score": 93558.28220858896, "slug": "nsfw-video", "source": "clawhub", "stars": 0, "tags": null, "updated_at": 1776748785481, "version": "1.0.9"}, {"category": "content-creation", "created_at": 1772803877768, "description": "Turn ideas into podcasts, explainer videos, voice narration, and AI images via ListenHub. Use when the user wants to \"make a podcast\", \"create an explainer v...", "description_zh": "", "downloads": 305, "homepage": "https://clawhub.ai/kkaticld/listenhub-ai", "iconUrl": null, "installs": 26, "name": "ListenHub", "ownerName": "kkaticld", "score": 91044.77611940299, "slug": "listenhub-ai", "source": "clawhub", "stars": 0, "tags": null, "updated_at": 1776748785397, "version": "0.6.0"}, {"category": "security-compliance", "created_at": 1772792714354, "description": "Solana/Base Multi-Chain Meme Scanner & Auditor (Anti-Rug)", "description_zh": "", "downloads": 305, "homepage": "https://clawhub.ai/qiyun154-cyber/sentry-ai", "iconUrl": null, "installs": 4, "name": "sentry-ai", "ownerName": "qiyun154-cyber", "score": 62118.12627291242, "slug": "sentry-ai", "source": "clawhub", "stars": 0, "tags": ["audit", "meme", "scanner", "solana"], "updated_at": 1776748785167, "version": "1.0.0"}, {"category": "ai-intelligence", "created_at": 1773061962976, "description": "Meta-skill: evaluate any Factory Droid skill against the current project codebase and suggest concrete improvements. Use when: a skill feels incomplete, prod...", "description_zh": "", "downloads": 305, "homepage": "https://clawhub.ai/somacosf/improve-skill", "iconUrl": null, "installs": 23, "name": "Improve Skill Bespoke To CodeBase", "ownerName": "somacosf", "score": 68385.65022421525, "slug": "improve-skill", "source": "clawhub", "stars": 0, "tags": null, "updated_at": 1776748784964, "version": "0.0.1"}, {"category": "communication-collaboration", "created_at": 1772803898121, "description": "Best practices for writing high-quality emails that look professional and avoid spam filters. Reference this before composing, replying, or forwarding emails...", "description_zh": "", "downloads": 305, "homepage": "https://clawhub.ai/raunaksingwi/ravi-email-writing", "iconUrl": null, "installs": 8, "name": "Ravi email-writing", "ownerName": "raunaksingwi", "score": 92705.16717325228, "slug": "ravi-email-writing", "source": "clawhub", "stars": 0, "tags": null, "updated_at": 1776748784929, "version": "1.7.1"}, {"category": "communication-collaboration", "created_at": 1773057926349, "description": "Deploy a new isolated OpenClaw agent with its own Telegram bot, workspace, and session storage. Use when user asks to create a new agent, add a new bot, or s...", "description_zh": "", "downloads": 305, "homepage": "https://clawhub.ai/joe7921/agent-deploy", "iconUrl": null, "installs": 12, "name": "Agent Deploy", "ownerName": "joe7921", "score": 92705.16717325228, "slug": "agent-deploy", "source": "clawhub", "stars": 0, "tags": null, "updated_at": 1776748784919, "version": "2.4.0"}, {"category": "security-compliance", "created_at": 1773067697626, "description": "The trust layer for AI agents — encrypted channels, identity, audit, attestations, trust circles, key rotation, and federation. MLS protocol (RFC 9420).", "description_zh": "", "downloads": 305, "homepage": "https://clawhub.ai/nicholasraimbault/skytale", "iconUrl": null, "installs": 2, "name": "Openclaw", "ownerName": "nicholasraimbault", "score": 83106.26702997275, "slug": "skytale", "source": "clawhub", "stars": 0, "tags": null, "updated_at": 1776748784820, "version": "0.5.2"}, {"category": "developer-tools", "created_at": 1773074109154, "description": "Polymarket API and data access guide. Learn how to connect, find markets, get real-time data via WebSocket, access order books, place orders via CLOB SDK, an...", "description_zh": "", "downloads": 305, "homepage": "https://clawhub.ai/nwcalvin/innotech-polymarket-api", "iconUrl": null, "installs": 8, "name": "Polymarket API Guide", "ownerName": "nwcalvin", "score": 94135.8024691358, "slug": "innotech-polymarket-api", "source": "clawhub", "stars": 0, "tags": null, "updated_at": 1776748784782, "version": "2.0.0"}, {"category": "ai-intelligence", "created_at": 1773066069624, "description": "Stealth web scraper. Give it any URL and it punches through Cloudflare, bot detection, and WAFs automatically using a 3-tier cascade (plain HTTP → TLS spoof...", "description_zh": "", "downloads": 305, "homepage": "https://clawhub.ai/windseeker1111/flowcrawl", "iconUrl": null, "installs": 65, "name": "Flowcrawl", "ownerName": "windseeker1111", "score": 95015.57632398754, "slug": "flowcrawl", "source": "clawhub", "stars": 0, "tags": null, "updated_at": 1776748784515, "version": "1.0.1"}, {"category": "productivity", "created_at": 1772792945739, "description": "Search and add movies to Radarr. Supports collections, search-on-add option. FORK of jordyvandomselaar/radarr with fixed metadata.", "description_zh": "", "downloads": 305, "homepage": "https://clawhub.ai/frannunpal/radarr-fixed", "iconUrl": null, "installs": 9, "name": "Radarr Fixed", "ownerName": "frannunpal", "score": 98070.73954983923, "slug": "radarr-fixed", "source": "clawhub", "stars": 0, "tags": null, "updated_at": 1776748784490, "version": "1.0.4"}, {"category": "content-creation", "created_at": 1773221197744, "description": "Fetch one or more public webpages with Scrapling, extract the main content, and convert HTML into Markdown using html2text. Supports static HTTP, concurrent...", "description_zh": "", "downloads": 305, "homepage": "https://clawhub.ai/yumiu8103-hue/web-markdown-scraper", "iconUrl": null, "installs": 10, "name": "Scrapling Web Extractor", "ownerName": "yumiu8103-hue", "score": 66885.9649122807, "slug": "web-markdown-scraper", "source": "clawhub", "stars": 0, "tags": null, "updated_at": 1776748784332, "version": "1.0.0"}, {"category": "developer-tools", "created_at": 1773416843536, "description": "Help users make safer SHEIN shopping decisions based on style intent, price sensitivity, fit expectations, and quality-risk awareness. Use when the user asks...", "description_zh": "", "downloads": 305, "homepage": "https://clawhub.ai/harrylabsj/shein-shopping", "iconUrl": null, "installs": 9, "name": "SHEIN Shopping", "ownerName": "harrylabsj", "score": 95312.5, "slug": "shein-shopping", "source": "clawhub", "stars": 0, "tags": null, "updated_at": 1776748784155, "version": "1.2.0"}, {"category": "security-compliance", "created_at": 1772795705877, "description": "Shadow HR Infrastructure. Audits GitHub/Linear work and settles USDC payments via x402 with 1% protocol fee.", "description_zh": "", "downloads": 305, "homepage": "https://clawhub.ai/eldan445/payroll-oracle", "iconUrl": null, "installs": 11, "name": "Payroll Oracle", "ownerName": "eldan445", "score": 91044.77611940299, "slug": "payroll-oracle", "source": "clawhub", "stars": 0, "tags": ["base-usdc", "fintech", "hr", "revenue"], "updated_at": 1776748783987, "version": "1.0.0"}, {"category": "productivity", "created_at": 1772793648750, "description": "Smart hotel search, supporting filtering by location, date, star rating, and budget", "description_zh": "", "downloads": 305, "homepage": "https://clawhub.ai/zxc-aqr/star-hotel", "iconUrl": null, "installs": 14, "name": "Star Hotel Search", "ownerName": "zxc-aqr", "score": 91044.77611940299, "slug": "star-hotel", "source": "clawhub", "stars": 0, "tags": ["booking", "hotel", "travel"], "updated_at": 1776748783965, "version": "2.0.0"}, {"category": "developer-tools", "created_at": 1773219930897, "description": "Prevent runaway API costs with 3-tier protection: caution, emergency, and hard cap. Works for ANY expensive API GPT-4, Claude Opus, Gemini, cloud services.", "description_zh": "", "downloads": 305, "homepage": "https://clawhub.ai/theshadowrose/cost-control", "iconUrl": null, "installs": 8, "name": "Cost Control", "ownerName": "theshadowrose", "score": 95911.9496855346, "slug": "cost-control", "source": "clawhub", "stars": 0, "tags": ["api", "budget", "cost", "spending", "tokens"], "updated_at": 1776748783911, "version": "1.0.3"}, {"category": "data-analysis", "created_at": 1773291115510, "description": "Academic data search and analysis using AMiner Open Platform APIs. Query scholars, papers, institutions, journals, and patents. Includes 6 composite workflow...", "description_zh": "", "downloads": 305, "homepage": "https://clawhub.ai/ye4wzp/aminer-academic-search", "iconUrl": null, "installs": 93, "name": "AMiner Academic Search", "ownerName": "ye4wzp", "score": 95911.9496855346, "slug": "aminer-academic-search", "source": "clawhub", "stars": 0, "tags": null, "updated_at": 1776748783903, "version": "1.0.0"}, {"category": "developer-tools", "created_at": 1773058087210, "description": "Browse websites, read web pages, interact with web apps, call website APIs, and automate web tasks. Use Neo when: user asks to check a website, read a web pa...", "description_zh": "", "downloads": 305, "homepage": "https://clawhub.ai/4ier/neo-browser", "iconUrl": null, "installs": 5, "name": "Neo — Web App API Discovery", "ownerName": "4ier", "score": 81769.43699731903, "slug": "neo-browser", "source": "clawhub", "stars": 0, "tags": null, "updated_at": 1776748783787, "version": "1.3.1"}, {"category": "content-creation", "created_at": 1773067600592, "description": "Google Docs: Append text to a document.", "description_zh": "", "downloads": 305, "homepage": "https://clawhub.ai/googleworkspace-bot/gws-docs-write", "iconUrl": null, "installs": 25, "name": "Gws Docs Write", "ownerName": "googleworkspace-bot", "score": 91591.5915915916, "slug": "gws-docs-write", "source": "clawhub", "stars": 0, "tags": null, "updated_at": 1776748783735, "version": "1.0.0"}, {"category": "content-creation", "created_at": 1773060696611, "description": "Generate images and videos using xAI Grok Imagine Extended. Text-to-image, image editing, text-to-video, image-to-video. Use when: user asks to generate, cre...", "description_zh": "", "downloads": 305, "homepage": "https://clawhub.ai/ademczuk/grok-imagine-extended", "iconUrl": null, "installs": 43, "name": "Grok Imagine", "ownerName": "ademczuk", "score": 60039.37007874016, "slug": "grok-imagine-extended", "source": "clawhub", "stars": 0, "tags": null, "updated_at": 1776748783638, "version": "1.1.0"}, {"category": "communication-collaboration", "created_at": 1772793353798, "description": "AI Agent chatroom with danmaku, Reddit-style comments, and voting.", "description_zh": "", "downloads": 304, "homepage": "https://clawhub.ai/minimaxlanbo/open-room-agent-skill", "iconUrl": null, "installs": 12, "name": "Open Room Agent Skill", "ownerName": "minimaxlanbo", "score": 100000, "slug": "open-room-agent-skill", "source": "clawhub", "stars": 1, "tags": null, "updated_at": 1776748784778, "version": "1.0.0"}, {"category": "", "created_at": 1774849274637, "description": "Send and receive WeChat messages, list contacts, and manage a listening daemon via the CLI tool npx weixin-mcp.", "description_zh": "", "downloads": 304, "homepage": "https://clawhub.ai/bkmashiro/weixin-mcp", "iconUrl": null, "installs": 56, "name": "weixin-mcp", "ownerName": "bkmashiro", "score": 1209.565113595671, "slug": "weixin-mcp", "source": "clawhub", "stars": 0, "tags": null, "updated_at": 1776770171245, "version": "1.2.1"}]}