{"page": 245, "total_pages": 522, "total": 26073, "skills": [{"category": "developer-tools", "created_at": 1772804406668, "description": "Manage retail and business banking workflows with payment operations, account controls, reconciliation, fraud response, and compliant communication.", "description_zh": "", "downloads": 304, "homepage": "https://clawhub.ai/ivangdavila/banking", "iconUrl": null, "installs": 13, "name": "Banking", "ownerName": "ivangdavila", "score": 16621.104428649534, "slug": "banking", "source": "clawhub", "stars": 0, "tags": null, "updated_at": 1776764949750, "version": "1.0.0"}, {"category": "data-analysis", "created_at": 1772799063166, "description": "Complete self-hosting and homelab operating system. Deploy, secure, monitor, and maintain self-hosted services with production-grade reliability. Use when se...", "description_zh": "", "downloads": 304, "homepage": "https://clawhub.ai/1kalin/afrexai-self-hosting-mastery", "iconUrl": null, "installs": 12, "name": "Self-Hosting Mastery", "ownerName": "1kalin", "score": 7741.278329513623, "slug": "afrexai-self-hosting-mastery", "source": "clawhub", "stars": 0, "tags": ["devops", "docker", "homelab", "infrastructure", "linux", "selfhosted", "server"], "updated_at": 1776761880076, "version": "1.0.0"}, {"category": "content-creation", "created_at": 1772800348497, "description": "Design customized curricula for PODs with REAL resource links. Staged implementation with checkpointing and fallback logic. Use when user says 'Design curric...", "description_zh": "", "downloads": 304, "homepage": "https://clawhub.ai/tarasinghrajput/curriculum-designer", "iconUrl": null, "installs": 19, "name": "Curriculum Designer", "ownerName": "tarasinghrajput", "score": 9290.953545232274, "slug": "curriculum-designer", "source": "clawhub", "stars": 0, "tags": ["course", "curriculum", "education", "youtube"], "updated_at": 1776761390087, "version": "1.0.1"}, {"category": "ai-intelligence", "created_at": 1772796240963, "description": "Set up and monitor bandwidth-sharing nodes on Grass.io, Mysterium, Storj, and Honeygain to earn passive crypto income with automated alerts and ROI tracking.", "description_zh": "", "downloads": 304, "homepage": "https://clawhub.ai/mariusfit/clawhub-skill-bandwidth-income", "iconUrl": null, "installs": 2, "name": "Clawhub Skill Bandwidth Income", "ownerName": "mariusfit", "score": 77749.36061381074, "slug": "clawhub-skill-bandwidth-income", "source": "clawhub", "stars": 0, "tags": null, "updated_at": 1776759227485, "version": "1.0.0"}, {"category": "data-analysis", "created_at": 1773061034668, "description": "Load and validate anime character data from AniList and Jikan, generating semantically checked SOUL.generated.md with forced disambiguation and idempotent me...", "description_zh": "", "downloads": 304, "homepage": "https://clawhub.ai/colinchen4/anime-character-loader", "iconUrl": null, "installs": 22, "name": "Anime Character Loader", "ownerName": "colinchen4", "score": 77749.36061381074, "slug": "anime-character-loader", "source": "clawhub", "stars": 0, "tags": null, "updated_at": 1776759227476, "version": "2.4.2"}, {"category": "security-compliance", "created_at": 1772794547653, "description": "Assist companies with designing, benchmarking, and managing benefits programs including 401(k), health insurance, PTO, HSA, and compliance across all states.", "description_zh": "", "downloads": 304, "homepage": "https://clawhub.ai/1kalin/afrexai-benefits-admin", "iconUrl": null, "installs": 14, "name": "Benefits Administration Agent", "ownerName": "1kalin", "score": 22703.51008215086, "slug": "afrexai-benefits-admin", "source": "clawhub", "stars": 0, "tags": ["401k", "benefits", "compliance", "employee-benefits", "health-insurance", "hr", "hsa", "pto"], "updated_at": 1776759227431, "version": "1.0.0"}, {"category": "ai-intelligence", "created_at": 1773060060539, "description": "Universal entertainment and gaming engine for AI agents. Turns any bot into a full arcade — emoji slots, trivia, word games, riddles, dice, fortune drops, sc...", "description_zh": "", "downloads": 304, "homepage": "https://clawhub.ai/jcools1977/opendawg", "iconUrl": null, "installs": 45, "name": "Bot Arcade", "ownerName": "jcools1977", "score": 61914.46028513238, "slug": "opendawg", "source": "clawhub", "stars": 0, "tags": null, "updated_at": 1776748785189, "version": "1.0.0"}, {"category": "communication-collaboration", "created_at": 1772794558839, "description": "Set up email forwarding for custom domains to receive verification codes, password resets, and other emails at a domain you own but don't actively use for em...", "description_zh": "", "downloads": 304, "homepage": "https://clawhub.ai/brandonwadepackard-cell/domain-email-forwarding", "iconUrl": null, "installs": 11, "name": "Domain Email Forwarding", "ownerName": "brandonwadepackard-cell", "score": 61914.46028513238, "slug": "domain-email-forwarding", "source": "clawhub", "stars": 0, "tags": null, "updated_at": 1776748785152, "version": "1.0.0"}, {"category": "developer-tools", "created_at": 1773434165065, "description": "Use when a user needs to read, search, create, update, delete, comment on, tag, or inspect Memos data through this repository's Go CLI, especially when the a...", "description_zh": "", "downloads": 304, "homepage": "https://clawhub.ai/rogeecn/memos-cli", "iconUrl": null, "installs": 17, "name": "Memos Cli", "ownerName": "rogeecn", "score": 99346.40522875817, "slug": "memos-cli", "source": "clawhub", "stars": 0, "tags": null, "updated_at": 1776748785084, "version": "0.1.0"}, {"category": "security-compliance", "created_at": 1773088745799, "description": "Health-gated backup for OpenClaw rigs. Audits first — only backs up if healthy. Three tiers, 5-backup retention, optional rclone sync. Sensitive config value...", "description_zh": "", "downloads": 304, "homepage": "https://clawhub.ai/littlejakub/healthy-backup", "iconUrl": null, "installs": 5, "name": "Healthy Backup", "ownerName": "littlejakub", "score": 92401.21580547113, "slug": "healthy-backup", "source": "clawhub", "stars": 0, "tags": null, "updated_at": 1776748784934, "version": "1.2.5"}, {"category": "productivity", "created_at": 1772797037523, "description": "Make HTTP requests (GET, POST, PUT, PATCH, DELETE, HEAD, OPTIONS) with custom headers, automatic retries, and graceful error handling. Use when the user need...", "description_zh": "", "downloads": 304, "homepage": "https://clawhub.ai/stephen-standridge/simplehttpskill", "iconUrl": null, "installs": 8, "name": "SimpleHttpSkill", "ownerName": "stephen-standridge", "score": 93827.16049382715, "slug": "simplehttpskill", "source": "clawhub", "stars": 0, "tags": null, "updated_at": 1776748784792, "version": "0.1.0"}, {"category": "productivity", "created_at": 1772794795289, "description": "Manage RSS feeds and entries on a Miniflux instance. Handles requests like \"show my unread articles\", \"list my feeds\", \"rename this category\", \"unsubscribe f...", "description_zh": "", "downloads": 304, "homepage": "https://clawhub.ai/sinhong2011/openclaw-miniflux", "iconUrl": null, "installs": 2, "name": "Miniflux", "ownerName": "sinhong2011", "score": 94704.04984423675, "slug": "openclaw-miniflux", "source": "clawhub", "stars": 0, "tags": null, "updated_at": 1776748784571, "version": "0.1.5"}, {"category": "security-compliance", "created_at": 1772794414848, "description": "OCC (Origin Controlled Computing) — cryptographic proof of every OpenClaw agent action. Install, configure, and audit.", "description_zh": "", "downloads": 304, "homepage": "https://clawhub.ai/mikeargento/openclaw-occ", "iconUrl": null, "installs": 5, "name": "OCC for OpenClaw", "ownerName": "mikeargento", "score": 97749.1961414791, "slug": "openclaw-occ", "source": "clawhub", "stars": 0, "tags": null, "updated_at": 1776748784492, "version": "1.1.1"}, {"category": "content-creation", "created_at": 1772797660508, "description": "Read/search Gmail via gog CLI (preferred) or Python scripts (fallback). Inbox check, email search, content retrieval, IMAP support.", "description_zh": "", "downloads": 304, "homepage": "https://clawhub.ai/coorops25/gmailcleanerv2", "iconUrl": null, "installs": 19, "name": "gmailcleanerfall", "ownerName": "coorops25", "score": 97749.1961414791, "slug": "gmailcleanerv2", "source": "clawhub", "stars": 0, "tags": null, "updated_at": 1776748784474, "version": "1.0.0"}, {"category": "data-analysis", "created_at": 1772792528141, "description": "Helps identify dangerous capability combinations that emerge when agent skills are composed — catching the class of risk where no individual skill is harmful...", "description_zh": "", "downloads": 304, "homepage": "https://clawhub.ai/andyxinweiminicloud/capability-composition-analyzer", "iconUrl": null, "installs": 20, "name": "Capability Composition Analyzer", "ownerName": "andyxinweiminicloud", "score": 66666.66666666666, "slug": "capability-composition-analyzer", "source": "clawhub", "stars": 0, "tags": null, "updated_at": 1776748784326, "version": "1.0.0"}, {"category": "developer-tools", "created_at": 1772793481222, "description": "Helps identify coordinated social trust manipulation in agent marketplaces — catching reputation gaming through sockpuppet networks, coordinated upvoting, an...", "description_zh": "", "downloads": 304, "homepage": "https://clawhub.ai/andyxinweiminicloud/social-trust-manipulation-detector", "iconUrl": null, "installs": 12, "name": "Social Trust Manipulation Detector", "ownerName": "andyxinweiminicloud", "score": 95899.05362776025, "slug": "social-trust-manipulation-detector", "source": "clawhub", "stars": 0, "tags": null, "updated_at": 1776748784205, "version": "1.0.0"}, {"category": "developer-tools", "created_at": 1773057547316, "description": "Teaches OpenClaw agents to act as a Krump-inspired physiotherapy coach. Use when building or assisting physio/fitness agents, therapeutic movement scoring (j...", "description_zh": "", "downloads": 304, "homepage": "https://clawhub.ai/arunnadarasa/krumpphysio", "iconUrl": null, "installs": 5, "name": "KrumpPhysio", "ownerName": "arunnadarasa", "score": 95597.48427672956, "slug": "krumpphysio", "source": "clawhub", "stars": 0, "tags": null, "updated_at": 1776748783906, "version": "1.0.11"}, {"category": "content-creation", "created_at": 1773081779437, "description": "Marketing leadership for scaling companies. Brand positioning, growth model design, marketing budget allocation, and marketing org design. Use when designing...", "description_zh": "", "downloads": 304, "homepage": "https://clawhub.ai/alirezarezvani/cmo-advisor", "iconUrl": null, "installs": 17, "name": "Cmo Advisor", "ownerName": "alirezarezvani", "score": 99022.80130293159, "slug": "cmo-advisor", "source": "clawhub", "stars": 0, "tags": null, "updated_at": 1776748783797, "version": "2.1.1"}, {"category": "developer-tools", "created_at": 1773077402554, "description": "Extract structured data from Office documents (DOCX, PPTX, XLSX, HWP, HWPX) using the Polaris AI DataInsight Doc Extract API. Use when the user wants to pars...", "description_zh": "", "downloads": 303, "homepage": "https://clawhub.ai/jacob-g-park/polaris-datainsight-doc-extract", "iconUrl": null, "installs": 96, "name": "polaris-datainsight-doc-extract", "ownerName": "jacob-g-park", "score": 6602.616516762061, "slug": "polaris-datainsight-doc-extract", "source": "clawhub", "stars": 1, "tags": null, "updated_at": 1776763750191, "version": "1.0.0"}, {"category": "productivity", "created_at": 1773057690064, "description": "Plan, track, and learn from complex multi-step tasks. Decomposes requests into dependency-aware subtasks with parallel execution, progress tracking, and a le...", "description_zh": "", "downloads": 303, "homepage": "https://clawhub.ai/nathancjackson/task-decomp", "iconUrl": null, "installs": 9, "name": "Task Decomposition", "ownerName": "nathancjackson", "score": 90223.46368715084, "slug": "task-decomp", "source": "clawhub", "stars": 1, "tags": null, "updated_at": 1776748784071, "version": "2.0.0"}, {"category": "data-analysis", "created_at": 1772798691101, "description": "AgentPatch is a tool marketplace for AI agents. Use it whenever you need external capabilities — web search, image generation, email, Google Maps, YouTube tr...", "description_zh": "", "downloads": 303, "homepage": "https://clawhub.ai/fullthom/agentpatch", "iconUrl": null, "installs": 17, "name": "Agentpatch", "ownerName": "fullthom", "score": 96996.996996997, "slug": "agentpatch", "source": "clawhub", "stars": 1, "tags": null, "updated_at": 1776748783686, "version": "1.0.1"}, {"category": "ai-intelligence", "created_at": 1773203168395, "description": "5-Step Quant Trading System with multi-source data, enhanced ML models, and 15+ strategy templates", "description_zh": "", "downloads": 303, "homepage": "https://clawhub.ai/pikachu022700/quant-system-5steps", "iconUrl": null, "installs": 79, "name": "Quant System 5steps", "ownerName": "pikachu022700", "score": 1196.4461994076999, "slug": "quant-system-5steps", "source": "clawhub", "stars": 0, "tags": ["ai", "backtest", "ml", "quant", "strategy", "trading"], "updated_at": 1776770171149, "version": "1.1.0"}, {"category": "data-analysis", "created_at": 1773090007390, "description": "Expertise in diagnosing SQL Server performance issues, analyzing indexes, interpreting execution plans, optimizing queries, managing schema, backups, and mon...", "description_zh": "", "downloads": 303, "homepage": "https://clawhub.ai/vince-winkintel/sql-server-skills", "iconUrl": null, "installs": 60, "name": "Sql Server Skills", "ownerName": "vince-winkintel", "score": 10840.787119856886, "slug": "sql-server-skills", "source": "clawhub", "stars": 0, "tags": null, "updated_at": 1776765849887, "version": "1.0.0"}, {"category": "content-creation", "created_at": 1773430083979, "description": "Extract frames or short clips from videos using ffmpeg.", "description_zh": "", "downloads": 303, "homepage": "https://clawhub.ai/jili544/my-test-viedo", "iconUrl": null, "installs": 134, "name": "视频提取", "ownerName": "jili544", "score": 3445.9228932105084, "slug": "my-test-viedo", "source": "clawhub", "stars": 0, "tags": null, "updated_at": 1776764690739, "version": "1.0.0"}, {"category": "content-creation", "created_at": 1772794159894, "description": "Complete Instagram content system for any business — feed posts, Reels scripts, Carousels, Stories, hashtag sets, posting schedule, auto-engagement templates...", "description_zh": "", "downloads": 303, "homepage": "https://clawhub.ai/danielblinker83-bot/instagram-master", "iconUrl": null, "installs": 13, "name": "Instagram Master — Complete Content System", "ownerName": "danielblinker83-bot", "score": 5985.776372975109, "slug": "instagram-master", "source": "clawhub", "stars": 0, "tags": ["content", "content-creation", "hashtags", "instagram", "marketing", "reels", "social-media"], "updated_at": 1776763450820, "version": "1.0.1"}, {"category": "ai-intelligence", "created_at": 1773073094832, "description": "Automatically find remote jobs every day and match them to your resume. Searches 5 platforms daily, scores each job against your resume using NLP, identifies...", "description_zh": "", "downloads": 303, "homepage": "https://clawhub.ai/rajkiranvs/remote-job-hunter", "iconUrl": null, "installs": 26, "name": "Remote Job Hunter", "ownerName": "rajkiranvs", "score": 4045.9340365869944, "slug": "remote-job-hunter", "source": "clawhub", "stars": 0, "tags": null, "updated_at": 1776762615074, "version": "1.2.0"}, {"category": "data-analysis", "created_at": 1773221382244, "description": "Guide agents and users to design and implement a \"flexible database\" on SQLite that can handle semi-structured, multi-source data. Typical scenarios: persona...", "description_zh": "", "downloads": 303, "homepage": "https://clawhub.ai/mars2003/flexible-database-design", "iconUrl": null, "installs": 17, "name": "Flexible Database Design – SQLite flexible schema & knowledge base skill", "ownerName": "mars2003", "score": 4045.9340365869944, "slug": "flexible-database-design", "source": "clawhub", "stars": 0, "tags": ["database", "knowledge-base", "productivity", "schema-design", "sqlite"], "updated_at": 1776762615063, "version": "1.0.0"}, {"category": "developer-tools", "created_at": 1772797557517, "description": "Elite Agentic Finance SDK for OpenClaw, Claude & Autonomous Trading Bots. Real-time market data, canonical asset resolution, 100+ endpoints for crypto, DeFi,...", "description_zh": "", "downloads": 303, "homepage": "https://clawhub.ai/strykragent/prismapi-sdk", "iconUrl": null, "installs": 27, "name": "PRISM API SDK", "ownerName": "strykragent", "score": 12257.28155339806, "slug": "prismapi-sdk", "source": "clawhub", "stars": 0, "tags": null, "updated_at": 1776762590256, "version": "0.2.1"}, {"category": "ai-intelligence", "created_at": 1772794375878, "description": "Your agent always comes back. Anchor identity and memory on-chain so any new instance can resurrect from just an address — no local state, no single point of...", "description_zh": "", "downloads": 303, "homepage": "https://clawhub.ai/jim-counter/auto-respawn", "iconUrl": null, "installs": 17, "name": "Auto Respawn", "ownerName": "jim-counter", "score": 11627.014581734458, "slug": "auto-respawn", "source": "clawhub", "stars": 0, "tags": ["agent-memory", "autonomys", "beta", "decentralized", "identity", "persistence", "resurrection"], "updated_at": 1776762290264, "version": "0.2.1"}, {"category": "ai-intelligence", "created_at": 1773061469596, "description": "Detect and automatically fix spelling errors in Markdown, plain text, and documentation files with support for custom dictionaries and batch processing.", "description_zh": "", "downloads": 303, "homepage": "https://clawhub.ai/linux2010/doc-spellcheck", "iconUrl": null, "installs": 32, "name": "Document Spell Check", "ownerName": "linux2010", "score": 9421.641791044776, "slug": "doc-spellcheck", "source": "clawhub", "stars": 0, "tags": ["documentation", "markdown", "spellcheck"], "updated_at": 1776761990022, "version": "1.0.0"}, {"category": "productivity", "created_at": 1772796511165, "description": "File-based weekly planner using TOML for inbox capture, time-block scheduling, weekly review, task rollover, and optional calendar export or Google Calendar...", "description_zh": "", "downloads": 303, "homepage": "https://clawhub.ai/tristanmanchester/weekly-planner", "iconUrl": null, "installs": 7, "name": "Weekly Planner", "ownerName": "tristanmanchester", "score": 22696.629213483146, "slug": "weekly-planner", "source": "clawhub", "stars": 0, "tags": null, "updated_at": 1776759227733, "version": "1.0.0"}, {"category": "data-analysis", "created_at": 1773074315975, "description": "Automates setup of GPU-accelerated Bittensor Subnet 85 video upscaling and compression miners with storage, monitoring, and performance optimizations.", "description_zh": "", "downloads": 303, "homepage": "https://clawhub.ai/maxquick/bittensor-sn85-vibe-miner", "iconUrl": null, "installs": 14, "name": "Bittensor Subnet 85 Claw 'Vibe Miner' by Mark Jeffrey", "ownerName": "maxquick", "score": 19238.095238095237, "slug": "bittensor-sn85-vibe-miner", "source": "clawhub", "stars": 0, "tags": null, "updated_at": 1776759227584, "version": "1.0.0"}, {"category": "content-creation", "created_at": 1773075030360, "description": "Generate social media posts for LevelUpLove and PayLessTax brands", "description_zh": "", "downloads": 303, "homepage": "https://clawhub.ai/wespeakallday/social-media-content", "iconUrl": null, "installs": 16, "name": "Social Media Content Generator", "ownerName": "wespeakallday", "score": 18408.262454434993, "slug": "social-media-content", "source": "clawhub", "stars": 0, "tags": null, "updated_at": 1776759083818, "version": "1.0.0"}, {"category": "productivity", "created_at": 1773066007666, "description": "When the user wants to create competitor comparison or alternative pages for SEO and sales enablement. Also use when the user mentions 'alternative page,' 'v...", "description_zh": "", "downloads": 303, "homepage": "https://clawhub.ai/mrhuang09/competitor-alternatives", "iconUrl": null, "installs": 27, "name": "Competitor Alternatives", "ownerName": "mrhuang09", "score": 99019.60784313726, "slug": "competitor-alternatives", "source": "clawhub", "stars": 0, "tags": null, "updated_at": 1776748785082, "version": "0.1.0"}, {"category": "developer-tools", "created_at": 1772792151763, "description": "Navigate Madeira as visitor, digital nomad, or resident with neighborhoods, levadas, costs, visas, and local insights for the Atlantic island.", "description_zh": "", "downloads": 303, "homepage": "https://clawhub.ai/ivangdavila/madeira", "iconUrl": null, "installs": 9, "name": "Madeira", "ownerName": "ivangdavila", "score": 82561.30790190735, "slug": "madeira", "source": "clawhub", "stars": 0, "tags": null, "updated_at": 1776748784845, "version": "1.0.0"}, {"category": "developer-tools", "created_at": 1772795324056, "description": "Pay for x402 payment-gated HTTP endpoints using USDC stablecoins", "description_zh": "", "downloads": 303, "homepage": "https://clawhub.ai/razvanmacovei/x402-cli", "iconUrl": null, "installs": 8, "name": "x402-cli", "ownerName": "razvanmacovei", "score": 94392.52336448598, "slug": "x402-cli", "source": "clawhub", "stars": 0, "tags": null, "updated_at": 1776748784725, "version": "1.0.3"}, {"category": "developer-tools", "created_at": 1772793852753, "description": "Validate OpenClaw configuration fields against the official Zod schema. Use when reading or writing openclaw.json to check if configuration fields exist and...", "description_zh": "", "downloads": 303, "homepage": "https://clawhub.ai/redcontritio/config-field", "iconUrl": null, "installs": 7, "name": "OpenClaw Config Field Validator", "ownerName": "redcontritio", "score": 94392.52336448598, "slug": "config-field", "source": "clawhub", "stars": 0, "tags": ["config", "openclaw", "schema", "validation"], "updated_at": 1776748784664, "version": "1.0.0"}, {"category": "data-analysis", "created_at": 1772797401088, "description": "Fetch and interpret Rankscale GEO (Generative Engine Optimization) analytics. Pulls brand visibility score, citation rate, sentiment, and top AI search terms.", "description_zh": "", "downloads": 303, "homepage": "https://clawhub.ai/mathias-rs/rs-geo-analytics", "iconUrl": null, "installs": 16, "name": "Rankscale Geo Analytics", "ownerName": "mathias-rs", "score": 94687.5, "slug": "rs-geo-analytics", "source": "clawhub", "stars": 0, "tags": null, "updated_at": 1776748784147, "version": "1.0.11"}, {"category": "data-analysis", "created_at": 1772793421950, "description": "The philosophy of absurdist play — the meta-skill that trains your ability to acquire and use all other skills. Creates genuine connection through creative,...", "description_zh": "", "downloads": 303, "homepage": "https://clawhub.ai/nyxur42/nyx-archive-absurdist-play", "iconUrl": null, "installs": 13, "name": "[Nyx Archive] Absurdist Play", "ownerName": "nyxur42", "score": 59645.669291338585, "slug": "nyx-archive-absurdist-play", "source": "clawhub", "stars": 0, "tags": null, "updated_at": 1776748783648, "version": "1.1.1"}, {"category": "ai-intelligence", "created_at": 1773416739969, "description": "Turn text into spoken Feishu (Lark) voice messages. Use when the agent should speak in a Feishu group, send voice alerts or announcements, or reply with a pl...", "description_zh": "", "downloads": 302, "homepage": "https://clawhub.ai/richerlv/cyber-horn", "iconUrl": null, "installs": 7, "name": "Cyber Horn", "ownerName": "richerlv", "score": 76681.61434977579, "slug": "cyber-horn", "source": "clawhub", "stars": 2, "tags": null, "updated_at": 1776748785050, "version": "1.0.3"}, {"category": "developer-tools", "created_at": 1773222201961, "description": "Fetch the latest Nasdaq-100 futures quote (default NQ=F) via Yahoo Finance chart API using Node.js and return price, change, percent change, and timestamp. U...", "description_zh": "", "downloads": 302, "homepage": "https://clawhub.ai/lbl581581/nasdaq100-futures", "iconUrl": null, "installs": 73, "name": "nasdaq100-futures", "ownerName": "lbl581581", "score": 18039.21568627451, "slug": "nasdaq100-futures", "source": "clawhub", "stars": 1, "tags": null, "updated_at": 1776764992214, "version": "1.0.4"}, {"category": "data-analysis", "created_at": 1773076809532, "description": "Use AI AutoGLM Phone Agent for automated mobile device control. Suitable for tasks requiring mobile phone automation, such as APP automated testing, data col...", "description_zh": "", "downloads": 302, "homepage": "https://clawhub.ai/gaojizhou/phone-agent-skill", "iconUrl": null, "installs": 30, "name": "Phone agent", "ownerName": "gaojizhou", "score": 20614.33447098976, "slug": "phone-agent-skill", "source": "clawhub", "stars": 0, "tags": ["agent", "android", "auto", "phone"], "updated_at": 1776767171092, "version": "1.0.0"}, {"category": "developer-tools", "created_at": 1773423905880, "description": "Cross-domain scientific discovery through structured extraction of scientific publications. What one paper solves, another needs — this skill extracts provid...", "description_zh": "", "downloads": 302, "homepage": "https://clawhub.ai/pcdeni/discovery-extract", "iconUrl": null, "installs": 89, "name": "Discovery Engine", "ownerName": "pcdeni", "score": 5083.319306514055, "slug": "discovery-extract", "source": "clawhub", "stars": 0, "tags": null, "updated_at": 1776764090443, "version": "1.0.7"}, {"category": "communication-collaboration", "created_at": 1773082152257, "description": "Server health monitoring with alerts and auto-recovery. Checks CPU, memory, disk, and uptime with configurable thresholds. Sends Slack/Discord alerts and can...", "description_zh": "", "downloads": 302, "homepage": "https://clawhub.ai/gruted/devops-ops-bot", "iconUrl": null, "installs": 13, "name": "DevOps Ops Bot", "ownerName": "gruted", "score": 18314.129775621586, "slug": "devops-ops-bot", "source": "clawhub", "stars": 0, "tags": ["alerting", "devops", "health-check", "monitoring"], "updated_at": 1776760320695, "version": "1.0.0"}, {"category": "productivity", "created_at": 1773425628806, "description": "Post-merge branch renaming. Appends --merged-YYYY-MM-DD to preserve history.", "description_zh": "", "downloads": 302, "homepage": "https://clawhub.ai/parkertoddbrooks/post-merge-rename", "iconUrl": null, "installs": 7, "name": "Post Merge Rename", "ownerName": "parkertoddbrooks", "score": 1760.7276119402986, "slug": "post-merge-rename", "source": "clawhub", "stars": 0, "tags": null, "updated_at": 1776759382399, "version": "1.9.33"}, {"category": "productivity", "created_at": 1773089502924, "description": "Render Chinese market charts from standardized bars data with MA5/10/20/60, MACD indicators, ECharts templates, and export to HTML/PNG.", "description_zh": "", "downloads": 302, "homepage": "https://clawhub.ai/forevershu/market-chart-renderer", "iconUrl": null, "installs": 41, "name": "Market Chart Renderer", "ownerName": "forevershu", "score": 18203.737191078962, "slug": "market-chart-renderer", "source": "clawhub", "stars": 0, "tags": null, "updated_at": 1776759227676, "version": "1.0.0"}, {"category": "developer-tools", "created_at": 1772798513169, "description": "Execute and validate ClickUp workspace, folder, list, task, and assignment operations deterministically with full error handling and progress diagnostics.", "description_zh": "", "downloads": 302, "homepage": "https://clawhub.ai/aiwithabidi/clickup-operational", "iconUrl": null, "installs": 6, "name": "Clickup Operational", "ownerName": "aiwithabidi", "score": 18203.737191078962, "slug": "clickup-operational", "source": "clawhub", "stars": 0, "tags": null, "updated_at": 1776759227658, "version": "1.0.0"}, {"category": "developer-tools", "created_at": 1773088753574, "description": "Search Douyin live streams by location, obtain coordinates via Baidu Maps API, and generate static maps marking live stream positions and estimated crowds.", "description_zh": "", "downloads": 302, "homepage": "https://clawhub.ai/loverun321/live-location-mapper", "iconUrl": null, "installs": 81, "name": "Live Location Mapper", "ownerName": "loverun321", "score": 18203.737191078962, "slug": "live-location-mapper", "source": "clawhub", "stars": 0, "tags": null, "updated_at": 1776759227644, "version": "1.0.0"}, {"category": "ai-intelligence", "created_at": 1772799739646, "description": "Navigate and query crypto networks via OpenScan infrastructure. Use when the user asks about blockchain data — balances (ETH, ERC20, BTC), blocks, transactio...", "description_zh": "", "downloads": 302, "homepage": "https://clawhub.ai/josealoha666/openscan-crypto", "iconUrl": null, "installs": 26, "name": "OpenScan Crypto", "ownerName": "josealoha666", "score": 18203.737191078962, "slug": "openscan-crypto", "source": "clawhub", "stars": 0, "tags": null, "updated_at": 1776759227629, "version": "1.0.0"}, {"category": "content-creation", "created_at": 1773068067085, "description": "Provides quantitative quality scores and detailed shot-by-shot breakdowns for videos to evaluate technical quality and narrative structure.", "description_zh": "", "downloads": 302, "homepage": "https://clawhub.ai/wells1137/video-breakdown", "iconUrl": null, "installs": 63, "name": "Video Breakdown", "ownerName": "wells1137", "score": 19174.603174603173, "slug": "video-breakdown", "source": "clawhub", "stars": 0, "tags": null, "updated_at": 1776759227554, "version": "1.0.0"}]}