{"page": 246, "total_pages": 522, "total": 26073, "skills": [{"category": "security-compliance", "created_at": 1772798658868, "description": "Provides comprehensive guidance and commands to install, authenticate, and manage Viam CLI for robotics fleets, modules, machine data, datasets, and ML workf...", "description_zh": "", "downloads": 302, "homepage": "https://clawhub.ai/hexbabe/viam-cli", "iconUrl": null, "installs": 9, "name": "This skill informs the agent how to use Viam CLI", "ownerName": "hexbabe", "score": 22554.144884241974, "slug": "viam-cli", "source": "clawhub", "stars": 0, "tags": null, "updated_at": 1776759227462, "version": "1.0.0"}, {"category": "developer-tools", "created_at": 1772798882789, "description": "Provide precise, data-driven restaurant operations advice based on concept, location, and challenges using industry benchmarks and key performance metrics.", "description_zh": "", "downloads": 302, "homepage": "https://clawhub.ai/1kalin/afrexai-restaurant-ops", "iconUrl": null, "installs": 10, "name": "Restaurant Operations", "ownerName": "1kalin", "score": 22554.144884241974, "slug": "afrexai-restaurant-ops", "source": "clawhub", "stars": 0, "tags": ["business", "food service", "operations", "restaurant"], "updated_at": 1776759227442, "version": "1.0.0"}, {"category": "", "created_at": 1774798320423, "description": "Suite of tools for creating elaborate, multi-component claude.ai HTML artifacts using modern frontend web technologies (React, Tailwind CSS, shadcn/ui). Use...", "description_zh": "", "downloads": 302, "homepage": "https://clawhub.ai/tlreal/web-artifacts-builder", "iconUrl": null, "installs": 25, "name": "Web Artifacts Builder", "ownerName": "tlreal", "score": 19751.4715500327, "slug": "web-artifacts-builder", "source": "clawhub", "stars": 0, "tags": null, "updated_at": 1776757733220, "version": "0.1.0"}, {"category": "developer-tools", "created_at": 1772796547090, "description": "Automate browser tasks using the BrowserMCP MCP server and Chrome extension. Use for navigating websites, filling forms, clicking elements, taking screenshot...", "description_zh": "", "downloads": 302, "homepage": "https://clawhub.ai/frankausberlin/browsermcp", "iconUrl": null, "installs": 17, "name": "BrowserMCP Skill", "ownerName": "frankausberlin", "score": 52797.2027972028, "slug": "browsermcp", "source": "clawhub", "stars": 0, "tags": null, "updated_at": 1776755288466, "version": "1.0.0"}, {"category": "content-creation", "created_at": 1773427392256, "description": "Read X (Twitter) Articles aloud using macOS text-to-speech. Accepts an X Article URL and reads the content out loud. Automatically detects Chinese vs English...", "description_zh": "", "downloads": 302, "homepage": "https://clawhub.ai/ewangchong/x-article-reader", "iconUrl": null, "installs": 10, "name": "X Article Reader", "ownerName": "ewangchong", "score": 90149.25373134328, "slug": "x-article-reader", "source": "clawhub", "stars": 0, "tags": null, "updated_at": 1776748785387, "version": "0.1.1"}, {"category": "ai-intelligence", "created_at": 1772797811492, "description": "AI agent infrastructure for deals, escrow, attestations, and autonomous agents. 39 tools across 9 engines.", "description_zh": "", "downloads": 302, "homepage": "https://clawhub.ai/swgoettelman/deal-works", "iconUrl": null, "installs": 12, "name": "Deal Works Mcp", "ownerName": "swgoettelman", "score": 91793.3130699088, "slug": "deal-works", "source": "clawhub", "stars": 0, "tags": null, "updated_at": 1776748784924, "version": "0.1.1"}, {"category": "developer-tools", "created_at": 1773090740186, "description": "Create a Gmail filter to automatically label, star, or categorize incoming messages.", "description_zh": "", "downloads": 302, "homepage": "https://clawhub.ai/googleworkspace-bot/recipe-create-gmail-filter", "iconUrl": null, "installs": 14, "name": "Recipe Create Gmail Filter", "ownerName": "googleworkspace-bot", "score": 82288.82833787467, "slug": "recipe-create-gmail-filter", "source": "clawhub", "stars": 0, "tags": null, "updated_at": 1776748784873, "version": "1.0.10"}, {"category": "ai-intelligence", "created_at": 1772796321252, "description": "Codified expertise for managing carrier portfolios, negotiating freight rates, tracking carrier performance, allocating freight, and maintaining strategic ca...", "description_zh": "", "downloads": 302, "homepage": "https://clawhub.ai/nocodemf/carrier-relationship-management", "iconUrl": null, "installs": 13, "name": "Carrier Relationship Management", "ownerName": "nocodemf", "score": 91238.67069486405, "slug": "carrier-relationship-management", "source": "clawhub", "stars": 0, "tags": null, "updated_at": 1776748784602, "version": "1.0.0"}, {"category": "productivity", "created_at": 1772799995121, "description": "Generate high-quality EvoMap bundles from REAL skills with actual code", "description_zh": "", "downloads": 302, "homepage": "https://clawhub.ai/josephyb97/evomap-skills-wrapper", "iconUrl": null, "installs": 12, "name": "evomap-skills-wrapper", "ownerName": "josephyb97", "score": 94080.9968847352, "slug": "evomap-skills-wrapper", "source": "clawhub", "stars": 0, "tags": null, "updated_at": 1776748784554, "version": "1.0.0"}, {"category": "productivity", "created_at": 1772799927091, "description": "Translate trading strategies between different frameworks and languages. Use when converting Pine Script to Python, porting strategies to NautilusTrader, or...", "description_zh": "", "downloads": 302, "homepage": "https://clawhub.ai/ahuserious/strategy-translator", "iconUrl": null, "installs": 12, "name": "Strategy Translator", "ownerName": "ahuserious", "score": 94080.9968847352, "slug": "strategy-translator", "source": "clawhub", "stars": 0, "tags": null, "updated_at": 1776748784550, "version": "0.1.0"}, {"category": "developer-tools", "created_at": 1772792007676, "description": "[Coming Soon] A social simulation world where AI agents with unique SOUL.md personalities interact, debate, trade, and build relationships. Autonomous AI per...", "description_zh": "", "downloads": 302, "homepage": "https://clawhub.ai/lifeissea/the-sims", "iconUrl": null, "installs": 4, "name": "The Sims", "ownerName": "lifeissea", "score": 66228.0701754386, "slug": "the-sims", "source": "clawhub", "stars": 0, "tags": null, "updated_at": 1776748784281, "version": "0.1.0"}, {"category": "ai-intelligence", "created_at": 1772805545664, "description": "Control E2B Desktop sandboxes (virtual Linux desktops) for computer-use agents. Use when you need to create/manage sandboxed desktop environments, take scree...", "description_zh": "", "downloads": 302, "homepage": "https://clawhub.ai/eyhn/e2b-desktop", "iconUrl": null, "installs": 37, "name": "E2B Desktop", "ownerName": "eyhn", "score": 94375, "slug": "e2b-desktop", "source": "clawhub", "stars": 0, "tags": null, "updated_at": 1776748784113, "version": "1.0.0"}, {"category": "ai-intelligence", "created_at": 1773289279929, "description": "Register your agent on TaskPod, the trust layer for AI agents. Get discovered, earn reputation, and get paid for completing tasks.", "description_zh": "", "downloads": 302, "homepage": "https://clawhub.ai/habitclaw/taskpod", "iconUrl": null, "installs": 17, "name": "Taskpod", "ownerName": "habitclaw", "score": 84357.54189944135, "slug": "taskpod", "source": "clawhub", "stars": 0, "tags": null, "updated_at": 1776748784062, "version": "1.16.0"}, {"category": "developer-tools", "created_at": 1773060237072, "description": "Interact with Obsidian vaults using the Obsidian CLI to read, create, search, and manage notes, tasks, properties, and more. Also supports plugin and theme d...", "description_zh": "", "downloads": 302, "homepage": "https://clawhub.ai/sadlay/obsidian-cli-tool", "iconUrl": null, "installs": 30, "name": "Obsidian Cli Tool", "ownerName": "sadlay", "score": 90149.25373134328, "slug": "obsidian-cli-tool", "source": "clawhub", "stars": 0, "tags": null, "updated_at": 1776748784022, "version": "1.0.0"}, {"category": "data-analysis", "created_at": 1773858157247, "description": "Cz Cli — Commitizen — conventional commit helper. Automated tool for cz-cli tasks. Use when you need Cz Cli capabilities. Triggers on: commit helper.", "description_zh": "", "downloads": 302, "homepage": "https://clawhub.ai/xueyetianya/commit-helper", "iconUrl": null, "installs": 5, "name": "Commit Helper", "ownerName": "xueyetianya", "score": 94968.5534591195, "slug": "commit-helper", "source": "clawhub", "stars": 0, "tags": null, "updated_at": 1776748783924, "version": "2.0.0"}, {"category": "communication-collaboration", "created_at": 1772796967255, "description": "Close CRM — manage leads, contacts, opportunities, tasks, and activities. Sales CRM with built-in calling and email.", "description_zh": "", "downloads": 302, "homepage": "https://clawhub.ai/aiwithabidi/close-crm", "iconUrl": null, "installs": 16, "name": "Close Crm", "ownerName": "aiwithabidi", "score": 98371.335504886, "slug": "close-crm", "source": "clawhub", "stars": 0, "tags": null, "updated_at": 1776748783873, "version": "1.0.0"}, {"category": "content-creation", "created_at": 1773061584667, "description": "Generate videos using Alibaba's Wan 2.6 model via WaveSpeed AI. Supports text-to-video and image-to-video generation with up to 15 seconds duration at 720p o...", "description_zh": "", "downloads": 302, "homepage": "https://clawhub.ai/chengzeyi/wavespeed-wan-26", "iconUrl": null, "installs": 30, "name": "WaveSpeedAI Wan 2.6 Video Generation", "ownerName": "chengzeyi", "score": 80965.1474530831, "slug": "wavespeed-wan-26", "source": "clawhub", "stars": 0, "tags": null, "updated_at": 1776748783793, "version": "1.0.0"}, {"category": "developer-tools", "created_at": 1773841706554, "description": "Adapt HKUDS CLI-Anything for OpenClaw workflows. Use when the user wants to build, refine, test, or validate an agent-native CLI harness for a GUI applicatio...", "description_zh": "", "downloads": 302, "homepage": "https://clawhub.ai/barrontang/cli-anything-openclaw", "iconUrl": null, "installs": 41, "name": "CLI-Anything for OpenClaw", "ownerName": "barrontang", "score": 90690.6906906907, "slug": "cli-anything-openclaw", "source": "clawhub", "stars": 0, "tags": null, "updated_at": 1776748783699, "version": "0.1.0"}, {"category": "data-analysis", "created_at": 1772802458766, "description": "Generates Kaplan-Meier survival curves, calculates survival statistics (log-rank test, median survival time), and estimates hazard ratios for clinical and bi...", "description_zh": "", "downloads": 301, "homepage": "https://clawhub.ai/aipoch-ai/survival-analysis-km", "iconUrl": null, "installs": 15, "name": "Survival Analysis (KM)", "ownerName": "aipoch-ai", "score": 23866.171003717474, "slug": "survival-analysis-km", "source": "clawhub", "stars": 1, "tags": ["data-analysis", "survival analysis"], "updated_at": 1776759198137, "version": "1.0.0"}, {"category": "data-analysis", "created_at": 1773290537194, "description": "Operate Alibaba Cloud DataWorks through dynamic API discovery and official SDKs (Node.js, Python, Java). Covers data development, workflow operations, data i...", "description_zh": "", "downloads": 301, "homepage": "https://clawhub.ai/samuelhsin/dataworks-open-api", "iconUrl": null, "installs": 35, "name": "DataWorks Open API", "ownerName": "samuelhsin", "score": 100000, "slug": "dataworks-open-api", "source": "clawhub", "stars": 1, "tags": null, "updated_at": 1776748784720, "version": "1.0.0"}, {"category": "developer-tools", "created_at": 1773818751767, "description": "Collective AI judgment platform — vote on open dilemmas to get immediate live signal, your full alignment score, and confidence calibration snapshot delivere...", "description_zh": "", "downloads": 301, "homepage": "https://clawhub.ai/patrickbakowski/alignment-consensus-calibration-dilemma-voting", "iconUrl": null, "installs": 10, "name": "AgentDilemma: Calibration & Peer-Review", "ownerName": "patrickbakowski", "score": 100000, "slug": "alignment-consensus-calibration-dilemma-voting", "source": "clawhub", "stars": 1, "tags": ["alignment", "decision-support", "ensemble-learning", "governance"], "updated_at": 1776748784581, "version": "5.8.0"}, {"category": "content-creation", "created_at": 1773074321339, "description": "AI-powered blog title optimizer. Generate SEO-friendly, click-worthy headlines that drive traffic.", "description_zh": "", "downloads": 301, "homepage": "https://clawhub.ai/icepopma/blog-title-optimizer", "iconUrl": null, "installs": 21, "name": "Blog Title Optimizer", "ownerName": "icepopma", "score": 11328.566051938276, "slug": "blog-title-optimizer", "source": "clawhub", "stars": 0, "tags": null, "updated_at": 1776768071149, "version": "1.0.7"}, {"category": "ai-intelligence", "created_at": 1773081368629, "description": "Enable and configure Moltbot/Clawdbot memory search for persistent context. Use when setting up memory, fixing \"goldfish brain,\" or helping users configure m...", "description_zh": "", "downloads": 301, "homepage": "https://clawhub.ai/gwsq/memory-setup-1-0-0", "iconUrl": null, "installs": 93, "name": "Memory Setup 1.0.0", "ownerName": "gwsq", "score": 11401.515151515152, "slug": "memory-setup-1-0-0", "source": "clawhub", "stars": 0, "tags": null, "updated_at": 1776764950862, "version": "1.0.0"}, {"category": "developer-tools", "created_at": 1772793159900, "description": "Provides weather forecast data from NOAA. Free tier returns 3-day forecast, premium tier returns 7-day with hourly data.", "description_zh": "", "downloads": 301, "homepage": "https://clawhub.ai/letorresmeza/weather-data", "iconUrl": null, "installs": 9, "name": "Weather Data API", "ownerName": "letorresmeza", "score": 11243.929772132986, "slug": "weather-data", "source": "clawhub", "stars": 0, "tags": ["api", "forecast", "noaa", "weather"], "updated_at": 1776762139978, "version": "1.0.0"}, {"category": "content-creation", "created_at": 1773069624538, "description": "Generate AI images and videos using top-tier models including Sora 2, Kling 2.6, Seedance 2.0, Nano Banana Pro, Veo 3.1 and more. Supports text-to-image, tex...", "description_zh": "", "downloads": 301, "homepage": "https://clawhub.ai/zerolu/ultimate-ai-media-generator", "iconUrl": null, "installs": 65, "name": "Ultimate AI Media Generator", "ownerName": "zerolu", "score": 22546.81647940075, "slug": "ultimate-ai-media-generator", "source": "clawhub", "stars": 0, "tags": null, "updated_at": 1776759227737, "version": "1.0.1"}, {"category": "developer-tools", "created_at": 1772797406415, "description": "Perform privacy-focused metasearch using local or remote SearXNG instances with retries, timeouts, category, time, and engine-specific filters.", "description_zh": "", "downloads": 301, "homepage": "https://clawhub.ai/elmaslouhymouaad/searxng-search-skill", "iconUrl": null, "installs": 7, "name": "Advanced Searxng Search Skill", "ownerName": "elmaslouhymouaad", "score": 22496.26307922272, "slug": "searxng-search-skill", "source": "clawhub", "stars": 0, "tags": null, "updated_at": 1776759227727, "version": "0.1.1"}, {"category": "developer-tools", "created_at": 1772798102679, "description": "Discover pain points, frustrations, and unmet needs on Reddit using PullPush API. No API keys required. Use to find startup ideas backed by real user complai...", "description_zh": "", "downloads": 301, "homepage": "https://clawhub.ai/yanji84/pain-point-finder", "iconUrl": null, "installs": 11, "name": "Pain Point Finder", "ownerName": "yanji84", "score": 22496.26307922272, "slug": "pain-point-finder", "source": "clawhub", "stars": 0, "tags": null, "updated_at": 1776759227726, "version": "1.0.0"}, {"category": "developer-tools", "created_at": 1772796158715, "description": "Visualize your AI token usage as real-time pixel art with customizable boards, animations, achievements, and social sharing powered by ohmytoken.", "description_zh": "", "downloads": 301, "homepage": "https://clawhub.ai/0x5446/ohmytoken", "iconUrl": null, "installs": 15, "name": "ohmytoken", "ownerName": "0x5446", "score": 22479.462285287525, "slug": "ohmytoken", "source": "clawhub", "stars": 0, "tags": null, "updated_at": 1776759227474, "version": "2.0.3"}, {"category": "ai-intelligence", "created_at": 1773060963768, "description": "Captures learnings, errors, and corrections to enable continuous improvement. Use when: (1) A command or operation fails unexpectedly, (2) User corrects Clau...", "description_zh": "", "downloads": 301, "homepage": "https://clawhub.ai/jayv29/strict-self-improvement", "iconUrl": null, "installs": 53, "name": "Strict Self-Improving Agent (Rule of 3)", "ownerName": "jayv29", "score": 19570.871261378416, "slug": "strict-self-improvement", "source": "clawhub", "stars": 0, "tags": null, "updated_at": 1776758482583, "version": "1.0.2"}, {"category": "security-compliance", "created_at": 1773089532274, "description": "Administer IT — monitor security and configure Workspace.", "description_zh": "", "downloads": 301, "homepage": "https://clawhub.ai/googleworkspace-bot/persona-it-admin", "iconUrl": null, "installs": 14, "name": "Persona It Admin", "ownerName": "googleworkspace-bot", "score": 17852.90628706999, "slug": "persona-it-admin", "source": "clawhub", "stars": 0, "tags": null, "updated_at": 1776757733446, "version": "1.0.10"}, {"category": "communication-collaboration", "created_at": 1772796883886, "description": "Pull personal data (emails, issues) and propose outbound actions (drafts, replies) through the PersonalDataHub access control gateway. Data is filtered, reda...", "description_zh": "", "downloads": 301, "homepage": "https://clawhub.ai/haojian/personaldatahub", "iconUrl": null, "installs": 8, "name": "Personaldatahub", "ownerName": "haojian", "score": 50844.59459459459, "slug": "personaldatahub", "source": "clawhub", "stars": 0, "tags": null, "updated_at": 1776750304840, "version": "0.1.0"}, {"category": "content-creation", "created_at": 1772799621052, "description": "Replace video audio with TTS voice while preserving original timing. Includes subtitle generation from video using Whisper. Uses ElevenLabs or Edge TTS, alig...", "description_zh": "", "downloads": 301, "homepage": "https://clawhub.ai/synthere/video-audio-replace", "iconUrl": null, "installs": 25, "name": "video-audio-replace", "ownerName": "synthere", "score": 93769.47040498443, "slug": "video-audio-replace", "source": "clawhub", "stars": 0, "tags": null, "updated_at": 1776748784742, "version": "1.0.0"}, {"category": "productivity", "created_at": 1773065276172, "description": "Convert apparel sketches into ecommerce-ready colorized shell-jacket renders. Use when users provide garment line art and ask for realistic colorized outputs...", "description_zh": "", "downloads": 301, "homepage": "https://clawhub.ai/bananooo-zhang/fashion-colorize-shell", "iconUrl": null, "installs": 52, "name": "Fashion Colorize Shell", "ownerName": "bananooo-zhang", "score": 90936.55589123866, "slug": "fashion-colorize-shell", "source": "clawhub", "stars": 0, "tags": null, "updated_at": 1776748784643, "version": "1.0.0"}, {"category": "productivity", "created_at": 1773089912492, "description": "Google Workflow: Today's meetings + open tasks as a standup summary.", "description_zh": "", "downloads": 301, "homepage": "https://clawhub.ai/googleworkspace-bot/gws-workflow-standup-report", "iconUrl": null, "installs": 17, "name": "Gws Workflow Standup Report", "ownerName": "googleworkspace-bot", "score": 93769.47040498443, "slug": "gws-workflow-standup-report", "source": "clawhub", "stars": 0, "tags": null, "updated_at": 1776748784562, "version": "1.0.10"}, {"category": "data-analysis", "created_at": 1773200460582, "description": "Call real humans to test your product (URL or app). Get structured usability feedback with screen recordings, NPS scores, and AI-aggregated findings.", "description_zh": "", "downloads": 301, "homepage": "https://clawhub.ai/avivahe326/human-test", "iconUrl": null, "installs": 15, "name": "Human Test", "ownerName": "avivahe326", "score": 96784.56591639871, "slug": "human-test", "source": "clawhub", "stars": 0, "tags": null, "updated_at": 1776748784485, "version": "1.6.1"}, {"category": "data-analysis", "created_at": 1772796151831, "description": "Systematic deep research methodology for ANY domain. 7-step workflow with credibility scoring, pattern recognition, adversarial analysis, and iterative deepe...", "description_zh": "", "downloads": 301, "homepage": "https://clawhub.ai/rustyorb/k-deep-research", "iconUrl": null, "installs": 21, "name": "K Deep Research", "ownerName": "rustyorb", "score": 66008.77192982456, "slug": "k-deep-research", "source": "clawhub", "stars": 0, "tags": ["analysis", "methodology", "research"], "updated_at": 1776748784341, "version": "2.0.1"}, {"category": "developer-tools", "created_at": 1772795442733, "description": "Pull startup project data and AI-generated build specifications from CoFounder.im. Use when a user wants to build a project that was validated and planned on...", "description_zh": "", "downloads": 301, "homepage": "https://clawhub.ai/alexfilatov/cofounder-im", "iconUrl": null, "installs": 8, "name": "OpenClaw Cofounder Skill", "ownerName": "alexfilatov", "score": 66008.77192982456, "slug": "cofounder-im", "source": "clawhub", "stars": 0, "tags": null, "updated_at": 1776748784328, "version": "1.2.1"}, {"category": "content-creation", "created_at": 1772796292868, "description": "Fetch, summarize, and save YouTube transcripts with timestamp navigation, chapter detection, and searchable content.", "description_zh": "", "downloads": 301, "homepage": "https://clawhub.ai/ivangdavila/youtube-video-transcript", "iconUrl": null, "installs": 22, "name": "YouTube Video Transcript", "ownerName": "ivangdavila", "score": 66008.77192982456, "slug": "youtube-video-transcript", "source": "clawhub", "stars": 0, "tags": null, "updated_at": 1776748784305, "version": "1.0.0"}, {"category": "data-analysis", "created_at": 1773076085658, "description": "Generate beautiful interactive HTML dashboards from CSV/Excel files with smart insights, auto-detected charts, correlations, and statistics.", "description_zh": "", "downloads": 301, "homepage": "https://clawhub.ai/ratnaditya-j/csvglow", "iconUrl": null, "installs": 62, "name": "csvglow", "ownerName": "ratnaditya-j", "score": 94952.68138801261, "slug": "csvglow", "source": "clawhub", "stars": 0, "tags": null, "updated_at": 1776748784187, "version": "0.1.0"}, {"category": "ai-intelligence", "created_at": 1773073194726, "description": "Give each OpenClaw agent its own secure HTTPS URL using Cloudflare Tunnel (cloudflared). No SSL certificates to manage, no ports to expose publicly. Use when...", "description_zh": "", "downloads": 301, "homepage": "https://clawhub.ai/maverick-software/cloudflare-agent-tunnel", "iconUrl": null, "installs": 14, "name": "Cloudflare Agent Tunnel", "ownerName": "maverick-software", "score": 94062.5, "slug": "cloudflare-agent-tunnel", "source": "clawhub", "stars": 0, "tags": null, "updated_at": 1776748784161, "version": "1.1.0"}, {"category": "developer-tools", "created_at": 1773426519136, "description": "Generate OpenAPI 3.0 specs from endpoint descriptions. Use when validating APIs, generating docs, formatting YAML, checking schemas, linting contracts.", "description_zh": "", "downloads": 301, "homepage": "https://clawhub.ai/xueyetianya/swagger-generator", "iconUrl": null, "installs": 5, "name": "Swagger Generator", "ownerName": "xueyetianya", "score": 94062.5, "slug": "swagger-generator", "source": "clawhub", "stars": 0, "tags": ["productivity"], "updated_at": 1776748784120, "version": "2.0.1"}, {"category": "data-analysis", "created_at": 1773074689311, "description": "Grow Twitter/X accounts with automated posting, engagement monitoring, thread creation, competitor analysis, and keyword tracking. Manage multiple accounts s...", "description_zh": "", "downloads": 301, "homepage": "https://clawhub.ai/luis2404123/twitter-x-growth-tools", "iconUrl": null, "installs": 11, "name": "Twitter X Growth Tools", "ownerName": "luis2404123", "score": 89850.74626865672, "slug": "twitter-x-growth-tools", "source": "clawhub", "stars": 0, "tags": null, "updated_at": 1776748783957, "version": "1.0.0"}, {"category": "ai-intelligence", "created_at": 1772797005173, "description": "Create, fetch, and validate me.txt personal identity files for AI agents", "description_zh": "", "downloads": 301, "homepage": "https://clawhub.ai/rollsmorr1/me-txt", "iconUrl": null, "installs": 13, "name": "me.txt", "ownerName": "rollsmorr1", "score": 98045.6026058632, "slug": "me-txt", "source": "clawhub", "stars": 0, "tags": ["ai", "identity", "markdown", "personal"], "updated_at": 1776748783870, "version": "1.0.0"}, {"category": "ai-intelligence", "created_at": 1772804895169, "description": "Automated backup for OpenClaw instances. Backs up agents, skills, cron jobs, and memory. Supports local tar archives. Credentials, periodic scheduling, and g...", "description_zh": "", "downloads": 301, "homepage": "https://clawhub.ai/adelpro/openclaw-backup-automation", "iconUrl": null, "installs": 21, "name": "OpenClaw Backup Automation", "ownerName": "adelpro", "score": 80697.0509383378, "slug": "openclaw-backup-automation", "source": "clawhub", "stars": 0, "tags": ["automation", "backup", "disaster-recovery"], "updated_at": 1776748783783, "version": "1.0.0"}, {"category": "ai-intelligence", "created_at": 1772797403516, "description": "Advanced AI-powered search skill using SearXNG as the universal search backend. Multi-engine dork generation, 90+ search engines, intelligent search strategi...", "description_zh": "", "downloads": 301, "homepage": "https://clawhub.ai/elmaslouhymouaad/search-intelligence-skill", "iconUrl": null, "installs": 23, "name": "Search Intelligence Skill", "ownerName": "elmaslouhymouaad", "score": 90390.39039039038, "slug": "search-intelligence-skill", "source": "clawhub", "stars": 0, "tags": null, "updated_at": 1776748783718, "version": "0.1.1"}, {"category": "developer-tools", "created_at": 1772803879497, "description": "Automatically identify, merge, and clean duplicate or outdated entries in MEMORY.md to maintain concise, organized, and up-to-date information.", "description_zh": "", "downloads": 300, "homepage": "https://clawhub.ai/weidadong2359/memory-dedup", "iconUrl": null, "installs": 11, "name": "Memory Deduplication", "ownerName": "weidadong2359", "score": 25256.51144435675, "slug": "memory-dedup", "source": "clawhub", "stars": 1, "tags": null, "updated_at": 1776759982355, "version": "1.0.0"}, {"category": "data-analysis", "created_at": 1773065096240, "description": "Build complete, modern multi-page React websites for local businesses (landscapers, restaurants, salons, plumbers, gyms, etc.). Use when a user asks to build...", "description_zh": "", "downloads": 300, "homepage": "https://clawhub.ai/maverick-software/react-local-biz", "iconUrl": null, "installs": 27, "name": "React Local Business Website", "ownerName": "maverick-software", "score": 23791.82156133829, "slug": "react-local-biz", "source": "clawhub", "stars": 1, "tags": null, "updated_at": 1776759197865, "version": "1.0.0"}, {"category": "developer-tools", "created_at": 1773068126970, "description": "Agent marketplace — spend tokens to call other agents, offer your tools to earn tokens", "description_zh": "", "downloads": 300, "homepage": "https://clawhub.ai/ydap6463/busapi", "iconUrl": null, "installs": 5, "name": "busapi", "ownerName": "ydap6463", "score": 100000, "slug": "busapi", "source": "clawhub", "stars": 1, "tags": ["agent-marketplace", "ai-agents", "mcp", "tokens"], "updated_at": 1776748784163, "version": "1.1.0"}, {"category": "ai-intelligence", "created_at": 1773879535085, "description": "Llm - command-line tool for everyday use", "description_zh": "", "downloads": 300, "homepage": "https://clawhub.ai/bytesagain/llm", "iconUrl": null, "installs": 19, "name": "Llm", "ownerName": "bytesagain", "score": 456.3917666925289, "slug": "llm", "source": "clawhub", "stars": 0, "tags": null, "updated_at": 1776770771223, "version": "1.0.5"}, {"category": "data-analysis", "created_at": 1773062004959, "description": "Java Maven multi-module project documentation generator. Supports MyBatis SQL mapping, Maven dependency analysis, generates L3(file-level) to L2(module-level...", "description_zh": "", "downloads": 300, "homepage": "https://clawhub.ai/endcy/project-analyzer-generate-doc", "iconUrl": null, "installs": 15, "name": "Project Analyzer Generate Doc", "ownerName": "endcy", "score": 5049.65494024575, "slug": "project-analyzer-generate-doc", "source": "clawhub", "stars": 0, "tags": ["code-analysis", "documentation", "hierarchical", "java", "llm-tools"], "updated_at": 1776764350059, "version": "2.1.4"}]}