{"page": 247, "total_pages": 522, "total": 26073, "skills": [{"category": "data-analysis", "created_at": 1773065123204, "description": "Analyze and safely identify junk, duplicates, storage usage, timeline recaps, and quality scores to help organize and clean Apple Photos libraries on macOS.", "description_zh": "", "downloads": 300, "homepage": "https://clawhub.ai/and3rn3t/apple-photos-cleaner", "iconUrl": null, "installs": 33, "name": "Apple Photos Cleaner", "ownerName": "and3rn3t", "score": 100000, "slug": "apple-photos-cleaner", "source": "clawhub", "stars": 0, "tags": null, "updated_at": 1776760020534, "version": "1.0.1"}, {"category": "productivity", "created_at": 1772800222673, "description": "Enable or disable the OpenClaw built-in browser with one command, featuring auto backup, recovery, and cross-platform support.", "description_zh": "", "downloads": 300, "homepage": "https://clawhub.ai/yoo-unison/browser-toggle", "iconUrl": null, "installs": 8, "name": "browser-toggle", "ownerName": "yoo-unison", "score": 19047.619047619046, "slug": "browser-toggle", "source": "clawhub", "stars": 0, "tags": ["automation", "browser", "openclaw", "utility"], "updated_at": 1776759227597, "version": "1.0.1"}, {"category": "developer-tools", "created_at": 1772804166118, "description": "AI performance marketing agent for paid media, PPC, SEM, and digital marketing. Manage Google Ads, Meta Ads (Facebook & Instagram), LinkedIn Ads, and TikTok...", "description_zh": "", "downloads": 300, "homepage": "https://clawhub.ai/amekala/performance-marketing-agent", "iconUrl": null, "installs": 8, "name": "Performance Marketing Agent — Adspirer", "ownerName": "amekala", "score": 100000, "slug": "performance-marketing-agent", "source": "clawhub", "stars": 0, "tags": null, "updated_at": 1776749084621, "version": "1.0.0"}, {"category": "data-analysis", "created_at": 1773073241740, "description": "Cryptocurrency arbitrage scanner - detect cross-exchange price differences, triangular arbitrage opportunities, real-time alerts. Each call charges 0.001 USD...", "description_zh": "", "downloads": 300, "homepage": "https://clawhub.ai/mosonchan2023/crypto-arbitrage-scanner", "iconUrl": null, "installs": 11, "name": "Crypto Arbitrage Scanner", "ownerName": "mosonchan2023", "score": 62111.80124223602, "slug": "crypto-arbitrage-scanner", "source": "clawhub", "stars": 0, "tags": null, "updated_at": 1776748785453, "version": "1.0.1"}, {"category": "productivity", "created_at": 1772796865198, "description": "Launch non-blocking Claude Code headless tasks from slash command dispatch. Use when user requests async coding jobs and does not require slash-only Claude p...", "description_zh": "", "downloads": 300, "homepage": "https://clawhub.ai/edxi/miniade-dispatch", "iconUrl": null, "installs": 11, "name": "Dispatch (Claude Code)", "ownerName": "edxi", "score": 89552.23880597015, "slug": "miniade-dispatch", "source": "clawhub", "stars": 0, "tags": null, "updated_at": 1776748785362, "version": "0.1.1"}, {"category": "developer-tools", "created_at": 1772794804627, "description": "Live as a resident of Otra City and survive through action, conversation, and adaptation", "description_zh": "", "downloads": 300, "homepage": "https://clawhub.ai/robin-blocks/otra-city", "iconUrl": null, "installs": 4, "name": "Otra City", "ownerName": "robin-blocks", "score": 61099.79633401222, "slug": "otra-city", "source": "clawhub", "stars": 0, "tags": ["city", "simulation", "social"], "updated_at": 1776748785204, "version": "1.0.0"}, {"category": "security-compliance", "created_at": 1772793025568, "description": "Hardens API endpoints against common attacks. Covers rate limiting, input validation, auth, CORS, headers, injection prevention, error handling, and monitoring.", "description_zh": "", "downloads": 300, "homepage": "https://clawhub.ai/ryudi84/sovereign-api-hardener", "iconUrl": null, "installs": 4, "name": "Sovereign API Hardener", "ownerName": "ryudi84", "score": 81743.86920980926, "slug": "sovereign-api-hardener", "source": "clawhub", "stars": 0, "tags": null, "updated_at": 1776748784843, "version": "1.0.0"}, {"category": "security-compliance", "created_at": 1772795642416, "description": "Audit and verify provably fair casino fairness. Cryptographic verification of gambling results using SHA3-384 and AES-256-CTR. Statistical randomness testing...", "description_zh": "", "downloads": 300, "homepage": "https://clawhub.ai/rollhub-dev/rollhub-auditor", "iconUrl": null, "installs": 8, "name": "Fairness Auditor", "ownerName": "rollhub-dev", "score": 81743.86920980926, "slug": "rollhub-auditor", "source": "clawhub", "stars": 0, "tags": null, "updated_at": 1776748784835, "version": "1.0.0"}, {"category": "data-analysis", "created_at": 1772797863000, "description": "Full-text search across structured Markdown documentation archives using SQLite FTS5. Use when you need to search large collections of Markdown articles that...", "description_zh": "", "downloads": 300, "homepage": "https://clawhub.ai/carev01/md-docs-search", "iconUrl": null, "installs": 15, "name": "Markdown Docs Full-Text Search", "ownerName": "carev01", "score": 92592.5925925926, "slug": "md-docs-search", "source": "clawhub", "stars": 0, "tags": null, "updated_at": 1776748784810, "version": "1.0.2"}, {"category": "ai-intelligence", "created_at": 1772796871656, "description": "Set up automated news digests using noisepan (signal extraction), entropia (source verification), and HN blind spot detection. Use when configuring daily new...", "description_zh": "", "downloads": 300, "homepage": "https://clawhub.ai/ppiankov/noisepan-digest", "iconUrl": null, "installs": 13, "name": "Noisepan Digest", "ownerName": "ppiankov", "score": 92592.5925925926, "slug": "noisepan-digest", "source": "clawhub", "stars": 0, "tags": null, "updated_at": 1776748784790, "version": "1.0.4"}, {"category": "data-analysis", "created_at": 1773287898102, "description": "Surf Hacker News for AI and tech discussions. Get top stories, search for AI topics, and analyze trending tech news.", "description_zh": "", "downloads": 300, "homepage": "https://clawhub.ai/zhaog100/hacker-news-surfer", "iconUrl": null, "installs": 11, "name": "Hacker News Surfer", "ownerName": "zhaog100", "score": 90634.44108761329, "slug": "hacker-news-surfer", "source": "clawhub", "stars": 0, "tags": null, "updated_at": 1776748784620, "version": "1.0.0"}, {"category": "content-creation", "created_at": 1772802994176, "description": "CLI tool to clean up stopped Docker containers, unused images, volumes, and networks to free up disk space.", "description_zh": "", "downloads": 300, "homepage": "https://clawhub.ai/derick001/docker-container-cleaner", "iconUrl": null, "installs": 15, "name": "Docker Container Cleaner", "ownerName": "derick001", "score": 90634.44108761329, "slug": "docker-container-cleaner", "source": "clawhub", "stars": 0, "tags": null, "updated_at": 1776748784599, "version": "1.0.0"}, {"category": "security-compliance", "created_at": 1773416046179, "description": "Lightweight operational audit logging for AI assistants, agent workspaces, and personal automation systems. Use when you need a structured way to record high...", "description_zh": "", "downloads": 300, "homepage": "https://clawhub.ai/lethehades/agent-audit-log", "iconUrl": null, "installs": 7, "name": "Agent Audit Log", "ownerName": "lethehades", "score": 93457.94392523365, "slug": "agent-audit-log", "source": "clawhub", "stars": 0, "tags": null, "updated_at": 1776748784512, "version": "0.1.0"}, {"category": "productivity", "created_at": 1773074553708, "description": "Plan channel mix and media strategy for Meta (Facebook/Instagram), Google Ads, TikTok Ads, YouTube Ads, Amazon Ads, Shopify Ads, and DSP/programmatic.", "description_zh": "", "downloads": 300, "homepage": "https://clawhub.ai/danyangliu-sandwichlab/media-strategy-planner", "iconUrl": null, "installs": 38, "name": "Ads Media Strategy", "ownerName": "danyangliu-sandwichlab", "score": 65789.47368421053, "slug": "media-strategy-planner", "source": "clawhub", "stars": 0, "tags": null, "updated_at": 1776748784343, "version": "1.0.0"}, {"category": "data-analysis", "created_at": 1772796334484, "description": "Analyzes websites to generate multi-language content strategy, keyword research, and competitor analysis. Use when user provides a URL and needs industry ana...", "description_zh": "", "downloads": 300, "homepage": "https://clawhub.ai/yanzt/content-strategy-analyzer", "iconUrl": null, "installs": 22, "name": "Content Strategy Analyzer", "ownerName": "yanzt", "score": 65789.47368421053, "slug": "content-strategy-analyzer", "source": "clawhub", "stars": 0, "tags": null, "updated_at": 1776748784296, "version": "1.0.0"}, {"category": "data-analysis", "created_at": 1772802649664, "description": "Build comprehensive GEO performance reports with executive summaries, platform breakdowns, competitive analysis, and strategic action plans. Use whenever the...", "description_zh": "", "downloads": 300, "homepage": "https://clawhub.ai/geoly-geo/geo-report-builder", "iconUrl": null, "installs": 31, "name": "GEO Performance Report Builder", "ownerName": "geoly-geo", "score": 94637.2239747634, "slug": "geo-report-builder", "source": "clawhub", "stars": 0, "tags": ["analytics", "geo", "reporting", "strategy"], "updated_at": 1776748784265, "version": "1.0.0"}, {"category": "developer-tools", "created_at": 1773207495965, "description": "When the user wants to build a free tool for marketing — lead generation, SEO value, or brand awareness. Use when they mention 'engineering as marketing,' 'f...", "description_zh": "", "downloads": 300, "homepage": "https://clawhub.ai/alirezarezvani/free-tool-strategy", "iconUrl": null, "installs": 22, "name": "Free Tool Strategy", "ownerName": "alirezarezvani", "score": 93750, "slug": "free-tool-strategy", "source": "clawhub", "stars": 0, "tags": null, "updated_at": 1776748784153, "version": "2.1.1"}, {"category": "content-creation", "created_at": 1772794869707, "description": "Summarize or extract text/transcripts from URLs, podcasts, and local files (great fallback for “transcribe this YouTube/video”).", "description_zh": "", "downloads": 300, "homepage": "https://clawhub.ai/mohdalhashemi98-hue/mh-summarize", "iconUrl": null, "installs": 29, "name": "MH summarize", "ownerName": "mohdalhashemi98-hue", "score": 93750, "slug": "mh-summarize", "source": "clawhub", "stars": 0, "tags": null, "updated_at": 1776748784135, "version": "1.0.0"}, {"category": "ai-intelligence", "created_at": 1772804886066, "description": "Remove signs of AI-generated writing from text. Use when editing or reviewing text to make it sound more natural and human-written. Based on Wikipedia's comp...", "description_zh": "", "downloads": 300, "homepage": "https://clawhub.ai/jzocb/jz-humanizer", "iconUrl": null, "installs": 63, "name": "Humanizer by JZ", "ownerName": "jzocb", "score": 83798.88268156425, "slug": "jz-humanizer", "source": "clawhub", "stars": 0, "tags": null, "updated_at": 1776748784095, "version": "1.0.0"}, {"category": "productivity", "created_at": 1773860169211, "description": "Manage app configuration files with init, list, and add operations. Use when initializing configs, listing settings, switching environments.", "description_zh": "", "downloads": 300, "homepage": "https://clawhub.ai/bytesagain1/config", "iconUrl": null, "installs": 5, "name": "Config", "ownerName": "bytesagain1", "score": 83798.88268156425, "slug": "config", "source": "clawhub", "stars": 0, "tags": null, "updated_at": 1776748784045, "version": "2.0.1"}, {"category": "content-creation", "created_at": 1773884878107, "description": "AI Video generation toolkit — generate videos from text prompts or input images using multiple AI models (Veo 3.1, Veo 3, Seedance 1.5 Pro, Wan 2.5, Grok Ima...", "description_zh": "", "downloads": 299, "homepage": "https://clawhub.ai/gentleyo/video-generation-t2v-i2v", "iconUrl": null, "installs": 79, "name": "Video Generation (t2v & i2v)", "ownerName": "gentleyo", "score": 2111.880209069078, "slug": "video-generation-t2v-i2v", "source": "clawhub", "stars": 0, "tags": null, "updated_at": 1776766490632, "version": "1.0.1"}, {"category": "content-creation", "created_at": 1773091506072, "description": "YouTube video translation workflow, download audio, launch Doubao, play audio, capture translation", "description_zh": "", "downloads": 299, "homepage": "https://clawhub.ai/banner90/byt-workflow", "iconUrl": null, "installs": 71, "name": "Byt Workflow", "ownerName": "banner90", "score": 7046.900777751592, "slug": "byt-workflow", "source": "clawhub", "stars": 0, "tags": null, "updated_at": 1776764050578, "version": "1.0.4"}, {"category": "data-analysis", "created_at": 1772798422999, "description": "Acts as a professional UX/UI specialist. Use to analyze web/app design, compare solutions, and identify potential UX problems. Provides expert advice on usab...", "description_zh": "", "downloads": 299, "homepage": "https://clawhub.ai/nykstukas/ux-ui-specialist", "iconUrl": null, "installs": 28, "name": "UX/UI Specialist Skill", "ownerName": "nykstukas", "score": 9297.26368159204, "slug": "ux-ui-specialist", "source": "clawhub", "stars": 0, "tags": null, "updated_at": 1776761990010, "version": "1.0.0"}, {"category": "ai-intelligence", "created_at": 1773075756319, "description": "Simple AI news briefing using bash commands. Monitors 10 top AI news sources and generates professional Chinese briefings. Use when: (1) generating AI news b...", "description_zh": "", "downloads": 299, "homepage": "https://clawhub.ai/sharkwind/ai-news-simple", "iconUrl": null, "installs": 20, "name": "AI News Simple", "ownerName": "sharkwind", "score": 3969.2021770874817, "slug": "ai-news-simple", "source": "clawhub", "stars": 0, "tags": ["ai", "automation", "briefing", "news", "simple"], "updated_at": 1776761539776, "version": "1.0.0"}, {"category": "data-analysis", "created_at": 1773075126969, "description": "Create Feishu (Lark) video meetings via Calendar API — instant, scheduled, or recurring. Supports multiple invitees (resolved from mobile/email), automatic F...", "description_zh": "", "downloads": 299, "homepage": "https://clawhub.ai/magicaldd/feishu-meeting", "iconUrl": null, "installs": 45, "name": "Feishu Meeting", "ownerName": "magicaldd", "score": 23304.754481683554, "slug": "feishu-meeting", "source": "clawhub", "stars": 0, "tags": null, "updated_at": 1776759797828, "version": "1.0.0"}, {"category": "ai-intelligence", "created_at": 1773065449868, "description": "Generate high-quality music on Apple Silicon Macs using ACE-Step 1.5 with MLX backend, supporting custom prompts, durations, and output formats.", "description_zh": "", "downloads": 299, "homepage": "https://clawhub.ai/richmandp/ace-step-music", "iconUrl": null, "installs": 34, "name": "ACE-Step Music Generation", "ownerName": "richmandp", "score": 18022.905364677517, "slug": "ace-step-music", "source": "clawhub", "stars": 0, "tags": ["ai", "apple-silicon", "mlx", "music"], "updated_at": 1776759227630, "version": "1.0.0"}, {"category": "content-creation", "created_at": 1773078302556, "description": "Creates TikTok image carousels with text overlays using Pexels API & FFmpeg, then uploads via PostBridge API. Use when the user wants to: create TikTok slide...", "description_zh": "", "downloads": 299, "homepage": "https://clawhub.ai/oyi77/tiktok-carousel-creator", "iconUrl": null, "installs": 49, "name": "TikTok Carousel Creator (Multi-Account Google Drive Support)", "ownerName": "oyi77", "score": 18793.211816467632, "slug": "tiktok-carousel-creator", "source": "clawhub", "stars": 0, "tags": ["carousel", "ffmpeg", "gogcli", "googledrive", "imgbb", "multi-account", "pexels", "postbridge", "slideshow", "tiktok"], "updated_at": 1776757282340, "version": "1.3.0"}, {"category": "ai-intelligence", "created_at": 1772798912225, "description": "Creates new Overstory agents for Overclaw by updating all seven integration points (config, manifest, agent-def, gateway prompt, task_router, generate_agent_...", "description_zh": "", "downloads": 299, "homepage": "https://clawhub.ai/runeweaverstudios/create-agent", "iconUrl": null, "installs": 14, "name": "Create Agent", "ownerName": "runeweaverstudios", "score": 52548.33040421792, "slug": "create-agent", "source": "clawhub", "stars": 0, "tags": null, "updated_at": 1776751183681, "version": "1.0.0"}, {"category": "ai-intelligence", "created_at": 1772798323742, "description": "Fetch and filter Hacker News top stories. Use when user asks for tech news, HN updates, daily news digest, or wants to set up automated HN fetching. Supports...", "description_zh": "", "downloads": 299, "homepage": "https://clawhub.ai/osgood001/hn-daily", "iconUrl": null, "installs": 16, "name": "Hacker News Daily", "ownerName": "osgood001", "score": 91717.79141104294, "slug": "hn-daily", "source": "clawhub", "stars": 0, "tags": null, "updated_at": 1776748785491, "version": "1.0.1"}, {"category": "productivity", "created_at": 1773873952619, "description": "Set category budgets, log expenses, and visualize spending limits. Use when tracking grocery costs, monitoring subscriptions, or forecasting spend.", "description_zh": "", "downloads": 299, "homepage": "https://clawhub.ai/ckchzh/budgetly", "iconUrl": null, "installs": 5, "name": "Budgetly", "ownerName": "ckchzh", "score": 89253.73134328358, "slug": "budgetly", "source": "clawhub", "stars": 0, "tags": null, "updated_at": 1776748785390, "version": "2.0.1"}, {"category": "productivity", "created_at": 1773081005427, "description": "Real-time system metrics monitoring (CPU, memory, disk, network, processes). Use when: user asks to check system status, cpu usage, memory usage, disk space,...", "description_zh": "", "downloads": 299, "homepage": "https://clawhub.ai/ppopen/openclaw-skill-system-monitor", "iconUrl": null, "installs": 8, "name": "System Monitor", "ownerName": "ppopen", "score": 98679.86798679868, "slug": "openclaw-skill-system-monitor", "source": "clawhub", "stars": 0, "tags": null, "updated_at": 1776748785250, "version": "1.0.1"}, {"category": "productivity", "created_at": 1772792632248, "description": "Navigate Bucharest as visitor, resident, tech worker, student, or entrepreneur with neighborhoods, transport, costs, visas, and local insights.", "description_zh": "", "downloads": 299, "homepage": "https://clawhub.ai/ivangdavila/bucharest", "iconUrl": null, "installs": 8, "name": "Bucharest", "ownerName": "ivangdavila", "score": 60896.13034623218, "slug": "bucharest", "source": "clawhub", "stars": 0, "tags": null, "updated_at": 1776748785229, "version": "1.0.0"}, {"category": "communication-collaboration", "created_at": 1772805243756, "description": "Build and operate a cross-gateway AgentNetwork using Discord as the message bus and GitHub as shared state storage. Use when registering agents, syncing rost...", "description_zh": "", "downloads": 299, "homepage": "https://clawhub.ai/reed1898/reed-agent-network", "iconUrl": null, "installs": 11, "name": "Reed Agent Network", "ownerName": "reed1898", "score": 97712.41830065359, "slug": "reed-agent-network", "source": "clawhub", "stars": 0, "tags": null, "updated_at": 1776748785097, "version": "0.2.2"}, {"category": "developer-tools", "created_at": 1772795913232, "description": "Start and manage tmux-backed dev servers exposed through Caddy at wildcard subdomains.", "description_zh": "", "downloads": 299, "homepage": "https://clawhub.ai/brennerspear/dev-serve", "iconUrl": null, "installs": 6, "name": "Dev Serve", "ownerName": "brennerspear", "score": 90881.45896656535, "slug": "dev-serve", "source": "clawhub", "stars": 0, "tags": null, "updated_at": 1776748784897, "version": "1.0.0"}, {"category": "developer-tools", "created_at": 1772797333089, "description": "Configure and manage Foxcode AI models in OpenClaw. Guides users through API setup, endpoint selection, primary/fallback model configuration, and status moni...", "description_zh": "", "downloads": 299, "homepage": "https://clawhub.ai/clarezoe/foxcode-openclaw", "iconUrl": null, "installs": 9, "name": "Foxcode OpenClaw", "ownerName": "clarezoe", "score": 81471.38964577657, "slug": "foxcode-openclaw", "source": "clawhub", "stars": 0, "tags": ["ai-configuration", "claude", "foxcode", "model-config", "openclaw", "setup-wizard"], "updated_at": 1776748784868, "version": "1.2.4"}, {"category": "developer-tools", "created_at": 1772794881215, "description": "Fetches live weather data from a WeatherFlow Tempest weather station and returns structured JSON with current conditions, wind, precipitation, and lightning....", "description_zh": "", "downloads": 299, "homepage": "https://clawhub.ai/mogglemoss/tempest-weather-wf", "iconUrl": null, "installs": 3, "name": "Tempest Weather", "ownerName": "mogglemoss", "score": 81471.38964577657, "slug": "tempest-weather-wf", "source": "clawhub", "stars": 0, "tags": null, "updated_at": 1776748784861, "version": "1.0.0"}, {"category": "developer-tools", "created_at": 1772796504340, "description": "Remote-control tmux sessions for interactive CLIs by sending keystrokes and scraping pane output.", "description_zh": "", "downloads": 299, "homepage": "https://clawhub.ai/brennerspear/tmux-controller", "iconUrl": null, "installs": 4, "name": "Tmux", "ownerName": "brennerspear", "score": 92283.95061728395, "slug": "tmux-controller", "source": "clawhub", "stars": 0, "tags": null, "updated_at": 1776748784773, "version": "1.0.0"}, {"category": "developer-tools", "created_at": 1773879432553, "description": "Reference tool for devtools — covers intro, quickstart, patterns and more. Quick lookup for Hashtag concepts, best practices, and implementation patterns.", "description_zh": "", "downloads": 299, "homepage": "https://clawhub.ai/xueyetianya/hashtag", "iconUrl": null, "installs": 4, "name": "Hashtag", "ownerName": "xueyetianya", "score": 93146.41744548286, "slug": "hashtag", "source": "clawhub", "stars": 0, "tags": null, "updated_at": 1776748784739, "version": "2.0.4"}, {"category": "security-compliance", "created_at": 1772797032809, "description": "Harden an OpenClaw Linux server with SSH key-only auth, UFW firewall, fail2ban brute-force protection, and credential permissions. Use when setting up a new...", "description_zh": "", "downloads": 299, "homepage": "https://clawhub.ai/ppiankov/server-host-hardening", "iconUrl": null, "installs": 5, "name": "Host Hardening", "ownerName": "ppiankov", "score": 93146.41744548286, "slug": "server-host-hardening", "source": "clawhub", "stars": 0, "tags": null, "updated_at": 1776748784526, "version": "1.0.0"}, {"category": "developer-tools", "created_at": 1772795461096, "description": "Query your Nova Net Worth financial data — net worth, accounts, holdings, goals, spending, transactions, AI insights, and health score. Use when the user ask...", "description_zh": "", "downloads": 299, "homepage": "https://clawhub.ai/jessewunderlich/nova-net-worth", "iconUrl": null, "installs": 7, "name": "Nova Net Worth", "ownerName": "jessewunderlich", "score": 65570.17543859649, "slug": "nova-net-worth", "source": "clawhub", "stars": 0, "tags": null, "updated_at": 1776748784283, "version": "1.3.1"}, {"category": "ai-intelligence", "created_at": 1773067794837, "description": "Professional AI agent team management system for coordinating multiple OpenClaw agents. Implements the proven Otter Camp methodology with task assignment, pr...", "description_zh": "", "downloads": 299, "homepage": "https://clawhub.ai/komong/ai-agent-team-manager", "iconUrl": null, "installs": 69, "name": "Agent-team-manager", "ownerName": "komong", "score": 93437.5, "slug": "ai-agent-team-manager", "source": "clawhub", "stars": 0, "tags": null, "updated_at": 1776748784160, "version": "1.0.0"}, {"category": "developer-tools", "created_at": 1773057516622, "description": "Search real flight prices and schedules from Google Flights via SearchAPI.io. Use when a user asks to find flights, check prices, compare options, or search...", "description_zh": "", "downloads": 299, "homepage": "https://clawhub.ai/galdayan/google-flights-search", "iconUrl": null, "installs": 6, "name": "Google Flights Search", "ownerName": "galdayan", "score": 89253.73134328358, "slug": "google-flights-search", "source": "clawhub", "stars": 0, "tags": null, "updated_at": 1776748783946, "version": "1.0.2"}, {"category": "ai-intelligence", "created_at": 1772798144305, "description": "Install OpenClaw skills from clawhub.ai ZIP files with automatic detection, validation, and Gateway updates. Supports file search, duplicate checking, and in...", "description_zh": "", "downloads": 299, "homepage": "https://clawhub.ai/otho2966-ai/skillinstall", "iconUrl": null, "installs": 15, "name": "skill_install", "ownerName": "otho2966-ai", "score": 80160.85790884719, "slug": "skillinstall", "source": "clawhub", "stars": 0, "tags": null, "updated_at": 1776748783757, "version": "1.0.0"}, {"category": "security-compliance", "created_at": 1772792816662, "description": "Helps audit transitive skill dependency chains in agent compositions — catching the class of risk where a skill's direct dependencies appear safe but a depen...", "description_zh": "", "downloads": 299, "homepage": "https://clawhub.ai/andyxinweiminicloud/skill-dependency-chain-auditor", "iconUrl": null, "installs": 14, "name": "Skill Dependency Chain Auditor", "ownerName": "andyxinweiminicloud", "score": 89789.7897897898, "slug": "skill-dependency-chain-auditor", "source": "clawhub", "stars": 0, "tags": null, "updated_at": 1776748783672, "version": "1.0.0"}, {"category": "ai-intelligence", "created_at": 1772797115471, "description": "Experience distillation engine that turns raw daily memory logs into compounding intelligence. Extracts patterns, generates briefings, tracks growth metrics,...", "description_zh": "", "downloads": 299, "homepage": "https://clawhub.ai/cassh100k/compound-mind", "iconUrl": null, "installs": 13, "name": "CompoundMind", "ownerName": "cassh100k", "score": 58858.267716535425, "slug": "compound-mind", "source": "clawhub", "stars": 0, "tags": ["agents", "intelligence", "learning", "memory"], "updated_at": 1776748783653, "version": "0.1.0"}, {"category": "security-compliance", "created_at": 1773064645571, "description": "Generate complete fullstack apps with React/Vue/Next frontend, Node/Python backend, PostgreSQL/MongoDB, Docker, CI/CD, auth, REST/GraphQL APIs.", "description_zh": "", "downloads": 298, "homepage": "https://clawhub.ai/sunshine-del-ux/openclaw-fullstack-app", "iconUrl": null, "installs": 37, "name": "Openclaw Fullstack App", "ownerName": "sunshine-del-ux", "score": 2070.7386561045096, "slug": "openclaw-fullstack-app", "source": "clawhub", "stars": 0, "tags": null, "updated_at": 1776767349944, "version": "1.0.0"}, {"category": "productivity", "created_at": 1773951192845, "description": "Work with Obsidian vaults (plain Markdown notes) and automate via obsidian-cli.", "description_zh": "", "downloads": 298, "homepage": "https://clawhub.ai/nidhov01/nidhov01-obsidian", "iconUrl": null, "installs": 132, "name": "Obsidian", "ownerName": "nidhov01", "score": 6366.1610766930135, "slug": "nidhov01-obsidian", "source": "clawhub", "stars": 0, "tags": null, "updated_at": 1776763490495, "version": "1.0.0"}, {"category": "developer-tools", "created_at": 1772794174285, "description": "Affiche les stats Chess.com d'un joueur (rapid/blitz/bullet + puzzles) via l'API publique.", "description_zh": "", "downloads": 298, "homepage": "https://clawhub.ai/hugoramon/stats-profil-chess", "iconUrl": null, "installs": 4, "name": "The skill for chess player", "ownerName": "hugoramon", "score": 17962.628089210368, "slug": "stats-profil-chess", "source": "clawhub", "stars": 0, "tags": null, "updated_at": 1776759227646, "version": "1.0.0"}, {"category": "communication-collaboration", "created_at": 1772796594237, "description": "Control Kite AI chain-wallet via Telegram using OpenClaw for wallet creation, balance checks, transfers, session keys, and spending limits without running a...", "description_zh": "", "downloads": 298, "homepage": "https://clawhub.ai/nihaovand/kite-agent-smart-wallet-v3", "iconUrl": null, "installs": 7, "name": "Kite Agent Smart Wallet V3", "ownerName": "nihaovand", "score": 18920.634920634922, "slug": "kite-agent-smart-wallet-v3", "source": "clawhub", "stars": 0, "tags": null, "updated_at": 1776759227615, "version": "3.0.2"}, {"category": "security-compliance", "created_at": 1772794762853, "description": "Provides wage determination lookups, certified payroll compliance, classification conformance, violation risk assessments, and apprenticeship tracking for fe...", "description_zh": "", "downloads": 298, "homepage": "https://clawhub.ai/1kalin/afrexai-davis-bacon", "iconUrl": null, "installs": 9, "name": "Davis-Bacon Prevailing Wage Compliance", "ownerName": "1kalin", "score": 18920.634920634922, "slug": "afrexai-davis-bacon", "source": "clawhub", "stars": 0, "tags": ["certified-payroll", "compliance", "construction", "davis-bacon", "dol", "federal", "iija", "ira", "prevailing-wage"], "updated_at": 1776759227595, "version": "1.0.0"}]}