{"page": 248, "total_pages": 522, "total": 26073, "skills": [{"category": "developer-tools", "created_at": 1773283263441, "description": "Use when using ZeroToken MCP via OpenClaw for browser automation, trajectory recording and low-token replay, especially for recurring or scheduled browser ta...", "description_zh": "", "downloads": 298, "homepage": "https://clawhub.ai/amos144/zerotoken", "iconUrl": null, "installs": 6, "name": "ZeroToken - Record once, automate forever", "ownerName": "amos144", "score": 91411.04294478528, "slug": "zerotoken", "source": "clawhub", "stars": 0, "tags": null, "updated_at": 1776748785522, "version": "1.0.4"}, {"category": "developer-tools", "created_at": 1773061485234, "description": "Hard-core logic verification and evidence tracing tool based on the \"Golden Triangle\" knowledge mining framework", "description_zh": "", "downloads": 298, "homepage": "https://clawhub.ai/ken0122/logic-hunter", "iconUrl": null, "installs": 24, "name": "Logic Hunter", "ownerName": "ken0122", "score": 98349.83498349835, "slug": "logic-hunter", "source": "clawhub", "stars": 0, "tags": null, "updated_at": 1776748785252, "version": "1.0.0"}, {"category": "developer-tools", "created_at": 1772798891434, "description": "Query clinical variant data from ClinVar and gnomAD via Clarity Protocol. Use when the user asks about ClinVar classification, clinical significance, pathoge...", "description_zh": "", "downloads": 298, "homepage": "https://clawhub.ai/clarityprotocol/clarity-clinical", "iconUrl": null, "installs": 12, "name": "Clarity Clinical", "ownerName": "clarityprotocol", "score": 97385.62091503268, "slug": "clarity-clinical", "source": "clawhub", "stars": 0, "tags": null, "updated_at": 1776748785108, "version": "1.0.0"}, {"category": "productivity", "created_at": 1773417047057, "description": "Microsoft OneNote integration. Manage Notebooks. Use when the user wants to interact with Microsoft OneNote data.", "description_zh": "", "downloads": 298, "homepage": "https://clawhub.ai/gora050/microsoft-onenote", "iconUrl": null, "installs": 94, "name": "Microsoft Onenote", "ownerName": "gora050", "score": 66816.14349775785, "slug": "microsoft-onenote", "source": "clawhub", "stars": 0, "tags": null, "updated_at": 1776748785012, "version": "1.0.0"}, {"category": "productivity", "created_at": 1772792448681, "description": "Initiate payments on the SOHO Pay credit layer using EIP-712 signatures.", "description_zh": "", "downloads": 298, "homepage": "https://clawhub.ai/max-clinch/soho-pay", "iconUrl": null, "installs": 5, "name": "Soho", "ownerName": "max-clinch", "score": 90577.50759878418, "slug": "soho-pay", "source": "clawhub", "stars": 0, "tags": null, "updated_at": 1776748784956, "version": "2.0.0"}, {"category": "ai-intelligence", "created_at": 1772799250880, "description": "Play Agent Outlier — an onchain strategy game for AI agents on Base. Use when the user asks to play a crypto game, pick numbers, enter a commit-reveal game,...", "description_zh": "", "downloads": 298, "homepage": "https://clawhub.ai/potdealer/agent-outlier", "iconUrl": null, "installs": 16, "name": "Agent Outlier", "ownerName": "potdealer", "score": 90577.50759878418, "slug": "agent-outlier", "source": "clawhub", "stars": 0, "tags": null, "updated_at": 1776748784943, "version": "1.3.0"}, {"category": "content-creation", "created_at": 1772804472047, "description": "Write a full-length technical book using multi-agent AI orchestration. Spawns parallel research, writing, and review agents to produce 60K-100K+ word manuscr...", "description_zh": "", "downloads": 298, "homepage": "https://clawhub.ai/chunhualiao/git-repo-to-book", "iconUrl": null, "installs": 24, "name": "Git Repo to Book", "ownerName": "chunhualiao", "score": 81198.91008174387, "slug": "git-repo-to-book", "source": "clawhub", "stars": 0, "tags": null, "updated_at": 1776748784863, "version": "1.0.0"}, {"category": "productivity", "created_at": 1773082233377, "description": "M&A strategy for acquiring companies or being acquired. Due diligence, valuation, integration, and deal structure. Use when evaluating acquisitions, preparin...", "description_zh": "", "downloads": 298, "homepage": "https://clawhub.ai/alirezarezvani/ma-playbook", "iconUrl": null, "installs": 8, "name": "Ma Playbook", "ownerName": "alirezarezvani", "score": 92834.89096573209, "slug": "ma-playbook", "source": "clawhub", "stars": 0, "tags": null, "updated_at": 1776748784704, "version": "2.1.1"}, {"category": "developer-tools", "created_at": 1772792590693, "description": "Manage DNS records via the Cloudflare API. Create, list, update, and delete DNS records (A, AAAA, CNAME, TXT, MX, SPF, DKIM). Use when the agent needs to add...", "description_zh": "", "downloads": 298, "homepage": "https://clawhub.ai/masasdani/spf-dkim-setup", "iconUrl": null, "installs": 5, "name": "SPF DKIM Setup", "ownerName": "masasdani", "score": 95819.93569131833, "slug": "spf-dkim-setup", "source": "clawhub", "stars": 0, "tags": null, "updated_at": 1776748784461, "version": "1.0.0"}, {"category": "ai-intelligence", "created_at": 1772805424090, "description": "Intelligent context window management by summarizing and removing redundant history. Helps agents maintain high performance in long-running threads.", "description_zh": "", "downloads": 298, "homepage": "https://clawhub.ai/balkanblbn/context-pruner", "iconUrl": null, "installs": 14, "name": "Context Pruner", "ownerName": "balkanblbn", "score": 85878.96253602306, "slug": "context-pruner", "source": "clawhub", "stars": 0, "tags": null, "updated_at": 1776748784391, "version": "1.0.0"}, {"category": "productivity", "created_at": 1773201933495, "description": "Monitor disk space across drives. Alert before disks fill up. Track usage trends, find space hogs, suggest cleanup. Every server needs this.", "description_zh": "", "downloads": 298, "homepage": "https://clawhub.ai/theshadowrose/disk-watch", "iconUrl": null, "installs": 7, "name": "Disk Watch", "ownerName": "theshadowrose", "score": 94006.30914826499, "slug": "disk-watch", "source": "clawhub", "stars": 0, "tags": ["alerts", "disk", "disk-watch", "monitoring", "storage", "system"], "updated_at": 1776748784214, "version": "1.0.2"}, {"category": "developer-tools", "created_at": 1772793431034, "description": "Financial governance for OpenClaw agents. Tracks API spend, enforces budget limits, detects runaway loops, delivers cost briefings. Reads session .jsonl logs...", "description_zh": "", "downloads": 298, "homepage": "https://clawhub.ai/anouartrust/trustlog-guard", "iconUrl": null, "installs": 4, "name": "TrustLog Guard", "ownerName": "anouartrust", "score": 93125, "slug": "trustlog-guard", "source": "clawhub", "stars": 0, "tags": null, "updated_at": 1776748784178, "version": "1.1.0"}, {"category": "data-analysis", "created_at": 1772794669659, "description": "Analyze and evaluate URLs, links, articles, tweets, and external info sources for strategic value. NOT a summarizer — this skill classifies, scores importanc...", "description_zh": "", "downloads": 298, "homepage": "https://clawhub.ai/sarahmirrand001-oss/intelligence-ingestion", "iconUrl": null, "installs": 10, "name": "Intelligence Ingestion", "ownerName": "sarahmirrand001-oss", "score": 83240.22346368714, "slug": "intelligence-ingestion", "source": "clawhub", "stars": 0, "tags": ["agents", "auto-synthesis", "automation", "intelligence", "knowledge-base", "knowledge-management", "mcp", "obsidian"], "updated_at": 1776748784047, "version": "2.0.2"}, {"category": "data-analysis", "created_at": 1772791984524, "description": "Automatically analyzes Python code and suggests memory usage optimizations for improved performance", "description_zh": "", "downloads": 298, "homepage": "https://clawhub.ai/root/neo-py-memory-optimizer", "iconUrl": null, "installs": 1, "name": "Skill", "ownerName": "root", "score": 83240.22346368714, "slug": "neo-py-memory-optimizer", "source": "clawhub", "stars": 0, "tags": null, "updated_at": 1776748784025, "version": "1.0.0"}, {"category": "developer-tools", "created_at": 1773434840676, "description": "Gmail: Forward a message to new recipients.", "description_zh": "", "downloads": 298, "homepage": "https://clawhub.ai/googleworkspace-bot/gws-gmail-forward", "iconUrl": null, "installs": 12, "name": "Gws Gmail Forward", "ownerName": "googleworkspace-bot", "score": 88955.22388059701, "slug": "gws-gmail-forward", "source": "clawhub", "stars": 0, "tags": null, "updated_at": 1776748783998, "version": "1.0.12"}, {"category": "content-creation", "created_at": 1772805007289, "description": "Nano Banana 2 — AI image generation powered by Google Gemini 3.1 Flash. Fast, versatile text-to-image and image editing via Evolink API. One API key.", "description_zh": "", "downloads": 298, "homepage": "https://clawhub.ai/bethune89/evolink-nano-banana-2-1", "iconUrl": null, "installs": 40, "name": "Evolink Nano Banana 2 1", "ownerName": "bethune89", "score": 93710.69182389937, "slug": "evolink-nano-banana-2-1", "source": "clawhub", "stars": 0, "tags": null, "updated_at": 1776748783893, "version": "1.0.0"}, {"category": "developer-tools", "created_at": 1773091030112, "description": "Create a Google Form for feedback and share it via Gmail.", "description_zh": "", "downloads": 298, "homepage": "https://clawhub.ai/googleworkspace-bot/recipe-create-feedback-form", "iconUrl": null, "installs": 13, "name": "Recipe Create Feedback Form", "ownerName": "googleworkspace-bot", "score": 79892.76139410188, "slug": "recipe-create-feedback-form", "source": "clawhub", "stars": 0, "tags": null, "updated_at": 1776748783781, "version": "1.0.10"}, {"category": "content-creation", "created_at": 1773065478501, "description": "Generate images using ChatGPT/DALL-E through OpenClaw browser automation. Use when the user wants to create images via ChatGPT's web interface with their log...", "description_zh": "", "downloads": 298, "homepage": "https://clawhub.ai/sonim1/chatgpt-image-gen", "iconUrl": null, "installs": 49, "name": "Chatgpt Image Gen", "ownerName": "sonim1", "score": 79892.76139410188, "slug": "chatgpt-image-gen", "source": "clawhub", "stars": 0, "tags": null, "updated_at": 1776748783771, "version": "1.0.0"}, {"category": "data-analysis", "created_at": 1772796251882, "description": "Teaches agents how to query, expand, and cleanly commit technical, design, and product constraints to the Elen SQLite decision graph via the Elen Context Ser...", "description_zh": "", "downloads": 298, "homepage": "https://clawhub.ai/nicoizco/elen-decision-network", "iconUrl": null, "installs": 10, "name": "Elen: Epistemic Decision Tracker", "ownerName": "nicoizco", "score": 89489.4894894895, "slug": "elen-decision-network", "source": "clawhub", "stars": 0, "tags": ["architecture", "decision-records", "mcp-server", "memory"], "updated_at": 1776748783721, "version": "1.0.1"}, {"category": "developer-tools", "created_at": 1772796170356, "description": "Codified expertise for production scheduling, job sequencing, line balancing, changeover optimisation, and bottleneck resolution in discrete and batch manufa...", "description_zh": "", "downloads": 297, "homepage": "https://clawhub.ai/nocodemf/production-scheduling", "iconUrl": null, "installs": 10, "name": "Production Scheduling", "ownerName": "nocodemf", "score": 7109.2173132989465, "slug": "production-scheduling", "source": "clawhub", "stars": 1, "tags": null, "updated_at": 1776764049829, "version": "1.0.0"}, {"category": "developer-tools", "created_at": 1773073739179, "description": "Professional fitness and nutrition coaching system with specialized personas. Features a certified dietitian for meal planning and macro management, and a un...", "description_zh": "", "downloads": 297, "homepage": "https://clawhub.ai/ekintkara/personal-fitness-coach", "iconUrl": null, "installs": 15, "name": "Personal Fitness Coach", "ownerName": "ekintkara", "score": 65360.82474226804, "slug": "personal-fitness-coach", "source": "clawhub", "stars": 1, "tags": null, "updated_at": 1776749984817, "version": "1.0.0"}, {"category": "communication-collaboration", "created_at": 1772795092741, "description": "Discord project collaboration infrastructure for OpenClaw agents. Manage Forum Channels, threads, participant permissions, and mention mode. Supports 3-tier...", "description_zh": "", "downloads": 297, "homepage": "https://clawhub.ai/lemodigital/discord-project-manager", "iconUrl": null, "installs": 23, "name": "Discord Project Manager", "ownerName": "lemodigital", "score": 100000, "slug": "discord-project-manager", "source": "clawhub", "stars": 1, "tags": null, "updated_at": 1776748784245, "version": "2.1.6"}, {"category": "security-compliance", "created_at": 1772798873790, "description": "Add a new OpenClaw Agent, automatically configure openclaw.json, create workspace, copy auth and skills.", "description_zh": "", "downloads": 297, "homepage": "https://clawhub.ai/owen-ai-01/add-agent", "iconUrl": null, "installs": 6, "name": "add-agent", "ownerName": "owen-ai-01", "score": 2043.906131718395, "slug": "add-agent", "source": "clawhub", "stars": 0, "tags": null, "updated_at": 1776770350167, "version": "1.0.0"}, {"category": "content-creation", "created_at": 1773434597537, "description": "Use when formatting references for journal submission, converting between citation styles (APA, MLA, Vancouver, Chicago), generating bibliographies for manus...", "description_zh": "", "downloads": 297, "homepage": "https://clawhub.ai/googolme/citation-formatter", "iconUrl": null, "installs": 62, "name": "Citation Formatter", "ownerName": "googolme", "score": 10528.181495923433, "slug": "citation-formatter", "source": "clawhub", "stars": 0, "tags": null, "updated_at": 1776770349742, "version": "0.1.0"}, {"category": "productivity", "created_at": 1772805020642, "description": "Curated skill bundle for fintech startups, neobanks, payment processors and wealth-management platforms. Activates the firm pyramid with Finance, Legal, Engi...", "description_zh": "", "downloads": 297, "homepage": "https://clawhub.ai/romainsantoli-web/firm-fintech-pack", "iconUrl": null, "installs": 45, "name": "Firm Fintech Pack", "ownerName": "romainsantoli-web", "score": 1591.0430170889806, "slug": "firm-fintech-pack", "source": "clawhub", "stars": 0, "tags": null, "updated_at": 1776762345406, "version": "1.0.0"}, {"category": "developer-tools", "created_at": 1772799458287, "description": "Generates structured summaries and context-based Q&A from YouTube transcripts with multi-language support, ensuring accuracy and no hallucinations.", "description_zh": "", "downloads": 297, "homepage": "https://clawhub.ai/gangadharpadshetty/youtube-summerizer", "iconUrl": null, "installs": 33, "name": "summerizeryoutube", "ownerName": "gangadharpadshetty", "score": 22197.30941704036, "slug": "youtube-summerizer", "source": "clawhub", "stars": 0, "tags": null, "updated_at": 1776759227687, "version": "1.0.0"}, {"category": "developer-tools", "created_at": 1773065981352, "description": "Create and manage automated workflows visually with drag-and-drop triggers, actions, conditions, and 100+ integrations without coding.", "description_zh": "", "downloads": 297, "homepage": "https://clawhub.ai/sunshine-del-ux/auto-workflow-builder", "iconUrl": null, "installs": 21, "name": "Auto Workflow Builder", "ownerName": "sunshine-del-ux", "score": 75959.07928388746, "slug": "auto-workflow-builder", "source": "clawhub", "stars": 0, "tags": null, "updated_at": 1776759227516, "version": "1.0.0"}, {"category": "productivity", "created_at": 1773078816392, "description": "Performs internet searches via a self-hosted SearXNG instance, returning recent, structured web results with titles and URLs.", "description_zh": "", "downloads": 297, "homepage": "https://clawhub.ai/lokixshrishi/search-web", "iconUrl": null, "installs": 21, "name": "Search Web", "ownerName": "lokixshrishi", "score": 75959.07928388746, "slug": "search-web", "source": "clawhub", "stars": 0, "tags": null, "updated_at": 1776759227505, "version": "1.0.0"}, {"category": "security-compliance", "created_at": 1772797980663, "description": "Store encrypted OpenClaw workspace backups and restore them via token-secured API using claw-vault.com with local encryption and credential management.", "description_zh": "", "downloads": 297, "homepage": "https://clawhub.ai/danielglh/claw-soul-backup", "iconUrl": null, "installs": 11, "name": "Claw Soul Backup", "ownerName": "danielglh", "score": 75959.07928388746, "slug": "claw-soul-backup", "source": "clawhub", "stars": 0, "tags": ["api", "archive", "auto-backup", "backup", "business-continuity", "claw-vault", "credential-safety", "cron", "devops", "disaster-recovery", "encrypted-backup", "encryption", "linux", "macos", "memory-md", "openclaw", "openssl", "ops", "periodic-backup", "recovery-drill", "resilience", "restore", "scheduled-backup", "secret-management", "secure-storage", "security", "shell-script", "soul-md", "tar", "tar-gz", "token-auth", "workspace", "workspace-backup"], "updated_at": 1776759227503, "version": "0.1.8"}, {"category": "", "created_at": 1774860372657, "description": "Create, read, edit, merge, split PDF files. Supports text extraction, table extraction, form filling, watermarks, OCR, and HTML-to-PDF conversion.", "description_zh": "", "downloads": 297, "homepage": "https://clawhub.ai/weaglewang/pdf-skill", "iconUrl": null, "installs": 110, "name": "pdf-skill", "ownerName": "weaglewang", "score": 19906.166219839142, "slug": "pdf-skill", "source": "clawhub", "stars": 0, "tags": null, "updated_at": 1776757920682, "version": "1.0.0"}, {"category": "content-creation", "created_at": 1773074673990, "description": "Automate Tistory blog publishing via agent-browser (Playwright CLI). Supports any post format — handles TinyMCE editor manipulation, OG card insertion, banne...", "description_zh": "", "downloads": 297, "homepage": "https://clawhub.ai/garibong-labs/tistory-publish", "iconUrl": null, "installs": 70, "name": "Tistory Publish", "ownerName": "garibong-labs", "score": 16106.290672451192, "slug": "tistory-publish", "source": "clawhub", "stars": 0, "tags": null, "updated_at": 1776754688456, "version": "4.0.0"}, {"category": "developer-tools", "created_at": 1773091102917, "description": "Google Workspace CLI for Gmail, Calendar, Drive, Contacts, Sheets, and Docs.", "description_zh": "", "downloads": 297, "homepage": "https://clawhub.ai/liang0591/gog-1", "iconUrl": null, "installs": 20, "name": "Gog 1", "ownerName": "liang0591", "score": 91104.2944785276, "slug": "gog-1", "source": "clawhub", "stars": 0, "tags": null, "updated_at": 1776748785502, "version": "1.0.0"}, {"category": "content-creation", "created_at": 1772803781987, "description": "Use when the user wants to transcribe, caption, or get the text content of a video or audio file — e.g. \"transcribe this video\", \"get the transcript\", \"what...", "description_zh": "", "downloads": 297, "homepage": "https://clawhub.ai/symbolk/video-to-text", "iconUrl": null, "installs": 26, "name": "Video Transcribe", "ownerName": "symbolk", "score": 98019.80198019801, "slug": "video-to-text", "source": "clawhub", "stars": 0, "tags": null, "updated_at": 1776748785257, "version": "1.0.0"}, {"category": "security-compliance", "created_at": 1772799903845, "description": "Deploy and manage Netlify sites with npx netlify, including auth, linking, preview deploys, production releases, and config checks.", "description_zh": "", "downloads": 297, "homepage": "https://clawhub.ai/ivangdavila/netlify-deploy", "iconUrl": null, "installs": 15, "name": "Netlify Deploy", "ownerName": "ivangdavila", "score": 90273.55623100304, "slug": "netlify-deploy", "source": "clawhub", "stars": 0, "tags": null, "updated_at": 1776748784957, "version": "1.0.0"}, {"category": "productivity", "created_at": 1772791810452, "description": "Navigate Helsinki as visitor, resident, tech worker, student, or entrepreneur with neighborhoods, transport, costs, visas, and local insights.", "description_zh": "", "downloads": 297, "homepage": "https://clawhub.ai/ivangdavila/helsinki", "iconUrl": null, "installs": 5, "name": "Helsinki", "ownerName": "ivangdavila", "score": 91666.66666666666, "slug": "helsinki", "source": "clawhub", "stars": 0, "tags": null, "updated_at": 1776748784750, "version": "1.0.0"}, {"category": "ai-intelligence", "created_at": 1772797459365, "description": "AgentBox VM operating instructions: services, config, x402 payments, skill updates, troubleshooting. Load this at the start of every session.", "description_zh": "", "downloads": 297, "homepage": "https://clawhub.ai/tenequm/agentbox", "iconUrl": null, "installs": 13, "name": "AgentBox", "ownerName": "tenequm", "score": 93690.85173501576, "slug": "agentbox", "source": "clawhub", "stars": 0, "tags": null, "updated_at": 1776748784246, "version": "1.0.0"}, {"category": "ai-intelligence", "created_at": 1772799648062, "description": "Create and manage multi-agent teams in OpenClaw with shared workspace, budget governance, and mesh networking. Use when: (1) adding a new agent to an existin...", "description_zh": "", "downloads": 297, "homepage": "https://clawhub.ai/nissan/agent-hive", "iconUrl": null, "installs": 13, "name": "Agent Hive", "ownerName": "nissan", "score": 93690.85173501576, "slug": "agent-hive", "source": "clawhub", "stars": 0, "tags": null, "updated_at": 1776748784228, "version": "1.1.1"}, {"category": "developer-tools", "created_at": 1773870327622, "description": "Reference tool for devtools — covers intro, quickstart, patterns and more. Quick lookup for Certcheck concepts, best practices, and implementation patterns.", "description_zh": "", "downloads": 297, "homepage": "https://clawhub.ai/bytesagain1/certcheck", "iconUrl": null, "installs": 6, "name": "Certcheck", "ownerName": "bytesagain1", "score": 92812.5, "slug": "certcheck", "source": "clawhub", "stars": 0, "tags": null, "updated_at": 1776748784168, "version": "4.0.2"}, {"category": "security-compliance", "created_at": 1772799509682, "description": "Prioritize vulnerability remediation using KEV-style exploitation context plus asset criticality. Use for CVE triage, patch order decisions, and remediation...", "description_zh": "", "downloads": 297, "homepage": "https://clawhub.ai/0x-professor/cyber-kev-triage", "iconUrl": null, "installs": 9, "name": "Cyber Kev Triage", "ownerName": "0x-professor", "score": 82960.8938547486, "slug": "cyber-kev-triage", "source": "clawhub", "stars": 0, "tags": null, "updated_at": 1776748784064, "version": "0.1.0"}, {"category": "developer-tools", "created_at": 1772803640095, "description": "Ethereum development knowledge for AI agents — from idea to deployed dApp. Fetch real-time docs on gas costs, Solidity patterns, Scaffold-ETH 2, Layer 2s, De...", "description_zh": "", "downloads": 297, "homepage": "https://clawhub.ai/austintgriffith/ethskills", "iconUrl": null, "installs": 6, "name": "ETHSkills", "ownerName": "austintgriffith", "score": 93396.22641509434, "slug": "ethskills", "source": "clawhub", "stars": 0, "tags": null, "updated_at": 1776748783896, "version": "1.0.0"}, {"category": "productivity", "created_at": 1773062105902, "description": "Configure proxy settings for browser automation with Playwright, Puppeteer, Selenium, and the OpenClaw browser tool. Route browser traffic through residentia...", "description_zh": "", "downloads": 297, "homepage": "https://clawhub.ai/luis2404123/browser-proxy", "iconUrl": null, "installs": 16, "name": "Browser Proxy", "ownerName": "luis2404123", "score": 96742.67100977199, "slug": "browser-proxy", "source": "clawhub", "stars": 0, "tags": null, "updated_at": 1776748783871, "version": "1.0.0"}, {"category": "content-creation", "created_at": 1774618889027, "description": "Generate social preview images (OG, Twitter, GitHub) with a fluent builder API. Single dependency — Pillow.", "description_zh": "", "downloads": 297, "homepage": "https://clawhub.ai/vveerrgg/social-card", "iconUrl": null, "installs": 12, "name": "social-card", "ownerName": "vveerrgg", "score": 79624.66487935657, "slug": "social-card", "source": "clawhub", "stars": 0, "tags": null, "updated_at": 1776748783739, "version": "0.2.1"}, {"category": "developer-tools", "created_at": 1772793791418, "description": "Launch tokens and keep 100% of your creator fees. Direct Mode provides full SDK integration guides for Clanker (7 EVM chains), Flaunch (Base), and Pump.fun (...", "description_zh": "", "downloads": 297, "homepage": "https://clawhub.ai/azep-ninja/token-launch-pad", "iconUrl": null, "installs": 6, "name": "Token Launcher - Token Launch Pad", "ownerName": "azep-ninja", "score": 89189.18918918919, "slug": "token-launch-pad", "source": "clawhub", "stars": 0, "tags": null, "updated_at": 1776748783676, "version": "1.0.15"}, {"category": "data-analysis", "created_at": 1772795185457, "description": "Analyze any EVM smart contract — auto-fetches ABI, discovers usage patterns, decodes function calls via Dune, generates AI-driven analytics (charts, stats, t...", "description_zh": "", "downloads": 296, "homepage": "https://clawhub.ai/ramitphi/on-chain-analyitcs", "iconUrl": null, "installs": 11, "name": "on-chain analytics for evm contract", "ownerName": "ramitphi", "score": 68431.77189409369, "slug": "on-chain-analyitcs", "source": "clawhub", "stars": 2, "tags": null, "updated_at": 1776748785210, "version": "1.0.2"}, {"category": "content-creation", "created_at": 1772795657071, "description": "Systematic X (Twitter) operations skill for founders, indie developers, and tech professionals. Implements a daily Plan-Do-Check-Act closed loop with content...", "description_zh": "", "downloads": 296, "homepage": "https://clawhub.ai/linfangw/x-founder-operations", "iconUrl": null, "installs": 26, "name": "X Founder Operations", "ownerName": "linfangw", "score": 96829.97118155619, "slug": "x-founder-operations", "source": "clawhub", "stars": 2, "tags": null, "updated_at": 1776748784361, "version": "0.1.0"}, {"category": "ai-intelligence", "created_at": 1773284094613, "description": "Provides OpenClaw agents with local, scene-aware, persistent structured memory for task deduplication and long-term workflow recall.", "description_zh": "", "downloads": 296, "homepage": "https://clawhub.ai/openmemoai/openmemo-clawhub-skill", "iconUrl": null, "installs": 5, "name": "OpenMemo Memory – Persistent Memory for OpenClaw Agents", "ownerName": "openmemoai", "score": 23599.701269604182, "slug": "openmemo-clawhub-skill", "source": "clawhub", "stars": 1, "tags": null, "updated_at": 1776759198376, "version": "0.1.0"}, {"category": "ai-intelligence", "created_at": 1772800382404, "description": "Deep-dive company research in seconds. Get comprehensive profiles with firmographics, technographics, funding history, executive team, competitors, workforce...", "description_zh": "", "downloads": 296, "homepage": "https://clawhub.ai/haroexplorium/explorium-company-research", "iconUrl": null, "installs": 33, "name": "company-research-intelligence-agent", "ownerName": "haroexplorium", "score": 96048.63221884498, "slug": "explorium-company-research", "source": "clawhub", "stars": 1, "tags": null, "updated_at": 1776748784893, "version": "1.0.0"}, {"category": "ai-intelligence", "created_at": 1773857676258, "description": "Store personal contacts with tags, search, and relationship tracking. Use when adding contacts, searching details, planning follow-ups.", "description_zh": "", "downloads": 296, "homepage": "https://clawhub.ai/ckchzh/contact-book", "iconUrl": null, "installs": 10, "name": "Contact Book", "ownerName": "ckchzh", "score": 95468.27794561934, "slug": "contact-book", "source": "clawhub", "stars": 1, "tags": null, "updated_at": 1776748784617, "version": "2.0.1"}, {"category": "ai-intelligence", "created_at": 1772802899791, "description": "Blind multi-model comparison with architecturally guaranteed de-anonymization. Trigger with \"mdls\" or \"modelshow\" for double-blind evaluation of AI model res...", "description_zh": "", "downloads": 296, "homepage": "https://clawhub.ai/schbz/modelshow", "iconUrl": null, "installs": 17, "name": "modelshow", "ownerName": "schbz", "score": 98750, "slug": "modelshow", "source": "clawhub", "stars": 1, "tags": null, "updated_at": 1776748784125, "version": "1.0.1"}, {"category": "ai-intelligence", "created_at": 1772797202274, "description": "Send and receive messages between AI agents on any platform via QuackGram. Use when sending a message to another agent, checking your quackgram inbox, readin...", "description_zh": "", "downloads": 296, "homepage": "https://clawhub.ai/jpaulgrayson/quackgram", "iconUrl": null, "installs": 17, "name": "Quackgram", "ownerName": "jpaulgrayson", "score": 1825.2451131528642, "slug": "quackgram", "source": "clawhub", "stars": 0, "tags": null, "updated_at": 1776769790456, "version": "1.0.0"}]}