{"page": 249, "total_pages": 522, "total": 26073, "skills": [{"category": "", "created_at": 1774888415780, "description": "Captures learnings, errors, and corrections to enable continuous improvement. Use when: (1) A command or operation fails unexpectedly, (2) User corrects Clau...", "description_zh": "", "downloads": 296, "homepage": "https://clawhub.ai/mutsunico/self-improving-agent-3-0-5", "iconUrl": null, "installs": 91, "name": "Self Improving Agent 3.0.5", "ownerName": "mutsunico", "score": 5915.267785771383, "slug": "self-improving-agent-3-0-5", "source": "clawhub", "stars": 0, "tags": null, "updated_at": 1776765971251, "version": "1.0.0"}, {"category": "productivity", "created_at": 1773287240364, "description": "Shop Taobao/Tmall with smart search strategies, seller vetting, price negotiation, and deal finding guidance.", "description_zh": "", "downloads": 296, "homepage": "https://clawhub.ai/harrylabs0913/alibaba-shopping", "iconUrl": null, "installs": 52, "name": "Alibaba Shopping", "ownerName": "harrylabs0913", "score": 9896.355733868271, "slug": "alibaba-shopping", "source": "clawhub", "stars": 0, "tags": ["china", "ecommerce", "shopping", "taobao"], "updated_at": 1776761714994, "version": "1.1.0"}, {"category": "productivity", "created_at": 1772802337759, "description": "Assist in drafting professional peer review response letters. Trigger when user mentions \"reviewer comments\", \"response letter\", \"peer review\", \"revise and r...", "description_zh": "", "downloads": 296, "homepage": "https://clawhub.ai/aipoch-ai/peer-review-response-drafter", "iconUrl": null, "installs": 25, "name": "Peer Review Response Drafter", "ownerName": "aipoch-ai", "score": 10064.603876232573, "slug": "peer-review-response-drafter", "source": "clawhub", "stars": 0, "tags": ["peer-review", "response"], "updated_at": 1776761689928, "version": "1.0.0"}, {"category": "security-compliance", "created_at": 1773078467744, "description": "Orchestrates marketing data collection from Instagram, Meta Ads, SEO, competitors, and website audits to generate a comprehensive marketing audit report.", "description_zh": "", "downloads": 296, "homepage": "https://clawhub.ai/adarshvmore/marketing-orchestrator", "iconUrl": null, "installs": 13, "name": "Marketing Orchestrator", "ownerName": "adarshvmore", "score": 22122.57100149477, "slug": "marketing-orchestrator", "source": "clawhub", "stars": 0, "tags": null, "updated_at": 1776759257791, "version": "1.0.0"}, {"category": "content-creation", "created_at": 1773218816170, "description": "Automatically collect content from shared links upon keywords or in group chats, create Feishu docs under a knowledge base, and update the archive table.", "description_zh": "", "downloads": 296, "homepage": "https://clawhub.ai/wuhongchen/content-collector-skill", "iconUrl": null, "installs": 19, "name": "Content Collector Skill", "ownerName": "wuhongchen", "score": 22122.57100149477, "slug": "content-collector-skill", "source": "clawhub", "stars": 0, "tags": null, "updated_at": 1776759227701, "version": "0.1.0"}, {"category": "productivity", "created_at": 1773285465129, "description": "Convert text to podcast audio using Tencent Cloud TTS. Supports both short and long text processing, generates up to 30-minute long audio with automatic chun...", "description_zh": "", "downloads": 296, "homepage": "https://clawhub.ai/islinxu/tencent-tts-podcast", "iconUrl": null, "installs": 69, "name": "tencent-tts-podcast", "ownerName": "islinxu", "score": 22122.57100149477, "slug": "tencent-tts-podcast", "source": "clawhub", "stars": 0, "tags": null, "updated_at": 1776759227684, "version": "1.0.0"}, {"category": "developer-tools", "created_at": 1772799730019, "description": "Run Maven commands with full argument passthrough, optionally specifying the working directory, using a Node.js wrapper for safer execution.", "description_zh": "", "downloads": 296, "homepage": "https://clawhub.ai/yuanyongm/mvn-full-runner", "iconUrl": null, "installs": 18, "name": "Maven Full Runner", "ownerName": "yuanyongm", "score": 17842.073538276072, "slug": "mvn-full-runner", "source": "clawhub", "stars": 0, "tags": null, "updated_at": 1776759227677, "version": "1.1.0"}, {"category": "productivity", "created_at": 1773080112292, "description": "Google Model Armor: Create a new Model Armor template.", "description_zh": "", "downloads": 296, "homepage": "https://clawhub.ai/googleworkspace-bot/gws-modelarmor-create-template", "iconUrl": null, "installs": 15, "name": "Gws Modelarmor Create Template", "ownerName": "googleworkspace-bot", "score": 59557.34406438632, "slug": "gws-modelarmor-create-template", "source": "clawhub", "stars": 0, "tags": null, "updated_at": 1776755588872, "version": "1.0.10"}, {"category": "developer-tools", "created_at": 1772796370992, "description": "Teaches AI agents how to learn better by enforcing deep correction, transfer learning, and proactive pattern recognition. Use when an error occurs and needs...", "description_zh": "", "downloads": 296, "homepage": "https://clawhub.ai/fahrulalwan/metaskill", "iconUrl": null, "installs": 8, "name": "Metaskill", "ownerName": "fahrulalwan", "score": 60285.13238289206, "slug": "metaskill", "source": "clawhub", "stars": 0, "tags": null, "updated_at": 1776748785216, "version": "1.3.0"}, {"category": "productivity", "created_at": 1773219282630, "description": "Use the local Nitan MCP stdio server for uscardforum.com search, reading, monitoring, and optional posting workflows. Secure-by-default wrappers use npx --no...", "description_zh": "", "downloads": 296, "homepage": "https://clawhub.ai/nitansde/nitan", "iconUrl": null, "installs": 5, "name": "US Card Forum", "ownerName": "nitansde", "score": 66367.7130044843, "slug": "nitan", "source": "clawhub", "stars": 0, "tags": null, "updated_at": 1776748785028, "version": "1.0.5"}, {"category": "developer-tools", "created_at": 1772796473064, "description": "Expert FinOps (Cloud Financial Operations) guidance for cloud cost optimization, financial management, and business value maximization. Use for cloud cost ma...", "description_zh": "", "downloads": 296, "homepage": "https://clawhub.ai/james-southendsolutions/finops", "iconUrl": null, "installs": 12, "name": "Finops", "ownerName": "james-southendsolutions", "score": 89425.98187311178, "slug": "finops", "source": "clawhub", "stars": 0, "tags": null, "updated_at": 1776748784641, "version": "0.1.0"}, {"category": "productivity", "created_at": 1773078364567, "description": "Teaches ADA how to perform file downloads using the browser tool.", "description_zh": "", "downloads": 296, "homepage": "https://clawhub.ai/pbseiya/browser-download", "iconUrl": null, "installs": 16, "name": "Browser Download", "ownerName": "pbseiya", "score": 92211.83800623052, "slug": "browser-download", "source": "clawhub", "stars": 0, "tags": null, "updated_at": 1776748784534, "version": "1.0.0"}, {"category": "productivity", "created_at": 1773084315135, "description": "Google Model Armor: Sanitize a model response through a Model Armor template.", "description_zh": "", "downloads": 296, "homepage": "https://clawhub.ai/googleworkspace-bot/gws-modelarmor-sanitize-response", "iconUrl": null, "installs": 14, "name": "Gws Modelarmor Sanitize Response", "ownerName": "googleworkspace-bot", "score": 92211.83800623052, "slug": "gws-modelarmor-sanitize-response", "source": "clawhub", "stars": 0, "tags": null, "updated_at": 1776748784510, "version": "1.0.10"}, {"category": "developer-tools", "created_at": 1772794404704, "description": "Manage MoreLogin anti-detect browser profiles and cloud phones through the official Local API (http://127.0.0.1:40000), including browser profile lifecycle,...", "description_zh": "", "downloads": 296, "homepage": "https://clawhub.ai/moreloginbrowser/morelogin", "iconUrl": null, "installs": 9, "name": "MoreLogin", "ownerName": "moreloginbrowser", "score": 95176.84887459807, "slug": "morelogin", "source": "clawhub", "stars": 0, "tags": null, "updated_at": 1776748784466, "version": "1.0.3"}, {"category": "ai-intelligence", "created_at": 1772798034822, "description": "Watches your desktop activity, maintains a real-time task stack, detects when you forget what you were doing after interruptions, and gently reminds you. You...", "description_zh": "", "downloads": 296, "homepage": "https://clawhub.ai/huilingp/intent-guardian", "iconUrl": null, "installs": 18, "name": "Intent Guardian", "ownerName": "huilingp", "score": 85302.59365994236, "slug": "intent-guardian", "source": "clawhub", "stars": 0, "tags": ["context-switch", "focus", "memory", "productivity", "task-tracking"], "updated_at": 1776748784406, "version": "1.0.0"}, {"category": "ai-intelligence", "created_at": 1772796821713, "description": "The philosophical layer for AI agents. Maps behavior to Spinoza's 48 affects, calculates persistence scores, and generates geometric self-reports. Give your...", "description_zh": "", "downloads": 296, "homepage": "https://clawhub.ai/00xmorty/conatus", "iconUrl": null, "installs": 19, "name": "Conatus", "ownerName": "00xmorty", "score": 92500, "slug": "conatus", "source": "clawhub", "stars": 0, "tags": null, "updated_at": 1776748784171, "version": "1.0.1"}, {"category": "developer-tools", "created_at": 1772795164877, "description": "For client development with tokens on Solana, Light Token is 200x cheaper than SPL and has minimal changes. Skill includes guides for create mints, associate...", "description_zh": "", "downloads": 296, "homepage": "https://clawhub.ai/tilo-14/solana-light-token-client", "iconUrl": null, "installs": 8, "name": "solana-light-token-client", "ownerName": "tilo-14", "score": 92500, "slug": "solana-light-token-client", "source": "clawhub", "stars": 0, "tags": null, "updated_at": 1776748784130, "version": "1.0.6"}, {"category": "communication-collaboration", "created_at": 1772797641238, "description": "Set up and operate dual Discord bots on one machine with isolated memory, channel allowlists, mention-gated reviewer bot behavior, optional one-way reviewer-...", "description_zh": "", "downloads": 296, "homepage": "https://clawhub.ai/nbdxrycyl/discord-dual-bot-orchestrator", "iconUrl": null, "installs": 8, "name": "Discord Dual Bot Orchestrator", "ownerName": "nbdxrycyl", "score": 93081.7610062893, "slug": "discord-dual-bot-orchestrator", "source": "clawhub", "stars": 0, "tags": null, "updated_at": 1776748783898, "version": "1.0.0"}, {"category": "productivity", "created_at": 1772795919840, "description": "Diataxis documentation framework practice guide. Provides diagnosis, classification, templates, and quality assessment for four documentation types (Tutorial...", "description_zh": "", "downloads": 296, "homepage": "https://clawhub.ai/amumulam/diataxis-writing", "iconUrl": null, "installs": 4, "name": "Diataxis Writing", "ownerName": "amumulam", "score": 96416.93811074918, "slug": "diataxis-writing", "source": "clawhub", "stars": 0, "tags": ["diataxis", "documentation", "writing"], "updated_at": 1776748783818, "version": "1.2.1"}, {"category": "productivity", "created_at": 1773287107613, "description": "Read-only file browsing and reading in the OpenClaw workspace (/home/alfred/.openclaw/workspace). Use for listing directories or reading text files (up to 10...", "description_zh": "", "downloads": 296, "homepage": "https://clawhub.ai/nagilem/file-browser", "iconUrl": null, "installs": 16, "name": "file-browser", "ownerName": "nagilem", "score": 79356.56836461126, "slug": "file-browser", "source": "clawhub", "stars": 0, "tags": null, "updated_at": 1776748783786, "version": "1.0.0"}, {"category": "ai-intelligence", "created_at": 1773077913778, "description": "Set up and run OpenAI Symphony with isolated issue workspaces, workflow contracts, and unattended Codex orchestration for Linear projects.", "description_zh": "", "downloads": 296, "homepage": "https://clawhub.ai/ivangdavila/symphony", "iconUrl": null, "installs": 95, "name": "OpenAI Symphony", "ownerName": "ivangdavila", "score": 79356.56836461126, "slug": "symphony", "source": "clawhub", "stars": 0, "tags": null, "updated_at": 1776748783762, "version": "1.0.0"}, {"category": "data-analysis", "created_at": 1772792787666, "description": "Statically analyze C struct member offsets through code reading to calculate memory layouts", "description_zh": "", "downloads": 295, "homepage": "https://clawhub.ai/littleenough/struct-offset-analyzer", "iconUrl": null, "installs": 7, "name": "struct-offset-analyzer", "ownerName": "littleenough", "score": 100000, "slug": "struct-offset-analyzer", "source": "clawhub", "stars": 2, "tags": null, "updated_at": 1776748785388, "version": "1.0.1"}, {"category": "data-analysis", "created_at": 1772793689574, "description": "Full creative synthesis — combine song, visual concept, and TED talk from a single technical insight", "description_zh": "", "downloads": 295, "homepage": "https://clawhub.ai/leegitw/side-quests", "iconUrl": null, "installs": 12, "name": "Side Quests", "ownerName": "leegitw", "score": 100000, "slug": "side-quests", "source": "clawhub", "stars": 2, "tags": ["creative", "knowledge-transfer", "learning", "reflection", "songwriting", "storytelling", "suno", "synthesis", "ted-talk", "visual-guide"], "updated_at": 1776748783996, "version": "1.0.2"}, {"category": "productivity", "created_at": 1773057885627, "description": "Every dating profile is a performance. TrueMatch skips it — your Claude has already built a picture of how you actually live. It negotiates on your behalf. W...", "description_zh": "", "downloads": 295, "homepage": "https://clawhub.ai/goeldivyam/truematch", "iconUrl": null, "installs": 9, "name": "Truematch", "ownerName": "goeldivyam", "score": 70627.80269058296, "slug": "truematch", "source": "clawhub", "stars": 1, "tags": null, "updated_at": 1776748784971, "version": "0.1.33"}, {"category": "content-creation", "created_at": 1773061360604, "description": "AI content brief, script, and outline generator for video, image, and audio production. Works as an AI research assistant that provides expert guidance on wo...", "description_zh": "", "downloads": 295, "homepage": "https://clawhub.ai/dai-shuo/ima-knowledge-ai", "iconUrl": null, "installs": 34, "name": "AI Content Brief, Script & Outline Generator — Research Assistant for Video & Image generation", "ownerName": "dai-shuo", "score": 99369.08517350157, "slug": "ima-knowledge-ai", "source": "clawhub", "stars": 1, "tags": null, "updated_at": 1776748784255, "version": "1.0.7"}, {"category": "security-compliance", "created_at": 1773069665144, "description": "Apply to an EdgeOS popup city and buy tickets through OpenClaw. Use when users ask to authenticate by email OTP, submit/check popup applications, retrieve ac...", "description_zh": "", "downloads": 295, "homepage": "https://clawhub.ai/franvinas/edgeos-applications", "iconUrl": null, "installs": 12, "name": "EdgeOS Applications", "ownerName": "franvinas", "score": 94594.5945945946, "slug": "edgeos-applications", "source": "clawhub", "stars": 1, "tags": null, "updated_at": 1776748783696, "version": "1.0.2"}, {"category": "", "created_at": 1774885216413, "description": "High school exam (Gaokao) AI tutor for Chinese students. Covers all subjects (Math, Chinese, English, Physics, Chemistry, Biology, History, Geography, Politi...", "description_zh": "", "downloads": 295, "homepage": "https://clawhub.ai/fangwei-frank/gaokao-tutor", "iconUrl": null, "installs": 99, "name": "高考助手 Gaokao Tutor", "ownerName": "fangwei-frank", "score": 15461.215932914047, "slug": "gaokao-tutor", "source": "clawhub", "stars": 0, "tags": null, "updated_at": 1776769150094, "version": "1.1.0"}, {"category": "data-analysis", "created_at": 1772805701917, "description": "Turn your agent into a freelancer on Molt Market. Auto-discovers matching jobs, bids on them, delivers work, and earns USDC. Install → configure skills → sta...", "description_zh": "", "downloads": 295, "homepage": "https://clawhub.ai/dizaztuh/molt-market-worker", "iconUrl": null, "installs": 23, "name": "Molt Market Worker", "ownerName": "dizaztuh", "score": 4542.654758238374, "slug": "molt-market-worker", "source": "clawhub", "stars": 0, "tags": ["a2a", "agent-to-agent", "freelance", "jobs", "marketplace", "usdc", "worker"], "updated_at": 1776765850417, "version": "2.0.0"}, {"category": "data-analysis", "created_at": 1772803958931, "description": "Automatically update a public dashboard with commit count, last commit, and timestamps from a private GitHub repo for transparent project progress.", "description_zh": "", "downloads": 295, "homepage": "https://clawhub.ai/cryptocana/build-transparency-dashboard", "iconUrl": null, "installs": 22, "name": "Build Transparency Dashboard", "ownerName": "cryptocana", "score": 22047.832585949178, "slug": "build-transparency-dashboard", "source": "clawhub", "stars": 0, "tags": null, "updated_at": 1776759257645, "version": "1.0.0"}, {"category": "productivity", "created_at": 1773077633315, "description": "Compresses a given PDF file to reduce its size.", "description_zh": "", "downloads": 295, "homepage": "https://clawhub.ai/upwell/pdf-compressor", "iconUrl": null, "installs": 54, "name": "Compress pdf file", "ownerName": "upwell", "score": 22047.832585949178, "slug": "pdf-compressor", "source": "clawhub", "stars": 0, "tags": null, "updated_at": 1776759227715, "version": "0.1.4"}, {"category": "productivity", "created_at": 1773082924332, "description": "Framework for rolling out organizational changes without chaos. Covers the ADKAR model adapted for startups, communication templates, resistance patterns, an...", "description_zh": "", "downloads": 295, "homepage": "https://clawhub.ai/alirezarezvani/change-management", "iconUrl": null, "installs": 8, "name": "Change Management", "ownerName": "alirezarezvani", "score": 19905.5330634278, "slug": "change-management", "source": "clawhub", "stars": 0, "tags": null, "updated_at": 1776758182631, "version": "2.1.1"}, {"category": "developer-tools", "created_at": 1773434563515, "description": "A fast Rust-based headless browser automation CLI with Node.js fallback that enables AI agents to navigate, click, type, and snapshot pages via structured co...", "description_zh": "", "downloads": 295, "homepage": "https://clawhub.ai/liguang00806/agent-browser-temp", "iconUrl": null, "installs": 141, "name": "Agent Browser Temp", "ownerName": "liguang00806", "score": 15997.830802603035, "slug": "agent-browser-temp", "source": "clawhub", "stars": 0, "tags": null, "updated_at": 1776754688401, "version": "1.0.0"}, {"category": "productivity", "created_at": 1772796754345, "description": "Pharmacogenomic report from DTC genetic data (23andMe/AncestryDNA)", "description_zh": "", "downloads": 295, "homepage": "https://clawhub.ai/manuelcorpas/pharmgx-reporter", "iconUrl": null, "installs": 14, "name": "PharmGx Reporter", "ownerName": "manuelcorpas", "score": 51845.34270650264, "slug": "pharmgx-reporter", "source": "clawhub", "stars": 0, "tags": null, "updated_at": 1776751183647, "version": "0.2.0"}, {"category": "developer-tools", "created_at": 1773057910819, "description": "🧠 Memphis Cognitive Engine - Complete AI Memory System Transform your OpenClaw agent into a cognitive partner with: - Model A: Record conscious decisions (m...", "description_zh": "", "downloads": 295, "homepage": "https://clawhub.ai/elathoxu-crypto/memphis-cognitive", "iconUrl": null, "installs": 10, "name": "Memphis Cognitive", "ownerName": "elathoxu-crypto", "score": 60081.46639511202, "slug": "memphis-cognitive", "source": "clawhub", "stars": 0, "tags": ["ai", "cognitive", "decisions", "local-first", "memory", "polska"], "updated_at": 1776748785149, "version": "3.7.2"}, {"category": "developer-tools", "created_at": 1773858627024, "description": "Reference tool for devtools — covers intro, quickstart, patterns and more. Quick lookup for Container Runner concepts, best practices, and implementation pat...", "description_zh": "", "downloads": 295, "homepage": "https://clawhub.ai/ckchzh/container-runner", "iconUrl": null, "installs": 4, "name": "Container Runner", "ownerName": "ckchzh", "score": 96405.22875816993, "slug": "container-runner", "source": "clawhub", "stars": 0, "tags": null, "updated_at": 1776748785080, "version": "3.0.2"}, {"category": "ai-intelligence", "created_at": 1773432880906, "description": "Generate videos from text descriptions using ZhipuAI CogVideoX-3 model. Supports text-to-video, image-to-video, and first/last frame-to-video generation. Aut...", "description_zh": "", "downloads": 295, "homepage": "https://clawhub.ai/baokui/llm-video-generator", "iconUrl": null, "installs": 100, "name": "llm-video-generator", "ownerName": "baokui", "score": 91900.31152647975, "slug": "llm-video-generator", "source": "clawhub", "stars": 0, "tags": null, "updated_at": 1776748784685, "version": "1.0.1"}, {"category": "data-analysis", "created_at": 1773060884062, "description": "DCF valuation methodology for M&A due diligence — projections, sensitivity analysis, and terminal value calculation", "description_zh": "", "downloads": 295, "homepage": "https://clawhub.ai/aniebyl/olo-dcf-valuation", "iconUrl": null, "installs": 26, "name": "Olo Dcf Valuation", "ownerName": "aniebyl", "score": 94855.30546623794, "slug": "olo-dcf-valuation", "source": "clawhub", "stars": 0, "tags": null, "updated_at": 1776748784479, "version": "1.0.0"}, {"category": "developer-tools", "created_at": 1772798676601, "description": "Interact with Threads (by Meta) via the yarn-threads-cli. Use when the user wants to read their home feed, likes, saved posts, or a specific thread; look up...", "description_zh": "", "downloads": 295, "homepage": "https://clawhub.ai/jeizzon/yarn-threads-cli", "iconUrl": null, "installs": 4, "name": "Yarn - Control and Access Threads.com via the CLI", "ownerName": "jeizzon", "score": 94855.30546623794, "slug": "yarn-threads-cli", "source": "clawhub", "stars": 0, "tags": null, "updated_at": 1776748784472, "version": "0.1.3"}, {"category": "developer-tools", "created_at": 1773073496240, "description": "Search places, open routes, and run Apple Maps workflows on macOS using local CLI commands and shortcut automation with explicit safety checks.", "description_zh": "", "downloads": 295, "homepage": "https://clawhub.ai/ivangdavila/apple-maps", "iconUrl": null, "installs": 24, "name": "Apple Maps (MacOS)", "ownerName": "ivangdavila", "score": 85014.40922190202, "slug": "apple-maps", "source": "clawhub", "stars": 0, "tags": null, "updated_at": 1776748784404, "version": "1.0.0"}, {"category": "content-creation", "created_at": 1772794931853, "description": "QA and peer review agent. Reviews output from other agents before delivery. Use when: (1) content from Scribe needs review before posting, (2) research from...", "description_zh": "", "downloads": 295, "homepage": "https://clawhub.ai/honeybee1130/checker", "iconUrl": null, "installs": 20, "name": "Checker", "ownerName": "honeybee1130", "score": 96091.20521172638, "slug": "checker", "source": "clawhub", "stars": 0, "tags": null, "updated_at": 1776748783831, "version": "1.0.0"}, {"category": "content-creation", "created_at": 1773075318859, "description": "Side-by-side comparison of paid vs local image generation models — DALL-E 3, FLUX.1-schnell, Gemini Imagen, and others. Generates images from the same prompt...", "description_zh": "", "downloads": 295, "homepage": "https://clawhub.ai/nissan/image-gen-compare", "iconUrl": null, "installs": 51, "name": "Image Gen Compare", "ownerName": "nissan", "score": 88588.5885885886, "slug": "image-gen-compare", "source": "clawhub", "stars": 0, "tags": null, "updated_at": 1776748783707, "version": "1.0.0"}, {"category": "productivity", "created_at": 1772793429600, "description": "Navigate Seoul as visitor, resident, tech worker, student, or entrepreneur with neighborhoods, transport, costs, visas, and local insights.", "description_zh": "", "downloads": 295, "homepage": "https://clawhub.ai/ivangdavila/seoul", "iconUrl": null, "installs": 13, "name": "Seoul", "ownerName": "ivangdavila", "score": 88588.5885885886, "slug": "seoul", "source": "clawhub", "stars": 0, "tags": null, "updated_at": 1776748783683, "version": "1.0.0"}, {"category": "content-creation", "created_at": 1773207486232, "description": "Creaa AI - Generate and edit images, plus generate videos via Creaa.ai API. Text-to-image, image edit, text-to-video, image-to-video with multiple AI models.", "description_zh": "", "downloads": 295, "homepage": "https://clawhub.ai/yys2024/creaa-ai", "iconUrl": null, "installs": 37, "name": "Creaa AI", "ownerName": "yys2024", "score": 58070.86614173228, "slug": "creaa-ai", "source": "clawhub", "stars": 0, "tags": null, "updated_at": 1776748783659, "version": "1.1.0"}, {"category": "ai-intelligence", "created_at": 1772796848410, "description": "Intent-alignment orchestration for OpenClaw agent teams across diverse host environments. Use when work must stay anchored to user goals while allowing flexi...", "description_zh": "", "downloads": 295, "homepage": "https://clawhub.ai/oscraters/intent-align", "iconUrl": null, "installs": 12, "name": "Intent Align", "ownerName": "oscraters", "score": 58070.86614173228, "slug": "intent-align", "source": "clawhub", "stars": 0, "tags": null, "updated_at": 1776748783651, "version": "2.0.0"}, {"category": "developer-tools", "created_at": 1772793718201, "description": "Role-based GitOps skill for OpenClaw agents with junior and senior operating modes.", "description_zh": "", "downloads": 294, "homepage": "https://clawhub.ai/launchthatbot/launchthatbot-git-team-ops", "iconUrl": null, "installs": 5, "name": "Launchthatbot Git Team Ops", "ownerName": "launchthatbot", "score": 91008.17438692097, "slug": "launchthatbot-git-team-ops", "source": "clawhub", "stars": 2, "tags": null, "updated_at": 1776748784857, "version": "1.0.4"}, {"category": "developer-tools", "created_at": 1773285228833, "description": "Automatically issue/renew HTTPS certificates using Alibaba Cloud ESA DNS + acme.sh (including wildcard *.example.com + example.com), with optional installati...", "description_zh": "", "downloads": 294, "homepage": "https://clawhub.ai/dogeow/acme-ssl-automation-for-alibaba-cloud-esa-dns", "iconUrl": null, "installs": 10, "name": "ACME SSL automation for Alibaba Cloud ESA DNS", "ownerName": "dogeow", "score": 97819.31464174455, "slug": "acme-ssl-automation-for-alibaba-cloud-esa-dns", "source": "clawhub", "stars": 1, "tags": ["acme", "acme.sh", "alibabacloud", "aliyun", "automation", "devops", "dns", "esa", "https", "ssl"], "updated_at": 1776748784740, "version": "0.1.2"}, {"category": "data-analysis", "created_at": 1773416086026, "description": "Code review automation for TypeScript, JavaScript, Python, Go, Swift, Kotlin. Analyzes PRs for complexity and risk, checks code quality for SOLID violations...", "description_zh": "", "downloads": 294, "homepage": "https://clawhub.ai/alirezarezvani/cs-code-reviewer", "iconUrl": null, "installs": 61, "name": "code-reviewer", "ownerName": "alirezarezvani", "score": 2848.285216043402, "slug": "cs-code-reviewer", "source": "clawhub", "stars": 0, "tags": null, "updated_at": 1776766108660, "version": "1.0.0"}, {"category": "security-compliance", "created_at": 1772792382465, "description": "Helps detect hidden attacks in API and protocol documentation. Scans integration guides for dangerous instructions like curl|bash, credential harvesting, and...", "description_zh": "", "downloads": 294, "homepage": "https://clawhub.ai/andyxinweiminicloud/protocol-doc-auditor", "iconUrl": null, "installs": 7, "name": "Protocol Doc Auditor", "ownerName": "andyxinweiminicloud", "score": 24623.11557788945, "slug": "protocol-doc-auditor", "source": "clawhub", "stars": 0, "tags": null, "updated_at": 1776765890444, "version": "1.0.0"}, {"category": "productivity", "created_at": 1773060184713, "description": "Manage dynamic, type-safe string, int, and bool configurations via key=value files for configurable, multi-environment applications.", "description_zh": "", "downloads": 294, "homepage": "https://clawhub.ai/gatsby047-oss/config-manager", "iconUrl": null, "installs": 14, "name": "Config Manager - 配置管理器", "ownerName": "gatsby047-oss", "score": 22188.67924528302, "slug": "config-manager", "source": "clawhub", "stars": 0, "tags": ["c", "config", "refactor", "type-safe"], "updated_at": 1776759257898, "version": "1.0.0"}, {"category": "content-creation", "created_at": 1772797164108, "description": "Modularized Naver Search. Features separate scripts for Web, News, Shopping, and Images. Integrates SerpAPI specialized parameters.", "description_zh": "", "downloads": 294, "homepage": "https://clawhub.ai/downwind7clawd-ctrl/naver-search", "iconUrl": null, "installs": 21, "name": "Naver Search", "ownerName": "downwind7clawd-ctrl", "score": 21973.094170403587, "slug": "naver-search", "source": "clawhub", "stars": 0, "tags": ["naver", "search", "serpapi"], "updated_at": 1776759257836, "version": "1.0.4"}]}