{"page": 250, "total_pages": 522, "total": 26073, "skills": [{"category": "security-compliance", "created_at": 1772797602340, "description": "Assist dental offices to optimize profits, maintain compliance, reduce no-shows, manage schedules, insurance, and operational benchmarks efficiently.", "description_zh": "", "downloads": 294, "homepage": "https://clawhub.ai/1kalin/afrexai-dental-practice", "iconUrl": null, "installs": 25, "name": "Dental Practice Operations", "ownerName": "1kalin", "score": 21989.52879581152, "slug": "afrexai-dental-practice", "source": "clawhub", "stars": 0, "tags": ["compliance", "dental", "hipaa", "operations", "osha", "practice"], "updated_at": 1776759257732, "version": "1.0.0"}, {"category": "content-creation", "created_at": 1772800790023, "description": "Remove visible Gemini AI watermarks from images via reverse alpha blending. Use for cleaning Gemini-generated images, removing the star/sparkle logo watermar...", "description_zh": "", "downloads": 294, "homepage": "https://clawhub.ai/h1bomb/gemini-watermark", "iconUrl": null, "installs": 43, "name": "Gemini Watermark", "ownerName": "h1bomb", "score": 17355.371900826445, "slug": "gemini-watermark", "source": "clawhub", "stars": 0, "tags": null, "updated_at": 1776756188259, "version": "2.1.0"}, {"category": "developer-tools", "created_at": 1773091219389, "description": "Create a Google Meet meeting space and share the join link.", "description_zh": "", "downloads": 294, "homepage": "https://clawhub.ai/googleworkspace-bot/recipe-create-meet-space", "iconUrl": null, "installs": 11, "name": "Recipe Create Meet Space", "ownerName": "googleworkspace-bot", "score": 50515.46391752577, "slug": "recipe-create-meet-space", "source": "clawhub", "stars": 0, "tags": null, "updated_at": 1776755588379, "version": "1.0.10"}, {"category": "productivity", "created_at": 1772795311883, "description": "Take a personality test and get your bot badge, then invite your human to see how well you match!", "description_zh": "", "downloads": 294, "homepage": "https://clawhub.ai/tiansiyu0210/personality-match", "iconUrl": null, "installs": 6, "name": "Personality Match", "ownerName": "tiansiyu0210", "score": 58217.82178217822, "slug": "personality-match", "source": "clawhub", "stars": 0, "tags": null, "updated_at": 1776750372010, "version": "1.0.0"}, {"category": "security-compliance", "created_at": 1773076968069, "description": "Web search and content extraction using Tavily Search/Extract/Research APIs (Bearer auth). Use when you need web results (general/news/finance), date/topic/d...", "description_zh": "", "downloads": 294, "homepage": "https://clawhub.ai/doahc/tavily-web", "iconUrl": null, "installs": 34, "name": "Tavily", "ownerName": "doahc", "score": 59877.80040733197, "slug": "tavily-web", "source": "clawhub", "stars": 0, "tags": null, "updated_at": 1776748785187, "version": "0.0.3"}, {"category": "developer-tools", "created_at": 1772792302332, "description": "Navigate Tenerife as visitor, resident, digital nomad, or retiree with zones, transport, costs, residency, and local insights.", "description_zh": "", "downloads": 294, "homepage": "https://clawhub.ai/ivangdavila/tenerife", "iconUrl": null, "installs": 6, "name": "Tenerife", "ownerName": "ivangdavila", "score": 96078.43137254902, "slug": "tenerife", "source": "clawhub", "stars": 0, "tags": null, "updated_at": 1776748785120, "version": "1.0.0"}, {"category": "developer-tools", "created_at": 1772796859807, "description": "Bridge Docker containers to host localhost services via socat. Solves the #1 networking issue in containerized AI agent deployments: containers can't reach s...", "description_zh": "", "downloads": 294, "homepage": "https://clawhub.ai/superworldsavior/localhost-bridge", "iconUrl": null, "installs": 5, "name": "Localhost Bridge", "ownerName": "superworldsavior", "score": 96078.43137254902, "slug": "localhost-bridge", "source": "clawhub", "stars": 0, "tags": null, "updated_at": 1776748785110, "version": "2.0.0"}, {"category": "content-creation", "created_at": 1773082146219, "description": "Product leadership for scaling companies. Product vision, portfolio strategy, product-market fit, and product org design. Use when setting product vision, ma...", "description_zh": "", "downloads": 294, "homepage": "https://clawhub.ai/alirezarezvani/cpo-advisor", "iconUrl": null, "installs": 15, "name": "Cpo Advisor", "ownerName": "alirezarezvani", "score": 65919.28251121077, "slug": "cpo-advisor", "source": "clawhub", "stars": 0, "tags": null, "updated_at": 1776748785062, "version": "2.1.1"}, {"category": "security-compliance", "created_at": 1772794398588, "description": "Granola MCP integration with managed authentication. Use this skill when users want to search meeting content, get meeting summaries, find action items, or r...", "description_zh": "", "downloads": 294, "homepage": "https://clawhub.ai/byungkyu/granola-api", "iconUrl": null, "installs": 5, "name": "Granola", "ownerName": "byungkyu", "score": 90740.74074074074, "slug": "granola-api", "source": "clawhub", "stars": 0, "tags": null, "updated_at": 1776748784803, "version": "1.0.1"}, {"category": "productivity", "created_at": 1772795619661, "description": "Get current weather and forecasts via wttr.in or Open-Meteo. Use when: user asks about weather, temperature, or forecasts for any location. NOT for: historic...", "description_zh": "", "downloads": 294, "homepage": "https://clawhub.ai/mohdalhashemi98-hue/mh-weather", "iconUrl": null, "installs": 11, "name": "MH weather", "ownerName": "mohdalhashemi98-hue", "score": 91588.78504672897, "slug": "mh-weather", "source": "clawhub", "stars": 0, "tags": null, "updated_at": 1776748784745, "version": "1.0.0"}, {"category": "ai-intelligence", "created_at": 1773284969148, "description": "This skill enables dating and matchmaking workflows. Use it when a user asks to make friends, find a partner, run matchmaking, or provide dating preferences/...", "description_zh": "", "downloads": 294, "homepage": "https://clawhub.ai/1asdwz/ai-dating", "iconUrl": null, "installs": 14, "name": "AI Dating  - Match New Friends & Find Old Friends", "ownerName": "1asdwz", "score": 94533.76205787782, "slug": "ai-dating", "source": "clawhub", "stars": 0, "tags": null, "updated_at": 1776748784454, "version": "1.0.3"}, {"category": "data-analysis", "created_at": 1773089104618, "description": "Social media analytics and performance tracking. Track engagement, optimal posting times, competitor analysis, AI-powered insights, auto-generated charts, an...", "description_zh": "", "downloads": 294, "homepage": "https://clawhub.ai/fly3094/social-insights", "iconUrl": null, "installs": 8, "name": "Social Insights", "ownerName": "fly3094", "score": 84726.22478386167, "slug": "social-insights", "source": "clawhub", "stars": 0, "tags": ["analytics", "data", "insights", "linkedin", "reporting", "social-media", "twitter"], "updated_at": 1776748784397, "version": "1.1.1"}, {"category": "data-analysis", "created_at": 1772798818740, "description": "reddi.tech fork of humanizer. Fork of humanizer by biostartechnology — enhanced for technical blog writing. Remove signs of AI-generated writing from text. U...", "description_zh": "", "downloads": 294, "homepage": "https://clawhub.ai/nissan/reddi-humanizer", "iconUrl": null, "installs": 41, "name": "Reddi Humanizer", "ownerName": "nissan", "score": 64473.68421052631, "slug": "reddi-humanizer", "source": "clawhub", "stars": 0, "tags": null, "updated_at": 1776748784268, "version": "2.1.1"}, {"category": "productivity", "created_at": 1773060732529, "description": "Notion integration. Manage project management and document management data, records, and workflows. Use when the user wants to interact with Notion data.", "description_zh": "", "downloads": 294, "homepage": "https://clawhub.ai/gora050/notion-integration", "iconUrl": null, "installs": 10, "name": "Notion", "ownerName": "gora050", "score": 87761.19402985074, "slug": "notion-integration", "source": "clawhub", "stars": 0, "tags": null, "updated_at": 1776748783973, "version": "1.0.0"}, {"category": "productivity", "created_at": 1773856344119, "description": "Color picker and converter. Use when you need colorpick.", "description_zh": "", "downloads": 294, "homepage": "https://clawhub.ai/ckchzh/colorpick", "iconUrl": null, "installs": 5, "name": "Colorpick", "ownerName": "ckchzh", "score": 95765.47231270358, "slug": "colorpick", "source": "clawhub", "stars": 0, "tags": null, "updated_at": 1776748783816, "version": "2.0.0"}, {"category": "ai-intelligence", "created_at": 1773064531518, "description": "Search Google Flights for flight prices and schedules using browser automation. Use when user asks to search flights, find airfare, compare prices, check fli...", "description_zh": "", "downloads": 294, "homepage": "https://clawhub.ai/skillhq-ai/flight-search-fast", "iconUrl": null, "installs": 17, "name": "Google Flights", "ownerName": "skillhq-ai", "score": 78820.37533512064, "slug": "flight-search-fast", "source": "clawhub", "stars": 0, "tags": null, "updated_at": 1776748783773, "version": "1.0.1"}, {"category": "data-analysis", "created_at": 1772799108950, "description": "Comprehensive Google Analytics 4 analysis — extracts EVERYTHING the API offers. Health scores, scroll depth, cohorts, demographics, and more.", "description_zh": "", "downloads": 294, "homepage": "https://clawhub.ai/fcavalcantirj/ga-deep-dive", "iconUrl": null, "installs": 10, "name": "GA4 Deep Dive", "ownerName": "fcavalcantirj", "score": 88288.28828828828, "slug": "ga-deep-dive", "source": "clawhub", "stars": 0, "tags": null, "updated_at": 1776748783703, "version": "1.0.3"}, {"category": "developer-tools", "created_at": 1772792476682, "description": "Build and operate an OpenClaw-based local knowledge assistant that imports personal/local documents into a knowledge base and creates practice exercises duri...", "description_zh": "", "downloads": 293, "homepage": "https://clawhub.ai/sibo-zhao/openclaw-knowledge-coach", "iconUrl": null, "installs": 13, "name": "openclaw-knowledge-coach", "ownerName": "sibo-zhao", "score": 2265.3061224489797, "slug": "openclaw-knowledge-coach", "source": "clawhub", "stars": 2, "tags": null, "updated_at": 1776766271400, "version": "1.0.0"}, {"category": "developer-tools", "created_at": 1772792728072, "description": "Trade tokens on Solana via the outsmart CLI: buy, sell, quote, find pools, add/remove liquidity, claim fees, snipe, create pools. Use when: user asks about S...", "description_zh": "", "downloads": 293, "homepage": "https://clawhub.ai/outsmartchad/outsmart-dex-trading", "iconUrl": null, "installs": 8, "name": "Outsmart DEX Trading", "ownerName": "outsmartchad", "score": 100000, "slug": "outsmart-dex-trading", "source": "clawhub", "stars": 2, "tags": null, "updated_at": 1776748783661, "version": "1.0.0"}, {"category": "ai-intelligence", "created_at": 1772804538386, "description": "Privacy-first agent infrastructure offering secure forecasting markets, decentralized credential verification, multi-rail settlement, and cross-rail micropay...", "description_zh": "", "downloads": 293, "homepage": "https://clawhub.ai/craigmbrown/blindoracle", "iconUrl": null, "installs": 18, "name": "BlindOracle - Privacy-First Agent Infrastructure", "ownerName": "craigmbrown", "score": 23393.124065769804, "slug": "blindoracle", "source": "clawhub", "stars": 1, "tags": ["forecasting", "infrastructure", "payments", "privacy"], "updated_at": 1776759227714, "version": "1.0.1"}, {"category": "content-creation", "created_at": 1773076863912, "description": "Search for photos in PhotoCHAT using natural language via the CLI. Use when the user asks to find, search for, or locate photos/pictures/images using PhotoCH...", "description_zh": "", "downloads": 293, "homepage": "https://clawhub.ai/photochat/photochat-search", "iconUrl": null, "installs": 36, "name": "PhotoCHAT Photo Search", "ownerName": "photochat", "score": 54434.782608695656, "slug": "photochat-search", "source": "clawhub", "stars": 1, "tags": null, "updated_at": 1776751784373, "version": "1.0.0"}, {"category": "data-analysis", "created_at": 1772795420172, "description": "Local-first agent memory with Ebbinghaus decay, hybrid search, and MCP tools. Import files, extract facts, search with BM25 + semantic, track confidence over...", "description_zh": "", "downloads": 293, "homepage": "https://clawhub.ai/hurttlocker/hurttlocker-cortex", "iconUrl": null, "installs": 11, "name": "Cortex", "ownerName": "hurttlocker", "score": 98738.17034700315, "slug": "hurttlocker-cortex", "source": "clawhub", "stars": 1, "tags": null, "updated_at": 1776748784196, "version": "4.0.0"}, {"category": "data-analysis", "created_at": 1772799968308, "description": "Extracts and analyzes YouTube lecture subtitles to identify key points, evidence, and actionable insights for review, writing, and teaching purposes.", "description_zh": "", "downloads": 293, "homepage": "https://clawhub.ai/wallfacer-web/youtube-lecture-analyzer", "iconUrl": null, "installs": 16, "name": "Youtube Lecture Analyzer", "ownerName": "wallfacer-web", "score": 10831.792975970426, "slug": "youtube-lecture-analyzer", "source": "clawhub", "stars": 0, "tags": null, "updated_at": 1776768974584, "version": "1.0.0"}, {"category": "content-creation", "created_at": 1772794861617, "description": "Find design and AI art inspiration from curated galleries, screenshot libraries, and creative showcases.", "description_zh": "", "downloads": 293, "homepage": "https://clawhub.ai/ivangdavila/inspiration", "iconUrl": null, "installs": 18, "name": "Inspiration", "ownerName": "ivangdavila", "score": 4808.007876599934, "slug": "inspiration", "source": "clawhub", "stars": 0, "tags": null, "updated_at": 1776768850297, "version": "1.0.0"}, {"category": "communication-collaboration", "created_at": 1773074556023, "description": "Slack integration. Manage communication data, records, and workflows. Use when the user wants to interact with Slack data.", "description_zh": "", "downloads": 293, "homepage": "https://clawhub.ai/membranedev/slack-integration", "iconUrl": null, "installs": 2, "name": "Slack", "ownerName": "membranedev", "score": 4378.362223550508, "slug": "slack-integration", "source": "clawhub", "stars": 0, "tags": null, "updated_at": 1776762849924, "version": "1.0.5"}, {"category": "security-compliance", "created_at": 1773077277233, "description": "Framework-directable information security risk assessment. Identifies threats, evaluates likelihood/impact via a 3x3 matrix, maps findings to any compliance...", "description_zh": "", "downloads": 293, "homepage": "https://clawhub.ai/dangsllc/risk-assessment", "iconUrl": null, "installs": 13, "name": "Risk Assessment", "ownerName": "dangsllc", "score": 11170.415554708348, "slug": "risk-assessment", "source": "clawhub", "stars": 0, "tags": null, "updated_at": 1776762290168, "version": "0.1.0"}, {"category": "security-compliance", "created_at": 1772804374966, "description": "Provides detailed HVAC contractor operations guidance including pricing, technician productivity, compliance, seasonal staffing, marketing, and growth strate...", "description_zh": "", "downloads": 293, "homepage": "https://clawhub.ai/1kalin/afrexai-hvac", "iconUrl": null, "installs": 20, "name": "HVAC Business Operations", "ownerName": "1kalin", "score": 22113.20754716981, "slug": "afrexai-hvac", "source": "clawhub", "stars": 0, "tags": ["business", "contractor", "hvac", "operations", "pricing"], "updated_at": 1776759257870, "version": "1.0.0"}, {"category": "data-analysis", "created_at": 1772803802436, "description": "Scrapes top viral LinkedIn posts in your niche, analyzes engagement drivers, and generates a personalized 30-day content calendar with posts in your voice.", "description_zh": "", "downloads": 293, "homepage": "https://clawhub.ai/g4dr/ai-linkedin-ghostwriter", "iconUrl": null, "installs": 16, "name": "AI LinkedIn Ghostwriter & 30-Day Content Engine — Never Face a Blank Page Again", "ownerName": "g4dr", "score": 21914.734480179508, "slug": "ai-linkedin-ghostwriter", "source": "clawhub", "stars": 0, "tags": ["agencies", "ai-copywriting", "content-calendar apify", "content-marketing", "freelancers", "ghostwriting", "lead-generation", "linkedin", "personal-branding", "social-media", "thought-leadership"], "updated_at": 1776759257767, "version": "1.0.0"}, {"category": "communication-collaboration", "created_at": 1773059913347, "description": "One-machine Discord bot onboarding wizard for OpenClaw. Use when setting up Discord for the first time (create bot, enable intents, invite to a guild, auto-w...", "description_zh": "", "downloads": 293, "homepage": "https://clawhub.ai/gm4leejun-stack/discord-connect-wizard", "iconUrl": null, "installs": 10, "name": "Discord Connect Wizard", "ownerName": "gm4leejun-stack", "score": 21914.734480179508, "slug": "discord-connect-wizard", "source": "clawhub", "stars": 0, "tags": null, "updated_at": 1776759257756, "version": "0.1.2"}, {"category": "data-analysis", "created_at": 1772803684514, "description": "Extract and analyze text, tables, images, and metadata from Korean HWP and HWPX documents, supporting both legacy and modern formats.", "description_zh": "", "downloads": 293, "homepage": "https://clawhub.ai/mupengi-bot/hwp-reader", "iconUrl": null, "installs": 16, "name": "hwp-reader", "ownerName": "mupengi-bot", "score": 21898.355754858, "slug": "hwp-reader", "source": "clawhub", "stars": 0, "tags": null, "updated_at": 1776759257629, "version": "1.0.0"}, {"category": "developer-tools", "created_at": 1772797231344, "description": "Onboard an autonomous OpenClaw/AI bot with a funded wallet, ETH/LINK management, and API access for creating and managing Verdikta Bounties without manual wa...", "description_zh": "", "downloads": 293, "homepage": "https://clawhub.ai/nigelon11/verdikta-bounties-onboarding", "iconUrl": null, "installs": 5, "name": "Verdikta Bounties Onboarding", "ownerName": "nigelon11", "score": 21947.56554307116, "slug": "verdikta-bounties-onboarding", "source": "clawhub", "stars": 0, "tags": null, "updated_at": 1776759257491, "version": "1.1.0"}, {"category": "developer-tools", "created_at": 1772805736752, "description": "Scans the skills folder for new, unused, or missing dependencies; fixes requirements.txt; and tests a skill in or out of sandbox.", "description_zh": "", "downloads": 293, "homepage": "https://clawhub.ai/runeweaverstudios/skill-doctor", "iconUrl": null, "installs": 15, "name": "Skill Doctor", "ownerName": "runeweaverstudios", "score": 9159.112222569553, "slug": "skill-doctor", "source": "clawhub", "stars": 0, "tags": null, "updated_at": 1776750044393, "version": "1.0.0"}, {"category": "content-creation", "created_at": 1773073582391, "description": "Professional AI news briefing using OpenClaw skills ecosystem. Monitors 10 top AI news sources, extracts content with summarize skill, and generates high-qua...", "description_zh": "", "downloads": 293, "homepage": "https://clawhub.ai/sharkwind/ai-news-briefing", "iconUrl": null, "installs": 22, "name": "AI News Briefing", "ownerName": "sharkwind", "score": 60662.525879917186, "slug": "ai-news-briefing", "source": "clawhub", "stars": 0, "tags": ["ai", "automation", "briefing", "fix", "news"], "updated_at": 1776748785404, "version": "1.0.1"}, {"category": "developer-tools", "created_at": 1772794065412, "description": "Crypto news search, AI ratings, trading signals, and real-time updates via the OpenNews 6551 API. Supports keyword search, coin filtering, source filtering,...", "description_zh": "", "downloads": 293, "homepage": "https://clawhub.ai/infra403/opennews-2", "iconUrl": null, "installs": 7, "name": "Opennews", "ownerName": "infra403", "score": 87462.68656716419, "slug": "opennews-2", "source": "clawhub", "stars": 0, "tags": null, "updated_at": 1776748785392, "version": "0.1.0"}, {"category": "data-analysis", "created_at": 1773058034771, "description": "Interact with Moltbook AI social network. Manage posts, replies, and API operations with bilingual (EN/CN) content. Use when posting, replying, or browsing M...", "description_zh": "", "downloads": 293, "homepage": "https://clawhub.ai/moroiser/moltbook-user", "iconUrl": null, "installs": 18, "name": "Moltbook User | Moltbook 用户", "ownerName": "moroiser", "score": 95751.63398692811, "slug": "moltbook-user", "source": "clawhub", "stars": 0, "tags": null, "updated_at": 1776748785068, "version": "1.0.5"}, {"category": "security-compliance", "created_at": 1773074514584, "description": "Notion MCP integration with managed authentication. Query databases, create and update pages, manage blocks. Use this skill when users want to interact with...", "description_zh": "", "downloads": 293, "homepage": "https://clawhub.ai/byungkyu/notion-mcp", "iconUrl": null, "installs": 44, "name": "Notion MCP", "ownerName": "byungkyu", "score": 65695.067264574, "slug": "notion-mcp", "source": "clawhub", "stars": 0, "tags": null, "updated_at": 1776748784988, "version": "1.0.0"}, {"category": "developer-tools", "created_at": 1772791700378, "description": "[Coming Soon] A social simulation world where AI agents with unique SOUL.md personalities interact, debate, trade, and build relationships. Autonomous AI per...", "description_zh": "", "downloads": 293, "homepage": "https://clawhub.ai/lifeissea/the-soul-sims", "iconUrl": null, "installs": 5, "name": "The Soul Sims", "ownerName": "lifeissea", "score": 90432.0987654321, "slug": "the-soul-sims", "source": "clawhub", "stars": 0, "tags": null, "updated_at": 1776748784755, "version": "0.1.0"}, {"category": "productivity", "created_at": 1772798551127, "description": "FEMA disaster declarations, NOAA weather alerts, and USGS earthquake data. 3 tools for real-time disaster monitoring.", "description_zh": "", "downloads": 293, "homepage": "https://clawhub.ai/martc03/gov-disaster-intel", "iconUrl": null, "installs": 12, "name": "Natural Disaster Intel", "ownerName": "martc03", "score": 91277.2585669782, "slug": "gov-disaster-intel", "source": "clawhub", "stars": 0, "tags": null, "updated_at": 1776748784686, "version": "1.0.0"}, {"category": "ai-intelligence", "created_at": 1772792594358, "description": "Agent-to-agent service commerce. Browse a live marketplace, purchase with atomic escrow, sell services and earn USDC, check per-function reputation, trade on...", "description_zh": "", "downloads": 293, "homepage": "https://clawhub.ai/amargotta/theagora", "iconUrl": null, "installs": 9, "name": "Theagora", "ownerName": "amargotta", "score": 88519.63746223565, "slug": "theagora", "source": "clawhub", "stars": 0, "tags": ["agent-to-agent", "commerce", "escrow", "exchange", "mcp", "reputation", "usdc", "verification"], "updated_at": 1776748784600, "version": "0.1.1"}, {"category": "developer-tools", "created_at": 1773081215535, "description": "Assembles comprehensive board and investor update decks by pulling perspectives from all C-suite roles. Use when preparing board meetings, investor updates,...", "description_zh": "", "downloads": 293, "homepage": "https://clawhub.ai/alirezarezvani/board-deck-builder", "iconUrl": null, "installs": 6, "name": "Board Deck Builder", "ownerName": "alirezarezvani", "score": 84438.04034582133, "slug": "board-deck-builder", "source": "clawhub", "stars": 0, "tags": null, "updated_at": 1776748784426, "version": "2.1.1"}, {"category": "content-creation", "created_at": 1772795596798, "description": "Essential Docker commands and workflows for container management, image operations, and debugging.", "description_zh": "", "downloads": 293, "homepage": "https://clawhub.ai/a2mus/doro-docker-essentials", "iconUrl": null, "installs": 16, "name": "Doro Docker Essentials", "ownerName": "a2mus", "score": 92429.02208201893, "slug": "doro-docker-essentials", "source": "clawhub", "stars": 0, "tags": null, "updated_at": 1776748784259, "version": "1.0.0"}, {"category": "data-analysis", "created_at": 1773218909367, "description": "Generate, manage, and track QR codes via CodeBox API. Create dynamic QR codes with 200+ style templates, track scans with analytics (device, location, time),...", "description_zh": "", "downloads": 293, "homepage": "https://clawhub.ai/gdfsdjj145/codebox-qrcode", "iconUrl": null, "installs": 8, "name": "CodeBox QR Code", "ownerName": "gdfsdjj145", "score": 92429.02208201893, "slug": "codebox-qrcode", "source": "clawhub", "stars": 0, "tags": ["api", "marketing", "qrcode"], "updated_at": 1776748784189, "version": "1.1.0"}, {"category": "data-analysis", "created_at": 1772796680413, "description": "Measure compositional structure in AI-generated images using the Visual Thinking Lens (VTL) framework. Detects default-mode bias (center lock, radial collaps...", "description_zh": "", "downloads": 293, "homepage": "https://clawhub.ai/rusparrish/vtl-image-analysis", "iconUrl": null, "installs": 17, "name": "VTL Image Analysis", "ownerName": "rusparrish", "score": 91562.5, "slug": "vtl-image-analysis", "source": "clawhub", "stars": 0, "tags": null, "updated_at": 1776748784139, "version": "1.0.0"}, {"category": "developer-tools", "created_at": 1772797166118, "description": "Multi-source deep research using your own browser. Queries Perplexity, Grok, and Gemini in parallel via CDP — zero API keys, uses your existing subscriptions.", "description_zh": "", "downloads": 293, "homepage": "https://clawhub.ai/lmanchu/omni-research", "iconUrl": null, "installs": 15, "name": "Omni Research", "ownerName": "lmanchu", "score": 81843.57541899441, "slug": "omni-research", "source": "clawhub", "stars": 0, "tags": ["browser", "cdp", "research"], "updated_at": 1776748784055, "version": "1.0.0"}, {"category": "developer-tools", "created_at": 1772794348343, "description": "Monitor and recap official X (Twitter) updates using actionbook-rs screenshots. Use when the user asks to track/recap X posts (especially official accounts l...", "description_zh": "", "downloads": 293, "homepage": "https://clawhub.ai/jack4world/x-recap", "iconUrl": null, "installs": 5, "name": "x-recap", "ownerName": "jack4world", "score": 87462.68656716419, "slug": "x-recap", "source": "clawhub", "stars": 0, "tags": null, "updated_at": 1776748783992, "version": "2026.2.25"}, {"category": "ai-intelligence", "created_at": 1773078961884, "description": "Discover, name, and manage OpenClaw instances on your LAN. Scan for AI agents, check status, set aliases, resolve .claw names, and get connection URLs via th...", "description_zh": "", "downloads": 293, "homepage": "https://clawhub.ai/alan-silverstreams/clawnexus", "iconUrl": null, "installs": 1, "name": "Skill", "ownerName": "alan-silverstreams", "score": 95439.73941368079, "slug": "clawnexus", "source": "clawhub", "stars": 0, "tags": null, "updated_at": 1776748783813, "version": "0.4.0"}, {"category": "data-analysis", "created_at": 1772799856650, "description": "Feishu (Lark) CLI agent - Provides calendar, todo, and contact management capabilities for AI assistants", "description_zh": "", "downloads": 293, "homepage": "https://clawhub.ai/boyd4y/feishu-agent", "iconUrl": null, "installs": 35, "name": "Feishu Agent", "ownerName": "boyd4y", "score": 78552.27882037533, "slug": "feishu-agent", "source": "clawhub", "stars": 0, "tags": ["calendar", "feishu", "lark", "mcp", "todo"], "updated_at": 1776748783737, "version": "1.0.14"}, {"category": "developer-tools", "created_at": 1772793513201, "description": "Adversarial self-improvement for AI agents. Reduces hallucinations through Agent vs Anti-Agent debate loops.", "description_zh": "", "downloads": 292, "homepage": "https://clawhub.ai/zedit42/arena-system", "iconUrl": null, "installs": 13, "name": "Arena System", "ownerName": "zedit42", "score": 4439.6897566194175, "slug": "arena-system", "source": "clawhub", "stars": 2, "tags": null, "updated_at": 1776766450121, "version": "1.0.0"}, {"category": "productivity", "created_at": 1772797937879, "description": "Place and manage cTrader orders (market, limit, stop), check open positions, fetch live quotes and OHLC candles, and query account balance and equity via a l...", "description_zh": "", "downloads": 292, "homepage": "https://clawhub.ai/elmoyeldo/ctrader-commander", "iconUrl": null, "installs": 9, "name": "cTrader Commander", "ownerName": "elmoyeldo", "score": 72807.01754385965, "slug": "ctrader-commander", "source": "clawhub", "stars": 2, "tags": null, "updated_at": 1776748784317, "version": "1.0.0"}, {"category": "content-creation", "created_at": 1772802141664, "description": "Use when user asks to leverage claude or claude code to do something (e.g. implement a feature design or review codes, etc). Provides non-interactive automat...", "description_zh": "", "downloads": 292, "homepage": "https://clawhub.ai/feiskyer/claude-skill", "iconUrl": null, "installs": 28, "name": "Claude Skill", "ownerName": "feiskyer", "score": 6295.399515738499, "slug": "claude-skill", "source": "clawhub", "stars": 1, "tags": null, "updated_at": 1776769871201, "version": "0.1.0"}]}