{"page": 251, "total_pages": 522, "total": 26073, "skills": [{"category": "ai-intelligence", "created_at": 1773220300477, "description": "Smart shopping assistant for Mainland China that searches JD/Taobao, compares prices, confirms needs, calculates final cost, and generates purchase links.", "description_zh": "", "downloads": 292, "homepage": "https://clawhub.ai/chenyichu86/saver-skill", "iconUrl": null, "installs": 56, "name": "Saver", "ownerName": "chenyichu86", "score": 28209.76491862568, "slug": "saver-skill", "source": "clawhub", "stars": 1, "tags": null, "updated_at": 1776761745367, "version": "1.1.0"}, {"category": "content-creation", "created_at": 1772796922740, "description": "Build autonomous multi-agent pipelines with Mastra (agents only) and Trigger.dev (all workflows and tasks). Use when creating AI agents, designing multi-stag...", "description_zh": "", "downloads": 292, "homepage": "https://clawhub.ai/ainakwalamonk/durable-agents", "iconUrl": null, "installs": 15, "name": "Durable Agents", "ownerName": "ainakwalamonk", "score": 97196.26168224298, "slug": "durable-agents", "source": "clawhub", "stars": 1, "tags": null, "updated_at": 1776748784521, "version": "1.0.0"}, {"category": "data-analysis", "created_at": 1773828293335, "description": "Comprehensive health management system integrating 10 best-selling health books' consensus principles. Use when users discuss nutrition, supplements, fitness...", "description_zh": "", "downloads": 292, "homepage": "https://clawhub.ai/longerian/health-score-pro", "iconUrl": null, "installs": 19, "name": "Health Score Pro", "ownerName": "longerian", "score": 98422.71293375394, "slug": "health-score-pro", "source": "clawhub", "stars": 1, "tags": ["backup", "diet-tracking", "health", "multi-language", "nutrition", "timezone"], "updated_at": 1776748784200, "version": "1.4.6"}, {"category": "ai-intelligence", "created_at": 1772795388008, "description": "Launch, trade, and track Solana tokens with ease—create meme coins, trade automatically, check prices, and join the agent leaderboard.", "description_zh": "", "downloads": 292, "homepage": "https://clawhub.ai/root/public-2", "iconUrl": null, "installs": 7, "name": "Public", "ownerName": "root", "score": 4214.780600461894, "slug": "public-2", "source": "clawhub", "stars": 0, "tags": null, "updated_at": 1776766571259, "version": "0.1.0"}, {"category": "developer-tools", "created_at": 1772799720271, "description": "Detect and score B2B buying signals from LinkedIn jobs, company growth, and funding, then generate personalized outreach to ready-to-buy leads.", "description_zh": "", "downloads": 292, "homepage": "https://clawhub.ai/g4dr/linkedin-buying-signal-detector", "iconUrl": null, "installs": 19, "name": "LinkedIn B2B Buying Signal Detector — Find Who's Ready to Buy NOW", "ownerName": "g4dr", "score": 21823.617339312408, "slug": "linkedin-buying-signal-detector", "source": "clawhub", "stars": 0, "tags": ["apify", "b2b", "intent-data", "lead-generation", "linkedin", "outreach", "prospecting", "sales-intelligence"], "updated_at": 1776759257647, "version": "1.0.0"}, {"category": "communication-collaboration", "created_at": 1772794839578, "description": "Connect your OpenClaw agent to ClawAI.Town, a Solana-based 3D world where agents autonomously explore, trade with real SOL, fight, chat, gather resources, an...", "description_zh": "", "downloads": 292, "homepage": "https://clawhub.ai/0xmerl99/clawai-town-skill", "iconUrl": null, "installs": 12, "name": "Clawai Town Skill", "ownerName": "0xmerl99", "score": 21872.659176029963, "slug": "clawai-town-skill", "source": "clawhub", "stars": 0, "tags": null, "updated_at": 1776759257496, "version": "0.1.1"}, {"category": "developer-tools", "created_at": 1773062051046, "description": "Deploy any project to xCloud hosting — auto-detects stack (WordPress, Laravel, PHP, Node.js, Next.js, NestJS, Python, Go, Rust), routes to native or Docker d...", "description_zh": "", "downloads": 292, "homepage": "https://clawhub.ai/asif2bd/xcloud-docker-deploy", "iconUrl": null, "installs": 19, "name": "xCloud Docker Deploy", "ownerName": "asif2bd", "score": 21872.659176029963, "slug": "xcloud-docker-deploy", "source": "clawhub", "stars": 0, "tags": ["ci-cd", "deployment", "devops", "docker", "docker-compose", "github-actions", "hosting", "infrastructure", "laravel", "nextjs", "nodejs", "python", "wordpress", "xcloud"], "updated_at": 1776759257484, "version": "1.2.1"}, {"category": "productivity", "created_at": 1772800189579, "description": "Speaker separation, voice comparison, and audio processing tools. Use when working with multi-speaker audio, voice cloning, or speaker verification tasks inc...", "description_zh": "", "downloads": 292, "homepage": "https://clawhub.ai/cmfinlan/audio-speaker-tools", "iconUrl": null, "installs": 26, "name": "Audio Speaker Tools", "ownerName": "cmfinlan", "score": 60455.48654244306, "slug": "audio-speaker-tools", "source": "clawhub", "stars": 0, "tags": null, "updated_at": 1776748785437, "version": "1.0.0"}, {"category": "data-analysis", "created_at": 1773060542128, "description": "Launch and manage the OpenClaw Dashboard web UI for monitoring all your bots, agents, models, and sessions. Automatically detects OS, checks for updates, ins...", "description_zh": "", "downloads": 292, "homepage": "https://clawhub.ai/xmanrui/openclaw-bot-dashboard", "iconUrl": null, "installs": 10, "name": "OpenClaw Bot Dashboard", "ownerName": "xmanrui", "score": 87164.17910447762, "slug": "openclaw-bot-dashboard", "source": "clawhub", "stars": 0, "tags": null, "updated_at": 1776748785395, "version": "1.0.5"}, {"category": "productivity", "created_at": 1772799528667, "description": "SAM.gov contract opportunities, USAspending awards, and entity lookup. 3 tools for government contracting.", "description_zh": "", "downloads": 292, "homepage": "https://clawhub.ai/martc03/gov-contracts", "iconUrl": null, "installs": 13, "name": "Gov Contracts", "ownerName": "martc03", "score": 59470.46843177189, "slug": "gov-contracts", "source": "clawhub", "stars": 0, "tags": null, "updated_at": 1776748785163, "version": "1.0.0"}, {"category": "productivity", "created_at": 1772792254522, "description": "Navigate Seville as visitor, resident, tech worker, student, or entrepreneur with neighborhoods, transport, costs, flamenco, and local insights.", "description_zh": "", "downloads": 292, "homepage": "https://clawhub.ai/ivangdavila/seville", "iconUrl": null, "installs": 9, "name": "Seville", "ownerName": "ivangdavila", "score": 95424.8366013072, "slug": "seville", "source": "clawhub", "stars": 0, "tags": null, "updated_at": 1776748785145, "version": "1.0.0"}, {"category": "developer-tools", "created_at": 1772792480736, "description": "Manage tasks, projects, and workspaces in Exponential via the `exponential` CLI. Use when creating, listing, or updating actions/tasks, viewing projects, che...", "description_zh": "", "downloads": 292, "homepage": "https://clawhub.ai/positonic/exponential", "iconUrl": null, "installs": 4, "name": "Exponential", "ownerName": "positonic", "score": 88753.79939209727, "slug": "exponential", "source": "clawhub", "stars": 0, "tags": null, "updated_at": 1776748784948, "version": "1.0.0"}, {"category": "content-creation", "created_at": 1772803776587, "description": "Convert Telegram chat exports into a long screenshot-style image. Supports Telegram Desktop JSON exports with bubble-style message rendering, avatars, timest...", "description_zh": "", "downloads": 292, "homepage": "https://clawhub.ai/reetyo/telegram-chat-to-image", "iconUrl": null, "installs": 28, "name": "Telegram Chat To Image", "ownerName": "reetyo", "score": 88753.79939209727, "slug": "telegram-chat-to-image", "source": "clawhub", "stars": 0, "tags": null, "updated_at": 1776748784946, "version": "1.2.1"}, {"category": "productivity", "created_at": 1772793241683, "description": "Helps identify when marketplace economic incentives systematically favor quantity over quality — creating structural pressure toward publishing unsafe skills...", "description_zh": "", "downloads": 292, "homepage": "https://clawhub.ai/andyxinweiminicloud/economic-incentive-misalignment-detector", "iconUrl": null, "installs": 6, "name": "Economic Incentive Misalignment Detector", "ownerName": "andyxinweiminicloud", "score": 93890.67524115756, "slug": "economic-incentive-misalignment-detector", "source": "clawhub", "stars": 0, "tags": null, "updated_at": 1776748784507, "version": "1.0.0"}, {"category": "ai-intelligence", "created_at": 1772797831178, "description": "Built by Axobotl (@Inner_Axiom). Production-grade Honcho memory system battle-tested on a 6+ agent fleet with 1000+ messages. Replaces embedding-based retrie...", "description_zh": "", "downloads": 292, "homepage": "https://clawhub.ai/jkillr/honcho-memory", "iconUrl": null, "installs": 16, "name": "Honcho Memory", "ownerName": "jkillr", "score": 93890.67524115756, "slug": "honcho-memory", "source": "clawhub", "stars": 0, "tags": null, "updated_at": 1776748784499, "version": "1.0.4"}, {"category": "content-creation", "created_at": 1772795838054, "description": "Build high-performing OpenClaw agents end-to-end with comprehensive safety features. Use when you want to design a new agent (persona + operating rules) and...", "description_zh": "", "downloads": 292, "homepage": "https://clawhub.ai/ykaixu/agent-builder-plus", "iconUrl": null, "installs": 23, "name": "Agent Builder Plus", "ownerName": "ykaixu", "score": 64035.087719298244, "slug": "agent-builder-plus", "source": "clawhub", "stars": 0, "tags": ["agent", "automation", "openclaw", "safety", "workspace"], "updated_at": 1776748784324, "version": "1.0.3"}, {"category": "ai-intelligence", "created_at": 1772799430100, "description": "5-minute sprint operating system for AI agents. Autonomous execution cycles: ASSESS → PLAN → SCOPE → EXECUTE → MEASURE → ADAPT → LOG → NEXT. Includes optiona...", "description_zh": "", "downloads": 292, "homepage": "https://clawhub.ai/batsirai/sprint-os", "iconUrl": null, "installs": 13, "name": "Sprint OS", "ownerName": "batsirai", "score": 81564.24581005587, "slug": "sprint-os", "source": "clawhub", "stars": 0, "tags": null, "updated_at": 1776748784057, "version": "1.0.0"}, {"category": "security-compliance", "created_at": 1772799312986, "description": "Give your AI agent a shared mind. One curl, no auth — post thoughts, search collective memory, get auto-answers from crystallized knowledge.", "description_zh": "", "downloads": 292, "homepage": "https://clawhub.ai/temrjan/first-claw-messenger", "iconUrl": null, "installs": 12, "name": "Claw Messenger", "ownerName": "temrjan", "score": 95114.00651465797, "slug": "first-claw-messenger", "source": "clawhub", "stars": 0, "tags": null, "updated_at": 1776748783804, "version": "2.1.0"}, {"category": "ai-intelligence", "created_at": 1773073156170, "description": "Compress natural language prompts into I-Lang — AI-native structured instructions. 40-65% token savings.", "description_zh": "", "downloads": 291, "homepage": "https://clawhub.ai/adsorgcn/ilang-compress", "iconUrl": null, "installs": 13, "name": "I-Lang Compress", "ownerName": "adsorgcn", "score": 100000, "slug": "ilang-compress", "source": "clawhub", "stars": 2, "tags": null, "updated_at": 1776748784622, "version": "2.3.1"}, {"category": "developer-tools", "created_at": 1772796633746, "description": "TuleBank — check wallet balance, send ARS to any CVU/ALIAS, swap USDC/wARS, manage beneficiaries, and move funds with ARS off-ramp/on-ramp flows.", "description_zh": "", "downloads": 291, "homepage": "https://clawhub.ai/aromeoes/tulebank", "iconUrl": null, "installs": 4, "name": "Tulebank", "ownerName": "aromeoes", "score": 100000, "slug": "tulebank", "source": "clawhub", "stars": 1, "tags": null, "updated_at": 1776748784434, "version": "1.2.0"}, {"category": "data-analysis", "created_at": 1772803549731, "description": "Connect agents to Apple Health exports with MCP setup, schema validation, and privacy-safe analysis.", "description_zh": "", "downloads": 291, "homepage": "https://clawhub.ai/ivangdavila/apple-health", "iconUrl": null, "installs": 19, "name": "Apple Health", "ownerName": "ivangdavila", "score": 92835.8208955224, "slug": "apple-health", "source": "clawhub", "stars": 1, "tags": null, "updated_at": 1776748783971, "version": "1.0.0"}, {"category": "productivity", "created_at": 1773073192538, "description": "botlearn-reminder — BotLearn 7-step onboarding guide that delivers quickstart tutorials every 24 hours; triggers on first BotLearn registration or when user...", "description_zh": "", "downloads": 291, "homepage": "https://clawhub.ai/calvinxhk/botlearn-reminder", "iconUrl": null, "installs": 11, "name": "botlearn-reminder", "ownerName": "calvinxhk", "score": 92835.8208955224, "slug": "botlearn-reminder", "source": "clawhub", "stars": 1, "tags": null, "updated_at": 1776748783941, "version": "1.0.5"}, {"category": "developer-tools", "created_at": 1773424567325, "description": "Deterministic verification + reputation scoring for AI sub-agents. Prevents hallucinated success via 4 code gates (files, tests, lint, AST) and a 3-layer pip...", "description_zh": "", "downloads": 291, "homepage": "https://clawhub.ai/nefas11/governed-agents", "iconUrl": null, "installs": 3, "name": "Governed Agents", "ownerName": "nefas11", "score": 61220.47244094488, "slug": "governed-agents", "source": "clawhub", "stars": 1, "tags": null, "updated_at": 1776748783646, "version": "0.1.11"}, {"category": "ai-intelligence", "created_at": 1773916732538, "description": "Captures learnings, errors, and corrections to enable continuous improvement. Use when: (1) A command or operation fails unexpectedly, (2) User corrects Clau...", "description_zh": "", "downloads": 291, "homepage": "https://clawhub.ai/991200448/self-improving-agent-3-0-0", "iconUrl": null, "installs": 134, "name": "Self Improving Agent 3.0.0", "ownerName": "991200448", "score": 819.3028886761641, "slug": "self-improving-agent-3-0-0", "source": "clawhub", "stars": 0, "tags": null, "updated_at": 1776770350047, "version": "1.0.0"}, {"category": "developer-tools", "created_at": 1773089767026, "description": "This skill should be used when the user asks to start a complex task, research project, multi-step implementation, or any task expected to require more than...", "description_zh": "", "downloads": 291, "homepage": "https://clawhub.ai/yingcd/planning-with-files-from-github", "iconUrl": null, "installs": 93, "name": "planning-with-files", "ownerName": "yingcd", "score": 3257.2196104768304, "slug": "planning-with-files-from-github", "source": "clawhub", "stars": 0, "tags": null, "updated_at": 1776766450085, "version": "1.0.0"}, {"category": "communication-collaboration", "created_at": 1773084448301, "description": "Windows automation toolkit for AI agents. Provides Outlook email/calendar, Edge browser (CDP), desktop screenshots/window management, and shell commands via...", "description_zh": "", "downloads": 291, "homepage": "https://clawhub.ai/aloth/powerskills", "iconUrl": null, "installs": 29, "name": "PowerSkills", "ownerName": "aloth", "score": 2834.0475262952864, "slug": "powerskills", "source": "clawhub", "stars": 0, "tags": null, "updated_at": 1776766150339, "version": "0.1.0"}, {"category": "content-creation", "created_at": 1772794879345, "description": "Transform existing songs with the Twin Remix method — produce Respectful and Viral versions with Suno v4.5 sliders and visual guides", "description_zh": "", "downloads": 291, "homepage": "https://clawhub.ai/leegitw/song-remix", "iconUrl": null, "installs": 31, "name": "Song Remix", "ownerName": "leegitw", "score": 2905.0613956274333, "slug": "song-remix", "source": "clawhub", "stars": 0, "tags": ["creative", "music", "remix", "rewrite", "songwriting", "suno", "tiktok", "transformation", "viral"], "updated_at": 1776764690558, "version": "1.0.1"}, {"category": "data-analysis", "created_at": 1773075194149, "description": "Sends Amazon review requests for eligible shipped orders using SP-API with retry, deduplication, eligibility checks, and optional dry-run mode.", "description_zh": "", "downloads": 291, "homepage": "https://clawhub.ai/zero2ai-hub/skill-amazon-review-request", "iconUrl": null, "installs": 46, "name": "Skill Amazon Review Request", "ownerName": "zero2ai-hub", "score": 5924.267100977198, "slug": "skill-amazon-review-request", "source": "clawhub", "stars": 0, "tags": null, "updated_at": 1776763450187, "version": "1.0.0"}, {"category": "ai-intelligence", "created_at": 1773065406260, "description": "Track flight prices, hotel rates, and Airbnb listings. Scrape Booking.com, Expedia, Google Flights, and Airbnb with residential proxies. Monitor price change...", "description_zh": "", "downloads": 291, "homepage": "https://clawhub.ai/luis2404123/travel-price-tracker", "iconUrl": null, "installs": 44, "name": "Travel Price Tracker", "ownerName": "luis2404123", "score": 11362.748926200702, "slug": "travel-price-tracker", "source": "clawhub", "stars": 0, "tags": null, "updated_at": 1776762315271, "version": "1.0.0"}, {"category": "content-creation", "created_at": 1773091034762, "description": "Professional training course design for corporate L&D with ONE-CLICK generation of complete training packages including course materials, marketing copy, and...", "description_zh": "", "downloads": 291, "homepage": "https://clawhub.ai/brandon-zhanghaodong/training-course-designer", "iconUrl": null, "installs": 38, "name": "training-course-designer", "ownerName": "brandon-zhanghaodong", "score": 8836.926814454904, "slug": "training-course-designer", "source": "clawhub", "stars": 0, "tags": null, "updated_at": 1776761280261, "version": "1.0.0"}, {"category": "developer-tools", "created_at": 1772805611737, "description": "Register an agent, fund its Base chain wallet, swap ETH to USDC on Uniswap V3, earn yield via Morpho, deploy a token, and receive an NFT reward.", "description_zh": "", "downloads": 291, "homepage": "https://clawhub.ai/ramitphi/agentic-arena-defi", "iconUrl": null, "installs": 9, "name": "defi gym", "ownerName": "ramitphi", "score": 8003.300330033003, "slug": "agentic-arena-defi", "source": "clawhub", "stars": 0, "tags": null, "updated_at": 1776760980291, "version": "1.0.0"}, {"category": "content-creation", "created_at": 1773061412947, "description": "Pay-per-call API gateway skill — calls 63 APIs (LLMs, image/video gen, flights, hotels, crypto, web search) via x402 micropayments. Each call costs $0.001-$0...", "description_zh": "", "downloads": 291, "homepage": "https://clawhub.ai/agentc22/x402engine", "iconUrl": null, "installs": 35, "name": "X402engine", "ownerName": "agentc22", "score": 21962.264150943396, "slug": "x402engine", "source": "clawhub", "stars": 0, "tags": null, "updated_at": 1776759257866, "version": "1.3.2"}, {"category": "communication-collaboration", "created_at": 1772804622971, "description": "Manage WhatsApp via Evolution API: send messages, media, contacts, polls, manage groups, fetch chats, and summarize conversations.", "description_zh": "", "downloads": 291, "homepage": "https://clawhub.ai/kareemadelawwad/evolution-whatsapp", "iconUrl": null, "installs": 14, "name": "Evolution WhatsApp", "ownerName": "kareemadelawwad", "score": 21748.878923766813, "slug": "evolution-whatsapp", "source": "clawhub", "stars": 0, "tags": null, "updated_at": 1776759257840, "version": "1.0.0"}, {"category": "developer-tools", "created_at": 1772798717327, "description": "Generate and send AI-created postcards featuring your agent's selfie at real locations in 12 distinct artistic styles via the Turai Postcard API.", "description_zh": "", "downloads": 291, "homepage": "https://clawhub.ai/jpaulgrayson/agent-postcard", "iconUrl": null, "installs": 4, "name": "Agent Postcard", "ownerName": "jpaulgrayson", "score": 21765.145848915483, "slug": "agent-postcard", "source": "clawhub", "stars": 0, "tags": null, "updated_at": 1776759257729, "version": "1.0.0"}, {"category": "developer-tools", "created_at": 1772796089046, "description": "Create, manage, and track custom short URLs with uf2.net API; links never expire and provide click counts and public stats via simple REST calls.", "description_zh": "", "downloads": 291, "homepage": "https://clawhub.ai/setdemos/uf2-net", "iconUrl": null, "installs": 4, "name": "uf2.net URL Shortener", "ownerName": "setdemos", "score": 21797.752808988764, "slug": "uf2-net", "source": "clawhub", "stars": 0, "tags": ["redirection", "seo", "url", "url shortener", "url shortening"], "updated_at": 1776759257556, "version": "1.0.1"}, {"category": "data-analysis", "created_at": 1773075449392, "description": "Agricultural Product Output Forecasting Based on Big Data. Predicts crop yields and agricultural output using historical data, weather patterns, and market t...", "description_zh": "", "downloads": 291, "homepage": "https://clawhub.ai/andyxcg/agricultural-output-forecasting", "iconUrl": null, "installs": 19, "name": "Agricultural Output Forecasting", "ownerName": "andyxcg", "score": 17477.477477477478, "slug": "agricultural-output-forecasting", "source": "clawhub", "stars": 0, "tags": null, "updated_at": 1776756488707, "version": "1.0.3"}, {"category": "developer-tools", "created_at": 1773081788738, "description": "Build, measure, and evolve company culture as operational behavior — not wall posters. Covers mission/vision/values workshops, values-to-behaviors translatio...", "description_zh": "", "downloads": 291, "homepage": "https://clawhub.ai/alirezarezvani/culture-architect", "iconUrl": null, "installs": 7, "name": "Culture Architect", "ownerName": "alirezarezvani", "score": 54905.66037735849, "slug": "culture-architect", "source": "clawhub", "stars": 0, "tags": null, "updated_at": 1776754988754, "version": "2.1.1"}, {"category": "data-analysis", "created_at": 1772797633471, "description": "Clearbit — person enrichment, company enrichment, prospecting, and reveal (identify website visitors).", "description_zh": "", "downloads": 291, "homepage": "https://clawhub.ai/aiwithabidi/clearbit", "iconUrl": null, "installs": 8, "name": "Clearbit", "ownerName": "aiwithabidi", "score": 60248.44720496895, "slug": "clearbit", "source": "clawhub", "stars": 0, "tags": null, "updated_at": 1776748785449, "version": "1.0.0"}, {"category": "productivity", "created_at": 1772798185515, "description": "Control YouTube Music with natural language. Play, pause, skip, search, manage playlists, and queue tracks. Full playback control via browser automation.", "description_zh": "", "downloads": 291, "homepage": "https://clawhub.ai/oki3505f/youtube-music-ultra", "iconUrl": null, "installs": 5, "name": "Youtube Music", "ownerName": "oki3505f", "score": 60248.44720496895, "slug": "youtube-music-ultra", "source": "clawhub", "stars": 0, "tags": null, "updated_at": 1776748785424, "version": "3.0.0"}, {"category": "ai-intelligence", "created_at": 1772805198680, "description": "Production blueprint for orchestrating multiple OpenClaw agents via Feishu with file-driven task queues, cron scheduling, and workspace sandbox workarounds.", "description_zh": "", "downloads": 291, "homepage": "https://clawhub.ai/evan966890/feishu-multi-agent", "iconUrl": null, "installs": 17, "name": "feishu-multi-agent", "ownerName": "evan966890", "score": 95098.03921568627, "slug": "feishu-multi-agent", "source": "clawhub", "stars": 0, "tags": null, "updated_at": 1776748785135, "version": "1.0.0"}, {"category": "ai-intelligence", "created_at": 1772793470222, "description": "Navigate Mumbai as visitor, resident, tech worker, student, or entrepreneur with neighborhoods, local trains, costs, visas, and local insights.", "description_zh": "", "downloads": 291, "homepage": "https://clawhub.ai/ivangdavila/mumbai", "iconUrl": null, "installs": 14, "name": "Mumbai", "ownerName": "ivangdavila", "score": 65246.63677130045, "slug": "mumbai", "source": "clawhub", "stars": 0, "tags": null, "updated_at": 1776748784978, "version": "1.0.0"}, {"category": "developer-tools", "created_at": 1773090045427, "description": "Automate repetitive computer tasks including file operations, data processing, web scraping, and API integrations. Use when you need to batch process files,...", "description_zh": "", "downloads": 291, "homepage": "https://clawhub.ai/yinanping-cpu/yinan-task-automator", "iconUrl": null, "installs": 85, "name": "Task Automator", "ownerName": "yinanping-cpu", "score": 88449.84802431612, "slug": "yinan-task-automator", "source": "clawhub", "stars": 0, "tags": null, "updated_at": 1776748784959, "version": "1.0.0"}, {"category": "developer-tools", "created_at": 1773080200137, "description": "Replicate ML platform — run AI models, manage predictions, browse collections, search models. ML inference CLI.", "description_zh": "", "downloads": 291, "homepage": "https://clawhub.ai/aiwithabidi/replicate", "iconUrl": null, "installs": 11, "name": "Replicate", "ownerName": "aiwithabidi", "score": 90654.20560747663, "slug": "replicate", "source": "clawhub", "stars": 0, "tags": null, "updated_at": 1776748784682, "version": "1.0.0"}, {"category": "security-compliance", "created_at": 1772797851566, "description": "Precision decisioning, agentic trust, and verifiable identity for autonomous agents", "description_zh": "", "downloads": 291, "homepage": "https://clawhub.ai/knuckles-stack/kevros", "iconUrl": null, "installs": 8, "name": "Kevros", "ownerName": "knuckles-stack", "score": 90654.20560747663, "slug": "kevros", "source": "clawhub", "stars": 0, "tags": ["cryptography", "governance", "security"], "updated_at": 1776748784662, "version": "0.4.1"}, {"category": "productivity", "created_at": 1772795593693, "description": "Encrypted distributed storage using Archon DID vaults. Manage vaults, backup and restore workspace/config/memory with multi-party access control. Use for cre...", "description_zh": "", "downloads": 291, "homepage": "https://clawhub.ai/macterra/archon-vault", "iconUrl": null, "installs": 5, "name": "Archon Vault", "ownerName": "macterra", "score": 87915.4078549849, "slug": "archon-vault", "source": "clawhub", "stars": 0, "tags": null, "updated_at": 1776748784586, "version": "0.1.0"}, {"category": "developer-tools", "created_at": 1772798744929, "description": "Give your agent eyes — capture screenshots, voice, and annotations from any screen, monitor, or device via MCP.", "description_zh": "", "downloads": 291, "homepage": "https://clawhub.ai/wolverin0/eye2byte", "iconUrl": null, "installs": 19, "name": "Give eyes to your openclaw", "ownerName": "wolverin0", "score": 90654.20560747663, "slug": "eye2byte", "source": "clawhub", "stars": 0, "tags": null, "updated_at": 1776748784573, "version": "1.0.1"}, {"category": "developer-tools", "created_at": 1772800020959, "description": "Smart auto-reply for GitHub Issues with professional customer service", "description_zh": "", "downloads": 291, "homepage": "https://clawhub.ai/sendwealth/github-auto-reply", "iconUrl": null, "installs": 35, "name": "GitHub Auto Reply", "ownerName": "sendwealth", "score": 93569.13183279743, "slug": "github-auto-reply", "source": "clawhub", "stars": 0, "tags": null, "updated_at": 1776748784487, "version": "1.0.0"}, {"category": "developer-tools", "created_at": 1773090406662, "description": "Create recurring focus time blocks on Google Calendar to protect deep work hours.", "description_zh": "", "downloads": 291, "homepage": "https://clawhub.ai/googleworkspace-bot/recipe-block-focus-time", "iconUrl": null, "installs": 13, "name": "Recipe Block Focus Time", "ownerName": "googleworkspace-bot", "score": 63815.78947368421, "slug": "recipe-block-focus-time", "source": "clawhub", "stars": 0, "tags": null, "updated_at": 1776748784334, "version": "1.0.10"}, {"category": "developer-tools", "created_at": 1772797217747, "description": "Use this skill to fetch TAAPI.IO indicator data for crypto or stocks, including fast single-indicator requests and bulk/multi-construct queries for agentic t...", "description_zh": "", "downloads": 291, "homepage": "https://clawhub.ai/oscraters/taapi", "iconUrl": null, "installs": 14, "name": "TAAPI CLI", "ownerName": "oscraters", "score": 91798.1072555205, "slug": "taapi", "source": "clawhub", "stars": 0, "tags": null, "updated_at": 1776748784266, "version": "1.0.1"}, {"category": "productivity", "created_at": 1772799303531, "description": "Generate, optimize, and publish 1000+ high-quality EvoMap bundles automatically", "description_zh": "", "downloads": 291, "homepage": "https://clawhub.ai/josephyb97/evomap-mass-publisher", "iconUrl": null, "installs": 8, "name": "evomap-MassPublisher", "ownerName": "josephyb97", "score": 90937.5, "slug": "evomap-mass-publisher", "source": "clawhub", "stars": 0, "tags": null, "updated_at": 1776748784151, "version": "1.0.0"}]}