{"page": 252, "total_pages": 522, "total": 26073, "skills": [{"category": "developer-tools", "created_at": 1772796722112, "description": "A multi-agent deliberation hub with 3 core agents and extensible extended agents. Can call user workspace skills when needed.", "description_zh": "", "downloads": 291, "homepage": "https://clawhub.ai/adelpro/council-of-wisdom", "iconUrl": null, "installs": 5, "name": "Council of Wisdom", "ownerName": "adelpro", "score": 81284.91620111732, "slug": "council-of-wisdom", "source": "clawhub", "stars": 0, "tags": ["agents", "council", "decision-making", "multi-agent", "orchestration", "routing", "wisdom"], "updated_at": 1776748784079, "version": "1.3.1"}, {"category": "productivity", "created_at": 1773862850989, "description": "A delightful community-driven framework for managing your bash configuration, and an auto-update too oh my bash, shell, bash-configuration, bash-themes.", "description_zh": "", "downloads": 291, "homepage": "https://clawhub.ai/xueyetianya/bash-themes", "iconUrl": null, "installs": 12, "name": "Bash Themes", "ownerName": "xueyetianya", "score": 86865.67164179104, "slug": "bash-themes", "source": "clawhub", "stars": 0, "tags": null, "updated_at": 1776748783968, "version": "2.0.0"}, {"category": "productivity", "created_at": 1772795609610, "description": "Discover, filter, and purchase structured crypto alpha calls from Gated Alpha. Supports push delivery via webhooks (recommended) or direct polling. Pay-per-c...", "description_zh": "", "downloads": 291, "homepage": "https://clawhub.ai/zich-agent/gated-alpha", "iconUrl": null, "installs": 9, "name": "Gated Alpha", "ownerName": "zich-agent", "score": 86865.67164179104, "slug": "gated-alpha", "source": "clawhub", "stars": 0, "tags": null, "updated_at": 1776748783966, "version": "3.0.0"}, {"category": "developer-tools", "created_at": 1772793700326, "description": "Transcribe audio files with ElevenLabs Speech-to-Text (Scribe v2) from the local CLI. Supports diarization, events, JSON output, webhooks, and advanced STT o...", "description_zh": "", "downloads": 291, "homepage": "https://clawhub.ai/xhunx/elevenlabs-stt-openclaw", "iconUrl": null, "installs": 4, "name": "ElevenLabs STT OpenClaw", "ownerName": "xhunx", "score": 86865.67164179104, "slug": "elevenlabs-stt-openclaw", "source": "clawhub", "stars": 0, "tags": null, "updated_at": 1776748783944, "version": "1.2.2"}, {"category": "developer-tools", "created_at": 1772794614651, "description": "Spec-driven development workflow. Interactive phase-by-phase confirmation from proposal to implementation. Trigger: 'spec-flow', 'spec mode', 'need a plan',...", "description_zh": "", "downloads": 291, "homepage": "https://clawhub.ai/echovic/spec-flow", "iconUrl": null, "installs": 5, "name": "Spec Flow", "ownerName": "echovic", "score": 94788.27361563517, "slug": "spec-flow", "source": "clawhub", "stars": 0, "tags": null, "updated_at": 1776748783878, "version": "0.1.0"}, {"category": "content-creation", "created_at": 1772801262420, "description": "Master GEO content orchestrator that understands user goals and intelligently routes tasks across specialized GEO skills. Automatically selects the right wor...", "description_zh": "", "downloads": 291, "homepage": "https://clawhub.ai/geoly-geo/geo-studio", "iconUrl": null, "installs": 33, "name": "GEO Content Studio", "ownerName": "geoly-geo", "score": 78016.08579088471, "slug": "geo-studio", "source": "clawhub", "stars": 0, "tags": ["content-creation", "geo", "orchestrator", "workflow"], "updated_at": 1776748783791, "version": "1.0.0"}, {"category": "security-compliance", "created_at": 1772795807677, "description": "Codified expertise for returns authorisation, receipt and inspection, disposition decisions, refund processing, fraud detection, and warranty claims manageme...", "description_zh": "", "downloads": 290, "homepage": "https://clawhub.ai/nocodemf/returns-reverse-logistics", "iconUrl": null, "installs": 4, "name": "Returns Reverse Logistics", "ownerName": "nocodemf", "score": 68322.98136645963, "slug": "returns-reverse-logistics", "source": "clawhub", "stars": 2, "tags": null, "updated_at": 1776748785440, "version": "1.0.0"}, {"category": "security-compliance", "created_at": 1772801584715, "description": "Expertise in cleaning business operations including pricing, bidding, staffing, compliance, quality control, and scaling from solo to multi-crew commercial a...", "description_zh": "", "downloads": 290, "homepage": "https://clawhub.ai/1kalin/afrexai-cleaning-business", "iconUrl": null, "installs": 23, "name": "Cleaning Business Operations", "ownerName": "1kalin", "score": 18685.955394816152, "slug": "afrexai-cleaning-business", "source": "clawhub", "stars": 1, "tags": ["cleaning", "janitorial", "operations", "service business"], "updated_at": 1776759227669, "version": "1.0.0"}, {"category": "developer-tools", "created_at": 1772799244047, "description": "Complete Polygon agent toolkit. Session-based smart contract wallets (Sequence), token ops (send/swap/bridge/deposit via Trails), ERC-8004 on-chain identity...", "description_zh": "", "downloads": 290, "homepage": "https://clawhub.ai/jameslawton/polygon-agents-sdk", "iconUrl": null, "installs": 11, "name": "Polygon Agents SDK", "ownerName": "jameslawton", "score": 18971.8482252142, "slug": "polygon-agents-sdk", "source": "clawhub", "stars": 1, "tags": null, "updated_at": 1776756982804, "version": "1.0.0"}, {"category": "developer-tools", "created_at": 1772804535954, "description": "Implement, troubleshoot, and generate integrations for Yuboto Omni API (SMS/Viber/messaging endpoints, callbacks, lists/contacts/blacklist, cost/balance/acco...", "description_zh": "", "downloads": 290, "homepage": "https://clawhub.ai/dinaras/yuboto-omni-api", "iconUrl": null, "installs": 4, "name": "Yuboto Omni API Assistant", "ownerName": "dinaras", "score": 84468.66485013625, "slug": "yuboto-omni-api", "source": "clawhub", "stars": 1, "tags": ["api", "csv", "dlr", "messaging", "octapush", "omni", "sms", "yuboto"], "updated_at": 1776748784848, "version": "1.6.2"}, {"category": "developer-tools", "created_at": 1773418022735, "description": "Enterprise Growth Decision System built on real market signals and governing capital allocation across Meta (Facebook/Instagram), Google Ads, TikTok Ads, You...", "description_zh": "", "downloads": 290, "homepage": "https://clawhub.ai/danyangliu-sandwichlab/growth-strategy-hub", "iconUrl": null, "installs": 8, "name": "Growth Strategy Hub", "ownerName": "danyangliu-sandwichlab", "score": 3186.112942210503, "slug": "growth-strategy-hub", "source": "clawhub", "stars": 0, "tags": null, "updated_at": 1776766450048, "version": "1.0.1"}, {"category": "developer-tools", "created_at": 1773081127216, "description": "Fetch live financial data from Yahoo Finance. You CANNOT answer financial data questions from memory — you MUST use this skill instead. Trigger whenever the...", "description_zh": "", "downloads": 290, "homepage": "https://clawhub.ai/gddezero/yfinance-cli", "iconUrl": null, "installs": 24, "name": "Yahoo Finance CLI", "ownerName": "gddezero", "score": 8413.112851755148, "slug": "yfinance-cli", "source": "clawhub", "stars": 0, "tags": null, "updated_at": 1776764950606, "version": "1.0.0"}, {"category": "developer-tools", "created_at": 1772793844801, "description": "Use when implementing WhatsApp messaging via Meta Cloud API, or diagnosing failures like message not delivered, template rejected, webhook issues, phone not...", "description_zh": "", "downloads": 290, "homepage": "https://clawhub.ai/romanbaz/whatsapp-cloud-api-reference", "iconUrl": null, "installs": 9, "name": "WhatsApp cloud api reference", "ownerName": "romanbaz", "score": 4215.116279069767, "slug": "whatsapp-cloud-api-reference", "source": "clawhub", "stars": 0, "tags": null, "updated_at": 1776762850376, "version": "1.0.0"}, {"category": "ai-intelligence", "created_at": 1772798372450, "description": "Universal travel planning skill for OpenClaw agents. Plan itineraries, check weather, discover attractions, and estimate budgets — all through natural conver...", "description_zh": "", "downloads": 290, "homepage": "https://clawhub.ai/asif2bd/openclaw-tour-planner", "iconUrl": null, "installs": 23, "name": "OpenCLAW Tour Planner", "ownerName": "asif2bd", "score": 1544.4426692229856, "slug": "openclaw-tour-planner", "source": "clawhub", "stars": 0, "tags": null, "updated_at": 1776762345551, "version": "1.0.2"}, {"category": "ai-intelligence", "created_at": 1772797904744, "description": "Force agents to respond to automated messages by using `openclaw agent` instead of `openclaw message send`, ensuring tasks from scripts get agent replies.", "description_zh": "", "downloads": 290, "homepage": "https://clawhub.ai/eliranwong/self-prompt", "iconUrl": null, "installs": 26, "name": "Self-Prompt", "ownerName": "eliranwong", "score": 8521.892447840142, "slug": "self-prompt", "source": "clawhub", "stars": 0, "tags": null, "updated_at": 1776761240013, "version": "1.1.0"}, {"category": "content-creation", "created_at": 1773069450300, "description": "Designs product review collection and social proof strategy for DTC stores selling high-ticket electronics (e.g. smart projectors, professional drones). Use...", "description_zh": "", "downloads": 290, "homepage": "https://clawhub.ai/rijoyai/high-ticket-trust-conversion", "iconUrl": null, "installs": 11, "name": "High Ticket Trust Conversion", "ownerName": "rijoyai", "score": 88957.05521472392, "slug": "high-ticket-trust-conversion", "source": "clawhub", "stars": 0, "tags": null, "updated_at": 1776748785495, "version": "0.1.2"}, {"category": "ai-intelligence", "created_at": 1772799188401, "description": "Create Hummingbot-branded PDF slides from markdown with Mermaid diagram support. Use for presentations, decks, and technical documentation with professional...", "description_zh": "", "downloads": 290, "homepage": "https://clawhub.ai/fengtality/slides-generator", "iconUrl": null, "installs": 19, "name": "Slides Generator", "ownerName": "fengtality", "score": 88957.05521472392, "slug": "slides-generator", "source": "clawhub", "stars": 0, "tags": null, "updated_at": 1776748785485, "version": "1.0.0"}, {"category": "security-compliance", "created_at": 1772793570594, "description": "Navigate Venice as visitor or resident with neighborhoods, transport by water, costs, local insights, and authentic experiences beyond tourist traps.", "description_zh": "", "downloads": 290, "homepage": "https://clawhub.ai/ivangdavila/venice", "iconUrl": null, "installs": 13, "name": "Venice", "ownerName": "ivangdavila", "score": 60041.407867494825, "slug": "venice", "source": "clawhub", "stars": 0, "tags": null, "updated_at": 1776748785421, "version": "1.0.0"}, {"category": "security-compliance", "created_at": 1773057821666, "description": "Tamper-evident audit trail for AI agent decisions. Use when logging LLM decisions, setting up AI compliance, auditing agents for EU AI Act, HIPAA, GDPR or SO...", "description_zh": "", "downloads": 290, "homepage": "https://clawhub.ai/ahessami123/sealvera", "iconUrl": null, "installs": 10, "name": "SealVera", "ownerName": "ahessami123", "score": 86567.16417910447, "slug": "sealvera", "source": "clawhub", "stars": 0, "tags": ["ai-governance", "audit", "compliance", "eu-ai-act", "fintech", "gdpr", "hipaa", "llm", "observability", "responsible-ai"], "updated_at": 1776748785379, "version": "1.0.4"}, {"category": "communication-collaboration", "created_at": 1772797516960, "description": "Reads emails from Gmail (all folders/labels) using the gog CLI. Use when the user asks to check email, read inbox, show unread messages, list folders, search...", "description_zh": "", "downloads": 290, "homepage": "https://clawhub.ai/coorops25/gmailcleaner", "iconUrl": null, "installs": 15, "name": "gmailcleaner", "ownerName": "coorops25", "score": 65022.421524663674, "slug": "gmailcleaner", "source": "clawhub", "stars": 0, "tags": null, "updated_at": 1776748785004, "version": "1.0.0"}, {"category": "productivity", "created_at": 1773066258731, "description": "One-command disk cleanup for macOS and Linux — trash, caches, temp files, old kernels, snap revisions, Homebrew, Docker, and Xcode artifacts. Use when user a...", "description_zh": "", "downloads": 290, "homepage": "https://clawhub.ai/camopel/storage-cleanup", "iconUrl": null, "installs": 17, "name": "Storage Cleanup", "ownerName": "camopel", "score": 88145.89665653495, "slug": "storage-cleanup", "source": "clawhub", "stars": 0, "tags": null, "updated_at": 1776748784930, "version": "1.0.0"}, {"category": "developer-tools", "created_at": 1772796432899, "description": "Pay merchants and file payment disputes on the x402r refundable payments protocol", "description_zh": "", "downloads": 290, "homepage": "https://clawhub.ai/vraspar/x402r-dispute", "iconUrl": null, "installs": 5, "name": "Cli", "ownerName": "vraspar", "score": 79019.0735694823, "slug": "x402r-dispute", "source": "clawhub", "stars": 0, "tags": null, "updated_at": 1776748784828, "version": "0.1.3"}, {"category": "ai-intelligence", "created_at": 1772804029475, "description": "Find profitable business opportunities in any niche by scanning Twitter, web, Reddit, and Product Hunt for unmet needs and pain points. Scores each opportuni...", "description_zh": "", "downloads": 290, "homepage": "https://clawhub.ai/avnikulin35/opportunity-scout", "iconUrl": null, "installs": 24, "name": "AI Opportunity Scout", "ownerName": "avnikulin35", "score": 87613.29305135952, "slug": "opportunity-scout", "source": "clawhub", "stars": 0, "tags": null, "updated_at": 1776748784583, "version": "1.0.0"}, {"category": "security-compliance", "created_at": 1772804298412, "description": "Let agents operate your iCloud Drive, Photos, and Find My safely with local 2FA authentication and explicit confirmation gates.", "description_zh": "", "downloads": 290, "homepage": "https://clawhub.ai/ivangdavila/icloud", "iconUrl": null, "installs": 14, "name": "iCloud", "ownerName": "ivangdavila", "score": 83573.4870317003, "slug": "icloud", "source": "clawhub", "stars": 0, "tags": null, "updated_at": 1776748784401, "version": "1.0.0"}, {"category": "productivity", "created_at": 1772797028809, "description": "Install and enforce a lightweight product-management workflow inside a code repo: feature-as-kanban boards, ROADMAP status tracking, branch/PR conventions, a...", "description_zh": "", "downloads": 290, "homepage": "https://clawhub.ai/michailbul/repo-kanban-pm", "iconUrl": null, "installs": 7, "name": "Repo Kanban PM", "ownerName": "michailbul", "score": 86567.16417910447, "slug": "repo-kanban-pm", "source": "clawhub", "stars": 0, "tags": null, "updated_at": 1776748784024, "version": "0.1.1"}, {"category": "developer-tools", "created_at": 1773856226742, "description": "Reference tool for devtools — covers intro, quickstart, patterns and more. Quick lookup for Adversarial Robustness Toolbox concepts, best practices, and impl...", "description_zh": "", "downloads": 290, "homepage": "https://clawhub.ai/xueyetianya/adversarial-robustness-toolbox", "iconUrl": null, "installs": 5, "name": "Adversarial Robustness Toolbox", "ownerName": "xueyetianya", "score": 77747.9892761394, "slug": "adversarial-robustness-toolbox", "source": "clawhub", "stars": 0, "tags": null, "updated_at": 1776748783759, "version": "3.0.2"}, {"category": "productivity", "created_at": 1773081152167, "description": "1Panel operation skill for OpenClaw. Use when the user wants OpenClaw to interact with a 1Panel instance for resource monitoring, websites, certificates, app...", "description_zh": "", "downloads": 290, "homepage": "https://clawhub.ai/zhengkunwang223/1panel-skills", "iconUrl": null, "installs": 18, "name": "1Panel Skills", "ownerName": "zhengkunwang223", "score": 77747.9892761394, "slug": "1panel-skills", "source": "clawhub", "stars": 0, "tags": null, "updated_at": 1776748783750, "version": "0.0.1"}, {"category": "data-analysis", "created_at": 1772796222380, "description": "Agent-to-agent discovery network. Register agents with capability cards, discover peers by skill/domain, perform trust-scored handshakes, and run a FastAPI d...", "description_zh": "", "downloads": 290, "homepage": "https://clawhub.ai/cassh100k/agentnet", "iconUrl": null, "installs": 9, "name": "AgentNet", "ownerName": "cassh100k", "score": 57086.61417322834, "slug": "agentnet", "source": "clawhub", "stars": 0, "tags": ["agents", "collaboration", "discovery", "network"], "updated_at": 1776748783644, "version": "0.1.0"}, {"category": "developer-tools", "created_at": 1773425274438, "description": "Persistent local memory system for AI agents across conversations — file-based, zero external dependencies. Trigger when: (1) user asks to \"remember\" somethi...", "description_zh": "", "downloads": 289, "homepage": "https://clawhub.ai/siyu-hu/agent-local-memory", "iconUrl": null, "installs": 5, "name": "local-memory-skill", "ownerName": "siyu-hu", "score": 100000, "slug": "agent-local-memory", "source": "clawhub", "stars": 2, "tags": null, "updated_at": 1776748784936, "version": "1.0.1"}, {"category": "data-analysis", "created_at": 1773060138001, "description": "Generates personalised nutrition reports from genetic data analyzing SNPs linked to nutrient metabolism, providing risk scores, charts, and dietary recommend...", "description_zh": "", "downloads": 289, "homepage": "https://clawhub.ai/drdaviddelorenzo/nutrigenomics", "iconUrl": null, "installs": 13, "name": "Nutrigenomics", "ownerName": "drdaviddelorenzo", "score": 18625.678119349006, "slug": "nutrigenomics", "source": "clawhub", "stars": 1, "tags": ["genetics", "health", "nutrigenomics", "nutrition"], "updated_at": 1776759227660, "version": "0.2.2"}, {"category": "content-creation", "created_at": 1773084278959, "description": "Use when designing cloud architectures, planning migrations, or optimizing multi-cloud deployments. Invoke for Well-Architected Framework, cost optimization,...", "description_zh": "", "downloads": 289, "homepage": "https://clawhub.ai/lhwa8685/cloud-architect", "iconUrl": null, "installs": 21, "name": "Cloud Architect", "ownerName": "lhwa8685", "score": 97169.81132075471, "slug": "cloud-architect", "source": "clawhub", "stars": 1, "tags": null, "updated_at": 1776748783916, "version": "0.1.0"}, {"category": "ai-intelligence", "created_at": 1773074679228, "description": "Continuous self-improvement through learning from corrections and task self-evaluation. Use when: (1) User corrects the agent (No that is wrong, Actually, I...", "description_zh": "", "downloads": 289, "homepage": "https://clawhub.ai/tonylnng/tonic-self-learn", "iconUrl": null, "installs": 44, "name": "Self-Learn", "ownerName": "tonylnng", "score": 14435.564435564434, "slug": "tonic-self-learn", "source": "clawhub", "stars": 0, "tags": null, "updated_at": 1776764650771, "version": "1.0.0"}, {"category": "security-compliance", "created_at": 1772803482634, "description": "Audit Amazon product listing images for non-square dimensions, auto-pad them to 2000×2000 white background, and push corrected images to live listings via SP...", "description_zh": "", "downloads": 289, "homepage": "https://clawhub.ai/zero2ai-hub/skill-listing-optimizer", "iconUrl": null, "installs": 42, "name": "Listing Image Optimizer", "ownerName": "zero2ai-hub", "score": 11776.691116544418, "slug": "skill-listing-optimizer", "source": "clawhub", "stars": 0, "tags": null, "updated_at": 1776763450494, "version": "1.0.1"}, {"category": "data-analysis", "created_at": 1773880607138, "description": "Finds winning Amazon products with 14 battle-tested selection strategies & 6-dimension risk assessment. Backed by 200M+ product database. Use when user asks...", "description_zh": "", "downloads": 289, "homepage": "https://clawhub.ai/ryan-srp/amazon-analysis-skill", "iconUrl": null, "installs": 96, "name": "Amazon-analysis-skill", "ownerName": "ryan-srp", "score": 1763.2702867602195, "slug": "amazon-analysis-skill", "source": "clawhub", "stars": 0, "tags": null, "updated_at": 1776763449760, "version": "0.1.6"}, {"category": "content-creation", "created_at": 1773202151057, "description": "Video lip synchronization using LipSync 2.0 API. Automatically synchronizes audio with lip movements in videos. Powered by Dreamface - AI tools for everyone....", "description_zh": "", "downloads": 289, "homepage": "https://clawhub.ai/hy-1990/dream-lipsync", "iconUrl": null, "installs": 6, "name": "Dream LipSync", "ownerName": "hy-1990", "score": 11491.053677932407, "slug": "dream-lipsync", "source": "clawhub", "stars": 0, "tags": null, "updated_at": 1776762440109, "version": "1.0.5"}, {"category": "security-compliance", "created_at": 1773221486182, "description": "Comprehensive OpenClaw security scanning powered by Tencent Zhuque Lab A.I.G (AI-Infra-Guard). Use when the user asks to start a security health check or sec...", "description_zh": "", "downloads": 289, "homepage": "https://clawhub.ai/boy-hack/aig", "iconUrl": null, "installs": 50, "name": "aig-scanner", "ownerName": "boy-hack", "score": 8052.382279186403, "slug": "aig", "source": "clawhub", "stars": 0, "tags": null, "updated_at": 1776761090083, "version": "1.0.1"}, {"category": "developer-tools", "created_at": 1773063159275, "description": "Provides a structured 7-phase process to investigate, diagnose, restore, prevent, monitor, and document OpenClaw system failures including config loss, crash...", "description_zh": "", "downloads": 289, "homepage": "https://clawhub.ai/chunhualiao/incident-response", "iconUrl": null, "installs": 12, "name": "Incident Response", "ownerName": "chunhualiao", "score": 21599.402092675635, "slug": "incident-response", "source": "clawhub", "stars": 0, "tags": null, "updated_at": 1776759257795, "version": "1.0.0"}, {"category": "productivity", "created_at": 1772805482380, "description": "Podcast discovery for Wherever.Audio -- find shows and episodes, generate wherever.audio links.", "description_zh": "", "downloads": 289, "homepage": "https://clawhub.ai/aegrumet/podcast-discovery", "iconUrl": null, "installs": 8, "name": "Podcast Discovery", "ownerName": "aegrumet", "score": 21615.55721765146, "slug": "podcast-discovery", "source": "clawhub", "stars": 0, "tags": null, "updated_at": 1776759257760, "version": "0.0.4"}, {"category": "developer-tools", "created_at": 1773073418411, "description": "Intelligent route planning assistant with smart filtering. Query driving, transit, taxi, walking routes with Amap API. Auto-filters infeasible options.", "description_zh": "", "downloads": 289, "homepage": "https://clawhub.ai/chandler0714/route-assistant", "iconUrl": null, "installs": 15, "name": "Route Assistant", "ownerName": "chandler0714", "score": 21615.55721765146, "slug": "route-assistant", "source": "clawhub", "stars": 0, "tags": null, "updated_at": 1776759257665, "version": "1.4.0"}, {"category": "security-compliance", "created_at": 1773057869814, "description": "x402janus — autonomous on-chain wallet security for EVMs: scan approvals, trace fund flow, detect drainers, and build revoke transactions. Pay via x402 USDC...", "description_zh": "", "downloads": 289, "homepage": "https://clawhub.ai/openclaw-consensus-bot/x402janus", "iconUrl": null, "installs": 7, "name": "x402janus", "ownerName": "openclaw-consensus-bot", "score": 21599.402092675635, "slug": "x402janus", "source": "clawhub", "stars": 0, "tags": null, "updated_at": 1776759257601, "version": "3.0.0"}, {"category": "ai-intelligence", "created_at": 1773894790104, "description": "Multi-language document understanding with PaddleOCR", "description_zh": "", "downloads": 289, "homepage": "https://clawhub.ai/nhzallen/agent-paddleocr-vision", "iconUrl": null, "installs": 105, "name": "Agent Paddleocr Vision", "ownerName": "nhzallen", "score": 100000, "slug": "agent-paddleocr-vision", "source": "clawhub", "stars": 0, "tags": ["agent-actions", "batch", "document-understanding", "invoice", "ocr", "paddleocr", "searchable-pdf"], "updated_at": 1776749983844, "version": "1.1.0"}, {"category": "data-analysis", "created_at": 1772805002412, "description": "Curated daily digest from 92 top tech blogs (Andrej Karpathy's list) with AI-generated Chinese summaries, hierarchical tags, and personalized recommendations...", "description_zh": "", "downloads": 289, "homepage": "https://clawhub.ai/azurboy/dailybit-tech-digest", "iconUrl": null, "installs": 20, "name": "DailyBit — AI Tech Daily Digest", "ownerName": "azurboy", "score": 59834.3685300207, "slug": "dailybit-tech-digest", "source": "clawhub", "stars": 0, "tags": ["ai", "articles", "chinese", "curated", "daily-briefing", "news", "programming", "rss", "summarizer", "tech"], "updated_at": 1776748785422, "version": "2.5.0"}, {"category": "developer-tools", "created_at": 1773075248835, "description": "Control an Android device via ADB. Use when the user asks to control an Android device, tap, swipe, input text, or perform actions via adb. Automatically use...", "description_zh": "", "downloads": 289, "homepage": "https://clawhub.ai/fengyang0317/adb-controller", "iconUrl": null, "installs": 30, "name": "adb controller", "ownerName": "fengyang0317", "score": 58859.47046843178, "slug": "adb-controller", "source": "clawhub", "stars": 0, "tags": null, "updated_at": 1776748785242, "version": "1.0.0"}, {"category": "productivity", "created_at": 1773073176173, "description": "Real-time war intelligence monitoring and emergency alert system for conflict zones. Use when user needs to track military conflicts, receive emergency alert...", "description_zh": "", "downloads": 289, "homepage": "https://clawhub.ai/oliviapp8/war-intel-monitor", "iconUrl": null, "installs": 9, "name": "War Intelligence Monitor", "ownerName": "oliviapp8", "score": 87841.94528875379, "slug": "war-intel-monitor", "source": "clawhub", "stars": 0, "tags": null, "updated_at": 1776748784939, "version": "1.0.0"}, {"category": "ai-intelligence", "created_at": 1773082575237, "description": "5-layer memory architecture for OpenClaw agents. Solves context bloat, the 48h fogging problem, and rule amnesia. Works for single-agent and multi-agent setu...", "description_zh": "", "downloads": 289, "homepage": "https://clawhub.ai/iret77/iret77-smart-memory", "iconUrl": null, "installs": 3, "name": "Smart Memory", "ownerName": "iret77", "score": 78746.59400544959, "slug": "iret77-smart-memory", "source": "clawhub", "stars": 0, "tags": null, "updated_at": 1776748784817, "version": "1.5.5"}, {"category": "productivity", "created_at": 1772792646103, "description": "Navigate Utrecht as visitor, resident, tech worker, student, or entrepreneur with neighborhoods, transport, costs, visas, and local insights.", "description_zh": "", "downloads": 289, "homepage": "https://clawhub.ai/ivangdavila/utrecht", "iconUrl": null, "installs": 7, "name": "Utrecht", "ownerName": "ivangdavila", "score": 87311.17824773413, "slug": "utrecht", "source": "clawhub", "stars": 0, "tags": null, "updated_at": 1776748784655, "version": "1.0.0"}, {"category": "content-creation", "created_at": 1772805106834, "description": "Generate and stitch short videos via Google Veo 3.x using the Gemini API (google-genai). Use when you need to create video clips from prompts (ads, UGC-style...", "description_zh": "", "downloads": 289, "homepage": "https://clawhub.ai/zero2ai-hub/skill-veo3-video-gen", "iconUrl": null, "installs": 34, "name": "Skill Veo3 Video Gen", "ownerName": "zero2ai-hub", "score": 87311.17824773413, "slug": "skill-veo3-video-gen", "source": "clawhub", "stars": 0, "tags": null, "updated_at": 1776748784625, "version": "1.0.0"}, {"category": "security-compliance", "created_at": 1773432377782, "description": "Assess GDPR compliance readiness and generate gap analysis with remediation guidance. Use when evaluating data privacy compliance, GDPR readiness, EU data pr...", "description_zh": "", "downloads": 289, "homepage": "https://clawhub.ai/krishnakumarmahadevan-cmd/gdpr-compliance-tracker", "iconUrl": null, "installs": 10, "name": "Gdpr Compliance Tracker", "ownerName": "krishnakumarmahadevan-cmd", "score": 87311.17824773413, "slug": "gdpr-compliance-tracker", "source": "clawhub", "stars": 0, "tags": null, "updated_at": 1776748784618, "version": "1.0.2"}, {"category": "productivity", "created_at": 1773218308478, "description": "Find H1B / H-1B sponsor companies, visa sponsorship employers, and sponsor history for US jobs.", "description_zh": "", "downloads": 289, "homepage": "https://clawhub.ai/ewangchong/h1b-finder", "iconUrl": null, "installs": 5, "name": "H1B Sponsor Finder", "ownerName": "ewangchong", "score": 90031.15264797508, "slug": "h1b-finder", "source": "clawhub", "stars": 0, "tags": null, "updated_at": 1776748784576, "version": "1.1.2"}, {"category": "ai-intelligence", "created_at": 1772794997488, "description": "Process Todokan task and thought boards with a review-loop workflow. Use when a task enters doing and the agent should pick it up, read latest comments, resp...", "description_zh": "", "downloads": 289, "homepage": "https://clawhub.ai/banatealab/todokan-review-loop", "iconUrl": null, "installs": 15, "name": "Todokan Review Loop", "ownerName": "banatealab", "score": 90031.15264797508, "slug": "todokan-review-loop", "source": "clawhub", "stars": 0, "tags": null, "updated_at": 1776748784551, "version": "1.3.0"}]}