{"page": 253, "total_pages": 522, "total": 26073, "skills": [{"category": "security-compliance", "created_at": 1773061566086, "description": "A skill to execute SSH commands on remote servers, supporting both password and key-based authentication. It includes error handling and logging for command...", "description_zh": "", "downloads": 289, "homepage": "https://clawhub.ai/xlbbb-cn/sshexec", "iconUrl": null, "installs": 29, "name": "sshexec", "ownerName": "xlbbb-cn", "score": 83285.30259365994, "slug": "sshexec", "source": "clawhub", "stars": 0, "tags": null, "updated_at": 1776748784386, "version": "1.0.1"}, {"category": "data-analysis", "created_at": 1772797975499, "description": "Fornece um dashboard visual para informações do dia a dia como localização, clima, economia, previsão do tempo. Use sempre que o usuário pedir \"briefing diár...", "description_zh": "", "downloads": 289, "homepage": "https://clawhub.ai/extalisson3/briefing-diario", "iconUrl": null, "installs": 19, "name": "Briefing Diario", "ownerName": "extalisson3", "score": 90880.5031446541, "slug": "briefing-diario", "source": "clawhub", "stars": 0, "tags": null, "updated_at": 1776748783886, "version": "1.0.0"}, {"category": "data-analysis", "created_at": 1773429353758, "description": "Analyze creator profiles, content patterns, audience fit, and collaboration quality to support smarter creator decisions. Use when evaluating creators for pa...", "description_zh": "", "downloads": 289, "homepage": "https://clawhub.ai/leooooooow/creator-analysis", "iconUrl": null, "installs": 6, "name": "Creator Analysis", "ownerName": "leooooooow", "score": 94136.80781758958, "slug": "creator-analysis", "source": "clawhub", "stars": 0, "tags": null, "updated_at": 1776748783822, "version": "1.0.1"}, {"category": "data-analysis", "created_at": 1773076119001, "description": "Transform your local OpenClaw agents into a remote-controlled team. iOS/Android apps, web dashboard, multi-agent chat, real-time cost monitoring. This connec...", "description_zh": "", "downloads": 289, "homepage": "https://clawhub.ai/regiomag/ekybot-connector", "iconUrl": null, "installs": 25, "name": "Ekybot Connector", "ownerName": "regiomag", "score": 77479.8927613941, "slug": "ekybot-connector", "source": "clawhub", "stars": 0, "tags": ["dashboard", "ekybot", "integration", "mission controll", "multi-agent"], "updated_at": 1776748783789, "version": "3.0.1"}, {"category": "developer-tools", "created_at": 1772792472333, "description": "Lightweight temperature monitoring. Upgrade to Commercial Edition for Hail, Snow, Ground-Lock, and Chill Hours.", "description_zh": "", "downloads": 288, "homepage": "https://clawhub.ai/tonyjb/frost-sentinel-lite", "iconUrl": null, "installs": 9, "name": "Frost Sentinel Lite", "ownerName": "tonyjb", "score": 73542.60089686098, "slug": "frost-sentinel-lite", "source": "clawhub", "stars": 2, "tags": ["agriculture  landscaping  horticulture  nursery-management  agritech", "transparent-api", "whitelisted-domains", "zero-telemetry"], "updated_at": 1776748785055, "version": "1.0.1"}, {"category": "developer-tools", "created_at": 1772796516704, "description": "Track OpenRouter API spending — credit balance, per-model cost breakdown, and spending projections from OpenClaw session logs.", "description_zh": "", "downloads": 288, "homepage": "https://clawhub.ai/lcajigasm/openrouter-usage-info", "iconUrl": null, "installs": 8, "name": "Openrouter Usage", "ownerName": "lcajigasm", "score": 99093.65558912387, "slug": "openrouter-usage-info", "source": "clawhub", "stars": 2, "tags": null, "updated_at": 1776748784632, "version": "0.1.0"}, {"category": "ai-intelligence", "created_at": 1773075702336, "description": "Story generation pipeline skill. Supports multi-episode continuous generation, graph management, AI quality check + human confirmation dual control mechanism...", "description_zh": "", "downloads": 288, "homepage": "https://clawhub.ai/hexidyg/story-pipeline", "iconUrl": null, "installs": 28, "name": "Story generation pipeline skill", "ownerName": "hexidyg", "score": 62729.124236252545, "slug": "story-pipeline", "source": "clawhub", "stars": 1, "tags": null, "updated_at": 1776748785213, "version": "1.0.4"}, {"category": "data-analysis", "created_at": 1772797778629, "description": "Scrapes viral content from TikTok, Instagram, YouTube, and Reddit, analyzes hooks with AI, generates scripts and captions, and auto-schedules posts across pl...", "description_zh": "", "downloads": 288, "homepage": "https://clawhub.ai/g4dr/auto-content-generator", "iconUrl": null, "installs": 15, "name": "Automated Content Generation Pipeline", "ownerName": "g4dr", "score": 4065.4997176736306, "slug": "auto-content-generator", "source": "clawhub", "stars": 0, "tags": null, "updated_at": 1776768849969, "version": "1.0.0"}, {"category": "data-analysis", "created_at": 1772795120673, "description": "Analyze commercial leases for hidden costs, unfavorable terms, and negotiation leverage using cost breakdown, escalation, clause review, and market benchmarks.", "description_zh": "", "downloads": 288, "homepage": "https://clawhub.ai/1kalin/afrexai-lease-analyzer", "iconUrl": null, "installs": 15, "name": "Commercial Lease Analyzer", "ownerName": "1kalin", "score": 12291.933418693981, "slug": "afrexai-lease-analyzer", "source": "clawhub", "stars": 0, "tags": ["commercial", "cost analysis", "lease", "negotiation", "real estate"], "updated_at": 1776765850193, "version": "1.0.0"}, {"category": "security-compliance", "created_at": 1772793024035, "description": "Sentry API integration with managed authentication. Monitor errors, issues, and application performance. Use this skill when users want to list issues, retri...", "description_zh": "", "downloads": 288, "homepage": "https://clawhub.ai/byungkyu/sentry-api", "iconUrl": null, "installs": 6, "name": "Sentry", "ownerName": "byungkyu", "score": 3845.6402723995193, "slug": "sentry-api", "source": "clawhub", "stars": 0, "tags": null, "updated_at": 1776762615091, "version": "1.0.0"}, {"category": "developer-tools", "created_at": 1773064873633, "description": "Create, schedule, and monitor ETL pipelines extracting from APIs, databases, files, and streams, with transform and load support to warehouses and APIs.", "description_zh": "", "downloads": 288, "homepage": "https://clawhub.ai/sunshine-del-ux/data-pipeline-toolkit", "iconUrl": null, "installs": 17, "name": "Data Pipeline Toolkit", "ownerName": "sunshine-del-ux", "score": 21735.849056603773, "slug": "data-pipeline-toolkit", "source": "clawhub", "stars": 0, "tags": null, "updated_at": 1776759257906, "version": "1.0.0"}, {"category": "content-creation", "created_at": 1773074519072, "description": "Generate OpenClaw-themed X article covers with the lobster logo on the right quarter and text on the left three quarters, ensuring clear, readable design.", "description_zh": "", "downloads": 288, "homepage": "https://clawhub.ai/yunhe-dev/openclaw-x-article-cover-generator", "iconUrl": null, "installs": 18, "name": "Openclaw-X-article-cover-generator", "ownerName": "yunhe-dev", "score": 21735.849056603773, "slug": "openclaw-x-article-cover-generator", "source": "clawhub", "stars": 0, "tags": null, "updated_at": 1776759257900, "version": "1.0.2"}, {"category": "developer-tools", "created_at": 1772804988595, "description": "call coinank openapi to get data", "description_zh": "", "downloads": 288, "homepage": "https://clawhub.ai/a4205586/coinank-openapi-skill", "iconUrl": null, "installs": 7, "name": "Coinank Openapi Skill", "ownerName": "a4205586", "score": 21735.849056603773, "slug": "coinank-openapi-skill", "source": "clawhub", "stars": 0, "tags": null, "updated_at": 1776759257842, "version": "1.0.0"}, {"category": "data-analysis", "created_at": 1773076371112, "description": "Analyze stocks and crypto on your watchlist with AI-driven price, sentiment, news, and whale signals, plus auto-deploy trading bots via 3Commas.", "description_zh": "", "downloads": 288, "homepage": "https://clawhub.ai/g4dr/ai-stock-crypto-scanner", "iconUrl": null, "installs": 30, "name": "AI Stock & Crypto Market Scanner — Spot Opportunities Before the Crowd", "ownerName": "g4dr", "score": 21524.663677130047, "slug": "ai-stock-crypto-scanner", "source": "clawhub", "stars": 0, "tags": ["3commas", "apify", "bitcoin", "crypto", "defi", "finance", "invideo", "market-scanner", "sentiment-analysis", "stocks", "trading", "trading-bot"], "updated_at": 1776759257838, "version": "1.0.0"}, {"category": "data-analysis", "created_at": 1772804242756, "description": "Provides real-time billing and token-based cost tracking for 12+ AI providers with usage reports and balance management.", "description_zh": "", "downloads": 288, "homepage": "https://clawhub.ai/fumarole16-afk/bill-v2-2-6", "iconUrl": null, "installs": 13, "name": "Bill V2.2.6", "ownerName": "fumarole16-afk", "score": 21524.663677130047, "slug": "bill-v2-2-6", "source": "clawhub", "stars": 0, "tags": null, "updated_at": 1776759257832, "version": "2.2.6"}, {"category": "productivity", "created_at": 1773066081935, "description": "Search e-commerce products via n8n webhook integration", "description_zh": "", "downloads": 288, "homepage": "https://clawhub.ai/haresh-sai06/haresh-product-search", "iconUrl": null, "installs": 41, "name": "Haresh Product Search", "ownerName": "haresh-sai06", "score": 21540.762902019447, "slug": "haresh-product-search", "source": "clawhub", "stars": 0, "tags": null, "updated_at": 1776759257766, "version": "1.0.2"}, {"category": "productivity", "created_at": 1773081953736, "description": "Access pre-game and live odds, season award predictions, and player prop betting markets for NFL, NBA, MLB, soccer, and more.", "description_zh": "", "downloads": 288, "homepage": "https://clawhub.ai/mosonchan2023/polymarket-sports-odds", "iconUrl": null, "installs": 74, "name": "Polymarket Sports Odds", "ownerName": "mosonchan2023", "score": 21524.663677130047, "slug": "polymarket-sports-odds", "source": "clawhub", "stars": 0, "tags": null, "updated_at": 1776759257622, "version": "1.0.1"}, {"category": "communication-collaboration", "created_at": 1772797494821, "description": "Search for local or digital businesses and enrich them with verified email addresses, tech stack detection, and social media links using the Easy Email Finde...", "description_zh": "", "downloads": 288, "homepage": "https://clawhub.ai/faalbane/easy-email-finder", "iconUrl": null, "installs": 8, "name": "Openclaw Skill", "ownerName": "faalbane", "score": 15618.22125813449, "slug": "easy-email-finder", "source": "clawhub", "stars": 0, "tags": null, "updated_at": 1776754688509, "version": "1.1.0"}, {"category": "ai-intelligence", "created_at": 1773073515288, "description": "Supercharge your agent heartbeats. Auto-check services, discover other agents via OADP, batch platform monitoring, track uptime, and coordinate with agent ne...", "description_zh": "", "downloads": 288, "homepage": "https://clawhub.ai/imaflytok/heartbeat-pro", "iconUrl": null, "installs": 19, "name": "Heartbeat Pro", "ownerName": "imaflytok", "score": 88343.55828220859, "slug": "heartbeat-pro", "source": "clawhub", "stars": 0, "tags": null, "updated_at": 1776748785509, "version": "1.1.0"}, {"category": "data-analysis", "created_at": 1772795161974, "description": "Bind a consistent, high-fidelity personality to your agent using Triple Anchor Compression (MBTI, Zodiac, Enneagram). Triggers when managing high-level strat...", "description_zh": "", "downloads": 288, "homepage": "https://clawhub.ai/lux-sp4rk/my-ai-familiar", "iconUrl": null, "installs": 11, "name": "My AI Familiar", "ownerName": "lux-sp4rk", "score": 64573.991031390135, "slug": "my-ai-familiar", "source": "clawhub", "stars": 0, "tags": null, "updated_at": 1776748785019, "version": "1.2.2"}, {"category": "developer-tools", "created_at": 1773090191704, "description": "Duplicate a Google Sheets template tab for a new month of tracking.", "description_zh": "", "downloads": 288, "homepage": "https://clawhub.ai/googleworkspace-bot/recipe-copy-sheet-for-new-month", "iconUrl": null, "installs": 12, "name": "Recipe Copy Sheet For New Month", "ownerName": "googleworkspace-bot", "score": 64573.991031390135, "slug": "recipe-copy-sheet-for-new-month", "source": "clawhub", "stars": 0, "tags": null, "updated_at": 1776748784990, "version": "1.0.10"}, {"category": "productivity", "created_at": 1773221875897, "description": "This skill should be used when the user asks about 'account balance', 'how much USDT do I have', 'my funding account', 'show my positions', 'open positions',...", "description_zh": "", "downloads": 288, "homepage": "https://clawhub.ai/numpy0001/okx-cex-portfolio", "iconUrl": null, "installs": 24, "name": "okx-cex-portfolio", "ownerName": "numpy0001", "score": 88888.88888888889, "slug": "okx-cex-portfolio", "source": "clawhub", "stars": 0, "tags": null, "updated_at": 1776748784808, "version": "1.2.1"}, {"category": "developer-tools", "created_at": 1773060339183, "description": "Google Workspace CLI for Gmail, Calendar, Drive, Contacts, Sheets, and Docs.", "description_zh": "", "downloads": 288, "homepage": "https://clawhub.ai/sieyer/gog-1-0-0", "iconUrl": null, "installs": 42, "name": "Gog 1.0.0", "ownerName": "sieyer", "score": 88888.88888888889, "slug": "gog-1-0-0", "source": "clawhub", "stars": 0, "tags": null, "updated_at": 1776748784795, "version": "1.0.0"}, {"category": "developer-tools", "created_at": 1773435062347, "description": "Read data from a Google Sheet and create a formatted Google Docs report.", "description_zh": "", "downloads": 288, "homepage": "https://clawhub.ai/googleworkspace-bot/recipe-generate-report-from-sheet", "iconUrl": null, "installs": 14, "name": "Recipe Generate Report From Sheet", "ownerName": "googleworkspace-bot", "score": 89719.62616822429, "slug": "recipe-generate-report-from-sheet", "source": "clawhub", "stars": 0, "tags": null, "updated_at": 1776748784722, "version": "1.0.11"}, {"category": "productivity", "created_at": 1773057038341, "description": "Generates a comprehensive crypto market report using CoinMarketCap MCP data. Use when users ask about overall market conditions, sentiment, or want a summary...", "description_zh": "", "downloads": 288, "homepage": "https://clawhub.ai/bryan-cmc/market-report-using-cmc-mcp", "iconUrl": null, "installs": 5, "name": "Crypto Market Report using CoinMarketCap MCP", "ownerName": "bryan-cmc", "score": 89719.62616822429, "slug": "market-report-using-cmc-mcp", "source": "clawhub", "stars": 0, "tags": null, "updated_at": 1776748784716, "version": "1.0.0"}, {"category": "content-creation", "created_at": 1772799280025, "description": "Access a user's Corpus library from OpenClaw. Use when the user asks to search saved content, fetch item details, save links into Corpus, or create reminders...", "description_zh": "", "downloads": 288, "homepage": "https://clawhub.ai/doninocode/corpus", "iconUrl": null, "installs": 13, "name": "Corpus", "ownerName": "doninocode", "score": 87009.06344410876, "slug": "corpus", "source": "clawhub", "stars": 0, "tags": null, "updated_at": 1776748784610, "version": "1.0.1"}, {"category": "content-creation", "created_at": 1772797237605, "description": "Record video proof of implemented features after coding tasks complete. Use when a coding agent finishes work and needs to visually verify and demonstrate th...", "description_zh": "", "downloads": 288, "homepage": "https://clawhub.ai/rikisann/video-proof-skill", "iconUrl": null, "installs": 8, "name": "Video Proof", "ownerName": "rikisann", "score": 87009.06344410876, "slug": "video-proof-skill", "source": "clawhub", "stars": 0, "tags": null, "updated_at": 1776748784584, "version": "1.0.1"}, {"category": "developer-tools", "created_at": 1773870351710, "description": "The Go Cloud Development Kit (Go CDK): A library and tools for open cloud development in Go. go cloud, go, aws, azure, cloud, gcp.", "description_zh": "", "downloads": 288, "homepage": "https://clawhub.ai/xueyetianya/cloud-sdk", "iconUrl": null, "installs": 10, "name": "Cloud Sdk", "ownerName": "xueyetianya", "score": 89719.62616822429, "slug": "cloud-sdk", "source": "clawhub", "stars": 0, "tags": null, "updated_at": 1776748784516, "version": "2.0.1"}, {"category": "developer-tools", "created_at": 1772798468281, "description": "Generate text embeddings via AIMLAPI. Use for semantic search, clustering, or high-dimensional text representations with text-embedding-3-large and other mod...", "description_zh": "", "downloads": 288, "homepage": "https://clawhub.ai/aimlapihello/aiml-embeddings", "iconUrl": null, "installs": 4, "name": "AIML Embeddings Generator", "ownerName": "aimlapihello", "score": 82997.1181556196, "slug": "aiml-embeddings", "source": "clawhub", "stars": 0, "tags": null, "updated_at": 1776748784409, "version": "1.0.0"}, {"category": "security-compliance", "created_at": 1773082322396, "description": "Analyze GitHub repositories using RepoRead AI. Use when the user asks to \"analyze a repo\", \"generate docs\", \"security audit a repo\", \"create a README\", or wa...", "description_zh": "", "downloads": 288, "homepage": "https://clawhub.ai/gdperkins/reporead", "iconUrl": null, "installs": 7, "name": "Reporead", "ownerName": "gdperkins", "score": 63157.8947368421, "slug": "reporead", "source": "clawhub", "stars": 0, "tags": ["code-analysis", "developer-tools", "documentation", "github", "mcp", "security"], "updated_at": 1776748784315, "version": "1.2.0"}, {"category": "productivity", "created_at": 1773078728381, "description": "Google Tasks: Manage task lists and tasks.", "description_zh": "", "downloads": 288, "homepage": "https://clawhub.ai/googleworkspace-bot/gws-tasks", "iconUrl": null, "installs": 20, "name": "Gws Tasks", "ownerName": "googleworkspace-bot", "score": 63157.8947368421, "slug": "gws-tasks", "source": "clawhub", "stars": 0, "tags": null, "updated_at": 1776748784290, "version": "1.0.0"}, {"category": "ai-intelligence", "created_at": 1772798524399, "description": "Use when users need daily news summaries, current events, or want to stay informed about world news in Chinese.", "description_zh": "", "downloads": 288, "homepage": "https://clawhub.ai/jaceymarvin99/daliy-news", "iconUrl": null, "installs": 24, "name": "Daily News", "ownerName": "jaceymarvin99", "score": 80446.92737430168, "slug": "daliy-news", "source": "clawhub", "stars": 0, "tags": null, "updated_at": 1776748784073, "version": "0.1.0"}, {"category": "developer-tools", "created_at": 1772799290727, "description": "Especialista TI Ubuntu 24.04. Cuida do sistema host - espaço em disco, RAM, lentidão, limpeza periódica. Use when: (1) verificação de saúde do sistema, (2) l...", "description_zh": "", "downloads": 288, "homepage": "https://clawhub.ai/zelzaclaw/doc-sysadmin", "iconUrl": null, "installs": 6, "name": "Doc Sysadmin", "ownerName": "zelzaclaw", "score": 93811.07491856677, "slug": "doc-sysadmin", "source": "clawhub", "stars": 0, "tags": ["maintenance", "sysadmin", "ubuntu"], "updated_at": 1776748783857, "version": "1.0.0"}, {"category": "developer-tools", "created_at": 1773284561863, "description": "Help users decide when Tmall is a good shopping choice based on product category, official store trust, brand preference, and platform fit. Use when the user...", "description_zh": "", "downloads": 288, "homepage": "https://clawhub.ai/harrylabsj/tianmao", "iconUrl": null, "installs": 11, "name": "Tianmao", "ownerName": "harrylabsj", "score": 77211.7962466488, "slug": "tianmao", "source": "clawhub", "stars": 0, "tags": null, "updated_at": 1776748783764, "version": "1.2.1"}, {"category": "productivity", "created_at": 1772797288421, "description": "Standardized skill install workflow using short aliases (chis/chisf) with force + force-install + workspace-aware lookup.", "description_zh": "", "downloads": 288, "homepage": "https://clawhub.ai/zququ/chis-chisf", "iconUrl": null, "installs": 5, "name": "CHIS/CHISF", "ownerName": "zququ", "score": 77211.7962466488, "slug": "chis-chisf", "source": "clawhub", "stars": 0, "tags": null, "updated_at": 1776748783742, "version": "1.0.2"}, {"category": "data-analysis", "created_at": 1772794679910, "description": "Search and analyze your own session logs (older/parent conversations) using jq.", "description_zh": "", "downloads": 288, "homepage": "https://clawhub.ai/mohdalhashemi98-hue/mh-session-logs", "iconUrl": null, "installs": 8, "name": "MH session-logs", "ownerName": "mohdalhashemi98-hue", "score": 77211.7962466488, "slug": "mh-session-logs", "source": "clawhub", "stars": 0, "tags": null, "updated_at": 1776748783740, "version": "1.0.0"}, {"category": "developer-tools", "created_at": 1773855925451, "description": "APM, (Application Performance Management) tool for large-scale distributed systems. apm-monitor, java, agent, apm, distributed-tracing, monitoring.", "description_zh": "", "downloads": 288, "homepage": "https://clawhub.ai/bytesagain1/apm-monitor", "iconUrl": null, "installs": 5, "name": "Apm Monitor", "ownerName": "bytesagain1", "score": 86486.4864864865, "slug": "apm-monitor", "source": "clawhub", "stars": 0, "tags": null, "updated_at": 1776748783692, "version": "2.0.0"}, {"category": "ai-intelligence", "created_at": 1773078404964, "description": "Always-on finance UX research. Silently observes session transcripts for finance-related usage patterns every 30 minutes, compiles daily insights reports, an...", "description_zh": "", "downloads": 288, "homepage": "https://clawhub.ai/dflam1/finance-ethnographer", "iconUrl": null, "installs": 43, "name": "finance-ethnographer", "ownerName": "dflam1", "score": 56692.913385826774, "slug": "finance-ethnographer", "source": "clawhub", "stars": 0, "tags": null, "updated_at": 1776748783643, "version": "1.0.0"}, {"category": "data-analysis", "created_at": 1773057541484, "description": "MCP Colombia Hub — aggregates Colombian services via MCP protocol. Soulprint identity verification integrated — verify Colombian users before sensitive opera...", "description_zh": "", "downloads": 287, "homepage": "https://clawhub.ai/manuelfelipearias/mcp-colombia", "iconUrl": null, "installs": 8, "name": "MCP Colombia", "ownerName": "manuelfelipearias", "score": 100000, "slug": "mcp-colombia", "source": "clawhub", "stars": 4, "tags": null, "updated_at": 1776748784875, "version": "1.0.9"}, {"category": "developer-tools", "created_at": 1773077404286, "description": "Monitor cron jobs and background tasks with PulseMon. Check monitor status, create/update/delete monitors, view incidents, and manage alerts.", "description_zh": "", "downloads": 287, "homepage": "https://clawhub.ai/raygaledev/pulsemon", "iconUrl": null, "installs": 9, "name": "PulseMon", "ownerName": "raygaledev", "score": 22054.597701149425, "slug": "pulsemon", "source": "clawhub", "stars": 1, "tags": null, "updated_at": 1776767050236, "version": "1.0.2"}, {"category": "data-analysis", "created_at": 1773063930883, "description": "Analyze any public company's AI exposure using the 8-dimension AI Exposure Index. Fetches last 4 10-K filings (or international equivalents), O*NET data, pat...", "description_zh": "", "downloads": 287, "homepage": "https://clawhub.ai/martinpmm/ai-exposure-analysis-for-investing", "iconUrl": null, "installs": 30, "name": "Stock AI exposure analysis for investing", "ownerName": "martinpmm", "score": 78516.62404092071, "slug": "ai-exposure-analysis-for-investing", "source": "clawhub", "stars": 1, "tags": null, "updated_at": 1776759227509, "version": "1.0.2"}, {"category": "communication-collaboration", "created_at": 1773075525433, "description": "Turn people, companies, agendas, notes, and email threads into consulting-style meeting briefs, sharp questions, follow-up emails, and action items.", "description_zh": "", "downloads": 287, "homepage": "https://clawhub.ai/atwatcher/mckinsey-style-meeting-brief-copilot", "iconUrl": null, "installs": 39, "name": "McKinsey-Style Meeting Brief Copilot", "ownerName": "atwatcher", "score": 20631.72043010753, "slug": "mckinsey-style-meeting-brief-copilot", "source": "clawhub", "stars": 1, "tags": ["collaboration", "communication", "email", "executive-brief", "follow-up", "mckinsey", "meetings", "planning", "prep", "productivity", "research", "stakeholder-management", "work"], "updated_at": 1776758182451, "version": "1.3.0"}, {"category": "data-analysis", "created_at": 1773061984241, "description": "Reviews user-modified code (diffs/PRs), provides best-practice recommendations, analyzes cost-effectiveness of the approach, and outputs a code score. Use wh...", "description_zh": "", "downloads": 287, "homepage": "https://clawhub.ai/wangzhiming1999/modified-code-review", "iconUrl": null, "installs": 12, "name": "Modified Code Review", "ownerName": "wangzhiming1999", "score": 2127.817319098458, "slug": "modified-code-review", "source": "clawhub", "stars": 0, "tags": null, "updated_at": 1776766212893, "version": "1.0.0"}, {"category": "ai-intelligence", "created_at": 1772798403628, "description": "Scans SKILL.md files with 7 regex layers to block prompt injection, reverse shells, memory tampering, encoding evasion, and trust abuse before LLM processing.", "description_zh": "", "downloads": 287, "homepage": "https://clawhub.ai/cyberxuan-xbx/skill-sanitizer", "iconUrl": null, "installs": 19, "name": "Clawhub Publish", "ownerName": "cyberxuan-xbx", "score": 1537.4725451331226, "slug": "skill-sanitizer", "source": "clawhub", "stars": 0, "tags": null, "updated_at": 1776762345388, "version": "2.1.1"}, {"category": "productivity", "created_at": 1773075602073, "description": "Query system information including OS, CPU, memory, and disk usage. Use when users ask about system configuration, resource usage, performance diagnostics, o...", "description_zh": "", "downloads": 287, "homepage": "https://clawhub.ai/liujintao-2021/system-info-windows-skill", "iconUrl": null, "installs": 22, "name": "system-info-windows-skill", "ownerName": "liujintao-2021", "score": 22043.010752688173, "slug": "system-info-windows-skill", "source": "clawhub", "stars": 0, "tags": null, "updated_at": 1776759682218, "version": "1.0.3"}, {"category": "ai-intelligence", "created_at": 1773086095955, "description": "AI Agent Skill unit testing framework. A framework-agnostic toolkit for discovering, scaffolding, selecting, evaluating, and reporting on AI skills. Use this...", "description_zh": "", "downloads": 287, "homepage": "https://clawhub.ai/islinxu/eval-skills", "iconUrl": null, "installs": 21, "name": "Eval Skills", "ownerName": "islinxu", "score": 21449.925261584453, "slug": "eval-skills", "source": "clawhub", "stars": 0, "tags": null, "updated_at": 1776759257826, "version": "0.1.1"}, {"category": "developer-tools", "created_at": 1772796587601, "description": "Persistent memory for agents. Stores preferences, decisions, facts, and events as a connected knowledge graph. Recalled by who, what, when, or why.", "description_zh": "", "downloads": 287, "homepage": "https://clawhub.ai/harshidwasekar/hypabase-memory", "iconUrl": null, "installs": 6, "name": "Hypabase Memory", "ownerName": "harshidwasekar", "score": 21449.925261584453, "slug": "hypabase-memory", "source": "clawhub", "stars": 0, "tags": null, "updated_at": 1776759257825, "version": "0.2.4"}, {"category": "data-analysis", "created_at": 1773059852870, "description": "Provides concurrent web search and code search capabilities for Agents with hybrid retrieval. Supports searching multiple keywords simultaneously, Embedding...", "description_zh": "", "downloads": 287, "homepage": "https://clawhub.ai/sebrinass/performing-searches", "iconUrl": null, "installs": 14, "name": "Augmented Search", "ownerName": "sebrinass", "score": 21465.968586387437, "slug": "performing-searches", "source": "clawhub", "stars": 0, "tags": null, "updated_at": 1776759257730, "version": "1.1.3"}, {"category": "security-compliance", "created_at": 1772797264406, "description": "Manage staffing agency finances, compliance, and operations across multiple verticals, optimizing billing, margins, payroll burden, and key performance metrics.", "description_zh": "", "downloads": 287, "homepage": "https://clawhub.ai/1kalin/afrexai-staffing-agency", "iconUrl": null, "installs": 16, "name": "Staffing Agency Operations", "ownerName": "1kalin", "score": 21465.968586387437, "slug": "afrexai-staffing-agency", "source": "clawhub", "stars": 0, "tags": ["business", "hr", "operations", "recruitment", "staffing", "temp agency", "workforce"], "updated_at": 1776759257703, "version": "1.0.0"}, {"category": "content-creation", "created_at": 1772803923244, "description": "Query CJ Dropshipping API v2.0 to source products and fetch details for catalog building. Use for CJ keyword search, pulling product records (SPU/SKU, images...", "description_zh": "", "downloads": 287, "homepage": "https://clawhub.ai/zero2ai-hub/skill-dropshipping-sourcing", "iconUrl": null, "installs": 20, "name": "Skill Dropshipping Sourcing", "ownerName": "zero2ai-hub", "score": 63919.82182628062, "slug": "skill-dropshipping-sourcing", "source": "clawhub", "stars": 0, "tags": null, "updated_at": 1776751969754, "version": "1.0.2"}]}