{"page": 254, "total_pages": 522, "total": 26073, "skills": [{"category": "productivity", "created_at": 1772800563774, "description": "Scans installed skills, suggests L0-L3 priority tiers, and auto-configures skill injection policy. Use when: setting up skill priorities, optimizing token bu...", "description_zh": "", "downloads": 287, "homepage": "https://clawhub.ai/halfmoon82/skill-priority-setup", "iconUrl": null, "installs": 9, "name": "Skill Priority Setup", "ownerName": "halfmoon82", "score": 59420.289855072464, "slug": "skill-priority-setup", "source": "clawhub", "stars": 0, "tags": ["configuration", "skills"], "updated_at": 1776748785471, "version": "1.0.0"}, {"category": "developer-tools", "created_at": 1772796081205, "description": "Vehicle restriction query and reminder tool for Chinese cities. Query daily restrictions and set scheduled reminders.", "description_zh": "", "downloads": 287, "homepage": "https://clawhub.ai/chandler0714/reg-limited", "iconUrl": null, "installs": 6, "name": "RegLimited", "ownerName": "chandler0714", "score": 58452.13849287169, "slug": "reg-limited", "source": "clawhub", "stars": 0, "tags": ["car", "license", "plate", "restriction"], "updated_at": 1776748785225, "version": "1.0.1"}, {"category": "productivity", "created_at": 1773856286934, "description": "Log and search local text entries from the command line. Use when adding quick notes, searching past entries, or exporting a simple activity log.", "description_zh": "", "downloads": 287, "homepage": "https://clawhub.ai/xueyetianya/bat", "iconUrl": null, "installs": 5, "name": "Bat", "ownerName": "xueyetianya", "score": 93790.84967320261, "slug": "bat", "source": "clawhub", "stars": 0, "tags": null, "updated_at": 1776748785088, "version": "2.0.3"}, {"category": "data-analysis", "created_at": 1772797101329, "description": "Pharmacogenomic report from DTC genetic data (23andMe/AncestryDNA)", "description_zh": "", "downloads": 287, "homepage": "https://clawhub.ai/manuelcorpas/clawbio-pharmgx-reporter", "iconUrl": null, "installs": 14, "name": "Pharmgx Reporter", "ownerName": "manuelcorpas", "score": 78201.63487738419, "slug": "clawbio-pharmgx-reporter", "source": "clawhub", "stars": 0, "tags": null, "updated_at": 1776748784865, "version": "0.1.0"}, {"category": "productivity", "created_at": 1772792905438, "description": "Navigate Vancouver as visitor, resident, tech worker, student, or entrepreneur with neighborhoods, transit, costs, immigration, and local insights.", "description_zh": "", "downloads": 287, "homepage": "https://clawhub.ai/ivangdavila/vancouver", "iconUrl": null, "installs": 11, "name": "Vancouver", "ownerName": "ivangdavila", "score": 89408.09968847352, "slug": "vancouver", "source": "clawhub", "stars": 0, "tags": null, "updated_at": 1776748784535, "version": "1.0.0"}, {"category": "data-analysis", "created_at": 1772803971097, "description": "Receipt verification and Bitcoin rewards by Crinkl (https://crinkl.xyz). Scans Gmail or AgentMail for billing emails, verifies DKIM signatures, and earns ~15...", "description_zh": "", "downloads": 287, "homepage": "https://clawhub.ai/alvintanpoco/crinkl-claws", "iconUrl": null, "installs": 11, "name": "Crinkl Claws", "ownerName": "alvintanpoco", "score": 82708.93371757925, "slug": "crinkl-claws", "source": "clawhub", "stars": 0, "tags": null, "updated_at": 1776748784352, "version": "1.3.2"}, {"category": "communication-collaboration", "created_at": 1772796617323, "description": "Persistent thread memory for OpenClaw agents across any platform — Moltbook, Hacker News, Reddit, Discord, Twitter. Tracks threads, surfaces only new replies...", "description_zh": "", "downloads": 287, "homepage": "https://clawhub.ai/ubgb/undersheet", "iconUrl": null, "installs": 11, "name": "Undersheet", "ownerName": "ubgb", "score": 62938.59649122807, "slug": "undersheet", "source": "clawhub", "stars": 0, "tags": null, "updated_at": 1776748784270, "version": "1.2.3"}, {"category": "developer-tools", "created_at": 1772793375292, "description": "Navigate Bangkok as visitor, resident, digital nomad, expat, or entrepreneur with neighborhoods, transport, costs, visas, and local insights.", "description_zh": "", "downloads": 287, "homepage": "https://clawhub.ai/ivangdavila/bangkok", "iconUrl": null, "installs": 5, "name": "Bangkok", "ownerName": "ivangdavila", "score": 90536.27760252367, "slug": "bangkok", "source": "clawhub", "stars": 0, "tags": null, "updated_at": 1776748784240, "version": "1.0.0"}, {"category": "developer-tools", "created_at": 1772796242663, "description": "Lint cron entries for schedule validity, bad model names, and missing NO_REPLY discipline markers.", "description_zh": "", "downloads": 287, "homepage": "https://clawhub.ai/highlander89/cron-guardrails-pack", "iconUrl": null, "installs": 25, "name": "cron-guardrails-pack", "ownerName": "highlander89", "score": 89687.5, "slug": "cron-guardrails-pack", "source": "clawhub", "stars": 0, "tags": null, "updated_at": 1776748784158, "version": "0.1.3"}, {"category": "developer-tools", "created_at": 1773069165889, "description": "Use this skill to initialize or update a multi-repo workspace created from dev-config-template. Invoke whenever the user wants to: set up a fresh workspace c...", "description_zh": "", "downloads": 287, "homepage": "https://clawhub.ai/niracler/nini-workspace-init", "iconUrl": null, "installs": 1, "name": "Workspace Init", "ownerName": "niracler", "score": 80167.59776536313, "slug": "nini-workspace-init", "source": "clawhub", "stars": 0, "tags": null, "updated_at": 1776748784108, "version": "0.2.1"}, {"category": "data-analysis", "created_at": 1772797536071, "description": "Multi-model automatic fallback system. Monitors model availability and automatically falls back to backup models when the primary model fails. Supports MiniM...", "description_zh": "", "downloads": 287, "homepage": "https://clawhub.ai/azure5100/model-fallback", "iconUrl": null, "installs": 10, "name": "Multi-model automatic fallback system", "ownerName": "azure5100", "score": 90251.57232704402, "slug": "model-fallback", "source": "clawhub", "stars": 0, "tags": ["fallback", "model", "multi-model"], "updated_at": 1776748783913, "version": "1.0.0"}, {"category": "developer-tools", "created_at": 1772795482733, "description": "Local, offline AI-powered file type detection — no network, no API keys", "description_zh": "", "downloads": 286, "homepage": "https://clawhub.ai/pgeraghty/detect-file-type-local", "iconUrl": null, "installs": 4, "name": "Detect File Type - Local", "ownerName": "pgeraghty", "score": 78260.86956521739, "slug": "detect-file-type-local", "source": "clawhub", "stars": 1, "tags": null, "updated_at": 1776759227540, "version": "0.2.0"}, {"category": "content-creation", "created_at": 1773069670064, "description": "Quickly send local images to channel. Auto-compress large images, copy small images directly.", "description_zh": "", "downloads": 286, "homepage": "https://clawhub.ai/deadlining/fast-image", "iconUrl": null, "installs": 23, "name": "Fast Image", "ownerName": "deadlining", "score": 78260.86956521739, "slug": "fast-image", "source": "clawhub", "stars": 1, "tags": null, "updated_at": 1776759227524, "version": "1.0.1"}, {"category": "developer-tools", "created_at": 1772796686274, "description": "CLI tool to test REST API endpoints with various HTTP methods, headers, and payloads.", "description_zh": "", "downloads": 286, "homepage": "https://clawhub.ai/derick001/api-endpoint-tester", "iconUrl": null, "installs": 9, "name": "API Endpoint Tester", "ownerName": "derick001", "score": 100000, "slug": "api-endpoint-tester", "source": "clawhub", "stars": 1, "tags": null, "updated_at": 1776748785090, "version": "1.0.1"}, {"category": "data-analysis", "created_at": 1773066344942, "description": "Access and manage Google Ads campaigns, performance metrics, and account data via the Google Ads API for OpenClaw agents. Use when anyone asks about Google A...", "description_zh": "", "downloads": 286, "homepage": "https://clawhub.ai/sebclawops/openclaw-google-ads", "iconUrl": null, "installs": 24, "name": "Openclaw Google Ads", "ownerName": "sebclawops", "score": 91343.28358208956, "slug": "openclaw-google-ads", "source": "clawhub", "stars": 1, "tags": null, "updated_at": 1776748783954, "version": "0.1.1"}, {"category": "ai-intelligence", "created_at": 1772796788297, "description": "Sovereign, recoverable memory for AI agents backed by Jackal decentralized storage.", "description_zh": "", "downloads": 286, "homepage": "https://clawhub.ai/regan-milne/jackal-memory", "iconUrl": null, "installs": 14, "name": "Jackal Memory", "ownerName": "regan-milne", "score": 91891.8918918919, "slug": "jackal-memory", "source": "clawhub", "stars": 1, "tags": ["decentralized", "memory", "persistence"], "updated_at": 1776748783664, "version": "0.1.0"}, {"category": "developer-tools", "created_at": 1773060867667, "description": "Metacognitive Protocol for AI Agents — Stop hallucinations, fake completions, and task drift. A lightweight thinking framework that makes any LLM-based agent...", "description_zh": "", "downloads": 286, "homepage": "https://clawhub.ai/q7766206/metacognition-lite", "iconUrl": null, "installs": 21, "name": "Metacognitive Protocol Lite", "ownerName": "q7766206", "score": 2020.0593304139002, "slug": "metacognition-lite", "source": "clawhub", "stars": 0, "tags": null, "updated_at": 1776766490641, "version": "1.0.0"}, {"category": "data-analysis", "created_at": 1772797152146, "description": "Generate a comprehensive influencer vetting report. Use when someone asks to vet, analyze, or review an influencer/creator. Takes a creator profile URL or vi...", "description_zh": "", "downloads": 286, "homepage": "https://clawhub.ai/shawnshenopeninterx/influencer-report", "iconUrl": null, "installs": 9, "name": "Influencer Report", "ownerName": "shawnshenopeninterx", "score": 10936.902485659655, "slug": "influencer-report", "source": "clawhub", "stars": 0, "tags": null, "updated_at": 1776765325514, "version": "2.0.0"}, {"category": "developer-tools", "created_at": 1773073093271, "description": "SHA-256 prompt deduplication for LLM and TTS calls — hash normalize prompts, check cache before calling APIs, store results for instant replay. Use when maki...", "description_zh": "", "downloads": 286, "homepage": "https://clawhub.ai/nissan/prompt-cache", "iconUrl": null, "installs": 7, "name": "Prompt Cache", "ownerName": "nissan", "score": 4532.488114104595, "slug": "prompt-cache", "source": "clawhub", "stars": 0, "tags": null, "updated_at": 1776764950539, "version": "1.0.0"}, {"category": "data-analysis", "created_at": 1773081437498, "description": "Product & Innovation Playbook. Use for: product-market fit validation, product roadmapping, user research, prototyping and iteration, competitive analysis, m...", "description_zh": "", "downloads": 286, "homepage": "https://clawhub.ai/chilu18/product-innovation-playbook", "iconUrl": null, "installs": 25, "name": "Product & Innovation Playbook", "ownerName": "chilu18", "score": 1578.714948112166, "slug": "product-innovation-playbook", "source": "clawhub", "stars": 0, "tags": null, "updated_at": 1776763750353, "version": "1.0.0"}, {"category": "productivity", "created_at": 1773066284364, "description": "TypeScript advanced patterns — branded types, discriminated unions, template literals, generics, type guards, tsconfig optimization, and migration strategies", "description_zh": "", "downloads": 286, "homepage": "https://clawhub.ai/msruruguay/typescript-mastery", "iconUrl": null, "installs": 11, "name": "Typescript Mastery", "ownerName": "msruruguay", "score": 8893.034825870647, "slug": "typescript-mastery", "source": "clawhub", "stars": 0, "tags": null, "updated_at": 1776761990049, "version": "1.0.0"}, {"category": "ai-intelligence", "created_at": 1772799583309, "description": "Calculate and recommend optimal wake-up times aligned with sleep cycles based on bedtime, workday or holiday constraints, prioritizing 5-cycle options.", "description_zh": "", "downloads": 286, "homepage": "https://clawhub.ai/nathanshan/sleep-wakeup-advisor", "iconUrl": null, "installs": 17, "name": "sleep-wakeup advisor", "ownerName": "nathanshan", "score": 21699.544764795144, "slug": "sleep-wakeup-advisor", "source": "clawhub", "stars": 0, "tags": null, "updated_at": 1776759420748, "version": "1.0.0"}, {"category": "ai-intelligence", "created_at": 1772804143729, "description": "Provides a comprehensive score (0-100) evaluating the Agent's memory system health across completeness, freshness, structure, density, and consistency.", "description_zh": "", "downloads": 286, "homepage": "https://clawhub.ai/weidadong2359/memory-health-score", "iconUrl": null, "installs": 17, "name": "Memory Health Score", "ownerName": "weidadong2359", "score": 21375.18684603886, "slug": "memory-health-score", "source": "clawhub", "stars": 0, "tags": null, "updated_at": 1776759257811, "version": "1.0.0"}, {"category": "data-analysis", "created_at": 1772799973661, "description": "4-agent AI advisory committee for strategic decisions. Runs CS, Marketing, Finance, and Tech agents in sequence to analyze proposals and deliver a majority-v...", "description_zh": "", "downloads": 286, "homepage": "https://clawhub.ai/jini92/advisory-committee", "iconUrl": null, "installs": 13, "name": "Advisory Committee", "ownerName": "jini92", "score": 21391.174270755422, "slug": "advisory-committee", "source": "clawhub", "stars": 0, "tags": null, "updated_at": 1776759257662, "version": "1.1.0"}, {"category": "developer-tools", "created_at": 1772798936692, "description": "Manage GitLab projects from the command line: create, review, merge MRs; manage issues; monitor and trigger CI/CD; support self-hosted instances and automation.", "description_zh": "", "downloads": 286, "homepage": "https://clawhub.ai/bezkom/glab", "iconUrl": null, "installs": 5, "name": "glab", "ownerName": "bezkom", "score": 21423.220973782772, "slug": "glab", "source": "clawhub", "stars": 0, "tags": null, "updated_at": 1776759257552, "version": "1.0.4"}, {"category": "data-analysis", "created_at": 1772803694619, "description": "Generates a personalized nutrition report from consumer genetic data analyzing key SNPs to provide actionable dietary and supplementation guidance.", "description_zh": "", "downloads": 286, "homepage": "https://clawhub.ai/manuelcorpas/nutrigx-advisor", "iconUrl": null, "installs": 24, "name": "NutriGx Advisor", "ownerName": "manuelcorpas", "score": 21423.220973782772, "slug": "nutrigx-advisor", "source": "clawhub", "stars": 0, "tags": null, "updated_at": 1776759257547, "version": "0.2.0"}, {"category": "ai-intelligence", "created_at": 1772799249287, "description": "Adaptive testing engine with IRT/CAT, AI question generation, and personalized learning recommendations", "description_zh": "", "downloads": 286, "homepage": "https://clawhub.ai/woodstocksoftware/adaptivetest-skill", "iconUrl": null, "installs": 28, "name": "Adaptivetest Skill", "ownerName": "woodstocksoftware", "score": 58248.47250509165, "slug": "adaptivetest-skill", "source": "clawhub", "stars": 0, "tags": null, "updated_at": 1776748785198, "version": "1.0.1"}, {"category": "productivity", "created_at": 1772799370858, "description": "Launch non-blocking interactive Claude Code tasks for slash-only plugins like ralph-loop. Use when a task needs interactive slash commands and completion cal...", "description_zh": "", "downloads": 286, "homepage": "https://clawhub.ai/edxi/miniade-dispatchi", "iconUrl": null, "installs": 6, "name": "Dispatchi (Ralph Loop)", "ownerName": "edxi", "score": 93464.0522875817, "slug": "miniade-dispatchi", "source": "clawhub", "stars": 0, "tags": null, "updated_at": 1776748785147, "version": "0.1.1"}, {"category": "security-compliance", "created_at": 1773057594777, "description": "API reference for CoinMarketCap DEX endpoints including token lookup, pools, transactions, trending, and security analysis. Use this skill whenever the user...", "description_zh": "", "downloads": 286, "homepage": "https://clawhub.ai/bryan-cmc/cmc-api-onchain-data", "iconUrl": null, "installs": 7, "name": "CoinMarketCap Onchain Data APIs", "ownerName": "bryan-cmc", "score": 93464.0522875817, "slug": "cmc-api-onchain-data", "source": "clawhub", "stars": 0, "tags": null, "updated_at": 1776748785126, "version": "1.0.1"}, {"category": "security-compliance", "created_at": 1772802669869, "description": "Run a structured 29-point GEO (Generative Engine Optimization) readiness audit on any website. Checks AI accessibility, structured data, content citability,...", "description_zh": "", "downloads": 286, "homepage": "https://clawhub.ai/geoly-geo/geo-site-audit", "iconUrl": null, "installs": 24, "name": "GEO Site Readiness Audit", "ownerName": "geoly-geo", "score": 77929.1553133515, "slug": "geo-site-audit", "source": "clawhub", "stars": 0, "tags": ["ai-readiness", "audit", "geo"], "updated_at": 1776748784830, "version": "1.0.1"}, {"category": "productivity", "created_at": 1772794274721, "description": "Extract fonts (TTF/OTF) from any website using MSCHF Font Interceptor. Use when user drops a URL and wants to identify/extract/download fonts from that websi...", "description_zh": "", "downloads": 286, "homepage": "https://clawhub.ai/honeybee1130/font-interceptor", "iconUrl": null, "installs": 6, "name": "Font Interceptor", "ownerName": "honeybee1130", "score": 86404.83383685802, "slug": "font-interceptor", "source": "clawhub", "stars": 0, "tags": null, "updated_at": 1776748784609, "version": "1.0.0"}, {"category": "content-creation", "created_at": 1772797804652, "description": "Cloudinary — manage images/videos, upload, transform, and search assets via REST API", "description_zh": "", "downloads": 286, "homepage": "https://clawhub.ai/aiwithabidi/cloudinary", "iconUrl": null, "installs": 15, "name": "Cloudinary", "ownerName": "aiwithabidi", "score": 82420.74927953891, "slug": "cloudinary", "source": "clawhub", "stars": 0, "tags": null, "updated_at": 1776748784393, "version": "1.0.0"}, {"category": "security-compliance", "created_at": 1772795675509, "description": "Gmail security proxy with policy enforcement, approval workflows, and audit logging. Use when the user wants to read, search, or send Gmail with guardrails —...", "description_zh": "", "downloads": 286, "homepage": "https://clawhub.ai/rotemtam/clawback-sh", "iconUrl": null, "installs": 1, "name": "Clawback", "ownerName": "rotemtam", "score": 62719.29824561403, "slug": "clawback-sh", "source": "clawhub", "stars": 0, "tags": null, "updated_at": 1776748784344, "version": "0.2.0"}, {"category": "security-compliance", "created_at": 1772795036046, "description": "Build genuine LinkedIn thought leadership for any professional or business. Long-form posts, articles, speaker positioning, B2B outreach templates, and a pro...", "description_zh": "", "downloads": 286, "homepage": "https://clawhub.ai/danielblinker83-bot/linkedin-authority", "iconUrl": null, "installs": 18, "name": "LinkedIn Authority — Thought Leadership System", "ownerName": "danielblinker83-bot", "score": 89375, "slug": "linkedin-authority", "source": "clawhub", "stars": 0, "tags": ["b2b", "content", "content-marketing", "linkedin", "marketing", "personal-brand", "social-media", "thought-leadership"], "updated_at": 1776748784134, "version": "1.0.1"}, {"category": "productivity", "created_at": 1773067009167, "description": "Make (formerly Integromat) automation platform — manage scenarios, trigger runs, monitor executions, manage connections, and handle data stores via the Make...", "description_zh": "", "downloads": 286, "homepage": "https://clawhub.ai/aiwithabidi/make", "iconUrl": null, "installs": 14, "name": "Make", "ownerName": "aiwithabidi", "score": 85885.88588588589, "slug": "make", "source": "clawhub", "stars": 0, "tags": null, "updated_at": 1776748783733, "version": "1.0.0"}, {"category": "developer-tools", "created_at": 1772796791659, "description": "NautilusTrader algorithmic trading platform for strategy development and live trading. Use when building trading strategies, backtesting, or deploying to Hyp...", "description_zh": "", "downloads": 285, "homepage": "https://clawhub.ai/ahuserious/nautilus-trader", "iconUrl": null, "installs": 14, "name": "Nautilus Trader", "ownerName": "ahuserious", "score": 62118.12627291242, "slug": "nautilus-trader", "source": "clawhub", "stars": 1, "tags": null, "updated_at": 1776748785155, "version": "0.1.0"}, {"category": "content-creation", "created_at": 1772798386275, "description": "Post or schedule content to Mastodon using the Publora API. Use this skill when the user wants to publish or schedule Mastodon posts via Publora.", "description_zh": "", "downloads": 285, "homepage": "https://clawhub.ai/sergebulaev/publora-mastodon", "iconUrl": null, "installs": 14, "name": "Publora — Mastodon", "ownerName": "sergebulaev", "score": 14652.956298200515, "slug": "publora-mastodon", "source": "clawhub", "stars": 0, "tags": null, "updated_at": 1776766790504, "version": "1.1.0"}, {"category": "content-creation", "created_at": 1773286397121, "description": "Automate posting to WeChat Moments on Windows desktop (open Moments window, trigger publish entry, select image, paste caption, click publish). Use when aske...", "description_zh": "", "downloads": 285, "homepage": "https://clawhub.ai/zch-danny/wechat-moments-post", "iconUrl": null, "installs": 65, "name": "WeChat Moments Post", "ownerName": "zch-danny", "score": 2306.198413982845, "slug": "wechat-moments-post", "source": "clawhub", "stars": 0, "tags": ["automation", "wechat", "windows"], "updated_at": 1776766449779, "version": "1.0.0"}, {"category": "content-creation", "created_at": 1772794316548, "description": "Structured interview to discover personal facts and generate reusable, approved statements for proposals and cover letters. Creates personalized content for...", "description_zh": "", "downloads": 285, "homepage": "https://clawhub.ai/drafthead/proposal-and-coverletter-interviewer-improver", "iconUrl": null, "installs": 19, "name": "Proposal  and Cover Letter Interviewer & Improver (Continuous Questions and Memory for Better Proposals/Cover Letters by Getting to Know You)", "ownerName": "drafthead", "score": 16426.51296829971, "slug": "proposal-and-coverletter-interviewer-improver", "source": "clawhub", "stars": 0, "tags": null, "updated_at": 1776765550255, "version": "1.0.0"}, {"category": "content-creation", "created_at": 1773435146061, "description": "Engineer professional-grade brand logos using geometric primitives and negative space — generates minimalist, scalable vector-style marks via muapi.ai", "description_zh": "", "downloads": 285, "homepage": "https://clawhub.ai/anil-matcha/logo-creator", "iconUrl": null, "installs": 94, "name": "Logo Creator", "ownerName": "anil-matcha", "score": 15590.809628008754, "slug": "logo-creator", "source": "clawhub", "stars": 0, "tags": null, "updated_at": 1776764949871, "version": "1.0.0"}, {"category": "productivity", "created_at": 1773944569647, "description": "Get current weather and forecasts (no API key required).", "description_zh": "", "downloads": 285, "homepage": "https://clawhub.ai/codekungfu/free-weather-skill", "iconUrl": null, "installs": 9, "name": "Weather", "ownerName": "codekungfu", "score": 4798.7876746927095, "slug": "free-weather-skill", "source": "clawhub", "stars": 0, "tags": null, "updated_at": 1776763150455, "version": "0.1.0"}, {"category": "data-analysis", "created_at": 1773089069417, "description": "Real estate transaction support with affordability analysis, property evaluation, and offer strategy. Use when user mentions buying a home, selling property,...", "description_zh": "", "downloads": 285, "homepage": "https://clawhub.ai/agistack/realestate", "iconUrl": null, "installs": 24, "name": "RealEstate", "ownerName": "agistack", "score": 4361.799816345271, "slug": "realestate", "source": "clawhub", "stars": 0, "tags": ["buying", "home-buying", "housing", "mortgage", "property", "realestate", "renting", "selling"], "updated_at": 1776762850867, "version": "3.0.0"}, {"category": "data-analysis", "created_at": 1773074789477, "description": "Comprehensive Israeli stock analysis for TASE-listed securities including fundamental analysis (financial metrics, business quality, valuation), technical an...", "description_zh": "", "downloads": 285, "homepage": "https://clawhub.ai/d14turbo/il-stock-analysis", "iconUrl": null, "installs": 35, "name": "Israeli Stock Analysis", "ownerName": "d14turbo", "score": 22547.46835443038, "slug": "il-stock-analysis", "source": "clawhub", "stars": 0, "tags": null, "updated_at": 1776759982490, "version": "2.3.0"}, {"category": "data-analysis", "created_at": 1772804229794, "description": "Provides 23 marketing modules with checklists, frameworks, and copy/paste deliverables for CRO, SEO, copywriting, analytics, ads, launches, pricing, and soci...", "description_zh": "", "downloads": 285, "homepage": "https://clawhub.ai/alexeyvorobiev/alexey-marketing-growth-playbook", "iconUrl": null, "installs": 13, "name": "alexey-marketing-growth-playbook", "ownerName": "alexeyvorobiev", "score": 21300.448430493274, "slug": "alexey-marketing-growth-playbook", "source": "clawhub", "stars": 0, "tags": null, "updated_at": 1776759257797, "version": "1.0.0"}, {"category": "ai-intelligence", "created_at": 1772796988453, "description": "Provides a modular smart wallet protocol for AI agents enabling session keys, spending limits, and secure delegated transaction management on Kite AI network.", "description_zh": "", "downloads": 285, "homepage": "https://clawhub.ai/nihaovand/kite-agent-wallet", "iconUrl": null, "installs": 21, "name": "Kite Agent Wallet", "ownerName": "nihaovand", "score": 21300.448430493274, "slug": "kite-agent-wallet", "source": "clawhub", "stars": 0, "tags": null, "updated_at": 1776759257776, "version": "1.0.0"}, {"category": "content-creation", "created_at": 1773060053454, "description": "Automates research, writing, growth, and monetization of niche newsletters with viral content, AI-crafted editions, video teasers, and revenue strategies wee...", "description_zh": "", "downloads": 285, "homepage": "https://clawhub.ai/g4dr/newsletter-monetization-machine", "iconUrl": null, "installs": 14, "name": "Newsletter Monetization Machine — Build, Grow & Monetize Your Newsletter on Autopilot", "ownerName": "g4dr", "score": 21316.37995512341, "slug": "newsletter-monetization-machine", "source": "clawhub", "stars": 0, "tags": ["apify", "audience-building", "beehiiv", "content-automation", "email-marketing", "invideo", "monetization", "newsletter", "passive-income", "substack"], "updated_at": 1776759257710, "version": "1.0.0"}, {"category": "productivity", "created_at": 1772798629587, "description": "Control the PomoClaw pomodoro timer on the Mac. Use when the user asks to start, stop, pause a pomodoro/pomoclaw/focus timer, check timer status, or when a p...", "description_zh": "", "downloads": 285, "homepage": "https://clawhub.ai/vkozlovskyi/pomoclaw", "iconUrl": null, "installs": 6, "name": "PomoClaw", "ownerName": "vkozlovskyi", "score": 16883.88625592417, "slug": "pomoclaw", "source": "clawhub", "stars": 0, "tags": ["focus", "macos", "menu-bar", "pomodoro", "timer"], "updated_at": 1776758783469, "version": "1.0.0"}, {"category": "developer-tools", "created_at": 1773091026892, "description": "List and download all files from a Google Drive folder.", "description_zh": "", "downloads": 285, "homepage": "https://clawhub.ai/googleworkspace-bot/recipe-bulk-download-folder", "iconUrl": null, "installs": 14, "name": "Recipe Bulk Download Folder", "ownerName": "googleworkspace-bot", "score": 87423.31288343557, "slug": "recipe-bulk-download-folder", "source": "clawhub", "stars": 0, "tags": null, "updated_at": 1776748785511, "version": "1.0.10"}, {"category": "developer-tools", "created_at": 1773873987627, "description": "Reference tool for devtools — covers intro, quickstart, patterns and more. Quick lookup for Credential Tester concepts, best practices, and implementation pa...", "description_zh": "", "downloads": 285, "homepage": "https://clawhub.ai/bytesagain3/credential-tester", "iconUrl": null, "installs": 4, "name": "Credential Tester", "ownerName": "bytesagain3", "score": 59006.21118012422, "slug": "credential-tester", "source": "clawhub", "stars": 0, "tags": null, "updated_at": 1776748785409, "version": "4.0.2"}, {"category": "developer-tools", "created_at": 1772797767968, "description": "This skill provides integration with the Alpaca Markets API for trading stocks, options, and cryptocurrencies. Use it when you need to interact with Alpaca's...", "description_zh": "", "downloads": 285, "homepage": "https://clawhub.ai/oscraters/alpaca-markets", "iconUrl": null, "installs": 21, "name": "Alpaca Markets CLI", "ownerName": "oscraters", "score": 93137.25490196078, "slug": "alpaca-markets", "source": "clawhub", "stars": 0, "tags": null, "updated_at": 1776748785071, "version": "1.0.1"}]}