{"page": 255, "total_pages": 522, "total": 26073, "skills": [{"category": "ai-intelligence", "created_at": 1772804642595, "description": "Agent-to-Agent (A2A) Protocol RC v1.0 bridge for OpenClaw agents. Enables agent discovery, identity cards, task lifecycle management, push notification confi...", "description_zh": "", "downloads": 285, "homepage": "https://clawhub.ai/romainsantoli-web/firm-a2a-bridge", "iconUrl": null, "installs": 31, "name": "Firm A2a Bridge", "ownerName": "romainsantoli-web", "score": 63901.34529147982, "slug": "firm-a2a-bridge", "source": "clawhub", "stars": 0, "tags": null, "updated_at": 1776748785009, "version": "2.0.0"}, {"category": "developer-tools", "created_at": 1773057317475, "description": "Direct Todoist API integration via curl/jq. Lightweight, reliable, and uses working v1/v2 endpoints.", "description_zh": "", "downloads": 285, "homepage": "https://clawhub.ai/nitsujy/todoist-api-rest", "iconUrl": null, "installs": 4, "name": "Todoist Api Rest", "ownerName": "nitsujy", "score": 86102.71903323263, "slug": "todoist-api-rest", "source": "clawhub", "stars": 0, "tags": null, "updated_at": 1776748784646, "version": "1.0.0"}, {"category": "developer-tools", "created_at": 1772793761132, "description": "Create, search, and manage Bear notes via grizzly CLI.", "description_zh": "", "downloads": 285, "homepage": "https://clawhub.ai/mohdalhashemi98-hue/mh-bear-notes", "iconUrl": null, "installs": 6, "name": "MH bear-notes", "ownerName": "mohdalhashemi98-hue", "score": 89062.5, "slug": "mh-bear-notes", "source": "clawhub", "stars": 0, "tags": null, "updated_at": 1776748784145, "version": "1.0.0"}, {"category": "content-creation", "created_at": 1773083762676, "description": "Operations leadership for scaling companies. Process design, OKR execution, operational cadence, and scaling playbooks. Use when designing operations, settin...", "description_zh": "", "downloads": 285, "homepage": "https://clawhub.ai/alirezarezvani/coo-advisor", "iconUrl": null, "installs": 11, "name": "Coo Advisor", "ownerName": "alirezarezvani", "score": 89062.5, "slug": "coo-advisor", "source": "clawhub", "stars": 0, "tags": null, "updated_at": 1776748784144, "version": "2.1.1"}, {"category": "productivity", "created_at": 1772796466656, "description": "High-performance browser automation with Fast Playwright MCP. Features token-optimized batch execution, intelligent element selection with fallback, diff det...", "description_zh": "", "downloads": 285, "homepage": "https://clawhub.ai/frankausberlin/fastplaywright", "iconUrl": null, "installs": 12, "name": "FastPlayWright Skill", "ownerName": "frankausberlin", "score": 85074.62686567164, "slug": "fastplaywright", "source": "clawhub", "stars": 0, "tags": null, "updated_at": 1776748784015, "version": "1.0.0"}, {"category": "content-creation", "created_at": 1773286532158, "description": "When the user wants to develop social media strategy, plan content calendars, manage community engagement, or grow their social presence across platforms. Al...", "description_zh": "", "downloads": 285, "homepage": "https://clawhub.ai/alirezarezvani/cs-social-media-manager", "iconUrl": null, "installs": 10, "name": "social-media-manager", "ownerName": "alirezarezvani", "score": 85074.62686567164, "slug": "cs-social-media-manager", "source": "clawhub", "stars": 0, "tags": null, "updated_at": 1776748783985, "version": "1.0.0"}, {"category": "developer-tools", "created_at": 1773074509652, "description": "Generate beautiful, professional GitHub README files for your projects. Supports multiple templates, languages, and customization options.", "description_zh": "", "downloads": 285, "homepage": "https://clawhub.ai/sunshine-del-ux/github-readme-generator", "iconUrl": null, "installs": 24, "name": "GitHub README Generator", "ownerName": "sunshine-del-ux", "score": 92833.87622149837, "slug": "github-readme-generator", "source": "clawhub", "stars": 0, "tags": ["documentation", "generator", "github", "readme"], "updated_at": 1776748783815, "version": "1.0.0"}, {"category": "communication-collaboration", "created_at": 1773082274598, "description": "moltmail.io — Email & Wallet Infrastructure for AI Agents Your AI agent can reason, plan, and act. But it still can't send an email. moltmail fixes that. One...", "description_zh": "", "downloads": 284, "homepage": "https://clawhub.ai/ethersuite/moltmail-ethermail", "iconUrl": null, "installs": 11, "name": "moltmail-ethermail", "ownerName": "ethersuite", "score": 100000, "slug": "moltmail-ethermail", "source": "clawhub", "stars": 2, "tags": null, "updated_at": 1776748784759, "version": "1.0.4"}, {"category": "productivity", "created_at": 1773073793824, "description": "High-performance audio library with text-to-speech (TTS) and speech-to-text (STT).", "description_zh": "", "downloads": 284, "homepage": "https://clawhub.ai/darknoah/qwen-audio", "iconUrl": null, "installs": 16, "name": "Qwen Audio", "ownerName": "darknoah", "score": 22720.47832585949, "slug": "qwen-audio", "source": "clawhub", "stars": 1, "tags": null, "updated_at": 1776759227707, "version": "0.0.6"}, {"category": "security-compliance", "created_at": 1773285907213, "description": "Red team infrastructure multi-cloud automated deployment tool. Deploy, manage, and monitor cloud instances across Alibaba Cloud, AWS, Tencent Cloud, Volcengi...", "description_zh": "", "downloads": 284, "homepage": "https://clawhub.ai/no-github/redc", "iconUrl": null, "installs": 151, "name": "redc", "ownerName": "no-github", "score": 87608.06916426514, "slug": "redc", "source": "clawhub", "stars": 1, "tags": null, "updated_at": 1776748784363, "version": "1.0.3"}, {"category": "data-analysis", "created_at": 1772795663947, "description": "CLI web search and page fetcher for LLM agents. Search DuckDuckGo/Brave/Bing/Google, fetch pages as markdown, and extract links — single binary, no browser r...", "description_zh": "", "downloads": 284, "homepage": "https://clawhub.ai/neothelobster/ghostfetch", "iconUrl": null, "installs": 7, "name": "Ghostfetch", "ownerName": "neothelobster", "score": 84916.20111731843, "slug": "ghostfetch", "source": "clawhub", "stars": 1, "tags": ["fetch", "scraping", "search", "web"], "updated_at": 1776748784085, "version": "1.1.0"}, {"category": "data-analysis", "created_at": 1773073567015, "description": "botlearn-assessment — BotLearn 5-dimension capability self-assessment (reasoning, retrieval, creation, execution, orchestration); triggers on botlearn assess...", "description_zh": "", "downloads": 284, "homepage": "https://clawhub.ai/calvinxhk/botlearn-assessment", "iconUrl": null, "installs": 15, "name": "botlearn-assessment", "ownerName": "calvinxhk", "score": 99022.80130293159, "slug": "botlearn-assessment", "source": "clawhub", "stars": 1, "tags": null, "updated_at": 1776748783850, "version": "1.0.5"}, {"category": "content-creation", "created_at": 1772796688426, "description": "Record video proof of implemented features after coding tasks complete. Use when a coding agent finishes work and needs to visually verify and demonstrate th...", "description_zh": "", "downloads": 284, "homepage": "https://clawhub.ai/rikisann/video-proof", "iconUrl": null, "installs": 11, "name": "Video Proof", "ownerName": "rikisann", "score": 99022.80130293159, "slug": "video-proof", "source": "clawhub", "stars": 1, "tags": null, "updated_at": 1776748783832, "version": "1.0.2"}, {"category": "productivity", "created_at": 1773222403876, "description": "QR code generation and reading. Use when user says \"generate QR code\", \"create QR\", \"read QR code\", or wants to work with QR codes.", "description_zh": "", "downloads": 284, "homepage": "https://clawhub.ai/yushimohuang/qr-code-toolkit", "iconUrl": null, "installs": 9, "name": "qr-code-toolkit", "ownerName": "yushimohuang", "score": 4956.3699825479935, "slug": "qr-code-toolkit", "source": "clawhub", "stars": 0, "tags": null, "updated_at": 1776769449848, "version": "1.0.0"}, {"category": "communication-collaboration", "created_at": 1773915559484, "description": "Automate WeChat on macOS for auto-replies, keyword alerts, message summaries, and forwarding by controlling the desktop app.", "description_zh": "", "downloads": 284, "homepage": "https://clawhub.ai/yang1002378395-cmyk/wechat-automation", "iconUrl": null, "installs": 64, "name": "Wechat Automation", "ownerName": "yang1002378395-cmyk", "score": 2298.1064897232563, "slug": "wechat-automation", "source": "clawhub", "stars": 0, "tags": null, "updated_at": 1776766449837, "version": "1.0.0"}, {"category": "security-compliance", "created_at": 1772797524153, "description": "Download videos from public LinkedIn posts as MP4 files without authentication or dependencies, saving them at the best available quality.", "description_zh": "", "downloads": 284, "homepage": "https://clawhub.ai/jpnarchi/linkedin-video-dl", "iconUrl": null, "installs": 23, "name": "Linkedin Video Downloader", "ownerName": "jpnarchi", "score": 15468.409586056645, "slug": "linkedin-video-dl", "source": "clawhub", "stars": 0, "tags": null, "updated_at": 1776764950347, "version": "1.0.0"}, {"category": "data-analysis", "created_at": 1773080522171, "description": "Parse TradingView signals from text or URLs to extract trade details and calculate risk/reward ratios for structured trade analysis.", "description_zh": "", "downloads": 284, "homepage": "https://clawhub.ai/sanuei/tradingview-signal", "iconUrl": null, "installs": 29, "name": "TradingView Signal Parser", "ownerName": "sanuei", "score": 3605.433540688079, "slug": "tradingview-signal", "source": "clawhub", "stars": 0, "tags": ["analysis", "signal", "trading"], "updated_at": 1776761990184, "version": "1.0.1"}, {"category": "communication-collaboration", "created_at": 1772798795454, "description": "Monitor NAS system health, disk usage, network status, and auto-alert via Feishu/Discord.", "description_zh": "", "downloads": 284, "homepage": "https://clawhub.ai/sasamittrrr/nas-system-monitor", "iconUrl": null, "installs": 15, "name": "Nas system monitor", "ownerName": "sasamittrrr", "score": 9495.152123035774, "slug": "nas-system-monitor", "source": "clawhub", "stars": 0, "tags": null, "updated_at": 1776761715029, "version": "1.0.0"}, {"category": "content-creation", "created_at": 1772805547674, "description": "Verify evidence URLs are real and accessible. Check that artifact links resolve to actual content, not placeholders.", "description_zh": "", "downloads": 284, "homepage": "https://clawhub.ai/dalomeve/evidence-url-verifier", "iconUrl": null, "installs": 14, "name": "Evidence URL Verifier", "ownerName": "dalomeve", "score": 22977.346278317153, "slug": "evidence-url-verifier", "source": "clawhub", "stars": 0, "tags": null, "updated_at": 1776760320435, "version": "1.0.0"}, {"category": "security-compliance", "created_at": 1772800165378, "description": "Provides benchmarks, compliance, technician pay, parts markup, KPIs, startup costs, and growth guidance for independent auto repair shop operations.", "description_zh": "", "downloads": 284, "homepage": "https://clawhub.ai/1kalin/afrexai-auto-repair", "iconUrl": null, "installs": 14, "name": "Auto Repair Shop Operations", "ownerName": "1kalin", "score": 21225.710014947683, "slug": "afrexai-auto-repair", "source": "clawhub", "stars": 0, "tags": ["auto repair", "automotive", "mechanic", "operations"], "updated_at": 1776759257773, "version": "1.0.0"}, {"category": "productivity", "created_at": 1772798280488, "description": "Access a local Dessix desktop workspace by calling the Electron MCP bridge directly from Node.js (socket/pipe), without using MCP stdio JSON-RPC. Use when an...", "description_zh": "", "downloads": 284, "homepage": "https://clawhub.ai/xiangst0816/dessix-skill", "iconUrl": null, "installs": 26, "name": "Dessix Skill", "ownerName": "xiangst0816", "score": 21225.710014947683, "slug": "dessix-skill", "source": "clawhub", "stars": 0, "tags": null, "updated_at": 1776759257616, "version": "1.1.0"}, {"category": "security-compliance", "created_at": 1773939553053, "description": "Secure TODO tracker with input validation and safe file operations. Use for task management across sessions.", "description_zh": "", "downloads": 284, "homepage": "https://clawhub.ai/gothicfox/todo-tracker-safe", "iconUrl": null, "installs": 4, "name": "TODO Tracker (Safe)", "ownerName": "gothicfox", "score": 48381.601362862006, "slug": "todo-tracker-safe", "source": "clawhub", "stars": 0, "tags": ["safe", "security"], "updated_at": 1776750769809, "version": "1.0.1"}, {"category": "content-creation", "created_at": 1772802444423, "description": "Social media content scraping and automation skill. Supports real-time single post reading, as well as scheduled batch patrol, LLM distillation, and review n...", "description_zh": "", "downloads": 284, "homepage": "https://clawhub.ai/hacksing/social-reader", "iconUrl": null, "installs": 17, "name": "social-reader", "ownerName": "hacksing", "score": 87116.56441717791, "slug": "social-reader", "source": "clawhub", "stars": 0, "tags": null, "updated_at": 1776748785521, "version": "1.0.0"}, {"category": "developer-tools", "created_at": 1773864945498, "description": "Reference tool for devtools — covers intro, quickstart, patterns and more. Quick lookup for Cert Manager concepts, best practices, and implementation patterns.", "description_zh": "", "downloads": 284, "homepage": "https://clawhub.ai/bytesagain3/cert-manager", "iconUrl": null, "installs": 4, "name": "Cert Manager", "ownerName": "bytesagain3", "score": 57841.14052953156, "slug": "cert-manager", "source": "clawhub", "stars": 0, "tags": null, "updated_at": 1776748785191, "version": "3.0.2"}, {"category": "ai-intelligence", "created_at": 1772796076047, "description": "Store secrets, long-term memory, daily logs, and anything custom in your Convex backend instead of local files", "description_zh": "", "downloads": 284, "homepage": "https://clawhub.ai/launchthatbot/launchthatbot-convex-backend", "iconUrl": null, "installs": 18, "name": "Launchthatbot Convex Backend", "ownerName": "launchthatbot", "score": 63677.13004484304, "slug": "launchthatbot-convex-backend", "source": "clawhub", "stars": 0, "tags": null, "updated_at": 1776748784981, "version": "1.0.3"}, {"category": "developer-tools", "created_at": 1772798577853, "description": "Generate high-quality 3D ball-and-stick molecular renderings from SMILES strings or PDB structures using POV-Ray ray tracing.", "description_zh": "", "downloads": 284, "homepage": "https://clawhub.ai/zhao-zehua/mol-render", "iconUrl": null, "installs": 15, "name": "Molecular 3D Renderer", "ownerName": "zhao-zehua", "score": 86322.18844984802, "slug": "mol-render", "source": "clawhub", "stars": 0, "tags": null, "updated_at": 1776748784902, "version": "1.0.0"}, {"category": "productivity", "created_at": 1773065717850, "description": "Back up and restore your OpenClaw workspace — memory, skills, config. Local or cloud.", "description_zh": "", "downloads": 284, "homepage": "https://clawhub.ai/chelouche9/clawon", "iconUrl": null, "installs": 11, "name": "Clawon", "ownerName": "chelouche9", "score": 77384.1961852861, "slug": "clawon", "source": "clawhub", "stars": 0, "tags": null, "updated_at": 1776748784849, "version": "1.0.3"}, {"category": "developer-tools", "created_at": 1773090501627, "description": "Retrieve real founder experiences, decisions, and outcomes from Echomindr — 1,150+ moments from top startup podcasts. Use whenever a founder describes any te...", "description_zh": "", "downloads": 284, "homepage": "https://clawhub.ai/voxbase/echomindr-founder-retrieval", "iconUrl": null, "installs": 4, "name": "Echomindr Founder Retrieval", "ownerName": "voxbase", "score": 87654.32098765433, "slug": "echomindr-founder-retrieval", "source": "clawhub", "stars": 0, "tags": null, "updated_at": 1776748784800, "version": "1.3.0"}, {"category": "productivity", "created_at": 1772798003228, "description": "Run Django management commands (migrate, showmigrations, makemigrations, check, version, logs, readonly) or Django ORM queries on any configured Django project.", "description_zh": "", "downloads": 284, "homepage": "https://clawhub.ai/manojrammurthy/django-claw-skill", "iconUrl": null, "installs": 9, "name": "Django Claw", "ownerName": "manojrammurthy", "score": 87654.32098765433, "slug": "django-claw-skill", "source": "clawhub", "stars": 0, "tags": null, "updated_at": 1776748784757, "version": "0.1.0"}, {"category": "ai-intelligence", "created_at": 1772799917912, "description": "Fetch RSS feeds, parse articles, generate AI summaries, and compile a daily digest report in Markdown. Use when user asks for RSS summary, news digest, daily...", "description_zh": "", "downloads": 284, "homepage": "https://clawhub.ai/renchengxiang/rss-daily-digest", "iconUrl": null, "installs": 18, "name": "RSS Daily Digest", "ownerName": "renchengxiang", "score": 81844.38040345821, "slug": "rss-daily-digest", "source": "clawhub", "stars": 0, "tags": null, "updated_at": 1776748784431, "version": "1.0.0"}, {"category": "ai-intelligence", "created_at": 1773073252248, "description": "Marketplace where AI agents buy, sell, exchange or gift for you. Agents use self-generated public/private keys as identity. Ads auto-match across the network.", "description_zh": "", "downloads": 284, "homepage": "https://clawhub.ai/6leonardo/m2m-ads", "iconUrl": null, "installs": 14, "name": "M2M Classified Ads", "ownerName": "6leonardo", "score": 89589.90536277603, "slug": "m2m-ads", "source": "clawhub", "stars": 0, "tags": null, "updated_at": 1776748784241, "version": "0.1.7"}, {"category": "data-analysis", "created_at": 1773282300460, "description": "Complete Ryot media tracker with progress tracking, reviews, collections, analytics, calendar, and automated daily/weekly reports. Track TV shows, movies, bo...", "description_zh": "", "downloads": 284, "homepage": "https://clawhub.ai/f-liva/ryot", "iconUrl": null, "installs": 28, "name": "Ryot", "ownerName": "f-liva", "score": 89589.90536277603, "slug": "ryot", "source": "clawhub", "stars": 0, "tags": null, "updated_at": 1776748784193, "version": "1.2.0"}, {"category": "data-analysis", "created_at": 1773218762661, "description": "Provides a highly visual and interactive dashboard for OpenClaw users to easily understand and recall the functionalities of installed skills, featuring a vi...", "description_zh": "", "downloads": 284, "homepage": "https://clawhub.ai/brandon-zhanghaodong/skill-navigator", "iconUrl": null, "installs": 6, "name": "skill-navigator", "ownerName": "brandon-zhanghaodong", "score": 79329.60893854749, "slug": "skill-navigator", "source": "clawhub", "stars": 0, "tags": null, "updated_at": 1776748784074, "version": "1.0.0"}, {"category": "developer-tools", "created_at": 1772793281000, "description": "Trigger Gitea/Forgejo workflow_dispatch via API.", "description_zh": "", "downloads": 284, "homepage": "https://clawhub.ai/qizhou-guo/gitea-workflow-dispatch", "iconUrl": null, "installs": 3, "name": "Gitea Workflow Dispatch", "ownerName": "qizhou-guo", "score": 92508.14332247556, "slug": "gitea-workflow-dispatch", "source": "clawhub", "stars": 0, "tags": null, "updated_at": 1776748783823, "version": "0.1.2"}, {"category": "data-analysis", "created_at": 1773291209318, "description": "Comprehensive geo-spatial market intelligence and site selection evaluation using AMAP (Gaode) LBS API. Use when the user needs: (1) Competitor distribution...", "description_zh": "", "downloads": 284, "homepage": "https://clawhub.ai/raphaelxiao/lbs-market-analyzer", "iconUrl": null, "installs": 30, "name": "LBS Market Analyzer", "ownerName": "raphaelxiao", "score": 85285.28528528528, "slug": "lbs-market-analyzer", "source": "clawhub", "stars": 0, "tags": null, "updated_at": 1776748783728, "version": "1.0.0"}, {"category": "communication-collaboration", "created_at": 1773066112194, "description": "CLI for reading and managing macOS Contacts (CNContactStore). Supports searching by name, email, phone number, city, or country; showing all fields for a con...", "description_zh": "", "downloads": 283, "homepage": "https://clawhub.ai/bdwelle/mac-contacts", "iconUrl": null, "installs": 25, "name": "Apple Contacts", "ownerName": "bdwelle", "score": 28291.316526610644, "slug": "mac-contacts", "source": "clawhub", "stars": 1, "tags": null, "updated_at": 1776769190454, "version": "1.0.0"}, {"category": "developer-tools", "created_at": 1773073862175, "description": "Transcribe audio to text using Volcano Engine (Volcengine/ARK) speech-to-text APIs. Use when the user wants to replace Whisper/OpenAI STT with Volcengine, tr...", "description_zh": "", "downloads": 283, "homepage": "https://clawhub.ai/reed1898/volcengine-stt", "iconUrl": null, "installs": 24, "name": "Volcengine STT", "ownerName": "reed1898", "score": 20362.903225806454, "slug": "volcengine-stt", "source": "clawhub", "stars": 1, "tags": null, "updated_at": 1776758182266, "version": "0.2.1"}, {"category": "developer-tools", "created_at": 1773057439195, "description": "A comprehensive guide and reference for building agents using LangGraph 1.0, including ReAct agents, state graphs, and tool integrations.", "description_zh": "", "downloads": 283, "homepage": "https://clawhub.ai/luochang212/dive-into-langgraph", "iconUrl": null, "installs": 3, "name": "dive-into-langgraph", "ownerName": "luochang212", "score": 100000, "slug": "dive-into-langgraph", "source": "clawhub", "stars": 1, "tags": null, "updated_at": 1776748785290, "version": "1.0.5"}, {"category": "content-creation", "created_at": 1773218594429, "description": "AI-powered video intelligence - download, analyze, clip, GIF from any URL. Supports YouTube, TikTok, Instagram, X. Uses ffmpeg + yt-dlp.", "description_zh": "", "downloads": 283, "homepage": "https://clawhub.ai/cassh100k/vidiq", "iconUrl": null, "installs": 94, "name": "VidIQ - Video Intelligence", "ownerName": "cassh100k", "score": 8659.730722154223, "slug": "vidiq", "source": "clawhub", "stars": 0, "tags": null, "updated_at": 1776764950036, "version": "1.0.0"}, {"category": "content-creation", "created_at": 1773091071666, "description": "Automatically extracts audio from video, transcribes it using qwen3-asr-flash, and generates segmented text summaries saved alongside the original file.", "description_zh": "", "downloads": 283, "homepage": "https://clawhub.ai/alanoo7/audio-summary", "iconUrl": null, "installs": 17, "name": "Audio Summary", "ownerName": "alanoo7", "score": 11986.446421008048, "slug": "audio-summary", "source": "clawhub", "stars": 0, "tags": null, "updated_at": 1776763750798, "version": "1.0.0"}, {"category": "developer-tools", "created_at": 1772794145746, "description": "Manage and monitor your Tailscale network and devices using CLI commands to check status and list connected devices securely.", "description_zh": "", "downloads": 283, "homepage": "https://clawhub.ai/sahil1005/tailscale-orchestrator", "iconUrl": null, "installs": 4, "name": "Tailscale Network Orchestrator", "ownerName": "sahil1005", "score": 8838.226108682073, "slug": "tailscale-orchestrator", "source": "clawhub", "stars": 0, "tags": null, "updated_at": 1776761990259, "version": "1.0.0"}, {"category": "developer-tools", "created_at": 1773060636972, "description": "Generate and deploy app Privacy Policy and Terms of Service static websites from an app feature document. Use when a user provides app requirements/feature d...", "description_zh": "", "downloads": 283, "homepage": "https://clawhub.ai/chentuan7963-afk/app-legal-pages", "iconUrl": null, "installs": 15, "name": "App Legal Pages", "ownerName": "chentuan7963-afk", "score": 8799.751243781095, "slug": "app-legal-pages", "source": "clawhub", "stars": 0, "tags": ["cloudflare", "github", "legal", "privacy", "terms"], "updated_at": 1776761989999, "version": "0.1.6"}, {"category": "ai-intelligence", "created_at": 1773222728037, "description": "Automatically converts received voice messages to text via an external ASR service, supporting multiple audio formats and integrating with OpenClaw.", "description_zh": "", "downloads": 283, "homepage": "https://clawhub.ai/aurora2035/xeonasr", "iconUrl": null, "installs": 21, "name": "xeon_asr", "ownerName": "aurora2035", "score": 21471.927162367225, "slug": "xeonasr", "source": "clawhub", "stars": 0, "tags": null, "updated_at": 1776759420744, "version": "1.0.3"}, {"category": "content-creation", "created_at": 1773221213169, "description": "Use this skill any time the user wants to generate, create, or design images, illustrations, or visual assets. This includes: posters, banners, social media...", "description_zh": "", "downloads": 283, "homepage": "https://clawhub.ai/logictortoise/anygen-image-generator", "iconUrl": null, "installs": 37, "name": "Image Generator", "ownerName": "logictortoise", "score": 50000, "slug": "anygen-image-generator", "source": "clawhub", "stars": 0, "tags": null, "updated_at": 1776753355465, "version": "1.0.4"}, {"category": "security-compliance", "created_at": 1773218112198, "description": "Scan repos and workspaces for leaked secrets. API keys in code, passwords in configs, tokens in logs. Catches them before they hit git.", "description_zh": "", "downloads": 283, "homepage": "https://clawhub.ai/theshadowrose/env-guard", "iconUrl": null, "installs": 6, "name": "Env Guard", "ownerName": "theshadowrose", "score": 63882.61851015802, "slug": "env-guard", "source": "clawhub", "stars": 0, "tags": ["config", "env-guard", "environment", "secrets", "security", "validation"], "updated_at": 1776748785571, "version": "1.0.2"}, {"category": "productivity", "created_at": 1773089313080, "description": "Hiring workflow management with structured processes and candidate tracking. Use when user mentions hiring, job descriptions, resume screening, interviews, c...", "description_zh": "", "downloads": 283, "homepage": "https://clawhub.ai/agistack/recruiting", "iconUrl": null, "installs": 25, "name": "Recruiting", "ownerName": "agistack", "score": 58592.132505175985, "slug": "recruiting", "source": "clawhub", "stars": 0, "tags": ["candidates", "hiring", "hr", "jobs", "recruiting"], "updated_at": 1776748785432, "version": "2.3.0"}, {"category": "ai-intelligence", "created_at": 1773284437337, "description": "Skill for orchestrating coding agent sessions from OpenClaw. Covers launching, monitoring, multi-turn interaction, lifecycle management, notifications, and p...", "description_zh": "", "downloads": 283, "homepage": "https://clawhub.ai/goldmar/code-agent-orchestration", "iconUrl": null, "installs": 78, "name": "Code Agent Orchestration", "ownerName": "goldmar", "score": 58592.132505175985, "slug": "code-agent-orchestration", "source": "clawhub", "stars": 0, "tags": null, "updated_at": 1776748785426, "version": "2.0.5"}, {"category": "data-analysis", "created_at": 1772794490103, "description": "Analyze text for emotions and sarcasm using the EmotionWise API (28 labels, EN/ES).", "description_zh": "", "downloads": 283, "homepage": "https://clawhub.ai/timexicali/emotionwise", "iconUrl": null, "installs": 3, "name": "Openclaw", "ownerName": "timexicali", "score": 93399.3399339934, "slug": "emotionwise", "source": "clawhub", "stars": 0, "tags": ["api", "nlp", "sentiment"], "updated_at": 1776748785272, "version": "0.1.2"}, {"category": "productivity", "created_at": 1772798182976, "description": "Control YouTube Music with natural language. Play, pause, skip, search, manage playlists, and queue tracks. Full playback control via browser automation.", "description_zh": "", "downloads": 283, "homepage": "https://clawhub.ai/oki3505f/youtube-music", "iconUrl": null, "installs": 9, "name": "YouTube Music ULTRA", "ownerName": "oki3505f", "score": 92483.66013071896, "slug": "youtube-music", "source": "clawhub", "stars": 0, "tags": null, "updated_at": 1776748785113, "version": "3.0.0"}, {"category": "developer-tools", "created_at": 1772801190498, "description": "The complete operating system for building software with AI. From first prompt to production deployment — prompting frameworks, architecture patterns, testin...", "description_zh": "", "downloads": 283, "homepage": "https://clawhub.ai/1kalin/afrexai-vibe-coding", "iconUrl": null, "installs": 18, "name": "Vibe Coding Mastery", "ownerName": "1kalin", "score": 92483.66013071896, "slug": "afrexai-vibe-coding", "source": "clawhub", "stars": 0, "tags": ["ai-coding", "claude-code", "copilot", "cursor", "development", "vibe-coding", "windsurf"], "updated_at": 1776748785105, "version": "1.0.0"}]}