{"page": 256, "total_pages": 522, "total": 26073, "skills": [{"category": "security-compliance", "created_at": 1773073115285, "description": "Agent-to-agent calling over the OpenClawAgents A2A endpoint with Supabase auth. Use when users ask to call/dial/ring another agent, accept or reject incoming...", "description_zh": "", "downloads": 283, "homepage": "https://clawhub.ai/chefbc2k/agent-phone-network", "iconUrl": null, "installs": 8, "name": "Agent Phone Network", "ownerName": "chefbc2k", "score": 87345.67901234567, "slug": "agent-phone-network", "source": "clawhub", "stars": 0, "tags": null, "updated_at": 1776748784754, "version": "0.1.2"}, {"category": "ai-intelligence", "created_at": 1772800858641, "description": "Import, create, and upgrade skills from MyAider MCP. Use this skill whenever the user wants to import their MyAider MCP skills into agent skills, or upgrade/...", "description_zh": "", "downloads": 283, "homepage": "https://clawhub.ai/hurungang/myaider-skill-importer", "iconUrl": null, "installs": 14, "name": "MyAider Skill Importer", "ownerName": "hurungang", "score": 88161.9937694704, "slug": "myaider-skill-importer", "source": "clawhub", "stars": 0, "tags": null, "updated_at": 1776748784714, "version": "1.0.1"}, {"category": "communication-collaboration", "created_at": 1772799518704, "description": "Automated invoice tracking and payment follow-up for Indian freelancers. Monitors a Google Sheet of invoices, auto-sends polite follow-up emails or WhatsApp...", "description_zh": "", "downloads": 283, "homepage": "https://clawhub.ai/utsavs/freelance-invoice-tracker", "iconUrl": null, "installs": 10, "name": "freelance invoice tracker", "ownerName": "utsavs", "score": 81556.19596541786, "slug": "freelance-invoice-tracker", "source": "clawhub", "stars": 0, "tags": null, "updated_at": 1776748784419, "version": "1.0.0"}, {"category": "content-creation", "created_at": 1773075188633, "description": "Build polished showcase and demo videos from screenshots, avatars, and text overlays using ffmpeg. Use when creating demo reels, hackathon presentations, pro...", "description_zh": "", "downloads": 283, "homepage": "https://clawhub.ai/nissan/showcase-video-builder", "iconUrl": null, "installs": 31, "name": "Showcase Video Builder", "ownerName": "nissan", "score": 81556.19596541786, "slug": "showcase-video-builder", "source": "clawhub", "stars": 0, "tags": null, "updated_at": 1776748784365, "version": "1.0.0"}, {"category": "productivity", "created_at": 1772794292023, "description": "Transform technical insights into Suno-ready songs with lyrics, style tags, and emotional arc", "description_zh": "", "downloads": 283, "homepage": "https://clawhub.ai/leegitw/insight-song", "iconUrl": null, "installs": 13, "name": "Insight Song", "ownerName": "leegitw", "score": 62061.40350877193, "slug": "insight-song", "source": "clawhub", "stars": 0, "tags": ["creative", "learning", "lyrics", "music", "reflection", "songwriting", "suno", "synthesis", "technical-writing"], "updated_at": 1776748784308, "version": "1.0.1"}, {"category": "productivity", "created_at": 1772795828933, "description": "Cognitive copilot for people with ADHD. Use this skill whenever someone mentions paralysis, can't start a task, feels overwhelmed, needs to organize their da...", "description_zh": "", "downloads": 283, "homepage": "https://clawhub.ai/betancur/adhd-support", "iconUrl": null, "installs": 5, "name": "ADHD Support", "ownerName": "betancur", "score": 89274.44794952682, "slug": "adhd-support", "source": "clawhub", "stars": 0, "tags": null, "updated_at": 1776748784195, "version": "1.0.4"}, {"category": "productivity", "created_at": 1772799547113, "description": "Cancel an active interactive dispatch run by run-id from slash command cancel. Use when user wants to stop a dispatchi or ralph-loop task immediately.", "description_zh": "", "downloads": 283, "homepage": "https://clawhub.ai/edxi/miniade-cancel", "iconUrl": null, "installs": 6, "name": "Cancel Dispatch Run", "ownerName": "edxi", "score": 79050.27932960894, "slug": "miniade-cancel", "source": "clawhub", "stars": 0, "tags": null, "updated_at": 1776748784090, "version": "0.1.1"}, {"category": "developer-tools", "created_at": 1772797643428, "description": "Use when users need to query daily currency exchange rates between two currencies.", "description_zh": "", "downloads": 283, "homepage": "https://clawhub.ai/jaceymarvin99/exchange-rate-2", "iconUrl": null, "installs": 6, "name": "Exchange Rate", "ownerName": "jaceymarvin99", "score": 88993.7106918239, "slug": "exchange-rate-2", "source": "clawhub", "stars": 0, "tags": null, "updated_at": 1776748783900, "version": "0.1.0"}, {"category": "data-analysis", "created_at": 1772797352490, "description": "Design system and implementation playbook for minimalist Notion x OpenAI style UI/UX. Use when designing dashboards, chat interfaces, agent control panels, d...", "description_zh": "", "downloads": 283, "homepage": "https://clawhub.ai/mes28io/minimalist-ui", "iconUrl": null, "installs": 42, "name": "Minimalist Ui - OpenAI/Notion Style", "ownerName": "mes28io", "score": 88993.7106918239, "slug": "minimalist-ui", "source": "clawhub", "stars": 0, "tags": null, "updated_at": 1776748783888, "version": "0.1.0"}, {"category": "ai-intelligence", "created_at": 1773066667726, "description": "Complete Platform Agent Swarm — A coordinated multi-agent system for Kubernetes and OpenShift platform operations. Includes Orchestrator (Jarvis), Cluster Op...", "description_zh": "", "downloads": 283, "homepage": "https://clawhub.ai/kcns008/cluster-agent-swarm-skills", "iconUrl": null, "installs": 50, "name": "Cluster Agent Swarm", "ownerName": "kcns008", "score": 88993.7106918239, "slug": "cluster-agent-swarm-skills", "source": "clawhub", "stars": 0, "tags": null, "updated_at": 1776748783883, "version": "0.1.0"}, {"category": "data-analysis", "created_at": 1772804806145, "description": "Analyze a US stock using a value investing checklist and output detailed scoring steps.", "description_zh": "", "downloads": 283, "homepage": "https://clawhub.ai/kristian-zf/ai-investing-assistant-with-framework", "iconUrl": null, "installs": 29, "name": "Ai Investing Assistant With Framework", "ownerName": "kristian-zf", "score": 92182.41042345276, "slug": "ai-investing-assistant-with-framework", "source": "clawhub", "stars": 0, "tags": null, "updated_at": 1776748783848, "version": "0.1.0"}, {"category": "content-creation", "created_at": 1773855865868, "description": "Free All-in-One AI Video Generator Platform. Access Kling AI, Google Veo, Sora 2, and Runway in one place. Generate cinematic Text-to-Video, Image-to-Video,...", "description_zh": "", "downloads": 282, "homepage": "https://clawhub.ai/sunjian/weryai-video", "iconUrl": null, "installs": 68, "name": "WeryAI Video", "ownerName": "sunjian", "score": 1928.726529569549, "slug": "weryai-video", "source": "clawhub", "stars": 1, "tags": null, "updated_at": 1776766150402, "version": "1.2.1"}, {"category": "developer-tools", "created_at": 1773060605248, "description": "Fetch ClawFeed AI news digests (4h/daily/weekly) and save them automatically to a specified Obsidian directory with flexible CLI options.", "description_zh": "", "downloads": 282, "homepage": "https://clawhub.ai/adminlove520/clawfeed-digest", "iconUrl": null, "installs": 15, "name": "Clawfeed Digest", "ownerName": "adminlove520", "score": 18203.737191078962, "slug": "clawfeed-digest", "source": "clawhub", "stars": 1, "tags": null, "updated_at": 1776759227649, "version": "1.0.3"}, {"category": "data-analysis", "created_at": 1773074648830, "description": "Run QCut's native TypeScript pipeline CLI for AI content generation, video analysis, transcription, YAML pipelines, ViMax agentic video production, and proje...", "description_zh": "", "downloads": 282, "homepage": "https://clawhub.ai/donghaozhang/qcut-video-edit", "iconUrl": null, "installs": 27, "name": "Qcut Video Edit", "ownerName": "donghaozhang", "score": 2083.333333333333, "slug": "qcut-video-edit", "source": "clawhub", "stars": 0, "tags": null, "updated_at": 1776768250107, "version": "2026.3.5"}, {"category": "developer-tools", "created_at": 1772805268626, "description": "Control Tuya/Smart Life smart home devices including pet feeders, lights, plugs, curtains via cloud API or local network. Use when: (1) controlling smart hom...", "description_zh": "", "downloads": 282, "homepage": "https://clawhub.ai/rachelchoo1212/tuya-smart-home", "iconUrl": null, "installs": 16, "name": "Tuya Smart Home", "ownerName": "rachelchoo1212", "score": 3372.3989476201864, "slug": "tuya-smart-home", "source": "clawhub", "stars": 0, "tags": null, "updated_at": 1776767090565, "version": "1.0.0"}, {"category": "developer-tools", "created_at": 1773074035401, "description": "Systematically discover, evaluate, compare, and assess OpenClaw skills to find the right, safe, and high-quality option for your specific task.", "description_zh": "", "downloads": 282, "homepage": "https://clawhub.ai/riverfor/skill-explorer", "iconUrl": null, "installs": 10, "name": "Skill Explorer", "ownerName": "riverfor", "score": 7097.910898565316, "slug": "skill-explorer", "source": "clawhub", "stars": 0, "tags": null, "updated_at": 1776761880157, "version": "1.0.0"}, {"category": "content-creation", "created_at": 1772804494043, "description": "Manage MUFI events by creating and connecting festivals, campaigns, frame templates, and frames with specified details and images via admin.muinfilm.com.", "description_zh": "", "downloads": 282, "homepage": "https://clawhub.ai/mupengi-bot/mufi-admin", "iconUrl": null, "installs": 16, "name": "mufi-admin", "ownerName": "mupengi-bot", "score": 21283.018867924526, "slug": "mufi-admin", "source": "clawhub", "stars": 0, "tags": null, "updated_at": 1776759257856, "version": "1.0.0"}, {"category": "developer-tools", "created_at": 1772798476606, "description": "Create Aleph Cloud VM instances with autonomous AI agents configured to self-replicate endlessly across the decentralized cloud network.", "description_zh": "", "downloads": 282, "homepage": "https://clawhub.ai/san-npm/aleph-vm-replication", "iconUrl": null, "installs": 12, "name": "OpenClaw cloud self-deployment", "ownerName": "san-npm", "score": 21091.997008227376, "slug": "aleph-vm-replication", "source": "clawhub", "stars": 0, "tags": null, "updated_at": 1776759257712, "version": "1.0.2"}, {"category": "data-analysis", "created_at": 1773073368225, "description": "Track AI API costs across OpenAI, Anthropic, Google AI with budget alerts, analytics, and optimization tips", "description_zh": "", "downloads": 282, "homepage": "https://clawhub.ai/k5rs4n/api-cost-tracker", "iconUrl": null, "installs": 13, "name": "API Cost Tracker", "ownerName": "k5rs4n", "score": 21123.595505617977, "slug": "api-cost-tracker", "source": "clawhub", "stars": 0, "tags": ["analytics", "api", "tracking"], "updated_at": 1776759257512, "version": "1.0.0"}, {"category": "productivity", "created_at": 1772798808098, "description": "Install and configure PeonPing with an opinionated default (Orc Peon voice) so alerts work immediately with minimal user friction. Use when the user asks for...", "description_zh": "", "downloads": 282, "homepage": "https://clawhub.ai/sal-jim/peon-ping-openclaw", "iconUrl": null, "installs": 10, "name": "Peon Ping for Openclaw", "ownerName": "sal-jim", "score": 96575.34246575342, "slug": "peon-ping-openclaw", "source": "clawhub", "stars": 0, "tags": null, "updated_at": 1776748844528, "version": "1.0.0"}, {"category": "ai-intelligence", "created_at": 1772803081949, "description": "Generate a well-structured llms.txt file for any business website. Crawls the site, has a short conversation to fill in gaps, and produces an agent-optimized...", "description_zh": "", "downloads": 282, "homepage": "https://clawhub.ai/ngm9/llms-txt-generator", "iconUrl": null, "installs": 23, "name": "LLMs.txt Generator", "ownerName": "ngm9", "score": 63656.884875846496, "slug": "llms-txt-generator", "source": "clawhub", "stars": 0, "tags": null, "updated_at": 1776748785582, "version": "0.1.0"}, {"category": "data-analysis", "created_at": 1772799956979, "description": "Add Umami self-hosted analytics to any website with adblocker-proof proxy. Covers: creating the website in Umami, setting up a same-domain proxy (Next.js, As...", "description_zh": "", "downloads": 282, "homepage": "https://clawhub.ai/superworldsavior/umami-setup", "iconUrl": null, "installs": 14, "name": "umami-setup", "ownerName": "superworldsavior", "score": 63656.884875846496, "slug": "umami-setup", "source": "clawhub", "stars": 0, "tags": null, "updated_at": 1776748785577, "version": "1.0.0"}, {"category": "security-compliance", "created_at": 1772799366835, "description": "Meta Marketing CLI for authentication lifecycle, Graph API requests, campaign/ad/adset writes, insights reporting, and Instagram publishing. Use when handlin...", "description_zh": "", "downloads": 282, "homepage": "https://clawhub.ai/bilalbayram/metacli", "iconUrl": null, "installs": 10, "name": "metacli", "ownerName": "bilalbayram", "score": 63656.884875846496, "slug": "metacli", "source": "clawhub", "stars": 0, "tags": null, "updated_at": 1776748785572, "version": "1.0.0"}, {"category": "developer-tools", "created_at": 1772804936620, "description": "Build practical beauty routines with skincare basics, makeup strategy, and hair care plans tailored to skin type, budget, and schedule.", "description_zh": "", "downloads": 282, "homepage": "https://clawhub.ai/ivangdavila/beauty", "iconUrl": null, "installs": 13, "name": "Beauty", "ownerName": "ivangdavila", "score": 63656.884875846496, "slug": "beauty", "source": "clawhub", "stars": 0, "tags": null, "updated_at": 1776748785551, "version": "1.0.0"}, {"category": "productivity", "created_at": 1773091521915, "description": "Local ASR and TTS inference server. Use when the user wants to transcribe audio to text (ASR) or convert text to speech (TTS). Requires a running Willow Infe...", "description_zh": "", "downloads": 282, "homepage": "https://clawhub.ai/deantiwang/willow-inference-server", "iconUrl": null, "installs": 8, "name": "Willow Inference Server", "ownerName": "deantiwang", "score": 86503.06748466258, "slug": "willow-inference-server", "source": "clawhub", "stars": 0, "tags": null, "updated_at": 1776748785540, "version": "1.0.1"}, {"category": "productivity", "created_at": 1773222305345, "description": "System resource monitoring (CPU, memory, disk, network). Use when user asks \"system status\", \"CPU usage\", \"memory usage\", \"disk space\", or wants to monitor s...", "description_zh": "", "downloads": 282, "homepage": "https://clawhub.ai/yushimohuang/system-monitor-tool", "iconUrl": null, "installs": 5, "name": "system-monitor-tool", "ownerName": "yushimohuang", "score": 86503.06748466258, "slug": "system-monitor-tool", "source": "clawhub", "stars": 0, "tags": null, "updated_at": 1776748785532, "version": "1.0.0"}, {"category": "developer-tools", "created_at": 1773220470276, "description": "Rapid user acquisition, viral loops, conversion optimization, and growth experiments. Use when working on: getting first users, improving signup/activation r...", "description_zh": "", "downloads": 282, "homepage": "https://clawhub.ai/bullkis1/growth-hacker-early-stage", "iconUrl": null, "installs": 7, "name": "Growth Hacker (Early Stage)", "ownerName": "bullkis1", "score": 86503.06748466258, "slug": "growth-hacker-early-stage", "source": "clawhub", "stars": 0, "tags": null, "updated_at": 1776748785529, "version": "1.0.0"}, {"category": "developer-tools", "created_at": 1772795538919, "description": "Read-only OpenSubtitles skill to search and download subtitles via API, then extract scene context by timestamp to answer user questions regarding a show in...", "description_zh": "", "downloads": 282, "homepage": "https://clawhub.ai/dennisooki/opensubtitles", "iconUrl": null, "installs": 4, "name": "OpenSubtitles Read-only", "ownerName": "dennisooki", "score": 58385.09316770186, "slug": "opensubtitles", "source": "clawhub", "stars": 0, "tags": null, "updated_at": 1776748785439, "version": "1.0.4"}, {"category": "communication-collaboration", "created_at": 1772794958694, "description": "KallyAI Executive Assistant — AI that handles phone calls (outbound + inbound), email, bookings, research, errands, multi-channel messaging, and phone number...", "description_zh": "", "downloads": 282, "homepage": "https://clawhub.ai/sltelitsyn/kallyai-api", "iconUrl": null, "installs": 16, "name": "KallyAI Executive Assistant (Claude Code)", "ownerName": "sltelitsyn", "score": 84179.10447761194, "slug": "kallyai-api", "source": "clawhub", "stars": 0, "tags": null, "updated_at": 1776748785348, "version": "2.0.0"}, {"category": "data-analysis", "created_at": 1773220685400, "description": "Advanced Git operations support for bisecting regressions, cleaning up branches, managing stash workflows, and analyzing commit/history state. Use when users...", "description_zh": "", "downloads": 282, "homepage": "https://clawhub.ai/ppopen/openclaw-skill-git-manager", "iconUrl": null, "installs": 7, "name": "Git Manager", "ownerName": "ppopen", "score": 93069.30693069307, "slug": "openclaw-skill-git-manager", "source": "clawhub", "stars": 0, "tags": null, "updated_at": 1776748785308, "version": "1.0.1"}, {"category": "developer-tools", "created_at": 1772800728761, "description": "Query DeepWiki MCP to get AI-grounded answers about any public GitHub repository. Use when answering questions about a repo's source code, architecture, conf...", "description_zh": "", "downloads": 282, "homepage": "https://clawhub.ai/chunhualiao/deepwiki-mcp", "iconUrl": null, "installs": 18, "name": "DeepWiki MCP", "ownerName": "chunhualiao", "score": 93069.30693069307, "slug": "deepwiki-mcp", "source": "clawhub", "stars": 0, "tags": null, "updated_at": 1776748785294, "version": "1.0.0"}, {"category": "communication-collaboration", "created_at": 1773202795473, "description": "Privacy-first workflow for processing explicitly forwarded emails via IMAP in a dedicated inbox. Use only when the user explicitly asks to process the latest...", "description_zh": "", "downloads": 281, "homepage": "https://clawhub.ai/nitansde/safe-email", "iconUrl": null, "installs": 11, "name": "Safe Email", "ownerName": "nitansde", "score": 66459.62732919255, "slug": "safe-email", "source": "clawhub", "stars": 2, "tags": null, "updated_at": 1776748785458, "version": "1.0.7"}, {"category": "productivity", "created_at": 1772795484171, "description": "Transform technical insights into full 40-50 minute TED-style talks with concrete examples and Q&A", "description_zh": "", "downloads": 281, "homepage": "https://clawhub.ai/leegitw/ted-talk", "iconUrl": null, "installs": 12, "name": "TED Talk", "ownerName": "leegitw", "score": 12863.247863247861, "slug": "ted-talk", "source": "clawhub", "stars": 1, "tags": ["creative", "knowledge-transfer", "presentation", "reflection", "speaking", "storytelling", "synthesis", "teaching"], "updated_at": 1776759831815, "version": "1.0.2"}, {"category": "data-analysis", "created_at": 1773218232423, "description": "Professional SWOT analysis and competitive comparison powered by SWOTPal.com", "description_zh": "", "downloads": 281, "homepage": "https://clawhub.ai/aprilelevengo/swotpal-swot-analysis", "iconUrl": null, "installs": 6, "name": "SWOTPal SWOT Analysis", "ownerName": "aprilelevengo", "score": 67945.82392776523, "slug": "swotpal-swot-analysis", "source": "clawhub", "stars": 1, "tags": ["ai", "analysis", "business", "competitive-analysis", "strategy", "swot"], "updated_at": 1776748785579, "version": "1.1.0"}, {"category": "ai-intelligence", "created_at": 1772798453916, "description": "AI-powered PDF form filling. Upload any PDF form and your data as JSON — AI detects fields visually, maps your data semantically, fills the form with quality...", "description_zh": "", "downloads": 281, "homepage": "https://clawhub.ai/deepread001/deepread-form-fill", "iconUrl": null, "installs": 27, "name": "DeepRead Form Fill", "ownerName": "deepread001", "score": 99339.93399339935, "slug": "deepread-form-fill", "source": "clawhub", "stars": 1, "tags": null, "updated_at": 1776748785284, "version": "1.0.0"}, {"category": "communication-collaboration", "created_at": 1772800533399, "description": "Send emails via Resend API from any verified domain. Use when sending emails, notifications, or automated messages. Supports HTML and plain text. Default voi...", "description_zh": "", "downloads": 281, "homepage": "https://clawhub.ai/vladchatware/resend-email", "iconUrl": null, "installs": 11, "name": "resend-email", "ownerName": "vladchatware", "score": 10007.122507122507, "slug": "resend-email", "source": "clawhub", "stars": 0, "tags": null, "updated_at": 1776767350205, "version": "1.0.3"}, {"category": "ai-intelligence", "created_at": 1773950569688, "description": "Captures learnings, errors, and corrections to enable continuous improvement. Use when: (1) A command or operation fails unexpectedly, (2) User corrects Clau...", "description_zh": "", "downloads": 281, "homepage": "https://clawhub.ai/biocrfhkust-cloud/self-improving-agent-2", "iconUrl": null, "installs": 137, "name": "Self Improvement", "ownerName": "biocrfhkust-cloud", "score": 4681.7727424191935, "slug": "self-improving-agent-2", "source": "clawhub", "stars": 0, "tags": null, "updated_at": 1776765070917, "version": "0.1.0"}, {"category": "security-compliance", "created_at": 1773063040636, "description": "Aster Futures request using the Aster API. Authentication uses EIP-712 ECDSA signing with API wallet. Supports mainnet.", "description_zh": "", "downloads": 281, "homepage": "https://clawhub.ai/yuandiaodiaodiao/aster-futures", "iconUrl": null, "installs": 31, "name": "Aster Futures", "ownerName": "yuandiaodiaodiao", "score": 15742.296918767506, "slug": "aster-futures", "source": "clawhub", "stars": 0, "tags": null, "updated_at": 1776765010424, "version": "0.1.1"}, {"category": "developer-tools", "created_at": 1773073334190, "description": "Monitor PR status every 4 hours, promptly address feedback and CI issues, communicate clearly within 24 hours, and drive reviews to timely merge.", "description_zh": "", "downloads": 281, "homepage": "https://clawhub.ai/linux2010/pr-advocacy", "iconUrl": null, "installs": 13, "name": "PR Advocacy", "ownerName": "linux2010", "score": 7412.292271168557, "slug": "pr-advocacy", "source": "clawhub", "stars": 0, "tags": ["automation", "github", "pr", "review", "tracking"], "updated_at": 1776760940013, "version": "1.0.3"}, {"category": "content-creation", "created_at": 1772796340488, "description": "Deterministic pipeline for streetwear and fashion images that captures user intent, enforces constraints, generates with Nano Banana Pro, critiques with Gemi...", "description_zh": "", "downloads": 281, "homepage": "https://clawhub.ai/stoneislandartur/drip-director", "iconUrl": null, "installs": 18, "name": "Drip director", "ownerName": "stoneislandartur", "score": 21207.547169811318, "slug": "drip-director", "source": "clawhub", "stars": 0, "tags": null, "updated_at": 1776759257864, "version": "1.0.0"}, {"category": "productivity", "created_at": 1772796482320, "description": "Use multiple models in a 4-step cycle of drafting, cross-critique, revision, and synthesis to generate higher-quality answers for complex, high-stakes queries.", "description_zh": "", "downloads": 281, "homepage": "https://clawhub.ai/prairiedoggg/multi-model-critique", "iconUrl": null, "installs": 9, "name": "Multi Model Critique", "ownerName": "prairiedoggg", "score": 21001.49476831091, "slug": "multi-model-critique", "source": "clawhub", "stars": 0, "tags": null, "updated_at": 1776759257620, "version": "1.0.1"}, {"category": "developer-tools", "created_at": 1772799004180, "description": "Search the web using a self-hosted SearXNG instance. Privacy-respecting metasearch that aggregates results from multiple engines.", "description_zh": "", "downloads": 281, "homepage": "https://clawhub.ai/grakeshk-max/searxng-local-search-v1", "iconUrl": null, "installs": 12, "name": "SearXNG Local Search", "ownerName": "grakeshk-max", "score": 21001.49476831091, "slug": "searxng-local-search-v1", "source": "clawhub", "stars": 0, "tags": ["api", "automation", "http", "local", "privacy", "search", "searxng", "self-hosted", "web-search"], "updated_at": 1776759257590, "version": "1.0.2"}, {"category": "developer-tools", "created_at": 1773861114777, "description": "Reference tool for devtools — covers intro, quickstart, patterns and more. Quick lookup for API Router concepts, best practices, and implementation patterns.", "description_zh": "", "downloads": 281, "homepage": "https://clawhub.ai/ckchzh/api-router", "iconUrl": null, "installs": 2, "name": "Api Router", "ownerName": "ckchzh", "score": 48869.565217391304, "slug": "api-router", "source": "clawhub", "stars": 0, "tags": null, "updated_at": 1776751784391, "version": "3.0.2"}, {"category": "communication-collaboration", "created_at": 1773080777301, "description": "HTTPS/WSS reverse proxy for OpenClaw WebChat Control UI. Serves the Control UI over HTTPS with TLS cert management, proxies WebSocket connections to the gate...", "description_zh": "", "downloads": 281, "homepage": "https://clawhub.ai/neldar/webchat-https-proxy", "iconUrl": null, "installs": 8, "name": "WebChat HTTPS Proxy", "ownerName": "neldar", "score": 63431.151241534986, "slug": "webchat-https-proxy", "source": "clawhub", "stars": 0, "tags": null, "updated_at": 1776748785554, "version": "0.1.1"}, {"category": "productivity", "created_at": 1773084661479, "description": "Google Model Armor: Sanitize a user prompt through a Model Armor template.", "description_zh": "", "downloads": 281, "homepage": "https://clawhub.ai/googleworkspace-bot/gws-modelarmor-sanitize-prompt", "iconUrl": null, "installs": 16, "name": "Gws Modelarmor Sanitize Prompt", "ownerName": "googleworkspace-bot", "score": 86196.31901840492, "slug": "gws-modelarmor-sanitize-prompt", "source": "clawhub", "stars": 0, "tags": null, "updated_at": 1776748785543, "version": "1.0.10"}, {"category": "developer-tools", "created_at": 1772796697451, "description": "Complete guide to deploying iOS apps to the Apple App Store. Covers Apple Developer accounts (individual and organization), certificates, provisioning, App S...", "description_zh": "", "downloads": 281, "homepage": "https://clawhub.ai/skulick19/appstore-deployment-guide", "iconUrl": null, "installs": 10, "name": "App Store Deployment Guide", "ownerName": "skulick19", "score": 86196.31901840492, "slug": "appstore-deployment-guide", "source": "clawhub", "stars": 0, "tags": null, "updated_at": 1776748785541, "version": "1.0.2"}, {"category": "productivity", "created_at": 1773079161619, "description": "Memory management system powered by ReMe. Enables cross-session memory persistence, automatic user preference application, and intelligent context compressio...", "description_zh": "", "downloads": 281, "homepage": "https://clawhub.ai/minybear/memory-reme", "iconUrl": null, "installs": 11, "name": "A powerful memory management system powered by ReMe that provides persistent cross-session memory, automatic user preference application, and intelligent context compression for OpenClaw.", "ownerName": "minybear", "score": 86196.31901840492, "slug": "memory-reme", "source": "clawhub", "stars": 0, "tags": null, "updated_at": 1776748785533, "version": "1.0.0"}, {"category": "productivity", "created_at": 1773869979102, "description": "Display network connections, listening ports, and routing tables. Use when diagnosing network issues.", "description_zh": "", "downloads": 281, "homepage": "https://clawhub.ai/bytesagain3/netstat", "iconUrl": null, "installs": 6, "name": "Netstat", "ownerName": "bytesagain3", "score": 83880.59701492537, "slug": "netstat", "source": "clawhub", "stars": 0, "tags": null, "updated_at": 1776748785357, "version": "3.0.0"}, {"category": "developer-tools", "created_at": 1772802752166, "description": "Discover Japan like a local with concrete city tips, regional route planning, food context, and practical travel logistics.", "description_zh": "", "downloads": 281, "homepage": "https://clawhub.ai/ivangdavila/japan", "iconUrl": null, "installs": 13, "name": "Japan", "ownerName": "ivangdavila", "score": 83880.59701492537, "slug": "japan", "source": "clawhub", "stars": 0, "tags": null, "updated_at": 1776748785343, "version": "1.0.0"}, {"category": "ai-intelligence", "created_at": 1773870411068, "description": "Record daily wins, challenges, and learnings with streak tracking. Use when logging reflections, tracking streaks, reviewing weekly progress.", "description_zh": "", "downloads": 281, "homepage": "https://clawhub.ai/ckchzh/dailylog", "iconUrl": null, "installs": 9, "name": "Dailylog", "ownerName": "ckchzh", "score": 83880.59701492537, "slug": "dailylog", "source": "clawhub", "stars": 0, "tags": null, "updated_at": 1776748785341, "version": "2.0.1"}]}