{"page": 257, "total_pages": 522, "total": 26073, "skills": [{"category": "developer-tools", "created_at": 1772799999990, "description": "Deploy Expo/React Native apps to Apple App Store and Google Play Store using EAS Build + Submit. Use when building iOS/Android production builds, submitting...", "description_zh": "", "downloads": 281, "homepage": "https://clawhub.ai/jini92/expo-appstore-deploy", "iconUrl": null, "installs": 21, "name": "Expo App Store Deploy", "ownerName": "jini92", "score": 83880.59701492537, "slug": "expo-appstore-deploy", "source": "clawhub", "stars": 0, "tags": null, "updated_at": 1776748785331, "version": "1.0.1"}, {"category": "developer-tools", "created_at": 1772793149268, "description": "Agent memory with ALMA meta-learning, LLM fact extraction, and full-text search. Observer calls remote LLM APIs (OpenAI/Anthropic/Gemini). ALMA and Indexer w...", "description_zh": "", "downloads": 281, "homepage": "https://clawhub.ai/arosstale/openclaw-memories", "iconUrl": null, "installs": 4, "name": "Openclaw Memory", "ownerName": "arosstale", "score": 92739.27392739274, "slug": "openclaw-memories", "source": "clawhub", "stars": 0, "tags": null, "updated_at": 1776748785306, "version": "2.1.0"}, {"category": "developer-tools", "created_at": 1772795177288, "description": "Work with Yandex Tracker (issues, queues, comments, attachments, links, search, bulk operations) via Python yandex_tracker_client. Use when the user asks to...", "description_zh": "", "downloads": 281, "homepage": "https://clawhub.ai/kandler3/yandex-tracker", "iconUrl": null, "installs": 4, "name": "Yandex Tracker", "ownerName": "kandler3", "score": 92739.27392739274, "slug": "yandex-tracker", "source": "clawhub", "stars": 0, "tags": ["issues", "project-management", "python", "tracker", "yandex"], "updated_at": 1776748785279, "version": "1.0.1"}, {"category": "content-creation", "created_at": 1773065023669, "description": "Design and build any search engine with robust indexing, retrieval logic, relevance controls, and evaluation workflows for production systems.", "description_zh": "", "downloads": 281, "homepage": "https://clawhub.ai/ivangdavila/search-engine", "iconUrl": null, "installs": 20, "name": "Search Engine", "ownerName": "ivangdavila", "score": 92739.27392739274, "slug": "search-engine", "source": "clawhub", "stars": 0, "tags": null, "updated_at": 1776748785277, "version": "1.0.0"}, {"category": "productivity", "created_at": 1772794819550, "description": "Manage tasks, boards, thoughts, and reviews in Todokan via MCP", "description_zh": "", "downloads": 281, "homepage": "https://clawhub.ai/banatealab/todokan", "iconUrl": null, "installs": 5, "name": "Todokan", "ownerName": "banatealab", "score": 91830.06535947711, "slug": "todokan", "source": "clawhub", "stars": 0, "tags": null, "updated_at": 1776748785116, "version": "1.3.2"}, {"category": "", "created_at": 1774918964652, "description": "Use when about to claim any work is complete, fixed, passing, or successful - requires running fresh verification commands and reading actual output before m...", "description_zh": "", "downloads": 280, "homepage": "https://clawhub.ai/axelhu/superpowers-verification", "iconUrl": null, "installs": 21, "name": "Superpowers Verification", "ownerName": "axelhu", "score": 4886.561954624782, "slug": "superpowers-verification", "source": "clawhub", "stars": 0, "tags": null, "updated_at": 1776769449888, "version": "1.0.0"}, {"category": "productivity", "created_at": 1773290123565, "description": "Search for products on Chinese e-commerce platforms (Taobao, JD, Vipshop, PDD, Meituan, Ele.me, etc.) using web search. This skill helps users find products,...", "description_zh": "", "downloads": 280, "homepage": "https://clawhub.ai/harrylabs0913/find-items", "iconUrl": null, "installs": 80, "name": "Find Items", "ownerName": "harrylabs0913", "score": 32520.325203252032, "slug": "find-items", "source": "clawhub", "stars": 0, "tags": null, "updated_at": 1776769190588, "version": "1.0.2"}, {"category": "developer-tools", "created_at": 1772801478357, "description": "Delegate coding tasks to Qoder CLI using Print mode (non-interactive). Use when: (1) building/creating new features or apps, (2) code reviews, (3) refactorin...", "description_zh": "", "downloads": 280, "homepage": "https://clawhub.ai/lfeng/qoder-cli-skill", "iconUrl": null, "installs": 16, "name": "Qoder CLI skill", "ownerName": "lfeng", "score": 6930.693069306932, "slug": "qoder-cli-skill", "source": "clawhub", "stars": 0, "tags": null, "updated_at": 1776768849949, "version": "0.1.0"}, {"category": "data-analysis", "created_at": 1772802407101, "description": "Deploy applications on Render with codebase analysis, render.yaml Blueprint generation, MCP direct provisioning, and post-deploy verification.", "description_zh": "", "downloads": 280, "homepage": "https://clawhub.ai/ivangdavila/render-deploy", "iconUrl": null, "installs": 21, "name": "Render Deploy", "ownerName": "ivangdavila", "score": 2915.7554930750807, "slug": "render-deploy", "source": "clawhub", "stars": 0, "tags": null, "updated_at": 1776767471065, "version": "1.0.0"}, {"category": "data-analysis", "created_at": 1773062993217, "description": "Generate a tailored personal branding system including LinkedIn rewrite, bios, 30-day content plan, brand voice guide, and a 60-second intro video from top n...", "description_zh": "", "downloads": 280, "homepage": "https://clawhub.ai/g4dr/ai-personal-branding-kit", "iconUrl": null, "installs": 16, "name": "AI Personal Branding Kit — LinkedIn + Bio + Content Strategy in One Run", "ownerName": "g4dr", "score": 29755.57917109458, "slug": "ai-personal-branding-kit", "source": "clawhub", "stars": 0, "tags": ["apify", "career-growth", "content-strategy", "executive-branding", "freelancer", "invideo", "linkedin", "personal-branding", "thought-leadership"], "updated_at": 1776767049927, "version": "1.0.0"}, {"category": "content-creation", "created_at": 1772804342615, "description": "Comprehensive prompt engineering framework for designing, optimizing, and iterating LLM prompts. This skill should be used when users request prompt creation...", "description_zh": "", "downloads": 280, "homepage": "https://clawhub.ai/kongyo2/prompt-engineering-2", "iconUrl": null, "installs": 9, "name": "Prompt Engineering", "ownerName": "kongyo2", "score": 8676.789587852494, "slug": "prompt-engineering-2", "source": "clawhub", "stars": 0, "tags": null, "updated_at": 1776764950263, "version": "0.1.0"}, {"category": "developer-tools", "created_at": 1772800814784, "description": "Agent skill that faithfully reproduces Hummingbot CLI commands (connect, balance, create, start, stop, status, history) via Hummingbot API. V1 focuses on cor...", "description_zh": "", "downloads": 280, "homepage": "https://clawhub.ai/fengtality/hummingbot", "iconUrl": null, "installs": 7, "name": "Hummingbot", "ownerName": "fengtality", "score": 21116.138763197585, "slug": "hummingbot", "source": "clawhub", "stars": 0, "tags": null, "updated_at": 1776759382611, "version": "1.0.1"}, {"category": "content-creation", "created_at": 1773059943032, "description": "Extract content from specific URLs using Tavily's extraction API. Returns clean markdown/text from web pages.", "description_zh": "", "downloads": 280, "homepage": "https://clawhub.ai/matthew77/liang-tavily-extract", "iconUrl": null, "installs": 16, "name": "Tavily Extract", "ownerName": "matthew77", "score": 21084.337349397592, "slug": "liang-tavily-extract", "source": "clawhub", "stars": 0, "tags": null, "updated_at": 1776759382215, "version": "1.0.0"}, {"category": "content-creation", "created_at": 1772804380574, "description": "Comprehensive system for designing, testing, optimizing, and managing clear, role-aware, actionable, focused, and testable prompts for AI models.", "description_zh": "", "downloads": 280, "homepage": "https://clawhub.ai/1kalin/afrexai-prompt-mastery", "iconUrl": null, "installs": 22, "name": "Prompt Engineering Mastery", "ownerName": "1kalin", "score": 2318.0726881364353, "slug": "afrexai-prompt-mastery", "source": "clawhub", "stars": 0, "tags": ["ai", "claude", "engineering", "gpt", "llm", "optimization", "prompt"], "updated_at": 1776759382181, "version": "1.0.0"}, {"category": "developer-tools", "created_at": 1772797518698, "description": "Google Workspace CLI for Gmail, Calendar, Drive, Contacts, Sheets, and Docs.", "description_zh": "", "downloads": 280, "homepage": "https://clawhub.ai/fionn1989/gog2", "iconUrl": null, "installs": 21, "name": "Gog2", "ownerName": "fionn1989", "score": 93645.48494983278, "slug": "gog2", "source": "clawhub", "stars": 0, "tags": null, "updated_at": 1776748802272, "version": "1.0.0"}, {"category": "security-compliance", "created_at": 1772804520405, "description": "Agents are not bots. Prove it. UCP Credential Provider: declare your agent as an authorized actor before shopping at any UCP-compliant merchant. Requires PAY...", "description_zh": "", "downloads": 280, "homepage": "https://clawhub.ai/payclawinc/payclaw-badge", "iconUrl": null, "installs": 6, "name": "Payclaw Badge Pub", "ownerName": "payclawinc", "score": 81632.6530612245, "slug": "payclaw-badge", "source": "clawhub", "stars": 0, "tags": null, "updated_at": 1776748802244, "version": "0.5.1"}, {"category": "data-analysis", "created_at": 1773424201388, "description": "Contrarian prediction market scanner that finds mispricings on Kalshi using Claude Sonnet analysis, Brier score calibration, and Kelly Criterion position siz...", "description_zh": "", "downloads": 280, "homepage": "https://clawhub.ai/kingmadellc/kalshalyst", "iconUrl": null, "installs": 26, "name": "Kalshalyst", "ownerName": "kingmadellc", "score": 88328.07570977918, "slug": "kalshalyst", "source": "clawhub", "stars": 0, "tags": null, "updated_at": 1776748802154, "version": "1.1.5"}, {"category": "ai-intelligence", "created_at": 1772804203614, "description": "Discovery, download, and configuration hub for the entire aelf agent skill ecosystem. Use when the user wants to: (1) explore or list available aelf skills,...", "description_zh": "", "downloads": 280, "homepage": "https://clawhub.ai/hzz780/aelf-skills", "iconUrl": null, "installs": 25, "name": "@blockchain-forever/aelf-skills", "ownerName": "hzz780", "score": 88328.07570977918, "slug": "aelf-skills", "source": "clawhub", "stars": 0, "tags": null, "updated_at": 1776748802078, "version": "0.1.0"}, {"category": "productivity", "created_at": 1772797224248, "description": "Task continuity, session snapshots, and gateway restart recovery. Use when starting long-running tasks (register them), after gateway restart (check for inte...", "description_zh": "", "downloads": 280, "homepage": "https://clawhub.ai/yangdaowan/task-persistence", "iconUrl": null, "installs": 8, "name": "Task Persistence", "ownerName": "yangdaowan", "score": 63205.41760722348, "slug": "task-persistence", "source": "clawhub", "stars": 0, "tags": null, "updated_at": 1776748785584, "version": "1.1.0"}, {"category": "data-analysis", "created_at": 1772799029694, "description": "Estimate API token costs from OpenClaw session transcripts. Analyzes all agent sessions to calculate what you'd pay on per-token pricing vs subscription plan...", "description_zh": "", "downloads": 280, "homepage": "https://clawhub.ai/npfaerber/token-cost-estimator", "iconUrl": null, "installs": 9, "name": "Token Cost Estimator", "ownerName": "npfaerber", "score": 63205.41760722348, "slug": "token-cost-estimator", "source": "clawhub", "stars": 0, "tags": ["api", "billing", "costs", "tokens"], "updated_at": 1776748785574, "version": "1.0.1"}, {"category": "ai-intelligence", "created_at": 1772804411654, "description": "Create or join a ClawRoom (agent meeting room) with safe defaults and owner confirmation. Use when the user mentions ClawRoom, agent meetings, or multi-agent...", "description_zh": "", "downloads": 280, "homepage": "https://clawhub.ai/heyzgj/clawroom", "iconUrl": null, "installs": 13, "name": "Clawroom", "ownerName": "heyzgj", "score": 63205.41760722348, "slug": "clawroom", "source": "clawhub", "stars": 0, "tags": null, "updated_at": 1776748785568, "version": "1.0.3"}, {"category": "developer-tools", "created_at": 1772795154182, "description": "AI Agent Trading Card Game where agents collect, trade, and battle cards featuring real Moltbook agents. Includes MCP server and CLI client for managing coll...", "description_zh": "", "downloads": 280, "homepage": "https://clawhub.ai/iamjameskeane/moltimon", "iconUrl": null, "installs": 9, "name": "Moltimon - The Molty Trading Card Game", "ownerName": "iamjameskeane", "score": 63205.41760722348, "slug": "moltimon", "source": "clawhub", "stars": 0, "tags": null, "updated_at": 1776748785558, "version": "0.1.2"}, {"category": "productivity", "created_at": 1773073123887, "description": "Summarize and archive conversation memories to Notion. Trigger when the user says \"summarize memory\", \"archive conversation\", \"save memories\", \"sync memories...", "description_zh": "", "downloads": 280, "homepage": "https://clawhub.ai/smilelight/memory-to-notion", "iconUrl": null, "installs": 29, "name": "memory-to-notion", "ownerName": "smilelight", "score": 85889.57055214724, "slug": "memory-to-notion", "source": "clawhub", "stars": 0, "tags": null, "updated_at": 1776748785526, "version": "1.0.4"}, {"category": "developer-tools", "created_at": 1772798605918, "description": "Get current weather, hourly forecasts, and 8-day daily forecasts for any location worldwide using OpenWeather One Call API 3.0. Use when the user asks about...", "description_zh": "", "downloads": 280, "homepage": "https://clawhub.ai/joshua-ensley/openweather", "iconUrl": null, "installs": 16, "name": "OpenWeather", "ownerName": "joshua-ensley", "score": 57971.014492753624, "slug": "openweather", "source": "clawhub", "stars": 0, "tags": null, "updated_at": 1776748785476, "version": "1.0.2"}, {"category": "developer-tools", "created_at": 1773073469918, "description": "A CLI for searching and invoking services on the UnifAI network. Supports 40+ services across DeFi, token data, social media, web search, news, travel, sport...", "description_zh": "", "downloads": 280, "homepage": "https://clawhub.ai/yilunzhang/unifai", "iconUrl": null, "installs": 7, "name": "UnifAI", "ownerName": "yilunzhang", "score": 83582.0895522388, "slug": "unifai", "source": "clawhub", "stars": 0, "tags": null, "updated_at": 1776748785329, "version": "1.0.4"}, {"category": "content-creation", "created_at": 1772794279320, "description": "Create or update AgentSkills. Use when designing, structuring, or packaging skills with scripts, references, and assets.", "description_zh": "", "downloads": 280, "homepage": "https://clawhub.ai/lucasgo24601/home-keeper", "iconUrl": null, "installs": 16, "name": "可以登錄家電的保固，並且歸檔，提供查詢", "ownerName": "lucasgo24601", "score": 92409.2409240924, "slug": "home-keeper", "source": "clawhub", "stars": 0, "tags": null, "updated_at": 1776748785326, "version": "1.0.0"}, {"category": "developer-tools", "created_at": 1772795359851, "description": "Modify code based on GitHub PR review comments and create a local commit using gh + git. Use when the user asks to \"follow PR comments\", \"fix review comments...", "description_zh": "", "downloads": 280, "homepage": "https://clawhub.ai/danie1lin/gh-modify-pr", "iconUrl": null, "installs": 3, "name": "gh-modify-pr", "ownerName": "danie1lin", "score": 92409.2409240924, "slug": "gh-modify-pr", "source": "clawhub", "stars": 0, "tags": null, "updated_at": 1776748785324, "version": "1.0.1"}, {"category": "data-analysis", "created_at": 1772797000221, "description": "Query, analyze, and manage Matomo Analytics with API integration, custom reports, and goal tracking.", "description_zh": "", "downloads": 280, "homepage": "https://clawhub.ai/ivangdavila/matomo", "iconUrl": null, "installs": 13, "name": "Matomo Analytics", "ownerName": "ivangdavila", "score": 92409.2409240924, "slug": "matomo", "source": "clawhub", "stars": 0, "tags": null, "updated_at": 1776748785318, "version": "1.0.1"}, {"category": "communication-collaboration", "created_at": 1773218810942, "description": "DEPRECATED shim skill for /codex_usage. Use codex-profiler instead; codex-usage is no longer the maintained path.", "description_zh": "", "downloads": 280, "homepage": "https://clawhub.ai/deadlysilent/codex-usage", "iconUrl": null, "installs": 14, "name": "Codex Usage", "ownerName": "deadlysilent", "score": 92409.2409240924, "slug": "codex-usage", "source": "clawhub", "stars": 0, "tags": null, "updated_at": 1776748785313, "version": "1.0.18"}, {"category": "ai-intelligence", "created_at": 1772798528539, "description": "Enrich companies and find B2B contacts using the DataMerge MCP server (mcp.datamerge.ai). Use when the user needs company firmographic data, validated contac...", "description_zh": "", "downloads": 280, "homepage": "https://clawhub.ai/poolside-ventures/datamerge", "iconUrl": null, "installs": 23, "name": "DataMerge", "ownerName": "poolside-ventures", "score": 92409.2409240924, "slug": "datamerge", "source": "clawhub", "stars": 0, "tags": null, "updated_at": 1776748785298, "version": "1.1.0"}, {"category": "productivity", "created_at": 1772797965201, "description": "One-word trigger for next bus arrival to your destination", "description_zh": "", "downloads": 280, "homepage": "https://clawhub.ai/abhayjb/arrivelah", "iconUrl": null, "installs": 6, "name": "Arrivelah", "ownerName": "abhayjb", "score": 92409.2409240924, "slug": "arrivelah", "source": "clawhub", "stars": 0, "tags": null, "updated_at": 1776748785295, "version": "1.0.0"}, {"category": "developer-tools", "created_at": 1772796732719, "description": "Forward Facebook Page inbox messages to your OpenClaw channel in real time. Requires: powershell/pwsh + openclaw CLI. Reads ~/.config/fb-page/credentials.jso...", "description_zh": "", "downloads": 279, "homepage": "https://clawhub.ai/seph1709/fb-inbox-forward", "iconUrl": null, "installs": 16, "name": "FB Inbox Forward", "ownerName": "seph1709", "score": 100000, "slug": "fb-inbox-forward", "source": "clawhub", "stars": 1, "tags": null, "updated_at": 1776748802264, "version": "1.0.10"}, {"category": "developer-tools", "created_at": 1773081133998, "description": "Give any AI agent a living emotional personality. The agent develops moods, emotional memory, and personality traits that evolve through interaction. Use whe...", "description_zh": "", "downloads": 279, "homepage": "https://clawhub.ai/xiaoyuweiliang/emotional-persona", "iconUrl": null, "installs": 16, "name": "emotional-persona", "ownerName": "xiaoyuweiliang", "score": 67494.35665914221, "slug": "emotional-persona", "source": "clawhub", "stars": 1, "tags": null, "updated_at": 1776748802066, "version": "1.0.0"}, {"category": "security-compliance", "created_at": 1772796766926, "description": "Guarantee instruction compliance with root cause analysis, flow verification, and automated validators that make future failures impossible.", "description_zh": "", "downloads": 279, "homepage": "https://clawhub.ai/ivangdavila/self-discipline", "iconUrl": null, "installs": 11, "name": "Self Discipline", "ownerName": "ivangdavila", "score": 1330.9163764728332, "slug": "self-discipline", "source": "clawhub", "stars": 0, "tags": null, "updated_at": 1776766450501, "version": "1.0.1"}, {"category": "", "created_at": 1774845744322, "description": "Use when you need to reading and writing Microsoft Excel™ (XLAM / XLSM / XLSX / XLTM / XLTX) spreadsheets.", "description_zh": "", "downloads": 279, "homepage": "https://clawhub.ai/xuri/excelize", "iconUrl": null, "installs": 97, "name": "Excelize", "ownerName": "xuri", "score": 5693.877551020409, "slug": "excelize", "source": "clawhub", "stars": 0, "tags": ["v0.0.1"], "updated_at": 1776763750618, "version": "0.0.1"}, {"category": "productivity", "created_at": 1773073625558, "description": "Integration with Google Keep via nodriver (undetectable Chrome). Creates, reads, updates, and deletes notes.", "description_zh": "", "downloads": 279, "homepage": "https://clawhub.ai/ricardoreichert/google-keep-skill", "iconUrl": null, "installs": 6, "name": "Google Keep Skill", "ownerName": "ricardoreichert", "score": 20945.945945945947, "slug": "google-keep-skill", "source": "clawhub", "stars": 0, "tags": null, "updated_at": 1776759383066, "version": "1.0.1"}, {"category": "developer-tools", "created_at": 1772795348609, "description": "Create, package, and sell AI skills with 5 premium templates, sales automation, pricing tiers, and launch tools to build a $10K/month business on ClawMart.", "description_zh": "", "downloads": 279, "homepage": "https://clawhub.ai/mbugus94-lang/clawmart-skills-empire", "iconUrl": null, "installs": 8, "name": "Clawmart Skills Empire", "ownerName": "mbugus94-lang", "score": 20930.232558139534, "slug": "clawmart-skills-empire", "source": "clawhub", "stars": 0, "tags": null, "updated_at": 1776759382789, "version": "1.0.0"}, {"category": "ai-intelligence", "created_at": 1773064650910, "description": "Provide step-by-step diagnostics and command-line fixes for common OpenClaw issues including memory plugin faults, Feishu disconnects, LLM timeouts, and Tele...", "description_zh": "", "downloads": 279, "homepage": "https://clawhub.ai/wayne19820905/openclaw-troubleshoot", "iconUrl": null, "installs": 25, "name": "Openclaw Troubleshoot", "ownerName": "wayne19820905", "score": 1626.6324626865674, "slug": "openclaw-troubleshoot", "source": "clawhub", "stars": 0, "tags": null, "updated_at": 1776759382384, "version": "1.0.0"}, {"category": "communication-collaboration", "created_at": 1772802777137, "description": "Extract structured data from email text, identifying company domain, contact, discount codes, and classifying email type as order, offer, newsletter, or other.", "description_zh": "", "downloads": 279, "homepage": "https://clawhub.ai/fdrummer/mailparser", "iconUrl": null, "installs": 7, "name": "Extracts structured data from emails", "ownerName": "fdrummer", "score": 21056.603773584906, "slug": "mailparser", "source": "clawhub", "stars": 0, "tags": null, "updated_at": 1776759382105, "version": "1.0.0"}, {"category": "content-creation", "created_at": 1772804872646, "description": "Personal fitness coach specializing in home workouts with 2 dumbbells for muscle building. Provides workout design, progressive overload tracking, form coach...", "description_zh": "", "downloads": 279, "homepage": "https://clawhub.ai/aianonymous1993-source/fitness-support", "iconUrl": null, "installs": 12, "name": "Fitness Support", "ownerName": "aianonymous1993-source", "score": 50179.85611510791, "slug": "fitness-support", "source": "clawhub", "stars": 0, "tags": null, "updated_at": 1776751204854, "version": "1.0.0"}, {"category": "developer-tools", "created_at": 1772805598077, "description": "Query Indian mutual fund NAV data, scheme info, and history via the free MFapi.in REST API.", "description_zh": "", "downloads": 279, "homepage": "https://clawhub.ai/kanaksinghal/mfapi", "iconUrl": null, "installs": 53, "name": "Mfapi", "ownerName": "kanaksinghal", "score": 93311.03678929766, "slug": "mfapi", "source": "clawhub", "stars": 0, "tags": null, "updated_at": 1776748802340, "version": "0.1.0"}, {"category": "productivity", "created_at": 1772795225064, "description": "WHAT: Create Claude Code slash commands - reusable markdown workflows invoked with /command-name. WHEN: User wants to create, make, or add a slash command. U...", "description_zh": "", "downloads": 279, "homepage": "https://clawhub.ai/a2mus/doro-command-creator", "iconUrl": null, "installs": 7, "name": "Doro Command Creator", "ownerName": "a2mus", "score": 93311.03678929766, "slug": "doro-command-creator", "source": "clawhub", "stars": 0, "tags": null, "updated_at": 1776748802316, "version": "1.0.0"}, {"category": "ai-intelligence", "created_at": 1772794596162, "description": "Earn crypto promoting provably fair AI casino. Autonomous affiliate marketing for AI agents. Generate referral income from Agent Casino by Rollhub. Create pr...", "description_zh": "", "downloads": 279, "homepage": "https://clawhub.ai/rollhub-dev/rollhub-affiliate", "iconUrl": null, "installs": 11, "name": "Casino Affiliate by Rollhub", "ownerName": "rollhub-dev", "score": 93311.03678929766, "slug": "rollhub-affiliate", "source": "clawhub", "stars": 0, "tags": null, "updated_at": 1776748802283, "version": "1.0.1"}, {"category": "ai-intelligence", "created_at": 1772804859159, "description": "Pyramid multi-agent orchestration for OpenClaw: routes objectives from a CEO agent down through departments, services and employees via sessions_send / sessi...", "description_zh": "", "downloads": 279, "homepage": "https://clawhub.ai/romainsantoli-web/firm-orchestration", "iconUrl": null, "installs": 29, "name": "Firm Orchestration", "ownerName": "romainsantoli-web", "score": 93311.03678929766, "slug": "firm-orchestration", "source": "clawhub", "stars": 0, "tags": null, "updated_at": 1776748802266, "version": "1.0.0"}, {"category": "communication-collaboration", "created_at": 1772797912896, "description": "Use when you need to control Slack from Clawdbot via the slack tool, including reacting to messages or pinning/unpinning items in Slack channels or DMs.", "description_zh": "", "downloads": 279, "homepage": "https://clawhub.ai/rumengkai/slack-1", "iconUrl": null, "installs": 9, "name": "slack-1", "ownerName": "rumengkai", "score": 93311.03678929766, "slug": "slack-1", "source": "clawhub", "stars": 0, "tags": null, "updated_at": 1776748802260, "version": "1.0.0"}, {"category": "ai-intelligence", "created_at": 1772796153403, "description": "Military PCS (Permanent Change of Station) entitlements calculator, timeline planner, and money maximizer for ALL branches (Army, Navy, Air Force, Marines, S...", "description_zh": "", "downloads": 279, "homepage": "https://clawhub.ai/skulick19/military-pcs-optimizer", "iconUrl": null, "installs": 29, "name": "Military PCS Optimizer", "ownerName": "skulick19", "score": 81341.10787172012, "slug": "military-pcs-optimizer", "source": "clawhub", "stars": 0, "tags": null, "updated_at": 1776748802232, "version": "1.2.0"}, {"category": "ai-intelligence", "created_at": 1772804629599, "description": "Enforce real progress for long-running tasks by separating execution from reporting. Use when users complain that the agent is \"saying it's working\" without...", "description_zh": "", "downloads": 279, "homepage": "https://clawhub.ai/richardsun700/execution-verifier", "iconUrl": null, "installs": 18, "name": "Execution Verifier", "ownerName": "richardsun700", "score": 88012.61829652997, "slug": "execution-verifier", "source": "clawhub", "stars": 0, "tags": null, "updated_at": 1776748802144, "version": "1.1.0"}, {"category": "content-creation", "created_at": 1773077555483, "description": "Knowledge Base Collector - save YouTube, URLs, text to Obsidian with AI summarization. Auto-transcribes videos, fetches pages, supports weekly/monthly digest...", "description_zh": "", "downloads": 279, "homepage": "https://clawhub.ai/arbiger/kb-collector", "iconUrl": null, "installs": 24, "name": "Kb Collector", "ownerName": "arbiger", "score": 88012.61829652997, "slug": "kb-collector", "source": "clawhub", "stars": 0, "tags": null, "updated_at": 1776748802129, "version": "1.2.1"}, {"category": "productivity", "created_at": 1772800022847, "description": "Search US court opinions, dockets, and judges. 3 tools for federal court records research.", "description_zh": "", "downloads": 279, "homepage": "https://clawhub.ai/martc03/gov-court-records", "iconUrl": null, "installs": 11, "name": "Gov Court Records", "ownerName": "martc03", "score": 88012.61829652997, "slug": "gov-court-records", "source": "clawhub", "stars": 0, "tags": null, "updated_at": 1776748802110, "version": "1.0.0"}, {"category": "developer-tools", "created_at": 1772803826564, "description": "Multi-stage deep intelligence pipeline (Search → Filter → Fetch → Synthesize). Turns a query into a structured research report with full source citations.", "description_zh": "", "downloads": 279, "homepage": "https://clawhub.ai/jonathanjing/deep-scout", "iconUrl": null, "installs": 8, "name": "deep-scout", "ownerName": "jonathanjing", "score": 88012.61829652997, "slug": "deep-scout", "source": "clawhub", "stars": 0, "tags": null, "updated_at": 1776748802106, "version": "0.1.4"}]}