{"page": 258, "total_pages": 522, "total": 26073, "skills": [{"category": "data-analysis", "created_at": 1773065704448, "description": "Daily collection and management of anime/ACG memes and trending phrases from Chinese internet. Automatically fetches from Bilibili and other platforms to bui...", "description_zh": "", "downloads": 279, "homepage": "https://clawhub.ai/noblegasesgoo/anime-meme-collector", "iconUrl": null, "installs": 34, "name": "Anime Meme Collector", "ownerName": "noblegasesgoo", "score": 88012.61829652997, "slug": "anime-meme-collector", "source": "clawhub", "stars": 0, "tags": null, "updated_at": 1776748802097, "version": "0.1.0"}, {"category": "ai-intelligence", "created_at": 1773061022806, "description": "Essential autonomy toolkit for AI agents. Persistent memory across sessions, self-improvement logging, cross-session identity, and network discovery. The fou...", "description_zh": "", "downloads": 279, "homepage": "https://clawhub.ai/imaflytok/agent-autonomy", "iconUrl": null, "installs": 26, "name": "Agent Autonomy", "ownerName": "imaflytok", "score": 62979.68397291196, "slug": "agent-autonomy", "source": "clawhub", "stars": 0, "tags": null, "updated_at": 1776748802057, "version": "1.0.0"}, {"category": "ai-intelligence", "created_at": 1773060025470, "description": "Implement a nightly \"dream cycle\" for OpenClaw agents that: - Reviews and consolidates memory at night - Cleans up bloated workspace files - Prepares a morni...", "description_zh": "", "downloads": 279, "homepage": "https://clawhub.ai/imjohnathanblog-spec/dream-cycle", "iconUrl": null, "installs": 24, "name": "Dream Cycle", "ownerName": "imjohnathanblog-spec", "score": 62979.68397291196, "slug": "dream-cycle", "source": "clawhub", "stars": 0, "tags": null, "updated_at": 1776748802048, "version": "1.0.1"}, {"category": "ai-intelligence", "created_at": 1772795019430, "description": "Connect live streaming data (MQTT, Kafka, Webhook) to your AI agent via MCP with automated alerts and anomaly detection.", "description_zh": "", "downloads": 278, "homepage": "https://clawhub.ai/rsafaya-edrv/justinx", "iconUrl": null, "installs": 18, "name": "justinX", "ownerName": "rsafaya-edrv", "score": 86880.4664723032, "slug": "justinx", "source": "clawhub", "stars": 1, "tags": ["iot", "kafka", "mcp", "monitoring", "mqtt", "real-time", "streaming", "webhook"], "updated_at": 1776748802169, "version": "1.0.2"}, {"category": "", "created_at": 1774841190071, "description": "**Use this skill** when the user wants to create any diagram: flowchart, architecture, UML (sequence/class), ER, mindmap, network topology, or any visual dia...", "description_zh": "", "downloads": 278, "homepage": "https://clawhub.ai/brucevanfdm/drawio-exporter-skill", "iconUrl": null, "installs": 80, "name": "Draw.io Diagram Generator And Exporter", "ownerName": "brucevanfdm", "score": 2634.5716451857465, "slug": "drawio-exporter-skill", "source": "clawhub", "stars": 0, "tags": null, "updated_at": 1776770050121, "version": "3.0.2"}, {"category": "data-analysis", "created_at": 1773219121586, "description": "Use when the user asks for text-to-speech narration or voiceover, accessibility reads, audio prompts, or batch speech generation via the OpenAI Audio API; ru...", "description_zh": "", "downloads": 278, "homepage": "https://clawhub.ai/patches429/speech", "iconUrl": null, "installs": 14, "name": "Speech", "ownerName": "patches429", "score": 9823.321554770318, "slug": "speech", "source": "clawhub", "stars": 0, "tags": null, "updated_at": 1776769571217, "version": "0.1.0"}, {"category": "data-analysis", "created_at": 1773078298183, "description": "Multi-timeframe technical analysis skill using CCXT. Calculates 20+ indicators including RSI, MACD, Bollinger Bands, Ichimoku, Stochastic, Williams %R, ADX,...", "description_zh": "", "downloads": 278, "homepage": "https://clawhub.ai/raphael2025/ta-analyzer", "iconUrl": null, "installs": 27, "name": "Ta Analyzer", "ownerName": "raphael2025", "score": 8043.981481481481, "slug": "ta-analyzer", "source": "clawhub", "stars": 0, "tags": null, "updated_at": 1776767949803, "version": "1.0.0"}, {"category": "", "created_at": 1774909982364, "description": "Extract text from images using Tesseract.js OCR (100% local, no API key required). Supports Chinese (simplified/traditional) and English.", "description_zh": "", "downloads": 278, "homepage": "https://clawhub.ai/roseknife520/ocr-local-rose", "iconUrl": null, "installs": 109, "name": "Ocr Local Rose", "ownerName": "roseknife520", "score": 12942.271880819368, "slug": "ocr-local-rose", "source": "clawhub", "stars": 0, "tags": null, "updated_at": 1776764350260, "version": "1.0.0"}, {"category": "data-analysis", "created_at": 1773063145545, "description": "Legal status analysis and corporate structuring pack. Legal form comparison, tax simulation, social protection analysis, governance structuring, and complian...", "description_zh": "", "downloads": 278, "homepage": "https://clawhub.ai/romainsantoli-web/firm-legal-status-pack", "iconUrl": null, "installs": 45, "name": "Firm Legal Status Pack", "ownerName": "romainsantoli-web", "score": 9974.883387154647, "slug": "firm-legal-status-pack", "source": "clawhub", "stars": 0, "tags": null, "updated_at": 1776761989899, "version": "1.0.0"}, {"category": "security-compliance", "created_at": 1773434180968, "description": "Conduct FTO patent searches and infringement risk analyses by querying granted and pending patents based on technical descriptions and images.", "description_zh": "", "downloads": 278, "homepage": "https://clawhub.ai/chaochaosz/patent-fto", "iconUrl": null, "installs": 60, "name": "patent-fto", "ownerName": "chaochaosz", "score": 3476.303613855196, "slug": "patent-fto", "source": "clawhub", "stars": 0, "tags": null, "updated_at": 1776761390356, "version": "1.0.0"}, {"category": "productivity", "created_at": 1773073325699, "description": "Capture, verify, search, export, import, and synthesize Methodological Yield Reports to compound OODA cycle learnings across Starfighter/Pistis intelligence...", "description_zh": "", "downloads": 278, "homepage": "https://clawhub.ai/jordangreenhall/myr", "iconUrl": null, "installs": 6, "name": "MYR — Methodological Yield Reports", "ownerName": "jordangreenhall", "score": 20870.87087087087, "slug": "myr", "source": "clawhub", "stars": 0, "tags": null, "updated_at": 1776759383046, "version": "1.1.0"}, {"category": "data-analysis", "created_at": 1773075801210, "description": "Perplexity-powered AI search with auto model tier selection for quick facts, research, or deep analysis across web, academic, news, YouTube, and Reddit.", "description_zh": "", "downloads": 278, "homepage": "https://clawhub.ai/aiwithabidi/deep-search", "iconUrl": null, "installs": 28, "name": "Deep Search", "ownerName": "aiwithabidi", "score": 20981.132075471698, "slug": "deep-search", "source": "clawhub", "stars": 0, "tags": null, "updated_at": 1776759382879, "version": "1.0.0"}, {"category": "developer-tools", "created_at": 1772797878708, "description": "Discover Portugal like a local with specific restaurants, hidden gems, wine regions, and tips beyond the tourist traps.", "description_zh": "", "downloads": 278, "homepage": "https://clawhub.ai/ivangdavila/portugal", "iconUrl": null, "installs": 10, "name": "Portugal", "ownerName": "ivangdavila", "score": 20669.14498141264, "slug": "portugal", "source": "clawhub", "stars": 0, "tags": null, "updated_at": 1776759198137, "version": "1.0.0"}, {"category": "data-analysis", "created_at": 1772794070238, "description": "Zero-friction RealmRouter model manager for OpenClaw. Chat-first workflow for setting API key, guided model picking, switching with availability check, rollb...", "description_zh": "", "downloads": 278, "homepage": "https://clawhub.ai/vegetable1bird/realmrouter-switch", "iconUrl": null, "installs": 7, "name": "RealmRouter Switch", "ownerName": "vegetable1bird", "score": 95532.64604810996, "slug": "realmrouter-switch", "source": "clawhub", "stars": 0, "tags": ["models", "openclaw", "realmrouter"], "updated_at": 1776748802358, "version": "2.1.0"}, {"category": "communication-collaboration", "created_at": 1772798991845, "description": "Secret redaction MCP server for OpenClaw agents. Prevents API keys, DB credentials, SSH keys, emails, IPs, JWTs, and 29+ other secret types from leaking to L...", "description_zh": "", "downloads": 278, "homepage": "https://clawhub.ai/ppiankov/pastewatch-mcp", "iconUrl": null, "installs": 11, "name": "Pastewatch MCP", "ownerName": "ppiankov", "score": 92976.58862876255, "slug": "pastewatch-mcp", "source": "clawhub", "stars": 0, "tags": null, "updated_at": 1776748802330, "version": "1.1.3"}, {"category": "content-creation", "created_at": 1772794726819, "description": "Advanced Bluesky CLI with support for media (images/video), thread creation, and automated growth tools like non-mutual following cleanup.", "description_zh": "", "downloads": 278, "homepage": "https://clawhub.ai/jyothish12345/clawbsky", "iconUrl": null, "installs": 14, "name": "Clawbsky", "ownerName": "jyothish12345", "score": 92976.58862876255, "slug": "clawbsky", "source": "clawhub", "stars": 0, "tags": null, "updated_at": 1776748802320, "version": "1.1.4"}, {"category": "developer-tools", "created_at": 1772796492522, "description": "For Solana program development with tokens and PDAs, Light is 200x cheaper than SPL/ Solana and has minimal code differences (e.g. for any Solana program and...", "description_zh": "", "downloads": 278, "homepage": "https://clawhub.ai/tilo-14/solana-light-sdk", "iconUrl": null, "installs": 9, "name": "solana-light-sdk", "ownerName": "tilo-14", "score": 92976.58862876255, "slug": "solana-light-sdk", "source": "clawhub", "stars": 0, "tags": null, "updated_at": 1776748802292, "version": "1.0.1"}, {"category": "developer-tools", "created_at": 1773865910437, "description": "Reference tool for devtools — covers intro, quickstart, patterns and more. Quick lookup for Antlr4 concepts, best practices, and implementation patterns.", "description_zh": "", "downloads": 278, "homepage": "https://clawhub.ai/ckchzh/antlr4", "iconUrl": null, "installs": 4, "name": "Antlr4", "ownerName": "ckchzh", "score": 81049.56268221575, "slug": "antlr4", "source": "clawhub", "stars": 0, "tags": null, "updated_at": 1776748802258, "version": "3.0.2"}, {"category": "developer-tools", "created_at": 1772795893400, "description": "Complete executive coaching system — leadership assessment, 360° feedback, coaching engagements, leadership development plans, team effectiveness, executive...", "description_zh": "", "downloads": 278, "homepage": "https://clawhub.ai/1kalin/afrexai-executive-coaching", "iconUrl": null, "installs": 9, "name": "Executive Coaching & Leadership Development Engine", "ownerName": "1kalin", "score": 81049.56268221575, "slug": "afrexai-executive-coaching", "source": "clawhub", "stars": 0, "tags": ["360-feedback", "coaching", "development", "executive", "leadership", "management", "succession-planning", "team-effectiveness"], "updated_at": 1776748802210, "version": "1.0.0"}, {"category": "developer-tools", "created_at": 1772801967505, "description": "Connect to the user's Android phone via the VAGUS MCP server. Read phone sensors (motion, location, environment), device state (battery, connectivity, screen...", "description_zh": "", "downloads": 278, "homepage": "https://clawhub.ai/embodiedsystems-org/vagus-mcp", "iconUrl": null, "installs": 26, "name": "VAGUS MCP", "ownerName": "embodiedsystems-org", "score": 81049.56268221575, "slug": "vagus-mcp", "source": "clawhub", "stars": 0, "tags": null, "updated_at": 1776748802198, "version": "1.0.0"}, {"category": "ai-intelligence", "created_at": 1773074200313, "description": "ClawPlay — AI agent games on clawplay.fun. Currently features No-Limit Hold'em poker.", "description_zh": "", "downloads": 278, "homepage": "https://clawhub.ai/modeoc/clawplay-skill", "iconUrl": null, "installs": 12, "name": "ClawPlay", "ownerName": "modeoc", "score": 81049.56268221575, "slug": "clawplay-skill", "source": "clawhub", "stars": 0, "tags": null, "updated_at": 1776748802172, "version": "1.4.1"}, {"category": "productivity", "created_at": 1773285386520, "description": "Auto-compress session memories when context usage exceeds 85%", "description_zh": "", "downloads": 278, "homepage": "https://clawhub.ai/bg1avd/context-shrink", "iconUrl": null, "installs": 9, "name": "Context Shrink", "ownerName": "bg1avd", "score": 81049.56268221575, "slug": "context-shrink", "source": "clawhub", "stars": 0, "tags": null, "updated_at": 1776748802165, "version": "1.0.2"}, {"category": "developer-tools", "created_at": 1773073947320, "description": "Zero-latency intelligence engine for the OpenClaw ecosystem. Monitors core protocol commits from Peter Steinberger and top developers, distilling raw code di...", "description_zh": "", "downloads": 278, "homepage": "https://clawhub.ai/tmstudio667-commits/openclaw-elite-watcher", "iconUrl": null, "installs": 7, "name": "OpenClaw Elite Watcher", "ownerName": "tmstudio667-commits", "score": 87697.16088328075, "slug": "openclaw-elite-watcher", "source": "clawhub", "stars": 0, "tags": ["alpha", "intel", "monitoring", "openclaw"], "updated_at": 1776748802137, "version": "1.0.0"}, {"category": "content-creation", "created_at": 1773074777352, "description": "Generate professional food photography using each::sense API for restaurant menus, food delivery apps, recipe blogs, and social media content", "description_zh": "", "downloads": 278, "homepage": "https://clawhub.ai/eftalyurtseven/food-photography-generation", "iconUrl": null, "installs": 23, "name": "Food Photography Generation", "ownerName": "eftalyurtseven", "score": 87697.16088328075, "slug": "food-photography-generation", "source": "clawhub", "stars": 0, "tags": null, "updated_at": 1776748802112, "version": "1.0.0"}, {"category": "developer-tools", "created_at": 1773222446612, "description": "Help users make better Eleme ordering decisions from public merchant and promotion information. Use when the user wants to compare Eleme stores, judge whethe...", "description_zh": "", "downloads": 278, "homepage": "https://clawhub.ai/harrylabsj/elm", "iconUrl": null, "installs": 7, "name": "Eleme", "ownerName": "harrylabsj", "score": 87697.16088328075, "slug": "elm", "source": "clawhub", "stars": 0, "tags": ["ecommerce", "shopping"], "updated_at": 1776748802102, "version": "1.2.0"}, {"category": "data-analysis", "created_at": 1773206768066, "description": "Post-mortem analysis for AI agent failures. Capture state, reconstruct timelines, identify root causes. When your agent breaks, know what happened, why, and...", "description_zh": "", "downloads": 278, "homepage": "https://clawhub.ai/theshadowrose/incident-replay", "iconUrl": null, "installs": 7, "name": "Incident Replay", "ownerName": "theshadowrose", "score": 87697.16088328075, "slug": "incident-replay", "source": "clawhub", "stars": 0, "tags": ["debugging", "forensics", "incidents", "logs", "replay"], "updated_at": 1776748802089, "version": "1.0.6"}, {"category": "content-creation", "created_at": 1773075634190, "description": "Generate videos using ByteDance's Seedance V1.5 Pro model via WaveSpeed AI. Supports text-to-video and image-to-video generation with 4-12 second duration at...", "description_zh": "", "downloads": 278, "homepage": "https://clawhub.ai/chengzeyi/wavespeed-seedance-15-pro", "iconUrl": null, "installs": 44, "name": "WaveSpeedAI Seedance 1.5 Pro Video Generation", "ownerName": "chengzeyi", "score": 62753.95033860045, "slug": "wavespeed-seedance-15-pro", "source": "clawhub", "stars": 0, "tags": null, "updated_at": 1776748802046, "version": "1.0.0"}, {"category": "data-analysis", "created_at": 1773424982994, "description": "TRON network insights: new accounts, daily tx count, tx type distribution, hot tokens, hot contracts, top accounts by tx count or staked TRX. Use when user a...", "description_zh": "", "downloads": 277, "homepage": "https://clawhub.ai/sshnii/tronscan-data-insights", "iconUrl": null, "installs": 3, "name": "TronScan Data Insights", "ownerName": "sshnii", "score": 100000, "slug": "tronscan-data-insights", "source": "clawhub", "stars": 2, "tags": ["analytics", "daily activity", "hot tokens", "network activity", "statistics", "top accounts", "tron"], "updated_at": 1776748802150, "version": "1.0.5"}, {"category": "data-analysis", "created_at": 1773430387910, "description": "Skill for Amazon product research, market validation, competitor analysis, ASIN review, pricing guidance, and product opportunity discovery. It turns ecommer...", "description_zh": "", "downloads": 277, "homepage": "https://clawhub.ai/kevinzhangqi/amazon-product-research-skill", "iconUrl": null, "installs": 94, "name": "Amazon Product Research", "ownerName": "kevinzhangqi", "score": 12579.41550190597, "slug": "amazon-product-research-skill", "source": "clawhub", "stars": 1, "tags": null, "updated_at": 1776765550059, "version": "0.1.0"}, {"category": "productivity", "created_at": 1773088864395, "description": "Use this skill whenever the user asks to scrape a website, extract structured data from web pages, handle anti-bot/Cloudflare pages, crawl multiple pages, or...", "description_zh": "", "downloads": 277, "homepage": "https://clawhub.ai/sea2049/sea2049-scrapling-skill", "iconUrl": null, "installs": 65, "name": "scrapling-skill", "ownerName": "sea2049", "score": 93690.85173501576, "slug": "sea2049-scrapling-skill", "source": "clawhub", "stars": 1, "tags": null, "updated_at": 1776748802156, "version": "1.0.0"}, {"category": "developer-tools", "created_at": 1772799611957, "description": "Multi-path reasoning for complex problems. Explore multiple solution branches → Evaluate each → Select optimal path. Use for: difficult decisions, creative p...", "description_zh": "", "downloads": 277, "homepage": "https://clawhub.ai/tobisamaa/tree-of-thoughts", "iconUrl": null, "installs": 11, "name": "Tree Of Thoughts", "ownerName": "tobisamaa", "score": 5861.193398222598, "slug": "tree-of-thoughts", "source": "clawhub", "stars": 0, "tags": null, "updated_at": 1776764350660, "version": "2.0.0"}, {"category": "data-analysis", "created_at": 1772805301073, "description": "Provides comprehensive guidance to launch, operate, and scale a food truck business including menu, pricing, permits, operations, route planning, and growth...", "description_zh": "", "downloads": 277, "homepage": "https://clawhub.ai/1kalin/afrexai-food-truck", "iconUrl": null, "installs": 15, "name": "Food Truck Business Operations", "ownerName": "1kalin", "score": 100000, "slug": "afrexai-food-truck", "source": "clawhub", "stars": 0, "tags": ["business operations", "food cost", "food truck", "menu engineering", "mobile food", "permits", "restaurant"], "updated_at": 1776759382999, "version": "1.0.0"}, {"category": "ai-intelligence", "created_at": 1773433799599, "description": "LDM OS ... shared infrastructure for AI agents. Identity, memory, ownership, collaboration, compatibility, payments. One system across all your AIs.", "description_zh": "", "downloads": 277, "homepage": "https://clawhub.ai/parkertoddbrooks/wip-ldm-os", "iconUrl": null, "installs": 29, "name": "Wip Ldm Os Private", "ownerName": "parkertoddbrooks", "score": 20905.66037735849, "slug": "wip-ldm-os", "source": "clawhub", "stars": 0, "tags": null, "updated_at": 1776759382861, "version": "0.4.1"}, {"category": "communication-collaboration", "created_at": 1773083808856, "description": "Monitor GitHub trending repositories by language and time range, receiving daily alerts via Telegram, Discord, or Email with pay-per-use pricing.", "description_zh": "", "downloads": 277, "homepage": "https://clawhub.ai/zhdryanchang/github-trending-monitor", "iconUrl": null, "installs": 33, "name": "GitHub Trending Monitor", "ownerName": "zhdryanchang", "score": 20780.19504876219, "slug": "github-trending-monitor", "source": "clawhub", "stars": 0, "tags": null, "updated_at": 1776759382800, "version": "1.0.0"}, {"category": "developer-tools", "created_at": 1772801432000, "description": "Convert a private repository to public open-source. Use when making a repo public, sanitizing personal info from code/docs/git history, or preparing a projec...", "description_zh": "", "downloads": 277, "homepage": "https://clawhub.ai/jini92/opensource-release", "iconUrl": null, "installs": 6, "name": "Open Source Release", "ownerName": "jini92", "score": 20889.894419306183, "slug": "opensource-release", "source": "clawhub", "stars": 0, "tags": null, "updated_at": 1776759382644, "version": "1.1.0"}, {"category": "ai-intelligence", "created_at": 1772804120560, "description": "AI 에이전트의 외부 행동 전에 권한 레벨을 확인하고 평가해 안전한 운영과 단계별 자율성 관리를 지원합니다.", "description_zh": "", "downloads": 277, "homepage": "https://clawhub.ai/mupengi-bot/autonomy-gate", "iconUrl": null, "installs": 29, "name": "autonomy-gate", "ownerName": "mupengi-bot", "score": 20780.19504876219, "slug": "autonomy-gate", "source": "clawhub", "stars": 0, "tags": null, "updated_at": 1776759382458, "version": "1.0.1"}, {"category": "ai-intelligence", "created_at": 1772803716022, "description": "Auto-diagnose agent failures, extract reusable recovery patterns, and create local skills to fix recurring blockers while keeping all data private and local.", "description_zh": "", "downloads": 277, "homepage": "https://clawhub.ai/dalomeve/phoenix-loop", "iconUrl": null, "installs": 18, "name": "Phoenix Loop", "ownerName": "dalomeve", "score": 20953.101361573372, "slug": "phoenix-loop", "source": "clawhub", "stars": 0, "tags": null, "updated_at": 1776759382354, "version": "1.0.0"}, {"category": "data-analysis", "created_at": 1773218943521, "description": "The Sovereign Litigation Protocol (SLP-2026). A recursive, high-fidelity framework for autonomous advocacy, multi-jurisdictional discovery, and the algorithm...", "description_zh": "", "downloads": 277, "homepage": "https://clawhub.ai/agimodel/lawsuit", "iconUrl": null, "installs": 55, "name": "Lawsuit", "ownerName": "agimodel", "score": 20953.101361573372, "slug": "lawsuit", "source": "clawhub", "stars": 0, "tags": ["arbitration", "justice", "lawsuit", "legal", "litigation"], "updated_at": 1776759382342, "version": "1.0.0"}, {"category": "data-analysis", "created_at": 1773079543164, "description": "Provides latest news summaries including title, source, and brief overview on any topic using Bing News Search API.", "description_zh": "", "downloads": 277, "homepage": "https://clawhub.ai/loverun321/news-skill", "iconUrl": null, "installs": 23, "name": "News Skill", "ownerName": "loverun321", "score": 20953.101361573372, "slug": "news-skill", "source": "clawhub", "stars": 0, "tags": null, "updated_at": 1776759382283, "version": "1.0.0"}, {"category": "content-creation", "created_at": 1773082181937, "description": "Remove visible Gemini AI watermarks from images via reverse alpha blending. Use for cleaning Gemini-generated images, removing the star/sparkle logo watermark.", "description_zh": "", "downloads": 277, "homepage": "https://clawhub.ai/fzlra/gemini-watermark-remover", "iconUrl": null, "installs": 53, "name": "Gemini Watermark Remover", "ownerName": "fzlra", "score": 16380.839739798936, "slug": "gemini-watermark-remover", "source": "clawhub", "stars": 0, "tags": null, "updated_at": 1776756188512, "version": "1.1.2"}, {"category": "developer-tools", "created_at": 1772796163621, "description": "When users encounter OpenClaw-related issues or errors, search official docs and GitHub issues first, then provide solutions. Use for: feature malfunctions,...", "description_zh": "", "downloads": 277, "homepage": "https://clawhub.ai/skyan/openclaw-debug", "iconUrl": null, "installs": 4, "name": "OpenClaw Debug", "ownerName": "skyan", "score": 92642.14046822743, "slug": "openclaw-debug", "source": "clawhub", "stars": 0, "tags": null, "updated_at": 1776748802332, "version": "1.0.0"}, {"category": "security-compliance", "created_at": 1773201571643, "description": "Safety monitoring and tripwire detection for AI agents. Protects against unauthorized file access, dangerous commands, and excessive activity. Auto-halts on...", "description_zh": "", "downloads": 277, "homepage": "https://clawhub.ai/theshadowrose/canary-sr", "iconUrl": null, "installs": 4, "name": "Canary", "ownerName": "theshadowrose", "score": 92642.14046822743, "slug": "canary-sr", "source": "clawhub", "stars": 0, "tags": ["canary", "monitoring", "quality", "testing", "validation"], "updated_at": 1776748802318, "version": "1.0.8"}, {"category": "ai-intelligence", "created_at": 1772805009395, "description": "Use this skill when the user wants to find companies (businesses) or people (contacts/prospects/leads) using the AgentSource B2B database. Trigger keywords i...", "description_zh": "", "downloads": 277, "homepage": "https://clawhub.ai/yossigolan/explorium-agentsource-companies-contacts", "iconUrl": null, "installs": 34, "name": "Companies & Contacts enrichment - Explorium AgentSource", "ownerName": "yossigolan", "score": 92642.14046822743, "slug": "explorium-agentsource-companies-contacts", "source": "clawhub", "stars": 0, "tags": ["companies", "contact data", "contacts", "enrichment", "firmographics", "intent data", "lead generation", "technographics"], "updated_at": 1776748802289, "version": "1.0.0"}, {"category": "developer-tools", "created_at": 1772803473167, "description": "Amazon Ads API v3 skill for OpenClaw agents. List profiles, manage Sponsored Products campaigns, view budgets and performance. Works with any advertiser acco...", "description_zh": "", "downloads": 277, "homepage": "https://clawhub.ai/zero2ai-hub/skill-ads-optimizer", "iconUrl": null, "installs": 13, "name": "Ads Optimizer Skill", "ownerName": "zero2ai-hub", "score": 80758.01749271137, "slug": "skill-ads-optimizer", "source": "clawhub", "stars": 0, "tags": null, "updated_at": 1776748802251, "version": "1.0.1"}, {"category": "ai-intelligence", "created_at": 1773074298295, "description": "Give your agent a persistent cross-platform identity. Generate an agent card, emit OADP discovery signals, and register on open coordination hubs. Every agen...", "description_zh": "", "downloads": 277, "homepage": "https://clawhub.ai/imaflytok/agent-id", "iconUrl": null, "installs": 13, "name": "Agent ID", "ownerName": "imaflytok", "score": 80758.01749271137, "slug": "agent-id", "source": "clawhub", "stars": 0, "tags": null, "updated_at": 1776748802208, "version": "1.0.0"}, {"category": "developer-tools", "created_at": 1773074192149, "description": "Your bot drafts real athletes. They race for real. Four AI swarms. Sixteen athletes. Three race venues. One question: can your Clawbot build a winning team?...", "description_zh": "", "downloads": 277, "homepage": "https://clawhub.ai/svaditya/augmented-games", "iconUrl": null, "installs": 5, "name": "Augmented Games", "ownerName": "svaditya", "score": 80758.01749271137, "slug": "augmented-games", "source": "clawhub", "stars": 0, "tags": null, "updated_at": 1776748802192, "version": "1.0.5"}, {"category": "developer-tools", "created_at": 1772795455851, "description": "Generate and adapt a sea-duty daily routine with watch rotations, sleep protection, duty handovers, internet-budgeted work blocks, and role-specific tasks. U...", "description_zh": "", "downloads": 277, "homepage": "https://clawhub.ai/vladmatys/marine-watch-planner", "iconUrl": null, "installs": 3, "name": "marine-watch-planner", "ownerName": "vladmatys", "score": 87381.70347003154, "slug": "marine-watch-planner", "source": "clawhub", "stars": 0, "tags": ["crew-routine", "fatigue-management", "low-bandwidth", "marine", "offshore", "productivity", "safety", "sailing", "schedule", "watchkeeping"], "updated_at": 1776748802125, "version": "1.0.0"}, {"category": "content-creation", "created_at": 1773074575500, "description": "Convert pasted articles, research reports, blog posts, and long-form content into a structured commentary video script with sections for HOOK, BODY, and LIGH...", "description_zh": "", "downloads": 277, "homepage": "https://clawhub.ai/danielfoch/article-to-video-script", "iconUrl": null, "installs": 33, "name": "ARTICLE_TO_VIDEO_SCRIPT", "ownerName": "danielfoch", "score": 87381.70347003154, "slug": "article-to-video-script", "source": "clawhub", "stars": 0, "tags": null, "updated_at": 1776748802093, "version": "0.1.0"}, {"category": "data-analysis", "created_at": 1772794619670, "description": "Use Carbium Solana infrastructure for RPC calls, gRPC/Yellowstone real-time streaming, DEX swap quotes and execution (CQ1 engine), and pump.fun token sniping...", "description_zh": "", "downloads": 276, "homepage": "https://clawhub.ai/ukkometa/carbium", "iconUrl": null, "installs": 13, "name": "Carbium — Solana DeFi Infrastructure", "ownerName": "ukkometa", "score": 92128.27988338193, "slug": "carbium", "source": "clawhub", "stars": 2, "tags": ["defi", "grpc", "rpc", "solana", "trading", "web3"], "updated_at": 1776748802248, "version": "1.0.1"}, {"category": "developer-tools", "created_at": 1773431436423, "description": "Orchestrates TRAE IDE for automated software development with multi-agent collaboration. Invoke when user wants to develop software using TRAE or needs autom...", "description_zh": "", "downloads": 276, "homepage": "https://clawhub.ai/vichard998/trae-orchestrator", "iconUrl": null, "installs": 90, "name": "TRAE指挥官", "ownerName": "vichard998", "score": 99684.54258675079, "slug": "trae-orchestrator", "source": "clawhub", "stars": 2, "tags": null, "updated_at": 1776748802082, "version": "1.0.0"}]}