{"page": 259, "total_pages": 522, "total": 26073, "skills": [{"category": "security-compliance", "created_at": 1773057875713, "description": "Master-level fullstack development standards for FastAPI/Starlette/Uvicorn backend, SQLAlchemy 2.x + SQLite data layer, Jinja2 + Vanilla JS frontend, auth/se...", "description_zh": "", "downloads": 276, "homepage": "https://clawhub.ai/root/fullstackdev", "iconUrl": null, "installs": 38, "name": "Full Stack Development", "ownerName": "root", "score": 11988.659376265696, "slug": "fullstackdev", "source": "clawhub", "stars": 1, "tags": ["fastapi", "fullstack", "jinja2", "security", "sqlalchemy", "sqlite", "vanilla-js", "windows"], "updated_at": 1776767349746, "version": "1.0.0"}, {"category": "data-analysis", "created_at": 1773078317799, "description": "Multi-timeframe crypto technical analysis with scored trading signals, structured trade plans, and position sizing via Binance public API. Use when user asks...", "description_zh": "", "downloads": 276, "homepage": "https://clawhub.ai/eplt/binance-signal-engine", "iconUrl": null, "installs": 29, "name": "Binance Signal Engine", "ownerName": "eplt", "score": 4220.732924568659, "slug": "binance-signal-engine", "source": "clawhub", "stars": 1, "tags": null, "updated_at": 1776762850663, "version": "1.0.2"}, {"category": "data-analysis", "created_at": 1773073148586, "description": "End-to-end trace debugging from trace_id. Fetch Jaeger trace and Elasticsearch logs, analyze possible bugs (optionally with local repository context), and ge...", "description_zh": "", "downloads": 276, "homepage": "https://clawhub.ai/gakkiismywife/trace-debuger", "iconUrl": null, "installs": 10, "name": "Trace Debuger", "ownerName": "gakkiismywife", "score": 86297.37609329447, "slug": "trace-debuger", "source": "clawhub", "stars": 1, "tags": null, "updated_at": 1776748802206, "version": "0.2.1"}, {"category": "ai-intelligence", "created_at": 1772797198915, "description": "Model Context Protocol server exposing 7 tools, 3 resource types, and 3 prompts for AI agent consumption — Solana wallet operations, vanity address generatio...", "description_zh": "", "downloads": 276, "homepage": "https://clawhub.ai/speraxos/pump-mcp-server", "iconUrl": null, "installs": 13, "name": "Pump MCP Server", "ownerName": "speraxos", "score": 6331.727460426703, "slug": "pump-mcp-server", "source": "clawhub", "stars": 0, "tags": null, "updated_at": 1776767090414, "version": "0.1.0"}, {"category": "data-analysis", "created_at": 1773090329047, "description": "Grafana tools for data visualization, monitoring, alerting, and security. Use grafana_query, grafana_query_logs, grafana_query_traces, grafana_create_dashboa...", "description_zh": "", "downloads": 276, "homepage": "https://clawhub.ai/awsome-o/grafana-lens", "iconUrl": null, "installs": 21, "name": "Grafana Lens", "ownerName": "awsome-o", "score": 7124.419204956117, "slug": "grafana-lens", "source": "clawhub", "stars": 0, "tags": null, "updated_at": 1776762850610, "version": "0.2.0"}, {"category": "developer-tools", "created_at": 1773215675157, "description": "A comprehensive AI agent skill for understanding bonds across financial and legal contexts. Explains bond investing for personal portfolios, covers surety an...", "description_zh": "", "downloads": 276, "homepage": "https://clawhub.ai/duclawbot/bond", "iconUrl": null, "installs": 49, "name": "Bond", "ownerName": "duclawbot", "score": 7944.7322970639025, "slug": "bond", "source": "clawhub", "stars": 0, "tags": ["bond", "finance", "investing", "legal", "surety"], "updated_at": 1776762439901, "version": "1.0.0"}, {"category": "developer-tools", "created_at": 1773076103210, "description": "Create a WordPress plugin that detects Amazon affiliate links, extracts ASINs, displays product ads with caching, admin settings, and Gutenberg block support.", "description_zh": "", "downloads": 276, "homepage": "https://clawhub.ai/imjohnathanblog-spec/build-amazon-affiliate-plugin", "iconUrl": null, "installs": 39, "name": "Build Amazon Affiliate Plugin", "ownerName": "imjohnathanblog-spec", "score": 19233.449477351915, "slug": "build-amazon-affiliate-plugin", "source": "clawhub", "stars": 0, "tags": null, "updated_at": 1776759382851, "version": "1.0.0"}, {"category": "data-analysis", "created_at": 1772798878694, "description": "Automatically scrapes, categorizes, and summarizes your X bookmarks into actionable insights delivered to your preferred messaging channel for easy review.", "description_zh": "", "downloads": 276, "homepage": "https://clawhub.ai/adambrainai/adhd-bookmark-analyzer", "iconUrl": null, "installs": 15, "name": "ADHD X Bookmark Analyzer", "ownerName": "adambrainai", "score": 20814.479638009052, "slug": "adhd-bookmark-analyzer", "source": "clawhub", "stars": 0, "tags": null, "updated_at": 1776759382647, "version": "1.0.1"}, {"category": "security-compliance", "created_at": 1772798952441, "description": "Generates detailed AI-powered audit reports on website, SEO, ads, social media, reviews, tech stack, and competitors to close deals before first call.", "description_zh": "", "downloads": 276, "homepage": "https://clawhub.ai/g4dr/instant-client-audit-report", "iconUrl": null, "installs": 11, "name": "Instant Client Audit Report Generator — Close Deals Before the First Call", "ownerName": "g4dr", "score": 20705.176294073517, "slug": "instant-client-audit-report", "source": "clawhub", "stars": 0, "tags": ["agencies", "apify", "audit", "client-acquisition", "lead-generation", "sales", "seo"], "updated_at": 1776759382446, "version": "1.0.0"}, {"category": "developer-tools", "created_at": 1772796407763, "description": "Create and launch Toingg voice-calling campaigns by POSTing user-supplied JSON to the toingg/make_campaign API. Use when Codex needs to turn campaign briefs...", "description_zh": "", "downloads": 276, "homepage": "https://clawhub.ai/abhinavpgagi/toingg-create-campaign", "iconUrl": null, "installs": 2, "name": "Toingg Ops Toolkit", "ownerName": "abhinavpgagi", "score": 20783.13253012048, "slug": "toingg-create-campaign", "source": "clawhub", "stars": 0, "tags": null, "updated_at": 1776759382232, "version": "1.1.0"}, {"category": "data-analysis", "created_at": 1773077281355, "description": "Comprehensive SaaS billing system with subscriptions, usage-based billing, invoicing, Stripe payments, dunning, proration, and multi-platform integration.", "description_zh": "", "downloads": 276, "homepage": "https://clawhub.ai/sunshine-del-ux/saas-billing-system", "iconUrl": null, "installs": 14, "name": "Saas Billing System", "ownerName": "sunshine-del-ux", "score": 2284.9573640202, "slug": "saas-billing-system", "source": "clawhub", "stars": 0, "tags": null, "updated_at": 1776759382147, "version": "1.0.0"}, {"category": "content-creation", "created_at": 1773430940598, "description": "AI video production, script writing, and image generation. Generate video scripts, AI images, and short-form or long-form videos from any topic. Automated co...", "description_zh": "", "downloads": 276, "homepage": "https://clawhub.ai/jimitd-ai/ai-content-engine", "iconUrl": null, "installs": 70, "name": "AI Content Engine", "ownerName": "jimitd-ai", "score": 13080.568720379146, "slug": "ai-content-engine", "source": "clawhub", "stars": 0, "tags": ["content", "youtube"], "updated_at": 1776752983939, "version": "1.0.5"}, {"category": "security-compliance", "created_at": 1773060740379, "description": "Team ZeeLin’s production-grade patent evidence retrieval skill for Google Patents BigQuery. Converts natural-language research intent into auditable multi-ro...", "description_zh": "", "downloads": 276, "homepage": "https://clawhub.ai/yangyuwen-bri/patent-retriever-bigquery", "iconUrl": null, "installs": 26, "name": "Zeelin Patent Retriever", "ownerName": "yangyuwen-bri", "score": 94845.36082474227, "slug": "patent-retriever-bigquery", "source": "clawhub", "stars": 0, "tags": null, "updated_at": 1776748804778, "version": "0.1.2"}, {"category": "data-analysis", "created_at": 1773061135411, "description": "OpenClaw Skills Weekly — tracks trending ClawHub skills, generates GitHubAwesome-style YouTube video scripts with two-track ranking (Movers + Rockets).", "description_zh": "", "downloads": 276, "homepage": "https://clawhub.ai/ademczuk/skills-weekly", "iconUrl": null, "installs": 20, "name": "OpenClaw Skills Weekly", "ownerName": "ademczuk", "score": 94845.36082474227, "slug": "skills-weekly", "source": "clawhub", "stars": 0, "tags": ["analytics", "productivity"], "updated_at": 1776748802370, "version": "1.1.0"}, {"category": "developer-tools", "created_at": 1772796843866, "description": "Bootstrap a dark-themed FastAPI+HTMX studio app with SSE real-time progress, blind test mode, SQLite ratings, and Langfuse tracing. Based on the image-gen-st...", "description_zh": "", "downloads": 276, "homepage": "https://clawhub.ai/nissan/fastapi-studio-template", "iconUrl": null, "installs": 8, "name": "Fastapi Studio Template", "ownerName": "nissan", "score": 92307.69230769231, "slug": "fastapi-studio-template", "source": "clawhub", "stars": 0, "tags": null, "updated_at": 1776748802294, "version": "1.2.0"}, {"category": "developer-tools", "created_at": 1772798546029, "description": "Interface with Google's Jules Tools CLI to manage AI coding sessions.", "description_zh": "", "downloads": 276, "homepage": "https://clawhub.ai/alexdavidswift/google-jules-cli", "iconUrl": null, "installs": 11, "name": "Google Jules Tools CLI", "ownerName": "alexdavidswift", "score": 92307.69230769231, "slug": "google-jules-cli", "source": "clawhub", "stars": 0, "tags": null, "updated_at": 1776748802278, "version": "1.0.0"}, {"category": "developer-tools", "created_at": 1772795054757, "description": "Twitter/X data via the 6551 API. Supports user profiles, tweet search, user tweets, follower events, deleted tweets, and KOL followers.", "description_zh": "", "downloads": 276, "homepage": "https://clawhub.ai/infra403/opentwitter-2", "iconUrl": null, "installs": 11, "name": "Opentwitter", "ownerName": "infra403", "score": 92307.69230769231, "slug": "opentwitter-2", "source": "clawhub", "stars": 0, "tags": null, "updated_at": 1776748802270, "version": "0.1.0"}, {"category": "developer-tools", "created_at": 1772796576891, "description": "Submit your project to Built at GrowthX — the community builder showcase for GrowthX members. Requires a GrowthX API key.", "description_zh": "", "downloads": 276, "homepage": "https://clawhub.ai/gxt-admin/growthx-bx-submit", "iconUrl": null, "installs": 8, "name": "Built at GrowthX", "ownerName": "gxt-admin", "score": 80466.47230320699, "slug": "growthx-bx-submit", "source": "clawhub", "stars": 0, "tags": ["builder-showcase", "growthx", "project-submission"], "updated_at": 1776748802257, "version": "1.0.6"}, {"category": "ai-intelligence", "created_at": 1772798654056, "description": "Monitor host system health (Disk, RAM, CPU). Returns structured JSON status for predictive maintenance.", "description_zh": "", "downloads": 276, "homepage": "https://clawhub.ai/numbpill3d/system-vigil", "iconUrl": null, "installs": 15, "name": "System Vigil", "ownerName": "numbpill3d", "score": 80466.47230320699, "slug": "system-vigil", "source": "clawhub", "stars": 0, "tags": null, "updated_at": 1776748802225, "version": "1.0.0"}, {"category": "developer-tools", "created_at": 1772800577829, "description": "Build a wide-trigger, precise-match index for local OpenClaw skills (L1-L3), then quickly route by intent/category/keywords.", "description_zh": "", "downloads": 276, "homepage": "https://clawhub.ai/halfmoon82/skill-quick-index", "iconUrl": null, "installs": 8, "name": "Skill Quick Index", "ownerName": "halfmoon82", "score": 80466.47230320699, "slug": "skill-quick-index", "source": "clawhub", "stars": 0, "tags": ["routing", "skills"], "updated_at": 1776748802158, "version": "1.0.1"}, {"category": "content-creation", "created_at": 1773881232243, "description": "Generate synchronized subtitles (SRT/VTT/ASS) from video audio with precise timestamps. Use when users need subtitles, captions, or video transcription with...", "description_zh": "", "downloads": 276, "homepage": "https://clawhub.ai/scikkk/subtitle", "iconUrl": null, "installs": 24, "name": "Subtitle Generator", "ownerName": "scikkk", "score": 62302.483069977425, "slug": "subtitle", "source": "clawhub", "stars": 0, "tags": null, "updated_at": 1776748802072, "version": "1.0.1"}, {"category": "productivity", "created_at": 1772795358203, "description": "Add Font Awesome icons to web projects with CDN, npm, React, and SVG sprite methods.", "description_zh": "", "downloads": 276, "homepage": "https://clawhub.ai/ivangdavila/font-awesome", "iconUrl": null, "installs": 16, "name": "Font Awesome", "ownerName": "ivangdavila", "score": 62302.483069977425, "slug": "font-awesome", "source": "clawhub", "stars": 0, "tags": null, "updated_at": 1776748802061, "version": "1.0.0"}, {"category": "data-analysis", "created_at": 1772805255122, "description": "Production-ready vLLM deployment on AMD ROCm GPUs. Combines environment auto-check, model parameter detection, Docker Compose deployment, health verification...", "description_zh": "", "downloads": 275, "homepage": "https://clawhub.ai/alexhegit/rocm-vllm-deployment", "iconUrl": null, "installs": 14, "name": "ROCm vLLM Deployment", "ownerName": "alexhegit", "score": 13444.302176696543, "slug": "rocm-vllm-deployment", "source": "clawhub", "stars": 2, "tags": ["amd", "deployment", "gpu", "rocm", "vllm"], "updated_at": 1776765850169, "version": "1.0.0"}, {"category": "security-compliance", "created_at": 1772803936224, "description": "Provides a comprehensive AI-assisted development workflow with PLAN/ACT separation, multi-agent collaboration, fault recovery, and security code review best...", "description_zh": "", "downloads": 275, "homepage": "https://clawhub.ai/russellfei/vibe-3k", "iconUrl": null, "installs": 10, "name": "Vibe Coding Best Practices v3.0", "ownerName": "russellfei", "score": 23525.018670649737, "slug": "vibe-3k", "source": "clawhub", "stars": 2, "tags": null, "updated_at": 1776759198384, "version": "1.0.0"}, {"category": "productivity", "created_at": 1772794757061, "description": "Create, schedule, list, edit, and delete drafts on Typefully. Supports single tweets, threads, and multi-platform posts (X, LinkedIn, Threads, Bluesky, Masto...", "description_zh": "", "downloads": 275, "homepage": "https://clawhub.ai/chapati23/typefully-skill", "iconUrl": null, "installs": 6, "name": "Typefully Skill", "ownerName": "chapati23", "score": 100000, "slug": "typefully-skill", "source": "clawhub", "stars": 2, "tags": null, "updated_at": 1776748844731, "version": "1.0.0"}, {"category": "developer-tools", "created_at": 1772794926627, "description": "Delegate PREQSTATION coding tasks to Claude Code, Codex CLI, or Gemini CLI with PTY-safe execution (workdir + background + monitoring). Use when building, re...", "description_zh": "", "downloads": 275, "homepage": "https://clawhub.ai/sonim1/preqstation-openclaw", "iconUrl": null, "installs": 0, "name": "Preqstation", "ownerName": "sonim1", "score": 10137.45704467354, "slug": "preqstation-openclaw", "source": "clawhub", "stars": 1, "tags": null, "updated_at": 1776761840087, "version": "0.1.6"}, {"category": "productivity", "created_at": 1773078338019, "description": "Performs simultaneous searches across Tavily, Brave, DuckDuckGo, and Google, aggregates and deduplicates results, then presents the top relevant links with s...", "description_zh": "", "downloads": 275, "homepage": "https://clawhub.ai/runawaydevil/super-search", "iconUrl": null, "installs": 21, "name": "super-search", "ownerName": "runawaydevil", "score": 22047.832585949178, "slug": "super-search", "source": "clawhub", "stars": 1, "tags": null, "updated_at": 1776759257821, "version": "2.0.0"}, {"category": "ai-intelligence", "created_at": 1772801168142, "description": "Create AI-powered Spotify playlists and discover music via Playlistable MCP. Use when the user wants to generate playlists from a mood/prompt, search songs o...", "description_zh": "", "downloads": 275, "homepage": "https://clawhub.ai/brackyt/playlistable", "iconUrl": null, "installs": 27, "name": "Playlistable", "ownerName": "brackyt", "score": 22097.37827715356, "slug": "playlistable", "source": "clawhub", "stars": 1, "tags": null, "updated_at": 1776759257507, "version": "1.0.0"}, {"category": "content-creation", "created_at": 1772805465970, "description": "Early childhood educator specializing in British EYFS framework and Reggio Emilia pedagogy for ages 45 days to 2 years. Designs child-led activities, tracks...", "description_zh": "", "downloads": 275, "homepage": "https://clawhub.ai/aianonymous1993-source/kindergarten-assistant", "iconUrl": null, "installs": 32, "name": "Kindergarten Assistant", "ownerName": "aianonymous1993-source", "score": 10166.358595194084, "slug": "kindergarten-assistant", "source": "clawhub", "stars": 0, "tags": null, "updated_at": 1776768976816, "version": "1.0.0"}, {"category": "content-creation", "created_at": 1772803169631, "description": "Local Qwen3-TTS speech synthesis on Apple Silicon via MLX. Use for offline narration, audiobooks, video voiceovers, and multilingual TTS.", "description_zh": "", "downloads": 275, "homepage": "https://clawhub.ai/h1bomb/qwen3-tts-mlx", "iconUrl": null, "installs": 29, "name": "Qwen3 Tts Mlx", "ownerName": "h1bomb", "score": 2926.1545009576507, "slug": "qwen3-tts-mlx", "source": "clawhub", "stars": 0, "tags": null, "updated_at": 1776765590590, "version": "2.1.0"}, {"category": "security-compliance", "created_at": 1773076505650, "description": "Build, test, and save HTTP requests from the CLI with custom headers, auth, body, cookies, templates, interactive mode, and request history tracking.", "description_zh": "", "downloads": 275, "homepage": "https://clawhub.ai/derick001/http-request-builder", "iconUrl": null, "installs": 17, "name": "HTTP Request Builder", "ownerName": "derick001", "score": 21434.138737334375, "slug": "http-request-builder", "source": "clawhub", "stars": 0, "tags": null, "updated_at": 1776759798056, "version": "1.0.0"}, {"category": "productivity", "created_at": 1773062010998, "description": "High-performance audio library for Apple Silicon with text-to-speech (TTS) and speech-to-text (STT).", "description_zh": "", "downloads": 275, "homepage": "https://clawhub.ai/darknoah/qwen3-audio", "iconUrl": null, "installs": 12, "name": "Qwen3 Audio", "ownerName": "darknoah", "score": 99277.97833935019, "slug": "qwen3-audio", "source": "clawhub", "stars": 0, "tags": null, "updated_at": 1776759382978, "version": "0.1.1"}, {"category": "security-compliance", "created_at": 1772797074247, "description": "Expert guidance on roofing estimating, materials, insurance claims, OSHA compliance, licensing, crew management, financial benchmarks, and growth strategies.", "description_zh": "", "downloads": 275, "homepage": "https://clawhub.ai/1kalin/afrexai-roofing-contractor", "iconUrl": null, "installs": 7, "name": "Roofing Contractor Operations", "ownerName": "1kalin", "score": 99277.97833935019, "slug": "afrexai-roofing-contractor", "source": "clawhub", "stars": 0, "tags": ["construction", "contractor", "estimating", "insurance-claims", "osha", "roofing"], "updated_at": 1776759382974, "version": "1.0.0"}, {"category": "data-analysis", "created_at": 1773061076918, "description": "Scrape all active Google, Meta, and TikTok ads from competitors, analyze winning creatives and spend signals, then rewrite and produce video ads tailored to...", "description_zh": "", "downloads": 275, "homepage": "https://clawhub.ai/g4dr/google-meta-ads-spy", "iconUrl": null, "installs": 26, "name": "Google & Meta Ads Spy Tool — Steal Winning Ad Creatives From Any Competitor", "ownerName": "g4dr", "score": 1537.6013419066257, "slug": "google-meta-ads-spy", "source": "clawhub", "stars": 0, "tags": ["ad-spy", "apify", "competitor-research", "facebook-ads", "google-ads", "invideo", "media-buying", "paid-ads", "performance-marketing", "tiktok-ads"], "updated_at": 1776759382738, "version": "1.0.0"}, {"category": "security-compliance", "created_at": 1773063348454, "description": "Provides a complete React/Node.js toolkit with landing page, authentication, payments, analytics, and marketing features to launch your startup quickly.", "description_zh": "", "downloads": 275, "homepage": "https://clawhub.ai/sunshine-del-ux/startup-toolkit", "iconUrl": null, "installs": 16, "name": "Startup Toolkit", "ownerName": "sunshine-del-ux", "score": 20801.8154311649, "slug": "startup-toolkit", "source": "clawhub", "stars": 0, "tags": null, "updated_at": 1776759382335, "version": "1.0.0"}, {"category": "ai-intelligence", "created_at": 1773061508231, "description": "Transfer memory files from one OpenClaw agent to another. Use when you need to migrate memory, configuration, or context from one agent to another agent.", "description_zh": "", "downloads": 275, "homepage": "https://clawhub.ai/codeblackhole1024/memory-transfer", "iconUrl": null, "installs": 13, "name": "Memory Transfer", "ownerName": "codeblackhole1024", "score": 20801.8154311649, "slug": "memory-transfer", "source": "clawhub", "stars": 0, "tags": ["context", "memory", "openclaw", "transfer"], "updated_at": 1776759382262, "version": "2.1.1"}, {"category": "content-creation", "created_at": 1773064732399, "description": "Animate characters from images using driving videos with WaveSpeed AI's Wan 2.2 Animate model. Supports animate mode (make image character move like video su...", "description_zh": "", "downloads": 275, "homepage": "https://clawhub.ai/chengzeyi/wavespeed-wan-22-animate", "iconUrl": null, "installs": 26, "name": "WaveSpeedAI Wan 2.2 Animate Character Animation & Swap", "ownerName": "chengzeyi", "score": 49638.98916967509, "slug": "wavespeed-wan-22-animate", "source": "clawhub", "stars": 0, "tags": null, "updated_at": 1776755588693, "version": "1.0.0"}, {"category": "productivity", "created_at": 1773067278242, "description": "Create stunning, animation-rich HTML presentations from scratch or convert PowerPoint files (.ppt/.pptx) to beautiful web slides. Use when the user wants to...", "description_zh": "", "downloads": 275, "homepage": "https://clawhub.ai/leoyeai/myclaw-frontend-slides", "iconUrl": null, "installs": 55, "name": "Frontend Slides", "ownerName": "leoyeai", "score": 94501.71821305841, "slug": "myclaw-frontend-slides", "source": "clawhub", "stars": 0, "tags": null, "updated_at": 1776748804810, "version": "1.0.0"}, {"category": "content-creation", "created_at": 1772798069510, "description": "Read and write flomo memos on macOS. Use when user asks to fetch recent flomo notes, search memo text in local flomo cache, or create/write a new memo to flo...", "description_zh": "", "downloads": 275, "homepage": "https://clawhub.ai/dotheworknow/openclaw-flomo-skill", "iconUrl": null, "installs": 25, "name": "OpenClaw Flomo Skill", "ownerName": "dotheworknow", "score": 94501.71821305841, "slug": "openclaw-flomo-skill", "source": "clawhub", "stars": 0, "tags": ["flomo", "notes", "productivity"], "updated_at": 1776748804807, "version": "1.0.0"}, {"category": "developer-tools", "created_at": 1772799835873, "description": "Build and orchestrate multi-agent AI systems using the Swarms API. Use when creating single agents, multi-agent swarms (sequential, concurrent, hierarchical,...", "description_zh": "", "downloads": 275, "homepage": "https://clawhub.ai/newsoulontheblock/credit-mastery", "iconUrl": null, "installs": 6, "name": "Credit Mastery", "ownerName": "newsoulontheblock", "score": 94501.71821305841, "slug": "credit-mastery", "source": "clawhub", "stars": 0, "tags": null, "updated_at": 1776748804802, "version": "1.0.0"}, {"category": "security-compliance", "created_at": 1772798075040, "description": "Manage models, datasets, Spaces, and repositories using Hugging Face CLI (hf). Supports authentication, upload, download, Space creation, and more.", "description_zh": "", "downloads": 275, "homepage": "https://clawhub.ai/tsukisama9292/openclaw-huggingface", "iconUrl": null, "installs": 11, "name": "Openclaw Huggingface", "ownerName": "tsukisama9292", "score": 94501.71821305841, "slug": "openclaw-huggingface", "source": "clawhub", "stars": 0, "tags": null, "updated_at": 1776748804796, "version": "1.0.0"}, {"category": "content-creation", "created_at": 1773065347548, "description": "Generate or edit images via Gemini 3 Pro Image (Nano Banana Pro).", "description_zh": "", "downloads": 275, "homepage": "https://clawhub.ai/steamb23/nano-banana-pro-enhanced", "iconUrl": null, "installs": 48, "name": "Nano Banana Pro Enhanced", "ownerName": "steamb23", "score": 94501.71821305841, "slug": "nano-banana-pro-enhanced", "source": "clawhub", "stars": 0, "tags": null, "updated_at": 1776748804794, "version": "1.0.1"}, {"category": "content-creation", "created_at": 1772803999398, "description": "Fast local image search using macOS Spotlight or fd. Search images by name, date, location, or metadata. Use when users need to find images on their local ma...", "description_zh": "", "downloads": 275, "homepage": "https://clawhub.ai/zhaomenghuan/local-image-search", "iconUrl": null, "installs": 21, "name": "Local Image Search", "ownerName": "zhaomenghuan", "score": 94501.71821305841, "slug": "local-image-search", "source": "clawhub", "stars": 0, "tags": null, "updated_at": 1776748804788, "version": "1.0.0"}, {"category": "productivity", "created_at": 1773080597516, "description": "Loads and manages company context for all C-suite advisor skills. Reads ~/.claude/company-context.md, detects stale context (>90 days), enriches context duri...", "description_zh": "", "downloads": 275, "homepage": "https://clawhub.ai/alirezarezvani/context-engine", "iconUrl": null, "installs": 10, "name": "Context Engine", "ownerName": "alirezarezvani", "score": 94501.71821305841, "slug": "context-engine", "source": "clawhub", "stars": 0, "tags": null, "updated_at": 1776748804784, "version": "2.1.1"}, {"category": "content-creation", "created_at": 1772794739704, "description": "Generate images using AI providers (OpenAI gpt-image-1, Google Gemini, fal.ai). Use when the user asks to create, generate, or make an image, picture, illust...", "description_zh": "", "downloads": 275, "homepage": "https://clawhub.ai/lumenclaw-cloud/filtrix-image-gen-v2", "iconUrl": null, "installs": 22, "name": "Filtrix Image Generation", "ownerName": "lumenclaw-cloud", "score": 94501.71821305841, "slug": "filtrix-image-gen-v2", "source": "clawhub", "stars": 0, "tags": null, "updated_at": 1776748804783, "version": "1.0.0"}, {"category": "data-analysis", "created_at": 1772803356613, "description": "Queries Apple Health data stored in a local SQLite database. Use this skill to read heart rate, steps, SpO2, VO2 Max, sleep, workouts, resting heart rate, HR...", "description_zh": "", "downloads": 275, "homepage": "https://clawhub.ai/bro3886/healthsync", "iconUrl": null, "installs": 15, "name": "healthsync", "ownerName": "bro3886", "score": 94501.71821305841, "slug": "healthsync", "source": "clawhub", "stars": 0, "tags": null, "updated_at": 1776748804777, "version": "1.0.0"}, {"category": "developer-tools", "created_at": 1772797522292, "description": "Search Jerusalem specialty coffee shops by name, amenities, ratings, and opening hours. Use when user asks about \"coffee in Jerusalem\", \"Jerusalem cafe\", \"בי...", "description_zh": "", "downloads": 275, "homepage": "https://clawhub.ai/alexpolonsky/jlm-coffee", "iconUrl": null, "installs": 12, "name": "Jlm Coffee", "ownerName": "alexpolonsky", "score": 91973.2441471572, "slug": "jlm-coffee", "source": "clawhub", "stars": 0, "tags": null, "updated_at": 1776748802338, "version": "2.1.0"}, {"category": "content-creation", "created_at": 1772796254363, "description": "Read and write Obsidian notes stored in EVC Team Relay collaborative vault. Use when agent needs to: read note content from a shared Obsidian vault, create o...", "description_zh": "", "downloads": 275, "homepage": "https://clawhub.ai/venturecrew/evc-team-relay", "iconUrl": null, "installs": 22, "name": "EVC Team Relay", "ownerName": "venturecrew", "score": 80174.92711370262, "slug": "evc-team-relay", "source": "clawhub", "stars": 0, "tags": null, "updated_at": 1776748802204, "version": "1.1.2"}, {"category": "security-compliance", "created_at": 1773222426800, "description": "Use when asked to change, configure, or update any OpenClaw setting — model selection, channel setup, auth, tools, gateway, session, cron, hooks, env, skills...", "description_zh": "", "downloads": 274, "homepage": "https://clawhub.ai/onenameneo/configure-openclaw", "iconUrl": null, "installs": 9, "name": "configure OpenClaw", "ownerName": "onenameneo", "score": 100000, "slug": "configure-openclaw", "source": "clawhub", "stars": 3, "tags": null, "updated_at": 1776748845043, "version": "1.0.0"}, {"category": "developer-tools", "created_at": 1773082417567, "description": "Interact with the Elfa API — a crypto social intelligence platform that provides real-time sentiment, trending tokens, narrative tracking, and AI-powered mar...", "description_zh": "", "downloads": 274, "homepage": "https://clawhub.ai/nero-sensei/claude-ai-trading-skill", "iconUrl": null, "installs": 6, "name": "Claude AI Trading Skill", "ownerName": "nero-sensei", "score": 100000, "slug": "claude-ai-trading-skill", "source": "clawhub", "stars": 2, "tags": null, "updated_at": 1776748844679, "version": "1.0.2"}]}