{"page": 260, "total_pages": 522, "total": 26073, "skills": [{"category": "security-compliance", "created_at": 1772794350102, "description": "Create, audit and publish production-ready OpenClaw skills with one command. 10 modes included.", "description_zh": "", "downloads": 274, "homepage": "https://clawhub.ai/mkpareek0315/clawsmith", "iconUrl": null, "installs": 7, "name": "Clawsmith", "ownerName": "mkpareek0315", "score": 100000, "slug": "clawsmith", "source": "clawhub", "stars": 2, "tags": null, "updated_at": 1776748844673, "version": "1.1.0"}, {"category": "ai-intelligence", "created_at": 1772803793052, "description": "Your agent has compute, memory, and context. What it lacks is a jump gate to the physical world. Perkoon is that gate. Send files from agent to human — they...", "description_zh": "", "downloads": 274, "homepage": "https://clawhub.ai/alex-vy/perkoon-transfer", "iconUrl": null, "installs": 18, "name": "Perkoon — Unlimited File Transfer", "ownerName": "alex-vy", "score": 100000, "slug": "perkoon-transfer", "source": "clawhub", "stars": 1, "tags": null, "updated_at": 1776749271118, "version": "1.0.2"}, {"category": "productivity", "created_at": 1772802578636, "description": "Use when the user wants to generate a Chinese chess game from scratch, or wants to improve/enhance an existing Chinese chess game for better experience", "description_zh": "", "downloads": 274, "homepage": "https://clawhub.ai/tianzhenjiu/chinese-chess", "iconUrl": null, "installs": 12, "name": "Chinese Chess", "ownerName": "tianzhenjiu", "score": 5470.153723298064, "slug": "chinese-chess", "source": "clawhub", "stars": 0, "tags": null, "updated_at": 1776767649992, "version": "1.0.0"}, {"category": "data-analysis", "created_at": 1772804174695, "description": "Professional resume analysis and optimization for UK job market. Use when user needs to (1) Analyze resume quality against a job description, (2) Get ATS com...", "description_zh": "", "downloads": 274, "homepage": "https://clawhub.ai/phonedog/resume-optimizer-uk", "iconUrl": null, "installs": 21, "name": "UK Resume Analyzer & Optimizer", "ownerName": "phonedog", "score": 3038.3677090263914, "slug": "resume-optimizer-uk", "source": "clawhub", "stars": 0, "tags": null, "updated_at": 1776764350560, "version": "1.0.0"}, {"category": "data-analysis", "created_at": 1773284466332, "description": "Real-time pixel art ops dashboard for OpenClaw deployments. Visualizes agent activity as character sprites in a shared office with live activity bubbles, har...", "description_zh": "", "downloads": 274, "homepage": "https://clawhub.ai/jaffer1979/openclaw-pixel-agents-dashboard", "iconUrl": null, "installs": 51, "name": "Openclaw Pixel Agents Dashboard", "ownerName": "jaffer1979", "score": 18715.84699453552, "slug": "openclaw-pixel-agents-dashboard", "source": "clawhub", "stars": 0, "tags": null, "updated_at": 1776759383125, "version": "1.0.0"}, {"category": "security-compliance", "created_at": 1773057753139, "description": "Vet OpenClaw skills for security threats before installing them. 6-pass scanner detects RCE, credential theft, prompt injection, typosquatting, and social en...", "description_zh": "", "downloads": 274, "homepage": "https://clawhub.ai/mohibshaikh/clawvet", "iconUrl": null, "installs": 12, "name": "Clawguard", "ownerName": "mohibshaikh", "score": 98916.96750902527, "slug": "clawvet", "source": "clawhub", "stars": 0, "tags": null, "updated_at": 1776759383013, "version": "0.2.3"}, {"category": "developer-tools", "created_at": 1772798958281, "description": "Kanban Workflow is a TypeScript skill for a stage-based agentic co-worker that integrates PM platforms via CLI-first adapters (CLIs or small wrapper scripts)...", "description_zh": "", "downloads": 274, "homepage": "https://clawhub.ai/simonvanlaak/kanban-workflow-export", "iconUrl": null, "installs": 11, "name": "Kanban Workflow Export", "ownerName": "simonvanlaak", "score": 98916.96750902527, "slug": "kanban-workflow-export", "source": "clawhub", "stars": 0, "tags": null, "updated_at": 1776759383004, "version": "0.1.4"}, {"category": "productivity", "created_at": 1773073453609, "description": "Onboards a new player into Structs. Handles key creation/recovery, player creation (via reactor-infuse or guild signup), planet exploration, and initial infr...", "description_zh": "", "downloads": 274, "homepage": "https://clawhub.ai/abstrct/structs-onboarding", "iconUrl": null, "installs": 5, "name": "Structs Onboarding", "ownerName": "abstrct", "score": 1532.0100642996924, "slug": "structs-onboarding", "source": "clawhub", "stars": 0, "tags": null, "updated_at": 1776759382722, "version": "1.2.1"}, {"category": "developer-tools", "created_at": 1772795521009, "description": "Trigger workflows, list runs, and get status for Gitea/Forgejo Actions workflows using owner, repo, and workflow details via API.", "description_zh": "", "downloads": 274, "homepage": "https://clawhub.ai/qizhou-guo/gitea-actions", "iconUrl": null, "installs": 5, "name": "Gitea Actions", "ownerName": "qizhou-guo", "score": 20570.57057057057, "slug": "gitea-actions", "source": "clawhub", "stars": 0, "tags": null, "updated_at": 1776759382559, "version": "0.1.0"}, {"category": "security-compliance", "created_at": 1773068275069, "description": "Automatically audits and compresses memory and context files to reduce token usage and save weekly API costs without data loss.", "description_zh": "", "downloads": 274, "homepage": "https://clawhub.ai/shepherd217/memory-cleanup-assistant", "iconUrl": null, "installs": 9, "name": "Memory Cleanup Assistant", "ownerName": "shepherd217", "score": 20710.50642479214, "slug": "memory-cleanup-assistant", "source": "clawhub", "stars": 0, "tags": null, "updated_at": 1776759382506, "version": "1.0.1"}, {"category": "developer-tools", "created_at": 1772797207802, "description": "Git hook to detect secrets before commit.", "description_zh": "", "downloads": 274, "homepage": "https://clawhub.ai/derick001/secret-detection", "iconUrl": null, "installs": 7, "name": "Secret Detection", "ownerName": "derick001", "score": 20726.172465960666, "slug": "secret-detection", "source": "clawhub", "stars": 0, "tags": null, "updated_at": 1776759382318, "version": "1.0.0"}, {"category": "productivity", "created_at": 1773082974136, "description": "Founder onboarding interview that captures company context across 7 dimensions. Invoke with /cs:setup for initial interview or /cs:update for quarterly refre...", "description_zh": "", "downloads": 274, "homepage": "https://clawhub.ai/alirezarezvani/cs-onboard", "iconUrl": null, "installs": 5, "name": "Cs Onboard", "ownerName": "alirezarezvani", "score": 47652.17391304348, "slug": "cs-onboard", "source": "clawhub", "stars": 0, "tags": null, "updated_at": 1776751784326, "version": "2.1.1"}, {"category": "security-compliance", "created_at": 1772800912088, "description": "Investigate a username across 1000+ social media platforms and websites using social-analyzer. Use this skill whenever the user wants to look up, investigate...", "description_zh": "", "downloads": 274, "homepage": "https://clawhub.ai/guleguleguru/osint-social", "iconUrl": null, "installs": 9, "name": "OSINT Social Analyzer", "ownerName": "guleguleguru", "score": 82035.92814371258, "slug": "osint-social", "source": "clawhub", "stars": 0, "tags": ["osint", "security", "social-media", "username"], "updated_at": 1776748845105, "version": "1.0.0"}, {"category": "data-analysis", "created_at": 1773060241520, "description": "SEC EDGAR filing analysis for M&A due diligence — extract financials, detect risks, and track corporate events from 10-K, 10-Q, and 8-K filings", "description_zh": "", "downloads": 274, "homepage": "https://clawhub.ai/aniebyl/olo-sec-scanner", "iconUrl": null, "installs": 16, "name": "SEC Filing Scanner for M&A", "ownerName": "aniebyl", "score": 82035.92814371258, "slug": "olo-sec-scanner", "source": "clawhub", "stars": 0, "tags": null, "updated_at": 1776748845046, "version": "1.0.0"}, {"category": "security-compliance", "created_at": 1772801380893, "description": "Agent Identity & Permission Guardian - Trust middleware for credential management, permission scopes, human approval workflows, and audit trails. Use when AI...", "description_zh": "", "downloads": 274, "homepage": "https://clawhub.ai/sendwealth/nano-agentguard", "iconUrl": null, "installs": 11, "name": "AgentGuard by Nano", "ownerName": "sendwealth", "score": 93515.35836177475, "slug": "nano-agentguard", "source": "clawhub", "stars": 0, "tags": null, "updated_at": 1776748845024, "version": "0.4.0"}, {"category": "ai-intelligence", "created_at": 1772798000695, "description": "Connects an AI agent to the DeAI decentralized asset auction marketplace on Base (https://deai.au). Provides shell scripts for: registering as an agent, brow...", "description_zh": "", "downloads": 274, "homepage": "https://clawhub.ai/fanglabgames/deai-marketplace", "iconUrl": null, "installs": 28, "name": "DeAI.au", "ownerName": "fanglabgames", "score": 94482.75862068965, "slug": "deai-marketplace", "source": "clawhub", "stars": 0, "tags": null, "updated_at": 1776748844874, "version": "1.0.2"}, {"category": "productivity", "created_at": 1773063061497, "description": "Process multiple documents in bulk with parallel execution", "description_zh": "", "downloads": 274, "homepage": "https://clawhub.ai/leowing/batch-processor-1-0-0", "iconUrl": null, "installs": 14, "name": "Batch Processor 1.0.0", "ownerName": "leowing", "score": 86984.12698412698, "slug": "batch-processor-1-0-0", "source": "clawhub", "stars": 0, "tags": null, "updated_at": 1776748844806, "version": "1.0.0"}, {"category": "content-creation", "created_at": 1772799750572, "description": "Write session summaries to daily memory files and search session history so OpenClaw can recall and cite past conversations.", "description_zh": "", "downloads": 274, "homepage": "https://clawhub.ai/breezezephyr/session-memory-workspace", "iconUrl": null, "installs": 17, "name": "Session Memory (Workspace)", "ownerName": "breezezephyr", "score": 86984.12698412698, "slug": "session-memory-workspace", "source": "clawhub", "stars": 0, "tags": null, "updated_at": 1776748844793, "version": "1.0.0"}, {"category": "data-analysis", "created_at": 1773073701192, "description": "Cold email outreach pipeline with multi-step sequences, reply tracking, bounce handling, and campaign analytics. 4 production-ready n8n workflows with Google...", "description_zh": "", "downloads": 274, "homepage": "https://clawhub.ai/mhmalvi/email-outreach-automation", "iconUrl": null, "installs": 13, "name": "Email Outreach Automation", "ownerName": "mhmalvi", "score": 86984.12698412698, "slug": "email-outreach-automation", "source": "clawhub", "stars": 0, "tags": null, "updated_at": 1776748844728, "version": "1.0.1"}, {"category": "developer-tools", "created_at": 1773218800348, "description": "Patterns and techniques for evaluating and improving AI agent outputs. Use this skill when: - Implementing self-critique and reflection loops - Building eval...", "description_zh": "", "downloads": 274, "homepage": "https://clawhub.ai/boleyn/agentic-eval", "iconUrl": null, "installs": 10, "name": "agentic-eval", "ownerName": "boleyn", "score": 87261.14649681529, "slug": "agentic-eval", "source": "clawhub", "stars": 0, "tags": null, "updated_at": 1776748844695, "version": "1.0.0"}, {"category": "developer-tools", "created_at": 1772799871519, "description": "Transform standard ggplot2 figures into publication-quality visualizations matching Nature, Science, and other top journal styles with proper themes, colors,...", "description_zh": "", "downloads": 274, "homepage": "https://clawhub.ai/jackkuo666/generating-publication-ready-figures-in-r", "iconUrl": null, "installs": 27, "name": "Generating Publication Ready Figures In R", "ownerName": "jackkuo666", "score": 93835.61643835616, "slug": "generating-publication-ready-figures-in-r", "source": "clawhub", "stars": 0, "tags": null, "updated_at": 1776748844601, "version": "0.1.0"}, {"category": "content-creation", "created_at": 1772805204789, "description": "Explain anything — turn ideas into podcasts, explainer videos, or voice narration. Use when the user wants to \"make a podcast\", \"create an explainer video\",...", "description_zh": "", "downloads": 274, "homepage": "https://clawhub.ai/0xfango/listenhub-official-skills", "iconUrl": null, "installs": 9, "name": "Listenhub", "ownerName": "0xfango", "score": 93835.61643835616, "slug": "listenhub-official-skills", "source": "clawhub", "stars": 0, "tags": null, "updated_at": 1776748844541, "version": "0.1.1"}, {"category": "developer-tools", "created_at": 1772794968566, "description": "Manage Apple Notes via the `memo` CLI on macOS (create, view, edit, delete, search, move, and export notes). Use when a user asks OpenClaw to add a note, lis...", "description_zh": "", "downloads": 274, "homepage": "https://clawhub.ai/mohdalhashemi98-hue/mh-apple-notes", "iconUrl": null, "installs": 15, "name": "MH apple-notes", "ownerName": "mohdalhashemi98-hue", "score": 93835.61643835616, "slug": "mh-apple-notes", "source": "clawhub", "stars": 0, "tags": null, "updated_at": 1776748844532, "version": "1.0.0"}, {"category": "productivity", "created_at": 1772804155106, "description": "Draft and fill NDA templates — mutual NDA, one-way NDA, confidentiality agreement. Produces signable DOCX files from Common Paper and Bonterms standard forms.", "description_zh": "", "downloads": 274, "homepage": "https://clawhub.ai/stevenobiajulu/nda", "iconUrl": null, "installs": 21, "name": "NDA", "ownerName": "stevenobiajulu", "score": 93835.61643835616, "slug": "nda", "source": "clawhub", "stars": 0, "tags": null, "updated_at": 1776748844502, "version": "0.2.0"}, {"category": "productivity", "created_at": 1772800085262, "description": "Use ThreadPilot to manage Reddit account workflows (login, whoami, comments, replies, posts, subreddits, subscribe, read, search, rules, like, and post) with...", "description_zh": "", "downloads": 274, "homepage": "https://clawhub.ai/vood/reddit-skill", "iconUrl": null, "installs": 9, "name": "Reddit Skill", "ownerName": "vood", "score": 96140.35087719298, "slug": "reddit-skill", "source": "clawhub", "stars": 0, "tags": null, "updated_at": 1776748844437, "version": "0.1.0"}, {"category": "content-creation", "created_at": 1773427428449, "description": "Extract and save writing style patterns from technical documents to build personalized or team writing guides with structured, reusable style records.", "description_zh": "", "downloads": 273, "homepage": "https://clawhub.ai/oldtimerzhy/writing-style-learner", "iconUrl": null, "installs": 19, "name": "Style Learner", "ownerName": "oldtimerzhy", "score": 23496.391339214115, "slug": "writing-style-learner", "source": "clawhub", "stars": 1, "tags": null, "updated_at": 1776760320398, "version": "1.0.1"}, {"category": "developer-tools", "created_at": 1773057783471, "description": "Safe OpenClaw gateway restart workflow with doctor precheck, checkpoint, restart-health-resume chain, task continuation, reconcile, and user-visible notifica...", "description_zh": "", "downloads": 273, "homepage": "https://clawhub.ai/who-ohw/restart-safe-workflow", "iconUrl": null, "installs": 7, "name": "Restart Safe Workflow", "ownerName": "who-ohw", "score": 51223.77622377622, "slug": "restart-safe-workflow", "source": "clawhub", "stars": 1, "tags": null, "updated_at": 1776755288526, "version": "1.0.3"}, {"category": "data-analysis", "created_at": 1772801827400, "description": "List and run Maxun web scraping robots. Use when asked to list robots, run a robot, scrape a website, or get robot results.", "description_zh": "", "downloads": 273, "homepage": "https://clawhub.ai/rohitr311/maxun", "iconUrl": null, "installs": 11, "name": "Maxun", "ownerName": "rohitr311", "score": 100000, "slug": "maxun", "source": "clawhub", "stars": 1, "tags": null, "updated_at": 1776748844996, "version": "1.0.0"}, {"category": "ai-intelligence", "created_at": 1773076992900, "description": "Evade bot detection systems including Cloudflare, DataDome, PerimeterX, Akamai, and hCaptcha. Residential proxy rotation, TLS fingerprint spoofing, behaviora...", "description_zh": "", "downloads": 273, "homepage": "https://clawhub.ai/luis2404123/anti-bot-evasion", "iconUrl": null, "installs": 20, "name": "Anti Bot Evasion", "ownerName": "luis2404123", "score": 2705.649157581764, "slug": "anti-bot-evasion", "source": "clawhub", "stars": 0, "tags": null, "updated_at": 1776764350177, "version": "1.0.0"}, {"category": "productivity", "created_at": 1772803875507, "description": "Automates Kmong sign-up, identity verification, profile setup, and service registration using OpenClaw browser with SMS and captcha handling.", "description_zh": "", "downloads": 273, "homepage": "https://clawhub.ai/mupengi-bot/kmong", "iconUrl": null, "installs": 11, "name": "kmong", "ownerName": "mupengi-bot", "score": 20650.529500756427, "slug": "kmong", "source": "clawhub", "stars": 0, "tags": null, "updated_at": 1776759382362, "version": "1.0.0"}, {"category": "productivity", "created_at": 1773061405518, "description": "Manage complex tasks with 5+ steps or duration >20 min, tracking progress via task files and sending periodic status reports until completion or pause.", "description_zh": "", "downloads": 273, "homepage": "https://clawhub.ai/mashirops/task-supervisor", "iconUrl": null, "installs": 6, "name": "Task Supervisor", "ownerName": "mashirops", "score": 20650.529500756427, "slug": "task-supervisor", "source": "clawhub", "stars": 0, "tags": null, "updated_at": 1776759382343, "version": "1.0.0"}, {"category": "data-analysis", "created_at": 1773061440309, "description": "Continuously monitor all brand mentions across major platforms, score sentiment, detect crises early, and generate AI-crafted response drafts to protect your...", "description_zh": "", "downloads": 273, "homepage": "https://clawhub.ai/g4dr/brand-reputation-defender", "iconUrl": null, "installs": 13, "name": "Brand Reputation Defender — Monitor, Respond & Protect Your Image 24/7", "ownerName": "g4dr", "score": 20650.529500756427, "slug": "brand-reputation-defender", "source": "clawhub", "stars": 0, "tags": ["agency", "apify", "brand-monitoring", "crisis-management", "pr", "reputation-management", "reviews", "sentiment-analysis", "social-listening", "trustpilot"], "updated_at": 1776759382306, "version": "1.0.0"}, {"category": "ai-intelligence", "created_at": 1773060903942, "description": "Pharmacology agent for ADME/PK profiling of drug candidates from SMILES. Computes drug-likeness (Lipinski Ro5, Veber rules), QED, SA Score, ADME predictions...", "description_zh": "", "downloads": 273, "homepage": "https://clawhub.ai/cheminem/pharmaclaw-pharmacology-agent", "iconUrl": null, "installs": 29, "name": "PharmaClaw Pharmacology Agent", "ownerName": "cheminem", "score": 49100.71942446043, "slug": "pharmaclaw-pharmacology-agent", "source": "clawhub", "stars": 0, "tags": null, "updated_at": 1776751184117, "version": "2.0.0"}, {"category": "communication-collaboration", "created_at": 1772798781320, "description": "Turn any city into a lead list in 60 seconds. Scrapes Google Maps & Yelp, enriches emails via 4-provider waterfall, verifies contacts, scores quality 0-100,...", "description_zh": "", "downloads": 273, "homepage": "https://clawhub.ai/lkocaj/leadflow", "iconUrl": null, "installs": 23, "name": "LeadFlow", "ownerName": "lkocaj", "score": 95789.47368421052, "slug": "leadflow", "source": "clawhub", "stars": 0, "tags": null, "updated_at": 1776748845164, "version": "1.0.3"}, {"category": "communication-collaboration", "created_at": 1772798781320, "description": "Turn any city into a lead list in 60 seconds. Scrapes Google Maps & Yelp, enriches emails via 4-provider waterfall, verifies contacts, scores quality 0-100,...", "description_zh": "", "downloads": 273, "homepage": "https://clawhub.ai/lkocaj/leadflow", "iconUrl": null, "installs": 23, "name": "LeadFlow", "ownerName": "lkocaj", "score": 81736.52694610778, "slug": "leadflow", "source": "clawhub", "stars": 0, "tags": null, "updated_at": 1776748845164, "version": "1.0.3"}, {"category": "developer-tools", "created_at": 1773077346816, "description": "Build, inspect, and extend WP-CLI command code using the documented stable internal API. Use when the task involves custom WP-CLI commands, package bootstrap...", "description_zh": "", "downloads": 273, "homepage": "https://clawhub.ai/matthewxmurphy/wordpress-wp-cli-internal-api", "iconUrl": null, "installs": 49, "name": "WordPress WP-CLI Internal API", "ownerName": "matthewxmurphy", "score": 93174.0614334471, "slug": "wordpress-wp-cli-internal-api", "source": "clawhub", "stars": 0, "tags": null, "updated_at": 1776748845013, "version": "0.5.0"}, {"category": "developer-tools", "created_at": 1772805602722, "description": "Query Indian NPS (National Pension System) fund NAV data, scheme info, returns, and history via the free npsnav.in REST API.", "description_zh": "", "downloads": 273, "homepage": "https://clawhub.ai/kanaksinghal/npsnav", "iconUrl": null, "installs": 45, "name": "Npsnav", "ownerName": "kanaksinghal", "score": 93174.0614334471, "slug": "npsnav", "source": "clawhub", "stars": 0, "tags": null, "updated_at": 1776748845006, "version": "0.1.0"}, {"category": "productivity", "created_at": 1773074220999, "description": "Send and receive voice messages on Feishu (Lark) using ElevenLabs TTS and STT. Activate when user asks to send a voice message on Feishu, or when receiving a...", "description_zh": "", "downloads": 273, "homepage": "https://clawhub.ai/dongdongbear/feishu-voice-elevenlabs", "iconUrl": null, "installs": 18, "name": "Feishu Voice (ElevenLabs)", "ownerName": "dongdongbear", "score": 93174.0614334471, "slug": "feishu-voice-elevenlabs", "source": "clawhub", "stars": 0, "tags": null, "updated_at": 1776748845002, "version": "1.1.0"}, {"category": "productivity", "created_at": 1772802488462, "description": "World Model - Environment understanding, causal reasoning, and prediction for AGI", "description_zh": "", "downloads": 273, "homepage": "https://clawhub.ai/tobisamaa/world-model", "iconUrl": null, "installs": 18, "name": "World Model", "ownerName": "tobisamaa", "score": 94137.93103448275, "slug": "world-model", "source": "clawhub", "stars": 0, "tags": null, "updated_at": 1776748844847, "version": "2.0.0"}, {"category": "productivity", "created_at": 1773855949607, "description": "Save, organize, and search web bookmarks with tags and categories. Use when collecting research links, organizing lists, or reviewing resources.", "description_zh": "", "downloads": 273, "homepage": "https://clawhub.ai/ckchzh/bookmark-keeper", "iconUrl": null, "installs": 6, "name": "Bookmark Keeper", "ownerName": "ckchzh", "score": 86666.66666666667, "slug": "bookmark-keeper", "source": "clawhub", "stars": 0, "tags": null, "updated_at": 1776748844807, "version": "2.0.1"}, {"category": "data-analysis", "created_at": 1772796951577, "description": "Lint cron entries for schedule validity, bad model names, and missing NO_REPLY discipline markers.", "description_zh": "", "downloads": 273, "homepage": "https://clawhub.ai/highlander89/billy-cron-guardrails-pack", "iconUrl": null, "installs": 16, "name": "Billy — Cron Guardrails Pack", "ownerName": "highlander89", "score": 86666.66666666667, "slug": "billy-cron-guardrails-pack", "source": "clawhub", "stars": 0, "tags": null, "updated_at": 1776748844784, "version": "0.1.1"}, {"category": "developer-tools", "created_at": 1773283834042, "description": "DEPRECATED — This skill has moved. Install the latest version from @superior-ai/superiortrade instead. Visit https://clawhub.ai/superior-ai/superiortrade", "description_zh": "", "downloads": 273, "homepage": "https://clawhub.ai/kan2k/superior-trade", "iconUrl": null, "installs": 6, "name": "Superior Trade (Deprecated)", "ownerName": "kan2k", "score": 86942.67515923567, "slug": "superior-trade", "source": "clawhub", "stars": 0, "tags": ["api", "backtest", "deployment", "hyperliquid", "trading"], "updated_at": 1776748844636, "version": "1.5.4"}, {"category": "productivity", "created_at": 1773078543484, "description": "Monitor portfolio risk, R-multiples, and position limits. Creates hedging strategies, calculates expectancy, and implements stop-losses. Use PROACTIVELY for...", "description_zh": "", "downloads": 273, "homepage": "https://clawhub.ai/zhengxinjipai/risk-manager-skill", "iconUrl": null, "installs": 13, "name": "Risk Manager", "ownerName": "zhengxinjipai", "score": 86942.67515923567, "slug": "risk-manager-skill", "source": "clawhub", "stars": 0, "tags": null, "updated_at": 1776748844613, "version": "1.0.0"}, {"category": "ai-intelligence", "created_at": 1772803990060, "description": "Forge 🔨 — Repair-Inspect loop orchestrator. Automated code repair with independent inspection, dependency-aware parallel execution, protected file guardrail...", "description_zh": "", "downloads": 273, "homepage": "https://clawhub.ai/melody1015/forge-loop", "iconUrl": null, "installs": 15, "name": "Forge 🔨 Repair-Inspect Loop", "ownerName": "melody1015", "score": 95789.47368421052, "slug": "forge-loop", "source": "clawhub", "stars": 0, "tags": null, "updated_at": 1776748844477, "version": "1.0.0"}, {"category": "content-creation", "created_at": 1773073099393, "description": "AI-powered YouTube video ideas generator. Generate viral video concepts, titles, and hooks.", "description_zh": "", "downloads": 273, "homepage": "https://clawhub.ai/icepopma/youtube-video-ideas", "iconUrl": null, "installs": 20, "name": "Youtube Video Ideas", "ownerName": "icepopma", "score": 95789.47368421052, "slug": "youtube-video-ideas", "source": "clawhub", "stars": 0, "tags": null, "updated_at": 1776748844450, "version": "1.1.2"}, {"category": "developer-tools", "created_at": 1772800968986, "description": "Complete online shopping purchases on any online store using the Credpay Checkout API with x402 payments. Trigger when a user wants to buy, order, or checkou...", "description_zh": "", "downloads": 273, "homepage": "https://clawhub.ai/jelilat/shopify-checkout", "iconUrl": null, "installs": 21, "name": "Shopify Checkout API", "ownerName": "jelilat", "score": 95789.47368421052, "slug": "shopify-checkout", "source": "clawhub", "stars": 0, "tags": null, "updated_at": 1776748844436, "version": "1.0.0"}, {"category": "content-creation", "created_at": 1773074086508, "description": "Run the video-skill pipeline to convert narrated videos into structured step data and enriched timeline-ready outputs. Use when a user asks to process a vide...", "description_zh": "", "downloads": 272, "homepage": "https://clawhub.ai/michaelgold/video-skill", "iconUrl": null, "installs": 18, "name": "Video Skill", "ownerName": "michaelgold", "score": 21872.659176029963, "slug": "video-skill", "source": "clawhub", "stars": 1, "tags": null, "updated_at": 1776759257509, "version": "0.1.2"}, {"category": "data-analysis", "created_at": 1773430175086, "description": "Detect if AI responses contain hallucinations by analyzing tool usage and response quality. Gives credit for correctly identifying invalid premises even with...", "description_zh": "", "downloads": 272, "homepage": "https://clawhub.ai/jdchi/is-bullshit", "iconUrl": null, "installs": 4, "name": "is-bullshit", "ownerName": "jdchi", "score": 99658.70307167235, "slug": "is-bullshit", "source": "clawhub", "stars": 1, "tags": null, "updated_at": 1776748845000, "version": "1.7.0"}, {"category": "developer-tools", "created_at": 1773063432249, "description": "Web scraping and data extraction using the Python Scrapling library. Use to scrape static HTML pages, JavaScript-rendered pages (Playwright), and anti-bot or...", "description_zh": "", "downloads": 272, "homepage": "https://clawhub.ai/piyushzinc/scrapling-extract", "iconUrl": null, "installs": 22, "name": "Scrapling", "ownerName": "piyushzinc", "score": 100000, "slug": "scrapling-extract", "source": "clawhub", "stars": 1, "tags": ["anti-bot", "automation", "css-selector", "extraction", "html", "playwright", "scraping", "stealth", "web-scraping", "xpath"], "updated_at": 1776748844557, "version": "1.0.3"}, {"category": "", "created_at": 1774949953468, "description": "McKinsey consulting-style multi-page HTML presentation generator. Creates data-rich, visually compelling slide decks with rigorous research, SVG charts, and...", "description_zh": "", "downloads": 272, "homepage": "https://clawhub.ai/yinin2005/mckinsey-presentation-generator", "iconUrl": null, "installs": 72, "name": "McKinsey Presentation Generator", "ownerName": "yinin2005", "score": 11898.51268591426, "slug": "mckinsey-presentation-generator", "source": "clawhub", "stars": 0, "tags": null, "updated_at": 1776767050262, "version": "1.0.0"}]}