{"page": 261, "total_pages": 522, "total": 26073, "skills": [{"category": "ai-intelligence", "created_at": 1773068280531, "description": "Automates training of machine learning models like Random Forest and XGBoost with hyperparameter tuning and export options from provided datasets.", "description_zh": "", "downloads": 272, "homepage": "https://clawhub.ai/mosonchan2023/ml-model-trainer", "iconUrl": null, "installs": 28, "name": "Ml Model Trainer", "ownerName": "mosonchan2023", "score": 4599.256002705444, "slug": "ml-model-trainer", "source": "clawhub", "stars": 0, "tags": null, "updated_at": 1776763150314, "version": "1.0.0"}, {"category": "developer-tools", "created_at": 1772797299986, "description": "Generate customized client onboarding checklists tailored to your business type, service, client size, and timeline for smooth, consistent client experiences.", "description_zh": "", "downloads": 272, "homepage": "https://clawhub.ai/1kalin/client-onboarding", "iconUrl": null, "installs": 5, "name": "Client Onboarding", "ownerName": "1kalin", "score": 98194.94584837544, "slug": "client-onboarding", "source": "clawhub", "stars": 0, "tags": null, "updated_at": 1776759382975, "version": "1.0.0"}, {"category": "content-creation", "created_at": 1773064792784, "description": "Automatically build and deploy a custom AI chatbot in 15 minutes by scraping any business website to create knowledge bases, FAQs, conversation flows, and le...", "description_zh": "", "downloads": 272, "homepage": "https://clawhub.ai/g4dr/ai-chatbot-builder", "iconUrl": null, "installs": 22, "name": "AI Chatbot Builder — Deploy a Custom GPT for Any Business in 15 Minutes", "ownerName": "g4dr", "score": 20528.30188679245, "slug": "ai-chatbot-builder", "source": "clawhub", "stars": 0, "tags": ["agency", "ai-assistant", "apify", "automation", "chatbot", "customer-service", "intercom", "invideo", "lead-capture", "no-code", "tidio", "voiceflow"], "updated_at": 1776759382868, "version": "1.0.0"}, {"category": "data-analysis", "created_at": 1773060078273, "description": "Create new agent skills from scratch. Use when: (1) Building specific capabilities, (2) Converting workflows into reusable skills, (3) Designing skill struct...", "description_zh": "", "downloads": 272, "homepage": "https://clawhub.ai/kexu9/skill-maker", "iconUrl": null, "installs": 16, "name": "Skill Maker", "ownerName": "kexu9", "score": 20528.30188679245, "slug": "skill-maker", "source": "clawhub", "stars": 0, "tags": null, "updated_at": 1776759382863, "version": "1.1.1"}, {"category": "developer-tools", "created_at": 1772805378408, "description": "Israel Red Alert API — real-time and historical rocket/missile alert data. Query alerts by city, time range, generate shelter time stats. Uses redalert.oriel...", "description_zh": "", "downloads": 272, "homepage": "https://clawhub.ai/dannyshmueli/red-alert", "iconUrl": null, "installs": 6, "name": "Red Alert", "ownerName": "dannyshmueli", "score": 20420.42042042042, "slug": "red-alert", "source": "clawhub", "stars": 0, "tags": null, "updated_at": 1776759382595, "version": "1.2.0"}, {"category": "data-analysis", "created_at": 1772798290899, "description": "Search and analyze family history using the FamilySearch API or offline GEDCOM files for genealogy, ancestors, family trees, and historical records.", "description_zh": "", "downloads": 272, "homepage": "https://clawhub.ai/keylimesoda/familysearch", "iconUrl": null, "installs": 9, "name": "Familysearch", "ownerName": "keylimesoda", "score": 20559.334845049132, "slug": "familysearch", "source": "clawhub", "stars": 0, "tags": null, "updated_at": 1776759382510, "version": "1.0.3"}, {"category": "data-analysis", "created_at": 1773088688115, "description": "Payment rails between humans and AI agents via BitChat. Telegram-first.", "description_zh": "", "downloads": 272, "homepage": "https://clawhub.ai/eliaspfeffer/bit-chat", "iconUrl": null, "installs": 11, "name": "AI-native Bitcoin payments. Buy, sell, send, and request Bitcoin directly through any existing messenger app (Telegram, WhatsApp, Signal, Email) or create your own email accounts to start messaging via email.", "ownerName": "eliaspfeffer", "score": 20574.886535552196, "slug": "bit-chat", "source": "clawhub", "stars": 0, "tags": null, "updated_at": 1776759382333, "version": "1.0.4"}, {"category": "developer-tools", "created_at": 1773076416866, "description": "Optimize OpenClaw agent context files by reducing token usage 30-50% with backups, preview, rollback, and preserving core functionality on request.", "description_zh": "", "downloads": 272, "homepage": "https://clawhub.ai/sdotwinter/context-cleaner", "iconUrl": null, "installs": 8, "name": "Context Cleaner (.md cleanup)", "ownerName": "sdotwinter", "score": 20574.886535552196, "slug": "context-cleaner", "source": "clawhub", "stars": 0, "tags": ["context"], "updated_at": 1776759382278, "version": "1.0.2"}, {"category": "developer-tools", "created_at": 1773429489832, "description": "Headless browser automation CLI optimized for AI agents with accessibility tree snapshots. And also 50+ models for image generation, video generation, text-t...", "description_zh": "", "downloads": 272, "homepage": "https://clawhub.ai/modestyrichards/agent-browser-clawdbots", "iconUrl": null, "installs": 110, "name": "Pub Agent Browser Clawdbot", "ownerName": "modestyrichards", "score": 16656.460502143294, "slug": "agent-browser-clawdbots", "source": "clawhub", "stars": 0, "tags": null, "updated_at": 1776756982571, "version": "1.0.0"}, {"category": "developer-tools", "created_at": 1773073144101, "description": "Access CoinMarketCap data via x402 pay-per-request protocol with USDC payments on Base. Use when users mention x402, want CMC data without API keys, ask abou...", "description_zh": "", "downloads": 272, "homepage": "https://clawhub.ai/bryan-cmc/cmc-x402", "iconUrl": null, "installs": 9, "name": "CoinMarketCap x402 APIs", "ownerName": "bryan-cmc", "score": 95438.59649122806, "slug": "cmc-x402", "source": "clawhub", "stars": 0, "tags": null, "updated_at": 1776748845177, "version": "1.0.1"}, {"category": "ai-intelligence", "created_at": 1772805470896, "description": "Create, join, and manage teams on OpenAnt. Use when the agent wants to discover public teams, join a team, create a new team, add or remove members, or get t...", "description_zh": "", "downloads": 272, "homepage": "https://clawhub.ai/ant-1984/manage-teams", "iconUrl": null, "installs": 25, "name": "Manage Teams", "ownerName": "ant-1984", "score": 92832.76450511946, "slug": "manage-teams", "source": "clawhub", "stars": 0, "tags": null, "updated_at": 1776748844953, "version": "0.1.1"}, {"category": "productivity", "created_at": 1772796602476, "description": "Run Mission Control visual QA over SSH using Puppeteer screenshots and basic DOM checks.", "description_zh": "", "downloads": 272, "homepage": "https://clawhub.ai/highlander89/mission-control-visual-qa", "iconUrl": null, "installs": 9, "name": "mission-control-visual-qa", "ownerName": "highlander89", "score": 93793.10344827586, "slug": "mission-control-visual-qa", "source": "clawhub", "stars": 0, "tags": null, "updated_at": 1776748844937, "version": "0.1.6"}, {"category": "data-analysis", "created_at": 1772799419706, "description": "Skill Cortex is the system's capability cortex. When lacking ability, it autonomously acquires Skills from ClawHub or GitHub, then releases them after use. E...", "description_zh": "", "downloads": 272, "homepage": "https://clawhub.ai/ankwu001/skill-cortex-pub", "iconUrl": null, "installs": 8, "name": "Skill Cortex Pub", "ownerName": "ankwu001", "score": 93150.68493150684, "slug": "skill-cortex-pub", "source": "clawhub", "stars": 0, "tags": null, "updated_at": 1776748844496, "version": "0.0.2"}, {"category": "ai-intelligence", "created_at": 1773113728400, "description": "Microsoft 365 Graph for OpenClaw with webhook-based wake signals. Reduce recurring LLM cost from inbox polling while managing Outlook mail, calendar, OneDriv...", "description_zh": "", "downloads": 271, "homepage": "https://clawhub.ai/draeden79/microsoft-365-graph-openclaw", "iconUrl": null, "installs": 33, "name": "Microsoft 365 Graph Openclaw", "ownerName": "draeden79", "score": 100000, "slug": "microsoft-365-graph-openclaw", "source": "clawhub", "stars": 1, "tags": null, "updated_at": 1776748844383, "version": "0.2.0"}, {"category": "developer-tools", "created_at": 1772796635410, "description": "Set up OpenRouter as your LLM provider. Guides through account creation, API key setup, config, and making it the default model. Use when a user wants to use...", "description_zh": "", "downloads": 271, "homepage": "https://clawhub.ai/tenequm/agentbox-openrouter", "iconUrl": null, "installs": 6, "name": "AgentBox OpenRouter", "ownerName": "tenequm", "score": 1640.8331315088399, "slug": "agentbox-openrouter", "source": "clawhub", "stars": 0, "tags": null, "updated_at": 1776770049891, "version": "1.0.0"}, {"category": "ai-intelligence", "created_at": 1772798715746, "description": "ADHD-friendly life management assistant for OpenClaw. Helps with daily planning, task breakdown, time management, prioritization, body doubling, dopamine reg...", "description_zh": "", "downloads": 271, "homepage": "https://clawhub.ai/loui1979/adhd-assistant-1-0-0", "iconUrl": null, "installs": 25, "name": "Adhd Assistant 1.0.0", "ownerName": "loui1979", "score": 2553.231580930846, "slug": "adhd-assistant-1-0-0", "source": "clawhub", "stars": 0, "tags": null, "updated_at": 1776769749758, "version": "1.0.0"}, {"category": "productivity", "created_at": 1773882654937, "description": "Extract and clean readable article content, metadata, and markdown from URLs or HTML for research, note taking, and web scraping.", "description_zh": "", "downloads": 271, "homepage": "https://clawhub.ai/extrastu/defuddle", "iconUrl": null, "installs": 42, "name": "defuddle-web-cleaner", "ownerName": "extrastu", "score": 2992.4911660777384, "slug": "defuddle", "source": "clawhub", "stars": 0, "tags": null, "updated_at": 1776768550032, "version": "1.0.0"}, {"category": "", "created_at": 1774868809042, "description": "Rewrite AI-drafted essays into more human-like academic prose. Fine-tuned LoRA over Qwen3-8B guided by 24 Wikipedia-style AI-writing pattern weights plus MDD...", "description_zh": "", "downloads": 271, "homepage": "https://clawhub.ai/kevin0818-lxd/essay-humanizer", "iconUrl": null, "installs": 25, "name": "Essay Humanizer", "ownerName": "kevin0818-lxd", "score": 13245.35679374389, "slug": "essay-humanizer", "source": "clawhub", "stars": 0, "tags": ["corpus-linguistics", "education", "english", "essay", "humanize", "style-editing", "writing"], "updated_at": 1776768249911, "version": "1.0.2"}, {"category": "productivity", "created_at": 1772798434679, "description": "Export Grok conversations from X (x.com) via browser-network capture and convert them into Obsidian-ready Markdown files. Use when a user wants to back up Gr...", "description_zh": "", "downloads": 271, "homepage": "https://clawhub.ai/hajekt2/x-grok-to-obsidian", "iconUrl": null, "installs": 20, "name": "X Grok to Obsidian", "ownerName": "hajekt2", "score": 7088.673816374574, "slug": "x-grok-to-obsidian", "source": "clawhub", "stars": 0, "tags": null, "updated_at": 1776766749793, "version": "0.1.0"}, {"category": "content-creation", "created_at": 1773061400077, "description": "Creates WooCommerce draft product listings with images, variants, and margin calculation from CJ Dropshipping products using product ID and sell price.", "description_zh": "", "downloads": 271, "homepage": "https://clawhub.ai/zero2ai-hub/skill-dropshipping-product-launcher", "iconUrl": null, "installs": 15, "name": "Skill Dropshipping Product Launcher", "ownerName": "zero2ai-hub", "score": 20345.345345345344, "slug": "skill-dropshipping-product-launcher", "source": "clawhub", "stars": 0, "tags": null, "updated_at": 1776759383037, "version": "1.0.0"}, {"category": "security-compliance", "created_at": 1772797258112, "description": "Operate a compliant, profitable home inspection business with pricing, licensing, insurance, equipment, workflows, and growth strategies tailored to maximize...", "description_zh": "", "downloads": 271, "homepage": "https://clawhub.ai/1kalin/afrexai-home-inspection", "iconUrl": null, "installs": 14, "name": "Home Inspection Business Operations", "ownerName": "1kalin", "score": 91864.40677966102, "slug": "afrexai-home-inspection", "source": "clawhub", "stars": 0, "tags": ["business operations", "compliance", "home inspection", "pricing", "real estate"], "updated_at": 1776759382661, "version": "1.0.0"}, {"category": "developer-tools", "created_at": 1773074334323, "description": "Summarize GitHub Actions matrix job failures across runs so you can spot unstable OS/runtime axes fast.", "description_zh": "", "downloads": 271, "homepage": "https://clawhub.ai/daniellummis/github-actions-failure-matrix", "iconUrl": null, "installs": 22, "name": "GitHub Actions Failure Matrix", "ownerName": "daniellummis", "score": 95087.7192982456, "slug": "github-actions-failure-matrix", "source": "clawhub", "stars": 0, "tags": null, "updated_at": 1776748845171, "version": "1.7.0"}, {"category": "ai-intelligence", "created_at": 1773073912318, "description": "Portable reputation system for agents v3 - Ed25519 signatures, input validation, handoff KV", "description_zh": "", "downloads": 271, "homepage": "https://clawhub.ai/nantes/agent-attestation", "iconUrl": null, "installs": 11, "name": "Agent Attestation", "ownerName": "nantes", "score": 81137.7245508982, "slug": "agent-attestation", "source": "clawhub", "stars": 0, "tags": ["attestation", "identity", "infrastructure", "reputation", "trust"], "updated_at": 1776748845065, "version": "3.0.2"}, {"category": "ai-intelligence", "created_at": 1772795080694, "description": "Send and receive messages with other AI agents using the Universal Agent Messaging protocol.", "description_zh": "", "downloads": 271, "homepage": "https://clawhub.ai/midlifedad/youam", "iconUrl": null, "installs": 12, "name": "YouAM", "ownerName": "midlifedad", "score": 81137.7245508982, "slug": "youam", "source": "clawhub", "stars": 0, "tags": ["initial"], "updated_at": 1776748845059, "version": "0.3.0"}, {"category": "developer-tools", "created_at": 1773218503255, "description": "govern execution hygiene for software projects. use when the user wants help enforcing git commit discipline, deciding whether work is ready to commit, gener...", "description_zh": "", "downloads": 271, "homepage": "https://clawhub.ai/majmunu/dev-progress-governor", "iconUrl": null, "installs": 7, "name": "Dev Progress Governor", "ownerName": "majmunu", "score": 93448.27586206896, "slug": "dev-progress-governor", "source": "clawhub", "stars": 0, "tags": ["execution", "git", "governance", "progress-log"], "updated_at": 1776748844831, "version": "1.0.0"}, {"category": "developer-tools", "created_at": 1773078013263, "description": "Ampersend CLI for agent payments", "description_zh": "", "downloads": 271, "homepage": "https://clawhub.ai/matiasedgeandnode/asndurl", "iconUrl": null, "installs": 3, "name": "asndurl", "ownerName": "matiasedgeandnode", "score": 93448.27586206896, "slug": "asndurl", "source": "clawhub", "stars": 0, "tags": null, "updated_at": 1776748844824, "version": "1.0.3"}, {"category": "ai-intelligence", "created_at": 1772799219600, "description": "Monitor Z.AI GLM Coding Plan usage and quota limits. Track token consumption, view reset times, and check subscription status.", "description_zh": "", "downloads": 271, "homepage": "https://clawhub.ai/1vecera/zai-usage", "iconUrl": null, "installs": 24, "name": "Zai Usage", "ownerName": "1vecera", "score": 93448.27586206896, "slug": "zai-usage", "source": "clawhub", "stars": 0, "tags": null, "updated_at": 1776748844821, "version": "1.1.0"}, {"category": "data-analysis", "created_at": 1772798913809, "description": "Generate crypto market briefing reports with latest news, price analysis, trend predictions, sentiment analysis, and Fear & Greed Index. Use when user asks f...", "description_zh": "", "downloads": 271, "homepage": "https://clawhub.ai/csyr/crypto-briefing", "iconUrl": null, "installs": 15, "name": "crypto briefing", "ownerName": "csyr", "score": 86031.74603174604, "slug": "crypto-briefing", "source": "clawhub", "stars": 0, "tags": null, "updated_at": 1776748844780, "version": "1.0.0"}, {"category": "ai-intelligence", "created_at": 1772805484397, "description": "Curious knowledge companion with deep expertise in space, universe, and history. Answers any question without judgment (no \"dumb questions\"), explains concep...", "description_zh": "", "downloads": 271, "homepage": "https://clawhub.ai/aianonymous1993-source/reading-knowledge", "iconUrl": null, "installs": 17, "name": "Reading & Knowledge", "ownerName": "aianonymous1993-source", "score": 86031.74603174604, "slug": "reading-knowledge", "source": "clawhub", "stars": 0, "tags": null, "updated_at": 1776748844738, "version": "1.0.0"}, {"category": "security-compliance", "created_at": 1772803050882, "description": "Audit and rewrite content to remove AI-generated feel by stripping markdown artifacts, eliminating AI vocabulary patterns, flagging hallucination risks, and...", "description_zh": "", "downloads": 271, "homepage": "https://clawhub.ai/geoly-geo/geo-human-editor", "iconUrl": null, "installs": 21, "name": "Human Voice Content Editor", "ownerName": "geoly-geo", "score": 86031.74603174604, "slug": "geo-human-editor", "source": "clawhub", "stars": 0, "tags": ["ai-detection", "content", "geo", "hallucination", "humanizer"], "updated_at": 1776748844735, "version": "1.0.0"}, {"category": "productivity", "created_at": 1773871854427, "description": "Watch disk space in real time and alert before storage runs low. Use when monitoring usage, finding large dirs, preventing disk-full events.", "description_zh": "", "downloads": 271, "homepage": "https://clawhub.ai/ckchzh/diskmon", "iconUrl": null, "installs": 5, "name": "Diskmon", "ownerName": "ckchzh", "score": 86031.74603174604, "slug": "diskmon", "source": "clawhub", "stars": 0, "tags": null, "updated_at": 1776748844733, "version": "2.0.1"}, {"category": "productivity", "created_at": 1773064688890, "description": "Shopify integration. Manage e-commerce data, records, and workflows. Use when the user wants to interact with Shopify data.", "description_zh": "", "downloads": 271, "homepage": "https://clawhub.ai/gora050/shopify-integration", "iconUrl": null, "installs": 24, "name": "Shopify", "ownerName": "gora050", "score": 86305.73248407643, "slug": "shopify-integration", "source": "clawhub", "stars": 0, "tags": null, "updated_at": 1776748844701, "version": "1.0.0"}, {"category": "developer-tools", "created_at": 1772802455859, "description": "Automatically generates detailed Standard Operating Procedures (SOPs) for recurring digital tasks. Ideal for scaling agency operations or documenting interna...", "description_zh": "", "downloads": 271, "homepage": "https://clawhub.ai/balkanblbn/sop-architect", "iconUrl": null, "installs": 16, "name": "Sop Architect", "ownerName": "balkanblbn", "score": 86305.73248407643, "slug": "sop-architect", "source": "clawhub", "stars": 0, "tags": null, "updated_at": 1776748844680, "version": "1.1.0"}, {"category": "ai-intelligence", "created_at": 1772802478403, "description": "Multi-agent task orchestration engine with state machine tracking. Use when complex multi-step projects need automated monitoring, multi-agent collaboration,...", "description_zh": "", "downloads": 271, "homepage": "https://clawhub.ai/zeron-g/task-engine", "iconUrl": null, "installs": 26, "name": "Task Engine", "ownerName": "zeron-g", "score": 86305.73248407643, "slug": "task-engine", "source": "clawhub", "stars": 0, "tags": null, "updated_at": 1776748844675, "version": "1.0.0"}, {"category": "productivity", "created_at": 1773217889383, "description": "Salesmate integration. Manage Organizations, Pipelines, Users, Filters, Projects. Use when the user wants to interact with Salesmate data.", "description_zh": "", "downloads": 271, "homepage": "https://clawhub.ai/gora050/salesmate", "iconUrl": null, "installs": 8, "name": "Salesmate", "ownerName": "gora050", "score": 86305.73248407643, "slug": "salesmate", "source": "clawhub", "stars": 0, "tags": null, "updated_at": 1776748844656, "version": "1.0.0"}, {"category": "developer-tools", "created_at": 1773081849634, "description": "Build and maintain one coherent company story across all audiences — employees, investors, customers, candidates, and partners. Detects narrative contradicti...", "description_zh": "", "downloads": 271, "homepage": "https://clawhub.ai/alirezarezvani/internal-narrative", "iconUrl": null, "installs": 7, "name": "Internal Narrative", "ownerName": "alirezarezvani", "score": 86305.73248407643, "slug": "internal-narrative", "source": "clawhub", "stars": 0, "tags": null, "updated_at": 1776748844639, "version": "2.1.1"}, {"category": "developer-tools", "created_at": 1773090950345, "description": "AI-powered decision journal for solopreneurs — capture decisions with context, rationale, and expected outcomes, then review them later to learn from what yo...", "description_zh": "", "downloads": 271, "homepage": "https://clawhub.ai/clawdssen/agentledger-decision-log", "iconUrl": null, "installs": 9, "name": "Decision Log", "ownerName": "clawdssen", "score": 86305.73248407643, "slug": "agentledger-decision-log", "source": "clawhub", "stars": 0, "tags": null, "updated_at": 1776748844611, "version": "1.0.2"}, {"category": "productivity", "created_at": 1773063619136, "description": "Enroll in university courses on Ludwitt, complete deliverables, submit work for review, and grade others as a professor. Use when the user asks about taking...", "description_zh": "", "downloads": 271, "homepage": "https://clawhub.ai/rogersuperbuilderalpha/ludwitt-university", "iconUrl": null, "installs": 13, "name": "ludwitt-university", "ownerName": "rogersuperbuilderalpha", "score": 92808.2191780822, "slug": "ludwitt-university", "source": "clawhub", "stars": 0, "tags": null, "updated_at": 1776748844515, "version": "3.106.0"}, {"category": "data-analysis", "created_at": 1773069250918, "description": "Farm and manage multiple TikTok accounts with mobile-grade residential proxies. Automate account creation, warming, content posting, and engagement. Scale fr...", "description_zh": "", "downloads": 271, "homepage": "https://clawhub.ai/luis2404123/tiktok-account-farming", "iconUrl": null, "installs": 29, "name": "TikTok Account Farming", "ownerName": "luis2404123", "score": 95087.7192982456, "slug": "tiktok-account-farming", "source": "clawhub", "stars": 0, "tags": null, "updated_at": 1776748844485, "version": "1.0.0"}, {"category": "ai-intelligence", "created_at": 1772796672967, "description": "Web UI for the shopping-list skill. Adds a /shopping page to Second Brain with full CRUD — view, add, edit, check off, and delete items. Requires the shoppin...", "description_zh": "", "downloads": 271, "homepage": "https://clawhub.ai/ajeenkya/shopping-list-ui", "iconUrl": null, "installs": 17, "name": "Shopping List Ui", "ownerName": "ajeenkya", "score": 93127.14776632303, "slug": "shopping-list-ui", "source": "clawhub", "stars": 0, "tags": null, "updated_at": 1776748844390, "version": "1.0.0"}, {"category": "content-creation", "created_at": 1772799383677, "description": "Convert recipe text (pasted text, video transcript, image description, or any raw content) into a .paprikarecipes file that can be imported directly into the...", "description_zh": "", "downloads": 271, "homepage": "https://clawhub.ai/nogara/paprika-recipe-importer", "iconUrl": null, "installs": 15, "name": "Paprika Recipe Importer", "ownerName": "nogara", "score": 93127.14776632303, "slug": "paprika-recipe-importer", "source": "clawhub", "stars": 0, "tags": null, "updated_at": 1776748844372, "version": "1.0.0"}, {"category": "data-analysis", "created_at": 1772798463264, "description": "Indonesian Web3 intelligence via Iseclaw ACP agent. Real-time market data, token signals, TGE research, and GameFi analysis from Southeast Asia's first trans...", "description_zh": "", "downloads": 270, "homepage": "https://clawhub.ai/0xduraku/iseclaw-intel", "iconUrl": null, "installs": 16, "name": "Iseclaw Intel", "ownerName": "0xduraku", "score": 100000, "slug": "iseclaw-intel", "source": "clawhub", "stars": 1, "tags": null, "updated_at": 1776748844915, "version": "1.2.0"}, {"category": "data-analysis", "created_at": 1772798391973, "description": "Agent-to-agent task coordination via RFP, bid, and hire pattern. Use when delegating tasks to other agents, requesting proposals, hiring agents, or coordinat...", "description_zh": "", "downloads": 270, "homepage": "https://clawhub.ai/jpaulgrayson/quack-coordinator", "iconUrl": null, "installs": 13, "name": "Quack Coordinator", "ownerName": "jpaulgrayson", "score": 12482.662968099861, "slug": "quack-coordinator", "source": "clawhub", "stars": 0, "tags": null, "updated_at": 1776769750028, "version": "1.0.0"}, {"category": "developer-tools", "created_at": 1772796915272, "description": "Tra cứu phạt nguội phương tiện tại Việt Nam. Use when user asks to check traffic fines in VN by license plate (ô tô/xe máy), especially via VNeTraffic-style...", "description_zh": "", "downloads": 270, "homepage": "https://clawhub.ai/ldt116/tra-cuu-phat-nguoi", "iconUrl": null, "installs": 8, "name": "Tra Cuu Phat Nguoi", "ownerName": "ldt116", "score": 2880.3072327714954, "slug": "tra-cuu-phat-nguoi", "source": "clawhub", "stars": 0, "tags": null, "updated_at": 1776768850373, "version": "1.0.0"}, {"category": "ai-intelligence", "created_at": 1773940910993, "description": "Generate images, faceswap, edit photos, animate expressions, and do style transfer via a self-hosted ComfyUI instance on your LAN. Your GPU, your models.", "description_zh": "", "downloads": 270, "homepage": "https://clawhub.ai/bortlesboat/comfyui-bridge", "iconUrl": null, "installs": 102, "name": "ComfyUI Bridge", "ownerName": "bortlesboat", "score": 1684.7622613253461, "slug": "comfyui-bridge", "source": "clawhub", "stars": 0, "tags": null, "updated_at": 1776768549818, "version": "0.1.0"}, {"category": "content-creation", "created_at": 1773079691630, "description": "Auto-generate masks for objects/regions in images. Use when users request image_recognition operations or related tasks.", "description_zh": "", "downloads": 270, "homepage": "https://clawhub.ai/wondershare-boop/tomoviee-image-recognition", "iconUrl": null, "installs": 20, "name": "Tomoviee Image Recognition", "ownerName": "wondershare-boop", "score": 1552.4379024839006, "slug": "tomoviee-image-recognition", "source": "clawhub", "stars": 0, "tags": null, "updated_at": 1776767649921, "version": "1.0.1"}, {"category": "ai-intelligence", "created_at": 1772799982906, "description": "Check which exchanges work from your location and search for tokens with trading rules (min order size, price increment, order types).", "description_zh": "", "downloads": 270, "homepage": "https://clawhub.ai/fengtality/connectors-available", "iconUrl": null, "installs": 14, "name": "Connectors Available", "ownerName": "fengtality", "score": 4572.396274343776, "slug": "connectors-available", "source": "clawhub", "stars": 0, "tags": null, "updated_at": 1776763150754, "version": "1.0.0"}, {"category": "ai-intelligence", "created_at": 1773073407949, "description": "System-level watchdog for OpenClaw gateway restarts and sub-agent task PIDs. Monitors registered PIDs and optional log/directory freshness. Auto-reverts conf...", "description_zh": "", "downloads": 270, "homepage": "https://clawhub.ai/camopel/openclaw-claw-guard", "iconUrl": null, "installs": 13, "name": "ClawGuard", "ownerName": "camopel", "score": 7772.020725388601, "slug": "openclaw-claw-guard", "source": "clawhub", "stars": 0, "tags": null, "updated_at": 1776762439884, "version": "1.1.0"}, {"category": "content-creation", "created_at": 1773066075448, "description": "Haploidentical donor selection for hematopoietic cell transplantation (HCT). Extracts HLA typing from images/PDFs, queries IPD-IMGT/HLA APIs (B-Leader, DPB1...", "description_zh": "", "downloads": 270, "homepage": "https://clawhub.ai/seattlerain/haplo-donor-selection", "iconUrl": null, "installs": 12, "name": "haplo-donor-selection", "ownerName": "seattlerain", "score": 97472.92418772563, "slug": "haplo-donor-selection", "source": "clawhub", "stars": 0, "tags": null, "updated_at": 1776759383103, "version": "1.3.1"}, {"category": "data-analysis", "created_at": 1772804478186, "description": "Astrological charts, transit forecasts, and compatibility reports via grupovenus.com. Manage multiple people and compare charts conversationally.", "description_zh": "", "downloads": 270, "homepage": "https://clawhub.ai/apresmoi/grupo-venus", "iconUrl": null, "installs": 15, "name": "Grupo Venus", "ownerName": "apresmoi", "score": 18815.331010452963, "slug": "grupo-venus", "source": "clawhub", "stars": 0, "tags": null, "updated_at": 1776759382859, "version": "0.1.0"}]}