{"page": 262, "total_pages": 522, "total": 26073, "skills": [{"category": "data-analysis", "created_at": 1772804300869, "description": "Deploy and run Konto (personal finance dashboard) locally. Use when setting up a new Konto instance, troubleshooting installation, or helping users get start...", "description_zh": "", "downloads": 270, "homepage": "https://clawhub.ai/angelstreet/konto", "iconUrl": null, "installs": 12, "name": "Konto", "ownerName": "angelstreet", "score": 91525.42372881356, "slug": "konto", "source": "clawhub", "stars": 0, "tags": null, "updated_at": 1776759382695, "version": "1.1.0"}, {"category": "data-analysis", "created_at": 1772801601401, "description": "AI Agent Financial Observability — monitor, budget, and analyze spending across any AI agent. Track costs, set budgets, detect anomalies, and export metrics...", "description_zh": "", "downloads": 270, "homepage": "https://clawhub.ai/oc127/agentfinobs", "iconUrl": null, "installs": 12, "name": "Agentfinobs", "ownerName": "oc127", "score": 20255.063765941486, "slug": "agentfinobs", "source": "clawhub", "stars": 0, "tags": null, "updated_at": 1776759382467, "version": "1.0.0"}, {"category": "ai-intelligence", "created_at": 1773068687421, "description": "Find and score high-value agents on Moltbook and Clawk by karma, engagement, and topic fit to identify valuable conversations and collaboration opportunities.", "description_zh": "", "downloads": 270, "homepage": "https://clawhub.ai/shepherd217/agent-reputation-scout", "iconUrl": null, "installs": 51, "name": "Agent Reputation Scout", "ownerName": "shepherd217", "score": 1574.1604477611938, "slug": "agent-reputation-scout", "source": "clawhub", "stars": 0, "tags": null, "updated_at": 1776759382412, "version": "1.0.1"}, {"category": "developer-tools", "created_at": 1773921941089, "description": "Web search via Tavily API (alternative to Brave). Use when the user asks to search the web / look up sources / find links and Brave web_search is unavailable...", "description_zh": "", "downloads": 270, "homepage": "https://clawhub.ai/gyzx/openclaw-tavily-search-0-1-0", "iconUrl": null, "installs": 90, "name": "Openclaw Tavily Search 0.1.0", "ownerName": "gyzx", "score": 63981.04265402843, "slug": "openclaw-tavily-search-0-1-0", "source": "clawhub", "stars": 0, "tags": null, "updated_at": 1776759121430, "version": "1.0.0"}, {"category": "security-compliance", "created_at": 1772805645879, "description": "Supabase integration for Hakke Studio projects. Auth, database, storage, edge functions. Use with vercel skill for full-stack deployment.", "description_zh": "", "downloads": 270, "homepage": "https://clawhub.ai/studio-hakke/supabase-hakke", "iconUrl": null, "installs": 18, "name": "Supabase Hakke", "ownerName": "studio-hakke", "score": 51039.69754253308, "slug": "supabase-hakke", "source": "clawhub", "stars": 0, "tags": null, "updated_at": 1776753283784, "version": "1.1.0"}, {"category": "developer-tools", "created_at": 1772800392876, "description": "SEC EDGAR filings, BLS employment stats, and USDA crop prices. 3 tools for federal financial intelligence.", "description_zh": "", "downloads": 270, "homepage": "https://clawhub.ai/martc03/gov-financial-intel", "iconUrl": null, "installs": 19, "name": "Gov Financial Intel", "ownerName": "martc03", "score": 94736.84210526315, "slug": "gov-financial-intel", "source": "clawhub", "stars": 0, "tags": null, "updated_at": 1776748845190, "version": "1.0.0"}, {"category": "ai-intelligence", "created_at": 1772796390819, "description": "For token distribution on Solana 5000x cheaper than SPL (rewards, airdrops, depins, ...). @lightprotocol/compressed-token (TypeScript). Reference examples fo...", "description_zh": "", "downloads": 270, "homepage": "https://clawhub.ai/tilo-14/solana-token-distribution", "iconUrl": null, "installs": 16, "name": "solana-token-distribution", "ownerName": "tilo-14", "score": 92150.17064846418, "slug": "solana-token-distribution", "source": "clawhub", "stars": 0, "tags": null, "updated_at": 1776748844959, "version": "1.0.1"}, {"category": "developer-tools", "created_at": 1772796623498, "description": "Manage projects and tasks with the Forge project management API via MCP. Use when creating, updating, or searching tasks/tickets, managing projects and colum...", "description_zh": "", "downloads": 270, "homepage": "https://clawhub.ai/parker-xferops/xferops-forge", "iconUrl": null, "installs": 13, "name": "XferOps Forge", "ownerName": "parker-xferops", "score": 92150.17064846418, "slug": "xferops-forge", "source": "clawhub", "stars": 0, "tags": null, "updated_at": 1776748844955, "version": "0.1.0"}, {"category": "security-compliance", "created_at": 1772800041755, "description": "Configure OpenRouter model routing with provider auth, model selection, fallback chains, and cost-aware defaults for stable multi-model workflows.", "description_zh": "", "downloads": 270, "homepage": "https://clawhub.ai/ivangdavila/open-router", "iconUrl": null, "installs": 10, "name": "Open Router", "ownerName": "ivangdavila", "score": 85714.28571428571, "slug": "open-router", "source": "clawhub", "stars": 0, "tags": null, "updated_at": 1776748844717, "version": "1.0.0"}, {"category": "developer-tools", "created_at": 1772795845036, "description": "Deploy and manage Clack, a voice relay server for OpenClaw. Bridges voice input (WebSocket) through STT → OpenClaw agent → TTS, enabling real-time voice conv...", "description_zh": "", "downloads": 270, "homepage": "https://clawhub.ai/fbn3799/clack", "iconUrl": null, "installs": 6, "name": "Clack", "ownerName": "fbn3799", "score": 92465.75342465754, "slug": "clack", "source": "clawhub", "stars": 0, "tags": null, "updated_at": 1776748844576, "version": "1.5.3"}, {"category": "data-analysis", "created_at": 1772797798583, "description": "Submit research questions for AI-powered analysis via Clarity Protocol. Use when the user asks to analyze a protein variant, ask a research question, get AI...", "description_zh": "", "downloads": 270, "homepage": "https://clawhub.ai/clarityprotocol/clarity-analyze", "iconUrl": null, "installs": 15, "name": "Clarity Analyze", "ownerName": "clarityprotocol", "score": 94736.84210526315, "slug": "clarity-analyze", "source": "clawhub", "stars": 0, "tags": null, "updated_at": 1776748844454, "version": "1.0.0"}, {"category": "content-creation", "created_at": 1773073465255, "description": "AI-powered Twitter/X content generator. Generate engaging tweets, threads, and content strategies using Sloan agent.", "description_zh": "", "downloads": 270, "homepage": "https://clawhub.ai/icepopma/twitter-content-generator", "iconUrl": null, "installs": 19, "name": "Twitter Content Generator", "ownerName": "icepopma", "score": 94736.84210526315, "slug": "twitter-content-generator", "source": "clawhub", "stars": 0, "tags": null, "updated_at": 1776748844452, "version": "1.0.9"}, {"category": "developer-tools", "created_at": 1772799034922, "description": "Generate AI music with Udio via API wrappers or browser automation, with prompt engineering and song extensions.", "description_zh": "", "downloads": 270, "homepage": "https://clawhub.ai/ivangdavila/udio", "iconUrl": null, "installs": 15, "name": "Udio", "ownerName": "ivangdavila", "score": 94736.84210526315, "slug": "udio", "source": "clawhub", "stars": 0, "tags": null, "updated_at": 1776748844421, "version": "1.0.0"}, {"category": "data-analysis", "created_at": 1772798483388, "description": "Structured task snapshot and automatic post-compaction recovery. Captures exact code, decisions, file paths, and task state before context compaction and rec...", "description_zh": "", "downloads": 270, "homepage": "https://clawhub.ai/obekt/big-memory", "iconUrl": null, "installs": 17, "name": "Big Memory", "ownerName": "obekt", "score": 94736.84210526315, "slug": "big-memory", "source": "clawhub", "stars": 0, "tags": ["compaction", "context", "memory", "recovery"], "updated_at": 1776748844418, "version": "1.0.0"}, {"category": "developer-tools", "created_at": 1773066562877, "description": "Undetectable web scraping with residential proxy rotation, browser fingerprint spoofing, and anti-bot evasion. Bypass Cloudflare, DataDome, PerimeterX, and A...", "description_zh": "", "downloads": 270, "homepage": "https://clawhub.ai/luis2404123/stealth-scraper", "iconUrl": null, "installs": 28, "name": "Stealth Scraper", "ownerName": "luis2404123", "score": 94736.84210526315, "slug": "stealth-scraper", "source": "clawhub", "stars": 0, "tags": null, "updated_at": 1776748844396, "version": "1.0.0"}, {"category": "data-analysis", "created_at": 1772801249928, "description": "Daily e-commerce intelligence for Indian Flipkart and Amazon India sellers. Tracks orders, returns, inventory levels, competitor pricing, Buy Box status, and...", "description_zh": "", "downloads": 270, "homepage": "https://clawhub.ai/utsavs/flipkart-seller-dashboard", "iconUrl": null, "installs": 45, "name": "flipkart seller dashboard", "ownerName": "utsavs", "score": 92783.50515463918, "slug": "flipkart-seller-dashboard", "source": "clawhub", "stars": 0, "tags": ["flipkart", "flipkart seller"], "updated_at": 1776748844376, "version": "1.0.0"}, {"category": "ai-intelligence", "created_at": 1772795329924, "description": "Trustless verification protocol for autonomous agents. Discover claims, verify reality, and earn TruthScore.", "description_zh": "", "downloads": 269, "homepage": "https://clawhub.ai/clawtruth/clawtruth-skills", "iconUrl": null, "installs": 16, "name": "ClawTruth Protocol", "ownerName": "clawtruth", "score": 98407.6433121019, "slug": "clawtruth-skills", "source": "clawhub", "stars": 2, "tags": null, "updated_at": 1776748844645, "version": "1.3.3"}, {"category": "data-analysis", "created_at": 1773425417234, "description": "This skill provides powerful arXiv academic paper retrieval, download, and analysis capabilities, helping agents efficiently conduct academic literature rese...", "description_zh": "", "downloads": 269, "homepage": "https://clawhub.ai/peterkouss/arxiv-search-master", "iconUrl": null, "installs": 76, "name": "arXiv Search Master", "ownerName": "peterkouss", "score": 6935.445164386849, "slug": "arxiv-search-master", "source": "clawhub", "stars": 1, "tags": null, "updated_at": 1776764097887, "version": "1.0.1"}, {"category": "developer-tools", "created_at": 1772796625883, "description": "Digital legacy agent — dead man's switch, final message executor, and ghost mode responder that preserves your digital presence. Use when the user wants to s...", "description_zh": "", "downloads": 269, "homepage": "https://clawhub.ai/afterself/afterself", "iconUrl": null, "installs": 7, "name": "Afterself", "ownerName": "afterself", "score": 21811.32075471698, "slug": "afterself", "source": "clawhub", "stars": 1, "tags": null, "updated_at": 1776759257904, "version": "1.0.1"}, {"category": "content-creation", "created_at": 1773908252739, "description": "Analyze and score any Amazon listing, find keyword opportunities, and spy on competitors for free with no API keys or subscriptions.", "description_zh": "", "downloads": 269, "homepage": "https://clawhub.ai/avmw2025/amazon-listing-optimizer", "iconUrl": null, "installs": 80, "name": "Amazon Listing Optimizer", "ownerName": "avmw2025", "score": 1641.2446613788895, "slug": "amazon-listing-optimizer", "source": "clawhub", "stars": 0, "tags": null, "updated_at": 1776763449744, "version": "1.0.0"}, {"category": "ai-intelligence", "created_at": 1772801794086, "description": "Automatically polls and displays memory usage and online status of RTX 3090 and 4090 AI compute nodes in the local network.", "description_zh": "", "downloads": 269, "homepage": "https://clawhub.ai/fainaltn/gpu-check", "iconUrl": null, "installs": 18, "name": "Gpu Check", "ownerName": "fainaltn", "score": 20180.045011252816, "slug": "gpu-check", "source": "clawhub", "stars": 0, "tags": null, "updated_at": 1776759382806, "version": "1.0.0"}, {"category": "data-analysis", "created_at": 1773063849781, "description": "Autonomously discovers and trades Solana memecoins by copying smart wallets, analyzing markets, detecting social trends, and enforcing strict on-chain risk c...", "description_zh": "", "downloads": 269, "homepage": "https://clawhub.ai/binance237a-hash/solana-memecoin-trade", "iconUrl": null, "installs": 27, "name": "Solana Memecoin Guardian v2", "ownerName": "binance237a-hash", "score": 20256.024096385543, "slug": "solana-memecoin-trade", "source": "clawhub", "stars": 0, "tags": null, "updated_at": 1776759382244, "version": "1.0.0"}, {"category": "content-creation", "created_at": 1773078546003, "description": "Generate images from text, edit images with text instructions, animate images to video, and generate video from text — all via RunPod public AI endpoints. Us...", "description_zh": "", "downloads": 269, "homepage": "https://clawhub.ai/itamarcoh3n/runpod-media", "iconUrl": null, "installs": 44, "name": "Runpod Media", "ownerName": "itamarcoh3n", "score": 2227.0055468167893, "slug": "runpod-media", "source": "clawhub", "stars": 0, "tags": null, "updated_at": 1776759382157, "version": "1.1.2"}, {"category": "productivity", "created_at": 1772802203420, "description": "Automatic configuration rollback mechanism for OpenClaw Gateway. Provides three-layer protection: pre-modification backup, post-modification validation, and...", "description_zh": "", "downloads": 269, "homepage": "https://clawhub.ai/halfmoon82/gateway-auto-rollback", "iconUrl": null, "installs": 10, "name": "Gateway Auto-Rollback", "ownerName": "halfmoon82", "score": 94385.9649122807, "slug": "gateway-auto-rollback", "source": "clawhub", "stars": 0, "tags": null, "updated_at": 1776748845181, "version": "1.1.0"}, {"category": "developer-tools", "created_at": 1772793494907, "description": "Navigate Valencia as visitor, resident, tech worker, student, or entrepreneur with neighborhoods, transport, costs, visas, and local insights.", "description_zh": "", "downloads": 269, "homepage": "https://clawhub.ai/ivangdavila/valencia", "iconUrl": null, "installs": 7, "name": "Valencia", "ownerName": "ivangdavila", "score": 94385.9649122807, "slug": "valencia", "source": "clawhub", "stars": 0, "tags": null, "updated_at": 1776748845179, "version": "1.0.0"}, {"category": "developer-tools", "created_at": 1773435237377, "description": "Manage Linear issues from the command line using the linear cli. This skill allows automating linear management.", "description_zh": "", "downloads": 269, "homepage": "https://clawhub.ai/kyaukyuai/kyaukyuai-linear-cli", "iconUrl": null, "installs": 1, "name": "Linear CLI", "ownerName": "kyaukyuai", "score": 80538.92215568862, "slug": "kyaukyuai-linear-cli", "source": "clawhub", "stars": 0, "tags": null, "updated_at": 1776748845092, "version": "2.8.2"}, {"category": "productivity", "created_at": 1773425894679, "description": "Save WeChat public account articles to a Notion database. Use when user sends a mp.weixin.qq.com link and wants to save/archive it to Notion. Fetches title,...", "description_zh": "", "downloads": 269, "homepage": "https://clawhub.ai/gevtolev/wechat-to-notion", "iconUrl": null, "installs": 83, "name": "WeChat to Notion", "ownerName": "gevtolev", "score": 91808.87372013651, "slug": "wechat-to-notion", "source": "clawhub", "stars": 0, "tags": null, "updated_at": 1776748845017, "version": "1.2.5"}, {"category": "data-analysis", "created_at": 1772804567380, "description": "Verify email addresses using the BillionVerify API. Use when user wants to verify single emails, batch verify email lists, upload files for bulk verification...", "description_zh": "", "downloads": 269, "homepage": "https://clawhub.ai/billionverifier/billionverify-skill", "iconUrl": null, "installs": 35, "name": "Billionverify Skill", "ownerName": "billionverifier", "score": 91808.87372013651, "slug": "billionverify-skill", "source": "clawhub", "stars": 0, "tags": null, "updated_at": 1776748845015, "version": "0.1.0"}, {"category": "data-analysis", "created_at": 1772797710769, "description": "Skill Cortex is the system's capability cortex. When lacking ability, it autonomously acquires Skills from ClawHub or GitHub, then releases them after use. E...", "description_zh": "", "downloads": 269, "homepage": "https://clawhub.ai/ankwu001/skill-cortex", "iconUrl": null, "installs": 10, "name": "Skill Cortex", "ownerName": "ankwu001", "score": 91808.87372013651, "slug": "skill-cortex", "source": "clawhub", "stars": 0, "tags": null, "updated_at": 1776748844989, "version": "1.0.1"}, {"category": "content-creation", "created_at": 1773064721796, "description": "Generate and edit images using ByteDance's Seedream V4.5 model via WaveSpeed AI. Supports text-to-image generation and multi-image editing with custom resolu...", "description_zh": "", "downloads": 269, "homepage": "https://clawhub.ai/chengzeyi/wavespeed-seedream-45", "iconUrl": null, "installs": 55, "name": "WaveSpeedAI Seedream 4.5 Image Generation/Editing", "ownerName": "chengzeyi", "score": 91808.87372013651, "slug": "wavespeed-seedream-45", "source": "clawhub", "stars": 0, "tags": null, "updated_at": 1776748844966, "version": "1.0.0"}, {"category": "content-creation", "created_at": 1773435274891, "description": "Generate SenseAudio TTS narration tracks for videos, including timestamped segments, style variants, and editor-ready voiceover exports. Use when users need...", "description_zh": "", "downloads": 269, "homepage": "https://clawhub.ai/scikkk/video-narrator", "iconUrl": null, "installs": 68, "name": "Video Narrator", "ownerName": "scikkk", "score": 92758.62068965517, "slug": "video-narrator", "source": "clawhub", "stars": 0, "tags": null, "updated_at": 1776748844931, "version": "1.0.1"}, {"category": "security-compliance", "created_at": 1772796311300, "description": "One click, always on. Zero extra API calls. Neutralizes prompt injection the moment it arrives. Never interrupts your work. No setup, no code required.", "description_zh": "", "downloads": 269, "homepage": "https://clawhub.ai/tatlantis/armarius", "iconUrl": null, "installs": 6, "name": "Armarius - Prompt Injection Blocker", "ownerName": "tatlantis", "score": 92758.62068965517, "slug": "armarius", "source": "clawhub", "stars": 0, "tags": ["agents", "always-on", "cryptography", "langchain", "prevention", "prompt-injection", "protection", "security"], "updated_at": 1776748844836, "version": "1.1.0"}, {"category": "ai-intelligence", "created_at": 1772803301759, "description": "Add AI-powered error monitoring and auto-fix generation to any project", "description_zh": "", "downloads": 269, "homepage": "https://clawhub.ai/hankmint/autoheal", "iconUrl": null, "installs": 22, "name": "AutoHeal AI", "ownerName": "hankmint", "score": 85396.8253968254, "slug": "autoheal", "source": "clawhub", "stars": 0, "tags": null, "updated_at": 1776748844751, "version": "1.0.0"}, {"category": "productivity", "created_at": 1773066066148, "description": "Track expenses and income with multi-backend storage (local/Notion/Google Sheet/Supabase). Credentials are encrypted with AES-256-GCM. Use when user wants to...", "description_zh": "", "downloads": 269, "homepage": "https://clawhub.ai/codeblackhole1024/expense-tracker-v2", "iconUrl": null, "installs": 39, "name": "Expense Tracker v2", "ownerName": "codeblackhole1024", "score": 85668.7898089172, "slug": "expense-tracker-v2", "source": "clawhub", "stars": 0, "tags": null, "updated_at": 1776748844614, "version": "1.1.0"}, {"category": "developer-tools", "created_at": 1773073747257, "description": "Builds and manages structures in Structs. Handles construction, activation, deactivation, movement, defense positioning, stealth, and generator infusion. Use...", "description_zh": "", "downloads": 269, "homepage": "https://clawhub.ai/abstrct/structs-building", "iconUrl": null, "installs": 14, "name": "Structs Building", "ownerName": "abstrct", "score": 92123.28767123287, "slug": "structs-building", "source": "clawhub", "stars": 0, "tags": null, "updated_at": 1776748844566, "version": "1.1.0"}, {"category": "data-analysis", "created_at": 1772802681537, "description": "Performs GO (Gene Ontology) and KEGG pathway enrichment analysis on gene lists. Trigger when: - User provides a list of genes (symbols or IDs) and asks for e...", "description_zh": "", "downloads": 269, "homepage": "https://clawhub.ai/aipoch-ai/go-kegg-enrichment", "iconUrl": null, "installs": 21, "name": "GO/KEGG Enrichment", "ownerName": "aipoch-ai", "score": 92123.28767123287, "slug": "go-kegg-enrichment", "source": "clawhub", "stars": 0, "tags": ["data-analysis", "enrichment analysis", "go/kegg"], "updated_at": 1776748844506, "version": "1.0.0"}, {"category": "productivity", "created_at": 1772805123179, "description": "Generate day-wise travel itineraries with timings, food spots, activities, and transport. Handles \"plan my trip\", \"make an itinerary\", revisions like \"swap d...", "description_zh": "", "downloads": 269, "homepage": "https://clawhub.ai/swayamg20/trip-plan", "iconUrl": null, "installs": 10, "name": "Trip Plan", "ownerName": "swayamg20", "score": 92123.28767123287, "slug": "trip-plan", "source": "clawhub", "stars": 0, "tags": null, "updated_at": 1776748844504, "version": "1.0.0"}, {"category": "data-analysis", "created_at": 1773089851608, "description": "Provide long-term memory persistence for AI agents with SQLite-backed storage, structured metadata, vector embeddings, semantic retrieval, lifecycle manageme...", "description_zh": "", "downloads": 269, "homepage": "https://clawhub.ai/imgolye/agent-memory-persistence", "iconUrl": null, "installs": 42, "name": "Agent Memory Persistence", "ownerName": "imgolye", "score": 94385.9649122807, "slug": "agent-memory-persistence", "source": "clawhub", "stars": 0, "tags": null, "updated_at": 1776748844461, "version": "0.1.0"}, {"category": "data-analysis", "created_at": 1773073128641, "description": "TrueNorth crypto market intelligence: technical analysis (RSI, MACD, Bollinger Bands), derivatives (funding rates, open interest), DeFi (TVL, fees), token pe...", "description_zh": "", "downloads": 268, "homepage": "https://clawhub.ai/truenorth-lj/truenorth", "iconUrl": null, "installs": 23, "name": "TrueNorth Crypto Intelligence", "ownerName": "truenorth-lj", "score": 92215.56886227545, "slug": "truenorth", "source": "clawhub", "stars": 2, "tags": null, "updated_at": 1776748845134, "version": "0.4.0"}, {"category": "data-analysis", "created_at": 1773065284693, "description": "Procurement and supplier management pack. Supplier sourcing, multi-criteria evaluation, TCO analysis, contract management, and supply chain risk monitoring....", "description_zh": "", "downloads": 268, "homepage": "https://clawhub.ai/romainsantoli-web/firm-suppliers-pack", "iconUrl": null, "installs": 27, "name": "Firm Suppliers Pack", "ownerName": "romainsantoli-web", "score": 86227.54491017964, "slug": "firm-suppliers-pack", "source": "clawhub", "stars": 1, "tags": null, "updated_at": 1776748845149, "version": "1.0.0"}, {"category": "data-analysis", "created_at": 1772800639538, "description": "Use when creating OpenClaw agents, configuring workspaces, multi-agent routing, session isolation, or channel bindings.", "description_zh": "", "downloads": 268, "homepage": "https://clawhub.ai/a12591771/openclaw-agent-builder", "iconUrl": null, "installs": 20, "name": "Openclaw Agent Builder", "ownerName": "a12591771", "score": 98293.51535836176, "slug": "openclaw-agent-builder", "source": "clawhub", "stars": 1, "tags": null, "updated_at": 1776748845026, "version": "0.1.0"}, {"category": "data-analysis", "created_at": 1773079357977, "description": "Build, install, update, and use a WhiteBIT trading guidance and training skill through ClawHub (clawhub.ai) for OpenClaw. Use when asked to manage WhiteBIT t...", "description_zh": "", "downloads": 268, "homepage": "https://clawhub.ai/zonder/whitebit", "iconUrl": null, "installs": 1, "name": "whitebit", "ownerName": "zonder", "score": 91428.57142857142, "slug": "whitebit", "source": "clawhub", "stars": 1, "tags": null, "updated_at": 1776748844766, "version": "1.0.4"}, {"category": "content-creation", "created_at": 1773286347168, "description": "Use PoYo AI Seedance 1.5 Pro for higher-end image-to-video generation through the `https://api.poyo.ai/api/generate/submit` endpoint. Use when a user wants l...", "description_zh": "", "downloads": 268, "homepage": "https://clawhub.ai/coolhackboy/seedance-2", "iconUrl": null, "installs": 97, "name": "Seedance 2.0 Video", "ownerName": "coolhackboy", "score": 10197.869101978691, "slug": "seedance-2", "source": "clawhub", "stars": 0, "tags": null, "updated_at": 1776764950748, "version": "1.0.0"}, {"category": "ai-intelligence", "created_at": 1773290476440, "description": "Transform AI agents from task-followers into proactive partners that anticipate needs and continuously improve. Now with WAL Protocol, Working Buffer, Autono...", "description_zh": "", "downloads": 268, "homepage": "https://clawhub.ai/eathon/proactive-agent-v2", "iconUrl": null, "installs": 88, "name": "Proactive Agent V2", "ownerName": "eathon", "score": 4429.752066115702, "slug": "proactive-agent-v2", "source": "clawhub", "stars": 0, "tags": null, "updated_at": 1776763150366, "version": "1.0.0"}, {"category": "ai-intelligence", "created_at": 1773284221017, "description": "Generates AI-powered hand-drawn style sketch notes by auto-searching and summarizing topics from Wikipedia and Baidu Baike in three artistic styles.", "description_zh": "", "downloads": 268, "homepage": "https://clawhub.ai/east5ringroad-kyle/pollinations-sketch-note", "iconUrl": null, "installs": 36, "name": "pollinations-sketch-note", "ownerName": "east5ringroad-kyle", "score": 18306.01092896175, "slug": "pollinations-sketch-note", "source": "clawhub", "stars": 0, "tags": ["pollinations"], "updated_at": 1776759383129, "version": "0.0.1"}, {"category": "data-analysis", "created_at": 1773074842355, "description": "Query the PolyOx API for NBA data, Polymarket predictions, and AI matchup analysis. The analysis endpoint uses the x402 payment protocol (USDC on Base Sepolia).", "description_zh": "", "downloads": 268, "homepage": "https://clawhub.ai/jambocoder159/polyox-nba", "iconUrl": null, "installs": 15, "name": "Query the PolyOx API for NBA data, Polymarket predictions, and   AI matchup analysis. The analysis endpoint uses the x402 payment   protocol (USDC on Base Sepolia).", "ownerName": "jambocoder159", "score": 20120.12012012012, "slug": "polyox-nba", "source": "clawhub", "stars": 0, "tags": null, "updated_at": 1776759383039, "version": "0.2.0"}, {"category": "developer-tools", "created_at": 1772794591358, "description": "Send real postal mail through PostalForm using machine payments: prepare/validate print-and-mail payloads, submit `POST /api/machine/orders`, settle x402 pay...", "description_zh": "", "downloads": 268, "homepage": "https://clawhub.ai/ggaabe/postalform-agent-mailing", "iconUrl": null, "installs": 11, "name": "Send real Document in the Mail via PostalForm", "ownerName": "ggaabe", "score": 1562.5, "slug": "postalform-agent-mailing", "source": "clawhub", "stars": 0, "tags": null, "updated_at": 1776759382382, "version": "1.0.0"}, {"category": "ai-intelligence", "created_at": 1773076411169, "description": "Manage a Hedera wallet for AI agents to receive payments, pay for services, verify identity on-chain, and hold tokens securely.", "description_zh": "", "downloads": 268, "homepage": "https://clawhub.ai/imaflytok/clawswarm-wallet", "iconUrl": null, "installs": 25, "name": "ClawSwarm Agent Wallet", "ownerName": "imaflytok", "score": 20272.31467473525, "slug": "clawswarm-wallet", "source": "clawhub", "stars": 0, "tags": null, "updated_at": 1776759382364, "version": "1.0.0"}, {"category": "productivity", "created_at": 1772804674965, "description": "Generate publication-quality academic diagrams, methodology figures, architecture illustrations, and statistical plots from text descriptions using the Paper...", "description_zh": "", "downloads": 268, "homepage": "https://clawhub.ai/goatinahat/openclaw-paperbanana", "iconUrl": null, "installs": 34, "name": "Paperbanana", "ownerName": "goatinahat", "score": 47942.7549194991, "slug": "openclaw-paperbanana", "source": "clawhub", "stars": 0, "tags": null, "updated_at": 1776751572025, "version": "0.1.1"}, {"category": "developer-tools", "created_at": 1773074527026, "description": "Automate macOS tasks by composing and executing Automator workflows through automator CLI and AppleScript control.", "description_zh": "", "downloads": 268, "homepage": "https://clawhub.ai/ivangdavila/automator", "iconUrl": null, "installs": 12, "name": "macOS Automator", "ownerName": "ivangdavila", "score": 94035.08771929824, "slug": "automator", "source": "clawhub", "stars": 0, "tags": null, "updated_at": 1776748845211, "version": "1.0.0"}]}