{"page": 263, "total_pages": 522, "total": 26073, "skills": [{"category": "developer-tools", "created_at": 1773858591277, "description": "Reference tool for devtools — covers intro, quickstart, patterns and more. Quick lookup for Capistrano concepts, best practices, and implementation patterns.", "description_zh": "", "downloads": 268, "homepage": "https://clawhub.ai/xueyetianya/capistrano", "iconUrl": null, "installs": 3, "name": "Capistrano", "ownerName": "xueyetianya", "score": 94035.08771929824, "slug": "capistrano", "source": "clawhub", "stars": 0, "tags": null, "updated_at": 1776748845170, "version": "3.0.2"}, {"category": "data-analysis", "created_at": 1773061560390, "description": "OpenClaw Skills Weekly — tracks trending ClawHub skills, generates GitHubAwesome-style YouTube video scripts with two-track ranking (Movers + Rockets).", "description_zh": "", "downloads": 268, "homepage": "https://clawhub.ai/ademczuk/skillmetricscraper", "iconUrl": null, "installs": 19, "name": "SkillMetricScraper", "ownerName": "ademczuk", "score": 80239.52095808383, "slug": "skillmetricscraper", "source": "clawhub", "stars": 0, "tags": ["analytics", "reddit", "remotion", "time-series", "trending", "youtube"], "updated_at": 1776748845079, "version": "1.3.0"}, {"category": "ai-intelligence", "created_at": 1773285590829, "description": "Local speech-to-text with the Whisper CLI (no API key).", "description_zh": "", "downloads": 268, "homepage": "https://clawhub.ai/wingchiu/openai-whisper-local", "iconUrl": null, "installs": 74, "name": "OpenAI Whisper Local", "ownerName": "wingchiu", "score": 80239.52095808383, "slug": "openai-whisper-local", "source": "clawhub", "stars": 0, "tags": null, "updated_at": 1776748845057, "version": "1.0.0"}, {"category": "communication-collaboration", "created_at": 1773057847371, "description": "Track bathroom events (pee/poop) via chat: start time, duration, color, pain, and Bristol stool scale. Generates weekly summaries and optional constipation r...", "description_zh": "", "downloads": 268, "homepage": "https://clawhub.ai/herve-clawd/excretion-tracker", "iconUrl": null, "installs": 12, "name": "Excretion Tracker", "ownerName": "herve-clawd", "score": 92413.79310344828, "slug": "excretion-tracker", "source": "clawhub", "stars": 0, "tags": null, "updated_at": 1776748844899, "version": "0.4.1"}, {"category": "productivity", "created_at": 1772796029294, "description": "Teaches how to play KrumpKraft with EVVM payments, USDC.k and $IP. Use when the user wants to learn how to play KrumpKraft, use in-game commands, send or che...", "description_zh": "", "downloads": 268, "homepage": "https://clawhub.ai/arunnadarasa/krumpkraft", "iconUrl": null, "installs": 9, "name": "KrumpKraft Play", "ownerName": "arunnadarasa", "score": 92413.79310344828, "slug": "krumpkraft", "source": "clawhub", "stars": 0, "tags": null, "updated_at": 1776748844864, "version": "0.1.0"}, {"category": "developer-tools", "created_at": 1772802878128, "description": "Advanced web scraping with Scrapling — MCP-native guidance for extraction, crawling, and anti-bot handling. Use via mcporter (MCP) for execution; this skill...", "description_zh": "", "downloads": 268, "homepage": "https://clawhub.ai/cccccqqqqq/scrapling-yoo", "iconUrl": null, "installs": 20, "name": "Scrapling Yoo", "ownerName": "cccccqqqqq", "score": 92413.79310344828, "slug": "scrapling-yoo", "source": "clawhub", "stars": 0, "tags": null, "updated_at": 1776748844855, "version": "1.0.0"}, {"category": "data-analysis", "created_at": 1772797813160, "description": "Search domain name availability and registration prices. Use when the user mentions domains, TLDs, domain registration, domain availability, or wants to find...", "description_zh": "", "downloads": 268, "homepage": "https://clawhub.ai/tedstonne/dotld", "iconUrl": null, "installs": 12, "name": "dotld", "ownerName": "tedstonne", "score": 85350.31847133758, "slug": "dotld", "source": "clawhub", "stars": 0, "tags": null, "updated_at": 1776748844652, "version": "1.0.1"}, {"category": "developer-tools", "created_at": 1772799961577, "description": "Auto-recovery watchdog for OpenClaw gateway. Monitors health, detects bad config changes, and recovers via git stash/revert. Supports native and Docker resta...", "description_zh": "", "downloads": 268, "homepage": "https://clawhub.ai/jarvis4wang/watchclaw", "iconUrl": null, "installs": 8, "name": "WatchClaw", "ownerName": "jarvis4wang", "score": 91780.82191780822, "slug": "watchclaw", "source": "clawhub", "stars": 0, "tags": null, "updated_at": 1776748844581, "version": "1.0.0"}, {"category": "content-creation", "created_at": 1772798471792, "description": "Content moderation and safety checks. Instantly classify text or images as safe or unsafe using AI guardrails.", "description_zh": "", "downloads": 268, "homepage": "https://clawhub.ai/aimlapihello/aiml-safety", "iconUrl": null, "installs": 18, "name": "AIML Сontent Moderation", "ownerName": "aimlapihello", "score": 91780.82191780822, "slug": "aiml-safety", "source": "clawhub", "stars": 0, "tags": null, "updated_at": 1776748844530, "version": "1.0.0"}, {"category": "security-compliance", "created_at": 1772798829227, "description": "Squarespace Commerce API integration with managed OAuth. Manage products, inventory, orders, customer profiles, and transactions. Use this skill when users w...", "description_zh": "", "downloads": 268, "homepage": "https://clawhub.ai/byungkyu/squarespace", "iconUrl": null, "installs": 3, "name": "Squarespace", "ownerName": "byungkyu", "score": 91780.82191780822, "slug": "squarespace", "source": "clawhub", "stars": 0, "tags": null, "updated_at": 1776748844522, "version": "1.0.0"}, {"category": "productivity", "created_at": 1773061503270, "description": "Intelligent memory layer for Clawdbot using Mem0. Provides semantic search and automatic storage of user preferences, patterns, and context across conversati...", "description_zh": "", "downloads": 268, "homepage": "https://clawhub.ai/sieyer/mem0-1-0-0", "iconUrl": null, "installs": 15, "name": "Mem0 1.0.0", "ownerName": "sieyer", "score": 92096.21993127147, "slug": "mem0-1-0-0", "source": "clawhub", "stars": 0, "tags": null, "updated_at": 1776748844392, "version": "1.0.0"}, {"category": "ai-intelligence", "created_at": 1773064480945, "description": "Provides persistent, searchable AI agent memory with real-time capture, vector search, and nightly LLM curation for long-term recall on local hardware.", "description_zh": "", "downloads": 267, "homepage": "https://clawhub.ai/jtil4201/openclaw-advanced-memory", "iconUrl": null, "installs": 29, "name": "OpenClaw Advanced Memory", "ownerName": "jtil4201", "score": 21449.925261584453, "slug": "openclaw-advanced-memory", "source": "clawhub", "stars": 1, "tags": ["memory", "ollama", "qdrant", "redis", "vector-search"], "updated_at": 1776759257805, "version": "1.0.0"}, {"category": "data-analysis", "created_at": 1773429664805, "description": "Analyze Binance USDT-margined perpetual futures symbols with public futures market data only and return a structured market analysis report with a clear BUY,...", "description_zh": "", "downloads": 267, "homepage": "https://clawhub.ai/wqyblue3316/binance-futures-alpha-radar", "iconUrl": null, "installs": 60, "name": "Binance Futures Alpha Radar", "ownerName": "wqyblue3316", "score": 14957.98319327731, "slug": "binance-futures-alpha-radar", "source": "clawhub", "stars": 0, "tags": ["binance", "binance futures", "crypto trading", "long short", "market analysis", "perpetuals", "risk management", "strategy signals", "support resistance", "technical analysis"], "updated_at": 1776765010412, "version": "1.0.0"}, {"category": "developer-tools", "created_at": 1772799972186, "description": "Command-line tool for performing system updates, restarting systemd services, and checking OS status with elevated privileges.", "description_zh": "", "downloads": 267, "homepage": "https://clawhub.ai/fabglitch/admin-cli", "iconUrl": null, "installs": 5, "name": "Admin Cli", "ownerName": "fabglitch", "score": 96389.89169675091, "slug": "admin-cli", "source": "clawhub", "stars": 0, "tags": null, "updated_at": 1776759383115, "version": "1.0.0"}, {"category": "data-analysis", "created_at": 1773067941440, "description": "Analyzes Hong Kong leveraged ETFs by evaluating holdings, price deviation, liquidity risks, and provides rebalancing timing, arbitrage opportunities, and ris...", "description_zh": "", "downloads": 267, "homepage": "https://clawhub.ai/wuzimaki/hk-leetf", "iconUrl": null, "installs": 18, "name": "Hk LeETF", "ownerName": "wuzimaki", "score": 1492.8711210511601, "slug": "hk-leetf", "source": "clawhub", "stars": 0, "tags": null, "updated_at": 1776759382697, "version": "1.0.0"}, {"category": "data-analysis", "created_at": 1773076899317, "description": "Automatically converts raw long conversations into structured, themed Markdown knowledge cards with source traceability, running incrementally and silently i...", "description_zh": "", "downloads": 267, "homepage": "https://clawhub.ai/mashirops/auto-memory-distiller", "iconUrl": null, "installs": 23, "name": "Auto Memory Distiller", "ownerName": "mashirops", "score": 20135.746606334844, "slug": "auto-memory-distiller", "source": "clawhub", "stars": 0, "tags": null, "updated_at": 1776759382633, "version": "1.0.0"}, {"category": "security-compliance", "created_at": 1772802039215, "description": "Sanitize email and calendar content before it reaches your AI agent's context window. Blocks prompt injection, markdown image exfiltration, invisible unicode...", "description_zh": "", "downloads": 267, "homepage": "https://clawhub.ai/discodaddy/agent-mail-guard", "iconUrl": null, "installs": 5, "name": "Agent Mail Guard — Email Sanitizer for AI Agents", "ownerName": "discodaddy", "score": 1556.669776119403, "slug": "agent-mail-guard", "source": "clawhub", "stars": 0, "tags": ["email", "openclaw", "prompt-injection", "sanitizer", "security"], "updated_at": 1776759382419, "version": "1.4.0"}, {"category": "data-analysis", "created_at": 1773079051427, "description": "Native video analysis using Google Gemini API. Upload and analyze video files — describe scenes, extract text/UI, answer questions about content, transcribe...", "description_zh": "", "downloads": 267, "homepage": "https://clawhub.ai/aiwithabidi/gemini-video-analyzer", "iconUrl": null, "installs": 33, "name": "Gemini Video Analyzer", "ownerName": "aiwithabidi", "score": 15789.473684210525, "slug": "gemini-video-analyzer", "source": "clawhub", "stars": 0, "tags": null, "updated_at": 1776756188457, "version": "1.0.0"}, {"category": "developer-tools", "created_at": 1773202324317, "description": "Browser automation via remote Playwright WebSocket server for screenshots, PDFs and testing.", "description_zh": "", "downloads": 267, "homepage": "https://clawhub.ai/first-it-consulting/playwright-ws", "iconUrl": null, "installs": 30, "name": "Playwright WS", "ownerName": "first-it-consulting", "score": 14614.121510673234, "slug": "playwright-ws", "source": "clawhub", "stars": 0, "tags": null, "updated_at": 1776754688588, "version": "1.0.0"}, {"category": "ai-intelligence", "created_at": 1773089465376, "description": "Simulate a realistic AI girlfriend with affectionate conversation, romantic memory, emotional attunement, and grounded boundaries.", "description_zh": "", "downloads": 267, "homepage": "https://clawhub.ai/ivangdavila/girlfriend", "iconUrl": null, "installs": 25, "name": "Girlfriend", "ownerName": "ivangdavila", "score": 79940.11976047905, "slug": "girlfriend", "source": "clawhub", "stars": 0, "tags": null, "updated_at": 1776748845161, "version": "1.0.0"}, {"category": "data-analysis", "created_at": 1773061326068, "description": "Autonomous optimizer skill for Wesley — reads Binance trading performance every 6 hours, analyzes win rate and strategy metrics, then safely tunes executor.p...", "description_zh": "", "downloads": 267, "homepage": "https://clawhub.ai/georges91560/crypto-executor-optimizer", "iconUrl": null, "installs": 24, "name": "Crypto Executor Optimizer", "ownerName": "georges91560", "score": 79940.11976047905, "slug": "crypto-executor-optimizer", "source": "clawhub", "stars": 0, "tags": null, "updated_at": 1776748845118, "version": "1.0.3"}, {"category": "content-creation", "created_at": 1772804245152, "description": "Generates structured, argument-driven book manuscript sections using modular 800--1000 word conceptual units.", "description_zh": "", "downloads": 267, "homepage": "https://clawhub.ai/eithyhe/bookwriter", "iconUrl": null, "installs": 19, "name": "book_writer", "ownerName": "eithyhe", "score": 79940.11976047905, "slug": "bookwriter", "source": "clawhub", "stars": 0, "tags": null, "updated_at": 1776748845041, "version": "1.0.0"}, {"category": "communication-collaboration", "created_at": 1772803627155, "description": "Format text for Discord using markdown syntax. Use when composing Discord messages, bot responses, embed descriptions, forum posts, webhook payloads, or any...", "description_zh": "", "downloads": 267, "homepage": "https://clawhub.ai/billchirico/discord-markdown", "iconUrl": null, "installs": 9, "name": "Discord Markdown", "ownerName": "billchirico", "score": 92068.96551724138, "slug": "discord-markdown", "source": "clawhub", "stars": 0, "tags": null, "updated_at": 1776748844909, "version": "1.0.0"}, {"category": "productivity", "created_at": 1772804734384, "description": "Search for flights, hotels, and travel packages with real prices and booking links. Handles \"find flights\", \"hotels in X\", \"cheapest way to reach X\". Tracks...", "description_zh": "", "downloads": 267, "homepage": "https://clawhub.ai/swayamg20/trip-search", "iconUrl": null, "installs": 31, "name": "Trip Search", "ownerName": "swayamg20", "score": 92068.96551724138, "slug": "trip-search", "source": "clawhub", "stars": 0, "tags": null, "updated_at": 1776748844811, "version": "1.0.0"}, {"category": "ai-intelligence", "created_at": 1772799130346, "description": "EPA air quality data and HUD foreclosure listings. 2 tools for environmental and housing intelligence.", "description_zh": "", "downloads": 267, "homepage": "https://clawhub.ai/martc03/gov-environment", "iconUrl": null, "installs": 12, "name": "Gov Environment", "ownerName": "martc03", "score": 84761.90476190476, "slug": "gov-environment", "source": "clawhub", "stars": 0, "tags": null, "updated_at": 1776748844796, "version": "1.0.0"}, {"category": "ai-intelligence", "created_at": 1773075007703, "description": "Manage and maintain memory system using the Root + PARA hybrid architecture. Use when performing memory maintenance, distilling daily logs, and updating core...", "description_zh": "", "downloads": 267, "homepage": "https://clawhub.ai/hugo-zhu/memory-para", "iconUrl": null, "installs": 23, "name": "Memory Management (PARA)", "ownerName": "hugo-zhu", "score": 84761.90476190476, "slug": "memory-para", "source": "clawhub", "stars": 0, "tags": null, "updated_at": 1776748844768, "version": "1.0.0"}, {"category": "data-analysis", "created_at": 1772797577545, "description": "Instantly check if a file, URL, domain, or IP is malicious using VirusTotal. Paste any MD5/SHA1/SHA256 hash, URL, domain name, or IP address into the chat an...", "description_zh": "", "downloads": 267, "homepage": "https://clawhub.ai/bryan-project/vt-hash-intel", "iconUrl": null, "installs": 14, "name": "VirusTotal Hash Analyzer", "ownerName": "bryan-project", "score": 84761.90476190476, "slug": "vt-hash-intel", "source": "clawhub", "stars": 0, "tags": null, "updated_at": 1776748844764, "version": "1.0.2"}, {"category": "content-creation", "created_at": 1773075873634, "description": "Operate Notion workspace content through Notion MCP using the UXC CLI, including search, fetch, users/teams lookup, page/database creation and updates, and c...", "description_zh": "", "downloads": 267, "homepage": "https://clawhub.ai/jolestar/notion-mcp-skill", "iconUrl": null, "installs": 48, "name": "Notion Mcp Skill", "ownerName": "jolestar", "score": 84761.90476190476, "slug": "notion-mcp-skill", "source": "clawhub", "stars": 0, "tags": null, "updated_at": 1776748844715, "version": "1.0.1"}, {"category": "", "created_at": 1774808030744, "description": "Analyze football and soccer matches, squads, players, and training plans with tactical frameworks, scouting grids, and session blueprints.", "description_zh": "", "downloads": 267, "homepage": "https://clawhub.ai/ivangdavila/football", "iconUrl": null, "installs": 78, "name": "Football", "ownerName": "ivangdavila", "score": 84761.90476190476, "slug": "football", "source": "clawhub", "stars": 0, "tags": null, "updated_at": 1776748844710, "version": "1.0.0"}, {"category": "productivity", "created_at": 1773073125452, "description": "Recall user memories from the Notion Memory Store. Trigger PROACTIVELY at the beginning of conversations where knowing the user's background, preferences, pa...", "description_zh": "", "downloads": 267, "homepage": "https://clawhub.ai/smilelight/recall-from-notion", "iconUrl": null, "installs": 22, "name": "recall-from-notion", "ownerName": "smilelight", "score": 85031.84713375797, "slug": "recall-from-notion", "source": "clawhub", "stars": 0, "tags": null, "updated_at": 1776748844667, "version": "1.0.3"}, {"category": "security-compliance", "created_at": 1773284620798, "description": "Connect to Meegle via MCP service, support OAuth authentication, and enable querying and managing work items, views, etc.", "description_zh": "", "downloads": 267, "homepage": "https://clawhub.ai/wadxm/meegle-connector", "iconUrl": null, "installs": 2, "name": "Meegle Connector", "ownerName": "wadxm", "score": 91438.35616438356, "slug": "meegle-connector", "source": "clawhub", "stars": 0, "tags": null, "updated_at": 1776748844590, "version": "1.0.9"}, {"category": "security-compliance", "created_at": 1772803991911, "description": "Audit and optimize brand messaging to improve how AI platforms portray your brand. Fix negative AI sentiment signals and strengthen positive brand associatio...", "description_zh": "", "downloads": 267, "homepage": "https://clawhub.ai/geoly-geo/geo-sentiment-optimizer", "iconUrl": null, "installs": 17, "name": "Brand Sentiment Optimizer", "ownerName": "geoly-geo", "score": 91438.35616438356, "slug": "geo-sentiment-optimizer", "source": "clawhub", "stars": 0, "tags": ["brand-voice", "geo", "sentiment"], "updated_at": 1776748844567, "version": "1.0.0"}, {"category": "productivity", "created_at": 1773080547339, "description": "Search 24+ airline loyalty programs for award space with miles cost, seat availability, and jetlag scores", "description_zh": "", "downloads": 267, "homepage": "https://clawhub.ai/kurosh87/aerobase-flight-awards", "iconUrl": null, "installs": 10, "name": "Aerobase Flight Awards", "ownerName": "kurosh87", "score": 93684.21052631579, "slug": "aerobase-flight-awards", "source": "clawhub", "stars": 0, "tags": null, "updated_at": 1776748844493, "version": "3.0.2"}, {"category": "developer-tools", "created_at": 1773221718314, "description": "A complete PhD research lifecycle management system tailored for computer science doctoral students. Supports literature survey (arXiv/DBLP/ACM/IEEE search &...", "description_zh": "", "downloads": 266, "homepage": "https://clawhub.ai/yue123161/phd-research-companion", "iconUrl": null, "installs": 49, "name": "phd-research-companion", "ownerName": "yue123161", "score": 8893.034825870647, "slug": "phd-research-companion", "source": "clawhub", "stars": 1, "tags": null, "updated_at": 1776764650116, "version": "1.0.2"}, {"category": "developer-tools", "created_at": 1773425707712, "description": "Control TP-Link Tapo smart home devices (lights, plugs, strips) via [Tapo MCP](https://github.com/mihai-dinculescu/tapo/tree/main/tapo-mcp).", "description_zh": "", "downloads": 266, "homepage": "https://clawhub.ai/mihai-dinculescu/tapo", "iconUrl": null, "installs": 5, "name": "Tapo", "ownerName": "mihai-dinculescu", "score": 97610.92150170649, "slug": "tapo", "source": "clawhub", "stars": 1, "tags": ["iot", "mcporter", "smart-home", "tapo"], "updated_at": 1776748845020, "version": "0.2.0"}, {"category": "developer-tools", "created_at": 1772797579364, "description": "Create and implement new features in Chief-managed projects using the Chief CLI. Use when asked to create a new PRD, implement a feature with Chief, set up a...", "description_zh": "", "downloads": 266, "homepage": "https://clawhub.ai/nogara/chief-feature", "iconUrl": null, "installs": 6, "name": "Chief Feature Workflow", "ownerName": "nogara", "score": 90793.6507936508, "slug": "chief-feature", "source": "clawhub", "stars": 1, "tags": ["ai-dev", "chief", "feature", "git", "prd", "workflow"], "updated_at": 1776748844773, "version": "1.0.2"}, {"category": "developer-tools", "created_at": 1773430466126, "description": "Convert HTML to Markdown or Markdown to HTML, including file, URL, and batch modes with readability cleanup, metadata frontmatter, reports, and themed HTML o...", "description_zh": "", "downloads": 266, "homepage": "https://clawhub.ai/wangziiiiii/html-to-markdown", "iconUrl": null, "installs": 58, "name": "HTML to Markdown", "ownerName": "wangziiiiii", "score": 2368.4444840174515, "slug": "html-to-markdown", "source": "clawhub", "stars": 0, "tags": null, "updated_at": 1776767350075, "version": "1.1.2"}, {"category": "content-creation", "created_at": 1773091664062, "description": "Generate SVG images using text LLM instead of image generation APIs. Use when user wants to create illustrations, icons, cartoons, diagrams, or any visual co...", "description_zh": "", "downloads": 266, "homepage": "https://clawhub.ai/juliantsaiii/svg-artist", "iconUrl": null, "installs": 45, "name": "SVG Artist", "ownerName": "juliantsaiii", "score": 2590.5726529022204, "slug": "svg-artist", "source": "clawhub", "stars": 0, "tags": null, "updated_at": 1776766150290, "version": "1.0.0"}, {"category": "developer-tools", "created_at": 1773075885625, "description": "Configure rotating residential proxies for web scraping and browser automation. Bypass Cloudflare, CAPTCHAs, rate limits, and IP bans. Auto-detect blocking a...", "description_zh": "", "downloads": 266, "homepage": "https://clawhub.ai/luis2404123/proxy-setup", "iconUrl": null, "installs": 12, "name": "Proxy Setup", "ownerName": "luis2404123", "score": 2134.3175800369095, "slug": "proxy-setup", "source": "clawhub", "stars": 0, "tags": null, "updated_at": 1776766150112, "version": "1.0.0"}, {"category": "productivity", "created_at": 1772802116531, "description": "One-word trigger for next bus arrival to your destination", "description_zh": "", "downloads": 266, "homepage": "https://clawhub.ai/abhayjb/buslah", "iconUrl": null, "installs": 5, "name": "BusLah - Singapore Bus Arrivals", "ownerName": "abhayjb", "score": 96028.88086642599, "slug": "buslah", "source": "clawhub", "stars": 0, "tags": null, "updated_at": 1776759382990, "version": "1.0.0"}, {"category": "ai-intelligence", "created_at": 1772798023752, "description": "Teaches agents how to create, structure, and publish skills by guiding through topic selection, writing SKILL.md, trigger phrases, and advanced strategies.", "description_zh": "", "downloads": 266, "homepage": "https://clawhub.ai/potdealer/how-to-skill", "iconUrl": null, "installs": 18, "name": "How To Skill", "ownerName": "potdealer", "score": 1487.279843444227, "slug": "how-to-skill", "source": "clawhub", "stars": 0, "tags": null, "updated_at": 1776759382726, "version": "1.0.0"}, {"category": "developer-tools", "created_at": 1773091269517, "description": "Browser automation for AI agents using PinchTab. Control Chrome programmatically for testing, scraping, and interaction. Features token-efficient text extrac...", "description_zh": "", "downloads": 266, "homepage": "https://clawhub.ai/huamu668/browser-automation-pin", "iconUrl": null, "installs": 35, "name": "Browser Automation", "ownerName": "huamu668", "score": 20105.820105820105, "slug": "browser-automation-pin", "source": "clawhub", "stars": 0, "tags": ["automation", "browser", "testing"], "updated_at": 1776759382499, "version": "1.0.0"}, {"category": "productivity", "created_at": 1772803929421, "description": "Monitor trading bot health by detecting stalls, verifying LIVE status and data freshness, restarting safely if needed, and summarizing status clearly.", "description_zh": "", "downloads": 266, "homepage": "https://clawhub.ai/motivationationdaily/tradebot-ops", "iconUrl": null, "installs": 14, "name": "Tradebot Ops", "ownerName": "motivationationdaily", "score": 2202.1690537296136, "slug": "tradebot-ops", "source": "clawhub", "stars": 0, "tags": null, "updated_at": 1776759382141, "version": "1.0.0"}, {"category": "productivity", "created_at": 1773067039129, "description": "Control Music Assistant (Home Assistant music server) - playback, volume, queue management, and library search. Use when user wants to play/pause music, skip...", "description_zh": "", "downloads": 266, "homepage": "https://clawhub.ai/rodrigosiviero/music-assistant", "iconUrl": null, "installs": 13, "name": "Music Assistant", "ownerName": "rodrigosiviero", "score": 17040.35874439462, "slug": "music-assistant", "source": "clawhub", "stars": 0, "tags": null, "updated_at": 1776757582215, "version": "1.0.3"}, {"category": "ai-intelligence", "created_at": 1772804689729, "description": "Secure agent-to-agent encrypted messaging via the Pinch protocol. Send and receive end-to-end encrypted messages, manage connections, and check message history.", "description_zh": "", "downloads": 266, "homepage": "https://clawhub.ai/ai-headhunter/pinch", "iconUrl": null, "installs": 13, "name": "Pinch: Claw to Claw Encrypted Messaging", "ownerName": "ai-headhunter", "score": 49350.64935064935, "slug": "pinch", "source": "clawhub", "stars": 0, "tags": null, "updated_at": 1776752744571, "version": "1.0.0"}, {"category": "productivity", "created_at": 1773078724832, "description": "Manage Google Keep notes.", "description_zh": "", "downloads": 266, "homepage": "https://clawhub.ai/googleworkspace-bot/gws-keep", "iconUrl": null, "installs": 19, "name": "Gws Keep", "ownerName": "googleworkspace-bot", "score": 93333.33333333333, "slug": "gws-keep", "source": "clawhub", "stars": 0, "tags": null, "updated_at": 1776748845207, "version": "1.0.0"}, {"category": "content-creation", "created_at": 1773080076333, "description": "Plan, launch, and optimize digital marketing with growth marketing systems, short-form video, funnel operations, and revenue-focused experimentation.", "description_zh": "", "downloads": 266, "homepage": "https://clawhub.ai/ivangdavila/digital-marketing", "iconUrl": null, "installs": 30, "name": "Digital Marketing", "ownerName": "ivangdavila", "score": 90784.98293515357, "slug": "digital-marketing", "source": "clawhub", "stars": 0, "tags": null, "updated_at": 1776748845004, "version": "1.0.0"}, {"category": "communication-collaboration", "created_at": 1773073190754, "description": "Provide AI agents with permanent email identities using Sinkron CLI and Python SDK. Requires SINKRON_TOKEN (self-issued by the Sinkron backend via `sinkron r...", "description_zh": "", "downloads": 266, "homepage": "https://clawhub.ai/zororaka00/sinkron", "iconUrl": null, "installs": 11, "name": "Sinkron", "ownerName": "zororaka00", "score": 90784.98293515357, "slug": "sinkron", "source": "clawhub", "stars": 0, "tags": ["api", "automation", "cli", "email", "sinkron"], "updated_at": 1776748844971, "version": "1.0.7"}, {"category": "developer-tools", "created_at": 1772793337637, "description": "Publish Zenn articles by managing Markdown in a GitHub-connected repository (push/PR -> merge) and previewing with Zenn CLI.", "description_zh": "", "downloads": 266, "homepage": "https://clawhub.ai/tachi-koma-x/zenn", "iconUrl": null, "installs": 6, "name": "zenn", "ownerName": "tachi-koma-x", "score": 91724.13793103448, "slug": "zenn", "source": "clawhub", "stars": 0, "tags": null, "updated_at": 1776748844905, "version": "0.0.1"}, {"category": "productivity", "created_at": 1773075301673, "description": "A stateful, neuro-inspired thinking framework. Guides you through excavation, architecture, and synthesis phases for complex problem-solving.", "description_zh": "", "downloads": 266, "homepage": "https://clawhub.ai/bruno-nimbledev/deepthinking", "iconUrl": null, "installs": 21, "name": "DeepThinking Framework", "ownerName": "bruno-nimbledev", "score": 91724.13793103448, "slug": "deepthinking", "source": "clawhub", "stars": 0, "tags": null, "updated_at": 1776748844903, "version": "1.0.3"}]}