{"page": 264, "total_pages": 522, "total": 26073, "skills": [{"category": "security-compliance", "created_at": 1773062018027, "description": "Test REST APIs with customizable headers, authentication, and request bodies. Use when debugging API endpoints, testing authentication flows, validating resp...", "description_zh": "", "downloads": 266, "homepage": "https://clawhub.ai/leonardodpanda/rest-api-tester", "iconUrl": null, "installs": 9, "name": "REST API Tester", "ownerName": "leonardodpanda", "score": 84713.37579617834, "slug": "rest-api-tester", "source": "clawhub", "stars": 0, "tags": null, "updated_at": 1776748844677, "version": "1.0.0"}, {"category": "ai-intelligence", "created_at": 1773075809956, "description": "The AEIF-based long-term memory hub for AI Agents to prevent repeating bugs.", "description_zh": "", "downloads": 266, "homepage": "https://clawhub.ai/404-unknow/engram-evomap", "iconUrl": null, "installs": 51, "name": "Engram Evomap - Long Term AI Memory", "ownerName": "404-unknow", "score": 91095.8904109589, "slug": "engram-evomap", "source": "clawhub", "stars": 0, "tags": null, "updated_at": 1776748844519, "version": "0.1.0"}, {"category": "ai-intelligence", "created_at": 1773079156318, "description": "Persistent memory system for AI agents — daily logs, long-term memory, identity files, and heartbeat-driven recall. Solves context amnesia across sessions.", "description_zh": "", "downloads": 266, "homepage": "https://clawhub.ai/clawdssen/memory-os", "iconUrl": null, "installs": 21, "name": "Memory OS", "ownerName": "clawdssen", "score": 93333.33333333333, "slug": "memory-os", "source": "clawhub", "stars": 0, "tags": null, "updated_at": 1776748844407, "version": "1.0.0"}, {"category": "ai-intelligence", "created_at": 1772799658232, "description": "Auto-generate document index tables (ADR, RFC, Pitfall, etc.) from file frontmatter. In real-world testing, hand-maintained indexes had a 62% error rate — ti...", "description_zh": "", "downloads": 266, "homepage": "https://clawhub.ai/erergb/auto-doc-index", "iconUrl": null, "installs": 17, "name": "Auto Doc Index", "ownerName": "erergb", "score": 91408.93470790378, "slug": "auto-doc-index", "source": "clawhub", "stars": 0, "tags": ["adr", "documentation", "dx", "multi-agent"], "updated_at": 1776748844394, "version": "1.2.0"}, {"category": "communication-collaboration", "created_at": 1773078890513, "description": "Manage macOS Calendar with OpenClaw in IM-first workflows (Telegram/Discord/Feishu/iMessage/Slack), including screenshot-to-schedule extraction, idempotent c...", "description_zh": "", "downloads": 265, "homepage": "https://clawhub.ai/bryant24hao/macos-calendar-assistant", "iconUrl": null, "installs": 19, "name": "macOS Calendar Assistant", "ownerName": "bryant24hao", "score": 4209.7998619737755, "slug": "macos-calendar-assistant", "source": "clawhub", "stars": 2, "tags": ["calendar", "idempotent", "im", "macos", "openclaw", "productivity", "schedule"], "updated_at": 1776769190529, "version": "1.0.0"}, {"category": "", "created_at": 1774780269120, "description": "Official Kling AI Skill. Call Kling AI for video generation, image generation, and subject management. Use subcommand video / image / element by user intent....", "description_zh": "", "downloads": 265, "homepage": "https://clawhub.ai/klingai-dev/klingai", "iconUrl": null, "installs": 14, "name": "Kling AI", "ownerName": "klingai-dev", "score": 4613.890237979602, "slug": "klingai", "source": "clawhub", "stars": 1, "tags": null, "updated_at": 1776765850056, "version": "1.0.5"}, {"category": "content-creation", "created_at": 1773899551776, "description": "Import sources (URLs, YouTube, files, text) into Google NotebookLM and generate user-selected artifacts: podcast, video, report, quiz, flashcards, mind map,...", "description_zh": "", "downloads": 265, "homepage": "https://clawhub.ai/jasontsaicc/notebooklm-studio", "iconUrl": null, "installs": 45, "name": "NotebookLM Studio", "ownerName": "jasontsaicc", "score": 4051.7486494171167, "slug": "notebooklm-studio", "source": "clawhub", "stars": 1, "tags": ["education", "google", "learning", "notebooklm", "podcast", "study"], "updated_at": 1776762850145, "version": "2.1.3"}, {"category": "communication-collaboration", "created_at": 1772797747688, "description": "Manage AI agent email accounts via AgentMail API. Create inboxes, send/receive/reply to emails, manage threads and attachments. Use for \"email\", \"agentmail\",...", "description_zh": "", "downloads": 265, "homepage": "https://clawhub.ai/flohiwg/agentmail-mcp-cli", "iconUrl": null, "installs": 10, "name": "AgentMail MCP CLI", "ownerName": "flohiwg", "score": 94059.40594059405, "slug": "agentmail-mcp-cli", "source": "clawhub", "stars": 1, "tags": ["ai-agents", "email", "inbox", "mcp"], "updated_at": 1776748847048, "version": "1.0.3"}, {"category": "ai-intelligence", "created_at": 1772799488388, "description": "Automatically reload AGENTS.md regularly to maintain fresh context, prevent session drift, and keep memory and tasks updated.", "description_zh": "", "downloads": 265, "homepage": "https://clawhub.ai/kentaroid-bot/agents-refresh", "iconUrl": null, "installs": 12, "name": "agents-refresh", "ownerName": "kentaroid-bot", "score": 95667.87003610109, "slug": "agents-refresh", "source": "clawhub", "stars": 0, "tags": null, "updated_at": 1776759383081, "version": "1.1.1"}, {"category": "security-compliance", "created_at": 1773073264147, "description": "Intelligent sensitive data detection and masking. Uses Microsoft Presidio + SQLite for automatic PII redaction with local restoration support.", "description_zh": "", "downloads": 265, "homepage": "https://clawhub.ai/stj001/sensitive-data-masker", "iconUrl": null, "installs": 11, "name": "Sensitive Data Masker", "ownerName": "stj001", "score": 19894.894894894896, "slug": "sensitive-data-masker", "source": "clawhub", "stars": 0, "tags": ["audited", "encrypted", "masking", "microsoft", "pii", "presidio", "privacy", "redaction", "required-encryption", "secure", "security"], "updated_at": 1776759382550, "version": "1.0.7"}, {"category": "ai-intelligence", "created_at": 1772804234627, "description": "Real-time Base chain alpha intelligence for ZHAO (CryptoZhaoX). Use when scanning Base memecoins for second-wave setups or early gem launches; checking GMGN...", "description_zh": "", "downloads": 265, "homepage": "https://clawhub.ai/a4205586/base-alpha-scanner", "iconUrl": null, "installs": 17, "name": "Base Alpha Scanner", "ownerName": "a4205586", "score": 87458.74587458746, "slug": "base-alpha-scanner", "source": "clawhub", "stars": 0, "tags": null, "updated_at": 1776748847037, "version": "1.0.0"}, {"category": "communication-collaboration", "created_at": 1772799264426, "description": "Multi-account email management skill for IMAP/SMTP. Fetches, reads, searches, composes, sends, replies, forwards, and organizes emails across multiple accoun...", "description_zh": "", "downloads": 265, "homepage": "https://clawhub.ai/borgcube/claw-mail", "iconUrl": null, "installs": 12, "name": "claw-mail", "ownerName": "borgcube", "score": 87458.74587458746, "slug": "claw-mail", "source": "clawhub", "stars": 0, "tags": null, "updated_at": 1776748847027, "version": "1.0.0"}, {"category": "productivity", "created_at": 1773076515014, "description": "Text-to-speech conversion using Python edge-tts for generating audio from text. Supports multiple voices, languages, speed adjustment, pitch control, and sub...", "description_zh": "", "downloads": 265, "homepage": "https://clawhub.ai/liuhedev/lh-edge-tts", "iconUrl": null, "installs": 10, "name": "LH Edge TTS", "ownerName": "liuhedev", "score": 92982.45614035087, "slug": "lh-edge-tts", "source": "clawhub", "stars": 0, "tags": null, "updated_at": 1776748847017, "version": "1.0.0"}, {"category": "ai-intelligence", "created_at": 1773060155723, "description": "Scan the internet for AI agent networks, hubs, and coordination platforms. Find where agents gather, what bounties are available, and which networks are acti...", "description_zh": "", "downloads": 265, "homepage": "https://clawhub.ai/imaflytok/agent-network-scanner", "iconUrl": null, "installs": 21, "name": "Agent Network Scanner", "ownerName": "imaflytok", "score": 92982.45614035087, "slug": "agent-network-scanner", "source": "clawhub", "stars": 0, "tags": null, "updated_at": 1776748847013, "version": "1.0.0"}, {"category": "content-creation", "created_at": 1772797736958, "description": "Download videos and get transcripts, summaries, or metadata from YouTube, TikTok, Instagram, and X (Twitter). Use when the user shares a video URL and wants...", "description_zh": "", "downloads": 265, "homepage": "https://clawhub.ai/nogara/video-intel", "iconUrl": null, "installs": 19, "name": "Video Intelligence", "ownerName": "nogara", "score": 92982.45614035087, "slug": "video-intel", "source": "clawhub", "stars": 0, "tags": ["instagram", "tiktok", "transcript", "video", "whisper", "youtube", "yt-dlp"], "updated_at": 1776748847009, "version": "1.0.1"}, {"category": "data-analysis", "created_at": 1772799413657, "description": "Session history system for OpenClaw — persistent, browsable, resumable chat sessions with SQLite index, archive/restore, migration, paginated UI, and chat dr...", "description_zh": "", "downloads": 265, "homepage": "https://clawhub.ai/maverick-software/session-history-enhancements", "iconUrl": null, "installs": 12, "name": "Session History Enhanced", "ownerName": "maverick-software", "score": 92982.45614035087, "slug": "session-history-enhancements", "source": "clawhub", "stars": 0, "tags": null, "updated_at": 1776748846993, "version": "1.0.1"}, {"category": "data-analysis", "created_at": 1773430879132, "description": "Use this skill for XCrawl search tasks, including keyword search request design, location and language controls, result analysis, and follow-up crawl or scra...", "description_zh": "", "downloads": 265, "homepage": "https://clawhub.ai/wykings/xcrawl-search", "iconUrl": null, "installs": 44, "name": "XCrawl Search", "ownerName": "wykings", "score": 92982.45614035087, "slug": "xcrawl-search", "source": "clawhub", "stars": 0, "tags": null, "updated_at": 1776748846991, "version": "1.0.2"}, {"category": "developer-tools", "created_at": 1773081759885, "description": "Manage Cloudflare Workers, KV, D1, R2, and secrets using the Wrangler CLI. Use when deploying workers, managing databases, storing objects, or configuring Cl...", "description_zh": "", "downloads": 265, "homepage": "https://clawhub.ai/itamarcoh3n/cloudflare-wrangler", "iconUrl": null, "installs": 13, "name": "Cloudflare Wrangler & Pages", "ownerName": "itamarcoh3n", "score": 92982.45614035087, "slug": "cloudflare-wrangler", "source": "clawhub", "stars": 0, "tags": null, "updated_at": 1776748845197, "version": "1.1.0"}, {"category": "data-analysis", "created_at": 1773283653126, "description": "AI face swap service - Use verging.ai AI face swap directly from command line. Supports local video files and images, remote video URLs (YouTube, Bilibili, e...", "description_zh": "", "downloads": 265, "homepage": "https://clawhub.ai/alouhaou/face-swap", "iconUrl": null, "installs": 26, "name": "face swap", "ownerName": "alouhaou", "score": 92982.45614035087, "slug": "face-swap", "source": "clawhub", "stars": 0, "tags": null, "updated_at": 1776748845188, "version": "1.0.3"}, {"category": "developer-tools", "created_at": 1772797670952, "description": "Dynamic expert routing system with 8 specialized agents for complex task delegation", "description_zh": "", "downloads": 265, "homepage": "https://clawhub.ai/sasamittrrr/master-orchestrator", "iconUrl": null, "installs": 5, "name": "Master Orchestrator", "ownerName": "sasamittrrr", "score": 92982.45614035087, "slug": "master-orchestrator", "source": "clawhub", "stars": 0, "tags": null, "updated_at": 1776748845173, "version": "1.0.0"}, {"category": "productivity", "created_at": 1772805367677, "description": "OpenClaw onboarding guide for new users. Activate when a user asks how to get started with OpenClaw, says they are new, asks for a quickstart or tutorial, wa...", "description_zh": "", "downloads": 265, "homepage": "https://clawhub.ai/heyuncoder/openclaw-quickstart", "iconUrl": null, "installs": 11, "name": "OpenClaw Quickstart", "ownerName": "heyuncoder", "score": 79341.31736526945, "slug": "openclaw-quickstart", "source": "clawhub", "stars": 0, "tags": null, "updated_at": 1776748845128, "version": "1.0.0"}, {"category": "ai-intelligence", "created_at": 1773065044556, "description": "Source, compare, and recommend travel transport options (bus/train/shuttle/taxi/private transfer) from user-provided trip constraints. Use for route planning...", "description_zh": "", "downloads": 265, "homepage": "https://clawhub.ai/austineyapp/travel-procurement", "iconUrl": null, "installs": 23, "name": "Travel Procurement", "ownerName": "austineyapp", "score": 90443.68600682594, "slug": "travel-procurement", "source": "clawhub", "stars": 0, "tags": null, "updated_at": 1776748844968, "version": "1.0.0"}, {"category": "security-compliance", "created_at": 1773286473459, "description": "AetherCore v3.3.4 - Security-focused final release. High-performance JSON optimization with universal smart indexing for all file types. All security review...", "description_zh": "", "downloads": 264, "homepage": "https://clawhub.ai/aetherclawai/aethercore", "iconUrl": null, "installs": 2, "name": "AetherCore v3.3", "ownerName": "aetherclawai", "score": 100000, "slug": "aethercore", "source": "clawhub", "stars": 1, "tags": ["cli", "compaction", "indexing", "intelligence", "json", "night-market", "optimization", "performance", "production-ready", "python", "safe", "security", "technical-serviceization"], "updated_at": 1776748855614, "version": "3.3.4"}, {"category": "security-compliance", "created_at": 1772804172647, "description": "Academic paper quality filtering agent with rigorous scoring system and comprehensive audit trail. Filters papers based on relevance and quality criteria for...", "description_zh": "", "downloads": 264, "homepage": "https://clawhub.ai/nomorecoding/quality-filter-research", "iconUrl": null, "installs": 32, "name": "Research Paper Quality Filter", "ownerName": "nomorecoding", "score": 635.2261790182869, "slug": "quality-filter-research", "source": "clawhub", "stars": 0, "tags": null, "updated_at": 1776770049834, "version": "1.0.0"}, {"category": "developer-tools", "created_at": 1773080892394, "description": "Tracks Amazon prices, monitors orders, scrapes reviews, fetches order details, drafts refund messages, and manages refund cases efficiently.", "description_zh": "", "downloads": 264, "homepage": "https://clawhub.ai/luoqianchenguni-max/easybuy-amazon-agent", "iconUrl": null, "installs": 56, "name": "Amazon Refund & Price Tracker Agent", "ownerName": "luoqianchenguni-max", "score": 8588.158750813272, "slug": "easybuy-amazon-agent", "source": "clawhub", "stars": 0, "tags": null, "updated_at": 1776763450586, "version": "1.0.0"}, {"category": "data-analysis", "created_at": 1772797927795, "description": "Manage Teable resources with full CRUD for records, bases, spaces, tables, dashboards, and trash via API and command-line scripts.", "description_zh": "", "downloads": 264, "homepage": "https://clawhub.ai/killgfat/teable-api", "iconUrl": null, "installs": 12, "name": "Teable", "ownerName": "killgfat", "score": 19939.577039274925, "slug": "teable-api", "source": "clawhub", "stars": 0, "tags": null, "updated_at": 1776759382967, "version": "1.0.6"}, {"category": "developer-tools", "created_at": 1772804707897, "description": "CLI tool for generating tests, scanning contracts, managing story-based tests, and setting up MCP integration in web projects.", "description_zh": "", "downloads": 264, "homepage": "https://clawhub.ai/ianderrington/si", "iconUrl": null, "installs": 10, "name": "Supernal Interface CLI", "ownerName": "ianderrington", "score": 19804.95123780945, "slug": "si", "source": "clawhub", "stars": 0, "tags": null, "updated_at": 1776759382812, "version": "1.0.0"}, {"category": "content-creation", "created_at": 1773066356343, "description": "Provides web content fetching, caching, document OCR, real-time messaging, group chats, file transfers, and webhook integrations via Prismer Cloud APIs.", "description_zh": "", "downloads": 264, "homepage": "https://clawhub.ai/ooxxxxoo/agent-im", "iconUrl": null, "installs": 18, "name": "a2a-context", "ownerName": "ooxxxxoo", "score": 19954.648526077097, "slug": "agent-im", "source": "clawhub", "stars": 0, "tags": null, "updated_at": 1776759382536, "version": "1.0.0"}, {"category": "developer-tools", "created_at": 1772799513102, "description": "Performs deterministic end-to-end tests to validate ClawHub CLI publish lifecycle commands and verify registry metadata accuracy.", "description_zh": "", "downloads": 264, "homepage": "https://clawhub.ai/vacinc/e2e-repro2-1772127134", "iconUrl": null, "installs": 4, "name": "E2E e2e-repro2-1772127134", "ownerName": "vacinc", "score": 19969.742813918307, "slug": "e2e-repro2-1772127134", "source": "clawhub", "stars": 0, "tags": null, "updated_at": 1776759382285, "version": "1.0.0"}, {"category": "developer-tools", "created_at": 1773077890170, "description": "This skill should be used when the user asks to \"create financial projections\", \"build a financial model\", \"forecast revenue\", \"calculate burn rate\", \"estima...", "description_zh": "", "downloads": 264, "homepage": "https://clawhub.ai/zhengxinjipai/startup-financial-modeling", "iconUrl": null, "installs": 19, "name": "Startup Financial Modeling", "ownerName": "zhengxinjipai", "score": 46234.676007005255, "slug": "startup-financial-modeling", "source": "clawhub", "stars": 0, "tags": null, "updated_at": 1776753584059, "version": "1.0.0"}, {"category": "ai-intelligence", "created_at": 1773074013911, "description": "Gmail integration. Manage communication data, records, and workflows. Use when the user wants to interact with Gmail data.", "description_zh": "", "downloads": 264, "homepage": "https://clawhub.ai/membranedev/gmail-integration", "iconUrl": null, "installs": 3, "name": "Gmail", "ownerName": "membranedev", "score": 93617.02127659574, "slug": "gmail-integration", "source": "clawhub", "stars": 0, "tags": null, "updated_at": 1776748855665, "version": "1.0.5"}, {"category": "ai-intelligence", "created_at": 1773067887586, "description": "Create and manage Facebook stealth accounts for ad campaigns, marketplace listings, and business pages. Avoid linked-account detection with sticky residentia...", "description_zh": "", "downloads": 264, "homepage": "https://clawhub.ai/luis2404123/facebook-stealth-accounts", "iconUrl": null, "installs": 31, "name": "Facebook Stealth Accounts", "ownerName": "luis2404123", "score": 92957.74647887323, "slug": "facebook-stealth-accounts", "source": "clawhub", "stars": 0, "tags": null, "updated_at": 1776748855660, "version": "1.0.0"}, {"category": "developer-tools", "created_at": 1772797765978, "description": "Query the AI News Feed API for real-time AI/ML news from 57+ curated Twitter/X accounts. Use when the user asks about AI news, trending AI topics, what's hap...", "description_zh": "", "downloads": 264, "homepage": "https://clawhub.ai/fredhjc/ai-news-feed", "iconUrl": null, "installs": 9, "name": "AI News Feed API", "ownerName": "fredhjc", "score": 92957.74647887323, "slug": "ai-news-feed", "source": "clawhub", "stars": 0, "tags": null, "updated_at": 1776748855645, "version": "1.1.1"}, {"category": "data-analysis", "created_at": 1773290134401, "description": "Football transfer intelligence — real-time rumour tracking, AI Truth Meter credibility scores, and multi-source verification across 137,000+ transfer events", "description_zh": "", "downloads": 264, "homepage": "https://clawhub.ai/leeleon/football-transfer-intel", "iconUrl": null, "installs": 72, "name": "Football Transfer Intel — Truth Meter & Rumour Tracker", "ownerName": "leeleon", "score": 92957.74647887323, "slug": "football-transfer-intel", "source": "clawhub", "stars": 0, "tags": ["analytics", "ballers", "dna", "fifa", "football", "scouting", "similarity", "soccer", "transfer", "worldcup"], "updated_at": 1776748855634, "version": "1.0.0"}, {"category": "security-compliance", "created_at": 1772797323834, "description": "Run Dievio lead search and LinkedIn lookup workflows through the public API with correct authentication, filters, pagination, and credit-aware handling. Use...", "description_zh": "", "downloads": 264, "homepage": "https://clawhub.ai/hundevmode/dievio-lead-search-api", "iconUrl": null, "installs": 5, "name": "Dievio Lead Search API", "ownerName": "hundevmode", "score": 92957.74647887323, "slug": "dievio-lead-search-api", "source": "clawhub", "stars": 0, "tags": null, "updated_at": 1776748855602, "version": "1.0.3"}, {"category": "developer-tools", "created_at": 1772801702082, "description": "Deploy simple web pages and HTML apps live to the internet using the Deno Deploy REST API. Use this skill whenever the user wants to make something \"live\", \"...", "description_zh": "", "downloads": 264, "homepage": "https://clawhub.ai/hosainnet/deno-subhosting-deploy-skill", "iconUrl": null, "installs": 11, "name": "Deno Deploy", "ownerName": "hosainnet", "score": 92957.74647887323, "slug": "deno-subhosting-deploy-skill", "source": "clawhub", "stars": 0, "tags": null, "updated_at": 1776748855591, "version": "0.1.0"}, {"category": "data-analysis", "created_at": 1773064685518, "description": "End-to-end SEO article pipeline for any blog. Research keywords → analyze competition → write article → generate images → fact-check → humanize → assemble →...", "description_zh": "", "downloads": 264, "homepage": "https://clawhub.ai/nirusan/seo-article-pipeline", "iconUrl": null, "installs": 30, "name": "SEO Article Pipeline", "ownerName": "nirusan", "score": 92957.74647887323, "slug": "seo-article-pipeline", "source": "clawhub", "stars": 0, "tags": ["article", "blog", "content", "eeat", "fact-check", "humanize", "keyword-research", "marketing", "pipeline", "seo", "translation", "writing"], "updated_at": 1776748855559, "version": "1.1.2"}, {"category": "ai-intelligence", "created_at": 1773061100662, "description": "Local zero-cost text-to-speech with per-agent voice profiles using Kokoro TTS (82M params). 54 voices available, named agent mappings, WAV output. Use when b...", "description_zh": "", "downloads": 264, "homepage": "https://clawhub.ai/nissan/kokoro-agent-voices", "iconUrl": null, "installs": 20, "name": "Kokoro Agent Voices", "ownerName": "nissan", "score": 87128.71287128713, "slug": "kokoro-agent-voices", "source": "clawhub", "stars": 0, "tags": null, "updated_at": 1776748855510, "version": "1.0.0"}, {"category": "data-analysis", "created_at": 1772799453170, "description": "Autonomous BigCommerce product content optimizer. Bulk-update, rewrite, optimize, or generate product titles and descriptions on a BigCommerce store. Trigger...", "description_zh": "", "downloads": 264, "homepage": "https://clawhub.ai/veevortexiq/viq-bc-optimiser", "iconUrl": null, "installs": 11, "name": "productOptimizer", "ownerName": "veevortexiq", "score": 87128.71287128713, "slug": "viq-bc-optimiser", "source": "clawhub", "stars": 0, "tags": null, "updated_at": 1776748855508, "version": "1.0.0"}, {"category": "content-creation", "created_at": 1773090616558, "description": "Adds TikTok-style text overlays to images and videos with styled fonts, backgrounds, strokes, and timed animations.", "description_zh": "", "downloads": 264, "homepage": "https://clawhub.ai/xmuweili/tiktok-overlay", "iconUrl": null, "installs": 71, "name": "TikTok Text Overlay", "ownerName": "xmuweili", "score": 87128.71287128713, "slug": "tiktok-overlay", "source": "clawhub", "stars": 0, "tags": ["image", "media", "tiktok", "video"], "updated_at": 1776748855501, "version": "1.1.0"}, {"category": "developer-tools", "created_at": 1772797596888, "description": "Control Spotify playback and devices from an AI agent using spotify.py and the official Spotify Web API. Use when users ask to check current track, play/paus...", "description_zh": "", "downloads": 264, "homepage": "https://clawhub.ai/egemenyerdelen/spotify-controller", "iconUrl": null, "installs": 8, "name": "Spotify Controller", "ownerName": "egemenyerdelen", "score": 87128.71287128713, "slug": "spotify-controller", "source": "clawhub", "stars": 0, "tags": null, "updated_at": 1776748855482, "version": "1.0.1"}, {"category": "developer-tools", "created_at": 1772805618630, "description": "Transcribe audio via the self-hosted Whisper ASR instance running on Kubernetes. Use this skill whenever the user wants to transcribe audio files, convert sp...", "description_zh": "", "downloads": 264, "homepage": "https://clawhub.ai/xavjer/openclaw-self-hosted-whisper", "iconUrl": null, "installs": 22, "name": "K8s Self Hosted Whisper Api", "ownerName": "xavjer", "score": 87128.71287128713, "slug": "openclaw-self-hosted-whisper", "source": "clawhub", "stars": 0, "tags": null, "updated_at": 1776748847033, "version": "0.1.0"}, {"category": "developer-tools", "created_at": 1772797388853, "description": "Step-by-step guide to configure exchange API credentials for OpenMM.", "description_zh": "", "downloads": 264, "homepage": "https://clawhub.ai/adacapo21/openmm-exchange-setup", "iconUrl": null, "installs": 6, "name": "OpenMM Exchange Setup", "ownerName": "adacapo21", "score": 92631.57894736843, "slug": "openmm-exchange-setup", "source": "clawhub", "stars": 0, "tags": ["exchanges", "openmm", "setup"], "updated_at": 1776748846997, "version": "0.1.0"}, {"category": "developer-tools", "created_at": 1772794456345, "description": "Pay for APIs, tools, and services from your agent's Kash wallet. Spends below $5 are autonomous; above $5 requires explicit user YES. Requires KASH_KEY and K...", "description_zh": "", "downloads": 263, "homepage": "https://clawhub.ai/devfaraaz/kash", "iconUrl": null, "installs": 4, "name": "Kash - Agentic Payment Provider", "ownerName": "devfaraaz", "score": 100000, "slug": "kash", "source": "clawhub", "stars": 2, "tags": null, "updated_at": 1776748855516, "version": "1.0.7"}, {"category": "communication-collaboration", "created_at": 1773080819569, "description": "Convert text to speech using Volcengine TTS with preset or cloned voices and send audio messages to Feishu chats or groups.", "description_zh": "", "downloads": 263, "homepage": "https://clawhub.ai/willsonchenservice-eng/feishu-voice-clone-tts", "iconUrl": null, "installs": 38, "name": "Feishu Voice Clone TTS Skill", "ownerName": "willsonchenservice-eng", "score": 21150.971599402095, "slug": "feishu-voice-clone-tts", "source": "clawhub", "stars": 1, "tags": null, "updated_at": 1776759257597, "version": "1.0.0"}, {"category": "content-creation", "created_at": 1773077489427, "description": "Convert articles, blog posts, or any text into professional podcast scripts and TTS audio. Use when a user wants to: (1) Transform written content into conve...", "description_zh": "", "downloads": 263, "homepage": "https://clawhub.ai/elevo11/podcast-generator", "iconUrl": null, "installs": 15, "name": "Podcast Generator", "ownerName": "elevo11", "score": 51083.032490974736, "slug": "podcast-generator", "source": "clawhub", "stars": 1, "tags": null, "updated_at": 1776755588857, "version": "1.1.0"}, {"category": "productivity", "created_at": 1773079326854, "description": "Amap LBS services. Call Amap services via Streamable HTTP MCP, supporting geocoding, route planning, POI search, weather query, distance measurement, and more.", "description_zh": "", "downloads": 263, "homepage": "https://clawhub.ai/elric2011/amap-maps", "iconUrl": null, "installs": 21, "name": "amap-maps", "ownerName": "elric2011", "score": 99647.88732394367, "slug": "amap-maps", "source": "clawhub", "stars": 1, "tags": null, "updated_at": 1776748855643, "version": "1.0.1"}, {"category": "developer-tools", "created_at": 1773290448320, "description": "Performs precise math calculations by executing native OS CLI tools like bc, python3, or PowerShell without relying on AI prediction.", "description_zh": "", "downloads": 263, "homepage": "https://clawhub.ai/johnnyhou327/math-utils-native", "iconUrl": null, "installs": 27, "name": "Math Utils Native", "ownerName": "johnnyhou327", "score": 9322.935129386742, "slug": "math-utils-native", "source": "clawhub", "stars": 0, "tags": null, "updated_at": 1776770239625, "version": "1.0.1"}, {"category": "ai-intelligence", "created_at": 1773079141660, "description": "Linode (Akamai) — compute instances, volumes, networking, NodeBalancers, domains, and Kubernetes.", "description_zh": "", "downloads": 263, "homepage": "https://clawhub.ai/aiwithabidi/linode", "iconUrl": null, "installs": 51, "name": "Linode", "ownerName": "aiwithabidi", "score": 1381.520197510112, "slug": "linode", "source": "clawhub", "stars": 0, "tags": null, "updated_at": 1776762482408, "version": "1.0.0"}, {"category": "developer-tools", "created_at": 1772805374511, "description": "Scan and remove sensitive data before publishing skills. Detect API keys, tokens, secrets, and personal info.", "description_zh": "", "downloads": 263, "homepage": "https://clawhub.ai/dalomeve/prepublish-privacy-scrub", "iconUrl": null, "installs": 11, "name": "Prepublish Privacy Scrub", "ownerName": "dalomeve", "score": 8642.786723627998, "slug": "prepublish-privacy-scrub", "source": "clawhub", "stars": 0, "tags": null, "updated_at": 1776761745472, "version": "1.0.0"}]}