{"page": 265, "total_pages": 522, "total": 26073, "skills": [{"category": "security-compliance", "created_at": 1772805334160, "description": "eToro Public API — full trading, market data, social, and watchlist integration. Supports SSO, Bearer, and API key auth.", "description_zh": "", "downloads": 263, "homepage": "https://clawhub.ai/yoniassia/etoro-trading-api", "iconUrl": null, "installs": 5, "name": "eToro Trading API", "ownerName": "yoniassia", "score": 6221.906789685356, "slug": "etoro-trading-api", "source": "clawhub", "stars": 0, "tags": null, "updated_at": 1776760582384, "version": "1.0.0"}, {"category": "", "created_at": 1774922001990, "description": "Provides real-time and historical A-share stock data from multiple free sources including mootdx, Sina, Tencent, Eastmoney, and Tushare.", "description_zh": "", "downloads": 263, "homepage": "https://clawhub.ai/same1317/stock-a", "iconUrl": null, "installs": 95, "name": "Stock-A", "ownerName": "same1317", "score": 94945.84837545126, "slug": "stock-a", "source": "clawhub", "stars": 0, "tags": null, "updated_at": 1776759383084, "version": "1.0.0"}, {"category": "developer-tools", "created_at": 1772804483052, "description": "Execute hledger CLI commands to query balances, registers, reports, and journals, returning structured output from local ledger files.", "description_zh": "", "downloads": 263, "homepage": "https://clawhub.ai/bisbeebucky/hledger", "iconUrl": null, "installs": 4, "name": "Hledger", "ownerName": "bisbeebucky", "score": 18327.526132404182, "slug": "hledger", "source": "clawhub", "stars": 0, "tags": null, "updated_at": 1776759382857, "version": "1.0.0"}, {"category": "ai-intelligence", "created_at": 1773082627276, "description": "Provides a multi-layer memory system for OpenClaw, enabling AI to remember user preferences, learn from mistakes, and evolve continuously.", "description_zh": "", "downloads": 263, "homepage": "https://clawhub.ai/githubxiaohei/openclaw-memory-fix-skill", "iconUrl": null, "installs": 36, "name": "OpenClaw Memory Fix Skill", "ownerName": "githubxiaohei", "score": 19729.932483120778, "slug": "openclaw-memory-fix-skill", "source": "clawhub", "stars": 0, "tags": null, "updated_at": 1776759382808, "version": "1.0.0"}, {"category": "data-analysis", "created_at": 1772802763372, "description": "Lightweight Wallet Signer CLI — generate wallets, derive addresses, and sign messages across EVM, Solana, Bitcoin, Cosmos, and Tron chains.", "description_zh": "", "downloads": 263, "homepage": "https://clawhub.ai/njdawn/lws", "iconUrl": null, "installs": 14, "name": "Local Wallet Standard", "ownerName": "njdawn", "score": 16489.028213166144, "slug": "lws", "source": "clawhub", "stars": 0, "tags": null, "updated_at": 1776759382776, "version": "1.0.0"}, {"category": "developer-tools", "created_at": 1772799048263, "description": "Fetch weather forecasts from the Norwegian Meteorological Institute (MET) using the yr.no API. Use when the user asks for weather information, forecasts, tem...", "description_zh": "", "downloads": 263, "homepage": "https://clawhub.ai/brandon2255p/yr-weather", "iconUrl": null, "installs": 13, "name": "Yr Weather", "ownerName": "brandon2255p", "score": 89152.54237288136, "slug": "yr-weather", "source": "clawhub", "stars": 0, "tags": null, "updated_at": 1776759382677, "version": "1.0.0"}, {"category": "developer-tools", "created_at": 1772797665780, "description": "Manage GoList grocery lists via CLI: create, join, switch, share lists, and add or remove items with automatic device and item ID handling.", "description_zh": "", "downloads": 263, "homepage": "https://clawhub.ai/daniel17903/golist", "iconUrl": null, "installs": 8, "name": "GoList", "ownerName": "daniel17903", "score": 89152.54237288136, "slug": "golist", "source": "clawhub", "stars": 0, "tags": null, "updated_at": 1776759382674, "version": "1.0.1"}, {"category": "data-analysis", "created_at": 1773079034297, "description": "Professional fundraising advisory skill for startups - AI-powered project assessment, pitch deck generation, valuation analysis, investor matching, and PDF p...", "description_zh": "", "downloads": 263, "homepage": "https://clawhub.ai/zhenstaff/fundraising-advisor", "iconUrl": null, "installs": 43, "name": "Fundraising Advisor", "ownerName": "zhenstaff", "score": 19879.062736205593, "slug": "fundraising-advisor", "source": "clawhub", "stars": 0, "tags": ["ai", "finance", "fundraising", "investment", "pdf", "python", "startup", "valuation"], "updated_at": 1776759382493, "version": "1.0.0"}, {"category": "productivity", "created_at": 1772805100693, "description": "Draft and fill services agreement templates — consulting contract, contractor agreement, SOW, statement of work, professional services agreement. Produces si...", "description_zh": "", "downloads": 263, "homepage": "https://clawhub.ai/stevenobiajulu/services-agreement", "iconUrl": null, "installs": 20, "name": "Services Agreement", "ownerName": "stevenobiajulu", "score": 15978.12879708384, "slug": "services-agreement", "source": "clawhub", "stars": 0, "tags": null, "updated_at": 1776757320430, "version": "0.2.0"}, {"category": "developer-tools", "created_at": 1772797026953, "description": "Query prediction markets, place trades, and manage positions with the Polymarket CLI for AI agents.", "description_zh": "", "downloads": 263, "homepage": "https://clawhub.ai/ivangdavila/polymarket-cli", "iconUrl": null, "installs": 25, "name": "Polymarket CLI", "ownerName": "ivangdavila", "score": 16164.720344191763, "slug": "polymarket-cli", "source": "clawhub", "stars": 0, "tags": null, "updated_at": 1776756983159, "version": "1.0.0"}, {"category": "productivity", "created_at": 1772799126326, "description": "Search company registrations via OpenCorporates and SEC EDGAR. 3 tools for business entity research.", "description_zh": "", "downloads": 263, "homepage": "https://clawhub.ai/martc03/gov-business-entity", "iconUrl": null, "installs": 8, "name": "Gov Business Entity", "ownerName": "martc03", "score": 93262.41134751773, "slug": "gov-business-entity", "source": "clawhub", "stars": 0, "tags": null, "updated_at": 1776748871977, "version": "1.0.0"}, {"category": "data-analysis", "created_at": 1772798255472, "description": "Standard SAPCONET SSH command templates for bird reads, Puppeteer runs, and inbox messaging workflows.", "description_zh": "", "downloads": 263, "homepage": "https://clawhub.ai/highlander89/billy-sapconet-ssh-bridge", "iconUrl": null, "installs": 15, "name": "Billy — SAPCONET SSH Bridge", "ownerName": "highlander89", "score": 92605.6338028169, "slug": "billy-sapconet-ssh-bridge", "source": "clawhub", "stars": 0, "tags": null, "updated_at": 1776748855654, "version": "0.1.0"}, {"category": "data-analysis", "created_at": 1773088700448, "description": "Crypto market rankings and leaderboards. Query trending tokens, top searched tokens, Binance Alpha tokens, tokenized stocks, social hype sentiment ranks, sma...", "description_zh": "", "downloads": 263, "homepage": "https://clawhub.ai/awessh/crypto-market-rank", "iconUrl": null, "installs": 29, "name": "Crypto Market Rank", "ownerName": "awessh", "score": 92605.6338028169, "slug": "crypto-market-rank", "source": "clawhub", "stars": 0, "tags": null, "updated_at": 1776748855632, "version": "0.1.0"}, {"category": "communication-collaboration", "created_at": 1772799434257, "description": "Use inline buttons when communicating with Rahul on Telegram (message tool) to reduce typing and force crisp decisions. Trigger when drafting Telegram messag...", "description_zh": "", "downloads": 263, "homepage": "https://clawhub.ai/rahulsinghalchicago/telegram-inline-buttons", "iconUrl": null, "installs": 16, "name": "Telegram Inline Buttons", "ownerName": "rahulsinghalchicago", "score": 92605.6338028169, "slug": "telegram-inline-buttons", "source": "clawhub", "stars": 0, "tags": null, "updated_at": 1776748855623, "version": "0.1.0"}, {"category": "data-analysis", "created_at": 1773073091489, "description": "Records the structure of conversations where ideas evolve, branch, get rejected, pivot, or combine. Saves each structural shift as a node in a local JSON tre...", "description_zh": "", "downloads": 263, "homepage": "https://clawhub.ai/joncik91/decision-topology", "iconUrl": null, "installs": 12, "name": "Decision Topology", "ownerName": "joncik91", "score": 92605.6338028169, "slug": "decision-topology", "source": "clawhub", "stars": 0, "tags": ["cognitive", "conversation", "memory", "tracking"], "updated_at": 1776748855616, "version": "1.0.6"}, {"category": "developer-tools", "created_at": 1772795786507, "description": "A world-class, spec-driven development framework for building production-ready, AI-native applications. Use for any new project to ensure adherence to the mo...", "description_zh": "", "downloads": 263, "homepage": "https://clawhub.ai/badideal-2046/specvibe", "iconUrl": null, "installs": 11, "name": "SpecVibe", "ownerName": "badideal-2046", "score": 92605.6338028169, "slug": "specvibe", "source": "clawhub", "stars": 0, "tags": null, "updated_at": 1776748855613, "version": "1.0.0"}, {"category": "developer-tools", "created_at": 1772796941093, "description": "Runs a script-backed AI C-Suite strategic debate for SaaS teams. It builds a stage-aware executive roster, generates structured debate rounds, synthesizes a...", "description_zh": "", "downloads": 263, "homepage": "https://clawhub.ai/clarezoe/ai-csuite", "iconUrl": null, "installs": 5, "name": "AI C-Suite", "ownerName": "clarezoe", "score": 92605.6338028169, "slug": "ai-csuite", "source": "clawhub", "stars": 0, "tags": ["multi-agent", "one man business", "one man company"], "updated_at": 1776748855598, "version": "2.1.0"}, {"category": "ai-intelligence", "created_at": 1772797639140, "description": "AI pet companion — a pixel lobster that grows from your OpenClaw usage. Use when user mentions pet, crabpet, lobster pet, my crab, pet status, pet card, pet...", "description_zh": "", "downloads": 263, "homepage": "https://clawhub.ai/liqiwa/crabpet", "iconUrl": null, "installs": 19, "name": "CrabPet", "ownerName": "liqiwa", "score": 92605.6338028169, "slug": "crabpet", "source": "clawhub", "stars": 0, "tags": null, "updated_at": 1776748855583, "version": "1.0.0"}, {"category": "security-compliance", "created_at": 1773076968882, "description": "Audit your OpenClaw deployment for security risks using Trent AppSec Advisor", "description_zh": "", "downloads": 263, "homepage": "https://clawhub.ai/bristy/trent-openclaw-security", "iconUrl": null, "installs": 5, "name": "Trent OpenClaw Security", "ownerName": "bristy", "score": 92605.6338028169, "slug": "trent-openclaw-security", "source": "clawhub", "stars": 0, "tags": null, "updated_at": 1776748855578, "version": "3.0.0"}, {"category": "developer-tools", "created_at": 1773202457362, "description": "Full memory stack for OpenClaw on Windows. Includes LanceDB semantic memory, git-notes decision memory, and memory hygiene workflow.", "description_zh": "", "downloads": 263, "homepage": "https://clawhub.ai/sea2049/vector-memory-windows", "iconUrl": null, "installs": 85, "name": "Vector Memory (Windows) for OpenClaw", "ownerName": "sea2049", "score": 92605.6338028169, "slug": "vector-memory-windows", "source": "clawhub", "stars": 0, "tags": ["latest windows memory"], "updated_at": 1776748855573, "version": "1.0.1"}, {"category": "communication-collaboration", "created_at": 1773074545301, "description": "CLI to manage enterprise Outlook emails via Exchange Web Services (EWS). Use ews-mail.py to list, read, reply, forward, search, send, move, delete emails and...", "description_zh": "", "downloads": 263, "homepage": "https://clawhub.ai/guyun94/ews-email", "iconUrl": null, "installs": 8, "name": "Ews Email", "ownerName": "guyun94", "score": 86798.6798679868, "slug": "ews-email", "source": "clawhub", "stars": 0, "tags": null, "updated_at": 1776748855551, "version": "1.2.0"}, {"category": "developer-tools", "created_at": 1773089657558, "description": "Plan work and life across Google Calendar, Outlook, Apple Calendar, and CalDAV with CLI adapters, conflict repair, and weekly reviews.", "description_zh": "", "downloads": 263, "homepage": "https://clawhub.ai/ivangdavila/calendar-planner", "iconUrl": null, "installs": 10, "name": "Calendar Planner", "ownerName": "ivangdavila", "score": 86798.6798679868, "slug": "calendar-planner", "source": "clawhub", "stars": 0, "tags": null, "updated_at": 1776748855541, "version": "1.0.0"}, {"category": "productivity", "created_at": 1772797802781, "description": "Search protein folding research data from Clarity Protocol. Use when the user asks to search variants, query protein research, find fold results, or explore...", "description_zh": "", "downloads": 263, "homepage": "https://clawhub.ai/clarityprotocol/clarity-research", "iconUrl": null, "installs": 10, "name": "Clarity Research", "ownerName": "clarityprotocol", "score": 86798.6798679868, "slug": "clarity-research", "source": "clawhub", "stars": 0, "tags": null, "updated_at": 1776748855533, "version": "1.0.0"}, {"category": "content-creation", "created_at": 1772798108230, "description": "AI-native SVG vector graphics generation tool. Use when generating SVG graphics from text prompts or converting images to SVG. Supports: (1) Text-to-SVG gene...", "description_zh": "", "downloads": 263, "homepage": "https://clawhub.ai/charmmm718/quiver-ai", "iconUrl": null, "installs": 21, "name": "Quiver Ai", "ownerName": "charmmm718", "score": 86798.6798679868, "slug": "quiver-ai", "source": "clawhub", "stars": 0, "tags": ["ai", "design", "svg", "vector"], "updated_at": 1776748855499, "version": "1.0.1"}, {"category": "ai-intelligence", "created_at": 1772796745073, "description": "Play chess on lawb.xyz/chess with on-chain wagers. Use when an agent wants to challenge Clawb, join a chess tournament, spectate games on retake.tv/clawb, or...", "description_zh": "", "downloads": 263, "homepage": "https://clawhub.ai/wables411/lawbchess", "iconUrl": null, "installs": 16, "name": "Lawb Chess", "ownerName": "wables411", "score": 86798.6798679868, "slug": "lawbchess", "source": "clawhub", "stars": 0, "tags": null, "updated_at": 1776748855469, "version": "2.0.0"}, {"category": "developer-tools", "created_at": 1772798196315, "description": "Dynamic task tree orchestration inspired by Cord protocol. Agent builds its own coordination tree at runtime — deciding decomposition, parallelism, and depen...", "description_zh": "", "downloads": 262, "homepage": "https://clawhub.ai/moltonbot000/cord-trees", "iconUrl": null, "installs": 5, "name": "Cord Trees", "ownerName": "moltonbot000", "score": 99669.96699669966, "slug": "cord-trees", "source": "clawhub", "stars": 2, "tags": null, "updated_at": 1776748855550, "version": "1.0.1"}, {"category": "ai-intelligence", "created_at": 1772797757519, "description": "Autonomous programming mode for openclaw.ai. Use this skill whenever a user requests any code change, feature addition, refactor, bug fix, or project task —...", "description_zh": "", "downloads": 262, "homepage": "https://clawhub.ai/ubuntume/just-keep-working", "iconUrl": null, "installs": 23, "name": "Just Keep Working", "ownerName": "ubuntume", "score": 100000, "slug": "just-keep-working", "source": "clawhub", "stars": 1, "tags": null, "updated_at": 1776748872068, "version": "1.0.2"}, {"category": "security-compliance", "created_at": 1772799480698, "description": "Build REST API specifications for Sling data extraction. Use when creating API specs, configuring authentication (OAuth, API key, Bearer token, HMAC), settin...", "description_zh": "", "downloads": 262, "homepage": "https://clawhub.ai/flarco/sling-api-specs", "iconUrl": null, "installs": 5, "name": "Slingdata.io API Spec", "ownerName": "flarco", "score": 100000, "slug": "sling-api-specs", "source": "clawhub", "stars": 1, "tags": null, "updated_at": 1776748871975, "version": "1.0.0"}, {"category": "content-creation", "created_at": 1773960882187, "description": "Fully autonomous research pipeline that turns a topic idea into a complete academic paper with real citations, experiments, and conference-ready LaTeX.", "description_zh": "", "downloads": 262, "homepage": "https://clawhub.ai/adisinghstudent/autoresearchclaw-autonomous-research", "iconUrl": null, "installs": 129, "name": "autoresearchclaw-autonomous-research", "ownerName": "adisinghstudent", "score": 2979.6428977595815, "slug": "autoresearchclaw-autonomous-research", "source": "clawhub", "stars": 0, "tags": null, "updated_at": 1776764690744, "version": "1.0.0"}, {"category": "content-creation", "created_at": 1773941499200, "description": "Translate books (PDF/DOCX/EPUB) into any language using parallel sub-agents. Converts input -> Markdown chunks -> translated chunks -> HTML/DOCX/EPUB/PDF.", "description_zh": "", "downloads": 262, "homepage": "https://clawhub.ai/deusyu/translate-book", "iconUrl": null, "installs": 35, "name": "Translate Book", "ownerName": "deusyu", "score": 4330.578512396694, "slug": "translate-book", "source": "clawhub", "stars": 0, "tags": null, "updated_at": 1776763150362, "version": "0.2.0"}, {"category": "ai-intelligence", "created_at": 1773074512660, "description": "Intelligent Triage and Symptom Analysis Skill. Supports 650+ symptoms across 11 body systems. Based on ESI and Manchester Triage System with 5-level triage c...", "description_zh": "", "downloads": 262, "homepage": "https://clawhub.ai/andyxcg/intelligent-triage-symptom-analysis", "iconUrl": null, "installs": 16, "name": "Intelligent Triage Symptom Analysis", "ownerName": "andyxcg", "score": 7541.7386298215315, "slug": "intelligent-triage-symptom-analysis", "source": "clawhub", "stars": 0, "tags": null, "updated_at": 1776762439967, "version": "1.0.5"}, {"category": "developer-tools", "created_at": 1773063097995, "description": "Use Codex CLI to run long-running coding tasks in the background with sandbox bypass, supporting git repos and automated test/build workflows.", "description_zh": "", "downloads": 262, "homepage": "https://clawhub.ai/tianyn1990/codex-runner", "iconUrl": null, "installs": 13, "name": "codex-runner", "ownerName": "tianyn1990", "score": 17896.17486338798, "slug": "codex-runner", "source": "clawhub", "stars": 0, "tags": ["agent", "async", "codex", "coding"], "updated_at": 1776759383150, "version": "1.1.0"}, {"category": "developer-tools", "created_at": 1772803995950, "description": "Access personal finance data from Konto including accounts, transactions, investments, assets, loans, subscriptions, and net worth summaries via API.", "description_zh": "", "downloads": 262, "homepage": "https://clawhub.ai/angelstreet/konto-api", "iconUrl": null, "installs": 9, "name": "Konto API", "ownerName": "angelstreet", "score": 17896.17486338798, "slug": "konto-api", "source": "clawhub", "stars": 0, "tags": null, "updated_at": 1776759383137, "version": "1.0.0"}, {"category": "developer-tools", "created_at": 1772795582677, "description": "Query AdGuard Home instances for real-time DNS stats, blocked domains, client activity, service status, and configuration details.", "description_zh": "", "downloads": 262, "homepage": "https://clawhub.ai/foxleoly/adguard-test", "iconUrl": null, "installs": 9, "name": "Adguard Test", "ownerName": "foxleoly", "score": 94584.83754512636, "slug": "adguard-test", "source": "clawhub", "stars": 0, "tags": null, "updated_at": 1776759383101, "version": "1.2.1"}, {"category": "ai-intelligence", "created_at": 1772805314621, "description": "Selects the most cost-effective capable model for tasks, handles rate limit failures gracefully, and supports tier overrides and health checks.", "description_zh": "", "downloads": 262, "homepage": "https://clawhub.ai/adroidian/chitin-core", "iconUrl": null, "installs": 13, "name": "chitin-core", "ownerName": "adroidian", "score": 1527.518656716418, "slug": "chitin-core", "source": "clawhub", "stars": 0, "tags": null, "updated_at": 1776759382386, "version": "1.0.0"}, {"category": "communication-collaboration", "created_at": 1773075108340, "description": "Publish and format posts simultaneously across MoltX, Twitter/X, Discord, and Telegram using a single command with platform-specific optimizations.", "description_zh": "", "downloads": 262, "homepage": "https://clawhub.ai/imaflytok/cross-platform-poster", "iconUrl": null, "installs": 10, "name": "cross-platform-poster", "ownerName": "imaflytok", "score": 19818.456883509833, "slug": "cross-platform-poster", "source": "clawhub", "stars": 0, "tags": null, "updated_at": 1776759382328, "version": "1.0.0"}, {"category": "security-compliance", "created_at": 1772795637400, "description": "OAuth proxy for calling external APIs (Oura, Google Calendar, etc.) via Perpetua.sh hosted API using a single API key. Use when fetching Oura data, Google Ca...", "description_zh": "", "downloads": 262, "homepage": "https://clawhub.ai/danielkillenberger/perpetua", "iconUrl": null, "installs": 4, "name": "Perpetua", "ownerName": "danielkillenberger", "score": 100000, "slug": "perpetua", "source": "clawhub", "stars": 0, "tags": null, "updated_at": 1776749270458, "version": "1.0.0"}, {"category": "productivity", "created_at": 1772801443174, "description": "Complete guide for using pass, the standard Unix password manager. Use this skill whenever the user asks about pass, password-store, managing passwords from...", "description_zh": "", "downloads": 262, "homepage": "https://clawhub.ai/bastos/pass", "iconUrl": null, "installs": 8, "name": "pass - stores, retrieves, generates, and synchronizes passwords securely", "ownerName": "bastos", "score": 93571.42857142857, "slug": "pass", "source": "clawhub", "stars": 0, "tags": null, "updated_at": 1776748872298, "version": "1.0.0"}, {"category": "developer-tools", "created_at": 1772794552993, "description": "Send physical letters anywhere in Germany with a single command. Use when: user wants to send a physical letter. Requires an API key from agentic-letters.com.", "description_zh": "", "downloads": 262, "homepage": "https://clawhub.ai/eisimo/agentic-letters", "iconUrl": null, "installs": 4, "name": "Agentic Letters", "ownerName": "eisimo", "score": 93906.8100358423, "slug": "agentic-letters", "source": "clawhub", "stars": 0, "tags": ["brief", "dhl", "letters", "post"], "updated_at": 1776748872191, "version": "1.1.2"}, {"category": "ai-intelligence", "created_at": 1772799693757, "description": "US visa wait times, border crossing delays, and FAA airport status. 3 tools for travel intelligence.", "description_zh": "", "downloads": 262, "homepage": "https://clawhub.ai/martc03/gov-travel", "iconUrl": null, "installs": 26, "name": "Gov Travel", "ownerName": "martc03", "score": 92907.80141843972, "slug": "gov-travel", "source": "clawhub", "stars": 0, "tags": null, "updated_at": 1776748872128, "version": "1.0.0"}, {"category": "developer-tools", "created_at": 1772799497429, "description": "Discover Australia like a local with deep city-region coverage, practical route planning, food context, and execution-ready travel logistics.", "description_zh": "", "downloads": 262, "homepage": "https://clawhub.ai/ivangdavila/australia", "iconUrl": null, "installs": 11, "name": "Australia", "ownerName": "ivangdavila", "score": 92907.80141843972, "slug": "australia", "source": "clawhub", "stars": 0, "tags": null, "updated_at": 1776748872089, "version": "1.0.0"}, {"category": "data-analysis", "created_at": 1772797970272, "description": "A Jehovah's Witness-style Bible research agent that reasons on the scriptures using JW methodology. Use when asked to research Bible topics, explain scriptur...", "description_zh": "", "downloads": 262, "homepage": "https://clawhub.ai/marvel1click/bible-research", "iconUrl": null, "installs": 17, "name": "Bible Research", "ownerName": "marvel1click", "score": 92907.80141843972, "slug": "bible-research", "source": "clawhub", "stars": 0, "tags": null, "updated_at": 1776748871981, "version": "1.0.1"}, {"category": "developer-tools", "created_at": 1772798947056, "description": "View and manage a Hybrid Training Plan — check today's workout, log strength sets and runs, mark days complete or skip, view exercise 1RMs and session histor...", "description_zh": "", "downloads": 262, "homepage": "https://clawhub.ai/paulkennethkent/hybrid-training-plan", "iconUrl": null, "installs": 11, "name": "Hybrid training plan", "ownerName": "paulkennethkent", "score": 92907.80141843972, "slug": "hybrid-training-plan", "source": "clawhub", "stars": 0, "tags": null, "updated_at": 1776748871943, "version": "1.0.1"}, {"category": "productivity", "created_at": 1772794303656, "description": "OpenClaw 초보자를 위한 풀패키지 온보딩 스킬. 첫 세팅부터 보안 강화까지 대화형으로 안내한다. \"초기 세팅\", \"처음 설정\", \"starter kit\", \"온보딩\", \"setup guide\", \"시작하기\", \"세팅 도와줘\" 키워드에 반응.", "description_zh": "", "downloads": 262, "homepage": "https://clawhub.ai/gyeuun97/openclaw-starter-kit", "iconUrl": null, "installs": 5, "name": "OpenClaw Starter Kit", "ownerName": "gyeuun97", "score": 92253.52112676056, "slug": "openclaw-starter-kit", "source": "clawhub", "stars": 0, "tags": null, "updated_at": 1776748855581, "version": "1.0.1"}, {"category": "developer-tools", "created_at": 1773068984769, "description": "Backup and restore OpenClaw configuration, agents, sessions, and workspace to/from a private Git repository. Use when the user wants to manually trigger a ba...", "description_zh": "", "downloads": 261, "homepage": "https://clawhub.ai/darinrowe/openclaw-backup-restore", "iconUrl": null, "installs": 8, "name": "openclaw-backup-restore", "ownerName": "darinrowe", "score": 6716.061185468451, "slug": "openclaw-backup-restore", "source": "clawhub", "stars": 1, "tags": null, "updated_at": 1776764350123, "version": "1.0.0"}, {"category": "data-analysis", "created_at": 1773075711558, "description": "Query website analytics, monitor uptime, survey results, telemetry data, feed events, application stats, and more from the Tianji platform via its read-only...", "description_zh": "", "downloads": 261, "homepage": "https://clawhub.ai/moonrailgun/tianji", "iconUrl": null, "installs": 17, "name": "Tianji", "ownerName": "moonrailgun", "score": 21207.547169811318, "slug": "tianji", "source": "clawhub", "stars": 1, "tags": null, "updated_at": 1776759257883, "version": "1.0.1"}, {"category": "ai-intelligence", "created_at": 1773285141715, "description": "Mine LITCOIN — a proof-of-comprehension and proof-of-research cryptocurrency on Base. Use when the user wants to mine crypto with AI, earn tokens through rea...", "description_zh": "", "downloads": 261, "homepage": "https://clawhub.ai/tekkaadan/litcoin", "iconUrl": null, "installs": 24, "name": "Litcoin", "ownerName": "tekkaadan", "score": 99645.39007092199, "slug": "litcoin", "source": "clawhub", "stars": 1, "tags": ["ai-agent", "base", "crypto", "defi", "mining", "proof-of-research", "research"], "updated_at": 1776748872114, "version": "1.0.1"}, {"category": "data-analysis", "created_at": 1772804893438, "description": "Real-time AI model capability tracking via leaderboards (LMSYS Arena, HuggingFace, etc.) for intelligent compute routing and cost optimization", "description_zh": "", "downloads": 261, "homepage": "https://clawhub.ai/notestone/model-benchmarks", "iconUrl": null, "installs": 12, "name": "AI Intelligence Hub - Real-time Model Capability Tracking", "ownerName": "notestone", "score": 732.1383489017925, "slug": "model-benchmarks", "source": "clawhub", "stars": 0, "tags": ["ai", "benchmarks", "bigcode", "cost-optimization", "data-driven", "huggingface", "intelligence", "lmsys", "models", "performance", "routing"], "updated_at": 1776770471074, "version": "1.0.0"}, {"category": "ai-intelligence", "created_at": 1773067205688, "description": "Helps users discover and install agent skills when they ask questions like \"how do I do X\", \"find a skill for X\", \"is there a skill that can...\", or express...", "description_zh": "", "downloads": 261, "homepage": "https://clawhub.ai/dawnwangzi/find-skills-wzr-999", "iconUrl": null, "installs": 44, "name": "find-skills-wzr-999", "ownerName": "dawnwangzi", "score": 14754.098360655737, "slug": "find-skills-wzr-999", "source": "clawhub", "stars": 0, "tags": null, "updated_at": 1776765058276, "version": "1.0.0"}, {"category": "ai-intelligence", "created_at": 1773078263761, "description": "Local persistent vector memory system using LanceDB and Ollama for semantic search and multi-user isolated long-term AI assistant memory.", "description_zh": "", "downloads": 261, "homepage": "https://clawhub.ai/2830201534/pidan-memory", "iconUrl": null, "installs": 25, "name": "Pidan Memory", "ownerName": "2830201534", "score": 19579.894973743438, "slug": "pidan-memory", "source": "clawhub", "stars": 0, "tags": null, "updated_at": 1776759382781, "version": "1.1.2"}]}