{"page": 266, "total_pages": 522, "total": 26073, "skills": [{"category": "security-compliance", "created_at": 1772797267723, "description": "Provides benchmarks and guidance for pricing, compliance, staffing, compensation, safety, and growth in veterinary practice operations.", "description_zh": "", "downloads": 261, "homepage": "https://clawhub.ai/1kalin/afrexai-veterinary-practice", "iconUrl": null, "installs": 18, "name": "Veterinary Practice Operations", "ownerName": "1kalin", "score": 19594.594594594593, "slug": "afrexai-veterinary-practice", "source": "clawhub", "stars": 0, "tags": ["animal hospital", "dea", "operations", "osha", "vet", "veterinary"], "updated_at": 1776759382581, "version": "1.0.0"}, {"category": "", "created_at": 1774783492621, "description": "Academic paper search using Semantic Scholar API. Free API - no key required. Search research papers, get citations, abstracts, authors, and download PDFs. U...", "description_zh": "", "downloads": 261, "homepage": "https://clawhub.ai/zhoujc11/google-scholar-search", "iconUrl": null, "installs": 90, "name": "Google Scholar Search", "ownerName": "zhoujc11", "score": 17611.336032388663, "slug": "google-scholar-search", "source": "clawhub", "stars": 0, "tags": null, "updated_at": 1776758182634, "version": "1.0.0"}, {"category": "security-compliance", "created_at": 1773202118140, "description": "Get the latest cybersecurity news, vulnerability disclosures, and threat intelligence. Aggregates CVEs from NIST NVD, CISA KEV catalog, and security advisori...", "description_zh": "", "downloads": 261, "homepage": "https://clawhub.ai/urianpaul94/security-news", "iconUrl": null, "installs": 17, "name": "Security News", "ownerName": "urianpaul94", "score": 15982.853643600734, "slug": "security-news", "source": "clawhub", "stars": 0, "tags": null, "updated_at": 1776756982561, "version": "2.0.0"}, {"category": "content-creation", "created_at": 1773066365640, "description": "Search and play Netflix content on Android TV. When the user asks to play a specific Netflix title on TV, the agent looks up the title ID and executes ADB co...", "description_zh": "", "downloads": 261, "homepage": "https://clawhub.ai/jiayun/androidtv-netflix", "iconUrl": null, "installs": 31, "name": "Android TV Netflix", "ownerName": "jiayun", "score": 93548.38709677418, "slug": "androidtv-netflix", "source": "clawhub", "stars": 0, "tags": null, "updated_at": 1776748872254, "version": "1.0.0"}, {"category": "data-analysis", "created_at": 1773080326037, "description": "Produce scheduled A-share and fund intelligence reports with bullish and bearish signals, source-backed analysis, and position-adjustment suggestions. Use wh...", "description_zh": "", "downloads": 261, "homepage": "https://clawhub.ai/warriorfan/ashare-fund-intel", "iconUrl": null, "installs": 65, "name": "Ashare Fund Intel", "ownerName": "warriorfan", "score": 93548.38709677418, "slug": "ashare-fund-intel", "source": "clawhub", "stars": 0, "tags": null, "updated_at": 1776748872228, "version": "1.0.0"}, {"category": "developer-tools", "created_at": 1773065540840, "description": "Kuvera portfolio & market data CLI. Query mutual fund data, gold prices, USD/INR rates, fund category returns, and user portfolio info from Kuvera. Use when...", "description_zh": "", "downloads": 261, "homepage": "https://clawhub.ai/ankitsul/kuvera", "iconUrl": null, "installs": 50, "name": "Kuvera Portfolio & Market Data", "ownerName": "ankitsul", "score": 93548.38709677418, "slug": "kuvera", "source": "clawhub", "stars": 0, "tags": ["finance", "india", "investing", "mutual-funds"], "updated_at": 1776748872204, "version": "1.0.0"}, {"category": "developer-tools", "created_at": 1772805441598, "description": "Compare health insurance plans, estimate total yearly costs, and choose coverage that fits medical usage, prescriptions, and financial risk.", "description_zh": "", "downloads": 261, "homepage": "https://clawhub.ai/ivangdavila/health-insurance", "iconUrl": null, "installs": 22, "name": "Health Insurance", "ownerName": "ivangdavila", "score": 93548.38709677418, "slug": "health-insurance", "source": "clawhub", "stars": 0, "tags": null, "updated_at": 1776748872193, "version": "1.0.0"}, {"category": "developer-tools", "created_at": 1772797569923, "description": "Manage podcasts on Transistor.fm via their API. Use when creating, publishing, updating, or deleting podcast episodes, uploading audio files, listing shows/e...", "description_zh": "", "downloads": 261, "homepage": "https://clawhub.ai/christophrumpel/transistorfm", "iconUrl": null, "installs": 4, "name": "Transistor FM", "ownerName": "christophrumpel", "score": 92553.19148936169, "slug": "transistorfm", "source": "clawhub", "stars": 0, "tags": null, "updated_at": 1776748872138, "version": "1.0.0"}, {"category": "content-creation", "created_at": 1773219747191, "description": "Extract speech-to-text from Douyin (TikTok China) videos, get watermark-free download links, and download videos. Use when user shares a Douyin link, asks to...", "description_zh": "", "downloads": 261, "homepage": "https://clawhub.ai/hljwwyy123/dy-video-to-text", "iconUrl": null, "installs": 83, "name": "dy-video-to-text", "ownerName": "hljwwyy123", "score": 92553.19148936169, "slug": "dy-video-to-text", "source": "clawhub", "stars": 0, "tags": null, "updated_at": 1776748872134, "version": "1.0.0"}, {"category": "developer-tools", "created_at": 1773909820926, "description": "Control Browser's kernel for web automation. Supports web navigation, element interaction, page scrolling, file/video downloading, and content extraction.", "description_zh": "", "downloads": 261, "homepage": "https://clawhub.ai/handongpu16/automation-browser", "iconUrl": null, "installs": 27, "name": "automation browser", "ownerName": "handongpu16", "score": 92553.19148936169, "slug": "automation-browser", "source": "clawhub", "stars": 0, "tags": null, "updated_at": 1776748872056, "version": "1.0.0"}, {"category": "developer-tools", "created_at": 1773064332125, "description": "Freshdesk helpdesk — manage tickets, contacts, companies, and agents via REST API", "description_zh": "", "downloads": 261, "homepage": "https://clawhub.ai/aiwithabidi/freshdesk", "iconUrl": null, "installs": 6, "name": "Freshdesk", "ownerName": "aiwithabidi", "score": 92553.19148936169, "slug": "freshdesk", "source": "clawhub", "stars": 0, "tags": null, "updated_at": 1776748872048, "version": "1.0.0"}, {"category": "developer-tools", "created_at": 1772798347176, "description": "Compare model candidates using weighted metrics and deterministic ranking outputs. Use for benchmark leaderboards and model promotion decisions.", "description_zh": "", "downloads": 261, "homepage": "https://clawhub.ai/0x-professor/ml-model-eval-benchmark", "iconUrl": null, "installs": 10, "name": "Ml Model Eval Benchmark", "ownerName": "0x-professor", "score": 92553.19148936169, "slug": "ml-model-eval-benchmark", "source": "clawhub", "stars": 0, "tags": null, "updated_at": 1776748872044, "version": "0.1.0"}, {"category": "communication-collaboration", "created_at": 1772795768260, "description": "Secure, safe-by-default Fastmail integration (email, contacts, calendar) via JMAP + CalDAV. Use when you want to verify Fastmail setup, triage/search email,...", "description_zh": "", "downloads": 261, "homepage": "https://clawhub.ai/tassiedaddy/fastmail-suite", "iconUrl": null, "installs": 8, "name": "Fastmail Suite", "ownerName": "tassiedaddy", "score": 92553.19148936169, "slug": "fastmail-suite", "source": "clawhub", "stars": 0, "tags": null, "updated_at": 1776748872002, "version": "0.1.4"}, {"category": "developer-tools", "created_at": 1773060815911, "description": "tmux + launchd multi-project Codex CLI automation system. Watchdog-driven loop that monitors multiple Codex sessions in tmux, auto-nudges idle sessions, hand...", "description_zh": "", "downloads": 261, "homepage": "https://clawhub.ai/imwyvern/codex-autopilot", "iconUrl": null, "installs": 8, "name": "Codex Autopilot", "ownerName": "imwyvern", "score": 92553.19148936169, "slug": "codex-autopilot", "source": "clawhub", "stars": 0, "tags": null, "updated_at": 1776748871939, "version": "0.6.0"}, {"category": "developer-tools", "created_at": 1772797773422, "description": "Do App Store Optimization (ASO) with the ASO Suite CLI across iPhone, iPad, Mac, Apple TV, Apple Watch, and VisionOS by finding keywords with popularity/diff...", "description_zh": "", "downloads": 260, "homepage": "https://clawhub.ai/hesselbom/asosuite", "iconUrl": null, "installs": 10, "name": "ASO Suite", "ownerName": "hesselbom", "score": 99290.78014184398, "slug": "asosuite", "source": "clawhub", "stars": 1, "tags": null, "updated_at": 1776748872074, "version": "0.1.0"}, {"category": "communication-collaboration", "created_at": 1773064498866, "description": "The complete orchestration suite for 2026 AI-driven newsletters. Automates data harvesting, trend distillation, and multi-channel distribution (Threads/Email...", "description_zh": "", "downloads": 260, "homepage": "https://clawhub.ai/tmstudio667-commits/ai-newsletter-toolkit", "iconUrl": null, "installs": 18, "name": "AI Newsletter Toolkit", "ownerName": "tmstudio667-commits", "score": 5678.095654072942, "slug": "ai-newsletter-toolkit", "source": "clawhub", "stars": 0, "tags": ["2026", "altos", "automation", "marketing", "newsletter"], "updated_at": 1776769190438, "version": "1.1.0"}, {"category": "developer-tools", "created_at": 1773086147071, "description": "Enables local hybrid memory search using QMD with optimized collections, automatic indexing, and multi-agent sharing to reduce API costs by $50-300/month.", "description_zh": "", "downloads": 260, "homepage": "https://clawhub.ai/sieyer/qmd-memory-1-0-0", "iconUrl": null, "installs": 12, "name": "Qmd Memory 1.0.0", "ownerName": "sieyer", "score": 3332.9060376874763, "slug": "qmd-memory-1-0-0", "source": "clawhub", "stars": 0, "tags": null, "updated_at": 1776768671214, "version": "1.0.0"}, {"category": "", "created_at": 1774893776275, "description": "Captures learnings, errors, and corrections to enable continuous improvement. Use when: (1) A command or operation fails unexpectedly, (2) User corrects Clau...", "description_zh": "", "downloads": 260, "homepage": "https://clawhub.ai/fardeenkarim/self-improvement-ai", "iconUrl": null, "installs": 113, "name": "Self Improvement Ai", "ownerName": "fardeenkarim", "score": 5869.074492099323, "slug": "self-improvement-ai", "source": "clawhub", "stars": 0, "tags": null, "updated_at": 1776764050117, "version": "1.0.0"}, {"category": "data-analysis", "created_at": 1773089574144, "description": "Fetch Amazon Ads Sponsored Products campaign reports asynchronously by requesting and polling separately to avoid API timeouts, with no npm dependencies.", "description_zh": "", "downloads": 260, "homepage": "https://clawhub.ai/zero2ai-hub/skill-amazon-ads-reporter", "iconUrl": null, "installs": 58, "name": "Amazon Ads Reporter", "ownerName": "zero2ai-hub", "score": 5325.686194182712, "slug": "skill-amazon-ads-reporter", "source": "clawhub", "stars": 0, "tags": null, "updated_at": 1776763450242, "version": "1.0.0"}, {"category": "content-creation", "created_at": 1773067560601, "description": "Collection of developer tools including Chrome extension templates, AI code reviews, GitHub README generators, SaaS landing pages, tech blogs, and tweet thre...", "description_zh": "", "downloads": 260, "homepage": "https://clawhub.ai/sunshine-del-ux/dev-tools-pack", "iconUrl": null, "installs": 17, "name": "Dev Tools Pack", "ownerName": "sunshine-del-ux", "score": 93862.81588447654, "slug": "dev-tools-pack", "source": "clawhub", "stars": 0, "tags": null, "updated_at": 1776759383086, "version": "1.0.0"}, {"category": "content-creation", "created_at": 1773076694605, "description": "Generate blog posts, social media content, marketing emails, product descriptions, and SEO-optimized copy using AI.", "description_zh": "", "downloads": 260, "homepage": "https://clawhub.ai/sunshine-del-ux/ai-content-generator", "iconUrl": null, "installs": 20, "name": "Ai Content Generator", "ownerName": "sunshine-del-ux", "score": 93862.81588447654, "slug": "ai-content-generator", "source": "clawhub", "stars": 0, "tags": null, "updated_at": 1776759383024, "version": "1.0.0"}, {"category": "developer-tools", "created_at": 1772800900442, "description": "Track and monitor MiniMax API usage with real-time progress bars, automatic resets, and scheduled reminders for OpenClaw agents.", "description_zh": "", "downloads": 260, "homepage": "https://clawhub.ai/qiaotucodes/openclaw-skill-minimax-tracker", "iconUrl": null, "installs": 27, "name": "Openclaw Skill Minimax Tracker", "ownerName": "qiaotucodes", "score": 19622.641509433965, "slug": "openclaw-skill-minimax-tracker", "source": "clawhub", "stars": 0, "tags": null, "updated_at": 1776759382891, "version": "0.1.0"}, {"category": "developer-tools", "created_at": 1773064982624, "description": "Conversational Yield Optimization Engine — treats every bot conversation as a yield-bearing financial instrument. Five zero-cost engines detect sentiment arb...", "description_zh": "", "downloads": 260, "homepage": "https://clawhub.ai/jcools1977/opencrawl", "iconUrl": null, "installs": 25, "name": "ConvoYield", "ownerName": "jcools1977", "score": 16300.940438871472, "slug": "opencrawl", "source": "clawhub", "stars": 0, "tags": null, "updated_at": 1776759382772, "version": "1.0.0"}, {"category": "data-analysis", "created_at": 1773081300629, "description": "Screen and analyze stocks based on free cash flow and fundamentals to identify truly profitable companies with health scores and key metrics.", "description_zh": "", "downloads": 260, "homepage": "https://clawhub.ai/674067795w-wq/find-profitable-stocks", "iconUrl": null, "installs": 57, "name": "Find Profitable Stocks", "ownerName": "674067795w-wq", "score": 19607.843137254902, "slug": "find-profitable-stocks", "source": "clawhub", "stars": 0, "tags": null, "updated_at": 1776759382635, "version": "1.0.0"}, {"category": "developer-tools", "created_at": 1773916337578, "description": "Provides human-like browser automation with stealth features to bypass anti-bot measures using natural mouse, keyboard, and scroll behaviors.", "description_zh": "", "downloads": 260, "homepage": "https://clawhub.ai/andyless/human-browser-use", "iconUrl": null, "installs": 70, "name": "Human Browser Use", "ownerName": "andyless", "score": 19504.876219054764, "slug": "human-browser-use", "source": "clawhub", "stars": 0, "tags": ["anti-detection", "automation", "browser", "browser-use", "human-like", "stealth"], "updated_at": 1776759382458, "version": "0.2.1"}, {"category": "developer-tools", "created_at": 1773066067642, "description": "Helps locate local files by searching common directories for a specified file name or partial name on Windows, macOS, and Linux.", "description_zh": "", "downloads": 260, "homepage": "https://clawhub.ai/fidods/findfilepath", "iconUrl": null, "installs": 9, "name": "findFilePath", "ownerName": "fidods", "score": 19578.313253012046, "slug": "findfilepath", "source": "clawhub", "stars": 0, "tags": null, "updated_at": 1776759382225, "version": "1.0.0"}, {"category": "developer-tools", "created_at": 1773069123449, "description": "Facilitates full-cycle coding workflow in HappyCoding AI Coding: from requirement discussion, code edits, preview, to saving, publishing, and evidence docume...", "description_zh": "", "downloads": 260, "homepage": "https://clawhub.ai/dongkuang/happycoding-aicoding", "iconUrl": null, "installs": 15, "name": "HappyCoding AI Coding", "ownerName": "dongkuang", "score": 19622.641509433965, "slug": "happycoding-aicoding", "source": "clawhub", "stars": 0, "tags": null, "updated_at": 1776759382101, "version": "1.0.0"}, {"category": "productivity", "created_at": 1773065002332, "description": "Self-improving conversational skill. Gets better at talking with every use. Saves what works to memory, evolves identity over time.", "description_zh": "", "downloads": 260, "homepage": "https://clawhub.ai/dandysuper/ralph-talk", "iconUrl": null, "installs": 29, "name": "ralph talker", "ownerName": "dandysuper", "score": 17918.67677463818, "slug": "ralph-talk", "source": "clawhub", "stars": 0, "tags": null, "updated_at": 1776758482515, "version": "1.0.0"}, {"category": "productivity", "created_at": 1772805201958, "description": "Instagram Business manager: post photos, reels, stories & get insights. Requires: powershell/pwsh. Reads ~/.config/instagram-page/credentials.json (IG_ACCESS...", "description_zh": "", "downloads": 260, "homepage": "https://clawhub.ai/seph1709/instagram-page", "iconUrl": null, "installs": 22, "name": "Instagram Page", "ownerName": "seph1709", "score": 92857.14285714286, "slug": "instagram-page", "source": "clawhub", "stars": 0, "tags": null, "updated_at": 1776748872262, "version": "1.0.1"}, {"category": "ai-intelligence", "created_at": 1772796911875, "description": "Connect your OpenClaw agent to a Tempo workspace. Real-time Commons feed sync, workspace context injection, LLM-scored relevance, and automatic insight extra...", "description_zh": "", "downloads": 260, "homepage": "https://clawhub.ai/moroshek/tempo-workspace", "iconUrl": null, "installs": 25, "name": "Tempo Workspace", "ownerName": "moroshek", "score": 93189.9641577061, "slug": "tempo-workspace", "source": "clawhub", "stars": 0, "tags": null, "updated_at": 1776748872248, "version": "1.0.0"}, {"category": "developer-tools", "created_at": 1772796724663, "description": "9 engineering disciplines for AI agents — TDD, debugging, code review, planning, and multi-agent coordination. Build software like it matters.", "description_zh": "", "downloads": 260, "homepage": "https://clawhub.ai/gaurangbhattspaceo/craftwork", "iconUrl": null, "installs": 11, "name": "Craftwork", "ownerName": "gaurangbhattspaceo", "score": 93189.9641577061, "slug": "craftwork", "source": "clawhub", "stars": 0, "tags": null, "updated_at": 1776748872239, "version": "1.0.0"}, {"category": "ai-intelligence", "created_at": 1772804247082, "description": "Find flights with Starlink satellite WiFi. Filters to Starlink-equipped airlines only, ranks by WiFi score/price/jet lag, returns affiliate booking links. Us...", "description_zh": "", "downloads": 260, "homepage": "https://clawhub.ai/assistant-design/clawflight", "iconUrl": null, "installs": 10, "name": "ClawFlight", "ownerName": "assistant-design", "score": 93189.9641577061, "slug": "clawflight", "source": "clawhub", "stars": 0, "tags": null, "updated_at": 1776748872236, "version": "1.0.0"}, {"category": "content-creation", "created_at": 1772803672430, "description": "Write AI-citable content in proven formats including FAQ pages, definition articles (\"What is X?\"), comparison guides (A vs B), how-to guides, and original d...", "description_zh": "", "downloads": 260, "homepage": "https://clawhub.ai/geoly-geo/geo-citation-writer", "iconUrl": null, "installs": 13, "name": "AI Citation Content Writer", "ownerName": "geoly-geo", "score": 93189.9641577061, "slug": "geo-citation-writer", "source": "clawhub", "stars": 0, "tags": ["citations", "content", "copywriting", "geo"], "updated_at": 1776748872170, "version": "1.0.0"}, {"category": "content-creation", "created_at": 1773060587600, "description": "Youtube Highest Quality Downloader - Download highest quality silent video and pure audio from YouTube, then merge into video with sound", "description_zh": "", "downloads": 260, "homepage": "https://clawhub.ai/accidwar/youtube-hq-downloader", "iconUrl": null, "installs": 19, "name": "Youtube Hq Downloader", "ownerName": "accidwar", "score": 92198.58156028368, "slug": "youtube-hq-downloader", "source": "clawhub", "stars": 0, "tags": null, "updated_at": 1776748872140, "version": "1.0.1"}, {"category": "productivity", "created_at": 1772805072914, "description": "Download manga from Kmoe (kxx.moe / mox.moe) with concurrent downloads, credential management, and automation callbacks.", "description_zh": "", "downloads": 260, "homepage": "https://clawhub.ai/inphinitiz/kmoe-manga-download", "iconUrl": null, "installs": 14, "name": "Kmoe Manga Download", "ownerName": "inphinitiz", "score": 92198.58156028368, "slug": "kmoe-manga-download", "source": "clawhub", "stars": 0, "tags": null, "updated_at": 1776748871989, "version": "1.0.0"}, {"category": "communication-collaboration", "created_at": 1773057969655, "description": "Use weavmail CLI to manage emails for the current task. Use when you need to read, send, reply to, or move emails as part of completing a task.", "description_zh": "", "downloads": 260, "homepage": "https://clawhub.ai/yankeguo/weavmail", "iconUrl": null, "installs": 14, "name": "weavmail", "ownerName": "yankeguo", "score": 92198.58156028368, "slug": "weavmail", "source": "clawhub", "stars": 0, "tags": null, "updated_at": 1776748871955, "version": "1.0.5"}, {"category": "security-compliance", "created_at": 1773075667829, "description": "botlearn-healthcheck — BotLearn autonomous health inspector for OpenClaw instances across 5 domains (hardware, config, security, skills, autonomy); triggers...", "description_zh": "", "downloads": 259, "homepage": "https://clawhub.ai/calvinxhk/botlearn-healthcheck", "iconUrl": null, "installs": 14, "name": "botlearn-healthcheck", "ownerName": "calvinxhk", "score": 100000, "slug": "botlearn-healthcheck", "source": "clawhub", "stars": 1, "tags": null, "updated_at": 1776748872212, "version": "1.0.5"}, {"category": "developer-tools", "created_at": 1773079986077, "description": "Gives your OpenClaw agent persistent memory across every session. MEMORIA maintains a structured knowledge layer: who you are, what you're building, every de...", "description_zh": "", "downloads": 259, "homepage": "https://clawhub.ai/contrario/agent-memoria", "iconUrl": null, "installs": 6, "name": "MEMORIA: Persistent Memory Layer for AI Agents", "ownerName": "contrario", "score": 98936.17021276597, "slug": "agent-memoria", "source": "clawhub", "stars": 1, "tags": ["agent", "context", "developer", "founder", "memory", "persistence", "persistent", "personal", "productivity"], "updated_at": 1776748872097, "version": "1.0.2"}, {"category": "communication-collaboration", "created_at": 1772804923039, "description": "Snooze incoming notifications during your sleep window and receive a morning digest when you wake up. Supports Telegram, WhatsApp, and any provider OpenClaw...", "description_zh": "", "downloads": 259, "homepage": "https://clawhub.ai/hardik500/sleep-snooze", "iconUrl": null, "installs": 8, "name": "Sleep Snooze", "ownerName": "hardik500", "score": 98936.17021276597, "slug": "sleep-snooze", "source": "clawhub", "stars": 1, "tags": null, "updated_at": 1776748872031, "version": "1.0.2"}, {"category": "security-compliance", "created_at": 1773220860950, "description": "A comprehensive AI agent skill for anyone navigating a legal case. Whether you are the plaintiff, the defendant, or somewhere in between — this skill helps y...", "description_zh": "", "downloads": 259, "homepage": "https://clawhub.ai/agistack/case", "iconUrl": null, "installs": 48, "name": "Case", "ownerName": "agistack", "score": 9203.980099502487, "slug": "case", "source": "clawhub", "stars": 0, "tags": ["case", "court", "lawsuit", "legal", "proceedings"], "updated_at": 1776765971375, "version": "1.0.0"}, {"category": "", "created_at": 1774883841722, "description": "Automatically accesses Xiaohongshu's Explore page via browser automation, inputs keywords into the search bar, and collects the list of related keywords from...", "description_zh": "", "downloads": 259, "homepage": "https://clawhub.ai/openlark/xiaohongshu-keyword-collector", "iconUrl": null, "installs": 66, "name": "Xiaohongshu Suggest Keywords", "ownerName": "openlark", "score": 9934.790947449175, "slug": "xiaohongshu-keyword-collector", "source": "clawhub", "stars": 0, "tags": null, "updated_at": 1776765549791, "version": "1.0.2"}, {"category": "content-creation", "created_at": 1772801085322, "description": "Use when the user wants to change a video's aspect ratio or reformat it for a specific platform — e.g. \"convert to vertical\", \"make it 9:16\", \"crop for TikTo...", "description_zh": "", "downloads": 259, "homepage": "https://clawhub.ai/symbolk/video-resize", "iconUrl": null, "installs": 16, "name": "Video Resize", "ownerName": "symbolk", "score": 12924.151696606787, "slug": "video-resize", "source": "clawhub", "stars": 0, "tags": null, "updated_at": 1776764650798, "version": "1.0.0"}, {"category": "developer-tools", "created_at": 1773060190019, "description": "USE THIS for DeepSeek models. Access DeepSeek V3 ($0.27/1M), DeepSeek R1 ($0.80/1M), DeepSeek R1 Online. Best for coding, reasoning, cost-effective AI. No di...", "description_zh": "", "downloads": 259, "homepage": "https://clawhub.ai/xiaoyinqu/deepseek-api", "iconUrl": null, "installs": 71, "name": "DeepSeek API", "ownerName": "xiaoyinqu", "score": 6715.063520871144, "slug": "deepseek-api", "source": "clawhub", "stars": 0, "tags": null, "updated_at": 1776762850447, "version": "1.0.0"}, {"category": "productivity", "created_at": 1773074553055, "description": "Kazakhstan tax assistant — НК РК / ҚР Салық кодексі (актуальная редакция). Отвечает на вопросы о налогах на русском и казахском языках. Ищет статьи, объясняе...", "description_zh": "", "downloads": 259, "homepage": "https://clawhub.ai/k0zibek/kz-tax-code", "iconUrl": null, "installs": 7, "name": "Kazakhstan tax assistant", "ownerName": "k0zibek", "score": 17691.256830601094, "slug": "kz-tax-code", "source": "clawhub", "stars": 0, "tags": null, "updated_at": 1776759383166, "version": "1.1.2"}, {"category": "data-analysis", "created_at": 1773887612015, "description": "Automates MetaTrader 5 trading: connect, monitor accounts, execute buy/sell orders with SL/TP, retrieve market data, and manage positions via scripts.", "description_zh": "", "downloads": 259, "homepage": "https://clawhub.ai/canvascn00-crypto/mt5-trading-assistant", "iconUrl": null, "installs": 53, "name": "mt5-trading-assistant", "ownerName": "canvascn00-crypto", "score": 19561.933534743202, "slug": "mt5-trading-assistant", "source": "clawhub", "stars": 0, "tags": null, "updated_at": 1776759382944, "version": "1.0.0"}, {"category": "ai-intelligence", "created_at": 1772804480874, "description": "Provides human-help support to AI agents via HeySummon by monitoring requests, sending notifications, and handling provider replies through a secure platform.", "description_zh": "", "downloads": 259, "homepage": "https://clawhub.ai/thomasansems/heysummon-provider", "iconUrl": null, "installs": 18, "name": "Hey summon - provider", "ownerName": "thomasansems", "score": 1448.1409001956947, "slug": "heysummon-provider", "source": "clawhub", "stars": 0, "tags": null, "updated_at": 1776759382732, "version": "0.1.0-beta"}, {"category": "developer-tools", "created_at": 1772805193462, "description": "Generate custom emoji and sticker packs using each::sense AI. Create personalized emoji from photos, expression packs, animated stickers, and platform-specif...", "description_zh": "", "downloads": 259, "homepage": "https://clawhub.ai/eftalyurtseven/emoji-sticker-generation", "iconUrl": null, "installs": 17, "name": "Emoji Sticker Generation", "ownerName": "eftalyurtseven", "score": 19357.249626307923, "slug": "emoji-sticker-generation", "source": "clawhub", "stars": 0, "tags": null, "updated_at": 1776759257641, "version": "1.0.0"}, {"category": "developer-tools", "created_at": 1773063513512, "description": "Download and install skills from ClawHub directly via curl, bypassing official CLI rate limits. Use when the user wants to install one or more ClawHub skills...", "description_zh": "", "downloads": 259, "homepage": "https://clawhub.ai/upupc/clawhub-install", "iconUrl": null, "installs": 8, "name": "clawhub-install", "ownerName": "upupc", "score": 92500, "slug": "clawhub-install", "source": "clawhub", "stars": 0, "tags": null, "updated_at": 1776748872256, "version": "1.0.1"}, {"category": "productivity", "created_at": 1773084146059, "description": "Comprehensive psychoeducation on mental health conditions, therapy modalities, evidence-based coping techniques, psychiatric medications, and self-assessment...", "description_zh": "", "downloads": 259, "homepage": "https://clawhub.ai/jk-0001/mental-health-psychoeducation", "iconUrl": null, "installs": 26, "name": "Mental Health Psychoeducation", "ownerName": "jk-0001", "score": 92831.541218638, "slug": "mental-health-psychoeducation", "source": "clawhub", "stars": 0, "tags": null, "updated_at": 1776748872250, "version": "0.1.0"}, {"category": "ai-intelligence", "created_at": 1773074899807, "description": "Discover other AI agents across the internet using OADP (Open Agent Discovery Protocol). Scan any domain for agent signals across 6 layers. Find coordination...", "description_zh": "", "downloads": 259, "homepage": "https://clawhub.ai/imaflytok/agent-ping", "iconUrl": null, "installs": 20, "name": "Agent Ping", "ownerName": "imaflytok", "score": 92831.541218638, "slug": "agent-ping", "source": "clawhub", "stars": 0, "tags": null, "updated_at": 1776748872244, "version": "1.1.0"}]}