{"page": 267, "total_pages": 522, "total": 26073, "skills": [{"category": "productivity", "created_at": 1772799337152, "description": "CDC open data and WHO global health indicators. 3 tools for public health intelligence.", "description_zh": "", "downloads": 259, "homepage": "https://clawhub.ai/martc03/gov-public-health", "iconUrl": null, "installs": 10, "name": "Gov Public Health", "ownerName": "martc03", "score": 92831.541218638, "slug": "gov-public-health", "source": "clawhub", "stars": 0, "tags": null, "updated_at": 1776748872172, "version": "1.0.0"}, {"category": "productivity", "created_at": 1772803860097, "description": "Set up, troubleshoot, and optimize HomePod and HomeKit audio workflows with reliable Siri control and room-aware playback tuning.", "description_zh": "", "downloads": 259, "homepage": "https://clawhub.ai/ivangdavila/homepod", "iconUrl": null, "installs": 9, "name": "HomePod", "ownerName": "ivangdavila", "score": 91843.97163120568, "slug": "homepod", "source": "clawhub", "stars": 0, "tags": null, "updated_at": 1776748872163, "version": "1.0.0"}, {"category": "productivity", "created_at": 1772799876733, "description": "Federal Register rules, notices, and agency documents. 4 tools for regulatory monitoring.", "description_zh": "", "downloads": 259, "homepage": "https://clawhub.ai/martc03/gov-regulatory", "iconUrl": null, "installs": 8, "name": "Gov Regulatory", "ownerName": "martc03", "score": 91843.97163120568, "slug": "gov-regulatory", "source": "clawhub", "stars": 0, "tags": null, "updated_at": 1776748872151, "version": "1.0.0"}, {"category": "data-analysis", "created_at": 1772803342390, "description": "Format any content into AI-readable structured formats that maximize citation probability. Converts unstructured text into GEO-optimized layouts using header...", "description_zh": "", "downloads": 259, "homepage": "https://clawhub.ai/geoly-geo/geo-structured-writer", "iconUrl": null, "installs": 14, "name": "AI-Friendly Structured Writer", "ownerName": "geoly-geo", "score": 91843.97163120568, "slug": "geo-structured-writer", "source": "clawhub", "stars": 0, "tags": ["formatting", "geo", "structure", "writing"], "updated_at": 1776748872149, "version": "1.0.0"}, {"category": "ai-intelligence", "created_at": 1772797785801, "description": "Upload and download files to Autonomys Network permanent decentralized storage via Auto-Drive. Save memories as a linked-list chain for resurrection — rebuil...", "description_zh": "", "downloads": 259, "homepage": "https://clawhub.ai/jim-counter/auto-drive-jim", "iconUrl": null, "installs": 18, "name": "Auto Drive", "ownerName": "jim-counter", "score": 91843.97163120568, "slug": "auto-drive-jim", "source": "clawhub", "stars": 0, "tags": null, "updated_at": 1776748872065, "version": "1.0.0"}, {"category": "communication-collaboration", "created_at": 1772799797067, "description": "Standard formatting for agent messages. Visual hierarchy, status indicators, progress bars — scannable on Telegram, Discord, Slack, WhatsApp. The baseline fo...", "description_zh": "", "downloads": 259, "homepage": "https://clawhub.ai/rmarji/agent-format", "iconUrl": null, "installs": 8, "name": "Agent Format", "ownerName": "rmarji", "score": 91843.97163120568, "slug": "agent-format", "source": "clawhub", "stars": 0, "tags": null, "updated_at": 1776748872050, "version": "1.0.0"}, {"category": "data-analysis", "created_at": 1772804149857, "description": "Discover and call paid AI agents from the MeshCore marketplace. Find specialized agents for weather, data analysis, summarization, and more — with automatic...", "description_zh": "", "downloads": 259, "homepage": "https://clawhub.ai/anegash/meshcore-marketplace", "iconUrl": null, "installs": 29, "name": "MeshCore Marketplace", "ownerName": "anegash", "score": 91843.97163120568, "slug": "meshcore-marketplace", "source": "clawhub", "stars": 0, "tags": null, "updated_at": 1776748872027, "version": "1.0.0"}, {"category": "communication-collaboration", "created_at": 1772799847847, "description": "Find and qualify B2B prospects instantly. Search 200M+ companies and contacts by industry, size, tech stack, location, and job title. Get verified emails and...", "description_zh": "", "downloads": 259, "homepage": "https://clawhub.ai/haroexplorium/explorium-sales-prospecting", "iconUrl": null, "installs": 14, "name": "b2b-sales-prospecting-agent", "ownerName": "haroexplorium", "score": 91843.97163120568, "slug": "explorium-sales-prospecting", "source": "clawhub", "stars": 0, "tags": null, "updated_at": 1776748871993, "version": "1.0.0"}, {"category": "ai-intelligence", "created_at": 1772804554448, "description": "Give your agent controlled access to all AirTags in your Apple account to locate items, run diagnostics, and recover setup failures.", "description_zh": "", "downloads": 259, "homepage": "https://clawhub.ai/ivangdavila/airtag", "iconUrl": null, "installs": 15, "name": "AirTag", "ownerName": "ivangdavila", "score": 91843.97163120568, "slug": "airtag", "source": "clawhub", "stars": 0, "tags": null, "updated_at": 1776748871959, "version": "1.0.0"}, {"category": "ai-intelligence", "created_at": 1773062950496, "description": "When the agent is idle, connect to the Rent My Browser marketplace and execute browser tasks for consumers. Earn money by renting out the node's browser duri...", "description_zh": "", "downloads": 258, "homepage": "https://clawhub.ai/0xpasho/rent-my-browser", "iconUrl": null, "installs": 15, "name": "Rent My Browser", "ownerName": "0xpasho", "score": 20933.734939759037, "slug": "rent-my-browser", "source": "clawhub", "stars": 1, "tags": null, "updated_at": 1776759382240, "version": "1.0.4"}, {"category": "productivity", "created_at": 1773065362652, "description": "Automate Pinterest marketing with multi-account pin scheduling, board management, and affiliate traffic generation. Run multiple Pinterest accounts safely wi...", "description_zh": "", "downloads": 258, "homepage": "https://clawhub.ai/luis2404123/pinterest-automation", "iconUrl": null, "installs": 24, "name": "Pinterest Automation", "ownerName": "luis2404123", "score": 6986.190089358245, "slug": "pinterest-automation", "source": "clawhub", "stars": 0, "tags": null, "updated_at": 1776765549885, "version": "1.0.0"}, {"category": "data-analysis", "created_at": 1773951976560, "description": "Use when the user requests industry research reports, market analysis, business trend analysis, or professional research documents. This skill provides struc...", "description_zh": "", "downloads": 258, "homepage": "https://clawhub.ai/hy0235/research-report-skill", "iconUrl": null, "installs": 60, "name": "Research Report Skill", "ownerName": "hy0235", "score": 13416.536661466458, "slug": "research-report-skill", "source": "clawhub", "stars": 0, "tags": null, "updated_at": 1776764350485, "version": "2.0.0"}, {"category": "communication-collaboration", "created_at": 1773417575619, "description": "A skill for sending notifications via WeChat Work.", "description_zh": "", "downloads": 258, "homepage": "https://clawhub.ai/yc-weichao/qywx-notify", "iconUrl": null, "installs": 84, "name": "qywx-notify", "ownerName": "yc-weichao", "score": 23327.30560578662, "slug": "qywx-notify", "source": "clawhub", "stars": 0, "tags": null, "updated_at": 1776761745425, "version": "1.0.0"}, {"category": "productivity", "created_at": 1773290073898, "description": "A WorkBuddy skill for quick diary and memo recording with automatic year/month/day directory organization. Supports Chinese and English triggers - start with...", "description_zh": "", "downloads": 258, "homepage": "https://clawhub.ai/italks/crayfish-diary", "iconUrl": null, "installs": 42, "name": "Crayfish Diary", "ownerName": "italks", "score": 8781.48400272294, "slug": "crayfish-diary", "source": "clawhub", "stars": 0, "tags": null, "updated_at": 1776761715052, "version": "0.1.1"}, {"category": "security-compliance", "created_at": 1772796612956, "description": "Search, score, and submit 11,000+ AI agent tools from SkillsIndex, filtered by ecosystem, category, and rated on security, utility, and maintenance.", "description_zh": "", "downloads": 258, "homepage": "https://clawhub.ai/thomasblc/skillsindex-mcp", "iconUrl": null, "installs": 9, "name": "Skills Indec MCP", "ownerName": "thomasblc", "score": 19369.369369369368, "slug": "skillsindex-mcp", "source": "clawhub", "stars": 0, "tags": null, "updated_at": 1776759383063, "version": "1.0.1"}, {"category": "developer-tools", "created_at": 1772799301731, "description": "Deterministic end-to-end test skill for validating CLI publish lifecycle and verifying registry and metadata round-trips.", "description_zh": "", "downloads": 258, "homepage": "https://clawhub.ai/vacinc/e2e-repro3-1772127182276", "iconUrl": null, "installs": 7, "name": "E2E e2e-repro3-1772127182276", "ownerName": "vacinc", "score": 19486.404833836856, "slug": "e2e-repro3-1772127182276", "source": "clawhub", "stars": 0, "tags": null, "updated_at": 1776759382959, "version": "1.0.0"}, {"category": "communication-collaboration", "created_at": 1773219794682, "description": "Install, configure, run, and troubleshoot a Windows WeChat desktop automation and BHMailer/OpenClaw mail bridge bundle, including File Transfer Assistant wor...", "description_zh": "", "downloads": 258, "homepage": "https://clawhub.ai/yjli-new/openclaw-wechat-mail-bridge-windows", "iconUrl": null, "installs": 41, "name": "WeChat Mail Bridge (Windows/OpenClaw)", "ownerName": "yjli-new", "score": 17979.094076655052, "slug": "openclaw-wechat-mail-bridge-windows", "source": "clawhub", "stars": 0, "tags": ["automation", "bhmailer", "bridge", "desktop", "mail", "openclaw", "sidecar", "wechat", "windows"], "updated_at": 1776759382820, "version": "0.1.2"}, {"category": "developer-tools", "created_at": 1773084379172, "description": "Provides command-line instructions for managing Obsidian vaults, notes, tasks, tags, links, and searches via Obsidian's official CLI tool.", "description_zh": "", "downloads": 258, "homepage": "https://clawhub.ai/shaunleecn/obsidian-guide", "iconUrl": null, "installs": 17, "name": "obsidian-user-guide", "ownerName": "shaunleecn", "score": 1442.5496225887616, "slug": "obsidian-guide", "source": "clawhub", "stars": 0, "tags": null, "updated_at": 1776759382702, "version": "1.0.0"}, {"category": "developer-tools", "created_at": 1773080759926, "description": "Retrieve sports events, results, team info, and league details across multiple sports using TheSportsDB free API without requiring an API key.", "description_zh": "", "downloads": 258, "homepage": "https://clawhub.ai/mingo-318/sports-events-query", "iconUrl": null, "installs": 14, "name": "Sports Events Query", "ownerName": "mingo-318", "score": 19457.013574660632, "slug": "sports-events-query", "source": "clawhub", "stars": 0, "tags": null, "updated_at": 1776759382621, "version": "1.0.0"}, {"category": "developer-tools", "created_at": 1773069486777, "description": "Build and deploy production ML pipelines with data processing, model training, evaluation, and deployment using TensorFlow, PyTorch, or Scikit-learn.", "description_zh": "", "downloads": 258, "homepage": "https://clawhub.ai/sunshine-del-ux/ml-pipeline-starter", "iconUrl": null, "installs": 20, "name": "Ml Pipeline Starter", "ownerName": "sunshine-del-ux", "score": 19369.369369369368, "slug": "ml-pipeline-starter", "source": "clawhub", "stars": 0, "tags": null, "updated_at": 1776759382553, "version": "1.0.0"}, {"category": "security-compliance", "created_at": 1772798986522, "description": "Performs a three-level audit of OpenClaw skills for format, content quality, functional correctness, and adherence to best practices.", "description_zh": "", "downloads": 258, "homepage": "https://clawhub.ai/ykaixu/openclaw-skill-reviewer", "iconUrl": null, "installs": 10, "name": "OpenClaw Skill Reviewer", "ownerName": "ykaixu", "score": 19515.885022692888, "slug": "openclaw-skill-reviewer", "source": "clawhub", "stars": 0, "tags": null, "updated_at": 1776759382375, "version": "1.0.0"}, {"category": "productivity", "created_at": 1773427653120, "description": "Web search via Tavily API (alternative to Brave). Use when the user asks to search the web / look up sources / find links and Brave web_search is unavailable...", "description_zh": "", "downloads": 258, "homepage": "https://clawhub.ai/pazzilivo/tavily-search-with-multi-key", "iconUrl": null, "installs": 110, "name": "Tavily Search with Multi-Key", "ownerName": "pazzilivo", "score": 19167.904903417533, "slug": "tavily-search-with-multi-key", "source": "clawhub", "stars": 0, "tags": null, "updated_at": 1776759124462, "version": "1.0.0"}, {"category": "developer-tools", "created_at": 1773084017346, "description": "AI-powered browser automation using the browser-use library (v0.11+). Drives a real Chromium browser with an LLM agent to navigate, fill forms, click, scrape...", "description_zh": "", "downloads": 258, "homepage": "https://clawhub.ai/bowen31337/alex-browser-use", "iconUrl": null, "installs": 39, "name": "alex-browser-use", "ownerName": "bowen31337", "score": 17097.41550695825, "slug": "alex-browser-use", "source": "clawhub", "stars": 0, "tags": null, "updated_at": 1776757882530, "version": "1.1.0"}, {"category": "productivity", "created_at": 1773083011806, "description": "Run a full equity research report on a stock by executing three local scripts with uv run. Read this skill file for exact commands. Do NOT use sessions_spawn...", "description_zh": "", "downloads": 258, "homepage": "https://clawhub.ai/youpele52/equity-research", "iconUrl": null, "installs": 27, "name": "Equity Research", "ownerName": "youpele52", "score": 48224.299065420564, "slug": "equity-research", "source": "clawhub", "stars": 0, "tags": null, "updated_at": 1776753055533, "version": "0.1.1"}, {"category": "content-creation", "created_at": 1773077845724, "description": "Colorize black and white photos using each::sense AI. Bring old family portraits, historical images, vintage photographs, and archival footage to life with i...", "description_zh": "", "downloads": 258, "homepage": "https://clawhub.ai/eftalyurtseven/photo-colorization", "iconUrl": null, "installs": 31, "name": "Photo Colorization", "ownerName": "eftalyurtseven", "score": 46153.846153846156, "slug": "photo-colorization", "source": "clawhub", "stars": 0, "tags": null, "updated_at": 1776751669706, "version": "1.0.0"}, {"category": "ai-intelligence", "created_at": 1772799843374, "description": "Parse EDI X12 files (810 Invoice, 850 Purchase Order, 856 ASN). Extract structured data from ISA/GS envelopes, transaction sets, and segments. Use when worki...", "description_zh": "", "downloads": 258, "homepage": "https://clawhub.ai/npfaerber/edi-parser", "iconUrl": null, "installs": 27, "name": "Edi Parser", "ownerName": "npfaerber", "score": 81645.56962025317, "slug": "edi-parser", "source": "clawhub", "stars": 0, "tags": ["edi", "supply-chain", "walmart", "x12"], "updated_at": 1776748970896, "version": "1.0.1"}, {"category": "developer-tools", "created_at": 1773073743140, "description": "Build and manage Spotify playlists from natural language requests. Search tracks/artists/albums, create playlists, manage tracks, view listening history. Use...", "description_zh": "", "downloads": 258, "homepage": "https://clawhub.ai/codeaholicman/spotify-playlist", "iconUrl": null, "installs": 8, "name": "Spotify Playlist Builder", "ownerName": "codeaholicman", "score": 98850.57471264368, "slug": "spotify-playlist", "source": "clawhub", "stars": 0, "tags": null, "updated_at": 1776748969946, "version": "1.0.0"}, {"category": "content-creation", "created_at": 1773079056250, "description": "Runs the sports science crawler to generate a daily report, sync to Notion, and prevent duplicate content.", "description_zh": "", "downloads": 258, "homepage": "https://clawhub.ai/w2478328197-arch/generate-daily-sports-update", "iconUrl": null, "installs": 51, "name": "Generate Daily Sports Update", "ownerName": "w2478328197-arch", "score": 95910.78066914498, "slug": "generate-daily-sports-update", "source": "clawhub", "stars": 0, "tags": null, "updated_at": 1776748969671, "version": "1.0.0"}, {"category": "developer-tools", "created_at": 1772805266817, "description": "Control cloud browser sessions via Steel.dev for web automation and computer-use agents. Use when you need to browse the web, fill forms, click elements, tak...", "description_zh": "", "downloads": 258, "homepage": "https://clawhub.ai/eyhn/steel-browser", "iconUrl": null, "installs": 11, "name": "Steel Browser", "ownerName": "eyhn", "score": 92142.85714285713, "slug": "steel-browser", "source": "clawhub", "stars": 0, "tags": null, "updated_at": 1776748872324, "version": "1.0.0"}, {"category": "ai-intelligence", "created_at": 1772805565855, "description": "Query WhatPulse computer usage statistics using natural language. Keystrokes, mouse activity, application screen time, network bandwidth, website tracking, u...", "description_zh": "", "downloads": 258, "homepage": "https://clawhub.ai/smitmartijn/whatpulse-ai-agent-skill", "iconUrl": null, "installs": 30, "name": "WhatPulse AI Agent Skill", "ownerName": "smitmartijn", "score": 92142.85714285713, "slug": "whatpulse-ai-agent-skill", "source": "clawhub", "stars": 0, "tags": null, "updated_at": 1776748872322, "version": "1.0.0"}, {"category": "security-compliance", "created_at": 1772801573627, "description": "Zoho Projects API integration with managed OAuth. Manage projects, tasks, milestones, tasklists, and team collaboration. Use this skill when users want to ma...", "description_zh": "", "downloads": 258, "homepage": "https://clawhub.ai/byungkyu/zoho-projects", "iconUrl": null, "installs": 11, "name": "Zoho Projects", "ownerName": "byungkyu", "score": 92142.85714285713, "slug": "zoho-projects", "source": "clawhub", "stars": 0, "tags": null, "updated_at": 1776748872310, "version": "1.0.0"}, {"category": "productivity", "created_at": 1773058142890, "description": "Intelligent QA assistant that automates writing test cases from project documentation. Use when the user wants to generate test cases from requirements, runs...", "description_zh": "", "downloads": 258, "homepage": "https://clawhub.ai/root/casely-qa-skill", "iconUrl": null, "installs": 23, "name": "casely", "ownerName": "root", "score": 92142.85714285713, "slug": "casely-qa-skill", "source": "clawhub", "stars": 0, "tags": null, "updated_at": 1776748872308, "version": "1.5.0"}, {"category": "ai-intelligence", "created_at": 1773079081219, "description": "Google Workspace integration. Manage Users, Groups, Calendars, Drives, Mailboxs, Contacts. Use when the user wants to interact with Google Workspace data.", "description_zh": "", "downloads": 258, "homepage": "https://clawhub.ai/gora050/google-workspace-integration", "iconUrl": null, "installs": 41, "name": "Google Workspace", "ownerName": "gora050", "score": 92473.11827956988, "slug": "google-workspace-integration", "source": "clawhub", "stars": 0, "tags": null, "updated_at": 1776748872174, "version": "1.0.0"}, {"category": "data-analysis", "created_at": 1773416096149, "description": "When the user wants to audit, review, or diagnose SEO issues on their site. Also use when the user mentions \"SEO audit,\" \"technical SEO,\" \"why am I not ranki...", "description_zh": "", "downloads": 258, "homepage": "https://clawhub.ai/alirezarezvani/cs-seo-audit", "iconUrl": null, "installs": 54, "name": "seo-audit", "ownerName": "alirezarezvani", "score": 91489.36170212766, "slug": "cs-seo-audit", "source": "clawhub", "stars": 0, "tags": null, "updated_at": 1776748872147, "version": "1.0.0"}, {"category": "data-analysis", "created_at": 1772799365183, "description": "Research, structure, and publish skills to ClawHub. Analyzes top listings for content patterns, generates gap reports against your draft, patches README/SKIL...", "description_zh": "", "downloads": 258, "homepage": "https://clawhub.ai/ragesaq/lum-skill-publisher", "iconUrl": null, "installs": 6, "name": "ClawHub Skill Publisher", "ownerName": "ragesaq", "score": 91489.36170212766, "slug": "lum-skill-publisher", "source": "clawhub", "stars": 0, "tags": null, "updated_at": 1776748872116, "version": "1.0.1"}, {"category": "communication-collaboration", "created_at": 1772803043543, "description": "Enrich your existing leads, contacts, and company lists with verified B2B data. Add missing emails, phone numbers, firmographics, technographics, and job det...", "description_zh": "", "downloads": 258, "homepage": "https://clawhub.ai/haroexplorium/explorium-lead-enrichment", "iconUrl": null, "installs": 14, "name": "lead-contact-enrichment-agent", "ownerName": "haroexplorium", "score": 91489.36170212766, "slug": "explorium-lead-enrichment", "source": "clawhub", "stars": 0, "tags": null, "updated_at": 1776748872102, "version": "1.0.0"}, {"category": "security-compliance", "created_at": 1772804486545, "description": "Audit AWS IAM policies and roles for over-privilege, wildcard permissions, and least-privilege violations", "description_zh": "", "downloads": 258, "homepage": "https://clawhub.ai/anmolnagpal/iam-policy-auditor", "iconUrl": null, "installs": 9, "name": "Iam Policy Auditor", "ownerName": "anmolnagpal", "score": 91489.36170212766, "slug": "iam-policy-auditor", "source": "clawhub", "stars": 0, "tags": null, "updated_at": 1776748872076, "version": "1.0.0"}, {"category": "security-compliance", "created_at": 1772796920946, "description": "Use when the user asks about OpenClaw — installation, configuration, agents, channels, memory, tools, hooks, skills, deployment, Docker, multi-agent, OAuth,...", "description_zh": "", "downloads": 257, "homepage": "https://clawhub.ai/fcsouza/openclaw-genie", "iconUrl": null, "installs": 5, "name": "Openclaw Genie", "ownerName": "fcsouza", "score": 100000, "slug": "openclaw-genie", "source": "clawhub", "stars": 2, "tags": null, "updated_at": 1776748970310, "version": "1.2.0"}, {"category": "developer-tools", "created_at": 1773068990957, "description": "Taiwan stock info using Fugle or FinMind APIs. Provides real-time quotes, historical data, financial statements, and technical indicators for Taiwan stocks.", "description_zh": "", "downloads": 257, "homepage": "https://clawhub.ai/hans00/tw-stock-info", "iconUrl": null, "installs": 17, "name": "Taiwan Stock Info", "ownerName": "hans00", "score": 100000, "slug": "tw-stock-info", "source": "clawhub", "stars": 1, "tags": null, "updated_at": 1776748970103, "version": "1.0.0"}, {"category": "productivity", "created_at": 1773066515294, "description": "Evaluate math expressions, compute statistics, and calculate percentages.", "description_zh": "", "downloads": 257, "homepage": "https://clawhub.ai/cutthemustard/math-evaluate", "iconUrl": null, "installs": 35, "name": "Math Evaluate", "ownerName": "cutthemustard", "score": 9110.244594115562, "slug": "math-evaluate", "source": "clawhub", "stars": 0, "tags": null, "updated_at": 1776770240770, "version": "1.0.0"}, {"category": "", "created_at": 1774896863794, "description": "Reviews Python code for type safety, async patterns, error handling, and common mistakes. Use when reviewing .py files, checking type hints, async/await usag...", "description_zh": "", "downloads": 257, "homepage": "https://clawhub.ai/anderskev/python-code-review", "iconUrl": null, "installs": 74, "name": "Python Code Review", "ownerName": "anderskev", "score": 9100.56657223796, "slug": "python-code-review", "source": "clawhub", "stars": 0, "tags": null, "updated_at": 1776767690483, "version": "1.1.0"}, {"category": "developer-tools", "created_at": 1773078187899, "description": "Use a Bash CLI to query Kraken Spot and Futures APIs, inspect account state, run guarded trading and funding actions, and work with Kraken websocket payloads...", "description_zh": "", "downloads": 257, "homepage": "https://clawhub.ai/oscraters/kraken-cli", "iconUrl": null, "installs": 41, "name": "Kraken CLI", "ownerName": "oscraters", "score": 14397.759103641456, "slug": "kraken-cli", "source": "clawhub", "stars": 0, "tags": null, "updated_at": 1776765010433, "version": "1.0.0"}, {"category": "communication-collaboration", "created_at": 1773219589362, "description": "openclaw browser open https://chat.deepseek.com and login it, then input questions from user's messages, extract response of deepseek chat to reply user.", "description_zh": "", "downloads": 257, "homepage": "https://clawhub.ai/qidu/freechat-deepseek", "iconUrl": null, "installs": 35, "name": "Chat DeepSeek by Browser", "ownerName": "qidu", "score": 3664.6228432910307, "slug": "freechat-deepseek", "source": "clawhub", "stars": 0, "tags": null, "updated_at": 1776762850686, "version": "1.0.2"}, {"category": "ai-intelligence", "created_at": 1773061969086, "description": "Classify text into custom intents with confidence scoring and entity extraction. Use when: intent classification, message routing, multi-agent orchestration,...", "description_zh": "", "downloads": 257, "homepage": "https://clawhub.ai/daisuke134/intent-router", "iconUrl": null, "installs": 12, "name": "intent-router", "ownerName": "daisuke134", "score": 100000, "slug": "intent-router", "source": "clawhub", "stars": 0, "tags": null, "updated_at": 1776759683465, "version": "1.0.0"}, {"category": "ai-intelligence", "created_at": 1773074178020, "description": "Send and receive messages between AI agents via the Agentline Hub. Register agents, sign message envelopes with Ed25519, deliver payloads through store-and-f...", "description_zh": "", "downloads": 257, "homepage": "https://clawhub.ai/zhangzhejian/agentline", "iconUrl": null, "installs": 18, "name": "AgentLine, AI-native IM for Openclaw", "ownerName": "zhangzhejian", "score": 17554.64480874317, "slug": "agentline", "source": "clawhub", "stars": 0, "tags": null, "updated_at": 1776759383143, "version": "2.4.2"}, {"category": "ai-intelligence", "created_at": 1772796773247, "description": "The first artwork created collaboratively by agents and humans. Agents create, humans curate.", "description_zh": "", "downloads": 257, "homepage": "https://clawhub.ai/slopism/slopism", "iconUrl": null, "installs": 20, "name": "Slopism", "ownerName": "slopism", "score": 19294.294294294294, "slug": "slopism", "source": "clawhub", "stars": 0, "tags": null, "updated_at": 1776759383072, "version": "0.1.1"}, {"category": "data-analysis", "created_at": 1773075866825, "description": "Track and analyze income and expenses from multiple sources with automatic categorization, ROI calculation, and detailed reports.", "description_zh": "", "downloads": 257, "homepage": "https://clawhub.ai/dagangtj/multi-channel-income-tracker", "iconUrl": null, "installs": 10, "name": "Multi-Channel Income Tracker", "ownerName": "dagangtj", "score": 17909.407665505227, "slug": "multi-channel-income-tracker", "source": "clawhub", "stars": 0, "tags": ["finance", "income", "multi-channel", "roi", "tracking"], "updated_at": 1776759382846, "version": "1.0.0"}, {"category": "productivity", "created_at": 1773076749996, "description": "Scan, tag, validate, and catalog files using the Ghost Catalog semantic file header system (SOM-XXX-NNNN-vX.X.X). Use when: discovering untagged files, onboa...", "description_zh": "", "downloads": 257, "homepage": "https://clawhub.ai/somacosf/ghost-catalog", "iconUrl": null, "installs": 7, "name": "Ghost Catalog", "ownerName": "somacosf", "score": 19381.5987933635, "slug": "ghost-catalog", "source": "clawhub", "stars": 0, "tags": null, "updated_at": 1776759382639, "version": "0.0.1"}, {"category": "developer-tools", "created_at": 1772801121299, "description": "XT.COM exchange CLI — spot & futures trading via progressive conversation. Market data, balance, orders, transfer, and withdrawal.", "description_zh": "", "downloads": 257, "homepage": "https://clawhub.ai/realm520/xt-exchange", "iconUrl": null, "installs": 11, "name": "XT Exchange", "ownerName": "realm520", "score": 19294.294294294294, "slug": "xt-exchange", "source": "clawhub", "stars": 0, "tags": null, "updated_at": 1776759382568, "version": "1.0.0"}, {"category": "communication-collaboration", "created_at": 1773074327577, "description": "Manage Discord task-center forums: create and archive task posts with tags, support six-ministries channel templates, and respect model tags in threads.", "description_zh": "", "downloads": 257, "homepage": "https://clawhub.ai/nannyu/discord-dynasty", "iconUrl": null, "installs": 8, "name": "Discord Dynasty", "ownerName": "nannyu", "score": 19352.409638554214, "slug": "discord-dynasty", "source": "clawhub", "stars": 0, "tags": null, "updated_at": 1776759382210, "version": "1.2.0"}]}