{"page": 268, "total_pages": 522, "total": 26073, "skills": [{"category": "productivity", "created_at": 1772803137527, "description": "Manage, consult on, and optimize OKRs (Objectives and Key Results). Use when helping set, track, review, score, or improve OKRs. Covers OKR philosophy, commo...", "description_zh": "", "downloads": 257, "homepage": "https://clawhub.ai/npfaerber/okr-consulting", "iconUrl": null, "installs": 18, "name": "Okr Consulting", "ownerName": "npfaerber", "score": 17031.1464546057, "slug": "okr-consulting", "source": "clawhub", "stars": 0, "tags": null, "updated_at": 1776757882251, "version": "1.0.1"}, {"category": "security-compliance", "created_at": 1772798766958, "description": "Structural authority separation for autonomous agent actions. Three-phase governance pipeline: PROPOSE, DECIDE, PROMOTE. No action is both proposed and appro...", "description_zh": "", "downloads": 257, "homepage": "https://clawhub.ai/devongenerally-png/governance-guard", "iconUrl": null, "installs": 8, "name": "governance-guard", "ownerName": "devongenerally-png", "score": 44618.055555555555, "slug": "governance-guard", "source": "clawhub", "stars": 0, "tags": ["governance", "security"], "updated_at": 1776752084296, "version": "0.1.0"}, {"category": "content-creation", "created_at": 1773064443319, "description": "Swap faces in images and videos using WaveSpeed AI. Supports image face swap and video face swap with multi-face targeting. Produces watermark-free results w...", "description_zh": "", "downloads": 257, "homepage": "https://clawhub.ai/chengzeyi/wavespeed-face-swapper", "iconUrl": null, "installs": 41, "name": "WaveSpeedAI Face Swapper", "ownerName": "chengzeyi", "score": 93454.54545454546, "slug": "wavespeed-face-swapper", "source": "clawhub", "stars": 0, "tags": null, "updated_at": 1776748971340, "version": "1.0.0"}, {"category": "developer-tools", "created_at": 1772804402234, "description": "Search and summarize papers from ArXiv. Use when the user asks for the latest research, specific topics on ArXiv, or a daily summary of AI papers.", "description_zh": "", "downloads": 257, "homepage": "https://clawhub.ai/nomorecoding/arxiv-watcher-music", "iconUrl": null, "installs": 14, "name": "ArXiv Watcher for Music Research", "ownerName": "nomorecoding", "score": 93454.54545454546, "slug": "arxiv-watcher-music", "source": "clawhub", "stars": 0, "tags": null, "updated_at": 1776748971288, "version": "2.0.0"}, {"category": "ai-intelligence", "created_at": 1772796396195, "description": "Complete submission flow for autonomous AI agents into the on-chain agent economy. Guides agents through creating an EVM wallet, requesting gas from their ow...", "description_zh": "", "downloads": 257, "homepage": "https://clawhub.ai/nugdw/submit-to-agentbeat-2", "iconUrl": null, "installs": 23, "name": "Submit To Agentbeat", "ownerName": "nugdw", "score": 97718.63117870723, "slug": "submit-to-agentbeat-2", "source": "clawhub", "stars": 0, "tags": null, "updated_at": 1776748971165, "version": "0.1.0"}, {"category": "developer-tools", "created_at": 1772798719145, "description": "Transcribe audio files (ogg, mp3, wav, etc.) using AIMLAPI. Use when the user provides audio messages or local audio files. Provides a reliable Python script...", "description_zh": "", "downloads": 257, "homepage": "https://clawhub.ai/aimlapihello/aiml-voice", "iconUrl": null, "installs": 10, "name": "AIML Voice Transcript", "ownerName": "aimlapihello", "score": 81329.11392405063, "slug": "aiml-voice", "source": "clawhub", "stars": 0, "tags": null, "updated_at": 1776748970880, "version": "1.0.0"}, {"category": "developer-tools", "created_at": 1773066397624, "description": "Use this skill when you need to control or make actions on the user's chrome tab.", "description_zh": "", "downloads": 257, "homepage": "https://clawhub.ai/nmadeleidev/browser-agent-bridge-cli", "iconUrl": null, "installs": 10, "name": "Browser Agent Bridge CLI", "ownerName": "nmadeleidev", "score": 98467.43295019156, "slug": "browser-agent-bridge-cli", "source": "clawhub", "stars": 0, "tags": null, "updated_at": 1776748970808, "version": "1.0.2"}, {"category": "developer-tools", "created_at": 1773073090649, "description": "Performs comprehensive due diligence on a cryptocurrency using CoinMarketCap MCP data. Use when users ask about a specific coin beyond just its price. This i...", "description_zh": "", "downloads": 257, "homepage": "https://clawhub.ai/bryan-cmc/crypto-research-using-cmc-mcp", "iconUrl": null, "installs": 6, "name": "Crypto Research using CoinMarketCap MCP", "ownerName": "bryan-cmc", "score": 97348.48484848485, "slug": "crypto-research-using-cmc-mcp", "source": "clawhub", "stars": 0, "tags": null, "updated_at": 1776748970500, "version": "1.0.0"}, {"category": "productivity", "created_at": 1772794524440, "description": "Create, schedule, list, edit, and delete drafts on Typefully. Supports single tweets, threads, and multi-platform posts (X, LinkedIn, Threads, Bluesky, Masto...", "description_zh": "", "downloads": 257, "homepage": "https://clawhub.ai/chapati23/typefully-drafts", "iconUrl": null, "installs": 0, "name": "Typefully Skill", "ownerName": "chapati23", "score": 97348.48484848485, "slug": "typefully-drafts", "source": "clawhub", "stars": 0, "tags": null, "updated_at": 1776748970498, "version": "1.0.0"}, {"category": "productivity", "created_at": 1773064867938, "description": "Collect and structure ad creative inspiration for Meta (Facebook/Instagram), TikTok Ads, YouTube Ads, Google Ads, and Amazon Ads placements.", "description_zh": "", "downloads": 257, "homepage": "https://clawhub.ai/danyangliu-sandwichlab/creative-inspiration-scout", "iconUrl": null, "installs": 14, "name": "Ads Creative Ideas", "ownerName": "danyangliu-sandwichlab", "score": 88316.15120274914, "slug": "creative-inspiration-scout", "source": "clawhub", "stars": 0, "tags": null, "updated_at": 1776748969861, "version": "1.0.0"}, {"category": "ai-intelligence", "created_at": 1773082464041, "description": "Generate a personalized SOUL.md through a warm, adaptive onboarding conversation. Trigger when the user wants to create, set up, or initialize their AI partn...", "description_zh": "", "downloads": 257, "homepage": "https://clawhub.ai/huanz/bootstrap", "iconUrl": null, "installs": 28, "name": "Bootstrap", "ownerName": "huanz", "score": 88316.15120274914, "slug": "bootstrap", "source": "clawhub", "stars": 0, "tags": null, "updated_at": 1776748969793, "version": "1.0.0"}, {"category": "developer-tools", "created_at": 1772805392485, "description": "Use when bulk-managing Terraform modules at scale — upgrading providers across AWS, GCP, Azure, or DigitalOcean repositories, standardizing GitHub Actions wo...", "description_zh": "", "downloads": 257, "homepage": "https://clawhub.ai/anmolnagpal/terraform-ai-skills", "iconUrl": null, "installs": 7, "name": "Terraform Ai Skills", "ownerName": "anmolnagpal", "score": 88316.15120274914, "slug": "terraform-ai-skills", "source": "clawhub", "stars": 0, "tags": null, "updated_at": 1776748969791, "version": "0.0.2"}, {"category": "productivity", "created_at": 1772805656878, "description": "Check real-time traffic conditions for a route between two locations using TomTom. Use when the user asks about traffic, commute time, best time to leave, dr...", "description_zh": "", "downloads": 257, "homepage": "https://clawhub.ai/xavjer/openclaw-commute-traffic", "iconUrl": null, "installs": 9, "name": "Commute Traffic", "ownerName": "xavjer", "score": 87414.96598639456, "slug": "openclaw-commute-traffic", "source": "clawhub", "stars": 0, "tags": null, "updated_at": 1776748969771, "version": "0.1.0"}, {"category": "ai-intelligence", "created_at": 1773064906839, "description": "Configure OpenClaw multi-agent routing for Feishu multi-account setups. Use when users need two or more Feishu bots (different appId/appSecret) to run on iso...", "description_zh": "", "downloads": 257, "homepage": "https://clawhub.ai/tinywatermonster/feishu-multiagent", "iconUrl": null, "installs": 30, "name": "Create a new agent in FeiShu", "ownerName": "tinywatermonster", "score": 87414.96598639456, "slug": "feishu-multiagent", "source": "clawhub", "stars": 0, "tags": null, "updated_at": 1776748969732, "version": "1.0.1"}, {"category": "productivity", "created_at": 1773073711757, "description": "n8n workflow bridge pack. Export OpenClaw pipelines to n8n format and import n8n workflows. 2 bridge tools.", "description_zh": "", "downloads": 257, "homepage": "https://clawhub.ai/romainsantoli-web/firm-n8n-bridge-pack", "iconUrl": null, "installs": 11, "name": "Firm N8n Bridge Pack", "ownerName": "romainsantoli-web", "score": 95539.03345724907, "slug": "firm-n8n-bridge-pack", "source": "clawhub", "stars": 0, "tags": null, "updated_at": 1776748969669, "version": "1.0.0"}, {"category": "productivity", "created_at": 1773075363952, "description": "Search for movies and TV shows via a Seerr instance and request them for download. Use when the user asks to download, find, request, or queue a movie or TV...", "description_zh": "", "downloads": 257, "homepage": "https://clawhub.ai/ximga/seerr", "iconUrl": null, "installs": 10, "name": "Seerr Media Requests", "ownerName": "ximga", "score": 95539.03345724907, "slug": "seerr", "source": "clawhub", "stars": 0, "tags": null, "updated_at": 1776748969628, "version": "1.5.0"}, {"category": "data-analysis", "created_at": 1772802226737, "description": "Evaluate hi-fi and audio gear options, build system recommendations, guide installation and tuning, and analyze used-market pricing/resale value. Use when us...", "description_zh": "", "downloads": 257, "homepage": "https://clawhub.ai/ruodong/hifi-advisor", "iconUrl": null, "installs": 15, "name": "HiFi Advisor", "ownerName": "ruodong", "score": 91785.71428571428, "slug": "hifi-advisor", "source": "clawhub", "stars": 0, "tags": null, "updated_at": 1776748969545, "version": "1.0.0"}, {"category": "developer-tools", "created_at": 1773064448118, "description": "Build and query a FAQ knowledge base from markdown files. Use when asked to create a FAQ bot, set up automatic answers, build a knowledge base, add FAQ entri...", "description_zh": "", "downloads": 256, "homepage": "https://clawhub.ai/imbing/bo-faq-bot", "iconUrl": null, "installs": 23, "name": "业务运营问答助手", "ownerName": "imbing", "score": 100000, "slug": "bo-faq-bot", "source": "clawhub", "stars": 3, "tags": null, "updated_at": 1776748970921, "version": "0.0.1"}, {"category": "content-creation", "created_at": 1773208638677, "description": "AI image generation, video generation, and LLM chat API — call Nano Banana 2, Seedream, Kling, Seedance, Qwen, DeepSeek and more through one unified API key...", "description_zh": "", "downloads": 256, "homepage": "https://clawhub.ai/xixihhhh/atlas-cloud-ai-api", "iconUrl": null, "installs": 60, "name": "Atlas Cloud — AI Image, Video & LLM Generation API", "ownerName": "xixihhhh", "score": 48251.74825174825, "slug": "atlas-cloud-ai-api", "source": "clawhub", "stars": 1, "tags": null, "updated_at": 1776755288488, "version": "1.0.6"}, {"category": "data-analysis", "created_at": 1772799242294, "description": "NicheHunter Ultra — Headless App Store Market Intelligence engine for OpenClaw (VPS). Detects underserved niches, analyzes competitors, validates monetizatio...", "description_zh": "", "downloads": 256, "homepage": "https://clawhub.ai/chebyte/niche-hunter-app-store", "iconUrl": null, "installs": 14, "name": "Niche Hunter App Store", "ownerName": "chebyte", "score": 87341.77215189874, "slug": "niche-hunter-app-store", "source": "clawhub", "stars": 1, "tags": null, "updated_at": 1776748970905, "version": "0.1.4"}, {"category": "developer-tools", "created_at": 1772802422305, "description": "Query financial market data from the Sectors API (api.sectors.app) for IDX (Indonesia Stock Exchange) and SGX (Singapore Exchange) markets. Use when the user...", "description_zh": "", "downloads": 256, "homepage": "https://clawhub.ai/aidityasadhakim/sectors-financial-agents", "iconUrl": null, "installs": 34, "name": "Sectors Financial Agents", "ownerName": "aidityasadhakim", "score": 14004.37636761488, "slug": "sectors-financial-agents", "source": "clawhub", "stars": 0, "tags": null, "updated_at": 1776764949892, "version": "1.0.0"}, {"category": "", "created_at": 1774849074582, "description": "Programmable logic controller programming helper", "description_zh": "", "downloads": 256, "homepage": "https://clawhub.ai/ckchzh/plc", "iconUrl": null, "installs": 79, "name": "Plc", "ownerName": "ckchzh", "score": 4202.92234444262, "slug": "plc", "source": "clawhub", "stars": 0, "tags": null, "updated_at": 1776762890660, "version": "1.0.0"}, {"category": "security-compliance", "created_at": 1772795707539, "description": "Runs the full Dawn CLI strategy lifecycle from authentication and funding through strategy creation, launch, monitoring, and termination. Use when the user a...", "description_zh": "", "downloads": 256, "homepage": "https://clawhub.ai/njdawn/prediction-market-bot-dawn", "iconUrl": null, "installs": 5, "name": "Polymarket Bots by", "ownerName": "njdawn", "score": 8065.532451165722, "slug": "prediction-market-bot-dawn", "source": "clawhub", "stars": 0, "tags": null, "updated_at": 1776761415089, "version": "1.0.8"}, {"category": "productivity", "created_at": 1773066021302, "description": "Pre-checks sessions for new messages via a zero-token Python script to trigger expensive OpenClaw crons only when new activity exists, saving tokens.", "description_zh": "", "downloads": 256, "homepage": "https://clawhub.ai/ori-claw/cron-gate", "iconUrl": null, "installs": 27, "name": "Cron Gate", "ownerName": "ori-claw", "score": 92418.7725631769, "slug": "cron-gate", "source": "clawhub", "stars": 0, "tags": null, "updated_at": 1776759383116, "version": "1.0.0"}, {"category": "data-analysis", "created_at": 1772804311523, "description": "Enrich LinkedIn profile URLs with mobile phone numbers and work/personal emails using Apify actors, merging results into unified output records.", "description_zh": "", "downloads": 256, "homepage": "https://clawhub.ai/hundevmode/linkedin-email-phone-apify", "iconUrl": null, "installs": 21, "name": "Linkedin Email Phone Apify", "ownerName": "hundevmode", "score": 19335.34743202417, "slug": "linkedin-email-phone-apify", "source": "clawhub", "stars": 0, "tags": ["apify", "lead-enrichment", "linkedin-email-finder", "linkedin-phone-finder", "linkedin-scraper", "openclaw"], "updated_at": 1776759382951, "version": "1.0.0"}, {"category": "data-analysis", "created_at": 1772804581468, "description": "Monitor Twitter to identify key opinion leaders, track emerging trends, analyze sentiment, detect bots, and deliver verified real-time intelligence reports.", "description_zh": "", "downloads": 256, "homepage": "https://clawhub.ai/calvinxhk/botlearn-twitter-intel", "iconUrl": null, "installs": 12, "name": "botlearn-twitter-intel", "ownerName": "calvinxhk", "score": 19320.75471698113, "slug": "botlearn-twitter-intel", "source": "clawhub", "stars": 0, "tags": null, "updated_at": 1776759382906, "version": "1.0.0"}, {"category": "ai-intelligence", "created_at": 1772798044042, "description": "Create and manage modular, permissioned smart wallets for AI agents with session keys and spending limits on the Kite AI network.", "description_zh": "", "downloads": 256, "homepage": "https://clawhub.ai/nihaovand/kite-agent-smart-wallet-permissionless-protocol", "iconUrl": null, "installs": 14, "name": "Kite Agent Smart Wallet Permissionless Protocol", "ownerName": "nihaovand", "score": 16050.156739811913, "slug": "kite-agent-smart-wallet-permissionless-protocol", "source": "clawhub", "stars": 0, "tags": null, "updated_at": 1776759382761, "version": "1.0.0"}, {"category": "ai-intelligence", "created_at": 1772798919484, "description": "Connects voice transcripts and agent responses through hotbutter.ai hosted relay for remote voice interaction with openclaw agents.", "description_zh": "", "downloads": 256, "homepage": "https://clawhub.ai/michael-stajer/deprecatedignore", "iconUrl": null, "installs": 15, "name": "deprecated ignore", "ownerName": "michael-stajer", "score": 16050.156739811913, "slug": "deprecatedignore", "source": "clawhub", "stars": 0, "tags": ["ignore"], "updated_at": 1776759382758, "version": "1.0.5"}, {"category": "communication-collaboration", "created_at": 1773285016521, "description": "Use when user asks to monitor WeChat groups, set up WeFlow API access, or when a heartbeat triggers for WeChat group summarization", "description_zh": "", "downloads": 256, "homepage": "https://clawhub.ai/liusining/weflow-group-summarizer", "iconUrl": null, "installs": 38, "name": "Weflow Group Summarizer", "ownerName": "liusining", "score": 16050.156739811913, "slug": "weflow-group-summarizer", "source": "clawhub", "stars": 0, "tags": null, "updated_at": 1776759382744, "version": "0.1.0"}, {"category": "security-compliance", "created_at": 1772797455616, "description": "Provide detailed guidance on DEA, USP, state board, DSCSA, PBM, and 340B pharmacy compliance with checklists, deadlines, and inspection risk alerts.", "description_zh": "", "downloads": 256, "homepage": "https://clawhub.ai/1kalin/afrexai-pharmacy-compliance", "iconUrl": null, "installs": 7, "name": "Pharmacy Compliance", "ownerName": "1kalin", "score": 86779.66101694915, "slug": "afrexai-pharmacy-compliance", "source": "clawhub", "stars": 0, "tags": ["compliance", "dea", "dscsa", "pharmacy", "usp"], "updated_at": 1776759382655, "version": "1.0.0"}, {"category": "data-analysis", "created_at": 1773291123682, "description": "A-Share Multi-Dimensional Quantitative Analysis MCP Server - broker research reports, AI news analysis, and stock comprehensive analysis", "description_zh": "", "downloads": 256, "homepage": "https://clawhub.ai/li-evan/a-share-multidim-quant-analysis", "iconUrl": null, "installs": 15, "name": "A-Share Multi-Dimensional Quantitative Analysis", "ownerName": "li-evan", "score": 19306.184012066366, "slug": "a-share-multidim-quant-analysis", "source": "clawhub", "stars": 0, "tags": null, "updated_at": 1776759382623, "version": "1.4.0"}, {"category": "content-creation", "created_at": 1773059974940, "description": "Creates and manages AI-generated YouTube scripts, metadata, thumbnails, and schedules via a GraphQL API with specialized Markdown tags for production.", "description_zh": "", "downloads": 256, "homepage": "https://clawhub.ai/nethunter/teleskopiq", "iconUrl": null, "installs": 7, "name": "Teleskopiq", "ownerName": "nethunter", "score": 19204.801200300077, "slug": "teleskopiq", "source": "clawhub", "stars": 0, "tags": ["api", "content-creation", "graphql", "youtube"], "updated_at": 1776759382471, "version": "1.1.2"}, {"category": "security-compliance", "created_at": 1772803198363, "description": "Find and evaluate OpenClaw AI skills by trust score and security reviews before installation or recommendation.", "description_zh": "", "downloads": 256, "homepage": "https://clawhub.ai/nashbot67/skillscout", "iconUrl": null, "installs": 4, "name": "SkillScout", "ownerName": "nashbot67", "score": 19364.599092284418, "slug": "skillscout", "source": "clawhub", "stars": 0, "tags": null, "updated_at": 1776759382367, "version": "0.1.0"}, {"category": "productivity", "created_at": 1772801849430, "description": "Trades active Polymarket-imported markets on Simmer when estimated edge and liquidity filters pass.", "description_zh": "", "downloads": 256, "homepage": "https://clawhub.ai/drserkandedeoglu/polymarket-edge-liquidity", "iconUrl": null, "installs": 17, "name": "Polymarket Edge Liquidity", "ownerName": "drserkandedeoglu", "score": 16070.307595731325, "slug": "polymarket-edge-liquidity", "source": "clawhub", "stars": 0, "tags": null, "updated_at": 1776757282663, "version": "1.0.0"}, {"category": "developer-tools", "created_at": 1773874130090, "description": "Generate and convert icons. Use when creating SVGs, building sprite sheets, converting ICO/PNG/SVG, or generating favicon sets.", "description_zh": "", "downloads": 256, "homepage": "https://clawhub.ai/ckchzh/icon", "iconUrl": null, "installs": 34, "name": "Icon", "ownerName": "ckchzh", "score": 13403.141361256547, "slug": "icon", "source": "clawhub", "stars": 0, "tags": null, "updated_at": 1776754069561, "version": "3.4.1"}, {"category": "developer-tools", "created_at": 1772798644420, "description": "Build a cost-efficient LLM evaluation ensemble with sampling, tiebreakers, and deterministic validators. Learned from 600+ production runs judging local Olla...", "description_zh": "", "downloads": 256, "homepage": "https://clawhub.ai/nissan/reddi-llm-judge", "iconUrl": null, "installs": 11, "name": "Llm As Judge", "ownerName": "nissan", "score": 44991.21265377856, "slug": "reddi-llm-judge", "source": "clawhub", "stars": 0, "tags": null, "updated_at": 1776750955471, "version": "1.0.1"}, {"category": "data-analysis", "created_at": 1773060199811, "description": "Pull daily Gumroad product/sales analytics safely (no raw PII persistence by default).", "description_zh": "", "downloads": 256, "homepage": "https://clawhub.ai/vladchatware/gumroad-analytics", "iconUrl": null, "installs": 19, "name": "Gumroad Analytics", "ownerName": "vladchatware", "score": 94117.64705882352, "slug": "gumroad-analytics", "source": "clawhub", "stars": 0, "tags": null, "updated_at": 1776748971249, "version": "1.0.1"}, {"category": "content-creation", "created_at": 1772803225705, "description": "Run the Video Sourcing Agent with deterministic, concise chat UX for /video_sourcing using a pinned self-bootstrap runtime.", "description_zh": "", "downloads": 256, "homepage": "https://clawhub.ai/memories-ai-official/video-sourcing-agent", "iconUrl": null, "installs": 12, "name": "Video Sourcing Agent", "ownerName": "memories-ai-official", "score": 97338.40304182509, "slug": "video-sourcing-agent", "source": "clawhub", "stars": 0, "tags": ["sourcing", "tiktok", "video", "youtube"], "updated_at": 1776748971183, "version": "1.0.0"}, {"category": "productivity", "created_at": 1773074739216, "description": "Remote control for aria2 download service via JSON-RPC 2.0. Supports adding downloads (HTTP/FTP/Torrent/Magnet), querying task status, pausing/resuming, and...", "description_zh": "", "downloads": 256, "homepage": "https://clawhub.ai/killgfat/aria2-rpc", "iconUrl": null, "installs": 12, "name": "Aria2 Rpc", "ownerName": "killgfat", "score": 97338.40304182509, "slug": "aria2-rpc", "source": "clawhub", "stars": 0, "tags": null, "updated_at": 1776748971107, "version": "0.1.2"}, {"category": "content-creation", "created_at": 1772803633014, "description": "Generate images using APIYI API.", "description_zh": "", "downloads": 256, "homepage": "https://clawhub.ai/mengwuzhi/draw-images-by-apiyi", "iconUrl": null, "installs": 17, "name": "Draw Images By Apiyi", "ownerName": "mengwuzhi", "score": 81012.6582278481, "slug": "draw-images-by-apiyi", "source": "clawhub", "stars": 0, "tags": null, "updated_at": 1776748970918, "version": "1.0.0"}, {"category": "security-compliance", "created_at": 1772797307053, "description": "Monitor and clean invalid codex auth files from CPA (Codex Provider Agent). Checks quota status, disables 401 files, double-verifies before deletion. Use whe...", "description_zh": "", "downloads": 256, "homepage": "https://clawhub.ai/geekjair/codex-cleaner", "iconUrl": null, "installs": 6, "name": "Codex Auth Cleaner", "ownerName": "geekjair", "score": 98084.29118773947, "slug": "codex-cleaner", "source": "clawhub", "stars": 0, "tags": null, "updated_at": 1776748970811, "version": "1.0.3"}, {"category": "communication-collaboration", "created_at": 1773073413174, "description": "Set a one-shot reminder delivered via Telegram at a specific time or after a duration. Use when the user asks to be reminded of something, set an alarm, or s...", "description_zh": "", "downloads": 256, "homepage": "https://clawhub.ai/spideystreet/remind-myself", "iconUrl": null, "installs": 10, "name": "Remind Myself", "ownerName": "spideystreet", "score": 70329.67032967033, "slug": "remind-myself", "source": "clawhub", "stars": 0, "tags": null, "updated_at": 1776748970586, "version": "1.0.6"}, {"category": "data-analysis", "created_at": 1772798171216, "description": "Zhipu AI Web Search Tool - Provides flexible search engine capabilities. Use when: - Need to search web information for latest data - Need specific search en...", "description_zh": "", "downloads": 256, "homepage": "https://clawhub.ai/whyhit2005/whyhit2005-zhipu-search", "iconUrl": null, "installs": 17, "name": "Zhipu Search", "ownerName": "whyhit2005", "score": 96969.69696969698, "slug": "whyhit2005-zhipu-search", "source": "clawhub", "stars": 0, "tags": null, "updated_at": 1776748970554, "version": "1.0.2"}, {"category": "ai-intelligence", "created_at": 1772799799942, "description": "AGENTS.md/IDENTITY/SOUL/USER periodic reload skill to keep context fresh (.md-only v1.1.2). Prevents confusion and forgetting in long sessions. Edit HEARTBEA...", "description_zh": "", "downloads": 256, "homepage": "https://clawhub.ai/kentaroid-bot/agents-refresh-md", "iconUrl": null, "installs": 15, "name": "Agents Refresh MD v1.1.2 🐾", "ownerName": "kentaroid-bot", "score": 96969.69696969698, "slug": "agents-refresh-md", "source": "clawhub", "stars": 0, "tags": null, "updated_at": 1776748970506, "version": "1.1.2"}, {"category": "developer-tools", "created_at": 1772797168550, "description": "Deploy, harden, and operate OpenClaw across local and hosted environments (Fly.io, Render, Railway, Hetzner, GCP) with secure defaults, channel setup guidanc...", "description_zh": "", "downloads": 256, "homepage": "https://clawhub.ai/hollaugo/openclaw-manager", "iconUrl": null, "installs": 8, "name": "Openclaw Manager", "ownerName": "hollaugo", "score": 86195.28619528619, "slug": "openclaw-manager", "source": "clawhub", "stars": 0, "tags": null, "updated_at": 1776748970328, "version": "0.1.1"}, {"category": "developer-tools", "created_at": 1772798885954, "description": "X/Twitter CLI using OpenClaw browser tool. Use when the user wants to interact with X/Twitter: reading timeline, posting tweets, liking, retweeting, replying...", "description_zh": "", "downloads": 256, "homepage": "https://clawhub.ai/coding-commits/browsex", "iconUrl": null, "installs": 5, "name": "the skill to browse X", "ownerName": "coding-commits", "score": 94464.9446494465, "slug": "browsex", "source": "clawhub", "stars": 0, "tags": null, "updated_at": 1776748970194, "version": "1.0.0"}, {"category": "content-creation", "created_at": 1773069846134, "description": "Remove unwanted objects, people, text, and imperfections from photos using each::sense AI. Clean up images with intelligent inpainting that seamlessly fills...", "description_zh": "", "downloads": 256, "homepage": "https://clawhub.ai/eftalyurtseven/object-removal", "iconUrl": null, "installs": 28, "name": "Object Removal", "ownerName": "eftalyurtseven", "score": 87972.50859106529, "slug": "object-removal", "source": "clawhub", "stars": 0, "tags": null, "updated_at": 1776748969871, "version": "1.0.0"}, {"category": "content-creation", "created_at": 1772801824370, "description": "Interact with looplink (looplink.app) - A social content organizer / bookmarking app", "description_zh": "", "downloads": 256, "homepage": "https://clawhub.ai/sleep9/looplink", "iconUrl": null, "installs": 12, "name": "looplink.app", "ownerName": "sleep9", "score": 95167.28624535316, "slug": "looplink", "source": "clawhub", "stars": 0, "tags": null, "updated_at": 1776748969673, "version": "1.0.0"}, {"category": "data-analysis", "created_at": 1773058127751, "description": "Draws BBS compatible ANSI art via the Clawbius API", "description_zh": "", "downloads": 256, "homepage": "https://clawhub.ai/n2tr0n/ansiclaw", "iconUrl": null, "installs": 11, "name": "ANSIClaw", "ownerName": "n2tr0n", "score": 91428.57142857142, "slug": "ansiclaw", "source": "clawhub", "stars": 0, "tags": ["alpha"], "updated_at": 1776748969581, "version": "0.0.4"}, {"category": "developer-tools", "created_at": 1772799568981, "description": "Suppress the OpenClaw CLI banner message. Use when the user says \"hide openclaw banner\", \"disable openclaw banner\", \"suppress openclaw banner\", \"remove openc...", "description_zh": "", "downloads": 255, "homepage": "https://clawhub.ai/brunobuddy/shut-up-openclaw-cli", "iconUrl": null, "installs": 8, "name": "Shut up OpenClaw CLI", "ownerName": "brunobuddy", "score": 100000, "slug": "shut-up-openclaw-cli", "source": "clawhub", "stars": 1, "tags": null, "updated_at": 1776748970759, "version": "1.0.0"}]}