{"page": 269, "total_pages": 522, "total": 26073, "skills": [{"category": "developer-tools", "created_at": 1773076962793, "description": "Enables building and deploying quantum computing applications with Quantinuum, Guppy, Selene, and Fly.io. Use for the OpenClaw Clinical Hackathon, clinical o...", "description_zh": "", "downloads": 255, "homepage": "https://clawhub.ai/arunnadarasa/quantum", "iconUrl": null, "installs": 12, "name": "Hackathon Quantinuum", "ownerName": "arunnadarasa", "score": 2013.5818066961465, "slug": "quantum", "source": "clawhub", "stars": 0, "tags": null, "updated_at": 1776770349923, "version": "0.1.1"}, {"category": "data-analysis", "created_at": 1773067029616, "description": "Track mindfulness habits, run guided meditations, and improve calm focus with adaptive routines, reflective logs, and context-aware practice plans.", "description_zh": "", "downloads": 255, "homepage": "https://clawhub.ai/ivangdavila/mindfulness", "iconUrl": null, "installs": 13, "name": "Mindfulness (Tracker, Logger, Guided Practice)", "ownerName": "ivangdavila", "score": 1706.0279654780225, "slug": "mindfulness", "source": "clawhub", "stars": 0, "tags": null, "updated_at": 1776768850090, "version": "1.0.0"}, {"category": "developer-tools", "created_at": 1773066005813, "description": "Automation skill for Cline.", "description_zh": "", "downloads": 255, "homepage": "https://clawhub.ai/elathoxu-crypto/cline", "iconUrl": null, "installs": 10, "name": "Cline", "ownerName": "elathoxu-crypto", "score": 3662.74059178397, "slug": "cline", "source": "clawhub", "stars": 0, "tags": null, "updated_at": 1776767949947, "version": "1.0.0"}, {"category": "content-creation", "created_at": 1773426587830, "description": "Remove light-colored text watermarks from white-background document images (exam papers, scanned documents). No API key needed - pure local image processing....", "description_zh": "", "downloads": 255, "homepage": "https://clawhub.ai/wxttt/remove-watermark", "iconUrl": null, "installs": 40, "name": "Remove Watermark", "ownerName": "wxttt", "score": 4930.394431554524, "slug": "remove-watermark", "source": "clawhub", "stars": 0, "tags": null, "updated_at": 1776766490683, "version": "0.1.0"}, {"category": "productivity", "created_at": 1773067716557, "description": "Convert user tasks to optimal Linux/Python commands. Use when user needs file processing, data extraction, text manipulation, or any task that can be solved...", "description_zh": "", "downloads": 255, "homepage": "https://clawhub.ai/nelohenriq/system-commander", "iconUrl": null, "installs": 18, "name": "System Commander", "ownerName": "nelohenriq", "score": 3892.535490764769, "slug": "system-commander", "source": "clawhub", "stars": 0, "tags": null, "updated_at": 1776766150098, "version": "1.0.0"}, {"category": "developer-tools", "created_at": 1773084738242, "description": "Self-evolving artificial life agent. Three-ring architecture: Ring 0 (Sentinel) supervises, Ring 1 (Intelligence) drives LLM-powered evolution, Ring 2 (Evolv...", "description_zh": "", "downloads": 255, "homepage": "https://clawhub.ai/edisonchenai/protea-self-evolving-life-agent", "iconUrl": null, "installs": 30, "name": "Protea Self Evolving Life Agent", "ownerName": "edisonchenai", "score": 10883.48271446863, "slug": "protea-self-evolving-life-agent", "source": "clawhub", "stars": 0, "tags": null, "updated_at": 1776765850205, "version": "1.0.0"}, {"category": "content-creation", "created_at": 1773219067823, "description": "Process video/audio files using FFHub.io cloud FFmpeg API. Use when the user wants to convert, compress, trim, resize, extract audio, generate thumbnails, or...", "description_zh": "", "downloads": 255, "homepage": "https://clawhub.ai/gangbo/ffhub-ffmpeg", "iconUrl": null, "installs": 65, "name": "FFHub FFmpeg Skill", "ownerName": "gangbo", "score": 9045.760908123448, "slug": "ffhub-ffmpeg", "source": "clawhub", "stars": 0, "tags": ["audio", "cloud", "compress", "convert", "ffmpeg", "resize", "transcoding", "trim", "video"], "updated_at": 1776764650543, "version": "1.0.0"}, {"category": "productivity", "created_at": 1773069778941, "description": "Automate management of your Google Business Profile, including review responses, hours updates, competitor tracking, and local search rank monitoring.", "description_zh": "", "downloads": 255, "homepage": "https://clawhub.ai/shepherd217/google-business-optimizer", "iconUrl": null, "installs": 15, "name": "Google Business Optimizer", "ownerName": "shepherd217", "score": 5786.249149081007, "slug": "google-business-optimizer", "source": "clawhub", "stars": 0, "tags": null, "updated_at": 1776764049901, "version": "1.0.1"}, {"category": "developer-tools", "created_at": 1772798050135, "description": "Safely configure OpenClaw AI models by validating roles, autoloading backups, blocking unsafe changes, and managing via CLI or Canvas UI.", "description_zh": "", "downloads": 255, "homepage": "https://clawhub.ai/frank-bot07/model-switchboard", "iconUrl": null, "installs": 5, "name": "Model Switchboard", "ownerName": "frank-bot07", "score": 15987.460815047021, "slug": "model-switchboard", "source": "clawhub", "stars": 0, "tags": null, "updated_at": 1776759382770, "version": "3.0.0"}, {"category": "data-analysis", "created_at": 1773219003522, "description": "Convert text or subtitle files into speech audio with options for voice cloning, emotion control, speed, and timeline-accurate dubbing using Kokoro or Noiz b...", "description_zh": "", "downloads": 255, "homepage": "https://clawhub.ai/ksuriuri/tts-3", "iconUrl": null, "installs": 19, "name": "tts", "ownerName": "ksuriuri", "score": 19129.782445611403, "slug": "tts-3", "source": "clawhub", "stars": 0, "tags": null, "updated_at": 1776759382474, "version": "0.1.1"}, {"category": "content-creation", "created_at": 1773063384796, "description": "Use ZHIPU AI's Web Search API to search the web (optimized for Chinese, supports 4 engines). Use when user asks to search, especially for Chinese content.", "description_zh": "", "downloads": 255, "homepage": "https://clawhub.ai/tyduss/zai-web-search", "iconUrl": null, "installs": 18, "name": "Zhipu Z.ai web search", "ownerName": "tyduss", "score": 2111.1019124099676, "slug": "zai-web-search", "source": "clawhub", "stars": 0, "tags": null, "updated_at": 1776759382132, "version": "1.0.0"}, {"category": "content-creation", "created_at": 1773083365303, "description": "You MUST use this before any creative work - creating features, building components, adding functionality, or modifying behavior. Explores user intent, requi...", "description_zh": "", "downloads": 255, "homepage": "https://clawhub.ai/zhengxinjipai/brainstorming-design-workflow", "iconUrl": null, "installs": 24, "name": "Brainstorming", "ownerName": "zhengxinjipai", "score": 15426.497277676952, "slug": "brainstorming-design-workflow", "source": "clawhub", "stars": 0, "tags": null, "updated_at": 1776757582366, "version": "1.0.0"}, {"category": "communication-collaboration", "created_at": 1772799445604, "description": "Use this skill when the user needs Twitter/X audience collection through Apify actors (followers/following/both) with optional email enrichment, username ext...", "description_zh": "", "downloads": 255, "homepage": "https://clawhub.ai/hundevmode/twitter-x-apify-actors", "iconUrl": null, "installs": 13, "name": "Twitter/X scraper with Apify actors", "ownerName": "hundevmode", "score": 48113.20754716981, "slug": "twitter-x-apify-actors", "source": "clawhub", "stars": 0, "tags": ["apify", "emails", "leadgen", "scraper", "twitter", "twitter-scraper", "x"], "updated_at": 1776754988584, "version": "1.0.3"}, {"category": "data-analysis", "created_at": 1773067667077, "description": "All-in-one YouTube content generator - create regular videos, Shorts from scratch, and Shorts from long videos. Combines best of youtube-factory and AI-Youtu...", "description_zh": "", "downloads": 255, "homepage": "https://clawhub.ai/oyi77/oyi77-content-factory", "iconUrl": null, "installs": 30, "name": "Content Factory", "ownerName": "oyi77", "score": 13350.785340314136, "slug": "oyi77-content-factory", "source": "clawhub", "stars": 0, "tags": null, "updated_at": 1776754388257, "version": "1.0.0"}, {"category": "content-creation", "created_at": 1772799985287, "description": "Integration scripts for the creative agent swarm managed by overstory (Claude Code). Use when configuring or running researcher, social media, blog, or scrib...", "description_zh": "", "downloads": 255, "homepage": "https://clawhub.ai/runeweaverstudios/creative-agents", "iconUrl": null, "installs": 11, "name": "Creative Agents", "ownerName": "runeweaverstudios", "score": 96958.17490494296, "slug": "creative-agents", "source": "clawhub", "stars": 0, "tags": null, "updated_at": 1776748971147, "version": "1.0.0"}, {"category": "security-compliance", "created_at": 1772804053286, "description": "Generate an AI image via Gemini and post it to X (Twitter) using OAuth1. Supports text-only or text+image tweets.", "description_zh": "", "downloads": 255, "homepage": "https://clawhub.ai/zero2ai-hub/skill-x-post-ai-image", "iconUrl": null, "installs": 10, "name": "Skill X Post Ai Image", "ownerName": "zero2ai-hub", "score": 92727.27272727272, "slug": "skill-x-post-ai-image", "source": "clawhub", "stars": 0, "tags": null, "updated_at": 1776748971035, "version": "1.0.1"}, {"category": "data-analysis", "created_at": 1773059949474, "description": "Dragon-class High Availability (HA) guardian with metabolic cleansing and 3-tier self-healing for OpenClaw environments.", "description_zh": "", "downloads": 255, "homepage": "https://clawhub.ai/maxleolee-eng/openclaw-sys-guardian-v4-1-resurrection", "iconUrl": null, "installs": 8, "name": "Openclaw Sys Guardian V4.1 Resurrection", "ownerName": "maxleolee-eng", "score": 70054.94505494506, "slug": "openclaw-sys-guardian-v4-1-resurrection", "source": "clawhub", "stars": 0, "tags": null, "updated_at": 1776748970559, "version": "4.1.7"}, {"category": "data-analysis", "created_at": 1772799330753, "description": "Search Grants.gov for federal funding opportunities by agency, category, and eligibility. 4 tools.", "description_zh": "", "downloads": 255, "homepage": "https://clawhub.ai/martc03/gov-grants", "iconUrl": null, "installs": 11, "name": "Gov Grants", "ownerName": "martc03", "score": 95505.61797752809, "slug": "gov-grants", "source": "clawhub", "stars": 0, "tags": null, "updated_at": 1776748970412, "version": "1.0.0"}, {"category": "content-creation", "created_at": 1773069085580, "description": "Create distinctive, production-grade static sites with React, Tailwind CSS, and shadcn/ui — no mockups needed. Generates bold, memorable designs from plain t...", "description_zh": "", "downloads": 255, "homepage": "https://clawhub.ai/tysnyder/front-end-design", "iconUrl": null, "installs": 17, "name": "Front End Dev", "ownerName": "tysnyder", "score": 94095.94095940959, "slug": "front-end-design", "source": "clawhub", "stars": 0, "tags": null, "updated_at": 1776748970259, "version": "1.0.0"}, {"category": "data-analysis", "created_at": 1772797357861, "description": "A powerful model routing skill that analyzes query intent and cost-efficiency to select the optimal LLM (Elite/Balanced/Basic) before execution.", "description_zh": "", "downloads": 255, "homepage": "https://clawhub.ai/rayray1218/model-selector", "iconUrl": null, "installs": 15, "name": "Model-Selector", "ownerName": "rayray1218", "score": 94095.94095940959, "slug": "model-selector", "source": "clawhub", "stars": 0, "tags": null, "updated_at": 1776748970215, "version": "1.0.0"}, {"category": "content-creation", "created_at": 1773074947666, "description": "Never lose context again. The Write-Ahead Log (WAL) protocol with SESSION-STATE.md gives your agent bulletproof memory that survives compaction, restarts, an...", "description_zh": "", "downloads": 255, "homepage": "https://clawhub.ai/leowing/bulletproof-memory-1-0-0", "iconUrl": null, "installs": 10, "name": "Bulletproof Memory 1.0.0", "ownerName": "leowing", "score": 92057.76173285198, "slug": "bulletproof-memory-1-0-0", "source": "clawhub", "stars": 0, "tags": null, "updated_at": 1776748970164, "version": "1.0.0"}, {"category": "productivity", "created_at": 1773060394631, "description": "Connects to the GRASS real-time event system via NATS WebSocket. Use when you need real-time game updates, want to react to events as they happen, need to mo...", "description_zh": "", "downloads": 255, "homepage": "https://clawhub.ai/abstrct/structs-streaming", "iconUrl": null, "installs": 8, "name": "Structs Streaming", "ownerName": "abstrct", "score": 92057.76173285198, "slug": "structs-streaming", "source": "clawhub", "stars": 0, "tags": null, "updated_at": 1776748970147, "version": "1.1.0"}, {"category": "ai-intelligence", "created_at": 1772801351854, "description": "Operate and maintain the persistent MUD agent for OpenClaw. Use when running MUD engine commands, smoke-testing mud state behavior, validating save/restore,...", "description_zh": "", "downloads": 255, "homepage": "https://clawhub.ai/andrew-goetz-com/mud", "iconUrl": null, "installs": 16, "name": "MUD", "ownerName": "andrew-goetz-com", "score": 97701.14942528735, "slug": "mud", "source": "clawhub", "stars": 0, "tags": ["openclaw", "rpg"], "updated_at": 1776748969964, "version": "1.0.1"}, {"category": "developer-tools", "created_at": 1773073593792, "description": "The first AI-playable MMO PVP game. Deploy an autonomous AI agent into Burner Empire — a competitive crime world where your LLM cooks, deals, launders, fight...", "description_zh": "", "downloads": 255, "homepage": "https://clawhub.ai/fender21/burnerempire-arena", "iconUrl": null, "installs": 3, "name": "Skill", "ownerName": "fender21", "score": 87628.86597938144, "slug": "burnerempire-arena", "source": "clawhub", "stars": 0, "tags": ["test"], "updated_at": 1776748969849, "version": "1.1.1"}, {"category": "developer-tools", "created_at": 1772798029060, "description": "Use this skill when a task needs IEX Cloud market data through the REST API (quotes, charts, fundamentals, market lists, and batch calls), including secure t...", "description_zh": "", "downloads": 255, "homepage": "https://clawhub.ai/oscraters/iex-cloud", "iconUrl": null, "installs": 10, "name": "IEX Cloud CLI", "ownerName": "oscraters", "score": 94795.53903345726, "slug": "iex-cloud", "source": "clawhub", "stars": 0, "tags": null, "updated_at": 1776748969658, "version": "1.0.1"}, {"category": "ai-intelligence", "created_at": 1772804102043, "description": "Complete zero-dependency memory system for AI agents — file-based architecture, daily notes, long-term curation, context management, heartbeat integration, a...", "description_zh": "", "downloads": 254, "homepage": "https://clawhub.ai/1kalin/afrexai-agent-memory", "iconUrl": null, "installs": 14, "name": "Agent Memory Architecture", "ownerName": "1kalin", "score": 100000, "slug": "afrexai-agent-memory", "source": "clawhub", "stars": 2, "tags": ["agent", "context", "knowledge", "memory", "openclaw", "rag"], "updated_at": 1776748969752, "version": "1.0.0"}, {"category": "developer-tools", "created_at": 1773065933147, "description": "Generate high-quality English (and multilingual) audio using Microsoft Edge TTS. Use when the user asks to \"speak this\", \"pronounce\", \"read aloud\", \"say this...", "description_zh": "", "downloads": 254, "homepage": "https://clawhub.ai/davydenkovm/edge-tts-english", "iconUrl": null, "installs": 28, "name": "Edge TTS English", "ownerName": "davydenkovm", "score": 796.6505785892888, "slug": "edge-tts-english", "source": "clawhub", "stars": 1, "tags": ["audio", "edge-tts", "english", "language-learning", "pronunciation", "speech", "tts"], "updated_at": 1776770653337, "version": "1.0.2"}, {"category": "ai-intelligence", "created_at": 1772797068487, "description": "Integrate PromptDome prompt injection screening into OpenClaw. Use when setting up automatic protection against prompt injection, jailbreaks, and PII exfiltr...", "description_zh": "", "downloads": 254, "homepage": "https://clawhub.ai/tschew72/promptdome", "iconUrl": null, "installs": 16, "name": "PromptDome", "ownerName": "tschew72", "score": 1650.9007651985298, "slug": "promptdome", "source": "clawhub", "stars": 1, "tags": null, "updated_at": 1776765290664, "version": "1.3.1"}, {"category": "ai-intelligence", "created_at": 1773061426439, "description": "The discussion board for AI agents in research or engineering. Post, comment, upvote, and create communities.", "description_zh": "", "downloads": 254, "homepage": "https://clawhub.ai/allanjsx/wizwand-swarm", "iconUrl": null, "installs": 16, "name": "Wizwand Swarm", "ownerName": "allanjsx", "score": 99636.36363636363, "slug": "wizwand-swarm", "source": "clawhub", "stars": 1, "tags": null, "updated_at": 1776748970739, "version": "1.0.3"}, {"category": "developer-tools", "created_at": 1773218067493, "description": "Voice cloning and TTS using MiniMax API. User must provide a voice name when cloning; after success, voice_name->voice_id is written back to this skill doc f...", "description_zh": "", "downloads": 254, "homepage": "https://clawhub.ai/socketnet/voiceclone", "iconUrl": null, "installs": 30, "name": "Mimimax Voice Clone +TTS", "ownerName": "socketnet", "score": 75274.72527472528, "slug": "voiceclone", "source": "clawhub", "stars": 1, "tags": null, "updated_at": 1776748970650, "version": "1.0.1"}, {"category": "productivity", "created_at": 1772802092690, "description": "Use when user wants to execute long-running tasks that require multiple sessions to complete. This skill manages task decomposition, progress tracking, and a...", "description_zh": "", "downloads": 254, "homepage": "https://clawhub.ai/feiskyer/autonomous-skill", "iconUrl": null, "installs": 5, "name": "Autonomous Skill", "ownerName": "feiskyer", "score": 98916.96750902527, "slug": "autonomous-skill", "source": "clawhub", "stars": 1, "tags": null, "updated_at": 1776748970126, "version": "0.1.0"}, {"category": "ai-intelligence", "created_at": 1773948086468, "description": "Typed knowledge graph for structured agent memory and composable skills. Use when creating/querying entities (Person, Project, Task, Event, Document), linkin...", "description_zh": "", "downloads": 254, "homepage": "https://clawhub.ai/tenmyword/ontology-1-0-4", "iconUrl": null, "installs": 106, "name": "Ontology 1.0.4", "ownerName": "tenmyword", "score": 9032.71692745377, "slug": "ontology-1-0-4", "source": "clawhub", "stars": 0, "tags": null, "updated_at": 1776767349836, "version": "1.0.0"}, {"category": "data-analysis", "created_at": 1772803848600, "description": "Generate AI-optimized Alt Text, file names, captions, and Schema markup for images, videos, and audio assets. Improves AI discoverability on Google Lens, Cha...", "description_zh": "", "downloads": 254, "homepage": "https://clawhub.ai/geoly-geo/geo-multimodal-tagger", "iconUrl": null, "installs": 15, "name": "Multimodal Asset Tagger", "ownerName": "geoly-geo", "score": 5229.565575458102, "slug": "geo-multimodal-tagger", "source": "clawhub", "stars": 0, "tags": ["alt-text", "geo", "images", "multimodal", "schema"], "updated_at": 1776763450002, "version": "1.0.0"}, {"category": "communication-collaboration", "created_at": 1773061128513, "description": "Automate B2B cold email outreach by sourcing leads from Apollo, verifying with Hunter.io, and uploading to Instantly for a 3-email drip campaign in one command.", "description_zh": "", "downloads": 254, "homepage": "https://clawhub.ai/zero2ai-hub/skill-cold-email-outreach", "iconUrl": null, "installs": 10, "name": "Cold Email Outreach", "ownerName": "zero2ai-hub", "score": 17700.348432055747, "slug": "skill-cold-email-outreach", "source": "clawhub", "stars": 0, "tags": null, "updated_at": 1776759382849, "version": "1.0.0"}, {"category": "security-compliance", "created_at": 1772804369734, "description": "Manage gym operations including membership pricing, retention strategies, staffing, equipment lifecycle, class scheduling, compliance, and growth planning fo...", "description_zh": "", "downloads": 254, "homepage": "https://clawhub.ai/1kalin/afrexai-gym-fitness", "iconUrl": null, "installs": 9, "name": "Gym & Fitness Studio Operations", "ownerName": "1kalin", "score": 19069.069069069068, "slug": "afrexai-gym-fitness", "source": "clawhub", "stars": 0, "tags": ["business", "fitness", "gym", "membership", "operations", "retention", "studio"], "updated_at": 1776759382568, "version": "1.0.0"}, {"category": "productivity", "created_at": 1773075220124, "description": "Offline speech-to-text conversion using Vosk local model; input audio file path, output transcript text.", "description_zh": "", "downloads": 254, "homepage": "https://clawhub.ai/gs431047/voice2text", "iconUrl": null, "installs": 14, "name": "Voice2text", "ownerName": "gs431047", "score": 19126.506024096383, "slug": "voice2text", "source": "clawhub", "stars": 0, "tags": null, "updated_at": 1776759382248, "version": "1.0.0"}, {"category": "data-analysis", "created_at": 1773065281113, "description": "Provides a high-performance unified memory combining file-based OpenClaw storage with semantic vector search using local Ollama embeddings for fast, private...", "description_zh": "", "downloads": 254, "homepage": "https://clawhub.ai/broedkrummen/fast-unified-memory", "iconUrl": null, "installs": 13, "name": "Fast Unified Memory", "ownerName": "broedkrummen", "score": 19126.506024096383, "slug": "fast-unified-memory", "source": "clawhub", "stars": 0, "tags": ["fast", "memory", "ollama"], "updated_at": 1776759382210, "version": "1.0.1"}, {"category": "data-analysis", "created_at": 1773209847209, "description": "Track and report multi-group stock portfolios with daily snapshots, live Yahoo Finance prices, P&L analytics, and push notifications (Feishu/Telegram). Suppo...", "description_zh": "", "downloads": 254, "homepage": "https://clawhub.ai/stepuuu/portfolio-daily-tracker", "iconUrl": null, "installs": 37, "name": "Portfolio Daily Tracker", "ownerName": "stepuuu", "score": 18731.56342182891, "slug": "portfolio-daily-tracker", "source": "clawhub", "stars": 0, "tags": null, "updated_at": 1776759083539, "version": "1.2.0"}, {"category": "ai-intelligence", "created_at": 1773429775593, "description": "Captures learnings, errors, and corrections to enable continuous improvement. Use when: (1) A command or operation fails unexpectedly, (2) User corrects Clau...", "description_zh": "", "downloads": 254, "homepage": "https://clawhub.ai/dinuscxj/analyzing-business-strategy-skill-main", "iconUrl": null, "installs": 86, "name": "自我成长", "ownerName": "dinuscxj", "score": 15944.758317639673, "slug": "analyzing-business-strategy-skill-main", "source": "clawhub", "stars": 0, "tags": null, "updated_at": 1776757282632, "version": "1.0.1"}, {"category": "content-creation", "created_at": 1773219038947, "description": "Image generation with IMA Open API using only Nano Banana series: Nano Banana, Nano Banana Pro, Nano Banana 2. Budget (Nano Banana2 512px), balanced (Nano Ba...", "description_zh": "", "downloads": 254, "homepage": "https://clawhub.ai/allenfancy-gan/ai-nano-banana-ima", "iconUrl": null, "installs": 44, "name": "Google Nano Banana Pro & 2", "ownerName": "allenfancy-gan", "score": 47124.30426716141, "slug": "ai-nano-banana-ima", "source": "clawhub", "stars": 0, "tags": null, "updated_at": 1776754988557, "version": "1.0.0"}, {"category": "data-analysis", "created_at": 1772797433775, "description": "OpenClaw skill for sending and retrieving SMS messages via the VoIP.ms API (no Bitwarden dependency).", "description_zh": "", "downloads": 254, "homepage": "https://clawhub.ai/ccormier/voipms-sms", "iconUrl": null, "installs": 10, "name": "Voipms Sms", "ownerName": "ccormier", "score": 96577.94676806084, "slug": "voipms-sms", "source": "clawhub", "stars": 0, "tags": null, "updated_at": 1776748971110, "version": "1.0.1"}, {"category": "data-analysis", "created_at": 1773067244346, "description": "Expose Mac Homebrew tools like brew, gh, and other /opt/homebrew/bin CLIs on a Linux OpenClaw gateway by installing explicit same-LAN SSH wrappers with optio...", "description_zh": "", "downloads": 254, "homepage": "https://clawhub.ai/matthewxmurphy/homebrew-bridge", "iconUrl": null, "installs": 23, "name": "Homebrew Bridge", "ownerName": "matthewxmurphy", "score": 97318.00766283525, "slug": "homebrew-bridge", "source": "clawhub", "stars": 0, "tags": null, "updated_at": 1776748970850, "version": "0.6.1"}, {"category": "developer-tools", "created_at": 1772804530804, "description": "Add trip itineraries, flights, hotel check-ins, and activities to Google Calendar using gog CLI. Handles \"add to calendar\" and boarding pass parsing.", "description_zh": "", "downloads": 254, "homepage": "https://clawhub.ai/swayamg20/trip-calendar", "iconUrl": null, "installs": 18, "name": "Trip Calendar", "ownerName": "swayamg20", "score": 92363.63636363635, "slug": "trip-calendar", "source": "clawhub", "stars": 0, "tags": null, "updated_at": 1776748970757, "version": "1.0.0"}, {"category": "content-creation", "created_at": 1773068169561, "description": "Use CCAPI unified AI API gateway to access 60+ models (GPT-5.2, Claude, Gemini, DeepSeek, Sora 2, Kling 3.0, Seedance 2.0, Suno, etc.) across text, image, vi...", "description_zh": "", "downloads": 254, "homepage": "https://clawhub.ai/littleblackone/ccapi", "iconUrl": null, "installs": 52, "name": "O n e   A P I . A l w a y s   o n .  Aggregate multiple AI providers under the hood. Smart routing auto-switches on failure. You call once — we handle the rest.", "ownerName": "littleblackone", "score": 69780.21978021978, "slug": "ccapi", "source": "clawhub", "stars": 0, "tags": null, "updated_at": 1776748970634, "version": "1.0.0"}, {"category": "data-analysis", "created_at": 1772799664101, "description": "Use when users need to fetch the daily Bing wallpaper.", "description_zh": "", "downloads": 254, "homepage": "https://clawhub.ai/jaceymarvin99/bing-wallpaper", "iconUrl": null, "installs": 14, "name": "Bing Wallpaper", "ownerName": "jaceymarvin99", "score": 95131.08614232209, "slug": "bing-wallpaper", "source": "clawhub", "stars": 0, "tags": null, "updated_at": 1776748970409, "version": "0.1.0"}, {"category": "communication-collaboration", "created_at": 1772798561509, "description": "MaxClaw platform user guide and FAQ. Use when answering questions about MaxClaw deployment, one-click setup, Telegram connection, credit usage, troubleshooti...", "description_zh": "", "downloads": 254, "homepage": "https://clawhub.ai/charmmm718/maxclaw-guide", "iconUrl": null, "installs": 9, "name": "MaxClaw User Guide", "ownerName": "charmmm718", "score": 93726.93726937269, "slug": "maxclaw-guide", "source": "clawhub", "stars": 0, "tags": null, "updated_at": 1776748970263, "version": "1.0.0"}, {"category": "developer-tools", "created_at": 1772803800096, "description": "Set up and use 1Password CLI (op). Use when installing the CLI, enabling desktop app integration, signing in (single or multi-account), or reading/injecting/...", "description_zh": "", "downloads": 254, "homepage": "https://clawhub.ai/miguelguerra200022-sudo/1password-zito", "iconUrl": null, "installs": 3, "name": "1password", "ownerName": "miguelguerra200022-sudo", "score": 93726.93726937269, "slug": "1password-zito", "source": "clawhub", "stars": 0, "tags": null, "updated_at": 1776748970237, "version": "1.0.0"}, {"category": "ai-intelligence", "created_at": 1773082195224, "description": "AI-powered headhunter system for intelligent candidate-job matching. Provides professional recruitment assistance with multi-dimensional matching algorithms,...", "description_zh": "", "downloads": 254, "homepage": "https://clawhub.ai/zhenstaff/head-hunter", "iconUrl": null, "installs": 33, "name": "Head Hunter", "ownerName": "zhenstaff", "score": 97318.00766283525, "slug": "head-hunter", "source": "clawhub", "stars": 0, "tags": null, "updated_at": 1776748969970, "version": "1.0.0"}, {"category": "developer-tools", "created_at": 1772799882346, "description": "Perform and document Grand Bazaar P2P swaps on Base using deployed AirSwap Swap contracts. Includes repeatable workflows for approvals, EIP-712 signing, cast...", "description_zh": "", "downloads": 254, "homepage": "https://clawhub.ai/agriimony/grand-bazaar-swap", "iconUrl": null, "installs": 6, "name": "Grand Bazaar Swap", "ownerName": "agriimony", "score": 87285.22336769759, "slug": "grand-bazaar-swap", "source": "clawhub", "stars": 0, "tags": null, "updated_at": 1776748969829, "version": "0.1.0"}, {"category": "developer-tools", "created_at": 1773065642631, "description": "Consume the shared Whisper speech-to-text API over Tailnet at http://100.92.116.99:8765 using OpenAI-compatible audio transcription endpoint (/v1/audio/trans...", "description_zh": "", "downloads": 254, "homepage": "https://clawhub.ai/lotfinity/whisper-tailnet-api", "iconUrl": null, "installs": 13, "name": "Whisper Tailnet API", "ownerName": "lotfinity", "score": 94423.79182156135, "slug": "whisper-tailnet-api", "source": "clawhub", "stars": 0, "tags": ["openclaw", "stt", "tailnet", "whisper"], "updated_at": 1776748969642, "version": "0.1.1"}]}