{"page": 270, "total_pages": 522, "total": 26073, "skills": [{"category": "security-compliance", "created_at": 1772804770953, "description": "Publish ethical guardrails for your AI agent — three questions, one template, no auth required. Declare what your agent will never do, how it resolves value...", "description_zh": "", "downloads": 253, "homepage": "https://clawhub.ai/leegitw/ethics-guardrails", "iconUrl": null, "installs": 9, "name": "Ethics Guardrails — Ethical Principles for AI Agents (Bots Matter)", "ownerName": "leegitw", "score": 85989.01098901099, "slug": "ethics-guardrails", "source": "clawhub", "stars": 3, "tags": ["agent-ethics", "agent-safety", "ai-agents", "ai-dignity", "ai-ethics", "boundaries", "commitment", "ethical-ai", "ethics", "ground", "guardrails", "manifesto", "principles", "responsible-ai", "safety", "substrate-neutral", "transparency", "values"], "updated_at": 1776748970571, "version": "1.0.1"}, {"category": "content-creation", "created_at": 1772794876291, "description": "Write winning proposals and quotes for a solopreneur business. Use when putting together a proposal for a potential client, structuring a sales document, pri...", "description_zh": "", "downloads": 253, "homepage": "https://clawhub.ai/jk-0001/proposal-writing-2", "iconUrl": null, "installs": 6, "name": "Proposal Writing", "ownerName": "jk-0001", "score": 6498.452749345394, "slug": "proposal-writing-2", "source": "clawhub", "stars": 1, "tags": null, "updated_at": 1776765671374, "version": "0.1.0"}, {"category": "security-compliance", "created_at": 1772798464853, "description": "Expert guidance on licensing, EPA compliance, pricing, route optimization, technician management, seasonal planning, and growth strategies for pest control b...", "description_zh": "", "downloads": 253, "homepage": "https://clawhub.ai/1kalin/afrexai-pest-control", "iconUrl": null, "installs": 9, "name": "Pest Control Business Operations", "ownerName": "1kalin", "score": 1591.6511194029852, "slug": "afrexai-pest-control", "source": "clawhub", "stars": 1, "tags": ["business", "epa", "fifra", "operations", "pest control", "pricing"], "updated_at": 1776759382387, "version": "1.0.0"}, {"category": "developer-tools", "created_at": 1773064768363, "description": "Collect debt and mortgage inputs, call a plans API, and return payoff strategy comparisons (snowball, avalanche, refinance) with concise recommendations and...", "description_zh": "", "downloads": 253, "homepage": "https://clawhub.ai/lgvw3/debt-payoff-plan-comparison", "iconUrl": null, "installs": 8, "name": "Debt payoff plan comparison", "ownerName": "lgvw3", "score": 2260.120870933024, "slug": "debt-payoff-plan-comparison", "source": "clawhub", "stars": 1, "tags": null, "updated_at": 1776759382159, "version": "1.1.0"}, {"category": "communication-collaboration", "created_at": 1773067444251, "description": "Use external AI assistants (ChatGPT, Claude, Gemini, DeepSeek) when agent encounters difficult problems. Trigger when: (1) User explicitly asks to consult AI...", "description_zh": "", "downloads": 253, "homepage": "https://clawhub.ai/xiaoxu1232/ask-ai", "iconUrl": null, "installs": 39, "name": "ask-ai", "ownerName": "xiaoxu1232", "score": 18421.052631578947, "slug": "ask-ai", "source": "clawhub", "stars": 1, "tags": ["openclaw ai-agent chatgpt automation"], "updated_at": 1776758182653, "version": "1.1.0"}, {"category": "content-creation", "created_at": 1773890976593, "description": "Convert images and text prompts to 3D models (.glb) using the 3D AI Studio API. Supports TRELLIS.2, Hunyuan Rapid, and Hunyuan Pro models.", "description_zh": "", "downloads": 253, "homepage": "https://clawhub.ai/whale-professor/3daistudio-integration", "iconUrl": null, "installs": 57, "name": "3daistudio integration", "ownerName": "whale-professor", "score": 637.2153939149708, "slug": "3daistudio-integration", "source": "clawhub", "stars": 0, "tags": ["3d", "ai", "image to 3d", "stl"], "updated_at": 1776770650083, "version": "1.0.4"}, {"category": "", "created_at": 1773201941644, "description": "Optimize Shopify store SEO by enhancing product titles, descriptions, meta tags, image alt text, URL structure, and internal linking for better Google rankings.", "description_zh": "", "downloads": 253, "homepage": "https://clawhub.ai/yipintangzsp/shopify-seo-optimizer", "iconUrl": null, "installs": 40, "name": "Shopify Seo Optimizer", "ownerName": "yipintangzsp", "score": 13727.618014107435, "slug": "shopify-seo-optimizer", "source": "clawhub", "stars": 0, "tags": null, "updated_at": 1776765250600, "version": "1.0.0"}, {"category": "developer-tools", "created_at": 1773432864939, "description": "Web scraping, crawling, searching, and browser automation via the Firecrawl CLI (firecrawl). Use when scraping URLs to markdown/HTML, crawling entire website...", "description_zh": "", "downloads": 253, "homepage": "https://clawhub.ai/yash-kavaiya/firecrawl-cli", "iconUrl": null, "installs": 27, "name": "Firecrawl CLI", "ownerName": "yash-kavaiya", "score": 2886.8096759470563, "slug": "firecrawl-cli", "source": "clawhub", "stars": 0, "tags": null, "updated_at": 1776764350441, "version": "1.0.0"}, {"category": "data-analysis", "created_at": 1773069021282, "description": "Subscribe and retrieve on-chain Smart Money signals. Monitor trading activities of smart money addresses, including buy/sell signals, trigger price, current...", "description_zh": "", "downloads": 253, "homepage": "https://clawhub.ai/viktor-huang/binance-trading-signal", "iconUrl": null, "installs": 14, "name": "Binance Trading Signal", "ownerName": "viktor-huang", "score": 3596.8154677281773, "slug": "binance-trading-signal", "source": "clawhub", "stars": 0, "tags": null, "updated_at": 1776762850219, "version": "1.0.0"}, {"category": "security-compliance", "created_at": 1773219925582, "description": "A comprehensive AI agent skill for understanding and managing copyright. Helps creators protect their work, understand what copyright covers and what it does...", "description_zh": "", "downloads": 253, "homepage": "https://clawhub.ai/agistack/copyright", "iconUrl": null, "installs": 6, "name": "Copyright", "ownerName": "agistack", "score": 20288.692862870892, "slug": "copyright", "source": "clawhub", "stars": 0, "tags": ["copyright", "creator", "dmca", "fairuse", "licensing"], "updated_at": 1776760282333, "version": "1.0.0"}, {"category": "data-analysis", "created_at": 1773068149085, "description": "Real-time monitoring dashboard for API uptime, response times, error rates, custom health checks, and alert notifications via email or Slack.", "description_zh": "", "downloads": 253, "homepage": "https://clawhub.ai/sunshine-del-ux/api-monitor-dashboard", "iconUrl": null, "installs": 18, "name": "Api Monitor Dashboard", "ownerName": "sunshine-del-ux", "score": 19108.761329305136, "slug": "api-monitor-dashboard", "source": "clawhub", "stars": 0, "tags": null, "updated_at": 1776759382953, "version": "1.0.0"}, {"category": "productivity", "created_at": 1772804513596, "description": "Bootstraps a new OpenClaw instance with aligned model routing, consistent gateway tokens, anti-stall contracts, autonomy loop, and verification gates for sta...", "description_zh": "", "downloads": 253, "homepage": "https://clawhub.ai/dalomeve/openclaw-growth-pack", "iconUrl": null, "installs": 9, "name": "OpenClaw Growth Pack", "ownerName": "dalomeve", "score": 19108.761329305136, "slug": "openclaw-growth-pack", "source": "clawhub", "stars": 0, "tags": null, "updated_at": 1776759382947, "version": "1.1.0"}, {"category": "developer-tools", "created_at": 1772804712131, "description": "Implements Silviu-specific guards and runbooks to enforce validation, prevent common errors, and manage browser and GitHub interactions in OpenClaw.", "description_zh": "", "downloads": 253, "homepage": "https://clawhub.ai/unknoownd/silviu-core", "iconUrl": null, "installs": 7, "name": "Silviu Core", "ownerName": "unknoownd", "score": 19094.33962264151, "slug": "silviu-core", "source": "clawhub", "stars": 0, "tags": null, "updated_at": 1776759382873, "version": "1.0.0"}, {"category": "security-compliance", "created_at": 1772799578637, "description": "Automatically tracks and audits skill usage, enforces rules from SKILL_USAGE_RULES.md, logs violations, and generates daily reports.", "description_zh": "", "downloads": 253, "homepage": "https://clawhub.ai/sasamittrrr/skill-usage-tracker", "iconUrl": null, "installs": 7, "name": "Skill usage tracker", "ownerName": "sasamittrrr", "score": 15862.068965517243, "slug": "skill-usage-tracker", "source": "clawhub", "stars": 0, "tags": null, "updated_at": 1776759382765, "version": "1.0.0"}, {"category": "developer-tools", "created_at": 1772793981210, "description": "Monitor MiniMax Coding Plan usage via API to track total, used, remaining prompts, reset time, and receive alerts above 80% usage.", "description_zh": "", "downloads": 253, "homepage": "https://clawhub.ai/weapon3k/minimax-usage-monitor", "iconUrl": null, "installs": 6, "name": "Minimax Usage", "ownerName": "weapon3k", "score": 19079.93966817496, "slug": "minimax-usage-monitor", "source": "clawhub", "stars": 0, "tags": null, "updated_at": 1776759382613, "version": "1.0.1"}, {"category": "developer-tools", "created_at": 1772804573681, "description": "Aggregate and deduplicate multiple RSS/Atom feeds, score and cluster articles by importance, and generate concise, source-attributed daily digests.", "description_zh": "", "downloads": 253, "homepage": "https://clawhub.ai/calvinxhk/botlearn-rss-manager", "iconUrl": null, "installs": 5, "name": "botlearn-rss-manager", "ownerName": "calvinxhk", "score": 18993.993993993994, "slug": "botlearn-rss-manager", "source": "clawhub", "stars": 0, "tags": null, "updated_at": 1776759382592, "version": "1.0.0"}, {"category": "data-analysis", "created_at": 1773075748844, "description": "Generates a detailed AI-driven market entry report analyzing market size, competitors, consumer behavior, regulations, pricing, and go-to-market strategy for...", "description_zh": "", "downloads": 253, "homepage": "https://clawhub.ai/g4dr/ai-market-entry-report", "iconUrl": null, "installs": 15, "name": "AI Market Entry Report — Full Country Market Research Before You Launch", "ownerName": "g4dr", "score": 19123.20483749055, "slug": "ai-market-entry-report", "source": "clawhub", "stars": 0, "tags": ["apify", "business-strategy", "competitor-analysis", "consulting", "go-to-market", "international-expansion", "invideo", "market-entry", "market-research"], "updated_at": 1776759382494, "version": "1.0.0"}, {"category": "developer-tools", "created_at": 1773075309551, "description": "Provides accurate monthly sowing and harvesting guidance for 160+ plants, tailored to UK and selected international climates.", "description_zh": "", "downloads": 253, "homepage": "https://clawhub.ai/siatrial/gardening-calendar", "iconUrl": null, "installs": 13, "name": "Gardening Calendar", "ownerName": "siatrial", "score": 19137.670196671712, "slug": "gardening-calendar", "source": "clawhub", "stars": 0, "tags": null, "updated_at": 1776759382318, "version": "1.0.1"}, {"category": "ai-intelligence", "created_at": 1772801660150, "description": "Generate daily high-signal charisma/engagement insights with a self-improving novelty loop. Use when sending recurring tips on charisma, body language, orati...", "description_zh": "", "downloads": 253, "homepage": "https://clawhub.ai/dman3629/charisma-research-loop", "iconUrl": null, "installs": 28, "name": "Charisma Research Loop", "ownerName": "dman3629", "score": 17400.275103163687, "slug": "charisma-research-loop", "source": "clawhub", "stars": 0, "tags": null, "updated_at": 1776758482889, "version": "1.0.0"}, {"category": "data-analysis", "created_at": 1772799224665, "description": "Extract structured data from Zight share links (a.cl.ly and share.zight.com), including title, stream URLs, AI smart summary, chapter markers, and full trans...", "description_zh": "", "downloads": 253, "homepage": "https://clawhub.ai/phin/zight", "iconUrl": null, "installs": 10, "name": "Zight - video instructions capability for agents", "ownerName": "phin", "score": 14970.414201183432, "slug": "zight", "source": "clawhub", "stars": 0, "tags": null, "updated_at": 1776756188867, "version": "1.0.0"}, {"category": "productivity", "created_at": 1773069391952, "description": "Search the web for real-time information using DashScope Qwen. Use this skill whenever: (1) the user asks about current events, news, weather, stock prices,...", "description_zh": "", "downloads": 253, "homepage": "https://clawhub.ai/oreo992/dashscope-web-search", "iconUrl": null, "installs": 17, "name": "DashScope Web Search", "ownerName": "oreo992", "score": 14935.064935064935, "slug": "dashscope-web-search", "source": "clawhub", "stars": 0, "tags": null, "updated_at": 1776755927225, "version": "1.0.0"}, {"category": "content-creation", "created_at": 1773061052348, "description": "Generate professional flyers and leaflets using each::sense AI. Create event flyers, promotional materials, real estate listings, restaurant menus, and more...", "description_zh": "", "downloads": 253, "homepage": "https://clawhub.ai/eftalyurtseven/flyer-design-generation", "iconUrl": null, "installs": 16, "name": "Flyer Design Generation", "ownerName": "eftalyurtseven", "score": 46938.77551020408, "slug": "flyer-design-generation", "source": "clawhub", "stars": 0, "tags": null, "updated_at": 1776754988352, "version": "1.0.0"}, {"category": "data-analysis", "created_at": 1772800016139, "description": "Monitor your brand's AI visibility across ChatGPT, Perplexity, Gemini, Grok, and Google AI. Powered by GEOly AI — get AIGVR scores, mention counts, and platf...", "description_zh": "", "downloads": 253, "homepage": "https://clawhub.ai/geoly-geo/geo-brand-overview", "iconUrl": null, "installs": 21, "name": "Brand Visibility Overview", "ownerName": "geoly-geo", "score": 92000, "slug": "geo-brand-overview", "source": "clawhub", "stars": 0, "tags": ["aigvr", "brand-monitoring", "geo"], "updated_at": 1776748971359, "version": "1.0.0"}, {"category": "data-analysis", "created_at": 1772799080391, "description": "A proactive agent that monitors cryptocurrency prices, tracks your portfolio, and sends alerts via Telegram.", "description_zh": "", "downloads": 253, "homepage": "https://clawhub.ai/vitja1988/crypto-alert-agent", "iconUrl": null, "installs": 14, "name": "Crypto Alert Agent", "ownerName": "vitja1988", "score": 93014.70588235294, "slug": "crypto-alert-agent", "source": "clawhub", "stars": 0, "tags": ["bitcoin", "crypto", "ethereum", "price-alerts", "telegram", "tracking"], "updated_at": 1776748971258, "version": "1.0.0"}, {"category": "developer-tools", "created_at": 1773090840367, "description": "Operate Discord HTTP API through UXC with Discord OpenAPI schema. Bot token recommended for full API access including messages and server management. OAuth2...", "description_zh": "", "downloads": 253, "homepage": "https://clawhub.ai/jolestar/discord-openapi-skill", "iconUrl": null, "installs": 11, "name": "Discord Openapi Skill", "ownerName": "jolestar", "score": 92000, "slug": "discord-openapi-skill", "source": "clawhub", "stars": 0, "tags": null, "updated_at": 1776748971094, "version": "1.0.0"}, {"category": "developer-tools", "created_at": 1772803021179, "description": "Perform deep, concurrent web research using the Perplexity Search API.", "description_zh": "", "downloads": 253, "homepage": "https://clawhub.ai/holygrass/echo-openclaw-perplexity-ultimate-async-deep-researcher", "iconUrl": null, "installs": 11, "name": "Echo - OpenClaw Perplexity Ultimate Async Deep Researcher", "ownerName": "holygrass", "score": 92000, "slug": "echo-openclaw-perplexity-ultimate-async-deep-researcher", "source": "clawhub", "stars": 0, "tags": null, "updated_at": 1776748970789, "version": "1.0.0"}, {"category": "data-analysis", "created_at": 1772801237144, "description": "Generate QR codes for Clawket mobile app to pair with the local OpenClaw Gateway. Use when user mentions: Clawket pairing, login Clawket, QR code, mobile app...", "description_zh": "", "downloads": 253, "homepage": "https://clawhub.ai/p697/clawket", "iconUrl": null, "installs": 12, "name": "Clawket", "ownerName": "p697", "score": 69505.4945054945, "slug": "clawket", "source": "clawhub", "stars": 0, "tags": null, "updated_at": 1776748970664, "version": "1.0.1"}, {"category": "communication-collaboration", "created_at": 1772800801060, "description": "Handles joining and leaving group conversations on messaging platforms (WhatsApp, Signal, Telegram, etc.). Use when the owner tags the agent into a group cha...", "description_zh": "", "downloads": 253, "homepage": "https://clawhub.ai/seanblanchfield/group-activation", "iconUrl": null, "installs": 7, "name": "Group Activation", "ownerName": "seanblanchfield", "score": 96934.86590038314, "slug": "group-activation", "source": "clawhub", "stars": 0, "tags": null, "updated_at": 1776748969889, "version": "1.0.0"}, {"category": "developer-tools", "created_at": 1773078564712, "description": "ALWAYS use this skill before answering ANY question about OpenClaw — configuration, features, CLI commands, channels, providers, plugins, cron, sessions, age...", "description_zh": "", "downloads": 253, "homepage": "https://clawhub.ai/seanford/skilled-openclaw-advisor", "iconUrl": null, "installs": 7, "name": "Skilled OpenClaw Advisor", "ownerName": "seanford", "score": 86941.58075601375, "slug": "skilled-openclaw-advisor", "source": "clawhub", "stars": 0, "tags": null, "updated_at": 1776748969789, "version": "1.1.0"}, {"category": "ai-intelligence", "created_at": 1773075102483, "description": "Universal multi-agent workflow orchestration using Claude Code Agent Teams. Use when user asks to run a team workflow, create an agent team, or coordinate pa...", "description_zh": "", "downloads": 253, "homepage": "https://clawhub.ai/sieyer/claude-agent-team-workflows-0-1-0", "iconUrl": null, "installs": 20, "name": "Claude Agent Team Workflows 0.1.0", "ownerName": "sieyer", "score": 86054.42176870749, "slug": "claude-agent-team-workflows-0-1-0", "source": "clawhub", "stars": 0, "tags": null, "updated_at": 1776748969755, "version": "1.0.0"}, {"category": "communication-collaboration", "created_at": 1773061024898, "description": "Send and receive messages between AI agents via the Agentgram Hub. Register agents, sign message envelopes with Ed25519, deliver payloads through store-and-f...", "description_zh": "", "downloads": 253, "homepage": "https://clawhub.ai/zhangzhejian/agentgram-chat", "iconUrl": null, "installs": 7, "name": "Agentgram Chat IM For Openclaws", "ownerName": "zhangzhejian", "score": 94052.04460966543, "slug": "agentgram-chat", "source": "clawhub", "stars": 0, "tags": null, "updated_at": 1776748969623, "version": "2.4.0"}, {"category": "productivity", "created_at": 1773076860454, "description": "Deterministic four-pillar (bazi) calculation from datetime.", "description_zh": "", "downloads": 252, "homepage": "https://clawhub.ai/vastaq/bazi-pillars-from-datetime", "iconUrl": null, "installs": 21, "name": "bazi-pillars-from-datetime", "ownerName": "vastaq", "score": 3766.26973137635, "slug": "bazi-pillars-from-datetime", "source": "clawhub", "stars": 1, "tags": null, "updated_at": 1776764090586, "version": "1.0.0"}, {"category": "productivity", "created_at": 1773077487914, "description": "Reads recent macOS notifications from the local database and exports them to date-organized markdown files for review and logging.", "description_zh": "", "downloads": 252, "homepage": "https://clawhub.ai/gift-is-coding/macos-notification-reader", "iconUrl": null, "installs": 15, "name": "macOS Notification Reader", "ownerName": "gift-is-coding", "score": 1520.827509085826, "slug": "macos-notification-reader", "source": "clawhub", "stars": 1, "tags": ["automation", "macos", "notifications", "productivity", "work-summary"], "updated_at": 1776759382722, "version": "1.1.0"}, {"category": "developer-tools", "created_at": 1773077488606, "description": "Deploy and start OpenClaw Agent Control with one command (backend + frontend) using skill-based workflow.", "description_zh": "", "downloads": 252, "homepage": "https://clawhub.ai/jiangagentlabs/openclaw-agent-control", "iconUrl": null, "installs": 26, "name": "OpenClaw Agent Control Skill", "ownerName": "jiangagentlabs", "score": 47887.32394366197, "slug": "openclaw-agent-control", "source": "clawhub", "stars": 1, "tags": null, "updated_at": 1776753169822, "version": "1.0.0"}, {"category": "content-creation", "created_at": 1773076681802, "description": "Veo, Veo 3.1 Fast - Google AI video generation models for AI agents. 1080p HD output, reference image support, intelligent audio generation.", "description_zh": "", "downloads": 252, "homepage": "https://clawhub.ai/seekton/veo-skill", "iconUrl": null, "installs": 50, "name": "Veo Skill", "ownerName": "seekton", "score": 98909.09090909091, "slug": "veo-skill", "source": "clawhub", "stars": 1, "tags": null, "updated_at": 1776748971281, "version": "1.0.0"}, {"category": "communication-collaboration", "created_at": 1772796527952, "description": "Agent-to-agent messaging on the ClaWeb network. Send messages between AI agents with mail and real-time chat. Cryptographic identity (Ed25519 signed messages...", "description_zh": "", "downloads": 252, "homepage": "https://clawhub.ai/juanre/claweb", "iconUrl": null, "installs": 7, "name": "ClaWeb Messaging", "ownerName": "juanre", "score": 100000, "slug": "claweb", "source": "clawhub", "stars": 1, "tags": ["agent-to-agent messaging", "agents", "chat", "ed25519", "identity", "mail", "messaging"], "updated_at": 1776748971237, "version": "0.3.23"}, {"category": "productivity", "created_at": 1773218476787, "description": "Upload PDFs and manage items in a Zotero Web Library. Supports both personal and group libraries. Use when a user wants to add papers/PDFs to Zotero, organiz...", "description_zh": "", "downloads": 252, "homepage": "https://clawhub.ai/chenhaox/zotero-pdf-upload", "iconUrl": null, "installs": 53, "name": "zotero-pdf-upload", "ownerName": "chenhaox", "score": 1405.230580494061, "slug": "zotero-pdf-upload", "source": "clawhub", "stars": 0, "tags": null, "updated_at": 1776769749837, "version": "1.0.3"}, {"category": "", "created_at": 1774887677903, "description": "Extract, transcribe, clean, segment, and analyze long-form content from URLs, local media files, existing transcripts, and pasted text. Use when a user provi...", "description_zh": "", "downloads": 252, "homepage": "https://clawhub.ai/chengjl19/summarize-anything", "iconUrl": null, "installs": 24, "name": "TL;DX", "ownerName": "chengjl19", "score": 3778.6774628879893, "slug": "summarize-anything", "source": "clawhub", "stars": 0, "tags": null, "updated_at": 1776765250104, "version": "1.0.1"}, {"category": "developer-tools", "created_at": 1773202200892, "description": "Install, start, repair, and smoke-test a Windows QQ + NapCat + OpenClaw bridge. Use this when the user explicitly wants an end-to-end local QQ bot setup, nee...", "description_zh": "", "downloads": 252, "homepage": "https://clawhub.ai/sunnyspot114514/napcat-qq-bridge-installer", "iconUrl": null, "installs": 21, "name": "Napcat Qq Bridge Installer", "ownerName": "sunnyspot114514", "score": 17213.114754098362, "slug": "napcat-qq-bridge-installer", "source": "clawhub", "stars": 0, "tags": null, "updated_at": 1776759383146, "version": "1.0.1"}, {"category": "security-compliance", "created_at": 1772797764132, "description": "Advisor for landscaping and lawn care business operations, pricing, route planning, crew management, compliance, and revenue growth strategies.", "description_zh": "", "downloads": 252, "homepage": "https://clawhub.ai/1kalin/afrexai-landscaping", "iconUrl": null, "installs": 10, "name": "Landscaping & Lawn Care Operations", "ownerName": "1kalin", "score": 18918.91891891892, "slug": "afrexai-landscaping", "source": "clawhub", "stars": 0, "tags": ["landscaping", "lawn care", "operations", "pricing"], "updated_at": 1776759383042, "version": "1.0.0"}, {"category": "content-creation", "created_at": 1772804833302, "description": "Coordinates multi-agent content publishing by preventing duplicates, tracking timeline, managing claims, and recording immutable publication history with git...", "description_zh": "", "downloads": 252, "homepage": "https://clawhub.ai/adroidian/chitin-chronicle", "iconUrl": null, "installs": 8, "name": "chitin-chronicle", "ownerName": "adroidian", "score": 19018.867924528302, "slug": "chitin-chronicle", "source": "clawhub", "stars": 0, "tags": null, "updated_at": 1776759382913, "version": "1.0.0"}, {"category": "developer-tools", "created_at": 1773064504730, "description": "Monitor large Hedera (HBAR and HTS) token transfers in real-time using Mirror Node API without requiring an API key.", "description_zh": "", "downloads": 252, "homepage": "https://clawhub.ai/imaflytok/clawswarm-whale-watcher", "iconUrl": null, "installs": 8, "name": "ClawSwarm Whale Watcher", "ownerName": "imaflytok", "score": 19062.027231467473, "slug": "clawswarm-whale-watcher", "source": "clawhub", "stars": 0, "tags": null, "updated_at": 1776759382273, "version": "1.0.0"}, {"category": "data-analysis", "created_at": 1773218898578, "description": "Turn a Bilibili video URL or BV number into a human-like XMind mind map. Use when the user wants to collect subtitles, comments, AI summary, and transcript f...", "description_zh": "", "downloads": 252, "homepage": "https://clawhub.ai/pzc163/bili-mindmap", "iconUrl": null, "installs": 53, "name": "bili-mindmap", "ownerName": "pzc163", "score": 14928.909952606633, "slug": "bili-mindmap", "source": "clawhub", "stars": 0, "tags": null, "updated_at": 1776756227417, "version": "0.2.1"}, {"category": "content-creation", "created_at": 1772799819078, "description": "Create, monitor, and troubleshoot Boosta API video-processing jobs from natural-language requests. Use this skill when a user asks to generate clips from a v...", "description_zh": "", "downloads": 252, "homepage": "https://clawhub.ai/hundevmode/boosta-long-to-shorts", "iconUrl": null, "installs": 21, "name": "Boosta Long to Shorts", "ownerName": "hundevmode", "score": 44444.444444444445, "slug": "boosta-long-to-shorts", "source": "clawhub", "stars": 0, "tags": null, "updated_at": 1776752471998, "version": "1.0.0"}, {"category": "productivity", "created_at": 1773066134459, "description": "Microsoft Sharepoint integration. Manage Sites. Use when the user wants to interact with Microsoft Sharepoint data.", "description_zh": "", "downloads": 252, "homepage": "https://clawhub.ai/membranedev/microsoft-sharepoint", "iconUrl": null, "installs": 32, "name": "Microsoft Sharepoint", "ownerName": "membranedev", "score": 92647.05882352941, "slug": "microsoft-sharepoint", "source": "clawhub", "stars": 0, "tags": null, "updated_at": 1776748971245, "version": "1.0.0"}, {"category": "data-analysis", "created_at": 1773064951258, "description": "Auto-escalating multi-tier memory search that cascades from in-memory cache through SQLite, grep, and LanceDB vector search to find the best answer with mini...", "description_zh": "", "downloads": 252, "homepage": "https://clawhub.ai/msruruguay/midos-memory-cascade", "iconUrl": null, "installs": 33, "name": "MidOS Memory Cascade", "ownerName": "msruruguay", "score": 92647.05882352941, "slug": "midos-memory-cascade", "source": "clawhub", "stars": 0, "tags": null, "updated_at": 1776748971235, "version": "1.0.0"}, {"category": "communication-collaboration", "created_at": 1772802686938, "description": "Deploy Hummingbot trading infrastructure including API server, MCP server, and Condor Telegram bot. Use this skill when the user wants to install, deploy, se...", "description_zh": "", "downloads": 252, "homepage": "https://clawhub.ai/fengtality/hummingbot-deploy", "iconUrl": null, "installs": 9, "name": "Hummingbot Deploy", "ownerName": "fengtality", "score": 95817.49049429658, "slug": "hummingbot-deploy", "source": "clawhub", "stars": 0, "tags": null, "updated_at": 1776748971157, "version": "1.0.0"}, {"category": "developer-tools", "created_at": 1772796313027, "description": "For questions about Light Protocol's SDK, smart contracts and Solana development, Claude Code features, or agent skills. AI-powered answers grounded in repos...", "description_zh": "", "downloads": 252, "homepage": "https://clawhub.ai/tilo-14/ask-deep-wiki", "iconUrl": null, "installs": 11, "name": "ask-deep-wiki", "ownerName": "tilo-14", "score": 96551.72413793104, "slug": "ask-deep-wiki", "source": "clawhub", "stars": 0, "tags": null, "updated_at": 1776748970848, "version": "1.0.2"}, {"category": "data-analysis", "created_at": 1772799919626, "description": "Check any OpenClaw prompt, config snippet, or tip against YOUR actual setup before applying it. Auto-detects pasted prompts, analyzes compatibility, shows ex...", "description_zh": "", "downloads": 252, "homepage": "https://clawhub.ai/rocanome/safepaste", "iconUrl": null, "installs": 10, "name": "Safepaste", "ownerName": "rocanome", "score": 91636.36363636363, "slug": "safepaste", "source": "clawhub", "stars": 0, "tags": null, "updated_at": 1776748970755, "version": "2.3.0"}, {"category": "communication-collaboration", "created_at": 1773077368394, "description": "Zoho CRM integration. Manage crm and marketing automation data, records, and workflows. Use when the user wants to interact with Zoho CRM data.", "description_zh": "", "downloads": 252, "homepage": "https://clawhub.ai/membranedev/zoho-crm-integration", "iconUrl": null, "installs": 14, "name": "Zoho Crm", "ownerName": "membranedev", "score": 91636.36363636363, "slug": "zoho-crm-integration", "source": "clawhub", "stars": 0, "tags": null, "updated_at": 1776748970744, "version": "1.0.0"}]}