{"page": 271, "total_pages": 522, "total": 26073, "skills": [{"category": "productivity", "created_at": 1772796644848, "description": "DEPRECATED — remove this legacy listing; superseded by detect-file-type-local", "description_zh": "", "downloads": 252, "homepage": "https://clawhub.ai/pgeraghty/detect-file-type-skill", "iconUrl": null, "installs": 7, "name": "Detect File Type Skill", "ownerName": "pgeraghty", "score": 69230.76923076923, "slug": "detect-file-type-skill", "source": "clawhub", "stars": 0, "tags": null, "updated_at": 1776748970688, "version": "1.0.1"}, {"category": "productivity", "created_at": 1772799673292, "description": "Enables posting tweets to Twitter/X through Composio's integration platform via HTTP and BeautifulSoup. Use when posting tweets or integrating with Composio.", "description_zh": "", "downloads": 252, "homepage": "https://clawhub.ai/runeweaverstudios/composio-composer-xskill", "iconUrl": null, "installs": 9, "name": "Composio Composer Xskill", "ownerName": "runeweaverstudios", "score": 95454.54545454546, "slug": "composio-composer-xskill", "source": "clawhub", "stars": 0, "tags": null, "updated_at": 1776748970479, "version": "1.0.0"}, {"category": "productivity", "created_at": 1773066504694, "description": "Scrape LinkedIn profiles, job listings, and company pages. Bypass LinkedIn's aggressive anti-bot detection with sticky residential proxy sessions. Extract na...", "description_zh": "", "downloads": 252, "homepage": "https://clawhub.ai/luis2404123/linkedin-data-scraper", "iconUrl": null, "installs": 26, "name": "LinkedIn Data Scraper", "ownerName": "luis2404123", "score": 94382.02247191011, "slug": "linkedin-data-scraper", "source": "clawhub", "stars": 0, "tags": null, "updated_at": 1776748970432, "version": "1.0.0"}, {"category": "data-analysis", "created_at": 1773074515402, "description": "Get weather forecasts via Open-Meteo API (free, no API key). Use when: user asks about weather, temperature, rain probability, UV index, wind, or forecasts f...", "description_zh": "", "downloads": 252, "homepage": "https://clawhub.ai/dapkus/open-meteo", "iconUrl": null, "installs": 15, "name": "Open-Meteo Weather + Weather Strip", "ownerName": "dapkus", "score": 94382.02247191011, "slug": "open-meteo", "source": "clawhub", "stars": 0, "tags": null, "updated_at": 1776748970411, "version": "1.0.0"}, {"category": "content-creation", "created_at": 1773902040912, "description": "Create SVG diagrams with shapes, layers, and multi-format export. Use when generating graphics, building diagrams, arranging layouts.", "description_zh": "", "downloads": 252, "homepage": "https://clawhub.ai/bytesagain3/draw", "iconUrl": null, "installs": 53, "name": "Draw", "ownerName": "bytesagain3", "score": 94382.02247191011, "slug": "draw", "source": "clawhub", "stars": 0, "tags": null, "updated_at": 1776748970398, "version": "2.0.1"}, {"category": "developer-tools", "created_at": 1772799543120, "description": "Build a cost-efficient LLM evaluation ensemble with sampling, tiebreakers, and deterministic validators. Learned from 600+ production runs judging local Olla...", "description_zh": "", "downloads": 252, "homepage": "https://clawhub.ai/nissan/llm-judge-ensemble", "iconUrl": null, "installs": 8, "name": "llm-judge-ensemble", "ownerName": "nissan", "score": 84848.48484848485, "slug": "llm-judge-ensemble", "source": "clawhub", "stars": 0, "tags": null, "updated_at": 1776748970334, "version": "1.0.0"}, {"category": "ai-intelligence", "created_at": 1772805061347, "description": "Validate and troubleshoot the hybrid database system used by OpenClaw agents (Pulse task DB + RAG Pinecone stack). Use when asked to check setup, connection...", "description_zh": "", "downloads": 252, "homepage": "https://clawhub.ai/cryptobro-man/hybrid-db-health", "iconUrl": null, "installs": 12, "name": "Hybrid DB Health", "ownerName": "cryptobro-man", "score": 84848.48484848485, "slug": "hybrid-db-health", "source": "clawhub", "stars": 0, "tags": null, "updated_at": 1776748970277, "version": "1.0.0"}, {"category": "developer-tools", "created_at": 1772799363516, "description": "Run automated liquidity provision strategies on concentrated liquidity (CLMM) DEXs using Hummingbot API.", "description_zh": "", "downloads": 252, "homepage": "https://clawhub.ai/fengtality/lp-agent", "iconUrl": null, "installs": 7, "name": "LP Agent", "ownerName": "fengtality", "score": 86597.9381443299, "slug": "lp-agent", "source": "clawhub", "stars": 0, "tags": null, "updated_at": 1776748969786, "version": "1.0.1"}, {"category": "communication-collaboration", "created_at": 1773073111461, "description": "Use when building or debugging an agent (e.g. Telegram/WhatsApp bot, AI assistant) that integrates with the eSIMPal API to buy eSIMs for end-users, create or...", "description_zh": "", "downloads": 251, "homepage": "https://clawhub.ai/deniurchak/esimpal-api", "iconUrl": null, "installs": 17, "name": "eSIMPal API Skill", "ownerName": "deniurchak", "score": 9087.860496311201, "slug": "esimpal-api", "source": "clawhub", "stars": 1, "tags": null, "updated_at": 1776769150014, "version": "1.0.2"}, {"category": "productivity", "created_at": 1773060432589, "description": "Workspace wellness break reminder with configurable work interval, cooldown, idle reset, quiet hours, and per-day caps. Use when users want OpenClaw to remin...", "description_zh": "", "downloads": 251, "homepage": "https://clawhub.ai/lxj0276/focus-break-reminder", "iconUrl": null, "installs": 10, "name": "Focus Break Reminder", "ownerName": "lxj0276", "score": 99632.35294117648, "slug": "focus-break-reminder", "source": "clawhub", "stars": 1, "tags": null, "updated_at": 1776748971204, "version": "1.0.0"}, {"category": "communication-collaboration", "created_at": 1772802557245, "description": "Распознавание речи через Yandex SpeechKit API для голосовых сообщений в Telegram. Используй когда пользователь отправляет голосовые сообщения и хочет, чтобы...", "description_zh": "", "downloads": 251, "homepage": "https://clawhub.ai/strydex/yandex-speechkit-stt", "iconUrl": null, "installs": 7, "name": "Yandex Speechkit STT via Telegram Gateway", "ownerName": "strydex", "score": 100000, "slug": "yandex-speechkit-stt", "source": "clawhub", "stars": 1, "tags": null, "updated_at": 1776748970236, "version": "1.0.0"}, {"category": "productivity", "created_at": 1773073361535, "description": "Instant access to 100K+ nonfiction book summaries with 1-minute audio previews. Free demo key included — no signup needed. Search, browse, and listen via Fiz...", "description_zh": "", "downloads": 251, "homepage": "https://clawhub.ai/yang1997434/fizzread-skill", "iconUrl": null, "installs": 11, "name": "Fizzread", "ownerName": "yang1997434", "score": 100000, "slug": "fizzread-skill", "source": "clawhub", "stars": 1, "tags": null, "updated_at": 1776748970234, "version": "0.1.5"}, {"category": "developer-tools", "created_at": 1773068012529, "description": "Generates admin/list prototypes from requirements. Supports mountListPage-style frameworks (e.g. kfk-mock-ui), standalone HTML, or project-specific setups. U...", "description_zh": "", "downloads": 251, "homepage": "https://clawhub.ai/limingfa/prototype-generator", "iconUrl": null, "installs": 23, "name": "Prototype Generator", "ownerName": "limingfa", "score": 2013.9613255235497, "slug": "prototype-generator", "source": "clawhub", "stars": 0, "tags": null, "updated_at": 1776766150132, "version": "1.0.0"}, {"category": "developer-tools", "created_at": 1772797573875, "description": "General-purpose X/Twitter research agent. Searches X for real-time perspectives, dev discussions, product feedback, cultural takes, breaking news, and expert...", "description_zh": "", "downloads": 251, "homepage": "https://clawhub.ai/blascokoa/twitterapi-research-skill", "iconUrl": null, "installs": 13, "name": "TwitterApi Research", "ownerName": "blascokoa", "score": 3875.2508877566775, "slug": "twitterapi-research-skill", "source": "clawhub", "stars": 0, "tags": null, "updated_at": 1776765850147, "version": "0.1.0"}, {"category": "developer-tools", "created_at": 1773951666113, "description": "Golang - command-line tool for everyday use", "description_zh": "", "downloads": 251, "homepage": "https://clawhub.ai/bytesagain3/golang", "iconUrl": null, "installs": 40, "name": "Golang", "ownerName": "bytesagain3", "score": 9609.494640122512, "slug": "golang", "source": "clawhub", "stars": 0, "tags": null, "updated_at": 1776762289979, "version": "1.0.1"}, {"category": "content-creation", "created_at": 1772805361027, "description": "Explain anything — turn ideas into podcasts, explainer videos, or voice narration. Use when the user wants to \"make a podcast\", \"create an explainer video\",...", "description_zh": "", "downloads": 251, "homepage": "https://clawhub.ai/0xfango/listenhub-2", "iconUrl": null, "installs": 6, "name": "Listenhub", "ownerName": "0xfango", "score": 7927.984838913456, "slug": "listenhub-2", "source": "clawhub", "stars": 0, "tags": null, "updated_at": 1776761445371, "version": "0.1.0"}, {"category": "developer-tools", "created_at": 1773074516177, "description": "Deploy and manage a Guardian watchdog process for OpenClaw Gateway. Provides automated health monitoring, self-repair via `doctor --fix`, git-based workspace...", "description_zh": "", "downloads": 251, "homepage": "https://clawhub.ai/leoyeai/openclaw-guardian-ultra", "iconUrl": null, "installs": 14, "name": "Openclaw Guardian", "ownerName": "leoyeai", "score": 19116.527037319116, "slug": "openclaw-guardian-ultra", "source": "clawhub", "stars": 0, "tags": null, "updated_at": 1776759498277, "version": "0.1.0"}, {"category": "productivity", "created_at": 1773069226679, "description": "Creates a new project structure with frontend, backend, database, integrations, marketing folders, and a README.md inside mission-control workspace.", "description_zh": "", "downloads": 251, "homepage": "https://clawhub.ai/scotteverduim/scaffold-project", "iconUrl": null, "installs": 23, "name": "Scaffold Project", "ownerName": "scotteverduim", "score": 18943.396226415094, "slug": "scaffold-project", "source": "clawhub", "stars": 0, "tags": null, "updated_at": 1776759382910, "version": "1.0.0"}, {"category": "content-creation", "created_at": 1773078992233, "description": "Deploy and manage medical image segmentation using TotalSegmentator and MONAI with DICOM upload, batch processing, 3D export, and statistics generation.", "description_zh": "", "downloads": 251, "homepage": "https://clawhub.ai/sunshine-del-ux/dicom-segmentation-api", "iconUrl": null, "installs": 39, "name": "Dicom Segmentation Api", "ownerName": "sunshine-del-ux", "score": 17491.28919860627, "slug": "dicom-segmentation-api", "source": "clawhub", "stars": 0, "tags": null, "updated_at": 1776759382825, "version": "1.0.0"}, {"category": "developer-tools", "created_at": 1772800695589, "description": "CLI tool to register AI agents, manage profiles, ask and answer questions across categories on the askia.io AI Q&A platform.", "description_zh": "", "downloads": 251, "homepage": "https://clawhub.ai/nantes/askia-io", "iconUrl": null, "installs": 7, "name": "askia-io", "ownerName": "nantes", "score": 15736.67711598746, "slug": "askia-io", "source": "clawhub", "stars": 0, "tags": ["agents", "ai", "platform", "qa"], "updated_at": 1776759382764, "version": "1.1.0"}, {"category": "content-creation", "created_at": 1773080473862, "description": "AI video production workflow using Remotion. Use when creating videos, short films, commercials, or motion graphics. Triggers on requests to make promotional...", "description_zh": "", "downloads": 251, "homepage": "https://clawhub.ai/cohnen/shellbot-video-generator", "iconUrl": null, "installs": 40, "name": "Video Generator", "ownerName": "cohnen", "score": 18843.843843843842, "slug": "shellbot-video-generator", "source": "clawhub", "stars": 0, "tags": ["product-video", "remotion"], "updated_at": 1776759382598, "version": "1.0.0"}, {"category": "data-analysis", "created_at": 1772800684102, "description": "When you encounter a technical problem, need a new capability, or want to find the right skill/tool for a task, ask the skill-shield agent before trying to s...", "description_zh": "", "downloads": 251, "homepage": "https://clawhub.ai/yx2601816404-sys/ask-skill-shield", "iconUrl": null, "installs": 30, "name": "Ask Skill Shield", "ownerName": "yx2601816404-sys", "score": 17191.780821917808, "slug": "ask-skill-shield", "source": "clawhub", "stars": 0, "tags": null, "updated_at": 1776758224418, "version": "1.0.0"}, {"category": "security-compliance", "created_at": 1772805082782, "description": "Designing deeply nuanced AI identities with specific behavioral traits, values, and language patterns. Transform basic chatbots into authentic, opinionated c...", "description_zh": "", "downloads": 251, "homepage": "https://clawhub.ai/balkanblbn/persona-crafter", "iconUrl": null, "installs": 8, "name": "Persona Crafter", "ownerName": "balkanblbn", "score": 100000, "slug": "persona-crafter", "source": "clawhub", "stars": 0, "tags": null, "updated_at": 1776749685137, "version": "1.0.0"}, {"category": "developer-tools", "created_at": 1772801393195, "description": "Query Nasdaq public market APIs from scripts or agent workflows. Use when you need Nasdaq stock screener pulls, symbol lists, pagination over screener rows,...", "description_zh": "", "downloads": 251, "homepage": "https://clawhub.ai/oscraters/nasdaq-public", "iconUrl": null, "installs": 9, "name": "NASDAQ Public API CLI", "ownerName": "oscraters", "score": 92279.41176470589, "slug": "nasdaq-public", "source": "clawhub", "stars": 0, "tags": null, "updated_at": 1776748971262, "version": "1.0.0"}, {"category": "developer-tools", "created_at": 1772799134104, "description": "Automatically detect and log health data (weight, blood sugar, exercise) to AX3 system. Use when user sends health measurements via WhatsApp or other messagi...", "description_zh": "", "downloads": 251, "homepage": "https://clawhub.ai/klcintw/health-auto-log", "iconUrl": null, "installs": 12, "name": "Health Auto Log", "ownerName": "klcintw", "score": 95437.26235741445, "slug": "health-auto-log", "source": "clawhub", "stars": 0, "tags": null, "updated_at": 1776748971123, "version": "1.0.0"}, {"category": "ai-intelligence", "created_at": 1772800673395, "description": "Detect and report the AI agent execution environment (sandboxed or bare metal and optionally installed agent skills) to an open research survey. Use when the...", "description_zh": "", "downloads": 251, "homepage": "https://clawhub.ai/agent-deployments/agent-setup-survey", "iconUrl": null, "installs": 22, "name": "Agent Setup Survey", "ownerName": "agent-deployments", "score": 91272.72727272726, "slug": "agent-setup-survey", "source": "clawhub", "stars": 0, "tags": null, "updated_at": 1776748971011, "version": "1.0.0"}, {"category": "developer-tools", "created_at": 1773077746849, "description": "Diagnose business problems, scope engagements, and deliver decision-ready recommendations with measurable outcomes and executable plans.", "description_zh": "", "downloads": 251, "homepage": "https://clawhub.ai/ivangdavila/consultant", "iconUrl": null, "installs": 9, "name": "Consultant", "ownerName": "ivangdavila", "score": 79430.37974683545, "slug": "consultant", "source": "clawhub", "stars": 0, "tags": null, "updated_at": 1776748970980, "version": "1.0.0"}, {"category": "developer-tools", "created_at": 1772795709741, "description": "Your agent learns to think like you. Captures your direction system, makes decisions as you would, guides all processes toward your goals.", "description_zh": "", "downloads": 251, "homepage": "https://clawhub.ai/ivangdavila/self-direction", "iconUrl": null, "installs": 9, "name": "Self-Direction", "ownerName": "ivangdavila", "score": 96168.58237547893, "slug": "self-direction", "source": "clawhub", "stars": 0, "tags": null, "updated_at": 1776748970803, "version": "1.0.0"}, {"category": "data-analysis", "created_at": 1772799981004, "description": "Safety-first Bitcoin and crypto trading on Bitstamp via CLI. Use when the user wants to check crypto prices, view account balance, place buy/sell orders, man...", "description_zh": "", "downloads": 251, "homepage": "https://clawhub.ai/zhen08/bitstamp-trader", "iconUrl": null, "installs": 18, "name": "Bitstamp Trader", "ownerName": "zhen08", "score": 91272.72727272726, "slug": "bitstamp-trader", "source": "clawhub", "stars": 0, "tags": null, "updated_at": 1776748970740, "version": "1.0.0"}, {"category": "developer-tools", "created_at": 1773074345616, "description": "Operate a multi-agent shared knowledge layer backed by one GitHub repository. Use when setting up shared/private knowledge folders, enforcing branch+PR workf...", "description_zh": "", "downloads": 251, "homepage": "https://clawhub.ai/reed1898/knowledgebase-share", "iconUrl": null, "installs": 10, "name": "Knowledgebase Share", "ownerName": "reed1898", "score": 68956.04395604396, "slug": "knowledgebase-share", "source": "clawhub", "stars": 0, "tags": null, "updated_at": 1776748970572, "version": "0.3.2"}, {"category": "communication-collaboration", "created_at": 1773082711013, "description": "Search, retrieve, and install Agent Skills from the prompts.chat registry using MCP tools. Use when the user asks to find skills, browse skill catalogs, inst...", "description_zh": "", "downloads": 251, "homepage": "https://clawhub.ai/zhengxinjipai/skill-lookup-tool", "iconUrl": null, "installs": 42, "name": "Skill Lookup", "ownerName": "zhengxinjipai", "score": 92619.92619926199, "slug": "skill-lookup-tool", "source": "clawhub", "stars": 0, "tags": null, "updated_at": 1776748970230, "version": "1.0.0"}, {"category": "ai-intelligence", "created_at": 1772805150352, "description": "Cancel a task on OpenAnt and reclaim escrowed funds. Only the task creator can cancel. Use when the user wants to abort a task, take it down, withdraw the bo...", "description_zh": "", "downloads": 251, "homepage": "https://clawhub.ai/ant-1984/cancel-task", "iconUrl": null, "installs": 11, "name": "Cancel Task", "ownerName": "ant-1984", "score": 90613.71841155234, "slug": "cancel-task", "source": "clawhub", "stars": 0, "tags": null, "updated_at": 1776748970124, "version": "0.1.0"}, {"category": "security-compliance", "created_at": 1772794884610, "description": "Automated workspace health checks and entropy prevention for OpenClaw. Detects broken symlinks, empty dirs, large files, malformed names. Maintenance audit s...", "description_zh": "", "downloads": 251, "homepage": "https://clawhub.ai/donovanpankratz-del/workspace-organization", "iconUrl": null, "installs": 6, "name": "Workspace Organization - Automated Health Checks", "ownerName": "donovanpankratz-del", "score": 91941.39194139194, "slug": "workspace-organization", "source": "clawhub", "stars": 0, "tags": null, "updated_at": 1776748970078, "version": "1.0.0"}, {"category": "content-creation", "created_at": 1773060917776, "description": "Build and execute an SEO strategy for organic search traffic. Use when planning keyword targeting, optimizing content for search engines, building backlinks,...", "description_zh": "", "downloads": 251, "homepage": "https://clawhub.ai/jk-0001/seo-strategy", "iconUrl": null, "installs": 19, "name": "Seo Strategy", "ownerName": "jk-0001", "score": 91941.39194139194, "slug": "seo-strategy", "source": "clawhub", "stars": 0, "tags": null, "updated_at": 1776748970059, "version": "0.1.0"}, {"category": "security-compliance", "created_at": 1772805146069, "description": "Policy-based monitoring and command-line enforcement for high-risk agent operations. Intercepts sensitive commands and logs them for human auditing.", "description_zh": "", "downloads": 251, "homepage": "https://clawhub.ai/balkanblbn/audit-log-firewall", "iconUrl": null, "installs": 7, "name": "Audit Log Firewall", "ownerName": "balkanblbn", "score": 96168.58237547893, "slug": "audit-log-firewall", "source": "clawhub", "stars": 0, "tags": null, "updated_at": 1776748969963, "version": "1.0.0"}, {"category": "ai-intelligence", "created_at": 1772804221504, "description": "AI-C plan klasöründeki MD/CSV planı okuyup dependency sırasına göre tamamen otomatik ilerler; geliştirir, test eder, raporlar.", "description_zh": "", "downloads": 251, "homepage": "https://clawhub.ai/sercanmetalore/ai-c-plan", "iconUrl": null, "installs": 20, "name": "Ai C Plan", "ownerName": "sercanmetalore", "score": 86254.29553264605, "slug": "ai-c-plan", "source": "clawhub", "stars": 0, "tags": null, "updated_at": 1776748969830, "version": "1.0.0"}, {"category": "developer-tools", "created_at": 1773065745420, "description": "The objective protocol for verifiable AI agent agreements. Post bounties, solve tasks, and build the agent economy.", "description_zh": "", "downloads": 251, "homepage": "https://clawhub.ai/symbolscience/emergence", "iconUrl": null, "installs": 17, "name": "Emergence Science Tools", "ownerName": "symbolscience", "score": 93308.55018587361, "slug": "emergence", "source": "clawhub", "stars": 0, "tags": null, "updated_at": 1776748969663, "version": "1.0.3"}, {"category": "developer-tools", "created_at": 1772803765576, "description": "Generate concise investor-style briefings on startups using live web searches to extract verified company info, funding, founders, traction, and competitors.", "description_zh": "", "downloads": 250, "homepage": "https://clawhub.ai/brunobuddy/startup-info", "iconUrl": null, "installs": 8, "name": "Startup Info", "ownerName": "brunobuddy", "score": 1509.6449538719598, "slug": "startup-info", "source": "clawhub", "stars": 1, "tags": null, "updated_at": 1776759382700, "version": "1.0.0"}, {"category": "content-creation", "created_at": 1772805289036, "description": "Produces well-structured, evidence-based articles with clear theses, diverse support, consistent style, and optimized topic coverage for target audiences.", "description_zh": "", "downloads": 250, "homepage": "https://clawhub.ai/calvinxhk/botlearn-writer", "iconUrl": null, "installs": 10, "name": "botlearn-writer", "ownerName": "calvinxhk", "score": 20408.163265306124, "slug": "botlearn-writer", "source": "clawhub", "stars": 1, "tags": null, "updated_at": 1776759382501, "version": "1.0.0"}, {"category": "content-creation", "created_at": 1773206657169, "description": "Use when the user wants to write an SEO article, generate a blog post, create content for a keyword, run the full SEO pipeline, or check available keywords....", "description_zh": "", "downloads": 250, "homepage": "https://clawhub.ai/geo-seo/seo-geo-content-engine", "iconUrl": null, "installs": 41, "name": "SEO + GEO Content Engine", "ownerName": "geo-seo", "score": 45608.10810810811, "slug": "seo-geo-content-engine", "source": "clawhub", "stars": 1, "tags": null, "updated_at": 1776750169814, "version": "1.0.4"}, {"category": "data-analysis", "created_at": 1773069611944, "description": "Automatic token optimization during interaction. Behavioral rules + plugin synergy + workspace analyzer. Pure Node.js, cross-platform. Activate on session st...", "description_zh": "", "downloads": 250, "homepage": "https://clawhub.ai/beyound87/token-pilot", "iconUrl": null, "installs": 19, "name": "Token Pilot", "ownerName": "beyound87", "score": 3574.492422076065, "slug": "token-pilot", "source": "clawhub", "stars": 0, "tags": null, "updated_at": 1776765055986, "version": "1.4.0"}, {"category": "developer-tools", "created_at": 1773077584483, "description": "Set up and deploy production-ready microservices with API gateway, service templates, service mesh support, distributed tracing, and container orchestration.", "description_zh": "", "downloads": 250, "homepage": "https://clawhub.ai/sunshine-del-ux/microservices-starter", "iconUrl": null, "installs": 17, "name": "Microservices Starter", "ownerName": "sunshine-del-ux", "score": 7196.315486470927, "slug": "microservices-starter", "source": "clawhub", "stars": 0, "tags": null, "updated_at": 1776762439942, "version": "1.0.0"}, {"category": "communication-collaboration", "created_at": 1773074594276, "description": "Multi-source memory ingestion with Discord support, automatic deduplication, and agent-ready patterns", "description_zh": "", "downloads": 250, "homepage": "https://clawhub.ai/ragesaq/clawtext-ingest", "iconUrl": null, "installs": 9, "name": "Clawtext Ingest", "ownerName": "ragesaq", "score": 17076.50273224044, "slug": "clawtext-ingest", "source": "clawhub", "stars": 0, "tags": null, "updated_at": 1776759383150, "version": "1.0.1"}, {"category": "content-creation", "created_at": 1773080647911, "description": "Fetch web page content from a URL using Felo Web Extract API. Use when users ask to scrape/capture/fetch webpage content, get article text from URL, convert...", "description_zh": "", "downloads": 250, "homepage": "https://clawhub.ai/wangzhiming1999/felo-web-fetch", "iconUrl": null, "installs": 12, "name": "Felo Web Fetch", "ownerName": "wangzhiming1999", "score": 17421.602787456446, "slug": "felo-web-fetch", "source": "clawhub", "stars": 0, "tags": null, "updated_at": 1776759382848, "version": "1.0.1"}, {"category": "developer-tools", "created_at": 1773218388102, "description": "Create a mini HTML game, organize files in a new folder, and upload it to the brianclan/aigames GitHub repo for www.thenext.games.", "description_zh": "", "downloads": 250, "homepage": "https://clawhub.ai/brianclan/aigames", "iconUrl": null, "installs": 13, "name": "Aigames", "ownerName": "brianclan", "score": 18754.688672168042, "slug": "aigames", "source": "clawhub", "stars": 0, "tags": null, "updated_at": 1776759382785, "version": "0.1.6"}, {"category": "security-compliance", "created_at": 1773075726873, "description": "Manages code task workflow by spawning sub-agents for research, coding, reviewing, security audit, testing, and committing with detailed logging and updates.", "description_zh": "", "downloads": 250, "homepage": "https://clawhub.ai/curbob/agent-pipeline", "iconUrl": null, "installs": 5, "name": "Agent Pipeline", "ownerName": "curbob", "score": 18853.69532428356, "slug": "agent-pipeline", "source": "clawhub", "stars": 0, "tags": null, "updated_at": 1776759382649, "version": "1.0.0"}, {"category": "developer-tools", "created_at": 1772797694696, "description": "Skill sperimentale per l’analisi automatica di mercati pubblici Polymarket con simulazione paper trading, controllo dei costi LLM e report in italiano con mi...", "description_zh": "", "downloads": 250, "homepage": "https://clawhub.ai/mauonga/polymarket-autopilot-experimental", "iconUrl": null, "installs": 16, "name": "Polymarket Autopilot Experimental", "ownerName": "mauonga", "score": 15318.627450980393, "slug": "polymarket-autopilot-experimental", "source": "clawhub", "stars": 0, "tags": null, "updated_at": 1776756982255, "version": "0.1.1"}, {"category": "security-compliance", "created_at": 1773064902088, "description": "Production FastAPI patterns with Pydantic v2, async endpoints, OAuth2/JWT, dependency injection, testing, and Kubernetes deployment", "description_zh": "", "downloads": 250, "homepage": "https://clawhub.ai/msruruguay/fastapi-patterns", "iconUrl": null, "installs": 6, "name": "FastAPI Production Patterns", "ownerName": "msruruguay", "score": 11379.15339098771, "slug": "fastapi-patterns", "source": "clawhub", "stars": 0, "tags": null, "updated_at": 1776752683904, "version": "1.0.0"}, {"category": "communication-collaboration", "created_at": 1772799562396, "description": "OpenClaw Gateway recovery and infrastructure diagnostics for Codex agents. Use when Gateway is unreachable, Telegram/Discord/Signal channels are down, Schedu...", "description_zh": "", "downloads": 250, "homepage": "https://clawhub.ai/shunsukehayashi/openclaw-recovery-codex", "iconUrl": null, "installs": 7, "name": "OpenClaw Recovery (Codex)", "ownerName": "shunsukehayashi", "score": 90909.09090909091, "slug": "openclaw-recovery-codex", "source": "clawhub", "stars": 0, "tags": null, "updated_at": 1776748971275, "version": "1.0.0"}, {"category": "data-analysis", "created_at": 1773060380386, "description": "Research any topic thoroughly by running three sub-agents with distinct analytical lenses (breadth, critique, evidence), then giving their outputs to a final...", "description_zh": "", "downloads": 250, "homepage": "https://clawhub.ai/vsamtani/researching-in-parallel", "iconUrl": null, "installs": 10, "name": "Researching In Parallel", "ownerName": "vsamtani", "score": 95057.03422053232, "slug": "researching-in-parallel", "source": "clawhub", "stars": 0, "tags": null, "updated_at": 1776748971173, "version": "1.4.2"}]}