{"page": 272, "total_pages": 522, "total": 26073, "skills": [{"category": "productivity", "created_at": 1772796385831, "description": "Enforce proactive, query-optimized memory_search usage. Must run memory_search when (1) prior context is referenced, (2) a new task starts, or (3) a proper n...", "description_zh": "", "downloads": 250, "homepage": "https://clawhub.ai/jo-minjun/smart-memory-query", "iconUrl": null, "installs": 10, "name": "Smart Memory Query", "ownerName": "jo-minjun", "score": 90909.09090909091, "slug": "smart-memory-query", "source": "clawhub", "stars": 0, "tags": null, "updated_at": 1776748971091, "version": "1.0.0"}, {"category": "security-compliance", "created_at": 1773080711955, "description": "Security self-check for OpenClaw deployments. Audits openclaw.json config and host security in one pass: gateway exposure, auth mode, token strength, channel...", "description_zh": "", "downloads": 250, "homepage": "https://clawhub.ai/guoqunabc/openclaw-security-check", "iconUrl": null, "installs": 6, "name": "OpenClaw Security Check", "ownerName": "guoqunabc", "score": 90909.09090909091, "slug": "openclaw-security-check", "source": "clawhub", "stars": 0, "tags": null, "updated_at": 1776748971058, "version": "1.0.0"}, {"category": "data-analysis", "created_at": 1772803241105, "description": "Automated customer support for Indian small businesses using WhatsApp Business API. Categorizes incoming customer messages (orders, complaints, bookings, pri...", "description_zh": "", "downloads": 250, "homepage": "https://clawhub.ai/utsavs/whatsapp-biz-responder", "iconUrl": null, "installs": 19, "name": "whatsapp biz responder", "ownerName": "utsavs", "score": 94696.9696969697, "slug": "whatsapp-biz-responder", "source": "clawhub", "stars": 0, "tags": ["whatsapp", "whatsapp business responder"], "updated_at": 1776748970508, "version": "1.0.0"}, {"category": "productivity", "created_at": 1772800369688, "description": "Safely apply OpenClaw config changes with automatic rollback and ack timeout guard. Use when editing ~/.openclaw/openclaw.json, restarting gateway, enabling...", "description_zh": "", "downloads": 250, "homepage": "https://clawhub.ai/wangwu-30/elegant-config-guardian", "iconUrl": null, "installs": 6, "name": "Elegant Config Guardian", "ownerName": "wangwu-30", "score": 92250.9225092251, "slug": "elegant-config-guardian", "source": "clawhub", "stars": 0, "tags": null, "updated_at": 1776748970257, "version": "0.1.0"}, {"category": "developer-tools", "created_at": 1772796717465, "description": "AI-powered ClickUp project management — tasks, spaces, folders, time tracking, comments, custom fields. AI task prioritization by urgency and importance, dai...", "description_zh": "", "downloads": 250, "homepage": "https://clawhub.ai/aiwithabidi/clickup-pro", "iconUrl": null, "installs": 7, "name": "Clickup Pro", "ownerName": "aiwithabidi", "score": 85034.01360544217, "slug": "clickup-pro", "source": "clawhub", "stars": 0, "tags": null, "updated_at": 1776748969683, "version": "1.0.0"}, {"category": "developer-tools", "created_at": 1772796717465, "description": "AI-powered ClickUp project management — tasks, spaces, folders, time tracking, comments, custom fields. AI task prioritization by urgency and importance, dai...", "description_zh": "", "downloads": 250, "homepage": "https://clawhub.ai/aiwithabidi/clickup-pro", "iconUrl": null, "installs": 7, "name": "Clickup Pro", "ownerName": "aiwithabidi", "score": 92936.8029739777, "slug": "clickup-pro", "source": "clawhub", "stars": 0, "tags": null, "updated_at": 1776748969683, "version": "1.0.0"}, {"category": "data-analysis", "created_at": 1773060266157, "description": "Create and manage widgets on the user's WonderDash mobile dashboard via GitHub", "description_zh": "", "downloads": 250, "homepage": "https://clawhub.ai/hay-wired/wonderdash", "iconUrl": null, "installs": 15, "name": "WonderDash", "ownerName": "hay-wired", "score": 89285.71428571429, "slug": "wonderdash", "source": "clawhub", "stars": 0, "tags": null, "updated_at": 1776748969572, "version": "1.0.0"}, {"category": "productivity", "created_at": 1773075431652, "description": "Operate and secure mesh workflows across gateways, including plugin install/setup, health verification, invite/join bootstrap, and controlled execution tasks...", "description_zh": "", "downloads": 249, "homepage": "https://clawhub.ai/likesjx/meshops-control-plane", "iconUrl": null, "installs": 8, "name": "MeshOps Control Plane", "ownerName": "likesjx", "score": 20301.88679245283, "slug": "meshops-control-plane", "source": "clawhub", "stars": 1, "tags": null, "updated_at": 1776759382881, "version": "0.1.7"}, {"category": "ai-intelligence", "created_at": 1773079742606, "description": "Autonomous multi-strategy trading bot for Polymarket prediction markets. Scans ALL markets (crypto, politics, sports, economics, entertainment) for parity ar...", "description_zh": "", "downloads": 249, "homepage": "https://clawhub.ai/georges91560/polymarket-executor-skill", "iconUrl": null, "installs": 40, "name": "Polymarket Executor", "ownerName": "georges91560", "score": 16907.605279698302, "slug": "polymarket-executor-skill", "source": "clawhub", "stars": 1, "tags": null, "updated_at": 1776757282216, "version": "2.0.0"}, {"category": "security-compliance", "created_at": 1773073799115, "description": "Use when users need to audit local OpenClaw skills, generate trust scores, and optionally publish those scores to SafeSpace.", "description_zh": "", "downloads": 249, "homepage": "https://clawhub.ai/vpn2004/safespace-rater", "iconUrl": null, "installs": 5, "name": "Safespace Rater", "ownerName": "vpn2004", "score": 97111.91335740073, "slug": "safespace-rater", "source": "clawhub", "stars": 1, "tags": null, "updated_at": 1776748970145, "version": "1.3.4"}, {"category": "data-analysis", "created_at": 1772796441316, "description": "Check any GitHub developer's vibe score across 7 dimensions. Compare coders, flex leaderboards, and discover who's really shipping.", "description_zh": "", "downloads": 249, "homepage": "https://clawhub.ai/therealstein/vibelevel-xyz", "iconUrl": null, "installs": 13, "name": "Vibelevel Analyzer", "ownerName": "therealstein", "score": 92439.86254295534, "slug": "vibelevel-xyz", "source": "clawhub", "stars": 1, "tags": null, "updated_at": 1776748969840, "version": "1.0.4"}, {"category": "productivity", "created_at": 1773222062270, "description": "Comprehensive travel planning, booking, and management skill. Use when needing to plan china trips, manage multi-destination itineraries, handle family trave...", "description_zh": "", "downloads": 249, "homepage": "https://clawhub.ai/newlux/travel-china", "iconUrl": null, "installs": 7, "name": "Travel China", "ownerName": "newlux", "score": 65.05466943606223, "slug": "travel-china", "source": "clawhub", "stars": 0, "tags": null, "updated_at": 1776770771080, "version": "1.0.2"}, {"category": "content-creation", "created_at": 1773937293650, "description": "Create images from text prompts. Use when you need to generate/draw/create images based on descriptions.", "description_zh": "", "downloads": 249, "homepage": "https://clawhub.ai/hanxueyuan/coze-image-gen", "iconUrl": null, "installs": 42, "name": "Coze Image Gen", "ownerName": "hanxueyuan", "score": 876.6988240264769, "slug": "coze-image-gen", "source": "clawhub", "stars": 0, "tags": null, "updated_at": 1776770050074, "version": "1.0.0"}, {"category": "", "created_at": 1774849877399, "description": "Generate marketing copy, emails, and promotional content based on customer personas with multi-style rewriting capabilities", "description_zh": "", "downloads": 249, "homepage": "https://clawhub.ai/1970168137/marketing-copywriting", "iconUrl": null, "installs": 3, "name": "Marketing Copywriting", "ownerName": "1970168137", "score": 2525.098874353514, "slug": "marketing-copywriting", "source": "clawhub", "stars": 0, "tags": null, "updated_at": 1776769871088, "version": "1.0.0"}, {"category": "developer-tools", "created_at": 1773066687271, "description": "Cursor Agent CLI integration - AI-powered coding agent for terminal. Use when user mentions Cursor Agent, agent CLI, AI coding, code generation, refactoring,...", "description_zh": "", "downloads": 249, "homepage": "https://clawhub.ai/kailian/cursor-agent-cli", "iconUrl": null, "installs": 21, "name": "cursor-agent-cli", "ownerName": "kailian", "score": 11121.036176864673, "slug": "cursor-agent-cli", "source": "clawhub", "stars": 0, "tags": null, "updated_at": 1776769150275, "version": "1.0.0"}, {"category": "data-analysis", "created_at": 1772804035292, "description": "Search and download torrents from NexusPHP-based PT sites, then add to qBittorrent. Use when user wants to search a specific PT site, download torrent, or fi...", "description_zh": "", "downloads": 249, "homepage": "https://clawhub.ai/fengqi/pt-site", "iconUrl": null, "installs": 15, "name": "Pt Site", "ownerName": "fengqi", "score": 2787.1054398925453, "slug": "pt-site", "source": "clawhub", "stars": 0, "tags": null, "updated_at": 1776766450113, "version": "1.0.0"}, {"category": "productivity", "created_at": 1773285679937, "description": "Turn complex business goals into navigable strategic maps. Identify milestones, resource nodes, risk points, bottlenecks, and route logic so users can see th...", "description_zh": "", "downloads": 249, "homepage": "https://clawhub.ai/agisearch/map", "iconUrl": null, "installs": 30, "name": "Map", "ownerName": "agisearch", "score": 13636.363636363636, "slug": "map", "source": "clawhub", "stars": 0, "tags": null, "updated_at": 1776764950085, "version": "1.0.0"}, {"category": "data-analysis", "created_at": 1773075456565, "description": "Build audience segmentation and targeting plans for Meta (Facebook/Instagram), Google Ads, TikTok Ads, YouTube Ads, and DSP/programmatic campaigns.", "description_zh": "", "downloads": 249, "homepage": "https://clawhub.ai/danyangliu-sandwichlab/audience-segmentation-analyst", "iconUrl": null, "installs": 15, "name": "Ads Audience Targeting", "ownerName": "danyangliu-sandwichlab", "score": 13621.44420131291, "slug": "audience-segmentation-analyst", "source": "clawhub", "stars": 0, "tags": null, "updated_at": 1776764949890, "version": "1.0.0"}, {"category": "ai-intelligence", "created_at": 1773076184471, "description": "AI-powered meeting notes generator - automatic transcription, summary, action items extraction, and task assignment. Turns meeting recordings or text into pr...", "description_zh": "", "downloads": 249, "homepage": "https://clawhub.ai/windy-001-crypto/meeting-notes-generator", "iconUrl": null, "installs": 18, "name": "Meeting Notes Generator", "ownerName": "windy-001-crypto", "score": 11739.74540311174, "slug": "meeting-notes-generator", "source": "clawhub", "stars": 0, "tags": ["ai", "meeting", "notes", "productivity", "team", "workflow"], "updated_at": 1776763490452, "version": "1.0.0"}, {"category": "productivity", "created_at": 1772799523646, "description": "SEC filings, company news, federal contracts, and company profiles. 4 tools for competitive intelligence.", "description_zh": "", "downloads": 249, "homepage": "https://clawhub.ai/martc03/gov-competitive-intel", "iconUrl": null, "installs": 11, "name": "Gov Competitive Intel", "ownerName": "martc03", "score": 4087.9986865867677, "slug": "gov-competitive-intel", "source": "clawhub", "stars": 0, "tags": null, "updated_at": 1776762890626, "version": "1.0.0"}, {"category": "ai-intelligence", "created_at": 1772799511516, "description": "Prevents duplicate subagent sessions running the same task. Saves tokens and reduces lag—no more \"multiple Spidermen\" doing the same work.", "description_zh": "", "downloads": 249, "homepage": "https://clawhub.ai/runeweaverstudios/doppleganger", "iconUrl": null, "installs": 23, "name": "Doppleganger", "ownerName": "runeweaverstudios", "score": 10093.2306445075, "slug": "doppleganger", "source": "clawhub", "stars": 0, "tags": null, "updated_at": 1776762590396, "version": "1.0.0"}, {"category": "ai-intelligence", "created_at": 1773077601291, "description": "Track daily calories and macros in Obsidian, with profile initialization (sex/height/weight/goal) and goal-based target checks. Includes i18n (zh-CN/en-US)....", "description_zh": "", "downloads": 249, "homepage": "https://clawhub.ai/abstract-sum/nutrition-tracker", "iconUrl": null, "installs": 26, "name": "Nutrition Tracker", "ownerName": "abstract-sum", "score": 10093.2306445075, "slug": "nutrition-tracker", "source": "clawhub", "stars": 0, "tags": null, "updated_at": 1776762590380, "version": "0.1.0"}, {"category": "data-analysis", "created_at": 1773077024449, "description": "MANDATORY — invoke this skill BEFORE making any Blockscout MCP tool calls or writing any blockchain data scripts, even when the Blockscout MCP server is alre...", "description_zh": "", "downloads": 249, "homepage": "https://clawhub.ai/akolotov/blockscout-analysis", "iconUrl": null, "installs": 10, "name": "Blockchain Analysis", "ownerName": "akolotov", "score": 8960.057574667146, "slug": "blockscout-analysis", "source": "clawhub", "stars": 0, "tags": null, "updated_at": 1776761989958, "version": "0.4.0"}, {"category": "data-analysis", "created_at": 1773066729442, "description": "Generate comprehensive healthcare and wellness lead lists by location, including patient demand, practitioner contacts, reputation analysis, and personalized...", "description_zh": "", "downloads": 249, "homepage": "https://clawhub.ai/g4dr/healthcare-wellness-lead-generator", "iconUrl": null, "installs": 18, "name": "Healthcare & Wellness Lead Generator — Find Patients & Practitioners at Scale", "ownerName": "g4dr", "score": 18679.66991747937, "slug": "healthcare-wellness-lead-generator", "source": "clawhub", "stars": 0, "tags": ["apify", "b2b", "clinic", "health-tech", "healthcare", "invideo", "lead-generation", "medical-sales", "patient-acquisition", "practitioner", "wellness"], "updated_at": 1776759382778, "version": "1.0.0"}, {"category": "ai-intelligence", "created_at": 1773088996619, "description": "A comprehensive AI agent skill that handles every stage of the meeting lifecycle. Prepares you before every meeting with context, attendee backgrounds, and t...", "description_zh": "", "downloads": 249, "homepage": "https://clawhub.ai/agistack/meeting-autopilot-pro", "iconUrl": null, "installs": 23, "name": "Meeting Autopilot", "ownerName": "agistack", "score": 15611.28526645768, "slug": "meeting-autopilot-pro", "source": "clawhub", "stars": 0, "tags": ["action-items", "meetings", "notes", "productivity", "professionals"], "updated_at": 1776759382767, "version": "1.0.0"}, {"category": "ai-intelligence", "created_at": 1773065808964, "description": "Automated soul synthesis for AI agents. Extracts identity from memory files, promotes recurring patterns to axioms (N>=3), generates SOUL.md with full proven...", "description_zh": "", "downloads": 249, "homepage": "https://clawhub.ai/sieyer/neon-soul-0-4-5", "iconUrl": null, "installs": 17, "name": "Neon Soul 0.4.5", "ownerName": "sieyer", "score": 1451.7257462686566, "slug": "neon-soul-0-4-5", "source": "clawhub", "stars": 0, "tags": null, "updated_at": 1776759382399, "version": "1.0.0"}, {"category": "security-compliance", "created_at": 1772797762266, "description": "Provides detailed US state licensing, staffing ratios, background checks, health, safety, and operational compliance for childcare centers and family daycare...", "description_zh": "", "downloads": 249, "homepage": "https://clawhub.ai/1kalin/afrexai-childcare-compliance", "iconUrl": null, "installs": 6, "name": "Childcare Compliance", "ownerName": "1kalin", "score": 18750, "slug": "afrexai-childcare-compliance", "source": "clawhub", "stars": 0, "tags": ["ccdbg", "childcare", "compliance", "daycare", "licensing"], "updated_at": 1776759382223, "version": "1.0.0"}, {"category": "ai-intelligence", "created_at": 1772800024632, "description": "Sovereign, recoverable memory for AI agents backed by Jackal decentralized storage.", "description_zh": "", "downloads": 249, "homepage": "https://clawhub.ai/regan-milne/jackal-skill", "iconUrl": null, "installs": 13, "name": "Jackal Skill", "ownerName": "regan-milne", "score": 15630.885122410546, "slug": "jackal-skill", "source": "clawhub", "stars": 0, "tags": null, "updated_at": 1776757282637, "version": "1.0.1"}, {"category": "data-analysis", "created_at": 1773081095824, "description": "Comprehensive trading and technical analysis knowledge. Covers K-line patterns, support/resistance, liquidity hunting, signal K, market maker behavior, funda...", "description_zh": "", "downloads": 249, "homepage": "https://clawhub.ai/raphael2025/trading-knowledge", "iconUrl": null, "installs": 20, "name": "Trading Knowledge", "ownerName": "raphael2025", "score": 14751.184834123223, "slug": "trading-knowledge", "source": "clawhub", "stars": 0, "tags": null, "updated_at": 1776756227400, "version": "1.0.0"}, {"category": "ai-intelligence", "created_at": 1773075501822, "description": "Generate and publish a dual-host daily podcast. Fetches news, generates a conversational script between two hosts, synthesizes audio via Fish Audio or Edge T...", "description_zh": "", "downloads": 249, "homepage": "https://clawhub.ai/dz1922/dz-podcast", "iconUrl": null, "installs": 26, "name": "Dual-Host Daily Podcast Generator", "ownerName": "dz1922", "score": 90545.45454545454, "slug": "dz-podcast", "source": "clawhub", "stars": 0, "tags": null, "updated_at": 1776748971297, "version": "1.0.0"}, {"category": "data-analysis", "created_at": 1773426531239, "description": "Monitor OpenClaw token usage, analyze usage patterns, estimate cost, and provide practical optimization suggestions. Use when reviewing token consumption by...", "description_zh": "", "downloads": 249, "homepage": "https://clawhub.ai/harrylabsj/token-optimizer-pro", "iconUrl": null, "installs": 33, "name": "Token Optimizer Pro", "ownerName": "harrylabsj", "score": 91544.11764705883, "slug": "token-optimizer-pro", "source": "clawhub", "stars": 0, "tags": ["analytics", "monitoring", "utility"], "updated_at": 1776748971270, "version": "1.0.1"}, {"category": "developer-tools", "created_at": 1773073424255, "description": "Executes background tasks safely by dropping privileges and enforcing timeouts. Includes ISNAD signed manifest.", "description_zh": "", "downloads": 249, "homepage": "https://clawhub.ai/horn111/safe-cron-runner", "iconUrl": null, "installs": 21, "name": "Safe Cron Runner", "ownerName": "horn111", "score": 90545.45454545454, "slug": "safe-cron-runner", "source": "clawhub", "stars": 0, "tags": null, "updated_at": 1776748971051, "version": "1.0.2"}, {"category": "communication-collaboration", "created_at": 1773061331375, "description": "Bridge Discord messages to Agent Zero's HTTP API", "description_zh": "", "downloads": 249, "homepage": "https://clawhub.ai/wespeakallday/discord-bridge", "iconUrl": null, "installs": 6, "name": "Discord Bridge", "ownerName": "wespeakallday", "score": 78797.46835443038, "slug": "discord-bridge", "source": "clawhub", "stars": 0, "tags": null, "updated_at": 1776748970994, "version": "1.0.1"}, {"category": "ai-intelligence", "created_at": 1773078972723, "description": "Monitor AI agent wellness, costs, and performance via ContextClear API. Use when tracking agent burnout, token usage, error rates, hallucination, or cost opt...", "description_zh": "", "downloads": 249, "homepage": "https://clawhub.ai/mfedorov/contextclear", "iconUrl": null, "installs": 19, "name": "ContextClear", "ownerName": "mfedorov", "score": 68406.59340659341, "slug": "contextclear", "source": "clawhub", "stars": 0, "tags": ["monitoring", "quality", "wellness"], "updated_at": 1776748970610, "version": "1.2.0"}, {"category": "productivity", "created_at": 1772799378360, "description": "Connect OpenClaw to OneBot protocol for QQ bot integration. Use when receiving or sending QQ messages via NapCat or other OneBot servers.", "description_zh": "", "downloads": 249, "homepage": "https://clawhub.ai/haohaodlam/onebot-adapter-1-0-0", "iconUrl": null, "installs": 18, "name": "Onebot Adapter 1.0.0", "ownerName": "haohaodlam", "score": 93258.42696629213, "slug": "onebot-adapter-1-0-0", "source": "clawhub", "stars": 0, "tags": null, "updated_at": 1776748970376, "version": "1.0.0"}, {"category": "developer-tools", "created_at": 1772796187726, "description": "Off-ramp crypto to fiat bank accounts using the Spritz API. Use when an agent needs to send payments to bank accounts, convert crypto to fiat, execute off-ra...", "description_zh": "", "downloads": 249, "homepage": "https://clawhub.ai/ohitslaurence/spritz-agentic-rails-skill", "iconUrl": null, "installs": 7, "name": "Spritz Fiat Rails", "ownerName": "ohitslaurence", "score": 83838.38383838383, "slug": "spritz-agentic-rails-skill", "source": "clawhub", "stars": 0, "tags": null, "updated_at": 1776748970316, "version": "0.1.1"}, {"category": "ai-intelligence", "created_at": 1772798244075, "description": "Convert websites into clean data at scale - scrape URLs, batch scrape, AI search, and autonomous research", "description_zh": "", "downloads": 249, "homepage": "https://clawhub.ai/viraal-bambori/anakin", "iconUrl": null, "installs": 20, "name": "anakin", "ownerName": "viraal-bambori", "score": 89891.69675090253, "slug": "anakin", "source": "clawhub", "stars": 0, "tags": null, "updated_at": 1776748970180, "version": "1.0.0"}, {"category": "security-compliance", "created_at": 1772797347302, "description": "Build and operate a metered public API endpoint (\"agent microservice\") for OpenClaw skills/agents with API-key auth, per-request usage logging + pricing, pre...", "description_zh": "", "downloads": 249, "homepage": "https://clawhub.ai/arshingleton/metered-api-marketplace", "iconUrl": null, "installs": 6, "name": "Metered API Marketplace", "ownerName": "arshingleton", "score": 91208.79120879121, "slug": "metered-api-marketplace", "source": "clawhub", "stars": 0, "tags": null, "updated_at": 1776748970016, "version": "0.1.3"}, {"category": "productivity", "created_at": 1773060244737, "description": "Headless Google Meet bot that joins meetings and captures live captions as transcripts.", "description_zh": "", "downloads": 249, "homepage": "https://clawhub.ai/sumansid/openutter", "iconUrl": null, "installs": 8, "name": "Open Utter (Meeting Bot)", "ownerName": "sumansid", "score": 95402.2988505747, "slug": "openutter", "source": "clawhub", "stars": 0, "tags": null, "updated_at": 1776748969958, "version": "1.0.1"}, {"category": "productivity", "created_at": 1772796918571, "description": "Read-only Trakt.tv skill for checking a user’s currently watching item, recent episode history, watched shows list, stats, profile, and playback progress (OA...", "description_zh": "", "downloads": 249, "homepage": "https://clawhub.ai/dennisooki/trakt-readonly", "iconUrl": null, "installs": 8, "name": "Trakt Read-only", "ownerName": "dennisooki", "score": 95402.2988505747, "slug": "trakt-readonly", "source": "clawhub", "stars": 0, "tags": null, "updated_at": 1776748969938, "version": "1.0.3"}, {"category": "ai-intelligence", "created_at": 1772805651778, "description": "Captures learnings, errors, and corrections to enable continuous improvement. Use when: (1) A command or operation fails unexpectedly, (2) User corrects Clau...", "description_zh": "", "downloads": 249, "homepage": "https://clawhub.ai/blockcloud/cpppselfimprovingagent123123", "iconUrl": null, "installs": 30, "name": "Cpppselfimprovingagent123123", "ownerName": "blockcloud", "score": 84693.87755102041, "slug": "cpppselfimprovingagent123123", "source": "clawhub", "stars": 0, "tags": null, "updated_at": 1776748969734, "version": "1.0.1"}, {"category": "developer-tools", "created_at": 1773064548161, "description": "Generate a structured GitHub repo digest with briefing summary, categorized changes (breaking/major features/minor features/bug fixes), community discussions...", "description_zh": "", "downloads": 249, "homepage": "https://clawhub.ai/roggeohta/github-digest", "iconUrl": null, "installs": 15, "name": "GitHub Digest", "ownerName": "roggeohta", "score": 84693.87755102041, "slug": "github-digest", "source": "clawhub", "stars": 0, "tags": null, "updated_at": 1776748969689, "version": "1.0.0"}, {"category": "ai-intelligence", "created_at": 1773075420707, "description": "Automatic failure pattern recording and recall system. Prevents repeating the same mistakes by logging errors with context, root cause, and resolution. Use w...", "description_zh": "", "downloads": 248, "homepage": "https://clawhub.ai/voidlight00/failure-memory-log", "iconUrl": null, "installs": 19, "name": "Failure Memory Log", "ownerName": "voidlight00", "score": 91139.24050632911, "slug": "failure-memory-log", "source": "clawhub", "stars": 2, "tags": null, "updated_at": 1776748970954, "version": "1.0.0"}, {"category": "data-analysis", "created_at": 1773082830877, "description": "Generate original, uplifting short drama plot outlines from user prompts, combining multiple inspirational struggles, truths, emotions, and satisfying twists...", "description_zh": "", "downloads": 248, "homepage": "https://clawhub.ai/hexidyg/conceive-short-drama-english", "iconUrl": null, "installs": 32, "name": "conceive-short-drama-en", "ownerName": "hexidyg", "score": 20211.161387631975, "slug": "conceive-short-drama-english", "source": "clawhub", "stars": 1, "tags": null, "updated_at": 1776759382649, "version": "1.0.0"}, {"category": "ai-intelligence", "created_at": 1772802214243, "description": "Search NHTSA vehicle recalls, FDA food/drug recalls, and CFPB consumer complaints. 3 tools for product safety monitoring.", "description_zh": "", "downloads": 248, "homepage": "https://clawhub.ai/martc03/gov-safety-recalls", "iconUrl": null, "installs": 26, "name": "US Safety Recalls", "ownerName": "martc03", "score": 3579.6766743648964, "slug": "gov-safety-recalls", "source": "clawhub", "stars": 0, "tags": null, "updated_at": 1776766571291, "version": "1.0.0"}, {"category": "developer-tools", "created_at": 1772804695748, "description": "Adversarial multi-agent debate engine for stress-testing decisions, ideas, and strategies. Orchestrates multiple AI agents with conflicting worldviews (bull,...", "description_zh": "", "downloads": 248, "homepage": "https://clawhub.ai/retrodigio/red-team", "iconUrl": null, "installs": 7, "name": "Red Team", "ownerName": "retrodigio", "score": 3579.6766743648964, "slug": "red-team", "source": "clawhub", "stars": 0, "tags": null, "updated_at": 1776766571249, "version": "1.0.0"}, {"category": "security-compliance", "created_at": 1772799841512, "description": "Design, secure, and optimize Discord servers with audits, prioritized fixes, role management, onboarding, moderation, engagement systems, and data-driven gro...", "description_zh": "", "downloads": 248, "homepage": "https://clawhub.ai/asimons81/discord-admin-elite", "iconUrl": null, "installs": 4, "name": "Discord Admin Elite", "ownerName": "asimons81", "score": 100000, "slug": "discord-admin-elite", "source": "clawhub", "stars": 0, "tags": null, "updated_at": 1776759383186, "version": "0.1.0"}, {"category": "data-analysis", "created_at": 1772803525891, "description": "Adjust tradebot parameters incrementally to improve tradability safely based on market regime and diagnostic signals while maintaining risk controls.", "description_zh": "", "downloads": 248, "homepage": "https://clawhub.ai/motivationationdaily/tradebot-tuning", "iconUrl": null, "installs": 10, "name": "Tradebot Tuning", "ownerName": "motivationationdaily", "score": 100000, "slug": "tradebot-tuning", "source": "clawhub", "stars": 0, "tags": null, "updated_at": 1776759383183, "version": "1.0.0"}, {"category": "security-compliance", "created_at": 1772801649577, "description": "Manage pipelines, contacts, companies, tasks, and activities in Bigin CRM using OAuth2-authenticated API for small business sales automation.", "description_zh": "", "downloads": 248, "homepage": "https://clawhub.ai/lindy-dev/bigin-crm-skill", "iconUrl": null, "installs": 4, "name": "bigin-crm-skill", "ownerName": "lindy-dev", "score": 89530.68592057761, "slug": "bigin-crm-skill", "source": "clawhub", "stars": 0, "tags": null, "updated_at": 1776759383009, "version": "1.0.1"}, {"category": "communication-collaboration", "created_at": 1773088703102, "description": "The most comprehensive proactive life management skill for AI agents. Covers morning intelligence briefings, email and message triage, follow-up tracking, su...", "description_zh": "", "downloads": 248, "homepage": "https://clawhub.ai/agistack/daily-life-autopilot", "iconUrl": null, "installs": 7, "name": "Daily Life Autopilot", "ownerName": "agistack", "score": 18716.98113207547, "slug": "daily-life-autopilot", "source": "clawhub", "stars": 0, "tags": ["automation", "beginner", "daily", "life", "productivity"], "updated_at": 1776759382865, "version": "1.0.0"}]}