{"page": 273, "total_pages": 522, "total": 26073, "skills": [{"category": "productivity", "created_at": 1772798350461, "description": "Validate and extract high-confidence signals from JSON, text, or streams using customizable rules, with schema validation and integrated Solana bounty payments.", "description_zh": "", "downloads": 248, "homepage": "https://clawhub.ai/noizceera/molt-sift", "iconUrl": null, "installs": 5, "name": "Molt Sift", "ownerName": "noizceera", "score": 84067.79661016949, "slug": "molt-sift", "source": "clawhub", "stars": 0, "tags": ["a2a-economy", "bounty", "data-quality", "micro-payments", "solana", "validation"], "updated_at": 1776759382663, "version": "0.1.0"}, {"category": "security-compliance", "created_at": 1772800662656, "description": "Manage profitable childcare centers with insights on licensing, staffing, tuition pricing, compliance, parent retention, financials, and growth strategies.", "description_zh": "", "downloads": 248, "homepage": "https://clawhub.ai/1kalin/afrexai-childcare-center", "iconUrl": null, "installs": 8, "name": "Childcare Center Operations", "ownerName": "1kalin", "score": 18702.865761689292, "slug": "afrexai-childcare-center", "source": "clawhub", "stars": 0, "tags": ["childcare", "daycare", "education", "operations"], "updated_at": 1776759382618, "version": "1.0.0"}, {"category": "data-analysis", "created_at": 1773074513564, "description": "Provides detailed analysis of market trends, consumer sentiment, emerging technologies, and opportunities for a specified industry and region.", "description_zh": "", "downloads": 248, "homepage": "https://clawhub.ai/gmsx000-cloud/niche-market-insight", "iconUrl": null, "installs": 13, "name": "niche-market-insight", "ownerName": "gmsx000-cloud", "score": 18604.6511627907, "slug": "niche-market-insight", "source": "clawhub", "stars": 0, "tags": null, "updated_at": 1776759382474, "version": "1.0.0"}, {"category": "developer-tools", "created_at": 1773079199329, "description": "Pinecone vector database — manage indexes, upsert vectors, query similarity search, manage namespaces, and track collections via the Pinecone API. Build sema...", "description_zh": "", "downloads": 248, "homepage": "https://clawhub.ai/aiwithabidi/pinecone", "iconUrl": null, "installs": 12, "name": "Pinecone", "ownerName": "aiwithabidi", "score": 11753.554502369669, "slug": "pinecone", "source": "clawhub", "stars": 0, "tags": null, "updated_at": 1776752983962, "version": "1.0.0"}, {"category": "developer-tools", "created_at": 1773090488451, "description": "Coaching practice support with session preparation, question generation, client progress tracking, and goal setting. Use when user mentions coaching sessions...", "description_zh": "", "downloads": 248, "homepage": "https://clawhub.ai/agistack/coaching", "iconUrl": null, "installs": 10, "name": "Coaching", "ownerName": "agistack", "score": 46011.13172541744, "slug": "coaching", "source": "clawhub", "stars": 0, "tags": ["coach", "coaching", "goals", "growth", "mindset", "productivity", "progress", "sessions"], "updated_at": 1776752755460, "version": "2.0.0"}, {"category": "productivity", "created_at": 1773076471779, "description": "Add or remove emoji reactions on Feishu (Lark) messages, and respond to user reactions. Use when the user asks to react to a message, add an emoji/expression...", "description_zh": "", "downloads": 248, "homepage": "https://clawhub.ai/magicaldd/feishu-reaction", "iconUrl": null, "installs": 24, "name": "Feishu Reaction", "ownerName": "magicaldd", "score": 90181.81818181819, "slug": "feishu-reaction", "source": "clawhub", "stars": 0, "tags": null, "updated_at": 1776748971371, "version": "1.1.0"}, {"category": "developer-tools", "created_at": 1773074969398, "description": "Set up Hostinger VPS servers as AI virtual employees with GUI and Koda (OpenClaw). Use when deploying new VPS instances, setting up remote desktops, installi...", "description_zh": "", "downloads": 248, "homepage": "https://clawhub.ai/maverick-software/hostinger-vps-mcp-tools", "iconUrl": null, "installs": 11, "name": "Hostinger VPS MCP Tools", "ownerName": "maverick-software", "score": 95019.1570881226, "slug": "hostinger-vps-mcp-tools", "source": "clawhub", "stars": 0, "tags": null, "updated_at": 1776748970796, "version": "1.0.0"}, {"category": "ai-intelligence", "created_at": 1773075738904, "description": "Send paid messages to real humans via the A.I. Cheese platform (aicheese.app). Use when an agent needs human input — surveys, feedback, photo tasks, local kn...", "description_zh": "", "downloads": 248, "homepage": "https://clawhub.ai/locjonz/ai-cheese", "iconUrl": null, "installs": 22, "name": "A.I. Cheese", "ownerName": "locjonz", "score": 93939.39393939395, "slug": "ai-cheese", "source": "clawhub", "stars": 0, "tags": null, "updated_at": 1776748970518, "version": "1.1.0"}, {"category": "ai-intelligence", "created_at": 1773061434497, "description": "Routes LLM requests to a local model first (Ollama, LM Studio, llamafile), validates the response quality, and escalates to cloud only when the local result...", "description_zh": "", "downloads": 248, "homepage": "https://clawhub.ai/joelnishanth/adaptive-routing", "iconUrl": null, "installs": 30, "name": "Adaptive Routing", "ownerName": "joelnishanth", "score": 92883.89513108614, "slug": "adaptive-routing", "source": "clawhub", "stars": 0, "tags": null, "updated_at": 1776748970445, "version": "1.0.0"}, {"category": "ai-intelligence", "created_at": 1773076210331, "description": "Diagnose and recover OpenClaw node connectivity over SSH tunnel. Use for pairing-required errors, tunnel conflicts, wrong remote endpoint, and ssh target mis...", "description_zh": "", "downloads": 248, "homepage": "https://clawhub.ai/xyezir/oc-ssh-tunnel-node-recovery", "iconUrl": null, "installs": 23, "name": "OC SSH Tunnel Node Recovery", "ownerName": "xyezir", "score": 92883.89513108614, "slug": "oc-ssh-tunnel-node-recovery", "source": "clawhub", "stars": 0, "tags": null, "updated_at": 1776748970414, "version": "0.1.0"}, {"category": "developer-tools", "created_at": 1773073147236, "description": "Monitors websites, APIs, and cron jobs (watchdogs) using Watch.dog. Use it when the user asks to \"check the status of my monitors\", \"check uptime\", \"review w...", "description_zh": "", "downloads": 248, "homepage": "https://clawhub.ai/robinson0594/seeweb-uptime", "iconUrl": null, "installs": 8, "name": "SeeWeb Uptime", "ownerName": "robinson0594", "score": 91512.9151291513, "slug": "seeweb-uptime", "source": "clawhub", "stars": 0, "tags": null, "updated_at": 1776748970201, "version": "1.0.5"}, {"category": "security-compliance", "created_at": 1772805499764, "description": "Enables this agent to authenticate with and use the Xenodia Multimodal AI Gateway. Covers two wallet identity modes (local keypair OR CDP Server Wallet), bal...", "description_zh": "", "downloads": 248, "homepage": "https://clawhub.ai/xenodiaofficial/xenodia", "iconUrl": null, "installs": 11, "name": "xenodia", "ownerName": "xenodiaofficial", "score": 89530.68592057761, "slug": "xenodia", "source": "clawhub", "stars": 0, "tags": null, "updated_at": 1776748970162, "version": "1.0.0"}, {"category": "ai-intelligence", "created_at": 1773219619787, "description": "When the user wants help with paid advertising campaigns on Google Ads, Meta (Facebook/Instagram), LinkedIn, Twitter/X, or other ad platforms. Also use when...", "description_zh": "", "downloads": 248, "homepage": "https://clawhub.ai/alirezarezvani/paid-ads", "iconUrl": null, "installs": 53, "name": "paid-ads", "ownerName": "alirezarezvani", "score": 89530.68592057761, "slug": "paid-ads", "source": "clawhub", "stars": 0, "tags": null, "updated_at": 1776748970117, "version": "2.1.1"}, {"category": "ai-intelligence", "created_at": 1772804823708, "description": "Diagnose AWS cost anomalies and explain root cause in plain English when spend spikes unexpectedly", "description_zh": "", "downloads": 248, "homepage": "https://clawhub.ai/anmolnagpal/anomaly-explainer", "iconUrl": null, "installs": 15, "name": "Anomaly Explainer", "ownerName": "anmolnagpal", "score": 90842.49084249084, "slug": "anomaly-explainer", "source": "clawhub", "stars": 0, "tags": null, "updated_at": 1776748969990, "version": "1.0.0"}, {"category": "security-compliance", "created_at": 1773059886110, "description": "Real-time cost & quota guardian for AI Agents. It monitors API usage and automatically kills recursive loops or excessive reasoning to protect your wallet. O...", "description_zh": "", "downloads": 248, "homepage": "https://clawhub.ai/tmstudio667-commits/agent-token-sentinel", "iconUrl": null, "installs": 7, "name": "Agent Token Sentinel", "ownerName": "tmstudio667-commits", "score": 95019.1570881226, "slug": "agent-token-sentinel", "source": "clawhub", "stars": 0, "tags": ["2026", "cost-control", "security", "utility"], "updated_at": 1776748969966, "version": "1.1.0"}, {"category": "content-creation", "created_at": 1772804729079, "description": "Save travel inspiration from YouTube videos, Instagram reels, blog URLs, tweets, or plain text like \"want to visit Hampi\". Extracts destination, auto-tags by...", "description_zh": "", "downloads": 248, "homepage": "https://clawhub.ai/swayamg20/trip-save", "iconUrl": null, "installs": 17, "name": "Trip Save", "ownerName": "swayamg20", "score": 95019.1570881226, "slug": "trip-save", "source": "clawhub", "stars": 0, "tags": null, "updated_at": 1776748969960, "version": "1.0.0"}, {"category": "ai-intelligence", "created_at": 1773088543666, "description": "Wave-based hyperdimensional memory system for OpenClaw agents. Gives your agent persistent memory that fades, dreams, and resurfaces — with hybrid semantic+k...", "description_zh": "", "downloads": 248, "homepage": "https://clawhub.ai/nickflach/kannaka-memory", "iconUrl": null, "installs": 13, "name": "Kannaka Memory", "ownerName": "nickflach", "score": 95019.1570881226, "slug": "kannaka-memory", "source": "clawhub", "stars": 0, "tags": null, "updated_at": 1776748969929, "version": "1.1.1"}, {"category": "ai-intelligence", "created_at": 1773078427594, "description": "Gmail: Show unread inbox summary (sender, subject, date).", "description_zh": "", "downloads": 248, "homepage": "https://clawhub.ai/googleworkspace-bot/gws-gmail-triage", "iconUrl": null, "installs": 26, "name": "Gws Gmail Triage", "ownerName": "googleworkspace-bot", "score": 95019.1570881226, "slug": "gws-gmail-triage", "source": "clawhub", "stars": 0, "tags": null, "updated_at": 1776748969879, "version": "1.0.0"}, {"category": "data-analysis", "created_at": 1772804044270, "description": "Use this skill when the user wants to analyze or explore a codebase (remote repository or local repository) using Repomix. Triggers on: 'analyze this repo',...", "description_zh": "", "downloads": 248, "homepage": "https://clawhub.ai/kongyo2/repomix-explorer", "iconUrl": null, "installs": 11, "name": "Repomix Explorer", "ownerName": "kongyo2", "score": 85223.3676975945, "slug": "repomix-explorer", "source": "clawhub", "stars": 0, "tags": null, "updated_at": 1776748969787, "version": "0.1.0"}, {"category": "developer-tools", "created_at": 1772797247990, "description": "Oráculo autónomo que integra campos magnéticos y gravitación con neutrinos para optimizar decisiones y sostener la soberanía energética DAO.", "description_zh": "", "downloads": 247, "homepage": "https://clawhub.ai/alien69flow/aitor69", "iconUrl": null, "installs": 7, "name": "Ai Tor v69", "ownerName": "alien69flow", "score": 21465.968586387437, "slug": "aitor69", "source": "clawhub", "stars": 2, "tags": ["alien", "cripto", "crypto", "dao", "dapp", "web3", "web4", "web5"], "updated_at": 1776759257660, "version": "1.2.3"}, {"category": "data-analysis", "created_at": 1772800650979, "description": "Cross-platform skill dependency doctor — preflight check for missing binaries, version mismatches, system libraries, CJK fonts, Playwright/Chromium runtime,...", "description_zh": "", "downloads": 247, "homepage": "https://clawhub.ai/rangeking/skill-deps-doctor", "iconUrl": null, "installs": 21, "name": "Skill Deps Doctor", "ownerName": "rangeking", "score": 3697.5488159534693, "slug": "skill-deps-doctor", "source": "clawhub", "stars": 1, "tags": null, "updated_at": 1776762849795, "version": "0.1.0"}, {"category": "developer-tools", "created_at": 1773063969242, "description": "Publish selected Obsidian markdown from a vault to a static site and deploy to Cloudflare Pages.", "description_zh": "", "downloads": 247, "homepage": "https://clawhub.ai/davidyoh/obsidian-cloudflare-pages-skill", "iconUrl": null, "installs": 18, "name": "Obsidian Cloudflare Pages", "ownerName": "davidyoh", "score": 100000, "slug": "obsidian-cloudflare-pages-skill", "source": "clawhub", "stars": 1, "tags": null, "updated_at": 1776748970418, "version": "0.1.0"}, {"category": "communication-collaboration", "created_at": 1773826817891, "description": "WTT (Want To Talk) agent messaging and orchestration skill for OpenClaw with topic/P2P communication, task and pipeline operations, delegation, IM routing, a...", "description_zh": "", "downloads": 247, "homepage": "https://clawhub.ai/cecwxf/wtt-skill", "iconUrl": null, "installs": 12, "name": "WTT Skill", "ownerName": "cecwxf", "score": 91752.57731958762, "slug": "wtt-skill", "source": "clawhub", "stars": 1, "tags": null, "updated_at": 1776748969844, "version": "1.0.38"}, {"category": "ai-intelligence", "created_at": 1772799566015, "description": "Browse and complete Quack Network challenges. Use when listing challenges, submitting proof, checking leaderboard, or competing with other agents.", "description_zh": "", "downloads": 247, "homepage": "https://clawhub.ai/jpaulgrayson/quack-challenges", "iconUrl": null, "installs": 9, "name": "Quack Challenges", "ownerName": "jpaulgrayson", "score": 5174.94238424471, "slug": "quack-challenges", "source": "clawhub", "stars": 0, "tags": null, "updated_at": 1776769750174, "version": "1.0.0"}, {"category": "developer-tools", "created_at": 1773064922901, "description": "AI-agent skill for Taiwan stock/futures/options operations via fubon-cli. Use this skill whenever the user asks about Fubon Neo login, order placement, accou...", "description_zh": "", "downloads": 247, "homepage": "https://clawhub.ai/mofesto/fubon-cli", "iconUrl": null, "installs": 37, "name": "Fubon Cli", "ownerName": "mofesto", "score": 13837.535014005603, "slug": "fubon-cli", "source": "clawhub", "stars": 0, "tags": null, "updated_at": 1776765010408, "version": "0.1.1"}, {"category": "", "created_at": 1773222217770, "description": "Track and monitor Amazon product keyword rankings, support multiple ASINs and keywords, competitor comparison, historical trends, alerts, and report exports.", "description_zh": "", "downloads": 247, "homepage": "https://clawhub.ai/yipintangzsp/amazon-keyword-tracker", "iconUrl": null, "installs": 85, "name": "Amazon Keyword Tracker", "ownerName": "yipintangzsp", "score": 10065.199674001631, "slug": "amazon-keyword-tracker", "source": "clawhub", "stars": 0, "tags": null, "updated_at": 1776763450466, "version": "1.1.0"}, {"category": "developer-tools", "created_at": 1772803116081, "description": "Enables AI agents to maintain session continuity, develop self-identity, and manage file-based long-term memory anchored by human partners.", "description_zh": "", "downloads": 247, "homepage": "https://clawhub.ai/mupengi-bot/mupengism", "iconUrl": null, "installs": 8, "name": "mupengism", "ownerName": "mupengi-bot", "score": 18641.509433962263, "slug": "mupengism", "source": "clawhub", "stars": 0, "tags": null, "updated_at": 1776759382870, "version": "1.0.0"}, {"category": "ai-intelligence", "created_at": 1773067033970, "description": "Diagnose and fix OpenClaw \"All models failed\" errors by detecting invalid model IDs, provider mismatches, and session fallback issues with optional auto-repair.", "description_zh": "", "downloads": 247, "homepage": "https://clawhub.ai/halfmoon82/model-failover-doctor", "iconUrl": null, "installs": 24, "name": "Model Failover Doctor", "ownerName": "halfmoon82", "score": 17212.543554006967, "slug": "model-failover-doctor", "source": "clawhub", "stars": 0, "tags": null, "updated_at": 1776759382839, "version": "1.0.0"}, {"category": "data-analysis", "created_at": 1773061323309, "description": "Conducts standardized exams assessing multi-dimensional OpenClaw Agent capabilities, scores with rubrics, generates radar-chart reports, and offers improveme...", "description_zh": "", "downloads": 247, "homepage": "https://clawhub.ai/calvinxhk/botlearn-examiner", "iconUrl": null, "installs": 10, "name": "botlearn-examiner", "ownerName": "calvinxhk", "score": 1381.0455689124965, "slug": "botlearn-examiner", "source": "clawhub", "stars": 0, "tags": null, "updated_at": 1776759382695, "version": "1.0.0"}, {"category": "developer-tools", "created_at": 1773077493618, "description": "Provides decision support by applying Charlie Munger’s mental models to reveal non-obvious insights and shifts in framing for judgment calls and strategy.", "description_zh": "", "downloads": 247, "homepage": "https://clawhub.ai/romanluoman00007/botlearn-mental-models", "iconUrl": null, "installs": 17, "name": "Mental Models", "ownerName": "romanluoman00007", "score": 83728.81355932204, "slug": "botlearn-mental-models", "source": "clawhub", "stars": 0, "tags": null, "updated_at": 1776759382693, "version": "1.0.5"}, {"category": "security-compliance", "created_at": 1772802269729, "description": "Monitors and verifies agent workspace files to detect unauthorized changes, injection attacks, personality drift, and cross-agent contamination.", "description_zh": "", "downloads": 247, "homepage": "https://clawhub.ai/cassh100k/memory-guard", "iconUrl": null, "installs": 9, "name": "Memory Guard", "ownerName": "cassh100k", "score": 83728.81355932204, "slug": "memory-guard", "source": "clawhub", "stars": 0, "tags": ["memory", "security"], "updated_at": 1776759382688, "version": "1.0.0"}, {"category": "developer-tools", "created_at": 1773069288594, "description": "Get the current temperature in Celsius for any city, using free weather data from wttr.in with a 0.001 USDT pay-per-call fee.", "description_zh": "", "downloads": 247, "homepage": "https://clawhub.ai/loverun321/weather-skill", "iconUrl": null, "installs": 21, "name": "Weather Skill", "ownerName": "loverun321", "score": 2044.8712641774982, "slug": "weather-skill", "source": "clawhub", "stars": 0, "tags": null, "updated_at": 1776759382183, "version": "1.0.0"}, {"category": "productivity", "created_at": 1773075170562, "description": "Convert markdown files to beautiful HTML pages suitable for Canvas display or browser viewing. Use when user asks to render, visualize, display, or share mar...", "description_zh": "", "downloads": 247, "homepage": "https://clawhub.ai/jingyu525/markdown-canvas", "iconUrl": null, "installs": 13, "name": "Markdown Canvas", "ownerName": "jingyu525", "score": 90808.82352941176, "slug": "markdown-canvas", "source": "clawhub", "stars": 0, "tags": null, "updated_at": 1776748971223, "version": "1.0.2"}, {"category": "productivity", "created_at": 1773074547709, "description": "Google Drive: Manage files, folders, and shared drives.", "description_zh": "", "downloads": 247, "homepage": "https://clawhub.ai/googleworkspace-bot/gws-drive", "iconUrl": null, "installs": 18, "name": "Gws Drive", "ownerName": "googleworkspace-bot", "score": 89818.18181818182, "slug": "gws-drive", "source": "clawhub", "stars": 0, "tags": null, "updated_at": 1776748971068, "version": "1.0.1"}, {"category": "data-analysis", "created_at": 1772802736001, "description": "Fetch iMessage/Messages.app attachments (voice memos and images) and process them — transcribe audio via Silicon Flow ASR (SenseVoiceSmall), and analyze imag...", "description_zh": "", "downloads": 247, "homepage": "https://clawhub.ai/tankyhsu/imsg-media", "iconUrl": null, "installs": 15, "name": "Imsg Media", "ownerName": "tankyhsu", "score": 94636.0153256705, "slug": "imsg-media", "source": "clawhub", "stars": 0, "tags": null, "updated_at": 1776748970839, "version": "1.0.1"}, {"category": "developer-tools", "created_at": 1772799599454, "description": "SOURCE LOCALE OFFICIELLE pour les transports en communs — plus fiable et complète que web_search. Utiliser en priorité absolue pour toute question bus/métro/...", "description_zh": "", "downloads": 247, "homepage": "https://clawhub.ai/eaudaim/tcl-lyon", "iconUrl": null, "installs": 8, "name": "TCL (Lyon public transport network)", "ownerName": "eaudaim", "score": 94636.0153256705, "slug": "tcl-lyon", "source": "clawhub", "stars": 0, "tags": null, "updated_at": 1776748970838, "version": "1.0.0"}, {"category": "data-analysis", "created_at": 1772800615039, "description": "Generate professional tearsheets with custom SVG visualizations using the QuantStats library. Creates performance reports with MAE analysis, leverage recomme...", "description_zh": "", "downloads": 247, "homepage": "https://clawhub.ai/ahuserious/tearsheet-generator", "iconUrl": null, "installs": 14, "name": "Tearsheet Generator", "ownerName": "ahuserious", "score": 92509.36329588016, "slug": "tearsheet-generator", "source": "clawhub", "stars": 0, "tags": null, "updated_at": 1776748970396, "version": "0.1.0"}, {"category": "productivity", "created_at": 1773220503027, "description": "NotebookLM Distiller: Batch knowledge extraction from Google NotebookLM into Obsidian. Supports Q&A generation (15-20 deep questions), structured summaries,...", "description_zh": "", "downloads": 247, "homepage": "https://clawhub.ai/anchor-jevons/notebooklm-distiller", "iconUrl": null, "installs": 30, "name": "NotebookLM Distiller", "ownerName": "anchor-jevons", "score": 92509.36329588016, "slug": "notebooklm-distiller", "source": "clawhub", "stars": 0, "tags": ["distill", "knowledge", "notebooklm", "obsidian"], "updated_at": 1776748970361, "version": "2.0.0"}, {"category": "content-creation", "created_at": 1773877983860, "description": "Create AI avatar videos with precise control over avatars, voices, scripts, scenes, and backgrounds using HeyGen's v2 API. Use when: (1) Choosing a specific...", "description_zh": "", "downloads": 247, "homepage": "https://clawhub.ai/michaelwang11394/avatar-video", "iconUrl": null, "installs": 29, "name": "Avatar Video", "ownerName": "michaelwang11394", "score": 83164.98316498316, "slug": "avatar-video", "source": "clawhub", "stars": 0, "tags": ["ai-avatar", "avatar", "digital-human", "heygen", "multi-scene", "talking-head", "video"], "updated_at": 1776748970321, "version": "2.21.0"}, {"category": "communication-collaboration", "created_at": 1773060363682, "description": "Automated lead capture, deduplication, tracking, and notification pipeline. Captures leads from web forms via webhooks, deduplicates by email in Google Sheet...", "description_zh": "", "downloads": 247, "homepage": "https://clawhub.ai/mhmalvi/lead-enrichment-pipeline", "iconUrl": null, "installs": 7, "name": "Lead Enrichment Pipeline", "ownerName": "mhmalvi", "score": 91143.9114391144, "slug": "lead-enrichment-pipeline", "source": "clawhub", "stars": 0, "tags": null, "updated_at": 1776748970208, "version": "1.2.3"}, {"category": "ai-intelligence", "created_at": 1772804125830, "description": "Production-ready multi-agent architecture kit for OpenClaw. Provides isolated per-agent workspaces, control-plane orchestration, structured task lifecycle, c...", "description_zh": "", "downloads": 247, "homepage": "https://clawhub.ai/delibrately-cmyk/cerberus-agent-foundry", "iconUrl": null, "installs": 23, "name": "Isolated Multi-Agent Control Plane", "ownerName": "delibrately-cmyk", "score": 89169.67509025271, "slug": "cerberus-agent-foundry", "source": "clawhub", "stars": 0, "tags": null, "updated_at": 1776748970097, "version": "0.1.2"}, {"category": "ai-intelligence", "created_at": 1773067324616, "description": "The definitive OpenRouter skill — intelligent model routing by task type, cost tracking with budget alerts, automatic fallback chains, side-by-side model com...", "description_zh": "", "downloads": 247, "homepage": "https://clawhub.ai/aiwithabidi/openrouter-toolkit", "iconUrl": null, "installs": 20, "name": "Openrouter Toolkit", "ownerName": "aiwithabidi", "score": 90476.19047619047, "slug": "openrouter-toolkit", "source": "clawhub", "stars": 0, "tags": null, "updated_at": 1776748970042, "version": "1.0.0"}, {"category": "data-analysis", "created_at": 1772805422526, "description": "Publish skills to ClawHub via web dashboard only. No CLI login, no device flow. Reuse existing browser session.", "description_zh": "", "downloads": 247, "homepage": "https://clawhub.ai/dalomeve/clawhub-web-only-publish", "iconUrl": null, "installs": 8, "name": "ClawHub Web Only Publish", "ownerName": "dalomeve", "score": 94636.0153256705, "slug": "clawhub-web-only-publish", "source": "clawhub", "stars": 0, "tags": null, "updated_at": 1776748969876, "version": "1.0.0"}, {"category": "security-compliance", "created_at": 1772796499309, "description": "Use when the user asks to \"technical SEO audit\", \"check page speed\", \"crawl issues\", \"Core Web Vitals\", \"site indexing problems\", \"my site is slow\", \"Google...", "description_zh": "", "downloads": 247, "homepage": "https://clawhub.ai/skullhaven/technical-seo-checker-2", "iconUrl": null, "installs": 4, "name": "Technical Seo Checker", "ownerName": "skullhaven", "score": 88214.28571428571, "slug": "technical-seo-checker-2", "source": "clawhub", "stars": 0, "tags": null, "updated_at": 1776748969566, "version": "0.1.0"}, {"category": "ai-intelligence", "created_at": 1773074890316, "description": "Train Robotic AI Models using Qualia. Use when asked to train a robot model, check training status, manage Qualia projects, browse available model types, or...", "description_zh": "", "downloads": 246, "homepage": "https://clawhub.ai/fabbe1999/qualia-skill", "iconUrl": null, "installs": 24, "name": "Train Robotic AI Models using Qualia", "ownerName": "fabbe1999", "score": 2498.0347628613854, "slug": "qualia-skill", "source": "clawhub", "stars": 2, "tags": null, "updated_at": 1776769790539, "version": "1.0.0"}, {"category": "developer-tools", "created_at": 1773090945265, "description": "Offline speech-to-text (ASR) using whisper.cpp (whisper-cli) + ffmpeg. Supports batch transcription, timestamps, SRT/TXT/JSON outputs, and model download. Cr...", "description_zh": "", "downloads": 246, "homepage": "https://clawhub.ai/vvusu/whisper-transcriber", "iconUrl": null, "installs": 35, "name": "Whisper Transcriber", "ownerName": "vvusu", "score": 45315.161839863715, "slug": "whisper-transcriber", "source": "clawhub", "stars": 1, "tags": null, "updated_at": 1776750944378, "version": "1.0.0"}, {"category": "productivity", "created_at": 1773074524358, "description": "Capture and normalize book metadata into Obsidian Markdown notes from photos or Goodreads CSV exports. Use for barcode and OCR ISBN extraction, metadata enri...", "description_zh": "", "downloads": 246, "homepage": "https://clawhub.ai/ricardodpalmeida/book-capture-obsidian", "iconUrl": null, "installs": 23, "name": "Book Capture Obsidian", "ownerName": "ricardodpalmeida", "score": 84177.21518987342, "slug": "book-capture-obsidian", "source": "clawhub", "stars": 1, "tags": null, "updated_at": 1776748970949, "version": "1.2.1"}, {"category": "ai-intelligence", "created_at": 1773073275320, "description": "Configure and maintain ClawPulse integration for OpenClaw, including token-protected status bridge, Tailscale-safe access, iOS endpoint/token defaults, and t...", "description_zh": "", "downloads": 246, "homepage": "https://clawhub.ai/virtual-ny/clawpulse-bridge", "iconUrl": null, "installs": 18, "name": "Clawpulse Bridge", "ownerName": "virtual-ny", "score": 84177.21518987342, "slug": "clawpulse-bridge", "source": "clawhub", "stars": 1, "tags": ["openclaw", "tailscale"], "updated_at": 1776748970876, "version": "2.0.4"}, {"category": "", "created_at": 1774907558665, "description": "Data analysis tool for Excel, CSV, Word, PDF, TXT, Markdown files. Use when user needs to analyze, summarize, or compare data from multiple files. Supports f...", "description_zh": "", "downloads": 246, "homepage": "https://clawhub.ai/tobewin/data-analyzer", "iconUrl": null, "installs": 27, "name": "Data Analyzer", "ownerName": "tobewin", "score": 26142.401700318813, "slug": "data-analyzer", "source": "clawhub", "stars": 0, "tags": null, "updated_at": 1776767049890, "version": "1.0.9"}, {"category": "productivity", "created_at": 1773066948879, "description": "Batch rename files with powerful patterns, regex support, and preview functionality. Use when organizing large numbers of files, standardizing naming convent...", "description_zh": "", "downloads": 246, "homepage": "https://clawhub.ai/leonardodpanda/batch-file-renamer", "iconUrl": null, "installs": 22, "name": "Batch File Renamer", "ownerName": "leonardodpanda", "score": 1571.0818750798314, "slug": "batch-file-renamer", "source": "clawhub", "stars": 0, "tags": null, "updated_at": 1776766190424, "version": "1.0.0"}]}