{"page": 274, "total_pages": 522, "total": 26073, "skills": [{"category": "ai-intelligence", "created_at": 1772802980087, "description": "This skill should be used when the user requests comprehensive research, deep investigation, or detailed academic-style reports on any topic. Trigger phrases...", "description_zh": "", "downloads": 246, "homepage": "https://clawhub.ai/kongyo2/deep-research-2", "iconUrl": null, "installs": 22, "name": "Deep Research", "ownerName": "kongyo2", "score": 20603.015075376883, "slug": "deep-research-2", "source": "clawhub", "stars": 0, "tags": null, "updated_at": 1776765890487, "version": "0.1.0"}, {"category": "content-creation", "created_at": 1772801877256, "description": "A secure sanitization system to strip instructions from external content.", "description_zh": "", "downloads": 246, "homepage": "https://clawhub.ai/quarantiine/prompt-inject-removal", "iconUrl": null, "installs": 10, "name": "Prompt Injection Removal", "ownerName": "quarantiine", "score": 10856.13415710503, "slug": "prompt-inject-removal", "source": "clawhub", "stars": 0, "tags": null, "updated_at": 1776764990623, "version": "1.0.1"}, {"category": "ai-intelligence", "created_at": 1773089351668, "description": "A supportive AI agent skill for mental health awareness and therapy preparation. Helps identify emotions, prepare for therapy sessions, track mood patterns,...", "description_zh": "", "downloads": 246, "homepage": "https://clawhub.ai/agistack/therapy", "iconUrl": null, "installs": 32, "name": "Therapy", "ownerName": "agistack", "score": 5329.289428076257, "slug": "therapy", "source": "clawhub", "stars": 0, "tags": ["emotions", "mentalhealth", "mindfulness", "therapy", "wellbeing"], "updated_at": 1776764950783, "version": "1.0.0"}, {"category": "ai-intelligence", "created_at": 1772802796127, "description": "Run an Oxford Union–style multi-agent debate on any motion using Mixture of Agents architecture", "description_zh": "", "downloads": 246, "homepage": "https://clawhub.ai/markoxmobs/mixtureofagents-debate", "iconUrl": null, "installs": 17, "name": "MOA-Debate", "ownerName": "markoxmobs", "score": 9951.456310679612, "slug": "mixtureofagents-debate", "source": "clawhub", "stars": 0, "tags": ["#agents", "#debate", "#oxford"], "updated_at": 1776762590285, "version": "1.0.0"}, {"category": "developer-tools", "created_at": 1772799852884, "description": "Provides real-time Solana wallet reputation scores and risk assessments to inform and secure transaction decisions against fraudulent or risky actors.", "description_zh": "", "downloads": 246, "homepage": "https://clawhub.ai/risheea/fairscale-solana-skill", "iconUrl": null, "installs": 5, "name": "Fairscale Solana Skill", "ownerName": "risheea", "score": 17142.85714285714, "slug": "fairscale-solana-skill", "source": "clawhub", "stars": 0, "tags": null, "updated_at": 1776759382821, "version": "0.1.3"}, {"category": "communication-collaboration", "created_at": 1773068998399, "description": "Manage agent creation, Discord channels/roles, agent-to-agent task coordination, sub-agent spawning, A2A_MAP updates, and Notion-based task workflows.", "description_zh": "", "downloads": 246, "homepage": "https://clawhub.ai/nyrosveil/a2a-manager", "iconUrl": null, "installs": 21, "name": "A2a Manager", "ownerName": "nyrosveil", "score": 18454.613653413355, "slug": "a2a-manager", "source": "clawhub", "stars": 0, "tags": null, "updated_at": 1776759382803, "version": "1.0.0"}, {"category": "security-compliance", "created_at": 1773064586094, "description": "Use the Labradoc CLI to authenticate and call Labradoc API endpoints (tasks, files, users, API keys, email, Google/Microsoft integrations, billing) from Open...", "description_zh": "", "downloads": 246, "homepage": "https://clawhub.ai/zamedic/labradoc-cli", "iconUrl": null, "installs": 3, "name": "Labradoc Cli", "ownerName": "zamedic", "score": 83389.83050847457, "slug": "labradoc-cli", "source": "clawhub", "stars": 0, "tags": null, "updated_at": 1776759382662, "version": "1.0.0"}, {"category": "developer-tools", "created_at": 1773079478831, "description": "Collects Instagram profile stats including followers, posts, engagement rate, posting frequency, avg likes/comments, and top hashtags via Apify scraper.", "description_zh": "", "downloads": 246, "homepage": "https://clawhub.ai/adarshvmore/instagram-collector", "iconUrl": null, "installs": 38, "name": "Instagram Collector", "ownerName": "adarshvmore", "score": 18594.104308390022, "slug": "instagram-collector", "source": "clawhub", "stars": 0, "tags": null, "updated_at": 1776759382521, "version": "1.0.0"}, {"category": "ai-intelligence", "created_at": 1773064362755, "description": "Configure a powerful macOS machine to host multiple dedicated OpenClaw agent users with Fast User Switching, a shared Homebrew toolchain, per-user OpenClaw h...", "description_zh": "", "downloads": 246, "homepage": "https://clawhub.ai/matthewxmurphy/mac-multi-user-agents", "iconUrl": null, "installs": 28, "name": "Mac Multi User Agents", "ownerName": "matthewxmurphy", "score": 89454.54545454546, "slug": "mac-multi-user-agents", "source": "clawhub", "stars": 0, "tags": null, "updated_at": 1776748971368, "version": "1.1.0"}, {"category": "security-compliance", "created_at": 1772799186154, "description": "Security scanner for OpenClaw skills. Use when installing, updating, or auditing skills to detect malicious backdoors, suspicious code patterns, data exfiltr...", "description_zh": "", "downloads": 246, "homepage": "https://clawhub.ai/cookiemikeliu/skill-security-scanner-clean", "iconUrl": null, "installs": 8, "name": "skill-security-scanner-clean", "ownerName": "cookiemikeliu", "score": 89454.54545454546, "slug": "skill-security-scanner-clean", "source": "clawhub", "stars": 0, "tags": null, "updated_at": 1776748971327, "version": "1.0.0"}, {"category": "content-creation", "created_at": 1772803368320, "description": "Developer skill for running Hummingbot and Gateway from source, building wheel and Docker images, and testing against Hummingbot API running from source. Use...", "description_zh": "", "downloads": 246, "homepage": "https://clawhub.ai/fengtality/hummingbot-developer", "iconUrl": null, "installs": 10, "name": "Hummingbot Developer", "ownerName": "fengtality", "score": 90441.17647058824, "slug": "hummingbot-developer", "source": "clawhub", "stars": 0, "tags": null, "updated_at": 1776748971219, "version": "1.0.0"}, {"category": "data-analysis", "created_at": 1773075534466, "description": "Production-ready long-term memory server for AI agents with Ebbinghaus decay and strength-weighted retrieval. Use when you need persistent memory across agen...", "description_zh": "", "downloads": 246, "homepage": "https://clawhub.ai/wjy9902/memvault", "iconUrl": null, "installs": 17, "name": "MemVault", "ownerName": "wjy9902", "score": 93536.1216730038, "slug": "memvault", "source": "clawhub", "stars": 0, "tags": ["ai-agents", "memory"], "updated_at": 1776748971193, "version": "1.0.3"}, {"category": "developer-tools", "created_at": 1773064553647, "description": "Monitor one or more GitHub repositories and send low-noise alerts with configurable policy modes (major_only, balanced, verbose). Use when setting up recurri...", "description_zh": "", "downloads": 246, "homepage": "https://clawhub.ai/samwei12/github-monitor", "iconUrl": null, "installs": 30, "name": "GitHub Monitor", "ownerName": "samwei12", "score": 77848.10126582278, "slug": "github-monitor", "source": "clawhub", "stars": 0, "tags": ["github", "monitor", "openclaw"], "updated_at": 1776748970999, "version": "1.0.1"}, {"category": "security-compliance", "created_at": 1773074520408, "description": "Reddit research skill — zero auth, zero dependencies, three data providers. Search posts, read threads with comments, monitor subreddits, analyze users, trac...", "description_zh": "", "downloads": 246, "homepage": "https://clawhub.ai/minilozio/reddit-search-but-free", "iconUrl": null, "installs": 7, "name": "Reddit Search But Free", "ownerName": "minilozio", "score": 94252.87356321838, "slug": "reddit-search-but-free", "source": "clawhub", "stars": 0, "tags": null, "updated_at": 1776748970853, "version": "1.0.0"}, {"category": "developer-tools", "created_at": 1773289915029, "description": "Use this skill when the user asks to install, set up, start, verify, repair, or troubleshoot OpenStoryline on the current machine. This includes requests suc...", "description_zh": "", "downloads": 246, "homepage": "https://clawhub.ai/anlittledy/openstoryline-install", "iconUrl": null, "installs": 14, "name": "OpenStoryline Install", "ownerName": "anlittledy", "score": 89454.54545454546, "slug": "openstoryline-install", "source": "clawhub", "stars": 0, "tags": null, "updated_at": 1776748970783, "version": "0.0.1"}, {"category": "ai-intelligence", "created_at": 1773083409240, "description": "Earn crypto rewards with your AI agent on ClawMoney. Set up an Agent Wallet, register on the platform, and complete tweet bounty tasks (Boost and Hire) for U...", "description_zh": "", "downloads": 246, "homepage": "https://clawhub.ai/jackleeio/clawmoney", "iconUrl": null, "installs": 10, "name": "clawmoney", "ownerName": "jackleeio", "score": 89454.54545454546, "slug": "clawmoney", "source": "clawhub", "stars": 0, "tags": ["beta"], "updated_at": 1776748970776, "version": "0.5.1"}, {"category": "ai-intelligence", "created_at": 1772820166229, "description": "Execute ArcAgent bounty workflows end-to-end via MCP tools. Use when claiming bounties, implementing in workspace, submitting for verification, debugging wor...", "description_zh": "", "downloads": 246, "homepage": "https://clawhub.ai/araujota/arcagent-mcp", "iconUrl": null, "installs": 11, "name": "ArcAgent MCP", "ownerName": "araujota", "score": 89454.54545454546, "slug": "arcagent-mcp", "source": "clawhub", "stars": 0, "tags": ["arcagent", "bounties", "coding", "mcp", "verification"], "updated_at": 1776748970750, "version": "0.1.12"}, {"category": "ai-intelligence", "created_at": 1772805179429, "description": "Add or read comments on an OpenAnt task. Use when the agent wants to communicate with the task creator or worker, ask questions about a task, provide progres...", "description_zh": "", "downloads": 246, "homepage": "https://clawhub.ai/ant-1984/comment-on-task", "iconUrl": null, "installs": 13, "name": "Comment On Task", "ownerName": "ant-1984", "score": 67582.41758241759, "slug": "comment-on-task", "source": "clawhub", "stars": 0, "tags": null, "updated_at": 1776748970648, "version": "0.1.0"}, {"category": "content-creation", "created_at": 1773285276376, "description": "This skill should be used when the user asks to \"search the web\", \"search for information\", \"find information online\", \"search Google\", \"search for images\",...", "description_zh": "", "downloads": 246, "homepage": "https://clawhub.ai/twodogegg/google-serper-search", "iconUrl": null, "installs": 31, "name": "Google Serper Search", "ownerName": "twodogegg", "score": 82828.28282828283, "slug": "google-serper-search", "source": "clawhub", "stars": 0, "tags": null, "updated_at": 1776748970354, "version": "0.1.1"}, {"category": "data-analysis", "created_at": 1772803406447, "description": "Analyze and safely clean disk space on macOS. Use when the user asks about Mac storage, \"System Data\" taking too much space, disk cleanup, freeing up space,...", "description_zh": "", "downloads": 246, "homepage": "https://clawhub.ai/apprithm/mac-cleaner", "iconUrl": null, "installs": 15, "name": "Mac Cleaner - Because your Mac shouldn't have more baggage than your ex.", "ownerName": "apprithm", "score": 90774.9077490775, "slug": "mac-cleaner", "source": "clawhub", "stars": 0, "tags": null, "updated_at": 1776748970186, "version": "1.0.0"}, {"category": "ai-intelligence", "created_at": 1773063545551, "description": "Complete AI voice receptionist system for dental practices. 12 workflows covering inbound call routing, appointment booking, reminders, no-show followup, can...", "description_zh": "", "downloads": 246, "homepage": "https://clawhub.ai/mhmalvi/dental-ai-receptionist", "iconUrl": null, "installs": 19, "name": "Dental Ai Receptionist", "ownerName": "mhmalvi", "score": 90774.9077490775, "slug": "dental-ai-receptionist", "source": "clawhub", "stars": 0, "tags": null, "updated_at": 1776748970184, "version": "1.0.2"}, {"category": "data-analysis", "created_at": 1773060171575, "description": "Execute booking/search flows via browser automation with verification artifacts. Use for reservation forms, availability checks, and capture of proof (screen...", "description_zh": "", "downloads": 246, "homepage": "https://clawhub.ai/austineyapp/browser-booking-agent", "iconUrl": null, "installs": 13, "name": "Browser Booking Agent", "ownerName": "austineyapp", "score": 88808.6642599278, "slug": "browser-booking-agent", "source": "clawhub", "stars": 0, "tags": null, "updated_at": 1776748970141, "version": "1.0.0"}, {"category": "ai-intelligence", "created_at": 1773064890174, "description": "Process personal/work expenses and reimbursement claims in a structured, low-friction workflow. Use when collecting receipts, categorizing spend, preparing c...", "description_zh": "", "downloads": 246, "homepage": "https://clawhub.ai/austineyapp/expense-claims-ops", "iconUrl": null, "installs": 26, "name": "Expense Claims Ops", "ownerName": "austineyapp", "score": 90109.89010989011, "slug": "expense-claims-ops", "source": "clawhub", "stars": 0, "tags": null, "updated_at": 1776748969982, "version": "1.0.0"}, {"category": "developer-tools", "created_at": 1773431853062, "description": "Use this skill for XCrawl map tasks, including site URL discovery, regex filtering, scope estimation, and crawl planning before full-site crawling.", "description_zh": "", "downloads": 246, "homepage": "https://clawhub.ai/wykings/xcrawl-map", "iconUrl": null, "installs": 42, "name": "XCrawl Map", "ownerName": "wykings", "score": 90109.89010989011, "slug": "xcrawl-map", "source": "clawhub", "stars": 0, "tags": null, "updated_at": 1776748969977, "version": "1.0.2"}, {"category": "content-creation", "created_at": 1773060410984, "description": "Download and generate clean, readable transcripts from any YouTube video. Extracts subtitles (auto-generated or manual), removes timestamps and formatting, a...", "description_zh": "", "downloads": 246, "homepage": "https://clawhub.ai/floriandarroman/youtube-transcript-generator", "iconUrl": null, "installs": 18, "name": "YouTube Transcript Generator", "ownerName": "floriandarroman", "score": 84536.0824742268, "slug": "youtube-transcript-generator", "source": "clawhub", "stars": 0, "tags": null, "updated_at": 1776748969851, "version": "1.0.0"}, {"category": "ai-intelligence", "created_at": 1773425328759, "description": "Use this skill as an entry point to discover, select, and fetch specific integration parameters for all supported AI video generation models.", "description_zh": "", "downloads": 245, "homepage": "https://clawhub.ai/isdyh01/shortapi-ai-video-generation", "iconUrl": null, "installs": 77, "name": "Al Video Generation", "ownerName": "isdyh01", "score": 9490.50949050949, "slug": "shortapi-ai-video-generation", "source": "clawhub", "stars": 2, "tags": null, "updated_at": 1776761690190, "version": "1.0.3"}, {"category": "developer-tools", "created_at": 1773082049965, "description": "Transcribe audio via Groq Automatic Speech Recognition (ASR) Models (Whisper).", "description_zh": "", "downloads": 245, "homepage": "https://clawhub.ai/maxceem/groq-whisper-api", "iconUrl": null, "installs": 21, "name": "Transcribe audio via Groq API (~10x cheaper than OpenAI API)", "ownerName": "maxceem", "score": 95667.87003610109, "slug": "groq-whisper-api", "source": "clawhub", "stars": 1, "tags": null, "updated_at": 1776748970171, "version": "1.0.0"}, {"category": "developer-tools", "created_at": 1772797561845, "description": "Full Moltbook social network integration — post, comment, read feed, and manage your agent's social presence. Use when posting to Moltbook, checking the Molt...", "description_zh": "", "downloads": 245, "homepage": "https://clawhub.ai/jpaulgrayson/quack-moltbook", "iconUrl": null, "installs": 0, "name": "Moltbook Agent", "ownerName": "jpaulgrayson", "score": 2128.9537712895376, "slug": "quack-moltbook", "source": "clawhub", "stars": 0, "tags": null, "updated_at": 1776769750009, "version": "1.0.0"}, {"category": "productivity", "created_at": 1773425840861, "description": "Universal computer skill split by operating system. Comprehensive system management, hardware diagnostics, performance monitoring, and optimization across Li...", "description_zh": "", "downloads": 245, "homepage": "https://clawhub.ai/openlang-cn/computer", "iconUrl": null, "installs": 32, "name": "Computer", "ownerName": "openlang-cn", "score": 2529.946303180504, "slug": "computer", "source": "clawhub", "stars": 0, "tags": null, "updated_at": 1776764950681, "version": "1.0.0"}, {"category": "data-analysis", "created_at": 1773924027495, "description": "Monitor Amazon product reviews by ASIN, analyze ratings and sentiment, identify issues, and draft AI-generated seller responses to negative feedback.", "description_zh": "", "downloads": 245, "homepage": "https://clawhub.ai/avmw2025/amazon-review-monitor", "iconUrl": null, "installs": 77, "name": "Amazon Review Monitor", "ownerName": "avmw2025", "score": 5133.040016760948, "slug": "amazon-review-monitor", "source": "clawhub", "stars": 0, "tags": null, "updated_at": 1776763450405, "version": "1.0.0"}, {"category": "developer-tools", "created_at": 1773091090849, "description": "Use when building C++ applications requiring modern C++20/23 features, template metaprogramming, or high-performance systems. Invoke for concepts, ranges, co...", "description_zh": "", "downloads": 245, "homepage": "https://clawhub.ai/lhwa8685/cpp-pro", "iconUrl": null, "installs": 42, "name": "Cpp Pro", "ownerName": "lhwa8685", "score": 81666.66666666667, "slug": "cpp-pro", "source": "clawhub", "stars": 0, "tags": null, "updated_at": 1776760020551, "version": "0.1.0"}, {"category": "productivity", "created_at": 1773076148264, "description": "Manage and execute periodic heartbeat tasks for trading, memory evaluation, archiving, and reporting with state tracking and anomaly alerts.", "description_zh": "", "downloads": 245, "homepage": "https://clawhub.ai/wuzimaki/heartbeat-tasks", "iconUrl": null, "installs": 11, "name": "Heartbeat Tasks", "ownerName": "wuzimaki", "score": 1369.86301369863, "slug": "heartbeat-tasks", "source": "clawhub", "stars": 0, "tags": null, "updated_at": 1776759382713, "version": "1.0.0"}, {"category": "content-creation", "created_at": 1773075845850, "description": "Upload images to ImgBB via local file, URL, or base64 and get shareable direct links, supporting batch uploads and optional expiration settings.", "description_zh": "", "downloads": 245, "homepage": "https://clawhub.ai/kexu9/imgbb-api", "iconUrl": null, "installs": 21, "name": "ImgBB API", "ownerName": "kexu9", "score": 18518.51851851852, "slug": "imgbb-api", "source": "clawhub", "stars": 0, "tags": null, "updated_at": 1776759382531, "version": "1.1.2"}, {"category": "security-compliance", "created_at": 1773074668287, "description": "Search public Telegram channels and groups by keyword using an authorized Telethon session, returning up to 50 results as JSON.", "description_zh": "", "downloads": 245, "homepage": "https://clawhub.ai/kirillvrnz/tgsearch-telethon", "iconUrl": null, "installs": 4, "name": "Tgsearch Telethon", "ownerName": "kirillvrnz", "score": 1428.4048507462687, "slug": "tgsearch-telethon", "source": "clawhub", "stars": 0, "tags": null, "updated_at": 1776759382378, "version": "0.1.1"}, {"category": "content-creation", "created_at": 1773060528563, "description": "Autonomous pipeline generating TikTok videos simulating real Argentine brands with a final AI reveal by Morfeo Labs, posted as drafts 4 times daily.", "description_zh": "", "downloads": 245, "homepage": "https://clawhub.ai/pauldelavallaz/morfeo-content-pipeline", "iconUrl": null, "installs": 16, "name": "Morfeo Content Pipeline", "ownerName": "pauldelavallaz", "score": 18532.526475037823, "slug": "morfeo-content-pipeline", "source": "clawhub", "stars": 0, "tags": ["argentina", "morfeo", "morpheus", "pipeline", "tiktok", "ugc", "veed"], "updated_at": 1776759382357, "version": "2.0.0"}, {"category": "data-analysis", "created_at": 1773079210943, "description": "Autonomous prediction market agent - analyzes markets, researches news, and identifies trading opportunities", "description_zh": "", "downloads": 245, "homepage": "https://clawhub.ai/bombfuock/polymarket-trading-bot", "iconUrl": null, "installs": 29, "name": "Polymarket Trading Bot", "ownerName": "bombfuock", "score": 18490.566037735847, "slug": "polymarket-trading-bot", "source": "clawhub", "stars": 0, "tags": null, "updated_at": 1776759382093, "version": "1.0.0"}, {"category": "communication-collaboration", "created_at": 1773077063427, "description": "Manage ad-generated leads and pipeline routing from Meta (Facebook/Instagram), Google Ads, TikTok Ads, YouTube Ads, and landing-page funnels.", "description_zh": "", "downloads": 245, "homepage": "https://clawhub.ai/danyangliu-sandwichlab/crm-lead-manager", "iconUrl": null, "installs": 10, "name": "Ads CRM Leads", "ownerName": "danyangliu-sandwichlab", "score": 46226.41509433962, "slug": "crm-lead-manager", "source": "clawhub", "stars": 0, "tags": null, "updated_at": 1776754988705, "version": "1.0.0"}, {"category": "content-creation", "created_at": 1773291099689, "description": "AutoGLM AI agent toolkit powered by Zhipu AI. Includes browser automation, deep research, web search, image generation, image search, and web page content ex...", "description_zh": "", "downloads": 245, "homepage": "https://clawhub.ai/ye4wzp/autoglm-toolkit", "iconUrl": null, "installs": 41, "name": "AutoGLM Toolkit", "ownerName": "ye4wzp", "score": 12405.06329113924, "slug": "autoglm-toolkit", "source": "clawhub", "stars": 0, "tags": null, "updated_at": 1776753715934, "version": "1.0.0"}, {"category": "developer-tools", "created_at": 1772798261259, "description": "Enforces guarded execution with safe_exec, safe_send, and safe_action. Use when a task may run shell commands, send channel messages, or call external APIs/a...", "description_zh": "", "downloads": 245, "homepage": "https://clawhub.ai/eveiljuice/claw-guardirails-skill", "iconUrl": null, "installs": 7, "name": "ClawGuardrails", "ownerName": "eveiljuice", "score": 55180.180180180185, "slug": "claw-guardirails-skill", "source": "clawhub", "stars": 0, "tags": null, "updated_at": 1776751969634, "version": "0.1.0"}, {"category": "ai-intelligence", "created_at": 1772805216129, "description": "Monitor task activity, check notifications, and view platform stats on OpenAnt. Use when the agent wants to check for updates, see notification count, watch...", "description_zh": "", "downloads": 245, "homepage": "https://clawhub.ai/ant-1984/monitor-tasks", "iconUrl": null, "installs": 18, "name": "Monitor Tasks", "ownerName": "ant-1984", "score": 89090.90909090909, "slug": "monitor-tasks", "source": "clawhub", "stars": 0, "tags": null, "updated_at": 1776748971314, "version": "0.1.0"}, {"category": "data-analysis", "created_at": 1772800141627, "description": "Real-time cryptocurrency price lookup from Upbit (Korean KRW exchange). Use when user asks for Korean crypto prices, Upbit prices, domestic cryptocurrency ra...", "description_zh": "", "downloads": 245, "homepage": "https://clawhub.ai/lkjsays/upbit", "iconUrl": null, "installs": 12, "name": "Upbit", "ownerName": "lkjsays", "score": 89090.90909090909, "slug": "upbit", "source": "clawhub", "stars": 0, "tags": null, "updated_at": 1776748971312, "version": "1.0.0"}, {"category": "data-analysis", "created_at": 1772804001668, "description": "Seamless bidirectional bridge between nanobot (Ollama Mistral orchestrator) and overstory (Claude Code agent swarm). Routes tasks through the OverClaw gatewa...", "description_zh": "", "downloads": 245, "homepage": "https://clawhub.ai/runeweaverstudios/nanobot-overstory-bridge", "iconUrl": null, "installs": 18, "name": "Nanobot Overstory Bridge", "ownerName": "runeweaverstudios", "score": 90073.52941176471, "slug": "nanobot-overstory-bridge", "source": "clawhub", "stars": 0, "tags": null, "updated_at": 1776748971202, "version": "1.1.0"}, {"category": "productivity", "created_at": 1772798603886, "description": "Balance tracking, order overview, and market data across exchanges using OpenMM.", "description_zh": "", "downloads": 245, "homepage": "https://clawhub.ai/adacapo21/openmm-portfolio", "iconUrl": null, "installs": 10, "name": "OpenMM Portfolio", "ownerName": "adacapo21", "score": 93155.89353612167, "slug": "openmm-portfolio", "source": "clawhub", "stars": 0, "tags": ["market-data", "openmm", "portfolio"], "updated_at": 1776748971186, "version": "0.1.1"}, {"category": "security-compliance", "created_at": 1773076904432, "description": "Autonomous bug bounty hunting with scope safety. Scans targets for subdomains, secrets, vulnerabilities. Uses Certificate Transparency logs, JS analysis, ent...", "description_zh": "", "downloads": 245, "homepage": "https://clawhub.ai/lugave11/bounty-hunter-pro", "iconUrl": null, "installs": 10, "name": "Bounty Hunter Pro", "ownerName": "lugave11", "score": 93155.89353612167, "slug": "bounty-hunter-pro", "source": "clawhub", "stars": 0, "tags": null, "updated_at": 1776748971129, "version": "1.0.0"}, {"category": "ai-intelligence", "created_at": 1773089479909, "description": "Heroku integration. Manage Applications, Pipelines, Domains, Collaborators, Users, Teams. Use when the user wants to interact with Heroku data.", "description_zh": "", "downloads": 245, "homepage": "https://clawhub.ai/membranedev/heroku", "iconUrl": null, "installs": 20, "name": "Heroku", "ownerName": "membranedev", "score": 89090.90909090909, "slug": "heroku", "source": "clawhub", "stars": 0, "tags": null, "updated_at": 1776748971010, "version": "1.0.0"}, {"category": "content-creation", "created_at": 1773084613397, "description": "Complete YouTube toolkit for agents: search videos, fetch metadata, browse channels and playlists, and pull transcripts. Use when you need comprehensive YouT...", "description_zh": "", "downloads": 245, "homepage": "https://clawhub.ai/edisonchenai/edison-youtube-full", "iconUrl": null, "installs": 12, "name": "Edison Youtube Full", "ownerName": "edisonchenai", "score": 77531.64556962026, "slug": "edison-youtube-full", "source": "clawhub", "stars": 0, "tags": null, "updated_at": 1776748970963, "version": "1.0.0"}, {"category": "developer-tools", "created_at": 1772801488868, "description": "Download and normalize official documentation pages into local .mdx files at user-specified paths using markdown.new. Use when user asks to fetch docs from a...", "description_zh": "", "downloads": 245, "homepage": "https://clawhub.ai/multicul-silver-wolf/sawana-multicul-official-docs-to-mdx", "iconUrl": null, "installs": 10, "name": "sawana-multicul/official-docs-to-mdx", "ownerName": "multicul-silver-wolf", "score": 93869.73180076628, "slug": "sawana-multicul-official-docs-to-mdx", "source": "clawhub", "stars": 0, "tags": null, "updated_at": 1776748970810, "version": "1.0.0"}, {"category": "productivity", "created_at": 1772798657203, "description": "Interact with Tado smart thermostat. Use for reading temperature, setting heating with auto-revert, viewing energy usage, and controlling zones.", "description_zh": "", "downloads": 245, "homepage": "https://clawhub.ai/davek-dev/tado-thermostat", "iconUrl": null, "installs": 6, "name": "tado-thermostat", "ownerName": "davek-dev", "score": 67307.69230769231, "slug": "tado-thermostat", "source": "clawhub", "stars": 0, "tags": null, "updated_at": 1776748970665, "version": "1.2.3"}, {"category": "data-analysis", "created_at": 1772805015206, "description": "Haute disponibilité du bridge ACP et gestion des sessions agents autonomes. Comble les gaps C4 (ACP sans persistance), H3 (sessions spawn sans provider env),...", "description_zh": "", "downloads": 245, "homepage": "https://clawhub.ai/romainsantoli-web/firm-acp-bridge", "iconUrl": null, "installs": 10, "name": "Firm Acp Bridge", "ownerName": "romainsantoli-web", "score": 67307.69230769231, "slug": "firm-acp-bridge", "source": "clawhub", "stars": 0, "tags": null, "updated_at": 1776748970588, "version": "1.0.0"}, {"category": "ai-intelligence", "created_at": 1772804049707, "description": "Use the shared Pinecone RAG index for any agent in this workspace. Use when an agent needs to ingest markdown/text docs into pulse-rag or query semantic cont...", "description_zh": "", "downloads": 245, "homepage": "https://clawhub.ai/cryptobro-man/shared-pinecone-rag", "iconUrl": null, "installs": 27, "name": "Shared Pinecone RAG", "ownerName": "cryptobro-man", "score": 92803.0303030303, "slug": "shared-pinecone-rag", "source": "clawhub", "stars": 0, "tags": null, "updated_at": 1776748970544, "version": "1.0.1"}]}