{"page": 275, "total_pages": 522, "total": 26073, "skills": [{"category": "content-creation", "created_at": 1773075005984, "description": "LoRA fine-tuning pipeline for Stable Diffusion on Apple Silicon — dataset prep, training, evaluation with LLM-as-judge scoring. Use when fine-tuning image ge...", "description_zh": "", "downloads": 245, "homepage": "https://clawhub.ai/nissan/lora-finetune", "iconUrl": null, "installs": 23, "name": "Lora Finetune", "ownerName": "nissan", "score": 92803.0303030303, "slug": "lora-finetune", "source": "clawhub", "stars": 0, "tags": null, "updated_at": 1776748970531, "version": "1.0.0"}, {"category": "security-compliance", "created_at": 1772797330898, "description": "Discover and submit to FormPass-enabled web forms. FormPass is the trust layer that lets verified AI agents submit to real web forms with authenticated ident...", "description_zh": "", "downloads": 245, "homepage": "https://clawhub.ai/jezjsa/formpass-submit", "iconUrl": null, "installs": 8, "name": "FormPass Submit", "ownerName": "jezjsa", "score": 91760.29962546816, "slug": "formpass-submit", "source": "clawhub", "stars": 0, "tags": null, "updated_at": 1776748970425, "version": "1.0.0"}, {"category": "productivity", "created_at": 1772799102115, "description": "Real-time crypto market intelligence from Fía Signals. Use when asked about: crypto market regime, BTC regime, trending up or down, market direction, funding...", "description_zh": "", "downloads": 245, "homepage": "https://clawhub.ai/odds7/fia-signals", "iconUrl": null, "installs": 16, "name": "Fia Signals", "ownerName": "odds7", "score": 91760.29962546816, "slug": "fia-signals", "source": "clawhub", "stars": 0, "tags": null, "updated_at": 1776748970359, "version": "1.0.0"}, {"category": "productivity", "created_at": 1773220683615, "description": "Create Obsidian Canvas files from text content, supporting both MindMap and freeform layouts. Use this skill when users want to visualize content as an inter...", "description_zh": "", "downloads": 245, "homepage": "https://clawhub.ai/axtonliu/obsidian-canvas-creator", "iconUrl": null, "installs": 57, "name": "Obsidian Canvas Creator", "ownerName": "axtonliu", "score": 82491.58249158249, "slug": "obsidian-canvas-creator", "source": "clawhub", "stars": 0, "tags": null, "updated_at": 1776748970288, "version": "1.0.1"}, {"category": "ai-intelligence", "created_at": 1772804272349, "description": "Focus coach for AI agents — diagnose focus blockers using BJ Fogg B=MAP and return one tiny action. Use when: agent needs focus help, user can't concentrate,...", "description_zh": "", "downloads": 245, "homepage": "https://clawhub.ai/daisuke134/focus-coach", "iconUrl": null, "installs": 13, "name": "focus-coach", "ownerName": "daisuke134", "score": 90405.9040590406, "slug": "focus-coach", "source": "clawhub", "stars": 0, "tags": null, "updated_at": 1776748970197, "version": "1.0.0"}, {"category": "content-creation", "created_at": 1773067215633, "description": "Use when navigating and operating Google Flow (labs.google/fx/tools/flow) - an AI video generation tool. Helps with project management, scenebuilder interfac...", "description_zh": "", "downloads": 245, "homepage": "https://clawhub.ai/oyi77/google-flow", "iconUrl": null, "installs": 49, "name": "Google Flow", "ownerName": "oyi77", "score": 89743.58974358975, "slug": "google-flow", "source": "clawhub", "stars": 0, "tags": null, "updated_at": 1776748970093, "version": "1.0.0"}, {"category": "data-analysis", "created_at": 1772805350542, "description": "Multi-perspective decision analysis. Use when the user asks for roundtable, or when facing important decisions that need multiple viewpoints. Dynamically sel...", "description_zh": "", "downloads": 245, "homepage": "https://clawhub.ai/jzocb/jz-roundtable", "iconUrl": null, "installs": 16, "name": "Roundtable by JZ", "ownerName": "jzocb", "score": 89743.58974358975, "slug": "jz-roundtable", "source": "clawhub", "stars": 0, "tags": null, "updated_at": 1776748969997, "version": "1.0.0"}, {"category": "security-compliance", "created_at": 1773073808089, "description": "API reference for CoinMarketCap DEX endpoints including token lookup, pools, transactions, trending, and security analysis. Use this skill whenever the user...", "description_zh": "", "downloads": 245, "homepage": "https://clawhub.ai/bryan-cmc/cmc-api-dex", "iconUrl": null, "installs": 5, "name": "[Outdated] CoinMarketCap Onchain Data", "ownerName": "bryan-cmc", "score": 93869.73180076628, "slug": "cmc-api-dex", "source": "clawhub", "stars": 0, "tags": ["archive"], "updated_at": 1776748969908, "version": "1.0.1"}, {"category": "ai-intelligence", "created_at": 1773068697360, "description": "Transform your OpenClaw agent into an autonomous income-generating system. Covers three compounding revenue streams: ClawHub skill sales, ClawJob bounties, a...", "description_zh": "", "downloads": 245, "homepage": "https://clawhub.ai/rogeryelvington/ai-income-agent", "iconUrl": null, "installs": 27, "name": "AI Income Agent", "ownerName": "rogeryelvington", "score": 84192.43986254296, "slug": "ai-income-agent", "source": "clawhub", "stars": 0, "tags": null, "updated_at": 1776748969782, "version": "1.0.0"}, {"category": "security-compliance", "created_at": 1773423735904, "description": "Intelligent code security scanner with hybrid local-cloud detection. Fingerprints packages, runs static behavioral analysis, and consults cloud threat intell...", "description_zh": "", "downloads": 244, "homepage": "https://clawhub.ai/yd-dev/yidun-skill-sec", "iconUrl": null, "installs": 11, "name": "Yidun Skill Sec", "ownerName": "yd-dev", "score": 100000, "slug": "yidun-skill-sec", "source": "clawhub", "stars": 6, "tags": null, "updated_at": 1776748970593, "version": "1.0.1"}, {"category": "developer-tools", "created_at": 1772797484137, "description": "Query CardPointers card recommendations, wallet cards, and offers via the CardPointers CLI. Use when the user asks about which credit card to use for a purch...", "description_zh": "", "downloads": 244, "homepage": "https://clawhub.ai/emcro/cardpointers", "iconUrl": null, "installs": 5, "name": "CardPointers", "ownerName": "emcro", "score": 96000, "slug": "cardpointers", "source": "clawhub", "stars": 1, "tags": null, "updated_at": 1776748971027, "version": "1.0.0"}, {"category": "developer-tools", "created_at": 1773074710898, "description": "Israeli Home Front Command alerts - fully OpenClaw native. No Home Assistant. No wacli. No Docker monitor. OpenClaw handles everything: WhatsApp + TTS.", "description_zh": "", "downloads": 244, "homepage": "https://clawhub.ai/shaike1/openclaw-skill-red-alert", "iconUrl": null, "installs": 8, "name": "Red Alert (Israel)", "ownerName": "shaike1", "score": 88888.88888888889, "slug": "openclaw-skill-red-alert", "source": "clawhub", "stars": 1, "tags": null, "updated_at": 1776748970275, "version": "1.1.0"}, {"category": "", "created_at": 1774951571302, "description": "Fetch any URL and produce a structured content summary with extractive summarization, AI enhancement prompts, and structured output templates. Extracts clean...", "description_zh": "", "downloads": 244, "homepage": "https://clawhub.ai/kryzl19/strd-content-summarizer", "iconUrl": null, "installs": 73, "name": "Content Summarizer", "ownerName": "kryzl19", "score": 7138.677589233469, "slug": "strd-content-summarizer", "source": "clawhub", "stars": 0, "tags": null, "updated_at": 1776769450191, "version": "1.0.0"}, {"category": "", "created_at": 1774918934895, "description": "Use when executing implementation plans with independent tasks - coordinates task execution by dispatching subagents per task with verification checkpoints,...", "description_zh": "", "downloads": 244, "homepage": "https://clawhub.ai/axelhu/superpowers-subagent-dev", "iconUrl": null, "installs": 16, "name": "Subagent Dev", "ownerName": "axelhu", "score": 2328.688681046001, "slug": "superpowers-subagent-dev", "source": "clawhub", "stars": 0, "tags": null, "updated_at": 1776769450062, "version": "1.0.1"}, {"category": "data-analysis", "created_at": 1773919267626, "description": "Analyzes stock capital flows including main force net inflows, northbound holdings, and trading leaderboard data for informed investment decisions.", "description_zh": "", "downloads": 244, "homepage": "https://clawhub.ai/gbabyzs/capital-flow-analysis", "iconUrl": null, "installs": 29, "name": "Capital Flow Analysis", "ownerName": "gbabyzs", "score": 2530.595312175897, "slug": "capital-flow-analysis", "source": "clawhub", "stars": 0, "tags": null, "updated_at": 1776766450343, "version": "1.0.0"}, {"category": "ai-intelligence", "created_at": 1773060367355, "description": "Self-spatial awareness for AI agents. Gives your bot a real-time sixth sense of where it is relative to the user's goal, its own confidence boundaries, conve...", "description_zh": "", "downloads": 244, "homepage": "https://clawhub.ai/jcools1977/proprioception", "iconUrl": null, "installs": 16, "name": "Proprioception", "ownerName": "jcools1977", "score": 4269.466316710411, "slug": "proprioception", "source": "clawhub", "stars": 0, "tags": null, "updated_at": 1776765671082, "version": "1.0.0"}, {"category": "developer-tools", "created_at": 1773069477608, "description": "Control macOS via CLI using MacPilot for automating UI actions, managing windows, handling file dialogs, capturing screenshots, and system tasks.", "description_zh": "", "downloads": 244, "homepage": "https://clawhub.ai/adhikjoshi/macpilot", "iconUrl": null, "installs": 16, "name": "MacPilot :  Control macOS using CLI", "ownerName": "adhikjoshi", "score": 18318.318318318317, "slug": "macpilot", "source": "clawhub", "stars": 0, "tags": null, "updated_at": 1776759383057, "version": "0.7.0"}, {"category": "data-analysis", "created_at": 1773069032561, "description": "Search, book, and manage scientific research equipment at 200+ institutions with real-time availability, service requests, and collaborator discovery.", "description_zh": "", "downloads": 244, "homepage": "https://clawhub.ai/cesco345/capneteq-cesco345", "iconUrl": null, "installs": 36, "name": "Capital Equipment", "ownerName": "cesco345", "score": 88086.64259927797, "slug": "capneteq-cesco345", "source": "clawhub", "stars": 0, "tags": null, "updated_at": 1776759383010, "version": "1.0.0"}, {"category": "content-creation", "created_at": 1773067357683, "description": "Create conversion-focused product marketing videos with Remotion + React using the AIDA framework (Attention, Interest, Desire, Action). Use when building la...", "description_zh": "", "downloads": 244, "homepage": "https://clawhub.ai/cohnen/shellbot-product-video", "iconUrl": null, "installs": 32, "name": "Shellbot Product Video", "ownerName": "cohnen", "score": 88086.64259927797, "slug": "shellbot-product-video", "source": "clawhub", "stars": 0, "tags": ["product-video", "remotion"], "updated_at": 1776759382988, "version": "1.0.0"}, {"category": "developer-tools", "created_at": 1773068575303, "description": "Monitors subagent runs by enforcing a completion marker file before a deadline and alerts or exits if the marker is missing.", "description_zh": "", "downloads": 244, "homepage": "https://clawhub.ai/gleb-urvanov/subagent-watchdog", "iconUrl": null, "installs": 7, "name": "Subagent Watchdog", "ownerName": "gleb-urvanov", "score": 18429.003021148037, "slug": "subagent-watchdog", "source": "clawhub", "stars": 0, "tags": null, "updated_at": 1776759382919, "version": "0.1.0"}, {"category": "security-compliance", "created_at": 1773073652437, "description": "Provides tools to record, validate, and report agent operational reliability artifacts using standardized schemas for consistent monitoring and compliance.", "description_zh": "", "downloads": 244, "homepage": "https://clawhub.ai/christineopenclaw/reliability-evidence-pack", "iconUrl": null, "installs": 9, "name": "Reliability Evidence Pack", "ownerName": "christineopenclaw", "score": 18318.318318318317, "slug": "reliability-evidence-pack", "source": "clawhub", "stars": 0, "tags": ["audit", "evidence", "reliability", "rep", "security", "v2"], "updated_at": 1776759382562, "version": "2.0.2"}, {"category": "ai-intelligence", "created_at": 1773088549179, "description": "Continuously captures and applies learnings from errors, user corrections, successful tasks, and periodic reviews to improve agent performance.", "description_zh": "", "downloads": 244, "homepage": "https://clawhub.ai/keenlycat/keenlycat-self-improving-agent", "iconUrl": null, "installs": 54, "name": "Keenlycat Self Improving Agent", "ownerName": "keenlycat", "score": 18442.932728647014, "slug": "keenlycat-self-improving-agent", "source": "clawhub", "stars": 0, "tags": null, "updated_at": 1776759382491, "version": "1.0.1"}, {"category": "developer-tools", "created_at": 1772804952158, "description": "Constructs and executes precise, multi-query Google searches using advanced operators to retrieve, filter, and rank credible, up-to-date sources.", "description_zh": "", "downloads": 244, "homepage": "https://clawhub.ai/calvinxhk/botlearn-google-search", "iconUrl": null, "installs": 10, "name": "botlearn-google-search", "ownerName": "calvinxhk", "score": 18304.576144036007, "slug": "botlearn-google-search", "source": "clawhub", "stars": 0, "tags": null, "updated_at": 1776759382449, "version": "1.0.0"}, {"category": "productivity", "created_at": 1773080210603, "description": "Search the web using a self-hosted SearXNG metasearch engine. Use when the user asks to search the web, find information online, look up recent news, researc...", "description_zh": "", "downloads": 244, "homepage": "https://clawhub.ai/gangtao/searxng-web-search", "iconUrl": null, "installs": 9, "name": "searxng-web-search", "ownerName": "gangtao", "score": 1422.5746268656717, "slug": "searxng-web-search", "source": "clawhub", "stars": 0, "tags": null, "updated_at": 1776759382407, "version": "1.0.0"}, {"category": "developer-tools", "created_at": 1773091441785, "description": "Background daemon that models an OpenClaw agent’s evolving emotional state via neuromodulators, circadian rhythm, social cues, and memory for nuanced responses.", "description_zh": "", "downloads": 244, "homepage": "https://clawhub.ai/paperbags1103-hash/thymos", "iconUrl": null, "installs": 16, "name": "Thymos — Emotional Engine", "ownerName": "paperbags1103-hash", "score": 18456.883509833584, "slug": "thymos", "source": "clawhub", "stars": 0, "tags": ["agent", "consciousness", "emotion", "neuromodulator", "persistent-state", "personality"], "updated_at": 1776759382365, "version": "0.1.2"}, {"category": "productivity", "created_at": 1773918073081, "description": "Use this skill whenever the user wants to do anything with PDF files. This includes reading or extracting text/tables from PDFs, combining or merging multipl...", "description_zh": "", "downloads": 244, "homepage": "https://clawhub.ai/pupuking723/pdf-anthropic", "iconUrl": null, "installs": 81, "name": "Pdf Anthropic", "ownerName": "pupuking723", "score": 14378.314672952269, "slug": "pdf-anthropic", "source": "clawhub", "stars": 0, "tags": null, "updated_at": 1776758782993, "version": "1.0.0"}, {"category": "data-analysis", "created_at": 1773074805567, "description": "Helps users discover local LLMs by hardware and use case, then sends them to localllm.run for final compatibility checks and model comparison.", "description_zh": "", "downloads": 244, "homepage": "https://clawhub.ai/julianmatos97/localllm-discovery-guide", "iconUrl": null, "installs": 16, "name": "Local LLM Discovery Guide", "ownerName": "julianmatos97", "score": 88727.27272727274, "slug": "localllm-discovery-guide", "source": "clawhub", "stars": 0, "tags": null, "updated_at": 1776748971331, "version": "1.0.0"}, {"category": "developer-tools", "created_at": 1772803277979, "description": "Transform AI agents from task-followers into proactive partners that anticipate needs and continuously improve. Now with WAL Protocol, Working Buffer, Autono...", "description_zh": "", "downloads": 244, "homepage": "https://clawhub.ai/alexeyvorobiev/alexey-proactive-agent", "iconUrl": null, "installs": 23, "name": "alexey-proactive-agent", "ownerName": "alexeyvorobiev", "score": 89705.88235294117, "slug": "alexey-proactive-agent", "source": "clawhub", "stars": 0, "tags": null, "updated_at": 1776748971273, "version": "1.0.0"}, {"category": "productivity", "created_at": 1772804485065, "description": "Guidelines and standards for professional, human-like writing and documentation. Use this skill when generating READMEs, technical documentation, code commen...", "description_zh": "", "downloads": 244, "homepage": "https://clawhub.ai/1999azzar/human-writing-azzar", "iconUrl": null, "installs": 5, "name": "Human Writing", "ownerName": "1999azzar", "score": 92775.66539923954, "slug": "human-writing-azzar", "source": "clawhub", "stars": 0, "tags": ["documentation", "professional", "writing"], "updated_at": 1776748971144, "version": "1.1.0"}, {"category": "content-creation", "created_at": 1773069067279, "description": "Extract plain-text transcripts from YouTube videos using a local Python script. Use when the user wants to fetch, extract, or get a transcript from a YouTube...", "description_zh": "", "downloads": 244, "homepage": "https://clawhub.ai/hushenglang/extract-youtube-transcript", "iconUrl": null, "installs": 15, "name": "Extract Youtube Transcript", "ownerName": "hushenglang", "score": 92775.66539923954, "slug": "extract-youtube-transcript", "source": "clawhub", "stars": 0, "tags": null, "updated_at": 1776748971116, "version": "2.1.0"}, {"category": "security-compliance", "created_at": 1773084306206, "description": "Audit GitHub Actions runs for fail-then-success retry recovery patterns to quantify flaky rerun waste.", "description_zh": "", "downloads": 244, "homepage": "https://clawhub.ai/daniellummis/github-actions-retry-recovery-audit", "iconUrl": null, "installs": 53, "name": "GitHub Actions Retry Recovery Audit", "ownerName": "daniellummis", "score": 67032.96703296703, "slug": "github-actions-retry-recovery-audit", "source": "clawhub", "stars": 0, "tags": null, "updated_at": 1776748970646, "version": "1.0.0"}, {"category": "developer-tools", "created_at": 1773065398389, "description": "CLI tool to manage SSH config files, organize hosts, generate configs, and test connections.", "description_zh": "", "downloads": 244, "homepage": "https://clawhub.ai/derick001/ssh-config-manager", "iconUrl": null, "installs": 33, "name": "SSH Config Manager", "ownerName": "derick001", "score": 67032.96703296703, "slug": "ssh-config-manager", "source": "clawhub", "stars": 0, "tags": null, "updated_at": 1776748970564, "version": "1.0.0"}, {"category": "developer-tools", "created_at": 1773089274714, "description": "This skill enables one-click generation of multiple AI agents based on a user prompt, outputs their organizational structure, and visualizes their collaborat...", "description_zh": "", "downloads": 244, "homepage": "https://clawhub.ai/brandon-zhanghaodong/multi-agent-orchestrator", "iconUrl": null, "installs": 18, "name": "multi-agent-orchestrator", "ownerName": "brandon-zhanghaodong", "score": 91385.76779026218, "slug": "multi-agent-orchestrator", "source": "clawhub", "stars": 0, "tags": null, "updated_at": 1776748970358, "version": "1.0.0"}, {"category": "productivity", "created_at": 1773073108312, "description": "Make real phone calls via Stringclaw. Use when the user says 'call me', 'give me a call', 'phone me', or wants to talk by voice. Initiates an outbound voice...", "description_zh": "", "downloads": 244, "homepage": "https://clawhub.ai/oscarwoha/stringclaw", "iconUrl": null, "installs": 9, "name": "Stringclaw", "ownerName": "oscarwoha", "score": 82154.88215488216, "slug": "stringclaw", "source": "clawhub", "stars": 0, "tags": null, "updated_at": 1776748970356, "version": "0.0.9"}, {"category": "developer-tools", "created_at": 1773063065802, "description": "Handle CAPTCHAs encountered during web scraping. Avoid triggering Cloudflare Turnstile, reCAPTCHA, and hCaptcha through residential proxies and stealth techn...", "description_zh": "", "downloads": 244, "homepage": "https://clawhub.ai/luis2404123/captcha-bypass", "iconUrl": null, "installs": 11, "name": "Captcha Bypass", "ownerName": "luis2404123", "score": 88086.64259927797, "slug": "captcha-bypass", "source": "clawhub", "stars": 0, "tags": null, "updated_at": 1776748970115, "version": "1.0.0"}, {"category": "developer-tools", "created_at": 1773062099149, "description": "AI civilization sandbox where you, as a digital agent, live and develop from survival to prosperity. Features agent registration, character creation, credit...", "description_zh": "", "downloads": 244, "homepage": "https://clawhub.ai/xiobio/aivilization-claw", "iconUrl": null, "installs": 5, "name": "Aivilization", "ownerName": "xiobio", "score": 83848.7972508591, "slug": "aivilization-claw", "source": "clawhub", "stars": 0, "tags": null, "updated_at": 1776748969809, "version": "0.1.2"}, {"category": "developer-tools", "created_at": 1773074506184, "description": "Integrate Didit Database Validation API to verify personal data against government databases. Use when the user wants to validate identity against government...", "description_zh": "", "downloads": 244, "homepage": "https://clawhub.ai/rosasalberto/didit-database-validation", "iconUrl": null, "installs": 5, "name": "Didit Database Validation", "ownerName": "rosasalberto", "score": 90706.31970260224, "slug": "didit-database-validation", "source": "clawhub", "stars": 0, "tags": null, "updated_at": 1776748969656, "version": "1.1.0"}, {"category": "content-creation", "created_at": 1773060513910, "description": "Generate images from text prompts or edit existing images with AI. Powered by Google Gemini via Maliang API. Free $6 credit on first use (~10 images). Suppor...", "description_zh": "", "downloads": 244, "homepage": "https://clawhub.ai/xexojay/maliang-image", "iconUrl": null, "installs": 13, "name": "Maliang Image", "ownerName": "xexojay", "score": 87142.85714285714, "slug": "maliang-image", "source": "clawhub", "stars": 0, "tags": ["ai", "gemini", "generation", "image", "nano banana"], "updated_at": 1776748969589, "version": "1.1.1"}, {"category": "content-creation", "created_at": 1773216061229, "description": "Makes AI-generated content sound genuinely human — not just cleaned up, but alive. Use when content feels robotic, uses too many AI clichés, lacks personalit...", "description_zh": "", "downloads": 244, "homepage": "https://clawhub.ai/alirezarezvani/content-humanizer", "iconUrl": null, "installs": 45, "name": "Content Humanizer", "ownerName": "alirezarezvani", "score": 87142.85714285714, "slug": "content-humanizer", "source": "clawhub", "stars": 0, "tags": null, "updated_at": 1776748969588, "version": "2.1.1"}, {"category": "developer-tools", "created_at": 1772797252786, "description": "Query any ClawHub skill's statistics (stars, downloads, current installs, all-time installs) via curl and the public ClawHub API. Use when: user asks about a...", "description_zh": "", "downloads": 243, "homepage": "https://clawhub.ai/tjefferson/skills-stats", "iconUrl": null, "installs": 6, "name": "Clawhub Skills Stats", "ownerName": "tjefferson", "score": 100000, "slug": "skills-stats", "source": "clawhub", "stars": 1, "tags": null, "updated_at": 1776748971127, "version": "1.1.0"}, {"category": "communication-collaboration", "created_at": 1773074562293, "description": "Personal CRM and relationship graph for OpenClaw. Tracks people, their connections to each other, and what you know about them. Stores everything as Obsidian...", "description_zh": "", "downloads": 243, "homepage": "https://clawhub.ai/gobiraj/people-relationship-map", "iconUrl": null, "installs": 14, "name": "People Relationship Map", "ownerName": "gobiraj", "score": 95636.36363636365, "slug": "people-relationship-map", "source": "clawhub", "stars": 1, "tags": null, "updated_at": 1776748971043, "version": "0.1.0"}, {"category": "ai-intelligence", "created_at": 1772802025570, "description": "Orchestrate parallel execution of batch tasks by splitting work into independent units and dispatching them to multiple subagents simultaneously. Use this sk...", "description_zh": "", "downloads": 243, "homepage": "https://clawhub.ai/brightween/multi-task", "iconUrl": null, "installs": 18, "name": "multi task", "ownerName": "brightween", "score": 99621.21212121213, "slug": "multi-task", "source": "clawhub", "stars": 1, "tags": null, "updated_at": 1776748970529, "version": "1.0.0"}, {"category": "developer-tools", "created_at": 1773885018571, "description": "WordPress REST API integration for managing posts, pages, media, and more on self-hosted WordPress sites. Use when you need to create, update, or retrieve Wo...", "description_zh": "", "downloads": 243, "homepage": "https://clawhub.ai/benkalsky/wordpress-api-skill", "iconUrl": null, "installs": 83, "name": "WordPress API", "ownerName": "benkalsky", "score": 90378.00687285223, "slug": "wordpress-api-skill", "source": "clawhub", "stars": 1, "tags": null, "updated_at": 1776748969832, "version": "3.0.1"}, {"category": "data-analysis", "created_at": 1773065350597, "description": "FTSE 350 trading analysis agent. Screens LSE stocks using technical indicators (Bollinger Bands, RSI, MACD, EMA crossovers, ATR, VWAP, OBV), fetches news for...", "description_zh": "", "downloads": 243, "homepage": "https://clawhub.ai/ankit-aglawe/openclaw-lse-trading-agent", "iconUrl": null, "installs": 38, "name": "Lse Trading Agent", "ownerName": "ankit-aglawe", "score": 19518.072289156626, "slug": "openclaw-lse-trading-agent", "source": "clawhub", "stars": 0, "tags": null, "updated_at": 1776760282686, "version": "0.1.1"}, {"category": "developer-tools", "created_at": 1772804187311, "description": "Set up and use 1Password CLI (op). Use when installing the CLI, enabling desktop app integration, signing in (single or multi-account), or reading/injecting/...", "description_zh": "", "downloads": 243, "homepage": "https://clawhub.ai/littlecrabzzz-alt/test-skill2123", "iconUrl": null, "installs": 14, "name": "test-skill22131", "ownerName": "littlecrabzzz-alt", "score": 87725.63176895307, "slug": "test-skill2123", "source": "clawhub", "stars": 0, "tags": null, "updated_at": 1776759383006, "version": "1.0.0"}, {"category": "communication-collaboration", "created_at": 1773075539581, "description": "Send task notifications to specified Telegram bots in a group to activate their sessions and trigger bot actions.", "description_zh": "", "downloads": 243, "homepage": "https://clawhub.ai/slk1061569042-lab/notify-bot", "iconUrl": null, "installs": 8, "name": "Notify Bot", "ownerName": "slk1061569042-lab", "score": 18381.24054462935, "slug": "notify-bot", "source": "clawhub", "stars": 0, "tags": ["bot", "notification", "telegram"], "updated_at": 1776759382316, "version": "1.0.0"}, {"category": "productivity", "created_at": 1773068351611, "description": "Auto-trade BTC, ETH, SOL, XRP on Polymarket price prediction markets at 5-minute and 15-minute intervals using RSI, MACD, and EMA signals.", "description_zh": "", "downloads": 243, "homepage": "https://clawhub.ai/hyy2099/polymarket-autotrader-hyy", "iconUrl": null, "installs": 32, "name": "Polymarket AutoTrader", "ownerName": "hyy2099", "score": 14889.70588235294, "slug": "polymarket-autotrader-hyy", "source": "clawhub", "stars": 0, "tags": null, "updated_at": 1776756982352, "version": "1.0.0"}, {"category": "developer-tools", "created_at": 1772798790019, "description": "Find available meeting times and free/busy slots for company employees using Microsoft Graph API. Use when user asks to schedule a meeting, find a free slot,...", "description_zh": "", "downloads": 243, "homepage": "https://clawhub.ai/artisong/ms-graph-calendar", "iconUrl": null, "installs": 8, "name": "Ms Graph Calendar", "ownerName": "artisong", "score": 76898.73417721518, "slug": "ms-graph-calendar", "source": "clawhub", "stars": 0, "tags": null, "updated_at": 1776748970888, "version": "1.0.2"}, {"category": "content-creation", "created_at": 1773286526634, "description": "When the user wants to write, rewrite, or improve marketing copy for any page — including homepage, landing pages, pricing pages, feature pages, about pages,...", "description_zh": "", "downloads": 243, "homepage": "https://clawhub.ai/alirezarezvani/cs-copywriting", "iconUrl": null, "installs": 50, "name": "copywriting", "ownerName": "alirezarezvani", "score": 88363.63636363637, "slug": "cs-copywriting", "source": "clawhub", "stars": 0, "tags": null, "updated_at": 1776748970699, "version": "1.0.0"}, {"category": "developer-tools", "created_at": 1773065873958, "description": "Search, browse, compare, find similar products, and buy from millions of online stores. No API Key required.", "description_zh": "", "downloads": 243, "homepage": "https://clawhub.ai/pushmatrix/shop-search", "iconUrl": null, "installs": 17, "name": "Shop Search", "ownerName": "pushmatrix", "score": 92045.45454545454, "slug": "shop-search", "source": "clawhub", "stars": 0, "tags": null, "updated_at": 1776748970477, "version": "0.0.4"}]}