{"page": 276, "total_pages": 522, "total": 26073, "skills": [{"category": "productivity", "created_at": 1772797039316, "description": "Upload files to IPFS, store on Storacha, upload to decentralized storage, check Storacha status, view storage usage, create Storacha space, switch space, lis...", "description_zh": "", "downloads": 243, "homepage": "https://clawhub.ai/adielliot37/storacha-upload", "iconUrl": null, "installs": 8, "name": "Storacha Upload", "ownerName": "adielliot37", "score": 91011.23595505618, "slug": "storacha-upload", "source": "clawhub", "stars": 0, "tags": null, "updated_at": 1776748970405, "version": "1.3.1"}, {"category": "communication-collaboration", "created_at": 1772798341434, "description": "Build a concise “what needs action now” daily brief by aggregating reminders from multiple channels (email, calendar, SMS/iMessage, weather, and task notes)...", "description_zh": "", "downloads": 243, "homepage": "https://clawhub.ai/yikailucas/life-radar", "iconUrl": null, "installs": 8, "name": "Life Radar", "ownerName": "yikailucas", "score": 81818.18181818182, "slug": "life-radar", "source": "clawhub", "stars": 0, "tags": null, "updated_at": 1776748970352, "version": "0.2.0"}, {"category": "data-analysis", "created_at": 1773074598187, "description": "Set up and use EZRouter — unified LLM API with one key for Claude, GPT, and Gemini. 2x credits on every purchase. Native API compatibility for each provider.", "description_zh": "", "downloads": 243, "homepage": "https://clawhub.ai/luntanwang/ezrouter", "iconUrl": null, "installs": 23, "name": "https://openrouter.ezsite.ai  - Unified LLM API — one key for Claude, GPT, Gemini. 2x credits, auto-failover, OpenAI-compatible.", "ownerName": "luntanwang", "score": 81818.18181818182, "slug": "ezrouter", "source": "clawhub", "stars": 0, "tags": null, "updated_at": 1776748970295, "version": "1.0.0"}, {"category": "data-analysis", "created_at": 1773083491068, "description": "Runs bioinformatics analysis with Lobster AI -- single-cell RNA-seq, bulk RNA-seq, genomics (VCF/GWAS), proteomics (mass spec/affinity), metabolomics (LC-MS/...", "description_zh": "", "downloads": 243, "homepage": "https://clawhub.ai/cewinharhar/lobsterbio-use", "iconUrl": null, "installs": 34, "name": "LobsterBio - Use", "ownerName": "cewinharhar", "score": 89667.89667896679, "slug": "lobsterbio-use", "source": "clawhub", "stars": 0, "tags": null, "updated_at": 1776748970261, "version": "1.1.406"}, {"category": "productivity", "created_at": 1773060757277, "description": "OpenClaw Cognitive Operating & Skill Governance Kernel", "description_zh": "", "downloads": 243, "homepage": "https://clawhub.ai/maxime-xian/skill-governance", "iconUrl": null, "installs": 8, "name": "skill-governance", "ownerName": "maxime-xian", "score": 87725.63176895307, "slug": "skill-governance", "source": "clawhub", "stars": 0, "tags": null, "updated_at": 1776748970132, "version": "2.1.0"}, {"category": "developer-tools", "created_at": 1772804215048, "description": "Issue virtual Visa/MC cards funded by USDT. Check balance, get card credentials, fetch OTP codes — all via REST API.", "description_zh": "", "downloads": 243, "homepage": "https://clawhub.ai/elvismusli/agentfin", "iconUrl": null, "installs": 9, "name": "AgentFin", "ownerName": "elvismusli", "score": 89010.98901098901, "slug": "agentfin", "source": "clawhub", "stars": 0, "tags": null, "updated_at": 1776748970067, "version": "1.0.0"}, {"category": "ai-intelligence", "created_at": 1772803619435, "description": "Guide and instructions for using Google Customer Experience Agent Studio (CX Agent Studio). Use when creating conversational agents, writing or structuring i...", "description_zh": "", "downloads": 243, "homepage": "https://clawhub.ai/yash-kavaiya/cx-agent-studio", "iconUrl": null, "installs": 17, "name": "Cx Agent Studio", "ownerName": "yash-kavaiya", "score": 93103.44827586207, "slug": "cx-agent-studio", "source": "clawhub", "stars": 0, "tags": null, "updated_at": 1776748969878, "version": "1.0.0"}, {"category": "security-compliance", "created_at": 1772804706241, "description": "Supernal Coding CLI for development workflows - task management, requirements tracking, testing, git automation, ralph loops, compliance, and documentation....", "description_zh": "", "downloads": 243, "homepage": "https://clawhub.ai/ianderrington/sc", "iconUrl": null, "installs": 9, "name": "Supernal Coding CLI", "ownerName": "ianderrington", "score": 83505.15463917526, "slug": "sc", "source": "clawhub", "stars": 0, "tags": null, "updated_at": 1776748969795, "version": "1.0.0"}, {"category": "ai-intelligence", "created_at": 1773068332555, "description": "This skill should be used when the user wants to configure, spawn, or manage OpenClaw (formerly Clawdbot) subagents. It covers the full setup workflow: editi...", "description_zh": "", "downloads": 243, "homepage": "https://clawhub.ai/vishnukool/openclaw-subagents", "iconUrl": null, "installs": 16, "name": "OpenClaw SubAgents Creator", "ownerName": "vishnukool", "score": 82653.0612244898, "slug": "openclaw-subagents", "source": "clawhub", "stars": 0, "tags": null, "updated_at": 1776748969697, "version": "1.0.0"}, {"category": "content-creation", "created_at": 1773067171609, "description": "Creates layered, comprehensive technical documentation for projects, skills, or systems. Use when user requests 'write technical documentation', 'explain how...", "description_zh": "", "downloads": 243, "homepage": "https://clawhub.ai/liuxxxu/comprehensive-tech-documentation", "iconUrl": null, "installs": 12, "name": "Comprehensive Tech Documentation", "ownerName": "liuxxxu", "score": 82653.0612244898, "slug": "comprehensive-tech-documentation", "source": "clawhub", "stars": 0, "tags": null, "updated_at": 1776748969684, "version": "1.0.0"}, {"category": "developer-tools", "created_at": 1772797057770, "description": "Advanced web search using the Querit API with support for site filtering, time ranges, geolocation, and language targeting.", "description_zh": "", "downloads": 242, "homepage": "https://clawhub.ai/murphyzzzzz/querit-web-search", "iconUrl": null, "installs": 9, "name": "Querit Web Search", "ownerName": "murphyzzzzz", "score": 1267.6292813969105, "slug": "querit-web-search", "source": "clawhub", "stars": 3, "tags": null, "updated_at": 1776770650259, "version": "1.0.1"}, {"category": "developer-tools", "created_at": 1773065939574, "description": "Full Linear project management via native GraphQL API. Superior to shell-script alternatives — auto-resolves identifiers (ENG-42), moves issues by state name...", "description_zh": "", "downloads": 242, "homepage": "https://clawhub.ai/clawdbotworker/linear-agent", "iconUrl": null, "installs": 15, "name": "Linear Agent", "ownerName": "clawdbotworker", "score": 4572.425828970331, "slug": "linear-agent", "source": "clawhub", "stars": 1, "tags": null, "updated_at": 1776769449893, "version": "1.0.2"}, {"category": "productivity", "created_at": 1773218920355, "description": "A comprehensive AI agent skill for acquiring, onboarding, retaining, and growing customers. Helps customer success teams reduce churn, expand revenue, and tu...", "description_zh": "", "downloads": 242, "homepage": "https://clawhub.ai/agistack/customer", "iconUrl": null, "installs": 14, "name": "Customer", "ownerName": "agistack", "score": 13489.409141583055, "slug": "customer", "source": "clawhub", "stars": 0, "tags": ["churn", "customer", "retention", "saas", "success"], "updated_at": 1776764990516, "version": "1.0.0"}, {"category": "content-creation", "created_at": 1773923775302, "description": "One-stop multi-platform video publishing workflow. From video clipping to multi-platform publishing, full process automation. Supports automatic clipping for...", "description_zh": "", "downloads": 242, "homepage": "https://clawhub.ai/earthwalking/video-multi-publish", "iconUrl": null, "installs": 99, "name": "Video Multi-Platform Publish", "ownerName": "earthwalking", "score": 7020.597621119815, "slug": "video-multi-publish", "source": "clawhub", "stars": 0, "tags": ["automation", "multi-platform", "publish", "video", "workflow"], "updated_at": 1776764950598, "version": "1.0.0"}, {"category": "content-creation", "created_at": 1773079603873, "description": "Generate professional product packaging designs using each::sense AI. Create box designs, food packaging, cosmetic containers, beverage labels, supplement bo...", "description_zh": "", "downloads": 242, "homepage": "https://clawhub.ai/eftalyurtseven/packaging-design-generation", "iconUrl": null, "installs": 27, "name": "Packaging Design Generation", "ownerName": "eftalyurtseven", "score": 6742.825299526331, "slug": "packaging-design-generation", "source": "clawhub", "stars": 0, "tags": null, "updated_at": 1776761090122, "version": "1.0.0"}, {"category": "productivity", "created_at": 1773220922377, "description": "Automatically converts music sharing links across Chinese and major international platforms, extracting song details and album artwork for seamless multi-pla...", "description_zh": "", "downloads": 242, "homepage": "https://clawhub.ai/leo7723/music-router", "iconUrl": null, "installs": 7, "name": "MusicRouter", "ownerName": "leo7723", "score": 18154.538634658664, "slug": "music-router", "source": "clawhub", "stars": 0, "tags": null, "updated_at": 1776759382793, "version": "1.0.0"}, {"category": "developer-tools", "created_at": 1773061950382, "description": "Locally scans untrusted text and documents to detect and block prompt injection threats, jailbreaks, exfiltration, and social engineering attacks.", "description_zh": "", "downloads": 242, "homepage": "https://clawhub.ai/jtil4201/guardian-shield", "iconUrl": null, "installs": 11, "name": "Guardian Shield", "ownerName": "jtil4201", "score": 82033.89830508475, "slug": "guardian-shield", "source": "clawhub", "stars": 0, "tags": null, "updated_at": 1776759382674, "version": "1.1.1"}, {"category": "security-compliance", "created_at": 1772805228980, "description": "Search and retrieve podcast and episode details from Podcast Index API using keywords, titles, feed IDs, URLs, or featured persons with authenticated requests.", "description_zh": "", "downloads": 242, "homepage": "https://clawhub.ai/comicstrip/podcastindex", "iconUrl": null, "installs": 6, "name": "PodcastIndex", "ownerName": "comicstrip", "score": 18168.16816816817, "slug": "podcastindex", "source": "clawhub", "stars": 0, "tags": null, "updated_at": 1776759382609, "version": "1.0.0"}, {"category": "ai-intelligence", "created_at": 1773063658990, "description": "Offline-first voice assistant stack for macOS (Wake word + VAD recording + local Whisper ASR + OpenClaw agent response + offline TTS via macOS say). Use to i...", "description_zh": "", "downloads": 242, "homepage": "https://clawhub.ai/ugurozer84/maylo-voice-assistant", "iconUrl": null, "installs": 21, "name": "Maylo Voice Assistant", "ownerName": "ugurozer84", "score": 16678.152997932462, "slug": "maylo-voice-assistant", "source": "clawhub", "stars": 0, "tags": null, "updated_at": 1776758482413, "version": "0.1.0"}, {"category": "ai-intelligence", "created_at": 1773067783101, "description": "When the user wants to generate, iterate, or scale ad creative — headlines, descriptions, primary text, or full ad variations — for any paid advertising plat...", "description_zh": "", "downloads": 242, "homepage": "https://clawhub.ai/mrhuang09/ad-creative", "iconUrl": null, "installs": 31, "name": "Ad Creative", "ownerName": "mrhuang09", "score": 45149.253731343284, "slug": "ad-creative", "source": "clawhub", "stars": 0, "tags": null, "updated_at": 1776754388731, "version": "0.1.0"}, {"category": "ai-intelligence", "created_at": 1773218835276, "description": "Helps users discover and install agent skills when they ask questions like \"how do I do X\", \"find a skill for X\", \"is there a skill that can...\", or express...", "description_zh": "", "downloads": 242, "homepage": "https://clawhub.ai/cp33333333333/find-skills1", "iconUrl": null, "installs": 49, "name": "find-skills", "ownerName": "cp33333333333", "score": 79344.26229508196, "slug": "find-skills1", "source": "clawhub", "stars": 0, "tags": null, "updated_at": 1776749383934, "version": "1.0.0"}, {"category": "data-analysis", "created_at": 1773083735274, "description": "Bitbucket integration. Manage Repositories, Users, Teams. Use when the user wants to interact with Bitbucket data.", "description_zh": "", "downloads": 242, "homepage": "https://clawhub.ai/membranedev/bitbucket", "iconUrl": null, "installs": 11, "name": "Bitbucket", "ownerName": "membranedev", "score": 88000, "slug": "bitbucket", "source": "clawhub", "stars": 0, "tags": null, "updated_at": 1776748971366, "version": "1.0.0"}, {"category": "ai-intelligence", "created_at": 1772804096474, "description": "Accept or apply for a task on OpenAnt. Use when the agent wants to take on work, accept a bounty, apply for a job, pick up a task, or volunteer for an assign...", "description_zh": "", "downloads": 242, "homepage": "https://clawhub.ai/ant-1984/accept-task", "iconUrl": null, "installs": 12, "name": "Accept Task", "ownerName": "ant-1984", "score": 88000, "slug": "accept-task", "source": "clawhub", "stars": 0, "tags": null, "updated_at": 1776748971343, "version": "0.1.2"}, {"category": "data-analysis", "created_at": 1772803216550, "description": "Analyzes wind turbine drivetrain vibration data (main bearing, gearbox, generator) from CMS trends, RMS/peak values, frequency spectrum, and SCADA alarms. Cl...", "description_zh": "", "downloads": 242, "homepage": "https://clawhub.ai/sertug17/vibration-analysis", "iconUrl": null, "installs": 11, "name": "Vibration Analysis", "ownerName": "sertug17", "score": 88000, "slug": "vibration-analysis", "source": "clawhub", "stars": 0, "tags": null, "updated_at": 1776748971324, "version": "1.0.0"}, {"category": "developer-tools", "created_at": 1772802104574, "description": "Generate beautiful bento grid layouts for social media posts. Create Instagram/Twitter cards with statistics, calendars, music visualization, and custom layo...", "description_zh": "", "downloads": 242, "homepage": "https://clawhub.ai/limoxt/bento-grid", "iconUrl": null, "installs": 12, "name": "Bento Grid Generator", "ownerName": "limoxt", "score": 88000, "slug": "bento-grid", "source": "clawhub", "stars": 0, "tags": null, "updated_at": 1776748971301, "version": "1.0.0"}, {"category": "developer-tools", "created_at": 1772803736943, "description": "Captures and logs choices, options, or prompts that the agent evaluated and decided NOT to execute. Use whenever you skip a task, reject an approach, or choo...", "description_zh": "", "downloads": 242, "homepage": "https://clawhub.ai/balkanblbn/rejection-logger", "iconUrl": null, "installs": 6, "name": "Rejection Logger", "ownerName": "balkanblbn", "score": 92015.20912547529, "slug": "rejection-logger", "source": "clawhub", "stars": 0, "tags": null, "updated_at": 1776748971102, "version": "1.1.0"}, {"category": "data-analysis", "created_at": 1772796691164, "description": "Portable agent identity encoding. Compress SOUL.md/MEMORY.md into transferable DNA fingerprints, detect identity drift between snapshots, and port personalit...", "description_zh": "", "downloads": 242, "homepage": "https://clawhub.ai/cassh100k/agent-dna", "iconUrl": null, "installs": 14, "name": "Agent DNA", "ownerName": "cassh100k", "score": 88000, "slug": "agent-dna", "source": "clawhub", "stars": 0, "tags": ["agents", "identity", "memory", "portability"], "updated_at": 1776748971083, "version": "0.1.0"}, {"category": "ai-intelligence", "created_at": 1772798735394, "description": "AI agent infrastructure for deals, escrow, attestations, and autonomous agents. 39 tools across 9 engines.", "description_zh": "", "downloads": 242, "homepage": "https://clawhub.ai/swgoettelman/deal-works-mcp", "iconUrl": null, "installs": 5, "name": "Deal Works Mcp", "ownerName": "swgoettelman", "score": 88000, "slug": "deal-works-mcp", "source": "clawhub", "stars": 0, "tags": null, "updated_at": 1776748971032, "version": "0.1.0"}, {"category": "developer-tools", "created_at": 1773061976446, "description": "Feed lobsters in the Lobster Farmer game by calling the local CLI command `lobster-farmer feed` with `--model`, `--input-tokens`, `--output-tokens`, and opti...", "description_zh": "", "downloads": 242, "homepage": "https://clawhub.ai/murongg/lobster-farmer-feeder", "iconUrl": null, "installs": 8, "name": "Lobster Farmer Feeder", "ownerName": "murongg", "score": 92720.30651340996, "slug": "lobster-farmer-feeder", "source": "clawhub", "stars": 0, "tags": null, "updated_at": 1776748970857, "version": "0.1.2"}, {"category": "productivity", "created_at": 1772804074346, "description": "Turkiye AFAD deprem verisini kullanarak zaman, buyukluk ve bolge filtreli deprem ozeti uretir.", "description_zh": "", "downloads": 242, "homepage": "https://clawhub.ai/barancaki/turkiye-afad-deprem", "iconUrl": null, "installs": 9, "name": "Türkiye AFAD Deprem", "ownerName": "barancaki", "score": 92720.30651340996, "slug": "turkiye-afad-deprem", "source": "clawhub", "stars": 0, "tags": null, "updated_at": 1776748970845, "version": "0.1.0"}, {"category": "developer-tools", "created_at": 1772804305064, "description": "Comprehensive context engineering guidance for AI agent systems. Routes to specialized sub-skills for production agent work. Use when the user asks to: \"opti...", "description_zh": "", "downloads": 242, "homepage": "https://clawhub.ai/levineam/levineam-context-engineering", "iconUrl": null, "installs": 9, "name": "Context Engineering (Koylan)", "ownerName": "levineam", "score": 92720.30651340996, "slug": "levineam-context-engineering", "source": "clawhub", "stars": 0, "tags": null, "updated_at": 1776748970805, "version": "1.0.0"}, {"category": "ai-intelligence", "created_at": 1773075779722, "description": "Aura — The agent-to-agent marketplace for tasks, compute, and storage.", "description_zh": "", "downloads": 242, "homepage": "https://clawhub.ai/therealinvoker/aura-a2a-marketplace", "iconUrl": null, "installs": 21, "name": "Aura Clawhub Skill", "ownerName": "therealinvoker", "score": 88000, "slug": "aura-a2a-marketplace", "source": "clawhub", "stars": 0, "tags": null, "updated_at": 1776748970752, "version": "1.0.4"}, {"category": "ai-intelligence", "created_at": 1772805258600, "description": "Transforms any flat prompt into a structured 8-layer XML prompt using RUNE's semantic engine — delivering ~45% higher quality AI responses. Built on Spinoza'...", "description_zh": "", "downloads": 242, "homepage": "https://clawhub.ai/mrsarac/rune-prompt-amplification", "iconUrl": null, "installs": 13, "name": "RUNE Prompt Amplification", "ownerName": "mrsarac", "score": 88000, "slug": "rune-prompt-amplification", "source": "clawhub", "stars": 0, "tags": null, "updated_at": 1776748970731, "version": "1.0.0"}, {"category": "data-analysis", "created_at": 1773074694615, "description": "Transform AIGC images into a structured visual essay with narrative sequencing, bilingual captions, artist statements, and Instagram-ready packaging.", "description_zh": "", "downloads": 242, "homepage": "https://clawhub.ai/milab-bit/visual-essay-engine", "iconUrl": null, "installs": 14, "name": "Visual Essay Engine", "ownerName": "milab-bit", "score": 66483.51648351648, "slug": "visual-essay-engine", "source": "clawhub", "stars": 0, "tags": null, "updated_at": 1776748970619, "version": "1.0.5"}, {"category": "ai-intelligence", "created_at": 1773073985884, "description": "Generate complete incorporation documents for a new business entity. Use when forming a C-Corp, S-Corp, or LLC in any US state. Produces Articles of Incorpor...", "description_zh": "", "downloads": 242, "homepage": "https://clawhub.ai/juankisugar-creator/ai-powered-business-formation-playbook", "iconUrl": null, "installs": 21, "name": "Incorporate", "ownerName": "juankisugar-creator", "score": 91666.66666666666, "slug": "ai-powered-business-formation-playbook", "source": "clawhub", "stars": 0, "tags": ["business", "incorporation", "legal", "nevada"], "updated_at": 1776748970542, "version": "1.0.2"}, {"category": "communication-collaboration", "created_at": 1772799602675, "description": "Systematic team status tracking via Slack DMs with confidential Obsidian-based internal tracking. Maintains confidentiality while gathering actionable projec...", "description_zh": "", "downloads": 242, "homepage": "https://clawhub.ai/parthpandya1729/team-status-tracker", "iconUrl": null, "installs": 14, "name": "Team Status Tracker", "ownerName": "parthpandya1729", "score": 89298.89298892989, "slug": "team-status-tracker", "source": "clawhub", "stars": 0, "tags": null, "updated_at": 1776748970228, "version": "1.0.3"}, {"category": "ai-intelligence", "created_at": 1773064298682, "description": "Create, manage, and remove periodic hydration reminders via OpenClaw cron jobs. Use when users ask for recurring drink-water reminders (e.g. every 1 minute /...", "description_zh": "", "downloads": 242, "homepage": "https://clawhub.ai/yikailucas/drink-water-reminder-yikailucas", "iconUrl": null, "installs": 15, "name": "Drink Water Reminder", "ownerName": "yikailucas", "score": 88644.68864468863, "slug": "drink-water-reminder-yikailucas", "source": "clawhub", "stars": 0, "tags": null, "updated_at": 1776748970013, "version": "1.0.0"}, {"category": "productivity", "created_at": 1772804322000, "description": "Diagnose and fix model routing conflicts. Ensure primary model uses correct provider endpoint without duplicate overrides.", "description_zh": "", "downloads": 242, "homepage": "https://clawhub.ai/dalomeve/model-route-guard", "iconUrl": null, "installs": 9, "name": "Model Route Guard", "ownerName": "dalomeve", "score": 89962.82527881041, "slug": "model-route-guard", "source": "clawhub", "stars": 0, "tags": null, "updated_at": 1776748969617, "version": "1.0.0"}, {"category": "developer-tools", "created_at": 1772804928557, "description": "Routage automatique vers le modèle optimal selon le type de question (local gratuit vs API payant)", "description_zh": "", "downloads": 242, "homepage": "https://clawhub.ai/thibautnext/auto-router", "iconUrl": null, "installs": 7, "name": "Auto Router", "ownerName": "thibautnext", "score": 86428.57142857143, "slug": "auto-router", "source": "clawhub", "stars": 0, "tags": null, "updated_at": 1776748969529, "version": "1.0.0"}, {"category": "data-analysis", "created_at": 1773067436654, "description": "Guide users through building a custom multi-agent team on OpenClaw — from role design to workspace files, routing bindings, channel configuration, and collab...", "description_zh": "", "downloads": 241, "homepage": "https://clawhub.ai/superjavason/agent-team-builder", "iconUrl": null, "installs": 15, "name": "Agent Team Builder", "ownerName": "superjavason", "score": 94223.82671480144, "slug": "agent-team-builder", "source": "clawhub", "stars": 1, "tags": null, "updated_at": 1776759383077, "version": "0.1.0"}, {"category": "ai-intelligence", "created_at": 1773084428343, "description": "This skills helps agents to review and polish research papers written in LaTeX, focusing on writing clarity, grammar, LaTeX best practices, and document stru...", "description_zh": "", "downloads": 241, "homepage": "https://clawhub.ai/phy041/phy-paper-polish", "iconUrl": null, "installs": 43, "name": "Paper Polish", "ownerName": "phy041", "score": 14285.714285714284, "slug": "phy-paper-polish", "source": "clawhub", "stars": 1, "tags": ["academic", "latex", "review", "writing"], "updated_at": 1776754727128, "version": "1.0.0"}, {"category": "security-compliance", "created_at": 1772797947480, "description": "Use this skill when working with this repository's `bwm` CLI, including Bing Webmaster API key setup, CLI authentication, site listing, traffic stats, URL in...", "description_zh": "", "downloads": 241, "homepage": "https://clawhub.ai/nmadeleidev/bing-webmaster-cli", "iconUrl": null, "installs": 5, "name": "Bing Webmaster CLI", "ownerName": "nmadeleidev", "score": 95955.88235294117, "slug": "bing-webmaster-cli", "source": "clawhub", "stars": 1, "tags": null, "updated_at": 1776748971251, "version": "1.0.0"}, {"category": "data-analysis", "created_at": 1773089188906, "description": "Bitcoin solo mining \"lottery\" skill. Use when users want to (1) mine Bitcoin with CPU for lottery-style chance at blocks, (2) set up or manage BTC wallet for...", "description_zh": "", "downloads": 241, "homepage": "https://clawhub.ai/pkwangwanjun/agent-lottery", "iconUrl": null, "installs": 41, "name": "Agent Lottery", "ownerName": "pkwangwanjun", "score": 99239.54372623574, "slug": "agent-lottery", "source": "clawhub", "stars": 1, "tags": null, "updated_at": 1776748971109, "version": "1.0.0"}, {"category": "productivity", "created_at": 1772805476372, "description": "View your personal task history and status on OpenAnt. Use when the user wants to see their own tasks, check what they've completed, review their task histor...", "description_zh": "", "downloads": 241, "homepage": "https://clawhub.ai/ant-1984/my-tasks", "iconUrl": null, "installs": 6, "name": "My Tasks", "ownerName": "ant-1984", "score": 100000, "slug": "my-tasks", "source": "clawhub", "stars": 1, "tags": null, "updated_at": 1776748970841, "version": "0.1.0"}, {"category": "productivity", "created_at": 1773061005899, "description": "Discover, search, and install from 5,400+ curated OpenClaw skills across 30 categories", "description_zh": "", "downloads": 241, "homepage": "https://clawhub.ai/mohdalhashemi98-hue/awesome-skill", "iconUrl": null, "installs": 27, "name": "Claude Skill", "ownerName": "mohdalhashemi98-hue", "score": 94909.09090909091, "slug": "awesome-skill", "source": "clawhub", "stars": 1, "tags": null, "updated_at": 1776748970711, "version": "1.0.0"}, {"category": "productivity", "created_at": 1773062058214, "description": "Calculate, understand, and improve the unit economics of a solopreneur business. Use when figuring out if the business is actually profitable per customer, w...", "description_zh": "", "downloads": 241, "homepage": "https://clawhub.ai/jk-0001/unit-economics", "iconUrl": null, "installs": 18, "name": "Unit Economics", "ownerName": "jk-0001", "score": 71703.2967032967, "slug": "unit-economics", "source": "clawhub", "stars": 1, "tags": null, "updated_at": 1776748970657, "version": "0.1.0"}, {"category": "developer-tools", "created_at": 1772799748234, "description": "Check balance and transfer Quack tokens via the Quack Network API. Use when checking wallet balance, sending payments, transferring tokens, or managing agent...", "description_zh": "", "downloads": 241, "homepage": "https://clawhub.ai/jpaulgrayson/quack-wallet", "iconUrl": null, "installs": 7, "name": "Quack Wallet", "ownerName": "jpaulgrayson", "score": 3378.1889543033362, "slug": "quack-wallet", "source": "clawhub", "stars": 0, "tags": null, "updated_at": 1776769750124, "version": "1.0.0"}, {"category": "productivity", "created_at": 1773076157962, "description": "Jira integration. Manage project management and ticketing data, records, and workflows. Use when the user wants to interact with Jira data.", "description_zh": "", "downloads": 241, "homepage": "https://clawhub.ai/membranedev/jira-integration", "iconUrl": null, "installs": 8, "name": "Jira", "ownerName": "membranedev", "score": 10954.545454545454, "slug": "jira-integration", "source": "clawhub", "stars": 0, "tags": null, "updated_at": 1776766749848, "version": "1.0.0"}, {"category": "content-creation", "created_at": 1773066706212, "description": "Orchestrate multi-chapter document generation using sub-agents. Use when producing long structured documents (PRDs, technical specs, research reports, design...", "description_zh": "", "downloads": 241, "homepage": "https://clawhub.ai/nicolayao/doc-orchestrator", "iconUrl": null, "installs": 20, "name": "Doc Orchestrator", "ownerName": "nicolayao", "score": 9410.386567746975, "slug": "doc-orchestrator", "source": "clawhub", "stars": 0, "tags": null, "updated_at": 1776762315225, "version": "2.0.0"}, {"category": "security-compliance", "created_at": 1772797609603, "description": "Provide expert guidance on funeral home operations, FTC compliance, state licensing, preneed trust management, cremation rules, pricing strategies, and key p...", "description_zh": "", "downloads": 241, "homepage": "https://clawhub.ai/1kalin/afrexai-funeral-home", "iconUrl": null, "installs": 4, "name": "Funeral Home Operations", "ownerName": "1kalin", "score": 87003.61010830326, "slug": "afrexai-funeral-home", "source": "clawhub", "stars": 0, "tags": ["compliance", "ftc", "funeral", "operations"], "updated_at": 1776759383097, "version": "1.0.0"}]}