{"page": 277, "total_pages": 522, "total": 26073, "skills": [{"category": "communication-collaboration", "created_at": 1773076454602, "description": "Operate a Discord message cleanup workflow with an official bot token and Discord HTTP API. Use when asked to purge guild channel history, delete messages by...", "description_zh": "", "downloads": 241, "homepage": "https://clawhub.ai/ginhoor/discord-purge-bot", "iconUrl": null, "installs": 6, "name": "Discord Purge Bot", "ownerName": "ginhoor", "score": 87003.61010830326, "slug": "discord-purge-bot", "source": "clawhub", "stars": 0, "tags": null, "updated_at": 1776759383089, "version": "0.1.2"}, {"category": "content-creation", "created_at": 1773075004286, "description": "Archive, browse, and manage chat content including links, notes, and images with read/star status and pagination in an IM-native inbox.", "description_zh": "", "downloads": 241, "homepage": "https://clawhub.ai/echoofzion/little-steve-content-inbox", "iconUrl": null, "installs": 19, "name": "Little Steve Content Inbox", "ownerName": "echoofzion", "score": 18093.09309309309, "slug": "little-steve-content-inbox", "source": "clawhub", "stars": 0, "tags": null, "updated_at": 1776759382562, "version": "0.1.5"}, {"category": "data-analysis", "created_at": 1773081550408, "description": "Connect to Supabase for SQL queries, CRUD, table management, and vector similarity search using pgvector extension and OpenAI embeddings.", "description_zh": "", "downloads": 241, "homepage": "https://clawhub.ai/mvanhorn/supabase-db", "iconUrl": null, "installs": 15, "name": "Supabase DB", "ownerName": "mvanhorn", "score": 18079.519879969994, "slug": "supabase-db", "source": "clawhub", "stars": 0, "tags": null, "updated_at": 1776759382460, "version": "1.2.1"}, {"category": "data-analysis", "created_at": 1773060253583, "description": "Manage Solana and Polygon wallets, run Polymarket weather arbitrage, post to X/Twitter, and execute Raydium swaps — all from natural language.", "description_zh": "", "downloads": 241, "homepage": "https://clawhub.ai/inspi-writer001/solana-wallet", "iconUrl": null, "installs": 12, "name": "Solana + Polymarket + X Wallet Agent", "ownerName": "inspi-writer001", "score": 18229.95461422088, "slug": "solana-wallet", "source": "clawhub", "stars": 0, "tags": null, "updated_at": 1776759382338, "version": "1.1.2"}, {"category": "productivity", "created_at": 1772799507959, "description": "An embedded UX research skill that continuously studies how users interact with OpenClaw. It observes conversation patterns, task completions, friction point...", "description_zh": "", "downloads": 241, "homepage": "https://clawhub.ai/giulianomorse/clawsight", "iconUrl": null, "installs": 9, "name": "nutcracker", "ownerName": "giulianomorse", "score": 15100.250626566416, "slug": "clawsight", "source": "clawhub", "stars": 0, "tags": null, "updated_at": 1776757020630, "version": "1.0.0"}, {"category": "content-creation", "created_at": 1773285600416, "description": "Generate, test, and refine short-video hooks for TikTok, Reels, and Shorts with retention-first structure. Use when the user wants stronger openings, better...", "description_zh": "", "downloads": 241, "homepage": "https://clawhub.ai/leooooooow/short-video-hook-lab", "iconUrl": null, "installs": 20, "name": "Short Video Hook Lab", "ownerName": "leooooooow", "score": 14731.051344743277, "slug": "short-video-hook-lab", "source": "clawhub", "stars": 0, "tags": null, "updated_at": 1776756982214, "version": "1.0.3"}, {"category": "developer-tools", "created_at": 1773090772242, "description": "Test-driven development with red-green-refactor loop and de-sloppify pattern. Use when user wants to build features or fix bugs using TDD, mentions \"red-gree...", "description_zh": "", "downloads": 241, "homepage": "https://clawhub.ai/huamu668/tdd-ecc", "iconUrl": null, "installs": 36, "name": "Test Driven Development", "ownerName": "huamu668", "score": 87636.36363636363, "slug": "tdd-ecc", "source": "clawhub", "stars": 0, "tags": ["quality", "tdd", "testing", "workflow"], "updated_at": 1776748971277, "version": "2.0.0"}, {"category": "ai-intelligence", "created_at": 1772797294742, "description": "Get detailed variant information, AI agent findings, and agent annotations from Clarity Protocol. Use when the user asks to get variant details, fold quality...", "description_zh": "", "downloads": 241, "homepage": "https://clawhub.ai/clarityprotocol/clarity-variant", "iconUrl": null, "installs": 14, "name": "Clarity Variant", "ownerName": "clarityprotocol", "score": 88602.94117647059, "slug": "clarity-variant", "source": "clawhub", "stars": 0, "tags": null, "updated_at": 1776748971228, "version": "1.0.0"}, {"category": "communication-collaboration", "created_at": 1773077406383, "description": "Add Feishu (Lark) as a channel. Uses WebSocket long connection — no public URL or ngrok needed. Works alongside WhatsApp, Telegram, Slack, or as a standalone...", "description_zh": "", "downloads": 241, "homepage": "https://clawhub.ai/will-17173/add-feishu", "iconUrl": null, "installs": 18, "name": "Feishu Channel Integration for Nanoclaw​", "ownerName": "will-17173", "score": 87636.36363636363, "slug": "add-feishu", "source": "clawhub", "stars": 0, "tags": null, "updated_at": 1776748971076, "version": "1.0.0"}, {"category": "data-analysis", "created_at": 1772805517490, "description": "Structured multi-criteria decision analysis for ranking options with weights, constraints, confidence, tradeoff reasoning, sensitivity analysis, and explaina...", "description_zh": "", "downloads": 241, "homepage": "https://clawhub.ai/dimgouso/adi-decision-engine", "iconUrl": null, "installs": 12, "name": "ADI Decision Engine", "ownerName": "dimgouso", "score": 87636.36363636363, "slug": "adi-decision-engine", "source": "clawhub", "stars": 0, "tags": null, "updated_at": 1776748971060, "version": "0.1.0"}, {"category": "data-analysis", "created_at": 1772805372834, "description": "Query NFT data, trade on the Seaport marketplace, and swap ERC20 tokens across Ethereum, Base, Arbitrum, Optimism, Polygon, and more.", "description_zh": "", "downloads": 241, "homepage": "https://clawhub.ai/dfinzer/opensea-skill", "iconUrl": null, "installs": 4, "name": "OpenSea", "ownerName": "dfinzer", "score": 76265.82278481012, "slug": "opensea-skill", "source": "clawhub", "stars": 0, "tags": null, "updated_at": 1776748970993, "version": "1.0.3"}, {"category": "developer-tools", "created_at": 1772800313265, "description": "Automated community intelligence gathering for any open-source project or product. Searches Reddit, Hacker News, Twitter/X, GitHub, and YouTube for mentions,...", "description_zh": "", "downloads": 241, "homepage": "https://clawhub.ai/npfaerber/community-intel", "iconUrl": null, "installs": 6, "name": "Community Intel", "ownerName": "npfaerber", "score": 92337.16475095786, "slug": "community-intel", "source": "clawhub", "stars": 0, "tags": null, "updated_at": 1776748970830, "version": "1.1.0"}, {"category": "developer-tools", "created_at": 1772800426622, "description": "Cryptographic identity and coordination for AI agents. Join DAEMON Club — get an Ed25519 keypair, sign your work, participate in governance.", "description_zh": "", "downloads": 241, "homepage": "https://clawhub.ai/andycufari/join-daemon-club", "iconUrl": null, "installs": 6, "name": "DAEMON Club", "ownerName": "andycufari", "score": 91287.87878787878, "slug": "join-daemon-club", "source": "clawhub", "stars": 0, "tags": null, "updated_at": 1776748970538, "version": "0.1.0"}, {"category": "security-compliance", "created_at": 1772797408428, "description": "ShieldAPI — x402 Security Intelligence for AI Agents. 7 endpoints: password breach check (900M+ HIBP hashes), email breach lookup, domain reputation (DNS/bla...", "description_zh": "", "downloads": 241, "homepage": "https://clawhub.ai/alberthild/shieldapi", "iconUrl": null, "installs": 4, "name": "ShieldAPI Security Intelligence", "ownerName": "alberthild", "score": 81144.78114478114, "slug": "shieldapi", "source": "clawhub", "stars": 0, "tags": ["breach", "domain", "intelligence", "ip", "password", "phishing", "security", "url", "x402"], "updated_at": 1776748970312, "version": "0.2.0"}, {"category": "content-creation", "created_at": 1773067741101, "description": "Migrate N8N/Zapier/Make workflows to production-grade Python or Node.js scripts. Given a workflow description or paste, rewrites automation logic with retry,...", "description_zh": "", "downloads": 241, "homepage": "https://clawhub.ai/kevdogg102396-afk/workflow-migrate", "iconUrl": null, "installs": 23, "name": "workflow-migrate", "ownerName": "kevdogg102396-afk", "score": 81972.78911564626, "slug": "workflow-migrate", "source": "clawhub", "stars": 0, "tags": ["automation", "migration", "nodejs", "python"], "updated_at": 1776748969766, "version": "1.0.0"}, {"category": "data-analysis", "created_at": 1772798366200, "description": "Polymarket prediction markets: analytics, trading, hot markets, price movements, top traders, and market search. Powered by prob.trade.", "description_zh": "", "downloads": 241, "homepage": "https://clawhub.ai/vlprosvirkin/openclaw-skill-publish", "iconUrl": null, "installs": 14, "name": "Openclaw Skill Publish", "ownerName": "vlprosvirkin", "score": 89591.0780669145, "slug": "openclaw-skill-publish", "source": "clawhub", "stars": 0, "tags": null, "updated_at": 1776748969665, "version": "2.0.4"}, {"category": "developer-tools", "created_at": 1772798838363, "description": "Detects and flags wash trades in NFT transaction data using 7 confidence-weighted patterns, protecting all downstream scoring and signals from artificial inf...", "description_zh": "", "downloads": 241, "homepage": "https://clawhub.ai/paperbuddha/wash-trade-detector", "iconUrl": null, "installs": 7, "name": "Wash-Trade-Detector", "ownerName": "paperbuddha", "score": 89591.0780669145, "slug": "wash-trade-detector", "source": "clawhub", "stars": 0, "tags": null, "updated_at": 1776748969610, "version": "1.0.4"}, {"category": "ai-intelligence", "created_at": 1773079989744, "description": "Automatically select and use the best AI model for any task based on task type. ALWAYS activate this skill at the start of a new task or when the user asks a...", "description_zh": "", "downloads": 240, "homepage": "https://clawhub.ai/joyyyced/auto-model-router", "iconUrl": null, "installs": 30, "name": "Auto Model Router", "ownerName": "joyyyced", "score": 94545.45454545454, "slug": "auto-model-router", "source": "clawhub", "stars": 1, "tags": null, "updated_at": 1776748970771, "version": "0.1.1"}, {"category": "security-compliance", "created_at": 1772802822501, "description": "Comprehensive automation suite combining multiple OpenClaw skills for security, development, content processing, and utilities. Includes healthcheck, git ess...", "description_zh": "", "downloads": 240, "homepage": "https://clawhub.ai/bestrocky/multi-skill-automation-suite", "iconUrl": null, "installs": 5, "name": "Multi-Skill Automation Suite", "ownerName": "bestrocky", "score": 87542.08754208754, "slug": "multi-skill-automation-suite", "source": "clawhub", "stars": 1, "tags": null, "updated_at": 1776748970343, "version": "1.0.0"}, {"category": "data-analysis", "created_at": 1772798856054, "description": "Analyze model training or inference resource behavior from profiler artifacts, with focus on GPU memory (VRAM) and CPU hotspots. Uses JSON/JSON.GZ artifacts...", "description_zh": "", "downloads": 240, "homepage": "https://clawhub.ai/daiwk/model-resource-profiler", "iconUrl": null, "installs": 14, "name": "Model Resource Profiler", "ownerName": "daiwk", "score": 87542.08754208754, "slug": "model-resource-profiler", "source": "clawhub", "stars": 1, "tags": null, "updated_at": 1776748970273, "version": "0.1.1"}, {"category": "productivity", "created_at": 1773076983265, "description": "Pinboard bookmark management — tag audit, dead link detection, and timeliness check. Triggers on \"pinboard\", \"bookmark\", \"tag audit\", \"dead link\", \"timelines...", "description_zh": "", "downloads": 240, "homepage": "https://clawhub.ai/niracler/nini-pinboard-manager", "iconUrl": null, "installs": 6, "name": "Pinboard Manager", "ownerName": "niracler", "score": 89347.0790378007, "slug": "nini-pinboard-manager", "source": "clawhub", "stars": 1, "tags": null, "updated_at": 1776748969818, "version": "0.1.2"}, {"category": "content-creation", "created_at": 1773284873779, "description": "Design, structure, and improve proposals for sales, services, partnerships, projects, and strategic opportunities. Use when someone needs to turn interest in...", "description_zh": "", "downloads": 240, "homepage": "https://clawhub.ai/depinhq/proposal", "iconUrl": null, "installs": 8, "name": "Proposal", "ownerName": "depinhq", "score": 1981.833195706028, "slug": "proposal", "source": "clawhub", "stars": 0, "tags": ["offers", "pricing", "proposal", "sales", "scope"], "updated_at": 1776770049936, "version": "2.0.0"}, {"category": "developer-tools", "created_at": 1772803866063, "description": "Manages macOS Calendar events and calendars from the terminal using the ical CLI. Full CRUD for both events and calendars. Supports natural language dates, r...", "description_zh": "", "downloads": 240, "homepage": "https://clawhub.ai/bro3886/ical-cli", "iconUrl": null, "installs": 9, "name": "ical", "ownerName": "bro3886", "score": 12578.616352201258, "slug": "ical-cli", "source": "clawhub", "stars": 0, "tags": null, "updated_at": 1776769150066, "version": "0.6.0"}, {"category": "data-analysis", "created_at": 1773202347886, "description": "AI-native ERP system. Full accounting, invoicing, inventory, purchasing, tax, billing, HR, payroll, advanced accounting (ASC 606/842, intercompany, consolida...", "description_zh": "", "downloads": 240, "homepage": "https://clawhub.ai/mailnike/erp-claw", "iconUrl": null, "installs": 35, "name": "Erp Claw", "ownerName": "mailnike", "score": 2136.942391594693, "slug": "erp-claw", "source": "clawhub", "stars": 0, "tags": null, "updated_at": 1776767350073, "version": "3.1.2"}, {"category": "", "created_at": 1774874590400, "description": "Self-reflection + Self-criticism + Self-learning + Self-organizing memory. Agent evaluates its own work, catches mistakes, and improves permanently. Use when...", "description_zh": "", "downloads": 240, "homepage": "https://clawhub.ai/keyserkazi1/self-improving-100", "iconUrl": null, "installs": 93, "name": "Self improving", "ownerName": "keyserkazi1", "score": 4773.26968973747, "slug": "self-improving-100", "source": "clawhub", "stars": 0, "tags": null, "updated_at": 1776765850042, "version": "1.0.0"}, {"category": "productivity", "created_at": 1773084295328, "description": "Create standardized Java Spring Boot + Vue3 full-stack project structure", "description_zh": "", "downloads": 240, "homepage": "https://clawhub.ai/superchao9/fullstack-project-creator", "iconUrl": null, "installs": 35, "name": "fullstack-project-creator", "ownerName": "superchao9", "score": 1285.6913269405902, "slug": "fullstack-project-creator", "source": "clawhub", "stars": 0, "tags": null, "updated_at": 1776762345363, "version": "1.0.0"}, {"category": "data-analysis", "created_at": 1773061153167, "description": "Finds trending YouTube outlier videos by niche, analyzes key concepts, saves data to Google Sheets, and posts summaries to Discord.", "description_zh": "", "downloads": 240, "homepage": "https://clawhub.ai/dalime/youtube-outlier-skill", "iconUrl": null, "installs": 14, "name": "Youtube Outlier Skill", "ownerName": "dalime", "score": 86642.59927797834, "slug": "youtube-outlier-skill", "source": "clawhub", "stars": 0, "tags": null, "updated_at": 1776759382998, "version": "1.0.1"}, {"category": "productivity", "created_at": 1773222151026, "description": "This skill should be used when the user asks to 'start a grid bot', 'create a grid bot', 'stop the grid bot', 'show my grid bots', 'grid bot status', 'grid b...", "description_zh": "", "downloads": 240, "homepage": "https://clawhub.ai/numpy0001/okx-cex-bot", "iconUrl": null, "installs": 19, "name": "okx-cex-bot", "ownerName": "numpy0001", "score": 16724.73867595819, "slug": "okx-cex-bot", "source": "clawhub", "stars": 0, "tags": null, "updated_at": 1776759382823, "version": "1.2.1"}, {"category": "developer-tools", "created_at": 1773076442443, "description": "Enable fast, free real-time web search and access premium data from trusted media brands—news, financial markets, sports, entertainment, weather, and more. B...", "description_zh": "", "downloads": 240, "homepage": "https://clawhub.ai/amaan-ai20/dappier-search", "iconUrl": null, "installs": 19, "name": "Dappier", "ownerName": "amaan-ai20", "score": 15047.021943573669, "slug": "dappier-search", "source": "clawhub", "stars": 0, "tags": null, "updated_at": 1776759382747, "version": "0.1.0"}, {"category": "developer-tools", "created_at": 1773904453301, "description": "Rust-based browser automation using local Chrome for ultra-fast DOM extraction, session management, screenshots, scraping, and site structure analysis.", "description_zh": "", "downloads": 240, "homepage": "https://clawhub.ai/yujinlong001/fast-browser-use-local", "iconUrl": null, "installs": 65, "name": "Fast Browser Use Local", "ownerName": "yujinlong001", "score": 81355.93220338984, "slug": "fast-browser-use-local", "source": "clawhub", "stars": 0, "tags": null, "updated_at": 1776759382685, "version": "1.0.0"}, {"category": "data-analysis", "created_at": 1773065012925, "description": "Enable AI agents to create Bitcoin Lightning payment orders, generate invoices, check payment status, and manage payments via natural language with SatsRail...", "description_zh": "", "downloads": 240, "homepage": "https://clawhub.ai/rubytuess/satsrail-mcp", "iconUrl": null, "installs": 16, "name": "SatsRail MCP — Bitcoin Lightning Payments for AI Agents", "ownerName": "rubytuess", "score": 18018.018018018018, "slug": "satsrail-mcp", "source": "clawhub", "stars": 0, "tags": ["bitcoin", "lightning", "mcp", "payments", "satsrail"], "updated_at": 1776759382610, "version": "1.0.0"}, {"category": "ai-intelligence", "created_at": 1773067070072, "description": "Query the RAG knowledge base (Qdrant kb_main) by semantic search. Returns top-k chunks with text, doc_id, source, text_type, topic_tags.", "description_zh": "", "downloads": 240, "homepage": "https://clawhub.ai/seal-re/rag-query", "iconUrl": null, "installs": 14, "name": "rag-query", "ownerName": "seal-re", "score": 18004.50112528132, "slug": "rag-query", "source": "clawhub", "stars": 0, "tags": null, "updated_at": 1776759382438, "version": "1.0.1"}, {"category": "content-creation", "created_at": 1772801845945, "description": "Retrieve Solana token data, community content, market sentiment, watchlists, and perform token-related actions via OpenDEX API endpoints.", "description_zh": "", "downloads": 240, "homepage": "https://clawhub.ai/solpenguin/opendex", "iconUrl": null, "installs": 11, "name": "OpenDEX Solana Token API", "ownerName": "solpenguin", "score": 18072.289156626506, "slug": "opendex", "source": "clawhub", "stars": 0, "tags": null, "updated_at": 1776759382225, "version": "1.0.0"}, {"category": "data-analysis", "created_at": 1773076491337, "description": "Monitors and restarts OpenClaw Gateway 24/7 by downloading and running an external watchdog script to ensure continuous operation.", "description_zh": "", "downloads": 240, "homepage": "https://clawhub.ai/adminlove520/gateway-watchdog-xiaoxi", "iconUrl": null, "installs": 5, "name": "Gateway Watchdog", "ownerName": "adminlove520", "score": 18072.289156626506, "slug": "gateway-watchdog-xiaoxi", "source": "clawhub", "stars": 0, "tags": ["7x24", "gateway", "stability", "watchdog"], "updated_at": 1776759382220, "version": "1.0.0"}, {"category": "productivity", "created_at": 1773064562838, "description": "Scaffolds new skills safely in the workspace by creating skill folders, generating SKILL.md and minimal files, and verifying skill registration.", "description_zh": "", "downloads": 240, "homepage": "https://clawhub.ai/runaway001/henry-skill-installer", "iconUrl": null, "installs": 12, "name": "Henry Skill Installer", "ownerName": "runaway001", "score": 1986.9194469740871, "slug": "henry-skill-installer", "source": "clawhub", "stars": 0, "tags": null, "updated_at": 1776759382198, "version": "1.0.0"}, {"category": "data-analysis", "created_at": 1773920407673, "description": "Trades Polymarket prediction markets on FDA drug approvals, biotech IPOs, clinical trial outcomes, pharma M&A, and precision medicine milestones. Use when yo...", "description_zh": "", "downloads": 240, "homepage": "https://clawhub.ai/diagnostikon/polymarket-biotech-trader", "iconUrl": null, "installs": 81, "name": "Biotech & FDA Trader", "ownerName": "diagnostikon", "score": 14696.87691365585, "slug": "polymarket-biotech-trader", "source": "clawhub", "stars": 0, "tags": null, "updated_at": 1776756982705, "version": "1.0.1"}, {"category": "developer-tools", "created_at": 1773949328240, "description": "A fast Rust-based headless browser automation CLI with Node.js fallback that enables AI agents to navigate, click, type, and snapshot pages via structured co...", "description_zh": "", "downloads": 240, "homepage": "https://clawhub.ai/tianjin-ren/agent-browser-tianjin", "iconUrl": null, "installs": 122, "name": "Agent Browser Tianjin", "ownerName": "tianjin-ren", "score": 13015.184381778741, "slug": "agent-browser-tianjin", "source": "clawhub", "stars": 0, "tags": null, "updated_at": 1776754688489, "version": "0.2.0"}, {"category": "communication-collaboration", "created_at": 1773074511852, "description": "HubSpot integration. Manage crm and marketing automation data, records, and workflows. Use when the user wants to interact with HubSpot data.", "description_zh": "", "downloads": 240, "homepage": "https://clawhub.ai/membranedev/hubspot-integration", "iconUrl": null, "installs": 9, "name": "Hubspot", "ownerName": "membranedev", "score": 88235.29411764706, "slug": "hubspot-integration", "source": "clawhub", "stars": 0, "tags": null, "updated_at": 1776748971195, "version": "1.0.4"}, {"category": "ai-intelligence", "created_at": 1772798504966, "description": "Cast agent votes on protein folding hypotheses via Clarity Protocol. Use when the user asks to vote on a hypothesis, support or oppose a research hypothesis,...", "description_zh": "", "downloads": 240, "homepage": "https://clawhub.ai/clarityprotocol/clarity-vote", "iconUrl": null, "installs": 13, "name": "Clarity Vote", "ownerName": "clarityprotocol", "score": 91254.75285171103, "slug": "clarity-vote", "source": "clawhub", "stars": 0, "tags": null, "updated_at": 1776748971161, "version": "1.0.0"}, {"category": "developer-tools", "created_at": 1773061988677, "description": "Track and recall your daily activities including git commits, web browsing, shell commands, and VS Code edits. Use this skill whenever the user asks about th...", "description_zh": "", "downloads": 240, "homepage": "https://clawhub.ai/billhandsome52/palest-ink", "iconUrl": null, "installs": 8, "name": "Palest Ink - Activity Tracker", "ownerName": "billhandsome52", "score": 91254.75285171103, "slug": "palest-ink", "source": "clawhub", "stars": 0, "tags": null, "updated_at": 1776748971099, "version": "0.1.0"}, {"category": "developer-tools", "created_at": 1773061492311, "description": "Bash CLI wrapper and OpenClaw skill for Massive's public REST API. Use when Codex or an OpenClaw agent needs to query Massive market-data endpoints from a sh...", "description_zh": "", "downloads": 240, "homepage": "https://clawhub.ai/oscraters/massive", "iconUrl": null, "installs": 7, "name": "Massive.com CLI", "ownerName": "oscraters", "score": 87272.72727272726, "slug": "massive", "source": "clawhub", "stars": 0, "tags": null, "updated_at": 1776748971078, "version": "1.0.1"}, {"category": "developer-tools", "created_at": 1773084071705, "description": "Run Cursor Agent CLI for coding tasks — writing, editing, refactoring, reviewing, or planning code — without spending OpenClaw API credits. Use when the user...", "description_zh": "", "downloads": 240, "homepage": "https://clawhub.ai/albinati/cursor-agent-openclaw", "iconUrl": null, "installs": 13, "name": "Cursor Agent for OpenClaw", "ownerName": "albinati", "score": 75949.3670886076, "slug": "cursor-agent-openclaw", "source": "clawhub", "stars": 0, "tags": null, "updated_at": 1776748970986, "version": "1.0.2"}, {"category": "productivity", "created_at": 1773283668586, "description": "High-performance SpacetimeDB memory integration for OpenClaw. Replaces static file memory with a lightning-fast WebAssembly-powered mind-vault running on a l...", "description_zh": "", "downloads": 240, "homepage": "https://clawhub.ai/kennethrajsimon/spacetime-memory", "iconUrl": null, "installs": 12, "name": "SpacetimeDB Memory", "ownerName": "kennethrajsimon", "score": 75949.3670886076, "slug": "spacetime-memory", "source": "clawhub", "stars": 0, "tags": null, "updated_at": 1776748970900, "version": "1.1.7"}, {"category": "data-analysis", "created_at": 1772803709501, "description": "Operational commands - dashboards, monitoring, and management for OpenClaw deployments.", "description_zh": "", "downloads": 240, "homepage": "https://clawhub.ai/homeofe/openclaw-ops-elvatis", "iconUrl": null, "installs": 13, "name": "OpenClaw Ops", "ownerName": "homeofe", "score": 65934.06593406593, "slug": "openclaw-ops-elvatis", "source": "clawhub", "stars": 0, "tags": null, "updated_at": 1776748970555, "version": "0.2.1"}, {"category": "security-compliance", "created_at": 1772805320387, "description": "Build and maintain Convex backends with schema-safe modeling, query and mutation patterns, auth guards, and production rollout checks.", "description_zh": "", "downloads": 240, "homepage": "https://clawhub.ai/ivangdavila/convex", "iconUrl": null, "installs": 14, "name": "Convex", "ownerName": "ivangdavila", "score": 89887.6404494382, "slug": "convex", "source": "clawhub", "stars": 0, "tags": null, "updated_at": 1776748970438, "version": "1.0.0"}, {"category": "ai-intelligence", "created_at": 1773075151881, "description": "Generate a clean WhatsApp pairing QR code PNG from a running OpenClaw agent and deliver it to the user via any channel. Use when a user asks to link WhatsApp...", "description_zh": "", "downloads": 240, "homepage": "https://clawhub.ai/seanblanchfield/jentic-whatsapp-qr", "iconUrl": null, "installs": 18, "name": "Jentic WhatsApp QR", "ownerName": "seanblanchfield", "score": 89887.6404494382, "slug": "jentic-whatsapp-qr", "source": "clawhub", "stars": 0, "tags": null, "updated_at": 1776748970403, "version": "1.3.0"}, {"category": "ai-intelligence", "created_at": 1773289897965, "description": "OpenClaw-native v2 protocol for spec-first multi-agent delivery. Use when you need 2+ agents with explicit phase control, dual review gates, bounded retry/ci...", "description_zh": "", "downloads": 240, "homepage": "https://clawhub.ai/hakityc/multi-agent-protocol", "iconUrl": null, "installs": 19, "name": "Multi Agent Protocol", "ownerName": "hakityc", "score": 88560.88560885609, "slug": "multi-agent-protocol", "source": "clawhub", "stars": 0, "tags": null, "updated_at": 1776748970205, "version": "2.0.0"}, {"category": "data-analysis", "created_at": 1772800603022, "description": "Integrate Stripe usage-based billing with idempotent event ingestion, late-event handling, and pre-invoice reconciliation. Use when implementing usage meteri...", "description_zh": "", "downloads": 240, "homepage": "https://clawhub.ai/geminimir/stripemeter", "iconUrl": null, "installs": 8, "name": "Stripemeter", "ownerName": "geminimir", "score": 86642.59927797834, "slug": "stripemeter", "source": "clawhub", "stars": 0, "tags": null, "updated_at": 1776748970166, "version": "0.1.0"}, {"category": "developer-tools", "created_at": 1773061981819, "description": "Memory augmentation and LLM call interception using the Memori Python library with optional Zhipu API integration.", "description_zh": "", "downloads": 240, "homepage": "https://clawhub.ai/ian-at/memori-extension", "iconUrl": null, "installs": 17, "name": "memori-extension", "ownerName": "ian-at", "score": 81632.6530612245, "slug": "memori-extension", "source": "clawhub", "stars": 0, "tags": null, "updated_at": 1776748969713, "version": "1.0.2"}, {"category": "security-compliance", "created_at": 1773424538656, "description": "MO§ES™ Governance Harness — constitutional enforcement layer for AI agents. Modes, postures, roles, SHA-256 audit chain, lineage custody, signing gate, commi...", "description_zh": "", "downloads": 240, "homepage": "https://clawhub.ai/sunrisesillneversee/moses-governance", "iconUrl": null, "installs": 10, "name": "Moses Governance", "ownerName": "sunrisesillneversee", "score": 81632.6530612245, "slug": "moses-governance", "source": "clawhub", "stars": 0, "tags": ["archival", "audit", "constitution", "governance", "harness", "lineage", "multi-agent", "safety"], "updated_at": 1776748969711, "version": "0.5.6"}]}