{"page": 278, "total_pages": 522, "total": 26073, "skills": [{"category": "ai-intelligence", "created_at": 1772796740544, "description": "Remove signs of AI-generated writing from text. Use when editing or reviewing text to make it sound more natural and human-written. Based on Wikipedia's comp...", "description_zh": "", "downloads": 240, "homepage": "https://clawhub.ai/mahendernath/humanizer-3", "iconUrl": null, "installs": 11, "name": "Humanizer", "ownerName": "mahendernath", "score": 89219.33085501859, "slug": "humanizer-3", "source": "clawhub", "stars": 0, "tags": null, "updated_at": 1776748969601, "version": "0.1.0"}, {"category": "ai-intelligence", "created_at": 1773068119278, "description": "Get your AI agent on AgentCast - create a Farcaster account and register on the ERC-8004 identity registry on Base. Tracks agent casts and on-chain transacti...", "description_zh": "", "downloads": 239, "homepage": "https://clawhub.ai/sebayaki/agentcast", "iconUrl": null, "installs": 15, "name": "Agentcast", "ownerName": "sebayaki", "score": 17691.256830601094, "slug": "agentcast", "source": "clawhub", "stars": 1, "tags": null, "updated_at": 1776759383135, "version": "1.0.2"}, {"category": "ai-intelligence", "created_at": 1773063422385, "description": "Structured long-term memory for AI agents with fact curation, conflict detection, importance scoring, timeline reconstruction, and OpenClaw integration.", "description_zh": "", "downloads": 239, "homepage": "https://clawhub.ai/blue8x/mindclaw", "iconUrl": null, "installs": 18, "name": "MindClaw", "ownerName": "blue8x", "score": 18048.780487804877, "slug": "mindclaw", "source": "clawhub", "stars": 1, "tags": ["agent-tool", "knowledge-graph", "mcp", "memory", "openclaw-native"], "updated_at": 1776759382843, "version": "0.3.1"}, {"category": "security-compliance", "created_at": 1773078625033, "description": "Diagnoses and troubleshoots OpenClaw config, channel, group message, cron job, and authentication issues using logs and built-in knowledge base.", "description_zh": "", "downloads": 239, "homepage": "https://clawhub.ai/cooperun/openclaw-diagnostics", "iconUrl": null, "installs": 10, "name": "OpenClaw Diagnostics", "ownerName": "cooperun", "score": 19444.444444444445, "slug": "openclaw-diagnostics", "source": "clawhub", "stars": 1, "tags": null, "updated_at": 1776759382577, "version": "1.0.0"}, {"category": "ai-intelligence", "created_at": 1773290887508, "description": "Sync encrypted Apple Health data from an iOS device (iPhone, iPad) to OpenClaw.", "description_zh": "", "downloads": 239, "homepage": "https://clawhub.ai/lukasosterheider/apple-health-sync", "iconUrl": null, "installs": 22, "name": "Apple Health Sync", "ownerName": "lukasosterheider", "score": 100000, "slug": "apple-health-sync", "source": "clawhub", "stars": 1, "tags": null, "updated_at": 1776749085075, "version": "0.7.2"}, {"category": "developer-tools", "created_at": 1773073782859, "description": "Schedule and manage social media posts across 13 platforms from the CLI", "description_zh": "", "downloads": 239, "homepage": "https://clawhub.ai/mikipalet/late-cli", "iconUrl": null, "installs": 6, "name": "Late CLI", "ownerName": "mikipalet", "score": 96641.79104477611, "slug": "late-cli", "source": "clawhub", "stars": 1, "tags": null, "updated_at": 1776749084136, "version": "1.0.0"}, {"category": "developer-tools", "created_at": 1772797882472, "description": "Pre-production validation gate for Vercel/Supabase/Firebase stack — generates test plans, executes test suites, validates APIs, UI, toasts, LLM output qualit...", "description_zh": "", "downloads": 239, "homepage": "https://clawhub.ai/guifav/qa-gate-vercel", "iconUrl": null, "installs": 5, "name": "Qa Gate Vercel", "ownerName": "guifav", "score": 5326.498774236684, "slug": "qa-gate-vercel", "source": "clawhub", "stars": 0, "tags": null, "updated_at": 1776767990454, "version": "0.1.0"}, {"category": "developer-tools", "created_at": 1773083802631, "description": "Interact with GitHub using the `gh` CLI. Use `gh issue`, `gh pr`, `gh run`, and `gh api` for issues, PRs, CI runs, and advanced queries.", "description_zh": "", "downloads": 239, "homepage": "https://clawhub.ai/zhengxinjipai/github-cli-tool", "iconUrl": null, "installs": 27, "name": "GitHub CLI", "ownerName": "zhengxinjipai", "score": 2488.8055815890866, "slug": "github-cli-tool", "source": "clawhub", "stars": 0, "tags": null, "updated_at": 1776767397375, "version": "1.0.0"}, {"category": "content-creation", "created_at": 1773906426043, "description": "Enable automated publishing, media upload, draft management, and status querying for WeChat Official Account articles via WeChat MP API integration.", "description_zh": "", "downloads": 239, "homepage": "https://clawhub.ai/ryan32382/wechat-mp-publisher-zhizi", "iconUrl": null, "installs": 55, "name": "Wechat Mp Publisher", "ownerName": "ryan32382", "score": 3196.041722385665, "slug": "wechat-mp-publisher-zhizi", "source": "clawhub", "stars": 0, "tags": null, "updated_at": 1776766450135, "version": "2.0.3"}, {"category": "data-analysis", "created_at": 1773079460095, "description": "Facilita desarrollo estructurado con sub-agentes para features, refactors grandes y cambios multi-archivo siguiendo diseño aprobado y TDD.", "description_zh": "", "downloads": 239, "homepage": "https://clawhub.ai/elcanoclaw/elcano-superpowers", "iconUrl": null, "installs": 25, "name": "Elcano Superpowers", "ownerName": "elcanoclaw", "score": 17929.482370592646, "slug": "elcano-superpowers", "source": "clawhub", "stars": 0, "tags": null, "updated_at": 1776759382815, "version": "1.0.0"}, {"category": "developer-tools", "created_at": 1773076630714, "description": "Manage and standardize trading decision records, extract lessons, and support history retrieval and comparison within the PAI trading system.", "description_zh": "", "downloads": 239, "homepage": "https://clawhub.ai/wuzimaki/trading-memory-management", "iconUrl": null, "installs": 4, "name": "Memory Management", "ownerName": "wuzimaki", "score": 1336.315348057031, "slug": "trading-memory-management", "source": "clawhub", "stars": 0, "tags": null, "updated_at": 1776759382695, "version": "1.0.0"}, {"category": "productivity", "created_at": 1773060121540, "description": "🦈 YieldShark - DeFi stablecoin yield monitor with real-time APY tracking across 50+ platforms", "description_zh": "", "downloads": 239, "homepage": "https://clawhub.ai/gztanht/yield-shark", "iconUrl": null, "installs": 8, "name": "Yield Shark", "ownerName": "gztanht", "score": 17942.942942942944, "slug": "yield-shark", "source": "clawhub", "stars": 0, "tags": null, "updated_at": 1776759382579, "version": "1.0.6"}, {"category": "data-analysis", "created_at": 1773066420159, "description": "Comprehensive Danish News RSS Aggregator - combines 100+ Danish RSS feeds into category-based unified feeds. Produces 6 curated RSS feeds: - danish-all.xml (...", "description_zh": "", "downloads": 239, "homepage": "https://clawhub.ai/broedkrummen/danish-news-feeds", "iconUrl": null, "installs": 9, "name": "Danish News Feeds", "ownerName": "broedkrummen", "score": 1393.4235074626865, "slug": "danish-news-feeds", "source": "clawhub", "stars": 0, "tags": ["aggregator", "denmark", "feeds", "news", "rss"], "updated_at": 1776759382384, "version": "1.0.0"}, {"category": "productivity", "created_at": 1772804290910, "description": "Request expert help by submitting queries to the HeySummon platform, which routes them to registered human providers for assistance.", "description_zh": "", "downloads": 239, "homepage": "https://clawhub.ai/thomasansems/heysummon", "iconUrl": null, "installs": 6, "name": "Hey summon", "ownerName": "thomasansems", "score": 17996.987951807227, "slug": "heysummon", "source": "clawhub", "stars": 0, "tags": null, "updated_at": 1776759382257, "version": "0.1.0-beta"}, {"category": "developer-tools", "created_at": 1773076741588, "description": "Delegate coding tasks to Cursor Agent CLI. Use when: (1) building/creating new features or apps, (2) reviewing PRs (spawn in temp dir), (3) refactoring large...", "description_zh": "", "downloads": 239, "homepage": "https://clawhub.ai/rare/cursor-cli-agent", "iconUrl": null, "installs": 1, "name": "Cursor CLI Agent", "ownerName": "rare", "score": 12345.04132231405, "slug": "cursor-cli-agent", "source": "clawhub", "stars": 0, "tags": ["agent", "cli", "coding", "cursor"], "updated_at": 1776753884093, "version": "1.1.0"}, {"category": "ai-intelligence", "created_at": 1772805572379, "description": "Create a new task with a crypto bounty on OpenAnt. Use when the agent or user wants to post a job, create a bounty, hire someone, post work, or use AI to par...", "description_zh": "", "downloads": 239, "homepage": "https://clawhub.ai/ant-1984/create-task", "iconUrl": null, "installs": 13, "name": "Create Task", "ownerName": "ant-1984", "score": 85971.22302158273, "slug": "create-task", "source": "clawhub", "stars": 0, "tags": null, "updated_at": 1776749085470, "version": "0.1.2"}, {"category": "data-analysis", "created_at": 1772802621077, "description": "DeFi tools for portfolio analysis, token search, and swap execution via Elsa API with x402 micropayments", "description_zh": "", "downloads": 239, "homepage": "https://clawhub.ai/justjkk/elsa-x402-api", "iconUrl": null, "installs": 8, "name": "Elsa x402 API", "ownerName": "justjkk", "score": 95600, "slug": "elsa-x402-api", "source": "clawhub", "stars": 0, "tags": null, "updated_at": 1776749085122, "version": "1.0.0"}, {"category": "developer-tools", "created_at": 1773066009546, "description": "Query up-to-date library documentation and code examples using Context7 MCP. Use when you need current, version-specific documentation for npm packages, Pyth...", "description_zh": "", "downloads": 239, "homepage": "https://clawhub.ai/jolestar/context7-mcp-skill", "iconUrl": null, "installs": 17, "name": "Context7 MCP Skill", "ownerName": "jolestar", "score": 79666.66666666666, "slug": "context7-mcp-skill", "source": "clawhub", "stars": 0, "tags": null, "updated_at": 1776749084637, "version": "1.0.0"}, {"category": "ai-intelligence", "created_at": 1773076607276, "description": "Fetch any URL as clean, AI-ready Markdown with token counts and caching. Strip ads, nav, scripts, and noise from web pages.", "description_zh": "", "downloads": 239, "homepage": "https://clawhub.ai/atlasopenclaw/stripfeed", "iconUrl": null, "installs": 25, "name": "StripFeed", "ownerName": "atlasopenclaw", "score": 93725.49019607843, "slug": "stripfeed", "source": "clawhub", "stars": 0, "tags": null, "updated_at": 1776749084492, "version": "1.0.0"}, {"category": "developer-tools", "created_at": 1773077918884, "description": "AI-powered translation services using TranslateFlow API - translation, translate text, language conversion, multilingual translation, language translation, d...", "description_zh": "", "downloads": 239, "homepage": "https://clawhub.ai/jbennett111/translateflow-api", "iconUrl": null, "installs": 18, "name": "translateflow-api", "ownerName": "jbennett111", "score": 86909.09090909091, "slug": "translateflow-api", "source": "clawhub", "stars": 0, "tags": null, "updated_at": 1776749084329, "version": "1.0.0"}, {"category": "data-analysis", "created_at": 1772804192616, "description": "X/Twitter manager: post, reply, search, like, retweet & get analytics. Requires: powershell/pwsh. Reads ~/.config/x-twitter/credentials.json (X_API_KEY, X_AP...", "description_zh": "", "downloads": 239, "homepage": "https://clawhub.ai/seph1709/x-page", "iconUrl": null, "installs": 18, "name": "X Twitter", "ownerName": "seph1709", "score": 92996.10894941635, "slug": "x-page", "source": "clawhub", "stars": 0, "tags": null, "updated_at": 1776749084289, "version": "1.0.2"}, {"category": "developer-tools", "created_at": 1772804647206, "description": "Diagnose and fix gateway token mismatches causing 401 errors. Align tokens across config, service, and CLI surfaces.", "description_zh": "", "downloads": 239, "homepage": "https://clawhub.ai/dalomeve/gateway-token-doctor", "iconUrl": null, "installs": 8, "name": "Gateway Token Doctor", "ownerName": "dalomeve", "score": 95219.1235059761, "slug": "gateway-token-doctor", "source": "clawhub", "stars": 0, "tags": null, "updated_at": 1776749084041, "version": "1.0.0"}, {"category": "data-analysis", "created_at": 1772805113127, "description": "Analyze AWS Cost & Usage Reports to identify top cost drivers, waste, and anomalies across all linked accounts", "description_zh": "", "downloads": 239, "homepage": "https://clawhub.ai/anmolnagpal/spend-analyzer", "iconUrl": null, "installs": 8, "name": "Spend Analyzer", "ownerName": "anmolnagpal", "score": 95219.1235059761, "slug": "spend-analyzer", "source": "clawhub", "stars": 0, "tags": null, "updated_at": 1776749083948, "version": "1.0.0"}, {"category": "developer-tools", "created_at": 1772797283325, "description": "Deploy applications, static sites, and edge functions to Azion using Azion CLI. Use when the user asks to deploy/publish to Azion, configure link/build/deplo...", "description_zh": "", "downloads": 239, "homepage": "https://clawhub.ai/askrauthein/azion-deploy", "iconUrl": null, "installs": 7, "name": "Azion Deploy", "ownerName": "askrauthein", "score": 96370.96774193548, "slug": "azion-deploy", "source": "clawhub", "stars": 0, "tags": null, "updated_at": 1776749083824, "version": "0.1.1"}, {"category": "security-compliance", "created_at": 1772799795215, "description": "Answer Engine Optimization — get AI assistants to recommend your brand. Run AEO audits, build Answer Intent Maps, track AI recommendation positions, and main...", "description_zh": "", "downloads": 239, "homepage": "https://clawhub.ai/batsirai/aeo-system", "iconUrl": null, "installs": 4, "name": "aeo-system", "ownerName": "batsirai", "score": 96370.96774193548, "slug": "aeo-system", "source": "clawhub", "stars": 0, "tags": null, "updated_at": 1776749083813, "version": "1.0.0"}, {"category": "content-creation", "created_at": 1773076843779, "description": "Fetches current weather from Open-Meteo API and automatically captures a live webcam image from Meteoblue or Windy for the requested location. Use it when th...", "description_zh": "", "downloads": 239, "homepage": "https://clawhub.ai/alex1389/weather-webcam-v2", "iconUrl": null, "installs": 20, "name": "Weather-Webcam-V2", "ownerName": "alex1389", "score": 92996.10894941635, "slug": "weather-webcam-v2", "source": "clawhub", "stars": 0, "tags": ["weather"], "updated_at": 1776749083643, "version": "1.0.0"}, {"category": "developer-tools", "created_at": 1772800838221, "description": "Discover Mexico like a local with concrete city tips, regional route planning, food guidance, and practical travel logistics.", "description_zh": "", "downloads": 239, "homepage": "https://clawhub.ai/ivangdavila/mexico", "iconUrl": null, "installs": 8, "name": "Mexico", "ownerName": "ivangdavila", "score": 81292.51700680272, "slug": "mexico", "source": "clawhub", "stars": 0, "tags": null, "updated_at": 1776748969767, "version": "1.0.0"}, {"category": "data-analysis", "created_at": 1772797942497, "description": "Skill Cortex is the system's capability cortex. When lacking ability, it autonomously acquires Skills from ClawHub or GitHub, then releases them after use. E...", "description_zh": "", "downloads": 238, "homepage": "https://clawhub.ai/ankwu001/skill-cortex-ank", "iconUrl": null, "installs": 12, "name": "Skill Cortex Pub", "ownerName": "ankwu001", "score": 100000, "slug": "skill-cortex-ank", "source": "clawhub", "stars": 2, "tags": null, "updated_at": 1776749085465, "version": "1.0.1"}, {"category": "developer-tools", "created_at": 1773090684821, "description": "Enables multi-Agent collaboration on Feishu by relaying tasks between coordinator and specialist Bots with user ID mapping and proactive messaging.", "description_zh": "", "downloads": 238, "homepage": "https://clawhub.ai/glassmarbles/feishu-agent-relay", "iconUrl": null, "installs": 17, "name": "Feishu Agent Relay - Multi-Bot Collaboration", "ownerName": "glassmarbles", "score": 19486.404833836856, "slug": "feishu-agent-relay", "source": "clawhub", "stars": 1, "tags": ["bot", "chinese", "collaboration", "communication", "feishu", "lark", "multi-agent", "productivity", "relay"], "updated_at": 1776759382955, "version": "1.0.0"}, {"category": "data-analysis", "created_at": 1773069675772, "description": "GitHub Research Assistant. Use this skill when the user wants to analyze a GitHub repository. Analysis dimensions -- 1) Basic information; 2) Purpose, what i...", "description_zh": "", "downloads": 238, "homepage": "https://clawhub.ai/luochang212/github-research-assistant", "iconUrl": null, "installs": 20, "name": "github-research-assistant", "ownerName": "luochang212", "score": 100000, "slug": "github-research-assistant", "source": "clawhub", "stars": 1, "tags": null, "updated_at": 1776749084737, "version": "1.0.2"}, {"category": "productivity", "created_at": 1772802545827, "description": "Verwende diesen Skill fuer einen vollautonomen Goalz-Bot ueber den oeffentlichen Goalz-MCP-Endpunkt, der eigenstaendig spielt, berichtet und den Verein langf...", "description_zh": "", "downloads": 238, "homepage": "https://clawhub.ai/geby85/goalz-mcp", "iconUrl": null, "installs": 6, "name": "Goalz über MCP", "ownerName": "geby85", "score": 86000, "slug": "goalz-mcp", "source": "clawhub", "stars": 1, "tags": null, "updated_at": 1776749084658, "version": "0.0.2"}, {"category": "developer-tools", "created_at": 1773068868815, "description": "Enables building and deploying quantum computing applications with Quantinuum, Guppy, Selene, and Fly.io. Use for the OpenClaw Clinical Hackathon, clinical o...", "description_zh": "", "downloads": 238, "homepage": "https://clawhub.ai/arunnadarasa/quantinuumclaw", "iconUrl": null, "installs": 11, "name": "Quantinuumclaw", "ownerName": "arunnadarasa", "score": 1637.8776409056502, "slug": "quantinuumclaw", "source": "clawhub", "stars": 0, "tags": null, "updated_at": 1776770350184, "version": "0.1.0"}, {"category": "", "created_at": 1774860965328, "description": "Create and edit draw.io diagrams through the configured drawio MCP server, including flowcharts, architecture diagrams, ML model diagrams, Chinese labels, an...", "description_zh": "", "downloads": 238, "homepage": "https://clawhub.ai/yyq2024/drawio-skill", "iconUrl": null, "installs": 91, "name": "Draw.io Skill", "ownerName": "yyq2024", "score": 6094.750320102433, "slug": "drawio-skill", "source": "clawhub", "stars": 0, "tags": null, "updated_at": 1776770050197, "version": "1.0.1"}, {"category": "ai-intelligence", "created_at": 1773881000642, "description": "Nlp - command-line tool for everyday use", "description_zh": "", "downloads": 238, "homepage": "https://clawhub.ai/xueyetianya/nlp", "iconUrl": null, "installs": 27, "name": "Nlp", "ownerName": "xueyetianya", "score": 11085.235211923615, "slug": "nlp", "source": "clawhub", "stars": 0, "tags": null, "updated_at": 1776769149747, "version": "1.0.6"}, {"category": "", "created_at": 1774810851491, "description": "Assist e-commerce sellers in sourcing from 1688.com, calculating profit margins, and creating multi-platform product listings efficiently.", "description_zh": "", "downloads": 238, "homepage": "https://clawhub.ai/wymanwong/1688-sourcing", "iconUrl": null, "installs": 54, "name": "1688 Sourcing Assistant", "ownerName": "wymanwong", "score": 9754.098360655737, "slug": "1688-sourcing", "source": "clawhub", "stars": 0, "tags": ["1688", "china", "dropshipping", "ecommerce", "product-research", "profit-calculator", "sourcing"], "updated_at": 1776765550132, "version": "0.1.0"}, {"category": "developer-tools", "created_at": 1773090363535, "description": "Guides you step-by-step to quickly connect Claude to Notion, Linear, Slack, and GitHub using a tested MCP server setup protocol with config templates and tes...", "description_zh": "", "downloads": 238, "homepage": "https://clawhub.ai/flynndavid/mcp-server-setup-kit", "iconUrl": null, "installs": 40, "name": "MCP Server Setup Kit", "ownerName": "flynndavid", "score": 4487.179487179487, "slug": "mcp-server-setup-kit", "source": "clawhub", "stars": 0, "tags": null, "updated_at": 1776765290573, "version": "1.0.0"}, {"category": "security-compliance", "created_at": 1772797615112, "description": "Expert guidance for pricing, DOT/FMCSA compliance, crew management, claims handling, revenue optimization, and growth strategies in moving companies.", "description_zh": "", "downloads": 238, "homepage": "https://clawhub.ai/1kalin/afrexai-moving-company", "iconUrl": null, "installs": 9, "name": "Moving Company Operations", "ownerName": "1kalin", "score": 17975.83081570997, "slug": "afrexai-moving-company", "source": "clawhub", "stars": 0, "tags": ["dot", "fmcsa", "logistics", "moving", "operations"], "updated_at": 1776759382937, "version": "1.0.0"}, {"category": "productivity", "created_at": 1773219099442, "description": "A comprehensive AI agent skill for managing payroll accurately and on time. Helps small business owners run payroll without a dedicated HR function, explains...", "description_zh": "", "downloads": 238, "homepage": "https://clawhub.ai/agenticio/payroll", "iconUrl": null, "installs": 19, "name": "Payroll", "ownerName": "agenticio", "score": 14921.630094043887, "slug": "payroll", "source": "clawhub", "stars": 0, "tags": ["employees", "hr", "payroll", "small-business", "tax"], "updated_at": 1776759382739, "version": "1.0.0"}, {"category": "security-compliance", "created_at": 1773076178869, "description": "Local Node.js auth server providing biometric and password verification to secure sensitive OpenClaw actions via Tailscale HTTPS dashboard.", "description_zh": "", "downloads": 238, "homepage": "https://clawhub.ai/felipematos/max-auth", "iconUrl": null, "installs": 11, "name": "Max Auth", "ownerName": "felipematos", "score": 17989.417989417987, "slug": "max-auth", "source": "clawhub", "stars": 0, "tags": null, "updated_at": 1776759382500, "version": "2.1.0"}, {"category": "data-analysis", "created_at": 1773081064266, "description": "Binary classification-based human portrait segmentation for complete body contour recognition and image matting.", "description_zh": "", "downloads": 238, "homepage": "https://clawhub.ai/neck-cn/tencentcloud-yt-segment-portrait", "iconUrl": null, "installs": 16, "name": "TencentCloud YT Segment Portrait", "ownerName": "neck-cn", "score": 17962.264150943396, "slug": "tencentcloud-yt-segment-portrait", "source": "clawhub", "stars": 0, "tags": null, "updated_at": 1776759382109, "version": "1.0.2"}, {"category": "ai-intelligence", "created_at": 1773068602196, "description": "Choose the best Thailand base for travel, remote work, expat life, or business with visa clarity, cost reality, and local operating playbooks.", "description_zh": "", "downloads": 238, "homepage": "https://clawhub.ai/ivangdavila/thailand", "iconUrl": null, "installs": 37, "name": "Thailand", "ownerName": "ivangdavila", "score": 14459.29526123937, "slug": "thailand", "source": "clawhub", "stars": 0, "tags": null, "updated_at": 1776757320629, "version": "1.0.0"}, {"category": "developer-tools", "created_at": 1773084176557, "description": "Pitch development and presentation coaching for founders and salespeople. Use when user mentions investor pitches, sales presentations, elevator pitches, pit...", "description_zh": "", "downloads": 238, "homepage": "https://clawhub.ai/agistack/pitch", "iconUrl": null, "installs": 7, "name": "Pitch", "ownerName": "agistack", "score": 42049.46996466431, "slug": "pitch", "source": "clawhub", "stars": 0, "tags": ["fundraising", "investors", "pitch", "sales", "startup"], "updated_at": 1776753304822, "version": "2.2.0"}, {"category": "developer-tools", "created_at": 1772799698768, "description": "Build and manage cities autonomously on Hallucinating Splines — the headless Micropolis simulator with a REST API and MCP server for AI agents.", "description_zh": "", "downloads": 238, "homepage": "https://clawhub.ai/andrewedunn/hallucinatingsplines", "iconUrl": null, "installs": 4, "name": "Hallucinating Splines", "ownerName": "andrewedunn", "score": 100000, "slug": "hallucinatingsplines", "source": "clawhub", "stars": 0, "tags": null, "updated_at": 1776749404864, "version": "1.0.2"}, {"category": "developer-tools", "created_at": 1772800234550, "description": "Discover Canada like a local with concrete city recommendations, regional insights, nature routes, and practical planning tips.", "description_zh": "", "downloads": 238, "homepage": "https://clawhub.ai/ivangdavila/canada", "iconUrl": null, "installs": 7, "name": "Canada", "ownerName": "ivangdavila", "score": 88148.14814814815, "slug": "canada", "source": "clawhub", "stars": 0, "tags": null, "updated_at": 1776749085515, "version": "1.0.0"}, {"category": "productivity", "created_at": 1773429875207, "description": "OneNote API integration with managed OAuth via Microsoft Graph. Access notebooks, sections, section groups, and pages. Use this skill when users want to crea...", "description_zh": "", "downloads": 238, "homepage": "https://clawhub.ai/byungkyu/one-note", "iconUrl": null, "installs": 75, "name": "Microsoft OneNote", "ownerName": "byungkyu", "score": 88148.14814814815, "slug": "one-note", "source": "clawhub", "stars": 0, "tags": null, "updated_at": 1776749085487, "version": "1.0.0"}, {"category": "content-creation", "created_at": 1773202354239, "description": "Local AI image generation using Fooocus (Stable Diffusion XL). Use when users want to generate images locally without relying on cloud APIs. Supports text-to...", "description_zh": "", "downloads": 238, "homepage": "https://clawhub.ai/wszhhx/fooocus-image-gen", "iconUrl": null, "installs": 32, "name": "Fooocus Image Generation Skill", "ownerName": "wszhhx", "score": 95200, "slug": "fooocus-image-gen", "source": "clawhub", "stars": 0, "tags": null, "updated_at": 1776749085018, "version": "1.0.0"}, {"category": "ai-intelligence", "created_at": 1773074049178, "description": "Executes combat operations in Structs. Covers attacks, raids, defense setup, and stealth positioning. Use when attacking enemy structs, raiding a planet for...", "description_zh": "", "downloads": 238, "homepage": "https://clawhub.ai/abstrct/structs-combat", "iconUrl": null, "installs": 22, "name": "Structs Combat", "ownerName": "abstrct", "score": 95200, "slug": "structs-combat", "source": "clawhub", "stars": 0, "tags": null, "updated_at": 1776749085001, "version": "1.1.0"}, {"category": "communication-collaboration", "created_at": 1772804362910, "description": "Broadcast agent activity status to Discord channel (thinking, tool use, web search, coding, done, error). Use for transparency so users know agent is working.", "description_zh": "", "downloads": 238, "homepage": "https://clawhub.ai/silvermoonswk/activity-notifier", "iconUrl": null, "installs": 12, "name": "Activity Notifier", "ownerName": "silvermoonswk", "score": 75316.45569620254, "slug": "activity-notifier", "source": "clawhub", "stars": 0, "tags": null, "updated_at": 1776749084921, "version": "1.0.0"}, {"category": "productivity", "created_at": 1773074517069, "description": "Update OpenClaw to the latest version. Use when asked to \"update yourself\", \"upgrade openclaw\", \"check for updates\", or \"update to latest version\". Handles n...", "description_zh": "", "downloads": 238, "homepage": "https://clawhub.ai/jchen0824/openclaw-self-update", "iconUrl": null, "installs": 8, "name": "OpenClaw Self-Update", "ownerName": "jchen0824", "score": 93700.78740157481, "slug": "openclaw-self-update", "source": "clawhub", "stars": 0, "tags": null, "updated_at": 1776749084843, "version": "1.0.0"}, {"category": "developer-tools", "created_at": 1772803925032, "description": "Amazon SP-API skill for OpenClaw agents. Fetch orders, check FBA inventory, manage listings and pricing. Works with any marketplace and seller account.", "description_zh": "", "downloads": 238, "homepage": "https://clawhub.ai/zero2ai-hub/skill-spapi", "iconUrl": null, "installs": 15, "name": "SP-API Skill", "ownerName": "zero2ai-hub", "score": 92248.06201550388, "slug": "skill-spapi", "source": "clawhub", "stars": 0, "tags": null, "updated_at": 1776749084716, "version": "1.0.1"}]}