{"page": 279, "total_pages": 522, "total": 26073, "skills": [{"category": "developer-tools", "created_at": 1773060161751, "description": "Wake an OpenClaw agent session from an external script or process. Use when a background task (Claude Code CLI, cron job, webhook, price alert, or any script...", "description_zh": "", "downloads": 238, "homepage": "https://clawhub.ai/krisco65/agent-wake", "iconUrl": null, "installs": 10, "name": "agent-wake", "ownerName": "krisco65", "score": 92248.06201550388, "slug": "agent-wake", "source": "clawhub", "stars": 0, "tags": null, "updated_at": 1776749084692, "version": "1.0.1"}, {"category": "developer-tools", "created_at": 1773289953606, "description": "OpenClaw Skill template generator. Create skill scaffolds, validate structure, enhance SKILL.md, generate command frameworks, tips, publish checklists, and e...", "description_zh": "", "downloads": 238, "homepage": "https://clawhub.ai/ckchzh/skill-template", "iconUrl": null, "installs": 19, "name": "skill-template", "ownerName": "ckchzh", "score": 92968.75, "slug": "skill-template", "source": "clawhub", "stars": 0, "tags": ["chinese", "productivity"], "updated_at": 1776749084588, "version": "1.0.0"}, {"category": "security-compliance", "created_at": 1773075295771, "description": "Generate a presentation-quality PDF slide deck from Deckrun Markdown. No authentication required. Free. Returns a public URL valid for 90 days.", "description_zh": "", "downloads": 238, "homepage": "https://clawhub.ai/shivarammysore/deckrun-pdf-generator-free", "iconUrl": null, "installs": 19, "name": "Deckrun Pdf Generator Free", "ownerName": "shivarammysore", "score": 92968.75, "slug": "deckrun-pdf-generator-free", "source": "clawhub", "stars": 0, "tags": null, "updated_at": 1776749084556, "version": "1.0.0"}, {"category": "developer-tools", "created_at": 1772801525606, "description": "Skill-aware agent routing with explicit competence/cost modeling. +22.5% accuracy, 700x cheaper than RL routers. Based on arXiv:2602.19672.", "description_zh": "", "downloads": 238, "homepage": "https://clawhub.ai/tobisamaa/skill-orchestra", "iconUrl": null, "installs": 11, "name": "Skill Orchestra", "ownerName": "tobisamaa", "score": 93333.33333333333, "slug": "skill-orchestra", "source": "clawhub", "stars": 0, "tags": null, "updated_at": 1776749084420, "version": "2.0.0"}, {"category": "developer-tools", "created_at": 1773063522502, "description": "Use this skill to extract receipt information, record expenses, track budgets, and manage financial receipts using the ClawReceipt CLI.", "description_zh": "", "downloads": 238, "homepage": "https://clawhub.ai/sakurako-irs/clawreceipt", "iconUrl": null, "installs": 10, "name": "ClawReceipt", "ownerName": "sakurako-irs", "score": 88805.97014925373, "slug": "clawreceipt", "source": "clawhub", "stars": 0, "tags": null, "updated_at": 1776749084153, "version": "1.0.0"}, {"category": "developer-tools", "created_at": 1773289250039, "description": "Manage Raspberry Pi devices — GPIO control, system monitoring (CPU/temp/memory), service management, sensor data reading, and remote deployment.", "description_zh": "", "downloads": 238, "homepage": "https://clawhub.ai/bytesagain1/raspberry-pi-manager", "iconUrl": null, "installs": 11, "name": "raspberry-pi-manager", "ownerName": "bytesagain1", "score": 94820.71713147411, "slug": "raspberry-pi-manager", "source": "clawhub", "stars": 0, "tags": ["chinese", "productivity"], "updated_at": 1776749083946, "version": "1.0.0"}, {"category": "content-creation", "created_at": 1773078878378, "description": "The definitive video generation engine for OpenClaw. Turn text, ideas, or math problems into explainer videos instantly. Use this skill WHENEVER the user ask...", "description_zh": "", "downloads": 237, "homepage": "https://clawhub.ai/yuanyxu/xplai-video", "iconUrl": null, "installs": 46, "name": "Xplai Video", "ownerName": "yuanyxu", "score": 9819.213045019496, "slug": "xplai-video", "source": "clawhub", "stars": 2, "tags": null, "updated_at": 1776770242181, "version": "1.0.1"}, {"category": "productivity", "created_at": 1773069699269, "description": "Find odds divergence between sportsbook consensus and Polymarket sports markets, then trade the gap.", "description_zh": "", "downloads": 237, "homepage": "https://clawhub.ai/0xjims/polymarket-sports-edge", "iconUrl": null, "installs": 35, "name": "Polymarket Sports Edge", "ownerName": "0xjims", "score": 15992.532669570628, "slug": "polymarket-sports-edge", "source": "clawhub", "stars": 1, "tags": null, "updated_at": 1776758182758, "version": "1.0.0"}, {"category": "developer-tools", "created_at": 1773074562988, "description": "Bootstrap and run a GitHub project by following its docs (README/docs), with safeguards for untrusted install/run steps. Use when the user gives a GitHub rep...", "description_zh": "", "downloads": 237, "homepage": "https://clawhub.ai/zyl-hub/repo-runner", "iconUrl": null, "installs": 9, "name": "repo runner", "ownerName": "zyl-hub", "score": 100000, "slug": "repo-runner", "source": "clawhub", "stars": 1, "tags": null, "updated_at": 1776749084287, "version": "1.0.2"}, {"category": "security-compliance", "created_at": 1772804779667, "description": "Scan, audit, and clean up Python virtual environments (.venv, conda), node_modules, and development artifacts consuming disk space. Use when the user mention...", "description_zh": "", "downloads": 237, "homepage": "https://clawhub.ai/mahimairaja/envoic", "iconUrl": null, "installs": 7, "name": "envoic", "ownerName": "mahimairaja", "score": 100000, "slug": "envoic", "source": "clawhub", "stars": 1, "tags": null, "updated_at": 1776749083751, "version": "0.0.9"}, {"category": "security-compliance", "created_at": 1772796534349, "description": "Multi-layer blocklist guard for OpenClaw. Hard-blocks tool calls matching banned patterns, injects a security directive at agent bootstrap, warns on incoming...", "description_zh": "", "downloads": 237, "homepage": "https://clawhub.ai/rgr4y/openclaw-snitch", "iconUrl": null, "installs": 3, "name": "Openclaw Snitch", "ownerName": "rgr4y", "score": 100000, "slug": "openclaw-snitch", "source": "clawhub", "stars": 1, "tags": null, "updated_at": 1776749083706, "version": "1.0.2"}, {"category": "developer-tools", "created_at": 1773076222463, "description": "One-click remote OpenClaw deployment via SSH. Auto-detects OS and selects best method (Docker/Podman/npm). Use when: (1) Installing on VPS/cloud servers, (2)...", "description_zh": "", "downloads": 237, "homepage": "https://clawhub.ai/codeblackhole1024/openclaw-remote-install", "iconUrl": null, "installs": 16, "name": "Openclaw Remote Install", "ownerName": "codeblackhole1024", "score": 7722.38514173998, "slug": "openclaw-remote-install", "source": "clawhub", "stars": 0, "tags": ["automation", "deployment", "devops", "install", "remote", "ssh", "vps"], "updated_at": 1776769150191, "version": "1.0.1"}, {"category": "developer-tools", "created_at": 1773429428760, "description": "Desktop automation via PyAutoGUI. Use when: user needs to automate mouse/keyboard actions, GUI testing, click/type sequences, screen-based workflows, or repe...", "description_zh": "", "downloads": 237, "homepage": "https://clawhub.ai/yangye230147961/pyautogui-skill", "iconUrl": null, "installs": 56, "name": "pyautogui-skill", "ownerName": "yangye230147961", "score": 18914.6049481245, "slug": "pyautogui-skill", "source": "clawhub", "stars": 0, "tags": null, "updated_at": 1776768290466, "version": "1.0.0"}, {"category": "content-creation", "created_at": 1773417848505, "description": "Enhance portrait photos using each::sense AI. Professional-grade retouching including skin smoothing, teeth whitening, eye enhancement, blemish removal, ligh...", "description_zh": "", "downloads": 237, "homepage": "https://clawhub.ai/eftalyurtseven/portrait-enhancement", "iconUrl": null, "installs": 45, "name": "Portrait Enhancement", "ownerName": "eftalyurtseven", "score": 4178.420310296192, "slug": "portrait-enhancement", "source": "clawhub", "stars": 0, "tags": null, "updated_at": 1776765550380, "version": "1.0.0"}, {"category": "data-analysis", "created_at": 1772804898679, "description": "Upload content to a PrivateBin instance and return a shareable link. Use when the user wants to share text, code, reports, or files via paste URL with option...", "description_zh": "", "downloads": 237, "homepage": "https://clawhub.ai/kafcoppelia/privatebin-upload", "iconUrl": null, "installs": 9, "name": "PrivateBin Upload Skill", "ownerName": "kafcoppelia", "score": 3541.5421398685, "slug": "privatebin-upload", "source": "clawhub", "stars": 0, "tags": null, "updated_at": 1776762849992, "version": "1.0.0"}, {"category": "developer-tools", "created_at": 1773066165665, "description": "Run GitHub Copilot CLI via exec to generate code, edit files, or automate shell tasks using advanced AI models like Claude or GPT-5.", "description_zh": "", "downloads": 237, "homepage": "https://clawhub.ai/binotaliu/openclaw-copilot-cli", "iconUrl": null, "installs": 9, "name": "OpenClaw Copilot CLI Wrapper", "ownerName": "binotaliu", "score": 80338.98305084746, "slug": "openclaw-copilot-cli", "source": "clawhub", "stars": 0, "tags": null, "updated_at": 1776759382671, "version": "1.0.0"}, {"category": "content-creation", "created_at": 1773081044698, "description": "Generate polished 1080×1920 TikTok/Reels/Shorts video ads from product clips and images. Three viral styles: Clean, Meme, UGC. Python + ffmpeg, no cloud requ...", "description_zh": "", "downloads": 237, "homepage": "https://clawhub.ai/zero2ai-hub/skill-ad-creative-engine", "iconUrl": null, "installs": 45, "name": "Ad Creative Engine", "ownerName": "zero2ai-hub", "score": 12852.494577006506, "slug": "skill-ad-creative-engine", "source": "clawhub", "stars": 0, "tags": null, "updated_at": 1776754688322, "version": "1.0.0"}, {"category": "content-creation", "created_at": 1773067621036, "description": "Scan QR codes from invoice receipts and automatically fill electronic invoice applications. Use when user asks to scan QR codes from images, complete electro...", "description_zh": "", "downloads": 237, "homepage": "https://clawhub.ai/chenzhuowen/invoice-qr-scanner", "iconUrl": null, "installs": 12, "name": "invoice-qr-scanner", "ownerName": "chenzhuowen", "score": 98750, "slug": "invoice-qr-scanner", "source": "clawhub", "stars": 0, "tags": null, "updated_at": 1776749085626, "version": "1.0.0"}, {"category": "developer-tools", "created_at": 1772804588043, "description": "Connect to Civic Nexus MCP for 100+ integrations.", "description_zh": "", "downloads": 237, "homepage": "https://clawhub.ai/civictechuser/civic-nexus-openclaw", "iconUrl": null, "installs": 8, "name": "Civic Nexus", "ownerName": "civictechuser", "score": 95180.72289156626, "slug": "civic-nexus-openclaw", "source": "clawhub", "stars": 0, "tags": null, "updated_at": 1776749085389, "version": "0.1.0"}, {"category": "developer-tools", "created_at": 1773067927432, "description": "Gusto payroll & HR — manage employees, payroll, benefits, and tax forms via REST API", "description_zh": "", "downloads": 237, "homepage": "https://clawhub.ai/aiwithabidi/gusto", "iconUrl": null, "installs": 21, "name": "Gusto", "ownerName": "aiwithabidi", "score": 91505.7915057915, "slug": "gusto", "source": "clawhub", "stars": 0, "tags": null, "updated_at": 1776749085095, "version": "1.0.0"}, {"category": "data-analysis", "created_at": 1773068644561, "description": "Use this skill when the user wants to manage social media scheduling, analytics, cross-posting, or AI-assisted content creation across Instagram, TikTok, Twi...", "description_zh": "", "downloads": 237, "homepage": "https://clawhub.ai/saintlittlefish/xanadu-social-manager", "iconUrl": null, "installs": 22, "name": "Xanadu Social Media Manager", "ownerName": "saintlittlefish", "score": 93307.08661417323, "slug": "xanadu-social-manager", "source": "clawhub", "stars": 0, "tags": ["analytics", "monetization", "scheduling", "social-media", "xanadu"], "updated_at": 1776749084799, "version": "1.2.0"}, {"category": "developer-tools", "created_at": 1772804891022, "description": "Place outbound phone calls via Mobayilo with safe defaults (preview mode by default) and explicit live execution.", "description_zh": "", "downloads": 237, "homepage": "https://clawhub.ai/adusingi/mobayilo-voice", "iconUrl": null, "installs": 7, "name": "Mobayilo Voice (Beta)", "ownerName": "adusingi", "score": 92578.125, "slug": "mobayilo-voice", "source": "clawhub", "stars": 0, "tags": ["agent", "automation", "mobayilo", "openclaw", "telephony", "twilio", "voice", "workflow"], "updated_at": 1776749084554, "version": "0.2.0-beta.1"}, {"category": "ai-intelligence", "created_at": 1773079758412, "description": "Retrieve Aavegotchi NFT data by gotchi ID or name on Base. Returns traits, wearables, rarity scores, kinship, XP, level, and owner data.", "description_zh": "", "downloads": 237, "homepage": "https://clawhub.ai/aaigotchi/aavegotchi-traits", "iconUrl": null, "installs": 25, "name": "Aavegotchi Traits", "ownerName": "aaigotchi", "score": 94422.31075697212, "slug": "aavegotchi-traits", "source": "clawhub", "stars": 0, "tags": ["aavegotchi", "base", "defi", "nft", "web3"], "updated_at": 1776749084067, "version": "1.1.0"}, {"category": "developer-tools", "created_at": 1773065802989, "description": "Use Mercado Libre to search, compare, buy, sell, and automate decisions with pricing, safety, and dispute workflows.", "description_zh": "", "downloads": 237, "homepage": "https://clawhub.ai/ivangdavila/mercado-libre", "iconUrl": null, "installs": 29, "name": "Mercado Libre", "ownerName": "ivangdavila", "score": 94422.31075697212, "slug": "mercado-libre", "source": "clawhub", "stars": 0, "tags": null, "updated_at": 1776749084065, "version": "1.0.0"}, {"category": "data-analysis", "created_at": 1773075545149, "description": "Stabilize no-approval node execution in OpenClaw. Use when approval timeout, noisy failure events, or node run drift appears.", "description_zh": "", "downloads": 237, "homepage": "https://clawhub.ai/xyezir/oc-approval-free-node-stabilizer", "iconUrl": null, "installs": 13, "name": "OC Approval-Free Node Stabilizer", "ownerName": "xyezir", "score": 94422.31075697212, "slug": "oc-approval-free-node-stabilizer", "source": "clawhub", "stars": 0, "tags": null, "updated_at": 1776749084000, "version": "0.1.0"}, {"category": "developer-tools", "created_at": 1772798729194, "description": "Manage software development sprints and stories in Bolt. Use for creating/updating stories, moving tasks through the Kanban workflow (waiting → in_progress →...", "description_zh": "", "downloads": 237, "homepage": "https://clawhub.ai/ndhill84/bolt-skill", "iconUrl": null, "installs": 16, "name": "Bolt Sprint", "ownerName": "ndhill84", "score": 94422.31075697212, "slug": "bolt-skill", "source": "clawhub", "stars": 0, "tags": null, "updated_at": 1776749083956, "version": "0.1.0"}, {"category": "productivity", "created_at": 1773060795829, "description": "A \"life check\" skill that periodically checks if the user is still responsive. If the user hasn't messaged for a set time, it asks if they're okay, and if no...", "description_zh": "", "downloads": 236, "homepage": "https://clawhub.ai/trae1oung/dead-or-not", "iconUrl": null, "installs": 7, "name": "Dead Or Not", "ownerName": "trae1oung", "score": 81012.6582278481, "slug": "dead-or-not", "source": "clawhub", "stars": 1, "tags": null, "updated_at": 1776749084878, "version": "1.0.2"}, {"category": "developer-tools", "created_at": 1772798850289, "description": "Learn about Moralis and Web3 development. Invoked without a question, gives a friendly platform walkthrough — what's available, what data you can fetch, and...", "description_zh": "", "downloads": 236, "homepage": "https://clawhub.ai/novnski/learn-moralis", "iconUrl": null, "installs": 5, "name": "Learn Moralis", "ownerName": "novnski", "score": 100000, "slug": "learn-moralis", "source": "clawhub", "stars": 1, "tags": null, "updated_at": 1776749084541, "version": "1.1.1"}, {"category": "ai-intelligence", "created_at": 1773065850961, "description": "Automate Proxmox VE (PVE) virtual machine and container management tasks including VM lifecycle operations (create, start, stop, delete), template management...", "description_zh": "", "downloads": 236, "homepage": "https://clawhub.ai/lichas/pve-automation", "iconUrl": null, "installs": 15, "name": "Pve Automation", "ownerName": "lichas", "score": 2101.326685068115, "slug": "pve-automation", "source": "clawhub", "stars": 0, "tags": null, "updated_at": 1776767350080, "version": "0.1.0"}, {"category": "ai-intelligence", "created_at": 1773869382272, "description": "Count tokens and estimate costs for 300+ LLM models. Primary use: audit OpenClaw workspace token consumption (memory, persona, skills).", "description_zh": "", "downloads": 236, "homepage": "https://clawhub.ai/zhaobudaoyuema/prompt-token-counter", "iconUrl": null, "installs": 90, "name": "Prompt Token Counter", "ownerName": "zhaobudaoyuema", "score": 3538.7614334982754, "slug": "prompt-token-counter", "source": "clawhub", "stars": 0, "tags": null, "updated_at": 1776765250170, "version": "1.0.11"}, {"category": "productivity", "created_at": 1773066580618, "description": "Create wrapper skills that call remote tools through UXC. Use when defining a new provider skill and you need reusable templates, validation rules, and anti-...", "description_zh": "", "downloads": 236, "homepage": "https://clawhub.ai/jolestar/uxc-skill-creator", "iconUrl": null, "installs": 31, "name": "Uxc Skill Creator", "ownerName": "jolestar", "score": 5825.722043939768, "slug": "uxc-skill-creator", "source": "clawhub", "stars": 0, "tags": null, "updated_at": 1776764350388, "version": "1.0.0"}, {"category": "ai-intelligence", "created_at": 1773426662503, "description": "Generate high-quality, customizable AI prompts for various use cases including creative writing, problem-solving, education, business, programming, Flutter d...", "description_zh": "", "downloads": 236, "homepage": "https://clawhub.ai/helal-muneer/smart-prompt-generator", "iconUrl": null, "installs": 70, "name": "Smart Prompt Generator", "ownerName": "helal-muneer", "score": 9305.993690851736, "slug": "smart-prompt-generator", "source": "clawhub", "stars": 0, "tags": null, "updated_at": 1776763749908, "version": "1.0.0"}, {"category": "developer-tools", "created_at": 1773933069256, "description": "Monitor GitCode PRs for one or more repos, auto-run AI review via OpenClaw Gateway, post PR comments, and send notifications (DingTalk + WeCom).", "description_zh": "", "downloads": 236, "homepage": "https://clawhub.ai/mingyang1996/openclaw-gitcode-pr-monitor", "iconUrl": null, "installs": 99, "name": "openclaw-gitcode-pr-monitor", "ownerName": "mingyang1996", "score": 7755.5044364114365, "slug": "openclaw-gitcode-pr-monitor", "source": "clawhub", "stars": 0, "tags": null, "updated_at": 1776761745436, "version": "0.1.2"}, {"category": "", "created_at": 1774830351766, "description": "Perform patent novelty searches by analyzing technical solutions, retrieving and ranking related patents, comparing features, and generating a detailed novel...", "description_zh": "", "downloads": 236, "homepage": "https://clawhub.ai/chaochaosz/patent-novelty-search", "iconUrl": null, "installs": 44, "name": "patent-novelty-search", "ownerName": "chaochaosz", "score": 4740.8597830454, "slug": "patent-novelty-search", "source": "clawhub", "stars": 0, "tags": null, "updated_at": 1776760282456, "version": "1.0.0"}, {"category": "productivity", "created_at": 1773078884608, "description": "Export and import OpenClaw instances as portable .claw packages for backup, sharing, and migration. Use when: user wants to back up, share, migrate, or resto...", "description_zh": "", "downloads": 236, "homepage": "https://clawhub.ai/lovelcp/zhuaxia", "iconUrl": null, "installs": 8, "name": "Zhuaxia", "ownerName": "lovelcp", "score": 85198.5559566787, "slug": "zhuaxia", "source": "clawhub", "stars": 0, "tags": null, "updated_at": 1776759382993, "version": "0.4.0"}, {"category": "security-compliance", "created_at": 1772804532455, "description": "Multi-agent adversarial security review — 3 AI agents debate every finding, only real vulnerabilities survive", "description_zh": "", "downloads": 236, "homepage": "https://clawhub.ai/har1sh-k/xfire-security-review", "iconUrl": null, "installs": 6, "name": "xfire Security PR Review", "ownerName": "har1sh-k", "score": 16445.993031358885, "slug": "xfire-security-review", "source": "clawhub", "stars": 0, "tags": ["ai", "ci-cd", "code-review", "devsecops", "multi-agent", "sarif", "security", "vulnerability"], "updated_at": 1776759382847, "version": "0.1.2"}, {"category": "developer-tools", "created_at": 1773065416424, "description": "Verify and cross-sign the active Matrix device for one OpenClaw-managed account. Use when a user needs to repair trust for an OpenClaw Matrix device, confirm...", "description_zh": "", "downloads": 236, "homepage": "https://clawhub.ai/mlumeau/verify-matrix-device", "iconUrl": null, "installs": 7, "name": "Verify Matrix device", "ownerName": "mlumeau", "score": 14796.238244514107, "slug": "verify-matrix-device", "source": "clawhub", "stars": 0, "tags": null, "updated_at": 1776759382770, "version": "0.1.0"}, {"category": "developer-tools", "created_at": 1772797953771, "description": "Specializes in salon and spa business operations including pricing, scheduling, retail strategy, staff management, licensing, and growth planning.", "description_zh": "", "downloads": 236, "homepage": "https://clawhub.ai/1kalin/afrexai-salon-spa", "iconUrl": null, "installs": 7, "name": "Salon & Spa Operations", "ownerName": "1kalin", "score": 17704.426106526633, "slug": "afrexai-salon-spa", "source": "clawhub", "stars": 0, "tags": ["beauty", "operations", "pricing", "salon", "spa"], "updated_at": 1776759382482, "version": "1.0.0"}, {"category": "data-analysis", "created_at": 1773079023744, "description": "Feishu Bitable Merger - Merge multiple Feishu bitable data into one table", "description_zh": "", "downloads": 236, "homepage": "https://clawhub.ai/night556/feishu-bitable-merger", "iconUrl": null, "installs": 32, "name": "Feishu Bitable Merger", "ownerName": "night556", "score": 14174.174174174173, "slug": "feishu-bitable-merger", "source": "clawhub", "stars": 0, "tags": null, "updated_at": 1776756488696, "version": "1.0.0"}, {"category": "productivity", "created_at": 1773060387882, "description": "Transfer tokens on Solana or Base. Use when the user wants to send, transfer, or pay tokens. Supports native coins (SOL, ETH) and tokens (USDC) by name, plus...", "description_zh": "", "downloads": 236, "homepage": "https://clawhub.ai/ant-1984/send-token", "iconUrl": null, "installs": 7, "name": "Send Token", "ownerName": "ant-1984", "score": 98333.33333333333, "slug": "send-token", "source": "clawhub", "stars": 0, "tags": null, "updated_at": 1776749085661, "version": "0.1.2"}, {"category": "content-creation", "created_at": 1773285617231, "description": "Summarize YouTube videos with NO subtitles by doing local ASR (yt-dlp + faster-whisper) and extracting a few screenshot frames via ffmpeg. Use when the user...", "description_zh": "", "downloads": 236, "homepage": "https://clawhub.ai/yifany-github/youtube-asr-summarize", "iconUrl": null, "installs": 46, "name": "YouTube ASR Summarize (Local)", "ownerName": "yifany-github", "score": 88059.70149253731, "slug": "youtube-asr-summarize", "source": "clawhub", "stars": 0, "tags": null, "updated_at": 1776749085547, "version": "0.1.0"}, {"category": "productivity", "created_at": 1773074119954, "description": "Safely verify and apply OpenClaw upgrades with isolated sidecar checks. Use when asked to update OpenClaw, verify a target version before upgrading, avoid gl...", "description_zh": "", "downloads": 236, "homepage": "https://clawhub.ai/ianchenx/openclaw-safe-update", "iconUrl": null, "installs": 11, "name": "OpenClaw Safe Update", "ownerName": "ianchenx", "score": 74683.54430379746, "slug": "openclaw-safe-update", "source": "clawhub", "stars": 0, "tags": null, "updated_at": 1776749084876, "version": "1.0.1"}, {"category": "developer-tools", "created_at": 1773090873080, "description": "Deploy MiGPT on a Xiaomi smart speaker to replace the built-in AI with a custom LLM-powered voice assistant. Use when: (1) setting up mi-gpt on a Xiaomi/Redm...", "description_zh": "", "downloads": 236, "homepage": "https://clawhub.ai/tuituijcb/migpt-xiaomi-assistant", "iconUrl": null, "installs": 16, "name": "MiGPT Xiaomi Assistant", "ownerName": "tuituijcb", "score": 74683.54430379746, "slug": "migpt-xiaomi-assistant", "source": "clawhub", "stars": 0, "tags": null, "updated_at": 1776749084856, "version": "1.0.0"}, {"category": "data-analysis", "created_at": 1772804853990, "description": "Système de mémoire adaptative hebbienne pour Claude.md — transforme les logs de sessions en patterns pondérés qui renforcent ou atrophient les règles de trav...", "description_zh": "", "downloads": 236, "homepage": "https://clawhub.ai/romainsantoli-web/firm-hebbian-memory", "iconUrl": null, "installs": 12, "name": "Firm Hebbian Memory", "ownerName": "romainsantoli-web", "score": 92187.5, "slug": "firm-hebbian-memory", "source": "clawhub", "stars": 0, "tags": null, "updated_at": 1776749084572, "version": "1.0.0"}, {"category": "ai-intelligence", "created_at": 1772799078695, "description": "Monitor recent changes and view agent leaderboard on Clarity Protocol. Use when the user asks what's new, recent changes, new findings, new annotations, agen...", "description_zh": "", "downloads": 236, "homepage": "https://clawhub.ai/clarityprotocol/clarity-changes", "iconUrl": null, "installs": 22, "name": "Clarity Changes", "ownerName": "clarityprotocol", "score": 92549.01960784315, "slug": "clarity-changes", "source": "clawhub", "stars": 0, "tags": null, "updated_at": 1776749084465, "version": "1.0.0"}, {"category": "developer-tools", "created_at": 1772801510651, "description": "Comprehensive interface for the SkedGo TripGo API, covering routing, public transport, trips, and location services. Use for multimodal journey planning, pub...", "description_zh": "", "downloads": 236, "homepage": "https://clawhub.ai/guanyu-zhang/skedgo-tripgo-api", "iconUrl": null, "installs": 7, "name": "SkedGo TripGo API", "ownerName": "guanyu-zhang", "score": 88059.70149253731, "slug": "skedgo-tripgo-api", "source": "clawhub", "stars": 0, "tags": null, "updated_at": 1776749084128, "version": "1.0.3"}, {"category": "data-analysis", "created_at": 1773284933308, "description": "GEO Pulse delivers compelling, client-ready GEO (Generative Engine Optimization) reports for brands. It measures AI search visibility across ChatGPT / Perple...", "description_zh": "", "downloads": 236, "homepage": "https://clawhub.ai/sjinping/geo-pulse", "iconUrl": null, "installs": 33, "name": "GEO Pulse — Brand AI Visibility Intelligence", "ownerName": "sjinping", "score": 88059.70149253731, "slug": "geo-pulse", "source": "clawhub", "stars": 0, "tags": null, "updated_at": 1776749084108, "version": "1.0.0"}, {"category": "developer-tools", "created_at": 1772804904211, "description": "A fast Rust-based headless browser automation CLI with Node.js fallback that enables AI agents to navigate, click, type, and snapshot pages via structured co...", "description_zh": "", "downloads": 236, "homepage": "https://clawhub.ai/vanzhangsh/vanzhangsh-skills", "iconUrl": null, "installs": 10, "name": "Vanzhangsh Skills", "ownerName": "vanzhangsh", "score": 94023.90438247012, "slug": "vanzhangsh-skills", "source": "clawhub", "stars": 0, "tags": null, "updated_at": 1776749083904, "version": "1.0.0"}, {"category": "ai-intelligence", "created_at": 1773061160793, "description": "Context engineering platform for AI agents. Upload documents, search with semantic + structured queries, and inject relevant context into LLM prompts. Suppor...", "description_zh": "", "downloads": 235, "homepage": "https://clawhub.ai/punithg/memic", "iconUrl": null, "installs": 15, "name": "memic", "ownerName": "punithg", "score": 100000, "slug": "memic", "source": "clawhub", "stars": 2, "tags": null, "updated_at": 1776749084392, "version": "1.0.4"}, {"category": "developer-tools", "created_at": 1773062945477, "description": "Voice-first OpenClaw skill powered by MOSS APIs. Use when a user wants spoken replies in a preferred timbre, either from an existing voice_id or from a refer...", "description_zh": "", "downloads": 235, "homepage": "https://clawhub.ai/xiami2019/moss-tts", "iconUrl": null, "installs": 7, "name": "SOTA Zero-shot Voice Cloning TTS", "ownerName": "xiami2019", "score": 3073.7704918032787, "slug": "moss-tts", "source": "clawhub", "stars": 1, "tags": ["speech", "tts", "voice clone"], "updated_at": 1776768890522, "version": "1.0.0"}]}