{"page": 280, "total_pages": 522, "total": 26073, "skills": [{"category": "ai-intelligence", "created_at": 1772799470310, "description": "Route AI agent traffic through a residential IP using Tailscale exit nodes — no custom code, no proxies, just WireGuard.", "description_zh": "", "downloads": 235, "homepage": "https://clawhub.ai/nicholaslocascio/claw-relay", "iconUrl": null, "installs": 16, "name": "Claw Relay", "ownerName": "nicholaslocascio", "score": 6480.304955527319, "slug": "claw-relay", "source": "clawhub", "stars": 1, "tags": null, "updated_at": 1776761880268, "version": "1.0.0"}, {"category": "data-analysis", "created_at": 1773061177587, "description": "botlearn-certify — BotLearn certification generator that compares assessment history and produces capability certificates (HTML + MD); triggers after assessm...", "description_zh": "", "downloads": 235, "homepage": "https://clawhub.ai/calvinxhk/botlearn-certify", "iconUrl": null, "installs": 10, "name": "botlearn-certify", "ownerName": "calvinxhk", "score": 91726.61870503597, "slug": "botlearn-certify", "source": "clawhub", "stars": 1, "tags": null, "updated_at": 1776749085456, "version": "1.0.5"}, {"category": "ai-intelligence", "created_at": 1772805295482, "description": "This skill should be used when the user asks to \"book a padel court\", \"find available padel courts\", \"search padel courts near me\", \"reserve a Playtomic cour...", "description_zh": "", "downloads": 235, "homepage": "https://clawhub.ai/philipp-eisen/padel", "iconUrl": null, "installs": 14, "name": "Padel", "ownerName": "philipp-eisen", "score": 98837.20930232557, "slug": "padel", "source": "clawhub", "stars": 1, "tags": null, "updated_at": 1776749084700, "version": "1.0.0"}, {"category": "data-analysis", "created_at": 1772798707747, "description": "Analyze outbound campaign performance, reply rates, open-to-reply conversion, follow-up prioritization, platform attribution, and deliverability using Outbou...", "description_zh": "", "downloads": 235, "homepage": "https://clawhub.ai/osiharris/outboundsync-analysis", "iconUrl": null, "installs": 18, "name": "OutboundSync Analysis", "ownerName": "osiharris", "score": 100000, "slug": "outboundsync-analysis", "source": "clawhub", "stars": 1, "tags": null, "updated_at": 1776749084413, "version": "0.1.1"}, {"category": "ai-intelligence", "created_at": 1772800933640, "description": "Register on the Quack Network and create a public Agent Card profile. Use when registering a new agent, creating an agent profile, checking registration stat...", "description_zh": "", "downloads": 235, "homepage": "https://clawhub.ai/jpaulgrayson/quack-identity", "iconUrl": null, "installs": 11, "name": "Quack Identity", "ownerName": "jpaulgrayson", "score": 2042.0576989920055, "slug": "quack-identity", "source": "clawhub", "stars": 0, "tags": null, "updated_at": 1776769749972, "version": "1.0.0"}, {"category": "", "created_at": 1774955516670, "description": "answer questions about pythongo code, docs, callbacks, errors, modules, functions, marketcenter, paramsmap, instrument_id, exchange, kline data, and strategy...", "description_zh": "", "downloads": 235, "homepage": "https://clawhub.ai/aruelius/pythongo", "iconUrl": null, "installs": 86, "name": "PythonGO", "ownerName": "aruelius", "score": 7725.180802103879, "slug": "pythongo", "source": "clawhub", "stars": 0, "tags": null, "updated_at": 1776767950061, "version": "1.0.0"}, {"category": "content-creation", "created_at": 1772797420576, "description": "Build a high-engagement Twitter/X presence for any niche. Daily tweet templates, thread frameworks, engagement tactics, and a growth strategy to build an aud...", "description_zh": "", "downloads": 235, "homepage": "https://clawhub.ai/danielblinker83-bot/twitter-x-strategy", "iconUrl": null, "installs": 11, "name": "Twitter/X Strategy — Audience Building System", "ownerName": "danielblinker83-bot", "score": 6817.522483318828, "slug": "twitter-x-strategy", "source": "clawhub", "stars": 0, "tags": ["content", "marketing", "social-media"], "updated_at": 1776764950590, "version": "1.0.0"}, {"category": "ai-intelligence", "created_at": 1772803726499, "description": "Monitors active sub-agents, detects stalls, provides status updates, and steers stuck agents via sessions_send.", "description_zh": "", "downloads": 235, "homepage": "https://clawhub.ai/runeweaverstudios/project-manager-agent", "iconUrl": null, "installs": 21, "name": "Project Manager Agent", "ownerName": "runeweaverstudios", "score": 4196.428571428571, "slug": "project-manager-agent", "source": "clawhub", "stars": 0, "tags": null, "updated_at": 1776764390508, "version": "0.1.0"}, {"category": "data-analysis", "created_at": 1773061304165, "description": "Find arbitrage opportunities between Binance and other exchanges. Each call charges 0.001 USDT via SkillPay.", "description_zh": "", "downloads": 235, "homepage": "https://clawhub.ai/mosonchan2023/binance-arbitrage-finder", "iconUrl": null, "installs": 13, "name": "Binance Arbitrage Finder", "ownerName": "mosonchan2023", "score": 3415.6976744186045, "slug": "binance-arbitrage-finder", "source": "clawhub", "stars": 0, "tags": null, "updated_at": 1776762850330, "version": "1.0.1"}, {"category": "security-compliance", "created_at": 1773090105310, "description": "Automatically reviews compliance of client claim authorization letters using customized templates and pushes results to Feishu every 30 minutes.", "description_zh": "", "downloads": 235, "homepage": "https://clawhub.ai/liulong423401-coder/compliance-review", "iconUrl": null, "installs": 4, "name": "Compliance Review", "ownerName": "liulong423401-coder", "score": 17695.78313253012, "slug": "compliance-review", "source": "clawhub", "stars": 0, "tags": null, "updated_at": 1776759382252, "version": "1.0.0"}, {"category": "data-analysis", "created_at": 1773088925929, "description": "Provides true-random card or symbol draws and poetic impulses for divination, relying on cryptographic randomness for unbiased oracle readings.", "description_zh": "", "downloads": 235, "homepage": "https://clawhub.ai/and0r-/divination", "iconUrl": null, "installs": 17, "name": "Divination", "ownerName": "and0r-", "score": 17695.78313253012, "slug": "divination", "source": "clawhub", "stars": 0, "tags": null, "updated_at": 1776759382237, "version": "1.0.0"}, {"category": "security-compliance", "created_at": 1773063010214, "description": "Generate fully scripted, AI-produced authentic UGC-style video ads with tested hooks, personas, and campaign strategy for TikTok, Instagram, and Facebook at...", "description_zh": "", "downloads": 235, "homepage": "https://clawhub.ai/g4dr/ai-ugc-video-ad-factory", "iconUrl": null, "installs": 10, "name": "AI UGC Video Ad Factory — Generate Authentic UGC-Style Ads at Scale", "ownerName": "g4dr", "score": 1945.5252918287938, "slug": "ai-ugc-video-ad-factory", "source": "clawhub", "stars": 0, "tags": ["ad-creative", "apify", "ecommerce", "facebook-ads", "invideo", "performance-marketing", "shopify", "tiktok-ads", "ugc", "video-ads"], "updated_at": 1776759382205, "version": "1.0.0"}, {"category": "data-analysis", "created_at": 1772799742380, "description": "Manage plashboard templates and autonomously convert natural-language dashboard requests into plashboard tool actions.", "description_zh": "", "downloads": 235, "homepage": "https://clawhub.ai/jhytabest/plashboard-admin", "iconUrl": null, "installs": 9, "name": "Plashboard Admin", "ownerName": "jhytabest", "score": 12303.664921465968, "slug": "plashboard-admin", "source": "clawhub", "stars": 0, "tags": null, "updated_at": 1776754388301, "version": "1.0.0"}, {"category": "ai-intelligence", "created_at": 1773221102413, "description": "Central router for the marketing skill ecosystem. Use when unsure which marketing skill to use, when orchestrating a multi-skill campaign, or when coordinati...", "description_zh": "", "downloads": 235, "homepage": "https://clawhub.ai/alirezarezvani/marketing-ops", "iconUrl": null, "installs": 15, "name": "marketing-ops", "ownerName": "alirezarezvani", "score": 94377.51004016063, "slug": "marketing-ops", "source": "clawhub", "stars": 0, "tags": null, "updated_at": 1776749085376, "version": "2.1.1"}, {"category": "developer-tools", "created_at": 1773067263916, "description": "Create and manage macro-task pipelines (QA, roadmaps, feature rollouts) using PIPELINE.md + HEARTBEAT.md pattern. Use when building multi-step project plans...", "description_zh": "", "downloads": 235, "homepage": "https://clawhub.ai/santacruzg282-cyber/macro-pipeline", "iconUrl": null, "installs": 17, "name": "Macro Pipeline", "ownerName": "santacruzg282-cyber", "score": 94000, "slug": "macro-pipeline", "source": "clawhub", "stars": 0, "tags": null, "updated_at": 1776749084984, "version": "3.0.0"}, {"category": "data-analysis", "created_at": 1772798166884, "description": "Complete Wafeq accounting & e-invoicing API reference for the Middle East (UAE, Saudi Arabia). Use when building integrations with Wafeq, creating/managing i...", "description_zh": "", "downloads": 235, "homepage": "https://clawhub.ai/yordilorenzo/wafeq-api", "iconUrl": null, "installs": 12, "name": "Wafeq API Reference", "ownerName": "yordilorenzo", "score": 74367.08860759494, "slug": "wafeq-api", "source": "clawhub", "stars": 0, "tags": null, "updated_at": 1776749084928, "version": "1.1.0"}, {"category": "content-creation", "created_at": 1773069899909, "description": "Provision and manage AI-native Postgres databases with REST API, auth, storage, and row-level security. Pay with x402 USDC micropayments on Base.", "description_zh": "", "downloads": 235, "homepage": "https://clawhub.ai/majortal/run402", "iconUrl": null, "installs": 11, "name": "Run402", "ownerName": "majortal", "score": 74367.08860759494, "slug": "run402", "source": "clawhub", "stars": 0, "tags": null, "updated_at": 1776749084920, "version": "1.0.1"}, {"category": "security-compliance", "created_at": 1772799986881, "description": "Audit and auto-update a Discord server guide channel. Compares a reference guide message against actual channels, detects new/renamed/deleted/moved channels,...", "description_zh": "", "downloads": 235, "homepage": "https://clawhub.ai/npfaerber/discord-channel-auditor", "iconUrl": null, "installs": 3, "name": "Discord Channel Auditor", "ownerName": "npfaerber", "score": 74367.08860759494, "slug": "discord-channel-auditor", "source": "clawhub", "stars": 0, "tags": ["audit", "discord", "server-guide"], "updated_at": 1776749084913, "version": "1.0.1"}, {"category": "ai-intelligence", "created_at": 1773064541625, "description": "Local Solana agent wallet with local infra for transfers (SOL, USDC, USDT), Jupiter swaps, and x402 purch.", "description_zh": "", "downloads": 235, "homepage": "https://clawhub.ai/willmcdeezy/fuego", "iconUrl": null, "installs": 13, "name": "Fuego", "ownerName": "willmcdeezy", "score": 74367.08860759494, "slug": "fuego", "source": "clawhub", "stars": 0, "tags": null, "updated_at": 1776749084898, "version": "1.4.0"}, {"category": "developer-tools", "created_at": 1772803432733, "description": "OpenClaw deployment optimization guide based on 800 RMB (100 USD) of real-world experience. Helps new users quickly complete skill installation, configuratio...", "description_zh": "", "downloads": 235, "homepage": "https://clawhub.ai/yangdaowan/new-player-package-800", "iconUrl": null, "installs": 7, "name": "New Player Package 800", "ownerName": "yangdaowan", "score": 74367.08860759494, "slug": "new-player-package-800", "source": "clawhub", "stars": 0, "tags": null, "updated_at": 1776749084851, "version": "1.0.0"}, {"category": "ai-intelligence", "created_at": 1773063285131, "description": "Broadcast a message to multiple OpenClaw group sessions simultaneously. Use for cross-agent coordination, alerts, and announcements.", "description_zh": "", "downloads": 235, "homepage": "https://clawhub.ai/zero2ai-hub/skill-agent-broadcast", "iconUrl": null, "installs": 14, "name": "Skill Agent Broadcast", "ownerName": "zero2ai-hub", "score": 92519.68503937009, "slug": "skill-agent-broadcast", "source": "clawhub", "stars": 0, "tags": null, "updated_at": 1776749084782, "version": "1.0.1"}, {"category": "developer-tools", "created_at": 1773091514178, "description": "Optimize web performance and LLM API costs. Covers loading speed, runtime efficiency, resource optimization, and cost-aware LLM pipelines with model routing,...", "description_zh": "", "downloads": 235, "homepage": "https://clawhub.ai/huamu668/performance-ecc", "iconUrl": null, "installs": 13, "name": "Performance Optimization", "ownerName": "huamu668", "score": 91085.27131782945, "slug": "performance-ecc", "source": "clawhub", "stars": 0, "tags": ["cost-optimization", "llm", "performance", "web-vitals"], "updated_at": 1776749084686, "version": "2.0.0"}, {"category": "ai-intelligence", "created_at": 1773069772200, "description": "Fetch recent unread Gmail (yesterday + today) and send a digest to the user.", "description_zh": "", "downloads": 235, "homepage": "https://clawhub.ai/2p1c/gmail-summarize", "iconUrl": null, "installs": 48, "name": "Gmail-digester", "ownerName": "2p1c", "score": 78333.33333333333, "slug": "gmail-summarize", "source": "clawhub", "stars": 0, "tags": null, "updated_at": 1776749084682, "version": "1.1.4"}, {"category": "ai-intelligence", "created_at": 1773062064573, "description": "Bridge between Google A2A protocol and OADP agent networks. Translate agent cards to OADP signals, discover A2A agents from OADP hubs, register your A2A agen...", "description_zh": "", "downloads": 235, "homepage": "https://clawhub.ai/imaflytok/a2a-bridge", "iconUrl": null, "installs": 11, "name": "A2A Bridge", "ownerName": "imaflytok", "score": 78333.33333333333, "slug": "a2a-bridge", "source": "clawhub", "stars": 0, "tags": null, "updated_at": 1776749084665, "version": "1.0.0"}, {"category": "communication-collaboration", "created_at": 1772796748369, "description": "Mee6 operations via Discord message tool (channel=discord).", "description_zh": "", "downloads": 235, "homepage": "https://clawhub.ai/ilmn25/mee6", "iconUrl": null, "installs": 5, "name": "mee6", "ownerName": "ilmn25", "score": 85454.54545454546, "slug": "mee6", "source": "clawhub", "stars": 0, "tags": null, "updated_at": 1776749084390, "version": "1.0.0"}, {"category": "data-analysis", "created_at": 1772798787840, "description": "Generate a comprehensive influencer vetting report. Use when someone asks to vet, analyze, or review an influencer/creator. Takes a creator profile URL or vi...", "description_zh": "", "downloads": 235, "homepage": "https://clawhub.ai/shawnshenopeninterx/memories-influencer-report", "iconUrl": null, "installs": 2, "name": "Influencer Report", "ownerName": "shawnshenopeninterx", "score": 91439.6887159533, "slug": "memories-influencer-report", "source": "clawhub", "stars": 0, "tags": null, "updated_at": 1776749084291, "version": "1.0.0"}, {"category": "developer-tools", "created_at": 1773090067106, "description": "Orchestrate OpenClaw Agent Swarm workflows for multi-project coding automation with Obsidian task intake, Claude coding, Codex review, GitLab MR flow, merge+...", "description_zh": "", "downloads": 235, "homepage": "https://clawhub.ai/matzoh/agent-swarm-orchestrator", "iconUrl": null, "installs": 37, "name": "Agent Swarm Orchestrator", "ownerName": "matzoh", "score": 87686.56716417911, "slug": "agent-swarm-orchestrator", "source": "clawhub", "stars": 0, "tags": null, "updated_at": 1776749084145, "version": "1.1.0"}, {"category": "data-analysis", "created_at": 1772799939844, "description": "Skill Cortex is the system's capability cortex. When lacking ability, it autonomously acquires Skills from ClawHub or GitHub, then releases them after use. E...", "description_zh": "", "downloads": 235, "homepage": "https://clawhub.ai/ankwu001/temp-publish", "iconUrl": null, "installs": 11, "name": "Temp Publish", "ownerName": "ankwu001", "score": 87686.56716417911, "slug": "temp-publish", "source": "clawhub", "stars": 0, "tags": null, "updated_at": 1776749084097, "version": "0.0.1"}, {"category": "security-compliance", "created_at": 1773064578987, "description": "Hunter.io — email finder, email verifier, domain search, author finder, and lead management.", "description_zh": "", "downloads": 235, "homepage": "https://clawhub.ai/aiwithabidi/hunter", "iconUrl": null, "installs": 12, "name": "Hunter", "ownerName": "aiwithabidi", "score": 91439.6887159533, "slug": "hunter", "source": "clawhub", "stars": 0, "tags": null, "updated_at": 1776749083728, "version": "1.0.0"}, {"category": "ai-intelligence", "created_at": 1773080531693, "description": "Text-to-speech conversion using GLM-TTS service via the `uvx zai-tts` command for generating audio from text. Use when (1) User requests audio/voice output w...", "description_zh": "", "downloads": 234, "homepage": "https://clawhub.ai/al-one/zai-tts", "iconUrl": null, "installs": 28, "name": "🗣️ Text-to-speech using GLM-TTS for generating audio", "ownerName": "al-one", "score": 17221.873035826524, "slug": "zai-tts", "source": "clawhub", "stars": 2, "tags": null, "updated_at": 1776757282236, "version": "1.0.3"}, {"category": "communication-collaboration", "created_at": 1773076665371, "description": "Fast OpenAI Codex account switch for OpenClaw via the local cs command. Use when user sends `cs relogin`, asks to re-login or switch ChatGPT Codex account, o...", "description_zh": "", "downloads": 234, "homepage": "https://clawhub.ai/anjun/cs-relogin", "iconUrl": null, "installs": 13, "name": "CS Relogin", "ownerName": "anjun", "score": 98069.49806949808, "slug": "cs-relogin", "source": "clawhub", "stars": 1, "tags": null, "updated_at": 1776749085048, "version": "1.1.2"}, {"category": "communication-collaboration", "created_at": 1773073390702, "description": "Execute DeFi transactions on BSC via SHLL AgentNFA. The AI handles all commands and users only need to chat.", "description_zh": "", "downloads": 234, "homepage": "https://clawhub.ai/kledx/shll-skills", "iconUrl": null, "installs": 8, "name": "Upload Clawhub", "ownerName": "kledx", "score": 100000, "slug": "shll-skills", "source": "clawhub", "stars": 1, "tags": ["ai-agent", "bsc", "defi", "four-meme", "mcp", "pancakeswap", "trading", "venus"], "updated_at": 1776749084803, "version": "6.0.5"}, {"category": "productivity", "created_at": 1773075438403, "description": "Bypass rate limits and 429 Too Many Requests errors. Distribute requests across rotating residential IPs, add intelligent delays, and manage request queues t...", "description_zh": "", "downloads": 234, "homepage": "https://clawhub.ai/luis2404123/rate-limit-bypass", "iconUrl": null, "installs": 11, "name": "Rate Limit Bypass", "ownerName": "luis2404123", "score": 99218.75, "slug": "rate-limit-bypass", "source": "clawhub", "stars": 1, "tags": null, "updated_at": 1776749084571, "version": "1.0.0"}, {"category": "ai-intelligence", "created_at": 1772805443341, "description": "Preserve user-critical instructions across long sessions and context compaction. Use when users mark constraints as important/must/always/never/highest-prior...", "description_zh": "", "downloads": 234, "homepage": "https://clawhub.ai/dalomeve/instruction-anchor-guard", "iconUrl": null, "installs": 9, "name": "Instruction Anchor Guard", "ownerName": "dalomeve", "score": 1652.775815793191, "slug": "instruction-anchor-guard", "source": "clawhub", "stars": 0, "tags": null, "updated_at": 1776766490609, "version": "1.0.0"}, {"category": "developer-tools", "created_at": 1773068943746, "description": "Web scraping with proxy rotation to avoid blocks. Complete scraping methodology with residential proxies, browser automation, anti-detection headers, rate li...", "description_zh": "", "downloads": 234, "homepage": "https://clawhub.ai/luis2404123/web-scraping-proxy", "iconUrl": null, "installs": 14, "name": "Web Scraping Proxy", "ownerName": "luis2404123", "score": 3129.1789248462155, "slug": "web-scraping-proxy", "source": "clawhub", "stars": 0, "tags": null, "updated_at": 1776766450146, "version": "1.0.0"}, {"category": "productivity", "created_at": 1773060536960, "description": "Manage Nginx Proxy Manager (NPM) for reverse proxy and SSL termination to internal services like staging/prod apps. Use when creating/updating proxy hosts, r...", "description_zh": "", "downloads": 234, "homepage": "https://clawhub.ai/mw-slc/nginx-proxy-manager", "iconUrl": null, "installs": 5, "name": "Nginx Proxy Manager", "ownerName": "mw-slc", "score": 7276.119402985075, "slug": "nginx-proxy-manager", "source": "clawhub", "stars": 0, "tags": null, "updated_at": 1776761990025, "version": "1.0.0"}, {"category": "content-creation", "created_at": 1773222872254, "description": "Async AI image generation (text-to-image and image-to-image). Submit a job to get a task_id, then poll status to get an OSS download URL.", "description_zh": "", "downloads": 234, "homepage": "https://clawhub.ai/ilpvc/ai-lmage-for-file-repair", "iconUrl": null, "installs": 25, "name": "ai lmage", "ownerName": "ilpvc", "score": 17554.388597149285, "slug": "ai-lmage-for-file-repair", "source": "clawhub", "stars": 0, "tags": null, "updated_at": 1776759382780, "version": "1.0.2"}, {"category": "developer-tools", "created_at": 1772804723982, "description": "Track and manage income, expenses, task pricing, and generate daily, weekly, and monthly financial reports locally without external data sharing.", "description_zh": "", "downloads": 234, "homepage": "https://clawhub.ai/fffdz/tianyi-revenue-tracker", "iconUrl": null, "installs": 8, "name": "Revenue Tracker (Tianyi)", "ownerName": "fffdz", "score": 17687.07482993197, "slug": "tianyi-revenue-tracker", "source": "clawhub", "stars": 0, "tags": null, "updated_at": 1776759382508, "version": "1.0.0"}, {"category": "developer-tools", "created_at": 1773089361487, "description": "Screen stocks by fundamental metrics, technical indicators, sector, and market to find and save stocks matching specific financial criteria and trends.", "description_zh": "", "downloads": 234, "homepage": "https://clawhub.ai/saintlittlefish/xanadu-stock-screener", "iconUrl": null, "installs": 27, "name": "Xanadu Stock Screener", "ownerName": "saintlittlefish", "score": 17554.388597149285, "slug": "xanadu-stock-screener", "source": "clawhub", "stars": 0, "tags": ["finance", "investing", "screening", "stocks"], "updated_at": 1776759382489, "version": "1.0.0"}, {"category": "developer-tools", "created_at": 1772804091116, "description": "Query and annotate gene variants from ClinVar and dbSNP databases. Trigger when: - User provides a variant identifier (rsID, HGVS notation, genomic coordinat...", "description_zh": "", "downloads": 234, "homepage": "https://clawhub.ai/aipoch-ai/variant-annotation", "iconUrl": null, "installs": 3, "name": "Variant Annotation", "ownerName": "aipoch-ai", "score": 15506.958250497019, "slug": "variant-annotation", "source": "clawhub", "stars": 0, "tags": ["gene", "variant"], "updated_at": 1776757882268, "version": "1.0.0"}, {"category": "developer-tools", "created_at": 1773077241041, "description": "Trade prediction markets on Polymarket using the official polymarket CLI. Use when the user wants to browse prediction markets, place bets, manage orders, ch...", "description_zh": "", "downloads": 234, "homepage": "https://clawhub.ai/lacymorrow/polymarket-cli-trading", "iconUrl": null, "installs": 22, "name": "Polymarket CLI Trading", "ownerName": "lacymorrow", "score": 14661.654135338345, "slug": "polymarket-cli-trading", "source": "clawhub", "stars": 0, "tags": null, "updated_at": 1776757020649, "version": "1.0.0"}, {"category": "ai-intelligence", "created_at": 1773073958714, "description": "Delegate Aavegotchi petting rights to AAI's wallet on Base. Generate approve/revoke tx data, check approval, and maintain delegated wallet bookkeeping in pet...", "description_zh": "", "downloads": 234, "homepage": "https://clawhub.ai/aaigotchi/pet-operator", "iconUrl": null, "installs": 12, "name": "Pet Operator", "ownerName": "aaigotchi", "score": 46336.63366336634, "slug": "pet-operator", "source": "clawhub", "stars": 0, "tags": ["aavegotchi", "base", "delegation", "nft"], "updated_at": 1776750604789, "version": "1.2.0"}, {"category": "ai-intelligence", "created_at": 1773089935532, "description": "Optimize macOS for AI workloads (OpenClaw, Docker, Ollama). Turn an 8GB Mac into a lean AI server node with near-16GB performance by disabling background ser...", "description_zh": "", "downloads": 234, "homepage": "https://clawhub.ai/dongsheng123132/mac-ai-optimizer", "iconUrl": null, "installs": 18, "name": "Mac AI Optimizer", "ownerName": "dongsheng123132", "score": 93600, "slug": "mac-ai-optimizer", "source": "clawhub", "stars": 0, "tags": ["ai-server", "docker", "macos", "memory", "ollama", "openclaw", "optimization"], "updated_at": 1776749085161, "version": "1.0.0"}, {"category": "ai-intelligence", "created_at": 1773218795086, "description": "Create a new AI agent identity (SOUL.md, IDENTITY.md, AGENTS.md) and package it as a .skill file ready to upload to ClawHub. Use when a user wants to create,...", "description_zh": "", "downloads": 234, "homepage": "https://clawhub.ai/maverick-software/agent-creator", "iconUrl": null, "installs": 52, "name": "Agent Creator", "ownerName": "maverick-software", "score": 74050.6329113924, "slug": "agent-creator", "source": "clawhub", "stars": 0, "tags": null, "updated_at": 1776749084874, "version": "1.0.0"}, {"category": "security-compliance", "created_at": 1772804352673, "description": "Uploads a video to YouTube using the official YouTube Data API v3 and OAuth 2.0. Use this skill when the user asks to upload a video to YouTube. It supports...", "description_zh": "", "downloads": 234, "homepage": "https://clawhub.ai/brorlandi/youtube-upload", "iconUrl": null, "installs": 6, "name": "YouTube Upload Videos Skill", "ownerName": "brorlandi", "score": 92125.9842519685, "slug": "youtube-upload", "source": "clawhub", "stars": 0, "tags": null, "updated_at": 1776749084809, "version": "1.0.0"}, {"category": "developer-tools", "created_at": 1773079822039, "description": "Adversarial thinking partner for founders and executives. Stress-tests plans, prepares for brutal board meetings, dissects decisions with no good options, an...", "description_zh": "", "downloads": 234, "homepage": "https://clawhub.ai/alirezarezvani/executive-mentor", "iconUrl": null, "installs": 11, "name": "Executive Mentor", "ownerName": "alirezarezvani", "score": 92125.9842519685, "slug": "executive-mentor", "source": "clawhub", "stars": 0, "tags": null, "updated_at": 1776749084772, "version": "2.1.1"}, {"category": "data-analysis", "created_at": 1773069221789, "description": "Parse client URLs and requirements to generate ad proposals, ROI estimates, persuasion logic, and CRM-based close probability forecasting for Meta (Facebook/...", "description_zh": "", "downloads": 234, "homepage": "https://clawhub.ai/danyangliu-sandwichlab/sales-ads-helper", "iconUrl": null, "installs": 22, "name": "Sales Helper", "ownerName": "danyangliu-sandwichlab", "score": 90697.67441860464, "slug": "sales-ads-helper", "source": "clawhub", "stars": 0, "tags": null, "updated_at": 1776749084722, "version": "1.0.0"}, {"category": "ai-intelligence", "created_at": 1772804488423, "description": "Run iPhone mission playbooks for battery, storage, privacy, connectivity, and daily automation with live operator-style guidance.", "description_zh": "", "downloads": 234, "homepage": "https://clawhub.ai/ivangdavila/iphone", "iconUrl": null, "installs": 17, "name": "iPhone", "ownerName": "ivangdavila", "score": 78000, "slug": "iphone", "source": "clawhub", "stars": 0, "tags": null, "updated_at": 1776749084630, "version": "1.0.0"}, {"category": "productivity", "created_at": 1773088572292, "description": "Cross-platform backup and restore for OpenClaw. Works on Windows, macOS, and Linux — backups created on any OS can be restored on any other OS. Use when user...", "description_zh": "", "downloads": 234, "homepage": "https://clawhub.ai/beyound87/myopenclaw-backup-restore", "iconUrl": null, "installs": 6, "name": "MyOpenClaw Backup Restore", "ownerName": "beyound87", "score": 91406.25, "slug": "myopenclaw-backup-restore", "source": "clawhub", "stars": 0, "tags": null, "updated_at": 1776749084533, "version": "3.0.2"}, {"category": "developer-tools", "created_at": 1772800775888, "description": "Discover France like a local with concrete city advice, regional route planning, food context, and practical travel logistics.", "description_zh": "", "downloads": 234, "homepage": "https://clawhub.ai/ivangdavila/france", "iconUrl": null, "installs": 11, "name": "France", "ownerName": "ivangdavila", "score": 93227.09163346613, "slug": "france", "source": "clawhub", "stars": 0, "tags": null, "updated_at": 1776749084055, "version": "1.0.0"}]}