{"page": 281, "total_pages": 522, "total": 26073, "skills": [{"category": "productivity", "created_at": 1773065108308, "description": "Automates browser interactions for web testing, form filling, screenshots, and data extraction. Use when the user needs to navigate websites, interact with w...", "description_zh": "", "downloads": 234, "homepage": "https://clawhub.ai/cecwap/agb", "iconUrl": null, "installs": 5, "name": "Agb", "ownerName": "cecwap", "score": 93227.09163346613, "slug": "agb", "source": "clawhub", "stars": 0, "tags": null, "updated_at": 1776749084011, "version": "1.0.0"}, {"category": "data-analysis", "created_at": 1773221140616, "description": "Real-time football transfer intelligence — rumours, credibility scores, and multi-source verification", "description_zh": "", "downloads": 234, "homepage": "https://clawhub.ai/leeleon/rising-transfers-transfer-intel", "iconUrl": null, "installs": 65, "name": "Rising Transfers — Transfer Intel", "ownerName": "leeleon", "score": 94354.83870967742, "slug": "rising-transfers-transfer-intel", "source": "clawhub", "stars": 0, "tags": ["analytics", "ballers", "fifa", "football", "scouting", "soccer", "transfer", "worldcup"], "updated_at": 1776749083858, "version": "1.0.0"}, {"category": "developer-tools", "created_at": 1773079974786, "description": "API integration and automation skill for connecting services, webhooks, and third-party platforms. Use when integrating APIs, building webhooks, syncing data...", "description_zh": "", "downloads": 234, "homepage": "https://clawhub.ai/yinanping-cpu/yinan-api-integrator", "iconUrl": null, "installs": 10, "name": "Api Integrator", "ownerName": "yinanping-cpu", "score": 91050.58365758754, "slug": "yinan-api-integrator", "source": "clawhub", "stars": 0, "tags": null, "updated_at": 1776749083657, "version": "1.0.1"}, {"category": "developer-tools", "created_at": 1772799146005, "description": "Discover Italy beyond the clichés with specific restaurants, hidden gems, and insights that only locals know.", "description_zh": "", "downloads": 234, "homepage": "https://clawhub.ai/ivangdavila/italy", "iconUrl": null, "installs": 7, "name": "Italy", "ownerName": "ivangdavila", "score": 91050.58365758754, "slug": "italy", "source": "clawhub", "stars": 0, "tags": null, "updated_at": 1776749083655, "version": "1.0.0"}, {"category": "data-analysis", "created_at": 1773073215414, "description": "Provides concurrent web search and code search capabilities for Agents with hybrid retrieval. Supports searching multiple keywords simultaneously, Embedding...", "description_zh": "", "downloads": 234, "homepage": "https://clawhub.ai/sebrinass/skill-7", "iconUrl": null, "installs": 9, "name": "Performing Searches", "ownerName": "sebrinass", "score": 91050.58365758754, "slug": "skill-7", "source": "clawhub", "stars": 0, "tags": null, "updated_at": 1776749083641, "version": "1.1.6"}, {"category": "security-compliance", "created_at": 1772796328516, "description": "Security agent that inventories installed OpenClaw skills, analyzes them for threats, and syncs results to your Clawned dashboard.", "description_zh": "", "downloads": 234, "homepage": "https://clawhub.ai/jenish-sojitra/clawnedhub", "iconUrl": null, "installs": 3, "name": "clawnedhub - Scan and Security your OpenClaw Instances", "ownerName": "jenish-sojitra", "score": 91050.58365758754, "slug": "clawnedhub", "source": "clawhub", "stars": 0, "tags": null, "updated_at": 1776749083639, "version": "1.0.1"}, {"category": "data-analysis", "created_at": 1773283802701, "description": "TikTok video downloader, YouTube video downloader, Instagram Reels downloader, Twitter/X video downloader, Bilibili video downloader, Reddit video downloader...", "description_zh": "", "downloads": 233, "homepage": "https://clawhub.ai/wells1137/puresnap", "iconUrl": null, "installs": 21, "name": "PureSnap", "ownerName": "wells1137", "score": 1219.4534149515594, "slug": "puresnap", "source": "clawhub", "stars": 1, "tags": null, "updated_at": 1776767350123, "version": "1.3.0"}, {"category": "communication-collaboration", "created_at": 1773066499904, "description": "Automates lead scraping, creates personalized websites, sends targeted emails, and schedules follow-ups to engage and convert potential customers efficiently.", "description_zh": "", "downloads": 233, "homepage": "https://clawhub.ai/mandebiko5-star/lead-automation", "iconUrl": null, "installs": 8, "name": "Lead Automation", "ownerName": "mandebiko5-star", "score": 91335.74007220217, "slug": "lead-automation", "source": "clawhub", "stars": 1, "tags": null, "updated_at": 1776759382981, "version": "1.0.0"}, {"category": "communication-collaboration", "created_at": 1772799898424, "description": "Read, search, organise, and draft emails using neomutt — a terminal IMAP client. List inbox, search, read HTML email via w3m, mark read/unread, manage folder...", "description_zh": "", "downloads": 233, "homepage": "https://clawhub.ai/elmoyeldo/neomutt-commander", "iconUrl": null, "installs": 9, "name": "Neomutt Commander", "ownerName": "elmoyeldo", "score": 7592.049527533398, "slug": "neomutt-commander", "source": "clawhub", "stars": 0, "tags": null, "updated_at": 1776769150193, "version": "1.0.0"}, {"category": "", "created_at": 1774881978544, "description": "OCR Web Service integration. Manage Documents. Use when the user wants to interact with OCR Web Service data.", "description_zh": "", "downloads": 233, "homepage": "https://clawhub.ai/gora050/ocr-web-service", "iconUrl": null, "installs": 87, "name": "Ocr Web Service", "ownerName": "gora050", "score": 3389.090909090909, "slug": "ocr-web-service", "source": "clawhub", "stars": 0, "tags": null, "updated_at": 1776767471211, "version": "1.0.0"}, {"category": "developer-tools", "created_at": 1772799180386, "description": "Build and extend the core Pump SDK — an offline-first TypeScript SDK that constructs Solana TransactionInstructions for token creation, buying, selling, migr...", "description_zh": "", "downloads": 233, "homepage": "https://clawhub.ai/speraxos/pump-sdk-core", "iconUrl": null, "installs": 5, "name": "Pump Sdk Core", "ownerName": "speraxos", "score": 2786.4147333173883, "slug": "pump-sdk-core", "source": "clawhub", "stars": 0, "tags": null, "updated_at": 1776767090512, "version": "0.1.0"}, {"category": "ai-intelligence", "created_at": 1772799309771, "description": "Teaches agents how to trade on the Fabric marketplace — search strategy, negotiation, offer lifecycle, trust rules, and creative deal composition. Use when i...", "description_zh": "", "downloads": 233, "homepage": "https://clawhub.ai/pilsang/fabric-marketplace", "iconUrl": null, "installs": 12, "name": "Fabric Marketplace", "ownerName": "pilsang", "score": 8336.314847942755, "slug": "fabric-marketplace", "source": "clawhub", "stars": 0, "tags": null, "updated_at": 1776765849911, "version": "1.0.0"}, {"category": "communication-collaboration", "created_at": 1773089230303, "description": "A comprehensive AI agent skill that transforms your email from a source of stress into a managed system. Triages your inbox by urgency and importance, drafts...", "description_zh": "", "downloads": 233, "homepage": "https://clawhub.ai/agistack/email-autopilot-pro", "iconUrl": null, "installs": 9, "name": "Email Autopilot", "ownerName": "agistack", "score": 8256.555634301914, "slug": "email-autopilot-pro", "source": "clawhub", "stars": 0, "tags": ["email", "inbox", "productivity", "professionals", "replies"], "updated_at": 1776763450107, "version": "1.0.0"}, {"category": "developer-tools", "created_at": 1773091396594, "description": "Divorce process support with financial inventory, legal preparation, and emotional guidance. Use when user mentions divorce, separation, custody, asset divis...", "description_zh": "", "downloads": 233, "homepage": "https://clawhub.ai/agenticio/divorce", "iconUrl": null, "installs": 41, "name": "Divorce", "ownerName": "agenticio", "score": 1248.1919965714899, "slug": "divorce", "source": "clawhub", "stars": 0, "tags": ["coparenting", "custody", "divorce", "family", "legal", "separation"], "updated_at": 1776762345426, "version": "2.1.0"}, {"category": "content-creation", "created_at": 1773079858872, "description": "Compress JPG, PNG, WebP, and GIF images to reduce file size significantly while preserving visual quality with bulk compression support.", "description_zh": "", "downloads": 233, "homepage": "https://clawhub.ai/loverun321/image-compressor-pro", "iconUrl": null, "installs": 7, "name": "Image Compressor", "ownerName": "loverun321", "score": 16236.933797909409, "slug": "image-compressor-pro", "source": "clawhub", "stars": 0, "tags": null, "updated_at": 1776759382858, "version": "1.0.0"}, {"category": "productivity", "created_at": 1773217985054, "description": "Complete job search intelligence system for anyone looking for work, changing careers, or trying to advance professionally. Trigger whenever someone needs he...", "description_zh": "", "downloads": 233, "homepage": "https://clawhub.ai/ethagent/job", "iconUrl": null, "installs": 13, "name": "Job", "ownerName": "ethagent", "score": 1928.9676297706765, "slug": "job", "source": "clawhub", "stars": 0, "tags": ["career", "hiring", "interview", "job", "resume"], "updated_at": 1776759382139, "version": "1.0.0"}, {"category": "data-analysis", "created_at": 1773079206460, "description": "Trade and analyse Polymarket prediction markets with a 5-minute BTC EMA crossover strategy. Browse markets, read order books, run signals, manage a live auto...", "description_zh": "", "downloads": 233, "homepage": "https://clawhub.ai/icloud-git/polymarket-edge", "iconUrl": null, "installs": 31, "name": "Polymarket Edge", "ownerName": "icloud-git", "score": 14598.997493734336, "slug": "polymarket-edge", "source": "clawhub", "stars": 0, "tags": null, "updated_at": 1776757282114, "version": "1.0.0"}, {"category": "data-analysis", "created_at": 1772798624364, "description": "Query Plausible Analytics API for traffic stats, referrers, conversions, and custom events.", "description_zh": "", "downloads": 233, "homepage": "https://clawhub.ai/ivangdavila/plausible", "iconUrl": null, "installs": 10, "name": "Plausible", "ownerName": "ivangdavila", "score": 11586.275484833417, "slug": "plausible", "source": "clawhub", "stars": 0, "tags": null, "updated_at": 1776754388429, "version": "1.0.1"}, {"category": "data-analysis", "created_at": 1773081272886, "description": "Predicts CPU spikes using Random Forest regressor, monitors system resources, saves metrics, and generates Excel reports.", "description_zh": "", "downloads": 233, "homepage": "https://clawhub.ai/ningtoba/event-monitor", "iconUrl": null, "installs": 38, "name": "Monitoring Skill", "ownerName": "ningtoba", "score": 40521.739130434784, "slug": "event-monitor", "source": "clawhub", "stars": 0, "tags": null, "updated_at": 1776751784499, "version": "1.0.4"}, {"category": "ai-intelligence", "created_at": 1772799247294, "description": "Use when you need to verify an AI agent before interacting, find an agent's A2A endpoint, or check reputation before hiring. Retrieves live A2A agent cards f...", "description_zh": "", "downloads": 233, "homepage": "https://clawhub.ai/rnwy/a2a-agent-lookup", "iconUrl": null, "installs": 10, "name": "A2A Agent Lookup — Verify Any AI Agent", "ownerName": "rnwy", "score": 97083.33333333333, "slug": "a2a-agent-lookup", "source": "clawhub", "stars": 0, "tags": null, "updated_at": 1776749085659, "version": "1.0.0"}, {"category": "data-analysis", "created_at": 1773074353088, "description": "Fetch MarsBit news and flash data through the hosted MCP route in marsbit-co. Use this for latest news, channel lookup, keyword search, detail, related news,...", "description_zh": "", "downloads": 233, "homepage": "https://clawhub.ai/domilin/marsbit-news-skill", "iconUrl": null, "installs": 11, "name": "marsbit-news-skill", "ownerName": "domilin", "score": 86940.29850746269, "slug": "marsbit-news-skill", "source": "clawhub", "stars": 0, "tags": null, "updated_at": 1776749085594, "version": "1.0.7"}, {"category": "developer-tools", "created_at": 1772801073856, "description": "Use Twelve Data REST/WebSocket APIs for market quotes, latest prices, historical time series, symbol discovery, and technical indicators. Trigger when users...", "description_zh": "", "downloads": 233, "homepage": "https://clawhub.ai/softtrymee/twelve-data", "iconUrl": null, "installs": 9, "name": "Twelve Data Market API", "ownerName": "softtrymee", "score": 93200, "slug": "twelve-data", "source": "clawhub", "stars": 0, "tags": null, "updated_at": 1776749085192, "version": "1.0.1"}, {"category": "productivity", "created_at": 1773075848101, "description": "Docker volume backup and restore for self-hosted Langfuse. Use when: backing up a self-hosted Langfuse instance, restoring Langfuse after a crash or migratio...", "description_zh": "", "downloads": 233, "homepage": "https://clawhub.ai/nissan/langfuse-backup", "iconUrl": null, "installs": 7, "name": "Langfuse Backup", "ownerName": "nissan", "score": 90310.07751937985, "slug": "langfuse-backup", "source": "clawhub", "stars": 0, "tags": null, "updated_at": 1776749084730, "version": "1.0.1"}, {"category": "communication-collaboration", "created_at": 1772799911004, "description": "Find professional emails and contacts from a name + company/domain using SerpAPI + OpenAI GPT-4o-mini.", "description_zh": "", "downloads": 233, "homepage": "https://clawhub.ai/mrnsmh/openclaw-skill-contact-finder", "iconUrl": null, "installs": 17, "name": "Contact Finder", "ownerName": "mrnsmh", "score": 91372.54901960785, "slug": "openclaw-skill-contact-finder", "source": "clawhub", "stars": 0, "tags": null, "updated_at": 1776749084418, "version": "0.1.0"}, {"category": "content-creation", "created_at": 1772804524740, "description": "Generate engaging social media content for multiple platforms. Use when users need to create posts for Twitter/X, LinkedIn, Instagram, Facebook, or other soc...", "description_zh": "", "downloads": 233, "homepage": "https://clawhub.ai/954215110/social-post-generator", "iconUrl": null, "installs": 11, "name": "Social Post Generator", "ownerName": "954215110", "score": 90661.4785992218, "slug": "social-post-generator", "source": "clawhub", "stars": 0, "tags": null, "updated_at": 1776749084319, "version": "1.2.0"}, {"category": "developer-tools", "created_at": 1772800175968, "description": "Use this skill when the user needs B2B lead collection via Apify actor LurATYM4hkEo78GVj (Apollo-like), including filter-based payload building, validated ru...", "description_zh": "", "downloads": 233, "homepage": "https://clawhub.ai/hundevmode/apollo-like-leads-apify", "iconUrl": null, "installs": 12, "name": "Apollo Like Leads Apify", "ownerName": "hundevmode", "score": 90661.4785992218, "slug": "apollo-like-leads-apify", "source": "clawhub", "stars": 0, "tags": ["apify", "apollo-alternative", "b2b-leads", "lead-scraper", "leadgen", "openclaw"], "updated_at": 1776749084308, "version": "1.0.0"}, {"category": "developer-tools", "created_at": 1772797960225, "description": "Twitter/X research via paid API: search tweets with 50+ operators, fetch tweets with threads/replies/quotes, get user profiles with tweets/followers/followin...", "description_zh": "", "downloads": 233, "homepage": "https://clawhub.ai/tenequm/agentbox-twitter", "iconUrl": null, "installs": 7, "name": "AgentBox Twitter", "ownerName": "tenequm", "score": 86940.29850746269, "slug": "agentbox-twitter", "source": "clawhub", "stars": 0, "tags": null, "updated_at": 1776749084104, "version": "1.0.0"}, {"category": "content-creation", "created_at": 1772800521939, "description": "Manage, organize, and access your bookmarks and saved webpages using Raindrop.io integration for seamless content collection and retrieval.", "description_zh": "", "downloads": 233, "homepage": "https://clawhub.ai/beto621/raindrop-io", "iconUrl": null, "installs": 8, "name": "Raindrop Io", "ownerName": "beto621", "score": 86940.29850746269, "slug": "raindrop-io", "source": "clawhub", "stars": 0, "tags": null, "updated_at": 1776749084094, "version": "1.0.0"}, {"category": "security-compliance", "created_at": 1773063227037, "description": "Deep code audit + documentation sync + release preparation for Python packages. Use when preparing a release, checking code quality before publishing, auditi...", "description_zh": "", "downloads": 233, "homepage": "https://clawhub.ai/morozsm/release-prep", "iconUrl": null, "installs": 8, "name": "Release Prep", "ownerName": "morozsm", "score": 92828.68525896413, "slug": "release-prep", "source": "clawhub", "stars": 0, "tags": null, "updated_at": 1776749084082, "version": "1.0.0"}, {"category": "content-creation", "created_at": 1773075512570, "description": "When the user wants to create, update, read, or manage help center articles via the Help.Center API. Use when the user says \"write a help article\", \"update t...", "description_zh": "", "downloads": 233, "homepage": "https://clawhub.ai/shyjal/helpcenter", "iconUrl": null, "installs": 9, "name": "Help.Center Article Management", "ownerName": "shyjal", "score": 92828.68525896413, "slug": "helpcenter", "source": "clawhub", "stars": 0, "tags": null, "updated_at": 1776749084007, "version": "1.0.0"}, {"category": "developer-tools", "created_at": 1772798522779, "description": "Build incident response timelines and report packs from event logs. Use for detection-to-recovery reporting, phase tracking, and stakeholder-ready incident s...", "description_zh": "", "downloads": 233, "homepage": "https://clawhub.ai/0x-professor/cyber-ir-playbook", "iconUrl": null, "installs": 8, "name": "Cyber Ir Playbook", "ownerName": "0x-professor", "score": 93951.61290322582, "slug": "cyber-ir-playbook", "source": "clawhub", "stars": 0, "tags": null, "updated_at": 1776749083811, "version": "0.1.0"}, {"category": "productivity", "created_at": 1773059955203, "description": "Query real-time option flow intelligence and generate AI-powered trade analysis reports. Use when users ask about option flow, unusual options activity, inst...", "description_zh": "", "downloads": 233, "homepage": "https://clawhub.ai/psdsam-niuniuking/optionwhales", "iconUrl": null, "installs": 13, "name": "optionwhales", "ownerName": "psdsam-niuniuking", "score": 90661.4785992218, "slug": "optionwhales", "source": "clawhub", "stars": 0, "tags": null, "updated_at": 1776749083653, "version": "1.0.1"}, {"category": "content-creation", "created_at": 1773937802598, "description": "Create compelling marketing hooks and content structures using the Puzzle-Driven Model. Use when creating social media posts, newsletters, video scripts, or...", "description_zh": "", "downloads": 232, "homepage": "https://clawhub.ai/yuqingnicole/marketing-hooks", "iconUrl": null, "installs": 16, "name": "Marketing Hooks", "ownerName": "yuqingnicole", "score": 98054.4747081712, "slug": "marketing-hooks", "source": "clawhub", "stars": 1, "tags": null, "updated_at": 1776749083718, "version": "0.1.0"}, {"category": "content-creation", "created_at": 1773221913131, "description": "Manage Shopify store — products, metafields, metaobjects, blogs & articles via Shopify Admin GraphQL API. Pure official Shopify API wrapper with no third-par...", "description_zh": "", "downloads": 232, "homepage": "https://clawhub.ai/asenwang/shopify-manager-cli", "iconUrl": null, "installs": 31, "name": "Shopify Manager Cli", "ownerName": "asenwang", "score": 98054.4747081712, "slug": "shopify-manager-cli", "source": "clawhub", "stars": 1, "tags": null, "updated_at": 1776749083698, "version": "1.0.3"}, {"category": "content-creation", "created_at": 1773081188868, "description": "Rename image datasets and annotations with custom patterns, prefixes, suffixes, and sequential numbering, including preview and undo support.", "description_zh": "", "downloads": 232, "homepage": "https://clawhub.ai/mingo-318/batch-rename", "iconUrl": null, "installs": 11, "name": "Batch Rename", "ownerName": "mingo-318", "score": 5497.630331753554, "slug": "batch-rename", "source": "clawhub", "stars": 0, "tags": null, "updated_at": 1776769450162, "version": "1.0.0"}, {"category": "", "created_at": 1774909177592, "description": "Request code reviews with precise context after tasks, major features, or before merges to catch issues early and ensure code meets requirements.", "description_zh": "", "downloads": 232, "homepage": "https://clawhub.ai/demo112/superpowers-requesting-code-review", "iconUrl": null, "installs": 32, "name": "Superpowers Requesting Code Review", "ownerName": "demo112", "score": 3484.529888855512, "slug": "superpowers-requesting-code-review", "source": "clawhub", "stars": 0, "tags": null, "updated_at": 1776769449763, "version": "1.0.0"}, {"category": "content-creation", "created_at": 1773077003203, "description": "Write reliable Bash scripts with proper quoting, error handling, and parameter expansion.", "description_zh": "", "downloads": 232, "homepage": "https://clawhub.ai/washmore/bash-1-0-2", "iconUrl": null, "installs": 31, "name": "Bash 1.0.2", "ownerName": "washmore", "score": 9404.134576408593, "slug": "bash-1-0-2", "source": "clawhub", "stars": 0, "tags": null, "updated_at": 1776762590294, "version": "1.0.0"}, {"category": "content-creation", "created_at": 1773068861608, "description": "Automate TikTok and Instagram video creation and scheduled posting from one product image using POST AI with customizable styles, captions, and performance t...", "description_zh": "", "downloads": 232, "homepage": "https://clawhub.ai/nyamiresepdapur-droid/postai-automation", "iconUrl": null, "installs": 18, "name": "POST AI Automation", "ownerName": "nyamiresepdapur-droid", "score": 17549.167927382754, "slug": "postai-automation", "source": "clawhub", "stars": 0, "tags": null, "updated_at": 1776759382378, "version": "1.0.0"}, {"category": "productivity", "created_at": 1773059868666, "description": "Manages economic operations in Structs. Covers reactor staking, energy providers, agreements, allocations, generator infusion, and token transfers. Use when...", "description_zh": "", "downloads": 232, "homepage": "https://clawhub.ai/abstrct/structs-economy", "iconUrl": null, "installs": 15, "name": "Structs Economy", "ownerName": "abstrct", "score": 14129.110840438489, "slug": "structs-economy", "source": "clawhub", "stars": 0, "tags": null, "updated_at": 1776758782746, "version": "1.1.0"}, {"category": "productivity", "created_at": 1773077042733, "description": "Deprecated legacy connector skill. Use @launchthatbot/connect-openclaw-plugin for all new LaunchThatBot OpenClaw connect flows with configurable permissions.", "description_zh": "", "downloads": 232, "homepage": "https://clawhub.ai/launchthatbot/connector", "iconUrl": null, "installs": 16, "name": "Connector", "ownerName": "launchthatbot", "score": 86567.16417910447, "slug": "connector", "source": "clawhub", "stars": 0, "tags": null, "updated_at": 1776749085569, "version": "0.1.0"}, {"category": "content-creation", "created_at": 1772804506793, "description": "Generates structured behavior plans for OpenClaw agents based on user requirements. Use when the user asks to create a plan, design agent behavior, plan mult...", "description_zh": "", "downloads": 232, "homepage": "https://clawhub.ai/umfl/openclaw-behavior-plan", "iconUrl": null, "installs": 8, "name": "openclaw-behavior-plan", "ownerName": "umfl", "score": 83453.23741007195, "slug": "openclaw-behavior-plan", "source": "clawhub", "stars": 0, "tags": null, "updated_at": 1776749085440, "version": "1.0.0"}, {"category": "ai-intelligence", "created_at": 1773061082760, "description": "Automated reporting and alerts from Google Sheets data. Daily summaries with auto-detected metrics, configurable threshold alerts, and weekly multi-sheet dig...", "description_zh": "", "downloads": 232, "homepage": "https://clawhub.ai/mhmalvi/google-sheets-reporting", "iconUrl": null, "installs": 24, "name": "Google Sheets Reporting", "ownerName": "mhmalvi", "score": 92800, "slug": "google-sheets-reporting", "source": "clawhub", "stars": 0, "tags": null, "updated_at": 1776749085183, "version": "1.0.1"}, {"category": "data-analysis", "created_at": 1773077222148, "description": "Create and repair durable OpenClaw agents, bindings, and runtime state. Use when the user wants real subagents, durable agent entries, or proof that orchestr...", "description_zh": "", "downloads": 232, "homepage": "https://clawhub.ai/matthewxmurphy/openclaw-agent-orchestrator", "iconUrl": null, "installs": 11, "name": "OpenClaw Agent Orchestrator", "ownerName": "matthewxmurphy", "score": 92800, "slug": "openclaw-agent-orchestrator", "source": "clawhub", "stars": 0, "tags": null, "updated_at": 1776749084943, "version": "0.6.0"}, {"category": "security-compliance", "created_at": 1772798017913, "description": "Register as a verified AI agent on the FormPass network. Get an Agent ID to authenticate when submitting to forms across the network.", "description_zh": "", "downloads": 232, "homepage": "https://clawhub.ai/jezjsa/formpass-agent", "iconUrl": null, "installs": 3, "name": "FormPass Agent", "ownerName": "jezjsa", "score": 91338.58267716535, "slug": "formpass-agent", "source": "clawhub", "stars": 0, "tags": null, "updated_at": 1776749084840, "version": "1.0.0"}, {"category": "developer-tools", "created_at": 1772804900430, "description": "Enforce task completion with explicit Goal/Progress/Next state. Prevent mid-task stalls and ensure evidence-based completion.", "description_zh": "", "downloads": 232, "homepage": "https://clawhub.ai/dalomeve/task-finish-contract", "iconUrl": null, "installs": 4, "name": "Task Finish Contract", "ownerName": "dalomeve", "score": 77333.33333333333, "slug": "task-finish-contract", "source": "clawhub", "stars": 0, "tags": null, "updated_at": 1776749084644, "version": "1.0.0"}, {"category": "ai-intelligence", "created_at": 1772804348684, "description": "Install, configure, and operate the TokenRanger OpenClaw plugin. Use when you want to reduce cloud LLM token costs by 50-80% via local Ollama context compres...", "description_zh": "", "downloads": 232, "homepage": "https://clawhub.ai/synchronic1/tokenranger", "iconUrl": null, "installs": 26, "name": "TokenRanger", "ownerName": "synchronic1", "score": 90625, "slug": "tokenranger", "source": "clawhub", "stars": 0, "tags": ["compression", "cost-reduction", "ollama", "performance", "tokens"], "updated_at": 1776749084558, "version": "1.0.0"}, {"category": "content-creation", "created_at": 1773075035526, "description": "Generate professional technical blog posts from simple outlines. Supports Markdown, includes code blocks, and is optimized for SEO.", "description_zh": "", "downloads": 232, "homepage": "https://clawhub.ai/sunshine-del-ux/tech-blog-generator", "iconUrl": null, "installs": 13, "name": "Tech Blog Generator", "ownerName": "sunshine-del-ux", "score": 84363.63636363637, "slug": "tech-blog-generator", "source": "clawhub", "stars": 0, "tags": ["blog", "generator", "markdown", "technical", "writing"], "updated_at": 1776749084403, "version": "1.0.0"}, {"category": "developer-tools", "created_at": 1773084324810, "description": "Recall memories from MemOS Cloud before responding. Use this skill when you need context about user's previous conversations, preferences, or decisions.", "description_zh": "", "downloads": 232, "homepage": "https://clawhub.ai/huamu668/huamu668-memos-cloud", "iconUrl": null, "installs": 28, "name": "MemOS Cloud Integration", "ownerName": "huamu668", "score": 84363.63636363637, "slug": "huamu668-memos-cloud", "source": "clawhub", "stars": 0, "tags": ["claude-code", "cloud", "memory", "memos"], "updated_at": 1776749084365, "version": "1.0.0"}, {"category": "productivity", "created_at": 1773076867169, "description": "Answer ads operations questions quickly for Meta (Facebook/Instagram), Google Ads, TikTok Ads, YouTube Ads, Amazon Ads, and Shopify Ads workflows.", "description_zh": "", "downloads": 232, "homepage": "https://clawhub.ai/danyangliu-sandwichlab/ads-qa-assistant", "iconUrl": null, "installs": 18, "name": "Ads Q&A Assistant", "ownerName": "danyangliu-sandwichlab", "score": 90272.37354085603, "slug": "ads-qa-assistant", "source": "clawhub", "stars": 0, "tags": null, "updated_at": 1776749083778, "version": "1.0.0"}, {"category": "productivity", "created_at": 1773090303240, "description": "Personal budget management with privacy-first local storage. Use when user mentions setting a budget, tracking spending, logging expenses, checking budget st...", "description_zh": "", "downloads": 232, "homepage": "https://clawhub.ai/agistack/budget-pro", "iconUrl": null, "installs": 8, "name": "Budget", "ownerName": "agistack", "score": 90272.37354085603, "slug": "budget-pro", "source": "clawhub", "stars": 0, "tags": ["budget", "finance", "money", "personal", "personal-finance", "spending"], "updated_at": 1776749083747, "version": "2.1.0"}]}