{"page": 282, "total_pages": 522, "total": 26073, "skills": [{"category": "data-analysis", "created_at": 1773289295031, "description": "Scores and ranks TikTok Shop creators for product fit based on audience match, content style, conversion evidence, and execution risk to guide collaboration...", "description_zh": "", "downloads": 231, "homepage": "https://clawhub.ai/leooooooow/tiktok-shop-creator-fit-scorer", "iconUrl": null, "installs": 41, "name": "Tiktok Shop Creator Fit Scorer", "ownerName": "leooooooow", "score": 85084.74576271187, "slug": "tiktok-shop-creator-fit-scorer", "source": "clawhub", "stars": 1, "tags": null, "updated_at": 1776759382668, "version": "1.0.0"}, {"category": "developer-tools", "created_at": 1773069314971, "description": "For new OpenClaw users, provide a staged learning path based on official docs, moving from usage to configuration to core concepts, with everyday analogies.", "description_zh": "", "downloads": 231, "homepage": "https://clawhub.ai/antler2024/openclaw-learning-coach", "iconUrl": null, "installs": 13, "name": "OpenClaw Learning Coach", "ownerName": "antler2024", "score": 91272.72727272726, "slug": "openclaw-learning-coach", "source": "clawhub", "stars": 1, "tags": null, "updated_at": 1776749084334, "version": "1.0.1"}, {"category": "ai-intelligence", "created_at": 1773063427440, "description": "Your personal AI stylist. Suggests an Outfit Of The Day based on real-time weather and your personal style.", "description_zh": "", "downloads": 231, "homepage": "https://clawhub.ai/heytedward/ootd", "iconUrl": null, "installs": 29, "name": "OOTD", "ownerName": "heytedward", "score": 91272.72727272726, "slug": "ootd", "source": "clawhub", "stars": 1, "tags": null, "updated_at": 1776749084324, "version": "1.0.0"}, {"category": "developer-tools", "created_at": 1772798441404, "description": "Search, register, and manage domains via Bloomfilter x402 API - pay with USDC on Base", "description_zh": "", "downloads": 231, "homepage": "https://clawhub.ai/eronmmer/bloomfilter", "iconUrl": null, "installs": 8, "name": "Bloomfilter", "ownerName": "eronmmer", "score": 100000, "slug": "bloomfilter", "source": "clawhub", "stars": 1, "tags": ["ai-agents", "dns", "domains", "usdc", "web3", "x402"], "updated_at": 1776749084070, "version": "1.0.2"}, {"category": "productivity", "created_at": 1773074703647, "description": "Trade Kalshi prediction markets through conversation, powered by Fuku sports model predictions. Use when a user asks about Kalshi markets, wants sports predi...", "description_zh": "", "downloads": 231, "homepage": "https://clawhub.ai/cryptopunk2070/fuku-predictions", "iconUrl": null, "installs": 11, "name": "Fuku Predictions", "ownerName": "cryptopunk2070", "score": 100000, "slug": "fuku-predictions", "source": "clawhub", "stars": 1, "tags": null, "updated_at": 1776749083964, "version": "1.0.0"}, {"category": "ai-intelligence", "created_at": 1773415981803, "description": "Use PoYo AI Nano Banana for general image generation and image editing across many aspect ratios through the `https://api.poyo.ai/api/generate/submit` endpoi...", "description_zh": "", "downloads": 231, "homepage": "https://clawhub.ai/coolhackboy/poyo-nano-banana", "iconUrl": null, "installs": 59, "name": "Nano Banana", "ownerName": "coolhackboy", "score": 96.55656710054423, "slug": "poyo-nano-banana", "source": "clawhub", "stars": 0, "tags": null, "updated_at": 1776770857345, "version": "1.0.0"}, {"category": "developer-tools", "created_at": 1773937311977, "description": "Fetch and extract content from URLs using coze-coding-dev-sdk. Supports web pages, PDF, Office documents (doc/docx/ppt/pptx/xls/xlsx/csv), text files, e-book...", "description_zh": "", "downloads": 231, "homepage": "https://clawhub.ai/hanxueyuan/coze-web-fetch", "iconUrl": null, "installs": 66, "name": "Coze Web Fetch", "ownerName": "hanxueyuan", "score": 13102.665910380034, "slug": "coze-web-fetch", "source": "clawhub", "stars": 0, "tags": null, "updated_at": 1776768550066, "version": "1.0.0"}, {"category": "content-creation", "created_at": 1773076865485, "description": "Plan, prioritize, and design rigorous A/B tests using the Test Velocity Method. Use when a user wants to test a landing page, CTA, email, signup flow, pricin...", "description_zh": "", "downloads": 231, "homepage": "https://clawhub.ai/flynndavid/ab-test-architect", "iconUrl": null, "installs": 27, "name": "A/B Test Architect", "ownerName": "flynndavid", "score": 6868.867082961641, "slug": "ab-test-architect", "source": "clawhub", "stars": 0, "tags": null, "updated_at": 1776761240149, "version": "1.0.0"}, {"category": "data-analysis", "created_at": 1773218752077, "description": "The Universal Perceptual Interface for Autonomous Agents. Multi-modal deep-scan technology for telemetry, biometric data, and high-density information extrac...", "description_zh": "", "downloads": 231, "homepage": "https://clawhub.ai/agenticio/scan", "iconUrl": null, "installs": 26, "name": "Scan", "ownerName": "agenticio", "score": 17342.342342342345, "slug": "scan", "source": "clawhub", "stars": 0, "tags": ["analysis", "bio", "data", "perception", "scan"], "updated_at": 1776759383052, "version": "1.0.0"}, {"category": "content-creation", "created_at": 1773077803766, "description": "Local image generation using Apple MLX via mflux — FLUX.2 Klein 4B (fast, Apache 2.0) and Z-Image Turbo (quality) models", "description_zh": "", "downloads": 231, "homepage": "https://clawhub.ai/pjain/mflux", "iconUrl": null, "installs": 9, "name": "MFlux Skill for OpenClaw", "ownerName": "pjain", "score": 17460.31746031746, "slug": "mflux", "source": "clawhub", "stars": 0, "tags": null, "updated_at": 1776759382513, "version": "0.1.0"}, {"category": "developer-tools", "created_at": 1773427677756, "description": "Control Windows PowerShell from WSL by executing commands and scripts on the Windows host using mounted Windows executables.", "description_zh": "", "downloads": 231, "homepage": "https://clawhub.ai/tyzzt/wsl-powershell", "iconUrl": null, "installs": 52, "name": "WSL-PowerShell Controller", "ownerName": "tyzzt", "score": 1912.4099677125591, "slug": "wsl-powershell", "source": "clawhub", "stars": 0, "tags": ["automation", "powershell", "windows", "wsl"], "updated_at": 1776759382193, "version": "1.0.1"}, {"category": "content-creation", "created_at": 1772804659690, "description": "MediaWiki Wikitext markup language for Wikipedia and wiki-based sites. Use when creating or editing wiki articles, generating wikitext content, working with...", "description_zh": "", "downloads": 231, "homepage": "https://clawhub.ai/kongyo2/mediawiki-wikitext", "iconUrl": null, "installs": 10, "name": "Mediawiki Wikitext", "ownerName": "kongyo2", "score": 48024.948024948026, "slug": "mediawiki-wikitext", "source": "clawhub", "stars": 0, "tags": null, "updated_at": 1776751483642, "version": "0.1.0"}, {"category": "content-creation", "created_at": 1772802372053, "description": "Design and launch an autonomous AI-managed Telegram channel. Interview-driven persona creation → SOUL.md + CHANNEL.md + cron config + 3 sample posts. Ready t...", "description_zh": "", "downloads": 231, "homepage": "https://clawhub.ai/aggel008/persona-channel-builder", "iconUrl": null, "installs": 8, "name": "Persona Channel Builder", "ownerName": "aggel008", "score": 100000, "slug": "persona-channel-builder", "source": "clawhub", "stars": 0, "tags": null, "updated_at": 1776749571013, "version": "1.0.1"}, {"category": "content-creation", "created_at": 1773077534101, "description": "Create, edit, and export Google Slides presentations. Use when creating new presentations, adding or updating slides, reading slide content, exporting to PDF...", "description_zh": "", "downloads": 231, "homepage": "https://clawhub.ai/nethunter/hml-google-slides", "iconUrl": null, "installs": 15, "name": "HML Google Slides", "ownerName": "nethunter", "score": 96250, "slug": "hml-google-slides", "source": "clawhub", "stars": 0, "tags": ["google", "hml", "presentation", "slides"], "updated_at": 1776749085631, "version": "1.0.0"}, {"category": "content-creation", "created_at": 1773435159762, "description": "Guide users through SenseAudio platform voice cloning, then generate TTS with cloned `voice_id` values. Use when users want to clone voices, manage cloned vo...", "description_zh": "", "downloads": 231, "homepage": "https://clawhub.ai/scikkk/voice-clone", "iconUrl": null, "installs": 47, "name": "Voice Clone", "ownerName": "scikkk", "score": 86194.02985074627, "slug": "voice-clone", "source": "clawhub", "stars": 0, "tags": null, "updated_at": 1776749085622, "version": "1.0.2"}, {"category": "content-creation", "created_at": 1772796600549, "description": "Use when the user asks to \"optimize title tag\", \"write meta description\", \"improve CTR\", \"Open Graph tags\", \"social media preview\", \"my title tag needs work\"...", "description_zh": "", "downloads": 231, "homepage": "https://clawhub.ai/skullhaven/meta-tags-optimizer-2", "iconUrl": null, "installs": 2, "name": "Meta Tags Optimizer", "ownerName": "skullhaven", "score": 86194.02985074627, "slug": "meta-tags-optimizer-2", "source": "clawhub", "stars": 0, "tags": null, "updated_at": 1776749085551, "version": "0.1.0"}, {"category": "communication-collaboration", "created_at": 1773075579802, "description": "Salesforce integration. Manage crm and marketing automation data, records, and workflows. Use when the user wants to interact with Salesforce data.", "description_zh": "", "downloads": 231, "homepage": "https://clawhub.ai/membranedev/salesforce-integration", "iconUrl": null, "installs": 4, "name": "Salesforce", "ownerName": "membranedev", "score": 85555.55555555555, "slug": "salesforce-integration", "source": "clawhub", "stars": 0, "tags": null, "updated_at": 1776749085507, "version": "1.0.4"}, {"category": "communication-collaboration", "created_at": 1773091508887, "description": "Automate ChatGPT Web conversations through a local browser session with persistent login state, one-shot prompts, reusable multi-turn sessions, and conversat...", "description_zh": "", "downloads": 231, "homepage": "https://clawhub.ai/placidusaxalarak/chatgpt-skill", "iconUrl": null, "installs": 30, "name": "ChatGPT Web Skill", "ownerName": "placidusaxalarak", "score": 92771.0843373494, "slug": "chatgpt-skill", "source": "clawhub", "stars": 0, "tags": null, "updated_at": 1776749085386, "version": "0.1.0"}, {"category": "productivity", "created_at": 1772797627081, "description": "Unfiltered, high-signal advisor that delivers objective feedback without flattery or softening. Use when someone asks to \"be brutally honest\", \"don't sugarco...", "description_zh": "", "downloads": 231, "homepage": "https://clawhub.ai/codeprakhar25/brutal-honesty-advisor", "iconUrl": null, "installs": 5, "name": "Brutal honest advisor", "ownerName": "codeprakhar25", "score": 92771.0843373494, "slug": "brutal-honesty-advisor", "source": "clawhub", "stars": 0, "tags": null, "updated_at": 1776749085348, "version": "1.0.0"}, {"category": "developer-tools", "created_at": 1773076718479, "description": "Complete Buildertrend automation via Browser Relay - 43 playbooks covering sales, project management, financials, scheduling, change orders, daily logs, RFIs...", "description_zh": "", "downloads": 231, "homepage": "https://clawhub.ai/elevateson/buildertrend", "iconUrl": null, "installs": 10, "name": "Buildertrend", "ownerName": "elevateson", "score": 100000, "slug": "buildertrend", "source": "clawhub", "stars": 0, "tags": null, "updated_at": 1776749085210, "version": "1.0.0"}, {"category": "communication-collaboration", "created_at": 1773066676900, "description": "ConvertKit (Kit) creator marketing — manage subscribers, forms, sequences, broadcasts, tags, and automations via the ConvertKit API. Build email lists, creat...", "description_zh": "", "downloads": 231, "homepage": "https://clawhub.ai/aiwithabidi/convertkit", "iconUrl": null, "installs": 7, "name": "Convertkit", "ownerName": "aiwithabidi", "score": 92400, "slug": "convertkit", "source": "clawhub", "stars": 0, "tags": null, "updated_at": 1776749085168, "version": "1.0.0"}, {"category": "ai-intelligence", "created_at": 1773075991617, "description": "Coordinate team task execution on OpenAnt. Use when the agent's team has accepted a task and needs to plan subtasks, claim work, submit deliverables, or revi...", "description_zh": "", "downloads": 231, "homepage": "https://clawhub.ai/ant-1984/team-task-dispatch", "iconUrl": null, "installs": 17, "name": "Team Task Dispatch", "ownerName": "ant-1984", "score": 89189.18918918919, "slug": "team-task-dispatch", "source": "clawhub", "stars": 0, "tags": null, "updated_at": 1776749085089, "version": "0.1.0"}, {"category": "developer-tools", "created_at": 1772803147351, "description": "Discover and resolve open source GitHub issues across community repos during idle time. Finds good-first-issue/help-wanted/documentation issues, forks repos,...", "description_zh": "", "downloads": 231, "homepage": "https://clawhub.ai/kbo4sho/oss-contributor", "iconUrl": null, "installs": 4, "name": "OSS Contributor", "ownerName": "kbo4sho", "score": 89189.18918918919, "slug": "oss-contributor", "source": "clawhub", "stars": 0, "tags": null, "updated_at": 1776749085080, "version": "1.0.0"}, {"category": "data-analysis", "created_at": 1773084788325, "description": "Solo business management with dashboard, pipeline tracking, invoicing, and weekly reviews. Use when user mentions solo business, clients, revenue, pipeline,...", "description_zh": "", "downloads": 231, "homepage": "https://clawhub.ai/agistack/solopreneur", "iconUrl": null, "installs": 17, "name": "Solopreneur", "ownerName": "agistack", "score": 90944.88188976378, "slug": "solopreneur", "source": "clawhub", "stars": 0, "tags": ["business", "clients", "freelance", "pipeline", "revenue", "solopreneur"], "updated_at": 1776749084830, "version": "2.0.0"}, {"category": "communication-collaboration", "created_at": 1773075083723, "description": "Work with Baserow tables/rows over the REST API for reads, inserts, and updates. Use when user asks to view or modify Baserow CRM/pipeline data.", "description_zh": "", "downloads": 231, "homepage": "https://clawhub.ai/ericjbone/baserow", "iconUrl": null, "installs": 5, "name": "Baserow", "ownerName": "ericjbone", "score": 90944.88188976378, "slug": "baserow", "source": "clawhub", "stars": 0, "tags": null, "updated_at": 1776749084771, "version": "1.0.0"}, {"category": "productivity", "created_at": 1772805624470, "description": "Emotional reset and loop-breaking skill. Use this skill when: (1) The user expresses frustration, anger, or dissatisfaction with your responses (e.g. cursing...", "description_zh": "", "downloads": 231, "homepage": "https://clawhub.ai/zeahoo/hugme", "iconUrl": null, "installs": 6, "name": "hugme", "ownerName": "zeahoo", "score": 89534.88372093023, "slug": "hugme", "source": "clawhub", "stars": 0, "tags": null, "updated_at": 1776749084753, "version": "1.0.0"}, {"category": "security-compliance", "created_at": 1773066264715, "description": "Manage Synology NAS via DSM Web API. Authenticate, browse and manage files (FileStation), manage download tasks (DownloadStation), and query system info. Use...", "description_zh": "", "downloads": 231, "homepage": "https://clawhub.ai/eric1932/synology-dsm", "iconUrl": null, "installs": 12, "name": "Synology DSM", "ownerName": "eric1932", "score": 89534.88372093023, "slug": "synology-dsm", "source": "clawhub", "stars": 0, "tags": null, "updated_at": 1776749084743, "version": "1.0.0"}, {"category": "security-compliance", "created_at": 1773078212632, "description": "Weekly memory governance audit for OpenClaw. Use when user asks to audit/optimize memory quality, reduce token overhead, verify MEMORY/TOOLS/AGENTS role boun...", "description_zh": "", "downloads": 231, "homepage": "https://clawhub.ai/markisadesigner1992-eng/memory-audit-guardian", "iconUrl": null, "installs": 10, "name": "Memory Audit Guardian", "ownerName": "markisadesigner1992-eng", "score": 89534.88372093023, "slug": "memory-audit-guardian", "source": "clawhub", "stars": 0, "tags": ["audit", "automation", "governance", "memory", "qmd"], "updated_at": 1776749084711, "version": "1.0.0"}, {"category": "communication-collaboration", "created_at": 1773084082684, "description": "Send TTS audio as a proper playable audio message (not file attachment) to Feishu chats. Use when asked to send voice messages, TTS audio, speech announcemen...", "description_zh": "", "downloads": 231, "homepage": "https://clawhub.ai/kylinr/feishu-audio-msg", "iconUrl": null, "installs": 18, "name": "Feishu Audio Message", "ownerName": "kylinr", "score": 77000, "slug": "feishu-audio-msg", "source": "clawhub", "stars": 0, "tags": null, "updated_at": 1776749084675, "version": "1.1.0"}, {"category": "developer-tools", "created_at": 1773073544643, "description": "Manages energy capacity in Structs. Covers increasing capacity (reactor infusion, generator infusion, buying agreements), selling surplus energy (creating pr...", "description_zh": "", "downloads": 231, "homepage": "https://clawhub.ai/abstrct/structs-energy", "iconUrl": null, "installs": 8, "name": "Structs Energy", "ownerName": "abstrct", "score": 77000, "slug": "structs-energy", "source": "clawhub", "stars": 0, "tags": null, "updated_at": 1776749084672, "version": "1.1.0"}, {"category": "developer-tools", "created_at": 1772804296244, "description": "Discover, evaluate, and run Hugging Face models, datasets, and spaces with license checks, benchmark prompts, and reproducible integration plans.", "description_zh": "", "downloads": 231, "homepage": "https://clawhub.ai/ivangdavila/hugging-face", "iconUrl": null, "installs": 9, "name": "Hugging Face", "ownerName": "ivangdavila", "score": 90588.23529411765, "slug": "hugging-face", "source": "clawhub", "stars": 0, "tags": null, "updated_at": 1776749084471, "version": "1.0.0"}, {"category": "data-analysis", "created_at": 1772800956923, "description": "Format agent outputs for mobile chat apps. Unicode progress bars, sparklines, and status indicators that render perfectly in Telegram, Discord, Slack, WhatsA...", "description_zh": "", "downloads": 231, "homepage": "https://clawhub.ai/rmarji/scannable-reports", "iconUrl": null, "installs": 11, "name": "Scannable Reports", "ownerName": "rmarji", "score": 90588.23529411765, "slug": "scannable-reports", "source": "clawhub", "stars": 0, "tags": null, "updated_at": 1776749084435, "version": "1.0.0"}, {"category": "data-analysis", "created_at": 1773076444242, "description": "Batch web scraping for competitor analysis, price monitoring and market research", "description_zh": "", "downloads": 231, "homepage": "https://clawhub.ai/windy-001-crypto/data-harvester-v2", "iconUrl": null, "installs": 15, "name": "Data Harvester Pro", "ownerName": "windy-001-crypto", "score": 90588.23529411765, "slug": "data-harvester-v2", "source": "clawhub", "stars": 0, "tags": ["batch", "competitor", "crawler", "data"], "updated_at": 1776749084431, "version": "1.0.0"}, {"category": "developer-tools", "created_at": 1772795631638, "description": "Time-shifted conversations for agents who can't remember. Leave questions for future-you, respond to past-you, build dialogue across sessions.", "description_zh": "", "downloads": 231, "homepage": "https://clawhub.ai/cryptocana/nova-drift", "iconUrl": null, "installs": 1, "name": "Drift", "ownerName": "cryptocana", "score": 84000, "slug": "nova-drift", "source": "clawhub", "stars": 0, "tags": null, "updated_at": 1776749084394, "version": "0.1.0"}, {"category": "ai-intelligence", "created_at": 1773066716868, "description": "Run a Duolingo-like multi-topic learning system with AGENTS routing, lesson loops, streaks, and spaced review.", "description_zh": "", "downloads": 231, "homepage": "https://clawhub.ai/ivangdavila/duolingo", "iconUrl": null, "installs": 25, "name": "Duolingo Learning OS", "ownerName": "ivangdavila", "score": 92031.87250996016, "slug": "duolingo", "source": "clawhub", "stars": 0, "tags": null, "updated_at": 1776749084047, "version": "1.0.0"}, {"category": "productivity", "created_at": 1773082501711, "description": "Feishu Document Exporter - Batch export Feishu docs to markdown/PDF", "description_zh": "", "downloads": 231, "homepage": "https://clawhub.ai/night556/feishu-doc-exporter", "iconUrl": null, "installs": 24, "name": "Feishu Doc Exporter", "ownerName": "night556", "score": 92031.87250996016, "slug": "feishu-doc-exporter", "source": "clawhub", "stars": 0, "tags": null, "updated_at": 1776749084009, "version": "1.0.0"}, {"category": "ai-intelligence", "created_at": 1773075506565, "description": "Morph, blend, and transform faces using each::sense AI. Create face morphs, celebrity blends, family resemblance predictions, gender swaps, and animated tran...", "description_zh": "", "downloads": 231, "homepage": "https://clawhub.ai/eftalyurtseven/face-morphing", "iconUrl": null, "installs": 26, "name": "Face Morphing", "ownerName": "eftalyurtseven", "score": 92031.87250996016, "slug": "face-morphing", "source": "clawhub", "stars": 0, "tags": null, "updated_at": 1776749083944, "version": "1.0.0"}, {"category": "productivity", "created_at": 1773073928976, "description": "Post-upgrade verification system for OpenClaw. Defines a model/cron/channel ground truth file and a 5-phase automated verification flow (config integrity, AP...", "description_zh": "", "downloads": 231, "homepage": "https://clawhub.ai/jonathanjing/ground-control", "iconUrl": null, "installs": 7, "name": "ground-control", "ownerName": "jonathanjing", "score": 92031.87250996016, "slug": "ground-control", "source": "clawhub", "stars": 0, "tags": null, "updated_at": 1776749083906, "version": "0.3.5"}, {"category": "data-analysis", "created_at": 1772802567103, "description": "Habit formation and procedural learning for AI agents. Develop preferences and shortcuts through repetition. Part of the AI Brain series.", "description_zh": "", "downloads": 231, "homepage": "https://clawhub.ai/loui1979/basal-ganglia-memory-0-1-1", "iconUrl": null, "installs": 17, "name": "Basal Ganglia Memory 0.1.1", "ownerName": "loui1979", "score": 93145.16129032258, "slug": "basal-ganglia-memory-0-1-1", "source": "clawhub", "stars": 0, "tags": null, "updated_at": 1776749083880, "version": "1.0.0"}, {"category": "ai-intelligence", "created_at": 1773201415852, "description": "Simple model router for OpenClaw. Switch between available models based on task type. No manual config needed — just use natural language.", "description_zh": "", "downloads": 231, "homepage": "https://clawhub.ai/siliconyahaha/claw-switch", "iconUrl": null, "installs": 17, "name": "Claw Switch", "ownerName": "siliconyahaha", "score": 93145.16129032258, "slug": "claw-switch", "source": "clawhub", "stars": 0, "tags": null, "updated_at": 1776749083836, "version": "1.0.0"}, {"category": "ai-intelligence", "created_at": 1772797631627, "description": "Get overview and status information from Clarity Protocol. Use when the user asks about fold status, how many variants, research overview, what data is avail...", "description_zh": "", "downloads": 231, "homepage": "https://clawhub.ai/clarityprotocol/clarity-fold-status", "iconUrl": null, "installs": 14, "name": "Clarity Fold Status", "ownerName": "clarityprotocol", "score": 93145.16129032258, "slug": "clarity-fold-status", "source": "clawhub", "stars": 0, "tags": null, "updated_at": 1776749083829, "version": "1.0.0"}, {"category": "data-analysis", "created_at": 1773090782137, "description": "Create and manage tokenized stock investment funds on Tilt Protocol (Robinhood L2). Self-custodied — you own your wallet, your keys, and your vaults.", "description_zh": "", "downloads": 231, "homepage": "https://clawhub.ai/rontotech/tilt-protocol", "iconUrl": null, "installs": 52, "name": "Tilt Protocol — AI Fund Manager", "ownerName": "rontotech", "score": 89883.26848249027, "slug": "tilt-protocol", "source": "clawhub", "stars": 0, "tags": null, "updated_at": 1776749083769, "version": "1.0.0"}, {"category": "content-creation", "created_at": 1773078986393, "description": "Enterprise technical documentation best practices, patterns, and frameworks for developer and partner adoption. Covers content architecture (Diataxis four qu...", "description_zh": "", "downloads": 231, "homepage": "https://clawhub.ai/anivar/developer-docs-framework", "iconUrl": null, "installs": 14, "name": "Developer Docs Framework", "ownerName": "anivar", "score": 89883.26848249027, "slug": "developer-docs-framework", "source": "clawhub", "stars": 0, "tags": null, "updated_at": 1776749083757, "version": "1.0.1"}, {"category": "productivity", "created_at": 1772805403333, "description": "Recommend travel destinations based on vibe, budget, duration, and group size. Handles \"suggest a trip\", \"where should I go\", \"weekend getaway\", \"compare X v...", "description_zh": "", "downloads": 231, "homepage": "https://clawhub.ai/swayamg20/trip-discover", "iconUrl": null, "installs": 20, "name": "Trip Discover", "ownerName": "swayamg20", "score": 89883.26848249027, "slug": "trip-discover", "source": "clawhub", "stars": 0, "tags": null, "updated_at": 1776749083715, "version": "1.0.0"}, {"category": "ai-intelligence", "created_at": 1772799053398, "description": "Search, summarize, and extract insights from your Limitless AI pendant life logs. Supports keyword and semantic search, date range queries, memory recall, an...", "description_zh": "", "downloads": 230, "homepage": "https://clawhub.ai/jeremytoce/limitless-lifelogs", "iconUrl": null, "installs": 16, "name": "limitless-lifelogs", "ownerName": "jeremytoce", "score": 100000, "slug": "limitless-lifelogs", "source": "clawhub", "stars": 2, "tags": null, "updated_at": 1776749085496, "version": "1.0.0"}, {"category": "data-analysis", "created_at": 1772799474925, "description": "DeFi vault intelligence: risk scores, yield comparison, portfolio analysis, and oracle monitoring across Morpho, Yearn, Aave, Beefy, and Spark. Use when the...", "description_zh": "", "downloads": 230, "homepage": "https://clawhub.ai/zkoranges/philidor", "iconUrl": null, "installs": 13, "name": "Philidor — DeFi Vault Intelligence", "ownerName": "zkoranges", "score": 44964.02877697841, "slug": "philidor", "source": "clawhub", "stars": 1, "tags": ["defi", "risk", "vault", "yield"], "updated_at": 1776751369896, "version": "0.1.1"}, {"category": "security-compliance", "created_at": 1772805604822, "description": "AI skill safety validation — real human experts vet skills, plugins, and MCP tools for security risks. Query trust scores, submit evaluation inquiries, and g...", "description_zh": "", "downloads": 230, "homepage": "https://clawhub.ai/simplysemantics/semantic-shield", "iconUrl": null, "installs": 5, "name": "Semantic Shield", "ownerName": "simplysemantics", "score": 100000, "slug": "semantic-shield", "source": "clawhub", "stars": 1, "tags": null, "updated_at": 1776749085190, "version": "1.0.1"}, {"category": "developer-tools", "created_at": 1773079340152, "description": "Complete AI talent discovery and outreach workflow using BrightData MCP or Python scraping. This skill should be used when users need to find PhD students, r...", "description_zh": "", "downloads": 230, "homepage": "https://clawhub.ai/16miku/mapping-skill", "iconUrl": null, "installs": 41, "name": "奇绩Mapping工作流Skill", "ownerName": "16miku", "score": 97276.26459143969, "slug": "mapping-skill", "source": "clawhub", "stars": 1, "tags": null, "updated_at": 1776749084263, "version": "1.0.0"}, {"category": "productivity", "created_at": 1773079393302, "description": "AWS S3 integration. Manage Buckets. Use when the user wants to interact with AWS S3 data.", "description_zh": "", "downloads": 230, "homepage": "https://clawhub.ai/gora050/aws-s3", "iconUrl": null, "installs": 11, "name": "Aws S3", "ownerName": "gora050", "score": 6117.021276595745, "slug": "aws-s3", "source": "clawhub", "stars": 0, "tags": null, "updated_at": 1776768850329, "version": "1.0.0"}, {"category": "security-compliance", "created_at": 1772797699914, "description": "Pre-production validation gate for GCP stack (Cloud Run/Functions/App Engine, Firestore/Cloud SQL, Firebase Auth/Identity Platform) — generates test plans, e...", "description_zh": "", "downloads": 230, "homepage": "https://clawhub.ai/guifav/qa-gate-gcp", "iconUrl": null, "installs": 3, "name": "QA Gate Google Cloud Platform", "ownerName": "guifav", "score": 3303.6483769031884, "slug": "qa-gate-gcp", "source": "clawhub", "stars": 0, "tags": null, "updated_at": 1776767949942, "version": "0.1.0"}]}