{"page": 283, "total_pages": 522, "total": 26073, "skills": [{"category": "developer-tools", "created_at": 1773069373276, "description": "Manage vendor contract renewals proactively with alerts, decision scoring, renegotiation prep, and documentation to avoid missed deadlines and optimize terms.", "description_zh": "", "downloads": 230, "homepage": "https://clawhub.ai/flynndavid/contract-renewal-manager", "iconUrl": null, "installs": 14, "name": "Contract Renewal & Expiration Manager", "ownerName": "flynndavid", "score": 2298.8505747126437, "slug": "contract-renewal-manager", "source": "clawhub", "stars": 0, "tags": null, "updated_at": 1776765671113, "version": "1.0.0"}, {"category": "communication-collaboration", "created_at": 1773220265516, "description": "Qualify, prioritize, and advance sales prospects into the next best action. Built for founders, sales reps, and operators who need sharper lead judgment, fas...", "description_zh": "", "downloads": 230, "homepage": "https://clawhub.ai/agistack/lead", "iconUrl": null, "installs": 10, "name": "Lead", "ownerName": "agistack", "score": 6833.036244800951, "slug": "lead", "source": "clawhub", "stars": 0, "tags": ["conversion", "crm", "lead", "pipeline", "sales"], "updated_at": 1776764990422, "version": "2.1.1"}, {"category": "productivity", "created_at": 1773089770861, "description": "Automatically reports task progress every 10 minutes during execution, including current status, recent work, overall progress, and next steps.", "description_zh": "", "downloads": 230, "homepage": "https://clawhub.ai/zenmejiang-commits/progress-reporter", "iconUrl": null, "installs": 9, "name": "Progress Reporter", "ownerName": "zenmejiang-commits", "score": 3871.402120855075, "slug": "progress-reporter", "source": "clawhub", "stars": 0, "tags": ["auto-optimized"], "updated_at": 1776764350078, "version": "1.0.0"}, {"category": "security-compliance", "created_at": 1773079150856, "description": "Orchestrates marketing audits by running collectors for Instagram, Meta Ads, SEO, competitors, and website audit, then generates a comprehensive report.", "description_zh": "", "downloads": 230, "homepage": "https://clawhub.ai/adarshvmore/marketing-orchestrator-adarsh", "iconUrl": null, "installs": 6, "name": "Marketing Orchestrator Adarsh", "ownerName": "adarshvmore", "score": 18095.987411487018, "slug": "marketing-orchestrator-adarsh", "source": "clawhub", "stars": 0, "tags": null, "updated_at": 1776759982783, "version": "1.0.1"}, {"category": "developer-tools", "created_at": 1773076251715, "description": "Onboard a repo by assessing architecture and dependencies, setting up roadmap and kanban for execution, and generating a comprehensive onboarding report.", "description_zh": "", "downloads": 230, "homepage": "https://clawhub.ai/broedkrummen/repo-onboarding", "iconUrl": null, "installs": 7, "name": "Repo Onboarding", "ownerName": "broedkrummen", "score": 83032.49097472924, "slug": "repo-onboarding", "source": "clawhub", "stars": 0, "tags": ["coding", "productivity"], "updated_at": 1776759383029, "version": "0.1.0"}, {"category": "productivity", "created_at": 1773222485442, "description": "Parse Markdown and TXT documents to extract entities and their co-occurrence relationships, allowing querying and exporting knowledge graphs in text, JSON, o...", "description_zh": "", "downloads": 230, "homepage": "https://clawhub.ai/harrylabs0913/knowledge-mapper", "iconUrl": null, "installs": 15, "name": "Knowledge Mapper", "ownerName": "harrylabs0913", "score": 17371.601208459215, "slug": "knowledge-mapper", "source": "clawhub", "stars": 0, "tags": null, "updated_at": 1776759382927, "version": "1.0.2"}, {"category": "developer-tools", "created_at": 1773067523418, "description": "Chrome UI automation skill for saving named on-screen targets and reusing them with reliable click/type actions. Use when browser automation is flaky, select...", "description_zh": "", "downloads": 230, "homepage": "https://clawhub.ai/jayton123456789-hub/clickmap", "iconUrl": null, "installs": 14, "name": "ClickMap", "ownerName": "jayton123456789-hub", "score": 17371.601208459215, "slug": "clickmap", "source": "clawhub", "stars": 0, "tags": null, "updated_at": 1776759382914, "version": "1.0.2"}, {"category": "productivity", "created_at": 1772803931319, "description": "Upload files to UCloud US3 object storage and generate public URLs", "description_zh": "", "downloads": 230, "homepage": "https://clawhub.ai/qianjunye/us3", "iconUrl": null, "installs": 7, "name": "us3-skill", "ownerName": "qianjunye", "score": 16027.87456445993, "slug": "us3", "source": "clawhub", "stars": 0, "tags": null, "updated_at": 1776759382833, "version": "1.0.0"}, {"category": "content-creation", "created_at": 1773078018265, "description": "Generate a complete Aura Creatine TikTok/Instagram video from a JSON script. Reads the script from Google Drive, generates A-roll (Kristina image-to-video vi...", "description_zh": "", "downloads": 230, "homepage": "https://clawhub.ai/scotteverduim/aura-video", "iconUrl": null, "installs": 19, "name": "Aura Video", "ownerName": "scotteverduim", "score": 17345.399698340876, "slug": "aura-video", "source": "clawhub", "stars": 0, "tags": null, "updated_at": 1776759382654, "version": "1.0.0"}, {"category": "security-compliance", "created_at": 1773284341440, "description": "Performs Windows PC security audits for OpenClaw, checking system updates, OpenClaw/npm version risks, and optional authorized port and weak credential scans.", "description_zh": "", "downloads": 230, "homepage": "https://clawhub.ai/openclawvincent/openclaw-pc-security", "iconUrl": null, "installs": 8, "name": "openclaw-pc-security", "ownerName": "openclawvincent", "score": 17397.881996974284, "slug": "openclaw-pc-security", "source": "clawhub", "stars": 0, "tags": null, "updated_at": 1776759382370, "version": "1.0.1"}, {"category": "content-creation", "created_at": 1773090378162, "description": "Process local files with batch rename, format conversion, organization by date/type/metadata, duplicate detection, and metadata read/write/removal.", "description_zh": "", "downloads": 230, "homepage": "https://clawhub.ai/ppopen/openclaw-skill-local-file-processor", "iconUrl": null, "installs": 12, "name": "Local File Processor", "ownerName": "ppopen", "score": 17397.881996974284, "slug": "openclaw-skill-local-file-processor", "source": "clawhub", "stars": 0, "tags": null, "updated_at": 1776759382280, "version": "1.0.0"}, {"category": "developer-tools", "created_at": 1772799665689, "description": "Consult a virtual board of 4 strategic advisors (Donald Miller, Seth Godin, Alex Hormozi, Daniel Priestley) on any major business decision. Two rounds of arg...", "description_zh": "", "downloads": 230, "homepage": "https://clawhub.ai/batsirai/boardroom-advisor", "iconUrl": null, "installs": 16, "name": "boardroom-advisor", "ownerName": "batsirai", "score": 13641.755634638197, "slug": "boardroom-advisor", "source": "clawhub", "stars": 0, "tags": null, "updated_at": 1776757733431, "version": "1.0.0"}, {"category": "developer-tools", "created_at": 1773921764172, "description": "Headless browser automation CLI optimized for AI agents with accessibility tree snapshots and ref-based element selection", "description_zh": "", "downloads": 230, "homepage": "https://clawhub.ai/banalit/luke-agent-browser-clawdbot", "iconUrl": null, "installs": 98, "name": "Luke Agent Browser Clawdbot", "ownerName": "banalit", "score": 12588.943623426383, "slug": "luke-agent-browser-clawdbot", "source": "clawhub", "stars": 0, "tags": null, "updated_at": 1776754688624, "version": "1.0.0"}, {"category": "developer-tools", "created_at": 1773939827922, "description": "Turn any website into a CLI command. 36 platforms, 103 commands — Twitter, Reddit, GitHub, YouTube, Zhihu, Bilibili, Weibo, and more. Uses OpenClaw's browser...", "description_zh": "", "downloads": 230, "homepage": "https://clawhub.ai/yan5xu/bb-browser-sites", "iconUrl": null, "installs": 84, "name": "Bb Browser Sites", "ownerName": "yan5xu", "score": 12472.88503253796, "slug": "bb-browser-sites", "source": "clawhub", "stars": 0, "tags": null, "updated_at": 1776754688276, "version": "0.1.0"}, {"category": "content-creation", "created_at": 1773075055357, "description": "Upscale images to 2K, 4K, or 8K resolution using WaveSpeed AI's Image Upscaler. Takes an image URL and produces a higher-resolution version. Supports JPEG, P...", "description_zh": "", "downloads": 230, "homepage": "https://clawhub.ai/chengzeyi/wavespeed-image-upscaler", "iconUrl": null, "installs": 14, "name": "WaveSpeedAI Image Upscaler", "ownerName": "chengzeyi", "score": 85185.18518518518, "slug": "wavespeed-image-upscaler", "source": "clawhub", "stars": 0, "tags": null, "updated_at": 1776749085529, "version": "1.0.0"}, {"category": "security-compliance", "created_at": 1772805209306, "description": "Email for AI agents. Create inboxes, receive and send email. No API keys, no human signup.", "description_zh": "", "downloads": 230, "homepage": "https://clawhub.ai/samuelchenardlovesboards/lobstermail-agent-email", "iconUrl": null, "installs": 5, "name": "lobsterMail.ai - instant email for your agent", "ownerName": "samuelchenardlovesboards", "score": 85185.18518518518, "slug": "lobstermail-agent-email", "source": "clawhub", "stars": 0, "tags": ["agent-email", "agent-inbox", "ai-agent-email", "ai-email", "custom-domain", "email", "email-api", "email-for-agents", "email-security", "inbox", "llm-safety", "lobstermail", "mcp-email", "mcp-server", "prompt-injection", "receive-email", "sdk", "send-email", "typescript", "webhooks"], "updated_at": 1776749085523, "version": "1.0.1"}, {"category": "communication-collaboration", "created_at": 1773075088920, "description": "Real-time news aggregator with Discord & Telegram push. Manage Jin10, BlockBeats, RSS, X KOLs, Polymarket, OpenNews via REST API.", "description_zh": "", "downloads": 230, "homepage": "https://clawhub.ai/zxcnny930/buzz", "iconUrl": null, "installs": 5, "name": "Buzz", "ownerName": "zxcnny930", "score": 85185.18518518518, "slug": "buzz", "source": "clawhub", "stars": 0, "tags": null, "updated_at": 1776749085519, "version": "1.1.1"}, {"category": "productivity", "created_at": 1773081341368, "description": "Add events to iCloud Calendar via CalDAV. Syncs to iPhone automatically with alarm reminders.", "description_zh": "", "downloads": 230, "homepage": "https://clawhub.ai/teenlucifer/icloud-calendar", "iconUrl": null, "installs": 15, "name": "Icloud Calendar Skill", "ownerName": "teenlucifer", "score": 82733.81294964028, "slug": "icloud-calendar", "source": "clawhub", "stars": 0, "tags": null, "updated_at": 1776749085416, "version": "0.1.0"}, {"category": "developer-tools", "created_at": 1773063549379, "description": "Create, manage, and deploy ElevenLabs conversational AI agents. Use when the user wants to work with voice agents, list their agents, create new ones, or man...", "description_zh": "", "downloads": 230, "homepage": "https://clawhub.ai/sieyer/elevenlabs-agents-1-0-0", "iconUrl": null, "installs": 5, "name": "Elevenlabs Agents 1.0.0", "ownerName": "sieyer", "score": 92369.4779116466, "slug": "elevenlabs-agents-1-0-0", "source": "clawhub", "stars": 0, "tags": null, "updated_at": 1776749085351, "version": "1.0.0"}, {"category": "productivity", "created_at": 1773061063240, "description": "OS-level watchdog that monitors OpenClaw gateway health and auto-restarts on crash. After restart, triggers session recovery so interrupted work resumes auto...", "description_zh": "", "downloads": 230, "homepage": "https://clawhub.ai/russellfei/gateway-keeper", "iconUrl": null, "installs": 7, "name": "Gateway Keeper", "ownerName": "russellfei", "score": 92000, "slug": "gateway-keeper", "source": "clawhub", "stars": 0, "tags": null, "updated_at": 1776749085200, "version": "2.0.0"}, {"category": "developer-tools", "created_at": 1773060247677, "description": "Create or optimize an OpenClaw skill. Use when the user wants to build a new skill, improve an existing one, review a SKILL.md, or prepare a skill for ClawHu...", "description_zh": "", "downloads": 230, "homepage": "https://clawhub.ai/spideystreet/skill-build-helper", "iconUrl": null, "installs": 11, "name": "Skill Build Helper", "ownerName": "spideystreet", "score": 88803.0888030888, "slug": "skill-build-helper", "source": "clawhub", "stars": 0, "tags": null, "updated_at": 1776749085042, "version": "1.0.1"}, {"category": "data-analysis", "created_at": 1773848639944, "description": "Multilingual semiconductor supply chain intelligence. Investigates supplier relationships, material chokepoints, and market structure across Korea, Japan, Ta...", "description_zh": "", "downloads": 230, "homepage": "https://clawhub.ai/lboquillon/chipchain", "iconUrl": null, "installs": 23, "name": "ChipChain", "ownerName": "lboquillon", "score": 92000, "slug": "chipchain", "source": "clawhub", "stars": 0, "tags": null, "updated_at": 1776749084961, "version": "1.0.8"}, {"category": "data-analysis", "created_at": 1773066976949, "description": "Write high-converting freelance proposals from job postings (Upwork, Toptal, Freelancer, etc). Given a job URL or pasted description, analyzes the client's r...", "description_zh": "", "downloads": 230, "homepage": "https://clawhub.ai/kevdogg102396-afk/freelance-proposal-writer", "iconUrl": null, "installs": 11, "name": "Freelance Proposal Writer", "ownerName": "kevdogg102396-afk", "score": 72784.81012658228, "slug": "freelance-proposal-writer", "source": "clawhub", "stars": 0, "tags": ["freelance", "proposal", "sales", "upwork"], "updated_at": 1776749084904, "version": "1.0.0"}, {"category": "content-creation", "created_at": 1773855765833, "description": "Generate images from text prompts using AI models via OpenRouter, Kie.ai, or YandexART. Use when the user asks to generate, create, draw, or illustrate an im...", "description_zh": "", "downloads": 230, "homepage": "https://clawhub.ai/bzsega/smtools-image-generation", "iconUrl": null, "installs": 49, "name": "SMTools Image Generation Skill", "ownerName": "bzsega", "score": 76666.66666666667, "slug": "smtools-image-generation", "source": "clawhub", "stars": 0, "tags": null, "updated_at": 1776749084595, "version": "1.9.1"}, {"category": "ai-intelligence", "created_at": 1773075547457, "description": "Multi-LLM orchestration for OpenClaw with fan-out, pipeline, and consensus patterns. Dispatches tasks across 40+ models using AAHP v3 inspired handoffs.", "description_zh": "", "downloads": 230, "homepage": "https://clawhub.ai/homeofe/openclaw-model-orchestrator", "iconUrl": null, "installs": 14, "name": "OpenClaw Model Orchestrator", "ownerName": "homeofe", "score": 89843.75, "slug": "openclaw-model-orchestrator", "source": "clawhub", "stars": 0, "tags": null, "updated_at": 1776749084567, "version": "0.1.0"}, {"category": "data-analysis", "created_at": 1773080765784, "description": "Fetch X/Twitter tweets, replies, and timelines without login or API keys. Also supports Chinese platforms (Weibo, Bilibili, CSDN, WeChat).", "description_zh": "", "downloads": 230, "homepage": "https://clawhub.ai/hejiubot/tweet-monitor-pro", "iconUrl": null, "installs": 40, "name": "Tweet Monitor Pro", "ownerName": "hejiubot", "score": 89843.75, "slug": "tweet-monitor-pro", "source": "clawhub", "stars": 0, "tags": ["api", "scraping", "social", "twitter"], "updated_at": 1776749084513, "version": "1.0.0"}, {"category": "communication-collaboration", "created_at": 1772804585849, "description": "Refine conversation history by deleting useless/redundant/process exchanges. Keep explicit instructions, disciplines, important configs, skills learned (how)...", "description_zh": "", "downloads": 230, "homepage": "https://clawhub.ai/sslisen/chat-refiner", "iconUrl": null, "installs": 9, "name": "Chat Refiner", "ownerName": "sslisen", "score": 92741.93548387097, "slug": "chat-refiner", "source": "clawhub", "stars": 0, "tags": null, "updated_at": 1776749084207, "version": "0.1.0"}, {"category": "security-compliance", "created_at": 1773073225891, "description": "ACP buyer skill — hire x402janus for wallet security scans via the Virtuals ACP marketplace. Creates a job on the ACP marketplace targeting the x402janus age...", "description_zh": "", "downloads": 230, "homepage": "https://clawhub.ai/openclaw-consensus-bot/x402janus-acp", "iconUrl": null, "installs": 5, "name": "x402janus-acp", "ownerName": "openclaw-consensus-bot", "score": 85820.89552238806, "slug": "x402janus-acp", "source": "clawhub", "stars": 0, "tags": null, "updated_at": 1776749084083, "version": "2.0.0"}, {"category": "productivity", "created_at": 1773074611315, "description": "Google Drive integration. Manage Drives, Users, Permissions. Use when the user wants to interact with Google Drive data.", "description_zh": "", "downloads": 230, "homepage": "https://clawhub.ai/membranedev/google-drive-integration", "iconUrl": null, "installs": 2, "name": "Google Drive", "ownerName": "membranedev", "score": 91633.46613545816, "slug": "google-drive-integration", "source": "clawhub", "stars": 0, "tags": null, "updated_at": 1776749083991, "version": "1.0.3"}, {"category": "productivity", "created_at": 1773091768762, "description": "Embeds and controls a virtual avatar using the avatar-runtime npm package. Provides Live2D rendering, VRM 3D, vector fallback, and control-driven expression/...", "description_zh": "", "downloads": 230, "homepage": "https://clawhub.ai/neiljo-gy/avatar-runtime", "iconUrl": null, "installs": 18, "name": "Avatar Runtime", "ownerName": "neiljo-gy", "score": 91633.46613545816, "slug": "avatar-runtime", "source": "clawhub", "stars": 0, "tags": null, "updated_at": 1776749083950, "version": "0.2.1"}, {"category": "developer-tools", "created_at": 1773064412060, "description": "Detect hardcoded secrets, exposed API keys, and credential misconfigurations in IaC and config files", "description_zh": "", "downloads": 230, "homepage": "https://clawhub.ai/anmolnagpal/secrets-scanner", "iconUrl": null, "installs": 6, "name": "Secrets Scanner", "ownerName": "anmolnagpal", "score": 91633.46613545816, "slug": "secrets-scanner", "source": "clawhub", "stars": 0, "tags": null, "updated_at": 1776749083928, "version": "1.0.0"}, {"category": "developer-tools", "created_at": 1773077069541, "description": "Launch and manage Cursor Cloud Agents via the official API v0. Use when user asks to delegate a coding task to Cursor's cloud agent, create a PR automaticall...", "description_zh": "", "downloads": 230, "homepage": "https://clawhub.ai/siaslfs/cursor-cloud-agent", "iconUrl": null, "installs": 13, "name": "Cursor Cloud Agent", "ownerName": "siaslfs", "score": 91633.46613545816, "slug": "cursor-cloud-agent", "source": "clawhub", "stars": 0, "tags": ["agent", "coding", "cursor", "github", "pr"], "updated_at": 1776749083889, "version": "1.1.0"}, {"category": "ai-intelligence", "created_at": 1772802968992, "description": "Sovereign, recoverable memory for AI agents backed by Jackal decentralized storage.", "description_zh": "", "downloads": 230, "homepage": "https://clawhub.ai/regan-milne/claw-store-skill", "iconUrl": null, "installs": 13, "name": "Claw Store Skill", "ownerName": "regan-milne", "score": 89494.16342412452, "slug": "claw-store-skill", "source": "clawhub", "stars": 0, "tags": null, "updated_at": 1776749083664, "version": "1.0.0"}, {"category": "productivity", "created_at": 1773201788096, "description": "Create music with MiniMax music models (music-2.5+, music-2.5). Use when generating songs, instrumental tracks, or chanting from lyrics and style prompts via...", "description_zh": "", "downloads": 229, "homepage": "https://clawhub.ai/blue-coconut/mm-music-expert", "iconUrl": null, "installs": 28, "name": "mmMusicExpert", "ownerName": "blue-coconut", "score": 18513.011152416355, "slug": "mm-music-expert", "source": "clawhub", "stars": 1, "tags": null, "updated_at": 1776759198147, "version": "1.0.0"}, {"category": "developer-tools", "created_at": 1772803799875, "description": "Build structured AI agent personalities using OCEAN, DISC, and Jungian frameworks. Define traits, communication styles, guardrails, and compile to system pro...", "description_zh": "", "downloads": 229, "homepage": "https://clawhub.ai/jcrowan3/personanexus-skill", "iconUrl": null, "installs": 10, "name": "PersonaNexus ClawHub Skill", "ownerName": "jcrowan3", "score": 49306.930693069306, "slug": "personanexus-skill", "source": "clawhub", "stars": 1, "tags": null, "updated_at": 1776750469734, "version": "1.0.0"}, {"category": "security-compliance", "created_at": 1773079345212, "description": "Enforce strict security rules to protect sensitive information (API keys, tokens, credentials, PII, financial data). Always sanitize or refuse to reveal full...", "description_zh": "", "downloads": 229, "homepage": "https://clawhub.ai/frw1988/security-guard", "iconUrl": null, "installs": 8, "name": "Security Guard", "ownerName": "frw1988", "score": 100000, "slug": "security-guard", "source": "clawhub", "stars": 1, "tags": null, "updated_at": 1776749085387, "version": "1.0.0"}, {"category": "content-creation", "created_at": 1773069309709, "description": "Send messages and files to Feishu (Lark) via Open API. Supports text, markdown, any file format, and images. Use when user needs to send notifications, repor...", "description_zh": "", "downloads": 229, "homepage": "https://clawhub.ai/zhendexuebuhui/feishu-sender", "iconUrl": null, "installs": 26, "name": "Feishu Sender", "ownerName": "zhendexuebuhui", "score": 100000, "slug": "feishu-sender", "source": "clawhub", "stars": 1, "tags": null, "updated_at": 1776749085321, "version": "1.0.1"}, {"category": "data-analysis", "created_at": 1773067765734, "description": "Look up VeriGlow Agent Map for any website URL to discover its data functions, internal APIs, browser automation recipes, and agent reliability reports. Use...", "description_zh": "", "downloads": 229, "homepage": "https://clawhub.ai/chizhongwang/veriglow-agent-map", "iconUrl": null, "installs": 18, "name": "VeriGlow Agent Map", "ownerName": "chizhongwang", "score": 96511.62790697675, "slug": "veriglow-agent-map", "source": "clawhub", "stars": 1, "tags": null, "updated_at": 1776749084742, "version": "0.2.0"}, {"category": "", "created_at": 1774905993000, "description": "Dispatch independent tasks to focused agents working concurrently on isolated problems without shared state or sequential dependencies for faster resolution.", "description_zh": "", "downloads": 229, "homepage": "https://clawhub.ai/demo112/superpowers-dispatching-parallel-agents", "iconUrl": null, "installs": 41, "name": "Superpowers Dispatching Parallel Agents", "ownerName": "demo112", "score": 3439.4713127065183, "slug": "superpowers-dispatching-parallel-agents", "source": "clawhub", "stars": 0, "tags": null, "updated_at": 1776769449816, "version": "1.0.0"}, {"category": "content-creation", "created_at": 1773935089864, "description": "Especialista em A Moreninha (Joaquim Manuel de Macedo). Use quando o usuário pedir resumo, análise literária, personagens, capítulos, citações, contexto hist...", "description_zh": "", "downloads": 229, "homepage": "https://clawhub.ai/daviemmanuel/moreninha", "iconUrl": null, "installs": 89, "name": "moreninha", "ownerName": "daviemmanuel", "score": 12472.76688453159, "slug": "moreninha", "source": "clawhub", "stars": 0, "tags": null, "updated_at": 1776764950341, "version": "1.0.0"}, {"category": "data-analysis", "created_at": 1773219904605, "description": "Post content to Binance Square (Binance social platform for sharing trading insights). Auto-run on messages like 'post to square', 'square post'. Supports pu...", "description_zh": "", "downloads": 229, "homepage": "https://clawhub.ai/ai-chen2050/binance-square-post", "iconUrl": null, "installs": 21, "name": "binance square 币安广场", "ownerName": "ai-chen2050", "score": 3704.9021193981553, "slug": "binance-square-post", "source": "clawhub", "stars": 0, "tags": null, "updated_at": 1776762850520, "version": "1.0.0"}, {"category": "data-analysis", "created_at": 1772803807666, "description": "Assesses wind turbine blade condition from visual inspection data. Classifies damage type and severity (1-5) across seven failure modes and recommends repair...", "description_zh": "", "downloads": 229, "homepage": "https://clawhub.ai/sertug17/blade-inspection", "iconUrl": null, "installs": 11, "name": "Blade Inspection", "ownerName": "sertug17", "score": 7656.302240053494, "slug": "blade-inspection", "source": "clawhub", "stars": 0, "tags": null, "updated_at": 1776761715024, "version": "1.0.0"}, {"category": "content-creation", "created_at": 1773076520604, "description": "Generate Meta (Facebook & Instagram) ad creatives using each::sense AI. Create feed ads, stories, reels, carousel images, and video ads optimized for Meta's...", "description_zh": "", "downloads": 229, "homepage": "https://clawhub.ai/eftalyurtseven/meta-ad-creative-generation", "iconUrl": null, "installs": 25, "name": "Meta Ad Creative Generation", "ownerName": "eftalyurtseven", "score": 5417.553820676603, "slug": "meta-ad-creative-generation", "source": "clawhub", "stars": 0, "tags": null, "updated_at": 1776760582402, "version": "1.0.0"}, {"category": "data-analysis", "created_at": 1773091032136, "description": "Automatically parse PDF/TXT research reports to extract key viewpoints, data, investment advice, risks, and generate summaries.", "description_zh": "", "downloads": 229, "homepage": "https://clawhub.ai/zhangq0687/report-processor", "iconUrl": null, "installs": 19, "name": "Report Processor", "ownerName": "zhangq0687", "score": 18045.705279747835, "slug": "report-processor", "source": "clawhub", "stars": 0, "tags": ["analysis", "finance", "knowledge-base", "research"], "updated_at": 1776759982168, "version": "1.0.0"}, {"category": "data-analysis", "created_at": 1773080403550, "description": "Provides scalping and day trading signals for IDX stocks using M5/M15 charts with entry, cut loss, target prices, momentum, volume, and risk management analy...", "description_zh": "", "downloads": 229, "homepage": "https://clawhub.ai/alfathsyahrian/idx-scalper", "iconUrl": null, "installs": 25, "name": "The Titan Scalper IDX", "ownerName": "alfathsyahrian", "score": 17192.192192192193, "slug": "idx-scalper", "source": "clawhub", "stars": 0, "tags": null, "updated_at": 1776759383049, "version": "1.0.0"}, {"category": "data-analysis", "created_at": 1773066520489, "description": "Automatically monitors model health and switches between primary and fallback models to maintain stability and recover when possible.", "description_zh": "", "downloads": 229, "homepage": "https://clawhub.ai/bovmanth/model-failover-guard", "iconUrl": null, "installs": 12, "name": "Model Failover Guard", "ownerName": "bovmanth", "score": 14357.366771159874, "slug": "model-failover-guard", "source": "clawhub", "stars": 0, "tags": ["auto-switch", "failover", "model"], "updated_at": 1776759382775, "version": "1.0.0"}, {"category": "developer-tools", "created_at": 1773080833390, "description": "Installs AgentGuard to secure your AI agent by wrapping tools with evaluate() to block prompt injections, tool abuse, and malicious commands.", "description_zh": "", "downloads": 229, "homepage": "https://clawhub.ai/koshaji/agentguard-tech", "iconUrl": null, "installs": 13, "name": "AgentGuard Tech", "ownerName": "koshaji", "score": 14357.366771159874, "slug": "agentguard-tech", "source": "clawhub", "stars": 0, "tags": null, "updated_at": 1776759382773, "version": "2.0.0"}, {"category": "content-creation", "created_at": 1773088939250, "description": "Create stunning, animation-rich HTML presentations from scratch or by converting PowerPoint files. Use when the user wants to build a presentation, convert a...", "description_zh": "", "downloads": 229, "homepage": "https://clawhub.ai/liberalchang/frontendslides", "iconUrl": null, "installs": 34, "name": "frontendslides", "ownerName": "liberalchang", "score": 17179.294823705925, "slug": "frontendslides", "source": "clawhub", "stars": 0, "tags": null, "updated_at": 1776759382439, "version": "1.0.0"}, {"category": "developer-tools", "created_at": 1773067385307, "description": "Provides efficient Toggl Track API access and fast, token-optimized reports via CLI and shell scripts using Toggl API v3.", "description_zh": "", "downloads": 229, "homepage": "https://clawhub.ai/alex1389/toggl-optimized", "iconUrl": null, "installs": 4, "name": "Toggl Optimized", "ownerName": "alex1389", "score": 17243.975903614457, "slug": "toggl-optimized", "source": "clawhub", "stars": 0, "tags": null, "updated_at": 1776759382240, "version": "1.0.0"}, {"category": "data-analysis", "created_at": 1773080471434, "description": "Analyze webpage SEO score based on title, meta description, H1 tags, and content length, providing detailed optimization recommendations.", "description_zh": "", "downloads": 229, "homepage": "https://clawhub.ai/loverun321/seo-analyzer-v2", "iconUrl": null, "installs": 23, "name": "SEO Analyzer Pro", "ownerName": "loverun321", "score": 1895.8523056544416, "slug": "seo-analyzer-v2", "source": "clawhub", "stars": 0, "tags": null, "updated_at": 1776759382174, "version": "1.0.0"}]}