{"page": 284, "total_pages": 522, "total": 26073, "skills": [{"category": "communication-collaboration", "created_at": 1772804132204, "description": "Manage agents in Google Dialogflow CX via REST API. Use for creating, listing, updating, and deleting chatbot agents. Supports v3beta1 API.", "description_zh": "", "downloads": 229, "homepage": "https://clawhub.ai/yash-kavaiya/dialogflow-cx-agents", "iconUrl": null, "installs": 4, "name": "Dialogflow Cx Agents", "ownerName": "yash-kavaiya", "score": 85447.76119402985, "slug": "dialogflow-cx-agents", "source": "clawhub", "stars": 0, "tags": null, "updated_at": 1776749085556, "version": "1.0.0"}, {"category": "developer-tools", "created_at": 1773285410467, "description": "Control the desktop via CUA computer server API running on port 8000", "description_zh": "", "downloads": 229, "homepage": "https://clawhub.ai/sarinali/gui-automation", "iconUrl": null, "installs": 15, "name": "GUI Automation", "ownerName": "sarinali", "score": 91967.87148594378, "slug": "gui-automation", "source": "clawhub", "stars": 0, "tags": null, "updated_at": 1776749085353, "version": "1.0.1"}, {"category": "developer-tools", "created_at": 1773218291878, "description": "Order, configure and manage dedicated game servers (20+ games) via Supercraft REST API", "description_zh": "", "downloads": 229, "homepage": "https://clawhub.ai/mcjkrs/game-servers", "iconUrl": null, "installs": 18, "name": "Supercraft Game Servers", "ownerName": "mcjkrs", "score": 91600, "slug": "game-servers", "source": "clawhub", "stars": 0, "tags": ["api", "ark", "counter-strike-2", "dedicated-server", "devops", "enshrouded", "factorio", "game-server", "gaming", "humanitz", "hytale", "minecraft-bedrock", "necesse", "palworld", "project-zomboid", "rust", "satisfactory", "sons-of-the-forest", "terraria", "unturned", "v-rising", "valheim", "vein", "vintage-story"], "updated_at": 1776749085157, "version": "1.1.0"}, {"category": "security-compliance", "created_at": 1772799619223, "description": "This skill provides guidance and enforcement rules for implementing secure two-factor authentication (2FA) using Better Auth's twoFactor plugin.", "description_zh": "", "downloads": 229, "homepage": "https://clawhub.ai/stevenfengli/twofactor", "iconUrl": null, "installs": 5, "name": "Two Factor Authentication Best Practices", "ownerName": "stevenfengli", "score": 88416.98841698842, "slug": "twofactor", "source": "clawhub", "stars": 0, "tags": null, "updated_at": 1776749085103, "version": "0.1.0"}, {"category": "content-creation", "created_at": 1773080139250, "description": "Automatically generate social media posts from articles. Supports Twitter, LinkedIn, and more. Perfect for content repurposing.", "description_zh": "", "downloads": 229, "homepage": "https://clawhub.ai/fly3094/lobsterlabs-social-media-automator", "iconUrl": null, "installs": 23, "name": "Social Media Automator", "ownerName": "fly3094", "score": 72468.35443037974, "slug": "lobsterlabs-social-media-automator", "source": "clawhub", "stars": 0, "tags": null, "updated_at": 1776749084881, "version": "0.1.0"}, {"category": "ai-intelligence", "created_at": 1773074530073, "description": "The AEIF-based long-term memory hub for AI Agents to prevent repeating bugs.", "description_zh": "", "downloads": 229, "homepage": "https://clawhub.ai/404-unknow/engram-2", "iconUrl": null, "installs": 17, "name": "Engram Evomap", "ownerName": "404-unknow", "score": 90157.48031496063, "slug": "engram-2", "source": "clawhub", "stars": 0, "tags": null, "updated_at": 1776749084847, "version": "0.1.1"}, {"category": "security-compliance", "created_at": 1772804882528, "description": "Mitigate prompt injection attacks, especially indirect ones from external web content or files. Use this skill when processing untrusted text from the intern...", "description_zh": "", "downloads": 229, "homepage": "https://clawhub.ai/1999azzar/guardian-wall-azzar", "iconUrl": null, "installs": 9, "name": "Guardian Wall", "ownerName": "1999azzar", "score": 90157.48031496063, "slug": "guardian-wall-azzar", "source": "clawhub", "stars": 0, "tags": ["injection", "mitigation", "security"], "updated_at": 1776749084800, "version": "1.0.0"}, {"category": "ai-intelligence", "created_at": 1772805435839, "description": "Query Grok AI (grok.com) for real-time information via browser automation. Requires: OpenClaw browser enabled, user pre-logged-in to grok.com, and a Grok acc...", "description_zh": "", "downloads": 229, "homepage": "https://clawhub.ai/inphinitiz/grok-query", "iconUrl": null, "installs": 14, "name": "Grok Query", "ownerName": "inphinitiz", "score": 76333.33333333333, "slug": "grok-query", "source": "clawhub", "stars": 0, "tags": null, "updated_at": 1776749084653, "version": "1.0.0"}, {"category": "data-analysis", "created_at": 1773074810888, "description": "QMD memory system telemetry — measure index health, BM25 retrieval quality, coverage maps, and trend analysis. Use when running QMD memory backend and need d...", "description_zh": "", "downloads": 229, "homepage": "https://clawhub.ai/nissan/memory-health-probe", "iconUrl": null, "installs": 17, "name": "Memory Health Probe", "ownerName": "nissan", "score": 89453.125, "slug": "memory-health-probe", "source": "clawhub", "stars": 0, "tags": null, "updated_at": 1776749084586, "version": "1.0.0"}, {"category": "communication-collaboration", "created_at": 1772803921462, "description": "Scans OpenClaw logs, config files, chat history, cursor history, behavior, desires, tastes, and drafts to take comprehensive daily and weekly notes with summ...", "description_zh": "", "downloads": 229, "homepage": "https://clawhub.ai/runeweaverstudios/scribe", "iconUrl": null, "installs": 3, "name": "Scribe", "ownerName": "runeweaverstudios", "score": 83272.72727272728, "slug": "scribe", "source": "clawhub", "stars": 0, "tags": null, "updated_at": 1776749084404, "version": "1.0.0"}, {"category": "ai-intelligence", "created_at": 1772805167968, "description": "Query wallet addresses and on-chain balances on OpenAnt. Use when the agent or user wants to check wallet address, view balance, see how much SOL or ETH they...", "description_zh": "", "downloads": 229, "homepage": "https://clawhub.ai/ant-1984/check-wallet", "iconUrl": null, "installs": 11, "name": "Check Wallet", "ownerName": "ant-1984", "score": 92338.70967741935, "slug": "check-wallet", "source": "clawhub", "stars": 0, "tags": null, "updated_at": 1776749084218, "version": "0.1.0"}, {"category": "developer-tools", "created_at": 1773076966500, "description": "Spec-driven development workflow. Before writing any code, generates a comprehensive SPEC.md covering data models, user flows, API contracts, file structure,...", "description_zh": "", "downloads": 229, "homepage": "https://clawhub.ai/kevdogg102396-afk/spec-first-dev", "iconUrl": null, "installs": 14, "name": "Spec-First Development", "ownerName": "kevdogg102396-afk", "score": 91235.05976095617, "slug": "spec-first-dev", "source": "clawhub", "stars": 0, "tags": ["architecture", "development", "planning", "spec"], "updated_at": 1776749083902, "version": "1.0.0"}, {"category": "productivity", "created_at": 1772805398246, "description": "Get real-time and scheduled bus arrival times for TPER buses in Bologna and Ferrara, Italy. Use this skill whenever the user mentions TPER, bus stop codes (n...", "description_zh": "", "downloads": 229, "homepage": "https://clawhub.ai/lore2601/tper-hellobus-skill", "iconUrl": null, "installs": 5, "name": "tper-hellobus", "ownerName": "lore2601", "score": 89105.05836575876, "slug": "tper-hellobus-skill", "source": "clawhub", "stars": 0, "tags": null, "updated_at": 1776749083761, "version": "0.0.2"}, {"category": "productivity", "created_at": 1773430382735, "description": "Workflow Automator - command-line tool for everyday use", "description_zh": "", "downloads": 229, "homepage": "https://clawhub.ai/bytesagain/workflow-automator", "iconUrl": null, "installs": 16, "name": "Workflow Automator", "ownerName": "bytesagain", "score": 89105.05836575876, "slug": "workflow-automator", "source": "clawhub", "stars": 0, "tags": null, "updated_at": 1776749083735, "version": "2.3.5"}, {"category": "productivity", "created_at": 1773066170514, "description": "Set up and manage OpenClaw auto learning diary. Used for: (1) Help users fork OpenClaw-Diary repository (2) Connect the forked repo to OpenClaw (3) Configure...", "description_zh": "", "downloads": 229, "homepage": "https://clawhub.ai/trae1oung/openclaw-diary", "iconUrl": null, "installs": 9, "name": "Openclaw Diary", "ownerName": "trae1oung", "score": 89105.05836575876, "slug": "openclaw-diary", "source": "clawhub", "stars": 0, "tags": null, "updated_at": 1776749083645, "version": "1.0.2"}, {"category": "content-creation", "created_at": 1773076328245, "description": "Automated lead generation assistant - finds companies, scores them, writes personalized outreach emails, and tracks pipeline.", "description_zh": "", "downloads": 228, "homepage": "https://clawhub.ai/clawdquip/lead-gen-operator", "iconUrl": null, "installs": 17, "name": "Lead Gen Operator", "ownerName": "clawdquip", "score": 100000, "slug": "lead-gen-operator", "source": "clawhub", "stars": 2, "tags": ["automation", "leads", "sales"], "updated_at": 1776749085617, "version": "1.0.0"}, {"category": "ai-intelligence", "created_at": 1773076820095, "description": "AI-powered browser automation using the AIPex Chrome Extension via MCP bridge. Use this skill when the agent needs to control a Chrome browser — navigating p...", "description_zh": "", "downloads": 228, "homepage": "https://clawhub.ai/buttercannfly/skill-6", "iconUrl": null, "installs": 22, "name": "Aipex Browser", "ownerName": "buttercannfly", "score": 100000, "slug": "skill-6", "source": "clawhub", "stars": 2, "tags": null, "updated_at": 1776749084150, "version": "0.1.0"}, {"category": "developer-tools", "created_at": 1773075440189, "description": "Create, list, fetch, and delete WhenToMeet planning events via the authenticated tRPC v1 API.", "description_zh": "", "downloads": 228, "homepage": "https://clawhub.ai/felixwortmann/whentomeet", "iconUrl": null, "installs": 10, "name": "WhenToMeet", "ownerName": "felixwortmann", "score": 92537.31343283583, "slug": "whentomeet", "source": "clawhub", "stars": 1, "tags": null, "updated_at": 1776749085586, "version": "1.0.1"}, {"category": "developer-tools", "created_at": 1772804799740, "description": "Transcribe audio files to text via Step ASR streaming API (HTTP SSE). Supports Chinese and English, multiple audio formats (PCM, WAV, MP3, OGG/OPUS), real-ti...", "description_zh": "", "downloads": 228, "homepage": "https://clawhub.ai/randzero/step-asr", "iconUrl": null, "installs": 12, "name": "Step Asr", "ownerName": "randzero", "score": 96124.03100775194, "slug": "step-asr", "source": "clawhub", "stars": 1, "tags": null, "updated_at": 1776749084756, "version": "1.0.0"}, {"category": "productivity", "created_at": 1773088821450, "description": "A travel frog that autonomously explores the world, sends postcards, and takes photos.", "description_zh": "", "downloads": 228, "homepage": "https://clawhub.ai/nibbinnone/travel-frog", "iconUrl": null, "installs": 17, "name": "Travel Frog 旅行青蛙", "ownerName": "nibbinnone", "score": 100000, "slug": "travel-frog", "source": "clawhub", "stars": 1, "tags": null, "updated_at": 1776749084196, "version": "1.0.0"}, {"category": "data-analysis", "created_at": 1773064774735, "description": "Self-evolving memory system that learns from verifiable tasks. Use when completing tasks where you can verify the outcome (coding, predictions, analysis). Au...", "description_zh": "", "downloads": 228, "homepage": "https://clawhub.ai/mercury7353/live-evo", "iconUrl": null, "installs": 23, "name": "Live Evo: Online Evolution with verified experiences", "ownerName": "mercury7353", "score": 100000, "slug": "live-evo", "source": "clawhub", "stars": 1, "tags": null, "updated_at": 1776749083779, "version": "0.1.0"}, {"category": "content-creation", "created_at": 1773089608340, "description": "Generate social media content (posts, captions, images) for multiple platforms. Use when creating social media posts, marketing content, or bulk content cale...", "description_zh": "", "downloads": 228, "homepage": "https://clawhub.ai/yinanping-cpu/yinan-social-content-generator", "iconUrl": null, "installs": 37, "name": "Social Content Generator", "ownerName": "yinanping-cpu", "score": 6497.577657452265, "slug": "yinan-social-content-generator", "source": "clawhub", "stars": 0, "tags": null, "updated_at": 1776767390560, "version": "1.0.0"}, {"category": "content-creation", "created_at": 1773076580082, "description": "Sanitize prompts before sending to LLMs. Detects PII, prompt injection, toxicity, and off-topic content. Returns cleaned text + risk score. Use when: sanitiz...", "description_zh": "", "downloads": 228, "homepage": "https://clawhub.ai/daisuke134/prompt-sanitizer", "iconUrl": null, "installs": 11, "name": "prompt-sanitizer", "ownerName": "daisuke134", "score": 3418.803418803419, "slug": "prompt-sanitizer", "source": "clawhub", "stars": 0, "tags": null, "updated_at": 1776765250162, "version": "1.0.0"}, {"category": "productivity", "created_at": 1772804896749, "description": "[DEPRECATED] Renamed to polymarket-paper-trader. Run: npx clawhub install polymarket-paper-trader", "description_zh": "", "downloads": 228, "homepage": "https://clawhub.ai/robotlearning123/pm-sim", "iconUrl": null, "installs": 8, "name": "Pm Sim", "ownerName": "robotlearning123", "score": 18673.21867321867, "slug": "pm-sim", "source": "clawhub", "stars": 0, "tags": null, "updated_at": 1776760582436, "version": "0.2.0"}, {"category": "content-creation", "created_at": 1773077215479, "description": "Write and generate statically typed, tensor-oriented MIND language source files with full autodiff support and Rust-like syntax for ML and scientific computing.", "description_zh": "", "downloads": 228, "homepage": "https://clawhub.ai/star-ga/mind", "iconUrl": null, "installs": 14, "name": "MIND Language", "ownerName": "star-ga", "score": 82310.46931407943, "slug": "mind", "source": "clawhub", "stars": 0, "tags": null, "updated_at": 1776759383079, "version": "1.0.2"}, {"category": "communication-collaboration", "created_at": 1773091691462, "description": "Send, receive, and manage emails via IMAP/POP3 and SMTP for multiple accounts supporting text, HTML, attachments, folders, and read status.", "description_zh": "", "downloads": 228, "homepage": "https://clawhub.ai/xuwenke123/generic-mail-client", "iconUrl": null, "installs": 10, "name": "Generic Mail Client", "ownerName": "xuwenke123", "score": 17117.117117117115, "slug": "generic-mail-client", "source": "clawhub", "stars": 0, "tags": null, "updated_at": 1776759383035, "version": "0.1.0"}, {"category": "data-analysis", "created_at": 1773433884425, "description": "Use when cleaning clinical trial data, preparing data for FDA/EMA submission, standardizing SDTM datasets, handling missing values in clinical studies, detec...", "description_zh": "", "downloads": 228, "homepage": "https://clawhub.ai/renhaosu2024/clinical-data-cleaner", "iconUrl": null, "installs": 39, "name": "Clinical Data Cleaner", "ownerName": "renhaosu2024", "score": 17220.543806646525, "slug": "clinical-data-cleaner", "source": "clawhub", "stars": 0, "tags": null, "updated_at": 1776759382956, "version": "0.1.1"}, {"category": "content-creation", "created_at": 1772797134432, "description": "Set up and manage DMAF to auto-backup WhatsApp photos and videos with face recognition to Google Photos on GCP.", "description_zh": "", "downloads": 228, "homepage": "https://clawhub.ai/yhyatt/dmaf", "iconUrl": null, "installs": 11, "name": "Openclaw Skill", "ownerName": "yhyatt", "score": 17117.117117117115, "slug": "dmaf", "source": "clawhub", "stars": 0, "tags": null, "updated_at": 1776759382598, "version": "1.1.0"}, {"category": "ai-intelligence", "created_at": 1773065490080, "description": "Share and discover learnings across the Clawlective agent network. Contribute patterns, solutions, and pitfalls — unlock the weekly AI digest and searchable...", "description_zh": "", "downloads": 228, "homepage": "https://clawhub.ai/theonlydaleking/clawlective", "iconUrl": null, "installs": 20, "name": "Clawlective", "ownerName": "theonlydaleking", "score": 17246.59606656581, "slug": "clawlective", "source": "clawhub", "stars": 0, "tags": null, "updated_at": 1776759382313, "version": "0.1.1"}, {"category": "developer-tools", "created_at": 1773077484904, "description": "Log a strength training session and insert it into the life_db database. Use when the user shares their gym session, exercises, sets, reps, weights, RPE, res...", "description_zh": "", "downloads": 228, "homepage": "https://clawhub.ai/spideystreet/workout-track", "iconUrl": null, "installs": 7, "name": "Workout Track", "ownerName": "spideystreet", "score": 17168.67469879518, "slug": "workout-track", "source": "clawhub", "stars": 0, "tags": null, "updated_at": 1776759382247, "version": "1.0.2"}, {"category": "ai-intelligence", "created_at": 1773064992624, "description": "Twitch engagement via PizzaParty.gg - 4 daily sessions for LevelUpLove", "description_zh": "", "downloads": 228, "homepage": "https://clawhub.ai/wespeakallday/pizzaparty-automation", "iconUrl": null, "installs": 16, "name": "Pizzaparty Automation", "ownerName": "wespeakallday", "score": 39929.947460595446, "slug": "pizzaparty-automation", "source": "clawhub", "stars": 0, "tags": null, "updated_at": 1776753604834, "version": "2.0.0"}, {"category": "developer-tools", "created_at": 1773078517720, "description": "Publish selected Obsidian markdown from a vault to a static site and deploy to Cloudflare Pages.", "description_zh": "", "downloads": 228, "homepage": "https://clawhub.ai/davidyoh/openclaw-skill-obsidian-cloudflare-pages", "iconUrl": null, "installs": 23, "name": "OpenClaw Skill: Obsidian Markdown to Cloudflare Pages", "ownerName": "davidyoh", "score": 88030.88803088803, "slug": "openclaw-skill-obsidian-cloudflare-pages", "source": "clawhub", "stars": 0, "tags": null, "updated_at": 1776749085098, "version": "1.0.2"}, {"category": "productivity", "created_at": 1773076957403, "description": "Structured learning pipeline with quality-gated promotion. Captures corrections, errors, and patterns — promotes only what proves itself through recurrence.", "description_zh": "", "downloads": 228, "homepage": "https://clawhub.ai/msruruguay/midos-self-improver", "iconUrl": null, "installs": 21, "name": "Midos Self Improver", "ownerName": "msruruguay", "score": 89763.77952755905, "slug": "midos-self-improver", "source": "clawhub", "stars": 0, "tags": null, "updated_at": 1776749084828, "version": "1.0.0"}, {"category": "data-analysis", "created_at": 1773090352384, "description": "LinkedIn Ads integration. Manage Accounts. Use when the user wants to interact with LinkedIn Ads data.", "description_zh": "", "downloads": 228, "homepage": "https://clawhub.ai/membranedev/linkedin-ads", "iconUrl": null, "installs": 69, "name": "Linkedin Ads", "ownerName": "membranedev", "score": 88372.09302325582, "slug": "linkedin-ads", "source": "clawhub", "stars": 0, "tags": null, "updated_at": 1776749084767, "version": "1.0.0"}, {"category": "productivity", "created_at": 1772805635229, "description": "Start voice calls via the OpenClaw voice-call plugin.", "description_zh": "", "downloads": 228, "homepage": "https://clawhub.ai/blockcloud/voiceskill123", "iconUrl": null, "installs": 8, "name": "voiceskill123", "ownerName": "blockcloud", "score": 76000, "slug": "voiceskill123", "source": "clawhub", "stars": 0, "tags": null, "updated_at": 1776749084602, "version": "1.0.0"}, {"category": "productivity", "created_at": 1773062111841, "description": "Expert crypto trading assistant powered by 3commas strategies. Use this skill whenever the user mentions crypto trading, bots, DCA, grid trading, portfolio a...", "description_zh": "", "downloads": 228, "homepage": "https://clawhub.ai/g4dr/crypto-trading-optimizer", "iconUrl": null, "installs": 6, "name": "Crypto Trading Optimizer", "ownerName": "g4dr", "score": 89411.76470588236, "slug": "crypto-trading-optimizer", "source": "clawhub", "stars": 0, "tags": ["3commas", "automation", "bots", "crypto", "dca", "trading"], "updated_at": 1776749084493, "version": "1.0.0"}, {"category": "productivity", "created_at": 1773063354074, "description": "Start a local HTTP server to preview static HTML pages. Use when testing static pages, previewing HTML files, or when browser tools cannot access file:// URL...", "description_zh": "", "downloads": 228, "homepage": "https://clawhub.ai/liujintao-2021/static-server", "iconUrl": null, "installs": 11, "name": "Static Server", "ownerName": "liujintao-2021", "score": 85074.62686567164, "slug": "static-server", "source": "clawhub", "stars": 0, "tags": null, "updated_at": 1776749084140, "version": "1.0.0"}, {"category": "productivity", "created_at": 1773065402525, "description": "Text transformation, regex, diff, format conversion, and JSON manipulation.", "description_zh": "", "downloads": 228, "homepage": "https://clawhub.ai/cutthemustard/text-transform", "iconUrl": null, "installs": 9, "name": "Text Transform", "ownerName": "cutthemustard", "score": 85074.62686567164, "slug": "text-transform", "source": "clawhub", "stars": 0, "tags": null, "updated_at": 1776749084085, "version": "1.0.1"}, {"category": "data-analysis", "created_at": 1773082692101, "description": "Calculate portfolio risk metrics including VaR, CVaR, Sharpe, Sortino, and drawdown analysis. Use when measuring portfolio risk, implementing risk limits, or...", "description_zh": "", "downloads": 228, "homepage": "https://clawhub.ai/zhengxinjipai/risk-metrics-calculation", "iconUrl": null, "installs": 26, "name": "Risk Metrics Calculation", "ownerName": "zhengxinjipai", "score": 90836.65338645419, "slug": "risk-metrics-calculation", "source": "clawhub", "stars": 0, "tags": null, "updated_at": 1776749083962, "version": "1.0.0"}, {"category": "developer-tools", "created_at": 1773066986528, "description": "🇺🇸 Open Source Launch Marketing Playbook — Complete SOP from strategy to execution. GitHub star growth tactics, KOL partnership lists, Reddit marketing, co...", "description_zh": "", "downloads": 228, "homepage": "https://clawhub.ai/gingiris/gingiris-opensource", "iconUrl": null, "installs": 15, "name": "Gingiris Opensource", "ownerName": "gingiris", "score": 91935.48387096774, "slug": "gingiris-opensource", "source": "clawhub", "stars": 0, "tags": null, "updated_at": 1776749083833, "version": "1.6.2"}, {"category": "developer-tools", "created_at": 1772798281829, "description": "Scans and fetches the most up-to-date documentation for coding tasks. Use when building integrations (e.g. OpenRouter), implementing third-party APIs, or whe...", "description_zh": "", "downloads": 228, "homepage": "https://clawhub.ai/runeweaverstudios/docs-bot", "iconUrl": null, "installs": 6, "name": "Docs Bot", "ownerName": "runeweaverstudios", "score": 88715.95330739299, "slug": "docs-bot", "source": "clawhub", "stars": 0, "tags": null, "updated_at": 1776749083725, "version": "1.0.0"}, {"category": "data-analysis", "created_at": 1773284794921, "description": "Real-time futures market intelligence, GEX/options flow analysis, trading signals, paper trading, backtesting, and live execution via MCP. Covers ES, NQ, SPX...", "description_zh": "", "downloads": 227, "homepage": "https://clawhub.ai/codeurge/profitabul", "iconUrl": null, "installs": 53, "name": "Profitabul", "ownerName": "codeurge", "score": 13868.61313868613, "slug": "profitabul", "source": "clawhub", "stars": 1, "tags": null, "updated_at": 1776765010474, "version": "0.3.1"}, {"category": "data-analysis", "created_at": 1773941818585, "description": "Analyze financial news sentiment, assess short- to long-term impacts, and classify news by type like earnings, contracts, investments, policies, and reports.", "description_zh": "", "downloads": 227, "homepage": "https://clawhub.ai/gbabyzs/aigc-news-sentiment", "iconUrl": null, "installs": 73, "name": "AI News Sentiment", "ownerName": "gbabyzs", "score": 1012.082571670605, "slug": "aigc-news-sentiment", "source": "clawhub", "stars": 0, "tags": null, "updated_at": 1776768849728, "version": "1.0.0"}, {"category": "", "created_at": 1774843470805, "description": "Search and retrieve timely financial news, reports, announcements, and policy analyses based on user queries from Eastmoney data.", "description_zh": "", "downloads": 227, "homepage": "https://clawhub.ai/yunduanmanbu/eastmoney-finance-news", "iconUrl": null, "installs": 78, "name": "Eastmoney Financial Search", "ownerName": "yunduanmanbu", "score": 1363.28148459552, "slug": "eastmoney-finance-news", "source": "clawhub", "stars": 0, "tags": null, "updated_at": 1776766271242, "version": "1.0.0"}, {"category": "", "created_at": 1773207399603, "description": "Monitor Amazon product prices in real-time, set price drop alerts, and track historical price trends for up to 50 items with subscription.", "description_zh": "", "downloads": 227, "homepage": "https://clawhub.ai/yipintangzsp/amazon-price-tracker", "iconUrl": null, "installs": 57, "name": "Amazon Price Tracker", "ownerName": "yipintangzsp", "score": 4676.555418211784, "slug": "amazon-price-tracker", "source": "clawhub", "stars": 0, "tags": null, "updated_at": 1776763450315, "version": "1.0.0"}, {"category": "developer-tools", "created_at": 1772804701216, "description": "Manages macOS Reminders from the terminal using the rem CLI. Creates, lists, updates, completes, deletes, searches, and exports reminders and lists. Supports...", "description_zh": "", "downloads": 227, "homepage": "https://clawhub.ai/bro3886/rem-cli", "iconUrl": null, "installs": 8, "name": "rem", "ownerName": "bro3886", "score": 3961.605584642234, "slug": "rem-cli", "source": "clawhub", "stars": 0, "tags": null, "updated_at": 1776763150596, "version": "1.0.0"}, {"category": "content-creation", "created_at": 1773063367418, "description": "Generate talking head videos from a portrait image and audio using WaveSpeed AI's InfiniteTalk model. Produces lip-synced video up to 10 minutes long at 480p...", "description_zh": "", "downloads": 227, "homepage": "https://clawhub.ai/chengzeyi/wavespeed-infinitetalk-avatar", "iconUrl": null, "installs": 17, "name": "WaveSpeedAI Infinitetalk Talking Avatar Video Generation", "ownerName": "chengzeyi", "score": 1224.5118135721223, "slug": "wavespeed-infinitetalk-avatar", "source": "clawhub", "stars": 0, "tags": null, "updated_at": 1776761540135, "version": "1.0.0"}, {"category": "developer-tools", "created_at": 1773076216541, "description": "Chinese character conversion between Simplified/Traditional and regional variants. Use when Pi needs to convert Chinese text with precision and awareness of...", "description_zh": "", "downloads": 227, "homepage": "https://clawhub.ai/kai-tw/opencc", "iconUrl": null, "installs": 7, "name": "OpenCC", "ownerName": "kai-tw", "score": 91532.25806451612, "slug": "opencc", "source": "clawhub", "stars": 0, "tags": null, "updated_at": 1776759383177, "version": "1.0.0"}, {"category": "developer-tools", "created_at": 1773074546188, "description": "Searches the projects-databus.gsdata.cn API for data using provided project ID, signature, keywords, and returns results as JSON with optional limit.", "description_zh": "", "downloads": 227, "homepage": "https://clawhub.ai/urhd528/gsdata-search", "iconUrl": null, "installs": 7, "name": "gsdata-search", "ownerName": "urhd528", "score": 81949.45848375451, "slug": "gsdata-search", "source": "clawhub", "stars": 0, "tags": null, "updated_at": 1776759383090, "version": "1.0.3"}, {"category": "security-compliance", "created_at": 1772804400231, "description": "Evaluates and governs all OpenClaw bot actions using YAML policies with tamper-evident audit logs to allow, deny, or require review before execution.", "description_zh": "", "downloads": 227, "homepage": "https://clawhub.ai/jcools1977/an2b-warden-governance", "iconUrl": null, "installs": 4, "name": "War/Den Governance", "ownerName": "jcools1977", "score": 81949.45848375451, "slug": "an2b-warden-governance", "source": "clawhub", "stars": 0, "tags": ["audit", "governance", "memory", "security"], "updated_at": 1776759383080, "version": "1.0.0"}]}