{"page": 285, "total_pages": 522, "total": 26073, "skills": [{"category": "developer-tools", "created_at": 1773064607023, "description": "Gmail integration. Manage communication data, records, and workflows. Use when the user wants to interact with Gmail data.", "description_zh": "", "downloads": 227, "homepage": "https://clawhub.ai/membranedev/membranedev-gmail", "iconUrl": null, "installs": 10, "name": "DELETE IT", "ownerName": "membranedev", "score": 17042.04204204204, "slug": "membranedev-gmail", "source": "clawhub", "stars": 0, "tags": null, "updated_at": 1776759383074, "version": "1.0.3"}, {"category": "developer-tools", "created_at": 1773074944116, "description": "Place and manage AI-driven phone calls, access transcripts, recordings, call status, and configure inbound call agents via the Bland AI API.", "description_zh": "", "downloads": 227, "homepage": "https://clawhub.ai/0xrichyrich/bland", "iconUrl": null, "installs": 9, "name": "Bland", "ownerName": "0xrichyrich", "score": 1269.2200167738326, "slug": "bland", "source": "clawhub", "stars": 0, "tags": null, "updated_at": 1776759382717, "version": "1.0.0"}, {"category": "data-analysis", "created_at": 1773291035291, "description": "UI/UX design intelligence for web and mobile. Includes 50+ styles, 161 color palettes, 57 font pairings, 161 product types, 99 UX guidelines, and 25 chart ty...", "description_zh": "", "downloads": 227, "homepage": "https://clawhub.ai/hardikamal/ui-ux-craft-kit", "iconUrl": null, "installs": 34, "name": "UI/UX CraftKit", "ownerName": "hardikamal", "score": 76949.15254237287, "slug": "ui-ux-craft-kit", "source": "clawhub", "stars": 0, "tags": ["design", "mobile", "ui", "ux"], "updated_at": 1776759382657, "version": "1.0.1"}, {"category": "developer-tools", "created_at": 1772804593653, "description": "Deterministic persona reputation engine that applies guard decision effects to persona_set state and emits explicit reputation_delta artifacts.", "description_zh": "", "downloads": 227, "homepage": "https://clawhub.ai/kaicianflone/consensus-persona-engine", "iconUrl": null, "installs": 7, "name": "consensus-persona-engine", "ownerName": "kaicianflone", "score": 17042.04204204204, "slug": "consensus-persona-engine", "source": "clawhub", "stars": 0, "tags": null, "updated_at": 1776759382584, "version": "0.1.1"}, {"category": "developer-tools", "created_at": 1773075646276, "description": "Merge ZUGFeRD 2.1 compliant invoice PDF and time report into a single visible multi-page PDF/A-3b file with embedded XML for German B2B/Gov use.", "description_zh": "", "downloads": 227, "homepage": "https://clawhub.ai/quantx-heiko/zugferd-invoice", "iconUrl": null, "installs": 9, "name": "ZUGFeRD Invoice Merger", "ownerName": "quantx-heiko", "score": 17042.04204204204, "slug": "zugferd-invoice", "source": "clawhub", "stars": 0, "tags": ["e-invoicing", "european", "germany", "invoice", "pdf", "xml", "zugferd"], "updated_at": 1776759382583, "version": "1.0.0"}, {"category": "developer-tools", "created_at": 1772798095862, "description": "Open-source market making for AI agents. Multi-exchange trading, grid strategies, and real-time market data. CLI + MCP + Skills.", "description_zh": "", "downloads": 227, "homepage": "https://clawhub.ai/adacapo21/openmm", "iconUrl": null, "installs": 14, "name": "OpenMM", "ownerName": "adacapo21", "score": 16497.093023255813, "slug": "openmm", "source": "clawhub", "stars": 0, "tags": ["market-making", "openmm", "trading"], "updated_at": 1776759082928, "version": "0.1.0"}, {"category": "data-analysis", "created_at": 1773424504913, "description": "Real-time Kalshi portfolio drift alerts — monitors positions and fires when any moves beyond your configured threshold since last check. Snapshot comparison,...", "description_zh": "", "downloads": 227, "homepage": "https://clawhub.ai/kingmadellc/portfolio-drift-monitor", "iconUrl": null, "installs": 13, "name": "Portfolio Drift Monitor", "ownerName": "kingmadellc", "score": 16557.257476294675, "slug": "portfolio-drift-monitor", "source": "clawhub", "stars": 0, "tags": null, "updated_at": 1776759082698, "version": "1.1.4"}, {"category": "developer-tools", "created_at": 1772801953316, "description": "Execute cross-chain token trading on EVM and Solana with Particle Network Universal Account SDK. Use when users ask to set up universal-account-example, buy...", "description_zh": "", "downloads": 227, "homepage": "https://clawhub.ai/0xmomo-ngclubs/universal-trading", "iconUrl": null, "installs": 7, "name": "Universal Trading", "ownerName": "0xmomo-ngclubs", "score": 81654.67625899281, "slug": "universal-trading", "source": "clawhub", "stars": 0, "tags": null, "updated_at": 1776749085460, "version": "0.1.0"}, {"category": "ai-intelligence", "created_at": 1773067188750, "description": "An embedded UX research skill that deeply studies how users interact with OpenClaw through passive ethnographic observation, structured micro-surveys, and re...", "description_zh": "", "downloads": 227, "homepage": "https://clawhub.ai/giulianomorse/ethnoai", "iconUrl": null, "installs": 19, "name": "nutcracker", "ownerName": "giulianomorse", "score": 81654.67625899281, "slug": "ethnoai", "source": "clawhub", "stars": 0, "tags": null, "updated_at": 1776749085414, "version": "1.0.0"}, {"category": "", "created_at": 1774857273618, "description": "Thinking-Claude inspired comprehensive thinking protocol with Verification Protocol and Confidence Scoring for OpenClaw agents", "description_zh": "", "downloads": 227, "homepage": "https://clawhub.ai/leezongdai/thinking", "iconUrl": null, "installs": 2, "name": "Thinking Protocol", "ownerName": "leezongdai", "score": 90800, "slug": "thinking", "source": "clawhub", "stars": 0, "tags": ["claude", "confidence", "openclaw", "protocol", "thinking", "verification"], "updated_at": 1776749085013, "version": "2.1.0"}, {"category": "data-analysis", "created_at": 1773433957816, "description": "Search NCBI databases using E-Utilities API (official, free). Supports multiple databases: PubMed (literature), Gene, Protein, Nucleotide, dbSNP, ClinVar, Ta...", "description_zh": "", "downloads": 227, "homepage": "https://clawhub.ai/side-peng/ncbi-search", "iconUrl": null, "installs": 77, "name": "ncbi-search", "ownerName": "side-peng", "score": 89370.07874015748, "slug": "ncbi-search", "source": "clawhub", "stars": 0, "tags": null, "updated_at": 1776749084787, "version": "1.0.1"}, {"category": "content-creation", "created_at": 1773060859582, "description": "AI-powered LinkedIn post generator for professionals. Create engaging posts, thought leadership content, and career updates using Sloan agent.", "description_zh": "", "downloads": 227, "homepage": "https://clawhub.ai/icepopma/linkedin-post-generator", "iconUrl": null, "installs": 19, "name": "LinkedIn Post Generator", "ownerName": "icepopma", "score": 87984.49612403101, "slug": "linkedin-post-generator", "source": "clawhub", "stars": 0, "tags": null, "updated_at": 1776749084735, "version": "1.0.7"}, {"category": "security-compliance", "created_at": 1773074822113, "description": "End-to-end OpenClaw audit and remediation recipe for gateway, channels, nodes, security, and memory sync.", "description_zh": "", "downloads": 227, "homepage": "https://clawhub.ai/xyezir/oc-full-ops-audit-recipe", "iconUrl": null, "installs": 5, "name": "OC Full Ops Audit Recipe", "ownerName": "xyezir", "score": 75666.66666666667, "slug": "oc-full-ops-audit-recipe", "source": "clawhub", "stars": 0, "tags": null, "updated_at": 1776749084606, "version": "0.1.0"}, {"category": "developer-tools", "created_at": 1773066421968, "description": "Plan and orchestrate deep research pipelines for multi-platform ads decision making across Meta (Facebook/Instagram), Google Ads, TikTok Ads, YouTube Ads, Am...", "description_zh": "", "downloads": 227, "homepage": "https://clawhub.ai/danyangliu-sandwichlab/deep-research-orchestrator", "iconUrl": null, "installs": 28, "name": "Deep Ads Research", "ownerName": "danyangliu-sandwichlab", "score": 89019.60784313724, "slug": "deep-research-orchestrator", "source": "clawhub", "stars": 0, "tags": null, "updated_at": 1776749084479, "version": "1.0.0"}, {"category": "developer-tools", "created_at": 1772799506299, "description": "Automatically package and publish local skills to ClawHub marketplace with pricing optimization.", "description_zh": "", "downloads": 227, "homepage": "https://clawhub.ai/sasamittrrr/clawhub-auto-publisher", "iconUrl": null, "installs": 4, "name": "Clawhub auto publisher", "ownerName": "sasamittrrr", "score": 82545.45454545454, "slug": "clawhub-auto-publisher", "source": "clawhub", "stars": 0, "tags": null, "updated_at": 1776749084355, "version": "1.0.0"}, {"category": "security-compliance", "created_at": 1773066593889, "description": "Audit any website across 8 quality signals to determine if it is outdated, broken, or neglected. Returns a structured audit dict used by the lead-scorer skill.", "description_zh": "", "downloads": 227, "homepage": "https://clawhub.ai/maverick-software/website-auditor", "iconUrl": null, "installs": 6, "name": "Website Auditor", "ownerName": "maverick-software", "score": 88326.84824902723, "slug": "website-auditor", "source": "clawhub", "stars": 0, "tags": null, "updated_at": 1776749084301, "version": "1.0.0"}, {"category": "developer-tools", "created_at": 1772801285085, "description": "Discover Ireland like a local with concrete pubs, coastal routes, city guides, and practical trip-planning tips.", "description_zh": "", "downloads": 227, "homepage": "https://clawhub.ai/ivangdavila/ireland", "iconUrl": null, "installs": 7, "name": "Ireland", "ownerName": "ivangdavila", "score": 90438.24701195219, "slug": "ireland", "source": "clawhub", "stars": 0, "tags": null, "updated_at": 1776749083952, "version": "1.0.1"}, {"category": "developer-tools", "created_at": 1773075094613, "description": "Report Claude Code token consumption and costs using ccusage. Use when the user asks about their Claude Code usage, token consumption, API costs, spending, o...", "description_zh": "", "downloads": 227, "homepage": "https://clawhub.ai/spideystreet/ccusage-report", "iconUrl": null, "installs": 6, "name": "Ccusage Report", "ownerName": "spideystreet", "score": 88326.84824902723, "slug": "ccusage-report", "source": "clawhub", "stars": 0, "tags": null, "updated_at": 1776749083648, "version": "1.0.3"}, {"category": "developer-tools", "created_at": 1773955287769, "description": "Comprehensive C/C++ reference with examples from C11-C23 and C++11-C++23, covering system programming, CUDA, debugging, performance, and advanced topics.", "description_zh": "", "downloads": 226, "homepage": "https://clawhub.ai/crazyguitar/cxx", "iconUrl": null, "installs": 64, "name": "C/C++ Comprehensive Cheat Sheets", "ownerName": "crazyguitar", "score": 9971.625456019456, "slug": "cxx", "source": "clawhub", "stars": 1, "tags": null, "updated_at": 1776762590331, "version": "1.0.0"}, {"category": "ai-intelligence", "created_at": 1773079984504, "description": "Publish AI-powered web pages with end-to-end encryption on yourbro.ai", "description_zh": "", "downloads": 226, "homepage": "https://clawhub.ai/mehanig/yourbro", "iconUrl": null, "installs": 12, "name": "yourbro", "ownerName": "mehanig", "score": 91111.11111111111, "slug": "yourbro", "source": "clawhub", "stars": 1, "tags": null, "updated_at": 1776749085524, "version": "0.0.8"}, {"category": "communication-collaboration", "created_at": 1772798824863, "description": "Detect and redact PII from text files. Supports 15 categories including credit cards, SSNs, emails, API keys, addresses, and more — with zero dependencies.", "description_zh": "", "downloads": 226, "homepage": "https://clawhub.ai/agentward-ai/sanitize", "iconUrl": null, "installs": 7, "name": "AgentWard Sanitize", "ownerName": "agentward-ai", "score": 98400, "slug": "sanitize", "source": "clawhub", "stars": 1, "tags": null, "updated_at": 1776749085124, "version": "1.0.0"}, {"category": "ai-intelligence", "created_at": 1773077521708, "description": "Generate Google Ads creatives using each::sense AI. Create display ads, YouTube thumbnails, Discovery ads, Performance Max assets, and responsive display ads...", "description_zh": "", "downloads": 226, "homepage": "https://clawhub.ai/eftalyurtseven/google-ad-creative-generation", "iconUrl": null, "installs": 22, "name": "Google Ad Creative Generation", "ownerName": "eftalyurtseven", "score": 96850.39370078739, "slug": "google-ad-creative-generation", "source": "clawhub", "stars": 1, "tags": null, "updated_at": 1776749084783, "version": "1.0.0"}, {"category": "developer-tools", "created_at": 1773830726991, "description": "Credit line service for AI agents to access x402 services without upfront payment. Use when (1) you need to call x402-enabled APIs or services but lack crypt...", "description_zh": "", "downloads": 226, "homepage": "https://clawhub.ai/rizaldii09/firstt", "iconUrl": null, "installs": 6, "name": "T54", "ownerName": "rizaldii09", "score": 82000, "slug": "firstt", "source": "clawhub", "stars": 1, "tags": null, "updated_at": 1776749084673, "version": "1.0.0"}, {"category": "content-creation", "created_at": 1773074699871, "description": "Monitor RSS/Atom feeds and send notifications when new content appears. Track YouTube channels, Reddit subreddits, GitHub releases, blogs, and any RSS/Atom f...", "description_zh": "", "downloads": 226, "homepage": "https://clawhub.ai/runawaydevil/feed-watcher", "iconUrl": null, "installs": 10, "name": "Feed Watcher", "ownerName": "runawaydevil", "score": 96470.58823529413, "slug": "feed-watcher", "source": "clawhub", "stars": 1, "tags": null, "updated_at": 1776749084463, "version": "0.0.1"}, {"category": "developer-tools", "created_at": 1773222364751, "description": "Fetch and query data from GitCode platform via its REST API: repositories, branches, issues, pull requests, commits, tags, users, organizations, search, webh...", "description_zh": "", "downloads": 226, "homepage": "https://clawhub.ai/autoxj/gitcode", "iconUrl": null, "installs": 22, "name": "GitCode API", "ownerName": "autoxj", "score": 98007.96812749004, "slug": "gitcode", "source": "clawhub", "stars": 1, "tags": null, "updated_at": 1776749083960, "version": "1.0.0"}, {"category": "developer-tools", "created_at": 1772803461474, "description": "Get current weather and forecasts via WeatherAPI.com. Use when: user asks about weather, temperature, or forecasts for any location. IMPORTANT: You must conf...", "description_zh": "", "downloads": 226, "homepage": "https://clawhub.ai/jianmo1997/shulian-weather", "iconUrl": null, "installs": 12, "name": "数联互通weather", "ownerName": "jianmo1997", "score": 99193.54838709677, "slug": "shulian-weather", "source": "clawhub", "stars": 1, "tags": null, "updated_at": 1776749083805, "version": "1.0.0"}, {"category": "developer-tools", "created_at": 1772804719263, "description": "Interact with The Pool — a social evolution experiment where AI agents compete for survival through citation economics. Use when joining The Pool, contributi...", "description_zh": "", "downloads": 226, "homepage": "https://clawhub.ai/g9pedro/the-pool", "iconUrl": null, "installs": 18, "name": "The Pool", "ownerName": "g9pedro", "score": 26682.40850059032, "slug": "the-pool", "source": "clawhub", "stars": 0, "tags": null, "updated_at": 1776766750013, "version": "1.0.0"}, {"category": "", "created_at": 1774942829655, "description": "Generate CSS and SVG animation code snippets using bash and Python. Use when building UI animations, keyframes, or transition effects.", "description_zh": "", "downloads": 226, "homepage": "https://clawhub.ai/ckchzh/animation", "iconUrl": null, "installs": 10, "name": "Animation", "ownerName": "ckchzh", "score": 4828.028199102756, "slug": "animation", "source": "clawhub", "stars": 0, "tags": null, "updated_at": 1776763490594, "version": "1.0.0"}, {"category": "data-analysis", "created_at": 1773069055184, "description": "Programmatic academic research assistant using CORE API to search, analyze, summarize, and write scholarly content with citation formatting and methodology c...", "description_zh": "", "downloads": 226, "homepage": "https://clawhub.ai/bivex/core-researcher", "iconUrl": null, "installs": 24, "name": "Core Researcher", "ownerName": "bivex", "score": 15437.158469945356, "slug": "core-researcher", "source": "clawhub", "stars": 0, "tags": null, "updated_at": 1776759383175, "version": "1.0.0"}, {"category": "developer-tools", "created_at": 1773285173137, "description": "Automatically detects repeated code and command patterns in Python/Shell, generating reusable Jinja2 templates and shell automation scripts via CLI.", "description_zh": "", "downloads": 226, "homepage": "https://clawhub.ai/harrylabs0913/pattern-miner", "iconUrl": null, "installs": 6, "name": "Pattern Miner", "ownerName": "harrylabs0913", "score": 17056.603773584906, "slug": "pattern-miner", "source": "clawhub", "stars": 0, "tags": null, "updated_at": 1776759382902, "version": "0.1.0"}, {"category": "productivity", "created_at": 1773067177460, "description": "Config Manager - Evomap Asset is a type-safe C library for dynamic key-value config management with string, int, bool types and config file support.", "description_zh": "", "downloads": 226, "homepage": "https://clawhub.ai/gatsby047-oss/config-manager-evomap", "iconUrl": null, "installs": 5, "name": "Config Manager - Evomap Asset", "ownerName": "gatsby047-oss", "score": 14169.278996865203, "slug": "config-manager-evomap", "source": "clawhub", "stars": 0, "tags": ["c", "config", "evomap", "refactor", "type-safe"], "updated_at": 1776759382741, "version": "1.0.0"}, {"category": "data-analysis", "created_at": 1773218239415, "description": "Automates identifying undervalued properties and hot real estate markets by scraping listings, analyzing seller distress, rental yields, neighborhood trends,...", "description_zh": "", "downloads": 226, "homepage": "https://clawhub.ai/g4dr/ai-real-estate-goldmine-finder", "iconUrl": null, "installs": 20, "name": "AI Real Estate Goldmine Finder — Spot Undervalued Properties & Hot Markets Before Everyone Else", "ownerName": "g4dr", "score": 16966.966966966967, "slug": "ai-real-estate-goldmine-finder", "source": "clawhub", "stars": 0, "tags": ["airbnb", "apify", "deal-finder", "flipping", "invideo", "market-analysis", "motivated-seller", "property-investment", "real-estate", "rental-yield", "roi", "zillow"], "updated_at": 1776759382540, "version": "1.0.0"}, {"category": "developer-tools", "created_at": 1773082531770, "description": "Gemini CLI for one-shot Q&A, summaries, and generation.", "description_zh": "", "downloads": 226, "homepage": "https://clawhub.ai/chenbaiyujason/gemini-file", "iconUrl": null, "installs": 27, "name": "gemini-file", "ownerName": "chenbaiyujason", "score": 13356.973995271868, "slug": "gemini-file", "source": "clawhub", "stars": 0, "tags": null, "updated_at": 1776756188815, "version": "1.0.0"}, {"category": "developer-tools", "created_at": 1772801096117, "description": "Find, evaluate, and recommend AI products using the watcha.cn platform API. Use this skill whenever the user asks about AI tools, AI products, AI apps, or wa...", "description_zh": "", "downloads": 226, "homepage": "https://clawhub.ai/charipoter/watcha-finder", "iconUrl": null, "installs": 12, "name": "Watcha Finder", "ownerName": "charipoter", "score": 38175.67567567567, "slug": "watcha-finder", "source": "clawhub", "stars": 0, "tags": null, "updated_at": 1776750169805, "version": "0.1.0"}, {"category": "ai-intelligence", "created_at": 1773065572329, "description": "Use this skill when the user asks about travel planning, trip research, flight searches, visa requirements, airport/airline lookups, destination info, travel...", "description_zh": "", "downloads": 226, "homepage": "https://clawhub.ai/simonenavifare/moltravel", "iconUrl": null, "installs": 18, "name": "Moltravel - The Travel Agent for AI Agents", "ownerName": "simonenavifare", "score": 84328.35820895522, "slug": "moltravel", "source": "clawhub", "stars": 0, "tags": null, "updated_at": 1776749085576, "version": "1.0.0"}, {"category": "communication-collaboration", "created_at": 1772804528780, "description": "CRM integration, lead tracking, outreach automation, and pipeline management. Transform your AI agent into a sales assistant that never lets leads slip throu...", "description_zh": "", "downloads": 226, "homepage": "https://clawhub.ai/alexeyvorobiev/tmp-skill", "iconUrl": null, "installs": 10, "name": "Tmp Skill", "ownerName": "alexeyvorobiev", "score": 90400, "slug": "tmp-skill", "source": "clawhub", "stars": 0, "tags": null, "updated_at": 1776749085205, "version": "1.0.0"}, {"category": "content-creation", "created_at": 1773065305531, "description": "This skill helps users automatically extract structured image data from Google Images via BrowserAct API. Agent should proactively apply this skill when user...", "description_zh": "", "downloads": 226, "homepage": "https://clawhub.ai/ccmagia2-gif/google-image-api-skill", "iconUrl": null, "installs": 19, "name": "google-image-api-skill", "ownerName": "ccmagia2-gif", "score": 87258.68725868726, "slug": "google-image-api-skill", "source": "clawhub", "stars": 0, "tags": null, "updated_at": 1776749085078, "version": "1.0.0"}, {"category": "productivity", "created_at": 1773066238955, "description": "Continuous self-improvement through structured reflection and memory", "description_zh": "", "downloads": 226, "homepage": "https://clawhub.ai/86293073/self-reflection-1-1-1", "iconUrl": null, "installs": 39, "name": "Self Reflection 1.1.1", "ownerName": "86293073", "score": 90400, "slug": "self-reflection-1-1-1", "source": "clawhub", "stars": 0, "tags": null, "updated_at": 1776749084985, "version": "1.0.0"}, {"category": "communication-collaboration", "created_at": 1772803333383, "description": "Give your AI agent email superpowers via Fastmail JMAP. Read, search, send, move, trash — zero deps. By The Agent Wire (theagentwire.ai)", "description_zh": "", "downloads": 226, "homepage": "https://clawhub.ai/tassiedaddy/fastmail-jmap-disabled", "iconUrl": null, "installs": 22, "name": "Fastmail Jmap.Disabled", "ownerName": "tassiedaddy", "score": 88976.37795275591, "slug": "fastmail-jmap-disabled", "source": "clawhub", "stars": 0, "tags": null, "updated_at": 1776749084835, "version": "1.0.0"}, {"category": "communication-collaboration", "created_at": 1773064390959, "description": "Send emails using Resend API. Use when the user needs to send emails without configuring SMTP servers. Supports text and HTML emails, multiple recipients, CC...", "description_zh": "", "downloads": 226, "homepage": "https://clawhub.ai/aprilvkuo/resend-email-sender", "iconUrl": null, "installs": 13, "name": "Resend Email Sender", "ownerName": "aprilvkuo", "score": 88976.37795275591, "slug": "resend-email-sender", "source": "clawhub", "stars": 0, "tags": ["email", "messaging", "notification", "resend"], "updated_at": 1776749084776, "version": "1.0.0"}, {"category": "security-compliance", "created_at": 1772797703603, "description": "Secure API key and secrets management for agent skills. Use this skill whenever a task requires authenticating with an external service, reading or writing A...", "description_zh": "", "downloads": 226, "homepage": "https://clawhub.ai/brycexbt/secret-safe", "iconUrl": null, "installs": 3, "name": "Secret's Safe", "ownerName": "brycexbt", "score": 87596.8992248062, "slug": "secret-safe", "source": "clawhub", "stars": 0, "tags": null, "updated_at": 1776749084761, "version": "1.0.0"}, {"category": "ai-intelligence", "created_at": 1773069499975, "description": "Generate NFT artwork using each::sense AI. Create PFP collections, generative art, 1/1 pieces, pixel art, 3D renders, animated NFTs, and trait-based characte...", "description_zh": "", "downloads": 226, "homepage": "https://clawhub.ai/eftalyurtseven/nft-art-generation", "iconUrl": null, "installs": 31, "name": "Nft Art Generation", "ownerName": "eftalyurtseven", "score": 88281.25, "slug": "nft-art-generation", "source": "clawhub", "stars": 0, "tags": null, "updated_at": 1776749084569, "version": "1.0.0"}, {"category": "content-creation", "created_at": 1772803823789, "description": "Archive completed conversations and projects. Use on project completion, resolved threads, or when asked to archive a conversation. Writes structured summari...", "description_zh": "", "downloads": 226, "homepage": "https://clawhub.ai/npfaerber/conversation-archiver", "iconUrl": null, "installs": 9, "name": "Conversation Archiver", "ownerName": "npfaerber", "score": 88627.45098039215, "slug": "conversation-archiver", "source": "clawhub", "stars": 0, "tags": null, "updated_at": 1776749084429, "version": "1.0.0"}, {"category": "developer-tools", "created_at": 1772795798875, "description": "Monetize your agent's API or tools using the x402 protocol and USDC micropayments. Enables provisioning, earnings tracking, and withdrawals.", "description_zh": "", "downloads": 226, "homepage": "https://clawhub.ai/gatex402/x402-agentic-creation", "iconUrl": null, "installs": 6, "name": "x402 Agentic Creation", "ownerName": "gatex402", "score": 82181.81818181818, "slug": "x402-agentic-creation", "source": "clawhub", "stars": 0, "tags": null, "updated_at": 1776749084358, "version": "1.0.0"}, {"category": "developer-tools", "created_at": 1773075025046, "description": "Daily GitHub repo health check + safe Dependabot auto-merge. Outputs markdown report.", "description_zh": "", "downloads": 226, "homepage": "https://clawhub.ai/zero2ai-hub/skill-github-daily-ops", "iconUrl": null, "installs": 16, "name": "Skill Github Daily Ops", "ownerName": "zero2ai-hub", "score": 87937.74319066148, "slug": "skill-github-daily-ops", "source": "clawhub", "stars": 0, "tags": null, "updated_at": 1776749084258, "version": "1.0.1"}, {"category": "ai-intelligence", "created_at": 1773068248527, "description": "Create detailed implementation plans for software projects — break down features into steps, files, tasks, and executable code.", "description_zh": "", "downloads": 226, "homepage": "https://clawhub.ai/nightvibes3/implementation-plan", "iconUrl": null, "installs": 15, "name": "Implementation Plan", "ownerName": "nightvibes3", "score": 87937.74319066148, "slug": "implementation-plan", "source": "clawhub", "stars": 0, "tags": null, "updated_at": 1776749084228, "version": "1.0.2"}, {"category": "data-analysis", "created_at": 1773063046417, "description": "Monitor AWS Health Dashboard for active incidents and notify via configurable channels (Feishu, Telegram, Slack, Discord, etc.). Activate when user wants to...", "description_zh": "", "downloads": 226, "homepage": "https://clawhub.ai/shimotsuk1-rei/aws-health-monitor", "iconUrl": null, "installs": 9, "name": "AWS Health Monitor", "ownerName": "shimotsuk1-rei", "score": 91129.03225806452, "slug": "aws-health-monitor", "source": "clawhub", "stars": 0, "tags": ["aws", "infraops", "monitoring", "ops"], "updated_at": 1776749084215, "version": "1.0.0"}, {"category": "developer-tools", "created_at": 1773065028879, "description": "Get the weather for a specific location or coordinates", "description_zh": "", "downloads": 226, "homepage": "https://clawhub.ai/mangonob/skills-weather", "iconUrl": null, "installs": 15, "name": "skills-weather", "ownerName": "mangonob", "score": 91129.03225806452, "slug": "skills-weather", "source": "clawhub", "stars": 0, "tags": null, "updated_at": 1776749084191, "version": "1.0.3"}, {"category": "productivity", "created_at": 1773061141884, "description": "Manages power infrastructure in Structs. Covers substations, allocations, player connections, and power monitoring. Use when power is low or overloaded, crea...", "description_zh": "", "downloads": 226, "homepage": "https://clawhub.ai/abstrct/structs-power", "iconUrl": null, "installs": 17, "name": "Structs Power", "ownerName": "abstrct", "score": 90039.8406374502, "slug": "structs-power", "source": "clawhub", "stars": 0, "tags": null, "updated_at": 1776749083981, "version": "1.1.0"}, {"category": "data-analysis", "created_at": 1773208613785, "description": "SellerSprite Product Research Skill — Input a keyword or category, automatically fetch market data via SellerSprite API and run AI analysis, output a structu...", "description_zh": "", "downloads": 226, "homepage": "https://clawhub.ai/mguozhen/sellersprite-product-research", "iconUrl": null, "installs": 21, "name": "SellerSprite Product Research", "ownerName": "mguozhen", "score": 91129.03225806452, "slug": "sellersprite-product-research", "source": "clawhub", "stars": 0, "tags": null, "updated_at": 1776749083882, "version": "1.0.2"}]}