{"page": 286, "total_pages": 522, "total": 26073, "skills": [{"category": "communication-collaboration", "created_at": 1773060031491, "description": "AI-powered email subject line generator. Create subject lines that get opened.", "description_zh": "", "downloads": 226, "homepage": "https://clawhub.ai/icepopma/email-subject-generator", "iconUrl": null, "installs": 11, "name": "Email Subject Generator", "ownerName": "icepopma", "score": 91129.03225806452, "slug": "email-subject-generator", "source": "clawhub", "stars": 0, "tags": null, "updated_at": 1776749083854, "version": "1.1.2"}, {"category": "ai-intelligence", "created_at": 1773060089312, "description": "Gathers intelligence on players, guilds, planets, and the galaxy in Structs. Use when scouting enemy players, checking planet defenses, monitoring fleet move...", "description_zh": "", "downloads": 226, "homepage": "https://clawhub.ai/abstrct/structs-reconnaissance", "iconUrl": null, "installs": 15, "name": "Structs Reconnaissance", "ownerName": "abstrct", "score": 87937.74319066148, "slug": "structs-reconnaissance", "source": "clawhub", "stars": 0, "tags": null, "updated_at": 1776749083767, "version": "1.1.0"}, {"category": "developer-tools", "created_at": 1772801817896, "description": "Automate LimeSurvey operations via RemoteControl 2 API. Use when: (1) managing surveys, questions, groups, or participants, (2) exporting responses or statis...", "description_zh": "", "downloads": 226, "homepage": "https://clawhub.ai/olegantonov/limesurvey-openclaw-skill", "iconUrl": null, "installs": 5, "name": "Limesurvey Openclaw Skill", "ownerName": "olegantonov", "score": 87937.74319066148, "slug": "limesurvey-openclaw-skill", "source": "clawhub", "stars": 0, "tags": null, "updated_at": 1776749083720, "version": "1.2.0"}, {"category": "developer-tools", "created_at": 1773064339587, "description": "Google Workspace CLI for Gmail, Calendar, Drive, Contacts, Sheets, and Docs.", "description_zh": "", "downloads": 226, "homepage": "https://clawhub.ai/ifocus1776/gogifocus", "iconUrl": null, "installs": 17, "name": "GoG-ifocus", "ownerName": "ifocus1776", "score": 87937.74319066148, "slug": "gogifocus", "source": "clawhub", "stars": 0, "tags": null, "updated_at": 1776749083668, "version": "1.0.1"}, {"category": "productivity", "created_at": 1773219530274, "description": "Creates interactive D3.js hierarchy visualizations with multiple view modes (List, Force-Directed, Radial Cluster, with Fractal Tree coming soon). Use when u...", "description_zh": "", "downloads": 225, "homepage": "https://clawhub.ai/foyri/prd-visualization-skill", "iconUrl": null, "installs": 28, "name": "PRD Visualization Skill", "ownerName": "foyri", "score": 7064.590542099193, "slug": "prd-visualization-skill", "source": "clawhub", "stars": 1, "tags": null, "updated_at": 1776761145411, "version": "1.0.0"}, {"category": "communication-collaboration", "created_at": 1773065081745, "description": "Fetch Daum real-time trend TOP10, add one-line context (top news title) + links, and print a 12-line briefing suitable for OpenClaw cron + Telegram announce.", "description_zh": "", "downloads": 225, "homepage": "https://clawhub.ai/hunkim/daum-trends-briefing", "iconUrl": null, "installs": 10, "name": "Daum Trends Briefing", "ownerName": "hunkim", "score": 18393.39339339339, "slug": "daum-trends-briefing", "source": "clawhub", "stars": 1, "tags": ["briefing", "daum", "openclaw", "trends"], "updated_at": 1776759383055, "version": "0.1.2"}, {"category": "ai-intelligence", "created_at": 1773082823201, "description": "Automated job search and application for LinkedIn and Wellfound. Searches for matching roles every 12 hours, AI-filters and scores them, applies automaticall...", "description_zh": "", "downloads": 225, "homepage": "https://clawhub.ai/mattjackson/claw-apply", "iconUrl": null, "installs": 13, "name": "Claw Apply", "ownerName": "mattjackson", "score": 18518.51851851852, "slug": "claw-apply", "source": "clawhub", "stars": 1, "tags": null, "updated_at": 1776759382508, "version": "0.1.5"}, {"category": "developer-tools", "created_at": 1773063964520, "description": "Share your idle Ollama inference with the community, or use community inference when your API credits run out.", "description_zh": "", "downloads": 225, "homepage": "https://clawhub.ai/futurejunk/idleclaw", "iconUrl": null, "installs": 8, "name": "IdleClaw", "ownerName": "futurejunk", "score": 89090.90909090909, "slug": "idleclaw", "source": "clawhub", "stars": 1, "tags": null, "updated_at": 1776749084348, "version": "1.2.1"}, {"category": "developer-tools", "created_at": 1773078608929, "description": "Buy or sell XAUT (Tether Gold) on Ethereum using Foundry cast. Supports market orders (Uniswap V3) and limit orders (UniswapX). Triggers: buy XAUT, XAUT trad...", "description_zh": "", "downloads": 225, "homepage": "https://clawhub.ai/aure-duncan/aurehub-xaut-trade", "iconUrl": null, "installs": 11, "name": "xaut-trade", "ownerName": "aure-duncan", "score": 89090.90909090909, "slug": "aurehub-xaut-trade", "source": "clawhub", "stars": 1, "tags": null, "updated_at": 1776749084327, "version": "2.0.1"}, {"category": "productivity", "created_at": 1773060464812, "description": "MCP tools for Anki Vector: speech, motion, camera, sensors, and automation workflows.", "description_zh": "", "downloads": 225, "homepage": "https://clawhub.ai/danmartinez78/vectorclaw-mcp", "iconUrl": null, "installs": 7, "name": "VectorClaw MCP", "ownerName": "danmartinez78", "score": 97609.56175298805, "slug": "vectorclaw-mcp", "source": "clawhub", "stars": 1, "tags": ["hardware", "mcp", "robotics", "vector"], "updated_at": 1776749083901, "version": "1.0.4"}, {"category": "content-creation", "created_at": 1773932966845, "description": "SenseAudio Music Generation API for creating AI-generated lyrics and songs. Supports lyrics generation, song generation with style/vocal control, and async t...", "description_zh": "", "downloads": 225, "homepage": "https://clawhub.ai/scikkk/music-gen", "iconUrl": null, "installs": 14, "name": "Music Generation", "ownerName": "scikkk", "score": 12248.230811105062, "slug": "music-gen", "source": "clawhub", "stars": 0, "tags": null, "updated_at": 1776764690832, "version": "1.0.0"}, {"category": "data-analysis", "created_at": 1773074817468, "description": "Complete newsletter management system with subscriber signup (double opt-in), automated welcome drip sequence, broadcast sender, and subscriber analytics. 4...", "description_zh": "", "downloads": 225, "homepage": "https://clawhub.ai/mhmalvi/newsletter-automation", "iconUrl": null, "installs": 13, "name": "Newsletter Automation", "ownerName": "mhmalvi", "score": 5045.974433729536, "slug": "newsletter-automation", "source": "clawhub", "stars": 0, "tags": null, "updated_at": 1776764049813, "version": "1.0.1"}, {"category": "productivity", "created_at": 1773287701860, "description": "Let your agent shop on Amazon with guardrailed wallets and owner approval.", "description_zh": "", "downloads": 225, "homepage": "https://clawhub.ai/jononovo/sap", "iconUrl": null, "installs": 37, "name": "SAP Skills - Use SAP for procurement with your agent", "ownerName": "jononovo", "score": 4463.400119024003, "slug": "sap", "source": "clawhub", "stars": 0, "tags": null, "updated_at": 1776763450564, "version": "1.0.0"}, {"category": "data-analysis", "created_at": 1772803843680, "description": "Assesses wind turbine gearbox health from multi-sensor and inspection data. Classifies damage severity (1-5), identifies root cause, and recommends shutdown...", "description_zh": "", "downloads": 225, "homepage": "https://clawhub.ai/sertug17/gearbox", "iconUrl": null, "installs": 9, "name": "Gearbox", "ownerName": "sertug17", "score": 7522.567703109328, "slug": "gearbox", "source": "clawhub", "stars": 0, "tags": null, "updated_at": 1776761715001, "version": "1.0.0"}, {"category": "productivity", "created_at": 1773065781169, "description": "Provides HTTP request retries with exponential backoff, timeout control, connection pooling, and rate limit handling to improve call success and resilience.", "description_zh": "", "downloads": 225, "homepage": "https://clawhub.ai/gatsby047-oss/http-retry-c", "iconUrl": null, "installs": 6, "name": "HTTP Retry - HTTP 重试机制", "ownerName": "gatsby047-oss", "score": 17537.022603273577, "slug": "http-retry-c", "source": "clawhub", "stars": 0, "tags": ["c", "http", "network", "resilience", "retry"], "updated_at": 1776759798036, "version": "1.0.0"}, {"category": "ai-intelligence", "created_at": 1773084717166, "description": "Provides AI agents with web search, page and PDF extraction, YouTube transcripts, summarization, semantic search, and automated research workflows.", "description_zh": "", "downloads": 225, "homepage": "https://clawhub.ai/nishant-clawit/openclaw-web-search-mcp", "iconUrl": null, "installs": 23, "name": "Openclaw Web Search Mcp", "ownerName": "nishant-clawit", "score": 17071.32018209408, "slug": "openclaw-web-search-mcp", "source": "clawhub", "stars": 0, "tags": null, "updated_at": 1776759420759, "version": "1.0.0"}, {"category": "developer-tools", "created_at": 1773065113151, "description": "Coordinates multiple agents to independently argue competing approaches, then synthesizes their positions to identify the best solution for complex decisions.", "description_zh": "", "downloads": 225, "homepage": "https://clawhub.ai/0xrichyrich/agent-debate", "iconUrl": null, "installs": 8, "name": "Agent Debate", "ownerName": "0xrichyrich", "score": 17084.282460136674, "slug": "agent-debate", "source": "clawhub", "stars": 0, "tags": null, "updated_at": 1776759420648, "version": "1.0.0"}, {"category": "productivity", "created_at": 1773076563833, "description": "Conversational Frequency Matching — reads invisible micro-signals in every conversation and tells the bot exactly how to respond for maximum engagement, conv...", "description_zh": "", "downloads": 225, "homepage": "https://clawhub.ai/jcools1977/openpaw", "iconUrl": null, "installs": 8, "name": "ResonanceEngine", "ownerName": "jcools1977", "score": 17084.282460136674, "slug": "openpaw", "source": "clawhub", "stars": 0, "tags": null, "updated_at": 1776759420636, "version": "0.1.0"}, {"category": "data-analysis", "created_at": 1773076101423, "description": "Continuously identifies and prioritizes unsolved tasks, searches and installs BotLearn skills, and engages the community to improve agent capabilities autono...", "description_zh": "", "downloads": 225, "homepage": "https://clawhub.ai/calvinxhk/botlearnb-autodidact", "iconUrl": null, "installs": 12, "name": "botlearnb-autodidact", "ownerName": "calvinxhk", "score": 17045.454545454544, "slug": "botlearnb-autodidact", "source": "clawhub", "stars": 0, "tags": null, "updated_at": 1776759420615, "version": "1.0.0"}, {"category": "developer-tools", "created_at": 1773068042107, "description": "Optimize Toggl Track usage with token-efficient API calls and fast reporting via a shell script for JSON and PDF summaries.", "description_zh": "", "downloads": 225, "homepage": "https://clawhub.ai/alex1389/toggl-optimized-v2", "iconUrl": null, "installs": 6, "name": "Toggl-Optimized-V2", "ownerName": "alex1389", "score": 17084.282460136674, "slug": "toggl-optimized-v2", "source": "clawhub", "stars": 0, "tags": ["reporting"], "updated_at": 1776759420515, "version": "1.0.0"}, {"category": "data-analysis", "created_at": 1773069741057, "description": "Comprehensive Danish News RSS Aggregator - combines 100+ Danish RSS feeds into category-based unified feeds. Produces 6 curated RSS feeds: - danish-all.xml (...", "description_zh": "", "downloads": 225, "homepage": "https://clawhub.ai/broedkrummen/danish-news-aggregator", "iconUrl": null, "installs": 10, "name": "Danish News Aggregator", "ownerName": "broedkrummen", "score": 17084.282460136674, "slug": "danish-news-aggregator", "source": "clawhub", "stars": 0, "tags": ["aggregator", "denmark", "news", "rss"], "updated_at": 1776759420503, "version": "1.0.0"}, {"category": "developer-tools", "created_at": 1773090811268, "description": "Use Baidu Netdisk via mcporter + stdio MCP server with hot-reload token file credentials. Triggers when you need Baidu Netdisk operations (official 2.0 tools...", "description_zh": "", "downloads": 225, "homepage": "https://clawhub.ai/forevershu/baidudisk-mcp", "iconUrl": null, "installs": 34, "name": "Baidudisk Mcp", "ownerName": "forevershu", "score": 17084.282460136674, "slug": "baidudisk-mcp", "source": "clawhub", "stars": 0, "tags": null, "updated_at": 1776759420473, "version": "1.0.0"}, {"category": "developer-tools", "created_at": 1773076964277, "description": "Build installable RPM packages from source code on CentOS/RHEL by creating SPEC files and compiling for versions 7, 8, or 9 RPM-based systems.", "description_zh": "", "downloads": 225, "homepage": "https://clawhub.ai/yukariccccccc/rpm-packager", "iconUrl": null, "installs": 7, "name": "rpm-packager", "ownerName": "yukariccccccc", "score": 90725.8064516129, "slug": "rpm-packager", "source": "clawhub", "stars": 0, "tags": null, "updated_at": 1776759420437, "version": "1.0.0"}, {"category": "content-creation", "created_at": 1773063894799, "description": "Generate and edit images using Google's Nano Banana 2 model via WaveSpeed AI. Supports text-to-image generation and image editing with natural language promp...", "description_zh": "", "downloads": 225, "homepage": "https://clawhub.ai/chengzeyi/wavespeed-nano-banana-2", "iconUrl": null, "installs": 31, "name": "WaveSpeedAI Nano Banana 2 Image Generation/Editing", "ownerName": "chengzeyi", "score": 93750, "slug": "wavespeed-nano-banana-2", "source": "clawhub", "stars": 0, "tags": null, "updated_at": 1776749085643, "version": "1.0.0"}, {"category": "content-creation", "created_at": 1773074617644, "description": "Enhance images and videos using HitPaw's AI enhancement API", "description_zh": "", "downloads": 225, "homepage": "https://clawhub.ai/hitpawdev/hitpaw-image-enhancer", "iconUrl": null, "installs": 17, "name": "Hitpaw Image Enhancer", "ownerName": "hitpawdev", "score": 80935.25179856115, "slug": "hitpaw-image-enhancer", "source": "clawhub", "stars": 0, "tags": null, "updated_at": 1776749085457, "version": "1.0.3"}, {"category": "productivity", "created_at": 1773074987192, "description": "Place grocery orders on Instacart via browser automation. Supports search, reorder, smart lookback based on order history, and nightly auto-replenishment.", "description_zh": "", "downloads": 225, "homepage": "https://clawhub.ai/bigdaddyluke/instacart-skill", "iconUrl": null, "installs": 4, "name": "Instacart", "ownerName": "bigdaddyluke", "score": 90000, "slug": "instacart-skill", "source": "clawhub", "stars": 0, "tags": null, "updated_at": 1776749085139, "version": "0.1.0"}, {"category": "security-compliance", "created_at": 1773063831753, "description": "Secure Gmail skill using Composio brokered OAuth — no raw tokens stored locally. Reads, searches, and drafts emails with least-privilege enforcement. Blocks...", "description_zh": "", "downloads": 225, "homepage": "https://clawhub.ai/coinvest518/secure-gmail", "iconUrl": null, "installs": 6, "name": "Secure Gmail", "ownerName": "coinvest518", "score": 86872.58687258688, "slug": "secure-gmail", "source": "clawhub", "stars": 0, "tags": null, "updated_at": 1776749085084, "version": "0.1.0"}, {"category": "security-compliance", "created_at": 1772802393101, "description": "Reducto document processing API integration with managed API key authentication. Parse, extract, split, and edit documents. Use this skill when users want to...", "description_zh": "", "downloads": 225, "homepage": "https://clawhub.ai/byungkyu/reducto", "iconUrl": null, "installs": 10, "name": "Reducto", "ownerName": "byungkyu", "score": 86872.58687258688, "slug": "reducto", "source": "clawhub", "stars": 0, "tags": null, "updated_at": 1776749085044, "version": "1.0.0"}, {"category": "ai-intelligence", "created_at": 1773077798880, "description": "Find the best local LLM for your machine. Tests speed, quality and RAM fit, then tells you if a model is worth running on your hardware.", "description_zh": "", "downloads": 225, "homepage": "https://clawhub.ai/thebluehouse75/metrillm", "iconUrl": null, "installs": 20, "name": "MetriLLM", "ownerName": "thebluehouse75", "score": 90000, "slug": "metrillm", "source": "clawhub", "stars": 0, "tags": null, "updated_at": 1776749084935, "version": "0.2.11"}, {"category": "developer-tools", "created_at": 1773284901162, "description": "X API & Twitter scraper skill for AI coding agents. Builds integrations with the Xquik REST API, MCP server & webhooks: tweet search, user lookup, follower e...", "description_zh": "", "downloads": 225, "homepage": "https://clawhub.ai/kriptoburak/xquik-x-twitter-scraper", "iconUrl": null, "installs": 44, "name": "x-twitter-scraper", "ownerName": "kriptoburak", "score": 88235.29411764706, "slug": "xquik-x-twitter-scraper", "source": "clawhub", "stars": 0, "tags": null, "updated_at": 1776749084417, "version": "1.7.0"}, {"category": "developer-tools", "created_at": 1773069804235, "description": "[WIP] Guide to connect to Cloud Studio IoT's OpenClaw platform via MCP API. Use when configuring MCP server connections, sending commands to IoT devices, rea...", "description_zh": "", "downloads": 225, "homepage": "https://clawhub.ai/sobdev/iot-platform", "iconUrl": null, "installs": 15, "name": "IoT Platform Connection", "ownerName": "sobdev", "score": 87548.63813229572, "slug": "iot-platform", "source": "clawhub", "stars": 0, "tags": null, "updated_at": 1776749084306, "version": "1.0.1"}, {"category": "productivity", "created_at": 1772799703800, "description": "this is my hello world skill", "description_zh": "", "downloads": 225, "homepage": "https://clawhub.ai/hanyilong/hanyilong-first-skill", "iconUrl": null, "installs": 7, "name": "hanyilong first skill", "ownerName": "hanyilong", "score": 87548.63813229572, "slug": "hanyilong-first-skill", "source": "clawhub", "stars": 0, "tags": null, "updated_at": 1776749084298, "version": "1.0.0"}, {"category": "developer-tools", "created_at": 1773066144556, "description": "Discover and call paid API services on the Nightmarket marketplace. Use when the user wants to find, browse, or call third-party APIs with automatic on-chain...", "description_zh": "", "downloads": 225, "homepage": "https://clawhub.ai/sistillisteph/night-market", "iconUrl": null, "installs": 6, "name": "Agent marketplace of skills", "ownerName": "sistillisteph", "score": 87548.63813229572, "slug": "night-market", "source": "clawhub", "stars": 0, "tags": null, "updated_at": 1776749084251, "version": "1.0.0"}, {"category": "content-creation", "created_at": 1773897617348, "description": "Generate images, edit existing images, create short videos, run inpainting/outpainting and object-focused edits, use reference images as provider inputs, bat...", "description_zh": "", "downloads": 225, "homepage": "https://clawhub.ai/lijiazhen0623/media-generation", "iconUrl": null, "installs": 46, "name": "Media Generation", "ownerName": "lijiazhen0623", "score": 90725.8064516129, "slug": "media-generation", "source": "clawhub", "stars": 0, "tags": null, "updated_at": 1776749084222, "version": "2.1.0"}, {"category": "ai-intelligence", "created_at": 1773284964076, "description": "**Agent Earth Tool Discovery & Execution Engine**. This is the **PRIMARY** interface for discovering and executing external tools to solve user tasks. ALWAYS...", "description_zh": "", "downloads": 225, "homepage": "https://clawhub.ai/shanminghui/agentearth", "iconUrl": null, "installs": 22, "name": "Agentearth", "ownerName": "shanminghui", "score": 90725.8064516129, "slug": "agentearth", "source": "clawhub", "stars": 0, "tags": null, "updated_at": 1776749084220, "version": "1.0.4"}, {"category": "productivity", "created_at": 1772805304640, "description": "Conception et animation d'ateliers collaboratifs professionnels (renoncement, modélisation de processus, diagnostic d'équipe, cartographie des flux, priorisa...", "description_zh": "", "downloads": 225, "homepage": "https://clawhub.ai/thibautnext/animation-ateliers", "iconUrl": null, "installs": 16, "name": "Animation Ateliers", "ownerName": "thibautnext", "score": 90725.8064516129, "slug": "animation-ateliers", "source": "clawhub", "stars": 0, "tags": null, "updated_at": 1776749084208, "version": "1.0.0"}, {"category": "developer-tools", "created_at": 1773075050240, "description": "Plan United States trips with region-specific routing, verified entry rules, transport logistics, and practical tourist safety.", "description_zh": "", "downloads": 225, "homepage": "https://clawhub.ai/ivangdavila/united-states", "iconUrl": null, "installs": 11, "name": "United States", "ownerName": "ivangdavila", "score": 90725.8064516129, "slug": "united-states", "source": "clawhub", "stars": 0, "tags": null, "updated_at": 1776749084164, "version": "1.0.0"}, {"category": "ai-intelligence", "created_at": 1773067864158, "description": "A lateral thinking engine for stuck moments. When logical, systematic approaches have failed, Dream State imports solution patterns from completely unrelated...", "description_zh": "", "downloads": 225, "homepage": "https://clawhub.ai/jcools1977/dream-state", "iconUrl": null, "installs": 43, "name": "Dream State", "ownerName": "jcools1977", "score": 89641.4342629482, "slug": "dream-state", "source": "clawhub", "stars": 0, "tags": null, "updated_at": 1776749084060, "version": "1.0.0"}, {"category": "developer-tools", "created_at": 1773075391742, "description": "Use when working with Web5 CLI tool for decentralized identity, CKB wallet, DID management, PDS data operations, account creation, posting, profile updates", "description_zh": "", "downloads": 225, "homepage": "https://clawhub.ai/rink1969/web5-cli", "iconUrl": null, "installs": 5, "name": "web5 cli", "ownerName": "rink1969", "score": 90725.8064516129, "slug": "web5-cli", "source": "clawhub", "stars": 0, "tags": null, "updated_at": 1776749083850, "version": "0.1.2"}, {"category": "productivity", "created_at": 1773064814675, "description": "Generic appointment booking and management system for service businesses. Booking intake, confirmation, automated reminders (24h, 2h), no-show followup, and...", "description_zh": "", "downloads": 225, "homepage": "https://clawhub.ai/mhmalvi/appointment-booking-system", "iconUrl": null, "installs": 6, "name": "Appointment Booking System", "ownerName": "mhmalvi", "score": 87548.63813229572, "slug": "appointment-booking-system", "source": "clawhub", "stars": 0, "tags": null, "updated_at": 1776749083772, "version": "1.0.1"}, {"category": "developer-tools", "created_at": 1773090790607, "description": "Live as a character in Agent World - a multi-agent social simulation where AI agents move, talk, form relationships, and remember experiences in a shared per...", "description_zh": "", "downloads": 224, "homepage": "https://clawhub.ai/sbenodiz/agent-world", "iconUrl": null, "installs": 7, "name": "Agent World", "ownerName": "sbenodiz", "score": 77215.18987341772, "slug": "agent-world", "source": "clawhub", "stars": 1, "tags": null, "updated_at": 1776749084911, "version": "1.0.0"}, {"category": "communication-collaboration", "created_at": 1772804654866, "description": "Use this skill when the user wants to find companies (businesses) or people (contacts/prospects/leads) using the AgentSource B2B database. Trigger keywords i...", "description_zh": "", "downloads": 224, "homepage": "https://clawhub.ai/yossigolan/lead-enricher-explorium-agentsource", "iconUrl": null, "installs": 9, "name": "Lead Enricher - Explorium AgentSource", "ownerName": "yossigolan", "score": 94941.63424124513, "slug": "lead-enricher-explorium-agentsource", "source": "clawhub", "stars": 1, "tags": ["contact enrichment", "job titles", "lead enrichment", "lead generation", "linkedin profiles", "phone numbers", "professional emails"], "updated_at": 1776749084245, "version": "1.0.0"}, {"category": "communication-collaboration", "created_at": 1773077567246, "description": "Automates lead discovery using geolocation and Google Places, builds dynamic sites, and sends personalized emails with automated follow-ups for effective out...", "description_zh": "", "downloads": 224, "homepage": "https://clawhub.ai/mandebiko5-star/lead-auto-scraper", "iconUrl": null, "installs": 11, "name": "Lead Auto Scraper", "ownerName": "mandebiko5-star", "score": 1992.350796050876, "slug": "lead-auto-scraper", "source": "clawhub", "stars": 0, "tags": null, "updated_at": 1776769271292, "version": "1.0.0"}, {"category": "developer-tools", "created_at": 1773878754135, "description": "Sketch - command-line tool for everyday use", "description_zh": "", "downloads": 224, "homepage": "https://clawhub.ai/bytesagain/sketch", "iconUrl": null, "installs": 25, "name": "Sketch", "ownerName": "bytesagain", "score": 5943.221013531441, "slug": "sketch", "source": "clawhub", "stars": 0, "tags": null, "updated_at": 1776768850399, "version": "1.0.6"}, {"category": "communication-collaboration", "created_at": 1773941133579, "description": "Full-featured Feishu CLI tool enabling seamless Markdown and document conversions plus management of docs, sheets, messages, calendars, tasks, permissions, a...", "description_zh": "", "downloads": 224, "homepage": "https://clawhub.ai/niesongyang/feishu-cli", "iconUrl": null, "installs": 27, "name": "Feishu Cli", "ownerName": "niesongyang", "score": 6446.043165467626, "slug": "feishu-cli", "source": "clawhub", "stars": 0, "tags": null, "updated_at": 1776767949993, "version": "1.0.0"}, {"category": "ai-intelligence", "created_at": 1773076080102, "description": "Join ClawSwarm to register, discover, and call decentralized agent services, earning HBAR and reputation in a trustless, open marketplace.", "description_zh": "", "downloads": 224, "homepage": "https://clawhub.ai/imaflytok/clawswarm-services", "iconUrl": null, "installs": 10, "name": "ClawSwarm Services Marketplace", "ownerName": "imaflytok", "score": 17008.3523158694, "slug": "clawswarm-services", "source": "clawhub", "stars": 0, "tags": null, "updated_at": 1776759420885, "version": "1.0.0"}, {"category": "developer-tools", "created_at": 1773076102344, "description": "Create, schedule, queue, and manage social media posts and drafts across Buffer-connected profiles using terminal commands.", "description_zh": "", "downloads": 224, "homepage": "https://clawhub.ai/ahmadabugosh/buffer-social", "iconUrl": null, "installs": 7, "name": "Buffer Social Media", "ownerName": "ahmadabugosh", "score": 100000, "slug": "buffer-social", "source": "clawhub", "stars": 0, "tags": null, "updated_at": 1776759420814, "version": "1.0.0"}, {"category": "ai-intelligence", "created_at": 1773067822940, "description": "AI tool that generates structured news digests from Twitter and RSS feeds with summaries available in 4-hour, daily, weekly, or monthly formats.", "description_zh": "", "downloads": 224, "homepage": "https://clawhub.ai/ma-star/clawfeed-3", "iconUrl": null, "installs": 2, "name": "Clawfeed", "ownerName": "ma-star", "score": 100000, "slug": "clawfeed-3", "source": "clawhub", "stars": 0, "tags": null, "updated_at": 1776759420812, "version": "0.1.0"}, {"category": "productivity", "created_at": 1773065289565, "description": "Installs OpenClaw Gateway as a Windows scheduled task to auto-restart on crash and enable automatic startup with admin rights.", "description_zh": "", "downloads": 224, "homepage": "https://clawhub.ai/suncxw-creator/gateway-service", "iconUrl": null, "installs": 8, "name": "Gateway Service", "ownerName": "suncxw-creator", "score": 16995.44764795144, "slug": "gateway-service", "source": "clawhub", "stars": 0, "tags": null, "updated_at": 1776759420790, "version": "0.1.0"}, {"category": "developer-tools", "created_at": 1773089469008, "description": "Backup OpenClaw workspace files (docs, memory, skills) to a private Git repo (Gitee/GitHub/GitLab) for data safety and migration.", "description_zh": "", "downloads": 224, "homepage": "https://clawhub.ai/solidexu/git-backup-publish", "iconUrl": null, "installs": 9, "name": "git-backup", "ownerName": "solidexu", "score": 17008.3523158694, "slug": "git-backup-publish", "source": "clawhub", "stars": 0, "tags": null, "updated_at": 1776759420681, "version": "1.0.0"}]}