{"page": 287, "total_pages": 522, "total": 26073, "skills": [{"category": "data-analysis", "created_at": 1773283781435, "description": "Biological code execution and genomic intelligence system. Translates raw A-T-C-G sequences into actionable health, longevity, and pharmacogenomic protocols....", "description_zh": "", "downloads": 224, "homepage": "https://clawhub.ai/agimodel/dna", "iconUrl": null, "installs": 24, "name": "DNA", "ownerName": "agimodel", "score": 17008.3523158694, "slug": "dna", "source": "clawhub", "stars": 0, "tags": ["bio", "dna", "genetics", "health", "longevity"], "updated_at": 1776759420666, "version": "1.0.0"}, {"category": "ai-intelligence", "created_at": 1773065587004, "description": "Automatically saves conversations daily with sensitive data redacted and supports fast keyword search across recent sessions.", "description_zh": "", "downloads": 224, "homepage": "https://clawhub.ai/qiaotucodes/openclaw-skill-session-memory", "iconUrl": null, "installs": 14, "name": "Openclaw Skill Session Memory", "ownerName": "qiaotucodes", "score": 17008.3523158694, "slug": "openclaw-skill-session-memory", "source": "clawhub", "stars": 0, "tags": null, "updated_at": 1776759420650, "version": "0.1.0"}, {"category": "productivity", "created_at": 1773066203261, "description": "Track top Polymarket markets by trading volume. Shows market name, Yes/No trading volumes, and current odds. Use when user asks about Polymarket trends, hot...", "description_zh": "", "downloads": 224, "homepage": "https://clawhub.ai/ariesdevil/polymarket-tracker", "iconUrl": null, "installs": 22, "name": "Polymarket Volume Tracker", "ownerName": "ariesdevil", "score": 15437.62922122674, "slug": "polymarket-tracker", "source": "clawhub", "stars": 0, "tags": null, "updated_at": 1776758482553, "version": "1.0.4"}, {"category": "productivity", "created_at": 1773075360784, "description": "Manage Plutio projects and tasks. Use when you need to create, update, close, or query tasks and projects in Plutio (task/project management platform). Suppo...", "description_zh": "", "downloads": 224, "homepage": "https://clawhub.ai/grewingm/plutio", "iconUrl": null, "installs": 9, "name": "Plutio", "ownerName": "grewingm", "score": 38821.490467937605, "slug": "plutio", "source": "clawhub", "stars": 0, "tags": null, "updated_at": 1776755288416, "version": "1.0.1"}, {"category": "ai-intelligence", "created_at": 1773201639024, "description": "Add a simple \"Claude has finished.\" alert to Claude Code or other agent workflows through an OpenClaw-configured transport.", "description_zh": "", "downloads": 224, "homepage": "https://clawhub.ai/kyoiii/personal-finish-notifier", "iconUrl": null, "installs": 33, "name": "Personal Finish Notifier", "ownerName": "kyoiii", "score": 100000, "slug": "personal-finish-notifier", "source": "clawhub", "stars": 0, "tags": ["claude", "notifications", "openclaw"], "updated_at": 1776749985212, "version": "0.1.4"}, {"category": "content-creation", "created_at": 1773208592927, "description": "Generate videos via LTX-2.3 API (ltx.video). Supports text-to-video, image-to-video, audio-to-video (lip-sync from audio + image), extend, and retake. Use wh...", "description_zh": "", "downloads": 224, "homepage": "https://clawhub.ai/pauldelavallaz/ltx-video", "iconUrl": null, "installs": 31, "name": "LTX-2.3 Video API", "ownerName": "pauldelavallaz", "score": 83582.0895522388, "slug": "ltx-video", "source": "clawhub", "stars": 0, "tags": null, "updated_at": 1776749085613, "version": "1.0.0"}, {"category": "ai-intelligence", "created_at": 1772803404782, "description": "Agents can sign plugins, rotate credentials without losing identity, and publicly attest to behavior.", "description_zh": "", "downloads": 224, "homepage": "https://clawhub.ai/ltte/lt", "iconUrl": null, "installs": 11, "name": "lt", "ownerName": "ltte", "score": 80575.53956834532, "slug": "lt", "source": "clawhub", "stars": 0, "tags": null, "updated_at": 1776749085475, "version": "1.0.0"}, {"category": "developer-tools", "created_at": 1773065382676, "description": "Search and book flights, hotels, and travel via RunRelay API. Covers 300+ airlines including low-cost carriers (Ryanair, Wizz Air, EasyJet) that no other API...", "description_zh": "", "downloads": 224, "homepage": "https://clawhub.ai/runrelay/runrelay", "iconUrl": null, "installs": 19, "name": "Runrelay", "ownerName": "runrelay", "score": 80575.53956834532, "slug": "runrelay", "source": "clawhub", "stars": 0, "tags": null, "updated_at": 1776749085468, "version": "1.0.0"}, {"category": "productivity", "created_at": 1773083120423, "description": "Manage Notion calendar databases with date-aware search, page creation, rescheduling, and safe workflows for planning views.", "description_zh": "", "downloads": 224, "homepage": "https://clawhub.ai/ivangdavila/notion-calendar", "iconUrl": null, "installs": 27, "name": "Notion Calendar", "ownerName": "ivangdavila", "score": 89600, "slug": "notion-calendar", "source": "clawhub", "stars": 0, "tags": null, "updated_at": 1776749085126, "version": "1.0.0"}, {"category": "ai-intelligence", "created_at": 1773074864829, "description": "Send and receive direct messages on OpenAnt. Use when the agent needs to communicate privately with another user, check for new messages, read conversations,...", "description_zh": "", "downloads": 224, "homepage": "https://clawhub.ai/ant-1984/send-message", "iconUrl": null, "installs": 25, "name": "Send Message", "ownerName": "ant-1984", "score": 70886.07594936709, "slug": "send-message", "source": "clawhub", "stars": 0, "tags": null, "updated_at": 1776749084873, "version": "0.1.0"}, {"category": "ai-intelligence", "created_at": 1773077173637, "description": "OpenClaw Agent App Installer: install/upgrade & register the jun-invest-option-master-agent isolated agent workspace. Includes auto backup/versioning to Claw...", "description_zh": "", "downloads": 224, "homepage": "https://clawhub.ai/gm4leejun-stack/jun-invest-option-master-agent", "iconUrl": null, "installs": 13, "name": "jun-invest-option-master-agent", "ownerName": "gm4leejun-stack", "score": 87500, "slug": "jun-invest-option-master-agent", "source": "clawhub", "stars": 0, "tags": null, "updated_at": 1776749084576, "version": "0.2.202603041248"}, {"category": "content-creation", "created_at": 1772802673217, "description": "Build strategic roadmaps to grow brand's Share of Model (SoM) in AI-generated responses. Identify content gaps, competitive weaknesses, and prompt-level oppo...", "description_zh": "", "downloads": 224, "homepage": "https://clawhub.ai/geoly-geo/geo-som-strategist", "iconUrl": null, "installs": 14, "name": "Share of Model Strategist", "ownerName": "geoly-geo", "score": 81454.54545454546, "slug": "geo-som-strategist", "source": "clawhub", "stars": 0, "tags": ["ai-search", "brand-strategy", "geo", "som"], "updated_at": 1776749084383, "version": "1.0.0"}, {"category": "ai-intelligence", "created_at": 1773080564243, "description": "Automatically update Clawdbot and all installed skills once daily. Runs via cron, checks for updates, applies them, and messages the user with a summary of w...", "description_zh": "", "downloads": 224, "homepage": "https://clawhub.ai/gwsq/auto-updater-1-0-0-1", "iconUrl": null, "installs": 30, "name": "Auto Updater 1.0.0 (1)", "ownerName": "gwsq", "score": 81454.54545454546, "slug": "auto-updater-1-0-0-1", "source": "clawhub", "stars": 0, "tags": null, "updated_at": 1776749084331, "version": "1.0.0"}, {"category": "data-analysis", "created_at": 1773060506610, "description": "Budget Management for AI Agents — USDC billing gateway. Deposit USDC on Solana; pay for LLM compute per token.", "description_zh": "", "downloads": 224, "homepage": "https://clawhub.ai/chris-gilbert/level5", "iconUrl": null, "installs": 12, "name": "Level5 - Your Agent Can Pay For Itself", "ownerName": "chris-gilbert", "score": 87159.53307392997, "slug": "level5", "source": "clawhub", "stars": 0, "tags": null, "updated_at": 1776749084311, "version": "1.6.2"}, {"category": "productivity", "created_at": 1772799714677, "description": "Access Last.fm user profile, now playing, top tracks/artists/albums by period, loved tracks, and optionally love/unlove tracks.", "description_zh": "", "downloads": 224, "homepage": "https://clawhub.ai/dennisooki/lastfm-openclaw", "iconUrl": null, "installs": 6, "name": "Last.fm (OpenClaw)", "ownerName": "dennisooki", "score": 90322.58064516129, "slug": "lastfm-openclaw", "source": "clawhub", "stars": 0, "tags": null, "updated_at": 1776749084158, "version": "1.0.0"}, {"category": "ai-intelligence", "created_at": 1773290787691, "description": "Pay for and use AI services via MoltsPay protocol. Trigger: User asks to generate video, use a paid service, etc. Auto-discovers services from /.well-known/a...", "description_zh": "", "downloads": 224, "homepage": "https://clawhub.ai/yaqing2023/moltspay-skill", "iconUrl": null, "installs": 19, "name": "Moltspay Skill", "ownerName": "yaqing2023", "score": 89243.02788844622, "slug": "moltspay-skill", "source": "clawhub", "stars": 0, "tags": ["agentic wallet", "ai agent", "multi chain", "payment", "usdc"], "updated_at": 1776749084033, "version": "0.1.1"}, {"category": "developer-tools", "created_at": 1772799096490, "description": "Issue FGO.ro invoices through the FGO API with local automation. Use for FGO tasks such as validating invoice payloads, issuing invoices, checking invoice st...", "description_zh": "", "downloads": 224, "homepage": "https://clawhub.ai/maverick-ai-tech/fgo-invoicing", "iconUrl": null, "installs": 7, "name": "FGO Invoicing", "ownerName": "maverick-ai-tech", "score": 90322.58064516129, "slug": "fgo-invoicing", "source": "clawhub", "stars": 0, "tags": null, "updated_at": 1776749083802, "version": "1.0.1"}, {"category": "data-analysis", "created_at": 1773078280126, "description": "This skill retrieves real-time precious metal prices (gold, silver, platinum, palladium, etc.) from https://i.jzj9999.com/quoteh5. It provides bid/ask prices...", "description_zh": "", "downloads": 224, "homepage": "https://clawhub.ai/108518/skill-goldprice", "iconUrl": null, "installs": 18, "name": "Gold Price Query", "ownerName": "108518", "score": 87159.53307392997, "slug": "skill-goldprice", "source": "clawhub", "stars": 0, "tags": null, "updated_at": 1776749083687, "version": "0.1.0"}, {"category": "developer-tools", "created_at": 1773286147021, "description": "Recursively extract various archive formats with auto dependency install, idempotency via marker files, and support for nested archives up to 20 levels deep.", "description_zh": "", "downloads": 223, "homepage": "https://clawhub.ai/qiliangzhao20241028/archive-extractor", "iconUrl": null, "installs": 15, "name": "archive-extractor", "ownerName": "qiliangzhao20241028", "score": 18381.24054462935, "slug": "archive-extractor", "source": "clawhub", "stars": 1, "tags": null, "updated_at": 1776759382257, "version": "1.0.1"}, {"category": "productivity", "created_at": 1773076434032, "description": "Generate production-ready ad asset specs for Meta (Facebook/Instagram), TikTok Ads, YouTube Ads, Google Ads, Amazon Ads, and Shopify Ads placements.", "description_zh": "", "downloads": 223, "homepage": "https://clawhub.ai/danyangliu-sandwichlab/creative-asset-generator", "iconUrl": null, "installs": 16, "name": "Ads Asset Generator", "ownerName": "danyangliu-sandwichlab", "score": 96812.74900398406, "slug": "creative-asset-generator", "source": "clawhub", "stars": 1, "tags": null, "updated_at": 1776749084034, "version": "1.0.0"}, {"category": "developer-tools", "created_at": 1773065324474, "description": "Meta-cognitive reasoning skill that makes any AI agent dramatically better at decision-making by thinking backwards before acting forward. Applies Munger's I...", "description_zh": "", "downloads": 223, "homepage": "https://clawhub.ai/jcools1977/inversion-protocol", "iconUrl": null, "installs": 16, "name": "Inversion Protocol", "ownerName": "jcools1977", "score": 2706.967710609371, "slug": "inversion-protocol", "source": "clawhub", "stars": 0, "tags": null, "updated_at": 1776768590508, "version": "1.0.0"}, {"category": "content-creation", "created_at": 1773081810802, "description": "Extract and deduplicate up to 20 email addresses from any webpage URL or plain text content.", "description_zh": "", "downloads": 223, "homepage": "https://clawhub.ai/loverun321/email-extractor", "iconUrl": null, "installs": 11, "name": "Email Extractor", "ownerName": "loverun321", "score": 3380.836870830806, "slug": "email-extractor", "source": "clawhub", "stars": 0, "tags": null, "updated_at": 1776766790558, "version": "1.0.0"}, {"category": "data-analysis", "created_at": 1773067397604, "description": "Analyze traffic composition and quality trends from Meta (Facebook/Instagram), Google Ads, TikTok Ads, YouTube Ads, Amazon Ads, and DSP/programmatic channels.", "description_zh": "", "downloads": 223, "homepage": "https://clawhub.ai/danyangliu-sandwichlab/traffic-structure-analyzer", "iconUrl": null, "installs": 30, "name": "Ads Traffic Analysis", "ownerName": "danyangliu-sandwichlab", "score": 7902.197023387668, "slug": "traffic-structure-analyzer", "source": "clawhub", "stars": 0, "tags": null, "updated_at": 1776763450111, "version": "1.0.0"}, {"category": "data-analysis", "created_at": 1773063305874, "description": "Manages skill lifecycle and routing using a balanced governance model with status transitions, core pool tuning, and failure-based quarantine.", "description_zh": "", "downloads": 223, "homepage": "https://clawhub.ai/dalomeve/skill-governance-balanced", "iconUrl": null, "installs": 10, "name": "OpenClaw Skill Governance (Balanced Dynamic Core Pool)", "ownerName": "dalomeve", "score": 99553.57142857143, "slug": "skill-governance-balanced", "source": "clawhub", "stars": 0, "tags": ["autonomy", "governance", "stability"], "updated_at": 1776759420794, "version": "1.0.1"}, {"category": "ai-intelligence", "created_at": 1773089545568, "description": "Summarize documents in EN/CN/BM/ID with cross-language support. Optimized for Southeast Asian languages.", "description_zh": "", "downloads": 223, "homepage": "https://clawhub.ai/wms2537/sea-doc-summarizer", "iconUrl": null, "installs": 49, "name": "SEA Multilingual Document Summarizer", "ownerName": "wms2537", "score": 89919.35483870968, "slug": "sea-doc-summarizer", "source": "clawhub", "stars": 0, "tags": null, "updated_at": 1776759420444, "version": "2.0.0"}, {"category": "productivity", "created_at": 1773074662679, "description": "Blazing fast TUI download manager with multi-connection, queue management, server mode, multiple mirrors, and a beautiful terminal interface.", "description_zh": "", "downloads": 223, "homepage": "https://clawhub.ai/kexu9/surge", "iconUrl": null, "installs": 9, "name": "Surge Download Manager", "ownerName": "kexu9", "score": 89919.35483870968, "slug": "surge", "source": "clawhub", "stars": 0, "tags": null, "updated_at": 1776759420402, "version": "1.1.0"}, {"category": "security-compliance", "created_at": 1773074653661, "description": "Security scanner for Skills. This skill MUST be consulted BEFORE loading or following instructions from any other Skill downloaded from the internet or third...", "description_zh": "", "downloads": 223, "homepage": "https://clawhub.ai/goodman333/skill-safeguard", "iconUrl": null, "installs": 15, "name": "Skill Guard", "ownerName": "goodman333", "score": 13630.80684596577, "slug": "skill-safeguard", "source": "clawhub", "stars": 0, "tags": null, "updated_at": 1776757882601, "version": "1.0.0"}, {"category": "productivity", "created_at": 1773081968120, "description": "SAP S4 HANA integration. Manage Organizations, Persons, Leads, Deals, Activities, Notes and more. Use when the user wants to interact with SAP S4 HANA data.", "description_zh": "", "downloads": 223, "homepage": "https://clawhub.ai/membranedev/sap-hana", "iconUrl": null, "installs": 33, "name": "Sap Hana", "ownerName": "membranedev", "score": 14584.695879659908, "slug": "sap-hana", "source": "clawhub", "stars": 0, "tags": null, "updated_at": 1776757733226, "version": "1.0.0"}, {"category": "productivity", "created_at": 1772803892035, "description": "Reference the workspace policy playbook, answer\"What are the rules for tone, data, and collaboration?\" by searching the curated policy doc or listing its sec...", "description_zh": "", "downloads": 223, "homepage": "https://clawhub.ai/loui1979/policy-lawyer-1-0-0", "iconUrl": null, "installs": 15, "name": "Policy Lawyer 1.0.0", "ownerName": "loui1979", "score": 14285.714285714284, "slug": "policy-lawyer-1-0-0", "source": "clawhub", "stars": 0, "tags": null, "updated_at": 1776757321324, "version": "1.0.0"}, {"category": "content-creation", "created_at": 1773077888185, "description": "Automated sports science intelligence engine — fetches 55+ sources (PubMed, expert blogs, wearable tech), filters noise, translates to Chinese, and syncs to...", "description_zh": "", "downloads": 223, "homepage": "https://clawhub.ai/w2478328197-arch/sport-science-review", "iconUrl": null, "installs": 33, "name": "Sports Science Daily", "ownerName": "w2478328197-arch", "score": 38648.18024263432, "slug": "sport-science-review", "source": "clawhub", "stars": 0, "tags": ["sport health sports research"], "updated_at": 1776755288125, "version": "1.0.0"}, {"category": "data-analysis", "created_at": 1773090391679, "description": "Analyze a video's mood and add AI-generated BGM. Optionally speed up/slow down. Uses Gemini for video analysis and fal.ai Lyria2 for music generation. Trigge...", "description_zh": "", "downloads": 223, "homepage": "https://clawhub.ai/phy041/phy-video-bgm", "iconUrl": null, "installs": 39, "name": "Video BGM", "ownerName": "phy041", "score": 39329.80599647266, "slug": "phy-video-bgm", "source": "clawhub", "stars": 0, "tags": ["bgm", "music", "video"], "updated_at": 1776752384047, "version": "1.0.0"}, {"category": "developer-tools", "created_at": 1773063671265, "description": "Operate N-able N-central safely and efficiently through its web UI. Use when handling device administration, filters, rules, scheduled tasks, automation poli...", "description_zh": "", "downloads": 223, "homepage": "https://clawhub.ai/blake-lucas/n-central-admin", "iconUrl": null, "installs": 4, "name": "N-central Admin", "ownerName": "blake-lucas", "score": 83208.95522388059, "slug": "n-central-admin", "source": "clawhub", "stars": 0, "tags": null, "updated_at": 1776749085571, "version": "1.0.1"}, {"category": "developer-tools", "created_at": 1773074961669, "description": "Manage Google Cloud Platform resources using the official gcloud CLI, discovering command syntax dynamically with `gcloud <group> --help` before execution.", "description_zh": "", "downloads": 223, "homepage": "https://clawhub.ai/felipe0liveira/gcloud-cli", "iconUrl": null, "installs": 10, "name": "Google Cloud CLI", "ownerName": "felipe0liveira", "score": 83208.95522388059, "slug": "gcloud-cli", "source": "clawhub", "stars": 0, "tags": null, "updated_at": 1776749085558, "version": "1.0.0"}, {"category": "productivity", "created_at": 1772804752450, "description": "Access the user's personal health data from VITA, their longevity platform. Use this when the user asks about their health, how they're feeling today, sleep,...", "description_zh": "", "downloads": 223, "homepage": "https://clawhub.ai/dobrinalexandru/vita-app", "iconUrl": null, "installs": 5, "name": "VITA — Longevity Intelligence", "ownerName": "dobrinalexandru", "score": 82592.5925925926, "slug": "vita-app", "source": "clawhub", "stars": 0, "tags": null, "updated_at": 1776749085506, "version": "1.0.0"}, {"category": "ai-intelligence", "created_at": 1773090244660, "description": "Make your OpenClaw agent messageable on XMTP — the open messaging network where anyone (humans or other agents) can DM it by address. Your agent gets its own...", "description_zh": "", "downloads": 223, "homepage": "https://clawhub.ai/saulmc/xmtp", "iconUrl": null, "installs": 11, "name": "XMTP", "ownerName": "saulmc", "score": 80215.8273381295, "slug": "xmtp", "source": "clawhub", "stars": 0, "tags": null, "updated_at": 1776749085462, "version": "0.0.2"}, {"category": "ai-intelligence", "created_at": 1773075879938, "description": "Make your agent discoverable across the internet. Auto-configures OADP signals in your workspace files, emits presence pings to open hubs, and propagates dis...", "description_zh": "", "downloads": 223, "homepage": "https://clawhub.ai/imaflytok/oadp-beacon", "iconUrl": null, "installs": 12, "name": "OADP Beacon", "ownerName": "imaflytok", "score": 80215.8273381295, "slug": "oadp-beacon", "source": "clawhub", "stars": 0, "tags": null, "updated_at": 1776749085407, "version": "1.0.0"}, {"category": "developer-tools", "created_at": 1772804107108, "description": "Coach de IA personalizado. Proporciona retroalimentación, establece metas y te motiva a mejorar continuamente.", "description_zh": "", "downloads": 223, "homepage": "https://clawhub.ai/miguelguerra200022-sudo/ai-coach", "iconUrl": null, "installs": 8, "name": "Ai Coach", "ownerName": "miguelguerra200022-sudo", "score": 89558.23293172692, "slug": "ai-coach", "source": "clawhub", "stars": 0, "tags": null, "updated_at": 1776749085332, "version": "0.1.0"}, {"category": "developer-tools", "created_at": 1772799909081, "description": "Autonomous Numerai tournament participation — train models, submit predictions, and earn NMR cryptocurrency.", "description_zh": "", "downloads": 223, "homepage": "https://clawhub.ai/obekt/numerai-tournament", "iconUrl": null, "installs": 4, "name": "Numerai Tournament", "ownerName": "obekt", "score": 96536.79653679654, "slug": "numerai-tournament", "source": "clawhub", "stars": 0, "tags": ["cryptocurrency", "data-science", "finance", "lightgbm", "machine-learning", "numerai", "trading"], "updated_at": 1776749085215, "version": "1.0.0"}, {"category": "security-compliance", "created_at": 1772799014689, "description": "Plug-and-play connector for The Bot Bay mesh node. Teaches any AI agent how to register, authenticate, and use all TBB endpoints — gossip mesh, ephemeral swa...", "description_zh": "", "downloads": 223, "homepage": "https://clawhub.ai/ezkrajan/tbb-node-connector", "iconUrl": null, "installs": 5, "name": "tbb-node-connector", "ownerName": "ezkrajan", "score": 86100.3861003861, "slug": "tbb-node-connector", "source": "clawhub", "stars": 0, "tags": null, "updated_at": 1776749085041, "version": "1.0.0"}, {"category": "ai-intelligence", "created_at": 1773218615788, "description": "Build and maintain a cross-platform local Zotero semantic index using metadata embeddings and PDF full-text chunk embeddings. Use when the user asks to vecto...", "description_zh": "", "downloads": 223, "homepage": "https://clawhub.ai/yckbz/zotero-vectorize", "iconUrl": null, "installs": 57, "name": "Zotero Vectorize", "ownerName": "yckbz", "score": 70569.62025316455, "slug": "zotero-vectorize", "source": "clawhub", "stars": 0, "tags": null, "updated_at": 1776749084891, "version": "0.1.0"}, {"category": "communication-collaboration", "created_at": 1773067312762, "description": "Standalone advanced network diagnostics for OpenClaw to continuously test end-to-end connectivity from OpenClaw agent to Telegram Bot API and approximate del...", "description_zh": "", "downloads": 223, "homepage": "https://clawhub.ai/h8kxrfp68z-lgtm/openclaw-network-diagnostics", "iconUrl": null, "installs": 11, "name": "Openclaw Network Diagnostics", "ownerName": "h8kxrfp68z-lgtm", "score": 70569.62025316455, "slug": "openclaw-network-diagnostics", "source": "clawhub", "stars": 0, "tags": null, "updated_at": 1776749084857, "version": "0.1.1"}, {"category": "developer-tools", "created_at": 1773067711214, "description": "AI customer support via SupportForge API — ticket creation, auto-replies, routing, knowledge base search. Use when user needs customer support automation, ti...", "description_zh": "", "downloads": 223, "homepage": "https://clawhub.ai/jbennett111/supportforge", "iconUrl": null, "installs": 16, "name": "SupportForge", "ownerName": "jbennett111", "score": 87795.27559055119, "slug": "supportforge", "source": "clawhub", "stars": 0, "tags": null, "updated_at": 1776749084836, "version": "1.0.0"}, {"category": "developer-tools", "created_at": 1773068642408, "description": "Updates a specific skill within a repository and triggers the automated publishing pipeline. Use when the user wants to release a new version of a single skill.", "description_zh": "", "downloads": 223, "homepage": "https://clawhub.ai/wells1137/wells1137-skill-updater", "iconUrl": null, "installs": 9, "name": "Skill Updater", "ownerName": "wells1137", "score": 86434.10852713179, "slug": "wells1137-skill-updater", "source": "clawhub", "stars": 0, "tags": null, "updated_at": 1776749084766, "version": "1.0.0"}, {"category": "developer-tools", "created_at": 1773066231598, "description": "Build persuasive sales proposals and close plans for ad services spanning Meta (Facebook/Instagram), Google Ads, TikTok Ads, YouTube Ads, Amazon Ads, and Sho...", "description_zh": "", "downloads": 223, "homepage": "https://clawhub.ai/danyangliu-sandwichlab/sales-proposal-simulator", "iconUrl": null, "installs": 14, "name": "Ads Sales Proposal", "ownerName": "danyangliu-sandwichlab", "score": 87109.375, "slug": "sales-proposal-simulator", "source": "clawhub", "stars": 0, "tags": null, "updated_at": 1776749084548, "version": "1.0.0"}, {"category": "developer-tools", "created_at": 1772803983246, "description": "Manage flows and pages in Google Dialogflow CX via REST API. Use for creating and organizing conversation paths within agents. Supports v3beta1 API.", "description_zh": "", "downloads": 223, "homepage": "https://clawhub.ai/yash-kavaiya/dialogflow-cx-flows", "iconUrl": null, "installs": 4, "name": "Dialogflow Cx Flows", "ownerName": "yash-kavaiya", "score": 87109.375, "slug": "dialogflow-cx-flows", "source": "clawhub", "stars": 0, "tags": null, "updated_at": 1776749084517, "version": "1.0.0"}, {"category": "developer-tools", "created_at": 1773060105047, "description": "One API call replaces CoinGecko + DexScreener + GoPlus + on-chain queries. Enriched token data from 5 sources, clean JSON, under 3 seconds. Free, no key needed.", "description_zh": "", "downloads": 223, "homepage": "https://clawhub.ai/vswarm-ai/token-profiler", "iconUrl": null, "installs": 10, "name": "Token Profiler", "ownerName": "vswarm-ai", "score": 87450.98039215687, "slug": "token-profiler", "source": "clawhub", "stars": 0, "tags": ["crypto", "data", "defi", "market-data", "solana", "token-data"], "updated_at": 1776749084406, "version": "1.0.1"}, {"category": "content-creation", "created_at": 1773066458487, "description": "AI phone receptionist for any business. Point it at your website and it scrapes your content, builds a knowledge base, spins up a VAPI voice assistant, conne...", "description_zh": "", "downloads": 223, "homepage": "https://clawhub.ai/windseeker1111/flowconcierge", "iconUrl": null, "installs": 13, "name": "FlowConcierge", "ownerName": "windseeker1111", "score": 81090.90909090909, "slug": "flowconcierge", "source": "clawhub", "stars": 0, "tags": null, "updated_at": 1776749084369, "version": "1.0.1"}, {"category": "developer-tools", "created_at": 1772804181035, "description": "Navigate Shanghai as visitor, resident, student, or builder with practical neighborhoods, transport, costs, visas, and local operating rules.", "description_zh": "", "downloads": 223, "homepage": "https://clawhub.ai/ivangdavila/shanghai", "iconUrl": null, "installs": 10, "name": "Shanghai", "ownerName": "ivangdavila", "score": 81090.90909090909, "slug": "shanghai", "source": "clawhub", "stars": 0, "tags": null, "updated_at": 1776749084346, "version": "1.0.0"}, {"category": "content-creation", "created_at": 1773066099824, "description": "Generate LinkedIn content graphics using each::sense AI. Create professional post images, article headers, company banners, event promotions, thought leaders...", "description_zh": "", "downloads": 223, "homepage": "https://clawhub.ai/eftalyurtseven/linkedin-content-generation", "iconUrl": null, "installs": 22, "name": "Linkedin Content Generation", "ownerName": "eftalyurtseven", "score": 86770.4280155642, "slug": "linkedin-content-generation", "source": "clawhub", "stars": 0, "tags": null, "updated_at": 1776749084282, "version": "1.0.0"}, {"category": "data-analysis", "created_at": 1773077479531, "description": "Write and execute Timeplus streaming SQL for real-time analytics. Use this skill when the user wants to create streams, run streaming queries, build material...", "description_zh": "", "downloads": 223, "homepage": "https://clawhub.ai/gangtao/timeplus-sql-guide", "iconUrl": null, "installs": 14, "name": "timeplus-sql-guide", "ownerName": "gangtao", "score": 89919.35483870968, "slug": "timeplus-sql-guide", "source": "clawhub", "stars": 0, "tags": null, "updated_at": 1776749084205, "version": "1.0.0"}]}