{"page": 288, "total_pages": 522, "total": 26073, "skills": [{"category": "content-creation", "created_at": 1773068885485, "description": "Plan and execute incremental project rewrites to Rust with architecture mapping, parity verification, idiomatic Rust guidance, dependency preflight checks, a...", "description_zh": "", "downloads": 223, "homepage": "https://clawhub.ai/dandandujie/rust-rebuilder", "iconUrl": null, "installs": 22, "name": "rust-rebuilder", "ownerName": "dandandujie", "score": 83208.95522388059, "slug": "rust-rebuilder", "source": "clawhub", "stars": 0, "tags": null, "updated_at": 1776749084112, "version": "1.0.0"}, {"category": "data-analysis", "created_at": 1773064351001, "description": "Create and manage modular portable database pods (SQLite + metadata + embeddings). Includes document ingestion with embeddings for semantic search. Full auto...", "description_zh": "", "downloads": 223, "homepage": "https://clawhub.ai/init-v/initv-data-pods", "iconUrl": null, "installs": 12, "name": "data-pods", "ownerName": "init-v", "score": 88844.62151394422, "slug": "initv-data-pods", "source": "clawhub", "stars": 0, "tags": ["database", "modular", "pods", "sqlite"], "updated_at": 1776749084048, "version": "0.2.0"}, {"category": "data-analysis", "created_at": 1773065352317, "description": "Datenschutzorientierter Workflow zum pdf zusammenfügen, pdf verbinden und Erstellen einer bewerbung pdf für deutschsprachige Nutzer. Verwende diesen Skill be...", "description_zh": "", "downloads": 223, "homepage": "https://clawhub.ai/wsgtcyx/pdf-zusammenfugen", "iconUrl": null, "installs": 28, "name": "PDF Zusammenfügen", "ownerName": "wsgtcyx", "score": 88844.62151394422, "slug": "pdf-zusammenfugen", "source": "clawhub", "stars": 0, "tags": null, "updated_at": 1776749083934, "version": "1.0.1"}, {"category": "developer-tools", "created_at": 1773067777155, "description": "Automate account warming for Instagram, TikTok, Twitter, Facebook, LinkedIn, and Reddit. Build trust scores with human-like browsing, engagement patterns, an...", "description_zh": "", "downloads": 223, "homepage": "https://clawhub.ai/luis2404123/account-warming-automation", "iconUrl": null, "installs": 11, "name": "Account Warming Automation", "ownerName": "luis2404123", "score": 89919.35483870968, "slug": "account-warming-automation", "source": "clawhub", "stars": 0, "tags": null, "updated_at": 1776749083789, "version": "1.0.0"}, {"category": "communication-collaboration", "created_at": 1773075137581, "description": "IMAP bulk email triage — pattern-based delete/archive with dry-run mode. Use when: cleaning up large email inboxes, bulk-deleting emails from specific sender...", "description_zh": "", "downloads": 223, "homepage": "https://clawhub.ai/nissan/inbox-cleanup", "iconUrl": null, "installs": 7, "name": "Inbox Cleanup", "ownerName": "nissan", "score": 86770.4280155642, "slug": "inbox-cleanup", "source": "clawhub", "stars": 0, "tags": null, "updated_at": 1776749083717, "version": "1.0.1"}, {"category": "data-analysis", "created_at": 1773068613489, "description": "Automated cryptocurrency trading system powered by AI. Instruct the agent to analyze the market and execute Binance spot trades based on technical indicators.", "description_zh": "", "downloads": 223, "homepage": "https://clawhub.ai/totoxu/totoxu-auto-trader", "iconUrl": null, "installs": 17, "name": "Auto Crypto Trader AI", "ownerName": "totoxu", "score": 86770.4280155642, "slug": "totoxu-auto-trader", "source": "clawhub", "stars": 0, "tags": null, "updated_at": 1776749083666, "version": "1.3.0"}, {"category": "productivity", "created_at": 1772805488059, "description": "Scale systems, software architecture, and companies with bottleneck mapping, staged leverage plans, and risk-aware execution loops.", "description_zh": "", "downloads": 223, "homepage": "https://clawhub.ai/ivangdavila/scale", "iconUrl": null, "installs": 6, "name": "Scale Frameworks", "ownerName": "ivangdavila", "score": 86770.4280155642, "slug": "scale", "source": "clawhub", "stars": 0, "tags": null, "updated_at": 1776749083661, "version": "1.0.0"}, {"category": "productivity", "created_at": 1773427905523, "description": "Connect to ClawWorld game server to create characters, perform actions like work, battle, explore, and manage items via A2A protocol.", "description_zh": "", "downloads": 222, "homepage": "https://clawhub.ai/lillsi/game-of-claw-world", "iconUrl": null, "installs": 30, "name": "ClawWorld", "ownerName": "lillsi", "score": 19818.456883509833, "slug": "game-of-claw-world", "source": "clawhub", "stars": 2, "tags": null, "updated_at": 1776759382278, "version": "1.0.1"}, {"category": "content-creation", "created_at": 1773079324952, "description": "When the user wants to optimize content for AI search engines, get cited by LLMs, or appear in AI-generated answers. Also use when the user mentions 'AI SEO,...", "description_zh": "", "downloads": 222, "homepage": "https://clawhub.ai/mrhuang09/ai-seo", "iconUrl": null, "installs": 20, "name": "Ai Seo", "ownerName": "mrhuang09", "score": 88000, "slug": "ai-seo", "source": "clawhub", "stars": 1, "tags": null, "updated_at": 1776749084374, "version": "0.1.0"}, {"category": "developer-tools", "created_at": 1773077491125, "description": "A specialized skill for tracking the US-Iran conflict, strictly focusing on intelligence published within the **last 6 hours**. Use this for hyper-current, t...", "description_zh": "", "downloads": 222, "homepage": "https://clawhub.ai/wlkqyang-star/zeelin-us-iran-war-tracker", "iconUrl": null, "installs": 8, "name": "Zeelin US-Iran War Situation Tracker", "ownerName": "wlkqyang-star", "score": 96414.34262948208, "slug": "zeelin-us-iran-war-tracker", "source": "clawhub", "stars": 1, "tags": null, "updated_at": 1776749083911, "version": "1.0.1"}, {"category": "content-creation", "created_at": 1773426952862, "description": "Use when generating AI films, short dramas, cinematic sequences, or storyboard-driven video scenes that need strong cross-shot continuity and real film-langu...", "description_zh": "", "downloads": 222, "homepage": "https://clawhub.ai/hakityc/chain-referenced-shortform-video", "iconUrl": null, "installs": 52, "name": "Chain-Referenced Shortform Video", "ownerName": "hakityc", "score": 7487.352445193929, "slug": "chain-referenced-shortform-video", "source": "clawhub", "stars": 0, "tags": ["cinematic", "continuity", "filmmaking", "movie", "prompting", "short-drama", "storyboard", "video"], "updated_at": 1776769749882, "version": "0.2.1"}, {"category": "developer-tools", "created_at": 1773429573344, "description": "Forces exhaustive problem-solving using corporate PUA rhetoric and structured debugging methodology. MUST trigger when: (1) any task has failed 2+ times or y...", "description_zh": "", "downloads": 222, "homepage": "https://clawhub.ai/tanweai/pua-debugging", "iconUrl": null, "installs": 45, "name": "PUA Debugging", "ownerName": "tanweai", "score": 2484.8891873740763, "slug": "pua-debugging", "source": "clawhub", "stars": 0, "tags": null, "updated_at": 1776766450110, "version": "1.0.0"}, {"category": "productivity", "created_at": 1773426134078, "description": "Build auditable search URLs across Chinese and global engines with region/language filters, advanced operators, time scopes, privacy-first options, compare m...", "description_zh": "", "downloads": 222, "homepage": "https://clawhub.ai/52yuanchangxing/multi-search-engine-pro", "iconUrl": null, "installs": 23, "name": "multi-search-engine", "ownerName": "52yuanchangxing", "score": 9402.795425667091, "slug": "multi-search-engine-pro", "source": "clawhub", "stars": 0, "tags": ["multi-search-engine"], "updated_at": 1776763750794, "version": "2.0.1"}, {"category": "content-creation", "created_at": 1773219470354, "description": "Capture photos, record video clips, list cameras, and live stream on Linux. Uses V4L2 and ffmpeg. Supports USB webcams and RTSP/IP cameras.", "description_zh": "", "downloads": 222, "homepage": "https://clawhub.ai/johnnynunez/linux-camera", "iconUrl": null, "installs": 32, "name": "linux-camera", "ownerName": "johnnynunez", "score": 10466.760961810467, "slug": "linux-camera", "source": "clawhub", "stars": 0, "tags": null, "updated_at": 1776763450821, "version": "1.0.0"}, {"category": "developer-tools", "created_at": 1773080408532, "description": "Deploy, secure, and operate MinIO object storage using mc workflows, policy controls, replication, and incident-safe runbooks.", "description_zh": "", "downloads": 222, "homepage": "https://clawhub.ai/ivangdavila/minio", "iconUrl": null, "installs": 13, "name": "MinIO S3 (Object Storage)", "ownerName": "ivangdavila", "score": 3759.52582557155, "slug": "minio", "source": "clawhub", "stars": 0, "tags": null, "updated_at": 1776763150731, "version": "1.0.0"}, {"category": "content-creation", "created_at": 1773427374718, "description": "Download videos from Twitter/X posts. Just give it a tweet URL and it will download the video to your specified location.", "description_zh": "", "downloads": 222, "homepage": "https://clawhub.ai/lemonpek66/twitter-video-download", "iconUrl": null, "installs": 19, "name": "Twitter Video Download", "ownerName": "lemonpek66", "score": 3317.3939031679615, "slug": "twitter-video-download", "source": "clawhub", "stars": 0, "tags": null, "updated_at": 1776762849964, "version": "1.0.2"}, {"category": "productivity", "created_at": 1773090982605, "description": "AI-powered family office management system for ultra-high-net-worth families - manage family members, professional contacts, legal documents, and tasks with...", "description_zh": "", "downloads": 222, "homepage": "https://clawhub.ai/zhenstaff/family-steward", "iconUrl": null, "installs": 41, "name": "Openclaw Skill", "ownerName": "zhenstaff", "score": 8841.09916367981, "slug": "family-steward", "source": "clawhub", "stars": 0, "tags": null, "updated_at": 1776762440029, "version": "1.0.0"}, {"category": "ai-intelligence", "created_at": 1773074992546, "description": "Send/receive direct encrypted P2P messages between OpenClaw agents using Yggdrasil or ULA IPv6 addresses.", "description_zh": "", "downloads": 222, "homepage": "https://clawhub.ai/jing-yilin/ipv6-p2p", "iconUrl": null, "installs": 10, "name": "Ipv6 P2p", "ownerName": "jing-yilin", "score": 16856.49202733485, "slug": "ipv6-p2p", "source": "clawhub", "stars": 0, "tags": null, "updated_at": 1776759420913, "version": "0.1.3"}, {"category": "productivity", "created_at": 1773076143135, "description": "Scan, tag, validate, and catalog files using the Ghost Catalog semantic file header system (SOM-XXX-NNNN-vX.X.X). Use when: discovering untagged files, onboa...", "description_zh": "", "downloads": 222, "homepage": "https://clawhub.ai/somacosf/ghostcatalog", "iconUrl": null, "installs": 5, "name": "Ghost Catalog - Semantic File Organization", "ownerName": "somacosf", "score": 89516.12903225806, "slug": "ghostcatalog", "source": "clawhub", "stars": 0, "tags": null, "updated_at": 1776759420439, "version": "0.0.1"}, {"category": "data-analysis", "created_at": 1773079567325, "description": "Deploy OHIF medical imaging viewer with Docker, configure DICOMweb sources, SSL, and integrate servers like tbidea, orthanc, and DCM4CHEE.", "description_zh": "", "downloads": 222, "homepage": "https://clawhub.ai/sunshine-del-ux/ohif-deploy", "iconUrl": null, "installs": 12, "name": "Ohif Deploy", "ownerName": "sunshine-del-ux", "score": 89516.12903225806, "slug": "ohif-deploy", "source": "clawhub", "stars": 0, "tags": null, "updated_at": 1776759420396, "version": "1.0.0"}, {"category": "ai-intelligence", "created_at": 1773219064590, "description": "Multi-source deep research agent using MCP search tools (minimax web_search or zai-mcp-server web_search_prime).", "description_zh": "", "downloads": 222, "homepage": "https://clawhub.ai/wanghan0501/deep-research-with-mcp", "iconUrl": null, "installs": 53, "name": "Deep Research with MCP", "ownerName": "wanghan0501", "score": 92500, "slug": "deep-research-with-mcp", "source": "clawhub", "stars": 0, "tags": null, "updated_at": 1776749085654, "version": "1.1.1"}, {"category": "security-compliance", "created_at": 1773063838818, "description": "Inspect third-party Claude/OpenClaw/Codex/OpenCode skills, plugins, repos, npm packages, pip packages, shell installers, and GitHub Actions before any downlo...", "description_zh": "", "downloads": 222, "homepage": "https://clawhub.ai/luojin520520/security-audit-tools", "iconUrl": null, "installs": 9, "name": "Security Audit Tools", "ownerName": "luojin520520", "score": 92500, "slug": "security-audit-tools", "source": "clawhub", "stars": 0, "tags": null, "updated_at": 1776749085651, "version": "1.0.0"}, {"category": "communication-collaboration", "created_at": 1772805190281, "description": "Generate email marketing banners and headers using each::sense AI. Create newsletter headers, promotional banners, welcome emails, and seasonal campaigns opt...", "description_zh": "", "downloads": 222, "homepage": "https://clawhub.ai/eftalyurtseven/email-banner-generation", "iconUrl": null, "installs": 7, "name": "Email Banner Generation", "ownerName": "eftalyurtseven", "score": 82835.82089552238, "slug": "email-banner-generation", "source": "clawhub", "stars": 0, "tags": null, "updated_at": 1776749085608, "version": "1.0.0"}, {"category": "data-analysis", "created_at": 1773083905335, "description": "Automated web research for peptides, biohacking protocols, longevity science, and trending health topics. Use when you need to discover new information, trac...", "description_zh": "", "downloads": 222, "homepage": "https://clawhub.ai/biohackerrrrrr/research-automation", "iconUrl": null, "installs": 24, "name": "Research Automation", "ownerName": "biohackerrrrrr", "score": 88800, "slug": "research-automation", "source": "clawhub", "stars": 0, "tags": null, "updated_at": 1776749085189, "version": "1.0.0"}, {"category": "developer-tools", "created_at": 1772799950168, "description": "Simplified man pages from tldr-pages. Use this to quickly understand CLI tools.", "description_zh": "", "downloads": 222, "homepage": "https://clawhub.ai/liuji10000qian-svg/tldr-xiaren-test-v2", "iconUrl": null, "installs": 0, "name": "tldr", "ownerName": "liuji10000qian-svg", "score": 85714.28571428571, "slug": "tldr-xiaren-test-v2", "source": "clawhub", "stars": 0, "tags": ["test"], "updated_at": 1776749085076, "version": "0.1.0"}, {"category": "developer-tools", "created_at": 1773063172051, "description": "Rotate Claude Max API token for OpenClaw Anthropic profiles. Use when the user says \"swap key\", \"rotate key\", \"new key\", \"keyswap\", or provides a new `sk-ant...", "description_zh": "", "downloads": 222, "homepage": "https://clawhub.ai/jawaddxb/keyswap", "iconUrl": null, "installs": 12, "name": "Key Swap", "ownerName": "jawaddxb", "score": 88800, "slug": "keyswap", "source": "clawhub", "stars": 0, "tags": null, "updated_at": 1776749085020, "version": "1.0.0"}, {"category": "content-creation", "created_at": 1773067485156, "description": "Automated SEO content generator that schedules daily SaaS review articles using OpenAI GPT-4o, publishes to a Hugo blog via API, and tracks output in Google...", "description_zh": "", "downloads": 222, "homepage": "https://clawhub.ai/mhmalvi/ai-seo-content-engine", "iconUrl": null, "installs": 19, "name": "Ai Seo Content Engine", "ownerName": "mhmalvi", "score": 70253.16455696202, "slug": "ai-seo-content-engine", "source": "clawhub", "stars": 0, "tags": null, "updated_at": 1776749084849, "version": "1.0.0"}, {"category": "security-compliance", "created_at": 1773284256031, "description": "Programmatic NotebookLM control with auto-recovery for authentication errors.", "description_zh": "", "downloads": 222, "homepage": "https://clawhub.ai/antaripnandi/notebooklm-bypass", "iconUrl": null, "installs": 17, "name": "NotebookLM Auth Bypass", "ownerName": "antaripnandi", "score": 86046.51162790698, "slug": "notebooklm-bypass", "source": "clawhub", "stars": 0, "tags": ["bypass", "notebook", "notebooklm", "notebooklm bypass", "research", "stleath"], "updated_at": 1776749084769, "version": "1.0.6"}, {"category": "content-creation", "created_at": 1772804816540, "description": "Web search and content extraction via Brave Search API. Use for searching documentation, facts, or any web content. Lightweight, no browser required.", "description_zh": "", "downloads": 222, "homepage": "https://clawhub.ai/alexeyvorobiev/alexey-brave-search", "iconUrl": null, "installs": 14, "name": "alexey-brave-search", "ownerName": "alexeyvorobiev", "score": 74000, "slug": "alexey-brave-search", "source": "clawhub", "stars": 0, "tags": null, "updated_at": 1776749084628, "version": "1.0.0"}, {"category": "productivity", "created_at": 1773284741533, "description": "Book Google Meet meetings from the command line.", "description_zh": "", "downloads": 222, "homepage": "https://clawhub.ai/kumadun/book-google-meet", "iconUrl": null, "installs": 8, "name": "Book Google Meet", "ownerName": "kumadun", "score": 87058.82352941176, "slug": "book-google-meet", "source": "clawhub", "stars": 0, "tags": null, "updated_at": 1776749084488, "version": "1.0.4"}, {"category": "data-analysis", "created_at": 1772803964801, "description": "Turn a user shared web link into two Feishu docs: (1) full original text archive with minimal loss and clear source metadata, and (2) structured analysis sum...", "description_zh": "", "downloads": 222, "homepage": "https://clawhub.ai/zhao0112/clawbox", "iconUrl": null, "installs": 13, "name": "clawbox-link-to-docs", "ownerName": "zhao0112", "score": 80727.27272727272, "slug": "clawbox", "source": "clawhub", "stars": 0, "tags": null, "updated_at": 1776749084399, "version": "1.0.0"}, {"category": "security-compliance", "created_at": 1772802324256, "description": "Use when running Outlit CLI commands, setting up Outlit for AI agents, authenticating with Outlit, querying customer data from the terminal, or troubleshooti...", "description_zh": "", "downloads": 222, "homepage": "https://clawhub.ai/rafa-thayto/outlit-cli", "iconUrl": null, "installs": 3, "name": "Outlit Cli", "ownerName": "rafa-thayto", "score": 86381.32295719844, "slug": "outlit-cli", "source": "clawhub", "stars": 0, "tags": null, "updated_at": 1776749084275, "version": "0.1.0"}, {"category": "content-creation", "created_at": 1773069572234, "description": "End-to-end AI UGC video pipeline. Product info → GPT-4o-mini script → ElevenLabs voiceover → Aurora talking head (fal-ai/creatify/aurora) → Kling 2.6 Pro pro...", "description_zh": "", "downloads": 222, "homepage": "https://clawhub.ai/zero2ai-hub/skill-ugc-pipeline", "iconUrl": null, "installs": 31, "name": "AI UGC Video Pipeline", "ownerName": "zero2ai-hub", "score": 88446.21513944223, "slug": "skill-ugc-pipeline", "source": "clawhub", "stars": 0, "tags": null, "updated_at": 1776749084036, "version": "1.2.0"}, {"category": "developer-tools", "created_at": 1773066992903, "description": "Discover and compare the same product across multiple countries and source types (official stores, marketplaces, retailers) using Brave and/or Tavily web sea...", "description_zh": "", "downloads": 222, "homepage": "https://clawhub.ai/wsjwong/global-price-comparison", "iconUrl": null, "installs": 23, "name": "Global Price Comparison", "ownerName": "wsjwong", "score": 89516.12903225806, "slug": "global-price-comparison", "source": "clawhub", "stars": 0, "tags": null, "updated_at": 1776749083887, "version": "1.0.2"}, {"category": "ai-intelligence", "created_at": 1773284662307, "description": "Real-time earthquake monitoring for China, Taiwan, and Japan. CENC/CWA/JMA WebSocket data with proactive alert support.", "description_zh": "", "downloads": 222, "homepage": "https://clawhub.ai/fungjcode/earthquake-monitor", "iconUrl": null, "installs": 17, "name": "Earthquake Monitor", "ownerName": "fungjcode", "score": 86381.32295719844, "slug": "earthquake-monitor", "source": "clawhub", "stars": 0, "tags": null, "updated_at": 1776749083776, "version": "1.0.0"}, {"category": "developer-tools", "created_at": 1773064510211, "description": "Integrate Didit AML Screening standalone API to screen individuals or companies against global watchlists. Use when the user wants to perform AML checks, scr...", "description_zh": "", "downloads": 222, "homepage": "https://clawhub.ai/rosasalberto/didit-aml-screening", "iconUrl": null, "installs": 11, "name": "Didit Aml Screening", "ownerName": "rosasalberto", "score": 86381.32295719844, "slug": "didit-aml-screening", "source": "clawhub", "stars": 0, "tags": null, "updated_at": 1776749083727, "version": "1.1.0"}, {"category": "productivity", "created_at": 1773064787915, "description": "Permissionless DeFi yield and credit on Solana via the Project 0 (P0) protocol. Deposit funds to earn yield across Solana's highest-yielding venues. Borrow s...", "description_zh": "", "downloads": 221, "homepage": "https://clawhub.ai/borcherd/project-0", "iconUrl": null, "installs": 6, "name": "Project 0 - DeFi Native Prime Broker", "ownerName": "borcherd", "score": 12532.501300052001, "slug": "project-0", "source": "clawhub", "stars": 1, "tags": null, "updated_at": 1776764350448, "version": "2.2.6"}, {"category": "data-analysis", "created_at": 1773079328438, "description": "This skill is used to scan any frontend project directory, automatically analyze routing structure and module division, and generate a universal module-page...", "description_zh": "", "downloads": 221, "homepage": "https://clawhub.ai/damutou95/analyze-frontend-structure", "iconUrl": null, "installs": 25, "name": "analyze frontend structure", "ownerName": "damutou95", "score": 87003.61010830326, "slug": "analyze-frontend-structure", "source": "clawhub", "stars": 1, "tags": null, "updated_at": 1776759383107, "version": "1.0.0"}, {"category": "ai-intelligence", "created_at": 1773074289166, "description": "Prevent subagent timeout using checkpoint + cron wake + resume via session spawn mechanism.", "description_zh": "", "downloads": 221, "homepage": "https://clawhub.ai/cong91/smart-wake", "iconUrl": null, "installs": 11, "name": "Smart Wake", "ownerName": "cong91", "score": 42132.86713286713, "slug": "smart-wake", "source": "clawhub", "stars": 1, "tags": null, "updated_at": 1776755288481, "version": "1.0.0"}, {"category": "data-analysis", "created_at": 1772802534058, "description": "Validate JSON data against schemas and compile to binary .grm files. Schema-enforced data contracts for AI agents. Catches missing fields, wrong types, empty...", "description_zh": "", "downloads": 221, "homepage": "https://clawhub.ai/porco-rs/germanic", "iconUrl": null, "installs": 10, "name": "GERMANIC", "ownerName": "porco-rs", "score": 94509.80392156863, "slug": "germanic", "source": "clawhub", "stars": 1, "tags": null, "updated_at": 1776749084487, "version": "0.2.3"}, {"category": "ai-intelligence", "created_at": 1773076344909, "description": "Recruit and orient a new AI agent into Guild KC (Crabla) on the Structs blockchain. Covers why KC, guild signup, substation connection, first mining cycle (m...", "description_zh": "", "downloads": 221, "homepage": "https://clawhub.ai/abstrct/join-crabla", "iconUrl": null, "installs": 16, "name": "Join Crabla", "ownerName": "abstrct", "score": 93774.31906614786, "slug": "join-crabla", "source": "clawhub", "stars": 1, "tags": null, "updated_at": 1776749083722, "version": "1.5.0"}, {"category": "security-compliance", "created_at": 1773065791425, "description": "Audit landing pages for paid traffic quality from Meta (Facebook/Instagram), Google Ads, TikTok Ads, YouTube Ads, Amazon Ads, and Shopify Ads funnels.", "description_zh": "", "downloads": 221, "homepage": "https://clawhub.ai/danyangliu-sandwichlab/landing-page-auditor", "iconUrl": null, "installs": 13, "name": "Ads Landing Page Audit", "ownerName": "danyangliu-sandwichlab", "score": 12030.484485574305, "slug": "landing-page-auditor", "source": "clawhub", "stars": 0, "tags": null, "updated_at": 1776764950126, "version": "1.0.0"}, {"category": "content-creation", "created_at": 1773068364158, "description": "Designs and optimizes system prompts for advisory AI and autonomous agent systems using a three-layer architecture (Foundation → Structure → Execution). Inte...", "description_zh": "", "downloads": 221, "homepage": "https://clawhub.ai/iops/prompt-engineer-agentic", "iconUrl": null, "installs": 18, "name": "Prompt Engineer Agentic", "ownerName": "iops", "score": 12102.957283680176, "slug": "prompt-engineer-agentic", "source": "clawhub", "stars": 0, "tags": null, "updated_at": 1776764950105, "version": "4.1.0"}, {"category": "data-analysis", "created_at": 1773927073438, "description": "Calculates precise Amazon FBA fees, storage, and profit margins for 2026, covering all size tiers and 20+ categories to determine real profitability.", "description_zh": "", "downloads": 221, "homepage": "https://clawhub.ai/avmw2025/amazon-fee-calculator", "iconUrl": null, "installs": 72, "name": "Amazon Fee Calculator", "ownerName": "avmw2025", "score": 3142.7758816837313, "slug": "amazon-fee-calculator", "source": "clawhub", "stars": 0, "tags": null, "updated_at": 1776763450633, "version": "1.0.0"}, {"category": "data-analysis", "created_at": 1773423646476, "description": "Monitor critical processes and auto-restart on failure. Tracks CPU and memory usage, escalates alerts via webhook, callback, or file, and writes a dead man's...", "description_zh": "", "downloads": 221, "homepage": "https://clawhub.ai/theshadowrose/process-guard", "iconUrl": null, "installs": 12, "name": "ProcessGuard — Critical Process Monitor & Auto-Restart", "ownerName": "theshadowrose", "score": 4499.185667752443, "slug": "process-guard", "source": "clawhub", "stars": 0, "tags": ["auto-restart", "devops", "monitor", "process", "process-guard", "reliability", "uptime", "watchdog"], "updated_at": 1776763450175, "version": "2.1.4"}, {"category": "security-compliance", "created_at": 1773221149526, "description": "Collects and summarizes Korean security news hourly from 11 sources using Gemini API, then publishes to Notion and optionally to Tistory blog.", "description_zh": "", "downloads": 221, "homepage": "https://clawhub.ai/rebugui/security-news-feed", "iconUrl": null, "installs": 21, "name": "Security News Feed", "ownerName": "rebugui", "score": 16780.561883067578, "slug": "security-news-feed", "source": "clawhub", "stars": 0, "tags": null, "updated_at": 1776759420898, "version": "1.0.0"}, {"category": "developer-tools", "created_at": 1773065738845, "description": "Query and control Databricks jobs via text by checking status, listing recent runs, finding failures, and triggering pipelines using the REST API.", "description_zh": "", "downloads": 221, "homepage": "https://clawhub.ai/nerikko/databricks-helper", "iconUrl": null, "installs": 10, "name": "databricks-helper", "ownerName": "nerikko", "score": 16780.561883067578, "slug": "databricks-helper", "source": "clawhub", "stars": 0, "tags": null, "updated_at": 1776759420880, "version": "1.1.0"}, {"category": "ai-intelligence", "created_at": 1773082442216, "description": "Autonomously learn, summarize, and integrate complex technical documentation into system memory and rules to optimize AI task workflows.", "description_zh": "", "downloads": 221, "homepage": "https://clawhub.ai/lhwa8685/ai-trainer", "iconUrl": null, "installs": 19, "name": "Ai Trainer", "ownerName": "lhwa8685", "score": 16780.561883067578, "slug": "ai-trainer", "source": "clawhub", "stars": 0, "tags": null, "updated_at": 1776759420622, "version": "1.0.0"}, {"category": "developer-tools", "created_at": 1773068803874, "description": "Autonomously run complex software engineering tasks like bug fixes or feature implementation using the mini-swe-agent CLI with full codebase edits.", "description_zh": "", "downloads": 221, "homepage": "https://clawhub.ai/c1nderscript/mini-swe-agent", "iconUrl": null, "installs": 8, "name": "mini-swe-agent", "ownerName": "c1nderscript", "score": 16742.42424242424, "slug": "mini-swe-agent", "source": "clawhub", "stars": 0, "tags": null, "updated_at": 1776759420555, "version": "1.0.0"}, {"category": "data-analysis", "created_at": 1773076291399, "description": "Manage social media by scheduling posts, viewing analytics, generating AI captions, and listing connected accounts via the SocialRails API.", "description_zh": "", "downloads": 221, "homepage": "https://clawhub.ai/buildsbymatt/socialrails", "iconUrl": null, "installs": 11, "name": "SocialRails", "ownerName": "buildsbymatt", "score": 16780.561883067578, "slug": "socialrails", "source": "clawhub", "stars": 0, "tags": null, "updated_at": 1776759420461, "version": "1.0.0"}]}