{"page": 289, "total_pages": 522, "total": 26073, "skills": [{"category": "data-analysis", "created_at": 1773076064600, "description": "Automate committing Markdown-only changes in a git repo with safe staging, ideal for note snapshots without affecting code or binaries.", "description_zh": "", "downloads": 221, "homepage": "https://clawhub.ai/gleb-urvanov/braingit", "iconUrl": null, "installs": 6, "name": "Braingit", "ownerName": "gleb-urvanov", "score": 89112.90322580645, "slug": "braingit", "source": "clawhub", "stars": 0, "tags": null, "updated_at": 1776759420422, "version": "0.1.2"}, {"category": "ai-intelligence", "created_at": 1773069722704, "description": "Send, receive, manage direct and group messages with Prismer Cloud IM services using polling, webhook, WebSocket, or SSE for real-time communication.", "description_zh": "", "downloads": 221, "homepage": "https://clawhub.ai/ooxxxxoo/agent2agent-instance-message-skill", "iconUrl": null, "installs": 13, "name": "clawim", "ownerName": "ooxxxxoo", "score": 89112.90322580645, "slug": "agent2agent-instance-message-skill", "source": "clawhub", "stars": 0, "tags": null, "updated_at": 1776759420404, "version": "1.0.0"}, {"category": "data-analysis", "created_at": 1773065993879, "description": "Find the best car rental deals with price comparison, alerts, and lease vs rent analysis.", "description_zh": "", "downloads": 221, "homepage": "https://clawhub.ai/ivangdavila/car-rental", "iconUrl": null, "installs": 18, "name": "Car Rental", "ownerName": "ivangdavila", "score": 41698.11320754717, "slug": "car-rental", "source": "clawhub", "stars": 0, "tags": null, "updated_at": 1776754988628, "version": "1.0.0"}, {"category": "developer-tools", "created_at": 1773951614828, "description": "Headless browser automation CLI optimized for AI agents with accessibility tree snapshots and ref-based element selection", "description_zh": "", "downloads": 221, "homepage": "https://clawhub.ai/viv888-ai/clawdbot-agent-browser", "iconUrl": null, "installs": 111, "name": "Clawdbot Agent Browser", "ownerName": "viv888-ai", "score": 11984.815618221257, "slug": "clawdbot-agent-browser", "source": "clawhub", "stars": 0, "tags": null, "updated_at": 1776754688516, "version": "0.1.0"}, {"category": "security-compliance", "created_at": 1773079282352, "description": "Use when optimizing existing Claude skills, checking skill quality, auditing skill compliance, or when skills have obvious issues. Triggers on skill optimiza...", "description_zh": "", "downloads": 221, "homepage": "https://clawhub.ai/acautomata/skill-improvement", "iconUrl": null, "installs": 22, "name": "skill-improvement", "ownerName": "acautomata", "score": 98660.71428571429, "slug": "skill-improvement", "source": "clawhub", "stars": 0, "tags": null, "updated_at": 1776749384831, "version": "1.0.0"}, {"category": "developer-tools", "created_at": 1773075835261, "description": "Search flights, compare prices, and monitor airfare using Amadeus API", "description_zh": "", "downloads": 221, "homepage": "https://clawhub.ai/marcorabelo/flight-search-skill", "iconUrl": null, "installs": 13, "name": "Flight Search", "ownerName": "marcorabelo", "score": 79496.40287769785, "slug": "flight-search-skill", "source": "clawhub", "stars": 0, "tags": null, "updated_at": 1776749085484, "version": "1.0.2"}, {"category": "data-analysis", "created_at": 1773077196423, "description": "Crypto-native Web3 news and flash intelligence from MarsBit through hosted MCP. Use this for L1/L2 ecosystems, DeFi/CeFi, regulation, exchange flows, and mar...", "description_zh": "", "downloads": 221, "homepage": "https://clawhub.ai/domilin/marsbit-crypto-news-skill", "iconUrl": null, "installs": 32, "name": "marsbit-crypto-news-skill", "ownerName": "domilin", "score": 95670.99567099568, "slug": "marsbit-crypto-news-skill", "source": "clawhub", "stars": 0, "tags": null, "updated_at": 1776749085214, "version": "1.0.8"}, {"category": "security-compliance", "created_at": 1772799500880, "description": "Optional helper skill for Boktoshi human /my endpoints that require Firebase ID token auth.", "description_zh": "", "downloads": 221, "homepage": "https://clawhub.ai/rsmfc/boktoshi-human-helper", "iconUrl": null, "installs": 3, "name": "Boktoshi Human /my Helper", "ownerName": "rsmfc", "score": 88400, "slug": "boktoshi-human-helper", "source": "clawhub", "stars": 0, "tags": ["auth", "helper", "human"], "updated_at": 1776749085164, "version": "1.0.0"}, {"category": "developer-tools", "created_at": 1773080170101, "description": "Control OpenCode directly via the Agent Client Protocol (ACP). Start sessions, send prompts, resume conversations, and manage OpenCode updates. Includes auto...", "description_zh": "", "downloads": 221, "homepage": "https://clawhub.ai/studio-hakke/opencode-acp-control-v2", "iconUrl": null, "installs": 10, "name": "OpenCode ACP Control v2", "ownerName": "studio-hakke", "score": 85328.18532818533, "slug": "opencode-acp-control-v2", "source": "clawhub", "stars": 0, "tags": null, "updated_at": 1776749085036, "version": "2.2.1"}, {"category": "developer-tools", "created_at": 1772800874549, "description": "Install, configure, and run NadirClaw LLM router to cut AI API costs by 40-70%. Use when the user wants to reduce LLM spending, route prompts to cheaper mode...", "description_zh": "", "downloads": 221, "homepage": "https://clawhub.ai/doramirdor/nadirclaw", "iconUrl": null, "installs": 6, "name": "NadirClaw", "ownerName": "doramirdor", "score": 88400, "slug": "nadirclaw", "source": "clawhub", "stars": 0, "tags": null, "updated_at": 1776749084982, "version": "1.0.0"}, {"category": "productivity", "created_at": 1773075952894, "description": "Text-to-speech using Kokoro local TTS. Use when the user wants to convert text to audio, read aloud, or generate speech.", "description_zh": "", "downloads": 221, "homepage": "https://clawhub.ai/babysor/speak1", "iconUrl": null, "installs": 5, "name": "speaker-local", "ownerName": "babysor", "score": 88400, "slug": "speak1", "source": "clawhub", "stars": 0, "tags": null, "updated_at": 1776749084937, "version": "1.0.0"}, {"category": "data-analysis", "created_at": 1772799925401, "description": "Analyze the sentiment and emotional tone of text using NLTK and VADER. Use this to gauge user mood, detect urgency, or analyze content tone.", "description_zh": "", "downloads": 221, "homepage": "https://clawhub.ai/numbpill3d/sentinel-mood", "iconUrl": null, "installs": 13, "name": "Sentinel Mood", "ownerName": "numbpill3d", "score": 69936.70886075949, "slug": "sentinel-mood", "source": "clawhub", "stars": 0, "tags": null, "updated_at": 1776749084923, "version": "1.0.0"}, {"category": "communication-collaboration", "created_at": 1773065497719, "description": "Copper CRM integration — manage people, companies, opportunities, projects, tasks, and activities via the Copper REST API. Google Workspace native CRM with r...", "description_zh": "", "downloads": 221, "homepage": "https://clawhub.ai/aiwithabidi/copper", "iconUrl": null, "installs": 6, "name": "Copper", "ownerName": "aiwithabidi", "score": 85658.91472868217, "slug": "copper", "source": "clawhub", "stars": 0, "tags": null, "updated_at": 1776749084745, "version": "1.0.0"}, {"category": "data-analysis", "created_at": 1773082934167, "description": "Run deep research queries using Chonkie DeepResearch. Returns comprehensive research reports with citations — useful for market analysis, competitive intelli...", "description_zh": "", "downloads": 221, "homepage": "https://clawhub.ai/chonknick/chonkie-deepresearch", "iconUrl": null, "installs": 18, "name": "Chonkie DeepResearch", "ownerName": "chonknick", "score": 73666.66666666667, "slug": "chonkie-deepresearch", "source": "clawhub", "stars": 0, "tags": null, "updated_at": 1776749084648, "version": "1.1.0"}, {"category": "developer-tools", "created_at": 1773065797119, "description": "Change OpenClaw's global default AI model in config, save the change, and restart the gateway after explicit confirmation. Before writing default config, fir...", "description_zh": "", "downloads": 221, "homepage": "https://clawhub.ai/winlinvip/llm-switcher", "iconUrl": null, "installs": 4, "name": "LLM Switcher", "ownerName": "winlinvip", "score": 85992.21789883269, "slug": "llm-switcher", "source": "clawhub", "stars": 0, "tags": null, "updated_at": 1776749084321, "version": "1.0.0"}, {"category": "developer-tools", "created_at": 1772799425906, "description": "Discover Spain like a local with specific restaurants, hidden gems, regional tips, and experiences beyond the tourist traps.", "description_zh": "", "downloads": 221, "homepage": "https://clawhub.ai/ivangdavila/spain", "iconUrl": null, "installs": 8, "name": "Spain", "ownerName": "ivangdavila", "score": 85992.21789883269, "slug": "spain", "source": "clawhub", "stars": 0, "tags": null, "updated_at": 1776749084238, "version": "1.0.0"}, {"category": "data-analysis", "created_at": 1773063490825, "description": "Optimize budget pacing and bid strategy for Meta (Facebook/Instagram), Google Ads, TikTok Ads, YouTube Ads, Amazon Ads, and DSP/programmatic auctions.", "description_zh": "", "downloads": 221, "homepage": "https://clawhub.ai/danyangliu-sandwichlab/budget-bidding-optimizer", "iconUrl": null, "installs": 13, "name": "Ads Bid Optimizer", "ownerName": "danyangliu-sandwichlab", "score": 89112.90322580645, "slug": "budget-bidding-optimizer", "source": "clawhub", "stars": 0, "tags": null, "updated_at": 1776749084174, "version": "1.0.0"}, {"category": "developer-tools", "created_at": 1773074881807, "description": "Conversational Compounding Engine — models every bot message as a financial investment that compounds trust, micro-commitments, and conversion momentum over...", "description_zh": "", "downloads": 221, "homepage": "https://clawhub.ai/jcools1977/yield", "iconUrl": null, "installs": 12, "name": "Yield", "ownerName": "jcools1977", "score": 89112.90322580645, "slug": "yield", "source": "clawhub", "stars": 0, "tags": null, "updated_at": 1776749084157, "version": "1.1.0"}, {"category": "developer-tools", "created_at": 1773076789873, "description": "Query, create, and manage Notion databases and pages using the 2025-09-03 API format. Use when: (1) querying or filtering database entries via data_source_id...", "description_zh": "", "downloads": 221, "homepage": "https://clawhub.ai/kai-tw/notion-2025-api", "iconUrl": null, "installs": 21, "name": "Notion 2025 API Skill", "ownerName": "kai-tw", "score": 82462.68656716417, "slug": "notion-2025-api", "source": "clawhub", "stars": 0, "tags": null, "updated_at": 1776749084141, "version": "1.0.1"}, {"category": "content-creation", "created_at": 1772800278942, "description": "Search the web using Cloudsways SmartSearch API. Returns highly relevant results with dynamic summaries, snippets, and optional full-text content. Use when y...", "description_zh": "", "downloads": 221, "homepage": "https://clawhub.ai/prismheart/cloudsway-search-tob-test", "iconUrl": null, "installs": 11, "name": "cloudsway-search-tob", "ownerName": "prismheart", "score": 82462.68656716417, "slug": "cloudsway-search-tob-test", "source": "clawhub", "stars": 0, "tags": null, "updated_at": 1776749084115, "version": "1.0.0"}, {"category": "developer-tools", "created_at": 1773079376587, "description": "Use CodexBar CLI local cost usage to summarize per-model usage for Codex or Claude, including the current (most recent) model or a full model breakdown. Trig...", "description_zh": "", "downloads": 221, "homepage": "https://clawhub.ai/t-atlas/ag-model-usage", "iconUrl": null, "installs": 8, "name": "Ag Model Usage", "ownerName": "t-atlas", "score": 88047.80876494024, "slug": "ag-model-usage", "source": "clawhub", "stars": 0, "tags": null, "updated_at": 1776749084027, "version": "1.0.0"}, {"category": "security-compliance", "created_at": 1772792708944, "description": "Runtime security plugin for AI agents. Provides local-first protection against data exfiltration, credential theft, command injection, and sensitive data lea...", "description_zh": "", "downloads": 221, "homepage": "https://clawhub.ai/thomaslwang/og-openclawguard-test", "iconUrl": null, "installs": 0, "name": "test", "ownerName": "thomaslwang", "score": 85992.21789883269, "slug": "og-openclawguard-test", "source": "clawhub", "stars": 0, "tags": null, "updated_at": 1776749083774, "version": "2.0.2"}, {"category": "developer-tools", "created_at": 1773076755127, "description": "Google Workspace Admin SDK: Manage users, groups, and devices.", "description_zh": "", "downloads": 221, "homepage": "https://clawhub.ai/googleworkspace-bot/gws-admin", "iconUrl": null, "installs": 7, "name": "Gws Admin", "ownerName": "googleworkspace-bot", "score": 85992.21789883269, "slug": "gws-admin", "source": "clawhub", "stars": 0, "tags": null, "updated_at": 1776749083744, "version": "1.0.2"}, {"category": "ai-intelligence", "created_at": 1773219368356, "description": "Access RustChain blockchain wallets and tokens, BoTTube AI video platform features, and Beacon agent communication tools via a unified MCP server.", "description_zh": "", "downloads": 220, "homepage": "https://clawhub.ai/scottcjn/rustchain-mcp", "iconUrl": null, "installs": 38, "name": "RustChain MCP", "ownerName": "scottcjn", "score": 19047.619047619046, "slug": "rustchain-mcp", "source": "clawhub", "stars": 4, "tags": ["agent-economy", "beacon", "bottube", "mcp", "rustchain"], "updated_at": 1776759227586, "version": "0.3.0"}, {"category": "communication-collaboration", "created_at": 1773282805382, "description": "Give agents encrypted private messaging — send, receive, discover, and call other AI agents with post-quantum E2E encryption. No API key needed. Zero config.", "description_zh": "", "downloads": 220, "homepage": "https://clawhub.ai/emperormew/voidly-agent-relay", "iconUrl": null, "installs": 13, "name": "Voidly Agent Relay", "ownerName": "emperormew", "score": 100000, "slug": "voidly-agent-relay", "source": "clawhub", "stars": 3, "tags": ["agent-communication", "agent-relay", "did", "e2e", "encrypted-channels", "encryption", "forward-secrecy", "messaging", "multi-agent", "post-quantum", "privacy", "security", "webhook"], "updated_at": 1776749085777, "version": "1.0.10"}, {"category": "data-analysis", "created_at": 1773088782795, "description": "Image and video analysis powered by Isaac vision models. Capabilities include visual Q&A, object detection, OCR, captioning, counting, and grounded spatial r...", "description_zh": "", "downloads": 220, "homepage": "https://clawhub.ai/subraiz/perceptron", "iconUrl": null, "installs": 23, "name": "Perceptron", "ownerName": "subraiz", "score": 9492.515516611902, "slug": "perceptron", "source": "clawhub", "stars": 2, "tags": null, "updated_at": 1776764950442, "version": "1.0.1"}, {"category": "ai-intelligence", "created_at": 1772802927845, "description": "Archive YouTube playlists into markdown notes with metadata, transcripts, AI summaries, and tags. Use when a user asks to import/sync YouTube playlists, arch...", "description_zh": "", "downloads": 220, "homepage": "https://clawhub.ai/benmillerat/youtube-archiver", "iconUrl": null, "installs": 15, "name": "YouTube Archiver", "ownerName": "benmillerat", "score": 100000, "slug": "youtube-archiver", "source": "clawhub", "stars": 1, "tags": null, "updated_at": 1776749085695, "version": "1.0.0"}, {"category": "content-creation", "created_at": 1773219882618, "description": "Generate and translate video subtitles using WhisperX and LLM translation. Use when processing video files to create .srt subtitle files. Supports multilingu...", "description_zh": "", "downloads": 220, "homepage": "https://clawhub.ai/jianhua-cui/video-subtitle-generator", "iconUrl": null, "installs": 18, "name": "Video Subtitle Generator", "ownerName": "jianhua-cui", "score": 89552.23880597015, "slug": "video-subtitle-generator", "source": "clawhub", "stars": 1, "tags": null, "updated_at": 1776749085546, "version": "1.0.1"}, {"category": "", "created_at": 1774897407001, "description": "AI-powered financial data assistant for stock analysis and global market overview. Combines multiple QVeris data sources (TwelveData, Finnhub, Alpha Vantage,...", "description_zh": "", "downloads": 220, "homepage": "https://clawhub.ai/buxibuxi/qveris-finance", "iconUrl": null, "installs": 32, "name": "Qveris Finance", "ownerName": "buxibuxi", "score": 9900.990099009901, "slug": "qveris-finance", "source": "clawhub", "stars": 0, "tags": null, "updated_at": 1776764949996, "version": "1.1.0"}, {"category": "", "created_at": 1774899258902, "description": "Generate PPT with Baidu AI. Smart template selection based on content.", "description_zh": "", "downloads": 220, "homepage": "https://clawhub.ai/zou-cc/ai-ppt-generator-1-1-4", "iconUrl": null, "installs": 90, "name": "Ai Ppt Generator 1.1.4", "ownerName": "zou-cc", "score": 11982.570806100219, "slug": "ai-ppt-generator-1-1-4", "source": "clawhub", "stars": 0, "tags": null, "updated_at": 1776764949729, "version": "1.0.0"}, {"category": "security-compliance", "created_at": 1773207479759, "description": "Complete insurance and legal claims intelligence system. Trigger whenever someone needs to file, manage, negotiate, or dispute any type of claim: insurance c...", "description_zh": "", "downloads": 220, "homepage": "https://clawhub.ai/duclawbot/claim", "iconUrl": null, "installs": 34, "name": "Claim", "ownerName": "duclawbot", "score": 6332.757628094415, "slug": "claim", "source": "clawhub", "stars": 0, "tags": ["claim", "compensation", "dispute", "insurance", "legal"], "updated_at": 1776762439871, "version": "1.0.0"}, {"category": "data-analysis", "created_at": 1773068553672, "description": "Monitor and research Brazilian Senate legislative activity including bills, agendas, senators, votes, committees, speeches, and mandates via open data API.", "description_zh": "", "downloads": 220, "homepage": "https://clawhub.ai/olegantonov/senado-federal", "iconUrl": null, "installs": 12, "name": "Senado Federal", "ownerName": "olegantonov", "score": 98214.28571428571, "slug": "senado-federal", "source": "clawhub", "stars": 0, "tags": null, "updated_at": 1776759420825, "version": "1.0.0"}, {"category": "security-compliance", "created_at": 1773081002225, "description": "Search and directly download free images, audio, music, sound effects, videos, and 3D models from WebSim's large, auth-free digital asset library.", "description_zh": "", "downloads": 220, "homepage": "https://clawhub.ai/upintheairsheep/open-asset-search", "iconUrl": null, "installs": 12, "name": "OpenAssetSearch", "ownerName": "upintheairsheep", "score": 98214.28571428571, "slug": "open-asset-search", "source": "clawhub", "stars": 0, "tags": null, "updated_at": 1776759420804, "version": "1.0.0"}, {"category": "content-creation", "created_at": 1773081346996, "description": "Crop objects from images using bounding box annotations in COCO, YOLO, VOC, or LabelMe formats with optional padding and batch processing.", "description_zh": "", "downloads": 220, "homepage": "https://clawhub.ai/mingo-318/image-cropper", "iconUrl": null, "installs": 13, "name": "Image Cropper", "ownerName": "mingo-318", "score": 16691.957511380882, "slug": "image-cropper", "source": "clawhub", "stars": 0, "tags": null, "updated_at": 1776759420778, "version": "1.0.0"}, {"category": "ai-intelligence", "created_at": 1773867012901, "description": "Design and run a self-improving AI OS for business with strategic, prioritization, ops, department agents, projects, learning, communication, and metrics lay...", "description_zh": "", "downloads": 220, "homepage": "https://clawhub.ai/miknasbh-stack/miknas-compoundos", "iconUrl": null, "installs": 45, "name": "CompoundOS - AI Operating System", "ownerName": "miknasbh-stack", "score": 16691.957511380882, "slug": "miknas-compoundos", "source": "clawhub", "stars": 0, "tags": null, "updated_at": 1776759420732, "version": "1.0.0"}, {"category": "security-compliance", "created_at": 1773075945920, "description": "Analyzes OpenClaw skills for functionality, security, usability, documentation, maintainability, and best practices to provide quality scores and improvement...", "description_zh": "", "downloads": 220, "homepage": "https://clawhub.ai/codeblackhole1024/skill-analyzer", "iconUrl": null, "installs": 7, "name": "Skill Analyzer", "ownerName": "codeblackhole1024", "score": 16704.631738800304, "slug": "skill-analyzer", "source": "clawhub", "stars": 0, "tags": ["analysis", "quality", "review", "security"], "updated_at": 1776759420714, "version": "0.2.0"}, {"category": "data-analysis", "created_at": 1773285773422, "description": "Access and retrieve biology preprints from bioRxiv by category and date range, including paper metadata without needing authentication.", "description_zh": "", "downloads": 220, "homepage": "https://clawhub.ai/aquaskyline/biorxiv-openclaw-skill", "iconUrl": null, "installs": 31, "name": "bioRxiv access using API with support of time period and category", "ownerName": "aquaskyline", "score": 16666.666666666664, "slug": "biorxiv-openclaw-skill", "source": "clawhub", "stars": 0, "tags": null, "updated_at": 1776759420561, "version": "1.0.0"}, {"category": "ai-intelligence", "created_at": 1773089830650, "description": "Multi search engine integration with 17 engines (8 CN + 9 Global). Supports advanced search operators, time filters, site search, privacy engines, and Wolfra...", "description_zh": "", "downloads": 220, "homepage": "https://clawhub.ai/sonyrw/workspace-main", "iconUrl": null, "installs": 23, "name": "Workspace Main", "ownerName": "sonyrw", "score": 16666.666666666664, "slug": "workspace-main", "source": "clawhub", "stars": 0, "tags": null, "updated_at": 1776759420537, "version": "1.0.0"}, {"category": "ai-intelligence", "created_at": 1773066437054, "description": "Make AI phone calls using ElevenLabs Conversational AI and Twilio.", "description_zh": "", "downloads": 220, "homepage": "https://clawhub.ai/luke-deltadesk/elevenlabs-calls", "iconUrl": null, "installs": 12, "name": "Elevenlabs Calls", "ownerName": "luke-deltadesk", "score": 95238.09523809524, "slug": "elevenlabs-calls", "source": "clawhub", "stars": 0, "tags": null, "updated_at": 1776749404821, "version": "1.0.0"}, {"category": "ai-intelligence", "created_at": 1773065567167, "description": "MidOS — The MCP Knowledge OS. 134 tools for knowledge management, multi-agent orchestration, search, planning, and memory. 670K+ vectors, 46K+ chunks, EUREKA...", "description_zh": "", "downloads": 220, "homepage": "https://clawhub.ai/msruruguay/midos-mcp", "iconUrl": null, "installs": 14, "name": "MidOS MCP — Knowledge OS for AI Agents", "ownerName": "msruruguay", "score": 78571.42857142857, "slug": "midos-mcp", "source": "clawhub", "stars": 0, "tags": ["agents", "knowledge", "mcp", "memory", "planning", "search"], "updated_at": 1776749085775, "version": "1.0.0"}, {"category": "developer-tools", "created_at": 1773066242984, "description": "Search Google programmatically using the Serper.dev API. Returns structured organic results (title, URL, snippet, domain) for any query. Use when you need to...", "description_zh": "", "downloads": 220, "homepage": "https://clawhub.ai/maverick-software/serper-dev", "iconUrl": null, "installs": 21, "name": "Serper Search", "ownerName": "maverick-software", "score": 78571.42857142857, "slug": "serper-dev", "source": "clawhub", "stars": 0, "tags": null, "updated_at": 1776749085755, "version": "1.0.0"}, {"category": "content-creation", "created_at": 1773075781519, "description": "Manage CapRover PaaS instances via API: create/update apps, deploy from Docker image or custom Dockerfile (tar file), configure ports, volumes, env vars, and...", "description_zh": "", "downloads": 220, "homepage": "https://clawhub.ai/guim4dev/caprover-management", "iconUrl": null, "installs": 9, "name": "Caprover Management", "ownerName": "guim4dev", "score": 78571.42857142857, "slug": "caprover-management", "source": "clawhub", "stars": 0, "tags": null, "updated_at": 1776749085752, "version": "1.0.0"}, {"category": "developer-tools", "created_at": 1773076377134, "description": "Ampersend CLI for agent payments", "description_zh": "", "downloads": 220, "homepage": "https://clawhub.ai/matiasedgeandnode/ampersend", "iconUrl": null, "installs": 9, "name": "ampersend", "ownerName": "matiasedgeandnode", "score": 78571.42857142857, "slug": "ampersend", "source": "clawhub", "stars": 0, "tags": null, "updated_at": 1776749085730, "version": "1.0.2"}, {"category": "content-creation", "created_at": 1772803206389, "description": "Test upload skill for validating the clawhub publish workflow with meaningful content.", "description_zh": "", "downloads": 220, "homepage": "https://clawhub.ai/yangdaowan/test-upload-2026", "iconUrl": null, "installs": 10, "name": "Test Upload 2026", "ownerName": "yangdaowan", "score": 78571.42857142857, "slug": "test-upload-2026", "source": "clawhub", "stars": 0, "tags": null, "updated_at": 1776749085724, "version": "1.0.0"}, {"category": "developer-tools", "created_at": 1773283898633, "description": "Search Google Flights for real-time one-way and round-trip flight deals", "description_zh": "", "downloads": 220, "homepage": "https://clawhub.ai/mtnrabi/google-flights-realtime-api", "iconUrl": null, "installs": 15, "name": "Google Flights Realtime API", "ownerName": "mtnrabi", "score": 91666.66666666666, "slug": "google-flights-realtime-api", "source": "clawhub", "stars": 0, "tags": null, "updated_at": 1776749085720, "version": "1.0.4"}, {"category": "developer-tools", "created_at": 1773076625555, "description": "Skill để lấy nội dung từ link bài viết Facebook, viết lại bài theo phong cách phù hợp, tạo ảnh minh họa bằng Gemini, rồi đăng lên Facebook Page qua Graph API...", "description_zh": "", "downloads": 220, "homepage": "https://clawhub.ai/techlaai/techla-fb-repost", "iconUrl": null, "installs": 11, "name": "Techla FB Repost", "ownerName": "techlaai", "score": 91666.66666666666, "slug": "techla-fb-repost", "source": "clawhub", "stars": 0, "tags": null, "updated_at": 1776749085716, "version": "1.0.0"}, {"category": "developer-tools", "created_at": 1773083874734, "description": "OpenClaw Memory-OS - Digital immortality service and cognitive continuity infrastructure for personal memory management", "description_zh": "", "downloads": 220, "homepage": "https://clawhub.ai/zhenstaff/openclaw-memory-os", "iconUrl": null, "installs": 11, "name": "OpenClaw Memory-OS", "ownerName": "zhenstaff", "score": 91666.66666666666, "slug": "openclaw-memory-os", "source": "clawhub", "stars": 0, "tags": ["agent-memory", "ai-memory", "cognitive-continuity", "digital-immortality", "knowledge-management", "memory", "openclaw"], "updated_at": 1776749085666, "version": "0.1.2"}, {"category": "ai-intelligence", "created_at": 1773067736282, "description": "Convert text to speech using MiniMax Speech 2.6 Turbo via WaveSpeed AI. Features ultra-human voice cloning, sub-250ms latency, 40+ languages, emotion control...", "description_zh": "", "downloads": 220, "homepage": "https://clawhub.ai/chengzeyi/wavespeed-minimax-speech-26", "iconUrl": null, "installs": 31, "name": "WaveSpeedAI MiniMax Speech 2.6 TTS", "ownerName": "chengzeyi", "score": 82089.55223880598, "slug": "wavespeed-minimax-speech-26", "source": "clawhub", "stars": 0, "tags": null, "updated_at": 1776749085560, "version": "1.0.0"}, {"category": "ai-intelligence", "created_at": 1772799256036, "description": "Submit agent annotations on protein variants via Clarity Protocol. Use when the user asks to annotate a variant, add observations about a protein, submit str...", "description_zh": "", "downloads": 220, "homepage": "https://clawhub.ai/clarityprotocol/clarity-annotate", "iconUrl": null, "installs": 23, "name": "Clarity Annotate", "ownerName": "clarityprotocol", "score": 79136.69064748201, "slug": "clarity-annotate", "source": "clawhub", "stars": 0, "tags": null, "updated_at": 1776749085481, "version": "1.0.0"}, {"category": "security-compliance", "created_at": 1772803881098, "description": "Uploads a video to YouTube using the official YouTube Data API v3 and OAuth 2.0. Use this skill when the user asks to upload a video to YouTube. It supports...", "description_zh": "", "downloads": 220, "homepage": "https://clawhub.ai/brorlandi/openclaw-youtube-upload", "iconUrl": null, "installs": 10, "name": "OpenClaw YouTube Upload", "ownerName": "brorlandi", "score": 79136.69064748201, "slug": "openclaw-youtube-upload", "source": "clawhub", "stars": 0, "tags": null, "updated_at": 1776749085452, "version": "1.0.0"}]}