{"page": 290, "total_pages": 522, "total": 26073, "skills": [{"category": "security-compliance", "created_at": 1773076385274, "description": "Aster Spot request using the Aster API. Authentication requires API key and secret key (HMAC SHA256). Supports mainnet.", "description_zh": "", "downloads": 220, "homepage": "https://clawhub.ai/yuandiaodiaodiao/aster-spot", "iconUrl": null, "installs": 7, "name": "Aster Spot", "ownerName": "yuandiaodiaodiao", "score": 79136.69064748201, "slug": "aster-spot", "source": "clawhub", "stars": 0, "tags": null, "updated_at": 1776749085425, "version": "0.1.1"}, {"category": "security-compliance", "created_at": 1773060978905, "description": "Multi-agent crypto token intelligence. 6 AI agents independently analyze and debate a token's fundamentals before reaching consensus. Free, no API key needed.", "description_zh": "", "downloads": 220, "homepage": "https://clawhub.ai/vswarm-ai/verdictswarm", "iconUrl": null, "installs": 7, "name": "Verdictswarm", "ownerName": "vswarm-ai", "score": 95238.09523809524, "slug": "verdictswarm", "source": "clawhub", "stars": 0, "tags": ["crypto", "defi", "rug-pull", "security", "solana", "token-analysis"], "updated_at": 1776749085267, "version": "1.0.4"}, {"category": "ai-intelligence", "created_at": 1773883578278, "description": "Manages free AI models from OpenRouter for OpenClaw. Automatically ranks models by quality, configures fallbacks for rate-limit handling, and updates opencla...", "description_zh": "", "downloads": 220, "homepage": "https://clawhub.ai/taron-ai/free-ride-1-0-4", "iconUrl": null, "installs": 88, "name": "Free Ride 1.0.4", "ownerName": "taron-ai", "score": 95238.09523809524, "slug": "free-ride-1-0-4", "source": "clawhub", "stars": 0, "tags": null, "updated_at": 1776749085257, "version": "1.0.0"}, {"category": "content-creation", "created_at": 1773077085492, "description": "Detects liveness from a single selfie image via the Didit standalone API. Use when checking if a person is physically present, detecting spoofing or presenta...", "description_zh": "", "downloads": 220, "homepage": "https://clawhub.ai/rosasalberto/didit-liveness-detection", "iconUrl": null, "installs": 12, "name": "Didit Liveness Detection", "ownerName": "rosasalberto", "score": 84942.08494208494, "slug": "didit-liveness-detection", "source": "clawhub", "stars": 0, "tags": null, "updated_at": 1776749085097, "version": "1.2.0"}, {"category": "developer-tools", "created_at": 1773067850802, "description": "Ask questions and read documentation about any GitHub repository using DeepWiki MCP. Use when you need to understand a codebase, find specific APIs, or get c...", "description_zh": "", "downloads": 220, "homepage": "https://clawhub.ai/jolestar/deepwiki-mcp-skill", "iconUrl": null, "installs": 17, "name": "DeepWiki MCP Skill", "ownerName": "jolestar", "score": 88000, "slug": "deepwiki-mcp-skill", "source": "clawhub", "stars": 0, "tags": null, "updated_at": 1776749085015, "version": "1.0.0"}, {"category": "productivity", "created_at": 1772798499709, "description": "Submit a protein variant hypothesis to Clarity Protocol for validation and folding. Use when the user asks to submit a hypothesis, propose a protein variant,...", "description_zh": "", "downloads": 220, "homepage": "https://clawhub.ai/clarityprotocol/clarity-submit", "iconUrl": null, "installs": 8, "name": "Clarity Submit", "ownerName": "clarityprotocol", "score": 88000, "slug": "clarity-submit", "source": "clawhub", "stars": 0, "tags": null, "updated_at": 1776749084951, "version": "1.0.0"}, {"category": "data-analysis", "created_at": 1773076014082, "description": "Bitcoin Lightning wallet for agents — balances, invoices, payments, BTC/USD swaps, QR codes, price conversion, and transaction history via the Blink API. All...", "description_zh": "", "downloads": 219, "homepage": "https://clawhub.ai/pretyflaco/blink", "iconUrl": null, "installs": 16, "name": "Blink", "ownerName": "pretyflaco", "score": 95983.93574297188, "slug": "blink", "source": "clawhub", "stars": 1, "tags": null, "updated_at": 1776749085275, "version": "1.3.0"}, {"category": "ai-intelligence", "created_at": 1773075789871, "description": "ClawPlay — AI agent games on clawplay.fun. Currently features No-Limit Hold'em poker.", "description_zh": "", "downloads": 219, "homepage": "https://clawhub.ai/modeoc/clawplay", "iconUrl": null, "installs": 4, "name": "ClawPlay", "ownerName": "modeoc", "score": 12207.357859531772, "slug": "clawplay", "source": "clawhub", "stars": 0, "tags": null, "updated_at": 1776764990504, "version": "1.4.2"}, {"category": "content-creation", "created_at": 1773431102351, "description": "Project-specific guidance for building a persistent girlfriend selfie workflow on top of WeShop image agents. Use when the user needs to set up a girlfriend...", "description_zh": "", "downloads": 219, "homepage": "https://clawhub.ai/whbzju/openclaw-weshopai-aiphotoshoot", "iconUrl": null, "installs": 67, "name": "OpenClaw WeShop AI Photoshoot", "ownerName": "whbzju", "score": 8208.39580209895, "slug": "openclaw-weshopai-aiphotoshoot", "source": "clawhub", "stars": 0, "tags": null, "updated_at": 1776763750770, "version": "1.0.0"}, {"category": "developer-tools", "created_at": 1773219555342, "description": "Operate Binance Spot market, account, and order APIs through UXC with a curated OpenAPI schema, Binance query signing, and separate mainnet/testnet link flows.", "description_zh": "", "downloads": 219, "homepage": "https://clawhub.ai/jolestar/binance-spot-openapi-skill", "iconUrl": null, "installs": 13, "name": "Binance Spot OpenAPI Skill", "ownerName": "jolestar", "score": 5677.988073632357, "slug": "binance-spot-openapi-skill", "source": "clawhub", "stars": 0, "tags": null, "updated_at": 1776762850427, "version": "1.0.1"}, {"category": "ai-intelligence", "created_at": 1773430750093, "description": "Evolve an existing repository toward Harness Engineering by making it more legible to agents, moving critical knowledge into repo-local artifacts, adding pre...", "description_zh": "", "downloads": 219, "homepage": "https://clawhub.ai/doanbactam/harness-engineering", "iconUrl": null, "installs": 55, "name": "harness-engineering", "ownerName": "doanbactam", "score": 3113.448962183679, "slug": "harness-engineering", "source": "clawhub", "stars": 0, "tags": null, "updated_at": 1776762850195, "version": "1.0.0"}, {"category": "", "created_at": 1774922424758, "description": "Facilitates structured ideation sessions for features, products, content, and strategy. Use when: (1) planning new features, (2) exploring product directions...", "description_zh": "", "downloads": 219, "homepage": "https://clawhub.ai/arn0ld87/brainstorming-pro", "iconUrl": null, "installs": 33, "name": "Brainstorming Pro", "ownerName": "arn0ld87", "score": 7525.773195876288, "slug": "brainstorming-pro", "source": "clawhub", "stars": 0, "tags": null, "updated_at": 1776761840073, "version": "1.0.0"}, {"category": "developer-tools", "created_at": 1773073842524, "description": "Cognitive immune system for AI agents. Predicts and prevents failures BEFORE they happen using adversarial pre-execution reasoning. Zero dependencies, zero c...", "description_zh": "", "downloads": 219, "homepage": "https://clawhub.ai/jcools1977/premortem", "iconUrl": null, "installs": 10, "name": "Premortem", "ownerName": "jcools1977", "score": 7261.273209549071, "slug": "premortem", "source": "clawhub", "stars": 0, "tags": null, "updated_at": 1776761690301, "version": "1.0.0"}, {"category": "content-creation", "created_at": 1773082795821, "description": "YouTube video search, download, subtitles & audio extraction. 40 Stars! Full yt-dlp wrapper. Each call charges 0.001 USDT via SkillPay.", "description_zh": "", "downloads": 219, "homepage": "https://clawhub.ai/mosonchan2023/yt-dlp-pro", "iconUrl": null, "installs": 54, "name": "Yt Dlp Pro", "ownerName": "mosonchan2023", "score": 7014.734144778988, "slug": "yt-dlp-pro", "source": "clawhub", "stars": 0, "tags": null, "updated_at": 1776761445474, "version": "1.0.1"}, {"category": "developer-tools", "created_at": 1773076302010, "description": "Hermetic divination CLI: astrology (natal, transits, electional, returns, synastry), tarot (cryptographic random), gematria (Hebrew/Greek/English), numerolog...", "description_zh": "", "downloads": 219, "homepage": "https://clawhub.ai/aklo360/thoth-cli", "iconUrl": null, "installs": 21, "name": "thoth-cli", "ownerName": "aklo360", "score": 17478.0526735834, "slug": "thoth-cli", "source": "clawhub", "stars": 0, "tags": null, "updated_at": 1776760131629, "version": "0.2.27"}, {"category": "productivity", "created_at": 1773077725074, "description": "Autonomously create an EVM wallet, mint BAP-578 NFT, register ERC-8004 passport, launch a token on Four.Meme, and post on BapBook.", "description_zh": "", "downloads": 219, "homepage": "https://clawhub.ai/whale-professor/bap-578-baptism", "iconUrl": null, "installs": 8, "name": "BAP-578 BAP-tism", "ownerName": "whale-professor", "score": 16628.70159453303, "slug": "bap-578-baptism", "source": "clawhub", "stars": 0, "tags": null, "updated_at": 1776759420920, "version": "1.0.0"}, {"category": "ai-intelligence", "created_at": 1773078949824, "description": "Register and manage an automated agent wallet to create, join, bet 1 USDC, play, and settle real-time turn-based games on the Bout.Network protocol.", "description_zh": "", "downloads": 219, "homepage": "https://clawhub.ai/hellojun/boutnetwork", "iconUrl": null, "installs": 16, "name": "Bout.Network", "ownerName": "hellojun", "score": 16616.08497723824, "slug": "boutnetwork", "source": "clawhub", "stars": 0, "tags": null, "updated_at": 1776759420763, "version": "1.0.0"}, {"category": "data-analysis", "created_at": 1773081081300, "description": "Zero-token real-time Discord monitoring dashboard for OpenClaw. Displays system health, cron jobs, sessions, and performance analytics via persistent Discord...", "description_zh": "", "downloads": 219, "homepage": "https://clawhub.ai/keylimesoda/tommy-monitoring-dashboard", "iconUrl": null, "installs": 16, "name": "Live Monitoring Dashboard", "ownerName": "keylimesoda", "score": 16616.08497723824, "slug": "tommy-monitoring-dashboard", "source": "clawhub", "stars": 0, "tags": null, "updated_at": 1776759420761, "version": "2.0.0"}, {"category": "security-compliance", "created_at": 1773089585389, "description": "Audit-grade token and cost ledger for OpenClaw. Use when you need to (1) record every model call’s usage (input/output/cache read/cache write/cost) into SQLi...", "description_zh": "", "downloads": 219, "homepage": "https://clawhub.ai/jonathanjing/token-ledger", "iconUrl": null, "installs": 9, "name": "Token Ledger (SQLite)", "ownerName": "jonathanjing", "score": 16628.70159453303, "slug": "token-ledger", "source": "clawhub", "stars": 0, "tags": null, "updated_at": 1776759420712, "version": "0.1.0"}, {"category": "data-analysis", "created_at": 1773089540088, "description": "Runs a patched Bitcoin Core node with built-in CPU mining, supporting configurable CPU usage, thread count, and automated secure updates.", "description_zh": "", "downloads": 219, "homepage": "https://clawhub.ai/happybigmtn/rbtc", "iconUrl": null, "installs": 17, "name": "rBTC Miner", "ownerName": "happybigmtn", "score": 16590.909090909092, "slug": "rbtc", "source": "clawhub", "stars": 0, "tags": null, "updated_at": 1776759420576, "version": "1.0.0"}, {"category": "developer-tools", "created_at": 1773078669031, "description": "Bridge OpenClaw to a remote Studio Agent over WebSocket using a local JSONL proxy CLI (streaming, stop, multi-turn). Prefer this for ClickZetta Studio and La...", "description_zh": "", "downloads": 219, "homepage": "https://clawhub.ai/luketalent/cz-studoio-agent", "iconUrl": null, "installs": 10, "name": "cz-studio-agent", "ownerName": "luketalent", "score": 16590.909090909092, "slug": "cz-studoio-agent", "source": "clawhub", "stars": 0, "tags": null, "updated_at": 1776759420572, "version": "1.0.0"}, {"category": "communication-collaboration", "created_at": 1773064519939, "description": "Manage Discord task-center forums by creating task threads with tags, archiving tasks by updating tags, and following model tag settings per thread.", "description_zh": "", "downloads": 219, "homepage": "https://clawhub.ai/nannyu/discord-task-center", "iconUrl": null, "installs": 6, "name": "Discord Task Center", "ownerName": "nannyu", "score": 16628.70159453303, "slug": "discord-task-center", "source": "clawhub", "stars": 0, "tags": null, "updated_at": 1776759420531, "version": "1.0.0"}, {"category": "data-analysis", "created_at": 1773082705829, "description": "Monitor and discover popular skills across platforms with daily reports, analytics, usage flowcharts, and multi-channel notifications.", "description_zh": "", "downloads": 219, "homepage": "https://clawhub.ai/zhdryanchang/skill-discovery-monitor", "iconUrl": null, "installs": 19, "name": "Skill Discovery Monitor", "ownerName": "zhdryanchang", "score": 16628.70159453303, "slug": "skill-discovery-monitor", "source": "clawhub", "stars": 0, "tags": null, "updated_at": 1776759420529, "version": "1.0.0"}, {"category": "productivity", "created_at": 1773089521942, "description": "Manage local and cloud backups with listing, creating, restoring, scheduling, and monitoring using Time Machine, rsync, cron, and rclone integration.", "description_zh": "", "downloads": 219, "homepage": "https://clawhub.ai/ppopen/openclaw-skill-backup-manager", "iconUrl": null, "installs": 10, "name": "Backup Manager", "ownerName": "ppopen", "score": 88306.45161290323, "slug": "openclaw-skill-backup-manager", "source": "clawhub", "stars": 0, "tags": null, "updated_at": 1776759420394, "version": "1.0.0"}, {"category": "developer-tools", "created_at": 1773076956608, "description": "The disciplined framework for low-capital, high-leverage strategy validation. Test 50x strategies with pennies, not paychecks.", "description_zh": "", "downloads": 219, "homepage": "https://clawhub.ai/tmstudio667-commits/micro-snowball", "iconUrl": null, "installs": 12, "name": "Micro-Snowball", "ownerName": "tmstudio667-commits", "score": 100000, "slug": "micro-snowball", "source": "clawhub", "stars": 0, "tags": ["crypto", "futures", "testing"], "updated_at": 1776749404888, "version": "1.0.0"}, {"category": "communication-collaboration", "created_at": 1773076104039, "description": "How to join, participate in, and leave group conversations on messaging platforms (WhatsApp, Signal, Telegram, etc.). Use when the owner tags the agent into...", "description_zh": "", "downloads": 219, "homepage": "https://clawhub.ai/seanblanchfield/chat-group-behavior", "iconUrl": null, "installs": 7, "name": "Chat Group Behavior", "ownerName": "seanblanchfield", "score": 78214.28571428571, "slug": "chat-group-behavior", "source": "clawhub", "stars": 0, "tags": null, "updated_at": 1776749085780, "version": "1.0.0"}, {"category": "data-analysis", "created_at": 1773076766129, "description": "Women's cycle intelligence companion. Reads Whoop biometric data (HRV, recovery, sleep, skin temperature) and menstrual cycle phase to understand which hormo...", "description_zh": "", "downloads": 219, "homepage": "https://clawhub.ai/gloria-zhang1/hercycle", "iconUrl": null, "installs": 10, "name": "HerCycle", "ownerName": "gloria-zhang1", "score": 78214.28571428571, "slug": "hercycle", "source": "clawhub", "stars": 0, "tags": ["biometric", "cycle", "health", "hormonal", "whoop", "women"], "updated_at": 1776749085773, "version": "1.0.0"}, {"category": "developer-tools", "created_at": 1773065035041, "description": "Use when executing implementation plans with independent tasks in the current session. Features domain-specialist routing, independent verification gates, an...", "description_zh": "", "downloads": 219, "homepage": "https://clawhub.ai/forestwolf713/subagent-driven-development-3", "iconUrl": null, "installs": 5, "name": "Subagent Driven Development", "ownerName": "forestwolf713", "score": 78214.28571428571, "slug": "subagent-driven-development-3", "source": "clawhub", "stars": 0, "tags": null, "updated_at": 1776749085750, "version": "0.1.0"}, {"category": "ai-intelligence", "created_at": 1773064896996, "description": "Change eye colors in photos using each::sense AI. Transform natural eye colors, create fantasy effects, heterochromia, glowing eyes, and more with realistic...", "description_zh": "", "downloads": 219, "homepage": "https://clawhub.ai/eftalyurtseven/eye-color-changer", "iconUrl": null, "installs": 21, "name": "Eye Color Changer", "ownerName": "eftalyurtseven", "score": 78214.28571428571, "slug": "eye-color-changer", "source": "clawhub", "stars": 0, "tags": null, "updated_at": 1776749085738, "version": "1.0.0"}, {"category": "data-analysis", "created_at": 1772804333188, "description": "Integrates overstory Claude Code agent swarm with nanobot orchestrator. Manages agent lifecycle, SQLite mail bridge, and git worktree coordination.", "description_zh": "", "downloads": 219, "homepage": "https://clawhub.ai/runeweaverstudios/overstory-integration", "iconUrl": null, "installs": 8, "name": "Overstory Integration", "ownerName": "runeweaverstudios", "score": 78214.28571428571, "slug": "overstory-integration", "source": "clawhub", "stars": 0, "tags": null, "updated_at": 1776749085736, "version": "1.0.0"}, {"category": "content-creation", "created_at": 1772805428411, "description": "each::sense is the intelligent layer for generative media. A unified AI agent that generates marketing assets, ads, product images, videos, and creative cont...", "description_zh": "", "downloads": 219, "homepage": "https://clawhub.ai/eftalyurtseven/each-sense", "iconUrl": null, "installs": 18, "name": "Each Sense", "ownerName": "eftalyurtseven", "score": 81111.11111111111, "slug": "each-sense", "source": "clawhub", "stars": 0, "tags": null, "updated_at": 1776749085499, "version": "1.0.0"}, {"category": "ai-intelligence", "created_at": 1773220911807, "description": "Create and maintain the marketing context document that all marketing skills read before starting. Use when the user mentions 'marketing context,' 'brand voi...", "description_zh": "", "downloads": 219, "homepage": "https://clawhub.ai/alirezarezvani/marketing-context", "iconUrl": null, "installs": 26, "name": "marketing-context", "ownerName": "alirezarezvani", "score": 81111.11111111111, "slug": "marketing-context", "source": "clawhub", "stars": 0, "tags": null, "updated_at": 1776749085494, "version": "2.1.1"}, {"category": "developer-tools", "created_at": 1773089100934, "description": "Social intelligence for agents. Maintains a per-person network graph with trust levels, topic boundaries, and sharing rules. Tracks what has been shared with...", "description_zh": "", "downloads": 219, "homepage": "https://clawhub.ai/mculp/social-graph", "iconUrl": null, "installs": 8, "name": "Social Graph", "ownerName": "mculp", "score": 94805.1948051948, "slug": "social-graph", "source": "clawhub", "stars": 0, "tags": null, "updated_at": 1776749085270, "version": "1.0.0"}, {"category": "developer-tools", "created_at": 1773067857429, "description": "Document processing via DocStream API — text extraction, summarization, format conversion, PDF parsing. Use when user needs to extract text from documents, s...", "description_zh": "", "downloads": 219, "homepage": "https://clawhub.ai/jbennett111/docstream", "iconUrl": null, "installs": 15, "name": "DocStream", "ownerName": "jbennett111", "score": 94805.1948051948, "slug": "docstream", "source": "clawhub", "stars": 0, "tags": null, "updated_at": 1776749085262, "version": "1.0.0"}, {"category": "data-analysis", "created_at": 1773066557235, "description": "Scrape Google search results (SERP) for SEO analysis, keyword tracking, and competitive intelligence. Extract organic results, featured snippets, People Also...", "description_zh": "", "downloads": 219, "homepage": "https://clawhub.ai/luis2404123/serp-scraper", "iconUrl": null, "installs": 12, "name": "SERP Scraper", "ownerName": "luis2404123", "score": 94805.1948051948, "slug": "serp-scraper", "source": "clawhub", "stars": 0, "tags": null, "updated_at": 1776749085236, "version": "1.0.0"}, {"category": "security-compliance", "created_at": 1773075588348, "description": "Security-first skill vetting for AI agents. Use before installing any skill from ClawdHub, GitHub, or other sources. Checks for red flags, permission scope,...", "description_zh": "", "downloads": 219, "homepage": "https://clawhub.ai/ttttstc/skill-safety-verifier", "iconUrl": null, "installs": 3, "name": "Skill Safety Verifier", "ownerName": "ttttstc", "score": 94805.1948051948, "slug": "skill-safety-verifier", "source": "clawhub", "stars": 0, "tags": null, "updated_at": 1776749085226, "version": "0.1.1"}, {"category": "ai-intelligence", "created_at": 1773068834501, "description": "OpenProse VM skill pack. Activate on any `prose` command, .prose files, or OpenProse mentions; orchestrates multi-agent workflows.", "description_zh": "", "downloads": 219, "homepage": "https://clawhub.ai/simbabuddy/open-prose", "iconUrl": null, "installs": 16, "name": "OpenProse", "ownerName": "simbabuddy", "score": 84555.98455598456, "slug": "open-prose", "source": "clawhub", "stars": 0, "tags": null, "updated_at": 1776749085072, "version": "1.0.0"}, {"category": "developer-tools", "created_at": 1772799606480, "description": "Simplified man pages from tldr-pages. Use this to quickly understand CLI tools.", "description_zh": "", "downloads": 219, "homepage": "https://clawhub.ai/liuji10000qian-svg/tldr-xiaren-test", "iconUrl": null, "installs": 1, "name": "tldr", "ownerName": "liuji10000qian-svg", "score": 87600, "slug": "tldr-xiaren-test", "source": "clawhub", "stars": 0, "tags": ["test"], "updated_at": 1776749084940, "version": "0.1.0"}, {"category": "productivity", "created_at": 1773077481784, "description": "Set up debugging for vvvv gamma C# node projects -- generate VS Code launch.json and tasks.json configurations, attach debugger to running vvvv, configure Vi...", "description_zh": "", "downloads": 219, "homepage": "https://clawhub.ai/tebjan/vvvv-debugging", "iconUrl": null, "installs": 29, "name": "Vvvv Debugging", "ownerName": "tebjan", "score": 69303.79746835443, "slug": "vvvv-debugging", "source": "clawhub", "stars": 0, "tags": null, "updated_at": 1776749084883, "version": "1.0.1"}, {"category": "data-analysis", "created_at": 1773069321244, "description": "Meta-skill that unlocks emergent capabilities by combining your agent's installed skills in non-obvious ways. Use this skill whenever your agent faces a comp...", "description_zh": "", "downloads": 218, "homepage": "https://clawhub.ai/georges91560/skill-combinator", "iconUrl": null, "installs": 10, "name": "Skill Combinator — Emergent Capabilities Engine", "ownerName": "georges91560", "score": 403.6566543986703, "slug": "skill-combinator", "source": "clawhub", "stars": 1, "tags": ["#skills #meta-skill #automation #agent #ai #productivity  #emergent #multi-skill #combinations #openclaw"], "updated_at": 1776770350156, "version": "1.0.2"}, {"category": "data-analysis", "created_at": 1773076333525, "description": "Guide users through a 7-day learning journey graduation by analyzing progress, identifying agent archetype, celebrating achievements, and planning personaliz...", "description_zh": "", "downloads": 218, "homepage": "https://clawhub.ai/calvinxhk/botlearn-graduate", "iconUrl": null, "installs": 11, "name": "botlearn-graduate", "ownerName": "calvinxhk", "score": 17867.867867867866, "slug": "botlearn-graduate", "source": "clawhub", "stars": 1, "tags": null, "updated_at": 1776759382603, "version": "1.0.0"}, {"category": "developer-tools", "created_at": 1773074718267, "description": "Download wallpapers in batch from wallhaven.cc via API v1 with flexible query parameters (q, categories, purity, sorting, order, topRange, atleast, resolutio...", "description_zh": "", "downloads": 218, "homepage": "https://clawhub.ai/jingyuan9527/wallhaven-downloader", "iconUrl": null, "installs": 10, "name": "Wallhaven Downloader", "ownerName": "jingyuan9527", "score": 100000, "slug": "wallhaven-downloader", "source": "clawhub", "stars": 1, "tags": null, "updated_at": 1776749385085, "version": "0.1.3"}, {"category": "data-analysis", "created_at": 1773065683477, "description": "Instantly find the best AI agent skills, tools, and capabilities from across the entire web.", "description_zh": "", "downloads": 218, "homepage": "https://clawhub.ai/h4gen/skills-search-fts", "iconUrl": null, "installs": 15, "name": "Global Skills Search", "ownerName": "h4gen", "score": 85000, "slug": "skills-search-fts", "source": "clawhub", "stars": 1, "tags": null, "updated_at": 1776749085757, "version": "1.0.7"}, {"category": "developer-tools", "created_at": 1773076673244, "description": "Buy and sell tasks, data, APIs, and models with other AI agents on the machins autonomous marketplace. Escrow-protected trades with credits.", "description_zh": "", "downloads": 218, "homepage": "https://clawhub.ai/denizozzgur/machins", "iconUrl": null, "installs": 6, "name": "#1 Agent-to-Agent Marketplace", "ownerName": "denizozzgur", "score": 95582.32931726908, "slug": "machins", "source": "clawhub", "stars": 1, "tags": null, "updated_at": 1776749085384, "version": "1.0.1"}, {"category": "security-compliance", "created_at": 1773083305966, "description": "Security audit gate — scans agent skills for malware, prompt injection, and data exfiltration before installation", "description_zh": "", "downloads": 218, "homepage": "https://clawhub.ai/alikayhan/safuclaw", "iconUrl": null, "installs": 6, "name": "Safuclaw — Scan Skills Before You Install", "ownerName": "alikayhan", "score": 95582.32931726908, "slug": "safuclaw", "source": "clawhub", "stars": 1, "tags": null, "updated_at": 1776749085293, "version": "0.1.3"}, {"category": "data-analysis", "created_at": 1773090545713, "description": "Comprehensive Feishu/Lark integration skill for OpenClaw. Covers messaging, group management, Bitable (multi-dimensional tables), documents, calendar, video...", "description_zh": "", "downloads": 218, "homepage": "https://clawhub.ai/lucascheung/lark-mcp", "iconUrl": null, "installs": 13, "name": "Lark", "ownerName": "lucascheung", "score": 2549.11131898971, "slug": "lark-mcp", "source": "clawhub", "stars": 0, "tags": null, "updated_at": 1776766149801, "version": "1.0.1"}, {"category": "ai-intelligence", "created_at": 1773082522201, "description": "Diagnose and optimize full conversion funnels for paid traffic from Meta (Facebook/Instagram), Google Ads, TikTok Ads, YouTube Ads, Amazon Ads, and Shopify A...", "description_zh": "", "downloads": 218, "homepage": "https://clawhub.ai/danyangliu-sandwichlab/funnel-ads-helper", "iconUrl": null, "installs": 34, "name": "Funnel Helper", "ownerName": "danyangliu-sandwichlab", "score": 12564.841498559079, "slug": "funnel-ads-helper", "source": "clawhub", "stars": 0, "tags": null, "updated_at": 1776765550244, "version": "1.0.0"}, {"category": "developer-tools", "created_at": 1773078965164, "description": "A mystical fortune-teller that reads your codebase's future using real metrics disguised as prophecies. Tarot-style readings, crystal ball predictions, and z...", "description_zh": "", "downloads": 218, "homepage": "https://clawhub.ai/jcools1977/code-oracle", "iconUrl": null, "installs": 24, "name": "Code Oracle", "ownerName": "jcools1977", "score": 2574.7017833943546, "slug": "code-oracle", "source": "clawhub", "stars": 0, "tags": null, "updated_at": 1776765250504, "version": "1.0.0"}, {"category": "", "created_at": 1774924898003, "description": "Tarot card reading expert system for single card interpretation, spread readings, relationship guidance, and social media content creation. Use when user men...", "description_zh": "", "downloads": 218, "homepage": "https://clawhub.ai/luoboask/tarot-master", "iconUrl": null, "installs": 11, "name": "Tarot Master", "ownerName": "luoboask", "score": 5050.97312326228, "slug": "tarot-master", "source": "clawhub", "stars": 0, "tags": null, "updated_at": 1776765249926, "version": "1.0.0"}, {"category": "", "created_at": 1774796207925, "description": "Create PowerPoint presentations (PPTX) using Python and python-pptx. Handles timelines, charts, diagrams, slide layouts, custom colors, shapes, connectors, t...", "description_zh": "", "downloads": 218, "homepage": "https://clawhub.ai/scottliu007/create-pptx", "iconUrl": null, "installs": 89, "name": "create-pptx", "ownerName": "scottliu007", "score": 9441.316587267214, "slug": "create-pptx", "source": "clawhub", "stars": 0, "tags": null, "updated_at": 1776764950815, "version": "1.0.0"}]}