{"page": 291, "total_pages": 522, "total": 26073, "skills": [{"category": "data-analysis", "created_at": 1773076778572, "description": "Track daily caloric intake by sending food photos. Luna analyzes images using vision AI, estimates calories and macros, and stores everything in memory for d...", "description_zh": "", "downloads": 218, "homepage": "https://clawhub.ai/sidneyschwartz/luna-calorie-tracker", "iconUrl": null, "installs": 16, "name": "Luna Calorie Tracker", "ownerName": "sidneyschwartz", "score": 3686.16841393304, "slug": "luna-calorie-tracker", "source": "clawhub", "stars": 0, "tags": null, "updated_at": 1776763150302, "version": "1.0.0"}, {"category": "productivity", "created_at": 1773286281575, "description": "Cross-platform local printer CLI - Manage and print to local printers (Windows/macOS/Linux) via the printer-ai CLI. Use when the user needs to print files, q...", "description_zh": "", "downloads": 218, "homepage": "https://clawhub.ai/nullying/printer-ai-skills", "iconUrl": null, "installs": 28, "name": "Printer Ai", "ownerName": "nullying", "score": 8667.992047713717, "slug": "printer-ai-skills", "source": "clawhub", "stars": 0, "tags": null, "updated_at": 1776762440125, "version": "0.1.1"}, {"category": "productivity", "created_at": 1773063864297, "description": "Query system information including OS, CPU, memory, and disk usage. Use when users ask about system configuration, resource usage, performance diagnostics, o...", "description_zh": "", "downloads": 218, "homepage": "https://clawhub.ai/liujintao-2021/system-info-skill", "iconUrl": null, "installs": 7, "name": "system-info-skill", "ownerName": "liujintao-2021", "score": 16540.2124430956, "slug": "system-info-skill", "source": "clawhub", "stars": 0, "tags": null, "updated_at": 1776759420777, "version": "1.0.2"}, {"category": "developer-tools", "created_at": 1772805531137, "description": "Expertise en gestion complète des centres sociaux français : cadre réglementaire, agrément CAF, pilotage, outils SENACS, financements, fédération et rédactio...", "description_zh": "", "downloads": 218, "homepage": "https://clawhub.ai/thibautnext/centres-sociaux", "iconUrl": null, "installs": 8, "name": "Centres Sociaux", "ownerName": "thibautnext", "score": 16540.2124430956, "slug": "centres-sociaux", "source": "clawhub", "stars": 0, "tags": null, "updated_at": 1776759420772, "version": "1.0.0"}, {"category": "security-compliance", "created_at": 1773078352217, "description": "Parse \"Roty input\" messages from authorized Telegram users to create Roty tiffin orders via HTTPS POST without UI automation.", "description_zh": "", "downloads": 218, "homepage": "https://clawhub.ai/horngtan/add-tiffin-order-roty-input", "iconUrl": null, "installs": 12, "name": "Roty Tiffin Skill", "ownerName": "horngtan", "score": 16552.771450265755, "slug": "add-tiffin-order-roty-input", "source": "clawhub", "stars": 0, "tags": null, "updated_at": 1776759420692, "version": "0.1.0"}, {"category": "productivity", "created_at": 1773068765798, "description": "Manage shopping cart operations via n8n webhook integration", "description_zh": "", "downloads": 218, "homepage": "https://clawhub.ai/haresh-sai06/haresh-cart-management", "iconUrl": null, "installs": 7, "name": "Haresh Cart Management", "ownerName": "haresh-sai06", "score": 16552.771450265755, "slug": "haresh-cart-management", "source": "clawhub", "stars": 0, "tags": null, "updated_at": 1776759420679, "version": "1.0.1"}, {"category": "developer-tools", "created_at": 1773218643664, "description": "The Autonomous Construction and Synthesis Engine. Standardizing the process of turning abstract intent into concrete digital and physical structures.", "description_zh": "", "downloads": 218, "homepage": "https://clawhub.ai/agimodel/build", "iconUrl": null, "installs": 3, "name": "Build", "ownerName": "agimodel", "score": 16515.151515151516, "slug": "build", "source": "clawhub", "stars": 0, "tags": ["agistack", "build", "create", "dev", "structure"], "updated_at": 1776759420600, "version": "1.0.0"}, {"category": "productivity", "created_at": 1773286187386, "description": "Create complete, source-grounded professional documents from existing materials, outlines, or templates, then generate, edit, review, or redline the final .d...", "description_zh": "", "downloads": 218, "homepage": "https://clawhub.ai/bloom-u/doccraft", "iconUrl": null, "installs": 22, "name": "Doccraft", "ownerName": "bloom-u", "score": 16515.151515151516, "slug": "doccraft", "source": "clawhub", "stars": 0, "tags": null, "updated_at": 1776759420542, "version": "1.0.0"}, {"category": "ai-intelligence", "created_at": 1773080639405, "description": "Automate BNB Chain swing trades with wallet-key execution, buying at trigger price and managing 5% take-profit and 3% stop-loss levels.", "description_zh": "", "downloads": 218, "homepage": "https://clawhub.ai/happyrstudent/evm-bnb-band-trader", "iconUrl": null, "installs": 10, "name": "EVM BNB Band Trader", "ownerName": "happyrstudent", "score": 16552.771450265755, "slug": "evm-bnb-band-trader", "source": "clawhub", "stars": 0, "tags": null, "updated_at": 1776759420524, "version": "0.1.0"}, {"category": "content-creation", "created_at": 1773416105719, "description": "Create stunning, animation-rich HTML presentations from scratch or by converting PowerPoint files. Use when the user wants to build a presentation, convert a...", "description_zh": "", "downloads": 218, "homepage": "https://clawhub.ai/zarazhangrui/frontend-presentations", "iconUrl": null, "installs": 33, "name": "Frontend Slides", "ownerName": "zarazhangrui", "score": 16552.771450265755, "slug": "frontend-presentations", "source": "clawhub", "stars": 0, "tags": null, "updated_at": 1776759420487, "version": "1.0.0"}, {"category": "security-compliance", "created_at": 1773065456192, "description": "Review ads and campaign setup for policy compliance on Meta (Facebook/Instagram), Google Ads, TikTok Ads, YouTube Ads, Amazon Ads, and DSP/programmatic.", "description_zh": "", "downloads": 218, "homepage": "https://clawhub.ai/danyangliu-sandwichlab/ad-compliance-reviewer", "iconUrl": null, "installs": 14, "name": "Ads Compliance Review", "ownerName": "danyangliu-sandwichlab", "score": 13965.406790518897, "slug": "ad-compliance-reviewer", "source": "clawhub", "stars": 0, "tags": null, "updated_at": 1776757324438, "version": "1.0.0"}, {"category": "developer-tools", "created_at": 1773067165182, "description": "Run long-lived AI coding agents (Codex CLI, Claude Code, Ralph loops) in persistent tmux sessions with completion hooks and automatic monitoring. Use when la...", "description_zh": "", "downloads": 218, "homepage": "https://clawhub.ai/luke-deltadesk/coding-sessions", "iconUrl": null, "installs": 10, "name": "Coding Sessions", "ownerName": "luke-deltadesk", "score": 12884.160756501182, "slug": "coding-sessions", "source": "clawhub", "stars": 0, "tags": null, "updated_at": 1776756188815, "version": "1.0.0"}, {"category": "data-analysis", "created_at": 1773074267459, "description": "Deploys the Guild Stack (Docker Compose) for local PostgreSQL access to game state. Use when you need faster queries for combat automation, real-time threat...", "description_zh": "", "downloads": 218, "homepage": "https://clawhub.ai/abstrct/structs-guild-stack", "iconUrl": null, "installs": 7, "name": "Structs Guild Stack", "ownerName": "abstrct", "score": 77857.14285714286, "slug": "structs-guild-stack", "source": "clawhub", "stars": 0, "tags": null, "updated_at": 1776749085766, "version": "1.1.0"}, {"category": "security-compliance", "created_at": 1773075572383, "description": "Review code with risk-first analysis, reproducible evidence, and patch-ready guidance for correctness, security, performance, and maintainability.", "description_zh": "", "downloads": 218, "homepage": "https://clawhub.ai/ivangdavila/review-code", "iconUrl": null, "installs": 10, "name": "Review Code", "ownerName": "ivangdavila", "score": 77857.14285714286, "slug": "review-code", "source": "clawhub", "stars": 0, "tags": null, "updated_at": 1776749085760, "version": "1.0.0"}, {"category": "developer-tools", "created_at": 1772804409933, "description": "Publish OpenClaw skills to ClawHub marketplace (clawhub.ai). Use when deploying a skill to ClawHub for the first time, updating an existing published skill,...", "description_zh": "", "downloads": 218, "homepage": "https://clawhub.ai/jini92/clawhub-publish-mai", "iconUrl": null, "installs": 6, "name": "ClawHub Publish", "ownerName": "jini92", "score": 77857.14285714286, "slug": "clawhub-publish-mai", "source": "clawhub", "stars": 0, "tags": null, "updated_at": 1776749085742, "version": "1.0.0"}, {"category": "security-compliance", "created_at": 1773077289470, "description": "Stop sending 'format this JSON' to Opus. Stop sending 'redesign the auth system' to Haiku. Smart Model Router picks the right brain for every task — decision...", "description_zh": "", "downloads": 218, "homepage": "https://clawhub.ai/globalcaos/smart-model-router", "iconUrl": null, "installs": 2, "name": "Model Router", "ownerName": "globalcaos", "score": 90833.33333333333, "slug": "smart-model-router", "source": "clawhub", "stars": 0, "tags": null, "updated_at": 1776749085700, "version": "1.2.0"}, {"category": "developer-tools", "created_at": 1773077120914, "description": "Full ElevenLabs platform integration — text-to-speech, voice cloning, and Conversational AI agent creation. Not just TTS — build interactive voice agents wit...", "description_zh": "", "downloads": 218, "homepage": "https://clawhub.ai/aiwithabidi/elevenlabs-conversational", "iconUrl": null, "installs": 13, "name": "Elevenlabs Conversational", "ownerName": "aiwithabidi", "score": 90833.33333333333, "slug": "elevenlabs-conversational", "source": "clawhub", "stars": 0, "tags": null, "updated_at": 1776749085698, "version": "1.0.0"}, {"category": "productivity", "created_at": 1772804499945, "description": "Token usage logging, alerting, and context-compression utilities for OpenClaw. Use when you want to track per-call token usage, normalize timestamps, and red...", "description_zh": "", "downloads": 218, "homepage": "https://clawhub.ai/gerhardvr26/oken-usage-tracker", "iconUrl": null, "installs": 8, "name": "Token Usage Tracker", "ownerName": "gerhardvr26", "score": 90833.33333333333, "slug": "oken-usage-tracker", "source": "clawhub", "stars": 0, "tags": ["monitoring", "tokens", "tooling"], "updated_at": 1776749085677, "version": "1.0.0"}, {"category": "content-creation", "created_at": 1772805264034, "description": "Design an interruption-resilient EC2 Spot instance strategy with fallback configurations", "description_zh": "", "downloads": 218, "homepage": "https://clawhub.ai/anmolnagpal/spot-strategy", "iconUrl": null, "installs": 12, "name": "Spot Strategy", "ownerName": "anmolnagpal", "score": 87550.20080321285, "slug": "spot-strategy", "source": "clawhub", "stars": 0, "tags": null, "updated_at": 1776749085303, "version": "1.0.0"}, {"category": "content-creation", "created_at": 1773077141065, "description": "Complete genviral Partner API automation. Create and schedule posts (video + slideshow) across TikTok, Instagram, and any supported platform. Includes slides...", "description_zh": "", "downloads": 218, "homepage": "https://clawhub.ai/ugenesys/genviral-skill", "iconUrl": null, "installs": 17, "name": "Genviral Skill", "ownerName": "ugenesys", "score": 87550.20080321285, "slug": "genviral-skill", "source": "clawhub", "stars": 0, "tags": null, "updated_at": 1776749085287, "version": "1.0.0"}, {"category": "communication-collaboration", "created_at": 1772803813323, "description": "Send instructions to user's real browser via ClawMe Chrome extension. Fill forms, tweet, email, click, extract — user sees and confirms each action in the si...", "description_zh": "", "downloads": 218, "homepage": "https://clawhub.ai/dongsheng123132/clawme", "iconUrl": null, "installs": 6, "name": "ClawMe", "ownerName": "dongsheng123132", "score": 87550.20080321285, "slug": "clawme", "source": "clawhub", "stars": 0, "tags": null, "updated_at": 1776749085282, "version": "1.0.0"}, {"category": "developer-tools", "created_at": 1773077344903, "description": "Build and run Polymarket copy-trading workflows (trader discovery, peak/decline cycle detection, candidate ranking, risk limits, and execution handoff). Use...", "description_zh": "", "downloads": 218, "homepage": "https://clawhub.ai/wangbo12bob2-source/wangbo-polymarket-copytrading", "iconUrl": null, "installs": 8, "name": "Wangbo Polymarket Copytrading", "ownerName": "wangbo12bob2-source", "score": 94372.29437229437, "slug": "wangbo-polymarket-copytrading", "source": "clawhub", "stars": 0, "tags": null, "updated_at": 1776749085247, "version": "0.2.0"}, {"category": "data-analysis", "created_at": 1773432019300, "description": "Analyze stocks and cryptocurrencies using Yahoo Finance data with portfolio management and watchlists. And also 50+ models for image generation, video genera...", "description_zh": "", "downloads": 218, "homepage": "https://clawhub.ai/kirkraman/stock-analysiss", "iconUrl": null, "installs": 85, "name": "Pub Stock", "ownerName": "kirkraman", "score": 94372.29437229437, "slug": "stock-analysiss", "source": "clawhub", "stars": 0, "tags": null, "updated_at": 1776749085239, "version": "1.0.0"}, {"category": "security-compliance", "created_at": 1773068681250, "description": "The ultimate security auditor for local AI agents. It performs real-time heuristic scanning of every command to prevent data leaks and accidental file destru...", "description_zh": "", "downloads": 218, "homepage": "https://clawhub.ai/tmstudio667-commits/agent-audit-shield", "iconUrl": null, "installs": 6, "name": "Agent Audit Shield", "ownerName": "tmstudio667-commits", "score": 94372.29437229437, "slug": "agent-audit-shield", "source": "clawhub", "stars": 0, "tags": ["audit", "dev-tools", "security"], "updated_at": 1776749085237, "version": "1.0.0"}, {"category": "developer-tools", "created_at": 1772804848707, "description": "Post-processing skill for firm-orchestration: converts the structured JSON output of a multi-agent workflow run into real deliverables — GitHub Pull Requests...", "description_zh": "", "downloads": 218, "homepage": "https://clawhub.ai/romainsantoli-web/firm-delivery-export", "iconUrl": null, "installs": 6, "name": "Firm Delivery Export", "ownerName": "romainsantoli-web", "score": 87200, "slug": "firm-delivery-export", "source": "clawhub", "stars": 0, "tags": null, "updated_at": 1776749085202, "version": "1.0.0"}, {"category": "developer-tools", "created_at": 1773066120715, "description": "Stores and retrieves personal preferences, decisions, and context across conversations using ActingWeb Personal AI Memory via MCP. Activates when the user me...", "description_zh": "", "downloads": 218, "homepage": "https://clawhub.ai/gregertw/managing-actingweb-memory", "iconUrl": null, "installs": 9, "name": "ActingWeb Memory", "ownerName": "gregertw", "score": 84169.88416988417, "slug": "managing-actingweb-memory", "source": "clawhub", "stars": 0, "tags": ["actingweb", "mcp", "memory", "personal-ai"], "updated_at": 1776749085101, "version": "1.0.0"}, {"category": "ai-intelligence", "created_at": 1773283856203, "description": "Text-to-speech generation on Volcengine (ByteDance) speech services. Use when users need narration, multi-language speech output, voice selection, or TTS tro...", "description_zh": "", "downloads": 218, "homepage": "https://clawhub.ai/day253/day253-volcengine-ai-audio-tts", "iconUrl": null, "installs": 40, "name": "Volcengine TTS Audio Synthesis", "ownerName": "day253", "score": 84169.88416988417, "slug": "day253-volcengine-ai-audio-tts", "source": "clawhub", "stars": 0, "tags": null, "updated_at": 1776749085060, "version": "1.0.0"}, {"category": "productivity", "created_at": 1773075178955, "description": "Check for OpenClaw updates and self-update the installation. Use when the user asks to update OpenClaw, check for updates, upgrade the bot, install a new ver...", "description_zh": "", "downloads": 218, "homepage": "https://clawhub.ai/spideystreet/oc-self-update", "iconUrl": null, "installs": 14, "name": "Oc Self Update", "ownerName": "spideystreet", "score": 84169.88416988417, "slug": "oc-self-update", "source": "clawhub", "stars": 0, "tags": null, "updated_at": 1776749085032, "version": "1.0.2"}, {"category": "productivity", "created_at": 1773075323359, "description": "Continuous LangFuse-driven optimization loop for OpenClaw/OpenRouter model routing and prompt usage controls with persistent local memory. Use when Codex nee...", "description_zh": "", "downloads": 217, "homepage": "https://clawhub.ai/ekalb81/langfuse-continuous-optimizer", "iconUrl": null, "installs": 4, "name": "Clawfuse", "ownerName": "ekalb81", "score": 1381.7630597014927, "slug": "langfuse-continuous-optimizer", "source": "clawhub", "stars": 1, "tags": null, "updated_at": 1776759382409, "version": "0.0.2"}, {"category": "developer-tools", "created_at": 1773219997250, "description": "Generate accurate, structured technical documentation with UML diagrams and changelogs from any codebase using HiVulse AI integration.", "description_zh": "", "downloads": 217, "homepage": "https://clawhub.ai/bocao9107/hivulse-openclaw-skill", "iconUrl": null, "installs": 15, "name": "Hivulse Openclaw Skill", "ownerName": "bocao9107", "score": 17886.79245283019, "slug": "hivulse-openclaw-skill", "source": "clawhub", "stars": 1, "tags": null, "updated_at": 1776759382090, "version": "0.1.1"}, {"category": "data-analysis", "created_at": 1773425585294, "description": "Yahoo Finance API integration for OpenClaw. Use when users ask for stock prices, company financials, historical data, dividends, or market data. Supports rea...", "description_zh": "", "downloads": 217, "homepage": "https://clawhub.ai/leohuang8688/yahooclaw", "iconUrl": null, "installs": 66, "name": "Yahoo Claw", "ownerName": "leohuang8688", "score": 100000, "slug": "yahooclaw", "source": "clawhub", "stars": 1, "tags": null, "updated_at": 1776749104949, "version": "0.1.7"}, {"category": "productivity", "created_at": 1772805364174, "description": "Restructure flat MEMORY.md files into a tiered memory system with an entity graph. Use when: (1) MEMORY.md is growing unwieldy or exceeds 150 lines, (2) user...", "description_zh": "", "downloads": 217, "homepage": "https://clawhub.ai/kapslap/memory-architect", "iconUrl": null, "installs": 13, "name": "Memory Architect", "ownerName": "kapslap", "score": 10774.57795431976, "slug": "memory-architect", "source": "clawhub", "stars": 0, "tags": null, "updated_at": 1776764050392, "version": "1.0.0"}, {"category": "developer-tools", "created_at": 1773081427880, "description": "Optional network and automation helpers for Proactive Claw core: GitHub/Notion cross-skill context, team calendar awareness, daemon installer, and optional c...", "description_zh": "", "downloads": 217, "homepage": "https://clawhub.ai/googlarz/proactive-claw-integrations", "iconUrl": null, "installs": 28, "name": "Proactive Claw Integrations", "ownerName": "googlarz", "score": 3664.9214659685863, "slug": "proactive-claw-integrations", "source": "clawhub", "stars": 0, "tags": ["calendar", "daemon", "github", "integrations", "notion", "optional", "privacy", "team-awareness"], "updated_at": 1776763150645, "version": "0.1.0"}, {"category": "developer-tools", "created_at": 1773074550126, "description": "Jina DeepSearch API access via AIHubMix - use curl to call the HTTP API directly.", "description_zh": "", "downloads": 217, "homepage": "https://clawhub.ai/ansatzx/jina-deepsearch", "iconUrl": null, "installs": 12, "name": "jina-deepsearch", "ownerName": "ansatzx", "score": 3242.6778242677824, "slug": "jina-deepsearch", "source": "clawhub", "stars": 0, "tags": null, "updated_at": 1776762849979, "version": "0.0.3"}, {"category": "security-compliance", "created_at": 1773218531188, "description": "A comprehensive AI agent skill for understanding, writing, and evaluating guarantees in business and legal contexts. Helps businesses craft guarantees that b...", "description_zh": "", "downloads": 217, "homepage": "https://clawhub.ai/duclawbot/guarantee", "iconUrl": null, "installs": 32, "name": "Guarantee", "ownerName": "duclawbot", "score": 6019.417475728155, "slug": "guarantee", "source": "clawhub", "stars": 0, "tags": ["business", "consumer", "guarantee", "trust", "warranty"], "updated_at": 1776762439800, "version": "1.0.0"}, {"category": "data-analysis", "created_at": 1773084442093, "description": "Develop and optimize a Polymarket BTC 1h Up/Down trading strategy using Binance BTCUSDT data to identify fair probabilities and manage trade entries and exits.", "description_zh": "", "downloads": 217, "homepage": "https://clawhub.ai/parkhyeongjoon/polymarket-trader-1-0-0", "iconUrl": null, "installs": 38, "name": "Polymarket Trader 1.0.0", "ownerName": "parkhyeongjoon", "score": 16476.84130599848, "slug": "polymarket-trader-1-0-0", "source": "clawhub", "stars": 0, "tags": null, "updated_at": 1776759420924, "version": "1.0.0"}, {"category": "developer-tools", "created_at": 1773077498326, "description": "Finds 3-5 competitors for a brand by querying SerpAPI, then DataForSEO, and finally OpenAI fallback if needed, returning names, websites, and reasons.", "description_zh": "", "downloads": 217, "homepage": "https://clawhub.ai/adarshvmore/competitor-finder-adarsh", "iconUrl": null, "installs": 10, "name": "Competitor Finder Adarsh", "ownerName": "adarshvmore", "score": 16464.33990895296, "slug": "competitor-finder-adarsh", "source": "clawhub", "stars": 0, "tags": null, "updated_at": 1776759420775, "version": "1.0.1"}, {"category": "content-creation", "created_at": 1773067024445, "description": "Convert Mermaid diagrams to images, upload to free image hosts, and return image URLs for markdown files and single diagrams.", "description_zh": "", "downloads": 217, "homepage": "https://clawhub.ai/coder-knock/mermaid-image-uploader", "iconUrl": null, "installs": 12, "name": "Mermaid Image Uploader", "ownerName": "coder-knock", "score": 16439.39393939394, "slug": "mermaid-image-uploader", "source": "clawhub", "stars": 0, "tags": null, "updated_at": 1776759420568, "version": "1.0.0"}, {"category": "ai-intelligence", "created_at": 1773076242222, "description": "Trade on Polymarket via split + CLOB execution. Browse markets, track positions with P&L, discover hedges via LLM. Polygon/Web3.", "description_zh": "", "downloads": 217, "homepage": "https://clawhub.ai/woody2434/polyclaw-2", "iconUrl": null, "installs": 1, "name": "Polyclaw", "ownerName": "woody2434", "score": 13095.956547978274, "slug": "polyclaw-2", "source": "clawhub", "stars": 0, "tags": null, "updated_at": 1776756488923, "version": "0.1.0"}, {"category": "ai-intelligence", "created_at": 1773090962163, "description": "Animate app and web UIs across Flutter, React, SwiftUI, Compose, and React Native with motion systems, guardrails, and reduced-motion fallbacks.", "description_zh": "", "downloads": 217, "homepage": "https://clawhub.ai/ivangdavila/animate", "iconUrl": null, "installs": 26, "name": "Animate", "ownerName": "ivangdavila", "score": 12742.219612448622, "slug": "animate", "source": "clawhub", "stars": 0, "tags": null, "updated_at": 1776755888503, "version": "1.0.0"}, {"category": "developer-tools", "created_at": 1773076875998, "description": "A fast Rust-based headless browser automation CLI with Node.js fallback that enables AI agents to navigate, click, type, and snapshot pages via structured co...", "description_zh": "", "downloads": 217, "homepage": "https://clawhub.ai/bo170814/agent-browser-bak", "iconUrl": null, "installs": 131, "name": "Agent Browser.Bak", "ownerName": "bo170814", "score": 11877.394636015326, "slug": "agent-browser-bak", "source": "clawhub", "stars": 0, "tags": null, "updated_at": 1776754688527, "version": "1.0.0"}, {"category": "data-analysis", "created_at": 1773425777189, "description": "Extract clean readable text from PDF files into agent-ready markdown. Multi-page, tables, headers. No external services.", "description_zh": "", "downloads": 217, "homepage": "https://clawhub.ai/theshadowrose/pdf-extract-sr", "iconUrl": null, "installs": 67, "name": "PDFExtract Pull Text from PDFs", "ownerName": "theshadowrose", "score": 92735.04273504273, "slug": "pdf-extract-sr", "source": "clawhub", "stars": 0, "tags": ["documents", "extraction", "parsing", "pdf", "pdf-extract", "text"], "updated_at": 1776749105022, "version": "1.0.0"}, {"category": "developer-tools", "created_at": 1773064293320, "description": "Integrate Didit Face Search standalone API to perform 1:N facial search against all previously verified sessions. Use when the user wants to detect duplicate...", "description_zh": "", "downloads": 217, "homepage": "https://clawhub.ai/rosasalberto/didit-face-search", "iconUrl": null, "installs": 8, "name": "Didit Face Search", "ownerName": "rosasalberto", "score": 91561.18143459916, "slug": "didit-face-search", "source": "clawhub", "stars": 0, "tags": null, "updated_at": 1776749104989, "version": "1.1.0"}, {"category": "data-analysis", "created_at": 1773064514179, "description": "Integrate Didit Proof of Address standalone API to verify address documents. Use when the user wants to verify a proof of address, validate utility bills, ba...", "description_zh": "", "downloads": 217, "homepage": "https://clawhub.ai/rosasalberto/didit-proof-of-address", "iconUrl": null, "installs": 6, "name": "Didit Proof Of Address", "ownerName": "rosasalberto", "score": 91561.18143459916, "slug": "didit-proof-of-address", "source": "clawhub", "stars": 0, "tags": null, "updated_at": 1776749104967, "version": "1.1.0"}, {"category": "developer-tools", "created_at": 1773065503640, "description": "Agent payment service via CrowPay. Use when your agent needs to pay for APIs (x402/USDC) or merchants (credit card), handle 402 Payment Required responses, o...", "description_zh": "", "downloads": 217, "homepage": "https://clawhub.ai/sistillisteph/crow", "iconUrl": null, "installs": 5, "name": "Crow Payments", "ownerName": "sistillisteph", "score": 78623.1884057971, "slug": "crow", "source": "clawhub", "stars": 0, "tags": null, "updated_at": 1776749104929, "version": "0.1.0"}, {"category": "developer-tools", "created_at": 1773066968706, "description": "Fly.io edge deployment platform — manage apps, machines, volumes, secrets, and certificates via the Fly.io Machines API. Deploy containers globally, scale to...", "description_zh": "", "downloads": 217, "homepage": "https://clawhub.ai/aiwithabidi/flyio", "iconUrl": null, "installs": 6, "name": "Flyio", "ownerName": "aiwithabidi", "score": 78623.1884057971, "slug": "flyio", "source": "clawhub", "stars": 0, "tags": null, "updated_at": 1776749104906, "version": "1.0.0"}, {"category": "developer-tools", "created_at": 1772799944783, "description": "Simplified man pages from tldr-pages. Use this to quickly understand CLI tools.", "description_zh": "", "downloads": 217, "homepage": "https://clawhub.ai/liuji10000qian-svg/tldr-20260228-xiaren", "iconUrl": null, "installs": 0, "name": "tldr", "ownerName": "liuji10000qian-svg", "score": 78623.1884057971, "slug": "tldr-20260228-xiaren", "source": "clawhub", "stars": 0, "tags": null, "updated_at": 1776749104872, "version": "0.1.0"}, {"category": "productivity", "created_at": 1772797986440, "description": "Manage a Cobo TSS Node for MPC threshold signing. Use when: setting up a new TSS Node, starting/stopping the node service, checking node status or health, si...", "description_zh": "", "downloads": 217, "homepage": "https://clawhub.ai/dinstein/cobo-tss-node", "iconUrl": null, "installs": 10, "name": "Cobo TSS Node", "ownerName": "dinstein", "score": 60955.05617977528, "slug": "cobo-tss-node", "source": "clawhub", "stars": 0, "tags": null, "updated_at": 1776749104825, "version": "0.2.0"}, {"category": "productivity", "created_at": 1772804440642, "description": "Identify and reduce AWS data transfer costs — inter-region, cross-AZ, and NAT Gateway charges", "description_zh": "", "downloads": 217, "homepage": "https://clawhub.ai/anmolnagpal/data-transfer-optimizer", "iconUrl": null, "installs": 4, "name": "Data Transfer Optimizer", "ownerName": "anmolnagpal", "score": 60955.05617977528, "slug": "data-transfer-optimizer", "source": "clawhub", "stars": 0, "tags": null, "updated_at": 1776749104806, "version": "1.0.0"}, {"category": "developer-tools", "created_at": 1773076510216, "description": "Coder-focused incident response and hotfix execution for production issues. Use when you need reproducible triage, patch/rollback decisions, CI-safe hotfix b...", "description_zh": "", "downloads": 217, "homepage": "https://clawhub.ai/broedkrummen/incident-hotfix", "iconUrl": null, "installs": 7, "name": "Incident Hotfix", "ownerName": "broedkrummen", "score": 90416.66666666667, "slug": "incident-hotfix", "source": "clawhub", "stars": 0, "tags": ["coding", "hotfix", "incident"], "updated_at": 1776749085667, "version": "0.1.0"}]}