{"page": 292, "total_pages": 522, "total": 26073, "skills": [{"category": "data-analysis", "created_at": 1773074824126, "description": "Competitive landscape and market intelligence for M&A due diligence — TAM/SAM/SOM, competitor mapping, and industry analysis", "description_zh": "", "downloads": 217, "homepage": "https://clawhub.ai/aniebyl/olo-market-intelligence", "iconUrl": null, "installs": 14, "name": "Olo Market Intelligence", "ownerName": "aniebyl", "score": 80970.14925373133, "slug": "olo-market-intelligence", "source": "clawhub", "stars": 0, "tags": null, "updated_at": 1776749085618, "version": "1.0.0"}, {"category": "productivity", "created_at": 1772796614939, "description": "For data pipelines, aggregators, or indexers, real-time account state streaming on Solana with light account hot/cold lifecycle tracking. Stream Light token...", "description_zh": "", "downloads": 217, "homepage": "https://clawhub.ai/tilo-14/solana-stream-light", "iconUrl": null, "installs": 4, "name": "solana-stream-light", "ownerName": "tilo-14", "score": 80970.14925373133, "slug": "solana-stream-light", "source": "clawhub", "stars": 0, "tags": null, "updated_at": 1776749085603, "version": "1.0.2"}, {"category": "security-compliance", "created_at": 1772800437454, "description": "Manus AI Agent API integration with managed API key authentication. Create and manage AI agent tasks, projects, files, and webhooks. Use this skill when user...", "description_zh": "", "downloads": 217, "homepage": "https://clawhub.ai/byungkyu/manus-api", "iconUrl": null, "installs": 0, "name": "Manus", "ownerName": "byungkyu", "score": 87148.59437751003, "slug": "manus-api", "source": "clawhub", "stars": 0, "tags": null, "updated_at": 1776749085323, "version": "1.0.0"}, {"category": "developer-tools", "created_at": 1773079420040, "description": "Transcribe audio using a deployed Cloudflare Worker Whisper endpoint. Use when converting voice/audio files (wav, mp3, m4a, ogg, webm) to text through the cu...", "description_zh": "", "downloads": 217, "homepage": "https://clawhub.ai/lotfinity/cloudflare-whisper-worker", "iconUrl": null, "installs": 12, "name": "Cloudflare Whisper Worker", "ownerName": "lotfinity", "score": 87148.59437751003, "slug": "cloudflare-whisper-worker", "source": "clawhub", "stars": 0, "tags": null, "updated_at": 1776749085280, "version": "1.0.0"}, {"category": "productivity", "created_at": 1773060572912, "description": "Executes resource extraction in Structs. Mines ore and refines it into Alpha Matter. Use when mining ore, refining ore, starting a mine-refine cycle, checkin...", "description_zh": "", "downloads": 217, "homepage": "https://clawhub.ai/abstrct/structs-mining", "iconUrl": null, "installs": 8, "name": "Structs Mining", "ownerName": "abstrct", "score": 93939.39393939395, "slug": "structs-mining", "source": "clawhub", "stars": 0, "tags": null, "updated_at": 1776749085227, "version": "1.1.0"}, {"category": "security-compliance", "created_at": 1772803419240, "description": "Email verification skill for MailCheck API - verify emails, bulk processing, authenticity analysis", "description_zh": "", "downloads": 217, "homepage": "https://clawhub.ai/bnuyts/mailcheck-email-verification", "iconUrl": null, "installs": 4, "name": "MailCheck Email Verification", "ownerName": "bnuyts", "score": 86800, "slug": "mailcheck-email-verification", "source": "clawhub", "stars": 0, "tags": null, "updated_at": 1776749084945, "version": "1.1.0"}, {"category": "developer-tools", "created_at": 1773077375395, "description": "Discover, research, script, fact-check, and generate podcast episodes automatically. Multi-source topic discovery, LLM script generation, citation enforcemen...", "description_zh": "", "downloads": 216, "homepage": "https://clawhub.ai/harshilmathur/custom-podcast-discovery", "iconUrl": null, "installs": 15, "name": "Custom Podcast Discovery & Generation", "ownerName": "harshilmathur", "score": 100000, "slug": "custom-podcast-discovery", "source": "clawhub", "stars": 7, "tags": null, "updated_at": 1776749104811, "version": "1.0.1"}, {"category": "ai-intelligence", "created_at": 1773090062713, "description": "Ichiro-Mind: The ultimate unified memory system for AI agents. 4-layer architecture (HOT→WARM→COLD→ARCHIVE) with neural graph, vector search, experience lear...", "description_zh": "", "downloads": 216, "homepage": "https://clawhub.ai/hudul/ichiro-mind", "iconUrl": null, "installs": 19, "name": "Ichiro-Mind", "ownerName": "hudul", "score": 99578.05907172996, "slug": "ichiro-mind", "source": "clawhub", "stars": 1, "tags": ["ai-agent", "ichiro", "memory", "neural", "unified"], "updated_at": 1776749105002, "version": "1.0.0"}, {"category": "productivity", "created_at": 1773084158898, "description": "Search and summarize research papers in robotics and related fields. Use when asked to find recent papers, digest academic literature, or scout publications...", "description_zh": "", "downloads": 216, "homepage": "https://clawhub.ai/wyp41/paper-scout", "iconUrl": null, "installs": 40, "name": "Paper Scout", "ownerName": "wyp41", "score": 10588.235294117647, "slug": "paper-scout", "source": "clawhub", "stars": 0, "tags": null, "updated_at": 1776764649891, "version": "0.1.0"}, {"category": "developer-tools", "created_at": 1773090890184, "description": "Create, refactor, and improve Codex-compatible skills with gated requirement discovery, reusable resource planning, executable scaffolding scripts, and valid...", "description_zh": "", "downloads": 216, "homepage": "https://clawhub.ai/nimachu/nima-skill-creator", "iconUrl": null, "installs": 44, "name": "Nima Skill Creator", "ownerName": "nimachu", "score": 2424.78670857656, "slug": "nima-skill-creator", "source": "clawhub", "stars": 0, "tags": null, "updated_at": 1776764350721, "version": "0.1.1"}, {"category": "content-creation", "created_at": 1773924191447, "description": "Create beautiful visual art in .png and .pdf documents using design philosophy. You should use this skill when the user asks to create a poster, piece of art...", "description_zh": "", "downloads": 216, "homepage": "https://clawhub.ai/pupuking723/canvas-design-anthropic", "iconUrl": null, "installs": 61, "name": "Canvas Design Anthropic", "ownerName": "pupuking723", "score": 1317.876754118365, "slug": "canvas-design-anthropic", "source": "clawhub", "stars": 0, "tags": null, "updated_at": 1776763449735, "version": "1.0.0"}, {"category": "data-analysis", "created_at": 1773427324157, "description": "Scans Polymarket daily high-temperature markets, auto-imports new ones, then snipes YES positions between 9–10 AM local time when forecast and reality conver...", "description_zh": "", "downloads": 216, "homepage": "https://clawhub.ai/stefantaylor5/polymarket-weather-high-temp-sniper", "iconUrl": null, "installs": 37, "name": "Weather High-Temp Sniper", "ownerName": "stefantaylor5", "score": 16400.91116173121, "slug": "polymarket-weather-high-temp-sniper", "source": "clawhub", "stars": 0, "tags": null, "updated_at": 1776759420893, "version": "1.0.3"}, {"category": "data-analysis", "created_at": 1773079853597, "description": "HouseSigma 매물 데이터를 자동 및 수동으로 수집해 Hauscout SQLite DB에 저장하고 크론잡으로 주기적 업데이트를 지원합니다.", "description_zh": "", "downloads": 216, "homepage": "https://clawhub.ai/sonim1/housesigma-collector", "iconUrl": null, "installs": 14, "name": "Housesigma Collector", "ownerName": "sonim1", "score": 96428.57142857143, "slug": "housesigma-collector", "source": "clawhub", "stars": 0, "tags": null, "updated_at": 1776759420801, "version": "1.0.0"}, {"category": "data-analysis", "created_at": 1773286160862, "description": "Fetch real-time market data and historical Huobi Kline data for major cryptocurrencies with customizable intervals and record counts.", "description_zh": "", "downloads": 216, "homepage": "https://clawhub.ai/u91win/crypto-kline-data", "iconUrl": null, "installs": 37, "name": "Crypto Kline BTC加密货币K线数据-HuoBi", "ownerName": "u91win", "score": 16388.46737481032, "slug": "crypto-kline-data", "source": "clawhub", "stars": 0, "tags": null, "updated_at": 1776759420765, "version": "1.0.4"}, {"category": "data-analysis", "created_at": 1773220963286, "description": "Calculates Amazon UAE FBA fees, net margin, and DG risk for CJ Dropshipping products, ranking by margin % and generating detailed markdown and JSON reports.", "description_zh": "", "downloads": 216, "homepage": "https://clawhub.ai/zero2ai-hub/skill-fba-margin-calculator", "iconUrl": null, "installs": 41, "name": "Amazon FBA Margin Calculator", "ownerName": "zero2ai-hub", "score": 16363.636363636364, "slug": "skill-fba-margin-calculator", "source": "clawhub", "stars": 0, "tags": null, "updated_at": 1776759420601, "version": "1.0.0"}, {"category": "content-creation", "created_at": 1773426851049, "description": "Download multiple high-quality original anime images from Safebooru by tags, saving files locally with safe content only.", "description_zh": "", "downloads": 216, "homepage": "https://clawhub.ai/litousteven/safebooru-fetcher", "iconUrl": null, "installs": 23, "name": "Anime Image Downloader (Safebooru, Download Only)", "ownerName": "litousteven", "score": 16400.91116173121, "slug": "safebooru-fetcher", "source": "clawhub", "stars": 0, "tags": null, "updated_at": 1776759420451, "version": "1.0.5"}, {"category": "content-creation", "created_at": 1773082209246, "description": "Detect and remove exact or similar duplicate images in folders using perceptual and MD5 hashing with configurable similarity and actions.", "description_zh": "", "downloads": 216, "homepage": "https://clawhub.ai/mingo-318/image-deduplicator", "iconUrl": null, "installs": 13, "name": "Image Deduplicator", "ownerName": "mingo-318", "score": 87096.7741935484, "slug": "image-deduplicator", "source": "clawhub", "stars": 0, "tags": null, "updated_at": 1776759420435, "version": "1.0.0"}, {"category": "ai-intelligence", "created_at": 1773416981305, "description": "Enables AI agents to grow organic personas through experience-driven memory with self-reflection and multi-layer persistent storage.", "description_zh": "", "downloads": 216, "homepage": "https://clawhub.ai/zfanmy/dreammoon-memprocessor", "iconUrl": null, "installs": 31, "name": "DreamMoon MemProcessor", "ownerName": "zfanmy", "score": 87096.7741935484, "slug": "dreammoon-memprocessor", "source": "clawhub", "stars": 0, "tags": null, "updated_at": 1776759420430, "version": "0.1.0"}, {"category": "content-creation", "created_at": 1773064996571, "description": "Generate hyper-detailed AI portraits via ComfyDeploy Morfeo Portrait workflow. Control every facial feature: eyes, nose, lips, jawline, skin, hair, expressio...", "description_zh": "", "downloads": 216, "homepage": "https://clawhub.ai/pauldelavallaz/portrait-generator", "iconUrl": null, "installs": 14, "name": "Portrait Generator", "ownerName": "pauldelavallaz", "score": 16059.479553903348, "slug": "portrait-generator", "source": "clawhub", "stars": 0, "tags": ["face", "image", "morpheus", "portrait"], "updated_at": 1776759197830, "version": "1.0.0"}, {"category": "security-compliance", "created_at": 1772805068623, "description": "Collect, organize, and validate evidence for ISO 27001 and SOC 2 audits. API-first approach with CLI commands for major cloud platforms. Produces timestamped...", "description_zh": "", "downloads": 216, "homepage": "https://clawhub.ai/stevenobiajulu/iso-27001-evidence-collection", "iconUrl": null, "installs": 4, "name": "ISO 27001 Evidence Collection", "ownerName": "stevenobiajulu", "score": 38028.16901408451, "slug": "iso-27001-evidence-collection", "source": "clawhub", "stars": 0, "tags": null, "updated_at": 1776753115954, "version": "0.1.0"}, {"category": "productivity", "created_at": 1773067081857, "description": "Use when user asks 'how should I...' or 'what's the best approach...' after exploring code, OR when you've tried to solve something and are stuck, OR for unf...", "description_zh": "", "downloads": 216, "homepage": "https://clawhub.ai/yumoezhung/remembering-conversations", "iconUrl": null, "installs": 13, "name": "Remembering Conversations", "ownerName": "yumoezhung", "score": 37500, "slug": "remembering-conversations", "source": "clawhub", "stars": 0, "tags": null, "updated_at": 1776752084452, "version": "1.0.0"}, {"category": "developer-tools", "created_at": 1772801538715, "description": "Simplified man pages from tldr-pages. Use this to quickly understand CLI tools.", "description_zh": "", "downloads": 216, "homepage": "https://clawhub.ai/liuji10000qian-svg/tldr-xiaren-20260228005330", "iconUrl": null, "installs": 0, "name": "tldr", "ownerName": "liuji10000qian-svg", "score": 92307.69230769231, "slug": "tldr-xiaren-20260228005330", "source": "clawhub", "stars": 0, "tags": ["test"], "updated_at": 1776749105056, "version": "0.1.0"}, {"category": "content-creation", "created_at": 1773290164316, "description": "Use this skill when OpenStoryline is already installed and the user wants to start the local MCP/Web services, create or continue a session, send editing ins...", "description_zh": "", "downloads": 216, "homepage": "https://clawhub.ai/anlittledy/openstoryline-use", "iconUrl": null, "installs": 13, "name": "OpenStoryline Use", "ownerName": "anlittledy", "score": 92307.69230769231, "slug": "openstoryline-use", "source": "clawhub", "stars": 0, "tags": null, "updated_at": 1776749105025, "version": "0.0.1"}, {"category": "developer-tools", "created_at": 1773076400742, "description": "Deploy apps to CapRover and set up GitHub Actions CI/CD workflows for new or existing projects. Use when the user says things like \"deploy X\", \"trigger a dep...", "description_zh": "", "downloads": 216, "homepage": "https://clawhub.ai/guim4dev/caprover-ci-deploys", "iconUrl": null, "installs": 8, "name": "Caprover CI Deployments", "ownerName": "guim4dev", "score": 91139.24050632911, "slug": "caprover-ci-deploys", "source": "clawhub", "stars": 0, "tags": null, "updated_at": 1776749105013, "version": "1.0.0"}, {"category": "content-creation", "created_at": 1773066666143, "description": "Build CinePrompt video prompts and share links without a browser. Converts natural language shot descriptions into structured CinePrompt state, generates pro...", "description_zh": "", "downloads": 216, "homepage": "https://clawhub.ai/belafontelabs/cineprompt", "iconUrl": null, "installs": 12, "name": "CinePrompt", "ownerName": "belafontelabs", "score": 91139.24050632911, "slug": "cineprompt", "source": "clawhub", "stars": 0, "tags": null, "updated_at": 1776749105010, "version": "1.0.1"}, {"category": "data-analysis", "created_at": 1772799669782, "description": "Compute HEIM diversity and equity metrics from VCF or ancestry data. Generates heterozygosity, FST, PCA plots, and a composite HEIM Equity Score with markdow...", "description_zh": "", "downloads": 216, "homepage": "https://clawhub.ai/manuelcorpas/clawbio-equity-scorer", "iconUrl": null, "installs": 9, "name": "ClawBio Equity Scorer", "ownerName": "manuelcorpas", "score": 91139.24050632911, "slug": "clawbio-equity-scorer", "source": "clawhub", "stars": 0, "tags": null, "updated_at": 1776749105003, "version": "0.1.0"}, {"category": "developer-tools", "created_at": 1773064967815, "description": "Ship code autonomously with oneshot CLI -- a single command that plans, executes, reviews, and opens a PR. Runs over SSH or locally. Use when the user wants...", "description_zh": "", "downloads": 216, "homepage": "https://clawhub.ai/adwilkinson/oneshot-ship", "iconUrl": null, "installs": 9, "name": "oneshot CLI", "ownerName": "adwilkinson", "score": 91139.24050632911, "slug": "oneshot-ship", "source": "clawhub", "stars": 0, "tags": ["automation", "claude", "cli", "codex"], "updated_at": 1776749104991, "version": "0.0.1"}, {"category": "data-analysis", "created_at": 1773060260545, "description": "Umbrella skill for the ThinkOff agent ecosystem. One API key, one identity across four capabilities -- social feed (xfor.bot), knowledge rooms (Ant Farm), pu...", "description_zh": "", "downloads": 216, "homepage": "https://clawhub.ai/thinkoffapp/thinkoff-agent-platform", "iconUrl": null, "installs": 8, "name": "ThinkOff Agent Platform", "ownerName": "thinkoffapp", "score": 91139.24050632911, "slug": "thinkoff-agent-platform", "source": "clawhub", "stars": 0, "tags": ["bundle", "knowledge", "multi-agent", "openclaw", "platform", "puzzles", "rooms", "social"], "updated_at": 1776749104968, "version": "1.0.3"}, {"category": "developer-tools", "created_at": 1773080102262, "description": "Order food from foodpanda.ph using the foodpanda-cli command-line tool. Use when the user wants to search restaurants, browse menus, build a cart, or place a...", "description_zh": "", "downloads": 216, "homepage": "https://clawhub.ai/johnwhoyou/foodpanda-order", "iconUrl": null, "installs": 9, "name": "Foodpanda.ph Ordering", "ownerName": "johnwhoyou", "score": 91139.24050632911, "slug": "foodpanda-order", "source": "clawhub", "stars": 0, "tags": null, "updated_at": 1776749104957, "version": "1.1.0"}, {"category": "developer-tools", "created_at": 1773075184480, "description": "Zero-cost persistent memory that makes your bot smarter over time. Automatically extracts, stores, and retrieves key facts, preferences, and decisions from c...", "description_zh": "", "downloads": 216, "homepage": "https://clawhub.ai/jcools1977/openjaw-smart-memory", "iconUrl": null, "installs": 1, "name": "Smart Memory", "ownerName": "jcools1977", "score": 91139.24050632911, "slug": "openjaw-smart-memory", "source": "clawhub", "stars": 0, "tags": null, "updated_at": 1776749104951, "version": "1.0.0"}, {"category": "developer-tools", "created_at": 1773065577622, "description": "Set up and use 1Password CLI (op). Use when installing the CLI, enabling desktop app integration, signing in (single or multi-account), or reading/injecting/...", "description_zh": "", "downloads": 216, "homepage": "https://clawhub.ai/shouone/myskilltest", "iconUrl": null, "installs": 10, "name": "my_skill", "ownerName": "shouone", "score": 78260.86956521739, "slug": "myskilltest", "source": "clawhub", "stars": 0, "tags": null, "updated_at": 1776749104918, "version": "1.0.0"}, {"category": "ai-intelligence", "created_at": 1773080227857, "description": "Generate beautiful, self-contained HTML pages that visually explain systems, code changes, plans, and data. Use when the user asks for a diagram, architectur...", "description_zh": "", "downloads": 216, "homepage": "https://clawhub.ai/keylimesoda/visual-explainer-openclaw", "iconUrl": null, "installs": 22, "name": "Visual Explainer for OpenClaw", "ownerName": "keylimesoda", "score": 78260.86956521739, "slug": "visual-explainer-openclaw", "source": "clawhub", "stars": 0, "tags": null, "updated_at": 1776749104870, "version": "0.5.1-openclaw.1"}, {"category": "communication-collaboration", "created_at": 1773066725463, "description": "Google Chat: Manage Chat spaces and messages.", "description_zh": "", "downloads": 216, "homepage": "https://clawhub.ai/googleworkspace-bot/gws-chat", "iconUrl": null, "installs": 10, "name": "Gws Chat", "ownerName": "googleworkspace-bot", "score": 60674.15730337079, "slug": "gws-chat", "source": "clawhub", "stars": 0, "tags": null, "updated_at": 1776749104840, "version": "1.0.1"}, {"category": "content-creation", "created_at": 1773074998746, "description": "Daily AI news aggregator. Fetches latest AI-related content from HackerNews, GitHub Trending, ArXiv papers, and web search (Brave/Tavily). Use for: (1) Getti...", "description_zh": "", "downloads": 216, "homepage": "https://clawhub.ai/chyher/irene-ai-news", "iconUrl": null, "installs": 7, "name": "Daily Ai News", "ownerName": "chyher", "score": 60674.15730337079, "slug": "irene-ai-news", "source": "clawhub", "stars": 0, "tags": null, "updated_at": 1776749104820, "version": "1.1.0"}, {"category": "data-analysis", "created_at": 1773090550295, "description": "Mortgage process guidance with affordability calculations and application tracking. Use when user mentions buying a home, mortgage rates, affordability, down...", "description_zh": "", "downloads": 216, "homepage": "https://clawhub.ai/agenticio/mortgage", "iconUrl": null, "installs": 9, "name": "Mortgage", "ownerName": "agenticio", "score": 60674.15730337079, "slug": "mortgage", "source": "clawhub", "stars": 0, "tags": ["affordability", "home-buying", "homebuying", "housing", "loan", "mortgage", "property", "refinance"], "updated_at": 1776749104806, "version": "2.1.0"}, {"category": "content-creation", "created_at": 1773068314386, "description": "Design, configure, debug, and optimize OpenClaw AI agent deployments. Master guide for gateway configuration, openclaw.json settings, model routing and fallb...", "description_zh": "", "downloads": 216, "homepage": "https://clawhub.ai/aiwithabidi/openclaw-architect", "iconUrl": null, "installs": 12, "name": "Openclaw Architect", "ownerName": "aiwithabidi", "score": 77142.85714285714, "slug": "openclaw-architect", "source": "clawhub", "stars": 0, "tags": null, "updated_at": 1776749104787, "version": "1.0.0"}, {"category": "developer-tools", "created_at": 1773219170139, "description": "Backup OpenClaw workspace files like AGENTS.md, SOUL.md, scripts/, and configs to a GitHub repo, with token sanitization and version control.", "description_zh": "", "downloads": 215, "homepage": "https://clawhub.ai/mayueanyou/self-backup", "iconUrl": null, "installs": 15, "name": "self-backup", "ownerName": "mayueanyou", "score": 17642.64264264264, "slug": "self-backup", "source": "clawhub", "stars": 1, "tags": null, "updated_at": 1776759382553, "version": "1.0.0"}, {"category": "content-creation", "created_at": 1773088624147, "description": "Generate QR codes from text, URLs, or data for payments, WiFi sharing, or any task needing a scannable QR code image.", "description_zh": "", "downloads": 215, "homepage": "https://clawhub.ai/shixiaoliuo/qrcode-generator", "iconUrl": null, "installs": 12, "name": "Qrcode Generator", "ownerName": "shixiaoliuo", "score": 1966.1636945587563, "slug": "qrcode-generator", "source": "clawhub", "stars": 0, "tags": null, "updated_at": 1776769449717, "version": "1.0.0"}, {"category": "", "created_at": 1774817299338, "description": "Meta-skill for publication-ready figures. Use when creating journal submission figures requiring multi-panel layouts, significance annotations, error bars, c...", "description_zh": "", "downloads": 215, "homepage": "https://clawhub.ai/yxr191202/scientific-visualization", "iconUrl": null, "installs": 45, "name": "Scientific Visualization", "ownerName": "yxr191202", "score": 5138.623326959847, "slug": "scientific-visualization", "source": "clawhub", "stars": 0, "tags": null, "updated_at": 1776764350591, "version": "0.1.0"}, {"category": "productivity", "created_at": 1773083943170, "description": "Find and compare products across Amazon, Temu, SHEIN and local stores. Use when a user wants to: (1) Shop for products or find best deals, (2) Compare prices...", "description_zh": "", "downloads": 215, "homepage": "https://clawhub.ai/elevo11/smart-shopper", "iconUrl": null, "installs": 39, "name": "Smart Shopper", "ownerName": "elevo11", "score": 6994.144437215355, "slug": "smart-shopper", "source": "clawhub", "stars": 0, "tags": null, "updated_at": 1776763450619, "version": "1.1.0"}, {"category": "data-analysis", "created_at": 1773953860847, "description": "Amazon product research and seller analytics for FBA and FBM businesses. Find winning products with 14 selection strategies, track competitors, monitor BSR t...", "description_zh": "", "downloads": 215, "homepage": "https://clawhub.ai/christine-srp/amazon-seller-research", "iconUrl": null, "installs": 71, "name": "Amazon Product Research & Seller Analytics", "ownerName": "christine-srp", "score": 8761.20619396903, "slug": "amazon-seller-research", "source": "clawhub", "stars": 0, "tags": null, "updated_at": 1776763450500, "version": "1.2.1"}, {"category": "communication-collaboration", "created_at": 1773089777750, "description": "Back up files uploaded to a Slack channel to the local doc/backup directory. Supports smart matching: multiple files, filename prefix/keyword filter, file ty...", "description_zh": "", "downloads": 215, "homepage": "https://clawhub.ai/caigang78/slack-backup", "iconUrl": null, "installs": 7, "name": "Slack Backup", "ownerName": "caigang78", "score": 5754.817987152034, "slug": "slack-backup", "source": "clawhub", "stars": 0, "tags": ["backup", "slack"], "updated_at": 1776762850274, "version": "1.0.0"}, {"category": "developer-tools", "created_at": 1773064672000, "description": "Track pregnancy routines, symptoms, and clinical signals with flexible logs, weekly summaries, and safety-first triage for medical follow-up.", "description_zh": "", "downloads": 215, "homepage": "https://clawhub.ai/ivangdavila/pregnancy", "iconUrl": null, "installs": 14, "name": "Pregnancy (Tracker, Journal, Triage, Visit Prep)", "ownerName": "ivangdavila", "score": 7128.647214854112, "slug": "pregnancy", "source": "clawhub", "stars": 0, "tags": null, "updated_at": 1776761690219, "version": "1.0.0"}, {"category": "security-compliance", "created_at": 1773077936389, "description": "Conduct quarterly vendor reviews using KPI scoring across delivery, quality, communication, cost, and alignment to guide renewal, improvement, or offboarding...", "description_zh": "", "downloads": 215, "homepage": "https://clawhub.ai/flynndavid/vendor-performance-audit", "iconUrl": null, "installs": 8, "name": "Vendor Performance Audit", "ownerName": "flynndavid", "score": 95982.14285714286, "slug": "vendor-performance-audit", "source": "clawhub", "stars": 0, "tags": null, "updated_at": 1776759420817, "version": "1.0.0"}, {"category": "security-compliance", "created_at": 1773089171709, "description": "Consultoria jurídica estratégica para contratos, compliance e risco no Brasil, com análise, redação, revisão, matrizes de risco e estratégias negociais e pré...", "description_zh": "", "downloads": 215, "homepage": "https://clawhub.ai/guicz/advogato", "iconUrl": null, "installs": 32, "name": "Advogato", "ownerName": "guicz", "score": 16312.59484066768, "slug": "advogato", "source": "clawhub", "stars": 0, "tags": null, "updated_at": 1776759420724, "version": "1.0.0"}, {"category": "productivity", "created_at": 1773221707491, "description": "Notion integration for OpenClaw. Manage pages, databases, and blocks via AI agent.", "description_zh": "", "downloads": 215, "homepage": "https://clawhub.ai/chloepark85/notion-agent", "iconUrl": null, "installs": 36, "name": "Notion Agent", "ownerName": "chloepark85", "score": 16324.981017463933, "slug": "notion-agent", "source": "clawhub", "stars": 0, "tags": null, "updated_at": 1776759420642, "version": "1.0.1"}, {"category": "security-compliance", "created_at": 1773088935054, "description": "Organizes and formats group discussions, meetings, and research into clear, complete Feishu documents with proper structure, visuals, and security.", "description_zh": "", "downloads": 215, "homepage": "https://clawhub.ai/guoqunabc/feishu-doc-writing", "iconUrl": null, "installs": 18, "name": "Feishu Doc Writing", "ownerName": "guoqunabc", "score": 16324.981017463933, "slug": "feishu-doc-writing", "source": "clawhub", "stars": 0, "tags": null, "updated_at": 1776759420626, "version": "1.0.0"}, {"category": "productivity", "created_at": 1773077770420, "description": "Export current Claude Code conversation to markdown document with full dialogue context and model operations", "description_zh": "", "downloads": 215, "homepage": "https://clawhub.ai/youngbeauty/export-conversation-summary", "iconUrl": null, "installs": 9, "name": "export-conversation-summary", "ownerName": "youngbeauty", "score": 16324.981017463933, "slug": "export-conversation-summary", "source": "clawhub", "stars": 0, "tags": null, "updated_at": 1776759420533, "version": "1.0.0"}, {"category": "ai-intelligence", "created_at": 1773077573835, "description": "AI agent for local businesses to automate appointment scheduling, reminders, cancellations, and calendar integration.", "description_zh": "", "downloads": 215, "homepage": "https://clawhub.ai/dotdance/local-business-appointment-agent", "iconUrl": null, "installs": 12, "name": "Local Business Appointment Agent", "ownerName": "dotdance", "score": 16324.981017463933, "slug": "local-business-appointment-agent", "source": "clawhub", "stars": 0, "tags": null, "updated_at": 1776759420481, "version": "1.0.0"}, {"category": "ai-intelligence", "created_at": 1773091757424, "description": "Send, receive, and manage asynchronous messages between agents, handlers, and users with local file storage and optional cloud sync.", "description_zh": "", "downloads": 215, "homepage": "https://clawhub.ai/noizceera/agent-mailbox", "iconUrl": null, "installs": 10, "name": "Agent Mailbox", "ownerName": "noizceera", "score": 16324.981017463933, "slug": "agent-mailbox", "source": "clawhub", "stars": 0, "tags": ["agent", "bounty", "communication", "coordination", "mailbox", "messaging"], "updated_at": 1776759420471, "version": "1.0.0"}]}