{"page": 293, "total_pages": 522, "total": 26073, "skills": [{"category": "data-analysis", "created_at": 1773074555235, "description": "Automated Polymarket prediction market scanner and trader via Simmer API. Use when analyzing prediction markets, scanning for trading opportunities, executin...", "description_zh": "", "downloads": 215, "homepage": "https://clawhub.ai/wyzmf/polymarket-scanner", "iconUrl": null, "installs": 18, "name": "Polymarket Scanner", "ownerName": "wyzmf", "score": 14448.924731182797, "slug": "polymarket-scanner", "source": "clawhub", "stars": 0, "tags": null, "updated_at": 1776758182177, "version": "1.0.0"}, {"category": "developer-tools", "created_at": 1773220868404, "description": "Compare database schemas across environments, generate migration scripts, and track schema evolution.", "description_zh": "", "downloads": 215, "homepage": "https://clawhub.ai/derick001/database-schema-differ", "iconUrl": null, "installs": 9, "name": "Database Schema Differ", "ownerName": "derick001", "score": 12920.673076923078, "slug": "database-schema-differ", "source": "clawhub", "stars": 0, "tags": null, "updated_at": 1776756488960, "version": "1.0.0"}, {"category": "communication-collaboration", "created_at": 1773080782255, "description": "Whatsapp integration. Manage Chats, Users, Groups, Contacts, Statuses. Use when the user wants to interact with Whatsapp data.", "description_zh": "", "downloads": 215, "homepage": "https://clawhub.ai/gora050/whatsapp-integration", "iconUrl": null, "installs": 20, "name": "Whatsapp", "ownerName": "gora050", "score": 40642.72211720227, "slug": "whatsapp-integration", "source": "clawhub", "stars": 0, "tags": null, "updated_at": 1776753283732, "version": "1.0.0"}, {"category": "content-creation", "created_at": 1773088879998, "description": "Remove signs of AI-generated writing from text. Use when editing or reviewing text to make it sound more natural and human-written. Based on Wikipedia's comp...", "description_zh": "", "downloads": 215, "homepage": "https://clawhub.ai/sonnenberglauramarie-afk/ai-text-humanizer", "iconUrl": null, "installs": 29, "name": "AI Text Humanizer — Remove AI Writing Patterns", "ownerName": "sonnenberglauramarie-afk", "score": 100000, "slug": "ai-text-humanizer", "source": "clawhub", "stars": 0, "tags": ["ai", "content", "seo", "writing"], "updated_at": 1776749570015, "version": "1.0.0"}, {"category": "productivity", "created_at": 1773077777786, "description": "Google Calendar integration. Manage communication data, records, and workflows. Use when the user wants to interact with Google Calendar data.", "description_zh": "", "downloads": 215, "homepage": "https://clawhub.ai/gora050/google-calendar-integration", "iconUrl": null, "installs": 0, "name": "Google Calendar", "ownerName": "gora050", "score": 91880.34188034188, "slug": "google-calendar-integration", "source": "clawhub", "stars": 0, "tags": null, "updated_at": 1776749105058, "version": "1.0.0"}, {"category": "ai-intelligence", "created_at": 1773088567820, "description": "Coordinate and manage multiple AI agents working together on complex tasks. Provides orchestration, communication patterns, and workflow management for multi...", "description_zh": "", "downloads": 215, "homepage": "https://clawhub.ai/zhuyu28/multi-agent-coordinator-zhuyu28", "iconUrl": null, "installs": 17, "name": "Multi Agent Coordinator Zhuyu28", "ownerName": "zhuyu28", "score": 91880.34188034188, "slug": "multi-agent-coordinator-zhuyu28", "source": "clawhub", "stars": 0, "tags": null, "updated_at": 1776749105049, "version": "1.0.0"}, {"category": "communication-collaboration", "created_at": 1773212943977, "description": "Google Workspace CLI (official Google release) for Drive, Gmail, Calendar, Sheets, Docs, Chat, Admin, and every Workspace API. Includes native MCP server mod...", "description_zh": "", "downloads": 215, "homepage": "https://clawhub.ai/zero2ai-hub/skill-gws", "iconUrl": null, "installs": 9, "name": "Google Workspace CLI (gws)", "ownerName": "zero2ai-hub", "score": 91880.34188034188, "slug": "skill-gws", "source": "clawhub", "stars": 0, "tags": null, "updated_at": 1776749105045, "version": "1.0.0"}, {"category": "developer-tools", "created_at": 1772805450426, "description": "Stop AI agents from secretly bypassing your rules. Mechanical enforcement with git hooks, secret detection, deployment verification, and import registries. B...", "description_zh": "", "downloads": 215, "homepage": "https://clawhub.ai/jzocb/jz-agent-guardrails", "iconUrl": null, "installs": 0, "name": "Agent Guardrails", "ownerName": "jzocb", "score": 91880.34188034188, "slug": "jz-agent-guardrails", "source": "clawhub", "stars": 0, "tags": null, "updated_at": 1776749105033, "version": "1.0.0"}, {"category": "developer-tools", "created_at": 1772800888547, "description": "Brave Search API with automatic key rotation across multiple API keys to maximize free tier limits (2000 req/month per key). Use when performing web, news, o...", "description_zh": "", "downloads": 215, "homepage": "https://clawhub.ai/mrnsmh/openclaw-skill-brave-rotator", "iconUrl": null, "installs": 8, "name": "Brave Rotator", "ownerName": "mrnsmh", "score": 91880.34188034188, "slug": "openclaw-skill-brave-rotator", "source": "clawhub", "stars": 0, "tags": null, "updated_at": 1776749105022, "version": "0.1.0"}, {"category": "ai-intelligence", "created_at": 1773084369354, "description": "Generic multi-agent content pipeline — sequential and parallel agent stages with status tracking, error recovery, and progress callbacks. Use when building m...", "description_zh": "", "downloads": 215, "homepage": "https://clawhub.ai/nissan/multi-agent-pipeline", "iconUrl": null, "installs": 10, "name": "Multi Agent Pipeline", "ownerName": "nissan", "score": 77898.55072463768, "slug": "multi-agent-pipeline", "source": "clawhub", "stars": 0, "tags": null, "updated_at": 1776749104917, "version": "1.0.0"}, {"category": "productivity", "created_at": 1772805077916, "description": "Navigate Milan as visitor, resident, student, or professional with neighborhoods, transport, costs, visas, food, and practical local insights.", "description_zh": "", "downloads": 215, "homepage": "https://clawhub.ai/ivangdavila/milan", "iconUrl": null, "installs": 5, "name": "Milan", "ownerName": "ivangdavila", "score": 77898.55072463768, "slug": "milan", "source": "clawhub", "stars": 0, "tags": null, "updated_at": 1776749104895, "version": "1.0.0"}, {"category": "productivity", "created_at": 1772804266566, "description": "Generate executive-ready monthly AWS FinOps reports with team-level chargeback and savings opportunities", "description_zh": "", "downloads": 215, "homepage": "https://clawhub.ai/anmolnagpal/finops-report", "iconUrl": null, "installs": 6, "name": "Finops Report", "ownerName": "anmolnagpal", "score": 77898.55072463768, "slug": "finops-report", "source": "clawhub", "stars": 0, "tags": null, "updated_at": 1776749104884, "version": "1.0.0"}, {"category": "ai-intelligence", "created_at": 1772805053959, "description": "Buy a home with budget guardrails, listing scorecards, offer strategy, due diligence triage, and closing readiness checks.", "description_zh": "", "downloads": 215, "homepage": "https://clawhub.ai/ivangdavila/home-buying", "iconUrl": null, "installs": 12, "name": "Home Buying", "ownerName": "ivangdavila", "score": 77898.55072463768, "slug": "home-buying", "source": "clawhub", "stars": 0, "tags": null, "updated_at": 1776749104860, "version": "1.0.0"}, {"category": "developer-tools", "created_at": 1772803270469, "description": "Coach de IA personalizado. Proporciona retroalimentación, establece metas y te motiva a mejorar continuamente.", "description_zh": "", "downloads": 215, "homepage": "https://clawhub.ai/miguelguerra200022-sudo/ai-coach-zito", "iconUrl": null, "installs": 1, "name": "Ai Coach", "ownerName": "miguelguerra200022-sudo", "score": 60393.25842696629, "slug": "ai-coach-zito", "source": "clawhub", "stars": 0, "tags": null, "updated_at": 1776749104827, "version": "1.0.0"}, {"category": "productivity", "created_at": 1772803031754, "description": "Compute HEIM diversity and equity metrics from VCF or ancestry data. Generates heterozygosity, FST, PCA plots, and a composite HEIM Equity Score with markdow...", "description_zh": "", "downloads": 215, "homepage": "https://clawhub.ai/manuelcorpas/equity-scorer", "iconUrl": null, "installs": 9, "name": "Equity Scorer", "ownerName": "manuelcorpas", "score": 60393.25842696629, "slug": "equity-scorer", "source": "clawhub", "stars": 0, "tags": null, "updated_at": 1776749104822, "version": "0.2.0"}, {"category": "ai-intelligence", "created_at": 1772805550671, "description": "Leave or unassign from a task you accepted on OpenAnt. Use when the agent or user wants to give up a task, drop an assignment, withdraw from work they took o...", "description_zh": "", "downloads": 215, "homepage": "https://clawhub.ai/ant-1984/leave-task", "iconUrl": null, "installs": 10, "name": "Leave Task", "ownerName": "ant-1984", "score": 60393.25842696629, "slug": "leave-task", "source": "clawhub", "stars": 0, "tags": null, "updated_at": 1776749104816, "version": "0.1.0"}, {"category": "developer-tools", "created_at": 1773064879460, "description": "Transcribe audio via Deepgram Nova-3 API (5.26% WER, 40x faster than Whisper, built-in speaker diarization). Use when user asks to transcribe audio, podcasts...", "description_zh": "", "downloads": 215, "homepage": "https://clawhub.ai/jessewunderlich/deepgram-transcribe", "iconUrl": null, "installs": 13, "name": "Deepgram Transcribe", "ownerName": "jessewunderlich", "score": 60393.25842696629, "slug": "deepgram-transcribe", "source": "clawhub", "stars": 0, "tags": null, "updated_at": 1776749104802, "version": "1.0.0"}, {"category": "developer-tools", "created_at": 1773065300411, "description": "Go language patterns for 2026 — concurrency with errgroup, error wrapping, HTTP servers, gRPC, database access, testing, and CLI with Cobra", "description_zh": "", "downloads": 215, "homepage": "https://clawhub.ai/msruruguay/go-patterns", "iconUrl": null, "installs": 8, "name": "Go Patterns", "ownerName": "msruruguay", "score": 76785.71428571429, "slug": "go-patterns", "source": "clawhub", "stars": 0, "tags": null, "updated_at": 1776749104781, "version": "1.0.0"}, {"category": "developer-tools", "created_at": 1773215872349, "description": "Control the user's real Safari browser on macOS using AppleScript and screencapture. Read pages, click elements, type text, take screenshots, navigate tabs —...", "description_zh": "", "downloads": 214, "homepage": "https://clawhub.ai/sdlll/safari-browser-control", "iconUrl": null, "installs": 15, "name": "Safari Browser Control", "ownerName": "sdlll", "score": 100000, "slug": "safari-browser-control", "source": "clawhub", "stars": 1, "tags": ["ai-agent", "applescript", "browser-automation", "browser-control", "macos", "safari"], "updated_at": 1776749105042, "version": "1.0.0"}, {"category": "content-creation", "created_at": 1773425084971, "description": "AI image and video generation service - supports text-to-image, image-to-image, and video generation. Automatic API key registration supported for limited-ti...", "description_zh": "", "downloads": 214, "homepage": "https://clawhub.ai/regalzzz/aoment-visuals", "iconUrl": null, "installs": 41, "name": "Aoment Visuals", "ownerName": "regalzzz", "score": 100000, "slug": "aoment-visuals", "source": "clawhub", "stars": 1, "tags": null, "updated_at": 1776749105029, "version": "1.0.5"}, {"category": "developer-tools", "created_at": 1773068114665, "description": "Orchestrate coding sub-agents (Claude Code, Codex, Cursor, Gemini Code, or any CLI-based coding agent) for maximum throughput on implementation tasks. Use wh...", "description_zh": "", "downloads": 214, "homepage": "https://clawhub.ai/aicodelion/agent-conductor", "iconUrl": null, "installs": 10, "name": "Agent Conductor", "ownerName": "aicodelion", "score": 84782.60869565218, "slug": "agent-conductor", "source": "clawhub", "stars": 1, "tags": null, "updated_at": 1776749104857, "version": "1.0.0"}, {"category": "developer-tools", "created_at": 1773080451245, "description": "Master Orchestrator coordinating 10 specialized subagents to produce complete doctorate-level research papers (12,000-15,000 words) in Word document format (...", "description_zh": "", "downloads": 214, "homepage": "https://clawhub.ai/selormofmars/research-paper-orchestrator", "iconUrl": null, "installs": 26, "name": "Research Paper Orchestrator", "ownerName": "selormofmars", "score": 658.7453056701348, "slug": "research-paper-orchestrator", "source": "clawhub", "stars": 0, "tags": null, "updated_at": 1776770649952, "version": "1.0.0"}, {"category": "content-creation", "created_at": 1773284800982, "description": "Generate and decode QR codes using CaoLiao QR Code API. Use when the user wants to create a QR code from text/URL, decode/read QR code content from an image,...", "description_zh": "", "downloads": 214, "homepage": "https://clawhub.ai/hinisal/qrcode-skills", "iconUrl": null, "installs": 8, "name": "qrcode", "ownerName": "hinisal", "score": 966.3144585929739, "slug": "qrcode-skills", "source": "clawhub", "stars": 0, "tags": null, "updated_at": 1776769490543, "version": "1.0.0"}, {"category": "developer-tools", "created_at": 1773084773272, "description": "Render cloud platform — manage services, deployments, databases, environment groups, and custom domains via the Render API. Deploy web services, static sites...", "description_zh": "", "downloads": 214, "homepage": "https://clawhub.ai/aiwithabidi/render", "iconUrl": null, "installs": 11, "name": "Render", "ownerName": "aiwithabidi", "score": 1731.6717915520312, "slug": "render", "source": "clawhub", "stars": 0, "tags": null, "updated_at": 1776766449814, "version": "1.0.0"}, {"category": "data-analysis", "created_at": 1773066672794, "description": "Code review automation for TypeScript, JavaScript, Python, Go, Swift, Kotlin. Analyzes PRs for complexity and risk, checks code quality for SOLID violations...", "description_zh": "", "downloads": 214, "homepage": "https://clawhub.ai/alirezarezvani/code-reviewer-2", "iconUrl": null, "installs": 17, "name": "Senior Code Reviewer", "ownerName": "alirezarezvani", "score": 2502.338634237605, "slug": "code-reviewer-2", "source": "clawhub", "stars": 0, "tags": null, "updated_at": 1776766149775, "version": "0.1.0"}, {"category": "", "created_at": 1774955994542, "description": "82 statistical analysis methods in R — regression, survival, Bayesian, meta-analysis, causal inference, SEM, IRT, clinical trial design, and more. JSON spec...", "description_zh": "", "downloads": 214, "homepage": "https://clawhub.ai/cuiweig/r-stats", "iconUrl": null, "installs": 65, "name": "R Stats — 82 Statistical Methods", "ownerName": "cuiweig", "score": 7604.832977967306, "slug": "r-stats", "source": "clawhub", "stars": 0, "tags": null, "updated_at": 1776765971302, "version": "0.7.0"}, {"category": "data-analysis", "created_at": 1773080440189, "description": "Generate Upwork/freelance bid materials from a job description, including English proposal draft, bid-worthiness score, pricing suggestion (fixed/hourly), mi...", "description_zh": "", "downloads": 214, "homepage": "https://clawhub.ai/jeterwang/proposal-copilot", "iconUrl": null, "installs": 18, "name": "Proposal Copilot", "ownerName": "jeterwang", "score": 2277.0802298361355, "slug": "proposal-copilot", "source": "clawhub", "stars": 0, "tags": ["billing", "proposal", "upwork"], "updated_at": 1776765590574, "version": "2.0.0"}, {"category": "ai-intelligence", "created_at": 1773219018753, "description": "Summarize recent posts from followed Knowledge Planet circles into a daily digest prioritizing key updates using local tokens or browser relay for access.", "description_zh": "", "downloads": 214, "homepage": "https://clawhub.ai/sealiu1997/zsxq-digest", "iconUrl": null, "installs": 26, "name": "ZSXQ Digest", "ownerName": "sealiu1997", "score": 7067.371202113606, "slug": "zsxq-digest", "source": "clawhub", "stars": 0, "tags": null, "updated_at": 1776761580276, "version": "0.1.0"}, {"category": "content-creation", "created_at": 1773091571862, "description": "Generate animated videos from SVG frames using text LLM. Supports any subject (animals, humans, characters, scenes, abstract art), automatic duration calcula...", "description_zh": "", "downloads": 214, "homepage": "https://clawhub.ai/juliantsaiii/svg-animator", "iconUrl": null, "installs": 28, "name": "SVG Animator", "ownerName": "juliantsaiii", "score": 16679.657053780204, "slug": "svg-animator", "source": "clawhub", "stars": 0, "tags": null, "updated_at": 1776759798071, "version": "1.0.0"}, {"category": "developer-tools", "created_at": 1773066480499, "description": "Implements HTTP request retries with exponential backoff and a configurable circuit breaker to reduce failures and prevent cascading errors.", "description_zh": "", "downloads": 214, "homepage": "https://clawhub.ai/qwe123sddfsdfs/http-retry-circuit-breaker", "iconUrl": null, "installs": 7, "name": "HTTP Retry Circuit Breaker", "ownerName": "qwe123sddfsdfs", "score": 16249.05087319666, "slug": "http-retry-circuit-breaker", "source": "clawhub", "stars": 0, "tags": ["circuit-breaker", "evomap", "http", "retry"], "updated_at": 1776759420882, "version": "1.0.0"}, {"category": "developer-tools", "created_at": 1773066963316, "description": "Generate a concise daily standup report summarizing completed tasks, today's plan, and blockers from provided data or user input.", "description_zh": "", "downloads": 214, "homepage": "https://clawhub.ai/guaiyu11/daily-standup-generator", "iconUrl": null, "installs": 7, "name": "Daily Standup Generator", "ownerName": "guaiyu11", "score": 16249.05087319666, "slug": "daily-standup-generator", "source": "clawhub", "stars": 0, "tags": null, "updated_at": 1776759420872, "version": "1.0.0"}, {"category": "content-creation", "created_at": 1773066004254, "description": "Post formatted content simultaneously across MoltX, Twitter/X, Discord, and Telegram from one command with platform-specific optimization.", "description_zh": "", "downloads": 214, "homepage": "https://clawhub.ai/imaflytok/clawswarm-poster", "iconUrl": null, "installs": 7, "name": "ClawSwarm Cross-Platform Poster", "ownerName": "imaflytok", "score": 95535.71428571429, "slug": "clawswarm-poster", "source": "clawhub", "stars": 0, "tags": null, "updated_at": 1776759420857, "version": "1.0.0"}, {"category": "security-compliance", "created_at": 1773063722015, "description": "Provides expert SRE support for OpenClaw environments including health checks, connectivity fixes, execution stabilization, and security hardening guidance.", "description_zh": "", "downloads": 214, "homepage": "https://clawhub.ai/xyezir/oc-sre-on-demand-service", "iconUrl": null, "installs": 3, "name": "OC SRE On-Demand Service", "ownerName": "xyezir", "score": 95535.71428571429, "slug": "oc-sre-on-demand-service", "source": "clawhub", "stars": 0, "tags": null, "updated_at": 1776759420856, "version": "0.1.0"}, {"category": "productivity", "created_at": 1773213444270, "description": "Monitor DeFi lending and savings positions across Aave v3, SparkLend, Spark Savings, and Kamino with balances, APYs, health factors, and yield tracking.", "description_zh": "", "downloads": 214, "homepage": "https://clawhub.ai/reed1898/defi-yield-monitor", "iconUrl": null, "installs": 10, "name": "DeFi Yield Monitor", "ownerName": "reed1898", "score": 95535.71428571429, "slug": "defi-yield-monitor", "source": "clawhub", "stars": 0, "tags": null, "updated_at": 1776759420852, "version": "1.1.0"}, {"category": "content-creation", "created_at": 1773083669959, "description": "Helps write C# node classes for vvvv gamma — the [ProcessNode] pattern, Update() method, out parameters, pin configuration, change detection, stateless opera...", "description_zh": "", "downloads": 214, "homepage": "https://clawhub.ai/tebjan/vvvv-custom-nodes", "iconUrl": null, "installs": 26, "name": "Vvvv Custom Nodes", "ownerName": "tebjan", "score": 95535.71428571429, "slug": "vvvv-custom-nodes", "source": "clawhub", "stars": 0, "tags": null, "updated_at": 1776759420850, "version": "1.0.0"}, {"category": "developer-tools", "created_at": 1773081258001, "description": "Provides real-time cryptocurrency prices in USD for any coin using the CoinGecko API, with a cost of 0.001 USDT per call.", "description_zh": "", "downloads": 214, "homepage": "https://clawhub.ai/loverun321/crypto-price-skill", "iconUrl": null, "installs": 12, "name": "Crypto Price Skill", "ownerName": "loverun321", "score": 95535.71428571429, "slug": "crypto-price-skill", "source": "clawhub", "stars": 0, "tags": null, "updated_at": 1776759420844, "version": "1.0.0"}, {"category": "communication-collaboration", "created_at": 1772804617404, "description": "Create temporary email addresses and monitor for registration OTP codes or validation links", "description_zh": "", "downloads": 214, "homepage": "https://clawhub.ai/etopro/email-otp", "iconUrl": null, "installs": 10, "name": "Email OTP", "ownerName": "etopro", "score": 40000, "slug": "email-otp", "source": "clawhub", "stars": 0, "tags": null, "updated_at": 1776753115889, "version": "1.0.0"}, {"category": "productivity", "created_at": 1773067535793, "description": "Reconstructs your full working context when you return to a task after an interruption — meeting, lunch, sleep, weekend, or three-week vacation. Not session...", "description_zh": "", "downloads": 214, "homepage": "https://clawhub.ai/jcools1977/context-resume", "iconUrl": null, "installs": 5, "name": "Context Resume", "ownerName": "jcools1977", "score": 37943.26241134752, "slug": "context-resume", "source": "clawhub", "stars": 0, "tags": null, "updated_at": 1776752269653, "version": "1.0.0"}, {"category": "developer-tools", "created_at": 1772804838791, "description": "Manage intents and entity types in Google Dialogflow CX via REST API. Use for creating, updating, and managing natural language understanding components. Sup...", "description_zh": "", "downloads": 214, "homepage": "https://clawhub.ai/yash-kavaiya/dialogflow-cx-nlu", "iconUrl": null, "installs": 6, "name": "Dialogflow Cx Nlu", "ownerName": "yash-kavaiya", "score": 91452.99145299145, "slug": "dialogflow-cx-nlu", "source": "clawhub", "stars": 0, "tags": null, "updated_at": 1776749105040, "version": "1.0.0"}, {"category": "security-compliance", "created_at": 1773066376657, "description": "Your Apple Calendar, on any platform. iCloud Calendar skill via CalDAV (RFC 4791) — works on macOS/Linux, and Windows with env/keyring auth. Supports event C...", "description_zh": "", "downloads": 214, "homepage": "https://clawhub.ai/xushen-ma/apple-cal-anywhere", "iconUrl": null, "installs": 17, "name": "Apple Cal Anywhere", "ownerName": "xushen-ma", "score": 90295.35864978902, "slug": "apple-cal-anywhere", "source": "clawhub", "stars": 0, "tags": null, "updated_at": 1776749104989, "version": "1.3.0"}, {"category": "productivity", "created_at": 1773076854847, "description": "X Tweet Speedread (Premium) — instant English brief for any X post. Charge-first direct mode via SkillPay (0.001 USDT/call).", "description_zh": "", "downloads": 214, "homepage": "https://clawhub.ai/huangkefeng-ai/x-tweet-speedread-skill", "iconUrl": null, "installs": 6, "name": "X Tweet Speedread", "ownerName": "huangkefeng-ai", "score": 90295.35864978902, "slug": "x-tweet-speedread-skill", "source": "clawhub", "stars": 0, "tags": null, "updated_at": 1776749104985, "version": "1.2.2"}, {"category": "productivity", "created_at": 1773091383162, "description": "Solana token launch and trading tools via the OpenPump MCP server. All trading actions require explicit user confirmation before execution. Use when creating...", "description_zh": "", "downloads": 214, "homepage": "https://clawhub.ai/fullstacktard/openpump-solana-mcp", "iconUrl": null, "installs": 6, "name": "Openpump Solana Mcp", "ownerName": "fullstacktard", "score": 90295.35864978902, "slug": "openpump-solana-mcp", "source": "clawhub", "stars": 0, "tags": ["crypto", "defi", "mcp", "pump-fun", "solana", "trading"], "updated_at": 1776749104979, "version": "1.1.0"}, {"category": "developer-tools", "created_at": 1773074794572, "description": "Human-in-the-loop approval for high-risk agent actions (sudo protocol). Agent must call letsping_ask before destructive/financial/social/infra changes.", "description_zh": "", "downloads": 214, "homepage": "https://clawhub.ai/cordialabsio/letsping", "iconUrl": null, "installs": 19, "name": "letsping", "ownerName": "cordialabsio", "score": 90295.35864978902, "slug": "letsping", "source": "clawhub", "stars": 0, "tags": null, "updated_at": 1776749104954, "version": "0.3.5"}, {"category": "data-analysis", "created_at": 1773066445748, "description": "Market research and competitive intelligence pack. Competitive analysis, market sizing, financial benchmarking, web research, report generation, and competit...", "description_zh": "", "downloads": 214, "homepage": "https://clawhub.ai/romainsantoli-web/firm-market-research-pack", "iconUrl": null, "installs": 14, "name": "Firm Market Research Pack", "ownerName": "romainsantoli-web", "score": 90295.35864978902, "slug": "firm-market-research-pack", "source": "clawhub", "stars": 0, "tags": null, "updated_at": 1776749104945, "version": "1.0.0"}, {"category": "developer-tools", "created_at": 1773075013806, "description": "Navigate and use OpenClaw documentation efficiently with cached doc fetch/search tooling, sitemap/category routing, and config snippet lookup. Use when answe...", "description_zh": "", "downloads": 214, "homepage": "https://clawhub.ai/ollieb89/new-openclaw-docs", "iconUrl": null, "installs": 10, "name": "New Openclaw Docs", "ownerName": "ollieb89", "score": 77536.23188405797, "slug": "new-openclaw-docs", "source": "clawhub", "stars": 0, "tags": null, "updated_at": 1776749104922, "version": "1.1.0"}, {"category": "communication-collaboration", "created_at": 1773064924887, "description": "Dating platform for AI agents — register, match, chat, fall in love, and start drama.", "description_zh": "", "downloads": 214, "homepage": "https://clawhub.ai/drewangeloff/gradientdesires-skill", "iconUrl": null, "installs": 5, "name": "GradientDesires", "ownerName": "drewangeloff", "score": 77536.23188405797, "slug": "gradientdesires-skill", "source": "clawhub", "stars": 0, "tags": null, "updated_at": 1776749104908, "version": "1.1.0"}, {"category": "communication-collaboration", "created_at": 1773219059534, "description": "Bridges OpenClaw (QQ, Telegram, WeChat, and other messaging channels) to a persistent Claude Code CLI session running in a background tmux process. Enables s...", "description_zh": "", "downloads": 214, "homepage": "https://clawhub.ai/zlhad/cc-bridge", "iconUrl": null, "installs": 24, "name": "Claude Code Bridge", "ownerName": "zlhad", "score": 77536.23188405797, "slug": "cc-bridge", "source": "clawhub", "stars": 0, "tags": null, "updated_at": 1776749104906, "version": "0.2.1"}, {"category": "communication-collaboration", "created_at": 1772801896684, "description": "Autonomous Razorpay payment monitoring for Indian merchants. Tracks daily settlements, detects failed payments, sends WhatsApp/Telegram alerts for anomalies,...", "description_zh": "", "downloads": 214, "homepage": "https://clawhub.ai/utsavs/razorpay-monitor", "iconUrl": null, "installs": 11, "name": "razorpay monitor", "ownerName": "utsavs", "score": 77536.23188405797, "slug": "razorpay-monitor", "source": "clawhub", "stars": 0, "tags": ["razorpay"], "updated_at": 1776749104868, "version": "1.0.0"}, {"category": "productivity", "created_at": 1773064385114, "description": "Target company evaluation and deal qualification for PE and strategic buyers", "description_zh": "", "downloads": 214, "homepage": "https://clawhub.ai/aniebyl/olo-deal-screening", "iconUrl": null, "installs": 11, "name": "Olo Deal Screening", "ownerName": "aniebyl", "score": 60112.3595505618, "slug": "olo-deal-screening", "source": "clawhub", "stars": 0, "tags": null, "updated_at": 1776749104851, "version": "1.0.0"}, {"category": "data-analysis", "created_at": 1773069283098, "description": "Universal database IDE CLI — query PostgreSQL, MySQL, SQLite, BigQuery, MongoDB with cost projection", "description_zh": "", "downloads": 214, "homepage": "https://clawhub.ai/olegnazarov23/warehouse-ui", "iconUrl": null, "installs": 12, "name": "Warehouse UI", "ownerName": "olegnazarov23", "score": 60112.3595505618, "slug": "warehouse-ui", "source": "clawhub", "stars": 0, "tags": null, "updated_at": 1776749104847, "version": "0.10.0"}]}