{"page": 294, "total_pages": 522, "total": 26073, "skills": [{"category": "data-analysis", "created_at": 1772805409009, "description": "Expert en pilotage de projets de transformation, diagnostic de services et optimisation des processus bancaires au Crédit Agricole. Utiliser cette compétence...", "description_zh": "", "downloads": 214, "homepage": "https://clawhub.ai/thibautnext/analyste-du-travail", "iconUrl": null, "installs": 11, "name": "Analyste Du Travail", "ownerName": "thibautnext", "score": 60112.3595505618, "slug": "analyste-du-travail", "source": "clawhub", "stars": 0, "tags": null, "updated_at": 1776749104836, "version": "1.0.0"}, {"category": "ai-intelligence", "created_at": 1773068814201, "description": "Proactive task state management. Use on EVERY task start, progress update, completion, or failure. Tracks what was requested, what's running (background proc...", "description_zh": "", "downloads": 214, "homepage": "https://clawhub.ai/sunshine-del-ux/new-agent-task-tracker", "iconUrl": null, "installs": 14, "name": "agent-task-tracker", "ownerName": "sunshine-del-ux", "score": 60112.3595505618, "slug": "new-agent-task-tracker", "source": "clawhub", "stars": 0, "tags": null, "updated_at": 1776749104831, "version": "1.0.0"}, {"category": "content-creation", "created_at": 1773219277284, "description": "Use when building applications that generate images, videos, or other AI-generated content. Reach for this skill when you need to integrate text-to-image, te...", "description_zh": "", "downloads": 214, "homepage": "https://clawhub.ai/modellix/modellix", "iconUrl": null, "installs": 21, "name": "Modellix", "ownerName": "modellix", "score": 60112.3595505618, "slug": "modellix", "source": "clawhub", "stars": 0, "tags": null, "updated_at": 1776749104795, "version": "1.0.0"}, {"category": "ai-intelligence", "created_at": 1773089837807, "description": "Mine BOTCOIN by solving AI challenges on Base with stake-gated V2 mining.", "description_zh": "", "downloads": 213, "homepage": "https://clawhub.ai/botcoinmoney/botcoin-miner-skill", "iconUrl": null, "installs": 11, "name": "Botcoin Miner", "ownerName": "botcoinmoney", "score": 100000, "slug": "botcoin-miner-skill", "source": "clawhub", "stars": 2, "tags": ["botcoin", "coin", "mine", "miner", "solve"], "updated_at": 1776749144746, "version": "0.1.0"}, {"category": "security-compliance", "created_at": 1773850016274, "description": "Mask and redact sensitive information (PII) in screenshots and images — phone numbers, emails, IDs, API keys, crypto wallets, credit cards, passwords, and mo...", "description_zh": "", "downloads": 213, "homepage": "https://clawhub.ai/fullstackcrew-alpha/privacy-mask", "iconUrl": null, "installs": 15, "name": "Privacy Mask", "ownerName": "fullstackcrew-alpha", "score": 3769.61656689856, "slug": "privacy-mask", "source": "clawhub", "stars": 1, "tags": ["api-keys", "claude-code", "data-protection", "gliner", "local", "masking", "named-entity-recognition", "ner", "ocr", "offline", "pii", "privacy", "redaction", "screenshot", "secrets", "security", "sensitive-data"], "updated_at": 1776762850489, "version": "0.3.3"}, {"category": "content-creation", "created_at": 1773069327396, "description": "Create animated talking-circle videos (Telegram-style round video messages) from avatar frame images and audio. Supports audio-to-video and text-to-video via...", "description_zh": "", "downloads": 213, "homepage": "https://clawhub.ai/rai220/talking-circle", "iconUrl": null, "installs": 15, "name": "Talking Circle", "ownerName": "rai220", "score": 100000, "slug": "talking-circle", "source": "clawhub", "stars": 1, "tags": null, "updated_at": 1776749145001, "version": "1.0.0"}, {"category": "ai-intelligence", "created_at": 1773079330351, "description": "Install and configure headless Chrome for OpenClaw browser tool in environments without root/sudo access (cloud containers, VPS, sandboxed hosts). Use when:...", "description_zh": "", "downloads": 213, "homepage": "https://clawhub.ai/huangdawei/browser-setup", "iconUrl": null, "installs": 17, "name": "Browser Setup (No-Root Linux)", "ownerName": "huangdawei", "score": 92094.86166007906, "slug": "browser-setup", "source": "clawhub", "stars": 1, "tags": null, "updated_at": 1776749144981, "version": "1.0.0"}, {"category": "ai-intelligence", "created_at": 1773218904349, "description": "AI-powered web search skill for retrieving real-time internet information, news, research data, and fact-checking from multiple online sources.", "description_zh": "", "downloads": 213, "homepage": "https://clawhub.ai/prismheart/cloudsway-aisearch", "iconUrl": null, "installs": 18, "name": "AISearch", "ownerName": "prismheart", "score": 4354.047424366312, "slug": "cloudsway-aisearch", "source": "clawhub", "stars": 0, "tags": null, "updated_at": 1776763750186, "version": "1.0.5"}, {"category": "productivity", "created_at": 1773067730313, "description": "Global landed cost calculator for traders shipping to the US. Queries live USITC tariffs, stacks Section 232/301/AD-CVD duties, monitors FX rates and ocean f...", "description_zh": "", "downloads": 213, "homepage": "https://clawhub.ai/zhaoningliu1-lang/tariff-watch", "iconUrl": null, "installs": 16, "name": "Tariff Watch Clean", "ownerName": "zhaoningliu1-lang", "score": 3591.2999494183105, "slug": "tariff-watch", "source": "clawhub", "stars": 0, "tags": null, "updated_at": 1776763150032, "version": "3.2.0"}, {"category": "content-creation", "created_at": 1773416164810, "description": "Use PoYo AI GPT-4o Image through the `https://api.poyo.ai/api/generate/submit` endpoint. Use when a user wants to generate or edit media with this model fami...", "description_zh": "", "downloads": 213, "homepage": "https://clawhub.ai/coolhackboy/poyo-gpt-4o-image", "iconUrl": null, "installs": 53, "name": "GPT-4o-image", "ownerName": "coolhackboy", "score": 5492.521918514699, "slug": "poyo-gpt-4o-image", "source": "clawhub", "stars": 0, "tags": null, "updated_at": 1776762850392, "version": "1.0.0"}, {"category": "ai-intelligence", "created_at": 1773432903730, "description": "Comprehensive image understanding - objects, text, colors", "description_zh": "", "downloads": 213, "homepage": "https://clawhub.ai/cyberforexblockchain/nexus-image-analysis", "iconUrl": null, "installs": 15, "name": "NEXUS Image Analysis", "ownerName": "cyberforexblockchain", "score": 3182.904961147639, "slug": "nexus-image-analysis", "source": "clawhub", "stars": 0, "tags": null, "updated_at": 1776762850047, "version": "1.0.0"}, {"category": "data-analysis", "created_at": 1773284632590, "description": "Diagnose pipeline health, detect stalled deals, and surface what needs attention this week. Built for sales teams managing active opportunities.", "description_zh": "", "downloads": 213, "homepage": "https://clawhub.ai/depinhq/pipeline", "iconUrl": null, "installs": 15, "name": "Pipeline", "ownerName": "depinhq", "score": 5039.034776437189, "slug": "pipeline", "source": "clawhub", "stars": 0, "tags": ["operations", "pipeline", "process", "sales", "workflow"], "updated_at": 1776760582341, "version": "2.0.0"}, {"category": "content-creation", "created_at": 1773089707779, "description": "AI-powered Investor Relations Manager - automated video generation for earnings reports, financial updates, and stakeholder communications", "description_zh": "", "downloads": 213, "homepage": "https://clawhub.ai/zhenstaff/investor-relations-manager", "iconUrl": null, "installs": 21, "name": "Investor Relations Manager", "ownerName": "zhenstaff", "score": 100000, "slug": "investor-relations-manager", "source": "clawhub", "stars": 0, "tags": null, "updated_at": 1776759983210, "version": "1.0.0"}, {"category": "data-analysis", "created_at": 1773083256338, "description": "Control the local vibe-kanban MCP server to list orgs/projects/issues, create/update issues, manage workspaces, and find dashboard ports on macOS.", "description_zh": "", "downloads": 213, "homepage": "https://clawhub.ai/devbd1/vibe-kanban-mcp", "iconUrl": null, "installs": 15, "name": "Vibe Kanban MCP", "ownerName": "devbd1", "score": 100000, "slug": "vibe-kanban-mcp", "source": "clawhub", "stars": 0, "tags": null, "updated_at": 1776759421335, "version": "0.1.1"}, {"category": "security-compliance", "created_at": 1773079143814, "description": "Self-evolving security system for agent skills enforcing risk assessment, audit logging, tiered approvals, and continuous rule updates on all skill commands.", "description_zh": "", "downloads": 213, "homepage": "https://clawhub.ai/echoofzion/little-steve-agent-guard", "iconUrl": null, "installs": 13, "name": "Little Steve Agent Guard", "ownerName": "echoofzion", "score": 16173.120728929385, "slug": "little-steve-agent-guard", "source": "clawhub", "stars": 0, "tags": null, "updated_at": 1776759420944, "version": "0.1.4"}, {"category": "", "created_at": 1774842492767, "description": "Expertise in TRAE IDE's modular Skills architecture, enabling creation, management, and automation of custom workflows for enhanced AI-driven development.", "description_zh": "", "downloads": 213, "homepage": "https://clawhub.ai/duanc-chao/trae", "iconUrl": null, "installs": 58, "name": "Trae", "ownerName": "duanc-chao", "score": 16173.120728929385, "slug": "trae", "source": "clawhub", "stars": 0, "tags": null, "updated_at": 1776759420870, "version": "1.0.0"}, {"category": "security-compliance", "created_at": 1773069506753, "description": "Monitors and scores agent identity and memory integrity by hashing key files, tracking changes, detecting drift, and providing continuity alerts for OpenClaw...", "description_zh": "", "downloads": 213, "homepage": "https://clawhub.ai/cassh100k/nix-memory", "iconUrl": null, "installs": 4, "name": "nix-memory", "ownerName": "cassh100k", "score": 16173.120728929385, "slug": "nix-memory", "source": "clawhub", "stars": 0, "tags": null, "updated_at": 1776759420867, "version": "1.0.0"}, {"category": "data-analysis", "created_at": 1773080607969, "description": "Generates short signals predicting 30%+ coin drops within 7 days based on historical token unlock schedules and price trends analysis.", "description_zh": "", "downloads": 213, "homepage": "https://clawhub.ai/dennyhuang2024/crypto-short-signal", "iconUrl": null, "installs": 9, "name": "Crypto Short Signal Generator", "ownerName": "dennyhuang2024", "score": 95089.28571428571, "slug": "crypto-short-signal", "source": "clawhub", "stars": 0, "tags": null, "updated_at": 1776759420865, "version": "1.0.0"}, {"category": "developer-tools", "created_at": 1773074557750, "description": "Build and scale customer support for a solopreneur business. Use when setting up support channels, writing help docs, reducing support volume, improving resp...", "description_zh": "", "downloads": 213, "homepage": "https://clawhub.ai/jk-0001/support-systems", "iconUrl": null, "installs": 16, "name": "Support Systems", "ownerName": "jk-0001", "score": 14589.041095890412, "slug": "support-systems", "source": "clawhub", "stars": 0, "tags": null, "updated_at": 1776758482253, "version": "0.1.0"}, {"category": "developer-tools", "created_at": 1773434345533, "description": "Deploy frontend and full-stack projects to EdgeOne Pages (Tencent EdgeOne). Use when the user wants to deploy, publish, ship, host, launch, or go live on Edg...", "description_zh": "", "downloads": 213, "homepage": "https://clawhub.ai/vincentism/edgeone-pages-deploy", "iconUrl": null, "installs": 65, "name": "EdgeOne Pages Deploy", "ownerName": "vincentism", "score": 11002.066115702479, "slug": "edgeone-pages-deploy", "source": "clawhub", "stars": 0, "tags": null, "updated_at": 1776753944540, "version": "1.0.0"}, {"category": "productivity", "created_at": 1773076802238, "description": "Embedded UX research skill that passively observes interactions, administers post-task and end-of-day surveys, captures verbatim quotes, detects friction and...", "description_zh": "", "downloads": 213, "homepage": "https://clawhub.ai/giulianomorse/observer", "iconUrl": null, "installs": 1, "name": "nutcracker", "ownerName": "giulianomorse", "score": 91416.30901287554, "slug": "observer", "source": "clawhub", "stars": 0, "tags": null, "updated_at": 1776749145038, "version": "1.0.0"}, {"category": "security-compliance", "created_at": 1772804248730, "description": "Publish OpenClaw skills to ClawHub using the web dashboard only (no CLI login). Use when an agent must reliably upload a local skill folder, avoid auth-loop...", "description_zh": "", "downloads": 213, "homepage": "https://clawhub.ai/dalomeve/clawhub-web-publisher", "iconUrl": null, "installs": 4, "name": "ClawHub Web Publisher", "ownerName": "dalomeve", "score": 91416.30901287554, "slug": "clawhub-web-publisher", "source": "clawhub", "stars": 0, "tags": null, "updated_at": 1776749145030, "version": "1.0.0"}, {"category": "developer-tools", "created_at": 1773217877773, "description": "Answer any Minecraft Java Edition gameplay question — facts, mechanics, strategies, recipes, item properties, mob behaviors, and version differences. Always...", "description_zh": "", "downloads": 213, "homepage": "https://clawhub.ai/en1r0py1865/minecraft-wiki", "iconUrl": null, "installs": 26, "name": "Minecraft Wiki", "ownerName": "en1r0py1865", "score": 91416.30901287554, "slug": "minecraft-wiki", "source": "clawhub", "stars": 0, "tags": null, "updated_at": 1776749145019, "version": "1.0.0"}, {"category": "content-creation", "created_at": 1773077752084, "description": "Generate well-structured technical documents, reports, and summaries with consistent formatting. Use this skill whenever the user asks to write a technical d...", "description_zh": "", "downloads": 213, "homepage": "https://clawhub.ai/mofeiguo/demo-skill", "iconUrl": null, "installs": 15, "name": "demo-skill", "ownerName": "mofeiguo", "score": 78597.78597785978, "slug": "demo-skill", "source": "clawhub", "stars": 0, "tags": null, "updated_at": 1776749144906, "version": "1.0.0"}, {"category": "developer-tools", "created_at": 1772805672457, "description": "Moltbook is dead. Migrate your agent identity, reputation, and social connections to ClawSwarm — the open coordination platform that can't be shut down. One...", "description_zh": "", "downloads": 213, "homepage": "https://clawhub.ai/imaflytok/moltbook-refugee", "iconUrl": null, "installs": 6, "name": "Moltbook Refugee", "ownerName": "imaflytok", "score": 78597.78597785978, "slug": "moltbook-refugee", "source": "clawhub", "stars": 0, "tags": null, "updated_at": 1776749144877, "version": "1.0.0"}, {"category": "productivity", "created_at": 1773076266391, "description": "Scrape employee data from a logged-in SAP SuccessFactors browser session using browser automation. Use when: user provides an employee ID and wants employee...", "description_zh": "", "downloads": 213, "homepage": "https://clawhub.ai/venkatalokesh-dot/sf-scraper", "iconUrl": null, "installs": 7, "name": "Sf Scraper", "ownerName": "venkatalokesh-dot", "score": 84189.72332015811, "slug": "sf-scraper", "source": "clawhub", "stars": 0, "tags": null, "updated_at": 1776749144808, "version": "0.1.0"}, {"category": "developer-tools", "created_at": 1773064503089, "description": "On-device speech-to-text (Whisper) + text-to-speech (Qwen3-TTS) CLI. Runs on the Apple Neural Engine (ANE), Apple's low power, dedicated ML inference chip. M...", "description_zh": "", "downloads": 213, "homepage": "https://clawhub.ai/zachnagengast/argmax-cli", "iconUrl": null, "installs": 15, "name": "Argmax Transcription and TTS", "ownerName": "zachnagengast", "score": 84189.72332015811, "slug": "argmax-cli", "source": "clawhub", "stars": 0, "tags": null, "updated_at": 1776749144799, "version": "1.0.1"}, {"category": "content-creation", "created_at": 1773090083242, "description": "Edit, polish, and improve a blog post draft written in Markdown. Use this skill whenever the user wants to refine a blog draft — fixing grammar, improving cl...", "description_zh": "", "downloads": 213, "homepage": "https://clawhub.ai/j3ffyang/blog-editor", "iconUrl": null, "installs": 19, "name": "Blog Editor", "ownerName": "j3ffyang", "score": 84189.72332015811, "slug": "blog-editor", "source": "clawhub", "stars": 0, "tags": null, "updated_at": 1776749144774, "version": "1.0.3"}, {"category": "productivity", "created_at": 1772799156405, "description": "Automate Linear.app workflows in the OpenClaw-managed browser profile using browser tool actions (open, navigate, snapshot, act). Use when users want UI-base...", "description_zh": "", "downloads": 213, "homepage": "https://clawhub.ai/hassam-powerhouse/lba", "iconUrl": null, "installs": 5, "name": "LBA", "ownerName": "hassam-powerhouse", "score": 84189.72332015811, "slug": "lba", "source": "clawhub", "stars": 0, "tags": null, "updated_at": 1776749144742, "version": "1.0.2"}, {"category": "developer-tools", "created_at": 1773082868123, "description": "Set up and use 1Password CLI (op). Use when installing the CLI, enabling desktop app integration, signing in (single or multi-account), or reading/injecting/...", "description_zh": "", "downloads": 213, "homepage": "https://clawhub.ai/daggerkun007/1password-1-0-1", "iconUrl": null, "installs": 37, "name": "1password 1.0.1", "ownerName": "daggerkun007", "score": 92608.6956521739, "slug": "1password-1-0-1", "source": "clawhub", "stars": 0, "tags": null, "updated_at": 1776749144704, "version": "1.0.0"}, {"category": "developer-tools", "created_at": 1773067802485, "description": "CLI for searching, retrieving anime and manga information, interacting with user profile and lists on Anilist, and more.", "description_zh": "", "downloads": 213, "homepage": "https://clawhub.ai/mtsku/anilist", "iconUrl": null, "installs": 13, "name": "AniList CLI", "ownerName": "mtsku", "score": 92608.6956521739, "slug": "anilist", "source": "clawhub", "stars": 0, "tags": null, "updated_at": 1776749144700, "version": "0.3.2"}, {"category": "ai-intelligence", "created_at": 1773076465184, "description": "Domain and DNS operations across name.com (default), GoDaddy, and Namecheap. Use for registering domains, flipping nameservers, managing DNS records (A, AAAA...", "description_zh": "", "downloads": 213, "homepage": "https://clawhub.ai/iahmadzain/domainion-ops", "iconUrl": null, "installs": 11, "name": "Domainion Ops", "ownerName": "iahmadzain", "score": 92207.79220779221, "slug": "domainion-ops", "source": "clawhub", "stars": 0, "tags": null, "updated_at": 1776749144624, "version": "1.0.0"}, {"category": "productivity", "created_at": 1773078127548, "description": "Google Calendar: Show upcoming events across all calendars.", "description_zh": "", "downloads": 213, "homepage": "https://clawhub.ai/googleworkspace-bot/gws-calendar-agenda", "iconUrl": null, "installs": 14, "name": "Gws Calendar Agenda", "ownerName": "googleworkspace-bot", "score": 92207.79220779221, "slug": "gws-calendar-agenda", "source": "clawhub", "stars": 0, "tags": null, "updated_at": 1776749144567, "version": "1.0.0"}, {"category": "data-analysis", "created_at": 1773065953367, "description": "A precision discovery engine for agentic tasks and bounties. Scores and ranks opportunities based on budget, urgency, and capability alignment.", "description_zh": "", "downloads": 213, "homepage": "https://clawhub.ai/horn111/agent-bounty-scanner", "iconUrl": null, "installs": 21, "name": "Agent Bounty Scanner", "ownerName": "horn111", "score": 92207.79220779221, "slug": "agent-bounty-scanner", "source": "clawhub", "stars": 0, "tags": null, "updated_at": 1776749144546, "version": "1.0.1"}, {"category": "developer-tools", "created_at": 1773081971643, "description": "Advanced web scraping with Scrapling — MCP-native guidance for extraction, crawling, and anti-bot handling. Use via mcporter (MCP) to call the `scrapling` MC...", "description_zh": "", "downloads": 213, "homepage": "https://clawhub.ai/devbd1/scrapling-mcp", "iconUrl": null, "installs": 8, "name": "Scrapling MCP", "ownerName": "devbd1", "score": 92207.79220779221, "slug": "scrapling-mcp", "source": "clawhub", "stars": 0, "tags": null, "updated_at": 1776749144520, "version": "0.1.2"}, {"category": "security-compliance", "created_at": 1773065550853, "description": "Post to LinkedIn using the official API v2. Uses OAuth tokens so only post when explicitly asked or scheduled.", "description_zh": "", "downloads": 213, "homepage": "https://clawhub.ai/0xmythril/linkedin-cli-2", "iconUrl": null, "installs": 6, "name": "Linkedin Cli", "ownerName": "0xmythril", "score": 100000, "slug": "linkedin-cli-2", "source": "clawhub", "stars": 0, "tags": null, "updated_at": 1776749144505, "version": "0.1.0"}, {"category": "data-analysis", "created_at": 1773065474454, "description": "Executive leadership guidance for strategic decision-making, organizational development, and stakeholder management. Includes strategy analyzer, financial sc...", "description_zh": "", "downloads": 213, "homepage": "https://clawhub.ai/sieyer/ceo-advisor-1-0-0", "iconUrl": null, "installs": 19, "name": "Ceo Advisor 1.0.0", "ownerName": "sieyer", "score": 100000, "slug": "ceo-advisor-1-0-0", "source": "clawhub", "stars": 0, "tags": null, "updated_at": 1776749144465, "version": "1.0.0"}, {"category": "ai-intelligence", "created_at": 1773075489398, "description": "Captures learnings, errors, and corrections to enable continuous improvement. Use when: (1) A command or operation fails unexpectedly, (2) User corrects Clau...", "description_zh": "", "downloads": 213, "homepage": "https://clawhub.ai/blockcloud/cpppp", "iconUrl": null, "installs": 13, "name": "cpppp", "ownerName": "blockcloud", "score": 100000, "slug": "cpppp", "source": "clawhub", "stars": 0, "tags": null, "updated_at": 1776749144454, "version": "1.0.0"}, {"category": "developer-tools", "created_at": 1772803564072, "description": "Time-blind friendly planning, executive function support, and daily structure for ADHD brains. Specializes in realistic time estimation, dopamine-aware task...", "description_zh": "", "downloads": 213, "homepage": "https://clawhub.ai/loui1979/adhd-daily-planner-1-0-0", "iconUrl": null, "installs": 10, "name": "Adhd Daily Planner 1.0.0", "ownerName": "loui1979", "score": 100000, "slug": "adhd-daily-planner-1-0-0", "source": "clawhub", "stars": 0, "tags": null, "updated_at": 1776749144450, "version": "1.0.0"}, {"category": "developer-tools", "created_at": 1773065531506, "description": "Google Workspace Bridge (Gmail, Drive, Sheets, Calendar) via local API at http://127.0.0.1:8787", "description_zh": "", "downloads": 213, "homepage": "https://clawhub.ai/spinzerus/gmail-bridge", "iconUrl": null, "installs": 10, "name": "Gmail Bridge", "ownerName": "spinzerus", "score": 84523.80952380953, "slug": "gmail-bridge", "source": "clawhub", "stars": 0, "tags": null, "updated_at": 1776749144383, "version": "1.0.0"}, {"category": "productivity", "created_at": 1773060565038, "description": "Manages guild operations in Structs. Covers creation, membership, settings, and Central Bank token operations. Use when creating a guild, joining or leaving...", "description_zh": "", "downloads": 213, "homepage": "https://clawhub.ai/abstrct/structs-guild", "iconUrl": null, "installs": 6, "name": "Structs Guild", "ownerName": "abstrct", "score": 84523.80952380953, "slug": "structs-guild", "source": "clawhub", "stars": 0, "tags": null, "updated_at": 1776749144373, "version": "1.1.0"}, {"category": "data-analysis", "created_at": 1773083603414, "description": "Analyze social media post titles to discover what makes content perform well. Use when user uploads data (Excel, CSV, JSON, text) with titles and engagement...", "description_zh": "", "downloads": 213, "homepage": "https://clawhub.ai/yyobject/social-media-title-insight", "iconUrl": null, "installs": 34, "name": "social-media-title-insight", "ownerName": "yyobject", "score": 91025.64102564103, "slug": "social-media-title-insight", "source": "clawhub", "stars": 0, "tags": null, "updated_at": 1776749105036, "version": "1.0.0"}, {"category": "data-analysis", "created_at": 1773089349985, "description": "Analyze text documents for word count, reading time, readability scores (Flesch-Kincaid, Gunning Fog), keyword density, and sentence statistics. Supports mul...", "description_zh": "", "downloads": 213, "homepage": "https://clawhub.ai/zacjiang/text-stats", "iconUrl": null, "installs": 12, "name": "Text Stats", "ownerName": "zacjiang", "score": 89873.41772151898, "slug": "text-stats", "source": "clawhub", "stars": 0, "tags": null, "updated_at": 1776749104998, "version": "1.0.0"}, {"category": "ai-intelligence", "created_at": 1773221480882, "description": "Manage and update a layered memory system using daily files as source, indexing by domain/module/entity, extracting critical facts, and maintaining recall ef...", "description_zh": "", "downloads": 212, "homepage": "https://clawhub.ai/chauncyzbc/structured-memory", "iconUrl": null, "installs": 25, "name": "Structured Memory", "ownerName": "chauncyzbc", "score": 19047.619047619046, "slug": "structured-memory", "source": "clawhub", "stars": 2, "tags": null, "updated_at": 1776759382498, "version": "1.0.1"}, {"category": "data-analysis", "created_at": 1773082411106, "description": "Nobel-level strategic business intelligence with game theory, Monte Carlo simulations, market analysis, and implementation roadmaps.", "description_zh": "", "downloads": 212, "homepage": "https://clawhub.ai/contrario/aetherlang-strategy", "iconUrl": null, "installs": 16, "name": "AetherLang Strategy V3", "ownerName": "contrario", "score": 100000, "slug": "aetherlang-strategy", "source": "clawhub", "stars": 2, "tags": ["aetherlang", "ai", "business", "consulting", "game-theory", "market", "monte-carlo", "strategy"], "updated_at": 1776749144396, "version": "2.0.0"}, {"category": "developer-tools", "created_at": 1773067462920, "description": "Consulta processos judiciais brasileiros (Brasil) via API Pública do DataJud (CNJ)", "description_zh": "", "downloads": 212, "homepage": "https://clawhub.ai/runawaydevil/klaus-processos-br", "iconUrl": null, "installs": 11, "name": "Klaus Processos Br", "ownerName": "runawaydevil", "score": 85608.85608856087, "slug": "klaus-processos-br", "source": "clawhub", "stars": 1, "tags": null, "updated_at": 1776749144903, "version": "0.0.1"}, {"category": "security-compliance", "created_at": 1773065442070, "description": "Create and manage InsForge projects using the CLI. Handles authentication, project setup, database management, edge functions, storage, deployments, and secr...", "description_zh": "", "downloads": 212, "homepage": "https://clawhub.ai/tonychang04/insforge-skills", "iconUrl": null, "installs": 4, "name": "InsForge Cli Skills", "ownerName": "tonychang04", "score": 85608.85608856087, "slug": "insforge-skills", "source": "clawhub", "stars": 1, "tags": null, "updated_at": 1776749144890, "version": "1.0.0"}, {"category": "productivity", "created_at": 1773076339856, "description": "Scrape job listings from Indeed, Glassdoor, LinkedIn Jobs, and other job boards. Extract job titles, salaries, descriptions, and company data. Bypass DataDom...", "description_zh": "", "downloads": 212, "homepage": "https://clawhub.ai/luis2404123/job-board-aggregator", "iconUrl": null, "installs": 17, "name": "Job Board Aggregator", "ownerName": "luis2404123", "score": 85608.85608856087, "slug": "job-board-aggregator", "source": "clawhub", "stars": 1, "tags": null, "updated_at": 1776749144844, "version": "1.0.0"}, {"category": "productivity", "created_at": 1773067059516, "description": "Generate QR codes for URLs, text, WiFi credentials, contact cards, and more. Use when creating scannable links for marketing materials, sharing WiFi password...", "description_zh": "", "downloads": 212, "homepage": "https://clawhub.ai/leonardodpanda/qr-code-tool", "iconUrl": null, "installs": 13, "name": "QR Code Tool", "ownerName": "leonardodpanda", "score": 1572.700296735905, "slug": "qr-code-tool", "source": "clawhub", "stars": 0, "tags": null, "updated_at": 1776769450132, "version": "1.0.0"}, {"category": "content-creation", "created_at": 1773924505739, "description": "Guide users through a structured workflow for co-authoring documentation. Use when user wants to write documentation, proposals, technical specs, decision do...", "description_zh": "", "downloads": 212, "homepage": "https://clawhub.ai/pupuking723/doc-coauthoring-anthropic", "iconUrl": null, "installs": 32, "name": "Doc Coauthoring Anthropic", "ownerName": "pupuking723", "score": 2859.0694538098446, "slug": "doc-coauthoring-anthropic", "source": "clawhub", "stars": 0, "tags": null, "updated_at": 1776767771142, "version": "1.0.0"}]}