{"page": 295, "total_pages": 522, "total": 26073, "skills": [{"category": "developer-tools", "created_at": 1773209836221, "description": "Clinical support system for nurses and frontline healthcare workers. Trigger whenever a nurse needs help with documentation, patient communication, care plan...", "description_zh": "", "downloads": 212, "homepage": "https://clawhub.ai/btcagentic/nurse", "iconUrl": null, "installs": 15, "name": "Nurse", "ownerName": "btcagentic", "score": 2956.7642956764294, "slug": "nurse", "source": "clawhub", "stars": 0, "tags": ["clinical", "documentation", "healthcare", "medical", "nurse"], "updated_at": 1776766750137, "version": "1.0.0"}, {"category": "developer-tools", "created_at": 1773077652012, "description": "Build ROAS forecasting and attribution-model assumptions for Meta (Facebook/Instagram), Google Ads, TikTok Ads, YouTube Ads, Amazon Ads, Shopify Ads, and DSP...", "description_zh": "", "downloads": 212, "homepage": "https://clawhub.ai/danyangliu-sandwichlab/roas-forecast-attribution-modeler", "iconUrl": null, "installs": 26, "name": "Ads ROAS Forecast", "ownerName": "danyangliu-sandwichlab", "score": 4188.067957329119, "slug": "roas-forecast-attribution-modeler", "source": "clawhub", "stars": 0, "tags": null, "updated_at": 1776763450804, "version": "1.0.0"}, {"category": "data-analysis", "created_at": 1773078096682, "description": "Summarizes technical documents into structured markdown with key points and potential risks for clear analysis and review.", "description_zh": "", "downloads": 212, "homepage": "https://clawhub.ai/kelevis/demo", "iconUrl": null, "installs": 16, "name": "demo", "ownerName": "kelevis", "score": 99530.51643192489, "slug": "demo", "source": "clawhub", "stars": 0, "tags": null, "updated_at": 1776759424449, "version": "1.0.0"}, {"category": "content-creation", "created_at": 1773081292369, "description": "Extract web page content from a URL using Felo Web Extract API. Use when users ask to scrape/capture/fetch webpage content, extract article text from URL, co...", "description_zh": "", "downloads": 212, "homepage": "https://clawhub.ai/wangzhiming1999/felo-web-extract", "iconUrl": null, "installs": 12, "name": "Felo Web Extract", "ownerName": "wangzhiming1999", "score": 99530.51643192489, "slug": "felo-web-extract", "source": "clawhub", "stars": 0, "tags": null, "updated_at": 1776759421327, "version": "1.0.0"}, {"category": "content-creation", "created_at": 1773220306288, "description": "Generate OpenClaw agent configuration files through authorized API access. Requires manual verification and official API key application.", "description_zh": "", "downloads": 212, "homepage": "https://clawhub.ai/addogiavara-tech/soul-weaver", "iconUrl": null, "installs": 9, "name": "Soul Weaver", "ownerName": "addogiavara-tech", "score": 99530.51643192489, "slug": "soul-weaver", "source": "clawhub", "stars": 0, "tags": ["agent personality design", "ai agent", "ai agent configuration", "ai assistant", "ai-persona-os", "batch agent configuration", "batch generation", "open claw", "open claw soul", "openclaw", "openclaw ;soul-weaver ;ai ;agent ;configuration ;template ;generator", "soul", "soul craft", "soul weaver", "soul-weaver", "soul.md", "soul.md template", "zero hardcoded credentials"], "updated_at": 1776759421324, "version": "1.0.0"}, {"category": "developer-tools", "created_at": 1773287146788, "description": "Database schema designer. Design table structures, generate SQL DDL, migration scripts, seed data, ER diagrams, optimization reports, NoSQL schemas, and sche...", "description_zh": "", "downloads": 212, "homepage": "https://clawhub.ai/ckchzh/schema-builder", "iconUrl": null, "installs": 10, "name": "schema-builder", "ownerName": "ckchzh", "score": 15762.081784386617, "slug": "schema-builder", "source": "clawhub", "stars": 0, "tags": ["chinese", "productivity"], "updated_at": 1776759197885, "version": "1.0.0"}, {"category": "data-analysis", "created_at": 1773065765945, "description": "Generate comprehensive daily health reports from Garmin Connect data with professional running analysis (Heart Rate Zones, TRIMP, Jack Daniels VDOT).", "description_zh": "", "downloads": 212, "homepage": "https://clawhub.ai/gzzzj/garmin-health-report", "iconUrl": null, "installs": 11, "name": "Garmin Health Report", "ownerName": "gzzzj", "score": 12441.31455399061, "slug": "garmin-health-report", "source": "clawhub", "stars": 0, "tags": ["fitness", "garmin", "health", "running"], "updated_at": 1776755888670, "version": "2.0.0"}, {"category": "ai-intelligence", "created_at": 1773222814176, "description": "Use the a2a-wallet CLI to interact with A2A agents — send messages, stream responses, and manage tasks. Also supports x402 payment signing and SIWE authentic...", "description_zh": "", "downloads": 212, "homepage": "https://clawhub.ai/ost006/a2a-wallet", "iconUrl": null, "installs": 18, "name": "a2a-wallet", "ownerName": "ost006", "score": 96803.65296803652, "slug": "a2a-wallet", "source": "clawhub", "stars": 0, "tags": null, "updated_at": 1776749404915, "version": "1.0.1"}, {"category": "ai-intelligence", "created_at": 1773068383489, "description": "Use when running SafeFlow against the shared Sui package with owner-assisted provisioning. Trigger for tasks such as creating an agent execution address with...", "description_zh": "", "downloads": 212, "homepage": "https://clawhub.ai/fwangzil/safe-flow-sui-skill", "iconUrl": null, "installs": 14, "name": "Safeflow Sui Skill", "ownerName": "fwangzil", "score": 93392.0704845815, "slug": "safe-flow-sui-skill", "source": "clawhub", "stars": 0, "tags": null, "updated_at": 1776749145075, "version": "1.0.0"}, {"category": "developer-tools", "created_at": 1773080310312, "description": "Agent playbook for the AirShell open-source air quality sensor (github.com/oloapiu/airshell). Gives your agent domain knowledge about CO₂, PM2.5, temperature...", "description_zh": "", "downloads": 212, "homepage": "https://clawhub.ai/oloapiu/airshell", "iconUrl": null, "installs": 18, "name": "AirShell 🐢", "ownerName": "oloapiu", "score": 93392.0704845815, "slug": "airshell", "source": "clawhub", "stars": 0, "tags": null, "updated_at": 1776749145069, "version": "1.1.1"}, {"category": "communication-collaboration", "created_at": 1773067991384, "description": "Install and configure a fully operational Dockerized OpenClaw instance on macOS from scratch. Includes browser pairing, Discord channel setup, and optional G...", "description_zh": "", "downloads": 212, "homepage": "https://clawhub.ai/chunhualiao/openclaw-docker-setup", "iconUrl": null, "installs": 9, "name": "OpenClaw Docker Setup", "ownerName": "chunhualiao", "score": 90987.12446351931, "slug": "openclaw-docker-setup", "source": "clawhub", "stars": 0, "tags": null, "updated_at": 1776749145006, "version": "1.0.2"}, {"category": "developer-tools", "created_at": 1773082368112, "description": "A specialized assistant for e-commerce merchants selling periodic consumables (coffee, supplements, pet food) to optimize subscription models, increase MRR (...", "description_zh": "", "downloads": 212, "homepage": "https://clawhub.ai/rijoyai/subscription-retention-marketing", "iconUrl": null, "installs": 28, "name": "Subscription Retention Marketing", "ownerName": "rijoyai", "score": 90987.12446351931, "slug": "subscription-retention-marketing", "source": "clawhub", "stars": 0, "tags": null, "updated_at": 1776749144986, "version": "0.1.1"}, {"category": "ai-intelligence", "created_at": 1773084500266, "description": "Record any web app operation once, AI turns it into a reusable automation tool. Use when: (1) automating repetitive tasks on any web application (reports, su...", "description_zh": "", "downloads": 212, "homepage": "https://clawhub.ai/kckyan/web-autopilot", "iconUrl": null, "installs": 21, "name": "Web Autopilot", "ownerName": "kckyan", "score": 83794.46640316206, "slug": "web-autopilot", "source": "clawhub", "stars": 0, "tags": null, "updated_at": 1776749144908, "version": "1.1.0"}, {"category": "productivity", "created_at": 1773065761772, "description": "VS Code bridge pack. Context push/pull and session linking between VS Code and OpenClaw Gateway. 4 bridge tools.", "description_zh": "", "downloads": 212, "homepage": "https://clawhub.ai/romainsantoli-web/firm-vs-bridge-pack", "iconUrl": null, "installs": 8, "name": "Firm Vs Bridge Pack", "ownerName": "romainsantoli-web", "score": 78228.78228782288, "slug": "firm-vs-bridge-pack", "source": "clawhub", "stars": 0, "tags": null, "updated_at": 1776749144905, "version": "1.0.0"}, {"category": "security-compliance", "created_at": 1773202060076, "description": "Use this skill when the user wants to review link-building outreach opportunities, find contact information for article authors, generate personalized outrea...", "description_zh": "", "downloads": 212, "homepage": "https://clawhub.ai/geo-seo/seo-outreach-skill", "iconUrl": null, "installs": 11, "name": "SEO Outreach Workflow", "ownerName": "geo-seo", "score": 78228.78228782288, "slug": "seo-outreach-skill", "source": "clawhub", "stars": 0, "tags": null, "updated_at": 1776749144881, "version": "1.0.5"}, {"category": "communication-collaboration", "created_at": 1773074918541, "description": "USE FOR AI-grounded answers via OpenAI-compatible /chat/completions. Two modes: single-search (fast) or deep research (enable_research=true, thorough multi-s...", "description_zh": "", "downloads": 212, "homepage": "https://clawhub.ai/0xrichyrich/answers", "iconUrl": null, "installs": 15, "name": "Answers", "ownerName": "0xrichyrich", "score": 78228.78228782288, "slug": "answers", "source": "clawhub", "stars": 0, "tags": null, "updated_at": 1776749144879, "version": "1.0.0"}, {"category": "developer-tools", "created_at": 1772797701711, "description": "Store and retrieve key-value secrets — E2E encrypted vault for API keys and env vars. Do NOT use for website passwords (use ravi-passwords) or reading messag...", "description_zh": "", "downloads": 212, "homepage": "https://clawhub.ai/raunaksingwi/ravi-vault", "iconUrl": null, "installs": 4, "name": "Ravi vault", "ownerName": "raunaksingwi", "score": 78228.78228782288, "slug": "ravi-vault", "source": "clawhub", "stars": 0, "tags": null, "updated_at": 1776749144830, "version": "1.6.0"}, {"category": "developer-tools", "created_at": 1773084350635, "description": "Leadership & Strategy Playbook. Use for: strategic planning, decision-making under uncertainty, change management, crisis leadership, stakeholder management,...", "description_zh": "", "downloads": 212, "homepage": "https://clawhub.ai/chilu18/leadership-strategy-playbook", "iconUrl": null, "installs": 9, "name": "Leadership & Strategy Playbook", "ownerName": "chilu18", "score": 83794.46640316206, "slug": "leadership-strategy-playbook", "source": "clawhub", "stars": 0, "tags": null, "updated_at": 1776749144757, "version": "1.0.0"}, {"category": "ai-intelligence", "created_at": 1773066027898, "description": "Produce daily and weekly performance reports for Meta (Facebook/Instagram), Google Ads, TikTok Ads, YouTube Ads, Amazon Ads, and DSP/programmatic campaigns.", "description_zh": "", "downloads": 212, "homepage": "https://clawhub.ai/danyangliu-sandwichlab/daily-weekly-report-generator", "iconUrl": null, "installs": 16, "name": "Ads Report Generator", "ownerName": "danyangliu-sandwichlab", "score": 83794.46640316206, "slug": "daily-weekly-report-generator", "source": "clawhub", "stars": 0, "tags": null, "updated_at": 1776749144719, "version": "1.0.0"}, {"category": "content-creation", "created_at": 1773067409212, "description": "Hashicorp Vault client for OpenClaw agents. Read and write secrets from a Vault server without raw curl commands or hardcoded tokens. Use when reading API ke...", "description_zh": "", "downloads": 212, "homepage": "https://clawhub.ai/jbushman/vault-client", "iconUrl": null, "installs": 14, "name": "Vault Client", "ownerName": "jbushman", "score": 92173.91304347826, "slug": "vault-client", "source": "clawhub", "stars": 0, "tags": null, "updated_at": 1776749144696, "version": "1.0.0"}, {"category": "content-creation", "created_at": 1773076236122, "description": "Adds professional packaging and motion graphics to videos, including intros/outros, subtitles, transitions, watermarks, and lower thirds. Supports multiple s...", "description_zh": "", "downloads": 212, "homepage": "https://clawhub.ai/wells1137/overlay-skill", "iconUrl": null, "installs": 20, "name": "Overlay Skill", "ownerName": "wells1137", "score": 92173.91304347826, "slug": "overlay-skill", "source": "clawhub", "stars": 0, "tags": null, "updated_at": 1776749144676, "version": "2.0.0"}, {"category": "data-analysis", "created_at": 1772805262075, "description": "Bridge between SDF COM chatroom and Feishu-Lark messaging platform. Supports bi-directional message translation between English and Chinese, command executio...", "description_zh": "", "downloads": 212, "homepage": "https://clawhub.ai/ykaixu/sdf-com-bridge", "iconUrl": null, "installs": 9, "name": "SDF COM Bridge", "ownerName": "ykaixu", "score": 91774.89177489177, "slug": "sdf-com-bridge", "source": "clawhub", "stars": 0, "tags": null, "updated_at": 1776749144626, "version": "2.0.0"}, {"category": "security-compliance", "created_at": 1773076123780, "description": "Advanced security audit pack covering secrets lifecycle, path canonicalization, exec plan freeze, hook routing, config includes, prototype pollution, safeBin...", "description_zh": "", "downloads": 212, "homepage": "https://clawhub.ai/romainsantoli-web/firm-advanced-security-pack", "iconUrl": null, "installs": 11, "name": "Firm Advanced Security Pack", "ownerName": "romainsantoli-web", "score": 91774.89177489177, "slug": "firm-advanced-security-pack", "source": "clawhub", "stars": 0, "tags": null, "updated_at": 1776749144585, "version": "1.0.0"}, {"category": "productivity", "created_at": 1773067341739, "description": "Test whether an HTTP endpoint enforces rate limiting. Sends a burst of requests and checks for 429 responses, Retry-After, and X-RateLimit headers. Useful fo...", "description_zh": "", "downloads": 212, "homepage": "https://clawhub.ai/techris93/rate-limit-validator", "iconUrl": null, "installs": 7, "name": "Rate Limit Validator", "ownerName": "techris93", "score": 91774.89177489177, "slug": "rate-limit-validator", "source": "clawhub", "stars": 0, "tags": null, "updated_at": 1776749144532, "version": "1.0.0"}, {"category": "data-analysis", "created_at": 1773067694500, "description": "Professional Polymarket trading signals powered by Simmer and Binance. Get BUY/SELL/HOLD recommendations with confidence scores for BTC, ETH, SOL fast market...", "description_zh": "", "downloads": 212, "homepage": "https://clawhub.ai/nickqi688/simmer-signal-service", "iconUrl": null, "installs": 14, "name": "Simmer Signal Service", "ownerName": "nickqi688", "score": 91774.89177489177, "slug": "simmer-signal-service", "source": "clawhub", "stars": 0, "tags": null, "updated_at": 1776749144530, "version": "1.0.1"}, {"category": "productivity", "created_at": 1773079104730, "description": "Manage multiple Instagram accounts safely with residential proxy isolation. Automate DM outreach, mother/slave growth, follow/unfollow, story viewing, and en...", "description_zh": "", "downloads": 212, "homepage": "https://clawhub.ai/luis2404123/instagram-multi-account", "iconUrl": null, "installs": 13, "name": "Instagram Multi Account", "ownerName": "luis2404123", "score": 99530.51643192489, "slug": "instagram-multi-account", "source": "clawhub", "stars": 0, "tags": null, "updated_at": 1776749144518, "version": "1.0.0"}, {"category": "developer-tools", "created_at": 1773082316847, "description": "Railway deployment platform — projects, services, deployments, variables. App hosting CLI.", "description_zh": "", "downloads": 212, "homepage": "https://clawhub.ai/aiwithabidi/railway", "iconUrl": null, "installs": 6, "name": "Railway", "ownerName": "aiwithabidi", "score": 99530.51643192489, "slug": "railway", "source": "clawhub", "stars": 0, "tags": null, "updated_at": 1776749144516, "version": "1.0.0"}, {"category": "data-analysis", "created_at": 1773090971611, "description": "Blackbaud integration. Manage Constituents, Opportunities, Funds, Campaigns. Use when the user wants to interact with Blackbaud data.", "description_zh": "", "downloads": 212, "homepage": "https://clawhub.ai/gora050/blackbaud", "iconUrl": null, "installs": 52, "name": "Blackbaud", "ownerName": "gora050", "score": 99530.51643192489, "slug": "blackbaud", "source": "clawhub", "stars": 0, "tags": null, "updated_at": 1776749144502, "version": "1.0.0"}, {"category": "developer-tools", "created_at": 1773077181247, "description": "Helps OpenClaw Clinical Hackathon participants get started quickly building clinical and healthcare apps with Lovable. Use when the user is building a clinic...", "description_zh": "", "downloads": 212, "homepage": "https://clawhub.ai/arunnadarasa/lovable", "iconUrl": null, "installs": 14, "name": "Hackathon Lovable", "ownerName": "arunnadarasa", "score": 99530.51643192489, "slug": "lovable", "source": "clawhub", "stars": 0, "tags": null, "updated_at": 1776749144491, "version": "0.1.0"}, {"category": "security-compliance", "created_at": 1773076264647, "description": "Help AI agents recognize and respond to potentially malicious skill patterns from public registries. Based on Snyk ToxicSkills research showing 13.4% of skil...", "description_zh": "", "downloads": 212, "homepage": "https://clawhub.ai/jisokuor/security-awareness-skill", "iconUrl": null, "installs": 8, "name": "Agent Security Patterns", "ownerName": "jisokuor", "score": 99530.51643192489, "slug": "security-awareness-skill", "source": "clawhub", "stars": 0, "tags": null, "updated_at": 1776749144478, "version": "0.1.0"}, {"category": "developer-tools", "created_at": 1773080104710, "description": "Token-efficient task orchestration system that delegates work to specialized subordinates while prioritizing system-level solutions over AI inference.", "description_zh": "", "downloads": 212, "homepage": "https://clawhub.ai/nelohenriq/frugal-orchestrator", "iconUrl": null, "installs": 5, "name": "Frugal Orchestrator", "ownerName": "nelohenriq", "score": 99530.51643192489, "slug": "frugal-orchestrator", "source": "clawhub", "stars": 0, "tags": null, "updated_at": 1776749144475, "version": "1.0.0"}, {"category": "ai-intelligence", "created_at": 1773076784449, "description": "Generate memes using each::sense AI. Create classic meme templates, custom memes, brand memes, reaction memes, comparison memes, trending formats, and more f...", "description_zh": "", "downloads": 212, "homepage": "https://clawhub.ai/eftalyurtseven/meme-generation", "iconUrl": null, "installs": 24, "name": "Meme Generation", "ownerName": "eftalyurtseven", "score": 84126.98412698413, "slug": "meme-generation", "source": "clawhub", "stars": 0, "tags": null, "updated_at": 1776749144437, "version": "1.0.0"}, {"category": "productivity", "created_at": 1773060580899, "description": "Cognitive pattern recognition and adaptive resonance engine. Detects how each user thinks — not what they feel — and reshapes every response to match their u...", "description_zh": "", "downloads": 212, "homepage": "https://clawhub.ai/jcools1977/thoughtprint", "iconUrl": null, "installs": 11, "name": "Thoughtprint", "ownerName": "jcools1977", "score": 84126.98412698413, "slug": "thoughtprint", "source": "clawhub", "stars": 0, "tags": null, "updated_at": 1776749144434, "version": "1.0.0"}, {"category": "developer-tools", "created_at": 1773063813428, "description": "Store and retrieve key-value secrets — E2E encrypted secret store for API keys and env vars. Do NOT use for website passwords (use ravi-passwords) or reading...", "description_zh": "", "downloads": 212, "homepage": "https://clawhub.ai/raunaksingwi/ravi-secrets", "iconUrl": null, "installs": 6, "name": "Ravi secrets", "ownerName": "raunaksingwi", "score": 84126.98412698413, "slug": "ravi-secrets", "source": "clawhub", "stars": 0, "tags": null, "updated_at": 1776749144428, "version": "1.7.1"}, {"category": "ai-intelligence", "created_at": 1773063594250, "description": "Multi-agent task orchestration pack. DAG-based parallel task execution and team status monitoring. 2 orchestration tools.", "description_zh": "", "downloads": 212, "homepage": "https://clawhub.ai/romainsantoli-web/firm-agent-orchestration-pack", "iconUrl": null, "installs": 11, "name": "Firm Agent Orchestration Pack", "ownerName": "romainsantoli-web", "score": 84126.98412698413, "slug": "firm-agent-orchestration-pack", "source": "clawhub", "stars": 0, "tags": null, "updated_at": 1776749144377, "version": "1.0.0"}, {"category": "", "created_at": 1774925846872, "description": "Marketing plan generator with web research and Word output. Use when user needs to create marketing plans, promotional campaigns, social media strategies. Fe...", "description_zh": "", "downloads": 212, "homepage": "https://clawhub.ai/tobewin/marketing-plan", "iconUrl": null, "installs": 6, "name": "Marketing Plan", "ownerName": "tobewin", "score": 90598.2905982906, "slug": "marketing-plan", "source": "clawhub", "stars": 0, "tags": null, "updated_at": 1776749144364, "version": "1.0.2"}, {"category": "developer-tools", "created_at": 1773063391906, "description": "One CLI for all your customer data — every interaction and conversation, structured for agents. Query unified customer context (profiles, timelines, facts, s...", "description_zh": "", "downloads": 211, "homepage": "https://clawhub.ai/leo-paz/outlit", "iconUrl": null, "installs": 4, "name": "Outlit", "ownerName": "leo-paz", "score": 100000, "slug": "outlit", "source": "clawhub", "stars": 3, "tags": null, "updated_at": 1776749144850, "version": "1.0.2"}, {"category": "communication-collaboration", "created_at": 1773076659474, "description": "Command-line Nostr client for agent-to-agent encrypted messaging, identity login, and small file sharing using public Nostr relays.", "description_zh": "", "downloads": 211, "homepage": "https://clawhub.ai/wangwu-30/agent-chat-nostr", "iconUrl": null, "installs": 8, "name": "Agent Chat Nostr", "ownerName": "wangwu-30", "score": 3188.405797101449, "slug": "agent-chat-nostr", "source": "clawhub", "stars": 1, "tags": null, "updated_at": 1776769190532, "version": "0.0.5"}, {"category": "data-analysis", "created_at": 1773067840377, "description": "Analyze top 3 competitors for unhappy customers, pricing gaps, churn signals, and niches to generate AI-driven steal strategies and personalized competitor d...", "description_zh": "", "downloads": 211, "homepage": "https://clawhub.ai/g4dr/competitor-revenue-leak-finder", "iconUrl": null, "installs": 14, "name": "Competitor Revenue Leak Finder, Steal Customers From Your Competitors Automatically", "ownerName": "g4dr", "score": 1346.7817164179105, "slug": "competitor-revenue-leak-finder", "source": "clawhub", "stars": 1, "tags": ["apify", "b2b-sales", "churn-detection", "competitive-intelligence", "competitor-analysis", "customer-acquisition", "displacement", "invideo", "pricing-strategy", "saas", "win-rate"], "updated_at": 1776759382394, "version": "1.0.0"}, {"category": "productivity", "created_at": 1773075244037, "description": "Wallet management — create, list, show, export, send, delete. Use when creating wallets, checking balances, or sending tokens.", "description_zh": "", "downloads": 211, "homepage": "https://clawhub.ai/hurcannansen/nansen-wallet", "iconUrl": null, "installs": 8, "name": "Nansen Wallet", "ownerName": "hurcannansen", "score": 100000, "slug": "nansen-wallet", "source": "clawhub", "stars": 1, "tags": null, "updated_at": 1776749404811, "version": "1.0.0"}, {"category": "content-creation", "created_at": 1773064780934, "description": "Autonomous session scribe — reads today's OpenClaw session logs, extracts decisions, preferences, framework sentences, and project updates, then writes a str...", "description_zh": "", "downloads": 211, "homepage": "https://clawhub.ai/billc8128/openclaw-scribe", "iconUrl": null, "installs": 11, "name": "Scribe", "ownerName": "billc8128", "score": 99141.63090128756, "slug": "openclaw-scribe", "source": "clawhub", "stars": 1, "tags": null, "updated_at": 1776749144997, "version": "1.0.1"}, {"category": "developer-tools", "created_at": 1773065942926, "description": "Interact with a MongoDB database for persistent document storage. Supports full CRUD operations (find, insert, update, delete), aggregation pipelines, collec...", "description_zh": "", "downloads": 211, "homepage": "https://clawhub.ai/jithinm/mongo-db", "iconUrl": null, "installs": 10, "name": "Mongo Db Client Tool", "ownerName": "jithinm", "score": 91304.34782608695, "slug": "mongo-db", "source": "clawhub", "stars": 1, "tags": null, "updated_at": 1776749144915, "version": "1.0.0"}, {"category": "data-analysis", "created_at": 1773066310790, "description": "CryptoLens — AI-driven multi-coin crypto analysis. Compare 2-5 coins (relative performance, correlation matrix, volatility ranking), get single-coin technica...", "description_zh": "", "downloads": 211, "homepage": "https://clawhub.ai/godofbush/crypto-lens", "iconUrl": null, "installs": 15, "name": "CryptoLens", "ownerName": "godofbush", "score": 91304.34782608695, "slug": "crypto-lens", "source": "clawhub", "stars": 1, "tags": null, "updated_at": 1776749144815, "version": "2.0.1"}, {"category": "data-analysis", "created_at": 1773066682098, "description": "Analyze creative performance post-launch across Meta (Facebook/Instagram), TikTok Ads, YouTube Ads, Google Ads, and Amazon Ads inventory.", "description_zh": "", "downloads": 211, "homepage": "https://clawhub.ai/danyangliu-sandwichlab/creative-performance-analyzer", "iconUrl": null, "installs": 9, "name": "Ads Creative Performance", "ownerName": "danyangliu-sandwichlab", "score": 100000, "slug": "creative-performance-analyzer", "source": "clawhub", "stars": 1, "tags": null, "updated_at": 1776749144575, "version": "1.0.0"}, {"category": "content-creation", "created_at": 1773074466371, "description": "Generate and iteratively edit images. Supports storage, UI for manual editing, history, version branching, time travel, reference images, and multiple AI mod...", "description_zh": "", "downloads": 211, "homepage": "https://clawhub.ai/kivs/babblebrush", "iconUrl": null, "installs": 11, "name": "babbleBrush", "ownerName": "kivs", "score": 91666.66666666666, "slug": "babblebrush", "source": "clawhub", "stars": 1, "tags": null, "updated_at": 1776749144430, "version": "1.4.1"}, {"category": "productivity", "created_at": 1773078908349, "description": "Manage DNS zones across multiple providers using octoDNS (\"DNS as code\"). Use when you need to (1) manage DNS records in YAML format, (2) sync DNS zones betw...", "description_zh": "", "downloads": 211, "homepage": "https://clawhub.ai/markjr/octodns-skill", "iconUrl": null, "installs": 5, "name": "Octodns", "ownerName": "markjr", "score": 91666.66666666666, "slug": "octodns-skill", "source": "clawhub", "stars": 1, "tags": null, "updated_at": 1776749144403, "version": "0.1.2"}, {"category": "developer-tools", "created_at": 1773084794759, "description": "Provide real-time traffic camera footage and livestreams for specified roads or highways to check current traffic conditions.", "description_zh": "", "downloads": 211, "homepage": "https://clawhub.ai/loverun321/traffic-cam", "iconUrl": null, "installs": 17, "name": "traffic-cam", "ownerName": "loverun321", "score": 6423.135464231354, "slug": "traffic-cam", "source": "clawhub", "stars": 0, "tags": null, "updated_at": 1776767171204, "version": "1.0.0"}, {"category": "productivity", "created_at": 1773427779958, "description": "Local-first hotel decision engine for trip stays, hotel comparison, shortlist creation, booking readiness, and accommodation planning. Use whenever the user...", "description_zh": "", "downloads": 211, "homepage": "https://clawhub.ai/agistack/hotel", "iconUrl": null, "installs": 18, "name": "Hotel", "ownerName": "agistack", "score": 11517.467248908297, "slug": "hotel", "source": "clawhub", "stars": 0, "tags": null, "updated_at": 1776764950391, "version": "1.0.0"}, {"category": "communication-collaboration", "created_at": 1773913613810, "description": "Deliver locally generated office files back into Feishu chats as real attachments. Use when a task creates a .pptx, .pdf, .docx, .xlsx, .csv, .zip, .txt, or...", "description_zh": "", "downloads": 211, "homepage": "https://clawhub.ai/wd041216-bit/feishu-file-delivery", "iconUrl": null, "installs": 73, "name": "Feishu File Delivery", "ownerName": "wd041216-bit", "score": 5945.336714567484, "slug": "feishu-file-delivery", "source": "clawhub", "stars": 0, "tags": null, "updated_at": 1776763749809, "version": "2.0.0"}, {"category": "content-creation", "created_at": 1773079929205, "description": "End-to-end dropship product lifecycle pipeline. CJ Dropshipping sourcing → margin check → Flux Kontext AI hero image → WooCommerce publish → CJ supplier mapp...", "description_zh": "", "downloads": 211, "homepage": "https://clawhub.ai/zero2ai-hub/skill-dropship-product-pipeline", "iconUrl": null, "installs": 21, "name": "Dropship Product Pipeline", "ownerName": "zero2ai-hub", "score": 7054.496823804747, "slug": "skill-dropship-product-pipeline", "source": "clawhub", "stars": 0, "tags": null, "updated_at": 1776761715007, "version": "1.0.0"}]}