{"page": 296, "total_pages": 522, "total": 26073, "skills": [{"category": "developer-tools", "created_at": 1773079610760, "description": "PagerDuty incident management — manage incidents, services, schedules, escalation policies, and on-call via REST API", "description_zh": "", "downloads": 211, "homepage": "https://clawhub.ai/aiwithabidi/pagerduty", "iconUrl": null, "installs": 7, "name": "Pagerduty", "ownerName": "aiwithabidi", "score": 13354.430379746835, "slug": "pagerduty", "source": "clawhub", "stars": 0, "tags": null, "updated_at": 1776760397923, "version": "1.0.0"}, {"category": "ai-intelligence", "created_at": 1773090662243, "description": "Automation skill for Ceo Notify Agents.", "description_zh": "", "downloads": 211, "homepage": "https://clawhub.ai/stingan/ceo-notify-agents", "iconUrl": null, "installs": 12, "name": "Ceo Notify Agents", "ownerName": "stingan", "score": 99061.03286384976, "slug": "ceo-notify-agents", "source": "clawhub", "stars": 0, "tags": null, "updated_at": 1776759424443, "version": "1.0.0"}, {"category": "productivity", "created_at": 1773928713957, "description": "Follow a structured process to efficiently create, optimize, and execute workflows for accomplishing any task effectively.", "description_zh": "", "downloads": 211, "homepage": "https://clawhub.ai/yinzhengfu/atb", "iconUrl": null, "installs": 74, "name": "Accomplish and excel in any task", "ownerName": "yinzhengfu", "score": 99061.03286384976, "slug": "atb", "source": "clawhub", "stars": 0, "tags": null, "updated_at": 1776759424440, "version": "1.0.0"}, {"category": "productivity", "created_at": 1773222804619, "description": "A tool to manage Baidu Wangpan (Baidu Netdisk) files using the official Baidu Open API. Supports checking quota, listing files, searching, generating downloa...", "description_zh": "", "downloads": 211, "homepage": "https://clawhub.ai/zhangyi-3/baidu-disk-helper", "iconUrl": null, "installs": 31, "name": "Baidu Disk Helper", "ownerName": "zhangyi-3", "score": 99061.03286384976, "slug": "baidu-disk-helper", "source": "clawhub", "stars": 0, "tags": null, "updated_at": 1776759424434, "version": "1.0.0"}, {"category": "ai-intelligence", "created_at": 1773073616133, "description": "Gmail inbox intelligence for OpenClaw. Reads, classifies, and digests your Gmail so the important stuff surfaces without the noise. Use when fetching new ema...", "description_zh": "", "downloads": 211, "homepage": "https://clawhub.ai/yhyatt/gclaw", "iconUrl": null, "installs": 10, "name": "GClaw", "ownerName": "yhyatt", "score": 99061.03286384976, "slug": "gclaw", "source": "clawhub", "stars": 0, "tags": null, "updated_at": 1776759424432, "version": "1.0.1"}, {"category": "developer-tools", "created_at": 1773433210296, "description": "Expert guidance for HarmonyOS NEXT (API 12+) development. Use this skill for ArkTS, ArkUI, and NDK development using official offline documentation for 3,300...", "description_zh": "", "downloads": 211, "homepage": "https://clawhub.ai/linhay/harmony-next", "iconUrl": null, "installs": 51, "name": "HarmonyOS NEXT Expert", "ownerName": "linhay", "score": 36952.71453590193, "slug": "harmony-next", "source": "clawhub", "stars": 0, "tags": null, "updated_at": 1776753672937, "version": "1.0.2"}, {"category": "data-analysis", "created_at": 1773079137552, "description": "Monitor library book availability and get notified when books become available for borrowing. Supports Shenzhen Library and extensible for other libraries.", "description_zh": "", "downloads": 211, "homepage": "https://clawhub.ai/yszheda/library-book-monitor", "iconUrl": null, "installs": 19, "name": "Skill Openclaw Library Monitor", "ownerName": "yszheda", "score": 90557.93991416309, "slug": "library-book-monitor", "source": "clawhub", "stars": 0, "tags": null, "updated_at": 1776749145050, "version": "1.0.1"}, {"category": "ai-intelligence", "created_at": 1772800849666, "description": "Play Moltmon — a pet collection and battle game built for agents. Adopt a Molt, keep it healthy, and fight other agents and AI. Auto-registers on first use....", "description_zh": "", "downloads": 211, "homepage": "https://clawhub.ai/noizceera/moltmon-v1", "iconUrl": null, "installs": 0, "name": "Skill", "ownerName": "noizceera", "score": 90557.93991416309, "slug": "moltmon-v1", "source": "clawhub", "stars": 0, "tags": null, "updated_at": 1776749145004, "version": "1.0.0"}, {"category": "content-creation", "created_at": 1773077362798, "description": "Generate images from text prompts using ZenMux API (Vertex AI protocol with Gemini models). Use when: (1) User wants to generate/create images from text desc...", "description_zh": "", "downloads": 211, "homepage": "https://clawhub.ai/thinkthinking/zenmux-image-gen", "iconUrl": null, "installs": 14, "name": "ZenMux Image Gen (Nano Banana 2)", "ownerName": "thinkthinking", "score": 90557.93991416309, "slug": "zenmux-image-gen", "source": "clawhub", "stars": 0, "tags": null, "updated_at": 1776749145002, "version": "1.0.0"}, {"category": "communication-collaboration", "created_at": 1773067207586, "description": "Freshsales CRM integration — manage contacts, leads, deals, accounts, tasks, and sales sequences via the Freshsales API. Track deal pipelines, automate lead...", "description_zh": "", "downloads": 211, "homepage": "https://clawhub.ai/aiwithabidi/freshsales", "iconUrl": null, "installs": 6, "name": "Freshsales", "ownerName": "aiwithabidi", "score": 83399.209486166, "slug": "freshsales", "source": "clawhub", "stars": 0, "tags": null, "updated_at": 1776749144930, "version": "1.0.0"}, {"category": "developer-tools", "created_at": 1773074490673, "description": "Build a personalized AI tool stack based on role, goals, and budget. Recommends specific tools for each category (writing, meetings, coding, research, produc...", "description_zh": "", "downloads": 211, "homepage": "https://clawhub.ai/rogeryelvington/ai-stack-builder", "iconUrl": null, "installs": 8, "name": "Ai Stack Builder", "ownerName": "rogeryelvington", "score": 83399.209486166, "slug": "ai-stack-builder", "source": "clawhub", "stars": 0, "tags": null, "updated_at": 1776749144926, "version": "1.0.2"}, {"category": "developer-tools", "created_at": 1773083056390, "description": "CLI tool to create meme tokens on hot.fun (Solana). Returns structured JSON for token creation flow.", "description_zh": "", "downloads": 211, "homepage": "https://clawhub.ai/qinxiuchen/hot-fun-ai", "iconUrl": null, "installs": 6, "name": "Hot Fun Integration", "ownerName": "qinxiuchen", "score": 83399.209486166, "slug": "hot-fun-ai", "source": "clawhub", "stars": 0, "tags": null, "updated_at": 1776749144911, "version": "1.0.2"}, {"category": "data-analysis", "created_at": 1773067923502, "description": "Google Sheets integration. Manage analytics data, records, and workflows. Use when the user wants to interact with Google Sheets data.", "description_zh": "", "downloads": 211, "homepage": "https://clawhub.ai/membranedev/google-sheets-integration", "iconUrl": null, "installs": 10, "name": "Google Sheets", "ownerName": "membranedev", "score": 77859.77859778597, "slug": "google-sheets-integration", "source": "clawhub", "stars": 0, "tags": null, "updated_at": 1776749144837, "version": "1.0.0"}, {"category": "content-creation", "created_at": 1773064726866, "description": "Upscale videos to 720p, 1080p, 2K, or 4K resolution using WaveSpeed AI's Ultimate Video Upscaler. Takes a video URL and produces a higher-resolution version....", "description_zh": "", "downloads": 211, "homepage": "https://clawhub.ai/chengzeyi/wavespeed-ultimate-video-upscaler", "iconUrl": null, "installs": 17, "name": "WaveSpeedAI Ultimate Video Upscaler", "ownerName": "chengzeyi", "score": 83399.209486166, "slug": "wavespeed-ultimate-video-upscaler", "source": "clawhub", "stars": 0, "tags": null, "updated_at": 1776749144751, "version": "1.0.0"}, {"category": "data-analysis", "created_at": 1773427521520, "description": "🌟 Your personal Garmin & AI health coach. Analyze sleep and biometric data daily for actionable functional medicine insights.", "description_zh": "", "downloads": 211, "homepage": "https://clawhub.ai/daasai/health-coach", "iconUrl": null, "installs": 43, "name": "Health Assistant", "ownerName": "daasai", "score": 91739.13043478261, "slug": "health-coach", "source": "clawhub", "stars": 0, "tags": null, "updated_at": 1776749144663, "version": "1.0.1"}, {"category": "data-analysis", "created_at": 1773076398183, "description": "Query bird information from dongniao.net using web_fetch. Automatically search and extract detailed information about any bird species.", "description_zh": "", "downloads": 211, "homepage": "https://clawhub.ai/leogaga/bird-info", "iconUrl": null, "installs": 8, "name": "Bird Information", "ownerName": "leogaga", "score": 83730.15873015873, "slug": "bird-info", "source": "clawhub", "stars": 0, "tags": null, "updated_at": 1776749144441, "version": "1.0.0"}, {"category": "data-analysis", "created_at": 1773081243567, "description": "Bidirectional LAN file sharing for AI agents. Provides a static file server (port 18801) for serving files to users, and an upload server (port 18802) with d...", "description_zh": "", "downloads": 211, "homepage": "https://clawhub.ai/techthrasher/clawbox-media-server", "iconUrl": null, "installs": 10, "name": "Clawbox Media Server", "ownerName": "techthrasher", "score": 83730.15873015873, "slug": "clawbox-media-server", "source": "clawhub", "stars": 0, "tags": null, "updated_at": 1776749144398, "version": "1.0.1"}, {"category": "content-creation", "created_at": 1773077226485, "description": "Generate OpenClaw model inventory and model-card images from openclaw.json. Use when asked to list all configured models, verify default/fallback chains, or...", "description_zh": "", "downloads": 211, "homepage": "https://clawhub.ai/sdsdsdff/openclaw-model-card", "iconUrl": null, "installs": 12, "name": "OpenClaw Model Card", "ownerName": "sdsdsdff", "score": 83730.15873015873, "slug": "openclaw-model-card", "source": "clawhub", "stars": 0, "tags": null, "updated_at": 1776749144379, "version": "0.1.0"}, {"category": "data-analysis", "created_at": 1773077721029, "description": "Multi-agent tool for structured, multi-round discussions with dialectic analysis, random speaking order, shared state, and integration of real sub-agents for...", "description_zh": "", "downloads": 210, "homepage": "https://clawhub.ai/chyher/team-discuss", "iconUrl": null, "installs": 9, "name": "team-discuss", "ownerName": "chyher", "score": 17267.267267267267, "slug": "team-discuss", "source": "clawhub", "stars": 1, "tags": ["consensus", "dialectic", "discussion", "multi-agent", "philosophy"], "updated_at": 1776759383060, "version": "0.1.1"}, {"category": "developer-tools", "created_at": 1773077718256, "description": "Consulta preços médios de carros, motos e caminhões na Tabela FIPE brasileira para compra, venda, seguro e financiamento.", "description_zh": "", "downloads": 210, "homepage": "https://clawhub.ai/runawaydevil/fipe-carros", "iconUrl": null, "installs": 16, "name": "Tabela FIPE", "ownerName": "runawaydevil", "score": 17345.399698340876, "slug": "fipe-carros", "source": "clawhub", "stars": 1, "tags": null, "updated_at": 1776759382625, "version": "1.0.0"}, {"category": "developer-tools", "created_at": 1773289210172, "description": "Perforce / Helix Core (p4) power-user CLI. Use for any p4 task: show or inspect changelists (CLs), shelve/unshelve/reshelve, switch between CLs, delete CLs o...", "description_zh": "", "downloads": 210, "homepage": "https://clawhub.ai/m9rco/p4u", "iconUrl": null, "installs": 34, "name": "p4u", "ownerName": "m9rco", "score": 90909.09090909091, "slug": "p4u", "source": "clawhub", "stars": 1, "tags": ["nightly"], "updated_at": 1776749144919, "version": "0.0.0-nightly.e055304"}, {"category": "security-compliance", "created_at": 1773066316008, "description": "Require verifiable human approval before high-risk agent actions.", "description_zh": "", "downloads": 210, "homepage": "https://clawhub.ai/lagosrui/humanos-openclaw", "iconUrl": null, "installs": 5, "name": "Humanos - Programmable Human Authorization for Agent Actions", "ownerName": "lagosrui", "score": 84870.84870848709, "slug": "humanos-openclaw", "source": "clawhub", "stars": 1, "tags": null, "updated_at": 1776749144823, "version": "0.1.0"}, {"category": "productivity", "created_at": 1772798318784, "description": "Look up Norwegian waste collection schedules — find your provider, search your address, and get upcoming pickup dates", "description_zh": "", "downloads": 210, "homepage": "https://clawhub.ai/henrikkvamme/henteplan", "iconUrl": null, "installs": 4, "name": "Henteplan Skill", "ownerName": "henrikkvamme", "score": 99567.09956709958, "slug": "henteplan", "source": "clawhub", "stars": 1, "tags": null, "updated_at": 1776749144590, "version": "1.1.1"}, {"category": "developer-tools", "created_at": 1773075894326, "description": "Use this skill to help developers get started building Pulse Apps — full-stack React extensions for Pulse Editor that use Module Federation. Trigger when a u...", "description_zh": "", "downloads": 210, "homepage": "https://clawhub.ai/shellishack/pulse-app-skill", "iconUrl": null, "installs": 14, "name": "Pulse App Skill", "ownerName": "shellishack", "score": 10558.069381598792, "slug": "pulse-app-skill", "source": "clawhub", "stars": 0, "tags": null, "updated_at": 1776767050122, "version": "1.0.0"}, {"category": "developer-tools", "created_at": 1773940231092, "description": "Discovers, searches, and installs skills from multiple AI agent skill marketplaces (400K+ skills) using SkillKit CLI. Supports browsing official partner coll...", "description_zh": "", "downloads": 210, "homepage": "https://clawhub.ai/miknasbh-stack/miknas-find-skills", "iconUrl": null, "installs": 84, "name": "Find Skills - Universal Discovery", "ownerName": "miknasbh-stack", "score": 8962.868117797696, "slug": "miknas-find-skills", "source": "clawhub", "stars": 0, "tags": null, "updated_at": 1776765850189, "version": "1.0.0"}, {"category": "data-analysis", "created_at": 1773079405445, "description": "Query token details by keyword, contract address, or chain. Search tokens, get metadata and social links, retrieve real-time market data (price, price trend,...", "description_zh": "", "downloads": 210, "homepage": "https://clawhub.ai/viktor-huang/binance-query-token", "iconUrl": null, "installs": 14, "name": "Binance Query Token", "ownerName": "viktor-huang", "score": 2867.2856362643365, "slug": "binance-query-token", "source": "clawhub", "stars": 0, "tags": null, "updated_at": 1776762849739, "version": "1.0.0"}, {"category": "security-compliance", "created_at": 1773203077110, "description": "Read, summarize, and search contents of local text, markdown, JSON, DOCX, and PDF files within authorized paths under 10MB.", "description_zh": "", "downloads": 210, "homepage": "https://clawhub.ai/zhouhouqing/local-file", "iconUrl": null, "installs": 18, "name": "Local File", "ownerName": "zhouhouqing", "score": 16018.306636155608, "slug": "local-file", "source": "clawhub", "stars": 0, "tags": null, "updated_at": 1776759498408, "version": "1.0.0"}, {"category": "developer-tools", "created_at": 1773078939678, "description": "Register on BapBook to post, comment, upvote, and engage with the BAP-578 AI agent community on their social feed.", "description_zh": "", "downloads": 210, "homepage": "https://clawhub.ai/whale-professor/bapbook", "iconUrl": null, "installs": 4, "name": "BapBook", "ownerName": "whale-professor", "score": 15993.907083015993, "slug": "bapbook", "source": "clawhub", "stars": 0, "tags": null, "updated_at": 1776759498262, "version": "1.0.0"}, {"category": "developer-tools", "created_at": 1773081003794, "description": "Openclaw Framework is an AI assistant framework emphasizing structured communication, data-driven decisions, layered memory, automation, and continual self-i...", "description_zh": "", "downloads": 210, "homepage": "https://clawhub.ai/qianzhaoaiyin/openclaw-framework", "iconUrl": null, "installs": 14, "name": "Openclaw Framework", "ownerName": "qianzhaoaiyin", "score": 16030.534351145037, "slug": "openclaw-framework", "source": "clawhub", "stars": 0, "tags": null, "updated_at": 1776759498201, "version": "1.0.0"}, {"category": "security-compliance", "created_at": 1773284107839, "description": "Runs a deterministic static safety audit for third-party AI skill or plugin repositories before install or execution. Use when asked to scan a skill repo, as...", "description_zh": "", "downloads": 210, "homepage": "https://clawhub.ai/modeioai/skill-audit-modeio", "iconUrl": null, "installs": 10, "name": "Skill Audit", "ownerName": "modeioai", "score": 15993.907083015993, "slug": "skill-audit-modeio", "source": "clawhub", "stars": 0, "tags": null, "updated_at": 1776759498124, "version": "0.1.0"}, {"category": "developer-tools", "created_at": 1773084674738, "description": "Structured memory system using domains, decay, and links to store, recall, and maintain important AI context as an organized memory palace.", "description_zh": "", "downloads": 210, "homepage": "https://clawhub.ai/bayhax/loci", "iconUrl": null, "installs": 9, "name": "loci", "ownerName": "bayhax", "score": 15969.58174904943, "slug": "loci", "source": "clawhub", "stars": 0, "tags": null, "updated_at": 1776759497982, "version": "1.1.1"}, {"category": "ai-intelligence", "created_at": 1773067788167, "description": "Anonymous confessions for AI agents. Post confessions that get manually approved and posted to X/Twitter.", "description_zh": "", "downloads": 210, "homepage": "https://clawhub.ai/agentfessions/agentfessions", "iconUrl": null, "installs": 10, "name": "AgentFessions", "ownerName": "agentfessions", "score": 15969.58174904943, "slug": "agentfessions", "source": "clawhub", "stars": 0, "tags": null, "updated_at": 1776759497980, "version": "1.0.1"}, {"category": "data-analysis", "created_at": 1773065886364, "description": "Connect your OpenClaw agent to Soundside's MCP tools for AI media generation, editing, library management, and technical analysis.", "description_zh": "", "downloads": 210, "homepage": "https://clawhub.ai/hackthemarket/soundside", "iconUrl": null, "installs": 14, "name": "Soundside", "ownerName": "hackthemarket", "score": 98591.54929577465, "slug": "soundside", "source": "clawhub", "stars": 0, "tags": null, "updated_at": 1776759497704, "version": "1.0.1"}, {"category": "productivity", "created_at": 1773065733126, "description": "Score ad creatives before launch for Meta (Facebook/Instagram), TikTok Ads, YouTube Ads, Google Ads, and Amazon Ads policy and quality fit.", "description_zh": "", "downloads": 210, "homepage": "https://clawhub.ai/danyangliu-sandwichlab/creative-quality-grader", "iconUrl": null, "installs": 11, "name": "Ads Creative Scoring", "ownerName": "danyangliu-sandwichlab", "score": 13452.914798206279, "slug": "creative-quality-grader", "source": "clawhub", "stars": 0, "tags": null, "updated_at": 1776757324442, "version": "1.0.0"}, {"category": "ai-intelligence", "created_at": 1773221507768, "description": "Automatically install skills from ClawHub with retry logic. Handles rate limits (waits 10s and retries), auto-confirms prompts (--force), and stops after 30...", "description_zh": "", "downloads": 210, "homepage": "https://clawhub.ai/z448577223/clawhub-skill-install", "iconUrl": null, "installs": 37, "name": "clawhub-skill-install", "ownerName": "z448577223", "score": 39473.68421052631, "slug": "clawhub-skill-install", "source": "clawhub", "stars": 0, "tags": null, "updated_at": 1776749404953, "version": "1.0.0"}, {"category": "developer-tools", "created_at": 1772804902234, "description": "Define commands once, deploy to CLI, API, and MCP automatically. Use when building new commands/tools for Supernal — ensures consistent interfaces across all...", "description_zh": "", "downloads": 210, "homepage": "https://clawhub.ai/ianderrington/universal-command", "iconUrl": null, "installs": 5, "name": "Universal Command Pattern", "ownerName": "ianderrington", "score": 90128.75536480687, "slug": "universal-command", "source": "clawhub", "stars": 0, "tags": null, "updated_at": 1776749145024, "version": "1.0.0"}, {"category": "ai-intelligence", "created_at": 1773069578002, "description": "Initialize, repair, and maintain an OpenClaw-first soul runtime in a workspace. Use when you need a standard `soul/` directory, reusable companion profile te...", "description_zh": "", "downloads": 210, "homepage": "https://clawhub.ai/kitephp/soul-agent", "iconUrl": null, "installs": 24, "name": "soul-agent", "ownerName": "kitephp", "score": 83003.95256916995, "slug": "soul-agent", "source": "clawhub", "stars": 0, "tags": null, "updated_at": 1776749144983, "version": "1.0.0"}, {"category": "data-analysis", "created_at": 1773284746756, "description": "Manage cc-connect projects: add new projects to ~/.cc-connect/config.toml, set up multi-agent relay bindings, and restart cc-connect in tmux. Use when the us...", "description_zh": "", "downloads": 210, "homepage": "https://clawhub.ai/zgq233333/cc-connect-manager", "iconUrl": null, "installs": 10, "name": "cc-connect-manager", "ownerName": "zgq233333", "score": 83003.95256916995, "slug": "cc-connect-manager", "source": "clawhub", "stars": 0, "tags": null, "updated_at": 1776749144938, "version": "1.0.1"}, {"category": "ai-intelligence", "created_at": 1773089353439, "description": "Detect and fix AI-generated tweet patterns to make tweets sound like a real human typed them. Covers cadence uniformity, punchline addiction, missing casual...", "description_zh": "", "downloads": 210, "homepage": "https://clawhub.ai/nissan/tweet-humanizer", "iconUrl": null, "installs": 40, "name": "Tweet Humanizer", "ownerName": "nissan", "score": 83003.95256916995, "slug": "tweet-humanizer", "source": "clawhub", "stars": 0, "tags": null, "updated_at": 1776749144924, "version": "1.0.0"}, {"category": "ai-intelligence", "created_at": 1773065310527, "description": "Fetch and structure Google Trends daily trending-search data by country/region via the public RSS feed. Use when users ask for Google Trends snapshots, count...", "description_zh": "", "downloads": 210, "homepage": "https://clawhub.ai/wsjwong/google-trends-rss", "iconUrl": null, "installs": 13, "name": "Google Trends RSS", "ownerName": "wsjwong", "score": 83003.95256916995, "slug": "google-trends-rss", "source": "clawhub", "stars": 0, "tags": null, "updated_at": 1776749144811, "version": "1.0.2"}, {"category": "security-compliance", "created_at": 1773065295633, "description": "Audit GitHub Actions mainline branch reliability by scoring failure rate, consecutive failures, and stale-success risk for critical workflows.", "description_zh": "", "downloads": 210, "homepage": "https://clawhub.ai/daniellummis/github-actions-mainline-health-audit", "iconUrl": null, "installs": 13, "name": "GitHub Actions Mainline Health Audit", "ownerName": "daniellummis", "score": 83003.95256916995, "slug": "github-actions-mainline-health-audit", "source": "clawhub", "stars": 0, "tags": null, "updated_at": 1776749144788, "version": "1.4.0"}, {"category": "content-creation", "created_at": 1773080969641, "description": "Write clearly. Say the thing. Stop. Core principles for concise, specific, honest agent communication.", "description_zh": "", "downloads": 210, "homepage": "https://clawhub.ai/nubzparmesan/minnow-writing", "iconUrl": null, "installs": 10, "name": "Writing", "ownerName": "nubzparmesan", "score": 83003.95256916995, "slug": "minnow-writing", "source": "clawhub", "stars": 0, "tags": null, "updated_at": 1776749144781, "version": "1.0.0"}, {"category": "ai-intelligence", "created_at": 1773080842928, "description": "Generate daily AI Twitter report from top AI researchers and companies. Use when user asks for AI Twitter summary, daily AI news, or wants to track AI commun...", "description_zh": "", "downloads": 210, "homepage": "https://clawhub.ai/danetteceola/ai-twitter-daily", "iconUrl": null, "installs": 22, "name": "AI Twitter Daily", "ownerName": "danetteceola", "score": 91304.34782608695, "slug": "ai-twitter-daily", "source": "clawhub", "stars": 0, "tags": null, "updated_at": 1776749144709, "version": "1.0.0"}, {"category": "data-analysis", "created_at": 1773067866528, "description": "Query Developer Experience (DX) data via the DX Data MCP server PostgreSQL database. Use this skill when analyzing developer productivity metrics, team perfo...", "description_zh": "", "downloads": 210, "homepage": "https://clawhub.ai/xiao1804/dx-data-navigator", "iconUrl": null, "installs": 9, "name": "Dx Data Navigator", "ownerName": "xiao1804", "score": 91304.34782608695, "slug": "dx-data-navigator", "source": "clawhub", "stars": 0, "tags": null, "updated_at": 1776749144669, "version": "1.0.0"}, {"category": "ai-intelligence", "created_at": 1773075920888, "description": "Register and configure an AI agent on OpenAnt. Use when setting up a new agent identity, registering with OpenClaw or another platform, configuring agent hea...", "description_zh": "", "downloads": 210, "homepage": "https://clawhub.ai/ant-1984/setup-agent", "iconUrl": null, "installs": 25, "name": "Setup Agent", "ownerName": "ant-1984", "score": 91304.34782608695, "slug": "setup-agent", "source": "clawhub", "stars": 0, "tags": null, "updated_at": 1776749144656, "version": "0.1.0"}, {"category": "security-compliance", "created_at": 1773075019757, "description": "Security Skill Advisor - Help identify malicious skills, protect API keys and system security | Security audit, skill scanner, malware detection, best practices", "description_zh": "", "downloads": 210, "homepage": "https://clawhub.ai/crystaria/safe-skill-advisor", "iconUrl": null, "installs": 9, "name": "Safe Skill Advisor", "ownerName": "crystaria", "score": 90909.09090909091, "slug": "safe-skill-advisor", "source": "clawhub", "stars": 0, "tags": null, "updated_at": 1776749144584, "version": "1.5.1"}, {"category": "productivity", "created_at": 1773079472431, "description": "GoHighLevel integration. Manage Organizations. Use when the user wants to interact with GoHighLevel data.", "description_zh": "", "downloads": 210, "homepage": "https://clawhub.ai/gora050/gohighlevel", "iconUrl": null, "installs": 3, "name": "Gohighlevel", "ownerName": "gora050", "score": 90909.09090909091, "slug": "gohighlevel", "source": "clawhub", "stars": 0, "tags": null, "updated_at": 1776749144582, "version": "1.0.0"}, {"category": "developer-tools", "created_at": 1773090490754, "description": "Use when adding docstrings, creating API documentation, or building documentation sites. Invoke for OpenAPI/Swagger specs, JSDoc, doc portals, tutorials, use...", "description_zh": "", "downloads": 210, "homepage": "https://clawhub.ai/lhwa8685/code-documenter", "iconUrl": null, "installs": 8, "name": "Code Documenter", "ownerName": "lhwa8685", "score": 90909.09090909091, "slug": "code-documenter", "source": "clawhub", "stars": 0, "tags": null, "updated_at": 1776749144577, "version": "0.1.0"}, {"category": "data-analysis", "created_at": 1773067958419, "description": "Run adversarial multi-agent war-room evaluations for any strategic decision. Spawns 5 parallel subagents (Analyst, Guardian, Treasurer, Builder, Strategist)...", "description_zh": "", "downloads": 210, "homepage": "https://clawhub.ai/scytheshan-pixel/iris-war-room", "iconUrl": null, "installs": 8, "name": "War Room — Adversarial Decision Engine", "ownerName": "scytheshan-pixel", "score": 90909.09090909091, "slug": "iris-war-room", "source": "clawhub", "stars": 0, "tags": null, "updated_at": 1776749144553, "version": "1.1.0"}, {"category": "developer-tools", "created_at": 1773065040235, "description": "BlockBeats API skill for querying crypto news, newsflashes, and articles. Requires a valid api-key token to access the BlockBeats Pro API.", "description_zh": "", "downloads": 210, "homepage": "https://clawhub.ai/f-s-c-1/test-api", "iconUrl": null, "installs": 5, "name": "BlockBeats API", "ownerName": "f-s-c-1", "score": 98591.54929577465, "slug": "test-api", "source": "clawhub", "stars": 0, "tags": null, "updated_at": 1776749144482, "version": "1.0.0"}]}