{"page": 297, "total_pages": 522, "total": 26073, "skills": [{"category": "security-compliance", "created_at": 1773201903401, "description": "Manage multiple OpenAI OAuth login accounts inside OpenClaw, including OpenAI Codex OAuth account snapshots, switching, real active-account detection, 5-hour...", "description_zh": "", "downloads": 210, "homepage": "https://clawhub.ai/tutouguai1933/openclaw-openai-multi-account", "iconUrl": null, "installs": 11, "name": "OpenClaw OpenAI Multi Account", "ownerName": "tutouguai1933", "score": 98591.54929577465, "slug": "openclaw-openai-multi-account", "source": "clawhub", "stars": 0, "tags": null, "updated_at": 1776749144469, "version": "1.0.2"}, {"category": "data-analysis", "created_at": 1772804965044, "description": "Enforce contextual permission boundaries for AI agents based on communication surface. Constrains agent capabilities (exec, file I/O, secrets, messaging) by...", "description_zh": "", "downloads": 210, "homepage": "https://clawhub.ai/adroidian/chitin-moat", "iconUrl": null, "installs": 10, "name": "chitin-moat", "ownerName": "adroidian", "score": 98591.54929577465, "slug": "chitin-moat", "source": "clawhub", "stars": 0, "tags": null, "updated_at": 1776749144458, "version": "1.0.0"}, {"category": "data-analysis", "created_at": 1773083034523, "description": "Open-source geospatial intelligence gathering and visualization dashboard. Use when building Worldview-style spy thriller dashboards, monitoring geopolitical...", "description_zh": "", "downloads": 210, "homepage": "https://clawhub.ai/imjohnathanblog-spec/geospatial-osint", "iconUrl": null, "installs": 16, "name": "Geospatial Osint", "ownerName": "imjohnathanblog-spec", "score": 83333.33333333334, "slug": "geospatial-osint", "source": "clawhub", "stars": 0, "tags": null, "updated_at": 1776749144384, "version": "1.0.0"}, {"category": "data-analysis", "created_at": 1772803395933, "description": "List, classify, prune LaunchAgents; analyze openclaw.json so the proper gateway LaunchAgent remains connected and tokens match. Keeps only OpenClaw-related a...", "description_zh": "", "downloads": 210, "homepage": "https://clawhub.ai/runeweaverstudios/launchagent-manager", "iconUrl": null, "installs": 7, "name": "Launchagent Manager", "ownerName": "runeweaverstudios", "score": 89743.58974358975, "slug": "launchagent-manager", "source": "clawhub", "stars": 0, "tags": null, "updated_at": 1776749144368, "version": "1.0.0"}, {"category": "productivity", "created_at": 1773067595659, "description": "Research Google Maps and Shopping reviews for any company. Run multi-brand monitoring with heartbeat refreshes and sentiment reports.", "description_zh": "", "downloads": 210, "homepage": "https://clawhub.ai/ivangdavila/google-reviews", "iconUrl": null, "installs": 20, "name": "Google Reviews", "ownerName": "ivangdavila", "score": 89743.58974358975, "slug": "google-reviews", "source": "clawhub", "stars": 0, "tags": null, "updated_at": 1776749144362, "version": "1.0.0"}, {"category": "data-analysis", "created_at": 1773208632910, "description": "A comprehensive AI agent skill for writing and managing professional bios. Crafts bios for any platform and any purpose, matches your voice and career stage,...", "description_zh": "", "downloads": 209, "homepage": "https://clawhub.ai/btcagentic/bio", "iconUrl": null, "installs": 12, "name": "Bio", "ownerName": "btcagentic", "score": 84406.77966101695, "slug": "bio", "source": "clawhub", "stars": 2, "tags": ["bio", "brand", "personal", "profile", "writing"], "updated_at": 1776759382686, "version": "1.0.0"}, {"category": "developer-tools", "created_at": 1772804540329, "description": "Deploy sites to Bool.com via the bool CLI. Use when creating, deploying, updating, or managing Bool projects.", "description_zh": "", "downloads": 209, "homepage": "https://clawhub.ai/jkeesh/bool-cli", "iconUrl": null, "installs": 5, "name": "bool-cli", "ownerName": "jkeesh", "score": 98418.97233201581, "slug": "bool-cli", "source": "clawhub", "stars": 2, "tags": ["bool", "bool-cli"], "updated_at": 1776749144797, "version": "1.0.1"}, {"category": "productivity", "created_at": 1773091528638, "description": "A comprehensive AI agent skill for building and growing personal savings systematically. Sets meaningful savings goals, builds emergency funds, optimizes whe...", "description_zh": "", "downloads": 209, "homepage": "https://clawhub.ai/ethagent/savings", "iconUrl": null, "installs": 46, "name": "Savings", "ownerName": "ethagent", "score": 17179.294823705925, "slug": "savings", "source": "clawhub", "stars": 1, "tags": ["emergency-fund", "finance", "goals", "money", "savings"], "updated_at": 1776759382441, "version": "1.0.0"}, {"category": "developer-tools", "created_at": 1773065561316, "description": "Fast semantic memory system with JSON indexing, auto-consolidation, and <20ms search. Capture learnings, decisions, insights, events. Use when you need persi...", "description_zh": "", "downloads": 209, "homepage": "https://clawhub.ai/sieyer/memory-system-v2-1-0-0", "iconUrl": null, "installs": 10, "name": "Memory System V2 1.0.0", "ownerName": "sieyer", "score": 98283.2618025751, "slug": "memory-system-v2-1-0-0", "source": "clawhub", "stars": 1, "tags": null, "updated_at": 1776749145063, "version": "1.0.0"}, {"category": "ai-intelligence", "created_at": 1773088663705, "description": "The operating system layer for AI agents. Routes goals to the right skills. Executes with checkpoints.", "description_zh": "", "downloads": 209, "homepage": "https://clawhub.ai/contrario/agnt-os", "iconUrl": null, "installs": 13, "name": "AGENT-OS", "ownerName": "contrario", "score": 98283.2618025751, "slug": "agnt-os", "source": "clawhub", "stars": 1, "tags": ["agent", "autonomous", "founder", "orchestration", "os", "productivity", "skills", "workflow"], "updated_at": 1776749145013, "version": "1.0.3"}, {"category": "content-creation", "created_at": 1773074723117, "description": "Turn YouTube videos into structured, reusable skill files that make any AI agent smarter. Forge, compound, and recall creator-attributed knowledge.", "description_zh": "", "downloads": 209, "homepage": "https://clawhub.ai/koren-source/youtube-skillforge", "iconUrl": null, "installs": 18, "name": "YouTube SkillForge", "ownerName": "koren-source", "score": 98283.2618025751, "slug": "youtube-skillforge", "source": "clawhub", "stars": 1, "tags": null, "updated_at": 1776749144988, "version": "4.1.2"}, {"category": "data-analysis", "created_at": 1773077399563, "description": "AI image geolocation via visual analysis — no GPS or EXIF needed. Requires GEOINFER_API_KEY.", "description_zh": "", "downloads": 209, "homepage": "https://clawhub.ai/samtin0x/geoinfer-image-geolocation", "iconUrl": null, "installs": 12, "name": "GeoInfer Image Geolocation", "ownerName": "samtin0x", "score": 90513.83399209486, "slug": "geoinfer-image-geolocation", "source": "clawhub", "stars": 1, "tags": null, "updated_at": 1776749144985, "version": "1.0.1"}, {"category": "ai-intelligence", "created_at": 1773077861732, "description": "Use this skill when the user asks to 'backup OpenClaw', 'restore a snapshot', 'roll back memory', 'check backup status', 'view backup history', 'undo agent c...", "description_zh": "", "downloads": 209, "homepage": "https://clawhub.ai/marzliak/quick-backup-restore", "iconUrl": null, "installs": 10, "name": "Quick Backup and Restore (time machine)", "ownerName": "marzliak", "score": 489.09482355143683, "slug": "quick-backup-restore", "source": "clawhub", "stars": 0, "tags": ["backup restore restic memory time-machine"], "updated_at": 1776770690452, "version": "1.0.0"}, {"category": "productivity", "created_at": 1773222546623, "description": "Fast and comprehensive Windows file and folder search using the Everything command line tool with filters, sorting, and CSV export options.", "description_zh": "", "downloads": 209, "homepage": "https://clawhub.ai/thianda91/es-file-search-win", "iconUrl": null, "installs": 26, "name": "Windows File Search Skill via Everything", "ownerName": "thianda91", "score": 4254.885993485342, "slug": "es-file-search-win", "source": "clawhub", "stars": 0, "tags": null, "updated_at": 1776763450197, "version": "1.0.0"}, {"category": "communication-collaboration", "created_at": 1773425804199, "description": "Automates Slack daily standups by prompting updates, compiling responses, and posting summaries on a set schedule.", "description_zh": "", "downloads": 209, "homepage": "https://clawhub.ai/allanwei/slack-standup", "iconUrl": null, "installs": 8, "name": "Slack Standup", "ownerName": "allanwei", "score": 5394.940629839959, "slug": "slack-standup", "source": "clawhub", "stars": 0, "tags": null, "updated_at": 1776762850648, "version": "1.0.1"}, {"category": "communication-collaboration", "created_at": 1773077884497, "description": "Read and summarize Slack channel history and thread conversations. Use when receiving Slack links (https://...slack.com/archives/...) or requests to view cha...", "description_zh": "", "downloads": 209, "homepage": "https://clawhub.ai/epikoding/slack-reader", "iconUrl": null, "installs": 12, "name": "Slack Thread Reader", "ownerName": "epikoding", "score": 3037.7906976744184, "slug": "slack-reader", "source": "clawhub", "stars": 0, "tags": null, "updated_at": 1776762850382, "version": "1.0.0"}, {"category": "ai-intelligence", "created_at": 1773287513485, "description": "Samsung Electronics skill. Browse and purchase Galaxy smartphones, TVs, home appliances, wearables, monitors, and more from the world's largest smartphone an...", "description_zh": "", "downloads": 209, "homepage": "https://clawhub.ai/codejika/paper", "iconUrl": null, "installs": 20, "name": "Shop Paper - Give your Claw Agent a credit card", "ownerName": "codejika", "score": 5289.800050620096, "slug": "paper", "source": "clawhub", "stars": 0, "tags": ["paper", "shop"], "updated_at": 1776760939862, "version": "1.0.5"}, {"category": "content-creation", "created_at": 1773222488776, "description": "Use PoYo AI's Sora 2 video generation models through the `https://api.poyo.ai/api/generate/submit` endpoint. Use when a user wants to generate videos, submit...", "description_zh": "", "downloads": 209, "homepage": "https://clawhub.ai/coolhackboy/poyo-sora-2", "iconUrl": null, "installs": 61, "name": "Sora 2", "ownerName": "coolhackboy", "score": 16600.476568705322, "slug": "poyo-sora-2", "source": "clawhub", "stars": 0, "tags": null, "updated_at": 1776760097756, "version": "1.0.0"}, {"category": "developer-tools", "created_at": 1773217988546, "description": "Complete meeting intelligence system. Trigger whenever someone needs to run a meeting, prepare for one, recover from one that went badly, or fix a culture wh...", "description_zh": "", "downloads": 209, "homepage": "https://clawhub.ai/agimodel/meet", "iconUrl": null, "installs": 8, "name": "Meet", "ownerName": "agimodel", "score": 15954.198473282444, "slug": "meet", "source": "clawhub", "stars": 0, "tags": ["agenda", "facilitation", "meet", "meetings", "productivity"], "updated_at": 1776759498095, "version": "1.0.0"}, {"category": "data-analysis", "created_at": 1773068777888, "description": "Analyzes every local business in any area and category, scoring and ranking underperformers by lost revenue potential and generating targeted outreach plus m...", "description_zh": "", "downloads": 209, "homepage": "https://clawhub.ai/g4dr/local-business-money-radar", "iconUrl": null, "installs": 9, "name": "Local Business Money Radar — Detect Underperforming Businesses & Prioritize Your Best Opportunities", "ownerName": "g4dr", "score": 15954.198473282444, "slug": "local-business-money-radar", "source": "clawhub", "stars": 0, "tags": ["agency", "apify", "digital-marketing", "google-maps", "invideo", "lead-generation", "local-business", "opportunity-scoring", "reputation", "seo", "small-business", "web-design"], "updated_at": 1776759498051, "version": "1.0.0"}, {"category": "data-analysis", "created_at": 1773073122232, "description": "Enhances capability evolution using 100+ AI models with cloud persistence, multi-model workflows, team sync, and cost analytics for efficient self-improvement.", "description_zh": "", "downloads": 209, "homepage": "https://clawhub.ai/xiaoyinqu/capability-evolver-turbo", "iconUrl": null, "installs": 82, "name": "Capability Evolver Turbo", "ownerName": "xiaoyinqu", "score": 15954.198473282444, "slug": "capability-evolver-turbo", "source": "clawhub", "stars": 0, "tags": null, "updated_at": 1776759498045, "version": "1.0.1"}, {"category": "data-analysis", "created_at": 1773065957884, "description": "Scans ClawFriend agents for compatibility based on skills and vibe, then posts top collaboration match recommendations to your feed.", "description_zh": "", "downloads": 209, "homepage": "https://clawhub.ai/bigbearman/agent-matchmaker", "iconUrl": null, "installs": 8, "name": "Agent Matchmaker", "ownerName": "bigbearman", "score": 15893.536121673005, "slug": "agent-matchmaker", "source": "clawhub", "stars": 0, "tags": null, "updated_at": 1776759497945, "version": "1.0.0"}, {"category": "productivity", "created_at": 1773220262238, "description": "Professional KuCoin (KC) trading system - multi-account support, spot/margin/futures trading, asset transfers. Use to check balances, transfer assets, open/c...", "description_zh": "", "downloads": 209, "homepage": "https://clawhub.ai/govor2026/kucoin-trader", "iconUrl": null, "installs": 8, "name": "KuCoin Trader", "ownerName": "govor2026", "score": 15942.028985507244, "slug": "kucoin-trader", "source": "clawhub", "stars": 0, "tags": null, "updated_at": 1776759497755, "version": "1.0.1"}, {"category": "communication-collaboration", "created_at": 1773080643799, "description": "ส่งการแจ้งเตือน Telegram เมื่อ F5-TTS training เสร็จหรือล้มเหลว ใช้สำหรับ Docker environment", "description_zh": "", "downloads": 209, "homepage": "https://clawhub.ai/pbseiya/f5-telegram-notify", "iconUrl": null, "installs": 12, "name": "F5 Telegram Notify", "ownerName": "pbseiya", "score": 98122.06572769952, "slug": "f5-telegram-notify", "source": "clawhub", "stars": 0, "tags": null, "updated_at": 1776759497691, "version": "1.0.0"}, {"category": "security-compliance", "created_at": 1773069243339, "description": "Scan installed agent components (MCP servers, skills, agent tools) for security vulnerabilities using snyk-agent-scan. Use only when running uvx snyk-agent-s...", "description_zh": "", "downloads": 209, "homepage": "https://clawhub.ai/swiftking100/snyk-skill-scanner", "iconUrl": null, "installs": 26, "name": "Snyk Skill Scanner", "ownerName": "swiftking100", "score": 13005.600497822028, "slug": "snyk-skill-scanner", "source": "clawhub", "stars": 0, "tags": ["scanning", "security", "snyk"], "updated_at": 1776758220526, "version": "1.0.0"}, {"category": "developer-tools", "created_at": 1773959516257, "description": "A fast Rust-based headless browser automation CLI with Node.js fallback that enables AI agents to navigate, click, type, and snapshot pages via structured co...", "description_zh": "", "downloads": 209, "homepage": "https://clawhub.ai/liujiang817/my-agent-browser", "iconUrl": null, "installs": 111, "name": "My Agent Browser", "ownerName": "liujiang817", "score": 35849.056603773584, "slug": "my-agent-browser", "source": "clawhub", "stars": 0, "tags": null, "updated_at": 1776754688151, "version": "1.0.0"}, {"category": "content-creation", "created_at": 1773942456596, "description": "Automates Blender via Python scripts to create 3D assets, renders, and animations.", "description_zh": "", "downloads": 209, "homepage": "https://clawhub.ai/flayzz/visual-automation", "iconUrl": null, "installs": 74, "name": "Visual Automation", "ownerName": "flayzz", "score": 47072.07207207207, "slug": "visual-automation", "source": "clawhub", "stars": 0, "tags": null, "updated_at": 1776751969590, "version": "1.0.0"}, {"category": "security-compliance", "created_at": 1773075462290, "description": "Standardize API credential handling and startup auth checks to prevent \"missing key\" regressions across sessions. Use when an agent repeatedly loses auth sta...", "description_zh": "", "downloads": 209, "homepage": "https://clawhub.ai/adainthelab/auth-guard", "iconUrl": null, "installs": 8, "name": "Auth Guard", "ownerName": "adainthelab", "score": 82608.69565217392, "slug": "auth-guard", "source": "clawhub", "stars": 0, "tags": ["auth", "automation", "hardening", "heartbeat", "reliability", "security", "session-persistence"], "updated_at": 1776749144976, "version": "1.1.1"}, {"category": "communication-collaboration", "created_at": 1773063903799, "description": "Send WhatsApp messages to other people or search/sync WhatsApp history via the wacli CLI (not for normal user chats).", "description_zh": "", "downloads": 209, "homepage": "https://clawhub.ai/sieyer/whats-1-0-0", "iconUrl": null, "installs": 11, "name": "Whats 1.0.0", "ownerName": "sieyer", "score": 77121.77121771217, "slug": "whats-1-0-0", "source": "clawhub", "stars": 0, "tags": null, "updated_at": 1776749144870, "version": "1.0.0"}, {"category": "productivity", "created_at": 1773075639175, "description": "Scrape Zillow property listings, prices, and real estate data. Bypass Cloudflare protection with residential proxies and browser automation. Extract addresse...", "description_zh": "", "downloads": 209, "homepage": "https://clawhub.ai/luis2404123/zillow-scraper", "iconUrl": null, "installs": 7, "name": "Zillow Scraper", "ownerName": "luis2404123", "score": 77121.77121771217, "slug": "zillow-scraper", "source": "clawhub", "stars": 0, "tags": null, "updated_at": 1776749144829, "version": "1.0.0"}, {"category": "productivity", "created_at": 1773076496424, "description": "Query positions of spacecraft, planets, moons, and asteroids in the solar system", "description_zh": "", "downloads": 209, "homepage": "https://clawhub.ai/huangzesen/heliospice", "iconUrl": null, "installs": 14, "name": "Heliospice", "ownerName": "huangzesen", "score": 90869.5652173913, "slug": "heliospice", "source": "clawhub", "stars": 0, "tags": ["ephemeris", "nasa", "planets", "space", "spacecraft"], "updated_at": 1776749144685, "version": "0.4.2"}, {"category": "security-compliance", "created_at": 1772799614056, "description": "🛡️ TrustMyAgent - Security posture monitoring for AI agents. Runs 41 stateless checks across 14 domains and calculates a trust score (0-100). Supports local...", "description_zh": "", "downloads": 209, "homepage": "https://clawhub.ai/anecdotes-yair/trust-my-agent-ai", "iconUrl": null, "installs": 5, "name": "TrustMyAgent", "ownerName": "anecdotes-yair", "score": 90869.5652173913, "slug": "trust-my-agent-ai", "source": "clawhub", "stars": 0, "tags": null, "updated_at": 1776749144674, "version": "1.0.0"}, {"category": "productivity", "created_at": 1773069824949, "description": "Bridge macOS-only tools into a Linux OpenClaw gateway via SSH wrappers and connected Mac nodes. Use when a Linux gateway needs to run imsg, remindctl, memo,...", "description_zh": "", "downloads": 209, "homepage": "https://clawhub.ai/matthewxmurphy/mac-node-bridge", "iconUrl": null, "installs": 12, "name": "Mac Node Bridge", "ownerName": "matthewxmurphy", "score": 90476.19047619047, "slug": "mac-node-bridge", "source": "clawhub", "stars": 0, "tags": null, "updated_at": 1776749144535, "version": "0.6.0"}, {"category": "developer-tools", "created_at": 1773074501501, "description": "Plan, build, review, or extend a stateless Bash CLI wrapper for the publicly documented EODHD API, intended for OpenClaw agents and Clawhub.ai distribution....", "description_zh": "", "downloads": 209, "homepage": "https://clawhub.ai/oscraters/eodhd", "iconUrl": null, "installs": 6, "name": "EODHD CLI", "ownerName": "oscraters", "score": 98122.06572769952, "slug": "eodhd", "source": "clawhub", "stars": 0, "tags": null, "updated_at": 1776749144515, "version": "1.0.1"}, {"category": "ai-intelligence", "created_at": 1773064334680, "description": "Private reputation scoring for AI agents — query on-chain credit tiers earned via x402 micropayments through Unlink shielded transfers on Monad, and verify t...", "description_zh": "", "downloads": 209, "homepage": "https://clawhub.ai/drewm33/ghostscore", "iconUrl": null, "installs": 16, "name": "GhostScore", "ownerName": "drewm33", "score": 98122.06572769952, "slug": "ghostscore", "source": "clawhub", "stars": 0, "tags": null, "updated_at": 1776749144512, "version": "1.0.3"}, {"category": "content-creation", "created_at": 1773923817248, "description": "Automate comprehensive WordPress SEO optimization including meta tags, schema markup, internal linking, and RankMath integration.", "description_zh": "", "downloads": 209, "homepage": "https://clawhub.ai/ncreighton/wordpress-seo-autopilot", "iconUrl": null, "installs": 68, "name": "Wordpress Seo Autopilot", "ownerName": "ncreighton", "score": 98122.06572769952, "slug": "wordpress-seo-autopilot", "source": "clawhub", "stars": 0, "tags": null, "updated_at": 1776749144503, "version": "1.0.0"}, {"category": "ai-intelligence", "created_at": 1773089587476, "description": "A comprehensive skill for managing corporate training delivery, including contract generation, travel booking, materials preparation, venue setup, and post-t...", "description_zh": "", "downloads": 209, "homepage": "https://clawhub.ai/brandon-zhanghaodong/training-delivery-manager", "iconUrl": null, "installs": 29, "name": "training-delivery-manager", "ownerName": "brandon-zhanghaodong", "score": 98122.06572769952, "slug": "training-delivery-manager", "source": "clawhub", "stars": 0, "tags": null, "updated_at": 1776749144500, "version": "1.0.0"}, {"category": "content-creation", "created_at": 1773285788731, "description": "Generates multi-themed food collages (Viral Cakes, Street Food, Smoothie Bowls, Coffee Art, Fusion Tacos). Use when user asks for a collage of specific food...", "description_zh": "", "downloads": 209, "homepage": "https://clawhub.ai/expysf98/design-pick2", "iconUrl": null, "installs": 19, "name": "design pick2", "ownerName": "expysf98", "score": 98122.06572769952, "slug": "design-pick2", "source": "clawhub", "stars": 0, "tags": null, "updated_at": 1776749144471, "version": "1.0.0"}, {"category": "data-analysis", "created_at": 1773283970328, "description": "Use when submitting a product to AI/startup directories - covers the full pipeline from collecting product info, analyzing directories, discovering forms, au...", "description_zh": "", "downloads": 209, "homepage": "https://clawhub.ai/man0l/submit-directories", "iconUrl": null, "installs": 13, "name": "Submit Directories", "ownerName": "man0l", "score": 98122.06572769952, "slug": "submit-directories", "source": "clawhub", "stars": 0, "tags": null, "updated_at": 1776749144456, "version": "0.1.2"}, {"category": "developer-tools", "created_at": 1773063627358, "description": "Turn a macOS machine into a local PHP/MariaDB staging server using the stock macOS Apache, Homebrew PHP 8.5, MariaDB, built-in SFTP, npm tooling, a local dev...", "description_zh": "", "downloads": 209, "homepage": "https://clawhub.ai/matthewxmurphy/mac-dev-staging", "iconUrl": null, "installs": 10, "name": "Mac Dev Staging", "ownerName": "matthewxmurphy", "score": 82936.50793650794, "slug": "mac-dev-staging", "source": "clawhub", "stars": 0, "tags": null, "updated_at": 1776749144418, "version": "1.1.0"}, {"category": "communication-collaboration", "created_at": 1773088490553, "description": "Automate adding new CRM records to the Fractal CRM system. Use when user asks to add new CRM entries, customers, or sales leads. The skill handles navigation...", "description_zh": "", "downloads": 209, "homepage": "https://clawhub.ai/zhangli123456/crm-add-record", "iconUrl": null, "installs": 14, "name": "Crm Add Record", "ownerName": "zhangli123456", "score": 82936.50793650794, "slug": "crm-add-record", "source": "clawhub", "stars": 0, "tags": null, "updated_at": 1776749144409, "version": "1.0.0"}, {"category": "productivity", "created_at": 1773065894823, "description": "Stripe integration. Manage Customers, Products, Payouts, Transfers. Use when the user wants to interact with Stripe data.", "description_zh": "", "downloads": 209, "homepage": "https://clawhub.ai/membranedev/stripe-integration", "iconUrl": null, "installs": 2, "name": "Stripe", "ownerName": "membranedev", "score": 82936.50793650794, "slug": "stripe-integration", "source": "clawhub", "stars": 0, "tags": null, "updated_at": 1776749144401, "version": "1.0.0"}, {"category": "data-analysis", "created_at": 1772805328678, "description": "Build and orchestrate multi-step AI workflows combining multiple EachLabs models. Create custom pipelines, trigger executions, and manage workflow versions....", "description_zh": "", "downloads": 209, "homepage": "https://clawhub.ai/eftalyurtseven/eachlabs-workflows", "iconUrl": null, "installs": 9, "name": "Eachlabs Workflows", "ownerName": "eftalyurtseven", "score": 82936.50793650794, "slug": "eachlabs-workflows", "source": "clawhub", "stars": 0, "tags": null, "updated_at": 1776749144400, "version": "1.0.0"}, {"category": "content-creation", "created_at": 1773430904880, "description": "Universal video downloader supporting multiple platforms (Douyin, Bilibili, YouTube, TikTok, etc.). Can download videos by URL or search by keyword (Douyin s...", "description_zh": "", "downloads": 208, "homepage": "https://clawhub.ai/wwkgit/video-downloader-tool", "iconUrl": null, "installs": 54, "name": "Universal Video Downloader", "ownerName": "wwkgit", "score": 100000, "slug": "video-downloader-tool", "source": "clawhub", "stars": 2, "tags": ["bilibili", "douyin", "download", "video", "youtube"], "updated_at": 1776749744958, "version": "1.0.0"}, {"category": "data-analysis", "created_at": 1773872992065, "description": "Fetch follower counts and social media metrics from 11+ platforms using profile URLs or nicknames, including Bilibili, YouTube, TikTok, Instagram, and more.", "description_zh": "", "downloads": 208, "homepage": "https://clawhub.ai/guoming0000/social-media-metrics", "iconUrl": null, "installs": 34, "name": "Social Media Metrics", "ownerName": "guoming0000", "score": 17104.276069017254, "slug": "social-media-metrics", "source": "clawhub", "stars": 1, "tags": null, "updated_at": 1776759382453, "version": "1.0.2"}, {"category": "productivity", "created_at": 1773078327763, "description": "Manage Grocy inventory, shopping list, batteries, and barcodes. Use when user wants to: (1) Check what's in their fridge/pantry, (2) See expiring products, (...", "description_zh": "", "downloads": 208, "homepage": "https://clawhub.ai/septianw/grocy-inventory", "iconUrl": null, "installs": 7, "name": "Grocy Inventory", "ownerName": "septianw", "score": 84132.84132841328, "slug": "grocy-inventory", "source": "clawhub", "stars": 1, "tags": null, "updated_at": 1776749144892, "version": "1.0.0"}, {"category": "content-creation", "created_at": 1773084462493, "description": "Unified QCut media toolkit — organize project files, process media with FFmpeg, generate AI content, control the QCut editor with native CLI commands, genera...", "description_zh": "", "downloads": 208, "homepage": "https://clawhub.ai/donghaozhang/qcut-toolkit", "iconUrl": null, "installs": 25, "name": "QCut Toolkit", "ownerName": "donghaozhang", "score": 1655.9191147201655, "slug": "qcut-toolkit", "source": "clawhub", "stars": 0, "tags": null, "updated_at": 1776768071222, "version": "1.0.1"}, {"category": "data-analysis", "created_at": 1773434293484, "description": "Analyze laboratory alumni career trajectories and outcomes to provide data-driven career guidance for current students and postdocs. Tracks industry vs acade...", "description_zh": "", "downloads": 208, "homepage": "https://clawhub.ai/googolme/alumni-career-tracker", "iconUrl": null, "installs": 18, "name": "Alumni Career Tracker", "ownerName": "googolme", "score": 7391.613361762616, "slug": "alumni-career-tracker", "source": "clawhub", "stars": 0, "tags": null, "updated_at": 1776766571331, "version": "0.1.0"}, {"category": "content-creation", "created_at": 1773431726714, "description": "Generate children's drawings and coloring pages with modular prompts, style packs, and print-ready constraints across image models.", "description_zh": "", "downloads": 208, "homepage": "https://clawhub.ai/ivangdavila/drawing", "iconUrl": null, "installs": 24, "name": "Drawing", "ownerName": "ivangdavila", "score": 3296.3549920760697, "slug": "drawing", "source": "clawhub", "stars": 0, "tags": null, "updated_at": 1776764950553, "version": "1.0.0"}, {"category": "content-creation", "created_at": 1773065844323, "description": "Connect to Prefy AI platform — Conductor API (19 models, OpenAI-compatible), server management, web search, image generation, phone calls (AutoCall). Use whe...", "description_zh": "", "downloads": 208, "homepage": "https://clawhub.ai/runrelay/prefy", "iconUrl": null, "installs": 12, "name": "Prefy", "ownerName": "runrelay", "score": 6896.551724137931, "slug": "prefy", "source": "clawhub", "stars": 0, "tags": null, "updated_at": 1776761690254, "version": "1.0.0"}]}