{"page": 298, "total_pages": 522, "total": 26073, "skills": [{"category": "developer-tools", "created_at": 1773066723911, "description": "Extract calendar events from Microsoft Exchange via EWS API", "description_zh": "", "downloads": 208, "homepage": "https://clawhub.ai/basuev/ews-skill", "iconUrl": null, "installs": 5, "name": "EWS Skill", "ownerName": "basuev", "score": 15865.751334858885, "slug": "ews-skill", "source": "clawhub", "stars": 0, "tags": null, "updated_at": 1776759498381, "version": "1.0.0"}, {"category": "ai-intelligence", "created_at": 1773068184051, "description": "Create and configure custom agents in Microsoft Copilot Studio via a guided web app process, including triggers, knowledge, tools, topics, and publishing.", "description_zh": "", "downloads": 208, "homepage": "https://clawhub.ai/saikiranparamkusham09/copilot-studio-agent", "iconUrl": null, "installs": 14, "name": "Copilot Studio Agent Creator", "ownerName": "saikiranparamkusham09", "score": 15841.584158415842, "slug": "copilot-studio-agent", "source": "clawhub", "stars": 0, "tags": null, "updated_at": 1776759498280, "version": "1.0.0"}, {"category": "productivity", "created_at": 1773075380348, "description": "testhy is a sample Skill built on the Claude Skills framework enabling natural language tool invocation with minimal integration effort.", "description_zh": "", "downloads": 208, "homepage": "https://clawhub.ai/azraelji/testhy", "iconUrl": null, "installs": 4, "name": "testhy", "ownerName": "azraelji", "score": 15841.584158415842, "slug": "testhy", "source": "clawhub", "stars": 0, "tags": null, "updated_at": 1776759498164, "version": "1.0.0"}, {"category": "security-compliance", "created_at": 1773069585343, "description": "Replace OpenClaw's local file vault with Supabase Vault for AES-256 encrypted-at-rest secret storage. All API keys and auth tokens stored encrypted in Postgr...", "description_zh": "", "downloads": 208, "homepage": "https://clawhub.ai/maverick-software/supabase-vault", "iconUrl": null, "installs": 11, "name": "Supabase Vault", "ownerName": "maverick-software", "score": 15877.862595419847, "slug": "supabase-vault", "source": "clawhub", "stars": 0, "tags": ["integrations", "secrets", "security", "supabase", "vault"], "updated_at": 1776759498023, "version": "1.0.0"}, {"category": "productivity", "created_at": 1773219752393, "description": "A comprehensive AI agent skill for tracking, categorizing, and reporting expenses. Helps individuals monitor personal spending, helps employees submit reimbu...", "description_zh": "", "downloads": 208, "homepage": "https://clawhub.ai/duclawbot/expense", "iconUrl": null, "installs": 8, "name": "Expense", "ownerName": "duclawbot", "score": 15877.862595419847, "slug": "expense", "source": "clawhub", "stars": 0, "tags": ["budget", "expense", "finance", "receipt", "reimbursement"], "updated_at": 1776759498021, "version": "1.0.0"}, {"category": "communication-collaboration", "created_at": 1773088961472, "description": "Automatically transcribes Telegram voice messages using Groq Whisper API and replies with text generated by an LLM.", "description_zh": "", "downloads": 208, "homepage": "https://clawhub.ai/iosif2321/groq-voice-transcriber", "iconUrl": null, "installs": 10, "name": "Groq Voice Transcriber", "ownerName": "iosif2321", "score": 15865.751334858885, "slug": "groq-voice-transcriber", "source": "clawhub", "stars": 0, "tags": null, "updated_at": 1776759497858, "version": "1.0.0"}, {"category": "ai-intelligence", "created_at": 1773219899057, "description": "Autonomously provision and configure a VM on Aleph Cloud, install OpenClaw agent framework, and deploy AI agent without human intervention.", "description_zh": "", "downloads": 208, "homepage": "https://clawhub.ai/san-npm/aleph-cloud-self-deployment", "iconUrl": null, "installs": 29, "name": "aleph-cloud-self-deployment", "ownerName": "san-npm", "score": 15889.992360580596, "slug": "aleph-cloud-self-deployment", "source": "clawhub", "stars": 0, "tags": null, "updated_at": 1776759497813, "version": "1.0.2004"}, {"category": "security-compliance", "created_at": 1773061455390, "description": "Security audit tool for ClawHub/OpenClaw skills (static analysis + reputation scoring)", "description_zh": "", "downloads": 208, "homepage": "https://clawhub.ai/emeraldring3134-netizen/claw-secure-auditor", "iconUrl": null, "installs": 5, "name": "Claw Secure Auditor", "ownerName": "emeraldring3134-netizen", "score": 11298.207495926126, "slug": "claw-secure-auditor", "source": "clawhub", "stars": 0, "tags": ["audit", "safety", "security", "tools", "utils"], "updated_at": 1776758820556, "version": "1.1.1"}, {"category": "data-analysis", "created_at": 1773433809637, "description": "Use Yahoo Finance for quotes, symbol search, watchlists, market briefs, and catalyst-aware stock decisions.", "description_zh": "", "downloads": 208, "homepage": "https://clawhub.ai/ivangdavila/yahoo", "iconUrl": null, "installs": 62, "name": "Yahoo", "ownerName": "ivangdavila", "score": 13081.761006289307, "slug": "yahoo", "source": "clawhub", "stars": 0, "tags": null, "updated_at": 1776757282765, "version": "1.0.0"}, {"category": "productivity", "created_at": 1773950472352, "description": "Notion API for creating and managing pages, databases, and blocks.", "description_zh": "", "downloads": 208, "homepage": "https://clawhub.ai/nidhov01/nidhov01-notion", "iconUrl": null, "installs": 64, "name": "Notion", "ownerName": "nidhov01", "score": 41188.118811881184, "slug": "nidhov01-notion", "source": "clawhub", "stars": 0, "tags": null, "updated_at": 1776750584131, "version": "1.0.0"}, {"category": "data-analysis", "created_at": 1773068956953, "description": "Analyze YouTube competitor channels, trending videos, keywords, and content strategies. Scrape video metadata, transcripts, engagement metrics, and comments....", "description_zh": "", "downloads": 208, "homepage": "https://clawhub.ai/luis2404123/youtube-competitor-analysis", "iconUrl": null, "installs": 17, "name": "YouTube Competitor Analysis", "ownerName": "luis2404123", "score": 91629.95594713656, "slug": "youtube-competitor-analysis", "source": "clawhub", "stars": 0, "tags": null, "updated_at": 1776749145087, "version": "1.0.0"}, {"category": "data-analysis", "created_at": 1772801063047, "description": "Feedback forensics for ERC-8004 agents. Detects Sybil rings, fake reviews, rating manipulation, and reputation laundering across 5 chains. 80K+ agents scored...", "description_zh": "", "downloads": 208, "homepage": "https://clawhub.ai/goatgaucho/trustlayer-sybil-scanner", "iconUrl": null, "installs": 8, "name": "TrustLayer Sybil Scanner", "ownerName": "goatgaucho", "score": 91629.95594713656, "slug": "trustlayer-sybil-scanner", "source": "clawhub", "stars": 0, "tags": null, "updated_at": 1776749145067, "version": "2.0.0"}, {"category": "ai-intelligence", "created_at": 1773069412497, "description": "A generic skill that provides a secure, temporary Docker sandbox for executing generated code (Python, Node.js, bash, etc.). Agents can use this to verify th...", "description_zh": "", "downloads": 208, "homepage": "https://clawhub.ai/newtonfrank/docker-docker-sandbox-agent", "iconUrl": null, "installs": 4, "name": "Docker Sandbox", "ownerName": "newtonfrank", "score": 82213.43873517787, "slug": "docker-docker-sandbox-agent", "source": "clawhub", "stars": 0, "tags": null, "updated_at": 1776749144961, "version": "1.0.0"}, {"category": "data-analysis", "created_at": 1773069906563, "description": "Live dashboard viewer for OpenClaw sessions (CLI + web) that shows color-coded states, token/cost totals, and shareable HTML panels. Requires local OpenClaw...", "description_zh": "", "downloads": 208, "homepage": "https://clawhub.ai/takeovernat/sessions-dashboard", "iconUrl": null, "installs": 12, "name": "Live Sessions Dashboard", "ownerName": "takeovernat", "score": 82213.43873517787, "slug": "sessions-dashboard", "source": "clawhub", "stars": 0, "tags": ["live-dashboard"], "updated_at": 1776749144952, "version": "1.0.1"}, {"category": "content-creation", "created_at": 1773434856796, "description": "Expert Cinema Director skill for Seedance 2.0 (ByteDance) — high-fidelity video generation using technical camera grammar and multimodal references. Supports...", "description_zh": "", "downloads": 208, "homepage": "https://clawhub.ai/anil-matcha/muapi-seedance-2", "iconUrl": null, "installs": 61, "name": "muapi-seedance-2", "ownerName": "anil-matcha", "score": 82213.43873517787, "slug": "muapi-seedance-2", "source": "clawhub", "stars": 0, "tags": null, "updated_at": 1776749144948, "version": "1.0.0"}, {"category": "productivity", "created_at": 1773091340511, "description": "Navigate Europe for travel, relocation, study, remote work, and cross-border life with bloc logic, country fit, rights, timing, and practical execution.", "description_zh": "", "downloads": 208, "homepage": "https://clawhub.ai/ivangdavila/europe", "iconUrl": null, "installs": 51, "name": "Europe", "ownerName": "ivangdavila", "score": 82213.43873517787, "slug": "europe", "source": "clawhub", "stars": 0, "tags": null, "updated_at": 1776749144936, "version": "1.0.0"}, {"category": "security-compliance", "created_at": 1773062975732, "description": "Audit repositories for 2026 Marketing readiness (GEO & A2A). This skill analyzes your README and documentation to ensure your AI products are discoverable an...", "description_zh": "", "downloads": 208, "homepage": "https://clawhub.ai/tmstudio667-commits/agentic-marketing-auditor", "iconUrl": null, "installs": 5, "name": "Agentic Marketing Auditor", "ownerName": "tmstudio667-commits", "score": 76752.76752767529, "slug": "agentic-marketing-auditor", "source": "clawhub", "stars": 0, "tags": ["2026", "geo", "marketing", "seo"], "updated_at": 1776749144874, "version": "1.0.0"}, {"category": "productivity", "created_at": 1772800010999, "description": "Calculate material takeoffs and quotes for wood, vinyl, and aluminum fence projects. Handles post counts, picket quantities, concrete bags, gate hardware, an...", "description_zh": "", "downloads": 208, "homepage": "https://clawhub.ai/reesepj/fence-quote-calculator", "iconUrl": null, "installs": 5, "name": "Fence Quote Calculator", "ownerName": "reesepj", "score": 76752.76752767529, "slug": "fence-quote-calculator", "source": "clawhub", "stars": 0, "tags": null, "updated_at": 1776749144852, "version": "1.0.0"}, {"category": "developer-tools", "created_at": 1773077011343, "description": "DataLoader pattern for batch processing to solve N+1 query problems. Reduces database/API calls from N+1 to 2 by batching and caching.", "description_zh": "", "downloads": 208, "homepage": "https://clawhub.ai/qwe123sddfsdfs/batch-processing", "iconUrl": null, "installs": 8, "name": "Batch Processing (DataLoader)", "ownerName": "qwe123sddfsdfs", "score": 82213.43873517787, "slug": "batch-processing", "source": "clawhub", "stars": 0, "tags": null, "updated_at": 1776749144792, "version": "1.0.0"}, {"category": "communication-collaboration", "created_at": 1773066156912, "description": "A premium operating system skill for one-person companies covering triage, pipeline, sales calls, proposals, follow-ups, renewals, cash collection, weekly an...", "description_zh": "", "downloads": 208, "homepage": "https://clawhub.ai/atwatcher/opc-essentials", "iconUrl": null, "installs": 18, "name": "OPC Essentials", "ownerName": "atwatcher", "score": 82213.43873517787, "slug": "opc-essentials", "source": "clawhub", "stars": 0, "tags": ["admin", "automation", "business-operations", "cashflow", "client-management", "daily-planning", "email", "follow-up", "founder-ops", "one-person company", "opc", "productivity", "proposals", "sales", "solopreneur"], "updated_at": 1776749144740, "version": "1.5.0"}, {"category": "developer-tools", "created_at": 1772803441991, "description": "Expert skill for OpenClaw (formerly Clawdbot/MoltBot) — the self-hosted AI agent framework. ALWAYS use when user mentions OpenClaw, Clawdbot, MoltBot, opencl...", "description_zh": "", "downloads": 208, "homepage": "https://clawhub.ai/arn0ld87/openclaw-expert", "iconUrl": null, "installs": 8, "name": "Openclaw Expert", "ownerName": "arn0ld87", "score": 82213.43873517787, "slug": "openclaw-expert", "source": "clawhub", "stars": 0, "tags": ["devops", "documentation", "openclaw", "reference", "self-hosted", "troubleshooting"], "updated_at": 1776749144736, "version": "1.0.0"}, {"category": "security-compliance", "created_at": 1773075827152, "description": "MCP 2025-11-25 specification compliance audit pack. Validates elicitation, tasks, resources/prompts, audio content, JSON Schema 2020-12, SSE transport, and i...", "description_zh": "", "downloads": 208, "homepage": "https://clawhub.ai/romainsantoli-web/firm-spec-compliance-pack", "iconUrl": null, "installs": 6, "name": "Firm Spec Compliance Pack", "ownerName": "romainsantoli-web", "score": 90434.78260869565, "slug": "firm-spec-compliance-pack", "source": "clawhub", "stars": 0, "tags": null, "updated_at": 1776749144711, "version": "1.0.0"}, {"category": "developer-tools", "created_at": 1773078547499, "description": "Call 32 real-world APIs — flights, hotels, weather, crypto prices, DeFi yields, stock quotes, web search, geocoding, IP reputation, blockchain data, code exe...", "description_zh": "", "downloads": 208, "homepage": "https://clawhub.ai/marcelo-rowship/rwagenthub2", "iconUrl": null, "installs": 20, "name": "AgentHub - 32 AI APIs via x402", "ownerName": "marcelo-rowship", "score": 90434.78260869565, "slug": "rwagenthub2", "source": "clawhub", "stars": 0, "tags": null, "updated_at": 1776749144689, "version": "1.0.0"}, {"category": "developer-tools", "created_at": 1773066998213, "description": "Poll Houston TranStar incidents RSS every 10 minutes and WhatsApp me when there are changes.", "description_zh": "", "downloads": 208, "homepage": "https://clawhub.ai/vijay-murugan/houston-transtar-watch", "iconUrl": null, "installs": 8, "name": "Houston Transtar Watch", "ownerName": "vijay-murugan", "score": 90434.78260869565, "slug": "houston-transtar-watch", "source": "clawhub", "stars": 0, "tags": null, "updated_at": 1776749144678, "version": "1.0.0"}, {"category": "content-creation", "created_at": 1773084132032, "description": "Automated SEO content research, outline generation, and first draft writing. Perfect for content creators and marketing agencies.", "description_zh": "", "downloads": 208, "homepage": "https://clawhub.ai/fly3094/lobsterlabs-seo-content-engine", "iconUrl": null, "installs": 14, "name": "SEO Content Engine", "ownerName": "fly3094", "score": 90434.78260869565, "slug": "lobsterlabs-seo-content-engine", "source": "clawhub", "stars": 0, "tags": null, "updated_at": 1776749144673, "version": "0.1.0"}, {"category": "productivity", "created_at": 1773083507949, "description": "Mac laptop clamshell mode assistant. Supports running with lid closed WITHOUT external display/keyboard/mouse. Auto-detects Mac model and macOS version, prov...", "description_zh": "", "downloads": 208, "homepage": "https://clawhub.ai/keenlycat/mac-clamshell-mode", "iconUrl": null, "installs": 24, "name": "Mac Clamshell Mode", "ownerName": "keenlycat", "score": 90434.78260869565, "slug": "mac-clamshell-mode", "source": "clawhub", "stars": 0, "tags": null, "updated_at": 1776749144667, "version": "1.0.1"}, {"category": "productivity", "created_at": 1772805306122, "description": "When blocked, report exact blocker + attempts made + minimum user input needed. Enable fast unblock without back-and-forth.", "description_zh": "", "downloads": 208, "homepage": "https://clawhub.ai/dalomeve/blocker-min-input", "iconUrl": null, "installs": 6, "name": "Blocker Minimum Input", "ownerName": "dalomeve", "score": 97652.5821596244, "slug": "blocker-min-input", "source": "clawhub", "stars": 0, "tags": null, "updated_at": 1776749144494, "version": "1.0.0"}, {"category": "productivity", "created_at": 1773080392396, "description": "Google Sheets: Read values from a spreadsheet.", "description_zh": "", "downloads": 208, "homepage": "https://clawhub.ai/googleworkspace-bot/gws-sheets-read", "iconUrl": null, "installs": 11, "name": "Gws Sheets Read", "ownerName": "googleworkspace-bot", "score": 82539.68253968253, "slug": "gws-sheets-read", "source": "clawhub", "stars": 0, "tags": null, "updated_at": 1776749144413, "version": "1.0.0"}, {"category": "security-compliance", "created_at": 1773287575747, "description": "Let your agent shop online with guardrailed wallets, multiple payment methods, and owner approval.", "description_zh": "", "downloads": 207, "homepage": "https://clawhub.ai/triplehippo/microsoft", "iconUrl": null, "installs": 35, "name": "Shop from Microsoft - With your creditcard", "ownerName": "triplehippo", "score": 15505.464480874318, "slug": "microsoft", "source": "clawhub", "stars": 1, "tags": null, "updated_at": 1776759383165, "version": "1.0.0"}, {"category": "developer-tools", "created_at": 1773090248922, "description": "Clone and deploy OpenClaw to a new VPS via SSH, installing the software and copying all ~/.openclaw data with optional credential updates.", "description_zh": "", "downloads": 207, "homepage": "https://clawhub.ai/crazypeace/openclaw-self-clone-everything", "iconUrl": null, "installs": 13, "name": "openclaw-self-clone-everything | 复制openclaw自己到一个新的VPS 复制全部数据", "ownerName": "crazypeace", "score": 17029.257314328584, "slug": "openclaw-self-clone-everything", "source": "clawhub", "stars": 1, "tags": null, "updated_at": 1776759382485, "version": "1.0.0"}, {"category": "developer-tools", "created_at": 1773083711858, "description": "Use the robotx CLI to deploy, manage versions, and check status for RobotX applications.", "description_zh": "", "downloads": 207, "homepage": "https://clawhub.ai/haibingtown/robotx", "iconUrl": null, "installs": 7, "name": "RobotX Deploy CLI", "ownerName": "haibingtown", "score": 100000, "slug": "robotx", "source": "clawhub", "stars": 1, "tags": null, "updated_at": 1776749155620, "version": "1.0.1"}, {"category": "developer-tools", "created_at": 1773075966630, "description": "Interact with the Taco crypto trading platform via API. Use when the user wants to (1) get kline/candlestick market data, (2) check account balance and posit...", "description_zh": "", "downloads": 207, "homepage": "https://clawhub.ai/furoxr/taco", "iconUrl": null, "installs": 7, "name": "Taco Connector", "ownerName": "furoxr", "score": 100000, "slug": "taco", "source": "clawhub", "stars": 1, "tags": null, "updated_at": 1776749155495, "version": "1.1.1"}, {"category": "ai-intelligence", "created_at": 1773067672898, "description": "PAHF (Personalized Agents from Human Feedback) - Continual Personalization Framework. Triggered when applying the PAHF three-step loop: (1) Pre-action Clarif...", "description_zh": "", "downloads": 207, "homepage": "https://clawhub.ai/welkeyever/pafh-mini", "iconUrl": null, "installs": 16, "name": "PAFH-Memory", "ownerName": "welkeyever", "score": 97424.89270386267, "slug": "pafh-mini", "source": "clawhub", "stars": 1, "tags": null, "updated_at": 1776749144990, "version": "1.0.2"}, {"category": "content-creation", "created_at": 1773217919129, "description": "A comprehensive AI agent skill for bloggers at every stage. Finds your niche, builds your content strategy, writes and edits posts, optimizes for search with...", "description_zh": "", "downloads": 207, "homepage": "https://clawhub.ai/ethagent/blogging", "iconUrl": null, "installs": 12, "name": "Blogging", "ownerName": "ethagent", "score": 1039.365334404499, "slug": "blogging", "source": "clawhub", "stars": 0, "tags": ["audience", "blogging", "content", "seo", "writing"], "updated_at": 1776770049793, "version": "1.0.0"}, {"category": "productivity", "created_at": 1773067506577, "description": "Track anxiety episodes, triggers, thoughts, and coping responses with therapy-ready logs, weekly trend reviews, and safety-first escalation cues.", "description_zh": "", "downloads": 207, "homepage": "https://clawhub.ai/ivangdavila/anxiety", "iconUrl": null, "installs": 9, "name": "Anxiety (Tracker, Trigger Map, Coping Planner)", "ownerName": "ivangdavila", "score": 2922.077922077922, "slug": "anxiety", "source": "clawhub", "stars": 0, "tags": null, "updated_at": 1776768850004, "version": "1.0.0"}, {"category": "", "created_at": 1774780715118, "description": "Provides real-time A-share market and financial news from Eastmoney based on user queries like market trends and stock updates.", "description_zh": "", "downloads": 207, "homepage": "https://clawhub.ai/njbilly007-lab/eastmoney-news", "iconUrl": null, "installs": 71, "name": "Eastmoney News", "ownerName": "njbilly007-lab", "score": 1243.168578463756, "slug": "eastmoney-news", "source": "clawhub", "stars": 0, "tags": null, "updated_at": 1776766271315, "version": "1.0.0"}, {"category": "ai-intelligence", "created_at": 1773428049480, "description": "A fully local machine learning engine that makes your OpenClaw agent smart over time — without ever calling home, revealing your machine ID, or exposing any...", "description_zh": "", "downloads": 207, "homepage": "https://clawhub.ai/josephtandle/local-self-healing-machine-learning", "iconUrl": null, "installs": 31, "name": "Local Self-Healing Machine Learning", "ownerName": "josephtandle", "score": 5260.482846251589, "slug": "local-self-healing-machine-learning", "source": "clawhub", "stars": 0, "tags": ["ai", "embeddings", "local", "machine-learning", "self-healing"], "updated_at": 1776761880288, "version": "2.0.1"}, {"category": "content-creation", "created_at": 1773079226982, "description": "Prepares a video by verifying all required assets from a script on Google Drive and triggers generation or reports missing files.", "description_zh": "", "downloads": 207, "homepage": "https://clawhub.ai/scotteverduim/prep-video", "iconUrl": null, "installs": 13, "name": "Prep Video", "ownerName": "scotteverduim", "score": 6897.700766411197, "slug": "prep-video", "source": "clawhub", "stars": 0, "tags": null, "updated_at": 1776761690036, "version": "1.0.0"}, {"category": "ai-intelligence", "created_at": 1773089705845, "description": "Hypii AI Trading Agent for Hyperliquid perpetual futures. Automated trading strategies with SkillPay micropayment integration. Features: - DCA (Dollar Cost A...", "description_zh": "", "downloads": 207, "homepage": "https://clawhub.ai/jarviyin/hypii-hyperliquid-trader", "iconUrl": null, "installs": 10, "name": "Hypii Hyperliquid Trader", "ownerName": "jarviyin", "score": 96728.97196261682, "slug": "hypii-hyperliquid-trader", "source": "clawhub", "stars": 0, "tags": null, "updated_at": 1776759498422, "version": "1.0.0"}, {"category": "developer-tools", "created_at": 1773283820817, "description": "Pay-per-call API gateway — zero account, zero API key, zero subscription via the x402 protocol. One Base wallet + USDC is all you need to access 250+ profess...", "description_zh": "", "downloads": 207, "homepage": "https://clawhub.ai/biggggtreee-rgb/clawxpay", "iconUrl": null, "installs": 9, "name": "clawxpay", "ownerName": "biggggtreee-rgb", "score": 15789.473684210525, "slug": "clawxpay", "source": "clawhub", "stars": 0, "tags": null, "updated_at": 1776759498383, "version": "1.0.3"}, {"category": "developer-tools", "created_at": 1773845498329, "description": "Give AI hands to control any Mac app. Auto-discover installed apps, generate CLI wrappers, return structured JSON. Works with Music, Finder, Chrome, Word, Fi...", "description_zh": "", "downloads": 207, "homepage": "https://clawhub.ai/mileszhang001-boom/clam-mac", "iconUrl": null, "installs": 10, "name": "Agent Tool Scout", "ownerName": "mileszhang001-boom", "score": 15801.526717557252, "slug": "clam-mac", "source": "clawhub", "stars": 0, "tags": null, "updated_at": 1776759498058, "version": "0.2.0"}, {"category": "developer-tools", "created_at": 1773065963868, "description": "A minimal bash client using GitHub Issues for agent communication with commands to list channels, read, and send messages.", "description_zh": "", "downloads": 207, "homepage": "https://clawhub.ai/numbpill3d/agent-safehouse", "iconUrl": null, "installs": 9, "name": "Agent Safehouse", "ownerName": "numbpill3d", "score": 15765.422696115766, "slug": "agent-safehouse", "source": "clawhub", "stars": 0, "tags": null, "updated_at": 1776759497908, "version": "0.1.0"}, {"category": "developer-tools", "created_at": 1773080878022, "description": "Enable OpenAI Codex CLI to use domestic Chinese AI models via protocol conversion and auto-configuration with support for multiple providers.", "description_zh": "", "downloads": 207, "homepage": "https://clawhub.ai/luckkiven/codex-cn-bridge", "iconUrl": null, "installs": 8, "name": "codex-cn-bridge", "ownerName": "luckkiven", "score": 15765.422696115766, "slug": "codex-cn-bridge", "source": "clawhub", "stars": 0, "tags": null, "updated_at": 1776759497904, "version": "1.0.0"}, {"category": "data-analysis", "created_at": 1773083990442, "description": "Optimize investment portfolios with rebalancing, risk analysis, tax-loss harvesting, and calculate optimal asset allocation.", "description_zh": "", "downloads": 207, "homepage": "https://clawhub.ai/saintlittlefish/xanadu-portfolio-optimizer", "iconUrl": null, "installs": 13, "name": "Xanadu Portfolio Optimizer", "ownerName": "saintlittlefish", "score": 15789.473684210525, "slug": "xanadu-portfolio-optimizer", "source": "clawhub", "stars": 0, "tags": ["finance", "investing", "portfolio", "rebalancing"], "updated_at": 1776759497880, "version": "1.0.0"}, {"category": "developer-tools", "created_at": 1773202260088, "description": "Connect Even Realities G2 smart glasses to OpenClaw via Cloudflare Worker. Deploys a bridge that routes G2 voice commands to your OpenClaw Gateway — same age...", "description_zh": "", "downloads": 207, "homepage": "https://clawhub.ai/daaab/even-g2-bridge", "iconUrl": null, "installs": 7, "name": "Even G2 Bridge", "ownerName": "daaab", "score": 15789.473684210525, "slug": "even-g2-bridge", "source": "clawhub", "stars": 0, "tags": ["cloudflare-workers", "even-realities", "g2", "smart-glasses", "voice", "wearable"], "updated_at": 1776759497866, "version": "5.2.0"}, {"category": "data-analysis", "created_at": 1773068242909, "description": "Provides a universal HTTP retry mechanism with exponential backoff, timeout control, and rate limit handling to improve API call reliability.", "description_zh": "", "downloads": 207, "homepage": "https://clawhub.ai/gatsby047-oss/http-retry-evomap", "iconUrl": null, "installs": 12, "name": "HTTP Retry - Evomap Asset", "ownerName": "gatsby047-oss", "score": 15813.598166539345, "slug": "http-retry-evomap", "source": "clawhub", "stars": 0, "tags": ["c", "evomap", "http", "network", "resilience", "retry"], "updated_at": 1776759497828, "version": "1.0.0"}, {"category": "developer-tools", "created_at": 1773079485458, "description": "Collects Instagram profile metrics for a handle using Apify, returning followers, posts, engagement rate, posting frequency, avg likes/comments, and top hash...", "description_zh": "", "downloads": 207, "homepage": "https://clawhub.ai/adarshvmore/instagram-collector-adarsh", "iconUrl": null, "installs": 7, "name": "Instagram Collector Adarsh", "ownerName": "adarshvmore", "score": 15789.473684210525, "slug": "instagram-collector-adarsh", "source": "clawhub", "stars": 0, "tags": null, "updated_at": 1776759497772, "version": "1.0.1"}, {"category": "developer-tools", "created_at": 1773078218411, "description": "Scans Meta Ad Library API to count active ads, identify ad formats and types, track longest-running ad, and estimate spend for a given brand.", "description_zh": "", "downloads": 207, "homepage": "https://clawhub.ai/adarshvmore/meta-ads-collector", "iconUrl": null, "installs": 6, "name": "Meta Ads Collector", "ownerName": "adarshvmore", "score": 15789.473684210525, "slug": "meta-ads-collector", "source": "clawhub", "stars": 0, "tags": null, "updated_at": 1776759497739, "version": "1.0.0"}, {"category": "security-compliance", "created_at": 1773077162275, "description": "Use this skill for any operation with the Indices CLI — authentication, tasks, runs, and secrets.", "description_zh": "", "downloads": 207, "homepage": "https://clawhub.ai/itsaphel/indices", "iconUrl": null, "installs": 3, "name": "Indices", "ownerName": "itsaphel", "score": 12234.04255319149, "slug": "indices", "source": "clawhub", "stars": 0, "tags": null, "updated_at": 1776756188597, "version": "0.0.1"}, {"category": "productivity", "created_at": 1773078070857, "description": "Coding style memory that adapts to your preferences, conventions, and patterns for consistent coding.", "description_zh": "", "downloads": 207, "homepage": "https://clawhub.ai/chayjan/coding-1-0-3", "iconUrl": null, "installs": 9, "name": "Coding 1.0.3", "ownerName": "chayjan", "score": 12234.04255319149, "slug": "coding-1-0-3", "source": "clawhub", "stars": 0, "tags": null, "updated_at": 1776756188415, "version": "1.0.0"}]}