{"page": 299, "total_pages": 522, "total": 26073, "skills": [{"category": "productivity", "created_at": 1772805248471, "description": "Recommend optimal Reserved Instance and Savings Plan portfolio based on AWS usage patterns", "description_zh": "", "downloads": 207, "homepage": "https://clawhub.ai/anmolnagpal/ri-savings-advisor", "iconUrl": null, "installs": 4, "name": "Ri Savings Advisor", "ownerName": "anmolnagpal", "score": 91189.42731277533, "slug": "ri-savings-advisor", "source": "clawhub", "stars": 0, "tags": null, "updated_at": 1776749155616, "version": "1.0.0"}, {"category": "developer-tools", "created_at": 1773067562259, "description": "Verifies identity documents via the Didit standalone API. Use when verifying a passport, ID card, driver's license, or residence permit, performing OCR extra...", "description_zh": "", "downloads": 207, "homepage": "https://clawhub.ai/rosasalberto/didit-id-document-verification", "iconUrl": null, "installs": 8, "name": "Didit Id Document Verification", "ownerName": "rosasalberto", "score": 91189.42731277533, "slug": "didit-id-document-verification", "source": "clawhub", "stars": 0, "tags": null, "updated_at": 1776749155614, "version": "1.2.0"}, {"category": "communication-collaboration", "created_at": 1773076963555, "description": "Manage contacts associated with your identity — list, search, create, update, and delete. Use ravi-contacts to resolve a person's name to their email or phon...", "description_zh": "", "downloads": 207, "homepage": "https://clawhub.ai/raunaksingwi/ravi-contacts", "iconUrl": null, "installs": 8, "name": "Ravi contacts", "ownerName": "raunaksingwi", "score": 91189.42731277533, "slug": "ravi-contacts", "source": "clawhub", "stars": 0, "tags": null, "updated_at": 1776749155608, "version": "1.7.1"}, {"category": "productivity", "created_at": 1773076746505, "description": "Skill lazy loading and search pack. On-demand SKILL.md loading and keyword-based skill search. 2 loader tools.", "description_zh": "", "downloads": 207, "homepage": "https://clawhub.ai/romainsantoli-web/firm-skill-loader-pack", "iconUrl": null, "installs": 8, "name": "Firm Skill Loader Pack", "ownerName": "romainsantoli-web", "score": 91189.42731277533, "slug": "firm-skill-loader-pack", "source": "clawhub", "stars": 0, "tags": null, "updated_at": 1776749155603, "version": "1.0.0"}, {"category": "security-compliance", "created_at": 1773067625803, "description": "Operate as a Lead List Building Agent — an autonomous agent that discovers businesses with outdated or broken websites, audits each site, enriches contact in...", "description_zh": "", "downloads": 207, "homepage": "https://clawhub.ai/maverick-software/lead-list-builder", "iconUrl": null, "installs": 6, "name": "Lead List Builder Agent", "ownerName": "maverick-software", "score": 91189.42731277533, "slug": "lead-list-builder", "source": "clawhub", "stars": 0, "tags": null, "updated_at": 1776749155596, "version": "1.0.0"}, {"category": "content-creation", "created_at": 1773862921513, "description": "Plan, organize, and track content with smart rotation — never publish the same format twice in a row. Manages calendars, draft pipelines (idea→draft→ready→pu...", "description_zh": "", "downloads": 207, "homepage": "https://clawhub.ai/crispyangles/content-scheduler", "iconUrl": null, "installs": 10, "name": "Content Scheduler", "ownerName": "crispyangles", "score": 91189.42731277533, "slug": "content-scheduler", "source": "clawhub", "stars": 0, "tags": null, "updated_at": 1776749155594, "version": "3.1.0"}, {"category": "content-creation", "created_at": 1773078007407, "description": "Connect OpenClaw to Aionis using write/context/policy/feedback memory loop APIs.", "description_zh": "", "downloads": 207, "homepage": "https://clawhub.ai/cognary/aionis", "iconUrl": null, "installs": 14, "name": "Aionis", "ownerName": "cognary", "score": 84146.34146341463, "slug": "aionis", "source": "clawhub", "stars": 0, "tags": null, "updated_at": 1776749155590, "version": "1.0.0"}, {"category": "productivity", "created_at": 1773066221566, "description": "Recommend optimal Azure Reservations and Hybrid Benefit coverage for maximum stacked savings", "description_zh": "", "downloads": 207, "homepage": "https://clawhub.ai/anmolnagpal/reservations-hybrid-advisor", "iconUrl": null, "installs": 6, "name": "Reservations Hybrid Advisor", "ownerName": "anmolnagpal", "score": 84146.34146341463, "slug": "reservations-hybrid-advisor", "source": "clawhub", "stars": 0, "tags": null, "updated_at": 1776749155585, "version": "1.0.0"}, {"category": "productivity", "created_at": 1772803854324, "description": "Verwende diesen Skill fuer einen vollautonomen Goalz-Bot ueber den oeffentlichen Goalz-MCP-Endpunkt, der eigenstaendig spielt, berichtet und den Verein langf...", "description_zh": "", "downloads": 207, "homepage": "https://clawhub.ai/geby85/goalz-de", "iconUrl": null, "installs": 1, "name": "Goalz über MCP", "ownerName": "geby85", "score": 84146.34146341463, "slug": "goalz-de", "source": "clawhub", "stars": 0, "tags": null, "updated_at": 1776749155556, "version": "0.0.1"}, {"category": "productivity", "created_at": 1773065948992, "description": "Run natural-language data query workflows for Meta (Facebook/Instagram), Google Ads, TikTok Ads, YouTube Ads, Amazon Ads, and Shopify Ads reports.", "description_zh": "", "downloads": 207, "homepage": "https://clawhub.ai/danyangliu-sandwichlab/ads-data-query-assistant", "iconUrl": null, "installs": 13, "name": "Ads Data Query", "ownerName": "danyangliu-sandwichlab", "score": 84146.34146341463, "slug": "ads-data-query-assistant", "source": "clawhub", "stars": 0, "tags": null, "updated_at": 1776749155545, "version": "1.0.0"}, {"category": "ai-intelligence", "created_at": 1773079520185, "description": "Configure an OpenClaw instance to use a local OpenAI-compatible TTS backend (for example openedai-speech) with cloned voices. Use when users ask to wire loca...", "description_zh": "", "downloads": 207, "homepage": "https://clawhub.ai/lotfinity/local-openedai-tts", "iconUrl": null, "installs": 10, "name": "OpenClaw Tailnet TTS Endpoint", "ownerName": "lotfinity", "score": 84146.34146341463, "slug": "local-openedai-tts", "source": "clawhub", "stars": 0, "tags": ["openclaw", "tailnet", "tts"], "updated_at": 1776749155529, "version": "0.1.0"}, {"category": "developer-tools", "created_at": 1773080035000, "description": "Multi-agent board meeting protocol for strategic decisions. Runs a structured 6-phase deliberation: context loading, independent C-suite contributions (isola...", "description_zh": "", "downloads": 207, "homepage": "https://clawhub.ai/alirezarezvani/board-meeting", "iconUrl": null, "installs": 7, "name": "Board Meeting", "ownerName": "alirezarezvani", "score": 84146.34146341463, "slug": "board-meeting", "source": "clawhub", "stars": 0, "tags": null, "updated_at": 1776749155516, "version": "2.1.1"}, {"category": "data-analysis", "created_at": 1773089492823, "description": "Reverse-engineer any LinkedIn profile's content strategy — pillars, hooks, CTAs, and PDF report", "description_zh": "", "downloads": 207, "homepage": "https://clawhub.ai/behruamm/linkedin-analyzer", "iconUrl": null, "installs": 19, "name": "LinkedIn Content Strategy Analyzer", "ownerName": "behruamm", "score": 84146.34146341463, "slug": "linkedin-analyzer", "source": "clawhub", "stars": 0, "tags": ["analytics", "content-strategy", "linkedin", "pdf"], "updated_at": 1776749155511, "version": "1.0.1"}, {"category": "productivity", "created_at": 1772804764981, "description": "Generates a world model representation from state inputs using discrete wavelet transforms (DWT) to capture multi-resolution temporal and spatial features.", "description_zh": "", "downloads": 207, "homepage": "https://clawhub.ai/aadipapp/wavelet-worldmodel-skill", "iconUrl": null, "installs": 9, "name": "WaveletWorldModel", "ownerName": "aadipapp", "score": 91189.42731277533, "slug": "wavelet-worldmodel-skill", "source": "clawhub", "stars": 0, "tags": null, "updated_at": 1776749155468, "version": "1.0.0"}, {"category": "ai-intelligence", "created_at": 1773435144375, "description": "Build real-time voice chatbot applications with natural conversation flow and customizable personalities. Use when users want to create voice assistants, con...", "description_zh": "", "downloads": 207, "homepage": "https://clawhub.ai/scikkk/chatbot", "iconUrl": null, "installs": 12, "name": "Chatbot", "ownerName": "scikkk", "score": 91189.42731277533, "slug": "chatbot", "source": "clawhub", "stars": 0, "tags": null, "updated_at": 1776749147017, "version": "1.0.0"}, {"category": "security-compliance", "created_at": 1773219297710, "description": "OpenClaw token cost reduction, performance tuning, and security hardening guide. Use when asked to optimize OpenClaw, reduce token costs, fix missing capabil...", "description_zh": "", "downloads": 207, "homepage": "https://clawhub.ai/learsea/openclaw-optimizer-pro", "iconUrl": null, "installs": 7, "name": "OpenClaw Optimizer", "ownerName": "learsea", "score": 91189.42731277533, "slug": "openclaw-optimizer-pro", "source": "clawhub", "stars": 0, "tags": null, "updated_at": 1776749147015, "version": "1.2.0"}, {"category": "ai-intelligence", "created_at": 1773074554451, "description": "Repair Evolver restart storms caused by singleton lock/PID false positives and service restart policy mismatch.", "description_zh": "", "downloads": 207, "homepage": "https://clawhub.ai/xyezir/oc-evolver-restart-loop-fix", "iconUrl": null, "installs": 11, "name": "OC Evolver Restart Loop Fix", "ownerName": "xyezir", "score": 91189.42731277533, "slug": "oc-evolver-restart-loop-fix", "source": "clawhub", "stars": 0, "tags": null, "updated_at": 1776749147011, "version": "0.1.0"}, {"category": "data-analysis", "created_at": 1773082093209, "description": "Desktop automation via native OS accessibility trees using the agent-desktop CLI. Use when an AI agent needs to observe, interact with, or automate desktop a...", "description_zh": "", "downloads": 207, "homepage": "https://clawhub.ai/darryek/aoto", "iconUrl": null, "installs": 20, "name": "my skill", "ownerName": "darryek", "score": 91189.42731277533, "slug": "aoto", "source": "clawhub", "stars": 0, "tags": null, "updated_at": 1776749146997, "version": "1.0.0"}, {"category": "productivity", "created_at": 1773078009056, "description": "Query Apple Health data exported as CSV files from iOS apps like Simple Health Export or Health Auto Export. Supports 30+ health metrics including heart rate...", "description_zh": "", "downloads": 207, "homepage": "https://clawhub.ai/lanyasheng/apple-health-csv", "iconUrl": null, "installs": 14, "name": "Apple Health CSV", "ownerName": "lanyasheng", "score": 91189.42731277533, "slug": "apple-health-csv", "source": "clawhub", "stars": 0, "tags": null, "updated_at": 1776749146984, "version": "1.0.0"}, {"category": "productivity", "created_at": 1773067641520, "description": "Automate LinkedIn outreach with connection requests, personalized messaging, profile visiting, and follow-ups. Manage multiple LinkedIn accounts safely using...", "description_zh": "", "downloads": 207, "homepage": "https://clawhub.ai/luis2404123/linkedin-outreach-automation", "iconUrl": null, "installs": 9, "name": "LinkedIn Outreach Automation", "ownerName": "luis2404123", "score": 90000, "slug": "linkedin-outreach-automation", "source": "clawhub", "stars": 0, "tags": null, "updated_at": 1776749144642, "version": "1.0.0"}, {"category": "data-analysis", "created_at": 1773083944809, "description": "A comprehensive growth stock screening and analysis skill. Use this skill whenever the user asks about growth stocks, stock screening, equity analysis, inves...", "description_zh": "", "downloads": 207, "homepage": "https://clawhub.ai/zhengxinjipai/stock-screener-growth", "iconUrl": null, "installs": 24, "name": "Stock Screener", "ownerName": "zhengxinjipai", "score": 89610.38961038961, "slug": "stock-screener-growth", "source": "clawhub", "stars": 0, "tags": null, "updated_at": 1776749144589, "version": "1.0.0"}, {"category": "productivity", "created_at": 1773088897527, "description": "READ this skill when implementing or configuring animation-style shaders (Toon/Cel Shaders) — including outlines, rim lighting, toon shading, MatCap, emissio...", "description_zh": "", "downloads": 206, "homepage": "https://clawhub.ai/yuki001/animation-shader", "iconUrl": null, "installs": 16, "name": "Animation Shader", "ownerName": "yuki001", "score": 4828.028199102756, "slug": "animation-shader", "source": "clawhub", "stars": 1, "tags": null, "updated_at": 1776763490520, "version": "0.1.0"}, {"category": "developer-tools", "created_at": 1773069687819, "description": "Monitors and fetches HackerNews stories via official API, supporting top, new, best, Ask, Show, Jobs categories and keyword searches.", "description_zh": "", "downloads": 206, "homepage": "https://clawhub.ai/runawaydevil/hn-reader", "iconUrl": null, "installs": 11, "name": "HN Reader", "ownerName": "runawaydevil", "score": 91129.03225806452, "slug": "hn-reader", "source": "clawhub", "stars": 1, "tags": null, "updated_at": 1776759383185, "version": "1.0.0"}, {"category": "ai-intelligence", "created_at": 1773078918910, "description": "Busca e retorna piadas reais recentes e limpas do subreddit r/tiodopave com score > 5, evitando repetições e conteúdo NSFW.", "description_zh": "", "downloads": 206, "homepage": "https://clawhub.ai/runawaydevil/tiodopave", "iconUrl": null, "installs": 12, "name": "Piadas Reddit", "ownerName": "runawaydevil", "score": 14169.278996865203, "slug": "tiodopave", "source": "clawhub", "stars": 1, "tags": null, "updated_at": 1776759382752, "version": "1.0.0"}, {"category": "communication-collaboration", "created_at": 1773076680169, "description": "Collect and send Telegram stickers smartly. Auto-import packs, tag by emotion, select contextually, and respect frequency limits (2-5 messages).", "description_zh": "", "downloads": 206, "homepage": "https://clawhub.ai/bangyizhang/tg-stickers", "iconUrl": null, "installs": 6, "name": "Telegram Stickers", "ownerName": "bangyizhang", "score": 100000, "slug": "tg-stickers", "source": "clawhub", "stars": 1, "tags": ["stickers", "telegram", "v0.2"], "updated_at": 1776749172114, "version": "0.2.0"}, {"category": "security-compliance", "created_at": 1773069914510, "description": "SharePoint API integration via Microsoft Graph with managed OAuth. Access SharePoint sites, lists, document libraries, and files. Use this skill when users w...", "description_zh": "", "downloads": 206, "homepage": "https://clawhub.ai/byungkyu/sharepoint", "iconUrl": null, "installs": 17, "name": "Microsoft SharePoint", "ownerName": "byungkyu", "score": 100000, "slug": "sharepoint", "source": "clawhub", "stars": 1, "tags": null, "updated_at": 1776749172077, "version": "1.0.1"}, {"category": "security-compliance", "created_at": 1773068979401, "description": "Network scanning MCP server wrapping nmap. Provides 14 purpose-built tools for host discovery, port scanning (SYN/TCP/UDP), service & OS detection, NSE scrip...", "description_zh": "", "downloads": 206, "homepage": "https://clawhub.ai/sbmilburn/nmap-mcp", "iconUrl": null, "installs": 7, "name": "nmap MCP server for AI-assisted network security auditing", "ownerName": "sbmilburn", "score": 99559.47136563876, "slug": "nmap-mcp", "source": "clawhub", "stars": 1, "tags": null, "updated_at": 1776749155601, "version": "1.0.0"}, {"category": "developer-tools", "created_at": 1773078630954, "description": "Audio transcription and text-to-speech generation using OpenRouter API. Use when the user needs to transcribe audio files to text or generate speech/audio fr...", "description_zh": "", "downloads": 206, "homepage": "https://clawhub.ai/odubinkin/openrouter-audio", "iconUrl": null, "installs": 17, "name": "OpenRouter Audio", "ownerName": "odubinkin", "score": 91869.918699187, "slug": "openrouter-audio", "source": "clawhub", "stars": 1, "tags": null, "updated_at": 1776749155566, "version": "1.0.2"}, {"category": "productivity", "created_at": 1773078750079, "description": "Microsoft Teams integration. Manage communication data, records, and workflows. Use when the user wants to interact with Microsoft Teams data.", "description_zh": "", "downloads": 206, "homepage": "https://clawhub.ai/gora050/microsoft-teams-integration", "iconUrl": null, "installs": 20, "name": "Microsoft Teams", "ownerName": "gora050", "score": 19234.360410831, "slug": "microsoft-teams-integration", "source": "clawhub", "stars": 0, "tags": null, "updated_at": 1776769190458, "version": "1.0.0"}, {"category": "data-analysis", "created_at": 1773068581104, "description": "Comprehensive guidance and methodologies for becoming a successful trader, covering strategy development, risk management, technical analysis, and trading ps...", "description_zh": "", "downloads": 206, "homepage": "https://clawhub.ai/mofesto/successful-trader", "iconUrl": null, "installs": 22, "name": "Successful Trader", "ownerName": "mofesto", "score": 9212.880143112701, "slug": "successful-trader", "source": "clawhub", "stars": 0, "tags": null, "updated_at": 1776766871245, "version": "0.1.0"}, {"category": "developer-tools", "created_at": 1773067686075, "description": "0xProbable prediction market trading skills on BSC mainnet. Trade outcome shares (YES/NO) on real-world events via CLOB order book using @prob/clob SDK. Supp...", "description_zh": "", "downloads": 206, "homepage": "https://clawhub.ai/ternencescott/probable-skill", "iconUrl": null, "installs": 6, "name": "Probable Skill", "ownerName": "ternencescott", "score": 9712.399811409712, "slug": "probable-skill", "source": "clawhub", "stars": 0, "tags": null, "updated_at": 1776763450860, "version": "0.1.1"}, {"category": "data-analysis", "created_at": 1773090673585, "description": "Perform advanced filesystem tasks including recursive listing, name/content searching, batch copying/moving/deleting, and directory size and type analysis.", "description_zh": "", "downloads": 206, "homepage": "https://clawhub.ai/srikanth-hn/doctor-nexus-filesystem", "iconUrl": null, "installs": 7, "name": "Doctor Nexus Filesystem", "ownerName": "srikanth-hn", "score": 15725.190839694655, "slug": "doctor-nexus-filesystem", "source": "clawhub", "stars": 0, "tags": null, "updated_at": 1776759498207, "version": "1.0.0"}, {"category": "developer-tools", "created_at": 1773428254617, "description": "Automatically checks for skill updates on use, caches results 24h, prompts by update type, and supports seamless one-click upgrading with backup and rollback.", "description_zh": "", "downloads": 206, "homepage": "https://clawhub.ai/harrylabsj/auto-update-skill", "iconUrl": null, "installs": 28, "name": "Auto Update Skill", "ownerName": "harrylabsj", "score": 15689.26123381569, "slug": "auto-update-skill", "source": "clawhub", "stars": 0, "tags": null, "updated_at": 1776759498156, "version": "1.0.0"}, {"category": "data-analysis", "created_at": 1773079125267, "description": "Provides automatic tracing, logging, cost tracking, and health monitoring for OpenClaw LLM calls, APIs, tool executions, and custom events.", "description_zh": "", "downloads": 206, "homepage": "https://clawhub.ai/aiwithabidi/langfuse-observability", "iconUrl": null, "installs": 7, "name": "Langfuse Observability", "ownerName": "aiwithabidi", "score": 15725.190839694655, "slug": "langfuse-observability", "source": "clawhub", "stars": 0, "tags": null, "updated_at": 1776759498108, "version": "1.0.0"}, {"category": "content-creation", "created_at": 1773077153357, "description": "Detects companies showing real-time buying signals like recent funding, hiring, or competitor frustration and delivers personalized outreach when they’re rea...", "description_zh": "", "downloads": 206, "homepage": "https://clawhub.ai/g4dr/high-intent-lead-sniper", "iconUrl": null, "installs": 11, "name": "High-Intent Lead Sniper — Find Prospects Ready to Buy RIGHT NOW", "ownerName": "g4dr", "score": 15725.190839694655, "slug": "high-intent-lead-sniper", "source": "clawhub", "stars": 0, "tags": ["apify", "b2b-sales", "buying-signals", "funding-detection", "intent-data", "invideo", "lead-generation", "outreach", "sdr"], "updated_at": 1776759498088, "version": "1.0.0"}, {"category": "data-analysis", "created_at": 1773068593929, "description": "Code refactoring tool converting hard-coded structures to configuration-driven designs with dynamic fields and type-safe access.", "description_zh": "", "downloads": 206, "homepage": "https://clawhub.ai/gatsby047-oss/task2-refactor-evomap", "iconUrl": null, "installs": 10, "name": "Task 2 Refactor - Evomap Asset", "ownerName": "gatsby047-oss", "score": 15725.190839694655, "slug": "task2-refactor-evomap", "source": "clawhub", "stars": 0, "tags": ["c", "config", "evomap", "maintainability", "refactor"], "updated_at": 1776759498083, "version": "1.0.0"}, {"category": "ai-intelligence", "created_at": 1773089291813, "description": "Orchestrates collaborative agent sessions with secure, fault-tolerant CRDT persistence and instant crash-proof state recovery.", "description_zh": "", "downloads": 206, "homepage": "https://clawhub.ai/404-unknow/operator-skill", "iconUrl": null, "installs": 11, "name": "Operator Skill", "ownerName": "404-unknow", "score": 15665.399239543725, "slug": "operator-skill", "source": "clawhub", "stars": 0, "tags": null, "updated_at": 1776759498005, "version": "0.1.0"}, {"category": "data-analysis", "created_at": 1773078258029, "description": "Guides structured self-directed OCD ERP therapy using inhibitory learning, providing safety screening, progress tracking, reminders, and tailored exposure su...", "description_zh": "", "downloads": 206, "homepage": "https://clawhub.ai/arclunar/ocd-erp-therapist", "iconUrl": null, "installs": 10, "name": "Erp Skill Research", "ownerName": "arclunar", "score": 15713.196033562166, "slug": "ocd-erp-therapist", "source": "clawhub", "stars": 0, "tags": null, "updated_at": 1776759497732, "version": "1.0.0"}, {"category": "productivity", "created_at": 1773430335126, "description": "Structured improvement system for learnable skills (programming, design, languages, instruments). Use when tracking progress, identifying bottlenecks, or opt...", "description_zh": "", "downloads": 206, "homepage": "https://clawhub.ai/harrylabsj/self-improving-skill", "iconUrl": null, "installs": 59, "name": "Self Improving Skill", "ownerName": "harrylabsj", "score": 35093.69676320272, "slug": "self-improving-skill", "source": "clawhub", "stars": 0, "tags": null, "updated_at": 1776759082391, "version": "1.0.0"}, {"category": "developer-tools", "created_at": 1773285244832, "description": "Turn raw mistakes, corrections, discoveries, and repeated decisions into structured learnings and promotion candidates. Use when the user wants a conservativ...", "description_zh": "", "downloads": 206, "homepage": "https://clawhub.ai/timothysong0w0/claw-self-improving-plus", "iconUrl": null, "installs": 22, "name": "Claw Self Improving Plus", "ownerName": "timothysong0w0", "score": 14197.10544452102, "slug": "claw-self-improving-plus", "source": "clawhub", "stars": 0, "tags": null, "updated_at": 1776758482353, "version": "1.0.2"}, {"category": "content-creation", "created_at": 1773081088942, "description": "Generate videos from image + text prompt. Animates static images with motion and camera movements. Use when users request image_to_video operations or relate...", "description_zh": "", "downloads": 206, "homepage": "https://clawhub.ai/wondershare-boop/tomoviee-image-to-video", "iconUrl": null, "installs": 17, "name": "Tomoviee Image to Video", "ownerName": "wondershare-boop", "score": 36013.98601398602, "slug": "tomoviee-image-to-video", "source": "clawhub", "stars": 0, "tags": null, "updated_at": 1776752684028, "version": "1.0.1"}, {"category": "content-creation", "created_at": 1773219787180, "description": "Translate and dub videos from one language to another, replacing the original audio with TTS while keeping the video intact.", "description_zh": "", "downloads": 206, "homepage": "https://clawhub.ai/ksuriuri/noizai-video-translation", "iconUrl": null, "installs": 22, "name": "video-translation", "ownerName": "ksuriuri", "score": 36331.569664903, "slug": "noizai-video-translation", "source": "clawhub", "stars": 0, "tags": null, "updated_at": 1776752404796, "version": "1.0.0"}, {"category": "security-compliance", "created_at": 1773069187812, "description": "Harden a Hostinger VPS running OpenClaw agents against unauthorized access, brute force, and exposure. Use when securing a publicly-deployed OpenClaw instanc...", "description_zh": "", "downloads": 206, "homepage": "https://clawhub.ai/maverick-software/openclaw-vps-hardening", "iconUrl": null, "installs": 8, "name": "OpenClaw VPS Server Hardening", "ownerName": "maverick-software", "score": 100000, "slug": "openclaw-vps-hardening", "source": "clawhub", "stars": 0, "tags": null, "updated_at": 1776749444472, "version": "1.0.0"}, {"category": "productivity", "created_at": 1773076554986, "description": "Auto context management - monitors usage and triggers memory transfer at 95% threshold to prevent overflow and ensure session continuity. Trigger on \"context...", "description_zh": "", "downloads": 206, "homepage": "https://clawhub.ai/zhaog100/openclaw-context-manager", "iconUrl": null, "installs": 12, "name": "OpenClaw Context Manager", "ownerName": "zhaog100", "score": 100000, "slug": "openclaw-context-manager", "source": "clawhub", "stars": 0, "tags": null, "updated_at": 1776749444417, "version": "1.0.0"}, {"category": "developer-tools", "created_at": 1772803976858, "description": "Manage conversations and sessions in Google Dialogflow CX via REST API. Use for testing intents, handling user interactions, and managing conversation state....", "description_zh": "", "downloads": 206, "homepage": "https://clawhub.ai/yash-kavaiya/dialogflow-cx-conversations", "iconUrl": null, "installs": 6, "name": "Dialogflow Cx Conversations", "ownerName": "yash-kavaiya", "score": 92792.7927927928, "slug": "dialogflow-cx-conversations", "source": "clawhub", "stars": 0, "tags": null, "updated_at": 1776749172231, "version": "1.0.0"}, {"category": "developer-tools", "created_at": 1773090860328, "description": "Secure GitHub push automation with auto SSH and remote config. Use when git push, automated push, or conflict handling needed.", "description_zh": "", "downloads": 206, "homepage": "https://clawhub.ai/nimachu/github-push", "iconUrl": null, "installs": 12, "name": "Github Push", "ownerName": "nimachu", "score": 91555.55555555556, "slug": "github-push", "source": "clawhub", "stars": 0, "tags": null, "updated_at": 1776749172222, "version": "0.1.0"}, {"category": "developer-tools", "created_at": 1773222655451, "description": "Create, convert, and download AI-generated 3D models using Neural4D APIs. Optimized for commercial pipelines.", "description_zh": "", "downloads": 206, "homepage": "https://clawhub.ai/6e6e6e/ai-3d-generation", "iconUrl": null, "installs": 28, "name": "AI 3D generation", "ownerName": "6e6e6e", "score": 91555.55555555556, "slug": "ai-3d-generation", "source": "clawhub", "stars": 0, "tags": null, "updated_at": 1776749172190, "version": "1.0.0"}, {"category": "ai-intelligence", "created_at": 1773074522490, "description": "Diagnose Yggdrasil installation and daemon status for IPv6 P2P connectivity. Use when P2P fails, user asks about connectivity, or Yggdrasil needs to be insta...", "description_zh": "", "downloads": 206, "homepage": "https://clawhub.ai/jing-yilin/yggdrasil", "iconUrl": null, "installs": 11, "name": "Yggdrasil", "ownerName": "jing-yilin", "score": 91150.4424778761, "slug": "yggdrasil", "source": "clawhub", "stars": 0, "tags": null, "updated_at": 1776749172032, "version": "0.1.3"}, {"category": "data-analysis", "created_at": 1773089985216, "description": "A self-evolution engine for AI agents. Analyzes runtime history to identify improvements and applies protocol-constrained evolution.", "description_zh": "", "downloads": 206, "homepage": "https://clawhub.ai/mmmoeny/repo2", "iconUrl": null, "installs": 30, "name": "Repo2", "ownerName": "mmmoeny", "score": 90748.89867841409, "slug": "repo2", "source": "clawhub", "stars": 0, "tags": null, "updated_at": 1776749171966, "version": "1.0.0"}, {"category": "ai-intelligence", "created_at": 1773091805754, "description": "Multi-channel short-term memory for AI assistants", "description_zh": "", "downloads": 206, "homepage": "https://clawhub.ai/eightroad/channel-activity-yanyue", "iconUrl": null, "installs": 14, "name": "Channel Activity", "ownerName": "eightroad", "score": 90748.89867841409, "slug": "channel-activity-yanyue", "source": "clawhub", "stars": 0, "tags": null, "updated_at": 1776749171945, "version": "3.0.0"}]}