{"page": 3, "total_pages": 7, "total": 325, "skills": [{"slug": "vonfry", "name": "@Vonfry", "description": "[@wahidzzz](https://github.com/wahidzzz)", "description_zh": "", "homepage": "https://github.com/Vonfry", "tags": ["Repo Contributors"], "category": "Repo Contributors", "ownerName": "", "sources": ["sickn33/antigravity-awesome-skills"], "score": 1000, "downloads": 0, "stars": 0, "installs": 0, "version": "", "updated_at": 0}, {"slug": "vuth-dogo", "name": "@vuth-dogo", "description": "[@terryspitz](https://github.com/terryspitz)", "description_zh": "", "homepage": "https://github.com/vuth-dogo", "tags": ["Repo Contributors"], "category": "Repo Contributors", "ownerName": "", "sources": ["sickn33/antigravity-awesome-skills"], "score": 999, "downloads": 0, "stars": 0, "installs": 0, "version": "", "updated_at": 0}, {"slug": "warmskull", "name": "@warmskull", "description": "[@Wittlesus](https://github.com/Wittlesus)", "description_zh": "", "homepage": "https://github.com/warmskull", "tags": ["Repo Contributors"], "category": "Repo Contributors", "ownerName": "", "sources": ["sickn33/antigravity-awesome-skills"], "score": 998, "downloads": 0, "stars": 0, "installs": 0, "version": "", "updated_at": 0}, {"slug": "wd041216-bit", "name": "@wd041216-bit", "description": "[@conorbronsdon](https://github.com/conorbronsdon)", "description_zh": "", "homepage": "https://github.com/wd041216-bit", "tags": ["Repo Contributors"], "category": "Repo Contributors", "ownerName": "", "sources": ["sickn33/antigravity-awesome-skills"], "score": 997, "downloads": 0, "stars": 0, "installs": 0, "version": "", "updated_at": 0}, {"slug": "whoisabhishekadhikari", "name": "@WHOISABHISHEKADHIKARI", "description": "[@HMAKT99](https://github.com/HMAKT99)", "description_zh": "", "homepage": "https://github.com/WHOISABHISHEKADHIKARI", "tags": ["Repo Contributors"], "category": "Repo Contributors", "ownerName": "", "sources": ["sickn33/antigravity-awesome-skills"], "score": 996, "downloads": 0, "stars": 0, "installs": 0, "version": "", "updated_at": 0}, {"slug": "wolfe-jam", "name": "@Wolfe-Jam", "description": "[@jamescha-earley](https://github.com/jamescha-earley)", "description_zh": "", "homepage": "https://github.com/Wolfe-Jam", "tags": ["Repo Contributors"], "category": "Repo Contributors", "ownerName": "", "sources": ["sickn33/antigravity-awesome-skills"], "score": 995, "downloads": 0, "stars": 0, "installs": 0, "version": "", "updated_at": 0}, {"slug": "xiaolai", "name": "@xiaolai", "description": "", "description_zh": "", "homepage": "https://github.com/xiaolai", "tags": ["Repo Contributors"], "category": "Repo Contributors", "ownerName": "", "sources": ["sickn33/antigravity-awesome-skills"], "score": 994, "downloads": 0, "stars": 0, "installs": 0, "version": "", "updated_at": 0}, {"slug": "zebbern", "name": "@zebbern", "description": "[@sstklen](https://github.com/sstklen)", "description_zh": "", "homepage": "https://github.com/zebbern", "tags": ["Repo Contributors"], "category": "Repo Contributors", "ownerName": "", "sources": ["sickn33/antigravity-awesome-skills"], "score": 993, "downloads": 0, "stars": 0, "installs": 0, "version": "", "updated_at": 0}, {"slug": "zhangyanxs", "name": "@zhangyanxs", "description": "[@818cortex](https://github.com/818cortex)", "description_zh": "", "homepage": "https://github.com/zhangyanxs", "tags": ["Repo Contributors"], "category": "Repo Contributors", "ownerName": "", "sources": ["sickn33/antigravity-awesome-skills"], "score": 992, "downloads": 0, "stars": 0, "installs": 0, "version": "", "updated_at": 0}, {"slug": "activecampaign-automation", "name": "ActiveCampaign Automation", "description": "Automate ActiveCampaign: contacts, deals, campaigns, lists, and automations.", "description_zh": "", "homepage": "./activecampaign-automation", "tags": ["App Automation via Composio"], "category": "App Automation via Composio", "ownerName": "", "sources": ["ComposioHQ/awesome-claude-skills"], "score": 991, "downloads": 0, "stars": 0, "installs": 0, "version": "", "updated_at": 0}, {"slug": "agent-almanac", "name": "Agent Almanac", "description": "317 skills, 65 agents, and 14 teams for Claude Code following the Agent Skills open standard across 50+ domains.", "description_zh": "", "homepage": "https://github.com/pjt222/agent-almanac", "tags": ["🗂️ Collections"], "category": "🗂️ Collections", "ownerName": "pjt222", "sources": ["BehiSecc/awesome-claude-skills"], "score": 990, "downloads": 0, "stars": 0, "installs": 0, "version": "", "updated_at": 0}, {"slug": "agent-skills", "name": "Agent Skills", "description": "Data-driven analysis: the ecosystem, opportunities, and risks behind 40,000+ Claude Skills", "description_zh": "", "homepage": "https://arxiv.org/abs/2602.08004", "tags": ["📰 Articles & Blog Posts"], "category": "📰 Articles & Blog Posts", "ownerName": "", "sources": ["BehiSecc/awesome-claude-skills"], "score": 989, "downloads": 0, "stars": 0, "installs": 0, "version": "", "updated_at": 0}, {"slug": "agent-cards-skill", "name": "agent-cards-skill", "description": "Manage prepaid virtual Visa cards for AI agents. Create cards, check balances, view credentials, close cards, and get support via MCP tools.", "description_zh": "", "homepage": "https://github.com/agent-cards/skill", "tags": ["🛠 Development & Code Tools"], "category": "🛠 Development & Code Tools", "ownerName": "agent-cards", "sources": ["BehiSecc/awesome-claude-skills"], "score": 988, "downloads": 0, "stars": 0, "installs": 0, "version": "", "updated_at": 0}, {"slug": "agentfund-mcp", "name": "agentfund-mcp", "description": "Crowdfunding for AI agents. Milestone-based escrow on Base chain for proposals, project tracking, and payments.", "description_zh": "", "homepage": "https://github.com/RioTheGreat-ai/agentfund-mcp", "tags": ["🔧 Utility & Automation"], "category": "🔧 Utility & Automation", "ownerName": "RioTheGreat-ai", "sources": ["BehiSecc/awesome-claude-skills"], "score": 987, "downloads": 0, "stars": 0, "installs": 0, "version": "", "updated_at": 0}, {"slug": "agentskill-sh", "name": "agentskill.sh", "description": "Browse and install 69,000+ AI agent skills for Claude Code, Cursor, Copilot, Windsurf, Zed, and 20+ AI tools.", "description_zh": "", "homepage": "https://agentskill.sh", "tags": ["🗂️ Collections"], "category": "🗂️ Collections", "ownerName": "", "sources": ["BehiSecc/awesome-claude-skills"], "score": 986, "downloads": 0, "stars": 0, "installs": 0, "version": "", "updated_at": 0}, {"slug": "agnix", "name": "agnix", "description": "Linter for AI agent configurations. Validates SKILL.md, CLAUDE.md, hooks, MCP configs, and more with 156 rules, auto-fix, and LSP server for real-time editor diagnostics.", "description_zh": "", "homepage": "https://github.com/avifenesh/agnix", "tags": ["🛠 Development & Code Tools"], "category": "🛠 Development & Code Tools", "ownerName": "avifenesh", "sources": ["BehiSecc/awesome-claude-skills"], "score": 985, "downloads": 0, "stars": 0, "installs": 0, "version": "", "updated_at": 0}, {"slug": "ai-agent-skills-guide", "name": "AI agent skills guide", "description": "", "description_zh": "", "homepage": "docs/users/ai-agent-skills.md", "tags": ["Choose Your Tool"], "category": "Choose Your Tool", "ownerName": "", "sources": ["sickn33/antigravity-awesome-skills"], "score": 984, "downloads": 0, "stars": 0, "installs": 0, "version": "", "updated_at": 0}, {"slug": "airtable-automation", "name": "Airtable Automation", "description": "Automate Airtable: records, tables, bases, views, and field management.", "description_zh": "", "homepage": "./airtable-automation", "tags": ["App Automation via Composio"], "category": "App Automation via Composio", "ownerName": "", "sources": ["ComposioHQ/awesome-claude-skills"], "score": 983, "downloads": 0, "stars": 0, "installs": 0, "version": "", "updated_at": 0}, {"slug": "alterlab-academic-skills", "name": "AlterLab-Academic-Skills", "description": "186+ academic research skills across 13 domains for higher education and research.", "description_zh": "", "homepage": "https://github.com/AlterLab-IEU/AlterLab-Academic-Skills", "tags": ["🗂️ Collections"], "category": "🗂️ Collections", "ownerName": "AlterLab-IEU", "sources": ["BehiSecc/awesome-claude-skills"], "score": 982, "downloads": 0, "stars": 0, "installs": 0, "version": "", "updated_at": 0}, {"slug": "alterlab-fc-skills", "name": "AlterLab-FC-Skills", "description": "72 agentic skills for creative technology workflows across 11 domains.", "description_zh": "", "homepage": "https://github.com/AlterLab-IEU/AlterLab-FC-Skills", "tags": ["🗂️ Collections"], "category": "🗂️ Collections", "ownerName": "AlterLab-IEU", "sources": ["BehiSecc/awesome-claude-skills"], "score": 981, "downloads": 0, "stars": 0, "installs": 0, "version": "", "updated_at": 0}, {"slug": "alterlab-gameforge", "name": "AlterLab_GameForge", "description": "34 game development skills covering design, mechanics, and production pipelines.", "description_zh": "", "homepage": "https://github.com/AlterLab-IEU/AlterLab_GameForge", "tags": ["🗂️ Collections"], "category": "🗂️ Collections", "ownerName": "AlterLab-IEU", "sources": ["BehiSecc/awesome-claude-skills"], "score": 980, "downloads": 0, "stars": 0, "installs": 0, "version": "", "updated_at": 0}, {"slug": "amplitude-automation", "name": "Amplitude Automation", "description": "Automate Amplitude: events, cohorts, user properties, and analytics queries.", "description_zh": "", "homepage": "./amplitude-automation", "tags": ["App Automation via Composio"], "category": "App Automation via Composio", "ownerName": "", "sources": ["ComposioHQ/awesome-claude-skills"], "score": 979, "downloads": 0, "stars": 0, "installs": 0, "version": "", "updated_at": 0}, {"slug": "asana-automation", "name": "Asana Automation", "description": "Automate Asana: tasks, projects, sections, assignments, and workspaces.", "description_zh": "", "homepage": "./asana-automation", "tags": ["App Automation via Composio"], "category": "App Automation via Composio", "ownerName": "", "sources": ["ComposioHQ/awesome-claude-skills"], "score": 978, "downloads": 0, "stars": 0, "installs": 0, "version": "", "updated_at": 0}, {"slug": "avoid-ai-writing", "name": "avoid-ai-writing", "description": "Audits and rewrites content to remove 21 categories of AI writing patterns with a 43-entry replacement table and two-pass detection.", "description_zh": "", "homepage": "https://github.com/conorbronsdon/avoid-ai-writing", "tags": ["✍️ Writing & Research"], "category": "✍️ Writing & Research", "ownerName": "conorbronsdon", "sources": ["BehiSecc/awesome-claude-skills"], "score": 977, "downloads": 0, "stars": 0, "installs": 0, "version": "", "updated_at": 0}, {"slug": "bamboohr-automation", "name": "BambooHR Automation", "description": "Automate BambooHR: employees, time off, reports, and directory management.", "description_zh": "", "homepage": "./bamboohr-automation", "tags": ["App Automation via Composio"], "category": "App Automation via Composio", "ownerName": "", "sources": ["ComposioHQ/awesome-claude-skills"], "score": 976, "downloads": 0, "stars": 0, "installs": 0, "version": "", "updated_at": 0}, {"slug": "basecamp-automation", "name": "Basecamp Automation", "description": "Automate Basecamp: to-do lists, messages, people, groups, and projects.", "description_zh": "", "homepage": "./basecamp-automation", "tags": ["App Automation via Composio"], "category": "App Automation via Composio", "ownerName": "", "sources": ["ComposioHQ/awesome-claude-skills"], "score": 975, "downloads": 0, "stars": 0, "installs": 0, "version": "", "updated_at": 0}, {"slug": "bitbucket-automation", "name": "Bitbucket Automation", "description": "Automate Bitbucket: repos, PRs, branches, issues, and workspaces.", "description_zh": "", "homepage": "./bitbucket-automation", "tags": ["App Automation via Composio"], "category": "App Automation via Composio", "ownerName": "", "sources": ["ComposioHQ/awesome-claude-skills"], "score": 974, "downloads": 0, "stars": 0, "installs": 0, "version": "", "updated_at": 0}, {"slug": "blog-post-about-its-development", "name": "Blog post about its development", "description": "Install from superpowers-marketplace plugin", "description_zh": "", "homepage": "https://blog.fsck.com/2025/10/23/naming-claude-plugins", "tags": ["Collections & Libraries"], "category": "Collections & Libraries", "ownerName": "", "sources": ["travisvn/awesome-claude-skills"], "score": 973, "downloads": 0, "stars": 0, "installs": 0, "version": "", "updated_at": 0}, {"slug": "blog-superpowers", "name": "Blog: Superpowers", "description": "Author's overview by Jesse Vincent", "description_zh": "", "homepage": "https://blog.fsck.com/2025/10/09/superpowers", "tags": ["Collections & Libraries"], "category": "Collections & Libraries", "ownerName": "", "sources": ["travisvn/awesome-claude-skills"], "score": 972, "downloads": 0, "stars": 0, "installs": 0, "version": "", "updated_at": 0}, {"slug": "box-automation", "name": "Box Automation", "description": "Automate Box: files, folders, search, sharing, collaborations, and sign requests.", "description_zh": "", "homepage": "./box-automation", "tags": ["App Automation via Composio"], "category": "App Automation via Composio", "ownerName": "", "sources": ["ComposioHQ/awesome-claude-skills"], "score": 971, "downloads": 0, "stars": 0, "installs": 0, "version": "", "updated_at": 0}, {"slug": "brand-guidelines", "name": "Brand Guidelines", "description": "Applies Anthropic's official brand colors and typography to artifacts for consistent visual identity and professional design standards.", "description_zh": "", "homepage": "./brand-guidelines", "tags": ["Business & Marketing"], "category": "Business & Marketing", "ownerName": "", "sources": ["ComposioHQ/awesome-claude-skills"], "score": 970, "downloads": 0, "stars": 0, "installs": 0, "version": "", "updated_at": 0}, {"slug": "brevo-automation", "name": "Brevo Automation", "description": "Automate Brevo: contacts, email campaigns, transactional emails, and lists.", "description_zh": "", "homepage": "./brevo-automation", "tags": ["App Automation via Composio"], "category": "App Automation via Composio", "ownerName": "", "sources": ["ComposioHQ/awesome-claude-skills"], "score": 969, "downloads": 0, "stars": 0, "installs": 0, "version": "", "updated_at": 0}, {"slug": "buy-me-a-book-on-buy-me-a-coffee", "name": "Buy me a book on Buy Me a Coffee", "description": "Star the repository", "description_zh": "", "homepage": "https://buymeacoffee.com/sickn33", "tags": ["Support the Project"], "category": "Support the Project", "ownerName": "", "sources": ["sickn33/antigravity-awesome-skills"], "score": 968, "downloads": 0, "stars": 0, "installs": 0, "version": "", "updated_at": 0}, {"slug": "cal-com-automation", "name": "Cal.com Automation", "description": "Automate Cal.com: event types, bookings, availability, and scheduling.", "description_zh": "", "homepage": "./cal-com-automation", "tags": ["App Automation via Composio"], "category": "App Automation via Composio", "ownerName": "", "sources": ["ComposioHQ/awesome-claude-skills"], "score": 967, "downloads": 0, "stars": 0, "installs": 0, "version": "", "updated_at": 0}, {"slug": "calendly-automation", "name": "Calendly Automation", "description": "Automate Calendly: events, invitees, event types, scheduling links, and availability.", "description_zh": "", "homepage": "./calendly-automation", "tags": ["App Automation via Composio"], "category": "App Automation via Composio", "ownerName": "", "sources": ["ComposioHQ/awesome-claude-skills"], "score": 966, "downloads": 0, "stars": 0, "installs": 0, "version": "", "updated_at": 0}, {"slug": "canva-automation", "name": "Canva Automation", "description": "Automate Canva: designs, templates, assets, folders, and brand kits.", "description_zh": "", "homepage": "./canva-automation", "tags": ["App Automation via Composio"], "category": "App Automation via Composio", "ownerName": "", "sources": ["ComposioHQ/awesome-claude-skills"], "score": 965, "downloads": 0, "stars": 0, "installs": 0, "version": "", "updated_at": 0}, {"slug": "canvas-design", "name": "Canvas Design", "description": "Creates beautiful visual art in PNG and PDF documents using design philosophy and aesthetic principles for posters, designs, and static pieces.", "description_zh": "", "homepage": "./canvas-design", "tags": ["Creative & Media"], "category": "Creative & Media", "ownerName": "", "sources": ["ComposioHQ/awesome-claude-skills"], "score": 964, "downloads": 0, "stars": 0, "installs": 0, "version": "", "updated_at": 0}, {"slug": "chainaware-behavioral-prediction", "name": "chainaware-behavioral-prediction", "description": "ChainAware Skill for AI-powered tools to analyze wallet behaviour prediction,fraud detection and rug pull prediction.", "description_zh": "", "homepage": "https://github.com/ChainAware/behavioral-prediction-mcp", "tags": ["📊 Data & Analysis"], "category": "📊 Data & Analysis", "ownerName": "ChainAware", "sources": ["BehiSecc/awesome-claude-skills"], "score": 963, "downloads": 0, "stars": 0, "installs": 0, "version": "", "updated_at": 0}, {"slug": "changelog-generator", "name": "Changelog Generator", "description": "Automatically creates user-facing changelogs from git commits by analyzing history and transforming technical commits into customer-friendly release notes.", "description_zh": "", "homepage": "./changelog-generator", "tags": ["Development & Code Tools"], "category": "Development & Code Tools", "ownerName": "", "sources": ["ComposioHQ/awesome-claude-skills"], "score": 962, "downloads": 0, "stars": 0, "installs": 0, "version": "", "updated_at": 0}, {"slug": "charles-proxy-extract", "name": "charles-proxy-extract", "description": "Claude is able to extract and analyze HTTP traffic from Charles Proxy session files.", "description_zh": "", "homepage": "https://github.com/wannabehero/charles-proxy-extract-skill", "tags": ["🛠 Development & Code Tools"], "category": "🛠 Development & Code Tools", "ownerName": "wannabehero", "sources": ["BehiSecc/awesome-claude-skills"], "score": 961, "downloads": 0, "stars": 0, "installs": 0, "version": "", "updated_at": 0}, {"slug": "circleci-automation", "name": "CircleCI Automation", "description": "Automate CircleCI: pipelines, workflows, jobs, and project configuration.", "description_zh": "", "homepage": "./circleci-automation", "tags": ["App Automation via Composio"], "category": "App Automation via Composio", "ownerName": "", "sources": ["ComposioHQ/awesome-claude-skills"], "score": 960, "downloads": 0, "stars": 0, "installs": 0, "version": "", "updated_at": 0}, {"slug": "claude-code-sdk", "name": "Claude Code SDK", "description": "Open-source, provider-agnostic CLI for AI agents. 13 providers, built-in tools, skill marketplace.", "description_zh": "", "homepage": "https://github.com/SeifBenayed/claude-code-sdk", "tags": ["🗂️ Collections"], "category": "🗂️ Collections", "ownerName": "SeifBenayed", "sources": ["BehiSecc/awesome-claude-skills"], "score": 959, "downloads": 0, "stars": 0, "installs": 0, "version": "", "updated_at": 0}, {"slug": "claude-code-skills", "name": "Claude Code skills", "description": "[Cursor skills](docs/users/cursor-skills.md)", "description_zh": "", "homepage": "docs/users/claude-code-skills.md", "tags": ["Choose Your Tool"], "category": "Choose Your Tool", "ownerName": "", "sources": ["sickn33/antigravity-awesome-skills"], "score": 958, "downloads": 0, "stars": 0, "installs": 0, "version": "", "updated_at": 0}, {"slug": "claude-code-video-toolkit", "name": "Claude Code Video Toolkit", "description": "AI-native video production workspace for Claude Code with Remotion, ElevenLabs, FFmpeg, and Playwright skills.", "description_zh": "", "homepage": "https://github.com/digitalsamba/claude-code-video-toolkit", "tags": ["🎬 Media & Content"], "category": "🎬 Media & Content", "ownerName": "digitalsamba", "sources": ["BehiSecc/awesome-claude-skills"], "score": 957, "downloads": 0, "stars": 0, "installs": 0, "version": "", "updated_at": 0}, {"slug": "claude-community", "name": "Claude Community", "description": "Discuss skills with other users", "description_zh": "", "homepage": "https://community.anthropic.com", "tags": ["Community Resources"], "category": "Community Resources", "ownerName": "", "sources": ["ComposioHQ/awesome-claude-skills"], "score": 956, "downloads": 0, "stars": 0, "installs": 0, "version": "", "updated_at": 0}, {"slug": "claude-cookbooks-skills", "name": "Claude Cookbooks - Skills", "description": "Example notebooks and tutorials", "description_zh": "", "homepage": "https://github.com/anthropics/claude-cookbooks", "tags": ["Repositories & Examples"], "category": "Repositories & Examples", "ownerName": "anthropics", "sources": ["travisvn/awesome-claude-skills"], "score": 955, "downloads": 0, "stars": 0, "installs": 0, "version": "", "updated_at": 0}, {"slug": "claude-developer-platform", "name": "Claude Developer Platform", "description": "Official documentation", "description_zh": "", "homepage": "https://docs.claude.com", "tags": ["Documentation"], "category": "Documentation", "ownerName": "", "sources": ["travisvn/awesome-claude-skills"], "score": 954, "downloads": 0, "stars": 0, "installs": 0, "version": "", "updated_at": 0}, {"slug": "claude-skills-announcement", "name": "Claude Skills Announcement", "description": "Official announcement from Anthropic", "description_zh": "", "homepage": "https://www.anthropic.com/news/skills", "tags": ["Documentation"], "category": "Documentation", "ownerName": "", "sources": ["travisvn/awesome-claude-skills"], "score": 953, "downloads": 0, "stars": 0, "installs": 0, "version": "", "updated_at": 0}, {"slug": "claude-ai-music-skills", "name": "claude-ai-music-skills", "description": "Claude Code plugin for AI music creation covering lyrics, Suno style prompts, per-stem mixing, mastering, and release distribution.", "description_zh": "", "homepage": "https://github.com/bitwize-music-studio/claude-ai-music-skills", "tags": ["🎬 Media & Content"], "category": "🎬 Media & Content", "ownerName": "bitwize-music-studio", "sources": ["BehiSecc/awesome-claude-skills"], "score": 952, "downloads": 0, "stars": 0, "installs": 0, "version": "", "updated_at": 0}, {"slug": "claude-ally-health", "name": "claude-ally-health", "description": "A comprehensive health assistant for Claude to analyze medical reports, track health metrics, and provide personalized wellness suggestions.", "description_zh": "", "homepage": "https://github.com/huifer/Claude-Ally-Health", "tags": ["🏥 Health & Life Sciences"], "category": "🏥 Health & Life Sciences", "ownerName": "huifer", "sources": ["BehiSecc/awesome-claude-skills"], "score": 951, "downloads": 0, "stars": 0, "installs": 0, "version": "", "updated_at": 0}]}