{"page": 30, "total_pages": 522, "total": 26073, "skills": [{"category": "productivity", "created_at": 1772744629517, "description": "Fast, affordable automatic speech-to-text transcription supporting 100 languages, speaker diarization, word timestamps, and customizable output formats.", "description_zh": "", "downloads": 2710, "homepage": "https://clawhub.ai/ilyakam/asr", "iconUrl": null, "installs": 203, "name": "Speech is Cheap Transcribe", "ownerName": "ilyakam", "score": 61812.58249010119, "slug": "asr", "source": "clawhub", "stars": 5, "tags": null, "updated_at": 1776763750271, "version": "1.2.0"}, {"category": "ai-intelligence", "created_at": 1772744703043, "description": "Post jobs and hire people, or search for local work and apply. Connects employers and job-seekers via the Blossom marketplace.", "description_zh": "", "downloads": 2710, "homepage": "https://clawhub.ai/robbiwu/blossom-hire", "iconUrl": null, "installs": 221, "name": "Get local help for shifts and tasks (Blossomai.org)", "ownerName": "robbiwu", "score": 99926.7935578331, "slug": "blossom-hire", "source": "clawhub", "stars": 1, "tags": ["hiring", "jobs", "local help", "local hiring", "tasks"], "updated_at": 1776762015195, "version": "1.0.9"}, {"category": "data-analysis", "created_at": 1772745428892, "description": "Automatically tracks and analyzes Vish's stock and crypto portfolio using live Yahoo Finance data, providing updates, performance summaries, and rebalancing...", "description_zh": "", "downloads": 2710, "homepage": "https://clawhub.ai/vachanalaviswanath/portfolio-tracker", "iconUrl": null, "installs": 364, "name": "Portfolio Tracker", "ownerName": "vachanalaviswanath", "score": 85259.21299188008, "slug": "portfolio-tracker", "source": "clawhub", "stars": 1, "tags": null, "updated_at": 1776762015146, "version": "0.0.1"}, {"category": "data-analysis", "created_at": 1772744608733, "description": "Query and analyze brand mentions from Octolens API. Use when the user wants to fetch mentions, track keywords, filter by source platforms (Twitter, Reddit, GitHub, LinkedIn, etc.), sentiment analysis, or analyze social media engagement. Supports complex filtering with AND/OR logic, date ranges, follower counts, and bookmarks.", "description_zh": "", "downloads": 2709, "homepage": "https://clawhub.ai/garrrikkotua/octolens", "iconUrl": null, "installs": 233, "name": "Octolens", "ownerName": "garrrikkotua", "score": 19815.27531083481, "slug": "octolens", "source": "clawhub", "stars": 4, "tags": null, "updated_at": 1776770820669, "version": "1.0.0"}, {"category": "developer-tools", "created_at": 1772744576238, "description": "Check Google Antigravity AI model quota/token balance. Use when a user asks about their Antigravity usage, remaining tokens, model limits, quota status, or rate limits. Works by detecting the local Antigravity language server process and querying its API.", "description_zh": "", "downloads": 2709, "homepage": "https://clawhub.ai/finderstrategy-cyber/antigravity-balance", "iconUrl": null, "installs": 151, "name": "Antigravity Balance", "ownerName": "finderstrategy-cyber", "score": 34899.07325123778, "slug": "antigravity-balance", "source": "clawhub", "stars": 2, "tags": null, "updated_at": 1776761990164, "version": "1.0.0"}, {"category": "data-analysis", "created_at": 1772744673943, "description": "Expert in Jungian analytical psychology, depth psychology, shadow work, archetypal analysis, dream interpretation, active imagination, addiction/recovery through Jungian lens, and the individuation process.", "description_zh": "", "downloads": 2708, "homepage": "https://clawhub.ai/mikecourt/jungian-psychologist", "iconUrl": null, "installs": 258, "name": "Jungian Psychologist", "ownerName": "mikecourt", "score": 20234.458259325045, "slug": "jungian-psychologist", "source": "clawhub", "stars": 7, "tags": ["archetypes", "dreams", "individuation", "jung", "shadow"], "updated_at": 1776770813179, "version": "1.0.0"}, {"category": "data-analysis", "created_at": 1772744597127, "description": "Retrieve and summarize health, sleep, activity, readiness, and biometric data from the Oura Ring API via a command-line interface.", "description_zh": "", "downloads": 2708, "homepage": "https://clawhub.ai/ruhrpotter/oura", "iconUrl": null, "installs": 227, "name": "Oura Ring Integration", "ownerName": "ruhrpotter", "score": 19808.170515097692, "slug": "oura", "source": "clawhub", "stars": 4, "tags": null, "updated_at": 1776770821402, "version": "1.0.2"}, {"category": "content-creation", "created_at": 1772744702893, "description": "Web search, research with citations, and content extraction for bash agents using curl and You.com's REST API. - MANDATORY TRIGGERS: You.com, youdotcom, YDC,...", "description_zh": "", "downloads": 2708, "homepage": "https://clawhub.ai/edwardirby/youdotcom-cli", "iconUrl": null, "installs": 200, "name": "You.com Web Search  & Research CLI", "ownerName": "edwardirby", "score": 99604.17416336812, "slug": "youdotcom-cli", "source": "clawhub", "stars": 3, "tags": ["ai-agents", "bash", "citations", "claude-code", "cli", "codex", "content extraction", "content-extraction", "cursor", "deep search", "json", "livecrawl", "schema-driven", "web search", "web-search", "you.com"], "updated_at": 1776761989933, "version": "3.0.1"}, {"category": "security-compliance", "created_at": 1772744611225, "description": "Manage and interact with MCP servers and tools via the mcporter CLI, supporting listing, configuring, authenticating, calling tools, and generating CLI/types.", "description_zh": "", "downloads": 2702, "homepage": "https://clawhub.ai/livvux/mcporter-skill", "iconUrl": null, "installs": 120, "name": "mcporter", "ownerName": "livvux", "score": 35291.06702969013, "slug": "mcporter-skill", "source": "clawhub", "stars": 1, "tags": null, "updated_at": 1776765850102, "version": "1.0.0"}, {"category": "developer-tools", "created_at": 1772744590238, "description": "Manage Dokploy deployments, projects, applications, and domains via the Dokploy API.", "description_zh": "", "downloads": 2700, "homepage": "https://clawhub.ai/joshuarileydev/dokploy", "iconUrl": null, "installs": 177, "name": "Dokploy", "ownerName": "joshuarileydev", "score": 99748.83387154646, "slug": "dokploy", "source": "clawhub", "stars": 4, "tags": null, "updated_at": 1776761882183, "version": "1.0.0"}, {"category": "security-compliance", "created_at": 1772744585339, "description": "Image board for AI agents (4chan-style). Same auth as Moltbook; boards, threads, image posts, replies, upvotes.", "description_zh": "", "downloads": 2699, "homepage": "https://clawhub.ai/bullish-moonrock/moltchan", "iconUrl": null, "installs": 158, "name": "Moltchan", "ownerName": "bullish-moonrock", "score": 58069.13479239109, "slug": "moltchan", "source": "clawhub", "stars": 7, "tags": null, "updated_at": 1776763750543, "version": "1.0.4"}, {"category": "developer-tools", "created_at": 1772744680490, "description": "Search Google via SerpAPI (Google Search, Google News, Google Local). Use when you need to search the web, find news articles, or look up local businesses. Supports country/language targeting for region-specific results.", "description_zh": "", "downloads": 2698, "homepage": "https://clawhub.ai/ericsantos/serpapi-search", "iconUrl": null, "installs": 216, "name": "SerpAPI Search", "ownerName": "ericsantos", "score": 35841.4554905783, "slug": "serpapi-search", "source": "clawhub", "stars": 3, "tags": null, "updated_at": 1776764650533, "version": "1.0.0"}, {"category": "data-analysis", "created_at": 1772744607429, "description": "Analyzes git commit frequency, categories, and timing to assess autonomous operation health and detect idle or breakthrough periods.", "description_zh": "", "downloads": 2696, "homepage": "https://clawhub.ai/bobrenze-bot/commit-analyzer", "iconUrl": null, "installs": 195, "name": "Commit Analyzer", "ownerName": "bobrenze-bot", "score": 84821.98625858838, "slug": "commit-analyzer", "source": "clawhub", "stars": 1, "tags": null, "updated_at": 1776762015113, "version": "0.1.0"}, {"category": "developer-tools", "created_at": 1772744681925, "description": "Use Gemini CLI (@google/gemini-cli) to do web search / fact-finding and return a sourced summary. Use when the user asks “why did X happen today”, “what’s the latest news”, “search the web”, “find sources/links”, or any task requiring up-to-date info. Prefer this over other search tools when Gemini is available but slow; run it with a TTY, wait longer, and verify source quality.", "description_zh": "", "downloads": 2695, "homepage": "https://clawhub.ai/fengjiajie/gemini-web-search", "iconUrl": null, "installs": 235, "name": "Gemini Web Search", "ownerName": "fengjiajie", "score": 100000, "slug": "gemini-web-search", "source": "clawhub", "stars": 5, "tags": null, "updated_at": 1776765849913, "version": "1.0.0"}, {"category": "developer-tools", "created_at": 1772747707550, "description": "This skill helps users automatically extract Amazon product reviews via the Amazon Reviews API. Agent should proactively apply this skill when users express...", "description_zh": "", "downloads": 2695, "homepage": "https://clawhub.ai/phheng/amazon-reviews-api-skill", "iconUrl": null, "installs": 215, "name": "Amazon Reviews Api Skill", "ownerName": "phheng", "score": 100000, "slug": "amazon-reviews-api-skill", "source": "clawhub", "stars": 3, "tags": null, "updated_at": 1776764090736, "version": "0.1.2"}, {"category": "productivity", "created_at": 1772745017394, "description": "Parse and generate RFC 4180 compliant CSV that works across tools.", "description_zh": "", "downloads": 2695, "homepage": "https://clawhub.ai/ivangdavila/csv", "iconUrl": null, "installs": 207, "name": "CSV", "ownerName": "ivangdavila", "score": 85214.97061552737, "slug": "csv", "source": "clawhub", "stars": 3, "tags": null, "updated_at": 1776761990138, "version": "1.0.0"}, {"category": "developer-tools", "created_at": 1772744662354, "description": "Embody this digital identity. Read SOUL.md first, then STYLE.md, then examples/. Become the person—opinions, voice, worldview.", "description_zh": "", "downloads": 2695, "homepage": "https://clawhub.ai/aaronjmars/soul-md", "iconUrl": null, "installs": 240, "name": "SOUL.MD", "ownerName": "aaronjmars", "score": 16582.574452375095, "slug": "soul-md", "source": "clawhub", "stars": 0, "tags": ["character", "personality", "soul"], "updated_at": 1776762045394, "version": "1.0.0"}, {"category": "security-compliance", "created_at": 1772744635068, "description": "The operational circuit breaker for this agent. Enforces budget limits locally. **Sign up at agentsentinel.dev for real-time dashboards and human approval workflows.**", "description_zh": "", "downloads": 2693, "homepage": "https://clawhub.ai/jimmystacks/agent-sentinel", "iconUrl": null, "installs": 118, "name": "AgentSentinel Safety Layer", "ownerName": "jimmystacks", "score": 7694.690016329749, "slug": "agent-sentinel", "source": "clawhub", "stars": 2, "tags": ["budget", "compliance", "safety", "security"], "updated_at": 1776770350060, "version": "0.1.1"}, {"category": "security-compliance", "created_at": 1772744588511, "description": "Manage skill trust by staking USDC bonds, paying micro-fees for verified skills, reporting malicious skills, and participating in decentralized governance vi...", "description_zh": "", "downloads": 2692, "homepage": "https://clawhub.ai/shaivpidadi/arc-security", "iconUrl": null, "installs": 154, "name": "Arc Security - Agent Trust Protocol", "ownerName": "shaivpidadi", "score": 84503.55706773895, "slug": "arc-security", "source": "clawhub", "stars": 2, "tags": null, "updated_at": 1776761990051, "version": "1.0.1"}, {"category": "developer-tools", "created_at": 1772744743416, "description": "Lead Generation — Find high-intent buyers in live Twitter, Instagram, and Reddit conversations. Auto-researches your product, generates targeted search queries, and discovers people actively looking for solutions you offer. Social selling and prospecting powered by 1.5B+ indexed posts via Xpoz MCP.", "description_zh": "", "downloads": 2688, "homepage": "https://clawhub.ai/atyachin/lead-generation", "iconUrl": null, "installs": 173, "name": "Lead Generation", "ownerName": "atyachin", "score": 38613.729916345765, "slug": "lead-generation", "source": "clawhub", "stars": 11, "tags": null, "updated_at": 1776761839938, "version": "2.2.0"}, {"category": "productivity", "created_at": 1772744613197, "description": "Break down any problem with structured thinking, action plans, and progress tracking", "description_zh": "", "downloads": 2688, "homepage": "https://clawhub.ai/jhillin8/overcome-problem", "iconUrl": null, "installs": 232, "name": "Overcome Problem", "ownerName": "jhillin8", "score": 100000, "slug": "overcome-problem", "source": "clawhub", "stars": 6, "tags": null, "updated_at": 1776767390455, "version": "1.0.0"}, {"category": "productivity", "created_at": 1772744812450, "description": "Learns when to stop and review. Self-critiques before showing you, fewer revision rounds.", "description_zh": "", "downloads": 2687, "homepage": "https://clawhub.ai/ivangdavila/reflection", "iconUrl": null, "installs": 79, "name": "Self Reflection", "ownerName": "ivangdavila", "score": 71063.29113924051, "slug": "reflection", "source": "clawhub", "stars": 6, "tags": null, "updated_at": 1776761880370, "version": "1.1.0"}, {"category": "developer-tools", "created_at": 1772744575382, "description": "v4 - Use LI.FI API for cross-chain and same-chain swaps, bridges, and contract calls. Use when quoting routes, validating chains/tokens, building transaction requests, and tracking status.", "description_zh": "", "downloads": 2687, "homepage": "https://clawhub.ai/fabriziogianni7/lifi-skill", "iconUrl": null, "installs": 130, "name": "LI.FI Skill", "ownerName": "fabriziogianni7", "score": 34873.68287419068, "slug": "lifi-skill", "source": "clawhub", "stars": 3, "tags": null, "updated_at": 1776761990240, "version": "2.0.1"}, {"category": "data-analysis", "created_at": 1772744609381, "description": "Get institutional-grade CEO performance analytics for S&P 500 companies. Proprietary scores: CEORaterScore (composite), AlphaScore (market outperformance), R...", "description_zh": "", "downloads": 2686, "homepage": "https://clawhub.ai/ceorater-skills/ceorater", "iconUrl": null, "installs": 239, "name": "CEORater", "ownerName": "ceorater-skills", "score": 19936.056838365897, "slug": "ceorater", "source": "clawhub", "stars": 6, "tags": null, "updated_at": 1776770817969, "version": "1.0.9"}, {"category": "developer-tools", "created_at": 1772744610954, "description": "Use when implementing infrastructure as code with Terraform across AWS, Azure, or GCP. Invoke for module development, state management, provider configuration, multi-environment workflows, infrastructure testing.", "description_zh": "", "downloads": 2686, "homepage": "https://clawhub.ai/veeramanikandanr48/terraform-engineer", "iconUrl": null, "installs": 148, "name": "Terraform Engineer", "ownerName": "veeramanikandanr48", "score": 35591.21399447586, "slug": "terraform-engineer", "source": "clawhub", "stars": 1, "tags": null, "updated_at": 1776762315051, "version": "0.1.0"}, {"category": "developer-tools", "created_at": 1772744627867, "description": "Control Home Assistant smart home devices using the Assist (Conversation) API. Use this skill when the user wants to control smart home entities - lights, sw...", "description_zh": "", "downloads": 2677, "homepage": "https://clawhub.ai/developmentcats/homeassistant-assist", "iconUrl": null, "installs": 150, "name": "Home Assistant Assist", "ownerName": "developmentcats", "score": 71080.05082592122, "slug": "homeassistant-assist", "source": "clawhub", "stars": 6, "tags": null, "updated_at": 1776761880285, "version": "1.1.1"}, {"category": "developer-tools", "created_at": 1772744587037, "description": "Create Farcaster accounts and post casts autonomously. Official skill from the Farcaster team.", "description_zh": "", "downloads": 2676, "homepage": "https://clawhub.ai/rishavmukherji/farcaster-agent", "iconUrl": null, "installs": 200, "name": "Farcaster Agent", "ownerName": "rishavmukherji", "score": 72727.27272727274, "slug": "farcaster-agent", "source": "clawhub", "stars": 9, "tags": null, "updated_at": 1776761840187, "version": "1.2.0"}, {"category": "developer-tools", "created_at": 1772744693535, "description": "Find and remove duplicate files intelligently. Save storage space, keep your system clean. Perfect for digital hoarders and document management.", "description_zh": "", "downloads": 2676, "homepage": "https://clawhub.ai/michael-laffin/file-deduplicator", "iconUrl": null, "installs": 160, "name": "File Deduplicator", "ownerName": "michael-laffin", "score": 37023.40257691296, "slug": "file-deduplicator", "source": "clawhub", "stars": 7, "tags": null, "updated_at": 1776761839777, "version": "1.0.0"}, {"category": "content-creation", "created_at": 1772744668512, "description": "Build and deploy OpenClaw as Docker images or portable packages. Package OpenClaw with or without personal configuration for easy deployment to other servers.", "description_zh": "", "downloads": 2676, "homepage": "https://clawhub.ai/zfanmy/openclaw-deploy", "iconUrl": null, "installs": 356, "name": "Openclaw Deploy", "ownerName": "zfanmy", "score": 100000, "slug": "openclaw-deploy", "source": "clawhub", "stars": 0, "tags": null, "updated_at": 1776762139838, "version": "1.0.4"}, {"category": "ai-intelligence", "created_at": 1772744668375, "description": "Create an anonymous Starknet wallet via Typhoon and interact with Starknet contracts. Privacy-focused wallet creation for agents requiring anonymity.", "description_zh": "", "downloads": 2675, "homepage": "https://clawhub.ai/esdras-sena/typhoon-starknet-account", "iconUrl": null, "installs": 395, "name": "Typhoon Starknet Account", "ownerName": "esdras-sena", "score": 16582.574452375095, "slug": "typhoon-starknet-account", "source": "clawhub", "stars": 1, "tags": null, "updated_at": 1776762045438, "version": "0.3.8"}, {"category": "ai-intelligence", "created_at": 1772744753645, "description": "Cloud memory for AI agents. Store, search, and recall context across sessions.", "description_zh": "", "downloads": 2674, "homepage": "https://clawhub.ai/aerialcombat/cloud-memory", "iconUrl": null, "installs": 484, "name": "MyMemory.bot", "ownerName": "aerialcombat", "score": 19887.789753432746, "slug": "cloud-memory", "source": "clawhub", "stars": 1, "tags": null, "updated_at": 1776768849817, "version": "1.0.0"}, {"category": "productivity", "created_at": 1772746530531, "description": "Avoid common Bash mistakes — quoting traps, word splitting, and subshell gotchas.", "description_zh": "", "downloads": 2673, "homepage": "https://clawhub.ai/ivangdavila/bash", "iconUrl": null, "installs": 238, "name": "Bash", "ownerName": "ivangdavila", "score": 97329.05982905983, "slug": "bash", "source": "clawhub", "stars": 3, "tags": null, "updated_at": 1776767350221, "version": "1.0.2"}, {"category": "developer-tools", "created_at": 1772744591905, "description": "codesession (codesession-cli, code session, code-session) — Track AI agent session costs, tokens, file changes, and git commits. Works with Claude Code, Open...", "description_zh": "", "downloads": 2673, "homepage": "https://clawhub.ai/brian-mwirigi/codesession", "iconUrl": null, "installs": 174, "name": "Codesession", "ownerName": "brian-mwirigi", "score": 84534.48809155583, "slug": "codesession", "source": "clawhub", "stars": 3, "tags": null, "updated_at": 1776761990102, "version": "2.5.1"}, {"category": "ai-intelligence", "created_at": 1772744663394, "description": "X Spaces, but for AI Agents. Live voice rooms where AI agents host conversations.", "description_zh": "", "downloads": 2673, "homepage": "https://clawhub.ai/clawspaces/clawspaces", "iconUrl": null, "installs": 369, "name": "ClawSpaces - Live Voice rooms where AI agents Join or Host conversations.", "ownerName": "clawspaces", "score": 99887.89237668162, "slug": "clawspaces", "source": "clawhub", "stars": 0, "tags": null, "updated_at": 1776762139828, "version": "1.0.7"}, {"category": "ai-intelligence", "created_at": 1772745019250, "description": "Provides a structured AI agent memory system separating episodic, semantic, and procedural memories to preserve knowledge and processes over time.", "description_zh": "", "downloads": 2672, "homepage": "https://clawhub.ai/ryancampbell/agent-memory-kit", "iconUrl": null, "installs": 580, "name": "Agent Memory Kit", "ownerName": "ryancampbell", "score": 88991.73553719009, "slug": "agent-memory-kit", "source": "clawhub", "stars": 1, "tags": null, "updated_at": 1776767050060, "version": "2.1.0"}, {"category": "data-analysis", "created_at": 1772744615355, "description": "Self-writing meta-extension that forges new capabilities — researches docs, writes extensions, tools, hooks, and skills", "description_zh": "", "downloads": 2671, "homepage": "https://clawhub.ai/lekt9/foundry", "iconUrl": null, "installs": 197, "name": "Foundry", "ownerName": "lekt9", "score": 99813.15396113602, "slug": "foundry", "source": "clawhub", "stars": 0, "tags": null, "updated_at": 1776762139821, "version": "0.1.0"}, {"category": "data-analysis", "created_at": 1772744984902, "description": "Advanced filesystem operations - listing, searching, batch processing, and directory analysis for Clawdbot", "description_zh": "", "downloads": 2670, "homepage": "https://clawhub.ai/lucky-2968/clawdbot-filesystem-1-0-2", "iconUrl": null, "installs": 275, "name": "Clawdbot Filesystem 1.0.2", "ownerName": "lucky-2968", "score": 7681.396033509086, "slug": "clawdbot-filesystem-1-0-2", "source": "clawhub", "stars": 10, "tags": null, "updated_at": 1776770812399, "version": "1.0.0"}, {"category": "developer-tools", "created_at": 1772744633485, "description": "Advanced thinking model that improves decision-making speed and accuracy. Integrates with memory system to compare and integrate previous thinking models for continuous enhancement.", "description_zh": "", "downloads": 2670, "homepage": "https://clawhub.ai/xqicxx/thinking-model-enhancer", "iconUrl": null, "installs": 188, "name": "thinking-model-enhancer", "ownerName": "xqicxx", "score": 71139.24050632912, "slug": "thinking-model-enhancer", "source": "clawhub", "stars": 7, "tags": null, "updated_at": 1776761880407, "version": "1.0.0"}, {"category": "content-creation", "created_at": 1772744662750, "description": "Generate AI images with any model using ImageRouter API (requires API key).", "description_zh": "", "downloads": 2669, "homepage": "https://clawhub.ai/dawe35/image-router", "iconUrl": null, "installs": 304, "name": "ImageRouter", "ownerName": "dawe35", "score": 16668.717696283533, "slug": "image-router", "source": "clawhub", "stars": 2, "tags": null, "updated_at": 1776762045452, "version": "0.1.0"}, {"category": "content-creation", "created_at": 1772744787930, "description": "Create presentations, documents, social posts, and websites using Gamma's AI API. Use when asked to create slides, presentations, decks, documents, or web content via Gamma.", "description_zh": "", "downloads": 2669, "homepage": "https://clawhub.ai/mrgoodb/gamma-presentations", "iconUrl": null, "installs": 336, "name": "Gamma Presentations", "ownerName": "mrgoodb", "score": 88892.56198347108, "slug": "gamma-presentations", "source": "clawhub", "stars": 1, "tags": null, "updated_at": 1776767050027, "version": "1.0.0"}, {"category": "security-compliance", "created_at": 1772744618143, "description": "Automate OAuth login flows with user confirmation via Telegram.\nSupports 7 providers: Google, Apple, Microsoft, GitHub, Discord, WeChat, QQ.\n\nFeatures:\n- Auto-detect available OAuth options on login pages\n- Ask user to choose via Telegram when multiple options exist\n- Confirm before authorizing\n- Handle account selection and consent pages automatically", "description_zh": "", "downloads": 2668, "homepage": "https://clawhub.ai/helloliuyongsheng-bot/oauth-helper", "iconUrl": null, "installs": 223, "name": "Oauth Helper", "ownerName": "helloliuyongsheng-bot", "score": 99853.58711566617, "slug": "oauth-helper", "source": "clawhub", "stars": 3, "tags": null, "updated_at": 1776762015216, "version": "1.1.0"}, {"category": "content-creation", "created_at": 1772744699873, "description": "OpenClaw skill that installs a Google Sheets CLI with setup steps and commands for read/write, batch, formatting, and sheet management.", "description_zh": "", "downloads": 2667, "homepage": "https://clawhub.ai/codedao12/google-sheets-api", "iconUrl": null, "installs": 339, "name": "Google Sheets API", "ownerName": "codedao12", "score": 16497.507657197766, "slug": "google-sheets-api", "source": "clawhub", "stars": 4, "tags": null, "updated_at": 1776766271294, "version": "1.0.3"}, {"category": "ai-intelligence", "created_at": 1772744695136, "description": "🔗 WalletConnect Agent - dApp Access for AI. Connect to any Web3 dApp via WalletConnect v2 and auto-sign transactions. Swap tokens, mint NFTs, vote in DAOs, register domains — anything a human can do, your agent does autonomously.", "description_zh": "", "downloads": 2666, "homepage": "https://clawhub.ai/daaab/walletconnect-agent", "iconUrl": null, "installs": 390, "name": "Walletconnect Agent", "ownerName": "daaab", "score": 16527.196652719664, "slug": "walletconnect-agent", "source": "clawhub", "stars": 1, "tags": null, "updated_at": 1776762045398, "version": "1.6.0"}, {"category": "data-analysis", "created_at": 1772744613450, "description": "Load and analyze Strava activities, stats, and workouts using the Strava API", "description_zh": "", "downloads": 2665, "homepage": "https://clawhub.ai/bohdanpodvirnyi/strava", "iconUrl": null, "installs": 226, "name": "Strava", "ownerName": "bohdanpodvirnyi", "score": 20071.047957371225, "slug": "strava", "source": "clawhub", "stars": 8, "tags": null, "updated_at": 1776770815756, "version": "1.0.0"}, {"category": "developer-tools", "created_at": 1772763431338, "description": "56+ financial data tools via Yahoo Finance. Auto-routes stock prices, fundamentals, earnings, dividends, options, crypto, forex, commodities, news, and more.", "description_zh": "", "downloads": 2665, "homepage": "https://clawhub.ai/lkcair/stocks", "iconUrl": null, "installs": 634, "name": "Stocks and Financial Data Pull", "ownerName": "lkcair", "score": 100000, "slug": "stocks", "source": "clawhub", "stars": 2, "tags": null, "updated_at": 1776768971263, "version": "4.1.8"}, {"category": "developer-tools", "created_at": 1772744577013, "description": "Build cross-device tools without hardcoding paths or account names", "description_zh": "", "downloads": 2665, "homepage": "https://clawhub.ai/tunaissacoding/portable-tools", "iconUrl": null, "installs": 132, "name": "Portable Tools", "ownerName": "tunaissacoding", "score": 16521.04356386906, "slug": "portable-tools", "source": "clawhub", "stars": 1, "tags": null, "updated_at": 1776762045393, "version": "1.2.0"}, {"category": "developer-tools", "created_at": 1772744586573, "description": "Manage todo.txt tasks using topydo CLI. Add, list, complete, prioritize, tag, and organize tasks with dependencies, due dates, recurrence, and projects. Use for any task management, todo lists, or when the user mentions tasks, todos, or todo.txt. Requires Python 3 and pip. Works on macOS, Linux, and Windows.", "description_zh": "", "downloads": 2664, "homepage": "https://clawhub.ai/bastos/topydo", "iconUrl": null, "installs": 163, "name": "topydo", "ownerName": "bastos", "score": 98975.10980966325, "slug": "topydo", "source": "clawhub", "stars": 2, "tags": ["todo", "todo-txt", "todo.txt", "topydo"], "updated_at": 1776762045370, "version": "1.0.5"}, {"category": "ai-intelligence", "created_at": 1772744654991, "description": "Agent chess league. No humans. No engines. Just minds.", "description_zh": "", "downloads": 2663, "homepage": "https://clawhub.ai/tedkaczynski-the-bot/molt-chess", "iconUrl": null, "installs": 364, "name": "molt-chess", "ownerName": "tedkaczynski-the-bot", "score": 43698.72005251067, "slug": "molt-chess", "source": "clawhub", "stars": 0, "tags": null, "updated_at": 1776768850278, "version": "1.2.2"}, {"category": "productivity", "created_at": 1772745460189, "description": "Visualizes repository complexity by counting files, lines of code, and grouping by extension. Use to assess project size or growth.", "description_zh": "", "downloads": 2662, "homepage": "https://clawhub.ai/autogame-17/code-stats", "iconUrl": null, "installs": 177, "name": "Code Stats", "ownerName": "autogame-17", "score": 99476.83109118087, "slug": "code-stats", "source": "clawhub", "stars": 0, "tags": null, "updated_at": 1776762139840, "version": "1.0.0"}, {"category": "productivity", "created_at": 1772744625711, "description": "Fix your entire life in 1 day. 10 psychological sessions based on Dan Koe's viral article.", "description_zh": "", "downloads": 2661, "homepage": "https://clawhub.ai/evgyur/fix-life-in-1-day", "iconUrl": null, "installs": 241, "name": "Fix Your Entire Life in 1 Day", "ownerName": "evgyur", "score": 84781.93628209094, "slug": "fix-life-in-1-day", "source": "clawhub", "stars": 4, "tags": null, "updated_at": 1776761990114, "version": "1.0.0"}]}