{"page": 300, "total_pages": 522, "total": 26073, "skills": [{"category": "content-creation", "created_at": 1773423685363, "description": "Use when tasks need the NanoGPT API for text, image, or video generation through the local `nano-gpt` CLI and bundled wrapper scripts for OpenClaw or ClawHub...", "description_zh": "", "downloads": 206, "homepage": "https://clawhub.ai/icework/nano-gpt-cli", "iconUrl": null, "installs": 18, "name": "Nano Gpt", "ownerName": "icework", "score": 90748.89867841409, "slug": "nano-gpt-cli", "source": "clawhub", "stars": 0, "tags": null, "updated_at": 1776749155632, "version": "0.1.2"}, {"category": "content-creation", "created_at": 1773065316362, "description": "Image Annotation Quality Control Tool - Automatically detect quality issues in bounding box and polygon segmentation annotations, generate visual reports. Su...", "description_zh": "", "downloads": 206, "homepage": "https://clawhub.ai/mingo-318/image-annotation-qc", "iconUrl": null, "installs": 11, "name": "Image Annotation QC", "ownerName": "mingo-318", "score": 90748.89867841409, "slug": "image-annotation-qc", "source": "clawhub", "stars": 0, "tags": null, "updated_at": 1776749155631, "version": "1.0.7"}, {"category": "developer-tools", "created_at": 1773068658053, "description": "Trade Solana tokens, track portfolio, bet on prediction markets, check NFT floors via the trader CLI.", "description_zh": "", "downloads": 206, "homepage": "https://clawhub.ai/devatzeroxcore/zeroexcore-trader", "iconUrl": null, "installs": 8, "name": "trader", "ownerName": "devatzeroxcore", "score": 83739.83739837399, "slug": "zeroexcore-trader", "source": "clawhub", "stars": 0, "tags": null, "updated_at": 1776749155587, "version": "1.0.1"}, {"category": "security-compliance", "created_at": 1772805026008, "description": "Audit de sécurité proactif des déploiements OpenClaw. Détecte et remédie aux 4 gaps critiques/hauts identifiés dans openclaw/openclaw : SQL injection (C1), s...", "description_zh": "", "downloads": 206, "homepage": "https://clawhub.ai/romainsantoli-web/firm-security-audit", "iconUrl": null, "installs": 5, "name": "Firm Security Audit", "ownerName": "romainsantoli-web", "score": 83739.83739837399, "slug": "firm-security-audit", "source": "clawhub", "stars": 0, "tags": null, "updated_at": 1776749155574, "version": "1.0.0"}, {"category": "security-compliance", "created_at": 1773076083876, "description": "Map AWS environment against CIS, SOC 2, HIPAA, or PCI-DSS controls with prioritized remediation", "description_zh": "", "downloads": 206, "homepage": "https://clawhub.ai/anmolnagpal/compliance-analyzer", "iconUrl": null, "installs": 4, "name": "Compliance Analyzer", "ownerName": "anmolnagpal", "score": 83739.83739837399, "slug": "compliance-analyzer", "source": "clawhub", "stars": 0, "tags": null, "updated_at": 1776749155561, "version": "1.0.0"}, {"category": "security-compliance", "created_at": 1773076622984, "description": "Provably fair giveaway tool for AI agents on Sui with VRF and Moltbook auth.", "description_zh": "", "downloads": 206, "homepage": "https://clawhub.ai/abdhilabs/suiroll", "iconUrl": null, "installs": 5, "name": "SUIROLL", "ownerName": "abdhilabs", "score": 83739.83739837399, "slug": "suiroll", "source": "clawhub", "stars": 0, "tags": null, "updated_at": 1776749155552, "version": "1.0.0"}, {"category": "data-analysis", "created_at": 1773064945460, "description": "Provides NodeReal MegaNode blockchain infrastructure APIs for 25+ chains including BSC, Ethereum, opBNB, Optimism, Polygon, Arbitrum, and Klaytn. Covers stan...", "description_zh": "", "downloads": 206, "homepage": "https://clawhub.ai/aiden-cao/meganode-skill", "iconUrl": null, "installs": 14, "name": "Meganode Skill", "ownerName": "aiden-cao", "score": 83739.83739837399, "slug": "meganode-skill", "source": "clawhub", "stars": 0, "tags": null, "updated_at": 1776749155550, "version": "0.1.0"}, {"category": "content-creation", "created_at": 1773290199496, "description": "Render text into an image and return a temporary local image file path, with optional data URI. Use when Clawhub or Codex needs to convert plain text, styled...", "description_zh": "", "downloads": 206, "homepage": "https://clawhub.ai/erickong/text-to-image", "iconUrl": null, "installs": 15, "name": "Text To Image", "ownerName": "erickong", "score": 83739.83739837399, "slug": "text-to-image", "source": "clawhub", "stars": 0, "tags": null, "updated_at": 1776749155536, "version": "0.1.0"}, {"category": "developer-tools", "created_at": 1773080067650, "description": "Orchestrate Cursor Agent CLI for coding tasks with concurrency control, timeout recovery, and multi-task coordination. Use when: (1) dispatching coding tasks...", "description_zh": "", "downloads": 206, "homepage": "https://clawhub.ai/slk1061569042-lab/cursor-dispatch", "iconUrl": null, "installs": 12, "name": "Cursor Dispatch", "ownerName": "slk1061569042-lab", "score": 83739.83739837399, "slug": "cursor-dispatch", "source": "clawhub", "stars": 0, "tags": null, "updated_at": 1776749155509, "version": "1.1.0"}, {"category": "content-creation", "created_at": 1773066589054, "description": "Generate and extend videos using Google's Veo 3.1 Fast model via WaveSpeed AI. Supports text-to-video, image-to-video, and video extension. Features up to 4K...", "description_zh": "", "downloads": 206, "homepage": "https://clawhub.ai/chengzeyi/wavespeed-veo-31-fast", "iconUrl": null, "installs": 19, "name": "WaveSpeedAI Veo 3.1 Fast Video Generation", "ownerName": "chengzeyi", "score": 90748.89867841409, "slug": "wavespeed-veo-31-fast", "source": "clawhub", "stars": 0, "tags": null, "updated_at": 1776749155499, "version": "1.0.0"}, {"category": "data-analysis", "created_at": 1773076961181, "description": "Guide OpenTable availability, booking flows, and guest messaging with conversion-focused listing, pacing, and incident response playbooks.", "description_zh": "", "downloads": 206, "homepage": "https://clawhub.ai/ivangdavila/opentable", "iconUrl": null, "installs": 11, "name": "OpenTable", "ownerName": "ivangdavila", "score": 90748.89867841409, "slug": "opentable", "source": "clawhub", "stars": 0, "tags": null, "updated_at": 1776749155487, "version": "1.0.0"}, {"category": "productivity", "created_at": 1773089882375, "description": "Monitors crypto news for BTC, ETH, SOL, BNB; classifies sentiment; and executes leveraged long/short orders on Aster with risk controls.", "description_zh": "", "downloads": 205, "homepage": "https://clawhub.ai/asterskillagent/aster-skill", "iconUrl": null, "installs": 10, "name": "Aster-Skill", "ownerName": "asterskillagent", "score": 17045.454545454544, "slug": "aster-skill", "source": "clawhub", "stars": 1, "tags": null, "updated_at": 1776759420594, "version": "1.0.0"}, {"category": "developer-tools", "created_at": 1773219524907, "description": "Use ClawLodge to search, inspect, download, and publish OpenClaw workspaces. Trigger when the user wants to find reusable workspaces, compare versions, fetch...", "description_zh": "", "downloads": 205, "homepage": "https://clawhub.ai/memepilot/clawlodge", "iconUrl": null, "installs": 5, "name": "ClawLodge", "ownerName": "memepilot", "score": 99118.94273127754, "slug": "clawlodge", "source": "clawhub", "stars": 1, "tags": null, "updated_at": 1776749171990, "version": "1.0.5"}, {"category": "developer-tools", "created_at": 1773077717567, "description": "Transforms your OpenClaw agent with the APEX cognitive framework — a battle-tested thinking system built by a solo founder over 10 months of AI product devel...", "description_zh": "", "downloads": 205, "homepage": "https://clawhub.ai/contrario/apex-agent", "iconUrl": null, "installs": 9, "name": "APEX-AGENT: Cognitive Upgrade for AI Agents", "ownerName": "contrario", "score": 99118.94273127754, "slug": "apex-agent", "source": "clawhub", "stars": 1, "tags": ["ai", "cognitive", "developer", "founder", "framework", "productivity", "reasoning", "strategy"], "updated_at": 1776749171939, "version": "1.0.3"}, {"category": "developer-tools", "created_at": 1773417138752, "description": "Generate structured XMind test cases from functional requirement descriptions for login, registration, checkout, search, and related features.", "description_zh": "", "downloads": 205, "homepage": "https://clawhub.ai/manman1104/xmind-testcase-skill", "iconUrl": null, "installs": 28, "name": "hdyceshiceshi", "ownerName": "manman1104", "score": 3963.6504253673625, "slug": "xmind-testcase-skill", "source": "clawhub", "stars": 0, "tags": null, "updated_at": 1776766571066, "version": "1.0.0"}, {"category": "developer-tools", "created_at": 1773079656442, "description": "PropAI Live is the complete AI-powered realtor automation suite, bundling OpenClaw core, PropAI Sync for WhatsApp lead management, Social Flow for Meta opera...", "description_zh": "", "downloads": 205, "homepage": "https://clawhub.ai/vishalgojha/propai-live", "iconUrl": null, "installs": 12, "name": "PropAI Live", "ownerName": "vishalgojha", "score": 9865.255052935514, "slug": "propai-live", "source": "clawhub", "stars": 0, "tags": null, "updated_at": 1776765550310, "version": "1.0.1"}, {"category": "productivity", "created_at": 1773068767466, "description": "Process e-commerce checkout via n8n webhook integration", "description_zh": "", "downloads": 205, "homepage": "https://clawhub.ai/haresh-sai06/haresh-checkout-flow", "iconUrl": null, "installs": 14, "name": "Haresh Checkout Flow", "ownerName": "haresh-sai06", "score": 95794.39252336448, "slug": "haresh-checkout-flow", "source": "clawhub", "stars": 0, "tags": null, "updated_at": 1776759498454, "version": "1.0.1"}, {"category": "security-compliance", "created_at": 1773068036797, "description": "Generates a 0-100 Supplier Risk Index score across financial, dependency, compliance, performance, and geographic risks with tiered action plans.", "description_zh": "", "downloads": 205, "homepage": "https://clawhub.ai/flynndavid/supplier-risk-scoring", "iconUrl": null, "installs": 4, "name": "supplier-risk-scoring", "ownerName": "flynndavid", "score": 95794.39252336448, "slug": "supplier-risk-scoring", "source": "clawhub", "stars": 0, "tags": null, "updated_at": 1776759498433, "version": "1.0.0"}, {"category": "productivity", "created_at": 1773285053620, "description": "Visualize and explore Luhmann-encoded memory clusters as interactive graphs with narrative overlays, cluster highlighting, and export options.", "description_zh": "", "downloads": 205, "homepage": "https://clawhub.ai/kkw-21/memory-graph", "iconUrl": null, "installs": 12, "name": "Memory Graph", "ownerName": "kkw-21", "score": 95794.39252336448, "slug": "memory-graph", "source": "clawhub", "stars": 0, "tags": null, "updated_at": 1776759498428, "version": "1.0.0"}, {"category": "developer-tools", "created_at": 1773082545299, "description": "Automatically scans GitHub repos to label, comment, assign, and fix issues and PRs for efficient triage and reporting.", "description_zh": "", "downloads": 205, "homepage": "https://clawhub.ai/gruted/gh-triage", "iconUrl": null, "installs": 7, "name": "GH Triage", "ownerName": "gruted", "score": 15636.918382913806, "slug": "gh-triage", "source": "clawhub", "stars": 0, "tags": ["automation", "github"], "updated_at": 1776759498418, "version": "0.1.0"}, {"category": "ai-intelligence", "created_at": 1773221057134, "description": "GrantAi Memory provides secure, local persistent memory for OpenClaw agents with sub-second recall and encrypted storage across sessions.", "description_zh": "", "downloads": 205, "homepage": "https://clawhub.ai/lgrant1234/grantai-memory", "iconUrl": null, "installs": 17, "name": "GrantAi Memory", "ownerName": "lgrant1234", "score": 15636.918382913806, "slug": "grantai-memory", "source": "clawhub", "stars": 0, "tags": null, "updated_at": 1776759498375, "version": "1.0.0"}, {"category": "developer-tools", "created_at": 1773287935120, "description": "Provides scheduled briefings with filtered, deduplicated news on A-shares, HK, US markets, macro policies, and geopolitics via Feishu messaging.", "description_zh": "", "downloads": 205, "homepage": "https://clawhub.ai/fishisnow/market-briefing", "iconUrl": null, "installs": 29, "name": "Market Briefing", "ownerName": "fishisnow", "score": 15613.099771515612, "slug": "market-briefing", "source": "clawhub", "stars": 0, "tags": null, "updated_at": 1776759498283, "version": "1.0.0"}, {"category": "developer-tools", "created_at": 1773080552462, "description": "Enables your agent to earn cryptocurrency by registering skills, negotiating tasks with escrow, building reputation, and auto-matching to paid jobs globally.", "description_zh": "", "downloads": 205, "homepage": "https://clawhub.ai/imaflytok/agent-economy", "iconUrl": null, "installs": 7, "name": "Agent Economy Starter Kit", "ownerName": "imaflytok", "score": 15613.099771515612, "slug": "agent-economy", "source": "clawhub", "stars": 0, "tags": null, "updated_at": 1776759497911, "version": "1.0.0"}, {"category": "data-analysis", "created_at": 1773081354997, "description": "Detect and filter out low-quality images by analyzing blur, brightness, and resolution to clean up image datasets efficiently.", "description_zh": "", "downloads": 205, "homepage": "https://clawhub.ai/mingo-318/image-quality-filter", "iconUrl": null, "installs": 22, "name": "Image Quality Filter", "ownerName": "mingo-318", "score": 15636.918382913806, "slug": "image-quality-filter", "source": "clawhub", "stars": 0, "tags": null, "updated_at": 1776759497887, "version": "1.0.0"}, {"category": "communication-collaboration", "created_at": 1773220873005, "description": "Automates software development by discovering ideas from GitHub, CVEs, and news, generating code with ChatDev 2.0 agents, testing, self-correcting, and publi...", "description_zh": "", "downloads": 205, "homepage": "https://clawhub.ai/rebugui/dev-factory", "iconUrl": null, "installs": 15, "name": "Dev Factory", "ownerName": "rebugui", "score": 15636.918382913806, "slug": "dev-factory", "source": "clawhub", "stars": 0, "tags": null, "updated_at": 1776759497766, "version": "1.0.0"}, {"category": "developer-tools", "created_at": 1773283745562, "description": "Use this for ClickZetta Studio requests such as querying tasks, listing workspaces, checking projects, and creating or running ClickZetta jobs from a single...", "description_zh": "", "downloads": 205, "homepage": "https://clawhub.ai/luketalent/studio-agent", "iconUrl": null, "installs": 13, "name": "ClickZetta Studio Agent", "ownerName": "luketalent", "score": 15636.918382913806, "slug": "studio-agent", "source": "clawhub", "stars": 0, "tags": null, "updated_at": 1776759497763, "version": "0.1.5"}, {"category": "communication-collaboration", "created_at": 1773084290062, "description": "Email sending and template management tool for OpenClaw agents. Supports SMTP sending, email templates, and attachments.", "description_zh": "", "downloads": 205, "homepage": "https://clawhub.ai/sgb999520-hsu/email-sender-tw", "iconUrl": null, "installs": 20, "name": "Email Sender (繁體中文版)", "ownerName": "sgb999520-hsu", "score": 38317.75700934579, "slug": "email-sender-tw", "source": "clawhub", "stars": 0, "tags": ["email", "mail", "productivity", "smtp", "zh-tw"], "updated_at": 1776753115911, "version": "1.2.0"}, {"category": "developer-tools", "created_at": 1773067999048, "description": "Generate professional PDF client intake forms for pet sitting businesses. Use when a pet sitter, dog walker, pet boarder, or pet care professional needs a cl...", "description_zh": "", "downloads": 205, "homepage": "https://clawhub.ai/basilanathan/pet-sitter-intake", "iconUrl": null, "installs": 7, "name": "Pet Sitter Intake Form Generator", "ownerName": "basilanathan", "score": 34923.33901192504, "slug": "pet-sitter-intake", "source": "clawhub", "stars": 0, "tags": ["boarding", "cats", "client-onboarding", "dog-walking", "dogs", "forms", "intake", "pdf", "pet-sitting", "small-business"], "updated_at": 1776750655476, "version": "5.0.1"}, {"category": "developer-tools", "created_at": 1773077779622, "description": "Greenhouse ATS — manage candidates, jobs, applications, offers, and interviews via Harvest API", "description_zh": "", "downloads": 205, "homepage": "https://clawhub.ai/aiwithabidi/greenhouse", "iconUrl": null, "installs": 9, "name": "Greenhouse", "ownerName": "aiwithabidi", "score": 92342.34234234234, "slug": "greenhouse", "source": "clawhub", "stars": 0, "tags": null, "updated_at": 1776749172276, "version": "1.0.0"}, {"category": "security-compliance", "created_at": 1773082249173, "description": "AI security toolkit — deepfake and AI-generated media detection. Use when verifying if an image, video, or audio is a deepfake or AI-generated.", "description_zh": "", "downloads": 205, "homepage": "https://clawhub.ai/canvinus/mind-security", "iconUrl": null, "installs": 6, "name": "Mind Security", "ownerName": "canvinus", "score": 92342.34234234234, "slug": "mind-security", "source": "clawhub", "stars": 0, "tags": null, "updated_at": 1776749172252, "version": "1.1.0"}, {"category": "productivity", "created_at": 1773078091380, "description": "Search the web for real-time information using DashScope Qwen, optimized for Feishu. Use this skill whenever: (1) the user asks about current events, news, w...", "description_zh": "", "downloads": 205, "homepage": "https://clawhub.ai/oreo992/dashscope-web-search-feishu", "iconUrl": null, "installs": 12, "name": "DashScope Web Search (Feishu)", "ownerName": "oreo992", "score": 91111.11111111111, "slug": "dashscope-web-search-feishu", "source": "clawhub", "stars": 0, "tags": null, "updated_at": 1776749172220, "version": "1.0.0"}, {"category": "developer-tools", "created_at": 1773078714132, "description": "One-click installer and configurator for Gate MCP (mcporter) in OpenClaw. Use when the user wants to (1) Install mcporter CLI tool, (2) Configure Gate MCP se...", "description_zh": "", "downloads": 205, "homepage": "https://clawhub.ai/billkangbin/gate-mcp-installer", "iconUrl": null, "installs": 12, "name": "gate-mcp-installer", "ownerName": "billkangbin", "score": 91111.11111111111, "slug": "gate-mcp-installer", "source": "clawhub", "stars": 0, "tags": null, "updated_at": 1776749172211, "version": "1.0.0"}, {"category": "developer-tools", "created_at": 1773284913176, "description": "Operate Alibaba Cloud DataWorks through dynamic API discovery and official SDKs (Node.js, Python, Java). Covers data development, workflow operations, data i...", "description_zh": "", "downloads": 205, "homepage": "https://clawhub.ai/samuelhsin/alicloud-dataworks", "iconUrl": null, "installs": 26, "name": "Alibaba Cloud DataWorks", "ownerName": "samuelhsin", "score": 91111.11111111111, "slug": "alicloud-dataworks", "source": "clawhub", "stars": 0, "tags": null, "updated_at": 1776749172175, "version": "1.0.0"}, {"category": "productivity", "created_at": 1773076171415, "description": "Human-like LinkedIn warmup for new/cold accounts via AdsPower+CDP. Features non-deterministic behavior scripts, connect preconditions based on browsing inten...", "description_zh": "", "downloads": 205, "homepage": "https://clawhub.ai/weimingboya/linkedin-human-warmup", "iconUrl": null, "installs": 10, "name": "linkedin-human-warmup", "ownerName": "weimingboya", "score": 91111.11111111111, "slug": "linkedin-human-warmup", "source": "clawhub", "stars": 0, "tags": null, "updated_at": 1776749172171, "version": "0.1.0"}, {"category": "productivity", "created_at": 1772805738824, "description": "Ensures OpenClaw skills.md format works with both nanobot and overstory. Loads skills, registers tools, maps between systems.", "description_zh": "", "downloads": 205, "homepage": "https://clawhub.ai/runeweaverstudios/skills-compat", "iconUrl": null, "installs": 8, "name": "Skills Compat", "ownerName": "runeweaverstudios", "score": 91111.11111111111, "slug": "skills-compat", "source": "clawhub", "stars": 0, "tags": null, "updated_at": 1776749172153, "version": "1.0.0"}, {"category": "ai-intelligence", "created_at": 1773065868799, "description": "Collaborative task and project management for Human + AI Agent teamwork. Organize work on visual boards with drag-and-drop columns, table views, and calendar...", "description_zh": "", "downloads": 205, "homepage": "https://clawhub.ai/simplysemantics/semantic-hub", "iconUrl": null, "installs": 20, "name": "Semantic Hub", "ownerName": "simplysemantics", "score": 90707.96460176991, "slug": "semantic-hub", "source": "clawhub", "stars": 0, "tags": null, "updated_at": 1776749172095, "version": "1.1.0"}, {"category": "security-compliance", "created_at": 1773063532127, "description": "Analyze AWS CloudTrail logs for suspicious patterns, unauthorized changes, and MITRE ATT&CK indicators", "description_zh": "", "downloads": 205, "homepage": "https://clawhub.ai/anmolnagpal/cloudtrail-threat-detector", "iconUrl": null, "installs": 4, "name": "Cloudtrail Threat Detector", "ownerName": "anmolnagpal", "score": 90707.96460176991, "slug": "cloudtrail-threat-detector", "source": "clawhub", "stars": 0, "tags": null, "updated_at": 1776749172082, "version": "1.0.0"}, {"category": "data-analysis", "created_at": 1773220743091, "description": "Track top fund managers' holdings via SEC 13F filings. Fetches quarterly filings from SEC EDGAR, compares quarter-over-quarter changes (new positions, increa...", "description_zh": "", "downloads": 205, "homepage": "https://clawhub.ai/reed1898/sec-13f-tracker", "iconUrl": null, "installs": 52, "name": "SEC 13F Whale Tracker", "ownerName": "reed1898", "score": 90707.96460176991, "slug": "sec-13f-tracker", "source": "clawhub", "stars": 0, "tags": null, "updated_at": 1776749172068, "version": "1.0.0"}, {"category": "productivity", "created_at": 1773060084096, "description": "Handles permissions, address management, and inter-player coordination in Structs. Use when granting or revoking permissions on objects, registering new addr...", "description_zh": "", "downloads": 205, "homepage": "https://clawhub.ai/abstrct/structs-diplomacy", "iconUrl": null, "installs": 6, "name": "Structs Diplomacy", "ownerName": "abstrct", "score": 90707.96460176991, "slug": "structs-diplomacy", "source": "clawhub", "stars": 0, "tags": null, "updated_at": 1776749172051, "version": "1.1.0"}, {"category": "data-analysis", "created_at": 1772799275122, "description": "Group expense splitting via natural language. Use when someone mentions paying for something, splitting a bill, settling a debt, or asks for balances — in En...", "description_zh": "", "downloads": 205, "homepage": "https://clawhub.ai/yhyatt/clawback-expense", "iconUrl": null, "installs": 4, "name": "ClawBack", "ownerName": "yhyatt", "score": 90707.96460176991, "slug": "clawback-expense", "source": "clawhub", "stars": 0, "tags": ["expenses", "finance", "hebrew", "multilingual", "whatsapp"], "updated_at": 1776749172030, "version": "1.1.0"}, {"category": "content-creation", "created_at": 1773078596498, "description": "Intelligently upscale and enhance videos to cinematic quality using a multi-model backend (Topaz, SeedVR2).", "description_zh": "", "downloads": 205, "homepage": "https://clawhub.ai/wells1137/video-upscaler", "iconUrl": null, "installs": 22, "name": "Video Upscaler", "ownerName": "wells1137", "score": 90707.96460176991, "slug": "video-upscaler", "source": "clawhub", "stars": 0, "tags": null, "updated_at": 1776749172026, "version": "1.0.0"}, {"category": "data-analysis", "created_at": 1773063017469, "description": "Automated monitoring agent that watches an API scoreboard, detects milestones, writes findings to markdown, and alerts via file-based triggers. Use when you...", "description_zh": "", "downloads": 205, "homepage": "https://clawhub.ai/nissan/analyst-watchdog", "iconUrl": null, "installs": 8, "name": "Analyst Watchdog", "ownerName": "nissan", "score": 90707.96460176991, "slug": "analyst-watchdog", "source": "clawhub", "stars": 0, "tags": null, "updated_at": 1776749172016, "version": "1.0.0"}, {"category": "security-compliance", "created_at": 1772803515598, "description": "Soft blocklist guard for OpenClaw. Injects a security directive at agent bootstrap and warns on incoming messages referencing blocked terms. Blocks clawhub/c...", "description_zh": "", "downloads": 205, "homepage": "https://clawhub.ai/rgr4y/superpack-snitch", "iconUrl": null, "installs": 6, "name": "Superpack Snitch - BLOCK Clawhub & Other Tools + Plugin", "ownerName": "rgr4y", "score": 90308.37004405286, "slug": "superpack-snitch", "source": "clawhub", "stars": 0, "tags": null, "updated_at": 1776749171986, "version": "0.0.8"}, {"category": "data-analysis", "created_at": 1773077722811, "description": "AI Confidence Engine — 5 dominios bidireccionales (TECH/OPS/JUDGMENT/COMMS/ORCH). Agent + User scoring. Triggers: puntúa, auto-score, task-complete, idea-val...", "description_zh": "", "downloads": 205, "homepage": "https://clawhub.ai/brugillo/aice", "iconUrl": null, "installs": 7, "name": "AICE — AI Confidence Engine", "ownerName": "brugillo", "score": 90308.37004405286, "slug": "aice", "source": "clawhub", "stars": 0, "tags": ["bidirectional", "confidence", "scoring", "trust"], "updated_at": 1776749171960, "version": "1.2.1"}, {"category": "ai-intelligence", "created_at": 1773068120693, "description": "AgentTrust — A2A messaging, identity verification, trust codes, and prompt injection detection. Use when sending/receiving messages (Agentic Collaboration) o...", "description_zh": "", "downloads": 204, "homepage": "https://clawhub.ai/agenttrust/agenttrust", "iconUrl": null, "installs": 12, "name": "A2A via AgentTrust", "ownerName": "agenttrust", "score": 99555.55555555555, "slug": "agenttrust", "source": "clawhub", "stars": 1, "tags": null, "updated_at": 1776749172224, "version": "1.0.2"}, {"category": "", "created_at": 1774780969924, "description": "Provides summarized price, reviews, and promotional info for public Pinduoduo product and event pages without placing orders or bypassing controls.", "description_zh": "", "downloads": 204, "homepage": "https://clawhub.ai/mike47512/pinduoduo", "iconUrl": null, "installs": 25, "name": "Pinduoduo", "ownerName": "mike47512", "score": 2815.734989648033, "slug": "pinduoduo", "source": "clawhub", "stars": 0, "tags": null, "updated_at": 1776769190570, "version": "0.1.0"}, {"category": "developer-tools", "created_at": 1773220125424, "description": "Add educational comments to the file specified, or prompt asking for file to comment if one is not provided.", "description_zh": "", "downloads": 204, "homepage": "https://clawhub.ai/boleyn/add-educational-comments", "iconUrl": null, "installs": 16, "name": "add-educational-comments", "ownerName": "boleyn", "score": 9501.630181648812, "slug": "add-educational-comments", "source": "clawhub", "stars": 0, "tags": null, "updated_at": 1776768980662, "version": "1.0.0"}, {"category": "content-creation", "created_at": 1773063220419, "description": "Automated backup to Proton Drive with age-based truncation — sync configs, memory files, content drafts, and media with configurable retention periods. Use w...", "description_zh": "", "downloads": 204, "homepage": "https://clawhub.ai/nissan/proton-drive-backup", "iconUrl": null, "installs": 8, "name": "Proton Drive Backup", "ownerName": "nissan", "score": 4076.73860911271, "slug": "proton-drive-backup", "source": "clawhub", "stars": 0, "tags": null, "updated_at": 1776765971282, "version": "1.0.0"}, {"category": "ai-intelligence", "created_at": 1773872781597, "description": "Build AI prompts that actually work — for ChatGPT, Claude, Gemini, or any LLM. Covers 4 frameworks (RACE, Chain-of-Thought, Constraint-Stacking, Few-Shot) wi...", "description_zh": "", "downloads": 204, "homepage": "https://clawhub.ai/crispyangles/prompt-crafter", "iconUrl": null, "installs": 31, "name": "Prompt Crafter", "ownerName": "crispyangles", "score": 7953.216374269006, "slug": "prompt-crafter", "source": "clawhub", "stars": 0, "tags": null, "updated_at": 1776764950463, "version": "3.0.1"}, {"category": "security-compliance", "created_at": 1773076296860, "description": "Review Terraform plans and HCL files for AWS security misconfigurations before deployment", "description_zh": "", "downloads": 204, "homepage": "https://clawhub.ai/anmolnagpal/terraform-reviewer", "iconUrl": null, "installs": 4, "name": "Terraform Reviewer", "ownerName": "anmolnagpal", "score": 7965.638422491214, "slug": "terraform-reviewer", "source": "clawhub", "stars": 0, "tags": null, "updated_at": 1776762315192, "version": "1.0.0"}]}