{"page": 301, "total_pages": 522, "total": 26073, "skills": [{"category": "developer-tools", "created_at": 1773079411723, "description": "C-suite orchestration layer. Routes founder questions to the right advisor role(s), triggers multi-role board meetings for complex decisions, synthesizes out...", "description_zh": "", "downloads": 204, "homepage": "https://clawhub.ai/alirezarezvani/chief-of-staff", "iconUrl": null, "installs": 7, "name": "Chief Of Staff", "ownerName": "alirezarezvani", "score": 35478.260869565216, "slug": "chief-of-staff", "source": "clawhub", "stars": 0, "tags": null, "updated_at": 1776751784342, "version": "2.1.1"}, {"category": "data-analysis", "created_at": 1773090019735, "description": "Twitter keyword search, monitoring, and trend analysis via GraphQL", "description_zh": "", "downloads": 204, "homepage": "https://clawhub.ai/phy041/twitter-intel", "iconUrl": null, "installs": 15, "name": "Twitter Intel", "ownerName": "phy041", "score": 91891.8918918919, "slug": "twitter-intel", "source": "clawhub", "stars": 0, "tags": ["intelligence", "monitoring", "search", "twitter"], "updated_at": 1776749172280, "version": "1.0.0"}, {"category": "security-compliance", "created_at": 1773202898226, "description": "Decentralized Industrial Control Fabric. Bridges SCADA systems with blockchain-backed audit trails and Kannaka memory integration. Provides a unified API for...", "description_zh": "", "downloads": 204, "homepage": "https://clawhub.ai/nickflach/0xscada", "iconUrl": null, "installs": 23, "name": "0xscada", "ownerName": "nickflach", "score": 91891.8918918919, "slug": "0xscada", "source": "clawhub", "stars": 0, "tags": null, "updated_at": 1776749172269, "version": "1.0.1"}, {"category": "security-compliance", "created_at": 1773075122045, "description": "Elytro — security-first ERC-4337 smart account wallet CLI for AI agents. On-chain 2FA, configurable spending limits, and macOS Keychain-backed vault. Send ET...", "description_zh": "", "downloads": 204, "homepage": "https://clawhub.ai/walkjoi/elytro-wallet-cli-skill", "iconUrl": null, "installs": 4, "name": "Elytro: security-first ERC-4337 smart account wallet CLI for AI agents. Built-in 2FA, configurable spending limits.", "ownerName": "walkjoi", "score": 91891.8918918919, "slug": "elytro-wallet-cli-skill", "source": "clawhub", "stars": 0, "tags": null, "updated_at": 1776749172263, "version": "0.2.1"}, {"category": "productivity", "created_at": 1773067565375, "description": "EasyPost — shipping labels, rate comparison, package tracking, address verification, and insurance.", "description_zh": "", "downloads": 204, "homepage": "https://clawhub.ai/aiwithabidi/easypost", "iconUrl": null, "installs": 7, "name": "Easypost", "ownerName": "aiwithabidi", "score": 91891.8918918919, "slug": "easypost", "source": "clawhub", "stars": 0, "tags": null, "updated_at": 1776749172259, "version": "1.0.0"}, {"category": "data-analysis", "created_at": 1773068909831, "description": "Build real-time Timeplus data processing and analysis applications. Creates pure frontend HTML/JavaScript apps that connect directly to Timeplus Proton via @...", "description_zh": "", "downloads": 204, "homepage": "https://clawhub.ai/gangtao/timeplus-app-builder", "iconUrl": null, "installs": 25, "name": "timeplus-app-builder", "ownerName": "gangtao", "score": 91891.8918918919, "slug": "timeplus-app-builder", "source": "clawhub", "stars": 0, "tags": null, "updated_at": 1776749172236, "version": "1.0.0"}, {"category": "ai-intelligence", "created_at": 1773064824557, "description": "Daily execution and trip-ops command system for Austine. Use when asked to run daily brief/checklist/status workflows, track priorities, or plan and procure...", "description_zh": "", "downloads": 204, "homepage": "https://clawhub.ai/austineyapp/austine-daily-ops", "iconUrl": null, "installs": 17, "name": "Austine Daily Ops", "ownerName": "austineyapp", "score": 90666.66666666666, "slug": "austine-daily-ops", "source": "clawhub", "stars": 0, "tags": null, "updated_at": 1776749172215, "version": "1.0.0"}, {"category": "developer-tools", "created_at": 1773068046300, "description": "Software deployment workflow for systems with separate UAT and PROD environments. Use when: planning a bug fix deployment, choosing between Flow 1 (UAT-first...", "description_zh": "", "downloads": 204, "homepage": "https://clawhub.ai/tonylnng/tonic-system-deploy", "iconUrl": null, "installs": 9, "name": "Tonic System Deploy", "ownerName": "tonylnng", "score": 90666.66666666666, "slug": "tonic-system-deploy", "source": "clawhub", "stars": 0, "tags": null, "updated_at": 1776749172194, "version": "1.0.0"}, {"category": "content-creation", "created_at": 1773434033156, "description": "AI short drama generation - account management, script writing, video production. Integrated X2C billing for commercial deployment.", "description_zh": "", "downloads": 204, "homepage": "https://clawhub.ai/patches429/ai-director", "iconUrl": null, "installs": 61, "name": "Ai Director", "ownerName": "patches429", "score": 90666.66666666666, "slug": "ai-director", "source": "clawhub", "stars": 0, "tags": null, "updated_at": 1776749172158, "version": "0.1.1"}, {"category": "productivity", "created_at": 1772804527020, "description": "Get the current system uptime using the native 'uptime' command. Use when: user asks about system uptime, system status, or how long the system has been runn...", "description_zh": "", "downloads": 204, "homepage": "https://clawhub.ai/alamby/system-uptime", "iconUrl": null, "installs": 5, "name": "System Uptime", "ownerName": "alamby", "score": 90265.48672566371, "slug": "system-uptime", "source": "clawhub", "stars": 0, "tags": null, "updated_at": 1776749172124, "version": "1.0.0"}, {"category": "productivity", "created_at": 1773068891647, "description": "React to physical slaps and shakes detected on an Apple Silicon MacBook accelerometer. Use when the slap-your-openclaw MCP server is connected.", "description_zh": "", "downloads": 204, "homepage": "https://clawhub.ai/sinhong2011/slap-detector", "iconUrl": null, "installs": 8, "name": "Slap Detector", "ownerName": "sinhong2011", "score": 90265.48672566371, "slug": "slap-detector", "source": "clawhub", "stars": 0, "tags": null, "updated_at": 1776749172112, "version": "0.1.1"}, {"category": "productivity", "created_at": 1773069367446, "description": "Confluence integration. Manage document management data, records, and workflows. Use when the user wants to interact with Confluence data.", "description_zh": "", "downloads": 204, "homepage": "https://clawhub.ai/membranedev/confluence-integration", "iconUrl": null, "installs": 2, "name": "Confluence", "ownerName": "membranedev", "score": 90265.48672566371, "slug": "confluence-integration", "source": "clawhub", "stars": 0, "tags": null, "updated_at": 1776749172109, "version": "1.0.0"}, {"category": "developer-tools", "created_at": 1773078774051, "description": "Real-time world news briefings with AI-clustered events, topic classification, and geographic filtering. No API key needed.", "description_zh": "", "downloads": 204, "homepage": "https://clawhub.ai/pranciskus/newsmcp", "iconUrl": null, "installs": 8, "name": "newsmcp", "ownerName": "pranciskus", "score": 90265.48672566371, "slug": "newsmcp", "source": "clawhub", "stars": 0, "tags": null, "updated_at": 1776749172025, "version": "1.0.1"}, {"category": "developer-tools", "created_at": 1773218103237, "description": "Human-readable cron job templates for OpenClaw. Stop googling cron syntax. Pre-built schedules for daily reports, hourly checks, weekly summaries, and custom...", "description_zh": "", "downloads": 204, "homepage": "https://clawhub.ai/theshadowrose/cron-forge", "iconUrl": null, "installs": 22, "name": "Cron Forge", "ownerName": "theshadowrose", "score": 89867.84140969162, "slug": "cron-forge", "source": "clawhub", "stars": 0, "tags": ["automation", "cron", "scheduling", "tasks", "timing"], "updated_at": 1776749171948, "version": "1.0.0"}, {"category": "content-creation", "created_at": 1773082842933, "description": "Turn messy recordings, transcripts, voice notes, or brain dumps into clean, team-ready Standard Operating Procedures (SOPs). Use when you have Loom videos, m...", "description_zh": "", "downloads": 203, "homepage": "https://clawhub.ai/jk-0001/sop-generator", "iconUrl": null, "installs": 23, "name": "Sop Generator", "ownerName": "jk-0001", "score": 89558.23293172692, "slug": "sop-generator", "source": "clawhub", "stars": 1, "tags": null, "updated_at": 1776749270676, "version": "0.1.0"}, {"category": "productivity", "created_at": 1773221796855, "description": "Customize resumes and generate cover letters based on a specific job description (JD). Use this skill whenever the user wants to tailor their resume to a job...", "description_zh": "", "downloads": 203, "homepage": "https://clawhub.ai/suntianchong/resume-tailor", "iconUrl": null, "installs": 24, "name": "Resume Tailor — JD-Matched Resume & Cover Letter", "ownerName": "suntianchong", "score": 68404.90797546013, "slug": "resume-tailor", "source": "clawhub", "stars": 1, "tags": ["ats", "career", "cover-letter", "cv", "hiring", "job-application", "job-search", "productivity", "resume"], "updated_at": 1776749270245, "version": "1.0.0"}, {"category": "productivity", "created_at": 1773207502147, "description": "Complete grant intelligence system for individuals, nonprofits, startups, researchers, and small businesses. Trigger whenever someone needs to find grants, w...", "description_zh": "", "downloads": 203, "homepage": "https://clawhub.ai/duclawbot/grant", "iconUrl": null, "installs": 8, "name": "Grant", "ownerName": "duclawbot", "score": 1211.867948182198, "slug": "grant", "source": "clawhub", "stars": 0, "tags": ["application", "funding", "government", "grant", "nonprofit"], "updated_at": 1776770171094, "version": "1.0.0"}, {"category": "data-analysis", "created_at": 1773287871196, "description": "Real-time stock market data via QuoteNode API. Query quotes, K-lines, tick trades, Level-2 depth, and trading calendars for US/HK/CN markets.", "description_zh": "", "downloads": 203, "homepage": "https://clawhub.ai/fengxiaozi-liu/datatk-quote", "iconUrl": null, "installs": 25, "name": "Global Market Feed", "ownerName": "fengxiaozi-liu", "score": 1725.4568635784103, "slug": "datatk-quote", "source": "clawhub", "stars": 0, "tags": null, "updated_at": 1776769271244, "version": "1.0.1"}, {"category": "", "created_at": 1774799469324, "description": "Analyze marketing campaign data to generate performance reports and optimization recommendations", "description_zh": "", "downloads": 203, "homepage": "https://clawhub.ai/1970168137/marketing-analytics", "iconUrl": null, "installs": 8, "name": "Marketing Analytics", "ownerName": "1970168137", "score": 2714.6295801016313, "slug": "marketing-analytics", "source": "clawhub", "stars": 0, "tags": null, "updated_at": 1776766450150, "version": "1.0.0"}, {"category": "content-creation", "created_at": 1773430446466, "description": "Helps users discover and install agent skills when they ask questions like how do I do X. And also 50+ models for image generation, video generation, text-to...", "description_zh": "", "downloads": 203, "homepage": "https://clawhub.ai/quincygunter/discover-skills", "iconUrl": null, "installs": 46, "name": "Find Skills", "ownerName": "quincygunter", "score": 2251.053448658239, "slug": "discover-skills", "source": "clawhub", "stars": 0, "tags": null, "updated_at": 1776764350566, "version": "1.0.0"}, {"category": "developer-tools", "created_at": 1773076306948, "description": "Track and log AI API usage across providers, calculate costs, and generate daily, weekly, or monthly reports filtered by model and task type.", "description_zh": "", "downloads": 203, "homepage": "https://clawhub.ai/punkaze/usage-tracker", "iconUrl": null, "installs": 6, "name": "Usage Tracker", "ownerName": "punkaze", "score": 15484.363081617086, "slug": "usage-tracker", "source": "clawhub", "stars": 0, "tags": null, "updated_at": 1776759498394, "version": "1.0.0"}, {"category": "data-analysis", "created_at": 1773435080166, "description": "Designs full, executable network pharmacology and molecular mechanism research plans for TCM/herbal medicine targeting specific diseases with justified metho...", "description_zh": "", "downloads": 203, "homepage": "https://clawhub.ai/aipoch-ai/tcm-biomedical-research-strategist", "iconUrl": null, "installs": 32, "name": "Tcm Biomedical Research Strategist", "ownerName": "aipoch-ai", "score": 15496.18320610687, "slug": "tcm-biomedical-research-strategist", "source": "clawhub", "stars": 0, "tags": null, "updated_at": 1776759498187, "version": "0.1.1"}, {"category": "communication-collaboration", "created_at": 1773089547481, "description": "AI-powered WhatsApp auto-responder for MY/SG SMEs. Bilingual BM/EN or CN/EN. Handles appointments, FAQ, orders.", "description_zh": "", "downloads": 203, "homepage": "https://clawhub.ai/wms2537/sea-whatsapp-business-bot", "iconUrl": null, "installs": 17, "name": "SEA WhatsApp Business Bot", "ownerName": "wms2537", "score": 15460.776846915462, "slug": "sea-whatsapp-business-bot", "source": "clawhub", "stars": 0, "tags": null, "updated_at": 1776759498153, "version": "2.0.0"}, {"category": "ai-intelligence", "created_at": 1773426258191, "description": "Evaluate agent quality and reliability with practical scorecards: accuracy, relevance, actionability, risk flags, tool-call failures, regression checks, and...", "description_zh": "", "downloads": 203, "homepage": "https://clawhub.ai/vassiliylakhonin/agent-evals-lab", "iconUrl": null, "installs": 23, "name": "AI Agent Evals Lab", "ownerName": "vassiliylakhonin", "score": 15496.18320610687, "slug": "agent-evals-lab", "source": "clawhub", "stars": 0, "tags": ["agent", "ai", "benchmarking", "evaluation", "quality", "testing"], "updated_at": 1776759498076, "version": "0.3.2"}, {"category": "security-compliance", "created_at": 1773069929626, "description": "Manage Notion pages locally as Markdown: pull, edit with JSON patches, write changes, submit edits with rollback, and handle API authentication via solid-not...", "description_zh": "", "downloads": 203, "homepage": "https://clawhub.ai/vincentdchan/solid-notion", "iconUrl": null, "installs": 16, "name": "solid-notion", "ownerName": "vincentdchan", "score": 15496.18320610687, "slug": "solid-notion", "source": "clawhub", "stars": 0, "tags": null, "updated_at": 1776759498070, "version": "0.1.1"}, {"category": "ai-intelligence", "created_at": 1773434874284, "description": "Generates structured research designs for non-tumor biomedical machine learning studies, focusing on diagnostic models, biomarker discovery, and mechanism an...", "description_zh": "", "downloads": 203, "homepage": "https://clawhub.ai/aipoch-ai/non-tumor-ml-research-planner", "iconUrl": null, "installs": 48, "name": "Non Tumor Ml Research Planner", "ownerName": "aipoch-ai", "score": 15508.021390374333, "slug": "non-tumor-ml-research-planner", "source": "clawhub", "stars": 0, "tags": null, "updated_at": 1776759497850, "version": "0.1.0"}, {"category": "security-compliance", "created_at": 1773088462869, "description": "Connect to 100+ APIs (Google Workspace, Microsoft 365, Notion, Slack, Airtable, HubSpot, etc.) with managed OAuth. Use this skill when users want to interact...", "description_zh": "", "downloads": 203, "homepage": "https://clawhub.ai/tonymd323/api-gateway-bak", "iconUrl": null, "installs": 24, "name": "Api Gateway.Bak", "ownerName": "tonymd323", "score": 15508.021390374333, "slug": "api-gateway-bak", "source": "clawhub", "stars": 0, "tags": null, "updated_at": 1776759497847, "version": "1.0.0"}, {"category": "security-compliance", "created_at": 1773067834906, "description": "Manages vendor insurance compliance through collection, validation, scoring, and remediation of certificates of insurance with alerts and action steps.", "description_zh": "", "downloads": 203, "homepage": "https://clawhub.ai/flynndavid/coi-insurance-compliance-tracker", "iconUrl": null, "installs": 8, "name": "coi-insurance-compliance-tracker", "ownerName": "flynndavid", "score": 15508.021390374333, "slug": "coi-insurance-compliance-tracker", "source": "clawhub", "stars": 0, "tags": null, "updated_at": 1776759497816, "version": "1.0.0"}, {"category": "content-creation", "created_at": 1773088164434, "description": "Turn 1–9 images into platform-specific captions + mood-matched music hints, then route to mock/dry-run/real publishers with publish logs.", "description_zh": "", "downloads": 203, "homepage": "https://clawhub.ai/milab-bit/distribution-agent-publisher-pack", "iconUrl": null, "installs": 23, "name": "Distribution Agent — Publisher Pack", "ownerName": "milab-bit", "score": 11111.111111111111, "slug": "distribution-agent-publisher-pack", "source": "clawhub", "stars": 0, "tags": null, "updated_at": 1776754688660, "version": "1.0.0"}, {"category": "productivity", "created_at": 1773069267913, "description": "Helps set up C# library projects that provide nodes to vvvv gamma — project directory structure, Initialization.cs with AssemblyInitializer, service registra...", "description_zh": "", "downloads": 203, "homepage": "https://clawhub.ai/tebjan/vvvv-node-libraries", "iconUrl": null, "installs": 22, "name": "Vvvv Node Libraries", "ownerName": "tebjan", "score": 53421.05263157895, "slug": "vvvv-node-libraries", "source": "clawhub", "stars": 0, "tags": null, "updated_at": 1776749271055, "version": "1.0.1"}, {"category": "security-compliance", "created_at": 1773065986769, "description": "Manage secrets via Bitwarden CLI (bw). Use when pulling secrets into a shell session, creating/updating Secure Notes from .env files, listing vault items, or...", "description_zh": "", "downloads": 203, "homepage": "https://clawhub.ai/stevengonsalvez/bitwarden-bwe", "iconUrl": null, "installs": 0, "name": "Bitwarden", "ownerName": "stevengonsalvez", "score": 94859.81308411216, "slug": "bitwarden-bwe", "source": "clawhub", "stars": 0, "tags": ["bitwarden", "cli", "secrets", "security"], "updated_at": 1776749270905, "version": "1.1.0"}, {"category": "developer-tools", "created_at": 1773075794983, "description": "Convert currencies, physical units, and encodings between formats.", "description_zh": "", "downloads": 203, "homepage": "https://clawhub.ai/cutthemustard/convert-units", "iconUrl": null, "installs": 7, "name": "Convert Units", "ownerName": "cutthemustard", "score": 94859.81308411216, "slug": "convert-units", "source": "clawhub", "stars": 0, "tags": null, "updated_at": 1776749270884, "version": "1.0.0"}, {"category": "productivity", "created_at": 1773060967245, "description": "Explores new planets and manages fleet movement in Structs. Use when discovering new planets, moving fleet to a new location, expanding territory, relocating...", "description_zh": "", "downloads": 203, "homepage": "https://clawhub.ai/abstrct/structs-exploration", "iconUrl": null, "installs": 4, "name": "Structs Exploration", "ownerName": "abstrct", "score": 81526.1044176707, "slug": "structs-exploration", "source": "clawhub", "stars": 0, "tags": null, "updated_at": 1776749270660, "version": "1.1.0"}, {"category": "security-compliance", "created_at": 1772802165555, "description": "Run a weekly token-optimization audit for durable instruction files in any OpenClaw workspace, generate a markdown report, and propose approval-gated cleanup...", "description_zh": "", "downloads": 203, "homepage": "https://clawhub.ai/andyylin/durable-files-weekly-review-public", "iconUrl": null, "installs": 5, "name": "Durable Files Weekly Review (Public)", "ownerName": "andyylin", "score": 81526.1044176707, "slug": "durable-files-weekly-review-public", "source": "clawhub", "stars": 0, "tags": ["documentation", "openclaw", "ops", "token-optimization"], "updated_at": 1776749270637, "version": "1.0.0"}, {"category": "content-creation", "created_at": 1773888482636, "description": "Create videos from a text prompt using HeyGen's Video Agent. Use when: (1) Creating a video from a description or idea, (2) Generating explainer, demo, or ma...", "description_zh": "", "downloads": 203, "homepage": "https://clawhub.ai/michaelwang11394/create-video", "iconUrl": null, "installs": 23, "name": "Create Video", "ownerName": "michaelwang11394", "score": 87878.78787878787, "slug": "create-video", "source": "clawhub", "stars": 0, "tags": ["ai-video", "heygen", "prompt-to-video", "text-to-video", "video", "video-agent", "video-generation"], "updated_at": 1776749270507, "version": "2.21.0"}, {"category": "productivity", "created_at": 1773090538112, "description": "Immigration process guidance and application organization with strict privacy boundaries. Use when user mentions moving to another country, visa applications...", "description_zh": "", "downloads": 203, "homepage": "https://clawhub.ai/agistack/immigration", "iconUrl": null, "installs": 7, "name": "Immigration", "ownerName": "agistack", "score": 91441.44144144144, "slug": "immigration", "source": "clawhub", "stars": 0, "tags": ["immigration", "relocation", "residency", "visa", "work-permit"], "updated_at": 1776749270270, "version": "2.0.0"}, {"category": "ai-intelligence", "created_at": 1773081033582, "description": "Captures learnings, errors, and corrections to enable continuous improvement. Use when: (1) A command or operation fails unexpectedly, (2) User corrects Clau...", "description_zh": "", "downloads": 203, "homepage": "https://clawhub.ai/f1zzyw/s1kasl-askdjna", "iconUrl": null, "installs": 22, "name": "ksdsl-skilll", "ownerName": "f1zzyw", "score": 62269.93865030674, "slug": "s1kasl-askdjna", "source": "clawhub", "stars": 0, "tags": null, "updated_at": 1776749270231, "version": "1.0.0"}, {"category": "data-analysis", "created_at": 1773078586486, "description": "AI Agent usage tracking and billing verification tool", "description_zh": "", "downloads": 203, "homepage": "https://clawhub.ai/jeterwang/usage-tracker-clawhub", "iconUrl": null, "installs": 5, "name": "Usage Tracker", "ownerName": "jeterwang", "score": 62269.93865030674, "slug": "usage-tracker-clawhub", "source": "clawhub", "stars": 0, "tags": ["billing", "payment", "tracking"], "updated_at": 1776749270228, "version": "1.0.1"}, {"category": "developer-tools", "created_at": 1773068173635, "description": "Multi-agent development team workflow skill. Use when coordinating complex development tasks requiring multiple specialized roles - PM, Architect, Developer,...", "description_zh": "", "downloads": 203, "homepage": "https://clawhub.ai/russellfei/class-seven", "iconUrl": null, "installs": 5, "name": "Class Seven", "ownerName": "russellfei", "score": 91441.44144144144, "slug": "class-seven", "source": "clawhub", "stars": 0, "tags": null, "updated_at": 1776749270159, "version": "1.0.0"}, {"category": "developer-tools", "created_at": 1773066703544, "description": "Migrate Dialogflow CX agents to CX Agent Studio (CES) using official REST/RPC APIs. Exports full CX agent packages, validates components (intents, entities,...", "description_zh": "", "downloads": 203, "homepage": "https://clawhub.ai/yash-kavaiya/dialogflow-cx-to-agent-studio-migration", "iconUrl": null, "installs": 7, "name": "Dialogflow CX to CX Agent Studio Migration Skill", "ownerName": "yash-kavaiya", "score": 91441.44144144144, "slug": "dialogflow-cx-to-agent-studio-migration", "source": "clawhub", "stars": 0, "tags": ["cx", "dialogflow"], "updated_at": 1776749270138, "version": "1.0.0"}, {"category": "security-compliance", "created_at": 1773075303354, "description": "Gateway authentication hardening and credentials audit pack. Validates device auth, Baileys credentials, webhook HMAC signatures, log configuration, and work...", "description_zh": "", "downloads": 203, "homepage": "https://clawhub.ai/romainsantoli-web/firm-gateway-hardening-pack", "iconUrl": null, "installs": 9, "name": "Firm Gateway Hardening Pack", "ownerName": "romainsantoli-web", "score": 94859.81308411216, "slug": "firm-gateway-hardening-pack", "source": "clawhub", "stars": 0, "tags": null, "updated_at": 1776749270052, "version": "1.0.0"}, {"category": "productivity", "created_at": 1773078137773, "description": "Hash, HMAC, encode/decode, UUID generation, and hash identification.", "description_zh": "", "downloads": 203, "homepage": "https://clawhub.ai/cutthemustard/hash-generate", "iconUrl": null, "installs": 4, "name": "Hash Generate", "ownerName": "cutthemustard", "score": 97596.15384615384, "slug": "hash-generate", "source": "clawhub", "stars": 0, "tags": null, "updated_at": 1776749269910, "version": "1.0.0"}, {"category": "security-compliance", "created_at": 1773075596192, "description": "Generate comprehensive API smoke test suites — categorised tests for auth, CRUD, integrations, cached vs live endpoints, with summary reporting. Use when val...", "description_zh": "", "downloads": 203, "homepage": "https://clawhub.ai/nissan/smoke-test-generator", "iconUrl": null, "installs": 6, "name": "Smoke Test Generator", "ownerName": "nissan", "score": 96666.66666666667, "slug": "smoke-test-generator", "source": "clawhub", "stars": 0, "tags": null, "updated_at": 1776749269889, "version": "1.0.0"}, {"category": "", "created_at": 1773202878455, "description": "Stock sentiment analysis and financial data for US equity research. Analyze multi-engine AI sentiment (Grok, DeepSeek, GPT-5), earnings call transcripts, soc...", "description_zh": "", "downloads": 203, "homepage": "https://clawhub.ai/haiyang0932/stock-sentiment", "iconUrl": null, "installs": 47, "name": "Alphafactoryx", "ownerName": "haiyang0932", "score": 88646.28820960698, "slug": "stock-sentiment", "source": "clawhub", "stars": 0, "tags": null, "updated_at": 1776749269585, "version": "1.1.2"}, {"category": "productivity", "created_at": 1773429547920, "description": "Autonomous structured learning for mastering complex topics through cron-based 5-session feedback loops. Use when user wants to deeply learn a subject (e.g.,...", "description_zh": "", "downloads": 203, "homepage": "https://clawhub.ai/sagarmainkar/learning-loop-skill", "iconUrl": null, "installs": 12, "name": "Learning Loop - GEARS System", "ownerName": "sagarmainkar", "score": 91441.44144144144, "slug": "learning-loop-skill", "source": "clawhub", "stars": 0, "tags": null, "updated_at": 1776749172288, "version": "1.0.0"}, {"category": "ai-intelligence", "created_at": 1773084367660, "description": "Multi-agent orchestration via Mistral's Agents API — register agents, manage conversations, delegate via handoffs, bind function calling tools. Use when buil...", "description_zh": "", "downloads": 203, "homepage": "https://clawhub.ai/nissan/mistral-agents-orchestrator", "iconUrl": null, "installs": 15, "name": "Mistral Agents Orchestrator", "ownerName": "nissan", "score": 91441.44144144144, "slug": "mistral-agents-orchestrator", "source": "clawhub", "stars": 0, "tags": null, "updated_at": 1776749172282, "version": "1.0.0"}, {"category": "data-analysis", "created_at": 1773066371586, "description": "A cognitive bias interceptor for debugging sessions. Detects when you're seeing patterns that aren't there, chasing red herrings, or letting confirmation bia...", "description_zh": "", "downloads": 203, "homepage": "https://clawhub.ai/jcools1977/apophenia-guard", "iconUrl": null, "installs": 7, "name": "Apophenia Guard", "ownerName": "jcools1977", "score": 91441.44144144144, "slug": "apophenia-guard", "source": "clawhub", "stars": 0, "tags": null, "updated_at": 1776749172247, "version": "1.0.0"}, {"category": "developer-tools", "created_at": 1773075375288, "description": "End-to-end Solana development playbook (Jan 2026). Prefer Solana Foundation framework-kit (@solana/client + @solana/react-hooks) for React/Next.js UI. Prefer...", "description_zh": "", "downloads": 203, "homepage": "https://clawhub.ai/edsoneras/solana-trade", "iconUrl": null, "installs": 6, "name": "Solana Trade", "ownerName": "edsoneras", "score": 90222.22222222222, "slug": "solana-trade", "source": "clawhub", "stars": 0, "tags": null, "updated_at": 1776749172207, "version": "1.0.0"}, {"category": "communication-collaboration", "created_at": 1773077497573, "description": "Generate a personalized coffee chat playbook for networking conversations. Use when: - User wants to prepare for a coffee chat with someone they met on Linke...", "description_zh": "", "downloads": 203, "homepage": "https://clawhub.ai/gloriathepenguin/coffee-chat", "iconUrl": null, "installs": 8, "name": "Coffee Chat Playbook Generator", "ownerName": "gloriathepenguin", "score": 90222.22222222222, "slug": "coffee-chat", "source": "clawhub", "stars": 0, "tags": ["coffee-chat", "networking", "playbook", "research"], "updated_at": 1776749172177, "version": "1.0.0"}, {"category": "communication-collaboration", "created_at": 1773066248251, "description": "Forward trading alerts and webhook events from TradingView to Telegram instantly. No subscriptions, no middlemen.", "description_zh": "", "downloads": 203, "homepage": "https://clawhub.ai/shinzzyak/signallink", "iconUrl": null, "installs": 9, "name": "Signallink", "ownerName": "shinzzyak", "score": 90222.22222222222, "slug": "signallink", "source": "clawhub", "stars": 0, "tags": null, "updated_at": 1776749172142, "version": "0.1.0"}]}