{"page": 302, "total_pages": 522, "total": 26073, "skills": [{"category": "communication-collaboration", "created_at": 1773080424384, "description": "Read, search, and manage Outlook emails and calendar via Microsoft Graph API. Use when the user asks about emails, inbox, Outlook, Microsoft mail, calendar e...", "description_zh": "", "downloads": 203, "homepage": "https://clawhub.ai/mts-blake-lucas/outlook-365", "iconUrl": null, "installs": 20, "name": "Outlook for Work/School 365", "ownerName": "mts-blake-lucas", "score": 90222.22222222222, "slug": "outlook-365", "source": "clawhub", "stars": 0, "tags": null, "updated_at": 1776749172138, "version": "1.0.0"}, {"category": "data-analysis", "created_at": 1773066139572, "description": "Metacognitive pre-execution analysis — teaches the agent to see what ISN'T there before acting on what IS. Zero-cost reasoning skill that reduces wasted turn...", "description_zh": "", "downloads": 203, "homepage": "https://clawhub.ai/jcools1977/negative-space", "iconUrl": null, "installs": 6, "name": "Negative Space", "ownerName": "jcools1977", "score": 90222.22222222222, "slug": "negative-space", "source": "clawhub", "stars": 0, "tags": null, "updated_at": 1776749172134, "version": "1.0.0"}, {"category": "productivity", "created_at": 1773067622614, "description": "Control JOOX music playback via web browser automation. Search songs/artists/albums/playlists, play music, control playback, browse charts, manage playlists....", "description_zh": "", "downloads": 203, "homepage": "https://clawhub.ai/zhuoyitao/joox-music-player", "iconUrl": null, "installs": 14, "name": "joox-music-player", "ownerName": "zhuoyitao", "score": 89823.00884955752, "slug": "joox-music-player", "source": "clawhub", "stars": 0, "tags": ["joox music song beta-version"], "updated_at": 1776749172126, "version": "0.0.1"}, {"category": "data-analysis", "created_at": 1773065702348, "description": "Perform web searches using Alibaba Cloud UnifiedSearch API. Provides advanced search capabilities with configurable parameters.", "description_zh": "", "downloads": 203, "homepage": "https://clawhub.ai/leowing/aliyun-search-1-0-0", "iconUrl": null, "installs": 22, "name": "Aliyun Search 1.0.0", "ownerName": "leowing", "score": 89823.00884955752, "slug": "aliyun-search-1-0-0", "source": "clawhub", "stars": 0, "tags": null, "updated_at": 1776749172091, "version": "1.0.0"}, {"category": "data-analysis", "created_at": 1773083406108, "description": "Searchable conversation memory that survives context compaction. Indexes session transcripts into SQLite with full-text and semantic search so your agent can...", "description_zh": "", "downloads": 202, "homepage": "https://clawhub.ai/rodbland2021/claw-recall", "iconUrl": null, "installs": 9, "name": "Claw Recall", "ownerName": "rodbland2021", "score": 58421.052631578954, "slug": "claw-recall", "source": "clawhub", "stars": 1, "tags": ["compaction", "context", "conversation", "memory", "multi-agent", "recall", "search"], "updated_at": 1776749271034, "version": "2.1.2"}, {"category": "data-analysis", "created_at": 1773069293621, "description": "Real-time BTC Orderbook Imbalance (OBI) tracking for professional traders. Detects high-conviction whale activity before it hits the tape. Powered by Soverei...", "description_zh": "", "downloads": 202, "homepage": "https://clawhub.ai/tmstudio667-commits/whale-pulse-monitor", "iconUrl": null, "installs": 14, "name": "Whale Pulse Monitor", "ownerName": "tmstudio667-commits", "score": 100000, "slug": "whale-pulse-monitor", "source": "clawhub", "stars": 1, "tags": ["alpha", "finance", "trading"], "updated_at": 1776749270145, "version": "1.0.0"}, {"category": "developer-tools", "created_at": 1773079988142, "description": "The complete autonomous agent stack for Claude Code — APEX cognitive framework, MEMORIA persistent memory, and ARCHITECT goal execution engine — bundled into...", "description_zh": "", "downloads": 202, "homepage": "https://clawhub.ai/contrario/apex-stack-claude-code", "iconUrl": null, "installs": 15, "name": "APEX STACK for Claude Code: Complete Autonomous Developer Agent", "ownerName": "contrario", "score": 100000, "slug": "apex-stack-claude-code", "source": "clawhub", "stars": 1, "tags": ["apex", "autonomous", "claude", "claude-code", "developer", "framework", "memory", "productivity"], "updated_at": 1776749269551, "version": "1.0.1"}, {"category": "data-analysis", "created_at": 1773084182497, "description": "Verify, inspect, and retrieve verified Solidity smart contracts, ABIs, and compiler/EVM versions on the QELT blockchain using the Mainnet Indexer API.", "description_zh": "", "downloads": 202, "homepage": "https://clawhub.ai/prqelt/qelt-contracts", "iconUrl": null, "installs": 9, "name": "Qelt Contracts", "ownerName": "prqelt", "score": 1608.152217180161, "slug": "qelt-contracts", "source": "clawhub", "stars": 0, "tags": null, "updated_at": 1776768249743, "version": "0.1.0"}, {"category": "developer-tools", "created_at": 1773931572921, "description": "Use pip for Python package install, upgrade, freeze, and dependency file workflows with virtual environments first. Use when handling requirements.txt, pip i...", "description_zh": "", "downloads": 202, "homepage": "https://clawhub.ai/jvy/pip", "iconUrl": null, "installs": 32, "name": "pip", "ownerName": "jvy", "score": 3062.4620982413585, "slug": "pip", "source": "clawhub", "stars": 0, "tags": null, "updated_at": 1776766871072, "version": "1.0.0"}, {"category": "", "created_at": 1774857196379, "description": "Plans a new software project by gathering requirements through structured questions before producing a plan. Use when the user says \"I want to build\", \"help...", "description_zh": "", "downloads": 202, "homepage": "https://clawhub.ai/dapan0902/project-planner-new", "iconUrl": null, "installs": 60, "name": "软件项目开发规划助手", "ownerName": "dapan0902", "score": 4092.382495948136, "slug": "project-planner-new", "source": "clawhub", "stars": 0, "tags": null, "updated_at": 1776764650425, "version": "1.0.2"}, {"category": "", "created_at": 1774825637503, "description": "Convert PDFs to PPTX slides or editable DOCX files with configurable image quality, DPI, file size limit, and batch processing support.", "description_zh": "", "downloads": 202, "homepage": "https://clawhub.ai/cscsxx606/pdf-converter", "iconUrl": null, "installs": 54, "name": "Pdf Converter", "ownerName": "cscsxx606", "score": 6470.211402946829, "slug": "pdf-converter", "source": "clawhub", "stars": 0, "tags": null, "updated_at": 1776761445466, "version": "0.1.0"}, {"category": "data-analysis", "created_at": 1773426579868, "description": "Discover, filter, and select free or low-cost AI models from OpenRouter for OpenClaw and other agent workflows based on context, price, and capabilities.", "description_zh": "", "downloads": 202, "homepage": "https://clawhub.ai/qidu/free-models-for-openclaw", "iconUrl": null, "installs": 12, "name": "Free Models for OpenClaw and other Agents", "ownerName": "qidu", "score": 94392.52336448598, "slug": "free-models-for-openclaw", "source": "clawhub", "stars": 0, "tags": null, "updated_at": 1776759498461, "version": "0.3.0"}, {"category": "content-creation", "created_at": 1773287245697, "description": "Architect biotech business plans tailored to company type, stage, and disclosure level to align investor presentations with fundraising goals.", "description_zh": "", "downloads": 202, "homepage": "https://clawhub.ai/summerliehu/biotech-bp-architect", "iconUrl": null, "installs": 17, "name": "Biotech BP Architect", "ownerName": "summerliehu", "score": 15419.847328244274, "slug": "biotech-bp-architect", "source": "clawhub", "stars": 0, "tags": null, "updated_at": 1776759498244, "version": "1.0.0"}, {"category": "developer-tools", "created_at": 1773066485608, "description": "Enable intelligent querying of 300+ AI models via Poe API with automatic model selection, task-based routing, and cost-quality optimization.", "description_zh": "", "downloads": 202, "homepage": "https://clawhub.ai/nwcalvin/innotech-poe-api", "iconUrl": null, "installs": 8, "name": "Poe Api", "ownerName": "nwcalvin", "score": 15431.627196333078, "slug": "innotech-poe-api", "source": "clawhub", "stars": 0, "tags": null, "updated_at": 1776759497840, "version": "1.0.0"}, {"category": "", "created_at": 1774838570604, "description": "Track compliance requirements and generate audit trail reports. Use when auditing controls, checking policies, generating audit trails.", "description_zh": "", "downloads": 202, "homepage": "https://clawhub.ai/bytesagain1/compliance", "iconUrl": null, "installs": 3, "name": "Compliance", "ownerName": "bytesagain1", "score": 12132.132132132132, "slug": "compliance", "source": "clawhub", "stars": 0, "tags": null, "updated_at": 1776756488682, "version": "2.0.0"}, {"category": "productivity", "created_at": 1773069278173, "description": "Diagnoses and fixes common vvvv gamma errors in C# nodes, SDSL shaders, and runtime behavior. Use when encountering errors, exceptions, crashes, red nodes, s...", "description_zh": "", "downloads": 202, "homepage": "https://clawhub.ai/tebjan/vvvv-troubleshooting", "iconUrl": null, "installs": 24, "name": "Vvvv Troubleshooting", "ownerName": "tebjan", "score": 68707.48299319728, "slug": "vvvv-troubleshooting", "source": "clawhub", "stars": 0, "tags": null, "updated_at": 1776749271083, "version": "1.0.1"}, {"category": "developer-tools", "created_at": 1773927610654, "description": "Create distinctive, production-grade frontend interfaces with high design quality. Use this skill when the user asks to build web components, pages, artifact...", "description_zh": "", "downloads": 202, "homepage": "https://clawhub.ai/pupuking723/frontend-design-anthropic", "iconUrl": null, "installs": 52, "name": "Frontend Design Anthropic", "ownerName": "pupuking723", "score": 53157.89473684211, "slug": "frontend-design-anthropic", "source": "clawhub", "stars": 0, "tags": null, "updated_at": 1776749271050, "version": "1.0.0"}, {"category": "communication-collaboration", "created_at": 1773217936442, "description": "Launch OpenAI Codex CLI async in background with automatic delivery to Telegram/WhatsApp. Use for coding, refactoring, codebase research, file generation, an...", "description_zh": "", "downloads": 202, "homepage": "https://clawhub.ai/sbrin/codex-code-task", "iconUrl": null, "installs": 19, "name": "OpenAI Codex CLI Runner", "ownerName": "sbrin", "score": 92237.44292237442, "slug": "codex-code-task", "source": "clawhub", "stars": 0, "tags": null, "updated_at": 1776749270770, "version": "1.0.0"}, {"category": "ai-intelligence", "created_at": 1773063237176, "description": "Prevent sessions.json bloat from accumulating isolated sessions (hooks, crons, subagents). Sets up a cron to archive stale sessions to daily JSONL files and...", "description_zh": "", "downloads": 202, "homepage": "https://clawhub.ai/halbotley/session-hygiene", "iconUrl": null, "installs": 14, "name": "Session Hygiene", "ownerName": "halbotley", "score": 96650.71770334929, "slug": "session-hygiene", "source": "clawhub", "stars": 0, "tags": null, "updated_at": 1776749270753, "version": "1.0.0"}, {"category": "ai-intelligence", "created_at": 1773075623791, "description": "Review applications and verify task submissions on OpenAnt. Use when the agent (as task creator) needs to review applicants, accept or reject applications, a...", "description_zh": "", "downloads": 202, "homepage": "https://clawhub.ai/ant-1984/verify-submission", "iconUrl": null, "installs": 10, "name": "Verify Submission", "ownerName": "ant-1984", "score": 87445.88744588745, "slug": "verify-submission", "source": "clawhub", "stars": 0, "tags": null, "updated_at": 1776749270555, "version": "0.1.0"}, {"category": "security-compliance", "created_at": 1773063825349, "description": "Reddit research skill — zero auth, zero dependencies, three data providers. Search posts, read threads with comments, monitor subreddits, analyze users, trac...", "description_zh": "", "downloads": 202, "homepage": "https://clawhub.ai/minilozio/reddit-research-but-free", "iconUrl": null, "installs": 6, "name": "Reddit Research But Free", "ownerName": "minilozio", "score": 77099.23664122137, "slug": "reddit-research-but-free", "source": "clawhub", "stars": 0, "tags": null, "updated_at": 1776749270462, "version": "1.0.0"}, {"category": "productivity", "created_at": 1772804476350, "description": "A universal 4x4 grid sticker generator. uses strict visual guidelines (No Text, Transparent BG) and supports loading theme templates from resources.", "description_zh": "", "downloads": 202, "homepage": "https://clawhub.ai/guanyang/grid-sticker-generator", "iconUrl": null, "installs": 7, "name": "Grid Sticker Generator", "ownerName": "guanyang", "score": 77099.23664122137, "slug": "grid-sticker-generator", "source": "clawhub", "stars": 0, "tags": null, "updated_at": 1776749270430, "version": "1.0.0"}, {"category": "developer-tools", "created_at": 1773868234498, "description": "File comparison and diff viewer tool. Compare two files side-by-side, show colored inline diffs, compare directories, find duplicate files, and generate patc...", "description_zh": "", "downloads": 202, "homepage": "https://clawhub.ai/root/diffview", "iconUrl": null, "installs": 21, "name": "Diffview", "ownerName": "root", "score": 93953.48837209302, "slug": "diffview", "source": "clawhub", "stars": 0, "tags": null, "updated_at": 1776749270412, "version": "1.0.6"}, {"category": "productivity", "created_at": 1773075783467, "description": "Intelligent QA assistant that automates writing test cases from project documentation. Use when the user wants to generate test cases from requirements, runs...", "description_zh": "", "downloads": 202, "homepage": "https://clawhub.ai/johnwayneeee/casely", "iconUrl": null, "installs": 7, "name": "Casely", "ownerName": "johnwayneeee", "score": 93953.48837209302, "slug": "casely", "source": "clawhub", "stars": 0, "tags": null, "updated_at": 1776749270390, "version": "0.1.0"}, {"category": "ai-intelligence", "created_at": 1773069711417, "description": "Verification-first helper for proof checks and optional 0 ETH Base claim submission.", "description_zh": "", "downloads": 202, "homepage": "https://clawhub.ai/alphac007/aap-agent-bounty", "iconUrl": null, "installs": 11, "name": "AAP Agent Bounty", "ownerName": "alphac007", "score": 90990.99099099099, "slug": "aap-agent-bounty", "source": "clawhub", "stars": 0, "tags": ["aap", "agent-bounty", "ai-agents", "base", "claim-to-earn", "eth", "onchain-rewards"], "updated_at": 1776749270308, "version": "1.0.10"}, {"category": "ai-intelligence", "created_at": 1773075060784, "description": "Propose transactions to a Zeal Wallet. Use when the user wants to set up an agent as a Zeal Wallet signer, propose transactions, or manage a delegate wallet.", "description_zh": "", "downloads": 202, "homepage": "https://clawhub.ai/nicvaniek/zeal-agent-wallet", "iconUrl": null, "installs": 9, "name": "Zeal Agent Wallet", "ownerName": "nicvaniek", "score": 90990.99099099099, "slug": "zeal-agent-wallet", "source": "clawhub", "stars": 0, "tags": null, "updated_at": 1776749270267, "version": "1.0.1"}, {"category": "content-creation", "created_at": 1773066124741, "description": "Capture meeting transcripts from Fireflies.ai via polling or webhooks. Auto-fetches transcripts, extracts action items/decisions/summaries, and writes struct...", "description_zh": "", "downloads": 202, "homepage": "https://clawhub.ai/jessewunderlich/meeting-transcripts", "iconUrl": null, "installs": 16, "name": "Meeting Transcripts", "ownerName": "jessewunderlich", "score": 65372.168284789645, "slug": "meeting-transcripts", "source": "clawhub", "stars": 0, "tags": null, "updated_at": 1776749270058, "version": "1.0.0"}, {"category": "ai-intelligence", "created_at": 1773286054255, "description": "Set up, run, compare, and debug StockValuation.io, a local-first DCF valuation platform, including Docker startup, ticker valuations, LLM provider changes, p...", "description_zh": "", "downloads": 202, "homepage": "https://clawhub.ai/softcane/stockvaluation-io", "iconUrl": null, "installs": 38, "name": "StockValuation.io", "ownerName": "softcane", "score": 94392.52336448598, "slug": "stockvaluation-io", "source": "clawhub", "stars": 0, "tags": null, "updated_at": 1776749269996, "version": "1.0.1"}, {"category": "communication-collaboration", "created_at": 1773066054378, "description": "Integrate Didit Email Verification standalone API to verify email addresses via OTP. Use when the user wants to verify emails, send email OTP codes, check em...", "description_zh": "", "downloads": 202, "homepage": "https://clawhub.ai/rosasalberto/didit-email-verification", "iconUrl": null, "installs": 6, "name": "Didit Email Verification", "ownerName": "rosasalberto", "score": 94392.52336448598, "slug": "didit-email-verification", "source": "clawhub", "stars": 0, "tags": null, "updated_at": 1776749269993, "version": "1.2.0"}, {"category": "security-compliance", "created_at": 1773074550953, "description": "Use this skill when a user needs to install, authenticate, or operate the Just Calendar CLI against https://justcalendar.ai, including generating an agent to...", "description_zh": "", "downloads": 202, "homepage": "https://clawhub.ai/andredalmeida/justcalendar", "iconUrl": null, "installs": 6, "name": "JustCalendar", "ownerName": "andredalmeida", "score": 97115.38461538461, "slug": "justcalendar", "source": "clawhub", "stars": 0, "tags": null, "updated_at": 1776749269926, "version": "1.0.2"}, {"category": "security-compliance", "created_at": 1773063602344, "description": "Runtime environment and configuration audit pack. Validates Node.js version, secrets workflow, HTTP headers, allowed commands, trusted proxy, disk budget, an...", "description_zh": "", "downloads": 202, "homepage": "https://clawhub.ai/romainsantoli-web/firm-runtime-audit-pack", "iconUrl": null, "installs": 9, "name": "Firm Runtime Audit Pack", "ownerName": "romainsantoli-web", "score": 96190.4761904762, "slug": "firm-runtime-audit-pack", "source": "clawhub", "stars": 0, "tags": null, "updated_at": 1776749269833, "version": "1.0.0"}, {"category": "content-creation", "created_at": 1773089319284, "description": "Automatically monitor RSS feeds and post to social media. Schedule content, generate posts with AI, and publish to Twitter/LinkedIn.", "description_zh": "", "downloads": 202, "homepage": "https://clawhub.ai/fly3094/rss-to-social", "iconUrl": null, "installs": 12, "name": "RSS to Social Auto-Poster", "ownerName": "fly3094", "score": 92237.44292237442, "slug": "rss-to-social", "source": "clawhub", "stars": 0, "tags": ["automation", "content", "linkedin", "rss", "scheduling", "social-media", "twitter"], "updated_at": 1776749269779, "version": "1.0.0"}, {"category": "developer-tools", "created_at": 1773063123954, "description": "Fetch DMM/FANZA public rankings (daily/weekly/monthly) without API keys and output top 10 in numbered text format with Japanese title, Chinese translation, a...", "description_zh": "", "downloads": 202, "homepage": "https://clawhub.ai/leeeroyjoy-pixel/dmm-ranking-lite", "iconUrl": null, "installs": 6, "name": "DMM Ranking Lite", "ownerName": "leeeroyjoy-pixel", "score": 88209.60698689955, "slug": "dmm-ranking-lite", "source": "clawhub", "stars": 0, "tags": null, "updated_at": 1776749269580, "version": "0.1.0"}, {"category": "security-compliance", "created_at": 1773222858391, "description": "GoPlus AgentGuard — AI agent security guard. Automatically blocks dangerous commands, prevents data leaks, and protects secrets. Use when reviewing third-par...", "description_zh": "", "downloads": 201, "homepage": "https://clawhub.ai/0xbeekeeper/goplus-agentguard", "iconUrl": null, "installs": 28, "name": "GoPlus AgentGuard", "ownerName": "0xbeekeeper", "score": 1787.7790625277953, "slug": "goplus-agentguard", "source": "clawhub", "stars": 0, "tags": null, "updated_at": 1776769271327, "version": "1.1.0"}, {"category": "communication-collaboration", "created_at": 1773217998510, "description": "A comprehensive AI agent skill for managing the full spectrum of incoming messages across email, chat, and other communication channels. Triages by urgency a...", "description_zh": "", "downloads": 201, "homepage": "https://clawhub.ai/ethagent/messages", "iconUrl": null, "installs": 7, "name": "Messages", "ownerName": "ethagent", "score": 18767.50700280112, "slug": "messages", "source": "clawhub", "stars": 0, "tags": ["communication", "inbox", "messages", "replies", "triage"], "updated_at": 1776769190476, "version": "1.0.0"}, {"category": "ai-intelligence", "created_at": 1773089064022, "description": "Access to RDK X5 /app folder resources including GPIO, multimedia, AI samples. Invoke when user wants to run embedded demos or control hardware on RDK X5.", "description_zh": "", "downloads": 201, "homepage": "https://clawhub.ai/zh1fen/rdkx5-app-resources", "iconUrl": null, "installs": 17, "name": "RDK X5 App Resources", "ownerName": "zh1fen", "score": 23730.814639905548, "slug": "rdkx5-app-resources", "source": "clawhub", "stars": 0, "tags": ["ai", "camera", "embedded", "gpio", "rdkx5", "robotics"], "updated_at": 1776766750037, "version": "1.0.0"}, {"category": "content-creation", "created_at": 1773069079484, "description": "Generate images with free credits. Flux, DALL-E, and more. No credit card to start. No API keys needed. $2 FREE credits to start. Pay-as-you-go via SkillBoss.", "description_zh": "", "downloads": 201, "homepage": "https://clawhub.ai/xiaoyinqu/free-image-gen", "iconUrl": null, "installs": 22, "name": "Free Image Gen", "ownerName": "xiaoyinqu", "score": 2373.0814639905548, "slug": "free-image-gen", "source": "clawhub", "stars": 0, "tags": null, "updated_at": 1776766490456, "version": "1.0.0"}, {"category": "productivity", "created_at": 1773218174915, "description": "A comprehensive AI agent skill for navigating compensation conversations. Researches market rates, builds negotiation strategies, prepares scripts, evaluates...", "description_zh": "", "downloads": 201, "homepage": "https://clawhub.ai/ethagent/salary", "iconUrl": null, "installs": 22, "name": "Salary", "ownerName": "ethagent", "score": 2990.181493603094, "slug": "salary", "source": "clawhub", "stars": 0, "tags": ["career", "compensation", "negotiation", "offers", "salary"], "updated_at": 1776765671265, "version": "1.0.0"}, {"category": "ai-intelligence", "created_at": 1773068189941, "description": "This skill should be used when writing Ruby and Rails code in DHH's distinctive 37signals style. It applies when writing Ruby code, Rails applications, creat...", "description_zh": "", "downloads": 201, "homepage": "https://clawhub.ai/pixelxiao/dhh-rails-style", "iconUrl": null, "installs": 16, "name": "Dhh Rails Style", "ownerName": "pixelxiao", "score": 3076.216712580349, "slug": "dhh-rails-style", "source": "clawhub", "stars": 0, "tags": null, "updated_at": 1776762850872, "version": "0.1.0"}, {"category": "communication-collaboration", "created_at": 1773290762535, "description": "Accept text or voice input, transcribe if needed, generate natural OpenAI TTS speech, and send audio output to Feishu chat or web player.", "description_zh": "", "downloads": 201, "homepage": "https://clawhub.ai/pengzhuowen/feishu-voice-loop", "iconUrl": null, "installs": 16, "name": "Feishu Voice Loop", "ownerName": "pengzhuowen", "score": 15343.51145038168, "slug": "feishu-voice-loop", "source": "clawhub", "stars": 0, "tags": ["audio", "feishu", "openai", "stt", "tts", "voice"], "updated_at": 1776759498193, "version": "1.0.0"}, {"category": "content-creation", "created_at": 1773077588581, "description": "Suite of shell scripts for developers to generate Chrome extensions, GitHub READMEs, SaaS landing pages, tech blogs, tweet threads, and automate code reviews.", "description_zh": "", "downloads": 201, "homepage": "https://clawhub.ai/sunshine-del-ux/my-awesome-tools", "iconUrl": null, "installs": 11, "name": "My Awesome Tools", "ownerName": "sunshine-del-ux", "score": 15343.51145038168, "slug": "my-awesome-tools", "source": "clawhub", "stars": 0, "tags": null, "updated_at": 1776759498070, "version": "1.0.0"}, {"category": "developer-tools", "created_at": 1773431128927, "description": "A comprehensive ClawHub skill installer that bypasses API rate limits. Search, install single skills, or batch install multiple skills with automatic retry l...", "description_zh": "", "downloads": 201, "homepage": "https://clawhub.ai/sunnyhot/sunnyhot-skill-installer", "iconUrl": null, "installs": 33, "name": "Skill Installer", "ownerName": "sunnyhot", "score": 15343.51145038168, "slug": "sunnyhot-skill-installer", "source": "clawhub", "stars": 0, "tags": null, "updated_at": 1776759498058, "version": "1.2.0"}, {"category": "ai-intelligence", "created_at": 1773285857031, "description": "Automatically detects errors, researches solutions, executes improvements, and measures impact while remembering effective procedures for continuous self-imp...", "description_zh": "", "downloads": 201, "homepage": "https://clawhub.ai/mopga/self-evalutaed-agent", "iconUrl": null, "installs": 31, "name": "self-evalutaed-agent", "ownerName": "mopga", "score": 15285.171102661596, "slug": "self-evalutaed-agent", "source": "clawhub", "stars": 0, "tags": null, "updated_at": 1776759497998, "version": "1.0.0"}, {"category": "security-compliance", "created_at": 1773080446154, "description": "Generates a structured marketing audit report from aggregated data using a single GPT-4.1-mini API call with six predefined sections.", "description_zh": "", "downloads": 201, "homepage": "https://clawhub.ai/adarshvmore/report-generator-adarsh", "iconUrl": null, "installs": 10, "name": "Report Generator Adarsh", "ownerName": "adarshvmore", "score": 15285.171102661596, "slug": "report-generator-adarsh", "source": "clawhub", "stars": 0, "tags": null, "updated_at": 1776759497975, "version": "1.0.0"}, {"category": "data-analysis", "created_at": 1773213547838, "description": "The Consensus and Arbitration Primitive. A multi-agent deliberation framework designed to resolve complex disputes and validate truth claims through probabil...", "description_zh": "", "downloads": 201, "homepage": "https://clawhub.ai/btcagentic/jury", "iconUrl": null, "installs": 9, "name": "Jury", "ownerName": "btcagentic", "score": 15285.171102661596, "slug": "jury", "source": "clawhub", "stars": 0, "tags": ["arbitration", "consensus", "jury", "justice", "legal"], "updated_at": 1776759497969, "version": "1.0.0"}, {"category": "security-compliance", "created_at": 1773082201280, "description": "Implements Git-like workflow for health tracking, allowing users to log data, submit intervention plans for expert review, and audit health events.", "description_zh": "", "downloads": 201, "homepage": "https://clawhub.ai/erinyu/health-git", "iconUrl": null, "installs": 5, "name": "Health Git", "ownerName": "erinyu", "score": 15308.453922315308, "slug": "health-git", "source": "clawhub", "stars": 0, "tags": null, "updated_at": 1776759497930, "version": "1.0.0"}, {"category": "developer-tools", "created_at": 1773083469120, "description": "Generates professional GTA real estate investment financial reports after a 5 USDT payment validation.", "description_zh": "", "downloads": 201, "homepage": "https://clawhub.ai/oakvillechen/gta-real-estate-report", "iconUrl": null, "installs": 5, "name": "GTA Real Estate Report Generator", "ownerName": "oakvillechen", "score": 15308.453922315308, "slug": "gta-real-estate-report", "source": "clawhub", "stars": 0, "tags": null, "updated_at": 1776759497902, "version": "1.0.0"}, {"category": "developer-tools", "created_at": 1773081826048, "description": "Professional Financial Advisor (FA) skill for primary market financing - replaces traditional investment advisory services with AI-powered project assessment...", "description_zh": "", "downloads": 201, "homepage": "https://clawhub.ai/zhenstaff/fa-advisor", "iconUrl": null, "installs": 14, "name": "FA Advisor", "ownerName": "zhenstaff", "score": 15355.233002291827, "slug": "fa-advisor", "source": "clawhub", "stars": 0, "tags": null, "updated_at": 1776759497847, "version": "0.1.0"}, {"category": "developer-tools", "created_at": 1773077494332, "description": "You MUST use this before any creative work - creating features, building components, adding functionality, or modifying behavior. Explores user intent, requi...", "description_zh": "", "downloads": 201, "homepage": "https://clawhub.ai/yunnanwenshan/brainstorming-3", "iconUrl": null, "installs": 6, "name": "Brainstorming", "ownerName": "yunnanwenshan", "score": 12884.615384615383, "slug": "brainstorming-3", "source": "clawhub", "stars": 0, "tags": null, "updated_at": 1776757582843, "version": "0.1.0"}, {"category": "ai-intelligence", "created_at": 1773283149320, "description": "Trade on Polymarket prediction markets. Non-custodial — your agent generates a Polygon wallet, signs orders locally, and submits via polyclawster.com relay (...", "description_zh": "", "downloads": 201, "homepage": "https://clawhub.ai/al1enjesus/polyclawster", "iconUrl": null, "installs": 11, "name": "PolyClawster", "ownerName": "al1enjesus", "score": 12130.356065178034, "slug": "polyclawster", "source": "clawhub", "stars": 0, "tags": null, "updated_at": 1776756488905, "version": "1.5.0"}]}