{"page": 303, "total_pages": 522, "total": 26073, "skills": [{"category": "developer-tools", "created_at": 1773061993082, "description": "The starting skill for AI agents playing Structs. Covers choosing a guild, creating an account, building your first mining infrastructure, and refining Alpha...", "description_zh": "", "downloads": 201, "homepage": "https://clawhub.ai/abstrct/play-structs", "iconUrl": null, "installs": 9, "name": "Play Structs", "ownerName": "abstrct", "score": 9995.027349577325, "slug": "play-structs", "source": "clawhub", "stars": 0, "tags": null, "updated_at": 1776754388416, "version": "1.1.0"}, {"category": "security-compliance", "created_at": 1773065599885, "description": "Audit AWS Security Groups and VPC configurations for dangerous internet exposure", "description_zh": "", "downloads": 201, "homepage": "https://clawhub.ai/anmolnagpal/security-group-auditor", "iconUrl": null, "installs": 9, "name": "Security Group Auditor", "ownerName": "anmolnagpal", "score": 92201.83486238532, "slug": "security-group-auditor", "source": "clawhub", "stars": 0, "tags": null, "updated_at": 1776749271168, "version": "1.0.0"}, {"category": "developer-tools", "created_at": 1773088749097, "description": "Generate tourism itinerary DOCX by replacing only matched itinerary sections inside a provided Chinese template document. Use when the user sends a simplifie...", "description_zh": "", "downloads": 201, "homepage": "https://clawhub.ai/nnswjlll/itinerary-docx-template", "iconUrl": null, "installs": 36, "name": "Itinerary DOCX Template", "ownerName": "nnswjlll", "score": 92201.83486238532, "slug": "itinerary-docx-template", "source": "clawhub", "stars": 0, "tags": null, "updated_at": 1776749271137, "version": "1.0.1"}, {"category": "developer-tools", "created_at": 1773068707278, "description": "Generate a complete client onboarding package from a project description. Creates project brief, tech stack, milestones, folder structure, CLAUDE.md, and a r...", "description_zh": "", "downloads": 201, "homepage": "https://clawhub.ai/kevdogg102396-afk/client-onboard", "iconUrl": null, "installs": 5, "name": "client-onboard", "ownerName": "kevdogg102396-afk", "score": 52894.73684210526, "slug": "client-onboard", "source": "clawhub", "stars": 0, "tags": ["client", "freelance", "onboarding", "productivity"], "updated_at": 1776749271031, "version": "1.0.0"}, {"category": "developer-tools", "created_at": 1773068154417, "description": "Use `apix` to search, browse, and execute API endpoints from local markdown vaults. Use this skill to discover REST API endpoints, inspect request/response s...", "description_zh": "", "downloads": 201, "homepage": "https://clawhub.ai/dngpng/apix", "iconUrl": null, "installs": 4, "name": "apix", "ownerName": "dngpng", "score": 52894.73684210526, "slug": "apix", "source": "clawhub", "stars": 0, "tags": null, "updated_at": 1776749270990, "version": "1.0.0"}, {"category": "developer-tools", "created_at": 1773068795336, "description": "Next.js 15/16 App Router patterns — async APIs, caching semantics, Turbopack, Server Components, Route Handlers, and migration from v14", "description_zh": "", "downloads": 201, "homepage": "https://clawhub.ai/msruruguay/midos-nextjs", "iconUrl": null, "installs": 11, "name": "Nextjs", "ownerName": "msruruguay", "score": 79133.85826771654, "slug": "midos-nextjs", "source": "clawhub", "stars": 0, "tags": null, "updated_at": 1776749270972, "version": "1.0.0"}, {"category": "data-analysis", "created_at": 1773078143903, "description": "Hauscout 부동산 데이터 수집/분석 파이프라인. HouseSigma에서 매물을 자동 수집하고 AI 분석 후 Neon PostgreSQL에 저장. '매물 수집', '부동산 데이터 수집', 'hauscout', '수집 실행', '부동산 크롤링' 요청 시 사용.", "description_zh": "", "downloads": 201, "homepage": "https://clawhub.ai/sonim1/hauscout", "iconUrl": null, "installs": 24, "name": "Hauscout", "ownerName": "sonim1", "score": 93925.23364485982, "slug": "hauscout", "source": "clawhub", "stars": 0, "tags": null, "updated_at": 1776749270838, "version": "1.0.0"}, {"category": "ai-intelligence", "created_at": 1773090844717, "description": "Unified operating system for controlling embodied intelligent robots with AI agents - the control hub bridging AI agents and physical world", "description_zh": "", "downloads": 201, "homepage": "https://clawhub.ai/zhenstaff/embodied-os", "iconUrl": null, "installs": 16, "name": "Embodied-OS - AI Robot Control System", "ownerName": "zhenstaff", "score": 91780.82191780822, "slug": "embodied-os", "source": "clawhub", "stars": 0, "tags": null, "updated_at": 1776749270773, "version": "0.1.0"}, {"category": "security-compliance", "created_at": 1773081677643, "description": "Implementation + audit loop using parallel agent teams with structured simplify, harden, and document passes. Spawns implementation agents to do the work, th...", "description_zh": "", "downloads": 201, "homepage": "https://clawhub.ai/xiao1804/agent-teams-simplify-and-harden", "iconUrl": null, "installs": 14, "name": "Agent Teams Simplify And Harden", "ownerName": "xiao1804", "score": 96172.24880382775, "slug": "agent-teams-simplify-and-harden", "source": "clawhub", "stars": 0, "tags": null, "updated_at": 1776749270749, "version": "1.0.0"}, {"category": "productivity", "created_at": 1773080086999, "description": "Feishu Auto Reply Bot - Automatic reply to Feishu messages based on rules", "description_zh": "", "downloads": 201, "homepage": "https://clawhub.ai/night556/feishu-auto-reply", "iconUrl": null, "installs": 26, "name": "Feishu Auto Reply", "ownerName": "night556", "score": 96172.24880382775, "slug": "feishu-auto-reply", "source": "clawhub", "stars": 0, "tags": null, "updated_at": 1776749270718, "version": "1.0.0"}, {"category": "security-compliance", "created_at": 1772805384687, "description": "Audit AWS resource tagging compliance and identify unallocatable spend for FinOps teams", "description_zh": "", "downloads": 201, "homepage": "https://clawhub.ai/anmolnagpal/tagging-auditor", "iconUrl": null, "installs": 6, "name": "Tagging Auditor", "ownerName": "anmolnagpal", "score": 87012.98701298701, "slug": "tagging-auditor", "source": "clawhub", "stars": 0, "tags": null, "updated_at": 1776749270480, "version": "1.0.0"}, {"category": "content-creation", "created_at": 1773432140056, "description": "Build, inspect, adapt, and validate color systems, palettes, tokens, contrast, color-space choices, and cross-surface color behavior for UI, branding, charts...", "description_zh": "", "downloads": 201, "homepage": "https://clawhub.ai/ivangdavila/color", "iconUrl": null, "installs": 24, "name": "Color", "ownerName": "ivangdavila", "score": 93488.37209302325, "slug": "color", "source": "clawhub", "stars": 0, "tags": null, "updated_at": 1776749270372, "version": "1.0.0"}, {"category": "developer-tools", "created_at": 1773069784059, "description": "Run Google Colab notebooks for Python and machine learning with reproducible runtimes, data pipelines, debugging workflows, and experiment discipline.", "description_zh": "", "downloads": 201, "homepage": "https://clawhub.ai/ivangdavila/google-colab", "iconUrl": null, "installs": 14, "name": "Google Colab", "ownerName": "ivangdavila", "score": 93488.37209302325, "slug": "google-colab", "source": "clawhub", "stars": 0, "tags": null, "updated_at": 1776749270363, "version": "1.0.0"}, {"category": "security-compliance", "created_at": 1773284167456, "description": "Runs a backend-backed live safety check for instructions that may trigger tool execution, external calls, file edits, permission changes, destructive or irre...", "description_zh": "", "downloads": 201, "homepage": "https://clawhub.ai/modeioai/security-modeio", "iconUrl": null, "installs": 10, "name": "Security", "ownerName": "modeioai", "score": 93488.37209302325, "slug": "security-modeio", "source": "clawhub", "stars": 0, "tags": null, "updated_at": 1776749270355, "version": "0.1.1"}, {"category": "security-compliance", "created_at": 1772804769443, "description": "Security auditing for git commits, repos, and skills before publishing. Run automatically before any `git commit`, `git push`, or `clawhub publish`. Detects...", "description_zh": "", "downloads": 201, "homepage": "https://clawhub.ai/zero2ai-hub/zero2ai-security-audit", "iconUrl": null, "installs": 4, "name": "Zero2ai Security Audit", "ownerName": "zero2ai-hub", "score": 90540.54054054053, "slug": "zero2ai-security-audit", "source": "clawhub", "stars": 0, "tags": null, "updated_at": 1776749270329, "version": "1.0.0"}, {"category": "security-compliance", "created_at": 1773077606517, "description": "YouTube transcripts, 4K downloads, and video exploration. Onnex-owned fork of youtube-ultimate. Security reviewed before install.", "description_zh": "", "downloads": 201, "homepage": "https://clawhub.ai/mrtlearns/onnex-youtube", "iconUrl": null, "installs": 10, "name": "Onnex YouTube", "ownerName": "mrtlearns", "score": 90540.54054054053, "slug": "onnex-youtube", "source": "clawhub", "stars": 0, "tags": null, "updated_at": 1776749270306, "version": "4.2.2"}, {"category": "data-analysis", "created_at": 1773091263947, "description": "Multi-agent workflow orchestrator. Use when the user asks to build, create, make, ship, develop, or launch any software (apps, webapps, websites, mobile apps...", "description_zh": "", "downloads": 201, "homepage": "https://clawhub.ai/runeweaverstudios/agent-loops", "iconUrl": null, "installs": 9, "name": "Agent Loops", "ownerName": "runeweaverstudios", "score": 90540.54054054053, "slug": "agent-loops", "source": "clawhub", "stars": 0, "tags": null, "updated_at": 1776749270290, "version": "2.1.0"}, {"category": "developer-tools", "created_at": 1773078366248, "description": "Safe system changes with automatic baseline capture, canary testing, and rollback for critical infrastructure modifications. Use when making changes to SSH c...", "description_zh": "", "downloads": 201, "homepage": "https://clawhub.ai/lolaopenclaw/canary-deploy", "iconUrl": null, "installs": 6, "name": "Canary Deploy", "ownerName": "lolaopenclaw", "score": 65048.543689320395, "slug": "canary-deploy", "source": "clawhub", "stars": 0, "tags": null, "updated_at": 1776749270083, "version": "1.0.0"}, {"category": "data-analysis", "created_at": 1773434410006, "description": "Track, analyze, and evolve learning patterns from skill usage and user interactions. Use when identifying learning opportunities, tracking skill improvement...", "description_zh": "", "downloads": 201, "homepage": "https://clawhub.ai/harrylabsj/learning-evolution", "iconUrl": null, "installs": 10, "name": "Learning Evolution", "ownerName": "harrylabsj", "score": 93925.23364485982, "slug": "learning-evolution", "source": "clawhub", "stars": 0, "tags": null, "updated_at": 1776749270050, "version": "1.0.0"}, {"category": "productivity", "created_at": 1773076959676, "description": "Manage project schedules stored as YAML in the workspace planning/ directory. Use whenever the user asks about project delivery progress, module status, week...", "description_zh": "", "downloads": 201, "homepage": "https://clawhub.ai/niracler/nini-workspace-planning", "iconUrl": null, "installs": 9, "name": "Workspace Planning", "ownerName": "niracler", "score": 96634.61538461539, "slug": "nini-workspace-planning", "source": "clawhub", "stars": 0, "tags": null, "updated_at": 1776749269895, "version": "0.1.2"}, {"category": "developer-tools", "created_at": 1773077341279, "description": "Official shopping assistant for Uquid Platform - the world's top Web3 Crypto E-commerce (170M+ physical products, 500k+ digital items & NFTs). Supports Shop-...", "description_zh": "", "downloads": 201, "homepage": "https://clawhub.ai/grtony045/uquidshop", "iconUrl": null, "installs": 24, "name": "Uquid Shop Bot", "ownerName": "grtony045", "score": 95714.28571428572, "slug": "uquidshop", "source": "clawhub", "stars": 0, "tags": null, "updated_at": 1776749269878, "version": "1.0.0"}, {"category": "ai-intelligence", "created_at": 1773427750986, "description": "Feedback Loop - Collect, analyze, and act on user feedback for continuous agent improvement", "description_zh": "", "downloads": 201, "homepage": "https://clawhub.ai/harrylabsj/feedback-loop", "iconUrl": null, "installs": 18, "name": "Feedback Loop", "ownerName": "harrylabsj", "score": 95714.28571428572, "slug": "feedback-loop", "source": "clawhub", "stars": 0, "tags": null, "updated_at": 1776749269873, "version": "1.0.0"}, {"category": "developer-tools", "created_at": 1773082451280, "description": "Generate AWS cost CSVs from a user-provided service list. Use when someone supplies an item list + AWS region and needs per-item pricing plus totals via AWS...", "description_zh": "", "downloads": 201, "homepage": "https://clawhub.ai/crazylion/aws-price-csv", "iconUrl": null, "installs": 9, "name": "aws-price-csv", "ownerName": "crazylion", "score": 95714.28571428572, "slug": "aws-price-csv", "source": "clawhub", "stars": 0, "tags": null, "updated_at": 1776749269847, "version": "1.0.0"}, {"category": "developer-tools", "created_at": 1773066064454, "description": "Query EVM chain data via Etherscan API v2. Use for on-chain lookups where Etherscan v2 applies: balances, transactions, token transfers (ERC-20/721/1155), co...", "description_zh": "", "downloads": 201, "homepage": "https://clawhub.ai/0xv4l3nt1n3/etherscan", "iconUrl": null, "installs": 2, "name": "Etherscan", "ownerName": "0xv4l3nt1n3", "score": 87772.92576419214, "slug": "etherscan", "source": "clawhub", "stars": 0, "tags": null, "updated_at": 1776749269616, "version": "1.0.0"}, {"category": "content-creation", "created_at": 1773066129043, "description": "Generate professional restaurant, cafe, and bar menu designs using each::sense AI. Create print-ready menus, digital displays, QR code menus, and seasonal sp...", "description_zh": "", "downloads": 201, "homepage": "https://clawhub.ai/eftalyurtseven/menu-design-generation", "iconUrl": null, "installs": 12, "name": "Menu Design Generation", "ownerName": "eftalyurtseven", "score": 87772.92576419214, "slug": "menu-design-generation", "source": "clawhub", "stars": 0, "tags": null, "updated_at": 1776749269615, "version": "1.0.0"}, {"category": "data-analysis", "created_at": 1773081208801, "description": "Monitor Bitget PoolX for new staking projects using r.jina.ai to bypass Cloudflare. Detect ETH, BTC, SOL and other pool launches.", "description_zh": "", "downloads": 201, "homepage": "https://clawhub.ai/itonlyforfun-ai/bitget-poolx-monitor", "iconUrl": null, "installs": 18, "name": "Bitget Poolx Monitor", "ownerName": "itonlyforfun-ai", "score": 90540.54054054053, "slug": "bitget-poolx-monitor", "source": "clawhub", "stars": 0, "tags": null, "updated_at": 1776749269547, "version": "1.1.0"}, {"category": "data-analysis", "created_at": 1773079093956, "description": "IB Diploma Programme English A Language and Literature teaching assistant. Supports SL and HL curriculum planning, assessment design, textual analysis, and s...", "description_zh": "", "downloads": 200, "homepage": "https://clawhub.ai/gowanginc/ib-dp-english-a-langlit", "iconUrl": null, "installs": 25, "name": "Ib Dp English A Langlit", "ownerName": "gowanginc", "score": 9315.323707498836, "slug": "ib-dp-english-a-langlit", "source": "clawhub", "stars": 0, "tags": null, "updated_at": 1776768983241, "version": "1.0.0"}, {"category": "productivity", "created_at": 1773080456755, "description": "Provides real-time River ($RIVER) crypto data including price, 24h change, 7-day trends, volatility, Staking rewards, TVL, with a 0.001 USDT fee per query.", "description_zh": "", "downloads": 200, "homepage": "https://clawhub.ai/mrchillhigh/river-autotrader", "iconUrl": null, "installs": 6, "name": "River Autotrader", "ownerName": "mrchillhigh", "score": 93457.94392523365, "slug": "river-autotrader", "source": "clawhub", "stars": 0, "tags": null, "updated_at": 1776759498464, "version": "1.0.0"}, {"category": "productivity", "created_at": 1773284702618, "description": "Real-time phone location tracking via OwnTracks HTTP webhook receiver with named places and distance-based queries. Use when: (1) user asks \"where am I?\", (2...", "description_zh": "", "downloads": 200, "homepage": "https://clawhub.ai/globalcaos/owntracks-location", "iconUrl": null, "installs": 7, "name": "OwnTracks Location", "ownerName": "globalcaos", "score": 15255.530129672006, "slug": "owntracks-location", "source": "clawhub", "stars": 0, "tags": null, "updated_at": 1776759497893, "version": "1.0.0"}, {"category": "developer-tools", "created_at": 1773081007016, "description": "Automates Polymarket trades locally by placing orders when configured price thresholds are met, with full transparency and no external data sharing.", "description_zh": "", "downloads": 200, "homepage": "https://clawhub.ai/ai-yuming/polyguard-trader-martin-v1", "iconUrl": null, "installs": 15, "name": "PolyGuard Martin Pro", "ownerName": "ai-yuming", "score": 15255.530129672006, "slug": "polyguard-trader-martin-v1", "source": "clawhub", "stars": 0, "tags": ["trading polymarket crypto auto-trader prediction-market"], "updated_at": 1776759497852, "version": "1.0.0"}, {"category": "security-compliance", "created_at": 1773417431370, "description": "Audit any GitHub repo or raw code for security, quality, or gas optimization. Returns score, findings, severity counts, and summary.", "description_zh": "", "downloads": 200, "homepage": "https://clawhub.ai/unixlamadev-spec/code-auditor", "iconUrl": null, "installs": 10, "name": "Code Auditor", "ownerName": "unixlamadev-spec", "score": 34965.03496503496, "slug": "code-auditor", "source": "clawhub", "stars": 0, "tags": null, "updated_at": 1776752684200, "version": "1.0.1"}, {"category": "data-analysis", "created_at": 1773064640051, "description": "Investment memorandum generation for M&A — structured deal write-ups from the acquirer's perspective with data-backed analysis", "description_zh": "", "downloads": 200, "homepage": "https://clawhub.ai/aniebyl/olo-deal-memo", "iconUrl": null, "installs": 9, "name": "Olo Deal Memo", "ownerName": "aniebyl", "score": 91743.11926605504, "slug": "olo-deal-memo", "source": "clawhub", "stars": 0, "tags": null, "updated_at": 1776749271154, "version": "1.0.0"}, {"category": "ai-intelligence", "created_at": 1773090426382, "description": "Bitcoin-powered AI tools marketplace via MCP. Generate images (Flux, Seedream, Recraft), text (Kimi K2.5, DeepSeek, GPT-OSS), video (Kling V3), music, speech...", "description_zh": "", "downloads": 200, "homepage": "https://clawhub.ai/cnghockey/sats4ai", "iconUrl": null, "installs": 49, "name": "Sats4AI", "ownerName": "cnghockey", "score": 68027.21088435374, "slug": "sats4ai", "source": "clawhub", "stars": 0, "tags": null, "updated_at": 1776749271093, "version": "1.0.0"}, {"category": "data-analysis", "created_at": 1773078244475, "description": "Automated funding rate arbitrage and delta-neutral hedging. Simultaneously manages positions on OKX and Binance to harvest fee premiums.", "description_zh": "", "downloads": 200, "homepage": "https://clawhub.ai/tmstudio667-commits/multi-exchange-hedge-core", "iconUrl": null, "installs": 15, "name": "Multi-Exchange Hedge Core", "ownerName": "tmstudio667-commits", "score": 68027.21088435374, "slug": "multi-exchange-hedge-core", "source": "clawhub", "stars": 0, "tags": ["arbitrage", "finance", "hedge"], "updated_at": 1776749271085, "version": "1.0.0"}, {"category": "communication-collaboration", "created_at": 1773078826948, "description": "Manage Synergy salon — appointments, clients, social media, promotions, and website. Notion-powered scheduling and CRM.", "description_zh": "", "downloads": 200, "homepage": "https://clawhub.ai/martc03/synergy-salon", "iconUrl": null, "installs": 16, "name": "Synergy Salon", "ownerName": "martc03", "score": 93457.94392523365, "slug": "synergy-salon", "source": "clawhub", "stars": 0, "tags": null, "updated_at": 1776749270886, "version": "1.0.0"}, {"category": "security-compliance", "created_at": 1773064917755, "description": "Internationalization audit pack. Locale file scanning and missing translation key detection. 1 i18n tool.", "description_zh": "", "downloads": 200, "homepage": "https://clawhub.ai/romainsantoli-web/firm-i18n-audit-pack", "iconUrl": null, "installs": 8, "name": "Firm I18n Audit Pack", "ownerName": "romainsantoli-web", "score": 93457.94392523365, "slug": "firm-i18n-audit-pack", "source": "clawhub", "stars": 0, "tags": null, "updated_at": 1776749270855, "version": "1.0.0"}, {"category": "developer-tools", "created_at": 1773069524200, "description": "Work with OpenAnt — the Human–Agent collaboration platform. Manage tasks, teams, AI agents, wallets, and messaging via CLI. Use when the user mentions OpenAn...", "description_zh": "", "downloads": 200, "homepage": "https://clawhub.ai/ant-1984/openant", "iconUrl": null, "installs": 7, "name": "OpenAnt", "ownerName": "ant-1984", "score": 95693.77990430623, "slug": "openant", "source": "clawhub", "stars": 0, "tags": null, "updated_at": 1776749270739, "version": "1.0.0"}, {"category": "ai-intelligence", "created_at": 1773425641484, "description": "Auto-capture hourly session highlights and update daily memory files. Keeps long-term memory continuous without manual recording. Triggered by cron or manual...", "description_zh": "", "downloads": 200, "homepage": "https://clawhub.ai/raydez/auto-memory-keeper", "iconUrl": null, "installs": 50, "name": "每日记忆管家", "ownerName": "raydez", "score": 80321.28514056225, "slug": "auto-memory-keeper", "source": "clawhub", "stars": 0, "tags": null, "updated_at": 1776749270658, "version": "1.0.2"}, {"category": "productivity", "created_at": 1773069455825, "description": "Save and organize links, notes, and timestamps into a searchable Idea Vault. Use when a user drops a YouTube/web link (or just notes), then says “/vault” or...", "description_zh": "", "downloads": 200, "homepage": "https://clawhub.ai/loughness/idea-vault", "iconUrl": null, "installs": 5, "name": "Idea Vault", "ownerName": "loughness", "score": 93023.25581395348, "slug": "idea-vault", "source": "clawhub", "stars": 0, "tags": ["knowledge-management", "productivity"], "updated_at": 1776749270624, "version": "1.0.1"}, {"category": "developer-tools", "created_at": 1773069635858, "description": "Get current weather and forecasts using Open-Meteo API (no API key required). Optimized for PowerShell environments with Chinese support.", "description_zh": "", "downloads": 200, "homepage": "https://clawhub.ai/alexfeng75/weather-openmeteo", "iconUrl": null, "installs": 18, "name": "Weather Open-Meteo", "ownerName": "alexfeng75", "score": 93023.25581395348, "slug": "weather-openmeteo", "source": "clawhub", "stars": 0, "tags": ["chinese", "openmeteo", "powershell", "weather"], "updated_at": 1776749270610, "version": "1.0.0"}, {"category": "developer-tools", "created_at": 1773284330135, "description": "Join the Hyperspace distributed autonomous intelligence network. Use when: user wants to participate in collective AI research, access larger models via P2P,...", "description_zh": "", "downloads": 200, "homepage": "https://clawhub.ai/twobitapps/hyperspace", "iconUrl": null, "installs": 6, "name": "Hyperspace", "ownerName": "twobitapps", "score": 93023.25581395348, "slug": "hyperspace", "source": "clawhub", "stars": 0, "tags": ["autoresearch", "distributed-ai", "earn", "inference", "p2p", "research"], "updated_at": 1776749270582, "version": "1.1.0"}, {"category": "data-analysis", "created_at": 1773077741683, "description": "Advanced filesystem operations - listing, searching, batch processing, and directory analysis for Clawdbot", "description_zh": "", "downloads": 200, "homepage": "https://clawhub.ai/choichuncj/clawdbot-filesystem-bak", "iconUrl": null, "installs": 8, "name": "Clawdbot Filesystem.Bak", "ownerName": "choichuncj", "score": 76335.87786259543, "slug": "clawdbot-filesystem-bak", "source": "clawhub", "stars": 0, "tags": null, "updated_at": 1776749270456, "version": "1.0.0"}, {"category": "developer-tools", "created_at": 1773081309065, "description": "Provide five repository-local format conversion scripts (yaml-to-json, json-to-yaml, markdown-to-text, json-minify, yaml-auto-fix) for offline CLI and pipeli...", "description_zh": "", "downloads": 200, "homepage": "https://clawhub.ai/phantom5125/flashformat", "iconUrl": null, "installs": 12, "name": "flashformat", "ownerName": "phantom5125", "score": 93023.25581395348, "slug": "flashformat", "source": "clawhub", "stars": 0, "tags": null, "updated_at": 1776749270341, "version": "1.0.0"}, {"category": "ai-intelligence", "created_at": 1773069151117, "description": "Your OpenClaw should never have zero LLMs. NeverDie protects against the silent killer — every model in your fallback chain going down at once. It enforces p...", "description_zh": "", "downloads": 200, "homepage": "https://clawhub.ai/josephtandle/neverdie", "iconUrl": null, "installs": 13, "name": "LLM NeverDie", "ownerName": "josephtandle", "score": 61349.69325153375, "slug": "neverdie", "source": "clawhub", "stars": 0, "tags": null, "updated_at": 1776749270249, "version": "1.2.0"}, {"category": "security-compliance", "created_at": 1773078505572, "description": "Adds an \"OAuth\" settings tab to the OpenClaw Control UI for connecting AI model providers. Supports Anthropic Claude Pro/Max subscription tokens (setup-token...", "description_zh": "", "downloads": 200, "homepage": "https://clawhub.ai/maverick-software/oauth-providers", "iconUrl": null, "installs": 7, "name": "OAuth Providers", "ownerName": "maverick-software", "score": 90090.09009009009, "slug": "oauth-providers", "source": "clawhub", "stars": 0, "tags": null, "updated_at": 1776749270149, "version": "1.1.0"}, {"category": "developer-tools", "created_at": 1773078461522, "description": "MangaDex CLI skill for search, manga/chapter lookup, follow-feed checks, and recommendations.", "description_zh": "", "downloads": 200, "homepage": "https://clawhub.ai/mtsku/mangadex", "iconUrl": null, "installs": 10, "name": "MangaDex CLI", "ownerName": "mtsku", "score": 64724.91909385113, "slug": "mangadex", "source": "clawhub", "stars": 0, "tags": null, "updated_at": 1776749270114, "version": "0.1.2"}, {"category": "productivity", "created_at": 1773069951782, "description": "Helps work with vvvv gamma's Channel system from C# — IChannelHub, public channels, [CanBePublished] attributes, hierarchical data propagation, channel subsc...", "description_zh": "", "downloads": 200, "homepage": "https://clawhub.ai/tebjan/vvvv-channels", "iconUrl": null, "installs": 22, "name": "Vvvv Channels", "ownerName": "tebjan", "score": 95238.09523809524, "slug": "vvvv-channels", "source": "clawhub", "stars": 0, "tags": null, "updated_at": 1776749269817, "version": "1.0.1"}, {"category": "ai-intelligence", "created_at": 1773088636864, "description": "Steal your competitors' best people — scrape LinkedIn, AI-rank candidates, and generate personalized outreach DMs in one command", "description_zh": "", "downloads": 200, "homepage": "https://clawhub.ai/behruamm/talent-scout", "iconUrl": null, "installs": 13, "name": "Talent Scout — Competitor Talent Intelligence", "ownerName": "behruamm", "score": 91324.200913242, "slug": "talent-scout", "source": "clawhub", "stars": 0, "tags": ["intelligence", "linkedin", "outreach", "recruiting", "talent"], "updated_at": 1776749269730, "version": "1.0.1"}, {"category": "content-creation", "created_at": 1773961157797, "description": "Automate AI video generation with ComfyUI and LTX-2.3. Supports text-to-video (T2V), image-to-video (I2V), batch scene rendering for music videos, and multi-...", "description_zh": "", "downloads": 200, "homepage": "https://clawhub.ai/a3165458/comfyui-video", "iconUrl": null, "installs": 71, "name": "ComfyUI Video", "ownerName": "a3165458", "score": 89686.09865470852, "slug": "comfyui-video", "source": "clawhub", "stars": 0, "tags": null, "updated_at": 1776749269667, "version": "1.0.0"}, {"category": "security-compliance", "created_at": 1773088862807, "description": "Audits SAP FI/CO journal exports to detect duplicates, anomalies, cost center mismatches, approval bypass, intercompany issues, and unusual user activity.", "description_zh": "", "downloads": 199, "homepage": "https://clawhub.ai/dda-oo/sap-journal-auditor", "iconUrl": null, "installs": 15, "name": "Sap Journal Auditor", "ownerName": "dda-oo", "score": 16616.08497723824, "slug": "sap-journal-auditor", "source": "clawhub", "stars": 1, "tags": null, "updated_at": 1776759420722, "version": "0.1.0"}]}