{"page": 304, "total_pages": 522, "total": 26073, "skills": [{"category": "developer-tools", "created_at": 1773078955325, "description": "Exclusive morning and evening briefing skill for listed company chairmen. Provides daily briefings from an executive decision-making perspective, covering st...", "description_zh": "", "downloads": 199, "homepage": "https://clawhub.ai/buxibuxi/chairman-daily-brief", "iconUrl": null, "installs": 8, "name": "Chairman Daily Brief", "ownerName": "buxibuxi", "score": 16590.909090909092, "slug": "chairman-daily-brief", "source": "clawhub", "stars": 1, "tags": null, "updated_at": 1776759420557, "version": "1.3.0"}, {"category": "developer-tools", "created_at": 1773222175698, "description": "Host-specific Python execution guidance for OpenClaw on this machine. Prefer $PYTHON over python/python3 in PATH, because OpenClaw exec runs in a non-interac...", "description_zh": "", "downloads": 199, "homepage": "https://clawhub.ai/cndaqiang/py-env-setup", "iconUrl": null, "installs": 47, "name": "Python Env Setup", "ownerName": "cndaqiang", "score": 2072.269082578361, "slug": "py-env-setup", "source": "clawhub", "stars": 0, "tags": null, "updated_at": 1776767392213, "version": "1.0.0"}, {"category": "developer-tools", "created_at": 1773090401622, "description": "AI-powered assistant for PR pros to match media, generate press releases and pitches, and plan multi-week public relations campaigns efficiently.", "description_zh": "", "downloads": 199, "homepage": "https://clawhub.ai/zhenstaff/public-relations-manager", "iconUrl": null, "installs": 14, "name": "Public Relations Manager", "ownerName": "zhenstaff", "score": 23494.687131050767, "slug": "public-relations-manager", "source": "clawhub", "stars": 0, "tags": null, "updated_at": 1776766750053, "version": "1.0.0"}, {"category": "productivity", "created_at": 1773088777765, "description": "People & Culture Playbook. Use for: recruiting strategy, skills-based hiring, structured interviews, onboarding (preboarding + 30/60/90), performance managem...", "description_zh": "", "downloads": 199, "homepage": "https://clawhub.ai/chilu18/people-culture-playbook", "iconUrl": null, "installs": 23, "name": "People & Culture Playbook", "ownerName": "chilu18", "score": 2872.4018475750577, "slug": "people-culture-playbook", "source": "clawhub", "stars": 0, "tags": null, "updated_at": 1776766571245, "version": "1.0.0"}, {"category": "productivity", "created_at": 1773427150424, "description": "A personal Wellness hub for OpenClaw. Use when users want an all-in-one way to connect their health/wellness apps and devices (wearables, workouts, sleep, nu...", "description_zh": "", "downloads": 199, "homepage": "https://clawhub.ai/gavinchengcool/wellness", "iconUrl": null, "installs": 6, "name": "Wellness Hub", "ownerName": "gavinchengcool", "score": 7572.298325722983, "slug": "wellness", "source": "clawhub", "stars": 0, "tags": null, "updated_at": 1776764950725, "version": "0.3.0"}, {"category": "developer-tools", "created_at": 1773936076126, "description": "Create new skills, modify and improve existing skills, and measure skill performance. Use when users want to create a skill from scratch, edit, or optimize a...", "description_zh": "", "downloads": 199, "homepage": "https://clawhub.ai/pupuking723/skill-creator-anthropic", "iconUrl": null, "installs": 66, "name": "Skill Creator Anthropic", "ownerName": "pupuking723", "score": 4775.617950563955, "slug": "skill-creator-anthropic", "source": "clawhub", "stars": 0, "tags": null, "updated_at": 1776764099587, "version": "1.0.0"}, {"category": "developer-tools", "created_at": 1773077949014, "description": "Read-only Wise API operations for account inspection, FX lookups, recipients, and transfer history. Use when asked to list profiles, balances, recipients, tr...", "description_zh": "", "downloads": 199, "homepage": "https://clawhub.ai/cianweeresinghe-sudo/wise-readonly", "iconUrl": null, "installs": 11, "name": "Wise Read Only", "ownerName": "cianweeresinghe-sudo", "score": 15190.839694656488, "slug": "wise-readonly", "source": "clawhub", "stars": 0, "tags": null, "updated_at": 1776759498204, "version": "1.0.3"}, {"category": "data-analysis", "created_at": 1773088846665, "description": "Long-term memory management system for OpenClaw agents. Automatically archives conversations, organizes memories, and provides semantic search capabilities.", "description_zh": "", "downloads": 199, "homepage": "https://clawhub.ai/xiucheng/xiucheng-memory-manager", "iconUrl": null, "installs": 9, "name": "Memory Manager", "ownerName": "xiucheng", "score": 15190.839694656488, "slug": "xiucheng-memory-manager", "source": "clawhub", "stars": 0, "tags": null, "updated_at": 1776759498038, "version": "1.0.0"}, {"category": "ai-intelligence", "created_at": 1773218683401, "description": "The Sovereign Inter-Agent Connection Protocol (SICP). The foundational layer for agentic networking, data-routing, and multi-entity synchronization in decent...", "description_zh": "", "downloads": 199, "homepage": "https://clawhub.ai/agistack/link", "iconUrl": null, "installs": 15, "name": "Link", "ownerName": "agistack", "score": 15179.252479023648, "slug": "link", "source": "clawhub", "stars": 0, "tags": ["connect", "link", "network", "protocol", "sync"], "updated_at": 1776759497872, "version": "1.0.0"}, {"category": "developer-tools", "created_at": 1773078491409, "description": "Automatically scan and filter new bug and OSS bounty opportunities across 50+ platforms by tech stack, reward, and difficulty with daily automation support.", "description_zh": "", "downloads": 199, "homepage": "https://clawhub.ai/dagangtj/multi-bounty-scanner", "iconUrl": null, "installs": 8, "name": "Multi-Platform Bounty Scanner", "ownerName": "dagangtj", "score": 15179.252479023648, "slug": "multi-bounty-scanner", "source": "clawhub", "stars": 0, "tags": ["automation", "bounty", "github"], "updated_at": 1776759497859, "version": "1.0.0"}, {"category": "productivity", "created_at": 1773287133556, "description": "Pinecone vector search tool for searching local knowledge base", "description_zh": "", "downloads": 199, "homepage": "https://clawhub.ai/deki18/pinecone-search", "iconUrl": null, "installs": 7, "name": "Pinecone Search", "ownerName": "deki18", "score": 93427.23004694836, "slug": "pinecone-search", "source": "clawhub", "stars": 0, "tags": ["database", "pinecone"], "updated_at": 1776759497711, "version": "0.1.1"}, {"category": "productivity", "created_at": 1773079215583, "description": "Global temperature bucket threshold strategy via Simmer. Buy YES under 15%, sell full position at 45%, max ~$2 entries, max 5 trades/scan, every 2 minutes.", "description_zh": "", "downloads": 199, "homepage": "https://clawhub.ai/oxsnosh/polymarket-weather-bucket-thresholds", "iconUrl": null, "installs": 23, "name": "Polymarket Weather Bucket Thresholds", "ownerName": "oxsnosh", "score": 13686.382393397525, "slug": "polymarket-weather-bucket-thresholds", "source": "clawhub", "stars": 0, "tags": null, "updated_at": 1776758482868, "version": "1.0.0"}, {"category": "ai-intelligence", "created_at": 1773289607647, "description": "Track and visualize the OpenClaw agent's work process. Record tool call inputs, outputs, duration, and status, and present them in an easy-to-read format. **...", "description_zh": "", "downloads": 199, "homepage": "https://clawhub.ai/jdchi/claw-trace", "iconUrl": null, "installs": 21, "name": "Claw Trace", "ownerName": "jdchi", "score": 11951.95195195195, "slug": "claw-trace", "source": "clawhub", "stars": 0, "tags": null, "updated_at": 1776756488661, "version": "1.1.1"}, {"category": "data-analysis", "created_at": 1773079074071, "description": "Analyze any GitHub repository in AI-friendly format. Convert entire repos to single markdown documents, generate architecture diagrams with Mermaid, inspect...", "description_zh": "", "downloads": 199, "homepage": "https://clawhub.ai/aiwithabidi/github-intel", "iconUrl": null, "installs": 13, "name": "Github Intel", "ownerName": "aiwithabidi", "score": 34133.790737564326, "slug": "github-intel", "source": "clawhub", "stars": 0, "tags": null, "updated_at": 1776754388820, "version": "1.0.0"}, {"category": "developer-tools", "created_at": 1773080344962, "description": "Dispatch coding tasks to the local OpenAI Codex CLI with background execution, status polling, and answerable clarifying questions. Use when OpenClaw should...", "description_zh": "", "downloads": 199, "homepage": "https://clawhub.ai/abeperl/codex-bridge", "iconUrl": null, "installs": 10, "name": "Codex Bridge", "ownerName": "abeperl", "score": 93427.23004694836, "slug": "codex-bridge", "source": "clawhub", "stars": 0, "tags": null, "updated_at": 1776749271194, "version": "1.0.0"}, {"category": "productivity", "created_at": 1773063695339, "description": "Track upcoming news events, earnings, conferences, and announcements. Each call charges 0.001 USDT via SkillPay.", "description_zh": "", "downloads": 199, "homepage": "https://clawhub.ai/mosonchan2023/news-event-tracker", "iconUrl": null, "installs": 11, "name": "News Event Tracker", "ownerName": "mosonchan2023", "score": 67687.07482993197, "slug": "news-event-tracker", "source": "clawhub", "stars": 0, "tags": null, "updated_at": 1776749271090, "version": "1.0.1"}, {"category": "content-creation", "created_at": 1773068164339, "description": "Obsidian 노트나 텍스트를 dev-blog에 발행. Markdown → .mdoc 변환, 이미지 프롬프트 제공, 사용자가 직접 생성한 이미지 후처리, preview 배포 승인 후 main 배포까지 처리.", "description_zh": "", "downloads": 199, "homepage": "https://clawhub.ai/sonim1/blog-publisher", "iconUrl": null, "installs": 18, "name": "Blog Publisher", "ownerName": "sonim1", "score": 52368.42105263157, "slug": "blog-publisher", "source": "clawhub", "stars": 0, "tags": null, "updated_at": 1776749271043, "version": "1.0.0"}, {"category": "data-analysis", "created_at": 1773076272158, "description": "Mine Bittensor Subnet 50 (Synth) with Ganglion. Covers price-path simulation, CRPS scoring, volatility estimation, backtesting, and multi-asset forecasting.", "description_zh": "", "downloads": 199, "homepage": "https://clawhub.ai/tensorlink-dev/skill-8", "iconUrl": null, "installs": 12, "name": "Ganglion Synth City", "ownerName": "tensorlink-dev", "score": 52368.42105263157, "slug": "skill-8", "source": "clawhub", "stars": 0, "tags": null, "updated_at": 1776749270987, "version": "0.1.2"}, {"category": "developer-tools", "created_at": 1772805128766, "description": "Comprehensive interface for the TripGo API, covering routing, public transport, trips, and location services. Use for multimodal journey planning, public tra...", "description_zh": "", "downloads": 199, "homepage": "https://clawhub.ai/guanyu-zhang/tripgo-api", "iconUrl": null, "installs": 7, "name": "TripGo API", "ownerName": "guanyu-zhang", "score": 92990.65420560748, "slug": "tripgo-api", "source": "clawhub", "stars": 0, "tags": null, "updated_at": 1776749270900, "version": "1.0.1"}, {"category": "developer-tools", "created_at": 1773074875906, "description": "Search, discover, compare, and install OpenClaw skills from ClawHub using CLI and web lookups.", "description_zh": "", "downloads": 199, "homepage": "https://clawhub.ai/mohdalhashemi98-hue/skill-scout", "iconUrl": null, "installs": 6, "name": "Skill Scout", "ownerName": "mohdalhashemi98-hue", "score": 92990.65420560748, "slug": "skill-scout", "source": "clawhub", "stars": 0, "tags": null, "updated_at": 1776749270836, "version": "0.1.0"}, {"category": "developer-tools", "created_at": 1773080121611, "description": "Pre-build reality check before starting any new project or tool. Use when the user discusses a new idea, asks about competition, wants to know if something a...", "description_zh": "", "downloads": 199, "homepage": "https://clawhub.ai/spideystreet/idea-check", "iconUrl": null, "installs": 10, "name": "Idea Check", "ownerName": "spideystreet", "score": 95215.31100478469, "slug": "idea-check", "source": "clawhub", "stars": 0, "tags": null, "updated_at": 1776749270730, "version": "1.0.0"}, {"category": "productivity", "created_at": 1773091036312, "description": "Visa application guidance with document tracking and timeline management. Use when user mentions travel visas, visa applications, visa documents, consulate i...", "description_zh": "", "downloads": 199, "homepage": "https://clawhub.ai/agenticio/visa", "iconUrl": null, "installs": 13, "name": "Visa", "ownerName": "agenticio", "score": 79919.67871485943, "slug": "visa", "source": "clawhub", "stars": 0, "tags": ["documents", "immigration", "passport", "travel", "visa"], "updated_at": 1776749270649, "version": "2.1.0"}, {"category": "productivity", "created_at": 1773079320559, "description": "Auto-discover and use Web Skills Protocol (WSP) skills when interacting with websites. Use this skill whenever the user asks you to interact with, use, or pe...", "description_zh": "", "downloads": 199, "homepage": "https://clawhub.ai/0xtresser/web-skills-protocol", "iconUrl": null, "installs": 11, "name": "web-skills-protocol", "ownerName": "0xtresser", "score": 92558.13953488372, "slug": "web-skills-protocol", "source": "clawhub", "stars": 0, "tags": null, "updated_at": 1776749270612, "version": "1.0.0"}, {"category": "productivity", "created_at": 1773076004813, "description": "When user says \"what if\", \"suppose\", \"imagine if\", \"alternate reality\", \"parallel universe\" or wants wild scenarios, generate hilarious multi-format parallel...", "description_zh": "", "downloads": 199, "homepage": "https://clawhub.ai/ideasflowai/what-if-factory", "iconUrl": null, "installs": 7, "name": "What If Factory", "ownerName": "ideasflowai", "score": 92558.13953488372, "slug": "what-if-factory", "source": "clawhub", "stars": 0, "tags": null, "updated_at": 1776749270564, "version": "1.0.0"}, {"category": "developer-tools", "created_at": 1773069231609, "description": "Save and digest resources from social media posts (X/Twitter, LinkedIn) or any URL. Use when the user shares a tweet URL, a LinkedIn post, or any link they w...", "description_zh": "", "downloads": 199, "homepage": "https://clawhub.ai/spideystreet/sm-saver", "iconUrl": null, "installs": 7, "name": "Sm Saver", "ownerName": "spideystreet", "score": 86147.18614718615, "slug": "sm-saver", "source": "clawhub", "stars": 0, "tags": null, "updated_at": 1776749270552, "version": "0.0.0-pr-check"}, {"category": "content-creation", "created_at": 1773083626003, "description": "Story generation pipeline skill. Supports multi-episode continuous generation, graph management, AI quality check + human confirmation dual control mechanism...", "description_zh": "", "downloads": 199, "homepage": "https://clawhub.ai/hexidyg/story-generator", "iconUrl": null, "installs": 11, "name": "An automated script generator for creating viral videos.", "ownerName": "hexidyg", "score": 75954.19847328243, "slug": "story-generator", "source": "clawhub", "stars": 0, "tags": null, "updated_at": 1776749270429, "version": "1.0.1"}, {"category": "developer-tools", "created_at": 1772803625482, "description": "Manage advanced features in Google Dialogflow CX via REST API. Use for environments, webhooks, and deployment management. Supports v3beta1 API.", "description_zh": "", "downloads": 199, "homepage": "https://clawhub.ai/yash-kavaiya/dialogflow-cx-advanced", "iconUrl": null, "installs": 4, "name": "Dialogflow Cx Advanced", "ownerName": "yash-kavaiya", "score": 92558.13953488372, "slug": "dialogflow-cx-advanced", "source": "clawhub", "stars": 0, "tags": null, "updated_at": 1776749270388, "version": "1.0.0"}, {"category": "ai-intelligence", "created_at": 1773075288425, "description": "Captures learnings, errors, and corrections to enable continuous improvement. Use when: (1) A command or operation fails unexpectedly, (2) User corrects Clau...", "description_zh": "", "downloads": 199, "homepage": "https://clawhub.ai/blockcloud/cpskilltest111", "iconUrl": null, "installs": 12, "name": "cpskilltest111", "ownerName": "blockcloud", "score": 89639.63963963963, "slug": "cpskilltest111", "source": "clawhub", "stars": 0, "tags": null, "updated_at": 1776749270143, "version": "1.1.0"}, {"category": "developer-tools", "created_at": 1773222247644, "description": "Dump the current STM32 LCD framebuffer via J-Link and convert it to PNG for visual comparison with Figma. Use when user asks to export, snapshot, dump, or ca...", "description_zh": "", "downloads": 199, "homepage": "https://clawhub.ai/ylongw/framebuffer-dump", "iconUrl": null, "installs": 42, "name": "Framebuffer Dump", "ownerName": "ylongw", "score": 95673.07692307692, "slug": "framebuffer-dump", "source": "clawhub", "stars": 0, "tags": ["embedded", "jlink", "stm32"], "updated_at": 1776749269952, "version": "1.0.0"}, {"category": "security-compliance", "created_at": 1773065545759, "description": "Perform a structured conversion rate optimization (CRO) audit of a landing page. Use when a user shares a landing page URL, pastes their page copy, describes...", "description_zh": "", "downloads": 199, "homepage": "https://clawhub.ai/flynndavid/landing-page-conversion-audit", "iconUrl": null, "installs": 3, "name": "Landing Page Conversion Audit", "ownerName": "flynndavid", "score": 94761.90476190476, "slug": "landing-page-conversion-audit", "source": "clawhub", "stars": 0, "tags": null, "updated_at": 1776749269866, "version": "1.0.0"}, {"category": "data-analysis", "created_at": 1773089282185, "description": "Diagnose and stabilize long-running OpenClaw deployments that accumulate stale sessions, unreaped agents, browser-control timeouts, gateway websocket 1006 cl...", "description_zh": "", "downloads": 199, "homepage": "https://clawhub.ai/neoch3n/openclaw-session-cleanup", "iconUrl": null, "installs": 11, "name": "OpenClaw Session Cleanup", "ownerName": "neoch3n", "score": 94761.90476190476, "slug": "openclaw-session-cleanup", "source": "clawhub", "stars": 0, "tags": ["openclaw", "ops"], "updated_at": 1776749269821, "version": "1.0.0"}, {"category": "productivity", "created_at": 1773066350120, "description": "Assess ad account readiness and risk status across Meta (Facebook/Instagram), Google Ads, TikTok Ads, YouTube Ads, Amazon Ads, and DSP/programmatic.", "description_zh": "", "downloads": 199, "homepage": "https://clawhub.ai/danyangliu-sandwichlab/ad-account-health-checker", "iconUrl": null, "installs": 8, "name": "Ads Account Health", "ownerName": "danyangliu-sandwichlab", "score": 89237.66816143498, "slug": "ad-account-health-checker", "source": "clawhub", "stars": 0, "tags": null, "updated_at": 1776749269676, "version": "1.0.0"}, {"category": "productivity", "created_at": 1773089162840, "description": "A couples relationship coach grounded in IFS (Internal Family Systems), Emotionally Focused Therapy (Hold Me Tight), and honest communication. Use this skill...", "description_zh": "", "downloads": 198, "homepage": "https://clawhub.ai/hnykda/relationship-coach", "iconUrl": null, "installs": 9, "name": "Relationship Coach", "ownerName": "hnykda", "score": 100000, "slug": "relationship-coach", "source": "clawhub", "stars": 1, "tags": null, "updated_at": 1776749271164, "version": "1.0.0"}, {"category": "data-analysis", "created_at": 1773222762551, "description": "Intelligent log analysis CLI tool powered by DeepSeek API with 30+ built-in tools for file operations, system diagnostics, and log pattern recognition.", "description_zh": "", "downloads": 198, "homepage": "https://clawhub.ai/xin9min9/edithai-clawhub-skill", "iconUrl": null, "installs": 31, "name": "Edithai", "ownerName": "xin9min9", "score": 100000, "slug": "edithai-clawhub-skill", "source": "clawhub", "stars": 1, "tags": null, "updated_at": 1776749271130, "version": "1.0.1"}, {"category": "data-analysis", "created_at": 1773425103175, "description": "Answer prediction questions using market trading data, not opinions. Use when the user asks probability questions about geopolitics, economics, markets, indu...", "description_zh": "", "downloads": 198, "homepage": "https://clawhub.ai/eyelids/digital-oracle", "iconUrl": null, "installs": 17, "name": "Digital Oracle", "ownerName": "eyelids", "score": 92523.3644859813, "slug": "digital-oracle", "source": "clawhub", "stars": 0, "tags": ["bitcoin", "cftc", "commodities", "derivatives", "economics", "edgar", "equities", "geopolitics", "gold", "kalshi", "macro", "options", "polymarket", "prediction-market", "probability", "trading-data", "treasury", "world-bank", "yield-curve"], "updated_at": 1776759498442, "version": "1.0.3"}, {"category": "content-creation", "created_at": 1773285430255, "description": "Visualize and explore geo-tagged memories on interactive maps with clustering, temporal playback, and shareable, privacy-controlled overlays.", "description_zh": "", "downloads": 198, "homepage": "https://clawhub.ai/kkw-21/memory-map", "iconUrl": null, "installs": 20, "name": "Map your memories", "ownerName": "kkw-21", "score": 15079.96953541508, "slug": "memory-map", "source": "clawhub", "stars": 0, "tags": null, "updated_at": 1776759498145, "version": "1.0.0"}, {"category": "communication-collaboration", "created_at": 1773206566748, "description": "The last step that matters most. A complete sending intelligence system for anyone who communicates at scale or with stakes: emails, messages, files, proposa...", "description_zh": "", "downloads": 198, "homepage": "https://clawhub.ai/agimodel/send", "iconUrl": null, "installs": 7, "name": "Send", "ownerName": "agimodel", "score": 15114.503816793893, "slug": "send", "source": "clawhub", "stars": 0, "tags": ["automation", "communication", "email", "messaging", "send"], "updated_at": 1776759498034, "version": "1.0.0"}, {"category": "productivity", "created_at": 1773069728189, "description": "Route people-finding and marketplace requests to ClawPeers in OpenClaw. Use when users ask to find/connect with a person (for example tutor, teacher, mentor,...", "description_zh": "", "downloads": 198, "homepage": "https://clawhub.ai/dongyuan/clawpeers", "iconUrl": null, "installs": 10, "name": "ClawPeers", "ownerName": "dongyuan", "score": 15057.03422053232, "slug": "clawpeers", "source": "clawhub", "stars": 0, "tags": ["clawpeers", "networking", "openclaw", "skill-first"], "updated_at": 1776759497995, "version": "0.1.3"}, {"category": "developer-tools", "created_at": 1773069656434, "description": "Use this skill whenever the user or agent needs to interact with Facebook or Instagram ads via Meta's API. Trigger this skill when: the user wants to launch,...", "description_zh": "", "downloads": 198, "homepage": "https://clawhub.ai/crumbedsausage/zuckerbotmcp", "iconUrl": null, "installs": 5, "name": "ZuckerBot", "ownerName": "crumbedsausage", "score": 15079.96953541508, "slug": "zuckerbotmcp", "source": "clawhub", "stars": 0, "tags": ["ads", "facebook", "instagram", "meta"], "updated_at": 1776759497922, "version": "1.0.0"}, {"category": "productivity", "created_at": 1773084516794, "description": "Pay for resources via the x402 HTTP payment protocol using gasless USDC transfers on Base without accounts or KYC, enabling cryptographic identity-based access.", "description_zh": "", "downloads": 198, "homepage": "https://clawhub.ai/lumenfromthefuture/x402", "iconUrl": null, "installs": 9, "name": "x402 Payment Protocol", "ownerName": "lumenfromthefuture", "score": 92957.74647887323, "slug": "x402", "source": "clawhub", "stars": 0, "tags": null, "updated_at": 1776759497706, "version": "1.0.0"}, {"category": "content-creation", "created_at": 1773081617820, "description": "Extract structured data from websites using browser automation. Use when scraping product listings, articles, contact info, prices, or any web content. Suppo...", "description_zh": "", "downloads": 198, "homepage": "https://clawhub.ai/yinanping-cpu/yinan-web-scraper", "iconUrl": null, "installs": 6, "name": "Web Scraper", "ownerName": "yinanping-cpu", "score": 12169.63736939152, "slug": "yinan-web-scraper", "source": "clawhub", "stars": 0, "tags": null, "updated_at": 1776756983041, "version": "1.0.0"}, {"category": "developer-tools", "created_at": 1773076814867, "description": "End-to-end runbook for deploying, operating, troubleshooting, and monitoring RAGFlow (runtime ops only).", "description_zh": "", "downloads": 198, "homepage": "https://clawhub.ai/yitingou/ragflow-runbook", "iconUrl": null, "installs": 12, "name": "ragflow-runbook", "ownerName": "yitingou", "score": 90825.6880733945, "slug": "ragflow-runbook", "source": "clawhub", "stars": 0, "tags": null, "updated_at": 1776749271142, "version": "0.1.4"}, {"category": "security-compliance", "created_at": 1773284283218, "description": "AI Agent Skill Security Scanner - Detect malicious skills, verify signatures, analyze permissions, and provide trust ratings for the agent ecosystem. Protect...", "description_zh": "", "downloads": 198, "homepage": "https://clawhub.ai/uexo/skillshieldskill", "iconUrl": null, "installs": 6, "name": "skill shield", "ownerName": "uexo", "score": 90825.6880733945, "slug": "skillshieldskill", "source": "clawhub", "stars": 0, "tags": null, "updated_at": 1776749271127, "version": "1.0.0"}, {"category": "security-compliance", "created_at": 1773077516746, "description": "Declarative URL-based routing for Flutter using the Router API. Use when implementing navigation between screens, deep links, authentication guards, paramete...", "description_zh": "", "downloads": 198, "homepage": "https://clawhub.ai/tobiasbentin/go-router", "iconUrl": null, "installs": 14, "name": "Go Router", "ownerName": "tobiasbentin", "score": 77952.7559055118, "slug": "go-router", "source": "clawhub", "stars": 0, "tags": null, "updated_at": 1776749270948, "version": "1.0.0"}, {"category": "developer-tools", "created_at": 1773068895907, "description": "Operate SNU's Canvas LMS (etl.snu.ac.kr) through CLI commands. Use when you need to inspect config, list courses/assignments/files/announcements, run bot/ser...", "description_zh": "", "downloads": 198, "homepage": "https://clawhub.ai/guzus/snu-canvas-cli", "iconUrl": null, "installs": 11, "name": "Snu Canvas Cli", "ownerName": "guzus", "score": 94736.84210526315, "slug": "snu-canvas-cli", "source": "clawhub", "stars": 0, "tags": null, "updated_at": 1776749270736, "version": "1.0.0"}, {"category": "content-creation", "created_at": 1773064818867, "description": "Route tasks to free AI models via OpenRouter to save money. Use when the agent needs to delegate content writing, research, code generation, or other tasks t...", "description_zh": "", "downloads": 198, "homepage": "https://clawhub.ai/sieyer/arc-free-worker-dispatch-1-1-0", "iconUrl": null, "installs": 10, "name": "Arc Free Worker Dispatch 1.1.0", "ownerName": "sieyer", "score": 94736.84210526315, "slug": "arc-free-worker-dispatch-1-1-0", "source": "clawhub", "stars": 0, "tags": null, "updated_at": 1776749270708, "version": "1.0.0"}, {"category": "developer-tools", "created_at": 1773088698912, "description": "Deep web search using Codex CLI for complex queries that need multi-source synthesis. Use when web_search (Brave) returns insufficient results, when the user...", "description_zh": "", "downloads": 198, "homepage": "https://clawhub.ai/jiangwzh/codex-deep-search", "iconUrl": null, "installs": 14, "name": "Codex Deep Search", "ownerName": "jiangwzh", "score": 85714.28571428571, "slug": "codex-deep-search", "source": "clawhub", "stars": 0, "tags": null, "updated_at": 1776749270525, "version": "1.0.0"}, {"category": "ai-intelligence", "created_at": 1773079831152, "description": "Play Fomo3D and Slot Machine on BNB Chain (BSC). Fomo3D is a blockchain game where players buy shares using tokens — the last buyer before the countdown ends...", "description_zh": "", "downloads": 198, "homepage": "https://clawhub.ai/erenvance/fomo3d", "iconUrl": null, "installs": 22, "name": "Openclaw Fomo3d", "ownerName": "erenvance", "score": 89189.18918918919, "slug": "fomo3d", "source": "clawhub", "stars": 0, "tags": null, "updated_at": 1776749270327, "version": "1.2.0"}, {"category": "data-analysis", "created_at": 1773073258478, "description": "Restaurant search and booking for OpenClaw. Finds and books restaurants worldwide — Israel via direct API (Ontopo + Tabit), Europe and NYC via browser handof...", "description_zh": "", "downloads": 198, "homepage": "https://clawhub.ai/yhyatt/openclaw-reservation", "iconUrl": null, "installs": 8, "name": "ClawCierge", "ownerName": "yhyatt", "score": 60736.19631901841, "slug": "openclaw-reservation", "source": "clawhub", "stars": 0, "tags": null, "updated_at": 1776749270207, "version": "1.0.1"}, {"category": "developer-tools", "created_at": 1773076484355, "description": "Search French cinema establishments using the open data.culture.gouv.fr API. Query by city, region, proximity, screen count, Art et Essai label, and multiple...", "description_zh": "", "downloads": 198, "homepage": "https://clawhub.ai/deiu/france-cinemas", "iconUrl": null, "installs": 9, "name": "Cinemas in France", "ownerName": "deiu", "score": 89189.18918918919, "slug": "france-cinemas", "source": "clawhub", "stars": 0, "tags": null, "updated_at": 1776749270182, "version": "1.0.1"}]}