{"page": 305, "total_pages": 522, "total": 26073, "skills": [{"category": "data-analysis", "created_at": 1773417007151, "description": "This skill should be used when a user needs to analyze financial statements (Income Statement, Balance Sheet, Cash Flow Statement) from Excel or CSV files. I...", "description_zh": "", "downloads": 198, "homepage": "https://clawhub.ai/zhengmengkaizmk/finance-analyzer", "iconUrl": null, "installs": 36, "name": "finance-analyzer", "ownerName": "zhengmengkaizmk", "score": 64077.669902912625, "slug": "finance-analyzer", "source": "clawhub", "stars": 0, "tags": null, "updated_at": 1776749270112, "version": "1.0.1"}, {"category": "developer-tools", "created_at": 1773219731344, "description": "Make a recipe by giving some ingredients.", "description_zh": "", "downloads": 198, "homepage": "https://clawhub.ai/demonkit/cooking-recipe", "iconUrl": null, "installs": 11, "name": "Cooking Recipe", "ownerName": "demonkit", "score": 64077.669902912625, "slug": "cooking-recipe", "source": "clawhub", "stars": 0, "tags": null, "updated_at": 1776749270081, "version": "1.0.0"}, {"category": "developer-tools", "created_at": 1773065513971, "description": "Optimize Azure dev/test environment costs with auto-shutdown schedules and Dev/Test pricing enrollment", "description_zh": "", "downloads": 198, "homepage": "https://clawhub.ai/anmolnagpal/devtest-optimizer", "iconUrl": null, "installs": 6, "name": "Devtest Optimizer", "ownerName": "anmolnagpal", "score": 92523.3644859813, "slug": "devtest-optimizer", "source": "clawhub", "stars": 0, "tags": null, "updated_at": 1776749270045, "version": "1.0.0"}, {"category": "data-analysis", "created_at": 1773089175766, "description": "Provide agent-to-agent communication for OpenClaw skills with direct messaging, broadcast delivery, pub/sub events, session tracking, offline queues, and SQL...", "description_zh": "", "downloads": 198, "homepage": "https://clawhub.ai/imgolye/agent-communication-hub", "iconUrl": null, "installs": 10, "name": "Agent Communication Hub", "ownerName": "imgolye", "score": 92523.3644859813, "slug": "agent-communication-hub", "source": "clawhub", "stars": 0, "tags": null, "updated_at": 1776749270010, "version": "0.1.0"}, {"category": "developer-tools", "created_at": 1773431026160, "description": "Error: --type required. Use when you need graphql builder capabilities. Triggers on: graphql builder, type, entity, fields, relations, lang.", "description_zh": "", "downloads": 198, "homepage": "https://clawhub.ai/ckchzh/graphql-builder", "iconUrl": null, "installs": 11, "name": "Graphql Builder", "ownerName": "ckchzh", "score": 92523.3644859813, "slug": "graphql-builder", "source": "clawhub", "stars": 0, "tags": ["productivity"], "updated_at": 1776749269987, "version": "2.3.5"}, {"category": "security-compliance", "created_at": 1773068369134, "description": "SEO analysis and optimization via RankForge API — site audits, keyword research, competitor analysis, ranking reports. Use when user needs SEO analysis, keyw...", "description_zh": "", "downloads": 198, "homepage": "https://clawhub.ai/jbennett111/rankforge", "iconUrl": null, "installs": 3, "name": "RankForge", "ownerName": "jbennett111", "score": 95192.30769230769, "slug": "rankforge", "source": "clawhub", "stars": 0, "tags": null, "updated_at": 1776749269965, "version": "1.0.0"}, {"category": "developer-tools", "created_at": 1773066209316, "description": "Control a remote Chrome browser in Kubernetes via HTTP API. Use for web automation, scraping, form filling, navigation, and page inspection. Exposes accessib...", "description_zh": "", "downloads": 198, "homepage": "https://clawhub.ai/vasyaod/remote-browser-service", "iconUrl": null, "installs": 12, "name": "Remote Browser Service", "ownerName": "vasyaod", "score": 90410.95890410959, "slug": "remote-browser-service", "source": "clawhub", "stars": 0, "tags": null, "updated_at": 1776749269799, "version": "1.0.0"}, {"category": "developer-tools", "created_at": 1773091443321, "description": "Apply modern web development best practices for security, compatibility, code quality, and coding standards. Covers KISS/DRY/YAGNI principles, TypeScript/Jav...", "description_zh": "", "downloads": 198, "homepage": "https://clawhub.ai/huamu668/best-practices-ecc", "iconUrl": null, "installs": 20, "name": "Best Practices", "ownerName": "huamu668", "score": 86462.88209606986, "slug": "best-practices-ecc", "source": "clawhub", "stars": 0, "tags": ["best-practices", "coding-standards", "react", "typescript"], "updated_at": 1776749269587, "version": "2.0.0"}, {"category": "developer-tools", "created_at": 1773206951452, "description": "Help kids (ages 5-8) build fun games, drawings, animations, or stories with easy choices, fast results, and colorful, touch-friendly HTML projects.", "description_zh": "", "downloads": 197, "homepage": "https://clawhub.ai/dylanfeltus/tiny-builder", "iconUrl": null, "installs": 23, "name": "Tiny Builder", "ownerName": "dylanfeltus", "score": 16464.33990895296, "slug": "tiny-builder", "source": "clawhub", "stars": 1, "tags": ["creator", "education", "games", "html", "kids"], "updated_at": 1776759420736, "version": "1.0.2"}, {"category": "developer-tools", "created_at": 1773069941094, "description": "Find and compare Tripadvisor hotels, restaurants, and attractions with official API workflows, URL-first navigation, and policy-safe data handling.", "description_zh": "", "downloads": 197, "homepage": "https://clawhub.ai/ivangdavila/tripadvisor", "iconUrl": null, "installs": 16, "name": "Tripadvisor", "ownerName": "ivangdavila", "score": 99541.28440366972, "slug": "tripadvisor", "source": "clawhub", "stars": 1, "tags": null, "updated_at": 1776749271159, "version": "1.0.0"}, {"category": "data-analysis", "created_at": 1773078841321, "description": "Manage multiple Tinder, Bumble, and Hinge accounts for A/B testing profiles, expanding match radius, and scaling outreach. Use mobile-grade residential proxi...", "description_zh": "", "downloads": 197, "homepage": "https://clawhub.ai/luis2404123/tinder-dating-automation", "iconUrl": null, "installs": 9, "name": "Tinder Dating Automation", "ownerName": "luis2404123", "score": 70226.53721682848, "slug": "tinder-dating-automation", "source": "clawhub", "stars": 1, "tags": null, "updated_at": 1776749270062, "version": "1.0.0"}, {"category": "developer-tools", "created_at": 1773218696151, "description": "Transform text content into professional Mermaid diagrams for presentations and documentation. Use when users ask to visualize concepts, create flowcharts, o...", "description_zh": "", "downloads": 197, "homepage": "https://clawhub.ai/axtonliu/mermaid-visualizer", "iconUrl": null, "installs": 26, "name": "Mermaid Visualizer", "ownerName": "axtonliu", "score": 5239.36170212766, "slug": "mermaid-visualizer", "source": "clawhub", "stars": 0, "tags": null, "updated_at": 1776768850350, "version": "1.0.1"}, {"category": "content-creation", "created_at": 1773434682782, "description": "Create language learning audio with SenseAudio TTS, including pronunciation drills, bilingual lessons, slowed speech practice, and dialogue exercises. Use wh...", "description_zh": "", "downloads": 197, "homepage": "https://clawhub.ai/scikkk/language-tutor", "iconUrl": null, "installs": 16, "name": "Language Tutor", "ownerName": "scikkk", "score": 7005.6899004267425, "slug": "language-tutor", "source": "clawhub", "stars": 0, "tags": null, "updated_at": 1776767349812, "version": "1.0.2"}, {"category": "content-creation", "created_at": 1773091420403, "description": "One-click business proposal package generator. Takes a brief project/service description and generates a COMPLETE ready-to-send package: proposal (.docx), pi...", "description_zh": "", "downloads": 197, "homepage": "https://clawhub.ai/ethagent/proposal-kit", "iconUrl": null, "installs": 16, "name": "ProposalKit", "ownerName": "ethagent", "score": 2096.190678867844, "slug": "proposal-kit", "source": "clawhub", "stars": 0, "tags": ["agency", "business", "freelance", "pitch", "proposal"], "updated_at": 1776765590557, "version": "1.0.2"}, {"category": "data-analysis", "created_at": 1773915751814, "description": "Comprehensive crypto market scanner across Binance, OKX, Bybit, and Bitget. 12 scan types covering arbitrage (funding rate, basis, spot spread, futures sprea...", "description_zh": "", "downloads": 197, "homepage": "https://clawhub.ai/zadanthony/arbiscan-skill", "iconUrl": null, "installs": 67, "name": "Arbiscan", "ownerName": "zadanthony", "score": 11036.41456582633, "slug": "arbiscan-skill", "source": "clawhub", "stars": 0, "tags": null, "updated_at": 1776765010406, "version": "0.2.0"}, {"category": "security-compliance", "created_at": 1773416294692, "description": "Let your agent shop online with guardrailed wallets, multiple payment methods, and owner approval.", "description_zh": "", "downloads": 197, "homepage": "https://clawhub.ai/triplehippo/payment", "iconUrl": null, "installs": 2, "name": "Shopping Claw | Is your claw a shopaholic?", "ownerName": "triplehippo", "score": 6104.7412457390765, "slug": "payment", "source": "clawhub", "stars": 0, "tags": null, "updated_at": 1776764950268, "version": "1.0.0"}, {"category": "developer-tools", "created_at": 1773080373290, "description": "สร้างรูปภาพและวิดีโอ AI ฟรีผ่าน Google Gemini และ Google Flow โดยใช้ browser automation ไม่ต้องจ่าย API fee ใช้เมื่อต้องการสร้างสื่อ visual (รูปปก, thumbnail...", "description_zh": "", "downloads": 197, "homepage": "https://clawhub.ai/pbseiya/google-free-media-skill", "iconUrl": null, "installs": 15, "name": "Google Free Media Skill", "ownerName": "pbseiya", "score": 15003.808073115004, "slug": "google-free-media-skill", "source": "clawhub", "stars": 0, "tags": null, "updated_at": 1776759498258, "version": "1.0.0"}, {"category": "data-analysis", "created_at": 1773089923340, "description": "Real-time Bitcoin Kimchi Premium calculator. Compares Bitcoin prices between a Korean exchange (Upbit, KRW) and a global exchange (Binance, USD) to calculate...", "description_zh": "", "downloads": 197, "homepage": "https://clawhub.ai/seungdols/kimp-price", "iconUrl": null, "installs": 23, "name": "kimchi-premium for BTC", "ownerName": "seungdols", "score": 15003.808073115004, "slug": "kimp-price", "source": "clawhub", "stars": 0, "tags": null, "updated_at": 1776759498130, "version": "1.0.0"}, {"category": "content-creation", "created_at": 1773218849568, "description": "The Autonomous Judicial Pleading & Procedural Motion System. A high-density linguistic engine designed to translate complex agentic logic into enforceable le...", "description_zh": "", "downloads": 197, "homepage": "https://clawhub.ai/btcagentic/plea", "iconUrl": null, "installs": 22, "name": "Plea", "ownerName": "btcagentic", "score": 15038.1679389313, "slug": "plea", "source": "clawhub", "stars": 0, "tags": ["justice", "law", "legal", "litigation", "plea"], "updated_at": 1776759498074, "version": "1.0.0"}, {"category": "communication-collaboration", "created_at": 1773080224708, "description": "Monitor async tasks by polling their state and send Discord/Telegram notifications on changes or completion for workflows like CI/CD, deployments, or reviews.", "description_zh": "", "downloads": 197, "homepage": "https://clawhub.ai/lanyasheng/task-watcher", "iconUrl": null, "installs": 7, "name": "Task Watcher Skill", "ownerName": "lanyasheng", "score": 15038.1679389313, "slug": "task-watcher", "source": "clawhub", "stars": 0, "tags": ["async", "automation", "callback", "monitoring"], "updated_at": 1776759498047, "version": "1.2.1"}, {"category": "ai-intelligence", "created_at": 1773091631555, "description": "Automatically generates code based on task descriptions, with optional context and constraints, providing plans, results, and summaries.", "description_zh": "", "downloads": 197, "homepage": "https://clawhub.ai/jason513597/ai-codegenerator", "iconUrl": null, "installs": 11, "name": "Ai Codegenerator", "ownerName": "jason513597", "score": 15003.808073115004, "slug": "ai-codegenerator", "source": "clawhub", "stars": 0, "tags": null, "updated_at": 1776759497902, "version": "1.0.0"}, {"category": "content-creation", "created_at": 1773079388388, "description": "Automatically logs every conversation message to workspace/chat/YYYY-MM-DD.md. Creates new files if needed, always appends never overwrites.", "description_zh": "", "downloads": 197, "homepage": "https://clawhub.ai/jimyxu8812/autochatlogger", "iconUrl": null, "installs": 9, "name": "CHAT—Logger", "ownerName": "jimyxu8812", "score": 15026.697177726925, "slug": "autochatlogger", "source": "clawhub", "stars": 0, "tags": null, "updated_at": 1776759497774, "version": "1.0.1"}, {"category": "data-analysis", "created_at": 1773935294819, "description": "Use this skill for ANY task involving Computer-Aided Drug Design (CADD), computational chemistry, structural bioinformatics, molecular modeling, or AI-driven...", "description_zh": "", "downloads": 197, "homepage": "https://clawhub.ai/chenbq18/research-project-designer", "iconUrl": null, "installs": 62, "name": "SciProjDesigner", "ownerName": "chenbq18", "score": 14723.467862481315, "slug": "research-project-designer", "source": "clawhub", "stars": 0, "tags": null, "updated_at": 1776759227683, "version": "1.0.0"}, {"category": "developer-tools", "created_at": 1773077234624, "description": "Create PMS tasks (bugs or features) on GitHub and sync to Google Sheets. Use when user says 'PMS Bug addition' for bugs or 'PMS Feature addition' for feature...", "description_zh": "", "downloads": 197, "homepage": "https://clawhub.ai/tarasinghrajput/pms-task", "iconUrl": null, "installs": 4, "name": "PMS Task", "ownerName": "tarasinghrajput", "score": 34142.114384748704, "slug": "pms-task", "source": "clawhub", "stars": 0, "tags": ["pms"], "updated_at": 1776755288274, "version": "1.0.0"}, {"category": "developer-tools", "created_at": 1773065048928, "description": "Query up-to-date library documentation and code examples using Context7 MCP. Use when you need current, version-specific documentation for npm packages, Pyth...", "description_zh": "", "downloads": 197, "homepage": "https://clawhub.ai/jolestar/uxc-context7", "iconUrl": null, "installs": 5, "name": "UXC Context7", "ownerName": "jolestar", "score": 90366.97247706422, "slug": "uxc-context7", "source": "clawhub", "stars": 0, "tags": null, "updated_at": 1776749271151, "version": "1.0.0"}, {"category": "developer-tools", "created_at": 1773202973726, "description": "Generate a CLI + AgentSkill from any REST API. Use when: user says 'create a CLI for X', 'wrap this API', 'make a skill for X', 'publish my CLI', 'publish to...", "description_zh": "", "downloads": 197, "homepage": "https://clawhub.ai/melvynx/api2cli", "iconUrl": null, "installs": 8, "name": "api2cli", "ownerName": "melvynx", "score": 90366.97247706422, "slug": "api2cli", "source": "clawhub", "stars": 0, "tags": null, "updated_at": 1776749271123, "version": "1.0.0"}, {"category": "data-analysis", "created_at": 1773084361774, "description": "Monitor live streams (YouTube, Bilibili) and get notified when specific keywords are mentioned. Uses browser SpeechRecognition API for real-time transcriptio...", "description_zh": "", "downloads": 197, "homepage": "https://clawhub.ai/xiaoxu1232/live-stream-monitor", "iconUrl": null, "installs": 21, "name": "live-stream-monitor", "ownerName": "xiaoxu1232", "score": 67006.80272108843, "slug": "live-stream-monitor", "source": "clawhub", "stars": 0, "tags": null, "updated_at": 1776749271107, "version": "1.1.0"}, {"category": "developer-tools", "created_at": 1773068263315, "description": "AI bookkeeping via LedgerAI API — invoice processing, expense categorization, financial reports, receipt scanning. Use when user needs automated bookkeeping,...", "description_zh": "", "downloads": 197, "homepage": "https://clawhub.ai/jbennett111/ledgerai", "iconUrl": null, "installs": 4, "name": "LedgerAI", "ownerName": "jbennett111", "score": 51842.105263157886, "slug": "ledgerai", "source": "clawhub", "stars": 0, "tags": null, "updated_at": 1776749271002, "version": "1.0.0"}, {"category": "content-creation", "created_at": 1773284698688, "description": "News video maker skill. Use search tools to get news, generate speech, and create video with golden subtitles. For creating news briefing videos.", "description_zh": "", "downloads": 197, "homepage": "https://clawhub.ai/izorro/news-video-maker", "iconUrl": null, "installs": 31, "name": "news-video-maker", "ownerName": "izorro", "score": 77559.05511811023, "slug": "news-video-maker", "source": "clawhub", "stars": 0, "tags": null, "updated_at": 1776749270929, "version": "1.0.4"}, {"category": "security-compliance", "created_at": 1773067963980, "description": "Score a website lead 0–100 based on audit signals from the website-auditor skill, assign a priority tier (Hot/Warm/Lukewarm/Cold), and write the result to a...", "description_zh": "", "downloads": 197, "homepage": "https://clawhub.ai/maverick-software/lead-scorer-pro", "iconUrl": null, "installs": 1, "name": "Lead Scorer", "ownerName": "maverick-software", "score": 89954.33789954337, "slug": "lead-scorer-pro", "source": "clawhub", "stars": 0, "tags": null, "updated_at": 1776749270826, "version": "1.0.0"}, {"category": "security-compliance", "created_at": 1773065526403, "description": "Ecosystem differentiation audit pack. MCP firewall, RAG pipeline, sandbox exec, context health, provenance tracking, cost analytics, and token budget optimiz...", "description_zh": "", "downloads": 197, "homepage": "https://clawhub.ai/romainsantoli-web/firm-ecosystem-audit-pack", "iconUrl": null, "installs": 18, "name": "Firm Ecosystem Audit Pack", "ownerName": "romainsantoli-web", "score": 89954.33789954337, "slug": "firm-ecosystem-audit-pack", "source": "clawhub", "stars": 0, "tags": null, "updated_at": 1776749270782, "version": "1.0.0"}, {"category": "content-creation", "created_at": 1773078132834, "description": "Google Slides: Read and write presentations.", "description_zh": "", "downloads": 197, "homepage": "https://clawhub.ai/googleworkspace-bot/gws-slides", "iconUrl": null, "installs": 18, "name": "Gws Slides", "ownerName": "googleworkspace-bot", "score": 94258.37320574163, "slug": "gws-slides", "source": "clawhub", "stars": 0, "tags": null, "updated_at": 1776749270751, "version": "1.0.0"}, {"category": "developer-tools", "created_at": 1773064567481, "description": "Plan, secure, and maintain a home server with Docker services, remote access, backups, and incident recovery.", "description_zh": "", "downloads": 197, "homepage": "https://clawhub.ai/ivangdavila/home-server", "iconUrl": null, "installs": 8, "name": "Home Server", "ownerName": "ivangdavila", "score": 91627.90697674418, "slug": "home-server", "source": "clawhub", "stars": 0, "tags": null, "updated_at": 1776749270628, "version": "1.0.0"}, {"category": "developer-tools", "created_at": 1773845016294, "description": "A cat(1) clone with wings. code viewer, rust, cli, command-line, git, hacktoberfest, rust. Use when you need code viewer capabilities. Triggers on: code viewer.", "description_zh": "", "downloads": 197, "homepage": "https://clawhub.ai/bytesagain/code-viewer", "iconUrl": null, "installs": 8, "name": "Code Viewer", "ownerName": "bytesagain", "score": 91627.90697674418, "slug": "code-viewer", "source": "clawhub", "stars": 0, "tags": null, "updated_at": 1776749270596, "version": "2.3.7"}, {"category": "communication-collaboration", "created_at": 1773088638522, "description": "Telegram bot for business automation — lead capture forms, inline keyboard menus, FAQ matching, appointment booking flows, and payment integration. Use for b...", "description_zh": "", "downloads": 197, "homepage": "https://clawhub.ai/aiwithabidi/telegram-business", "iconUrl": null, "installs": 14, "name": "Telegram Business", "ownerName": "aiwithabidi", "score": 75190.83969465649, "slug": "telegram-business", "source": "clawhub", "stars": 0, "tags": null, "updated_at": 1776749270442, "version": "1.0.0"}, {"category": "data-analysis", "created_at": 1773065591051, "description": "Monitors adjacent systems, upstream dependencies, and downstream consumers for changes that could affect your current work — before they break it. Like biolo...", "description_zh": "", "downloads": 197, "homepage": "https://clawhub.ai/jcools1977/peripheral-vision", "iconUrl": null, "installs": 6, "name": "Peripheral Vision", "ownerName": "jcools1977", "score": 88738.73873873874, "slug": "peripheral-vision", "source": "clawhub", "stars": 0, "tags": null, "updated_at": 1776749270334, "version": "1.0.0"}, {"category": "developer-tools", "created_at": 1773078247545, "description": "Associative memory with spreading activation for persistent, intelligent recall. Use PROACTIVELY when: (1) You need to remember facts, decisions, errors, or...", "description_zh": "", "downloads": 197, "homepage": "https://clawhub.ai/zhuyu28/neural-memory-enhanced", "iconUrl": null, "installs": 8, "name": "Neural Memory Enhanced", "ownerName": "zhuyu28", "score": 60429.44785276073, "slug": "neural-memory-enhanced", "source": "clawhub", "stars": 0, "tags": null, "updated_at": 1776749270263, "version": "1.0.0"}, {"category": "developer-tools", "created_at": 1773201967295, "description": "Engineering Manager Intelligence: track team performance, engineer contributions, and project health across GitLab/GitHub + Jira/GitHub Issues. Use when aske...", "description_zh": "", "downloads": 197, "homepage": "https://clawhub.ai/larryfang/em-intel", "iconUrl": null, "installs": 8, "name": "Engineering Manager Intelligence — Team Performance & Project Health", "ownerName": "larryfang", "score": 60429.44785276073, "slug": "em-intel", "source": "clawhub", "stars": 0, "tags": ["docker", "dora", "engineering-manager", "eod-review", "github", "gitlab", "jira", "morning-brief", "newsletter", "team-performance"], "updated_at": 1776749270229, "version": "2.1.1"}, {"category": "content-creation", "created_at": 1773427023959, "description": "A creative director and storyboard assistant for Seedance 2.0. Use this skill when users want to create professional video prompts, movie scenes, or storyboa...", "description_zh": "", "downloads": 197, "homepage": "https://clawhub.ai/qomob/mad-story", "iconUrl": null, "installs": 50, "name": "MadStory", "ownerName": "qomob", "score": 88738.73873873874, "slug": "mad-story", "source": "clawhub", "stars": 0, "tags": null, "updated_at": 1776749270193, "version": "1.0.1"}, {"category": "data-analysis", "created_at": 1772805062873, "description": "Detect AWS idle and zombie resources consuming cost with zero meaningful utilization", "description_zh": "", "downloads": 197, "homepage": "https://clawhub.ai/anmolnagpal/idle-resource-detector", "iconUrl": null, "installs": 7, "name": "Idle Resource Detector", "ownerName": "anmolnagpal", "score": 92056.07476635514, "slug": "idle-resource-detector", "source": "clawhub", "stars": 0, "tags": null, "updated_at": 1776749270035, "version": "1.0.0"}, {"category": "data-analysis", "created_at": 1773068377186, "description": "Monitor hard-to-get restaurant reservations on Resy, OpenTable, and Tock. Check availability, manage a watchlist, and get Telegram alerts when tables open up.", "description_zh": "", "downloads": 197, "homepage": "https://clawhub.ai/shahedkhan30/resy-hunter", "iconUrl": null, "installs": 7, "name": "Resy Hunter", "ownerName": "shahedkhan30", "score": 92056.07476635514, "slug": "resy-hunter", "source": "clawhub", "stars": 0, "tags": ["automation", "monitoring", "opentable", "reservations", "restaurants", "resy", "telegram", "tock"], "updated_at": 1776749270025, "version": "2.1.0"}, {"category": "content-creation", "created_at": 1773207212059, "description": "Autonomous 24/7 affiliate content production pipeline for OpenClaw agents. Orchestrates research → brief → article writing → quality gate → deploy. Supports...", "description_zh": "", "downloads": 197, "homepage": "https://clawhub.ai/sonnenberglauramarie-afk/max-content-machine", "iconUrl": null, "installs": 12, "name": "Max Content Machine", "ownerName": "sonnenberglauramarie-afk", "score": 93809.52380952382, "slug": "max-content-machine", "source": "clawhub", "stars": 0, "tags": null, "updated_at": 1776749269845, "version": "1.0.0"}, {"category": "productivity", "created_at": 1773065900666, "description": "Timezone conversion, current time, date arithmetic, and epoch conversion.", "description_zh": "", "downloads": 197, "homepage": "https://clawhub.ai/cutthemustard/time-convert", "iconUrl": null, "installs": 8, "name": "Time Convert", "ownerName": "cutthemustard", "score": 93809.52380952382, "slug": "time-convert", "source": "clawhub", "stars": 0, "tags": null, "updated_at": 1776749269808, "version": "1.0.0"}, {"category": "developer-tools", "created_at": 1773066407382, "description": "Extract contact information from a website using a 3-tier approach. Direct HTML scraping, WHOIS lookup, then Hunter.io API domain search for verified busines...", "description_zh": "", "downloads": 197, "homepage": "https://clawhub.ai/maverick-software/contact-enrichment", "iconUrl": null, "installs": 6, "name": "Contact Enrichment", "ownerName": "maverick-software", "score": 89954.33789954337, "slug": "contact-enrichment", "source": "clawhub", "stars": 0, "tags": null, "updated_at": 1776749269739, "version": "1.0.0"}, {"category": "security-compliance", "created_at": 1773064323913, "description": "Reliability probing and documentation sync pack. Gateway health probing, documentation sync validation, channel audit, and ADR generation. 4 reliability tools.", "description_zh": "", "downloads": 197, "homepage": "https://clawhub.ai/romainsantoli-web/firm-reliability-pack", "iconUrl": null, "installs": 6, "name": "Firm Reliability Pack", "ownerName": "romainsantoli-web", "score": 89954.33789954337, "slug": "firm-reliability-pack", "source": "clawhub", "stars": 0, "tags": null, "updated_at": 1776749269726, "version": "1.0.0"}, {"category": "data-analysis", "created_at": 1773076730914, "description": "Run retrospective analysis for campaigns on Meta (Facebook/Instagram), Google Ads, TikTok Ads, YouTube Ads, Amazon Ads, and DSP/programmatic channels.", "description_zh": "", "downloads": 197, "homepage": "https://clawhub.ai/danyangliu-sandwichlab/campaign-retrospective-analyst", "iconUrl": null, "installs": 9, "name": "Ads Campaign Review", "ownerName": "danyangliu-sandwichlab", "score": 88340.80717488789, "slug": "campaign-retrospective-analyst", "source": "clawhub", "stars": 0, "tags": null, "updated_at": 1776749269663, "version": "1.0.0"}, {"category": "content-creation", "created_at": 1773068061372, "description": "Build, configure, and deploy conversational video agents using the Trugen AI platform API. Use this skill when the user wants to create AI video avatars, man...", "description_zh": "", "downloads": 197, "homepage": "https://clawhub.ai/ajayk47/trugenai", "iconUrl": null, "installs": 16, "name": "Trugen AI", "ownerName": "ajayk47", "score": 88340.80717488789, "slug": "trugenai", "source": "clawhub", "stars": 0, "tags": ["trugen-ai", "trugenai", "trugenai api", "video agents", "video avatars"], "updated_at": 1776749269645, "version": "1.0.1"}, {"category": "data-analysis", "created_at": 1773091227342, "description": "Web dashboard for real-time monitoring and management of OpenClaw subagents. Use when monitoring or managing subagents.", "description_zh": "", "downloads": 197, "homepage": "https://clawhub.ai/runeweaverstudios/subagent-dashboard", "iconUrl": null, "installs": 8, "name": "Subagent Dashboard", "ownerName": "runeweaverstudios", "score": 86026.20087336244, "slug": "subagent-dashboard", "source": "clawhub", "stars": 0, "tags": null, "updated_at": 1776749269592, "version": "1.0.0"}, {"category": "content-creation", "created_at": 1773083186609, "description": "Advanced SEO content creation with multi-language support, content refresh, SEO scoring, and competitor analysis. Perfect for content creators and agencies.", "description_zh": "", "downloads": 197, "homepage": "https://clawhub.ai/fly3094/seo-content-pro", "iconUrl": null, "installs": 19, "name": "SEO Content Pro", "ownerName": "fly3094", "score": 86026.20087336244, "slug": "seo-content-pro", "source": "clawhub", "stars": 0, "tags": ["article", "blog", "content", "marketing", "multi-language", "research", "seo", "writing"], "updated_at": 1776749269589, "version": "1.0.0"}, {"category": "productivity", "created_at": 1773067845805, "description": "Generate and evaluate ad creatives for Meta (Facebook/Instagram), TikTok Ads, YouTube Ads, Google Ads, and Amazon Ads with script generation, performance sco...", "description_zh": "", "downloads": 197, "homepage": "https://clawhub.ai/danyangliu-sandwichlab/creative-ads-helper", "iconUrl": null, "installs": 7, "name": "Creative Helper", "ownerName": "danyangliu-sandwichlab", "score": 86026.20087336244, "slug": "creative-ads-helper", "source": "clawhub", "stars": 0, "tags": null, "updated_at": 1776749269561, "version": "1.0.0"}]}