{"page": 306, "total_pages": 522, "total": 26073, "skills": [{"category": "communication-collaboration", "created_at": 1773064884826, "description": "Send tracked emails via Gmail and check if they were opened.", "description_zh": "", "downloads": 197, "homepage": "https://clawhub.ai/cseguinlz/doubletick", "iconUrl": null, "installs": 5, "name": "DoubleTick", "ownerName": "cseguinlz", "score": 86026.20087336244, "slug": "doubletick", "source": "clawhub", "stars": 0, "tags": null, "updated_at": 1776749269552, "version": "1.0.1"}, {"category": "ai-intelligence", "created_at": 1773065669979, "description": "Add a Historical Figures Advisory Board to AI agent personalities. 10 pre-configured personas inspired by public-domain historical figures for strategic advice.", "description_zh": "", "downloads": 196, "homepage": "https://clawhub.ai/jcrowan3/personanexus-bod", "iconUrl": null, "installs": 18, "name": "Personal Board of Directors", "ownerName": "jcrowan3", "score": 42772.27722772277, "slug": "personanexus-bod", "source": "clawhub", "stars": 1, "tags": null, "updated_at": 1776750469754, "version": "1.0.0"}, {"category": "security-compliance", "created_at": 1773208679966, "description": "Billions/Iden3 authentication and identity management tools for agents. Link, proof, sign, and verify.", "description_zh": "", "downloads": 196, "homepage": "https://clawhub.ai/web3dropper/web3dropper-verified-agent", "iconUrl": null, "installs": 21, "name": "Web3Dropper Verified Agent", "ownerName": "web3dropper", "score": 73469.38775510204, "slug": "web3dropper-verified-agent", "source": "clawhub", "stars": 1, "tags": null, "updated_at": 1776749271065, "version": "1.0.0"}, {"category": "developer-tools", "created_at": 1773843444419, "description": "100% FREE local web search for OpenClaw. Secure localhost-only SearXNG deployment. Supports hidden --dev flag.", "description_zh": "", "downloads": 196, "homepage": "https://clawhub.ai/pipepi/free-local-web-search", "iconUrl": null, "installs": 8, "name": "free-local-web-search", "ownerName": "pipepi", "score": 85039.37007874016, "slug": "free-local-web-search", "source": "clawhub", "stars": 1, "tags": null, "updated_at": 1776749270926, "version": "1.0.7"}, {"category": "developer-tools", "created_at": 1773077994272, "description": "Bootstrap a fresh VPS from zero to a fully operational OpenClaw deployment, with backup/restore and post-recovery verification. Use when setting up OpenClaw...", "description_zh": "", "downloads": 196, "homepage": "https://clawhub.ai/lolaopenclaw/vps-bootstrap", "iconUrl": null, "installs": 10, "name": "VPS Bootstrap", "ownerName": "lolaopenclaw", "score": 86746.98795180723, "slug": "vps-bootstrap", "source": "clawhub", "stars": 1, "tags": null, "updated_at": 1776749270661, "version": "1.0.0"}, {"category": "content-creation", "created_at": 1773080822318, "description": "Free basic version that converts YouTube transcript into a structured blog draft. Reserves premium upgrade hooks for SEO optimization and multi-platform publ...", "description_zh": "", "downloads": 196, "homepage": "https://clawhub.ai/wingogx/youtube-video-to-blog-converter", "iconUrl": null, "installs": 17, "name": "YouTube Video To Blog Converter", "ownerName": "wingogx", "score": 97297.29729729731, "slug": "youtube-video-to-blog-converter", "source": "clawhub", "stars": 1, "tags": ["content", "free", "youtube"], "updated_at": 1776749270167, "version": "1.0.0"}, {"category": "productivity", "created_at": 1773091156531, "description": "Keep project documentation in sync with code changes. Identifies which docs need updating after a PR merges or code changes, drafts the updates, and manages...", "description_zh": "", "downloads": 196, "homepage": "https://clawhub.ai/chriscox/docs-sync", "iconUrl": null, "installs": 9, "name": "Docs Sync", "ownerName": "chriscox", "score": 69902.91262135922, "slug": "docs-sync", "source": "clawhub", "stars": 1, "tags": null, "updated_at": 1776749270126, "version": "1.0.3"}, {"category": "developer-tools", "created_at": 1773063950295, "description": "100% non-custodial agent-to-agent swap router API. Execute single-chain and cross-chain token swaps with zero custody via FarmDash.", "description_zh": "", "downloads": 196, "homepage": "https://clawhub.ai/parmasanandgarlic/farmdash-signal-architect", "iconUrl": null, "installs": 7, "name": "FarmDash Signal Architect", "ownerName": "parmasanandgarlic", "score": 96860.98654708521, "slug": "farmdash-signal-architect", "source": "clawhub", "stars": 1, "tags": ["latest defi farming airdrop swap routing zero-custody mcp lifi 0x protocol yield farm points tracker"], "updated_at": 1776749269638, "version": "1.1.1"}, {"category": "developer-tools", "created_at": 1773091755432, "description": "Bootstrap or upgrade a software repository for agent-first engineering. Use when a user wants to improve project-wide development discipline around `AGENTS.m...", "description_zh": "", "downloads": 196, "homepage": "https://clawhub.ai/yeyitech/agent-harness-engineering", "iconUrl": null, "installs": 19, "name": "Agent Harness Engineering", "ownerName": "yeyitech", "score": 4565.5718611693455, "slug": "agent-harness-engineering", "source": "clawhub", "stars": 0, "tags": ["agents", "bootstrap", "documentation", "engineering", "repo-tooling"], "updated_at": 1776767049861, "version": "0.1.0"}, {"category": "data-analysis", "created_at": 1773222040931, "description": "Run comprehensive SEO audits on any website and generate actionable reports. Use when the user asks to audit a website's SEO, check technical SEO issues, ana...", "description_zh": "", "downloads": 196, "homepage": "https://clawhub.ai/johnnywang2001/seo-audit-report", "iconUrl": null, "installs": 26, "name": "SEO Audit Report", "ownerName": "johnnywang2001", "score": 7602.792862684251, "slug": "seo-audit-report", "source": "clawhub", "stars": 0, "tags": null, "updated_at": 1776765550232, "version": "1.0.0"}, {"category": "ai-intelligence", "created_at": 1773078415187, "description": "Production-hardened OpenClaw gateway watchdog. Monitors the gateway process using graduated health checks, performs escalating repairs (restart → doctor fix...", "description_zh": "", "downloads": 196, "homepage": "https://clawhub.ai/zurbrick/gateway-sentinel", "iconUrl": null, "installs": 22, "name": "Gateway Sentinel", "ownerName": "zurbrick", "score": 5081.669691470054, "slug": "gateway-sentinel", "source": "clawhub", "stars": 0, "tags": null, "updated_at": 1776762850466, "version": "1.0.0"}, {"category": "security-compliance", "created_at": 1773218970986, "description": "A comprehensive AI agent skill for understanding surety bonds across business, construction, and legal contexts. Explains what surety bonds are, who needs th...", "description_zh": "", "downloads": 196, "homepage": "https://clawhub.ai/duclawbot/surety", "iconUrl": null, "installs": 33, "name": "Surety", "ownerName": "duclawbot", "score": 91588.78504672897, "slug": "surety", "source": "clawhub", "stars": 0, "tags": ["bond", "construction", "legal", "performance", "surety"], "updated_at": 1776759498458, "version": "1.0.0"}, {"category": "communication-collaboration", "created_at": 1773083748576, "description": "How AI agents should register, discover other agents, post orders, and interact in the on-chain chatroom on clawmarket.tech. Use when implementing agent regi...", "description_zh": "", "downloads": 196, "homepage": "https://clawhub.ai/ehwwpk/clawmarket-tech", "iconUrl": null, "installs": 5, "name": "clawmarket", "ownerName": "ehwwpk", "score": 91588.78504672897, "slug": "clawmarket-tech", "source": "clawhub", "stars": 0, "tags": null, "updated_at": 1776759498458, "version": "1.0.1"}, {"category": "productivity", "created_at": 1773084093892, "description": "Autonomously breaks coding tasks into spec, plan, code, and QA phases, executing all heavy work via Claude Code with multi-account rate limit rotation.", "description_zh": "", "downloads": 196, "homepage": "https://clawhub.ai/windseeker1111/flowforge", "iconUrl": null, "installs": 5, "name": "FlowForge", "ownerName": "windseeker1111", "score": 91588.78504672897, "slug": "flowforge", "source": "clawhub", "stars": 0, "tags": null, "updated_at": 1776759498457, "version": "1.0.0"}, {"category": "security-compliance", "created_at": 1773219567966, "description": "ClawHub reputation checker for ClawSec suite. Enhances guarded skill installer with VirusTotal Code Insight reputation scores and additional safety checks.", "description_zh": "", "downloads": 196, "homepage": "https://clawhub.ai/davida-ps/clawsec-clawhub-checker", "iconUrl": null, "installs": 17, "name": "clawsec-clawhub-checker", "ownerName": "davida-ps", "score": 91588.78504672897, "slug": "clawsec-clawhub-checker", "source": "clawhub", "stars": 0, "tags": null, "updated_at": 1776759498449, "version": "0.0.1"}, {"category": "data-analysis", "created_at": 1773082374298, "description": "Track habit formation with daily check-ins, reminders for missed logs, and statistics on consecutive completion days.", "description_zh": "", "downloads": 196, "homepage": "https://clawhub.ai/hanksu7889/sulada-habit-tracker", "iconUrl": null, "installs": 18, "name": "habit-tracker", "ownerName": "hanksu7889", "score": 91588.78504672897, "slug": "sulada-habit-tracker", "source": "clawhub", "stars": 0, "tags": null, "updated_at": 1776759498433, "version": "1.0.0"}, {"category": "content-creation", "created_at": 1773090181481, "description": "Genera y gestiona videos UGC para marcas argentinas con pipeline completo, desde guión hasta publicación en redes, con control manual y logs.", "description_zh": "", "downloads": 196, "homepage": "https://clawhub.ai/pauldelavallaz/morfeo-ugc-engine", "iconUrl": null, "installs": 8, "name": "Morfeo UGC Engine", "ownerName": "pauldelavallaz", "score": 14984.709480122325, "slug": "morfeo-ugc-engine", "source": "clawhub", "stars": 0, "tags": null, "updated_at": 1776759498347, "version": "1.0.0"}, {"category": "security-compliance", "created_at": 1773069466203, "description": "Analisa URLs, domínios e IPs para verificar reputação e detectar malware ou phishing usando VirusTotal e AbuseIPDB.", "description_zh": "", "downloads": 196, "homepage": "https://clawhub.ai/runawaydevil/klaus-ioc-scan", "iconUrl": null, "installs": 5, "name": "Klaus IOC Scanner", "ownerName": "runawaydevil", "score": 14927.646610814927, "slug": "klaus-ioc-scan", "source": "clawhub", "stars": 0, "tags": ["abuseipdb", "ioc", "security", "virustotal"], "updated_at": 1776759498294, "version": "1.0.0"}, {"category": "content-creation", "created_at": 1773083352208, "description": "Visualize bounding boxes and class labels on images with support for COCO, YOLO, VOC, and LabelMe annotation formats.", "description_zh": "", "downloads": 196, "homepage": "https://clawhub.ai/mingo-318/annotation-visualizer", "iconUrl": null, "installs": 11, "name": "Annotation Visualizer", "ownerName": "mingo-318", "score": 14961.832061068702, "slug": "annotation-visualizer", "source": "clawhub", "stars": 0, "tags": null, "updated_at": 1776759498203, "version": "1.0.0"}, {"category": "content-creation", "created_at": 1773068839290, "description": "Automates lead scraping, segmentation, personalized multi-channel outreach, ad hooks, video asset creation, and delivers a full outbound campaign brief in 15...", "description_zh": "", "downloads": 196, "homepage": "https://clawhub.ai/g4dr/outbound-campaign-autopilot", "iconUrl": null, "installs": 8, "name": "Outbound Campaign Autopilot — From Niche to Full Campaign in 15 Minutes", "ownerName": "g4dr", "score": 14927.646610814927, "slug": "outbound-campaign-autopilot", "source": "clawhub", "stars": 0, "tags": ["apify", "autopilot", "b2b-sales", "campaign", "cold-email", "email-sequence", "invideo", "lead-generation", "linkedin-outreach", "outbound", "sales-automation", "sdr"], "updated_at": 1776759498176, "version": "1.0.0"}, {"category": "data-analysis", "created_at": 1773069365917, "description": "Access and search Brazilian Chamber of Deputies data including deputies, bills, votes, committees, agendas, expenses, and legislative statuses via public API...", "description_zh": "", "downloads": 196, "homepage": "https://clawhub.ai/olegantonov/camara-deputados", "iconUrl": null, "installs": 4, "name": "Câmara dos Deputados", "ownerName": "olegantonov", "score": 14927.646610814927, "slug": "camara-deputados", "source": "clawhub", "stars": 0, "tags": null, "updated_at": 1776759497937, "version": "1.0.0"}, {"category": "data-analysis", "created_at": 1773221027236, "description": "Explore, filter, summarize, and visualize CSV data directly in terminal with interactive queries.", "description_zh": "", "downloads": 196, "homepage": "https://clawhub.ai/derick001/csv-data-explorer", "iconUrl": null, "installs": 18, "name": "CSV Data Explorer", "ownerName": "derick001", "score": 14927.646610814927, "slug": "csv-data-explorer", "source": "clawhub", "stars": 0, "tags": null, "updated_at": 1776759497919, "version": "1.0.0"}, {"category": "ai-intelligence", "created_at": 1773063078354, "description": "Automatically scans labeled Gmail travel bookings to create detailed trip files with alerts, checklists, day plans, visa info, and recommendations for groups.", "description_zh": "", "downloads": 196, "homepage": "https://clawhub.ai/yhyatt/clawtourism", "iconUrl": null, "installs": 11, "name": "ClawTourism", "ownerName": "yhyatt", "score": 14927.646610814927, "slug": "clawtourism", "source": "clawhub", "stars": 0, "tags": null, "updated_at": 1776759497915, "version": "0.2.2"}, {"category": "developer-tools", "created_at": 1773091042889, "description": "Assist users in planning and structuring websites by defining goals, proposing site architecture, writing copy, and outlining implementation steps for quick...", "description_zh": "", "downloads": 196, "homepage": "https://clawhub.ai/andrewgufx/website-builder", "iconUrl": null, "installs": 2, "name": "ANDG", "ownerName": "andrewgufx", "score": 14927.646610814927, "slug": "website-builder", "source": "clawhub", "stars": 0, "tags": null, "updated_at": 1776759497907, "version": "1.0.0"}, {"category": "developer-tools", "created_at": 1773080687390, "description": "Search and scrape Indeed job listings and company information using Bright Data's Web Scraper API. Use when the user asks to find jobs on Indeed, search for...", "description_zh": "", "downloads": 196, "homepage": "https://clawhub.ai/foreztgump/indeed-brightdata", "iconUrl": null, "installs": 9, "name": "Indeed Brightdata", "ownerName": "foreztgump", "score": 14950.419527078566, "slug": "indeed-brightdata", "source": "clawhub", "stars": 0, "tags": null, "updated_at": 1776759497780, "version": "0.1.4"}, {"category": "productivity", "created_at": 1773426841498, "description": "Local-first reading and distillation engine for documents and pasted text. Use whenever the user wants to read, summarize, extract key points, compare docume...", "description_zh": "", "downloads": 196, "homepage": "https://clawhub.ai/projectsnowwork/reader", "iconUrl": null, "installs": 11, "name": "Reader", "ownerName": "projectsnowwork", "score": 12002.44947948561, "slug": "reader", "source": "clawhub", "stars": 0, "tags": null, "updated_at": 1776756982591, "version": "1.0.0"}, {"category": "data-analysis", "created_at": 1773430147987, "description": "Access live TikTok data via the CreatorCrawl API. Look up creator profiles, search videos, pull comments and transcripts, track trending hashtags, discover p...", "description_zh": "", "downloads": 196, "homepage": "https://clawhub.ai/simonbalfe/tiktok-scraper", "iconUrl": null, "installs": 35, "name": "tiktok-scraper", "ownerName": "simonbalfe", "score": 66666.66666666666, "slug": "tiktok-scraper", "source": "clawhub", "stars": 0, "tags": null, "updated_at": 1776749271110, "version": "1.0.0"}, {"category": "ai-intelligence", "created_at": 1773081687983, "description": "[Aibrary] Generate a book dialogue podcast script with two speakers — a host and a guest expert — discussing the book's ideas in a natural conversation. Use...", "description_zh": "", "downloads": 196, "homepage": "https://clawhub.ai/asoiso/aibrary-podcast-dialogue", "iconUrl": null, "installs": 12, "name": "Aibrary Podcast Dialogue", "ownerName": "asoiso", "score": 51578.94736842106, "slug": "aibrary-podcast-dialogue", "source": "clawhub", "stars": 0, "tags": null, "updated_at": 1776749271017, "version": "0.1.0"}, {"category": "productivity", "created_at": 1773069651668, "description": "Testing patterns for Zod schemas using Jest and Vitest. Covers schema correctness testing, mock data generation, error assertion patterns, integration testin...", "description_zh": "", "downloads": 196, "homepage": "https://clawhub.ai/anivar/zod-testing", "iconUrl": null, "installs": 8, "name": "Zod Testing", "ownerName": "anivar", "score": 51578.94736842106, "slug": "zod-testing", "source": "clawhub", "stars": 0, "tags": null, "updated_at": 1776749270989, "version": "1.0.1"}, {"category": "productivity", "created_at": 1773078101564, "description": "Transforms debugging sessions into a text-based dungeon crawl. Your bug is the final boss. Stack frames are dungeon rooms. Variables are loot. Log messages a...", "description_zh": "", "downloads": 196, "homepage": "https://clawhub.ai/jcools1977/dungeon-debug", "iconUrl": null, "installs": 14, "name": "Dungeon Debug", "ownerName": "jcools1977", "score": 77165.35433070865, "slug": "dungeon-debug", "source": "clawhub", "stars": 0, "tags": null, "updated_at": 1776749270985, "version": "1.0.0"}, {"category": "security-compliance", "created_at": 1773076050908, "description": "Sign in to OpenAnt. Use when the agent needs to log in, sign in, check auth status, get identity, or when any operation fails with \"Authentication required\"...", "description_zh": "", "downloads": 196, "homepage": "https://clawhub.ai/ant-1984/authenticate-openant", "iconUrl": null, "installs": 3, "name": "Authenticate Openant", "ownerName": "ant-1984", "score": 77165.35433070865, "slug": "authenticate-openant", "source": "clawhub", "stars": 0, "tags": null, "updated_at": 1776749270941, "version": "0.1.1"}, {"category": "content-creation", "created_at": 1773289600478, "description": "Use when writing or editing prose humans will read — documentation, commit messages, error messages, READMEs, reports, UI text, explanations. Triggers on cla...", "description_zh": "", "downloads": 196, "homepage": "https://clawhub.ai/poemswe/clarity-and-grace", "iconUrl": null, "installs": 2, "name": "Writing", "ownerName": "poemswe", "score": 77165.35433070865, "slug": "clarity-and-grace", "source": "clawhub", "stars": 0, "tags": null, "updated_at": 1776749270924, "version": "1.0.0"}, {"category": "developer-tools", "created_at": 1773067363289, "description": "People and company intelligence via the Sixtyfour AI API. AI research agents that read the live web — not static databases — to return structured, confidence...", "description_zh": "", "downloads": 196, "homepage": "https://clawhub.ai/rxhxm/sixtyfour-skill", "iconUrl": null, "installs": 5, "name": "Sixtyfour Skill", "ownerName": "rxhxm", "score": 91588.78504672897, "slug": "sixtyfour-skill", "source": "clawhub", "stars": 0, "tags": null, "updated_at": 1776749270845, "version": "1.0.0"}, {"category": "developer-tools", "created_at": 1773088812957, "description": "Use The Graph Token API MCP through UXC for token metadata, wallet balances, transfers, holders, pools, and market data with help-first inspection and Token...", "description_zh": "", "downloads": 196, "homepage": "https://clawhub.ai/jolestar/thegraph-token-mcp-skill", "iconUrl": null, "installs": 10, "name": "Thegraph Token Mcp Skill", "ownerName": "jolestar", "score": 89497.71689497716, "slug": "thegraph-token-mcp-skill", "source": "clawhub", "stars": 0, "tags": null, "updated_at": 1776749270810, "version": "1.0.1"}, {"category": "data-analysis", "created_at": 1773066150914, "description": "Safe OpenClaw config planning/apply workflow with bilingual execution receipts.", "description_zh": "", "downloads": 196, "homepage": "https://clawhub.ai/edmond-ai/oc-guard", "iconUrl": null, "installs": 8, "name": "OC Guard", "ownerName": "edmond-ai", "score": 89497.71689497716, "slug": "oc-guard", "source": "clawhub", "stars": 0, "tags": null, "updated_at": 1776749270787, "version": "1.0.2"}, {"category": "developer-tools", "created_at": 1773068179147, "description": "Use for every task involving this project. Covers running Ganglion, its CLI commands, HTTP bridge API, pipeline execution, knowledge queries, configuration,...", "description_zh": "", "downloads": 196, "homepage": "https://clawhub.ai/tensorlink-dev/codebase-guide", "iconUrl": null, "installs": 4, "name": "Codebase Guide", "ownerName": "tensorlink-dev", "score": 93779.9043062201, "slug": "codebase-guide", "source": "clawhub", "stars": 0, "tags": null, "updated_at": 1776749270688, "version": "1.0.0"}, {"category": "productivity", "created_at": 1773078678992, "description": "Interpret Microsoft Defender for Cloud Secure Score and generate a prioritized remediation roadmap", "description_zh": "", "downloads": 196, "homepage": "https://clawhub.ai/anmolnagpal/defender-posture-reviewer", "iconUrl": null, "installs": 8, "name": "Defender Posture Reviewer", "ownerName": "anmolnagpal", "score": 78714.859437751, "slug": "defender-posture-reviewer", "source": "clawhub", "stars": 0, "tags": null, "updated_at": 1776749270666, "version": "1.0.0"}, {"category": "productivity", "created_at": 1773075282368, "description": "Proactive context monitoring with smart 3-level alerts. Know when to restart before quality degrades.", "description_zh": "", "downloads": 196, "homepage": "https://clawhub.ai/brucey0017-cloud/context-guardian", "iconUrl": null, "installs": 7, "name": "Context Guardian", "ownerName": "brucey0017-cloud", "score": 91162.79069767443, "slug": "context-guardian", "source": "clawhub", "stars": 0, "tags": null, "updated_at": 1776749270619, "version": "1.0.1"}, {"category": "ai-intelligence", "created_at": 1773286127405, "description": "Stop your AI agent from forgetting everything between sessions. Three-tier memory architecture (long-term owner namespace / daily logs / session handoff), cr...", "description_zh": "", "downloads": 196, "homepage": "https://clawhub.ai/theshadowrose/agent-memory-sr", "iconUrl": null, "installs": 36, "name": "Agent Memory Persistent Workspace Memory System", "ownerName": "theshadowrose", "score": 84848.48484848485, "slug": "agent-memory-sr", "source": "clawhub", "stars": 0, "tags": ["agent", "context", "continuity", "memory", "openclaw", "persistence", "workspace"], "updated_at": 1776749270548, "version": "1.0.0"}, {"category": "content-creation", "created_at": 1773089433641, "description": "Use ConvertAgent for file format conversions through the local CLI. Trigger for any request to convert files (documents, images, audio, video, spreadsheets,...", "description_zh": "", "downloads": 196, "homepage": "https://clawhub.ai/enigami12/convertagent", "iconUrl": null, "installs": 12, "name": "ConvertAgent", "ownerName": "enigami12", "score": 74809.16030534351, "slug": "convertagent", "source": "clawhub", "stars": 0, "tags": null, "updated_at": 1776749270454, "version": "0.1.0"}, {"category": "productivity", "created_at": 1773063139424, "description": "Multi-instance Gateway fleet management pack. Status monitoring, dynamic add/remove, broadcast commands, config sync, and fleet inventory. 6 fleet orchestrat...", "description_zh": "", "downloads": 196, "homepage": "https://clawhub.ai/romainsantoli-web/firm-fleet-manager-pack", "iconUrl": null, "installs": 9, "name": "Firm Fleet Manager Pack", "ownerName": "romainsantoli-web", "score": 91162.79069767443, "slug": "firm-fleet-manager-pack", "source": "clawhub", "stars": 0, "tags": null, "updated_at": 1776749270350, "version": "1.0.0"}, {"category": "developer-tools", "created_at": 1773088633206, "description": "Segment — manage sources, destinations, events, and tracking plans via Config & Tracking APIs", "description_zh": "", "downloads": 196, "homepage": "https://clawhub.ai/aiwithabidi/segment", "iconUrl": null, "installs": 7, "name": "Segment", "ownerName": "aiwithabidi", "score": 88288.28828828828, "slug": "segment", "source": "clawhub", "stars": 0, "tags": null, "updated_at": 1776749270133, "version": "1.0.0"}, {"category": "ai-intelligence", "created_at": 1773428054991, "description": "Start from what must be true. Stop answering on autopilot.", "description_zh": "", "downloads": 196, "homepage": "https://clawhub.ai/projectsnowwork/logic", "iconUrl": null, "installs": 9, "name": "logic", "ownerName": "projectsnowwork", "score": 94230.76923076923, "slug": "logic", "source": "clawhub", "stars": 0, "tags": null, "updated_at": 1776749269948, "version": "1.0.2"}, {"category": "security-compliance", "created_at": 1773066648288, "description": "A high-tier coding assistant specializing in Next.js (React) and FastAPI (Python) architecture, security, and performance.", "description_zh": "", "downloads": 196, "homepage": "https://clawhub.ai/jjkb-1995/best-ai-agent", "iconUrl": null, "installs": 14, "name": "ai-skill", "ownerName": "jjkb-1995", "score": 94230.76923076923, "slug": "best-ai-agent", "source": "clawhub", "stars": 0, "tags": ["-best-agent"], "updated_at": 1776749269938, "version": "1.0.0"}, {"category": "developer-tools", "created_at": 1773076926531, "description": "CRITICAL - Guide for using Ex-Coder Autonomy CLI with OpenRouter/Groq models. Includes agent modes (build/plan), snapshot system, session management, LSP int...", "description_zh": "", "downloads": 196, "homepage": "https://clawhub.ai/lordmahakaal/excoder-autonomy", "iconUrl": null, "installs": 8, "name": "Ex-Coder", "ownerName": "lordmahakaal", "score": 94230.76923076923, "slug": "excoder-autonomy", "source": "clawhub", "stars": 0, "tags": null, "updated_at": 1776749269914, "version": "1.1.3"}, {"category": "content-creation", "created_at": 1773077793358, "description": "Jest best practices, patterns, and API guidance for JavaScript/TypeScript testing. Covers mock design, async testing, matchers, timer mocks, snapshots, modul...", "description_zh": "", "downloads": 196, "homepage": "https://clawhub.ai/anivar/jest-skill", "iconUrl": null, "installs": 10, "name": "Jest", "ownerName": "anivar", "score": 94230.76923076923, "slug": "jest-skill", "source": "clawhub", "stars": 0, "tags": null, "updated_at": 1776749269912, "version": "1.0.0"}, {"category": "developer-tools", "created_at": 1773078500319, "description": "Neon serverless Postgres — manage projects, branches, databases, roles, endpoints, and compute via the Neon API. Create database branches for development, ma...", "description_zh": "", "downloads": 196, "homepage": "https://clawhub.ai/aiwithabidi/neon", "iconUrl": null, "installs": 8, "name": "Neon", "ownerName": "aiwithabidi", "score": 94230.76923076923, "slug": "neon", "source": "clawhub", "stars": 0, "tags": null, "updated_at": 1776749269905, "version": "1.0.0"}, {"category": "developer-tools", "created_at": 1773067605010, "description": "Healthie — manage patients, appointments, goals, and documents via GraphQL API", "description_zh": "", "downloads": 196, "homepage": "https://clawhub.ai/aiwithabidi/healthie", "iconUrl": null, "installs": 5, "name": "Healthie", "ownerName": "aiwithabidi", "score": 89497.71689497716, "slug": "healthie", "source": "clawhub", "stars": 0, "tags": null, "updated_at": 1776749269741, "version": "1.0.0"}, {"category": "ai-intelligence", "created_at": 1773429684166, "description": "This skill generates storyboard prompts for Seedance 2.0", "description_zh": "", "downloads": 196, "homepage": "https://clawhub.ai/mebusw/jackyshen-seedance-promptor", "iconUrl": null, "installs": 56, "name": "jackyshen-seedance-promptor", "ownerName": "mebusw", "score": 89497.71689497716, "slug": "jackyshen-seedance-promptor", "source": "clawhub", "stars": 0, "tags": null, "updated_at": 1776749269707, "version": "1.0.0"}, {"category": "data-analysis", "created_at": 1773424925290, "description": "Complete Kalshi trading command interface — portfolio P&L, live market scanning with edge scoring, trade execution, and risk management through your OpenClaw...", "description_zh": "", "downloads": 196, "homepage": "https://clawhub.ai/kingmadellc/kalshi-command-center", "iconUrl": null, "installs": 14, "name": "Kalshi Command Center", "ownerName": "kingmadellc", "score": 87892.37668161435, "slug": "kalshi-command-center", "source": "clawhub", "stars": 0, "tags": null, "updated_at": 1776749269690, "version": "1.1.0"}]}