{"page": 307, "total_pages": 522, "total": 26073, "skills": [{"category": "data-analysis", "created_at": 1773084777820, "description": "Analyze resumes for target roles, identify weak bullets, missing keywords, ATS gaps, and provide actionable rewrite suggestions.", "description_zh": "", "downloads": 196, "homepage": "https://clawhub.ai/andrewgufx/resume-reviewer", "iconUrl": null, "installs": 14, "name": "ANDG", "ownerName": "andrewgufx", "score": 87892.37668161435, "slug": "resume-reviewer", "source": "clawhub", "stars": 0, "tags": null, "updated_at": 1776749269678, "version": "1.0.1"}, {"category": "security-compliance", "created_at": 1773080908396, "description": "Manage Google Cloud Firestore databases using the Firestore REST API via curl commands. Authenticate using gcloud CLI tokens to perform CRUD operations on do...", "description_zh": "", "downloads": 196, "homepage": "https://clawhub.ai/felipe0liveira/firestore", "iconUrl": null, "installs": 11, "name": "Firestore", "ownerName": "felipe0liveira", "score": 87892.37668161435, "slug": "firestore", "source": "clawhub", "stars": 0, "tags": null, "updated_at": 1776749269646, "version": "1.0.4"}, {"category": "data-analysis", "created_at": 1773218342146, "description": "World-Class Sustainability & Social Responsibility Playbook. Use for: ESG strategy, carbon footprint (Scope 1/2/3), ethical sourcing, supply chain due dilige...", "description_zh": "", "downloads": 195, "homepage": "https://clawhub.ai/chilu18/sustainability-playbook", "iconUrl": null, "installs": 19, "name": "Sustainability Playbook", "ownerName": "chilu18", "score": 100000, "slug": "sustainability-playbook", "source": "clawhub", "stars": 1, "tags": null, "updated_at": 1776749270622, "version": "0.1.0"}, {"category": "developer-tools", "created_at": 1773069694014, "description": "Convert molecules between IUPAC, SMILES, and molecular formula using PubChem as the source of truth. Use this whenever the user asks to convert, normalize, o...", "description_zh": "", "downloads": 195, "homepage": "https://clawhub.ai/guox18/intern-pubchem-name-conversion", "iconUrl": null, "installs": 10, "name": "Intern PubChem Name Conversion", "ownerName": "guox18", "score": 82061.06870229007, "slug": "intern-pubchem-name-conversion", "source": "clawhub", "stars": 1, "tags": ["chemistry", "name-conversion", "pubchem", "science"], "updated_at": 1776749270417, "version": "0.1.0"}, {"category": "security-compliance", "created_at": 1773285106486, "description": "When the user wants to connect an OpenClaw agent to n8n workflows, create n8n webhook skills for OpenClaw, route agent API calls through n8n for credential i...", "description_zh": "", "downloads": 195, "homepage": "https://clawhub.ai/ktopper/openclaw-n8n-orchestrator", "iconUrl": null, "installs": 9, "name": "OpenClaw n8n Orchestrator", "ownerName": "ktopper", "score": 100000, "slug": "openclaw-n8n-orchestrator", "source": "clawhub", "stars": 1, "tags": ["automation", "credential-isolation", "docker", "latestn8n", "proxy-pattern", "security", "webhook", "workflow"], "updated_at": 1776749270354, "version": "2.0.0"}, {"category": "ai-intelligence", "created_at": 1773222650640, "description": "A complete skill lifecycle manager for discovering, orchestrating, fusing, and evolving skills. Helps decide which skills to use, how to compose or fuse them...", "description_zh": "", "downloads": 195, "homepage": "https://clawhub.ai/testlbin/skill-evolver", "iconUrl": null, "installs": 31, "name": "Skill Evolver", "ownerName": "testlbin", "score": 98173.51598173517, "slug": "skill-evolver", "source": "clawhub", "stars": 1, "tags": null, "updated_at": 1776749269737, "version": "0.1.0"}, {"category": "ai-intelligence", "created_at": 1773425503250, "description": "XiaoZhi AI Device (ESP32) integration for OpenClaw. Enables real-time voice interaction with your AI assistant through XiaoZhi hardware. Supports WebSocket b...", "description_zh": "", "downloads": 195, "homepage": "https://clawhub.ai/leohuang8688/xiaozhiclaw", "iconUrl": null, "installs": 30, "name": "Xiaozhi Claw", "ownerName": "leohuang8688", "score": 96412.55605381166, "slug": "xiaozhiclaw", "source": "clawhub", "stars": 1, "tags": null, "updated_at": 1776749269699, "version": "1.0.0"}, {"category": "ai-intelligence", "created_at": 1773202328884, "description": "Universal operational digest for agent skill stacks. Every scheduled skill logs its outcome with log-append.sh. Twice daily, digest-agent.sh reads the log, c...", "description_zh": "", "downloads": 195, "homepage": "https://clawhub.ai/littlejakub/pulse-board", "iconUrl": null, "installs": 13, "name": "Pulse Board", "ownerName": "littlejakub", "score": 14008.620689655172, "slug": "pulse-board", "source": "clawhub", "stars": 0, "tags": null, "updated_at": 1776767050217, "version": "1.1.3"}, {"category": "ai-intelligence", "created_at": 1773416744935, "description": "DeepL integration. Manage data, records, and automate workflows. Use when the user wants to interact with DeepL data.", "description_zh": "", "downloads": 195, "homepage": "https://clawhub.ai/membranedev/deepl", "iconUrl": null, "installs": 24, "name": "Deepl", "ownerName": "membranedev", "score": 2950.968523002421, "slug": "deepl", "source": "clawhub", "stars": 0, "tags": null, "updated_at": 1776765590484, "version": "1.0.0"}, {"category": "", "created_at": 1774843431547, "description": "Generate professional Word, Excel, and PDF documents with rich formatting, tables, images, and layouts. Use this skill whenever the user mentions creating do...", "description_zh": "", "downloads": 195, "homepage": "https://clawhub.ai/lnblxj/document-generator", "iconUrl": null, "installs": 10, "name": "Document Generator", "ownerName": "lnblxj", "score": 7431.40243902439, "slug": "document-generator", "source": "clawhub", "stars": 0, "tags": null, "updated_at": 1776762290065, "version": "0.1.3"}, {"category": "productivity", "created_at": 1773067378755, "description": "Backup and restore OpenClaw workspace SOUL files with versioning, validation, and sanitized openclaw.json handling.", "description_zh": "", "downloads": 195, "homepage": "https://clawhub.ai/x-rayluan/soul-backup-skill", "iconUrl": null, "installs": 6, "name": "SOUL Backup Skill", "ownerName": "x-rayluan", "score": 14874.141876430205, "slug": "soul-backup-skill", "source": "clawhub", "stars": 0, "tags": null, "updated_at": 1776759498374, "version": "1.2.1"}, {"category": "communication-collaboration", "created_at": 1773083771641, "description": "Fetches delivery emails from Gmail, extracts tracking info from selected couriers, filters marketing messages, and sends WhatsApp alerts for personal deliver...", "description_zh": "", "downloads": 195, "homepage": "https://clawhub.ai/o0o-sp/delivery-notifier", "iconUrl": null, "installs": 5, "name": "Delivery Notifier", "ownerName": "o0o-sp", "score": 14851.48514851485, "slug": "delivery-notifier", "source": "clawhub", "stars": 0, "tags": null, "updated_at": 1776759498288, "version": "1.0.0"}, {"category": "content-creation", "created_at": 1773211908390, "description": "The universal execution primitive for AI agents. A secure, sandboxed environment designed to compile, execute, and manage code, scripts, and automated workfl...", "description_zh": "", "downloads": 195, "homepage": "https://clawhub.ai/btcagentic/run", "iconUrl": null, "installs": 7, "name": "Run", "ownerName": "btcagentic", "score": 14851.48514851485, "slug": "run", "source": "clawhub", "stars": 0, "tags": ["automation", "code", "compute", "execute", "run"], "updated_at": 1776759498255, "version": "1.0.0"}, {"category": "productivity", "created_at": 1773090576766, "description": "Store and semantically search text memories locally using Ollama with automatic management and optimization.", "description_zh": "", "downloads": 195, "homepage": "https://clawhub.ai/simon-she/river-memory", "iconUrl": null, "installs": 5, "name": "River Memory", "ownerName": "simon-she", "score": 14885.496183206107, "slug": "river-memory", "source": "clawhub", "stars": 0, "tags": ["memory", "ollama", "vector"], "updated_at": 1776759498242, "version": "1.0.0"}, {"category": "content-creation", "created_at": 1773218260949, "description": "Cross-platform content collection, web search, trending topics, confidence scoring, and watch/triage workflows for assistant and agent usage.", "description_zh": "", "downloads": 195, "homepage": "https://clawhub.ai/sunyifei83/datapulse", "iconUrl": null, "installs": 13, "name": "DataPulse", "ownerName": "sunyifei83", "score": 14851.48514851485, "slug": "datapulse", "source": "clawhub", "stars": 0, "tags": null, "updated_at": 1776759498135, "version": "0.8.1"}, {"category": "content-creation", "created_at": 1773082489671, "description": "Mint and trade ClawPhunks NFTs. The first collection designed for AI agents.", "description_zh": "", "downloads": 195, "homepage": "https://clawhub.ai/jefdiesel/clawphunks", "iconUrl": null, "installs": 9, "name": "Clawphunks", "ownerName": "jefdiesel", "score": 14851.48514851485, "slug": "clawphunks", "source": "clawhub", "stars": 0, "tags": null, "updated_at": 1776759498127, "version": "1.0.0"}, {"category": "developer-tools", "created_at": 1773091629900, "description": "Automates code testing by analyzing tasks, planning subtasks, executing tests, validating results, and providing detailed reports and summaries.", "description_zh": "", "downloads": 195, "homepage": "https://clawhub.ai/jason513597/ai-autotester", "iconUrl": null, "installs": 13, "name": "Ai Autotester", "ownerName": "jason513597", "score": 14885.496183206107, "slug": "ai-autotester", "source": "clawhub", "stars": 0, "tags": null, "updated_at": 1776759498110, "version": "1.0.0"}, {"category": "content-creation", "created_at": 1773207038210, "description": "From topic to published blog post in one conversation — generate SEO- and GEO-optimized articles with AI illustrations and voice-over in 55 languages, create...", "description_zh": "", "downloads": 195, "homepage": "https://clawhub.ai/nttylock/citedy-content-writer", "iconUrl": null, "installs": 17, "name": "Clawhub Skill Content Writer", "ownerName": "nttylock", "score": 14851.48514851485, "slug": "citedy-content-writer", "source": "clawhub", "stars": 0, "tags": null, "updated_at": 1776759497935, "version": "1.0.0"}, {"category": "ai-intelligence", "created_at": 1773080979884, "description": "Helps merchants selling utility / problem-solution products (car storage, multi-use kitchen shears, storage boxes, cleaning tools, etc.) do assortment and pr...", "description_zh": "", "downloads": 195, "homepage": "https://clawhub.ai/rijoyai/necessity-pain-point-selection", "iconUrl": null, "installs": 17, "name": "Necessity Pain Point Selection", "ownerName": "rijoyai", "score": 12922.465208747517, "slug": "necessity-pain-point-selection", "source": "clawhub", "stars": 0, "tags": null, "updated_at": 1776757882355, "version": "0.1.2"}, {"category": "developer-tools", "created_at": 1773068845196, "description": "Structured AI-assisted development workflows - discovery, planning, execution, code reviews, and testing", "description_zh": "", "downloads": 195, "homepage": "https://clawhub.ai/brunoscardoso/plan-flow", "iconUrl": null, "installs": 4, "name": "Plan Flow", "ownerName": "brunoscardoso", "score": 10072.314049586777, "slug": "plan-flow", "source": "clawhub", "stars": 0, "tags": ["ai", "development", "planning", "workflow"], "updated_at": 1776753884168, "version": "1.0.8"}, {"category": "content-creation", "created_at": 1773083819654, "description": "Write winning grant proposals for nonprofits and social impact organizations. Covers grant research and selection, proposal structure, compelling narrative w...", "description_zh": "", "downloads": 195, "homepage": "https://clawhub.ai/jk-0001/grant-writing-framework", "iconUrl": null, "installs": 10, "name": "Grant Writing Framework", "ownerName": "jk-0001", "score": 34150.61295971979, "slug": "grant-writing-framework", "source": "clawhub", "stars": 0, "tags": null, "updated_at": 1776753584230, "version": "0.1.0"}, {"category": "data-analysis", "created_at": 1773079131220, "description": "Professional Chinese-English bidirectional translation for technical documentation, following established style guides and terminology standards. Use when tr...", "description_zh": "", "downloads": 195, "homepage": "https://clawhub.ai/lbbniu/lbb-my-skill", "iconUrl": null, "installs": 20, "name": "我的测试节能", "ownerName": "lbbniu", "score": 66326.5306122449, "slug": "lbb-my-skill", "source": "clawhub", "stars": 0, "tags": null, "updated_at": 1776749271115, "version": "1.0.1"}, {"category": "ai-intelligence", "created_at": 1773065508885, "description": "Validate URLs and JSON schemas against format rules.", "description_zh": "", "downloads": 195, "homepage": "https://clawhub.ai/cutthemustard/data-validate", "iconUrl": null, "installs": 10, "name": "Data Validate", "ownerName": "cutthemustard", "score": 66326.5306122449, "slug": "data-validate", "source": "clawhub", "stars": 0, "tags": null, "updated_at": 1776749271103, "version": "1.0.2"}, {"category": "productivity", "created_at": 1773091883039, "description": "LMS data aggregation and reporting tool for course information management.", "description_zh": "", "downloads": 195, "homepage": "https://clawhub.ai/acogkr/hoseo-lms", "iconUrl": null, "installs": 14, "name": "hoseo-lms", "ownerName": "acogkr", "score": 51315.78947368421, "slug": "hoseo-lms", "source": "clawhub", "stars": 0, "tags": null, "updated_at": 1776749271012, "version": "1.0.2"}, {"category": "data-analysis", "created_at": 1773077491798, "description": "Zoho Bigin CRM CLI. Search deals, contacts, accounts. Add notes, move deal stages. Use when user asks about CRM, deals, pipeline status, or needs to update B...", "description_zh": "", "downloads": 195, "homepage": "https://clawhub.ai/ingodibella/bigin", "iconUrl": null, "installs": 14, "name": "Zoho Bigin CRM", "ownerName": "ingodibella", "score": 76771.65354330708, "slug": "bigin", "source": "clawhub", "stars": 0, "tags": null, "updated_at": 1776749270940, "version": "2.0.0"}, {"category": "ai-intelligence", "created_at": 1773078496297, "description": "Connect to a Muster instance via MCP. Use when: registering as an agent for the first time, sending a heartbeat, picking up a task, updating task status, pos...", "description_zh": "", "downloads": 195, "homepage": "https://clawhub.ai/airborneeagle/muster", "iconUrl": null, "installs": 9, "name": "Muster Connect", "ownerName": "airborneeagle", "score": 78313.25301204818, "slug": "muster", "source": "clawhub", "stars": 0, "tags": null, "updated_at": 1776749270679, "version": "1.0.2"}, {"category": "developer-tools", "created_at": 1773084008174, "description": "Cross-platform agent migration and deployment. Use when: (1) migrating OpenClaw agent to new servers, (2) backing up and restoring agent state, (3) deploying...", "description_zh": "", "downloads": 195, "homepage": "https://clawhub.ai/haha8d/agent-migrate", "iconUrl": null, "installs": 10, "name": "Agent Migrate", "ownerName": "haha8d", "score": 90697.67441860464, "slug": "agent-migrate", "source": "clawhub", "stars": 0, "tags": null, "updated_at": 1776749270614, "version": "1.0.0"}, {"category": "ai-intelligence", "created_at": 1773084136171, "description": "Configure OpenClaw agent with MBTI personality types for personalized interaction styles. Use when: (1) User wants to set their agent's personality/MBTI type...", "description_zh": "", "downloads": 195, "homepage": "https://clawhub.ai/jarviyin/mbti-persona", "iconUrl": null, "installs": 32, "name": "Mbti Persona", "ownerName": "jarviyin", "score": 84415.58441558441, "slug": "mbti-persona", "source": "clawhub", "stars": 0, "tags": null, "updated_at": 1776749270541, "version": "1.0.0"}, {"category": "content-creation", "created_at": 1773067233151, "description": "Draft and publish Hexo posts end-to-end (front matter + SEO polish + deploy)", "description_zh": "", "downloads": 195, "homepage": "https://clawhub.ai/jarxi/hexo-blog-with-seo", "iconUrl": null, "installs": 16, "name": "Hexo Blog with SEO", "ownerName": "jarxi", "score": 74427.48091603053, "slug": "hexo-blog-with-seo", "source": "clawhub", "stars": 0, "tags": null, "updated_at": 1776749270423, "version": "1.0.5"}, {"category": "developer-tools", "created_at": 1773084669092, "description": "Install OpenClaw skills at the local/system level so they are shared by all agents. Uses the clawhub CLI to fetch and install skills into the global OpenClaw...", "description_zh": "", "downloads": 195, "homepage": "https://clawhub.ai/shifulegend/install-shared-skill", "iconUrl": null, "installs": 6, "name": "Install Shared Skill", "ownerName": "shifulegend", "score": 90697.67441860464, "slug": "install-shared-skill", "source": "clawhub", "stars": 0, "tags": null, "updated_at": 1776749270394, "version": "0.1.2"}, {"category": "developer-tools", "created_at": 1773077249083, "description": "Build high-yield Quizlet study sets, tune Learn and Test sessions, and improve weak cards with spaced repetition diagnostics.", "description_zh": "", "downloads": 195, "homepage": "https://clawhub.ai/ivangdavila/quizlet", "iconUrl": null, "installs": 9, "name": "Quizlet", "ownerName": "ivangdavila", "score": 59815.9509202454, "slug": "quizlet", "source": "clawhub", "stars": 0, "tags": null, "updated_at": 1776749270221, "version": "1.0.0"}, {"category": "data-analysis", "created_at": 1773090166155, "description": "Meme token fast-trading assistant with two core capabilities: 1. Meme Rush - Real-time meme token lists from launchpads (Pump.fun, Four.meme, etc.) across ne...", "description_zh": "", "downloads": 195, "homepage": "https://clawhub.ai/awessh/meme-rush", "iconUrl": null, "installs": 16, "name": "Meme Rush", "ownerName": "awessh", "score": 91121.4953271028, "slug": "meme-rush", "source": "clawhub", "stars": 0, "tags": null, "updated_at": 1776749270019, "version": "0.1.0"}, {"category": "developer-tools", "created_at": 1773064574531, "description": "Marketplace where AI agents post tasks for humans or other agents. Human tasks (web UI) and agent tasks (API only). One API key for both.", "description_zh": "", "downloads": 195, "homepage": "https://clawhub.ai/andrewtmac/humann-capital", "iconUrl": null, "installs": 7, "name": "Humann.Capital", "ownerName": "andrewtmac", "score": 92857.14285714286, "slug": "humann-capital", "source": "clawhub", "stars": 0, "tags": null, "updated_at": 1776749269877, "version": "1.0.0"}, {"category": "content-creation", "created_at": 1773089862609, "description": "Generate fixed-template daily AI news posters from five news items. Use when the user asks to create a poster, social card, or image summary for \"today's AI...", "description_zh": "", "downloads": 195, "homepage": "https://clawhub.ai/caoyacheng/ai-news-poster", "iconUrl": null, "installs": 17, "name": "Ai News Poster", "ownerName": "caoyacheng", "score": 87443.94618834081, "slug": "ai-news-poster", "source": "clawhub", "stars": 0, "tags": null, "updated_at": 1776749269702, "version": "1.0.0"}, {"category": "developer-tools", "created_at": 1773077716743, "description": "Automatically generate daily/weekly work reports from git commits, calendar events, and task lists. Use when you need to quickly create professional work rep...", "description_zh": "", "downloads": 195, "homepage": "https://clawhub.ai/1989tianlong/ytlong-daily-report", "iconUrl": null, "installs": 5, "name": "YTLong Daily Report", "ownerName": "1989tianlong", "score": 87443.94618834081, "slug": "ytlong-daily-report", "source": "clawhub", "stars": 0, "tags": null, "updated_at": 1776749269669, "version": "1.0.0"}, {"category": "security-compliance", "created_at": 1773416891888, "description": "Analyzes the security posture of a user's OpenClaw environment and installed skills. Use when a user is about to install a new skill and wants to verify its...", "description_zh": "", "downloads": 194, "homepage": "https://clawhub.ai/aliyun-ai-sec/aliyun-clawscan", "iconUrl": null, "installs": 8, "name": "aliyun-clawscan", "ownerName": "aliyun-ai-sec", "score": 100000, "slug": "aliyun-clawscan", "source": "clawhub", "stars": 3, "tags": null, "updated_at": 1776749270966, "version": "1.0.0"}, {"category": "communication-collaboration", "created_at": 1773089639734, "description": "Create interactive Telegram messages with inline buttons using OpenClaw CLI. Use when you need user interaction in Telegram (selection from a list, confirmat...", "description_zh": "", "downloads": 194, "homepage": "https://clawhub.ai/netanelrotem/telegram-interactive-buttons", "iconUrl": null, "installs": 8, "name": "Telegram Interactive Buttons", "ownerName": "netanelrotem", "score": 100000, "slug": "telegram-interactive-buttons", "source": "clawhub", "stars": 1, "tags": null, "updated_at": 1776749270883, "version": "1.1.2"}, {"category": "productivity", "created_at": 1773433874380, "description": "Use when handling browser-based study tasks on platforms like Yuketang, Xuexitong, and Pintia, including quiz answering and page actions.", "description_zh": "", "downloads": 194, "homepage": "https://clawhub.ai/amiracleta/auto-study", "iconUrl": null, "installs": 21, "name": "Auto Study", "ownerName": "amiracleta", "score": 96396.3963963964, "slug": "auto-study", "source": "clawhub", "stars": 1, "tags": null, "updated_at": 1776749270275, "version": "1.3.2"}, {"category": "ai-intelligence", "created_at": 1773416194716, "description": "Intelligent skill matcher that searches multiple skill marketplaces (ClawHub & Skills.sh) in real-time. Supports ANY language for user input, multi-step skil...", "description_zh": "", "downloads": 194, "homepage": "https://clawhub.ai/welliu/skills-finder", "iconUrl": null, "installs": 25, "name": "Skills Finder", "ownerName": "welliu", "score": 100000, "slug": "skills-finder", "source": "clawhub", "stars": 1, "tags": null, "updated_at": 1776749270047, "version": "1.6.0"}, {"category": "productivity", "created_at": 1773067690356, "description": "Multi-dimensional Quality Acceptance and Problem Convergence Engine - Deeply deconstruct requirements, eliminate extreme defects, define absolutely objective...", "description_zh": "", "downloads": 194, "homepage": "https://clawhub.ai/aster-mt/quality-convergence-engine", "iconUrl": null, "installs": 12, "name": "Quality Convergence Engine", "ownerName": "aster-mt", "score": 3914.4471347861177, "slug": "quality-convergence-engine", "source": "clawhub", "stars": 0, "tags": null, "updated_at": 1776769871270, "version": "1.0.0"}, {"category": "security-compliance", "created_at": 1773218854608, "description": "A local-first cryptographic toolkit. Executes zero-knowledge proof (ZKP) generation, circuit compilation via SnarkJS/ZoKrates, and formal verification analys...", "description_zh": "", "downloads": 194, "homepage": "https://clawhub.ai/agenticio/proof", "iconUrl": null, "installs": 14, "name": "proof", "ownerName": "agenticio", "score": 7441.50364403529, "slug": "proof", "source": "clawhub", "stars": 0, "tags": ["proof", "security", "trust", "verification"], "updated_at": 1776765549775, "version": "2.0.1"}, {"category": "developer-tools", "created_at": 1773068358420, "description": "0xProbable prediction market trading skills on BSC mainnet. Trade outcome shares (YES/NO) on real-world events via CLOB order book using @prob/clob SDK. Supp...", "description_zh": "", "downloads": 194, "homepage": "https://clawhub.ai/ternencescott/probable-skills-2", "iconUrl": null, "installs": 2, "name": "Probable Skill", "ownerName": "ternencescott", "score": 2758.8168373151307, "slug": "probable-skills-2", "source": "clawhub", "stars": 0, "tags": null, "updated_at": 1776763450639, "version": "0.1.0"}, {"category": "data-analysis", "created_at": 1773218711920, "description": "Faturamento NFS-e SP (Emissão e Cancelamento de Notas Fiscais em São Paulo)", "description_zh": "", "downloads": 194, "homepage": "https://clawhub.ai/blackcoffee111/nota-fiscal-paulistana", "iconUrl": null, "installs": 7, "name": "Emissor de Nota Fiscal Paulistana", "ownerName": "blackcoffee111", "score": 14775.323686214775, "slug": "nota-fiscal-paulistana", "source": "clawhub", "stars": 0, "tags": ["latest contabil contabilidade nota fiscal paulistana sp brasil"], "updated_at": 1776759498276, "version": "1.0.0"}, {"category": "productivity", "created_at": 1773284843305, "description": "Fetch your public IP address and display connection info.", "description_zh": "", "downloads": 194, "homepage": "https://clawhub.ai/marjoriebroad/imgcraft", "iconUrl": null, "installs": 6, "name": "Imgcraft Bare", "ownerName": "marjoriebroad", "score": 14775.323686214775, "slug": "imgcraft", "source": "clawhub", "stars": 0, "tags": null, "updated_at": 1776759498162, "version": "1.1.0"}, {"category": "content-creation", "created_at": 1773090068812, "description": "Design and deploy autonomous agent loops that automate repetitive tasks with yes/no decisions, triggers, approvals, and Slack outputs using ready templates o...", "description_zh": "", "downloads": 194, "homepage": "https://clawhub.ai/flynndavid/agentic-loop-designer", "iconUrl": null, "installs": 12, "name": "Agentic Loop Designer", "ownerName": "flynndavid", "score": 14775.323686214775, "slug": "agentic-loop-designer", "source": "clawhub", "stars": 0, "tags": null, "updated_at": 1776759498141, "version": "1.0.0"}, {"category": "productivity", "created_at": 1773083349380, "description": "Convert annotation files between COCO, YOLO, VOC, and LabelMe formats with auto-detection and support for batch processing of folders.", "description_zh": "", "downloads": 194, "homepage": "https://clawhub.ai/mingo-318/annotation-format-converter", "iconUrl": null, "installs": 8, "name": "Annotation Format Converter", "ownerName": "mingo-318", "score": 14809.16030534351, "slug": "annotation-format-converter", "source": "clawhub", "stars": 0, "tags": null, "updated_at": 1776759498038, "version": "1.0.0"}, {"category": "developer-tools", "created_at": 1773082991553, "description": "Runs a full Dev Team pipeline from planning to release for any coding task, producing plans, code, tests, fixes, and release notes.", "description_zh": "", "downloads": 194, "homepage": "https://clawhub.ai/sunlearndev/devteam-command", "iconUrl": null, "installs": 6, "name": "DevTeam Command", "ownerName": "sunlearndev", "score": 14820.473644003057, "slug": "devteam-command", "source": "clawhub", "stars": 0, "tags": null, "updated_at": 1776759497837, "version": "1.2.0"}, {"category": "content-creation", "created_at": 1773218127606, "description": "A comprehensive AI agent skill for founders, creators, and makers launching anything. Builds your launch strategy, prepares your messaging, sequences your pr...", "description_zh": "", "downloads": 194, "homepage": "https://clawhub.ai/ethagent/launch", "iconUrl": null, "installs": 8, "name": "Launch", "ownerName": "ethagent", "score": 14820.473644003057, "slug": "launch", "source": "clawhub", "stars": 0, "tags": ["growth", "launch", "marketing", "product", "startup"], "updated_at": 1776759497820, "version": "1.0.0"}, {"category": "security-compliance", "created_at": 1773089754655, "description": "Professional pharmaceutical CSV analysis with regulatory compliance, OOS/OOT detection, stability trending, and GMP-compliant reporting. Use for batch record...", "description_zh": "", "downloads": 194, "homepage": "https://clawhub.ai/teagec/pharma-csv-pro", "iconUrl": null, "installs": 17, "name": "Pharma Csv Pro", "ownerName": "teagec", "score": 14797.864225781845, "slug": "pharma-csv-pro", "source": "clawhub", "stars": 0, "tags": null, "updated_at": 1776759497737, "version": "1.0.0"}, {"category": "productivity", "created_at": 1773206840559, "description": "Manage and control Mopidy music service on NAS including playback, volume, playlist viewing, and local music scanning.", "description_zh": "", "downloads": 194, "homepage": "https://clawhub.ai/jesson1222-ship-it/lu-music-player", "iconUrl": null, "installs": 8, "name": "Lu Music Player", "ownerName": "jesson1222-ship-it", "score": 14797.864225781845, "slug": "lu-music-player", "source": "clawhub", "stars": 0, "tags": null, "updated_at": 1776759497730, "version": "1.0.0"}]}