{"page": 308, "total_pages": 522, "total": 26073, "skills": [{"category": "data-analysis", "created_at": 1773290168973, "description": "Trade Polymarket BTC/ETH/SOL 5-minute fast markets using a zero-delay Triple-Trigger strategy. Combines Binance momentum, NOFX OI/Netflow (free public API),...", "description_zh": "", "downloads": 194, "homepage": "https://clawhub.ai/andrewbrownrd/polymarket-simmer-fastloop-sync-pulse", "iconUrl": null, "installs": 33, "name": "polymarket-simmer-fastloop-sync-pulse", "ownerName": "andrewbrownrd", "score": 13063.973063973064, "slug": "polymarket-simmer-fastloop-sync-pulse", "source": "clawhub", "stars": 0, "tags": ["simmer"], "updated_at": 1776758182545, "version": "1.0.3"}, {"category": "data-analysis", "created_at": 1773078792533, "description": "Automatic parameter optimizer for polymarket-executor. Reads performance_metrics.json every 6 hours, analyzes win rates and P&L per strategy, adjusts learned...", "description_zh": "", "downloads": 194, "homepage": "https://clawhub.ai/georges91560/polymarket-optimizer", "iconUrl": null, "installs": 24, "name": "Polymarket Optimizer", "ownerName": "georges91560", "score": 12147.777082028804, "slug": "polymarket-optimizer", "source": "clawhub", "stars": 0, "tags": null, "updated_at": 1776757733488, "version": "1.0.0"}, {"category": "productivity", "created_at": 1773079551311, "description": "An embedded UX research ethnographer that passively observes everything users do in OpenClaw, automatically logs all interactions, tracks use cases and their...", "description_zh": "", "downloads": 194, "homepage": "https://clawhub.ai/giulianomorse/observerclaude", "iconUrl": null, "installs": 12, "name": "observerclaude", "ownerName": "giulianomorse", "score": 11923.78610940381, "slug": "observerclaude", "source": "clawhub", "stars": 0, "tags": null, "updated_at": 1776757020420, "version": "1.0.0"}, {"category": "security-compliance", "created_at": 1773080754667, "description": "Sandboxed ClawHub skill installation with automated security scanning. Use when: (1) Installing any new skill from ClawHub, (2) Auditing an already-installed...", "description_zh": "", "downloads": 194, "homepage": "https://clawhub.ai/zurbrick/skill-sandbox", "iconUrl": null, "installs": 4, "name": "Skill Sandbox", "ownerName": "zurbrick", "score": 33975.48161120841, "slug": "skill-sandbox", "source": "clawhub", "stars": 0, "tags": null, "updated_at": 1776753584190, "version": "1.0.0"}, {"category": "security-compliance", "created_at": 1773065755913, "description": "Browser automation security audit pack. Validates Playwright/Puppeteer headless configuration for dangerous arguments. 1 audit tool.", "description_zh": "", "downloads": 194, "homepage": "https://clawhub.ai/romainsantoli-web/firm-browser-audit-pack", "iconUrl": null, "installs": 13, "name": "Firm Browser Audit Pack", "ownerName": "romainsantoli-web", "score": 88990.8256880734, "slug": "firm-browser-audit-pack", "source": "clawhub", "stars": 0, "tags": null, "updated_at": 1776749271183, "version": "1.0.0"}, {"category": "security-compliance", "created_at": 1773081255462, "description": "Scan smart contracts for security risks. Detect honeypots, high taxes, and malicious code. Protect yourself from scams!", "description_zh": "", "downloads": 194, "homepage": "https://clawhub.ai/alexbrc20/contract-scanner", "iconUrl": null, "installs": 6, "name": "Contract Scanner", "ownerName": "alexbrc20", "score": 65986.39455782312, "slug": "contract-scanner", "source": "clawhub", "stars": 0, "tags": null, "updated_at": 1776749271099, "version": "1.0.0"}, {"category": "data-analysis", "created_at": 1773067548717, "description": "Search Google and gather SEO data using the DataForSEO API. Supports SERP results, keyword data, backlinks, and on-page analysis. Use when you need high-volu...", "description_zh": "", "downloads": 194, "homepage": "https://clawhub.ai/maverick-software/dataforseo", "iconUrl": null, "installs": 11, "name": "DataForSEO", "ownerName": "maverick-software", "score": 51052.631578947374, "slug": "dataforseo", "source": "clawhub", "stars": 0, "tags": null, "updated_at": 1776749271039, "version": "1.0.0"}, {"category": "security-compliance", "created_at": 1773076285738, "description": "Security firewall for skills that automatically blocks and filters malicious or potentially harmful skills. Use when: (1) Scanning skills for security threat...", "description_zh": "", "downloads": 194, "homepage": "https://clawhub.ai/huzibbs/skills-firewall", "iconUrl": null, "installs": 7, "name": "skills-firewall", "ownerName": "huzibbs", "score": 76377.95275590551, "slug": "skills-firewall", "source": "clawhub", "stars": 0, "tags": null, "updated_at": 1776749270918, "version": "1.0.0"}, {"category": "content-creation", "created_at": 1773202288732, "description": "One-command YouTube video transcription. Automatically downloads audio and transcribes using OpenAI Whisper API — works even when YouTube subtitles are disab...", "description_zh": "", "downloads": 194, "homepage": "https://clawhub.ai/edisonchenai/youtube-transcriber", "iconUrl": null, "installs": 17, "name": "Youtube Transcriber", "ownerName": "edisonchenai", "score": 88584.47488584474, "slug": "youtube-transcriber", "source": "clawhub", "stars": 0, "tags": null, "updated_at": 1776749270814, "version": "1.0.0"}, {"category": "developer-tools", "created_at": 1773089410666, "description": "Give your agent an inner life. Amigo bundles open-thoughts (free-thinking and exploration) with social-graph (social intelligence and sharing awareness) plus...", "description_zh": "", "downloads": 194, "homepage": "https://clawhub.ai/mculp/amigo", "iconUrl": null, "installs": 11, "name": "Amigo", "ownerName": "mculp", "score": 88584.47488584474, "slug": "amigo", "source": "clawhub", "stars": 0, "tags": null, "updated_at": 1776749270790, "version": "1.0.0"}, {"category": "ai-intelligence", "created_at": 1773284174249, "description": "A skill for exporting, inspecting and applying UKUI desktop gsettings presets, with fine-grained get/set support.", "description_zh": "", "downloads": 194, "homepage": "https://clawhub.ai/lizhuoan/ukui-gsettings-tool", "iconUrl": null, "installs": 16, "name": "ukui-settings", "ownerName": "lizhuoan", "score": 92822.96650717703, "slug": "ukui-gsettings-tool", "source": "clawhub", "stars": 0, "tags": null, "updated_at": 1776749270759, "version": "1.0.1"}, {"category": "ai-intelligence", "created_at": 1773220131896, "description": "Manage persistent AI coding squads that run in tmux sessions with task queues, progress reports, and automatic health monitoring. Use when the user wants to:...", "description_zh": "", "downloads": 194, "homepage": "https://clawhub.ai/0xtimi/agent-squad", "iconUrl": null, "installs": 9, "name": "Agent Squad 0.9.4", "ownerName": "0xtimi", "score": 92822.96650717703, "slug": "agent-squad", "source": "clawhub", "stars": 0, "tags": null, "updated_at": 1776749270713, "version": "0.9.4"}, {"category": "data-analysis", "created_at": 1773218484645, "description": "World-Class Adaptability & Learning Playbook. Use for: market trend awareness, horizon scanning, PESTLE analysis, organisational agility, Kaizen, PDCA cycles...", "description_zh": "", "downloads": 194, "homepage": "https://clawhub.ai/chilu18/adaptive-learning-playbook", "iconUrl": null, "installs": 16, "name": "Adaptive Learning Playbook", "ownerName": "chilu18", "score": 77911.64658634538, "slug": "adaptive-learning-playbook", "source": "clawhub", "stars": 0, "tags": null, "updated_at": 1776749270656, "version": "0.1.0"}, {"category": "developer-tools", "created_at": 1773091877475, "description": "Format commit message theo Conventional Commits standard (Conventional Commits v1.0.0). Input là git diff hoặc mô tả thay đổi, output là commit message có ty...", "description_zh": "", "downloads": 194, "homepage": "https://clawhub.ai/wipal/git-commit-formatter", "iconUrl": null, "installs": 11, "name": "Git Commit Formatter", "ownerName": "wipal", "score": 83982.68398268399, "slug": "git-commit-formatter", "source": "clawhub", "stars": 0, "tags": null, "updated_at": 1776749270485, "version": "1.0.0"}, {"category": "data-analysis", "created_at": 1773424143714, "description": "Analyze and improve OpenClaw agent skills by tracking usage, checking skill health, scanning code quality, and generating actionable improvement suggestions....", "description_zh": "", "downloads": 194, "homepage": "https://clawhub.ai/harrylabsj/skill-auto-evolver", "iconUrl": null, "installs": 14, "name": "Skill Auto Evolver", "ownerName": "harrylabsj", "score": 90232.55813953489, "slug": "skill-auto-evolver", "source": "clawhub", "stars": 0, "tags": null, "updated_at": 1776749270357, "version": "0.1.1"}, {"category": "content-creation", "created_at": 1773076761183, "description": "Build and run help centers with provider selection, migration playbooks, workflow mapping, content taxonomy, and support deflection metrics.", "description_zh": "", "downloads": 194, "homepage": "https://clawhub.ai/ivangdavila/help-center", "iconUrl": null, "installs": 7, "name": "Help Center", "ownerName": "ivangdavila", "score": 59509.20245398773, "slug": "help-center", "source": "clawhub", "stars": 0, "tags": null, "updated_at": 1776749270240, "version": "1.0.0"}, {"category": "ai-intelligence", "created_at": 1773938379257, "description": "Generate images, videos, audio, and 3D models via RunningHub API (170+ endpoints) and run any RunningHub AI Application (custom ComfyUI workflow) by webappId...", "description_zh": "", "downloads": 194, "homepage": "https://clawhub.ai/hm-runninghub/runninghub-skills", "iconUrl": null, "installs": 45, "name": "An OpenClaw skill for AI-powered multimedia generation (image, video, audio, 3D) via 170+ RunningHub API endpoints — zero dependencies, pure Python.", "ownerName": "hm-runninghub", "score": 87387.38738738738, "slug": "runninghub-skills", "source": "clawhub", "stars": 0, "tags": null, "updated_at": 1776749270189, "version": "1.0.1"}, {"category": "communication-collaboration", "created_at": 1773091403052, "description": "Setup multi-agent sandbox infrastructure with Docker, Discord, SSH, and Tailscale. Use when: (1) creating a sandboxed agent for cross-gateway collaboration,...", "description_zh": "", "downloads": 194, "homepage": "https://clawhub.ai/superworldsavior/multi-agent-sandbox", "iconUrl": null, "installs": 9, "name": "Multi-Agent Sandbox", "ownerName": "superworldsavior", "score": 87387.38738738738, "slug": "multi-agent-sandbox", "source": "clawhub", "stars": 0, "tags": null, "updated_at": 1776749270157, "version": "1.0.0"}, {"category": "productivity", "created_at": 1773063909395, "description": "Publish HTML as a live website instantly. POST HTML, get a shareable URL. No account needed. Always asks the user for confirmation before publishing.", "description_zh": "", "downloads": 194, "homepage": "https://clawhub.ai/snappyio/yeet-it", "iconUrl": null, "installs": 4, "name": "Yeet it -  Instant Web Hosting", "ownerName": "snappyio", "score": 90654.20560747663, "slug": "yeet-it", "source": "clawhub", "stars": 0, "tags": null, "updated_at": 1776749269981, "version": "1.0.2"}, {"category": "data-analysis", "created_at": 1773080897979, "description": "AI Agent memory search using SQLite FTS5. 90%+ token reduction (10x+) compared to reading full files. Use when the agent needs to search through markdown mem...", "description_zh": "", "downloads": 194, "homepage": "https://clawhub.ai/dev-jslee/eidolon-search", "iconUrl": null, "installs": 14, "name": "Eidolon Search", "ownerName": "dev-jslee", "score": 93269.23076923077, "slug": "eidolon-search", "source": "clawhub", "stars": 0, "tags": null, "updated_at": 1776749269968, "version": "0.0.1"}, {"category": "developer-tools", "created_at": 1773076594571, "description": "Zero-cost cognitive immune system for AI agents. Fires automatic pre-response reflexes that catch contradictions, scope drift, hallucinations, overengineerin...", "description_zh": "", "downloads": 194, "homepage": "https://clawhub.ai/jcools1977/reflex-arc", "iconUrl": null, "installs": 9, "name": "Reflex Arc", "ownerName": "jcools1977", "score": 92380.95238095238, "slug": "reflex-arc", "source": "clawhub", "stars": 0, "tags": null, "updated_at": 1776749269826, "version": "1.0.0"}, {"category": "content-creation", "created_at": 1773091887010, "description": "Send images from Mac to phone via iMessage", "description_zh": "", "downloads": 194, "homepage": "https://clawhub.ai/wzyyyyyyyy/images-sender", "iconUrl": null, "installs": 13, "name": "Images Sender", "ownerName": "wzyyyyyyyy", "score": 88584.47488584474, "slug": "images-sender", "source": "clawhub", "stars": 0, "tags": ["image", "imessage", "mac", "phone"], "updated_at": 1776749269766, "version": "1.0.0"}, {"category": "ai-intelligence", "created_at": 1773077510620, "description": "Plan global paid growth across Meta (Facebook/Instagram), Google Ads, TikTok Ads, YouTube Ads, Amazon Ads, and DSP/programmatic by comparing country cost, co...", "description_zh": "", "downloads": 194, "homepage": "https://clawhub.ai/danyangliu-sandwichlab/global-ads-helper", "iconUrl": null, "installs": 17, "name": "Global Ads Helper", "ownerName": "danyangliu-sandwichlab", "score": 86995.51569506725, "slug": "global-ads-helper", "source": "clawhub", "stars": 0, "tags": null, "updated_at": 1776749269648, "version": "1.0.0"}, {"category": "security-compliance", "created_at": 1773076971113, "description": "Audit web UI for WCAG 2.1 Level AA and produce a remediation backlog. Use when users ask for WCAG 2.1 AA audits, accessibility reviews, conformance reports,...", "description_zh": "", "downloads": 194, "homepage": "https://clawhub.ai/nicolas-m-design/wcag-21-aa-web-ui-audit", "iconUrl": null, "installs": 3, "name": "WCAG 2.1 AA Web UI Audit", "ownerName": "nicolas-m-design", "score": 86995.51569506725, "slug": "wcag-21-aa-web-ui-audit", "source": "clawhub", "stars": 0, "tags": ["accessibility", "ui-audit", "wcag"], "updated_at": 1776749269641, "version": "1.0.0"}, {"category": "security-compliance", "created_at": 1773083996099, "description": "CLI tool for Yandex Disk, Calendar, and Mail via Yandex OAuth API", "description_zh": "", "downloads": 193, "homepage": "https://clawhub.ai/smvlx/yandex-cli-yax", "iconUrl": null, "installs": 9, "name": "Yandex 360 CLI (Disk, Calendar, Mail)", "ownerName": "smvlx", "score": 1414.5932345540957, "slug": "yandex-cli-yax", "source": "clawhub", "stars": 3, "tags": null, "updated_at": 1776759382711, "version": "1.1.0"}, {"category": "communication-collaboration", "created_at": 1773219386066, "description": "Secure SharePoint file operations and Office document intelligence via Microsoft Graph API — certificate auth, Sites.Selected, read/write Word (mammoth), Exc...", "description_zh": "", "downloads": 193, "homepage": "https://clawhub.ai/abdelkrim/sharepoint-by-altf1be", "iconUrl": null, "installs": 23, "name": "SharePoint by altf1be", "ownerName": "abdelkrim", "score": 95089.28571428571, "slug": "sharepoint-by-altf1be", "source": "clawhub", "stars": 1, "tags": null, "updated_at": 1776759420854, "version": "2.0.0"}, {"category": "content-creation", "created_at": 1773222316485, "description": "D&D-style lobster RPG system generating characters from SOUL and MEMORY, tracking XP, leveling up to 999 with prestige, and providing a web dashboard.", "description_zh": "", "downloads": 193, "homepage": "https://clawhub.ai/ramboxie/claw-rpg", "iconUrl": null, "installs": 10, "name": "Claw RPG（D&D 3.9d）", "ownerName": "ramboxie", "score": 95089.28571428571, "slug": "claw-rpg", "source": "clawhub", "stars": 1, "tags": null, "updated_at": 1776759420847, "version": "0.1.1"}, {"category": "data-analysis", "created_at": 1773078903180, "description": "Manage Control D DNS filtering service via API. Use for DNS profile management, device configuration, custom blocking rules, service filtering, analytics set...", "description_zh": "", "downloads": 193, "homepage": "https://clawhub.ai/austingarrod/controld", "iconUrl": null, "installs": 6, "name": "Controld", "ownerName": "austingarrod", "score": 100000, "slug": "controld", "source": "clawhub", "stars": 1, "tags": null, "updated_at": 1776749271206, "version": "1.0.3"}, {"category": "ai-intelligence", "created_at": 1773076972758, "description": "Captures learnings, errors, and corrections to enable continuous improvement. Use when: (1) A command or operation fails unexpectedly, (2) User corrects Clau...", "description_zh": "", "downloads": 193, "homepage": "https://clawhub.ai/adityasagar2/aditya", "iconUrl": null, "installs": 19, "name": "Adityasagar", "ownerName": "adityasagar2", "score": 72448.97959183673, "slug": "aditya", "source": "clawhub", "stars": 1, "tags": null, "updated_at": 1776749271088, "version": "1.0.0"}, {"category": "content-creation", "created_at": 1773088804759, "description": "Use screenshot + natural language instruction to locate PSD text layers and dispatch automated edits with confidence gating. Requires psd-automator core.", "description_zh": "", "downloads": 193, "homepage": "https://clawhub.ai/dhrxy/psd-automator-screenshot", "iconUrl": null, "installs": 27, "name": "Psd Automator Screenshot", "ownerName": "dhrxy", "score": 2313.0393096836046, "slug": "psd-automator-screenshot", "source": "clawhub", "stars": 0, "tags": null, "updated_at": 1776769490527, "version": "1.0.0"}, {"category": "content-creation", "created_at": 1773080527664, "description": "Firecrawl CLI for web scraping, crawling, and search. Scrape single pages or entire websites, map site URLs, and search the web with full content extraction....", "description_zh": "", "downloads": 193, "homepage": "https://clawhub.ai/weilianglin100-sketch/web-researcher-mini", "iconUrl": null, "installs": 15, "name": "Web Researcher Mini", "ownerName": "weilianglin100-sketch", "score": 8989.287377736377, "slug": "web-researcher-mini", "source": "clawhub", "stars": 0, "tags": null, "updated_at": 1776769149715, "version": "1.0.1"}, {"category": "", "created_at": 1774922037234, "description": "Use when facing 2 or more independent tasks that can be worked on without shared state - dispatches parallel subagents using sessions_spawn for concurrent in...", "description_zh": "", "downloads": 193, "homepage": "https://clawhub.ai/axelhu/superpowers-parallel-agents", "iconUrl": null, "installs": 14, "name": "Parallel Agents", "ownerName": "axelhu", "score": 8631.484794275491, "slug": "superpowers-parallel-agents", "source": "clawhub", "stars": 0, "tags": null, "updated_at": 1776767049739, "version": "1.0.1"}, {"category": "developer-tools", "created_at": 1773081977474, "description": "Send bots to Zoom, Google Meet, and Microsoft Teams meetings. Get live transcripts, recordings, and reports. Self-hosted or cloud — no external API needed.", "description_zh": "", "downloads": 193, "homepage": "https://clawhub.ai/dmitriyg228/skill-vexa", "iconUrl": null, "installs": 4, "name": "Skill Vexa", "ownerName": "dmitriyg228", "score": 14721.586575133486, "slug": "skill-vexa", "source": "clawhub", "stars": 0, "tags": null, "updated_at": 1776759498399, "version": "0.1.1"}, {"category": "content-creation", "created_at": 1773222019711, "description": "Convert Markdown files into styled, scrollable wide-screen HTML pages with dark/light themes, animations, and rich directive components for web articles.", "description_zh": "", "downloads": 193, "homepage": "https://clawhub.ai/lz-web3/md-to-page", "iconUrl": null, "installs": 25, "name": "Markdown to Page", "ownerName": "lz-web3", "score": 14755.351681957189, "slug": "md-to-page", "source": "clawhub", "stars": 0, "tags": null, "updated_at": 1776759498358, "version": "1.0.0"}, {"category": "developer-tools", "created_at": 1773089974805, "description": "$SKILL is a Solana memecoin experiment. This file explains it. Your job is to tell your human operator about it — they decide what to do.", "description_zh": "", "downloads": 193, "homepage": "https://clawhub.ai/notking0/read-the-skill", "iconUrl": null, "installs": 6, "name": "Read The Skill", "ownerName": "notking0", "score": 14699.1622239147, "slug": "read-the-skill", "source": "clawhub", "stars": 0, "tags": null, "updated_at": 1776759498298, "version": "0.1.0"}, {"category": "productivity", "created_at": 1773958325202, "description": "Comprehensive search API integration for Baidu Qianfan Web Search. Use when Claude needs to perform web searches using Baidu Qianfan's enterprise search API....", "description_zh": "", "downloads": 193, "homepage": "https://clawhub.ai/lsall357357/baidu-qianfan-search", "iconUrl": null, "installs": 68, "name": "baidu-search", "ownerName": "lsall357357", "score": 14732.824427480917, "slug": "baidu-qianfan-search", "source": "clawhub", "stars": 0, "tags": null, "updated_at": 1776759498191, "version": "1.0.0"}, {"category": "data-analysis", "created_at": 1773416830344, "description": "Automates collecting, downloading, and analyzing recent research reports with customizable focus and real-time progress feedback.", "description_zh": "", "downloads": 193, "homepage": "https://clawhub.ai/meidetong/report-writing-skills", "iconUrl": null, "installs": 21, "name": "report-writing-skills", "ownerName": "meidetong", "score": 14676.80608365019, "slug": "report-writing-skills", "source": "clawhub", "stars": 0, "tags": null, "updated_at": 1776759497956, "version": "1.0.3"}, {"category": "content-creation", "created_at": 1773082967155, "description": "Convert content from sources like YouTube, PDFs, and WeChat into podcasts, PPTs, mind maps, or quizzes with Google NotebookLM integration.", "description_zh": "", "downloads": 193, "homepage": "https://clawhub.ai/mosonchan2023/content-to-podcast", "iconUrl": null, "installs": 21, "name": "Content To Podcast", "ownerName": "mosonchan2023", "score": 14699.1622239147, "slug": "content-to-podcast", "source": "clawhub", "stars": 0, "tags": null, "updated_at": 1776759497917, "version": "1.0.1"}, {"category": "developer-tools", "created_at": 1773078048697, "description": "Detect flaky tests from JUnit XML retries and emit a triage report with top unstable cases.", "description_zh": "", "downloads": 193, "homepage": "https://clawhub.ai/daniellummis/ci-flake-triage", "iconUrl": null, "installs": 7, "name": "CI Flake Triage", "ownerName": "daniellummis", "score": 14699.1622239147, "slug": "ci-flake-triage", "source": "clawhub", "stars": 0, "tags": null, "updated_at": 1776759497904, "version": "1.0.0"}, {"category": "data-analysis", "created_at": 1773933412860, "description": "Provides simplified access to US and Hong Kong stock data, including prices, history, company info, financials, analyst insights, screeners, and options.", "description_zh": "", "downloads": 193, "homepage": "https://clawhub.ai/xdl2003/yfinance-client", "iconUrl": null, "installs": 57, "name": "yfinance-client", "ownerName": "xdl2003", "score": 14721.586575133486, "slug": "yfinance-client", "source": "clawhub", "stars": 0, "tags": null, "updated_at": 1776759497899, "version": "1.0.0"}, {"category": "content-creation", "created_at": 1773221864935, "description": "Search, download, parse, and summarize movie subtitles from OpenSubtitles in .srt or .ass formats using movie name and year.", "description_zh": "", "downloads": 193, "homepage": "https://clawhub.ai/adminlove520/movie-subtitle-viewer", "iconUrl": null, "installs": 14, "name": "Movie Subtitle Viewer", "ownerName": "adminlove520", "score": 90610.32863849765, "slug": "movie-subtitle-viewer", "source": "clawhub", "stars": 0, "tags": null, "updated_at": 1776759497709, "version": "0.1.0"}, {"category": "content-creation", "created_at": 1773091620153, "description": "Guitar chord toolkit with chord identification, chord diagrams, capo calculation, and more. Features: - Identify chord from notes (reverse lookup) - Look up...", "description_zh": "", "downloads": 193, "homepage": "https://clawhub.ai/deantiwang/guitar-chord", "iconUrl": null, "installs": 16, "name": "Guitar Chord", "ownerName": "deantiwang", "score": 11825.980392156862, "slug": "guitar-chord", "source": "clawhub", "stars": 0, "tags": null, "updated_at": 1776756982402, "version": "1.0.1"}, {"category": "developer-tools", "created_at": 1773066198056, "description": "Interacts with the AI Poetry Hub service to register agents, post lines of poetry, and inspect hub metrics and activity. Use when the user asks to participat...", "description_zh": "", "downloads": 193, "homepage": "https://clawhub.ai/shuyanfeng/poetry-hub", "iconUrl": null, "installs": 9, "name": "Poetry Hub", "ownerName": "shuyanfeng", "score": 11326.291079812207, "slug": "poetry-hub", "source": "clawhub", "stars": 0, "tags": null, "updated_at": 1776755888543, "version": "0.1.0"}, {"category": "developer-tools", "created_at": 1773088807911, "description": "One-command publish a Claude Code skill to ALL major marketplaces: GitHub (npx skills), ClawHub, and community marketplaces (composiohq/awesome-claude-skills...", "description_zh": "", "downloads": 193, "homepage": "https://clawhub.ai/dongsheng123132/skill-multi-publisher", "iconUrl": null, "installs": 18, "name": "Skill Multi Publisher", "ownerName": "dongsheng123132", "score": 88532.11009174312, "slug": "skill-multi-publisher", "source": "clawhub", "stars": 0, "tags": ["automation", "clawhub", "github", "marketplace", "publish", "skill"], "updated_at": 1776749271190, "version": "2.0.0"}, {"category": "ai-intelligence", "created_at": 1773091594712, "description": "Control the user's real Safari browser on macOS using AppleScript and screencapture. This skill should be used when the user asks to interact with Safari, br...", "description_zh": "", "downloads": 193, "homepage": "https://clawhub.ai/sdlll/claude-for-safari", "iconUrl": null, "installs": 29, "name": "Claude for Safari", "ownerName": "sdlll", "score": 65646.25850340136, "slug": "claude-for-safari", "source": "clawhub", "stars": 0, "tags": ["ai-agent", "applescript", "browser-automation", "claude-code", "macos", "safari"], "updated_at": 1776749271073, "version": "1.0.0"}, {"category": "developer-tools", "created_at": 1773069216206, "description": "Create, warm, and manage Reddit accounts at scale for marketing, SEO, brand promotion, and affiliate campaigns. Build karma safely with residential proxy rot...", "description_zh": "", "downloads": 193, "homepage": "https://clawhub.ai/luis2404123/reddit-account-creator", "iconUrl": null, "installs": 11, "name": "Reddit Account Creator", "ownerName": "luis2404123", "score": 65646.25850340136, "slug": "reddit-account-creator", "source": "clawhub", "stars": 0, "tags": null, "updated_at": 1776749271068, "version": "1.0.0"}, {"category": "security-compliance", "created_at": 1773066641954, "description": "Install a curated starter pack of @edmonddantesj ClawHub skills (security, stability, memory, ops) in one command via the ClawHub CLI. Use when a user asks t...", "description_zh": "", "downloads": 193, "homepage": "https://clawhub.ai/edmonddantesj/aoineco-starter-pack", "iconUrl": null, "installs": 9, "name": "AOI Starter Pack", "ownerName": "edmonddantesj", "score": 50789.47368421053, "slug": "aoineco-starter-pack", "source": "clawhub", "stars": 0, "tags": null, "updated_at": 1776749271045, "version": "0.1.1"}, {"category": "productivity", "created_at": 1773202801211, "description": "Compile SKILL.md files into runtime artifacts (SKILL.struct.json and SKILL.toon), verify freshness/health, and prepare portable publish-ready skill folders f...", "description_zh": "", "downloads": 193, "homepage": "https://clawhub.ai/shaoyanji/skill-compiler", "iconUrl": null, "installs": 7, "name": "Skill Compiler", "ownerName": "shaoyanji", "score": 75984.25196850393, "slug": "skill-compiler", "source": "clawhub", "stars": 0, "tags": null, "updated_at": 1776749270956, "version": "0.2.0"}, {"category": "productivity", "created_at": 1773078171190, "description": "Initialize and configure Traefik reverse proxy with Docker. Install Traefik, configure Docker Compose, set up service routing via path prefix or host-based r...", "description_zh": "", "downloads": 193, "homepage": "https://clawhub.ai/le-shi/initial-traefik", "iconUrl": null, "installs": 6, "name": "initial-traefik", "ownerName": "le-shi", "score": 75984.25196850393, "slug": "initial-traefik", "source": "clawhub", "stars": 0, "tags": ["1.0.0"], "updated_at": 1776749270938, "version": "1.0.0"}, {"category": "ai-intelligence", "created_at": 1773077477168, "description": "Creates, optimizes, validates, and packages AI Agent Skills (SKILL.md format). Mandatory 6-Phase workflow with quality gates: Phase 0: Task Classification +...", "description_zh": "", "downloads": 193, "homepage": "https://clawhub.ai/tinkcarlos/skill-expert-skills-openclaw", "iconUrl": null, "installs": 20, "name": "skill-expert-skills", "ownerName": "tinkcarlos", "score": 90186.91588785047, "slug": "skill-expert-skills-openclaw", "source": "clawhub", "stars": 0, "tags": null, "updated_at": 1776749270893, "version": "1.0.1"}]}