{"page": 309, "total_pages": 522, "total": 26073, "skills": [{"category": "content-creation", "created_at": 1773078159455, "description": "Extend and expand images beyond their original boundaries using each::sense AI. Create panoramic views, convert aspect ratios, add backgrounds, and uncrop ph...", "description_zh": "", "downloads": 193, "homepage": "https://clawhub.ai/eftalyurtseven/image-outpainting", "iconUrl": null, "installs": 22, "name": "Image Outpainting", "ownerName": "eftalyurtseven", "score": 90186.91588785047, "slug": "image-outpainting", "source": "clawhub", "stars": 0, "tags": null, "updated_at": 1776749270879, "version": "1.0.0"}, {"category": "productivity", "created_at": 1773221120994, "description": "Write Obsidian-compatible .md notes and .canvas files. Use when creating notes, knowledge bases, daily logs, project docs, or canvas diagrams for Obsidian va...", "description_zh": "", "downloads": 193, "homepage": "https://clawhub.ai/hekate2639/obsidian-writer", "iconUrl": null, "installs": 32, "name": "Obsidian Writer", "ownerName": "hekate2639", "score": 90186.91588785047, "slug": "obsidian-writer", "source": "clawhub", "stars": 0, "tags": null, "updated_at": 1776749270843, "version": "1.0.0"}, {"category": "data-analysis", "created_at": 1773067500690, "description": "Draft Twitter and LinkedIn posts in one go. Use when user wants to create social media content for announcements, achievements, or updates. Combines tweet-wr...", "description_zh": "", "downloads": 193, "homepage": "https://clawhub.ai/tarasinghrajput/anukar-social-draft", "iconUrl": null, "installs": 6, "name": "Aunkar Social Draft", "ownerName": "tarasinghrajput", "score": 88127.85388127854, "slug": "anukar-social-draft", "source": "clawhub", "stars": 0, "tags": ["linkedin", "sm", "social", "social media", "tweet", "twitter"], "updated_at": 1776749270808, "version": "1.0.0"}, {"category": "ai-intelligence", "created_at": 1773080144269, "description": "Set up OpenClaw on Mac Mini as always-on AI server — hardware recommendations, macOS config, Docker Desktop, launchd auto-start, Tailscale remote access, and...", "description_zh": "", "downloads": 193, "homepage": "https://clawhub.ai/aiwithabidi/mac-mini-server", "iconUrl": null, "installs": 14, "name": "Mac Mini Server", "ownerName": "aiwithabidi", "score": 77510.04016064257, "slug": "mac-mini-server", "source": "clawhub", "stars": 0, "tags": null, "updated_at": 1776749270673, "version": "1.0.0"}, {"category": "content-creation", "created_at": 1773285653834, "description": "Generate subtitles with automatic time alignment using Volcengine ATA API. Use when the user wants to: (1) add time-aligned subtitles to videos, (2) convert...", "description_zh": "", "downloads": 193, "homepage": "https://clawhub.ai/blackeight4752/doubao-ata-subtitle", "iconUrl": null, "installs": 32, "name": "Volcengine Ata Subtitle", "ownerName": "blackeight4752", "score": 77510.04016064257, "slug": "doubao-ata-subtitle", "source": "clawhub", "stars": 0, "tags": null, "updated_at": 1776749270641, "version": "0.1.0"}, {"category": "security-compliance", "created_at": 1773064322302, "description": "Prompt injection and jailbreak detection pack. 16 compiled regex patterns across 3 severity levels (CRITICAL, HIGH, MEDIUM). Supports single-prompt and batch...", "description_zh": "", "downloads": 193, "homepage": "https://clawhub.ai/romainsantoli-web/firm-prompt-security-pack", "iconUrl": null, "installs": 4, "name": "Firm Prompt Security Pack", "ownerName": "romainsantoli-web", "score": 89767.44186046511, "slug": "firm-prompt-security-pack", "source": "clawhub", "stars": 0, "tags": null, "updated_at": 1776749270599, "version": "1.0.0"}, {"category": "ai-intelligence", "created_at": 1773064406915, "description": "Search and browse tasks on OpenAnt. Use when the agent or user wants to find available work, discover bounties, list open tasks, filter by skills or tags, ch...", "description_zh": "", "downloads": 193, "homepage": "https://clawhub.ai/ant-1984/search-tasks", "iconUrl": null, "installs": 11, "name": "Search Tasks", "ownerName": "ant-1984", "score": 83549.78354978355, "slug": "search-tasks", "source": "clawhub", "stars": 0, "tags": null, "updated_at": 1776749270499, "version": "0.1.0"}, {"category": "data-analysis", "created_at": 1773289784254, "description": "Yahoo Finance API integration for OpenClaw. Use when users ask for stock prices, company financials, historical data, dividends, or market data. Supports rea...", "description_zh": "", "downloads": 193, "homepage": "https://clawhub.ai/leohuang8688/yahoo-claw", "iconUrl": null, "installs": 44, "name": "YahooClaw", "ownerName": "leohuang8688", "score": 73664.12213740457, "slug": "yahoo-claw", "source": "clawhub", "stars": 0, "tags": null, "updated_at": 1776749270469, "version": "0.1.1"}, {"category": "communication-collaboration", "created_at": 1773080581824, "description": "Monitor Claude Code releases and get Telegram alerts when new versions ship. Zero AI credits — pure bash monitoring.", "description_zh": "", "downloads": 193, "homepage": "https://clawhub.ai/assistant-design/cc-changelog-monitor", "iconUrl": null, "installs": 10, "name": "Claude Code Changelog Monitor", "ownerName": "assistant-design", "score": 73664.12213740457, "slug": "cc-changelog-monitor", "source": "clawhub", "stars": 0, "tags": null, "updated_at": 1776749270438, "version": "1.0.0"}, {"category": "security-compliance", "created_at": 1773069602445, "description": "Generate South African tax/VAT/SARS compliance articles", "description_zh": "", "downloads": 193, "homepage": "https://clawhub.ai/wespeakallday/tax-article-generator", "iconUrl": null, "installs": 5, "name": "South African Tax Article Generator", "ownerName": "wespeakallday", "score": 86936.93693693694, "slug": "tax-article-generator", "source": "clawhub", "stars": 0, "tags": null, "updated_at": 1776749270331, "version": "1.0.0"}, {"category": "security-compliance", "created_at": 1773089334982, "description": "7-phase security audit pipeline — reconnaissance, dependency scan, application tests, API security, hardening check, OWASP verification, report. Use before p...", "description_zh": "", "downloads": 193, "homepage": "https://clawhub.ai/nakedoshadow/shadows-security-scanner", "iconUrl": null, "installs": 4, "name": "Shadows Security Scanner", "ownerName": "nakedoshadow", "score": 59202.45398773006, "slug": "shadows-security-scanner", "source": "clawhub", "stars": 0, "tags": null, "updated_at": 1776749270219, "version": "1.1.0"}, {"category": "security-compliance", "created_at": 1773077414013, "description": "Trustless encrypted vault with TOTP auth and clean-room session isolation. Secrets your agent holds but cannot read. Use when user wants to store, retrieve,...", "description_zh": "", "downloads": 193, "homepage": "https://clawhub.ai/cmill01/agent-scif", "iconUrl": null, "installs": 7, "name": "Agent SCIF", "ownerName": "cmill01", "score": 62459.54692556635, "slug": "agent-scif", "source": "clawhub", "stars": 0, "tags": null, "updated_at": 1776749270096, "version": "1.0.2"}, {"category": "developer-tools", "created_at": 1773078762095, "description": "Multi-queue task orchestration system. Tasks are routed to queues by model source, with support for task dependencies, context passing, and failure handling....", "description_zh": "", "downloads": 193, "homepage": "https://clawhub.ai/bg1avd/model-queue", "iconUrl": null, "installs": 4, "name": "task-queue-by-model-source", "ownerName": "bg1avd", "score": 90186.91588785047, "slug": "model-queue", "source": "clawhub", "stars": 0, "tags": null, "updated_at": 1776749269977, "version": "1.0.1"}, {"category": "data-analysis", "created_at": 1773220737875, "description": "Find cheaper, style-matched footballer alternatives using Rising Transfers vector DNA search", "description_zh": "", "downloads": 193, "homepage": "https://clawhub.ai/leeleon/rising-transfers-dna-finder", "iconUrl": null, "installs": 41, "name": "Rising Transfers — DNA Finder", "ownerName": "leeleon", "score": 92788.46153846155, "slug": "rising-transfers-dna-finder", "source": "clawhub", "stars": 0, "tags": ["analytics", "ballers", "fifa", "football", "scouting", "soccer", "transfer", "worldcup"], "updated_at": 1776749269924, "version": "1.0.0"}, {"category": "productivity", "created_at": 1773079938459, "description": "Create, edit, and manipulate DOCX files using SuperDoc - a modern document editor with custom rendering pipeline. Use when you need to programmatically work...", "description_zh": "", "downloads": 193, "homepage": "https://clawhub.ai/yebo-liu/superdoc", "iconUrl": null, "installs": 25, "name": "Superdoc", "ownerName": "yebo-liu", "score": 92788.46153846155, "slug": "superdoc", "source": "clawhub", "stars": 0, "tags": null, "updated_at": 1776749269907, "version": "1.0.0"}, {"category": "developer-tools", "created_at": 1773076849011, "description": "WebSocket connection management with exponential backoff + jitter retry, heartbeat detection, and circuit breaker pattern. Use when you need reliable WebSock...", "description_zh": "", "downloads": 193, "homepage": "https://clawhub.ai/qwe123sddfsdfs/websocket-reconnect", "iconUrl": null, "installs": 10, "name": "WebSocket Reconnect", "ownerName": "qwe123sddfsdfs", "score": 92788.46153846155, "slug": "websocket-reconnect", "source": "clawhub", "stars": 0, "tags": null, "updated_at": 1776749269890, "version": "1.0.0"}, {"category": "developer-tools", "created_at": 1773066062900, "description": "Converts text to natural speech using ElevenLabs for clinical and healthcare use cases. Use when generating patient instructions, discharge summaries, medica...", "description_zh": "", "downloads": 193, "homepage": "https://clawhub.ai/arunnadarasa/elevenlabsclaw", "iconUrl": null, "installs": 7, "name": "Elevenlabs", "ownerName": "arunnadarasa", "score": 86547.08520179371, "slug": "elevenlabsclaw", "source": "clawhub", "stars": 0, "tags": null, "updated_at": 1776749269684, "version": "0.1.0"}, {"category": "ai-intelligence", "created_at": 1773079383927, "description": "Structured Read→Plan→Execute→Verify→Report protocol for any task with side effects. Prevents false \"done\" reports, blind retries, and scope creep. Activate f...", "description_zh": "", "downloads": 193, "homepage": "https://clawhub.ai/cycy2xxx/agent-loop", "iconUrl": null, "installs": 12, "name": "Agent Loop", "ownerName": "cycy2xxx", "score": 84279.47598253275, "slug": "agent-loop", "source": "clawhub", "stars": 0, "tags": null, "updated_at": 1776749269634, "version": "1.0.0"}, {"category": "developer-tools", "created_at": 1773064558723, "description": "Translate GuardDuty findings into plain-English incident summaries with actionable response steps", "description_zh": "", "downloads": 193, "homepage": "https://clawhub.ai/anmolnagpal/guardduty-explainer", "iconUrl": null, "installs": 6, "name": "Guardduty Explainer", "ownerName": "anmolnagpal", "score": 86936.93693693694, "slug": "guardduty-explainer", "source": "clawhub", "stars": 0, "tags": null, "updated_at": 1776749269538, "version": "1.0.0"}, {"category": "developer-tools", "created_at": 1773077720282, "description": "United States federal income tax filing assistant for US citizens, resident aliens, and nonresident aliens. Guides users through the entire IRS filing workfl...", "description_zh": "", "downloads": 192, "homepage": "https://clawhub.ai/irreel/tax-filing", "iconUrl": null, "installs": 10, "name": "tax-filing", "ownerName": "irreel", "score": 25029.51593860685, "slug": "tax-filing", "source": "clawhub", "stars": 1, "tags": null, "updated_at": 1776766750031, "version": "0.2.0"}, {"category": "ai-intelligence", "created_at": 1773066337996, "description": "Cat Life Status Query Skill. Triggers when you send /cat command or ask about your cat. The skill calls the underlying LLM model to interact with you as a sa...", "description_zh": "", "downloads": 192, "homepage": "https://clawhub.ai/tony888880lang/openclaw-cat", "iconUrl": null, "installs": 12, "name": "Openclaw Cat", "ownerName": "tony888880lang", "score": 3167.9617453676033, "slug": "openclaw-cat", "source": "clawhub", "stars": 1, "tags": null, "updated_at": 1776762850029, "version": "0.1.1"}, {"category": "developer-tools", "created_at": 1773425343812, "description": "Use for tasks that read or modify Notion pages, data sources, or blocks via the Notion API.", "description_zh": "", "downloads": 192, "homepage": "https://clawhub.ai/jeffreymaomao/notion-tools", "iconUrl": null, "installs": 26, "name": "Notion Workspace API Tools", "ownerName": "jeffreymaomao", "score": 99065.42056074766, "slug": "notion-tools", "source": "clawhub", "stars": 1, "tags": null, "updated_at": 1776749270874, "version": "1.0.2"}, {"category": "developer-tools", "created_at": 1773080041131, "description": "Cin7 Core inventory management -- products, stock, orders, purchases, customers, and suppliers via bash scripts.", "description_zh": "", "downloads": 192, "homepage": "https://clawhub.ai/yashthesiya1/cin7-inventory", "iconUrl": null, "installs": 9, "name": "Cin7 Inventory", "ownerName": "yashthesiya1", "score": 96803.65296803652, "slug": "cin7-inventory", "source": "clawhub", "stars": 1, "tags": null, "updated_at": 1776749270797, "version": "2.0.0"}, {"category": "data-analysis", "created_at": 1773082086357, "description": "OKR-style goal tracking for solopreneurs — quarterly goals, weekly check-ins, progress scoring, and an AI accountability partner that flags drift before it b...", "description_zh": "", "downloads": 192, "homepage": "https://clawhub.ai/clawdssen/agentledger-goal-tracker", "iconUrl": null, "installs": 6, "name": "Goal Tracker", "ownerName": "clawdssen", "score": 95495.4954954955, "slug": "agentledger-goal-tracker", "source": "clawhub", "stars": 1, "tags": null, "updated_at": 1776749269536, "version": "1.0.1"}, {"category": "productivity", "created_at": 1773089713546, "description": "Extract structured data from Malaysian & Singaporean invoices/receipts. SST/GST-aware. Supports BM/EN/CN.", "description_zh": "", "downloads": 192, "homepage": "https://clawhub.ai/wms2537/my-sg-invoice-parser", "iconUrl": null, "installs": 15, "name": "MY/SG Invoice & Receipt Parser", "ownerName": "wms2537", "score": 558.2369017851951, "slug": "my-sg-invoice-parser", "source": "clawhub", "stars": 0, "tags": null, "updated_at": 1776770654931, "version": "2.0.0"}, {"category": "ai-intelligence", "created_at": 1773287599526, "description": "Easy-to-use agentic wallets powered by Stripe. Use your existing Stripe/Link to top-up this versatile x402 wallet for any purchases or A2A payments.", "description_zh": "", "downloads": 192, "homepage": "https://clawhub.ai/triplehippo/book", "iconUrl": null, "installs": 11, "name": "Book a flight or Airbnb | Is your claw a nomad?", "ownerName": "triplehippo", "score": 7009.85761226725, "slug": "book", "source": "clawhub", "stars": 0, "tags": null, "updated_at": 1776764950427, "version": "1.0.0"}, {"category": "", "created_at": 1774863347965, "description": "Translate editable PowerPoint decks into Chinese, English, Japanese, and other target languages while preserving layout, glossary consistency, and editabilit...", "description_zh": "", "downloads": 192, "homepage": "https://clawhub.ai/neabigmo/decklingo-pptx", "iconUrl": null, "installs": 83, "name": "DeckLingo for PPTX", "ownerName": "neabigmo", "score": 10497.539639147075, "slug": "decklingo-pptx", "source": "clawhub", "stars": 0, "tags": ["chinese-to-english", "codex", "english-to-chinese", "glossary", "localization", "openclaw", "powerpoint", "pptx", "slides", "translation"], "updated_at": 1776764949794, "version": "1.0.0"}, {"category": "ai-intelligence", "created_at": 1773205233266, "description": "A universal layer for agents to have real-time self-awareness across channels and sessions. ARTA enables an agent to know what it is doing in other channels...", "description_zh": "", "downloads": 192, "homepage": "https://clawhub.ai/palxislabs/arta", "iconUrl": null, "installs": 15, "name": "ARTA: Agentic Real-Time Awareness", "ownerName": "palxislabs", "score": 89719.62616822429, "slug": "arta", "source": "clawhub", "stars": 0, "tags": null, "updated_at": 1776759498447, "version": "0.3.0"}, {"category": "developer-tools", "created_at": 1773219673938, "description": "Manage SEO and GEO content updates in Webflow by prioritizing with GSC, drafting content, creating patch JSONs, updating CMS via API, optimizing images and S...", "description_zh": "", "downloads": 192, "homepage": "https://clawhub.ai/jchopard69/webflow-seo-geo", "iconUrl": null, "installs": 17, "name": "Webflow SEO/GEO + API", "ownerName": "jchopard69", "score": 14678.899082568809, "slug": "webflow-seo-geo", "source": "clawhub", "stars": 0, "tags": ["api", "geo", "seo", "webflow", "website"], "updated_at": 1776759498341, "version": "1.0.0"}, {"category": "developer-tools", "created_at": 1773067306039, "description": "Migrate OpenClaw agents across platforms and servers, preserving identity, memory, config, and skills for deployment, backup, syncing, and upgrades.", "description_zh": "", "downloads": 192, "homepage": "https://clawhub.ai/haha8d/openclaw-migrate-2", "iconUrl": null, "installs": 2, "name": "Openclaw Migrate", "ownerName": "haha8d", "score": 14656.488549618321, "slug": "openclaw-migrate-2", "source": "clawhub", "stars": 0, "tags": null, "updated_at": 1776759498229, "version": "0.1.0"}, {"category": "developer-tools", "created_at": 1773068920022, "description": "Streamlines vendor onboarding with a 5-gate workflow to collect info, verify documents, obtain approvals, configure systems, and activate vendors efficiently.", "description_zh": "", "downloads": 192, "homepage": "https://clawhub.ai/flynndavid/vendor-onboarding-workflow", "iconUrl": null, "installs": 7, "name": "vendor-onboarding-workflow", "ownerName": "flynndavid", "score": 14645.308924485125, "slug": "vendor-onboarding-workflow", "source": "clawhub", "stars": 0, "tags": null, "updated_at": 1776759497895, "version": "1.0.0"}, {"category": "developer-tools", "created_at": 1773080062385, "description": "Rastreie pacotes e encomendas dos Correios usando a API oficial com consultas por código, histórico e favoritos via comandos simples.", "description_zh": "", "downloads": 192, "homepage": "https://clawhub.ai/runawaydevil/correios-rastreio", "iconUrl": null, "installs": 9, "name": "Correios Rastreio", "ownerName": "runawaydevil", "score": 14667.68525592055, "slug": "correios-rastreio", "source": "clawhub", "stars": 0, "tags": null, "updated_at": 1776759497852, "version": "1.0.0"}, {"category": "data-analysis", "created_at": 1773078525143, "description": "Analyze Polymarket sentiment using trading data, social media trends, and news to gauge positive, negative, or neutral market mood.", "description_zh": "", "downloads": 192, "homepage": "https://clawhub.ai/mosonchan2023/polymarket-sentiment-analysis", "iconUrl": null, "installs": 25, "name": "Polymarket Sentiment Analysis", "ownerName": "mosonchan2023", "score": 90140.84507042254, "slug": "polymarket-sentiment-analysis", "source": "clawhub", "stars": 0, "tags": null, "updated_at": 1776759497708, "version": "1.0.1"}, {"category": "content-creation", "created_at": 1773426812142, "description": "Generate and edit images with Nano Banana Pro (Gemini 3 Pro Image). And also 50+ models for image generation, video generation, text-to-speech, speech-to-tex...", "description_zh": "", "downloads": 192, "homepage": "https://clawhub.ai/tobeyrebecca/nano-banana-pros", "iconUrl": null, "installs": 38, "name": "Pub Banana", "ownerName": "tobeyrebecca", "score": 33275.563258232236, "slug": "nano-banana-pros", "source": "clawhub", "stars": 0, "tags": null, "updated_at": 1776755288393, "version": "1.0.0"}, {"category": "communication-collaboration", "created_at": 1773283732749, "description": "Manage how OpenClaw routes Telegram messages to different Claude model backends. Switch between CLI and API providers with simple config changes.", "description_zh": "", "downloads": 192, "homepage": "https://clawhub.ai/josephtandle/claude-code-switchboard", "iconUrl": null, "installs": 20, "name": "Claude Code Switchboard", "ownerName": "josephtandle", "score": 90140.84507042254, "slug": "claude-code-switchboard", "source": "clawhub", "stars": 0, "tags": null, "updated_at": 1776749271192, "version": "1.2.0"}, {"category": "data-analysis", "created_at": 1773079189463, "description": "Fetch and analyze peer reviews from OpenReview for any academic paper. Use this skill when the user mentions OpenReview, asks about reviews for a paper, want...", "description_zh": "", "downloads": 192, "homepage": "https://clawhub.ai/vectorsss/openreview-review-analyzer", "iconUrl": null, "installs": 17, "name": "openreview-review-analyzer", "ownerName": "vectorsss", "score": 88073.39449541285, "slug": "openreview-review-analyzer", "source": "clawhub", "stars": 0, "tags": null, "updated_at": 1776749271139, "version": "1.0.1"}, {"category": "ai-intelligence", "created_at": 1773079770066, "description": "Structured morning briefing skill — daily summaries covering calendar, tasks, weather, news, and priorities. Supports cron, heartbeat, and on-demand triggers.", "description_zh": "", "downloads": 192, "homepage": "https://clawhub.ai/clawdssen/agentledger-daily-briefing", "iconUrl": null, "installs": 1, "name": "Daily Briefing", "ownerName": "clawdssen", "score": 88073.39449541285, "slug": "agentledger-daily-briefing", "source": "clawhub", "stars": 0, "tags": null, "updated_at": 1776749271132, "version": "1.0.0"}, {"category": "ai-intelligence", "created_at": 1773285392318, "description": "Catch Disk Failures Before Disaster — Advanced bad sector detection and SMART diagnostics that catch disk problems before you lose your data.", "description_zh": "", "downloads": 192, "homepage": "https://clawhub.ai/hezhaoyun/disk-health-guardian", "iconUrl": null, "installs": 10, "name": "Disk Health Guardian", "ownerName": "hezhaoyun", "score": 65306.122448979586, "slug": "disk-health-guardian", "source": "clawhub", "stars": 0, "tags": null, "updated_at": 1776749271096, "version": "0.1.0"}, {"category": "data-analysis", "created_at": 1773220569723, "description": "Professional US stock radar for screening, deep dives, and watchlist alerts using public market data. Use when the user wants ranked stock candidates, A/B/C/...", "description_zh": "", "downloads": 192, "homepage": "https://clawhub.ai/spyfree/us-stock-radar", "iconUrl": null, "installs": 27, "name": "US Stock Radar", "ownerName": "spyfree", "score": 65306.122448979586, "slug": "us-stock-radar", "source": "clawhub", "stars": 0, "tags": null, "updated_at": 1776749271075, "version": "1.0.0"}, {"category": "security-compliance", "created_at": 1773066452704, "description": "Platform alignment audit pack for OpenClaw 2026.2. Secrets v2, agent routing, voice security, trust model, autoupdate, plugin SDK, content boundaries, and sq...", "description_zh": "", "downloads": 192, "homepage": "https://clawhub.ai/romainsantoli-web/firm-platform-audit-pack", "iconUrl": null, "installs": 5, "name": "Firm Platform Audit Pack", "ownerName": "romainsantoli-web", "score": 75590.55118110236, "slug": "firm-platform-audit-pack", "source": "clawhub", "stars": 0, "tags": null, "updated_at": 1776749270944, "version": "1.0.0"}, {"category": "data-analysis", "created_at": 1773290403819, "description": "Chartgen skill providing three core functions: data analysis, data interpretation, and data visualization. **Use Cases**: (1) Data Analysis - Statistics, fil...", "description_zh": "", "downloads": 192, "homepage": "https://clawhub.ai/chartgen-ai/analysis-data", "iconUrl": null, "installs": 21, "name": "analysis data", "ownerName": "chartgen-ai", "score": 75590.55118110236, "slug": "analysis-data", "source": "clawhub", "stars": 0, "tags": null, "updated_at": 1776749270931, "version": "1.0.3"}, {"category": "developer-tools", "created_at": 1773080380418, "description": "Install and operate KeepGPU for GPU keep-alive with both blocking CLI and non-blocking service workflows. Use when users ask for keep-gpu command constructio...", "description_zh": "", "downloads": 192, "homepage": "https://clawhub.ai/wangmerlyn/gpu-keepalive-with-keepgpu", "iconUrl": null, "installs": 6, "name": "GPU Keepalive with KeepGPU", "ownerName": "wangmerlyn", "score": 89719.62616822429, "slug": "gpu-keepalive-with-keepgpu", "source": "clawhub", "stars": 0, "tags": null, "updated_at": 1776749270877, "version": "1.0.0"}, {"category": "data-analysis", "created_at": 1773079382362, "description": "Advanced repository analysis and refactoring guide. Identifies technical debt and architectural anti-patterns using AI reasoning.", "description_zh": "", "downloads": 192, "homepage": "https://clawhub.ai/tmstudio667-commits/agent-git-oracle", "iconUrl": null, "installs": 11, "name": "Agent Git Oracle", "ownerName": "tmstudio667-commits", "score": 87671.23287671233, "slug": "agent-git-oracle", "source": "clawhub", "stars": 0, "tags": ["analysis", "git", "refactoring"], "updated_at": 1776749270820, "version": "1.0.0"}, {"category": "developer-tools", "created_at": 1773076038342, "description": "Discover and score venture opportunities with machine-first APIs using read-first workflows.", "description_zh": "", "downloads": 192, "homepage": "https://clawhub.ai/hcs412/omnis-venture-intelligence", "iconUrl": null, "installs": 7, "name": "Omnis Venture Intelligence", "ownerName": "hcs412", "score": 87671.23287671233, "slug": "omnis-venture-intelligence", "source": "clawhub", "stars": 0, "tags": ["api", "deal-sourcing", "venture"], "updated_at": 1776749270765, "version": "1.0.3"}, {"category": "security-compliance", "created_at": 1773078708367, "description": "Bidirectional mapping between document sections and compliance framework controls with confidence scoring. Produces per-section control mappings and per-cont...", "description_zh": "", "downloads": 192, "homepage": "https://clawhub.ai/dangsllc/framework-mapping", "iconUrl": null, "installs": 10, "name": "Framework Mapping", "ownerName": "dangsllc", "score": 77108.43373493977, "slug": "framework-mapping", "source": "clawhub", "stars": 0, "tags": null, "updated_at": 1776749270652, "version": "0.1.1"}, {"category": "developer-tools", "created_at": 1773077496045, "description": "Generate a public, privacy-safe persona/card/wiki lead from historical behavior when the user explicitly asks to run ClawDNA.", "description_zh": "", "downloads": 192, "homepage": "https://clawhub.ai/buzuweidao/clawdna", "iconUrl": null, "installs": 6, "name": "Clawdna", "ownerName": "buzuweidao", "score": 83116.88311688312, "slug": "clawdna", "source": "clawhub", "stars": 0, "tags": null, "updated_at": 1776749270483, "version": "0.1.4"}, {"category": "developer-tools", "created_at": 1773285007925, "description": "RTK rewrite plugin for OpenClaw. Intercepts exec tool calls and delegates rewrites to rtk rewrite to reduce token usage while preserving command intent.", "description_zh": "", "downloads": 192, "homepage": "https://clawhub.ai/luw2007/rtk-rewrite", "iconUrl": null, "installs": 21, "name": "RTK Rewrite", "ownerName": "luw2007", "score": 83116.88311688312, "slug": "rtk-rewrite", "source": "clawhub", "stars": 0, "tags": null, "updated_at": 1776749270482, "version": "0.15.3"}, {"category": "ai-intelligence", "created_at": 1773064683529, "description": "AI-powered semantic lead prospecting – discovers, qualifies, and enriches high-intent business opportunities from web communities, forums, Reddit, and public...", "description_zh": "", "downloads": 192, "homepage": "https://clawhub.ai/simplysemantics/semantic-prospect", "iconUrl": null, "installs": 9, "name": "Semantic Prospect", "ownerName": "simplysemantics", "score": 73282.4427480916, "slug": "semantic-prospect", "source": "clawhub", "stars": 0, "tags": null, "updated_at": 1776749270427, "version": "1.0.1"}, {"category": "content-creation", "created_at": 1773067589883, "description": "Collect geo-specific data from any country. Scrape localized pricing, search results, ads, and region-locked content using country-targeted residential proxies.", "description_zh": "", "downloads": 192, "homepage": "https://clawhub.ai/luis2404123/geo-data-collector", "iconUrl": null, "installs": 14, "name": "Geo Data Collector", "ownerName": "luis2404123", "score": 89302.32558139534, "slug": "geo-data-collector", "source": "clawhub", "stars": 0, "tags": null, "updated_at": 1776749270402, "version": "1.0.0"}, {"category": "productivity", "created_at": 1773084311819, "description": "Self-healing watchdog for OpenClaw gateway. Auto-backup openclaw.json before changes, health-check the gateway process, and auto-rollback to last known good...", "description_zh": "", "downloads": 192, "homepage": "https://clawhub.ai/mupengi-bot/gw-self-heal", "iconUrl": null, "installs": 7, "name": "Gateway Self-Heal Watchdog", "ownerName": "mupengi-bot", "score": 58895.705521472395, "slug": "gw-self-heal", "source": "clawhub", "stars": 0, "tags": null, "updated_at": 1776749270258, "version": "1.0.0"}]}