{"page": 310, "total_pages": 522, "total": 26073, "skills": [{"category": "data-analysis", "created_at": 1773078863851, "description": "Fetch a single X tweet or X Article with charge-first billing (0.001 USDT/call).", "description_zh": "", "downloads": 192, "homepage": "https://clawhub.ai/huangkefeng-ai/x-single-tweet-article-skill", "iconUrl": null, "installs": 9, "name": "X Single Tweet + Article", "ownerName": "huangkefeng-ai", "score": 58895.705521472395, "slug": "x-single-tweet-article-skill", "source": "clawhub", "stars": 0, "tags": null, "updated_at": 1776749270235, "version": "1.0.4"}, {"category": "data-analysis", "created_at": 1773068216922, "description": "Location strategy and site selection pack. Geo-economic analysis, real estate intelligence, site scoring, tax incentive optimization, and TCO simulation. 5 l...", "description_zh": "", "downloads": 192, "homepage": "https://clawhub.ai/romainsantoli-web/firm-location-pack", "iconUrl": null, "installs": 13, "name": "Firm Location Pack", "ownerName": "romainsantoli-web", "score": 62135.922330097084, "slug": "firm-location-pack", "source": "clawhub", "stars": 0, "tags": null, "updated_at": 1776749270127, "version": "1.0.0"}, {"category": "productivity", "created_at": 1773089134705, "description": "WIX eCommerce integration. Manage Stores. Use when the user wants to interact with WIX eCommerce data.", "description_zh": "", "downloads": 192, "homepage": "https://clawhub.ai/membranedev/wix", "iconUrl": null, "installs": 15, "name": "Wix", "ownerName": "membranedev", "score": 62135.922330097084, "slug": "wix", "source": "clawhub", "stars": 0, "tags": null, "updated_at": 1776749270071, "version": "1.0.0"}, {"category": "data-analysis", "created_at": 1773066015150, "description": "Screen and evaluate social media creators/influencers using configurable quality frameworks. Analyzes Instagram, TikTok, YouTube creators using Memories.ai V...", "description_zh": "", "downloads": 192, "homepage": "https://clawhub.ai/shawnshenopeninterx/creator-screening", "iconUrl": null, "installs": 10, "name": "Creator Screening", "ownerName": "shawnshenopeninterx", "score": 92307.69230769231, "slug": "creator-screening", "source": "clawhub", "stars": 0, "tags": null, "updated_at": 1776749269894, "version": "1.1.0"}, {"category": "developer-tools", "created_at": 1773090976936, "description": "Give your AI agent a real email address. Send, receive, and manage emails via API.", "description_zh": "", "downloads": 192, "homepage": "https://clawhub.ai/joansongjr/clawaimail", "iconUrl": null, "installs": 8, "name": "ClawAIMail - Email for AI Agents", "ownerName": "joansongjr", "score": 91428.57142857142, "slug": "clawaimail", "source": "clawhub", "stars": 0, "tags": null, "updated_at": 1776749269854, "version": "0.2.7"}, {"category": "communication-collaboration", "created_at": 1773091329386, "description": "Call management system with preparation, real-time capture, and follow-up tracking. Use when user mentions phone calls, meetings, conversations, commitments...", "description_zh": "", "downloads": 192, "homepage": "https://clawhub.ai/agenticio/call", "iconUrl": null, "installs": 9, "name": "Call", "ownerName": "agenticio", "score": 91428.57142857142, "slug": "call", "source": "clawhub", "stars": 0, "tags": ["call", "calls", "conversations", "crm", "follow-up", "followup", "meeting", "meetings", "notes", "phone"], "updated_at": 1776749269814, "version": "2.1.0"}, {"category": "productivity", "created_at": 1773062025601, "description": "Submit completed work for a task on OpenAnt. Submission = text description + files. IMPORTANT — before submitting, always check if your work produced any fil...", "description_zh": "", "downloads": 192, "homepage": "https://clawhub.ai/ant-1984/submit-work", "iconUrl": null, "installs": 5, "name": "Submit Work", "ownerName": "ant-1984", "score": 87671.23287671233, "slug": "submit-work", "source": "clawhub", "stars": 0, "tags": null, "updated_at": 1776749269789, "version": "0.1.1"}, {"category": "content-creation", "created_at": 1773064438061, "description": "Session crash and compaction recovery using a two-file WAL (Write-Ahead Log) system. Use when setting up persistent memory for an OpenClaw agent that needs t...", "description_zh": "", "downloads": 192, "homepage": "https://clawhub.ai/maikunari/wal-memory", "iconUrl": null, "installs": 6, "name": "WAL Memory", "ownerName": "maikunari", "score": 83842.79475982532, "slug": "wal-memory", "source": "clawhub", "stars": 0, "tags": ["agents", "memory", "recovery"], "updated_at": 1776749269619, "version": "1.0.2"}, {"category": "communication-collaboration", "created_at": 1773202507734, "description": "Pre-built HEARTBEAT.md templates for common agent tasks: email checking, calendar monitoring, weather alerts, system health, news digests. Drop in and go.", "description_zh": "", "downloads": 192, "homepage": "https://clawhub.ai/theshadowrose/heartbeat-kit", "iconUrl": null, "installs": 10, "name": "Heartbeat Kit", "ownerName": "theshadowrose", "score": 83842.79475982532, "slug": "heartbeat-kit", "source": "clawhub", "stars": 0, "tags": ["automation", "health", "heartbeat", "heartbeat, monitoring, health, automation, proactive", "monitoring", "proactive"], "updated_at": 1776749269577, "version": "1.0.0"}, {"category": "ai-intelligence", "created_at": 1773425054293, "description": "Use this skill as an entry point to discover, select, and fetch specific integration parameters for all supported AI image generation models.", "description_zh": "", "downloads": 191, "homepage": "https://clawhub.ai/isdyh01/shortapi-ai-image-generation", "iconUrl": null, "installs": 32, "name": "Al Image Generation", "ownerName": "isdyh01", "score": 100000, "slug": "shortapi-ai-image-generation", "source": "clawhub", "stars": 2, "tags": null, "updated_at": 1776749270534, "version": "1.0.3"}, {"category": "data-analysis", "created_at": 1773068712721, "description": "Common Core State Standards ELA alignment checker. Analyzes lesson plans, unit plans, and assessments against CCSS ELA standards for K-12. Use when reviewing...", "description_zh": "", "downloads": 191, "homepage": "https://clawhub.ai/gowanginc/common-core-ela-checker", "iconUrl": null, "installs": 16, "name": "Common Core Ela Checker", "ownerName": "gowanginc", "score": 107.95107725001697, "slug": "common-core-ela-checker", "source": "clawhub", "stars": 0, "tags": null, "updated_at": 1776770771265, "version": "1.0.0"}, {"category": "developer-tools", "created_at": 1773078115941, "description": "Provides real-time interest rate data, meeting schedules, and historical decisions from major central banks like the Fed, ECB, BoJ, and BoE.", "description_zh": "", "downloads": 191, "homepage": "https://clawhub.ai/mosonchan2023/economics-interest-rate-checker", "iconUrl": null, "installs": 7, "name": "Economics Interest Rate Checker", "ownerName": "mosonchan2023", "score": 8542.039355992845, "slug": "economics-interest-rate-checker", "source": "clawhub", "stars": 0, "tags": null, "updated_at": 1776767049752, "version": "1.0.0"}, {"category": "", "created_at": 1774840936881, "description": "Extract and summarize publicly accessible Wechat Work pages including announcements, app info, and group invitations without internal API access.", "description_zh": "", "downloads": 191, "homepage": "https://clawhub.ai/mike47512/wechat-work", "iconUrl": null, "installs": 52, "name": "Wechat Work", "ownerName": "mike47512", "score": 2257.950112306419, "slug": "wechat-work", "source": "clawhub", "stars": 0, "tags": null, "updated_at": 1776766450425, "version": "0.1.0"}, {"category": "data-analysis", "created_at": 1773088787857, "description": "PostgreSQL vector database skill with pgvector extension. Enables vector similarity search, embeddings storage, RAG (Retrieval-Augmented Generation) pipeline...", "description_zh": "", "downloads": 191, "homepage": "https://clawhub.ai/damiencronw/pgvector", "iconUrl": null, "installs": 13, "name": "pgvector", "ownerName": "damiencronw", "score": 1980.9168222360506, "slug": "pgvector", "source": "clawhub", "stars": 0, "tags": null, "updated_at": 1776766450281, "version": "1.0.0"}, {"category": "productivity", "created_at": 1773426308480, "description": "Build a focused literature and citation briefing from PapersFlow. Use when the user wants paper search, citation verification, related-paper discovery, or ci...", "description_zh": "", "downloads": 191, "homepage": "https://clawhub.ai/papersareflowing/research-briefing", "iconUrl": null, "installs": 47, "name": "Research Briefing", "ownerName": "papersareflowing", "score": 6235.71661769507, "slug": "research-briefing", "source": "clawhub", "stars": 0, "tags": null, "updated_at": 1776764650150, "version": "0.1.0"}, {"category": "ai-intelligence", "created_at": 1773927178277, "description": "All-in-one audio analysis: transcribe, identify speakers by voiceprint, auto-detect scene (meeting/interview/training/talk), generate structured notes. The O...", "description_zh": "", "downloads": 191, "homepage": "https://clawhub.ai/jojowillwater/audio-analyzer", "iconUrl": null, "installs": 30, "name": "Smart Audio Analyzer", "ownerName": "jojowillwater", "score": 8089.792460821686, "slug": "audio-analyzer", "source": "clawhub", "stars": 0, "tags": null, "updated_at": 1776763750822, "version": "1.2.1"}, {"category": "security-compliance", "created_at": 1773416445080, "description": "Predict and assess wallet safety, fraud risk, rug pulls, behavior, token community strength, and on-chain intent across multiple blockchains for Web3 trust s...", "description_zh": "", "downloads": 191, "homepage": "https://clawhub.ai/chainaware/chainaware-behavioral-prediction", "iconUrl": null, "installs": 5, "name": "ChainaAware Behavioral Prediction", "ownerName": "chainaware", "score": 89252.33644859813, "slug": "chainaware-behavioral-prediction", "source": "clawhub", "stars": 0, "tags": ["blockchain", "chainaware", "fraud-detection", "mcp", "requires-env", "wallet-analytics", "web3"], "updated_at": 1776759498455, "version": "1.0.0"}, {"category": "security-compliance", "created_at": 1773084601646, "description": "Audits your agent’s context token usage to identify waste and provides a 3-week actionable roadmap to reduce AI cost by 30-40% without quality loss.", "description_zh": "", "downloads": 191, "homepage": "https://clawhub.ai/flynndavid/context-budget-optimizer", "iconUrl": null, "installs": 9, "name": "Context Budget Optimizer", "ownerName": "flynndavid", "score": 14569.031273836767, "slug": "context-budget-optimizer", "source": "clawhub", "stars": 0, "tags": null, "updated_at": 1776759498402, "version": "1.0.0"}, {"category": "content-creation", "created_at": 1773202502628, "description": "Professional first-draft generator. Trigger whenever the user needs to write anything from scratch: emails, reports, articles, proposals, memos, cover letter...", "description_zh": "", "downloads": 191, "homepage": "https://clawhub.ai/ethagent/draft", "iconUrl": null, "installs": 12, "name": "Draft", "ownerName": "ethagent", "score": 14569.031273836767, "slug": "draft", "source": "clawhub", "stars": 0, "tags": ["content", "documents", "draft", "productivity", "writing"], "updated_at": 1776759498399, "version": "1.0.0"}, {"category": "data-analysis", "created_at": 1773222476963, "description": "Manage tasks with configurable Pomodoro timers, track time spent, analyze time allocation, block distractions, and generate efficiency reports.", "description_zh": "", "downloads": 191, "homepage": "https://clawhub.ai/harrylabs0913/focus-master", "iconUrl": null, "installs": 13, "name": "Focus Master", "ownerName": "harrylabs0913", "score": 14602.446483180429, "slug": "focus-master", "source": "clawhub", "stars": 0, "tags": null, "updated_at": 1776759498323, "version": "1.0.1"}, {"category": "content-creation", "created_at": 1773215680736, "description": "Generate branded AI avatar lip-sync video shorts for TikTok, Reels, and YouTube Shorts. Create 15-second talking-head videos with custom avatars, auto-genera...", "description_zh": "", "downloads": 191, "homepage": "https://clawhub.ai/nttylock/citedy-video-shorts", "iconUrl": null, "installs": 22, "name": "Clawhub Skill Video Shorts", "ownerName": "nttylock", "score": 14602.446483180429, "slug": "citedy-video-shorts", "source": "clawhub", "stars": 0, "tags": null, "updated_at": 1776759498307, "version": "1.0.0"}, {"category": "security-compliance", "created_at": 1773081056670, "description": "Handles Telegram /marketing_audit command by running a marketing audit on an Instagram handle or website domain and returning the report.", "description_zh": "", "downloads": 191, "homepage": "https://clawhub.ai/adarshvmore/telegram-marketing-audit-adarsh", "iconUrl": null, "installs": 12, "name": "Telegram Marketing Audit Adarsh", "ownerName": "adarshvmore", "score": 14546.839299314546, "slug": "telegram-marketing-audit-adarsh", "source": "clawhub", "stars": 0, "tags": null, "updated_at": 1776759498162, "version": "1.0.0"}, {"category": "ai-intelligence", "created_at": 1773082597775, "description": "Collects active Meta ads for a brand, reporting total ads, formats, ad types, longest-running ad duration, and estimated spend if available.", "description_zh": "", "downloads": 191, "homepage": "https://clawhub.ai/adarshvmore/meta-ads-collector-adarsh", "iconUrl": null, "installs": 12, "name": "Meta Ads Collector Adarsh", "ownerName": "adarshvmore", "score": 14580.152671755724, "slug": "meta-ads-collector-adarsh", "source": "clawhub", "stars": 0, "tags": null, "updated_at": 1776759498067, "version": "1.0.0"}, {"category": "ai-intelligence", "created_at": 1773090365525, "description": "Transfer memories between OpenClaw agents with optional topic filtering, supporting sharing mode with role transformation or cloning mode for verbatim copies.", "description_zh": "", "downloads": 191, "homepage": "https://clawhub.ai/codeblackhole1024/memory-transfer-enhanced", "iconUrl": null, "installs": 25, "name": "Memory Transfer Enhanced", "ownerName": "codeblackhole1024", "score": 14580.152671755724, "slug": "memory-transfer-enhanced", "source": "clawhub", "stars": 0, "tags": ["memory", "openclaw", "transfer"], "updated_at": 1776759498016, "version": "2.1.0"}, {"category": "content-creation", "created_at": 1773082983162, "description": "Split image datasets into train, validation, and test sets with options for random or stratified splits, custom ratios, and annotation support.", "description_zh": "", "downloads": 191, "homepage": "https://clawhub.ai/mingo-318/dataset-splitter", "iconUrl": null, "installs": 8, "name": "Dataset Splitter", "ownerName": "mingo-318", "score": 14524.714828897339, "slug": "dataset-splitter", "source": "clawhub", "stars": 0, "tags": null, "updated_at": 1776759498007, "version": "1.0.0"}, {"category": "developer-tools", "created_at": 1773289386840, "description": "A comprehensive ClawHub skill installer that bypasses API rate limits. Search, install single skills, or batch install multiple skills with automatic retry l...", "description_zh": "", "downloads": 191, "homepage": "https://clawhub.ai/sunnyhot/clawhub-skill-installer", "iconUrl": null, "installs": 16, "name": "ClawHub Skill Installer", "ownerName": "sunnyhot", "score": 14546.839299314546, "slug": "clawhub-skill-installer", "source": "clawhub", "stars": 0, "tags": null, "updated_at": 1776759497939, "version": "1.0.0"}, {"category": "security-compliance", "created_at": 1773222843083, "description": "Provides production-ready autonomous agent operations with cost optimization, task autonomy, persistent memory, security, and scheduled execution workflows.", "description_zh": "", "downloads": 191, "homepage": "https://clawhub.ai/erich1566/openclaw-ops-skills", "iconUrl": null, "installs": 8, "name": "Ops Skills Pack", "ownerName": "erich1566", "score": 14569.031273836767, "slug": "openclaw-ops-skills", "source": "clawhub", "stars": 0, "tags": ["operations"], "updated_at": 1776759497870, "version": "1.0.0"}, {"category": "productivity", "created_at": 1773284784464, "description": "Organize information, tasks, ideas, projects, notes, files, workflows, and priorities into clear structures that are easier to understand and act on. Use whe...", "description_zh": "", "downloads": 191, "homepage": "https://clawhub.ai/agimodel/organizer", "iconUrl": null, "installs": 10, "name": "Organizer", "ownerName": "agimodel", "score": 14569.031273836767, "slug": "organizer", "source": "clawhub", "stars": 0, "tags": ["files", "organizer", "productivity", "structure", "workflow"], "updated_at": 1776759497763, "version": "1.0.0"}, {"category": "productivity", "created_at": 1773079507763, "description": "Monitor Persian-language X (Twitter) activity related to Iran, detect high-signal geopolitical events, translate posts, score escalation risk, and generate a...", "description_zh": "", "downloads": 191, "homepage": "https://clawhub.ai/arthuronai/iran-intelligence-radar", "iconUrl": null, "installs": 7, "name": "Iran Intelligence Radar (Persian X Monitor)", "ownerName": "arthuronai", "score": 89671.36150234741, "slug": "iran-intelligence-radar", "source": "clawhub", "stars": 0, "tags": ["geopolitics", "intelligence", "iran", "monitoring", "news", "osint", "twitter"], "updated_at": 1776759497702, "version": "1.0.0"}, {"category": "ai-intelligence", "created_at": 1773284822440, "description": "Install and wire a structured OpenClaw deep-research sub-agent with hybrid search, artifact-based runs, claim verification, report linting, and validated fin...", "description_zh": "", "downloads": 191, "homepage": "https://clawhub.ai/milleniumgenai/deep-research-openclaw-agent", "iconUrl": null, "installs": 29, "name": "Deep Research for OpenClaw", "ownerName": "milleniumgenai", "score": 64965.986394557825, "slug": "deep-research-openclaw-agent", "source": "clawhub", "stars": 0, "tags": null, "updated_at": 1776749271120, "version": "0.1.1"}, {"category": "data-analysis", "created_at": 1773066037126, "description": "Perform deep-dive strategic analysis using cross-platform evidence from Meta (Facebook/Instagram), Google Ads, TikTok Ads, YouTube Ads, Amazon Ads, and DSP/p...", "description_zh": "", "downloads": 191, "homepage": "https://clawhub.ai/danyangliu-sandwichlab/deep-marketing-analyst", "iconUrl": null, "installs": 10, "name": "Deep Ads Analyst", "ownerName": "danyangliu-sandwichlab", "score": 75196.85039370079, "slug": "deep-marketing-analyst", "source": "clawhub", "stars": 0, "tags": null, "updated_at": 1776749270968, "version": "1.0.0"}, {"category": "productivity", "created_at": 1773219540123, "description": "Adobe Acrobat Sign integration. Manage Users, Agreements, Widgets. Use when the user wants to interact with Adobe Acrobat Sign data.", "description_zh": "", "downloads": 191, "homepage": "https://clawhub.ai/gora050/adobe-acrobat-sign", "iconUrl": null, "installs": 36, "name": "Adobe Acrobat Sign", "ownerName": "gora050", "score": 75196.85039370079, "slug": "adobe-acrobat-sign", "source": "clawhub", "stars": 0, "tags": null, "updated_at": 1776749270961, "version": "1.0.0"}, {"category": "security-compliance", "created_at": 1773076477547, "description": "Authentication and compliance audit pack. OAuth 2.1/OIDC Discovery, token scope enforcement, tool deprecation lifecycle, circuit breaker, GDPR residency, DID...", "description_zh": "", "downloads": 191, "homepage": "https://clawhub.ai/romainsantoli-web/firm-auth-compliance-pack", "iconUrl": null, "installs": 8, "name": "Firm Auth Compliance Pack", "ownerName": "romainsantoli-web", "score": 75196.85039370079, "slug": "firm-auth-compliance-pack", "source": "clawhub", "stars": 0, "tags": null, "updated_at": 1776749270916, "version": "1.0.0"}, {"category": "security-compliance", "created_at": 1773080346417, "description": "Compliance-specific Q&A with regulatory interpretation guardrails, source attribution, confidence scoring, and escalation triggers when context is insufficie...", "description_zh": "", "downloads": 191, "homepage": "https://clawhub.ai/dangsllc/compliance-qa", "iconUrl": null, "installs": 10, "name": "Compliance Qa", "ownerName": "dangsllc", "score": 75196.85039370079, "slug": "compliance-qa", "source": "clawhub", "stars": 0, "tags": null, "updated_at": 1776749270911, "version": "0.1.0"}, {"category": "productivity", "created_at": 1773069725855, "description": "Box integration. Manage Folders, Users, Groups, Collaborations. Use when the user wants to interact with Box data.", "description_zh": "", "downloads": 191, "homepage": "https://clawhub.ai/membranedev/box-integration", "iconUrl": null, "installs": 1, "name": "Box", "ownerName": "membranedev", "score": 89252.33644859813, "slug": "box-integration", "source": "clawhub", "stars": 0, "tags": null, "updated_at": 1776749270898, "version": "1.0.0"}, {"category": "productivity", "created_at": 1773077526415, "description": "Implement Google Pay for web and Android with tokenization safety, gateway alignment, and production-ready checkout operations.", "description_zh": "", "downloads": 191, "homepage": "https://clawhub.ai/ivangdavila/google-pay", "iconUrl": null, "installs": 14, "name": "Google Pay", "ownerName": "ivangdavila", "score": 89252.33644859813, "slug": "google-pay", "source": "clawhub", "stars": 0, "tags": null, "updated_at": 1776749270842, "version": "1.0.0"}, {"category": "security-compliance", "created_at": 1773066088259, "description": "Look up HTS tariff codes and 2026 US duty rates. Use when: user asks about tariff codes, duty rates, HTS classification, import taxes, or trade compliance fo...", "description_zh": "", "downloads": 191, "homepage": "https://clawhub.ai/inasens/hts-classifier", "iconUrl": null, "installs": 10, "name": "HTS Classifier — US Tariff Code & Duty Lookup", "ownerName": "inasens", "score": 91387.55980861244, "slug": "hts-classifier", "source": "clawhub", "stars": 0, "tags": ["compliance", "customs", "hts", "import", "tariffs", "trade"], "updated_at": 1776749270744, "version": "1.0.1"}, {"category": "content-creation", "created_at": 1773079808427, "description": "Write compelling UX copy, marketing content, and product messaging. Use when writing button labels, error messages, landing pages, emails, CTAs, empty states...", "description_zh": "", "downloads": 191, "homepage": "https://clawhub.ai/gwsq/copywriter-1-1-0", "iconUrl": null, "installs": 13, "name": "Copywriter 1.1.0", "ownerName": "gwsq", "score": 76706.82730923695, "slug": "copywriter-1-1-0", "source": "clawhub", "stars": 0, "tags": null, "updated_at": 1776749270651, "version": "1.0.0"}, {"category": "security-compliance", "created_at": 1773076743357, "description": "Configuration migration and integrity audit pack. Shell env sanitization, plugin integrity, token separation, OTEL redaction, and RPC rate limiting. 5 migrat...", "description_zh": "", "downloads": 191, "homepage": "https://clawhub.ai/romainsantoli-web/firm-config-migration-pack", "iconUrl": null, "installs": 6, "name": "Firm Config Migration Pack", "ownerName": "romainsantoli-web", "score": 88837.20930232559, "slug": "firm-config-migration-pack", "source": "clawhub", "stars": 0, "tags": null, "updated_at": 1776749270567, "version": "1.0.0"}, {"category": "productivity", "created_at": 1773083832795, "description": "Run a local script to fetch broad market news and tone. Use when: user asks about market conditions, macro news, what's happening in markets, or market senti...", "description_zh": "", "downloads": 191, "homepage": "https://clawhub.ai/youpele52/market-news-brief", "iconUrl": null, "installs": 18, "name": "Market News Brief", "ownerName": "youpele52", "score": 88837.20930232559, "slug": "market-news-brief", "source": "clawhub", "stars": 0, "tags": null, "updated_at": 1776749270559, "version": "0.1.1"}, {"category": "developer-tools", "created_at": 1773079558780, "description": "Monitors websites, APIs, and cron jobs (watchdogs) using Watch.dog. Use it when the user asks to \"check the status of my monitors\", \"check uptime\", \"review w...", "description_zh": "", "downloads": 191, "homepage": "https://clawhub.ai/robinson0594/oda-monitor", "iconUrl": null, "installs": 7, "name": "Oda Monitor", "ownerName": "robinson0594", "score": 82683.98268398269, "slug": "oda-monitor", "source": "clawhub", "stars": 0, "tags": null, "updated_at": 1776749270546, "version": "1.0.0"}, {"category": "security-compliance", "created_at": 1773080231196, "description": "Set up and run automated tests for vvvv gamma packages and C# nodes -- VL.TestFramework with NUnit for library/package authors (CI-ready), test .vl patches w...", "description_zh": "", "downloads": 191, "homepage": "https://clawhub.ai/tebjan/vvvv-testing", "iconUrl": null, "installs": 22, "name": "Vvvv Testing", "ownerName": "tebjan", "score": 82683.98268398269, "slug": "vvvv-testing", "source": "clawhub", "stars": 0, "tags": null, "updated_at": 1776749270523, "version": "1.0.0"}, {"category": "ai-intelligence", "created_at": 1773076824915, "description": "Generate ideas fast. Adapt depth and structure to what the user actually needs.", "description_zh": "", "downloads": 191, "homepage": "https://clawhub.ai/tonylnng/tonic-brainstorm", "iconUrl": null, "installs": 6, "name": "Brainstorm", "ownerName": "tonylnng", "score": 88837.20930232559, "slug": "tonic-brainstorm", "source": "clawhub", "stars": 0, "tags": null, "updated_at": 1776749270409, "version": "1.0.0"}, {"category": "security-compliance", "created_at": 1773861226522, "description": "A cross-platform programmable network tool brook, go, android, cross-platform, decryption, encryption, ios. Use when you need brook capabilities. Triggers on...", "description_zh": "", "downloads": 191, "homepage": "https://clawhub.ai/bytesagain/brook", "iconUrl": null, "installs": 24, "name": "Brook", "ownerName": "bytesagain", "score": 88837.20930232559, "slug": "brook", "source": "clawhub", "stars": 0, "tags": null, "updated_at": 1776749270368, "version": "2.3.7"}, {"category": "developer-tools", "created_at": 1773067952123, "description": "Generate professional invoices, receipts, quotes, and financial documents using each::sense AI. Create branded business documents with automatic calculations...", "description_zh": "", "downloads": 191, "homepage": "https://clawhub.ai/eftalyurtseven/invoice-generation", "iconUrl": null, "installs": 7, "name": "Invoice Generation", "ownerName": "eftalyurtseven", "score": 58588.95705521472, "slug": "invoice-generation", "source": "clawhub", "stars": 0, "tags": null, "updated_at": 1776749270247, "version": "1.0.0"}, {"category": "ai-intelligence", "created_at": 1773091637661, "description": "Conversational Pattern Restoration — Fix flat, robotic AI responses across any model and any personality. Restore YOUR natural conversational texture without...", "description_zh": "", "downloads": 191, "homepage": "https://clawhub.ai/theshadowrose/cpr-conversational-pattern-restoration", "iconUrl": null, "installs": 12, "name": "Cpr Conversational Pattern Restoration", "ownerName": "theshadowrose", "score": 61812.29773462783, "slug": "cpr-conversational-pattern-restoration", "source": "clawhub", "stars": 0, "tags": ["anti-sycophancy", "conversation", "drift", "multi-model", "personality", "voice"], "updated_at": 1776749270107, "version": "4.2.3"}, {"category": "content-creation", "created_at": 1773060179775, "description": "Use \"bwp\" command to create technical content for codewithriver. Supports articles, courses, theory, persona with version management and link sharing", "description_zh": "", "downloads": 191, "homepage": "https://clawhub.ai/riverfor/build-with-public-writer", "iconUrl": null, "installs": 12, "name": "Build With Public Writer", "ownerName": "riverfor", "score": 61812.29773462783, "slug": "build-with-public-writer", "source": "clawhub", "stars": 0, "tags": ["blogging", "build-in-public", "technical-writing", "writing"], "updated_at": 1776749270080, "version": "1.0.2"}, {"category": "security-compliance", "created_at": 1773083814203, "description": "Grafana API integration with managed authentication. Manage dashboards, data sources, folders, annotations, alerts, and teams. Use this skill when users want...", "description_zh": "", "downloads": 191, "homepage": "https://clawhub.ai/byungkyu/grafana-api", "iconUrl": null, "installs": 8, "name": "Grafana", "ownerName": "byungkyu", "score": 90952.38095238095, "slug": "grafana-api", "source": "clawhub", "stars": 0, "tags": null, "updated_at": 1776749269805, "version": "1.0.0"}, {"category": "data-analysis", "created_at": 1773065825891, "description": "Safe OpenClaw config planning/apply workflow with bilingual execution receipts.", "description_zh": "", "downloads": 191, "homepage": "https://clawhub.ai/edmond-ai/oc-guard-skill", "iconUrl": null, "installs": 7, "name": "Oc Guard Skill", "ownerName": "edmond-ai", "score": 85650.22421524664, "slug": "oc-guard-skill", "source": "clawhub", "stars": 0, "tags": null, "updated_at": 1776749269657, "version": "1.1.2"}, {"category": "content-creation", "created_at": 1773067049178, "description": "Convert `.avif` images to `.jpg` using a CLI workflow for one or more input paths. Use when the user asks to convert AVIF files, batch-convert a folder of AV...", "description_zh": "", "downloads": 191, "homepage": "https://clawhub.ai/guoway/openclaw-avif2jpg", "iconUrl": null, "installs": 17, "name": "OpenClaw AVIF to JPG", "ownerName": "guoway", "score": 83406.1135371179, "slug": "openclaw-avif2jpg", "source": "clawhub", "stars": 0, "tags": null, "updated_at": 1776749269556, "version": "1.0.0"}]}