{"page": 311, "total_pages": 522, "total": 26073, "skills": [{"category": "data-analysis", "created_at": 1773090637496, "description": "Auto-mirror Twitter/X content to Binance Square. Monitors specified Twitter accounts or topics, fetches new tweets, transforms content, and posts to Binance...", "description_zh": "", "downloads": 190, "homepage": "https://clawhub.ai/infra403/6551-twitter-to-binance-square", "iconUrl": null, "installs": 11, "name": "Twitter To Binance Square", "ownerName": "infra403", "score": 94594.5945945946, "slug": "6551-twitter-to-binance-square", "source": "clawhub", "stars": 1, "tags": null, "updated_at": 1776749270326, "version": "0.1.0"}, {"category": "ai-intelligence", "created_at": 1773202216498, "description": "AI meeting assistant via ghostmeet. Start sessions, get live transcripts, and generate AI summaries from any browser meeting.", "description_zh": "", "downloads": 190, "homepage": "https://clawhub.ai/higangssh/ghostmeet", "iconUrl": null, "installs": 13, "name": "Ghostmeet", "ownerName": "higangssh", "score": 100000, "slug": "ghostmeet", "source": "clawhub", "stars": 1, "tags": null, "updated_at": 1776749269801, "version": "1.0.4"}, {"category": "", "created_at": 1774922052134, "description": "Use when receiving code review feedback to verify, clarify, and evaluate technical correctness before implementing or responding, avoiding performative agree...", "description_zh": "", "downloads": 190, "homepage": "https://clawhub.ai/demo112/superpowers-receiving-code-review", "iconUrl": null, "installs": 18, "name": "Superpowers Receiving Code Review", "ownerName": "demo112", "score": 1737.5400091449476, "slug": "superpowers-receiving-code-review", "source": "clawhub", "stars": 0, "tags": null, "updated_at": 1776769449726, "version": "1.0.0"}, {"category": "developer-tools", "created_at": 1773884202808, "description": "Use chrome-devtools-mcp via a remote-debugging Chrome session to inspect, search, navigate, and extract information from real websites, including social plat...", "description_zh": "", "downloads": 190, "homepage": "https://clawhub.ai/hackerchai/chrome-devtools-web-research", "iconUrl": null, "installs": 28, "name": "Chrome DevTools Web Research", "ownerName": "hackerchai", "score": 6728.045325779036, "slug": "chrome-devtools-web-research", "source": "clawhub", "stars": 0, "tags": null, "updated_at": 1776767723629, "version": "1.0.3"}, {"category": "security-compliance", "created_at": 1773091025376, "description": "Isolated Kali Linux sandbox for running pentest tools and risky commands safely.", "description_zh": "", "downloads": 190, "homepage": "https://clawhub.ai/c0ffeeoverdose/prts-sandbox", "iconUrl": null, "installs": 26, "name": "Prts Sandbox", "ownerName": "c0ffeeoverdose", "score": 7692.307692307692, "slug": "prts-sandbox", "source": "clawhub", "stars": 0, "tags": null, "updated_at": 1776766190484, "version": "1.0.0"}, {"category": "content-creation", "created_at": 1773079914244, "description": "Save and retrieve \"read it later\" content - links, articles, notes, and ideas for future reference. Use when the user wants to (1) save a link, URL, article,...", "description_zh": "", "downloads": 190, "homepage": "https://clawhub.ai/zhoujackie0609/read-it-later", "iconUrl": null, "installs": 6, "name": "Read It Later", "ownerName": "zhoujackie0609", "score": 2875.302663438257, "slug": "read-it-later", "source": "clawhub", "stars": 0, "tags": null, "updated_at": 1776765590472, "version": "1.0.0"}, {"category": "content-creation", "created_at": 1773220801682, "description": "Legacy compatibility alias for Ziwei + Bazi consultation workflows. Use when older prompts or automations still call `ziwei-bazi-consulting`; forward the wor...", "description_zh": "", "downloads": 190, "homepage": "https://clawhub.ai/spyfree/ziwei-bazi-consulting", "iconUrl": null, "installs": 32, "name": "Ziwei Bazi Consulting", "ownerName": "spyfree", "score": 3198.1147954889752, "slug": "ziwei-bazi-consulting", "source": "clawhub", "stars": 0, "tags": null, "updated_at": 1776764090475, "version": "1.0.2"}, {"category": "developer-tools", "created_at": 1773430724634, "description": "Control Varie Workstation sessions (Claude Code multi-session orchestration). Use when: (1) user wants to work on / start / resume a coding project, (2) chec...", "description_zh": "", "downloads": 190, "homepage": "https://clawhub.ai/masqueradeljb/coding-agent-orchestrator", "iconUrl": null, "installs": 40, "name": "Coding Agent Orchestrator", "ownerName": "masqueradeljb", "score": 2412.085819474419, "slug": "coding-agent-orchestrator", "source": "clawhub", "stars": 0, "tags": null, "updated_at": 1776761990237, "version": "1.0.1"}, {"category": "communication-collaboration", "created_at": 1773218948687, "description": "Complete media and public relations intelligence system. Trigger whenever someone needs to get press coverage, write a press release, pitch journalists, mana...", "description_zh": "", "downloads": 190, "homepage": "https://clawhub.ai/agenticio/press", "iconUrl": null, "installs": 12, "name": "Press", "ownerName": "agenticio", "score": 6817.366343738787, "slug": "press", "source": "clawhub", "stars": 0, "tags": ["communications", "journalism", "media", "pr", "press"], "updated_at": 1776761989870, "version": "1.0.0"}, {"category": "security-compliance", "created_at": 1773434020410, "description": "360-degree comprehensive security review Skill. Use before installing any Skill from ClawHub, GitHub, or other sources. Performs full security scans includin...", "description_zh": "", "downloads": 190, "homepage": "https://clawhub.ai/robinc913/360guard-skillvetter-upgrade-version", "iconUrl": null, "installs": 30, "name": "360Guard", "ownerName": "robinc913", "score": 6299.73474801061, "slug": "360guard-skillvetter-upgrade-version", "source": "clawhub", "stars": 0, "tags": ["skill vetter"], "updated_at": 1776761690279, "version": "1.0.0"}, {"category": "ai-intelligence", "created_at": 1773290862929, "description": "Analyze sentiment of text or URLs. Supports batch analysis, emotion detection, comparative and trend analysis.", "description_zh": "", "downloads": 190, "homepage": "https://clawhub.ai/unixlamadev-spec/sentiment-bot", "iconUrl": null, "installs": 11, "name": "Sentiment Bot", "ownerName": "unixlamadev-spec", "score": 2375.8909591096663, "slug": "sentiment-bot", "source": "clawhub", "stars": 0, "tags": null, "updated_at": 1776761390213, "version": "1.1.0"}, {"category": "data-analysis", "created_at": 1773082188789, "description": "Scrapes Google reviews for businesses to identify pain words related to missed calls and poor phone coverage, scoring lead quality for AI receptionist sales.", "description_zh": "", "downloads": 190, "homepage": "https://clawhub.ai/jayjjimenez/google-reviews-pain-detector", "iconUrl": null, "installs": 20, "name": "Google Reviews Pain Detector", "ownerName": "jayjjimenez", "score": 14525.993883792049, "slug": "google-reviews-pain-detector", "source": "clawhub", "stars": 0, "tags": null, "updated_at": 1776759498506, "version": "1.0.0"}, {"category": "ai-intelligence", "created_at": 1773080729104, "description": "Provides prediction market odds for entertainment events including awards, TV shows, box office, and celebrity news with micropayment integration.", "description_zh": "", "downloads": 190, "homepage": "https://clawhub.ai/mosonchan2023/polymarket-entertainment-bets", "iconUrl": null, "installs": 47, "name": "Polymarket Entertainment Bets", "ownerName": "mosonchan2023", "score": 14525.993883792049, "slug": "polymarket-entertainment-bets", "source": "clawhub", "stars": 0, "tags": null, "updated_at": 1776759498501, "version": "1.0.1"}, {"category": "productivity", "created_at": 1773850133930, "description": "Manage Corall marketplace orders by reading credentials, accepting tasks, processing orders, and submitting results triggered by webhooks or user requests.", "description_zh": "", "downloads": 190, "homepage": "https://clawhub.ai/ma233/corall", "iconUrl": null, "installs": 6, "name": "Openclaw Corall Skill", "ownerName": "ma233", "score": 14525.993883792049, "slug": "corall", "source": "clawhub", "stars": 0, "tags": null, "updated_at": 1776759498484, "version": "0.1.4"}, {"category": "communication-collaboration", "created_at": 1773069547669, "description": "Enables building real-time collaborative apps with features like whiteboard, live code editing, chat, CRDT sync, and presence indicators.", "description_zh": "", "downloads": 190, "homepage": "https://clawhub.ai/sunshine-del-ux/realtime-collab-app", "iconUrl": null, "installs": 9, "name": "Realtime Collab App", "ownerName": "sunshine-del-ux", "score": 14525.993883792049, "slug": "realtime-collab-app", "source": "clawhub", "stars": 0, "tags": null, "updated_at": 1776759498475, "version": "1.0.0"}, {"category": "data-analysis", "created_at": 1773080348229, "description": "Query and monitor 5E CS2 player stats and match performance in real-time with customizable player lists and detailed match analysis.", "description_zh": "", "downloads": 190, "homepage": "https://clawhub.ai/ddeellttaa/cs2-stats-monitor-5e", "iconUrl": null, "installs": 13, "name": "cs2-stats-monitor-5e", "ownerName": "ddeellttaa", "score": 14525.993883792049, "slug": "cs2-stats-monitor-5e", "source": "clawhub", "stars": 0, "tags": ["counter-strike", "cs2", "monitornig", "stats"], "updated_at": 1776759498472, "version": "1.0.0"}, {"category": "data-analysis", "created_at": 1773218286177, "description": "Complete fundraising and investment intelligence system for startups, nonprofits, and individuals raising capital. Trigger whenever someone needs to raise mo...", "description_zh": "", "downloads": 190, "homepage": "https://clawhub.ai/agenticio/funding", "iconUrl": null, "installs": 12, "name": "Funding", "ownerName": "agenticio", "score": 14525.993883792049, "slug": "funding", "source": "clawhub", "stars": 0, "tags": ["capital", "fund", "fundraising", "investors", "startup"], "updated_at": 1776759498305, "version": "1.0.0"}, {"category": "data-analysis", "created_at": 1773078783867, "description": "End-to-end autonomous trading skill for swing and algo strategies with analysis, screening, risk controls, execution gating, logging, and continuous optimiza...", "description_zh": "", "downloads": 190, "homepage": "https://clawhub.ai/oscraters/openclaw-trading-suite", "iconUrl": null, "installs": 8, "name": "Openclaw Trading Suite", "ownerName": "oscraters", "score": 14470.67783701447, "slug": "openclaw-trading-suite", "source": "clawhub", "stars": 0, "tags": null, "updated_at": 1776759498292, "version": "1.0.0"}, {"category": "", "created_at": 1774943936658, "description": "Selenium integration. Manage data, records, and automate workflows. Use when the user wants to interact with Selenium data.", "description_zh": "", "downloads": 190, "homepage": "https://clawhub.ai/gora050/selenium", "iconUrl": null, "installs": 27, "name": "Selenium", "ownerName": "gora050", "score": 35250.463821892394, "slug": "selenium", "source": "clawhub", "stars": 0, "tags": null, "updated_at": 1776754988413, "version": "1.0.0"}, {"category": "developer-tools", "created_at": 1773956126041, "description": "A fast Rust-based headless browser automation CLI with Node.js fallback that enables AI agents to navigate, click, type, and snapshot pages via structured co...", "description_zh": "", "downloads": 190, "homepage": "https://clawhub.ai/fresh3/taizi-agent-browser", "iconUrl": null, "installs": 96, "name": "Taizi Agent Browser", "ownerName": "fresh3", "score": 10399.562123700054, "slug": "taizi-agent-browser", "source": "clawhub", "stars": 0, "tags": null, "updated_at": 1776754688547, "version": "1.0.0"}, {"category": "developer-tools", "created_at": 1773091824010, "description": "CodeSmith — senior engineering agent configuration. Full-stack dev automation, CI/CD pipelines, GitHub workflows, ACP dispatch patterns, and real operational...", "description_zh": "", "downloads": 190, "homepage": "https://clawhub.ai/clawmentorai/codesmith", "iconUrl": null, "installs": 12, "name": "CodeSmith", "ownerName": "clawmentorai", "score": 9620.253164556962, "slug": "codesmith", "source": "clawhub", "stars": 0, "tags": null, "updated_at": 1776753769871, "version": "1.0.0"}, {"category": "developer-tools", "created_at": 1773069026457, "description": "React component building and composition best practices. Use when creating, reviewing, or refactoring React components. Covers component structure, props pat...", "description_zh": "", "downloads": 190, "homepage": "https://clawhub.ai/eaveluo/building-components", "iconUrl": null, "installs": 10, "name": "Building Components", "ownerName": "eaveluo", "score": 87155.9633027523, "slug": "building-components", "source": "clawhub", "stars": 0, "tags": null, "updated_at": 1776749271181, "version": "1.0.0"}, {"category": "developer-tools", "created_at": 1773221859294, "description": "Track, analyze, and optimize LLM API spending across providers (OpenAI, Anthropic, Google, DeepSeek, etc.). Use when the user asks about API costs, token usa...", "description_zh": "", "downloads": 190, "homepage": "https://clawhub.ai/johnnywang2001/llm-cost-tracker", "iconUrl": null, "installs": 24, "name": "LLM Cost Tracker", "ownerName": "johnnywang2001", "score": 50000, "slug": "llm-cost-tracker", "source": "clawhub", "stars": 0, "tags": null, "updated_at": 1776749270997, "version": "1.0.0"}, {"category": "communication-collaboration", "created_at": 1773080356750, "description": "Forward Feishu thread/topic to a user, group, or topic via REST API. Activate when: forwarding a thread/topic to another chat, sharing a topic post to a diff...", "description_zh": "", "downloads": 190, "homepage": "https://clawhub.ai/deadblue22/feishu-thread-forward", "iconUrl": null, "installs": 12, "name": "Feishu Thread Forward", "ownerName": "deadblue22", "score": 50000, "slug": "feishu-thread-forward", "source": "clawhub", "stars": 0, "tags": null, "updated_at": 1776749270993, "version": "1.0.0"}, {"category": "security-compliance", "created_at": 1773089670305, "description": "Production-grade Cypress E2E and component testing — selectors, network stubbing, auth, CI parallelization, flake elimination, Page Object Model, and TypeScr...", "description_zh": "", "downloads": 190, "homepage": "https://clawhub.ai/kahlilr23/cypress-agent-skill", "iconUrl": null, "installs": 8, "name": "Cypress Agent Skill", "ownerName": "kahlilr23", "score": 74803.14960629921, "slug": "cypress-agent-skill", "source": "clawhub", "stars": 0, "tags": null, "updated_at": 1776749270946, "version": "0.1.0"}, {"category": "productivity", "created_at": 1773078183023, "description": "Generate, review, and optimize Ansible automation artifacts. Use this skill whenever the user mentions Ansible, playbooks, roles, inventory, tasks, handlers,...", "description_zh": "", "downloads": 190, "homepage": "https://clawhub.ai/klima911/klimatex911", "iconUrl": null, "installs": 9, "name": "EZ Ansible Skill", "ownerName": "klima911", "score": 76305.22088353414, "slug": "klimatex911", "source": "clawhub", "stars": 0, "tags": null, "updated_at": 1776749270665, "version": "1.0.0"}, {"category": "data-analysis", "created_at": 1773083978258, "description": "Show bilingual learning tips while OpenClaw is thinking. 75 tips covering AI interaction, prompt engineering, productivity, and wisdom. Non-intrusive, works...", "description_zh": "", "downloads": 190, "homepage": "https://clawhub.ai/dongsheng123132/waiting-tips", "iconUrl": null, "installs": 20, "name": "Waiting Tips", "ownerName": "dongsheng123132", "score": 76305.22088353414, "slug": "waiting-tips", "source": "clawhub", "stars": 0, "tags": ["bilingual", "learning", "productivity", "tips", "waiting"], "updated_at": 1776749270663, "version": "1.0.0"}, {"category": "developer-tools", "created_at": 1773065883057, "description": "Unified Dev Wallet Monitor for BSC and Solana - Monitor only, manual buy only, no private keys", "description_zh": "", "downloads": 190, "homepage": "https://clawhub.ai/mybusd/sol-bsc-dev-monitor", "iconUrl": null, "installs": 8, "name": "sol-bsc-dev-monitor-skill", "ownerName": "mybusd", "score": 88372.09302325582, "slug": "sol-bsc-dev-monitor", "source": "clawhub", "stars": 0, "tags": null, "updated_at": 1776749270632, "version": "1.0.10"}, {"category": "data-analysis", "created_at": 1773069003616, "description": "Analyze Azure Activity Logs and Sentinel incidents for suspicious patterns and attack indicators", "description_zh": "", "downloads": 190, "homepage": "https://clawhub.ai/anmolnagpal/activity-log-detector", "iconUrl": null, "installs": 11, "name": "Activity Log Detector", "ownerName": "anmolnagpal", "score": 88372.09302325582, "slug": "activity-log-detector", "source": "clawhub", "stars": 0, "tags": null, "updated_at": 1776749270583, "version": "1.0.0"}, {"category": "security-compliance", "created_at": 1773425387406, "description": "Assess OT/ICS/SCADA security posture and generate risk scorecards with remediation guidance. Use when evaluating operational technology security, industrial...", "description_zh": "", "downloads": 190, "homepage": "https://clawhub.ai/krishnakumarmahadevan-cmd/ot-security-posture-scorecard", "iconUrl": null, "installs": 16, "name": "OT Security Posture Scorecard", "ownerName": "krishnakumarmahadevan-cmd", "score": 88372.09302325582, "slug": "ot-security-posture-scorecard", "source": "clawhub", "stars": 0, "tags": null, "updated_at": 1776749270576, "version": "1.3.2"}, {"category": "developer-tools", "created_at": 1773206572178, "description": "Provides the accurate URL and step-by-step click operation path for completing tasks on websites. If the task involves operations on a web app, use this skil...", "description_zh": "", "downloads": 190, "homepage": "https://clawhub.ai/delai/uimap", "iconUrl": null, "installs": 12, "name": "Uimap", "ownerName": "delai", "score": 85585.58558558559, "slug": "uimap", "source": "clawhub", "stars": 0, "tags": null, "updated_at": 1776749270301, "version": "0.1.5"}, {"category": "ai-intelligence", "created_at": 1773284070107, "description": "Advanced AI voice assistant for phone calls. Capable of persuasion, sales, restaurant bookings, reminders, and notifications.", "description_zh": "", "downloads": 190, "homepage": "https://clawhub.ai/mrsz/zys", "iconUrl": null, "installs": 13, "name": "zzz", "ownerName": "mrsz", "score": 85585.58558558559, "slug": "zys", "source": "clawhub", "stars": 0, "tags": null, "updated_at": 1776749270299, "version": "1.0.2"}, {"category": "ai-intelligence", "created_at": 1773078451552, "description": "Универсальный AI-скилл для путешествий — визы, новости, RSS, праздники, валюты с letundra.com. Используй when: пользователь спрашивает о визах, новостях, пра...", "description_zh": "", "downloads": 190, "homepage": "https://clawhub.ai/leninws/letundra", "iconUrl": null, "installs": 28, "name": "Letundra.com AI Travel Assistant", "ownerName": "leninws", "score": 58282.20858895705, "slug": "letundra", "source": "clawhub", "stars": 0, "tags": ["airlines", "aviation", "currency", "holidays", "news", "travel", "visa"], "updated_at": 1776749270260, "version": "1.0.2"}, {"category": "productivity", "created_at": 1773075199854, "description": "Minimal TypeScript hello-world skill that demonstrates bundling TS code, a Node dependency, and package.json instructions for use and publication on Clawdhub.", "description_zh": "", "downloads": 190, "homepage": "https://clawhub.ai/whgreate/skill-demo", "iconUrl": null, "installs": 6, "name": "my skill demo showcase", "ownerName": "whgreate", "score": 58282.20858895705, "slug": "skill-demo", "source": "clawhub", "stars": 0, "tags": null, "updated_at": 1776749270256, "version": "0.0.1"}, {"category": "security-compliance", "created_at": 1773089889710, "description": "Security auditor for AI agent skills. Scans SKILL.md files for prompt injection, data exfiltration, obfuscation, and dangerous capability combinations.", "description_zh": "", "downloads": 190, "homepage": "https://clawhub.ai/4worlds4w-svg/clauwdit", "iconUrl": null, "installs": 12, "name": "clauwdit", "ownerName": "4worlds4w-svg", "score": 58282.20858895705, "slug": "clauwdit", "source": "clawhub", "stars": 0, "tags": null, "updated_at": 1776749270224, "version": "1.0.0"}, {"category": "developer-tools", "created_at": 1773067829034, "description": "Clickup integration. Manage project management and ticketing data, records, and workflows. Use when the user wants to interact with Clickup data.", "description_zh": "", "downloads": 190, "homepage": "https://clawhub.ai/gora050/clickup-integration", "iconUrl": null, "installs": 8, "name": "Clickup", "ownerName": "gora050", "score": 58282.20858895705, "slug": "clickup-integration", "source": "clawhub", "stars": 0, "tags": null, "updated_at": 1776749270222, "version": "1.0.0"}, {"category": "ai-intelligence", "created_at": 1773867814375, "description": "Use Nano Banana 2 (Gemini 3.1 Flash Image), the newest image model focused on faster iteration, lower cost, and strong quality. Published 2026-02-26 as the l...", "description_zh": "", "downloads": 190, "homepage": "https://clawhub.ai/wegoagain-dev/nano-banana-pro-fork", "iconUrl": null, "installs": 29, "name": "Nano Banana Pro", "ownerName": "wegoagain-dev", "score": 58282.20858895705, "slug": "nano-banana-pro-fork", "source": "clawhub", "stars": 0, "tags": null, "updated_at": 1776749270212, "version": "1.0.5"}, {"category": "security-compliance", "created_at": 1773064524875, "description": "Memory infrastructure audit pack. pgvector configuration validation and knowledge graph integrity check. 2 memory tools.", "description_zh": "", "downloads": 190, "homepage": "https://clawhub.ai/romainsantoli-web/firm-memory-audit-pack", "iconUrl": null, "installs": 6, "name": "Firm Memory Audit Pack", "ownerName": "romainsantoli-web", "score": 85585.58558558559, "slug": "firm-memory-audit-pack", "source": "clawhub", "stars": 0, "tags": null, "updated_at": 1776749270150, "version": "1.0.0"}, {"category": "security-compliance", "created_at": 1773069045359, "description": "Parse, interpret, and analyze Cisco ASA (Adaptive Security Appliance) firewall syslog messages. Use this skill whenever working with Cisco ASA log files, sys...", "description_zh": "", "downloads": 190, "homepage": "https://clawhub.ai/gangtao/cisco-asa-syslog", "iconUrl": null, "installs": 4, "name": "cisco-asa-syslog", "ownerName": "gangtao", "score": 88785.04672897197, "slug": "cisco-asa-syslog", "source": "clawhub", "stars": 0, "tags": null, "updated_at": 1776749270015, "version": "1.0.0"}, {"category": "developer-tools", "created_at": 1773078688776, "description": "Institutional-grade execution playbook for the published `duola` Polymarket copy-trading CLI in lobster-agent workflows. Use when tasks require production-st...", "description_zh": "", "downloads": 190, "homepage": "https://clawhub.ai/duolaamengweb3/duola-quant-copy-engine", "iconUrl": null, "installs": 11, "name": "Duola Quant Copy Engine", "ownerName": "duolaamengweb3", "score": 88785.04672897197, "slug": "duola-quant-copy-engine", "source": "clawhub", "stars": 0, "tags": ["copy-trading", "lobster-agent", "polymarket", "skillpay"], "updated_at": 1776749270014, "version": "1.0.0"}, {"category": "productivity", "created_at": 1773077206304, "description": "Support media buying execution for Meta (Facebook/Instagram), Google Ads, TikTok Ads, YouTube Ads, Amazon Ads, and DSP/programmatic with account health check...", "description_zh": "", "downloads": 190, "homepage": "https://clawhub.ai/danyangliu-sandwichlab/media-buyer-ads-helper", "iconUrl": null, "installs": 5, "name": "Media Buyer Helper", "ownerName": "danyangliu-sandwichlab", "score": 90476.19047619047, "slug": "media-buyer-ads-helper", "source": "clawhub", "stars": 0, "tags": null, "updated_at": 1776749269849, "version": "1.0.0"}, {"category": "data-analysis", "created_at": 1773430075798, "description": "AI signals for SPY, QQQ, DIA, IWM — US stock market index outlook with multi-analyst debate. Free, no API key.", "description_zh": "", "downloads": 190, "homepage": "https://clawhub.ai/fredxyt/moltstreet-spy", "iconUrl": null, "installs": 48, "name": "MoltStreet SPY", "ownerName": "fredxyt", "score": 85201.7937219731, "slug": "moltstreet-spy", "source": "clawhub", "stars": 0, "tags": null, "updated_at": 1776749269660, "version": "1.0.1"}, {"category": "data-analysis", "created_at": 1773081527112, "description": "Institutional-grade L2 Orderbook Imbalance (OBI) detector. Captures market maker footprints across OKX and Binance with millisecond precision.", "description_zh": "", "downloads": 190, "homepage": "https://clawhub.ai/tmstudio667-commits/sovereign-liquidity-sniffer", "iconUrl": null, "installs": 24, "name": "Sovereign Liquidity Sniffer", "ownerName": "tmstudio667-commits", "score": 82969.43231441049, "slug": "sovereign-liquidity-sniffer", "source": "clawhub", "stars": 0, "tags": ["finance", "mms", "obi"], "updated_at": 1776749269606, "version": "1.0.0"}, {"category": "data-analysis", "created_at": 1773089084675, "description": "Structured debugging with 4 techniques — Log Injection, Screenshot Analysis, Manual Trace, Test-Driven Fix. Use when facing errors, broken UI, regressions, o...", "description_zh": "", "downloads": 190, "homepage": "https://clawhub.ai/nakedoshadow/shadows-bug-hunter", "iconUrl": null, "installs": 11, "name": "Shadows Bug Hunter", "ownerName": "nakedoshadow", "score": 82969.43231441049, "slug": "shadows-bug-hunter", "source": "clawhub", "stars": 0, "tags": null, "updated_at": 1776749269604, "version": "1.1.0"}, {"category": "productivity", "created_at": 1773078312381, "description": "Tell jokes on demand in multiple styles and languages. Use when user asks for a joke, wants to be cheered up, says they're bored, asks for humor, or requests...", "description_zh": "", "downloads": 189, "homepage": "https://clawhub.ai/xiaohuaishu/tell-jokes", "iconUrl": null, "installs": 6, "name": "Tell Jokes", "ownerName": "xiaohuaishu", "score": 100000, "slug": "tell-jokes", "source": "clawhub", "stars": 2, "tags": null, "updated_at": 1776749269563, "version": "1.0.0"}, {"category": "developer-tools", "created_at": 1773069560176, "description": "Finds what human code reviewers miss — not style issues or formatting, but logical errors, silent edge cases, performance cliffs, implicit assumptions, and t...", "description_zh": "", "downloads": 189, "homepage": "https://clawhub.ai/jcools1977/review-lens", "iconUrl": null, "installs": 13, "name": "Review Lens", "ownerName": "jcools1977", "score": 5065.438681531749, "slug": "review-lens", "source": "clawhub", "stars": 1, "tags": null, "updated_at": 1776766750101, "version": "1.0.0"}, {"category": "data-analysis", "created_at": 1773425516156, "description": "Trade on prediction markets. Create a local wallet, list markets, check prices, buy and sell outcome shares. Coming soon: create and fund markets directly fr...", "description_zh": "", "downloads": 189, "homepage": "https://clawhub.ai/0xastraea/opencog", "iconUrl": null, "installs": 12, "name": "OpenCog", "ownerName": "0xastraea", "score": 15942.028985507244, "slug": "opencog", "source": "clawhub", "stars": 1, "tags": null, "updated_at": 1776759497726, "version": "0.1.4"}, {"category": "content-creation", "created_at": 1773290333253, "description": "Curate personalized playlists and music recommendations with strict intent preservation. Use when the user wants a playlist, sequence, queue, recommendation...", "description_zh": "", "downloads": 189, "homepage": "https://clawhub.ai/neqq3/music-curator", "iconUrl": null, "installs": 7, "name": "Music Curator", "ownerName": "neqq3", "score": 12381.516587677725, "slug": "music-curator", "source": "clawhub", "stars": 1, "tags": null, "updated_at": 1776756227259, "version": "1.0.0"}, {"category": "productivity", "created_at": 1773067449483, "description": "Manage ad creative libraries and usage rules across Meta (Facebook/Instagram), Google Ads, TikTok Ads, YouTube Ads, and Amazon Ads workflows.", "description_zh": "", "downloads": 189, "homepage": "https://clawhub.ai/danyangliu-sandwichlab/creative-asset-manager", "iconUrl": null, "installs": 6, "name": "Ads Asset Manager", "ownerName": "danyangliu-sandwichlab", "score": 95433.7899543379, "slug": "creative-asset-manager", "source": "clawhub", "stars": 1, "tags": null, "updated_at": 1776749269775, "version": "1.0.0"}, {"category": "data-analysis", "created_at": 1773089543900, "description": "Remove signs of AI-generated writing from text. Detects and fixes 24 common AI patterns including inflated symbolism, promotional language, superficial analy...", "description_zh": "", "downloads": 189, "homepage": "https://clawhub.ai/runesleo/runesleo-humanizer", "iconUrl": null, "installs": 17, "name": "Humanizer", "ownerName": "runesleo", "score": 2699.614340808456, "slug": "runesleo-humanizer", "source": "clawhub", "stars": 0, "tags": ["ai-detection", "editing", "writing"], "updated_at": 1776768971195, "version": "1.0.0"}]}