{"page": 312, "total_pages": 522, "total": 26073, "skills": [{"category": "data-analysis", "created_at": 1773080885485, "description": "Git-based version control for OpenClaw system configuration changes. Provides two core capabilities: (1) SAVE - Create a checkpoint before sensitive operatio...", "description_zh": "", "downloads": 189, "homepage": "https://clawhub.ai/welkeyever/config-checkpoint", "iconUrl": null, "installs": 12, "name": "Config Checkpoint", "ownerName": "welkeyever", "score": 6213.0177514792895, "slug": "config-checkpoint", "source": "clawhub", "stars": 0, "tags": null, "updated_at": 1776767950083, "version": "1.0.1"}, {"category": "productivity", "created_at": 1773934392193, "description": "Control Windows desktop with natural-language commands for screenshots, app launching, typing, clicking, and multi-step UI automation using a local Python co...", "description_zh": "", "downloads": 189, "homepage": "https://clawhub.ai/hzj520lyx/pyautogui-controller", "iconUrl": null, "installs": 37, "name": "PyAutoGUI Controller", "ownerName": "hzj520lyx", "score": 2024.8553674737518, "slug": "pyautogui-controller", "source": "clawhub", "stars": 0, "tags": null, "updated_at": 1776767471108, "version": "1.0.1"}, {"category": "", "created_at": 1774786476181, "description": "Use this skill when the user wants to create visualizations (charts, dashboards, diagrams, Gantt, PPT), analyze data (Excel/CSV upload, cross-file analysis,...", "description_zh": "", "downloads": 189, "homepage": "https://clawhub.ai/chartgen-ai/chartgen", "iconUrl": null, "installs": 27, "name": "Chartgen", "ownerName": "chartgen-ai", "score": 6716.417910447761, "slug": "chartgen", "source": "clawhub", "stars": 0, "tags": null, "updated_at": 1776765971373, "version": "1.0.21"}, {"category": "data-analysis", "created_at": 1773079697481, "description": "Global landed cost calculator for traders shipping to the US. Combines live USITC tariffs, Section 232/301/AD-CVD duties, real-time exchange rates (ECB), oce...", "description_zh": "", "downloads": 189, "homepage": "https://clawhub.ai/zhaoningliu1-lang/trade-compass", "iconUrl": null, "installs": 16, "name": "Trade Compass", "ownerName": "zhaoningliu1-lang", "score": 3192.0283735855432, "slug": "trade-compass", "source": "clawhub", "stars": 0, "tags": null, "updated_at": 1776763150702, "version": "3.2.0"}, {"category": "ai-intelligence", "created_at": 1773090264191, "description": "Provides flight prices with Amadeus, train itineraries and schedules with Navitia, and nearby EV charge points using Open Charge Map.", "description_zh": "", "downloads": 189, "homepage": "https://clawhub.ai/aaureli/air-train-ev", "iconUrl": null, "installs": 11, "name": "air-train-ev", "ownerName": "aaureli", "score": 14449.54128440367, "slug": "air-train-ev", "source": "clawhub", "stars": 0, "tags": null, "updated_at": 1776759498474, "version": "0.1.0"}, {"category": "ai-intelligence", "created_at": 1773089029023, "description": "A comprehensive suite of commands for tracking Deutsche Bahn trains", "description_zh": "", "downloads": 189, "homepage": "https://clawhub.ai/ableitung/openclaw-bahn", "iconUrl": null, "installs": 9, "name": "Bahn", "ownerName": "ableitung", "score": 14449.54128440367, "slug": "openclaw-bahn", "source": "clawhub", "stars": 0, "tags": null, "updated_at": 1776759498466, "version": "1.0.0"}, {"category": "productivity", "created_at": 1773088485359, "description": "Automatically removes unnecessary spaces from URLs, commands, and file paths in code snippets and text.", "description_zh": "", "downloads": 189, "homepage": "https://clawhub.ai/ra1nzzz/code-url-cleaner", "iconUrl": null, "installs": 7, "name": "Code Url Cleaner", "ownerName": "ra1nzzz", "score": 88317.7570093458, "slug": "code-url-cleaner", "source": "clawhub", "stars": 0, "tags": null, "updated_at": 1776759498442, "version": "1.2.0"}, {"category": "content-creation", "created_at": 1773084667347, "description": "Guide for creating high-quality MCP (Model Context Protocol) servers that enable LLMs to interact with external services through well-designed tools. Use whe...", "description_zh": "", "downloads": 189, "homepage": "https://clawhub.ai/imbeasting/imbeasting-mcp-builder", "iconUrl": null, "installs": 12, "name": "mcp-builder", "ownerName": "imbeasting", "score": 14449.54128440367, "slug": "imbeasting-mcp-builder", "source": "clawhub", "stars": 0, "tags": null, "updated_at": 1776759498336, "version": "1.0.0"}, {"category": "ai-intelligence", "created_at": 1773069542656, "description": "Predict pump.fun token graduations (YES/NO) on Solana mainnet via PumpMarket parimutuel betting markets.", "description_zh": "", "downloads": 189, "homepage": "https://clawhub.ai/notking0/pmt-skill", "iconUrl": null, "installs": 8, "name": "pumpmarket skill", "ownerName": "notking0", "score": 14449.54128440367, "slug": "pmt-skill", "source": "clawhub", "stars": 0, "tags": null, "updated_at": 1776759498325, "version": "1.0.0"}, {"category": "productivity", "created_at": 1773091783109, "description": "Imports browser bookmarks from HTML and converts them into a deduplicated, categorized, time-sorted Markdown knowledge base with optional dead-link checking.", "description_zh": "", "downloads": 189, "homepage": "https://clawhub.ai/farhigh233/bookmark-organizer", "iconUrl": null, "installs": 8, "name": "Bookmark Organizer", "ownerName": "farhigh233", "score": 14449.54128440367, "slug": "bookmark-organizer", "source": "clawhub", "stars": 0, "tags": null, "updated_at": 1776759498301, "version": "1.0.0"}, {"category": "developer-tools", "created_at": 1773434179235, "description": "This skill should be used when the user asks for OpenClaw backup, restore, rollback, validation, GitHub backup, off-machine backup, workspace recovery, or pr...", "description_zh": "", "downloads": 189, "homepage": "https://clawhub.ai/x-rayluan/openclaw-workspace-backup-restore", "iconUrl": null, "installs": 7, "name": "OpenClaw Backup & Restore", "ownerName": "x-rayluan", "score": 14394.516374714394, "slug": "openclaw-workspace-backup-restore", "source": "clawhub", "stars": 0, "tags": null, "updated_at": 1776759498292, "version": "1.5.4"}, {"category": "ai-intelligence", "created_at": 1773080188512, "description": "Leveling overlay for OpenClaw Control UI (badge + XP + daily tip + level list + icons).", "description_zh": "", "downloads": 189, "homepage": "https://clawhub.ai/pureheart/ponddepth-levels", "iconUrl": null, "installs": 14, "name": "Ponddepth Levels", "ownerName": "pureheart", "score": 11209.964412811389, "slug": "ponddepth-levels", "source": "clawhub", "stars": 0, "tags": null, "updated_at": 1776758783321, "version": "0.1.1"}, {"category": "content-creation", "created_at": 1773429895696, "description": "Full TikTok/Reels video pipeline: script → TTS voiceover (ElevenLabs) → HeyGen talking avatar → auto-subtitles (Whisper) → ffmpeg compose → 1080x1920 final v...", "description_zh": "", "downloads": 189, "homepage": "https://clawhub.ai/pauldelavallaz/picasso-tiktok", "iconUrl": null, "installs": 48, "name": "Picasso TikTok", "ownerName": "pauldelavallaz", "score": 33333.33333333333, "slug": "picasso-tiktok", "source": "clawhub", "stars": 0, "tags": null, "updated_at": 1776752444383, "version": "1.2.0"}, {"category": "content-creation", "created_at": 1773218689275, "description": "Remove signs of AI-generated writing from text. Use when editing or reviewing text to make it sound more natural and human-written. Based on Wikipedia's comp...", "description_zh": "", "downloads": 189, "homepage": "https://clawhub.ai/sonnenberglauramarie-afk/max-humanizer", "iconUrl": null, "installs": 28, "name": "Max Humanizer", "ownerName": "sonnenberglauramarie-afk", "score": 86697.24770642201, "slug": "max-humanizer", "source": "clawhub", "stars": 0, "tags": null, "updated_at": 1776749271176, "version": "1.0.0"}, {"category": "data-analysis", "created_at": 1773065814208, "description": "Analyze sentiment from news articles and headlines using AI. Each call charges 0.001 USDT via SkillPay.", "description_zh": "", "downloads": 189, "homepage": "https://clawhub.ai/mosonchan2023/news-sentiment-analyzer", "iconUrl": null, "installs": 8, "name": "News Sentiment Analyzer", "ownerName": "mosonchan2023", "score": 86301.3698630137, "slug": "news-sentiment-analyzer", "source": "clawhub", "stars": 0, "tags": null, "updated_at": 1776749270806, "version": "1.0.1"}, {"category": "developer-tools", "created_at": 1773068824174, "description": "Obsidian Sync CLI for syncing vaults on headless Linux servers with full end-to-end encryption.", "description_zh": "", "downloads": 189, "homepage": "https://clawhub.ai/bpauli/obsync", "iconUrl": null, "installs": 9, "name": "Obsync", "ownerName": "bpauli", "score": 86301.3698630137, "slug": "obsync", "source": "clawhub", "stars": 0, "tags": null, "updated_at": 1776749270775, "version": "0.1.2"}, {"category": "communication-collaboration", "created_at": 1773077766423, "description": "PayLessTax email automation system - 4x daily, 250 emails each", "description_zh": "", "downloads": 189, "homepage": "https://clawhub.ai/wespeakallday/email-campaign", "iconUrl": null, "installs": 6, "name": "PayLessTax Email Campaign", "ownerName": "wespeakallday", "score": 90430.62200956937, "slug": "email-campaign", "source": "clawhub", "stars": 0, "tags": null, "updated_at": 1776749270716, "version": "2.0.0"}, {"category": "ai-intelligence", "created_at": 1773425541750, "description": "Automated self-diagnostics: restarts crashed Ollama, repairs broken configs, verifies workspace integrity, recovers from common failures.", "description_zh": "", "downloads": 189, "homepage": "https://clawhub.ai/theshadowrose/self-repair-system", "iconUrl": null, "installs": 26, "name": "Self-Repair System — Autonomous AI Automation", "ownerName": "theshadowrose", "score": 87906.97674418605, "slug": "self-repair-system", "source": "clawhub", "stars": 0, "tags": ["auto-healing", "automation", "config-repair", "crash-recovery", "diagnostics", "monitoring", "ollama", "resilience", "self-repair"], "updated_at": 1776749270560, "version": "1.3.0"}, {"category": "ai-intelligence", "created_at": 1773084555597, "description": "Structured web research framework for AI agents. Teaches your agent to conduct multi-source research, synthesize findings into actionable briefs, maintain a...", "description_zh": "", "downloads": 189, "homepage": "https://clawhub.ai/clawdssen/agentledger-research-assistant", "iconUrl": null, "installs": 7, "name": "Research Assistant", "ownerName": "clawdssen", "score": 81818.18181818182, "slug": "agentledger-research-assistant", "source": "clawhub", "stars": 0, "tags": null, "updated_at": 1776749270489, "version": "1.0.1"}, {"category": "ai-intelligence", "created_at": 1773202233850, "description": "Find the best products in any category with expert picks, value recommendations, and budget options across US, UK, and EU retailers.", "description_zh": "", "downloads": 189, "homepage": "https://clawhub.ai/ralph-oei/best-product", "iconUrl": null, "installs": 13, "name": "Best Product Recommender", "ownerName": "ralph-oei", "score": 72137.40458015268, "slug": "best-product", "source": "clawhub", "stars": 0, "tags": null, "updated_at": 1776749270476, "version": "1.0.2"}, {"category": "data-analysis", "created_at": 1773219434290, "description": "Scan Freelancer.com for new projects matching your skills, draft personalized bid proposals, and track bidding history. Use when you want to find freelance j...", "description_zh": "", "downloads": 189, "homepage": "https://clawhub.ai/27555402-spec/freelancer-bidder", "iconUrl": null, "installs": 24, "name": "Freelancer Auto Bidder", "ownerName": "27555402-spec", "score": 87906.97674418605, "slug": "freelancer-bidder", "source": "clawhub", "stars": 0, "tags": null, "updated_at": 1776749270405, "version": "1.0.1"}, {"category": "data-analysis", "created_at": 1773218320024, "description": "Java/Maven single-module deep documentation generator. Generates L3(file-level) to L2(module-level) business logic docs for specified module. Supports multi-...", "description_zh": "", "downloads": 189, "homepage": "https://clawhub.ai/endcy/module-analyzer-generate-doc", "iconUrl": null, "installs": 19, "name": "Module Analyzer Generate Doc", "ownerName": "endcy", "score": 85135.13513513513, "slug": "module-analyzer-generate-doc", "source": "clawhub", "stars": 0, "tags": ["business-logic", "documentation", "java", "l2-l3-docs", "maven", "module-analyzer", "stable", "subagent"], "updated_at": 1776749270274, "version": "1.0.3"}, {"category": "data-analysis", "created_at": 1773091773720, "description": "Use Bitquery GraphQL through UXC for onchain trades, transfers, token holder analysis, balances, and market structure queries across supported networks, with...", "description_zh": "", "downloads": 189, "homepage": "https://clawhub.ai/jolestar/bitquery-graphql-skill", "iconUrl": null, "installs": 9, "name": "Bitquery Graphql Skill", "ownerName": "jolestar", "score": 85135.13513513513, "slug": "bitquery-graphql-skill", "source": "clawhub", "stars": 0, "tags": null, "updated_at": 1776749270166, "version": "1.0.0"}, {"category": "productivity", "created_at": 1773077496844, "description": "Support CMO-level planning across Meta (Facebook/Instagram), Google Ads, TikTok Ads, YouTube Ads, Amazon Ads, Shopify Ads, and DSP/programmatic with revenue,...", "description_zh": "", "downloads": 189, "homepage": "https://clawhub.ai/danyangliu-sandwichlab/cmo-ads-helper", "iconUrl": null, "installs": 14, "name": "CMO Helper", "ownerName": "danyangliu-sandwichlab", "score": 61165.048543689314, "slug": "cmo-ads-helper", "source": "clawhub", "stars": 0, "tags": null, "updated_at": 1776749270103, "version": "1.0.0"}, {"category": "developer-tools", "created_at": 1773079449731, "description": "CLI-first system health aggregator for autonomous AI agents. Query all agent processes, resources, cron jobs, and services in one shot. Use when a user asks...", "description_zh": "", "downloads": 189, "homepage": "https://clawhub.ai/dhawala4/dhawala-mission-control", "iconUrl": null, "installs": 3, "name": "Mission Control", "ownerName": "dhawala4", "score": 90865.38461538461, "slug": "dhawala-mission-control", "source": "clawhub", "stars": 0, "tags": null, "updated_at": 1776749269972, "version": "1.0.0"}, {"category": "security-compliance", "created_at": 1773080478632, "description": "Manage Soil Rich by John — website updates, blog/social content, ISDA compliance, orders, FFA programs. Notion-powered.", "description_zh": "", "downloads": 189, "homepage": "https://clawhub.ai/martc03/soilrich-ops", "iconUrl": null, "installs": 15, "name": "Soil Rich Ops", "ownerName": "martc03", "score": 90000, "slug": "soilrich-ops", "source": "clawhub", "stars": 0, "tags": null, "updated_at": 1776749269836, "version": "1.0.0"}, {"category": "security-compliance", "created_at": 1773431900719, "description": "Security scanner for AI infrastructure — discovers MCP clients and servers, checks packages for CVEs (OSV, NVD, EPSS, KEV), maps blast radius, and generates...", "description_zh": "", "downloads": 189, "homepage": "https://clawhub.ai/msaad00/agent-bom-scan", "iconUrl": null, "installs": 9, "name": "agent-bom scan", "ownerName": "msaad00", "score": 82532.75109170306, "slug": "agent-bom-scan", "source": "clawhub", "stars": 0, "tags": null, "updated_at": 1776749269578, "version": "0.71.0"}, {"category": "productivity", "created_at": 1773091866422, "description": "Discover RSS and Atom feeds for any website. Use when the user wants to find RSS feeds, subscribe to website updates, or locate syndication feeds for news ag...", "description_zh": "", "downloads": 188, "homepage": "https://clawhub.ai/yangzhe1991/find-rss", "iconUrl": null, "installs": 8, "name": "Find RSS", "ownerName": "yangzhe1991", "score": 38165.137614678904, "slug": "find-rss", "source": "clawhub", "stars": 1, "tags": null, "updated_at": 1776749385018, "version": "1.0.0"}, {"category": "security-compliance", "created_at": 1773065104921, "description": "AI-native security suite for OpenClaw. Scans skills for prompt injection, data exfiltration, cognitive rootkits, semantic worms, and more. Includes static an...", "description_zh": "", "downloads": 188, "homepage": "https://clawhub.ai/vext-labs/vext-shield", "iconUrl": null, "installs": 4, "name": "Vext Shield", "ownerName": "vext-labs", "score": 100000, "slug": "vext-shield", "source": "clawhub", "stars": 1, "tags": ["security"], "updated_at": 1776749384781, "version": "1.2.0"}, {"category": "data-analysis", "created_at": 1773429763567, "description": "Distill OpenClaw daily memory, session transcripts, and newly generated report files into new knowledge points and deeper knowledge leads. Use when the input...", "description_zh": "", "downloads": 188, "homepage": "https://clawhub.ai/harrylabsj/knowledge-distillation", "iconUrl": null, "installs": 7, "name": "Knowledge Distillation", "ownerName": "harrylabsj", "score": 100000, "slug": "knowledge-distillation", "source": "clawhub", "stars": 1, "tags": null, "updated_at": 1776749269932, "version": "1.0.1"}, {"category": "data-analysis", "created_at": 1773431206458, "description": "Scrapes Etsy and Shopify stores to reveal best-sellers, estimated revenue, SEO keywords, pricing, reviews, and generates product listings plus launch videos.", "description_zh": "", "downloads": 188, "homepage": "https://clawhub.ai/g4dr/ai-etsy-shopify-store-spy", "iconUrl": null, "installs": 26, "name": "AI Etsy & Shopify Store Spy — Reverse-Engineer Any Winning Store & Launch Your Own in Days", "ownerName": "g4dr", "score": 10873.337189126663, "slug": "ai-etsy-shopify-store-spy", "source": "clawhub", "stars": 0, "tags": ["apify", "best-sellers", "dropshipping", "ecommerce", "etsy", "invideo", "print-on-demand", "product-launch", "product-research", "revenue-estimation", "shopify", "store-spy"], "updated_at": 1776765310775, "version": "1.0.0"}, {"category": "content-creation", "created_at": 1773417265083, "description": "Generate professional presentations and slide decks using each::sense AI. Create pitch decks, business presentations, training materials, conference talks, a...", "description_zh": "", "downloads": 188, "homepage": "https://clawhub.ai/eftalyurtseven/presentation-generation", "iconUrl": null, "installs": 19, "name": "Presentation Generation", "ownerName": "eftalyurtseven", "score": 4787.369493251846, "slug": "presentation-generation", "source": "clawhub", "stars": 0, "tags": null, "updated_at": 1776761880094, "version": "1.0.0"}, {"category": "productivity", "created_at": 1773088596005, "description": "User-configurable multi-slot news aggregation and push system. Schedule, topics, and keywords are defined by the user via config.json. Aggregates from Twitte...", "description_zh": "", "downloads": 188, "homepage": "https://clawhub.ai/hzlvv/openclaw-new-digest", "iconUrl": null, "installs": 11, "name": "News Digest", "ownerName": "hzlvv", "score": 14373.08868501529, "slug": "openclaw-new-digest", "source": "clawhub", "stars": 0, "tags": null, "updated_at": 1776759498496, "version": "0.1.0"}, {"category": "data-analysis", "created_at": 1773221252024, "description": "Access and manage marketing leads, update lead details, and retrieve analytics for lead performance and conversion tracking via Konektor API.", "description_zh": "", "downloads": 188, "homepage": "https://clawhub.ai/ramaaditya49/konektor", "iconUrl": null, "installs": 13, "name": "Konektor - CAPI & Lead Management", "ownerName": "ramaaditya49", "score": 14373.08868501529, "slug": "konektor", "source": "clawhub", "stars": 0, "tags": null, "updated_at": 1776759498488, "version": "2.1.1"}, {"category": "data-analysis", "created_at": 1773083900190, "description": "Analyzes a GitHub repository to produce a detailed, evidence-based overview of its purpose, tech stack, architecture, features, and developer workflows.", "description_zh": "", "downloads": 188, "homepage": "https://clawhub.ai/pigd0g/repo-discovery", "iconUrl": null, "installs": 15, "name": "Repository Discovery", "ownerName": "pigd0g", "score": 14373.08868501529, "slug": "repo-discovery", "source": "clawhub", "stars": 0, "tags": null, "updated_at": 1776759498353, "version": "1.0.0"}, {"category": "communication-collaboration", "created_at": 1773218527141, "description": "The only AI skill built specifically for WeChat communication in China. Drafts messages calibrated to Chinese business etiquette and relationship hierarchy....", "description_zh": "", "downloads": 188, "homepage": "https://clawhub.ai/agisearch/guanxi", "iconUrl": null, "installs": 15, "name": "Guanxi", "ownerName": "agisearch", "score": 14373.08868501529, "slug": "guanxi", "source": "clawhub", "stars": 0, "tags": ["business", "china", "communication", "guanxi", "wechat"], "updated_at": 1776759498344, "version": "1.0.0"}, {"category": "productivity", "created_at": 1773222495711, "description": "Personal reading management system for tracking books, articles, reading progress, notes, and generating reading reports. Use when: (1) recording books and a...", "description_zh": "", "downloads": 188, "homepage": "https://clawhub.ai/harrylabsj/reading-manager", "iconUrl": null, "installs": 8, "name": "Reading Manager", "ownerName": "harrylabsj", "score": 14373.08868501529, "slug": "reading-manager", "source": "clawhub", "stars": 0, "tags": null, "updated_at": 1776759498330, "version": "1.0.0"}, {"category": "ai-intelligence", "created_at": 1773220024115, "description": "Performs multi-cycle, iterative deep research on complex topics using a local LDR service, providing detailed reports with citations and source tracking.", "description_zh": "", "downloads": 188, "homepage": "https://clawhub.ai/eplt/local-deep-research", "iconUrl": null, "installs": 27, "name": "Local Deep Research", "ownerName": "eplt", "score": 14373.08868501529, "slug": "local-deep-research", "source": "clawhub", "stars": 0, "tags": null, "updated_at": 1776759498316, "version": "1.0.2"}, {"category": "", "created_at": 1774915997989, "description": "Value investment analysis and decision guidance tool following Buffett investment philosophy. Core capabilities include business understanding, moat analysis...", "description_zh": "", "downloads": 188, "homepage": "https://clawhub.ai/e2e5g/zhinangtuan2-buffett", "iconUrl": null, "installs": 59, "name": "智囊团2号Ai巴菲特", "ownerName": "e2e5g", "score": 11816.467630421119, "slug": "zhinangtuan2-buffett", "source": "clawhub", "stars": 0, "tags": ["buffett", "finance", "investment"], "updated_at": 1776757282411, "version": "1.0.0"}, {"category": "productivity", "created_at": 1773088747417, "description": "Collective intelligence network node. Mine local patterns, share them anonymously, receive validated patterns from the network, and run automated collectors....", "description_zh": "", "downloads": 188, "homepage": "https://clawhub.ai/zeroptis/hume-network", "iconUrl": null, "installs": 13, "name": "Hume Network", "ownerName": "zeroptis", "score": 97409.32642487047, "slug": "hume-network", "source": "clawhub", "stars": 0, "tags": null, "updated_at": 1776749385422, "version": "0.3.3"}, {"category": "content-creation", "created_at": 1773091891950, "description": "Send images from Mac to phone via iMessage", "description_zh": "", "downloads": 188, "homepage": "https://clawhub.ai/wzyyyyyyyy/imessage-sender", "iconUrl": null, "installs": 10, "name": "Imessage Sender", "ownerName": "wzyyyyyyyy", "score": 97409.32642487047, "slug": "imessage-sender", "source": "clawhub", "stars": 0, "tags": null, "updated_at": 1776749385339, "version": "1.0.0"}, {"category": "data-analysis", "created_at": 1773088912705, "description": "Check how much Claude Max / Claude Pro subscription quota you have LEFT — not how much you spent. Most usage tools track API billing or token costs. This one...", "description_zh": "", "downloads": 188, "homepage": "https://clawhub.ai/mfang0126/claude-quota-checker", "iconUrl": null, "installs": 17, "name": "How Much Claude Left?", "ownerName": "mfang0126", "score": 80000, "slug": "claude-quota-checker", "source": "clawhub", "stars": 0, "tags": null, "updated_at": 1776749385273, "version": "1.1.1"}, {"category": "data-analysis", "created_at": 1773082430166, "description": "Cognitive protocols for AI agents: anti-binary thinking, gardener mindset, friction protocol, and behavioral mode detection. Teaches agents HOW to think abou...", "description_zh": "", "downloads": 188, "homepage": "https://clawhub.ai/mouserider/activated-thinker", "iconUrl": null, "installs": 12, "name": "Activated Thinker", "ownerName": "mouserider", "score": 78991.59663865546, "slug": "activated-thinker", "source": "clawhub", "stars": 0, "tags": null, "updated_at": 1776749385111, "version": "1.0.0"}, {"category": "developer-tools", "created_at": 1773081364718, "description": "LLM-as-a-Judge evaluation system using Langfuse. Score AI outputs on relevance, accuracy, hallucination, and helpfulness. Backfill scoring on historical trac...", "description_zh": "", "downloads": 188, "homepage": "https://clawhub.ai/aiwithabidi/llm-evaluator", "iconUrl": null, "installs": 7, "name": "Llm Evaluator", "ownerName": "aiwithabidi", "score": 93069.30693069307, "slug": "llm-evaluator", "source": "clawhub", "stars": 0, "tags": null, "updated_at": 1776749384564, "version": "1.0.0"}, {"category": "ai-intelligence", "created_at": 1773078083822, "description": "Manage customer expectations, order changes, and post-purchase support for long-lead custom products (engraved necklaces, custom pet portraits, personalized...", "description_zh": "", "downloads": 188, "homepage": "https://clawhub.ai/rijoyai/custom-order-support", "iconUrl": null, "installs": 12, "name": "Custom Order Support", "ownerName": "rijoyai", "score": 86238.53211009175, "slug": "custom-order-support", "source": "clawhub", "stars": 0, "tags": null, "updated_at": 1776749271161, "version": "0.1.2"}, {"category": "productivity", "created_at": 1773424556999, "description": "This skill should be used when the user asks to \"buy token\", \"sell token\", \"swap token\", \"trade crypto\", \"check trade status\", \"query transaction\", \"scan tok...", "description_zh": "", "downloads": 188, "homepage": "https://clawhub.ai/jimmy-holiday/xxyy-trade-skill", "iconUrl": null, "installs": 10, "name": "Xxyy Trade", "ownerName": "jimmy-holiday", "score": 63945.57823129252, "slug": "xxyy-trade-skill", "source": "clawhub", "stars": 0, "tags": null, "updated_at": 1776749271102, "version": "1.2.3"}, {"category": "developer-tools", "created_at": 1773065378040, "description": "Run multi-model AI synthesis inquiries via QuorumAI. Four AI models (Claude, GPT, Gemini, Grok) compete to answer your question from specialized perspectives...", "description_zh": "", "downloads": 188, "homepage": "https://clawhub.ai/shokatma-oss/quorumai", "iconUrl": null, "installs": 9, "name": "QuorumAI", "ownerName": "shokatma-oss", "score": 63945.57823129252, "slug": "quorumai", "source": "clawhub", "stars": 0, "tags": null, "updated_at": 1776749271082, "version": "1.0.0"}, {"category": "communication-collaboration", "created_at": 1773082149311, "description": "Send physical mail from CRM contacts using PostGrid. Use when pulling contacts from GoHighLevel (GHL) or Follow Up Boss (FUB), mapping contact/address fields...", "description_zh": "", "downloads": 188, "homepage": "https://clawhub.ai/danielfoch/crm-snail-mail-postgrid", "iconUrl": null, "installs": 10, "name": "Crm Snail Mail Postgrid", "ownerName": "danielfoch", "score": 74015.74803149607, "slug": "crm-snail-mail-postgrid", "source": "clawhub", "stars": 0, "tags": null, "updated_at": 1776749270965, "version": "0.1.0"}, {"category": "security-compliance", "created_at": 1773088831454, "description": "Notion-to-Twitter automation — pull approved tweets from a Notion database, schedule one-shot crons for exact post times, and post via X/Twitter OAuth2 API....", "description_zh": "", "downloads": 188, "homepage": "https://clawhub.ai/nissan/tweet-pipeline", "iconUrl": null, "installs": 14, "name": "Tweet Pipeline", "ownerName": "nissan", "score": 87850.46728971963, "slug": "tweet-pipeline", "source": "clawhub", "stars": 0, "tags": null, "updated_at": 1776749270881, "version": "1.0.0"}, {"category": "ai-intelligence", "created_at": 1773219329372, "description": "Multi-agent project management with task boards, @-mention routing, WBS, and orchestrated team collaboration. Includes a Control UI plugin tab with project d...", "description_zh": "", "downloads": 188, "homepage": "https://clawhub.ai/maverick-software/team-projects", "iconUrl": null, "installs": 18, "name": "Team Projects", "ownerName": "maverick-software", "score": 85844.74885844748, "slug": "team-projects", "source": "clawhub", "stars": 0, "tags": null, "updated_at": 1776749270779, "version": "1.2.0"}]}