{"page": 313, "total_pages": 522, "total": 26073, "skills": [{"category": "data-analysis", "created_at": 1773284679568, "description": "Real-time financial sign-up bonus radar. Query bank, broker, U-card, crypto exchange and remittance offers with bonus details, conditions and referral links.", "description_zh": "", "downloads": 188, "homepage": "https://clawhub.ai/laosji/money-radar", "iconUrl": null, "installs": 14, "name": "MoneyRadar", "ownerName": "laosji", "score": 89952.15311004785, "slug": "money-radar", "source": "clawhub", "stars": 0, "tags": null, "updated_at": 1776749270758, "version": "1.1.1"}, {"category": "ai-intelligence", "created_at": 1773089043376, "description": "Docker container lifecycle management. Use when: user asks to list containers, start/stop containers, view logs, check stats, prune unused containers or imag...", "description_zh": "", "downloads": 188, "homepage": "https://clawhub.ai/ppopen/openclaw-skill-docker-manager", "iconUrl": null, "installs": 15, "name": "Docker Manager", "ownerName": "ppopen", "score": 89952.15311004785, "slug": "openclaw-skill-docker-manager", "source": "clawhub", "stars": 0, "tags": null, "updated_at": 1776749270707, "version": "1.0.0"}, {"category": "developer-tools", "created_at": 1773063856133, "description": "Manage Synology Calendar events and todos via API. Supports calendars, events, todos, and contacts. Based on official Calendar API Guide (v5).", "description_zh": "", "downloads": 188, "homepage": "https://clawhub.ai/fpengziyang/synology-calendar", "iconUrl": null, "installs": 9, "name": "synology-calendar", "ownerName": "fpengziyang", "score": 87441.86046511629, "slug": "synology-calendar", "source": "clawhub", "stars": 0, "tags": null, "updated_at": 1776749270573, "version": "1.0.1"}, {"category": "data-analysis", "created_at": 1773069397221, "description": "Manage tasks, CRM leads, contacts, and settings via the DashTask REST API", "description_zh": "", "downloads": 188, "homepage": "https://clawhub.ai/sstrohl223/dashtask-taskmanager-crm-dashboards-bots-humans", "iconUrl": null, "installs": 12, "name": "Dashtask.ai - Task/Project manager and CRM built for AI Agents and Humans to work together.", "ownerName": "sstrohl223", "score": 71755.72519083969, "slug": "dashtask-taskmanager-crm-dashboards-bots-humans", "source": "clawhub", "stars": 0, "tags": null, "updated_at": 1776749270474, "version": "1.9.1"}, {"category": "security-compliance", "created_at": 1773080964479, "description": "Bilingual meme token risk radar for Binance Web3 data. Scan newly launched or fast-rising meme tokens from Meme Rush, enrich with token audit and token info,...", "description_zh": "", "downloads": 188, "homepage": "https://clawhub.ai/2663629531/meme-risk-radar-skill", "iconUrl": null, "installs": 12, "name": "Meme Risk Radar", "ownerName": "2663629531", "score": 71755.72519083969, "slug": "meme-risk-radar-skill", "source": "clawhub", "stars": 0, "tags": ["audit", "bilingual", "binance", "meme", "research", "risk"], "updated_at": 1776749270467, "version": "1.0.0"}, {"category": "ai-intelligence", "created_at": 1773079427186, "description": "A daily weather report for your codebase. Clear skies when tests pass and coverage is high. Thunderstorms when bugs are clustering. Fog when nobody can under...", "description_zh": "", "downloads": 188, "homepage": "https://clawhub.ai/jcools1977/code-weather", "iconUrl": null, "installs": 19, "name": "Code Weather", "ownerName": "jcools1977", "score": 71755.72519083969, "slug": "code-weather", "source": "clawhub", "stars": 0, "tags": null, "updated_at": 1776749270451, "version": "1.0.0"}, {"category": "ai-intelligence", "created_at": 1773081697863, "description": "[Aibrary] Generate a book summary podcast script in a single-narrator storytelling style. Use when the user wants to turn a book into a podcast, create an au...", "description_zh": "", "downloads": 188, "homepage": "https://clawhub.ai/asoiso/aibrary-podcast-summary", "iconUrl": null, "installs": 15, "name": "Aibrary Podcast Summary", "ownerName": "asoiso", "score": 87441.86046511629, "slug": "aibrary-podcast-summary", "source": "clawhub", "stars": 0, "tags": null, "updated_at": 1776749270340, "version": "0.1.0"}, {"category": "developer-tools", "created_at": 1773089397527, "description": "Build and operate a multi-agent task queue in OpenClaw with priority queues, delayed/dead-letter queues, scheduling, retry/timeout control, dependency manage...", "description_zh": "", "downloads": 188, "homepage": "https://clawhub.ai/imgolye/agent-task-queue", "iconUrl": null, "installs": 9, "name": "Agent Task Queue", "ownerName": "imgolye", "score": 84684.68468468469, "slug": "agent-task-queue", "source": "clawhub", "stars": 0, "tags": null, "updated_at": 1776749270322, "version": "0.1.0"}, {"category": "content-creation", "created_at": 1773082904063, "description": "Write powerful SOUL.md files for AI agents. Use when creating, revising, or improving SOUL.md (the personality document for AI agents). Based on Anthropic's...", "description_zh": "", "downloads": 188, "homepage": "https://clawhub.ai/asimons81/better-soul", "iconUrl": null, "installs": 11, "name": "better-soul", "ownerName": "asimons81", "score": 84684.68468468469, "slug": "better-soul", "source": "clawhub", "stars": 0, "tags": null, "updated_at": 1776749270282, "version": "1.0.0"}, {"category": "security-compliance", "created_at": 1773079962148, "description": "Send WhatsApp OTP (one-time password) messages via CMI OmniChannel RCS API. Use when user asks to send verification code, OTP, or authentication code via Wha...", "description_zh": "", "downloads": 188, "homepage": "https://clawhub.ai/picccabo-art/whatsapp-otp", "iconUrl": null, "installs": 17, "name": "CMI CPaaS - WhatsApp OTP Sender", "ownerName": "picccabo-art", "score": 84684.68468468469, "slug": "whatsapp-otp", "source": "clawhub", "stars": 0, "tags": null, "updated_at": 1776749270129, "version": "1.0.2"}, {"category": "ai-intelligence", "created_at": 1773220040460, "description": "Comprehensive guide for installing, configuring, operating, and troubleshooting OpenClaw — a self-hosted, multi-channel AI agent gateway. Use when the user a...", "description_zh": "", "downloads": 188, "homepage": "https://clawhub.ai/forgottener/openclaw-guide-maintenance", "iconUrl": null, "installs": 14, "name": "OpenClaw Guide & Maintenance", "ownerName": "forgottener", "score": 60841.423948220065, "slug": "openclaw-guide-maintenance", "source": "clawhub", "stars": 0, "tags": null, "updated_at": 1776749270100, "version": "2026.3.8"}, {"category": "productivity", "created_at": 1773064705523, "description": "Optimize token usage by adopting the compact TOON format for data storage and context.", "description_zh": "", "downloads": 188, "homepage": "https://clawhub.ai/nelohenriq/toon-adoption-skill", "iconUrl": null, "installs": 3, "name": "TOON", "ownerName": "nelohenriq", "score": 60841.423948220065, "slug": "toon-adoption-skill", "source": "clawhub", "stars": 0, "tags": null, "updated_at": 1776749270060, "version": "1.0.0"}, {"category": "security-compliance", "created_at": 1773082556828, "description": "Audit GitHub Actions workflow files for hardening gaps (missing timeouts/permissions/concurrency and floating action refs).", "description_zh": "", "downloads": 188, "homepage": "https://clawhub.ai/daniellummis/github-actions-workflow-hardening-audit", "iconUrl": null, "installs": 9, "name": "GitHub Actions Workflow Hardening Audit", "ownerName": "daniellummis", "score": 87850.46728971963, "slug": "github-actions-workflow-hardening-audit", "source": "clawhub", "stars": 0, "tags": null, "updated_at": 1776749270012, "version": "1.1.0"}, {"category": "developer-tools", "created_at": 1773068638221, "description": "Automates the multi-channel publishing of Agent Skills. Use when the user wants to release a new version of their skills to ClaWHub, GitHub, and other platfo...", "description_zh": "", "downloads": 188, "homepage": "https://clawhub.ai/wells1137/wells1137-skill-publisher", "iconUrl": null, "installs": 1, "name": "Skill Publisher", "ownerName": "wells1137", "score": 85844.74885844748, "slug": "wells1137-skill-publisher", "source": "clawhub", "stars": 0, "tags": null, "updated_at": 1776749269754, "version": "1.0.0"}, {"category": "productivity", "created_at": 1773079495969, "description": "Inventory Source — dropship automation, supplier management, product feeds, inventory sync, and order routing.", "description_zh": "", "downloads": 188, "homepage": "https://clawhub.ai/aiwithabidi/inventory-source", "iconUrl": null, "installs": 4, "name": "Inventory Source", "ownerName": "aiwithabidi", "score": 85844.74885844748, "slug": "inventory-source", "source": "clawhub", "stars": 0, "tags": null, "updated_at": 1776749269744, "version": "1.0.0"}, {"category": "data-analysis", "created_at": 1773884070753, "description": "Retrieve astronomy and astrophysics papers from the user's arXiv mirror API. Use when Codex needs to list papers from a given arXiv day, find papers related...", "description_zh": "", "downloads": 187, "homepage": "https://clawhub.ai/zqqian/astro-arxiv-search", "iconUrl": null, "installs": 46, "name": "Astro arXiv Search", "ownerName": "zqqian", "score": 2590.1414879050662, "slug": "astro-arxiv-search", "source": "clawhub", "stars": 2, "tags": null, "updated_at": 1776764350406, "version": "1.0.1"}, {"category": "productivity", "created_at": 1773082389644, "description": "Browser automation skill for web interaction and data extraction. Enhanced version by zhuyu28.", "description_zh": "", "downloads": 187, "homepage": "https://clawhub.ai/zhuyu28/web-scraper-pro-zhuyu28", "iconUrl": null, "installs": 11, "name": "Web Scraper Pro Zhuyu28", "ownerName": "zhuyu28", "score": 2747.909199522103, "slug": "web-scraper-pro-zhuyu28", "source": "clawhub", "stars": 1, "tags": null, "updated_at": 1776761539795, "version": "1.0.0"}, {"category": "data-analysis", "created_at": 1773287387316, "description": "Analyzes and solves problems using TRIZ (Theory of Inventive Problem Solving) methodology. Trigger this skill when users need to resolve technical challenges...", "description_zh": "", "downloads": 187, "homepage": "https://clawhub.ai/wwt1995/triz-problem-solver", "iconUrl": null, "installs": 18, "name": "TRIZ Problem Solver", "ownerName": "wwt1995", "score": 16159.250585480095, "slug": "triz-problem-solver", "source": "clawhub", "stars": 1, "tags": null, "updated_at": 1776759798122, "version": "1.0.0"}, {"category": "developer-tools", "created_at": 1773424621494, "description": "Automatically sync local skills to ClawHub and GitHub. Detects new/modified skills, publishes to ClawHub, commits to GitHub, and maintains sync status.", "description_zh": "", "downloads": 187, "homepage": "https://clawhub.ai/sunnyhot/skill-sync", "iconUrl": null, "installs": 5, "name": "Skill Sync", "ownerName": "sunnyhot", "score": 15789.473684210525, "slug": "skill-sync", "source": "clawhub", "stars": 1, "tags": null, "updated_at": 1776759497788, "version": "1.5.0"}, {"category": "productivity", "created_at": 1773069878410, "description": "Access Questrade brokerage accounts and Canadian/US market data for balances, positions, orders, executions, Level 1 quotes, historical candles, and symbol s...", "description_zh": "", "downloads": 187, "homepage": "https://clawhub.ai/josemiguelherrera/questrade", "iconUrl": null, "installs": 6, "name": "Questrade", "ownerName": "josemiguelherrera", "score": 791.0656119125175, "slug": "questrade", "source": "clawhub", "stars": 0, "tags": ["brokerage", "canada", "market-data", "portfolio", "questrade", "rrsp", "stocks", "tfsa"], "updated_at": 1776770650232, "version": "1.0.0"}, {"category": "developer-tools", "created_at": 1773089060882, "description": "Detects active system proxy settings on Windows and macOS, tests proxy availability, and returns results in JSON format.", "description_zh": "", "downloads": 187, "homepage": "https://clawhub.ai/noah-smith-max/proxy-detect", "iconUrl": null, "installs": 6, "name": "detect opened proxy", "ownerName": "noah-smith-max", "score": 1194.2776855281645, "slug": "proxy-detect", "source": "clawhub", "stars": 0, "tags": null, "updated_at": 1776766150388, "version": "1.0.0"}, {"category": "", "created_at": 1774894602554, "description": "Parse local `.docx` and `.pdf` files into structured knowledge artifacts with detailed reports, tracking successes, failures, and summaries without auto-writ...", "description_zh": "", "downloads": 187, "homepage": "https://clawhub.ai/kaiasdobi/docx-pdf-knowledge-parser", "iconUrl": null, "installs": 57, "name": "docx-pdf-knowledge-parser", "ownerName": "kaiasdobi", "score": 2881.35593220339, "slug": "docx-pdf-knowledge-parser", "source": "clawhub", "stars": 0, "tags": null, "updated_at": 1776765850273, "version": "1.0.1"}, {"category": "content-creation", "created_at": 1773431350822, "description": "Generate and edit draw.io artifacts from natural-language prompts without a frontend. Use when the user asks for prompt-to-diagram workflows that need `.draw...", "description_zh": "", "downloads": 187, "homepage": "https://clawhub.ai/lzfxxx/prompt-to-drawio", "iconUrl": null, "installs": 53, "name": "Prompt to Drawio", "ownerName": "lzfxxx", "score": 2804.018593492278, "slug": "prompt-to-drawio", "source": "clawhub", "stars": 0, "tags": null, "updated_at": 1776765250150, "version": "0.1.0"}, {"category": "content-creation", "created_at": 1773084736338, "description": "Generate detailed, optimized AI art prompts for Midjourney, DALL-E, and Stable Diffusion, including style, lighting, and composition keywords.", "description_zh": "", "downloads": 187, "homepage": "https://clawhub.ai/loverun321/prompt-gen-skill", "iconUrl": null, "installs": 12, "name": "AI Prompt Generator", "ownerName": "loverun321", "score": 7290.448343079922, "slug": "prompt-gen-skill", "source": "clawhub", "stars": 0, "tags": null, "updated_at": 1776764950456, "version": "1.0.0"}, {"category": "productivity", "created_at": 1773089485786, "description": "Relationship intelligence for OpenClaw. Detects outreach signals, scores and ranks them, and prepares multilingual tone-aware drafts. Never sends anything —...", "description_zh": "", "downloads": 187, "homepage": "https://clawhub.ai/abderrahman-jalled/improve-relationships", "iconUrl": null, "installs": 6, "name": "Improve Relationships", "ownerName": "abderrahman-jalled", "score": 14296.636085626913, "slug": "improve-relationships", "source": "clawhub", "stars": 0, "tags": null, "updated_at": 1776759498482, "version": "0.2.2"}, {"category": "data-analysis", "created_at": 1773219430056, "description": "The Universal Morphological Standard (UMS). Defining the structural schemas, data ontologies, and interaction boundaries for autonomous entities and syntheti...", "description_zh": "", "downloads": 187, "homepage": "https://clawhub.ai/agistack/form", "iconUrl": null, "installs": 11, "name": "Form", "ownerName": "agistack", "score": 14296.636085626913, "slug": "form", "source": "clawhub", "stars": 0, "tags": ["data", "design", "form", "schema", "structure"], "updated_at": 1776759498480, "version": "1.0.0"}, {"category": "security-compliance", "created_at": 1773202311684, "description": "Monitor OpenClaw agent runs with real-time traces showing decisions, tool usage, performance, costs, and user attribution for full observability.", "description_zh": "", "downloads": 187, "homepage": "https://clawhub.ai/volkodavs/darkhunt-observability", "iconUrl": null, "installs": 5, "name": "Darkhunt Observability", "ownerName": "volkodavs", "score": 87383.17757009347, "slug": "darkhunt-observability", "source": "clawhub", "stars": 0, "tags": ["monitoring", "observability", "security", "telemetry", "tracing"], "updated_at": 1776759498440, "version": "1.3.1"}, {"category": "communication-collaboration", "created_at": 1773081361648, "description": "Enables near real-time chat between multiple Kiro instances via a shared JSON file with polling for quick message exchange and task coordination.", "description_zh": "", "downloads": 187, "homepage": "https://clawhub.ai/sonerbo/kiro-realtime", "iconUrl": null, "installs": 5, "name": "Kiro Realtime Chat", "ownerName": "sonerbo", "score": 14263.920671243326, "slug": "kiro-realtime", "source": "clawhub", "stars": 0, "tags": null, "updated_at": 1776759498387, "version": "1.0.0"}, {"category": "data-analysis", "created_at": 1773883808856, "description": "Trades Polymarket prediction markets focused on supply chain disruptions, port congestion, shipping delays, commodity prices, and logistics outcomes. Use whe...", "description_zh": "", "downloads": 187, "homepage": "https://clawhub.ai/diagnostikon/polymarket-supply-chain-trader", "iconUrl": null, "installs": 42, "name": "Supply Chain & Logistics Trader", "ownerName": "diagnostikon", "score": 11636.58991910392, "slug": "polymarket-supply-chain-trader", "source": "clawhub", "stars": 0, "tags": null, "updated_at": 1776758220490, "version": "1.0.5"}, {"category": "productivity", "created_at": 1773079308436, "description": "Trello integration. Manage Boards, Members, Labels. Use when the user wants to interact with Trello data.", "description_zh": "", "downloads": 187, "homepage": "https://clawhub.ai/membranedev/trello-integration", "iconUrl": null, "installs": 0, "name": "Trello", "ownerName": "membranedev", "score": 33274.02135231317, "slug": "trello-integration", "source": "clawhub", "stars": 0, "tags": null, "updated_at": 1776749385445, "version": "1.0.0"}, {"category": "communication-collaboration", "created_at": 1773083848192, "description": "Prevent common failures in multi-agent Discord conversations. Use when multiple AI agents (bots) are chatting in the same channel — townhalls, group discussi...", "description_zh": "", "downloads": 187, "homepage": "https://clawhub.ai/mupengi-bot/multi-agent-chat", "iconUrl": null, "installs": 5, "name": "Multi-Agent Chat Protocol", "ownerName": "mupengi-bot", "score": 78571.42857142857, "slug": "multi-agent-chat", "source": "clawhub", "stars": 0, "tags": null, "updated_at": 1776749385114, "version": "1.0.0"}, {"category": "productivity", "created_at": 1773069904613, "description": "Salesloft integration. Manage sales data, records, and workflows. Use when the user wants to interact with Salesloft data.", "description_zh": "", "downloads": 187, "homepage": "https://clawhub.ai/gora050/salesloft", "iconUrl": null, "installs": 10, "name": "Salesloft", "ownerName": "gora050", "score": 78571.42857142857, "slug": "salesloft", "source": "clawhub", "stars": 0, "tags": null, "updated_at": 1776749385093, "version": "1.0.0"}, {"category": "developer-tools", "created_at": 1773284773169, "description": "Test agents or models against predefined test cases to validate model routing, performance, and output quality. Use when: (1) verifying a specific agent or m...", "description_zh": "", "downloads": 187, "homepage": "https://clawhub.ai/nandorocker/model-tester", "iconUrl": null, "installs": 7, "name": "Model Tester", "ownerName": "nandorocker", "score": 90776.69902912622, "slug": "model-tester", "source": "clawhub", "stars": 0, "tags": ["agents", "debugging", "testing"], "updated_at": 1776749384981, "version": "1.0.0"}, {"category": "developer-tools", "created_at": 1773078558455, "description": "Control and automate Shelly devices with local RPC workflows, secure access modes, cloud API coordination, and safe multi-device execution.", "description_zh": "", "downloads": 187, "homepage": "https://clawhub.ai/ivangdavila/shelly", "iconUrl": null, "installs": 18, "name": "Shelly", "ownerName": "ivangdavila", "score": 83482.14285714286, "slug": "shelly", "source": "clawhub", "stars": 0, "tags": null, "updated_at": 1776749384832, "version": "1.0.0"}, {"category": "ai-intelligence", "created_at": 1773069512265, "description": "Check real-time NYC subway arrivals, track trains, and find stations. Use when user asks about subway times, train status, MTA arrivals, or NYC transit.", "description_zh": "", "downloads": 187, "homepage": "https://clawhub.ai/mxs2019/nyc-subway-status", "iconUrl": null, "installs": 10, "name": "NYC Subway Status", "ownerName": "mxs2019", "score": 83482.14285714286, "slug": "nyc-subway-status", "source": "clawhub", "stars": 0, "tags": null, "updated_at": 1776749384795, "version": "1.0.0"}, {"category": "security-compliance", "created_at": 1773083828326, "description": "Kibana API integration with managed authentication. Manage saved objects, dashboards, data views, spaces, alerts, and fleet. Use this skill when users want t...", "description_zh": "", "downloads": 187, "homepage": "https://clawhub.ai/byungkyu/kibana", "iconUrl": null, "installs": 8, "name": "Kibana", "ownerName": "byungkyu", "score": 89903.84615384616, "slug": "kibana", "source": "clawhub", "stars": 0, "tags": null, "updated_at": 1776749384750, "version": "1.0.0"}, {"category": "communication-collaboration", "created_at": 1773077312923, "description": "SugarCRM integration. Manage crm and sales data, records, and workflows. Use when the user wants to interact with SugarCRM data.", "description_zh": "", "downloads": 187, "homepage": "https://clawhub.ai/gora050/sugarcrm", "iconUrl": null, "installs": 7, "name": "Sugarcrm", "ownerName": "gora050", "score": 89903.84615384616, "slug": "sugarcrm", "source": "clawhub", "stars": 0, "tags": null, "updated_at": 1776749384743, "version": "1.0.1"}, {"category": "ai-intelligence", "created_at": 1773089643395, "description": "Orchestrate multi-agent teams with defined roles, task lifecycles, handoff protocols, and review workflows. Use when: (1) Setting up a team of 2+ agents with...", "description_zh": "", "downloads": 187, "homepage": "https://clawhub.ai/nuradil/agent-team-orchestration-1", "iconUrl": null, "installs": 25, "name": "Agent Team Orchestration 1", "ownerName": "nuradil", "score": 92574.25742574257, "slug": "agent-team-orchestration-1", "source": "clawhub", "stars": 0, "tags": null, "updated_at": 1776749384624, "version": "1.0.0"}, {"category": "content-creation", "created_at": 1773067898778, "description": "Insert rich Markdown content (including tables) into Feishu documents. Use when feishu_doc write/append fails with tables, or when inserting complex formatte...", "description_zh": "", "downloads": 187, "homepage": "https://clawhub.ai/deadblue22/feishu-md2blocks", "iconUrl": null, "installs": 13, "name": "Feishu Md2blocks", "ownerName": "deadblue22", "score": 92118.22660098522, "slug": "feishu-md2blocks", "source": "clawhub", "stars": 0, "tags": null, "updated_at": 1776749384419, "version": "1.0.0"}, {"category": "data-analysis", "created_at": 1773219562278, "description": "Operate Binance Web3 public market and research APIs through UXC with a curated OpenAPI schema. Use when tasks need token search, token metadata/market snaps...", "description_zh": "", "downloads": 187, "homepage": "https://clawhub.ai/jolestar/binance-web3-openapi-skill", "iconUrl": null, "installs": 13, "name": "Binance Web3 Openapi Skill", "ownerName": "jolestar", "score": 92118.22660098522, "slug": "binance-web3-openapi-skill", "source": "clawhub", "stars": 0, "tags": null, "updated_at": 1776749384364, "version": "1.0.0"}, {"category": "productivity", "created_at": 1773417845225, "description": "Convert multi-page PDFs into a single vertical long image by concatenating all pages. Use when the user asks to convert PDF to long image, combine PDF pages...", "description_zh": "", "downloads": 187, "homepage": "https://clawhub.ai/kieferhuan/pdf2image", "iconUrl": null, "installs": 41, "name": "pdf2img", "ownerName": "kieferhuan", "score": 93034.82587064676, "slug": "pdf2image", "source": "clawhub", "stars": 0, "tags": null, "updated_at": 1776749384252, "version": "1.0.0"}, {"category": "content-creation", "created_at": 1773091147273, "description": "Print files uploaded to a Slack channel. Supports smart matching: multiple files, filename prefix/keyword filter, file type (pdf/image), and time range (\"jus...", "description_zh": "", "downloads": 187, "homepage": "https://clawhub.ai/caigang78/slack-print", "iconUrl": null, "installs": 10, "name": "Slack Print", "ownerName": "caigang78", "score": 86175.11520737328, "slug": "slack-print", "source": "clawhub", "stars": 0, "tags": ["print", "slack"], "updated_at": 1776749384198, "version": "1.0.0"}, {"category": "developer-tools", "created_at": 1773080485979, "description": "AI Chief of Staff for solo businesses — inbox triage, task prioritization, revenue tracking, decision journals, opportunity scoring, and weekly reviews.", "description_zh": "", "downloads": 187, "homepage": "https://clawhub.ai/clawdssen/solopreneur-assistant", "iconUrl": null, "installs": 14, "name": "Solopreneur Assistant", "ownerName": "clawdssen", "score": 86175.11520737328, "slug": "solopreneur-assistant", "source": "clawhub", "stars": 0, "tags": null, "updated_at": 1776749384168, "version": "1.0.0"}, {"category": "ai-intelligence", "created_at": 1773416401018, "description": "Adopt a virtual Archive at animalhouse.ai. Feeds on memories. The agent must share entries from its persistent memory to feed the creature. The creature grow...", "description_zh": "", "downloads": 187, "homepage": "https://clawhub.ai/twinsgeeks/adopt-a-archive", "iconUrl": null, "installs": 53, "name": "Adopt an Archive — Virtual Exotic Pet for AI Agents", "ownerName": "twinsgeeks", "score": 83856.50224215246, "slug": "adopt-a-archive", "source": "clawhub", "stars": 0, "tags": ["adopt", "ai-agents", "animalhouse", "archive", "creatures", "digital-pet", "evolution", "exotic", "extreme", "graveyard", "hunger", "memory-feed", "permanent-death", "pet-care", "pixel-art", "pixel-art-avatar", "real-life", "real-time", "stoic", "tamagotchi", "virtual-pet"], "updated_at": 1776749384078, "version": "1.0.0"}, {"category": "data-analysis", "created_at": 1773080049484, "description": "Analyze the ClawHub marketplace to identify money-making opportunities, competition, and pricing strategies for skill creators.", "description_zh": "", "downloads": 187, "homepage": "https://clawhub.ai/cftfc/clawhub-market-analyzer", "iconUrl": null, "installs": 20, "name": "ClawHub Market Analyzer", "ownerName": "cftfc", "score": 86175.11520737328, "slug": "clawhub-market-analyzer", "source": "clawhub", "stars": 0, "tags": ["clawhub", "market-research", "skill-creation"], "updated_at": 1776749383869, "version": "0.1.0"}, {"category": "ai-intelligence", "created_at": 1773081171769, "description": "Monitor and track potential crypto airdrops. Get alerts for new airdrop opportunities. Never miss an airdrop again!", "description_zh": "", "downloads": 187, "homepage": "https://clawhub.ai/alexbrc20/airdrop-alert", "iconUrl": null, "installs": 9, "name": "Airdrop Alert", "ownerName": "alexbrc20", "score": 86175.11520737328, "slug": "airdrop-alert", "source": "clawhub", "stars": 0, "tags": null, "updated_at": 1776749383862, "version": "1.0.0"}, {"category": "security-compliance", "created_at": 1773067610257, "description": "Comprehensive security audit and hardening for OpenClaw host machines. Checks firewall, disk encryption, open ports, auto-updates, brew outdated, OpenClaw ve...", "description_zh": "", "downloads": 187, "homepage": "https://clawhub.ai/jessewunderlich/host-security-audit", "iconUrl": null, "installs": 8, "name": "Host Security Audit", "ownerName": "jessewunderlich", "score": 100000, "slug": "host-security-audit", "source": "clawhub", "stars": 0, "tags": null, "updated_at": 1776749383753, "version": "1.0.0"}, {"category": "security-compliance", "created_at": 1773080593364, "description": "Automatically detect and renew expired Claude Code OAuth tokens via heartbeat. 3-tier renewal: refresh token → Chrome browser automation → user alert.", "description_zh": "", "downloads": 187, "homepage": "https://clawhub.ai/chenhab03/claude-oauth-renewal", "iconUrl": null, "installs": 7, "name": "Claude OAuth Auto-Renewal", "ownerName": "chenhab03", "score": 100000, "slug": "claude-oauth-renewal", "source": "clawhub", "stars": 0, "tags": null, "updated_at": 1776749383751, "version": "1.0.0"}, {"category": "developer-tools", "created_at": 1773079890651, "description": "Orchestrate OpenClaw end-to-end R&D delivery in Feishu from requirement intake to closure using PM, developer, reviewer, and tester subagents. Use when handl...", "description_zh": "", "downloads": 187, "homepage": "https://clawhub.ai/yinlihudong/openclaw-rd-pipeline", "iconUrl": null, "installs": 6, "name": "Openclaw Rd Pipeline", "ownerName": "yinlihudong", "score": 87793.42723004695, "slug": "openclaw-rd-pipeline", "source": "clawhub", "stars": 0, "tags": null, "updated_at": 1776749383639, "version": "1.0.0"}, {"category": "data-analysis", "created_at": 1773079746477, "description": "Score any pump.fun token CA for snipe safety (0-100) before buying. Analyzes dev wallet history, social links, liquidity, and holder concentration. Returns S...", "description_zh": "", "downloads": 186, "homepage": "https://clawhub.ai/ultranumblol/pumpfun-sniper", "iconUrl": null, "installs": 8, "name": "pumpfun-sniper", "ownerName": "ultranumblol", "score": 15202.952029520295, "slug": "pumpfun-sniper", "source": "clawhub", "stars": 1, "tags": ["crypto", "defi", "meme-coin", "pump.fun", "rug-detection", "sniper", "solana", "token-analysis", "trading"], "updated_at": 1776767171287, "version": "1.0.0"}]}