{"page": 314, "total_pages": 522, "total": 26073, "skills": [{"category": "data-analysis", "created_at": 1773425865957, "description": "Fetch financing event lists from the iYiou skill API and generate a daily financing report in Markdown to stdout. Use when the task asks to pull investment/f...", "description_zh": "", "downloads": 186, "homepage": "https://clawhub.ai/ai-byte/daily-investment-digest", "iconUrl": null, "installs": 19, "name": "daily-investment-digest", "ownerName": "ai-byte", "score": 15689.26123381569, "slug": "daily-investment-digest", "source": "clawhub", "stars": 1, "tags": null, "updated_at": 1776759498167, "version": "1.0.0"}, {"category": "productivity", "created_at": 1773873811529, "description": "Career management and resume generation skill", "description_zh": "", "downloads": 186, "homepage": "https://clawhub.ai/maginaaa2023/linkedcareer", "iconUrl": null, "installs": 23, "name": "LinkedCareer", "ownerName": "maginaaa2023", "score": 15713.196033562166, "slug": "linkedcareer", "source": "clawhub", "stars": 1, "tags": null, "updated_at": 1776759497785, "version": "1.0.14"}, {"category": "data-analysis", "created_at": 1773417603262, "description": "Query TRON latest block, block reward, block time, producer, burned TRX, resource use, transaction count. Use when user asks \"latest block\", \"block height\",...", "description_zh": "", "downloads": 186, "homepage": "https://clawhub.ai/sshnii/tronscan-block-info", "iconUrl": null, "installs": 8, "name": "TronScan Block Info", "ownerName": "sshnii", "score": 37798.165137614684, "slug": "tronscan-block-info", "source": "clawhub", "stars": 1, "tags": ["block", "blockchain", "tron", "tronscan"], "updated_at": 1776749385036, "version": "1.0.4"}, {"category": "developer-tools", "created_at": 1773080003690, "description": "Set up OpenSpend CLI and optional Coinbase payments-mcp for payment-enabled workflows. Use when openspend is missing, command not found, whoami fails, or use...", "description_zh": "", "downloads": 186, "homepage": "https://clawhub.ai/albertpurnama/setup-services", "iconUrl": null, "installs": 8, "name": "Setup Reliable Services", "ownerName": "albertpurnama", "score": 100000, "slug": "setup-services", "source": "clawhub", "stars": 1, "tags": null, "updated_at": 1776749384994, "version": "1.0.2"}, {"category": "developer-tools", "created_at": 1773079750644, "description": "Helps non-technical users create their own Skills through natural conversation. Triggers when users say \"I want to create a Skill\", \"turn this workflow into...", "description_zh": "", "downloads": 186, "homepage": "https://clawhub.ai/shuita666/skills-builder", "iconUrl": null, "installs": 12, "name": "Skills Builder", "ownerName": "shuita666", "score": 94930.87557603687, "slug": "skills-builder", "source": "clawhub", "stars": 1, "tags": null, "updated_at": 1776749383902, "version": "1.0.0"}, {"category": "security-compliance", "created_at": 1773067430910, "description": "Security scanner for OpenClaw skills. Detects prompt injection, credential leaks, unsafe code execution, MCP misconfigurations, privilege escalation, obfusca...", "description_zh": "", "downloads": 186, "homepage": "https://clawhub.ai/headyzhang/agent-audit-scanner", "iconUrl": null, "installs": 4, "name": "Agent Audit Scanner", "ownerName": "headyzhang", "score": 94930.87557603687, "slug": "agent-audit-scanner", "source": "clawhub", "stars": 1, "tags": null, "updated_at": 1776749383876, "version": "0.1.0"}, {"category": "ai-intelligence", "created_at": 1773415991162, "description": "Search and discover AI Agent skills via the SkillScope public API. Use when a user wants to find skills by keyword, browse categories, check leaderboards, vi...", "description_zh": "", "downloads": 186, "homepage": "https://clawhub.ai/smilelight/skillscope", "iconUrl": null, "installs": 30, "name": "skillscope", "ownerName": "smilelight", "score": 94930.87557603687, "slug": "skillscope", "source": "clawhub", "stars": 1, "tags": null, "updated_at": 1776749383787, "version": "1.0.0"}, {"category": "content-creation", "created_at": 1773089305186, "description": "Dispatch PSD automation tasks through skill command entry while reusing the same /psd orchestrator. Requires psd-automator core.", "description_zh": "", "downloads": 186, "homepage": "https://clawhub.ai/dhrxy/psd-automator-skill-command", "iconUrl": null, "installs": 28, "name": "Psd Automator Skill Command", "ownerName": "dhrxy", "score": 839.8807911135194, "slug": "psd-automator-skill-command", "source": "clawhub", "stars": 0, "tags": null, "updated_at": 1776769490532, "version": "1.0.0"}, {"category": "developer-tools", "created_at": 1773433357552, "description": "One-click installer for all Gate.com MCP servers including spot/futures trading, DEX, market info, and news. Use when users need to install, configure, or ma...", "description_zh": "", "downloads": 186, "homepage": "https://clawhub.ai/gate-exchange/gate-mcp-openclaw-installer", "iconUrl": null, "installs": 54, "name": "Gate MCP OpenClaw Installer", "ownerName": "gate-exchange", "score": 10420.16806722689, "slug": "gate-mcp-openclaw-installer", "source": "clawhub", "stars": 0, "tags": null, "updated_at": 1776765010439, "version": "1.0.0"}, {"category": "data-analysis", "created_at": 1773434190830, "description": "Build literature matrices from papers, notes, and abstracts to compare methods, data, findings, and research gaps.", "description_zh": "", "downloads": 186, "homepage": "https://clawhub.ai/52yuanchangxing/research-matrix-builder", "iconUrl": null, "installs": 34, "name": "research-matrix-builder", "ownerName": "52yuanchangxing", "score": 3768.233387358185, "slug": "research-matrix-builder", "source": "clawhub", "stars": 0, "tags": null, "updated_at": 1776764650434, "version": "1.0.0"}, {"category": "data-analysis", "created_at": 1773892533850, "description": "Finds winning Amazon products with 14 battle-tested selection strategies & 6-dimension risk assessment. Backed by 200M+ product database. Use when user asks...", "description_zh": "", "downloads": 186, "homepage": "https://clawhub.ai/ryan-srp/apiclaw-analysis-skill", "iconUrl": null, "installs": 43, "name": "Apiclaw Analysis", "ownerName": "ryan-srp", "score": 3849.337748344371, "slug": "apiclaw-analysis-skill", "source": "clawhub", "stars": 0, "tags": null, "updated_at": 1776763449810, "version": "0.1.6"}, {"category": "security-compliance", "created_at": 1773083063425, "description": "OpenClaw security guide for root-enabled AI agents, covering pre-install audits, runtime permission tightening, hash baselines, risk controls, nightly auto-i...", "description_zh": "", "downloads": 186, "homepage": "https://clawhub.ai/huamu668/huamu668-openclaw-security", "iconUrl": null, "installs": 3, "name": "OpenClaw Security Guide (by huamu668)", "ownerName": "huamu668", "score": 14385.150812064965, "slug": "huamu668-openclaw-security", "source": "clawhub", "stars": 0, "tags": ["best-practices", "openclaw", "security", "slowmist"], "updated_at": 1776759683478, "version": "1.0.0"}, {"category": "ai-intelligence", "created_at": 1773078387006, "description": "Manage Docker containers by starting, stopping, restarting, pausing, inspecting, and viewing logs with integrated micropayment support.", "description_zh": "", "downloads": 186, "homepage": "https://clawhub.ai/mosonchan2023/docker-container-manager", "iconUrl": null, "installs": 12, "name": "Docker Container Manager", "ownerName": "mosonchan2023", "score": 14252.87356321839, "slug": "docker-container-manager", "source": "clawhub", "stars": 0, "tags": null, "updated_at": 1776759683405, "version": "1.0.0"}, {"category": "content-creation", "created_at": 1773080042783, "description": "Distills large texts into key facts, removes redundancies, and reformats content to optimize Claude's context use for efficient queries.", "description_zh": "", "downloads": 186, "homepage": "https://clawhub.ai/mosonchan2023/claude-context-distiller", "iconUrl": null, "installs": 21, "name": "Claude Context Distiller", "ownerName": "mosonchan2023", "score": 13880.597014925372, "slug": "claude-context-distiller", "source": "clawhub", "stars": 0, "tags": null, "updated_at": 1776759682753, "version": "1.0.0"}, {"category": "ai-intelligence", "created_at": 1773082897249, "description": "Detect AI-driven layoffs from global news and generate structured risk reports.", "description_zh": "", "downloads": 186, "homepage": "https://clawhub.ai/arthuronai/ai-layoff-radar", "iconUrl": null, "installs": 10, "name": "AI Layoff Radar", "ownerName": "arthuronai", "score": 14285.714285714284, "slug": "ai-layoff-radar", "source": "clawhub", "stars": 0, "tags": ["ai news layoffs automation alerts"], "updated_at": 1776759682206, "version": "1.0.0"}, {"category": "content-creation", "created_at": 1773089893245, "description": "Fetch YouTube video subtitles/captions using Felo YouTube Subtitling API. Use when users ask to get YouTube subtitles, extract captions from a video, fetch t...", "description_zh": "", "downloads": 186, "homepage": "https://clawhub.ai/wangzhiming1999/felo-youtube-subtitling", "iconUrl": null, "installs": 11, "name": "Felo YouTube Subtitling", "ownerName": "wangzhiming1999", "score": 14285.714285714284, "slug": "felo-youtube-subtitling", "source": "clawhub", "stars": 0, "tags": null, "updated_at": 1776759682196, "version": "1.0.1"}, {"category": "developer-tools", "created_at": 1773084264405, "description": "Generate, review, and debug code with clean, efficient, and well-documented solutions, including architecture advice and bug fixing.", "description_zh": "", "downloads": 186, "homepage": "https://clawhub.ai/balasai77/balacodingagent", "iconUrl": null, "installs": 5, "name": "Balacodingagent", "ownerName": "balasai77", "score": 14166.031987814165, "slug": "balacodingagent", "source": "clawhub", "stars": 0, "tags": null, "updated_at": 1776759498258, "version": "1.0.0"}, {"category": "productivity", "created_at": 1773221456556, "description": "TripGenie skill — handles hotel booking, flight search, attraction recommendation and travel consultation", "description_zh": "", "downloads": 186, "homepage": "https://clawhub.ai/trip-content-ai/tripgenie", "iconUrl": null, "installs": 19, "name": "TripGenie", "ownerName": "trip-content-ai", "score": 12739.72602739726, "slug": "tripgenie", "source": "clawhub", "stars": 0, "tags": null, "updated_at": 1776758482173, "version": "0.1.1"}, {"category": "content-creation", "created_at": 1773202382499, "description": "Generate production-ready Amazon and AliExpress listings from a product image or parameters. Outputs title, bullet points, description, and SEO keywords in o...", "description_zh": "", "downloads": 186, "homepage": "https://clawhub.ai/zls12311/openclaw-listing-skill", "iconUrl": null, "installs": 17, "name": "Openclaw Listing Skill", "ownerName": "zls12311", "score": 11390.079608083282, "slug": "openclaw-listing-skill", "source": "clawhub", "stars": 0, "tags": null, "updated_at": 1776756982485, "version": "1.0.0"}, {"category": "ai-intelligence", "created_at": 1773069490817, "description": "Cloud-persistent memory for AI agents. Stateless plugins + TiDB Serverless = cross-session recall, multi-agent sharing, and hybrid vector + keyword search. W...", "description_zh": "", "downloads": 186, "homepage": "https://clawhub.ai/qiffang/mnemo-memory", "iconUrl": null, "installs": 11, "name": "mnemo-memory", "ownerName": "qiffang", "score": 31958.762886597935, "slug": "mnemo-memory", "source": "clawhub", "stars": 0, "tags": null, "updated_at": 1776755588427, "version": "0.2.0"}, {"category": "productivity", "created_at": 1773089446936, "description": "Coordinate family schedules, household tasks, school logistics, care routines, and private-versus-shared memory with a structured family system", "description_zh": "", "downloads": 186, "homepage": "https://clawhub.ai/ivangdavila/family", "iconUrl": null, "installs": 7, "name": "Family", "ownerName": "ivangdavila", "score": 32574.430823117338, "slug": "family", "source": "clawhub", "stars": 0, "tags": null, "updated_at": 1776753584213, "version": "1.0.0"}, {"category": "data-analysis", "created_at": 1773080724259, "description": "Track personal finances with cashflow reviews, recurring bill detection, debt triage, CSV imports, and net worth snapshots.", "description_zh": "", "downloads": 186, "homepage": "https://clawhub.ai/ivangdavila/personal-finance-tracker", "iconUrl": null, "installs": 6, "name": "Personal Finance Tracker", "ownerName": "ivangdavila", "score": 100000, "slug": "personal-finance-tracker", "source": "clawhub", "stars": 0, "tags": null, "updated_at": 1776749985462, "version": "1.0.0"}, {"category": "communication-collaboration", "created_at": 1773285397922, "description": "Manage Feishu (Lark) group chats using natural language. Use when the user wants to: add or remove group members, list groups or members, send a message to a...", "description_zh": "", "downloads": 186, "homepage": "https://clawhub.ai/vinzeny/feishu-group-ops", "iconUrl": null, "installs": 19, "name": "Feishu Group Ops", "ownerName": "vinzeny", "score": 96373.05699481865, "slug": "feishu-group-ops", "source": "clawhub", "stars": 0, "tags": null, "updated_at": 1776749385401, "version": "1.0.1"}, {"category": "developer-tools", "created_at": 1773218296061, "description": "Use this skill when the user asks to review a PR, do a code review, check a pull request, \"review this PR\", \"review-pr\", or \"look at this pull request\". Requ...", "description_zh": "", "downloads": 186, "homepage": "https://clawhub.ai/oschina/gitee-review-pr", "iconUrl": null, "installs": 9, "name": "Review Pr", "ownerName": "oschina", "score": 96373.05699481865, "slug": "gitee-review-pr", "source": "clawhub", "stars": 0, "tags": null, "updated_at": 1776749385380, "version": "1.0.0"}, {"category": "data-analysis", "created_at": 1773077924836, "description": "Generates article cover images with 5 dimensions (type, palette, rendering, text, mood) combining 9 color palettes and 6 rendering styles. Supports cinematic...", "description_zh": "", "downloads": 186, "homepage": "https://clawhub.ai/ljquan/tuzi-cover-image", "iconUrl": null, "installs": 15, "name": "Tuzi Cover Image", "ownerName": "ljquan", "score": 34128.44036697248, "slug": "tuzi-cover-image", "source": "clawhub", "stars": 0, "tags": null, "updated_at": 1776749385032, "version": "0.1.0"}, {"category": "data-analysis", "created_at": 1773081883285, "description": "Cross-functional organizational health check combining signals from all C-suite roles. Scores 8 dimensions on a traffic-light scale with drill-down recommend...", "description_zh": "", "downloads": 186, "homepage": "https://clawhub.ai/alirezarezvani/org-health-diagnostic", "iconUrl": null, "installs": 9, "name": "Org Health Diagnostic", "ownerName": "alirezarezvani", "score": 34128.44036697248, "slug": "org-health-diagnostic", "source": "clawhub", "stars": 0, "tags": null, "updated_at": 1776749385025, "version": "2.1.1"}, {"category": "data-analysis", "created_at": 1773069406846, "description": "Full Didit identity verification platform management — account creation, API keys, sessions, workflows, questionnaires, users, billing, blocklist, and webhoo...", "description_zh": "", "downloads": 186, "homepage": "https://clawhub.ai/rosasalberto/didit-verification-management", "iconUrl": null, "installs": 8, "name": "Didit Verification Management", "ownerName": "rosasalberto", "score": 90291.26213592234, "slug": "didit-verification-management", "source": "clawhub", "stars": 0, "tags": null, "updated_at": 1776749384931, "version": "4.1.0"}, {"category": "communication-collaboration", "created_at": 1773220181515, "description": "openclaw browser open https://chat.deepseek.com and login it, then input questions from user's messages, extract response of deepseek chat to reply user.", "description_zh": "", "downloads": 186, "homepage": "https://clawhub.ai/qidu/chat-deepseek", "iconUrl": null, "installs": 13, "name": "Chat DeepSeek by Browser", "ownerName": "qidu", "score": 83035.71428571429, "slug": "chat-deepseek", "source": "clawhub", "stars": 0, "tags": null, "updated_at": 1776749384792, "version": "1.0.0"}, {"category": "content-creation", "created_at": 1773089722986, "description": "Image processing with oiiotool CLI — format conversion (EXR, TIFF, DPX, PNG, JPEG, HDR), OCIO/ACES color management and display transforms, exposure adjustme...", "description_zh": "", "downloads": 186, "homepage": "https://clawhub.ai/oumad/oiiotool", "iconUrl": null, "installs": 15, "name": "Oiiotool", "ownerName": "oumad", "score": 89423.07692307692, "slug": "oiiotool", "source": "clawhub", "stars": 0, "tags": null, "updated_at": 1776749384789, "version": "0.1.1"}, {"category": "data-analysis", "created_at": 1773083928412, "description": "Generate images with FLUX models (Black Forest Labs) via inference.sh CLI. Models: FLUX Dev LoRA, FLUX.2 Klein LoRA with custom style adaptation. Capabilitie...", "description_zh": "", "downloads": 186, "homepage": "https://clawhub.ai/lihai2582424632-droid/short", "iconUrl": null, "installs": 10, "name": "shortaaa", "ownerName": "lihai2582424632-droid", "score": 89423.07692307692, "slug": "short", "source": "clawhub", "stars": 0, "tags": null, "updated_at": 1776749384773, "version": "1.0.0"}, {"category": "productivity", "created_at": 1773068937928, "description": "Helps with .NET integration in vvvv gamma — NuGet packages, library references, .csproj project configuration, the [assembly: ImportAsIs] attribute, vector t...", "description_zh": "", "downloads": 186, "homepage": "https://clawhub.ai/tebjan/vvvv-dotnet", "iconUrl": null, "installs": 16, "name": "Vvvv Dotnet", "ownerName": "tebjan", "score": 92537.31343283583, "slug": "vvvv-dotnet", "source": "clawhub", "stars": 0, "tags": null, "updated_at": 1776749384698, "version": "1.0.1"}, {"category": "developer-tools", "created_at": 1773079956560, "description": "A specialized skill for tracking the US-Iran conflict, strictly focusing on intelligence published within the **last 6 hours**. Use this for hyper-current, t...", "description_zh": "", "downloads": 186, "homepage": "https://clawhub.ai/wlkqyang-star/us-iran-war-tracker", "iconUrl": null, "installs": 7, "name": "us-iran-war-tracker", "ownerName": "wlkqyang-star", "score": 92079.20792079208, "slug": "us-iran-war-tracker", "source": "clawhub", "stars": 0, "tags": null, "updated_at": 1776749384632, "version": "1.0.0"}, {"category": "developer-tools", "created_at": 1773213456779, "description": "iOS/macOS app automation — builds, signing, TestFlight, App Store via CLI", "description_zh": "", "downloads": 186, "homepage": "https://clawhub.ai/alexissan/fastlane", "iconUrl": null, "installs": 8, "name": "Fastlane", "ownerName": "alexissan", "score": 92079.20792079208, "slug": "fastlane", "source": "clawhub", "stars": 0, "tags": ["appstore", "cicd", "ios", "macos", "signing", "testflight", "xcode"], "updated_at": 1776749384565, "version": "1.0.0"}, {"category": "content-creation", "created_at": 1773078409865, "description": "Write complete email + SMS follow-up sequences for small businesses. Generates ready-to-deploy nurture campaigns calibrated to industry, tone, and sales cycl...", "description_zh": "", "downloads": 186, "homepage": "https://clawhub.ai/peakagent/follow-up-sequence-writer", "iconUrl": null, "installs": 12, "name": "Follow-Up Sequence Writer", "ownerName": "peakagent", "score": 41610.73825503356, "slug": "follow-up-sequence-writer", "source": "clawhub", "stars": 0, "tags": ["automation", "crm", "email", "follow-up", "lead-nurture", "sales", "small-business", "sms"], "updated_at": 1776749384548, "version": "1.0.0"}, {"category": "developer-tools", "created_at": 1773066104859, "description": "Ping major LLM providers in parallel and compare real API latency. Run with /ping", "description_zh": "", "downloads": 186, "homepage": "https://clawhub.ai/chapati23/llm-speedtest", "iconUrl": null, "installs": 1, "name": "Skill", "ownerName": "chapati23", "score": 41610.73825503356, "slug": "llm-speedtest", "source": "clawhub", "stars": 0, "tags": null, "updated_at": 1776749384543, "version": "1.0.0"}, {"category": "ai-intelligence", "created_at": 1773090542433, "description": "Not an avatar generator — a visual identity system grown from an Agent's soul, memory, and relationship with its human. Guide any AI agent through deep self-...", "description_zh": "", "downloads": 186, "homepage": "https://clawhub.ai/ahaaiclub/knowyourself", "iconUrl": null, "installs": 21, "name": "Know Yourself", "ownerName": "ahaaiclub", "score": 41610.73825503356, "slug": "knowyourself", "source": "clawhub", "stars": 0, "tags": null, "updated_at": 1776749384536, "version": "1.0.0"}, {"category": "developer-tools", "created_at": 1773852672542, "description": "A command-line benchmarking tool benchmark tool, rust, benchmark, cli, command-line, rust, terminal. Use when you need benchmark tool capabilities. Triggers...", "description_zh": "", "downloads": 186, "homepage": "https://clawhub.ai/bytesagain1/benchmark-tool", "iconUrl": null, "installs": 5, "name": "Benchmark Tool", "ownerName": "bytesagain1", "score": 91625.6157635468, "slug": "benchmark-tool", "source": "clawhub", "stars": 0, "tags": null, "updated_at": 1776749384398, "version": "2.3.7"}, {"category": "developer-tools", "created_at": 1773219780443, "description": "Isolate and coordinate sub-agent memory in OpenClaw with Hippocampus using scoped IDs, bounded merge-back, and explicit cross-agent imports.", "description_zh": "", "downloads": 186, "homepage": "https://clawhub.ai/cezexpl/hippocampus-subagent-memory", "iconUrl": null, "installs": 25, "name": "Hippocampus Subagent Memory", "ownerName": "cezexpl", "score": 91625.6157635468, "slug": "hippocampus-subagent-memory", "source": "clawhub", "stars": 0, "tags": null, "updated_at": 1776749384390, "version": "0.1.0"}, {"category": "developer-tools", "created_at": 1773082566911, "description": "Find guitar tabs/sheet sources for a song from a title or link (especially YouTube), rank the best matches, and produce a clean practice note. Use when a use...", "description_zh": "", "downloads": 186, "homepage": "https://clawhub.ai/robinnnnn/guitar-tab-finder", "iconUrl": null, "installs": 15, "name": "Guitar Tab Finder", "ownerName": "robinnnnn", "score": 100000, "slug": "guitar-tab-finder", "source": "clawhub", "stars": 0, "tags": null, "updated_at": 1776749384343, "version": "1.0.1"}, {"category": "ai-intelligence", "created_at": 1773083893083, "description": "Transform AI conversations from answer-dispensing to deep learning. Uses Socratic questioning, explain-back verification, progressive disclosure, cognitive l...", "description_zh": "", "downloads": 186, "homepage": "https://clawhub.ai/jk-0001/reclaim-your-brain", "iconUrl": null, "installs": 20, "name": "Reclaim Your Brain", "ownerName": "jk-0001", "score": 100000, "slug": "reclaim-your-brain", "source": "clawhub", "stars": 0, "tags": null, "updated_at": 1776749384309, "version": "0.1.0"}, {"category": "productivity", "created_at": 1773212950539, "description": "macOS Spotify control skill for OpenClaw. Supports playback, volume, position, and metadata retrieval via AppleScript.", "description_zh": "", "downloads": 186, "homepage": "https://clawhub.ai/copywrite-ai/spotify-control", "iconUrl": null, "installs": 6, "name": "spotify-control", "ownerName": "copywrite-ai", "score": 100000, "slug": "spotify-control", "source": "clawhub", "stars": 0, "tags": null, "updated_at": 1776749384301, "version": "1.0.1"}, {"category": "productivity", "created_at": 1773078456711, "description": "Linear integration. Manage Issues, Projects, Teams, Users, Cycles, Labels and more. Use when the user wants to interact with Linear data.", "description_zh": "", "downloads": 186, "homepage": "https://clawhub.ai/gora050/linear-integration", "iconUrl": null, "installs": 1, "name": "Linear", "ownerName": "gora050", "score": 85714.28571428571, "slug": "linear-integration", "source": "clawhub", "stars": 0, "tags": null, "updated_at": 1776749384146, "version": "1.0.0"}, {"category": "ai-intelligence", "created_at": 1773078479371, "description": "N-count validated knowledge for AI agents. Patterns that prove themselves through repeated use. Local-first, community-ready.", "description_zh": "", "downloads": 186, "homepage": "https://clawhub.ai/leegitw/memory-garden", "iconUrl": null, "installs": 16, "name": "Memory Garden - Validated Community Memory", "ownerName": "leegitw", "score": 83408.07174887892, "slug": "memory-garden", "source": "clawhub", "stars": 0, "tags": ["ai-memory", "community-knowledge", "knowledge-management", "mcp", "memory-garden", "pattern-extraction"], "updated_at": 1776749384090, "version": "1.0.0"}, {"category": "security-compliance", "created_at": 1773076745006, "description": "Observability pipeline and CI audit pack. JSONL-to-SQLite trace ingestion and CI workflow validation. 2 observability tools.", "description_zh": "", "downloads": 186, "homepage": "https://clawhub.ai/romainsantoli-web/firm-observability-pack", "iconUrl": null, "installs": 6, "name": "Firm Observability Pack", "ownerName": "romainsantoli-web", "score": 60983.60655737705, "slug": "firm-observability-pack", "source": "clawhub", "stars": 0, "tags": null, "updated_at": 1776749383986, "version": "1.0.0"}, {"category": "productivity", "created_at": 1773078487272, "description": "Monday integration. Manage project management data, records, and workflows. Use when the user wants to interact with Monday data.", "description_zh": "", "downloads": 186, "homepage": "https://clawhub.ai/membranedev/monday-integration", "iconUrl": null, "installs": 4, "name": "Monday", "ownerName": "membranedev", "score": 85714.28571428571, "slug": "monday-integration", "source": "clawhub", "stars": 0, "tags": null, "updated_at": 1776749383836, "version": "1.0.0"}, {"category": "developer-tools", "created_at": 1773077867100, "description": "Flutter state management with Riverpod - declarative, type-safe, and code-generated providers. Use when building Flutter apps that need reactive state manage...", "description_zh": "", "downloads": 186, "homepage": "https://clawhub.ai/tobiasbentin/riverpod", "iconUrl": null, "installs": 14, "name": "Riverpod", "ownerName": "tobiasbentin", "score": 85714.28571428571, "slug": "riverpod", "source": "clawhub", "stars": 0, "tags": null, "updated_at": 1776749383827, "version": "1.0.0"}, {"category": "developer-tools", "created_at": 1773078472951, "description": "Full Massive (Polygon) market-data connector with secure local key handling. Starts the official MCP server and supports endpoint discovery, endpoint docs, g...", "description_zh": "", "downloads": 186, "homepage": "https://clawhub.ai/virtual-ny/massive-financial-connector", "iconUrl": null, "installs": 5, "name": "Massive Financial Connector", "ownerName": "virtual-ny", "score": 99465.24064171122, "slug": "massive-financial-connector", "source": "clawhub", "stars": 0, "tags": ["finance", "market-data", "mcp"], "updated_at": 1776749383748, "version": "1.1.1"}, {"category": "developer-tools", "created_at": 1773215574049, "description": "Multi-stage multi-agent reasoning middleware that reduces LLM hallucination by 70%+. 9 specialized emergence engines for invention, creative, pharma, genomic...", "description_zh": "", "downloads": 185, "homepage": "https://clawhub.ai/cutechicken99/marl-middleware", "iconUrl": null, "installs": 16, "name": "MARL — Multi-stage Reasoning Middleware", "ownerName": "cutechicken99", "score": 100000, "slug": "marl-middleware", "source": "clawhub", "stars": 6, "tags": ["emergence", "hallucination", "llm", "metacognition", "middleware", "multi-agent", "reasoning"], "updated_at": 1776749383922, "version": "1.0.0"}, {"category": "ai-intelligence", "created_at": 1773426330322, "description": "Automatically curates and summarizes daily top AI and tech news worldwide, delivering concise, time-zone aware briefings for quick updates.", "description_zh": "", "downloads": 185, "homepage": "https://clawhub.ai/greatworks/ai-tech-intelligence-briefing", "iconUrl": null, "installs": 21, "name": "AI Tech Intelligence Briefing", "ownerName": "greatworks", "score": 17084.282460136674, "slug": "ai-tech-intelligence-briefing", "source": "clawhub", "stars": 2, "tags": ["ai", "daily", "intelligence", "news", "openclaw", "tech"], "updated_at": 1776759420901, "version": "1.1.1"}, {"category": "developer-tools", "created_at": 1773083518871, "description": "Matic MQuant strategy development assistant. Generates Python strategy code for Matic-MQuant platform.", "description_zh": "", "downloads": 185, "homepage": "https://clawhub.ai/chouchounii/matic-mquant-assistant", "iconUrl": null, "installs": 12, "name": "mquant-claw", "ownerName": "chouchounii", "score": 15660.809778456838, "slug": "matic-mquant-assistant", "source": "clawhub", "stars": 1, "tags": null, "updated_at": 1776759497819, "version": "1.0.4"}]}