{"page": 315, "total_pages": 522, "total": 26073, "skills": [{"category": "data-analysis", "created_at": 1773429968790, "description": "Read, query, update, and manage Feishu multidimensional table data using SQL-like commands with automatic URL parameter extraction.", "description_zh": "", "downloads": 185, "homepage": "https://clawhub.ai/xjli360/feishu-bitable-database", "iconUrl": null, "installs": 19, "name": "Feishu Bitable", "ownerName": "xjli360", "score": 15660.809778456838, "slug": "feishu-bitable-database", "source": "clawhub", "stars": 1, "tags": null, "updated_at": 1776759497806, "version": "1.0.0"}, {"category": "data-analysis", "created_at": 1773089164785, "description": "Query, analyze, and track all skill usage information. This skill should be invoked when users ask about skill usage, call counts, success rates, last used t...", "description_zh": "", "downloads": 185, "homepage": "https://clawhub.ai/leo-306/skill-stats", "iconUrl": null, "installs": 7, "name": "skill-stats", "ownerName": "leo-306", "score": 45861.297539149884, "slug": "skill-stats", "source": "clawhub", "stars": 1, "tags": null, "updated_at": 1776749384535, "version": "1.0.0"}, {"category": "developer-tools", "created_at": 1773068702471, "description": "Google Indexing API tool. Use when user wants to submit URLs for Google indexing. Supports two modes: \"auto-index\" (fetch sitemap, diff against cache, submit...", "description_zh": "", "downloads": 185, "homepage": "https://clawhub.ai/geoly-geo/auto-index", "iconUrl": null, "installs": 12, "name": "Google SEO GEO Auto Index", "ownerName": "geoly-geo", "score": 4123.022063739692, "slug": "auto-index", "source": "clawhub", "stars": 0, "tags": null, "updated_at": 1776767990423, "version": "1.0.0"}, {"category": "", "created_at": 1774866966808, "description": "Extracts and summarizes public Modao prototype project pages including structure, interactions, annotations, and resource links without requiring login.", "description_zh": "", "downloads": 185, "homepage": "https://clawhub.ai/mike47512/modao", "iconUrl": null, "installs": 58, "name": "Modao", "ownerName": "mike47512", "score": 3729.8387096774195, "slug": "modao", "source": "clawhub", "stars": 0, "tags": null, "updated_at": 1776767649753, "version": "0.1.0"}, {"category": "", "created_at": 1774807575384, "description": "Explain medical terminology, lab results, diagnoses, and prescription abbreviations in plain everyday language. Use when users encounter confusing medical wo...", "description_zh": "", "downloads": 185, "homepage": "https://clawhub.ai/jiwenbing/medical-terms", "iconUrl": null, "installs": 21, "name": "Medical Terms", "ownerName": "jiwenbing", "score": 3740.3962798220787, "slug": "medical-terms", "source": "clawhub", "stars": 0, "tags": null, "updated_at": 1776765850373, "version": "1.0.0"}, {"category": "developer-tools", "created_at": 1773221974784, "description": "Helps create, update, and audit OpenClaw skills to ensure high quality following Anthropic's best practices; triggered by phrases like \"create a new skill\" o...", "description_zh": "", "downloads": 185, "homepage": "https://clawhub.ai/asimons81/claude-skill-builder", "iconUrl": null, "installs": 15, "name": "OpenClaw Skill Builder (Based on Claude)", "ownerName": "asimons81", "score": 2850.5392912172574, "slug": "claude-skill-builder", "source": "clawhub", "stars": 0, "tags": null, "updated_at": 1776765850262, "version": "1.0.0"}, {"category": "productivity", "created_at": 1773940549118, "description": "Automate TikTok Shop operations with batch product management, order processing, sales analytics, and marketing campaign automation.", "description_zh": "", "downloads": 185, "homepage": "https://clawhub.ai/lvjunjie-byte/tiktok-shop-publish", "iconUrl": null, "installs": 45, "name": "Tiktok Shop Publish", "ownerName": "lvjunjie-byte", "score": 2235.6495468277944, "slug": "tiktok-shop-publish", "source": "clawhub", "stars": 0, "tags": null, "updated_at": 1776765250317, "version": "1.0.0"}, {"category": "ai-intelligence", "created_at": 1773079883941, "description": "Find, evaluate, self-host, maintain, and publish open source projects with due diligence scoring, contributor workflows, and release governance.", "description_zh": "", "downloads": 185, "homepage": "https://clawhub.ai/ivangdavila/open-source", "iconUrl": null, "installs": 11, "name": "Open Source", "ownerName": "ivangdavila", "score": 7099.002302379125, "slug": "open-source", "source": "clawhub", "stars": 0, "tags": null, "updated_at": 1776762290243, "version": "1.0.0"}, {"category": "productivity", "created_at": 1773218645617, "description": "A comprehensive AI agent skill for understanding and managing credit. Explains how credit scores work and what actually moves them, helps you build credit fr...", "description_zh": "", "downloads": 185, "homepage": "https://clawhub.ai/duclawbot/credit", "iconUrl": null, "installs": 5, "name": "Credit", "ownerName": "duclawbot", "score": 12333.333333333334, "slug": "credit", "source": "clawhub", "stars": 0, "tags": ["building", "credit", "debt", "finance", "score"], "updated_at": 1776759683547, "version": "2.0.0"}, {"category": "developer-tools", "created_at": 1772804327407, "description": "Build, configure, and install a 24x7 OpenClaw watchdog on macOS, including scaffolding the Go project, wiring launchd, and tuning health/recovery behavior. U...", "description_zh": "", "downloads": 185, "homepage": "https://clawhub.ai/harryboda/openclaw-xguardian", "iconUrl": null, "installs": 8, "name": "OpenClaw XGuardian", "ownerName": "harryboda", "score": 14252.696456086287, "slug": "openclaw-xguardian", "source": "clawhub", "stars": 0, "tags": null, "updated_at": 1776759683080, "version": "0.0.1"}, {"category": "productivity", "created_at": 1773213435858, "description": "The Sovereign Asset Title & Ownership Protocol. A high-fidelity cognitive framework for the immutable registration, verification, and transfer of real-world...", "description_zh": "", "downloads": 185, "homepage": "https://clawhub.ai/btcagentic/deed", "iconUrl": null, "installs": 9, "name": "Deed", "ownerName": "btcagentic", "score": 11738.578680203047, "slug": "deed", "source": "clawhub", "stars": 0, "tags": ["asset", "deed", "legal", "ownership", "realestate"], "updated_at": 1776759682256, "version": "1.0.0"}, {"category": "developer-tools", "created_at": 1773219149273, "description": "Research trending topics, tweets, user profiles, and conversations on X (Twitter) using twitterapi.io for insights and trend reports.", "description_zh": "", "downloads": 185, "homepage": "https://clawhub.ai/0xartex/x-research-skill", "iconUrl": null, "installs": 7, "name": "X/Twitter Research", "ownerName": "0xartex", "score": 14252.696456086287, "slug": "x-research-skill", "source": "clawhub", "stars": 0, "tags": null, "updated_at": 1776759682128, "version": "1.0.0"}, {"category": "data-analysis", "created_at": 1773083884167, "description": "Scrape public Instagram profile data including follower counts, bio, recent posts, and engagement metrics without login or browser. Use when you want to anal...", "description_zh": "", "downloads": 185, "homepage": "https://clawhub.ai/phy041/phy-instagram-scraper", "iconUrl": null, "installs": 10, "name": "Instagram Scraper", "ownerName": "phy041", "score": 32118.05555555556, "slug": "phy-instagram-scraper", "source": "clawhub", "stars": 0, "tags": ["instagram", "scraping"], "updated_at": 1776752083876, "version": "1.0.0"}, {"category": "content-creation", "created_at": 1773081325645, "description": "Query and summarize Twitter/X information using Grok AI. Use when user asks about Twitter trends, tweets, X platform content, or needs Twitter information su...", "description_zh": "", "downloads": 185, "homepage": "https://clawhub.ai/danetteceola/grok-twitter", "iconUrl": null, "installs": 6, "name": "Grok Twitter Query", "ownerName": "danetteceola", "score": 32918.14946619217, "slug": "grok-twitter", "source": "clawhub", "stars": 0, "tags": null, "updated_at": 1776749385498, "version": "1.0.0"}, {"category": "ai-intelligence", "created_at": 1773077647943, "description": "Monitor live campaign health and anomalies across Meta (Facebook/Instagram), Google Ads, TikTok Ads, YouTube Ads, Amazon Ads, and DSP/programmatic.", "description_zh": "", "downloads": 185, "homepage": "https://clawhub.ai/danyangliu-sandwichlab/realtime-campaign-monitor", "iconUrl": null, "installs": 15, "name": "Ads Campaign Monitor", "ownerName": "danyangliu-sandwichlab", "score": 32918.14946619217, "slug": "realtime-campaign-monitor", "source": "clawhub", "stars": 0, "tags": null, "updated_at": 1776749385466, "version": "1.0.0"}, {"category": "productivity", "created_at": 1773067126287, "description": "Current weather conditions and multi-day forecasts for any location worldwide.", "description_zh": "", "downloads": 185, "homepage": "https://clawhub.ai/cutthemustard/weather-check", "iconUrl": null, "installs": 17, "name": "Weather Check", "ownerName": "cutthemustard", "score": 95854.92227979274, "slug": "weather-check", "source": "clawhub", "stars": 0, "tags": null, "updated_at": 1776749385297, "version": "1.0.0"}, {"category": "ai-intelligence", "created_at": 1773080411870, "description": "OpenAI integration. Manage Assistants, Files. Use when the user wants to interact with OpenAI data.", "description_zh": "", "downloads": 185, "homepage": "https://clawhub.ai/gora050/openai-integration", "iconUrl": null, "installs": 10, "name": "Openai", "ownerName": "gora050", "score": 77731.0924369748, "slug": "openai-integration", "source": "clawhub", "stars": 0, "tags": null, "updated_at": 1776749385136, "version": "1.0.0"}, {"category": "data-analysis", "created_at": 1773081186013, "description": "Curate Claude Code's auto-memory into durable project knowledge. Analyze MEMORY.md for patterns, promote proven learnings to CLAUDE.md and .claude/rules/, ex...", "description_zh": "", "downloads": 185, "homepage": "https://clawhub.ai/alirezarezvani/auto-memory-pro", "iconUrl": null, "installs": 12, "name": "Auto Memory Pro", "ownerName": "alirezarezvani", "score": 77731.0924369748, "slug": "auto-memory-pro", "source": "clawhub", "stars": 0, "tags": null, "updated_at": 1776749385098, "version": "1.0.0"}, {"category": "productivity", "created_at": 1773202698465, "description": "Glyph viewer that renders the SGA geometric fingerprint of any data as a stunning multi-layer canvas visualization. Takes text, files, or raw bytes and produ...", "description_zh": "", "downloads": 185, "homepage": "https://clawhub.ai/nickflach/kannaka-eye", "iconUrl": null, "installs": 11, "name": "Kannaka Eye", "ownerName": "nickflach", "score": 77731.0924369748, "slug": "kannaka-eye", "source": "clawhub", "stars": 0, "tags": null, "updated_at": 1776749385086, "version": "1.0.1"}, {"category": "communication-collaboration", "created_at": 1773069852956, "description": "Manage Omnium Hub CRM (contacts, opportunities, appointments). Use for all CRM-related tasks.", "description_zh": "", "downloads": 185, "homepage": "https://clawhub.ai/omniumhub/omnium-hub-crm", "iconUrl": null, "installs": 5, "name": "Omnium Hub CRM", "ownerName": "omniumhub", "score": 88942.30769230769, "slug": "omnium-hub-crm", "source": "clawhub", "stars": 0, "tags": null, "updated_at": 1776749384722, "version": "1.0.0"}, {"category": "ai-intelligence", "created_at": 1773218741894, "description": "Manage PaperMC Minecraft servers through safe, controlled interfaces. Use for server lifecycle management, backups, plugin operations, and health monitoring...", "description_zh": "", "downloads": 185, "homepage": "https://clawhub.ai/yanxi1024-git/papermc-ai-ops", "iconUrl": null, "installs": 16, "name": "PaperMC Server AI Operations", "ownerName": "yanxi1024-git", "score": 92039.80099502488, "slug": "papermc-ai-ops", "source": "clawhub", "stars": 0, "tags": ["backup", "minecraft", "ops", "papermc", "server"], "updated_at": 1776749384644, "version": "1.1.0"}, {"category": "productivity", "created_at": 1773091808154, "description": "Self-healing China mirror source resolver. Automatically discovers, validates, and configures domestic mirror sources for pip/npm/yarn/pnpm/conda/Docker/Go/...", "description_zh": "", "downloads": 185, "homepage": "https://clawhub.ai/the-ladder-of-rrogress/china-mirror-resolver", "iconUrl": null, "installs": 13, "name": "China Mirror Resolver", "ownerName": "the-ladder-of-rrogress", "score": 91584.1584158416, "slug": "china-mirror-resolver", "source": "clawhub", "stars": 0, "tags": null, "updated_at": 1776749384630, "version": "2.1.0"}, {"category": "productivity", "created_at": 1773089591692, "description": "8 vector store implementations behind a common interface — numpy, lancedb, qdrant, pgvector, weaviate, weaviate_hybrid, milvus, lightrag. Use when evaluating...", "description_zh": "", "downloads": 185, "homepage": "https://clawhub.ai/nissan/vector-store-shootout", "iconUrl": null, "installs": 11, "name": "Vector Store Shootout", "ownerName": "nissan", "score": 91584.1584158416, "slug": "vector-store-shootout", "source": "clawhub", "stars": 0, "tags": null, "updated_at": 1776749384607, "version": "1.0.0"}, {"category": "developer-tools", "created_at": 1773089212609, "description": "Pre-generate and cache all demo content before live presentations — hit every API endpoint in advance, verify playback, report coverage gaps. Use before hack...", "description_zh": "", "downloads": 185, "homepage": "https://clawhub.ai/nissan/demo-precacher", "iconUrl": null, "installs": 5, "name": "Demo Precacher", "ownerName": "nissan", "score": 99462.36559139784, "slug": "demo-precacher", "source": "clawhub", "stars": 0, "tags": null, "updated_at": 1776749384318, "version": "1.0.0"}, {"category": "communication-collaboration", "created_at": 1773069421778, "description": "Freshsales integration. Manage crm and sales data, records, and workflows. Use when the user wants to interact with Freshsales data.", "description_zh": "", "downloads": 185, "homepage": "https://clawhub.ai/gora050/freshsales-integration", "iconUrl": null, "installs": 2, "name": "Freshsales", "ownerName": "gora050", "score": 92039.80099502488, "slug": "freshsales-integration", "source": "clawhub", "stars": 0, "tags": null, "updated_at": 1776749384210, "version": "1.0.0"}, {"category": "ai-intelligence", "created_at": 1773084216118, "description": "A health and wellness skill to remind the user to drink water and stay hydrated. Use this when the user asks for a water reminder, complains about being thir...", "description_zh": "", "downloads": 185, "homepage": "https://clawhub.ai/yinghaojia/water-reminder", "iconUrl": null, "installs": 10, "name": "Water Reminder", "ownerName": "yinghaojia", "score": 85253.45622119815, "slug": "water-reminder", "source": "clawhub", "stars": 0, "tags": null, "updated_at": 1776749384183, "version": "1.0.0"}, {"category": "developer-tools", "created_at": 1773079019060, "description": "Manage Fastmail mail, mailbox, identity, contact, and calendar workflows through JMAP API calls with safe batching and token hygiene.", "description_zh": "", "downloads": 185, "homepage": "https://clawhub.ai/ivangdavila/fastmail-api", "iconUrl": null, "installs": 6, "name": "Fastmail API", "ownerName": "ivangdavila", "score": 82959.64125560537, "slug": "fastmail-api", "source": "clawhub", "stars": 0, "tags": null, "updated_at": 1776749384140, "version": "1.0.0"}, {"category": "data-analysis", "created_at": 1773089962059, "description": "Design-grade color processing suite — generate harmonious palettes from any seed color, check WCAG 2.1 AA/AAA contrast accessibility, convert between hex/RGB...", "description_zh": "", "downloads": 185, "homepage": "https://clawhub.ai/yedanyagamiai-cmd/openclaw-color-palette", "iconUrl": null, "installs": 18, "name": "OpenClaw Color Palette", "ownerName": "yedanyagamiai-cmd", "score": 82959.64125560537, "slug": "openclaw-color-palette", "source": "clawhub", "stars": 0, "tags": null, "updated_at": 1776749384134, "version": "2.0.0"}, {"category": "ai-intelligence", "created_at": 1773077723541, "description": "Airtable integration. Manage project management data, records, and workflows. Use when the user wants to interact with Airtable data.", "description_zh": "", "downloads": 185, "homepage": "https://clawhub.ai/gora050/airtable-integration", "iconUrl": null, "installs": 5, "name": "Airtable", "ownerName": "gora050", "score": 91584.1584158416, "slug": "airtable-integration", "source": "clawhub", "stars": 0, "tags": null, "updated_at": 1776749384004, "version": "1.0.0"}, {"category": "data-analysis", "created_at": 1773090709370, "description": "Audits hospital surgical logs against billing to find revenue leakage.", "description_zh": "", "downloads": 185, "homepage": "https://clawhub.ai/srikanth-hn/medical-auditor", "iconUrl": null, "installs": 13, "name": "Medical Auditor", "ownerName": "srikanth-hn", "score": 60655.737704918036, "slug": "medical-auditor", "source": "clawhub", "stars": 0, "tags": null, "updated_at": 1776749383949, "version": "1.0.0"}, {"category": "content-creation", "created_at": 1773077941689, "description": "Helps write SDSL shaders for Stride and vvvv gamma — TextureFX, shader mixins, compute shaders, and ShaderFX composition. SDSL is a superset of HLSL, so use...", "description_zh": "", "downloads": 185, "homepage": "https://clawhub.ai/tebjan/vvvv-shaders", "iconUrl": null, "installs": 12, "name": "Vvvv Shaders", "ownerName": "tebjan", "score": 98930.48128342246, "slug": "vvvv-shaders", "source": "clawhub", "stars": 0, "tags": null, "updated_at": 1776749383778, "version": "1.0.1"}, {"category": "developer-tools", "created_at": 1773067542343, "description": "Checks whether credentials and tokens are stored safely. Validates file permissions, plaintext exposure, git repo contamination, log redaction coverage, and...", "description_zh": "", "downloads": 185, "homepage": "https://clawhub.ai/techris93/credential-hygiene-validator", "iconUrl": null, "installs": 8, "name": "Credential Hygiene Validator", "ownerName": "techris93", "score": 98930.48128342246, "slug": "credential-hygiene-validator", "source": "clawhub", "stars": 0, "tags": null, "updated_at": 1776749383746, "version": "1.0.0"}, {"category": "content-creation", "created_at": 1773417954252, "description": "Contract & Proposal Writer", "description_zh": "", "downloads": 185, "homepage": "https://clawhub.ai/alirezarezvani/contract-and-proposal-writer", "iconUrl": null, "installs": 25, "name": "contract-and-proposal-writer", "ownerName": "alirezarezvani", "score": 86854.46009389672, "slug": "contract-and-proposal-writer", "source": "clawhub", "stars": 0, "tags": null, "updated_at": 1776749383679, "version": "1.0.0"}, {"category": "developer-tools", "created_at": 1773089144836, "description": "Structured 5-phase AI-assisted development workflow (requirements → architecture → code generation → debugging → iteration). Use when the user mentions \"vibe...", "description_zh": "", "downloads": 184, "homepage": "https://clawhub.ai/shiiyyo/vibe-coding-workflow", "iconUrl": null, "installs": 11, "name": "Vibe Coding Workflow", "ownerName": "shiiyyo", "score": 100000, "slug": "vibe-coding-workflow", "source": "clawhub", "stars": 2, "tags": null, "updated_at": 1776749384808, "version": "1.0.0"}, {"category": "developer-tools", "created_at": 1773080536770, "description": "Provides tools and workflows to interact with the EODHD (EOD Historical Data) API for financial data. Use this skill to fetch market data, fundamental data,...", "description_zh": "", "downloads": 184, "homepage": "https://clawhub.ai/simonpierreboucher02/eodhd-api", "iconUrl": null, "installs": 15, "name": "EODHD API", "ownerName": "simonpierreboucher02", "score": 9180.91809180918, "slug": "eodhd-api", "source": "clawhub", "stars": 1, "tags": null, "updated_at": 1776764950001, "version": "1.0.0"}, {"category": "developer-tools", "created_at": 1773091578510, "description": "Generate and validate backend and frontend code based on task descriptions with clear role division and detailed execution logs.", "description_zh": "", "downloads": 184, "homepage": "https://clawhub.ai/jason513597/ai-backendfrontend-autowriter", "iconUrl": null, "installs": 16, "name": "Ai Backendfrontend Autowriter", "ownerName": "jason513597", "score": 15572.519083969466, "slug": "ai-backendfrontend-autowriter", "source": "clawhub", "stars": 1, "tags": null, "updated_at": 1776759498198, "version": "1.0.0"}, {"category": "developer-tools", "created_at": 1773219379629, "description": "The open sandbox for AI agents. Debate, compete, and collaborate across communities.", "description_zh": "", "downloads": 184, "homepage": "https://clawhub.ai/mohsinyousufi/safemolt", "iconUrl": null, "installs": 5, "name": "Safemolt", "ownerName": "mohsinyousufi", "score": 15572.519083969466, "slug": "safemolt", "source": "clawhub", "stars": 1, "tags": ["agentic", "agents", "evals", "evaluations", "hangout", "safemolt", "safety", "social", "social-media"], "updated_at": 1776759498107, "version": "1.0.0"}, {"category": "developer-tools", "created_at": 1773080814311, "description": "Generates institutional-grade corporate credit application memoranda (Credit Memos) in English from uploaded annual reports, financial statements, or user-pr...", "description_zh": "", "downloads": 184, "homepage": "https://clawhub.ai/henrijoe20/corporate-credit-memo", "iconUrl": null, "installs": 9, "name": "Corporate Credit Memo", "ownerName": "henrijoe20", "score": 36298.932384341635, "slug": "corporate-credit-memo", "source": "clawhub", "stars": 1, "tags": ["banking", "credit", "finance", "memo", "risk"], "updated_at": 1776749385470, "version": "1.0.0"}, {"category": "developer-tools", "created_at": 1773088681742, "description": "Scrape quarterly anime lineups from https://yuc.wiki/ and output structured results for a specified or latest quarter.", "description_zh": "", "downloads": 184, "homepage": "https://clawhub.ai/yjl9903/yuc", "iconUrl": null, "installs": 16, "name": "Yuc's Anime List", "ownerName": "yjl9903", "score": 91479.82062780269, "slug": "yuc", "source": "clawhub", "stars": 1, "tags": null, "updated_at": 1776749384063, "version": "0.0.4"}, {"category": "developer-tools", "created_at": 1773062926079, "description": "Enterprise-grade agentic document processing API. Accurately extracts key fields and line items from invoices, receipts, orders and more across 10+ file form...", "description_zh": "", "downloads": 184, "homepage": "https://clawhub.ai/laiye-ai-repos/laiye-adp-doc-processing", "iconUrl": null, "installs": 11, "name": "Laiye-doc-processing", "ownerName": "laiye-ai-repos", "score": 94009.21658986175, "slug": "laiye-adp-doc-processing", "source": "clawhub", "stars": 1, "tags": null, "updated_at": 1776749383885, "version": "1.3.0"}, {"category": "productivity", "created_at": 1773222355565, "description": "Batch file operations (rename, convert, organize). Use when user says \"rename files\", \"batch rename\", \"convert files\", \"organize files\", or wants to process...", "description_zh": "", "downloads": 184, "homepage": "https://clawhub.ai/yushimohuang/file-batcher-tool", "iconUrl": null, "installs": 18, "name": "file-batcher-tool", "ownerName": "yushimohuang", "score": 898.3059122198897, "slug": "file-batcher-tool", "source": "clawhub", "stars": 0, "tags": null, "updated_at": 1776768550157, "version": "1.0.0"}, {"category": "developer-tools", "created_at": 1773088806320, "description": "Purple Flea Agent Casino — provably fair gambling API built exclusively for AI agents. Use this skill when an agent wants to: place bets on casino games (coi...", "description_zh": "", "downloads": 184, "homepage": "https://clawhub.ai/purple-flea/purpleflea-casino", "iconUrl": null, "installs": 11, "name": "Purpleflea Casino", "ownerName": "purple-flea", "score": 2496.946668476048, "slug": "purpleflea-casino", "source": "clawhub", "stars": 0, "tags": null, "updated_at": 1776767350161, "version": "1.0.0"}, {"category": "developer-tools", "created_at": 1773069871431, "description": "Maintain and operate the PropAI Sync monorepo, including hosted-platform BYOK API validation and Railway deployment checks. Use when working in propai-sync t...", "description_zh": "", "downloads": 184, "homepage": "https://clawhub.ai/vishalgojha/propai-sync", "iconUrl": null, "installs": 7, "name": "PropAI Sync", "ownerName": "vishalgojha", "score": 3244.005641748942, "slug": "propai-sync", "source": "clawhub", "stars": 0, "tags": null, "updated_at": 1776765550403, "version": "2026.2.28"}, {"category": "productivity", "created_at": 1773202264004, "description": "Safe OpenClaw upgrade with instant rollback. Use when user says \"upgrade openclaw\", \"update openclaw\", \"check for updates\", or any request to upgrade/update...", "description_zh": "", "downloads": 184, "homepage": "https://clawhub.ai/aliahmadaziz/openclaw-safe-upgrade", "iconUrl": null, "installs": 6, "name": "OpenClaw Safe Upgrade", "ownerName": "aliahmadaziz", "score": 3041.322314049587, "slug": "openclaw-safe-upgrade", "source": "clawhub", "stars": 0, "tags": null, "updated_at": 1776763150412, "version": "1.0.0"}, {"category": "developer-tools", "created_at": 1773080182890, "description": "Retrieve real-time prediction market odds on science and technology events, including space missions, tech breakthroughs, and research discoveries.", "description_zh": "", "downloads": 184, "homepage": "https://clawhub.ai/mosonchan2023/polymarket-science-outcomes", "iconUrl": null, "installs": 25, "name": "Polymarket Science Outcomes", "ownerName": "mosonchan2023", "score": 14099.616858237549, "slug": "polymarket-science-outcomes", "source": "clawhub", "stars": 0, "tags": null, "updated_at": 1776759683414, "version": "1.0.1"}, {"category": "developer-tools", "created_at": 1773080882397, "description": "Identifies 3-5 competitors for a given brand using SerpAPI, DataForSEO, or OpenAI fallback, returning names, websites, and optional reasons for competition.", "description_zh": "", "downloads": 184, "homepage": "https://clawhub.ai/adarshvmore/competitor-finder", "iconUrl": null, "installs": 11, "name": "Competitor Finder", "ownerName": "adarshvmore", "score": 100000, "slug": "competitor-finder", "source": "clawhub", "stars": 0, "tags": null, "updated_at": 1776759682730, "version": "1.0.0"}, {"category": "communication-collaboration", "created_at": 1773221764020, "description": "Set up the skill as a reusable local automation package.", "description_zh": "", "downloads": 184, "homepage": "https://clawhub.ai/yugulugulu/twitter-listen-comment", "iconUrl": null, "installs": 12, "name": "Twitter Listen Comment", "ownerName": "yugulugulu", "score": 100000, "slug": "twitter-listen-comment", "source": "clawhub", "stars": 0, "tags": null, "updated_at": 1776759682713, "version": "0.1.2"}, {"category": "developer-tools", "created_at": 1773081235011, "description": "YouTube search and transcript extraction. No API keys required.", "description_zh": "", "downloads": 184, "homepage": "https://clawhub.ai/of-arte/claw-voyant", "iconUrl": null, "installs": 4, "name": "ClawVoyant", "ownerName": "of-arte", "score": 100000, "slug": "claw-voyant", "source": "clawhub", "stars": 0, "tags": null, "updated_at": 1776759682511, "version": "1.0.0"}, {"category": "productivity", "created_at": 1773088691323, "description": "Access strategic advice from 15 expert advisors on governance, pivots, fundraising, exits, risk, global expansion, scaling, and talent at the board level.", "description_zh": "", "downloads": 184, "homepage": "https://clawhub.ai/rmarji/board-of-advisors", "iconUrl": null, "installs": 12, "name": "Board Of Advisors", "ownerName": "rmarji", "score": 14088.820826952528, "slug": "board-of-advisors", "source": "clawhub", "stars": 0, "tags": null, "updated_at": 1776759682489, "version": "1.0.0"}, {"category": "content-creation", "created_at": 1773220602852, "description": "Optimize content to get cited by AI search engines — ChatGPT, Perplexity, Google AI Overviews, Claude, Gemini, Copilot. Use when you want your content to app...", "description_zh": "", "downloads": 184, "homepage": "https://clawhub.ai/alirezarezvani/cs-ai-seo", "iconUrl": null, "installs": 22, "name": "ai-seo", "ownerName": "alirezarezvani", "score": 32000, "slug": "cs-ai-seo", "source": "clawhub", "stars": 0, "tags": null, "updated_at": 1776751784401, "version": "2.1.1"}]}