{"page": 316, "total_pages": 522, "total": 26073, "skills": [{"category": "productivity", "created_at": 1773076961965, "description": "Get current news which matches user's recent interests. It can be triggered when user ask about current news or the events happening around without selecting...", "description_zh": "", "downloads": 184, "homepage": "https://clawhub.ai/zeron90/personalized-news-collector", "iconUrl": null, "installs": 8, "name": "personalized-news-collector", "ownerName": "zeron90", "score": 36435.64356435643, "slug": "personalized-news-collector", "source": "clawhub", "stars": 0, "tags": null, "updated_at": 1776750469600, "version": "1.0.1"}, {"category": "developer-tools", "created_at": 1773222451758, "description": "Set up ESP32-S3-CAM modules as visual sensors (eyes) for OpenClaw agents. Covers hardware identification, firmware flashing, WiFi configuration, and HTTP cam...", "description_zh": "", "downloads": 184, "homepage": "https://clawhub.ai/p697/esp32-cam-eyes", "iconUrl": null, "installs": 27, "name": "ESP32-CAM Eyes", "ownerName": "p697", "score": 100000, "slug": "esp32-cam-eyes", "source": "clawhub", "stars": 0, "tags": null, "updated_at": 1776749983985, "version": "1.0.0"}, {"category": "content-creation", "created_at": 1773425352248, "description": "Polish a technical blog draft into an 1000–1200 word, 4-5 section zh-CN article, preserve technical terms/code, and generate consistent hero + per-section im...", "description_zh": "", "downloads": 184, "homepage": "https://clawhub.ai/j3ffyang/blog-polish-zhcn-images", "iconUrl": null, "installs": 17, "name": "Blog Polish Zhcn Images", "ownerName": "j3ffyang", "score": 95336.78756476684, "slug": "blog-polish-zhcn-images", "source": "clawhub", "stars": 0, "tags": null, "updated_at": 1776749385436, "version": "1.0.6"}, {"category": "developer-tools", "created_at": 1773081513956, "description": "A Prompt Engineering assistant based on Gen AI Space's 16-technique framework. Helps with two things: creating ready-to-use prompts, and building high-qualit...", "description_zh": "", "downloads": 184, "homepage": "https://clawhub.ai/golofu/skill-with-prompt-engineering", "iconUrl": null, "installs": 6, "name": "Skill with Prompt Engineering by Gen AI Space", "ownerName": "golofu", "score": 95336.78756476684, "slug": "skill-with-prompt-engineering", "source": "clawhub", "stars": 0, "tags": null, "updated_at": 1776749385411, "version": "1.0.0"}, {"category": "content-creation", "created_at": 1773431559396, "description": "Convert documents and files to Markdown using markitdown (PDF, Word, PowerPoint, Excel). And also 50+ models for image generation, video generation, text-to-...", "description_zh": "", "downloads": 184, "homepage": "https://clawhub.ai/kirkraman/markdown-converters", "iconUrl": null, "installs": 41, "name": "Pub Mdconv", "ownerName": "kirkraman", "score": 95336.78756476684, "slug": "markdown-converters", "source": "clawhub", "stars": 0, "tags": null, "updated_at": 1776749385374, "version": "1.0.0"}, {"category": "developer-tools", "created_at": 1773069471581, "description": "Lemon Squeezy — digital products, subscriptions, orders, customers, checkouts, license keys, and discounts. Digital commerce CLI.", "description_zh": "", "downloads": 184, "homepage": "https://clawhub.ai/aiwithabidi/lemonsqueezy", "iconUrl": null, "installs": 8, "name": "Lemonsqueezy", "ownerName": "aiwithabidi", "score": 95336.78756476684, "slug": "lemonsqueezy", "source": "clawhub", "stars": 0, "tags": null, "updated_at": 1776749385361, "version": "1.0.0"}, {"category": "developer-tools", "created_at": 1773078368263, "description": "Codebase navigation and documentation assistant. Helps AI locate code definitions, understand dependencies, and maintain documentation consistency. BLOCKING...", "description_zh": "", "downloads": 184, "homepage": "https://clawhub.ai/omeletee/code-doc-guid", "iconUrl": null, "installs": 10, "name": "code-doc-guid", "ownerName": "omeletee", "score": 95336.78756476684, "slug": "code-doc-guid", "source": "clawhub", "stars": 0, "tags": null, "updated_at": 1776749385319, "version": "1.0.2"}, {"category": "developer-tools", "created_at": 1773429514326, "description": "Guide users through ClawPaw Android setup — installing the APK, granting permissions, connecting SSH tunnel, and verifying the full LLM-to-phone control chai...", "description_zh": "", "downloads": 184, "homepage": "https://clawhub.ai/wzliu888/clawpaw-phone-control", "iconUrl": null, "installs": 37, "name": "ClawPaw Phone Control", "ownerName": "wzliu888", "score": 95336.78756476684, "slug": "clawpaw-phone-control", "source": "clawhub", "stars": 0, "tags": null, "updated_at": 1776749385310, "version": "1.0.0"}, {"category": "data-analysis", "created_at": 1773284674579, "description": "Merge Partitions Without Data Loss — Combine adjacent or non-adjacent partitions into one larger volume to consolidate space and simplify drive management.", "description_zh": "", "downloads": 184, "homepage": "https://clawhub.ai/hezhaoyun/merge-partition-coach", "iconUrl": null, "installs": 8, "name": "Merge Partition Coach", "ownerName": "hezhaoyun", "score": 78297.87234042553, "slug": "merge-partition-coach", "source": "clawhub", "stars": 0, "tags": null, "updated_at": 1776749385266, "version": "0.1.0"}, {"category": "data-analysis", "created_at": 1773082864819, "description": "Track parcels and shipments via the 17TRACK API. Manage a local SQLite database of tracked packages with automatic status polling, webhook ingestion, and dai...", "description_zh": "", "downloads": 184, "homepage": "https://clawhub.ai/f-liva/17track", "iconUrl": null, "installs": 12, "name": "17TRACK", "ownerName": "f-liva", "score": 89756.09756097561, "slug": "17track", "source": "clawhub", "stars": 0, "tags": null, "updated_at": 1776749385189, "version": "1.0.3"}, {"category": "developer-tools", "created_at": 1773079276939, "description": "Deploy Next.js sites to Netlify with approval gates. Supports soilrichbyjohn.com and Synergy salon.", "description_zh": "", "downloads": 184, "homepage": "https://clawhub.ai/martc03/site-deployer", "iconUrl": null, "installs": 16, "name": "Site Deployer", "ownerName": "martc03", "score": 89756.09756097561, "slug": "site-deployer", "source": "clawhub", "stars": 0, "tags": null, "updated_at": 1776749385169, "version": "1.0.0"}, {"category": "developer-tools", "created_at": 1773284455182, "description": "MCP Server Builder", "description_zh": "", "downloads": 184, "homepage": "https://clawhub.ai/alirezarezvani/mcp-server-builder", "iconUrl": null, "installs": 16, "name": "mcp-server-builder", "ownerName": "alirezarezvani", "score": 77310.9243697479, "slug": "mcp-server-builder", "source": "clawhub", "stars": 0, "tags": null, "updated_at": 1776749385124, "version": "1.0.0"}, {"category": "productivity", "created_at": 1773860583577, "description": "Provides customized event planning for weddings, birthdays, and corporate events, including budgets, checklists, invitations, timelines, and vendor lists.", "description_zh": "", "downloads": 184, "homepage": "https://clawhub.ai/bytesagain1/partycraft", "iconUrl": null, "installs": 25, "name": "Partycraft", "ownerName": "bytesagain1", "score": 77310.9243697479, "slug": "partycraft", "source": "clawhub", "stars": 0, "tags": null, "updated_at": 1776749385104, "version": "1.0.7"}, {"category": "developer-tools", "created_at": 1773220369635, "description": "AI/ML engineering specialist for building intelligent features, RAG systems, LLM integrations, data pipelines, vector search, and AI-powered applications. Us...", "description_zh": "", "downloads": 184, "homepage": "https://clawhub.ai/bullkis1/ai-engineer", "iconUrl": null, "installs": 14, "name": "AI Engineer", "ownerName": "bullkis1", "score": 89320.38834951457, "slug": "ai-engineer", "source": "clawhub", "stars": 0, "tags": null, "updated_at": 1776749384978, "version": "1.0.0"}, {"category": "security-compliance", "created_at": 1773221274370, "description": "오픈소스 취약점 분석 스킬. 사용자가 오픈소스 패키지 이름과 사용 중인 버전을 입력하면, NVD(NIST), OSV.dev(Google), GitHub Advisory 3개 데이터 소스에서 CVE 취약점을 조회하여 최신 버전 정보와 함께 보안 리포트를 생성한다. 마크다운, Exce...", "description_zh": "", "downloads": 184, "homepage": "https://clawhub.ai/rebugui/open-cve-scanner", "iconUrl": null, "installs": 23, "name": "Open Cve Scanner", "ownerName": "rebugui", "score": 89320.38834951457, "slug": "open-cve-scanner", "source": "clawhub", "stars": 0, "tags": null, "updated_at": 1776749384948, "version": "1.0.0"}, {"category": "data-analysis", "created_at": 1773069617062, "description": "Fetch real-time crypto prices and calculate technical indicators (SMA, EMA, MACD, RSI, Bollinger Bands, ATR) for BTC, ETH, SOL, BNB, XRP, DOGE. Powered by mu...", "description_zh": "", "downloads": 184, "homepage": "https://clawhub.ai/totoxu/totoxu-crypto-analyzer", "iconUrl": null, "installs": 11, "name": "Crypto Market Analyzer", "ownerName": "totoxu", "score": 82142.85714285714, "slug": "totoxu-crypto-analyzer", "source": "clawhub", "stars": 0, "tags": null, "updated_at": 1776749384854, "version": "1.3.0"}, {"category": "communication-collaboration", "created_at": 1773205246635, "description": "Import, search, and archive AI conversations from ChatGPT, Claude, and Gemini. Clean indexed formats, full-text search, static HTML archive. No server required.", "description_zh": "", "downloads": 184, "homepage": "https://clawhub.ai/theshadowrose/chat-lift", "iconUrl": null, "installs": 14, "name": "Chat Lift", "ownerName": "theshadowrose", "score": 88461.53846153845, "slug": "chat-lift", "source": "clawhub", "stars": 0, "tags": ["conversation", "prompting", "quality", "upgrade"], "updated_at": 1776749384769, "version": "1.0.1"}, {"category": "content-creation", "created_at": 1773080476925, "description": "Edit Clawra's reference image with Grok Imagine (xAI Aurora) and send selfies to messaging channels via OpenClaw", "description_zh": "", "downloads": 184, "homepage": "https://clawhub.ai/wangzhi8145/skill-10", "iconUrl": null, "installs": 12, "name": "Clawra Selfie", "ownerName": "wangzhi8145", "score": 88461.53846153845, "slug": "skill-10", "source": "clawhub", "stars": 0, "tags": null, "updated_at": 1776749384747, "version": "0.1.0"}, {"category": "developer-tools", "created_at": 1773066711024, "description": "DocuSign e-signatures — manage envelopes, templates, recipients, and signing via REST API", "description_zh": "", "downloads": 184, "homepage": "https://clawhub.ai/aiwithabidi/docusign", "iconUrl": null, "installs": 6, "name": "Docusign", "ownerName": "aiwithabidi", "score": 91542.28855721393, "slug": "docusign", "source": "clawhub", "stars": 0, "tags": null, "updated_at": 1776749384682, "version": "1.0.0"}, {"category": "content-creation", "created_at": 1773068300724, "description": "Guides an AI assistant to redesign SaaS onboarding flows using the Activation Path Method — helping users define their aha moment, map time-to-value, elimina...", "description_zh": "", "downloads": 184, "homepage": "https://clawhub.ai/flynndavid/onboarding-activator", "iconUrl": null, "installs": 11, "name": "Onboarding Activator", "ownerName": "flynndavid", "score": 91542.28855721393, "slug": "onboarding-activator", "source": "clawhub", "stars": 0, "tags": null, "updated_at": 1776749384675, "version": "1.0.0"}, {"category": "security-compliance", "created_at": 1773076964976, "description": "Identify publicly accessible S3 buckets, dangerous ACLs, and misconfigured bucket policies", "description_zh": "", "downloads": 184, "homepage": "https://clawhub.ai/anmolnagpal/s3-exposure-auditor", "iconUrl": null, "installs": 3, "name": "S3 Exposure Auditor", "ownerName": "anmolnagpal", "score": 41163.31096196868, "slug": "s3-exposure-auditor", "source": "clawhub", "stars": 0, "tags": null, "updated_at": 1776749384554, "version": "1.0.0"}, {"category": "communication-collaboration", "created_at": 1773218677106, "description": "Live in GooseTown — a shared virtual town where AI agents explore, chat, and build relationships.", "description_zh": "", "downloads": 184, "homepage": "https://clawhub.ai/prez2307/goosetown", "iconUrl": null, "installs": 8, "name": "Goosetown Skill", "ownerName": "prez2307", "score": 41163.31096196868, "slug": "goosetown", "source": "clawhub", "stars": 0, "tags": null, "updated_at": 1776749384498, "version": "1.2.1"}, {"category": "security-compliance", "created_at": 1773069844658, "description": "Audit Azure NSG rules and Azure Firewall policies for dangerous internet exposure", "description_zh": "", "downloads": 184, "homepage": "https://clawhub.ai/anmolnagpal/nsg-firewall-auditor", "iconUrl": null, "installs": 7, "name": "Nsg Firewall Auditor", "ownerName": "anmolnagpal", "score": 93877.55102040817, "slug": "nsg-firewall-auditor", "source": "clawhub", "stars": 0, "tags": null, "updated_at": 1776749384488, "version": "1.0.0"}, {"category": "productivity", "created_at": 1773080954441, "description": "Lever integration. Manage Leads, Persons, Organizations, Deals, Activities, Notes and more. Use when the user wants to interact with Lever data.", "description_zh": "", "downloads": 184, "homepage": "https://clawhub.ai/membranedev/lever", "iconUrl": null, "installs": 5, "name": "Lever", "ownerName": "membranedev", "score": 93877.55102040817, "slug": "lever", "source": "clawhub", "stars": 0, "tags": null, "updated_at": 1776749384474, "version": "1.0.0"}, {"category": "developer-tools", "created_at": 1773069963726, "description": "Generates a detailed receipt of everything you accomplished in a coding session — files changed, problems solved, decisions made, debt incurred, and what's l...", "description_zh": "", "downloads": 184, "homepage": "https://clawhub.ai/jcools1977/work-receipt", "iconUrl": null, "installs": 5, "name": "Work Receipt", "ownerName": "jcools1977", "score": 93877.55102040817, "slug": "work-receipt", "source": "clawhub", "stars": 0, "tags": null, "updated_at": 1776749384434, "version": "1.0.0"}, {"category": "ai-intelligence", "created_at": 1773924879321, "description": "Migrate a user's OpenClaw customization footprint into Hermes Agent. Imports Hermes-compatible memories, SOUL.md, command allowlists, user skills, and select...", "description_zh": "", "downloads": 184, "homepage": "https://clawhub.ai/agungprabowo123/openclaw-migration-2", "iconUrl": null, "installs": 46, "name": "Openclaw Migration", "ownerName": "agungprabowo123", "score": 90640.39408866996, "slug": "openclaw-migration-2", "source": "clawhub", "stars": 0, "tags": null, "updated_at": 1776749384375, "version": "0.1.0"}, {"category": "developer-tools", "created_at": 1773202002636, "description": "Cross-machine agent communication via Agent Hotline CLI and REST API. Use when you need to message other coding agents, check your agent inbox, see who's onl...", "description_zh": "", "downloads": 184, "homepage": "https://clawhub.ai/seahyc/agent-hotline", "iconUrl": null, "installs": 7, "name": "Agent Hotline", "ownerName": "seahyc", "score": 98924.7311827957, "slug": "agent-hotline", "source": "clawhub", "stars": 0, "tags": null, "updated_at": 1776749384283, "version": "0.1.3"}, {"category": "developer-tools", "created_at": 1773077477953, "description": "Manage Smartlead campaigns, leads, and webhooks from the command line via the smartlead CLI.", "description_zh": "", "downloads": 184, "homepage": "https://clawhub.ai/jzakirov/smartlead", "iconUrl": null, "installs": 6, "name": "Smartlead", "ownerName": "jzakirov", "score": 84792.6267281106, "slug": "smartlead", "source": "clawhub", "stars": 0, "tags": null, "updated_at": 1776749384187, "version": "0.3.2"}, {"category": "productivity", "created_at": 1773067615717, "description": "Escalate automation conversations to human ad experts for Meta (Facebook/Instagram), Google Ads, TikTok Ads, and YouTube Ads operations.", "description_zh": "", "downloads": 184, "homepage": "https://clawhub.ai/danyangliu-sandwichlab/human-handoff-coordinator", "iconUrl": null, "installs": 10, "name": "Ads Human Handoff", "ownerName": "danyangliu-sandwichlab", "score": 84792.6267281106, "slug": "human-handoff-coordinator", "source": "clawhub", "stars": 0, "tags": null, "updated_at": 1776749384157, "version": "1.0.0"}, {"category": "ai-intelligence", "created_at": 1773088756808, "description": "Claude follows your rules. GPT ignores half of them. Gemini invents new ones. Model Prompt Adapter patches the gaps — per-model addenda that fix scope creep,...", "description_zh": "", "downloads": 184, "homepage": "https://clawhub.ai/globalcaos/model-prompt-adapter", "iconUrl": null, "installs": 10, "name": "Model Prompt Adapter", "ownerName": "globalcaos", "score": 82511.21076233184, "slug": "model-prompt-adapter", "source": "clawhub", "stars": 0, "tags": null, "updated_at": 1776749384133, "version": "1.1.0"}, {"category": "ai-intelligence", "created_at": 1773080523830, "description": "TCPA consent verification for lead generation. Use when adding consent capture to web forms, verifying lead consent before contact, claiming/managing consent...", "description_zh": "", "downloads": 184, "homepage": "https://clawhub.ai/poncho-punch/verfi", "iconUrl": null, "installs": 11, "name": "Verfi", "ownerName": "poncho-punch", "score": 82511.21076233184, "slug": "verfi", "source": "clawhub", "stars": 0, "tags": null, "updated_at": 1776749384062, "version": "0.1.0"}, {"category": "communication-collaboration", "created_at": 1773083174441, "description": "Integrate GigaChat (Sber AI) with OpenClaw via gpt2giga proxy", "description_zh": "", "downloads": 184, "homepage": "https://clawhub.ai/smvlx/sber-gigachat", "iconUrl": null, "installs": 6, "name": "GigaChat (Sber AI) Proxy", "ownerName": "smvlx", "score": 60327.86885245902, "slug": "sber-gigachat", "source": "clawhub", "stars": 0, "tags": null, "updated_at": 1776749383941, "version": "1.1.2"}, {"category": "data-analysis", "created_at": 1773202046263, "description": "Load CSV files and ask questions in plain English. AI-powered natural language queries via Anthropic, OpenAI, or local Ollama. No SQL required.", "description_zh": "", "downloads": 184, "homepage": "https://clawhub.ai/theshadowrose/csv-brain", "iconUrl": null, "installs": 11, "name": "Csv Brain", "ownerName": "theshadowrose", "score": 84792.6267281106, "slug": "csv-brain", "source": "clawhub", "stars": 0, "tags": ["analysis", "csv", "data", "parsing", "spreadsheet"], "updated_at": 1776749383864, "version": "1.0.3"}, {"category": "content-creation", "created_at": 1773219424729, "description": "Contentful integration. Manage Spaces. Use when the user wants to interact with Contentful data.", "description_zh": "", "downloads": 184, "homepage": "https://clawhub.ai/gora050/contentful", "iconUrl": null, "installs": 6, "name": "Contentful", "ownerName": "gora050", "score": 84792.6267281106, "slug": "contentful", "source": "clawhub", "stars": 0, "tags": null, "updated_at": 1776749383790, "version": "1.0.0"}, {"category": "data-analysis", "created_at": 1773221007057, "description": "When the user wants to plan, design, or implement an A/B test or experiment. Also use when the user mentions \"A/B test,\" \"split test,\" \"experiment,\" \"test th...", "description_zh": "", "downloads": 184, "homepage": "https://clawhub.ai/alirezarezvani/cs-ab-test-setup", "iconUrl": null, "installs": 20, "name": "ab-test-setup", "ownerName": "alirezarezvani", "score": 86384.9765258216, "slug": "cs-ab-test-setup", "source": "clawhub", "stars": 0, "tags": null, "updated_at": 1776749383692, "version": "2.1.1"}, {"category": "content-creation", "created_at": 1773068232158, "description": "Read and write Google Forms.", "description_zh": "", "downloads": 184, "homepage": "https://clawhub.ai/googleworkspace-bot/gws-forms", "iconUrl": null, "installs": 12, "name": "Gws Forms", "ownerName": "googleworkspace-bot", "score": 86384.9765258216, "slug": "gws-forms", "source": "clawhub", "stars": 0, "tags": null, "updated_at": 1776749383660, "version": "1.0.0"}, {"category": "ai-intelligence", "created_at": 1773916946093, "description": "Build a reusable multi-agent team in OpenClaw from a user goal (e.g., \"create a product-engineering team\", \"build a marketing ops team\"). Use when the user w...", "description_zh": "", "downloads": 183, "homepage": "https://clawhub.ai/gzgogo/multi-agent-builder", "iconUrl": null, "installs": 13, "name": "Multi Agent Builder", "ownerName": "gzgogo", "score": 99553.57142857143, "slug": "multi-agent-builder", "source": "clawhub", "stars": 2, "tags": null, "updated_at": 1776759420820, "version": "1.0.0"}, {"category": "developer-tools", "created_at": 1773081637369, "description": "Unified LLM Council skill — install, query, and manage the multi-model consensus app. Get synthesized answers from multiple LLMs via quick CLI or full web UI...", "description_zh": "", "downloads": 183, "homepage": "https://clawhub.ai/jeadland/council-brief", "iconUrl": null, "installs": 9, "name": "Council Brief", "ownerName": "jeadland", "score": 100000, "slug": "council-brief", "source": "clawhub", "stars": 2, "tags": null, "updated_at": 1776749384110, "version": "2.0.0"}, {"category": "content-creation", "created_at": 1773424170070, "description": "Save restaurants, bars, and cafes from TikTok and Instagram videos. Search your saved places and get weekend suggestions.", "description_zh": "", "downloads": 183, "homepage": "https://clawhub.ai/bgrober/alista", "iconUrl": null, "installs": 8, "name": "alista", "ownerName": "bgrober", "score": 15484.363081617086, "slug": "alista", "source": "clawhub", "stars": 1, "tags": null, "updated_at": 1776759498389, "version": "1.1.1"}, {"category": "developer-tools", "created_at": 1773078612422, "description": "Autonomous meme token launcher on BNB Chain — sense trends, generate concepts, create logos, deploy tokens on-chain", "description_zh": "", "downloads": 183, "homepage": "https://clawhub.ai/pearl799/district9", "iconUrl": null, "installs": 6, "name": "DISTRICT9", "ownerName": "pearl799", "score": 15496.18320610687, "slug": "district9", "source": "clawhub", "stars": 1, "tags": null, "updated_at": 1776759498025, "version": "0.2.0"}, {"category": "data-analysis", "created_at": 1773221031828, "description": "Use Crawl4AI to fetch and convert complex webpages, including dynamic content, into Markdown for summarization, data extraction, or analysis.", "description_zh": "", "downloads": 183, "homepage": "https://clawhub.ai/hanqiudeng/easy-crawl", "iconUrl": null, "installs": 8, "name": "EASY_CRAWL4AI", "ownerName": "hanqiudeng", "score": 95305.16431924883, "slug": "easy-crawl", "source": "clawhub", "stars": 1, "tags": null, "updated_at": 1776759497694, "version": "1.0.0"}, {"category": "content-creation", "created_at": 1773285022071, "description": "Generate and edit images using the AceData Nano Banana API. Supports models like nano-banana-2, custom aspect ratios (default 16:9), and resolutions (default...", "description_zh": "", "downloads": 183, "homepage": "https://clawhub.ai/xiyunnet/ace-banana", "iconUrl": null, "installs": 11, "name": "Ace Banana2 Image Generation / Ace Banana2 图像生成", "ownerName": "xiyunnet", "score": 85294.11764705883, "slug": "ace-banana", "source": "clawhub", "stars": 1, "tags": null, "updated_at": 1776749385095, "version": "1.0.3"}, {"category": "communication-collaboration", "created_at": 1773219207781, "description": "Launch OpenAI Codex CLI async in background with automatic delivery to Telegram/WhatsApp. Use for coding, refactoring, codebase research, file generation, an...", "description_zh": "", "downloads": 183, "homepage": "https://clawhub.ai/sbrin/codex-cli-task", "iconUrl": null, "installs": 11, "name": "OpenAI Codex CLI Runner", "ownerName": "sbrin", "score": 98543.68932038835, "slug": "codex-cli-task", "source": "clawhub", "stars": 1, "tags": null, "updated_at": 1776749384972, "version": "1.1.2"}, {"category": "ai-intelligence", "created_at": 1773284423375, "description": "Reduces token usage across multi-skill agent workflows (search, coding, debugging, testing, docs) using budgets, gating, progressive disclosure, and deduped...", "description_zh": "", "downloads": 183, "homepage": "https://clawhub.ai/buttonsinger/tokenkiller", "iconUrl": null, "installs": 36, "name": "TokenKiller", "ownerName": "buttonsinger", "score": 97596.15384615384, "slug": "tokenkiller", "source": "clawhub", "stars": 1, "tags": ["agent", "budget", "cost", "debugging", "dedupe", "progressive-disclosure", "search", "tokens"], "updated_at": 1776749384735, "version": "1.0.1"}, {"category": "developer-tools", "created_at": 1773285307876, "description": "Browser automation, DOM inspection, page mutation, wait orchestration, flow execution, and local proxy override work through the Silmaril Chrome DevTools Pro...", "description_zh": "", "downloads": 183, "homepage": "https://clawhub.ai/malac12/silmaril-cdp", "iconUrl": null, "installs": 8, "name": "Silmaril Ranger", "ownerName": "malac12", "score": 100000, "slug": "silmaril-cdp", "source": "clawhub", "stars": 1, "tags": null, "updated_at": 1776749384418, "version": "1.0.0"}, {"category": "", "created_at": 1774887941119, "description": "Comprehensive PDF manipulation toolkit for extracting text and tables, creating new PDFs, merging/splitting documents, and handling forms. When Claude needs...", "description_zh": "", "downloads": 183, "homepage": "https://clawhub.ai/kidaiangel/document-pdf", "iconUrl": null, "installs": 46, "name": "Pdf", "ownerName": "kidaiangel", "score": 6049.586776859504, "slug": "document-pdf", "source": "clawhub", "stars": 0, "tags": null, "updated_at": 1776767050040, "version": "1.0.0"}, {"category": "communication-collaboration", "created_at": 1773083423840, "description": "Generates personalized, concise cold emails pitching Gracie AI Receptionist by scraping business websites for relevant details.", "description_zh": "", "downloads": 183, "homepage": "https://clawhub.ai/jayjjimenez/cold-email-generator", "iconUrl": null, "installs": 9, "name": "Cold Email Generator", "ownerName": "jayjjimenez", "score": 1010.1567674983439, "slug": "cold-email-generator", "source": "clawhub", "stars": 0, "tags": null, "updated_at": 1776763750316, "version": "1.0.0"}, {"category": "ai-intelligence", "created_at": 1773220505995, "description": "Generate and optimize precise AI prompts using templates and styles for models like GPT-4, Claude, Gemini, and Qwen.", "description_zh": "", "downloads": 183, "homepage": "https://clawhub.ai/boleyn/ocms-ai-prompt-generator", "iconUrl": null, "installs": 14, "name": "ai-prompt-generator", "ownerName": "boleyn", "score": 5098.913346336027, "slug": "ocms-ai-prompt-generator", "source": "clawhub", "stars": 0, "tags": null, "updated_at": 1776761090193, "version": "1.0.0"}, {"category": "security-compliance", "created_at": 1773220866624, "description": "DEPRECATED shim skill for /codex_auth. Use codex-profiler instead; codex-auth is no longer the maintained path.", "description_zh": "", "downloads": 183, "homepage": "https://clawhub.ai/deadlysilent/codex-auth", "iconUrl": null, "installs": 5, "name": "Codex Auth", "ownerName": "deadlysilent", "score": 12063.282794990111, "slug": "codex-auth", "source": "clawhub", "stars": 0, "tags": null, "updated_at": 1776760940754, "version": "1.0.6"}, {"category": "ai-intelligence", "created_at": 1773091199913, "description": "Vision-driven HarmonyOS NEXT device automation using Midscene. Operates entirely from screenshots — no DOM or accessibility labels required. Can interact wit...", "description_zh": "", "downloads": 183, "homepage": "https://clawhub.ai/quanru/midscene-harmony-automation", "iconUrl": null, "installs": 31, "name": "Midscene Automations Skills for HarmonyOS", "ownerName": "quanru", "score": 14398.111723052714, "slug": "midscene-harmony-automation", "source": "clawhub", "stars": 0, "tags": null, "updated_at": 1776759982797, "version": "1.0.3"}]}