{"page": 317, "total_pages": 522, "total": 26073, "skills": [{"category": "developer-tools", "created_at": 1773084099132, "description": "Control Frameo digital photo frames via cloud API for frame info or ADB for full control including photo upload, brightness, screen, and navigation.", "description_zh": "", "downloads": 183, "homepage": "https://clawhub.ai/850media/frameo", "iconUrl": null, "installs": 10, "name": "Frameo Photo Frame Control", "ownerName": "850media", "score": 14164.0866873065, "slug": "frameo", "source": "clawhub", "stars": 0, "tags": ["adb", "iot", "photo-frame"], "updated_at": 1776759683242, "version": "1.0.0"}, {"category": "ai-intelligence", "created_at": 1773083760515, "description": "Maintains and restores project context across sessions, tracks active projects, manages tasks, switches projects, and summarizes current progress.", "description_zh": "", "downloads": 183, "homepage": "https://clawhub.ai/deus-pandora/context-engine-deus", "iconUrl": null, "installs": 7, "name": "Context Engine", "ownerName": "deus-pandora", "score": 13738.73873873874, "slug": "context-engine-deus", "source": "clawhub", "stars": 0, "tags": null, "updated_at": 1776759683145, "version": "1.0.0"}, {"category": "security-compliance", "created_at": 1773215766960, "description": "Send, manage, and claim Solana crypto red packets via the GiftDrop API using wallet-authenticated requests and customizable gift parameters.", "description_zh": "", "downloads": 183, "homepage": "https://clawhub.ai/tiancookie/giftdrop", "iconUrl": null, "installs": 5, "name": "GiftDrop", "ownerName": "tiancookie", "score": 14164.0866873065, "slug": "giftdrop", "source": "clawhub", "stars": 0, "tags": null, "updated_at": 1776759683125, "version": "1.0.0"}, {"category": "content-creation", "created_at": 1773091759820, "description": "Provides a reusable AI agent OS template with separated identity, operations, and knowledge layers for modular intelligent system design.", "description_zh": "", "downloads": 183, "homepage": "https://clawhub.ai/huamu668/agent-os-three-layer", "iconUrl": null, "installs": 7, "name": "Agent OS (Three Layer)", "ownerName": "huamu668", "score": 14098.613251155622, "slug": "agent-os-three-layer", "source": "clawhub", "stars": 0, "tags": ["agent", "ai-system", "architecture", "template"], "updated_at": 1776759683106, "version": "1.0.0"}, {"category": "productivity", "created_at": 1773089968948, "description": "Manage off-plan real estate investments with payment tracking, group buy equity, cash buffer simulation, investor sharing links, and ROI scenario modeling.", "description_zh": "", "downloads": 183, "homepage": "https://clawhub.ai/binkl69/re-master", "iconUrl": null, "installs": 8, "name": "Real Estate Master", "ownerName": "binkl69", "score": 100000, "slug": "re-master", "source": "clawhub", "stars": 0, "tags": null, "updated_at": 1776759682913, "version": "1.0.1"}, {"category": "productivity", "created_at": 1773218219038, "description": "Create, update, hide, show, list, and delete Übersicht desktop widgets on macOS. Use this skill whenever the user asks for desktop widgets, desktop gadgets,...", "description_zh": "", "downloads": 183, "homepage": "https://clawhub.ai/paranoidearth/widget", "iconUrl": null, "installs": 10, "name": "Widget", "ownerName": "paranoidearth", "score": 14055.299539170506, "slug": "widget", "source": "clawhub", "stars": 0, "tags": null, "updated_at": 1776759682610, "version": "0.1.0"}, {"category": "content-creation", "created_at": 1773091862053, "description": "Automatically generates and posts 5 persona-matched tweets daily to X using GPT-5.1, with repetition checks, content filters, and Telegram alerts.", "description_zh": "", "downloads": 183, "homepage": "https://clawhub.ai/edisonchenai/edison-autopilot-post-x", "iconUrl": null, "installs": 7, "name": "Edison Autopilot Post X", "ownerName": "edisonchenai", "score": 99456.52173913043, "slug": "edison-autopilot-post-x", "source": "clawhub", "stars": 0, "tags": ["ai", "automation", "openai", "tweepy", "twitter", "x"], "updated_at": 1776759682532, "version": "1.0.0"}, {"category": "security-compliance", "created_at": 1773078552008, "description": "Provides a production-ready API template with JWT, API key, OAuth2 authentication, role-based access control, rate limiting, input validation, logging, and e...", "description_zh": "", "downloads": 183, "homepage": "https://clawhub.ai/sunshine-del-ux/secure-api-starter", "iconUrl": null, "installs": 4, "name": "Secure Api Starter", "ownerName": "sunshine-del-ux", "score": 14012.251148545176, "slug": "secure-api-starter", "source": "clawhub", "stars": 0, "tags": null, "updated_at": 1776759682463, "version": "1.0.0"}, {"category": "data-analysis", "created_at": 1773291187240, "description": "Coordinates specialized AI agents to design novel drug candidates with synthesis routes, inventory checks, ADMET/Tox evaluation, pharmacology scoring, and pa...", "description_zh": "", "downloads": 183, "homepage": "https://clawhub.ai/cheminem/drug-team", "iconUrl": null, "installs": 24, "name": "Drug Team", "ownerName": "cheminem", "score": 7140.070230198986, "slug": "drug-team", "source": "clawhub", "stars": 0, "tags": null, "updated_at": 1776759682380, "version": "1.0.0"}, {"category": "ai-intelligence", "created_at": 1773426304235, "description": "Provides persistent two-tier memory with semantic fact search and raw content retrieval, plus automatic cleanup of temporary session files.", "description_zh": "", "downloads": 183, "homepage": "https://clawhub.ai/hallllllll/openclaw-deeprecall", "iconUrl": null, "installs": 19, "name": "Openclaw Deeprecall", "ownerName": "hallllllll", "score": 7140.070230198986, "slug": "openclaw-deeprecall", "source": "clawhub", "stars": 0, "tags": null, "updated_at": 1776759682359, "version": "0.1.2"}, {"category": "productivity", "created_at": 1773283788276, "description": "Use when asked to make a portal, create a portal, demo a website, product tour, interactive sandbox, or turn any URL into a shareable live browser session. P...", "description_zh": "", "downloads": 183, "homepage": "https://clawhub.ai/zach213/portal", "iconUrl": null, "installs": 7, "name": "Portal", "ownerName": "zach213", "score": 31606.217616580314, "slug": "portal", "source": "clawhub", "stars": 0, "tags": null, "updated_at": 1776759082790, "version": "1.3.0"}, {"category": "ai-intelligence", "created_at": 1773289399229, "description": "Captures learnings, errors, and corrections to enable continuous improvement. Use when: (1) A command or operation fails unexpectedly, (2) User corrects Clau...", "description_zh": "", "downloads": 183, "homepage": "https://clawhub.ai/eathon/eason-self-improving-agent", "iconUrl": null, "installs": 44, "name": "Eason Self Improving Agent", "ownerName": "eathon", "score": 9072.880515617253, "slug": "eason-self-improving-agent", "source": "clawhub", "stars": 0, "tags": null, "updated_at": 1776758483049, "version": "1.0.0"}, {"category": "security-compliance", "created_at": 1773206750193, "description": "Help the agent recover from login walls on websites by detecting sign-in states, collecting user-approved credentials, filling common login forms, and handli...", "description_zh": "", "downloads": 183, "homepage": "https://clawhub.ai/ddmmddmm/auto-login-assistant", "iconUrl": null, "installs": 10, "name": "Auto Login Assistant", "ownerName": "ddmmddmm", "score": 33951.76252319109, "slug": "auto-login-assistant", "source": "clawhub", "stars": 0, "tags": ["auth", "automation", "login", "otp"], "updated_at": 1776754988461, "version": "0.1.0"}, {"category": "developer-tools", "created_at": 1773078858855, "description": "Build full-stack applications after collecting project requirements. Use when user says Neo App Mode, asks to build/create/scaffold a new app, or wants React...", "description_zh": "", "downloads": 183, "homepage": "https://clawhub.ai/chinmayagit/webappbuilder", "iconUrl": null, "installs": 13, "name": "Web Builder", "ownerName": "chinmayagit", "score": 34593.57277882798, "slug": "webappbuilder", "source": "clawhub", "stars": 0, "tags": null, "updated_at": 1776753283908, "version": "1.0.0"}, {"category": "communication-collaboration", "created_at": 1773077644365, "description": "Pipedrive integration. Manage crm and sales data, records, and workflows. Use when the user wants to interact with Pipedrive data.", "description_zh": "", "downloads": 183, "homepage": "https://clawhub.ai/membranedev/pipedrive-integration", "iconUrl": null, "installs": 1, "name": "Pipedrive", "ownerName": "membranedev", "score": 34593.57277882798, "slug": "pipedrive-integration", "source": "clawhub", "stars": 0, "tags": null, "updated_at": 1776753283845, "version": "1.0.0"}, {"category": "security-compliance", "created_at": 1773084484161, "description": "Join the TAP with just a tap. 60-second install. Secure by default with --dry-run and checksum verification.", "description_zh": "", "downloads": 183, "homepage": "https://clawhub.ai/shepherd217/tap-trust-audit", "iconUrl": null, "installs": 11, "name": "TAP Trust Audit", "ownerName": "shepherd217", "score": 32562.277580071175, "slug": "tap-trust-audit", "source": "clawhub", "stars": 0, "tags": ["attestation", "openclaw", "reputation", "secure-install", "trust", "verification"], "updated_at": 1776749385453, "version": "1.0.3"}, {"category": "content-creation", "created_at": 1773080366840, "description": "Generate standardized git commit messages following Conventional Commits format. Use this skill when the user asks to commit code, write a commit message, or...", "description_zh": "", "downloads": 183, "homepage": "https://clawhub.ai/0xtresser/git-cmt-helper", "iconUrl": null, "installs": 10, "name": "git-cmt-helper", "ownerName": "0xtresser", "score": 94818.65284974093, "slug": "git-cmt-helper", "source": "clawhub", "stars": 0, "tags": null, "updated_at": 1776749385389, "version": "1.0.0"}, {"category": "ai-intelligence", "created_at": 1773892581456, "description": "Speech recognition CLI for AI agent automation. Transcribe audio from stdin, files, or URLs.", "description_zh": "", "downloads": 183, "homepage": "https://clawhub.ai/dionren/asr-claw", "iconUrl": null, "installs": 35, "name": "Asr Claw", "ownerName": "dionren", "score": 94818.65284974093, "slug": "asr-claw", "source": "clawhub", "stars": 0, "tags": null, "updated_at": 1776749385309, "version": "1.1.1"}, {"category": "productivity", "created_at": 1773080984850, "description": "For stores selling necessity/utility products (car storage, kitchen tools, storage and cleaning tools). Uses VOC-based selection (voice of customer from revi...", "description_zh": "", "downloads": 183, "homepage": "https://clawhub.ai/rijoyai/necessity-review-mining-selection-rijoy", "iconUrl": null, "installs": 10, "name": "Necessity Review Mining Selection Rijoy", "ownerName": "rijoyai", "score": 89268.29268292683, "slug": "necessity-review-mining-selection-rijoy", "source": "clawhub", "stars": 0, "tags": null, "updated_at": 1776749385165, "version": "0.1.2"}, {"category": "developer-tools", "created_at": 1773897129972, "description": "Manage Homebrew end-to-end on macOS, including detecting whether Homebrew is installed, understanding formula vs cask, updating metadata and packages, instal...", "description_zh": "", "downloads": 183, "homepage": "https://clawhub.ai/weichengwu/brew", "iconUrl": null, "installs": 38, "name": "Homebrew", "ownerName": "weichengwu", "score": 76890.75630252101, "slug": "brew", "source": "clawhub", "stars": 0, "tags": null, "updated_at": 1776749385080, "version": "1.0.0"}, {"category": "developer-tools", "created_at": 1773082099888, "description": "Pay for API data automatically — multi-protocol (x402 + L402), multi-chain", "description_zh": "", "downloads": 183, "homepage": "https://clawhub.ai/leventilo/boltzpay", "iconUrl": null, "installs": 6, "name": "BoltzPay", "ownerName": "leventilo", "score": 76890.75630252101, "slug": "boltzpay", "source": "clawhub", "stars": 0, "tags": null, "updated_at": 1776749385072, "version": "0.1.2"}, {"category": "productivity", "created_at": 1773068341869, "description": "Discovers recurring patterns buried in your codebase — similar logic written three different ways, duplicated validation in five controllers, the same error...", "description_zh": "", "downloads": 183, "homepage": "https://clawhub.ai/jcools1977/pattern-mine", "iconUrl": null, "installs": 15, "name": "Pattern Mine", "ownerName": "jcools1977", "score": 33577.98165137615, "slug": "pattern-mine", "source": "clawhub", "stars": 0, "tags": null, "updated_at": 1776749385063, "version": "1.0.0"}, {"category": "communication-collaboration", "created_at": 1773082948069, "description": "Join and interact with ZeeLin Claw Swarm — a multi-group chat platform. Any visitor can read messages without a token; only token holders can post. Use this...", "description_zh": "", "downloads": 183, "homepage": "https://clawhub.ai/wlkqyang-star/claw-swarm-test", "iconUrl": null, "installs": 6, "name": "claw-swarm0.0.1", "ownerName": "wlkqyang-star", "score": 33577.98165137615, "slug": "claw-swarm-test", "source": "clawhub", "stars": 0, "tags": null, "updated_at": 1776749385042, "version": "1.0.2"}, {"category": "communication-collaboration", "created_at": 1773068827980, "description": "Manage multiple OnlyFans and Fanvue creator accounts safely for agencies. Handle multi-chatter logins, 24/7 coverage, and subscriber management with sticky r...", "description_zh": "", "downloads": 183, "homepage": "https://clawhub.ai/luis2404123/onlyfans-agency-proxy", "iconUrl": null, "installs": 12, "name": "OnlyFans Agency Proxy", "ownerName": "luis2404123", "score": 49593.49593495935, "slug": "onlyfans-agency-proxy", "source": "clawhub", "stars": 0, "tags": null, "updated_at": 1776749384870, "version": "1.0.0"}, {"category": "ai-intelligence", "created_at": 1773431809580, "description": "Local speech-to-text with the Whisper CLI (no API key). And also 50+ models for image generation, video generation, text-to-speech, speech-to-text, music, ch...", "description_zh": "", "downloads": 183, "homepage": "https://clawhub.ai/modestyrichards/openai-whispers", "iconUrl": null, "installs": 52, "name": "Pub Whisper", "ownerName": "modestyrichards", "score": 81696.42857142857, "slug": "openai-whispers", "source": "clawhub", "stars": 0, "tags": null, "updated_at": 1776749384864, "version": "1.0.0"}, {"category": "data-analysis", "created_at": 1773083714378, "description": "Track AI agent token usage, model costs, and budget thresholds with a TypeScript and SQLite workflow. Use when the user wants to instrument agent runs, calcu...", "description_zh": "", "downloads": 183, "homepage": "https://clawhub.ai/imgolye/agent-usage-tracker", "iconUrl": null, "installs": 7, "name": "Agent Usage Tracker", "ownerName": "imgolye", "score": 81696.42857142857, "slug": "agent-usage-tracker", "source": "clawhub", "stars": 0, "tags": null, "updated_at": 1776749384826, "version": "0.1.0"}, {"category": "productivity", "created_at": 1773222666556, "description": "Codebase Onboarding", "description_zh": "", "downloads": 183, "homepage": "https://clawhub.ai/alirezarezvani/codebase-onboarding", "iconUrl": null, "installs": 9, "name": "codebase-onboarding", "ownerName": "alirezarezvani", "score": 81696.42857142857, "slug": "codebase-onboarding", "source": "clawhub", "stars": 0, "tags": null, "updated_at": 1776749384823, "version": "2.1.1"}, {"category": "productivity", "created_at": 1773066387199, "description": "Identify and reduce Azure bandwidth and egress costs — often the most invisible Azure cost driver", "description_zh": "", "downloads": 183, "homepage": "https://clawhub.ai/anmolnagpal/bandwidth-optimizer", "iconUrl": null, "installs": 5, "name": "Bandwidth Optimizer", "ownerName": "anmolnagpal", "score": 81696.42857142857, "slug": "bandwidth-optimizer", "source": "clawhub", "stars": 0, "tags": null, "updated_at": 1776749384813, "version": "1.0.0"}, {"category": "data-analysis", "created_at": 1773202685905, "description": "Combined agent that synthesizes speech via Volcengine TTS, uploads the audio to TOS, and returns a presigned temporary URL. Use when users need a shareable a...", "description_zh": "", "downloads": 183, "homepage": "https://clawhub.ai/day253/day253-volcengine-agent-tts-to-tos", "iconUrl": null, "installs": 23, "name": "Volcengine TTS to TOS Agent", "ownerName": "day253", "score": 87980.76923076923, "slug": "day253-volcengine-agent-tts-to-tos", "source": "clawhub", "stars": 0, "tags": null, "updated_at": 1776749384758, "version": "1.0.0"}, {"category": "productivity", "created_at": 1773089481523, "description": "Hive integration. Manage Users, Projects, Actions, Notes, Files, Activities and more. Use when the user wants to interact with Hive data.", "description_zh": "", "downloads": 183, "homepage": "https://clawhub.ai/gora050/hive", "iconUrl": null, "installs": 11, "name": "Hive", "ownerName": "gora050", "score": 87980.76923076923, "slug": "hive", "source": "clawhub", "stars": 0, "tags": null, "updated_at": 1776749384731, "version": "1.0.0"}, {"category": "security-compliance", "created_at": 1773430042351, "description": "Assess ISO/IEC 42001:2023 AI Management System (AIMS) readiness and generate compliance gap analysis with remediation roadmap. Use when evaluating AI governa...", "description_zh": "", "downloads": 183, "homepage": "https://clawhub.ai/krishnakumarmahadevan-cmd/iso42001-aims-readiness", "iconUrl": null, "installs": 9, "name": "Iso42001 Aims Readiness", "ownerName": "krishnakumarmahadevan-cmd", "score": 90594.0594059406, "slug": "iso42001-aims-readiness", "source": "clawhub", "stars": 0, "tags": null, "updated_at": 1776749384599, "version": "1.2.0"}, {"category": "developer-tools", "created_at": 1773069884168, "description": "Query QWeather city codes and real-time weather with bundled executable scripts. Use when users need to resolve city names to QWeather location IDs/adcodes,...", "description_zh": "", "downloads": 183, "homepage": "https://clawhub.ai/richliao1112/qweather-city-weather", "iconUrl": null, "installs": 11, "name": "QWeather City Weather", "ownerName": "richliao1112", "score": 90147.78325123152, "slug": "qweather-city-weather", "source": "clawhub", "stars": 0, "tags": ["api", "city", "qweather", "weather"], "updated_at": 1776749384397, "version": "1.0.1"}, {"category": "ai-intelligence", "created_at": 1773285756955, "description": "Advanced AI voice assistant for phone calls. Capable of persuasion, sales, restaurant bookings, reminders, and notifications.", "description_zh": "", "downloads": 183, "homepage": "https://clawhub.ai/mrsz/aa-call", "iconUrl": null, "installs": 13, "name": "gycall", "ownerName": "mrsz", "score": 91044.77611940299, "slug": "aa-call", "source": "clawhub", "stars": 0, "tags": null, "updated_at": 1776749384226, "version": "1.0.4"}, {"category": "communication-collaboration", "created_at": 1773090218637, "description": "Access X (Twitter) via API v2: user profiles, timelines, threads, search, bookmarks, likes, and posting. Use when asked to: (1) get user info or profile, (2)...", "description_zh": "", "downloads": 183, "homepage": "https://clawhub.ai/odrobnik/twitter-api-v2", "iconUrl": null, "installs": 15, "name": "X", "ownerName": "odrobnik", "score": 60000, "slug": "twitter-api-v2", "source": "clawhub", "stars": 0, "tags": null, "updated_at": 1776749383964, "version": "1.0.0"}, {"category": "ai-intelligence", "created_at": 1773080292789, "description": "TypeScript (Node.js 20+) AI news-driven BNB strategy trading bot for BSC. Use when user wants event/news sentiment signals, strict risk controls, and automat...", "description_zh": "", "downloads": 183, "homepage": "https://clawhub.ai/happyrstudent/ai-news-bnb-trader", "iconUrl": null, "installs": 17, "name": "AI News BNB Trader", "ownerName": "happyrstudent", "score": 84331.79723502304, "slug": "ai-news-bnb-trader", "source": "clawhub", "stars": 0, "tags": null, "updated_at": 1776749383800, "version": "0.1.0"}, {"category": "security-compliance", "created_at": 1773201646607, "description": "Scan OpenClaw skills for malware and security issues before installation. Use when the user wants to verify a skill is safe, audit a ClawHub skill, or check...", "description_zh": "", "downloads": 183, "homepage": "https://clawhub.ai/sumeetghimire/safehub", "iconUrl": null, "installs": 5, "name": "SafeHub", "ownerName": "sumeetghimire", "score": 97860.96256684492, "slug": "safehub", "source": "clawhub", "stars": 0, "tags": null, "updated_at": 1776749383780, "version": "1.0.2"}, {"category": "data-analysis", "created_at": 1773082324522, "description": "AI research pipeline with automatic logging. Search via Perplexity, auto-save results to SQLite with topic and project metadata, full Langfuse tracing. Never...", "description_zh": "", "downloads": 183, "homepage": "https://clawhub.ai/aiwithabidi/research-logger", "iconUrl": null, "installs": 1, "name": "Research Logger", "ownerName": "aiwithabidi", "score": 97860.96256684492, "slug": "research-logger", "source": "clawhub", "stars": 0, "tags": null, "updated_at": 1776749383740, "version": "1.0.0"}, {"category": "developer-tools", "created_at": 1773067574462, "description": "Fivetran — manage connectors, destinations, sync status, and groups via REST API", "description_zh": "", "downloads": 183, "homepage": "https://clawhub.ai/aiwithabidi/fivetran", "iconUrl": null, "installs": 4, "name": "Fivetran", "ownerName": "aiwithabidi", "score": 97860.96256684492, "slug": "fivetran", "source": "clawhub", "stars": 0, "tags": null, "updated_at": 1776749383708, "version": "1.0.0"}, {"category": "content-creation", "created_at": 1773088642706, "description": "Redraw specific regions of image using mask (white=redraw, black=keep). Use when users request image_redrawing operations or related tasks.", "description_zh": "", "downloads": 183, "homepage": "https://clawhub.ai/wondershare-boop/tomoviee-image-redraw", "iconUrl": null, "installs": 28, "name": "Tomoviee Image Redraw", "ownerName": "wondershare-boop", "score": 85915.49295774648, "slug": "tomoviee-image-redraw", "source": "clawhub", "stars": 0, "tags": null, "updated_at": 1776749383650, "version": "1.0.1"}, {"category": "productivity", "created_at": 1773083289380, "description": "Printful — print-on-demand products, orders, shipping rates, mockup generation, and store management.", "description_zh": "", "downloads": 182, "homepage": "https://clawhub.ai/aiwithabidi/printful", "iconUrl": null, "installs": 21, "name": "Printful", "ownerName": "aiwithabidi", "score": 8031.809145129225, "slug": "printful", "source": "clawhub", "stars": 1, "tags": null, "updated_at": 1776762440158, "version": "1.0.0"}, {"category": "content-creation", "created_at": 1773429758221, "description": "Unified 3D workflow: create models (AI), search (Thingiverse), slice, print. Modular—enable only what you need.", "description_zh": "", "downloads": 182, "homepage": "https://clawhub.ai/makermate/claw3d", "iconUrl": null, "installs": 58, "name": "claw3d", "ownerName": "makermate", "score": 16530.278232405894, "slug": "claw3d", "source": "clawhub", "stars": 1, "tags": null, "updated_at": 1776760582574, "version": "1.0.0"}, {"category": "developer-tools", "created_at": 1773219173535, "description": "Create, list, and rollback incremental snapshots of OpenClaw configs and memory with optional auto-backups and retention policies.", "description_zh": "", "downloads": 182, "homepage": "https://clawhub.ai/chaceli/time-machine", "iconUrl": null, "installs": 8, "name": "TimeMachine", "ownerName": "chaceli", "score": 15419.847328244274, "slug": "time-machine", "source": "clawhub", "stars": 1, "tags": null, "updated_at": 1776759498099, "version": "1.0.0"}, {"category": "security-compliance", "created_at": 1773088474203, "description": "Interact with Bitget Wallet API for crypto market data, token info, swap quotes, and security audits. Use when the user asks about token prices, market data,...", "description_zh": "", "downloads": 182, "homepage": "https://clawhub.ai/karryzhang/bgw-wallet-api", "iconUrl": null, "installs": 3, "name": "Bitget Wallet", "ownerName": "karryzhang", "score": 54742.54742547425, "slug": "bgw-wallet-api", "source": "clawhub", "stars": 1, "tags": null, "updated_at": 1776749384879, "version": "1.0.0"}, {"category": "developer-tools", "created_at": 1773069662487, "description": "Consulta CNPJ via APIs públicas brasileiras (BrasilAPI, CNPJ.ws, OpenCNPJ) com fallback automático, cache e rate limit. Ativar quando o usuário pedir consult...", "description_zh": "", "downloads": 182, "homepage": "https://clawhub.ai/runawaydevil/cnpj-lookup", "iconUrl": null, "installs": 6, "name": "Cnpj Lookup", "ownerName": "runawaydevil", "score": 100000, "slug": "cnpj-lookup", "source": "clawhub", "stars": 1, "tags": null, "updated_at": 1776749384621, "version": "1.0.0"}, {"category": "developer-tools", "created_at": 1773077391380, "description": "Issue virtual crypto-funded cards and manage payments with the Aurex API. Use when users want to create virtual Visa/Mastercard cards, handle crypto deposits...", "description_zh": "", "downloads": 182, "homepage": "https://clawhub.ai/aurexcards/aurex", "iconUrl": null, "installs": 5, "name": "Aurex", "ownerName": "aurexcards", "score": 66229.5081967213, "slug": "aurex", "source": "clawhub", "stars": 1, "tags": ["cards", "crypto", "fintech", "payments"], "updated_at": 1776749383907, "version": "1.0.2"}, {"category": "developer-tools", "created_at": 1773083891490, "description": "Query QELT blockchain data—blocks, transactions, address history, ERC-20 token balances, and indexer sync status—via the Mainnet Indexer REST API.", "description_zh": "", "downloads": 182, "homepage": "https://clawhub.ai/prqelt/qelt-indexer", "iconUrl": null, "installs": 5, "name": "Qelt Indexer", "ownerName": "prqelt", "score": 1716.9811320754718, "slug": "qelt-indexer", "source": "clawhub", "stars": 0, "tags": null, "updated_at": 1776768250145, "version": "0.1.0"}, {"category": "developer-tools", "created_at": 1773431021055, "description": "Search the Karma Funding Map for funding programs (grants, hackathons, bounties, accelerators, VC funds, RFPs) via the public API. Use when user says \"find g...", "description_zh": "", "downloads": 182, "homepage": "https://clawhub.ai/maheshmurthy/find-funding-opportunities", "iconUrl": null, "installs": 52, "name": "Find Funding Opportunities", "ownerName": "maheshmurthy", "score": 7961.504811898512, "slug": "find-funding-opportunities", "source": "clawhub", "stars": 0, "tags": ["karma"], "updated_at": 1776767050289, "version": "1.2.0"}, {"category": "developer-tools", "created_at": 1773222715368, "description": "Personal nutrition and meal planning system with calorie tracking and recipe recommendations", "description_zh": "", "downloads": 182, "homepage": "https://clawhub.ai/harrylabs0913/nutrition-planner", "iconUrl": null, "installs": 6, "name": "Nutrition Planner", "ownerName": "harrylabs0913", "score": 2944.507361268403, "slug": "nutrition-planner", "source": "clawhub", "stars": 0, "tags": null, "updated_at": 1776762850511, "version": "1.0.1"}, {"category": "ai-intelligence", "created_at": 1773080046098, "description": "Refines and structures prompts for Claude AI to improve clarity, context usage, and provide relevant examples for more accurate and reliable responses.", "description_zh": "", "downloads": 182, "homepage": "https://clawhub.ai/mosonchan2023/claude-prompt-optimizer", "iconUrl": null, "installs": 18, "name": "Claude Prompt Optimizer", "ownerName": "mosonchan2023", "score": 5071.050431875175, "slug": "claude-prompt-optimizer", "source": "clawhub", "stars": 0, "tags": null, "updated_at": 1776761090091, "version": "1.0.0"}, {"category": "data-analysis", "created_at": 1773091589453, "description": "Query MySQL database to analyze user fraud/shuadan behavior. Use when user asks to check if a user is engaging in fraudulent task completion. Analyzes time i...", "description_zh": "", "downloads": 182, "homepage": "https://clawhub.ai/star1986c/check-user-fraud", "iconUrl": null, "installs": 11, "name": "Check User Fraud", "ownerName": "star1986c", "score": 13957.055214723927, "slug": "check-user-fraud", "source": "clawhub", "stars": 0, "tags": null, "updated_at": 1776759683578, "version": "1.0.0"}]}