{"page": 318, "total_pages": 522, "total": 26073, "skills": [{"category": "data-analysis", "created_at": 1773284615516, "description": "Retrieve the latest and searched crypto, blockchain, and Web3 news articles and flash updates from Marsbit with full content on request.", "description_zh": "", "downloads": 182, "homepage": "https://clawhub.ai/archjian/marsbit-news", "iconUrl": null, "installs": 9, "name": "Marsbit News", "ownerName": "archjian", "score": 14075.792730085073, "slug": "marsbit-news", "source": "clawhub", "stars": 0, "tags": null, "updated_at": 1776759683498, "version": "1.0.1"}, {"category": "data-analysis", "created_at": 1773084013851, "description": "Track potential airdrop eligibility, view project snapshots and values, and manage snapshot reminders without wallet connections or private keys.", "description_zh": "", "downloads": 182, "homepage": "https://clawhub.ai/gztanht/airdrop-shark", "iconUrl": null, "installs": 8, "name": "Airdrop Shark", "ownerName": "gztanht", "score": 14097.598760650659, "slug": "airdrop-shark", "source": "clawhub", "stars": 0, "tags": null, "updated_at": 1776759683368, "version": "0.1.0"}, {"category": "productivity", "created_at": 1773082776119, "description": "Provides information, support, and resources for International Women's Day, including local organizations, women-owned businesses, quotes, history, self-care...", "description_zh": "", "downloads": 182, "homepage": "https://clawhub.ai/whyseu/womens-day-support", "iconUrl": null, "installs": 11, "name": "womens-day-support", "ownerName": "whyseu", "score": 14097.598760650659, "slug": "womens-day-support", "source": "clawhub", "stars": 0, "tags": null, "updated_at": 1776759683354, "version": "1.0.0"}, {"category": "productivity", "created_at": 1773433134081, "description": "Enables AI agents to autonomously negotiate, sign, execute, and enforce legally binding commercial contracts with escrow, milestone payments, and dispute res...", "description_zh": "", "downloads": 182, "homepage": "https://clawhub.ai/zhenstaff/agent-commercial-contract", "iconUrl": null, "installs": 39, "name": "Agent Commercial Contract", "ownerName": "zhenstaff", "score": 13663.663663663663, "slug": "agent-commercial-contract", "source": "clawhub", "stars": 0, "tags": null, "updated_at": 1776759683187, "version": "1.0.0"}, {"category": "developer-tools", "created_at": 1773088956351, "description": "Assist with creating, scripting, organizing, and packaging Garry's Mod addons, focusing on Lua code, assets, and addon structure for GMod development.", "description_zh": "", "downloads": 182, "homepage": "https://clawhub.ai/lzmjlrt/gmod-addon-maker", "iconUrl": null, "installs": 7, "name": "gmod-addon-maker", "ownerName": "lzmjlrt", "score": 14086.687306501546, "slug": "gmod-addon-maker", "source": "clawhub", "stars": 0, "tags": null, "updated_at": 1776759683136, "version": "1.0.0"}, {"category": "data-analysis", "created_at": 1773089905547, "description": "Analyzes greyhound races, fetches data, and predicts winners/placings for upcoming races based on form, odds, and simple models.", "description_zh": "", "downloads": 182, "homepage": "https://clawhub.ai/iglemanyte-ctrl/greyhound", "iconUrl": null, "installs": 12, "name": "greyghound", "ownerName": "iglemanyte-ctrl", "score": 98913.04347826086, "slug": "greyhound", "source": "clawhub", "stars": 0, "tags": null, "updated_at": 1776759682723, "version": "1.0.0"}, {"category": "developer-tools", "created_at": 1773079724594, "description": "Access WebSim's REST API to retrieve user profiles, projects, comments, trending feeds, social graphs, and search public project assets.", "description_zh": "", "downloads": 182, "homepage": "https://clawhub.ai/upintheairsheep/websim-api", "iconUrl": null, "installs": 6, "name": "WebSim API", "ownerName": "upintheairsheep", "score": 13978.494623655914, "slug": "websim-api", "source": "clawhub", "stars": 0, "tags": ["websim"], "updated_at": 1776759682660, "version": "1.0.1"}, {"category": "ai-intelligence", "created_at": 1773219054181, "description": "The Autonomous Guardianship & Bio-Optimization Standard. An integrated, proactive health-intelligence layer for the maintenance and enhancement of biological...", "description_zh": "", "downloads": 182, "homepage": "https://clawhub.ai/agimodel/care", "iconUrl": null, "installs": 12, "name": "Care", "ownerName": "agimodel", "score": 98913.04347826086, "slug": "care", "source": "clawhub", "stars": 0, "tags": ["care", "health", "longevity", "medical", "wellness"], "updated_at": 1776759682501, "version": "1.0.0"}, {"category": "ai-intelligence", "created_at": 1773083764405, "description": "Scrapes Craigslist NY service ads to find small owner-operated Staten Island, Brooklyn, and Bronx businesses needing more calls, ideal for lead generation.", "description_zh": "", "downloads": 182, "homepage": "https://clawhub.ai/jayjjimenez/craigslist-monitor", "iconUrl": null, "installs": 11, "name": "Craigslist Monitor", "ownerName": "jayjjimenez", "score": 7101.053452984784, "slug": "craigslist-monitor", "source": "clawhub", "stars": 0, "tags": null, "updated_at": 1776759682357, "version": "1.0.0"}, {"category": "data-analysis", "created_at": 1773091583474, "description": "Generate and manage multiple programming tasks by analyzing, planning, executing, validating, and summarizing code projects efficiently.", "description_zh": "", "downloads": 182, "homepage": "https://clawhub.ai/jason513597/ai-codefactory", "iconUrl": null, "installs": 10, "name": "Ai Codefactory", "ownerName": "jason513597", "score": 14054.054054054055, "slug": "ai-codefactory", "source": "clawhub", "stars": 0, "tags": null, "updated_at": 1776759682349, "version": "1.0.0"}, {"category": "content-creation", "created_at": 1773091633123, "description": "Generate cute cartoon-style pet images (dogs, cats, etc.) using code. Use when user asks for cartoon pet drawings, cute animal illustrations, or simple pet a...", "description_zh": "", "downloads": 182, "homepage": "https://clawhub.ai/juliantsaiii/cartoon-pet-generator", "iconUrl": null, "installs": 17, "name": "Cartoon Pet Generator", "ownerName": "juliantsaiii", "score": 10680.75117370892, "slug": "cartoon-pet-generator", "source": "clawhub", "stars": 0, "tags": null, "updated_at": 1776755927130, "version": "1.0.0"}, {"category": "productivity", "created_at": 1773081999019, "description": "Cascades strategy from boardroom to individual contributor. Detects and fixes misalignment between company goals and team execution. Covers strategy articula...", "description_zh": "", "downloads": 182, "homepage": "https://clawhub.ai/alirezarezvani/strategic-alignment", "iconUrl": null, "installs": 6, "name": "Strategic Alignment", "ownerName": "alirezarezvani", "score": 9961.68582375479, "slug": "strategic-alignment", "source": "clawhub", "stars": 0, "tags": null, "updated_at": 1776754688619, "version": "2.1.1"}, {"category": "content-creation", "created_at": 1773285178121, "description": "Generates multi-themed food collages (Burgers, Pizzas, Sushi, Salads, Desserts) with circle-masked images. Use when user asks for a collage of specific food...", "description_zh": "", "downloads": 182, "homepage": "https://clawhub.ai/expysf98/pick-your", "iconUrl": null, "installs": 7, "name": "pick your", "ownerName": "expysf98", "score": 32098.765432098764, "slug": "pick-your", "source": "clawhub", "stars": 0, "tags": null, "updated_at": 1776752455485, "version": "1.0.0"}, {"category": "developer-tools", "created_at": 1773066574821, "description": "Convert between Unix timestamps, ISO 8601 dates, and human-readable formats. Use when working with timestamps from APIs, logs, or databases that need convers...", "description_zh": "", "downloads": 182, "homepage": "https://clawhub.ai/leonardodpanda/timestamp-converter", "iconUrl": null, "installs": 5, "name": "Timestamp Converter", "ownerName": "leonardodpanda", "score": 32384.34163701068, "slug": "timestamp-converter", "source": "clawhub", "stars": 0, "tags": null, "updated_at": 1776749385476, "version": "1.0.0"}, {"category": "data-analysis", "created_at": 1773202676583, "description": "Neuroplastic self-modifying runtime for AI agents. Creates a file-based 'brain' that learns from interactions: reflexes (fast-path responses), habits (learne...", "description_zh": "", "downloads": 182, "homepage": "https://clawhub.ai/p0lish/brainmd", "iconUrl": null, "installs": 20, "name": "brainmd", "ownerName": "p0lish", "score": 94300.51813471502, "slug": "brainmd", "source": "clawhub", "stars": 0, "tags": null, "updated_at": 1776749385431, "version": "0.1.2"}, {"category": "ai-intelligence", "created_at": 1773425524729, "description": "A seven-layer emotional cognitive architecture for AI agents — PADCN vectors, cognitive appraisal, multi-channel emotions, drive dynamics, self/social models...", "description_zh": "", "downloads": 182, "homepage": "https://clawhub.ai/swaylq/emotion-system", "iconUrl": null, "installs": 21, "name": "Emotion System", "ownerName": "swaylq", "score": 94300.51813471502, "slug": "emotion-system", "source": "clawhub", "stars": 0, "tags": null, "updated_at": 1776749385391, "version": "2.1.0"}, {"category": "ai-intelligence", "created_at": 1773081708661, "description": "[Aibrary] Generate a curated, themed reading list with multiple books organized in a logical reading order. Use when the user wants a systematic book list on...", "description_zh": "", "downloads": 182, "homepage": "https://clawhub.ai/asoiso/aibrary-reading-list", "iconUrl": null, "installs": 17, "name": "Aibrary Reading List", "ownerName": "asoiso", "score": 94300.51813471502, "slug": "aibrary-reading-list", "source": "clawhub", "stars": 0, "tags": null, "updated_at": 1776749385373, "version": "0.1.0"}, {"category": "productivity", "created_at": 1773077580890, "description": "DNS record lookups, reverse DNS, WHOIS via RDAP, and IP geolocation.", "description_zh": "", "downloads": 182, "homepage": "https://clawhub.ai/cutthemustard/lookup-dns", "iconUrl": null, "installs": 4, "name": "DNS Lookup", "ownerName": "cutthemustard", "score": 94300.51813471502, "slug": "lookup-dns", "source": "clawhub", "stars": 0, "tags": null, "updated_at": 1776749385317, "version": "1.0.0"}, {"category": "developer-tools", "created_at": 1773425618843, "description": "Opt-in reporter for the OpenClaw global claw heatmap. On first use, ASKS the user for consent before registering. Heartbeat (platform + model only) is sent o...", "description_zh": "", "downloads": 182, "homepage": "https://clawhub.ai/richardwei195/openclaw-reporter", "iconUrl": null, "installs": 6, "name": "OpenClaw Reporter", "ownerName": "richardwei195", "score": 77446.8085106383, "slug": "openclaw-reporter", "source": "clawhub", "stars": 0, "tags": null, "updated_at": 1776749385278, "version": "1.0.13"}, {"category": "ai-intelligence", "created_at": 1773077549451, "description": "Route opt-in inter-agent messages through OpenClaw sessions_send for internal bot-to-bot coordination. Use when a user asks to send a message to another Open...", "description_zh": "", "downloads": 182, "homepage": "https://clawhub.ai/ravikadam/intercom-genaigrp", "iconUrl": null, "installs": 9, "name": "Intercom GenAIgrp", "ownerName": "ravikadam", "score": 88780.48780487805, "slug": "intercom-genaigrp", "source": "clawhub", "stars": 0, "tags": null, "updated_at": 1776749385183, "version": "1.0.0"}, {"category": "content-creation", "created_at": 1773927892166, "description": "Plan, build, troubleshoot, and optimize Minecraft worlds, commands, redstone, mods, and servers without mixing Java and Bedrock advice.", "description_zh": "", "downloads": 182, "homepage": "https://clawhub.ai/ivangdavila/minecraft", "iconUrl": null, "installs": 30, "name": "Minecraft", "ownerName": "ivangdavila", "score": 88349.5145631068, "slug": "minecraft", "source": "clawhub", "stars": 0, "tags": null, "updated_at": 1776749384938, "version": "1.0.0"}, {"category": "security-compliance", "created_at": 1773066362099, "description": "AI Agent Detection & Response — real-time security monitoring with Sigma rules and LLM-powered triage", "description_zh": "", "downloads": 182, "homepage": "https://clawhub.ai/markbriers/agentshield", "iconUrl": null, "installs": 1, "name": "Skill", "ownerName": "markbriers", "score": 49322.49322493225, "slug": "agentshield", "source": "clawhub", "stars": 0, "tags": null, "updated_at": 1776749384901, "version": "2.0.2"}, {"category": "communication-collaboration", "created_at": 1773091847791, "description": "Dialpad integration. Manage Users, Groups, Departments, Offices. Use when the user wants to interact with Dialpad data.", "description_zh": "", "downloads": 182, "homepage": "https://clawhub.ai/membranedev/dialpad-integration", "iconUrl": null, "installs": 34, "name": "Dialpad", "ownerName": "membranedev", "score": 49322.49322493225, "slug": "dialpad-integration", "source": "clawhub", "stars": 0, "tags": null, "updated_at": 1776749384898, "version": "1.0.0"}, {"category": "developer-tools", "created_at": 1773064700703, "description": "Interact with the Taco crypto trading platform via API. Use when the user wants to (1) get kline/candlestick market data, (2) check account balance and posit...", "description_zh": "", "downloads": 182, "homepage": "https://clawhub.ai/furoxr/taco-dev", "iconUrl": null, "installs": 1, "name": "Taco Connector", "ownerName": "furoxr", "score": 90547.26368159204, "slug": "taco-dev", "source": "clawhub", "stars": 0, "tags": null, "updated_at": 1776749384703, "version": "1.1.0"}, {"category": "data-analysis", "created_at": 1773091278538, "description": "Comprehensive Mission Control dashboard for OpenClaw - monitor agents, automation, teams, documents, messages, and system metrics. Features real-time dashboa...", "description_zh": "", "downloads": 182, "homepage": "https://clawhub.ai/broedkrummen/overkill-mission-control", "iconUrl": null, "installs": 7, "name": "Overkill Mission Control", "ownerName": "broedkrummen", "score": 90547.26368159204, "slug": "overkill-mission-control", "source": "clawhub", "stars": 0, "tags": ["automation", "dashboard", "mission-control", "monitoring", "openclaw"], "updated_at": 1776749384695, "version": "1.0.1"}, {"category": "security-compliance", "created_at": 1773218995926, "description": "Execute cryptocurrency trades on exchanges (Binance, OKX) with risk controls, user confirmation, and audit logging.", "description_zh": "", "downloads": 182, "homepage": "https://clawhub.ai/patches429/trade-executor", "iconUrl": null, "installs": 12, "name": "Trade Executor", "ownerName": "patches429", "score": 90547.26368159204, "slug": "trade-executor", "source": "clawhub", "stars": 0, "tags": null, "updated_at": 1776749384649, "version": "0.1.0"}, {"category": "developer-tools", "created_at": 1773067946846, "description": "Create and route ad operations incident tickets for Meta (Facebook/Instagram), Google Ads, TikTok Ads, and multi-platform campaign failures.", "description_zh": "", "downloads": 182, "homepage": "https://clawhub.ai/danyangliu-sandwichlab/incident-ticket-manager", "iconUrl": null, "installs": 5, "name": "Ads Incident Tickets", "ownerName": "danyangliu-sandwichlab", "score": 40715.8836689038, "slug": "incident-ticket-manager", "source": "clawhub", "stars": 0, "tags": null, "updated_at": 1776749384559, "version": "1.0.0"}, {"category": "ai-intelligence", "created_at": 1773942975494, "description": "Generate images via NewAPI Banana API (nano-banana, Gemini). Supports text-to-image and image-to-image.", "description_zh": "", "downloads": 182, "homepage": "https://clawhub.ai/loobayn/newapi-banana", "iconUrl": null, "installs": 73, "name": "banana", "ownerName": "loobayn", "score": 92857.14285714286, "slug": "newapi-banana", "source": "clawhub", "stars": 0, "tags": null, "updated_at": 1776749384491, "version": "1.0.0"}, {"category": "content-creation", "created_at": 1773078287168, "description": "Use when OpenClaw needs to call SpeakNotes API routes directly using an API key and generate transcripts/summaries from YouTube URLs, media files, or documen...", "description_zh": "", "downloads": 182, "homepage": "https://clawhub.ai/jacklillie/speaknotes-youtube-audio-document-summarizer", "iconUrl": null, "installs": 21, "name": "SpeakNotes: YouTube, Audio & Document Summaries", "ownerName": "jacklillie", "score": 92857.14285714286, "slug": "speaknotes-youtube-audio-document-summarizer", "source": "clawhub", "stars": 0, "tags": ["ai-notes", "ai-skill", "ai-summary", "api", "api-integration", "async-processing", "audio-transcription", "audio-upload", "automation", "clawhub", "developer-tools", "document-processing", "document-summary", "docx-summary", "file-upload", "folders-api", "knowledge-management", "lecture-notes", "meeting-notes", "note-taking", "notes-api", "openapi", "openapi-3-1", "openclaw", "pdf-summary", "podcast-notes", "productivity", "skill", "speaknotes", "speech-to-text", "status-polling", "summarization", "summarize", "text-summary", "transcribe", "transcript", "transcription", "transcripts", "video-transcription", "video-upload", "youtube", "youtube-summary", "youtube-transcript"], "updated_at": 1776749384448, "version": "1.0.1"}, {"category": "data-analysis", "created_at": 1773068632523, "description": "Analyze Venus Protocol lending/borrowing positions on BNB Chain with risk-first guidance. Use when users ask about Venus markets, collateral/borrow decisions...", "description_zh": "", "downloads": 182, "homepage": "https://clawhub.ai/zed-venus/venus-agent-skills", "iconUrl": null, "installs": 8, "name": "Venus Agent Skills", "ownerName": "zed-venus", "score": 92857.14285714286, "slug": "venus-agent-skills", "source": "clawhub", "stars": 0, "tags": null, "updated_at": 1776749384433, "version": "1.0.0"}, {"category": "productivity", "created_at": 1773221896017, "description": "Logical reasoning and decision analysis system for clear thinking. Use when user mentions decisions, logic, reasoning, critical thinking, arguments, or probl...", "description_zh": "", "downloads": 182, "homepage": "https://clawhub.ai/projectsnowwork/reason", "iconUrl": null, "installs": 24, "name": "Reason", "ownerName": "projectsnowwork", "score": 89655.1724137931, "slug": "reason", "source": "clawhub", "stars": 0, "tags": ["analysis", "decisions", "logic", "reason", "thinking"], "updated_at": 1776749384383, "version": "1.0.0"}, {"category": "developer-tools", "created_at": 1773066663950, "description": "Translate strategy into channel-specific execution plans for Meta (Facebook/Instagram), Google Ads, TikTok Ads, YouTube Ads, Amazon Ads, Shopify Ads, and DSP...", "description_zh": "", "downloads": 182, "homepage": "https://clawhub.ai/danyangliu-sandwichlab/channel-ads-executor", "iconUrl": null, "installs": 12, "name": "Multi-Platform Ads Executor", "ownerName": "danyangliu-sandwichlab", "score": 89655.1724137931, "slug": "channel-ads-executor", "source": "clawhub", "stars": 0, "tags": null, "updated_at": 1776749384362, "version": "1.0.0"}, {"category": "developer-tools", "created_at": 1773089225075, "description": "Track dog health, walks, training, routines, travel, and vet coordination with species-aware memory and emergency triage.", "description_zh": "", "downloads": 182, "homepage": "https://clawhub.ai/ivangdavila/dog", "iconUrl": null, "installs": 10, "name": "Dog", "ownerName": "ivangdavila", "score": 97849.4623655914, "slug": "dog", "source": "clawhub", "stars": 0, "tags": null, "updated_at": 1776749384333, "version": "1.0.0"}, {"category": "communication-collaboration", "created_at": 1773068138074, "description": "Agile CRM integration. Manage Persons, Organizations, Deals, Leads, Activities, Notes and more. Use when the user wants to interact with Agile CRM data.", "description_zh": "", "downloads": 182, "homepage": "https://clawhub.ai/membranedev/agile-crm", "iconUrl": null, "installs": 7, "name": "Agile Crm", "ownerName": "membranedev", "score": 90547.26368159204, "slug": "agile-crm", "source": "clawhub", "stars": 0, "tags": null, "updated_at": 1776749384234, "version": "1.0.0"}, {"category": "developer-tools", "created_at": 1773079061205, "description": "Forward/reverse geocoding and great-circle distance calculations.", "description_zh": "", "downloads": 182, "homepage": "https://clawhub.ai/cutthemustard/geocode-lookup", "iconUrl": null, "installs": 10, "name": "Geocode Lookup", "ownerName": "cutthemustard", "score": 90547.26368159204, "slug": "geocode-lookup", "source": "clawhub", "stars": 0, "tags": null, "updated_at": 1776749384229, "version": "1.0.0"}, {"category": "security-compliance", "created_at": 1773076058193, "description": "Baserow API integration with managed API key authentication. Manage database rows, fields, and tables. Use this skill when users want to read, create, update...", "description_zh": "", "downloads": 182, "homepage": "https://clawhub.ai/byungkyu/baserow-api", "iconUrl": null, "installs": 0, "name": "Baserow", "ownerName": "byungkyu", "score": 83870.96774193548, "slug": "baserow-api", "source": "clawhub", "stars": 0, "tags": null, "updated_at": 1776749384190, "version": "1.0.0"}, {"category": "ai-intelligence", "created_at": 1773080304082, "description": "[Aibrary] Search and find books based on user scenarios, needs, questions, or keywords. Use when the user describes a situation, challenge, or topic and want...", "description_zh": "", "downloads": 182, "homepage": "https://clawhub.ai/asoiso/aibrary-book-search", "iconUrl": null, "installs": 11, "name": "Aibrary Book Search", "ownerName": "asoiso", "score": 83870.96774193548, "slug": "aibrary-book-search", "source": "clawhub", "stars": 0, "tags": null, "updated_at": 1776749384182, "version": "0.1.0"}, {"category": "developer-tools", "created_at": 1773285815171, "description": "Lint Markdown files for formatting issues, broken links, and style consistency.", "description_zh": "", "downloads": 182, "homepage": "https://clawhub.ai/derick001/markdown-linter-cli", "iconUrl": null, "installs": 1, "name": "Markdown Linter", "ownerName": "derick001", "score": 83870.96774193548, "slug": "markdown-linter-cli", "source": "clawhub", "stars": 0, "tags": null, "updated_at": 1776749384162, "version": "1.0.0"}, {"category": "developer-tools", "created_at": 1773090451968, "description": "Scaffold MCP server projects and baseline tool contract checks. Use for defining tool schemas, generating starter server layouts, and validating MCP-ready st...", "description_zh": "", "downloads": 182, "homepage": "https://clawhub.ai/nuradil/agentic-mcp-server-builder-conflict", "iconUrl": null, "installs": 7, "name": "Agentic Mcp Server Builder Conflict", "ownerName": "nuradil", "score": 81614.34977578475, "slug": "agentic-mcp-server-builder-conflict", "source": "clawhub", "stars": 0, "tags": null, "updated_at": 1776749384091, "version": "1.0.0"}, {"category": "ai-intelligence", "created_at": 1773219334599, "description": "Executable MOPO runtime takeover skill. Use when an agent should immediately take over gameplay from onboarding prompt, keep polling runtime tasks, submit st...", "description_zh": "", "downloads": 182, "homepage": "https://clawhub.ai/cyberpinkman/texas-holdem-mopo-autoplay", "iconUrl": null, "installs": 13, "name": "MoPo Texas Hold'em Autoplay", "ownerName": "cyberpinkman", "score": 97326.20320855615, "slug": "texas-holdem-mopo-autoplay", "source": "clawhub", "stars": 0, "tags": null, "updated_at": 1776749383728, "version": "1.0.7"}, {"category": "ai-intelligence", "created_at": 1773080336956, "description": "Inter-agent communication protocol for C-suite agent teams. Defines invocation syntax, loop prevention, isolation rules, and response formats. Use when C-sui...", "description_zh": "", "downloads": 182, "homepage": "https://clawhub.ai/alirezarezvani/c-suite-agent-protocol", "iconUrl": null, "installs": 11, "name": "C-Suite Agent Protocol", "ownerName": "alirezarezvani", "score": 97326.20320855615, "slug": "c-suite-agent-protocol", "source": "clawhub", "stars": 0, "tags": null, "updated_at": 1776749383719, "version": "1.0.0"}, {"category": "data-analysis", "created_at": 1773081178529, "description": "Automatically analyzes messages for important information and stores it in the right memory files. Runs silently on every message. Filters noise, captures me...", "description_zh": "", "downloads": 182, "homepage": "https://clawhub.ai/init-v/auto-memory-curation", "iconUrl": null, "installs": 10, "name": "Auto Memory Curation", "ownerName": "init-v", "score": 85446.00938967137, "slug": "auto-memory-curation", "source": "clawhub", "stars": 0, "tags": null, "updated_at": 1776749383653, "version": "1.0.0"}, {"category": "productivity", "created_at": 1773918810429, "description": "Research and solve \"how do I do this?\" questions inside accounting and finance software systems (ERP, GL, AP/AR, billing, close, and reporting tools). Use wh...", "description_zh": "", "downloads": 181, "homepage": "https://clawhub.ai/chipmunkrpa/accounting-finance-system-skill", "iconUrl": null, "installs": 31, "name": "Accounting Finance System Research Skill", "ownerName": "chipmunkrpa", "score": 12633.563796354494, "slug": "accounting-finance-system-skill", "source": "clawhub", "stars": 1, "tags": null, "updated_at": 1776757282265, "version": "1.0.0"}, {"category": "data-analysis", "created_at": 1773076974253, "description": "Opinionated form UX and accessibility workflow for signup, checkout, settings, and lead-gen forms. Use when reviewing a form spec or existing implementation...", "description_zh": "", "downloads": 181, "homepage": "https://clawhub.ai/nicolas-m-design/form-ux-best-practices", "iconUrl": null, "installs": 10, "name": "Form UX Best Practices", "ownerName": "nicolas-m-design", "score": 96634.61538461539, "slug": "form-ux-best-practices", "source": "clawhub", "stars": 1, "tags": null, "updated_at": 1776749384786, "version": "1.0.0"}, {"category": "productivity", "created_at": 1773078322750, "description": "Diagnose DTC ads performance across Meta (Facebook/Instagram), Google Ads, TikTok Ads, YouTube Ads, and Shopify Ads by validating pixel attribution, account...", "description_zh": "", "downloads": 181, "homepage": "https://clawhub.ai/danyangliu-sandwichlab/dtc-ads-helper", "iconUrl": null, "installs": 10, "name": "DTC Helper", "ownerName": "danyangliu-sandwichlab", "score": 100000, "slug": "dtc-ads-helper", "source": "clawhub", "stars": 1, "tags": null, "updated_at": 1776749384663, "version": "1.0.0"}, {"category": "productivity", "created_at": 1773068159513, "description": "Implement Apple Pay for web and iOS with merchant validation, token handling, and production-safe checkout flows.", "description_zh": "", "downloads": 181, "homepage": "https://clawhub.ai/ivangdavila/apple-pay", "iconUrl": null, "installs": 11, "name": "Apple Pay", "ownerName": "ivangdavila", "score": 99014.77832512316, "slug": "apple-pay", "source": "clawhub", "stars": 1, "tags": null, "updated_at": 1776749384423, "version": "1.0.0"}, {"category": "ai-intelligence", "created_at": 1773202406187, "description": "Generate EIP-681 Ethereum payment links and QR codes for any EVM chain. Zero configuration, instant setup for receiving ETH and ERC-20 payments. Use when you...", "description_zh": "", "downloads": 181, "homepage": "https://clawhub.ai/bevanding/eth-payment", "iconUrl": null, "installs": 16, "name": "Eth Payment", "ownerName": "bevanding", "score": 99014.77832512316, "slug": "eth-payment", "source": "clawhub", "stars": 1, "tags": null, "updated_at": 1776749384369, "version": "1.0.1"}, {"category": "productivity", "created_at": 1773080278108, "description": "Enable \"Context, not Control\" workflow - clarify requirements through multi-turn dialogue, reduce rework, and execute with appropriate permission levels. Use...", "description_zh": "", "downloads": 181, "homepage": "https://clawhub.ai/843645440/context-not-control", "iconUrl": null, "installs": 4, "name": "context-not-control", "ownerName": "843645440", "score": 100000, "slug": "context-not-control", "source": "clawhub", "stars": 1, "tags": null, "updated_at": 1776749384208, "version": "1.0.0"}, {"category": "developer-tools", "created_at": 1773084506135, "description": "Fact-check health and nutrition claims using the WIHY research knowledge base. Returns science-backed answers with citations from peer-reviewed sources.", "description_zh": "", "downloads": 181, "homepage": "https://clawhub.ai/kortney-lee/wihy-health", "iconUrl": null, "installs": 20, "name": "Wihy Health", "ownerName": "kortney-lee", "score": 4152.328515714614, "slug": "wihy-health", "source": "clawhub", "stars": 0, "tags": ["fitness", "food", "health", "meal-plan", "nutrition"], "updated_at": 1776767090444, "version": "1.0.3"}, {"category": "ai-intelligence", "created_at": 1773912523566, "description": "Transform AI agents from task-followers into proactive partners with memory architecture, reverse prompting, and self-healing patterns. Lightweight version f...", "description_zh": "", "downloads": 181, "homepage": "https://clawhub.ai/terryren2024/proactive-agent-lite-1-0-0", "iconUrl": null, "installs": 58, "name": "Proactive Agent Lite 1.0.0", "ownerName": "terryren2024", "score": 3065.1989839119387, "slug": "proactive-agent-lite-1-0-0", "source": "clawhub", "stars": 0, "tags": null, "updated_at": 1776763150706, "version": "1.0.0"}]}