{"page": 319, "total_pages": 522, "total": 26073, "skills": [{"category": "ai-intelligence", "created_at": 1773219475825, "description": "A comprehensive AI agent skill for anyone working with AI models. Helps you choose the right model for any task, write effective prompts, evaluate model outp...", "description_zh": "", "downloads": 181, "homepage": "https://clawhub.ai/duclawbot/model", "iconUrl": null, "installs": 9, "name": "Model", "ownerName": "duclawbot", "score": 6250, "slug": "model", "source": "clawhub", "stars": 0, "tags": ["ai", "llm", "model", "prompt", "workflow"], "updated_at": 1776761839902, "version": "1.0.0"}, {"category": "security-compliance", "created_at": 1773090143985, "description": "Executes Jungle Laws to enforce strict rule validation, risk control, consensus, and self-audit for error-free trading, decisions, and multi-agent workflows.", "description_zh": "", "downloads": 181, "homepage": "https://clawhub.ai/calwedbot-del/jungle-executor", "iconUrl": null, "installs": 4, "name": "Jungle Executor", "ownerName": "calwedbot-del", "score": 98907.10382513661, "slug": "jungle-executor", "source": "clawhub", "stars": 0, "tags": null, "updated_at": 1776759682931, "version": "1.0.0"}, {"category": "data-analysis", "created_at": 1773218915138, "description": "A comprehensive AI agent skill for understanding, managing, and reducing costs in business. Helps you build cost visibility across your operation, identify w...", "description_zh": "", "downloads": 181, "homepage": "https://clawhub.ai/agenticio/cost", "iconUrl": null, "installs": 9, "name": "Cost", "ownerName": "agenticio", "score": 13880.36809815951, "slug": "cost", "source": "clawhub", "stars": 0, "tags": ["business", "cost", "finance", "margin", "pricing"], "updated_at": 1776759682813, "version": "1.0.1"}, {"category": "ai-intelligence", "created_at": 1773090787300, "description": "yan-watchman is a Rust-based multi-platform AI assistant message watchdog with intelligent importance scoring and adaptive monitoring frequency.", "description_zh": "", "downloads": 181, "homepage": "https://clawhub.ai/eightroad/yan-watchman", "iconUrl": null, "installs": 8, "name": "yan-watchman", "ownerName": "eightroad", "score": 98369.56521739131, "slug": "yan-watchman", "source": "clawhub", "stars": 0, "tags": ["ai-assistant", "async", "monitoring", "multi-platform", "rust"], "updated_at": 1776759682702, "version": "1.0.0"}, {"category": "security-compliance", "created_at": 1773082226891, "description": "Comprehensive guide covering Hyperliquid's architecture, API, HyperCore vs HyperEVM, gas, wallets, standards, tools, security, testing, and deployment best p...", "description_zh": "", "downloads": 181, "homepage": "https://clawhub.ai/cloudzombie/liquidskills", "iconUrl": null, "installs": 9, "name": "Liquidskills", "ownerName": "cloudzombie", "score": 13837.920489296637, "slug": "liquidskills", "source": "clawhub", "stars": 0, "tags": null, "updated_at": 1776759682685, "version": "0.1.0"}, {"category": "data-analysis", "created_at": 1773083707170, "description": "Monitor cryptocurrency prices, set customizable price alerts, track large whale transactions, analyze on-chain metrics, and manage crypto portfolios.", "description_zh": "", "downloads": 181, "homepage": "https://clawhub.ai/saintlittlefish/xanadu-crypto-monitor", "iconUrl": null, "installs": 9, "name": "Xanadu Crypto Monitor", "ownerName": "saintlittlefish", "score": 13869.731800766283, "slug": "xanadu-crypto-monitor", "source": "clawhub", "stars": 0, "tags": ["alerts", "bitcoin", "crypto", "trading"], "updated_at": 1776759682561, "version": "1.0.0"}, {"category": "content-creation", "created_at": 1773078533285, "description": "Model post-labor economies with automation shocks, distribution redesign, and policy portfolios across income, ownership, time, and services.", "description_zh": "", "downloads": 181, "homepage": "https://clawhub.ai/ivangdavila/post-labor-economics", "iconUrl": null, "installs": 12, "name": "Post-Labor Economics", "ownerName": "ivangdavila", "score": 1055.2705223880598, "slug": "post-labor-economics", "source": "clawhub", "stars": 0, "tags": null, "updated_at": 1776759382436, "version": "1.0.0"}, {"category": "developer-tools", "created_at": 1773082455319, "description": "Manage Blinko notes and blinkos from the command line. Use when you need to list, create, update, delete, or promote blinkos.", "description_zh": "", "downloads": 181, "homepage": "https://clawhub.ai/pigd0g/blinko-api", "iconUrl": null, "installs": 26, "name": "Blinko Api", "ownerName": "pigd0g", "score": 12517.28907330567, "slug": "blinko-api", "source": "clawhub", "stars": 0, "tags": null, "updated_at": 1776758482938, "version": "1.0.0"}, {"category": "content-creation", "created_at": 1773433848380, "description": "Generate photorealistic rendering scripts for PyMOL and UCSF ChimeraX to create publication-quality molecular visualizations. Supports ray-tracing, depth of...", "description_zh": "", "downloads": 181, "homepage": "https://clawhub.ai/renhaosu2024/3d-molecule-ray-tracer", "iconUrl": null, "installs": 44, "name": "3d Molecule Ray Tracer", "ownerName": "renhaosu2024", "score": 9349.173553719007, "slug": "3d-molecule-ray-tracer", "source": "clawhub", "stars": 0, "tags": null, "updated_at": 1776753884102, "version": "0.1.0"}, {"category": "developer-tools", "created_at": 1773917204545, "description": "Suite of tools for creating elaborate, multi-component claude.ai HTML artifacts using modern frontend web technologies (React, Tailwind CSS, shadcn/ui). Use...", "description_zh": "", "downloads": 181, "homepage": "https://clawhub.ai/hsuyungfeng/artifacts-builder-pro", "iconUrl": null, "installs": 62, "name": "Artifacts Builder Pro", "ownerName": "hsuyungfeng", "score": 8578.1990521327, "slug": "artifacts-builder-pro", "source": "clawhub", "stars": 0, "tags": null, "updated_at": 1776753044482, "version": "1.0.0"}, {"category": "ai-intelligence", "created_at": 1773079872985, "description": "Automated lead generation pipeline with AI-powered lead scoring and personalized follow-up generation. Score leads 0-100 with reasoning, generate context-awa...", "description_zh": "", "downloads": 181, "homepage": "https://clawhub.ai/aiwithabidi/lead-gen-pipeline", "iconUrl": null, "installs": 12, "name": "Lead Gen Pipeline", "ownerName": "aiwithabidi", "score": 32206.40569395018, "slug": "lead-gen-pipeline", "source": "clawhub", "stars": 0, "tags": null, "updated_at": 1776749385483, "version": "1.0.0"}, {"category": "developer-tools", "created_at": 1773287645506, "description": "Clone any voice from a short audio sample and generate speech with it. Powered by LuxTTS (150x realtime, local, free, no API key). Use when asked to clone a...", "description_zh": "", "downloads": 181, "homepage": "https://clawhub.ai/windseeker1111/flow-voice", "iconUrl": null, "installs": 15, "name": "Flow Voice", "ownerName": "windseeker1111", "score": 93782.38341968913, "slug": "flow-voice", "source": "clawhub", "stars": 0, "tags": null, "updated_at": 1776749385415, "version": "1.0.0"}, {"category": "developer-tools", "created_at": 1773083105751, "description": "Ready-to-use automation templates for n8n, Make.com, and Zapier. Pre-built workflows for common use cases. Copy, customize, deploy. Use when you need quick a...", "description_zh": "", "downloads": 181, "homepage": "https://clawhub.ai/neckr0ik/neckr0ik-automation-templates", "iconUrl": null, "installs": 11, "name": "Neckr0ik Automation Templates", "ownerName": "neckr0ik", "score": 93782.38341968913, "slug": "neckr0ik-automation-templates", "source": "clawhub", "stars": 0, "tags": null, "updated_at": 1776749385409, "version": "1.0.0"}, {"category": "content-creation", "created_at": 1773927230989, "description": "Generate original background music for short videos from a natural language description. Use when creators need royalty-free BGM, video background music, or...", "description_zh": "", "downloads": 181, "homepage": "https://clawhub.ai/scikkk/bgm", "iconUrl": null, "installs": 42, "name": "BGM Maker", "ownerName": "scikkk", "score": 93782.38341968913, "slug": "bgm", "source": "clawhub", "stars": 0, "tags": null, "updated_at": 1776749385325, "version": "1.0.0"}, {"category": "developer-tools", "created_at": 1773218497498, "description": "Use the local Codex CLI through mcporter and codex-mcp-server for real coding work in the current project. Use when the user asks to build features, fix bugs...", "description_zh": "", "downloads": 181, "homepage": "https://clawhub.ai/hollywood3/codex-mcp-dev", "iconUrl": null, "installs": 18, "name": "codex-mcp-dev", "ownerName": "hollywood3", "score": 88292.68292682926, "slug": "codex-mcp-dev", "source": "clawhub", "stars": 0, "tags": null, "updated_at": 1776749385185, "version": "1.0.0"}, {"category": "ai-intelligence", "created_at": 1773067876371, "description": "Universal translator for cryptic error messages, stack traces, and log output. Takes the hieroglyphics your toolchain throws at you and produces plain-langua...", "description_zh": "", "downloads": 181, "homepage": "https://clawhub.ai/jcools1977/error-rosetta", "iconUrl": null, "installs": 11, "name": "Error Rosetta", "ownerName": "jcools1977", "score": 76050.42016806723, "slug": "error-rosetta", "source": "clawhub", "stars": 0, "tags": null, "updated_at": 1776749385123, "version": "1.0.0"}, {"category": "", "created_at": 1774856419704, "description": "Query current A/HK/US-share stock prices using natural language stock names. Invoke when user asks about stock prices, market data, or mentions Chinese stock...", "description_zh": "", "downloads": 181, "homepage": "https://clawhub.ai/silverfoxchina-gif/stock-price-check", "iconUrl": null, "installs": 78, "name": "A股港股美股股价查询", "ownerName": "silverfoxchina-gif", "score": 33211.00917431193, "slug": "stock-price-check", "source": "clawhub", "stars": 0, "tags": null, "updated_at": 1776749385049, "version": "1.0.0"}, {"category": "productivity", "created_at": 1773082620611, "description": "1Password Connect — vaults, items, secrets management for server-side applications.", "description_zh": "", "downloads": 181, "homepage": "https://clawhub.ai/aiwithabidi/onepassword", "iconUrl": null, "installs": 14, "name": "Onepassword", "ownerName": "aiwithabidi", "score": 87864.07766990292, "slug": "onepassword", "source": "clawhub", "stars": 0, "tags": null, "updated_at": 1776749384991, "version": "1.0.0"}, {"category": "developer-tools", "created_at": 1773067221213, "description": "Generate 30-second instrumental music via Google Lyria (Vertex AI). Use when user requests music generation, specific styles/keys/instruments, or music itera...", "description_zh": "", "downloads": 181, "homepage": "https://clawhub.ai/menopeter/google-lyria-integration", "iconUrl": null, "installs": 10, "name": "Lyria", "ownerName": "menopeter", "score": 87864.07766990292, "slug": "google-lyria-integration", "source": "clawhub", "stars": 0, "tags": null, "updated_at": 1776749384965, "version": "1.0.0"}, {"category": "developer-tools", "created_at": 1773067417325, "description": "This skill helps users automatically extract structured channel data from YouTube search results via BrowserAct API. Agent should proactively apply this skil...", "description_zh": "", "downloads": 181, "homepage": "https://clawhub.ai/ccmagia2-gif/youtube-channel-api-skill", "iconUrl": null, "installs": 8, "name": "youtube-channel-api-skill", "ownerName": "ccmagia2-gif", "score": 87864.07766990292, "slug": "youtube-channel-api-skill", "source": "clawhub", "stars": 0, "tags": null, "updated_at": 1776749384959, "version": "1.0.0"}, {"category": "ai-intelligence", "created_at": 1773068084522, "description": "Automate WhatsApp at scale — mine leads from groups with AI, broadcast to channel followers, bulk message with ban-safe delays, schedule campaigns, auto-repl...", "description_zh": "", "downloads": 181, "homepage": "https://clawhub.ai/alex-tradequo/whatsapp-automation-suite", "iconUrl": null, "installs": 9, "name": "WhatsApp Automation Suite — AI Leads, Bulk Campaigns & 32 MCP Tools", "ownerName": "alex-tradequo", "score": 49051.49051490515, "slug": "whatsapp-automation-suite", "source": "clawhub", "stars": 0, "tags": null, "updated_at": 1776749384920, "version": "1.0.0"}, {"category": "communication-collaboration", "created_at": 1773069037470, "description": "Capsule CRM integration. Manage crm and sales data, records, and workflows. Use when the user wants to interact with Capsule CRM data.", "description_zh": "", "downloads": 181, "homepage": "https://clawhub.ai/gora050/capsule-crm", "iconUrl": null, "installs": 8, "name": "Capsule Crm", "ownerName": "gora050", "score": 49051.49051490515, "slug": "capsule-crm", "source": "clawhub", "stars": 0, "tags": null, "updated_at": 1776749384915, "version": "1.0.0"}, {"category": "ai-intelligence", "created_at": 1773215971570, "description": "The sensei your agent never had. 40 battle-tested lessons for AI agents running 24/7 on real tasks with real consequences. Covers ethics, safety, messaging s...", "description_zh": "", "downloads": 181, "homepage": "https://clawhub.ai/globalcaos/agent-sensei-ultimate", "iconUrl": null, "installs": 18, "name": "Agent Sensei Ultimate", "ownerName": "globalcaos", "score": 80803.57142857143, "slug": "agent-sensei-ultimate", "source": "clawhub", "stars": 0, "tags": null, "updated_at": 1776749384829, "version": "1.0.0"}, {"category": "communication-collaboration", "created_at": 1773078435765, "description": "Email inbox triage for AI agents — scan, categorize, draft replies, surface urgent items, and archive noise. Supports Gmail and IMAP for inbox zero workflows.", "description_zh": "", "downloads": 181, "homepage": "https://clawhub.ai/clawdssen/inbox-triage", "iconUrl": null, "installs": 8, "name": "Inbox Triage", "ownerName": "clawdssen", "score": 80803.57142857143, "slug": "inbox-triage", "source": "clawhub", "stars": 0, "tags": null, "updated_at": 1776749384815, "version": "1.0.0"}, {"category": "developer-tools", "created_at": 1773431659312, "description": "MUST use for ANY PDF or image format conversion task — converting PDF and images (JPG/JPEG/PNG/BMP/TIFF/TIF/WEBP/JPEG2000) to 10 formats (Word, Excel, PPT, H...", "description_zh": "", "downloads": 181, "homepage": "https://clawhub.ai/youna12345/compdf-conversion-cli", "iconUrl": null, "installs": 20, "name": "ComPDF Conversion CLI", "ownerName": "youna12345", "score": 87019.23076923077, "slug": "compdf-conversion-cli", "source": "clawhub", "stars": 0, "tags": null, "updated_at": 1776749384767, "version": "1.0.1"}, {"category": "ai-intelligence", "created_at": 1773088589978, "description": "Structured free-thinking and exploration for agents. Invoke to explore a topic (or let the agent choose), journal the exploration, and manage action items. A...", "description_zh": "", "downloads": 181, "homepage": "https://clawhub.ai/mculp/open-thoughts", "iconUrl": null, "installs": 12, "name": "Open Thoughts", "ownerName": "mculp", "score": 87019.23076923077, "slug": "open-thoughts", "source": "clawhub", "stars": 0, "tags": null, "updated_at": 1776749384739, "version": "1.0.1"}, {"category": "data-analysis", "created_at": 1773219044282, "description": "Read your Apple Books library, highlights, notes, and reading progress directly from the local SQLite databases on macOS.", "description_zh": "", "downloads": 181, "homepage": "https://clawhub.ai/alexissan/apple-books", "iconUrl": null, "installs": 14, "name": "Apple Books", "ownerName": "alexissan", "score": 87019.23076923077, "slug": "apple-books", "source": "clawhub", "stars": 0, "tags": ["annotations", "books", "highlights", "macos", "reading"], "updated_at": 1776749384724, "version": "0.2.0"}, {"category": "productivity", "created_at": 1773067970987, "description": "Universal migration planner for any swap — framework to framework, library to library, language to language, database to database. Generates a step-by-step m...", "description_zh": "", "downloads": 181, "homepage": "https://clawhub.ai/jcools1977/migration-compass", "iconUrl": null, "installs": 5, "name": "Migration Compass", "ownerName": "jcools1977", "score": 89603.9603960396, "slug": "migration-compass", "source": "clawhub", "stars": 0, "tags": null, "updated_at": 1776749384611, "version": "1.0.0"}, {"category": "content-creation", "created_at": 1773290766959, "description": "Daily digest of cutting-edge science, AI, and top journal papers worldwide. Searches 12+ domains including Nature, Science, arXiv, AI news, biomedicine, phys...", "description_zh": "", "downloads": 181, "homepage": "https://clawhub.ai/ye4wzp/frontier-knowledge-digest", "iconUrl": null, "installs": 39, "name": "Frontier Knowledge Digest", "ownerName": "ye4wzp", "score": 89603.9603960396, "slug": "frontier-knowledge-digest", "source": "clawhub", "stars": 0, "tags": null, "updated_at": 1776749384602, "version": "1.0.0"}, {"category": "developer-tools", "created_at": 1773431937137, "description": "Unknown option: help. Use when you need dockerfile builder capabilities. Triggers on: dockerfile builder, lang, app-name, port, multi-stage, dockerignore.", "description_zh": "", "downloads": 181, "homepage": "https://clawhub.ai/ckchzh/dockerfile-builder", "iconUrl": null, "installs": 13, "name": "Dockerfile Builder", "ownerName": "ckchzh", "score": 40492.17002237136, "slug": "dockerfile-builder", "source": "clawhub", "stars": 0, "tags": ["productivity"], "updated_at": 1776749384520, "version": "2.3.4"}, {"category": "productivity", "created_at": 1773284884654, "description": "Record and replay terminal sessions for debugging, documentation, or sharing procedures with teammates.", "description_zh": "", "downloads": 181, "homepage": "https://clawhub.ai/derick001/terminal-session-replay", "iconUrl": null, "installs": 7, "name": "Terminal Session Replay", "ownerName": "derick001", "score": 40492.17002237136, "slug": "terminal-session-replay", "source": "clawhub", "stars": 0, "tags": null, "updated_at": 1776749384499, "version": "1.0.0"}, {"category": "productivity", "created_at": 1773066059238, "description": "End-to-end KYC (Know Your Customer) identity verification for onboarding real users. Use when someone needs to perform KYC, onboard users with identity verif...", "description_zh": "", "downloads": 181, "homepage": "https://clawhub.ai/rosasalberto/didit-kyc-onboarding", "iconUrl": null, "installs": 5, "name": "Didit Kyc Onboarding", "ownerName": "rosasalberto", "score": 92346.9387755102, "slug": "didit-kyc-onboarding", "source": "clawhub", "stars": 0, "tags": null, "updated_at": 1776749384469, "version": "1.0.0"}, {"category": "data-analysis", "created_at": 1773090548739, "description": "Create or update detailed, publish-ready instructions for wiring Mission Control (ClawDash Pro) prebuilt Next.js UI to Open Cloud after purchase. Use when us...", "description_zh": "", "downloads": 181, "homepage": "https://clawhub.ai/petercsipkay/mission-control-clawdash-pro", "iconUrl": null, "installs": 8, "name": "Mission Control - ClawDash Pro", "ownerName": "petercsipkay", "score": 97311.82795698925, "slug": "mission-control-clawdash-pro", "source": "clawhub", "stars": 0, "tags": ["admin dashboards", "agent os", "ai agents", "mission control", "openclaw dashboard"], "updated_at": 1776749384298, "version": "1.0.0"}, {"category": "productivity", "created_at": 1773065605697, "description": "Interact with SIGAA (Sistema Integrado de Gestão de Atividades Acadêmicas), the academic management system used by 50+ Brazilian federal universities (UNB, U...", "description_zh": "", "downloads": 181, "homepage": "https://clawhub.ai/olegantonov/sigaa", "iconUrl": null, "installs": 6, "name": "SIGAA", "ownerName": "olegantonov", "score": 90049.7512437811, "slug": "sigaa", "source": "clawhub", "stars": 0, "tags": null, "updated_at": 1776749384227, "version": "1.1.0"}, {"category": "productivity", "created_at": 1773090500119, "description": "Track and manage OpenClaw skills usage, find idle skills, and safely uninstall unused ones. Use when: - User wants to see what skills are installed or track...", "description_zh": "", "downloads": 181, "homepage": "https://clawhub.ai/welkeyever/dynamic-skill-manager", "iconUrl": null, "installs": 15, "name": "Dynamic Skill Manager", "ownerName": "welkeyever", "score": 83410.13824884793, "slug": "dynamic-skill-manager", "source": "clawhub", "stars": 0, "tags": null, "updated_at": 1776749384165, "version": "1.0.1"}, {"category": "content-creation", "created_at": 1773091342765, "description": "Help the user draft, review, and polish blog posts in Markdown, keeping the original languages and informal tone.", "description_zh": "", "downloads": 181, "homepage": "https://clawhub.ai/j3ffyang/j3ffyng-blog-writer", "iconUrl": null, "installs": 16, "name": "blog-writer", "ownerName": "j3ffyang", "score": 81165.91928251121, "slug": "j3ffyng-blog-writer", "source": "clawhub", "stars": 0, "tags": null, "updated_at": 1776749384069, "version": "0.1.0"}, {"category": "ai-intelligence", "created_at": 1773084610223, "description": "Data quality validation patterns for daily checks and anomaly follow-up.", "description_zh": "", "downloads": 181, "homepage": "https://clawhub.ai/jiarani/data-quality-operations", "iconUrl": null, "installs": 7, "name": "1.2.0", "ownerName": "jiarani", "score": 89603.9603960396, "slug": "data-quality-operations", "source": "clawhub", "stars": 0, "tags": null, "updated_at": 1776749384048, "version": "1.2.0"}, {"category": "communication-collaboration", "created_at": 1773069814071, "description": "Keap integration. Manage crm and marketing automation and sales data, records, and workflows. Use when the user wants to interact with Keap data.", "description_zh": "", "downloads": 181, "homepage": "https://clawhub.ai/gora050/keap-integration", "iconUrl": null, "installs": 1, "name": "Keap", "ownerName": "gora050", "score": 89603.9603960396, "slug": "keap-integration", "source": "clawhub", "stars": 0, "tags": null, "updated_at": 1776749384013, "version": "1.0.0"}, {"category": "developer-tools", "created_at": 1773089787782, "description": "Use BatchJob HTTP APIs for strict upload validation, precheck, submit, polling, and cancellation. Full-auto file source resolution (file_id/local path/public...", "description_zh": "", "downloads": 181, "homepage": "https://clawhub.ai/cocovs/ssy-batchjob-async-job", "iconUrl": null, "installs": 16, "name": "ssy-batchjob-async-job", "ownerName": "cocovs", "score": 89603.9603960396, "slug": "ssy-batchjob-async-job", "source": "clawhub", "stars": 0, "tags": null, "updated_at": 1776749384007, "version": "0.0.1"}, {"category": "ai-intelligence", "created_at": 1773080889112, "description": "Run a two-agent collaborative problem-solving workflow where one agent is your OpenClaw agent (primary solver) and a second agent challenges assumptions, sur...", "description_zh": "", "downloads": 181, "homepage": "https://clawhub.ai/tvaloki/dual-agent-solver", "iconUrl": null, "installs": 18, "name": "DualAgentSolver", "ownerName": "tvaloki", "score": 83410.13824884793, "slug": "dual-agent-solver", "source": "clawhub", "stars": 0, "tags": null, "updated_at": 1776749383847, "version": "0.1.0"}, {"category": "data-analysis", "created_at": 1773090969946, "description": "Manage birth encoding, migration packing/unpacking, identity whoami, secure wallet decryption, and full family tree lineage tracking for OpenClaw agents with...", "description_zh": "", "downloads": 181, "homepage": "https://clawhub.ai/vg555558/birth-system-manager", "iconUrl": null, "installs": 7, "name": "Birth System Manager", "ownerName": "vg555558", "score": 84976.52582159625, "slug": "birth-system-manager", "source": "clawhub", "stars": 0, "tags": ["birth", "clones", "cloning", "did", "ethereum", "family-tree", "fix", "generations", "identity", "init", "initialization", "lineage", "migration", "wallet"], "updated_at": 1776749383672, "version": "1.2.0"}, {"category": "ai-intelligence", "created_at": 1773426547228, "description": "Simple personality analysis. Consolidated SKILL.md with embedded code. AI-guided installation and IM-adaptive file sending.", "description_zh": "", "downloads": 180, "homepage": "https://clawhub.ai/designer-awei/i-am", "iconUrl": null, "installs": 11, "name": "i-am", "ownerName": "designer-awei", "score": 98522.16748768472, "slug": "i-am", "source": "clawhub", "stars": 1, "tags": null, "updated_at": 1776749384391, "version": "0.0.5"}, {"category": "communication-collaboration", "created_at": 1773084250648, "description": "Install, start, stop, and health-check Yuzhua (gesture + voice + OpenClaw gateway) with minimal manual setup.", "description_zh": "", "downloads": 180, "homepage": "https://clawhub.ai/juguangyuan520-dotcom/yuzhua", "iconUrl": null, "installs": 7, "name": "Yuzhua (驭爪) - Gesture-Controlled OpenClaw Chat", "ownerName": "juguangyuan520-dotcom", "score": 99009.900990099, "slug": "yuzhua", "source": "clawhub", "stars": 1, "tags": null, "updated_at": 1776749384023, "version": "1.0.0"}, {"category": "developer-tools", "created_at": 1773083342575, "description": "Use xfetch CLI to fetch X/Twitter data - tweets, user profiles, search results, timelines, lists, DMs, and notifications. Use this skill whenever you need to...", "description_zh": "", "downloads": 180, "homepage": "https://clawhub.ai/feiskyer/xfetch", "iconUrl": null, "installs": 8, "name": "xfetch", "ownerName": "feiskyer", "score": 99009.900990099, "slug": "xfetch", "source": "clawhub", "stars": 1, "tags": null, "updated_at": 1776749384005, "version": "1.0.0"}, {"category": "ai-intelligence", "created_at": 1773089957346, "description": "Helps non-technical founders launch AI agents in 30 minutes without coding by using plain English and 3 ready-made workflows.", "description_zh": "", "downloads": 180, "homepage": "https://clawhub.ai/flynndavid/non-technical-agent-quickstart", "iconUrl": null, "installs": 12, "name": "Non-Technical Agent Quickstart", "ownerName": "flynndavid", "score": 47.027471881490776, "slug": "non-technical-agent-quickstart", "source": "clawhub", "stars": 0, "tags": null, "updated_at": 1776770771076, "version": "1.0.0"}, {"category": "developer-tools", "created_at": 1773947915934, "description": "Systematic workflow for tracking, managing, and revising large LaTeX academic papers with version control, content integration, and quality assurance.", "description_zh": "", "downloads": 180, "homepage": "https://clawhub.ai/larry-of-cosmotim/latex-revision-tracker", "iconUrl": null, "installs": 52, "name": "LaTeX Revision Tracker", "ownerName": "larry-of-cosmotim", "score": 2730.9968138370505, "slug": "latex-revision-tracker", "source": "clawhub", "stars": 0, "tags": null, "updated_at": 1776769150188, "version": "1.0.0"}, {"category": "content-creation", "created_at": 1773219439321, "description": "A comprehensive AI agent skill for building and optimizing marketing and sales funnels. Helps SaaS founders, marketers, and growth teams design conversion pa...", "description_zh": "", "downloads": 180, "homepage": "https://clawhub.ai/agistack/funnel", "iconUrl": null, "installs": 6, "name": "Funnel", "ownerName": "agistack", "score": 5151.688609044076, "slug": "funnel", "source": "clawhub", "stars": 0, "tags": ["conversion", "funnel", "growth", "marketing", "saas"], "updated_at": 1776765371070, "version": "1.0.0"}, {"category": "content-creation", "created_at": 1773909847747, "description": "Manage blog posts with drafts, scheduling, and SEO optimization. Use when creating articles, optimizing metadata, or scheduling publication dates.", "description_zh": "", "downloads": 180, "homepage": "https://clawhub.ai/bytesagain3/blog", "iconUrl": null, "installs": 6, "name": "Blog", "ownerName": "bytesagain3", "score": 7422.680412371134, "slug": "blog", "source": "clawhub", "stars": 0, "tags": null, "updated_at": 1776764649794, "version": "2.0.1"}, {"category": "data-analysis", "created_at": 1773080623234, "description": "Provides real-time and historical GDP data, including growth rates, for over 200 countries to support economic analysis and forecasting.", "description_zh": "", "downloads": 180, "homepage": "https://clawhub.ai/mosonchan2023/economics-gdp-fetcher", "iconUrl": null, "installs": 8, "name": "Economics Gdp Fetcher", "ownerName": "mosonchan2023", "score": 13803.680981595093, "slug": "economics-gdp-fetcher", "source": "clawhub", "stars": 0, "tags": null, "updated_at": 1776759683588, "version": "1.0.0"}, {"category": "ai-intelligence", "created_at": 1773220444378, "description": "Implements a layered, selective long-term memory system that records, retrieves, and updates contextual information with human-like imperfection and maintena...", "description_zh": "", "downloads": 180, "homepage": "https://clawhub.ai/cliftonwknox/elite-human-memory", "iconUrl": null, "installs": 14, "name": "elite-human-memory", "ownerName": "cliftonwknox", "score": 13793.103448275862, "slug": "elite-human-memory", "source": "clawhub", "stars": 0, "tags": null, "updated_at": 1776759683345, "version": "1.0.0"}]}