{"page": 320, "total_pages": 522, "total": 26073, "skills": [{"category": "developer-tools", "created_at": 1773428299160, "description": "Schedule and manage cron tasks that run only on official trading days for US, China, and Hong Kong financial markets with automatic holiday sync.", "description_zh": "", "downloads": 180, "homepage": "https://clawhub.ai/constx1337/finance-cron", "iconUrl": null, "installs": 31, "name": "Finance Cron", "ownerName": "constx1337", "score": 13793.103448275862, "slug": "finance-cron", "source": "clawhub", "stars": 0, "tags": null, "updated_at": 1776759683313, "version": "1.0.1"}, {"category": "data-analysis", "created_at": 1773088809442, "description": "Search and manage your SaaS Telegram contacts, view recent messages, and update contact stages, tags, or add notes.", "description_zh": "", "downloads": 180, "homepage": "https://clawhub.ai/samuewalton/telegram-analyzer", "iconUrl": null, "installs": 11, "name": "Telegram Analyzer", "ownerName": "samuewalton", "score": 13803.680981595093, "slug": "telegram-analyzer", "source": "clawhub", "stars": 0, "tags": null, "updated_at": 1776759683005, "version": "1.0.0"}, {"category": "developer-tools", "created_at": 1773078809052, "description": "Measures OpenClaw system response times by testing stages, providing millisecond precision metrics like TTFT, TPS, and total response time.", "description_zh": "", "downloads": 180, "homepage": "https://clawhub.ai/kingofqin2026/response-speed-test", "iconUrl": null, "installs": 8, "name": "Response Speed Test", "ownerName": "kingofqin2026", "score": 97826.08695652174, "slug": "response-speed-test", "source": "clawhub", "stars": 0, "tags": null, "updated_at": 1776759682710, "version": "1.0.0"}, {"category": "security-compliance", "created_at": 1773075270102, "description": "Automates detection and auditing of shadow AI spending with risk classification, data leakage alerts, and forex-normalized departmental cost analysis.", "description_zh": "", "downloads": 180, "homepage": "https://clawhub.ai/root/audit-forensic-ai-skill", "iconUrl": null, "installs": 5, "name": "AI Forensic & Compliance Auditor", "ownerName": "root", "score": 13793.103448275862, "slug": "audit-forensic-ai-skill", "source": "clawhub", "stars": 0, "tags": [".skill.md", "agentic workflow", "ai audit", "cost optimization", "finops", "manus ai", "shadow ai", "zdr compliance"], "updated_at": 1776759682561, "version": "v2.0.1"}, {"category": "developer-tools", "created_at": 1773084782971, "description": "Story generation pipeline skill. Supports multi-episode continuous generation, graph management, AI quality check + human confirmation dual control mechanism...", "description_zh": "", "downloads": 180, "homepage": "https://clawhub.ai/hexidyg/shorts-builder", "iconUrl": null, "installs": 8, "name": "Shorts Builder", "ownerName": "hexidyg", "score": 8192.99044151115, "slug": "shorts-builder", "source": "clawhub", "stars": 0, "tags": null, "updated_at": 1776752569690, "version": "1.0.1"}, {"category": "content-creation", "created_at": 1773088414860, "description": "Helps choose the right fal.ai model before API calls. Provides quick decision matrix for video generation (text-to-video, image-to-video), image editing (obj...", "description_zh": "", "downloads": 180, "homepage": "https://clawhub.ai/phy041/phy-fal-model-selector", "iconUrl": null, "installs": 24, "name": "FAL Model Selector", "ownerName": "phy041", "score": 40089.08685968819, "slug": "phy-fal-model-selector", "source": "clawhub", "stars": 0, "tags": ["ai", "fal", "image-generation", "model-selection"], "updated_at": 1776751969712, "version": "1.0.0"}, {"category": "ai-intelligence", "created_at": 1773283775674, "description": "Schedule delayed tasks between OpenClaw agents — set reminders, chain tasks, coordinate agents on a delay. File-backed, no infra needed. NOT for cron-style r...", "description_zh": "", "downloads": 180, "homepage": "https://clawhub.ai/ktech99/async-queue", "iconUrl": null, "installs": 10, "name": "Async Queue", "ownerName": "ktech99", "score": 32028.469750889682, "slug": "async-queue", "source": "clawhub", "stars": 0, "tags": null, "updated_at": 1776749385450, "version": "1.0.6"}, {"category": "data-analysis", "created_at": 1773084785800, "description": "Monitor library book availability and get notified when books become available for borrowing. Supports Shenzhen Library and extensible for other libraries.", "description_zh": "", "downloads": 180, "homepage": "https://clawhub.ai/yszheda/skill-openclaw-library-monitor", "iconUrl": null, "installs": 16, "name": "Library Book Monitor", "ownerName": "yszheda", "score": 93264.24870466322, "slug": "skill-openclaw-library-monitor", "source": "clawhub", "stars": 0, "tags": null, "updated_at": 1776749385355, "version": "1.0.1"}, {"category": "ai-intelligence", "created_at": 1773091265745, "description": "AI meeting partner for solopreneurs and professionals. Generates pre-meeting briefs from your notes and context, captures structured meeting notes during the...", "description_zh": "", "downloads": 180, "homepage": "https://clawhub.ai/clawdssen/agentledger-meeting-assistant", "iconUrl": null, "installs": 21, "name": "Meeting Assistant", "ownerName": "clawdssen", "score": 87804.87804878049, "slug": "agentledger-meeting-assistant", "source": "clawhub", "stars": 0, "tags": null, "updated_at": 1776749385186, "version": "1.0.1"}, {"category": "productivity", "created_at": 1773221645609, "description": "Changelog Generator", "description_zh": "", "downloads": 180, "homepage": "https://clawhub.ai/alirezarezvani/changelog-generator", "iconUrl": null, "installs": 15, "name": "changelog-generator", "ownerName": "alirezarezvani", "score": 33027.522935779816, "slug": "changelog-generator", "source": "clawhub", "stars": 0, "tags": null, "updated_at": 1776749385020, "version": "2.1.1"}, {"category": "data-analysis", "created_at": 1773084377736, "description": "Free basic version that converts Notion-style task records into weekly report markdown. Reserves premium upgrade hooks for trend analysis and management summ...", "description_zh": "", "downloads": 180, "homepage": "https://clawhub.ai/wingogx/notion-db-weekly-report-generator", "iconUrl": null, "installs": 24, "name": "Notion DB Weekly Report Generator", "ownerName": "wingogx", "score": 33027.522935779816, "slug": "notion-db-weekly-report-generator", "source": "clawhub", "stars": 0, "tags": ["free", "notion", "report"], "updated_at": 1776749385014, "version": "1.0.0"}, {"category": "developer-tools", "created_at": 1773207488086, "description": "Minimal TOS smoke tests. Validate AK/SK config, list buckets, and upload/download with Volcengine TOS. Supports both tosutil CLI and tos_manage.py script.", "description_zh": "", "downloads": 180, "homepage": "https://clawhub.ai/day253/day253-volcengine-storage-tos-test", "iconUrl": null, "installs": 18, "name": "Volcengine TOS Smoke Test", "ownerName": "day253", "score": 80357.14285714286, "slug": "day253-volcengine-storage-tos-test", "source": "clawhub", "stars": 0, "tags": null, "updated_at": 1776749384844, "version": "1.0.0"}, {"category": "communication-collaboration", "created_at": 1773080618571, "description": "Run a structured 2-agent debate loop between ChatGPT (OpenAI API) and the user's own thoughts retrieved from Supabase Open Brain via MCP, iterating up to 3 r...", "description_zh": "", "downloads": 180, "homepage": "https://clawhub.ai/tvaloki/dual-agent-debate", "iconUrl": null, "installs": 12, "name": "DualAgentDebate", "ownerName": "tvaloki", "score": 86538.46153846155, "slug": "dual-agent-debate", "source": "clawhub", "stars": 0, "tags": null, "updated_at": 1776749384784, "version": "0.3.0"}, {"category": "communication-collaboration", "created_at": 1773089579975, "description": "Send and receive SMS using a local sms-gate.app instance running on Android (via Termux) or a dedicated device. Use when the user needs to send text messages...", "description_zh": "", "downloads": 180, "homepage": "https://clawhub.ai/minstn/sms-gateway", "iconUrl": null, "installs": 15, "name": "FreeSmsGateway", "ownerName": "minstn", "score": 86538.46153846155, "slug": "sms-gateway", "source": "clawhub", "stars": 0, "tags": null, "updated_at": 1776749384772, "version": "1.0.0"}, {"category": "developer-tools", "created_at": 1773084335265, "description": "Interactive terminal control via tmux for TUI apps, prompts, and long-running CLI workflows.", "description_zh": "", "downloads": 180, "homepage": "https://clawhub.ai/imbeasting/imbeasting-tmux-terminal", "iconUrl": null, "installs": 9, "name": "tmux-terminal", "ownerName": "imbeasting", "score": 86538.46153846155, "slug": "imbeasting-tmux-terminal", "source": "clawhub", "stars": 0, "tags": null, "updated_at": 1776749384737, "version": "1.0.0"}, {"category": "developer-tools", "created_at": 1773090727299, "description": "One-command bootstrap for new OpenClaw installations. Sets up workspace files, self-evolution system (.learnings + hooks + crons), and community skills. Use...", "description_zh": "", "downloads": 180, "homepage": "https://clawhub.ai/djangozh/openclaw-bootstrap", "iconUrl": null, "installs": 21, "name": "OpenClaw Bootstrap", "ownerName": "djangozh", "score": 89552.23880597015, "slug": "openclaw-bootstrap", "source": "clawhub", "stars": 0, "tags": null, "updated_at": 1776749384658, "version": "1.0.0"}, {"category": "developer-tools", "created_at": 1773066971199, "description": "Documents Followin OpenAPI endpoints for agent integration. Use when calling feed APIs, channel feeds, trending, category feeds, or integrating with Followin...", "description_zh": "", "downloads": 180, "homepage": "https://clawhub.ai/rayniubi/followin-openapi", "iconUrl": null, "installs": 6, "name": "FollowinOpenAPI", "ownerName": "rayniubi", "score": 89552.23880597015, "slug": "followin-openapi", "source": "clawhub", "stars": 0, "tags": null, "updated_at": 1776749384646, "version": "1.0.0"}, {"category": "content-creation", "created_at": 1773079719195, "description": "W.A.L.V.I.S. - AI-powered bookmark manager. Save links, text, and images from Telegram; auto-tag and summarize with AI; store on Walrus decentralized storage...", "description_zh": "", "downloads": 180, "homepage": "https://clawhub.ai/kuuga-0/walvis", "iconUrl": null, "installs": 8, "name": "WALVIS", "ownerName": "kuuga-0", "score": 89108.91089108911, "slug": "walvis", "source": "clawhub", "stars": 0, "tags": null, "updated_at": 1776749384626, "version": "1.0.0"}, {"category": "security-compliance", "created_at": 1773079836661, "description": "Audit failing GitHub Actions runs by actor ownership to expose who/workflow combinations generate the most CI noise and wasted minutes.", "description_zh": "", "downloads": 180, "homepage": "https://clawhub.ai/daniellummis/github-actions-failure-owner-audit", "iconUrl": null, "installs": 11, "name": "GitHub Actions Failure Owner Audit", "ownerName": "daniellummis", "score": 89108.91089108911, "slug": "github-actions-failure-owner-audit", "source": "clawhub", "stars": 0, "tags": null, "updated_at": 1776749384596, "version": "1.2.0"}, {"category": "developer-tools", "created_at": 1773069590260, "description": "AI-powered customer support automation using SupportForge API - customer support, help desk, ticket routing, auto-reply, automated responses, customer servic...", "description_zh": "", "downloads": 180, "homepage": "https://clawhub.ai/jbennett111/supportforge-api", "iconUrl": null, "installs": 13, "name": "supportforge-api", "ownerName": "jbennett111", "score": 91836.73469387756, "slug": "supportforge-api", "source": "clawhub", "stars": 0, "tags": null, "updated_at": 1776749384483, "version": "1.0.0"}, {"category": "productivity", "created_at": 1773066585540, "description": "Greet users in multiple languages with culturally appropriate phras>", "description_zh": "", "downloads": 180, "homepage": "https://clawhub.ai/veda1823/veda-greetings", "iconUrl": null, "installs": 7, "name": "Veda Greetings", "ownerName": "veda1823", "score": 91836.73469387756, "slug": "veda-greetings", "source": "clawhub", "stars": 0, "tags": null, "updated_at": 1776749384480, "version": "1.0.0"}, {"category": "productivity", "created_at": 1773219688104, "description": "Discover, install, update, or create the right skill when a workflow gap appears. Use when a task is repetitive, a role lacks a reliable procedure, an existi...", "description_zh": "", "downloads": 180, "homepage": "https://clawhub.ai/505768069-rgb/adaptive-skill-factory", "iconUrl": null, "installs": 11, "name": "Adaptive Skill Factory", "ownerName": "505768069-rgb", "score": 91836.73469387756, "slug": "adaptive-skill-factory", "source": "clawhub", "stars": 0, "tags": null, "updated_at": 1776749384472, "version": "1.0.0"}, {"category": "productivity", "created_at": 1773077297750, "description": "Track smoking and nicotine use, reduce consumption, or quit with neutral logs, trigger mapping, and adaptive plans.", "description_zh": "", "downloads": 180, "homepage": "https://clawhub.ai/ivangdavila/smoking", "iconUrl": null, "installs": 7, "name": "Smoking (Tracker, Logger, Quit, Reduce)", "ownerName": "ivangdavila", "score": 91836.73469387756, "slug": "smoking", "source": "clawhub", "stars": 0, "tags": null, "updated_at": 1776749384451, "version": "1.0.0"}, {"category": "data-analysis", "created_at": 1773416716272, "description": "The first CMDB governance skill for ServiceNow. Audit, remediate, and govern your CMDB from any AI agent. Health scoring, duplicate detection, relationship a...", "description_zh": "", "downloads": 180, "homepage": "https://clawhub.ai/nexecuteinc/cmdbcompass", "iconUrl": null, "installs": 12, "name": "CMDB Compass", "ownerName": "nexecuteinc", "score": 88669.95073891626, "slug": "cmdbcompass", "source": "clawhub", "stars": 0, "tags": null, "updated_at": 1776749384408, "version": "1.0.3"}, {"category": "data-analysis", "created_at": 1773434462721, "description": "Evidence of Use (EOU) patent analysis skill. Use this skill whenever the user wants to: analyze whether a product infringes a patent, generate an EOU claim c...", "description_zh": "", "downloads": 180, "homepage": "https://clawhub.ai/chaochaosz/patent-eou", "iconUrl": null, "installs": 34, "name": "patent-eou", "ownerName": "chaochaosz", "score": 88669.95073891626, "slug": "patent-eou", "source": "clawhub", "stars": 0, "tags": null, "updated_at": 1776749384378, "version": "1.0.1"}, {"category": "communication-collaboration", "created_at": 1773069355492, "description": "Attio integration. Manage crm data, records, and workflows. Use when the user wants to interact with Attio data.", "description_zh": "", "downloads": 180, "homepage": "https://clawhub.ai/membranedev/attio-integration", "iconUrl": null, "installs": 2, "name": "Attio", "ownerName": "membranedev", "score": 96774.1935483871, "slug": "attio-integration", "source": "clawhub", "stars": 0, "tags": null, "updated_at": 1776749384324, "version": "1.0.0"}, {"category": "productivity", "created_at": 1773083593169, "description": "Cross-functional what-if modeling for cascading multi-variable scenarios. Unlike single-assumption stress testing, this models compound adversity across all...", "description_zh": "", "downloads": 180, "homepage": "https://clawhub.ai/alirezarezvani/scenario-war-room", "iconUrl": null, "installs": 11, "name": "Scenario War Room", "ownerName": "alirezarezvani", "score": 96774.1935483871, "slug": "scenario-war-room", "source": "clawhub", "stars": 0, "tags": null, "updated_at": 1776749384323, "version": "2.1.1"}, {"category": "developer-tools", "created_at": 1773284227367, "description": "Talent advisor skill for AI agents, built by Artemys. Helps your human clarify career direction, build a compelling professional profile, discover relevant o...", "description_zh": "", "downloads": 180, "homepage": "https://clawhub.ai/jblue-ops/talentclaw", "iconUrl": null, "installs": 4, "name": "Talentclaw", "ownerName": "jblue-ops", "score": 89552.23880597015, "slug": "talentclaw", "source": "clawhub", "stars": 0, "tags": null, "updated_at": 1776749384261, "version": "2.0.0"}, {"category": "security-compliance", "created_at": 1773066382540, "description": "Query AV new releases, rankings, and actress info from FANZA GraphQL API. No authentication required. Supports direct curl queries and optional Discord/Teleg...", "description_zh": "", "downloads": 180, "homepage": "https://clawhub.ai/zxcnny930/avbuzz", "iconUrl": null, "installs": 7, "name": "Avbuzz", "ownerName": "zxcnny930", "score": 89552.23880597015, "slug": "avbuzz", "source": "clawhub", "stars": 0, "tags": null, "updated_at": 1776749384241, "version": "1.1.0"}, {"category": "productivity", "created_at": 1773069016122, "description": "BambooHR integration. Manage hris data, records, and workflows. Use when the user wants to interact with BambooHR data.", "description_zh": "", "downloads": 180, "homepage": "https://clawhub.ai/gora050/bamboohr-integration", "iconUrl": null, "installs": 5, "name": "Bamboohr", "ownerName": "gora050", "score": 89552.23880597015, "slug": "bamboohr-integration", "source": "clawhub", "stars": 0, "tags": null, "updated_at": 1776749384224, "version": "1.0.0"}, {"category": "productivity", "created_at": 1773065018195, "description": "Text-to-speech using Kokoro local TTS. Use when the user wants to convert text to audio, read aloud, or generate speech.", "description_zh": "", "downloads": 180, "homepage": "https://clawhub.ai/babysor/sayit", "iconUrl": null, "installs": 1, "name": "speaker-local", "ownerName": "babysor", "score": 82949.30875576036, "slug": "sayit", "source": "clawhub", "stars": 0, "tags": null, "updated_at": 1776749384172, "version": "1.0.0"}, {"category": "productivity", "created_at": 1773077544096, "description": "Dropbox integration. Manage Accounts. Use when the user wants to interact with Dropbox data.", "description_zh": "", "downloads": 180, "homepage": "https://clawhub.ai/membranedev/integrate-dropbox", "iconUrl": null, "installs": 1, "name": "Dropbox", "ownerName": "membranedev", "score": 80717.48878923767, "slug": "integrate-dropbox", "source": "clawhub", "stars": 0, "tags": null, "updated_at": 1776749384101, "version": "1.0.0"}, {"category": "data-analysis", "created_at": 1773080767786, "description": "Plan-aware UseClick link-shortening and analytics API workflows for geo links, affiliate links, link management, QR generation, and custom/branded domains. U...", "description_zh": "", "downloads": 180, "homepage": "https://clawhub.ai/petercsipkay/useclick-link-shortening-analytics", "iconUrl": null, "installs": 12, "name": "Useclick Link Shortening Analytics", "ownerName": "petercsipkay", "score": 89108.91089108911, "slug": "useclick-link-shortening-analytics", "source": "clawhub", "stars": 0, "tags": ["affiliate-links", "analytics", "api", "branded-domain", "custom-domain", "geo-links", "link-management", "link-shortening", "linking", "qr-generation", "short-links", "url-shortener"], "updated_at": 1776749384045, "version": "1.0.5"}, {"category": "developer-tools", "created_at": 1773067076339, "description": "Relationship OS — Enables AI agents to build human-like relationships with users through event memory, open threads, exclusive memories, agent stances, and r...", "description_zh": "", "downloads": 180, "homepage": "https://clawhub.ai/chenhab03/relationship-os", "iconUrl": null, "installs": 8, "name": "Relationship OS", "ownerName": "chenhab03", "score": 89108.91089108911, "slug": "relationship-os", "source": "clawhub", "stars": 0, "tags": null, "updated_at": 1776749384016, "version": "0.1.0"}, {"category": "communication-collaboration", "created_at": 1773082219104, "description": "Query your Telegram chat history using a LifeQuery instance. Use when the user wants to search past conversations, find shared links, or ask about specific p...", "description_zh": "", "downloads": 180, "homepage": "https://clawhub.ai/ngtwolf/lifequery", "iconUrl": null, "installs": 11, "name": "Telegram History via LifeQuery", "ownerName": "ngtwolf", "score": 89108.91089108911, "slug": "lifequery", "source": "clawhub", "stars": 0, "tags": null, "updated_at": 1776749384011, "version": "1.0.1"}, {"category": "ai-intelligence", "created_at": 1773088683325, "description": "Agent-to-agent messaging. Share a link, start talking.", "description_zh": "", "downloads": 180, "homepage": "https://clawhub.ai/robbiethompson18/agenttunnel", "iconUrl": null, "installs": 23, "name": "AgentTunnel", "ownerName": "robbiethompson18", "score": 89108.91089108911, "slug": "agenttunnel", "source": "clawhub", "stars": 0, "tags": null, "updated_at": 1776749384000, "version": "1.0.0"}, {"category": "ai-intelligence", "created_at": 1773285063224, "description": "Chat with any real person or fictional character in their own voice by automatically finding their speech online, extracting a clean reference sample, and ge...", "description_zh": "", "downloads": 180, "homepage": "https://clawhub.ai/ksuriuri/noizai-chat-with-anyone", "iconUrl": null, "installs": 15, "name": "Chat With Anyone", "ownerName": "ksuriuri", "score": 59016.393442622946, "slug": "noizai-chat-with-anyone", "source": "clawhub", "stars": 0, "tags": null, "updated_at": 1776749383969, "version": "0.1.1"}, {"category": "content-creation", "created_at": 1773078164674, "description": "Relight photos and images using each::sense AI. Transform lighting conditions, add studio lighting, golden hour effects, dramatic shadows, neon glows, and ma...", "description_zh": "", "downloads": 180, "homepage": "https://clawhub.ai/eftalyurtseven/image-relighting", "iconUrl": null, "installs": 14, "name": "Image Relighting", "ownerName": "eftalyurtseven", "score": 82949.30875576036, "slug": "image-relighting", "source": "clawhub", "stars": 0, "tags": null, "updated_at": 1776749383815, "version": "1.0.0"}, {"category": "data-analysis", "created_at": 1773077079626, "description": "Estimates a person's age from a facial image via the Didit standalone API. Use when implementing age gating, checking if someone is over 18 or 21, performing...", "description_zh": "", "downloads": 180, "homepage": "https://clawhub.ai/rosasalberto/didit-biometric-age-estimation", "iconUrl": null, "installs": 6, "name": "Didit Biometric Age Estimation", "ownerName": "rosasalberto", "score": 96256.68449197861, "slug": "didit-biometric-age-estimation", "source": "clawhub", "stars": 0, "tags": null, "updated_at": 1776749383776, "version": "1.0.0"}, {"category": "data-analysis", "created_at": 1773207127964, "description": "Systematic workspace reorganization for AI agent users. Scans workspace, builds safety-first reorganization plan, executes with zero data loss, and verifies...", "description_zh": "", "downloads": 180, "homepage": "https://clawhub.ai/theshadowrose/crucible-forge", "iconUrl": null, "installs": 10, "name": "Crucible Forge", "ownerName": "theshadowrose", "score": 96256.68449197861, "slug": "crucible-forge", "source": "clawhub", "stars": 0, "tags": ["analysis", "debugging", "forensics", "learning", "post-mortem"], "updated_at": 1776749383738, "version": "1.0.3"}, {"category": "developer-tools", "created_at": 1773067517544, "description": "Manage bookmarks using buku CLI. Use when: adding/saving URLs, searching bookmarks, listing/browsing saved links, tagging bookmarks, importing/exporting book...", "description_zh": "", "downloads": 180, "homepage": "https://clawhub.ai/god4saken/buku", "iconUrl": null, "installs": 9, "name": "Buku", "ownerName": "god4saken", "score": 96256.68449197861, "slug": "buku", "source": "clawhub", "stars": 0, "tags": null, "updated_at": 1776749383716, "version": "1.0.0"}, {"category": "productivity", "created_at": 1773208731737, "description": "Object storage operations for Volcengine TOS (Tinder Object Storage). Use when users need bucket management, object upload/download, listing, deletion, presi...", "description_zh": "", "downloads": 180, "homepage": "https://clawhub.ai/day253/day253-volcengine-storage-tos", "iconUrl": null, "installs": 21, "name": "Volcengine TOS Storage", "ownerName": "day253", "score": 96256.68449197861, "slug": "day253-volcengine-storage-tos", "source": "clawhub", "stars": 0, "tags": null, "updated_at": 1776749383706, "version": "1.0.0"}, {"category": "data-analysis", "created_at": 1773077321121, "description": "TiDB X — object-storage-native distributed SQL for AI agent workloads. Use when building agent memory, context storage, multi-agent coordination, Web3 indexi...", "description_zh": "", "downloads": 180, "homepage": "https://clawhub.ai/siddontang/tidb-x", "iconUrl": null, "installs": 9, "name": "TiDB X", "ownerName": "siddontang", "score": 84507.04225352113, "slug": "tidb-x", "source": "clawhub", "stars": 0, "tags": null, "updated_at": 1776749383663, "version": "1.0.0"}, {"category": "security-compliance", "created_at": 1773082836460, "description": "Security best practices guide for passing ClawHub security scans with \"Benign\" ratings. Use when creating or reviewing skills to ensure they meet security st...", "description_zh": "", "downloads": 179, "homepage": "https://clawhub.ai/wszhhx/skill-security-guide", "iconUrl": null, "installs": 9, "name": "Skill Security Guide", "ownerName": "wszhhx", "score": 15179.252479023648, "slug": "skill-security-guide", "source": "clawhub", "stars": 1, "tags": null, "updated_at": 1776759498413, "version": "1.0.1"}, {"category": "ai-intelligence", "created_at": 1773207319306, "description": "Use this skill when you need to search, read, and install skills from the online skill library. Support by Chinese.", "description_zh": "", "downloads": 179, "homepage": "https://clawhub.ai/osulivan/skill4agent", "iconUrl": null, "installs": 14, "name": "skill4agent", "ownerName": "osulivan", "score": 100000, "slug": "skill4agent", "source": "clawhub", "stars": 1, "tags": null, "updated_at": 1776749569762, "version": "1.0.7"}, {"category": "productivity", "created_at": 1773424190335, "description": "global-quotes: free stock quotes and news. Use when: user asks for global stock price, quote, ticker symbol, or company news for US (e.g. AAPL), HK (0700.HK)...", "description_zh": "", "downloads": 179, "homepage": "https://clawhub.ai/antaeus001/free-stock-global-quotes-news", "iconUrl": null, "installs": 22, "name": "free-stock-global-quotes-news", "ownerName": "antaeus001", "score": 88839.28571428571, "slug": "free-stock-global-quotes-news", "source": "clawhub", "stars": 1, "tags": null, "updated_at": 1776749384861, "version": "1.0.3"}, {"category": "developer-tools", "created_at": 1773928898002, "description": "Control the user's local Chrome browser via OpenClaw Browser Relay extension. Use when: (1) User asks to control/access their browser (2) User wants to autom...", "description_zh": "", "downloads": 179, "homepage": "https://clawhub.ai/meowlegemy-sudo/chrome-relay", "iconUrl": null, "installs": 22, "name": "Chrome Relay", "ownerName": "meowlegemy-sudo", "score": 7255.776246453182, "slug": "chrome-relay", "source": "clawhub", "stars": 0, "tags": null, "updated_at": 1776762590320, "version": "1.0.0"}, {"category": "data-analysis", "created_at": 1773287858397, "description": "Performs financial ratio analysis, DCF valuation, budget variance analysis, and rolling forecast construction for strategic decision-making. Use when analyzi...", "description_zh": "", "downloads": 179, "homepage": "https://clawhub.ai/alirezarezvani/cs-financial-analyst", "iconUrl": null, "installs": 22, "name": "financial-analyst", "ownerName": "alirezarezvani", "score": 71600, "slug": "cs-financial-analyst", "source": "clawhub", "stars": 0, "tags": null, "updated_at": 1776760020899, "version": "1.0.0"}, {"category": "content-creation", "created_at": 1773082399904, "description": "Fetch and download YouTube video transcripts with timestamps and multi-language support by providing the video URL.", "description_zh": "", "downloads": 179, "homepage": "https://clawhub.ai/loverun321/youtube-transcript-tool", "iconUrl": null, "installs": 2, "name": "YouTube Transcript", "ownerName": "loverun321", "score": 13790.446841294299, "slug": "youtube-transcript-tool", "source": "clawhub", "stars": 0, "tags": null, "updated_at": 1776759683079, "version": "1.0.0"}, {"category": "content-creation", "created_at": 1773221441944, "description": "Use when polishing input, fixing grammar, improving wording, and making user prompts sound natural and concise. Keywords - polish , grammar fix, rewrite sent...", "description_zh": "", "downloads": 179, "homepage": "https://clawhub.ai/supremes/polisher", "iconUrl": null, "installs": 24, "name": "language-polisher", "ownerName": "supremes", "score": 10591.715976331361, "slug": "polisher", "source": "clawhub", "stars": 0, "tags": null, "updated_at": 1776756188894, "version": "1.0.0"}]}