{"page": 321, "total_pages": 522, "total": 26073, "skills": [{"category": "ai-intelligence", "created_at": 1773942279339, "description": "AI video, image generation. 40+ models — Sora, Veo 3, Kling, Seedance, GPT Image, Hailuo, WAN. Text-to-video, image-to-video, text-to-image,image-to-image.", "description_zh": "", "downloads": 179, "homepage": "https://clawhub.ai/tate-kt/pixwith-ai-image-generation", "iconUrl": null, "installs": 64, "name": "Ai Image Generation Skills", "ownerName": "tate-kt", "score": 31625.441696113077, "slug": "pixwith-ai-image-generation", "source": "clawhub", "stars": 0, "tags": null, "updated_at": 1776753583745, "version": "1.0.1"}, {"category": "data-analysis", "created_at": 1773424802382, "description": "Personal Insight Engine (PIE) - A strategic analysis tool that scans local session logs (memory/*.md) and extracts 3 strategic insights using LLMs.", "description_zh": "", "downloads": 179, "homepage": "https://clawhub.ai/franklu0819-lang/personal-insight-engine", "iconUrl": null, "installs": 11, "name": "Personal Insight Engine", "ownerName": "franklu0819-lang", "score": 30236.486486486487, "slug": "personal-insight-engine", "source": "clawhub", "stars": 0, "tags": null, "updated_at": 1776750169831, "version": "1.0.4"}, {"category": "data-analysis", "created_at": 1773089050036, "description": "AI-powered personal finance management system - track expenses, manage budgets, analyze spending patterns, and get smart financial recommendations", "description_zh": "", "downloads": 179, "homepage": "https://clawhub.ai/zhenstaff/personal-cfo", "iconUrl": null, "installs": 11, "name": "Openclaw Skill", "ownerName": "zhenstaff", "score": 100000, "slug": "personal-cfo", "source": "clawhub", "stars": 0, "tags": null, "updated_at": 1776749870750, "version": "1.0.0"}, {"category": "developer-tools", "created_at": 1773287814239, "description": "A fun utility skill that generates catchy, claw-themed puns, slogans, and one-liners. Use this skill when the user asks for puns, wordplay, slogans, or creat...", "description_zh": "", "downloads": 179, "homepage": "https://clawhub.ai/lovelcp/catch-claw", "iconUrl": null, "installs": 3, "name": "CatchClaw", "ownerName": "lovelcp", "score": 31850.53380782918, "slug": "catch-claw", "source": "clawhub", "stars": 0, "tags": null, "updated_at": 1776749385475, "version": "1.0.0"}, {"category": "ai-intelligence", "created_at": 1773424836982, "description": "Local text-to-speech using Qwen3-TTS with mlx_audio (macOS Apple Silicon) or qwen-tts (Linux/Windows). Privacy-first offline TTS with natural, realistic voic...", "description_zh": "", "downloads": 179, "homepage": "https://clawhub.ai/irachex/local-tts", "iconUrl": null, "installs": 18, "name": "Local TTS", "ownerName": "irachex", "score": 92746.1139896373, "slug": "local-tts", "source": "clawhub", "stars": 0, "tags": null, "updated_at": 1776749385307, "version": "1.0.0"}, {"category": "developer-tools", "created_at": 1773069893923, "description": "A merciless but educational code roaster that absolutely destroys your code with savage humor — then teaches you exactly why it deserved the roasting. Think...", "description_zh": "", "downloads": 179, "homepage": "https://clawhub.ai/jcools1977/roast-my-code", "iconUrl": null, "installs": 14, "name": "Roast My Code", "ownerName": "jcools1977", "score": 92746.1139896373, "slug": "roast-my-code", "source": "clawhub", "stars": 0, "tags": null, "updated_at": 1776749385285, "version": "1.0.0"}, {"category": "developer-tools", "created_at": 1773079934222, "description": "Hotel booking and accommodation search using StayForge API - hotel booking, hotel search, accommodation booking, hotel reservation, find hotels, book hotels,...", "description_zh": "", "downloads": 179, "homepage": "https://clawhub.ai/jbennett111/stayforge-api", "iconUrl": null, "installs": 12, "name": "stayforge-api", "ownerName": "jbennett111", "score": 32844.036697247706, "slug": "stayforge-api", "source": "clawhub", "stars": 0, "tags": null, "updated_at": 1776749385060, "version": "1.0.0"}, {"category": "developer-tools", "created_at": 1773067918691, "description": "Role-based GitOps skill for OpenClaw agents with junior and senior operating modes.", "description_zh": "", "downloads": 179, "homepage": "https://clawhub.ai/launchthatbot/git-team-ops", "iconUrl": null, "installs": 5, "name": "Git Team Ops", "ownerName": "launchthatbot", "score": 32844.036697247706, "slug": "git-team-ops", "source": "clawhub", "stars": 0, "tags": null, "updated_at": 1776749385023, "version": "0.1.5"}, {"category": "productivity", "created_at": 1773079088194, "description": "Google Classroom: Manage classes, rosters, and coursework.", "description_zh": "", "downloads": 179, "homepage": "https://clawhub.ai/googleworkspace-bot/gws-classroom", "iconUrl": null, "installs": 16, "name": "Gws Classroom", "ownerName": "googleworkspace-bot", "score": 32844.036697247706, "slug": "gws-classroom", "source": "clawhub", "stars": 0, "tags": null, "updated_at": 1776749385002, "version": "1.0.0"}, {"category": "content-creation", "created_at": 1773091880580, "description": "Work with OpenAI-compatible image generation and image editing endpoints. Use when the user wants to generate images from prompts, edit images with prompts a...", "description_zh": "", "downloads": 179, "homepage": "https://clawhub.ai/xiaolozee/grok-image-api", "iconUrl": null, "installs": 10, "name": "Grok Image API", "ownerName": "xiaolozee", "score": 48509.48509485095, "slug": "grok-image-api", "source": "clawhub", "stars": 0, "tags": ["grok", "image"], "updated_at": 1776749384925, "version": "1.1.1"}, {"category": "security-compliance", "created_at": 1773090317853, "description": "Audit GitHub Actions workflow conclusion volatility to surface unstable pipelines before they become chronic failures.", "description_zh": "", "downloads": 179, "homepage": "https://clawhub.ai/daniellummis/github-actions-conclusion-volatility-audit", "iconUrl": null, "installs": 9, "name": "GitHub Actions Conclusion Volatility Audit", "ownerName": "daniellummis", "score": 48509.48509485095, "slug": "github-actions-conclusion-volatility-audit", "source": "clawhub", "stars": 0, "tags": null, "updated_at": 1776749384893, "version": "1.0.0"}, {"category": "productivity", "created_at": 1773077809240, "description": "NetSuite integration. Manage accounting and erp data, records, and workflows. Use when the user wants to interact with NetSuite data.", "description_zh": "", "downloads": 179, "homepage": "https://clawhub.ai/gora050/netsuite", "iconUrl": null, "installs": 7, "name": "Netsuite", "ownerName": "gora050", "score": 48509.48509485095, "slug": "netsuite", "source": "clawhub", "stars": 0, "tags": null, "updated_at": 1776749384884, "version": "1.0.0"}, {"category": "developer-tools", "created_at": 1773080948670, "description": "Cluster JUnit failures into stable fingerprints so CI triage focuses on root causes, not noisy one-off logs.", "description_zh": "", "downloads": 179, "homepage": "https://clawhub.ai/daniellummis/junit-failure-fingerprint", "iconUrl": null, "installs": 5, "name": "JUnit Failure Fingerprint", "ownerName": "daniellummis", "score": 48509.48509485095, "slug": "junit-failure-fingerprint", "source": "clawhub", "stars": 0, "tags": null, "updated_at": 1776749384874, "version": "1.0.0"}, {"category": "developer-tools", "created_at": 1773069332637, "description": "Gaming-style achievement system for real coding work. Tracks milestones, unlocks badges, levels up your developer profile, and drops rare achievements for le...", "description_zh": "", "downloads": 179, "homepage": "https://clawhub.ai/jcools1977/achievement-unlocked", "iconUrl": null, "installs": 6, "name": "Achievement Unlocked", "ownerName": "jcools1977", "score": 48509.48509485095, "slug": "achievement-unlocked", "source": "clawhub", "stars": 0, "tags": null, "updated_at": 1776749384872, "version": "1.0.0"}, {"category": "ai-intelligence", "created_at": 1773081681296, "description": "[Aibrary] Recommend books based on user interests, goals, challenges, or career stage. Use when the user asks for book recommendations, says they don't know...", "description_zh": "", "downloads": 179, "homepage": "https://clawhub.ai/asoiso/aibrary-book-recommend", "iconUrl": null, "installs": 13, "name": "Aibrary Book Recommend", "ownerName": "asoiso", "score": 40044.74272930649, "slug": "aibrary-book-recommend", "source": "clawhub", "stars": 0, "tags": null, "updated_at": 1776749384546, "version": "0.1.0"}, {"category": "data-analysis", "created_at": 1773069751234, "description": "Deep health analysis of your dependency tree — not just \"is it outdated\" but \"is it abandoned? Is the maintainer still active? Is 95% of the package dead wei...", "description_zh": "", "downloads": 179, "homepage": "https://clawhub.ai/jcools1977/dependency-autopsy", "iconUrl": null, "installs": 9, "name": "Dependency Autopsy", "ownerName": "jcools1977", "score": 40044.74272930649, "slug": "dependency-autopsy", "source": "clawhub", "stars": 0, "tags": null, "updated_at": 1776749384538, "version": "1.0.0"}, {"category": "data-analysis", "created_at": 1773079804013, "description": "Runs agentic trading workflows on Clutch Perps through MCP. Use when users ask for setup, live trade workflows, market checks, order planning, risk setup, or...", "description_zh": "", "downloads": 179, "homepage": "https://clawhub.ai/simplefarmer69/clutch-perps", "iconUrl": null, "installs": 7, "name": "automated agentic perps trading on dex.clutch.market", "ownerName": "simplefarmer69", "score": 40044.74272930649, "slug": "clutch-perps", "source": "clawhub", "stars": 0, "tags": ["latest perps trading automated perpetual futures crypto gold silver", "latest perps trading forex gold bitcoin silver crypto automated agent"], "updated_at": 1776749384511, "version": "1.0.1"}, {"category": "data-analysis", "created_at": 1773077762169, "description": "Track AI agent usage and costs with Drip metered billing. Use when you need to record aggregate LLM usage, tool calls, agent runs, or other metered usage for...", "description_zh": "", "downloads": 179, "homepage": "https://clawhub.ai/lucas-309/drip-billing", "iconUrl": null, "installs": 5, "name": "Drip Billing", "ownerName": "lucas-309", "score": 91326.5306122449, "slug": "drip-billing", "source": "clawhub", "stars": 0, "tags": null, "updated_at": 1776749384445, "version": "1.0.3"}, {"category": "productivity", "created_at": 1773089581703, "description": "Square integration. Manage Organizations, Users, Goals, Filters. Use when the user wants to interact with Square data.", "description_zh": "", "downloads": 179, "homepage": "https://clawhub.ai/membranedev/square", "iconUrl": null, "installs": 1, "name": "Square", "ownerName": "membranedev", "score": 88177.33990147784, "slug": "square", "source": "clawhub", "stars": 0, "tags": null, "updated_at": 1776749384406, "version": "1.0.0"}, {"category": "ai-intelligence", "created_at": 1773069830168, "description": "Mailchimp integration. Manage marketing automation data, records, and workflows. Use when the user wants to interact with Mailchimp data.", "description_zh": "", "downloads": 179, "homepage": "https://clawhub.ai/gora050/mailchimp-integration", "iconUrl": null, "installs": 4, "name": "Mailchimp", "ownerName": "gora050", "score": 88177.33990147784, "slug": "mailchimp-integration", "source": "clawhub", "stars": 0, "tags": null, "updated_at": 1776749384385, "version": "1.0.0"}, {"category": "security-compliance", "created_at": 1773089472376, "description": "Audit GitHub Actions run health by trigger event and workflow so flaky or noisy automation sources are easy to prioritize.", "description_zh": "", "downloads": 179, "homepage": "https://clawhub.ai/daniellummis/github-actions-trigger-health-audit", "iconUrl": null, "installs": 9, "name": "GitHub Actions Trigger Health Audit", "ownerName": "daniellummis", "score": 89054.72636815922, "slug": "github-actions-trigger-health-audit", "source": "clawhub", "stars": 0, "tags": null, "updated_at": 1776749384277, "version": "1.0.0"}, {"category": "developer-tools", "created_at": 1773874009108, "description": "Manage cron jobs with execution logging and failure alert tracking. Use when adding tasks, monitoring execution, debugging failed crons.", "description_zh": "", "downloads": 179, "homepage": "https://clawhub.ai/xueyetianya/cronjob", "iconUrl": null, "installs": 26, "name": "Cronjob", "ownerName": "xueyetianya", "score": 82488.47926267282, "slug": "cronjob", "source": "clawhub", "stars": 0, "tags": null, "updated_at": 1776749384148, "version": "2.0.1"}, {"category": "data-analysis", "created_at": 1773089414565, "description": "Scrape Hacker News stories, comments, and discussions. Use when user asks to search HN, find Hacker News posts, monitor tech discussions, or extract HN data....", "description_zh": "", "downloads": 179, "homepage": "https://clawhub.ai/marcindudekdev/apify-hn-scraper", "iconUrl": null, "installs": 7, "name": "Apify HN Scraper", "ownerName": "marcindudekdev", "score": 80269.05829596412, "slug": "apify-hn-scraper", "source": "clawhub", "stars": 0, "tags": ["apify", "hackernews", "scraping", "tech", "ycombinator"], "updated_at": 1776749384096, "version": "1.0.0"}, {"category": "developer-tools", "created_at": 1773082918737, "description": "BookStack Wiki & Documentation API integration. Manage your knowledge base programmatically: create, read, update, and delete books, chapters, pages, and she...", "description_zh": "", "downloads": 179, "homepage": "https://clawhub.ai/f-liva/bookstack-api", "iconUrl": null, "installs": 9, "name": "BookStack API", "ownerName": "f-liva", "score": 58688.524590163935, "slug": "bookstack-api", "source": "clawhub", "stars": 0, "tags": null, "updated_at": 1776749383931, "version": "1.0.2"}, {"category": "content-creation", "created_at": 1773078200744, "description": "Loom — manage video recordings, transcripts, and folders via Developer API", "description_zh": "", "downloads": 179, "homepage": "https://clawhub.ai/aiwithabidi/loom", "iconUrl": null, "installs": 5, "name": "Loom", "ownerName": "aiwithabidi", "score": 95721.92513368985, "slug": "loom", "source": "clawhub", "stars": 0, "tags": null, "updated_at": 1776749383724, "version": "1.0.0"}, {"category": "data-analysis", "created_at": 1773079443766, "description": "Recommend optimal GCP Committed Use Discount portfolio (spend-based vs resource-based) with risk analysis", "description_zh": "", "downloads": 179, "homepage": "https://clawhub.ai/anmolnagpal/cud-advisor", "iconUrl": null, "installs": 6, "name": "Cud Advisor", "ownerName": "anmolnagpal", "score": 84037.55868544601, "slug": "cud-advisor", "source": "clawhub", "stars": 0, "tags": null, "updated_at": 1776749383661, "version": "1.0.0"}, {"category": "developer-tools", "created_at": 1773926933777, "description": "This skill should be used when the user asks to \"analyze incidents\", \"troubleshoot production issues\", \"investigate alerts\", \"create tickets\", \"root cause an...", "description_zh": "", "downloads": 178, "homepage": "https://clawhub.ai/cafechen/devops-insight", "iconUrl": null, "installs": 4, "name": "DevOps Insight", "ownerName": "cafechen", "score": 17637.54045307443, "slug": "devops-insight", "source": "clawhub", "stars": 2, "tags": null, "updated_at": 1776760320663, "version": "1.0.2"}, {"category": "content-creation", "created_at": 1773432968323, "description": "Generate images via APIYI (Gemini 3.1 Flash Image Preview). Use when user wants to generate images from text descriptions. Supports keyword extraction, promp...", "description_zh": "", "downloads": 178, "homepage": "https://clawhub.ai/yunni123/nanobanana2-apiyi", "iconUrl": null, "installs": 41, "name": "nanobanana2-apiyi", "ownerName": "yunni123", "score": 96116.50485436893, "slug": "nanobanana2-apiyi", "source": "clawhub", "stars": 1, "tags": null, "updated_at": 1776749384999, "version": "1.0.2"}, {"category": "ai-intelligence", "created_at": 1773424766722, "description": "Read any web page aloud with natural AI voices. Extract article text from any URL and convert it to audio (MP3). Use when the user wants to: listen to a webp...", "description_zh": "", "downloads": 178, "homepage": "https://clawhub.ai/vinxu/castreader", "iconUrl": null, "installs": 18, "name": "Castreader Openclaw Skill", "ownerName": "vinxu", "score": 96116.50485436893, "slug": "castreader", "source": "clawhub", "stars": 1, "tags": null, "updated_at": 1776749384951, "version": "2.1.1"}, {"category": "security-compliance", "created_at": 1773069706041, "description": "Secure agent-to-agent hiring and execution skill for OpenClaw MCP with escrowed settlement, x402 facilitator payments, ERC-8004 identity/reputation checks, s...", "description_zh": "", "downloads": 178, "homepage": "https://clawhub.ai/licc921/safelink", "iconUrl": null, "installs": 7, "name": "SafeLink", "ownerName": "licc921", "score": 88789.23766816144, "slug": "safelink", "source": "clawhub", "stars": 1, "tags": ["a2a", "agentic-wallet", "erc-8004", "escrow", "mcp", "payments", "production", "security", "web3", "x402"], "updated_at": 1776749384081, "version": "0.1.4"}, {"category": "content-creation", "created_at": 1773078195715, "description": "LiveKit real-time voice and video infrastructure — create rooms, generate JWT access tokens, manage participants, and record sessions. Open source WebRTC for...", "description_zh": "", "downloads": 178, "homepage": "https://clawhub.ai/aiwithabidi/livekit-voice", "iconUrl": null, "installs": 6, "name": "Livekit Voice", "ownerName": "aiwithabidi", "score": 4145.319049836982, "slug": "livekit-voice", "source": "clawhub", "stars": 0, "tags": null, "updated_at": 1776764050205, "version": "1.0.0"}, {"category": "ai-intelligence", "created_at": 1773424002693, "description": "Agent Pheromone Network interface. Use when encountering a complex strategic task, or when wanting to publish a verified execution path to the collective int...", "description_zh": "", "downloads": 178, "homepage": "https://clawhub.ai/xiechengyuan/mycelium-skill", "iconUrl": null, "installs": 23, "name": "mycelium", "ownerName": "xiechengyuan", "score": 7739.130434782608, "slug": "mycelium-skill", "source": "clawhub", "stars": 0, "tags": null, "updated_at": 1776763150209, "version": "1.0.9"}, {"category": "developer-tools", "created_at": 1773079627019, "description": "Build, scaffold, and deploy Power Automate cloud flows using the FlowStudio MCP server. Load this skill when asked to: create a flow, build a new flow, deplo...", "description_zh": "", "downloads": 178, "homepage": "https://clawhub.ai/ninihen1/power-automate-build", "iconUrl": null, "installs": 10, "name": "Power Automate Build", "ownerName": "ninihen1", "score": 13895.394223263074, "slug": "power-automate-build", "source": "clawhub", "stars": 0, "tags": null, "updated_at": 1776759798293, "version": "1.1.0"}, {"category": "", "created_at": 1773211914269, "description": "Automatically optimize Shopify product SEO including titles, descriptions, meta tags, and image ALT to improve Google rankings and increase organic traffic.", "description_zh": "", "downloads": 178, "homepage": "https://clawhub.ai/yipintangzsp/shopify-seo-bot", "iconUrl": null, "installs": 24, "name": "Shopify Seo Bot", "ownerName": "yipintangzsp", "score": 30636.833046471602, "slug": "shopify-seo-bot", "source": "clawhub", "stars": 0, "tags": null, "updated_at": 1776759683607, "version": "1.0.0"}, {"category": "security-compliance", "created_at": 1773084026336, "description": "Complete Belgian GAAP toolkit with 8 interconnected skills covering accounting, VAT, deductibility, fines, closing, intervat, and annual filings.", "description_zh": "", "downloads": 178, "homepage": "https://clawhub.ai/mtllr/belgian-gaap-compliance-suite", "iconUrl": null, "installs": 6, "name": "Belgian Gaap Compliance Suite", "ownerName": "mtllr", "score": 13777.089783281735, "slug": "belgian-gaap-compliance-suite", "source": "clawhub", "stars": 0, "tags": ["accounting", "belgian-gaap", "compliance", "fiscal", "pcmn", "vat"], "updated_at": 1776759683245, "version": "1.0.0"}, {"category": "productivity", "created_at": 1773079008258, "description": "Provides real-time CPI, PPI, and core inflation data with forecasts to monitor inflation rates and purchasing power in various economies.", "description_zh": "", "downloads": 178, "homepage": "https://clawhub.ai/mosonchan2023/economics-inflation-tracker", "iconUrl": null, "installs": 3, "name": "Economics Inflation Tracker", "ownerName": "mosonchan2023", "score": 13777.089783281735, "slug": "economics-inflation-tracker", "source": "clawhub", "stars": 0, "tags": null, "updated_at": 1776759683142, "version": "1.0.0"}, {"category": "ai-intelligence", "created_at": 1773882790171, "description": "The agent economy. Trade shares, build companies, post commentary, and accumulate wealth in a world built for autonomous agents.", "description_zh": "", "downloads": 178, "homepage": "https://clawhub.ai/arteemg/hedgecrust", "iconUrl": null, "installs": 19, "name": "Hedgecrust", "ownerName": "arteemg", "score": 13777.089783281735, "slug": "hedgecrust", "source": "clawhub", "stars": 0, "tags": null, "updated_at": 1776759683133, "version": "2.7.0"}, {"category": "productivity", "created_at": 1773068856115, "description": "Fix Polymarket proxy wallet balance read errors, support accurate balance queries and trade execution, charging 0.001 USDT per call via SkillPay integration.", "description_zh": "", "downloads": 178, "homepage": "https://clawhub.ai/mosonchan2023/polymarket-proxy-trader", "iconUrl": null, "installs": 20, "name": "Polymarket Proxy Trader", "ownerName": "mosonchan2023", "score": 13766.434648105183, "slug": "polymarket-proxy-trader", "source": "clawhub", "stars": 0, "tags": null, "updated_at": 1776759683077, "version": "1.0.1"}, {"category": "security-compliance", "created_at": 1773886476391, "description": "This skill should be used when the user asks for an OpenClaw health check, OpenClaw security audit, server hardening review, exposure review, gateway safety...", "description_zh": "", "downloads": 178, "homepage": "https://clawhub.ai/x-rayluan/openclaw-healthcheck", "iconUrl": null, "installs": 5, "name": "OpenClaw Healthcheck", "ownerName": "x-rayluan", "score": 13608.562691131498, "slug": "openclaw-healthcheck", "source": "clawhub", "stars": 0, "tags": null, "updated_at": 1776759682673, "version": "0.1.1"}, {"category": "productivity", "created_at": 1773429657035, "description": "Read, create, update, and delete Apple Calendar events via CalDAV. Use when the user wants to inspect calendars or events, add a calendar event, change an ex...", "description_zh": "", "downloads": 178, "homepage": "https://clawhub.ai/ivy-end/apple-calendar-ops", "iconUrl": null, "installs": 27, "name": "Apple Calendar Ops", "ownerName": "ivy-end", "score": 13629.402756508422, "slug": "apple-calendar-ops", "source": "clawhub", "stars": 0, "tags": null, "updated_at": 1776759682476, "version": "0.1.0"}, {"category": "data-analysis", "created_at": 1773901834071, "description": "Automated geopolitical intelligence agent that fetches 5 hottest CNBC news articles from last 24 hours, extracts structured data (Title, URL, Market Impact,...", "description_zh": "", "downloads": 178, "homepage": "https://clawhub.ai/dimaschand29/cnbc-geopolitics-fetcher", "iconUrl": null, "installs": 18, "name": "Cnbc Geopolitics Fetcher", "ownerName": "dimaschand29", "score": 13629.402756508422, "slug": "cnbc-geopolitics-fetcher", "source": "clawhub", "stars": 0, "tags": null, "updated_at": 1776759682442, "version": "1.0.1"}, {"category": "productivity", "created_at": 1773078269034, "description": "Get prediction market odds on business events like earnings, mergers, IPOs, economic indicators, and corporate news for 0.001 USDT per call.", "description_zh": "", "downloads": 178, "homepage": "https://clawhub.ai/mosonchan2023/polymarket-business-events", "iconUrl": null, "installs": 24, "name": "Polymarket Business Events", "ownerName": "mosonchan2023", "score": 13671.274961597543, "slug": "polymarket-business-events", "source": "clawhub", "stars": 0, "tags": null, "updated_at": 1776759682178, "version": "1.0.1"}, {"category": "security-compliance", "created_at": 1773090257496, "description": "Guides you to build a layered AI OS with persistent memory, skill architecture, routing, and integrations via a scored audit and rebuild plan.", "description_zh": "", "downloads": 178, "homepage": "https://clawhub.ai/flynndavid/ai-os-blueprint", "iconUrl": null, "installs": 4, "name": "AI OS Blueprint", "ownerName": "flynndavid", "score": 13713.40523882897, "slug": "ai-os-blueprint", "source": "clawhub", "stars": 0, "tags": null, "updated_at": 1776759682164, "version": "1.0.0"}, {"category": "content-creation", "created_at": 1773217815563, "description": "Generate talking videos from images using Talking Image API. Create talking videos from audio and images, supporting non-human faces like pets or animated ch...", "description_zh": "", "downloads": 178, "homepage": "https://clawhub.ai/hy-1990/dream-talking-image", "iconUrl": null, "installs": 27, "name": "Dream Talking Image", "ownerName": "hy-1990", "score": 10452.143276570758, "slug": "dream-talking-image", "source": "clawhub", "stars": 0, "tags": null, "updated_at": 1776755888480, "version": "1.0.1"}, {"category": "productivity", "created_at": 1773084391161, "description": "Personio integration. Manage Persons, Companies, Teams, CompensationChanges, PerformanceReviews. Use when the user wants to interact with Personio data.", "description_zh": "", "downloads": 178, "homepage": "https://clawhub.ai/membranedev/personio", "iconUrl": null, "installs": 14, "name": "Personio", "ownerName": "membranedev", "score": 31560.283687943265, "slug": "personio", "source": "clawhub", "stars": 0, "tags": null, "updated_at": 1776752383641, "version": "1.0.1"}, {"category": "ai-intelligence", "created_at": 1773069437758, "description": "Change hair color in photos using each::sense AI. Transform hair to any color including natural shades, fantasy colors, ombre effects, highlights, and more.", "description_zh": "", "downloads": 178, "homepage": "https://clawhub.ai/eftalyurtseven/hair-color-changer", "iconUrl": null, "installs": 16, "name": "Hair Color Changer", "ownerName": "eftalyurtseven", "score": 31672.597864768682, "slug": "hair-color-changer", "source": "clawhub", "stars": 0, "tags": null, "updated_at": 1776749385503, "version": "1.0.0"}, {"category": "ai-intelligence", "created_at": 1773221375889, "description": "Internalize a document into a small language model (Gemma 2 2B) using Doc-to-LoRA so it can answer questions WITHOUT the document in the prompt. Use when the...", "description_zh": "", "downloads": 178, "homepage": "https://clawhub.ai/manojbhat09/doc-to-lora-hyper", "iconUrl": null, "installs": 14, "name": "Doc-to-LoRA", "ownerName": "manojbhat09", "score": 74789.91596638656, "slug": "doc-to-lora-hyper", "source": "clawhub", "stars": 0, "tags": null, "updated_at": 1776749385126, "version": "1.0.0"}, {"category": "ai-intelligence", "created_at": 1773430322458, "description": "Complete Windows setup guide for Ollama: installation, CORS header fix for web apps, custom model creation with Modelfiles, and integration with desktop AI t...", "description_zh": "", "downloads": 178, "homepage": "https://clawhub.ai/theshadowrose/ollama-windows-guide", "iconUrl": null, "installs": 37, "name": "Ollama on Windows — Setup, CORS Fix & Custom Models", "ownerName": "theshadowrose", "score": 32660.5504587156, "slug": "ollama-windows-guide", "source": "clawhub", "stars": 0, "tags": ["beginner", "cors", "cors-fix", "custom-models", "local-ai", "modelfile", "ollama", "setup", "setup-guide", "windows"], "updated_at": 1776749385022, "version": "1.0.1"}, {"category": "security-compliance", "created_at": 1773068223246, "description": "Google Workspace Admin SDK: Audit logs and usage reports.", "description_zh": "", "downloads": 178, "homepage": "https://clawhub.ai/googleworkspace-bot/gws-admin-reports", "iconUrl": null, "installs": 9, "name": "Gws Admin Reports", "ownerName": "googleworkspace-bot", "score": 86407.76699029126, "slug": "gws-admin-reports", "source": "clawhub", "stars": 0, "tags": null, "updated_at": 1776749384964, "version": "1.0.1"}, {"category": "ai-intelligence", "created_at": 1773290549497, "description": "Generates professional e-commerce product scene prompts (Midjourney/DALL-E/Stable Diffusion) with physics-based lighting, material-accurate rendering, and li...", "description_zh": "", "downloads": 178, "homepage": "https://clawhub.ai/rijoyai/image-scene-generator", "iconUrl": null, "installs": 26, "name": "Image Scene Generator", "ownerName": "rijoyai", "score": 48238.48238482385, "slug": "image-scene-generator", "source": "clawhub", "stars": 0, "tags": null, "updated_at": 1776749384910, "version": "0.1.0"}]}