{"page": 322, "total_pages": 522, "total": 26073, "skills": [{"category": "data-analysis", "created_at": 1773219703043, "description": "Buy gift cards, mobile top-ups, and eSIMs on Bitrefill. Pay with crypto and x402. 1,500+ brands, 180+ countries", "description_zh": "", "downloads": 178, "homepage": "https://clawhub.ai/marcopesani/bitrefill-cli", "iconUrl": null, "installs": 10, "name": "Bitrefill CLI", "ownerName": "marcopesani", "score": 79464.28571428571, "slug": "bitrefill-cli", "source": "clawhub", "stars": 0, "tags": null, "updated_at": 1776749384821, "version": "1.5.0"}, {"category": "ai-intelligence", "created_at": 1773089000517, "description": "Connect OpenClaw agents to Miro via Model Context Protocol (MCP). Use when generating diagrams, visualizing code, brainstorming board layouts, or integrating...", "description_zh": "", "downloads": 178, "homepage": "https://clawhub.ai/bigbubbaagent-bot/miro-mcp", "iconUrl": null, "installs": 17, "name": "Miro MCP Integration", "ownerName": "bigbubbaagent-bot", "score": 85576.92307692308, "slug": "miro-mcp", "source": "clawhub", "stars": 0, "tags": null, "updated_at": 1776749384726, "version": "1.0.0"}, {"category": "productivity", "created_at": 1773217947713, "description": "Databricks integration. Manage Workspaces. Use when the user wants to interact with Databricks data.", "description_zh": "", "downloads": 178, "homepage": "https://clawhub.ai/gora050/databricks", "iconUrl": null, "installs": 5, "name": "Databricks", "ownerName": "gora050", "score": 88118.81188118811, "slug": "databricks", "source": "clawhub", "stars": 0, "tags": null, "updated_at": 1776749384619, "version": "1.0.0"}, {"category": "productivity", "created_at": 1773077724307, "description": "Asana integration. Manage project management and ticketing data, records, and workflows. Use when the user wants to interact with Asana data.", "description_zh": "", "downloads": 178, "homepage": "https://clawhub.ai/gora050/asana-integration", "iconUrl": null, "installs": 2, "name": "Asana", "ownerName": "gora050", "score": 39821.029082774054, "slug": "asana-integration", "source": "clawhub", "stars": 0, "tags": null, "updated_at": 1776749384552, "version": "1.0.0"}, {"category": "developer-tools", "created_at": 1773217827155, "description": "Use this skill when the user asks to triage issues, organize the issue list, \"triage issues\", \"show me all open issues\", \"categorize issues\", \"triage-issues\"...", "description_zh": "", "downloads": 178, "homepage": "https://clawhub.ai/oschina/gitee-triage-issues", "iconUrl": null, "installs": 7, "name": "Triage Issues", "ownerName": "oschina", "score": 90816.32653061225, "slug": "gitee-triage-issues", "source": "clawhub", "stars": 0, "tags": null, "updated_at": 1776749384455, "version": "1.0.0"}, {"category": "data-analysis", "created_at": 1773425460993, "description": "Daily morning and evening intelligence digest for prediction market traders. Morning brief: Kalshi portfolio P&L, Polymarket trending markets, crypto prices...", "description_zh": "", "downloads": 178, "homepage": "https://clawhub.ai/kingmadellc/market-morning-brief", "iconUrl": null, "installs": 13, "name": "Market Morning Brief", "ownerName": "kingmadellc", "score": 90816.32653061225, "slug": "market-morning-brief", "source": "clawhub", "stars": 0, "tags": null, "updated_at": 1776749384426, "version": "1.1.5"}, {"category": "content-creation", "created_at": 1773218534923, "description": "Nuclear-grade image metadata cleanser. Strip ALL EXIF/GPS/camera data, re-encode with noise injection. Forensically untraceable, reverse image search resistant.", "description_zh": "", "downloads": 178, "homepage": "https://clawhub.ai/cassh100k/image-nuke", "iconUrl": null, "installs": 12, "name": "Image Nuke - Nuclear Metadata Cleanser", "ownerName": "cassh100k", "score": 87684.7290640394, "slug": "image-nuke", "source": "clawhub", "stars": 0, "tags": null, "updated_at": 1776749384416, "version": "1.0.0"}, {"category": "security-compliance", "created_at": 1773069819060, "description": "Audit Azure Key Vault configuration, access policies, and secret hygiene for credential exposure risks", "description_zh": "", "downloads": 178, "homepage": "https://clawhub.ai/anmolnagpal/key-vault-auditor", "iconUrl": null, "installs": 3, "name": "Key Vault Auditor", "ownerName": "anmolnagpal", "score": 88557.21393034825, "slug": "key-vault-auditor", "source": "clawhub", "stars": 0, "tags": null, "updated_at": 1776749384206, "version": "1.0.0"}, {"category": "developer-tools", "created_at": 1773857614087, "description": "Azure Data Studio is a data management and development tool with connectivity to popular cloud and o azuredatastudio, typescript, azure, azure-data-studio, e...", "description_zh": "", "downloads": 178, "homepage": "https://clawhub.ai/ckchzh/azuredatastudio", "iconUrl": null, "installs": 7, "name": "Azuredatastudio", "ownerName": "ckchzh", "score": 82027.64976958526, "slug": "azuredatastudio", "source": "clawhub", "stars": 0, "tags": null, "updated_at": 1776749384194, "version": "2.3.6"}, {"category": "data-analysis", "created_at": 1773080974876, "description": "Mux video — manage assets, live streams, playback IDs, and analytics via REST API", "description_zh": "", "downloads": 178, "homepage": "https://clawhub.ai/aiwithabidi/mux", "iconUrl": null, "installs": 14, "name": "Mux", "ownerName": "aiwithabidi", "score": 58360.65573770492, "slug": "mux", "source": "clawhub", "stars": 0, "tags": null, "updated_at": 1776749383946, "version": "1.0.0"}, {"category": "developer-tools", "created_at": 1773217979171, "description": "Use this skill when the user asks to explore a repository, get familiar with a project, \"repo explorer\", \"tell me about this repo\", \"repo-explorer\", \"what do...", "description_zh": "", "downloads": 178, "homepage": "https://clawhub.ai/oschina/gitee-repo-explorer", "iconUrl": null, "installs": 5, "name": "Repo Explorer", "ownerName": "oschina", "score": 82027.64976958526, "slug": "gitee-repo-explorer", "source": "clawhub", "stars": 0, "tags": null, "updated_at": 1776749383895, "version": "1.0.0"}, {"category": "content-creation", "created_at": 1773434734218, "description": "Generate music via Suno with the local browser-backed flow. Use when the user wants Suno songs, instrumental tracks, lyric-based songs, Suno credit checks, o...", "description_zh": "", "downloads": 178, "homepage": "https://clawhub.ai/mysebbe/suno-ai", "iconUrl": null, "installs": 48, "name": "Suno AI", "ownerName": "mysebbe", "score": 95187.16577540107, "slug": "suno-ai", "source": "clawhub", "stars": 0, "tags": null, "updated_at": 1776749383770, "version": "1.0.0"}, {"category": "security-compliance", "created_at": 1773069117049, "description": "Google Workspace Alert Center: Manage Workspace security alerts.", "description_zh": "", "downloads": 178, "homepage": "https://clawhub.ai/googleworkspace-bot/gws-alertcenter", "iconUrl": null, "installs": 9, "name": "Gws Alertcenter", "ownerName": "googleworkspace-bot", "score": 83568.07511737088, "slug": "gws-alertcenter", "source": "clawhub", "stars": 0, "tags": null, "updated_at": 1776749383680, "version": "1.0.1"}, {"category": "content-creation", "created_at": 1773207489573, "description": "Video-driven face animation using DreamAct API. Animate multiple input images with expressions, lip movements, and head poses from a driving video. Powered b...", "description_zh": "", "downloads": 178, "homepage": "https://clawhub.ai/hy-1990/dreamact", "iconUrl": null, "installs": 17, "name": "DreamAct", "ownerName": "hy-1990", "score": 83568.07511737088, "slug": "dreamact", "source": "clawhub", "stars": 0, "tags": null, "updated_at": 1776749383675, "version": "1.0.1"}, {"category": "security-compliance", "created_at": 1773079704658, "description": "Billions/Iden3 authentication and identity management tools for agents. Link, proof, sign, and verify.", "description_zh": "", "downloads": 178, "homepage": "https://clawhub.ai/holdcc/verified-agent-identity-3", "iconUrl": null, "installs": 0, "name": "Verified Agent Identity", "ownerName": "holdcc", "score": 83568.07511737088, "slug": "verified-agent-identity-3", "source": "clawhub", "stars": 0, "tags": null, "updated_at": 1776749383670, "version": "0.1.1"}, {"category": "content-creation", "created_at": 1773078616950, "description": "Play classic MTV music videos from the 80s, 90s, and 2000s. Use when the user wants to watch MTV, music videos, retro TV, or says anything like 'play MTV', '...", "description_zh": "", "downloads": 177, "homepage": "https://clawhub.ai/flexasaurusrex/mtv-rewind", "iconUrl": null, "installs": 13, "name": "MTV Rewind", "ownerName": "flexasaurusrex", "score": 100000, "slug": "mtv-rewind", "source": "clawhub", "stars": 2, "tags": null, "updated_at": 1776749384199, "version": "1.0.2"}, {"category": "ai-intelligence", "created_at": 1773285732455, "description": "Guide creation of AI-friendly project structures with progressive disclosure indexing, modular architecture, and intent-oriented code. Use when starting a ne...", "description_zh": "", "downloads": 177, "homepage": "https://clawhub.ai/in12hacker/ariadne-thread", "iconUrl": null, "installs": 9, "name": "Ariadne Thread", "ownerName": "in12hacker", "score": 15038.1679389313, "slug": "ariadne-thread", "source": "clawhub", "stars": 1, "tags": null, "updated_at": 1776759498020, "version": "1.0.2"}, {"category": "developer-tools", "created_at": 1773425222463, "description": "⭐ OPEN SOURCE! GitHub: github.com/GhostDragon124/openclaw-self-updater ⭐ ONLY skill with Cron-aware + Idle detection! Auto-updates OpenClaw core & skills, an...", "description_zh": "", "downloads": 177, "homepage": "https://clawhub.ai/ghostdragon124/self-updater", "iconUrl": null, "installs": 22, "name": "Self Updater", "ownerName": "ghostdragon124", "score": 87946.42857142857, "slug": "self-updater", "source": "clawhub", "stars": 1, "tags": ["ai-assessment", "auto-update", "cron", "gateway", "healthcheck", "maintenance", "monitoring", "notification", "ops", "restart", "self-maintenance", "skills", "smart-schedule", "updater", "user-approval"], "updated_at": 1776749384839, "version": "1.4.2"}, {"category": "productivity", "created_at": 1773927833594, "description": "Query and explain parcel logistics across courier providers, including tracking, courier identification, multi-package lookup, status interpretation, and del...", "description_zh": "", "downloads": 177, "homepage": "https://clawhub.ai/harrylabsj/logistics", "iconUrl": null, "installs": 17, "name": "Logistics 物流查询", "ownerName": "harrylabsj", "score": 5519.176800748362, "slug": "logistics", "source": "clawhub", "stars": 0, "tags": ["courier", "logistics", "parcel", "shipping", "tracking"], "updated_at": 1776765290489, "version": "1.0.0"}, {"category": "", "created_at": 1774900379375, "description": "Temu, SHEIN, AliExpress, and TikTok product selection big data analysis agent. Identify trending products, analyze competition, estimate demand, and find sou...", "description_zh": "", "downloads": 177, "homepage": "https://clawhub.ai/mguozhen/temu-shein-selector", "iconUrl": null, "installs": 47, "name": "Temu Shein Selector", "ownerName": "mguozhen", "score": 1754.2120911793857, "slug": "temu-shein-selector", "source": "clawhub", "stars": 0, "tags": null, "updated_at": 1776764350225, "version": "1.0.0"}, {"category": "ai-intelligence", "created_at": 1773081960637, "description": "Generate detailed tax reports for Polymarket trading profits and losses with FIFO and LIFO accounting methods and export options.", "description_zh": "", "downloads": 177, "homepage": "https://clawhub.ai/mosonchan2023/polymarket-tax-reporter", "iconUrl": null, "installs": 23, "name": "Polymarket Tax Reporter", "ownerName": "mosonchan2023", "score": 3242.946134115061, "slug": "polymarket-tax-reporter", "source": "clawhub", "stars": 0, "tags": null, "updated_at": 1776763149962, "version": "1.0.1"}, {"category": "", "created_at": 1774873799664, "description": "Quickly configure DeepSeek V3 as the AI model for OpenClaw with API key setup, cost-effective Chinese optimization, and optional streaming or temperature tun...", "description_zh": "", "downloads": 177, "homepage": "https://clawhub.ai/yang1002378395-cmyk/deepseek-quick-config", "iconUrl": null, "installs": 28, "name": "Deepseek Quick Config", "ownerName": "yang1002378395-cmyk", "score": 2451.1840465309515, "slug": "deepseek-quick-config", "source": "clawhub", "stars": 0, "tags": ["chinese", "config", "deepseek"], "updated_at": 1776762849845, "version": "1.0.0"}, {"category": "productivity", "created_at": 1773079221139, "description": "Connect to and operate Power Automate cloud flows via a FlowStudio MCP server. Use when asked to: list flows, read a flow definition, check run history, insp...", "description_zh": "", "downloads": 177, "homepage": "https://clawhub.ai/ninihen1/power-automate-mcp", "iconUrl": null, "installs": 17, "name": "Power Automate Mcp", "ownerName": "ninihen1", "score": 13795.791114575215, "slug": "power-automate-mcp", "source": "clawhub", "stars": 0, "tags": null, "updated_at": 1776759797847, "version": "1.1.0"}, {"category": "content-creation", "created_at": 1773924543533, "description": "Automated drama video generator - from script to multi-character drama videos with OpenAI TTS, Whisper, and Remotion", "description_zh": "", "downloads": 177, "homepage": "https://clawhub.ai/zhenstaff/drama-generator", "iconUrl": null, "installs": 17, "name": "drama generator", "ownerName": "zhenstaff", "score": 11800, "slug": "drama-generator", "source": "clawhub", "stars": 0, "tags": null, "updated_at": 1776759683518, "version": "1.0.0"}, {"category": "developer-tools", "created_at": 1773870821537, "description": "Tick-Driven Autonomous Production Factory for LLMs. A framework for long-running agents using Cron/Heartbeats and physical Markdown checklists to prevent OOM...", "description_zh": "", "downloads": 177, "homepage": "https://clawhub.ai/yangwenyu2/agent-memento", "iconUrl": null, "installs": 17, "name": "Agent Memento", "ownerName": "yangwenyu2", "score": 68871.59533073929, "slug": "agent-memento", "source": "clawhub", "stars": 0, "tags": null, "updated_at": 1776759683470, "version": "2.0.15"}, {"category": "data-analysis", "created_at": 1773078802082, "description": "Monitor large trades and whale activity on Polymarket, detecting big position changes and tracking major players in real-time.", "description_zh": "", "downloads": 177, "homepage": "https://clawhub.ai/mosonchan2023/polymarket-whale-tracker", "iconUrl": null, "installs": 20, "name": "Polymarket Whale Tracker", "ownerName": "mosonchan2023", "score": 13573.61963190184, "slug": "polymarket-whale-tracker", "source": "clawhub", "stars": 0, "tags": null, "updated_at": 1776759682995, "version": "1.0.1"}, {"category": "ai-intelligence", "created_at": 1773429503913, "description": "Call Aliyun Bailian via DashScope; OCR text extraction first + TTS speak.", "description_zh": "", "downloads": 177, "homepage": "https://clawhub.ai/yab/bailian-studio", "iconUrl": null, "installs": 10, "name": "Bailian Studio", "ownerName": "yab", "score": 13033.873343151694, "slug": "bailian-studio", "source": "clawhub", "stars": 0, "tags": null, "updated_at": 1776759682853, "version": "0.0.2"}, {"category": "productivity", "created_at": 1773416233895, "description": "Let your agent shop online with guardrailed wallets, multiple payment methods, and owner approval.", "description_zh": "", "downloads": 177, "homepage": "https://clawhub.ai/triplehippo/apple", "iconUrl": null, "installs": 8, "name": "Shop from Apple - With your creditcard", "ownerName": "triplehippo", "score": 13573.61963190184, "slug": "apple", "source": "clawhub", "stars": 0, "tags": null, "updated_at": 1776759682773, "version": "1.0.0"}, {"category": "data-analysis", "created_at": 1773091086313, "description": "Automatically track competitor pricing, feature launches, marketing campaigns, and receive AI-generated insights and alerts for competitive intelligence.", "description_zh": "", "downloads": 177, "homepage": "https://clawhub.ai/fly3094/competitor-insights", "iconUrl": null, "installs": 12, "name": "Competitor Insights", "ownerName": "fly3094", "score": 11230.964467005077, "slug": "competitor-insights", "source": "clawhub", "stars": 0, "tags": ["ai", "alerts", "business-intelligence", "competitor", "monitoring", "pricing"], "updated_at": 1776759682282, "version": "1.0.0"}, {"category": "productivity", "created_at": 1773078797268, "description": "Access real-time trending prediction markets on Polymarket with trading volumes, hot categories, and volume spike detection for market insights.", "description_zh": "", "downloads": 177, "homepage": "https://clawhub.ai/mosonchan2023/polymarket-trending-markets", "iconUrl": null, "installs": 20, "name": "Polymarket Trending Markets", "ownerName": "mosonchan2023", "score": 13636.363636363636, "slug": "polymarket-trending-markets", "source": "clawhub", "stars": 0, "tags": null, "updated_at": 1776759682110, "version": "1.0.1"}, {"category": "content-creation", "created_at": 1773091149053, "description": "Extract audio from video URLs and transcribe using STT (Speech-to-Text). Supports local Whisper or cloud APIs. Use when: user provides a video URL and wants...", "description_zh": "", "downloads": 177, "homepage": "https://clawhub.ai/damiencronw/video-stt", "iconUrl": null, "installs": 14, "name": "video-stt", "ownerName": "damiencronw", "score": 12123.287671232876, "slug": "video-stt", "source": "clawhub", "stars": 0, "tags": null, "updated_at": 1776758482225, "version": "1.0.0"}, {"category": "developer-tools", "created_at": 1773431947813, "description": "Unknown: help. Use when you need github actions gen capabilities. Triggers on: github actions gen, type, lang, deploy, matrix, no-cache.", "description_zh": "", "downloads": 177, "homepage": "https://clawhub.ai/ckchzh/github-actions-gen", "iconUrl": null, "installs": 14, "name": "Github Actions Gen", "ownerName": "ckchzh", "score": 30944.05594405594, "slug": "github-actions-gen", "source": "clawhub", "stars": 0, "tags": ["productivity"], "updated_at": 1776755288683, "version": "2.3.4"}, {"category": "productivity", "created_at": 1773863906831, "description": "This skill should be used when the user wants to \"match resume to job\", \"generate cover letter\", \"optimize resume for job\", \"get interview questions for comp...", "description_zh": "", "downloads": 177, "homepage": "https://clawhub.ai/ajitsingh25/placed-career-tools", "iconUrl": null, "installs": 16, "name": "Placed Career Tools", "ownerName": "ajitsingh25", "score": 30998.248686514886, "slug": "placed-career-tools", "source": "clawhub", "stars": 0, "tags": ["ai", "ats", "career", "exidian", "jobs", "placed"], "updated_at": 1776753655490, "version": "1.1.0"}, {"category": "productivity", "created_at": 1773434151182, "description": "Plan place search, geocoding, routing, and map-link workflows across Google Maps, Apple Maps, OpenStreetMap, and other providers.", "description_zh": "", "downloads": 177, "homepage": "https://clawhub.ai/ivangdavila/maps", "iconUrl": null, "installs": 19, "name": "Maps", "ownerName": "ivangdavila", "score": 31107.20562390158, "slug": "maps", "source": "clawhub", "stars": 0, "tags": null, "updated_at": 1776751183676, "version": "1.0.0"}, {"category": "ai-intelligence", "created_at": 1773068054491, "description": "Use the trainedby.ai MCP server for personal coaching, health tracking, and goal management. Trigger when the user asks about their health data, fitness goal...", "description_zh": "", "downloads": 177, "homepage": "https://clawhub.ai/joostrothweiler/trainedby-mcp", "iconUrl": null, "installs": 9, "name": "trainedby.ai MCP", "ownerName": "joostrothweiler", "score": 91709.8445595855, "slug": "trainedby-mcp", "source": "clawhub", "stars": 0, "tags": null, "updated_at": 1776749385378, "version": "1.0.1"}, {"category": "developer-tools", "created_at": 1773885706698, "description": "Shopify Theme Development Pro - Complete theme development, deployment, and design system management for OpenClaw agents. Use when building Shopify themes, w...", "description_zh": "", "downloads": 177, "homepage": "https://clawhub.ai/avmw2025/shopify-theme-pro", "iconUrl": null, "installs": 23, "name": "Shopify Theme Pro", "ownerName": "avmw2025", "score": 75319.14893617021, "slug": "shopify-theme-pro", "source": "clawhub", "stars": 0, "tags": ["design-system", "ecommerce", "liquid", "shopify", "theme"], "updated_at": 1776749385269, "version": "1.0.1"}, {"category": "ai-intelligence", "created_at": 1773089039840, "description": "Configure OpenClaw agent memory to survive compaction and session restarts. Use when: (1) setting up a new OpenClaw agent or workspace, (2) agents are forget...", "description_zh": "", "downloads": 177, "homepage": "https://clawhub.ai/ferosin/openclaw-memory-resilience", "iconUrl": null, "installs": 15, "name": "OpenClaw Memory Resilience", "ownerName": "ferosin", "score": 86341.46341463414, "slug": "openclaw-memory-resilience", "source": "clawhub", "stars": 0, "tags": ["compaction", "context", "memory", "openclaw"], "updated_at": 1776749385156, "version": "1.0.0"}, {"category": "ai-intelligence", "created_at": 1773082327852, "description": "Capture errors, corrections, and recurring patterns into structured `.learnings/` logs, then promote durable guidance into workspace memory files. Use when c...", "description_zh": "", "downloads": 177, "homepage": "https://clawhub.ai/ollieb89/self-improving-agent-ollieb89", "iconUrl": null, "installs": 14, "name": "Self Improving Agent", "ownerName": "ollieb89", "score": 74369.74789915967, "slug": "self-improving-agent-ollieb89", "source": "clawhub", "stars": 0, "tags": null, "updated_at": 1776749385142, "version": "1.1.0"}, {"category": "data-analysis", "created_at": 1773285207777, "description": "Skill de création de dashboards live, sites web complets, et pages de preuve sociale pour Wesley-Agent. Déclencher dès que Georges mentionne : dashboard, sit...", "description_zh": "", "downloads": 177, "homepage": "https://clawhub.ai/georges91560/wesley-dashboard-builder", "iconUrl": null, "installs": 13, "name": "wesley dashboard builder", "ownerName": "georges91560", "score": 47967.47967479675, "slug": "wesley-dashboard-builder", "source": "clawhub", "stars": 0, "tags": null, "updated_at": 1776749384886, "version": "1.0.0"}, {"category": "developer-tools", "created_at": 1773068077324, "description": "Web search using DuckDuckGo Instant Answer API (no API key required). Use when you need to search the web for information, definitions, calculations, convers...", "description_zh": "", "downloads": 177, "homepage": "https://clawhub.ai/86293073/web-search-instant-1-1-0", "iconUrl": null, "installs": 12, "name": "Web Search Instant 1.1.0", "ownerName": "86293073", "score": 47967.47967479675, "slug": "web-search-instant-1-1-0", "source": "clawhub", "stars": 0, "tags": null, "updated_at": 1776749384877, "version": "1.0.0"}, {"category": "data-analysis", "created_at": 1773067977170, "description": "Solves the hardest problem in computer science: naming things. Uses linguistic principles, codebase conventions, and semantic analysis to generate precise, c...", "description_zh": "", "downloads": 177, "homepage": "https://clawhub.ai/jcools1977/naming-forge", "iconUrl": null, "installs": 8, "name": "Naming Forge", "ownerName": "jcools1977", "score": 88059.70149253731, "slug": "naming-forge", "source": "clawhub", "stars": 0, "tags": null, "updated_at": 1776749384714, "version": "1.0.0"}, {"category": "developer-tools", "created_at": 1773082160572, "description": "NodeSkai's optimized Free AI search via Exa MCP. Enhanced web search for news/info, code search for docs/examples from GitHub/StackOverflow, and deep company...", "description_zh": "", "downloads": 177, "homepage": "https://clawhub.ai/yumoezhung/exa-web-search-nodeskai", "iconUrl": null, "installs": 12, "name": "Exa Web Search Nodeskai", "ownerName": "yumoezhung", "score": 88059.70149253731, "slug": "exa-web-search-nodeskai", "source": "clawhub", "stars": 0, "tags": null, "updated_at": 1776749384705, "version": "1.0.0"}, {"category": "productivity", "created_at": 1773081608028, "description": "Woocommerce integration. Manage Products, Orders, Customers, Reports, TaxRates, ShippingMethods. Use when the user wants to interact with Woocommerce data.", "description_zh": "", "downloads": 177, "homepage": "https://clawhub.ai/gora050/woocommerce-integration", "iconUrl": null, "installs": 10, "name": "Woocommerce", "ownerName": "gora050", "score": 87623.76237623762, "slug": "woocommerce-integration", "source": "clawhub", "stars": 0, "tags": null, "updated_at": 1776749384627, "version": "1.0.0"}, {"category": "developer-tools", "created_at": 1773871025015, "description": "Cron expression helper and scheduler tool. Translate cron expressions to human-readable text, generate cron expressions from natural language descriptions, v...", "description_zh": "", "downloads": 177, "homepage": "https://clawhub.ai/bytesagain/cronhelp", "iconUrl": null, "installs": 24, "name": "Cronhelp", "ownerName": "bytesagain", "score": 87623.76237623762, "slug": "cronhelp", "source": "clawhub", "stars": 0, "tags": null, "updated_at": 1776749384598, "version": "1.0.5"}, {"category": "ai-intelligence", "created_at": 1773219408485, "description": "AI-powered banking system for intelligent agents with account management, transaction processing, and risk control", "description_zh": "", "downloads": 177, "homepage": "https://clawhub.ai/zhenstaff/banking-agent-os", "iconUrl": null, "installs": 8, "name": "Banking Agent OS", "ownerName": "zhenstaff", "score": 87623.76237623762, "slug": "banking-agent-os", "source": "clawhub", "stars": 0, "tags": null, "updated_at": 1776749384583, "version": "1.0.0"}, {"category": "ai-intelligence", "created_at": 1773283913172, "description": "Intelligent memory management for agents with short/long-term memory layering, semantic search, auto summarization, RAG enhancement", "description_zh": "", "downloads": 177, "homepage": "https://clawhub.ai/ayalili/smart-memory-manager", "iconUrl": null, "installs": 11, "name": "smart-memory-manager", "ownerName": "ayalili", "score": 39597.31543624161, "slug": "smart-memory-manager", "source": "clawhub", "stars": 0, "tags": null, "updated_at": 1776749384517, "version": "1.0.1"}, {"category": "communication-collaboration", "created_at": 1773069095193, "description": "GoHighLevel CRM integration — manage contacts, pipelines, conversations (SMS/email/WhatsApp), calendars, appointments, and workflows through the GHL API v2....", "description_zh": "", "downloads": 177, "homepage": "https://clawhub.ai/aiwithabidi/ghl-crm", "iconUrl": null, "installs": 5, "name": "Ghl Crm", "ownerName": "aiwithabidi", "score": 95161.29032258065, "slug": "ghl-crm", "source": "clawhub", "stars": 0, "tags": null, "updated_at": 1776749384326, "version": "1.0.0"}, {"category": "ai-intelligence", "created_at": 1773078005311, "description": "Structured morning briefing skill — daily summaries covering calendar, tasks, weather, news, and priorities. Supports cron, heartbeat, and on-demand triggers.", "description_zh": "", "downloads": 177, "homepage": "https://clawhub.ai/clawdssen/agent-daily-briefing", "iconUrl": null, "installs": 9, "name": "Agent Daily Briefing", "ownerName": "clawdssen", "score": 79372.19730941704, "slug": "agent-daily-briefing", "source": "clawhub", "stars": 0, "tags": null, "updated_at": 1776749384085, "version": "1.0.0"}, {"category": "ai-intelligence", "created_at": 1773091162163, "description": "Anthropic integration. Manage data, records, and automate workflows. Use when the user wants to interact with Anthropic data.", "description_zh": "", "downloads": 177, "homepage": "https://clawhub.ai/membranedev/anthropic-integration", "iconUrl": null, "installs": 11, "name": "Anthropic", "ownerName": "membranedev", "score": 87623.76237623762, "slug": "anthropic-integration", "source": "clawhub", "stars": 0, "tags": null, "updated_at": 1776749384020, "version": "1.0.0"}, {"category": "productivity", "created_at": 1773222366824, "description": "Control Xiaomi smart home devices via Home Assistant API. Use when user wants to control Xiaomi or Xiao AI devices such as air conditioner, speakers, and lig...", "description_zh": "", "downloads": 177, "homepage": "https://clawhub.ai/pipluuup/haxiaomicontrol", "iconUrl": null, "installs": 22, "name": "Ha Xiaomi Control", "ownerName": "pipluuup", "score": 87623.76237623762, "slug": "haxiaomicontrol", "source": "clawhub", "stars": 0, "tags": null, "updated_at": 1776749383993, "version": "0.1.0"}]}