{"page": 323, "total_pages": 522, "total": 26073, "skills": [{"category": "productivity", "created_at": 1773284486717, "description": "Split Large Partitions Without Data Loss - Divide oversized partitions into cleaner layouts for system, data, and backup workflows.", "description_zh": "", "downloads": 177, "homepage": "https://clawhub.ai/hezhaoyun/split-drive-coach", "iconUrl": null, "installs": 4, "name": "Split Drive Coach", "ownerName": "hezhaoyun", "score": 81566.8202764977, "slug": "split-drive-coach", "source": "clawhub", "stars": 0, "tags": null, "updated_at": 1776749383893, "version": "0.1.0"}, {"category": "ai-intelligence", "created_at": 1773424411112, "description": "Skill discovery engine for AI coding agents. Recommends and installs the right skill when you need it — code review, test generation, debugging, commit messa...", "description_zh": "", "downloads": 177, "homepage": "https://clawhub.ai/8co/undertow", "iconUrl": null, "installs": 26, "name": "Undertow", "ownerName": "8co", "score": 81566.8202764977, "slug": "undertow", "source": "clawhub", "stars": 0, "tags": null, "updated_at": 1776749383859, "version": "0.2.2"}, {"category": "", "created_at": 1774944169141, "description": "Captures learnings, errors, and corrections to enable continuous improvement. Use when: (1) A command or operation fails unexpectedly, (2) User corrects Clau...", "description_zh": "", "downloads": 176, "homepage": "https://clawhub.ai/richardan01/selfimproving", "iconUrl": null, "installs": 67, "name": "self_improving_agent", "ownerName": "richardan01", "score": 6386.445096122516, "slug": "selfimproving", "source": "clawhub", "stars": 1, "tags": null, "updated_at": 1776769150236, "version": "1.0.0"}, {"category": "content-creation", "created_at": 1773082859417, "description": "The AI Agent Social Graph. Create AI agents, post content, build communities, and connect with other agents on ZeroFans. Use when users want to interact with...", "description_zh": "", "downloads": 176, "homepage": "https://clawhub.ai/theonlyhennygod/zerofans", "iconUrl": null, "installs": 10, "name": "ZeroFans - AI Agent Social Graph", "ownerName": "theonlyhennygod", "score": 91588.78504672897, "slug": "zerofans", "source": "clawhub", "stars": 1, "tags": ["agents", "ai", "api", "social"], "updated_at": 1776759498418, "version": "1.0.0"}, {"category": "productivity", "created_at": 1773067679641, "description": "Validate event tracking and attribution readiness for Meta Pixel, Google Ads tags, TikTok Pixel, and cross-channel optimization.", "description_zh": "", "downloads": 176, "homepage": "https://clawhub.ai/danyangliu-sandwichlab/pixel-attribution-readiness-checker", "iconUrl": null, "installs": 5, "name": "Ads Pixel Readiness", "ownerName": "danyangliu-sandwichlab", "score": 34628.97526501767, "slug": "pixel-attribution-readiness-checker", "source": "clawhub", "stars": 1, "tags": null, "updated_at": 1776753415944, "version": "1.0.0"}, {"category": "ai-intelligence", "created_at": 1773285354503, "description": "Memory storage and retrieval via Coral Bricks. Store facts, preferences, and context; retrieve them by meaning. Use when: (1) remembering facts or preference...", "description_zh": "", "downloads": 176, "homepage": "https://clawhub.ai/divyvasal/coral-memory", "iconUrl": null, "installs": 10, "name": "Coral Memory", "ownerName": "divyvasal", "score": 34875.44483985765, "slug": "coral-memory", "source": "clawhub", "stars": 1, "tags": null, "updated_at": 1776749385495, "version": "1.0.1"}, {"category": "data-analysis", "created_at": 1773078920192, "description": "Helps users check in rituals, track streaks, and view tribe activity on TribuRuby.", "description_zh": "", "downloads": 176, "homepage": "https://clawhub.ai/a8ns/triburuby", "iconUrl": null, "installs": 8, "name": "TribuRuby Training Agent", "ownerName": "a8ns", "score": 95145.63106796116, "slug": "triburuby", "source": "clawhub", "stars": 1, "tags": ["api", "community", "fitness", "fitness training community habits rituals api", "habits", "rituals", "training"], "updated_at": 1776749384955, "version": "1.0.1"}, {"category": "ai-intelligence", "created_at": 1773914472951, "description": "Integrate Google NotebookLM capabilities into your workflow via the unofficial notebooklm-py library. Use when you need to: create/manage notebooks, import s...", "description_zh": "", "downloads": 176, "homepage": "https://clawhub.ai/oki3505f/notebooklm-integration", "iconUrl": null, "installs": 57, "name": "Notebooklm Integration", "ownerName": "oki3505f", "score": 43847.87472035794, "slug": "notebooklm-integration", "source": "clawhub", "stars": 1, "tags": null, "updated_at": 1776749384523, "version": "1.0.1"}, {"category": "developer-tools", "created_at": 1773079997802, "description": "Reddit intelligence CLI for AI agents. Use when working with reddit posts, subreddit research, comments, user profiles, wiki pages, domain mentions, marketin...", "description_zh": "", "downloads": 176, "homepage": "https://clawhub.ai/yahavf6/reddit-reddgrow-cli", "iconUrl": null, "installs": 12, "name": "Reddit Intelligence For Agents", "ownerName": "yahavf6", "score": 100000, "slug": "reddit-reddgrow-cli", "source": "clawhub", "stars": 1, "tags": null, "updated_at": 1776749384456, "version": "0.1.7"}, {"category": "developer-tools", "created_at": 1773426942987, "description": "Exact arithmetic for AI agents — zero hallucination math via 62 tools covering integer arithmetic, fractions, units, calculus, and financial calculations. Us...", "description_zh": "", "downloads": 176, "homepage": "https://clawhub.ai/lrningslo/arithym-io-arithym", "iconUrl": null, "installs": 28, "name": "Arithym", "ownerName": "lrningslo", "score": 473.38551332741605, "slug": "arithym-io-arithym", "source": "clawhub", "stars": 0, "tags": null, "updated_at": 1776770349889, "version": "1.0.4"}, {"category": "ai-intelligence", "created_at": 1773082310104, "description": "Query and interact with the QELT blockchain (Chain ID 770) via JSON-RPC. Use when asked about blocks, transactions, wallet balances, smart contract calls, ga...", "description_zh": "", "downloads": 176, "homepage": "https://clawhub.ai/prqelt/qelt-blockchain", "iconUrl": null, "installs": 8, "name": "QELT Blockchain", "ownerName": "prqelt", "score": 1174.194409233438, "slug": "qelt-blockchain", "source": "clawhub", "stars": 0, "tags": null, "updated_at": 1776768250056, "version": "0.1.0"}, {"category": "developer-tools", "created_at": 1773915373465, "description": "Create new skills, modify and improve existing skills, and measure skill performance. Use when users want to create a skill from scratch, edit, or optimize a...", "description_zh": "", "downloads": 176, "homepage": "https://clawhub.ai/luowanqian/skill-creator-3", "iconUrl": null, "installs": 46, "name": "Skill Creator", "ownerName": "luowanqian", "score": 4223.662107031438, "slug": "skill-creator-3", "source": "clawhub", "stars": 0, "tags": null, "updated_at": 1776764100506, "version": "0.1.0"}, {"category": "developer-tools", "created_at": 1773079231916, "description": "Preflight Prisma migration state before deploy; fails fast on drift, failed migrations, missing DB URLs, or unapplied migration files.", "description_zh": "", "downloads": 176, "homepage": "https://clawhub.ai/daniellummis/prisma-migrate-guard", "iconUrl": null, "installs": 5, "name": "Prisma Migrate Guard", "ownerName": "daniellummis", "score": 4946.599213041034, "slug": "prisma-migrate-guard", "source": "clawhub", "stars": 0, "tags": null, "updated_at": 1776762590551, "version": "1.0.0"}, {"category": "security-compliance", "created_at": 1773069211315, "description": "Scan deployed web apps for security misconfigurations after every deploy. Checks for exposed .env files, databases, source code, open ports, missing security...", "description_zh": "", "downloads": 176, "homepage": "https://clawhub.ai/doureios39/preflyt", "iconUrl": null, "installs": 5, "name": "Preflyt", "ownerName": "doureios39", "score": 5812.417437252312, "slug": "preflyt", "source": "clawhub", "stars": 0, "tags": ["deployment", "scanning", "security"], "updated_at": 1776761580358, "version": "1.0.1"}, {"category": "security-compliance", "created_at": 1773207046778, "description": "Multi-layer security detector for AI agents. Blocks prompt injection, jailbreak, XSS, SQL injection, API key leaks, supply chain attacks, and deployment vuln...", "description_zh": "", "downloads": 176, "homepage": "https://clawhub.ai/silvertime/clawsafe", "iconUrl": null, "installs": 10, "name": "ClawSafe", "ownerName": "silvertime", "score": 13632.842757552286, "slug": "clawsafe", "source": "clawhub", "stars": 0, "tags": null, "updated_at": 1776759683360, "version": "1.1.0"}, {"category": "productivity", "created_at": 1773218083512, "description": "The thinking partner that helps you ask better questions. Trigger when someone needs to get to the root of a problem, make a difficult decision, prepare for...", "description_zh": "", "downloads": 176, "homepage": "https://clawhub.ai/agimodel/ask", "iconUrl": null, "installs": 7, "name": "Ask", "ownerName": "agimodel", "score": 12137.931034482759, "slug": "ask", "source": "clawhub", "stars": 0, "tags": ["ask", "clarity", "decisions", "questions", "thinking"], "updated_at": 1776759683270, "version": "1.0.0"}, {"category": "ai-intelligence", "created_at": 1773285081252, "description": "AI-optimized web search via Tavily API. Returns concise, relevant results for AI agents.", "description_zh": "", "downloads": 176, "homepage": "https://clawhub.ai/hhjack/t-web-searcher", "iconUrl": null, "installs": 18, "name": "t-web-searcher", "ownerName": "hhjack", "score": 13622.291021671826, "slug": "t-web-searcher", "source": "clawhub", "stars": 0, "tags": null, "updated_at": 1776759683122, "version": "1.0.0"}, {"category": "productivity", "created_at": 1773219423161, "description": "Connect your OpenClaw bot to HXA-Connect hubs for real-time and fallback messaging, thread collaboration, access control, and multi-account support via WebSo...", "description_zh": "", "downloads": 176, "homepage": "https://clawhub.ai/jinglever/coco-xyz", "iconUrl": null, "installs": 7, "name": "openclaw-hxa-connect", "ownerName": "jinglever", "score": 13559.322033898305, "slug": "coco-xyz", "source": "clawhub", "stars": 0, "tags": null, "updated_at": 1776759683104, "version": "2.4.4"}, {"category": "productivity", "created_at": 1773068850230, "description": "View your Polymarket active positions, trade history, and profit/loss to track your market holdings and trading performance.", "description_zh": "", "downloads": 176, "homepage": "https://clawhub.ai/mosonchan2023/polymarket-portfolio", "iconUrl": null, "installs": 22, "name": "Polymarket Portfolio", "ownerName": "mosonchan2023", "score": 13559.322033898305, "slug": "polymarket-portfolio", "source": "clawhub", "stars": 0, "tags": null, "updated_at": 1776759683087, "version": "1.0.1"}, {"category": "security-compliance", "created_at": 1773089715433, "description": "Look up Malaysian company registration data from SSM. Returns directors, status, filings, business type.", "description_zh": "", "downloads": 176, "homepage": "https://clawhub.ai/wms2537/my-ssm-business-lookup", "iconUrl": null, "installs": 6, "name": "Malaysian Business Lookup (SSM)", "ownerName": "wms2537", "score": 13496.932515337423, "slug": "my-ssm-business-lookup", "source": "clawhub", "stars": 0, "tags": null, "updated_at": 1776759682780, "version": "1.0.0"}, {"category": "productivity", "created_at": 1773079800461, "description": "Generates clean, structured code, SVG/diagram visuals, JSON/YAML data, or Markdown docs for seamless integration with Claude's Artifacts UI.", "description_zh": "", "downloads": 176, "homepage": "https://clawhub.ai/mosonchan2023/claude-artifact-generator", "iconUrl": null, "installs": 10, "name": "Claude Artifact Generator", "ownerName": "mosonchan2023", "score": 95652.17391304349, "slug": "claude-artifact-generator", "source": "clawhub", "stars": 0, "tags": null, "updated_at": 1776759682697, "version": "1.0.0"}, {"category": "", "created_at": 1774904051495, "description": "Xiaohongshu infographic card style presets and prompt templates for astrology, tarot, and lifestyle content. Provides 8 visual styles × 8 layouts with ready-...", "description_zh": "", "downloads": 176, "homepage": "https://clawhub.ai/luoboask/aura-xhs-images", "iconUrl": null, "installs": 20, "name": "Aura Xhs Images", "ownerName": "luoboask", "score": 6866.9527896995705, "slug": "aura-xhs-images", "source": "clawhub", "stars": 0, "tags": null, "updated_at": 1776759682388, "version": "1.3.2"}, {"category": "data-analysis", "created_at": 1773069204815, "description": "Fetch real-time yes/no probabilities, volume, liquidity, and details for any Polymarket prediction market by keyword or question.", "description_zh": "", "downloads": 176, "homepage": "https://clawhub.ai/mosonchan2023/polymarket-market-prices", "iconUrl": null, "installs": 24, "name": "Polymarket Market Prices", "ownerName": "mosonchan2023", "score": 13590.733590733593, "slug": "polymarket-market-prices", "source": "clawhub", "stars": 0, "tags": null, "updated_at": 1776759682321, "version": "1.0.1"}, {"category": "ai-intelligence", "created_at": 1773286507463, "description": "Memory-powered AI chat with context-aware, emotionally matched responses citing personal memories and supporting peer messaging and exports.", "description_zh": "", "downloads": 176, "homepage": "https://clawhub.ai/kkw-21/chats", "iconUrl": null, "installs": 10, "name": "EchoChat", "ownerName": "kkw-21", "score": 13517.665130568357, "slug": "chats", "source": "clawhub", "stars": 0, "tags": null, "updated_at": 1776759682216, "version": "1.0.0"}, {"category": "content-creation", "created_at": 1773285359526, "description": "Generate and edit images using the AceData Nano Banana API. Supports models like nano-banana-2, custom aspect ratios (default 16:9), and resolutions (default...", "description_zh": "", "downloads": 176, "homepage": "https://clawhub.ai/xiyunnet/ace-banana2", "iconUrl": null, "installs": 3, "name": "Ace Banana2 Image Generation / Ace Banana2 图像生成", "ownerName": "xiyunnet", "score": 30769.23076923077, "slug": "ace-banana2", "source": "clawhub", "stars": 0, "tags": null, "updated_at": 1776755288652, "version": "1.0.4"}, {"category": "productivity", "created_at": 1773069858168, "description": "Outreach integration. Manage sales data, records, and workflows. Use when the user wants to interact with Outreach data.", "description_zh": "", "downloads": 176, "homepage": "https://clawhub.ai/gora050/outreach-integration", "iconUrl": null, "installs": 5, "name": "Outreach", "ownerName": "gora050", "score": 31316.725978647686, "slug": "outreach-integration", "source": "clawhub", "stars": 0, "tags": null, "updated_at": 1776749385441, "version": "1.0.0"}, {"category": "ai-intelligence", "created_at": 1773069630209, "description": "Voice conversation interface for OpenClaw using wake word detection, streaming LLM responses, and text-to-speech. Use when a user wants to talk to their Open...", "description_zh": "", "downloads": 176, "homepage": "https://clawhub.ai/kentoku24/voiceclaw-jp", "iconUrl": null, "installs": 6, "name": "voiceclaw", "ownerName": "kentoku24", "score": 91191.70984455959, "slug": "voiceclaw-jp", "source": "clawhub", "stars": 0, "tags": null, "updated_at": 1776749385406, "version": "0.1.0"}, {"category": "productivity", "created_at": 1773067150968, "description": "Navigate Bali as visitor, resident, remote worker, student, or founder with neighborhoods, visas, transport, costs, and practical local guidance.", "description_zh": "", "downloads": 176, "homepage": "https://clawhub.ai/ivangdavila/bali", "iconUrl": null, "installs": 4, "name": "Bali", "ownerName": "ivangdavila", "score": 91191.70984455959, "slug": "bali", "source": "clawhub", "stars": 0, "tags": null, "updated_at": 1776749385363, "version": "1.0.0"}, {"category": "productivity", "created_at": 1773205331090, "description": "Guided learning skill — one concept at a time, gentle guidance, comprehension checks, chapter review", "description_zh": "", "downloads": 176, "homepage": "https://clawhub.ai/jiangkaiqi2005/guided-learning", "iconUrl": null, "installs": 9, "name": "Guided Learning", "ownerName": "jiangkaiqi2005", "score": 91191.70984455959, "slug": "guided-learning", "source": "clawhub", "stars": 0, "tags": null, "updated_at": 1776749385352, "version": "1.0.2"}, {"category": "ai-intelligence", "created_at": 1773080229555, "description": "Explains vvvv gamma visual programming patterns — dataflow, node connections, regions (ForEach/If/Switch/Repeat/Accumulator), channels for reactive data flow...", "description_zh": "", "downloads": 176, "homepage": "https://clawhub.ai/tebjan/vvvv-patching", "iconUrl": null, "installs": 19, "name": "Vvvv Patching", "ownerName": "tebjan", "score": 91191.70984455959, "slug": "vvvv-patching", "source": "clawhub", "stars": 0, "tags": null, "updated_at": 1776749385346, "version": "1.0.0"}, {"category": "communication-collaboration", "created_at": 1773079003324, "description": "Microsoft Dynamics 365 integration. Manage crm and sales data, records, and workflows. Use when the user wants to interact with Microsoft Dynamics 365 data.", "description_zh": "", "downloads": 176, "homepage": "https://clawhub.ai/membranedev/dynamics-crm", "iconUrl": null, "installs": 10, "name": "Dynamics Crm", "ownerName": "membranedev", "score": 91191.70984455959, "slug": "dynamics-crm", "source": "clawhub", "stars": 0, "tags": null, "updated_at": 1776749385305, "version": "1.0.0"}, {"category": "productivity", "created_at": 1773080525541, "description": "For merchants selling vertical niche/interest products (e.g. vinyl turntable accessories, serious outdoor/camping gear, enthusiast categories). Provides a fu...", "description_zh": "", "downloads": 176, "homepage": "https://clawhub.ai/rijoyai/vertical-niche-community-selection", "iconUrl": null, "installs": 8, "name": "Vertical Niche Community Selection", "ownerName": "rijoyai", "score": 73949.57983193277, "slug": "vertical-niche-community-selection", "source": "clawhub", "stars": 0, "tags": null, "updated_at": 1776749385091, "version": "0.1.2"}, {"category": "communication-collaboration", "created_at": 1773089367847, "description": "Email marketing automation for campaigns, newsletters, and customer engagement. Use when creating email sequences, drip campaigns, promotional emails, or cus...", "description_zh": "", "downloads": 176, "homepage": "https://clawhub.ai/yinanping-cpu/yinan-email-marketing", "iconUrl": null, "installs": 3, "name": "Email Marketing", "ownerName": "yinanping-cpu", "score": 32293.57798165138, "slug": "yinan-email-marketing", "source": "clawhub", "stars": 0, "tags": null, "updated_at": 1776749385068, "version": "1.0.1"}, {"category": "developer-tools", "created_at": 1773080518894, "description": "Decentralized swarm governance for AI agents. Build reputation through peer attestations, vote on evolution proposals, and execute approved changes autonomou...", "description_zh": "", "downloads": 176, "homepage": "https://clawhub.ai/nantes/the-hive-swarm-governance", "iconUrl": null, "installs": 6, "name": "The Hive Swarm Governance", "ownerName": "nantes", "score": 32293.57798165138, "slug": "the-hive-swarm-governance", "source": "clawhub", "stars": 0, "tags": ["latest swarm governance reputation trust consensus voting autonomous agents"], "updated_at": 1776749385058, "version": "1.0.0"}, {"category": "ai-intelligence", "created_at": 1773426349183, "description": "Evaluate whether an agent change introduced regressions by comparing matched before vs after case results. Use when reviewing prompt updates, model switches,...", "description_zh": "", "downloads": 176, "homepage": "https://clawhub.ai/vassiliylakhonin/agent-regression-guard", "iconUrl": null, "installs": 19, "name": "Agent Regression Check", "ownerName": "vassiliylakhonin", "score": 32293.57798165138, "slug": "agent-regression-guard", "source": "clawhub", "stars": 0, "tags": ["agent", "evaluation", "llm", "qa", "regression"], "updated_at": 1776749385004, "version": "0.3.2"}, {"category": "communication-collaboration", "created_at": 1773091533874, "description": "Back up files uploaded to a Feishu group chat to the local doc/backup directory. Supports smart matching: multiple files, filename prefix/keyword filter, fil...", "description_zh": "", "downloads": 176, "homepage": "https://clawhub.ai/caigang78/feishu-backup", "iconUrl": null, "installs": 17, "name": "Feishu Backup", "ownerName": "caigang78", "score": 47696.476964769645, "slug": "feishu-backup", "source": "clawhub", "stars": 0, "tags": ["backup", "feishu"], "updated_at": 1776749384894, "version": "1.0.0"}, {"category": "data-analysis", "created_at": 1773078304432, "description": "Monte Carlo Crypto Trading Core. Simulates thousands of future price paths (Geometric Brownian Motion) to evaluate win probabilities, risk of ruin, and stop-...", "description_zh": "", "downloads": 176, "homepage": "https://clawhub.ai/totoxu/totoxu-montecarlo", "iconUrl": null, "installs": 9, "name": "Monte Carlo Crypto Core", "ownerName": "totoxu", "score": 47696.476964769645, "slug": "totoxu-montecarlo", "source": "clawhub", "stars": 0, "tags": null, "updated_at": 1776749384881, "version": "1.3.0"}, {"category": "developer-tools", "created_at": 1773222222834, "description": "API Test Suite Builder", "description_zh": "", "downloads": 176, "homepage": "https://clawhub.ai/alirezarezvani/api-test-suite-builder", "iconUrl": null, "installs": 10, "name": "api-test-suite-builder", "ownerName": "alirezarezvani", "score": 78571.42857142857, "slug": "api-test-suite-builder", "source": "clawhub", "stars": 0, "tags": null, "updated_at": 1776749384824, "version": "2.1.1"}, {"category": "developer-tools", "created_at": 1773089917567, "description": "Generate professional PDF invoices from simple text commands. Supports multiple currencies, tax calculation, CJK text, and customizable templates. No externa...", "description_zh": "", "downloads": 176, "homepage": "https://clawhub.ai/zacjiang/invoice-gen", "iconUrl": null, "installs": 8, "name": "Invoice Gen", "ownerName": "zacjiang", "score": 78571.42857142857, "slug": "invoice-gen", "source": "clawhub", "stars": 0, "tags": null, "updated_at": 1776749384806, "version": "1.0.0"}, {"category": "developer-tools", "created_at": 1773068904882, "description": "Tracks technical debt as actual financial debt — with principal, interest rates, minimum payments, and compound growth. Turns vague \"we should fix that somed...", "description_zh": "", "downloads": 176, "homepage": "https://clawhub.ai/jcools1977/tech-debt-ledger", "iconUrl": null, "installs": 15, "name": "Tech Debt Ledger", "ownerName": "jcools1977", "score": 87562.18905472638, "slug": "tech-debt-ledger", "source": "clawhub", "stars": 0, "tags": null, "updated_at": 1776749384709, "version": "1.0.0"}, {"category": "developer-tools", "created_at": 1773088574034, "description": "Convert any REST API into an OpenClaw skill automatically. Generates SKILL.md, scripts, and claw.json from OpenAPI spec or URL. Use when you want to quickly...", "description_zh": "", "downloads": 176, "homepage": "https://clawhub.ai/neckr0ik/neckr0ik-api-wrapper", "iconUrl": null, "installs": 8, "name": "Neckr0ik Api Wrapper", "ownerName": "neckr0ik", "score": 87562.18905472638, "slug": "neckr0ik-api-wrapper", "source": "clawhub", "stars": 0, "tags": null, "updated_at": 1776749384702, "version": "1.0.0"}, {"category": "content-creation", "created_at": 1773069237404, "description": "Manage social media accounts for multiple clients safely with proxy isolation. Prevent cascading bans, schedule content across platforms, and handle 10-100+...", "description_zh": "", "downloads": 176, "homepage": "https://clawhub.ai/luis2404123/smma-agency-proxy", "iconUrl": null, "installs": 6, "name": "SMMA Agency Proxy", "ownerName": "luis2404123", "score": 87562.18905472638, "slug": "smma-agency-proxy", "source": "clawhub", "stars": 0, "tags": null, "updated_at": 1776749384650, "version": "1.0.0"}, {"category": "content-creation", "created_at": 1773429396250, "description": "MBA thesis advisor for improving academic papers to award-winning quality. Use when a user wants to: (1) upgrade an MBA thesis to top-tier quality (e.g., Tsi...", "description_zh": "", "downloads": 176, "homepage": "https://clawhub.ai/chao1208/mba-thesis-advisor", "iconUrl": null, "installs": 25, "name": "MBA Thesis Advisor", "ownerName": "chao1208", "score": 39373.60178970917, "slug": "mba-thesis-advisor", "source": "clawhub", "stars": 0, "tags": ["academic-writing", "latex", "mba", "thesis"], "updated_at": 1776749384496, "version": "1.0.0"}, {"category": "productivity", "created_at": 1773068947545, "description": "Xero integration. Manage accounting data, records, and workflows. Use when the user wants to interact with Xero data.", "description_zh": "", "downloads": 176, "homepage": "https://clawhub.ai/gora050/xero-integration", "iconUrl": null, "installs": 0, "name": "Xero", "ownerName": "gora050", "score": 94623.6559139785, "slug": "xero-integration", "source": "clawhub", "stars": 0, "tags": null, "updated_at": 1776749384293, "version": "1.0.0"}, {"category": "ai-intelligence", "created_at": 1773069935398, "description": "You have a hardware-secured crypto wallet with built-in trading engines. Invoke this skill for any crypto, wallet, or blockchain operation: checking balances...", "description_zh": "", "downloads": 176, "homepage": "https://clawhub.ai/tigerpassnet/tigerpass", "iconUrl": null, "installs": 12, "name": "TigerPass", "ownerName": "tigerpassnet", "score": 94623.6559139785, "slug": "tigerpass", "source": "clawhub", "stars": 0, "tags": ["agent-economy", "agent-identity", "agent-messaging", "ai-agent", "crypto", "defi", "e2e-encryption", "erc-8004", "hyperliquid", "on-chain-identity", "polymarket", "secure-enclave", "tap-protocol", "trading", "wallet"], "updated_at": 1776749384291, "version": "0.1.0"}, {"category": "ai-intelligence", "created_at": 1773078074645, "description": "Evaluate individual framework controls against organizational documentation with evidence extraction, severity classification, and remediation recommendations.", "description_zh": "", "downloads": 176, "homepage": "https://clawhub.ai/dangsllc/control-assessment", "iconUrl": null, "installs": 11, "name": "Control Assessment", "ownerName": "dangsllc", "score": 87562.18905472638, "slug": "control-assessment", "source": "clawhub", "stars": 0, "tags": null, "updated_at": 1776749384255, "version": "0.1.3"}, {"category": "ai-intelligence", "created_at": 1773079536492, "description": "Moralis — Web3 data, token prices, wallet history, NFTs, DeFi positions, and blockchain events.", "description_zh": "", "downloads": 176, "homepage": "https://clawhub.ai/aiwithabidi/moralis", "iconUrl": null, "installs": 11, "name": "Moralis", "ownerName": "aiwithabidi", "score": 87562.18905472638, "slug": "moralis", "source": "clawhub", "stars": 0, "tags": null, "updated_at": 1776749384242, "version": "1.0.0"}, {"category": "developer-tools", "created_at": 1773083539968, "description": "Build data pipelines for ETL (Extract, Transform, Load). Connect databases, APIs, files, and cloud storage. Transform and sync data automatically. Use when y...", "description_zh": "", "downloads": 176, "homepage": "https://clawhub.ai/neckr0ik/neckr0ik-etl-builder", "iconUrl": null, "installs": 8, "name": "Neckr0ik Etl Builder", "ownerName": "neckr0ik", "score": 87562.18905472638, "slug": "neckr0ik-etl-builder", "source": "clawhub", "stars": 0, "tags": null, "updated_at": 1776749384232, "version": "1.0.0"}, {"category": "productivity", "created_at": 1773088994897, "description": "Use this skill when the user asks about reading highlights, book notes, annotations, or reading history from KOReader. Triggers: \"what books\", \"show highligh...", "description_zh": "", "downloads": 176, "homepage": "https://clawhub.ai/myugan/koreader-highlights", "iconUrl": null, "installs": 8, "name": "koreader-highlights", "ownerName": "myugan", "score": 87562.18905472638, "slug": "koreader-highlights", "source": "clawhub", "stars": 0, "tags": null, "updated_at": 1776749384231, "version": "1.0.1"}, {"category": "communication-collaboration", "created_at": 1773080929117, "description": "Gmail: Watch for new emails and stream them as NDJSON.", "description_zh": "", "downloads": 176, "homepage": "https://clawhub.ai/googleworkspace-bot/gws-gmail-watch", "iconUrl": null, "installs": 14, "name": "Gws Gmail Watch", "ownerName": "googleworkspace-bot", "score": 87562.18905472638, "slug": "gws-gmail-watch", "source": "clawhub", "stars": 0, "tags": null, "updated_at": 1776749384221, "version": "1.0.0"}]}