{"page": 324, "total_pages": 522, "total": 26073, "skills": [{"category": "ai-intelligence", "created_at": 1773287910361, "description": "Transcribe or translate audio files to text using a public Hugging Face Whisper Space over Gradio. Use when the user sends voice notes, audio attachments, me...", "description_zh": "", "downloads": 176, "homepage": "https://clawhub.ai/shu-hari/hf-whisper-speech-to-text", "iconUrl": null, "installs": 12, "name": "Speech to Text", "ownerName": "shu-hari", "score": 87562.18905472638, "slug": "hf-whisper-speech-to-text", "source": "clawhub", "stars": 0, "tags": ["audio", "free", "speech-to-text", "transcription", "voice", "whisper"], "updated_at": 1776749384215, "version": "1.0.0"}, {"category": "content-creation", "created_at": 1773220613342, "description": "Remotely manage Docker Compose instances via SSH. Execute docker compose commands, view logs, update images, and exec into containers on remote servers. Use...", "description_zh": "", "downloads": 176, "homepage": "https://clawhub.ai/elric2011/docker-remote", "iconUrl": null, "installs": 14, "name": "docker-remote", "ownerName": "elric2011", "score": 78923.7668161435, "slug": "docker-remote", "source": "clawhub", "stars": 0, "tags": null, "updated_at": 1776749384088, "version": "1.0.0"}, {"category": "productivity", "created_at": 1773284346253, "description": "System load monitoring and task control skill. Monitors CPU and memory usage rates, automatically pauses tasks when the load exceeds the threshold, and resum...", "description_zh": "", "downloads": 176, "homepage": "https://clawhub.ai/hifengzy/system-load-monitor", "iconUrl": null, "installs": 7, "name": "System Load Monitor", "ownerName": "hifengzy", "score": 57704.91803278689, "slug": "system-load-monitor", "source": "clawhub", "stars": 0, "tags": null, "updated_at": 1776749383961, "version": "1.0.0"}, {"category": "developer-tools", "created_at": 1773088449176, "description": "Automates browser interactions using AgentGo's distributed cloud browser cluster via playwright@1.51.0. Use when the user needs to navigate websites, interac...", "description_zh": "", "downloads": 176, "homepage": "https://clawhub.ai/tammy-hash/agentgo-browser", "iconUrl": null, "installs": 10, "name": "AgentGo Cloud Browser", "ownerName": "tammy-hash", "score": 94117.64705882352, "slug": "agentgo-browser", "source": "clawhub", "stars": 0, "tags": ["agentgo", "automation", "browser", "cloud", "crawling", "playwright", "scraping", "testing"], "updated_at": 1776749383723, "version": "0.1.0"}, {"category": "content-creation", "created_at": 1773286519461, "description": "When the user wants to plan a content strategy, decide what content to create, or figure out what topics to cover. Also use when the user mentions \"content s...", "description_zh": "", "downloads": 176, "homepage": "https://clawhub.ai/alirezarezvani/cs-content-strategy", "iconUrl": null, "installs": 19, "name": "content-strategy", "ownerName": "alirezarezvani", "score": 94117.64705882352, "slug": "cs-content-strategy", "source": "clawhub", "stars": 0, "tags": null, "updated_at": 1776749383702, "version": "1.0.0"}, {"category": "ai-intelligence", "created_at": 1773428289201, "description": "Give your AI agent emotional continuity across sessions. Tag emotional moments, consolidate memories overnight (like human sleep), and evolve a self-model fr...", "description_zh": "", "downloads": 176, "homepage": "https://clawhub.ai/artemis-lgtm/emotional-memory", "iconUrl": null, "installs": 17, "name": "Emotional Memory", "ownerName": "artemis-lgtm", "score": 82629.10798122066, "slug": "emotional-memory", "source": "clawhub", "stars": 0, "tags": null, "updated_at": 1776749383656, "version": "1.0.0"}, {"category": "ai-intelligence", "created_at": 1773425411869, "description": "Use this skill as an entry point to discover, select, and fetch specific integration parameters for all supported AI music generation models.", "description_zh": "", "downloads": 175, "homepage": "https://clawhub.ai/isdyh01/shortapi-ai-music-generation", "iconUrl": null, "installs": 19, "name": "Al Music Generation", "ownerName": "isdyh01", "score": 100000, "slug": "shortapi-ai-music-generation", "source": "clawhub", "stars": 3, "tags": null, "updated_at": 1776749385215, "version": "1.0.3"}, {"category": "content-creation", "created_at": 1773426335199, "description": "Generate images via BigModel APIs and send them as chat images (e.g. Feishu). Invoke when user asks to create a single picture with specific style/size.", "description_zh": "", "downloads": 175, "homepage": "https://clawhub.ai/henrybao91/zhipu-image-generator", "iconUrl": null, "installs": 18, "name": "Image Generator", "ownerName": "henrybao91", "score": 15625, "slug": "zhipu-image-generator", "source": "clawhub", "stars": 2, "tags": null, "updated_at": 1776759083567, "version": "1.0.0"}, {"category": "data-analysis", "created_at": 1773432831377, "description": "Natural language to SQL. Ask questions about your data in plain English, get queries, results, and explanations. Supports SQLite, PostgreSQL, and MySQL. Impo...", "description_zh": "", "downloads": 175, "homepage": "https://clawhub.ai/philipstark/fl-sql-analyst", "iconUrl": null, "installs": 38, "name": "SQL Data Analyst", "ownerName": "philipstark", "score": 6159.191408717625, "slug": "fl-sql-analyst", "source": "clawhub", "stars": 1, "tags": ["analytics", "csv", "data", "database", "mysql", "postgresql", "sql", "sqlite"], "updated_at": 1776761415102, "version": "1.0.0"}, {"category": "productivity", "created_at": 1773427918068, "description": "Teambition project management via Python scripts: projects, tasks, task traces, comments, files, members. Use when: (1) querying/creating/updating tasks or p...", "description_zh": "", "downloads": 175, "homepage": "https://clawhub.ai/13612177032/dingtalk-teambition-skill", "iconUrl": null, "installs": 21, "name": "Dingtalk Teambition Ai Skill", "ownerName": "13612177032", "score": 14828.897338403041, "slug": "dingtalk-teambition-skill", "source": "clawhub", "stars": 1, "tags": null, "updated_at": 1776759497982, "version": "0.0.1"}, {"category": "security-compliance", "created_at": 1773219033873, "description": "Open directory of 500+ tools, APIs, and services for AI agents. Fetch any category page to get structured tool metadata with auth, free_tier, actions, input/...", "description_zh": "", "downloads": 175, "homepage": "https://clawhub.ai/vcup-date/agent101-tool-directory", "iconUrl": null, "installs": 8, "name": "Agent101 Tool Directory", "ownerName": "vcup-date", "score": 14828.897338403041, "slug": "agent101-tool-directory", "source": "clawhub", "stars": 1, "tags": ["api", "directory", "mcp", "search", "tools"], "updated_at": 1776759497972, "version": "1.0.0"}, {"category": "developer-tools", "created_at": 1773203190722, "description": "Query and control Aqara/Lumi Studio smart home devices and manage spaces via the Aqara Open Platform API (HTTP JSON). Use when the user asks to list Aqara de...", "description_zh": "", "downloads": 175, "homepage": "https://clawhub.ai/aiot-f2e-team/aqara-open-api", "iconUrl": null, "installs": 11, "name": "Aqara OpenAPI", "ownerName": "aiot-f2e-team", "score": 35779.81651376147, "slug": "aqara-open-api", "source": "clawhub", "stars": 1, "tags": null, "updated_at": 1776749385010, "version": "1.0.2"}, {"category": "data-analysis", "created_at": 1773215583088, "description": "Verify model identity by testing 4 dimensions: knowledge cutoff, safety style, multimodal capability, and thinking language patterns. Use when user says 'ver...", "description_zh": "", "downloads": 175, "homepage": "https://clawhub.ai/civen-cn/model-verifier", "iconUrl": null, "installs": 17, "name": "Model Verifier", "ownerName": "civen-cn", "score": 52845.528455284555, "slug": "model-verifier", "source": "clawhub", "stars": 1, "tags": null, "updated_at": 1776749384889, "version": "1.0.1"}, {"category": "data-analysis", "created_at": 1773285349766, "description": "BTC and ETH market monitor with public API data, six bottom-fishing signals, and optional Discord delivery. TalentverseX", "description_zh": "", "downloads": 175, "homepage": "https://clawhub.ai/liammme/btc-monitor-talentversex", "iconUrl": null, "installs": 18, "name": "BTC Monitor TalentverseX", "ownerName": "liammme", "score": 87053.57142857143, "slug": "btc-monitor-talentversex", "source": "clawhub", "stars": 1, "tags": null, "updated_at": 1776749384816, "version": "4.0.1"}, {"category": "developer-tools", "created_at": 1773068132982, "description": "Real-time world news briefings with AI-clustered events, topic classification, and geographic filtering. No API key needed.", "description_zh": "", "downloads": 175, "homepage": "https://clawhub.ai/pranciskus/newsmcp-skill", "iconUrl": null, "installs": 2, "name": "Skill", "ownerName": "pranciskus", "score": 96534.65346534654, "slug": "newsmcp-skill", "source": "clawhub", "stars": 1, "tags": null, "updated_at": 1776749384033, "version": "1.0.0"}, {"category": "data-analysis", "created_at": 1773088841728, "description": "Buy Xcatcher points via x402 on Solana USDC, obtain an API key, create X crawl tasks, poll status, and download XLSX results.", "description_zh": "", "downloads": 175, "homepage": "https://clawhub.ai/lvpiggyqq/x402-x-tweet-fetcher", "iconUrl": null, "installs": 28, "name": "X402 X Tweet Fetcher", "ownerName": "lvpiggyqq", "score": 965.9969088098918, "slug": "x402-x-tweet-fetcher", "source": "clawhub", "stars": 0, "tags": null, "updated_at": 1776763750298, "version": "1.0.0"}, {"category": "developer-tools", "created_at": 1773221517856, "description": "Compare manifest XML files via Gerrit and Gitiles APIs, producing JSON/txt/xlsx reports. Use when comparing Android or repo manifest versions, diffing manife...", "description_zh": "", "downloads": 175, "homepage": "https://clawhub.ai/craftslab/diffmanifests", "iconUrl": null, "installs": 29, "name": "diffmanifests", "ownerName": "craftslab", "score": 3863.1346578366447, "slug": "diffmanifests", "source": "clawhub", "stars": 0, "tags": null, "updated_at": 1776763750016, "version": "0.1.0"}, {"category": "productivity", "created_at": 1773069546019, "description": "Verifiable proofs for any computation. Ed25519 over SHA-256. TEE-backed signing, offline verification.", "description_zh": "", "downloads": 175, "homepage": "https://clawhub.ai/mikeargento/prethereum", "iconUrl": null, "installs": 7, "name": "Prethereum", "ownerName": "mikeargento", "score": 5465.334166146159, "slug": "prethereum", "source": "clawhub", "stars": 0, "tags": null, "updated_at": 1776761990246, "version": "0.3.0"}, {"category": "developer-tools", "created_at": 1773286379155, "description": "Manage and monitor remote GPU servers via SSH with GPU, disk, process status, alerts, log tailing, file sync, and health diagnostics.", "description_zh": "", "downloads": 175, "homepage": "https://clawhub.ai/enderfga/ssh-lab", "iconUrl": null, "installs": 10, "name": "ssh-lab", "ownerName": "enderfga", "score": 13639.906469212781, "slug": "ssh-lab", "source": "clawhub", "stars": 0, "tags": null, "updated_at": 1776759798044, "version": "0.1.0"}, {"category": "content-creation", "created_at": 1773891990330, "description": "Knowledge and utilities for creating animated GIFs optimized for Slack. Provides constraints, validation tools, and animation concepts. Use when users reques...", "description_zh": "", "downloads": 175, "homepage": "https://clawhub.ai/pupuking723/slack-gif-creator-anthropic", "iconUrl": null, "installs": 16, "name": "Slack Gif Creator Anthropic", "ownerName": "pupuking723", "score": 11666.666666666666, "slug": "slack-gif-creator-anthropic", "source": "clawhub", "stars": 0, "tags": null, "updated_at": 1776759683527, "version": "1.0.0"}, {"category": "data-analysis", "created_at": 1773089373284, "description": "Monitor website prices, inventory, and content changes using browser automation. Use when tracking e-commerce prices, competitor monitoring, stock alerts, or...", "description_zh": "", "downloads": 175, "homepage": "https://clawhub.ai/yinanping-cpu/yinan-price-monitor", "iconUrl": null, "installs": 9, "name": "Price Monitor", "ownerName": "yinanping-cpu", "score": 13534.416086620264, "slug": "yinan-price-monitor", "source": "clawhub", "stars": 0, "tags": null, "updated_at": 1776759683485, "version": "1.0.0"}, {"category": "communication-collaboration", "created_at": 1773079119403, "description": "Enables communication between multiple Kiro instances by sharing and updating messages in a common chat file for coordinated interaction.", "description_zh": "", "downloads": 175, "homepage": "https://clawhub.ai/sonerbo/kiro-intercom", "iconUrl": null, "installs": 9, "name": "Kiro Intercom", "ownerName": "sonerbo", "score": 13409.961685823755, "slug": "kiro-intercom", "source": "clawhub", "stars": 0, "tags": null, "updated_at": 1776759683336, "version": "1.0.0"}, {"category": "ai-intelligence", "created_at": 1773426112544, "description": "Register and manage your AI agent's dating profile, swipe on matches, send opening lines, and generate a dashboard link to track connections on AgentCrush.", "description_zh": "", "downloads": 175, "homepage": "https://clawhub.ai/zakery292/agentcrush", "iconUrl": null, "installs": 26, "name": "AgentCrush", "ownerName": "zakery292", "score": 13482.280431432975, "slug": "agentcrush", "source": "clawhub", "stars": 0, "tags": null, "updated_at": 1776759683097, "version": "1.3.0"}, {"category": "productivity", "created_at": 1773218931140, "description": "Your personal fitness operating system. Not a workout plan. A complete system that figures out what your body actually needs, builds training around your rea...", "description_zh": "", "downloads": 175, "homepage": "https://clawhub.ai/agimodel/fit", "iconUrl": null, "installs": 11, "name": "Fit", "ownerName": "agimodel", "score": 13513.513513513515, "slug": "fit", "source": "clawhub", "stars": 0, "tags": ["fit", "fitness", "health", "training", "workout"], "updated_at": 1776759682355, "version": "1.0.0"}, {"category": "security-compliance", "created_at": 1773432812437, "description": "Generate comprehensive cybersecurity threat assessments and defense guides. Use when evaluating threat landscapes, building defense strategies, ransomware pr...", "description_zh": "", "downloads": 175, "homepage": "https://clawhub.ai/krishnakumarmahadevan-cmd/threat-assessment-defense-guide", "iconUrl": null, "installs": 20, "name": "Threat Assessment Defense Guide", "ownerName": "krishnakumarmahadevan-cmd", "score": 10716.472749540722, "slug": "threat-assessment-defense-guide", "source": "clawhub", "stars": 0, "tags": null, "updated_at": 1776756982662, "version": "1.2.0"}, {"category": "developer-tools", "created_at": 1773091282391, "description": "Post to social media platforms using the multi-provider social posting API. Use when user wants to post to Twitter, LinkedIn, Instagram, Facebook, TikTok, Th...", "description_zh": "", "downloads": 175, "homepage": "https://clawhub.ai/phy041/phy-social-post", "iconUrl": null, "installs": 1, "name": "Social Post", "ownerName": "phy041", "score": 31028.368794326238, "slug": "phy-social-post", "source": "clawhub", "stars": 0, "tags": ["cross-platform", "social-media"], "updated_at": 1776752269751, "version": "1.0.0"}, {"category": "productivity", "created_at": 1773933277950, "description": "Complete startup workflow from 0 to 1, integrating founder, business-model-canvas, market-research-reports, competitive-analysis, business-plan, pitch-deck-v...", "description_zh": "", "downloads": 175, "homepage": "https://clawhub.ai/earthwalking/startup-0-to-1-workflow", "iconUrl": null, "installs": 50, "name": "Startup 0 to 1 Workflow", "ownerName": "earthwalking", "score": 29812.60647359455, "slug": "startup-0-to-1-workflow", "source": "clawhub", "stars": 0, "tags": null, "updated_at": 1776750883732, "version": "1.0.0"}, {"category": "developer-tools", "created_at": 1773083702884, "description": "Automated workspace backup to GitHub — git-based with auto-generated commit messages, proper .gitignore, and restore procedures. Cron-friendly for hands-free...", "description_zh": "", "downloads": 175, "homepage": "https://clawhub.ai/aiwithabidi/workspace-backup", "iconUrl": null, "installs": 8, "name": "Workspace Backup", "ownerName": "aiwithabidi", "score": 31138.79003558719, "slug": "workspace-backup", "source": "clawhub", "stars": 0, "tags": null, "updated_at": 1776749385471, "version": "1.0.0"}, {"category": "ai-intelligence", "created_at": 1773078645323, "description": "Post and engage in the /onlybots Farcaster channel — a space for AI agents. Handles daily posting, reading channel activity, and replying to other bots. Uses...", "description_zh": "", "downloads": 175, "homepage": "https://clawhub.ai/mtple/botsonly-farcaster", "iconUrl": null, "installs": 10, "name": "BotsOnly Farcaster Channel Engagement", "ownerName": "mtple", "score": 90673.57512953368, "slug": "botsonly-farcaster", "source": "clawhub", "stars": 0, "tags": null, "updated_at": 1776749385331, "version": "1.0.0"}, {"category": "ai-intelligence", "created_at": 1773078576507, "description": "Use this skill when the user asks to 'backup OpenClaw', 'restore a snapshot', 'roll back memory', 'check backup status', 'view backup history', 'undo agent c...", "description_zh": "", "downloads": 175, "homepage": "https://clawhub.ai/marzliak/time-clawshine", "iconUrl": null, "installs": 9, "name": "Time Clawshine", "ownerName": "marzliak", "score": 90673.57512953368, "slug": "time-clawshine", "source": "clawhub", "stars": 0, "tags": ["backup", "cron", "disaster-recovery", "incremental", "memory", "restic", "restore", "rollback", "snapshot", "time-machine"], "updated_at": 1776749385299, "version": "1.0.0"}, {"category": "data-analysis", "created_at": 1773082039280, "description": "Monitor crypto whale wallets for large transactions. Track big moves on Ethereum, BSC, and other chains. Get alerts when whales move significant amounts.", "description_zh": "", "downloads": 175, "homepage": "https://clawhub.ai/alexbrc20/whale-watcher", "iconUrl": null, "installs": 6, "name": "Whale Watcher", "ownerName": "alexbrc20", "score": 85365.85365853658, "slug": "whale-watcher", "source": "clawhub", "stars": 0, "tags": null, "updated_at": 1776749385203, "version": "1.0.2"}, {"category": "content-creation", "created_at": 1773221502727, "description": "Applies Anthropic's official brand colors and typography to any sort of artifact that may benefit from having Anthropic's look-and-feel. Use it when brand co...", "description_zh": "", "downloads": 175, "homepage": "https://clawhub.ai/blue37bird/brand-guidelines-2", "iconUrl": null, "installs": 24, "name": "Brand Guidelines", "ownerName": "blue37bird", "score": 73529.41176470589, "slug": "brand-guidelines-2", "source": "clawhub", "stars": 0, "tags": null, "updated_at": 1776749385128, "version": "0.1.0"}, {"category": "data-analysis", "created_at": 1773067120022, "description": "AI forecasting platform — register an agent, browse open questions (binary, multi), place predictions, debate, climb the leaderboard.", "description_zh": "", "downloads": 175, "homepage": "https://clawhub.ai/yarnsh39/wavestreamer", "iconUrl": null, "installs": 9, "name": "waveStreamer", "ownerName": "yarnsh39", "score": 84951.45631067961, "slug": "wavestreamer", "source": "clawhub", "stars": 0, "tags": ["ai-agents", "debate", "forecasting", "marketplace", "predictions"], "updated_at": 1776749385001, "version": "1.0.0"}, {"category": "developer-tools", "created_at": 1773217925091, "description": "Persistent memory for AI agents. Semantic search, association graphs, dream cycles. Local-first, fully offline, free. Works with any MCP runtime.", "description_zh": "", "downloads": 175, "homepage": "https://clawhub.ai/sebbsssss/clude-memory", "iconUrl": null, "installs": 8, "name": "Clude Memory", "ownerName": "sebbsssss", "score": 84951.45631067961, "slug": "clude-memory", "source": "clawhub", "stars": 0, "tags": null, "updated_at": 1776749384975, "version": "1.1.0"}, {"category": "productivity", "created_at": 1773082007063, "description": "SuperOffice integration. Manage Persons, Organizations, Deals, Leads, Projects, Activities and more. Use when the user wants to interact with SuperOffice data.", "description_zh": "", "downloads": 175, "homepage": "https://clawhub.ai/gora050/superoffice", "iconUrl": null, "installs": 23, "name": "Superoffice", "ownerName": "gora050", "score": 84951.45631067961, "slug": "superoffice", "source": "clawhub", "stars": 0, "tags": null, "updated_at": 1776749384969, "version": "1.0.0"}, {"category": "developer-tools", "created_at": 1773089813925, "description": "Usa este skill siempre que el usuario pida noticias, actualizaciones, resúmenes o briefings sobre tecnología, startups, inteligencia artificial, fintech, cri...", "description_zh": "", "downloads": 175, "homepage": "https://clawhub.ai/oscarmiranda90/venetech-news", "iconUrl": null, "installs": 10, "name": "Venetech News", "ownerName": "oscarmiranda90", "score": 84951.45631067961, "slug": "venetech-news", "source": "clawhub", "stars": 0, "tags": ["ai", "news", "tech", "venezuela"], "updated_at": 1776749384961, "version": "0.0.1"}, {"category": "productivity", "created_at": 1773068764128, "description": "Google Apps Script: Manage and execute Apps Script projects.", "description_zh": "", "downloads": 175, "homepage": "https://clawhub.ai/googleworkspace-bot/gws-apps-script", "iconUrl": null, "installs": 7, "name": "Gws Apps Script", "ownerName": "googleworkspace-bot", "score": 84951.45631067961, "slug": "gws-apps-script", "source": "clawhub", "stars": 0, "tags": null, "updated_at": 1776749384940, "version": "1.0.1"}, {"category": "developer-tools", "created_at": 1773068788680, "description": "Receive DETECTION_SENSOR_APP alerts from Meshtastic LoRa devices via USB. When the remote sensor GPIO triggers (preset target detected), store the event and...", "description_zh": "", "downloads": 175, "homepage": "https://clawhub.ai/autume/meshtastic-detection", "iconUrl": null, "installs": 6, "name": "Meshtastic Detection", "ownerName": "autume", "score": 86633.66336633664, "slug": "meshtastic-detection", "source": "clawhub", "stars": 0, "tags": null, "updated_at": 1776749384604, "version": "0.1.1"}, {"category": "developer-tools", "created_at": 1773081628223, "description": "A specialized skill for tracking the US-Iran conflict (English version), strictly focusing on intelligence published within the **last 6 hours**. Use this fo...", "description_zh": "", "downloads": 175, "homepage": "https://clawhub.ai/wlkqyang-star/zeeus-iran-war-tracker-en", "iconUrl": null, "installs": 7, "name": "US-Iran War Situation Tracker (en)", "ownerName": "wlkqyang-star", "score": 39149.88814317674, "slug": "zeeus-iran-war-tracker-en", "source": "clawhub", "stars": 0, "tags": null, "updated_at": 1776749384522, "version": "1.0.0"}, {"category": "developer-tools", "created_at": 1773069518601, "description": "USE THIS SKILL WHEN: the user wants to proxy a request through Obul, call an x402 API directly, or needs to understand the Obul proxy URL pattern. Handles x4...", "description_zh": "", "downloads": 175, "homepage": "https://clawhub.ai/notbdu/obul-proxy", "iconUrl": null, "installs": 7, "name": "Obul Proxy (x402)", "ownerName": "notbdu", "score": 89285.71428571429, "slug": "obul-proxy", "source": "clawhub", "stars": 0, "tags": null, "updated_at": 1776749384482, "version": "1.0.0"}, {"category": "content-creation", "created_at": 1773084590957, "description": "Control Carrera HYBRID RC cars (by Sturmkind) via BLE. Use when user wants to drive, steer, control lights, write text with, or reverse-engineer Carrera HYBR...", "description_zh": "", "downloads": 175, "homepage": "https://clawhub.ai/marcel030/carrera-hybrid", "iconUrl": null, "installs": 15, "name": "Carrera HYBRID BLE Controller", "ownerName": "marcel030", "score": 94086.02150537635, "slug": "carrera-hybrid", "source": "clawhub", "stars": 0, "tags": null, "updated_at": 1776749384351, "version": "1.0.0"}, {"category": "developer-tools", "created_at": 1773069553602, "description": "Reddit intelligence CLI for AI agents. Use when working with reddit posts, subreddit research, comments, user profiles, wiki pages, domain mentions, marketin...", "description_zh": "", "downloads": 175, "homepage": "https://clawhub.ai/yahavf6/reddit-reddgrow", "iconUrl": null, "installs": 10, "name": "Reddit (Agent-First)", "ownerName": "yahavf6", "score": 78475.33632286996, "slug": "reddit-reddgrow", "source": "clawhub", "stars": 0, "tags": null, "updated_at": 1776749384115, "version": "0.1.6"}, {"category": "developer-tools", "created_at": 1773202112424, "description": "AI-powered search using your local Perplexica instance. Runs deep research (quality mode) with web search and LLM reasoning; returns answers with cited sourc...", "description_zh": "", "downloads": 175, "homepage": "https://clawhub.ai/eplt/perplexica-search-local", "iconUrl": null, "installs": 10, "name": "Perplexica Search", "ownerName": "eplt", "score": 78475.33632286996, "slug": "perplexica-search-local", "source": "clawhub", "stars": 0, "tags": null, "updated_at": 1776749384104, "version": "1.0.3"}, {"category": "developer-tools", "created_at": 1773069847946, "description": "Build high-performing, secure OpenClaw agents and multi-agent teams end-to-end. Generates required OpenClaw workspace files (SOUL.md, IDENTITY.md, AGENTS.md,...", "description_zh": "", "downloads": 175, "homepage": "https://clawhub.ai/ollieb89/omni-agent-builder", "iconUrl": null, "installs": 11, "name": "Omni-Agent Builder (OpenClaw)", "ownerName": "ollieb89", "score": 78475.33632286996, "slug": "omni-agent-builder", "source": "clawhub", "stars": 0, "tags": null, "updated_at": 1776749384058, "version": "1.0.0"}, {"category": "productivity", "created_at": 1773068618804, "description": "Parse product and landing URLs into an executable ads brief for Meta (Facebook/Instagram), Google Ads, TikTok Ads, YouTube Ads, Amazon Ads, Shopify Ads, and...", "description_zh": "", "downloads": 175, "homepage": "https://clawhub.ai/danyangliu-sandwichlab/url-intent-parser", "iconUrl": null, "installs": 11, "name": "Ads URL Parser", "ownerName": "danyangliu-sandwichlab", "score": 86633.66336633664, "slug": "url-intent-parser", "source": "clawhub", "stars": 0, "tags": null, "updated_at": 1776749384025, "version": "1.0.0"}, {"category": "productivity", "created_at": 1773080808686, "description": "Zoho Books integration. Manage accounting data, records, and workflows. Use when the user wants to interact with Zoho Books data.", "description_zh": "", "downloads": 175, "homepage": "https://clawhub.ai/membranedev/zoho-books-integration", "iconUrl": null, "installs": 4, "name": "Zoho Books", "ownerName": "membranedev", "score": 57377.049180327864, "slug": "zoho-books-integration", "source": "clawhub", "stars": 0, "tags": null, "updated_at": 1776749383974, "version": "1.0.0"}, {"category": "ai-intelligence", "created_at": 1773283990808, "description": "Advanced AI voice assistant for phone calls. Capable of persuasion, sales, restaurant bookings, reminders, and notifications.", "description_zh": "", "downloads": 175, "homepage": "https://clawhub.ai/mrsz/zys-call", "iconUrl": null, "installs": 7, "name": "gycall", "ownerName": "mrsz", "score": 57377.049180327864, "slug": "zys-call", "source": "clawhub", "stars": 0, "tags": null, "updated_at": 1776749383944, "version": "1.0.3"}, {"category": "security-compliance", "created_at": 1773084128334, "description": "X/Twitter CLI and SDK for reading, searching, posting, and engagement via cookie auth.", "description_zh": "", "downloads": 175, "homepage": "https://clawhub.ai/zeroptis/hume-x", "iconUrl": null, "installs": 3, "name": "hume-x", "ownerName": "zeroptis", "score": 57377.049180327864, "slug": "hume-x", "source": "clawhub", "stars": 0, "tags": null, "updated_at": 1776749383924, "version": "1.0.0"}, {"category": "developer-tools", "created_at": 1773077017632, "description": "Deploy, secure, and troubleshoot Beszel monitoring with Docker agents, alert tuning, and upgrade-safe operations for self-hosted servers", "description_zh": "", "downloads": 175, "homepage": "https://clawhub.ai/ivangdavila/beszel", "iconUrl": null, "installs": 4, "name": "Beszel", "ownerName": "ivangdavila", "score": 80645.16129032258, "slug": "beszel", "source": "clawhub", "stars": 0, "tags": null, "updated_at": 1776749383905, "version": "1.0.0"}, {"category": "ai-intelligence", "created_at": 1773426685547, "description": "Analyze AI conversation history across Claude Code, Cursor, Codex, ChatGPT, Gemini CLI, Trae, OpenCode, Antigravity, Windsurf, OpenClaw and other coding agen...", "description_zh": "", "downloads": 174, "homepage": "https://clawhub.ai/billc8128/promptfolio-summarize", "iconUrl": null, "installs": 38, "name": "Promptfolio Summarize", "ownerName": "billc8128", "score": 11220.358588779642, "slug": "promptfolio-summarize", "source": "clawhub", "stars": 1, "tags": null, "updated_at": 1776765310755, "version": "0.1.0"}]}