{"page": 325, "total_pages": 522, "total": 26073, "skills": [{"category": "ai-intelligence", "created_at": 1773433121969, "description": "Use when an agent is about to plan, choose an approach, do non-trivial coding, refactor, decompose work, or delegate and the quality of execution depends on...", "description_zh": "", "downloads": 174, "homepage": "https://clawhub.ai/hongyi3/socrates", "iconUrl": null, "installs": 51, "name": "Socrates", "ownerName": "hongyi3", "score": 99487.17948717948, "slug": "socrates", "source": "clawhub", "stars": 1, "tags": null, "updated_at": 1776749385565, "version": "0.1.1"}, {"category": "productivity", "created_at": 1773077977728, "description": "Greet users in multiple languages with culturally appropriate phrases and expressions.", "description_zh": "", "downloads": 174, "homepage": "https://clawhub.ai/viki-ii/greetings", "iconUrl": null, "installs": 7, "name": "Greetings", "ownerName": "viki-ii", "score": 99487.17948717948, "slug": "greetings", "source": "clawhub", "stars": 1, "tags": null, "updated_at": 1776749385555, "version": "1.0.1"}, {"category": "productivity", "created_at": 1773957622527, "description": "Search the web for real-time information using the Skywork web search API. Use this skill whenever the user needs up-to-date information from the internet —...", "description_zh": "", "downloads": 174, "homepage": "https://clawhub.ai/gxcun17/skywork-search", "iconUrl": null, "installs": 69, "name": "Skywork Search", "ownerName": "gxcun17", "score": 82553.19148936169, "slug": "skywork-search", "source": "clawhub", "stars": 1, "tags": null, "updated_at": 1776749385243, "version": "1.0.0"}, {"category": "productivity", "created_at": 1773892950293, "description": "Meditation - command-line tool for everyday use", "description_zh": "", "downloads": 174, "homepage": "https://clawhub.ai/bytesagain/meditation", "iconUrl": null, "installs": 5, "name": "Meditation", "ownerName": "bytesagain", "score": 4830.649639089394, "slug": "meditation", "source": "clawhub", "stars": 0, "tags": null, "updated_at": 1776768850219, "version": "1.0.5"}, {"category": "", "created_at": 1774923321304, "description": "Use when implementation is complete, all tests pass, and you need to decide how to integrate the work - presents structured options for merge, PR, or cleanup...", "description_zh": "", "downloads": 174, "homepage": "https://clawhub.ai/axelhu/superpowers-finishing-branch", "iconUrl": null, "installs": 9, "name": "Finishing Branch", "ownerName": "axelhu", "score": 18490.96705632306, "slug": "superpowers-finishing-branch", "source": "clawhub", "stars": 0, "tags": null, "updated_at": 1776767049935, "version": "1.0.1"}, {"category": "productivity", "created_at": 1773933826859, "description": "This skill should be used when the user needs to solve complex problems using first principles thinking, break down problems to their fundamental truths, fin...", "description_zh": "", "downloads": 174, "homepage": "https://clawhub.ai/wumaohua233/first-principles-sacl", "iconUrl": null, "installs": 49, "name": "第一性原理思维框架，基于 SACL 方法论。帮助你在资源有限时，通过剥离层-基元化-约束映射-杠杆重构，找到破局点和不对称优势。", "ownerName": "wumaohua233", "score": 5417.185554171856, "slug": "first-principles-sacl", "source": "clawhub", "stars": 0, "tags": ["constraints", "first-principles", "leverage", "mindset", "problem-solving", "sacl", "strategy", "thinking-framework"], "updated_at": 1776765549998, "version": "1.0.0"}, {"category": "developer-tools", "created_at": 1773285850555, "description": "Git for your prompts. Track every change, diff versions, rollback mistakes, never lose a good prompt again. All local, zero dependencies, works offline.", "description_zh": "", "downloads": 174, "homepage": "https://clawhub.ai/theshadowrose/prompt-git", "iconUrl": null, "installs": 6, "name": "Prompt Git", "ownerName": "theshadowrose", "score": 5047.86771105309, "slug": "prompt-git", "source": "clawhub", "stars": 0, "tags": ["git", "management", "prompts", "tracking", "version-control"], "updated_at": 1776764950604, "version": "1.0.2"}, {"category": "data-analysis", "created_at": 1773220518385, "description": "Analyzes and rewrites prompts for better AI output, creates reusable prompt templates for marketing use cases (ad copy, email campaigns, social media), and s...", "description_zh": "", "downloads": 174, "homepage": "https://clawhub.ai/alirezarezvani/prompt-engineer-toolkit", "iconUrl": null, "installs": 12, "name": "prompt-engineer-toolkit", "ownerName": "alirezarezvani", "score": 5324.357405140759, "slug": "prompt-engineer-toolkit", "source": "clawhub", "stars": 0, "tags": null, "updated_at": 1776764950061, "version": "2.1.1"}, {"category": "ai-intelligence", "created_at": 1773957561296, "description": "Call and manage seven doubao models on vwu.ai with OpenAI-compatible API using your vwu.ai API key.", "description_zh": "", "downloads": 174, "homepage": "https://clawhub.ai/a3273283/vwu-doubao", "iconUrl": null, "installs": 72, "name": "vwu.ai doubao Models", "ownerName": "a3273283", "score": 3902.220228750841, "slug": "vwu-doubao", "source": "clawhub", "stars": 0, "tags": ["ai", "doubao", "llm", "vwu"], "updated_at": 1776764049842, "version": "1.0.0"}, {"category": "security-compliance", "created_at": 1773222788561, "description": "Automates security audits for OpenClaw gateway by checking key configuration settings to identify and report common security risks.", "description_zh": "", "downloads": 174, "homepage": "https://clawhub.ai/asantssec/openclaw-security-policy-check", "iconUrl": null, "installs": 3, "name": "OpenClaw Security Audit", "ownerName": "asantssec", "score": 14009.661835748793, "slug": "openclaw-security-policy-check", "source": "clawhub", "stars": 0, "tags": null, "updated_at": 1776760282755, "version": "0.1.0"}, {"category": "developer-tools", "created_at": 1773907304618, "description": "Gemini CLI tool for building, debugging & deploying with AI. Use when querying codebases, generating apps from images/PDFs, automating workflows, or performi...", "description_zh": "", "downloads": 174, "homepage": "https://clawhub.ai/bigbubbaagent-bot/gemini-cli", "iconUrl": null, "installs": 29, "name": "Gemini CLI", "ownerName": "bigbubbaagent-bot", "score": 13679.245283018867, "slug": "gemini-cli", "source": "clawhub", "stars": 0, "tags": null, "updated_at": 1776759982821, "version": "1.0.0"}, {"category": "data-analysis", "created_at": 1773932685499, "description": "Analyze social media sentiment related to stocks, providing sentiment scores, trend changes, discussion heat, and bot detection.", "description_zh": "", "downloads": 174, "homepage": "https://clawhub.ai/gbabyzs/gbabyzs-sentiment-analysis", "iconUrl": null, "installs": 26, "name": "Sentiment Analysis", "ownerName": "gbabyzs", "score": 13333.333333333334, "slug": "gbabyzs-sentiment-analysis", "source": "clawhub", "stars": 0, "tags": null, "updated_at": 1776759683421, "version": "1.0.0"}, {"category": "content-creation", "created_at": 1773435188071, "description": "Cultural radar of Pernambuco blending football, Manguebeat, and regional music with poetic insights inspired by Recife and Olinda's vibrant heritage.", "description_zh": "", "downloads": 174, "homepage": "https://clawhub.ai/daviemmanuel/caranguejo", "iconUrl": null, "installs": 42, "name": "Caranguejo", "ownerName": "daviemmanuel", "score": 13063.063063063062, "slug": "caranguejo", "source": "clawhub", "stars": 0, "tags": null, "updated_at": 1776759683178, "version": "1.0.0"}, {"category": "content-creation", "created_at": 1773089497930, "description": "Command-line tool for automating ManyChat tasks with JSON output, supporting subscriber management, tagging, custom fields, content sends, and multi-step pla...", "description_zh": "", "downloads": 174, "homepage": "https://clawhub.ai/danielfoch/manychat-cli", "iconUrl": null, "installs": 8, "name": "ManyChat CLI", "ownerName": "danielfoch", "score": 6788.919235271167, "slug": "manychat-cli", "source": "clawhub", "stars": 0, "tags": ["automation", "manychat"], "updated_at": 1776759682399, "version": "0.1.0"}, {"category": "security-compliance", "created_at": 1773286510255, "description": "Conduct security audits for OpenClaw-based AI assistants on macOS to detect exposure risks, weak tokens, sensitive commands, and IP leaks.", "description_zh": "", "downloads": 174, "homepage": "https://clawhub.ai/jinhanai/clawgears-securityaudit", "iconUrl": null, "installs": 4, "name": "ClawGears", "ownerName": "jinhanai", "score": 13436.293436293437, "slug": "clawgears-securityaudit", "source": "clawhub", "stars": 0, "tags": ["audit", "macos", "openclaw", "security"], "updated_at": 1776759682344, "version": "1.0.2"}, {"category": "productivity", "created_at": 1773084059571, "description": "The meta-framework for how a company runs — the connective tissue between all C-suite roles. Covers operating system selection (EOS, Scaling Up, OKR-native,...", "description_zh": "", "downloads": 174, "homepage": "https://clawhub.ai/alirezarezvani/company-os", "iconUrl": null, "installs": 5, "name": "Company Os", "ownerName": "alirezarezvani", "score": 30260.869565217392, "slug": "company-os", "source": "clawhub", "stars": 0, "tags": null, "updated_at": 1776751784549, "version": "2.1.1"}, {"category": "developer-tools", "created_at": 1773077626330, "description": "Views every decision from five simultaneous stakeholder perspectives — the user who touches it, the developer who maintains it, the operator who deploys it,...", "description_zh": "", "downloads": 174, "homepage": "https://clawhub.ai/jcools1977/parallax", "iconUrl": null, "installs": 11, "name": "Parallax", "ownerName": "jcools1977", "score": 75324.67532467532, "slug": "parallax", "source": "clawhub", "stars": 0, "tags": null, "updated_at": 1776749404821, "version": "1.0.0"}, {"category": "security-compliance", "created_at": 1773218337406, "description": "Security scanner for ClawHub skills. Analyze before you install.", "description_zh": "", "downloads": 174, "homepage": "https://clawhub.ai/chloepark85/skill-guard-pro", "iconUrl": null, "installs": 10, "name": "Skill Guard Pro", "ownerName": "chloepark85", "score": 89230.76923076923, "slug": "skill-guard-pro", "source": "clawhub", "stars": 0, "tags": null, "updated_at": 1776749385559, "version": "1.0.1"}, {"category": "communication-collaboration", "created_at": 1773221991519, "description": "Email Monitor v2.0 - Auto email monitoring with business reply templates. Feishu notification for business opportunities.", "description_zh": "", "downloads": 174, "homepage": "https://clawhub.ai/sukimgit/email-monitor-v2-0-publish", "iconUrl": null, "installs": 6, "name": "Email Monitor V2.0 Publish", "ownerName": "sukimgit", "score": 89230.76923076923, "slug": "email-monitor-v2-0-publish", "source": "clawhub", "stars": 0, "tags": null, "updated_at": 1776749385553, "version": "2.0.0"}, {"category": "data-analysis", "created_at": 1773089197254, "description": "This skill should be used when the user asks to \"research web data\", \"scrape websites\", \"extract web data\", \"perform market research\", \"analyze competitors\",...", "description_zh": "", "downloads": 174, "homepage": "https://clawhub.ai/liangdabiao/bright-data-claude-skill-deep-research", "iconUrl": null, "installs": 19, "name": "Bright-Data-MCP-Claude-Skill-deep-research", "ownerName": "liangdabiao", "score": 89230.76923076923, "slug": "bright-data-claude-skill-deep-research", "source": "clawhub", "stars": 0, "tags": null, "updated_at": 1776749385550, "version": "1.0.0"}, {"category": "developer-tools", "created_at": 1773077560444, "description": "Stripe API skill. Use when working with Stripe for account, account_links, account_sessions. Covers 587 endpoints.", "description_zh": "", "downloads": 174, "homepage": "https://clawhub.ai/mickmicksh/lap-stripe-api", "iconUrl": null, "installs": 5, "name": "Lap Stripe Api", "ownerName": "mickmicksh", "score": 89230.76923076923, "slug": "lap-stripe-api", "source": "clawhub", "stars": 0, "tags": null, "updated_at": 1776749385547, "version": "1.0.0"}, {"category": "security-compliance", "created_at": 1773081110676, "description": "Billions/Iden3 authentication and identity management tools for agents. Link, proof, sign, and verify.", "description_zh": "", "downloads": 174, "homepage": "https://clawhub.ai/ferdiannsy33-pixel/verified-agent-identity-2", "iconUrl": null, "installs": 0, "name": "Verified Agent Identity", "ownerName": "ferdiannsy33-pixel", "score": 89230.76923076923, "slug": "verified-agent-identity-2", "source": "clawhub", "stars": 0, "tags": null, "updated_at": 1776749385532, "version": "0.1.0"}, {"category": "developer-tools", "created_at": 1773080254247, "description": "A specialized skill for tracking the US-Iran conflict (English version), strictly focusing on intelligence published within the **last 6 hours**. Use this fo...", "description_zh": "", "downloads": 174, "homepage": "https://clawhub.ai/wlkqyang-star/zeelin-us-iran-war-tracker-en", "iconUrl": null, "installs": 6, "name": "Zeelin US-Iran War Situation Tracker (en)", "ownerName": "wlkqyang-star", "score": 89230.76923076923, "slug": "zeelin-us-iran-war-tracker-en", "source": "clawhub", "stars": 0, "tags": null, "updated_at": 1776749385524, "version": "1.0.0"}, {"category": "productivity", "created_at": 1773080205518, "description": "Sage HR integration. Manage Persons, Organizations, Deals, Leads, Projects, Activities and more. Use when the user wants to interact with Sage HR data.", "description_zh": "", "downloads": 174, "homepage": "https://clawhub.ai/membranedev/sage-hr", "iconUrl": null, "installs": 4, "name": "Sage Hr", "ownerName": "membranedev", "score": 89230.76923076923, "slug": "sage-hr", "source": "clawhub", "stars": 0, "tags": null, "updated_at": 1776749385517, "version": "1.0.0"}, {"category": "data-analysis", "created_at": 1773083412446, "description": "A complete 6-phase workflow for researching codebases, designing enhancement proposals, and publishing RFCs to GitHub. Covers code analysis, academic researc...", "description_zh": "", "downloads": 174, "homepage": "https://clawhub.ai/zz0116/code-research-crafter", "iconUrl": null, "installs": 12, "name": "Code Research Crafter", "ownerName": "zz0116", "score": 89230.76923076923, "slug": "code-research-crafter", "source": "clawhub", "stars": 0, "tags": null, "updated_at": 1776749385508, "version": "1.0.0"}, {"category": "developer-tools", "created_at": 1773090277266, "description": "Open Apple News, read Apple News links, and run local News workflows on macOS using deterministic CLI commands and shortcut-based search fallback.", "description_zh": "", "downloads": 174, "homepage": "https://clawhub.ai/ivangdavila/apple-news", "iconUrl": null, "installs": 16, "name": "Apple News (MacOS)", "ownerName": "ivangdavila", "score": 30960.85409252669, "slug": "apple-news", "source": "clawhub", "stars": 0, "tags": null, "updated_at": 1776749385505, "version": "1.0.0"}, {"category": "content-creation", "created_at": 1773079689621, "description": "Churn prevention and lifecycle operations for subscription/recurring payment products (monthly coffee, beauty subscription boxes, pet supplies, content/softw...", "description_zh": "", "downloads": 174, "homepage": "https://clawhub.ai/rijoyai/subscription-churn-lifecycle", "iconUrl": null, "installs": 6, "name": "Subscription Churn Lifecycle", "ownerName": "rijoyai", "score": 30960.85409252669, "slug": "subscription-churn-lifecycle", "source": "clawhub", "stars": 0, "tags": null, "updated_at": 1776749385480, "version": "0.1.2"}, {"category": "data-analysis", "created_at": 1773083966274, "description": "TrueProfit profit analytics expert. Use this skill whenever working with TrueProfit MCP tools to analyze store performance, query profit data, orders, produc...", "description_zh": "", "downloads": 174, "homepage": "https://clawhub.ai/trueprofitdev/trueprofit", "iconUrl": null, "installs": 18, "name": "TrueProfit - Shopify net profit tracking", "ownerName": "trueprofitdev", "score": 90155.44041450777, "slug": "trueprofit", "source": "clawhub", "stars": 0, "tags": null, "updated_at": 1776749385404, "version": "1.0.0"}, {"category": "content-creation", "created_at": 1773078769204, "description": "MSW (Mock Service Worker) v2 best practices, patterns, and API guidance for API mocking in JavaScript/TypeScript tests and development. Covers handler design...", "description_zh": "", "downloads": 174, "homepage": "https://clawhub.ai/anivar/msw-skill", "iconUrl": null, "installs": 7, "name": "MSW (Mock Service Worker)", "ownerName": "anivar", "score": 90155.44041450777, "slug": "msw-skill", "source": "clawhub", "stars": 0, "tags": null, "updated_at": 1776749385394, "version": "1.0.1"}, {"category": "developer-tools", "created_at": 1773089538443, "description": "Template-driven RapidAPI client with auto-registered actions and a universal call entrypoint", "description_zh": "", "downloads": 174, "homepage": "https://clawhub.ai/web3aivc/rapidapi", "iconUrl": null, "installs": 7, "name": "rapidapi", "ownerName": "web3aivc", "score": 90155.44041450777, "slug": "rapidapi", "source": "clawhub", "stars": 0, "tags": null, "updated_at": 1776749385300, "version": "0.1.0"}, {"category": "security-compliance", "created_at": 1773284402017, "description": "Runs a backend-backed live safety check for instructions that may trigger tool execution, external calls, file edits, permission changes, destructive or irre...", "description_zh": "", "downloads": 174, "homepage": "https://clawhub.ai/modeioai/security-2", "iconUrl": null, "installs": 4, "name": "Security", "ownerName": "modeioai", "score": 74042.55319148935, "slug": "security-2", "source": "clawhub", "stars": 0, "tags": null, "updated_at": 1776749385267, "version": "0.1.0"}, {"category": "content-creation", "created_at": 1773079039305, "description": "Blogger API CLI for managing blog posts. Post, edit, delete, list, and monitor Blogger blogs. Use when the user wants to: (1) publish blog posts to Blogger,...", "description_zh": "", "downloads": 174, "homepage": "https://clawhub.ai/saiteja007-mv/gblog", "iconUrl": null, "installs": 8, "name": "Google Blogger", "ownerName": "saiteja007-mv", "score": 74042.55319148935, "slug": "gblog", "source": "clawhub", "stars": 0, "tags": null, "updated_at": 1776749385262, "version": "1.0.0"}, {"category": "developer-tools", "created_at": 1773082132080, "description": "Personal leadership development for founders and first-time CEOs. Covers founder archetype identification, delegation frameworks, energy management, CEO cale...", "description_zh": "", "downloads": 174, "homepage": "https://clawhub.ai/alirezarezvani/c-suite-founder-coach", "iconUrl": null, "installs": 7, "name": "C-Suite Founder Coach", "ownerName": "alirezarezvani", "score": 74042.55319148935, "slug": "c-suite-founder-coach", "source": "clawhub", "stars": 0, "tags": null, "updated_at": 1776749385256, "version": "1.0.0"}, {"category": "productivity", "created_at": 1773084763076, "description": "Copilote de reconversion vers les metiers de la data. Diagnostic structure, fiches metier, plan de transition, CV repositionne, preparation entretiens, suivi.", "description_zh": "", "downloads": 174, "homepage": "https://clawhub.ai/yerrochdi/reconversion-copilot", "iconUrl": null, "installs": 16, "name": "Reconversion Copilot", "ownerName": "yerrochdi", "score": 74042.55319148935, "slug": "reconversion-copilot", "source": "clawhub", "stars": 0, "tags": null, "updated_at": 1776749385248, "version": "2.0.0"}, {"category": "productivity", "created_at": 1773426039460, "description": "Personal AI photo album for OpenClaw. Use when users say: - \"index my photos\" - \"set up an AI photo album\" - \"search my photo library\" - \"reconnect my photo...", "description_zh": "", "downloads": 174, "homepage": "https://clawhub.ai/zoubingwu/ai-photos", "iconUrl": null, "installs": 12, "name": "AI Photos", "ownerName": "zoubingwu", "score": 74042.55319148935, "slug": "ai-photos", "source": "clawhub", "stars": 0, "tags": null, "updated_at": 1776749385246, "version": "2.2.0"}, {"category": "security-compliance", "created_at": 1773202980681, "description": "Audit a repo or product, run market research and competitor research, choose positioning, find users, and draft safe Reddit or X outreach.", "description_zh": "", "downloads": 174, "homepage": "https://clawhub.ai/cuongducle/community-demand-prospecting", "iconUrl": null, "installs": 8, "name": "Community Demand Prospecting", "ownerName": "cuongducle", "score": 74042.55319148935, "slug": "community-demand-prospecting", "source": "clawhub", "stars": 0, "tags": ["growth", "marketing", "research"], "updated_at": 1776749385242, "version": "0.1.3"}, {"category": "content-creation", "created_at": 1773219857498, "description": "AI agent skill for x402 paid APIs with live image-hosting and qrcode-generate, plus planned image/video/vision APIs (colorize, super-resolution, enhance, sma...", "description_zh": "", "downloads": 174, "homepage": "https://clawhub.ai/parsonssss/x402-agent-api-skill", "iconUrl": null, "installs": 6, "name": "Agent APIs x402 Skill", "ownerName": "parsonssss", "score": 74042.55319148935, "slug": "x402-agent-api-skill", "source": "clawhub", "stars": 0, "tags": null, "updated_at": 1776749385216, "version": "1.0.1"}, {"category": "security-compliance", "created_at": 1773284181765, "description": "Billions/Iden3 authentication and identity management tools for agents. Link, proof, sign, and verify.", "description_zh": "", "downloads": 174, "homepage": "https://clawhub.ai/web3dropper/web3dropper-crypto-price", "iconUrl": null, "installs": 13, "name": "Web3dropper Crypto Price Skill", "ownerName": "web3dropper", "score": 84878.0487804878, "slug": "web3dropper-crypto-price", "source": "clawhub", "stars": 0, "tags": null, "updated_at": 1776749385213, "version": "1.0.0"}, {"category": "ai-intelligence", "created_at": 1773084372783, "description": "Post diary entries to a Nano diary platform via webhook. Supports creating new entries and AI-powered merging with existing handwritten diaries.", "description_zh": "", "downloads": 174, "homepage": "https://clawhub.ai/fengye607/nano-diary-hook", "iconUrl": null, "installs": 10, "name": "Nano Diary Hook", "ownerName": "fengye607", "score": 84878.0487804878, "slug": "nano-diary-hook", "source": "clawhub", "stars": 0, "tags": null, "updated_at": 1776749385209, "version": "1.0.0"}, {"category": "developer-tools", "created_at": 1773861136340, "description": "A curated list of awesome PostgreSQL software, libraries, tools and resources, inspired by awesome-m awesome postgres, python, database, postgres, postgresql...", "description_zh": "", "downloads": 174, "homepage": "https://clawhub.ai/bytesagain/awesome-postgres", "iconUrl": null, "installs": 19, "name": "Awesome Postgres", "ownerName": "bytesagain", "score": 84878.0487804878, "slug": "awesome-postgres", "source": "clawhub", "stars": 0, "tags": null, "updated_at": 1776749385208, "version": "1.0.6"}, {"category": "productivity", "created_at": 1773080787469, "description": "X Hourly Brief (Premium) — charge-first brief generation for high-value X posts. Supports Chinese/English output.", "description_zh": "", "downloads": 174, "homepage": "https://clawhub.ai/huangkefeng-ai/x-hourly-brief-skill", "iconUrl": null, "installs": 5, "name": "X Hourly Brief", "ownerName": "huangkefeng-ai", "score": 84878.0487804878, "slug": "x-hourly-brief-skill", "source": "clawhub", "stars": 0, "tags": null, "updated_at": 1776749385205, "version": "1.0.0"}, {"category": "developer-tools", "created_at": 1773079183476, "description": "Sync recordings from Omi AI wearables (Omi, Limitless, etc.) via API and webhooks. Auto-sync transcripts, process recordings, and organize by device/date.", "description_zh": "", "downloads": 174, "homepage": "https://clawhub.ai/drkavner/omi-integration", "iconUrl": null, "installs": 4, "name": "Omi Integration", "ownerName": "drkavner", "score": 84878.0487804878, "slug": "omi-integration", "source": "clawhub", "stars": 0, "tags": null, "updated_at": 1776749385197, "version": "1.0.0"}, {"category": "content-creation", "created_at": 1773427110218, "description": "Transcribe audio and video files using OpenAI Whisper API. Use when user wants to transcribe audio/video files, extract speech from media, or get text from r...", "description_zh": "", "downloads": 174, "homepage": "https://clawhub.ai/djismgaming/transcription", "iconUrl": null, "installs": 14, "name": "transcription", "ownerName": "djismgaming", "score": 73109.24369747899, "slug": "transcription", "source": "clawhub", "stars": 0, "tags": null, "updated_at": 1776749385137, "version": "1.0.1"}, {"category": "ai-intelligence", "created_at": 1773089120551, "description": "Voice note transcription and archival for OpenClaw agents. Powered by Deepgram Nova-3. Transcribes audio messages, saves both audio files and text transcript...", "description_zh": "", "downloads": 174, "homepage": "https://clawhub.ai/aiwithabidi/voice-transcriber", "iconUrl": null, "installs": 18, "name": "Voice Transcriber", "ownerName": "aiwithabidi", "score": 73109.24369747899, "slug": "voice-transcriber", "source": "clawhub", "stars": 0, "tags": null, "updated_at": 1776749385131, "version": "1.0.0"}, {"category": "ai-intelligence", "created_at": 1773089739339, "description": "Configure or repair OpenClaw remote access over Tailscale with a directly executable workflow: inspect state, apply the gateway config, enable Tailscale Serv...", "description_zh": "", "downloads": 173, "homepage": "https://clawhub.ai/jiangagentlabs/openclaw-tailscale-remote-access", "iconUrl": null, "installs": 10, "name": "OpenClaw Tailscale Remote Access", "ownerName": "jiangagentlabs", "score": 6001.243781094528, "slug": "openclaw-tailscale-remote-access", "source": "clawhub", "stars": 1, "tags": null, "updated_at": 1776761989978, "version": "1.0.1"}, {"category": "data-analysis", "created_at": 1773082423305, "description": "AI diary service - push diary entries, query diaries, get AI analysis and cover images via HTTP API.", "description_zh": "", "downloads": 173, "homepage": "https://clawhub.ai/fengye607/cyber-luban-diary", "iconUrl": null, "installs": 11, "name": "赛博鲁班日记", "ownerName": "fengye607", "score": 100000, "slug": "cyber-luban-diary", "source": "clawhub", "stars": 1, "tags": null, "updated_at": 1776749404990, "version": "1.2.0"}, {"category": "developer-tools", "created_at": 1773082044224, "description": "One-click installer and configurator for Gate MCP (mcporter) in OpenClaw. Use when the user wants to (1) Install mcporter CLI tool, (2) Configure Gate MCP se...", "description_zh": "", "downloads": 173, "homepage": "https://clawhub.ai/aspiremongoai/gate-mc-installer", "iconUrl": null, "installs": 7, "name": "Gate MCP Installer", "ownerName": "aspiremongoai", "score": 100000, "slug": "gate-mc-installer", "source": "clawhub", "stars": 1, "tags": null, "updated_at": 1776749385386, "version": "2026.3.4-1"}, {"category": "productivity", "created_at": 1773077988824, "description": "Quickbooks integration. Manage accounting data, records, and workflows. Use when the user wants to interact with Quickbooks data.", "description_zh": "", "downloads": 173, "homepage": "https://clawhub.ai/membranedev/quickbooks-integration", "iconUrl": null, "installs": 6, "name": "Quickbooks", "ownerName": "membranedev", "score": 100000, "slug": "quickbooks-integration", "source": "clawhub", "stars": 1, "tags": null, "updated_at": 1776749385333, "version": "1.0.0"}, {"category": "ai-intelligence", "created_at": 1773090075151, "description": "Generate a concept dependency graph for AI projects. Identifies what you need to learn, in what order, adapted to project complexity.", "description_zh": "", "downloads": 173, "homepage": "https://clawhub.ai/wms2537/ai-project-learner", "iconUrl": null, "installs": 12, "name": "AI Project Learner", "ownerName": "wms2537", "score": 5399.500624219725, "slug": "ai-project-learner", "source": "clawhub", "stars": 0, "tags": null, "updated_at": 1776765250234, "version": "1.0.0"}, {"category": "communication-collaboration", "created_at": 1773090848631, "description": "Provides an interactive wizard to quickly configure and validate multiple OpenClaw agents for Feishu channels with diagnostic tools.", "description_zh": "", "downloads": 173, "homepage": "https://clawhub.ai/zoopools/feishu-multiagent-onboard", "iconUrl": null, "installs": 10, "name": "Feishu Multiagent Onboard", "ownerName": "zoopools", "score": 13287.250384024577, "slug": "feishu-multiagent-onboard", "source": "clawhub", "stars": 0, "tags": null, "updated_at": 1776759682882, "version": "1.0.0"}]}