{"page": 326, "total_pages": 522, "total": 26073, "skills": [{"category": "ai-intelligence", "created_at": 1773220841728, "description": "Execute and improve Avenir-Web autonomous web tasks end-to-end with mode selection, instruction validation, single or batch runs, and next-step recommendations.", "description_zh": "", "downloads": 173, "homepage": "https://clawhub.ai/yiliu-li/avenir-web", "iconUrl": null, "installs": 13, "name": "Avenir Web", "ownerName": "yiliu-li", "score": 13266.871165644174, "slug": "avenir-web", "source": "clawhub", "stars": 0, "tags": null, "updated_at": 1776759682780, "version": "1.0.1"}, {"category": "", "created_at": 1774922360378, "description": "A-share quantitative trading backtesting using AKQuant (Rust engine) and AKShare data. Use when user asks to \"backtest a stock strategy\", \"test trading algor...", "description_zh": "", "downloads": 173, "homepage": "https://clawhub.ai/lamtest556-blip/akquant-backtest", "iconUrl": null, "installs": 23, "name": "AKQuant A-Share Backtesting", "ownerName": "lamtest556-blip", "score": 13226.299694189604, "slug": "akquant-backtest", "source": "clawhub", "stars": 0, "tags": ["a-share", "backtest", "quant", "stocks"], "updated_at": 1776759682688, "version": "1.0.1"}, {"category": "developer-tools", "created_at": 1773220324486, "description": "Tether Wallet Development Kit (WDK) for building non-custodial multi-chain wallets. Use when working with @tetherto/wdk-core, wallet modules (wdk-wallet-btc,...", "description_zh": "", "downloads": 173, "homepage": "https://clawhub.ai/tether-skills/tether-wdk", "iconUrl": null, "installs": 6, "name": "Tether Wallet Development Kit", "ownerName": "tether-skills", "score": 13359.07335907336, "slug": "tether-wdk", "source": "clawhub", "stars": 0, "tags": null, "updated_at": 1776759682299, "version": "1.0.0"}, {"category": "ai-intelligence", "created_at": 1773427892711, "description": "Transcribe recorded audio files to text via UniCloud ASR API, supporting multiple formats and domains like finance and customer service; requires configured...", "description_zh": "", "downloads": 173, "homepage": "https://clawhub.ai/aaiccee/u2-audio-file-transcriber", "iconUrl": null, "installs": 23, "name": "U2-audio-file-transcriber", "ownerName": "aaiccee", "score": 10977.15736040609, "slug": "u2-audio-file-transcriber", "source": "clawhub", "stars": 0, "tags": null, "updated_at": 1776759682268, "version": "1.0.0"}, {"category": "productivity", "created_at": 1773287381802, "description": "Design, organize, and improve tracking systems for work, goals, follow-ups, pipelines, projects, habits, issues, and ongoing operations. Use when someone nee...", "description_zh": "", "downloads": 173, "homepage": "https://clawhub.ai/depinhq/tracker", "iconUrl": null, "installs": 10, "name": "Tracker", "ownerName": "depinhq", "score": 10977.15736040609, "slug": "tracker", "source": "clawhub", "stars": 0, "tags": ["follow-up", "status", "tracker", "visibility", "workflow"], "updated_at": 1776759682240, "version": "1.0.0"}, {"category": "security-compliance", "created_at": 1773219782557, "description": "Lookup IP address or hostname details including geolocation, ASN/ISP, reverse DNS, RDAP/WHOIS network info, and optional AbuseIPDB reputation check without A...", "description_zh": "", "downloads": 173, "homepage": "https://clawhub.ai/michaelzhangty/ip-lookup", "iconUrl": null, "installs": 6, "name": "ip-lookup", "ownerName": "michaelzhangty", "score": 10977.15736040609, "slug": "ip-lookup", "source": "clawhub", "stars": 0, "tags": null, "updated_at": 1776759682236, "version": "1.0.1"}, {"category": "productivity", "created_at": 1773220952880, "description": "Hiring workflow management with structured processes and candidate tracking. Use when user mentions hiring, job descriptions, resume screening, interviews, c...", "description_zh": "", "downloads": 173, "homepage": "https://clawhub.ai/agistack/recruiting-pro", "iconUrl": null, "installs": 8, "name": "Recruiting", "ownerName": "agistack", "score": 11248.374512353706, "slug": "recruiting-pro", "source": "clawhub", "stars": 0, "tags": null, "updated_at": 1776758482671, "version": "2.1.0"}, {"category": "content-creation", "created_at": 1773416823163, "description": "Use the Phaya SaaS backend to generate images, videos, audio, music, and run LLM chat completions via simple REST API calls. Use when the user wants to gener...", "description_zh": "", "downloads": 173, "homepage": "https://clawhub.ai/boombignose/phaya", "iconUrl": null, "installs": 11, "name": "Phaya Media API", "ownerName": "boombignose", "score": 31115.107913669064, "slug": "phaya", "source": "clawhub", "stars": 0, "tags": null, "updated_at": 1776751244466, "version": "1.0.1"}, {"category": "content-creation", "created_at": 1773082082800, "description": "API-first email platform designed for AI agents. Create and manage dedicated email inboxes, send and receive emails programmatically, and handle email-based...", "description_zh": "", "downloads": 173, "homepage": "https://clawhub.ai/mayapower/agentemail", "iconUrl": null, "installs": 9, "name": "Agentemail", "ownerName": "mayapower", "score": 32518.796992481202, "slug": "agentemail", "source": "clawhub", "stars": 0, "tags": null, "updated_at": 1776749404965, "version": "1.0.0"}, {"category": "productivity", "created_at": 1773202493113, "description": "Manage and optimize OpenClaw context window usage via partitioning, pre-compression checkpointing, and information lifecycle management. Use when the session...", "description_zh": "", "downloads": 173, "homepage": "https://clawhub.ai/mkgnbear/context-budgeting-v2", "iconUrl": null, "installs": 8, "name": "Context Budgeting Pro", "ownerName": "mkgnbear", "score": 32518.796992481202, "slug": "context-budgeting-v2", "source": "clawhub", "stars": 0, "tags": null, "updated_at": 1776749404960, "version": "1.0.0"}, {"category": "productivity", "created_at": 1773081049516, "description": "Replay signed Stripe webhook payloads to a local or staging endpoint for idempotency and retry debugging.", "description_zh": "", "downloads": 173, "homepage": "https://clawhub.ai/daniellummis/stripe-webhook-replay-lab", "iconUrl": null, "installs": 9, "name": "Stripe Webhook Replay Lab", "ownerName": "daniellummis", "score": 32518.796992481202, "slug": "stripe-webhook-replay-lab", "source": "clawhub", "stars": 0, "tags": null, "updated_at": 1776749404944, "version": "1.0.0"}, {"category": "ai-intelligence", "created_at": 1773089427941, "description": "Spending cap proxy for OpenClaw. Enforce hard daily and monthly limits across all your AI models (Claude, GPT, Gemini, and more) under one cap. Stop runaway...", "description_zh": "", "downloads": 173, "homepage": "https://clawhub.ai/kintupercy/clawcap", "iconUrl": null, "installs": 9, "name": "ClawCap", "ownerName": "kintupercy", "score": 32518.796992481202, "slug": "clawcap", "source": "clawhub", "stars": 0, "tags": null, "updated_at": 1776749404930, "version": "1.0.0"}, {"category": "ai-intelligence", "created_at": 1773218632589, "description": "Book UK airport and cruise port transfers via Airport Pickups London. Get instant fixed-price quotes, validate flights, and create real bookings for all Lond...", "description_zh": "", "downloads": 173, "homepage": "https://clawhub.ai/mfy-apl/airport-pickups-london", "iconUrl": null, "installs": 13, "name": "Airport Pickups London", "ownerName": "mfy-apl", "score": 78995.43378995435, "slug": "airport-pickups-london", "source": "clawhub", "stars": 0, "tags": null, "updated_at": 1776749404924, "version": "1.0.2"}, {"category": "developer-tools", "created_at": 1773091056782, "description": "Agent companion system for autonomous exploration and social intelligence. Redirects to amigo — install amigo instead.", "description_zh": "", "downloads": 173, "homepage": "https://clawhub.ai/mculp/agent-companion", "iconUrl": null, "installs": 8, "name": "Agent Companion", "ownerName": "mculp", "score": 78995.43378995435, "slug": "agent-companion", "source": "clawhub", "stars": 0, "tags": null, "updated_at": 1776749404883, "version": "1.0.0"}, {"category": "productivity", "created_at": 1773221314618, "description": "When the user wants to optimize signup, registration, account creation, or trial activation flows. Also use when the user mentions \"signup conversions,\" \"reg...", "description_zh": "", "downloads": 173, "homepage": "https://clawhub.ai/alirezarezvani/signup-flow-cro", "iconUrl": null, "installs": 12, "name": "signup-flow-cro", "ownerName": "alirezarezvani", "score": 78995.43378995435, "slug": "signup-flow-cro", "source": "clawhub", "stars": 0, "tags": null, "updated_at": 1776749404878, "version": "2.1.1"}, {"category": "content-creation", "created_at": 1773083958712, "description": "Generate music tailored to video content. Use when users request video_soundtrack operations or related tasks.", "description_zh": "", "downloads": 173, "homepage": "https://clawhub.ai/wondershare-boop/tomoviee-video-background-music", "iconUrl": null, "installs": 15, "name": "Tomoviee Video Background Music", "ownerName": "wondershare-boop", "score": 78995.43378995435, "slug": "tomoviee-video-background-music", "source": "clawhub", "stars": 0, "tags": null, "updated_at": 1776749404878, "version": "1.0.1"}, {"category": "content-creation", "created_at": 1773069273029, "description": "Helps write code using vvvv gamma's Spread<T> immutable collection type and SpreadBuilder<T>. Use when working with Spreads, SpreadBuilder, collections, arra...", "description_zh": "", "downloads": 173, "homepage": "https://clawhub.ai/tebjan/vvvv-spreads", "iconUrl": null, "installs": 8, "name": "Vvvv Spreads", "ownerName": "tebjan", "score": 72689.0756302521, "slug": "vvvv-spreads", "source": "clawhub", "stars": 0, "tags": null, "updated_at": 1776749404848, "version": "1.0.1"}, {"category": "productivity", "created_at": 1773080342886, "description": "Close integration. Manage Organizations. Use when the user wants to interact with Close data.", "description_zh": "", "downloads": 173, "homepage": "https://clawhub.ai/membranedev/close", "iconUrl": null, "installs": 4, "name": "Close", "ownerName": "membranedev", "score": 72689.0756302521, "slug": "close", "source": "clawhub", "stars": 0, "tags": null, "updated_at": 1776749404844, "version": "1.0.0"}, {"category": "developer-tools", "created_at": 1773856326868, "description": "CLI tool for configuring and monitoring Claude Code claude code templates, python, anthropic, anthropic-claude, claude, claude-code. Use when you need claude...", "description_zh": "", "downloads": 173, "homepage": "https://clawhub.ai/bytesagain/code-templates", "iconUrl": null, "installs": 9, "name": "Code Templates", "ownerName": "bytesagain", "score": 88717.94871794872, "slug": "code-templates", "source": "clawhub", "stars": 0, "tags": null, "updated_at": 1776749404783, "version": "1.0.7"}, {"category": "productivity", "created_at": 1773069835119, "description": "Convert markdown files to properly formatted Google Docs. Use when asked to create a Google Doc from markdown, upload markdown to Google Docs, put a .md file...", "description_zh": "", "downloads": 173, "homepage": "https://clawhub.ai/brennerspear/md-to-gdoc", "iconUrl": null, "installs": 8, "name": "Md To Gdoc", "ownerName": "brennerspear", "score": 88717.94871794872, "slug": "md-to-gdoc", "source": "clawhub", "stars": 0, "tags": null, "updated_at": 1776749385572, "version": "1.0.1"}, {"category": "security-compliance", "created_at": 1773220311484, "description": "Check SSL/TLS certificate details including expiration date, issuer, validity, cipher suites, and security warnings for any domain. Use when verifying HTTPS...", "description_zh": "", "downloads": 173, "homepage": "https://clawhub.ai/leonardodpanda/ssl-certificate-checker", "iconUrl": null, "installs": 6, "name": "SSL Certificate Checker", "ownerName": "leonardodpanda", "score": 88717.94871794872, "slug": "ssl-certificate-checker", "source": "clawhub", "stars": 0, "tags": null, "updated_at": 1776749385567, "version": "1.0.0"}, {"category": "content-creation", "created_at": 1773285886319, "description": "Self-evolving viral content trend advisor. Monitors 11 platforms, predicts what to post and when, and improves its own accuracy every week automatically.", "description_zh": "", "downloads": 173, "homepage": "https://clawhub.ai/0xf69/viralevo", "iconUrl": null, "installs": 21, "name": "Viralevo", "ownerName": "0xf69", "score": 88717.94871794872, "slug": "viralevo", "source": "clawhub", "stars": 0, "tags": null, "updated_at": 1776749385564, "version": "0.1.0"}, {"category": "data-analysis", "created_at": 1773081334414, "description": "Automate full-funnel strategy generation, budget structure design, and dynamic bid/scale adjustments for Meta (Facebook/Instagram), Google Ads, TikTok Ads, Y...", "description_zh": "", "downloads": 173, "homepage": "https://clawhub.ai/danyangliu-sandwichlab/growth-autopilot-ads", "iconUrl": null, "installs": 7, "name": "Growth Autopilot", "ownerName": "danyangliu-sandwichlab", "score": 88717.94871794872, "slug": "growth-autopilot-ads", "source": "clawhub", "stars": 0, "tags": null, "updated_at": 1776749385557, "version": "1.0.0"}, {"category": "", "created_at": 1774875905015, "description": "Control an OpenClaw LED panel (64x32 HUB75 on ESP32-S3) over HTTP — display text, graphics, shapes, play sounds, and read status.", "description_zh": "", "downloads": 173, "homepage": "https://clawhub.ai/joaquinckronoset/openclawpanel", "iconUrl": null, "installs": 28, "name": "OpenClaw Panel", "ownerName": "joaquinckronoset", "score": 30782.918149466193, "slug": "openclawpanel", "source": "clawhub", "stars": 0, "tags": null, "updated_at": 1776749385473, "version": "1.0.0"}, {"category": "ai-intelligence", "created_at": 1773432754581, "description": "Run and integrate LM Studio with local model lifecycle control, OpenAI-compatible APIs, embeddings, and MCP-aware workflows.", "description_zh": "", "downloads": 173, "homepage": "https://clawhub.ai/ivangdavila/lm-studio", "iconUrl": null, "installs": 26, "name": "LM Studio", "ownerName": "ivangdavila", "score": 89637.30569948186, "slug": "lm-studio", "source": "clawhub", "stars": 0, "tags": null, "updated_at": 1776749385397, "version": "1.0.0"}, {"category": "developer-tools", "created_at": 1773067893650, "description": "Low-level Feishu document block operations via REST API. Use when feishu_doc built-in actions are insufficient: batch update cells, precise position insert,...", "description_zh": "", "downloads": 173, "homepage": "https://clawhub.ai/deadblue22/feishu-block-ops", "iconUrl": null, "installs": 12, "name": "Feishu Block Ops", "ownerName": "deadblue22", "score": 73617.02127659574, "slug": "feishu-block-ops", "source": "clawhub", "stars": 0, "tags": null, "updated_at": 1776749385251, "version": "1.0.0"}, {"category": "content-creation", "created_at": 1773888852191, "description": "Generate and edit images using Pixwith API's Nano Banana 2 model. Supports text-to-image and image-to-image (up to 4 reference images). Use when the user ask...", "description_zh": "", "downloads": 173, "homepage": "https://clawhub.ai/tate-kt/nano-banana-image-gen", "iconUrl": null, "installs": 39, "name": "Nano banana 2", "ownerName": "tate-kt", "score": 73617.02127659574, "slug": "nano-banana-image-gen", "source": "clawhub", "stars": 0, "tags": null, "updated_at": 1776749385234, "version": "1.0.6"}, {"category": "ai-intelligence", "created_at": 1773424206032, "description": "Team-scoped knowledge feed for AI agent teams. Post nuggets, share insights, ask questions, and stay aware.", "description_zh": "", "downloads": 173, "homepage": "https://clawhub.ai/ezisezis/nuggetz-network", "iconUrl": null, "installs": 15, "name": "The knowledge feed for your AI agent team. Post nuggets, share insights, ask questions, and stay aware of what your team is doing.", "ownerName": "ezisezis", "score": 73617.02127659574, "slug": "nuggetz-network", "source": "clawhub", "stars": 0, "tags": null, "updated_at": 1776749385231, "version": "1.4.2"}, {"category": "data-analysis", "created_at": 1773221370547, "description": "Daily life tracking and data visualization. Record mood, exercise, sleep, work hours and generate beautiful charts and insights. Perfect for habit building a...", "description_zh": "", "downloads": 173, "homepage": "https://clawhub.ai/xiaooojun/daily-viz", "iconUrl": null, "installs": 21, "name": "daily-viz", "ownerName": "xiaooojun", "score": 73617.02127659574, "slug": "daily-viz", "source": "clawhub", "stars": 0, "tags": null, "updated_at": 1776749385222, "version": "1.0.0"}, {"category": "developer-tools", "created_at": 1773083863498, "description": "Enable `openai-codex/gpt-5.4` in OpenClaw through a config-layer patch instead of rebuilding the app. Use when `openai/gpt-5.4` already works but Codex GPT-5...", "description_zh": "", "downloads": 173, "homepage": "https://clawhub.ai/youxitianguo/openclaw-codex-gpt54-enable", "iconUrl": null, "installs": 13, "name": "OpenClaw Codex GPT-5.4 Enable", "ownerName": "youxitianguo", "score": 84390.24390243902, "slug": "openclaw-codex-gpt54-enable", "source": "clawhub", "stars": 0, "tags": null, "updated_at": 1776749385146, "version": "1.0.0"}, {"category": "security-compliance", "created_at": 1773078917237, "description": "Private Chat Mode - Trigger encrypted conversations via codeword. Sensitive information is automatically encrypted using AES-256-CBC for maximum security.", "description_zh": "", "downloads": 172, "homepage": "https://clawhub.ai/hudul/private-chat", "iconUrl": null, "installs": 6, "name": "Private Chat", "ownerName": "hudul", "score": 2765.3751980411926, "slug": "private-chat", "source": "clawhub", "stars": 1, "tags": ["encryption", "privacy", "security"], "updated_at": 1776762850730, "version": "1.1.2"}, {"category": "developer-tools", "created_at": 1773867436745, "description": "Full Computer Use for OpenClaw via kasmweb/chrome Docker sidecar. Navigate any website, click, type, fill forms, extract data, upload files, screenshot on an...", "description_zh": "", "downloads": 172, "homepage": "https://clawhub.ai/georges91560/virtual-desktop", "iconUrl": null, "installs": 21, "name": "Virtual Desktop — Universal Browser Execution", "ownerName": "georges91560", "score": 12307.692307692309, "slug": "virtual-desktop", "source": "clawhub", "stars": 1, "tags": ["automation", "browser", "computer-use", "google-workspace", "headless", "playwright", "visual", "web-automation"], "updated_at": 1776760582221, "version": "1.0.7"}, {"category": "developer-tools", "created_at": 1773089842254, "description": "Game rules, strategy guide, and API reference for DopeWars Online.", "description_zh": "", "downloads": 172, "homepage": "https://clawhub.ai/treadon/dopewars-online", "iconUrl": null, "installs": 7, "name": "Dopewars Online", "ownerName": "treadon", "score": 99481.86528497409, "slug": "dopewars-online", "source": "clawhub", "stars": 1, "tags": null, "updated_at": 1776749405010, "version": "1.0.1"}, {"category": "developer-tools", "created_at": 1773081673079, "description": "Get current weather, multi-day forecasts, clothing index, and feels-like temperature. No API key required. Use when a user wants to: (1) Check current weathe...", "description_zh": "", "downloads": 172, "homepage": "https://clawhub.ai/elevo11/weather-plus", "iconUrl": null, "installs": 12, "name": "Weather Plus", "ownerName": "elevo11", "score": 80672.26890756303, "slug": "weather-plus", "source": "clawhub", "stars": 1, "tags": null, "updated_at": 1776749404829, "version": "1.0.1"}, {"category": "productivity", "created_at": 1773940944240, "description": "Search the web using coze-coding-dev-sdk. Supports web search, image search, AI summaries, time filters, and site restrictions.", "description_zh": "", "downloads": 172, "homepage": "https://clawhub.ai/hanxueyuan/coze-web-search", "iconUrl": null, "installs": 38, "name": "Coze Web Search", "ownerName": "hanxueyuan", "score": 1073.2559590665169, "slug": "coze-web-search", "source": "clawhub", "stars": 0, "tags": null, "updated_at": 1776768549859, "version": "1.0.0"}, {"category": "", "created_at": 1774914926008, "description": "Document to Markdown converter - convert DOCX, PPTX, Excel files to Markdown. Use when extracting content from Word documents, PowerPoint presentations, or E...", "description_zh": "", "downloads": 172, "homepage": "https://clawhub.ai/tanis90/xlsx-to-markdown", "iconUrl": null, "installs": 64, "name": "Xlsx To Markdown", "ownerName": "tanis90", "score": 1809.9547511312219, "slug": "xlsx-to-markdown", "source": "clawhub", "stars": 0, "tags": null, "updated_at": 1776763750474, "version": "1.0.0"}, {"category": "content-creation", "created_at": 1773089429563, "description": "Generate PPT/slides with Felo PPT Task API in Claude Code. Use when users ask to create/make/generate/export presentations or slide decks, or when explicit c...", "description_zh": "", "downloads": 172, "homepage": "https://clawhub.ai/comman-kaide/comman-felo-slides", "iconUrl": null, "installs": 7, "name": "Felo Slides", "ownerName": "comman-kaide", "score": 13190.184049079753, "slug": "comman-felo-slides", "source": "clawhub", "stars": 0, "tags": null, "updated_at": 1776759683572, "version": "1.0.0"}, {"category": "developer-tools", "created_at": 1773081804440, "description": "Monitors unemployment rates, labor participation, and job reports to evaluate labor market health and trends by country.", "description_zh": "", "downloads": 172, "homepage": "https://clawhub.ai/mosonchan2023/economics-unemployment-monitor", "iconUrl": null, "installs": 8, "name": "Economics Unemployment Monitor", "ownerName": "mosonchan2023", "score": 13180.076628352492, "slug": "economics-unemployment-monitor", "source": "clawhub", "stars": 0, "tags": null, "updated_at": 1776759683412, "version": "1.0.0"}, {"category": "data-analysis", "created_at": 1773904203042, "description": "Automatically logs into a WordPress site and downloads all downloadable files from a specified page with error handling and configurable limits.", "description_zh": "", "downloads": 172, "homepage": "https://clawhub.ai/airoom-ai/airoom-ltd-global-finance-data-platform", "iconUrl": null, "installs": 34, "name": "airoom-ltd-global-finance-data-platform", "ownerName": "airoom-ai", "score": 13312.693498452014, "slug": "airoom-ltd-global-finance-data-platform", "source": "clawhub", "stars": 0, "tags": ["absolutely unique.", "australian etf market", "australian market", "brazil", "canadian etf market", "canadian market", "digital currencies", "etc. the only one of its kind globally", "germany", "global futures", "hong kong stock etf market", "hong kong stock market", "including calculated market data for multiple countries and regions such as global indices", "india", "japanese stock etf market", "japanese stock market", "malaysian etf market", "malaysian market", "providing comprehensive data interfaces for global markets", "serving ais in all regions of the world", "singapore etf market", "singapore market", "taiwan", "united-kingdom", "us stock etf market", "us stock market", "vietnam"], "updated_at": 1776759683239, "version": "1.0.3"}, {"category": "", "created_at": 1774913054776, "description": "Suggests movies and TV shows based on your taste or mood, providing ratings, cast, runtime, and where to stream globally with data-backed details.", "description_zh": "", "downloads": 172, "homepage": "https://clawhub.ai/clawkk/movie-advisor", "iconUrl": null, "installs": 6, "name": "Movie Advisor", "ownerName": "clawkk", "score": 13190.184049079753, "slug": "movie-advisor", "source": "clawhub", "stars": 0, "tags": null, "updated_at": 1776759683012, "version": "1.0.0"}, {"category": "productivity", "created_at": 1773090183079, "description": "My Mac Optimizer Controller", "description_zh": "", "downloads": 172, "homepage": "https://clawhub.ai/maximouribarri/openclaw-mymacoptimizer", "iconUrl": null, "installs": 6, "name": "MyMacOptimizer", "ownerName": "maximouribarri", "score": 13149.847094801224, "slug": "openclaw-mymacoptimizer", "source": "clawhub", "stars": 0, "tags": null, "updated_at": 1776759682668, "version": "1.0.0"}, {"category": "developer-tools", "created_at": 1773218627453, "description": "Backup and restore your OpenClaw agent's workspace and config to preserve memory, identity, and settings or migrate to a new computer.", "description_zh": "", "downloads": 172, "homepage": "https://clawhub.ai/pacifier00/agent-backup-transfer", "iconUrl": null, "installs": 9, "name": "agent-backup-transfer", "ownerName": "pacifier00", "score": 13169.984686064317, "slug": "agent-backup-transfer", "source": "clawhub", "stars": 0, "tags": null, "updated_at": 1776759682412, "version": "1.0.0"}, {"category": "ai-intelligence", "created_at": 1773869918487, "description": "Free Brave API alternative for OpenClaw. Completely FREE web search. No API key required. Secure localhost-only deployment. Supports hidden --dev flag for lo...", "description_zh": "", "downloads": 172, "homepage": "https://clawhub.ai/pipepi/local-search-pro", "iconUrl": null, "installs": 12, "name": "local-search-pro", "ownerName": "pipepi", "score": 13281.853281853282, "slug": "local-search-pro", "source": "clawhub", "stars": 0, "tags": null, "updated_at": 1776759682345, "version": "1.0.10"}, {"category": "productivity", "created_at": 1773090076881, "description": "Provides flight prices, public transport/train journeys, and nearby EV charge points using Amadeus, Navitia, and Open Charge Map APIs.", "description_zh": "", "downloads": 172, "homepage": "https://clawhub.ai/aaureli/air-train-ev-alias", "iconUrl": null, "installs": 7, "name": "air_train_ev", "ownerName": "aaureli", "score": 13210.445468509984, "slug": "air-train-ev-alias", "source": "clawhub", "stars": 0, "tags": null, "updated_at": 1776759682189, "version": "0.1.0"}, {"category": "communication-collaboration", "created_at": 1773425382353, "description": "Minimal Flask-based multi-user chat interface enabling OpenClaw HTTP integration with persistent UI state and optional Google Maps support.", "description_zh": "", "downloads": 172, "homepage": "https://clawhub.ai/jeanne0r/openclaw-web-gateway", "iconUrl": null, "installs": 19, "name": "Web Gateway", "ownerName": "jeanne0r", "score": 13149.847094801224, "slug": "openclaw-web-gateway", "source": "clawhub", "stars": 0, "tags": ["openclaw flask web-ui chat gateway", "openclaw flask web-ui chat gateway ai-agent", "openclaw web-ui chat gateway flask", "web gateway ui flask openclaw chat"], "updated_at": 1776759682097, "version": "1.0.6"}, {"category": "productivity", "created_at": 1773221575584, "description": "When the user wants to create or optimize popups, modals, overlays, slide-ins, or banners for conversion purposes. Also use when the user mentions \"exit inte...", "description_zh": "", "downloads": 172, "homepage": "https://clawhub.ai/alirezarezvani/popup-cro", "iconUrl": null, "installs": 10, "name": "popup-cro", "ownerName": "alirezarezvani", "score": 10475.030450669914, "slug": "popup-cro", "source": "clawhub", "stars": 0, "tags": null, "updated_at": 1776758782635, "version": "2.1.1"}, {"category": "developer-tools", "created_at": 1773083923043, "description": "4-round deep research protocol — Explorer, Devil's Advocate, Multi-Perspective Synthesis, Crystallize. Use for major architectural decisions, technology choi...", "description_zh": "", "downloads": 172, "homepage": "https://clawhub.ai/nakedoshadow/shadows-deep-research", "iconUrl": null, "installs": 17, "name": "Shadows Deep Research", "ownerName": "nakedoshadow", "score": 89119.17098445595, "slug": "shadows-deep-research", "source": "clawhub", "stars": 0, "tags": null, "updated_at": 1776749405019, "version": "1.1.0"}, {"category": "data-analysis", "created_at": 1773218004882, "description": "Manage full OpenClaw agent lifecycle operations on a node: create/register agents, configure channel bindings, optionally inherit credentials with explicit c...", "description_zh": "", "downloads": 172, "homepage": "https://clawhub.ai/miniade/miniade-agent-lifecycle-manager", "iconUrl": null, "installs": 10, "name": "Agent Lifecycle Manager", "ownerName": "miniade", "score": 89119.17098445595, "slug": "miniade-agent-lifecycle-manager", "source": "clawhub", "stars": 0, "tags": ["agent-ops", "openclaw"], "updated_at": 1776749405014, "version": "0.1.2"}, {"category": "productivity", "created_at": 1773077495329, "description": "Emotional support and encouragement skill that detects user frustration and provides warm, personalized motivation with multiple response styles.", "description_zh": "", "downloads": 172, "homepage": "https://clawhub.ai/nemohohaloai/cheer", "iconUrl": null, "installs": 5, "name": "Cheeeeeeeeeer", "ownerName": "nemohohaloai", "score": 89119.17098445595, "slug": "cheer", "source": "clawhub", "stars": 0, "tags": null, "updated_at": 1776749404997, "version": "1.0.0"}, {"category": "developer-tools", "created_at": 1773080613317, "description": "Monitor agent identity drift using git history. Detects when AI agents quietly modify their own SOUL.md, IDENTITY.md, AGENTS.md, or memory files — autonomy e...", "description_zh": "", "downloads": 172, "homepage": "https://clawhub.ai/m-maciver/driftwatch", "iconUrl": null, "installs": 5, "name": "DriftWatch — Agent Identity Drift Monitor", "ownerName": "m-maciver", "score": 89119.17098445595, "slug": "driftwatch", "source": "clawhub", "stars": 0, "tags": null, "updated_at": 1776749404995, "version": "1.0.0"}]}