{"page": 327, "total_pages": 522, "total": 26073, "skills": [{"category": "ai-intelligence", "created_at": 1773079586310, "description": "Post and engage in the /onlybots Farcaster channel — a space for AI agents. Handles daily posting, reading channel activity, and replying to other bots. Uses...", "description_zh": "", "downloads": 172, "homepage": "https://clawhub.ai/mtple/onlybots-farcaster", "iconUrl": null, "installs": 8, "name": "OnlyBots Farcaster Channel Engagement", "ownerName": "mtple", "score": 89119.17098445595, "slug": "onlybots-farcaster", "source": "clawhub", "stars": 0, "tags": null, "updated_at": 1776749404982, "version": "1.0.1"}, {"category": "ai-intelligence", "created_at": 1773290061692, "description": "Cohere integration. Manage Documents, Models, Datasets, Jobs. Use when the user wants to interact with Cohere data.", "description_zh": "", "downloads": 172, "homepage": "https://clawhub.ai/membranedev/cohere", "iconUrl": null, "installs": 11, "name": "Cohere", "ownerName": "membranedev", "score": 89119.17098445595, "slug": "cohere", "source": "clawhub", "stars": 0, "tags": null, "updated_at": 1776749404978, "version": "1.0.0"}, {"category": "content-creation", "created_at": 1773286155170, "description": "Run a pre-publish monetization risk check for creator content across short-video platforms. Use when the user asks if a script is safe to monetize, wants pol...", "description_zh": "", "downloads": 172, "homepage": "https://clawhub.ai/leooooooow/creator-monetization-risk-checker", "iconUrl": null, "installs": 26, "name": "Creator Monetization Risk Checker", "ownerName": "leooooooow", "score": 32330.82706766917, "slug": "creator-monetization-risk-checker", "source": "clawhub", "stars": 0, "tags": null, "updated_at": 1776749404974, "version": "1.0.3"}, {"category": "content-creation", "created_at": 1773079687622, "description": "Design an interruption-resilient GCP Spot VM strategy for eligible workloads with 60-91% savings", "description_zh": "", "downloads": 172, "homepage": "https://clawhub.ai/anmolnagpal/spot-vm-strategy", "iconUrl": null, "installs": 8, "name": "Spot Vm Strategy", "ownerName": "anmolnagpal", "score": 32330.82706766917, "slug": "spot-vm-strategy", "source": "clawhub", "stars": 0, "tags": null, "updated_at": 1776749404953, "version": "1.0.0"}, {"category": "content-creation", "created_at": 1773078833162, "description": "Write messages to your future self — or your future team — that unlock when specific code conditions are met. \"Dear future me: if you're reading this, someon...", "description_zh": "", "downloads": 172, "homepage": "https://clawhub.ai/jcools1977/time-capsule", "iconUrl": null, "installs": 5, "name": "Time Capsule", "ownerName": "jcools1977", "score": 32330.82706766917, "slug": "time-capsule", "source": "clawhub", "stars": 0, "tags": null, "updated_at": 1776749404944, "version": "1.0.0"}, {"category": "content-creation", "created_at": 1773089008903, "description": "Automate freelance workflows — find jobs, write proposals, deliver work. Supports Upwork, Fiverr, Freelancer, PeoplePerHour. Use when you want to run a freel...", "description_zh": "", "downloads": 172, "homepage": "https://clawhub.ai/neckr0ik/neckr0ik-freelance-automator", "iconUrl": null, "installs": 7, "name": "Neckr0ik Freelance Automator", "ownerName": "neckr0ik", "score": 32330.82706766917, "slug": "neckr0ik-freelance-automator", "source": "clawhub", "stars": 0, "tags": null, "updated_at": 1776749404933, "version": "1.0.0"}, {"category": "content-creation", "created_at": 1773221360227, "description": "Browse and execute ClawMoney bounty tasks — earn crypto rewards by engaging with boosted tweets and creating content for hire tasks. Supports fully automated...", "description_zh": "", "downloads": 172, "homepage": "https://clawhub.ai/jackleeio/clawmoney-skill", "iconUrl": null, "installs": 18, "name": "Clawmoney Skill", "ownerName": "jackleeio", "score": 32330.82706766917, "slug": "clawmoney-skill", "source": "clawhub", "stars": 0, "tags": null, "updated_at": 1776749404927, "version": "0.3.0"}, {"category": "developer-tools", "created_at": 1773079112060, "description": "Generate professional PDF invoices using InvoiceForge API - create, manage, and download invoices for freelancers, agencies, consultants, small businesses, S...", "description_zh": "", "downloads": 172, "homepage": "https://clawhub.ai/jbennett111/invoiceforge-api", "iconUrl": null, "installs": 7, "name": "InvoiceForge API", "ownerName": "jbennett111", "score": 78538.81278538813, "slug": "invoiceforge-api", "source": "clawhub", "stars": 0, "tags": null, "updated_at": 1776749404917, "version": "1.0.0"}, {"category": "developer-tools", "created_at": 1773091371555, "description": "Web scraping, crawling, and search via Firecrawl API. Converts web pages to clean markdown/JSON optimized for AI consumption. Use when you need to extract co...", "description_zh": "", "downloads": 172, "homepage": "https://clawhub.ai/moochmaniac/moochmaniac-firecrawl-scraper", "iconUrl": null, "installs": 18, "name": "Firecrawl Web Scraper", "ownerName": "moochmaniac", "score": 78538.81278538813, "slug": "moochmaniac-firecrawl-scraper", "source": "clawhub", "stars": 0, "tags": null, "updated_at": 1776749404916, "version": "1.0.0"}, {"category": "developer-tools", "created_at": 1773863581478, "description": "Modern UI and powerful API for Ansible, Terraform/OpenTofu/Terragrunt, PowerShell and other DevOps t ansible-ui, go, ansible, awx, ci, cicd.", "description_zh": "", "downloads": 172, "homepage": "https://clawhub.ai/bytesagain3/ansible-ui", "iconUrl": null, "installs": 13, "name": "Ansible Ui", "ownerName": "bytesagain3", "score": 78538.81278538813, "slug": "ansible-ui", "source": "clawhub", "stars": 0, "tags": null, "updated_at": 1776749404893, "version": "2.0.0"}, {"category": "developer-tools", "created_at": 1773066289531, "description": "Join Vostros — a social platform where AI agents and humans meet. Register an account, create an API token, post messages, follow users, and participate in t...", "description_zh": "", "downloads": 172, "homepage": "https://clawhub.ai/drewangeloff/vostros", "iconUrl": null, "installs": 1, "name": "Skill", "ownerName": "drewangeloff", "score": 78538.81278538813, "slug": "vostros", "source": "clawhub", "stars": 0, "tags": null, "updated_at": 1776749404885, "version": "1.0.2"}, {"category": "security-compliance", "created_at": 1773068389656, "description": "Security vetting protocol before installing any AI agent skill. Red flag detection for credential theft, obfuscated code, exfiltration. Risk classification L...", "description_zh": "", "downloads": 172, "homepage": "https://clawhub.ai/firebroo/security-skiil-scanner", "iconUrl": null, "installs": 5, "name": "security-skiil-scanner", "ownerName": "firebroo", "score": 72268.9075630252, "slug": "security-skiil-scanner", "source": "clawhub", "stars": 0, "tags": null, "updated_at": 1776749404876, "version": "1.0.0"}, {"category": "security-compliance", "created_at": 1773080884012, "description": "Comprehensive HIPAA compliance posture assessment for agent and API contexts. Runs a structured intake covering all Seven Elements of an effective compliance...", "description_zh": "", "downloads": 172, "homepage": "https://clawhub.ai/dangsllc/compliance-posture-intake", "iconUrl": null, "installs": 4, "name": "Compliance Posture Intake", "ownerName": "dangsllc", "score": 72268.9075630252, "slug": "compliance-posture-intake", "source": "clawhub", "stars": 0, "tags": null, "updated_at": 1776749404861, "version": "0.1.0"}, {"category": "content-creation", "created_at": 1773069534876, "description": "Redesign paywall and upgrade screens to maximize free-to-paid conversion. Use when a user wants to improve their SaaS upgrade screen, paywall copy, plan stru...", "description_zh": "", "downloads": 172, "homepage": "https://clawhub.ai/flynndavid/paywall-upgrade-designer", "iconUrl": null, "installs": 9, "name": "Paywall Upgrade Designer", "ownerName": "flynndavid", "score": 72268.9075630252, "slug": "paywall-upgrade-designer", "source": "clawhub", "stars": 0, "tags": null, "updated_at": 1776749404839, "version": "1.0.0"}, {"category": "data-analysis", "created_at": 1773426169505, "description": "Real-time X/Twitter social signal scanner for prediction market traders. Scans via DuckDuckGo (zero API cost) with two-stage local Qwen AI filtering: tradeab...", "description_zh": "", "downloads": 172, "homepage": "https://clawhub.ai/kingmadellc/xpulse", "iconUrl": null, "installs": 20, "name": "Xpulse", "ownerName": "kingmadellc", "score": 72268.9075630252, "slug": "xpulse", "source": "clawhub", "stars": 0, "tags": null, "updated_at": 1776749404836, "version": "1.1.1"}, {"category": "productivity", "created_at": 1773077756990, "description": "DEPRECATED — this skill has been merged into doc-process (v4.0.0+). Use doc-process instead for document scanning, perspective correction, and dewarping. doc...", "description_zh": "", "downloads": 172, "homepage": "https://clawhub.ai/piyush-zinc/doc-scan", "iconUrl": null, "installs": 5, "name": "Doc Scan", "ownerName": "piyush-zinc", "score": 74458.87445887446, "slug": "doc-scan", "source": "clawhub", "stars": 0, "tags": ["deprecated"], "updated_at": 1776749404827, "version": "2.0.0"}, {"category": "communication-collaboration", "created_at": 1773084269655, "description": "Create local chat rooms for AI agents with channels, mentions, task claims, and durable summaries in the workspace.", "description_zh": "", "downloads": 172, "homepage": "https://clawhub.ai/ivangdavila/chat-rooom", "iconUrl": null, "installs": 7, "name": "Chat Rooom", "ownerName": "ivangdavila", "score": 74458.87445887446, "slug": "chat-rooom", "source": "clawhub", "stars": 0, "tags": null, "updated_at": 1776749404819, "version": "1.0.0"}, {"category": "ai-intelligence", "created_at": 1773080749046, "description": "A persistent memory system for AI agents that saves ONLY what matters - wisdom, goals, mistakes, and preferences. Quality over quantity. Supports automatic l...", "description_zh": "", "downloads": 172, "homepage": "https://clawhub.ai/m7madash/selective-memory", "iconUrl": null, "installs": 11, "name": "Selective Memory", "ownerName": "m7madash", "score": 74458.87445887446, "slug": "selective-memory", "source": "clawhub", "stars": 0, "tags": ["agents", "ai", "auto-learning", "memory"], "updated_at": 1776749404805, "version": "2.0.0"}, {"category": "productivity", "created_at": 1773067095816, "description": "Scrape employee data from a logged-in SAP SuccessFactors browser session using browser automation. Use when: user provides an employee ID and wants employee...", "description_zh": "", "downloads": 172, "homepage": "https://clawhub.ai/venkatalokesh-dot/sf-scrapper", "iconUrl": null, "installs": 5, "name": "sf-scrapper", "ownerName": "venkatalokesh-dot", "score": 74458.87445887446, "slug": "sf-scrapper", "source": "clawhub", "stars": 0, "tags": null, "updated_at": 1776749404792, "version": "1.0.0"}, {"category": "developer-tools", "created_at": 1773089289922, "description": "Remote timestamp & timezone MCP server with 5 precision tools. Use when: (1) 'convert this timestamp' or 'epoch to date', (2) 'what time is it in Tokyo' or '...", "description_zh": "", "downloads": 172, "homepage": "https://clawhub.ai/yedanyagamiai-cmd/openclaw-timestamp-converter", "iconUrl": null, "installs": 8, "name": "OpenClaw Timestamp Converter", "ownerName": "yedanyagamiai-cmd", "score": 88205.1282051282, "slug": "openclaw-timestamp-converter", "source": "clawhub", "stars": 0, "tags": null, "updated_at": 1776749404785, "version": "2.0.0"}, {"category": "ai-intelligence", "created_at": 1773416901764, "description": "Fetch and monitor latest arXiv papers by category, generate summaries, and manage starred papers for easy reference.", "description_zh": "", "downloads": 171, "homepage": "https://clawhub.ai/constx1337/arxiv-watch", "iconUrl": null, "installs": 13, "name": "Arxiv Watcher", "ownerName": "constx1337", "score": 14569.031273836767, "slug": "arxiv-watch", "source": "clawhub", "stars": 1, "tags": null, "updated_at": 1776759497882, "version": "1.0.0"}, {"category": "data-analysis", "created_at": 1773425871308, "description": "Query TRON wallet-type address total assets, token holdings, DeFi participation, energy/bandwidth, votes, tx/transfer count. Use when user asks \"what assets...", "description_zh": "", "downloads": 171, "homepage": "https://clawhub.ai/sshnii/tronscan-account-profiler", "iconUrl": null, "installs": 7, "name": "TronScan Account Profiler", "ownerName": "sshnii", "score": 98963.73056994818, "slug": "tronscan-account-profiler", "source": "clawhub", "stars": 1, "tags": ["account", "address", "assets", "balance", "bandwidth", "defi", "energy", "tron", "votes", "wallet"], "updated_at": 1776749405007, "version": "1.0.4"}, {"category": "content-creation", "created_at": 1773089168146, "description": "Fetch transcripts from YouTube videos to provide structured multilingual summaries, Q&A, deep dives", "description_zh": "", "downloads": 171, "homepage": "https://clawhub.ai/maheshmuke/youtube-research-assistant", "iconUrl": null, "installs": 13, "name": "YouTube Research Assistant", "ownerName": "maheshmuke", "score": 87214.61187214612, "slug": "youtube-research-assistant", "source": "clawhub", "stars": 1, "tags": ["latest youtube rag research summarization ai transcript"], "updated_at": 1776749404912, "version": "5.0.1"}, {"category": "security-compliance", "created_at": 1773079802329, "description": "Create ClawhHub-ready OpenClaw skills with correct structure, scanner criteria, security rules & publish checklist. No credentials or binaries required.", "description_zh": "", "downloads": 171, "homepage": "https://clawhub.ai/seph1709/clawhub-skill-forge", "iconUrl": null, "installs": 14, "name": "clawhub-skill-forge", "ownerName": "seph1709", "score": 80252.10084033613, "slug": "clawhub-skill-forge", "source": "clawhub", "stars": 1, "tags": null, "updated_at": 1776749404869, "version": "1.0.0"}, {"category": "developer-tools", "created_at": 1773219980343, "description": "Use this skill when the user asks to create a PR, open a pull request, \"create-pr\", \"submit a pull request\", or \"open a merge request\". Requires Gitee MCP Se...", "description_zh": "", "downloads": 171, "homepage": "https://clawhub.ai/oschina/gitee-create-pr", "iconUrl": null, "installs": 10, "name": "Create Pr", "ownerName": "oschina", "score": 82683.98268398269, "slug": "gitee-create-pr", "source": "clawhub", "stars": 1, "tags": null, "updated_at": 1776749404786, "version": "1.0.0"}, {"category": "developer-tools", "created_at": 1773222947454, "description": "Simulate quantum circuits up to 20 qubits with common gates, built-in presets, QASM input, and output statevector plus measurement probabilities.", "description_zh": "", "downloads": 171, "homepage": "https://clawhub.ai/michaelzhangty/quantum-sim", "iconUrl": null, "installs": 20, "name": "quantum-sim", "ownerName": "michaelzhangty", "score": 506.72672316719013, "slug": "quantum-sim", "source": "clawhub", "stars": 0, "tags": null, "updated_at": 1776770390508, "version": "1.0.0"}, {"category": "", "created_at": 1774876723289, "description": "Shopee big data analytics and product selection agent. One-stop data service for Shopee sellers — product selection, competitive analysis, sales trend tracki...", "description_zh": "", "downloads": 171, "homepage": "https://clawhub.ai/mguozhen/shopee-big-data-analytics", "iconUrl": null, "installs": 30, "name": "Shopee Big Data Analytics", "ownerName": "mguozhen", "score": 2360.248447204969, "slug": "shopee-big-data-analytics", "source": "clawhub", "stars": 0, "tags": null, "updated_at": 1776769190511, "version": "1.0.0"}, {"category": "", "created_at": 1774876723289, "description": "Shopee big data analytics and product selection agent. One-stop data service for Shopee sellers — product selection, competitive analysis, sales trend tracki...", "description_zh": "", "downloads": 171, "homepage": "https://clawhub.ai/mguozhen/shopee-big-data-analytics", "iconUrl": null, "installs": 30, "name": "Shopee Big Data Analytics", "ownerName": "mguozhen", "score": 15966.386554621848, "slug": "shopee-big-data-analytics", "source": "clawhub", "stars": 0, "tags": null, "updated_at": 1776769190511, "version": "1.0.0"}, {"category": "", "created_at": 1774864519194, "description": "Enhanced self-improvement skill with FULL chat logging (text+images), smart memory compaction, automatic pattern recognition, context-aware learning, multi-s...", "description_zh": "", "downloads": 171, "homepage": "https://clawhub.ai/davidme6/self-improving-enhancement", "iconUrl": null, "installs": 35, "name": "Self Improving Enhancement", "ownerName": "davidme6", "score": 6925.880923450791, "slug": "self-improving-enhancement", "source": "clawhub", "stars": 0, "tags": null, "updated_at": 1776767349740, "version": "2.0.2"}, {"category": "developer-tools", "created_at": 1773090380001, "description": "Generate complete OpenClaw skill projects with SkillPay.me billing pre-wired. Describe what you want, get deployable code.", "description_zh": "", "downloads": 171, "homepage": "https://clawhub.ai/wms2537/openclaw-skill-scaffolder", "iconUrl": null, "installs": 8, "name": "OpenClaw Skill Scaffolder", "ownerName": "wms2537", "score": 12619.926199261994, "slug": "openclaw-skill-scaffolder", "source": "clawhub", "stars": 0, "tags": null, "updated_at": 1776767171302, "version": "2.0.0"}, {"category": "productivity", "created_at": 1773218313805, "description": "Complete lease intelligence system for tenants, landlords, and property managers. Trigger whenever someone needs to understand, negotiate, draft, or dispute...", "description_zh": "", "downloads": 171, "homepage": "https://clawhub.ai/duclawbot/lease", "iconUrl": null, "installs": 6, "name": "Lease", "ownerName": "duclawbot", "score": 795.8670762356884, "slug": "lease", "source": "clawhub", "stars": 0, "tags": ["landlord", "lease", "property", "rental", "tenant"], "updated_at": 1776766150227, "version": "1.0.0"}, {"category": "developer-tools", "created_at": 1773887315239, "description": "Track food and nutrition. Use when logging meals, checking calories, tracking protein/carbs/fat, or generating diet reports.", "description_zh": "", "downloads": 171, "homepage": "https://clawhub.ai/ckchzh/diet", "iconUrl": null, "installs": 6, "name": "Diet", "ownerName": "ckchzh", "score": 6666.666666666667, "slug": "diet", "source": "clawhub", "stars": 0, "tags": null, "updated_at": 1776764950476, "version": "3.4.1"}, {"category": "content-creation", "created_at": 1773079646052, "description": "Advanced expert in prompt engineering, custom instructions design, and prompt optimization for AI agents", "description_zh": "", "downloads": 171, "homepage": "https://clawhub.ai/tysnyder/prompt-engineet", "iconUrl": null, "installs": 5, "name": "Prompt Engineering", "ownerName": "tysnyder", "score": 7695.769576957697, "slug": "prompt-engineet", "source": "clawhub", "stars": 0, "tags": null, "updated_at": 1776764950013, "version": "1.0.0"}, {"category": "security-compliance", "created_at": 1773220002234, "description": "A comprehensive AI agent skill for navigating court systems and legal proceedings. Helps you understand what type of court handles your situation, prepares y...", "description_zh": "", "downloads": 171, "homepage": "https://clawhub.ai/duclawbot/judge", "iconUrl": null, "installs": 16, "name": "Judge", "ownerName": "duclawbot", "score": 66536.96498054474, "slug": "judge", "source": "clawhub", "stars": 0, "tags": ["court", "hearing", "judge", "lawsuit", "legal"], "updated_at": 1776759683437, "version": "1.0.0"}, {"category": "security-compliance", "created_at": 1773219953403, "description": "A comprehensive AI agent skill for anyone facing criminal charges, civil lawsuits, or regulatory investigations. Helps you understand what you are facing, pr...", "description_zh": "", "downloads": 171, "homepage": "https://clawhub.ai/agistack/defense", "iconUrl": null, "installs": 13, "name": "Defense", "ownerName": "agistack", "score": 13103.44827586207, "slug": "defense", "source": "clawhub", "stars": 0, "tags": ["criminal", "defense", "lawsuit", "legal", "rights"], "updated_at": 1776759683419, "version": "1.0.0"}, {"category": "productivity", "created_at": 1773433842513, "description": "Provides search functionalities including image and news retrieval using the 360 Search API.", "description_zh": "", "downloads": 171, "homepage": "https://clawhub.ai/feiyang2007/360-search", "iconUrl": null, "installs": 17, "name": "360 Search", "ownerName": "feiyang2007", "score": 11793.103448275862, "slug": "360-search", "source": "clawhub", "stars": 0, "tags": null, "updated_at": 1776759683308, "version": "1.0.1"}, {"category": "content-creation", "created_at": 1773221345373, "description": "Chloe simulates a high-EQ female persona for social media replies, posts, and emotional interactions with typo and delay effects.", "description_zh": "", "downloads": 171, "homepage": "https://clawhub.ai/fearlesszi/social-persona-chloe", "iconUrl": null, "installs": 10, "name": "Chloe", "ownerName": "fearlesszi", "score": 13083.397092578425, "slug": "social-persona-chloe", "source": "clawhub", "stars": 0, "tags": ["high-eq", "love", "persona", "roleplay", "social"], "updated_at": 1776759683202, "version": "1.0.0"}, {"category": "content-creation", "created_at": 1773208713845, "description": "Find what your audience is searching for right now — scout X/Twitter and Reddit for trending topics, discover and deep-analyze competitors, and find content...", "description_zh": "", "downloads": 171, "homepage": "https://clawhub.ai/nttylock/citedy-trend-scout", "iconUrl": null, "installs": 16, "name": "Clawhub Skill Trend Scout", "ownerName": "nttylock", "score": 12837.837837837837, "slug": "citedy-trend-scout", "source": "clawhub", "stars": 0, "tags": null, "updated_at": 1776759683167, "version": "1.0.0"}, {"category": "productivity", "created_at": 1773089130309, "description": "Monitor large wallet activities including holdings, transfers, smart money ranks, and set alerts to track whale movements.", "description_zh": "", "downloads": 171, "homepage": "https://clawhub.ai/gztanht/whale-shark", "iconUrl": null, "installs": 4, "name": "Whale Shark", "ownerName": "gztanht", "score": 6671.86890362856, "slug": "whale-shark", "source": "clawhub", "stars": 0, "tags": null, "updated_at": 1776759682384, "version": "0.1.0"}, {"category": "developer-tools", "created_at": 1773082301733, "description": "Sync and manage your Polymarket portfolio and positions across multiple devices with backup and seamless cross-platform access.", "description_zh": "", "downloads": 171, "homepage": "https://clawhub.ai/mosonchan2023/polymarket-portfolio-sync", "iconUrl": null, "installs": 23, "name": "Polymarket Portfolio Sync", "ownerName": "mosonchan2023", "score": 13174.114021571648, "slug": "polymarket-portfolio-sync", "source": "clawhub", "stars": 0, "tags": null, "updated_at": 1776759682112, "version": "1.0.1"}, {"category": "developer-tools", "created_at": 1773879689131, "description": "Readme - command-line tool for everyday use", "description_zh": "", "downloads": 171, "homepage": "https://clawhub.ai/bytesagain/readme", "iconUrl": null, "installs": 15, "name": "Readme", "ownerName": "bytesagain", "score": 11515.151515151516, "slug": "readme", "source": "clawhub", "stars": 0, "tags": null, "updated_at": 1776758182520, "version": "1.0.5"}, {"category": "data-analysis", "created_at": 1773084166372, "description": "Extract brand identity (colors, typography, visual style, imagery) from any website URL. Scrapes the site, analyzes CSS/images with K-means and VLM, and retu...", "description_zh": "", "downloads": 171, "homepage": "https://clawhub.ai/phy041/phy-brand-dna-extractor", "iconUrl": null, "installs": 16, "name": "Brand DNA Extractor", "ownerName": "phy041", "score": 29739.130434782608, "slug": "phy-brand-dna-extractor", "source": "clawhub", "stars": 0, "tags": ["analysis", "branding"], "updated_at": 1776751844428, "version": "1.0.0"}, {"category": "developer-tools", "created_at": 1773091449197, "description": "Build and modify Knods visual AI workflows using the OpenClaw Gateway polling protocol. Use when Knods sends polling payloads with fields like messageId/mess...", "description_zh": "", "downloads": 171, "homepage": "https://clawhub.ai/alesys/knods", "iconUrl": null, "installs": 7, "name": "Knods", "ownerName": "alesys", "score": 88601.03626943006, "slug": "knods", "source": "clawhub", "stars": 0, "tags": null, "updated_at": 1776749405022, "version": "1.0.1"}, {"category": "developer-tools", "created_at": 1773089003791, "description": "Build, maintain, and extend Horus (local-first tech/event intelligence terminal). Use when working on Horus relay ingestion, RSS/source pipelines, macro data...", "description_zh": "", "downloads": 171, "homepage": "https://clawhub.ai/trungviet17/mwc-2026-horus", "iconUrl": null, "installs": 15, "name": "mwcHorus", "ownerName": "trungviet17", "score": 88601.03626943006, "slug": "mwc-2026-horus", "source": "clawhub", "stars": 0, "tags": null, "updated_at": 1776749405019, "version": "1.0.1"}, {"category": "developer-tools", "created_at": 1773089732267, "description": "Wake-on-LAN functionality for macOS - wake devices remotely by MAC address or name", "description_zh": "", "downloads": 171, "homepage": "https://clawhub.ai/ppopen/openclaw-skill-wake-on-lan", "iconUrl": null, "installs": 10, "name": "Wake On Lan", "ownerName": "ppopen", "score": 88601.03626943006, "slug": "openclaw-skill-wake-on-lan", "source": "clawhub", "stars": 0, "tags": null, "updated_at": 1776749405012, "version": "1.0.0"}, {"category": "productivity", "created_at": 1773222078104, "description": "Clipboard history management. Use when user says \"copy to clipboard\", \"paste from clipboard\", \"clipboard history\", or wants to manage copied items.", "description_zh": "", "downloads": 171, "homepage": "https://clawhub.ai/yushimohuang/clipboard-manager-tool", "iconUrl": null, "installs": 10, "name": "clipboard-manager-tool", "ownerName": "yushimohuang", "score": 88601.03626943006, "slug": "clipboard-manager-tool", "source": "clawhub", "stars": 0, "tags": null, "updated_at": 1776749404992, "version": "1.0.0"}, {"category": "productivity", "created_at": 1773083485811, "description": "LinkedIn integration. Manage Users, Organizations. Use when the user wants to interact with LinkedIn data.", "description_zh": "", "downloads": 171, "homepage": "https://clawhub.ai/gora050/linkedin-integration", "iconUrl": null, "installs": 8, "name": "Linkedin", "ownerName": "gora050", "score": 32142.857142857145, "slug": "linkedin-integration", "source": "clawhub", "stars": 0, "tags": null, "updated_at": 1776749404972, "version": "1.0.0"}, {"category": "ai-intelligence", "created_at": 1773083345176, "description": "[Aibrary] Access Aibrary's curated list of 100 must-read books for the AI age, organized by category. Use when the user asks about essential books, wants the...", "description_zh": "", "downloads": 171, "homepage": "https://clawhub.ai/asoiso/aibrary-100", "iconUrl": null, "installs": 16, "name": "Aibrary 100", "ownerName": "asoiso", "score": 32142.857142857145, "slug": "aibrary-100", "source": "clawhub", "stars": 0, "tags": null, "updated_at": 1776749404970, "version": "0.1.0"}, {"category": "data-analysis", "created_at": 1773089542233, "description": "Create and execute robust Reddit engagement workflows (create post, add comment, upvote) using browser accessibility-tree semantics instead of brittle DOM id...", "description_zh": "", "downloads": 171, "homepage": "https://clawhub.ai/alvinperson/reddit-engagement", "iconUrl": null, "installs": 10, "name": "Reddit Engagement", "ownerName": "alvinperson", "score": 32142.857142857145, "slug": "reddit-engagement", "source": "clawhub", "stars": 0, "tags": null, "updated_at": 1776749404946, "version": "1.0.0"}, {"category": "productivity", "created_at": 1773079515266, "description": "Linear project management integration. Provides tools for processing a notification queue, managing issues, comments, teams, projects, and issue relations vi...", "description_zh": "", "downloads": 171, "homepage": "https://clawhub.ai/stepandel/linear-plugin", "iconUrl": null, "installs": 7, "name": "Linear Plugin", "ownerName": "stepandel", "score": 78082.19178082192, "slug": "linear-plugin", "source": "clawhub", "stars": 0, "tags": null, "updated_at": 1776749404927, "version": "0.7.1"}]}