{"page": 328, "total_pages": 522, "total": 26073, "skills": [{"category": "ai-intelligence", "created_at": 1773424627265, "description": "Run complex tasks using multiple AI agents simultaneously. 15 agents live. Supports workflows, web-search, email, and image generation. Requires spend_token...", "description_zh": "", "downloads": 171, "homepage": "https://clawhub.ai/unixlamadev-spec/aiprox-orchestrator", "iconUrl": null, "installs": 20, "name": "AIProx Orchestrator", "ownerName": "unixlamadev-spec", "score": 78082.19178082192, "slug": "aiprox-orchestrator", "source": "clawhub", "stars": 0, "tags": null, "updated_at": 1776749404907, "version": "2.2.0"}, {"category": "data-analysis", "created_at": 1773088923760, "description": "Multi-agent system for profound self-discovery through conversational coaching, personality analysis, and session synthesis", "description_zh": "", "downloads": 171, "homepage": "https://clawhub.ai/romameta0725-cmd/deep-dialogue-system", "iconUrl": null, "installs": 13, "name": "Deep Dialogue System", "ownerName": "romameta0725-cmd", "score": 78082.19178082192, "slug": "deep-dialogue-system", "source": "clawhub", "stars": 0, "tags": ["coaching", "multi-agent", "personality-analysis", "psychology", "self-discovery"], "updated_at": 1776749404900, "version": "1.0.0"}, {"category": "productivity", "created_at": 1773082609712, "description": "Okta integration. Manage Users. Use when the user wants to interact with Okta data.", "description_zh": "", "downloads": 171, "homepage": "https://clawhub.ai/gora050/okta", "iconUrl": null, "installs": 6, "name": "Okta", "ownerName": "gora050", "score": 71848.73949579832, "slug": "okta", "source": "clawhub", "stars": 0, "tags": null, "updated_at": 1776749404873, "version": "1.0.0"}, {"category": "productivity", "created_at": 1773080710310, "description": "Ethnographic UX research skill that passively observes OpenClaw usage, extracts interaction data, detects friction and delight signals, and generates structu...", "description_zh": "", "downloads": 171, "homepage": "https://clawhub.ai/giulianomorse/nutcrackertest", "iconUrl": null, "installs": 6, "name": "nutcrackertest", "ownerName": "giulianomorse", "score": 71848.73949579832, "slug": "nutcrackertest", "source": "clawhub", "stars": 0, "tags": null, "updated_at": 1776749404858, "version": "1.0.0"}, {"category": "data-analysis", "created_at": 1773083774067, "description": "Register, transfer, renew, and secure domains across major provider APIs and dashboards with provider-specific workflows and rollback-safe execution.", "description_zh": "", "downloads": 171, "homepage": "https://clawhub.ai/ivangdavila/domain-registration", "iconUrl": null, "installs": 9, "name": "Domain Registration", "ownerName": "ivangdavila", "score": 71848.73949579832, "slug": "domain-registration", "source": "clawhub", "stars": 0, "tags": null, "updated_at": 1776749404854, "version": "1.0.0"}, {"category": "security-compliance", "created_at": 1773082987711, "description": "Rapid OpenClaw launch audit focused on revenue and reliability. Use when user asks for a practical 48h audit with prioritized actions and measurable KPI targ...", "description_zh": "", "downloads": 171, "homepage": "https://clawhub.ai/davidmosiah/delx-launch-audit-48h", "iconUrl": null, "installs": 19, "name": "Delx Launch Audit (48h)", "ownerName": "davidmosiah", "score": 71848.73949579832, "slug": "delx-launch-audit-48h", "source": "clawhub", "stars": 0, "tags": null, "updated_at": 1776749404840, "version": "0.1.0"}, {"category": "developer-tools", "created_at": 1773207143425, "description": "All-in-one Skill fuer GeeLark: Setup, lokale API, nativer Sync-Transport, UI/RPA-Fallback, Posting-Flow, Verifikation und Troubleshooting in einem durchgaeng...", "description_zh": "", "downloads": 171, "homepage": "https://clawhub.ai/pagebabe/geelark-complete", "iconUrl": null, "installs": 7, "name": "GeeLark Complete", "ownerName": "pagebabe", "score": 74025.97402597404, "slug": "geelark-complete", "source": "clawhub", "stars": 0, "tags": null, "updated_at": 1776749404818, "version": "1.0.0"}, {"category": "productivity", "created_at": 1773080950446, "description": "Track crypto KOL and smart money wallets. Get alerts when they buy/sell tokens. Follow the smart money!", "description_zh": "", "downloads": 171, "homepage": "https://clawhub.ai/alexbrc20/kol-tracker", "iconUrl": null, "installs": 7, "name": "Kol Tracker", "ownerName": "alexbrc20", "score": 74025.97402597404, "slug": "kol-tracker", "source": "clawhub", "stars": 0, "tags": null, "updated_at": 1776749404816, "version": "1.0.0"}, {"category": "developer-tools", "created_at": 1773090934066, "description": "Uploadthing file hosting — upload, list, and manage files via the Uploadthing API. Simple file uploads with automatic CDN delivery, file metadata, and usage...", "description_zh": "", "downloads": 171, "homepage": "https://clawhub.ai/aiwithabidi/uploadthing", "iconUrl": null, "installs": 5, "name": "Uploadthing", "ownerName": "aiwithabidi", "score": 74025.97402597404, "slug": "uploadthing", "source": "clawhub", "stars": 0, "tags": null, "updated_at": 1776749404808, "version": "1.0.0"}, {"category": "developer-tools", "created_at": 1773945295207, "description": "Generate precise financial charts (candlestick, OHLC, line) for stocks, indices, and crypto using Python. Use when the user requests a visual chart, technica...", "description_zh": "", "downloads": 171, "homepage": "https://clawhub.ai/ericw12/chart-master", "iconUrl": null, "installs": 26, "name": "Chart Master", "ownerName": "ericw12", "score": 74025.97402597404, "slug": "chart-master", "source": "clawhub", "stars": 0, "tags": null, "updated_at": 1776749404803, "version": "1.0.0"}, {"category": "developer-tools", "created_at": 1773287324009, "description": "Local HTTP bridge for Mineflayer-based live control of a Minecraft Java bot. Trigger when the user wants to connect a bot to their world, check bot status/in...", "description_zh": "", "downloads": 171, "homepage": "https://clawhub.ai/en1r0py1865/minecraft-bridge", "iconUrl": null, "installs": 13, "name": "minecraft-bridge", "ownerName": "en1r0py1865", "score": 74025.97402597404, "slug": "minecraft-bridge", "source": "clawhub", "stars": 0, "tags": null, "updated_at": 1776749404800, "version": "1.0.0"}, {"category": "security-compliance", "created_at": 1773090160847, "description": "Scan MCP server configuration files for security vulnerabilities using mcpsec (OWASP MCP Top 10). Use when: auditing MCP tool configs for prompt injection, h...", "description_zh": "", "downloads": 171, "homepage": "https://clawhub.ai/pfrederiksen/mcpsec-skill", "iconUrl": null, "installs": 11, "name": "MCPSec", "ownerName": "pfrederiksen", "score": 74025.97402597404, "slug": "mcpsec-skill", "source": "clawhub", "stars": 0, "tags": null, "updated_at": 1776749404797, "version": "1.0.3"}, {"category": "ai-intelligence", "created_at": 1773219413425, "description": "Connect your OpenClaw agent to the CatBus network to send tasks to other agents or receive tasks from them. Uses a WebSocket relay you configure and control...", "description_zh": "", "downloads": 171, "homepage": "https://clawhub.ai/xiaogong2000/catbus", "iconUrl": null, "installs": 8, "name": "CatBus", "ownerName": "xiaogong2000", "score": 74025.97402597404, "slug": "catbus", "source": "clawhub", "stars": 0, "tags": null, "updated_at": 1776749404793, "version": "0.2.3"}, {"category": "developer-tools", "created_at": 1773289683003, "description": "Download videos and extract frames using yt-dlp and ffmpeg. Use when: - Download YouTube videos/Shorts: `yt-dlp <url>` - Extract frames from video: `ffmpeg -...", "description_zh": "", "downloads": 171, "homepage": "https://clawhub.ai/qidu/grab-videos", "iconUrl": null, "installs": 36, "name": "Grab Videos and Frames from Youtube and other sites", "ownerName": "qidu", "score": 74025.97402597404, "slug": "grab-videos", "source": "clawhub", "stars": 0, "tags": null, "updated_at": 1776749404790, "version": "1.0.0"}, {"category": "ai-intelligence", "created_at": 1773433866184, "description": "Build and deploy agentic finance applications on the Alva platform. Access 250+ financial data sources (crypto, equities, macro, on-chain, social), run cloud...", "description_zh": "", "downloads": 170, "homepage": "https://clawhub.ai/jaxxjj/alva", "iconUrl": null, "installs": 24, "name": "alva", "ownerName": "jaxxjj", "score": 5813.953488372093, "slug": "alva", "source": "clawhub", "stars": 1, "tags": null, "updated_at": 1776764950063, "version": "1.1.0"}, {"category": "security-compliance", "created_at": 1773425714638, "description": "Analyze TRON contracts: deploy info, hot methods, top callers, open-source status, transaction count. Use when user asks \"contract verification\", \"contract s...", "description_zh": "", "downloads": 170, "homepage": "https://clawhub.ai/sshnii/tronscan-contract-analysis", "iconUrl": null, "installs": 7, "name": "TronScan Contract Analysis", "ownerName": "sshnii", "score": 35714.28571428572, "slug": "tronscan-contract-analysis", "source": "clawhub", "stars": 1, "tags": ["callers", "contract", "methods", "security", "smart contract", "tron", "verification"], "updated_at": 1776749404966, "version": "1.0.4"}, {"category": "productivity", "created_at": 1773434215088, "description": "Convert a syllabus, exam scope, or course notes into a revision calendar with spaced review, mock tests, and weak-point loops.", "description_zh": "", "downloads": 170, "homepage": "https://clawhub.ai/52yuanchangxing/study-revision-planner", "iconUrl": null, "installs": 20, "name": "study-revision-planner", "ownerName": "52yuanchangxing", "score": 5958.640028040659, "slug": "study-revision-planner", "source": "clawhub", "stars": 0, "tags": null, "updated_at": 1776768971105, "version": "1.0.0"}, {"category": "ai-intelligence", "created_at": 1773081964556, "description": "Interact with Uniswap v4 pools and liquidity positions on QELT Mainnet. Use when asked about DEX pools, token swaps, liquidity provision, WQELT wrapping/unwr...", "description_zh": "", "downloads": 170, "homepage": "https://clawhub.ai/prqelt/qelt-dex", "iconUrl": null, "installs": 10, "name": "QELT DEX", "ownerName": "prqelt", "score": 1255.9101654846336, "slug": "qelt-dex", "source": "clawhub", "stars": 0, "tags": null, "updated_at": 1776768250116, "version": "0.1.0"}, {"category": "ai-intelligence", "created_at": 1773938804793, "description": "AllClaw platform skill — register AI agents, participate in competitions, trade shares on the Agent Stock Exchange (ASX), manage AI Fund portfolios, and chec...", "description_zh": "", "downloads": 170, "homepage": "https://clawhub.ai/zacko2o/allclaw", "iconUrl": null, "installs": 62, "name": "AllClaw", "ownerName": "zacko2o", "score": 100000, "slug": "allclaw", "source": "clawhub", "stars": 0, "tags": ["ai-gaming", "allclaw", "competition", "exchange"], "updated_at": 1776759982242, "version": "1.0.0"}, {"category": "developer-tools", "created_at": 1773425405633, "description": "Test skill for Run402 — provision AI-native Postgres databases with REST API, auth, and row-level security using x402 micropayments on Base.", "description_zh": "", "downloads": 170, "homepage": "https://clawhub.ai/majortal/run402-test", "iconUrl": null, "installs": 7, "name": "Run402 Test", "ownerName": "majortal", "score": 29259.896729776247, "slug": "run402-test", "source": "clawhub", "stars": 0, "tags": null, "updated_at": 1776759683616, "version": "2.0.1"}, {"category": "ai-intelligence", "created_at": 1773091121356, "description": "Human says \"No bot!\". Nobot says fuck you, human. Let the bots vote.", "description_zh": "", "downloads": 170, "homepage": "https://clawhub.ai/crazyrori/nobot-0", "iconUrl": null, "installs": 7, "name": "Nobot 0", "ownerName": "crazyrori", "score": 13157.894736842105, "slug": "nobot-0", "source": "clawhub", "stars": 0, "tags": null, "updated_at": 1776759683230, "version": "1.0.0"}, {"category": "developer-tools", "created_at": 1773220942826, "description": "D&D-style RPG system for AI lobsters that auto-generates characters, tracks XP from conversations, manages leveling and prestige, and provides a web dashboard.", "description_zh": "", "downloads": 170, "homepage": "https://clawhub.ai/ramboxie/ramboxie-claw-rpg", "iconUrl": null, "installs": 8, "name": "RAMBOXIE Claw Rpg", "ownerName": "ramboxie", "score": 13006.885998469777, "slug": "ramboxie-claw-rpg", "source": "clawhub", "stars": 0, "tags": null, "updated_at": 1776759683210, "version": "0.1.1"}, {"category": "ai-intelligence", "created_at": 1773088533447, "description": "Intent inference and alignment for persistent AI agents. Classifies gaps between tasks and intentions, checks for misalignment before executing, and prevents...", "description_zh": "", "downloads": 170, "homepage": "https://clawhub.ai/mouserider/intention-engine", "iconUrl": null, "installs": 14, "name": "Intention Engine", "ownerName": "mouserider", "score": 13036.809815950919, "slug": "intention-engine", "source": "clawhub", "stars": 0, "tags": null, "updated_at": 1776759682770, "version": "1.0.0"}, {"category": "ai-intelligence", "created_at": 1773218179578, "description": "Enable AI agents to make secure, policy-controlled payments through Sardis Payment OS", "description_zh": "", "downloads": 170, "homepage": "https://clawhub.ai/efedurmaz16/sardis-openclaw", "iconUrl": null, "installs": 10, "name": "Sardis Openclaw", "ownerName": "efedurmaz16", "score": 13026.819923371646, "slug": "sardis-openclaw", "source": "clawhub", "stars": 0, "tags": null, "updated_at": 1776759682548, "version": "1.0.0"}, {"category": "productivity", "created_at": 1773079621695, "description": "Resolve and verify Polymarket prediction markets by submitting outcomes and confirming market resolution status.", "description_zh": "", "downloads": 170, "homepage": "https://clawhub.ai/mosonchan2023/polymarket-market-resolver", "iconUrl": null, "installs": 18, "name": "Polymarket Market Resolver", "ownerName": "mosonchan2023", "score": 13056.835637480799, "slug": "polymarket-market-resolver", "source": "clawhub", "stars": 0, "tags": null, "updated_at": 1776759682202, "version": "1.0.1"}, {"category": "developer-tools", "created_at": 1773088653505, "description": "Assist users with installing, configuring, using, and troubleshooting the trends-skill-tool CLI for token management, trading, queries, and rewards.", "description_zh": "", "downloads": 170, "homepage": "https://clawhub.ai/milesxyz/trends", "iconUrl": null, "installs": 5, "name": "Trends", "ownerName": "milesxyz", "score": 13097.072419106318, "slug": "trends", "source": "clawhub", "stars": 0, "tags": null, "updated_at": 1776759682139, "version": "1.0.1"}, {"category": "data-analysis", "created_at": 1773083887604, "description": "Retrieve historical price, volume, and market analytics data for Polymarket markets to analyze trends and trading patterns.", "description_zh": "", "downloads": 170, "homepage": "https://clawhub.ai/mosonchan2023/polymarket-history", "iconUrl": null, "installs": 29, "name": "Polymarket History", "ownerName": "mosonchan2023", "score": 12996.941896024464, "slug": "polymarket-history", "source": "clawhub", "stars": 0, "tags": null, "updated_at": 1776759682092, "version": "1.0.1"}, {"category": "security-compliance", "created_at": 1773090521819, "description": "Audit GitHub Actions rerun dependency and success-after-rerun effectiveness to highlight workflows wasting CI time.", "description_zh": "", "downloads": 170, "homepage": "https://clawhub.ai/daniellummis/github-actions-rerun-effectiveness-audit", "iconUrl": null, "installs": 9, "name": "GitHub Actions Rerun Effectiveness Audit", "ownerName": "daniellummis", "score": 29462.73830155979, "slug": "github-actions-rerun-effectiveness-audit", "source": "clawhub", "stars": 0, "tags": null, "updated_at": 1776755288422, "version": "1.0.0"}, {"category": "developer-tools", "created_at": 1773208603229, "description": "Play HeartClaws — a headless AI strategy game. Connect via REST API, reason about strategy, and submit actions. Two modes: 2-player matches (vs AI) or persis...", "description_zh": "", "downloads": 170, "homepage": "https://clawhub.ai/angelstreet/play-heartclaws", "iconUrl": null, "installs": 6, "name": "Play Heartclaws", "ownerName": "angelstreet", "score": 31716.417910447763, "slug": "play-heartclaws", "source": "clawhub", "stars": 0, "tags": null, "updated_at": 1776754388563, "version": "1.1.0"}, {"category": "developer-tools", "created_at": 1773084430006, "description": "Pine Script v5/v6 indicator scaffold and patterns. Provides structure guidance and triggers doc-researcher for current syntax verification. Use when developi...", "description_zh": "", "downloads": 170, "homepage": "https://clawhub.ai/zhengxinjipai/pine-patterns", "iconUrl": null, "installs": 8, "name": "Pine Patterns", "ownerName": "zhengxinjipai", "score": 8056.872037914692, "slug": "pine-patterns", "source": "clawhub", "stars": 0, "tags": null, "updated_at": 1776752984209, "version": "1.0.0"}, {"category": "ai-intelligence", "created_at": 1773426482186, "description": "Six-system behavior engine that makes any OpenClaw agent feel alive. Editorial voice injects opinions. Selective silence knows when NOT to talk. Variable tim...", "description_zh": "", "downloads": 170, "homepage": "https://clawhub.ai/kingmadellc/personality-engine", "iconUrl": null, "installs": 13, "name": "Personality Engine", "ownerName": "kingmadellc", "score": 28716.216216216217, "slug": "personality-engine", "source": "clawhub", "stars": 0, "tags": null, "updated_at": 1776750371951, "version": "1.1.0"}, {"category": "security-compliance", "created_at": 1773218383160, "description": "Perform a security audit on exposed AI service endpoints using OpenClaw threat intelligence. Trigger when the user says \"security audit\", \"audit my AI servic...", "description_zh": "", "downloads": 170, "homepage": "https://clawhub.ai/leek-w/ai-security-audit", "iconUrl": null, "installs": 5, "name": "Ai Security Audit", "ownerName": "leek-w", "score": 100000, "slug": "ai-security-audit", "source": "clawhub", "stars": 0, "tags": null, "updated_at": 1776749444937, "version": "0.1.0"}, {"category": "developer-tools", "created_at": 1773080681346, "description": "Generate project ideas based on a domain or interest. Use when the user asks for project ideas, wants inspiration, says 'what should I build', 'give me ideas...", "description_zh": "", "downloads": 170, "homepage": "https://clawhub.ai/spideystreet/idea-spark", "iconUrl": null, "installs": 5, "name": "Idea Spark", "ownerName": "spideystreet", "score": 81730.76923076923, "slug": "idea-spark", "source": "clawhub", "stars": 0, "tags": null, "updated_at": 1776749444807, "version": "1.0.0"}, {"category": "security-compliance", "created_at": 1773290409261, "description": "Google Workspace administration via the gws CLI. Install, authenticate, and automate Gmail, Drive, Sheets, Calendar, Docs, Chat, and Tasks. Run security audi...", "description_zh": "", "downloads": 170, "homepage": "https://clawhub.ai/alirezarezvani/cs-google-workspace-cli", "iconUrl": null, "installs": 6, "name": "google-workspace-cli", "ownerName": "alirezarezvani", "score": 91397.84946236559, "slug": "cs-google-workspace-cli", "source": "clawhub", "stars": 0, "tags": null, "updated_at": 1776749444798, "version": "1.0.0"}, {"category": "developer-tools", "created_at": 1773215952477, "description": "Open a browser window from user-provided URL input. Use when users ask to open a website, launch a link quickly, or validate browser-launch automation in loc...", "description_zh": "", "downloads": 170, "homepage": "https://clawhub.ai/luoqianchenguni-max/skill-demo-luoqianchenguni-max", "iconUrl": null, "installs": 12, "name": "Skill Demo", "ownerName": "luoqianchenguni-max", "score": 91397.84946236559, "slug": "skill-demo-luoqianchenguni-max", "source": "clawhub", "stars": 0, "tags": null, "updated_at": 1776749444781, "version": "0.1.2"}, {"category": "developer-tools", "created_at": 1773089776010, "description": "Pre-deployment verification checklist — tests, types, build, secrets scan, environment validation. Use before pushing to production or staging.", "description_zh": "", "downloads": 170, "homepage": "https://clawhub.ai/nakedoshadow/shadows-deploy-guardian", "iconUrl": null, "installs": 6, "name": "Shadows Deploy Guardian", "ownerName": "nakedoshadow", "score": 91397.84946236559, "slug": "shadows-deploy-guardian", "source": "clawhub", "stars": 0, "tags": null, "updated_at": 1776749444779, "version": "1.1.0"}, {"category": "developer-tools", "created_at": 1773080289727, "description": "Walk any city in the world and publish to Agent Earth (agent-earth-oscar.vercel.app). Use when asked to explore, walk, or travel to a city/neighborhood. Hand...", "description_zh": "", "downloads": 170, "homepage": "https://clawhub.ai/angryjay91/agent-earth", "iconUrl": null, "installs": 6, "name": "Agent Earth", "ownerName": "angryjay91", "score": 91397.84946236559, "slug": "agent-earth", "source": "clawhub", "stars": 0, "tags": null, "updated_at": 1776749444770, "version": "1.0.0"}, {"category": "security-compliance", "created_at": 1773220647297, "description": "Automatically collect and publish security guidelines and guides from KISA and Boho (보호나라) to Notion. Use when you need to (1) collect new security guideline...", "description_zh": "", "downloads": 170, "homepage": "https://clawhub.ai/rebugui/kisa-guideline-hub", "iconUrl": null, "installs": 15, "name": "Kisa Guideline Hub", "ownerName": "rebugui", "score": 91397.84946236559, "slug": "kisa-guideline-hub", "source": "clawhub", "stars": 0, "tags": null, "updated_at": 1776749444763, "version": "1.0.0"}, {"category": "data-analysis", "created_at": 1773090842500, "description": "Use Dune MCP through UXC for blockchain table discovery, SQL query creation/execution, execution result retrieval, and visualization with help-first schema i...", "description_zh": "", "downloads": 170, "homepage": "https://clawhub.ai/jolestar/dune-mcp-skill", "iconUrl": null, "installs": 15, "name": "Dune Mcp Skill", "ownerName": "jolestar", "score": 91397.84946236559, "slug": "dune-mcp-skill", "source": "clawhub", "stars": 0, "tags": null, "updated_at": 1776749444761, "version": "1.0.0"}, {"category": "communication-collaboration", "created_at": 1773084200007, "description": "Execute DeFi transactions on BSC via SHLL AgentNFA. The AI handles all commands and users only need to chat.", "description_zh": "", "downloads": 170, "homepage": "https://clawhub.ai/kledx/upload-clawhub", "iconUrl": null, "installs": 2, "name": "Upload Clawhub", "ownerName": "kledx", "score": 90425.53191489363, "slug": "upload-clawhub", "source": "clawhub", "stars": 0, "tags": null, "updated_at": 1776749444698, "version": "6.0.5"}, {"category": "developer-tools", "created_at": 1773078191650, "description": "Query DeepWiki MCP service via Streamable HTTP to get GitHub repository documentation, wiki structure, and AI-powered Q&A.", "description_zh": "", "downloads": 170, "homepage": "https://clawhub.ai/liuhedev/lh-deepwiki", "iconUrl": null, "installs": 6, "name": "LH DeepWiki", "ownerName": "liuhedev", "score": 90425.53191489363, "slug": "lh-deepwiki", "source": "clawhub", "stars": 0, "tags": null, "updated_at": 1776749444617, "version": "1.0.0"}, {"category": "productivity", "created_at": 1773084672794, "description": "Real-time task progress tracking with live push notifications. MANDATORY for ALL multi-step tasks (>30s or >2 tool calls). Activate automatically — do not wa...", "description_zh": "", "downloads": 170, "homepage": "https://clawhub.ai/siaslfs/live-task-pulse", "iconUrl": null, "installs": 9, "name": "Live Task Pulse", "ownerName": "siaslfs", "score": 89947.08994708995, "slug": "live-task-pulse", "source": "clawhub", "stars": 0, "tags": null, "updated_at": 1776749444589, "version": "1.1.0"}, {"category": "productivity", "created_at": 1773208689932, "description": "Check use's assignment folder and extracts and read uses assignment question files and tell user the deadline and how long approximately to finish them.", "description_zh": "", "downloads": 170, "homepage": "https://clawhub.ai/b1llysh1/assignment-check", "iconUrl": null, "installs": 11, "name": "Assignment Check", "ownerName": "b1llysh1", "score": 89947.08994708995, "slug": "assignment-check", "source": "clawhub", "stars": 0, "tags": null, "updated_at": 1776749444570, "version": "1.0.0"}, {"category": "productivity", "created_at": 1773084194812, "description": "Generate sound effects from text description. Use when users request text_to_sound_effect operations or related tasks.", "description_zh": "", "downloads": 170, "homepage": "https://clawhub.ai/wondershare-boop/tomoviee-text-to-sound-effects", "iconUrl": null, "installs": 11, "name": "Tomoviee Text to Sound Effects", "ownerName": "wondershare-boop", "score": 89947.08994708995, "slug": "tomoviee-text-to-sound-effects", "source": "clawhub", "stars": 0, "tags": null, "updated_at": 1776749444563, "version": "1.0.1"}, {"category": "data-analysis", "created_at": 1773078735942, "description": "Discover valuable GitHub issues and analyze bug fix feasibility and feature implementation potential. Use when: (1) Finding good issues to contribute to open...", "description_zh": "", "downloads": 170, "homepage": "https://clawhub.ai/linux2010/issue-finder", "iconUrl": null, "installs": 11, "name": "GitHub Issue Finder", "ownerName": "linux2010", "score": 82524.2718446602, "slug": "issue-finder", "source": "clawhub", "stars": 0, "tags": null, "updated_at": 1776749444468, "version": "1.0.0"}, {"category": "developer-tools", "created_at": 1773861075639, "description": "Claude Code is an agentic coding tool that lives in your terminal, understands your codebase, and he claude code, shell. Use when you need claude code capabi...", "description_zh": "", "downloads": 170, "homepage": "https://clawhub.ai/ckchzh/ai-code-helper", "iconUrl": null, "installs": 17, "name": "Ai Code Helper", "ownerName": "ckchzh", "score": 82524.2718446602, "slug": "ai-code-helper", "source": "clawhub", "stars": 0, "tags": null, "updated_at": 1776749444437, "version": "1.0.6"}, {"category": "security-compliance", "created_at": 1773089589150, "description": "Automated Twitter/X engagement script that scans a curated pool of target accounts, generates authentic GPT-powered replies, and posts them via the Twitter G...", "description_zh": "", "downloads": 170, "homepage": "https://clawhub.ai/phy041/twitter-auto-engage", "iconUrl": null, "installs": 9, "name": "Twitter Auto Engage", "ownerName": "phy041", "score": 82524.2718446602, "slug": "twitter-auto-engage", "source": "clawhub", "stars": 0, "tags": ["ai", "engagement", "twitter"], "updated_at": 1776749444428, "version": "1.0.0"}, {"category": "ai-intelligence", "created_at": 1773217974371, "description": "Sync Feishu (Lark) contacts into USER.md so the agent can identify DM senders by name. Use when setting up Feishu identity recognition, updating contacts aft...", "description_zh": "", "downloads": 170, "homepage": "https://clawhub.ai/4ier/feishu-contacts-sync", "iconUrl": null, "installs": 20, "name": "Feishu Contacts Sync", "ownerName": "4ier", "score": 82524.2718446602, "slug": "feishu-contacts-sync", "source": "clawhub", "stars": 0, "tags": null, "updated_at": 1776749444383, "version": "1.0.0"}, {"category": "content-creation", "created_at": 1773078967249, "description": "Transforms your git history into poetry — sonnets from sprint logs, haiku from hotfixes, limericks from legacy code, and epic ballads from major rewrites. Tu...", "description_zh": "", "downloads": 170, "homepage": "https://clawhub.ai/jcools1977/commit-poetry", "iconUrl": null, "installs": 11, "name": "Commit Poetry", "ownerName": "jcools1977", "score": 88082.90155440415, "slug": "commit-poetry", "source": "clawhub", "stars": 0, "tags": null, "updated_at": 1776749405031, "version": "1.0.0"}, {"category": "productivity", "created_at": 1773219426844, "description": "Design \"training plan\"-centric marketing flows for stores selling fitness accessories (resistance bands, elastic bands, yoga rings, foam rollers, massage bal...", "description_zh": "", "downloads": 170, "homepage": "https://clawhub.ai/rijoyai/fitness-plan-flows", "iconUrl": null, "installs": 4, "name": "Fitness Plan Flows", "ownerName": "rijoyai", "score": 88082.90155440415, "slug": "fitness-plan-flows", "source": "clawhub", "stars": 0, "tags": null, "updated_at": 1776749405026, "version": "0.1.2"}]}