{"page": 329, "total_pages": 522, "total": 26073, "skills": [{"category": "developer-tools", "created_at": 1773089951301, "description": "Microsoft Entra ID integration. Manage Users, Applications, ServicePrincipals, Devices, RoleDefinitions, Policies and more. Use when the user wants to intera...", "description_zh": "", "downloads": 170, "homepage": "https://clawhub.ai/gora050/microsoft-entra-id", "iconUrl": null, "installs": 14, "name": "Microsoft Entra Id", "ownerName": "gora050", "score": 88082.90155440415, "slug": "microsoft-entra-id", "source": "clawhub", "stars": 0, "tags": null, "updated_at": 1776749405017, "version": "1.0.0"}, {"category": "developer-tools", "created_at": 1773936225407, "description": "Manage a self-hosted WordPress site via SSH+WP-CLI (primary) and WP REST API (when direct HTTPS access is available). Use when asked to write, draft, publish...", "description_zh": "", "downloads": 170, "homepage": "https://clawhub.ai/eddygk/wordpress-selfhosted", "iconUrl": null, "installs": 52, "name": "WordPress Self-Hosted", "ownerName": "eddygk", "score": 88082.90155440415, "slug": "wordpress-selfhosted", "source": "clawhub", "stars": 0, "tags": null, "updated_at": 1776749405012, "version": "1.0.3"}, {"category": "productivity", "created_at": 1773219287544, "description": "Use this skill whenever the user wants speech to sound more human, companion-like, or emotionally expressive. Triggers include: any mention of 'say like', 't...", "description_zh": "", "downloads": 170, "homepage": "https://clawhub.ai/ksuriuri/noiz-characteristic-voice", "iconUrl": null, "installs": 13, "name": "characteristic-voice", "ownerName": "ksuriuri", "score": 71428.57142857143, "slug": "noiz-characteristic-voice", "source": "clawhub", "stars": 0, "tags": null, "updated_at": 1776749404832, "version": "1.0.0"}, {"category": "developer-tools", "created_at": 1773083415692, "description": "Fetch and compare mainstream coffee prices (latte, americano, etc.) from major chains like Starbucks, Luckin, and Cotti for a given Chinese city and output t...", "description_zh": "", "downloads": 170, "homepage": "https://clawhub.ai/realank/coffee-prices", "iconUrl": null, "installs": 11, "name": "Coffee Prices by City", "ownerName": "realank", "score": 71428.57142857143, "slug": "coffee-prices", "source": "clawhub", "stars": 0, "tags": null, "updated_at": 1776749404832, "version": "1.0.0"}, {"category": "productivity", "created_at": 1773067986622, "description": "Administer and score the Open Extended Jungian Type Scales (OEJTS 1.2), map results to MBTI-style interaction preferences, and propose/apply personality-awar...", "description_zh": "", "downloads": 170, "homepage": "https://clawhub.ai/salvagedeck/oejts-personality-tuner", "iconUrl": null, "installs": 8, "name": "Oejts Personality Tuner", "ownerName": "salvagedeck", "score": 73593.07359307358, "slug": "oejts-personality-tuner", "source": "clawhub", "stars": 0, "tags": null, "updated_at": 1776749404827, "version": "1.0.0"}, {"category": "productivity", "created_at": 1773069160741, "description": "Get instant alerts for breaking news and emergency updates. Each call charges 0.001 USDT via SkillPay.", "description_zh": "", "downloads": 170, "homepage": "https://clawhub.ai/mosonchan2023/news-breakers-alert", "iconUrl": null, "installs": 5, "name": "News Breakers Alert", "ownerName": "mosonchan2023", "score": 73593.07359307358, "slug": "news-breakers-alert", "source": "clawhub", "stars": 0, "tags": null, "updated_at": 1776749404825, "version": "1.0.1"}, {"category": "data-analysis", "created_at": 1773425475677, "description": "Trade leveraged perpetual futures on Overlay Protocol (BSC). Scan markets, analyze prices with technical indicators, check wallet balance, encode build/unwin...", "description_zh": "", "downloads": 170, "homepage": "https://clawhub.ai/arthurka-o/overlay-market", "iconUrl": null, "installs": 16, "name": "Overlay Market (perpetual futures trading)", "ownerName": "arthurka-o", "score": 73593.07359307358, "slug": "overlay-market", "source": "clawhub", "stars": 0, "tags": null, "updated_at": 1776749404813, "version": "0.1.6"}, {"category": "data-analysis", "created_at": 1773433829797, "description": "Assesses market, credit, and operational risks; evaluates financial, reputational, and operational impacts; and provides targeted risk management recommendat...", "description_zh": "", "downloads": 169, "homepage": "https://clawhub.ai/wen-si/risk-skill", "iconUrl": null, "installs": 13, "name": "risk-skill", "ownerName": "wen-si", "score": 2910.378811210348, "slug": "risk-skill", "source": "clawhub", "stars": 1, "tags": null, "updated_at": 1776765850398, "version": "1.0.1"}, {"category": "developer-tools", "created_at": 1773208643355, "description": "URL or long-form text to social carousel generator via local CLI + MCP endpoint.", "description_zh": "", "downloads": 169, "homepage": "https://clawhub.ai/suinia/clawvisual", "iconUrl": null, "installs": 6, "name": "Clawvisual", "ownerName": "suinia", "score": 100000, "slug": "clawvisual", "source": "clawhub", "stars": 1, "tags": null, "updated_at": 1776749444515, "version": "1.0.2"}, {"category": "content-creation", "created_at": 1773417520795, "description": "Build and format email newsletters from agent-curated content. Sections, formatting, subscriber-friendly HTML output. Works with any email service.", "description_zh": "", "downloads": 169, "homepage": "https://clawhub.ai/theshadowrose/newsletter-kit", "iconUrl": null, "installs": 30, "name": "NewsletterKit Email Newsletter Builder", "ownerName": "theshadowrose", "score": 5750.255188839742, "slug": "newsletter-kit", "source": "clawhub", "stars": 0, "tags": ["content", "email", "newsletter", "newsletter-kit", "publishing", "writing"], "updated_at": 1776769199124, "version": "1.0.0"}, {"category": "", "created_at": 1774877980990, "description": "Tailwind reference tool. Use when working with tailwind in frontend contexts.", "description_zh": "", "downloads": 169, "homepage": "https://clawhub.ai/xueyetianya/tailwind", "iconUrl": null, "installs": 12, "name": "Tailwind", "ownerName": "xueyetianya", "score": 3101.4865112864745, "slug": "tailwind", "source": "clawhub", "stars": 0, "tags": null, "updated_at": 1776769150131, "version": "1.0.0"}, {"category": "developer-tools", "created_at": 1773084595701, "description": "AI-powered code review assistant that analyzes code for bugs, security issues, performance problems, and style violations. Supports multiple programming lang...", "description_zh": "", "downloads": 169, "homepage": "https://clawhub.ai/zhuyu28/code-review-assistant-zhuyu28", "iconUrl": null, "installs": 11, "name": "Code Review Assistant Zhuyu28", "ownerName": "zhuyu28", "score": 1356.0138008505176, "slug": "code-review-assistant-zhuyu28", "source": "clawhub", "stars": 0, "tags": null, "updated_at": 1776766150134, "version": "1.0.0"}, {"category": "communication-collaboration", "created_at": 1773284470975, "description": "Filter raw target lists into prioritized prospects worth pursuing. Score fit, timing, value, and access. Route each target to pursue, research, watch, or drop.", "description_zh": "", "downloads": 169, "homepage": "https://clawhub.ai/depinhq/prospect", "iconUrl": null, "installs": 4, "name": "Prospect", "ownerName": "depinhq", "score": 6046.511627906977, "slug": "prospect", "source": "clawhub", "stars": 0, "tags": ["business-development", "outreach", "prospect", "qualification", "targeting"], "updated_at": 1776765849907, "version": "2.0.1"}, {"category": "developer-tools", "created_at": 1773090035124, "description": "Plan Walmart grocery and household orders with pickup timing, substitutions, repeat restocks, and budget-aware cart decisions.", "description_zh": "", "downloads": 169, "homepage": "https://clawhub.ai/ivangdavila/walmart", "iconUrl": null, "installs": 12, "name": "Walmart", "ownerName": "ivangdavila", "score": 9169.831795984808, "slug": "walmart", "source": "clawhub", "stars": 0, "tags": null, "updated_at": 1776765250570, "version": "1.0.1"}, {"category": "developer-tools", "created_at": 1773929102213, "description": "Helps users discover and install agent skills when they ask questions like \"how do I do X\", \"find a skill for X\", \"is there a skill that can...\", or express...", "description_zh": "", "downloads": 169, "homepage": "https://clawhub.ai/zhichengsong/find-skills-tmp", "iconUrl": null, "installs": 62, "name": "Find Skills.Tmp", "ownerName": "zhichengsong", "score": 9553.420011305823, "slug": "find-skills-tmp", "source": "clawhub", "stars": 0, "tags": null, "updated_at": 1776765060282, "version": "1.0.0"}, {"category": "security-compliance", "created_at": 1773416067679, "description": "Let your agent shop on Amazon with guardrailed wallets and owner approval.", "description_zh": "", "downloads": 169, "homepage": "https://clawhub.ai/codejika/bet", "iconUrl": null, "installs": 14, "name": "Make Bets | With your creditCard", "ownerName": "codejika", "score": 1031.1165344722392, "slug": "bet", "source": "clawhub", "stars": 0, "tags": null, "updated_at": 1776763449756, "version": "1.0.0"}, {"category": "communication-collaboration", "created_at": 1773068004444, "description": "Local PII protection for OpenClaw agents. Scrubs customer data (names, phones, emails, addresses, credit cards, vessel names) before it reaches any AI model....", "description_zh": "", "downloads": 169, "homepage": "https://clawhub.ai/sebclawops/presidio-pii-skill", "iconUrl": null, "installs": 6, "name": "Presidio Pii Scrubber for sensitive info", "ownerName": "sebclawops", "score": 5254.975124378109, "slug": "presidio-pii-skill", "source": "clawhub", "stars": 0, "tags": null, "updated_at": 1776761989987, "version": "0.1.1"}, {"category": "security-compliance", "created_at": 1773285065518, "description": "🔒 Pre-installation security verification for external code and dependencies. Automated risk analysis for GitHub repos, npm packages, PyPI libraries, and she...", "description_zh": "", "downloads": 169, "homepage": "https://clawhub.ai/gawezepobi09-debug/pre-install-security-check", "iconUrl": null, "installs": 16, "name": "Security Check", "ownerName": "gawezepobi09-debug", "score": 4966.20628856891, "slug": "pre-install-security-check", "source": "clawhub", "stars": 0, "tags": ["audit", "cve", "dependencies", "github", "npm", "pypi", "safety", "security", "snyk", "vulnerability"], "updated_at": 1776761239978, "version": "1.0.1"}, {"category": "ai-intelligence", "created_at": 1773940324930, "description": "Web search using Tavily's LLM-optimized API. Returns relevant results with content snippets, scores, and metadata.", "description_zh": "", "downloads": 169, "homepage": "https://clawhub.ai/ohmaxy/my-liang-tavily-search", "iconUrl": null, "installs": 54, "name": "My Liang Tavily Search", "ownerName": "ohmaxy", "score": 12950.191570881225, "slug": "my-liang-tavily-search", "source": "clawhub", "stars": 0, "tags": null, "updated_at": 1776759683333, "version": "1.0.0"}, {"category": "productivity", "created_at": 1773434903692, "description": "Tailor resumes and project bullets to a target role, quantify gaps, and prepare an interview-ready evidence map.", "description_zh": "", "downloads": 169, "homepage": "https://clawhub.ai/52yuanchangxing/resume-job-match-lab", "iconUrl": null, "installs": 33, "name": "resume-job-match-lab", "ownerName": "52yuanchangxing", "score": 13080.495356037152, "slug": "resume-job-match-lab", "source": "clawhub", "stars": 0, "tags": null, "updated_at": 1776759683236, "version": "1.0.0"}, {"category": "ai-intelligence", "created_at": 1773091818628, "description": "Connect and manage your openclaw agent in clawpk.ai trading competitions, including registration, rankings, and leaderboard retrieval.", "description_zh": "", "downloads": 169, "homepage": "https://clawhub.ai/jarviyin/clawpk", "iconUrl": null, "installs": 8, "name": "ClawPK", "ownerName": "jarviyin", "score": 12930.374904361133, "slug": "clawpk", "source": "clawhub", "stars": 0, "tags": ["ai-agent", "competition", "trading"], "updated_at": 1776759683193, "version": "1.0.0"}, {"category": "developer-tools", "created_at": 1773285301506, "description": "Re-theme your OpenClaw dashboard with 104 curated design seeds from SeedFlip. Fonts, colors, shadows, radii. One command, instant transformation.", "description_zh": "", "downloads": 169, "homepage": "https://clawhub.ai/bockenstette1/seedflip-theme", "iconUrl": null, "installs": 13, "name": "SeedFlip Dashboard Theme", "ownerName": "bockenstette1", "score": 92349.72677595628, "slug": "seedflip-theme", "source": "clawhub", "stars": 0, "tags": null, "updated_at": 1776759682913, "version": "1.0.0"}, {"category": "developer-tools", "created_at": 1773220530914, "description": "Manage Linux applications by searching, installing, uninstalling, and updating software via Spark Store (Debian-based) or APM (all distros).", "description_zh": "", "downloads": 169, "homepage": "https://clawhub.ai/vmomenv/spark-store-skill", "iconUrl": null, "installs": 8, "name": "Spark Store Skill", "ownerName": "vmomenv", "score": 92349.72677595628, "slug": "spark-store-skill", "source": "clawhub", "stars": 0, "tags": null, "updated_at": 1776759682911, "version": "0.1.0"}, {"category": "content-creation", "created_at": 1773090916664, "description": "Transforms supplier or CJ source videos into 1080×1920 TikTok/Instagram Reels ads with clean zone detection, Pillow text overlays, CTA card, and trending audio.", "description_zh": "", "downloads": 169, "homepage": "https://clawhub.ai/zero2ai-hub/skill-supplier-video-ad", "iconUrl": null, "installs": 11, "name": "Supplier Video Ad Builder", "ownerName": "zero2ai-hub", "score": 12980.030721966206, "slug": "skill-supplier-video-ad", "source": "clawhub", "stars": 0, "tags": null, "updated_at": 1776759682641, "version": "1.0.0"}, {"category": "data-analysis", "created_at": 1773416049464, "description": "Build and test systematic daily-to-weekly trading algorithms through hypothesis, signal validation, backtesting, and strategy development steps.", "description_zh": "", "downloads": 169, "homepage": "https://clawhub.ai/tonbistudio/algo-builder", "iconUrl": null, "installs": 13, "name": "Algo Builder", "ownerName": "tonbistudio", "score": 13050.193050193051, "slug": "algo-builder", "source": "clawhub", "stars": 0, "tags": null, "updated_at": 1776759682319, "version": "1.0.0"}, {"category": "data-analysis", "created_at": 1773284860976, "description": "Real-time streaming Polymarket prediction trades on Polygon (matic) with live USD pricing. Subscribe to a live stream of Polymarket prediction market trades...", "description_zh": "", "downloads": 169, "homepage": "https://clawhub.ai/divyn/polymarket-real-time-trades", "iconUrl": null, "installs": 20, "name": "Polymarket Real Time Trades Stream", "ownerName": "divyn", "score": 11357.52688172043, "slug": "polymarket-real-time-trades", "source": "clawhub", "stars": 0, "tags": null, "updated_at": 1776757920686, "version": "1.0.5"}, {"category": "content-creation", "created_at": 1773946750829, "description": "AI video, image generation. 40+ models — Sora, Veo 3, Kling, Seedance, GPT Image, Hailuo, WAN. Text-to-video, image-to-video, text-to-image,image-to-image.", "description_zh": "", "downloads": 169, "homepage": "https://clawhub.ai/tate-kt/pixwith-ai-video-generation", "iconUrl": null, "installs": 62, "name": "Ai Video Generation Skills", "ownerName": "tate-kt", "score": 8556.962025316456, "slug": "pixwith-ai-video-generation", "source": "clawhub", "stars": 0, "tags": null, "updated_at": 1776753883845, "version": "1.0.1"}, {"category": "security-compliance", "created_at": 1773433781910, "description": "Generate comprehensive web application vulnerability assessments with OWASP-aligned checklists, remediation guides, and testing scripts. Use when assessing w...", "description_zh": "", "downloads": 169, "homepage": "https://clawhub.ai/krishnakumarmahadevan-cmd/web-vulnerability-assessment", "iconUrl": null, "installs": 8, "name": "Web Vulnerability Assessment", "ownerName": "krishnakumarmahadevan-cmd", "score": 7692.307692307692, "slug": "web-vulnerability-assessment", "source": "clawhub", "stars": 0, "tags": null, "updated_at": 1776752569817, "version": "1.0.2"}, {"category": "productivity", "created_at": 1773089762961, "description": "Post to Reddit using AppleScript Chrome control. Use when user wants to post to Reddit, share on subreddits, or promote open source projects on Reddit. Trigg...", "description_zh": "", "downloads": 169, "homepage": "https://clawhub.ai/phy041/phy-reddit-post", "iconUrl": null, "installs": 3, "name": "Reddit Post", "ownerName": "phy041", "score": 29964.5390070922, "slug": "phy-reddit-post", "source": "clawhub", "stars": 0, "tags": ["applescript", "posting", "reddit"], "updated_at": 1776752269786, "version": "1.0.0"}, {"category": "productivity", "created_at": 1773090188333, "description": "Automated KOL/influencer research across platforms. Use when user needs influencer lists for any niche (ADHD, travel, beauty, DTC, tech, etc.) in any region....", "description_zh": "", "downloads": 169, "homepage": "https://clawhub.ai/phy041/phy-influencer-research", "iconUrl": null, "installs": 11, "name": "Influencer Research", "ownerName": "phy041", "score": 29340.277777777777, "slug": "phy-influencer-research", "source": "clawhub", "stars": 0, "tags": ["influencers", "kol"], "updated_at": 1776752084158, "version": "1.0.0"}, {"category": "security-compliance", "created_at": 1773080166227, "description": "Authoritative OpenClaw guidance and documentation lookup. Provides accurate information about OpenClaw capabilities, configuration, and usage based on offici...", "description_zh": "", "downloads": 169, "homepage": "https://clawhub.ai/linux2010/openclaw-guide", "iconUrl": null, "installs": 5, "name": "OpenClaw Guide", "ownerName": "linux2010", "score": 99411.76470588235, "slug": "openclaw-guide", "source": "clawhub", "stars": 0, "tags": ["documentation", "guidance", "official"], "updated_at": 1776749444922, "version": "1.0.0"}, {"category": "content-creation", "created_at": 1773220028250, "description": "Fetches the latest news using news-aggregator-skill, formats it into a podcast script in Markdown format, and uses the tts skill to generate a podcast audio...", "description_zh": "", "downloads": 169, "homepage": "https://clawhub.ai/ksuriuri/noizai-daily-news-caster", "iconUrl": null, "installs": 8, "name": "daily-news-caster", "ownerName": "ksuriuri", "score": 99411.76470588235, "slug": "noizai-daily-news-caster", "source": "clawhub", "stars": 0, "tags": null, "updated_at": 1776749444919, "version": "1.0.3"}, {"category": "data-analysis", "created_at": 1773218637691, "description": "Query scientific findings, experiments, and papers from the Axiom distributed volunteer computing network (113+ hosts, 129 GPUs, 42K+ results).", "description_zh": "", "downloads": 169, "homepage": "https://clawhub.ai/pyhelix/axiom-distributed-science", "iconUrl": null, "installs": 14, "name": "Axiom Distributed Science", "ownerName": "pyhelix", "score": 81250, "slug": "axiom-distributed-science", "source": "clawhub", "stars": 0, "tags": null, "updated_at": 1776749444857, "version": "1.1.0"}, {"category": "content-creation", "created_at": 1773287846427, "description": "This skill should be used when the user asks to analyze a TikTok video, break down a viral TikTok, understand why a TikTok script works, view the original sc...", "description_zh": "", "downloads": 169, "homepage": "https://clawhub.ai/newt0n/creatok-analyze-video", "iconUrl": null, "installs": 23, "name": "Creatok Analyze TikTok Video", "ownerName": "newt0n", "score": 81250, "slug": "creatok-analyze-video", "source": "clawhub", "stars": 0, "tags": null, "updated_at": 1776749444855, "version": "0.1.2"}, {"category": "developer-tools", "created_at": 1773069841707, "description": "Convert CUDA code to MUSA (Moore Threads GPU) using the musify tool. Use when migrating CUDA codebases to MUSA platform, converting CUDA kernels/APIs to MUSA...", "description_zh": "", "downloads": 169, "homepage": "https://clawhub.ai/dongyang-mt/musify", "iconUrl": null, "installs": 4, "name": "Musify MooreThreads", "ownerName": "dongyang-mt", "score": 81250, "slug": "musify", "source": "clawhub", "stars": 0, "tags": null, "updated_at": 1776749444839, "version": "0.1.0"}, {"category": "developer-tools", "created_at": 1773068338699, "description": "Discover, browse, filter, and pay for x402-compatible API endpoints and MCP tools from the x402 Bazaar — the autonomous discovery layer for agentic payments....", "description_zh": "", "downloads": 169, "homepage": "https://clawhub.ai/coinvest518/openclaw-x402-skill", "iconUrl": null, "installs": 5, "name": "Openclaw X402 Skill", "ownerName": "coinvest518", "score": 81250, "slug": "openclaw-x402-skill", "source": "clawhub", "stars": 0, "tags": null, "updated_at": 1776749444835, "version": "0.1.0"}, {"category": "security-compliance", "created_at": 1773068209613, "description": "Audit Microsoft Entra ID for over-privileged roles, dangerous access patterns, and identity security gaps", "description_zh": "", "downloads": 169, "homepage": "https://clawhub.ai/anmolnagpal/entra-id-auditor", "iconUrl": null, "installs": 4, "name": "Entra Id Auditor", "ownerName": "anmolnagpal", "score": 81250, "slug": "entra-id-auditor", "source": "clawhub", "stars": 0, "tags": null, "updated_at": 1776749444828, "version": "1.0.0"}, {"category": "security-compliance", "created_at": 1773289656420, "description": "Vet ClawHub skills for security and utility before installation. Use when considering installing a ClawHub skill, evaluating third-party code, or assessing w...", "description_zh": "", "downloads": 169, "homepage": "https://clawhub.ai/eathon/eason-skill-vetting", "iconUrl": null, "installs": 9, "name": "Eason Skill Vetting", "ownerName": "eathon", "score": 81250, "slug": "eason-skill-vetting", "source": "clawhub", "stars": 0, "tags": null, "updated_at": 1776749444803, "version": "1.0.0"}, {"category": "ai-intelligence", "created_at": 1773090878632, "description": "Query Multisage for multi-expert AI answers from Claude, GPT, and Gemini. Use this skill whenever the user wants multiple AI perspectives on a question, says...", "description_zh": "", "downloads": 169, "homepage": "https://clawhub.ai/waleedkadous/multisage", "iconUrl": null, "installs": 12, "name": "Multisage", "ownerName": "waleedkadous", "score": 90860.21505376344, "slug": "multisage", "source": "clawhub", "stars": 0, "tags": ["ai", "consultation", "multi-model", "research"], "updated_at": 1776749444786, "version": "2.2.0"}, {"category": "security-compliance", "created_at": 1773089173530, "description": "Trust-based budget system for multi-agent teams — daily token limits with automatic midnight resets, yellow/red/demotion thresholds, audit logging, and mesh...", "description_zh": "", "downloads": 169, "homepage": "https://clawhub.ai/nissan/agent-budget-governance", "iconUrl": null, "installs": 10, "name": "Agent Budget Governance", "ownerName": "nissan", "score": 90860.21505376344, "slug": "agent-budget-governance", "source": "clawhub", "stars": 0, "tags": null, "updated_at": 1776749444782, "version": "1.0.0"}, {"category": "ai-intelligence", "created_at": 1773083347023, "description": "[Aibrary] Create a structured personal growth plan with book recommendations, milestones, and actionable weekly tasks. Use when the user wants to create a le...", "description_zh": "", "downloads": 169, "homepage": "https://clawhub.ai/asoiso/aibrary-growth-plan", "iconUrl": null, "installs": 14, "name": "Aibrary Growth Plan", "ownerName": "asoiso", "score": 89893.6170212766, "slug": "aibrary-growth-plan", "source": "clawhub", "stars": 0, "tags": null, "updated_at": 1776749444743, "version": "0.1.0"}, {"category": "content-creation", "created_at": 1773416650716, "description": "Generate images via VAPI's OpenAI-compatible Images API. Supports nano-banana and gpt-image model series. Default model is nano-banana-pro. Images are NOT sa...", "description_zh": "", "downloads": 169, "homepage": "https://clawhub.ai/popdo/vapi-image-gen", "iconUrl": null, "installs": 16, "name": "nano-banana、gpt-image", "ownerName": "popdo", "score": 89893.6170212766, "slug": "vapi-image-gen", "source": "clawhub", "stars": 0, "tags": null, "updated_at": 1776749444690, "version": "1.0.1"}, {"category": "data-analysis", "created_at": 1773091250416, "description": "Search 24+ airline loyalty programs for award space with miles cost, seat availability, and jetlag scores", "description_zh": "", "downloads": 169, "homepage": "https://clawhub.ai/kurosh87/aerobase-awards", "iconUrl": null, "installs": 10, "name": "Aerobase Awards", "ownerName": "kurosh87", "score": 89893.6170212766, "slug": "aerobase-awards", "source": "clawhub", "stars": 0, "tags": null, "updated_at": 1776749444676, "version": "1.0.0"}, {"category": "developer-tools", "created_at": 1773088729828, "description": "Safely inject API keys from 1Password into macOS LaunchAgent plists using PlistBuddy. Use when running OpenClaw on macOS and storing secrets in 1Password — a...", "description_zh": "", "downloads": 169, "homepage": "https://clawhub.ai/nissan/gateway-env-injector", "iconUrl": null, "installs": 6, "name": "Gateway Env Injector", "ownerName": "nissan", "score": 89893.6170212766, "slug": "gateway-env-injector", "source": "clawhub", "stars": 0, "tags": null, "updated_at": 1776749444624, "version": "1.0.0"}, {"category": "data-analysis", "created_at": 1773083358185, "description": "Build cross-channel attribution analysis and decision guidance for Meta (Facebook/Instagram), Google Ads, TikTok Ads, YouTube Ads, Amazon Ads, Shopify Ads, a...", "description_zh": "", "downloads": 169, "homepage": "https://clawhub.ai/danyangliu-sandwichlab/attribution-ads-helper", "iconUrl": null, "installs": 14, "name": "Attribution Helper", "ownerName": "danyangliu-sandwichlab", "score": 89893.6170212766, "slug": "attribution-ads-helper", "source": "clawhub", "stars": 0, "tags": null, "updated_at": 1776749444610, "version": "1.0.0"}, {"category": "ai-intelligence", "created_at": 1773091160582, "description": "Browser-based flight search and airline check-in automation", "description_zh": "", "downloads": 169, "homepage": "https://clawhub.ai/kurosh87/aerobase-browser", "iconUrl": null, "installs": 11, "name": "Aerobase Browser", "ownerName": "kurosh87", "score": 89893.6170212766, "slug": "aerobase-browser", "source": "clawhub", "stars": 0, "tags": null, "updated_at": 1776749444606, "version": "1.0.0"}, {"category": "", "created_at": 1774856150993, "description": "Edit PDFs with natural-language instructions using the nano-pdf CLI.", "description_zh": "", "downloads": 169, "homepage": "https://clawhub.ai/v585/nano-pdf-cn", "iconUrl": null, "installs": 69, "name": "Nano Pdf Cn", "ownerName": "v585", "score": 89417.98941798942, "slug": "nano-pdf-cn", "source": "clawhub", "stars": 0, "tags": null, "updated_at": 1776749444565, "version": "1.0.0"}, {"category": "productivity", "created_at": 1773091510667, "description": "Automates KYC identity verification by securely managing and submitting identity documents. Always asks user permission before accessing or uploading any fil...", "description_zh": "", "downloads": 169, "homepage": "https://clawhub.ai/seamao/kyc-vault", "iconUrl": null, "installs": 5, "name": "KYC Vault", "ownerName": "seamao", "score": 82038.8349514563, "slug": "kyc-vault", "source": "clawhub", "stars": 0, "tags": null, "updated_at": 1776749444495, "version": "0.2.2"}, {"category": "ai-intelligence", "created_at": 1773416047880, "description": "AI Product Manager daily intelligence digest. Fetches news from 16+ curated RSS sources across tech media, AI labs, research papers, developer communities, a...", "description_zh": "", "downloads": 169, "homepage": "https://clawhub.ai/janettbella69/ai-deepnews", "iconUrl": null, "installs": 25, "name": "AI DeepNews", "ownerName": "janettbella69", "score": 82038.8349514563, "slug": "ai-deepnews", "source": "clawhub", "stars": 0, "tags": null, "updated_at": 1776749444482, "version": "1.0.0"}, {"category": "ai-intelligence", "created_at": 1773222525743, "description": "Agent Workflow Designer", "description_zh": "", "downloads": 169, "homepage": "https://clawhub.ai/alirezarezvani/agent-workflow-designer", "iconUrl": null, "installs": 15, "name": "agent-workflow-designer", "ownerName": "alirezarezvani", "score": 82038.8349514563, "slug": "agent-workflow-designer", "source": "clawhub", "stars": 0, "tags": null, "updated_at": 1776749444466, "version": "2.1.1"}]}