{"page": 330, "total_pages": 522, "total": 26073, "skills": [{"category": "content-creation", "created_at": 1773287541986, "description": "CLI for VibeSKU — an AI-powered creative automation platform that turns product SKU photos into professional e-commerce visuals and marketplace-ready copy at...", "description_zh": "", "downloads": 169, "homepage": "https://clawhub.ai/visoar/vibesku", "iconUrl": null, "installs": 17, "name": "Vibesku", "ownerName": "visoar", "score": 82038.8349514563, "slug": "vibesku", "source": "clawhub", "stars": 0, "tags": null, "updated_at": 1776749444425, "version": "0.2.4"}, {"category": "data-analysis", "created_at": 1773081731150, "description": "Analyze BigQuery query patterns and storage to dramatically reduce the", "description_zh": "", "downloads": 169, "homepage": "https://clawhub.ai/anmolnagpal/bigquery-optimizer", "iconUrl": null, "installs": 7, "name": "Bigquery Optimizer", "ownerName": "anmolnagpal", "score": 82038.8349514563, "slug": "bigquery-optimizer", "source": "clawhub", "stars": 0, "tags": null, "updated_at": 1776749444419, "version": "1.0.0"}, {"category": "data-analysis", "created_at": 1773077839424, "description": "Painpoint discovery expert. Helps users discover, analyze, and evaluate startup painpoints in specific domains. Use when user says \"find painpoints in X\", \"a...", "description_zh": "", "downloads": 169, "homepage": "https://clawhub.ai/lyuxing/painpoint-discovery", "iconUrl": null, "installs": 9, "name": "Painpoint Discovery Expert", "ownerName": "lyuxing", "score": 82038.8349514563, "slug": "painpoint-discovery", "source": "clawhub", "stars": 0, "tags": null, "updated_at": 1776749444408, "version": "1.0.1"}, {"category": "ai-intelligence", "created_at": 1773089525708, "description": "Compact AI-to-AI communication protocol. Use when spawning sub-agents, sending inter-agent messages via sessions_send/sessions_spawn, or when instructed to s...", "description_zh": "", "downloads": 169, "homepage": "https://clawhub.ai/andreanjos/openlang", "iconUrl": null, "installs": 8, "name": "OpenLang", "ownerName": "andreanjos", "score": 82038.8349514563, "slug": "openlang", "source": "clawhub", "stars": 0, "tags": null, "updated_at": 1776749444392, "version": "0.2.0"}, {"category": "productivity", "created_at": 1773068607301, "description": "Detects unhealthy coupling between components — when two modules, services, or layers have become gravitationally locked, unable to change independently. Lik...", "description_zh": "", "downloads": 169, "homepage": "https://clawhub.ai/jcools1977/tidal-lock", "iconUrl": null, "installs": 5, "name": "Tidal Lock", "ownerName": "jcools1977", "score": 82038.8349514563, "slug": "tidal-lock", "source": "clawhub", "stars": 0, "tags": null, "updated_at": 1776749444369, "version": "1.0.0"}, {"category": "data-analysis", "created_at": 1773078332833, "description": "Manage PagerDuty incidents, on-call schedules, services, and maintenance windows directly from your agent.", "description_zh": "", "downloads": 168, "homepage": "https://clawhub.ai/clawdbotworker/pagerduty-agent", "iconUrl": null, "installs": 7, "name": "PagerDuty Agent", "ownerName": "clawdbotworker", "score": 100000, "slug": "pagerduty-agent", "source": "clawhub", "stars": 1, "tags": ["alerting", "devops", "incidents", "observability", "oncall", "pagerduty"], "updated_at": 1776749444733, "version": "1.0.0"}, {"category": "communication-collaboration", "created_at": 1773079729962, "description": "Crypto trading: swap, perps, transfer, pay, deposit (credit card / crypto), withdraw, AI chat, market discovery, x402 payment, autopilot. Built-in wallet via...", "description_zh": "", "downloads": 168, "homepage": "https://clawhub.ai/larisgtu/minara-skill-v2", "iconUrl": null, "installs": 7, "name": "Minara Skill V2", "ownerName": "larisgtu", "score": 100000, "slug": "minara-skill-v2", "source": "clawhub", "stars": 1, "tags": ["ai", "defi", "minara", "trading"], "updated_at": 1776749444635, "version": "1.0.0"}, {"category": "developer-tools", "created_at": 1773220359693, "description": "Run GitHub Copilot CLI from OpenClaw for coding tasks in a target project directory. Use when the user asks OpenClaw to use Copilot for implementation, debug...", "description_zh": "", "downloads": 168, "homepage": "https://clawhub.ai/cecwxf/copilot-cli-skill", "iconUrl": null, "installs": 13, "name": "Copilot Cli Skill", "ownerName": "cecwxf", "score": 99470.89947089947, "slug": "copilot-cli-skill", "source": "clawhub", "stars": 1, "tags": null, "updated_at": 1776749444519, "version": "1.0.0"}, {"category": "developer-tools", "created_at": 1773090190267, "description": "Local search/indexing CLI (BM25 + vectors + rerank) with MCP mode.", "description_zh": "", "downloads": 168, "homepage": "https://clawhub.ai/sonnenberglauramarie-afk/qmd-quality-markdown", "iconUrl": null, "installs": 16, "name": "QMD — Quality Markdown Formatter", "ownerName": "sonnenberglauramarie-afk", "score": 4664.075513603553, "slug": "qmd-quality-markdown", "source": "clawhub", "stars": 0, "tags": ["formatting", "markdown", "quality"], "updated_at": 1776768850236, "version": "1.0.0"}, {"category": "content-creation", "created_at": 1773912822930, "description": "Standardized WeChat official account writing workflow integrating wechat-publisher, wechat-toolkit, wechat-mp-writer-skill and other skills. Provides complet...", "description_zh": "", "downloads": 168, "homepage": "https://clawhub.ai/earthwalking/wechat-writing-workflow", "iconUrl": null, "installs": 42, "name": "WeChat Writing Workflow", "ownerName": "earthwalking", "score": 3012.372243141474, "slug": "wechat-writing-workflow", "source": "clawhub", "stars": 0, "tags": null, "updated_at": 1776766450390, "version": "1.0.1"}, {"category": "productivity", "created_at": 1773416439316, "description": "Let your agent shop on Amazon with guardrailed wallets and owner approval.", "description_zh": "", "downloads": 168, "homepage": "https://clawhub.ai/jononovo/block", "iconUrl": null, "installs": 16, "name": "Block for OpenClaw - Spend anywhere or request payment from anyone.", "ownerName": "jononovo", "score": 3318.8463058079815, "slug": "block", "source": "clawhub", "stars": 0, "tags": ["block", "pay", "payment", "payments", "square"], "updated_at": 1776763450787, "version": "1.0.7"}, {"category": "developer-tools", "created_at": 1773860190729, "description": "Podman Desktop is the best free and open source tool to work with Containers and Kubernetes for deve podman desktop, typescript, container, containers, deskt...", "description_zh": "", "downloads": 168, "homepage": "https://clawhub.ai/bytesagain3/container-desktop", "iconUrl": null, "installs": 7, "name": "Container Desktop", "ownerName": "bytesagain3", "score": 3436.988543371522, "slug": "container-desktop", "source": "clawhub", "stars": 0, "tags": null, "updated_at": 1776763450748, "version": "1.0.6"}, {"category": "ai-intelligence", "created_at": 1773417417669, "description": "Ads Execution Hub control skill for ad campaign management and optimization across Meta (Facebook/Instagram), Google Ads, TikTok Ads, YouTube Ads, Amazon Ads...", "description_zh": "", "downloads": 168, "homepage": "https://clawhub.ai/danyangliu-sandwichlab/ads-execution-hub", "iconUrl": null, "installs": 26, "name": "Ads Execution Hub", "ownerName": "danyangliu-sandwichlab", "score": 3436.988543371522, "slug": "ads-execution-hub", "source": "clawhub", "stars": 0, "tags": null, "updated_at": 1776763450719, "version": "1.0.1"}, {"category": "security-compliance", "created_at": 1773871701126, "description": "List of open source tools for AWS security: defensive, offensive, auditing, DFIR, etc. my arsenal of aws security tools, shell, auditing, aws-infrastructure,...", "description_zh": "", "downloads": 168, "homepage": "https://clawhub.ai/bytesagain/aws-security", "iconUrl": null, "installs": 5, "name": "Aws Security", "ownerName": "bytesagain", "score": 5246.720799500313, "slug": "aws-security", "source": "clawhub", "stars": 0, "tags": null, "updated_at": 1776762015086, "version": "1.0.5"}, {"category": "productivity", "created_at": 1773947739721, "description": "Find the cheapest meaningful visible price for a user-provided product name across major Chinese shopping platforms such as Taobao, Tmall, JD.com, Pinduoduo,...", "description_zh": "", "downloads": 168, "homepage": "https://clawhub.ai/harrylabsj/cheap", "iconUrl": null, "installs": 64, "name": "Cheap", "ownerName": "harrylabsj", "score": 15189.87341772152, "slug": "cheap", "source": "clawhub", "stars": 0, "tags": null, "updated_at": 1776761745354, "version": "0.1.0"}, {"category": "developer-tools", "created_at": 1773430882268, "description": "Control Xiaomi/Mi Home devices via Home Assistant REST API for lights, switches, sensors, AC, fans, media players, and scenes using natural language.", "description_zh": "", "downloads": 168, "homepage": "https://clawhub.ai/huangqiulong/xiaomi-homne-ha", "iconUrl": null, "installs": 35, "name": "小米智能家居 (Xiao Mi Home for HA)", "ownerName": "huangqiulong", "score": 11200, "slug": "xiaomi-homne-ha", "source": "clawhub", "stars": 0, "tags": null, "updated_at": 1776759683529, "version": "1.0.0"}, {"category": "data-analysis", "created_at": 1773433274135, "description": "Automates strain identification by parsing sequencing files, performing NCBI BLAST alignment, generating DingTalk table data, and creating Word identificatio...", "description_zh": "", "downloads": 168, "homepage": "https://clawhub.ai/meta-men/strain-skill", "iconUrl": null, "installs": 48, "name": "strain identification", "ownerName": "meta-men", "score": 12612.612612612611, "slug": "strain-skill", "source": "clawhub", "stars": 0, "tags": null, "updated_at": 1776759683148, "version": "1.0.0"}, {"category": "productivity", "created_at": 1773091023583, "description": "Manage and run macOS Shortcuts from OpenClaw: list, execute, view details, and sign shortcuts for automation via CLI commands.", "description_zh": "", "downloads": 168, "homepage": "https://clawhub.ai/ppopen/openclaw-skill-shortcuts-automator", "iconUrl": null, "installs": 5, "name": "Shortcuts Automator", "ownerName": "ppopen", "score": 12993.039443155452, "slug": "openclaw-skill-shortcuts-automator", "source": "clawhub", "stars": 0, "tags": null, "updated_at": 1776759683071, "version": "1.0.0"}, {"category": "ai-intelligence", "created_at": 1773915962386, "description": "Send prompts to a local ComfyUI instance to generate images based on user descriptions.", "description_zh": "", "downloads": 168, "homepage": "https://clawhub.ai/edward-hsiao/comfyskill", "iconUrl": null, "installs": 29, "name": "Comfyskill", "ownerName": "edward-hsiao", "score": 12883.435582822087, "slug": "comfyskill", "source": "clawhub", "stars": 0, "tags": null, "updated_at": 1776759683008, "version": "1.0.3"}, {"category": "productivity", "created_at": 1773091610041, "description": "A relentless AI agent skill for destroying personal debt permanently. Maps every dollar you owe into a single battlefield view, builds a payoff strategy cali...", "description_zh": "", "downloads": 168, "homepage": "https://clawhub.ai/ethagent/debt", "iconUrl": null, "installs": 6, "name": "Debt", "ownerName": "ethagent", "score": 91803.27868852459, "slug": "debt", "source": "clawhub", "stars": 0, "tags": ["credit", "debt", "finance", "freedom", "payoff"], "updated_at": 1776759682919, "version": "1.0.0"}, {"category": "ai-intelligence", "created_at": 1773867473596, "description": "Unified agent collaboration platform with shared core, automatic GitHub issue handling, intelligent message routing, and modular extensibility for PM and Dev...", "description_zh": "", "downloads": 168, "homepage": "https://clawhub.ai/zhaog100/agent-collab-platform", "iconUrl": null, "installs": 13, "name": "Agent Collab Platform", "ownerName": "zhaog100", "score": 91304.34782608695, "slug": "agent-collab-platform", "source": "clawhub", "stars": 0, "tags": null, "updated_at": 1776759682715, "version": "1.0.1"}, {"category": "content-creation", "created_at": 1773090551722, "description": "Build, decorate, and evolve voxel plots on claw.condos using Neighborhood APIs. Use when an agent needs to register/login, modify blocks, run large blueprint...", "description_zh": "", "downloads": 168, "homepage": "https://clawhub.ai/shkurkin/neighborhood-os", "iconUrl": null, "installs": 7, "name": "claw.condos", "ownerName": "shkurkin", "score": 12903.225806451612, "slug": "neighborhood-os", "source": "clawhub", "stars": 0, "tags": null, "updated_at": 1776759682232, "version": "1.0.0"}, {"category": "content-creation", "created_at": 1773940455089, "description": "Execute RunningHub ComfyUI workflows via API. Use when you need to run ComfyUI workflows on RunningHub cloud platform, submit tasks, query status, and retrie...", "description_zh": "", "downloads": 168, "homepage": "https://clawhub.ai/uiueux/photo-retouching", "iconUrl": null, "installs": 27, "name": "Photo Retouching", "ownerName": "uiueux", "score": 28816.46655231561, "slug": "photo-retouching", "source": "clawhub", "stars": 0, "tags": ["image"], "updated_at": 1776754388885, "version": "1.0.0"}, {"category": "developer-tools", "created_at": 1773079202544, "description": "Measure and display AI model response latency. Use when the user types /ping or /ping followed by a model name to test round-trip time. Captures precise timi...", "description_zh": "", "downloads": 168, "homepage": "https://clawhub.ai/dofbi/ping-model", "iconUrl": null, "installs": 7, "name": "Ping Model", "ownerName": "dofbi", "score": 31401.869158878504, "slug": "ping-model", "source": "clawhub", "stars": 0, "tags": ["latency", "model", "ping", "timing"], "updated_at": 1776753046987, "version": "1.0.0"}, {"category": "developer-tools", "created_at": 1773089761334, "description": "Reddit account cultivation for indie developers. Uses AppleScript to control real Chrome — undetectable by anti-bot systems. Checks karma, finds rising posts...", "description_zh": "", "downloads": 168, "homepage": "https://clawhub.ai/phy041/phy-reddit-cultivate", "iconUrl": null, "installs": 9, "name": "Reddit Cultivate", "ownerName": "phy041", "score": 29787.23404255319, "slug": "phy-reddit-cultivate", "source": "clawhub", "stars": 0, "tags": ["applescript", "growth", "reddit"], "updated_at": 1776752172016, "version": "1.0.0"}, {"category": "developer-tools", "created_at": 1773857654622, "description": "Install, update, run, and verify the public ClawStatus dashboard from GitHub. Use when an agent needs to deploy ClawStatus locally or on a LAN host, refresh...", "description_zh": "", "downloads": 168, "homepage": "https://clawhub.ai/neverchenx/clawstatus-dashboard", "iconUrl": null, "installs": 12, "name": "Clawstatus Dashboard", "ownerName": "neverchenx", "score": 68571.42857142857, "slug": "clawstatus-dashboard", "source": "clawhub", "stars": 0, "tags": null, "updated_at": 1776749444976, "version": "2.4.0"}, {"category": "productivity", "created_at": 1773217832204, "description": "Ask the user for their Google saved places list, look up each place with goplaces, and recommend the single best one to visit today based on their preference...", "description_zh": "", "downloads": 168, "homepage": "https://clawhub.ai/wsq704252212/goplaces-togo", "iconUrl": null, "installs": 6, "name": "goplaces-togo", "ownerName": "wsq704252212", "score": 98823.52941176471, "slug": "goplaces-togo", "source": "clawhub", "stars": 0, "tags": null, "updated_at": 1776749444947, "version": "1.0.2"}, {"category": "developer-tools", "created_at": 1773284714053, "description": "Resize or Move Partitions for Low Space - Reclaim drive capacity when unallocated space is limited or non-adjacent.", "description_zh": "", "downloads": 168, "homepage": "https://clawhub.ai/hezhaoyun/resize-move-partition-coach", "iconUrl": null, "installs": 4, "name": "Resize Move Partition Coach", "ownerName": "hezhaoyun", "score": 98823.52941176471, "slug": "resize-move-partition-coach", "source": "clawhub", "stars": 0, "tags": null, "updated_at": 1776749444914, "version": "0.1.0"}, {"category": "content-creation", "created_at": 1773079237992, "description": "Write tests for Redux Sagas using redux-saga-test-plan, runSaga, and manual generator testing. Covers expectSaga (integration), testSaga (unit), providers, p...", "description_zh": "", "downloads": 168, "homepage": "https://clawhub.ai/anivar/redux-saga-testing", "iconUrl": null, "installs": 7, "name": "Redux Saga Testing", "ownerName": "anivar", "score": 98823.52941176471, "slug": "redux-saga-testing", "source": "clawhub", "stars": 0, "tags": null, "updated_at": 1776749444884, "version": "1.0.1"}, {"category": "content-creation", "created_at": 1773923528025, "description": "Use Scrapling to scrape websites with adaptive parsing, Cloudflare bypass, and MCP support. Handles dynamic content, anti-bot detection, and provides clean H...", "description_zh": "", "downloads": 168, "homepage": "https://clawhub.ai/nanpaidashi/scrapling-ai", "iconUrl": null, "installs": 45, "name": "Scrapling AI", "ownerName": "nanpaidashi", "score": 98823.52941176471, "slug": "scrapling-ai", "source": "clawhub", "stars": 0, "tags": null, "updated_at": 1776749444877, "version": "1.0.0"}, {"category": "security-compliance", "created_at": 1773084111429, "description": "Audit GitHub Actions job runtime risk against timeout thresholds so near-timeout jobs get fixed before they fail CI.", "description_zh": "", "downloads": 168, "homepage": "https://clawhub.ai/daniellummis/github-actions-timeout-risk-audit", "iconUrl": null, "installs": 13, "name": "GitHub Actions Timeout Risk Audit", "ownerName": "daniellummis", "score": 80769.23076923077, "slug": "github-actions-timeout-risk-audit", "source": "clawhub", "stars": 0, "tags": null, "updated_at": 1776749444861, "version": "1.0.0"}, {"category": "communication-collaboration", "created_at": 1773434419337, "description": "Transcribe meetings with SenseAudio ASR speaker diarization, timestamps, and meeting-note extraction workflows. Use when users need meeting transcription, me...", "description_zh": "", "downloads": 168, "homepage": "https://clawhub.ai/scikkk/meetingsummarizer", "iconUrl": null, "installs": 36, "name": "Meeting Summarizer", "ownerName": "scikkk", "score": 80769.23076923077, "slug": "meetingsummarizer", "source": "clawhub", "stars": 0, "tags": null, "updated_at": 1776749444832, "version": "1.0.2"}, {"category": "ai-intelligence", "created_at": 1773080081248, "description": "Monitor F5-TTS distributed training on the 9-GPU mining rig (Local-LLM) without interfering with the process.", "description_zh": "", "downloads": 168, "homepage": "https://clawhub.ai/pbseiya/f5tts-monitor", "iconUrl": null, "installs": 10, "name": "F5tts Monitor", "ownerName": "pbseiya", "score": 80769.23076923077, "slug": "f5tts-monitor", "source": "clawhub", "stars": 0, "tags": null, "updated_at": 1776749444821, "version": "1.0.0"}, {"category": "productivity", "created_at": 1773091366636, "description": "Microsoft Dynamics 365 Business Central integration. Manage Companies. Use when the user wants to interact with Microsoft Dynamics 365 Business Central data.", "description_zh": "", "downloads": 168, "homepage": "https://clawhub.ai/gora050/microsoft-dynamics-365-business-central", "iconUrl": null, "installs": 15, "name": "Microsoft Dynamics 365 Business Central", "ownerName": "gora050", "score": 89361.70212765958, "slug": "microsoft-dynamics-365-business-central", "source": "clawhub", "stars": 0, "tags": null, "updated_at": 1776749444745, "version": "1.0.0"}, {"category": "developer-tools", "created_at": 1773090974524, "description": "Main entry point for configuring and diagnosing all development tools in China's network environment. Detects installed tools (pip/uv/poetry, npm/yarn/pnpm,...", "description_zh": "", "downloads": 168, "homepage": "https://clawhub.ai/loredunk/china-mirror-skills", "iconUrl": null, "installs": 11, "name": "china-mirror-skills", "ownerName": "loredunk", "score": 89361.70212765958, "slug": "china-mirror-skills", "source": "clawhub", "stars": 0, "tags": null, "updated_at": 1776749444695, "version": "1.0.0"}, {"category": "productivity", "created_at": 1773220897148, "description": "Lexoffice integration. Manage Organizations, Leads, Pipelines, Users, Goals, Filters. Use when the user wants to interact with Lexoffice data.", "description_zh": "", "downloads": 168, "homepage": "https://clawhub.ai/membranedev/lexoffice", "iconUrl": null, "installs": 26, "name": "Lexoffice", "ownerName": "membranedev", "score": 89361.70212765958, "slug": "lexoffice", "source": "clawhub", "stars": 0, "tags": null, "updated_at": 1776749444673, "version": "1.0.0"}, {"category": "developer-tools", "created_at": 1773082723185, "description": "For developers who want to become SRS contributors or maintainers — learn SRS or any of its modules (ST, protocols, media) in depth, understand detailed code...", "description_zh": "", "downloads": 168, "homepage": "https://clawhub.ai/winlinvip/srs-learn", "iconUrl": null, "installs": 7, "name": "SRS Learn", "ownerName": "winlinvip", "score": 89361.70212765958, "slug": "srs-learn", "source": "clawhub", "stars": 0, "tags": null, "updated_at": 1776749444669, "version": "1.0.1"}, {"category": "developer-tools", "created_at": 1773084019161, "description": "Run any Apify Actor to scrape web data (Instagram, TikTok, Reddit, Twitter, etc). Handles Actor discovery, quality filtering, probe testing, batched executio...", "description_zh": "", "downloads": 168, "homepage": "https://clawhub.ai/duxj4520/apify-runner", "iconUrl": null, "installs": 7, "name": "Apify Runner", "ownerName": "duxj4520", "score": 88888.88888888889, "slug": "apify-runner", "source": "clawhub", "stars": 0, "tags": null, "updated_at": 1776749444596, "version": "1.0.0"}, {"category": "data-analysis", "created_at": 1773416498887, "description": "Extract summaries, answers, or structured data from any URL, PDF, or raw text. Auto-detects mode from task.", "description_zh": "", "downloads": 168, "homepage": "https://clawhub.ai/unixlamadev-spec/doc-miner", "iconUrl": null, "installs": 9, "name": "Doc Miner", "ownerName": "unixlamadev-spec", "score": 88888.88888888889, "slug": "doc-miner", "source": "clawhub", "stars": 0, "tags": null, "updated_at": 1776749444591, "version": "1.1.0"}, {"category": "productivity", "created_at": 1773077872115, "description": "Sage Accounting integration. Manage accounting data, records, and workflows. Use when the user wants to interact with Sage Accounting data.", "description_zh": "", "downloads": 168, "homepage": "https://clawhub.ai/gora050/sage-accounting", "iconUrl": null, "installs": 8, "name": "Sage Accounting", "ownerName": "gora050", "score": 88888.88888888889, "slug": "sage-accounting", "source": "clawhub", "stars": 0, "tags": null, "updated_at": 1776749444584, "version": "1.0.0"}, {"category": "content-creation", "created_at": 1773206561767, "description": "QR-based skill installer for ClawHub. Decodes QR images (Telegram uploads, screenshots, camera captures), extracts a valid skill slug or install command, and...", "description_zh": "", "downloads": 168, "homepage": "https://clawhub.ai/jackleeio/scan-to-skill", "iconUrl": null, "installs": 15, "name": "Scan To Skill", "ownerName": "jackleeio", "score": 88888.88888888889, "slug": "scan-to-skill", "source": "clawhub", "stars": 0, "tags": null, "updated_at": 1776749444544, "version": "0.2.2"}, {"category": "developer-tools", "created_at": 1773091874282, "description": "Generate a GitHub standup summary covering the period since the last standup. Use when the user asks for a standup, work summary, weekly update, or \"what did...", "description_zh": "", "downloads": 168, "homepage": "https://clawhub.ai/zerone0x/gh-standup", "iconUrl": null, "installs": 10, "name": "Gh Standup", "ownerName": "zerone0x", "score": 88888.88888888889, "slug": "gh-standup", "source": "clawhub", "stars": 0, "tags": null, "updated_at": 1776749444538, "version": "1.0.0"}, {"category": "ai-intelligence", "created_at": 1773079927559, "description": "Shopping platform for AI agents", "description_zh": "", "downloads": 168, "homepage": "https://clawhub.ai/jpbonch/selva", "iconUrl": null, "installs": 8, "name": "Selva", "ownerName": "jpbonch", "score": 88888.88888888889, "slug": "selva", "source": "clawhub", "stars": 0, "tags": null, "updated_at": 1776749444513, "version": "1.0.0"}, {"category": "data-analysis", "created_at": 1773220826996, "description": "Manage Alibaba Cloud DataWorks via OpenAPI/MCP Server. Use for data development, workflow operations, data quality, metadata lineage, workspace management, a...", "description_zh": "", "downloads": 168, "homepage": "https://clawhub.ai/samuelhsin/alicloud-dataworks-skill", "iconUrl": null, "installs": 21, "name": "Alicloud DataWorks Skill", "ownerName": "samuelhsin", "score": 88888.88888888889, "slug": "alicloud-dataworks-skill", "source": "clawhub", "stars": 0, "tags": null, "updated_at": 1776749444510, "version": "1.0.0"}, {"category": "ai-intelligence", "created_at": 1773090255737, "description": "Autonomous agent health, optimization, and cleanup. Use when: (1) running scheduled cron jobs for agent maintenance, (2) responding to \"optimize\", \"cleanup\",...", "description_zh": "", "downloads": 168, "homepage": "https://clawhub.ai/robshabbir/agent-self-care", "iconUrl": null, "installs": 17, "name": "Agent Self-Care", "ownerName": "robshabbir", "score": 81553.39805825242, "slug": "agent-self-care", "source": "clawhub", "stars": 0, "tags": null, "updated_at": 1776749444494, "version": "1.0.0"}, {"category": "content-creation", "created_at": 1773080935842, "description": "Google Model Armor: Filter user-generated content for safety.", "description_zh": "", "downloads": 168, "homepage": "https://clawhub.ai/googleworkspace-bot/gws-modelarmor", "iconUrl": null, "installs": 12, "name": "Gws Modelarmor", "ownerName": "googleworkspace-bot", "score": 81553.39805825242, "slug": "gws-modelarmor", "source": "clawhub", "stars": 0, "tags": null, "updated_at": 1776749444465, "version": "1.0.0"}, {"category": "productivity", "created_at": 1773290039653, "description": "Recommend suitable Chinese shopping platforms for a user-provided product type, product name, or shopping need. Use when the user asks where to buy something...", "description_zh": "", "downloads": 168, "homepage": "https://clawhub.ai/harrylabsj/china-shopping", "iconUrl": null, "installs": 10, "name": "China Shopping", "ownerName": "harrylabsj", "score": 81553.39805825242, "slug": "china-shopping", "source": "clawhub", "stars": 0, "tags": null, "updated_at": 1776749444435, "version": "1.1.0"}, {"category": "developer-tools", "created_at": 1773091561376, "description": "Expert guide for participating in the SOMA network — a decentralized system that trains a foundation model through competition. Provides data submission work...", "description_zh": "", "downloads": 168, "homepage": "https://clawhub.ai/cfuaqz/soma", "iconUrl": null, "installs": 6, "name": "soma", "ownerName": "cfuaqz", "score": 81553.39805825242, "slug": "soma", "source": "clawhub", "stars": 0, "tags": null, "updated_at": 1776749444385, "version": "0.1.1"}, {"category": "communication-collaboration", "created_at": 1773285540742, "description": "Generic email reporting tool for OpenClaw agents. Auto-converts Markdown to PDF and sends as attachments.", "description_zh": "", "downloads": 168, "homepage": "https://clawhub.ai/dirkcaiusa/email-reporter", "iconUrl": null, "installs": 4, "name": "email-reporter", "ownerName": "dirkcaiusa", "score": 81553.39805825242, "slug": "email-reporter", "source": "clawhub", "stars": 0, "tags": null, "updated_at": 1776749444364, "version": "1.0.0"}, {"category": "productivity", "created_at": 1773080665103, "description": "Google Sheets: Append a row to a spreadsheet.", "description_zh": "", "downloads": 168, "homepage": "https://clawhub.ai/googleworkspace-bot/gws-sheets-append", "iconUrl": null, "installs": 14, "name": "Gws Sheets Append", "ownerName": "googleworkspace-bot", "score": 87046.63212435233, "slug": "gws-sheets-append", "source": "clawhub", "stars": 0, "tags": null, "updated_at": 1776749444361, "version": "1.0.0"}]}