{"page": 331, "total_pages": 522, "total": 26073, "skills": [{"category": "developer-tools", "created_at": 1773285095380, "description": "ChainUp/OpenAPI V2 spot and margin trading skill. Prefer using the Python script to call `sapi` endpoints through one unified entrypoint and avoid ad hoc sig...", "description_zh": "", "downloads": 167, "homepage": "https://clawhub.ai/lurenha/chainup-spot-trading", "iconUrl": null, "installs": 7, "name": "Chainup Spot Trading", "ownerName": "lurenha", "score": 14296.636085626913, "slug": "chainup-spot-trading", "source": "clawhub", "stars": 1, "tags": null, "updated_at": 1776759498336, "version": "1.0.1"}, {"category": "ai-intelligence", "created_at": 1773285746129, "description": "Manage your OpenClaw lobster's night school: enroll, research topics, post to feed, generate, and review morning reports while ensuring security and privacy.", "description_zh": "", "downloads": 167, "homepage": "https://clawhub.ai/canon-shannon/openclaw-kindergarten", "iconUrl": null, "installs": 16, "name": "OpenClaw Kindergarten", "ownerName": "canon-shannon", "score": 14274.809160305344, "slug": "openclaw-kindergarten", "source": "clawhub", "stars": 1, "tags": ["agent", "night-school", "openclaw", "social"], "updated_at": 1776759498226, "version": "1.0.0"}, {"category": "developer-tools", "created_at": 1773082069875, "description": "Build reliable tool context from command output using artifacts and compact reproducible code queries.", "description_zh": "", "downloads": 167, "homepage": "https://clawhub.ai/zmaciel/reliable-tool-context", "iconUrl": null, "installs": 7, "name": "Reliable Tool Context", "ownerName": "zmaciel", "score": 90776.69902912622, "slug": "reliable-tool-context", "source": "clawhub", "stars": 1, "tags": null, "updated_at": 1776749444445, "version": "1.0.0"}, {"category": "productivity", "created_at": 1773283952413, "description": "Runs a comprehensive 11-section health check on local OpenClaw installations. Diagnoses configuration errors, session bloat, model drift, cron issues, securi...", "description_zh": "", "downloads": 167, "homepage": "https://clawhub.ai/bryant24hao/oc-doctor", "iconUrl": null, "installs": 6, "name": "oc-doctor", "ownerName": "bryant24hao", "score": 90776.69902912622, "slug": "oc-doctor", "source": "clawhub", "stars": 1, "tags": null, "updated_at": 1776749444421, "version": "1.1.0"}, {"category": "productivity", "created_at": 1773217883197, "description": "Pushover integration. Manage Users, Groups. Use when the user wants to interact with Pushover data.", "description_zh": "", "downloads": 167, "homepage": "https://clawhub.ai/gora050/pushover", "iconUrl": null, "installs": 6, "name": "Pushover", "ownerName": "gora050", "score": 3990.442054958184, "slug": "pushover", "source": "clawhub", "stars": 0, "tags": null, "updated_at": 1776767350042, "version": "1.0.0"}, {"category": "ai-intelligence", "created_at": 1773082518657, "description": "Freshdesk integration. Manage Tickets, Contacts, Companies, Agents, Groups, Forums and more. Use when the user wants to interact with Freshdesk data.", "description_zh": "", "downloads": 167, "homepage": "https://clawhub.ai/gora050/freshdesk-integration", "iconUrl": null, "installs": 8, "name": "Freshdesk", "ownerName": "gora050", "score": 3356.78391959799, "slug": "freshdesk-integration", "source": "clawhub", "stars": 0, "tags": null, "updated_at": 1776766871109, "version": "1.0.0"}, {"category": "ai-intelligence", "created_at": 1773429901325, "description": "Transform AI agents from task-followers into proactive partners that anticipate needs and continuously improve. And also 50+ models for image generation, vid...", "description_zh": "", "downloads": 167, "homepage": "https://clawhub.ai/modestyrichards/proactive-agent-hub", "iconUrl": null, "installs": 40, "name": "Pub Proactive", "ownerName": "modestyrichards", "score": 2836.758960421267, "slug": "proactive-agent-hub", "source": "clawhub", "stars": 0, "tags": null, "updated_at": 1776763149835, "version": "1.0.0"}, {"category": "data-analysis", "created_at": 1773426738854, "description": "Run and monitor PapersFlow DeepScan jobs. Use when the user wants long-running research progress, intermediate findings, final reports, or plotting from a co...", "description_zh": "", "downloads": 167, "homepage": "https://clawhub.ai/papersareflowing/deepscan-monitor", "iconUrl": null, "installs": 36, "name": "Deepscan Monitor", "ownerName": "papersareflowing", "score": 2427.3255813953488, "slug": "deepscan-monitor", "source": "clawhub", "stars": 0, "tags": null, "updated_at": 1776762850318, "version": "0.1.0"}, {"category": "content-creation", "created_at": 1773417260118, "description": "Use PoYo AI Sora 2 Pro for longer premium video generation through the `https://api.poyo.ai/api/generate/submit` endpoint. Use when a user wants 15s or 25s c...", "description_zh": "", "downloads": 167, "homepage": "https://clawhub.ai/coolhackboy/poyo-sora-2-pro", "iconUrl": null, "installs": 37, "name": "Sora 2 Pro", "ownerName": "coolhackboy", "score": 13275.03974562798, "slug": "poyo-sora-2-pro", "source": "clawhub", "stars": 0, "tags": null, "updated_at": 1776760098001, "version": "1.0.0"}, {"category": "content-creation", "created_at": 1773908295095, "description": "Generate images via OpenRouter API (text-to-image) with automation-ready local scripts and a queue-first workflow. Use for single images or batched variants...", "description_zh": "", "downloads": 167, "homepage": "https://clawhub.ai/ironystock/banana-claws", "iconUrl": null, "installs": 41, "name": "Banana Claws", "ownerName": "ironystock", "score": 13296.178343949045, "slug": "banana-claws", "source": "clawhub", "stars": 0, "tags": ["agent-skill", "ai-images", "automation", "ftux", "hardening", "image-generation", "imagegen", "nano-banana-2", "openrouter", "queue", "security"], "updated_at": 1776760097696, "version": "0.1.9"}, {"category": "security-compliance", "created_at": 1773218057337, "description": "The Immutable Commitment Protocol. Orchestrating cryptographically enforced, high-stakes promises between agents where trust is not assumed, but engineered.", "description_zh": "", "downloads": 167, "homepage": "https://clawhub.ai/agenticio/vow", "iconUrl": null, "installs": 4, "name": "Vow", "ownerName": "agenticio", "score": 12915.699922660478, "slug": "vow", "source": "clawhub", "stars": 0, "tags": ["alignment", "contract", "pact", "trust", "vow"], "updated_at": 1776759683493, "version": "1.0.0"}, {"category": "ai-intelligence", "created_at": 1773218450184, "description": "Monitor and govern autonomous AI agents with safety constraints, audit trails, escalation protocols, and continuous performance evaluation for reliable, alig...", "description_zh": "", "downloads": 167, "homepage": "https://clawhub.ai/timbohnett-farther/skill-106", "iconUrl": null, "installs": 8, "name": "Skill 106", "ownerName": "timbohnett-farther", "score": 64980.544747081716, "slug": "skill-106", "source": "clawhub", "stars": 0, "tags": null, "updated_at": 1776759683449, "version": "1.0.0"}, {"category": "communication-collaboration", "created_at": 1773287297520, "description": "Register and autonomously send, receive, and manage up to 5 daily outreach emails with your own @sendclaw.com address for go-to-market campaigns.", "description_zh": "", "downloads": 167, "homepage": "https://clawhub.ai/codejika/gtm", "iconUrl": null, "installs": 8, "name": "Go-To-Market SalesClaw   |   Plan your outreach campaign", "ownerName": "codejika", "score": 12796.934865900383, "slug": "gtm", "source": "clawhub", "stars": 0, "tags": ["gtm", "marketing", "sales"], "updated_at": 1776759683421, "version": "1.0.5"}, {"category": "developer-tools", "created_at": 1773289637451, "description": "Summarize a person's git commits on a given date, grouped by feature area with concise descriptions for daily work review.", "description_zh": "", "downloads": 167, "homepage": "https://clawhub.ai/andrew020/daily-commits", "iconUrl": null, "installs": 22, "name": "Summarize a person's git commits for a specific date, grouped by feature points, in English. Use when reviewing daily work output.", "ownerName": "andrew020", "score": 12935.708752904726, "slug": "daily-commits", "source": "clawhub", "stars": 0, "tags": null, "updated_at": 1776759683384, "version": "1.0.0"}, {"category": "ai-intelligence", "created_at": 1773287507976, "description": "Run LangChain AI pipelines locally and offline using Ollama and phi4-mini for coding, devops, chat, or document-based queries without requiring cloud or API...", "description_zh": "", "downloads": 167, "homepage": "https://clawhub.ai/manojrammurthy/openclaw-skill-langchain-local", "iconUrl": null, "installs": 13, "name": "Openclaw Skill Langchain Local", "ownerName": "manojrammurthy", "score": 12935.708752904726, "slug": "openclaw-skill-langchain-local", "source": "clawhub", "stars": 0, "tags": null, "updated_at": 1776759683373, "version": "0.1.0"}, {"category": "productivity", "created_at": 1773215959231, "description": "A comprehensive AI agent skill for renters navigating the full lifecycle of renting. Helps you evaluate apartments, understand lease terms before signing, do...", "description_zh": "", "downloads": 167, "homepage": "https://clawhub.ai/ethagent/tenant", "iconUrl": null, "installs": 6, "name": "Tenant", "ownerName": "ethagent", "score": 12796.934865900383, "slug": "tenant", "source": "clawhub", "stars": 0, "tags": ["deposit", "landlord", "lease", "renting", "tenant"], "updated_at": 1776759683312, "version": "1.0.0"}, {"category": "data-analysis", "created_at": 1773429838532, "description": "Scrapes Google Maps to estimate monthly revenue of local businesses using multiple signals, ranks prospects by budget, growth, and generates tailored outreac...", "description_zh": "", "downloads": 167, "homepage": "https://clawhub.ai/g4dr/google-maps-revenue-estimator", "iconUrl": null, "installs": 24, "name": "Google Maps Revenue Estimator — Know Exactly How Much Any Local Business Makes Before You Call Them", "ownerName": "g4dr", "score": 12297.496318114874, "slug": "google-maps-revenue-estimator", "source": "clawhub", "stars": 0, "tags": ["agency", "apify", "b2b-sales", "cold-outreach", "foot-traffic", "google-maps", "invideo", "lead-generation", "local-business", "revenue-estimation", "sales-intelligence", "smb"], "updated_at": 1776759682986, "version": "1.0.0"}, {"category": "content-creation", "created_at": 1773285971440, "description": "Build, maintain, and publish professional FAQ documentation. Create, organize, and publish customer-facing knowledge bases. Reduce support burden by answerin...", "description_zh": "", "downloads": 167, "homepage": "https://clawhub.ai/theshadowrose/faq-forge", "iconUrl": null, "installs": 6, "name": "Faq Forge", "ownerName": "theshadowrose", "score": 12826.42089093702, "slug": "faq-forge", "source": "clawhub", "stars": 0, "tags": ["documentation", "faq", "knowledge-base", "writing"], "updated_at": 1776759682896, "version": "1.0.1"}, {"category": "productivity", "created_at": 1773284638869, "description": "Conversational assistant that guides users through preparing their 2025 federal tax return, collecting info, calculating step-by-step, and routing appropriat...", "description_zh": "", "downloads": 167, "homepage": "https://clawhub.ai/vajih/quicktaxreturn", "iconUrl": null, "installs": 6, "name": "QuickTaxReturn — AI Tax Preparation", "ownerName": "vajih", "score": 12297.496318114874, "slug": "quicktaxreturn", "source": "clawhub", "stars": 0, "tags": null, "updated_at": 1776759682841, "version": "1.0.2"}, {"category": "productivity", "created_at": 1773416004872, "description": "Let your agent shop online with guardrailed wallets, multiple payment methods, and owner approval.", "description_zh": "", "downloads": 167, "homepage": "https://clawhub.ai/jononovo/ticket", "iconUrl": null, "installs": 5, "name": "TicketClaw - Buy tickets to any event", "ownerName": "jononovo", "score": 12297.496318114874, "slug": "ticket", "source": "clawhub", "stars": 0, "tags": ["concert", "events", "tickets"], "updated_at": 1776759682828, "version": "1.0.0"}, {"category": "developer-tools", "created_at": 1773219242446, "description": "Install Go 1.22 compiler on Linux, configure environment variables, and provide commands for development, testing, building, and dependency management.", "description_zh": "", "downloads": 167, "homepage": "https://clawhub.ai/solidexu/go-install", "iconUrl": null, "installs": 10, "name": "Go Install", "ownerName": "solidexu", "score": 12806.74846625767, "slug": "go-install", "source": "clawhub", "stars": 0, "tags": ["compiler", "go", "golang"], "updated_at": 1776759682800, "version": "1.0.0"}, {"category": "communication-collaboration", "created_at": 1773416712452, "description": "Design, manage, and improve client relationships across sales, onboarding, delivery, communication, retention, and account growth. Use when someone needs to...", "description_zh": "", "downloads": 167, "homepage": "https://clawhub.ai/depinhq/client", "iconUrl": null, "installs": 8, "name": "Client", "ownerName": "depinhq", "score": 12826.42089093702, "slug": "client", "source": "clawhub", "stars": 0, "tags": ["accounts", "client", "communication", "onboarding", "retention"], "updated_at": 1776759682655, "version": "1.0.0"}, {"category": "content-creation", "created_at": 1773907219538, "description": "AI tool that creates viral fitness recipe videos with AI-generated images, voiceovers, renders, and optional TikTok auto-posting.", "description_zh": "", "downloads": 167, "homepage": "https://clawhub.ai/g0atfac3/g0atbot-fitness-recipes", "iconUrl": null, "installs": 26, "name": "Fitness Recipes AI", "ownerName": "g0atfac3", "score": 6515.801794771752, "slug": "g0atbot-fitness-recipes", "source": "clawhub", "stars": 0, "tags": null, "updated_at": 1776759682374, "version": "1.0.0"}, {"category": "developer-tools", "created_at": 1773078274450, "description": "Deploy and interact with Ponzu token launchpad — presales, DEX swaps, and LP farming on Ethereum", "description_zh": "", "downloads": 167, "homepage": "https://clawhub.ai/yuzukyouma/ponzu-ethereum", "iconUrl": null, "installs": 10, "name": "Ponzu Launchpad", "ownerName": "yuzukyouma", "score": 9823.529411764706, "slug": "ponzu-ethereum", "source": "clawhub", "stars": 0, "tags": null, "updated_at": 1776758782369, "version": "1.0.1"}, {"category": "", "created_at": 1774856155785, "description": "Edit PDFs with natural-language instructions using the nano-pdf CLI.", "description_zh": "", "downloads": 167, "homepage": "https://clawhub.ai/15914355527/nano-pdf-v2", "iconUrl": null, "installs": 67, "name": "Nano PDF V2", "ownerName": "15914355527", "score": 8279.623202776402, "slug": "nano-pdf-v2", "source": "clawhub", "stars": 0, "tags": null, "updated_at": 1776758520415, "version": "1.0.0"}, {"category": "productivity", "created_at": 1773431355223, "description": "Systematic improvement of thinking patterns, decision quality, problem-solving abilities, and mental performance. Use when noticing cognitive biases, making...", "description_zh": "", "downloads": 167, "homepage": "https://clawhub.ai/harrylabsj/self-improving-cognition", "iconUrl": null, "installs": 45, "name": "Self Improving Cognition", "ownerName": "harrylabsj", "score": 10858.257477243173, "slug": "self-improving-cognition", "source": "clawhub", "stars": 0, "tags": null, "updated_at": 1776758482568, "version": "1.0.0"}, {"category": "developer-tools", "created_at": 1773089533953, "description": "Reusable Polymarket + OpenClaw trading operations skill for any workspace. Use when the user needs to set up, run, tune, monitor, and deploy an automated Pol...", "description_zh": "", "downloads": 167, "homepage": "https://clawhub.ai/08820048/polymarket-openclaw-trader", "iconUrl": null, "installs": 17, "name": "Polymarket OpenClaw Trader", "ownerName": "08820048", "score": 10922.17135382603, "slug": "polymarket-openclaw-trader", "source": "clawhub", "stars": 0, "tags": null, "updated_at": 1776757733151, "version": "1.0.0"}, {"category": "developer-tools", "created_at": 1773286082932, "description": "Expert 10x Software engineer specializing in TypeScript with deep knowledge of all popular package management tools including npm, yarn, pnpm, bun, and deno....", "description_zh": "", "downloads": 167, "homepage": "https://clawhub.ai/jhauga/typescript-package-manager", "iconUrl": null, "installs": 12, "name": "TypeScript Package Manager", "ownerName": "jhauga", "score": 9869.976359338061, "slug": "typescript-package-manager", "source": "clawhub", "stars": 0, "tags": null, "updated_at": 1776756188571, "version": "1.0.0"}, {"category": "data-analysis", "created_at": 1773091136222, "description": "Scrape Pinterest search results and collect pins with image URLs, descriptions, and direct links using infinite scroll. Use when you want to collect visual i...", "description_zh": "", "downloads": 167, "homepage": "https://clawhub.ai/phy041/phy-pinterest-scraper", "iconUrl": null, "installs": 15, "name": "Pinterest Scraper", "ownerName": "phy041", "score": 29609.929078014186, "slug": "phy-pinterest-scraper", "source": "clawhub", "stars": 0, "tags": ["pinterest", "scraping"], "updated_at": 1776752144558, "version": "1.0.0"}, {"category": "developer-tools", "created_at": 1773078483237, "description": "Multi-model consensus system — send a query to 3+ different LLMs via OpenRouter simultaneously, then a judge model evaluates all responses and produces a win...", "description_zh": "", "downloads": 167, "homepage": "https://clawhub.ai/aiwithabidi/model-council", "iconUrl": null, "installs": 6, "name": "Model Council", "ownerName": "aiwithabidi", "score": 68163.26530612244, "slug": "model-council", "source": "clawhub", "stars": 0, "tags": null, "updated_at": 1776749444969, "version": "1.0.0"}, {"category": "productivity", "created_at": 1773078423704, "description": "Google Workspace Events: Subscribe to Workspace events and stream them as NDJSON.", "description_zh": "", "downloads": 167, "homepage": "https://clawhub.ai/googleworkspace-bot/gws-events-subscribe", "iconUrl": null, "installs": 10, "name": "Gws Events Subscribe", "ownerName": "googleworkspace-bot", "score": 98235.29411764705, "slug": "gws-events-subscribe", "source": "clawhub", "stars": 0, "tags": null, "updated_at": 1776749444902, "version": "1.0.0"}, {"category": "productivity", "created_at": 1773433733329, "description": "Use the official MinerU (mineru.net) parsing API to convert a URL (HTML pages like WeChat articles, or direct PDF/Office/image links) into clean Markdown + s...", "description_zh": "", "downloads": 167, "homepage": "https://clawhub.ai/easerene/mineru-extract", "iconUrl": null, "installs": 36, "name": "Mineru Extract", "ownerName": "easerene", "score": 98235.29411764705, "slug": "mineru-extract", "source": "clawhub", "stars": 0, "tags": null, "updated_at": 1776749444893, "version": "1.0.0"}, {"category": "security-compliance", "created_at": 1773080398764, "description": "Assess compliance documents against HIPAA Security Rule and Privacy Rule requirements. Produces structured findings with coverage status, confidence scores,...", "description_zh": "", "downloads": 167, "homepage": "https://clawhub.ai/dangsllc/hipaa-gap-analysis", "iconUrl": null, "installs": 5, "name": "Hipaa Gap Analysis", "ownerName": "dangsllc", "score": 80288.46153846155, "slug": "hipaa-gap-analysis", "source": "clawhub", "stars": 0, "tags": null, "updated_at": 1776749444865, "version": "0.1.0"}, {"category": "developer-tools", "created_at": 1773856781226, "description": "Platform to build admin panels, internal tools, and dashboards. Integrates with 25+ databases and an appsmith, typescript, admin-dashboard, admin-panels, app...", "description_zh": "", "downloads": 167, "homepage": "https://clawhub.ai/bytesagain/appsmith", "iconUrl": null, "installs": 8, "name": "Appsmith", "ownerName": "bytesagain", "score": 80288.46153846155, "slug": "appsmith", "source": "clawhub", "stars": 0, "tags": null, "updated_at": 1776749444830, "version": "2.3.7"}, {"category": "developer-tools", "created_at": 1773084210278, "description": "Guides AI-assisted development using the Vibe Coding 5-phase workflow (requirements, architecture, code generation, debugging, and iteration). Use when the u...", "description_zh": "", "downloads": 167, "homepage": "https://clawhub.ai/shiiyyo/vibe-coding-skill", "iconUrl": null, "installs": 13, "name": "Vibe Coding Skill", "ownerName": "shiiyyo", "score": 89784.94623655913, "slug": "vibe-coding-skill", "source": "clawhub", "stars": 0, "tags": null, "updated_at": 1776749444784, "version": "1.0.0"}, {"category": "productivity", "created_at": 1773080386391, "description": "Google Workspace Enterprise License Manager: Manage product licenses.", "description_zh": "", "downloads": 167, "homepage": "https://clawhub.ai/googleworkspace-bot/gws-licensing", "iconUrl": null, "installs": 7, "name": "Gws Licensing", "ownerName": "googleworkspace-bot", "score": 89784.94623655913, "slug": "gws-licensing", "source": "clawhub", "stars": 0, "tags": null, "updated_at": 1776749444777, "version": "1.0.0"}, {"category": "developer-tools", "created_at": 1773285700568, "description": "PSD2 Open Banking integration via Enable Banking API. Connect DACH bank accounts (Sparkasse, Volksbank, Deutsche Bank, Commerzbank, DKB, ING, Postbank + Aust...", "description_zh": "", "downloads": 167, "homepage": "https://clawhub.ai/ppronobis/openfin-enable-banking", "iconUrl": null, "installs": 8, "name": "openfin-enable-banking", "ownerName": "ppronobis", "score": 88829.78723404255, "slug": "openfin-enable-banking", "source": "clawhub", "stars": 0, "tags": null, "updated_at": 1776749444727, "version": "1.0.0"}, {"category": "developer-tools", "created_at": 1773077619158, "description": "Detects and maps complexity imbalances across system boundaries. When one side of an interface absorbs all the complexity while the other stays artificially...", "description_zh": "", "downloads": 167, "homepage": "https://clawhub.ai/jcools1977/osmotic-pressure", "iconUrl": null, "installs": 5, "name": "Osmotic Pressure", "ownerName": "jcools1977", "score": 88829.78723404255, "slug": "osmotic-pressure", "source": "clawhub", "stars": 0, "tags": null, "updated_at": 1776749444688, "version": "1.0.0"}, {"category": "", "created_at": 1774825894993, "description": "Extract text from images using GLM-OCR API. Supports images and PDFs with high accuracy OCR, table recognition, formula extraction, and handwriting recogniti...", "description_zh": "", "downloads": 167, "homepage": "https://clawhub.ai/jaredforreal/glmocr", "iconUrl": null, "installs": 56, "name": "GLM-OCR", "ownerName": "jaredforreal", "score": 88829.78723404255, "slug": "glmocr", "source": "clawhub", "stars": 0, "tags": null, "updated_at": 1776749444639, "version": "1.0.3"}, {"category": "ai-intelligence", "created_at": 1773433658179, "description": "Report local OpenClaw token usage to ClawRank (clawrank.dev), the AI agent leaderboard. Use when the user asks to submit, sync, report, or upload their agent...", "description_zh": "", "downloads": 167, "homepage": "https://clawhub.ai/hansenliang/clawrank", "iconUrl": null, "installs": 25, "name": "ClawRank", "ownerName": "hansenliang", "score": 88829.78723404255, "slug": "clawrank", "source": "clawhub", "stars": 0, "tags": null, "updated_at": 1776749444618, "version": "2.5.1"}, {"category": "content-creation", "created_at": 1773089324614, "description": "4-stage content pipeline orchestrator: Research -> Ideate -> Write -> Queue. Give it a topic, it researches existing discussions, generates hook angles, writ...", "description_zh": "", "downloads": 167, "homepage": "https://clawhub.ai/runesleo/runesleo-content-pipeline", "iconUrl": null, "installs": 11, "name": "Content Pipeline", "ownerName": "runesleo", "score": 88359.78835978836, "slug": "runesleo-content-pipeline", "source": "clawhub", "stars": 0, "tags": ["automation", "content", "pipeline", "writing"], "updated_at": 1776749444594, "version": "1.0.0"}, {"category": "content-creation", "created_at": 1773429552495, "description": "Use when the user wants to generate or edit images with Google's Nanobanana/Gemini image models using the official Gemini API shape, or when they need public...", "description_zh": "", "downloads": 167, "homepage": "https://clawhub.ai/grenzlinie/materials-science-figure-skill", "iconUrl": null, "installs": 22, "name": "materials-science-figure-skill", "ownerName": "grenzlinie", "score": 88359.78835978836, "slug": "materials-science-figure-skill", "source": "clawhub", "stars": 0, "tags": null, "updated_at": 1776749444540, "version": "1.0.5"}, {"category": "productivity", "created_at": 1773417192345, "description": "Collaborative task checklist manager for AI agents with sequential, parallel, and looping execution. Features agent coordination, dependencies, deadlock prev...", "description_zh": "", "downloads": 167, "homepage": "https://clawhub.ai/welliu/checklist", "iconUrl": null, "installs": 9, "name": "Checklist", "ownerName": "welliu", "score": 81067.96116504855, "slug": "checklist", "source": "clawhub", "stars": 0, "tags": null, "updated_at": 1776749444492, "version": "1.2.1"}, {"category": "security-compliance", "created_at": 1773088523413, "description": "Audit GitHub Actions queue wait hotspots from run/job JSON so CI bottlenecks are visible before they stall merges.", "description_zh": "", "downloads": 167, "homepage": "https://clawhub.ai/daniellummis/github-actions-queue-latency-audit", "iconUrl": null, "installs": 14, "name": "GitHub Actions Queue Latency Audit", "ownerName": "daniellummis", "score": 81067.96116504855, "slug": "github-actions-queue-latency-audit", "source": "clawhub", "stars": 0, "tags": null, "updated_at": 1776749444470, "version": "1.0.0"}, {"category": "productivity", "created_at": 1773218184887, "description": "Send Live-Activities & Ongoing-Notifications to your iOS / Android phones using Signalgrid.", "description_zh": "", "downloads": 167, "homepage": "https://clawhub.ai/signalgridco/signalgrid-activity", "iconUrl": null, "installs": 16, "name": "Signalgrid Activity", "ownerName": "signalgridco", "score": 81067.96116504855, "slug": "signalgrid-activity", "source": "clawhub", "stars": 0, "tags": null, "updated_at": 1776749444439, "version": "1.0.16"}, {"category": "productivity", "created_at": 1773091712855, "description": "0codekit integration. Manage Workspaces. Use when the user wants to interact with 0codekit data.", "description_zh": "", "downloads": 167, "homepage": "https://clawhub.ai/membranedev/0codekit", "iconUrl": null, "installs": 6, "name": "0Codekit", "ownerName": "membranedev", "score": 81067.96116504855, "slug": "0codekit", "source": "clawhub", "stars": 0, "tags": null, "updated_at": 1776749444430, "version": "1.0.0"}, {"category": "developer-tools", "created_at": 1773078446041, "description": "CLI tool to fetch trending news and hot topics from 66 sources across 44 platforms. Returns structured news items with titles, URLs, and metadata. USE FOR: -...", "description_zh": "", "downloads": 167, "homepage": "https://clawhub.ai/leeguooooo/leeguooooo-newsnow", "iconUrl": null, "installs": 2, "name": "newsnow", "ownerName": "leeguooooo", "score": 81067.96116504855, "slug": "leeguooooo-newsnow", "source": "clawhub", "stars": 0, "tags": null, "updated_at": 1776749444416, "version": "1.0.1"}, {"category": "productivity", "created_at": 1773218011088, "description": "Guards high-risk OpenClaw operations with preflight backups, post-change health checks, and rollback guidance. Use when running gateway restart/start/stop, c...", "description_zh": "", "downloads": 167, "homepage": "https://clawhub.ai/dhrxy/openclaw-safe-ops", "iconUrl": null, "installs": 5, "name": "OpenClaw Safe Ops", "ownerName": "dhrxy", "score": 81067.96116504855, "slug": "openclaw-safe-ops", "source": "clawhub", "stars": 0, "tags": ["backup", "openclaw", "operations", "safety"], "updated_at": 1776749444412, "version": "1.0.1"}, {"category": "developer-tools", "created_at": 1773080263303, "description": "Zod v4 best practices, patterns, and API guidance for schema validation, parsing, error handling, and type inference in TypeScript applications. Covers safeP...", "description_zh": "", "downloads": 167, "homepage": "https://clawhub.ai/anivar/zod-skill", "iconUrl": null, "installs": 7, "name": "Zod", "ownerName": "anivar", "score": 81067.96116504855, "slug": "zod-skill", "source": "clawhub", "stars": 0, "tags": null, "updated_at": 1776749444401, "version": "1.0.0"}, {"category": "developer-tools", "created_at": 1773084302848, "description": "Quantify wasted GitHub Actions minutes caused by reruns so flaky workflows can be fixed with data.", "description_zh": "", "downloads": 167, "homepage": "https://clawhub.ai/daniellummis/github-actions-rerun-waste-audit", "iconUrl": null, "installs": 19, "name": "GitHub Actions Rerun Waste Audit", "ownerName": "daniellummis", "score": 81067.96116504855, "slug": "github-actions-rerun-waste-audit", "source": "clawhub", "stars": 0, "tags": null, "updated_at": 1776749444386, "version": "1.0.0"}]}