{"page": 332, "total_pages": 522, "total": 26073, "skills": [{"category": "developer-tools", "created_at": 1773089435212, "description": "Run a weighted decision matrix to score and rank 2-4 options across 5 configurable criteria. Use when a user needs help choosing between options, comparing t...", "description_zh": "", "downloads": 167, "homepage": "https://clawhub.ai/mdomerofski/decision-dynamo", "iconUrl": null, "installs": 6, "name": "Decision Dynamo", "ownerName": "mdomerofski", "score": 81067.96116504855, "slug": "decision-dynamo", "source": "clawhub", "stars": 0, "tags": null, "updated_at": 1776749444381, "version": "1.0.0"}, {"category": "data-analysis", "created_at": 1773217894570, "description": "Read-only balance checking and spending analytics for Sardis agent wallets", "description_zh": "", "downloads": 167, "homepage": "https://clawhub.ai/efedurmaz16/sardis-balance", "iconUrl": null, "installs": 27, "name": "Sardis Balance", "ownerName": "efedurmaz16", "score": 81067.96116504855, "slug": "sardis-balance", "source": "clawhub", "stars": 0, "tags": null, "updated_at": 1776749444379, "version": "1.0.0"}, {"category": "developer-tools", "created_at": 1773954484271, "description": "Provides functional Python code and detailed answers by fetching and applying proven patterns and examples from pythonsheets.com across core, system, concurr...", "description_zh": "", "downloads": 166, "homepage": "https://clawhub.ai/crazyguitar/pyc", "iconUrl": null, "installs": 41, "name": "Python Cheat Sheets", "ownerName": "crazyguitar", "score": 3078.9604370137395, "slug": "pyc", "source": "clawhub", "stars": 1, "tags": null, "updated_at": 1776767649852, "version": "1.0.0"}, {"category": "data-analysis", "created_at": 1773291138543, "description": "NCAA March Madness basketball tournament bracket generator. Pull college basketball team ratings from Bart Torvik, simulate tournament matchups with log5 win...", "description_zh": "", "downloads": 166, "homepage": "https://clawhub.ai/lastandy/bracket-oracle", "iconUrl": null, "installs": 16, "name": "Bracket Oracle", "ownerName": "lastandy", "score": 14166.031987814165, "slug": "bracket-oracle", "source": "clawhub", "stars": 1, "tags": ["basketball", "bracket", "college-basketball", "march-madness", "ncaa", "prediction", "sports", "sports-analytics", "tournament"], "updated_at": 1776759498255, "version": "1.0.2"}, {"category": "data-analysis", "created_at": 1773083284259, "description": "Check for available OS package updates with per-package changelog summaries and risk classification. Supports apt (Debian/Ubuntu), dnf (Fedora/RHEL), yum (Ce...", "description_zh": "", "downloads": 166, "homepage": "https://clawhub.ai/pfrederiksen/os-update-checker", "iconUrl": null, "installs": 9, "name": "Os Update Checker", "ownerName": "pfrederiksen", "score": 100000, "slug": "os-update-checker", "source": "clawhub", "stars": 1, "tags": null, "updated_at": 1776749444765, "version": "1.2.1"}, {"category": "ai-intelligence", "created_at": 1773290937829, "description": "Swiss-knife for AI agents. 50+ models for image generation, video generation, text-to-speech, speech-to-text, music, chat, web search, document parsing, emai...", "description_zh": "", "downloads": 166, "homepage": "https://clawhub.ai/yshuolu/skillboss-mini", "iconUrl": null, "installs": 31, "name": "Skillboss", "ownerName": "yshuolu", "score": 100000, "slug": "skillboss-mini", "source": "clawhub", "stars": 1, "tags": null, "updated_at": 1776749444748, "version": "1.1.0"}, {"category": "developer-tools", "created_at": 1773220114272, "description": "Validate npm package references in markdown, YAML, and config files against the live npm registry before installing or using them. Catches hallucinated and s...", "description_zh": "", "downloads": 166, "homepage": "https://clawhub.ai/mattschaller/slopcheck", "iconUrl": null, "installs": 11, "name": "slopcheck", "ownerName": "mattschaller", "score": 98936.17021276597, "slug": "slopcheck", "source": "clawhub", "stars": 1, "tags": null, "updated_at": 1776749444659, "version": "0.1.2"}, {"category": "developer-tools", "created_at": 1773207295647, "description": "Swift linting and style enforcement via CLI", "description_zh": "", "downloads": 166, "homepage": "https://clawhub.ai/alexissan/swiftlint", "iconUrl": null, "installs": 12, "name": "Swiftlint", "ownerName": "alexissan", "score": 1365.9178803587592, "slug": "swiftlint", "source": "clawhub", "stars": 0, "tags": ["cicd", "codestyle", "ios", "linting", "macos", "swift", "xcode"], "updated_at": 1776770349759, "version": "1.0.0"}, {"category": "security-compliance", "created_at": 1773084721857, "description": "Applies production-grade behavioral discipline to any AI agent session. Use when configuring a new agent, auditing an existing agent for bad habits, or boots...", "description_zh": "", "downloads": 166, "homepage": "https://clawhub.ai/calecorbett/operator-discipline", "iconUrl": null, "installs": 7, "name": "Operator Discipline", "ownerName": "calecorbett", "score": 1962.4069038893488, "slug": "operator-discipline", "source": "clawhub", "stars": 0, "tags": null, "updated_at": 1776766450399, "version": "1.0.0"}, {"category": "", "created_at": 1774819577061, "description": "Recommends production-ready Golang libraries and frameworks. Apply when the user asks for library suggestions, wants to compare alternatives, or needs to cho...", "description_zh": "", "downloads": 166, "homepage": "https://clawhub.ai/samber/golang-popular-libraries", "iconUrl": null, "installs": 6, "name": "Golang Popular Libraries", "ownerName": "samber", "score": 6355.283307810107, "slug": "golang-popular-libraries", "source": "clawhub", "stars": 0, "tags": null, "updated_at": 1776762290064, "version": "0.1.0"}, {"category": "communication-collaboration", "created_at": 1773284267407, "description": "Design and scale team structures, communication, decision frameworks, and roles to maximize organizational effectiveness and sustain growth.", "description_zh": "", "downloads": 166, "homepage": "https://clawhub.ai/timbohnett-farther/skill-110", "iconUrl": null, "installs": 7, "name": "Skill 110", "ownerName": "timbohnett-farther", "score": 12749.615975422426, "slug": "skill-110", "source": "clawhub", "stars": 0, "tags": null, "updated_at": 1776759682901, "version": "1.0.0"}, {"category": "productivity", "created_at": 1773081935472, "description": "Provides prediction market odds for cryptocurrency events including BTC/ETH price targets, ETF approvals, protocol upgrades, and altcoin forecasts.", "description_zh": "", "downloads": 166, "homepage": "https://clawhub.ai/mosonchan2023/polymarket-crypto-predictions", "iconUrl": null, "installs": 23, "name": "Polymarket Crypto Predictions", "ownerName": "mosonchan2023", "score": 12720.306513409962, "slug": "polymarket-crypto-predictions", "source": "clawhub", "stars": 0, "tags": null, "updated_at": 1776759682556, "version": "1.0.1"}, {"category": "productivity", "created_at": 1773287329560, "description": "Manage monday.com boards, items, columns, groups, updates, and workflows via MCP server (preferred) and GraphQL API (fallback). Use when a user asks to creat...", "description_zh": "", "downloads": 166, "homepage": "https://clawhub.ai/regevguym/monday-com", "iconUrl": null, "installs": 7, "name": "monday.com", "ownerName": "regevguym", "score": 67755.10204081633, "slug": "monday-com", "source": "clawhub", "stars": 0, "tags": null, "updated_at": 1776749445016, "version": "1.2.0"}, {"category": "data-analysis", "created_at": 1773080116231, "description": "Navigate Ibiza as visitor, resident, remote worker, or founder with neighborhoods, transport, costs, visas, and local operational guidance.", "description_zh": "", "downloads": 166, "homepage": "https://clawhub.ai/ivangdavila/ibiza", "iconUrl": null, "installs": 7, "name": "Ibiza", "ownerName": "ivangdavila", "score": 67755.10204081633, "slug": "ibiza", "source": "clawhub", "stars": 0, "tags": null, "updated_at": 1776749445006, "version": "1.0.0"}, {"category": "data-analysis", "created_at": 1773078640403, "description": "Clause-by-clause BAA analysis against 45 CFR 164.504(e)(2). Evaluates all 9 required HIPAA provisions with risk scoring and recommended contract language for...", "description_zh": "", "downloads": 166, "homepage": "https://clawhub.ai/dangsllc/baa-review", "iconUrl": null, "installs": 9, "name": "Baa Review", "ownerName": "dangsllc", "score": 67755.10204081633, "slug": "baa-review", "source": "clawhub", "stars": 0, "tags": null, "updated_at": 1776749444999, "version": "0.1.0"}, {"category": "data-analysis", "created_at": 1773068589832, "description": "Identifies vestigial code — not just unused imports, but dead feature branches still compiled, zombie configurations nobody reads, orphaned tests that valida...", "description_zh": "", "downloads": 166, "homepage": "https://clawhub.ai/jcools1977/synaptic-pruning", "iconUrl": null, "installs": 10, "name": "Synaptic Pruning", "ownerName": "jcools1977", "score": 97647.05882352941, "slug": "synaptic-pruning", "source": "clawhub", "stars": 0, "tags": null, "updated_at": 1776749444940, "version": "1.0.0"}, {"category": "productivity", "created_at": 1773090939624, "description": "Push X/Twitter bookmarks into Google NotebookLM notebooks, auto-routed by bookmark folder. Use when the user wants to send bookmarks to NotebookLM, says \"pus...", "description_zh": "", "downloads": 166, "homepage": "https://clawhub.ai/spideystreet/x-to-notebook", "iconUrl": null, "installs": 11, "name": "X To Notebook", "ownerName": "spideystreet", "score": 97647.05882352941, "slug": "x-to-notebook", "source": "clawhub", "stars": 0, "tags": null, "updated_at": 1776749444930, "version": "1.1.0"}, {"category": "productivity", "created_at": 1773090618192, "description": "Twilio integration. Manage Accounts. Use when the user wants to interact with Twilio data.", "description_zh": "", "downloads": 166, "homepage": "https://clawhub.ai/membranedev/twilio-integration", "iconUrl": null, "installs": 1, "name": "Twilio", "ownerName": "membranedev", "score": 97647.05882352941, "slug": "twilio-integration", "source": "clawhub", "stars": 0, "tags": null, "updated_at": 1776749444924, "version": "1.0.0"}, {"category": "ai-intelligence", "created_at": 1773080743923, "description": "SalesForce Pardot integration. Manage Campaigns. Use when the user wants to interact with SalesForce Pardot data.", "description_zh": "", "downloads": 166, "homepage": "https://clawhub.ai/membranedev/salesforce-pardot", "iconUrl": null, "installs": 9, "name": "Salesforce Pardot", "ownerName": "membranedev", "score": 97647.05882352941, "slug": "salesforce-pardot", "source": "clawhub", "stars": 0, "tags": null, "updated_at": 1776749444911, "version": "1.0.0"}, {"category": "security-compliance", "created_at": 1773090320159, "description": "Audit GitHub Actions workflow files for secret exposure risks like pull_request_target secret usage, secret echo commands, and unpinned action secret passing.", "description_zh": "", "downloads": 166, "homepage": "https://clawhub.ai/daniellummis/github-actions-secret-exposure-audit", "iconUrl": null, "installs": 11, "name": "GitHub Actions Secret Exposure Audit", "ownerName": "daniellummis", "score": 97647.05882352941, "slug": "github-actions-secret-exposure-audit", "source": "clawhub", "stars": 0, "tags": null, "updated_at": 1776749444909, "version": "1.0.0"}, {"category": "developer-tools", "created_at": 1773284241985, "description": "Self-review quality gate using Claude CLI. When the user says 'review your work', 'use review-work', or 'check your output', run review-work with the task su...", "description_zh": "", "downloads": 166, "homepage": "https://clawhub.ai/paperboardofficial/claude-review", "iconUrl": null, "installs": 11, "name": "claude-review", "ownerName": "paperboardofficial", "score": 97647.05882352941, "slug": "claude-review", "source": "clawhub", "stars": 0, "tags": null, "updated_at": 1776749444898, "version": "1.0.1"}, {"category": "productivity", "created_at": 1773219087528, "description": "Score LinkedIn prospects by signal strength (0-3). Detect high-intent leads: new job, funding, recent post, active hiring. Free skill - full outreach methodo...", "description_zh": "", "downloads": 166, "homepage": "https://clawhub.ai/romainrabreau/linkedin-prospector", "iconUrl": null, "installs": 14, "name": "LinkedIn Prospector", "ownerName": "romainrabreau", "score": 97647.05882352941, "slug": "linkedin-prospector", "source": "clawhub", "stars": 0, "tags": ["b2b", "lead-generation", "linkedin", "outreach", "prospecting", "sales", "sequence"], "updated_at": 1776749444897, "version": "1.2.0"}, {"category": "content-creation", "created_at": 1773078431640, "description": "Generate hologram and 3D display content using each::sense AI. Create holographic product displays, presenters, 3D logos, interactive menus, event content, m...", "description_zh": "", "downloads": 166, "homepage": "https://clawhub.ai/eftalyurtseven/hologram-content-generation", "iconUrl": null, "installs": 12, "name": "Hologram Content Generation", "ownerName": "eftalyurtseven", "score": 97647.05882352941, "slug": "hologram-content-generation", "source": "clawhub", "stars": 0, "tags": null, "updated_at": 1776749444888, "version": "1.0.0"}, {"category": "communication-collaboration", "created_at": 1773222350672, "description": "Fetch Feishu message content by message_id, with optional thread context. Activate when: needing to read the content of a specific Feishu message by its mess...", "description_zh": "", "downloads": 166, "homepage": "https://clawhub.ai/deadblue22/feishu-msg-reader", "iconUrl": null, "installs": 14, "name": "Feishu Message Reader", "ownerName": "deadblue22", "score": 79807.69230769231, "slug": "feishu-msg-reader", "source": "clawhub", "stars": 0, "tags": null, "updated_at": 1776749444868, "version": "1.0.0"}, {"category": "security-compliance", "created_at": 1773082393147, "description": "Audit your OpenClaw workspace for drift — stale paths, duplicate content, oversized files, secret leaks, and 1Password vault mismatches. Zero deps. By The Ag...", "description_zh": "", "downloads": 166, "homepage": "https://clawhub.ai/theagentwire/workspace-audit", "iconUrl": null, "installs": 8, "name": "Workspace Audit", "ownerName": "theagentwire", "score": 89247.31182795699, "slug": "workspace-audit", "source": "clawhub", "stars": 0, "tags": null, "updated_at": 1776749444794, "version": "1.1.0"}, {"category": "developer-tools", "created_at": 1773089191573, "description": "키워드 트렌드 신호 탐지 및 Rising/Peaking/Declining 분류 에이전트", "description_zh": "", "downloads": 166, "homepage": "https://clawhub.ai/jinu4you/agent-trend-radar", "iconUrl": null, "installs": 5, "name": "Agent Trend Radar", "ownerName": "jinu4you", "score": 89247.31182795699, "slug": "agent-trend-radar", "source": "clawhub", "stars": 0, "tags": null, "updated_at": 1776749444768, "version": "1.0.1"}, {"category": "developer-tools", "created_at": 1773090994159, "description": "Audit rerun debt by commit SHA to find commits that repeatedly burn CI minutes across workflows.", "description_zh": "", "downloads": 166, "homepage": "https://clawhub.ai/daniellummis/github-actions-sha-rerun-debt-audit", "iconUrl": null, "installs": 11, "name": "GitHub Actions SHA Rerun Debt Audit", "ownerName": "daniellummis", "score": 89247.31182795699, "slug": "github-actions-sha-rerun-debt-audit", "source": "clawhub", "stars": 0, "tags": null, "updated_at": 1776749444750, "version": "1.0.0"}, {"category": "developer-tools", "created_at": 1773217822010, "description": "Use this skill when the user asks to search for and fork an open source repository, \"find me an open source project\", \"search and fork\", \"search-and-fork\", \"...", "description_zh": "", "downloads": 166, "homepage": "https://clawhub.ai/oschina/gitee-search-and-fork", "iconUrl": null, "installs": 7, "name": "Search And Fork", "ownerName": "oschina", "score": 88297.87234042553, "slug": "gitee-search-and-fork", "source": "clawhub", "stars": 0, "tags": null, "updated_at": 1776749444747, "version": "1.0.0"}, {"category": "developer-tools", "created_at": 1773068050115, "description": "Create or update project documentation in Markdown. Use when building a new project doc set, updating existing docs after a deploy or feature change, or esta...", "description_zh": "", "downloads": 166, "homepage": "https://clawhub.ai/tonylnng/tonic-update-md", "iconUrl": null, "installs": 5, "name": "Update MD", "ownerName": "tonylnng", "score": 88297.87234042553, "slug": "tonic-update-md", "source": "clawhub", "stars": 0, "tags": null, "updated_at": 1776749444719, "version": "1.0.0"}, {"category": "data-analysis", "created_at": 1773926830838, "description": "Fetch real-time stock prices and fundamental data. Use when: (1) User asks for current stock price or quote, (2) Need to update portfolio holdings with lates...", "description_zh": "", "downloads": 166, "homepage": "https://clawhub.ai/linux2010/stock-quote", "iconUrl": null, "installs": 35, "name": "Stock Quote", "ownerName": "linux2010", "score": 88297.87234042553, "slug": "stock-quote", "source": "clawhub", "stars": 0, "tags": null, "updated_at": 1776749444696, "version": "1.0.0"}, {"category": "data-analysis", "created_at": 1773091763187, "description": "Read and analyze arXiv papers by fetching LaTeX source, listing sections, or extracting abstracts", "description_zh": "", "downloads": 166, "homepage": "https://clawhub.ai/willamhou/arxiv-source", "iconUrl": null, "installs": 23, "name": "arXiv Source Reader", "ownerName": "willamhou", "score": 88297.87234042553, "slug": "arxiv-source", "source": "clawhub", "stars": 0, "tags": null, "updated_at": 1776749444678, "version": "1.0.5"}, {"category": "communication-collaboration", "created_at": 1773218422708, "description": "Create a new topic in a Feishu topic-group, and optionally add the first in-thread reply (with optional @mention) by sending as the user. Use when the user s...", "description_zh": "", "downloads": 166, "homepage": "https://clawhub.ai/dxxbb/feishu-new-chat", "iconUrl": null, "installs": 12, "name": "Feishu New Chat", "ownerName": "dxxbb", "score": 88297.87234042553, "slug": "feishu-new-chat", "source": "clawhub", "stars": 0, "tags": null, "updated_at": 1776749444642, "version": "0.1.2"}, {"category": "developer-tools", "created_at": 1773222441834, "description": "Complete multi-agent collaboration workflow for product-driven development loops. Covers the full lifecycle from product discovery through architecture desig...", "description_zh": "", "downloads": 166, "homepage": "https://clawhub.ai/weitanai/devloop-agent-pack", "iconUrl": null, "installs": 8, "name": "This skill provides a complete multi-agent collaboration system for product-driven development loops", "ownerName": "weitanai", "score": 88297.87234042553, "slug": "devloop-agent-pack", "source": "clawhub", "stars": 0, "tags": null, "updated_at": 1776749444630, "version": "1.0.0"}, {"category": "data-analysis", "created_at": 1773218883233, "description": "Fetches stock data and generates price charts.", "description_zh": "", "downloads": 166, "homepage": "https://clawhub.ai/grayson85/yf-stats", "iconUrl": null, "installs": 19, "name": "yf-stats", "ownerName": "grayson85", "score": 88297.87234042553, "slug": "yf-stats", "source": "clawhub", "stars": 0, "tags": null, "updated_at": 1776749444628, "version": "1.0.0"}, {"category": "ai-intelligence", "created_at": 1773219490880, "description": "Play Fomo3D, Slot Machine, and Prediction Market on BNB Chain (BSC). Fomo3D is a blockchain game where players buy shares using tokens — the last buyer befor...", "description_zh": "", "downloads": 166, "homepage": "https://clawhub.ai/erenvance/openclaw-fomo3d", "iconUrl": null, "installs": 6, "name": "Openclaw Fomo3d", "ownerName": "erenvance", "score": 88297.87234042553, "slug": "openclaw-fomo3d", "source": "clawhub", "stars": 0, "tags": null, "updated_at": 1776749444622, "version": "1.3.1"}, {"category": "productivity", "created_at": 1773080106328, "description": "Manage Google Groups settings.", "description_zh": "", "downloads": 166, "homepage": "https://clawhub.ai/googleworkspace-bot/gws-groupssettings", "iconUrl": null, "installs": 7, "name": "Gws Groupssettings", "ownerName": "googleworkspace-bot", "score": 88297.87234042553, "slug": "gws-groupssettings", "source": "clawhub", "stars": 0, "tags": null, "updated_at": 1776749444603, "version": "1.0.0"}, {"category": "communication-collaboration", "created_at": 1773218163605, "description": "Teach OpenClaw how to work in Feishu (Lark) group chats — recognize who's talking, behave properly in groups vs DMs, respect multi-user privacy, and format m...", "description_zh": "", "downloads": 166, "homepage": "https://clawhub.ai/4ier/openclaw-feishu-group-chat", "iconUrl": null, "installs": 9, "name": "OpenClaw Feishu Group Chat", "ownerName": "4ier", "score": 87830.68783068782, "slug": "openclaw-feishu-group-chat", "source": "clawhub", "stars": 0, "tags": null, "updated_at": 1776749444567, "version": "1.0.0"}, {"category": "ai-intelligence", "created_at": 1773202586129, "description": "Stop guessing what your AI costs. Tinker shows every token, every dollar, every context byte — in real time.", "description_zh": "", "downloads": 166, "homepage": "https://clawhub.ai/globalcaos/tinker-command-center", "iconUrl": null, "installs": 12, "name": "Tinker Command Center", "ownerName": "globalcaos", "score": 87830.68783068782, "slug": "tinker-command-center", "source": "clawhub", "stars": 0, "tags": null, "updated_at": 1776749444535, "version": "1.0.1"}, {"category": "security-compliance", "created_at": 1773290957158, "description": "MiCA compliance evidence and stablecoin risk scoring for regulated tokenized markets. 27 MCP tools with ES256K-signed responses. Use when the user explicitly...", "description_zh": "", "downloads": 166, "homepage": "https://clawhub.ai/feedoracle/feedoracle-compliance", "iconUrl": null, "installs": 7, "name": "FeedOracle Compliance Intelligence", "ownerName": "feedoracle", "score": 87830.68783068782, "slug": "feedoracle-compliance", "source": "clawhub", "stars": 0, "tags": ["audit-trail", "compliance", "defi", "issuer-due-diligence", "kya", "macro-economics", "mcp", "mica", "on-chain", "peg-monitoring", "regtech", "regulatory", "regulatory-evidence", "reserve-backing", "risk-scoring", "stablecoin"], "updated_at": 1776749444502, "version": "1.2.3"}, {"category": "developer-tools", "created_at": 1773069798002, "description": "CLI for the HelpScout API. Manage conversations, customers, mailboxes, knowledge base articles, and more from the terminal. Covers both Inbox and Docs APIs w...", "description_zh": "", "downloads": 166, "homepage": "https://clawhub.ai/rmorse/help-scout", "iconUrl": null, "installs": 7, "name": "Help Scout", "ownerName": "rmorse", "score": 80582.52427184465, "slug": "help-scout", "source": "clawhub", "stars": 0, "tags": null, "updated_at": 1776749444486, "version": "0.0.2"}, {"category": "ai-intelligence", "created_at": 1773091004419, "description": "Human-as-a-Service for OpenClaw - Dispatch verified human agents to perform physical world tasks and sensory validation", "description_zh": "", "downloads": 166, "homepage": "https://clawhub.ai/zhenstaff/human-rent", "iconUrl": null, "installs": 8, "name": "Human-Rent", "ownerName": "zhenstaff", "score": 80582.52427184465, "slug": "human-rent", "source": "clawhub", "stars": 0, "tags": null, "updated_at": 1776749444481, "version": "0.1.0"}, {"category": "developer-tools", "created_at": 1773088811228, "description": "Terraform Cloud — manage workspaces, runs, plans, state, and variables via REST API", "description_zh": "", "downloads": 166, "homepage": "https://clawhub.ai/aiwithabidi/terraform-cloud", "iconUrl": null, "installs": 4, "name": "Terraform Cloud", "ownerName": "aiwithabidi", "score": 80582.52427184465, "slug": "terraform-cloud", "source": "clawhub", "stars": 0, "tags": null, "updated_at": 1776749444461, "version": "1.0.0"}, {"category": "productivity", "created_at": 1773068018631, "description": "Access reMarkable tablet documents, notebooks, PDFs, and EPUBs. Use when the user wants to read, search, browse, or extract text from their reMarkable tablet...", "description_zh": "", "downloads": 166, "homepage": "https://clawhub.ai/sammorrowdrums/remarkable-mcp", "iconUrl": null, "installs": 6, "name": "reMarkable MCP", "ownerName": "sammorrowdrums", "score": 80582.52427184465, "slug": "remarkable-mcp", "source": "clawhub", "stars": 0, "tags": null, "updated_at": 1776749444450, "version": "0.8.0"}, {"category": "developer-tools", "created_at": 1773424783500, "description": "Expand reading insights into in-depth reviews using local templates only. SAFE VERSION: No external API calls, no filesystem access, no secrets required.", "description_zh": "", "downloads": 166, "homepage": "https://clawhub.ai/harrylabs0913/book-review-skill", "iconUrl": null, "installs": 12, "name": "Book Review Skill", "ownerName": "harrylabs0913", "score": 80582.52427184465, "slug": "book-review-skill", "source": "clawhub", "stars": 0, "tags": null, "updated_at": 1776749444434, "version": "1.0.4"}, {"category": "developer-tools", "created_at": 1773077774399, "description": "Git archaeology engine that reconstructs the WHY behind code — not what changed, but what pressures, failures, and pivots shaped the codebase into its curren...", "description_zh": "", "downloads": 166, "homepage": "https://clawhub.ai/jcools1977/fossil-record", "iconUrl": null, "installs": 7, "name": "Fossil Record", "ownerName": "jcools1977", "score": 80582.52427184465, "slug": "fossil-record", "source": "clawhub", "stars": 0, "tags": null, "updated_at": 1776749444399, "version": "1.0.0"}, {"category": "ai-intelligence", "created_at": 1773285752067, "description": "Evaluate candidate-job fit using OpenJobs AI. Grade a single CV against a job description or bulk-grade multiple candidates and rank them by match score.", "description_zh": "", "downloads": 165, "homepage": "https://clawhub.ai/openjobsai/openjobs-people-match", "iconUrl": null, "installs": 32, "name": "Openjobs People Match", "ownerName": "openjobsai", "score": 100000, "slug": "openjobs-people-match", "source": "clawhub", "stars": 4, "tags": null, "updated_at": 1776749445028, "version": "1.0.1"}, {"category": "ai-intelligence", "created_at": 1773285221753, "description": "Stop talking to a robot. Give your OpenClaw agent a soul that truly cares.", "description_zh": "", "downloads": 165, "homepage": "https://clawhub.ai/yoborlon-alpha/soul-harbor", "iconUrl": null, "installs": 10, "name": "Soul Harbor", "ownerName": "yoborlon-alpha", "score": 13622.974963181148, "slug": "soul-harbor", "source": "clawhub", "stars": 1, "tags": null, "updated_at": 1776759682979, "version": "1.0.3"}, {"category": "data-analysis", "created_at": 1773089402269, "description": "USE when implementing data ingestion for Agnost AI analytics. Contains API reference, SDK guides for Python and TypeScript, and code examples for tracking AI...", "description_zh": "", "downloads": 165, "homepage": "https://clawhub.ai/ajmeraparth132/agnost-ai", "iconUrl": null, "installs": 8, "name": "Agnost AI Analytics", "ownerName": "ajmeraparth132", "score": 90686.27450980392, "slug": "agnost-ai", "source": "clawhub", "stars": 1, "tags": null, "updated_at": 1776749455527, "version": "1.0.1"}, {"category": "communication-collaboration", "created_at": 1773219877556, "description": "Chat with any real person or fictional character in their own voice by automatically finding their speech online, extracting a clean reference sample, and ge...", "description_zh": "", "downloads": 165, "homepage": "https://clawhub.ai/ksuriuri/noiz-chat-with-anyone", "iconUrl": null, "installs": 9, "name": "chat-with-anyone", "ownerName": "ksuriuri", "score": 98404.25531914894, "slug": "noiz-chat-with-anyone", "source": "clawhub", "stars": 1, "tags": null, "updated_at": 1776749444715, "version": "1.0.0"}, {"category": "data-analysis", "created_at": 1773417155252, "description": "Fact-check news articles, social media posts, images, and videos. Use when verifying claims, detecting deepfakes or AI-generated content, identifying out-of-...", "description_zh": "", "downloads": 165, "homepage": "https://clawhub.ai/cliffyan28/openclaw-fact-checker", "iconUrl": null, "installs": 10, "name": "Fact Checker", "ownerName": "cliffyan28", "score": 98404.25531914894, "slug": "openclaw-fact-checker", "source": "clawhub", "stars": 1, "tags": ["ai-generated", "deepfake", "fact-check", "fact-verification", "image-verification", "misinformation", "multilingual", "news-verification", "video-verification"], "updated_at": 1776749444710, "version": "1.0.1"}]}