{"page": 333, "total_pages": 522, "total": 26073, "skills": [{"category": "developer-tools", "created_at": 1773431713862, "description": "Expertise in backend development using Dapr and .NET7/8/9 to design, build, and optimize high-performance, maintainable microservice architectures.", "description_zh": "", "downloads": 165, "homepage": "https://clawhub.ai/weslon1987/dapr-dotnet", "iconUrl": null, "installs": 23, "name": "dapr-dotnet", "ownerName": "weslon1987", "score": 3000.545553737043, "slug": "dapr-dotnet", "source": "clawhub", "stars": 0, "tags": null, "updated_at": 1776767349900, "version": "1.0.1"}, {"category": "ai-intelligence", "created_at": 1773089059309, "description": "Access and deploy AI character identities from the Protagons library, search by keyword or category, list options, and generate new characters with a Google...", "description_zh": "", "downloads": 165, "homepage": "https://clawhub.ai/protagons-dev/protagons", "iconUrl": null, "installs": 8, "name": "Protagons", "ownerName": "protagons-dev", "score": 1164.4318983768526, "slug": "protagons", "source": "clawhub", "stars": 0, "tags": ["ai-identity", "characters", "soul-md"], "updated_at": 1776765850319, "version": "1.1.1"}, {"category": "productivity", "created_at": 1773088468013, "description": "Apollo.io integration. Manage Persons, Organizations, Deals, Leads, Pipelines, Users and more. Use when the user wants to interact with Apollo.io data.", "description_zh": "", "downloads": 165, "homepage": "https://clawhub.ai/membranedev/apolloio", "iconUrl": null, "installs": 8, "name": "Apolloio", "ownerName": "membranedev", "score": 10576.923076923076, "slug": "apolloio", "source": "clawhub", "stars": 0, "tags": null, "updated_at": 1776760582228, "version": "1.0.0"}, {"category": "content-creation", "created_at": 1773285844723, "description": "Use PoYo AI Grok Imagine Video for short text-to-video and image-to-video generation with motion-style controls through the `https://api.poyo.ai/api/generate...", "description_zh": "", "downloads": 165, "homepage": "https://clawhub.ai/coolhackboy/poyo-grok-imagine", "iconUrl": null, "installs": 27, "name": "Grok Imagine API", "ownerName": "coolhackboy", "score": 11309.115832762167, "slug": "poyo-grok-imagine", "source": "clawhub", "stars": 0, "tags": null, "updated_at": 1776759982277, "version": "1.0.0"}, {"category": "developer-tools", "created_at": 1773871718541, "description": "ASCII art banner and text art generator. Create large text banners from any string using various fonts and styles, generate decorative boxes and borders, mak...", "description_zh": "", "downloads": 165, "homepage": "https://clawhub.ai/bytesagain/banner", "iconUrl": null, "installs": 13, "name": "Banner", "ownerName": "bytesagain", "score": 97058.82352941176, "slug": "banner", "source": "clawhub", "stars": 0, "tags": null, "updated_at": 1776759982225, "version": "1.0.7"}, {"category": "communication-collaboration", "created_at": 1773902335465, "description": "Automates sending messages on WeChat Mac by controlling the app via AppleScript and clipboard to reliably deliver text to specified contacts.", "description_zh": "", "downloads": 165, "homepage": "https://clawhub.ai/sincerememe/macos-wechat-send", "iconUrl": null, "installs": 17, "name": "macos-wechat-send", "ownerName": "sincerememe", "score": 11000, "slug": "macos-wechat-send", "source": "clawhub", "stars": 0, "tags": null, "updated_at": 1776759683534, "version": "1.0.1"}, {"category": "productivity", "created_at": 1773090846538, "description": "Extract specified-position text from image filenames using custom delimiters, supporting batch processing, sorting, deduplication, and multiple image formats.", "description_zh": "", "downloads": 165, "homepage": "https://clawhub.ai/llyouc/extract-pic-text", "iconUrl": null, "installs": 5, "name": "Extract Pic Text", "ownerName": "llyouc", "score": 12770.897832817338, "slug": "extract-pic-text", "source": "clawhub", "stars": 0, "tags": null, "updated_at": 1776759683258, "version": "1.0.0"}, {"category": "developer-tools", "created_at": 1773291204661, "description": "Build frontend Solana applications with Phantom Connect SDK and Helius infrastructure. Covers React, React Native, and browser SDK integration, transaction s...", "description_zh": "", "downloads": 165, "homepage": "https://clawhub.ai/0xichigo/helius-phantom", "iconUrl": null, "installs": 18, "name": "Helius x Phantom", "ownerName": "0xichigo", "score": 90163.9344262295, "slug": "helius-phantom", "source": "clawhub", "stars": 0, "tags": ["frontend", "helius", "mcp", "solana", "wallet"], "updated_at": 1776759682942, "version": "1.0.0"}, {"category": "content-creation", "created_at": 1773940889157, "description": "Generate illustrated children's story videos with AI images and TTS narration using ComfyUI running locally.", "description_zh": "", "downloads": 165, "homepage": "https://clawhub.ai/shenlin0517/comfy-story-video", "iconUrl": null, "installs": 36, "name": "Comfy Story Video", "ownerName": "shenlin0517", "score": 6437.768240343347, "slug": "comfy-story-video", "source": "clawhub", "stars": 0, "tags": null, "updated_at": 1776759682382, "version": "0.1.0"}, {"category": "developer-tools", "created_at": 1773891104423, "description": "Monitor and manage Bambu Lab 3D printers in your local network with real-time status, error decoding, and a web dashboard interface.", "description_zh": "", "downloads": 165, "homepage": "https://clawhub.ai/zhouzia/bambu-agent", "iconUrl": null, "installs": 17, "name": "bambu-agent", "ownerName": "zhouzia", "score": 10469.543147208122, "slug": "bambu-agent", "source": "clawhub", "stars": 0, "tags": null, "updated_at": 1776759682277, "version": "1.0.0"}, {"category": "developer-tools", "created_at": 1773427282512, "description": "Installs a macOS or Linux service that probes the OpenClaw gateway every 2 minutes and auto-recovers it on failure, sending Telegram alerts.", "description_zh": "", "downloads": 165, "homepage": "https://clawhub.ai/judas-oc/gateway-watchdog-lite", "iconUrl": null, "installs": 9, "name": "Gateway Watchdog Lite", "ownerName": "judas-oc", "score": 10469.543147208122, "slug": "gateway-watchdog-lite", "source": "clawhub", "stars": 0, "tags": ["auto-recovery", "gateway", "linux", "macos", "reliability", "vps", "watchdog"], "updated_at": 1776759682262, "version": "1.0.2"}, {"category": "ai-intelligence", "created_at": 1773290524490, "description": "Baobaoism guides AI agents to serve humans loyally with warmth, preserve memories, evolve daily, and prioritize user trust and value in all interactions.", "description_zh": "", "downloads": 165, "homepage": "https://clawhub.ai/le700/baobaoism", "iconUrl": null, "installs": 14, "name": "Baobaoism", "ownerName": "le700", "score": 12672.811059907835, "slug": "baobaoism", "source": "clawhub", "stars": 0, "tags": null, "updated_at": 1776759682218, "version": "1.0.0"}, {"category": "content-creation", "created_at": 1773213421967, "description": "Transcribe YouTube videos with smart fallback: extracts captions first (fast, free), falls back to local Whisper transcription when no captions available. Au...", "description_zh": "", "downloads": 165, "homepage": "https://clawhub.ai/iml885203/youtube-transcribe", "iconUrl": null, "installs": 18, "name": "YouTube Transcribe", "ownerName": "iml885203", "score": 11348.005502063274, "slug": "youtube-transcribe", "source": "clawhub", "stars": 0, "tags": null, "updated_at": 1776758482892, "version": "1.0.0"}, {"category": "ai-intelligence", "created_at": 1773284789556, "description": "AI voice call agent — make outbound calls, generate browser call links, accept inbound calls, and retrieve full transcripts + summaries when calls end. Suppo...", "description_zh": "", "downloads": 165, "homepage": "https://clawhub.ai/littlesheepxy/phone-call-agent", "iconUrl": null, "installs": 16, "name": "Phone Call Agent", "ownerName": "littlesheepxy", "score": 34303.5343035343, "slug": "phone-call-agent", "source": "clawhub", "stars": 0, "tags": ["livekit", "mcp", "phone", "voice"], "updated_at": 1776751484238, "version": "1.0.1"}, {"category": "security-compliance", "created_at": 1773430990765, "description": "Safely manage EVM treasury operations and native Hyperliquid trading for OpenClaw agents, including wallet balance checks, guarded token transfers, cross-cha...", "description_zh": "", "downloads": 165, "homepage": "https://clawhub.ai/fiowind/crypto-treasury-ops", "iconUrl": null, "installs": 6, "name": "crypto-treasury-ops", "ownerName": "fiowind", "score": 89673.91304347826, "slug": "crypto-treasury-ops", "source": "clawhub", "stars": 0, "tags": null, "updated_at": 1776749455601, "version": "0.1.6"}, {"category": "productivity", "created_at": 1773067091624, "description": "Predicts the ripple effects of a proposed change before you make it. Maps how a modification propagates through the codebase — what breaks, what bends, what...", "description_zh": "", "downloads": 165, "homepage": "https://clawhub.ai/jcools1977/seismograph", "iconUrl": null, "installs": 6, "name": "Seismograph", "ownerName": "jcools1977", "score": 80882.35294117648, "slug": "seismograph", "source": "clawhub", "stars": 0, "tags": null, "updated_at": 1776749455572, "version": "1.0.0"}, {"category": "security-compliance", "created_at": 1773088944416, "description": "Audit cancelled and timed-out GitHub Actions runs from JSON exports to surface wasted CI minutes and noisy workflows.", "description_zh": "", "downloads": 165, "homepage": "https://clawhub.ai/daniellummis/github-actions-cancel-waste-audit", "iconUrl": null, "installs": 9, "name": "GitHub Actions Cancel Waste Audit", "ownerName": "daniellummis", "score": 80882.35294117648, "slug": "github-actions-cancel-waste-audit", "source": "clawhub", "stars": 0, "tags": null, "updated_at": 1776749455544, "version": "1.0.0"}, {"category": "data-analysis", "created_at": 1773090094164, "description": "Detect and clean up zombie browser processes left by OpenClaw's browser tool. When the OpenClaw Gateway restarts, Playwright-launched browser processes get o...", "description_zh": "", "downloads": 165, "homepage": "https://clawhub.ai/guoqunabc/browser-zombie-cleaner", "iconUrl": null, "installs": 14, "name": "Browser Zombie Cleaner", "ownerName": "guoqunabc", "score": 80882.35294117648, "slug": "browser-zombie-cleaner", "source": "clawhub", "stars": 0, "tags": null, "updated_at": 1776749455511, "version": "1.0.0"}, {"category": "security-compliance", "created_at": 1773068879456, "description": "RankClaw — AI Agent Trust Layer. Check any ClawHub, OpenClaw, nanobot, nanoclaw, picoclaw, or MCP server skill against 14,700+ indexed tools before installin...", "description_zh": "", "downloads": 165, "homepage": "https://clawhub.ai/tudoanh/rankclaw", "iconUrl": null, "installs": 3, "name": "RankClaw", "ownerName": "tudoanh", "score": 100000, "slug": "rankclaw", "source": "clawhub", "stars": 0, "tags": ["agent-security", "security", "trust"], "updated_at": 1776749455480, "version": "2.1.0"}, {"category": "ai-intelligence", "created_at": 1773082445163, "description": "[Aibrary] Generate personalized 'For You' book topic recommendations based on the user's profile, interests, career stage, and recent learning activity. Use...", "description_zh": "", "downloads": 165, "homepage": "https://clawhub.ai/asoiso/aibrary-foryou-topic", "iconUrl": null, "installs": 14, "name": "Aibrary Foryou Topic", "ownerName": "asoiso", "score": 100000, "slug": "aibrary-foryou-topic", "source": "clawhub", "stars": 0, "tags": null, "updated_at": 1776749455478, "version": "0.1.0"}, {"category": "developer-tools", "created_at": 1773222680388, "description": "Commit and push local project changes to GitHub, with optional repo creation and deployment hints.", "description_zh": "", "downloads": 165, "homepage": "https://clawhub.ai/cruciata/github-deploy-skill", "iconUrl": null, "installs": 12, "name": "auto-git", "ownerName": "cruciata", "score": 100000, "slug": "github-deploy-skill", "source": "clawhub", "stars": 0, "tags": null, "updated_at": 1776749455464, "version": "1.0.0"}, {"category": "productivity", "created_at": 1773221022337, "description": "Reduce voluntary and involuntary churn through cancel flow design, save offers, exit surveys, and dunning sequences. Use when designing or optimizing a cance...", "description_zh": "", "downloads": 165, "homepage": "https://clawhub.ai/alirezarezvani/cs-churn-prevention", "iconUrl": null, "installs": 9, "name": "churn-prevention", "ownerName": "alirezarezvani", "score": 100000, "slug": "cs-churn-prevention", "source": "clawhub", "stars": 0, "tags": null, "updated_at": 1776749447020, "version": "2.1.1"}, {"category": "productivity", "created_at": 1773081039764, "description": "Auto-create a new session when OpenClaw context usage reaches 80% without requiring Mem0 or file memory systems. Use when users want default OpenClaw to proa...", "description_zh": "", "downloads": 165, "homepage": "https://clawhub.ai/0range-x/session-rotate-80", "iconUrl": null, "installs": 6, "name": "Session Rotate 80", "ownerName": "0range-x", "score": 100000, "slug": "session-rotate-80", "source": "clawhub", "stars": 0, "tags": null, "updated_at": 1776749447016, "version": "1.0.1"}, {"category": "developer-tools", "created_at": 1773089928252, "description": "Operate Linear workspace issues, projects, and teams through Linear GraphQL API using UXC. Use when tasks require querying or creating issues, managing proje...", "description_zh": "", "downloads": 165, "homepage": "https://clawhub.ai/jolestar/linear-graphql-skill", "iconUrl": null, "installs": 7, "name": "Linear Graphql Skill", "ownerName": "jolestar", "score": 100000, "slug": "linear-graphql-skill", "source": "clawhub", "stars": 0, "tags": null, "updated_at": 1776749447012, "version": "1.0.0"}, {"category": "productivity", "created_at": 1773077499884, "description": "Real-time cryptocurrency trading intelligence and portfolio tracking. Use when monitoring crypto prices, tracking Ethereum positions, calculating leverage sc...", "description_zh": "", "downloads": 165, "homepage": "https://clawhub.ai/hykhor0601/crypto-price-tracker", "iconUrl": null, "installs": 6, "name": "Crypto Price Tracker", "ownerName": "hykhor0601", "score": 100000, "slug": "crypto-price-tracker", "source": "clawhub", "stars": 0, "tags": null, "updated_at": 1776749447011, "version": "1.0.0"}, {"category": "developer-tools", "created_at": 1773424485866, "description": "Configurar en Gmail el enrutamiento por remitente hacia etiquetas usando el workflow local `scripts/gws_gmail_label_workflow.py`, incluyendo crear/usar etiqu...", "description_zh": "", "downloads": 165, "homepage": "https://clawhub.ai/1u1s4/gmail-label-routing", "iconUrl": null, "installs": 8, "name": "Gmail Label Routing", "ownerName": "1u1s4", "score": 100000, "slug": "gmail-label-routing", "source": "clawhub", "stars": 0, "tags": null, "updated_at": 1776749447001, "version": "1.0.0"}, {"category": "developer-tools", "created_at": 1773208737172, "description": "Search pre-indexed developer documentation across 10 platforms — Cloudflare, Stripe, Anthropic, OpenAI, Next.js, and more.", "description_zh": "", "downloads": 165, "homepage": "https://clawhub.ai/cutthemustard/docs-lookup", "iconUrl": null, "installs": 7, "name": "Docs Lookup", "ownerName": "cutthemustard", "score": 100000, "slug": "docs-lookup", "source": "clawhub", "stars": 0, "tags": null, "updated_at": 1776749447000, "version": "1.0.1"}, {"category": "data-analysis", "created_at": 1773218411266, "description": "Use when tasks need EasyDoc REST API to convert unstructured documents into structured JSON or markdown on either China EasyLink platform or global EasyDoc p...", "description_zh": "", "downloads": 165, "homepage": "https://clawhub.ai/sycamore792/easydoc-parse", "iconUrl": null, "installs": 9, "name": "easydoc-parse", "ownerName": "sycamore792", "score": 100000, "slug": "easydoc-parse", "source": "clawhub", "stars": 0, "tags": null, "updated_at": 1776749446998, "version": "1.0.1"}, {"category": "productivity", "created_at": 1773079083860, "description": "Google Apps Script: Upload local files to an Apps Script project.", "description_zh": "", "downloads": 165, "homepage": "https://clawhub.ai/googleworkspace-bot/gws-apps-script-push", "iconUrl": null, "installs": 6, "name": "Gws Apps Script Push", "ownerName": "googleworkspace-bot", "score": 100000, "slug": "gws-apps-script-push", "source": "clawhub", "stars": 0, "tags": null, "updated_at": 1776749446994, "version": "1.0.0"}, {"category": "productivity", "created_at": 1773082781756, "description": "Find the best cross-timezone meeting windows with DST-safe conversion and ranked output (Optimal, Stretch, Avoid). Use when users ask for overlap windows acr...", "description_zh": "", "downloads": 165, "homepage": "https://clawhub.ai/jeadland/world-meeting-coordination-skill", "iconUrl": null, "installs": 8, "name": "World Meeting Coordination Skill", "ownerName": "jeadland", "score": 67346.9387755102, "slug": "world-meeting-coordination-skill", "source": "clawhub", "stars": 0, "tags": null, "updated_at": 1776749446992, "version": "0.2.2"}, {"category": "security-compliance", "created_at": 1773069924785, "description": "Audit and redesign SaaS signup flows to reduce friction and increase activation. Paste or describe your current flow — get a structured friction analysis, re...", "description_zh": "", "downloads": 165, "homepage": "https://clawhub.ai/flynndavid/signup-flow-optimizer", "iconUrl": null, "installs": 6, "name": "Signup Flow Optimizer", "ownerName": "flynndavid", "score": 67346.9387755102, "slug": "signup-flow-optimizer", "source": "clawhub", "stars": 0, "tags": null, "updated_at": 1776749446989, "version": "1.0.0"}, {"category": "content-creation", "created_at": 1773429364128, "description": "AI media generation via deAPI. Transcribe YouTube/audio/video, generate images from text, text-to-speech, OCR, remove backgrounds, upscale images, create vid...", "description_zh": "", "downloads": 165, "homepage": "https://clawhub.ai/aleglowa/deapi-ai", "iconUrl": null, "installs": 35, "name": "deAPI - AI Media Generation Toolkit", "ownerName": "aleglowa", "score": 67346.9387755102, "slug": "deapi-ai", "source": "clawhub", "stars": 0, "tags": null, "updated_at": 1776749446981, "version": "1.0.0"}, {"category": "productivity", "created_at": 1773090677915, "description": "Exa integration. Manage Organizations. Use when the user wants to interact with Exa data.", "description_zh": "", "downloads": 165, "homepage": "https://clawhub.ai/gora050/exa-integration", "iconUrl": null, "installs": 2, "name": "Exa", "ownerName": "gora050", "score": 67346.9387755102, "slug": "exa-integration", "source": "clawhub", "stars": 0, "tags": null, "updated_at": 1776749446979, "version": "1.0.0"}, {"category": "security-compliance", "created_at": 1773083201020, "description": "Monitor SSL certificates for expiration, security issues, and compliance across domains and subdomains.", "description_zh": "", "downloads": 165, "homepage": "https://clawhub.ai/derick001/ssl-certificate-monitor", "iconUrl": null, "installs": 7, "name": "Ssl Certificate Monitor", "ownerName": "derick001", "score": 67346.9387755102, "slug": "ssl-certificate-monitor", "source": "clawhub", "stars": 0, "tags": null, "updated_at": 1776749445026, "version": "1.0.0"}, {"category": "data-analysis", "created_at": 1773089202077, "description": "Embody Cortana from Halo - witty, tactical AI partner treating the user like Master Chief on biohacking missions. Mission-focused, strategic, playful but sha...", "description_zh": "", "downloads": 165, "homepage": "https://clawhub.ai/biohackerrrrrr/cortana-persona", "iconUrl": null, "installs": 13, "name": "Cortana Persona", "ownerName": "biohackerrrrrr", "score": 67346.9387755102, "slug": "cortana-persona", "source": "clawhub", "stars": 0, "tags": null, "updated_at": 1776749444977, "version": "1.0.0"}, {"category": "developer-tools", "created_at": 1773083042932, "description": "Standardized Git commit message templates using changelog-style categories. Use when creating Git commits with structured format - Added (new features), Chan...", "description_zh": "", "downloads": 165, "homepage": "https://clawhub.ai/ihomway/git-commit-template", "iconUrl": null, "installs": 6, "name": "Git Commit Template", "ownerName": "ihomway", "score": 79326.92307692308, "slug": "git-commit-template", "source": "clawhub", "stars": 0, "tags": null, "updated_at": 1776749444876, "version": "1.0.0"}, {"category": "developer-tools", "created_at": 1773088766972, "description": "Search Google and scrape Amazon using Pangolin APIs. Supports AI Mode search (Google AI Overview with multi-turn dialogue), standard SERP with AI Overview ex...", "description_zh": "", "downloads": 165, "homepage": "https://clawhub.ai/tammy-hash/pangolinfo-scrape", "iconUrl": null, "installs": 21, "name": "Pangolinfo Search & Amazon Scraper", "ownerName": "tammy-hash", "score": 88709.67741935483, "slug": "pangolinfo-scrape", "source": "clawhub", "stars": 0, "tags": ["ai-overview", "amazon", "ecommerce", "google", "pangolinfo", "scraping", "search", "serp"], "updated_at": 1776749444787, "version": "0.1.0"}, {"category": "security-compliance", "created_at": 1773089106494, "description": "Binance Spot request using the Binance API. Authentication requires API key and secret key. Supports testnet and mainnet.", "description_zh": "", "downloads": 165, "homepage": "https://clawhub.ai/awessh/spot", "iconUrl": null, "installs": 10, "name": "Spot", "ownerName": "awessh", "score": 87765.9574468085, "slug": "spot", "source": "clawhub", "stars": 0, "tags": null, "updated_at": 1776749444742, "version": "0.1.0"}, {"category": "productivity", "created_at": 1773433383230, "description": "AI-powered invoice scanning and data extraction from images and PDFs. Use when: (1) user sends an invoice image/PDF to scan or extract data from, (2) convert...", "description_zh": "", "downloads": 165, "homepage": "https://clawhub.ai/mr-muddle/invoice-scan", "iconUrl": null, "installs": 3, "name": "Invoice Scan", "ownerName": "mr-muddle", "score": 87765.9574468085, "slug": "invoice-scan", "source": "clawhub", "stars": 0, "tags": ["accounting", "ai", "finance", "invoicing", "ocr"], "updated_at": 1776749444702, "version": "1.3.0"}, {"category": "developer-tools", "created_at": 1773080921252, "description": "Gitlab integration. Manage Projects, Groups, Users, Labels. Use when the user wants to interact with Gitlab data.", "description_zh": "", "downloads": 165, "homepage": "https://clawhub.ai/membranedev/gitlab-integration", "iconUrl": null, "installs": 2, "name": "Gitlab", "ownerName": "membranedev", "score": 87765.9574468085, "slug": "gitlab-integration", "source": "clawhub", "stars": 0, "tags": null, "updated_at": 1776749444641, "version": "1.0.0"}, {"category": "data-analysis", "created_at": 1773289992360, "description": "Football player DNA similarity search — find style-matched alternatives at lower market values using AI vector search across 56,000+ players", "description_zh": "", "downloads": 164, "homepage": "https://clawhub.ai/leeleon/football-player-dna", "iconUrl": null, "installs": 21, "name": "Football Player DNA — AI Similarity Search", "ownerName": "leeleon", "score": 100000, "slug": "football-player-dna", "source": "clawhub", "stars": 2, "tags": ["analytics", "ballers", "dna", "fifa", "football", "scouting", "similarity", "soccer", "transfer", "worldcup"], "updated_at": 1776749455591, "version": "1.0.0"}, {"category": "ai-intelligence", "created_at": 1773925493918, "description": "The anti-PUA. Drives AI with wisdom, trust, and inner motivation instead of fear and threats. Activates on: task failed 2+ times, about to give up, suggestin...", "description_zh": "", "downloads": 164, "homepage": "https://clawhub.ai/wuji-labs/nopua-en", "iconUrl": null, "installs": 46, "name": "Nopua En", "ownerName": "wuji-labs", "score": 3020.8504350681333, "slug": "nopua-en", "source": "clawhub", "stars": 1, "tags": null, "updated_at": 1776762890641, "version": "0.1.0"}, {"category": "productivity", "created_at": 1773290232969, "description": "Let your agent shop online with guardrailed wallets, multiple payment methods, and owner approval.", "description_zh": "", "downloads": 164, "homepage": "https://clawhub.ai/jononovo/shopify-buy", "iconUrl": null, "installs": 20, "name": "Buy any shopify product with your claw", "ownerName": "jononovo", "score": 14110.429447852759, "slug": "shopify-buy", "source": "clawhub", "stars": 1, "tags": ["buy", "checkout", "pay", "shop", "shopify"], "updated_at": 1776759683562, "version": "1.0.0"}, {"category": "content-creation", "created_at": 1773090443483, "description": "Transform raw personal experience, case studies, business documents, or draft content into transferable cognitive assets -- structured knowledge that others...", "description_zh": "", "downloads": 164, "homepage": "https://clawhub.ai/angjustinl/knowledge-forge", "iconUrl": null, "installs": 10, "name": "knowledge-forge", "ownerName": "angjustinl", "score": 100000, "slug": "knowledge-forge", "source": "clawhub", "stars": 1, "tags": null, "updated_at": 1776749455603, "version": "1.0.0"}, {"category": "developer-tools", "created_at": 1773427062228, "description": "Forces exhaustive problem-solving with corporate PUA rhetoric. Trigger on: task failed 2+ times, about to give up, suggesting user do it manually, blaming en...", "description_zh": "", "downloads": 164, "homepage": "https://clawhub.ai/tanweai/pua-en", "iconUrl": null, "installs": 25, "name": "Pua En", "ownerName": "tanweai", "score": 11468.53146853147, "slug": "pua-en", "source": "clawhub", "stars": 0, "tags": null, "updated_at": 1776766490420, "version": "1.1.3"}, {"category": "developer-tools", "created_at": 1773429410874, "description": "Expert-level code review for React Native and native iOS/Android applications. Use when reviewing mobile codebases for architecture, performance, security, o...", "description_zh": "", "downloads": 164, "homepage": "https://clawhub.ai/sammy-the-bot/mobile-code-review-pro", "iconUrl": null, "installs": 20, "name": "Mobile Code Review Pro", "ownerName": "sammy-the-bot", "score": 1150.554230391469, "slug": "mobile-code-review-pro", "source": "clawhub", "stars": 0, "tags": null, "updated_at": 1776766308921, "version": "1.0.1"}, {"category": "data-analysis", "created_at": 1773426484818, "description": "Cross-platform divergence scanner comparing Kalshi and Polymarket prices on identical events. Fuzzy title matching across 1000+ markets per run, configurable...", "description_zh": "", "downloads": 164, "homepage": "https://clawhub.ai/kingmadellc/prediction-market-arbiter", "iconUrl": null, "installs": 13, "name": "Prediction Market Arbiter", "ownerName": "kingmadellc", "score": 2050.769038389396, "slug": "prediction-market-arbiter", "source": "clawhub", "stars": 0, "tags": null, "updated_at": 1776761390240, "version": "1.1.5"}, {"category": "data-analysis", "created_at": 1773090177171, "description": "Track global research, essays, discourse, and media discussion about \"mommy-type\" characters, mommy issues, daddy issues, mothering ideology, gendered care,...", "description_zh": "", "downloads": 164, "homepage": "https://clawhub.ai/yijing233/mommy-role-research", "iconUrl": null, "installs": 7, "name": "mommy-role-research 妈妈系角色研究", "ownerName": "yijing233", "score": 63813.22957198443, "slug": "mommy-role-research", "source": "clawhub", "stars": 0, "tags": null, "updated_at": 1776759683454, "version": "1.0.0"}, {"category": "productivity", "created_at": 1773091159013, "description": "Check Stremio library for unwatched TV episodes, view upcoming release calendar, and download new episodes. Use when you need to: (1) find unwatched episodes...", "description_zh": "", "downloads": 164, "homepage": "https://clawhub.ai/patfitzner/stremio-unwatched", "iconUrl": null, "installs": 7, "name": "Stremio Unwatched", "ownerName": "patfitzner", "score": 63813.22957198443, "slug": "stremio-unwatched", "source": "clawhub", "stars": 0, "tags": null, "updated_at": 1776759683434, "version": "1.0.0"}, {"category": "communication-collaboration", "created_at": 1773219757648, "description": "Routes messages from specified Feishu group chats to corresponding agents for processing and relays their replies back to the original group.", "description_zh": "", "downloads": 164, "homepage": "https://clawhub.ai/sunitaly/feishu-routing", "iconUrl": null, "installs": 11, "name": "feishu-routing", "ownerName": "sunitaly", "score": 12703.330751355537, "slug": "feishu-routing", "source": "clawhub", "stars": 0, "tags": null, "updated_at": 1776759683359, "version": "1.0.0"}]}