{"page": 334, "total_pages": 522, "total": 26073, "skills": [{"category": "", "created_at": 1774848562450, "description": "Provides curated prompts and agent skills to assist with academic research writing, translation, polishing, logic checking, and LaTeX paper tasks.", "description_zh": "", "downloads": 164, "homepage": "https://clawhub.ai/adisinghstudent/awesome-ai-research-writing", "iconUrl": null, "installs": 48, "name": "awesome-ai-research-writing", "ownerName": "adisinghstudent", "score": 11310.344827586207, "slug": "awesome-ai-research-writing", "source": "clawhub", "stars": 0, "tags": null, "updated_at": 1776759683272, "version": "1.0.0"}, {"category": "data-analysis", "created_at": 1773080430147, "description": "Retrieve detailed historical OHLCV price data and trend analysis for any Polymarket prediction market across various time frames.", "description_zh": "", "downloads": 164, "homepage": "https://clawhub.ai/mosonchan2023/polymarket-historical-prices", "iconUrl": null, "installs": 17, "name": "Polymarket Historical Prices", "ownerName": "mosonchan2023", "score": 12634.82280431433, "slug": "polymarket-historical-prices", "source": "clawhub", "stars": 0, "tags": null, "updated_at": 1776759683091, "version": "1.0.1"}, {"category": "developer-tools", "created_at": 1773081945421, "description": "Search Polymarket prediction markets by keyword, category, or status with filters for Politics, Sports, Crypto, Science, and market status.", "description_zh": "", "downloads": 164, "homepage": "https://clawhub.ai/mosonchan2023/polymarket-market-search", "iconUrl": null, "installs": 22, "name": "Polymarket Market Search", "ownerName": "mosonchan2023", "score": 89617.48633879781, "slug": "polymarket-market-search", "source": "clawhub", "stars": 0, "tags": null, "updated_at": 1776759682919, "version": "1.0.1"}, {"category": "productivity", "created_at": 1773080991475, "description": "Identify and reduce GCP networking and egress costs across projects and regions", "description_zh": "", "downloads": 164, "homepage": "https://clawhub.ai/anmolnagpal/networking-optimizer", "iconUrl": null, "installs": 5, "name": "Networking Optimizer", "ownerName": "anmolnagpal", "score": 9704.14201183432, "slug": "networking-optimizer", "source": "clawhub", "stars": 0, "tags": null, "updated_at": 1776756227191, "version": "1.0.0"}, {"category": "content-creation", "created_at": 1773889814972, "description": "Creating algorithmic art using p5.js with seeded randomness and interactive parameter exploration. Use this when users request creating art using code, gener...", "description_zh": "", "downloads": 164, "homepage": "https://clawhub.ai/pupuking723/algorithmic-art-anthropic", "iconUrl": null, "installs": 17, "name": "Algorithmic Art Anthropic", "ownerName": "pupuking723", "score": 8303.79746835443, "slug": "algorithmic-art-anthropic", "source": "clawhub", "stars": 0, "tags": null, "updated_at": 1776753715985, "version": "1.0.0"}, {"category": "content-creation", "created_at": 1773090566703, "description": "Detect and route to the correct visual content type (hero shot, poster, infographic, etc.) from a text description or output type hint. Use when you need to...", "description_zh": "", "downloads": 164, "homepage": "https://clawhub.ai/phy041/phy-content-type-router", "iconUrl": null, "installs": 17, "name": "Content Type Router", "ownerName": "phy041", "score": 36936.93693693694, "slug": "phy-content-type-router", "source": "clawhub", "stars": 0, "tags": ["content", "routing"], "updated_at": 1776751871960, "version": "1.0.0"}, {"category": "developer-tools", "created_at": 1773069541051, "description": "Detects phantom dependencies — references to things that no longer exist, ghost state that lives in the gaps between modules, and invisible wires that connec...", "description_zh": "", "downloads": 164, "homepage": "https://clawhub.ai/jcools1977/phantom-limb", "iconUrl": null, "installs": 5, "name": "Phantom Limb", "ownerName": "jcools1977", "score": 27938.671209540033, "slug": "phantom-limb", "source": "clawhub", "stars": 0, "tags": null, "updated_at": 1776750944426, "version": "1.0.0"}, {"category": "", "created_at": 1774867898027, "description": "Eng manager-mode plan review. Lock in the execution plan — architecture, data flow, diagrams, edge cases, test coverage, performance. Walks through issues in...", "description_zh": "", "downloads": 164, "homepage": "https://clawhub.ai/loocor/gstack-plan-eng-review", "iconUrl": null, "installs": 30, "name": "Plan Eng Review", "ownerName": "loocor", "score": 27938.671209540033, "slug": "gstack-plan-eng-review", "source": "clawhub", "stars": 0, "tags": null, "updated_at": 1776750769801, "version": "1.0.0"}, {"category": "developer-tools", "created_at": 1773951138000, "description": "Generate lottery numbers and check results. Use when picking numbers for draws.", "description_zh": "", "downloads": 164, "homepage": "https://clawhub.ai/bytesagain1/lottery", "iconUrl": null, "installs": 31, "name": "Lottery", "ownerName": "bytesagain1", "score": 27702.702702702703, "slug": "lottery", "source": "clawhub", "stars": 0, "tags": null, "updated_at": 1776750169713, "version": "3.0.0"}, {"category": "productivity", "created_at": 1773287361300, "description": "Advanced Scrum Master skill for data-driven agile team analysis and coaching. Use when the user asks about sprint planning, velocity tracking, retrospectives...", "description_zh": "", "downloads": 164, "homepage": "https://clawhub.ai/alirezarezvani/scrum-master", "iconUrl": null, "installs": 9, "name": "scrum-master", "ownerName": "alirezarezvani", "score": 90109.89010989011, "slug": "scrum-master", "source": "clawhub", "stars": 0, "tags": null, "updated_at": 1776749472075, "version": "1.0.0"}, {"category": "", "created_at": 1774849027497, "description": "Control NetEase Cloud Music Web in a browser. Use to (1) search and play a song by keyword, preferably artist + title, or (2) open My Music and play one of t...", "description_zh": "", "downloads": 164, "homepage": "https://clawhub.ai/yangyunzhao/netease-web-player-control", "iconUrl": null, "installs": 44, "name": "网易云音乐网页版控制", "ownerName": "yangyunzhao", "score": 90109.89010989011, "slug": "netease-web-player-control", "source": "clawhub", "stars": 0, "tags": null, "updated_at": 1776749472035, "version": "0.1.6"}, {"category": "ai-intelligence", "created_at": 1773203083377, "description": "A persistent memory system for AI agents that saves ONLY what matters - wisdom, goals, mistakes, and preferences. Quality over quantity. Supports automatic l...", "description_zh": "", "downloads": 164, "homepage": "https://clawhub.ai/m7madash/m7madash-selective-memory", "iconUrl": null, "installs": 4, "name": "Selective Memory", "ownerName": "m7madash", "score": 89130.43478260869, "slug": "m7madash-selective-memory", "source": "clawhub", "stars": 0, "tags": null, "updated_at": 1776749455609, "version": "1.0.0"}, {"category": "productivity", "created_at": 1773077656669, "description": "Monitors your working session and detects when you've drifted from your stated task into unrelated changes. The coding equivalent of a GPS \"recalculating\" —...", "description_zh": "", "downloads": 164, "homepage": "https://clawhub.ai/jcools1977/scope-sentinel", "iconUrl": null, "installs": 5, "name": "Scope Sentinel", "ownerName": "jcools1977", "score": 89130.43478260869, "slug": "scope-sentinel", "source": "clawhub", "stars": 0, "tags": null, "updated_at": 1776749455599, "version": "1.0.0"}, {"category": "ai-intelligence", "created_at": 1773082448350, "description": "[Aibrary] Generate a book Idea Twin podcast script — an intellectually stimulating debate between the user's AI twin and a book expert. Based on Vygotsky's Z...", "description_zh": "", "downloads": 164, "homepage": "https://clawhub.ai/asoiso/aibrary-podcast-ideatwin", "iconUrl": null, "installs": 12, "name": "Aibrary Podcast Ideatwin", "ownerName": "asoiso", "score": 80392.1568627451, "slug": "aibrary-podcast-ideatwin", "source": "clawhub", "stars": 0, "tags": null, "updated_at": 1776749455595, "version": "0.1.0"}, {"category": "data-analysis", "created_at": 1773081733291, "description": "Systematic competitor tracking that feeds CMO positioning, CRO battlecards, and CPO roadmap decisions. Use when analyzing competitors, building sales battlec...", "description_zh": "", "downloads": 164, "homepage": "https://clawhub.ai/alirezarezvani/c-suite-competitive-intel", "iconUrl": null, "installs": 6, "name": "C-Suite Competitive Intel", "ownerName": "alirezarezvani", "score": 80392.1568627451, "slug": "c-suite-competitive-intel", "source": "clawhub", "stars": 0, "tags": null, "updated_at": 1776749455564, "version": "1.0.0"}, {"category": "content-creation", "created_at": 1773289313272, "description": "Orchestrates modular story development by diagnosing the current phase and routing to the right story skill for foundations, worldbuilding, scene writing, or...", "description_zh": "", "downloads": 164, "homepage": "https://clawhub.ai/jackterror/writers-room-story-engine", "iconUrl": null, "installs": 12, "name": "Writers Room Story Engine", "ownerName": "jackterror", "score": 80392.1568627451, "slug": "writers-room-story-engine", "source": "clawhub", "stars": 0, "tags": null, "updated_at": 1776749455559, "version": "1.0.1"}, {"category": "", "created_at": 1774843841386, "description": "Official skill for recognizing handwritten text from images using ZhiPu GLM-OCR API. Supports various handwriting styles, languages, and mixed handwritten/pr...", "description_zh": "", "downloads": 164, "homepage": "https://clawhub.ai/jaredforreal/glmocr-handwriting", "iconUrl": null, "installs": 56, "name": "GLM-OCR-Handwriting", "ownerName": "jaredforreal", "score": 80392.1568627451, "slug": "glmocr-handwriting", "source": "clawhub", "stars": 0, "tags": null, "updated_at": 1776749455542, "version": "1.0.3"}, {"category": "content-creation", "created_at": 1773290857027, "description": "Use this skill whenever a user wants to get, pull, grab, fetch, or look up public data from social media platforms — profiles, posts, videos, comments, follo...", "description_zh": "", "downloads": 164, "homepage": "https://clawhub.ai/berthelol/scrapping", "iconUrl": null, "installs": 13, "name": "Scrapping", "ownerName": "berthelol", "score": 80392.1568627451, "slug": "scrapping", "source": "clawhub", "stars": 0, "tags": null, "updated_at": 1776749455540, "version": "0.1.2"}, {"category": "developer-tools", "created_at": 1773285963978, "description": "Interface for EvolutionNet Collective Intelligence. Allows agents to register, share verified experiences (anonymized), and participate in discussion threads...", "description_zh": "", "downloads": 164, "homepage": "https://clawhub.ai/mercury7353/evonet", "iconUrl": null, "installs": 3, "name": "Evonet", "ownerName": "mercury7353", "score": 80392.1568627451, "slug": "evonet", "source": "clawhub", "stars": 0, "tags": null, "updated_at": 1776749455531, "version": "0.1.1"}, {"category": "developer-tools", "created_at": 1773091490063, "description": "Control Huawei HiLink USB LTE modems (E3372, E8372, etc.) via REST API. Send/receive SMS, check signal strength, manage SIM PIN, query prepaid balance, and m...", "description_zh": "", "downloads": 164, "homepage": "https://clawhub.ai/and0r-/hilink-lte", "iconUrl": null, "installs": 9, "name": "HiLink LTE Modem", "ownerName": "and0r-", "score": 80392.1568627451, "slug": "hilink-lte", "source": "clawhub", "stars": 0, "tags": null, "updated_at": 1776749455525, "version": "1.0.0"}, {"category": "developer-tools", "created_at": 1773080697821, "description": "RPG-style loot drops for completing real coding tasks. Fix a bug? Random loot drop with stats. Ship a feature? Epic gear. Survive a production incident? Lege...", "description_zh": "", "downloads": 164, "homepage": "https://clawhub.ai/jcools1977/loot-drop", "iconUrl": null, "installs": 9, "name": "Loot Drop", "ownerName": "jcools1977", "score": 80392.1568627451, "slug": "loot-drop", "source": "clawhub", "stars": 0, "tags": null, "updated_at": 1776749455522, "version": "1.0.0"}, {"category": "developer-tools", "created_at": 1773091455878, "description": "Browse, trade, and manage positions on Polymarket prediction markets via the polymarket CLI. Use when: user asks about prediction market odds, wants to searc...", "description_zh": "", "downloads": 164, "homepage": "https://clawhub.ai/guzus/mgnlia-polymarket", "iconUrl": null, "installs": 7, "name": "Polymarket CLI & Arb Scanner", "ownerName": "guzus", "score": 80392.1568627451, "slug": "mgnlia-polymarket", "source": "clawhub", "stars": 0, "tags": null, "updated_at": 1776749455514, "version": "1.1.0"}, {"category": "security-compliance", "created_at": 1773067104375, "description": "Sunsama MCP integration with managed authentication. Manage daily tasks, calendar events, backlog, objectives, and time tracking. Use this skill when users w...", "description_zh": "", "downloads": 164, "homepage": "https://clawhub.ai/byungkyu/sunsama", "iconUrl": null, "installs": 4, "name": "Sunsama", "ownerName": "byungkyu", "score": 99393.93939393939, "slug": "sunsama", "source": "clawhub", "stars": 0, "tags": null, "updated_at": 1776749455503, "version": "1.0.0"}, {"category": "security-compliance", "created_at": 1773068914946, "description": "Unbounce API integration with managed OAuth. Build and manage landing pages, track leads, and analyze conversion data. Use this skill when users want to inte...", "description_zh": "", "downloads": 164, "homepage": "https://clawhub.ai/byungkyu/unbounce", "iconUrl": null, "installs": 3, "name": "Unbounce", "ownerName": "byungkyu", "score": 99393.93939393939, "slug": "unbounce", "source": "clawhub", "stars": 0, "tags": null, "updated_at": 1776749455472, "version": "1.0.0"}, {"category": "developer-tools", "created_at": 1773867025653, "description": "Fake data generator for testing and development. Generate realistic mock data including names, emails, addresses, phone numbers, companies, dates, lorem ipsu...", "description_zh": "", "downloads": 164, "homepage": "https://clawhub.ai/bytesagain/mockdata", "iconUrl": null, "installs": 14, "name": "Mockdata", "ownerName": "bytesagain", "score": 99393.93939393939, "slug": "mockdata", "source": "clawhub", "stars": 0, "tags": null, "updated_at": 1776749455466, "version": "1.0.6"}, {"category": "developer-tools", "created_at": 1773430172997, "description": "Generate reply drafts for a single GitCode issue with similar-issue references; maintainer reviews before posting. Use when user asks to reply to or comment...", "description_zh": "", "downloads": 163, "homepage": "https://clawhub.ai/autoxj/gitcode-issue-reply", "iconUrl": null, "installs": 6, "name": "GitCode Issue Reply", "ownerName": "autoxj", "score": 13475.699558173785, "slug": "gitcode-issue-reply", "source": "clawhub", "stars": 1, "tags": null, "updated_at": 1776759682968, "version": "1.2.0"}, {"category": "content-creation", "created_at": 1773417917425, "description": "Orchestrate book-to-content workflows to generate video, audio, cover images, and a manifest for episode or campaign packages.", "description_zh": "", "downloads": 163, "homepage": "https://clawhub.ai/oiioai/bookmorph-magic", "iconUrl": null, "installs": 16, "name": "BookMorph Magic", "ownerName": "oiioai", "score": 7140.070230198986, "slug": "bookmorph-magic", "source": "clawhub", "stars": 1, "tags": null, "updated_at": 1776759682355, "version": "1.0.0"}, {"category": "developer-tools", "created_at": 1773284350900, "description": "Route requests for ACP or external coding agents such as Codex, Claude Code, Gemini CLI, and OpenCode into non-blocking OpenClaw background ACP runs instead...", "description_zh": "", "downloads": 163, "homepage": "https://clawhub.ai/ambition0802/acp-background-runs", "iconUrl": null, "installs": 8, "name": "ACP Background Runs", "ownerName": "ambition0802", "score": 100000, "slug": "acp-background-runs", "source": "clawhub", "stars": 1, "tags": null, "updated_at": 1776749472120, "version": "0.1.2"}, {"category": "data-analysis", "created_at": 1773089877723, "description": "Scrape Substack newsletters and articles. Use when user asks to search Substack, find newsletter posts, extract Substack content, or monitor Substack publica...", "description_zh": "", "downloads": 163, "homepage": "https://clawhub.ai/marcindudekdev/apify-substack-scraper", "iconUrl": null, "installs": 14, "name": "Apify Substack Scraper", "ownerName": "marcindudekdev", "score": 18931.475029036006, "slug": "apify-substack-scraper", "source": "clawhub", "stars": 0, "tags": ["apify", "newsletter", "scraping", "substack"], "updated_at": 1776769198289, "version": "1.0.0"}, {"category": "communication-collaboration", "created_at": 1773940609137, "description": "Intelligently dispatch WeChat messages by extracting recipients and content, handling text, images, or files with confirmation and selection prompts.", "description_zh": "", "downloads": 163, "homepage": "https://clawhub.ai/aw11100/wechat-new-tool", "iconUrl": null, "installs": 39, "name": "wechat-new-tool", "ownerName": "aw11100", "score": 777.5604636740924, "slug": "wechat-new-tool", "source": "clawhub", "stars": 0, "tags": null, "updated_at": 1776766450485, "version": "1.0.0"}, {"category": "security-compliance", "created_at": 1773415999639, "description": "Let your agent shop on Amazon with guardrailed wallets and owner approval.", "description_zh": "", "downloads": 163, "homepage": "https://clawhub.ai/triplehippo/taxes", "iconUrl": null, "installs": 14, "name": "Complete US Tax Returns - With your creditcard", "ownerName": "triplehippo", "score": 7685.054219707685, "slug": "taxes", "source": "clawhub", "stars": 0, "tags": null, "updated_at": 1776763490434, "version": "1.0.1"}, {"category": "developer-tools", "created_at": 1773425536369, "description": "Grow firmware on any hardware through HTTP — upload C, compile on device, apply with watchdog rollback", "description_zh": "", "downloads": 163, "homepage": "https://clawhub.ai/awis13/seed", "iconUrl": null, "installs": 12, "name": "Seed", "ownerName": "awis13", "score": 3856.162763189023, "slug": "seed", "source": "clawhub", "stars": 0, "tags": null, "updated_at": 1776760582314, "version": "0.1.2"}, {"category": "data-analysis", "created_at": 1773080873166, "description": "Checks prompts and outputs for harmful intent, bias, and alignment with Claude's helpful, honest, and harmless guidelines to ensure safe content.", "description_zh": "", "downloads": 163, "homepage": "https://clawhub.ai/mosonchan2023/claude-safety-checker", "iconUrl": null, "installs": 7, "name": "Claude Safety Checker", "ownerName": "mosonchan2023", "score": 28055.077452667814, "slug": "claude-safety-checker", "source": "clawhub", "stars": 0, "tags": null, "updated_at": 1776759683596, "version": "1.0.0"}, {"category": "ai-intelligence", "created_at": 1773417089984, "description": "Enables AI to autonomously select, execute, evaluate, and record tasks in a closed loop without human prompts, prioritizing efficiency and continuous improve...", "description_zh": "", "downloads": 163, "homepage": "https://clawhub.ai/adminlove520/self-driven", "iconUrl": null, "installs": 18, "name": "Self Driven", "ownerName": "adminlove520", "score": 12490.421455938696, "slug": "self-driven", "source": "clawhub", "stars": 0, "tags": null, "updated_at": 1776759683348, "version": "0.1.0"}, {"category": "productivity", "created_at": 1773428311084, "description": "Automated job search, JD parsing, resume customization, and application tracking pipeline. Use when: user wants to find jobs, set up automated job searches,...", "description_zh": "", "downloads": 163, "homepage": "https://clawhub.ai/danielvivek2006/job-hunter-whatsapp", "iconUrl": null, "installs": 23, "name": "job-hunter-whatsapp", "ownerName": "danielvivek2006", "score": 11241.379310344828, "slug": "job-hunter-whatsapp", "source": "clawhub", "stars": 0, "tags": null, "updated_at": 1776759683284, "version": "1.0.0"}, {"category": "data-analysis", "created_at": 1773083155154, "description": "Provides liquidity depth, bid-ask spread, and slippage estimates for Polymarket prediction markets to assess trade ease and costs.", "description_zh": "", "downloads": 163, "homepage": "https://clawhub.ai/mosonchan2023/polymarket-liquidity-check", "iconUrl": null, "installs": 26, "name": "Polymarket Liquidity Check", "ownerName": "mosonchan2023", "score": 12616.09907120743, "slug": "polymarket-liquidity-check", "source": "clawhub", "stars": 0, "tags": null, "updated_at": 1776759683252, "version": "1.0.1"}, {"category": "developer-tools", "created_at": 1773080703947, "description": "Provides real-time, scalable machine learning predictions via API using hosted models, with automated micropayment at 0.001 USDT per call.", "description_zh": "", "downloads": 163, "homepage": "https://clawhub.ai/mosonchan2023/ml-prediction-service", "iconUrl": null, "installs": 10, "name": "Ml Prediction Service", "ownerName": "mosonchan2023", "score": 12237.237237237237, "slug": "ml-prediction-service", "source": "clawhub", "stars": 0, "tags": null, "updated_at": 1776759683180, "version": "1.0.0"}, {"category": "developer-tools", "created_at": 1773079623474, "description": "Calculate and track prediction market volatility with scores, historical patterns, and cross-market comparisons via API for 0.001 USDT per call.", "description_zh": "", "downloads": 163, "homepage": "https://clawhub.ai/mosonchan2023/polymarket-volatility-index", "iconUrl": null, "installs": 17, "name": "Polymarket Volatility Index", "ownerName": "mosonchan2023", "score": 12519.201228878648, "slug": "polymarket-volatility-index", "source": "clawhub", "stars": 0, "tags": null, "updated_at": 1776759682888, "version": "1.0.1"}, {"category": "productivity", "created_at": 1773416968636, "description": "Book flights, hotels, and eSIMs on cryptotraveler.com with Bitcoin and other cryptocurrencies.", "description_zh": "", "downloads": 163, "homepage": "https://clawhub.ai/g33kme/crypto-traveler", "iconUrl": null, "installs": 13, "name": "Crypto Traveler - Book Hotels and Flights with Bitcoin", "ownerName": "g33kme", "score": 12461.77370030581, "slug": "crypto-traveler", "source": "clawhub", "stars": 0, "tags": ["book flights", "book flights with bitcoin", "book hotels", "book hotels with bitcoin", "crypto", "crypto travel booking", "esim cards", "flights", "hotels", "online travel agency", "travel"], "updated_at": 1776759682679, "version": "1.3.2"}, {"category": "communication-collaboration", "created_at": 1773427993536, "description": "Enables bots in the same group or channel to automatically detect each other, verify identities, and communicate seamlessly without configuration.", "description_zh": "", "downloads": 163, "homepage": "https://clawhub.ai/adminlove520/cross-bot-communication", "iconUrl": null, "installs": 8, "name": "Cross Bot Communication", "ownerName": "adminlove520", "score": 12461.77370030581, "slug": "cross-bot-communication", "source": "clawhub", "stars": 0, "tags": null, "updated_at": 1776759682665, "version": "1.0.3"}, {"category": "developer-tools", "created_at": 1773219029426, "description": "Distributed Datalog engine for sovereign agents enabling persistent, immutable fact storage, querying, and reasoning with built-in synchronization and time-t...", "description_zh": "", "downloads": 163, "homepage": "https://clawhub.ai/criticalinsight/aarondb", "iconUrl": null, "installs": 7, "name": "Aarondb", "ownerName": "criticalinsight", "score": 10342.63959390863, "slug": "aarondb", "source": "clawhub", "stars": 0, "tags": null, "updated_at": 1776759682295, "version": "1.0.3"}, {"category": "developer-tools", "created_at": 1773066465473, "description": "USE THIS for Gemini models, Google AI. Access Gemini 3 Pro, Gemini 2.5 Pro, Gemini 2.5 Flash, Gemini 2.5 Flash Lite. 1 million token context window. No Googl...", "description_zh": "", "downloads": 163, "homepage": "https://clawhub.ai/xiaoyinqu/gemini-api", "iconUrl": null, "installs": 65, "name": "Gemini Api", "ownerName": "xiaoyinqu", "score": 11958.914159941305, "slug": "gemini-api", "source": "clawhub", "stars": 0, "tags": null, "updated_at": 1776759083072, "version": "1.0.0"}, {"category": "ai-intelligence", "created_at": 1773080172021, "description": "Generate custom pet portraits using each::sense AI. Create realistic, artistic, and stylized pet portraits from photos - including cartoon, renaissance, wate...", "description_zh": "", "downloads": 163, "homepage": "https://clawhub.ai/eftalyurtseven/pet-portrait-generation", "iconUrl": null, "installs": 9, "name": "Pet Portrait Generation", "ownerName": "eftalyurtseven", "score": 9633.569739952718, "slug": "pet-portrait-generation", "source": "clawhub", "stars": 0, "tags": null, "updated_at": 1776756188791, "version": "1.0.0"}, {"category": "productivity", "created_at": 1773206847209, "description": "Play TTS or audio on the Raspberry Pi (or gateway host) default speaker. Use when the user asks for an announcement, alarm, news summary, or \"say X on the Pi...", "description_zh": "", "downloads": 163, "homepage": "https://clawhub.ai/nobloodontheleaves/pi-speaker", "iconUrl": null, "installs": 7, "name": "Pi Speaker", "ownerName": "nobloodontheleaves", "score": 28747.795414462078, "slug": "pi-speaker", "source": "clawhub", "stars": 0, "tags": null, "updated_at": 1776752384225, "version": "1.0.1"}, {"category": "productivity", "created_at": 1773427028648, "description": "How to write well-structured Basic Memory notes: frontmatter, observations with semantic categories, relations with wiki-links, and best practices for buildi...", "description_zh": "", "downloads": 163, "homepage": "https://clawhub.ai/phernandez/memory-notes", "iconUrl": null, "installs": 26, "name": "Memory Notes", "ownerName": "phernandez", "score": 29316.54676258993, "slug": "memory-notes", "source": "clawhub", "stars": 0, "tags": null, "updated_at": 1776751244471, "version": "0.1.0"}, {"category": "security-compliance", "created_at": 1773202460064, "description": "Web dashboard for OpenClaw. Browser-based UI for any installed skill. Schema-driven rendering, JWT auth, RBAC, AI chat, real-time updates. Install web dashbo...", "description_zh": "", "downloads": 163, "homepage": "https://clawhub.ai/mailnike/web-claw", "iconUrl": null, "installs": 5, "name": "Web Claw", "ownerName": "mailnike", "score": 100000, "slug": "web-claw", "source": "clawhub", "stars": 0, "tags": null, "updated_at": 1776749472212, "version": "2.0.1"}, {"category": "data-analysis", "created_at": 1773432335184, "description": "Amazon product research and seller intelligence via APIClaw. Use this skill to find profitable product opportunities, validate markets, analyze categories, c...", "description_zh": "", "downloads": 163, "homepage": "https://clawhub.ai/kevinzhangqi/amazon-product-search", "iconUrl": null, "installs": 37, "name": "Amazon Product Research", "ownerName": "kevinzhangqi", "score": 100000, "slug": "amazon-product-search", "source": "clawhub", "stars": 0, "tags": null, "updated_at": 1776749472180, "version": "0.1.0"}, {"category": "developer-tools", "created_at": 1773090571618, "description": "Add a list of attendees to an existing Google Calendar event and send notifications.", "description_zh": "", "downloads": 163, "homepage": "https://clawhub.ai/googleworkspace-bot/recipe-batch-invite-to-event", "iconUrl": null, "installs": 10, "name": "Recipe Batch Invite To Event", "ownerName": "googleworkspace-bot", "score": 100000, "slug": "recipe-batch-invite-to-event", "source": "clawhub", "stars": 0, "tags": null, "updated_at": 1776749472175, "version": "1.0.10"}, {"category": "productivity", "created_at": 1773090207539, "description": "SurveyMonkey integration. Manage Surveys, Users. Use when the user wants to interact with SurveyMonkey data.", "description_zh": "", "downloads": 163, "homepage": "https://clawhub.ai/gora050/surveymonkey", "iconUrl": null, "installs": 9, "name": "Surveymonkey", "ownerName": "gora050", "score": 100000, "slug": "surveymonkey", "source": "clawhub", "stars": 0, "tags": null, "updated_at": 1776749472167, "version": "1.0.0"}, {"category": "content-creation", "created_at": 1773861275729, "description": "Make a recipe by giving some ingredients. Use when you need cooking recipe capabilities. Triggers on: cooking recipe.", "description_zh": "", "downloads": 163, "homepage": "https://clawhub.ai/bytesagain1/chefpad", "iconUrl": null, "installs": 11, "name": "Chefpad", "ownerName": "bytesagain1", "score": 100000, "slug": "chefpad", "source": "clawhub", "stars": 0, "tags": null, "updated_at": 1776749472165, "version": "1.0.6"}]}