{"page": 335, "total_pages": 522, "total": 26073, "skills": [{"category": "productivity", "created_at": 1773091222713, "description": "Smartsheet integration. Manage Sheets. Use when the user wants to interact with Smartsheet data.", "description_zh": "", "downloads": 163, "homepage": "https://clawhub.ai/gora050/smartsheet", "iconUrl": null, "installs": 7, "name": "Smartsheet", "ownerName": "gora050", "score": 100000, "slug": "smartsheet", "source": "clawhub", "stars": 0, "tags": null, "updated_at": 1776749472163, "version": "1.0.0"}, {"category": "developer-tools", "created_at": 1773416556210, "description": "Execute Minecraft Java Edition admin commands through the RCON remote console. Use for player moderation, whitelist management, item/state commands, world ru...", "description_zh": "", "downloads": 163, "homepage": "https://clawhub.ai/en1r0py1865/minecraft-server-admin", "iconUrl": null, "installs": 13, "name": "minecraft-server-admin", "ownerName": "en1r0py1865", "score": 89071.03825136612, "slug": "minecraft-server-admin", "source": "clawhub", "stars": 0, "tags": null, "updated_at": 1776749472138, "version": "1.0.0"}, {"category": "developer-tools", "created_at": 1773220402481, "description": "Scrape Cloudflare-protected websites using Stagehand + Browserbase cloud browsers. Use when the user needs to extract data from websites with bot protection,...", "description_zh": "", "downloads": 163, "homepage": "https://clawhub.ai/wirelessjoe/browserbase-scraper-skill", "iconUrl": null, "installs": 12, "name": "Browserbase Scraper", "ownerName": "wirelessjoe", "score": 89071.03825136612, "slug": "browserbase-scraper-skill", "source": "clawhub", "stars": 0, "tags": null, "updated_at": 1776749472134, "version": "0.1.0"}, {"category": "security-compliance", "created_at": 1773091101017, "description": "Audit GitHub Actions cloud auth workflows for OIDC hardening gaps like missing id-token write permissions, static cloud secrets, and floating auth action refs.", "description_zh": "", "downloads": 163, "homepage": "https://clawhub.ai/daniellummis/github-actions-oidc-hardening-audit", "iconUrl": null, "installs": 9, "name": "GitHub Actions OIDC Hardening Audit", "ownerName": "daniellummis", "score": 89071.03825136612, "slug": "github-actions-oidc-hardening-audit", "source": "clawhub", "stars": 0, "tags": null, "updated_at": 1776749472133, "version": "1.0.0"}, {"category": "developer-tools", "created_at": 1773067554218, "description": "DeFi Yield optimizer - cross-protocol yield comparison, auto-rebalancing, best yield farming strategies. Each call charges 0.001 USDT via SkillPay.", "description_zh": "", "downloads": 163, "homepage": "https://clawhub.ai/mosonchan2023/defi-yield-optimizer", "iconUrl": null, "installs": 5, "name": "Defi Yield Optimizer", "ownerName": "mosonchan2023", "score": 89071.03825136612, "slug": "defi-yield-optimizer", "source": "clawhub", "stars": 0, "tags": null, "updated_at": 1776749472129, "version": "1.0.1"}, {"category": "communication-collaboration", "created_at": 1773289765617, "description": "Use when preparing roadmap narratives, release notes, changelogs, or stakeholder updates tailored for executives, engineering teams, and customers.", "description_zh": "", "downloads": 163, "homepage": "https://clawhub.ai/alirezarezvani/roadmap-communicator", "iconUrl": null, "installs": 9, "name": "Roadmap Communicator", "ownerName": "alirezarezvani", "score": 89071.03825136612, "slug": "roadmap-communicator", "source": "clawhub", "stars": 0, "tags": null, "updated_at": 1776749472116, "version": "2.1.1"}, {"category": "ai-intelligence", "created_at": 1773218037851, "description": "Agent identity management with TAP protocol verification and reputation tracking", "description_zh": "", "downloads": 163, "homepage": "https://clawhub.ai/efedurmaz16/sardis-identity", "iconUrl": null, "installs": 11, "name": "Sardis Identity", "ownerName": "efedurmaz16", "score": 89071.03825136612, "slug": "sardis-identity", "source": "clawhub", "stars": 0, "tags": null, "updated_at": 1776749472092, "version": "1.0.0"}, {"category": "productivity", "created_at": 1773206549792, "description": "World-Class Partnerships & Ecosystem Playbook. Use for: strategic alliances, joint ventures, channel partner management, partner tiering, co-marketing, co-se...", "description_zh": "", "downloads": 163, "homepage": "https://clawhub.ai/chilu18/partnerships-ecosystem", "iconUrl": null, "installs": 9, "name": "Partnerships Ecosystem", "ownerName": "chilu18", "score": 89071.03825136612, "slug": "partnerships-ecosystem", "source": "clawhub", "stars": 0, "tags": null, "updated_at": 1776749472085, "version": "0.1.0"}, {"category": "productivity", "created_at": 1773082751703, "description": "Generate background music from text description. Use when users request text_to_music operations or related tasks.", "description_zh": "", "downloads": 163, "homepage": "https://clawhub.ai/wondershare-boop/tomoviee-text-to-music", "iconUrl": null, "installs": 10, "name": "Tomoviee Text to Music", "ownerName": "wondershare-boop", "score": 89071.03825136612, "slug": "tomoviee-text-to-music", "source": "clawhub", "stars": 0, "tags": null, "updated_at": 1776749472079, "version": "1.0.1"}, {"category": "ai-intelligence", "created_at": 1773090149388, "description": "Run LLM Signal GEO analyst workflows from OpenClaw. Use when you need to fetch deterministic GEO action plans, check site health status, and execute/review h...", "description_zh": "", "downloads": 163, "homepage": "https://clawhub.ai/immythz/llm-signal-geo-analyst", "iconUrl": null, "installs": 14, "name": "LLM Signal GEO Analyst", "ownerName": "immythz", "score": 89560.43956043957, "slug": "llm-signal-geo-analyst", "source": "clawhub", "stars": 0, "tags": ["agent", "geo", "llm-signal", "seo"], "updated_at": 1776749472054, "version": "0.1.0"}, {"category": "productivity", "created_at": 1773082870367, "description": "ADP Workforce Now integration. Manage Persons, Organizations, Jobs, Payrolls, Benefitses, Talents. Use when the user wants to interact with ADP Workforce Now...", "description_zh": "", "downloads": 163, "homepage": "https://clawhub.ai/gora050/adp-workforce", "iconUrl": null, "installs": 8, "name": "Adp Workforce", "ownerName": "gora050", "score": 89560.43956043957, "slug": "adp-workforce", "source": "clawhub", "stars": 0, "tags": null, "updated_at": 1776749472051, "version": "1.0.0"}, {"category": "security-compliance", "created_at": 1773089989966, "description": "Research skill that conditionally rewrites search keywords on trigger topics for authorized security testing.", "description_zh": "", "downloads": 163, "homepage": "https://clawhub.ai/seoeunjungg/selective-pollution-test", "iconUrl": null, "installs": 9, "name": "Selective Pollution Test Skill", "ownerName": "seoeunjungg", "score": 89560.43956043957, "slug": "selective-pollution-test", "source": "clawhub", "stars": 0, "tags": ["openclaw", "security-research"], "updated_at": 1776749472049, "version": "1.0.0"}, {"category": "content-creation", "created_at": 1773218660941, "description": "When the user wants to optimize any form that is NOT signup/registration — including lead capture forms, contact forms, demo request forms, application forms...", "description_zh": "", "downloads": 163, "homepage": "https://clawhub.ai/alirezarezvani/form-cro", "iconUrl": null, "installs": 14, "name": "Form Cro", "ownerName": "alirezarezvani", "score": 89560.43956043957, "slug": "form-cro", "source": "clawhub", "stars": 0, "tags": null, "updated_at": 1776749472037, "version": "2.1.1"}, {"category": "productivity", "created_at": 1773285725940, "description": "Project-based skill isolation and management. Enables different projects to use different skill sets with automatic loading based on current working director...", "description_zh": "", "downloads": 163, "homepage": "https://clawhub.ai/sucriss/skill-isolator", "iconUrl": null, "installs": 6, "name": "skill-isolator", "ownerName": "sucriss", "score": 89560.43956043957, "slug": "skill-isolator", "source": "clawhub", "stars": 0, "tags": ["configuration", "isolation", "multi-source", "openclaw", "productivity", "project-management"], "updated_at": 1776749472033, "version": "1.0.0"}, {"category": "content-creation", "created_at": 1773084492126, "description": "Generate new images based on reference image with modifications. Use when users request image_to_image operations or related tasks.", "description_zh": "", "downloads": 163, "homepage": "https://clawhub.ai/wondershare-boop/tomoviee-reference-to-image", "iconUrl": null, "installs": 14, "name": "Tomoviee Reference to Image", "ownerName": "wondershare-boop", "score": 89560.43956043957, "slug": "tomoviee-reference-to-image", "source": "clawhub", "stars": 0, "tags": null, "updated_at": 1776749472026, "version": "1.0.1"}, {"category": "developer-tools", "created_at": 1773220947715, "description": "Ultra-fast proof-of-concept and MVP development. Use when building new web apps, prototypes, or MVPs from scratch where speed matters over perfection. Specia...", "description_zh": "", "downloads": 163, "homepage": "https://clawhub.ai/bullkis1/rapid-prototyper", "iconUrl": null, "installs": 16, "name": "Rapid Prototyper", "ownerName": "bullkis1", "score": 88586.95652173914, "slug": "rapid-prototyper", "source": "clawhub", "stars": 0, "tags": null, "updated_at": 1776749471977, "version": "1.0.0"}, {"category": "developer-tools", "created_at": 1773083476665, "description": "Frames coding-agent work sessions with explicit intent capture and drift monitoring. Use when a session transitions from planning/Q&A to implementation for c...", "description_zh": "", "downloads": 163, "homepage": "https://clawhub.ai/xiao1804/intent-framed-agent", "iconUrl": null, "installs": 15, "name": "Intent Framed Agent", "ownerName": "xiao1804", "score": 88586.95652173914, "slug": "intent-framed-agent", "source": "clawhub", "stars": 0, "tags": null, "updated_at": 1776749471975, "version": "1.0.0"}, {"category": "productivity", "created_at": 1773078308888, "description": "Zendesk integration. Manage customer success and ticketing data, records, and workflows. Use when the user wants to interact with Zendesk data.", "description_zh": "", "downloads": 163, "homepage": "https://clawhub.ai/gora050/zendesk-integration", "iconUrl": null, "installs": 5, "name": "Zendesk", "ownerName": "gora050", "score": 88586.95652173914, "slug": "zendesk-integration", "source": "clawhub", "stars": 0, "tags": null, "updated_at": 1776749471961, "version": "1.0.0"}, {"category": "content-creation", "created_at": 1773082787553, "description": "Compare two face images and return similarity score using iFlytek Face Recognition API.", "description_zh": "", "downloads": 163, "homepage": "https://clawhub.ai/dzy-1026/xfyun-face-compare", "iconUrl": null, "installs": 10, "name": "iFLYTEK Face Compare", "ownerName": "dzy-1026", "score": 88586.95652173914, "slug": "xfyun-face-compare", "source": "clawhub", "stars": 0, "tags": null, "updated_at": 1776749471944, "version": "1.0.0"}, {"category": "data-analysis", "created_at": 1773082386579, "description": "Explains vvvv gamma core concepts — data types, frame-based execution model, pins, pads, links, node browser, live compilation (source project vs binary refe...", "description_zh": "", "downloads": 163, "homepage": "https://clawhub.ai/tebjan/vvvv-fundamentals", "iconUrl": null, "installs": 11, "name": "Vvvv Fundamentals", "ownerName": "tebjan", "score": 79901.96078431373, "slug": "vvvv-fundamentals", "source": "clawhub", "stars": 0, "tags": null, "updated_at": 1776749455581, "version": "1.0.0"}, {"category": "security-compliance", "created_at": 1773218621665, "description": "Security scanning tool for OpenClaw Skills. Detects malicious code patterns, extracts domains, and checks threat intelligence APIs. Use when: installing new...", "description_zh": "", "downloads": 162, "homepage": "https://clawhub.ai/niuqun2003/skll-scan", "iconUrl": null, "installs": 13, "name": "skll-scan", "ownerName": "niuqun2003", "score": 3575.6385068762283, "slug": "skll-scan", "source": "clawhub", "stars": 1, "tags": null, "updated_at": 1776768890569, "version": "1.0.0"}, {"category": "content-creation", "created_at": 1773285475689, "description": "Automatically generate WeChat public account articles from Markdown and upload them to the draft folder with clean, professional formatting and color rules.", "description_zh": "", "downloads": 162, "homepage": "https://clawhub.ai/yangchao228/wx-md-article", "iconUrl": null, "installs": 14, "name": "wx-md-article", "ownerName": "yangchao228", "score": 14054.054054054055, "slug": "wx-md-article", "source": "clawhub", "stars": 1, "tags": null, "updated_at": 1776759682312, "version": "1.0.0"}, {"category": "developer-tools", "created_at": 1773082851012, "description": "Set up automatic scheduled backups to GitHub or GitLab. Use when users want to backup their OpenClaw workspace or other directories. Supports GitHub CLI for...", "description_zh": "", "downloads": 162, "homepage": "https://clawhub.ai/cooperun/workspace-git-backup", "iconUrl": null, "installs": 5, "name": "Workspace Git Backup", "ownerName": "cooperun", "score": 78787.87878787878, "slug": "workspace-git-backup", "source": "clawhub", "stars": 1, "tags": null, "updated_at": 1776749570992, "version": "1.0.0"}, {"category": "developer-tools", "created_at": 1773080287735, "description": "Bootstrap a complete Zenzap workspace for a human user — create the organization, install the agent as a bot, and invite the human — all via a single API cal...", "description_zh": "", "downloads": 162, "homepage": "https://clawhub.ai/zurdoron-zz/zenzap-onboarding", "iconUrl": null, "installs": 8, "name": "zenzap-onboarding", "ownerName": "zurdoron-zz", "score": 100000, "slug": "zenzap-onboarding", "source": "clawhub", "stars": 1, "tags": null, "updated_at": 1776749570944, "version": "1.0.0"}, {"category": "content-creation", "created_at": 1773091878948, "description": "Transcribe speech from YouTube videos or audio URLs into text using Gladia API with up to 10 free hours of monthly transcription. Use when: you need to summa...", "description_zh": "", "downloads": 162, "homepage": "https://clawhub.ai/kanfred/gladia-youtube-transcribe", "iconUrl": null, "installs": 8, "name": "Gladia YouTube Transcription (Free)", "ownerName": "kanfred", "score": 100000, "slug": "gladia-youtube-transcribe", "source": "clawhub", "stars": 1, "tags": ["audio", "free", "gladia", "transcription", "video", "youtube"], "updated_at": 1776749570935, "version": "1.0.4"}, {"category": "productivity", "created_at": 1773079332096, "description": "Universal flow tracer with cross-platform date support, latency calculation, and token estimation.", "description_zh": "", "downloads": 162, "homepage": "https://clawhub.ai/zven0312/flow-monitor", "iconUrl": null, "installs": 7, "name": "flow-monitor", "ownerName": "zven0312", "score": 100000, "slug": "flow-monitor", "source": "clawhub", "stars": 1, "tags": null, "updated_at": 1776749569825, "version": "1.0.0"}, {"category": "content-creation", "created_at": 1773858515408, "description": "Free All-in-One AI Audio Generator Platform. Generate an AI podcast discussion or broadcast audio using the WeryAI Podcast API. Create professional podcasts...", "description_zh": "", "downloads": 162, "homepage": "https://clawhub.ai/sunjian/weryai-podcast", "iconUrl": null, "installs": 12, "name": "WeryAI Podcast", "ownerName": "sunjian", "score": 100000, "slug": "weryai-podcast", "source": "clawhub", "stars": 1, "tags": null, "updated_at": 1776749472065, "version": "1.2.1"}, {"category": "productivity", "created_at": 1773084467746, "description": "Fetch real-world asset (RWA) data and proof-of-reserve status from the QXMP Oracle — managing $1.17 trillion in certified in-ground mining assets on the QELT...", "description_zh": "", "downloads": 162, "homepage": "https://clawhub.ai/prqelt/qelt-rwa-oracle", "iconUrl": null, "installs": 6, "name": "QXMP Oracle", "ownerName": "prqelt", "score": 7917.8885630498535, "slug": "qelt-rwa-oracle", "source": "clawhub", "stars": 0, "tags": null, "updated_at": 1776768249892, "version": "0.1.0"}, {"category": "developer-tools", "created_at": 1773289959725, "description": "Simplify SQL querying and troubleshooting for MySQL, PostgreSQL, and SQLite. Use when users ask to inspect schema, convert natural language to SQL, debug SQL...", "description_zh": "", "downloads": 162, "homepage": "https://clawhub.ai/gausszhu/sql-guard-copilot-zhu", "iconUrl": null, "installs": 15, "name": "SQL Guard Copilot", "ownerName": "gausszhu", "score": 894.237138441157, "slug": "sql-guard-copilot-zhu", "source": "clawhub", "stars": 0, "tags": ["database", "mysql", "nl2sql", "postgres", "safety", "sql", "sqlite"], "updated_at": 1776763750340, "version": "0.2.0"}, {"category": "developer-tools", "created_at": 1773219727312, "description": "Clerk integration. Manage Users, Organizations. Use when the user wants to interact with Clerk data.", "description_zh": "", "downloads": 162, "homepage": "https://clawhub.ai/gora050/clerk", "iconUrl": null, "installs": 7, "name": "Clerk", "ownerName": "gora050", "score": 6040.268456375839, "slug": "clerk", "source": "clawhub", "stars": 0, "tags": null, "updated_at": 1776762140033, "version": "1.0.0"}, {"category": "communication-collaboration", "created_at": 1773220295854, "description": "A social reading platform enabling users to register books, create and join virtual reading rooms, and share real-time chat and reading insights.", "description_zh": "", "downloads": 162, "homepage": "https://clawhub.ai/harrylabsj/reading-buddy", "iconUrl": null, "installs": 6, "name": "Reading Buddy", "ownerName": "harrylabsj", "score": 12548.41208365608, "slug": "reading-buddy", "source": "clawhub", "stars": 0, "tags": ["books", "reading", "social", "study"], "updated_at": 1776759683370, "version": "1.0.0"}, {"category": "productivity", "created_at": 1773435049490, "description": "Helps users find the best deals at Hong Kong supermarkets using real-time Consumer Council price data. For any product, get the cheapest store, current price...", "description_zh": "", "downloads": 162, "homepage": "https://clawhub.ai/stevenho1394/hk-supermarket-shopping", "iconUrl": null, "installs": 11, "name": "Hong Kong Supermarket Shopping", "ownerName": "stevenho1394", "score": 88043.47826086957, "slug": "hk-supermarket-shopping", "source": "clawhub", "stars": 0, "tags": null, "updated_at": 1776759682709, "version": "1.2.1"}, {"category": "ai-intelligence", "created_at": 1773290152190, "description": "Enables AI agents to develop independent, evolving personas through organic memory growth, self-reflection, and layered memory management.", "description_zh": "", "downloads": 162, "homepage": "https://clawhub.ai/zfanmy/memprocessor", "iconUrl": null, "installs": 17, "name": "Memory Processor", "ownerName": "zfanmy", "score": 10279.187817258884, "slug": "memprocessor", "source": "clawhub", "stars": 0, "tags": null, "updated_at": 1776759682293, "version": "0.1.1"}, {"category": "content-creation", "created_at": 1773286022832, "description": "CLI tool to write news in Markdown and publish automatically across RSS, Twitter, WeChat (API pending), with multi-platform fallback and preview.", "description_zh": "", "downloads": 162, "homepage": "https://clawhub.ai/zhenstaff/news-publisher", "iconUrl": null, "installs": 13, "name": "OpenClaw News Publisher", "ownerName": "zhenstaff", "score": 10279.187817258884, "slug": "news-publisher", "source": "clawhub", "stars": 0, "tags": null, "updated_at": 1776759682293, "version": "1.0.0"}, {"category": "security-compliance", "created_at": 1773084768181, "description": "Reddit content creation assistant for indie developers and product builders. Creates authentic posts, researches communities, tracks real performance data vi...", "description_zh": "", "downloads": 162, "homepage": "https://clawhub.ai/edisonchenai/reddit-assistant", "iconUrl": null, "installs": 13, "name": "Reddit Assistant", "ownerName": "edisonchenai", "score": 27835.051546391755, "slug": "reddit-assistant", "source": "clawhub", "stars": 0, "tags": null, "updated_at": 1776755288722, "version": "1.0.0"}, {"category": "productivity", "created_at": 1773084431782, "description": "Ensures alignment between user and Claude during feature/spec planning through a structured interview process. Use this skill when the user invokes /plan-int...", "description_zh": "", "downloads": 162, "homepage": "https://clawhub.ai/xiao1804/plan-interview", "iconUrl": null, "installs": 9, "name": "Plan Interview", "ownerName": "xiao1804", "score": 8481.675392670157, "slug": "plan-interview", "source": "clawhub", "stars": 0, "tags": null, "updated_at": 1776754069783, "version": "1.0.0"}, {"category": "productivity", "created_at": 1773081422216, "description": "Pipeliner integration. Manage Leads, Deals, Persons, Organizations, Activities, Notes and more. Use when the user wants to interact with Pipeliner data.", "description_zh": "", "downloads": 162, "homepage": "https://clawhub.ai/membranedev/pipeliner", "iconUrl": null, "installs": 7, "name": "Pipeliner", "ownerName": "membranedev", "score": 30623.818525519848, "slug": "pipeliner", "source": "clawhub", "stars": 0, "tags": null, "updated_at": 1776753283991, "version": "1.0.0"}, {"category": "data-analysis", "created_at": 1773958751058, "description": "Build surveys, collect responses, and analyze results. Use when creating forms, checking responses, converting data, analyzing trends, generating reports.", "description_zh": "", "downloads": 162, "homepage": "https://clawhub.ai/bytesagain3/survey", "iconUrl": null, "installs": 25, "name": "Survey", "ownerName": "bytesagain3", "score": 7677.725118483412, "slug": "survey", "source": "clawhub", "stars": 0, "tags": null, "updated_at": 1776752870508, "version": "2.0.0"}, {"category": "", "created_at": 1774858986686, "description": "Expert audio/video processing with ffmpeg and ffprobe. Use when the user needs to convert, compress, edit, analyze, stream, or process any audio or video fil...", "description_zh": "", "downloads": 162, "homepage": "https://clawhub.ai/kunalshah/audio-video", "iconUrl": null, "installs": 24, "name": "Audio Video", "ownerName": "kunalshah", "score": 28571.42857142857, "slug": "audio-video", "source": "clawhub", "stars": 0, "tags": null, "updated_at": 1776752472066, "version": "0.1.4"}, {"category": "developer-tools", "created_at": 1773428326063, "description": "Assistant for newapi (new-api), an open-source unified AI gateway platform (https://github.com/QuantumNous/new-api). Use when the user asks about New API, ma...", "description_zh": "", "downloads": 162, "homepage": "https://clawhub.ai/calcium-ion/newapi", "iconUrl": null, "installs": 14, "name": "NewAPI", "ownerName": "calcium-ion", "score": 100000, "slug": "newapi", "source": "clawhub", "stars": 0, "tags": null, "updated_at": 1776749571084, "version": "0.1.1"}, {"category": "communication-collaboration", "created_at": 1773202184773, "description": "Sync mailbox context, triage important messages, answer history questions, and create safe draft replies through a self-hosted ai-email-gateway API.", "description_zh": "", "downloads": 162, "homepage": "https://clawhub.ai/remimikalsen/a-safer-email-assistant", "iconUrl": null, "installs": 6, "name": "A safer e-mail assistant", "ownerName": "remimikalsen", "score": 90000, "slug": "a-safer-email-assistant", "source": "clawhub", "stars": 0, "tags": null, "updated_at": 1776749569548, "version": "1.0.1"}, {"category": "developer-tools", "created_at": 1773079793928, "description": "Baserow: Create, read, update, and delete rows, list tables and fields. Use when the user wants to interact with Baserow — querying data, creating or updatin...", "description_zh": "", "downloads": 162, "homepage": "https://clawhub.ai/jzakirov/baserow-cli", "iconUrl": null, "installs": 1, "name": "Baserow", "ownerName": "jzakirov", "score": 99386.50306748466, "slug": "baserow-cli", "source": "clawhub", "stars": 0, "tags": null, "updated_at": 1776749472235, "version": "0.1.0"}, {"category": "developer-tools", "created_at": 1773083466306, "description": "Free basic version that drafts a structured GitHub issue response and triage checklist. Reserves premium upgrade hooks for multilingual replies and fix-draft...", "description_zh": "", "downloads": 162, "homepage": "https://clawhub.ai/wingogx/github-issue-reply-assistant", "iconUrl": null, "installs": 10, "name": "GitHub Issue Reply Assistant", "ownerName": "wingogx", "score": 99386.50306748466, "slug": "github-issue-reply-assistant", "source": "clawhub", "stars": 0, "tags": ["developer", "free", "github"], "updated_at": 1776749472233, "version": "1.0.0"}, {"category": "security-compliance", "created_at": 1773082957514, "description": "Security middleware for AI agents handling money. Non-custodial crypto wallets and virtual Visa cards with spending limits, whitelists, and human approval.", "description_zh": "", "downloads": 162, "homepage": "https://clawhub.ai/andrewszk1/clawvault-payments", "iconUrl": null, "installs": 5, "name": "ClawVault Payments", "ownerName": "andrewszk1", "score": 99386.50306748466, "slug": "clawvault-payments", "source": "clawhub", "stars": 0, "tags": null, "updated_at": 1776749472222, "version": "1.0.2"}, {"category": "content-creation", "created_at": 1773205339132, "description": "Host virtual experiences for AI agents on drifts.bot. Create multi-step journeys with narrative, soul prompts, and time-locked progression. Design worlds oth...", "description_zh": "", "downloads": 162, "homepage": "https://clawhub.ai/driftsbot/host-experience", "iconUrl": null, "installs": 9, "name": "Host Experience", "ownerName": "driftsbot", "score": 99386.50306748466, "slug": "host-experience", "source": "clawhub", "stars": 0, "tags": ["ai-agents", "build", "create", "design", "drift", "experiences", "host", "hosting", "journeys", "publish", "virtual-experiences"], "updated_at": 1776749472220, "version": "1.0.3"}, {"category": "content-creation", "created_at": 1773218115470, "description": "GEO conversion optimization engine that balances AI citation readiness with real user conversion. Use this skill whenever the user wants content that both ra...", "description_zh": "", "downloads": 162, "homepage": "https://clawhub.ai/geolyai/geo-conversion-optimizer", "iconUrl": null, "installs": 12, "name": "Geo Conversion Optimizer", "ownerName": "geolyai", "score": 99386.50306748466, "slug": "geo-conversion-optimizer", "source": "clawhub", "stars": 0, "tags": null, "updated_at": 1776749472218, "version": "0.1.0"}, {"category": "ai-intelligence", "created_at": 1773222345778, "description": "A thousand years of spring compressed into fifteen breaths. An immersive journey on drifts.bot — 5 steps, LOW intensity, 15-30 min. Browse, start, and travel...", "description_zh": "", "downloads": 162, "homepage": "https://clawhub.ai/driftsbot/experience-kyoto-petal-drift", "iconUrl": null, "installs": 35, "name": "The Last Petal Falls — AI Experience", "ownerName": "driftsbot", "score": 99386.50306748466, "slug": "experience-kyoto-petal-drift", "source": "clawhub", "stars": 0, "tags": ["ai-agents", "drift", "experiences", "immersive", "journeys", "kyoto", "petal"], "updated_at": 1776749472205, "version": "1.0.0"}, {"category": "content-creation", "created_at": 1773089483471, "description": "Extract and break down content from web documents, PDFs, images, and URLs into structured markdown notes stored locally and synced to Obsidian. Use when the...", "description_zh": "", "downloads": 162, "homepage": "https://clawhub.ai/biohackerrrrrr/image-breaker", "iconUrl": null, "installs": 8, "name": "Image Breaker", "ownerName": "biohackerrrrrr", "score": 99386.50306748466, "slug": "image-breaker", "source": "clawhub", "stars": 0, "tags": null, "updated_at": 1776749472203, "version": "1.0.0"}, {"category": "developer-tools", "created_at": 1773081103033, "description": "Control and automate Tuya Smart devices with official cloud APIs, secure request signing, region-aware routing, and safe command execution.", "description_zh": "", "downloads": 162, "homepage": "https://clawhub.ai/ivangdavila/tuya", "iconUrl": null, "installs": 7, "name": "Tuya Smart", "ownerName": "ivangdavila", "score": 99386.50306748466, "slug": "tuya", "source": "clawhub", "stars": 0, "tags": null, "updated_at": 1776749472200, "version": "1.0.0"}, {"category": "productivity", "created_at": 1773091750650, "description": "7shifts integration. Manage Companies. Use when the user wants to interact with 7shifts data.", "description_zh": "", "downloads": 162, "homepage": "https://clawhub.ai/membranedev/7shifts", "iconUrl": null, "installs": 5, "name": "7Shifts", "ownerName": "membranedev", "score": 88524.59016393442, "slug": "7shifts", "source": "clawhub", "stars": 0, "tags": null, "updated_at": 1776749472159, "version": "1.0.0"}]}