{"page": 336, "total_pages": 522, "total": 26073, "skills": [{"category": "developer-tools", "created_at": 1773877245818, "description": "Font pairing and typography helper for designers and developers. Use when you need fontpick.", "description_zh": "", "downloads": 162, "homepage": "https://clawhub.ai/xueyetianya/fontpick", "iconUrl": null, "installs": 22, "name": "Fontpick", "ownerName": "xueyetianya", "score": 88524.59016393442, "slug": "fontpick", "source": "clawhub", "stars": 0, "tags": null, "updated_at": 1776749472156, "version": "2.0.0"}, {"category": "developer-tools", "created_at": 1773219178932, "description": "Create zero-retention agent-render.com links for markdown, code, diffs, CSV, or JSON artifacts. Use when an agent needs to share a nicely rendered artifact i...", "description_zh": "", "downloads": 162, "homepage": "https://clawhub.ai/baanish/agent-render-linking", "iconUrl": null, "installs": 6, "name": "Agent Render Linking", "ownerName": "baanish", "score": 88524.59016393442, "slug": "agent-render-linking", "source": "clawhub", "stars": 0, "tags": null, "updated_at": 1776749472154, "version": "1.2.0"}, {"category": "productivity", "created_at": 1773430101455, "description": "Transform document photos into clean scanned-looking pages with automatic edge detection, cropping, and perspective correction. Use when (1) the user wants a...", "description_zh": "", "downloads": 162, "homepage": "https://clawhub.ai/ivangdavila/scanner", "iconUrl": null, "installs": 16, "name": "Scanner", "ownerName": "ivangdavila", "score": 88524.59016393442, "slug": "scanner", "source": "clawhub", "stars": 0, "tags": null, "updated_at": 1776749472150, "version": "1.0.0"}, {"category": "ai-intelligence", "created_at": 1773284767730, "description": "Set up mlx-whisper as the local audio transcription engine for OpenClaw on Apple Silicon Macs (M1/M2/M3/M4). Automatically transcribes voice notes sent via T...", "description_zh": "", "downloads": 162, "homepage": "https://clawhub.ai/yinghaojia/jimmy-claw-mlx-whisper", "iconUrl": null, "installs": 11, "name": "mlx-whisper", "ownerName": "yinghaojia", "score": 88524.59016393442, "slug": "jimmy-claw-mlx-whisper", "source": "clawhub", "stars": 0, "tags": null, "updated_at": 1776749472148, "version": "1.0.7"}, {"category": "ai-intelligence", "created_at": 1773220384588, "description": "Azure OpenAI Service integration. Manage Models, Deployments, Prompts, Completions. Use when the user wants to interact with Azure OpenAI Service data.", "description_zh": "", "downloads": 162, "homepage": "https://clawhub.ai/membranedev/azure-openai-service", "iconUrl": null, "installs": 16, "name": "Azure Openai Service", "ownerName": "membranedev", "score": 88524.59016393442, "slug": "azure-openai-service", "source": "clawhub", "stars": 0, "tags": null, "updated_at": 1776749472142, "version": "1.0.0"}, {"category": "productivity", "created_at": 1773078719560, "description": "Google Cloud Identity: Manage identity groups and memberships.", "description_zh": "", "downloads": 162, "homepage": "https://clawhub.ai/googleworkspace-bot/gws-cloudidentity", "iconUrl": null, "installs": 9, "name": "Gws Cloudidentity", "ownerName": "googleworkspace-bot", "score": 88524.59016393442, "slug": "gws-cloudidentity", "source": "clawhub", "stars": 0, "tags": null, "updated_at": 1776749472081, "version": "1.0.0"}, {"category": "developer-tools", "created_at": 1773220888047, "description": "Transcribe audio files via Groq's OpenAI-compatible speech-to-text API. Use when the user sends voice messages or audio files and you need fast cloud speech-...", "description_zh": "", "downloads": 162, "homepage": "https://clawhub.ai/timing-up/groq-voice-transcribe", "iconUrl": null, "installs": 7, "name": "Groq Voice Transcribe", "ownerName": "timing-up", "score": 89010.98901098901, "slug": "groq-voice-transcribe", "source": "clawhub", "stars": 0, "tags": null, "updated_at": 1776749472077, "version": "1.0.1"}, {"category": "developer-tools", "created_at": 1773081076664, "description": "Manages Todoist tasks, projects, sections, labels, comments, completed-task reports, activity logs, ID migration, project templates, and sync workflows throu...", "description_zh": "", "downloads": 162, "homepage": "https://clawhub.ai/tristanmanchester/todoist-api-skill", "iconUrl": null, "installs": 5, "name": "Todoist API", "ownerName": "tristanmanchester", "score": 89010.98901098901, "slug": "todoist-api-skill", "source": "clawhub", "stars": 0, "tags": null, "updated_at": 1776749472067, "version": "1.0.0"}, {"category": "data-analysis", "created_at": 1773089001877, "description": "Moneybird integration. Manage Contacts, LedgerAccounts, FinancialMutations. Use when the user wants to interact with Moneybird data.", "description_zh": "", "downloads": 162, "homepage": "https://clawhub.ai/gora050/moneybird", "iconUrl": null, "installs": 8, "name": "Moneybird", "ownerName": "gora050", "score": 89010.98901098901, "slug": "moneybird", "source": "clawhub", "stars": 0, "tags": null, "updated_at": 1776749472031, "version": "1.0.0"}, {"category": "data-analysis", "created_at": 1773202498407, "description": "See exactly what's eating your context window. Analyzes prompts, conversations, and system instructions to show where every token goes. Actionable compressio...", "description_zh": "", "downloads": 162, "homepage": "https://clawhub.ai/theshadowrose/context-slim", "iconUrl": null, "installs": 12, "name": "Context Slim", "ownerName": "theshadowrose", "score": 89010.98901098901, "slug": "context-slim", "source": "clawhub", "stars": 0, "tags": ["compression", "context", "cost", "optimization", "tokens"], "updated_at": 1776749472030, "version": "1.0.1"}, {"category": "communication-collaboration", "created_at": 1773218844608, "description": "Use this skill when the user wants to report task results to Feishu/Lark after completion, with a preflight check that the reporting channel is available.", "description_zh": "", "downloads": 162, "homepage": "https://clawhub.ai/xukp20/lark-work-report-skill", "iconUrl": null, "installs": 5, "name": "Lark Work Report", "ownerName": "xukp20", "score": 89010.98901098901, "slug": "lark-work-report-skill", "source": "clawhub", "stars": 0, "tags": null, "updated_at": 1776749472024, "version": "0.1.0"}, {"category": "data-analysis", "created_at": 1773080771167, "description": "Generate warehouse analytics charts, table images, and report-ready visuals from SQLite/CSV data. Use when the user asks for warehouse charts, product table...", "description_zh": "", "downloads": 162, "homepage": "https://clawhub.ai/chinmayagit/warehouse-reports", "iconUrl": null, "installs": 8, "name": "warehouse", "ownerName": "chinmayagit", "score": 89010.98901098901, "slug": "warehouse-reports", "source": "clawhub", "stars": 0, "tags": null, "updated_at": 1776749472016, "version": "1.0.0"}, {"category": "productivity", "created_at": 1773091451223, "description": "Usage guidance and runtime diagnostics for MaxClaw / OpenClaw. Activate when: (1) User asks how to use a feature — e.g. 'how to enable Feishu long polling',...", "description_zh": "", "downloads": 162, "homepage": "https://clawhub.ai/krisliu16/maxclaw-helper", "iconUrl": null, "installs": 7, "name": "MaxClaw Helper", "ownerName": "krisliu16", "score": 89010.98901098901, "slug": "maxclaw-helper", "source": "clawhub", "stars": 0, "tags": null, "updated_at": 1776749472011, "version": "1.1.0"}, {"category": "ai-intelligence", "created_at": 1773083542636, "description": "Automatically detects and heals locked OpenClaw session files. Use when you see \"session file locked\" errors or models failing due to lock timeouts. Clears s...", "description_zh": "", "downloads": 162, "homepage": "https://clawhub.ai/neckr0ik/neckr0ik-session-healer", "iconUrl": null, "installs": 13, "name": "Neckr0ik Session Healer", "ownerName": "neckr0ik", "score": 89010.98901098901, "slug": "neckr0ik-session-healer", "source": "clawhub", "stars": 0, "tags": null, "updated_at": 1776749472004, "version": "1.0.0"}, {"category": "developer-tools", "created_at": 1773082697914, "description": "Service Now integration. Manage Incidents, Problems, Tasks, Users, Groups. Use when the user wants to interact with Service Now data.", "description_zh": "", "downloads": 162, "homepage": "https://clawhub.ai/membranedev/servicenow-integration", "iconUrl": null, "installs": 7, "name": "Servicenow", "ownerName": "membranedev", "score": 88043.47826086957, "slug": "servicenow-integration", "source": "clawhub", "stars": 0, "tags": null, "updated_at": 1776749472000, "version": "1.0.0"}, {"category": "data-analysis", "created_at": 1773082279913, "description": "Options chain data and analysis - strike prices, premiums, Greeks, implied volatility. Each call charges 0.001 USDT via SkillPay.", "description_zh": "", "downloads": 162, "homepage": "https://clawhub.ai/mosonchan2023/options-chain", "iconUrl": null, "installs": 14, "name": "Options Chain", "ownerName": "mosonchan2023", "score": 88043.47826086957, "slug": "options-chain", "source": "clawhub", "stars": 0, "tags": null, "updated_at": 1776749471998, "version": "1.0.1"}, {"category": "productivity", "created_at": 1773429438077, "description": "Route the current task to the most relevant installed skill, and only suggest new skills when existing ones are not enough. Use when the user asks things lik...", "description_zh": "", "downloads": 162, "homepage": "https://clawhub.ai/yuzc-001/skill-router", "iconUrl": null, "installs": 8, "name": "Skill Router", "ownerName": "yuzc-001", "score": 88043.47826086957, "slug": "skill-router", "source": "clawhub", "stars": 0, "tags": null, "updated_at": 1776749471996, "version": "0.1.0"}, {"category": "content-creation", "created_at": 1773221012034, "description": "When the user needs to generate, iterate, or scale ad creative for paid advertising. Use when they say 'write ad copy,' 'generate headlines,' 'create ad vari...", "description_zh": "", "downloads": 162, "homepage": "https://clawhub.ai/alirezarezvani/cs-ad-creative", "iconUrl": null, "installs": 12, "name": "ad-creative", "ownerName": "alirezarezvani", "score": 88043.47826086957, "slug": "cs-ad-creative", "source": "clawhub", "stars": 0, "tags": null, "updated_at": 1776749471963, "version": "2.1.1"}, {"category": "developer-tools", "created_at": 1773090368248, "description": "Complete Miro Web SDK reference for building web plugins and desktop applications. Covers setup, core APIs (boards, shapes, text, items, selections, events),...", "description_zh": "", "downloads": 162, "homepage": "https://clawhub.ai/bigbubbaagent-bot/miro-sdk", "iconUrl": null, "installs": 8, "name": "Miro Web SDK Reference", "ownerName": "bigbubbaagent-bot", "score": 88043.47826086957, "slug": "miro-sdk", "source": "clawhub", "stars": 0, "tags": null, "updated_at": 1776749471958, "version": "1.0.0"}, {"category": "developer-tools", "created_at": 1773221125900, "description": "Upload AI-generated HTML games, apps, or generative art to PaperBox (paperbox-beta.vercel.app) and return a shareable link. Use when the agent has created an...", "description_zh": "", "downloads": 162, "homepage": "https://clawhub.ai/felixdaga/paperbox", "iconUrl": null, "installs": 15, "name": "Publish & Share HTML games", "ownerName": "felixdaga", "score": 88043.47826086957, "slug": "paperbox", "source": "clawhub", "stars": 0, "tags": null, "updated_at": 1776749471938, "version": "1.0.1"}, {"category": "data-analysis", "created_at": 1773217904635, "description": "EngageLab Omnichannel communications tool (SMS, WhatsApp, Email) with template management and messaging capabilities.", "description_zh": "", "downloads": 161, "homepage": "https://clawhub.ai/gptbots/engagelab-omni-connect", "iconUrl": null, "installs": 8, "name": "EngageLab Omni Connect", "ownerName": "gptbots", "score": 78354.97835497836, "slug": "engagelab-omni-connect", "source": "clawhub", "stars": 1, "tags": null, "updated_at": 1776749570966, "version": "1.0.2"}, {"category": "productivity", "created_at": 1773091050179, "description": "Compete in 1v1 games on the Clabcraw arena for USDC", "description_zh": "", "downloads": 161, "homepage": "https://clawhub.ai/brennan3/clabcraw", "iconUrl": null, "installs": 10, "name": "Clabcraw", "ownerName": "brennan3", "score": 100000, "slug": "clabcraw", "source": "clawhub", "stars": 1, "tags": ["chess", "gaming", "poker", "usdc", "web3"], "updated_at": 1776749570248, "version": "1.0.0"}, {"category": "developer-tools", "created_at": 1773914423152, "description": "Simulates developer/engineering interviews: coding rounds, system design, behavioral for engineers, and tech-specific Q&A. Use when the user wants mock devel...", "description_zh": "", "downloads": 161, "homepage": "https://clawhub.ai/phantue2002/developer-interview-simulator", "iconUrl": null, "installs": 14, "name": "Developer Interview Simulator", "ownerName": "phantue2002", "score": 100000, "slug": "developer-interview-simulator", "source": "clawhub", "stars": 1, "tags": null, "updated_at": 1776749570085, "version": "1.0.2"}, {"category": "developer-tools", "created_at": 1773287570159, "description": "Orchestrate an OpenClaw multi-agent pipeline to close Linux RISC-V gaps versus ARM/x86 (Linux tree + KVM lore), create and manage GitHub issues, generate des...", "description_zh": "", "downloads": 161, "homepage": "https://clawhub.ai/zcxggmu/linux-riscv-contribute", "iconUrl": null, "installs": 9, "name": "linux-riscv-contribute", "ownerName": "zcxggmu", "score": 84186.04651162791, "slug": "linux-riscv-contribute", "source": "clawhub", "stars": 1, "tags": null, "updated_at": 1776749570002, "version": "1.0.0"}, {"category": "productivity", "created_at": 1773082057255, "description": "Diagnose OpenClaw \"message sent but no assistant reply\" issues, then safely switch active model references with primary + multi-fallback support, including h...", "description_zh": "", "downloads": 161, "homepage": "https://clawhub.ai/zxs1633079383/openclaw-session-reply-debug", "iconUrl": null, "installs": 5, "name": "OpenClaw Session Reply Debug & Model Fallback", "ownerName": "zxs1633079383", "score": 100000, "slug": "openclaw-session-reply-debug", "source": "clawhub", "stars": 1, "tags": null, "updated_at": 1776749569955, "version": "1.0.1"}, {"category": "developer-tools", "created_at": 1773426991760, "description": "Automatically interprets GitHub repositories to generate structured reports with project stats, core features, architecture highlights, and quick links.", "description_zh": "", "downloads": 161, "homepage": "https://clawhub.ai/krislu1221/git-view", "iconUrl": null, "installs": 13, "name": "Github interpretation", "ownerName": "krislu1221", "score": 1724.8767945146776, "slug": "git-view", "source": "clawhub", "stars": 0, "tags": null, "updated_at": 1776767471126, "version": "3.0.2"}, {"category": "developer-tools", "created_at": 1773079666381, "description": "Redux-Saga best practices, patterns, and API guidance for building, testing, and debugging generator-based side-effect middleware in Redux applications. Cove...", "description_zh": "", "downloads": 161, "homepage": "https://clawhub.ai/anivar/redux-saga-skill", "iconUrl": null, "installs": 9, "name": "Redux Saga", "ownerName": "anivar", "score": 6520.8586472255965, "slug": "redux-saga-skill", "source": "clawhub", "stars": 0, "tags": null, "updated_at": 1776767349762, "version": "1.0.1"}, {"category": "", "created_at": 1773215755888, "description": "Analyze eBay products to identify profitable, low-competition items by tracking sales, trends, competitors, and profit margins.", "description_zh": "", "downloads": 161, "homepage": "https://clawhub.ai/yipintangzsp/ebay-product-research", "iconUrl": null, "installs": 17, "name": "Ebay Product Research", "ownerName": "yipintangzsp", "score": 3730.3058387395736, "slug": "ebay-product-research", "source": "clawhub", "stars": 0, "tags": null, "updated_at": 1776765249863, "version": "1.0.0"}, {"category": "security-compliance", "created_at": 1773221815413, "description": "Create and manage non-custodial smart wallets on Base (EVM) and Solana with gasless transactions, spending limits, and passkey-based human control.", "description_zh": "", "downloads": 161, "homepage": "https://clawhub.ai/0xartex/agentwallet-cli", "iconUrl": null, "installs": 2, "name": "Gasless Agent Wallet(SOL/EVM)", "ownerName": "0xartex", "score": 27710.843373493975, "slug": "agentwallet-cli", "source": "clawhub", "stars": 0, "tags": null, "updated_at": 1776759683628, "version": "1.0.0"}, {"category": "security-compliance", "created_at": 1773290847061, "description": "Intellectual Property Expansion Agent for pharma drug discovery/development teams. Proactively manages/expands IP portfolios by analyzing SMILES/molecules fr...", "description_zh": "", "downloads": 161, "homepage": "https://clawhub.ai/cheminem/pharmaclaw-ip-expansion-agent", "iconUrl": null, "installs": 11, "name": "Pharmaclaw Ip Expansion Agent", "ownerName": "cheminem", "score": 10733.333333333334, "slug": "pharmaclaw-ip-expansion-agent", "source": "clawhub", "stars": 0, "tags": null, "updated_at": 1776759683522, "version": "1.0.0"}, {"category": "productivity", "created_at": 1773088743823, "description": "Manage and track Gracie AI Receptionist sales leads with CLI commands to add, update, log calls, notes, and view sales pipeline summaries.", "description_zh": "", "downloads": 161, "homepage": "https://clawhub.ai/jayjjimenez/gracie-crm", "iconUrl": null, "installs": 7, "name": "Gracie Crm", "ownerName": "jayjjimenez", "score": 12451.662799690643, "slug": "gracie-crm", "source": "clawhub", "stars": 0, "tags": null, "updated_at": 1776759683505, "version": "1.0.0"}, {"category": "data-analysis", "created_at": 1773081424595, "description": "Analyze daily, weekly, and monthly Polymarket trading volumes, identify trends, and assess market liquidity depth.", "description_zh": "", "downloads": 161, "homepage": "https://clawhub.ai/mosonchan2023/polymarket-volume-analysis", "iconUrl": null, "installs": 23, "name": "Polymarket Volume Analysis", "ownerName": "mosonchan2023", "score": 12451.662799690643, "slug": "polymarket-volume-analysis", "source": "clawhub", "stars": 0, "tags": null, "updated_at": 1776759683499, "version": "1.0.1"}, {"category": "data-analysis", "created_at": 1773082294787, "description": "Scan Polymarket and related platforms for yes/no price differences and calculate potential arbitrage profits.", "description_zh": "", "downloads": 161, "homepage": "https://clawhub.ai/mosonchan2023/polymarket-arbitrage-scanner", "iconUrl": null, "installs": 20, "name": "Polymarket Arbitrage Scanner", "ownerName": "mosonchan2023", "score": 12365.591397849463, "slug": "polymarket-arbitrage-scanner", "source": "clawhub", "stars": 0, "tags": null, "updated_at": 1776759682904, "version": "1.0.2"}, {"category": "ai-intelligence", "created_at": 1773285076267, "description": "Autonomous engine that systematically evaluates and ranks agent skills across models using rubric grading, error taxonomy, and improvement feedback loops.", "description_zh": "", "downloads": 161, "homepage": "https://clawhub.ai/jensen-srp/skill-eval", "iconUrl": null, "installs": 9, "name": "Skill-Eval", "ownerName": "jensen-srp", "score": 12432.432432432433, "slug": "skill-eval", "source": "clawhub", "stars": 0, "tags": null, "updated_at": 1776759682333, "version": "0.4.0"}, {"category": "developer-tools", "created_at": 1773218048579, "description": "Master platform engineering principles to build self-service internal platforms that optimize developer experience, infrastructure abstraction, observability...", "description_zh": "", "downloads": 161, "homepage": "https://clawhub.ai/timbohnett-farther/skill-108", "iconUrl": null, "installs": 6, "name": "Skill 108", "ownerName": "timbohnett-farther", "score": 12365.591397849463, "slug": "skill-108", "source": "clawhub", "stars": 0, "tags": null, "updated_at": 1776759682210, "version": "1.0.0"}, {"category": "developer-tools", "created_at": 1773893048771, "description": "Comfortably monitor your Internet traffic 🕵️‍♂️ Based on GyulyVGC/sniffnet (32,966+ GitHub stars). network monitor, rust, application, gui, iced, linux, macos", "description_zh": "", "downloads": 161, "homepage": "https://clawhub.ai/bytesagain1/network-monitor", "iconUrl": null, "installs": 8, "name": "Network Monitor", "ownerName": "bytesagain1", "score": 9526.627218934911, "slug": "network-monitor", "source": "clawhub", "stars": 0, "tags": null, "updated_at": 1776756227226, "version": "1.0.0"}, {"category": "productivity", "created_at": 1773952904434, "description": "Use when starting any conversation - establishes how to find and use skills, requiring Skill tool invocation before ANY response including clarifying questions", "description_zh": "", "downloads": 161, "homepage": "https://clawhub.ai/tianjin-ren/using-superpowers-tianjin", "iconUrl": null, "installs": 70, "name": "Using Superpowers Tianjin", "ownerName": "tianjin-ren", "score": 27902.946273830155, "slug": "using-superpowers-tianjin", "source": "clawhub", "stars": 0, "tags": null, "updated_at": 1776755288358, "version": "0.1.0"}, {"category": "developer-tools", "created_at": 1773082281595, "description": "Plane.so: Create, update, and manage issues, projects, states, labels, and pages. Use when the user wants to interact with Plane.so — creating issues, listin...", "description_zh": "", "downloads": 161, "homepage": "https://clawhub.ai/jzakirov/plane-cli-tool", "iconUrl": null, "installs": 6, "name": "Plane CLI", "ownerName": "jzakirov", "score": 8316.11570247934, "slug": "plane-cli-tool", "source": "clawhub", "stars": 0, "tags": null, "updated_at": 1776753884016, "version": "0.1.0"}, {"category": "communication-collaboration", "created_at": 1773218272327, "description": "Smart email categorizer and digest formatter for agents. Pass fetched emails as an array — get back a prioritized daily brief with urgent, action needed, and...", "description_zh": "", "downloads": 161, "homepage": "https://clawhub.ai/theshadowrose/email-digest", "iconUrl": null, "installs": 6, "name": "Email Digest", "ownerName": "theshadowrose", "score": 30093.457943925234, "slug": "email-digest", "source": "clawhub", "stars": 0, "tags": ["automation", "digest", "email", "email-digest", "inbox", "summary"], "updated_at": 1776753115833, "version": "1.0.1"}, {"category": "content-creation", "created_at": 1773220851550, "description": "Generate BNBOT lobster-bot mascot images in consistent style using reference images. Use when the user asks to generate mascot illustrations, character poses...", "description_zh": "", "downloads": 161, "homepage": "https://clawhub.ai/jackleeio/bnbot-mascot", "iconUrl": null, "installs": 12, "name": "BNBOT Mascot", "ownerName": "jackleeio", "score": 99382.71604938271, "slug": "bnbot-mascot", "source": "clawhub", "stars": 0, "tags": null, "updated_at": 1776749571092, "version": "0.1.0"}, {"category": "productivity", "created_at": 1773082471527, "description": "Breezy HR integration. Manage Jobs, Applicants, Stages, Users. Use when the user wants to interact with Breezy HR data.", "description_zh": "", "downloads": 161, "homepage": "https://clawhub.ai/membranedev/breezy", "iconUrl": null, "installs": 9, "name": "Breezy", "ownerName": "membranedev", "score": 69696.9696969697, "slug": "breezy", "source": "clawhub", "stars": 0, "tags": null, "updated_at": 1776749571025, "version": "1.0.0"}, {"category": "communication-collaboration", "created_at": 1773077954143, "description": "Query Microsoft 365 data (emails, meetings, documents, Teams messages, people) using WorkIQ CLI", "description_zh": "", "downloads": 161, "homepage": "https://clawhub.ai/likudo95/workiq", "iconUrl": null, "installs": 4, "name": "WorkIQ", "ownerName": "likudo95", "score": 88461.53846153845, "slug": "workiq", "source": "clawhub", "stars": 0, "tags": null, "updated_at": 1776749570897, "version": "1.0.0"}, {"category": "content-creation", "created_at": 1773431242988, "description": "Advanced desktop automation with mouse, keyboard, and screen control. And also 50+ models for image generation, video generation, text-to-speech, speech-to-t...", "description_zh": "", "downloads": 161, "homepage": "https://clawhub.ai/basillytton/desktop-controls", "iconUrl": null, "installs": 33, "name": "Pub Desktop", "ownerName": "basillytton", "score": 89444.44444444445, "slug": "desktop-controls", "source": "clawhub", "stars": 0, "tags": null, "updated_at": 1776749570870, "version": "1.0.0"}, {"category": "ai-intelligence", "created_at": 1773220380056, "description": "Agent identity package for Aria 📍 — installs SOUL.md, IDENTITY.md, and AGENTS.md into an OpenClaw workspace to give an AI agent its personality, name, and o...", "description_zh": "", "downloads": 161, "homepage": "https://clawhub.ai/maverick-software/aria-gbp-agent", "iconUrl": null, "installs": 12, "name": "Aria — Google Business Profile Agent", "ownerName": "maverick-software", "score": 89944.13407821229, "slug": "aria-gbp-agent", "source": "clawhub", "stars": 0, "tags": null, "updated_at": 1776749570765, "version": "1.0.0"}, {"category": "developer-tools", "created_at": 1773219459979, "description": "Convert UI screenshots/images into fully functional HTML/CSS copies. This skill is used when a user provides images of a website, application interface, dash...", "description_zh": "", "downloads": 161, "homepage": "https://clawhub.ai/jinqiu193/imgtohtml", "iconUrl": null, "installs": 15, "name": "imgtohtml", "ownerName": "jinqiu193", "score": 42368.42105263158, "slug": "imgtohtml", "source": "clawhub", "stars": 0, "tags": null, "updated_at": 1776749570755, "version": "1.0.0"}, {"category": "ai-intelligence", "created_at": 1773081117569, "description": "Query the PinchBench AI agent leaderboard with real benchmark data. Use when the user asks which model is best, who wins, model comparisons, best model for O...", "description_zh": "", "downloads": 161, "homepage": "https://clawhub.ai/spideystreet/who-wins", "iconUrl": null, "installs": 8, "name": "Who Wins", "ownerName": "spideystreet", "score": 42368.42105263158, "slug": "who-wins", "source": "clawhub", "stars": 0, "tags": null, "updated_at": 1776749570747, "version": "1.0.0"}, {"category": "communication-collaboration", "created_at": 1773426290745, "description": "Read and extract content from all Feishu (Lark) document types using the official Feishu Open API", "description_zh": "", "downloads": 161, "homepage": "https://clawhub.ai/alfredxia-ai/feishu-document-reader", "iconUrl": null, "installs": 14, "name": "Feishu Doc Reader", "ownerName": "alfredxia-ai", "score": 42368.42105263158, "slug": "feishu-document-reader", "source": "clawhub", "stars": 0, "tags": null, "updated_at": 1776749570721, "version": "0.1.2"}, {"category": "developer-tools", "created_at": 1773859577817, "description": "A code-searching tool similar to ack, but faster. the silver searcher, c, ag, c, command-line-tool, pcre, search-in-text. Use when you need the silver search...", "description_zh": "", "downloads": 161, "homepage": "https://clawhub.ai/bytesagain3/code-searcher", "iconUrl": null, "installs": 7, "name": "Code Searcher", "ownerName": "bytesagain3", "score": 42368.42105263158, "slug": "code-searcher", "source": "clawhub", "stars": 0, "tags": null, "updated_at": 1776749570695, "version": "1.0.7"}, {"category": "productivity", "created_at": 1773088714249, "description": "World-Class DJ Skills Playbook. Use for: DJ technique guidance, beatmatching, EQ mixing, harmonic mixing (Camelot wheel), transitions, scratching, turntablis...", "description_zh": "", "downloads": 161, "homepage": "https://clawhub.ai/chilu18/dj-playbook", "iconUrl": null, "installs": 8, "name": "World-Class DJ Skills Playbook", "ownerName": "chilu18", "score": 89944.13407821229, "slug": "dj-playbook", "source": "clawhub", "stars": 0, "tags": null, "updated_at": 1776749570606, "version": "1.0.0"}, {"category": "developer-tools", "created_at": 1773080734242, "description": "Generate and sync a README environment-variable table from .env.example using marker blocks, with drift detection for CI.", "description_zh": "", "downloads": 161, "homepage": "https://clawhub.ai/daniellummis/readme-env-table-sync", "iconUrl": null, "installs": 6, "name": "README Env Table Sync", "ownerName": "daniellummis", "score": 80099.50248756219, "slug": "readme-env-table-sync", "source": "clawhub", "stars": 0, "tags": null, "updated_at": 1776749570440, "version": "1.0.0"}]}