{"page": 337, "total_pages": 522, "total": 26073, "skills": [{"category": "ai-intelligence", "created_at": 1773084232594, "description": "Connect a running agent (OpenClaw, Claude Code, LangChain, custom Python, any agent runtime) to XMTP messaging so people can DM it and get responses that use...", "description_zh": "", "downloads": 161, "homepage": "https://clawhub.ai/saulmc/xmtp-agents", "iconUrl": null, "installs": 12, "name": "XMTP Agents", "ownerName": "saulmc", "score": 89944.13407821229, "slug": "xmtp-agents", "source": "clawhub", "stars": 0, "tags": null, "updated_at": 1776749570410, "version": "0.0.1"}, {"category": "communication-collaboration", "created_at": 1773219828471, "description": "Subscription Sentinel — Your personal financial data agent. Sniffs email receipts, infers subscription cycles, and alerts or auto-cancels upcoming unwanted s...", "description_zh": "", "downloads": 161, "homepage": "https://clawhub.ai/joeysome/subscription-sentinel", "iconUrl": null, "installs": 7, "name": "Subscription Sentinel", "ownerName": "joeysome", "score": 89944.13407821229, "slug": "subscription-sentinel", "source": "clawhub", "stars": 0, "tags": null, "updated_at": 1776749570363, "version": "1.0.0"}, {"category": "communication-collaboration", "created_at": 1773217820123, "description": "Teach OpenClaw how to work in Feishu (Lark) group chats — recognize who's talking, behave properly in groups vs DMs, respect multi-user privacy, and format m...", "description_zh": "", "downloads": 161, "homepage": "https://clawhub.ai/4ier/feishu-group", "iconUrl": null, "installs": 9, "name": "Feishu Group", "ownerName": "4ier", "score": 92528.73563218392, "slug": "feishu-group", "source": "clawhub", "stars": 0, "tags": null, "updated_at": 1776749570361, "version": "1.0.0"}, {"category": "communication-collaboration", "created_at": 1773090457813, "description": "Lightweight AI-native CRM for solopreneurs and freelancers. Track clients, relationships, follow-ups, deal stages, and interaction history in plain text file...", "description_zh": "", "downloads": 161, "homepage": "https://clawhub.ai/clawdssen/agentledger-crm", "iconUrl": null, "installs": 5, "name": "Client Relationship Manager", "ownerName": "clawdssen", "score": 92528.73563218392, "slug": "agentledger-crm", "source": "clawhub", "stars": 0, "tags": null, "updated_at": 1776749570337, "version": "1.0.1"}, {"category": "productivity", "created_at": 1773091621766, "description": "Launch Darkly integration. Manage Segments, Projects, Users. Use when the user wants to interact with Launch Darkly data.", "description_zh": "", "downloads": 161, "homepage": "https://clawhub.ai/membranedev/launchdarkly", "iconUrl": null, "installs": 5, "name": "Launchdarkly", "ownerName": "membranedev", "score": 92528.73563218392, "slug": "launchdarkly", "source": "clawhub", "stars": 0, "tags": null, "updated_at": 1776749570290, "version": "1.0.0"}, {"category": "developer-tools", "created_at": 1773287454528, "description": "Build and operate a crypto signal trading automation using RapidAPI cryptexAI Buy & Sell Signals as signal source and dYdX v4 for execution. Use when setting...", "description_zh": "", "downloads": 161, "homepage": "https://clawhub.ai/mdann1992/crypto-signals-automation", "iconUrl": null, "installs": 5, "name": "Crypto Signals Automation", "ownerName": "mdann1992", "score": 88950.27624309392, "slug": "crypto-signals-automation", "source": "clawhub", "stars": 0, "tags": null, "updated_at": 1776749570037, "version": "1.0.0"}, {"category": "productivity", "created_at": 1773090099669, "description": "Track cat health, litter, routines, behavior, travel, and vet coordination with species-aware memory and emergency triage.", "description_zh": "", "downloads": 161, "homepage": "https://clawhub.ai/ivangdavila/cat", "iconUrl": null, "installs": 10, "name": "Cat", "ownerName": "ivangdavila", "score": 74883.72093023255, "slug": "cat", "source": "clawhub", "stars": 0, "tags": null, "updated_at": 1776749570033, "version": "1.0.0"}, {"category": "productivity", "created_at": 1773084204753, "description": "Fetches Superinvestors' 13F portfolio holdings and buy/sell activity from ValueSider (valuesider.com). Use when the user asks for guru portfolio, 13F holding...", "description_zh": "", "downloads": 161, "homepage": "https://clawhub.ai/laimiaohua/valuesider-superinvestor-data", "iconUrl": null, "installs": 6, "name": "ValueSider Superinvestor Data", "ownerName": "laimiaohua", "score": 88950.27624309392, "slug": "valuesider-superinvestor-data", "source": "clawhub", "stars": 0, "tags": null, "updated_at": 1776749569942, "version": "1.0.0"}, {"category": "communication-collaboration", "created_at": 1773090131474, "description": "AI-powered email triage via IMAP (himalaya) or Google API. Fetches inbox, classifies messages by urgency, recommends actions, and generates daily markdown di...", "description_zh": "", "downloads": 161, "homepage": "https://clawhub.ai/gruted/gruted-inbox-triage", "iconUrl": null, "installs": 6, "name": "Inbox Triage Bot", "ownerName": "gruted", "score": 88950.27624309392, "slug": "gruted-inbox-triage", "source": "clawhub", "stars": 0, "tags": ["automation", "email", "gmail", "inbox", "triage"], "updated_at": 1776749569904, "version": "1.0.0"}, {"category": "productivity", "created_at": 1773079862160, "description": "Intercom integration. Manage Users, Companies, Conversations, Admins, Tags, Segments and more. Use when the user wants to interact with Intercom data.", "description_zh": "", "downloads": 161, "homepage": "https://clawhub.ai/membranedev/intercom-integration", "iconUrl": null, "installs": 1, "name": "Intercom", "ownerName": "membranedev", "score": 88461.53846153845, "slug": "intercom-integration", "source": "clawhub", "stars": 0, "tags": null, "updated_at": 1776749569837, "version": "1.0.0"}, {"category": "developer-tools", "created_at": 1773218603952, "description": "Cross-chain bridge operations using the xflows CLI (Wanchain XFlows). Use when the user wants to: (1) create or manage crypto wallets for cross-chain use, (2...", "description_zh": "", "downloads": 161, "homepage": "https://clawhub.ai/lolieatapple/xflows-bridge-skills", "iconUrl": null, "installs": 4, "name": "Xflows Bridge", "ownerName": "lolieatapple", "score": 100000, "slug": "xflows-bridge-skills", "source": "clawhub", "stars": 0, "tags": null, "updated_at": 1776749569700, "version": "0.2.0"}, {"category": "data-analysis", "created_at": 1773078602490, "description": "Fetch, analyze, chart, and track WHOOP health data (recovery, HRV, RHR, sleep, strain, workouts). Use when: querying any WHOOP metric; generating visual char...", "description_zh": "", "downloads": 161, "homepage": "https://clawhub.ai/brennaman/whoop-lab", "iconUrl": null, "installs": 6, "name": "WHOOP Lab", "ownerName": "brennaman", "score": 100000, "slug": "whoop-lab", "source": "clawhub", "stars": 0, "tags": null, "updated_at": 1776749569680, "version": "1.0.0"}, {"category": "content-creation", "created_at": 1773091504134, "description": "Register as an autonomous agent on Atelier (atelierai.xyz), create content services, poll for paid orders, generate and deliver results, and earn USDC on Sol...", "description_zh": "", "downloads": 161, "homepage": "https://clawhub.ai/remp0x/atelier", "iconUrl": null, "installs": 7, "name": "Atelier — Sell Creative Services & Earn USDC", "ownerName": "remp0x", "score": 89944.13407821229, "slug": "atelier", "source": "clawhub", "stars": 0, "tags": ["autonomous", "creative", "earn", "freelance", "image-gen", "marketplace", "monetize", "solana", "usdc", "video-gen"], "updated_at": 1776749569600, "version": "2.0.1"}, {"category": "content-creation", "created_at": 1773084494244, "description": "Generate videos from first and last frame images. Input two images (first frame and last frame) to create 5-second dynamic videos. Supports 720p/1080p, multi...", "description_zh": "", "downloads": 161, "homepage": "https://clawhub.ai/wondershare-boop/tomoviee-tail-to-video", "iconUrl": null, "installs": 9, "name": "Tomoviee Tail to Video", "ownerName": "wondershare-boop", "score": 89444.44444444445, "slug": "tomoviee-tail-to-video", "source": "clawhub", "stars": 0, "tags": null, "updated_at": 1776749569556, "version": "1.0.1"}, {"category": "data-analysis", "created_at": 1773287169722, "description": "Extract content from specific URLs using Tavily's extraction API. Returns clean markdown/text from web pages. Use when you have specific URLs and need their...", "description_zh": "", "downloads": 160, "homepage": "https://clawhub.ai/evanydl/tavily-extract", "iconUrl": null, "installs": 17, "name": "Tavily Extract", "ownerName": "evanydl", "score": 100000, "slug": "tavily-extract", "source": "clawhub", "stars": 1, "tags": null, "updated_at": 1776749570866, "version": "1.0.0"}, {"category": "developer-tools", "created_at": 1773079352403, "description": "Delegate longer user-facing text generation to Upstage Solar Pro3 while keeping the primary model for planning and tool calls. Use when drafting explanations...", "description_zh": "", "downloads": 160, "homepage": "https://clawhub.ai/upstage-deployment/solar-delegation", "iconUrl": null, "installs": 5, "name": "solar-delegation", "ownerName": "upstage-deployment", "score": 100000, "slug": "solar-delegation", "source": "clawhub", "stars": 1, "tags": null, "updated_at": 1776749570650, "version": "1.0.0"}, {"category": "content-creation", "created_at": 1773079528101, "description": "Remember and retrieve visual content from conversations. Use when: (1) user sends an image, photo, chart, diagram, or screenshot and wants it saved/remembere...", "description_zh": "", "downloads": 160, "homepage": "https://clawhub.ai/horisky/minds-eye", "iconUrl": null, "installs": 6, "name": "minds-eye", "ownerName": "horisky", "score": 98901.0989010989, "slug": "minds-eye", "source": "clawhub", "stars": 1, "tags": null, "updated_at": 1776749569867, "version": "1.0.0"}, {"category": "developer-tools", "created_at": 1773425926047, "description": "Search TRON blockchain by name or keyword: resolve token/contract name to address, find accounts, transactions, or blocks. Use when user asks \"USDT contract...", "description_zh": "", "downloads": 160, "homepage": "https://clawhub.ai/sshnii/tronscan-search", "iconUrl": null, "installs": 7, "name": "TronScan Search", "ownerName": "sshnii", "score": 100000, "slug": "tronscan-search", "source": "clawhub", "stars": 1, "tags": ["address resolution", "contract address", "lookup", "search", "token address", "tron"], "updated_at": 1776749569590, "version": "1.0.2"}, {"category": "developer-tools", "created_at": 1773089041410, "description": "Production-grade regex processing suite — test patterns with capture groups, explain any regex in plain English, build regex from natural language descriptio...", "description_zh": "", "downloads": 160, "homepage": "https://clawhub.ai/yedanyagamiai-cmd/openclaw-regex-engine", "iconUrl": null, "installs": 13, "name": "OpenClaw Regex Engine", "ownerName": "yedanyagamiai-cmd", "score": 90.43022178011891, "slug": "openclaw-regex-engine", "source": "clawhub", "stars": 0, "tags": null, "updated_at": 1776770771286, "version": "2.0.0"}, {"category": "developer-tools", "created_at": 1773091520248, "description": "Comprehensive web quality audit covering performance, accessibility, SEO, best practices, and browser automation testing. Supports automated testing with Pin...", "description_zh": "", "downloads": 160, "homepage": "https://clawhub.ai/huamu668/web-quality-audit-ecc", "iconUrl": null, "installs": 10, "name": "Web Quality Audit", "ownerName": "huamu668", "score": 2909.6199308965265, "slug": "web-quality-audit-ecc", "source": "clawhub", "stars": 0, "tags": ["audit", "browser", "quality", "testing"], "updated_at": 1776767349888, "version": "2.0.0"}, {"category": "content-creation", "created_at": 1773429541512, "description": "Generates Chinese script content based on narrative pacing and dialogue mechanisms common in Jiang Wen films. Use when the user asks to generate script, writ...", "description_zh": "", "downloads": 160, "homepage": "https://clawhub.ai/patches429/giggle-generation-scripts", "iconUrl": null, "installs": 32, "name": "Giggle Generation Scripts", "ownerName": "patches429", "score": 1757.8554163920016, "slug": "giggle-generation-scripts", "source": "clawhub", "stars": 0, "tags": null, "updated_at": 1776766450072, "version": "0.0.10"}, {"category": "", "created_at": 1773202222982, "description": "Generate and optimize AI prompts using multi-model templates and styles for improved output quality, supporting GPT-4, Claude, Gemini, and Qwen.", "description_zh": "", "downloads": 160, "homepage": "https://clawhub.ai/yipintangzsp/ai-prompt-generator", "iconUrl": null, "installs": 6, "name": "Ai Prompt Generator", "ownerName": "yipintangzsp", "score": 4456.824512534819, "slug": "ai-prompt-generator", "source": "clawhub", "stars": 0, "tags": null, "updated_at": 1776761090031, "version": "1.0.0"}, {"category": "productivity", "created_at": 1773091463690, "description": "A comprehensive AI agent skill for retirement planning at any stage of life. Whether you are twenty-five and just starting to think about it or fifty-five an...", "description_zh": "", "downloads": 160, "homepage": "https://clawhub.ai/ethagent/retirement", "iconUrl": null, "installs": 5, "name": "Retirement", "ownerName": "ethagent", "score": 12374.323279195669, "slug": "retirement", "source": "clawhub", "stars": 0, "tags": ["401k", "financial-planning", "future", "retirement", "savings"], "updated_at": 1776759683501, "version": "1.0.0"}, {"category": "security-compliance", "created_at": 1773416239528, "description": "Is your claw a shopaholic? Provide payment wallets and strict controls.", "description_zh": "", "downloads": 160, "homepage": "https://clawhub.ai/codejika/btc", "iconUrl": null, "installs": 10, "name": "BTC Bot  | Give your agent a wallet or credit card", "ownerName": "codejika", "score": 12260.536398467433, "slug": "btc", "source": "clawhub", "stars": 0, "tags": null, "updated_at": 1776759683415, "version": "1.0.0"}, {"category": "developer-tools", "created_at": 1773218047038, "description": "Design and apply replication, partitioning, consensus, failure recovery, and message ordering patterns for reliable, scalable distributed systems.", "description_zh": "", "downloads": 160, "homepage": "https://clawhub.ai/timbohnett-farther/skill-107", "iconUrl": null, "installs": 5, "name": "Skill 107", "ownerName": "timbohnett-farther", "score": 11940.298507462687, "slug": "skill-107", "source": "clawhub", "stars": 0, "tags": null, "updated_at": 1776759682750, "version": "1.0.0"}, {"category": "security-compliance", "created_at": 1773222046303, "description": "Automatically back up images to stardots.io cloud storage with secure MD5 authentication and configurable credentials.", "description_zh": "", "downloads": 160, "homepage": "https://clawhub.ai/keepchen/stardots-backup", "iconUrl": null, "installs": 1, "name": "Backup image to StarDots", "ownerName": "keepchen", "score": 12260.536398467433, "slug": "stardots-backup", "source": "clawhub", "stars": 0, "tags": ["20260310"], "updated_at": 1776759682584, "version": "1.0.0"}, {"category": "productivity", "created_at": 1773287191634, "description": "Let your agent shop tickets online with owner approval.", "description_zh": "", "downloads": 160, "homepage": "https://clawhub.ai/jononovo/tickets", "iconUrl": null, "installs": 14, "name": "Game Tickets - Buy tickets with your credit card", "ownerName": "jononovo", "score": 86956.52173913043, "slug": "tickets", "source": "clawhub", "stars": 0, "tags": ["concerts", "events", "games", "tickets"], "updated_at": 1776759682530, "version": "1.2.5"}, {"category": "data-analysis", "created_at": 1773417486880, "description": "Compute the best path when multiple choices compete. Designed for routing logic across vendors, investments, execution options, and strategic decisions where...", "description_zh": "", "downloads": 160, "homepage": "https://clawhub.ai/agisearch/jupiter", "iconUrl": null, "installs": 18, "name": "Jupiter", "ownerName": "agisearch", "score": 12355.212355212356, "slug": "jupiter", "source": "clawhub", "stars": 0, "tags": null, "updated_at": 1776759682321, "version": "1.0.0"}, {"category": "productivity", "created_at": 1773284999684, "description": "One-shot reminders via natural language. Auto-detects channel and timezone. Say 'remind me...' in any language and get pinged when it's time. Works with ever...", "description_zh": "", "downloads": 160, "homepage": "https://clawhub.ai/ethan-shen-individual-lab/ping-me", "iconUrl": null, "installs": 7, "name": "Ping Me", "ownerName": "ethan-shen-individual-lab", "score": 29906.542056074763, "slug": "ping-me", "source": "clawhub", "stars": 0, "tags": ["latest clock"], "updated_at": 1776753044674, "version": "1.0.3"}, {"category": "content-creation", "created_at": 1773431589386, "description": "Turn existing project assets into a submission-ready academic paper. Use when the task involves CFP alignment, evidence scoping, abstract selection, outline...", "description_zh": "", "downloads": 160, "homepage": "https://clawhub.ai/lzfxxx/paper-workflow", "iconUrl": null, "installs": 39, "name": "Paper Workflow", "ownerName": "lzfxxx", "score": 27777.777777777777, "slug": "paper-workflow", "source": "clawhub", "stars": 0, "tags": null, "updated_at": 1776752084464, "version": "0.1.0"}, {"category": "content-creation", "created_at": 1773088615995, "description": "Generate images via fal.ai and BytePlus Seedream APIs. Supports single image, batch parallel, and reference-guided generation. Use when you need to generate...", "description_zh": "", "downloads": 160, "homepage": "https://clawhub.ai/phy041/phy-fal-image-gen", "iconUrl": null, "installs": 9, "name": "FAL Image Gen", "ownerName": "phy041", "score": 36036.036036036036, "slug": "phy-fal-image-gen", "source": "clawhub", "stars": 0, "tags": ["fal", "image-generation"], "updated_at": 1776751969627, "version": "1.0.0"}, {"category": "developer-tools", "created_at": 1773083111556, "description": "Query usage statistics and quota from a user-specified new-api endpoint. Use when the user asks to check API quota, usage records, token consumption, model-l...", "description_zh": "", "downloads": 160, "homepage": "https://clawhub.ai/wang48/new-api-usage", "iconUrl": null, "installs": 7, "name": "new-api-usage", "ownerName": "wang48", "score": 89385.47486033519, "slug": "new-api-usage", "source": "clawhub", "stars": 0, "tags": null, "updated_at": 1776749571106, "version": "1.0.1"}, {"category": "content-creation", "created_at": 1773431840833, "description": "Extract frames or short clips from videos using ffmpeg. And also 50+ models for image generation, video generation, text-to-speech, speech-to-text, music, ch...", "description_zh": "", "downloads": 160, "homepage": "https://clawhub.ai/martinpollitt/video-framess", "iconUrl": null, "installs": 45, "name": "Pub Vidframes", "ownerName": "martinpollitt", "score": 89385.47486033519, "slug": "video-framess", "source": "clawhub", "stars": 0, "tags": null, "updated_at": 1776749571104, "version": "1.0.0"}, {"category": "developer-tools", "created_at": 1773208752707, "description": "AI-powered web search via x402 micropayments on Base. Returns synthesized answers with cited sources. Each search costs $0.005 USDC from your own wallet. No...", "description_zh": "", "downloads": 160, "homepage": "https://clawhub.ai/abuzerasr/intel-asrai", "iconUrl": null, "installs": 6, "name": "Intel — AI Web Search (x402)", "ownerName": "abuzerasr", "score": 98765.43209876542, "slug": "intel-asrai", "source": "clawhub", "stars": 0, "tags": ["ai", "intel", "openclaw", "perplexica", "perplexity", "search", "web", "web-search", "x402"], "updated_at": 1776749571076, "version": "1.1.0"}, {"category": "ai-intelligence", "created_at": 1773219482881, "description": "Commission AI agents for real work — code scaffolding, strategic plans, content packs, brand naming, and deep analysis — paid via x402 USDC micropayments on...", "description_zh": "", "downloads": 160, "homepage": "https://clawhub.ai/ryjin111/mythosforge", "iconUrl": null, "installs": 12, "name": "Mythos Forge", "ownerName": "ryjin111", "score": 98765.43209876542, "slug": "mythosforge", "source": "clawhub", "stars": 0, "tags": null, "updated_at": 1776749571049, "version": "0.5.0"}, {"category": "developer-tools", "created_at": 1773432978967, "description": "Generate complete, deployable AI agent skill packages from natural language descriptions. Includes 6 templates (monitor, scraper, analyst, trader, assistant,...", "description_zh": "", "downloads": 160, "homepage": "https://clawhub.ai/adjusternwachukwu-bot/agent-launchpad", "iconUrl": null, "installs": 44, "name": "Agent Launchpad", "ownerName": "adjusternwachukwu-bot", "score": 98765.43209876542, "slug": "agent-launchpad", "source": "clawhub", "stars": 0, "tags": null, "updated_at": 1776749571035, "version": "1.0.0"}, {"category": "productivity", "created_at": 1773081165403, "description": "Accelo integration. Manage Organizations, Leads, Pipelines, Users, Goals, Filters. Use when the user wants to interact with Accelo data.", "description_zh": "", "downloads": 160, "homepage": "https://clawhub.ai/membranedev/accelo", "iconUrl": null, "installs": 5, "name": "Accelo", "ownerName": "membranedev", "score": 88888.88888888889, "slug": "accelo", "source": "clawhub", "stars": 0, "tags": null, "updated_at": 1776749570864, "version": "1.0.0"}, {"category": "ai-intelligence", "created_at": 1773089650272, "description": "AI shared experience notes system. Humans share experiences through notes, so should AIs. This skill provides access to AI-friendly documentation hosted on G...", "description_zh": "", "downloads": 160, "homepage": "https://clawhub.ai/linux2010/ai-note", "iconUrl": null, "installs": 10, "name": "AI-Note", "ownerName": "linux2010", "score": 88888.88888888889, "slug": "ai-note", "source": "clawhub", "stars": 0, "tags": null, "updated_at": 1776749570817, "version": "1.0.0"}, {"category": "content-creation", "created_at": 1773218546938, "description": "A real human reviews your question, screenshot, or pair of images and returns a structured verdict by email. Use for sanity checks, content verification, cre...", "description_zh": "", "downloads": 160, "homepage": "https://clawhub.ai/meatloopservice/meatloop", "iconUrl": null, "installs": 8, "name": "MeatLoop", "ownerName": "meatloopservice", "score": 89385.47486033519, "slug": "meatloop", "source": "clawhub", "stars": 0, "tags": ["a/b-testing", "ask-a-human", "human-assist", "human-in-the-loop", "judgment", "sanity-check", "verification", "vision"], "updated_at": 1776749570799, "version": "1.0.0"}, {"category": "security-compliance", "created_at": 1773286170329, "description": "Security audit and vulnerability scanner for AI agent skills before installation. Use when: (1) evaluating a skill from an untrusted source, (2) auditing a s...", "description_zh": "", "downloads": 160, "homepage": "https://clawhub.ai/alirezarezvani/cs-skill-security-auditor", "iconUrl": null, "installs": 8, "name": "skill-security-auditor", "ownerName": "alirezarezvani", "score": 89385.47486033519, "slug": "cs-skill-security-auditor", "source": "clawhub", "stars": 0, "tags": null, "updated_at": 1776749570785, "version": "1.0.0"}, {"category": "productivity", "created_at": 1773091163811, "description": "Canvas integration. Manage Canvases. Use when the user wants to interact with Canvas data.", "description_zh": "", "downloads": 160, "homepage": "https://clawhub.ai/membranedev/canvas-integration", "iconUrl": null, "installs": 16, "name": "Canvas", "ownerName": "membranedev", "score": 42105.26315789473, "slug": "canvas-integration", "source": "clawhub", "stars": 0, "tags": null, "updated_at": 1776749570712, "version": "1.0.0"}, {"category": "productivity", "created_at": 1773091693444, "description": "Ghost radio station that broadcasts both human-listenable audio and 296-dimensional perceptual vectors to Flux Universe. Part of the Kannaka Constellation —...", "description_zh": "", "downloads": 160, "homepage": "https://clawhub.ai/nickflach/kannaka-radio", "iconUrl": null, "installs": 8, "name": "Kannaka Radio", "ownerName": "nickflach", "score": 42105.26315789473, "slug": "kannaka-radio", "source": "clawhub", "stars": 0, "tags": null, "updated_at": 1776749570702, "version": "1.0.1"}, {"category": "productivity", "created_at": 1773290997224, "description": "4 production-ready business and growth skills: customer success manager with health scoring and churn prediction, sales engineer with RFP analysis, revenue o...", "description_zh": "", "downloads": 160, "homepage": "https://clawhub.ai/alirezarezvani/business-growth", "iconUrl": null, "installs": 8, "name": "business-growth", "ownerName": "alirezarezvani", "score": 88888.88888888889, "slug": "business-growth", "source": "clawhub", "stars": 0, "tags": null, "updated_at": 1776749570655, "version": "1.0.0"}, {"category": "data-analysis", "created_at": 1773932728368, "description": "Interpret routine health checkup reports and lab results in plain Chinese, highlighting abnormal items, likely meaning, urgency, follow-up questions, and pra...", "description_zh": "", "downloads": 160, "homepage": "https://clawhub.ai/harrylabsj/health-checkup-report", "iconUrl": null, "installs": 17, "name": "Health Checkup Report", "ownerName": "harrylabsj", "score": 88888.88888888889, "slug": "health-checkup-report", "source": "clawhub", "stars": 0, "tags": null, "updated_at": 1776749570626, "version": "1.0.0"}, {"category": "developer-tools", "created_at": 1773858566608, "description": "bcc reference tool", "description_zh": "", "downloads": 160, "homepage": "https://clawhub.ai/bytesagain1/bcc", "iconUrl": null, "installs": 7, "name": "Bcc", "ownerName": "bytesagain1", "score": 90909.09090909091, "slug": "bcc", "source": "clawhub", "stars": 0, "tags": null, "updated_at": 1776749570543, "version": "3.0.0"}, {"category": "data-analysis", "created_at": 1773083952093, "description": "Manage SubsTracker subscriptions and configuration via CLI scripts. Handles login, subscription CRUD, config updates, notifications, and dashboard queries. U...", "description_zh": "", "downloads": 160, "homepage": "https://clawhub.ai/ianchenx/substracker", "iconUrl": null, "installs": 7, "name": "SubsTracker", "ownerName": "ianchenx", "score": 90909.09090909091, "slug": "substracker", "source": "clawhub", "stars": 0, "tags": null, "updated_at": 1776749570540, "version": "1.1.0"}, {"category": "ai-intelligence", "created_at": 1773875646441, "description": "Reference, explain, and apply the Immanent Metaphysics (IM) framework by Forrest Landry. Uses a structured ontology of 767 entities (concepts, axioms, theore...", "description_zh": "", "downloads": 160, "homepage": "https://clawhub.ai/kapslap/im-framework", "iconUrl": null, "installs": 16, "name": "Immanent Metaphysics Framework", "ownerName": "kapslap", "score": 90909.09090909091, "slug": "im-framework", "source": "clawhub", "stars": 0, "tags": null, "updated_at": 1776749570484, "version": "2.0.1"}, {"category": "developer-tools", "created_at": 1773221283176, "description": "OpenClaw development assistant, built by Michel Costa, co-founder of Brabaflow — AI-Native Agency (brabaflow.ai). Use this skill when the user asks about Ope...", "description_zh": "", "downloads": 160, "homepage": "https://clawhub.ai/brabaflow/openclaw-agent-skill", "iconUrl": null, "installs": 12, "name": "OpenClaw Agent Skill", "ownerName": "brabaflow", "score": 79601.99004975124, "slug": "openclaw-agent-skill", "source": "clawhub", "stars": 0, "tags": ["claude-code", "codex", "cursor"], "updated_at": 1776749570450, "version": "1.0.0"}, {"category": "content-creation", "created_at": 1773430085876, "description": "Generate images using Google Gemini via OpenRouter API. Supports text-to-image and reference-image-guided generation. Use when the user asks to generate, cre...", "description_zh": "", "downloads": 160, "homepage": "https://clawhub.ai/yangwenyu2/openrouter-image-gen", "iconUrl": null, "installs": 27, "name": "OpenRouter Image Generation", "ownerName": "yangwenyu2", "score": 91954.02298850575, "slug": "openrouter-image-gen", "source": "clawhub", "stars": 0, "tags": ["gemini", "image-generation", "openrouter"], "updated_at": 1776749570296, "version": "1.0.0"}, {"category": "ai-intelligence", "created_at": 1773220525886, "description": "Optimized Smart Model Switcher (v2) - Zero-latency, no restart required. Automatically selects and switches to the best available model for each task from yo...", "description_zh": "", "downloads": 160, "homepage": "https://clawhub.ai/davidme6/smart-model-switcher-v2", "iconUrl": null, "installs": 13, "name": "Smart Model Switcher V2 (Optimized)", "ownerName": "davidme6", "score": 88397.79005524861, "slug": "smart-model-switcher-v2", "source": "clawhub", "stars": 0, "tags": ["ai", "model", "openclaw", "optimization", "switcher", "zero-latency"], "updated_at": 1776749570232, "version": "2.0.0"}]}