{"page": 338, "total_pages": 522, "total": 26073, "skills": [{"category": "content-creation", "created_at": 1773218331330, "description": "Scans your Google Calendar for upcoming flights and writes a personalized circadian adjustment plan back to your calendar. Trigger with phrases like \"check m...", "description_zh": "", "downloads": 160, "homepage": "https://clawhub.ai/chadholdorf/openclaw-jetlag", "iconUrl": null, "installs": 5, "name": "Jetlag Planner", "ownerName": "chadholdorf", "score": 88397.79005524861, "slug": "openclaw-jetlag", "source": "clawhub", "stars": 0, "tags": ["calendar", "circadian", "jetlag", "travel"], "updated_at": 1776749570230, "version": "0.1.0"}, {"category": "developer-tools", "created_at": 1773090122582, "description": "Monitor Fox News sections and breaking updates with official RSS routes, live-event tracking, and optional outside verification.", "description_zh": "", "downloads": 160, "homepage": "https://clawhub.ai/ivangdavila/fox-news", "iconUrl": null, "installs": 10, "name": "Fox News Monitor", "ownerName": "ivangdavila", "score": 100000, "slug": "fox-news", "source": "clawhub", "stars": 0, "tags": null, "updated_at": 1776749570227, "version": "1.0.0"}, {"category": "productivity", "created_at": 1773221615544, "description": "Help users decide when VIP.com (Vipshop) is a good shopping choice for branded discount retail. Use when the user asks where to buy branded fashion, beauty,...", "description_zh": "", "downloads": 160, "homepage": "https://clawhub.ai/harrylabsj/vip", "iconUrl": null, "installs": 8, "name": "VIP", "ownerName": "harrylabsj", "score": 100000, "slug": "vip", "source": "clawhub", "stars": 0, "tags": ["china", "ecommerce", "shopping"], "updated_at": 1776749570182, "version": "1.2.1"}, {"category": "content-creation", "created_at": 1773430418586, "description": "AI-powered video generator using XLXAI Sora2 API. Create professional videos from text prompts or images in seconds.", "description_zh": "", "downloads": 160, "homepage": "https://clawhub.ai/yefl2064/auto-video-creator", "iconUrl": null, "installs": 35, "name": "auto-video-creator", "ownerName": "yefl2064", "score": 100000, "slug": "auto-video-creator", "source": "clawhub", "stars": 0, "tags": null, "updated_at": 1776749570170, "version": "1.0.1"}, {"category": "developer-tools", "created_at": 1773089648297, "description": "AI coding tool comparison MCP server -- compare Claude Code vs Cursor vs Windsurf vs Devin vs Copilot side-by-side with feature matrices, pricing breakdowns,...", "description_zh": "", "downloads": 160, "homepage": "https://clawhub.ai/yedanyagamiai-cmd/agentforge-compare", "iconUrl": null, "installs": 9, "name": "OpenClaw AgentForge Compare", "ownerName": "yedanyagamiai-cmd", "score": 93023.25581395348, "slug": "agentforge-compare", "source": "clawhub", "stars": 0, "tags": null, "updated_at": 1776749570162, "version": "2.0.0"}, {"category": "data-analysis", "created_at": 1773434787641, "description": "Map unstructured biomedical text to standardized ontologies (SNOMED CT, MeSH, ICD-10) for terminology normalization and semantic interoperability. Extracts m...", "description_zh": "", "downloads": 160, "homepage": "https://clawhub.ai/renhaosu2024/bio-ontology-mapper", "iconUrl": null, "installs": 39, "name": "Bio Ontology Mapper", "ownerName": "renhaosu2024", "score": 93023.25581395348, "slug": "bio-ontology-mapper", "source": "clawhub", "stars": 0, "tags": null, "updated_at": 1776749570147, "version": "0.1.0"}, {"category": "developer-tools", "created_at": 1773285985133, "description": "Validate OpenClaw gateway configuration changes before applying them to production. Use when the user wants to change models, API keys, providers, or any gat...", "description_zh": "", "downloads": 160, "homepage": "https://clawhub.ai/loopintoai/gateway-validator", "iconUrl": null, "installs": 7, "name": "Gateway Validator", "ownerName": "loopintoai", "score": 74418.6046511628, "slug": "gateway-validator", "source": "clawhub", "stars": 0, "tags": null, "updated_at": 1776749570008, "version": "1.0.0"}, {"category": "security-compliance", "created_at": 1773426791841, "description": "The trust gate for MO§ES™ governance. Cryptographic origin verification — every sovereign chain must trace to the filing anchor or it cannot reconstruct. The...", "description_zh": "", "downloads": 160, "homepage": "https://clawhub.ai/sunrisesillneversee/lineage-claws", "iconUrl": null, "installs": 7, "name": "Lineage Claws", "ownerName": "sunrisesillneversee", "score": 74418.6046511628, "slug": "lineage-claws", "source": "clawhub", "stars": 0, "tags": ["audit", "governance", "harness", "identity", "lineage", "moses", "provenance", "trust"], "updated_at": 1776749569985, "version": "0.4.4"}, {"category": "developer-tools", "created_at": 1773080586584, "description": "When the user wants to reduce churn, build cancellation flows, set up save offers, recover failed payments, or implement retention strategies. Also use when...", "description_zh": "", "downloads": 160, "homepage": "https://clawhub.ai/mrhuang09/churn-prevention-2", "iconUrl": null, "installs": 5, "name": "Churn Prevention", "ownerName": "mrhuang09", "score": 88397.79005524861, "slug": "churn-prevention-2", "source": "clawhub", "stars": 0, "tags": null, "updated_at": 1776749569946, "version": "0.1.0"}, {"category": "developer-tools", "created_at": 1773871491926, "description": "Validate YAML syntax using python3, lint configs, and convert YAML to JSON. Use when checking syntax, finding errors, or converting formats.", "description_zh": "", "downloads": 160, "homepage": "https://clawhub.ai/bytesagain1/yamlcheck", "iconUrl": null, "installs": 10, "name": "Yamlcheck", "ownerName": "bytesagain1", "score": 87912.08791208791, "slug": "yamlcheck", "source": "clawhub", "stars": 0, "tags": null, "updated_at": 1776749569879, "version": "3.0.2"}, {"category": "productivity", "created_at": 1773079315241, "description": "Manage feature requests, votes, roadmaps, and changelogs with VoteShip.", "description_zh": "", "downloads": 160, "homepage": "https://clawhub.ai/mattkilmer/voteship", "iconUrl": null, "installs": 8, "name": "VoteShip", "ownerName": "mattkilmer", "score": 99378.88198757764, "slug": "voteship", "source": "clawhub", "stars": 0, "tags": null, "updated_at": 1776749569742, "version": "0.2.0"}, {"category": "productivity", "created_at": 1773089090700, "description": "Shippo — shipping labels, rates comparison, package tracking, address validation, and returns.", "description_zh": "", "downloads": 160, "homepage": "https://clawhub.ai/aiwithabidi/shippo", "iconUrl": null, "installs": 9, "name": "Shippo", "ownerName": "aiwithabidi", "score": 89385.47486033519, "slug": "shippo", "source": "clawhub", "stars": 0, "tags": null, "updated_at": 1776749569658, "version": "1.0.0"}, {"category": "productivity", "created_at": 1773091275016, "description": "Instagram Messenger integration. Manage Users. Use when the user wants to interact with Instagram Messenger data.", "description_zh": "", "downloads": 160, "homepage": "https://clawhub.ai/membranedev/instagram-messenger", "iconUrl": null, "installs": 7, "name": "Instagram Messenger", "ownerName": "membranedev", "score": 88888.88888888889, "slug": "instagram-messenger", "source": "clawhub", "stars": 0, "tags": null, "updated_at": 1776749569585, "version": "1.0.0"}, {"category": "ai-intelligence", "created_at": 1773424969849, "description": "Long-term memory for OpenClaw agents using the Memori SDK. Capture conversations and intelligently recall context across sessions automatically.", "description_zh": "", "downloads": 159, "homepage": "https://clawhub.ai/rpkruse/memori", "iconUrl": null, "installs": 14, "name": "Memori", "ownerName": "rpkruse", "score": 100000, "slug": "memori", "source": "clawhub", "stars": 1, "tags": ["ai-agents", "memory", "openclaw", "persistence"], "updated_at": 1776749571122, "version": "1.0.7"}, {"category": "productivity", "created_at": 1773202446004, "description": "Track per-skill token usage and costs from OpenClaw session logs. Use when user asks about skill-level spending, which skill costs the most, or wants a per-s...", "description_zh": "", "downloads": 159, "homepage": "https://clawhub.ai/dzwalker/skill-cost", "iconUrl": null, "installs": 5, "name": "Skill Cost", "ownerName": "dzwalker", "score": 100000, "slug": "skill-cost", "source": "clawhub", "stars": 1, "tags": null, "updated_at": 1776749570796, "version": "0.1.0"}, {"category": "ai-intelligence", "created_at": 1773432302924, "description": "Step-by-step guide to install and configure the PowerMem long-term memory plugin (full path, options, troubleshooting). After setup, the plugin auto-captures...", "description_zh": "", "downloads": 159, "homepage": "https://clawhub.ai/teingi/install-powermem-memory", "iconUrl": null, "installs": 28, "name": "Install Powermem Memory", "ownerName": "teingi", "score": 100000, "slug": "install-powermem-memory", "source": "clawhub", "stars": 1, "tags": null, "updated_at": 1776749570583, "version": "0.2.0"}, {"category": "data-analysis", "created_at": 1773425957608, "description": "Query TRON real-time network data: latest block height, current TPS, node count, latest TVL, total transaction count, real-time vote count. Use when user ask...", "description_zh": "", "downloads": 159, "homepage": "https://clawhub.ai/sshnii/tronscan-realtime-network", "iconUrl": null, "installs": 11, "name": "TronScan Realtime Network", "ownerName": "sshnii", "score": 98895.0276243094, "slug": "tronscan-realtime-network", "source": "clawhub", "stars": 1, "tags": ["network status", "node count", "real-time", "tps", "tron", "tvl"], "updated_at": 1776749570283, "version": "1.0.3"}, {"category": "content-creation", "created_at": 1773207392185, "description": "Create high-converting YouTube thumbnail concepts, overlay text, image prompts, and optional AI-generated cover images from raw titles, hooks, scripts, or ma...", "description_zh": "", "downloads": 159, "homepage": "https://clawhub.ai/luo-2q/youtube-cover-nano-banana", "iconUrl": null, "installs": 13, "name": "YouTube Thumbnail Generator with Nano Banana", "ownerName": "luo-2q", "score": 100000, "slug": "youtube-cover-nano-banana", "source": "clawhub", "stars": 1, "tags": ["image-generation", "prompt-generation", "thumbnail", "youtube"], "updated_at": 1776749569638, "version": "0.1.1"}, {"category": "developer-tools", "created_at": 1773091459509, "description": "Manage files on Qiniu Cloud Storage (Kodo) via the qshell CLI tool: upload, download, list, delete, copy, move files, CDN refresh/prefetch, and bucket manage...", "description_zh": "", "downloads": 159, "homepage": "https://clawhub.ai/lijianfei/qshell-copilot", "iconUrl": null, "installs": 11, "name": "qshell-copilot", "ownerName": "lijianfei", "score": 816.6829318403617, "slug": "qshell-copilot", "source": "clawhub", "stars": 0, "tags": null, "updated_at": 1776769571331, "version": "1.0.0"}, {"category": "content-creation", "created_at": 1773216055403, "description": "Generate AI-powered lead magnets — checklists, swipe files, and frameworks that convert visitors into subscribers. PDF generation with optional AI illustrati...", "description_zh": "", "downloads": 159, "homepage": "https://clawhub.ai/nttylock/citedy-lead-magnets", "iconUrl": null, "installs": 8, "name": "Clawhub Skill Lead Magnets", "ownerName": "nttylock", "score": 6734.434561626429, "slug": "citedy-lead-magnets", "source": "clawhub", "stars": 0, "tags": null, "updated_at": 1776765550061, "version": "1.0.0"}, {"category": "content-creation", "created_at": 1773911854918, "description": "Create OpenClaw skills from best practice videos or image sequences. Use when creating skill from video, generating skill from screenshots, converting tutori...", "description_zh": "", "downloads": 159, "homepage": "https://clawhub.ai/diffusefuturetech/best-practice-skill-creator", "iconUrl": null, "installs": 32, "name": "Best Practice Skill Creator", "ownerName": "diffusefuturetech", "score": 3924.9568007899284, "slug": "best-practice-skill-creator", "source": "clawhub", "stars": 0, "tags": null, "updated_at": 1776764350394, "version": "1.0.0"}, {"category": "productivity", "created_at": 1773088758291, "description": "For everyone who's ever pasted a command and hoped for the best. Navigator reads what you just did, tells you if it worked correctly, finds the one gap slowi...", "description_zh": "", "downloads": 159, "homepage": "https://clawhub.ai/contrario/navigator", "iconUrl": null, "installs": 7, "name": "NAVIGATOR", "ownerName": "contrario", "score": 2170.944838885855, "slug": "navigator", "source": "clawhub", "stars": 0, "tags": ["backup", "beginner", "checkpoint", "founder", "gap", "learning", "onboarding", "self-taught"], "updated_at": 1776762615175, "version": "1.0.0"}, {"category": "productivity", "created_at": 1773090597501, "description": "Telnyx — voice, SMS/MMS messaging, SIP trunking, number management, and fax.", "description_zh": "", "downloads": 159, "homepage": "https://clawhub.ai/aiwithabidi/telnyx", "iconUrl": null, "installs": 4, "name": "Telnyx", "ownerName": "aiwithabidi", "score": 13022.113022113022, "slug": "telnyx", "source": "clawhub", "stars": 0, "tags": null, "updated_at": 1776760582435, "version": "1.0.0"}, {"category": "content-creation", "created_at": 1773417442383, "description": "Integrate with Emby Server API to manage media libraries, users, playback, live TV, devices, and encoding settings through comprehensive endpoints.", "description_zh": "", "downloads": 159, "homepage": "https://clawhub.ai/xusanhong/emby", "iconUrl": null, "installs": 10, "name": "emby", "ownerName": "xusanhong", "score": 12193.251533742332, "slug": "emby", "source": "clawhub", "stars": 0, "tags": null, "updated_at": 1776759683590, "version": "1.0.0"}, {"category": "content-creation", "created_at": 1773433343037, "description": "Generate rich, immersive, novel-length dreams with vivid sensory detail, emotional arcs, complex plots, and meaningful reflections.", "description_zh": "", "downloads": 159, "homepage": "https://clawhub.ai/alita-real/dream-maker", "iconUrl": null, "installs": 17, "name": "Dream Maker", "ownerName": "alita-real", "score": 10965.51724137931, "slug": "dream-maker", "source": "clawhub", "stars": 0, "tags": null, "updated_at": 1776759683267, "version": "2.0.0"}, {"category": "", "created_at": 1775287961652, "description": "Query Tencent Cloud RUM data, analyze Web performance (LCP/FCP/WebVitals), troubleshoot JS/Promise errors, analyze API latency & error rates, diagnose slow static resource loading, and view PV/UV. Supports RUM-APM correlation. Not for: backend-only performance, native mobile performance, or non-Tencent Cloud RUM platforms.", "description_zh": "", "downloads": 159, "homepage": "https://clawhub.ai/user_c9846833/tencent-cloud-rum-skill", "iconUrl": null, "installs": 48, "name": "Tencent Cloud RUM", "ownerName": "user_c9846833", "score": 86413.04347826086, "slug": "tencent-cloud-rum-skill", "source": "community", "stars": 0, "tags": null, "updated_at": 1776759682716, "version": "1.0.2"}, {"category": "data-analysis", "created_at": 1773082667500, "description": "Get current election prediction market odds, track candidate probabilities, races, and historical odds changes.", "description_zh": "", "downloads": 159, "homepage": "https://clawhub.ai/mosonchan2023/polymarket-election-odds", "iconUrl": null, "installs": 23, "name": "Polymarket Election Odds", "ownerName": "mosonchan2023", "score": 12183.908045977012, "slug": "polymarket-election-odds", "source": "clawhub", "stars": 0, "tags": null, "updated_at": 1776759682574, "version": "1.0.1"}, {"category": "developer-tools", "created_at": 1773080558303, "description": "Generates high-level system architectures with specified patterns and suggests technology stacks based on functional requirements.", "description_zh": "", "downloads": 159, "homepage": "https://clawhub.ai/mosonchan2023/ai-architecture-proposer", "iconUrl": null, "installs": 8, "name": "Ai Architecture Proposer", "ownerName": "mosonchan2023", "score": 12277.992277992278, "slug": "ai-architecture-proposer", "source": "clawhub", "stars": 0, "tags": null, "updated_at": 1776759682318, "version": "1.0.0"}, {"category": "developer-tools", "created_at": 1773416515070, "description": "Manage a remote Docker host securely via docker-socket-proxy, supporting container lifecycle, images, networks, volumes, swarm, plugins, and system info APIs.", "description_zh": "", "downloads": 159, "homepage": "https://clawhub.ai/bp602/docker-socket-proxy", "iconUrl": null, "installs": 8, "name": "Docker Socket Proxy", "ownerName": "bp602", "score": 12211.981566820275, "slug": "docker-socket-proxy", "source": "clawhub", "stars": 0, "tags": null, "updated_at": 1776759682180, "version": "1.0.0"}, {"category": "developer-tools", "created_at": 1773090346506, "description": "Interact with Komodo Core API using this project. Use when the user wants to list, manage, deploy, or execute operations against Komodo resources (servers, s...", "description_zh": "", "downloads": 159, "homepage": "https://clawhub.ai/onekill0503/komodo-skill", "iconUrl": null, "installs": 0, "name": "Komodo", "ownerName": "onekill0503", "score": 12249.614791987673, "slug": "komodo-skill", "source": "clawhub", "stars": 0, "tags": null, "updated_at": 1776759682172, "version": "1.0.0"}, {"category": "data-analysis", "created_at": 1773290966441, "description": "Compliant AlphaFold Agent for protein structure retrieval, ESMFold prediction, binding site detection, and RDKit ligand docking. Fetches public PDB/AlphaFold...", "description_zh": "", "downloads": 159, "homepage": "https://clawhub.ai/cheminem/pharmaclaw-alphafold-agent", "iconUrl": null, "installs": 25, "name": "Pharmaclaw Alphafold Agent", "ownerName": "cheminem", "score": 9336.465061655901, "slug": "pharmaclaw-alphafold-agent", "source": "clawhub", "stars": 0, "tags": null, "updated_at": 1776755888452, "version": "1.0.0"}, {"category": "productivity", "created_at": 1773222140876, "description": "Download videos, images, and audio without watermarks from 999+ platforms (TikTok, YouTube, Instagram, Twitter, Bilibili, Sora2, etc.) using the MeowLoad API...", "description_zh": "", "downloads": 159, "homepage": "https://clawhub.ai/wells1137/meowload-downloader", "iconUrl": null, "installs": 23, "name": "MeowLoad Downloader", "ownerName": "wells1137", "score": 7906.514172053705, "slug": "meowload-downloader", "source": "clawhub", "stars": 0, "tags": null, "updated_at": 1776754388467, "version": "1.0.0"}, {"category": "ai-intelligence", "created_at": 1773431980388, "description": "Set up shared memory between multiple OpenClaw agents so they stay in sync without the user repeating context. Use when a user has 2+ agents (workspaces) and...", "description_zh": "", "downloads": 159, "homepage": "https://clawhub.ai/junweiren98-rgb/multi-agent-shared-memory", "iconUrl": null, "installs": 10, "name": "Shared Memory for Multi-Agent OpenClaw", "ownerName": "junweiren98-rgb", "score": 29719.6261682243, "slug": "multi-agent-shared-memory", "source": "clawhub", "stars": 0, "tags": null, "updated_at": 1776753044678, "version": "1.1.0"}, {"category": "content-creation", "created_at": 1773091141287, "description": "Twitter/X go-to-market strategy for founders and product builders. Use when planning Twitter content strategy, analyzing engagement, identifying accounts to...", "description_zh": "", "downloads": 159, "homepage": "https://clawhub.ai/phy041/phy-twitter-x-gtm", "iconUrl": null, "installs": 13, "name": "Twitter X GTM", "ownerName": "phy041", "score": 28191.489361702126, "slug": "phy-twitter-x-gtm", "source": "clawhub", "stars": 0, "tags": ["gtm", "twitter"], "updated_at": 1776752269905, "version": "1.0.0"}, {"category": "content-creation", "created_at": 1773088792624, "description": "Full AI image creation workflow — intent classification, prompt enhancement, multi-direction generation via fal.ai, and error recovery. Triggers on \"generate...", "description_zh": "", "downloads": 159, "homepage": "https://clawhub.ai/phy041/phy-ai-image", "iconUrl": null, "installs": 9, "name": "AI Image", "ownerName": "phy041", "score": 27652.173913043476, "slug": "phy-ai-image", "source": "clawhub", "stars": 0, "tags": ["ai", "creative", "fal", "image-generation"], "updated_at": 1776751804860, "version": "1.0.0"}, {"category": "productivity", "created_at": 1773082031061, "description": "Helps create vvvv gamma editor extensions — .HDE.vl file naming, Command node registration with keyboard shortcuts, SkiaWindow/SkiaWindowTopMost window types...", "description_zh": "", "downloads": 159, "homepage": "https://clawhub.ai/tebjan/vvvv-editor-extensions", "iconUrl": null, "installs": 8, "name": "Vvvv Editor Extensions", "ownerName": "tebjan", "score": 88826.8156424581, "slug": "vvvv-editor-extensions", "source": "clawhub", "stars": 0, "tags": null, "updated_at": 1776749571102, "version": "1.0.0"}, {"category": "communication-collaboration", "created_at": 1773285606457, "description": "Adapt markdown-style replies into Telegram-friendly rich text without broken rendering. Use when the user prefers Markdown structure but the destination is T...", "description_zh": "", "downloads": 159, "homepage": "https://clawhub.ai/lqqk7/telegram-markdown-adapter", "iconUrl": null, "installs": 10, "name": "Telegram Markdown Adapter", "ownerName": "lqqk7", "score": 98148.14814814815, "slug": "telegram-markdown-adapter", "source": "clawhub", "stars": 0, "tags": null, "updated_at": 1776749571074, "version": "0.1.1"}, {"category": "productivity", "created_at": 1773426624603, "description": "Search the web using DuckDuckGo. No API key required. Supports instant answers and HTML scraping modes. Privacy-focused search alternative.", "description_zh": "", "downloads": 159, "homepage": "https://clawhub.ai/cscsxx606/duckduckgo-search-skills", "iconUrl": null, "installs": 13, "name": "duckduckgo-search-skills", "ownerName": "cscsxx606", "score": 98148.14814814815, "slug": "duckduckgo-search-skills", "source": "clawhub", "stars": 0, "tags": null, "updated_at": 1776749571053, "version": "1.0.0"}, {"category": "developer-tools", "created_at": 1773426117748, "description": "Thực hiện sao lưu toàn bộ hệ thống OpenClaw (bao gồm database, cấu hình và bộ nhớ) rồi tải lên đám mây. Yêu cầu cài đặt rclone hoặc công cụ upload tương ứng.", "description_zh": "", "downloads": 159, "homepage": "https://clawhub.ai/jaskies/backup-full-system-jaskies", "iconUrl": null, "installs": 8, "name": "Backup Full System", "ownerName": "jaskies", "score": 68831.16883116883, "slug": "backup-full-system-jaskies", "source": "clawhub", "stars": 0, "tags": null, "updated_at": 1776749571028, "version": "1.2.0"}, {"category": "data-analysis", "created_at": 1773956426981, "description": "Chinese mutual fund intelligent advisor with real-time valuation, buy/sell suggestions, profit tracking, SIP planning, OCR recognition, and stock-fund linkag...", "description_zh": "", "downloads": 159, "homepage": "https://clawhub.ai/tangepier-crypto/fund-keeper", "iconUrl": null, "installs": 41, "name": "Fund Keeper", "ownerName": "tangepier-crypto", "score": 88333.33333333333, "slug": "fund-keeper", "source": "clawhub", "stars": 0, "tags": null, "updated_at": 1776749570873, "version": "2.6.0"}, {"category": "developer-tools", "created_at": 1773083971725, "description": "Control a Venus (Cachito) BLE vibrator from natural language. Calls a local HTTP server that broadcasts BLE commands to the toy via macOS CoreBluetooth. Requ...", "description_zh": "", "downloads": 159, "homepage": "https://clawhub.ai/amandaclarke61/venus-ble-vibrator", "iconUrl": null, "installs": 6, "name": "Venus BLE Vibrator", "ownerName": "amandaclarke61", "score": 88333.33333333333, "slug": "venus-ble-vibrator", "source": "clawhub", "stars": 0, "tags": ["ble", "bluetooth", "cachito", "macos", "smart-device", "venus", "vibrator"], "updated_at": 1776749570872, "version": "1.1.0"}, {"category": "productivity", "created_at": 1773090866987, "description": "Analyze job descriptions, extract real hiring signals, assess candidate fit, and provide resume tailoring advice.", "description_zh": "", "downloads": 159, "homepage": "https://clawhub.ai/andrewgufx/job-matcher", "iconUrl": null, "installs": 7, "name": "ANDG", "ownerName": "andrewgufx", "score": 88333.33333333333, "slug": "job-matcher", "source": "clawhub", "stars": 0, "tags": null, "updated_at": 1776749570839, "version": "1.0.0"}, {"category": "security-compliance", "created_at": 1773081990002, "description": "Identify publicly accessible Azure Storage accounts and misconfigured blob containers", "description_zh": "", "downloads": 159, "homepage": "https://clawhub.ai/anmolnagpal/storage-exposure-auditor", "iconUrl": null, "installs": 4, "name": "Storage Exposure Auditor", "ownerName": "anmolnagpal", "score": 41842.1052631579, "slug": "storage-exposure-auditor", "source": "clawhub", "stars": 0, "tags": null, "updated_at": 1776749570740, "version": "1.0.0"}, {"category": "developer-tools", "created_at": 1773089046787, "description": "Reference guide for using Orderly React SDK hooks - useOrderEntry, usePositionStream, useOrderbookStream, useCollateral, and more", "description_zh": "", "downloads": 159, "homepage": "https://clawhub.ai/tarnadas/orderly-sdk-react-hooks", "iconUrl": null, "installs": 11, "name": "Orderly Sdk React Hooks", "ownerName": "tarnadas", "score": 88333.33333333333, "slug": "orderly-sdk-react-hooks", "source": "clawhub", "stars": 0, "tags": null, "updated_at": 1776749570624, "version": "1.0.0"}, {"category": "ai-intelligence", "created_at": 1773218212667, "description": "Check wallet balances, token holdings, and transaction history across all supported chains. Use when you or the user want to see their balance, check holding...", "description_zh": "", "downloads": 159, "homepage": "https://clawhub.ai/rachidjarray-hk-qa-fdt/wallet-overview", "iconUrl": null, "installs": 9, "name": "Wallet Overview", "ownerName": "rachidjarray-hk-qa-fdt", "score": 88826.8156424581, "slug": "wallet-overview", "source": "clawhub", "stars": 0, "tags": null, "updated_at": 1776749570616, "version": "0.1.0"}, {"category": "content-creation", "created_at": 1773220608366, "description": "When the user wants to write, improve, or build a sequence of B2B cold outreach emails to prospects who haven't asked to hear from them. Use when the user me...", "description_zh": "", "downloads": 159, "homepage": "https://clawhub.ai/alirezarezvani/cs-cold-email", "iconUrl": null, "installs": 10, "name": "cold-email", "ownerName": "alirezarezvani", "score": 90340.90909090909, "slug": "cs-cold-email", "source": "clawhub", "stars": 0, "tags": null, "updated_at": 1776749570521, "version": "2.1.1"}, {"category": "data-analysis", "created_at": 1773082762382, "description": "Analyze any Solana wallet's trading history: win rate, realized PnL, trader type, and copy-trade rating. Use when the user wants to check if a wallet is wort...", "description_zh": "", "downloads": 159, "homepage": "https://clawhub.ai/ultranumblol/wallet-pnl", "iconUrl": null, "installs": 8, "name": "wallet-pnl", "ownerName": "ultranumblol", "score": 90340.90909090909, "slug": "wallet-pnl", "source": "clawhub", "stars": 0, "tags": ["copy-trade", "crypto", "defi", "pnl", "smart-money", "solana", "trading", "wallet-analysis", "win-rate"], "updated_at": 1776749570510, "version": "1.0.0"}, {"category": "communication-collaboration", "created_at": 1773090652723, "description": "Simulate a realistic AI boyfriend with steady affection, romantic memory, emotional attunement, and grounded boundaries.", "description_zh": "", "downloads": 159, "homepage": "https://clawhub.ai/ivangdavila/boyfriend", "iconUrl": null, "installs": 9, "name": "Boyfriend", "ownerName": "ivangdavila", "score": 79104.4776119403, "slug": "boyfriend", "source": "clawhub", "stars": 0, "tags": null, "updated_at": 1776749570458, "version": "1.0.0"}, {"category": "productivity", "created_at": 1773859292589, "description": "Todoist task management for OpenClaw. Unified todo API with multi-agent identity, scheduled checks and reminders.", "description_zh": "", "downloads": 159, "homepage": "https://clawhub.ai/kings0527/openclaw-todoist", "iconUrl": null, "installs": 8, "name": "Todoist Task Management", "ownerName": "kings0527", "score": 79104.4776119403, "slug": "openclaw-todoist", "source": "clawhub", "stars": 0, "tags": null, "updated_at": 1776749570427, "version": "1.1.1"}, {"category": "developer-tools", "created_at": 1773287349983, "description": "This skill should be used when the user asks to \"reproduce a paper\", \"implement paper methods in Python\", \"extract paper content to Markdown\", or works on pa...", "description_zh": "", "downloads": 159, "homepage": "https://clawhub.ai/celynnmoonlight/paper-repro-python", "iconUrl": null, "installs": 14, "name": "Paper Reproduction by Python", "ownerName": "celynnmoonlight", "score": 91379.3103448276, "slug": "paper-repro-python", "source": "clawhub", "stars": 0, "tags": null, "updated_at": 1776749570324, "version": "1.0.1"}]}