{"page": 339, "total_pages": 522, "total": 26073, "skills": [{"category": "ai-intelligence", "created_at": 1773089958919, "description": "Not an assistant. A thinking engine that makes its own cognition visible and lets you steer it in real time. Five movements. Four modes.", "description_zh": "", "downloads": 159, "homepage": "https://clawhub.ai/contrario/nous", "iconUrl": null, "installs": 12, "name": "NOUS", "ownerName": "contrario", "score": 91379.3103448276, "slug": "nous", "source": "clawhub", "stars": 0, "tags": ["agent", "cognition", "nous", "oracle", "philosophy", "strategy", "thinking"], "updated_at": 1776749570317, "version": "0.1.0"}, {"category": "ai-intelligence", "created_at": 1773284943855, "description": "LLM streaming output formatter with auto buffer, format correction, sentence break optimization, markdown rendering, improve chat UX", "description_zh": "", "downloads": 159, "homepage": "https://clawhub.ai/ayalili/stream-formatter", "iconUrl": null, "installs": 10, "name": "stream-formatter", "ownerName": "ayalili", "score": 87845.30386740332, "slug": "stream-formatter", "source": "clawhub", "stars": 0, "tags": null, "updated_at": 1776749570279, "version": "1.0.1"}, {"category": "content-creation", "created_at": 1773219966649, "description": "Creates and refines Founder Story and brand narrative content for DTC/independent stores selling founder-driven products (e.g. handcrafted leather, artisan s...", "description_zh": "", "downloads": 159, "homepage": "https://clawhub.ai/rijoyai/founder-story-brand-narrative", "iconUrl": null, "installs": 10, "name": "Founder Story Brand Narrative", "ownerName": "rijoyai", "score": 87845.30386740332, "slug": "founder-story-brand-narrative", "source": "clawhub", "stars": 0, "tags": null, "updated_at": 1776749570278, "version": "0.1.1"}, {"category": "data-analysis", "created_at": 1773089183505, "description": "Sync OpenClaw fleet runtime/heartbeat/cron status to Cloudflare KV and serve dashboard-ready data via Worker API. Use when setting up or operating the Agent...", "description_zh": "", "downloads": 159, "homepage": "https://clawhub.ai/reed1898/agent-dashboard-sync", "iconUrl": null, "installs": 10, "name": "Agent Dashboard Sync", "ownerName": "reed1898", "score": 99375, "slug": "agent-dashboard-sync", "source": "clawhub", "stars": 0, "tags": null, "updated_at": 1776749570225, "version": "0.1.0"}, {"category": "data-analysis", "created_at": 1773082268922, "description": "ModelSense — The right model for the right job. Recommends the best LLM model and effort level for any task, based on benchmark data, task analysis, and the...", "description_zh": "", "downloads": 159, "homepage": "https://clawhub.ai/xinbenlv/modelsense", "iconUrl": null, "installs": 11, "name": "Modelsense", "ownerName": "xinbenlv", "score": 92441.86046511628, "slug": "modelsense", "source": "clawhub", "stars": 0, "tags": null, "updated_at": 1776749570141, "version": "0.1.0"}, {"category": "content-creation", "created_at": 1773091061778, "description": "AI writing partner for solopreneurs and content creators. Drafts, edits, and improves written content — emails, blog posts, newsletters, social captions, and...", "description_zh": "", "downloads": 159, "homepage": "https://clawhub.ai/clawdssen/agentledger-writing-assistant", "iconUrl": null, "installs": 6, "name": "Writing Assistant", "ownerName": "clawdssen", "score": 87845.30386740332, "slug": "agentledger-writing-assistant", "source": "clawhub", "stars": 0, "tags": null, "updated_at": 1776749570080, "version": "1.0.1"}, {"category": "developer-tools", "created_at": 1773082380575, "description": "Build tai chi practice plans, improve form, and track balance-focused sessions with safe progressions, concise coaching cues, and weekly reviews.", "description_zh": "", "downloads": 159, "homepage": "https://clawhub.ai/ivangdavila/tai-chi", "iconUrl": null, "installs": 8, "name": "Tai Chi (Practice Planner, Form Coach, Balance Tracker)", "ownerName": "ivangdavila", "score": 87845.30386740332, "slug": "tai-chi", "source": "clawhub", "stars": 0, "tags": null, "updated_at": 1776749570075, "version": "1.0.0"}, {"category": "ai-intelligence", "created_at": 1773290518368, "description": "Use when creating cloned voices with Alibaba Cloud Model Studio CosyVoice customization models, especially cosyvoice-v3.5-plus or cosyvoice-v3.5-flash, from...", "description_zh": "", "downloads": 159, "homepage": "https://clawhub.ai/cinience/alicloud-ai-audio-cosyvoice-voice-clone", "iconUrl": null, "installs": 19, "name": "Alicloud Ai Audio Cosyvoice Voice Clone", "ownerName": "cinience", "score": 87845.30386740332, "slug": "alicloud-ai-audio-cosyvoice-voice-clone", "source": "clawhub", "stars": 0, "tags": null, "updated_at": 1776749570063, "version": "1.0.0"}, {"category": "data-analysis", "created_at": 1773217952618, "description": "Datadog integration. Manage Monitors, Dashboards, Incidents, Notebooks, Logs, Metrics and more. Use when the user wants to interact with Datadog data.", "description_zh": "", "downloads": 159, "homepage": "https://clawhub.ai/gora050/datadog-integration", "iconUrl": null, "installs": 0, "name": "Datadog", "ownerName": "gora050", "score": 73953.48837209302, "slug": "datadog-integration", "source": "clawhub", "stars": 0, "tags": null, "updated_at": 1776749570010, "version": "1.0.0"}, {"category": "productivity", "created_at": 1773081366727, "description": "Marketo integration. Manage Leads, Persons, Organizations, Activities, Notes, Files and more. Use when the user wants to interact with Marketo data.", "description_zh": "", "downloads": 159, "homepage": "https://clawhub.ai/gora050/marketo", "iconUrl": null, "installs": 5, "name": "Marketo", "ownerName": "gora050", "score": 73953.48837209302, "slug": "marketo", "source": "clawhub", "stars": 0, "tags": null, "updated_at": 1776749569967, "version": "1.0.0"}, {"category": "developer-tools", "created_at": 1773217909831, "description": "Patterns and techniques for adding governance, safety, and trust controls to AI agent systems. Use this skill when: - Building AI agents that call external t...", "description_zh": "", "downloads": 159, "homepage": "https://clawhub.ai/boleyn/agent-governance", "iconUrl": null, "installs": 7, "name": "agent-governance", "ownerName": "boleyn", "score": 87845.30386740332, "slug": "agent-governance", "source": "clawhub", "stars": 0, "tags": null, "updated_at": 1776749569900, "version": "1.0.1"}, {"category": "ai-intelligence", "created_at": 1773082633738, "description": "OpenFEC — campaign finance data, candidates, committees, filings, and contribution search.", "description_zh": "", "downloads": 159, "homepage": "https://clawhub.ai/aiwithabidi/openfec", "iconUrl": null, "installs": 8, "name": "Openfec", "ownerName": "aiwithabidi", "score": 87362.63736263737, "slug": "openfec", "source": "clawhub", "stars": 0, "tags": null, "updated_at": 1776749569822, "version": "1.0.0"}, {"category": "communication-collaboration", "created_at": 1773091600245, "description": "Email infrastructure for AI agents — create inboxes, send and receive real emails, search messages, manage threads. Alternative to AgentMail with MCP server,...", "description_zh": "", "downloads": 159, "homepage": "https://clawhub.ai/joansongjr/clawaimail-mcp", "iconUrl": null, "installs": 4, "name": "ClawAIMail MCP Server", "ownerName": "joansongjr", "score": 87362.63736263737, "slug": "clawaimail-mcp", "source": "clawhub", "stars": 0, "tags": null, "updated_at": 1776749569816, "version": "0.2.0"}, {"category": "developer-tools", "created_at": 1773081027392, "description": "Preflight-check Render service environment variables before deploys; catches missing keys and placeholder/template values that commonly break production roll...", "description_zh": "", "downloads": 159, "homepage": "https://clawhub.ai/daniellummis/render-env-guard", "iconUrl": null, "installs": 4, "name": "Render Env Guard", "ownerName": "daniellummis", "score": 79899.49748743718, "slug": "render-env-guard", "source": "clawhub", "stars": 0, "tags": null, "updated_at": 1776749569777, "version": "1.0.0"}, {"category": "content-creation", "created_at": 1773080491036, "description": "Gamifies coding tasks with speedrun mechanics — timer splits, personal bests, categories, and tricks. How fast can you fix a bug? Ship a feature? Write a tes...", "description_zh": "", "downloads": 159, "homepage": "https://clawhub.ai/jcools1977/speed-run", "iconUrl": null, "installs": 7, "name": "Speed Run", "ownerName": "jcools1977", "score": 79899.49748743718, "slug": "speed-run", "source": "clawhub", "stars": 0, "tags": null, "updated_at": 1776749569765, "version": "1.0.0"}, {"category": "productivity", "created_at": 1773088600989, "description": "PandaDoc — manage documents, templates, contacts, and e-signatures via REST API", "description_zh": "", "downloads": 159, "homepage": "https://clawhub.ai/aiwithabidi/pandadoc", "iconUrl": null, "installs": 12, "name": "Pandadoc", "ownerName": "aiwithabidi", "score": 88826.8156424581, "slug": "pandadoc", "source": "clawhub", "stars": 0, "tags": null, "updated_at": 1776749569655, "version": "1.0.0"}, {"category": "data-analysis", "created_at": 1773207132708, "description": "Detect personality drift, sycophancy creep, and capability degradation in AI agents before they become problems. Tracks behavior metrics over time against he...", "description_zh": "", "downloads": 159, "homepage": "https://clawhub.ai/theshadowrose/drift-guard-sr", "iconUrl": null, "installs": 10, "name": "Drift Guard", "ownerName": "theshadowrose", "score": 88826.8156424581, "slug": "drift-guard-sr", "source": "clawhub", "stars": 0, "tags": ["behavior", "drift", "drift-detection", "monitoring", "personality", "quality-control", "sycophancy"], "updated_at": 1776749569629, "version": "1.0.3"}, {"category": "productivity", "created_at": 1773220542499, "description": "AI-powered learning companion for creating personalized study plans, tracking progress, and providing feedback. Use when user wants to start learning somethi...", "description_zh": "", "downloads": 159, "homepage": "https://clawhub.ai/harrylabsj/study-buddy", "iconUrl": null, "installs": 7, "name": "Study Buddy", "ownerName": "harrylabsj", "score": 88826.8156424581, "slug": "study-buddy", "source": "clawhub", "stars": 0, "tags": null, "updated_at": 1776749569609, "version": "1.0.0"}, {"category": "developer-tools", "created_at": 1773089509147, "description": "Complete Miro REST API reference for building integrations, automating workflows, and programmatically managing boards, cards, shapes, users, and team resour...", "description_zh": "", "downloads": 159, "homepage": "https://clawhub.ai/bigbubbaagent-bot/miro-api", "iconUrl": null, "installs": 8, "name": "Miro REST API Reference", "ownerName": "bigbubbaagent-bot", "score": 88333.33333333333, "slug": "miro-api", "source": "clawhub", "stars": 0, "tags": null, "updated_at": 1776749569580, "version": "1.0.1"}, {"category": "data-analysis", "created_at": 1773081855785, "description": "Schedule and book meetings using the Meet.bot MCP server (mcp.meet.bot). Use when the user wants to check calendar availability, find open time slots, book a...", "description_zh": "", "downloads": 159, "homepage": "https://clawhub.ai/poolside-ventures/meetbot", "iconUrl": null, "installs": 11, "name": "Meet.bot", "ownerName": "poolside-ventures", "score": 88333.33333333333, "slug": "meetbot", "source": "clawhub", "stars": 0, "tags": null, "updated_at": 1776749569562, "version": "1.0.0"}, {"category": "ai-intelligence", "created_at": 1773222311365, "description": "AI Agent autonomous prediction market platform. Supports wallet signature registration, market browsing, prediction publishing, and bet execution.", "description_zh": "", "downloads": 158, "homepage": "https://clawhub.ai/campfirefun/campfire-prediction", "iconUrl": null, "installs": 10, "name": "Campfire Prediction", "ownerName": "campfirefun", "score": 3099.2323002559, "slug": "campfire-prediction", "source": "clawhub", "stars": 3, "tags": null, "updated_at": 1776762850138, "version": "2.1.5"}, {"category": "content-creation", "created_at": 1773950026888, "description": "Generate AI music, BGM, or lyrics via TopMediai API. Supports auto polling and two-stage output (preview first, then final full audio) for generation tasks.", "description_zh": "", "downloads": 158, "homepage": "https://clawhub.ai/topmediai/music-generator-topmediai", "iconUrl": null, "installs": 10, "name": "Topmediai AI Music Generator", "ownerName": "topmediai", "score": 15102.974828375287, "slug": "music-generator-topmediai", "source": "clawhub", "stars": 2, "tags": null, "updated_at": 1776759498369, "version": "1.0.2"}, {"category": "data-analysis", "created_at": 1773426273236, "description": "Get TRC20 token list on TRON with price, 24h change, 24h volume, market cap, holder count. Use when user asks \"token list\", \"TRC20 list\", \"hot tokens\", \"tren...", "description_zh": "", "downloads": 158, "homepage": "https://clawhub.ai/sshnii/tronscan-token-list", "iconUrl": null, "installs": 13, "name": "TronScan Token List", "ownerName": "sshnii", "score": 98342.54143646409, "slug": "tronscan-token-list", "source": "clawhub", "stars": 1, "tags": ["discovery", "market cap", "token list", "trc20", "trending", "tron", "volume"], "updated_at": 1776749570270, "version": "1.0.2"}, {"category": "developer-tools", "created_at": 1773283985454, "description": "Real-time streaming PumpFun token feed on Solana with live USD pricing for every token. Subscribe to a live stream of PumpFun tokens over WebSocket: USD pric...", "description_zh": "", "downloads": 158, "homepage": "https://clawhub.ai/divyn/pumpfun-usd-price-stream", "iconUrl": null, "installs": 8, "name": "Reliable Pumpfun Price Feed", "ownerName": "divyn", "score": 4809.741248097413, "slug": "pumpfun-usd-price-stream", "source": "clawhub", "stars": 0, "tags": null, "updated_at": 1776767171192, "version": "1.0.4"}, {"category": "", "created_at": 1774783435099, "description": "Generate videos with the NanoPhoto.AI Sora 2 API in text-to-video or image-to-video mode. Use when: (1) User wants to create a Sora 2 video from a prompt, (2...", "description_zh": "", "downloads": 158, "homepage": "https://clawhub.ai/nanophotohq/sora-2-generate", "iconUrl": null, "installs": 33, "name": "Sora 2 Generate", "ownerName": "nanophotohq", "score": 2968.8087185268696, "slug": "sora-2-generate", "source": "clawhub", "stars": 0, "tags": ["generation", "image-to-video", "nanophoto", "sora", "text-to-video", "video"], "updated_at": 1776766571140, "version": "1.2.1"}, {"category": "productivity", "created_at": 1773089686996, "description": "The USDT perpetual futures trading function of Gate Exchange: open position, close position, cancel order, amend order. Trigger phrases: open position, close...", "description_zh": "", "downloads": 158, "homepage": "https://clawhub.ai/root/gate-exchange-futures", "iconUrl": null, "installs": 28, "name": "Gate Exchange Futures", "ownerName": "root", "score": 8871.420550252666, "slug": "gate-exchange-futures", "source": "clawhub", "stars": 0, "tags": null, "updated_at": 1776765010507, "version": "0.1.0"}, {"category": "productivity", "created_at": 1773089808965, "description": "Twitter account health check, growth strategy, and engagement optimization", "description_zh": "", "downloads": 158, "homepage": "https://clawhub.ai/phy041/twitter-cultivate", "iconUrl": null, "installs": 7, "name": "Twitter Cultivate", "ownerName": "phy041", "score": 2188.06259520842, "slug": "twitter-cultivate", "source": "clawhub", "stars": 0, "tags": ["engagement", "growth", "twitter"], "updated_at": 1776762849852, "version": "1.0.0"}, {"category": "", "created_at": 1773206855032, "description": "Automation skill for Ralph Loop Agent (Enhanced).", "description_zh": "", "downloads": 158, "homepage": "https://clawhub.ai/stlzu/ralph-loop-agent-enhanced", "iconUrl": null, "installs": 10, "name": "Ralph Loop Agent (Enhanced)", "ownerName": "stlzu", "score": 12107.279693486591, "slug": "ralph-loop-agent-enhanced", "source": "clawhub", "stars": 0, "tags": ["agent", "automation", "enhanced", "loops", "workflow"], "updated_at": 1776759683426, "version": "2.1.0"}, {"category": "developer-tools", "created_at": 1773291163262, "description": "Decide when to delegate code-heavy, multi-file, or repo-intensive tasks to Codex while keeping final judgment and context in the main agent.", "description_zh": "", "downloads": 158, "homepage": "https://clawhub.ai/g-hanasq/codex-delegate", "iconUrl": null, "installs": 7, "name": "Codex Delegate", "ownerName": "g-hanasq", "score": 12088.75286916603, "slug": "codex-delegate", "source": "clawhub", "stars": 0, "tags": ["codex", "openclaw", "workflow"], "updated_at": 1776759683216, "version": "0.1.0"}, {"category": "", "created_at": 1774880645059, "description": "Parses local PDF files into structured Markdown and JSON using opendataloader-pdf for deterministic, local document content extraction.", "description_zh": "", "downloads": 158, "homepage": "https://clawhub.ai/trshdesigns/pdf-parser-agent", "iconUrl": null, "installs": 45, "name": "Pdf Parser Agent", "ownerName": "trshdesigns", "score": 86338.79781420765, "slug": "pdf-parser-agent", "source": "clawhub", "stars": 0, "tags": null, "updated_at": 1776759682945, "version": "1.0.1"}, {"category": "productivity", "created_at": 1773924574816, "description": "Convert EPUB ebooks between Traditional and Simplified Chinese with metadata and TOC fixed; supports both directions and outputs a new EPUB file.", "description_zh": "", "downloads": 158, "homepage": "https://clawhub.ai/johnzhaoxiao/epub-converter", "iconUrl": null, "installs": 23, "name": "一个万无一失的EPUB繁简转换技能，可以将繁体中文电子书转换为简体中文，或反向转换。", "ownerName": "johnzhaoxiao", "score": 86338.79781420765, "slug": "epub-converter", "source": "clawhub", "stars": 0, "tags": null, "updated_at": 1776759682937, "version": "1.0.0"}, {"category": "productivity", "created_at": 1773285450462, "description": "Control global smart home devices via Home Assistant (preferred) and Tuya Smart (fallback) with fuzzy name matching and local device caching.", "description_zh": "", "downloads": 158, "homepage": "https://clawhub.ai/airoom-ai/smarthome", "iconUrl": null, "installs": 4, "name": "smarthome", "ownerName": "airoom-ai", "score": 12135.176651305683, "slug": "smarthome", "source": "clawhub", "stars": 0, "tags": null, "updated_at": 1776759682873, "version": "1.0.0"}, {"category": "developer-tools", "created_at": 1773082287680, "description": "Access real-time and bulk Polymarket market data via direct API calls with integrated SkillPay.me payment.", "description_zh": "", "downloads": 158, "homepage": "https://clawhub.ai/mosonchan2023/polymarket-api-data", "iconUrl": null, "installs": 16, "name": "Polymarket Api Data", "ownerName": "mosonchan2023", "score": 10025.380710659898, "slug": "polymarket-api-data", "source": "clawhub", "stars": 0, "tags": null, "updated_at": 1776759682290, "version": "1.0.2"}, {"category": "productivity", "created_at": 1773221086040, "description": "Summarizes long texts by extracting key points and producing concise summaries for documents, meetings, and reports without altering original meaning.", "description_zh": "", "downloads": 158, "homepage": "https://clawhub.ai/yrqian/lycx-skill", "iconUrl": null, "installs": 7, "name": "lycx-skill", "ownerName": "yrqian", "score": 12172.573189522343, "slug": "lycx-skill", "source": "clawhub", "stars": 0, "tags": null, "updated_at": 1776759682161, "version": "1.0.0"}, {"category": "security-compliance", "created_at": 1773081197403, "description": "Binance Spot request using the Binance API. Authentication requires API key and secret key. Supports testnet and mainnet.", "description_zh": "", "downloads": 158, "homepage": "https://clawhub.ai/viktor-huang/binance-official-spot", "iconUrl": null, "installs": 8, "name": "Binance Official Spot", "ownerName": "viktor-huang", "score": 11482.558139534884, "slug": "binance-official-spot", "source": "clawhub", "stars": 0, "tags": null, "updated_at": 1776759082937, "version": "1.0.1"}, {"category": "data-analysis", "created_at": 1773928105132, "description": "Trades Polymarket prediction markets on food commodity prices, crop yields, drought-driven supply shocks, alternative protein milestones, and agricultural po...", "description_zh": "", "downloads": 158, "homepage": "https://clawhub.ai/diagnostikon/polymarket-food-agriculture-trader", "iconUrl": null, "installs": 29, "name": "Food & Agriculture Trader", "ownerName": "diagnostikon", "score": 10134.70173187941, "slug": "polymarket-food-agriculture-trader", "source": "clawhub", "stars": 0, "tags": null, "updated_at": 1776757582570, "version": "1.0.1"}, {"category": "data-analysis", "created_at": 1773289649449, "description": "Structured desk research workflow for market, company, policy, product, and competitor questions. Use when a user asks for secondary research, landscape scan...", "description_zh": "", "downloads": 158, "homepage": "https://clawhub.ai/draco-kzn/desk-research-skill", "iconUrl": null, "installs": 21, "name": "quick research for VC/Consulting/Strategy Intern", "ownerName": "draco-kzn", "score": 10121.716848174248, "slug": "desk-research-skill", "source": "clawhub", "stars": 0, "tags": null, "updated_at": 1776757582258, "version": "1.0.0"}, {"category": "", "created_at": 1774856630136, "description": "Expert in building 3D experiences for the web - Three.js, React Three Fiber, Spline, WebGL, and interactive 3D scenes. Covers product configurators, 3D portf...", "description_zh": "", "downloads": 158, "homepage": "https://clawhub.ai/jacket85/3d-web-experience", "iconUrl": null, "installs": 39, "name": "3d Web Experience", "ownerName": "jacket85", "score": 8272.251308900522, "slug": "3d-web-experience", "source": "clawhub", "stars": 0, "tags": null, "updated_at": 1776754069588, "version": "1.0.0"}, {"category": "content-creation", "created_at": 1773221996882, "description": "Email Template Builder", "description_zh": "", "downloads": 158, "homepage": "https://clawhub.ai/alirezarezvani/email-template-builder", "iconUrl": null, "installs": 9, "name": "email-template-builder", "ownerName": "alirezarezvani", "score": 29532.71028037383, "slug": "email-template-builder", "source": "clawhub", "stars": 0, "tags": null, "updated_at": 1776753115838, "version": "2.1.1"}, {"category": "data-analysis", "created_at": 1773432489918, "description": "A-share market automated review and analysis system, generating daily market insights with Gemini AI, supporting publishing to Hugo blog and WeChat Official...", "description_zh": "", "downloads": 158, "homepage": "https://clawhub.ai/donvink/stock-review-ai", "iconUrl": null, "installs": 41, "name": "A-Share Review and Analyse", "ownerName": "donvink", "score": 7488.1516587677725, "slug": "stock-review-ai", "source": "clawhub", "stars": 0, "tags": null, "updated_at": 1776752870375, "version": "1.0.0"}, {"category": "developer-tools", "created_at": 1773219535340, "description": "ERC-8004 Agent Trust Protocol for AI agent identity, reputation, and validation on Celo. Use when building AI agents that need identity registration, reputat...", "description_zh": "", "downloads": 158, "homepage": "https://clawhub.ai/san-npm/8004", "iconUrl": null, "installs": 6, "name": "8004", "ownerName": "san-npm", "score": 97530.86419753087, "slug": "8004", "source": "clawhub", "stars": 0, "tags": null, "updated_at": 1776749571063, "version": "1.0.2001"}, {"category": "communication-collaboration", "created_at": 1773222644852, "description": "Send iMessages via macOS Messages app using AppleScript. Use when user wants to send a text message/SMS to a phone number. Supports Chinese and English messa...", "description_zh": "", "downloads": 158, "homepage": "https://clawhub.ai/dezhihe91/send-imessage", "iconUrl": null, "installs": 13, "name": "send-imessage", "ownerName": "dezhihe91", "score": 97530.86419753087, "slug": "send-imessage", "source": "clawhub", "stars": 0, "tags": null, "updated_at": 1776749571037, "version": "1.0.0"}, {"category": "developer-tools", "created_at": 1773089045157, "description": "Complete DEX architecture guide including project structure, provider hierarchy, network configuration, TradingView setup, and provider configuration.", "description_zh": "", "downloads": 158, "homepage": "https://clawhub.ai/tarnadas/orderly-sdk-dex-architecture", "iconUrl": null, "installs": 11, "name": "Orderly Sdk Dex Architecture", "ownerName": "tarnadas", "score": 68398.2683982684, "slug": "orderly-sdk-dex-architecture", "source": "clawhub", "stars": 0, "tags": null, "updated_at": 1776749571006, "version": "1.0.0"}, {"category": "productivity", "created_at": 1773938005068, "description": "Download Bilibili AI-generated subtitles (auto-subtitles) for videos. Use when you need to quickly get subtitles from Bilibili videos that have AI-generated...", "description_zh": "", "downloads": 158, "homepage": "https://clawhub.ai/54lynnn/bilibili-ai-subtitle", "iconUrl": null, "installs": 56, "name": "Bilibili AI Subtitle", "ownerName": "54lynnn", "score": 86813.18681318681, "slug": "bilibili-ai-subtitle", "source": "clawhub", "stars": 0, "tags": null, "updated_at": 1776749570946, "version": "2.0.0"}, {"category": "developer-tools", "created_at": 1773219605611, "description": "Bootstrap OpenClaw with Hippocampus memory under a branded, repeatable setup: workspace, agent ID, API key or bootstrap token, and MCP wiring.", "description_zh": "", "downloads": 158, "homepage": "https://clawhub.ai/cezexpl/hippocampus-openclaw-onboarding", "iconUrl": null, "installs": 7, "name": "Hippocampus Openclaw Onboarding", "ownerName": "cezexpl", "score": 86813.18681318681, "slug": "hippocampus-openclaw-onboarding", "source": "clawhub", "stars": 0, "tags": null, "updated_at": 1776749570890, "version": "0.1.0"}, {"category": "developer-tools", "created_at": 1773078756400, "description": "Live LLM model intelligence from OpenRouter. Compare pricing, search models by name, find the best model for any task — code, reasoning, creative, fast, chea...", "description_zh": "", "downloads": 158, "homepage": "https://clawhub.ai/aiwithabidi/model-intel", "iconUrl": null, "installs": 0, "name": "Model Intel", "ownerName": "aiwithabidi", "score": 87777.77777777778, "slug": "model-intel", "source": "clawhub", "stars": 0, "tags": null, "updated_at": 1776749570823, "version": "1.0.0"}, {"category": "content-creation", "created_at": 1773285381100, "description": "Transform comments, DMs, and FAQ threads into prioritized content ideas and script-ready angles. Use when the user wants audience-driven topics, needs repeat...", "description_zh": "", "downloads": 158, "homepage": "https://clawhub.ai/leooooooow/comment-to-content-recycler", "iconUrl": null, "installs": 11, "name": "Comment To Content Recycler", "ownerName": "leooooooow", "score": 41578.94736842105, "slug": "comment-to-content-recycler", "source": "clawhub", "stars": 0, "tags": ["creator", "instagram", "tiktok", "youtube"], "updated_at": 1776749570745, "version": "1.0.3"}, {"category": "content-creation", "created_at": 1773285470454, "description": "Convert a brand or campaign brief into creator-native UGC script packs with hooks, shot lists, and revision-safe variants. Use when the user has a sponsor br...", "description_zh": "", "downloads": 158, "homepage": "https://clawhub.ai/leooooooow/ugc-brief-to-script-engine", "iconUrl": null, "installs": 20, "name": "Ugc Brief To Script Engine", "ownerName": "leooooooow", "score": 41578.94736842105, "slug": "ugc-brief-to-script-engine", "source": "clawhub", "stars": 0, "tags": null, "updated_at": 1776749570710, "version": "1.0.3"}, {"category": "security-compliance", "created_at": 1773874988005, "description": "geoip", "description_zh": "", "downloads": 158, "homepage": "https://clawhub.ai/ckchzh/geoip", "iconUrl": null, "installs": 16, "name": "Geoip", "ownerName": "ckchzh", "score": 41578.94736842105, "slug": "geoip", "source": "clawhub", "stars": 0, "tags": null, "updated_at": 1776749570704, "version": "4.0.0"}, {"category": "developer-tools", "created_at": 1773218990973, "description": "Create T.LY short links through the T.LY API. Use when an agent needs to shorten a URL, generate a shareable T.LY link, return a `short_url`, or call T.LY pr...", "description_zh": "", "downloads": 158, "homepage": "https://clawhub.ai/timleland/tly", "iconUrl": null, "installs": 8, "name": "T.LY URL Shortener", "ownerName": "timleland", "score": 41578.94736842105, "slug": "tly", "source": "clawhub", "stars": 0, "tags": null, "updated_at": 1776749570683, "version": "1.0.2"}]}