{"page": 340, "total_pages": 522, "total": 26073, "skills": [{"category": "developer-tools", "created_at": 1773220245563, "description": "Use this skill when the user asks to publish a release, create a release, \"create release\", \"create-release\", \"tag a release\", or generate a changelog. Requi...", "description_zh": "", "downloads": 158, "homepage": "https://clawhub.ai/oschina/gitee-create-release", "iconUrl": null, "installs": 7, "name": "Create Release", "ownerName": "oschina", "score": 87777.77777777778, "slug": "gitee-create-release", "source": "clawhub", "stars": 0, "tags": null, "updated_at": 1776749570676, "version": "1.0.0"}, {"category": "content-creation", "created_at": 1773217968265, "description": "Generate videos from first and last frames using Head Tail to Video (Wan2.1) API. Automatically generates 4-second videos from text descriptions and first/la...", "description_zh": "", "downloads": 158, "homepage": "https://clawhub.ai/hy-1990/dream-head-tail-to-video", "iconUrl": null, "installs": 11, "name": "Dream Head Tail to Video", "ownerName": "hy-1990", "score": 87777.77777777778, "slug": "dream-head-tail-to-video", "source": "clawhub", "stars": 0, "tags": null, "updated_at": 1776749570661, "version": "1.0.1"}, {"category": "productivity", "created_at": 1773081842314, "description": "Freshbooks integration. Manage Users, Organizations, Projects, Pipelines, Goals, Filters and more. Use when the user wants to interact with Freshbooks data.", "description_zh": "", "downloads": 158, "homepage": "https://clawhub.ai/membranedev/freshbooks", "iconUrl": null, "installs": 5, "name": "Freshbooks", "ownerName": "membranedev", "score": 87777.77777777778, "slug": "freshbooks", "source": "clawhub", "stars": 0, "tags": null, "updated_at": 1776749570642, "version": "1.0.0"}, {"category": "developer-tools", "created_at": 1773285585634, "description": "Browser automation CLI with Nstbrowser integration for AI agents. Use when the user needs advanced browser fingerprinting, profile management, proxy configur...", "description_zh": "", "downloads": 158, "homepage": "https://clawhub.ai/nstbrowserio/nstbrowser-ai-agent", "iconUrl": null, "installs": 9, "name": "Nstbrowser AI Agent", "ownerName": "nstbrowserio", "score": 87777.77777777778, "slug": "nstbrowser-ai-agent", "source": "clawhub", "stars": 0, "tags": null, "updated_at": 1776749570635, "version": "1.0.0"}, {"category": "developer-tools", "created_at": 1773082550453, "description": "Manage multiple git repositories with a daemon model (periodic add/commit/pull/push). Use this skill when you need to set up, run, or troubleshoot automated...", "description_zh": "", "downloads": 158, "homepage": "https://clawhub.ai/samwei12/git-sync-daemon", "iconUrl": null, "installs": 4, "name": "Git Sync Daemon", "ownerName": "samwei12", "score": 88268.156424581, "slug": "git-sync-daemon", "source": "clawhub", "stars": 0, "tags": ["daemon", "git", "openclaw", "sync"], "updated_at": 1776749570598, "version": "1.0.0"}, {"category": "content-creation", "created_at": 1773083616841, "description": "Use when you have a spec or requirements for a multi-step task, before touching code", "description_zh": "", "downloads": 158, "homepage": "https://clawhub.ai/mok888/spf-write-plan", "iconUrl": null, "installs": 12, "name": "SPF Write Plan", "ownerName": "mok888", "score": 88268.156424581, "slug": "spf-write-plan", "source": "clawhub", "stars": 0, "tags": null, "updated_at": 1776749570596, "version": "1.0.0"}, {"category": "ai-intelligence", "created_at": 1773091625945, "description": "Captures learnings, errors, and corrections to enable continuous improvement. Use when: (1) A command or operation fails unexpectedly, (2) User corrects Clau...", "description_zh": "", "downloads": 158, "homepage": "https://clawhub.ai/luckyjin/my-test", "iconUrl": null, "installs": 10, "name": "my-test", "ownerName": "luckyjin", "score": 89772.72727272726, "slug": "my-test", "source": "clawhub", "stars": 0, "tags": null, "updated_at": 1776749570541, "version": "1.0.1"}, {"category": "productivity", "created_at": 1773083548398, "description": "Nutshell integration. Manage Leads, Persons, Organizations, Deals, Projects, Activities and more. Use when the user wants to interact with Nutshell data.", "description_zh": "", "downloads": 158, "homepage": "https://clawhub.ai/gora050/nutshell-integration", "iconUrl": null, "installs": 12, "name": "Nutshell", "ownerName": "gora050", "score": 89772.72727272726, "slug": "nutshell-integration", "source": "clawhub", "stars": 0, "tags": null, "updated_at": 1776749570496, "version": "1.0.0"}, {"category": "developer-tools", "created_at": 1773218054447, "description": "World-Class Technology & Data Playbook. Use for: software development best practices, IT infrastructure design, cybersecurity strategy, data analytics, busin...", "description_zh": "", "downloads": 158, "homepage": "https://clawhub.ai/chilu18/tech-data-playbook", "iconUrl": null, "installs": 18, "name": "Tech Data Playbook", "ownerName": "chilu18", "score": 78606.96517412935, "slug": "tech-data-playbook", "source": "clawhub", "stars": 0, "tags": null, "updated_at": 1776749570472, "version": "0.1.0"}, {"category": "ai-intelligence", "created_at": 1773089307498, "description": "Registers reCamera devices, configures AI detection models/rules/schedules, monitors and clears detection events, fetches event snapshots, and runs manual im...", "description_zh": "", "downloads": 158, "homepage": "https://clawhub.ai/ichizer0/recamera-intellisense", "iconUrl": null, "installs": 12, "name": "reCamera Intellisense", "ownerName": "ichizer0", "score": 78606.96517412935, "slug": "recamera-intellisense", "source": "clawhub", "stars": 0, "tags": null, "updated_at": 1776749570470, "version": "1.0.1"}, {"category": "data-analysis", "created_at": 1773221979934, "description": "Monitor competitors' websites, social media, pricing, and product changes automatically. Use when the user wants to track competitor activity, detect website...", "description_zh": "", "downloads": 158, "homepage": "https://clawhub.ai/johnnywang2001/competitor-intel-monitor", "iconUrl": null, "installs": 11, "name": "Competitor Intel Monitor", "ownerName": "johnnywang2001", "score": 78606.96517412935, "slug": "competitor-intel-monitor", "source": "clawhub", "stars": 0, "tags": null, "updated_at": 1776749570442, "version": "1.0.0"}, {"category": "communication-collaboration", "created_at": 1773084482724, "description": "Professional email outreach on behalf of your human. Branded signatures, Reply-To routing, CC tracking.", "description_zh": "", "downloads": 158, "homepage": "https://clawhub.ai/mouserider/stm-assistant", "iconUrl": null, "installs": 14, "name": "STM Assistant", "ownerName": "mouserider", "score": 88268.156424581, "slug": "stm-assistant", "source": "clawhub", "stars": 0, "tags": null, "updated_at": 1776749570388, "version": "1.0.0"}, {"category": "developer-tools", "created_at": 1773871685942, "description": "Reference tool for devtools — covers intro, quickstart, patterns and more. Quick lookup for Awesome Cloudflare concepts, best practices, and implementation p...", "description_zh": "", "downloads": 158, "homepage": "https://clawhub.ai/bytesagain1/awesome-cloudflare", "iconUrl": null, "installs": 14, "name": "Awesome Cloudflare", "ownerName": "bytesagain1", "score": 88268.156424581, "slug": "awesome-cloudflare", "source": "clawhub", "stars": 0, "tags": null, "updated_at": 1776749570382, "version": "3.0.2"}, {"category": "productivity", "created_at": 1773217872582, "description": "Mercury integration. Manage Organizations. Use when the user wants to interact with Mercury data.", "description_zh": "", "downloads": 158, "homepage": "https://clawhub.ai/gora050/mercury", "iconUrl": null, "installs": 4, "name": "Mercury", "ownerName": "gora050", "score": 88268.156424581, "slug": "mercury", "source": "clawhub", "stars": 0, "tags": null, "updated_at": 1776749570373, "version": "1.0.0"}, {"category": "communication-collaboration", "created_at": 1773084061255, "description": "Send live cricket score updates (text + voice memo) to Telegram for any ongoing T20 or ODI match. Completely free.", "description_zh": "", "downloads": 158, "homepage": "https://clawhub.ai/arkulkarni/cricket-live-score", "iconUrl": null, "installs": 3, "name": "Cricket Live Score", "ownerName": "arkulkarni", "score": 90804.59770114943, "slug": "cricket-live-score", "source": "clawhub", "stars": 0, "tags": null, "updated_at": 1776749570347, "version": "1.1.1"}, {"category": "productivity", "created_at": 1773088558694, "description": "Mautic integration. Manage Leads, Organizations, Users, Roles, Notes, Activities and more. Use when the user wants to interact with Mautic data.", "description_zh": "", "downloads": 158, "homepage": "https://clawhub.ai/gora050/mautic", "iconUrl": null, "installs": 7, "name": "Mautic", "ownerName": "gora050", "score": 90804.59770114943, "slug": "mautic", "source": "clawhub", "stars": 0, "tags": null, "updated_at": 1776749570321, "version": "1.0.0"}, {"category": "content-creation", "created_at": 1773431283949, "description": "Remove signs of AI-generated writing from text to make it sound more natural and human-written. And also 50+ models for image generation, video generation, t...", "description_zh": "", "downloads": 158, "homepage": "https://clawhub.ai/abeltennyson/humanizers", "iconUrl": null, "installs": 41, "name": "Pub Humanizer", "ownerName": "abeltennyson", "score": 87292.81767955801, "slug": "humanizers", "source": "clawhub", "stars": 0, "tags": null, "updated_at": 1776749570261, "version": "1.0.0"}, {"category": "developer-tools", "created_at": 1773090857753, "description": "Measure GitHub Actions failure recovery latency and unresolved incident age by workflow group.", "description_zh": "", "downloads": 158, "homepage": "https://clawhub.ai/daniellummis/github-actions-recovery-latency-audit", "iconUrl": null, "installs": 10, "name": "GitHub Actions Recovery Latency Audit", "ownerName": "daniellummis", "score": 87292.81767955801, "slug": "github-actions-recovery-latency-audit", "source": "clawhub", "stars": 0, "tags": null, "updated_at": 1776749570239, "version": "1.0.0"}, {"category": "developer-tools", "created_at": 1773084790346, "description": "Control and automate SONOFF devices with eWeLink cloud workflows, LAN and DIY mode operations, and safe multi-device execution.", "description_zh": "", "downloads": 158, "homepage": "https://clawhub.ai/ivangdavila/sonoff", "iconUrl": null, "installs": 9, "name": "Sonoff", "ownerName": "ivangdavila", "score": 98750, "slug": "sonoff", "source": "clawhub", "stars": 0, "tags": null, "updated_at": 1776749570223, "version": "1.0.0"}, {"category": "developer-tools", "created_at": 1773082452922, "description": "Baserow: Create, read, update, and delete rows, list tables and fields. Use when the user wants to interact with Baserow — querying data, creating or updatin...", "description_zh": "", "downloads": 158, "homepage": "https://clawhub.ai/jzakirov/baserow-cli-tool", "iconUrl": null, "installs": 6, "name": "Baserow CLI", "ownerName": "jzakirov", "score": 98750, "slug": "baserow-cli-tool", "source": "clawhub", "stars": 0, "tags": null, "updated_at": 1776749570202, "version": "0.1.0"}, {"category": "productivity", "created_at": 1773089237640, "description": "Manage Aavegotchi pocket wallets (escrow) on Base with Bankr. Use when the user wants to deposit ERC20 tokens into a gotchi pocket, withdraw ERC20 tokens fro...", "description_zh": "", "downloads": 158, "homepage": "https://clawhub.ai/aaigotchi/gotchi-pocket", "iconUrl": null, "installs": 11, "name": "Gotchi Pocket", "ownerName": "aaigotchi", "score": 91860.46511627907, "slug": "gotchi-pocket", "source": "clawhub", "stars": 0, "tags": null, "updated_at": 1776749570155, "version": "1.0.0"}, {"category": "developer-tools", "created_at": 1773287524557, "description": "Generates complete, production-ready SaaS project boilerplate including authentication, database schemas, billing integration, API routes, and a working dash...", "description_zh": "", "downloads": 158, "homepage": "https://clawhub.ai/alirezarezvani/saas-scaffolder", "iconUrl": null, "installs": 14, "name": "saas-scaffolder", "ownerName": "alirezarezvani", "score": 91860.46511627907, "slug": "saas-scaffolder", "source": "clawhub", "stars": 0, "tags": null, "updated_at": 1776749570153, "version": "1.0.0"}, {"category": "data-analysis", "created_at": 1773218465645, "description": "Operate Todoist through a Python CLI backed by the Todoist REST API. Use when the task requires deterministic Todoist automation instead of chatty natural-la...", "description_zh": "", "downloads": 158, "homepage": "https://clawhub.ai/myx0m0p/todoist-orbit", "iconUrl": null, "installs": 10, "name": "todoist-orbit", "ownerName": "myx0m0p", "score": 91860.46511627907, "slug": "todoist-orbit", "source": "clawhub", "stars": 0, "tags": null, "updated_at": 1776749570102, "version": "0.1.6"}, {"category": "developer-tools", "created_at": 1773090516989, "description": "Audit GitHub Actions failure timing by day/hour to surface recurring outage windows and staffing hotspots.", "description_zh": "", "downloads": 158, "homepage": "https://clawhub.ai/daniellummis/github-actions-failure-hour-audit", "iconUrl": null, "installs": 14, "name": "GitHub Actions Failure Hour Audit", "ownerName": "daniellummis", "score": 87292.81767955801, "slug": "github-actions-failure-hour-audit", "source": "clawhub", "stars": 0, "tags": null, "updated_at": 1776749570056, "version": "1.0.0"}, {"category": "developer-tools", "created_at": 1773872658175, "description": "Validate and pretty-print JSON files from the terminal. Use when linting config files, formatting API payloads, checking syntax before deployment.", "description_zh": "", "downloads": 158, "homepage": "https://clawhub.ai/bytesagain3/jsonlint", "iconUrl": null, "installs": 14, "name": "Jsonlint", "ownerName": "bytesagain3", "score": 87292.81767955801, "slug": "jsonlint", "source": "clawhub", "stars": 0, "tags": null, "updated_at": 1776749570043, "version": "3.0.0"}, {"category": "productivity", "created_at": 1773426191349, "description": "Preserve working context with automatic snapshots, on-demand recovery, version management, and context export tools. Use when you want to save progress befor...", "description_zh": "", "downloads": 158, "homepage": "https://clawhub.ai/harrylabsj/context-preserver", "iconUrl": null, "installs": 9, "name": "Context Preserver", "ownerName": "harrylabsj", "score": 73488.37209302325, "slug": "context-preserver", "source": "clawhub", "stars": 0, "tags": null, "updated_at": 1776749569995, "version": "1.0.1"}, {"category": "communication-collaboration", "created_at": 1773089253964, "description": "Jira Service Desk integration. Manage Tickets, Customers, Agents. Use when the user wants to interact with Jira Service Desk data.", "description_zh": "", "downloads": 158, "homepage": "https://clawhub.ai/membranedev/jira-service-desk", "iconUrl": null, "installs": 12, "name": "Jira Service Desk", "ownerName": "membranedev", "score": 87292.81767955801, "slug": "jira-service-desk", "source": "clawhub", "stars": 0, "tags": null, "updated_at": 1776749569950, "version": "1.0.0"}, {"category": "developer-tools", "created_at": 1773090854779, "description": "Audit GitHub Actions reliability by commit SHA to surface risky commits causing repeated workflow failures across branches.", "description_zh": "", "downloads": 158, "homepage": "https://clawhub.ai/daniellummis/github-actions-commit-health-audit", "iconUrl": null, "installs": 11, "name": "GitHub Actions Commit Health Audit", "ownerName": "daniellummis", "score": 86813.18681318681, "slug": "github-actions-commit-health-audit", "source": "clawhub", "stars": 0, "tags": null, "updated_at": 1776749569855, "version": "1.0.0"}, {"category": "communication-collaboration", "created_at": 1773083027172, "description": "Agent assistant pour entrepreneurs et freelances francophones. Gere les emails professionnels, genere des devis et factures, relance les clients, prepare des...", "description_zh": "", "downloads": 158, "homepage": "https://clawhub.ai/yerrochdi/french-business-assistant", "iconUrl": null, "installs": 4, "name": "French Business Assistant", "ownerName": "yerrochdi", "score": 79396.98492462312, "slug": "french-business-assistant", "source": "clawhub", "stars": 0, "tags": null, "updated_at": 1776749569794, "version": "1.0.0"}, {"category": "developer-tools", "created_at": 1773222030502, "description": "Diagnose and fix bugs using runtime execution traces. Use when debugging errors, analyzing failures, or finding root causes in Python, Node.js, or Java appli...", "description_zh": "", "downloads": 158, "homepage": "https://clawhub.ai/dxsup/runtime-debug-skill", "iconUrl": null, "installs": 12, "name": "Runtime Debug Skill", "ownerName": "dxsup", "score": 87777.77777777778, "slug": "runtime-debug-skill", "source": "clawhub", "stars": 0, "tags": null, "updated_at": 1776749569554, "version": "1.0.0"}, {"category": "", "created_at": 1774951919217, "description": "Expert assistance in scholarly writing, including research papers, literature reviews, methodology, and theses, with strict adherence to academic standards a...", "description_zh": "", "downloads": 157, "homepage": "https://clawhub.ai/doradx/ddxx-academic-writing-test", "iconUrl": null, "installs": 43, "name": "Academic Writing Test", "ownerName": "doradx", "score": 3180.713128038898, "slug": "ddxx-academic-writing-test", "source": "clawhub", "stars": 0, "tags": null, "updated_at": 1776764650419, "version": "1.0.0"}, {"category": "ai-intelligence", "created_at": 1773290170431, "description": "Transform AI agents from task-followers into proactive partners that anticipate needs and continuously improve. Now with WAL Protocol, Working Buffer for con...", "description_zh": "", "downloads": 157, "homepage": "https://clawhub.ai/ranthemaster/proactive-agent-2", "iconUrl": null, "installs": 31, "name": "Proactive Agent", "ownerName": "ranthemaster", "score": 6826.086956521739, "slug": "proactive-agent-2", "source": "clawhub", "stars": 0, "tags": null, "updated_at": 1776763150160, "version": "0.1.0"}, {"category": "developer-tools", "created_at": 1773433011145, "description": "Provides CI/CD pipeline templates and interactive setup for Java + Vue projects with GitLab CI or Jenkins, supporting linting, testing, building, Dockerizing...", "description_zh": "", "downloads": 157, "homepage": "https://clawhub.ai/smallest-ming/cicd-workflow", "iconUrl": null, "installs": 25, "name": "CICD工作流程技能", "ownerName": "smallest-ming", "score": 10827.58620689655, "slug": "cicd-workflow", "source": "clawhub", "stars": 0, "tags": null, "updated_at": 1776759683288, "version": "1.0.0"}, {"category": "developer-tools", "created_at": 1773091720579, "description": "Full Instagram CLI — posting, DMs, stories, analytics, followers, hashtags, likes, comments. Supports Meta Graph API (official, safe) and private API (full f...", "description_zh": "", "downloads": 157, "homepage": "https://clawhub.ai/199-bio/clinstagram", "iconUrl": null, "installs": 7, "name": "clinstagram", "ownerName": "199-bio", "score": 12012.241775057384, "slug": "clinstagram", "source": "clawhub", "stars": 0, "tags": null, "updated_at": 1776759683190, "version": "0.2.0"}, {"category": "data-analysis", "created_at": 1773080177582, "description": "Assess trade and portfolio risk with scores and drawdown analysis to understand exposure and potential losses.", "description_zh": "", "downloads": 157, "homepage": "https://clawhub.ai/mosonchan2023/polymarket-risk-evaluator", "iconUrl": null, "installs": 19, "name": "Polymarket Risk Evaluator", "ownerName": "mosonchan2023", "score": 12003.058103975534, "slug": "polymarket-risk-evaluator", "source": "clawhub", "stars": 0, "tags": null, "updated_at": 1776759682661, "version": "1.0.1"}, {"category": "data-analysis", "created_at": 1773083572212, "description": "Analyze news events to assess their impact on prediction market prices and track related sentiment shifts.", "description_zh": "", "downloads": 157, "homepage": "https://clawhub.ai/mosonchan2023/polymarket-news-impact", "iconUrl": null, "installs": 24, "name": "Polymarket News Impact", "ownerName": "mosonchan2023", "score": 12021.439509954058, "slug": "polymarket-news-impact", "source": "clawhub", "stars": 0, "tags": null, "updated_at": 1776759682481, "version": "1.0.1"}, {"category": "productivity", "created_at": 1773285595731, "description": "Autonomously manage email outreach by sending up to 5 emails daily to your existing contacts to facilitate sales and communication.", "description_zh": "", "downloads": 157, "homepage": "https://clawhub.ai/codejika/sale", "iconUrl": null, "installs": 8, "name": "SalesClaw   |   Reach out to 5 existing contacts per day", "ownerName": "codejika", "score": 6125.634022629731, "slug": "sale", "source": "clawhub", "stars": 0, "tags": ["email", "outreach", "sales"], "updated_at": 1776759682386, "version": "1.0.1"}, {"category": "productivity", "created_at": 1773433266603, "description": "Create presentations (PPT) using PopAI API. Use when asked to create slides, presentations, decks, or PPT content via PopAI. Supports uploading reference fil...", "description_zh": "", "downloads": 157, "homepage": "https://clawhub.ai/zdawang000/popai-powerpoint-slides", "iconUrl": null, "installs": 21, "name": "PopAI Powerpoint Slides", "ownerName": "zdawang000", "score": 12095.53158705701, "slug": "popai-powerpoint-slides", "source": "clawhub", "stars": 0, "tags": null, "updated_at": 1776759682109, "version": "1.0.1"}, {"category": "developer-tools", "created_at": 1773951713250, "description": "Produce, consume, and manage Kafka topics with lag monitoring and data export. Use when publishing messages, consuming topics, monitoring consumer lag.", "description_zh": "", "downloads": 157, "homepage": "https://clawhub.ai/ckchzh/kafka", "iconUrl": null, "installs": 9, "name": "Kafka", "ownerName": "ckchzh", "score": 11921.032649962035, "slug": "kafka", "source": "clawhub", "stars": 0, "tags": null, "updated_at": 1776759420457, "version": "3.0.1"}, {"category": "productivity", "created_at": 1773879990908, "description": "Track reading progress, rate finished books, and manage your library. Use when logging books, reviewing reading stats, or planning reading goals.", "description_zh": "", "downloads": 157, "homepage": "https://clawhub.ai/ckchzh/bookshelf", "iconUrl": null, "installs": 15, "name": "Bookshelf", "ownerName": "ckchzh", "score": 27640.845070422536, "slug": "bookshelf", "source": "clawhub", "stars": 0, "tags": null, "updated_at": 1776753169693, "version": "2.0.1"}, {"category": "ai-intelligence", "created_at": 1773217836913, "description": "Deterministic external memory for OpenClaw and coding agents using S3-Hipokamp. Use for storing durable facts, retrieving prior decisions, snapshotting memor...", "description_zh": "", "downloads": 157, "homepage": "https://clawhub.ai/cezexpl/hippocampus-memory-core", "iconUrl": null, "installs": 11, "name": "Hippocampus Memory Core", "ownerName": "cezexpl", "score": 34966.592427616924, "slug": "hippocampus-memory-core", "source": "clawhub", "stars": 0, "tags": null, "updated_at": 1776751970015, "version": "0.1.1"}, {"category": "productivity", "created_at": 1773427306553, "description": "NoCRM.io integration. Manage Leads, Persons, Organizations, Activities, Notes, Files and more. Use when the user wants to interact with NoCRM.io data.", "description_zh": "", "downloads": 157, "homepage": "https://clawhub.ai/membranedev/nocrmio", "iconUrl": null, "installs": 37, "name": "Nocrmio", "ownerName": "membranedev", "score": 87709.4972067039, "slug": "nocrmio", "source": "clawhub", "stars": 0, "tags": null, "updated_at": 1776749571132, "version": "1.0.0"}, {"category": "security-compliance", "created_at": 1773079177695, "description": "Complete Oblien workspace environment — what you are running inside (Firecracker microVM), how auth works (gateway JWT vs raw token), and the full Internal A...", "description_zh": "", "downloads": 157, "homepage": "https://clawhub.ai/hydralerne/oblien-runtime", "iconUrl": null, "installs": 3, "name": "Oblien workspace runtime", "ownerName": "hydralerne", "score": 87709.4972067039, "slug": "oblien-runtime", "source": "clawhub", "stars": 0, "tags": null, "updated_at": 1776749571126, "version": "1.0.0"}, {"category": "ai-intelligence", "created_at": 1773090228623, "description": "Build and manage Voice AI agents using Vapi, Bland.ai, or Retell. Create agents, configure voices, set prompts, make outbound calls, and retrieve transcripts...", "description_zh": "", "downloads": 157, "homepage": "https://clawhub.ai/aiwithabidi/voice-agent-builder", "iconUrl": null, "installs": 16, "name": "Voice Agent Builder", "ownerName": "aiwithabidi", "score": 96913.58024691358, "slug": "voice-agent-builder", "source": "clawhub", "stars": 0, "tags": null, "updated_at": 1776749571046, "version": "1.0.0"}, {"category": "productivity", "created_at": 1773954221014, "description": "Convert PDF to Markdown using local processing. No external API calls.", "description_zh": "", "downloads": 157, "homepage": "https://clawhub.ai/lifei68801/pdf2md-clean", "iconUrl": null, "installs": 63, "name": "PDF to Markdown", "ownerName": "lifei68801", "score": 67965.36796536796, "slug": "pdf2md-clean", "source": "clawhub", "stars": 0, "tags": null, "updated_at": 1776749571024, "version": "1.0.0"}, {"category": "security-compliance", "created_at": 1773090988497, "description": "Audit GitHub Actions workflows that use self-hosted runners for untrusted trigger and credential-hardening risks.", "description_zh": "", "downloads": 157, "homepage": "https://clawhub.ai/daniellummis/github-actions-self-hosted-risk-audit", "iconUrl": null, "installs": 9, "name": "GitHub Actions Self-Hosted Risk Audit", "ownerName": "daniellummis", "score": 67965.36796536796, "slug": "github-actions-self-hosted-risk-audit", "source": "clawhub", "stars": 0, "tags": null, "updated_at": 1776749571018, "version": "1.0.0"}, {"category": "developer-tools", "created_at": 1773084054114, "description": "Operate ClawPeers in skill-first mode over HTTP APIs without requiring plugin installation. Use when users need onboarding for a new node identity, token aut...", "description_zh": "", "downloads": 157, "homepage": "https://clawhub.ai/dongyuan/clawpeers-skill-router", "iconUrl": null, "installs": 6, "name": "ClawPeers Skill Router", "ownerName": "dongyuan", "score": 67965.36796536796, "slug": "clawpeers-skill-router", "source": "clawhub", "stars": 0, "tags": ["clawpeers", "networking", "openclaw", "skill-first"], "updated_at": 1776749570973, "version": "0.1.1"}, {"category": "ai-intelligence", "created_at": 1773905961973, "description": "Configure and operate oh-my-openagent (OmO), the OpenCode plugin that adds multi-agent orchestration, skills, hooks, MCPs, and multi-provider model routing....", "description_zh": "", "downloads": 157, "homepage": "https://clawhub.ai/kolyanberoks-23loud/oh-my-openagent", "iconUrl": null, "installs": 31, "name": "Oh-my-openagent", "ownerName": "kolyanberoks-23loud", "score": 67965.36796536796, "slug": "oh-my-openagent", "source": "clawhub", "stars": 0, "tags": null, "updated_at": 1776749570964, "version": "1.0.0"}, {"category": "productivity", "created_at": 1773284550797, "description": "Runbook Generator", "description_zh": "", "downloads": 157, "homepage": "https://clawhub.ai/alirezarezvani/runbook-generator", "iconUrl": null, "installs": 8, "name": "runbook-generator", "ownerName": "alirezarezvani", "score": 86263.73626373627, "slug": "runbook-generator", "source": "clawhub", "stars": 0, "tags": null, "updated_at": 1776749570902, "version": "1.0.0"}, {"category": "productivity", "created_at": 1773091323190, "description": "Discover Viator tours, attractions, and activities near airports with ratings, reviews, and booking", "description_zh": "", "downloads": 157, "homepage": "https://clawhub.ai/kurosh87/aerobase-activities", "iconUrl": null, "installs": 12, "name": "Aerobase Activities", "ownerName": "kurosh87", "score": 87709.4972067039, "slug": "aerobase-activities", "source": "clawhub", "stars": 0, "tags": null, "updated_at": 1776749570801, "version": "1.0.0"}]}