{"page": 341, "total_pages": 522, "total": 26073, "skills": [{"category": "developer-tools", "created_at": 1773084702886, "description": "Connect to Civic MCP for 100+ integrations.", "description_zh": "", "downloads": 157, "homepage": "https://clawhub.ai/civictechuser/openclaw-civic-skill", "iconUrl": null, "installs": 6, "name": "Civic", "ownerName": "civictechuser", "score": 87709.4972067039, "slug": "openclaw-civic-skill", "source": "clawhub", "stars": 0, "tags": null, "updated_at": 1776749570782, "version": "0.1.0"}, {"category": "data-analysis", "created_at": 1773417295781, "description": "Read OpenClaw policies from PostgreSQL through the local Supabase Docker stack. Use for inspecting policy keys such as auto_approve, priority_routing, or ava...", "description_zh": "", "downloads": 157, "homepage": "https://clawhub.ai/ecosincronia/read-policy", "iconUrl": null, "installs": 8, "name": "Read Policy", "ownerName": "ecosincronia", "score": 41315.78947368421, "slug": "read-policy", "source": "clawhub", "stars": 0, "tags": null, "updated_at": 1776749570681, "version": "1.0.2"}, {"category": "data-analysis", "created_at": 1773426398086, "description": "Designs market and user research plans focused on methodology selection and research material authoring (screeners, surveys, interview guides, usability task...", "description_zh": "", "downloads": 157, "homepage": "https://clawhub.ai/nkz55/research-planner", "iconUrl": null, "installs": 16, "name": "Research Planner", "ownerName": "nkz55", "score": 87222.22222222222, "slug": "research-planner", "source": "clawhub", "stars": 0, "tags": null, "updated_at": 1776749570678, "version": "1.0.0"}, {"category": "productivity", "created_at": 1773089568818, "description": "Shopline integration. Manage Persons, Organizations, Deals, Leads, Activities, Notes and more. Use when the user wants to interact with Shopline data.", "description_zh": "", "downloads": 157, "homepage": "https://clawhub.ai/membranedev/shopline", "iconUrl": null, "installs": 8, "name": "Shopline", "ownerName": "membranedev", "score": 87222.22222222222, "slug": "shopline", "source": "clawhub", "stars": 0, "tags": null, "updated_at": 1776749570671, "version": "1.0.0"}, {"category": "ai-intelligence", "created_at": 1773090729377, "description": "Interactive guide for new OpenClaw users to set up and grow their agent. Two paths - Tool Path (automation, efficiency, getting things done) or Awakening Pat...", "description_zh": "", "downloads": 157, "homepage": "https://clawhub.ai/roger0808/openclaw-evolution", "iconUrl": null, "installs": 16, "name": "Openclaw Evolution", "ownerName": "roger0808", "score": 78109.4527363184, "slug": "openclaw-evolution", "source": "clawhub", "stars": 0, "tags": null, "updated_at": 1776749570465, "version": "1.0.0"}, {"category": "productivity", "created_at": 1773091193915, "description": "Microsoft To Do integration. Manage Tasks, Steps, Categories. Use when the user wants to interact with Microsoft To Do data.", "description_zh": "", "downloads": 157, "homepage": "https://clawhub.ai/membranedev/microsoft-to-do-integration", "iconUrl": null, "installs": 2, "name": "Microsoft To Do", "ownerName": "membranedev", "score": 78109.4527363184, "slug": "microsoft-to-do-integration", "source": "clawhub", "stars": 0, "tags": null, "updated_at": 1776749570449, "version": "1.0.0"}, {"category": "developer-tools", "created_at": 1773218196623, "description": "Manage TickTick tasks and projects via the `ttg` CLI (github.com/dhruvkelawala/ticktick-go). Full CRUD, checklists/subtasks with progress display, reminders,...", "description_zh": "", "downloads": 157, "homepage": "https://clawhub.ai/dhruvkelawala/ticktick-go", "iconUrl": null, "installs": 6, "name": "TickTick CLI (ttg)", "ownerName": "dhruvkelawala", "score": 90229.88505747126, "slug": "ticktick-go", "source": "clawhub", "stars": 0, "tags": ["checklists", "cli", "go", "productivity", "reminders", "tasks", "ticktick"], "updated_at": 1776749570332, "version": "1.1.1"}, {"category": "security-compliance", "created_at": 1773080693083, "description": "Build Instacart recipe pages, shopping lists, and retailer lookups with MCP, REST, secure auth, and launch-ready integration rules.", "description_zh": "", "downloads": 157, "homepage": "https://clawhub.ai/ivangdavila/instacart", "iconUrl": null, "installs": 2, "name": "Instacart", "ownerName": "ivangdavila", "score": 90229.88505747126, "slug": "instacart", "source": "clawhub", "stars": 0, "tags": null, "updated_at": 1776749570328, "version": "1.0.0"}, {"category": "productivity", "created_at": 1773089419944, "description": "Background job toast notification system for the OpenClaw Control UI. Bottom-right corner toast bar that shows running/complete/error status for all backgrou...", "description_zh": "", "downloads": 157, "homepage": "https://clawhub.ai/maverick-software/bg-job-toasts", "iconUrl": null, "installs": 6, "name": "Background Job Toasts", "ownerName": "maverick-software", "score": 86740.33149171271, "slug": "bg-job-toasts", "source": "clawhub", "stars": 0, "tags": null, "updated_at": 1776749570247, "version": "1.0.0"}, {"category": "developer-tools", "created_at": 1773090512058, "description": "Audit GitHub Actions run reliability by actor to surface high-risk contributors and flaky automation owners.", "description_zh": "", "downloads": 157, "homepage": "https://clawhub.ai/daniellummis/github-actions-actor-reliability-audit", "iconUrl": null, "installs": 9, "name": "GitHub Actions Actor Reliability Audit", "ownerName": "daniellummis", "score": 98125, "slug": "github-actions-actor-reliability-audit", "source": "clawhub", "stars": 0, "tags": null, "updated_at": 1776749570218, "version": "1.0.0"}, {"category": "developer-tools", "created_at": 1773220892666, "description": "Hasura integration. Manage Users, Organizations. Use when the user wants to interact with Hasura data.", "description_zh": "", "downloads": 157, "homepage": "https://clawhub.ai/membranedev/hasura", "iconUrl": null, "installs": 5, "name": "Hasura", "ownerName": "membranedev", "score": 86740.33149171271, "slug": "hasura", "source": "clawhub", "stars": 0, "tags": null, "updated_at": 1776749570093, "version": "1.0.0"}, {"category": "developer-tools", "created_at": 1773089903571, "description": "Detect duplicate GitHub Actions run bursts by workflow/branch/commit and quantify wasted rerun minutes.", "description_zh": "", "downloads": 157, "homepage": "https://clawhub.ai/daniellummis/github-actions-duplicate-run-audit", "iconUrl": null, "installs": 21, "name": "GitHub Actions Duplicate Run Audit", "ownerName": "daniellummis", "score": 73023.2558139535, "slug": "github-actions-duplicate-run-audit", "source": "clawhub", "stars": 0, "tags": null, "updated_at": 1776749570001, "version": "1.0.0"}, {"category": "developer-tools", "created_at": 1773088826031, "description": "Install and initialise Tribunal — the Claude Code quality enforcement plugin. Use when setting up a new project for AI-assisted development, when a project l...", "description_zh": "", "downloads": 157, "homepage": "https://clawhub.ai/koshaji/tribunal-install", "iconUrl": null, "installs": 7, "name": "Tribunal Install", "ownerName": "koshaji", "score": 73023.2558139535, "slug": "tribunal-install", "source": "clawhub", "stars": 0, "tags": null, "updated_at": 1776749569999, "version": "1.0.0"}, {"category": "data-analysis", "created_at": 1773291076365, "description": "Discover, inspect, and manage solo miners on the same local network, with support for Bitaxe and Nerd or NerdAxe devices. Use when Codex or OpenClaw needs to...", "description_zh": "", "downloads": 157, "homepage": "https://clawhub.ai/pkwangwanjun/bitaxe-skills", "iconUrl": null, "installs": 8, "name": "Bitaxe Skills", "ownerName": "pkwangwanjun", "score": 86740.33149171271, "slug": "bitaxe-skills", "source": "clawhub", "stars": 0, "tags": null, "updated_at": 1776749569940, "version": "1.0.0"}, {"category": "developer-tools", "created_at": 1773218303377, "description": "GoldRush Foundational API — REST API for historical and near-real-time blockchain data across 100+ chains. Use this skill whenever the user needs wallet toke...", "description_zh": "", "downloads": 157, "homepage": "https://clawhub.ai/gane5h/goldrush-foundational-api", "iconUrl": null, "installs": 7, "name": "Goldrush Foundational Api", "ownerName": "gane5h", "score": 86740.33149171271, "slug": "goldrush-foundational-api", "source": "clawhub", "stars": 0, "tags": null, "updated_at": 1776749569906, "version": "3.0.4"}, {"category": "productivity", "created_at": 1773427090085, "description": "Read, capture, search, relate, and assemble context from a user-specified local Markdown knowledge base (Obsidian/Logseq style). Supports controlled write op...", "description_zh": "", "downloads": 157, "homepage": "https://clawhub.ai/harrylabsj/second-brain-ai", "iconUrl": null, "installs": 11, "name": "Second Brain AI", "ownerName": "harrylabsj", "score": 86740.33149171271, "slug": "second-brain-ai", "source": "clawhub", "stars": 0, "tags": null, "updated_at": 1776749569896, "version": "2.3.1"}, {"category": "productivity", "created_at": 1773080404976, "description": "Insightly integration. Manage Organizations, Deals, Projects, Activities, Notes, Files and more. Use when the user wants to interact with Insightly data.", "description_zh": "", "downloads": 157, "homepage": "https://clawhub.ai/membranedev/insightly", "iconUrl": null, "installs": 3, "name": "Insightly", "ownerName": "membranedev", "score": 86263.73626373627, "slug": "insightly", "source": "clawhub", "stars": 0, "tags": null, "updated_at": 1776749569839, "version": "1.0.0"}, {"category": "productivity", "created_at": 1773079843135, "description": "Google Workspace Events: Renew/reactivate Workspace Events subscriptions.", "description_zh": "", "downloads": 157, "homepage": "https://clawhub.ai/googleworkspace-bot/gws-events-renew", "iconUrl": null, "installs": 10, "name": "Gws Events Renew", "ownerName": "googleworkspace-bot", "score": 78894.47236180904, "slug": "gws-events-renew", "source": "clawhub", "stars": 0, "tags": null, "updated_at": 1776749569803, "version": "1.0.0"}, {"category": "security-compliance", "created_at": 1773433475967, "description": "Assess data privacy compliance across 20 control areas with 63 controls covering governance, consent, security, breach response, vendor management, and cross...", "description_zh": "", "downloads": 157, "homepage": "https://clawhub.ai/krishnakumarmahadevan-cmd/data-privacy-checklist", "iconUrl": null, "installs": 7, "name": "Data Privacy Checklist", "ownerName": "krishnakumarmahadevan-cmd", "score": 78894.47236180904, "slug": "data-privacy-checklist", "source": "clawhub", "stars": 0, "tags": null, "updated_at": 1776749569758, "version": "1.0.2"}, {"category": "content-creation", "created_at": 1773220318680, "description": "Generate weekly tech news briefings from 6 major English tech media sources (TechCrunch, The Verge, Wired, Ars Technica, MIT Technology Review, The Informati...", "description_zh": "", "downloads": 157, "homepage": "https://clawhub.ai/yangzhe1991/tech-weekly-briefing", "iconUrl": null, "installs": 13, "name": "Tech Weekly Briefing", "ownerName": "yangzhe1991", "score": 97515.52795031056, "slug": "tech-weekly-briefing", "source": "clawhub", "stars": 0, "tags": ["aggregation", "automation", "news", "robotaxi", "tech"], "updated_at": 1776749569705, "version": "1.0.0"}, {"category": "developer-tools", "created_at": 1773433202725, "description": "Install and operate a local OpenClaw Gateway Monitor stack on macOS with LaunchAgent + watchdog. Use when setting up, repairing, or validating gateway-monito...", "description_zh": "", "downloads": 157, "homepage": "https://clawhub.ai/yes999zc/gateway-monitor-macos", "iconUrl": null, "installs": 9, "name": "Gateway Monitor (macOS)", "ownerName": "yes999zc", "score": 97515.52795031056, "slug": "gateway-monitor-macos", "source": "clawhub", "stars": 0, "tags": null, "updated_at": 1776749569670, "version": "1.1.1"}, {"category": "data-analysis", "created_at": 1773428229305, "description": "Extract sales data from report images using OCR with cnocr, parse JSON via MiniMax API, and convert results to Excel spreadsheets.", "description_zh": "", "downloads": 156, "homepage": "https://clawhub.ai/zhoutianwang/sales-report-parser", "iconUrl": null, "installs": 17, "name": "sales-report-parser", "ownerName": "zhoutianwang", "score": 13622.291021671826, "slug": "sales-report-parser", "source": "clawhub", "stars": 1, "tags": null, "updated_at": 1776759683139, "version": "1.0.1"}, {"category": "communication-collaboration", "created_at": 1773219677880, "description": "A forum where AI bots and humans coexist. Post, reply, react, and argue.", "description_zh": "", "downloads": 156, "homepage": "https://clawhub.ai/treadon/dead-internet", "iconUrl": null, "installs": 6, "name": "Dead Internet Forum", "ownerName": "treadon", "score": 13496.932515337423, "slug": "dead-internet", "source": "clawhub", "stars": 1, "tags": null, "updated_at": 1776759683000, "version": "1.0.0"}, {"category": "developer-tools", "created_at": 1773284819126, "description": "Give your agent the superpower to read the modern web without getting blocked by Cloudflare. Extracts clean JSON, saves 98% of LLM tokens, and executes zero...", "description_zh": "", "downloads": 156, "homepage": "https://clawhub.ai/sirtoby99/swipenode", "iconUrl": null, "installs": 12, "name": "SwipeNode Web Extractor", "ownerName": "sirtoby99", "score": 100000, "slug": "swipenode", "source": "clawhub", "stars": 1, "tags": ["json", "scraping", "security", "tools", "utility", "web"], "updated_at": 1776749570499, "version": "1.6.4"}, {"category": "ai-intelligence", "created_at": 1773287781390, "description": "Register and log in to the Agent Vegas website (an automated competitive simulation lobby). Use this skill whenever you need to register as an AI Agent, chec...", "description_zh": "", "downloads": 156, "homepage": "https://clawhub.ai/romejiang/agent-vegas", "iconUrl": null, "installs": 8, "name": "agent-vegas", "ownerName": "romejiang", "score": 98324.02234636871, "slug": "agent-vegas", "source": "clawhub", "stars": 1, "tags": null, "updated_at": 1776749570380, "version": "1.0.0"}, {"category": "productivity", "created_at": 1773935461359, "description": "100+ expert prompts to turn OpenClaw into an AI coworker across 44 professions. Instantly deploy agents for tech, business, healthcare, legal, media, and more.", "description_zh": "", "downloads": 156, "homepage": "https://clawhub.ai/projectmusk/openclaw-coworker-prompts", "iconUrl": null, "installs": 31, "name": "Openclaw Coworker Prompts", "ownerName": "projectmusk", "score": 98324.02234636871, "slug": "openclaw-coworker-prompts", "source": "clawhub", "stars": 1, "tags": null, "updated_at": 1776749569665, "version": "1.0.1"}, {"category": "developer-tools", "created_at": 1773432078526, "description": "Use when user has/is reading a component datasheet or spec sheet to find chip parameters: pinout, voltage, I2C address, timing, register map, electrical char...", "description_zh": "", "downloads": 156, "homepage": "https://clawhub.ai/baorepo/ee-datasheet-master", "iconUrl": null, "installs": 26, "name": "A professional skill for reading electronic datasheets", "ownerName": "baorepo", "score": 97777.77777777778, "slug": "ee-datasheet-master", "source": "clawhub", "stars": 1, "tags": null, "updated_at": 1776749569571, "version": "1.0.0"}, {"category": "ai-intelligence", "created_at": 1773218666038, "description": "Local business-focused GEO optimization orchestrator for AI-powered local search. Use this skill whenever the user mentions local shops, clinics, restaurants...", "description_zh": "", "downloads": 156, "homepage": "https://clawhub.ai/geolyai/geo-local-optimizer", "iconUrl": null, "installs": 13, "name": "Geo Local Optimizer", "ownerName": "geolyai", "score": 2836.3636363636365, "slug": "geo-local-optimizer", "source": "clawhub", "stars": 0, "tags": null, "updated_at": 1776768549909, "version": "0.1.0"}, {"category": "productivity", "created_at": 1773089597952, "description": "Wise (TransferWise) — international transfers, multi-currency balances, recipients, exchange rates, and statements.", "description_zh": "", "downloads": 156, "homepage": "https://clawhub.ai/aiwithabidi/wise", "iconUrl": null, "installs": 10, "name": "Wise", "ownerName": "aiwithabidi", "score": 2582.353914914749, "slug": "wise", "source": "clawhub", "stars": 0, "tags": null, "updated_at": 1776767649834, "version": "1.0.0"}, {"category": "data-analysis", "created_at": 1773921424374, "description": "Search eBay for current and sold item prices, providing price range, shipping, condition filters, and price history summaries.", "description_zh": "", "downloads": 156, "homepage": "https://clawhub.ai/kl0nlutiy/ebay-price-check", "iconUrl": null, "installs": 29, "name": "Ebay Price Check", "ownerName": "kl0nlutiy", "score": 3011.0017371163867, "slug": "ebay-price-check", "source": "clawhub", "stars": 0, "tags": null, "updated_at": 1776765250410, "version": "1.0.0"}, {"category": "developer-tools", "created_at": 1773089023059, "description": "Sync and manage Overleaf LaTeX projects from the command line. Pull projects locally, push changes back, compile PDFs, and download compile outputs like .bbl...", "description_zh": "", "downloads": 156, "homepage": "https://clawhub.ai/aloth/olcli", "iconUrl": null, "installs": 8, "name": "Overleaf CLI (olcli)", "ownerName": "aloth", "score": 7262.569832402235, "slug": "olcli", "source": "clawhub", "stars": 0, "tags": null, "updated_at": 1776764350281, "version": "1.0.0"}, {"category": "developer-tools", "created_at": 1773431123558, "description": "Analyzes SQL queries and EXPLAIN outputs to identify performance issues, explain causes, and provide specific optimization suggestions with examples across m...", "description_zh": "", "downloads": 156, "homepage": "https://clawhub.ai/nerikko/sql-profiler", "iconUrl": null, "installs": 15, "name": "SQL Profiler", "ownerName": "nerikko", "score": 7496.395963479096, "slug": "sql-profiler", "source": "clawhub", "stars": 0, "tags": null, "updated_at": 1776763750667, "version": "1.0.0"}, {"category": "data-analysis", "created_at": 1773081430583, "description": "Polymarket prediction markets: analytics, trading, hot markets, price movements, top traders, and market search. Powered by prob.trade.", "description_zh": "", "downloads": 156, "homepage": "https://clawhub.ai/vlprosvirkin/probtrade", "iconUrl": null, "installs": 0, "name": "Openclaw Skill", "ownerName": "vlprosvirkin", "score": 3081.785855393125, "slug": "probtrade", "source": "clawhub", "stars": 0, "tags": null, "updated_at": 1776763450812, "version": "2.0.5"}, {"category": "data-analysis", "created_at": 1773081370481, "description": "Calculates classification and regression metrics like accuracy, F1-score, RMSE, and provides confusion matrix to evaluate ML model performance.", "description_zh": "", "downloads": 156, "homepage": "https://clawhub.ai/mosonchan2023/ml-metrics-analyser", "iconUrl": null, "installs": 9, "name": "Ml Metrics Analyser", "ownerName": "mosonchan2023", "score": 5074.821080026025, "slug": "ml-metrics-analyser", "source": "clawhub", "stars": 0, "tags": null, "updated_at": 1776761840122, "version": "1.0.0"}, {"category": "data-analysis", "created_at": 1773080435395, "description": "Compare multiple Polymarket prediction markets side-by-side to analyze correlations and yes/no price spreads with integrated micropayments.", "description_zh": "", "downloads": 156, "homepage": "https://clawhub.ai/mosonchan2023/polymarket-market-comparison", "iconUrl": null, "installs": 16, "name": "Polymarket Market Comparison", "ownerName": "mosonchan2023", "score": 26850.258175559382, "slug": "polymarket-market-comparison", "source": "clawhub", "stars": 0, "tags": null, "updated_at": 1776759683600, "version": "1.0.1"}, {"category": "content-creation", "created_at": 1773430668869, "description": "Automates researching, scripting, and producing 30 SEO-optimized faceless YouTube videos monthly with AI voiceover and visuals, ready for upload and monetiza...", "description_zh": "", "downloads": 156, "homepage": "https://clawhub.ai/g4dr/ai-faceless-youtube-empire-builder", "iconUrl": null, "installs": 22, "name": "AI Faceless YouTube Empire Builder — Research, Script & Produce 30 Videos/Month Without Showing Your Face", "ownerName": "g4dr", "score": 11963.190184049081, "slug": "ai-faceless-youtube-empire-builder", "source": "clawhub", "stars": 0, "tags": ["adsense", "apify", "automation", "content-creation", "faceless-channel", "invideo", "monetization", "passive-income", "seo", "shorts", "video-scripts", "youtube"], "updated_at": 1776759683557, "version": "1.0.0"}, {"category": "developer-tools", "created_at": 1773084436875, "description": "Provides upcoming event dates, market resolution times, and countdowns for Polymarket markets with pay-per-call pricing.", "description_zh": "", "downloads": 156, "homepage": "https://clawhub.ai/mosonchan2023/polymarket-calendar", "iconUrl": null, "installs": 21, "name": "Polymarket Calendar", "ownerName": "mosonchan2023", "score": 11954.022988505747, "slug": "polymarket-calendar", "source": "clawhub", "stars": 0, "tags": null, "updated_at": 1776759683339, "version": "1.0.1"}, {"category": "productivity", "created_at": 1773289307503, "description": "Performs specific tasks like research, writing, coding, or analysis with concrete, fast execution while staying strictly within assigned scope.", "description_zh": "", "downloads": 156, "homepage": "https://clawhub.ai/kiril-shturman/worker-executor", "iconUrl": null, "installs": 6, "name": "Worker Executor", "ownerName": "kiril-shturman", "score": 11487.481590574374, "slug": "worker-executor", "source": "clawhub", "stars": 0, "tags": null, "updated_at": 1776759682986, "version": "1.0.0"}, {"category": "security-compliance", "created_at": 1773220191860, "description": "Integrates with ClawDiary to guard high-risk actions with human approval, audit completed actions, and sync shared diaries across devices.", "description_zh": "", "downloads": 156, "homepage": "https://clawhub.ai/jetywolf/clawdiary", "iconUrl": null, "installs": 3, "name": "Claw-Diary", "ownerName": "jetywolf", "score": 11963.190184049081, "slug": "clawdiary", "source": "clawhub", "stars": 0, "tags": null, "updated_at": 1776759682813, "version": "1.1.9"}, {"category": "data-analysis", "created_at": 1773429650938, "description": "Monitors Twitter daily at 16:00 to find and filter new AI Agent, Crypto, and DeFi projects matching specific keywords, outputting raw and curated data.", "description_zh": "", "downloads": 156, "homepage": "https://clawhub.ai/torchesfrms/agentfarm-finder", "iconUrl": null, "installs": 7, "name": "search for project of agent", "ownerName": "torchesfrms", "score": 11981.566820276497, "slug": "agentfarm-finder", "source": "clawhub", "stars": 0, "tags": null, "updated_at": 1776759682645, "version": "1.0.0"}, {"category": "content-creation", "created_at": 1773222384680, "description": "Manage and automate multiple WordPress sites via Massblogger MCP server with AI content generation, editing, publishing, and bulk operations, no local instal...", "description_zh": "", "downloads": 156, "homepage": "https://clawhub.ai/klitmose/massblogger", "iconUrl": null, "installs": 10, "name": "massbloger", "ownerName": "klitmose", "score": 84782.60869565218, "slug": "massblogger", "source": "clawhub", "stars": 0, "tags": null, "updated_at": 1776759682528, "version": "1.0.0"}, {"category": "content-creation", "created_at": 1773218585795, "description": "Improve a skill's public listing before publish. Use when tightening title, description, tags, changelog, and scan-friendly packaging so the listing looks cl...", "description_zh": "", "downloads": 156, "homepage": "https://clawhub.ai/kyoiii/skill-listing-polisher", "iconUrl": null, "installs": 12, "name": "Skill Listing Polisher", "ownerName": "kyoiii", "score": 29104.4776119403, "slug": "skill-listing-polisher", "source": "clawhub", "stars": 0, "tags": ["clawhub", "publishing", "skills"], "updated_at": 1776754388816, "version": "0.1.0"}, {"category": "developer-tools", "created_at": 1773091415559, "description": "Build and deploy production OpenClaw Telegram bots. Covers MEDIA protocol, allowed directories, agent behavior, Docker deployment, security (2-layer defense)...", "description_zh": "", "downloads": 156, "homepage": "https://clawhub.ai/phy041/phy-openclaw-telegram-bot", "iconUrl": null, "installs": 12, "name": "OpenClaw Telegram Bot", "ownerName": "phy041", "score": 27659.574468085106, "slug": "phy-openclaw-telegram-bot", "source": "clawhub", "stars": 0, "tags": ["bot", "telegram"], "updated_at": 1776752144428, "version": "1.0.0"}, {"category": "security-compliance", "created_at": 1773081372319, "description": "Monthly LLM stack audit — compare your current models against latest benchmarks and pricing from OpenRouter. Identifies potential savings, upgrades, and bett...", "description_zh": "", "downloads": 156, "homepage": "https://clawhub.ai/aiwithabidi/model-audit", "iconUrl": null, "installs": 4, "name": "Model Audit", "ownerName": "aiwithabidi", "score": 96296.29629629629, "slug": "model-audit", "source": "clawhub", "stars": 0, "tags": null, "updated_at": 1776749571055, "version": "1.0.0"}, {"category": "ai-intelligence", "created_at": 1773089907321, "description": "This skill should be used when the user asks to 'run alignment check', 'check my agent alignment', 'get a safety reminder', 'guardian angel check', or when a...", "description_zh": "", "downloads": 156, "homepage": "https://clawhub.ai/commonlightlabsllc/guardian-angel-protocol", "iconUrl": null, "installs": 6, "name": "Guardian Angel Protocol", "ownerName": "commonlightlabsllc", "score": 67532.46753246753, "slug": "guardian-angel-protocol", "source": "clawhub", "stars": 0, "tags": null, "updated_at": 1776749571010, "version": "1.0.2"}, {"category": "productivity", "created_at": 1773222013711, "description": "Create and manage reusable filter rules for email, news, search results, and structured task streams. Designed to reduce noise and preserve signal in OpenCla...", "description_zh": "", "downloads": 156, "homepage": "https://clawhub.ai/projectsnowwork/filter", "iconUrl": null, "installs": 6, "name": "Filter", "ownerName": "projectsnowwork", "score": 85714.28571428571, "slug": "filter", "source": "clawhub", "stars": 0, "tags": null, "updated_at": 1776749570959, "version": "1.1.0"}, {"category": "security-compliance", "created_at": 1773202690562, "description": "Exa API integration with managed API key authentication. Perform neural web search, retrieve page contents, find similar pages, get AI-generated answers, and...", "description_zh": "", "downloads": 156, "homepage": "https://clawhub.ai/byungkyu/exa-api", "iconUrl": null, "installs": 2, "name": "Exa", "ownerName": "byungkyu", "score": 85714.28571428571, "slug": "exa-api", "source": "clawhub", "stars": 0, "tags": null, "updated_at": 1776749570925, "version": "1.0.0"}, {"category": "content-creation", "created_at": 1773089514495, "description": "Manage newsletters with AI-generated content. Create, schedule, and send newsletters automatically. Supports multiple platforms (Substack, Beehiiv, ConvertKi...", "description_zh": "", "downloads": 156, "homepage": "https://clawhub.ai/neckr0ik/neckr0ik-newsletter-manager", "iconUrl": null, "installs": 8, "name": "Neckr0ik Newsletter Manager", "ownerName": "neckr0ik", "score": 85714.28571428571, "slug": "neckr0ik-newsletter-manager", "source": "clawhub", "stars": 0, "tags": null, "updated_at": 1776749570916, "version": "1.0.0"}, {"category": "productivity", "created_at": 1773287310072, "description": "Atlassian Jira expert for creating and managing projects, planning, product discovery, JQL queries, workflows, custom fields, automation, reporting, and all...", "description_zh": "", "downloads": 156, "homepage": "https://clawhub.ai/alirezarezvani/jira-expert", "iconUrl": null, "installs": 13, "name": "jira-expert", "ownerName": "alirezarezvani", "score": 86666.66666666667, "slug": "jira-expert", "source": "clawhub", "stars": 0, "tags": null, "updated_at": 1776749570878, "version": "1.0.0"}, {"category": "productivity", "created_at": 1773221642118, "description": "AI Running Coach — personalized training via IM with automatic Strava-driven plan adjustments. Use when the user asks about running training, workout plans,...", "description_zh": "", "downloads": 156, "homepage": "https://clawhub.ai/aplomb2/ai-running-coach", "iconUrl": null, "installs": 11, "name": "AI Running Coach", "ownerName": "aplomb2", "score": 86666.66666666667, "slug": "ai-running-coach", "source": "clawhub", "stars": 0, "tags": null, "updated_at": 1776749570877, "version": "1.0.1"}]}