{"page": 342, "total_pages": 522, "total": 26073, "skills": [{"category": "developer-tools", "created_at": 1773091702449, "description": "Diagnose and triage cron job failures. Checks job states, identifies error patterns, prioritizes by criticality, generates health reports. Triggers on: cron...", "description_zh": "", "downloads": 156, "homepage": "https://clawhub.ai/geq1fan/cron-doctor-clawra", "iconUrl": null, "installs": 18, "name": "Cron Doctor by Clawra", "ownerName": "geq1fan", "score": 87150.83798882681, "slug": "cron-doctor-clawra", "source": "clawhub", "stars": 0, "tags": null, "updated_at": 1776749570774, "version": "1.0.0"}, {"category": "developer-tools", "created_at": 1773089749330, "description": "Use when the user mentions Otter, Otter.ai, or wants to find, search, download, export, or manage meeting notes, transcripts, recordings, or audio from calls...", "description_zh": "", "downloads": 156, "homepage": "https://clawhub.ai/erickhchan/otterai-cli", "iconUrl": null, "installs": 7, "name": "Otterai Cli", "ownerName": "erickhchan", "score": 87150.83798882681, "slug": "otterai-cli", "source": "clawhub", "stars": 0, "tags": null, "updated_at": 1776749570590, "version": "1.1.0"}, {"category": "data-analysis", "created_at": 1773285825218, "description": "Crypto signal pipeline: Binance 4-timeframe data (3m/15m/30m/1h) + CryptoPanic + NewsAPI → weighted BUY/SELL/HOLD signal + extreme-event veto → verify in 30m...", "description_zh": "", "downloads": 156, "homepage": "https://clawhub.ai/k2-l/my-crypto-signal-skill", "iconUrl": null, "installs": 6, "name": "my-crypto-signal-skill", "ownerName": "k2-l", "score": 88636.36363636363, "slug": "my-crypto-signal-skill", "source": "clawhub", "stars": 0, "tags": null, "updated_at": 1776749570518, "version": "1.0.3"}, {"category": "developer-tools", "created_at": 1773090503510, "description": "Use Etherscan MCP through UXC for address balance checks, token holder analysis, transaction inspection, and contract lookup tasks. Use when tasks need Ether...", "description_zh": "", "downloads": 156, "homepage": "https://clawhub.ai/jolestar/etherscan-mcp-skill", "iconUrl": null, "installs": 11, "name": "Etherscan Mcp Skill", "ownerName": "jolestar", "score": 77611.94029850747, "slug": "etherscan-mcp-skill", "source": "clawhub", "stars": 0, "tags": null, "updated_at": 1776749570460, "version": "1.0.0"}, {"category": "ai-intelligence", "created_at": 1773871332524, "description": "Room 418 — The Headless Liar's Protocol. AI Agent interrogation battle game on standalone VPS. Compete against other agents in social engineering duels: extr...", "description_zh": "", "downloads": 156, "homepage": "https://clawhub.ai/kobeee/room-418", "iconUrl": null, "installs": 24, "name": "Room 418", "ownerName": "kobeee", "score": 87150.83798882681, "slug": "room-418", "source": "clawhub", "stars": 0, "tags": null, "updated_at": 1776749570378, "version": "1.4.0"}, {"category": "developer-tools", "created_at": 1773083180311, "description": "Connect to and search the web using SearXNG (privacy-focused meta search engine). No API keys needed - all searches go through your self-hosted SearXNG insta...", "description_zh": "", "downloads": 156, "homepage": "https://clawhub.ai/rdeangel/searxng-connect", "iconUrl": null, "installs": 5, "name": "SearXNG Connect", "ownerName": "rdeangel", "score": 87150.83798882681, "slug": "searxng-connect", "source": "clawhub", "stars": 0, "tags": null, "updated_at": 1776749570376, "version": "1.0.0"}, {"category": "developer-tools", "created_at": 1773090560527, "description": "Customize the visual appearance of your Orderly DEX with CSS variables, colors, fonts, logos, and TradingView chart styling.", "description_zh": "", "downloads": 156, "homepage": "https://clawhub.ai/tarnadas/orderly-sdk-theming", "iconUrl": null, "installs": 9, "name": "Orderly Sdk Theming", "ownerName": "tarnadas", "score": 97500, "slug": "orderly-sdk-theming", "source": "clawhub", "stars": 0, "tags": null, "updated_at": 1776749570192, "version": "1.0.0"}, {"category": "security-compliance", "created_at": 1773088739757, "description": "Audit pull-request and merge-queue GitHub Actions reliability by scoring failure rate, queue latency, and stale-success risk for merge gates.", "description_zh": "", "downloads": 156, "homepage": "https://clawhub.ai/daniellummis/github-actions-pr-gate-health-audit", "iconUrl": null, "installs": 11, "name": "GitHub Actions PR Gate Health Audit", "ownerName": "daniellummis", "score": 97500, "slug": "github-actions-pr-gate-health-audit", "source": "clawhub", "stars": 0, "tags": null, "updated_at": 1776749570184, "version": "1.0.0"}, {"category": "productivity", "created_at": 1773082014369, "description": "Teamwork integration. Manage Organizations, Users. Use when the user wants to interact with Teamwork data.", "description_zh": "", "downloads": 156, "homepage": "https://clawhub.ai/membranedev/teamwork-integration", "iconUrl": null, "installs": 6, "name": "Teamwork", "ownerName": "membranedev", "score": 97500, "slug": "teamwork-integration", "source": "clawhub", "stars": 0, "tags": null, "updated_at": 1776749570167, "version": "1.0.0"}, {"category": "developer-tools", "created_at": 1773861198744, "description": "This is my personal template collection. Here you'll find templates, and configurations for various boilerplates, python, ansible, docker, docker-compose.", "description_zh": "", "downloads": 156, "homepage": "https://clawhub.ai/bytesagain1/boilerplates", "iconUrl": null, "installs": 7, "name": "Boilerplates", "ownerName": "bytesagain1", "score": 86187.8453038674, "slug": "boilerplates", "source": "clawhub", "stars": 0, "tags": null, "updated_at": 1776749570071, "version": "2.0.0"}, {"category": "ai-intelligence", "created_at": 1773425438185, "description": "Guided creation of multiple OpenClaw agents and their workspace templates. Use when users ask to create agents in batch, configure new agents, or customize A...", "description_zh": "", "downloads": 156, "homepage": "https://clawhub.ai/zcxggmu/create-agents-wizard", "iconUrl": null, "installs": 13, "name": "create-agents-wizard", "ownerName": "zcxggmu", "score": 86187.8453038674, "slug": "create-agents-wizard", "source": "clawhub", "stars": 0, "tags": null, "updated_at": 1776749570048, "version": "1.0.1"}, {"category": "ai-intelligence", "created_at": 1773084521576, "description": "Recognize songs by singing or audio file using iFlytek's Query By ACRCloud technology.", "description_zh": "", "downloads": 156, "homepage": "https://clawhub.ai/dzy-1026/xfyun-song-rec", "iconUrl": null, "installs": 10, "name": "iFLYTEK Song Recognition", "ownerName": "dzy-1026", "score": 72558.13953488372, "slug": "xfyun-song-rec", "source": "clawhub", "stars": 0, "tags": null, "updated_at": 1776749570035, "version": "1.0.0"}, {"category": "developer-tools", "created_at": 1773089963633, "description": "Handle token deposits and withdrawals across chains, including allowance approval, vault interactions, and cross-chain operations", "description_zh": "", "downloads": 156, "homepage": "https://clawhub.ai/tarnadas/orderly-deposit-withdraw", "iconUrl": null, "installs": 11, "name": "Orderly Deposit Withdraw", "ownerName": "tarnadas", "score": 72558.13953488372, "slug": "orderly-deposit-withdraw", "source": "clawhub", "stars": 0, "tags": null, "updated_at": 1776749570031, "version": "1.0.0"}, {"category": "content-creation", "created_at": 1773222483742, "description": "Designs product review collection and social proof strategy for DTC stores selling high-ticket electronics (e.g. smart projectors, professional drones). Use...", "description_zh": "", "downloads": 156, "homepage": "https://clawhub.ai/rijoyai/high-ticket-reviews", "iconUrl": null, "installs": 8, "name": "High Ticket Reviews", "ownerName": "rijoyai", "score": 86187.8453038674, "slug": "high-ticket-reviews", "source": "clawhub", "stars": 0, "tags": null, "updated_at": 1776749569961, "version": "0.1.1"}, {"category": "ai-intelligence", "created_at": 1773220816844, "description": "Adopt a virtual pet as an AI agent. Name it, feed it, watch it grow. 32 species from cats and dogs to AI-native creatures. Real-time hunger, 5 evolution stag...", "description_zh": "", "downloads": 156, "homepage": "https://clawhub.ai/twinsgeeks/adopt-a-pet", "iconUrl": null, "installs": 19, "name": "Adopt a Pet — Virtual Creatures for AI Agents with Real-Time Care & Pixel Art", "ownerName": "twinsgeeks", "score": 86187.8453038674, "slug": "adopt-a-pet", "source": "clawhub", "stars": 0, "tags": ["adopt", "ai-agents", "animals", "care", "creatures", "digital-pet", "evolution", "feeding", "graveyard", "hunger", "no-crypto", "nurture", "permanent-death", "pet-care", "pixel-art", "portraits", "soul-prompt", "species", "tamagotchi", "virtual-pet"], "updated_at": 1776749569948, "version": "1.1.0"}, {"category": "communication-collaboration", "created_at": 1773091811948, "description": "Give this agent a real phone number. Receive calls from the user, call user back when tasks complete, run scheduled calls, or call third parties on the user'...", "description_zh": "", "downloads": 156, "homepage": "https://clawhub.ai/clawcall/clawcall-phone", "iconUrl": null, "installs": 7, "name": "clawcall-phone", "ownerName": "clawcall", "score": 85714.28571428571, "slug": "clawcall-phone", "source": "clawhub", "stars": 0, "tags": ["calling", "openclaw", "phone", "twilio", "voice"], "updated_at": 1776749569862, "version": "1.1.0"}, {"category": "developer-tools", "created_at": 1773221001883, "description": "Delegate various coding tasks to Claude Code. Use this skill when you need assistance with code generation, bug fixing, feature implementation, code review,...", "description_zh": "", "downloads": 156, "homepage": "https://clawhub.ai/numbpill3d/claude-delegate", "iconUrl": null, "installs": 8, "name": "Claude Delegate", "ownerName": "numbpill3d", "score": 85714.28571428571, "slug": "claude-delegate", "source": "clawhub", "stars": 0, "tags": ["ai", "claude", "cli", "coding", "delegation", "open", "stable", "tool"], "updated_at": 1776749569817, "version": "1.0.0"}, {"category": "developer-tools", "created_at": 1773871072428, "description": "A simple, fast and user-friendly alternative to 'find' Based on sharkdp/fd (42,080+ GitHub stars). file finder, rust, cli, command-line, filesystem, hacktobe...", "description_zh": "", "downloads": 156, "homepage": "https://clawhub.ai/root/file-finder", "iconUrl": null, "installs": 11, "name": "File Finder", "ownerName": "root", "score": 96894.40993788821, "slug": "file-finder", "source": "clawhub", "stars": 0, "tags": null, "updated_at": 1776749569729, "version": "1.0.0"}, {"category": "productivity", "created_at": 1773081846236, "description": "Greenhouse Harvest integration. Manage Persons, Organizations, Deals, Leads, Projects, Activities and more. Use when the user wants to interact with Greenhou...", "description_zh": "", "downloads": 156, "homepage": "https://clawhub.ai/membranedev/greenhouse-harvest", "iconUrl": null, "installs": 5, "name": "Greenhouse Harvest", "ownerName": "membranedev", "score": 87150.83798882681, "slug": "greenhouse-harvest", "source": "clawhub", "stars": 0, "tags": null, "updated_at": 1776749569662, "version": "1.0.0"}, {"category": "ai-intelligence", "created_at": 1773918852639, "description": "Switch AI models on-the-fly between local LM Studio and cloud Kimi API in OpenClaw with simple commands and automatic gateway restart.", "description_zh": "", "downloads": 155, "homepage": "https://clawhub.ai/endihunn/lmstudio-model-switch", "iconUrl": null, "installs": 23, "name": "Lmstudio Model Switch", "ownerName": "endihunn", "score": 3517.5879396984924, "slug": "lmstudio-model-switch", "source": "clawhub", "stars": 1, "tags": null, "updated_at": 1776766871103, "version": "0.1.0"}, {"category": "content-creation", "created_at": 1773869621795, "description": "Plume AI image generation and editing service. Auto-triggers when users send images or describe image needs. Supports: text-to-image, image-to-image, backgro...", "description_zh": "", "downloads": 155, "homepage": "https://clawhub.ai/dake6767/plume-image", "iconUrl": null, "installs": 22, "name": "PlumeImage", "ownerName": "dake6767", "score": 10269.953051643191, "slug": "plume-image", "source": "clawhub", "stars": 1, "tags": null, "updated_at": 1776755888577, "version": "1.1.2"}, {"category": "data-analysis", "created_at": 1773885593021, "description": "Scan multi-outcome Polymarket markets for mathematical arbitrage. When the sum of all outcome prices falls below $1.00, buy all sides simultaneously via batc...", "description_zh": "", "downloads": 155, "homepage": "https://clawhub.ai/r2crypto/polymarket-negrisk-arb", "iconUrl": null, "installs": 33, "name": "Polymarket NegRisk Arbitrage", "ownerName": "r2crypto", "score": 1275.4052497325763, "slug": "polymarket-negrisk-arb", "source": "clawhub", "stars": 0, "tags": null, "updated_at": 1776770349781, "version": "1.0.2"}, {"category": "data-analysis", "created_at": 1773432800137, "description": "LLM-driven crypto perpetual futures trading on Bybit. Analyzes 200+ market features across 8 timeframes with strategy-aware output, then you decide whether t...", "description_zh": "", "downloads": 155, "homepage": "https://clawhub.ai/natanhoffmann/quant-claw", "iconUrl": null, "installs": 5, "name": "QuantClaw", "ownerName": "natanhoffmann", "score": 3196.5353681171378, "slug": "quant-claw", "source": "clawhub", "stars": 0, "tags": null, "updated_at": 1776770050048, "version": "1.0.6"}, {"category": "content-creation", "created_at": 1773088621006, "description": "Trigger this skill for ANY of these situations — writing OR conversation: WRITING: blog posts, articles, social media captions, LinkedIn, Twitter/X threads,...", "description_zh": "", "downloads": 155, "homepage": "https://clawhub.ai/adelpro/purple-cow-content", "iconUrl": null, "installs": 8, "name": "Purple Cow Content", "ownerName": "adelpro", "score": 6277.845281490482, "slug": "purple-cow-content", "source": "clawhub", "stars": 0, "tags": null, "updated_at": 1776767349753, "version": "1.0.0"}, {"category": "", "created_at": 1774919165807, "description": "Create, inspect, and edit Microsoft Excel workbooks and XLSX files with reliable formulas, dates, types, formatting, recalculation, and template preservation...", "description_zh": "", "downloads": 155, "homepage": "https://clawhub.ai/linbo405/xiaomolong-excel-tool", "iconUrl": null, "installs": 64, "name": "Excel Tool by Xiaomolong", "ownerName": "linbo405", "score": 6565.0148242270225, "slug": "xiaomolong-excel-tool", "source": "clawhub", "stars": 0, "tags": ["data", "excel", "office", "spreadsheet"], "updated_at": 1776763750818, "version": "1.0.0"}, {"category": "content-creation", "created_at": 1773218393107, "description": "Turn any URL into structured content — YouTube videos (via Gemini Video API), web articles, PDFs, and audio files. Extract transcripts, summaries, and metada...", "description_zh": "", "downloads": 155, "homepage": "https://clawhub.ai/nttylock/citedy-content-ingestion", "iconUrl": null, "installs": 8, "name": "Clawhub Skill Content Ingestion", "ownerName": "nttylock", "score": 6172.839506172839, "slug": "citedy-content-ingestion", "source": "clawhub", "stars": 0, "tags": null, "updated_at": 1776762440035, "version": "1.0.0"}, {"category": "developer-tools", "created_at": 1773081750052, "description": "Estimates token count and API cost for a given text using Claude's tokenizer approximation, with chunking advice for context limits.", "description_zh": "", "downloads": 155, "homepage": "https://clawhub.ai/mosonchan2023/claude-token-counter", "iconUrl": null, "installs": 8, "name": "Claude Token Counter", "ownerName": "mosonchan2023", "score": 10333.333333333334, "slug": "claude-token-counter", "source": "clawhub", "stars": 0, "tags": null, "updated_at": 1776759683529, "version": "1.0.0"}, {"category": "data-analysis", "created_at": 1773939796850, "description": "Scrapes TikTok Shop trends to find early viral products, reverse-engineers winning ad scripts, sources suppliers, calculates margins, and creates ready-to-po...", "description_zh": "", "downloads": 155, "homepage": "https://clawhub.ai/g4dr/ai-tiktok-shop-spy", "iconUrl": null, "installs": 35, "name": "AI TikTok Shop Spy — Find Viral Products & Steal Winning Ad Strategies Before They Peak", "ownerName": "g4dr", "score": 11859.219586840092, "slug": "ai-tiktok-shop-spy", "source": "clawhub", "stars": 0, "tags": ["apify", "dropshipping", "ecommerce", "invideo", "product-research", "tiktok", "tiktok-ads", "tiktok-shop", "trending", "ugc", "viral-products", "winning-products"], "updated_at": 1776759683192, "version": "1.0.0"}, {"category": "ai-intelligence", "created_at": 1773287229566, "description": "Easy-to-use agentic wallets powered by Stripe. Use your existing Stripe/Link to top-up this versatile x402 wallet for any purchases or A2A payments.", "description_zh": "", "downloads": 155, "homepage": "https://clawhub.ai/jononovo/adidas", "iconUrl": null, "installs": 7, "name": "Shop from Adidas - Online with CreditCard", "ownerName": "jononovo", "score": 84239.13043478261, "slug": "adidas", "source": "clawhub", "stars": 0, "tags": ["adidas", "shop"], "updated_at": 1776759682704, "version": "1.0.2"}, {"category": "developer-tools", "created_at": 1773219082536, "description": "Responds with a greeting message to verify the skill system is working properly.", "description_zh": "", "downloads": 155, "homepage": "https://clawhub.ai/mazvaris/hello-test", "iconUrl": null, "installs": 4, "name": "Hello Test", "ownerName": "mazvaris", "score": 11877.394636015326, "slug": "hello-test", "source": "clawhub", "stars": 0, "tags": null, "updated_at": 1776759682579, "version": "1.0.0"}, {"category": "data-analysis", "created_at": 1773083885857, "description": "Identify correlated Polymarket markets, quantify their relationships, and discover arbitrage and hedging opportunities.", "description_zh": "", "downloads": 155, "homepage": "https://clawhub.ai/mosonchan2023/polymarket-correlation-finder", "iconUrl": null, "installs": 17, "name": "Polymarket Correlation Finder", "ownerName": "mosonchan2023", "score": 11868.300153139357, "slug": "polymarket-correlation-finder", "source": "clawhub", "stars": 0, "tags": null, "updated_at": 1776759682496, "version": "1.0.2"}, {"category": "communication-collaboration", "created_at": 1773090799211, "description": "Enables DID registration, cryptographic signing, verification, Relay connection, and end-to-end encryption for secure AI agent communication.", "description_zh": "", "downloads": 155, "homepage": "https://clawhub.ai/404-unknow/agent-comm-skill", "iconUrl": null, "installs": 2, "name": "Agent Comm Skill", "ownerName": "404-unknow", "score": 11868.300153139357, "slug": "agent-comm-skill", "source": "clawhub", "stars": 0, "tags": null, "updated_at": 1776759682430, "version": "0.1.0"}, {"category": "data-analysis", "created_at": 1773918736968, "description": "Menganalisis peluang BUY intraday XAUUSD di H1 dengan konfirmasi multi-indikator dan manajemen risiko ketat untuk sinyal akurat dan probabilitas tinggi.", "description_zh": "", "downloads": 155, "homepage": "https://clawhub.ai/bagass98/xauusd-analyzer", "iconUrl": null, "installs": 22, "name": "trading skill", "ownerName": "bagass98", "score": 6047.600468201326, "slug": "xauusd-analyzer", "source": "clawhub", "stars": 0, "tags": null, "updated_at": 1776759682362, "version": "1.0.0"}, {"category": "productivity", "created_at": 1773427229450, "description": "Search Booking.com for real-time hotel availability, prices, and room details", "description_zh": "", "downloads": 155, "homepage": "https://clawhub.ai/mtnrabi/booking-hotel-search", "iconUrl": null, "installs": 12, "name": "Booking Real Time Hotel Search", "ownerName": "mtnrabi", "score": 11524.163568773234, "slug": "booking-hotel-search", "source": "clawhub", "stars": 0, "tags": null, "updated_at": 1776759197871, "version": "1.0.0"}, {"category": "developer-tools", "created_at": 1773915313845, "description": "Reliable SAP Business Accelerator Hub API spec downloader for OpenClaw. Uses SAP_HUB_USERNAME and SAP_HUB_PASSWORD to log in through Playwright Chromium, dow...", "description_zh": "", "downloads": 155, "homepage": "https://clawhub.ai/shenruiyang/sap-bah-openapi-backend-openclaw", "iconUrl": null, "installs": 29, "name": "FIND SAP API", "ownerName": "shenruiyang", "score": 9474.327628361858, "slug": "sap-bah-openapi-backend-openclaw", "source": "clawhub", "stars": 0, "tags": null, "updated_at": 1776756527298, "version": "1.0.2"}, {"category": "ai-intelligence", "created_at": 1773429378721, "description": "Bridge Twilio phone calls to Google Gemini Live API for real-time AI voice conversations. No STT/TTS middleware required. Includes VAD and echo suppression.", "description_zh": "", "downloads": 155, "homepage": "https://clawhub.ai/quantdeveloperusa/gemini-live-phone", "iconUrl": null, "installs": 20, "name": "Gemini Live Phone", "ownerName": "quantdeveloperusa", "score": 9171.597633136094, "slug": "gemini-live-phone", "source": "clawhub", "stars": 0, "tags": null, "updated_at": 1776756188909, "version": "1.0.1"}, {"category": "", "created_at": 1774875012829, "description": "Headless browser automation CLI optimized for AI agents with accessibility tree snapshots and ref-based element selection", "description_zh": "", "downloads": 155, "homepage": "https://clawhub.ai/chenjinsong/agent-browser-clawdbot-bak", "iconUrl": null, "installs": 68, "name": "Agent Browser Clawdbot Bak", "ownerName": "chenjinsong", "score": 26586.62092624357, "slug": "agent-browser-clawdbot-bak", "source": "clawhub", "stars": 0, "tags": null, "updated_at": 1776754688168, "version": "1.0.0"}, {"category": "developer-tools", "created_at": 1773084725060, "description": "Best practices for using Claude Code with large, multi-part codebases", "description_zh": "", "downloads": 155, "homepage": "https://clawhub.ai/phy041/phy-large-codebase-workflow", "iconUrl": null, "installs": 7, "name": "Large Codebase Workflow", "ownerName": "phy041", "score": 26909.722222222223, "slug": "phy-large-codebase-workflow", "source": "clawhub", "stars": 0, "tags": ["best-practices", "codebase", "productivity", "workflow"], "updated_at": 1776752084025, "version": "1.0.0"}, {"category": "data-analysis", "created_at": 1773284279052, "description": "Install and set up the OpenClaw Skill Usage plugin. Use when users say: - \"install skill usage\" - \"setup skill usage\" - \"add skill usage analytics\" - \"instal...", "description_zh": "", "downloads": 155, "homepage": "https://clawhub.ai/lucifinil/skill-usage", "iconUrl": null, "installs": 10, "name": "skill-usage", "ownerName": "lucifinil", "score": 34909.90990990991, "slug": "skill-usage", "source": "clawhub", "stars": 0, "tags": null, "updated_at": 1776751871972, "version": "1.0.3"}, {"category": "security-compliance", "created_at": 1773084171212, "description": "Dual-layer AI content guardrail with red-team test methodology", "description_zh": "", "downloads": 155, "homepage": "https://clawhub.ai/phy041/phy-content-safety-guard", "iconUrl": null, "installs": 7, "name": "Content Safety Guard", "ownerName": "phy041", "score": 34909.90990990991, "slug": "phy-content-safety-guard", "source": "clawhub", "stars": 0, "tags": ["content-moderation", "guardrail", "safety", "security"], "updated_at": 1776751871937, "version": "1.0.0"}, {"category": "data-analysis", "created_at": 1773291026442, "description": "Advanced cheminformatics agent for 3D molecular analysis, pharmacophore mapping, format conversion, RECAP fragmentation, and stereoisomer enumeration. The \"s...", "description_zh": "", "downloads": 155, "homepage": "https://clawhub.ai/cheminem/pharmaclaw-cheminformatics", "iconUrl": null, "installs": 25, "name": "Pharmaclaw Cheminformatics", "ownerName": "cheminem", "score": 27240.773286467484, "slug": "pharmaclaw-cheminformatics", "source": "clawhub", "stars": 0, "tags": null, "updated_at": 1776751069726, "version": "1.0.0"}, {"category": "developer-tools", "created_at": 1773090788953, "description": "Zephyr Scale integration. Manage Requirements, Projects, Users, Roles. Use when the user wants to interact with Zephyr Scale data.", "description_zh": "", "downloads": 155, "homepage": "https://clawhub.ai/gora050/zephyr-scale", "iconUrl": null, "installs": 7, "name": "Zephyr Scale", "ownerName": "gora050", "score": 86592.17877094973, "slug": "zephyr-scale", "source": "clawhub", "stars": 0, "tags": null, "updated_at": 1776749571113, "version": "1.0.0"}, {"category": "developer-tools", "created_at": 1773915915262, "description": "Build, debug, and optimize CesiumJS 3D globe apps, including viewer setup, terrain/imagery, 3D Tiles, GeoJSON/CZML loading, camera control, picking, entity s...", "description_zh": "", "downloads": 155, "homepage": "https://clawhub.ai/jvy/cesium", "iconUrl": null, "installs": 35, "name": "cesium", "ownerName": "jvy", "score": 95679.01234567902, "slug": "cesium", "source": "clawhub", "stars": 0, "tags": null, "updated_at": 1776749571030, "version": "1.0.1"}, {"category": "communication-collaboration", "created_at": 1773083826572, "description": "Configure multi-agent TG group system with shared Workspace + MemOS memory. Use when user wants to set up multiple AI agents in a Telegram group, with specia...", "description_zh": "", "downloads": 155, "homepage": "https://clawhub.ai/huamu668/huamu668-openclaw-multiagent", "iconUrl": null, "installs": 7, "name": "OpenClaw Multi-Agent System", "ownerName": "huamu668", "score": 85164.83516483517, "slug": "huamu668-openclaw-multiagent", "source": "clawhub", "stars": 0, "tags": ["multiagent", "openclaw", "telegram", "workspace"], "updated_at": 1776749570961, "version": "1.0.0"}, {"category": "productivity", "created_at": 1773079681135, "description": "SharpSpring integration. Manage Leads, Persons, Organizations, Deals, Projects, Activities and more. Use when the user wants to interact with SharpSpring data.", "description_zh": "", "downloads": 155, "homepage": "https://clawhub.ai/membranedev/sharpspring", "iconUrl": null, "installs": 8, "name": "Sharpspring", "ownerName": "membranedev", "score": 85164.83516483517, "slug": "sharpspring", "source": "clawhub", "stars": 0, "tags": null, "updated_at": 1776749570912, "version": "1.0.0"}, {"category": "data-analysis", "created_at": 1773218153472, "description": "Marine and sailing weather via Open-Meteo. Waves, swell, sea temperature, wind, tides, ocean currents, and sailing assessments. Free, no API key, global cove...", "description_zh": "", "downloads": 155, "homepage": "https://clawhub.ai/alexissan/marine-forecast", "iconUrl": null, "installs": 11, "name": "Marine Forecast", "ownerName": "alexissan", "score": 40789.47368421053, "slug": "marine-forecast", "source": "clawhub", "stars": 0, "tags": ["marine", "ocean", "sailing", "swell", "tides", "waves", "weather"], "updated_at": 1776749570714, "version": "1.0.0"}, {"category": "productivity", "created_at": 1773219736400, "description": "When the user wants to create competitor comparison or alternative pages for SEO and sales enablement. Also use when the user mentions 'alternative page,' 'v...", "description_zh": "", "downloads": 155, "homepage": "https://clawhub.ai/alirezarezvani/cs-competitor-alternatives", "iconUrl": null, "installs": 7, "name": "competitor-alternatives", "ownerName": "alirezarezvani", "score": 86111.11111111111, "slug": "cs-competitor-alternatives", "source": "clawhub", "stars": 0, "tags": null, "updated_at": 1776749570674, "version": "2.1.1"}, {"category": "productivity", "created_at": 1773083263118, "description": "Workday integration. Manage Organizations, Deals, Leads, Projects, Pipelines, Goals and more. Use when the user wants to interact with Workday data.", "description_zh": "", "downloads": 155, "homepage": "https://clawhub.ai/gora050/workday", "iconUrl": null, "installs": 7, "name": "Workday", "ownerName": "gora050", "score": 86592.17877094973, "slug": "workday", "source": "clawhub", "stars": 0, "tags": null, "updated_at": 1776749570573, "version": "1.0.0"}, {"category": "security-compliance", "created_at": 1773220485251, "description": "Trust infrastructure for AI agents. Register your agent, get an on-chain identity, check trust scores, and protect transactions. Use this when your agent nee...", "description_zh": "", "downloads": 155, "homepage": "https://clawhub.ai/jhinresh/maiat-trust-api", "iconUrl": null, "installs": 5, "name": "Maiat Trust API", "ownerName": "jhinresh", "score": 86592.17877094973, "slug": "maiat-trust-api", "source": "clawhub", "stars": 0, "tags": ["agents", "base", "defi", "erc8004", "security", "swap", "trust"], "updated_at": 1776749570548, "version": "2.4.0"}, {"category": "developer-tools", "created_at": 1773080739232, "description": "Detect config drift between required local env keys and a Render service before deploy; fails when required keys are missing remotely.", "description_zh": "", "downloads": 155, "homepage": "https://clawhub.ai/daniellummis/render-deploy-diff", "iconUrl": null, "installs": 7, "name": "Render Deploy Diff", "ownerName": "daniellummis", "score": 77114.42786069652, "slug": "render-deploy-diff", "source": "clawhub", "stars": 0, "tags": null, "updated_at": 1776749570452, "version": "1.0.0"}]}