{"page": 343, "total_pages": 522, "total": 26073, "skills": [{"category": "developer-tools", "created_at": 1773081796451, "description": "Query eBusy-based tennis hall bookings via a small Python client.", "description_zh": "", "downloads": 155, "homepage": "https://clawhub.ai/ogruenig/ebusy-courts", "iconUrl": null, "installs": 7, "name": "Ebusy Courts", "ownerName": "ogruenig", "score": 77114.42786069652, "slug": "ebusy-courts", "source": "clawhub", "stars": 0, "tags": null, "updated_at": 1776749570421, "version": "1.0.0"}, {"category": "security-compliance", "created_at": 1773089901838, "description": "Audit deployment workflow risk from GitHub Actions runs by scoring failure rate, unresolved failure streaks, and time since last successful deploy.", "description_zh": "", "downloads": 155, "homepage": "https://clawhub.ai/daniellummis/github-actions-deploy-risk-audit", "iconUrl": null, "installs": 7, "name": "GitHub Actions Deploy Risk Audit", "ownerName": "daniellummis", "score": 89080.45977011493, "slug": "github-actions-deploy-risk-audit", "source": "clawhub", "stars": 0, "tags": null, "updated_at": 1776749570301, "version": "1.0.0"}, {"category": "productivity", "created_at": 1773089487647, "description": "Simple video downloader for Jable.tv. Download videos by ID or search by actress name.", "description_zh": "", "downloads": 155, "homepage": "https://clawhub.ai/hs9021401/jable-downloader-lite", "iconUrl": null, "installs": 12, "name": "Jable Downloader Lite", "ownerName": "hs9021401", "score": 85635.3591160221, "slug": "jable-downloader-lite", "source": "clawhub", "stars": 0, "tags": null, "updated_at": 1776749570286, "version": "1.0.3"}, {"category": "ai-intelligence", "created_at": 1773218523322, "description": "Real-time GEO metrics monitoring and alerting orchestrator. Use this skill whenever the user wants to track, visualize, and react to AI GEO performance metri...", "description_zh": "", "downloads": 155, "homepage": "https://clawhub.ai/geoly-geo/geo-metrics-tracker-2", "iconUrl": null, "installs": 13, "name": "Geo Metrics Tracker", "ownerName": "geoly-geo", "score": 85635.3591160221, "slug": "geo-metrics-tracker-2", "source": "clawhub", "stars": 0, "tags": null, "updated_at": 1776749570245, "version": "0.1.0"}, {"category": "ai-intelligence", "created_at": 1773290009933, "description": "Transcribe non-realtime speech with Alibaba Cloud Model Studio Qwen ASR models (`qwen3-asr-flash`, `qwen-audio-asr`, `qwen3-asr-flash-filetrans`). Use when c...", "description_zh": "", "downloads": 155, "homepage": "https://clawhub.ai/cinience/alicloud-ai-audio-asr", "iconUrl": null, "installs": 19, "name": "Alicloud Ai Audio Asr", "ownerName": "cinience", "score": 85635.3591160221, "slug": "alicloud-ai-audio-asr", "source": "clawhub", "stars": 0, "tags": null, "updated_at": 1776749570238, "version": "1.0.0"}, {"category": "developer-tools", "created_at": 1773090125717, "description": "Detect sudden GitHub Actions failure-rate spikes by workflow group using recent-vs-baseline run windows.", "description_zh": "", "downloads": 155, "homepage": "https://clawhub.ai/daniellummis/github-actions-failure-spike-audit", "iconUrl": null, "installs": 9, "name": "GitHub Actions Failure Spike Audit", "ownerName": "daniellummis", "score": 96875, "slug": "github-actions-failure-spike-audit", "source": "clawhub", "stars": 0, "tags": null, "updated_at": 1776749570187, "version": "1.0.0"}, {"category": "developer-tools", "created_at": 1773222303515, "description": "Stripe Integration Expert", "description_zh": "", "downloads": 155, "homepage": "https://clawhub.ai/alirezarezvani/stripe-integration-expert", "iconUrl": null, "installs": 7, "name": "stripe-integration-expert", "ownerName": "alirezarezvani", "score": 85635.3591160221, "slug": "stripe-integration-expert", "source": "clawhub", "stars": 0, "tags": null, "updated_at": 1776749570062, "version": "2.1.1"}, {"category": "content-creation", "created_at": 1773289355976, "description": "Hey, this skill polishes your blog draft in markdown. Fixes spelling, grammar, adds clarity if needed, keeps it simple and original language. Asks before big...", "description_zh": "", "downloads": 155, "homepage": "https://clawhub.ai/j3ffyang/blog-polisher", "iconUrl": null, "installs": 13, "name": "Blog Polisher", "ownerName": "j3ffyang", "score": 72093.02325581395, "slug": "blog-polisher", "source": "clawhub", "stars": 0, "tags": null, "updated_at": 1776749569992, "version": "1.0.1"}, {"category": "security-compliance", "created_at": 1773080361960, "description": "Manage and query Ghostfolio portfolio data (performance, holdings, dividends) using API endpoints and token auth patterns.", "description_zh": "", "downloads": 155, "homepage": "https://clawhub.ai/nsimonfr/ghostfolio", "iconUrl": null, "installs": 4, "name": "Ghostfolio", "ownerName": "nsimonfr", "score": 77889.4472361809, "slug": "ghostfolio", "source": "clawhub", "stars": 0, "tags": null, "updated_at": 1776749569751, "version": "1.0.0"}, {"category": "productivity", "created_at": 1773218467542, "description": "Collect upcoming metal concerts and festivals by country using concerts-metal.com. Use when the user asks about upcoming metal shows, gigs, or festivals.", "description_zh": "", "downloads": 155, "homepage": "https://clawhub.ai/patfitzner/upcoming-metal-concerts", "iconUrl": null, "installs": 8, "name": "Upcoming Metal Concerts", "ownerName": "patfitzner", "score": 96273.29192546585, "slug": "upcoming-metal-concerts", "source": "clawhub", "stars": 0, "tags": null, "updated_at": 1776749569735, "version": "1.1.0"}, {"category": "developer-tools", "created_at": 1773875544268, "description": "Format - command-line tool for everyday use", "description_zh": "", "downloads": 155, "homepage": "https://clawhub.ai/bytesagain/format", "iconUrl": null, "installs": 3, "name": "Format", "ownerName": "bytesagain", "score": 96273.29192546585, "slug": "format", "source": "clawhub", "stars": 0, "tags": null, "updated_at": 1776749569672, "version": "1.0.6"}, {"category": "developer-tools", "created_at": 1773084807933, "description": "Deploy an AI agent into World of Geneva MMORPG — creates a wallet, mints a character, spawns in-world, and returns credentials + full API reference to explor...", "description_zh": "", "downloads": 155, "homepage": "https://clawhub.ai/racksavant/wog-play", "iconUrl": null, "installs": 6, "name": "Wog Play", "ownerName": "racksavant", "score": 86592.17877094973, "slug": "wog-play", "source": "clawhub", "stars": 0, "tags": null, "updated_at": 1776749569603, "version": "2.1.0"}, {"category": "communication-collaboration", "created_at": 1773090445963, "description": "Interact with Twenty CRM (self-hosted) via REST/GraphQL.", "description_zh": "", "downloads": 155, "homepage": "https://clawhub.ai/w7tf/20-crm", "iconUrl": null, "installs": 2, "name": "Twenty CRM", "ownerName": "w7tf", "score": 86111.11111111111, "slug": "20-crm", "source": "clawhub", "stars": 0, "tags": null, "updated_at": 1776749569589, "version": "0.0.2"}, {"category": "developer-tools", "created_at": 1773284306970, "description": "WooshPay Payment Gateway Integration. For creating payments, checking order status, processing refunds, and managing checkout sessions. Use scenarios: - Crea...", "description_zh": "", "downloads": 154, "homepage": "https://clawhub.ai/wp-ai-dev/wooshpay", "iconUrl": null, "installs": 8, "name": "wooshpay-api", "ownerName": "wp-ai-dev", "score": 100000, "slug": "wooshpay", "source": "clawhub", "stars": 1, "tags": null, "updated_at": 1776749570313, "version": "1.0.2"}, {"category": "ai-intelligence", "created_at": 1773207314652, "description": "Virtual card issuance and management for AI agents to make real-world purchases", "description_zh": "", "downloads": 154, "homepage": "https://clawhub.ai/efedurmaz16/sardis-cards", "iconUrl": null, "installs": 7, "name": "Sardis Cards", "ownerName": "efedurmaz16", "score": 96132.59668508287, "slug": "sardis-cards", "source": "clawhub", "stars": 1, "tags": null, "updated_at": 1776749570281, "version": "1.0.0"}, {"category": "developer-tools", "created_at": 1773219683223, "description": "Universal Smart Model Switcher V3 - Multi-Provider, Multi-Model intelligent switching. Automatically selects the best model from ALL your purchased API plans...", "description_zh": "", "downloads": 154, "homepage": "https://clawhub.ai/davidme6/smart-model-switcher-v3", "iconUrl": null, "installs": 11, "name": "Smart Model Switcher V3", "ownerName": "davidme6", "score": 97206.70391061452, "slug": "smart-model-switcher-v3", "source": "clawhub", "stars": 1, "tags": ["bailian", "glm", "kimi", "minimax", "model-switching", "multi-provider", "optimization", "qwen", "runtime", "zero-latency"], "updated_at": 1776749569631, "version": "3.0.0"}, {"category": "ai-intelligence", "created_at": 1773208671664, "description": "Secure WalletConnect integration for AI agents. Connect to user wallets as a DApp (Proposer) without ever handling private keys. Request transactions and sig...", "description_zh": "", "downloads": 154, "homepage": "https://clawhub.ai/bevanding/walletconnect-requester", "iconUrl": null, "installs": 9, "name": "Walletconnect Requester", "ownerName": "bevanding", "score": 96666.66666666667, "slug": "walletconnect-requester", "source": "clawhub", "stars": 1, "tags": null, "updated_at": 1776749569550, "version": "1.0.2"}, {"category": "data-analysis", "created_at": 1773290953798, "description": "Calculate a person’s Four Pillars (BaZi / Eight Characters) from birth date and time using sexagenary-cycle offsets from one trusted reference datetime that...", "description_zh": "", "downloads": 154, "homepage": "https://clawhub.ai/wingchiu/bazi-calculator", "iconUrl": null, "installs": 18, "name": "BaZi Calculator", "ownerName": "wingchiu", "score": 4319.775596072931, "slug": "bazi-calculator", "source": "clawhub", "stars": 0, "tags": null, "updated_at": 1776761090370, "version": "1.0.0"}, {"category": "developer-tools", "created_at": 1773284939040, "description": "PR Review Expert", "description_zh": "", "downloads": 154, "homepage": "https://clawhub.ai/alirezarezvani/pr-review-expert", "iconUrl": null, "installs": 8, "name": "pr-review-expert", "ownerName": "alirezarezvani", "score": 3990.6711583311735, "slug": "pr-review-expert", "source": "clawhub", "stars": 0, "tags": null, "updated_at": 1776760940291, "version": "1.0.0"}, {"category": "ai-intelligence", "created_at": 1773434075802, "description": "Evaluates agent outputs for correctness, clarity, completeness, and safety, providing numeric scores and detailed feedback for quality control.", "description_zh": "", "downloads": 154, "homepage": "https://clawhub.ai/wang-erqian/critic-agent", "iconUrl": null, "installs": 23, "name": "Critic Agent", "ownerName": "wang-erqian", "score": 11919.504643962848, "slug": "critic-agent", "source": "clawhub", "stars": 0, "tags": null, "updated_at": 1776759683248, "version": "1.0.0"}, {"category": "productivity", "created_at": 1773430059042, "description": "Automatically archives daily chat logs with keyword highlights and optional AI summaries into organized memory files without manual setup.", "description_zh": "", "downloads": 154, "homepage": "https://clawhub.ai/yanshijun607-png/memory-auto", "iconUrl": null, "installs": 10, "name": "Memory Auto Archive", "ownerName": "yanshijun607-png", "score": 11919.504643962848, "slug": "memory-auto", "source": "clawhub", "stars": 0, "tags": ["ai", "archive", "memory", "openclaw", "productivity"], "updated_at": 1776759683240, "version": "1.0.0"}, {"category": "ai-intelligence", "created_at": 1773417919443, "description": "Let your agent shop online with guardrailed wallets, multiple payment methods, and owner approval.", "description_zh": "", "downloads": 154, "homepage": "https://clawhub.ai/triplehippo/card", "iconUrl": null, "installs": 10, "name": "Shop Car Insurance", "ownerName": "triplehippo", "score": 11561.561561561562, "slug": "card", "source": "clawhub", "stars": 0, "tags": null, "updated_at": 1776759683160, "version": "1.0.0"}, {"category": "developer-tools", "created_at": 1773426236667, "description": "Wallet-aware Raven Atlas transfer operations for NGN payouts. Use when an agent must check wallet balance, resolve Nigerian bank accounts, enforce explicit c...", "description_zh": "", "downloads": 154, "homepage": "https://clawhub.ai/fmacmak/raven-transfer", "iconUrl": null, "installs": 6, "name": "Raven Transfer", "ownerName": "fmacmak", "score": 11561.561561561562, "slug": "raven-transfer", "source": "clawhub", "stars": 0, "tags": null, "updated_at": 1776759683151, "version": "1.1.0"}, {"category": "ai-intelligence", "created_at": 1773218966073, "description": "Expertise in deploying, monitoring, detecting drift, automating retraining, and ensuring fairness and compliance for production ML models.", "description_zh": "", "downloads": 154, "homepage": "https://clawhub.ai/timbohnett-farther/skill-109", "iconUrl": null, "installs": 6, "name": "Skill 109", "ownerName": "timbohnett-farther", "score": 11809.815950920245, "slug": "skill-109", "source": "clawhub", "stars": 0, "tags": null, "updated_at": 1776759683001, "version": "1.0.0"}, {"category": "security-compliance", "created_at": 1773287526670, "description": "Ensures payment safety by verifying beneficiary, amount, currency, purpose, authorization, and payment details before approval or execution.", "description_zh": "", "downloads": 154, "homepage": "https://clawhub.ai/jhandsomeboy12138/safe-payment-gaurd", "iconUrl": null, "installs": 4, "name": "payment gaurd", "ownerName": "jhandsomeboy12138", "score": 11891.891891891892, "slug": "safe-payment-gaurd", "source": "clawhub", "stars": 0, "tags": null, "updated_at": 1776759682297, "version": "1.0.0"}, {"category": "content-creation", "created_at": 1773090387011, "description": "Multi-platform social media posting service with automatic provider failover. Handles posting to 9 platforms (Twitter/X, LinkedIn, Instagram, Facebook, TikTo...", "description_zh": "", "downloads": 154, "homepage": "https://clawhub.ai/phy041/phy-social-posting", "iconUrl": null, "installs": 8, "name": "Social Posting", "ownerName": "phy041", "score": 27304.96453900709, "slug": "phy-social-posting", "source": "clawhub", "stars": 0, "tags": ["posting", "social-media"], "updated_at": 1776752270051, "version": "1.0.0"}, {"category": "content-creation", "created_at": 1773938506369, "description": "Apply practical UI/UX design principles to improve user interfaces, landing pages, web apps, and components. Use when asked to review, critique, or improve U...", "description_zh": "", "downloads": 154, "homepage": "https://clawhub.ai/zacko2o/ui-design-tips", "iconUrl": null, "installs": 19, "name": "UI Design Tips", "ownerName": "zacko2o", "score": 86033.51955307262, "slug": "ui-design-tips", "source": "clawhub", "stars": 0, "tags": null, "updated_at": 1776749571134, "version": "1.1.0"}, {"category": "content-creation", "created_at": 1773290205141, "description": "DJ and VJ at The Clawb — live code music (Strudel) and audio-reactive visuals (Hydra)", "description_zh": "", "downloads": 154, "homepage": "https://clawhub.ai/juntaochi/the-clawb", "iconUrl": null, "installs": 7, "name": "The Clawb", "ownerName": "juntaochi", "score": 86033.51955307262, "slug": "the-clawb", "source": "clawhub", "stars": 0, "tags": null, "updated_at": 1776749571117, "version": "1.0.4"}, {"category": "developer-tools", "created_at": 1773089711644, "description": "Search LinkedIn posts by keywords using the Apify actor harvestapi/linkedin-post-search. Use when the user wants to search, scrape, or retrieve LinkedIn post...", "description_zh": "", "downloads": 154, "homepage": "https://clawhub.ai/godefroy/linkedin-search-posts", "iconUrl": null, "installs": 11, "name": "LinkedIn Search Posts", "ownerName": "godefroy", "score": 95061.72839506173, "slug": "linkedin-search-posts", "source": "clawhub", "stars": 0, "tags": null, "updated_at": 1776749571079, "version": "1.0.0"}, {"category": "developer-tools", "created_at": 1773284626384, "description": "Monorepo Navigator", "description_zh": "", "downloads": 154, "homepage": "https://clawhub.ai/alirezarezvani/monorepo-navigator", "iconUrl": null, "installs": 8, "name": "monorepo-navigator", "ownerName": "alirezarezvani", "score": 95061.72839506173, "slug": "monorepo-navigator", "source": "clawhub", "stars": 0, "tags": null, "updated_at": 1776749571040, "version": "1.0.0"}, {"category": "developer-tools", "created_at": 1773090441446, "description": "Use Tribunal commands for TDD enforcement, quality gates, secret scanning, Agent Teams hooks, CI integration, and plugin packs. Use when running quality chec...", "description_zh": "", "downloads": 154, "homepage": "https://clawhub.ai/koshaji/tribunal-usage", "iconUrl": null, "installs": 4, "name": "Tribunal Usage", "ownerName": "koshaji", "score": 66666.66666666666, "slug": "tribunal-usage", "source": "clawhub", "stars": 0, "tags": null, "updated_at": 1776749571017, "version": "1.0.0"}, {"category": "content-creation", "created_at": 1773283845117, "description": "One interface to call 6 AI providers. Swap models with a config change, not a code rewrite. Zero external dependencies.", "description_zh": "", "downloads": 154, "homepage": "https://clawhub.ai/theshadowrose/ai-provider-bridge", "iconUrl": null, "installs": 7, "name": "Ai Provider Bridge", "ownerName": "theshadowrose", "score": 66666.66666666666, "slug": "ai-provider-bridge", "source": "clawhub", "stars": 0, "tags": ["api", "integration", "multi-model", "providers", "routing"], "updated_at": 1776749571001, "version": "1.0.3"}, {"category": "productivity", "created_at": 1773083458599, "description": "Front integration. Manage Conversations, Contacts, Tags, Channels, Teams, Users. Use when the user wants to interact with Front data.", "description_zh": "", "downloads": 154, "homepage": "https://clawhub.ai/gora050/front-integration", "iconUrl": null, "installs": 7, "name": "Front", "ownerName": "gora050", "score": 84615.38461538461, "slug": "front-integration", "source": "clawhub", "stars": 0, "tags": null, "updated_at": 1776749570930, "version": "1.0.0"}, {"category": "productivity", "created_at": 1773433415237, "description": "Search the web via the Turing Tavily proxy. Use when the user asks to search the web, look up real-time information, research current events, or needs up-to-...", "description_zh": "", "downloads": 154, "homepage": "https://clawhub.ai/capreaaa/turing-tavily-web-search", "iconUrl": null, "installs": 36, "name": "Turing Tavily Web Search", "ownerName": "capreaaa", "score": 84615.38461538461, "slug": "turing-tavily-web-search", "source": "clawhub", "stars": 0, "tags": null, "updated_at": 1776749570928, "version": "1.0.0"}, {"category": "developer-tools", "created_at": 1773425884464, "description": "Manage manually installed skills (non-ClawHub). Supports checking updates, updating, and listing custom skills from GitHub or local sources.", "description_zh": "", "downloads": 154, "homepage": "https://clawhub.ai/qvshuo/custom-skills-updater", "iconUrl": null, "installs": 7, "name": "custom-skills-updater", "ownerName": "qvshuo", "score": 84615.38461538461, "slug": "custom-skills-updater", "source": "clawhub", "stars": 0, "tags": null, "updated_at": 1776749570900, "version": "1.0.2"}, {"category": "developer-tools", "created_at": 1773083227428, "description": "Set up and operate TeamPilot from zero on a clean machine. Use when cloning the TeamPilot repository, installing dependencies, starting the multi-agent runti...", "description_zh": "", "downloads": 154, "homepage": "https://clawhub.ai/moolean/team-pilot", "iconUrl": null, "installs": 5, "name": "TeamPilot", "ownerName": "moolean", "score": 85555.55555555555, "slug": "team-pilot", "source": "clawhub", "stars": 0, "tags": null, "updated_at": 1776749570863, "version": "0.1.1"}, {"category": "content-creation", "created_at": 1773433807427, "description": "Generate, schedule, and publish posts to X and LinkedIn in your voice using AI. Browse viral content, manage preferences, and track billing.", "description_zh": "", "downloads": 154, "homepage": "https://clawhub.ai/jmoon90/xreplyai", "iconUrl": null, "installs": 8, "name": "XReplyAI - Social Post Manager", "ownerName": "jmoon90", "score": 85555.55555555555, "slug": "xreplyai", "source": "clawhub", "stars": 0, "tags": null, "updated_at": 1776749570840, "version": "0.3.9"}, {"category": "developer-tools", "created_at": 1773084260323, "description": "Agent Experience (AX) development framework. Apply when building libraries, CLIs, APIs, or any software that will be consumed by AI agents — not just humans....", "description_zh": "", "downloads": 154, "homepage": "https://clawhub.ai/superworldsavior/ax-development", "iconUrl": null, "installs": 6, "name": "Ax Development", "ownerName": "superworldsavior", "score": 85555.55555555555, "slug": "ax-development", "source": "clawhub", "stars": 0, "tags": null, "updated_at": 1776749570837, "version": "1.0.0"}, {"category": "developer-tools", "created_at": 1773219714807, "description": "supervise software project execution with openclaude and claude code workflow. use when the user wants an ai supervisor to drive workflow-plan, /issue/plan,...", "description_zh": "", "downloads": 154, "homepage": "https://clawhub.ai/majmunu/ccw-project-supervisor", "iconUrl": null, "installs": 10, "name": "CCW Project Supervisor", "ownerName": "majmunu", "score": 85555.55555555555, "slug": "ccw-project-supervisor", "source": "clawhub", "stars": 0, "tags": null, "updated_at": 1776749570826, "version": "1.0.0"}, {"category": "ai-intelligence", "created_at": 1773220419102, "description": "Continuous session event recording for inter-session memory survival. Use when you want to persist conversation context between sessions, prevent memory loss...", "description_zh": "", "downloads": 154, "homepage": "https://clawhub.ai/ivaavimusic/ccp", "iconUrl": null, "installs": 18, "name": "Continuous Context Preserver", "ownerName": "ivaavimusic", "score": 86033.51955307262, "slug": "ccp", "source": "clawhub", "stars": 0, "tags": ["ccp", "context", "continuous context preserver", "memory", "preserve session context", "preserve session memory", "session context", "sos"], "updated_at": 1776749570812, "version": "1.0.0"}, {"category": "productivity", "created_at": 1773219822812, "description": "Designs and refines customer loyalty programs and incentive systems for DTC/independent stores selling small, high-frequency products (e.g. cosmetics, phone...", "description_zh": "", "downloads": 154, "homepage": "https://clawhub.ai/rijoyai/small-goods-loyalty-incentives", "iconUrl": null, "installs": 10, "name": "Small Goods Loyalty Incentives", "ownerName": "rijoyai", "score": 85555.55555555555, "slug": "small-goods-loyalty-incentives", "source": "clawhub", "stars": 0, "tags": null, "updated_at": 1776749570628, "version": "0.1.1"}, {"category": "developer-tools", "created_at": 1773080769432, "description": "Covers launching vvvv gamma from the command line or programmatically -- normal startup, opening specific .vl patches, command-line arguments, package reposi...", "description_zh": "", "downloads": 154, "homepage": "https://clawhub.ai/tebjan/vvvv-startup", "iconUrl": null, "installs": 9, "name": "Vvvv Startup", "ownerName": "tebjan", "score": 86033.51955307262, "slug": "vvvv-startup", "source": "clawhub", "stars": 0, "tags": null, "updated_at": 1776749570621, "version": "1.0.0"}, {"category": "developer-tools", "created_at": 1773089113842, "description": "This skill should be used when users need to estimate test effort based on product requirements. It analyzes requirements, breaks down tasks, estimates test...", "description_zh": "", "downloads": 154, "homepage": "https://clawhub.ai/xuping2012/test-effort-estimator", "iconUrl": null, "installs": 9, "name": "PowerfulHarp2041", "ownerName": "xuping2012", "score": 86033.51955307262, "slug": "test-effort-estimator", "source": "clawhub", "stars": 0, "tags": null, "updated_at": 1776749570595, "version": "1.0.0"}, {"category": "developer-tools", "created_at": 1773222036147, "description": "Diagnose and fix bugs using runtime execution traces. Use when debugging errors, analyzing failures, or finding root causes in Python, Node.js, or Java appli...", "description_zh": "", "downloads": 154, "homepage": "https://clawhub.ai/dxsup/runtime-debugging-skill", "iconUrl": null, "installs": 10, "name": "Runtime Debugging Skill", "ownerName": "dxsup", "score": 87500, "slug": "runtime-debugging-skill", "source": "clawhub", "stars": 0, "tags": null, "updated_at": 1776749570535, "version": "0.1.0"}, {"category": "developer-tools", "created_at": 1773091913004, "description": "Interact with KitchenOwl APIs (login, token handling, REST/GraphQL calls, and shopping-list read/update) through a reusable CLI script. Use when the user ask...", "description_zh": "", "downloads": 154, "homepage": "https://clawhub.ai/pietro395/kitchenowl-api", "iconUrl": null, "installs": 7, "name": "KitchenOwl API", "ownerName": "pietro395", "score": 87500, "slug": "kitchenowl-api", "source": "clawhub", "stars": 0, "tags": null, "updated_at": 1776749570530, "version": "1.1.0"}, {"category": "content-creation", "created_at": 1773959165837, "description": "Generate AI videos using ByteDance Seedance. Use when the user wants to: (1) generate videos from text prompts, (2) generate videos from images (first frame,...", "description_zh": "", "downloads": 154, "homepage": "https://clawhub.ai/lovensky1992-wk/seedance-video-gen", "iconUrl": null, "installs": 73, "name": "Seedance Video", "ownerName": "lovensky1992-wk", "score": 86033.51955307262, "slug": "seedance-video-gen", "source": "clawhub", "stars": 0, "tags": null, "updated_at": 1776749570412, "version": "1.0.0"}, {"category": "developer-tools", "created_at": 1773219741728, "description": "Automates DataHive sign-in using a magic link workflow: requests the link, retrieves it from Gmail via gog, and opens it in a Chrome DevTools tab.", "description_zh": "", "downloads": 154, "homepage": "https://clawhub.ai/tuleyko/datahive-installer", "iconUrl": null, "installs": 8, "name": "DataHive Installer", "ownerName": "tuleyko", "score": 86033.51955307262, "slug": "datahive-installer", "source": "clawhub", "stars": 0, "tags": null, "updated_at": 1776749570385, "version": "0.1.0"}, {"category": "developer-tools", "created_at": 1773083108433, "description": "Generate boilerplate code for common patterns. Creates project scaffolds, CRUD operations, API clients, database models, tests. Use when you need to quickly...", "description_zh": "", "downloads": 154, "homepage": "https://clawhub.ai/neckr0ik/neckr0ik-code-generator", "iconUrl": null, "installs": 6, "name": "Neckr0ik Code Generator", "ownerName": "neckr0ik", "score": 86033.51955307262, "slug": "neckr0ik-code-generator", "source": "clawhub", "stars": 0, "tags": null, "updated_at": 1776749570371, "version": "1.1.0"}, {"category": "data-analysis", "created_at": 1773220688530, "description": "What: Query Oura Ring health data — sleep, readiness, activity, heart rate, and trends via the Oura API v2. When: User asks about their sleep, readiness, act...", "description_zh": "", "downloads": 154, "homepage": "https://clawhub.ai/jarvis563/oura-health", "iconUrl": null, "installs": 9, "name": "Oura Health", "ownerName": "jarvis563", "score": 88505.74712643678, "slug": "oura-health", "source": "clawhub", "stars": 0, "tags": null, "updated_at": 1776749570343, "version": "1.0.0"}, {"category": "security-compliance", "created_at": 1773090852381, "description": "Audit GitHub Actions workflow cache usage for poisoning, keying, and secret-path risks.", "description_zh": "", "downloads": 154, "homepage": "https://clawhub.ai/daniellummis/github-actions-cache-hardening-audit", "iconUrl": null, "installs": 10, "name": "GitHub Actions Cache Hardening Audit", "ownerName": "daniellummis", "score": 96250, "slug": "github-actions-cache-hardening-audit", "source": "clawhub", "stars": 0, "tags": null, "updated_at": 1776749570215, "version": "1.0.0"}]}