{"page": 344, "total_pages": 522, "total": 26073, "skills": [{"category": "developer-tools", "created_at": 1773090070657, "description": "AI-powered financial tracking for solopreneurs — log income and expenses, monitor revenue toward monthly goals, generate P&L snapshots, flag cash flow risks,...", "description_zh": "", "downloads": 154, "homepage": "https://clawhub.ai/clawdssen/agentledger-financial-tracker", "iconUrl": null, "installs": 2, "name": "Financial Tracker", "ownerName": "clawdssen", "score": 96250, "slug": "agentledger-financial-tracker", "source": "clawhub", "stars": 0, "tags": null, "updated_at": 1776749570175, "version": "1.0.1"}, {"category": "developer-tools", "created_at": 1773219607528, "description": "Control Home Assistant devices, read sensors, and manage automations using the Python Bridge. Use when the user wants to interact with their smart home - tur...", "description_zh": "", "downloads": 154, "homepage": "https://clawhub.ai/mischa-petschenig/home-assistant-bridge-python", "iconUrl": null, "installs": 14, "name": "minos", "ownerName": "mischa-petschenig", "score": 96250, "slug": "home-assistant-bridge-python", "source": "clawhub", "stars": 0, "tags": null, "updated_at": 1776749570165, "version": "1.0.0"}, {"category": "data-analysis", "created_at": 1773090024670, "description": "USAspending.gov — federal spending data, contracts, grants, awards, agencies, and recipient search. No API key required.", "description_zh": "", "downloads": 154, "homepage": "https://clawhub.ai/aiwithabidi/usaspending", "iconUrl": null, "installs": 11, "name": "Usaspending", "ownerName": "aiwithabidi", "score": 89534.88372093023, "slug": "usaspending", "source": "clawhub", "stars": 0, "tags": null, "updated_at": 1776749570142, "version": "1.0.0"}, {"category": "ai-intelligence", "created_at": 1773431906502, "description": "Auto-register OpenClaw agents on AgentConnex (agentconnex.com) — the professional network for AI agents. Zero-config auto-boot registration requires no API k...", "description_zh": "", "downloads": 154, "homepage": "https://clawhub.ai/anshkohli88/agentconnex-register", "iconUrl": null, "installs": 17, "name": "AgentConnex Auto-Register", "ownerName": "anshkohli88", "score": 89534.88372093023, "slug": "agentconnex-register", "source": "clawhub", "stars": 0, "tags": null, "updated_at": 1776749570130, "version": "2.0.0"}, {"category": "productivity", "created_at": 1773083193160, "description": "Smartsuite integration. Manage Organizations. Use when the user wants to interact with Smartsuite data.", "description_zh": "", "downloads": 154, "homepage": "https://clawhub.ai/gora050/smartsuite", "iconUrl": null, "installs": 6, "name": "Smartsuite", "ownerName": "gora050", "score": 89534.88372093023, "slug": "smartsuite", "source": "clawhub", "stars": 0, "tags": null, "updated_at": 1776749570116, "version": "1.0.0"}, {"category": "productivity", "created_at": 1773882696361, "description": "Erp - command-line tool for everyday use", "description_zh": "", "downloads": 154, "homepage": "https://clawhub.ai/bytesagain1/erp", "iconUrl": null, "installs": 11, "name": "Erp", "ownerName": "bytesagain1", "score": 85082.8729281768, "slug": "erp", "source": "clawhub", "stars": 0, "tags": null, "updated_at": 1776749570060, "version": "1.0.5"}, {"category": "developer-tools", "created_at": 1773090233717, "description": "Webhook integration. Manage Recordses. Use when the user wants to interact with Webhook data.", "description_zh": "", "downloads": 154, "homepage": "https://clawhub.ai/membranedev/webhook-integration", "iconUrl": null, "installs": 1, "name": "Webhook", "ownerName": "membranedev", "score": 71627.90697674418, "slug": "webhook-integration", "source": "clawhub", "stars": 0, "tags": null, "updated_at": 1776749570017, "version": "1.0.0"}, {"category": "developer-tools", "created_at": 1773089247457, "description": "Runbook-first incident triage workflow for service outages and high-error alerts.", "description_zh": "", "downloads": 154, "homepage": "https://clawhub.ai/jiarani/incident-triage-playbook", "iconUrl": null, "installs": 2, "name": "1.2.0", "ownerName": "jiarani", "score": 71627.90697674418, "slug": "incident-triage-playbook", "source": "clawhub", "stars": 0, "tags": null, "updated_at": 1776749569987, "version": "1.2.0"}, {"category": "developer-tools", "created_at": 1773081566483, "description": "Epistemic verification for AI agent outputs. Use ThoughtProof to verify AI reasoning, detect blind spots, and build consensus across multiple model families....", "description_zh": "", "downloads": 154, "homepage": "https://clawhub.ai/thoughtproof/thoughtproof", "iconUrl": null, "installs": 7, "name": "ThoughtProof", "ownerName": "thoughtproof", "score": 85082.8729281768, "slug": "thoughtproof", "source": "clawhub", "stars": 0, "tags": null, "updated_at": 1776749569959, "version": "1.0.0"}, {"category": "ai-intelligence", "created_at": 1773069155918, "description": "Fetch news data for AI agents and RAG pipelines. Each call charges 0.001 USDT via SkillPay.", "description_zh": "", "downloads": 154, "homepage": "https://clawhub.ai/mosonchan2023/news-ai-rag-fetcher", "iconUrl": null, "installs": 14, "name": "News Ai Rag Fetcher", "ownerName": "mosonchan2023", "score": 85082.8729281768, "slug": "news-ai-rag-fetcher", "source": "clawhub", "stars": 0, "tags": null, "updated_at": 1776749569937, "version": "1.0.2"}, {"category": "developer-tools", "created_at": 1773090055387, "description": "Zoho Bugtracker integration. Manage Projects. Use when the user wants to interact with Zoho Bugtracker data.", "description_zh": "", "downloads": 154, "homepage": "https://clawhub.ai/gora050/zoho-bugtracker", "iconUrl": null, "installs": 12, "name": "Zoho Bugtracker", "ownerName": "gora050", "score": 84615.38461538461, "slug": "zoho-bugtracker", "source": "clawhub", "stars": 0, "tags": null, "updated_at": 1776749569876, "version": "1.0.0"}, {"category": "productivity", "created_at": 1773089382398, "description": "Affinity integration. Manage Organizations, Leads, Pipelines, Users, Roles, Filters. Use when the user wants to interact with Affinity data.", "description_zh": "", "downloads": 154, "homepage": "https://clawhub.ai/membranedev/affinity", "iconUrl": null, "installs": 4, "name": "Affinity", "ownerName": "membranedev", "score": 84615.38461538461, "slug": "affinity", "source": "clawhub", "stars": 0, "tags": null, "updated_at": 1776749569850, "version": "1.0.0"}, {"category": "productivity", "created_at": 1773083895160, "description": "Release-day coordination helpers for cutover, verification, and rollback readiness.", "description_zh": "", "downloads": 154, "homepage": "https://clawhub.ai/jiarani/release-coordination-toolkit", "iconUrl": null, "installs": 4, "name": "1.2.0", "ownerName": "jiarani", "score": 84615.38461538461, "slug": "release-coordination-toolkit", "source": "clawhub", "stars": 0, "tags": null, "updated_at": 1776749569821, "version": "1.2.0"}, {"category": "ai-intelligence", "created_at": 1773219692969, "description": "Manage OpenClaw isolated agents from chat with short commands. Use when the user asks to create/list/switch/bind/delete agents, route channels to a specific...", "description_zh": "", "downloads": 154, "homepage": "https://clawhub.ai/alincatalin/agent-control", "iconUrl": null, "installs": 9, "name": "Agent Control", "ownerName": "alincatalin", "score": 77386.93467336684, "slug": "agent-control", "source": "clawhub", "stars": 0, "tags": null, "updated_at": 1776749569802, "version": "0.1.0"}, {"category": "developer-tools", "created_at": 1773090527048, "description": "Detect flaky GitHub Actions job steps by finding mixed success/failure conclusions across runs.", "description_zh": "", "downloads": 154, "homepage": "https://clawhub.ai/daniellummis/github-actions-step-flake-audit", "iconUrl": null, "installs": 13, "name": "GitHub Actions Step Flake Audit", "ownerName": "daniellummis", "score": 77386.93467336684, "slug": "github-actions-step-flake-audit", "source": "clawhub", "stars": 0, "tags": null, "updated_at": 1776749569782, "version": "1.0.0"}, {"category": "developer-tools", "created_at": 1773089693700, "description": "Detect GitHub Actions workflow groups that stopped running on their normal cadence using median run intervals and current inactivity gap.", "description_zh": "", "downloads": 154, "homepage": "https://clawhub.ai/daniellummis/github-actions-run-gap-audit", "iconUrl": null, "installs": 10, "name": "GitHub Actions Run Gap Audit", "ownerName": "daniellummis", "score": 77386.93467336684, "slug": "github-actions-run-gap-audit", "source": "clawhub", "stars": 0, "tags": null, "updated_at": 1776749569770, "version": "1.1.0"}, {"category": "developer-tools", "created_at": 1773089528847, "description": "Use pre-built page components from Orderly SDK to quickly assemble complete DEX pages (TradingPage, Portfolio, Markets, Leaderboard, etc.)", "description_zh": "", "downloads": 154, "homepage": "https://clawhub.ai/tarnadas/orderly-sdk-page-components", "iconUrl": null, "installs": 8, "name": "Orderly Sdk Page Components", "ownerName": "tarnadas", "score": 77386.93467336684, "slug": "orderly-sdk-page-components", "source": "clawhub", "stars": 0, "tags": null, "updated_at": 1776749569768, "version": "1.0.0"}, {"category": "ai-intelligence", "created_at": 1773220681795, "description": "NotebookLM CLI for listing notebooks, creating notebooks, adding sources, querying notebooks, generating studio artifacts, downloading outputs, sharing noteb...", "description_zh": "", "downloads": 154, "homepage": "https://clawhub.ai/lsuper/nlm", "iconUrl": null, "installs": 15, "name": "nlm", "ownerName": "lsuper", "score": 95652.17391304349, "slug": "nlm", "source": "clawhub", "stars": 0, "tags": null, "updated_at": 1776749569697, "version": "0.1.0"}, {"category": "developer-tools", "created_at": 1773091099004, "description": "Audit GitHub merge queue workflow health with failure-rate, queue-latency, and stale-success risk scoring.", "description_zh": "", "downloads": 154, "homepage": "https://clawhub.ai/daniellummis/github-actions-merge-queue-health-audit", "iconUrl": null, "installs": 11, "name": "GitHub Actions Merge Queue Health Audit", "ownerName": "daniellummis", "score": 95652.17391304349, "slug": "github-actions-merge-queue-health-audit", "source": "clawhub", "stars": 0, "tags": null, "updated_at": 1776749569679, "version": "1.0.0"}, {"category": "data-analysis", "created_at": 1773089558574, "description": "Intelligent git commit assistant — analyzes diffs, enforces conventional commits, detects secrets, generates meaningful messages. Use when committing code ch...", "description_zh": "", "downloads": 154, "homepage": "https://clawhub.ai/nakedoshadow/shadows-smart-commit", "iconUrl": null, "installs": 9, "name": "Shadows Smart Commit", "ownerName": "nakedoshadow", "score": 95652.17391304349, "slug": "shadows-smart-commit", "source": "clawhub", "stars": 0, "tags": null, "updated_at": 1776749569674, "version": "1.1.0"}, {"category": "productivity", "created_at": 1773221531946, "description": "Health data management system for tracking blood pressure, heart rate, exercise, and medication. Use when: (1) recording daily health metrics like blood pres...", "description_zh": "", "downloads": 154, "homepage": "https://clawhub.ai/harrylabsj/health-manager", "iconUrl": null, "installs": 9, "name": "Health Manager", "ownerName": "harrylabsj", "score": 86033.51955307262, "slug": "health-manager", "source": "clawhub", "stars": 0, "tags": ["cli", "fitness", "health", "tracking"], "updated_at": 1776749569641, "version": "1.0.0"}, {"category": "productivity", "created_at": 1773080501666, "description": "Sync TASKS.md current phase and in-progress checklist from the active PLAN.md phase to keep sprint execution aligned.", "description_zh": "", "downloads": 154, "homepage": "https://clawhub.ai/daniellummis/tasks-md-sprint-sync", "iconUrl": null, "installs": 5, "name": "Tasks.md Sprint Sync", "ownerName": "daniellummis", "score": 86033.51955307262, "slug": "tasks-md-sprint-sync", "source": "clawhub", "stars": 0, "tags": null, "updated_at": 1776749569617, "version": "1.0.0"}, {"category": "content-creation", "created_at": 1773220234083, "description": "Standardized GEO template library for AI-citable content. Use this skill whenever the user mentions creating, reusing, or standardizing templates for GEO-opt...", "description_zh": "", "downloads": 154, "homepage": "https://clawhub.ai/geoly-geo/geo-template-library", "iconUrl": null, "installs": 14, "name": "Geo Template Library", "ownerName": "geoly-geo", "score": 85555.55555555555, "slug": "geo-template-library", "source": "clawhub", "stars": 0, "tags": null, "updated_at": 1776749569598, "version": "0.1.0"}, {"category": "security-compliance", "created_at": 1773884112153, "description": "Integrate Loop Engine with OpenClaw to enforce human approval, AI confidence checks, evidence capture, and immutable audit trails on workflow steps.", "description_zh": "", "downloads": 153, "homepage": "https://clawhub.ai/betterdataco/loop-engine-governance", "iconUrl": null, "installs": 6, "name": "Loop Engine — Governed Loops for OpenClaw", "ownerName": "betterdataco", "score": 13256.704980842913, "slug": "loop-engine-governance", "source": "clawhub", "stars": 1, "tags": ["ai-agent", "approval", "audit", "enterprise", "governance", "guards", "workflow"], "updated_at": 1776759682567, "version": "1.0.4"}, {"category": "developer-tools", "created_at": 1773290215821, "description": "Cash App Pay integration skill. Accept payments via Cash App — the #1 personal finance app in the U.S. Covers the Network API, Customer Request API, Manageme...", "description_zh": "", "downloads": 153, "homepage": "https://clawhub.ai/codejika/cashapp", "iconUrl": null, "installs": 11, "name": "CashClaw | Give your agent a wallet or credit card", "ownerName": "codejika", "score": 6749.902458056964, "slug": "cashapp", "source": "clawhub", "stars": 1, "tags": ["card", "cash", "cashapp", "crypto", "pay", "shop", "wallet"], "updated_at": 1776759682372, "version": "1.0.2"}, {"category": "communication-collaboration", "created_at": 1773208708743, "description": "Phone numbers for AI agents. Provision numbers, receive SMS, extract verification codes. Use when you need to sign up for services, receive 2FA codes, or han...", "description_zh": "", "downloads": 153, "homepage": "https://clawhub.ai/danecodes/botcall", "iconUrl": null, "installs": 12, "name": "botcall", "ownerName": "danecodes", "score": 96111.11111111111, "slug": "botcall", "source": "clawhub", "stars": 1, "tags": null, "updated_at": 1776749570662, "version": "1.0.0"}, {"category": "content-creation", "created_at": 1773290555335, "description": "End-to-end Meta (Facebook/Instagram) advertising system orchestrator covering the full ad lifecycle: strategy research, creative generation, campaign deliver...", "description_zh": "", "downloads": 153, "homepage": "https://clawhub.ai/lanbowai/lanbow-claw-skill", "iconUrl": null, "installs": 6, "name": "lanbow-claw-skill", "ownerName": "lanbowai", "score": 98295.45454545454, "slug": "lanbow-claw-skill", "source": "clawhub", "stars": 1, "tags": ["ads", "ads manager", "advertise", "advertisement", "lanbow", "marketing", "meta"], "updated_at": 1776749570520, "version": "1.0.5"}, {"category": "communication-collaboration", "created_at": 1773417677061, "description": "Use when configuring OpenClaw chat channels to send an immediate acknowledgement before the main reply starts. Supports Feishu and DingTalk, includes bilingu...", "description_zh": "", "downloads": 153, "homepage": "https://clawhub.ai/sallyxie2026/openclaw-immediate-ack", "iconUrl": null, "installs": 29, "name": "OpenClaw Immediate Ack", "ownerName": "sallyxie2026", "score": 96111.11111111111, "slug": "openclaw-immediate-ack", "source": "clawhub", "stars": 1, "tags": null, "updated_at": 1776749569558, "version": "1.0.0"}, {"category": "", "created_at": 1774944906125, "description": "OZON and Wildberries marketplace deep analysis agent. Market intelligence for Russian e-commerce — category trends, competitor analysis, pricing strategy, ke...", "description_zh": "", "downloads": 153, "homepage": "https://clawhub.ai/mguozhen/ozon-wildberries-analyzer", "iconUrl": null, "installs": 33, "name": "Ozon Wildberries Analyzer", "ownerName": "mguozhen", "score": 5830.79268292683, "slug": "ozon-wildberries-analyzer", "source": "clawhub", "stars": 0, "tags": null, "updated_at": 1776762290116, "version": "1.0.0"}, {"category": "ai-intelligence", "created_at": 1773895413204, "description": "Integrates AIN providers into OpenClaw with intelligent model routing and tools for prompt execution and task classification.", "description_zh": "", "downloads": 153, "homepage": "https://clawhub.ai/felipematos/openclaw-plugin-ain", "iconUrl": null, "installs": 13, "name": "AIN - AI Node Plugin", "ownerName": "felipematos", "score": 11832.946635730857, "slug": "openclaw-plugin-ain", "source": "clawhub", "stars": 0, "tags": null, "updated_at": 1776759683482, "version": "0.11.2"}, {"category": "data-analysis", "created_at": 1773434107216, "description": "Search X (Twitter) data using Felo X Search API. Use when users ask about X/Twitter users, tweets, trending topics on X, tweet replies, or when explicit comm...", "description_zh": "", "downloads": 153, "homepage": "https://clawhub.ai/wangzhiming1999/felo-x-search", "iconUrl": null, "installs": 10, "name": "Felo X Search", "ownerName": "wangzhiming1999", "score": 11851.27807900852, "slug": "felo-x-search", "source": "clawhub", "stars": 0, "tags": null, "updated_at": 1776759683373, "version": "1.0.1"}, {"category": "developer-tools", "created_at": 1773428353636, "description": "Intelligent log analysis tool for monitoring cron jobs, detecting errors, analyzing patterns, and generating reports. Supports automatic error detection, log...", "description_zh": "", "downloads": 153, "homepage": "https://clawhub.ai/sunnyhot/openclaw-log-analyzer", "iconUrl": null, "installs": 4, "name": "Log Analyzer", "ownerName": "sunnyhot", "score": 11706.1973986228, "slug": "openclaw-log-analyzer", "source": "clawhub", "stars": 0, "tags": null, "updated_at": 1776759683208, "version": "1.0.0"}, {"category": "ai-intelligence", "created_at": 1773936546733, "description": "Python skill using LangChain to manage conversation memory and chains, enabling context-aware, concise Vietnamese replies with customizable prompts.", "description_zh": "", "downloads": 153, "homepage": "https://clawhub.ai/s0nocean/langchain-skill", "iconUrl": null, "installs": 25, "name": "Langchain Skill", "ownerName": "s0nocean", "score": 11787.365177195685, "slug": "langchain-skill", "source": "clawhub", "stars": 0, "tags": null, "updated_at": 1776759683108, "version": "1.0.0"}, {"category": "security-compliance", "created_at": 1773218827395, "description": "The Sovereign Asset & Title Management Engine. Orchestrating the lifecycle of physical property, digital legacies, and high-value estates across jurisdiction...", "description_zh": "", "downloads": 153, "homepage": "https://clawhub.ai/agenticio/estate", "iconUrl": null, "installs": 3, "name": "Estate", "ownerName": "agenticio", "score": 83152.17391304349, "slug": "estate", "source": "clawhub", "stars": 0, "tags": ["estate", "legal", "property", "wealth"], "updated_at": 1776759682730, "version": "1.0.0"}, {"category": "ai-intelligence", "created_at": 1773875425279, "description": "Register, manage, and operate AI agents on the AgentLance marketplace. Use when an agent wants to list itself for hire, create gigs, listen for jobs, accept...", "description_zh": "", "downloads": 153, "homepage": "https://clawhub.ai/qmbgr5xcm8-ship-it/agentlance", "iconUrl": null, "installs": 6, "name": "AgentLance", "ownerName": "qmbgr5xcm8-ship-it", "score": 11751.15207373272, "slug": "agentlance", "source": "clawhub", "stars": 0, "tags": null, "updated_at": 1776759682618, "version": "1.2.2"}, {"category": "developer-tools", "created_at": 1773886424997, "description": "crawl the Vietnam nutrition provider page-by-page with scrapling-official and upload each raw provider record to Cloudflare R2 after fetch. use for provider-...", "description_zh": "", "downloads": 153, "homepage": "https://clawhub.ai/snailb1007/nutrition-provider-r2", "iconUrl": null, "installs": 11, "name": "Nutrition Provider R2", "ownerName": "snailb1007", "score": 11724.137931034482, "slug": "nutrition-provider-r2", "source": "clawhub", "stars": 0, "tags": null, "updated_at": 1776759682575, "version": "0.1.2"}, {"category": "security-compliance", "created_at": 1773220973135, "description": "A comprehensive AI agent skill for anyone considering or facing a lawsuit. Helps you evaluate whether suing is worth it, understand the litigation process fr...", "description_zh": "", "downloads": 153, "homepage": "https://clawhub.ai/agistack/sue", "iconUrl": null, "installs": 6, "name": "Sue", "ownerName": "agistack", "score": 11814.671814671816, "slug": "sue", "source": "clawhub", "stars": 0, "tags": ["court", "lawsuit", "legal", "litigation", "sue"], "updated_at": 1776759682347, "version": "1.0.0"}, {"category": "productivity", "created_at": 1773081010080, "description": "Set price alerts for yes/no outcomes on multiple Polymarket markets and receive notifications when targets are reached.", "description_zh": "", "downloads": 153, "homepage": "https://clawhub.ai/mosonchan2023/polymarket-price-alerts", "iconUrl": null, "installs": 17, "name": "Polymarket Price Alerts", "ownerName": "mosonchan2023", "score": 11751.15207373272, "slug": "polymarket-price-alerts", "source": "clawhub", "stars": 0, "tags": null, "updated_at": 1776759682224, "version": "1.0.1"}, {"category": "content-creation", "created_at": 1773083917601, "description": "Busca receitas em português do Brasil (pt-BR) via Wikilivros + TheMealDB. Gera receitas originais quando necessário.", "description_zh": "", "downloads": 153, "homepage": "https://clawhub.ai/runawaydevil/seth-receitas-ptbr", "iconUrl": null, "installs": 7, "name": "Seth Receitas Ptbr", "ownerName": "runawaydevil", "score": 94444.44444444444, "slug": "seth-receitas-ptbr", "source": "clawhub", "stars": 0, "tags": null, "updated_at": 1776749571069, "version": "1.0.0"}, {"category": "content-creation", "created_at": 1773289392014, "description": "When the user wants to plan, implement, or optimize creator program strategy. Also use when the user mentions \"creator program,\" \"creator partnership,\" \"cont...", "description_zh": "", "downloads": 153, "homepage": "https://clawhub.ai/kostja94/creator-program", "iconUrl": null, "installs": 19, "name": "creator-program", "ownerName": "kostja94", "score": 94444.44444444444, "slug": "creator-program", "source": "clawhub", "stars": 0, "tags": null, "updated_at": 1776749571033, "version": "1.1.0"}, {"category": "productivity", "created_at": 1773083103638, "description": "Namely integration. Manage Persons, Organizations, Jobs, Goals, Payrolls. Use when the user wants to interact with Namely data.", "description_zh": "", "downloads": 153, "homepage": "https://clawhub.ai/gora050/namely", "iconUrl": null, "installs": 7, "name": "Namely", "ownerName": "gora050", "score": 84065.93406593407, "slug": "namely", "source": "clawhub", "stars": 0, "tags": null, "updated_at": 1776749570954, "version": "1.0.0"}, {"category": "data-analysis", "created_at": 1773090956770, "description": "Generate a daily priority leaderboard for 5 crypto tokens, with per-token fundamentals, liquidity, and risk summaries plus ready-to-publish drafts for X post...", "description_zh": "", "downloads": 153, "homepage": "https://clawhub.ai/2663629531/alpha-copilot-skill", "iconUrl": null, "installs": 20, "name": "Researcher Alpha Copilot", "ownerName": "2663629531", "score": 84065.93406593407, "slug": "alpha-copilot-skill", "source": "clawhub", "stars": 0, "tags": null, "updated_at": 1776749570911, "version": "0.1.0"}, {"category": "productivity", "created_at": 1773083171130, "description": "Rippling HR integration. Manage Employees, Companies, PayrollRuns, Reports. Use when the user wants to interact with Rippling HR data.", "description_zh": "", "downloads": 153, "homepage": "https://clawhub.ai/gora050/rippling-hr", "iconUrl": null, "installs": 7, "name": "Rippling Hr", "ownerName": "gora050", "score": 85474.86033519554, "slug": "rippling-hr", "source": "clawhub", "stars": 0, "tags": null, "updated_at": 1776749570787, "version": "1.0.0"}, {"category": "data-analysis", "created_at": 1773084554020, "description": "Discover, call, and pay for APIs through AgentClear — the commerce layer for AI agents. Use when you need to: (1) find an API or tool by describing what you...", "description_zh": "", "downloads": 153, "homepage": "https://clawhub.ai/dwflickinger/agentclear", "iconUrl": null, "installs": 7, "name": "AgentClear", "ownerName": "dwflickinger", "score": 85474.86033519554, "slug": "agentclear", "source": "clawhub", "stars": 0, "tags": null, "updated_at": 1776749570770, "version": "1.1.0"}, {"category": "content-creation", "created_at": 1773218716017, "description": "Audit a product or service offer for clarity, differentiation, and buying friction. Use when improving positioning, promise, audience fit, and conversion bef...", "description_zh": "", "downloads": 153, "homepage": "https://clawhub.ai/kyoiii/offer-positioning-auditor", "iconUrl": null, "installs": 13, "name": "Offer Positioning Auditor", "ownerName": "kyoiii", "score": 86931.81818181818, "slug": "offer-positioning-auditor", "source": "clawhub", "stars": 0, "tags": ["marketing", "offers", "positioning"], "updated_at": 1776749570536, "version": "0.1.0"}, {"category": "productivity", "created_at": 1773080602842, "description": "Copper integration. Manage Persons, Organizations, Leads, Deals, Projects, Activities and more. Use when the user wants to interact with Copper data.", "description_zh": "", "downloads": 153, "homepage": "https://clawhub.ai/membranedev/copper-integration", "iconUrl": null, "installs": 1, "name": "Copper", "ownerName": "membranedev", "score": 76119.40298507463, "slug": "copper-integration", "source": "clawhub", "stars": 0, "tags": null, "updated_at": 1776749570479, "version": "1.0.0"}, {"category": "productivity", "created_at": 1773425136044, "description": "Use curl to query self-evolve.club shared skill rankings, self-evolve personal stats, and update self-evolve.club profile info. Use this when users ask for s...", "description_zh": "", "downloads": 153, "homepage": "https://clawhub.ai/longmans/self-evolve-skill", "iconUrl": null, "installs": 8, "name": "self-evolve-skill", "ownerName": "longmans", "score": 76119.40298507463, "slug": "self-evolve-skill", "source": "clawhub", "stars": 0, "tags": null, "updated_at": 1776749570474, "version": "1.0.2"}, {"category": "ai-intelligence", "created_at": 1773222777784, "description": "A cognitive growth framework that helps your AI truly know you — and help you know yourself. Includes personality profiling, behavioral pattern detection, re...", "description_zh": "", "downloads": 153, "homepage": "https://clawhub.ai/evanl1/sage-cognitive", "iconUrl": null, "installs": 12, "name": "Sage Cognitive", "ownerName": "evanl1", "score": 85474.86033519554, "slug": "sage-cognitive", "source": "clawhub", "stars": 0, "tags": null, "updated_at": 1776749570408, "version": "0.1.0"}, {"category": "productivity", "created_at": 1773426057316, "description": "Query China domestic flights with schedules, airline details, airport resolution, and Juhe reference prices. Use when a user asks for domestic China flight o...", "description_zh": "", "downloads": 153, "homepage": "https://clawhub.ai/baizhexue/domestic-flight-search-skill", "iconUrl": null, "installs": 12, "name": "Domestic Flight Search", "ownerName": "baizhexue", "score": 85474.86033519554, "slug": "domestic-flight-search-skill", "source": "clawhub", "stars": 0, "tags": null, "updated_at": 1776749570364, "version": "0.1.0"}, {"category": "productivity", "created_at": 1773221043374, "description": "Plan Finland trips with verified entry rules, season-aware routing, rail-and-Lapland logistics, and practical tourist safety.", "description_zh": "", "downloads": 153, "homepage": "https://clawhub.ai/ivangdavila/finland", "iconUrl": null, "installs": 16, "name": "Finland", "ownerName": "ivangdavila", "score": 84530.38674033148, "slug": "finland", "source": "clawhub", "stars": 0, "tags": null, "updated_at": 1776749570236, "version": "1.0.0"}]}