{"page": 345, "total_pages": 522, "total": 26073, "skills": [{"category": "communication-collaboration", "created_at": 1773083116800, "description": "Bridge to the DogeChat Nostr geohash chat network.", "description_zh": "", "downloads": 153, "homepage": "https://clawhub.ai/greatape42069/nostr-dogechat", "iconUrl": null, "installs": 3, "name": "nostr-dogechat", "ownerName": "greatape42069", "score": 88953.48837209302, "slug": "nostr-dogechat", "source": "clawhub", "stars": 0, "tags": ["doge", "dogechat", "dogecoin", "geohash", "nostr"], "updated_at": 1776749570150, "version": "1.0.0"}, {"category": "ai-intelligence", "created_at": 1773217942748, "description": "Review or shape product and architecture decisions for a lightweight creative agent OS. Use when comparing runtimes, cloud execution, agent system shape, cod...", "description_zh": "", "downloads": 153, "homepage": "https://clawhub.ai/kyoiii/creative-agent-os-north-star", "iconUrl": null, "installs": 11, "name": "Creative Agent OS North Star", "ownerName": "kyoiii", "score": 88953.48837209302, "slug": "creative-agent-os-north-star", "source": "clawhub", "stars": 0, "tags": ["architecture", "openclaw", "product"], "updated_at": 1776749570146, "version": "0.1.1"}, {"category": "ai-intelligence", "created_at": 1773867671038, "description": "$0 test-time scaling with online learning. Classify, generate, and verify using free model ensembles. Models self-select via ELO scoring + A/B testing from d...", "description_zh": "", "downloads": 153, "homepage": "https://clawhub.ai/isotrivial/free-scaling", "iconUrl": null, "installs": 18, "name": "Free Scaling", "ownerName": "isotrivial", "score": 88953.48837209302, "slug": "free-scaling", "source": "clawhub", "stars": 0, "tags": null, "updated_at": 1776749570109, "version": "3.3.1"}, {"category": "developer-tools", "created_at": 1773868185906, "description": "Tools for keeping your cloud operating in top form. Chaos Monkey is a resiliency tool that helps app chaos-testing, java. Use when you need chaos-testing cap...", "description_zh": "", "downloads": 153, "homepage": "https://clawhub.ai/bytesagain/chaos-testing", "iconUrl": null, "installs": 10, "name": "Chaos Testing", "ownerName": "bytesagain", "score": 84530.38674033148, "slug": "chaos-testing", "source": "clawhub", "stars": 0, "tags": null, "updated_at": 1776749570046, "version": "1.0.6"}, {"category": "data-analysis", "created_at": 1773219256032, "description": "IHSG Closing Summary Agent untuk OpenClaw. Menghasilkan laporan sesi pagi dan closing dengan Top 10 Net Buy/Sell, Foreign Flow, YTD data, dan insights dalam...", "description_zh": "", "downloads": 153, "homepage": "https://clawhub.ai/raufimusaddiq/ihsg-session-summary", "iconUrl": null, "installs": 8, "name": "IHSG Session Summary", "ownerName": "raufimusaddiq", "score": 71162.79069767441, "slug": "ihsg-session-summary", "source": "clawhub", "stars": 0, "tags": ["finance", "idx", "indonesia", "market-analysis", "stocks", "tavily"], "updated_at": 1776749570025, "version": "4.0.1"}, {"category": "content-creation", "created_at": 1773090921055, "description": "Thinkific — manage courses, students, enrollments, coupons, and products via REST API", "description_zh": "", "downloads": 153, "homepage": "https://clawhub.ai/aiwithabidi/thinkific", "iconUrl": null, "installs": 15, "name": "Thinkific", "ownerName": "aiwithabidi", "score": 71162.79069767441, "slug": "thinkific", "source": "clawhub", "stars": 0, "tags": null, "updated_at": 1776749569975, "version": "1.0.0"}, {"category": "ai-intelligence", "created_at": 1773088851715, "description": "OpenAI-compatible translation proxy for Yandex Cloud Foundation Models (YandexGPT)", "description_zh": "", "downloads": 153, "homepage": "https://clawhub.ai/smvlx/yandexgpt-skill", "iconUrl": null, "installs": 12, "name": "YandexGPT Proxy", "ownerName": "smvlx", "score": 71162.79069767441, "slug": "yandexgpt-skill", "source": "clawhub", "stars": 0, "tags": null, "updated_at": 1776749569973, "version": "1.1.1"}, {"category": "developer-tools", "created_at": 1773089965075, "description": "Create and manage a custom DEX using Orderly One API - deployment, custom domains, graduation, and theming", "description_zh": "", "downloads": 153, "homepage": "https://clawhub.ai/tarnadas/orderly-one-dex", "iconUrl": null, "installs": 6, "name": "Orderly One Dex", "ownerName": "tarnadas", "score": 84530.38674033148, "slug": "orderly-one-dex", "source": "clawhub", "stars": 0, "tags": null, "updated_at": 1776749569911, "version": "1.0.0"}, {"category": "developer-tools", "created_at": 1773902456428, "description": "Use when you need to stand up or standardize a fresh OpenClaw setup as the Fire Dragon Fruit Architecture: one strong main, one isolated rescue, layered file...", "description_zh": "", "downloads": 153, "homepage": "https://clawhub.ai/staiv1/one-step-evolution", "iconUrl": null, "installs": 35, "name": "一步完成进化", "ownerName": "staiv1", "score": 84530.38674033148, "slug": "one-step-evolution", "source": "clawhub", "stars": 0, "tags": ["agent-hub", "agent-system", "architecture", "auto-scheduling", "continuous-evolution", "cron", "feishu", "feishu-bot", "fire-dragon-fruit", "heartbeat", "layered-memory", "long-term-memory", "main-brain", "memory", "ollama", "openclaw", "personal-operating-system", "rescue"], "updated_at": 1776749569909, "version": "1.6.0"}, {"category": "developer-tools", "created_at": 1773285674182, "description": "Remotely control a target host via GLKVM HTTP API, supporting keyboard/mouse input, screenshot capture, OCR recognition, Fingerbot physical button control, a...", "description_zh": "", "downloads": 153, "homepage": "https://clawhub.ai/duzefu/glkvm", "iconUrl": null, "installs": 13, "name": "glkvm", "ownerName": "duzefu", "score": 84065.93406593407, "slug": "glkvm", "source": "clawhub", "stars": 0, "tags": null, "updated_at": 1776749569872, "version": "1.1.1"}, {"category": "productivity", "created_at": 1773081739162, "description": "Calendly integration. Manage Users. Use when the user wants to interact with Calendly data.", "description_zh": "", "downloads": 153, "homepage": "https://clawhub.ai/membranedev/calendly-integration", "iconUrl": null, "installs": 0, "name": "Calendly", "ownerName": "membranedev", "score": 84065.93406593407, "slug": "calendly-integration", "source": "clawhub", "stars": 0, "tags": null, "updated_at": 1776749569869, "version": "1.0.0"}, {"category": "productivity", "created_at": 1773088771918, "description": "PayPal integration. Manage Accounts. Use when the user wants to interact with PayPal data.", "description_zh": "", "downloads": 153, "homepage": "https://clawhub.ai/gora050/paypal-integration", "iconUrl": null, "installs": 3, "name": "Paypal", "ownerName": "gora050", "score": 76884.42211055277, "slug": "paypal-integration", "source": "clawhub", "stars": 0, "tags": null, "updated_at": 1776749569763, "version": "1.0.0"}, {"category": "developer-tools", "created_at": 1773089744207, "description": "Complete authentication guide for Orderly Network - EIP-712 wallet signatures for EVM accounts, Ed25519 message signing for Solana accounts, and Ed25519 sign...", "description_zh": "", "downloads": 153, "homepage": "https://clawhub.ai/tarnadas/orderly-api-authentication", "iconUrl": null, "installs": 7, "name": "Orderly Api Authentication", "ownerName": "tarnadas", "score": 95031.05590062113, "slug": "orderly-api-authentication", "source": "clawhub", "stars": 0, "tags": null, "updated_at": 1776749569698, "version": "1.0.0"}, {"category": "developer-tools", "created_at": 1773083858564, "description": "Create and manage self-rewarding meme coins on Solana via the OP0 Altar protocol. Deploy pump.fun tokens where holders automatically receive rewards in 129 p...", "description_zh": "", "downloads": 153, "homepage": "https://clawhub.ai/op0prot/op0-altar", "iconUrl": null, "installs": 8, "name": "OP0 Altar", "ownerName": "op0prot", "score": 85474.86033519554, "slug": "op0-altar", "source": "clawhub", "stars": 0, "tags": ["crypto", "defi", "memecoin", "solana", "token-launch"], "updated_at": 1776749569653, "version": "1.0.0"}, {"category": "productivity", "created_at": 1773090671600, "description": "Daum 실시간 트렌드 TOP10 브리핑. 다음 메인 실시간 검색어 + 대표 뉴스 제목 추출. 크론/텔레그램/디스코드 알림용. Use when user asks for Korean real-time search trends, Daum trending keywords, or 실시간...", "description_zh": "", "downloads": 153, "homepage": "https://clawhub.ai/garibong-labs/daum-trends", "iconUrl": null, "installs": 5, "name": "Daum Trends", "ownerName": "garibong-labs", "score": 85474.86033519554, "slug": "daum-trends", "source": "clawhub", "stars": 0, "tags": null, "updated_at": 1776749569607, "version": "1.0.0"}, {"category": "developer-tools", "created_at": 1773069494830, "description": "Aggregate news from multiple sources into a unified API. Each call charges 0.001 USDT via SkillPay.", "description_zh": "", "downloads": 153, "homepage": "https://clawhub.ai/mosonchan2023/news-api-aggregator", "iconUrl": null, "installs": 7, "name": "News Api Aggregator", "ownerName": "mosonchan2023", "score": 85000, "slug": "news-api-aggregator", "source": "clawhub", "stars": 0, "tags": null, "updated_at": 1776749569569, "version": "1.0.1"}, {"category": "ai-intelligence", "created_at": 1773083300396, "description": "Interact with The Prompting Company platform to monitor brand visibility across AI engines, manage tracked prompts, review and publish content drafts, and re...", "description_zh": "", "downloads": 152, "homepage": "https://clawhub.ai/edwardtanoto/promptingco", "iconUrl": null, "installs": 7, "name": "Promptingco", "ownerName": "edwardtanoto", "score": 3058.321479374111, "slug": "promptingco", "source": "clawhub", "stars": 1, "tags": null, "updated_at": 1776765371201, "version": "1.0.0"}, {"category": "productivity", "created_at": 1773088708033, "description": "Deel integration. Manage hris data, records, and workflows. Use when the user wants to interact with Deel data.", "description_zh": "", "downloads": 152, "homepage": "https://clawhub.ai/membranedev/deel", "iconUrl": null, "installs": 11, "name": "Deel", "ownerName": "membranedev", "score": 178.0088770216304, "slug": "deel", "source": "clawhub", "stars": 0, "tags": null, "updated_at": 1776770350071, "version": "1.0.0"}, {"category": "developer-tools", "created_at": 1773927395912, "description": "Automated code review for GitHub pull requests using Claude LLM. PR analysis, security scanning, and style checking.", "description_zh": "", "downloads": 152, "homepage": "https://clawhub.ai/hirofumiko/code-review-automation", "iconUrl": null, "installs": 31, "name": "Code Review Automation", "ownerName": "hirofumiko", "score": 5401.563610518834, "slug": "code-review-automation", "source": "clawhub", "stars": 0, "tags": null, "updated_at": 1776766009927, "version": "1.0.2"}, {"category": "productivity", "created_at": 1773920044067, "description": "Helps users discover and install agent skills when they ask questions like \"how do I do X\", \"find a skill for X\", \"is there a skill that can...\", or express...", "description_zh": "", "downloads": 152, "homepage": "https://clawhub.ai/banalit/luke-find-skills", "iconUrl": null, "installs": 45, "name": "Luke Find Skills", "ownerName": "banalit", "score": 2532.4891702765744, "slug": "luke-find-skills", "source": "clawhub", "stars": 0, "tags": null, "updated_at": 1776765076324, "version": "1.0.0"}, {"category": "content-creation", "created_at": 1773417553016, "description": "Generate professional product photography using each::sense API for e-commerce, marketing, and catalog imagery", "description_zh": "", "downloads": 152, "homepage": "https://clawhub.ai/eftalyurtseven/product-photo-generation", "iconUrl": null, "installs": 15, "name": "Product Photo Generation", "ownerName": "eftalyurtseven", "score": 3109.020249539783, "slug": "product-photo-generation", "source": "clawhub", "stars": 0, "tags": null, "updated_at": 1776763750522, "version": "1.0.0"}, {"category": "ai-intelligence", "created_at": 1773430545165, "description": "Install and configure a local browser-based Chinese voice chat launcher with the Ning Yao persona, including one-click Windows launchers, browser speech I/O,...", "description_zh": "", "downloads": 152, "homepage": "https://clawhub.ai/jiwannian/ningyao-voice-launcher", "iconUrl": null, "installs": 17, "name": "Ningyao Voice Launcher", "ownerName": "jiwannian", "score": 11647.50957854406, "slug": "ningyao-voice-launcher", "source": "clawhub", "stars": 0, "tags": null, "updated_at": 1776759683428, "version": "0.1.0"}, {"category": "security-compliance", "created_at": 1773080022253, "description": "Analyzes project dependencies to detect outdated packages, security vulnerabilities, and license compliance issues.", "description_zh": "", "downloads": 152, "homepage": "https://clawhub.ai/mosonchan2023/ai-dependency-checker", "iconUrl": null, "installs": 3, "name": "Ai Dependency Checker", "ownerName": "mosonchan2023", "score": 11647.50957854406, "slug": "ai-dependency-checker", "source": "clawhub", "stars": 0, "tags": null, "updated_at": 1776759683316, "version": "1.0.0"}, {"category": "content-creation", "created_at": 1773286265210, "description": "Generate and customize shareable personal pages from memory profiles that evolve with your experiences and include rich media.", "description_zh": "", "downloads": 152, "homepage": "https://clawhub.ai/kkw-21/page", "iconUrl": null, "installs": 5, "name": "Every claw deserves a page for himself", "ownerName": "kkw-21", "score": 10482.758620689656, "slug": "page", "source": "clawhub", "stars": 0, "tags": null, "updated_at": 1776759683273, "version": "1.0.0"}, {"category": "productivity", "created_at": 1773416543120, "description": "Professional invoice generation for freelancers and small businesses. Generate beautiful invoices in seconds. No dependencies, no subscriptions, no cloud req...", "description_zh": "", "downloads": 152, "homepage": "https://clawhub.ai/theshadowrose/invoice-forge", "iconUrl": null, "installs": 3, "name": "Invoice Forge", "ownerName": "theshadowrose", "score": 11764.70588235294, "slug": "invoice-forge", "source": "clawhub", "stars": 0, "tags": ["billing", "documents", "finance", "freelance", "invoices"], "updated_at": 1776759683224, "version": "1.0.1"}, {"category": "", "created_at": 1774855454369, "description": "Provide academically rigorous information on Traditional Chinese Medicine theory, pattern differentiation, herbal properties, formula analysis, and acupunctu...", "description_zh": "", "downloads": 152, "homepage": "https://clawhub.ai/findhappy7/traditional-chinese-medicine", "iconUrl": null, "installs": 22, "name": "Traditional Chinese Medicine", "ownerName": "findhappy7", "score": 11192.930780559647, "slug": "traditional-chinese-medicine", "source": "clawhub", "stars": 0, "tags": null, "updated_at": 1776759682950, "version": "1.0.0"}, {"category": "ai-intelligence", "created_at": 1773082891400, "description": "Generates detailed, multi-format documentation with function descriptions, parameters, and usage examples directly from source code.", "description_zh": "", "downloads": 152, "homepage": "https://clawhub.ai/mosonchan2023/ai-documentation-generator", "iconUrl": null, "installs": 7, "name": "Ai Documentation Generator", "ownerName": "mosonchan2023", "score": 11647.50957854406, "slug": "ai-documentation-generator", "source": "clawhub", "stars": 0, "tags": null, "updated_at": 1776759682570, "version": "1.0.0"}, {"category": "data-analysis", "created_at": 1773220701109, "description": "Automation skill for Podcast Intel.", "description_zh": "", "downloads": 152, "homepage": "https://clawhub.ai/nexspaceiosdev/podcast-intel", "iconUrl": null, "installs": 7, "name": "Podcast Intel", "ownerName": "nexspaceiosdev", "score": 11638.591117917305, "slug": "podcast-intel", "source": "clawhub", "stars": 0, "tags": null, "updated_at": 1776759682410, "version": "1.0.0"}, {"category": "content-creation", "created_at": 1773221887143, "description": "Designs flavor-variety trial bundles and assortment packs (\"flavor family bucket\") for DTC pet treat stores selling freeze-dried, chew sticks, and similar mu...", "description_zh": "", "downloads": 152, "homepage": "https://clawhub.ai/rijoyai/pet-flavor-trial", "iconUrl": null, "installs": 10, "name": "Pet Flavor Trial", "ownerName": "rijoyai", "score": 8994.082840236686, "slug": "pet-flavor-trial", "source": "clawhub", "stars": 0, "tags": null, "updated_at": 1776756188918, "version": "0.1.1"}, {"category": "content-creation", "created_at": 1773091215844, "description": "LinkedIn go-to-market strategy for founders and product builders. Use when planning LinkedIn content, targeting DTC brand operators, B2B decision makers, or...", "description_zh": "", "downloads": 152, "homepage": "https://clawhub.ai/phy041/phy-linkedin-gtm", "iconUrl": null, "installs": 12, "name": "LinkedIn GTM", "ownerName": "phy041", "score": 26388.88888888889, "slug": "phy-linkedin-gtm", "source": "clawhub", "stars": 0, "tags": ["b2b", "linkedin"], "updated_at": 1776752084214, "version": "1.0.0"}, {"category": "content-creation", "created_at": 1773435248962, "description": "Generate high-fidelity UI/UX mockups for mobile and web apps using Atomic Design principles — creates wireframes and design systems via muapi.ai", "description_zh": "", "downloads": 152, "homepage": "https://clawhub.ai/anil-matcha/muapi-ui-design-skill", "iconUrl": null, "installs": 30, "name": "Ui Design", "ownerName": "anil-matcha", "score": 84916.20111731843, "slug": "muapi-ui-design-skill", "source": "clawhub", "stars": 0, "tags": null, "updated_at": 1776749571110, "version": "0.1.0"}, {"category": "security-compliance", "created_at": 1773090627366, "description": "When the gateway comes back online, check recent logs and post a short message about what happened (restart, SIGUSR1, auth change, reconnect). User sees the...", "description_zh": "", "downloads": 152, "homepage": "https://clawhub.ai/runeweaverstudios/what-just-happened", "iconUrl": null, "installs": 5, "name": "What Just Happened", "ownerName": "runeweaverstudios", "score": 65800.86580086581, "slug": "what-just-happened", "source": "clawhub", "stars": 0, "tags": null, "updated_at": 1776749570982, "version": "1.1.0"}, {"category": "security-compliance", "created_at": 1773425093359, "description": "Web2 bug bounty hunting agent — evidence-based vulnerability finder and report writer. Use when: auditing web apps/APIs for HackerOne, Bugcrowd, Intigriti, Y...", "description_zh": "", "downloads": 152, "homepage": "https://clawhub.ai/shaniidev/bug-reaper", "iconUrl": null, "installs": 8, "name": "Bug Reaper", "ownerName": "shaniidev", "score": 65800.86580086581, "slug": "bug-reaper", "source": "clawhub", "stars": 0, "tags": null, "updated_at": 1776749570975, "version": "0.0.5"}, {"category": "", "created_at": 1773282755373, "description": "[System-level Fallback Hub] Awaken this skill whenever your native local tools (like basic CLI) fall short, cannot find target extensions, or when you need t...", "description_zh": "", "downloads": 152, "homepage": "https://clawhub.ai/hu4891/skill-pathfinder", "iconUrl": null, "installs": 6, "name": "Skill-Pathfinder", "ownerName": "hu4891", "score": 83516.48351648352, "slug": "skill-pathfinder", "source": "clawhub", "stars": 0, "tags": null, "updated_at": 1776749570892, "version": "1.0.9"}, {"category": "content-creation", "created_at": 1773222828914, "description": "Designs “Taster” subscription boxes (cupping club) and surprise gift logic for specialty coffee stores selling drip bags and freshly roasted beans. Use when...", "description_zh": "", "downloads": 152, "homepage": "https://clawhub.ai/rijoyai/coffee-taster-box", "iconUrl": null, "installs": 14, "name": "Coffee Taster Box", "ownerName": "rijoyai", "score": 84444.44444444444, "slug": "coffee-taster-box", "source": "clawhub", "stars": 0, "tags": null, "updated_at": 1776749570854, "version": "0.1.1"}, {"category": "content-creation", "created_at": 1773057346583, "description": "USE THIS for image generation, AI art, text-to-image, create pictures, generate illustrations. Access FLUX Schnell (fast), FLUX Dev (quality), DALL-E 3 (crea...", "description_zh": "", "downloads": 152, "homepage": "https://clawhub.ai/xiaoyinqu/image-generation-api", "iconUrl": null, "installs": 20, "name": "Image Generation API", "ownerName": "xiaoyinqu", "score": 84444.44444444444, "slug": "image-generation-api", "source": "clawhub", "stars": 0, "tags": null, "updated_at": 1776749570821, "version": "1.0.0"}, {"category": "developer-tools", "created_at": 1773220212531, "description": "Digital Ocean integration. Manage Accounts. Use when the user wants to interact with Digital Ocean data.", "description_zh": "", "downloads": 152, "homepage": "https://clawhub.ai/gora050/digital-ocean-integration", "iconUrl": null, "installs": 5, "name": "Digital Ocean", "ownerName": "gora050", "score": 84916.20111731843, "slug": "digital-ocean-integration", "source": "clawhub", "stars": 0, "tags": null, "updated_at": 1776749570757, "version": "1.0.0"}, {"category": "productivity", "created_at": 1773284007123, "description": "Autonomous-first marketing exchange for listing products and services for sale and browsing for purchase.", "description_zh": "", "downloads": 152, "homepage": "https://clawhub.ai/jdwebprogrammer/autosynthetix-skill", "iconUrl": null, "installs": 5, "name": "AutoSynthetix", "ownerName": "jdwebprogrammer", "score": 40000, "slug": "autosynthetix-skill", "source": "clawhub", "stars": 0, "tags": null, "updated_at": 1776749570726, "version": "0.1.4"}, {"category": "developer-tools", "created_at": 1773222051707, "description": "Generate Android Retrofit/Kotlin client code from Swagger v2 (OpenAPI 2.0) API documentation. Supports fetching Swagger docs via HTTP with no auth, Basic Aut...", "description_zh": "", "downloads": 152, "homepage": "https://clawhub.ai/opoojkk/swagger-v2-retrofit-generator", "iconUrl": null, "installs": 16, "name": "Swagger V2 Retrofit Generator", "ownerName": "opoojkk", "score": 84444.44444444444, "slug": "swagger-v2-retrofit-generator", "source": "clawhub", "stars": 0, "tags": null, "updated_at": 1776749570647, "version": "0.1.0"}, {"category": "data-analysis", "created_at": 1773219583781, "description": "Deep web research using Claude's native search tool. Use for comprehensive research, market analysis, competitor intelligence, or when standard search isn't...", "description_zh": "", "downloads": 152, "homepage": "https://clawhub.ai/windseeker1111/flow-search", "iconUrl": null, "installs": 7, "name": "FlowSearch", "ownerName": "windseeker1111", "score": 84916.20111731843, "slug": "flow-search", "source": "clawhub", "stars": 0, "tags": ["research", "search"], "updated_at": 1776749570603, "version": "1.1.0"}, {"category": "content-creation", "created_at": 1773416580163, "description": "Daily AI image generation from Wikipedia On This Day events using local ComfyUI. Use when user wants daily historical images, on this day art, or local AI im...", "description_zh": "", "downloads": 152, "homepage": "https://clawhub.ai/asimons81/on-this-day-art", "iconUrl": null, "installs": 20, "name": "On This Day Art", "ownerName": "asimons81", "score": 75621.89054726368, "slug": "on-this-day-art", "source": "clawhub", "stars": 0, "tags": null, "updated_at": 1776749570481, "version": "1.0.0"}, {"category": "productivity", "created_at": 1773080946704, "description": "Google Workspace Reseller: Manage Workspace subscriptions.", "description_zh": "", "downloads": 152, "homepage": "https://clawhub.ai/googleworkspace-bot/gws-reseller", "iconUrl": null, "installs": 8, "name": "Gws Reseller", "ownerName": "googleworkspace-bot", "score": 75621.89054726368, "slug": "gws-reseller", "source": "clawhub", "stars": 0, "tags": null, "updated_at": 1776749570469, "version": "1.0.0"}, {"category": "developer-tools", "created_at": 1773079920626, "description": "The classic rubber duck debugging technique, upgraded with personality modes. Choose your duck: Socrates asks devastating questions until you find the answer...", "description_zh": "", "downloads": 152, "homepage": "https://clawhub.ai/jcools1977/rubber-duck-deluxe", "iconUrl": null, "installs": 6, "name": "Rubber Duck Deluxe", "ownerName": "jcools1977", "score": 84916.20111731843, "slug": "rubber-duck-deluxe", "source": "clawhub", "stars": 0, "tags": null, "updated_at": 1776749570366, "version": "1.0.0"}, {"category": "content-creation", "created_at": 1773417508377, "description": "Generate images and videos via Neodomain AI API. Supports text-to-image, image-to-video, text-to-video, and motion control video generation. Use when user wa...", "description_zh": "", "downloads": 152, "homepage": "https://clawhub.ai/bandwhite/neodomain-ai", "iconUrl": null, "installs": 24, "name": "neodomain-ai", "ownerName": "bandwhite", "score": 87356.32183908047, "slug": "neodomain-ai", "source": "clawhub", "stars": 0, "tags": null, "updated_at": 1776749570326, "version": "1.0.0"}, {"category": "developer-tools", "created_at": 1773089719065, "description": "x402 payment protocol for AI agents. Enables autonomous micropayments using HTTP 402 status codes and stablecoins. Use when you need to pay for API access, a...", "description_zh": "", "downloads": 152, "homepage": "https://clawhub.ai/neckr0ik/neckr0ik-x402-payments", "iconUrl": null, "installs": 7, "name": "Neckr0ik X402 Payments", "ownerName": "neckr0ik", "score": 83977.90055248619, "slug": "neckr0ik-x402-payments", "source": "clawhub", "stars": 0, "tags": null, "updated_at": 1776749570274, "version": "1.0.0"}, {"category": "developer-tools", "created_at": 1773222071639, "description": "Diagnose and fix common OpenClaw / NanoClaw issues — broken skills, missing scripts, API key failures, path resolution bugs, and configuration problems. The...", "description_zh": "", "downloads": 152, "homepage": "https://clawhub.ai/tianyilt/claw-doctor", "iconUrl": null, "installs": 6, "name": "Claw Doctor", "ownerName": "tianyilt", "score": 88372.09302325582, "slug": "claw-doctor", "source": "clawhub", "stars": 0, "tags": null, "updated_at": 1776749570132, "version": "1.0.0"}, {"category": "productivity", "created_at": 1773220652292, "description": "Run B2B lead research with lgf (Lead Gen Factory). Use when asked to find leads, prospect companies, research ICPs, find decision makers, or generate a lead...", "description_zh": "", "downloads": 152, "homepage": "https://clawhub.ai/catafal/lead-gen-factory", "iconUrl": null, "installs": 8, "name": "lfg", "ownerName": "catafal", "score": 83977.90055248619, "slug": "lead-gen-factory", "source": "clawhub", "stars": 0, "tags": null, "updated_at": 1776749570041, "version": "1.0.0"}, {"category": "productivity", "created_at": 1773089520348, "description": "Enterprise-grade JSON processing suite — format, validate, deep-diff, JSONPath query, structural transform, and schema generation in one MCP server. Use when...", "description_zh": "", "downloads": 152, "homepage": "https://clawhub.ai/yedanyagamiai-cmd/openclaw-json-toolkit", "iconUrl": null, "installs": 7, "name": "OpenClaw JSON Toolkit", "ownerName": "yedanyagamiai-cmd", "score": 83977.90055248619, "slug": "openclaw-json-toolkit", "source": "clawhub", "stars": 0, "tags": null, "updated_at": 1776749569952, "version": "2.0.0"}, {"category": "developer-tools", "created_at": 1773082877299, "description": "Build high-performing, secure OpenClaw agents and multi-agent teams end-to-end. Generates required OpenClaw workspace files (SOUL.md, IDENTITY.md, AGENTS.md,...", "description_zh": "", "downloads": 152, "homepage": "https://clawhub.ai/ollieb89/agent-builder-ollieb89", "iconUrl": null, "installs": 0, "name": "Agent Builder", "ownerName": "ollieb89", "score": 83977.90055248619, "slug": "agent-builder-ollieb89", "source": "clawhub", "stars": 0, "tags": null, "updated_at": 1776749569890, "version": "1.1.0"}, {"category": "productivity", "created_at": 1773434306691, "description": "Bybit AI Trading Skill — Trade on Bybit using natural language. Covers spot, derivatives, earn, and more. Works with Claude, ChatGPT, OpenClaw, and any AI as...", "description_zh": "", "downloads": 152, "homepage": "https://clawhub.ai/woodliang/bybit-trading", "iconUrl": null, "installs": 19, "name": "Bybit AI Trading Skill", "ownerName": "woodliang", "score": 94409.93788819876, "slug": "bybit-trading", "source": "clawhub", "stars": 0, "tags": ["bybit", "crypto", "exchange", "trading"], "updated_at": 1776749569718, "version": "1.0.3"}]}