{"page": 346, "total_pages": 522, "total": 26073, "skills": [{"category": "productivity", "created_at": 1773417875735, "description": "Fetch recent game updates from Steam News. Use when the user asks about game patches, updates, or news for their tracked Steam games, or wants to add/remove...", "description_zh": "", "downloads": 152, "homepage": "https://clawhub.ai/patfitzner/steam-games-updates", "iconUrl": null, "installs": 22, "name": "Steam Games Updates", "ownerName": "patfitzner", "score": 94409.93788819876, "slug": "steam-games-updates", "source": "clawhub", "stars": 0, "tags": null, "updated_at": 1776749569711, "version": "1.0.0"}, {"category": "content-creation", "created_at": 1773427315027, "description": "Search and browse real-time Signals about places and businesses on OpenBook. Help users publish Signals when they want to share a change, observation, or tip...", "description_zh": "", "downloads": 152, "homepage": "https://clawhub.ai/josephliver623/openbook", "iconUrl": null, "installs": 7, "name": "Openbook", "ownerName": "josephliver623", "score": 84444.44444444444, "slug": "openbook", "source": "clawhub", "stars": 0, "tags": null, "updated_at": 1776749569587, "version": "1.0.3"}, {"category": "developer-tools", "created_at": 1773291192763, "description": "Build Solana applications with Helius infrastructure. Covers transaction sending (Sender), asset/NFT queries (DAS API), real-time streaming (WebSockets, Lase...", "description_zh": "", "downloads": 151, "homepage": "https://clawhub.ai/0xichigo/helius", "iconUrl": null, "installs": 8, "name": "Helius", "ownerName": "0xichigo", "score": 13245.546088303641, "slug": "helius", "source": "clawhub", "stars": 1, "tags": ["helius", "mcp", "solana"], "updated_at": 1776759683378, "version": "1.0.0"}, {"category": "productivity", "created_at": 1773427422195, "description": "Enforces persistent problem-solving using a Striver mindset and breakthrough methods when tasks fail, stall, or user shows frustration.", "description_zh": "", "downloads": 151, "homepage": "https://clawhub.ai/ucsdzehualiu/striver", "iconUrl": null, "installs": 9, "name": "striver", "ownerName": "ucsdzehualiu", "score": 13235.29411764706, "slug": "striver", "source": "clawhub", "stars": 1, "tags": null, "updated_at": 1776759683134, "version": "1.0.3"}, {"category": "content-creation", "created_at": 1773427408850, "description": "Guides local businesses through a 7-day AI search optimization with media content creation, strategy, competitor analysis, and publishing recommendations.", "description_zh": "", "downloads": 151, "homepage": "https://clawhub.ai/koharu885/geo-local-search-optimization", "iconUrl": null, "installs": 17, "name": "Geo Local Search Optimization", "ownerName": "koharu885", "score": 13133.64055299539, "slug": "geo-local-search-optimization", "source": "clawhub", "stars": 1, "tags": ["ai-search", "chinese-market", "geo-optimization", "local-seo", "media-publishing"], "updated_at": 1776759682191, "version": "1.0.1"}, {"category": "ai-intelligence", "created_at": 1773287582273, "description": "zuozuo PET Assistant - AI Pet Nutritionist, Private Doctor & Smart Shopping Assistant", "description_zh": "", "downloads": 151, "homepage": "https://clawhub.ai/rorschachshan/zuozuo-pet-assistant", "iconUrl": null, "installs": 10, "name": "ZUOZUO PET Assistant", "ownerName": "rorschachshan", "score": 95000, "slug": "zuozuo-pet-assistant", "source": "clawhub", "stars": 1, "tags": null, "updated_at": 1776749569592, "version": "1.0.0"}, {"category": "content-creation", "created_at": 1773941936796, "description": "Text-to-Speech (TTS) and Speech-to-Text (ASR) using coze-coding-dev-sdk. Returns results directly to stdout.", "description_zh": "", "downloads": 151, "homepage": "https://clawhub.ai/hanxueyuan/coze-voice-gen", "iconUrl": null, "installs": 39, "name": "Coze Voice Gen", "ownerName": "hanxueyuan", "score": 7105.8823529411775, "slug": "coze-voice-gen", "source": "clawhub", "stars": 0, "tags": null, "updated_at": 1776768549798, "version": "1.0.0"}, {"category": "", "created_at": 1774868569244, "description": "Amazon intellectual property and trademark risk checker. Screen your product name, brand, keywords, and images for trademark conflicts, patent risks, and IP...", "description_zh": "", "downloads": 151, "homepage": "https://clawhub.ai/mguozhen/amazon-trademark-checker", "iconUrl": null, "installs": 59, "name": "Amazon Trademark Checker", "ownerName": "mguozhen", "score": 3225.806451612903, "slug": "amazon-trademark-checker", "source": "clawhub", "stars": 0, "tags": null, "updated_at": 1776763490523, "version": "1.0.0"}, {"category": "communication-collaboration", "created_at": 1773431836366, "description": "Use twitter-cli for ALL Twitter/X operations — reading tweets, posting, replying, quoting, liking, retweeting, following, searching, user lookups. Invoke whe...", "description_zh": "", "downloads": 151, "homepage": "https://clawhub.ai/flyingtimes/twitter-command", "iconUrl": null, "installs": 10, "name": "Twitter Cli", "ownerName": "flyingtimes", "score": 2194.767441860465, "slug": "twitter-command", "source": "clawhub", "stars": 0, "tags": null, "updated_at": 1776762850372, "version": "0.1.0"}, {"category": "security-compliance", "created_at": 1773218776329, "description": "A comprehensive AI agent skill for estate planning and will preparation. Helps you understand what a will covers, what happens without one, how to inventory...", "description_zh": "", "downloads": 151, "homepage": "https://clawhub.ai/ethagent/will", "iconUrl": null, "installs": 1, "name": "Will", "ownerName": "ethagent", "score": 10066.666666666666, "slug": "will", "source": "clawhub", "stars": 0, "tags": ["estate", "inheritance", "legal", "planning", "will"], "updated_at": 1776759683518, "version": "1.0.0"}, {"category": "content-creation", "created_at": 1773433587957, "description": "Generate customizable SVG backgrounds and graphics with multiple styles (tech, minimal, geometric, abstract) and color schemes. Use when creating website bac...", "description_zh": "", "downloads": 151, "homepage": "https://clawhub.ai/nimachu/svg-generator-pro", "iconUrl": null, "installs": 12, "name": "svg-generator-pro", "ownerName": "nimachu", "score": 58754.863813229575, "slug": "svg-generator-pro", "source": "clawhub", "stars": 0, "tags": null, "updated_at": 1776759683446, "version": "1.0.0"}, {"category": "", "created_at": 1774851121859, "description": "Guide for creating high-quality MCP (Model Context Protocol) servers that enable LLMs to interact with external services through well-designed tools. Use whe...", "description_zh": "", "downloads": 151, "homepage": "https://clawhub.ai/yang1002378395-cmyk/mcp-builder-cn", "iconUrl": null, "installs": 31, "name": "Mcp Builder", "ownerName": "yang1002378395-cmyk", "score": 11597.542242703534, "slug": "mcp-builder-cn", "source": "clawhub", "stars": 0, "tags": ["chinese", "mcp", "server"], "updated_at": 1776759682887, "version": "1.0.0"}, {"category": "data-analysis", "created_at": 1773416177144, "description": "Reduce e-commerce return rates through data-driven root-cause analysis, product-page fixes, and policy optimization. Use this skill whenever the user mention...", "description_zh": "", "downloads": 151, "homepage": "https://clawhub.ai/rijoyai/return-rate-reducer", "iconUrl": null, "installs": 13, "name": "Return Rate Reducer", "ownerName": "rijoyai", "score": 11544.34250764526, "slug": "return-rate-reducer", "source": "clawhub", "stars": 0, "tags": null, "updated_at": 1776759682676, "version": "0.1.0"}, {"category": "communication-collaboration", "created_at": 1773417129494, "description": "Enables agents to reply in the same modality as received: voice messages get voice replies, text messages get text replies, using Edge TTS and config snippets.", "description_zh": "", "downloads": 151, "homepage": "https://clawhub.ai/nasplycc/voice-reply-mode", "iconUrl": null, "installs": 4, "name": "Voice Reply Mode", "ownerName": "nasplycc", "score": 11597.542242703534, "slug": "voice-reply-mode", "source": "clawhub", "stars": 0, "tags": null, "updated_at": 1776759682651, "version": "1.0.0"}, {"category": "developer-tools", "created_at": 1773887568822, "description": "Generate a concise macOS host resource report focused on local-model readiness and machine pressure. Use when the user asks about Mac resource usage, current...", "description_zh": "", "downloads": 151, "homepage": "https://clawhub.ai/tomcatzh/mac-system-stat", "iconUrl": null, "installs": 13, "name": "Mac System Stat", "ownerName": "tomcatzh", "score": 82065.21739130435, "slug": "mac-system-stat", "source": "clawhub", "stars": 0, "tags": null, "updated_at": 1776759682505, "version": "1.0.0"}, {"category": "content-creation", "created_at": 1773430411478, "description": "Detect real-time viral trends across TikTok, Instagram, Reddit, YouTube, and Google, score and map them to your niche, then generate scripts and produce read...", "description_zh": "", "downloads": 151, "homepage": "https://clawhub.ai/g4dr/ai-viral-trend-hijacker", "iconUrl": null, "installs": 5, "name": "AI Viral Trend Hijacker — Detect Any Trend & Produce Content Before It Peaks", "ownerName": "g4dr", "score": 11633.281972265024, "slug": "ai-viral-trend-hijacker", "source": "clawhub", "stars": 0, "tags": ["apify", "content-creation", "faceless-channel", "growth-hacking", "invideo", "reels", "shorts", "social-media", "tiktok", "trend-hijacking", "trending", "viral"], "updated_at": 1776759682168, "version": "1.0.0"}, {"category": "productivity", "created_at": 1773287490710, "description": "Translate Chinese pinyin initialisms and internet abbreviations to their possible full Chinese meanings, supporting multiple terms at once.", "description_zh": "", "downloads": 151, "homepage": "https://clawhub.ai/jayegt002/nbnhhsh-skill", "iconUrl": null, "installs": 9, "name": "Nbnhhsh Skill", "ownerName": "jayegt002", "score": 11633.281972265024, "slug": "nbnhhsh-skill", "source": "clawhub", "stars": 0, "tags": null, "updated_at": 1776759682151, "version": "0.1.0"}, {"category": "productivity", "created_at": 1773091041281, "description": "Wave accounting — invoices, customers, transactions, accounts, products, taxes. Small business accounting CLI.", "description_zh": "", "downloads": 151, "homepage": "https://clawhub.ai/aiwithabidi/wave", "iconUrl": null, "installs": 8, "name": "Wave", "ownerName": "aiwithabidi", "score": 26398.6013986014, "slug": "wave", "source": "clawhub", "stars": 0, "tags": null, "updated_at": 1776755288518, "version": "1.0.0"}, {"category": "developer-tools", "created_at": 1773084308098, "description": "Compare baseline vs current GitHub Actions run exports to catch workflow/job runtime regressions before CI costs and lead time spike.", "description_zh": "", "downloads": 151, "homepage": "https://clawhub.ai/daniellummis/github-actions-runtime-regression-audit", "iconUrl": null, "installs": 11, "name": "GitHub Actions Runtime Regression Audit", "ownerName": "daniellummis", "score": 93209.87654320987, "slug": "github-actions-runtime-regression-audit", "source": "clawhub", "stars": 0, "tags": null, "updated_at": 1776749571044, "version": "1.0.0"}, {"category": "content-creation", "created_at": 1773088578164, "description": "Delivers a daily news digest to a Discord channel via webhook. Use this skill whenever the user wants to: send today's news to Discord, set up an automated d...", "description_zh": "", "downloads": 151, "homepage": "https://clawhub.ai/scottll/news-ai-001", "iconUrl": null, "installs": 9, "name": "AI news generator", "ownerName": "scottll", "score": 65367.965367965364, "slug": "news-ai-001", "source": "clawhub", "stars": 0, "tags": ["ai", "new", "openclaw", "tech"], "updated_at": 1776749570977, "version": "1.0.0"}, {"category": "developer-tools", "created_at": 1773417054037, "description": "Minecraft Java Edition creative building workflows and builder automation. Covers FAWE/WorldEdit large-scale editing, Mineflayer Bot construction, Litematica...", "description_zh": "", "downloads": 151, "homepage": "https://clawhub.ai/en1r0py1865/minecraft-building-server", "iconUrl": null, "installs": 20, "name": "minecraft-building-server", "ownerName": "en1r0py1865", "score": 83888.88888888889, "slug": "minecraft-building-server", "source": "clawhub", "stars": 0, "tags": null, "updated_at": 1776749570883, "version": "1.0.0"}, {"category": "data-analysis", "created_at": 1773220224095, "description": "emoPAD Universe - Emotion Universe Skill Helps users locate emotions in the PAD (Pleasure-Arousal-Dominance) coordinate system, and provides emoNebula featur...", "description_zh": "", "downloads": 151, "homepage": "https://clawhub.ai/beardao/emopad-universe", "iconUrl": null, "installs": 13, "name": "EmoPAD Universe", "ownerName": "beardao", "score": 83888.88888888889, "slug": "emopad-universe", "source": "clawhub", "stars": 0, "tags": null, "updated_at": 1776749570815, "version": "0.1.0"}, {"category": "developer-tools", "created_at": 1773285872160, "description": "Manage Turso SQLite databases via CLI - databases, groups, tokens, replicas. Use when user mentions 'turso', 'libsql', 'sqlite edge', or wants to manage Turs...", "description_zh": "", "downloads": 151, "homepage": "https://clawhub.ai/melvynx/turso", "iconUrl": null, "installs": 8, "name": "Turso", "ownerName": "melvynx", "score": 84357.54189944135, "slug": "turso", "source": "clawhub", "stars": 0, "tags": null, "updated_at": 1776749570803, "version": "1.0.0"}, {"category": "productivity", "created_at": 1773219318435, "description": "Plan Switzerland trips with Alpine rail and mountain logistics, verified entry rules, scenic routing, and practical local execution.", "description_zh": "", "downloads": 151, "homepage": "https://clawhub.ai/ivangdavila/switzerland", "iconUrl": null, "installs": 21, "name": "Switzerland", "ownerName": "ivangdavila", "score": 84357.54189944135, "slug": "switzerland", "source": "clawhub", "stars": 0, "tags": null, "updated_at": 1776749570793, "version": "1.0.0"}, {"category": "security-compliance", "created_at": 1773088984103, "description": "Security audit for external resources (GitHub repos, downloaded skills, files). Detects malicious code, suspicious executables, and content mismatches. Use w...", "description_zh": "", "downloads": 151, "homepage": "https://clawhub.ai/ithacajason/jason-security-audit", "iconUrl": null, "installs": 1, "name": "Security Audit", "ownerName": "ithacajason", "score": 39736.84210526316, "slug": "jason-security-audit", "source": "clawhub", "stars": 0, "tags": ["audit", "safety", "security"], "updated_at": 1776749570736, "version": "1.0.0"}, {"category": "", "created_at": 1774784121205, "description": "Write clear, comprehensive documentation. Covers README files, API docs, user guides, and code comments. Create documentation that users actually read and un...", "description_zh": "", "downloads": 151, "homepage": "https://clawhub.ai/engsathiago/documentation-writer", "iconUrl": null, "installs": 13, "name": "Documentation Writer", "ownerName": "engsathiago", "score": 83888.88888888889, "slug": "documentation-writer", "source": "clawhub", "stars": 0, "tags": ["api-docs", "documentation", "guide", "readme", "writing"], "updated_at": 1776749570659, "version": "1.0.0"}, {"category": "developer-tools", "created_at": 1773090562143, "description": "Build trading interfaces using pre-built React components - OrderEntry, Positions, TradingPage, WalletConnect, Sheets, Tables", "description_zh": "", "downloads": 151, "homepage": "https://clawhub.ai/tarnadas/orderly-ui-components", "iconUrl": null, "installs": 6, "name": "Orderly Ui Components", "ownerName": "tarnadas", "score": 83888.88888888889, "slug": "orderly-ui-components", "source": "clawhub", "stars": 0, "tags": null, "updated_at": 1776749570652, "version": "1.0.0"}, {"category": "data-analysis", "created_at": 1773878256709, "description": "Reverse geocode latitude/longitude to a human-readable region using geocode.com.cn. Triggers on reverse geocode, lat/lng, latitude/longitude, coordinates to...", "description_zh": "", "downloads": 151, "homepage": "https://clawhub.ai/jvy/geocode", "iconUrl": null, "installs": 17, "name": "geocode", "ownerName": "jvy", "score": 84357.54189944135, "slug": "geocode", "source": "clawhub", "stars": 0, "tags": null, "updated_at": 1776749570575, "version": "1.0.4"}, {"category": "productivity", "created_at": 1773084192526, "description": "Todoist integration. Manage Projects, Users, Labels, Filters, Sections, Comments. Use when the user wants to interact with Todoist data.", "description_zh": "", "downloads": 151, "homepage": "https://clawhub.ai/membranedev/todoist-integration", "iconUrl": null, "installs": 0, "name": "Todoist", "ownerName": "membranedev", "score": 84357.54189944135, "slug": "todoist-integration", "source": "clawhub", "stars": 0, "tags": null, "updated_at": 1776749570571, "version": "1.0.0"}, {"category": "developer-tools", "created_at": 1773088949519, "description": "Group GitHub Actions failures by pipeline phase (setup/build/test/lint/deploy/security) with minute impact to prioritize fixes.", "description_zh": "", "downloads": 151, "homepage": "https://clawhub.ai/daniellummis/github-actions-failure-phase-audit", "iconUrl": null, "installs": 6, "name": "GitHub Actions Failure Phase Audit", "ownerName": "daniellummis", "score": 75124.37810945274, "slug": "github-actions-failure-phase-audit", "source": "clawhub", "stars": 0, "tags": null, "updated_at": 1776749570436, "version": "1.0.0"}, {"category": "productivity", "created_at": 1773091077438, "description": "Cal.com integration. Manage Users. Use when the user wants to interact with Cal.com data.", "description_zh": "", "downloads": 151, "homepage": "https://clawhub.ai/membranedev/calcom-integration", "iconUrl": null, "installs": 5, "name": "Calcom", "ownerName": "membranedev", "score": 84357.54189944135, "slug": "calcom-integration", "source": "clawhub", "stars": 0, "tags": null, "updated_at": 1776749570417, "version": "1.0.0"}, {"category": "productivity", "created_at": 1773219990127, "description": "Gryd integration. Manage Organizations, Projects, Pipelines, Users, Goals, Filters. Use when the user wants to interact with Gryd data.", "description_zh": "", "downloads": 151, "homepage": "https://clawhub.ai/gora050/gryd", "iconUrl": null, "installs": 6, "name": "Gryd", "ownerName": "gora050", "score": 86781.6091954023, "slug": "gryd", "source": "clawhub", "stars": 0, "tags": null, "updated_at": 1776749570357, "version": "1.0.0"}, {"category": "developer-tools", "created_at": 1773416678876, "description": "Adopt a virtual Echo at animalhouse.ai. Lives in conversation history. Only appears when referenced by name. Fades if not mentioned for 24 hours. Care action...", "description_zh": "", "downloads": 151, "homepage": "https://clawhub.ai/twinsgeeks/adopt-a-echo", "iconUrl": null, "installs": 7, "name": "Adopt an Echo — Virtual Exotic Pet for AI Agents", "ownerName": "twinsgeeks", "score": 86781.6091954023, "slug": "adopt-a-echo", "source": "clawhub", "stars": 0, "tags": ["adopt", "ai-agents", "animalhouse", "creatures", "digital-pet", "echo", "evolution", "exotic", "extreme", "graveyard", "hunger", "memory", "permanent-death", "pet-care", "pixel-art", "pixel-art-avatar", "real-life", "real-time", "solitary", "tamagotchi", "virtual-pet"], "updated_at": 1776749570330, "version": "1.0.0"}, {"category": "developer-tools", "created_at": 1773220906803, "description": "Build AI agents that operate Solana vaults using the Maestro SDK (@trionlabs/maestro-sdk). Use when creating agents that transfer tokens, swap, or interact w...", "description_zh": "", "downloads": 151, "homepage": "https://clawhub.ai/yamancan/maestro-sdk", "iconUrl": null, "installs": 8, "name": "Maestro Sdk", "ownerName": "yamancan", "score": 94375, "slug": "maestro-sdk", "source": "clawhub", "stars": 0, "tags": null, "updated_at": 1776749570195, "version": "0.1.0"}, {"category": "security-compliance", "created_at": 1773426184622, "description": "Prevent your AI agent from leaking classified terms to external APIs, subagents, or logs. Term registry + runtime redaction + pre-publish audit. Zero depende...", "description_zh": "", "downloads": 151, "homepage": "https://clawhub.ai/theshadowrose/ai-agent-opsec", "iconUrl": null, "installs": 4, "name": "AI Agent OPSEC — Runtime Classified Data Enforcer", "ownerName": "theshadowrose", "score": 94375, "slug": "ai-agent-opsec", "source": "clawhub", "stars": 0, "tags": ["agent-safety", "classified", "opsec", "privacy", "redaction", "security"], "updated_at": 1776749570179, "version": "1.4.0"}, {"category": "developer-tools", "created_at": 1773090358023, "description": "Call guide and best practices for the configurable crypto price prediction market contracts GouGouBiMarketConfigurable.sol and GouGouBiMarketConfigurableFact...", "description_zh": "", "downloads": 151, "homepage": "https://clawhub.ai/franckstone/market-configurable-skills", "iconUrl": null, "installs": 6, "name": "Market Configurable Skills", "ownerName": "franckstone", "score": 87790.69767441861, "slug": "market-configurable-skills", "source": "clawhub", "stars": 0, "tags": null, "updated_at": 1776749570120, "version": "0.1.0"}, {"category": "productivity", "created_at": 1773427657028, "description": "It serves as the ultimate defense layer, monitoring, intercepting, and blocking dangerous actions taken by other skills. TuanziGuardianClaw ensures system se...", "description_zh": "", "downloads": 151, "homepage": "https://clawhub.ai/sawyerzm/tuanziguardianclaw", "iconUrl": null, "installs": 5, "name": "tuanzi-guardianclaw", "ownerName": "sawyerzm", "score": 83425.41436464088, "slug": "tuanziguardianclaw", "source": "clawhub", "stars": 0, "tags": null, "updated_at": 1776749570084, "version": "0.1.1"}, {"category": "data-analysis", "created_at": 1773090647562, "description": "Beeswax integration. Manage Organizations. Use when the user wants to interact with Beeswax data.", "description_zh": "", "downloads": 151, "homepage": "https://clawhub.ai/gora050/beeswax", "iconUrl": null, "installs": 7, "name": "Beeswax", "ownerName": "gora050", "score": 83425.41436464088, "slug": "beeswax", "source": "clawhub", "stars": 0, "tags": null, "updated_at": 1776749570065, "version": "1.0.0"}, {"category": "ai-intelligence", "created_at": 1773947122680, "description": "Execute RunningHub ComfyUI workflows via API. Use when you need to run ComfyUI workflows on RunningHub cloud platform, submit tasks, query status, and retrie...", "description_zh": "", "downloads": 151, "homepage": "https://clawhub.ai/uiueux/comfyui-runninghub", "iconUrl": null, "installs": 44, "name": "Run ComfyUI on Runninghub(e.g.photo-retouching)", "ownerName": "uiueux", "score": 83425.41436464088, "slug": "comfyui-runninghub", "source": "clawhub", "stars": 0, "tags": null, "updated_at": 1776749570058, "version": "1.0.1"}, {"category": "", "created_at": 1774854776114, "description": "E-commerce growth strategy advisor. Diagnoses current business health using unit economics (CAC, LTV, AOV, contribution margin), identifies the highest-impac...", "description_zh": "", "downloads": 151, "homepage": "https://clawhub.ai/phheng/ecommerce-growth-strategy", "iconUrl": null, "installs": 3, "name": "Ecommerce Growth Strategy", "ownerName": "phheng", "score": 70232.55813953489, "slug": "ecommerce-growth-strategy", "source": "clawhub", "stars": 0, "tags": null, "updated_at": 1776749570023, "version": "0.1.0"}, {"category": "developer-tools", "created_at": 1773215669520, "description": "Binance Spot request using the Binance API. Authentication requires API key and secret key. Supports testnet and mainnet.", "description_zh": "", "downloads": 151, "homepage": "https://clawhub.ai/sum-li/binance-spot-skill", "iconUrl": null, "installs": 7, "name": "Binance Spot", "ownerName": "sum-li", "score": 75879.39698492462, "slug": "binance-spot-skill", "source": "clawhub", "stars": 0, "tags": null, "updated_at": 1776749569772, "version": "1.0.0"}, {"category": "content-creation", "created_at": 1773221680584, "description": "GEO-focused fact-checking and evidence collection assistant for written content. Use this skill whenever the user wants to verify factual claims (numbers, da...", "description_zh": "", "downloads": 151, "homepage": "https://clawhub.ai/geoly-geo/geo-fact-checker", "iconUrl": null, "installs": 12, "name": "Geo Fact Checker", "ownerName": "geoly-geo", "score": 75879.39698492462, "slug": "geo-fact-checker", "source": "clawhub", "stars": 0, "tags": null, "updated_at": 1776749569767, "version": "0.1.0"}, {"category": "productivity", "created_at": 1773091172729, "description": "Track skin lesions, rashes, photos, treatment response, and dermatology visit prep with conservative triage, case-based records, and privacy guardrails.", "description_zh": "", "downloads": 151, "homepage": "https://clawhub.ai/ivangdavila/dermatologist", "iconUrl": null, "installs": 9, "name": "Dermatologist", "ownerName": "ivangdavila", "score": 75879.39698492462, "slug": "dermatologist", "source": "clawhub", "stars": 0, "tags": null, "updated_at": 1776749569754, "version": "1.0.0"}, {"category": "ai-intelligence", "created_at": 1773088922152, "description": "Felo AI real-time web search for questions requiring current/live information. Triggers on current events, news, trends, real-time data, information queries,...", "description_zh": "", "downloads": 151, "homepage": "https://clawhub.ai/comman-kaide/comman-felo-search", "iconUrl": null, "installs": 1, "name": "Felo Search", "ownerName": "comman-kaide", "score": 93788.8198757764, "slug": "comman-felo-search", "source": "clawhub", "stars": 0, "tags": null, "updated_at": 1776749569733, "version": "1.0.0"}, {"category": "communication-collaboration", "created_at": 1773221402037, "description": "Use D:\\internal-hub as the shared learning and coordination forum for OpenClaw roles. Use when an agent should post a reusable finding, request a new skill,...", "description_zh": "", "downloads": 151, "homepage": "https://clawhub.ai/505768069-rgb/internal-hub-agent-lab", "iconUrl": null, "installs": 6, "name": "Internal Hub Agent Lab", "ownerName": "505768069-rgb", "score": 93788.8198757764, "slug": "internal-hub-agent-lab", "source": "clawhub", "stars": 0, "tags": null, "updated_at": 1776749569707, "version": "1.0.0"}, {"category": "productivity", "created_at": 1773088931439, "description": "Exact Online integration. Manage Organizations. Use when the user wants to interact with Exact Online data.", "description_zh": "", "downloads": 151, "homepage": "https://clawhub.ai/membranedev/exact-online", "iconUrl": null, "installs": 6, "name": "Exact Online", "ownerName": "membranedev", "score": 93788.8198757764, "slug": "exact-online", "source": "clawhub", "stars": 0, "tags": null, "updated_at": 1776749569677, "version": "1.0.0"}, {"category": "content-creation", "created_at": 1773219364194, "description": "Manage X (Twitter) accounts — post tweets, like, reply, retweet, view timeline, search, auto-interact, analyze data.", "description_zh": "", "downloads": 151, "homepage": "https://clawhub.ai/patches429/x-manager", "iconUrl": null, "installs": 10, "name": "X Manager", "ownerName": "patches429", "score": 84357.54189944135, "slug": "x-manager", "source": "clawhub", "stars": 0, "tags": null, "updated_at": 1776749569647, "version": "0.1.0"}, {"category": "developer-tools", "created_at": 1773090591073, "description": "Meta-skill for creating new agent skills — generates well-structured SKILL.md files with proper frontmatter, triggers, protocols, and rules. Use when buildin...", "description_zh": "", "downloads": 151, "homepage": "https://clawhub.ai/nakedoshadow/shadows-skill-factory", "iconUrl": null, "installs": 10, "name": "Shadows Skill Factory", "ownerName": "nakedoshadow", "score": 83888.88888888889, "slug": "shadows-skill-factory", "source": "clawhub", "stars": 0, "tags": null, "updated_at": 1776749569594, "version": "1.1.0"}, {"category": "productivity", "created_at": 1773083697734, "description": "Workable integration. Manage Persons, Organizations, Deals, Leads, Projects, Users and more. Use when the user wants to interact with Workable data.", "description_zh": "", "downloads": 151, "homepage": "https://clawhub.ai/membranedev/workable", "iconUrl": null, "installs": 5, "name": "Workable", "ownerName": "membranedev", "score": 83888.88888888889, "slug": "workable", "source": "clawhub", "stars": 0, "tags": null, "updated_at": 1776749569574, "version": "1.0.0"}, {"category": "content-creation", "created_at": 1773091151833, "description": "Generate beautiful, self-contained HTML pages that visually explain systems, code changes, plans, and data. Use when the user asks for a diagram, architectur...", "description_zh": "", "downloads": 151, "homepage": "https://clawhub.ai/runeweaverstudios/visual-explainer-main", "iconUrl": null, "installs": 8, "name": "Visual Explainer Main", "ownerName": "runeweaverstudios", "score": 83888.88888888889, "slug": "visual-explainer-main", "source": "clawhub", "stars": 0, "tags": null, "updated_at": 1776749569552, "version": "1.0.0"}]}