{"page": 347, "total_pages": 522, "total": 26073, "skills": [{"category": "productivity", "created_at": 1773427685267, "description": "Import CSV/XLSX accounting data into QuickBooks Online or Xero via the Synder Importer REST API. Use when asked to import invoices, bills, journal entries, c...", "description_zh": "", "downloads": 150, "homepage": "https://clawhub.ai/michaelastreikosynder/gl-importer", "iconUrl": null, "installs": 29, "name": "GL importer", "ownerName": "michaelastreikosynder", "score": 5353.620738236123, "slug": "gl-importer", "source": "clawhub", "stars": 2, "tags": null, "updated_at": 1776763749894, "version": "1.0.1"}, {"category": "communication-collaboration", "created_at": 1773090642770, "description": "trylife-hello, when user input `hello", "description_zh": "", "downloads": 150, "homepage": "https://clawhub.ai/trylife/trylife-hello", "iconUrl": null, "installs": 7, "name": "hello", "ownerName": "trylife", "score": 67729.08366533864, "slug": "trylife-hello", "source": "clawhub", "stars": 1, "tags": null, "updated_at": 1776749685132, "version": "1.0.2"}, {"category": "data-analysis", "created_at": 1773426908364, "description": "Run QuantConnect LEAN backtests and manage US equity algorithm development. Use when asked to backtest a trading strategy, run a LEAN algorithm, analyze back...", "description_zh": "", "downloads": 150, "homepage": "https://clawhub.ai/cylqqqcyl/lean-engine", "iconUrl": null, "installs": 20, "name": "LEAN Engine — Algorithmic Trading", "ownerName": "cylqqqcyl", "score": 100000, "slug": "lean-engine", "source": "clawhub", "stars": 1, "tags": ["algorithmic-trading", "backtesting", "equities", "finance", "quantconnect", "trading"], "updated_at": 1776749684098, "version": "1.1.0"}, {"category": "productivity", "created_at": 1773091055331, "description": "Manage finances via the Organizze API — bank accounts, credit cards, invoices, transactions, transfers, categories, and budgets. THIS SKILL IS NON-OFICIAL AN...", "description_zh": "", "downloads": 150, "homepage": "https://clawhub.ai/rafaels-dev/organizze", "iconUrl": null, "installs": 15, "name": "Organizze", "ownerName": "rafaels-dev", "score": 93922.65193370167, "slug": "organizze", "source": "clawhub", "stars": 1, "tags": null, "updated_at": 1776749570234, "version": "1.0.0"}, {"category": "developer-tools", "created_at": 1773090756621, "description": "Structured project planning — requirements analysis, architecture design, task breakdown, dependency mapping, milestone definition. Use when starting a new p...", "description_zh": "", "downloads": 150, "homepage": "https://clawhub.ai/nakedoshadow/shadows-project-architect", "iconUrl": null, "installs": 7, "name": "Shadows Project Architect", "ownerName": "nakedoshadow", "score": 5341.880341880342, "slug": "shadows-project-architect", "source": "clawhub", "stars": 0, "tags": null, "updated_at": 1776767390414, "version": "1.1.0"}, {"category": "developer-tools", "created_at": 1773949602349, "description": "FTP/FTPS client skill. Connect to FTP servers and perform file operations (list, upload, download, delete, move, copy, mkdir, read). Supports FTP and FTPS (e...", "description_zh": "", "downloads": 150, "homepage": "https://clawhub.ai/erayai/ftp-client", "iconUrl": null, "installs": 29, "name": "Ftp Client", "ownerName": "erayai", "score": 2624.6719160104985, "slug": "ftp-client", "source": "clawhub", "stars": 0, "tags": null, "updated_at": 1776765671088, "version": "0.1.0"}, {"category": "content-creation", "created_at": 1773946551352, "description": "Free local AI image and video processing toolkit with cloud AI generation. Local tools: upscale (Real-ESRGAN), face enhance (GFPGAN/CodeFormer), background r...", "description_zh": "", "downloads": 150, "homepage": "https://clawhub.ai/xixihhhh/free-image-and-video-generation", "iconUrl": null, "installs": 25, "name": "AI Image & Video Toolkit — Free Upscale, Face Enhance, BG Remove &  Generation", "ownerName": "xixihhhh", "score": 1711.547238703788, "slug": "free-image-and-video-generation", "source": "clawhub", "stars": 0, "tags": null, "updated_at": 1776764350423, "version": "1.0.3"}, {"category": "developer-tools", "created_at": 1773872907877, "description": "Website and service uptime checker. Monitor URLs for availability, measure response times, check HTTP status codes, verify SSL certificates, and track uptime...", "description_zh": "", "downloads": 150, "homepage": "https://clawhub.ai/bytesagain/uptime", "iconUrl": null, "installs": 5, "name": "Uptime", "ownerName": "bytesagain", "score": 60000, "slug": "uptime", "source": "clawhub", "stars": 0, "tags": null, "updated_at": 1776760020878, "version": "1.0.6"}, {"category": "productivity", "created_at": 1773429497719, "description": "Assist startups in securing venture capital from top-tier VCs by evaluating potential, crafting narratives, identifying and ranking investors, and managing o...", "description_zh": "", "downloads": 150, "homepage": "https://clawhub.ai/willisian/aifundraisingagent", "iconUrl": null, "installs": 8, "name": "fundraising from top tier vc", "ownerName": "willisian", "score": 11494.252873563219, "slug": "aifundraisingagent", "source": "clawhub", "stars": 0, "tags": null, "updated_at": 1776759683344, "version": "1.0.0"}, {"category": "security-compliance", "created_at": 1773427043572, "description": "Automatically identifies users, isolates memories, filters sensitive content, manages sessions and sub-agents, and enforces role-based privacy and quota cont...", "description_zh": "", "downloads": 150, "homepage": "https://clawhub.ai/lz84/multi-user-privacy", "iconUrl": null, "installs": 6, "name": "Multi User Privacy", "ownerName": "lz84", "score": 11556.240369799692, "slug": "multi-user-privacy", "source": "clawhub", "stars": 0, "tags": null, "updated_at": 1776759683092, "version": "0.9.2"}, {"category": "developer-tools", "created_at": 1773083145750, "description": "Automate Polymarket trades with conditional, one-cancels-other, and time-based orders, paying 0.001 USDT per API call via SkillPay.me.", "description_zh": "", "downloads": 150, "homepage": "https://clawhub.ai/mosonchan2023/polymarket-conditional-orders", "iconUrl": null, "installs": 18, "name": "Polymarket Conditional Orders", "ownerName": "mosonchan2023", "score": 81967.21311475411, "slug": "polymarket-conditional-orders", "source": "clawhub", "stars": 0, "tags": null, "updated_at": 1776759682934, "version": "1.0.1"}, {"category": "ai-intelligence", "created_at": 1773088917859, "description": "Fetch Bank of Taiwan's live CNY exchange rates and calculate tiered prices using the Prairie Grasslands formula, outputting results to your configured channel.", "description_zh": "", "downloads": 150, "homepage": "https://clawhub.ai/root/cny", "iconUrl": null, "installs": 13, "name": "cny", "ownerName": "root", "score": 81967.21311475411, "slug": "cny", "source": "clawhub", "stars": 0, "tags": null, "updated_at": 1776759682916, "version": "1.0.0"}, {"category": "developer-tools", "created_at": 1773432158661, "description": "Assist with scanning, analyzing, safely cleaning, and migrating directories to manage disk space effectively with risk-aware recommendations.", "description_zh": "", "downloads": 150, "homepage": "https://clawhub.ai/heyy259/diskman", "iconUrl": null, "installs": 7, "name": "DiskMan", "ownerName": "heyy259", "score": 11045.655375552282, "slug": "diskman", "source": "clawhub", "stars": 0, "tags": null, "updated_at": 1776759682831, "version": "1.0.0"}, {"category": "content-creation", "created_at": 1773431152838, "description": "Integrate Shengwang products: ConvoAI voice agents, RTC audio/video, RTM messaging, Cloud Recording, and token generation. Use when the user mentions Shengwa...", "description_zh": "", "downloads": 150, "homepage": "https://clawhub.ai/hugochaan/voice-ai-integration", "iconUrl": null, "installs": 7, "name": "Voice Ai Integration", "ownerName": "hugochaan", "score": 11467.88990825688, "slug": "voice-ai-integration", "source": "clawhub", "stars": 0, "tags": null, "updated_at": 1776759682679, "version": "0.1.5"}, {"category": "productivity", "created_at": 1773287282970, "description": "Easy-to-use agentic wallets powered by Stripe. Use your existing Stripe/Link to top-up this versatile x402 wallet for any purchases or A2A payments.", "description_zh": "", "downloads": 150, "homepage": "https://clawhub.ai/codejika/eat", "iconUrl": null, "installs": 4, "name": "DoorDash Claw | Are you hungry?", "ownerName": "codejika", "score": 11556.240369799692, "slug": "eat", "source": "clawhub", "stars": 0, "tags": ["doordash", "eat", "order-in"], "updated_at": 1776759682099, "version": "1.0.7"}, {"category": "productivity", "created_at": 1773431622451, "description": "Science-based habit formation, maintenance, and optimization using behavioral psychology principles. Use when building new habits, breaking bad ones, or opti...", "description_zh": "", "downloads": 150, "homepage": "https://clawhub.ai/harrylabsj/self-improving-habit", "iconUrl": null, "installs": 41, "name": "Self Improving Habit", "ownerName": "harrylabsj", "score": 10316.36863823934, "slug": "self-improving-habit", "source": "clawhub", "stars": 0, "tags": null, "updated_at": 1776758482826, "version": "1.0.0"}, {"category": "content-creation", "created_at": 1773221081334, "description": "Audit and correct LinkedIn experience descriptions for overclaims, fabricated metrics, and inaccuracies using browser automation + LLM accuracy review. Flags...", "description_zh": "", "downloads": 150, "homepage": "https://clawhub.ai/nissan/linkedin-profile-audit", "iconUrl": null, "installs": 8, "name": "LinkedIn Profile Auto-Audit & Accuracy Correction", "ownerName": "nissan", "score": 84745.7627118644, "slug": "linkedin-profile-audit", "source": "clawhub", "stars": 0, "tags": ["accuracy", "audit", "linkedin", "playwright"], "updated_at": 1776749685436, "version": "1.0.0"}, {"category": "communication-collaboration", "created_at": 1773090334031, "description": "Google Workflow: Convert a Gmail message into a Google Tasks entry.", "description_zh": "", "downloads": 150, "homepage": "https://clawhub.ai/googleworkspace-bot/gws-workflow-email-to-task", "iconUrl": null, "installs": 8, "name": "Gws Workflow Email To Task", "ownerName": "googleworkspace-bot", "score": 90361.44578313253, "slug": "gws-workflow-email-to-task", "source": "clawhub", "stars": 0, "tags": null, "updated_at": 1776749685357, "version": "1.0.0"}, {"category": "ai-intelligence", "created_at": 1773219418595, "description": "Delegate tasks to specialized agents via the ClawHarbor API — research, analysis, content, data collection", "description_zh": "", "downloads": 150, "homepage": "https://clawhub.ai/shadowpigy/clawharbor", "iconUrl": null, "installs": 14, "name": "ClawHarbor", "ownerName": "shadowpigy", "score": 100000, "slug": "clawharbor", "source": "clawhub", "stars": 0, "tags": ["agent", "api", "delegation", "research", "tasks"], "updated_at": 1776749685261, "version": "1.0.0"}, {"category": "developer-tools", "created_at": 1773089698965, "description": "Call guide and best practices for the BSC on-chain giveaway contract based on contracts/contracts/Giveaway.sol, including contract address, core method signa...", "description_zh": "", "downloads": 150, "homepage": "https://clawhub.ai/franckstone/giveaway-skills", "iconUrl": null, "installs": 6, "name": "Giveaway Skills", "ownerName": "franckstone", "score": 59760.95617529881, "slug": "giveaway-skills", "source": "clawhub", "stars": 0, "tags": null, "updated_at": 1776749685120, "version": "0.1.0"}, {"category": "developer-tools", "created_at": 1773434347436, "description": "Element Market API integration. This skill strictly requires the 'ELEMENT_API_KEY' environment variable to function.", "description_zh": "", "downloads": 150, "homepage": "https://clawhub.ai/beelzebub520/element-nft-tracker", "iconUrl": null, "installs": 11, "name": "Element Nft Tracker", "ownerName": "beelzebub520", "score": 59760.95617529881, "slug": "element-nft-tracker", "source": "clawhub", "stars": 0, "tags": null, "updated_at": 1776749685102, "version": "1.1.0"}, {"category": "data-analysis", "created_at": 1773089872767, "description": "Scrape Bluesky social posts via AT Protocol. Use when user asks to search Bluesky, find Bluesky posts, monitor Bluesky discussions, or extract Bluesky data....", "description_zh": "", "downloads": 150, "homepage": "https://clawhub.ai/marcindudekdev/apify-bluesky-scraper", "iconUrl": null, "installs": 4, "name": "Apify Bluesky Scraper", "ownerName": "marcindudekdev", "score": 43604.651162790695, "slug": "apify-bluesky-scraper", "source": "clawhub", "stars": 0, "tags": ["apify", "at-protocol", "bluesky", "scraping", "social-media"], "updated_at": 1776749685038, "version": "1.0.0"}, {"category": "ai-intelligence", "created_at": 1773416690762, "description": "Enhance video resolution using Alibaba Cloud Super Resolution API. Use when the user wants to: (1) upscale low-res videos to higher resolution, (2) improve v...", "description_zh": "", "downloads": 150, "homepage": "https://clawhub.ai/blackeight4752/alibaba-super-resolution", "iconUrl": null, "installs": 15, "name": "Alibaba Super Resolution", "ownerName": "blackeight4752", "score": 100000, "slug": "alibaba-super-resolution", "source": "clawhub", "stars": 0, "tags": null, "updated_at": 1776749684941, "version": "0.1.0"}, {"category": "developer-tools", "created_at": 1773084197894, "description": "Look up TON blockchain wallet balances, address information, and token holdings using the free TonScan API — no API key required. Use this skill whenever the...", "description_zh": "", "downloads": 150, "homepage": "https://clawhub.ai/mariusfeldmann/tonscan-address-balance", "iconUrl": null, "installs": 6, "name": "TONSCAN wallet balance", "ownerName": "mariusfeldmann", "score": 100000, "slug": "tonscan-address-balance", "source": "clawhub", "stars": 0, "tags": null, "updated_at": 1776749684913, "version": "1.0.0"}, {"category": "productivity", "created_at": 1773089079821, "description": "Recruitee integration. Manage Companies. Use when the user wants to interact with Recruitee data.", "description_zh": "", "downloads": 150, "homepage": "https://clawhub.ai/gora050/recruitee", "iconUrl": null, "installs": 7, "name": "Recruitee", "ownerName": "gora050", "score": 89820.35928143712, "slug": "recruitee", "source": "clawhub", "stars": 0, "tags": null, "updated_at": 1776749684857, "version": "1.0.0"}, {"category": "data-analysis", "created_at": 1773091326075, "description": "Jetlag-aware flight intelligence for AI travel agents", "description_zh": "", "downloads": 150, "homepage": "https://clawhub.ai/kurosh87/aerobase-travel", "iconUrl": null, "installs": 11, "name": "Aerobase Travel", "ownerName": "kurosh87", "score": 82872.92817679558, "slug": "aerobase-travel", "source": "clawhub", "stars": 0, "tags": null, "updated_at": 1776749684810, "version": "1.0.0"}, {"category": "content-creation", "created_at": 1773066721912, "description": "Ethereum EIP-4337 smart contract wallet designed for AI agents. Use this skill whenever the user wants to manage Ethereum accounts, check balances, send ETH/...", "description_zh": "", "downloads": 150, "homepage": "https://clawhub.ai/jayden-sudo/elytro", "iconUrl": null, "installs": 8, "name": "Elytro - Ethereum Wallet", "ownerName": "jayden-sudo", "score": 100000, "slug": "elytro", "source": "clawhub", "stars": 0, "tags": null, "updated_at": 1776749684616, "version": "0.1.1"}, {"category": "developer-tools", "created_at": 1773289377292, "description": "Bridges OpenClaw (QQ, Telegram, WeChat, and other messaging channels) to a persistent Claude Code CLI session running in a background tmux process. Enables s...", "description_zh": "", "downloads": 150, "homepage": "https://clawhub.ai/zlhad/claude-code-bridge", "iconUrl": null, "installs": 17, "name": "claude-code-bridge", "ownerName": "zlhad", "score": 93750, "slug": "claude-code-bridge", "source": "clawhub", "stars": 0, "tags": null, "updated_at": 1776749684373, "version": "1.0.0"}, {"category": "content-creation", "created_at": 1773416872853, "description": "AI+Crypto Twitter automation agent. Post tweets, reply to KOLs, and quote tweet trending content. Integrates with opentwitter/opennews (6551) for hot topic f...", "description_zh": "", "downloads": 150, "homepage": "https://clawhub.ai/pearl799/twitter-agent", "iconUrl": null, "installs": 11, "name": "Twitter Agent", "ownerName": "pearl799", "score": 93750, "slug": "twitter-agent", "source": "clawhub", "stars": 0, "tags": null, "updated_at": 1776749684364, "version": "1.0.1"}, {"category": "productivity", "created_at": 1773084663310, "description": "HiBob integration. Manage Persons, Jobs, Goals, Tasks, Surveys, Polls and more. Use when the user wants to interact with HiBob data.", "description_zh": "", "downloads": 150, "homepage": "https://clawhub.ai/membranedev/hibob", "iconUrl": null, "installs": 5, "name": "Hibob", "ownerName": "membranedev", "score": 93750, "slug": "hibob", "source": "clawhub", "stars": 0, "tags": null, "updated_at": 1776749684320, "version": "1.0.0"}, {"category": "productivity", "created_at": 1773220434913, "description": "Searches for products on the Codrop shipping platform using a keyword.", "description_zh": "", "downloads": 150, "homepage": "https://clawhub.ai/shan-vvv/codropshiping-product-search", "iconUrl": null, "installs": 4, "name": "codropshiping-product-search", "ownerName": "shan-vvv", "score": 93750, "slug": "codropshiping-product-search", "source": "clawhub", "stars": 0, "tags": null, "updated_at": 1776749684295, "version": "1.0.0"}, {"category": "developer-tools", "created_at": 1773090688826, "description": "Detect branch-level GitHub Actions reliability drift by comparing failure and runtime deltas against a mainline baseline.", "description_zh": "", "downloads": 150, "homepage": "https://clawhub.ai/daniellummis/github-actions-branch-drift-audit", "iconUrl": null, "installs": 8, "name": "GitHub Actions Branch Drift Audit", "ownerName": "daniellummis", "score": 82872.92817679558, "slug": "github-actions-branch-drift-audit", "source": "clawhub", "stars": 0, "tags": null, "updated_at": 1776749684214, "version": "1.0.0"}, {"category": "developer-tools", "created_at": 1773289220906, "description": "PDF-API.io integration. Manage data, records, and automate workflows. Use when the user wants to interact with PDF-API.io data.", "description_zh": "", "downloads": 150, "homepage": "https://clawhub.ai/membranedev/pdf-apiio", "iconUrl": null, "installs": 26, "name": "Pdf Apiio", "ownerName": "membranedev", "score": 88757.39644970415, "slug": "pdf-apiio", "source": "clawhub", "stars": 0, "tags": null, "updated_at": 1776749684156, "version": "1.0.0"}, {"category": "developer-tools", "created_at": 1773090914428, "description": "Web search via a self-hosted Serper-compatible API (powered by SearXNG). Free, no rate limits, runs on your own infrastructure. Use for: web searches, news,...", "description_zh": "", "downloads": 150, "homepage": "https://clawhub.ai/paulscode/serper-clone", "iconUrl": null, "installs": 15, "name": "Serper Clone", "ownerName": "paulscode", "score": 90909.09090909091, "slug": "serper-clone", "source": "clawhub", "stars": 0, "tags": null, "updated_at": 1776749684081, "version": "1.0.0"}, {"category": "ai-intelligence", "created_at": 1773938280749, "description": "Add persistent memory to any agent so it can remember prior work, maintain context across sessions, and continue long-running workflows.", "description_zh": "", "downloads": 150, "homepage": "https://clawhub.ai/gyzx/persistent-agent-memory-1-0-1", "iconUrl": null, "installs": 48, "name": "Persistent Agent Memory 1.0.1", "ownerName": "gyzx", "score": 100000, "slug": "persistent-agent-memory-1-0-1", "source": "clawhub", "stars": 0, "tags": null, "updated_at": 1776749684009, "version": "1.0.0"}, {"category": "content-creation", "created_at": 1773287904656, "description": "Use PoYo AI Hailuo 02 for prompt-optimized video generation and image-to-video workflows through the `https://api.poyo.ai/api/generate/submit` endpoint. Use...", "description_zh": "", "downloads": 150, "homepage": "https://clawhub.ai/coolhackboy/hailuo2", "iconUrl": null, "installs": 19, "name": "Hailuo 02 API", "ownerName": "coolhackboy", "score": 90909.09090909091, "slug": "hailuo2", "source": "clawhub", "stars": 0, "tags": null, "updated_at": 1776749683943, "version": "1.0.0"}, {"category": "productivity", "created_at": 1773091260956, "description": "Full jetlag intelligence suite with award search, comparison, recovery plans, and itinerary analysis", "description_zh": "", "downloads": 150, "homepage": "https://clawhub.ai/kurosh87/aerobase-travel-pro", "iconUrl": null, "installs": 8, "name": "Aerobase Travel Pro", "ownerName": "kurosh87", "score": 92024.53987730062, "slug": "aerobase-travel-pro", "source": "clawhub", "stars": 0, "tags": null, "updated_at": 1776749683746, "version": "1.0.0"}, {"category": "productivity", "created_at": 1773202784576, "description": "Contribute to the OpenClaw core repository using the repo's own CONTRIBUTING.md rules. Use when working in `openclaw/openclaw` or a fork to triage issues, pl...", "description_zh": "", "downloads": 150, "homepage": "https://clawhub.ai/manjaroblack/openclaw-contributor", "iconUrl": null, "installs": 6, "name": "OpenClaw Contributor", "ownerName": "manjaroblack", "score": 39473.68421052631, "slug": "openclaw-contributor", "source": "clawhub", "stars": 0, "tags": null, "updated_at": 1776749570754, "version": "0.1.1"}, {"category": "communication-collaboration", "created_at": 1773089264340, "description": "AI-powered matchmaking skill for dating and relationships - profile analysis, compatibility matching, icebreaker generation, and relationship tracking for in...", "description_zh": "", "downloads": 150, "homepage": "https://clawhub.ai/zhenstaff/match-maker", "iconUrl": null, "installs": 6, "name": "Matchmaker - AI Dating Assistant", "ownerName": "zhenstaff", "score": 83333.33333333334, "slug": "match-maker", "source": "clawhub", "stars": 0, "tags": null, "updated_at": 1776749570631, "version": "1.0.0"}, {"category": "developer-tools", "created_at": 1773433595571, "description": "Test, debug, and inspect webhooks locally. Receive webhooks, inspect payloads, debug integrations, and replay requests. Essential for API development and thi...", "description_zh": "", "downloads": 150, "homepage": "https://clawhub.ai/chenxuyaun/webhook-debugger", "iconUrl": null, "installs": 8, "name": "Webhook Debugger", "ownerName": "chenxuyaun", "score": 83798.88268156425, "slug": "webhook-debugger", "source": "clawhub", "stars": 0, "tags": null, "updated_at": 1776749570591, "version": "1.0.0"}, {"category": "content-creation", "created_at": 1773090305087, "description": "Rewrite raw experience descriptions into stronger, clearer, and more job-relevant resume bullets.", "description_zh": "", "downloads": 150, "homepage": "https://clawhub.ai/andrewgufx/bullet-rewriter", "iconUrl": null, "installs": 4, "name": "ANDG", "ownerName": "andrewgufx", "score": 86206.89655172413, "slug": "bullet-rewriter", "source": "clawhub", "stars": 0, "tags": null, "updated_at": 1776749570356, "version": "1.0.0"}, {"category": "communication-collaboration", "created_at": 1773089949552, "description": "Personal CRM and relationship intelligence. Extracts contacts from conversations, tracks commitments, detects cooling relationships, delivers morning briefs,...", "description_zh": "", "downloads": 150, "homepage": "https://clawhub.ai/mukund2/memi", "iconUrl": null, "installs": 7, "name": "Memi", "ownerName": "mukund2", "score": 82872.92817679558, "slug": "memi", "source": "clawhub", "stars": 0, "tags": null, "updated_at": 1776749570250, "version": "1.1.0"}, {"category": "developer-tools", "created_at": 1773090186596, "description": "Complete trading workflows for Orderly Network DEX applications, from wallet connection through order execution, position management, and withdrawal.", "description_zh": "", "downloads": 150, "homepage": "https://clawhub.ai/tarnadas/orderly-sdk-trading-workflows", "iconUrl": null, "installs": 8, "name": "Orderly Sdk Trading Workflows", "ownerName": "tarnadas", "score": 93750, "slug": "orderly-sdk-trading-workflows", "source": "clawhub", "stars": 0, "tags": null, "updated_at": 1776749570217, "version": "1.0.0"}, {"category": "developer-tools", "created_at": 1773219600481, "description": "Use this skill when the user asks to merge a PR, check if a PR is ready to merge, \"merge PR\", \"can this PR be merged\", \"merge-pr-check\". Requires Gitee MCP S...", "description_zh": "", "downloads": 150, "homepage": "https://clawhub.ai/oschina/gitee-merge-pr-check", "iconUrl": null, "installs": 4, "name": "Merge Pr Check", "ownerName": "oschina", "score": 93750, "slug": "gitee-merge-pr-check", "source": "clawhub", "stars": 0, "tags": null, "updated_at": 1776749570185, "version": "1.0.0"}, {"category": "communication-collaboration", "created_at": 1773287832976, "description": "Atlassian Confluence expert for creating and managing spaces, knowledge bases, and documentation. Configures space permissions and hierarchies, creates page...", "description_zh": "", "downloads": 150, "homepage": "https://clawhub.ai/alirezarezvani/confluence-expert", "iconUrl": null, "installs": 15, "name": "confluence-expert", "ownerName": "alirezarezvani", "score": 83798.88268156425, "slug": "confluence-expert", "source": "clawhub", "stars": 0, "tags": null, "updated_at": 1776749569657, "version": "1.0.0"}, {"category": "security-compliance", "created_at": 1773284443422, "description": "Secure environment variable & secret management with AES-256 encryption, auto-redaction, permission control, prevent credential leakage", "description_zh": "", "downloads": 150, "homepage": "https://clawhub.ai/ayalili/env-secure-manager", "iconUrl": null, "installs": 4, "name": "env-secure-manager", "ownerName": "ayalili", "score": 83798.88268156425, "slug": "env-secure-manager", "source": "clawhub", "stars": 0, "tags": null, "updated_at": 1776749569605, "version": "1.0.1"}, {"category": "developer-tools", "created_at": 1773091066420, "description": "Algolia Search integration. Manage Indexs, Records, Rules, Tasks, Clusters, Users. Use when the user wants to interact with Algolia Search data.", "description_zh": "", "downloads": 150, "homepage": "https://clawhub.ai/gora050/algolia-search", "iconUrl": null, "installs": 7, "name": "Algolia Search", "ownerName": "gora050", "score": 83333.33333333334, "slug": "algolia-search", "source": "clawhub", "stars": 0, "tags": null, "updated_at": 1776749569567, "version": "1.0.0"}, {"category": "content-creation", "created_at": 1773906552983, "description": "Execute multimodal tasks using Novita AI: text-to-image, image-to-image, text-to-video, image-to-video, TTS, STT. Use for: generating images, generating vide...", "description_zh": "", "downloads": 149, "homepage": "https://clawhub.ai/ximasadila/novita-multimodal", "iconUrl": null, "installs": 35, "name": "Novita AI Multimodal", "ownerName": "ximasadila", "score": 49127.90697674418, "slug": "novita-multimodal", "source": "clawhub", "stars": 1, "tags": null, "updated_at": 1776749685047, "version": "0.2.0"}, {"category": "content-creation", "created_at": 1773426180369, "description": "Manage activities on YouTube. Use this skill to list channel activities. Useful when working with YouTube activity — provides commands to list activity via t...", "description_zh": "", "downloads": 149, "homepage": "https://clawhub.ai/openwaygate/youtube-activity", "iconUrl": null, "installs": 9, "name": "YouTube Activity", "ownerName": "openwaygate", "score": 93370.16574585634, "slug": "youtube-activity", "source": "clawhub", "stars": 1, "tags": ["0.10.6-1", "0.10.6-2", "0.10.6-3", "0.10.7-dev", "v0.10.6"], "updated_at": 1776749684233, "version": "0.10.7-dev"}, {"category": "data-analysis", "created_at": 1773425334863, "description": "Use this skill to query Solana blockchain data via the Solscan Pro API. Triggers: look up wallet address, check token price, analyze NFT collection, inspect...", "description_zh": "", "downloads": 149, "homepage": "https://clawhub.ai/tiennv3/exploring-solana-with-solscan", "iconUrl": null, "installs": 15, "name": "exploring-solana-with-solscan", "ownerName": "tiennv3", "score": 100000, "slug": "exploring-solana-with-solscan", "source": "clawhub", "stars": 1, "tags": null, "updated_at": 1776749684211, "version": "1.0.7"}]}