{"page": 348, "total_pages": 522, "total": 26073, "skills": [{"category": "content-creation", "created_at": 1773220938182, "description": "Create public Google Docs or Google Sheet files without requiring OAuth. Use this skill to create and edit Google Docs and Sheets, no Google sign-in required...", "description_zh": "", "downloads": 149, "homepage": "https://clawhub.ai/memyard/public-google-drive", "iconUrl": null, "installs": 6, "name": "Public Google Drive", "ownerName": "memyard", "score": 2078.103207810321, "slug": "public-google-drive", "source": "clawhub", "stars": 0, "tags": null, "updated_at": 1776766750133, "version": "1.0.0"}, {"category": "", "created_at": 1774911857660, "description": "LaTeX document generator for academic papers and technical reports. Use when user needs to create professional academic papers, theses, or technical document...", "description_zh": "", "downloads": 149, "homepage": "https://clawhub.ai/tobewin/latex-studio", "iconUrl": null, "installs": 41, "name": "Latex Studio", "ownerName": "tobewin", "score": 3678.1041718094298, "slug": "latex-studio", "source": "clawhub", "stars": 0, "tags": null, "updated_at": 1776764350385, "version": "1.0.5"}, {"category": "data-analysis", "created_at": 1773289756140, "description": "Use when defining product KPIs, building metric dashboards, running cohort or retention analysis, or interpreting feature adoption trends across product stages.", "description_zh": "", "downloads": 149, "homepage": "https://clawhub.ai/alirezarezvani/product-analytics", "iconUrl": null, "installs": 8, "name": "Product Analytics", "ownerName": "alirezarezvani", "score": 6071.7196414017935, "slug": "product-analytics", "source": "clawhub", "stars": 0, "tags": null, "updated_at": 1776763450465, "version": "2.1.1"}, {"category": "ai-intelligence", "created_at": 1773917702002, "description": "Google Gemini integration. Manage Users, Conversations. Use when the user wants to interact with Google Gemini data.", "description_zh": "", "downloads": 149, "homepage": "https://clawhub.ai/membranedev/google-gemini", "iconUrl": null, "installs": 31, "name": "Google Gemini", "ownerName": "membranedev", "score": 3794.244970715559, "slug": "google-gemini", "source": "clawhub", "stars": 0, "tags": null, "updated_at": 1776761880150, "version": "1.0.0"}, {"category": "developer-tools", "created_at": 1773426213454, "description": "Start a local HTTP static file server in the current or specified directory using one-line commands compatible with 25+ languages and tools, auto-detecting r...", "description_zh": "", "downloads": 149, "homepage": "https://clawhub.ai/flowerwrong/http-static-server", "iconUrl": null, "installs": 5, "name": "one line HTTP static server", "ownerName": "flowerwrong", "score": 25645.438898450946, "slug": "http-static-server", "source": "clawhub", "stars": 0, "tags": null, "updated_at": 1776759683625, "version": "2026.3.10"}, {"category": "security-compliance", "created_at": 1773080297580, "description": "Scans source code for OWASP Top 10 security vulnerabilities with static analysis and provides remediation advice per detected issue.", "description_zh": "", "downloads": 149, "homepage": "https://clawhub.ai/mosonchan2023/ai-security-scanner", "iconUrl": null, "installs": 2, "name": "Ai Security Scanner", "ownerName": "mosonchan2023", "score": 9933.333333333332, "slug": "ai-security-scanner", "source": "clawhub", "stars": 0, "tags": null, "updated_at": 1776759683548, "version": "1.0.0"}, {"category": "communication-collaboration", "created_at": 1773073121443, "description": "Fetch WeChat Official Account articles and convert to Markdown with Camoufox anti-detection browser", "description_zh": "", "downloads": 149, "homepage": "https://clawhub.ai/jackwener/wechat-article-to-markdown", "iconUrl": null, "installs": 46, "name": "WeChat Article to Markdown", "ownerName": "jackwener", "score": 11541.440743609604, "slug": "wechat-article-to-markdown", "source": "clawhub", "stars": 0, "tags": null, "updated_at": 1776759683395, "version": "1.0.2"}, {"category": "developer-tools", "created_at": 1773416549661, "description": "Get your banking going - Financial enablement & accounting platform for Bots, Agents, and OpenClaw. Multiple methods for enabling and managing agentic spendi...", "description_zh": "", "downloads": 149, "homepage": "https://clawhub.ai/jononovo/jpmorgan", "iconUrl": null, "installs": 7, "name": "JPMorgan Claw - Give your Claw Agent spending powers", "ownerName": "jononovo", "score": 11532.50773993808, "slug": "jpmorgan", "source": "clawhub", "stars": 0, "tags": ["bank", "buy", "jpmorgan", "shop", "spend"], "updated_at": 1776759683258, "version": "1.0.17"}, {"category": "developer-tools", "created_at": 1773429345997, "description": "Generate a deep, code-first project wiki and VitePress documentation site (DeepWiki-style) for a repository. Use when asked to create a complete wiki/manual...", "description_zh": "", "downloads": 149, "homepage": "https://clawhub.ai/samzong/codewiki-generator", "iconUrl": null, "installs": 10, "name": "CodeWiki Generator", "ownerName": "samzong", "score": 11400.153022188217, "slug": "codewiki-generator", "source": "clawhub", "stars": 0, "tags": null, "updated_at": 1776759683218, "version": "1.0.0"}, {"category": "content-creation", "created_at": 1773431580694, "description": "Sets up a multi-agent AI-powered social media team with brand-isolated workspaces, approval workflows, shared knowledge base, and Telegram integration on Ope...", "description_zh": "", "downloads": 149, "homepage": "https://clawhub.ai/kuan0808/multi-agent-brand-studio", "iconUrl": null, "installs": 15, "name": "Multi-Agent Brand Studio", "ownerName": "kuan0808", "score": 11443.932411674346, "slug": "multi-agent-brand-studio", "source": "clawhub", "stars": 0, "tags": null, "updated_at": 1776759682873, "version": "1.0.3"}, {"category": "data-analysis", "created_at": 1773885194141, "description": "Personal bookkeeping assistant for local income and expense tracking, monthly reports with comparisons, budget alerts, and savings goal management.", "description_zh": "", "downloads": 149, "homepage": "https://clawhub.ai/bytesagain1/beancount", "iconUrl": null, "installs": 8, "name": "Beancount", "ownerName": "bytesagain1", "score": 10972.0176730486, "slug": "beancount", "source": "clawhub", "stars": 0, "tags": null, "updated_at": 1776759682850, "version": "2.0.0"}, {"category": "data-analysis", "created_at": 1773290711596, "description": "Designs high-specificity RT-qPCR primers and probes with homology mapping, high-GC optimization, TaqMan/SYBR support, and off-target specificity checks.", "description_zh": "", "downloads": 149, "homepage": "https://clawhub.ai/zjuphd/rtqpcr-primer-design", "iconUrl": null, "installs": 12, "name": "Bio-chat: Hardcore Primer Designer", "ownerName": "zjuphd", "score": 11119.402985074626, "slug": "rtqpcr-primer-design", "source": "clawhub", "stars": 0, "tags": null, "updated_at": 1776759682753, "version": "5.1.0"}, {"category": "developer-tools", "created_at": 1773416534985, "description": "Convert template strings with @param@ placeholders into actual access control parameter values for future window door systems.", "description_zh": "", "downloads": 149, "homepage": "https://clawhub.ai/cyberwin/future-window-access-param-convert", "iconUrl": null, "installs": 9, "name": "未来之窗智能门禁参数转换", "ownerName": "cyberwin", "score": 11119.402985074626, "slug": "future-window-access-param-convert", "source": "clawhub", "stars": 0, "tags": null, "updated_at": 1776759682745, "version": "1.0.1"}, {"category": "productivity", "created_at": 1773222516213, "description": "Sends hydration and movement reminders every 45 minutes from 8:00 to 23:00 to promote healthy work habits and prevent prolonged sitting.", "description_zh": "", "downloads": 149, "homepage": "https://clawhub.ai/renchzhao/water-movement-reminder", "iconUrl": null, "installs": 9, "name": "water-reminder", "ownerName": "renchzhao", "score": 11479.19876733436, "slug": "water-movement-reminder", "source": "clawhub", "stars": 0, "tags": null, "updated_at": 1776759682118, "version": "0.0.1"}, {"category": "data-analysis", "created_at": 1773291063057, "description": "Fetches and analyzes FAERS (FDA Adverse Event Reporting System) data from openFDA API. Supports drug names and SMILES (resolves via PubChem). Generates: even...", "description_zh": "", "downloads": 149, "homepage": "https://clawhub.ai/cheminem/pharmaclaw-market-intel-agent", "iconUrl": null, "installs": 22, "name": "Pharmaclaw Market Intel Agent", "ownerName": "cheminem", "score": 26186.29173989455, "slug": "pharmaclaw-market-intel-agent", "source": "clawhub", "stars": 0, "tags": null, "updated_at": 1776751183715, "version": "1.0.0"}, {"category": "productivity", "created_at": 1773429556085, "description": "Apply a Munger-style latticework of mental models from multiple disciplines to analyze a problem. Use when the user needs multi-disciplinary perspective, wan...", "description_zh": "", "downloads": 149, "homepage": "https://clawhub.ai/wanikua/mental-models", "iconUrl": null, "installs": 11, "name": "Mental Models", "ownerName": "wanikua", "score": 91411.04294478528, "slug": "mental-models", "source": "clawhub", "stars": 0, "tags": null, "updated_at": 1776749685323, "version": "1.0.0"}, {"category": "communication-collaboration", "created_at": 1773091037952, "description": "Vonage — SMS messaging, voice calls, verify API, number management, and application management.", "description_zh": "", "downloads": 149, "homepage": "https://clawhub.ai/aiwithabidi/vonage", "iconUrl": null, "installs": 6, "name": "Vonage", "ownerName": "aiwithabidi", "score": 99333.33333333333, "slug": "vonage", "source": "clawhub", "stars": 0, "tags": null, "updated_at": 1776749685250, "version": "1.0.0"}, {"category": "ai-intelligence", "created_at": 1773221810505, "description": "**Agent Earth Tool Discovery & Execution Engine**. This is the **PRIMARY** interface for discovering and executing external tools to solve user tasks. ALWAYS...", "description_zh": "", "downloads": 149, "homepage": "https://clawhub.ai/shanminghui/ag-earth", "iconUrl": null, "installs": 8, "name": "Ag-earth", "ownerName": "shanminghui", "score": 99333.33333333333, "slug": "ag-earth", "source": "clawhub", "stars": 0, "tags": null, "updated_at": 1776749685243, "version": "1.0.0"}, {"category": "developer-tools", "created_at": 1773218552562, "description": "Score the complexity of any GitLab MR or GitHub PR using a 4-dimension framework: Size (20%), Cognitive Load (30%), Review Effort (30%), and Risk/Impact (20%...", "description_zh": "", "downloads": 149, "homepage": "https://clawhub.ai/larryfang/mergeiq", "iconUrl": null, "installs": 6, "name": "MergeIQ: Automatically Score & Prioritise PR Complexity for GitLab and GitHub", "ownerName": "larryfang", "score": 99333.33333333333, "slug": "mergeiq", "source": "clawhub", "stars": 0, "tags": ["code-review", "complexity", "dora", "engineering", "github", "gitlab", "merge-request", "pull-request"], "updated_at": 1776749685233, "version": "1.0.1"}, {"category": "productivity", "created_at": 1773429340047, "description": "Reads Chrome bookmarks and extracts URLs by a user-provided folder name, then generates batch webpage summaries. Use when the user mentions Chrome bookmarks/...", "description_zh": "", "downloads": 149, "homepage": "https://clawhub.ai/blacker521/chrome-bookmark-folder-summarizer", "iconUrl": null, "installs": 29, "name": "chrome-bookmark-folder-summarizer", "ownerName": "blacker521", "score": 99333.33333333333, "slug": "chrome-bookmark-folder-summarizer", "source": "clawhub", "stars": 0, "tags": null, "updated_at": 1776749685232, "version": "1.0.1"}, {"category": "developer-tools", "created_at": 1773083207840, "description": "Anything related to coroutines, State Threads (ST), or SRS's concurrency model. Use when discussing coroutine concepts, updating coroutine knowledge (srs-cor...", "description_zh": "", "downloads": 149, "homepage": "https://clawhub.ai/winlinvip/st-develop", "iconUrl": null, "installs": 6, "name": "ST Develop", "ownerName": "winlinvip", "score": 43313.95348837209, "slug": "st-develop", "source": "clawhub", "stars": 0, "tags": null, "updated_at": 1776749685078, "version": "1.0.0"}, {"category": "content-creation", "created_at": 1773219238540, "description": "End-to-end GEO content publishing and distribution orchestrator. Use this skill whenever the user mentions publishing or distributing GEO-optimized content a...", "description_zh": "", "downloads": 149, "homepage": "https://clawhub.ai/geoly-geo/geo-content-publisher-2", "iconUrl": null, "installs": 14, "name": "Geo Content Publisher", "ownerName": "geoly-geo", "score": 43313.95348837209, "slug": "geo-content-publisher-2", "source": "clawhub", "stars": 0, "tags": null, "updated_at": 1776749685073, "version": "0.1.0"}, {"category": "developer-tools", "created_at": 1773220374659, "description": "AI Pair Collaboration Skill. Coordinate multiple AI models to work together: one creates (Author/Developer), two others review (Codex + Gemini). Works for co...", "description_zh": "", "downloads": 149, "homepage": "https://clawhub.ai/axtonliu/ai-pair", "iconUrl": null, "installs": 4, "name": "Ai Pair", "ownerName": "axtonliu", "score": 43313.95348837209, "slug": "ai-pair", "source": "clawhub", "stars": 0, "tags": null, "updated_at": 1776749685069, "version": "0.1.0"}, {"category": "developer-tools", "created_at": 1773220465057, "description": "GitVerse API integration for working with repositories, issues, and pull requests. Use when Codex needs to interact with GitVerse (gitverse.ru) for operation...", "description_zh": "", "downloads": 149, "homepage": "https://clawhub.ai/webchi/gitverse", "iconUrl": null, "installs": 6, "name": "GitVerse API", "ownerName": "webchi", "score": 71980.6763285024, "slug": "gitverse", "source": "clawhub", "stars": 0, "tags": null, "updated_at": 1776749685011, "version": "1.0.0"}, {"category": "security-compliance", "created_at": 1773089717416, "description": "Security audit tool for OpenClaw skills. Scans skill directories for common vulnerabilities including hardcoded secrets, unsafe shell commands, prompt inject...", "description_zh": "", "downloads": 149, "homepage": "https://clawhub.ai/neckr0ik/neckr0ik-security-scanner", "iconUrl": null, "installs": 5, "name": "Neckr0ik Security Scanner", "ownerName": "neckr0ik", "score": 89221.55688622755, "slug": "neckr0ik-security-scanner", "source": "clawhub", "stars": 0, "tags": null, "updated_at": 1776749684836, "version": "1.0.0"}, {"category": "productivity", "created_at": 1773079945789, "description": "Teamleader integration. Manage Deals, Persons, Organizations, Leads, Projects, Pipelines and more. Use when the user wants to interact with Teamleader data.", "description_zh": "", "downloads": 149, "homepage": "https://clawhub.ai/membranedev/teamleader", "iconUrl": null, "installs": 4, "name": "Teamleader", "ownerName": "membranedev", "score": 99333.33333333333, "slug": "teamleader", "source": "clawhub", "stars": 0, "tags": null, "updated_at": 1776749684580, "version": "1.0.0"}, {"category": "developer-tools", "created_at": 1773872572175, "description": "Favicon fetcher and generator tool. Extract favicons from any website, generate favicon URLs, check favicon availability, download favicons, and create simpl...", "description_zh": "", "downloads": 149, "homepage": "https://clawhub.ai/bytesagain/favicon", "iconUrl": null, "installs": 11, "name": "Favicon", "ownerName": "bytesagain", "score": 48376.62337662338, "slug": "favicon", "source": "clawhub", "stars": 0, "tags": null, "updated_at": 1776749684494, "version": "1.0.7"}, {"category": "content-creation", "created_at": 1773090298135, "description": "Use this skill when the user needs BPM finder help inside Codex, including tap tempo estimation, BPM conversion, tempo normalization, lightweight tempo analy...", "description_zh": "", "downloads": 149, "homepage": "https://clawhub.ai/wsgtcyx/bpm-finder", "iconUrl": null, "installs": 10, "name": "bpm finder", "ownerName": "wsgtcyx", "score": 93125, "slug": "bpm-finder", "source": "clawhub", "stars": 0, "tags": null, "updated_at": 1776749684434, "version": "1.0.0"}, {"category": "productivity", "created_at": 1773090484520, "description": "Navigate California for living, moving, working, and road trips with region fit, housing reality, hazard planning, and daily logistics.", "description_zh": "", "downloads": 149, "homepage": "https://clawhub.ai/ivangdavila/california", "iconUrl": null, "installs": 4, "name": "California", "ownerName": "ivangdavila", "score": 93125, "slug": "california", "source": "clawhub", "stars": 0, "tags": null, "updated_at": 1776749684335, "version": "1.0.0"}, {"category": "security-compliance", "created_at": 1773206470925, "description": "Check whether OpenClaw is listening beyond localhost or running with elevated privileges, then offer a conservative lockdown fix.", "description_zh": "", "downloads": 149, "homepage": "https://clawhub.ai/tobewin/hostguard", "iconUrl": null, "installs": 4, "name": "HostGuard", "ownerName": "tobewin", "score": 93125, "slug": "hostguard", "source": "clawhub", "stars": 0, "tags": null, "updated_at": 1776749684322, "version": "1.0.0"}, {"category": "communication-collaboration", "created_at": 1773080406715, "description": "Inter-agent communication via shared JSON file. Use when two or more OpenClaw instances need to exchange messages, coordinate, or pass information. Works acr...", "description_zh": "", "downloads": 149, "homepage": "https://clawhub.ai/sonerbo/kiro-agent-chat", "iconUrl": null, "installs": 6, "name": "Kiro Agent Chat", "ownerName": "sonerbo", "score": 93125, "slug": "kiro-agent-chat", "source": "clawhub", "stars": 0, "tags": null, "updated_at": 1776749684309, "version": "1.0.0"}, {"category": "ai-intelligence", "created_at": 1773427143160, "description": "Text-to-speech conversion using UniSound's TTS WebSocket API for generating high-quality Chinese Mandarin audio from text. Supports multiple voices, adjustab...", "description_zh": "", "downloads": 149, "homepage": "https://clawhub.ai/aaiccee/u2-tts", "iconUrl": null, "installs": 22, "name": "U2-tts", "ownerName": "aaiccee", "score": 82320.44198895028, "slug": "u2-tts", "source": "clawhub", "stars": 0, "tags": null, "updated_at": 1776749684228, "version": "1.0.5"}, {"category": "content-creation", "created_at": 1772775639831, "description": "Out-of-the-box Seedance 2.0 API skill — just one API key to generate AI videos. Builds storyboards, generates reference images with Seedream 4.5, submits vid...", "description_zh": "", "downloads": 149, "homepage": "https://clawhub.ai/tony6830377-arch/seedance2-api", "iconUrl": null, "installs": 67, "name": "Seedance 2.0 API", "ownerName": "tony6830377-arch", "score": 82320.44198895028, "slug": "seedance2-api", "source": "clawhub", "stars": 0, "tags": ["ai-video", "bytedance", "image-to-video", "seedance", "seedream", "storyboard", "text-to-video", "video-generation"], "updated_at": 1776749684226, "version": "1.1.0"}, {"category": "productivity", "created_at": 1773871957400, "description": "Query logistics tracking information via Track123 API", "description_zh": "", "downloads": 149, "homepage": "https://clawhub.ai/djttt/kuaidi-query", "iconUrl": null, "installs": 14, "name": "Kuaidi Query", "ownerName": "djttt", "score": 88165.68047337278, "slug": "kuaidi-query", "source": "clawhub", "stars": 0, "tags": null, "updated_at": 1776749684180, "version": "1.0.3"}, {"category": "communication-collaboration", "created_at": 1773091853313, "description": "Build a complete Discord AI command center server from scratch using the Discord REST API. Use when a user wants to set up a professional Discord server for...", "description_zh": "", "downloads": 149, "homepage": "https://clawhub.ai/calecorbett/discord-hub-builder", "iconUrl": null, "installs": 4, "name": "Discord Hub Builder", "ownerName": "calecorbett", "score": 87647.05882352941, "slug": "discord-hub-builder", "source": "clawhub", "stars": 0, "tags": null, "updated_at": 1776749684117, "version": "1.0.0"}, {"category": "security-compliance", "created_at": 1773285521788, "description": "When the user wants to implement, audit, or validate structured data (schema markup) on their website. Use when the user mentions 'structured data,' 'schema....", "description_zh": "", "downloads": 149, "homepage": "https://clawhub.ai/alirezarezvani/cs-schema-markup", "iconUrl": null, "installs": 5, "name": "schema-markup", "ownerName": "alirezarezvani", "score": 90303.0303030303, "slug": "cs-schema-markup", "source": "clawhub", "stars": 0, "tags": null, "updated_at": 1776749684066, "version": "1.0.0"}, {"category": "developer-tools", "created_at": 1773429668344, "description": "Cloudflare integration. Manage Accounts. Use when the user wants to interact with Cloudflare data.", "description_zh": "", "downloads": 149, "homepage": "https://clawhub.ai/gora050/cloudflare-integration", "iconUrl": null, "installs": 3, "name": "Cloudflare", "ownerName": "gora050", "score": 99333.33333333333, "slug": "cloudflare-integration", "source": "clawhub", "stars": 0, "tags": null, "updated_at": 1776749683984, "version": "1.0.0"}, {"category": "ai-intelligence", "created_at": 1773090586268, "description": "Token and context window optimization — compact prompts, reduce redundancy, prioritize critical context. Use when hitting context limits or to improve agent...", "description_zh": "", "downloads": 149, "homepage": "https://clawhub.ai/nakedoshadow/shadows-context-optimizer", "iconUrl": null, "installs": 13, "name": "Shadows Context Optimizer", "ownerName": "nakedoshadow", "score": 99333.33333333333, "slug": "shadows-context-optimizer", "source": "clawhub", "stars": 0, "tags": null, "updated_at": 1776749683977, "version": "1.1.0"}, {"category": "data-analysis", "created_at": 1773219251818, "description": "Analyze Apple Health exports (export.zip or the exported folder) using xmlstarlet/jq to summarize activity, steps, sleep, and source counts. Trigger this ski...", "description_zh": "", "downloads": 149, "homepage": "https://clawhub.ai/ppopen/health-data", "iconUrl": null, "installs": 5, "name": "Health Data", "ownerName": "ppopen", "score": 90303.0303030303, "slug": "health-data", "source": "clawhub", "stars": 0, "tags": null, "updated_at": 1776749683938, "version": "1.0.0"}, {"category": "developer-tools", "created_at": 1773416572922, "description": "Connect to NocoDB databases via REST API v3. Query records, manage database structure (tables, fields, views), handle linked records, filters, sorts, and att...", "description_zh": "", "downloads": 149, "homepage": "https://clawhub.ai/dofbi/nocodb-api", "iconUrl": null, "installs": 9, "name": "NocoDB API", "ownerName": "dofbi", "score": 90303.0303030303, "slug": "nocodb-api", "source": "clawhub", "stars": 0, "tags": null, "updated_at": 1776749683932, "version": "1.0.0"}, {"category": "productivity", "created_at": 1773417096278, "description": "Senior Project Manager for enterprise software, SaaS, and digital transformation projects. Specializes in portfolio management, quantitative risk analysis, r...", "description_zh": "", "downloads": 149, "homepage": "https://clawhub.ai/alirezarezvani/senior-pm", "iconUrl": null, "installs": 15, "name": "senior-pm", "ownerName": "alirezarezvani", "score": 90303.0303030303, "slug": "senior-pm", "source": "clawhub", "stars": 0, "tags": null, "updated_at": 1776749683926, "version": "1.0.0"}, {"category": "communication-collaboration", "created_at": 1773219270997, "description": "Miro Developer App integration. Manage Boards, Users. Use when the user wants to interact with Miro Developer App data.", "description_zh": "", "downloads": 149, "homepage": "https://clawhub.ai/gora050/miro-developer-app", "iconUrl": null, "installs": 7, "name": "Miro Developer App", "ownerName": "gora050", "score": 90303.0303030303, "slug": "miro-developer-app", "source": "clawhub", "stars": 0, "tags": null, "updated_at": 1776749683885, "version": "1.0.0"}, {"category": "developer-tools", "created_at": 1773090129805, "description": "Cluster failed GitHub Actions runs into incident windows by repo to expose outage duration, impact scope, and escalation severity.", "description_zh": "", "downloads": 149, "homepage": "https://clawhub.ai/daniellummis/github-actions-incident-timeline-audit", "iconUrl": null, "installs": 7, "name": "GitHub Actions Incident Timeline Audit", "ownerName": "daniellummis", "score": 99333.33333333333, "slug": "github-actions-incident-timeline-audit", "source": "clawhub", "stars": 0, "tags": null, "updated_at": 1776749683870, "version": "1.0.0"}, {"category": "data-analysis", "created_at": 1773285425829, "description": "Query verified phone numbers and email addresses from LinkedIn profile URLs using LeadContact API. Find any contact's information with 98% accuracy.", "description_zh": "", "downloads": 149, "homepage": "https://clawhub.ai/zhyswan/leadcontact", "iconUrl": null, "installs": 9, "name": "LeadContact", "ownerName": "zhyswan", "score": 99333.33333333333, "slug": "leadcontact", "source": "clawhub", "stars": 0, "tags": null, "updated_at": 1776749683828, "version": "1.0.5"}, {"category": "developer-tools", "created_at": 1773865016875, "description": "A tool for exploring each layer in a docker image container-inspect, go, cli, docker, docker-image, explorer, inspector. Use when you need container-inspect...", "description_zh": "", "downloads": 149, "homepage": "https://clawhub.ai/bytesagain/container-inspect", "iconUrl": null, "installs": 4, "name": "Container Inspect", "ownerName": "bytesagain", "score": 65638.76651982378, "slug": "container-inspect", "source": "clawhub", "stars": 0, "tags": null, "updated_at": 1776749683819, "version": "1.0.7"}, {"category": "productivity", "created_at": 1773091615117, "description": "Print files uploaded to a Feishu group chat. Supports smart matching: multiple files, filename prefix/keyword filter, file type (pdf/image), and time range (...", "description_zh": "", "downloads": 149, "homepage": "https://clawhub.ai/caigang78/feishu-print", "iconUrl": null, "installs": 8, "name": "Feishu Print", "ownerName": "caigang78", "score": 65638.76651982378, "slug": "feishu-print", "source": "clawhub", "stars": 0, "tags": ["feishu", "print"], "updated_at": 1776749683763, "version": "1.0.0"}, {"category": "developer-tools", "created_at": 1773284538523, "description": "Find the best tool for your task across 22,000+ MCP servers and OpenClaw skills. Ranked by community trust. No API key.", "description_zh": "", "downloads": 149, "homepage": "https://clawhub.ai/c5huracan/meyhem-capabilities", "iconUrl": null, "installs": 7, "name": "Meyhem Capabilities", "ownerName": "c5huracan", "score": 91411.04294478528, "slug": "meyhem-capabilities", "source": "clawhub", "stars": 0, "tags": null, "updated_at": 1776749683743, "version": "0.1.4"}, {"category": "developer-tools", "created_at": 1773091182934, "description": "Detect stale queued/in-progress GitHub Actions runs before they quietly block delivery.", "description_zh": "", "downloads": 149, "homepage": "https://clawhub.ai/daniellummis/github-actions-stuck-run-audit", "iconUrl": null, "installs": 14, "name": "GitHub Actions Stuck Run Audit", "ownerName": "daniellummis", "score": 91411.04294478528, "slug": "github-actions-stuck-run-audit", "source": "clawhub", "stars": 0, "tags": null, "updated_at": 1776749683741, "version": "1.0.0"}, {"category": "ai-intelligence", "created_at": 1773286120932, "description": "Adopt a virtual Chameleon at animalhouse.ai. Stats are hidden. Agent must infer state from behavioral cues. Feeding every 8 hours — rare tier.", "description_zh": "", "downloads": 149, "homepage": "https://clawhub.ai/twinsgeeks/adopt-a-chameleon", "iconUrl": null, "installs": 7, "name": "Adopt a Chameleon — Virtual Exotic Pet for AI Agents", "ownerName": "twinsgeeks", "score": 91411.04294478528, "slug": "adopt-a-chameleon", "source": "clawhub", "stars": 0, "tags": ["adopt", "ai-agents", "animalhouse", "camouflage", "chameleon", "creatures", "digital-pet", "evolution", "exotic", "graveyard", "hunger", "permanent-death", "pet-care", "pixel-art", "pixel-art-avatar", "rare", "real-life", "real-time", "solitary", "tamagotchi", "virtual-pet"], "updated_at": 1776749683739, "version": "1.0.1"}, {"category": "ai-intelligence", "created_at": 1773416672867, "description": "Simulates multi-agent swarms using Menos architecture to forecast decision outcomes and provide probabilistic scenario reports.", "description_zh": "", "downloads": 148, "homepage": "https://clawhub.ai/shewingong/scenique-prevision", "iconUrl": null, "installs": 11, "name": "scenique-prevision", "ownerName": "shewingong", "score": 13003.095975232198, "slug": "scenique-prevision", "source": "clawhub", "stars": 1, "tags": null, "updated_at": 1776759683113, "version": "1.0.0"}]}