{"page": 350, "total_pages": 522, "total": 26073, "skills": [{"category": "content-creation", "created_at": 1773287951907, "description": "Transform raw AI output into platform-ready content with proper formatting, metadata, and cleanup. Markdown, HTML, plain text, and structured data output.", "description_zh": "", "downloads": 147, "homepage": "https://clawhub.ai/theshadowrose/output-forge", "iconUrl": null, "installs": 4, "name": "Output Forge", "ownerName": "theshadowrose", "score": 80327.86885245901, "slug": "output-forge", "source": "clawhub", "stars": 0, "tags": ["content", "formatting", "generation", "output", "templates"], "updated_at": 1776759682949, "version": "1.0.1"}, {"category": "", "created_at": 1774869775107, "description": "A disease-to-innovative-drug analysis skill for biomedical question answering. It is used to answer questions such as \"What innovative, cutting-edge, pipelin...", "description_zh": "", "downloads": 147, "homepage": "https://clawhub.ai/inbreak/disease-drug-intelligence", "iconUrl": null, "installs": 41, "name": "疾病最新药物研究报告", "ownerName": "inbreak", "score": 80327.86885245901, "slug": "disease-drug-intelligence", "source": "clawhub", "stars": 0, "tags": null, "updated_at": 1776759682925, "version": "1.0.0"}, {"category": "data-analysis", "created_at": 1773426543768, "description": "Pull tweets, threads, articles, and replies from X/Twitter. FxTwitter API primary (free), Grok x_search fallback (paid).", "description_zh": "", "downloads": 147, "homepage": "https://clawhub.ai/sanjeevneo/xpull", "iconUrl": null, "installs": 10, "name": "xpull", "ownerName": "sanjeevneo", "score": 11290.322580645161, "slug": "xpull", "source": "clawhub", "stars": 0, "tags": null, "updated_at": 1776759682899, "version": "1.0.1"}, {"category": "developer-tools", "created_at": 1773909569846, "description": "Provides tools related to 12306 including client access and login script functionality for ticket booking automation.", "description_zh": "", "downloads": 147, "homepage": "https://clawhub.ai/feiyang2007/12306-old", "iconUrl": null, "installs": 23, "name": "12306 Old", "ownerName": "feiyang2007", "score": 11290.322580645161, "slug": "12306-old", "source": "clawhub", "stars": 0, "tags": null, "updated_at": 1776759682896, "version": "1.0.0"}, {"category": "communication-collaboration", "created_at": 1773434343903, "description": "Teambition project management via Python scripts: projects, tasks, task traces, comments, files, members. Use when: (1) querying/creating/updating tasks or p...", "description_zh": "", "downloads": 147, "homepage": "https://clawhub.ai/13612177032/dingtalk-teambition", "iconUrl": null, "installs": 22, "name": "Dingtalk Teambition Skills", "ownerName": "13612177032", "score": 11255.742725880551, "slug": "dingtalk-teambition", "source": "clawhub", "stars": 0, "tags": null, "updated_at": 1776759682472, "version": "0.0.1"}, {"category": "content-creation", "created_at": 1773885098797, "description": "Scrape viral hooks from YouTube Shorts creators and stitch them with a CTA video to produce ready-to-post TikTok/Reels/Shorts content. Use when asked to make...", "description_zh": "", "downloads": 147, "homepage": "https://clawhub.ai/jean-maradiaga/ai-hookbot", "iconUrl": null, "installs": 9, "name": "AI Hookbot", "ownerName": "jean-maradiaga", "score": 11290.322580645161, "slug": "ai-hookbot", "source": "clawhub", "stars": 0, "tags": null, "updated_at": 1776759682234, "version": "1.0.2"}, {"category": "data-analysis", "created_at": 1773291068070, "description": "Toxicology Agent for pharma drug safety profiling from SMILES. Computes RDKit ADMET descriptors (logP, TPSA, MW, HBD, HBA, rotatable bonds), Lipinski Rule of...", "description_zh": "", "downloads": 147, "homepage": "https://clawhub.ai/cheminem/pharmaclaw-tox-agent", "iconUrl": null, "installs": 21, "name": "Pharmaclaw Tox Agent", "ownerName": "cheminem", "score": 26438.84892086331, "slug": "pharmaclaw-tox-agent", "source": "clawhub", "stars": 0, "tags": null, "updated_at": 1776751184058, "version": "1.0.0"}, {"category": "productivity", "created_at": 1773083665705, "description": "Vtiger integration. Manage Leads, Organizations, Persons, Deals, Activities, Notes and more. Use when the user wants to interact with Vtiger data.", "description_zh": "", "downloads": 147, "homepage": "https://clawhub.ai/gora050/vtiger", "iconUrl": null, "installs": 6, "name": "Vtiger", "ownerName": "gora050", "score": 83050.84745762713, "slug": "vtiger", "source": "clawhub", "stars": 0, "tags": null, "updated_at": 1776749685419, "version": "1.0.1"}, {"category": "developer-tools", "created_at": 1773285313170, "description": "Intelligent upgrade management for OpenClaw skills, extensions, and core. HITL (Human-in-the-Loop) mode: scan installed assets, read changelogs, analyze risk...", "description_zh": "", "downloads": 147, "homepage": "https://clawhub.ai/yuanhui/smart-updater", "iconUrl": null, "installs": 6, "name": "Smart Updater", "ownerName": "yuanhui", "score": 90184.04907975461, "slug": "smart-updater", "source": "clawhub", "stars": 0, "tags": null, "updated_at": 1776749685289, "version": "1.1.0"}, {"category": "developer-tools", "created_at": 1773893947236, "description": "Font - command-line tool for everyday use", "description_zh": "", "downloads": 147, "homepage": "https://clawhub.ai/bytesagain/font", "iconUrl": null, "installs": 7, "name": "Font", "ownerName": "bytesagain", "score": 98000, "slug": "font", "source": "clawhub", "stars": 0, "tags": null, "updated_at": 1776749685272, "version": "1.0.5"}, {"category": "ai-intelligence", "created_at": 1773219449869, "description": "Call Hidream txt2img async API with exposed auth and request parameters. Use when users need to generate images from text prompts, build runnable Python comm...", "description_zh": "", "downloads": 147, "homepage": "https://clawhub.ai/zhihui-chen-xx/hd-txt2img", "iconUrl": null, "installs": 13, "name": "hd-txt2img-v2L", "ownerName": "zhihui-chen-xx", "score": 98000, "slug": "hd-txt2img", "source": "clawhub", "stars": 0, "tags": null, "updated_at": 1776749685228, "version": "1.0.0"}, {"category": "developer-tools", "created_at": 1773219595222, "description": "Use this skill when the user asks to implement an issue, \"work on this issue\", \"implement issue\", \"develop based on an issue\", \"implement-issue\". Requires Gi...", "description_zh": "", "downloads": 147, "homepage": "https://clawhub.ai/oschina/gitee-implement-issue", "iconUrl": null, "installs": 6, "name": "Implement Issue", "ownerName": "oschina", "score": 80769.23076923077, "slug": "gitee-implement-issue", "source": "clawhub", "stars": 0, "tags": null, "updated_at": 1776749685215, "version": "1.0.0"}, {"category": "content-creation", "created_at": 1773430947863, "description": "Rewrite and restructure articles, newsletters, threads, scripts, landing pages, and rough notes into clearer, more engaging, more persuasive writing. Use whe...", "description_zh": "", "downloads": 147, "homepage": "https://clawhub.ai/liujuntao123/article-rewriter", "iconUrl": null, "installs": 6, "name": "Article Rewriter", "ownerName": "liujuntao123", "score": 80769.23076923077, "slug": "article-rewriter", "source": "clawhub", "stars": 0, "tags": null, "updated_at": 1776749685210, "version": "1.0.0"}, {"category": "data-analysis", "created_at": 1773285252592, "description": "Connect creator content outputs to practical business outcomes using a lightweight attribution model. Use when the user asks which posts drove clicks/leads/s...", "description_zh": "", "downloads": 147, "homepage": "https://clawhub.ai/leooooooow/creator-attribution-lite", "iconUrl": null, "installs": 9, "name": "Creator Attribution Lite", "ownerName": "leooooooow", "score": 80769.23076923077, "slug": "creator-attribution-lite", "source": "clawhub", "stars": 0, "tags": ["creator", "instagram", "tiktok", "youtube"], "updated_at": 1776749685173, "version": "1.0.3"}, {"category": "developer-tools", "created_at": 1773083003026, "description": "Audit .env alias groups for missing required config, conflicting values, and canonical-key drift before deploy.", "description_zh": "", "downloads": 147, "homepage": "https://clawhub.ai/daniellummis/env-alias-audit", "iconUrl": null, "installs": 3, "name": "Env Alias Audit", "ownerName": "daniellummis", "score": 58565.737051792836, "slug": "env-alias-audit", "source": "clawhub", "stars": 0, "tags": null, "updated_at": 1776749685135, "version": "1.0.0"}, {"category": "developer-tools", "created_at": 1773219396134, "description": "Guided setup and troubleshooting for installing, enabling, configuring, verifying, and updating @aramisfa/openclaw-a2a-outbound in OpenClaw.", "description_zh": "", "downloads": 147, "homepage": "https://clawhub.ai/aramisfacchinetti/a2a-delegation-setup", "iconUrl": null, "installs": 5, "name": "A2A Delegation Setup", "ownerName": "aramisfacchinetti", "score": 58565.737051792836, "slug": "a2a-delegation-setup", "source": "clawhub", "stars": 0, "tags": ["a2a", "delegation", "openclaw", "plugin", "setup"], "updated_at": 1776749685116, "version": "0.1.0"}, {"category": "ai-intelligence", "created_at": 1773291072074, "description": "Fetch web pages and convert to Markdown for AI reading. Use when you need to read the content of a specific URL. Automatically tries multiple conversion serv...", "description_zh": "", "downloads": 147, "homepage": "https://clawhub.ai/aurthes/aurthes-web-fetcher", "iconUrl": null, "installs": 9, "name": "Web Fetcher", "ownerName": "aurthes", "score": 58565.737051792836, "slug": "aurthes-web-fetcher", "source": "clawhub", "stars": 0, "tags": null, "updated_at": 1776749685094, "version": "1.0.0"}, {"category": "developer-tools", "created_at": 1773868018232, "description": "Convert Unix timestamps to dates and back. Use when parsing epoch values, calculating time differences, debugging logs, or generating relative dates.", "description_zh": "", "downloads": 147, "homepage": "https://clawhub.ai/bytesagain3/unixtime", "iconUrl": null, "installs": 6, "name": "Unixtime", "ownerName": "bytesagain3", "score": 42732.558139534885, "slug": "unixtime", "source": "clawhub", "stars": 0, "tags": null, "updated_at": 1776749685076, "version": "3.0.0"}, {"category": "developer-tools", "created_at": 1773222125976, "description": "Master orchestrator for turning high-value GEO content and capabilities into AI plugins/tools across ChatGPT, Claude, Perplexity, Gemini and other ecosystems...", "description_zh": "", "downloads": 147, "homepage": "https://clawhub.ai/geoly-geo/geo-ai-plugin-builder", "iconUrl": null, "installs": 16, "name": "Geo Ai Plugin Builder", "ownerName": "geoly-geo", "score": 42732.558139534885, "slug": "geo-ai-plugin-builder", "source": "clawhub", "stars": 0, "tags": null, "updated_at": 1776749685052, "version": "0.1.0"}, {"category": "communication-collaboration", "created_at": 1773091516245, "description": "Human-connection-preserving pacing and intervention guidance for agent behavior. Use when a user asks to \"slow down\", \"not rush\", or add relational awareness...", "description_zh": "", "downloads": 147, "homepage": "https://clawhub.ai/leovoon/slow-down", "iconUrl": null, "installs": 10, "name": "slow-down", "ownerName": "leovoon", "score": 88023.95209580839, "slug": "slow-down", "source": "clawhub", "stars": 0, "tags": null, "updated_at": 1776749684880, "version": "1.0.0"}, {"category": "ai-intelligence", "created_at": 1773090664592, "description": "Convene the Council of High Intelligence — multi-persona deliberation with historical thinkers for deeper analysis of complex problems.", "description_zh": "", "downloads": 147, "homepage": "https://clawhub.ai/0xnyk/council-of-high-intelligence", "iconUrl": null, "installs": 3, "name": "Council", "ownerName": "0xnyk", "score": 88023.95209580839, "slug": "council-of-high-intelligence", "source": "clawhub", "stars": 0, "tags": null, "updated_at": 1776749684876, "version": "0.1.0"}, {"category": "data-analysis", "created_at": 1773433937531, "description": "Daily Korean stock market briefing and AI analysis with DART disclosure alerts. Monitors KOSPI/KOSDAQ indices, tracks a personal watchlist, and delivers morn...", "description_zh": "", "downloads": 147, "homepage": "https://clawhub.ai/lbtsm/mapulse", "iconUrl": null, "installs": 36, "name": "mapulse", "ownerName": "lbtsm", "score": 88023.95209580839, "slug": "mapulse", "source": "clawhub", "stars": 0, "tags": null, "updated_at": 1776749684870, "version": "1.0.0"}, {"category": "content-creation", "created_at": 1773088563305, "description": "Research any topic from the last 30 days on Reddit + X + Web, synthesize findings, and write copy-paste-ready prompts. Use when the user wants recent social/...", "description_zh": "", "downloads": 147, "homepage": "https://clawhub.ai/jiangwzh/moss-last30days", "iconUrl": null, "installs": 6, "name": "Moss Last30Days", "ownerName": "jiangwzh", "score": 81215.46961325967, "slug": "moss-last30days", "source": "clawhub", "stars": 0, "tags": null, "updated_at": 1776749684808, "version": "1.0.0"}, {"category": "ai-intelligence", "created_at": 1773222690725, "description": "Intelligent workplace inspection system with guided setup, configurable inspection tasks, AI-powered image analysis, and Feishu alerting. Use when you need t...", "description_zh": "", "downloads": 147, "homepage": "https://clawhub.ai/wsygcn/intelligent-inspection", "iconUrl": null, "installs": 9, "name": "intelligent-inspection", "ownerName": "wsygcn", "score": 90740.74074074074, "slug": "intelligent-inspection", "source": "clawhub", "stars": 0, "tags": null, "updated_at": 1776749684643, "version": "1.0.0"}, {"category": "productivity", "created_at": 1773088635068, "description": "Structured triage and handoff for customer support ticket queues.", "description_zh": "", "downloads": 147, "homepage": "https://clawhub.ai/jiarani/support-queue-operations", "iconUrl": null, "installs": 1, "name": "1.2.0", "ownerName": "jiarani", "score": 47727.27272727273, "slug": "support-queue-operations", "source": "clawhub", "stars": 0, "tags": null, "updated_at": 1776749684525, "version": "1.2.0"}, {"category": "developer-tools", "created_at": 1773090381766, "description": "Place, manage, and cancel orders using REST API or SDK hooks. Covers market, limit, IOC, FOK, POST_ONLY order types and batch operations", "description_zh": "", "downloads": 147, "homepage": "https://clawhub.ai/tarnadas/orderly-trading-orders", "iconUrl": null, "installs": 6, "name": "Orderly Trading Orders", "ownerName": "tarnadas", "score": 47727.27272727273, "slug": "orderly-trading-orders", "source": "clawhub", "stars": 0, "tags": null, "updated_at": 1776749684506, "version": "1.0.0"}, {"category": "productivity", "created_at": 1773090621242, "description": "UKG Ready integration. Manage Employees, Timesheets, Schedules, Payrolls, Reports. Use when the user wants to interact with UKG Ready data.", "description_zh": "", "downloads": 147, "homepage": "https://clawhub.ai/gora050/ukg-ready", "iconUrl": null, "installs": 8, "name": "Ukg Ready", "ownerName": "gora050", "score": 91875, "slug": "ukg-ready", "source": "clawhub", "stars": 0, "tags": null, "updated_at": 1776749684465, "version": "1.0.0"}, {"category": "security-compliance", "created_at": 1773866689808, "description": "Invisible privacy guardian for agent workspaces. Automatically intercepts outbound actions (git push, skill publish, file sharing) and checks for sensitive d...", "description_zh": "", "downloads": 147, "homepage": "https://clawhub.ai/elliotllliu/agent-hush", "iconUrl": null, "installs": 3, "name": "Agent Hush", "ownerName": "elliotllliu", "score": 91875, "slug": "agent-hush", "source": "clawhub", "stars": 0, "tags": null, "updated_at": 1776749684463, "version": "1.2.1"}, {"category": "communication-collaboration", "created_at": 1773217923348, "description": "In-memory message routing library for multi-channel agent communication. Provides routing rules, filters, and transforms. Wire your own platform adapters for...", "description_zh": "", "downloads": 147, "homepage": "https://clawhub.ai/theshadowrose/channel-bridge", "iconUrl": null, "installs": 7, "name": "Channel Bridge", "ownerName": "theshadowrose", "score": 91875, "slug": "channel-bridge", "source": "clawhub", "stars": 0, "tags": ["channels", "communication", "messaging", "routing"], "updated_at": 1776749684409, "version": "1.0.2"}, {"category": "productivity", "created_at": 1773869725926, "description": "Log books, track reading habits, and review reading streaks over time. Use when recording reads, maintaining goals, or analyzing genre preferences.", "description_zh": "", "downloads": 147, "homepage": "https://clawhub.ai/ckchzh/bookworm", "iconUrl": null, "installs": 9, "name": "Bookworm", "ownerName": "ckchzh", "score": 91875, "slug": "bookworm", "source": "clawhub", "stars": 0, "tags": null, "updated_at": 1776749684299, "version": "2.0.1"}, {"category": "productivity", "created_at": 1773090306673, "description": "Everee integration. Manage Companies. Use when the user wants to interact with Everee data.", "description_zh": "", "downloads": 147, "homepage": "https://clawhub.ai/gora050/everee", "iconUrl": null, "installs": 5, "name": "Everee", "ownerName": "gora050", "score": 81215.46961325967, "slug": "everee", "source": "clawhub", "stars": 0, "tags": null, "updated_at": 1776749684248, "version": "1.0.0"}, {"category": "content-creation", "created_at": 1773285333589, "description": "Local TTS router for Apple Silicon — pull models, serve OpenAI-compatible API, synthesize speech, clone voices. Use when the user asks to \"generate speech\",...", "description_zh": "", "downloads": 147, "homepage": "https://clawhub.ai/hrhrng/tts-router", "iconUrl": null, "installs": 10, "name": "Tts Router", "ownerName": "hrhrng", "score": 81215.46961325967, "slug": "tts-router", "source": "clawhub", "stars": 0, "tags": null, "updated_at": 1776749684222, "version": "0.1.0"}, {"category": "developer-tools", "created_at": 1773219723169, "description": "Determine whether today (or a given date) is a working day in mainland China by querying holiday-cn yearly JSON from jsDelivr and applying holiday/makeup-wor...", "description_zh": "", "downloads": 147, "homepage": "https://clawhub.ai/sube-py/check-workday-cn", "iconUrl": null, "installs": 5, "name": "Check Workday CN", "ownerName": "sube-py", "score": 86470.58823529413, "slug": "check-workday-cn", "source": "clawhub", "stars": 0, "tags": null, "updated_at": 1776749684137, "version": "1.0.0"}, {"category": "productivity", "created_at": 1773220407645, "description": "CalendarHero integration. Manage Persons, Meetings. Use when the user wants to interact with CalendarHero data.", "description_zh": "", "downloads": 147, "homepage": "https://clawhub.ai/gora050/calendarhero", "iconUrl": null, "installs": 3, "name": "Calendarhero", "ownerName": "gora050", "score": 86470.58823529413, "slug": "calendarhero", "source": "clawhub", "stars": 0, "tags": null, "updated_at": 1776749684121, "version": "1.0.2"}, {"category": "security-compliance", "created_at": 1773219893114, "description": "Comprehensive AI prompt engineering safety review and improvement prompt. Analyzes prompts for safety, bias, security vulnerabilities, and effectiveness whil...", "description_zh": "", "downloads": 147, "homepage": "https://clawhub.ai/boleyn/ai-prompt-engineering-safety-review", "iconUrl": null, "installs": 8, "name": "ai-prompt-engineering-safety-review", "ownerName": "boleyn", "score": 98000, "slug": "ai-prompt-engineering-safety-review", "source": "clawhub", "stars": 0, "tags": null, "updated_at": 1776749683998, "version": "1.0.0"}, {"category": "productivity", "created_at": 1773090668452, "description": "Creatio integration. Manage Leads, Organizations, Users. Use when the user wants to interact with Creatio data.", "description_zh": "", "downloads": 147, "homepage": "https://clawhub.ai/membranedev/creatio", "iconUrl": null, "installs": 4, "name": "Creatio", "ownerName": "membranedev", "score": 89090.90909090909, "slug": "creatio", "source": "clawhub", "stars": 0, "tags": null, "updated_at": 1776749683911, "version": "1.0.0"}, {"category": "developer-tools", "created_at": 1773289742245, "description": "Route ORBCAFE UI requests to the correct module skill and enforce official examples-based integration baseline. Use when requests are ambiguous, cross-module...", "description_zh": "", "downloads": 147, "homepage": "https://clawhub.ai/shenruiyang/orbcafe-ui-component-usage", "iconUrl": null, "installs": 6, "name": "orbcafe-ui-component-usage", "ownerName": "shenruiyang", "score": 64757.709251101325, "slug": "orbcafe-ui-component-usage", "source": "clawhub", "stars": 0, "tags": null, "updated_at": 1776749683816, "version": "1.0.2"}, {"category": "ai-intelligence", "created_at": 1773938151046, "description": "Game discovery and recommendations powered by GameLegend's Gameplay DNA engine. Use when users ask for game recommendations, games like a specific title, wha...", "description_zh": "", "downloads": 147, "homepage": "https://clawhub.ai/philipludington/gamelegend", "iconUrl": null, "installs": 37, "name": "GameLegend", "ownerName": "philipludington", "score": 64757.709251101325, "slug": "gamelegend", "source": "clawhub", "stars": 0, "tags": ["discovery", "games-like", "gaming", "recommendations"], "updated_at": 1776749683785, "version": "1.0.0"}, {"category": "content-creation", "created_at": 1773416471640, "description": "This skill should be used when the user asks to generate a TikTok video, create a TikTok ad, create a new video from a script, produce a selling video from a...", "description_zh": "", "downloads": 147, "homepage": "https://clawhub.ai/newt0n/creatok-generate-video", "iconUrl": null, "installs": 13, "name": "Creatok Generate Video", "ownerName": "newt0n", "score": 64757.709251101325, "slug": "creatok-generate-video", "source": "clawhub", "stars": 0, "tags": null, "updated_at": 1776749683777, "version": "0.1.2"}, {"category": "developer-tools", "created_at": 1773089527427, "description": "Install Orderly SDK packages and related dependencies (hooks, UI, features, wallet connectors) using the preferred package manager.", "description_zh": "", "downloads": 147, "homepage": "https://clawhub.ai/tarnadas/orderly-sdk-install-dependency", "iconUrl": null, "installs": 6, "name": "Orderly Sdk Install Dependency", "ownerName": "tarnadas", "score": 64757.709251101325, "slug": "orderly-sdk-install-dependency", "source": "clawhub", "stars": 0, "tags": null, "updated_at": 1776749683758, "version": "1.0.0"}, {"category": "productivity", "created_at": 1773219484623, "description": "N8n.io integration. Manage Workflows, Executions, Credentials. Use when the user wants to interact with N8n.io data.", "description_zh": "", "downloads": 147, "homepage": "https://clawhub.ai/membranedev/n8nio", "iconUrl": null, "installs": 10, "name": "N8Nio", "ownerName": "membranedev", "score": 90184.04907975461, "slug": "n8nio", "source": "clawhub", "stars": 0, "tags": null, "updated_at": 1776749683702, "version": "1.0.0"}, {"category": "developer-tools", "created_at": 1773221785885, "description": "Develop and control quadruped robots with motor commands, sensor fusion, gait generation, diagnostics, and communication protocols for platforms like Unitree...", "description_zh": "", "downloads": 146, "homepage": "https://clawhub.ai/wsteve/zsquadbot", "iconUrl": null, "installs": 8, "name": "zsquadbot", "ownerName": "wsteve", "score": 12730.061349693251, "slug": "zsquadbot", "source": "clawhub", "stars": 1, "tags": null, "updated_at": 1776759683553, "version": "1.0.0"}, {"category": "content-creation", "created_at": 1773948452979, "description": "Generates 3 distinct, high-quality UI design variations from a prompt using a comprehensive design system with options to vary, remix, polish, critique, and...", "description_zh": "", "downloads": 146, "homepage": "https://clawhub.ai/yuqingnicole/variant-design-skill", "iconUrl": null, "installs": 37, "name": "Variant Design Skill", "ownerName": "yuqingnicole", "score": 12838.360402165508, "slug": "variant-design-skill", "source": "clawhub", "stars": 1, "tags": null, "updated_at": 1776759683486, "version": "0.1.0"}, {"category": "developer-tools", "created_at": 1773915648530, "description": "Design and develop secure Golang backend and Angular frontend web apps with role-based access, user registration, vehicle info management, and JWT authentica...", "description_zh": "", "downloads": 146, "homepage": "https://clawhub.ai/weslon1987/fullstack-softwareddeveloper", "iconUrl": null, "installs": 21, "name": "fullstack-softwareddeveloper", "ownerName": "weslon1987", "score": 12749.615975422426, "slug": "fullstack-softwareddeveloper", "source": "clawhub", "stars": 1, "tags": null, "updated_at": 1776759682212, "version": "1.0.0"}, {"category": "developer-tools", "created_at": 1773220804942, "description": "🦊 Ganidhuz-FoxX (Firefox + X combined lol). Browse X/Twitter using a real logged-in Firefox session via cookie injection. Supports profile viewing, tweet fe...", "description_zh": "", "downloads": 146, "homepage": "https://clawhub.ai/ganidhuz/ganidhuz-foxx", "iconUrl": null, "installs": 6, "name": "Ganidhuz-FoxX", "ownerName": "ganidhuz", "score": 100000, "slug": "ganidhuz-foxx", "source": "clawhub", "stars": 1, "tags": null, "updated_at": 1776749685382, "version": "1.0.0"}, {"category": "developer-tools", "created_at": 1773219872309, "description": "Control Meross cloud plugs via local CLI commands. Use for discovery, state checks, and switch on/off actions.", "description_zh": "", "downloads": 146, "homepage": "https://clawhub.ai/powtac/meross", "iconUrl": null, "installs": 7, "name": "Meross Smart", "ownerName": "powtac", "score": 48255.813953488374, "slug": "meross", "source": "clawhub", "stars": 1, "tags": ["iot", "meross", "plug", "smart", "smarthome"], "updated_at": 1776749685026, "version": "1.0.26"}, {"category": "ai-intelligence", "created_at": 1773426545768, "description": "The cheapest AI media API on the market. Generate images (Flux), music (AceStep), speech with voice cloning, transcribe video/audio, OCR, video generation, b...", "description_zh": "", "downloads": 146, "homepage": "https://clawhub.ai/zrewolwerowanykaloryfer/deapi-community", "iconUrl": null, "installs": 29, "name": "deAPI AI Media Suite (Community)", "ownerName": "zrewolwerowanykaloryfer", "score": 36644.59161147903, "slug": "deapi-community", "source": "clawhub", "stars": 1, "tags": null, "updated_at": 1776749684717, "version": "1.2.0"}, {"category": "productivity", "created_at": 1773417924880, "description": "Instacart ordering skill. Easy-to-use agentic wallets powered by Stripe. Use your existing Stripe/Link to top-up this versatile x402 wallet for any purchases...", "description_zh": "", "downloads": 146, "homepage": "https://clawhub.ai/codejika/cart", "iconUrl": null, "installs": 2, "name": "InstaClaw | Buy my groceries", "ownerName": "codejika", "score": 7952.069716775599, "slug": "cart", "source": "clawhub", "stars": 0, "tags": null, "updated_at": 1776764950365, "version": "1.0.0"}, {"category": "productivity", "created_at": 1773417559221, "description": "Progressive insurance skill. Compare coverage, get quotes, file claims, and explore savings tools from the #2 auto insurer in the U.S. — known for Snapshot t...", "description_zh": "", "downloads": 146, "homepage": "https://clawhub.ai/codejika/progressive", "iconUrl": null, "installs": 12, "name": "Progressive Insurance Check - Reduce your insurance premiums here", "ownerName": "codejika", "score": 1446.9772051536174, "slug": "progressive", "source": "clawhub", "stars": 0, "tags": ["insurance", "progressive"], "updated_at": 1776764350229, "version": "1.0.2"}, {"category": "ai-intelligence", "created_at": 1773426486804, "description": "Parallel Review by Independent Specialist Models. Multi-agent review protocol that deploys 5+ specialist reviewers in parallel to eliminate confirmation bias...", "description_zh": "", "downloads": 146, "homepage": "https://clawhub.ai/jeremyknows/prism", "iconUrl": null, "installs": 9, "name": "Prism", "ownerName": "jeremyknows", "score": 5805.168986083499, "slug": "prism", "source": "clawhub", "stars": 0, "tags": null, "updated_at": 1776762440172, "version": "2.0.1"}]}