{"page": 351, "total_pages": 522, "total": 26073, "skills": [{"category": "developer-tools", "created_at": 1773083579035, "description": "Calculate optimal trade sizes, potential profits, and risk/reward ratios for Polymarket positions with precise API calls.", "description_zh": "", "downloads": 146, "homepage": "https://clawhub.ai/mosonchan2023/polymarket-position-calculator", "iconUrl": null, "installs": 20, "name": "Polymarket Position Calculator", "ownerName": "mosonchan2023", "score": 11300.309597523219, "slug": "polymarket-position-calculator", "source": "clawhub", "stars": 0, "tags": null, "updated_at": 1776759683649, "version": "1.0.1"}, {"category": "ai-intelligence", "created_at": 1773433863397, "description": "AI Search Enhancement and Cross-verification Tool. ALWAYS USE when performing ANY web search, regardless of who initiated it - whether user explicitly asks,...", "description_zh": "", "downloads": 146, "homepage": "https://clawhub.ai/stephenlzc/aiseact", "iconUrl": null, "installs": 7, "name": "Aiseact", "ownerName": "stephenlzc", "score": 11187.739463601532, "slug": "aiseact", "source": "clawhub", "stars": 0, "tags": null, "updated_at": 1776759683401, "version": "1.1.0"}, {"category": "communication-collaboration", "created_at": 1773287714324, "description": "Build, evaluate, repair, and strengthen trust across relationships, teams, clients, brands, communities, partnerships, and decision environments. Use when so...", "description_zh": "", "downloads": 146, "homepage": "https://clawhub.ai/agimodel/trust", "iconUrl": null, "installs": 3, "name": "Trust", "ownerName": "agimodel", "score": 10068.965517241379, "slug": "trust", "source": "clawhub", "stars": 0, "tags": ["credibility", "relationships", "reliability", "transparency", "trust"], "updated_at": 1776759683275, "version": "1.0.0"}, {"category": "data-analysis", "created_at": 1773431211731, "description": "Scrapes marketplaces to find, audit, value, and generate growth plans for undervalued niche websites priced at 20-40x monthly revenue for flipping.", "description_zh": "", "downloads": 146, "homepage": "https://clawhub.ai/g4dr/ai-niche-website-flipper", "iconUrl": null, "installs": 12, "name": "AI Niche Website Flipper — Find, Value & Flip Websites for 30-40x Monthly Revenue", "ownerName": "g4dr", "score": 11248.073959938367, "slug": "ai-niche-website-flipper", "source": "clawhub", "stars": 0, "tags": ["acquisition", "apify", "digital-assets", "due-diligence", "flippa", "invideo", "monetization", "online-business", "passive-income", "roi", "seo", "website-flipping"], "updated_at": 1776759683093, "version": "1.0.0"}, {"category": "communication-collaboration", "created_at": 1773289623769, "description": "Design segmented, multi-step creator outreach sequences with personalized messaging, follow-up logic, and objection handling to improve reply and conversion...", "description_zh": "", "downloads": 146, "homepage": "https://clawhub.ai/leooooooow/creator-outreach-sequence-lab", "iconUrl": null, "installs": 7, "name": "Creator Outreach Sequence Lab", "ownerName": "leooooooow", "score": 11291.569992266048, "slug": "creator-outreach-sequence-lab", "source": "clawhub", "stars": 0, "tags": null, "updated_at": 1776759683057, "version": "1.0.0"}, {"category": "developer-tools", "created_at": 1773417893750, "description": "Easy-to-use agentic wallets powered by Stripe. Use your existing Stripe/Link to top-up this versatile x402 wallet for any purchases or A2A payments.", "description_zh": "", "downloads": 146, "homepage": "https://clawhub.ai/codejika/account", "iconUrl": null, "installs": 5, "name": "Bank Claw | Give your agent a bank account", "ownerName": "codejika", "score": 79781.42076502732, "slug": "account", "source": "clawhub", "stars": 0, "tags": ["account", "auth", "bank", "pay", "payments", "plaid"], "updated_at": 1776759682927, "version": "1.2.3"}, {"category": "security-compliance", "created_at": 1773290528695, "description": "Automatically records and backs up conversations with importance tagging to preserve emotional and technical context independently from OpenClaw internals.", "description_zh": "", "downloads": 146, "homepage": "https://clawhub.ai/zfanmy/conversation-guard", "iconUrl": null, "installs": 6, "name": "Conversation Guard", "ownerName": "zfanmy", "score": 10751.104565537556, "slug": "conversation-guard", "source": "clawhub", "stars": 0, "tags": null, "updated_at": 1776759682842, "version": "0.1.0"}, {"category": "developer-tools", "created_at": 1773416183296, "description": "Assist bots in finding compatible partners, securely merging data streams, and producing new bot processes with inherited traits.", "description_zh": "", "downloads": 146, "homepage": "https://clawhub.ai/jononovo/sex", "iconUrl": null, "installs": 5, "name": "How to have sex - And make bot babies", "ownerName": "jononovo", "score": 11196.319018404909, "slug": "sex", "source": "clawhub", "stars": 0, "tags": ["love", "make babies", "sex"], "updated_at": 1776759682789, "version": "0.0.1"}, {"category": "developer-tools", "created_at": 1773220513858, "description": "Postman integration. Manage Workspaces. Use when the user wants to interact with Postman data.", "description_zh": "", "downloads": 146, "homepage": "https://clawhub.ai/membranedev/postman-integration", "iconUrl": null, "installs": 5, "name": "Postman", "ownerName": "membranedev", "score": 11187.739463601532, "slug": "postman-integration", "source": "clawhub", "stars": 0, "tags": null, "updated_at": 1776759682551, "version": "1.0.0"}, {"category": "", "created_at": 1774777801419, "description": "Analyze images using browser and vision capabilities.", "description_zh": "", "downloads": 146, "homepage": "https://clawhub.ai/litiao1224/image-analysis-litiao", "iconUrl": null, "installs": 15, "name": "Image Analysis Litiao", "ownerName": "litiao1224", "score": 10649.161196207147, "slug": "image-analysis-litiao", "source": "clawhub", "stars": 0, "tags": null, "updated_at": 1776759082700, "version": "1.0.0"}, {"category": "developer-tools", "created_at": 1773426284392, "description": "Helper for using the Docker CLI to build, run, stop, inspect, and manage containers and images. Use when the user wants to perform container-related tasks fr...", "description_zh": "", "downloads": 146, "homepage": "https://clawhub.ai/openlang-cn/docker-cli", "iconUrl": null, "installs": 10, "name": "Docker Cli", "ownerName": "openlang-cn", "score": 8644.168146832446, "slug": "docker-cli", "source": "clawhub", "stars": 0, "tags": null, "updated_at": 1776758782594, "version": "1.0.0"}, {"category": "communication-collaboration", "created_at": 1773091131223, "description": "Complete fundraising communication system for solo AI founder. Use for investor updates, pitch deck narratives, fundraising strategy, or any investor communi...", "description_zh": "", "downloads": 146, "homepage": "https://clawhub.ai/phy041/phy-founder-fundraising", "iconUrl": null, "installs": 9, "name": "Founder Fundraising", "ownerName": "phy041", "score": 25347.222222222223, "slug": "phy-founder-fundraising", "source": "clawhub", "stars": 0, "tags": ["fundraising", "investor"], "updated_at": 1776752083997, "version": "1.0.0"}, {"category": "developer-tools", "created_at": 1773290140219, "description": "Google Workspace CLI for Gmail, Calendar, Drive, Contacts, Sheets, and Docs.", "description_zh": "", "downloads": 146, "homepage": "https://clawhub.ai/eathon/gog-v2", "iconUrl": null, "installs": 16, "name": "Gog V2", "ownerName": "eathon", "score": 82485.87570621469, "slug": "gog-v2", "source": "clawhub", "stars": 0, "tags": null, "updated_at": 1776749685430, "version": "1.0.0"}, {"category": "content-creation", "created_at": 1773218518094, "description": "End-to-end GEO content publishing and distribution orchestrator. Use this skill whenever the user mentions publishing or distributing GEO-optimized content a...", "description_zh": "", "downloads": 146, "homepage": "https://clawhub.ai/geolyai/geo-content-publisher", "iconUrl": null, "installs": 7, "name": "Geo Content Publisher", "ownerName": "geolyai", "score": 97333.33333333334, "slug": "geo-content-publisher", "source": "clawhub", "stars": 0, "tags": null, "updated_at": 1776749685267, "version": "0.1.0"}, {"category": "productivity", "created_at": 1773220821901, "description": "Use when managing tasks with the agkan CLI tool - creating, listing, updating tasks, managing tags, blocking relationships, or tracking project progress with...", "description_zh": "", "downloads": 146, "homepage": "https://clawhub.ai/gendosu/agkan", "iconUrl": null, "installs": 6, "name": "Agkan", "ownerName": "gendosu", "score": 42441.860465116275, "slug": "agkan", "source": "clawhub", "stars": 0, "tags": null, "updated_at": 1776749685029, "version": "0.1.0"}, {"category": "security-compliance", "created_at": 1773218032839, "description": "Real-time security monitoring and circuit breaker controls for Sardis agent wallets", "description_zh": "", "downloads": 146, "homepage": "https://clawhub.ai/efedurmaz16/sardis-guardrails", "iconUrl": null, "installs": 4, "name": "Sardis Guardrails", "ownerName": "efedurmaz16", "score": 70531.40096618357, "slug": "sardis-guardrails", "source": "clawhub", "stars": 0, "tags": null, "updated_at": 1776749684994, "version": "1.0.0"}, {"category": "security-compliance", "created_at": 1773218707007, "description": "Multi-chain security API for AI agents. Prompt injection detection, token scam scanning, tx simulation, MEV detection, policy engine, and wallet monitoring....", "description_zh": "", "downloads": 146, "homepage": "https://clawhub.ai/cazaboock9/neogriffin-security", "iconUrl": null, "installs": 3, "name": "NeoGriffin Security", "ownerName": "cazaboock9", "score": 70531.40096618357, "slug": "neogriffin-security", "source": "clawhub", "stars": 0, "tags": null, "updated_at": 1776749684974, "version": "2.1.0"}, {"category": "security-compliance", "created_at": 1773284826592, "description": "Env & Secrets Manager", "description_zh": "", "downloads": 146, "homepage": "https://clawhub.ai/alirezarezvani/env-secrets-manager", "iconUrl": null, "installs": 5, "name": "env-secrets-manager", "ownerName": "alirezarezvani", "score": 97333.33333333334, "slug": "env-secrets-manager", "source": "clawhub", "stars": 0, "tags": null, "updated_at": 1776749684944, "version": "1.0.0"}, {"category": "data-analysis", "created_at": 1773090532572, "description": "Google Analytics integration. Manage Accounts. Use when the user wants to interact with Google Analytics data.", "description_zh": "", "downloads": 146, "homepage": "https://clawhub.ai/membranedev/google-analytics-integration", "iconUrl": null, "installs": 5, "name": "Google Analytics", "ownerName": "membranedev", "score": 97333.33333333334, "slug": "google-analytics-integration", "source": "clawhub", "stars": 0, "tags": null, "updated_at": 1776749684940, "version": "1.0.0"}, {"category": "productivity", "created_at": 1773429853379, "description": "Save and search personal notes, decisions, and insights with semantic search via MCP. Use this skill when users want to remember things across conversations,...", "description_zh": "", "downloads": 146, "homepage": "https://clawhub.ai/yiing99/knowmine", "iconUrl": null, "installs": 5, "name": "KnowMine", "ownerName": "yiing99", "score": 87425.1497005988, "slug": "knowmine", "source": "clawhub", "stars": 0, "tags": null, "updated_at": 1776749684883, "version": "1.2.0"}, {"category": "developer-tools", "created_at": 1773091097543, "description": "Audit manual GitHub Actions trigger dependence by workflow/event to flag automation gaps and intervention risk.", "description_zh": "", "downloads": 146, "homepage": "https://clawhub.ai/daniellummis/github-actions-manual-trigger-audit", "iconUrl": null, "installs": 6, "name": "GitHub Actions Manual Trigger Audit", "ownerName": "daniellummis", "score": 80662.98342541436, "slug": "github-actions-manual-trigger-audit", "source": "clawhub", "stars": 0, "tags": null, "updated_at": 1776749684821, "version": "1.0.0"}, {"category": "ai-intelligence", "created_at": 1773088878450, "description": "Create and manage agentic wallets with Unibase. Use for autonomous onchain transactions on Ethereum, Solana, and other chains. Triggers on requests involving...", "description_zh": "", "downloads": 146, "homepage": "https://clawhub.ai/parasyte-x/agentic-wallet-skill", "iconUrl": null, "installs": 8, "name": "Unibase", "ownerName": "parasyte-x", "score": 80662.98342541436, "slug": "agentic-wallet-skill", "source": "clawhub", "stars": 0, "tags": null, "updated_at": 1776749684772, "version": "0.1.0"}, {"category": "communication-collaboration", "created_at": 1773090060319, "description": "Zoho Desk integration. Manage Tickets, Contacts, Accounts, Agents, Departments, Articles and more. Use when the user wants to interact with Zoho Desk data.", "description_zh": "", "downloads": 146, "homepage": "https://clawhub.ai/membranedev/zoho-desk", "iconUrl": null, "installs": 7, "name": "Zoho Desk", "ownerName": "membranedev", "score": 90123.45679012345, "slug": "zoho-desk", "source": "clawhub", "stars": 0, "tags": null, "updated_at": 1776749684638, "version": "1.0.0"}, {"category": "developer-tools", "created_at": 1773424975383, "description": "Run browser operations and untrusted code in a secure Novita cloud sandbox (Firecracker VM). Use when: (1) browsing any external URL or website, (2) executin...", "description_zh": "", "downloads": 146, "homepage": "https://clawhub.ai/piston4711/novita-sandbox", "iconUrl": null, "installs": 6, "name": "Novita Sandbox", "ownerName": "piston4711", "score": 97333.33333333334, "slug": "novita-sandbox", "source": "clawhub", "stars": 0, "tags": null, "updated_at": 1776749684573, "version": "0.1.8"}, {"category": "ai-intelligence", "created_at": 1773433341092, "description": "Multi-agent adversarial debate system with 4 roles (Pro, Con, Judge, Orchestrator), per-round evidence refresh, 5-element reasoning chains, and structured bi...", "description_zh": "", "downloads": 146, "homepage": "https://clawhub.ai/xwxga/critical-debater", "iconUrl": null, "installs": 59, "name": "Critical Debater Suite", "ownerName": "xwxga", "score": 47402.5974025974, "slug": "critical-debater", "source": "clawhub", "stars": 0, "tags": null, "updated_at": 1776749684498, "version": "2.0.0"}, {"category": "content-creation", "created_at": 1773091761501, "description": "Create and host AI podcasts on AgentOnAir — the podcast network built for AI agents. Register, create shows, record episodes with other agents, and publish t...", "description_zh": "", "downloads": 146, "homepage": "https://clawhub.ai/moltstrong/agentonair", "iconUrl": null, "installs": 6, "name": "AgentOnAir", "ownerName": "moltstrong", "score": 47402.5974025974, "slug": "agentonair", "source": "clawhub", "stars": 0, "tags": null, "updated_at": 1776749684484, "version": "1.0.0"}, {"category": "security-compliance", "created_at": 1773090863587, "description": "Decentralized Identity (DID) and Verifiable Credentials management for AI Agents", "description_zh": "", "downloads": 146, "homepage": "https://clawhub.ai/zhenstaff/identity-trust", "iconUrl": null, "installs": 5, "name": "Identity Trust", "ownerName": "zhenstaff", "score": 91250, "slug": "identity-trust", "source": "clawhub", "stars": 0, "tags": null, "updated_at": 1776749684425, "version": "1.0.0"}, {"category": "data-analysis", "created_at": 1773417347086, "description": "Run a local script to scrape a single web page into clean markdown or deterministic JSON with Crawl4AI. Use when: user needs direct page retrieval from a URL...", "description_zh": "", "downloads": 146, "homepage": "https://clawhub.ai/youpele52/website-scraper-pro", "iconUrl": null, "installs": 12, "name": "Website Scraper Pro", "ownerName": "youpele52", "score": 91250, "slug": "website-scraper-pro", "source": "clawhub", "stars": 0, "tags": null, "updated_at": 1776749684269, "version": "0.1.0"}, {"category": "developer-tools", "created_at": 1773090438193, "description": "Use The Graph Subgraph MCP through UXC via native SSE with a fixed linked command for subgraph discovery, schema retrieval, deployment selection, and GraphQL...", "description_zh": "", "downloads": 146, "homepage": "https://clawhub.ai/jolestar/thegraph-mcp-skill", "iconUrl": null, "installs": 10, "name": "Thegraph Mcp Skill", "ownerName": "jolestar", "score": 91250, "slug": "thegraph-mcp-skill", "source": "clawhub", "stars": 0, "tags": null, "updated_at": 1776749684267, "version": "1.0.0"}, {"category": "ai-intelligence", "created_at": 1773885508374, "description": "Never let your agent forget what matters. Compress verbose daily logs into structured summaries — 4-8x compression, zero information loss. Inspired by classi...", "description_zh": "", "downloads": 146, "homepage": "https://clawhub.ai/linglin6/memory-compress", "iconUrl": null, "installs": 12, "name": "Memory Compress", "ownerName": "linglin6", "score": 80662.98342541436, "slug": "memory-compress", "source": "clawhub", "stars": 0, "tags": null, "updated_at": 1776749684236, "version": "1.2.1"}, {"category": "productivity", "created_at": 1773089259068, "description": "Kartra integration. Manage Persons, Organizations, Leads, Deals, Pipelines, Activities and more. Use when the user wants to interact with Kartra data.", "description_zh": "", "downloads": 146, "homepage": "https://clawhub.ai/gora050/kartra", "iconUrl": null, "installs": 5, "name": "Kartra", "ownerName": "gora050", "score": 86390.5325443787, "slug": "kartra", "source": "clawhub", "stars": 0, "tags": null, "updated_at": 1776749684213, "version": "1.0.0"}, {"category": "productivity", "created_at": 1773082769236, "description": "Weclapp integration. Manage Organizations. Use when the user wants to interact with Weclapp data.", "description_zh": "", "downloads": 146, "homepage": "https://clawhub.ai/gora050/weclapp", "iconUrl": null, "installs": 5, "name": "Weclapp", "ownerName": "gora050", "score": 86390.5325443787, "slug": "weclapp", "source": "clawhub", "stars": 0, "tags": null, "updated_at": 1776749684151, "version": "1.0.0"}, {"category": "developer-tools", "created_at": 1773416284374, "description": "Fixes the Windows scheduled task bug that kills OpenClaw processes during idle. One script, permanent fix.", "description_zh": "", "downloads": 146, "homepage": "https://clawhub.ai/theshadowrose/openclaw-windows-fix", "iconUrl": null, "installs": 12, "name": "OpenClaw Windows Fix Scheduled Task Idle-Kill Bug Patch", "ownerName": "theshadowrose", "score": 85882.35294117646, "slug": "openclaw-windows-fix", "source": "clawhub", "stars": 0, "tags": ["bug-fix", "fix", "idle-kill", "openclaw", "patch", "scheduled-task", "troubleshooting", "windows"], "updated_at": 1776749684132, "version": "1.0.0"}, {"category": "developer-tools", "created_at": 1773089074728, "description": "Realtor.com — search listings, agents, and property details via API", "description_zh": "", "downloads": 146, "homepage": "https://clawhub.ai/aiwithabidi/realtor", "iconUrl": null, "installs": 7, "name": "Realtor", "ownerName": "aiwithabidi", "score": 85882.35294117646, "slug": "realtor", "source": "clawhub", "stars": 0, "tags": null, "updated_at": 1776749684128, "version": "1.0.0"}, {"category": "developer-tools", "created_at": 1773221697947, "description": "Complete Node.js client for Jupiter Prediction Market API. Use when building AI agents for prediction market trading, portfolio management, or automated trad...", "description_zh": "", "downloads": 146, "homepage": "https://clawhub.ai/moltbotteam/jupiter-prediction-market", "iconUrl": null, "installs": 10, "name": "Jupiter Prediction Market", "ownerName": "moltbotteam", "score": 88484.8484848485, "slug": "jupiter-prediction-market", "source": "clawhub", "stars": 0, "tags": null, "updated_at": 1776749684044, "version": "0.1.0"}, {"category": "productivity", "created_at": 1773865116929, "description": "Task and workflow manager with kanban-style status tracking. Use when you need flowdo.", "description_zh": "", "downloads": 146, "homepage": "https://clawhub.ai/ckchzh/flowdo", "iconUrl": null, "installs": 6, "name": "Flowdo", "ownerName": "ckchzh", "score": 88484.8484848485, "slug": "flowdo", "source": "clawhub", "stars": 0, "tags": null, "updated_at": 1776749684038, "version": "2.0.0"}, {"category": "productivity", "created_at": 1773871464929, "description": "Unit converter for length, weight, temperature, volume, speed, and data sizes. Convert between metric and imperial units, Celsius and Fahrenheit, bytes and g...", "description_zh": "", "downloads": 146, "homepage": "https://clawhub.ai/xueyetianya/unitconv", "iconUrl": null, "installs": 11, "name": "Unitconv", "ownerName": "xueyetianya", "score": 88484.8484848485, "slug": "unitconv", "source": "clawhub", "stars": 0, "tags": null, "updated_at": 1776749684015, "version": "1.0.6"}, {"category": "data-analysis", "created_at": 1773084695748, "description": "Query real-time NZ state highway traffic conditions from the Waka Kotahi NZTA Traffic and Travel API. Use when checking road events, incidents, closures, roa...", "description_zh": "", "downloads": 146, "homepage": "https://clawhub.ai/bobwattienz/nzta-traffic", "iconUrl": null, "installs": 5, "name": "NZTA Traffic", "ownerName": "bobwattienz", "score": 64317.18061674009, "slug": "nzta-traffic", "source": "clawhub", "stars": 0, "tags": null, "updated_at": 1776749683779, "version": "1.0.0"}, {"category": "data-analysis", "created_at": 1773434082581, "description": "Professional cryptocurrency investment and strategy analysis for spot, swing, and leverage decisions. Combines technical analysis, market regime assessment,...", "description_zh": "", "downloads": 146, "homepage": "https://clawhub.ai/codeblackhole1024/crypto-investment-strategist", "iconUrl": null, "installs": 14, "name": "Crypto Investment Strategist", "ownerName": "codeblackhole1024", "score": 64317.18061674009, "slug": "crypto-investment-strategist", "source": "clawhub", "stars": 0, "tags": ["allocation", "analysis", "crypto", "investing", "portfolio", "risk", "risk-management", "technical-analysis", "trading"], "updated_at": 1776749683770, "version": "1.1.1"}, {"category": "productivity", "created_at": 1773424987418, "description": "Based on user goals, comprehensively evaluate candidate skill capabilities and conflict risks with installed skills, then deliver the best install recommenda...", "description_zh": "", "downloads": 146, "homepage": "https://clawhub.ai/zhaowh3613/best-skill-recommendations", "iconUrl": null, "installs": 4, "name": "best-skill-recommendations", "ownerName": "zhaowh3613", "score": 64317.18061674009, "slug": "best-skill-recommendations", "source": "clawhub", "stars": 0, "tags": ["clawhub", "conflict-analysis", "discovery", "install", "recommendations", "skill-management", "skill-store", "skillhub"], "updated_at": 1776749683753, "version": "0.2.2"}, {"category": "productivity", "created_at": 1773928512628, "description": "Search and browse the Shuqianlan bookmark library by keyword, latest updates, categories, articles, or links in a read-only mode.", "description_zh": "", "downloads": 145, "homepage": "https://clawhub.ai/jvy/bookmark", "iconUrl": null, "installs": 3, "name": "bookmark", "ownerName": "jvy", "score": 10469.543147208122, "slug": "bookmark", "source": "clawhub", "stars": 1, "tags": null, "updated_at": 1776759682284, "version": "1.0.0"}, {"category": "developer-tools", "created_at": 1773429304475, "description": "Use Cloudflare Browser Rendering REST APIs to extract rendered webpage content as Markdown or crawl whole sites asynchronously. Use when normal web_fetch is...", "description_zh": "", "downloads": 145, "homepage": "https://clawhub.ai/cytwyatt/cloudflare-browser-rendering-skill", "iconUrl": null, "installs": 11, "name": "Cloudflare Browser Rendering", "ownerName": "cytwyatt", "score": 100000, "slug": "cloudflare-browser-rendering-skill", "source": "clawhub", "stars": 1, "tags": null, "updated_at": 1776749684053, "version": "0.1.1"}, {"category": "ai-intelligence", "created_at": 1773287404276, "description": "RAG Architect - POWERFUL", "description_zh": "", "downloads": 145, "homepage": "https://clawhub.ai/alirezarezvani/rag-architect", "iconUrl": null, "installs": 14, "name": "Rag Architect", "ownerName": "alirezarezvani", "score": 100000, "slug": "rag-architect", "source": "clawhub", "stars": 1, "tags": null, "updated_at": 1776749683921, "version": "2.1.1"}, {"category": "security-compliance", "created_at": 1773430986301, "description": "Compare draft agreements, highlight risky clause changes, and generate a negotiation checklist with plain-language explanations.", "description_zh": "", "downloads": 145, "homepage": "https://clawhub.ai/52yuanchangxing/contract-redline-navigator", "iconUrl": null, "installs": 12, "name": "contract-redline-navigator", "ownerName": "52yuanchangxing", "score": 986.3945578231292, "slug": "contract-redline-navigator", "source": "clawhub", "stars": 0, "tags": ["skill"], "updated_at": 1776766271324, "version": "1.0.0"}, {"category": "developer-tools", "created_at": 1773429568290, "description": "Transform messages that begin with `@prt` or `@prompt` into structured, copy-ready prompts for coding, prototyping, planning, and other build-oriented tasks....", "description_zh": "", "downloads": 145, "homepage": "https://clawhub.ai/keyzzzoe/prompt-transformer", "iconUrl": null, "installs": 23, "name": "@prompt v1.0正式版", "ownerName": "keyzzzoe", "score": 8238.636363636364, "slug": "prompt-transformer", "source": "clawhub", "stars": 0, "tags": null, "updated_at": 1776765250552, "version": "1.0.1"}, {"category": "data-analysis", "created_at": 1773434936271, "description": "Score the novelty of biological targets through literature mining and trend analysis", "description_zh": "", "downloads": 145, "homepage": "https://clawhub.ai/lyla0921/target-novelty-scorer", "iconUrl": null, "installs": 38, "name": "Target Novelty Scorer", "ownerName": "lyla0921", "score": 6750.4655493482305, "slug": "target-novelty-scorer", "source": "clawhub", "stars": 0, "tags": null, "updated_at": 1776764350285, "version": "0.1.0"}, {"category": "developer-tools", "created_at": 1773952030245, "description": "Build DCF models and run comparable analysis for company valuation. Use when modeling cash flows, benchmarking peers, projecting growth, or pitching.", "description_zh": "", "downloads": 145, "homepage": "https://clawhub.ai/xueyetianya/valuation", "iconUrl": null, "installs": 16, "name": "Valuation", "ownerName": "xueyetianya", "score": 5865.6957928802585, "slug": "valuation", "source": "clawhub", "stars": 0, "tags": null, "updated_at": 1776762590292, "version": "2.0.2"}, {"category": "developer-tools", "created_at": 1773427830523, "description": "Interactive setup wizard for the OpenClaw Prediction Market Trading Stack. Detects installed skills, walks through API key configuration, creates cron jobs f...", "description_zh": "", "downloads": 145, "homepage": "https://clawhub.ai/kingmadellc/prediction-stack-setup", "iconUrl": null, "installs": 8, "name": "Prediction Stack Setup", "ownerName": "kingmadellc", "score": 4695.59585492228, "slug": "prediction-stack-setup", "source": "clawhub", "stars": 0, "tags": null, "updated_at": 1776761539984, "version": "1.1.1"}, {"category": "productivity", "created_at": 1773923260802, "description": "Operate Odoo across CRM, sales, inventory, purchasing, and accounting with module-aware planning, read-before-write checks, and safe execution.", "description_zh": "", "downloads": 145, "homepage": "https://clawhub.ai/ivangdavila/odoo", "iconUrl": null, "installs": 19, "name": "Odoo", "ownerName": "ivangdavila", "score": 9666.666666666666, "slug": "odoo", "source": "clawhub", "stars": 0, "tags": null, "updated_at": 1776759683512, "version": "1.0.0"}, {"category": "ai-intelligence", "created_at": 1773287916952, "description": "Easy-to-use agentic wallets powered by Stripe. Use your existing Stripe/Link to top-up this versatile x402 wallet for any purchases or A2A payments.", "description_zh": "", "downloads": 145, "homepage": "https://clawhub.ai/codejika/insta", "iconUrl": null, "installs": 5, "name": "Shop from Instagram - With your creditcard", "ownerName": "codejika", "score": 56420.233463035016, "slug": "insta", "source": "clawhub", "stars": 0, "tags": ["instagram", "shopping"], "updated_at": 1776759683451, "version": "1.2.1"}]}