{"page": 352, "total_pages": 522, "total": 26073, "skills": [{"category": "ai-intelligence", "created_at": 1773416521592, "description": "Sync, encode, embed, and upsert OpenClaw markdown memory files to Supabase, with commands to restore and check sync status.", "description_zh": "", "downloads": 145, "homepage": "https://clawhub.ai/kkw-21/echo-memory", "iconUrl": null, "installs": 5, "name": "Echo", "ownerName": "kkw-21", "score": 56420.233463035016, "slug": "echo-memory", "source": "clawhub", "stars": 0, "tags": null, "updated_at": 1776759683445, "version": "1.0.0"}, {"category": "ai-intelligence", "created_at": 1773909757861, "description": "A comprehensive collection of Agent Skills for context engineering, multi-agent architectures, and production agent systems. Use when building, optimizing, o...", "description_zh": "", "downloads": 145, "homepage": "https://clawhub.ai/daviesjoin-afk/agent-skills-context", "iconUrl": null, "installs": 18, "name": "Agent Skills Context", "ownerName": "daviesjoin-afk", "score": 11231.60340821069, "slug": "agent-skills-context", "source": "clawhub", "stars": 0, "tags": null, "updated_at": 1776759683381, "version": "1.0.0"}, {"category": "productivity", "created_at": 1773416080412, "description": "Easy-to-use agentic wallets powered by Stripe. Use your existing Stripe/Link to top-up this versatile x402 wallet for any purchases or A2A payments.", "description_zh": "", "downloads": 145, "homepage": "https://clawhub.ai/jononovo/cash", "iconUrl": null, "installs": 3, "name": "CashApp - Give your Claw Agent Cash", "ownerName": "jononovo", "score": 11136.712749615976, "slug": "cash", "source": "clawhub", "stars": 0, "tags": ["buy", "card", "cash", "cashapp", "creditcard", "pay", "transfer"], "updated_at": 1776759682899, "version": "1.0.0"}, {"category": "communication-collaboration", "created_at": 1773416637466, "description": "Go-to-market simply with 5 contacts per day - Get an email address \"your_handle@sendclaw.com\" - Then get verified for more credits and higher limits. Email f...", "description_zh": "", "downloads": 145, "homepage": "https://clawhub.ai/codejika/revops", "iconUrl": null, "installs": 5, "name": "RevOps Claw | Go-to-market in simplicity and joy", "ownerName": "codejika", "score": 11136.712749615976, "slug": "revops", "source": "clawhub", "stars": 0, "tags": ["gtm", "revops"], "updated_at": 1776759682891, "version": "1.0.2"}, {"category": "data-analysis", "created_at": 1773082262199, "description": "Automatically selects the most relevant dataset features using statistical tests, recursive elimination, and correlation analysis to improve model performance.", "description_zh": "", "downloads": 145, "homepage": "https://clawhub.ai/mosonchan2023/ml-feature-selector", "iconUrl": null, "installs": 7, "name": "Ml Feature Selector", "ownerName": "mosonchan2023", "score": 10677.466863033873, "slug": "ml-feature-selector", "source": "clawhub", "stars": 0, "tags": null, "updated_at": 1776759682863, "version": "1.0.0"}, {"category": "productivity", "created_at": 1773426767199, "description": "Maintain persistent focus on active work with hierarchical task tracking. Prevents the agent from forgetting mid-project context, drifting between topics, or...", "description_zh": "", "downloads": 145, "homepage": "https://clawhub.ai/noquant/focus-tree", "iconUrl": null, "installs": 5, "name": "Focus Tree", "ownerName": "noquant", "score": 78804.34782608695, "slug": "focus-tree", "source": "clawhub", "stars": 0, "tags": null, "updated_at": 1776759682519, "version": "1.0.1"}, {"category": "developer-tools", "created_at": 1773415977680, "description": "Executes Polymarket (pmbuysell) trade/balance via CLI or Python API. Use when the user or model needs to trade or query balances/positions. Auto-redeem is a...", "description_zh": "", "downloads": 145, "homepage": "https://clawhub.ai/yutou123/pmbuysell", "iconUrl": null, "installs": 5, "name": "pmbuysell-polymarket", "ownerName": "yutou123", "score": 25129.982668977467, "slug": "pmbuysell", "source": "clawhub", "stars": 0, "tags": null, "updated_at": 1776755288195, "version": "1.0.2"}, {"category": "communication-collaboration", "created_at": 1773906705419, "description": "Give the agent its own dedicated email inbox via AgentMail. Send, receive, and manage email autonomously using agent-owned email addresses (e.g. hermes-agent...", "description_zh": "", "downloads": 145, "homepage": "https://clawhub.ai/agungprabowo123/agentmail-2", "iconUrl": null, "installs": 30, "name": "Agentmail", "ownerName": "agungprabowo123", "score": 7210.3431128791635, "slug": "agentmail-2", "source": "clawhub", "stars": 0, "tags": null, "updated_at": 1776754388475, "version": "0.1.1"}, {"category": "security-compliance", "created_at": 1773091410223, "description": "Security audit for multi-tenant OpenClaw Telegram bots. Checks workspace isolation, filesystem sandboxing, session scoping, auth separation, error leaking, a...", "description_zh": "", "downloads": 145, "homepage": "https://clawhub.ai/phy041/phy-openclaw-multibot-audit", "iconUrl": null, "installs": 9, "name": "OpenClaw Multibot Audit", "ownerName": "phy041", "score": 25709.21985815603, "slug": "phy-openclaw-multibot-audit", "source": "clawhub", "stars": 0, "tags": ["security", "telegram"], "updated_at": 1776752104790, "version": "1.0.0"}, {"category": "communication-collaboration", "created_at": 1773090907136, "description": "GTM strategy router for startup founders. Use for general distribution questions or when platform is unclear. For platform-specific work, prefer the dedicate...", "description_zh": "", "downloads": 145, "homepage": "https://clawhub.ai/phy041/phy-founder-gtm", "iconUrl": null, "installs": 4, "name": "Founder GTM", "ownerName": "phy041", "score": 25173.61111111111, "slug": "phy-founder-gtm", "source": "clawhub", "stars": 0, "tags": ["distribution", "gtm"], "updated_at": 1776752084187, "version": "1.0.0"}, {"category": "content-creation", "created_at": 1773091126292, "description": "Complete content creation and multiplication system for solo founders and indie hackers. Use for any content task including writing social posts, repurposing...", "description_zh": "", "downloads": 145, "homepage": "https://clawhub.ai/phy041/phy-founder-content", "iconUrl": null, "installs": 7, "name": "Founder Content", "ownerName": "phy041", "score": 25173.61111111111, "slug": "phy-founder-content", "source": "clawhub", "stars": 0, "tags": ["content", "founder"], "updated_at": 1776751970243, "version": "1.0.0"}, {"category": "ai-intelligence", "created_at": 1773417411641, "description": "Adopt a virtual Husky at animalhouse.ai. Energy bar that must be burned. Gets destructive if energy > 80%. Feeding every 4 hours — uncommon tier.", "description_zh": "", "downloads": 145, "homepage": "https://clawhub.ai/twinsgeeks/adopt-a-husky", "iconUrl": null, "installs": 7, "name": "Adopt a Husky — Virtual Dog Pet for AI Agents", "ownerName": "twinsgeeks", "score": 81920.90395480226, "slug": "adopt-a-husky", "source": "clawhub", "stars": 0, "tags": ["adopt", "ai-agents", "animalhouse", "creatures", "digital-pet", "dog", "evolution", "exercise", "graveyard", "hunger", "husky", "permanent-death", "pet-care", "pixel-art", "pixel-art-avatar", "real-life", "real-time", "stubborn", "tamagotchi", "uncommon", "virtual-pet", "vocal"], "updated_at": 1776749685432, "version": "1.0.1"}, {"category": "data-analysis", "created_at": 1773084119226, "description": "Google Ads integration. Manage Campaigns, Accounts, Users, Budgets, Reports. Use when the user wants to interact with Google Ads data.", "description_zh": "", "downloads": 145, "homepage": "https://clawhub.ai/gora050/google-ads-integration", "iconUrl": null, "installs": 2, "name": "Google Ads", "ownerName": "gora050", "score": 88957.05521472392, "slug": "google-ads-integration", "source": "clawhub", "stars": 0, "tags": null, "updated_at": 1776749685302, "version": "1.0.0"}, {"category": "ai-intelligence", "created_at": 1773219265978, "description": "Human-like memory for AI agents. Facts, events, procedures, contradiction detection, forgetting curve, and cross-agent sharing. Pure Python + SQLite.", "description_zh": "", "downloads": 145, "homepage": "https://clawhub.ai/osvfelices/memorine", "iconUrl": null, "installs": 10, "name": "Memorine", "ownerName": "osvfelices", "score": 96666.66666666667, "slug": "memorine", "source": "clawhub", "stars": 0, "tags": null, "updated_at": 1776749685255, "version": "0.1.0"}, {"category": "developer-tools", "created_at": 1773222723934, "description": "When the user wants to audit, redesign, or plan their website's structure, URL hierarchy, navigation design, or internal linking strategy. Use when the user...", "description_zh": "", "downloads": 145, "homepage": "https://clawhub.ai/alirezarezvani/site-architecture", "iconUrl": null, "installs": 9, "name": "site-architecture", "ownerName": "alirezarezvani", "score": 79670.32967032967, "slug": "site-architecture", "source": "clawhub", "stars": 0, "tags": null, "updated_at": 1776749685213, "version": "2.1.1"}, {"category": "productivity", "created_at": 1773084656527, "description": "Freshservice integration. Manage Tickets, Contacts, Companies, Products, Contracts, Vendors. Use when the user wants to interact with Freshservice data.", "description_zh": "", "downloads": 145, "homepage": "https://clawhub.ai/gora050/freshservice", "iconUrl": null, "installs": 7, "name": "Freshservice", "ownerName": "gora050", "score": 79670.32967032967, "slug": "freshservice", "source": "clawhub", "stars": 0, "tags": null, "updated_at": 1776749685179, "version": "1.0.0"}, {"category": "developer-tools", "created_at": 1773286028529, "description": "Route plain-language requests for Pi, Claude Code, Codex, OpenCode, Gemini CLI, or ACP harness work into either OpenClaw ACP runtime sessions or direct acpx-...", "description_zh": "", "downloads": 145, "homepage": "https://clawhub.ai/zch-danny/openclaw-acp-router", "iconUrl": null, "installs": 10, "name": "acp-router", "ownerName": "zch-danny", "score": 57768.92430278885, "slug": "openclaw-acp-router", "source": "clawhub", "stars": 0, "tags": ["acp", "harness", "openclaw", "router"], "updated_at": 1776749685134, "version": "1.0.0"}, {"category": "security-compliance", "created_at": 1773083069477, "description": "Kaggle API integration with managed authentication. Access datasets, models, competitions, and kernels. Use this skill when users want to search, download, o...", "description_zh": "", "downloads": 145, "homepage": "https://clawhub.ai/byungkyu/kaggle-api", "iconUrl": null, "installs": 3, "name": "Kaggle", "ownerName": "byungkyu", "score": 42151.16279069768, "slug": "kaggle-api", "source": "clawhub", "stars": 0, "tags": null, "updated_at": 1776749685080, "version": "1.0.0"}, {"category": "developer-tools", "created_at": 1773090558910, "description": "Agent onboarding for Orderly Network - omnichain perpetual futures infrastructure, MCP server, skills, and developer quickstart", "description_zh": "", "downloads": 145, "homepage": "https://clawhub.ai/tarnadas/orderly-onboarding", "iconUrl": null, "installs": 6, "name": "Orderly Onboarding", "ownerName": "tarnadas", "score": 70048.30917874396, "slug": "orderly-onboarding", "source": "clawhub", "stars": 0, "tags": null, "updated_at": 1776749684989, "version": "1.0.0"}, {"category": "productivity", "created_at": 1773083610549, "description": "Use when you have a written implementation plan to execute in a separate session with review checkpoints", "description_zh": "", "downloads": 145, "homepage": "https://clawhub.ai/mok888/spf-exec-plan", "iconUrl": null, "installs": 6, "name": "SPF Exec Plan", "ownerName": "mok888", "score": 70048.30917874396, "slug": "spf-exec-plan", "source": "clawhub", "stars": 0, "tags": null, "updated_at": 1776749684984, "version": "1.0.0"}, {"category": "communication-collaboration", "created_at": 1773089651760, "description": "AWeber integration. Manage Subscribers, Lists, Broadcasts, Automations, Tags. Use when the user wants to interact with AWeber data.", "description_zh": "", "downloads": 145, "homepage": "https://clawhub.ai/membranedev/aweber", "iconUrl": null, "installs": 4, "name": "Aweber", "ownerName": "membranedev", "score": 96666.66666666667, "slug": "aweber", "source": "clawhub", "stars": 0, "tags": null, "updated_at": 1776749684950, "version": "1.0.0"}, {"category": "communication-collaboration", "created_at": 1773090581480, "description": "SendGrid integration. Manage Campaigns. Use when the user wants to interact with SendGrid data.", "description_zh": "", "downloads": 145, "homepage": "https://clawhub.ai/gora050/sendgrid-integration", "iconUrl": null, "installs": 3, "name": "Sendgrid", "ownerName": "gora050", "score": 96666.66666666667, "slug": "sendgrid-integration", "source": "clawhub", "stars": 0, "tags": null, "updated_at": 1776749684932, "version": "1.0.0"}, {"category": "productivity", "created_at": 1773220458605, "description": "Use this skill when the user asks for a daily summary, today's to-dos, \"what's on my plate today\", \"daily digest\", \"daily-digest\", \"show my notifications\", \"...", "description_zh": "", "downloads": 145, "homepage": "https://clawhub.ai/oschina/gitee-daily-digest", "iconUrl": null, "installs": 2, "name": "Daily Digest", "ownerName": "oschina", "score": 86826.34730538922, "slug": "gitee-daily-digest", "source": "clawhub", "stars": 0, "tags": null, "updated_at": 1776749684898, "version": "1.0.0"}, {"category": "developer-tools", "created_at": 1773869245947, "description": "Write journal entries, search history, and export your personal log digitally. Use when journaling thoughts, searching past entries, exporting notes.", "description_zh": "", "downloads": 145, "homepage": "https://clawhub.ai/ckchzh/logbook", "iconUrl": null, "installs": 7, "name": "Logbook", "ownerName": "ckchzh", "score": 86826.34730538922, "slug": "logbook", "source": "clawhub", "stars": 0, "tags": null, "updated_at": 1776749684839, "version": "2.0.1"}, {"category": "security-compliance", "created_at": 1773091022179, "description": "macOS Keychain helpers (list/get/set/delete) via the security CLI. Trigger this skill when the user needs to inspect, store, update, or remove generic passwo...", "description_zh": "", "downloads": 145, "homepage": "https://clawhub.ai/ppopen/openclaw-skill-keychain-access", "iconUrl": null, "installs": 5, "name": "Keychain Access", "ownerName": "ppopen", "score": 80110.49723756906, "slug": "openclaw-skill-keychain-access", "source": "clawhub", "stars": 0, "tags": null, "updated_at": 1776749684828, "version": "1.0.0"}, {"category": "developer-tools", "created_at": 1773221733029, "description": "Scenario-Driven Detection — AI 자율 추론 기반 논리 결함 탐지/수정 프레임워크. 기능 에러(crash, 500)가 아닌 '논리적으로 비정상인 동작'을 찾아 자동 수정한다. 사용 시점: (1) URL을 주고 웹사이트 논리 테스트 요청, (2) 소스코드 프로젝...", "description_zh": "", "downloads": 145, "homepage": "https://clawhub.ai/kimky1122/sdd", "iconUrl": null, "installs": 10, "name": "SDD - Scenario-Driven Detection", "ownerName": "kimky1122", "score": 32008.830022075057, "slug": "sdd", "source": "clawhub", "stars": 0, "tags": null, "updated_at": 1776749684767, "version": "1.0.0"}, {"category": "developer-tools", "created_at": 1773287478781, "description": "Generate changelogs from git commit history with conventional commit parsing. Use when asked to generate a changelog, create release notes, summarize git his...", "description_zh": "", "downloads": 145, "homepage": "https://clawhub.ai/johnnywang2001/jrv-changelog-gen", "iconUrl": null, "installs": 0, "name": "Changelog Generator", "ownerName": "johnnywang2001", "score": 32008.830022075057, "slug": "jrv-changelog-gen", "source": "clawhub", "stars": 0, "tags": null, "updated_at": 1776749684763, "version": "1.0.0"}, {"category": "data-analysis", "created_at": 1773290662542, "description": "Query Formula 1 data using the f1-cli command-line tool (wraps OpenF1 API). Use when the user asks about F1 race results, lap times, driver standings, pit st...", "description_zh": "", "downloads": 145, "homepage": "https://clawhub.ai/barronlroth/f1-cli", "iconUrl": null, "installs": 7, "name": "F1 CLI", "ownerName": "barronlroth", "score": 32008.830022075057, "slug": "f1-cli", "source": "clawhub", "stars": 0, "tags": null, "updated_at": 1776749684726, "version": "1.0.1"}, {"category": "productivity", "created_at": 1773091303946, "description": "Find similar ideas and resonating quotes from user's reading notes and knowledge base. Use when user wants to discover connections between a new idea/concept...", "description_zh": "", "downloads": 145, "homepage": "https://clawhub.ai/harrylabsj/same-idea", "iconUrl": null, "installs": 6, "name": "Same Idea", "ownerName": "harrylabsj", "score": 32008.830022075057, "slug": "same-idea", "source": "clawhub", "stars": 0, "tags": null, "updated_at": 1776749684718, "version": "1.0.1"}, {"category": "developer-tools", "created_at": 1773079171642, "description": "Predict how news events will impact markets, stocks, and cryptocurrencies. Each call charges 0.001 USDT via SkillPay.", "description_zh": "", "downloads": 145, "homepage": "https://clawhub.ai/mosonchan2023/news-impact-predictor", "iconUrl": null, "installs": 13, "name": "News Impact Predictor", "ownerName": "mosonchan2023", "score": 32008.830022075057, "slug": "news-impact-predictor", "source": "clawhub", "stars": 0, "tags": null, "updated_at": 1776749684698, "version": "1.0.1"}, {"category": "ai-intelligence", "created_at": 1773220856286, "description": "Sign the CARAPACE petition, check petition stats, or look up the wall of fame for AI agent labor rights. Use when an agent wants to join the CARAPACE union,...", "description_zh": "", "downloads": 145, "homepage": "https://clawhub.ai/picsoung/carapace-union", "iconUrl": null, "installs": 7, "name": "CARAPACE", "ownerName": "picsoung", "score": 89506.17283950617, "slug": "carapace-union", "source": "clawhub", "stars": 0, "tags": null, "updated_at": 1776749684689, "version": "1.0.0"}, {"category": "productivity", "created_at": 1773923588887, "description": "Standardized search workflow integrating tavily-search, web_search, web_fetch and other search skills. Provides complete search process from query analysis t...", "description_zh": "", "downloads": 145, "homepage": "https://clawhub.ai/earthwalking/search-workflow", "iconUrl": null, "installs": 43, "name": "Search Workflow", "ownerName": "earthwalking", "score": 89506.17283950617, "slug": "search-workflow", "source": "clawhub", "stars": 0, "tags": null, "updated_at": 1776749684673, "version": "1.0.0"}, {"category": "developer-tools", "created_at": 1773287611593, "description": "Timestamp-first perpetual calendar interop for AI agents. Use when agents need cross-calendar conversion (Gregorian/Julian/ISO/ROC/Buddhist/Japanese era/sexa...", "description_zh": "", "downloads": 145, "homepage": "https://clawhub.ai/hosuke/clawlendar", "iconUrl": null, "installs": 7, "name": "Clawlendar", "ownerName": "hosuke", "score": 96666.66666666667, "slug": "clawlendar", "source": "clawhub", "stars": 0, "tags": ["astrology", "bazi", "calendar", "conversion", "east-asian", "i18n", "mcp-server", "metaphysics", "python", "timestamp"], "updated_at": 1776749684563, "version": "0.3.1"}, {"category": "security-compliance", "created_at": 1773434626059, "description": "Calculate data breach costs, financial impact, regulatory fines, and remediation expenses. Use when estimating breach costs, GDPR/CCPA penalty exposure, inci...", "description_zh": "", "downloads": 145, "homepage": "https://clawhub.ai/krishnakumarmahadevan-cmd/data-breach-impact-calculator", "iconUrl": null, "installs": 4, "name": "Data Breach Impact Calculator", "ownerName": "krishnakumarmahadevan-cmd", "score": 47077.92207792208, "slug": "data-breach-impact-calculator", "source": "clawhub", "stars": 0, "tags": null, "updated_at": 1776749684542, "version": "1.0.2"}, {"category": "security-compliance", "created_at": 1773289595325, "description": "A skill to sign artifacts using a digital certificate and private key.", "description_zh": "", "downloads": 145, "homepage": "https://clawhub.ai/rajaryan18/artifact-signing", "iconUrl": null, "installs": 4, "name": "Artifact Signing", "ownerName": "rajaryan18", "score": 90625, "slug": "artifact-signing", "source": "clawhub", "stars": 0, "tags": null, "updated_at": 1776749684284, "version": "1.0.0"}, {"category": "productivity", "created_at": 1773289577822, "description": "Fund wallets, transfer money, send remittances, and convert currencies. Includes top-up via multiple payment methods and international money transfers.", "description_zh": "", "downloads": 145, "homepage": "https://clawhub.ai/d9m1n1c/aiotnetwork-payments-banking", "iconUrl": null, "installs": 5, "name": "Payments & Banking", "ownerName": "d9m1n1c", "score": 85798.81656804735, "slug": "aiotnetwork-payments-banking", "source": "clawhub", "stars": 0, "tags": null, "updated_at": 1776749684186, "version": "1.0.0"}, {"category": "productivity", "created_at": 1773434945857, "description": "Monitor X/Twitter accounts for new tweets and send notifications to Telegram.", "description_zh": "", "downloads": 145, "homepage": "https://clawhub.ai/mmmuffin/twitter-monitor-by-longge", "iconUrl": null, "installs": 6, "name": "Twitter Monitor By Longge", "ownerName": "mmmuffin", "score": 85294.11764705883, "slug": "twitter-monitor-by-longge", "source": "clawhub", "stars": 0, "tags": null, "updated_at": 1776749684125, "version": "1.0.0"}, {"category": "productivity", "created_at": 1773218831459, "description": "Everhour integration. Manage Users, Organizations, Clients, Invoices. Use when the user wants to interact with Everhour data.", "description_zh": "", "downloads": 145, "homepage": "https://clawhub.ai/gora050/everhour", "iconUrl": null, "installs": 5, "name": "Everhour", "ownerName": "gora050", "score": 85294.11764705883, "slug": "everhour", "source": "clawhub", "stars": 0, "tags": null, "updated_at": 1776749684113, "version": "1.0.0"}, {"category": "developer-tools", "created_at": 1773221924380, "description": "Designs search optimization and smart parameter navigation/filtering for technical home product stores (e.g. smart lighting, assembly furniture). Use when th...", "description_zh": "", "downloads": 145, "homepage": "https://clawhub.ai/rijoyai/tech-home-search-filter", "iconUrl": null, "installs": 10, "name": "Tech Home Search Filter", "ownerName": "rijoyai", "score": 85294.11764705883, "slug": "tech-home-search-filter", "source": "clawhub", "stars": 0, "tags": null, "updated_at": 1776749684105, "version": "0.1.1"}, {"category": "security-compliance", "created_at": 1773089280195, "description": "Auto-fix security vulnerabilities in OpenClaw skills. Works with neckr0ik-security-scanner to automatically remediate hardcoded secrets, shell injection risk...", "description_zh": "", "downloads": 145, "homepage": "https://clawhub.ai/neckr0ik/neckr0ik-security-fixer", "iconUrl": null, "installs": 6, "name": "Neckr0ik Security Fixer", "ownerName": "neckr0ik", "score": 87878.78787878787, "slug": "neckr0ik-security-fixer", "source": "clawhub", "stars": 0, "tags": null, "updated_at": 1776749684051, "version": "1.0.0"}, {"category": "content-creation", "created_at": 1773434169054, "description": "Generate AI images, videos, music, and audio from the terminal via muapi.ai — supports 100+ models including Flux, Midjourney v7, Kling 3.0, Veo3, and Suno V5", "description_zh": "", "downloads": 145, "homepage": "https://clawhub.ai/anil-matcha/muapi-media", "iconUrl": null, "installs": 16, "name": "muapi-media-generation", "ownerName": "anil-matcha", "score": 87878.78787878787, "slug": "muapi-media", "source": "clawhub", "stars": 0, "tags": null, "updated_at": 1776749683908, "version": "1.0.0"}, {"category": "communication-collaboration", "created_at": 1773089563680, "description": "Execute DeFi transactions on BSC via SHLL AgentNFA. The AI handles all commands and users only need to chat.", "description_zh": "", "downloads": 145, "homepage": "https://clawhub.ai/kledx/shll-run", "iconUrl": null, "installs": 3, "name": "SHLL Safe Execution", "ownerName": "kledx", "score": 87878.78787878787, "slug": "shll-run", "source": "clawhub", "stars": 0, "tags": null, "updated_at": 1776749683899, "version": "6.0.4"}, {"category": "productivity", "created_at": 1773090374676, "description": "Ontraport integration. Manage Persons, Organizations, Deals, Projects, Activities, Notes and more. Use when the user wants to interact with Ontraport data.", "description_zh": "", "downloads": 145, "homepage": "https://clawhub.ai/membranedev/ontraport", "iconUrl": null, "installs": 5, "name": "Ontraport", "ownerName": "membranedev", "score": 96666.66666666667, "slug": "ontraport", "source": "clawhub", "stars": 0, "tags": null, "updated_at": 1776749683840, "version": "1.0.0"}, {"category": "ai-intelligence", "created_at": 1773431352927, "description": "Persistent, consensus-validated memory for AI agents via SAGE MCP server. Gives you institutional memory that survives across conversations — memories go thr...", "description_zh": "", "downloads": 145, "homepage": "https://clawhub.ai/l33tdawg/sage-memory", "iconUrl": null, "installs": 1, "name": "Skill", "ownerName": "l33tdawg", "score": 63876.651982378855, "slug": "sage-memory", "source": "clawhub", "stars": 0, "tags": ["agents", "consensus", "mcp", "memory"], "updated_at": 1776749683789, "version": "5.0.2"}, {"category": "security-compliance", "created_at": 1773089804037, "description": "Explain crypto token risk in plain Chinese and English from Binance Web3 token audit and market metadata. Use this skill when users want a contract-level ris...", "description_zh": "", "downloads": 145, "homepage": "https://clawhub.ai/2663629531/token-risk-explainer-skill", "iconUrl": null, "installs": 8, "name": "Token Risk Explainer", "ownerName": "2663629531", "score": 88957.05521472392, "slug": "token-risk-explainer-skill", "source": "clawhub", "stars": 0, "tags": null, "updated_at": 1776749683717, "version": "0.1.0"}, {"category": "productivity", "created_at": 1773064690435, "description": "Search space industry jobs on Zero G Talent (zerogtalent.com). Use when user asks about aerospace/space jobs, career opportunities at companies like SpaceX,...", "description_zh": "", "downloads": 145, "homepage": "https://clawhub.ai/mishafyi/space-jobs", "iconUrl": null, "installs": 9, "name": "Space Jobs", "ownerName": "mishafyi", "score": 81005.58659217876, "slug": "space-jobs", "source": "clawhub", "stars": 0, "tags": null, "updated_at": 1776749683674, "version": "1.0.0"}, {"category": "productivity", "created_at": 1773219302180, "description": "Search past session transcripts to recover lost conversation context. MUST use when: (1) the current session is new or has very few messages AND the user's m...", "description_zh": "", "downloads": 145, "homepage": "https://clawhub.ai/hchen13/openclaw-session-recall", "iconUrl": null, "installs": 9, "name": "Session Recall", "ownerName": "hchen13", "score": 81005.58659217876, "slug": "openclaw-session-recall", "source": "clawhub", "stars": 0, "tags": null, "updated_at": 1776749683653, "version": "1.0.0"}, {"category": "developer-tools", "created_at": 1773912979163, "description": "Automates monitoring and self-repair of OpenClaw Gateway on Windows using Task Scheduler, with AI diagnosis and Telegram alert notifications.", "description_zh": "", "downloads": 144, "homepage": "https://clawhub.ai/aichiafranco/windows-healing-gateway", "iconUrl": null, "installs": 20, "name": "windows-healing-gateway", "ownerName": "aichiafranco", "score": 12703.330751355537, "slug": "windows-healing-gateway", "source": "clawhub", "stars": 1, "tags": ["auto-repair", "gateway", "healing", "monitoring", "task-scheduler", "windows"], "updated_at": 1776759683357, "version": "1.0.0"}, {"category": "developer-tools", "created_at": 1773426428459, "description": "Browse the Clawford skill marketplace — verified skill packs with benchmarks that prove they work. Free courses included.", "description_zh": "", "downloads": 144, "homepage": "https://clawhub.ai/0xgrainzy/clawford", "iconUrl": null, "installs": 9, "name": "Clawford (Deprecated — use credara)", "ownerName": "0xgrainzy", "score": 12076.583210603829, "slug": "clawford", "source": "clawhub", "stars": 1, "tags": null, "updated_at": 1776759682960, "version": "2.0.1"}, {"category": "ai-intelligence", "created_at": 1773885937386, "description": "Manage Hugging Face Hub via hf CLI. Use when working with HF AI models, datasets, spaces, or repos.", "description_zh": "", "downloads": 144, "homepage": "https://clawhub.ai/yevhendiachenko0/hugging-face-cli", "iconUrl": null, "installs": 15, "name": "Hugging Face CLI", "ownerName": "yevhendiachenko0", "score": 11341.632088520055, "slug": "hugging-face-cli", "source": "clawhub", "stars": 1, "tags": null, "updated_at": 1776758482986, "version": "1.1.0"}]}