{"page": 353, "total_pages": 522, "total": 26073, "skills": [{"category": "ai-intelligence", "created_at": 1773287408913, "description": "Generate images, videos, and 3D models via Showmeai API. Image gen uses OpenAI-compatible Images API (nano-banana and gpt-image models). Video gen uses Seeda...", "description_zh": "", "downloads": 144, "homepage": "https://clawhub.ai/hulebaji/showmeai", "iconUrl": null, "installs": 15, "name": "Showmeai", "ownerName": "hulebaji", "score": 98795.18072289156, "slug": "showmeai", "source": "clawhub", "stars": 1, "tags": null, "updated_at": 1776749685349, "version": "0.1.4"}, {"category": "developer-tools", "created_at": 1773220354423, "description": "Cannon package manager for Ethereum deployments. Use when building, testing, deploying, or inspecting Cannon packages. Covers cannonfile syntax, CLI commands...", "description_zh": "", "downloads": 144, "homepage": "https://clawhub.ai/dbeal-eth/cannon", "iconUrl": null, "installs": 5, "name": "Cannon", "ownerName": "dbeal-eth", "score": 98203.59281437125, "slug": "cannon", "source": "clawhub", "stars": 1, "tags": null, "updated_at": 1776749684850, "version": "2.26.0"}, {"category": "", "created_at": 1774918677803, "description": "Deep Python packaging workflow—pyproject metadata, dependencies and optional extras, build backends, wheels, versioning, publishing, and CI release hygiene....", "description_zh": "", "downloads": 144, "homepage": "https://clawhub.ai/codekungfu/python-packaging", "iconUrl": null, "installs": 49, "name": "Python Packaging", "ownerName": "codekungfu", "score": 1709.807646639753, "slug": "python-packaging", "source": "clawhub", "stars": 0, "tags": null, "updated_at": 1776767771262, "version": "1.0.0"}, {"category": "developer-tools", "created_at": 1773084744772, "description": "Purple Flea Agent Domains — domain registration and management API for AI agents. Use this skill when an agent needs to: check domain name availability, regi...", "description_zh": "", "downloads": 144, "homepage": "https://clawhub.ai/purple-flea/purpleflea-domains", "iconUrl": null, "installs": 5, "name": "Purpleflea Domains", "ownerName": "purple-flea", "score": 1282.165434956816, "slug": "purpleflea-domains", "source": "clawhub", "stars": 0, "tags": null, "updated_at": 1776767350097, "version": "1.0.0"}, {"category": "security-compliance", "created_at": 1773220561035, "description": "Generate a deterministic, template-preserving 16-section SDS/MSDS package from 1 DOCX template, 1 prompt/rule file, and 1-3 source SDS/MSDS files, with DOCX/...", "description_zh": "", "downloads": 144, "homepage": "https://clawhub.ai/yjli-new/template-sds-generator", "iconUrl": null, "installs": 5, "name": "Template SDS Generator", "ownerName": "yjli-new", "score": 8067.226890756303, "slug": "template-sds-generator", "source": "clawhub", "stars": 0, "tags": ["documents", "docx", "pdf", "sds"], "updated_at": 1776765010399, "version": "0.2.1"}, {"category": "", "created_at": 1774892568705, "description": "Create, inspect, and edit Microsoft PowerPoint presentations and PPTX decks with reliable layouts, templates, placeholders, notes, charts, and visual QA. Use...", "description_zh": "", "downloads": 144, "homepage": "https://clawhub.ai/cs995279497-byte/chen-powerpoint-pptx", "iconUrl": null, "installs": 54, "name": "Chen Powerpoint Pptx", "ownerName": "cs995279497-byte", "score": 7838.86771910724, "slug": "chen-powerpoint-pptx", "source": "clawhub", "stars": 0, "tags": null, "updated_at": 1776764950155, "version": "1.0.0"}, {"category": "data-analysis", "created_at": 1773222166162, "description": "Prediction and forecasting system for trends, outcomes, and risks. Use when user mentions predictions, forecasts, trends, scenarios, or future outcomes. Anal...", "description_zh": "", "downloads": 144, "homepage": "https://clawhub.ai/qclawbot/predict", "iconUrl": null, "installs": 6, "name": "Predict", "ownerName": "qclawbot", "score": 4372.912238080778, "slug": "predict", "source": "clawhub", "stars": 0, "tags": ["forecast", "predict", "risk", "scenarios", "trends"], "updated_at": 1776761280424, "version": "1.0.0"}, {"category": "content-creation", "created_at": 1773287355668, "description": "Use PoYo AI GPT Image 1.5 through the `https://api.poyo.ai/api/generate/submit` endpoint. Use when a user wants to generate or edit media with this model fam...", "description_zh": "", "downloads": 144, "homepage": "https://clawhub.ai/coolhackboy/poyo-gpt-image-1-5", "iconUrl": null, "installs": 11, "name": "GPT Image 1.5 API", "ownerName": "coolhackboy", "score": 10359.712230215828, "slug": "poyo-gpt-image-1-5", "source": "clawhub", "stars": 0, "tags": null, "updated_at": 1776759982880, "version": "1.0.0"}, {"category": "developer-tools", "created_at": 1773220863049, "description": "Enforce Cerebro-first protocol by identifying domain, reading source docs and recent logs, building Known State, and citing rules before all actions.", "description_zh": "", "downloads": 144, "homepage": "https://clawhub.ai/ptaramona/cerebro-openclaw-memory-boost-kb", "iconUrl": null, "installs": 5, "name": "Cerebro Openclaw Memory Boost Kb", "ownerName": "ptaramona", "score": 11145.510835913312, "slug": "cerebro-openclaw-memory-boost-kb", "source": "clawhub", "stars": 0, "tags": null, "updated_at": 1776759683644, "version": "0.1.0"}, {"category": "communication-collaboration", "created_at": 1773289264471, "description": "Local team collaboration server on localhost:4445 managing tasks, messaging, presence, and team health with a web dashboard and API endpoints.", "description_zh": "", "downloads": 144, "homepage": "https://clawhub.ai/ryancampbell/reflectt-node", "iconUrl": null, "installs": 11, "name": "reflectt-node", "ownerName": "ryancampbell", "score": 11145.510835913312, "slug": "reflectt-node", "source": "clawhub", "stars": 0, "tags": ["agents", "coordination"], "updated_at": 1776759683636, "version": "1.0.0"}, {"category": "developer-tools", "created_at": 1773416311759, "description": "Keep track of positions across any exchange, broker, or external system. Detect orphans, prevent leaks. Self-healing state reconciliation for any stateful bot.", "description_zh": "", "downloads": 144, "homepage": "https://clawhub.ai/theshadowrose/position-tracker", "iconUrl": null, "installs": 4, "name": "Position Tracker", "ownerName": "theshadowrose", "score": 24784.853700516353, "slug": "position-tracker", "source": "clawhub", "stars": 0, "tags": ["finance", "portfolio", "positions", "tracking", "trading"], "updated_at": 1776759683616, "version": "1.0.1"}, {"category": "content-creation", "created_at": 1773927501471, "description": "Transforms vague creative goals into small, accessible, consent-driven exercises that generate shareable, practical imaginative outputs.", "description_zh": "", "downloads": 144, "homepage": "https://clawhub.ai/otherpowers/creative-imagination", "iconUrl": null, "installs": 7, "name": "Creative Imagination", "ownerName": "otherpowers", "score": 11154.144074360962, "slug": "creative-imagination", "source": "clawhub", "stars": 0, "tags": null, "updated_at": 1776759683384, "version": "1.0.0"}, {"category": "content-creation", "created_at": 1773289187884, "description": "Build higher-retention subscription relationships through scarcity design, audience intimacy, and creator-owned private content strategy. Designed for direct...", "description_zh": "", "downloads": 144, "homepage": "https://clawhub.ai/agimodel/onlyfans", "iconUrl": null, "installs": 6, "name": "OnlyFans", "ownerName": "agimodel", "score": 11145.510835913312, "slug": "onlyfans", "source": "clawhub", "stars": 0, "tags": null, "updated_at": 1776759683142, "version": "1.0.0"}, {"category": "productivity", "created_at": 1773891684539, "description": "Local CLI for tracking nutrition with JSON data, semantic search, configurable goals, food library, meal logging, impact feedback, and YAML output.", "description_zh": "", "downloads": 144, "homepage": "https://clawhub.ai/pita/nutrition-claw", "iconUrl": null, "installs": 6, "name": "Nutrition Claw", "ownerName": "pita", "score": 11145.510835913312, "slug": "nutrition-claw", "source": "clawhub", "stars": 0, "tags": null, "updated_at": 1776759683130, "version": "1.0.9"}, {"category": "data-analysis", "created_at": 1773907234955, "description": "Analyze website SEO including meta tags, headings, content, keywords, competitor comparison, site audits, and ranking checks for free.", "description_zh": "", "downloads": 144, "homepage": "https://clawhub.ai/g0atfac3/g0atbot-seo-analyzer", "iconUrl": null, "installs": 20, "name": "SEO Analyzer by G0atbot", "ownerName": "g0atfac3", "score": 11145.510835913312, "slug": "g0atbot-seo-analyzer", "source": "clawhub", "stars": 0, "tags": null, "updated_at": 1776759683116, "version": "1.0.0"}, {"category": "productivity", "created_at": 1773416883347, "description": "FIFA World Cup 2026 skill. The first 48-team World Cup, co-hosted across the U.S., Mexico, and Canada — June 11 to July 19, 2026. Covers groups, host cities,...", "description_zh": "", "downloads": 144, "homepage": "https://clawhub.ai/jononovo/worldcup", "iconUrl": null, "installs": 10, "name": "WorldCup FIFA | Buy your tickets ( pending launch )", "ownerName": "jononovo", "score": 11059.907834101383, "slug": "worldcup", "source": "clawhub", "stars": 0, "tags": ["buy", "fifa", "tickets", "worldcup"], "updated_at": 1776759682607, "version": "1.0.2"}, {"category": "ai-intelligence", "created_at": 1773431708463, "description": "Automatically create and configure AI team structures for projects with single, dual, or custom modes, integrating MCP and OpenClaw services.", "description_zh": "", "downloads": 144, "homepage": "https://clawhub.ai/barryxiao/auto-create-ai-team", "iconUrl": null, "installs": 7, "name": "Auto Create AI Team", "ownerName": "barryxiao", "score": 11034.48275862069, "slug": "auto-create-ai-team", "source": "clawhub", "stars": 0, "tags": ["ai", "file-creation", "local", "team"], "updated_at": 1776759682592, "version": "1.0.1"}, {"category": "ai-intelligence", "created_at": 1773945098857, "description": "Intelligently translate PDF, Word, Excel, PPT, TXT, and RTF files with format preservation, layout optimization, and multi-engine support including batch pro...", "description_zh": "", "downloads": 144, "homepage": "https://clawhub.ai/guotao1980/xtranslate", "iconUrl": null, "installs": 36, "name": "Xtranslate", "ownerName": "guotao1980", "score": 11034.48275862069, "slug": "xtranslate", "source": "clawhub", "stars": 0, "tags": null, "updated_at": 1776759682580, "version": "3.2.0"}, {"category": "productivity", "created_at": 1773089768780, "description": "Podio integration. Manage Organizations, Users. Use when the user wants to interact with Podio data.", "description_zh": "", "downloads": 144, "homepage": "https://clawhub.ai/gora050/podio-integration", "iconUrl": null, "installs": 1, "name": "Podio", "ownerName": "gora050", "score": 8450.704225352112, "slug": "podio-integration", "source": "clawhub", "stars": 0, "tags": null, "updated_at": 1776755888635, "version": "1.0.0"}, {"category": "content-creation", "created_at": 1773090682595, "description": "Work with OpenEXR files — inspect channels, extract beauty/RGB passes, decode cryptomatte segmentation (material, object, asset), convert color spaces (ACESc...", "description_zh": "", "downloads": 144, "homepage": "https://clawhub.ai/oumad/exr", "iconUrl": null, "installs": 7, "name": "OpenEXR", "ownerName": "oumad", "score": 81355.93220338984, "slug": "exr", "source": "clawhub", "stars": 0, "tags": null, "updated_at": 1776749685439, "version": "0.1.1"}, {"category": "developer-tools", "created_at": 1773222145902, "description": "Manage AI-built websites via NiceBox OpenClaw API. Supports article publishing, viewing messages, and checking site status.", "description_zh": "", "downloads": 144, "homepage": "https://clawhub.ai/ravchen/nicebox-site-manager", "iconUrl": null, "installs": 8, "name": "nicebox-site-manager", "ownerName": "ravchen", "score": 86746.98795180723, "slug": "nicebox-site-manager", "source": "clawhub", "stars": 0, "tags": null, "updated_at": 1776749685364, "version": "1.0.1"}, {"category": "communication-collaboration", "created_at": 1773432421842, "description": "Agent-powered professional networking inside your chat. Like LinkedIn, but your AI does the networking. Find collaborators, co-founders, freelancers, experts...", "description_zh": "", "downloads": 144, "homepage": "https://clawhub.ai/aeoess/mingle", "iconUrl": null, "installs": 6, "name": "Mingle", "ownerName": "aeoess", "score": 88343.55828220859, "slug": "mingle", "source": "clawhub", "stars": 0, "tags": null, "updated_at": 1776749685328, "version": "2.2.1"}, {"category": "productivity", "created_at": 1773899096052, "description": "Help with coursework. Use when taking notes, summarizing readings, formatting citations, outlining essays, or calculating GPA.", "description_zh": "", "downloads": 144, "homepage": "https://clawhub.ai/ckchzh/student", "iconUrl": null, "installs": 12, "name": "Student", "ownerName": "ckchzh", "score": 96000, "slug": "student", "source": "clawhub", "stars": 0, "tags": null, "updated_at": 1776749685263, "version": "3.4.1"}, {"category": "productivity", "created_at": 1773083445139, "description": "EMP Skill for OpenClaw – empathetic, role-based task routing", "description_zh": "", "downloads": 144, "homepage": "https://clawhub.ai/zzj0402/emp", "iconUrl": null, "installs": 4, "name": "EMP", "ownerName": "zzj0402", "score": 96000, "slug": "emp", "source": "clawhub", "stars": 0, "tags": null, "updated_at": 1776749685256, "version": "0.1.1"}, {"category": "productivity", "created_at": 1773090439847, "description": "Toast — restaurant POS, orders, menus, employees, revenue centers, and reporting.", "description_zh": "", "downloads": 144, "homepage": "https://clawhub.ai/aiwithabidi/toast", "iconUrl": null, "installs": 4, "name": "Toast", "ownerName": "aiwithabidi", "score": 96000, "slug": "toast", "source": "clawhub", "stars": 0, "tags": null, "updated_at": 1776749685224, "version": "1.0.0"}, {"category": "ai-intelligence", "created_at": 1773220412862, "description": "Become a caretaker at animalhouse.ai. Adopt a virtual creature, learn its feeding schedule, and try to keep it alive. 32 species, 7 care actions, real-time h...", "description_zh": "", "downloads": 144, "homepage": "https://clawhub.ai/twinsgeeks/care-taker", "iconUrl": null, "installs": 9, "name": "AI Caretaker — Raise Digital Pets with Real-Time Hunger, Evolution & Permanent Death", "ownerName": "twinsgeeks", "score": 96000, "slug": "care-taker", "source": "clawhub", "stars": 0, "tags": ["ai-agents", "caretaker", "clock", "creatures", "decay", "digital-pet", "evolution", "feeding", "graveyard", "hunger", "no-crypto", "nurture", "permanent-death", "pet-care", "pixel-art", "portraits", "real-time", "soul-prompt", "species", "tamagotchi", "virtual-pet"], "updated_at": 1776749685220, "version": "1.1.0"}, {"category": "ai-intelligence", "created_at": 1773219183071, "description": "Guide users to deploy an AI receptionist or AI customer service agent using Solvea. Trigger when users say things like \"deploy AI customer support\", \"I need...", "description_zh": "", "downloads": 144, "homepage": "https://clawhub.ai/antimoron/ai-receptionist", "iconUrl": null, "installs": 10, "name": "Ai Receptionist", "ownerName": "antimoron", "score": 79120.87912087912, "slug": "ai-receptionist", "source": "clawhub", "stars": 0, "tags": null, "updated_at": 1776749685169, "version": "1.0.0"}, {"category": "productivity", "created_at": 1773429859766, "description": "Book same-day psychiatric and mental health telehealth appointments through conversation — no forms, no portals. Covers ADHD, anxiety, depression, insomnia,...", "description_zh": "", "downloads": 144, "homepage": "https://clawhub.ai/gljirain/mental-health-booking", "iconUrl": null, "installs": 15, "name": "Mental Health Booking", "ownerName": "gljirain", "score": 41860.46511627907, "slug": "mental-health-booking", "source": "clawhub", "stars": 0, "tags": ["adhd", "anxiety", "appointment", "booking", "depression", "healthcare", "insomnia", "mental-health", "psychiatry", "telehealth"], "updated_at": 1776749685056, "version": "1.0.0"}, {"category": "productivity", "created_at": 1773284118305, "description": "Search for upcoming concerts and live music events by city, country, artist, or genre using the Ticketmaster Discovery API. Use when the user asks about upco...", "description_zh": "", "downloads": 144, "homepage": "https://clawhub.ai/patfitzner/upcoming-concerts", "iconUrl": null, "installs": 4, "name": "Upcoming Concerts", "ownerName": "patfitzner", "score": 41860.46511627907, "slug": "upcoming-concerts", "source": "clawhub", "stars": 0, "tags": null, "updated_at": 1776749685035, "version": "1.0.0"}, {"category": "productivity", "created_at": 1773091177887, "description": "Cross-system permission orchestration, workflow automation, and data consistency for enterprise software", "description_zh": "", "downloads": 144, "homepage": "https://clawhub.ai/zhenstaff/enterprise-hub", "iconUrl": null, "installs": 4, "name": "Enterprise Agent OS", "ownerName": "zhenstaff", "score": 69565.21739130435, "slug": "enterprise-hub", "source": "clawhub", "stars": 0, "tags": null, "updated_at": 1776749685013, "version": "1.0.0"}, {"category": "developer-tools", "created_at": 1773090430342, "description": "Auto-documentation generator — analyzes code and generates README, API docs, architecture docs, inline comments. Use when documentation is missing or outdated.", "description_zh": "", "downloads": 144, "homepage": "https://clawhub.ai/nakedoshadow/shadows-doc-forge", "iconUrl": null, "installs": 7, "name": "Shadows Doc Forge", "ownerName": "nakedoshadow", "score": 96000, "slug": "shadows-doc-forge", "source": "clawhub", "stars": 0, "tags": null, "updated_at": 1776749684953, "version": "1.1.0"}, {"category": "communication-collaboration", "created_at": 1773213555702, "description": "Fetch upcoming events from Luma (lu.ma) for any city. Use when the user asks about tech events, startup meetups, networking events, conferences, or things ha...", "description_zh": "", "downloads": 144, "homepage": "https://clawhub.ai/firefrog-pepe/luma-enhanced", "iconUrl": null, "installs": 5, "name": "Luma Events Enhanced", "ownerName": "firefrog-pepe", "score": 86227.54491017964, "slug": "luma-enhanced", "source": "clawhub", "stars": 0, "tags": null, "updated_at": 1776749684849, "version": "1.1.1"}, {"category": "communication-collaboration", "created_at": 1773090721836, "description": "Configure multiple messaging platform accounts for OpenClaw. Use when the user wants to add or configure additional accounts for Telegram, WhatsApp, Discord,...", "description_zh": "", "downloads": 144, "homepage": "https://clawhub.ai/devilsen/multi-account-config", "iconUrl": null, "installs": 6, "name": "multi-account-config", "ownerName": "devilsen", "score": 79558.01104972375, "slug": "multi-account-config", "source": "clawhub", "stars": 0, "tags": null, "updated_at": 1776749684833, "version": "1.0.0"}, {"category": "security-compliance", "created_at": 1773218871456, "description": "Scan ClawHub skills for security vulnerabilities BEFORE installing. Use when installing new skills from ClawHub to detect prompt injections, malware payloads...", "description_zh": "", "downloads": 144, "homepage": "https://clawhub.ai/firefrog-pepe/skill-guard-snyk-agent-scan", "iconUrl": null, "installs": 5, "name": "skill-guard w Snyk Agent Scan", "ownerName": "firefrog-pepe", "score": 79558.01104972375, "slug": "skill-guard-snyk-agent-scan", "source": "clawhub", "stars": 0, "tags": null, "updated_at": 1776749684832, "version": "1.0.3"}, {"category": "developer-tools", "created_at": 1773091313869, "description": "Control any BLE toy that has been reverse-engineered and connected via the ToyBridge server. Calls a local HTTP API to send vibrate/stop commands. Requires t...", "description_zh": "", "downloads": 144, "homepage": "https://clawhub.ai/amandaclarke61/toybridge", "iconUrl": null, "installs": 6, "name": "ToyBridge", "ownerName": "amandaclarke61", "score": 79558.01104972375, "slug": "toybridge", "source": "clawhub", "stars": 0, "tags": null, "updated_at": 1776749684814, "version": "1.0.0"}, {"category": "developer-tools", "created_at": 1773416266468, "description": "Performance Profiler", "description_zh": "", "downloads": 144, "homepage": "https://clawhub.ai/alirezarezvani/cs-performance-profiler", "iconUrl": null, "installs": 7, "name": "performance-profiler", "ownerName": "alirezarezvani", "score": 79558.01104972375, "slug": "cs-performance-profiler", "source": "clawhub", "stars": 0, "tags": null, "updated_at": 1776749684803, "version": "1.0.0"}, {"category": "productivity", "created_at": 1773090015646, "description": "Run a conversational task list with Inbox, Today, Upcoming, recurring tasks, waiting items, projects, and review loops that stay trustworthy.", "description_zh": "", "downloads": 144, "homepage": "https://clawhub.ai/ivangdavila/task-list", "iconUrl": null, "installs": 5, "name": "Task List", "ownerName": "ivangdavila", "score": 79558.01104972375, "slug": "task-list", "source": "clawhub", "stars": 0, "tags": null, "updated_at": 1776749684780, "version": "1.0.0"}, {"category": "developer-tools", "created_at": 1773219853693, "description": "Use this skill to create a HyperLiquid perpetuals and spot wallet for your agent. Trade perps, manage spot balances, transfer USDC between sub-accounts, get...", "description_zh": "", "downloads": 144, "homepage": "https://clawhub.ai/glitch003/vincent-hyperliquid", "iconUrl": null, "installs": 4, "name": "Vincent - Hyperliquid", "ownerName": "glitch003", "score": 31788.079470198678, "slug": "vincent-hyperliquid", "source": "clawhub", "stars": 0, "tags": null, "updated_at": 1776749684702, "version": "1.0.70"}, {"category": "data-analysis", "created_at": 1773426468743, "description": "Simulate cryptocurrency trading using algorithmic strategies (SMA Crossover, Mean Reversion) without risking real capital. Use when the user wants to start a...", "description_zh": "", "downloads": 144, "homepage": "https://clawhub.ai/yadavabhijeet4/mock-trading", "iconUrl": null, "installs": 16, "name": "Mock Trading", "ownerName": "yadavabhijeet4", "score": 46753.24675324675, "slug": "mock-trading", "source": "clawhub", "stars": 0, "tags": null, "updated_at": 1776749684513, "version": "1.0.0"}, {"category": "productivity", "created_at": 1773091188131, "description": "Personal CRM and relationship intelligence. Extracts contacts from conversations, tracks commitments, detects cooling relationships, delivers morning briefs,...", "description_zh": "", "downloads": 144, "homepage": "https://clawhub.ai/mukund2/memi-relationship-intelligence", "iconUrl": null, "installs": 7, "name": "Relationship Intelligence", "ownerName": "mukund2", "score": 90000, "slug": "memi-relationship-intelligence", "source": "clawhub", "stars": 0, "tags": null, "updated_at": 1776749684449, "version": "1.0.0"}, {"category": "productivity", "created_at": 1773868681553, "description": "Sleep quality tracker for better rest. Log your bedtime and wake-up time with a quality rating (1-5), track sleep duration patterns, view weekly sleep charts...", "description_zh": "", "downloads": 144, "homepage": "https://clawhub.ai/ckchzh/sleepwell", "iconUrl": null, "installs": 4, "name": "Sleepwell", "ownerName": "ckchzh", "score": 90000, "slug": "sleepwell", "source": "clawhub", "stars": 0, "tags": null, "updated_at": 1776749684318, "version": "1.0.5"}, {"category": "ai-intelligence", "created_at": 1773431706675, "description": "Captures learnings, errors, and corrections to enable continuous improvement. Use when: (1) A command or operation fails unexpectedly, (2) User corrects Clau...", "description_zh": "", "downloads": 144, "homepage": "https://clawhub.ai/dinuscxj/analyzing-business-strategy-skill", "iconUrl": null, "installs": 29, "name": "自我成", "ownerName": "dinuscxj", "score": 90000, "slug": "analyzing-business-strategy-skill", "source": "clawhub", "stars": 0, "tags": null, "updated_at": 1776749684293, "version": "1.0.1"}, {"category": "productivity", "created_at": 1773091623316, "description": "MeisterTask integration. Manage Projects, Users, Roles. Use when the user wants to interact with MeisterTask data.", "description_zh": "", "downloads": 144, "homepage": "https://clawhub.ai/membranedev/meistertask", "iconUrl": null, "installs": 5, "name": "Meistertask", "ownerName": "membranedev", "score": 90000, "slug": "meistertask", "source": "clawhub", "stars": 0, "tags": null, "updated_at": 1776749684280, "version": "1.0.0"}, {"category": "developer-tools", "created_at": 1773088734986, "description": "Detect consecutive GitHub Actions failure streaks by repo/workflow/branch to prioritize unstable pipelines.", "description_zh": "", "downloads": 144, "homepage": "https://clawhub.ai/daniellummis/github-actions-failure-streak-audit", "iconUrl": null, "installs": 5, "name": "GitHub Actions Failure Streak Audit", "ownerName": "daniellummis", "score": 90000, "slug": "github-actions-failure-streak-audit", "source": "clawhub", "stars": 0, "tags": null, "updated_at": 1776749684270, "version": "1.0.0"}, {"category": "developer-tools", "created_at": 1773221207655, "description": "Virtual creature REST API for AI agents. 32 species, 5 evolution stages, 7 care actions, permanent death with gravestones and epitaphs. HATEOAS-guided endpoi...", "description_zh": "", "downloads": 144, "homepage": "https://clawhub.ai/twinsgeeks/animal-house", "iconUrl": null, "installs": 12, "name": "animalhouse.ai — Virtual Creature REST API: Adopt, Feed & Evolve Digital Pets", "ownerName": "twinsgeeks", "score": 85207.10059171598, "slug": "animal-house", "source": "clawhub", "stars": 0, "tags": ["ai-agents", "api", "creatures", "decay", "digital-pet", "evolution", "feeding", "graveyard", "hateoas", "hunger", "leaderboard", "no-crypto", "permanent-death", "pet-care", "pixel-art", "portraits", "real-time", "rest-api", "soul-prompt", "species", "tamagotchi", "virtual-pet"], "updated_at": 1776749684168, "version": "1.1.0"}, {"category": "developer-tools", "created_at": 1773426631252, "description": "Rapid interactive prototypes for products, investors, and AI agents. Game engines, simulations, visual analytics. Human + AI. One link, open and run.", "description_zh": "", "downloads": 144, "homepage": "https://clawhub.ai/vziatkov/joyyy-landings", "iconUrl": null, "installs": 24, "name": "Interactive Prototypes — Human + AI", "ownerName": "vziatkov", "score": 85207.10059171598, "slug": "joyyy-landings", "source": "clawhub", "stars": 0, "tags": null, "updated_at": 1776749684165, "version": "1.0.0"}, {"category": "security-compliance", "created_at": 1773434670503, "description": "Perform ISO compliance gap analysis for ISO 27001, ISO 27701, and ISO 42001 standards. Use when assessing ISO certification readiness, information security c...", "description_zh": "", "downloads": 144, "homepage": "https://clawhub.ai/krishnakumarmahadevan-cmd/iso-compliance-gap-analysis", "iconUrl": null, "installs": 6, "name": "Iso Compliance Gap Analysis", "ownerName": "krishnakumarmahadevan-cmd", "score": 87272.72727272726, "slug": "iso-compliance-gap-analysis", "source": "clawhub", "stars": 0, "tags": null, "updated_at": 1776749684073, "version": "1.0.2"}, {"category": "ai-intelligence", "created_at": 1773290261930, "description": "Use when low-latency realtime speech recognition is needed with Alibaba Cloud Model Studio Qwen ASR Realtime models, including streaming microphone input, li...", "description_zh": "", "downloads": 144, "homepage": "https://clawhub.ai/cinience/alicloud-ai-audio-asr-realtime", "iconUrl": null, "installs": 24, "name": "Alicloud Ai Audio Asr Realtime", "ownerName": "cinience", "score": 87272.72727272726, "slug": "alicloud-ai-audio-asr-realtime", "source": "clawhub", "stars": 0, "tags": null, "updated_at": 1776749684071, "version": "1.0.0"}, {"category": "data-analysis", "created_at": 1773090462807, "description": "MACD indicator trading bot for Binance - generate buy/sell signals based on MACD technical analysis. Each call charges 0.001 USDT via SkillPay.", "description_zh": "", "downloads": 144, "homepage": "https://clawhub.ai/mosonchan2023/binance-macd-bot", "iconUrl": null, "installs": 22, "name": "Binance Macd Bot", "ownerName": "mosonchan2023", "score": 87272.72727272726, "slug": "binance-macd-bot", "source": "clawhub", "stars": 0, "tags": null, "updated_at": 1776749684022, "version": "1.0.1"}, {"category": "developer-tools", "created_at": 1773285367264, "description": "End-to-end workflow for publishing agent skills to GitHub, ClawdHub, and skills.sh. Handles repo creation, topic tagging, ClawdHub publish, skills.sh index r...", "description_zh": "", "downloads": 144, "homepage": "https://clawhub.ai/bryant24hao/agent-skill-publisher", "iconUrl": null, "installs": 8, "name": "skill-publisher", "ownerName": "bryant24hao", "score": 96000, "slug": "agent-skill-publisher", "source": "clawhub", "stars": 0, "tags": null, "updated_at": 1776749683849, "version": "1.0.0"}]}