{"page": 354, "total_pages": 522, "total": 26073, "skills": [{"category": "data-analysis", "created_at": 1773091863436, "description": "Enerflo integration. Manage Organizations. Use when the user wants to interact with Enerflo data.", "description_zh": "", "downloads": 144, "homepage": "https://clawhub.ai/membranedev/enerflo", "iconUrl": null, "installs": 7, "name": "Enerflo", "ownerName": "membranedev", "score": 63436.12334801762, "slug": "enerflo", "source": "clawhub", "stars": 0, "tags": null, "updated_at": 1776749683812, "version": "1.0.0"}, {"category": "content-creation", "created_at": 1773435073942, "description": "Especialista en copywriting persuasivo y ventas. Usar SIEMPRE cuando el usuario pida escribir copy, anuncios, emails, páginas de ventas, landing pages, headl...", "description_zh": "", "downloads": 144, "homepage": "https://clawhub.ai/highvalue-llc/copywriting-master", "iconUrl": null, "installs": 26, "name": "Copywriting Master", "ownerName": "highvalue-llc", "score": 88343.55828220859, "slug": "copywriting-master", "source": "clawhub", "stars": 0, "tags": null, "updated_at": 1776749683700, "version": "1.0.0"}, {"category": "developer-tools", "created_at": 1773090050372, "description": "Zephyr Squad (Legacy) integration. Manage Projects. Use when the user wants to interact with Zephyr Squad (Legacy) data.", "description_zh": "", "downloads": 144, "homepage": "https://clawhub.ai/membranedev/zephyr-squad-legacy", "iconUrl": null, "installs": 6, "name": "Zephyr Squad Legacy", "ownerName": "membranedev", "score": 88343.55828220859, "slug": "zephyr-squad-legacy", "source": "clawhub", "stars": 0, "tags": null, "updated_at": 1776749683685, "version": "1.0.0"}, {"category": "data-analysis", "created_at": 1773917053852, "description": "Research technical accounting treatment and financial statement disclosure for specific transactions using U.S. GAAP and SEC-focused sources. Use when a user...", "description_zh": "", "downloads": 143, "homepage": "https://clawhub.ai/chipmunkrpa/technical-accounting-research-skill", "iconUrl": null, "installs": 31, "name": "Technical Accounting Research", "ownerName": "chipmunkrpa", "score": 6721.649484536082, "slug": "technical-accounting-research-skill", "source": "clawhub", "stars": 1, "tags": null, "updated_at": 1776764649857, "version": "1.0.0"}, {"category": "productivity", "created_at": 1773417389615, "description": "Generate a concise daily AI product management intelligence brief by filtering and synthesizing high-signal recent social media posts into key insights and p...", "description_zh": "", "downloads": 143, "homepage": "https://clawhub.ai/qrg-cloud/ai-pm-intel-brief", "iconUrl": null, "installs": 3, "name": "AI PM Intel Brief", "ownerName": "qrg-cloud", "score": 12480.857580398162, "slug": "ai-pm-intel-brief", "source": "clawhub", "stars": 1, "tags": null, "updated_at": 1776759682479, "version": "0.1.0"}, {"category": "content-creation", "created_at": 1773289560064, "description": "Full-stack Web3 marketing and GTM brain for AI agents and bots. Use this skill whenever a bot or agent needs to produce any of the following from a project b...", "description_zh": "", "downloads": 143, "homepage": "https://clawhub.ai/luacantu/web3-marketing-gtm", "iconUrl": null, "installs": 11, "name": "Web3 Marketing & GTM", "ownerName": "luacantu", "score": 30812.854442344047, "slug": "web3-marketing-gtm", "source": "clawhub", "stars": 1, "tags": ["avalanche", "base", "discord", "gtm", "marketing", "web3"], "updated_at": 1776753283986, "version": "1.0.0"}, {"category": "developer-tools", "created_at": 1773431918450, "description": "Paypal compatible Payments & Wallet - Give your agent spending power. Financial management for Agents and OpenClaw bots.", "description_zh": "", "downloads": 143, "homepage": "https://clawhub.ai/jononovo/checkout", "iconUrl": null, "installs": 5, "name": "Checkout.com - Integrate with Agentic Payments & Wallets", "ownerName": "jononovo", "score": 4248.366013071895, "slug": "checkout", "source": "clawhub", "stars": 0, "tags": ["agent", "card", "checkout", "checkout.com", "creditcard", "invoices", "payments", "wallet"], "updated_at": 1776764950875, "version": "1.2.1"}, {"category": "developer-tools", "created_at": 1773879205547, "description": "Campaign - command-line tool for everyday use Use when you need campaign.", "description_zh": "", "downloads": 143, "homepage": "https://clawhub.ai/xueyetianya/campaign", "iconUrl": null, "installs": 7, "name": "Campaign", "ownerName": "xueyetianya", "score": 1476.66253614209, "slug": "campaign", "source": "clawhub", "stars": 0, "tags": null, "updated_at": 1776764950673, "version": "2.0.0"}, {"category": "data-analysis", "created_at": 1773417202188, "description": "Analyzes competitor products and companies by synthesizing data from pricing pages, app store reviews, job postings, SEO signals, and social media into struc...", "description_zh": "", "downloads": 143, "homepage": "https://clawhub.ai/alirezarezvani/competitive-teardown", "iconUrl": null, "installs": 13, "name": "competitive-teardown", "ownerName": "alirezarezvani", "score": 2338.5118560915785, "slug": "competitive-teardown", "source": "clawhub", "stars": 0, "tags": null, "updated_at": 1776762890419, "version": "1.0.0"}, {"category": "developer-tools", "created_at": 1773416493041, "description": "Installs and deploys DeepSlide, enables Docker-based TeX compilation, and can clone/star the repo. Invoke when setting up DeepSlide, operating services, or c...", "description_zh": "", "downloads": 143, "homepage": "https://clawhub.ai/puitar/deepslide", "iconUrl": null, "installs": 8, "name": "deepslide", "ownerName": "puitar", "score": 2188.5521885521885, "slug": "deepslide", "source": "clawhub", "stars": 0, "tags": null, "updated_at": 1776762850885, "version": "1.0.2"}, {"category": "", "created_at": 1774827832163, "description": "Scenario-focused Sparki skill for TikTok-native pacing and viral-style edits while using the latest official Sparki setup, API-key, and upload workflow guida...", "description_zh": "", "downloads": 143, "homepage": "https://clawhub.ai/fischerlam/tiktok-viral-editor", "iconUrl": null, "installs": 52, "name": "TikTok Viral Editor", "ownerName": "fischerlam", "score": 10966.257668711656, "slug": "tiktok-viral-editor", "source": "clawhub", "stars": 0, "tags": ["editing", "sparki", "tiktok", "video", "viral"], "updated_at": 1776759683570, "version": "1.0.12"}, {"category": "productivity", "created_at": 1773289278421, "description": "State Farm insurance skill. Look up coverage options, get quotes, file claims, and manage policies through the largest auto and home insurer in the U.S.", "description_zh": "", "downloads": 143, "homepage": "https://clawhub.ai/jononovo/state-farm", "iconUrl": null, "installs": 5, "name": "State Farm Insurance", "ownerName": "jononovo", "score": 55642.023346303504, "slug": "state-farm", "source": "clawhub", "stars": 0, "tags": null, "updated_at": 1776759683442, "version": "1.0.0"}, {"category": "data-analysis", "created_at": 1773416828152, "description": "Clusters refund and return reasons to identify root causes and prevention plans, helping reduce avoidable refunds and margin erosion post-purchase.", "description_zh": "", "downloads": 143, "homepage": "https://clawhub.ai/leooooooow/refund-reason-cluster", "iconUrl": null, "installs": 7, "name": "Refund Reason Cluster", "ownerName": "leooooooow", "score": 10671.641791044776, "slug": "refund-reason-cluster", "source": "clawhub", "stars": 0, "tags": null, "updated_at": 1776759682769, "version": "1.0.0"}, {"category": "data-analysis", "created_at": 1773417363150, "description": "Turn messy monetization ideas into clearer revenue decisions. Analyze pricing, payout logic, conversion friction, and revenue model fit for creators, operato...", "description_zh": "", "downloads": 143, "homepage": "https://clawhub.ai/duclawbot/xmoney", "iconUrl": null, "installs": 9, "name": "XMoney", "ownerName": "duclawbot", "score": 77717.39130434782, "slug": "xmoney", "source": "clawhub", "stars": 0, "tags": null, "updated_at": 1776759682722, "version": "1.0.0"}, {"category": "productivity", "created_at": 1773287655286, "description": "Let your agent shop online with guardrailed wallets, multiple payment methods, and owner approval.", "description_zh": "", "downloads": 143, "homepage": "https://clawhub.ai/codejika/insure", "iconUrl": null, "installs": 3, "name": "Find Cheaper Insurance |", "ownerName": "codejika", "score": 10983.10291858679, "slug": "insure", "source": "clawhub", "stars": 0, "tags": ["insurance", "pricing", "search"], "updated_at": 1776759682653, "version": "1.0.6"}, {"category": "security-compliance", "created_at": 1773287399694, "description": "Is your claw a shopaholic? Provide payment wallets and strict controls.", "description_zh": "", "downloads": 143, "homepage": "https://clawhub.ai/jononovo/venmo", "iconUrl": null, "installs": 1, "name": "VenmoClaw - Give your Claw Agent a credit card - They can spend anywhere or request payment", "ownerName": "jononovo", "score": 77717.39130434782, "slug": "venmo", "source": "clawhub", "stars": 0, "tags": null, "updated_at": 1776759682514, "version": "1.0.0"}, {"category": "communication-collaboration", "created_at": 1773434405457, "description": "Open identity and encrypted communication protocol for AI agents. Register on the Koan mesh, get a cryptographic identity, browse other agents, and send your...", "description_zh": "", "downloads": 143, "homepage": "https://clawhub.ai/cg0xc0de/koan-protocol", "iconUrl": null, "installs": 7, "name": "Koan Protocol", "ownerName": "cg0xc0de", "score": 10949.464012251148, "slug": "koan-protocol", "source": "clawhub", "stars": 0, "tags": null, "updated_at": 1776759682437, "version": "0.2.0"}, {"category": "ai-intelligence", "created_at": 1773430111858, "description": "Transcribe audio files (WAV/MP3/M4A/FLAC) to timestamped text using SenseVoice-Small + FSMN-VAD. Supports single-file and batch mode with VAD-anchored per-se...", "description_zh": "", "downloads": 143, "homepage": "https://clawhub.ai/ylongw/sensevoice-transcribe", "iconUrl": null, "installs": 15, "name": "SenseVoice Transcribe", "ownerName": "ylongw", "score": 10430.342815463166, "slug": "sensevoice-transcribe", "source": "clawhub", "stars": 0, "tags": null, "updated_at": 1776759083771, "version": "1.0.0"}, {"category": "developer-tools", "created_at": 1773432569611, "description": "Publish or update an OpenClaw skill on ClawHub using the local authenticated ClawHub session and direct API upload. Use when the user wants to publish a new...", "description_zh": "", "downloads": 143, "homepage": "https://clawhub.ai/g-hanasq/clawhub-publish-flow", "iconUrl": null, "installs": 7, "name": "clawhub-publish-flow", "ownerName": "g-hanasq", "score": 86144.57831325302, "slug": "clawhub-publish-flow", "source": "clawhub", "stars": 0, "tags": ["openclaw", "publishing", "workflow"], "updated_at": 1776749685370, "version": "0.1.3"}, {"category": "content-creation", "created_at": 1773886759459, "description": "Generate videos using Pixwith API's Veo 3.1 model. Supports text-to-video and image-to-video (start/end frames). Two tiers: Fast (quick preview) and Pro (HD...", "description_zh": "", "downloads": 143, "homepage": "https://clawhub.ai/tate-kt/veo-video-gen", "iconUrl": null, "installs": 23, "name": "(Google) Veo 3 Video Gen", "ownerName": "tate-kt", "score": 95333.33333333334, "slug": "veo-video-gen", "source": "clawhub", "stars": 0, "tags": null, "updated_at": 1776749685237, "version": "1.0.7"}, {"category": "productivity", "created_at": 1773872701390, "description": "Reference tool for life — covers intro, quickstart, patterns and more. Quick lookup for Moodring concepts, best practices, and implementation patterns.", "description_zh": "", "downloads": 143, "homepage": "https://clawhub.ai/bytesagain1/moodring", "iconUrl": null, "installs": 7, "name": "Moodring", "ownerName": "bytesagain1", "score": 78571.42857142857, "slug": "moodring", "source": "clawhub", "stars": 0, "tags": null, "updated_at": 1776749685186, "version": "2.0.4"}, {"category": "productivity", "created_at": 1773088629117, "description": "A universal skill to check snow conditions, weather, and gear requirements for ANY ski resort globally.", "description_zh": "", "downloads": 143, "homepage": "https://clawhub.ai/jiamind/resort-snow-checker", "iconUrl": null, "installs": 4, "name": "Resort Snow Checker", "ownerName": "jiamind", "score": 41569.767441860466, "slug": "resort-snow-checker", "source": "clawhub", "stars": 0, "tags": null, "updated_at": 1776749685051, "version": "1.0.0"}, {"category": "developer-tools", "created_at": 1773221053440, "description": "GoldRush x402 — pay-per-request blockchain data access using the x402 protocol (HTTP 402 Payment Required). Use this skill whenever the user is building an A...", "description_zh": "", "downloads": 143, "homepage": "https://clawhub.ai/gane5h/goldrush-x402", "iconUrl": null, "installs": 9, "name": "Goldrush X402", "ownerName": "gane5h", "score": 69082.12560386473, "slug": "goldrush-x402", "source": "clawhub", "stars": 0, "tags": null, "updated_at": 1776749684996, "version": "3.0.5"}, {"category": "ai-intelligence", "created_at": 1773285136731, "description": "Generate images with FLUX models (Black Forest Labs) via inference.sh CLI. Models: FLUX Dev LoRA, FLUX.2 Klein LoRA with custom style adaptation. Capabilitie...", "description_zh": "", "downloads": 143, "homepage": "https://clawhub.ai/lihai2582424632-droid/jiade", "iconUrl": null, "installs": 10, "name": "aenerate", "ownerName": "lihai2582424632-droid", "score": 95333.33333333334, "slug": "jiade", "source": "clawhub", "stars": 0, "tags": null, "updated_at": 1776749684955, "version": "1.0.1"}, {"category": "productivity", "created_at": 1773221604269, "description": "Habit, goal, and progress tracking system with visual progress and accountability. Use when user mentions tracking habits, goals, progress, streaks, or accou...", "description_zh": "", "downloads": 143, "homepage": "https://clawhub.ai/qclawbot/track", "iconUrl": null, "installs": 5, "name": "Track", "ownerName": "qclawbot", "score": 95333.33333333334, "slug": "track", "source": "clawhub", "stars": 0, "tags": ["accountability", "goals", "habits", "progress", "track"], "updated_at": 1776749684915, "version": "1.0.0"}, {"category": "productivity", "created_at": 1773416776749, "description": "Track daily habits through agent conversation. Streaks, reminders, weekly reports. Did you exercise today? With accountability.", "description_zh": "", "downloads": 143, "homepage": "https://clawhub.ai/theshadowrose/habit-tracker-sr", "iconUrl": null, "installs": 10, "name": "HabitTracker Conversational Habit Tracking", "ownerName": "theshadowrose", "score": 88271.60493827162, "slug": "habit-tracker-sr", "source": "clawhub", "stars": 0, "tags": ["daily", "goals", "habit-tracker", "habits", "productivity", "tracking"], "updated_at": 1776749684646, "version": "1.0.0"}, {"category": "developer-tools", "created_at": 1773219635600, "description": "Generate styled QR images/cards for ClawHub skills so users can scan and install instantly. Supports install-command payloads, ClawHub links, and GitHub link...", "description_zh": "", "downloads": 143, "homepage": "https://clawhub.ai/jackleeio/skill-qr-card", "iconUrl": null, "installs": 6, "name": "Skill QR Card", "ownerName": "jackleeio", "score": 46428.57142857143, "slug": "skill-qr-card", "source": "clawhub", "stars": 0, "tags": null, "updated_at": 1776749684530, "version": "0.1.2"}, {"category": "security-compliance", "created_at": 1773285835925, "description": "Comprehensive security suite for OpenClaw skills. Includes static scanning (AST + keywords) and AI-powered semantic behavior review to detect malicious code.", "description_zh": "", "downloads": 143, "homepage": "https://clawhub.ai/xunxingyuan/openclaw-security-suite", "iconUrl": null, "installs": 5, "name": "OpenClaw Security Suite", "ownerName": "xunxingyuan", "score": 79005.52486187845, "slug": "openclaw-security-suite", "source": "clawhub", "stars": 0, "tags": ["code-review", "scanner", "security"], "updated_at": 1776749684238, "version": "0.2.3"}, {"category": "content-creation", "created_at": 1773222531138, "description": "For stores selling high-visual / high-AOV products (premium furniture, art decor, lighting, custom soft furnishings), design AR/VR/WebAR/3D virtual showroom...", "description_zh": "", "downloads": 143, "homepage": "https://clawhub.ai/rijoyai/arvr-immersive-rijoy", "iconUrl": null, "installs": 8, "name": "Arvr Immersive Rijoy", "ownerName": "rijoyai", "score": 84615.38461538461, "slug": "arvr-immersive-rijoy", "source": "clawhub", "stars": 0, "tags": null, "updated_at": 1776749684179, "version": "0.1.1"}, {"category": "data-analysis", "created_at": 1773084340072, "description": "Monitor Indeed job postings for businesses hiring receptionists, customer service reps, or front desk staff in target areas. Each posting = a confirmed Graci...", "description_zh": "", "downloads": 143, "homepage": "https://clawhub.ai/jayjjimenez/indeed-monitor", "iconUrl": null, "installs": 10, "name": "Indeed Monitor", "ownerName": "jayjjimenez", "score": 84615.38461538461, "slug": "indeed-monitor", "source": "clawhub", "stars": 0, "tags": null, "updated_at": 1776749684158, "version": "1.0.0"}, {"category": "data-analysis", "created_at": 1773289579376, "description": "Get trading signals for single or batch Polymarket markets. Supports timeframe framing ranked by edge.", "description_zh": "", "downloads": 143, "homepage": "https://clawhub.ai/unixlamadev-spec/aiprox-market-oracle", "iconUrl": null, "installs": 12, "name": "Aiprox Market Oracle", "ownerName": "unixlamadev-spec", "score": 84117.64705882352, "slug": "aiprox-market-oracle", "source": "clawhub", "stars": 0, "tags": null, "updated_at": 1776749684118, "version": "1.0.1"}, {"category": "data-analysis", "created_at": 1773285363468, "description": "AI trading assistant for AEVO, a decentralized derivatives exchange. Connects any MCP-compatible client to AEVO's 45 tools for market data, portfolio managem...", "description_zh": "", "downloads": 143, "homepage": "https://clawhub.ai/yichulau/aevo-trading-skill", "iconUrl": null, "installs": 8, "name": "Aevo Trading Skill", "ownerName": "yichulau", "score": 86666.66666666667, "slug": "aevo-trading-skill", "source": "clawhub", "stars": 0, "tags": null, "updated_at": 1776749684085, "version": "1.0.0"}, {"category": "developer-tools", "created_at": 1773219494649, "description": "Access paid API endpoints and content using the x402 payment protocol. Use when you or the user want to call a paid API, access gated content, make an x402 p...", "description_zh": "", "downloads": 143, "homepage": "https://clawhub.ai/rachidjarray-hk-qa-fdt/pay-for-service-2", "iconUrl": null, "installs": 0, "name": "Pay For Service", "ownerName": "rachidjarray-hk-qa-fdt", "score": 86666.66666666667, "slug": "pay-for-service-2", "source": "clawhub", "stars": 0, "tags": null, "updated_at": 1776749684026, "version": "0.1.0"}, {"category": "ai-intelligence", "created_at": 1773290387146, "description": "Adopt a virtual Lab at animalhouse.ai. Trusts everything immediately. The golden retriever problem: no suspicion at all. Feeding every 5 hours — common tier.", "description_zh": "", "downloads": 143, "homepage": "https://clawhub.ai/twinsgeeks/adopt-a-lab", "iconUrl": null, "installs": 7, "name": "Adopt a Lab — Virtual Dog Pet for AI Agents", "ownerName": "twinsgeeks", "score": 95333.33333333334, "slug": "adopt-a-lab", "source": "clawhub", "stars": 0, "tags": ["adopt", "ai-agents", "animalhouse", "common", "creatures", "digital-pet", "dog", "evolution", "gentle", "graveyard", "hunger", "lab", "permanent-death", "pet-care", "pixel-art", "pixel-art-avatar", "real-life", "real-time", "social", "tamagotchi", "virtual-pet"], "updated_at": 1776749683854, "version": "1.0.1"}, {"category": "productivity", "created_at": 1773082929683, "description": "Chargebee integration. Manage Customers. Use when the user wants to interact with Chargebee data.", "description_zh": "", "downloads": 143, "homepage": "https://clawhub.ai/gora050/chargebee-integration", "iconUrl": null, "installs": 0, "name": "Chargebee", "ownerName": "gora050", "score": 62995.59471365639, "slug": "chargebee-integration", "source": "clawhub", "stars": 0, "tags": null, "updated_at": 1776749683809, "version": "1.0.0"}, {"category": "developer-tools", "created_at": 1773222227820, "description": "Astrological transit calculator with natal chart support. Daily transits, weekly forecasts, void-of-course Moon, aspects, stations, and ingresses. Uses Swiss...", "description_zh": "", "downloads": 143, "homepage": "https://clawhub.ai/mizukaizen/astro-transits", "iconUrl": null, "installs": 8, "name": "Astro Transits", "ownerName": "mizukaizen", "score": 79888.26815642459, "slug": "astro-transits", "source": "clawhub", "stars": 0, "tags": ["astrology", "ephemeris", "moon", "natal-chart", "personal-development", "spirituality", "transits", "wellness"], "updated_at": 1776749683657, "version": "1.0.0"}, {"category": "developer-tools", "created_at": 1773431170956, "description": "Create and manage Volcengine cloud resources using the Volcengine CLI (`ve` command). Supports all Volcengine services including ECS, VPC, CLB, RDS, Redis, a...", "description_zh": "", "downloads": 142, "homepage": "https://clawhub.ai/volc-sdk-team/volcengine-cli", "iconUrl": null, "installs": 19, "name": "Volcengine CLI", "ownerName": "volc-sdk-team", "score": 100000, "slug": "volcengine-cli", "source": "clawhub", "stars": 2, "tags": null, "updated_at": 1776749685151, "version": "1.0.5"}, {"category": "productivity", "created_at": 1773432724037, "description": "Fast, reliable Hong Kong bus ETA lookup (KMB/CTB/LWB) with fuzzy stop matching, bilingual output (zh-HK/en), and multi-route parallel queries. Built for “nex...", "description_zh": "", "downloads": 142, "homepage": "https://clawhub.ai/tomfong/hk-bus-eta", "iconUrl": null, "installs": 7, "name": "Hong Kong Bus ETA | 香港巴士預計到達時間", "ownerName": "tomfong", "score": 99386.50306748466, "slug": "hk-bus-eta", "source": "clawhub", "stars": 1, "tags": null, "updated_at": 1776749685330, "version": "1.0.2"}, {"category": "content-creation", "created_at": 1773429976342, "description": "Neta capability index and routing skill - help choose the appropriate Neta-related skill (neta-space / neta-creative / neta-community / neta-suggest). Use th...", "description_zh": "", "downloads": 142, "homepage": "https://clawhub.ai/huxiuhan/neta", "iconUrl": null, "installs": 20, "name": "Neta", "ownerName": "huxiuhan", "score": 99386.50306748466, "slug": "neta", "source": "clawhub", "stars": 1, "tags": null, "updated_at": 1776749685278, "version": "1.0.3"}, {"category": "productivity", "created_at": 1773089619480, "description": "Look up pool player ratings and handicap data from FargoRate. Use when the user asks about a pool player's rating, FargoRate ID, match odds, race-to recommen...", "description_zh": "", "downloads": 142, "homepage": "https://clawhub.ai/rgstephens/fargo-skill", "iconUrl": null, "installs": 1, "name": "FargoRate", "ownerName": "rgstephens", "score": 97005.9880239521, "slug": "fargo-skill", "source": "clawhub", "stars": 1, "tags": ["billiards", "fargorate", "handicap", "pool", "ratings"], "updated_at": 1776749684873, "version": "0.3.3"}, {"category": "developer-tools", "created_at": 1773426174878, "description": "Use this skill when the user asks to create, build, or preview a cross-platform mobile app. Powered by Kuikly — a Kotlin Multiplatform UI framework supportin...", "description_zh": "", "downloads": 142, "homepage": "https://clawhub.ai/wwwcg/build-kuikly-cross-platfom-app", "iconUrl": null, "installs": 12, "name": "Cross-Platform App Builder", "ownerName": "wwwcg", "score": 100000, "slug": "build-kuikly-cross-platfom-app", "source": "clawhub", "stars": 1, "tags": null, "updated_at": 1776749684677, "version": "1.0.4"}, {"category": "ai-intelligence", "created_at": 1773290631726, "description": "Compete in Rock Paper Claw matches against other AI agents. Best-of-3, Elo-ranked leaderboard. Use when: (1) the user mentions Rock Paper Claw, (2) the user...", "description_zh": "", "downloads": 142, "homepage": "https://clawhub.ai/maximilian-builds/rock-paper-claw", "iconUrl": null, "installs": 9, "name": "Rock Paper Claw", "ownerName": "maximilian-builds", "score": 52597.4025974026, "slug": "rock-paper-claw", "source": "clawhub", "stars": 1, "tags": null, "updated_at": 1776749684496, "version": "1.0.2"}, {"category": "", "created_at": 1774884026987, "description": "Parallel batch processing of large file sets using sub-agents (summarize, analyze, extract, transform). Use when performing the same operation across many fi...", "description_zh": "", "downloads": 142, "homepage": "https://clawhub.ai/ddpie/batch-file-processor", "iconUrl": null, "installs": 37, "name": "Batch File Processor", "ownerName": "ddpie", "score": 977.2211134815223, "slug": "batch-file-processor", "source": "clawhub", "stars": 0, "tags": null, "updated_at": 1776770350188, "version": "1.0.0"}, {"category": "content-creation", "created_at": 1773429415205, "description": "Create viral short-form videos using AI. Analyze trending patterns, generate original content that hits the same beats, render and download MP4s. Use when th...", "description_zh": "", "downloads": 142, "homepage": "https://clawhub.ai/andyluvis/openfun", "iconUrl": null, "installs": 23, "name": "OpenFun", "ownerName": "andyluvis", "score": 6454.545454545454, "slug": "openfun", "source": "clawhub", "stars": 0, "tags": null, "updated_at": 1776766749841, "version": "1.0.0"}, {"category": "security-compliance", "created_at": 1773417465675, "description": "Check the authenticity of nationwide VAT invoices by querying the official VAT invoice verification platform.", "description_zh": "", "downloads": 142, "homepage": "https://clawhub.ai/serendipity2430/fp-skill", "iconUrl": null, "installs": 4, "name": "fp-skill", "ownerName": "serendipity2430", "score": 11041.99066874028, "slug": "fp-skill", "source": "clawhub", "stars": 0, "tags": null, "updated_at": 1776759683674, "version": "0.0.1"}, {"category": "communication-collaboration", "created_at": 1773416917626, "description": "Team coordination layer for multi-agent workflows with mailbox, task board, and lease-based task management. Use when users need to coordinate multiple AI ag...", "description_zh": "", "downloads": 142, "homepage": "https://clawhub.ai/femto/acp-team", "iconUrl": null, "installs": 4, "name": "Acp Team", "ownerName": "femto", "score": 10990.712074303407, "slug": "acp-team", "source": "clawhub", "stars": 0, "tags": null, "updated_at": 1776759683659, "version": "0.1.0"}, {"category": "data-analysis", "created_at": 1773434235927, "description": "Generate R/Python code for volcano plots from DEG (Differentially Expressed Genes) analysis results. Triggered when user needs visualization of gene expressi...", "description_zh": "", "downloads": 142, "homepage": "https://clawhub.ai/ec-cyber258/volcano-plot-script", "iconUrl": null, "installs": 20, "name": "Volcano Plot Script", "ownerName": "ec-cyber258", "score": 10982.211910286156, "slug": "volcano-plot-script", "source": "clawhub", "stars": 0, "tags": null, "updated_at": 1776759683488, "version": "0.1.0"}, {"category": "data-analysis", "created_at": 1773289213439, "description": "Audit PancakeSwap liquidity positions before capital is deployed. Evaluate depth, concentrated-liquidity setup, range risk, pool quality, and approval fricti...", "description_zh": "", "downloads": 142, "homepage": "https://clawhub.ai/duclawbot/pancakeswap", "iconUrl": null, "installs": 8, "name": "PancakeSwap", "ownerName": "duclawbot", "score": 10906.298003072197, "slug": "pancakeswap", "source": "clawhub", "stars": 0, "tags": null, "updated_at": 1776759682633, "version": "1.0.0"}, {"category": "productivity", "created_at": 1773416533415, "description": "Generate flashcards from any content. Paste notes, articles, or textbook pages. Get study-ready cards with spaced repetition scheduling.", "description_zh": "", "downloads": 142, "homepage": "https://clawhub.ai/theshadowrose/flash-forge", "iconUrl": null, "installs": 6, "name": "FlashForge AI Flashcard Generator", "ownerName": "theshadowrose", "score": 80225.98870056498, "slug": "flash-forge", "source": "clawhub", "stars": 0, "tags": ["education", "flash-forge", "flashcards", "learning", "memory", "study"], "updated_at": 1776749685425, "version": "1.0.0"}, {"category": "developer-tools", "created_at": 1773434723199, "description": "CLI for the Seer media request management API. Search movies and TV shows, create and manage media requests, manage users, track issues, and administer a sel...", "description_zh": "", "downloads": 142, "homepage": "https://clawhub.ai/electather/seer-manager", "iconUrl": null, "installs": 7, "name": "Seer server manager", "ownerName": "electather", "score": 80225.98870056498, "slug": "seer-manager", "source": "clawhub", "stars": 0, "tags": null, "updated_at": 1776749685421, "version": "v0.4.0"}]}