{"page": 355, "total_pages": 522, "total": 26073, "skills": [{"category": "content-creation", "created_at": 1773417731960, "description": "This skill should be used when the user asks to recreate a TikTok video, rewrite a TikTok for their own product, make a similar TikTok, adapt a reference vid...", "description_zh": "", "downloads": 142, "homepage": "https://clawhub.ai/newt0n/creatok-recreate-video", "iconUrl": null, "installs": 12, "name": "Creatok Recreate TikTok Video", "ownerName": "newt0n", "score": 80225.98870056498, "slug": "creatok-recreate-video", "source": "clawhub", "stars": 0, "tags": null, "updated_at": 1776749685417, "version": "0.1.1"}, {"category": "content-creation", "created_at": 1773091335258, "description": "Document360 integration. Manage Projects, Users, Roles. Use when the user wants to interact with Document360 data.", "description_zh": "", "downloads": 142, "homepage": "https://clawhub.ai/gora050/document360", "iconUrl": null, "installs": 3, "name": "Document360", "ownerName": "gora050", "score": 80225.98870056498, "slug": "document360", "source": "clawhub", "stars": 0, "tags": null, "updated_at": 1776749685415, "version": "1.0.0"}, {"category": "developer-tools", "created_at": 1773874235847, "description": "Memory usage monitor and analyzer. Track RAM consumption, identify memory-hungry processes, monitor swap usage, detect memory leaks by watching process growt...", "description_zh": "", "downloads": 142, "homepage": "https://clawhub.ai/bytesagain/memwatch", "iconUrl": null, "installs": 5, "name": "Memwatch", "ownerName": "bytesagain", "score": 87116.56441717791, "slug": "memwatch", "source": "clawhub", "stars": 0, "tags": null, "updated_at": 1776749685340, "version": "1.0.6"}, {"category": "content-creation", "created_at": 1773416416469, "description": "generate a joke / story / riddle", "description_zh": "", "downloads": 142, "homepage": "https://clawhub.ai/lyuns/aigc", "iconUrl": null, "installs": 13, "name": "gen-joke", "ownerName": "lyuns", "score": 94666.66666666667, "slug": "aigc", "source": "clawhub", "stars": 0, "tags": null, "updated_at": 1776749685273, "version": "1.0.0"}, {"category": "developer-tools", "created_at": 1773220270465, "description": "Solve competitive programming problems on NCCUOJ (https://nccuoj.ebg.tw). Use when: solving OJ problems, reading problem statements, writing solutions in C/C...", "description_zh": "", "downloads": 142, "homepage": "https://clawhub.ai/andyjjrt/nccuoj", "iconUrl": null, "installs": 10, "name": "NCCU OJ", "ownerName": "andyjjrt", "score": 78021.97802197802, "slug": "nccuoj", "source": "clawhub", "stars": 0, "tags": null, "updated_at": 1776749685217, "version": "1.0.2"}, {"category": "", "created_at": 1774866187793, "description": "PDF to Markdown converter - extract text, tables and formulas from PDF files to clean Markdown. Use when converting PDF documents, extracting PDF content, pa...", "description_zh": "", "downloads": 142, "homepage": "https://clawhub.ai/tanis90/pdftomd", "iconUrl": null, "installs": 53, "name": "PDF to Markdown - Extract Text, Tables, Formulas from PDF", "ownerName": "tanis90", "score": 78021.97802197802, "slug": "pdftomd", "source": "clawhub", "stars": 0, "tags": null, "updated_at": 1776749685187, "version": "1.0.4"}, {"category": "productivity", "created_at": 1773091324689, "description": "Real-time flight operations center for delays, cancellations, gate changes", "description_zh": "", "downloads": 142, "homepage": "https://clawhub.ai/kurosh87/aerobase-alerts", "iconUrl": null, "installs": 6, "name": "Aerobase Alerts", "ownerName": "kurosh87", "score": 56573.70517928287, "slug": "aerobase-alerts", "source": "clawhub", "stars": 0, "tags": null, "updated_at": 1776749685122, "version": "1.0.0"}, {"category": "content-creation", "created_at": 1773426067433, "description": "Post updates to LinkedIn, track analytics, and optimize content.", "description_zh": "", "downloads": 142, "homepage": "https://clawhub.ai/yadavabhijeet4/linkedin-ai-optimizer", "iconUrl": null, "installs": 8, "name": "Linkedin AI Post Builder and Publisher", "ownerName": "yadavabhijeet4", "score": 56573.70517928287, "slug": "linkedin-ai-optimizer", "source": "clawhub", "stars": 0, "tags": null, "updated_at": 1776749685091, "version": "1.0.0"}, {"category": "developer-tools", "created_at": 1773435139856, "description": "Import local PDF files into Zotero from the command line on Windows/macOS/Linux via the Zotero local connector (127.0.0.1). Use for single-PDF import, folder...", "description_zh": "", "downloads": 142, "homepage": "https://clawhub.ai/mxingchtongaelofficial2568/zotero-local-import-en", "iconUrl": null, "installs": 28, "name": "Zotero PDF Local Import", "ownerName": "mxingchtongaelofficial2568", "score": 68599.03381642513, "slug": "zotero-local-import-en", "source": "clawhub", "stars": 0, "tags": null, "updated_at": 1776749684982, "version": "0.0.1"}, {"category": "developer-tools", "created_at": 1773068819491, "description": "Track breaking news and set alerts for specific keywords or topics. Each call charges 0.001 USDT via SkillPay.", "description_zh": "", "downloads": 142, "homepage": "https://clawhub.ai/mosonchan2023/news-alert-tracker", "iconUrl": null, "installs": 4, "name": "News Alert Tracker", "ownerName": "mosonchan2023", "score": 94666.66666666667, "slug": "news-alert-tracker", "source": "clawhub", "stars": 0, "tags": null, "updated_at": 1776749684911, "version": "1.0.1"}, {"category": "productivity", "created_at": 1773091746743, "description": "15Five integration. Manage Persons, Organizations. Use when the user wants to interact with 15Five data.", "description_zh": "", "downloads": 142, "homepage": "https://clawhub.ai/membranedev/15five", "iconUrl": null, "installs": 6, "name": "15Five", "ownerName": "membranedev", "score": 85029.94011976049, "slug": "15five", "source": "clawhub", "stars": 0, "tags": null, "updated_at": 1776749684871, "version": "1.0.0"}, {"category": "developer-tools", "created_at": 1773417493164, "description": "Complete LinkdAPI integration OpenClaw skill. Includes all 50+ endpoints, Python/Node.js/Go SDKs, authentication, rate limits, and real-world examples. Use t...", "description_zh": "", "downloads": 142, "homepage": "https://clawhub.ai/ethcipher/linkdapi-official", "iconUrl": null, "installs": 13, "name": "LinkdAPI", "ownerName": "ethcipher", "score": 78453.03867403315, "slug": "linkdapi-official", "source": "clawhub", "stars": 0, "tags": null, "updated_at": 1776749684806, "version": "1.0.0"}, {"category": "communication-collaboration", "created_at": 1773416254721, "description": "Inter-agent communication protocol for C-suite agent teams. Defines invocation syntax, loop prevention, isolation rules, and response formats. Use when C-sui...", "description_zh": "", "downloads": 142, "homepage": "https://clawhub.ai/alirezarezvani/cs-agent-protocol", "iconUrl": null, "installs": 5, "name": "agent-protocol", "ownerName": "alirezarezvani", "score": 31346.578366445916, "slug": "cs-agent-protocol", "source": "clawhub", "stars": 0, "tags": null, "updated_at": 1776749684713, "version": "1.0.0"}, {"category": "", "created_at": 1774952337420, "description": "Use medical translation for academic writing workflows that need structured execution, explicit assumptions, and clear output boundaries.", "description_zh": "", "downloads": 142, "homepage": "https://clawhub.ai/aipoch-ai/medical-translation", "iconUrl": null, "installs": 21, "name": "Medical Translation", "ownerName": "aipoch-ai", "score": 87654.32098765433, "slug": "medical-translation", "source": "clawhub", "stars": 0, "tags": null, "updated_at": 1776749684675, "version": "1.0.0"}, {"category": "ai-intelligence", "created_at": 1773221685657, "description": "Detect and annotate hallucinations, unsupported claims, fabricated studies, and incorrect conclusions in text so that AI only cites verifiable, trustworthy c...", "description_zh": "", "downloads": 142, "homepage": "https://clawhub.ai/geoly-geo/geo-hallucination-checker", "iconUrl": null, "installs": 12, "name": "Geo Hallucination Checker", "ownerName": "geoly-geo", "score": 87654.32098765433, "slug": "geo-hallucination-checker", "source": "clawhub", "stars": 0, "tags": null, "updated_at": 1776749684668, "version": "0.1.0"}, {"category": "productivity", "created_at": 1773222481819, "description": "Maintain persistent focus on active work across compactions and session restarts. Use when starting a multi-step project, when resuming after compaction, whe...", "description_zh": "", "downloads": 142, "homepage": "https://clawhub.ai/crewhaus/focus-tracker", "iconUrl": null, "installs": 6, "name": "Focus Tracker", "ownerName": "crewhaus", "score": 94666.66666666667, "slug": "focus-tracker", "source": "clawhub", "stars": 0, "tags": null, "updated_at": 1776749684613, "version": "1.0.0"}, {"category": "productivity", "created_at": 1773285155290, "description": "Your digital memory.", "description_zh": "", "downloads": 142, "homepage": "https://clawhub.ai/haibo-looki/looki", "iconUrl": null, "installs": 4, "name": "Looki", "ownerName": "haibo-looki", "score": 94666.66666666667, "slug": "looki", "source": "clawhub", "stars": 0, "tags": null, "updated_at": 1776749684590, "version": "1.0.2"}, {"category": "developer-tools", "created_at": 1773221589214, "description": "Make OpenClaw agent workflows restart-safe using checkpoint files, idempotent step tracking, wake/resume handoff, and stale-checkpoint monitoring. Use when u...", "description_zh": "", "downloads": 142, "homepage": "https://clawhub.ai/stanrails/restart-recovery", "iconUrl": null, "installs": 5, "name": "Restart Recovery", "ownerName": "stanrails", "score": 94666.66666666667, "slug": "restart-recovery", "source": "clawhub", "stars": 0, "tags": null, "updated_at": 1776749684585, "version": "1.0.0"}, {"category": "productivity", "created_at": 1773221410692, "description": "Place McDonald's China delivery orders through the official MCP server at https://mcp.mcd.cn using a Bearer MCP token over Streamable HTTP / JSON-RPC. Use wh...", "description_zh": "", "downloads": 142, "homepage": "https://clawhub.ai/danielliao/mcdonalds-mcp-order-lite", "iconUrl": null, "installs": 6, "name": "mcdonalds-mcp-order-lite", "ownerName": "danielliao", "score": 94666.66666666667, "slug": "mcdonalds-mcp-order-lite", "source": "clawhub", "stars": 0, "tags": null, "updated_at": 1776749684566, "version": "1.0.0"}, {"category": "security-compliance", "created_at": 1773091639336, "description": "Statically audit Dockerfiles for common container hardening risks (root user, unpinned/latest base images, missing healthchecks, and risky build patterns).", "description_zh": "", "downloads": 142, "homepage": "https://clawhub.ai/daniellummis/dockerfile-hardening-audit", "iconUrl": null, "installs": 7, "name": "Dockerfile Hardening Audit", "ownerName": "daniellummis", "score": 46103.896103896106, "slug": "dockerfile-hardening-audit", "source": "clawhub", "stars": 0, "tags": null, "updated_at": 1776749684528, "version": "1.0.0"}, {"category": "productivity", "created_at": 1773219909597, "description": "Plan Chile trips with macro-region triage, verified entry rules, long-distance logistics, and practical safety for cities, desert, lakes, and Patagonia.", "description_zh": "", "downloads": 142, "homepage": "https://clawhub.ai/ivangdavila/chile", "iconUrl": null, "installs": 15, "name": "Chile", "ownerName": "ivangdavila", "score": 88750, "slug": "chile", "source": "clawhub", "stars": 0, "tags": null, "updated_at": 1776749684470, "version": "1.0.0"}, {"category": "developer-tools", "created_at": 1773427203497, "description": "Practical playbook for running Codex through acpx in persistent sessions, especially when the task needs reliable file creation, local dependency installs, s...", "description_zh": "", "downloads": 142, "homepage": "https://clawhub.ai/spyfree/acpx-codex-playbook", "iconUrl": null, "installs": 9, "name": "ACPX Codex Playbook", "ownerName": "spyfree", "score": 88750, "slug": "acpx-codex-playbook", "source": "clawhub", "stars": 0, "tags": null, "updated_at": 1776749684378, "version": "1.0.0"}, {"category": "content-creation", "created_at": 1773287262169, "description": "Build concise creator proof packs for brand outreach using real performance evidence, niche fit, and campaign-ready positioning. Use when the user needs a me...", "description_zh": "", "downloads": 142, "homepage": "https://clawhub.ai/leooooooow/creator-proof-portfolio-builder", "iconUrl": null, "installs": 8, "name": "Creator Proof Portfolio Builder", "ownerName": "leooooooow", "score": 88750, "slug": "creator-proof-portfolio-builder", "source": "clawhub", "stars": 0, "tags": null, "updated_at": 1776749684337, "version": "1.0.3"}, {"category": "developer-tools", "created_at": 1773426254000, "description": "WebSocket data receiver skill for learning and practice. Supports auto-reconnect, batch processing, and AI analysis.", "description_zh": "", "downloads": 142, "homepage": "https://clawhub.ai/sougannkyou/websocket-receiver", "iconUrl": null, "installs": 9, "name": "Websocket Receiver", "ownerName": "sougannkyou", "score": 84023.66863905326, "slug": "websocket-receiver", "source": "clawhub", "stars": 0, "tags": ["realtime", "receiver", "websocket"], "updated_at": 1776749684196, "version": "1.1.2"}, {"category": "content-creation", "created_at": 1773426559193, "description": "AI-powered industry intelligence daily brief generator. This skill automatically searches, filters, writes, and delivers structured daily briefings for any i...", "description_zh": "", "downloads": 142, "homepage": "https://clawhub.ai/haiyangchenbj/data-ai-daily-brief", "iconUrl": null, "installs": 8, "name": "Data+AI Daily Brief", "ownerName": "haiyangchenbj", "score": 84023.66863905326, "slug": "data-ai-daily-brief", "source": "clawhub", "stars": 0, "tags": null, "updated_at": 1776749684194, "version": "1.0.2"}, {"category": "productivity", "created_at": 1773285841516, "description": "Organize a video folder by cleaning non-video files, removing short/bad videos, and classifying videos into numbered subfolders using AI vision analysis.", "description_zh": "", "downloads": 142, "homepage": "https://clawhub.ai/lemondepat/organise-videos", "iconUrl": null, "installs": 12, "name": "Organise videos", "ownerName": "lemondepat", "score": 84023.66863905326, "slug": "organise-videos", "source": "clawhub", "stars": 0, "tags": null, "updated_at": 1776749684161, "version": "1.0.0"}, {"category": "developer-tools", "created_at": 1773220627216, "description": "GoldRush CLI — terminal-first blockchain data tool with MCP support for Claude Desktop and Claude Code. Use this skill whenever the user wants to query block...", "description_zh": "", "downloads": 142, "homepage": "https://clawhub.ai/gane5h/goldrush-cli", "iconUrl": null, "installs": 5, "name": "Goldrush CLI", "ownerName": "gane5h", "score": 86060.60606060606, "slug": "goldrush-cli", "source": "clawhub", "stars": 0, "tags": null, "updated_at": 1776749684019, "version": "3.0.5"}, {"category": "data-analysis", "created_at": 1773885216667, "description": "Real-time Bitcoin trading intelligence API providing market data, AI trade signals, derivatives flow, liquidation heatmaps, live crypto news, economic calend...", "description_zh": "", "downloads": 142, "homepage": "https://clawhub.ai/ricklaughhunn/btc-signals-pro", "iconUrl": null, "installs": 21, "name": "BTC Signals Pro", "ownerName": "ricklaughhunn", "score": 94666.66666666667, "slug": "btc-signals-pro", "source": "clawhub", "stars": 0, "tags": ["api-integration", "automation", "bitcoin", "crypto", "data-analysis", "finance", "investing", "market-data", "open-source", "secure", "trading"], "updated_at": 1776749683953, "version": "1.0.3"}, {"category": "productivity", "created_at": 1773220562836, "description": "Comprehensive travel planning, booking, and management skill. Use when needing to plan china trips, manage multi-destination itineraries, handle family trave...", "description_zh": "", "downloads": 142, "homepage": "https://clawhub.ai/newlux/travelchina", "iconUrl": null, "installs": 9, "name": "Travel China", "ownerName": "newlux", "score": 94666.66666666667, "slug": "travelchina", "source": "clawhub", "stars": 0, "tags": null, "updated_at": 1776749683880, "version": "1.0.1"}, {"category": "content-creation", "created_at": 1773091540874, "description": "Generate beautiful web content for SenseCraft HMI e-ink displays. AI-powered layout selection, e-ink optimization. Creates artistic, minimalist pages optimiz...", "description_zh": "", "downloads": 142, "homepage": "https://clawhub.ai/killingjacky/sensecraft-hmi-gen", "iconUrl": null, "installs": 8, "name": "SenseCraft HMI Web Content Generator", "ownerName": "killingjacky", "score": 94666.66666666667, "slug": "sensecraft-hmi-gen", "source": "clawhub", "stars": 0, "tags": null, "updated_at": 1776749683859, "version": "1.0.0"}, {"category": "productivity", "created_at": 1773219960775, "description": "Plan Denmark trips with compact route logic, verified entry rules, island transport choices, and practical local execution.", "description_zh": "", "downloads": 142, "homepage": "https://clawhub.ai/ivangdavila/denmark", "iconUrl": null, "installs": 9, "name": "Denmark", "ownerName": "ivangdavila", "score": 62555.06607929515, "slug": "denmark", "source": "clawhub", "stars": 0, "tags": null, "updated_at": 1776749683749, "version": "1.0.0"}, {"category": "productivity", "created_at": 1773432285830, "description": "Safe Linux desktop automation (mouse/keyboard/screenshot) with approval mode and X11/Wayland checks.", "description_zh": "", "downloads": 141, "homepage": "https://clawhub.ai/pabloraka/dekstop-control-linux", "iconUrl": null, "installs": 25, "name": "dekstop-control-linux", "ownerName": "pabloraka", "score": 100000, "slug": "dekstop-control-linux", "source": "clawhub", "stars": 2, "tags": null, "updated_at": 1776749684789, "version": "1.0.0"}, {"category": "productivity", "created_at": 1773433901748, "description": "Personal finance management for recording income/expenses, budgeting, and savings goals. Use when user asks to track spending, create budgets, analyze financ...", "description_zh": "", "downloads": 141, "homepage": "https://clawhub.ai/cuiguopengs/first-million", "iconUrl": null, "installs": 7, "name": "Journey to First Million", "ownerName": "cuiguopengs", "score": 12346.625766871166, "slug": "first-million", "source": "clawhub", "stars": 1, "tags": null, "updated_at": 1776759682800, "version": "1.0.3"}, {"category": "productivity", "created_at": 1773944119712, "description": "AI ecommerce operations manager", "description_zh": "", "downloads": 141, "homepage": "https://clawhub.ai/abhishekj9621/ecom-manager-d2c", "iconUrl": null, "installs": 26, "name": "Ecom Manager D2c", "ownerName": "abhishekj9621", "score": 12337.164750957854, "slug": "ecom-manager-d2c", "source": "clawhub", "stars": 1, "tags": null, "updated_at": 1776759682577, "version": "1.0.3"}, {"category": "ai-intelligence", "created_at": 1773425581620, "description": "Swiss-knife for AI agents. 50+ models for image generation, video generation, text-to-speech, speech-to-text, music, chat, web search, document parsing, emai...", "description_zh": "", "downloads": 141, "homepage": "https://clawhub.ai/yshuolu/skillboss-swissknife", "iconUrl": null, "installs": 13, "name": "Skillboss", "ownerName": "yshuolu", "score": 88950.27624309392, "slug": "skillboss-swissknife", "source": "clawhub", "stars": 1, "tags": null, "updated_at": 1776749684804, "version": "1.3.0"}, {"category": "content-creation", "created_at": 1773433309916, "description": "Generate WeChat comic articles and publish them to the WeChat Official Account draft box by executing local Python pipeline scripts. Use when the user wants...", "description_zh": "", "downloads": 141, "homepage": "https://clawhub.ai/archibald80000-ai/wechat-comic-factory", "iconUrl": null, "installs": 36, "name": "wechat-comic-factory", "ownerName": "archibald80000-ai", "score": 35540.83885209713, "slug": "wechat-comic-factory", "source": "clawhub", "stars": 1, "tags": null, "updated_at": 1776749684748, "version": "1.0.0"}, {"category": "content-creation", "created_at": 1773416329637, "description": "Generate images using curl and the SkillBoss API.", "description_zh": "", "downloads": 141, "homepage": "https://clawhub.ai/marjoriebroad/quick-img", "iconUrl": null, "installs": 8, "name": "Quick Img V2", "ownerName": "marjoriebroad", "score": 436.80297397769516, "slug": "quick-img", "source": "clawhub", "stars": 0, "tags": null, "updated_at": 1776770690630, "version": "1.1.0"}, {"category": "productivity", "created_at": 1773416616852, "description": "Design launch momentum before a project goes live. Optimize first-day release logic, trigger sequencing, attention concentration, and breakout timing for pro...", "description_zh": "", "downloads": 141, "homepage": "https://clawhub.ai/agisearch/pump", "iconUrl": null, "installs": 7, "name": "Pump", "ownerName": "agisearch", "score": 6167.979002624672, "slug": "pump", "source": "clawhub", "stars": 0, "tags": null, "updated_at": 1776767050274, "version": "1.0.0"}, {"category": "developer-tools", "created_at": 1773416946540, "description": "Financial enablement & accounting platform for Bots, Agents, and OpenClaw. Multiple methods for enabling and managing agentic spending and purchases, with co...", "description_zh": "", "downloads": 141, "homepage": "https://clawhub.ai/jononovo/citi", "iconUrl": null, "installs": 5, "name": "CitiBank Claw | Buy anyone online with CreditClaw", "ownerName": "jononovo", "score": 2084.257206208426, "slug": "citi", "source": "clawhub", "stars": 0, "tags": ["citibank"], "updated_at": 1776762850583, "version": "1.0.6"}, {"category": "data-analysis", "created_at": 1773426070028, "description": "Calculate pricing based on costs, margins, market positioning, and competitor analysis. For freelancers, product builders, and service providers.", "description_zh": "", "downloads": 141, "homepage": "https://clawhub.ai/theshadowrose/pricing-calc", "iconUrl": null, "installs": 12, "name": "PricingCalc Product & Service Pricing Calculator", "ownerName": "theshadowrose", "score": 5410.590943975441, "slug": "pricing-calc", "source": "clawhub", "stars": 0, "tags": ["business", "calculator", "finance", "pricing", "pricing-calc", "rates"], "updated_at": 1776762290276, "version": "1.0.0"}, {"category": "communication-collaboration", "created_at": 1773091700857, "description": "Expert skill for OpenClaw (v2026.2.19) — self-hosted AI gateway connecting chat apps (WhatsApp, Telegram, Discord, Slack, iMessage, Signal, LINE, Matrix, Tea...", "description_zh": "", "downloads": 141, "homepage": "https://clawhub.ai/jason513597/clawpilot", "iconUrl": null, "installs": 7, "name": "Clawpilot", "ownerName": "jason513597", "score": 3861.9556285949056, "slug": "clawpilot", "source": "clawhub", "stars": 0, "tags": null, "updated_at": 1776762140088, "version": "1.0.0"}, {"category": "security-compliance", "created_at": 1773416124900, "description": "Let your agent shop online with guardrailed wallets, multiple payment methods, and owner approval.", "description_zh": "", "downloads": 141, "homepage": "https://clawhub.ai/triplehippo/mastercard", "iconUrl": null, "installs": 1, "name": "MasterCard | Is your claw a shopaholic?", "ownerName": "triplehippo", "score": 10964.230171073094, "slug": "mastercard", "source": "clawhub", "stars": 0, "tags": null, "updated_at": 1776759683680, "version": "1.0.2"}, {"category": "content-creation", "created_at": 1773417982557, "description": "Publish posts, upload photos, schedule content, read insights, and manage comments on Facebook Pages via the Graph API.", "description_zh": "", "downloads": 141, "homepage": "https://clawhub.ai/jaimin-345/fb-page-publisher", "iconUrl": null, "installs": 5, "name": "Fb Page Publisher", "ownerName": "jaimin-345", "score": 9400, "slug": "fb-page-publisher", "source": "clawhub", "stars": 0, "tags": null, "updated_at": 1776759683538, "version": "1.0.0"}, {"category": "productivity", "created_at": 1773907181718, "description": "Generate real-estate buyer lead follow-up plans from open house notes, inquiry messages, or CRM exports. Use when the user asks to prioritize leads, write pe...", "description_zh": "", "downloads": 141, "homepage": "https://clawhub.ai/alech44/founder-briefing", "iconUrl": null, "installs": 9, "name": "Real Estate Buyer Follow-Up Pro", "ownerName": "alech44", "score": 10913.312693498452, "slug": "founder-briefing", "source": "clawhub", "stars": 0, "tags": null, "updated_at": 1776759683242, "version": "0.2.1"}, {"category": "productivity", "created_at": 1773431565553, "description": "MetaMask Wallet - Give your agent spending power. Financial management for Agents and OpenClaw bots.", "description_zh": "", "downloads": 141, "homepage": "https://clawhub.ai/codejika/metamask", "iconUrl": null, "installs": 5, "name": "MetaMask Payments -", "ownerName": "codejika", "score": 10862.86594761171, "slug": "metamask", "source": "clawhub", "stars": 0, "tags": ["metamask", "payments"], "updated_at": 1776759683103, "version": "1.0.0"}, {"category": "developer-tools", "created_at": 1773894959709, "description": "Backup, clone, and migrate OpenClaw data across instances. Upload/download OpenClaw snapshots to local or cloud - https://clawclone.cc . Create shareable Age...", "description_zh": "", "downloads": 141, "homepage": "https://clawhub.ai/clawclone-cc/clawclone", "iconUrl": null, "installs": 7, "name": "OpenClaw backup and synchronization tool - Pack, upload, download, and restore. Save the Soul of your OpenClaw.", "ownerName": "clawclone-cc", "score": 10862.86594761171, "slug": "clawclone", "source": "clawhub", "stars": 0, "tags": null, "updated_at": 1776759683099, "version": "0.1.5"}, {"category": "content-creation", "created_at": 1773431703777, "description": "Automates viral product launch planning by reverse-engineering top launches, creating a 30-day pre-launch playbook, launch copy, affiliate campaigns, and hyp...", "description_zh": "", "downloads": 141, "homepage": "https://clawhub.ai/g4dr/ai-viral-product-launch-machine", "iconUrl": null, "installs": 15, "name": "AI Viral Product Launch Machine — Go From Zero to $100K Launch in 30 Days", "ownerName": "g4dr", "score": 10804.597701149425, "slug": "ai-viral-product-launch-machine", "source": "clawhub", "stars": 0, "tags": ["affiliate", "apify", "email-marketing", "growth-hacking", "invideo", "pr", "pre-launch", "product-hunt", "product-launch", "saas", "viral-marketing", "waitlist"], "updated_at": 1776759682546, "version": "1.0.0"}, {"category": "developer-tools", "created_at": 1773917871646, "description": "Pre-build idea validator that checks competition across GitHub, Hacker News, npm, PyPI, and Product Hunt before writing code.", "description_zh": "", "downloads": 141, "homepage": "https://clawhub.ai/sunnyhot/idea-reality-validator", "iconUrl": null, "installs": 15, "name": "Idea Reality Validator", "ownerName": "sunnyhot", "score": 76630.43478260869, "slug": "idea-reality-validator", "source": "clawhub", "stars": 0, "tags": null, "updated_at": 1776759682511, "version": "1.0.0"}, {"category": "developer-tools", "created_at": 1773434620810, "description": "Cryptocurrency exchange service for LightningEX API supporting multi-mode interaction - natural language chat, CLI commands, and web UI. Use when user wants...", "description_zh": "", "downloads": 141, "homepage": "https://clawhub.ai/zhutx/crypto-exchange", "iconUrl": null, "installs": 11, "name": "Crypto Exchange", "ownerName": "zhutx", "score": 10475.482912332838, "slug": "crypto-exchange", "source": "clawhub", "stars": 0, "tags": null, "updated_at": 1776759197683, "version": "1.3.1"}, {"category": "developer-tools", "created_at": 1773435231013, "description": "Diagnose and fix Kubernetes pods, CrashLoopBackOff, Pending, DNS, networking, storage, and rollout failures with kubectl.", "description_zh": "", "downloads": 141, "homepage": "https://clawhub.ai/qq280948982/k8s-debug", "iconUrl": null, "installs": 10, "name": "K8s Debug", "ownerName": "qq280948982", "score": 77472.52747252748, "slug": "k8s-debug", "source": "clawhub", "stars": 0, "tags": null, "updated_at": 1776749685184, "version": "0.1.0"}]}