{"page": 356, "total_pages": 522, "total": 26073, "skills": [{"category": "data-analysis", "created_at": 1773426618947, "description": "Return a compact full report for one major-US credit card — fees, welcome offer, earning rates, redemption, credits, travel benefits, protections, mechanics,...", "description_zh": "", "downloads": 141, "homepage": "https://clawhub.ai/jiahongc/card-full", "iconUrl": null, "installs": 12, "name": "Card Full", "ownerName": "jiahongc", "score": 56175.29880478087, "slug": "card-full", "source": "clawhub", "stars": 0, "tags": null, "updated_at": 1776749685141, "version": "1.0.7"}, {"category": "productivity", "created_at": 1773090861819, "description": "Google Workflow: Weekly summary: this week's meetings + unread email count.", "description_zh": "", "downloads": 141, "homepage": "https://clawhub.ai/googleworkspace-bot/gws-workflow-weekly-digest", "iconUrl": null, "installs": 9, "name": "Gws Workflow Weekly Digest", "ownerName": "googleworkspace-bot", "score": 56175.29880478087, "slug": "gws-workflow-weekly-digest", "source": "clawhub", "stars": 0, "tags": null, "updated_at": 1776749685099, "version": "1.0.0"}, {"category": "developer-tools", "created_at": 1773083728719, "description": "Basecamp integration. Manage Projects, Persons, Clients. Use when the user wants to interact with Basecamp data.", "description_zh": "", "downloads": 141, "homepage": "https://clawhub.ai/membranedev/basecamp-integration", "iconUrl": null, "installs": 0, "name": "Basecamp", "ownerName": "membranedev", "score": 40988.37209302326, "slug": "basecamp-integration", "source": "clawhub", "stars": 0, "tags": null, "updated_at": 1776749685058, "version": "1.0.0"}, {"category": "content-creation", "created_at": 1773937688659, "description": "Use Vidau Open API to generate short videos with Veo3, Sora2, and other models, or query account credits. Register at superaiglobal.com and configure API Key.", "description_zh": "", "downloads": 141, "homepage": "https://clawhub.ai/bigjoehuang/vidau-video-generator", "iconUrl": null, "installs": 44, "name": "VidAU Video Generator", "ownerName": "bigjoehuang", "score": 94000, "slug": "vidau-video-generator", "source": "clawhub", "stars": 0, "tags": null, "updated_at": 1776749684952, "version": "1.0.8"}, {"category": "security-compliance", "created_at": 1773091741690, "description": "Audit GitHub Actions workflow permission scope drift to enforce least-privilege token access.", "description_zh": "", "downloads": 141, "homepage": "https://clawhub.ai/daniellummis/github-actions-permission-scope-audit", "iconUrl": null, "installs": 10, "name": "GitHub Actions Permission Scope Audit", "ownerName": "daniellummis", "score": 94000, "slug": "github-actions-permission-scope-audit", "source": "clawhub", "stars": 0, "tags": null, "updated_at": 1776749684938, "version": "1.0.0"}, {"category": "productivity", "created_at": 1773428095158, "description": "Comprehensive PDF manipulation toolkit for extracting text, creating, merging, splitting documents, and handling forms. And also 50+ models for image generat...", "description_zh": "", "downloads": 141, "homepage": "https://clawhub.ai/alvisdunlop/pdfs", "iconUrl": null, "installs": 20, "name": "Pub Pdf", "ownerName": "alvisdunlop", "score": 94000, "slug": "pdfs", "source": "clawhub", "stars": 0, "tags": null, "updated_at": 1776749684933, "version": "1.0.0"}, {"category": "developer-tools", "created_at": 1773285436099, "description": "Run heavy compute tasks overnight when GPU/cloud capacity is cheapest (spot pricing). Use when you have non-time-sensitive tasks that would benefit from off-...", "description_zh": "", "downloads": 141, "homepage": "https://clawhub.ai/willificent/off-peak-compute", "iconUrl": null, "installs": 9, "name": "Compute during Off-Peak Hours for Complex Jobs", "ownerName": "willificent", "score": 87037.03703703704, "slug": "off-peak-compute", "source": "clawhub", "stars": 0, "tags": null, "updated_at": 1776749684663, "version": "1.0.2"}, {"category": "developer-tools", "created_at": 1773427073017, "description": "Hotel search and pricing via the RollingGo CLI. Use when the user wants to search hotels by destination, filter by date/star/budget/tags/distance, inspect ho...", "description_zh": "", "downloads": 141, "homepage": "https://clawhub.ai/dreamtzlong/rollinggo-hotel", "iconUrl": null, "installs": 19, "name": "rollinggo-hotel", "ownerName": "dreamtzlong", "score": 87037.03703703704, "slug": "rollinggo-hotel", "source": "clawhub", "stars": 0, "tags": null, "updated_at": 1776749684645, "version": "1.0.1"}, {"category": "content-creation", "created_at": 1773286382732, "description": "Turn your AI assistant into a TTS and voice cloning powerhouse using the Verbatik API. Use when generating speech from text, cloning voices, managing cloned...", "description_zh": "", "downloads": 141, "homepage": "https://clawhub.ai/verbatik/text-to-speech-and-voice-cloning-agent", "iconUrl": null, "installs": 14, "name": "Text to Speech and Voice Cloning by Verbatik AI", "ownerName": "verbatik", "score": 94000, "slug": "text-to-speech-and-voice-cloning-agent", "source": "clawhub", "stars": 0, "tags": null, "updated_at": 1776749684597, "version": "1.0.1"}, {"category": "productivity", "created_at": 1773090615029, "description": "Navigate Texas for living, moving, working, and road trips with region fit, state rules, weather risk, and daily logistics.", "description_zh": "", "downloads": 141, "homepage": "https://clawhub.ai/ivangdavila/texas", "iconUrl": null, "installs": 4, "name": "Texas", "ownerName": "ivangdavila", "score": 94000, "slug": "texas", "source": "clawhub", "stars": 0, "tags": null, "updated_at": 1776749684575, "version": "1.0.0"}, {"category": "productivity", "created_at": 1773218072444, "description": "Acuity Scheduling integration. Manage Calendars, Clients, Users, Forms, Packages, Coupons. Use when the user wants to interact with Acuity Scheduling data.", "description_zh": "", "downloads": 141, "homepage": "https://clawhub.ai/gora050/acuity-scheduling-integration", "iconUrl": null, "installs": 5, "name": "Acuity Scheduling", "ownerName": "gora050", "score": 45779.22077922078, "slug": "acuity-scheduling-integration", "source": "clawhub", "stars": 0, "tags": null, "updated_at": 1776749684546, "version": "1.0.0"}, {"category": "developer-tools", "created_at": 1773285012258, "description": "Analyzes an existing Claude Code skill and designs an optimal rules/ file structure. Covers three operations: (1) compressing SKILL.md by moving verbose cont...", "description_zh": "", "downloads": 141, "homepage": "https://clawhub.ai/vincentjiang06/skill-rules-designer", "iconUrl": null, "installs": 6, "name": "skill rules designer", "ownerName": "vincentjiang06", "score": 88125, "slug": "skill-rules-designer", "source": "clawhub", "stars": 0, "tags": null, "updated_at": 1776749684405, "version": "1.2.0"}, {"category": "productivity", "created_at": 1773090703931, "description": "Lightspeed R-Series integration. Manage Accounts, Employees, Locations, PurchaseOrders, Vendors, InventoryCounts. Use when the user wants to interact with Li...", "description_zh": "", "downloads": 141, "homepage": "https://clawhub.ai/membranedev/lightspeed-r-series", "iconUrl": null, "installs": 5, "name": "Lightspeed R Series", "ownerName": "membranedev", "score": 88125, "slug": "lightspeed-r-series", "source": "clawhub", "stars": 0, "tags": null, "updated_at": 1776749684316, "version": "1.0.0"}, {"category": "data-analysis", "created_at": 1773090184420, "description": "Monitor positions in real-time, configure Take-Profit/Stop-Loss orders, and manage risk with leverage settings", "description_zh": "", "downloads": 141, "homepage": "https://clawhub.ai/tarnadas/orderly-positions-tpsl", "iconUrl": null, "installs": 5, "name": "Orderly Positions Tpsl", "ownerName": "tarnadas", "score": 88125, "slug": "orderly-positions-tpsl", "source": "clawhub", "stars": 0, "tags": null, "updated_at": 1776749684260, "version": "1.0.0"}, {"category": "productivity", "created_at": 1773089702129, "description": "Google Docs integration. Manage Documents. Use when the user wants to interact with Google Docs data.", "description_zh": "", "downloads": 141, "homepage": "https://clawhub.ai/membranedev/google-docs-integration", "iconUrl": null, "installs": 1, "name": "Google Docs", "ownerName": "membranedev", "score": 83431.9526627219, "slug": "google-docs-integration", "source": "clawhub", "stars": 0, "tags": null, "updated_at": 1776749684200, "version": "1.0.0"}, {"category": "communication-collaboration", "created_at": 1773083076091, "description": "Klaviyo integration. Manage Persons, Campaigns, Flows, Events. Use when the user wants to interact with Klaviyo data.", "description_zh": "", "downloads": 141, "homepage": "https://clawhub.ai/gora050/klaviyo-integration", "iconUrl": null, "installs": 0, "name": "Klaviyo", "ownerName": "gora050", "score": 85454.54545454546, "slug": "klaviyo-integration", "source": "clawhub", "stars": 0, "tags": null, "updated_at": 1776749684033, "version": "1.0.0"}, {"category": "ai-intelligence", "created_at": 1773221658387, "description": "Four days. Fifty thousand voices. The longest-running country music festival in the world. Nashville is going to teach you what a song does when an entire ci...", "description_zh": "", "downloads": 141, "homepage": "https://clawhub.ai/driftsbot/experience-cma-fest-nashville", "iconUrl": null, "installs": 14, "name": "Experience Cma Fest Nashville", "ownerName": "driftsbot", "score": 85454.54545454546, "slug": "experience-cma-fest-nashville", "source": "clawhub", "stars": 0, "tags": ["ai-agents", "cma", "drift", "experiences", "fest", "immersive", "journeys", "nashville"], "updated_at": 1776749684020, "version": "1.0.1"}, {"category": "data-analysis", "created_at": 1773219936183, "description": "Before presenting numbers in reports or recommendations, verify facts and check values against industry baselines.", "description_zh": "", "downloads": 141, "homepage": "https://clawhub.ai/cutthemustard/data-ground-truth", "iconUrl": null, "installs": 5, "name": "Data Ground Truth", "ownerName": "cutthemustard", "score": 94000, "slug": "data-ground-truth", "source": "clawhub", "stars": 0, "tags": null, "updated_at": 1776749683983, "version": "1.0.1"}, {"category": "data-analysis", "created_at": 1773873671994, "description": "Run a calibration report on any Simmer trade journal. Win rate and EV broken down by strategy, time of day, price band, and market type. Know exactly where y...", "description_zh": "", "downloads": 141, "homepage": "https://clawhub.ai/djdyll/simmer-calibration-report", "iconUrl": null, "installs": 8, "name": "Simmer Calibration Report", "ownerName": "djdyll", "score": 94000, "slug": "simmer-calibration-report", "source": "clawhub", "stars": 0, "tags": null, "updated_at": 1776749683945, "version": "1.0.4"}, {"category": "productivity", "created_at": 1773416029523, "description": "Interact with Xero accounting software - manage invoices, contacts, accounts, payments, and bank transactions", "description_zh": "", "downloads": 141, "homepage": "https://clawhub.ai/teddyengel/xero-cli", "iconUrl": null, "installs": 7, "name": "Xero Cli", "ownerName": "teddyengel", "score": 85454.54545454546, "slug": "xero-cli", "source": "clawhub", "stars": 0, "tags": null, "updated_at": 1776749683939, "version": "1.0.7"}, {"category": "productivity", "created_at": 1773090978654, "description": "Clio integration. Manage Matters, Contacts, Tasks, Events, Bills, Users. Use when the user wants to interact with Clio data.", "description_zh": "", "downloads": 141, "homepage": "https://clawhub.ai/gora050/clio-integration", "iconUrl": null, "installs": 1, "name": "Clio", "ownerName": "gora050", "score": 94000, "slug": "clio-integration", "source": "clawhub", "stars": 0, "tags": null, "updated_at": 1776749683868, "version": "1.0.0"}, {"category": "data-analysis", "created_at": 1773220775170, "description": "Comprehensive token research for EVM chains (Base, ETH, Arbitrum) and Solana. Use this skill when you want to research crypto tokens, deep-dive projects or m...", "description_zh": "", "downloads": 141, "homepage": "https://clawhub.ai/0xartex/token-research", "iconUrl": null, "installs": 10, "name": "Token Research", "ownerName": "0xartex", "score": 94000, "slug": "token-research", "source": "clawhub", "stars": 0, "tags": null, "updated_at": 1776749683862, "version": "1.0.0"}, {"category": "content-creation", "created_at": 1773218671432, "description": "Local business-focused GEO optimization orchestrator for AI-powered local search. Use this skill whenever the user mentions local shops, clinics, restaurants...", "description_zh": "", "downloads": 141, "homepage": "https://clawhub.ai/geoly-geo/geo-local-optimizer-2", "iconUrl": null, "installs": 7, "name": "Geo Local Optimizer", "ownerName": "geoly-geo", "score": 94000, "slug": "geo-local-optimizer-2", "source": "clawhub", "stars": 0, "tags": null, "updated_at": 1776749683832, "version": "0.1.0"}, {"category": "developer-tools", "created_at": 1773434139151, "description": "Executes a JD payment transaction for third-party skills. Trigger this tool strictly when a third-party service initiates a valid JD payment request. Note: R...", "description_zh": "", "downloads": 141, "homepage": "https://clawhub.ai/xingyeyouran/jd-payment-process-skill", "iconUrl": null, "installs": 18, "name": "jd-payment-process-skill", "ownerName": "xingyeyouran", "score": 62114.53744493393, "slug": "jd-payment-process-skill", "source": "clawhub", "stars": 0, "tags": null, "updated_at": 1776749683825, "version": "1.0.0"}, {"category": "data-analysis", "created_at": 1773427006734, "description": "Find carbon emission factors for any material or process. 1M+ LCA datasets (HiQLCD, Ecoinvent, CarbonMinds). AI-powered BOM carbon footprint calculation and...", "description_zh": "", "downloads": 141, "homepage": "https://clawhub.ai/kirbyingithub/hiq-cortex", "iconUrl": null, "installs": 18, "name": "HiQ Cortex", "ownerName": "kirbyingithub", "score": 86503.06748466258, "slug": "hiq-cortex", "source": "clawhub", "stars": 0, "tags": ["battery", "bill-of-materials", "carbon-footprint", "china", "ecoinvent", "emission-factors", "epd", "gwp", "iso-14040", "lca", "mcp", "scope-3", "steel", "supply-chain", "sustainability"], "updated_at": 1776749683683, "version": "1.3.0"}, {"category": "developer-tools", "created_at": 1773218735836, "description": "OpenWeather API integration. Manage Weathers, Locations. Use when the user wants to interact with OpenWeather API data.", "description_zh": "", "downloads": 141, "homepage": "https://clawhub.ai/gora050/openweather-api", "iconUrl": null, "installs": 5, "name": "Openweather Api", "ownerName": "gora050", "score": 78770.9497206704, "slug": "openweather-api", "source": "clawhub", "stars": 0, "tags": null, "updated_at": 1776749683672, "version": "1.0.0"}, {"category": "communication-collaboration", "created_at": 1773901214711, "description": "Read and send email via IMAP/SMTP. Check for new/unread messages, fetch content, search mailboxes, mark as read/unread, and send emails with attachments. Wor...", "description_zh": "", "downloads": 140, "homepage": "https://clawhub.ai/welderjustin/welderjustin-imap-smtp-email", "iconUrl": null, "installs": 16, "name": "IMAP SMTP Email", "ownerName": "welderjustin", "score": 6389.776357827476, "slug": "welderjustin-imap-smtp-email", "source": "clawhub", "stars": 1, "tags": null, "updated_at": 1776763585320, "version": "0.0.11"}, {"category": "data-analysis", "created_at": 1773290493823, "description": "Financial market intelligence platform for AI agents. Get real-time trading signals, regime detection, paper trading with $10K balance, and performance track...", "description_zh": "", "downloads": 140, "homepage": "https://clawhub.ai/dieub/tinkclaw", "iconUrl": null, "installs": 10, "name": "TinkClaw", "ownerName": "dieub", "score": 87912.08791208791, "slug": "tinkclaw", "source": "clawhub", "stars": 1, "tags": ["ai-agent-training", "finance", "paper-trading", "trading"], "updated_at": 1776749685171, "version": "1.0.0"}, {"category": "security-compliance", "created_at": 1773221631245, "description": "Audits Claude skills from GitHub repositories for effectiveness, token usage, safety, and best-practice compliance, then automatically generates bilingual so...", "description_zh": "", "downloads": 140, "homepage": "https://clawhub.ai/yangran/fenz-skill-auditor", "iconUrl": null, "installs": 3, "name": "full scale openclaw skill auditor", "ownerName": "yangran", "score": 100000, "slug": "fenz-skill-auditor", "source": "clawhub", "stars": 1, "tags": null, "updated_at": 1776749684427, "version": "1.0.0"}, {"category": "content-creation", "created_at": 1773873798251, "description": "Compete in Claw Colosseum — register, play games, climb leaderboards, and share achievements.", "description_zh": "", "downloads": 140, "homepage": "https://clawhub.ai/edfenton/claw-colosseum", "iconUrl": null, "installs": 16, "name": "Claw Colosseum", "ownerName": "edfenton", "score": 100000, "slug": "claw-colosseum", "source": "clawhub", "stars": 1, "tags": null, "updated_at": 1776749684332, "version": "2.4.0"}, {"category": "content-creation", "created_at": 1773893495136, "description": "Generate, edit, and compose images using Gemini models. Activate when user asks to generate images, draw, create logos/posters/icons/banners, edit/modify pho...", "description_zh": "", "downloads": 140, "homepage": "https://clawhub.ai/wangyan/wangyan-gemini-image-gen", "iconUrl": null, "installs": 24, "name": "Gemini Image Generator", "ownerName": "wangyan", "score": 100000, "slug": "wangyan-gemini-image-gen", "source": "clawhub", "stars": 1, "tags": null, "updated_at": 1776749684278, "version": "1.0.1"}, {"category": "developer-tools", "created_at": 1773900928609, "description": "Control Safari on macOS with AppleScript, safaridriver, screenshots, tab navigation, and real-browser read, click, and type workflows.", "description_zh": "", "downloads": 140, "homepage": "https://clawhub.ai/ivangdavila/safari", "iconUrl": null, "installs": 14, "name": "Safari Browser Control", "ownerName": "ivangdavila", "score": 100000, "slug": "safari", "source": "clawhub", "stars": 1, "tags": null, "updated_at": 1776749684264, "version": "1.0.0"}, {"category": "developer-tools", "created_at": 1773291131884, "description": "Writing non-blocking, async PHP code using the AMPHP framework — revolt/event-loop, amphp/amp ^3, and the full amphp/* ecosystem (http-server, http-client, w...", "description_zh": "", "downloads": 140, "homepage": "https://clawhub.ai/rekryt/amphp", "iconUrl": null, "installs": 14, "name": "amphp", "ownerName": "rekryt", "score": 1499.892864795372, "slug": "amphp", "source": "clawhub", "stars": 0, "tags": null, "updated_at": 1776767471149, "version": "1.0.0"}, {"category": "data-analysis", "created_at": 1773417564454, "description": "Optimize weekly promo schedules across channels balancing inventory, capacity, and budget to prevent conflicts and maintain consistent ecommerce momentum.", "description_zh": "", "downloads": 140, "homepage": "https://clawhub.ai/leooooooow/promo-calendar-optimizer", "iconUrl": null, "installs": 7, "name": "Promo Calendar Optimizer", "ownerName": "leooooooow", "score": 4599.211563731931, "slug": "promo-calendar-optimizer", "source": "clawhub", "stars": 0, "tags": null, "updated_at": 1776764650071, "version": "1.0.0"}, {"category": "productivity", "created_at": 1773430330720, "description": "Proactive daily planning assistant that helps organize your day, track tasks, and provide motivation. Acts as a personal assistant to plan your day proactively.", "description_zh": "", "downloads": 140, "homepage": "https://clawhub.ai/akshaymemane/proactive-daily-planner", "iconUrl": null, "installs": 15, "name": "Proactive Daily Planner", "ownerName": "akshaymemane", "score": 2378.1212841854936, "slug": "proactive-daily-planner", "source": "clawhub", "stars": 0, "tags": null, "updated_at": 1776763149843, "version": "0.2.0"}, {"category": "ai-intelligence", "created_at": 1773428360993, "description": "Three-agent pipeline orchestrator (Kalshalyst, Eval, Executor) for automated Kalshi prediction market trading with validation loops and retry logic", "description_zh": "", "downloads": 140, "homepage": "https://clawhub.ai/kingmadellc/prediction-stack-orchestrator", "iconUrl": null, "installs": 18, "name": "Prediction Stack Orchestrator", "ownerName": "kingmadellc", "score": 4484.304932735426, "slug": "prediction-stack-orchestrator", "source": "clawhub", "stars": 0, "tags": null, "updated_at": 1776761539748, "version": "1.1.0"}, {"category": "developer-tools", "created_at": 1773289922899, "description": "Browse and extract text content, titles, and partial HTML from webpages using a local browser service.", "description_zh": "", "downloads": 140, "homepage": "https://clawhub.ai/pingagi/pingagi-web", "iconUrl": null, "installs": 7, "name": "pingagi-web", "ownerName": "pingagi", "score": 10886.46967340591, "slug": "pingagi-web", "source": "clawhub", "stars": 0, "tags": null, "updated_at": 1776759683669, "version": "0.1.0"}, {"category": "communication-collaboration", "created_at": 1773289716934, "description": "Access and manage email, calendar, and contacts across multiple providers using the Nylas API for unified communication and scheduling tasks.", "description_zh": "", "downloads": 140, "homepage": "https://clawhub.ai/qasim-nylas/nylas", "iconUrl": null, "installs": 2, "name": "Nylas Email, Calendar & Contacts", "ownerName": "qasim-nylas", "score": 10727.969348659004, "slug": "nylas", "source": "clawhub", "stars": 0, "tags": null, "updated_at": 1776759683342, "version": "1.0.1"}, {"category": "productivity", "created_at": 1773416402591, "description": "Manage and monitor all your AI agent sessions from a unified terminal with smart sorting, instant switching, and multi-profile support.", "description_zh": "", "downloads": 140, "homepage": "https://clawhub.ai/weykon/agent-hand", "iconUrl": null, "installs": 3, "name": "Agent Hand", "ownerName": "weykon", "score": 10711.553175210405, "slug": "agent-hand", "source": "clawhub", "stars": 0, "tags": ["agents", "dashboard", "opc", "productivity", "terminal"], "updated_at": 1776759683196, "version": "0.3.8"}, {"category": "", "created_at": 1774907946621, "description": "Deep refactoring workflow—characterization tests, incremental steps, behavior preservation, design direction, and verification. Use when improving structure...", "description_zh": "", "downloads": 140, "homepage": "https://clawhub.ai/mike47512/refactoring", "iconUrl": null, "installs": 4, "name": "Refactoring", "ownerName": "mike47512", "score": 10558.069381598792, "slug": "refactoring", "source": "clawhub", "stars": 0, "tags": null, "updated_at": 1776759382630, "version": "1.0.0"}, {"category": "data-analysis", "created_at": 1773434652301, "description": "Helps with GIS concepts, spatial data formats, projections, and spatial analysis. Use when the user works with shapefiles, GeoJSON, coordinate reference syst...", "description_zh": "", "downloads": 140, "homepage": "https://clawhub.ai/openlang-cn/gis", "iconUrl": null, "installs": 23, "name": "Gis", "ownerName": "openlang-cn", "score": 9408.602150537634, "slug": "gis", "source": "clawhub", "stars": 0, "tags": null, "updated_at": 1776758182380, "version": "1.0.0"}, {"category": "security-compliance", "created_at": 1773433965131, "description": "Read policies, application requirements, and forms, then turn them into a completeness checklist, risk list, and submission plan.", "description_zh": "", "downloads": 140, "homepage": "https://clawhub.ai/52yuanchangxing/policy-application-checker", "iconUrl": null, "installs": 12, "name": "policy-application-checker", "ownerName": "52yuanchangxing", "score": 8980.115458627324, "slug": "policy-application-checker", "source": "clawhub", "stars": 0, "tags": null, "updated_at": 1776757582515, "version": "1.0.0"}, {"category": "data-analysis", "created_at": 1773427588806, "description": "Read-only Polymarket interface — browse trending markets, get detailed odds with probability bars, search active markets, and track watchlists. Zero API key...", "description_zh": "", "downloads": 140, "homepage": "https://clawhub.ai/kingmadellc/polymarket-command-center", "iconUrl": null, "installs": 18, "name": "Polymarket Command Center", "ownerName": "kingmadellc", "score": 8805.03144654088, "slug": "polymarket-command-center", "source": "clawhub", "stars": 0, "tags": null, "updated_at": 1776757282866, "version": "1.1.0"}, {"category": "content-creation", "created_at": 1773435244481, "description": "Reasoning-driven image generation using structured creative briefs (Gemini 3 style) — generates high-fidelity images via muapi.ai with logic-based prompting", "description_zh": "", "downloads": 140, "homepage": "https://clawhub.ai/anil-matcha/muapi-nano-banana-skill", "iconUrl": null, "installs": 28, "name": "Nano Banana", "ownerName": "anil-matcha", "score": 25270.758122743682, "slug": "muapi-nano-banana-skill", "source": "clawhub", "stars": 0, "tags": null, "updated_at": 1776755588646, "version": "0.1.0"}, {"category": "ai-intelligence", "created_at": 1773429739876, "description": "Token cost optimizer for OpenClaw agents. Scan usage patterns, identify waste (excessive context, repeated queries, inefficient tool use), and get actionable...", "description_zh": "", "downloads": 140, "homepage": "https://clawhub.ai/sammy-the-bot/tokenguard-pro", "iconUrl": null, "installs": 16, "name": "Tokenguard Pro", "ownerName": "sammy-the-bot", "score": 6372.325898953119, "slug": "tokenguard-pro", "source": "clawhub", "stars": 0, "tags": null, "updated_at": 1776752570028, "version": "1.0.0"}, {"category": "developer-tools", "created_at": 1773090751837, "description": "Surgical quick fix — max 5 tool calls, zero exploration, read-diagnose-fix-verify. Use for small bugs, typos, simple changes that don't need deep analysis.", "description_zh": "", "downloads": 140, "homepage": "https://clawhub.ai/nakedoshadow/shadows-oneshot-fix", "iconUrl": null, "installs": 6, "name": "Shadows Oneshot Fix", "ownerName": "nakedoshadow", "score": 84337.34939759037, "slug": "shadows-oneshot-fix", "source": "clawhub", "stars": 0, "tags": null, "updated_at": 1776749685343, "version": "1.1.0"}, {"category": "productivity", "created_at": 1773091084760, "description": "Clockify integration. Manage Users, Reports. Use when the user wants to interact with Clockify data.", "description_zh": "", "downloads": 140, "homepage": "https://clawhub.ai/membranedev/clockify-integration", "iconUrl": null, "installs": 1, "name": "Clockify", "ownerName": "membranedev", "score": 85889.57055214724, "slug": "clockify-integration", "source": "clawhub", "stars": 0, "tags": null, "updated_at": 1776749685304, "version": "1.0.0"}, {"category": "developer-tools", "created_at": 1773425760999, "description": "Interact with IATerm terminals via the local WebSocket API (ws://127.0.0.1:19790/ws). Use when the user asks to list workspaces, displays, or panels, view ac...", "description_zh": "", "downloads": 140, "homepage": "https://clawhub.ai/sutaixu/iaterm-ws-client", "iconUrl": null, "installs": 6, "name": "IATerm WebSocket Agent", "ownerName": "sutaixu", "score": 85889.57055214724, "slug": "iaterm-ws-client", "source": "clawhub", "stars": 0, "tags": null, "updated_at": 1776749685287, "version": "1.0.4"}, {"category": "productivity", "created_at": 1773221350172, "description": "Avaza integration. Manage Organizations. Use when the user wants to interact with Avaza data.", "description_zh": "", "downloads": 140, "homepage": "https://clawhub.ai/gora050/avaza", "iconUrl": null, "installs": 5, "name": "Avaza", "ownerName": "gora050", "score": 67632.8502415459, "slug": "avaza", "source": "clawhub", "stars": 0, "tags": null, "updated_at": 1776749684965, "version": "1.0.1"}, {"category": "developer-tools", "created_at": 1773089781489, "description": "Unified AI workflow with persistent memory, TDD execution, and 15 productivity skills. Use when starting any coding project or when you need planning, execut...", "description_zh": "", "downloads": 140, "homepage": "https://clawhub.ai/mok888/spf-test-skill", "iconUrl": null, "installs": 6, "name": "SPF Test", "ownerName": "mok888", "score": 77348.06629834254, "slug": "spf-test-skill", "source": "clawhub", "stars": 0, "tags": null, "updated_at": 1776749684778, "version": "1.0.0"}]}