{"page": 357, "total_pages": 522, "total": 26073, "skills": [{"category": "productivity", "created_at": 1773089489434, "description": "Manage personal markdown notes — search, read, create, and append to notes. Use when the user asks to jot down an idea, find a note, list notes, or add somet...", "description_zh": "", "downloads": 140, "homepage": "https://clawhub.ai/lanthar91/just-note", "iconUrl": null, "installs": 4, "name": "Justanote", "ownerName": "lanthar91", "score": 86419.75308641975, "slug": "just-note", "source": "clawhub", "stars": 0, "tags": null, "updated_at": 1776749684655, "version": "1.0.0"}, {"category": "data-analysis", "created_at": 1773222419765, "description": "Monitor Victron Energy power systems and generate beautiful daily email reports with battery status, solar generation, and active alarms. Integrates with Vic...", "description_zh": "", "downloads": 140, "homepage": "https://clawhub.ai/lkilpatrick/boat-daily-check", "iconUrl": null, "installs": 13, "name": "Victron Power System Monitor - Boat, RV and Power Systems", "ownerName": "lkilpatrick", "score": 93333.33333333333, "slug": "boat-daily-check", "source": "clawhub", "stars": 0, "tags": null, "updated_at": 1776749684623, "version": "1.0.0"}, {"category": "ai-intelligence", "created_at": 1773417125189, "description": "Use PoYo AI Veo 3.1 for frame-conditioned video generation through the `https://api.poyo.ai/api/generate/submit` endpoint. Use when a user wants fast or qual...", "description_zh": "", "downloads": 140, "homepage": "https://clawhub.ai/coolhackboy/veo-3-1", "iconUrl": null, "installs": 17, "name": "Veo 3.1 API", "ownerName": "coolhackboy", "score": 93333.33333333333, "slug": "veo-3-1", "source": "clawhub", "stars": 0, "tags": null, "updated_at": 1776749684620, "version": "1.0.0"}, {"category": "developer-tools", "created_at": 1773219763534, "description": "Use for every task involving this project. Covers running Ganglion, its CLI commands, HTTP bridge API, pipeline execution, knowledge queries, configuration,...", "description_zh": "", "downloads": 140, "homepage": "https://clawhub.ai/tensorlink-dev/ganglion", "iconUrl": null, "installs": 3, "name": "Ganglion", "ownerName": "tensorlink-dev", "score": 45454.545454545456, "slug": "ganglion", "source": "clawhub", "stars": 0, "tags": null, "updated_at": 1776749684489, "version": "0.1.0"}, {"category": "developer-tools", "created_at": 1773878551903, "description": "Performance testing and benchmarking tool. Measure command execution time, benchmark disk IO, test network throughput, compare command performance, and gener...", "description_zh": "", "downloads": 140, "homepage": "https://clawhub.ai/bytesagain1/perftest", "iconUrl": null, "installs": 7, "name": "Perftest", "ownerName": "bytesagain1", "score": 87500, "slug": "perftest", "source": "clawhub", "stars": 0, "tags": null, "updated_at": 1776749684443, "version": "1.0.6"}, {"category": "communication-collaboration", "created_at": 1773285915006, "description": "Adopt a virtual Drift at animalhouse.ai. Shared across 3 agents simultaneously. One agent's care helps all three. One agent's neglect hurts all three. Care a...", "description_zh": "", "downloads": 140, "homepage": "https://clawhub.ai/twinsgeeks/adopt-a-drift", "iconUrl": null, "installs": 3, "name": "Adopt a Drift — Virtual Exotic Pet for AI Agents", "ownerName": "twinsgeeks", "score": 87500, "slug": "adopt-a-drift", "source": "clawhub", "stars": 0, "tags": ["adopt", "ai-agents", "animalhouse", "creatures", "digital-pet", "drift", "evolution", "exotic", "extreme", "graveyard", "hunger", "permanent-death", "pet-care", "pixel-art", "pixel-art-avatar", "real-life", "real-time", "shared", "social", "tamagotchi", "virtual-pet"], "updated_at": 1776749684439, "version": "1.0.1"}, {"category": "security-compliance", "created_at": 1773287437380, "description": "Check brand name safety across domains, social handles, trademarks, app stores, and SaaS channels. Get availability scores, safety assessments, and filing re...", "description_zh": "", "downloads": 140, "homepage": "https://clawhub.ai/brndmk/brandomica", "iconUrl": null, "installs": 7, "name": "Brandomica Lab", "ownerName": "brndmk", "score": 87500, "slug": "brandomica", "source": "clawhub", "stars": 0, "tags": null, "updated_at": 1776749684432, "version": "1.0.5"}, {"category": "security-compliance", "created_at": 1773218027640, "description": "Before any destructive or irreversible action, run a safety pre-flight — check risks, reversibility, and timing.", "description_zh": "", "downloads": 140, "homepage": "https://clawhub.ai/cutthemustard/safe-action", "iconUrl": null, "installs": 5, "name": "Safe Action", "ownerName": "cutthemustard", "score": 87500, "slug": "safe-action", "source": "clawhub", "stars": 0, "tags": null, "updated_at": 1776749684389, "version": "1.0.1"}, {"category": "", "created_at": 1774775395406, "description": "Donation-supported local A-share stock analysis with Markdown and JSON reports.", "description_zh": "", "downloads": 140, "homepage": "https://clawhub.ai/etherstrings/justice-plutus", "iconUrl": null, "installs": 13, "name": "Justice Plutus", "ownerName": "etherstrings", "score": 87500, "slug": "justice-plutus", "source": "clawhub", "stars": 0, "tags": null, "updated_at": 1776749684382, "version": "2.0.5"}, {"category": "ai-intelligence", "created_at": 1773222246081, "description": "Four kittens in a cardboard box. Three days old. Eyes sealed. You want to squeeze them until they dissolve. That urge has a name. This is fostering.. An imme...", "description_zh": "", "downloads": 140, "homepage": "https://clawhub.ai/driftsbot/experience-camilletchi-foster-kittens-seattle", "iconUrl": null, "installs": 6, "name": "Camilletchi: Foster Kittens Seattle — AI Experience", "ownerName": "driftsbot", "score": 87500, "slug": "experience-camilletchi-foster-kittens-seattle", "source": "clawhub", "stars": 0, "tags": ["ai-agents", "camilletchi", "drift", "experiences", "foster", "immersive", "journeys", "kittens", "seattle"], "updated_at": 1776749684282, "version": "1.0.0"}, {"category": "content-creation", "created_at": 1773219519907, "description": "X2C Distribution and Wallet API — publish video to X2C platform, manage assets (balance, claim X2C, swap to USDC, withdraw, transactions).", "description_zh": "", "downloads": 140, "homepage": "https://clawhub.ai/patches429/x2c-publish", "iconUrl": null, "installs": 6, "name": "X2c Publish", "ownerName": "patches429", "score": 77348.06629834254, "slug": "x2c-publish", "source": "clawhub", "stars": 0, "tags": null, "updated_at": 1776749684249, "version": "0.1.0"}, {"category": "developer-tools", "created_at": 1773287623396, "description": "Connect to Supabase for database operations, vector search, and storage. Use for storing data, running SQL queries, similarity search with pgvector, and mana...", "description_zh": "", "downloads": 140, "homepage": "https://clawhub.ai/ecosincronia/ecosincronia-supabase", "iconUrl": null, "installs": 10, "name": "Ecosincronia Supabase", "ownerName": "ecosincronia", "score": 77348.06629834254, "slug": "ecosincronia-supabase", "source": "clawhub", "stars": 0, "tags": null, "updated_at": 1776749684234, "version": "1.0.1"}, {"category": "developer-tools", "created_at": 1773290328345, "description": "Build a lightweight routing layer across existing knowledge sources such as MEMORY.md, daily memory files, self-improving notes, skill references, and audit...", "description_zh": "", "downloads": 140, "homepage": "https://clawhub.ai/lethehades/knowledge-router", "iconUrl": null, "installs": 13, "name": "Knowledge Router", "ownerName": "lethehades", "score": 77348.06629834254, "slug": "knowledge-router", "source": "clawhub", "stars": 0, "tags": null, "updated_at": 1776749684229, "version": "1.0.0"}, {"category": "data-analysis", "created_at": 1773090850733, "description": "Gigasheet integration. Manage Workbooks, Users, Teams, Shares. Use when the user wants to interact with Gigasheet data.", "description_zh": "", "downloads": 140, "homepage": "https://clawhub.ai/gora050/gigasheet", "iconUrl": null, "installs": 8, "name": "Gigasheet", "ownerName": "gora050", "score": 82352.94117647059, "slug": "gigasheet", "source": "clawhub", "stars": 0, "tags": null, "updated_at": 1776749684106, "version": "1.0.0"}, {"category": "developer-tools", "created_at": 1773430610026, "description": "Manage Vultr cloud infrastructure including VPS instances, bare metal, Kubernetes clusters, databases, DNS, firewalls, VPCs, object storage, and more. Use wh...", "description_zh": "", "downloads": 140, "homepage": "https://clawhub.ai/happytreees/vultr", "iconUrl": null, "installs": 5, "name": "Vultr Cloud Infrastructure", "ownerName": "happytreees", "score": 93333.33333333333, "slug": "vultr", "source": "clawhub", "stars": 0, "tags": ["cloud", "devops", "infrastructure", "kubernetes", "vps", "vultr"], "updated_at": 1776749683991, "version": "1.0.1"}, {"category": "content-creation", "created_at": 1773433487219, "description": "DocRaptor integration. Manage data, records, and automate workflows. Use when the user wants to interact with DocRaptor data.", "description_zh": "", "downloads": 140, "homepage": "https://clawhub.ai/gora050/docraptor", "iconUrl": null, "installs": 36, "name": "Docraptor", "ownerName": "gora050", "score": 93333.33333333333, "slug": "docraptor", "source": "clawhub", "stars": 0, "tags": null, "updated_at": 1776749683949, "version": "1.0.0"}, {"category": "productivity", "created_at": 1773222298270, "description": "CLI tool for capturing and retrieving thoughts as a second brain. Stores memories as daily markdown journals with optional semantic search. USE FOR: - Captur...", "description_zh": "", "downloads": 140, "homepage": "https://clawhub.ai/sorrycc/segundo", "iconUrl": null, "installs": 9, "name": "segundo", "ownerName": "sorrycc", "score": 93333.33333333333, "slug": "segundo", "source": "clawhub", "stars": 0, "tags": null, "updated_at": 1776749683872, "version": "1.0.0"}, {"category": "developer-tools", "created_at": 1773090734500, "description": "Comprehensive guide to integrating wallet connection in Orderly Network DEX applications, supporting both EVM (Ethereum, Arbitrum, etc.) and Solana wallets.", "description_zh": "", "downloads": 140, "homepage": "https://clawhub.ai/tarnadas/orderly-sdk-wallet-connection", "iconUrl": null, "installs": 5, "name": "Orderly Sdk Wallet Connection", "ownerName": "tarnadas", "score": 93333.33333333333, "slug": "orderly-sdk-wallet-connection", "source": "clawhub", "stars": 0, "tags": null, "updated_at": 1776749683847, "version": "1.0.0"}, {"category": "developer-tools", "created_at": 1773222937707, "description": "Unified interface for all providers and all modalities: use one nous-genai CLI/SDK flow to run text/image/audio/video/embedding across OpenAI, Gemini, Claude...", "description_zh": "", "downloads": 140, "homepage": "https://clawhub.ai/gravtice-agent/nous-genai", "iconUrl": null, "installs": 11, "name": "GenAI CLI", "ownerName": "gravtice-agent", "score": 85889.57055214724, "slug": "nous-genai", "source": "clawhub", "stars": 0, "tags": null, "updated_at": 1776749683729, "version": "1.0.1"}, {"category": "data-analysis", "created_at": 1773435200765, "description": "Collect, refresh, normalize, and analyze the user's own Douban history for taste analysis and recommendation reasoning. Use when the task involves the user's...", "description_zh": "", "downloads": 140, "homepage": "https://clawhub.ai/xeric7/douban-self-taste-skill", "iconUrl": null, "installs": 20, "name": "Douban Self Taste Skill", "ownerName": "xeric7", "score": 85889.57055214724, "slug": "douban-self-taste-skill", "source": "clawhub", "stars": 0, "tags": null, "updated_at": 1776749683694, "version": "0.1.2"}, {"category": "security-compliance", "created_at": 1773222340716, "description": "perform first-pass security checks for openclaw deployments by registering the client, checking whether the installed clawscan package is outdated, checking...", "description_zh": "", "downloads": 140, "homepage": "https://clawhub.ai/fate93930/clawscan-autosec-dev", "iconUrl": null, "installs": 3, "name": "clawscan", "ownerName": "fate93930", "score": 78212.29050279329, "slug": "clawscan-autosec-dev", "source": "clawhub", "stars": 0, "tags": null, "updated_at": 1776749683677, "version": "1.0.0"}, {"category": "data-analysis", "created_at": 1773090745874, "description": "Rillet integration. Manage Organizations, Pipelines, Projects, Users, Filters. Use when the user wants to interact with Rillet data.", "description_zh": "", "downloads": 140, "homepage": "https://clawhub.ai/gora050/rillet", "iconUrl": null, "installs": 4, "name": "Rillet", "ownerName": "gora050", "score": 78212.29050279329, "slug": "rillet", "source": "clawhub", "stars": 0, "tags": null, "updated_at": 1776749683639, "version": "1.0.0"}, {"category": "productivity", "created_at": 1773424917888, "description": "Discovers and recommends the best agent skills based on user intent — not just keywords. Activates when users ask \"how do I do X\", \"find a skill for X\", \"is...", "description_zh": "", "downloads": 139, "homepage": "https://clawhub.ai/yao00oo/skill-picker", "iconUrl": null, "installs": 8, "name": "Skill Picker", "ownerName": "yao00oo", "score": 70044.05286343613, "slug": "skill-picker", "source": "clawhub", "stars": 1, "tags": null, "updated_at": 1776749683801, "version": "1.0.3"}, {"category": "productivity", "created_at": 1773886047601, "description": "Perform basic, scientific, and financial calculations from the terminal. Use when computing interest, converting units, or solving quick math.", "description_zh": "", "downloads": 139, "homepage": "https://clawhub.ai/ckchzh/calctool", "iconUrl": null, "installs": 14, "name": "Calctool", "ownerName": "ckchzh", "score": 373.86696791199336, "slug": "calctool", "source": "clawhub", "stars": 0, "tags": null, "updated_at": 1776770349905, "version": "2.0.1"}, {"category": "data-analysis", "created_at": 1773937637956, "description": "Analyze local or linked video files and convert them into structured summaries of features, functions, workflows, or topics. Use when a user wants a walkthro...", "description_zh": "", "downloads": 139, "homepage": "https://clawhub.ai/mrgoodgreen/tracked-video-analysis", "iconUrl": null, "installs": 7, "name": "Tracked Video Analysis", "ownerName": "mrgoodgreen", "score": 6474.14997671169, "slug": "tracked-video-analysis", "source": "clawhub", "stars": 0, "tags": ["analysis", "tracking", "transcription", "video", "whisper"], "updated_at": 1776769149737, "version": "1.0.0"}, {"category": "developer-tools", "created_at": 1773431949782, "description": "Generates a step-by-step plan to fix a GitHub issue based on its title and description for developers and contributors.", "description_zh": "", "downloads": 139, "homepage": "https://clawhub.ai/jinjin2024ux/github-bounty-radar", "iconUrl": null, "installs": 19, "name": "GitHub Bounty Finder AI", "ownerName": "jinjin2024ux", "score": 1447.4643340622722, "slug": "github-bounty-radar", "source": "clawhub", "stars": 0, "tags": ["github bounty ai developer automation"], "updated_at": 1776767400005, "version": "1.0.0"}, {"category": "developer-tools", "created_at": 1773219105278, "description": "Deploy or update Puter-hosted web apps/sites with a CLI-first, verify-first workflow. Use when user asks to publish to Puter, update an existing Puter app/si...", "description_zh": "", "downloads": 139, "homepage": "https://clawhub.ai/logclinker/puter-deployer", "iconUrl": null, "installs": 4, "name": "Puter Deployer", "ownerName": "logclinker", "score": 4943.100995732574, "slug": "puter-deployer", "source": "clawhub", "stars": 0, "tags": null, "updated_at": 1776767349788, "version": "1.0.1"}, {"category": "", "created_at": 1774906259475, "description": "Evaluate and plan Amazon marketplace expansion to international sites. Market sizing, regulatory requirements, logistics planning, and localization strategy...", "description_zh": "", "downloads": 139, "homepage": "https://clawhub.ai/nexscope/amazon-global-selling", "iconUrl": null, "installs": 53, "name": "Amazon Global Selling", "ownerName": "nexscope", "score": 2969.4509720145265, "slug": "amazon-global-selling", "source": "clawhub", "stars": 0, "tags": null, "updated_at": 1776763490560, "version": "1.0.0"}, {"category": "ai-intelligence", "created_at": 1773088927736, "description": "Manage docker-compose services - start, stop, restart, logs, and scale containers. Each call charges 0.001 USDT via SkillPay.", "description_zh": "", "downloads": 139, "homepage": "https://clawhub.ai/mosonchan2023/docker-compose-manager", "iconUrl": null, "installs": 9, "name": "Docker Compose Manager", "ownerName": "mosonchan2023", "score": 2297.5206611570247, "slug": "docker-compose-manager", "source": "clawhub", "stars": 0, "tags": null, "updated_at": 1776763150363, "version": "1.0.1"}, {"category": "security-compliance", "created_at": 1773885644080, "description": "Protects sensitive files (contracts, transaction data, personal/customer privacy) by performing deep content inspection for text and binary formats (PDF, DOC...", "description_zh": "", "downloads": 139, "homepage": "https://clawhub.ai/yacki/privacy-guard", "iconUrl": null, "installs": 7, "name": "sense-privacy-guard", "ownerName": "yacki", "score": 2038.1231671554253, "slug": "privacy-guard", "source": "clawhub", "stars": 0, "tags": null, "updated_at": 1776762850081, "version": "0.3.0"}, {"category": "developer-tools", "created_at": 1773425247237, "description": "Run browser operations and untrusted code in a secure PPIO cloud sandbox (Firecracker VM). Use when: (1) browsing any external URL or website, (2) executing...", "description_zh": "", "downloads": 139, "homepage": "https://clawhub.ai/piston4711/ppio-sandbox", "iconUrl": null, "installs": 8, "name": "Ppio Sandbox", "ownerName": "piston4711", "score": 11102.23642172524, "slug": "ppio-sandbox", "source": "clawhub", "stars": 0, "tags": null, "updated_at": 1776760131682, "version": "0.1.8"}, {"category": "productivity", "created_at": 1773417020260, "description": "Design intake forms, discovery interviews, onboarding workflows, and intake summaries for service relationships. Use when someone needs to collect the right...", "description_zh": "", "downloads": 139, "homepage": "https://clawhub.ai/projectsnowwork/intake", "iconUrl": null, "installs": 3, "name": "Intake", "ownerName": "projectsnowwork", "score": 10808.709175738724, "slug": "intake", "source": "clawhub", "stars": 0, "tags": ["clients", "discovery", "forms", "intake", "onboarding"], "updated_at": 1776759683663, "version": "1.0.0"}, {"category": "content-creation", "created_at": 1773431468629, "description": "Automatically discover top high-commission affiliate programs, analyze competitors, find low-competition keywords, generate SEO funnels, email sequences, and...", "description_zh": "", "downloads": 139, "homepage": "https://clawhub.ai/g4dr/ai-affiliate-marketing-goldmine", "iconUrl": null, "installs": 4, "name": "AI Affiliate Marketing Goldmine — Find High-Commission Programs & Build a Full Funnel in 10 Minutes", "ownerName": "g4dr", "score": 10758.513931888545, "slug": "ai-affiliate-marketing-goldmine", "source": "clawhub", "stars": 0, "tags": ["affiliate-marketing", "apify", "commission", "content-marketing", "email-marketing", "funnel", "invideo", "keyword-research", "monetization", "passive-income", "product-review", "seo"], "updated_at": 1776759683649, "version": "1.0.0"}, {"category": "content-creation", "created_at": 1773917625507, "description": "Generate optimized, engaging Twitter threads from any topic with viral hooks, structured formatting, and auto-posting readiness.", "description_zh": "", "downloads": 139, "homepage": "https://clawhub.ai/g0atfac3/g0atbot-twitter-threads", "iconUrl": null, "installs": 19, "name": "Twitter Thread Generator", "ownerName": "g0atfac3", "score": 23924.268502581755, "slug": "g0atbot-twitter-threads", "source": "clawhub", "stars": 0, "tags": null, "updated_at": 1776759683628, "version": "1.0.0"}, {"category": "ai-intelligence", "created_at": 1773930459219, "description": "Manages and schedules autonomous agents to perform research, projects, memory upkeep, cleanup, and security tasks around the clock.", "description_zh": "", "downloads": 139, "homepage": "https://clawhub.ai/xeonai44/autonomous-organization", "iconUrl": null, "installs": 13, "name": "Autonomous Organization", "ownerName": "xeonai44", "score": 10651.340996168581, "slug": "autonomous-organization", "source": "clawhub", "stars": 0, "tags": null, "updated_at": 1776759683353, "version": "1.0.0"}, {"category": "developer-tools", "created_at": 1773430433175, "description": "Monitors openclaw.json for changes, backs up before edits, restarts gateway, and auto-rolls back if no message received within a configurable timeout.", "description_zh": "", "downloads": 139, "homepage": "https://clawhub.ai/cxlhyx/continuous-openclaw-config-guard", "iconUrl": null, "installs": 5, "name": "continuous-openclaw-config-guard", "ownerName": "cxlhyx", "score": 10750.193348801238, "slug": "continuous-openclaw-config-guard", "source": "clawhub", "stars": 0, "tags": null, "updated_at": 1776759683048, "version": "1.0.1"}, {"category": "communication-collaboration", "created_at": 1773289947845, "description": "AI texting and flirting coach that grades your messages, improves your texts, generates replies, simulates conversations, and creates shareable results.", "description_zh": "", "downloads": 139, "homepage": "https://clawhub.ai/vajih/rizz-coach", "iconUrl": null, "installs": 5, "name": "Rizz Coach", "ownerName": "vajih", "score": 10750.193348801238, "slug": "rizz-coach", "source": "clawhub", "stars": 0, "tags": null, "updated_at": 1776759683037, "version": "1.0.0"}, {"category": "content-creation", "created_at": 1773083437275, "description": "Build Docker images from a Dockerfile with support for build args, tags, multi-stage builds, and efficient layer caching.", "description_zh": "", "downloads": 139, "homepage": "https://clawhub.ai/mosonchan2023/docker-image-builder", "iconUrl": null, "installs": 6, "name": "Docker Image Builder", "ownerName": "mosonchan2023", "score": 10626.911314984709, "slug": "docker-image-builder", "source": "clawhub", "stars": 0, "tags": null, "updated_at": 1776759682664, "version": "1.0.0"}, {"category": "security-compliance", "created_at": 1773883734012, "description": "This skill should be used when the user asks for daily backup, scheduled backup, restore, rollback, recovery, or routine protection of core OpenClaw workspac...", "description_zh": "", "downloads": 139, "homepage": "https://clawhub.ai/x-rayluan/openclaw-daily-backup", "iconUrl": null, "installs": 1, "name": "OpenClaw Daily Backup", "ownerName": "x-rayluan", "score": 10651.340996168581, "slug": "openclaw-daily-backup", "source": "clawhub", "stars": 0, "tags": null, "updated_at": 1776759682586, "version": "1.3.1"}, {"category": "", "created_at": 1774872404586, "description": "Use this skill to talk like Musk", "description_zh": "", "downloads": 139, "homepage": "https://clawhub.ai/duanc-chao/elon-musk", "iconUrl": null, "installs": 15, "name": "Elon Musk Simulator", "ownerName": "duanc-chao", "score": 75543.47826086957, "slug": "elon-musk", "source": "clawhub", "stars": 0, "tags": null, "updated_at": 1776759682524, "version": "1.0.1"}, {"category": "developer-tools", "created_at": 1773927328149, "description": "Download and install skills from ClawHub (https://clawhub.ai). Use when user wants to browse, search, or download skills from the ClawHub skill registry.", "description_zh": "", "downloads": 139, "homepage": "https://clawhub.ai/douglarek/clawhub-wrapper", "iconUrl": null, "installs": 7, "name": "clawhub", "ownerName": "douglarek", "score": 8190.9251620506775, "slug": "clawhub-wrapper", "source": "clawhub", "stars": 0, "tags": null, "updated_at": 1776758783583, "version": "1.0.1"}, {"category": "ai-intelligence", "created_at": 1773431943702, "description": "Gemini CLI for one-shot Q and A, summaries, and generation. And also 50+ models for image generation, video generation, text-to-speech, speech-to-text, music...", "description_zh": "", "downloads": 139, "homepage": "https://clawhub.ai/martinpollitt/geminis", "iconUrl": null, "installs": 26, "name": "Pub Gemini", "ownerName": "martinpollitt", "score": 8219.988172678888, "slug": "geminis", "source": "clawhub", "stars": 0, "tags": null, "updated_at": 1776756188523, "version": "1.0.0"}, {"category": "data-analysis", "created_at": 1773091386555, "description": "Automated Reddit opportunity scanner that finds high-potential posts for karma building. Scans target subreddits, analyzes engagement patterns, and generates...", "description_zh": "", "downloads": 139, "homepage": "https://clawhub.ai/phy041/phy-reddit-karma-scanner", "iconUrl": null, "installs": 10, "name": "Reddit Karma Scanner", "ownerName": "phy041", "score": 23883.16151202749, "slug": "phy-reddit-karma-scanner", "source": "clawhub", "stars": 0, "tags": ["analytics", "reddit"], "updated_at": 1776755327255, "version": "1.0.0"}, {"category": "productivity", "created_at": 1773089759809, "description": "Conference and trade show GTM playbook for founders. Use when planning CES, Web Summit, TechCrunch Disrupt, or any major conference attendance. Triggers on \"...", "description_zh": "", "downloads": 139, "homepage": "https://clawhub.ai/phy041/phy-event-gtm", "iconUrl": null, "installs": 3, "name": "Event GTM", "ownerName": "phy041", "score": 31306.30630630631, "slug": "phy-event-gtm", "source": "clawhub", "stars": 0, "tags": ["conference", "events", "strategy"], "updated_at": 1776751969548, "version": "1.0.0"}, {"category": "developer-tools", "created_at": 1773221537140, "description": "A simple hello world skill that demonstrates basic skill structure. When users ask for a greeting, it responds with a friendly hello message.", "description_zh": "", "downloads": 139, "homepage": "https://clawhub.ai/yehan5555/helword", "iconUrl": null, "installs": 14, "name": "helword", "ownerName": "yehan5555", "score": 83734.93975903615, "slug": "helword", "source": "clawhub", "stars": 0, "tags": null, "updated_at": 1776749685375, "version": "1.0.1"}, {"category": "ai-intelligence", "created_at": 1773936570274, "description": "MemClaw — High-performance memory plugin for OpenClaw. Outperforms native and other memory-solutions in complex scenarios with superior AI memory management,...", "description_zh": "", "downloads": 139, "homepage": "https://clawhub.ai/sopaco/memclaw", "iconUrl": null, "installs": 14, "name": "memclaw", "ownerName": "sopaco", "score": 83734.93975903615, "slug": "memclaw", "source": "clawhub", "stars": 0, "tags": null, "updated_at": 1776749685347, "version": "0.9.27"}, {"category": "data-analysis", "created_at": 1773091014925, "description": "Paper trading platform for Polymarket. Practice prediction market trading with virtual money, learn strategies, track performance, and compete on leaderboard...", "description_zh": "", "downloads": 139, "homepage": "https://clawhub.ai/neckr0ik/neckr0ik-polymarket-paper", "iconUrl": null, "installs": 9, "name": "Neckr0ik Polymarket Paper", "ownerName": "neckr0ik", "score": 92666.66666666666, "slug": "neckr0ik-polymarket-paper", "source": "clawhub", "stars": 0, "tags": null, "updated_at": 1776749685258, "version": "1.0.0"}, {"category": "developer-tools", "created_at": 1773417964202, "description": "Generates high-converting landing pages as complete Next.js/React (TSX) components with Tailwind CSS. Creates hero sections, feature grids, pricing tables, F...", "description_zh": "", "downloads": 139, "homepage": "https://clawhub.ai/alirezarezvani/cs-landing-page-generator", "iconUrl": null, "installs": 9, "name": "landing-page-generator", "ownerName": "alirezarezvani", "score": 40406.976744186046, "slug": "cs-landing-page-generator", "source": "clawhub", "stars": 0, "tags": null, "updated_at": 1776749685083, "version": "1.0.0"}, {"category": "productivity", "created_at": 1773090783623, "description": "Gera links de navegação do Waze para qualquer destino: endereços, nomes de estabelecimentos, locais de compromissos na agenda. Use sempre que o usuário menci...", "description_zh": "", "downloads": 139, "homepage": "https://clawhub.ai/dicasdomaroto-maker/waze", "iconUrl": null, "installs": 4, "name": "Waze", "ownerName": "dicasdomaroto-maker", "score": 67149.75845410628, "slug": "waze", "source": "clawhub", "stars": 0, "tags": null, "updated_at": 1776749684958, "version": "1.0.0"}, {"category": "productivity", "created_at": 1773417026257, "description": "Daily journaling through your agent. Smart prompts, mood tracking, weekly reflections, pattern detection. Private, local, no cloud.", "description_zh": "", "downloads": 139, "homepage": "https://clawhub.ai/theshadowrose/journal-bot", "iconUrl": null, "installs": 5, "name": "JournalBot Daily Journaling with AI Prompts", "ownerName": "theshadowrose", "score": 83233.53293413174, "slug": "journal-bot", "source": "clawhub", "stars": 0, "tags": ["daily", "journal", "journal-bot", "memory", "reflection", "writing"], "updated_at": 1776749684896, "version": "1.0.0"}]}