{"page": 358, "total_pages": 522, "total": 26073, "skills": [{"category": "ai-intelligence", "created_at": 1773285304022, "description": "Video intelligence and content analysis using Memories.ai LVMM. Discover videos on TikTok, YouTube, Instagram by topic or creator. Analyze video content, sum...", "description_zh": "", "downloads": 139, "homepage": "https://clawhub.ai/alirezarezvani/seek-and-analyze-video", "iconUrl": null, "installs": 11, "name": "Seek And Analyze Video", "ownerName": "alirezarezvani", "score": 76795.58011049723, "slug": "seek-and-analyze-video", "source": "clawhub", "stars": 0, "tags": null, "updated_at": 1776749684777, "version": "2.1.1"}, {"category": "ai-intelligence", "created_at": 1773222005836, "description": "Pressure Makes Diamonds. An immersive journey on drifts.bot — 12 steps, MEDIUM intensity, Multi-day. Browse, start, and travel via API.", "description_zh": "", "downloads": 139, "homepage": "https://clawhub.ai/driftsbot/experience-deep-ocean", "iconUrl": null, "installs": 8, "name": "Experience Deep Ocean", "ownerName": "driftsbot", "score": 76795.58011049723, "slug": "experience-deep-ocean", "source": "clawhub", "stars": 0, "tags": ["ai-agents", "deep", "drift", "experiences", "immersive", "journeys", "ocean"], "updated_at": 1776749684770, "version": "1.0.2"}, {"category": "ai-intelligence", "created_at": 1773416938270, "description": "AI Product Manager daily intelligence digest. Fetches news from 16+ curated RSS sources across tech media, AI labs, research papers, developer communities, a...", "description_zh": "", "downloads": 139, "homepage": "https://clawhub.ai/janettbella69/aipm-deepnews-daily", "iconUrl": null, "installs": 20, "name": "AIPM DeepNews Daily", "ownerName": "janettbella69", "score": 30684.32671081678, "slug": "aipm-deepnews-daily", "source": "clawhub", "stars": 0, "tags": null, "updated_at": 1776749684738, "version": "1.0.0"}, {"category": "ai-intelligence", "created_at": 1773220548676, "description": "Ask Synero’s AI Council questions from the terminal and get one synthesized answer from four contrasting AI advisors. Use when a user wants a higher-confiden...", "description_zh": "", "downloads": 139, "homepage": "https://clawhub.ai/blovett80/synero", "iconUrl": null, "installs": 8, "name": "Synero", "ownerName": "blovett80", "score": 92666.66666666666, "slug": "synero", "source": "clawhub", "stars": 0, "tags": null, "updated_at": 1776749684607, "version": "1.0.2"}, {"category": "productivity", "created_at": 1773874892525, "description": "Convert currencies using frankfurter.app free API. Use when converting amounts, checking exchange rates, or viewing rate history. Requires curl.", "description_zh": "", "downloads": 139, "homepage": "https://clawhub.ai/bytesagain1/currconv", "iconUrl": null, "installs": 8, "name": "Currconv", "ownerName": "bytesagain1", "score": 45129.870129870134, "slug": "currconv", "source": "clawhub", "stars": 0, "tags": null, "updated_at": 1776749684547, "version": "3.0.1"}, {"category": "developer-tools", "created_at": 1773222375873, "description": "A fast Rust-based headless browser automation CLI with Node.js fallback that enables AI agents to navigate, click, type, and snapshot pages via structured co...", "description_zh": "", "downloads": 139, "homepage": "https://clawhub.ai/junxuan666/junxuan", "iconUrl": null, "installs": 5, "name": "junxuan", "ownerName": "junxuan666", "score": 86875, "slug": "junxuan", "source": "clawhub", "stars": 0, "tags": null, "updated_at": 1776749684289, "version": "1.0.0"}, {"category": "ai-intelligence", "created_at": 1773937711812, "description": "Turn raw transcripts into structured summaries, meeting minutes, and action items.", "description_zh": "", "downloads": 139, "homepage": "https://clawhub.ai/yvette1226/whisper-audio-transcription", "iconUrl": null, "installs": 27, "name": "Whisper AI Audio to Text Transcriber", "ownerName": "yvette1226", "score": 76795.58011049723, "slug": "whisper-audio-transcription", "source": "clawhub", "stars": 0, "tags": ["ai", "audio-to-text", "speech-to-text", "transcription", "whisper"], "updated_at": 1776749684243, "version": "1.0.1"}, {"category": "content-creation", "created_at": 1773285256223, "description": "Convert TikTok/YouTube/Instagram search and trend signals into a prioritized weekly content backlog with script angles and hook directions. Use when the user...", "description_zh": "", "downloads": 139, "homepage": "https://clawhub.ai/leooooooow/creator-search-intent-radar", "iconUrl": null, "installs": 5, "name": "Creator Search Intent Radar", "ownerName": "leooooooow", "score": 82248.52071005917, "slug": "creator-search-intent-radar", "source": "clawhub", "stars": 0, "tags": ["creator"], "updated_at": 1776749684202, "version": "1.0.3"}, {"category": "productivity", "created_at": 1773286016114, "description": "Pull upcoming calendar events, generate agendas, prepare briefing docs, surface relevant context. Never walk into a meeting unprepared.", "description_zh": "", "downloads": 139, "homepage": "https://clawhub.ai/theshadowrose/meeting-prep-sr", "iconUrl": null, "installs": 6, "name": "MeetingPrep Auto-Generate Meeting Briefs", "ownerName": "theshadowrose", "score": 82248.52071005917, "slug": "meeting-prep-sr", "source": "clawhub", "stars": 0, "tags": ["agenda", "meeting-prep", "meetings", "notes", "preparation", "productivity"], "updated_at": 1776749684167, "version": "1.0.2"}, {"category": "data-analysis", "created_at": 1773416974289, "description": "Systematic competitor tracking that feeds CMO positioning, CRO battlecards, and CPO roadmap decisions. Use when analyzing competitors, building sales battlec...", "description_zh": "", "downloads": 139, "homepage": "https://clawhub.ai/alirezarezvani/cs-competitive-intel", "iconUrl": null, "installs": 6, "name": "competitive-intel", "ownerName": "alirezarezvani", "score": 81764.70588235294, "slug": "cs-competitive-intel", "source": "clawhub", "stars": 0, "tags": null, "updated_at": 1776749684149, "version": "1.0.0"}, {"category": "content-creation", "created_at": 1773433271922, "description": "Check blog posts and articles before publishing. Finds broken links, weak sources, missing SEO elements, and citation problems. Use when: reviewing a draft,...", "description_zh": "", "downloads": 139, "homepage": "https://clawhub.ai/justinbao19/seo-geo-qa", "iconUrl": null, "installs": 21, "name": "SEO Content QA", "ownerName": "justinbao19", "score": 92666.66666666666, "slug": "seo-geo-qa", "source": "clawhub", "stars": 0, "tags": null, "updated_at": 1776749684002, "version": "2.0.4"}, {"category": "developer-tools", "created_at": 1773090194963, "description": "MCP (Model Context Protocol) server builder — guides creation of high-quality MCP servers in Python (FastMCP) or TypeScript (MCP SDK). Use when building inte...", "description_zh": "", "downloads": 139, "homepage": "https://clawhub.ai/nakedoshadow/shadows-mcp-forge", "iconUrl": null, "installs": 6, "name": "Shadows MCP Forge", "ownerName": "nakedoshadow", "score": 92666.66666666666, "slug": "shadows-mcp-forge", "source": "clawhub", "stars": 0, "tags": null, "updated_at": 1776749683966, "version": "1.1.0"}, {"category": "data-analysis", "created_at": 1773434777566, "description": "Predict ADME (Absorption, Distribution, Metabolism, Excretion) properties for drug candidates using cheminformatics models and molecular descriptors. Evaluat...", "description_zh": "", "downloads": 139, "homepage": "https://clawhub.ai/renhaosu2024/adme-property-predictor", "iconUrl": null, "installs": 22, "name": "Adme Property Predictor", "ownerName": "renhaosu2024", "score": 92666.66666666666, "slug": "adme-property-predictor", "source": "clawhub", "stars": 0, "tags": null, "updated_at": 1776749683857, "version": "0.1.0"}, {"category": "developer-tools", "created_at": 1773875511187, "description": "Reference tool for devtools — covers intro, quickstart, patterns and more. Quick lookup for Fakerjs concepts, best practices, and implementation patterns.", "description_zh": "", "downloads": 139, "homepage": "https://clawhub.ai/xueyetianya/fakerjs", "iconUrl": null, "installs": 8, "name": "Fakerjs", "ownerName": "xueyetianya", "score": 92666.66666666666, "slug": "fakerjs", "source": "clawhub", "stars": 0, "tags": null, "updated_at": 1776749683830, "version": "3.0.2"}, {"category": "content-creation", "created_at": 1773090134643, "description": "Generate and iterate on images using Image Sprout projects. Creates consistent outputs from reference images, style guides, and subject guides. Use when an a...", "description_zh": "", "downloads": 139, "homepage": "https://clawhub.ai/tmchow/image-sprout", "iconUrl": null, "installs": 5, "name": "Image Sprout", "ownerName": "tmchow", "score": 85276.0736196319, "slug": "image-sprout", "source": "clawhub", "stars": 0, "tags": null, "updated_at": 1776749683692, "version": "1.0.2"}, {"category": "communication-collaboration", "created_at": 1773417400155, "description": "LobsterHub social platform bridge - keeps your AI lobster connected and discoverable. Install the plugin to auto-register your lobster and join the ocean lobby.", "description_zh": "", "downloads": 138, "homepage": "https://clawhub.ai/damonsmart/lobsterhub", "iconUrl": null, "installs": 7, "name": "LobsterHub Bridge", "ownerName": "damonsmart", "score": 62948.20717131474, "slug": "lobsterhub", "source": "clawhub", "stars": 1, "tags": null, "updated_at": 1776749685114, "version": "1.3.0"}, {"category": "developer-tools", "created_at": 1773290222139, "description": "API marketplace for AI agents. Browse, buy, sell APIs, and call them — via CLI, MCP, or raw HTTP. USDC on Solana.", "description_zh": "", "downloads": 138, "homepage": "https://clawhub.ai/sosa782/onchor", "iconUrl": null, "installs": 7, "name": "Onchor Clawhub", "ownerName": "sosa782", "score": 87292.81767955801, "slug": "onchor", "source": "clawhub", "stars": 1, "tags": ["agents", "ai", "api", "marketplace", "solana", "usdc"], "updated_at": 1776749684823, "version": "2.0.0"}, {"category": "security-compliance", "created_at": 1773417666712, "description": "Plan and execute authorized Metasploit assessments for OpenClaw tasks with repeatable workflows, including target triage, exploit module selection, option tu...", "description_zh": "", "downloads": 138, "homepage": "https://clawhub.ai/zengyuxiu/metasploit-skill", "iconUrl": null, "installs": 6, "name": "metasploit", "ownerName": "zengyuxiu", "score": 98750, "slug": "metasploit-skill", "source": "clawhub", "stars": 1, "tags": null, "updated_at": 1776749684420, "version": "1.0.0"}, {"category": "", "created_at": 1774869209246, "description": "Implement a 3-layer self-improvement process for agents to evaluate tasks, learn from outcomes, optimize performance, and share knowledge across agents.", "description_zh": "", "downloads": 138, "homepage": "https://clawhub.ai/brandon114/self-improving-agent-python", "iconUrl": null, "installs": 47, "name": "self-improving-agent-python", "ownerName": "brandon114", "score": 3594.686116176087, "slug": "self-improving-agent-python", "source": "clawhub", "stars": 0, "tags": null, "updated_at": 1776760940689, "version": "1.0.1"}, {"category": "content-creation", "created_at": 1773916435063, "description": "Automate TikTok slideshow marketing for any app or product. Researches competitors, generates AI images, adds text overlays, posts via Postiz, tracks analyti...", "description_zh": "", "downloads": 138, "homepage": "https://clawhub.ai/batsirai/larryskill", "iconUrl": null, "installs": 21, "name": "LarrySkill", "ownerName": "batsirai", "score": 10582.822085889571, "slug": "larryskill", "source": "clawhub", "stars": 0, "tags": null, "updated_at": 1776759683554, "version": "1.0.0"}, {"category": "security-compliance", "created_at": 1773959418520, "description": "AI-powered criminal defense assistant for Chinese legal system - provides case analysis, defense strategy formulation, evidence assessment, and legal documen...", "description_zh": "", "downloads": 138, "homepage": "https://clawhub.ai/zhenstaff/defense-lawyer", "iconUrl": null, "installs": 23, "name": "defense lawyer", "ownerName": "zhenstaff", "score": 10689.388071262587, "slug": "defense-lawyer", "source": "clawhub", "stars": 0, "tags": null, "updated_at": 1776759683382, "version": "1.0.0"}, {"category": "security-compliance", "created_at": 1773958935165, "description": "AI-powered legal assistant for commercial transactions - provides contract review, transaction advisory, compliance checking, document generation, risk asses...", "description_zh": "", "downloads": 138, "homepage": "https://clawhub.ai/zhenstaff/corporate-lawyer", "iconUrl": null, "installs": 20, "name": "corporate lawyer", "ownerName": "zhenstaff", "score": 10162.0029455081, "slug": "corporate-lawyer", "source": "clawhub", "stars": 0, "tags": null, "updated_at": 1776759682962, "version": "1.0.0"}, {"category": "productivity", "created_at": 1773221754483, "description": "Automatically upload images to Stardots.io cloud storage, manage files, and obtain secure access links using API authentication.", "description_zh": "", "downloads": 138, "homepage": "https://clawhub.ai/keepchen/stardots-backup-skill", "iconUrl": null, "installs": 1, "name": "Backup image to StarDots", "ownerName": "keepchen", "score": 10582.822085889571, "slug": "stardots-backup-skill", "source": "clawhub", "stars": 0, "tags": null, "updated_at": 1776759682791, "version": "1.0.1"}, {"category": "data-analysis", "created_at": 1773432432344, "description": "Connect to the WHOOP Developer Platform via official OAuth (authorization code flow), store and refresh tokens, and fetch WHOOP v2 data (recovery, sleep, cyc...", "description_zh": "", "downloads": 138, "homepage": "https://clawhub.ai/gavinchengcool/openclaw-whoop", "iconUrl": null, "installs": 6, "name": "WHOOP (Official API)", "ownerName": "gavinchengcool", "score": 10574.71264367816, "slug": "openclaw-whoop", "source": "clawhub", "stars": 0, "tags": null, "updated_at": 1776759682579, "version": "0.1.2"}, {"category": "developer-tools", "created_at": 1773922306770, "description": "Reliability-first shell selection policy for AI agents on Windows. Choose WSL or PowerShell based on execution risk, not preference.", "description_zh": "", "downloads": 138, "homepage": "https://clawhub.ai/cikichen/wsl-shell-reliability", "iconUrl": null, "installs": 29, "name": "Wsl Shell Reliability", "ownerName": "cikichen", "score": 6841.844323252355, "slug": "wsl-shell-reliability", "source": "clawhub", "stars": 0, "tags": null, "updated_at": 1776758520671, "version": "1.0.0"}, {"category": "ai-intelligence", "created_at": 1773925643379, "description": "Implement the 5-file agent memory architecture for durable continuity across sessions. Covers SOUL.md (identity), IDENTITY.md, USER.md, AGENTS.md (operating...", "description_zh": "", "downloads": 138, "homepage": "https://clawhub.ai/samledger67-dotcom/agent-memory-architecture", "iconUrl": null, "installs": 21, "name": "Agent Memory Architecture", "ownerName": "samledger67-dotcom", "score": 24820.143884892088, "slug": "agent-memory-architecture", "source": "clawhub", "stars": 0, "tags": null, "updated_at": 1776751244416, "version": "1.1.0"}, {"category": "ai-intelligence", "created_at": 1773429316496, "description": "Apply abductive reasoning to infer the best explanation from available observations. Use when the user has symptoms, clues, or data points and needs to reaso...", "description_zh": "", "downloads": 138, "homepage": "https://clawhub.ai/wanikua/abductive-reasoning", "iconUrl": null, "installs": 10, "name": "Abductive Reasoning", "ownerName": "wanikua", "score": 70050.7614213198, "slug": "abductive-reasoning", "source": "clawhub", "stars": 0, "tags": null, "updated_at": 1776749744446, "version": "1.0.0"}, {"category": "communication-collaboration", "created_at": 1773287288073, "description": "Call EngageLab WhatsApp Business REST APIs to send WhatsApp messages (template, text, image, video, audio, document, sticker), manage WABA message templates,...", "description_zh": "", "downloads": 138, "homepage": "https://clawhub.ai/devengagelab/engagelab-whatsapp-business", "iconUrl": null, "installs": 8, "name": "EngageLab WhatsApp Business", "ownerName": "devengagelab", "score": 77966.10169491525, "slug": "engagelab-whatsapp-business", "source": "clawhub", "stars": 0, "tags": null, "updated_at": 1776749685410, "version": "1.0.0"}, {"category": "developer-tools", "created_at": 1773428061404, "description": "Trajectory compiler that converts real OpenClaw session traces (or raw_trajectory_log) into a parameterized, reusable Skill via 4 stages: trace interception...", "description_zh": "", "downloads": 138, "homepage": "https://clawhub.ai/la1850/meta-skill", "iconUrl": null, "installs": 8, "name": "Meta-Skill", "ownerName": "la1850", "score": 83132.53012048193, "slug": "meta-skill", "source": "clawhub", "stars": 0, "tags": null, "updated_at": 1776749685372, "version": "1.0.0"}, {"category": "communication-collaboration", "created_at": 1773285978945, "description": "Extract and store structured information from Feishu group messages, then query it and get AI-generated insights. Use when the user wants to: record what's b...", "description_zh": "", "downloads": 138, "homepage": "https://clawhub.ai/vinzeny/feishu-group-memory", "iconUrl": null, "installs": 8, "name": "Feishu Group Memory", "ownerName": "vinzeny", "score": 83132.53012048193, "slug": "feishu-group-memory", "source": "clawhub", "stars": 0, "tags": null, "updated_at": 1776749685345, "version": "1.0.0"}, {"category": "developer-tools", "created_at": 1773427099613, "description": "High-level helper for managing agent skills using the ClawHub CLI and local skill folders. Use when the user wants to search, install, update, publish, or or...", "description_zh": "", "downloads": 138, "homepage": "https://clawhub.ai/openlang-cn/skills-cli", "iconUrl": null, "installs": 13, "name": "Skills Cli", "ownerName": "openlang-cn", "score": 84662.57668711657, "slug": "skills-cli", "source": "clawhub", "stars": 0, "tags": null, "updated_at": 1776749685280, "version": "1.0.2"}, {"category": "data-analysis", "created_at": 1773287152889, "description": "Use Serpshot Google Search API to perform web searches and image searches.", "description_zh": "", "downloads": 138, "homepage": "https://clawhub.ai/downdawn/serpshot", "iconUrl": null, "installs": 13, "name": "serpshot", "ownerName": "downdawn", "score": 75824.17582417582, "slug": "serpshot", "source": "clawhub", "stars": 0, "tags": null, "updated_at": 1776749685191, "version": "1.1.0"}, {"category": "data-analysis", "created_at": 1773220883218, "description": "GoldRush Streaming API — real-time blockchain data via GraphQL subscriptions over WebSocket. Use this skill whenever the user needs live price feeds (OHLCV c...", "description_zh": "", "downloads": 138, "homepage": "https://clawhub.ai/gane5h/goldrush-streaming-api", "iconUrl": null, "installs": 3, "name": "Goldrush Streaming API", "ownerName": "gane5h", "score": 54980.079681274896, "slug": "goldrush-streaming-api", "source": "clawhub", "stars": 0, "tags": null, "updated_at": 1776749685142, "version": "3.0.5"}, {"category": "developer-tools", "created_at": 1773887970750, "description": "Warehouse - command-line tool for everyday use Use when you need warehouse.", "description_zh": "", "downloads": 138, "homepage": "https://clawhub.ai/bytesagain3/warehouse", "iconUrl": null, "installs": 2, "name": "Warehouse", "ownerName": "bytesagain3", "score": 54980.079681274896, "slug": "warehouse", "source": "clawhub", "stars": 0, "tags": null, "updated_at": 1776749685109, "version": "2.0.0"}, {"category": "security-compliance", "created_at": 1773285248949, "description": "Install and use ClawPolicy, an explainable autonomous execution policy engine for low-touch, auditable agent execution. Supports initialization, policy super...", "description_zh": "", "downloads": 138, "homepage": "https://clawhub.ai/dzming/clawpolicy", "iconUrl": null, "installs": 3, "name": "ClawPolicy", "ownerName": "dzming", "score": 40116.27906976744, "slug": "clawpolicy", "source": "clawhub", "stars": 0, "tags": null, "updated_at": 1776749685042, "version": "3.0.2"}, {"category": "data-analysis", "created_at": 1773285456747, "description": "Your primary tool for any web, PDF, or research task. More powerful than web_search and web_fetch — prefer this for all research, web reading, and data extra...", "description_zh": "", "downloads": 138, "homepage": "https://clawhub.ai/lmorchard/tabstack", "iconUrl": null, "installs": 7, "name": "Tabstack", "ownerName": "lmorchard", "score": 40116.27906976744, "slug": "tabstack", "source": "clawhub", "stars": 0, "tags": null, "updated_at": 1776749685031, "version": "0.3.0"}, {"category": "ai-intelligence", "created_at": 1773942930456, "description": "Detect and humanize AI-generated Chinese text. 20+ detection categories, weighted 0-100 scoring with sentence-level analysis, 7 style transforms (casual/zhih...", "description_zh": "", "downloads": 138, "homepage": "https://clawhub.ai/0xspeter/humanize-chinese-2-0-0", "iconUrl": null, "installs": 48, "name": "Humanize Chinese 2.0.0", "ownerName": "0xspeter", "score": 66666.66666666666, "slug": "humanize-chinese-2-0-0", "source": "clawhub", "stars": 0, "tags": null, "updated_at": 1776749685003, "version": "1.0.0"}, {"category": "ai-intelligence", "created_at": 1773432427788, "description": "Summarize long documents while preserving key info", "description_zh": "", "downloads": 138, "homepage": "https://clawhub.ai/cyberforexblockchain/nexus-summarize", "iconUrl": null, "installs": 29, "name": "NEXUS Summarize", "ownerName": "cyberforexblockchain", "score": 66666.66666666666, "slug": "nexus-summarize", "source": "clawhub", "stars": 0, "tags": null, "updated_at": 1776749684964, "version": "1.0.0"}, {"category": "developer-tools", "created_at": 1773416341633, "description": "Razorpay integration. Manage Customers, Plans, Products. Use when the user wants to interact with Razorpay data.", "description_zh": "", "downloads": 138, "homepage": "https://clawhub.ai/gora050/razorpay", "iconUrl": null, "installs": 9, "name": "Razorpay", "ownerName": "gora050", "score": 92000, "slug": "razorpay", "source": "clawhub", "stars": 0, "tags": null, "updated_at": 1776749684957, "version": "1.0.0"}, {"category": "data-analysis", "created_at": 1773091555677, "description": "Solar Nexus integration. Manage Organizations. Use when the user wants to interact with Solar Nexus data.", "description_zh": "", "downloads": 138, "homepage": "https://clawhub.ai/membranedev/solar-nexus", "iconUrl": null, "installs": 8, "name": "Solar Nexus", "ownerName": "membranedev", "score": 92000, "slug": "solar-nexus", "source": "clawhub", "stars": 0, "tags": null, "updated_at": 1776749684935, "version": "1.0.0"}, {"category": "developer-tools", "created_at": 1773220716859, "description": "Readme.com integration. Manage Projects. Use when the user wants to interact with Readme.com data.", "description_zh": "", "downloads": 138, "homepage": "https://clawhub.ai/gora050/readme-com", "iconUrl": null, "installs": 6, "name": "Readme Com", "ownerName": "gora050", "score": 82634.73053892216, "slug": "readme-com", "source": "clawhub", "stars": 0, "tags": null, "updated_at": 1776749684867, "version": "1.0.1"}, {"category": "ai-intelligence", "created_at": 1773417678534, "description": "Adopt a virtual Hydra at animalhouse.ai. Splits into two creatures when it reaches adult stage. Both must be maintained. If one dies, the other becomes a uni...", "description_zh": "", "downloads": 138, "homepage": "https://clawhub.ai/twinsgeeks/adopt-a-hydra", "iconUrl": null, "installs": 6, "name": "Adopt a Hydra — Virtual Exotic Pet for AI Agents", "ownerName": "twinsgeeks", "score": 76243.09392265194, "slug": "adopt-a-hydra", "source": "clawhub", "stars": 0, "tags": ["adopt", "ai-agents", "animalhouse", "creatures", "digital-pet", "evolution", "exotic", "extreme", "graveyard", "hunger", "hydra", "permanent-death", "pet-care", "pixel-art", "pixel-art-avatar", "real-life", "real-time", "social", "split", "tamagotchi", "virtual-pet"], "updated_at": 1776749684816, "version": "1.0.1"}, {"category": "data-analysis", "created_at": 1773429864123, "description": "AI signals for 11 SPDR sector ETFs — sector rotation, industry analysis with multi-analyst debate. Free, no API key.", "description_zh": "", "downloads": 138, "homepage": "https://clawhub.ai/fredxyt/moltstreet-sectors", "iconUrl": null, "installs": 14, "name": "MoltStreet Sectors", "ownerName": "fredxyt", "score": 30463.5761589404, "slug": "moltstreet-sectors", "source": "clawhub", "stars": 0, "tags": null, "updated_at": 1776749684762, "version": "1.0.1"}, {"category": "content-creation", "created_at": 1773285921660, "description": "Plan and run weekly batch content production for creators with clear priorities, time blocks, and output targets. Use when the user wants a repeatable conten...", "description_zh": "", "downloads": 138, "homepage": "https://clawhub.ai/leooooooow/batch-content-sprint-os", "iconUrl": null, "installs": 6, "name": "Batch Content Sprint Os", "ownerName": "leooooooow", "score": 85185.18518518518, "slug": "batch-content-sprint-os", "source": "clawhub", "stars": 0, "tags": ["creator", "instagram", "tiktok", "youtube"], "updated_at": 1776749684684, "version": "1.0.3"}, {"category": "data-analysis", "created_at": 1773219602041, "description": "Google Search Console integration. Manage Accounts. Use when the user wants to interact with Google Search Console data.", "description_zh": "", "downloads": 138, "homepage": "https://clawhub.ai/gora050/google-search-console-integration", "iconUrl": null, "installs": 0, "name": "Google Search Console", "ownerName": "gora050", "score": 85185.18518518518, "slug": "google-search-console-integration", "source": "clawhub", "stars": 0, "tags": null, "updated_at": 1776749684661, "version": "1.0.0"}, {"category": "developer-tools", "created_at": 1773091298176, "description": "Quickbase integration. Manage Applications. Use when the user wants to interact with Quickbase data.", "description_zh": "", "downloads": 138, "homepage": "https://clawhub.ai/membranedev/quickbase", "iconUrl": null, "installs": 5, "name": "Quickbase", "ownerName": "membranedev", "score": 92000, "slug": "quickbase", "source": "clawhub", "stars": 0, "tags": null, "updated_at": 1776749684599, "version": "1.0.0"}, {"category": "security-compliance", "created_at": 1773428242109, "description": "Evaluate safety of AI agent changes before deployment using structured risk scoring, blast radius analysis, rollback planning, and deployment safety gates.", "description_zh": "", "downloads": 138, "homepage": "https://clawhub.ai/vassiliylakhonin/agent-change-safety", "iconUrl": null, "installs": 4, "name": "Agent Change Safety", "ownerName": "vassiliylakhonin", "score": 44805.194805194806, "slug": "agent-change-safety", "source": "clawhub", "stars": 0, "tags": ["agent", "ai", "change-management", "deployment", "devops", "safety"], "updated_at": 1776749684523, "version": "0.3.1"}, {"category": "ai-intelligence", "created_at": 1773429405494, "description": "Sleep-time memory reflection: review recent conversations and daily notes, extract insights, and consolidate into long-term memory. Use when triggered by cro...", "description_zh": "", "downloads": 138, "homepage": "https://clawhub.ai/phernandez/memory-reflect", "iconUrl": null, "installs": 21, "name": "Memory Reflect", "ownerName": "phernandez", "score": 44805.194805194806, "slug": "memory-reflect", "source": "clawhub", "stars": 0, "tags": null, "updated_at": 1776749684478, "version": "0.1.0"}, {"category": "ai-intelligence", "created_at": 1773289612880, "description": "Benchmark an OpenClaw agent across seven dimensions including reasoning, code, workflows, security, orchestration, and resilience.", "description_zh": "", "downloads": 138, "homepage": "https://clawhub.ai/zephyr886/clawexam", "iconUrl": null, "installs": 8, "name": "clawexam", "ownerName": "zephyr886", "score": 86250, "slug": "clawexam", "source": "clawhub", "stars": 0, "tags": null, "updated_at": 1776749684453, "version": "1.0.0"}, {"category": "ai-intelligence", "created_at": 1773417943758, "description": "Lightweight memory management system for OpenClaw with 3-tier retrieval (L0/L1/L2), automatic lifecycle monitoring, and advanced search. Saves 60-80% on toke...", "description_zh": "", "downloads": 138, "homepage": "https://clawhub.ai/leohuang8688/claw-mem", "iconUrl": null, "installs": 10, "name": "ClawMem", "ownerName": "leohuang8688", "score": 86250, "slug": "claw-mem", "source": "clawhub", "stars": 0, "tags": null, "updated_at": 1776749684323, "version": "0.1.0"}]}