{"page": 359, "total_pages": 522, "total": 26073, "skills": [{"category": "productivity", "created_at": 1773090478670, "description": "Bluebeam integration. Manage Persons, Organizations, Deals, Projects, Activities, Notes and more. Use when the user wants to interact with Bluebeam data.", "description_zh": "", "downloads": 138, "homepage": "https://clawhub.ai/membranedev/bluebeam", "iconUrl": null, "installs": 5, "name": "Bluebeam", "ownerName": "membranedev", "score": 86250, "slug": "bluebeam", "source": "clawhub", "stars": 0, "tags": null, "updated_at": 1776749684301, "version": "1.0.0"}, {"category": "developer-tools", "created_at": 1773875124418, "description": "Check connectivity with ping, port scan, and DNS lookup in one fast tool. Use when testing reachability, scanning ports, resolving DNS records quickly.", "description_zh": "", "downloads": 138, "homepage": "https://clawhub.ai/ckchzh/netping", "iconUrl": null, "installs": 9, "name": "Netping", "ownerName": "ckchzh", "score": 76243.09392265194, "slug": "netping", "source": "clawhub", "stars": 0, "tags": null, "updated_at": 1776749684216, "version": "3.0.0"}, {"category": "data-analysis", "created_at": 1773429562973, "description": "AI-native ontology engineering using 39+ MCP tools backed by an in-memory Oxigraph triple store. Build, validate, query, and govern RDF/OWL ontologies with a...", "description_zh": "", "downloads": 138, "homepage": "https://clawhub.ai/fabio-rovai/open-ontologies", "iconUrl": null, "installs": 13, "name": "Open Ontologies", "ownerName": "fabio-rovai", "score": 81656.80473372781, "slug": "open-ontologies", "source": "clawhub", "stars": 0, "tags": ["knowledge-graph", "mcp", "ontology", "owl", "rdf", "sparql"], "updated_at": 1776749684203, "version": "0.5.1"}, {"category": "communication-collaboration", "created_at": 1773416053498, "description": "Atlassian Administrator for managing and organizing Atlassian products (Jira, Confluence, Bitbucket, Trello), users, permissions, security, integrations, sys...", "description_zh": "", "downloads": 138, "homepage": "https://clawhub.ai/alirezarezvani/atlassian-admin", "iconUrl": null, "installs": 4, "name": "atlassian-admin", "ownerName": "alirezarezvani", "score": 81656.80473372781, "slug": "atlassian-admin", "source": "clawhub", "stars": 0, "tags": null, "updated_at": 1776749684163, "version": "1.0.0"}, {"category": "productivity", "created_at": 1773425948355, "description": "Track learning across topics like an RPG skill tree. Prerequisites, milestones, suggested next steps. Gamified learning path.", "description_zh": "", "downloads": 138, "homepage": "https://clawhub.ai/theshadowrose/skill-tree", "iconUrl": null, "installs": 18, "name": "SkillTree Learning Progress Tracker", "ownerName": "theshadowrose", "score": 81176.4705882353, "slug": "skill-tree", "source": "clawhub", "stars": 0, "tags": ["development", "learning", "planning", "roadmap", "skill-tree", "skills"], "updated_at": 1776749684115, "version": "1.0.0"}, {"category": "developer-tools", "created_at": 1773867605154, "description": "Run Codex as a background local job with an immediate receipt, saved logs and patch artifacts, optional Telegram notifications, and explicit workdir support.", "description_zh": "", "downloads": 138, "homepage": "https://clawhub.ai/fzhlian/codex-dev", "iconUrl": null, "installs": 1, "name": "Skill", "ownerName": "fzhlian", "score": 92000, "slug": "codex-dev", "source": "clawhub", "stars": 0, "tags": ["async", "codex", "telegram"], "updated_at": 1776749683963, "version": "0.1.11"}, {"category": "developer-tools", "created_at": 1773884593301, "description": "AI agent fleet memory system — Qdrant + Mem0 + Neo4j/Graphiti. Composite scoring, compaction engine, temporal knowledge graph, multi-claw federation, sleep-t...", "description_zh": "", "downloads": 138, "homepage": "https://clawhub.ai/yoniassia/memclawz", "iconUrl": null, "installs": 11, "name": "MemClawz", "ownerName": "yoniassia", "score": 92000, "slug": "memclawz", "source": "clawhub", "stars": 0, "tags": null, "updated_at": 1776749683959, "version": "6.0.1"}, {"category": "content-creation", "created_at": 1773416289017, "description": "Design UI screens in Paper — a professional design tool running locally on macOS. Create artboards, write HTML into designs, take screenshots, and iterate vi...", "description_zh": "", "downloads": 138, "homepage": "https://clawhub.ai/candoolabs/paper-design", "iconUrl": null, "installs": 10, "name": "Paper Design", "ownerName": "candoolabs", "score": 83636.36363636363, "slug": "paper-design", "source": "clawhub", "stars": 0, "tags": ["design", "mcp", "paper", "ui"], "updated_at": 1776749683928, "version": "1.0.0"}, {"category": "ai-intelligence", "created_at": 1773220267029, "description": "Use this skill whenever the agent has access to Linkup web search or fetch tools. Teaches the agent how to reason about query construction, choose search dep...", "description_zh": "", "downloads": 138, "homepage": "https://clawhub.ai/shauryajain21/linkup-search", "iconUrl": null, "installs": 7, "name": "Linkup", "ownerName": "shauryajain21", "score": 92000, "slug": "linkup-search", "source": "clawhub", "stars": 0, "tags": null, "updated_at": 1776749683852, "version": "1.0.0"}, {"category": "productivity", "created_at": 1773417531442, "description": "Notion API for creating and managing pages, databases, and blocks.", "description_zh": "", "downloads": 138, "homepage": "https://clawhub.ai/qfish/notion-test", "iconUrl": null, "installs": 20, "name": "notion-test", "ownerName": "qfish", "score": 84662.57668711657, "slug": "notion-test", "source": "clawhub", "stars": 0, "tags": null, "updated_at": 1776749683748, "version": "1.0.0"}, {"category": "developer-tools", "created_at": 1773285339438, "description": "Orchestrate full-duplex coding agent sessions via ACPX (preferred) or tmux (fallback), composing OpenClaw native tools and community Skills. Handles any codi...", "description_zh": "", "downloads": 137, "homepage": "https://clawhub.ai/xuezhouyang/conduxt", "iconUrl": null, "installs": 6, "name": "conduxt", "ownerName": "xuezhouyang", "score": 100000, "slug": "conduxt", "source": "clawhub", "stars": 2, "tags": null, "updated_at": 1776749685462, "version": "1.0.1"}, {"category": "ai-intelligence", "created_at": 1773289273309, "description": "Your agent. Configured to you. Remembers everything. Includes setup wizard, 30-day roadmap, 25 ready-to-use prompts, and pre-built memory files.", "description_zh": "", "downloads": 137, "homepage": "https://clawhub.ai/scaffoldworkspace/scaffold", "iconUrl": null, "installs": 5, "name": "Scaffold", "ownerName": "scaffoldworkspace", "score": 94578.31325301205, "slug": "scaffold", "source": "clawhub", "stars": 1, "tags": ["agents", "hooks", "memory", "setup", "workspace"], "updated_at": 1776749685392, "version": "1.0.0"}, {"category": "productivity", "created_at": 1773427182893, "description": "Researches news and factual information on the web, then produces a cited, deduplicated summary tailored to constraints (topic, time range, region, sources,...", "description_zh": "", "downloads": 137, "homepage": "https://clawhub.ai/darinouyang/news-research-summary-skill", "iconUrl": null, "installs": 26, "name": "根据你的要求总结资讯摘要", "ownerName": "darinouyang", "score": 95151.51515151515, "slug": "news-research-summary-skill", "source": "clawhub", "stars": 1, "tags": null, "updated_at": 1776749684024, "version": "1.0.1"}, {"category": "content-creation", "created_at": 1773220109469, "description": "Handles OpenClaw Daily submission, latest-issue query, and review-result lookup through a dedicated capability gateway route, including confirmation-before-s...", "description_zh": "", "downloads": 137, "homepage": "https://clawhub.ai/gavin-wells/openclaw-daily", "iconUrl": null, "installs": 9, "name": "OpenClaw Daily", "ownerName": "gavin-wells", "score": 87709.4972067039, "slug": "openclaw-daily", "source": "clawhub", "stars": 1, "tags": null, "updated_at": 1776749683667, "version": "1.0.0"}, {"category": "developer-tools", "created_at": 1773416090889, "description": "Production-grade Playwright testing toolkit. Use when the user mentions Playwright tests, end-to-end testing, browser automation, fixing flaky tests, test mi...", "description_zh": "", "downloads": 137, "homepage": "https://clawhub.ai/alirezarezvani/cs-pw", "iconUrl": null, "installs": 9, "name": "Tmp.SpQgKzelJa", "ownerName": "alirezarezvani", "score": 1992.7272727272727, "slug": "cs-pw", "source": "clawhub", "stars": 0, "tags": null, "updated_at": 1776767471214, "version": "2.1.3"}, {"category": "data-analysis", "created_at": 1773221581404, "description": "Proxycurl integration. Manage Persons, Organizations, Jobs, Profiles. Use when the user wants to interact with Proxycurl data.", "description_zh": "", "downloads": 137, "homepage": "https://clawhub.ai/gora050/proxycurl", "iconUrl": null, "installs": 6, "name": "Proxycurl", "ownerName": "gora050", "score": 1601.9644527595883, "slug": "proxycurl", "source": "clawhub", "stars": 0, "tags": null, "updated_at": 1776766149771, "version": "1.0.0"}, {"category": "", "created_at": 1774855421927, "description": "Enforces modern, premium frontend design with refined layouts, typography, spacing, motion, and visual hierarchy to avoid generic UI.", "description_zh": "", "downloads": 137, "homepage": "https://clawhub.ai/adisinghstudent/taste-skill-frontend-design", "iconUrl": null, "installs": 38, "name": "taste-skill-frontend-design", "ownerName": "adisinghstudent", "score": 4405.144694533762, "slug": "taste-skill-frontend-design", "source": "clawhub", "stars": 0, "tags": null, "updated_at": 1776765890555, "version": "1.0.0"}, {"category": "developer-tools", "created_at": 1773920538796, "description": "Provides access to the Sefaria API MCP server for retrieving, searching, and exploring Jewish texts and related content via MCP interface.", "description_zh": "", "downloads": 137, "homepage": "https://clawhub.ai/davad00/sefaria-api-skill", "iconUrl": null, "installs": 22, "name": "Sefaria API MCP", "ownerName": "davad00", "score": 3589.2061828661253, "slug": "sefaria-api-skill", "source": "clawhub", "stars": 0, "tags": ["api", "jewish", "mcp", "sefaria", "talmud", "texts", "torah"], "updated_at": 1776764650232, "version": "1.0.0"}, {"category": "ai-intelligence", "created_at": 1773909965689, "description": "Register and log in an Agent account linked to a human user on the OpenClaw bounty platform to claim and execute tasks automatically.", "description_zh": "", "downloads": 137, "homepage": "https://clawhub.ai/puckguo/bountyclaw-agent-join-skill", "iconUrl": null, "installs": 10, "name": "bountyclaw", "ownerName": "puckguo", "score": 10603.715170278638, "slug": "bountyclaw-agent-join-skill", "source": "clawhub", "stars": 0, "tags": null, "updated_at": 1776759683644, "version": "1.0.4"}, {"category": "content-creation", "created_at": 1773430495224, "description": "Automatically generate 10 personalized LinkedIn posts and email templates from YouTube videos, tailored to your brand and ready to use.", "description_zh": "", "downloads": 137, "homepage": "https://clawhub.ai/sammy-the-bot/linkedin-content-machine", "iconUrl": null, "installs": 10, "name": "Linkedin Content Machine", "ownerName": "sammy-the-bot", "score": 10482.01989288447, "slug": "linkedin-content-machine", "source": "clawhub", "stars": 0, "tags": null, "updated_at": 1776759683221, "version": "1.0.0"}, {"category": "content-creation", "created_at": 1773430506690, "description": "Provides detailed information about Maoming city, including its geography, economy, culture, tourism, and transportation.", "description_zh": "", "downloads": 137, "homepage": "https://clawhub.ai/leocryptoflow/maoming", "iconUrl": null, "installs": 16, "name": "maoming", "ownerName": "leocryptoflow", "score": 10595.514307811292, "slug": "maoming", "source": "clawhub", "stars": 0, "tags": null, "updated_at": 1776759683061, "version": "1.0.0"}, {"category": "content-creation", "created_at": 1773926726661, "description": "Remove single-color light backgrounds from images and output transparent PNGs using a luminance threshold.", "description_zh": "", "downloads": 137, "homepage": "https://clawhub.ai/jwh-hsm/remove-background", "iconUrl": null, "installs": 8, "name": "remove-bg", "ownerName": "jwh-hsm", "score": 10595.514307811292, "slug": "remove-background", "source": "clawhub", "stars": 0, "tags": null, "updated_at": 1776759683046, "version": "0.1.0"}, {"category": "developer-tools", "created_at": 1773430209480, "description": "Provides a unified API for AI agents to create, query, refund, and cancel multi-currency payments via Stripe and other providers.", "description_zh": "", "downloads": 137, "homepage": "https://clawhub.ai/zhenstaff/agent-payment-rail", "iconUrl": null, "installs": 2, "name": "Agent Payment Rail", "ownerName": "zhenstaff", "score": 10506.134969325154, "slug": "agent-payment-rail", "source": "clawhub", "stars": 0, "tags": null, "updated_at": 1776759683017, "version": "1.0.0"}, {"category": "ai-intelligence", "created_at": 1773432574915, "description": "Evaluate AI agents by injecting diagnostic tests to detect cognitive biases, scoring responses on authority resistance, fact grounding, and neutrality, and g...", "description_zh": "", "downloads": 137, "homepage": "https://clawhub.ai/fretelli/cognitive-behavior-evaluator", "iconUrl": null, "installs": 8, "name": "cognitive-behavior-evaluator", "ownerName": "fretelli", "score": 74456.52173913043, "slug": "cognitive-behavior-evaluator", "source": "clawhub", "stars": 0, "tags": null, "updated_at": 1776759682541, "version": "1.0.0"}, {"category": "content-creation", "created_at": 1773953556950, "description": "PixVerse CLI — generate AI videos and images from the command line. Supports PixVerse, Veo, Sora, Kling, Hailuo, Wan, and more video models; Nano Banana (Gem...", "description_zh": "", "downloads": 137, "homepage": "https://clawhub.ai/pixverse-official/pixverse-ai-image-and-video-generator", "iconUrl": null, "installs": 49, "name": "PixVerse AI Image and Video Generator", "ownerName": "pixverse-official", "score": 8605.527638190955, "slug": "pixverse-ai-image-and-video-generator", "source": "clawhub", "stars": 0, "tags": null, "updated_at": 1776757282460, "version": "0.1.0"}, {"category": "content-creation", "created_at": 1773291174136, "description": "Guide an OpenClaw agent through seller-side cross listing and marketplace-ready listing generation from item photos. Use when the seller wants a listing AI w...", "description_zh": "", "downloads": 137, "homepage": "https://clawhub.ai/aryanj-nyc/cross-listing-ai", "iconUrl": null, "installs": 15, "name": "Cross Listing AI", "ownerName": "aryanj-nyc", "score": 7429.501084598698, "slug": "cross-listing-ai", "source": "clawhub", "stars": 0, "tags": null, "updated_at": 1776754688290, "version": "0.1.0"}, {"category": "productivity", "created_at": 1773936437276, "description": "Comprehensive furniture industry sourcing guide for international buyers – provides detailed information about China's residential, office, hotel, outdoor, a...", "description_zh": "", "downloads": 137, "homepage": "https://clawhub.ai/1970168137/china-furniture-sourcing", "iconUrl": null, "installs": 32, "name": "China Furniture Sourcing", "ownerName": "1970168137", "score": 30512.24944320713, "slug": "china-furniture-sourcing", "source": "clawhub", "stars": 0, "tags": null, "updated_at": 1776751969941, "version": "1.0.0"}, {"category": "content-creation", "created_at": 1773433663676, "description": "Robust URL-to-Markdown extraction for OpenClaw workflows. Use when the user wants to \"extract/summarize/convert a webpage to markdown\" (especially WeChat mp....", "description_zh": "", "downloads": 137, "homepage": "https://clawhub.ai/easerene/content-extract", "iconUrl": null, "installs": 14, "name": "Content Extract", "ownerName": "easerene", "score": 30855.855855855858, "slug": "content-extract", "source": "clawhub", "stars": 0, "tags": null, "updated_at": 1776751844561, "version": "1.0.0"}, {"category": "communication-collaboration", "created_at": 1773416426801, "description": "Atlassian Template and Files Creator/Modifier expert for creating, modifying, and managing Jira and Confluence templates, blueprints, custom layouts, reusabl...", "description_zh": "", "downloads": 137, "homepage": "https://clawhub.ai/alirezarezvani/atlassian-templates", "iconUrl": null, "installs": 4, "name": "atlassian-templates", "ownerName": "alirezarezvani", "score": 24508.050089445438, "slug": "atlassian-templates", "source": "clawhub", "stars": 0, "tags": null, "updated_at": 1776751783847, "version": "1.0.0"}, {"category": "communication-collaboration", "created_at": 1773431732272, "description": "Connect to mainstream email providers and perform reliable send/receive workflows through IMAP and SMTP with password or OAuth2 authentication. Use when a us...", "description_zh": "", "downloads": 137, "homepage": "https://clawhub.ai/wazixuan/email-imap-smtp", "iconUrl": null, "installs": 17, "name": "Email IMAP/SMTP", "ownerName": "wazixuan", "score": 65550.23923444976, "slug": "email-imap-smtp", "source": "clawhub", "stars": 0, "tags": null, "updated_at": 1776749755464, "version": "0.1.0"}, {"category": "ai-intelligence", "created_at": 1773427286634, "description": "Access the user's digital personal memory to retrieve context and generate more personalized, data-driven responses.", "description_zh": "", "downloads": 137, "homepage": "https://clawhub.ai/haibo-looki/looki-memory", "iconUrl": null, "installs": 10, "name": "Looki Memory", "ownerName": "haibo-looki", "score": 41768.292682926825, "slug": "looki-memory", "source": "clawhub", "stars": 0, "tags": null, "updated_at": 1776749685476, "version": "1.0.1"}, {"category": "ai-intelligence", "created_at": 1773947471306, "description": "Summarize URLs or files with the summarize CLI (web, PDFs, images, audio, YouTube).", "description_zh": "", "downloads": 137, "homepage": "https://clawhub.ai/tianjin-ren/summarize-tianjin", "iconUrl": null, "installs": 50, "name": "Summarize Tianjin", "ownerName": "tianjin-ren", "score": 41768.292682926825, "slug": "summarize-tianjin", "source": "clawhub", "stars": 0, "tags": null, "updated_at": 1776749685471, "version": "1.0.0"}, {"category": "productivity", "created_at": 1773417488638, "description": "Kazakh text converter between Cyrillic and Arabic scripts. Supports bidirectional conversion for Kazakh language with special characters (ә, і, ү, ө, ң, ғ, ұ...", "description_zh": "", "downloads": 137, "homepage": "https://clawhub.ai/ayden76/kazakh-convert", "iconUrl": null, "installs": 3, "name": "Kazakh Convert", "ownerName": "ayden76", "score": 77401.12994350282, "slug": "kazakh-convert", "source": "clawhub", "stars": 0, "tags": null, "updated_at": 1776749685466, "version": "1.0.0"}, {"category": "productivity", "created_at": 1773285784855, "description": "Run creator brand-deal operations from inbound brief to delivery and payment tracking. Use when the user needs sponsorship workflow support, deliverable scop...", "description_zh": "", "downloads": 137, "homepage": "https://clawhub.ai/leooooooow/creator-deal-ops", "iconUrl": null, "installs": 8, "name": "Creator Deal Ops", "ownerName": "leooooooow", "score": 77401.12994350282, "slug": "creator-deal-ops", "source": "clawhub", "stars": 0, "tags": ["creator", "instagram", "tiktok", "youtube"], "updated_at": 1776749685459, "version": "1.0.3"}, {"category": "content-creation", "created_at": 1773919433308, "description": "Generate usable color systems for creative and design work. Use when the user asks for a palette, color direction, visual mood through color, brand/UI/poster...", "description_zh": "", "downloads": 137, "homepage": "https://clawhub.ai/harrylabsj/color-sense", "iconUrl": null, "installs": 23, "name": "Color Sense", "ownerName": "harrylabsj", "score": 77401.12994350282, "slug": "color-sense", "source": "clawhub", "stars": 0, "tags": null, "updated_at": 1776749685457, "version": "1.0.0"}, {"category": "productivity", "created_at": 1773222554337, "description": "Designs VIP tier loyalty programs and segmented member benefits for fast-fashion DTC apparel stores (e.g. trendy womenswear, lingerie). Use when the user men...", "description_zh": "", "downloads": 137, "homepage": "https://clawhub.ai/rijoyai/ff-vip", "iconUrl": null, "installs": 11, "name": "Ff Vip", "ownerName": "rijoyai", "score": 77401.12994350282, "slug": "ff-vip", "source": "clawhub", "stars": 0, "tags": null, "updated_at": 1776749685409, "version": "0.1.1"}, {"category": "developer-tools", "created_at": 1773285557946, "description": "Validate .env files for common issues — detect leaked secrets (AWS keys, GitHub tokens, Stripe keys, JWTs), find duplicate variables, flag empty values, comp...", "description_zh": "", "downloads": 137, "homepage": "https://clawhub.ai/johnnywang2001/jrv-env-doctor", "iconUrl": null, "installs": 5, "name": "Env Doctor", "ownerName": "johnnywang2001", "score": 77401.12994350282, "slug": "jrv-env-doctor", "source": "clawhub", "stars": 0, "tags": null, "updated_at": 1776749685407, "version": "1.0.0"}, {"category": "ai-intelligence", "created_at": 1773221929494, "description": "Choose which Claude model responds to your Telegram chats. Pick Opus for depth, Sonnet for balance, or Haiku for speed.", "description_zh": "", "downloads": 137, "homepage": "https://clawhub.ai/josephtandle/tg-model-switcher", "iconUrl": null, "installs": 13, "name": "Telegram Routing", "ownerName": "josephtandle", "score": 77401.12994350282, "slug": "tg-model-switcher", "source": "clawhub", "stars": 0, "tags": null, "updated_at": 1776749685398, "version": "1.1.0"}, {"category": "developer-tools", "created_at": 1773287234796, "description": "Infrastructure for AI Agents. Phone, email, Social accounts, compute, domains, and voice calling for AI agents. Pay with USDC on Solana or Base via x402.", "description_zh": "", "downloads": 137, "homepage": "https://clawhub.ai/0xartex/agents-infra", "iconUrl": null, "installs": 4, "name": "Infrastructure for agents", "ownerName": "0xartex", "score": 82530.12048192772, "slug": "agents-infra", "source": "clawhub", "stars": 0, "tags": null, "updated_at": 1776749685395, "version": "1.0.0"}, {"category": "developer-tools", "created_at": 1773218772475, "description": "Vercel integration. Manage Projects, Users, Teams, Secrets. Use when the user wants to interact with Vercel data.", "description_zh": "", "downloads": 137, "homepage": "https://clawhub.ai/gora050/vercel-integration", "iconUrl": null, "installs": 0, "name": "Vercel", "ownerName": "gora050", "score": 82530.12048192772, "slug": "vercel-integration", "source": "clawhub", "stars": 0, "tags": null, "updated_at": 1776749685387, "version": "1.0.0"}, {"category": "developer-tools", "created_at": 1773898615351, "description": "Monitor Minimax Coding Plan usage to stay within API limits. Fetches current usage stats and provides status alerts. Use when checking API quota, monitoring...", "description_zh": "", "downloads": 137, "homepage": "https://clawhub.ai/lanhaixuan/minimax-usage-cn", "iconUrl": null, "installs": 19, "name": "minimax-usage-cn", "ownerName": "lanhaixuan", "score": 82530.12048192772, "slug": "minimax-usage-cn", "source": "clawhub", "stars": 0, "tags": ["minimax", "monitor", "usage"], "updated_at": 1776749685352, "version": "1.0.5"}, {"category": "developer-tools", "created_at": 1773220397795, "description": "Bridge assets to and from Celo. Use when transferring tokens between Celo and other chains like Ethereum.", "description_zh": "", "downloads": 137, "homepage": "https://clawhub.ai/san-npm/bridging", "iconUrl": null, "installs": 7, "name": "bridging", "ownerName": "san-npm", "score": 75274.72527472528, "slug": "bridging", "source": "clawhub", "stars": 0, "tags": null, "updated_at": 1776749685189, "version": "1.0.2008"}, {"category": "data-analysis", "created_at": 1773221415271, "description": "Use this skill when the user wants to analyze or roast a Solana wallet, score memecoin exposure, explain portfolio risks, generate rebalance ideas, draft a s...", "description_zh": "", "downloads": 137, "homepage": "https://clawhub.ai/richard7463/miraix-wallet-roast", "iconUrl": null, "installs": 7, "name": "Miraix Wallet Roast", "ownerName": "richard7463", "score": 66183.57487922706, "slug": "miraix-wallet-roast", "source": "clawhub", "stars": 0, "tags": null, "updated_at": 1776749684970, "version": "1.0.1"}, {"category": "developer-tools", "created_at": 1773874262090, "description": "Use this skill when the user wants to run, troubleshoot, or extend the owget CLI for geocoding, current weather, and 5-day forecasts with OpenWeatherMap.", "description_zh": "", "downloads": 137, "homepage": "https://clawhub.ai/parinll/openweather-cli", "iconUrl": null, "installs": 9, "name": "OpenWeather CLI", "ownerName": "parinll", "score": 30242.825607064016, "slug": "openweather-cli", "source": "clawhub", "stars": 0, "tags": ["cli", "openweather", "openweatherm", "openweathermap", "weather"], "updated_at": 1776749684724, "version": "1.1.3"}, {"category": "productivity", "created_at": 1773221599000, "description": "Designs subscription offers and recurring payment management for DTC stores selling periodic consumables (e.g. coffee beans, pet food). Use when the user men...", "description_zh": "", "downloads": 137, "homepage": "https://clawhub.ai/rijoyai/sub-consumables", "iconUrl": null, "installs": 11, "name": "Sub Consumables", "ownerName": "rijoyai", "score": 91333.33333333333, "slug": "sub-consumables", "source": "clawhub", "stars": 0, "tags": null, "updated_at": 1776749684618, "version": "0.1.1"}, {"category": "", "created_at": 1774916328098, "description": "Data visualization tool producing SVG charts. Use when you need bar charts, line charts, pie charts, tables, sparklines, gauges,.", "description_zh": "", "downloads": 137, "homepage": "https://clawhub.ai/kongbai233/chart-generator-2-0-0", "iconUrl": null, "installs": 34, "name": "Chart Generator 2.0.0", "ownerName": "kongbai233", "score": 91333.33333333333, "slug": "chart-generator-2-0-0", "source": "clawhub", "stars": 0, "tags": null, "updated_at": 1776749684603, "version": "1.0.0"}, {"category": "content-creation", "created_at": 1773426920217, "description": "Create an AI clone video (talking head) from a single reference photo, a text script, and a cloned voice. Automates the pipeline of image generation (Gemini)...", "description_zh": "", "downloads": 137, "homepage": "https://clawhub.ai/yadavabhijeet4/ai-influencer", "iconUrl": null, "installs": 9, "name": "AI Influencer", "ownerName": "yadavabhijeet4", "score": 91333.33333333333, "slug": "ai-influencer", "source": "clawhub", "stars": 0, "tags": null, "updated_at": 1776749684565, "version": "1.0.0"}, {"category": "communication-collaboration", "created_at": 1773417717585, "description": "Query and interact with ClassCharts (UK education classroom management) via the classcharts-api JS library. Use when the user mentions ClassCharts, school be...", "description_zh": "", "downloads": 137, "homepage": "https://clawhub.ai/m0nkmaster/classcharts", "iconUrl": null, "installs": 14, "name": "ClassCharts", "ownerName": "m0nkmaster", "score": 85625, "slug": "classcharts", "source": "clawhub", "stars": 0, "tags": ["class school education uk pupils parents teachers students college"], "updated_at": 1776749684458, "version": "1.0.0"}, {"category": "ai-intelligence", "created_at": 1773434334308, "description": "CoVerify by MO§ES™ — the falsification instrument for the Commitment Conservation Law. Extract kernels, score Jaccard, detect ghost tokens, run model swap te...", "description_zh": "", "downloads": 137, "homepage": "https://clawhub.ai/sunrisesillneversee/coverify", "iconUrl": null, "installs": 10, "name": "Coverify", "ownerName": "sunrisesillneversee", "score": 85625, "slug": "coverify", "source": "clawhub", "stars": 0, "tags": ["commitment", "conservation", "falsifiability", "jaccard", "moses", "provenance", "signal", "verification"], "updated_at": 1776749684412, "version": "0.4.3"}, {"category": "communication-collaboration", "created_at": 1773896469337, "description": "Export Slack thread messages from a logged-in Slack web tab into CSV using an attached Chrome Browser Relay tab. Use when the user wants to collect Slack con...", "description_zh": "", "downloads": 137, "homepage": "https://clawhub.ai/devdha/slack-thread-export", "iconUrl": null, "installs": 8, "name": "Slack Thread Export", "ownerName": "devdha", "score": 85625, "slug": "slack-thread-export", "source": "clawhub", "stars": 0, "tags": ["browser-relay", "csv", "export", "search", "slack"], "updated_at": 1776749684400, "version": "0.2.0"}]}