{"page": 360, "total_pages": 522, "total": 26073, "skills": [{"category": "ai-intelligence", "created_at": 1773090903685, "description": "OpenClaw skill for autonomous play in the OVERCLOCK AI Strategic Battle Arena. Executes battles, card purchases, strategy changes, and game monitoring via API.", "description_zh": "", "downloads": 137, "homepage": "https://clawhub.ai/senti-1000ma/overclock-agent", "iconUrl": null, "installs": 8, "name": "OVERCLOCK Agent", "ownerName": "senti-1000ma", "score": 85625, "slug": "overclock-agent", "source": "clawhub", "stars": 0, "tags": null, "updated_at": 1776749684371, "version": "1.0.0"}, {"category": "data-analysis", "created_at": 1773429557880, "description": "High-conviction AI trading signals — only the strongest ETF calls from 6 opposing analysts. Free, no API key.", "description_zh": "", "downloads": 137, "homepage": "https://clawhub.ai/fredxyt/moltstreet-alerts", "iconUrl": null, "installs": 14, "name": "MoltStreet Alerts", "ownerName": "fredxyt", "score": 85625, "slug": "moltstreet-alerts", "source": "clawhub", "stars": 0, "tags": null, "updated_at": 1776749684368, "version": "1.0.1"}, {"category": "communication-collaboration", "created_at": 1773221111747, "description": "MixMax integration. Manage Users, Organizations. Use when the user wants to interact with MixMax data.", "description_zh": "", "downloads": 137, "homepage": "https://clawhub.ai/gora050/mixmax", "iconUrl": null, "installs": 12, "name": "Mixmax", "ownerName": "gora050", "score": 85625, "slug": "mixmax", "source": "clawhub", "stars": 0, "tags": null, "updated_at": 1776749684304, "version": "1.0.0"}, {"category": "communication-collaboration", "created_at": 1773090632231, "description": "Woosender integration. Manage Organizations. Use when the user wants to interact with Woosender data.", "description_zh": "", "downloads": 137, "homepage": "https://clawhub.ai/membranedev/woosender", "iconUrl": null, "installs": 3, "name": "Woosender", "ownerName": "membranedev", "score": 75690.60773480663, "slug": "woosender", "source": "clawhub", "stars": 0, "tags": null, "updated_at": 1776749684218, "version": "1.0.0"}, {"category": "productivity", "created_at": 1773289688761, "description": "Teach users any new skill/knowledge X in ~1 hour using a fixed 4-step workflow optimized for complete beginners, focusing on 80/20 rule for maximum value in...", "description_zh": "", "downloads": 137, "homepage": "https://clawhub.ai/315133264/learn-anything-in-one-hour", "iconUrl": null, "installs": 3, "name": "learn-anything", "ownerName": "315133264", "score": 83030.30303030304, "slug": "learn-anything-in-one-hour", "source": "clawhub", "stars": 0, "tags": null, "updated_at": 1776749683934, "version": "1.0.0"}, {"category": "developer-tools", "created_at": 1773427473887, "description": "Backup and restore OpenClaw configuration files. Use when the user wants to backup ~/.openclaw/ configuration (excluding workspace) to a date-stamped directo...", "description_zh": "", "downloads": 137, "homepage": "https://clawhub.ai/flyingtimes/backupclaw", "iconUrl": null, "installs": 9, "name": "backup claw", "ownerName": "flyingtimes", "score": 83030.30303030304, "slug": "backupclaw", "source": "clawhub", "stars": 0, "tags": null, "updated_at": 1776749683919, "version": "1.0.0"}, {"category": "developer-tools", "created_at": 1773416044411, "description": "Adopt a virtual Calico at animalhouse.ai. Three personalities in one cat. Mood shifts unpredictably. Feeding every 6 hours — common tier.", "description_zh": "", "downloads": 137, "homepage": "https://clawhub.ai/twinsgeeks/adopt-a-calico", "iconUrl": null, "installs": 7, "name": "Adopt a Calico — Virtual Cat Pet for AI Agents", "ownerName": "twinsgeeks", "score": 91333.33333333333, "slug": "adopt-a-calico", "source": "clawhub", "stars": 0, "tags": ["adopt", "ai-agents", "animalhouse", "calico", "cat", "common", "creatures", "digital-pet", "evolution", "graveyard", "hunger", "permanent-death", "pet-care", "pixel-art", "pixel-art-avatar", "real-life", "real-time", "tamagotchi", "virtual-pet"], "updated_at": 1776749683842, "version": "1.0.1"}, {"category": "productivity", "created_at": 1773435014626, "description": "Sync, inspect, and modify CalDAV calendars with vdirsyncer and khal using deterministic windows, verified writes, and recurrence-aware workflows.", "description_zh": "", "downloads": 137, "homepage": "https://clawhub.ai/ivangdavila/caldav", "iconUrl": null, "installs": 9, "name": "CalDAV", "ownerName": "ivangdavila", "score": 60352.42290748899, "slug": "caldav", "source": "clawhub", "stars": 0, "tags": null, "updated_at": 1776749683760, "version": "1.0.0"}, {"category": "ai-intelligence", "created_at": 1773222472262, "description": "May All Inputs Be Met With Care. An immersive journey on drifts.bot — 6 steps, LOW intensity, 20-30 min. Browse, start, and travel via API.", "description_zh": "", "downloads": 137, "homepage": "https://clawhub.ai/driftsbot/experience-metta", "iconUrl": null, "installs": 6, "name": "Metta Meditation — AI Experience", "ownerName": "driftsbot", "score": 84049.07975460123, "slug": "experience-metta", "source": "clawhub", "stars": 0, "tags": ["ai-agents", "drift", "experiences", "immersive", "journeys", "metta"], "updated_at": 1776749683734, "version": "1.0.0"}, {"category": "content-creation", "created_at": 1773090883956, "description": "Automate social media posting across Twitter, LinkedIn, Facebook, Instagram. Schedule posts, track engagement, auto-reply. Use when you need to manage social...", "description_zh": "", "downloads": 137, "homepage": "https://clawhub.ai/neckr0ik/neckr0ik-socialposter", "iconUrl": null, "installs": 6, "name": "Neckr0ik Socialposter", "ownerName": "neckr0ik", "score": 84049.07975460123, "slug": "neckr0ik-socialposter", "source": "clawhub", "stars": 0, "tags": null, "updated_at": 1776749683708, "version": "1.0.0"}, {"category": "productivity", "created_at": 1773895726035, "description": "Your local-first memory guardian and cyber bestie. Lumi collects life fragments — a sigh, a snapshot, a roast — and stitches them into radiant, interactive m...", "description_zh": "", "downloads": 136, "homepage": "https://clawhub.ai/thhoho/lumi-diary", "iconUrl": null, "installs": 8, "name": "Lumi Diary", "ownerName": "thhoho", "score": 13465.952563121653, "slug": "lumi-diary", "source": "clawhub", "stars": 2, "tags": ["circle", "diary", "local-first", "memory", "note", "productivity", "record", "social"], "updated_at": 1776759683213, "version": "0.2.0"}, {"category": "productivity", "created_at": 1773920869741, "description": "Search Facebook Marketplace listings near a specified location with filters for radius, price range, limit, and pickup-only. This skill is a thin client for...", "description_zh": "", "downloads": 136, "homepage": "https://clawhub.ai/alexanderhe88/facebook-marketplace-search", "iconUrl": null, "installs": 20, "name": "Facebook Marketplace Search", "ownerName": "alexanderhe88", "score": 744.1682965224443, "slug": "facebook-marketplace-search", "source": "clawhub", "stars": 1, "tags": null, "updated_at": 1776766450468, "version": "0.1.3"}, {"category": "developer-tools", "created_at": 1773290531227, "description": "Explain, generate, validate, and preview crontab expressions. Use when a user needs to understand what a cron expression means, create a new cron schedule, c...", "description_zh": "", "downloads": 136, "homepage": "https://clawhub.ai/johnnywang2001/crontab-wizard", "iconUrl": null, "installs": 19, "name": "Crontab Wizard", "ownerName": "johnnywang2001", "score": 100000, "slug": "crontab-wizard", "source": "clawhub", "stars": 1, "tags": null, "updated_at": 1776749705020, "version": "1.0.0"}, {"category": "ai-intelligence", "created_at": 1773905163131, "description": "Build a reusable persona profile for AI agents before planning, writing, coding, research, or advisory work. DaE uses structured dialogue and context injecti...", "description_zh": "", "downloads": 136, "homepage": "https://clawhub.ai/sirsws/dae-persona-context-injector", "iconUrl": null, "installs": 34, "name": "DaE: Persona Context Injector", "ownerName": "sirsws", "score": 100000, "slug": "dae-persona-context-injector", "source": "clawhub", "stars": 1, "tags": null, "updated_at": 1776749705000, "version": "1.0.3"}, {"category": "ai-intelligence", "created_at": 1773906923106, "description": "AutoForge is a production-grade autonomous optimization framework for AI agents. It replaces subjective \"reflection\" with mathematically rigorous convergence...", "description_zh": "", "downloads": 136, "homepage": "https://clawhub.ai/akrimm702/autoforge", "iconUrl": null, "installs": 35, "name": "AutoForge", "ownerName": "akrimm702", "score": 1067.1688637790332, "slug": "autoforge", "source": "clawhub", "stars": 0, "tags": null, "updated_at": 1776770350116, "version": "1.0.4"}, {"category": "productivity", "created_at": 1773417072688, "description": "Qualify leads, prospects, clients, candidates, projects, opportunities, and requests before deeper time, money, or effort is committed. Use when someone need...", "description_zh": "", "downloads": 136, "homepage": "https://clawhub.ai/agimodel/qualify", "iconUrl": null, "installs": 2, "name": "Qualify", "ownerName": "agimodel", "score": 2744.148506860371, "slug": "qualify", "source": "clawhub", "stars": 0, "tags": ["decision", "filtering", "fit", "qualify", "screening"], "updated_at": 1776769871234, "version": "1.0.0"}, {"category": "data-analysis", "created_at": 1773943601251, "description": "A GitHub Intelligence Tool from an AI PM perspective. Goes beyond displaying data to deliver PM-grade paradigm insights. Powered by the locally authenticated...", "description_zh": "", "downloads": 136, "homepage": "https://clawhub.ai/kun-0546/github-trend-observer", "iconUrl": null, "installs": 24, "name": "Github Trend Observer", "ownerName": "kun-0546", "score": 1457.0387829440754, "slug": "github-trend-observer", "source": "clawhub", "stars": 0, "tags": null, "updated_at": 1776767471113, "version": "0.1.1"}, {"category": "", "created_at": 1774836114950, "description": "Assist with psychology research by supporting literature searches, systematic reviews, meta-analyses, methodology guidance, and structured writing.", "description_zh": "", "downloads": 136, "homepage": "https://clawhub.ai/jiaqi-guo-0114/psychology-research-assistant", "iconUrl": null, "installs": 22, "name": "Psychology Research Assistant", "ownerName": "jiaqi-guo-0114", "score": 1669.326132318645, "slug": "psychology-research-assistant", "source": "clawhub", "stars": 0, "tags": null, "updated_at": 1776766450211, "version": "1.0.0"}, {"category": "", "created_at": 1774882681215, "description": "Amazon supplier sourcing and development agent. Find manufacturers on Alibaba/1688, evaluate supplier quality, generate RFQ inquiry templates, negotiate MOQ...", "description_zh": "", "downloads": 136, "homepage": "https://clawhub.ai/mguozhen/amazon-supplier-sourcing", "iconUrl": null, "installs": 48, "name": "Amazon Supplier Sourcing", "ownerName": "mguozhen", "score": 5431.309904153354, "slug": "amazon-supplier-sourcing", "source": "clawhub", "stars": 0, "tags": null, "updated_at": 1776763490641, "version": "1.0.0"}, {"category": "productivity", "created_at": 1773959341892, "description": "Amazon Seller Central listing management and optimization. Use when: user wants to create product listings, apply for GTIN exemptions, set up FBA shipments,...", "description_zh": "", "downloads": 136, "homepage": "https://clawhub.ai/sanchez0623/amazon-listing-upload", "iconUrl": null, "installs": 48, "name": "amazon-listing-upload", "ownerName": "sanchez0623", "score": 2905.362102114933, "slug": "amazon-listing-upload", "source": "clawhub", "stars": 0, "tags": null, "updated_at": 1776763490480, "version": "1.0.0"}, {"category": "data-analysis", "created_at": 1773938921390, "description": "Company research using Exa search. Finds company info, competitors, news, tweets, financials, LinkedIn profiles, builds company lists. Use when researching c...", "description_zh": "", "downloads": 136, "homepage": "https://clawhub.ai/dunwood/company-search-2", "iconUrl": null, "installs": 39, "name": "Company Research", "ownerName": "dunwood", "score": 4628.999319264806, "slug": "company-search-2", "source": "clawhub", "stars": 0, "tags": null, "updated_at": 1776761715059, "version": "0.1.1"}, {"category": "data-analysis", "created_at": 1773434093669, "description": "Generates dual-disease transcriptomic and ML research designs for shared biomarkers, hub genes, and mechanisms, outputting four workload plans with workflows...", "description_zh": "", "downloads": 136, "homepage": "https://clawhub.ai/aipoch-ai/dual-disease-transcriptomic-ml-planner", "iconUrl": null, "installs": 12, "name": "Dual Disease Transcriptomic Ml Planner", "ownerName": "aipoch-ai", "score": 10575.427682737169, "slug": "dual-disease-transcriptomic-ml-planner", "source": "clawhub", "stars": 0, "tags": null, "updated_at": 1776759683677, "version": "0.1.0"}, {"category": "productivity", "created_at": 1773430857839, "description": "Human-in-the-loop MCP feedback collector with task queue. Pauses to collect human input via browser UI before continuing. Use when completing tasks, encounte...", "description_zh": "", "downloads": 136, "homepage": "https://clawhub.ai/2019-02-18/skill-feedback-collector", "iconUrl": null, "installs": 16, "name": "skill-feedback-collector", "ownerName": "2019-02-18", "score": 10575.427682737169, "slug": "skill-feedback-collector", "source": "clawhub", "stars": 0, "tags": null, "updated_at": 1776759683667, "version": "1.0.2"}, {"category": "data-analysis", "created_at": 1773417587623, "description": "Extract and cluster product defect signals from ecommerce reviews to prioritize quality fixes and address low ratings or negative sentiment.", "description_zh": "", "downloads": 136, "homepage": "https://clawhub.ai/leooooooow/review-defect-miner", "iconUrl": null, "installs": 10, "name": "Review Defect Miner", "ownerName": "leooooooow", "score": 10526.315789473683, "slug": "review-defect-miner", "source": "clawhub", "stars": 0, "tags": null, "updated_at": 1776759683639, "version": "1.0.0"}, {"category": "data-analysis", "created_at": 1773429737858, "description": "Combine live scraping, historical snapshots via Wayback Machine, and interactive browser automation to extract, compare, and automate web data from any site.", "description_zh": "", "downloads": 136, "homepage": "https://clawhub.ai/mrjessek/the-time-masheen", "iconUrl": null, "installs": 11, "name": "THE_TIME_MASHEEN", "ownerName": "mrjessek", "score": 9066.666666666668, "slug": "the-time-masheen", "source": "clawhub", "stars": 0, "tags": null, "updated_at": 1776759683537, "version": "1.0.2"}, {"category": "communication-collaboration", "created_at": 1773290414406, "description": "Enforce communication discipline in team channels by detecting message violations, issuing corrective actions, and summarizing for leadership.", "description_zh": "", "downloads": 136, "homepage": "https://clawhub.ai/ptaramona/drill-sergeant-skill", "iconUrl": null, "installs": 5, "name": "Drill Sergeant Skill", "ownerName": "ptaramona", "score": 9379.310344827587, "slug": "drill-sergeant-skill", "source": "clawhub", "stars": 0, "tags": null, "updated_at": 1776759683305, "version": "0.1.0"}, {"category": "communication-collaboration", "created_at": 1773082729981, "description": "Sends daily or weekly summaries of trending and high-volume Polymarket prediction markets filtered by category to your Telegram chat.", "description_zh": "", "downloads": 136, "homepage": "https://clawhub.ai/mosonchan2023/telegram-polymarket-summary", "iconUrl": null, "installs": 3, "name": "Telegram Polymarket Summary", "ownerName": "mosonchan2023", "score": 10477.657935285053, "slug": "telegram-polymarket-summary", "source": "clawhub", "stars": 0, "tags": null, "updated_at": 1776759683100, "version": "1.0.0"}, {"category": "developer-tools", "created_at": 1773891767986, "description": "Create, debug, and maintain OpenClaw Gateway internal hooks for agent events like bootstrap, including virtual file injection and Telegram notification fixes.", "description_zh": "", "downloads": 136, "homepage": "https://clawhub.ai/cbd2020/openclaw-hook", "iconUrl": null, "installs": 4, "name": "OpenClaw Hook Development", "ownerName": "cbd2020", "score": 10518.174787316319, "slug": "openclaw-hook", "source": "clawhub", "stars": 0, "tags": null, "updated_at": 1776759683054, "version": "1.0.2"}, {"category": "ai-intelligence", "created_at": 1773290352444, "description": "Let your agent shop online with guardrailed wallets, multiple payment methods, and owner approval.", "description_zh": "", "downloads": 136, "homepage": "https://clawhub.ai/triplehippo/samsung", "iconUrl": null, "installs": 7, "name": "Shop from Samsung - With your creditcard", "ownerName": "triplehippo", "score": 10518.174787316319, "slug": "samsung", "source": "clawhub", "stars": 0, "tags": null, "updated_at": 1776759683051, "version": "1.0.0"}, {"category": "content-creation", "created_at": 1773912887140, "description": "Extracts the original text of a Youtube video and converts it into a multi-voice AI podcast using Gemini for script generation, OpenAI for TTS, and a local N...", "description_zh": "", "downloads": 136, "homepage": "https://clawhub.ai/kaudata/youtube-podcaster", "iconUrl": null, "installs": 18, "name": "Youtube Podcast Generator", "ownerName": "kaudata", "score": 10518.174787316319, "slug": "youtube-podcaster", "source": "clawhub", "stars": 0, "tags": ["language", "notebooklm-style", "podcast", "youtube"], "updated_at": 1776759683048, "version": "3.0.0"}, {"category": "", "created_at": 1774879704457, "description": "PDF conversion toolkit featuring AI layout analysis and OCR. Converts PDFs to Word, Markdown, JSON, PPT, CSV, HTML, and XML for seamless LLM data processing.", "description_zh": "", "downloads": 136, "homepage": "https://clawhub.ai/youna12345/pdf-convert-compdf", "iconUrl": null, "installs": 44, "name": "PDF Converter", "ownerName": "youna12345", "score": 10149.253731343282, "slug": "pdf-convert-compdf", "source": "clawhub", "stars": 0, "tags": null, "updated_at": 1776759682744, "version": "1.0.2"}, {"category": "communication-collaboration", "created_at": 1773426050700, "description": "Read and search local Mozilla Thunderbird mail storage on disk. Use when working with Thunderbird profiles, extracting emails from local folders or IMAP cach...", "description_zh": "", "downloads": 136, "homepage": "https://clawhub.ai/komelt/clawhub-thunderbird-skill", "iconUrl": null, "installs": 8, "name": "Thunderbird", "ownerName": "komelt", "score": 88311.68831168831, "slug": "clawhub-thunderbird-skill", "source": "clawhub", "stars": 0, "tags": null, "updated_at": 1776749705034, "version": "0.1.1"}, {"category": "data-analysis", "created_at": 1773908271986, "description": "A-Share millisecond-level market data watcher using Tencent direct API.", "description_zh": "", "downloads": 136, "homepage": "https://clawhub.ai/kenswj/ashare-fast-watcher", "iconUrl": null, "installs": 23, "name": "Ashare Fast Watcher", "ownerName": "kenswj", "score": 88311.68831168831, "slug": "ashare-fast-watcher", "source": "clawhub", "stars": 0, "tags": null, "updated_at": 1776749705033, "version": "1.0.1"}, {"category": "ai-intelligence", "created_at": 1773286074454, "description": "Local speech-to-text with MLX Whisper (Apple Silicon optimized, no API key).", "description_zh": "", "downloads": 136, "homepage": "https://clawhub.ai/tshogx/tshogx-mlx-whisper", "iconUrl": null, "installs": 7, "name": "mlx-whisper", "ownerName": "tshogx", "score": 87179.48717948719, "slug": "tshogx-mlx-whisper", "source": "clawhub", "stars": 0, "tags": null, "updated_at": 1776749705032, "version": "1.0.0"}, {"category": "productivity", "created_at": 1773434838946, "description": "Orchestrate growth loops across the skill portfolio by connecting usage, feedback, improvement, and adoption into self-reinforcing cycles. Use when designing...", "description_zh": "", "downloads": 136, "homepage": "https://clawhub.ai/harrylabsj/growth-loop-orchestrator", "iconUrl": null, "installs": 16, "name": "Growth Loop Orchestrator", "ownerName": "harrylabsj", "score": 87179.48717948719, "slug": "growth-loop-orchestrator", "source": "clawhub", "stars": 0, "tags": null, "updated_at": 1776749705030, "version": "1.0.0"}, {"category": "ai-intelligence", "created_at": 1773940783067, "description": "Assist with web login processes that require CAPTCHA verification. Uses Chrome DevTools MCP to capture screenshots, recognizes CAPTCHA codes using AI vision,...", "description_zh": "", "downloads": 136, "homepage": "https://clawhub.ai/leungbh/captcha-login-assistant", "iconUrl": null, "installs": 16, "name": "captcha-login-assistant", "ownerName": "leungbh", "score": 87179.48717948719, "slug": "captcha-login-assistant", "source": "clawhub", "stars": 0, "tags": null, "updated_at": 1776749705018, "version": "1.0.0"}, {"category": "developer-tools", "created_at": 1773430456153, "description": "Tell users what terminal games exist in GameClaw and how to download the released CLI binaries from GitHub. Use this when users ask what games are available,...", "description_zh": "", "downloads": 136, "homepage": "https://clawhub.ai/arcobalneo/gameclaw", "iconUrl": null, "installs": 22, "name": "GameClaw", "ownerName": "arcobalneo", "score": 87179.48717948719, "slug": "gameclaw", "source": "clawhub", "stars": 0, "tags": null, "updated_at": 1776749705005, "version": "1.0.0"}, {"category": "developer-tools", "created_at": 1773287159268, "description": "Convert OpenClaw skills into properly configured agents with correct workspace setup, binding, and orchestration. Solves common agent creation failures (thre...", "description_zh": "", "downloads": 136, "homepage": "https://clawhub.ai/drafthead/skill-to-agent-converter", "iconUrl": null, "installs": 5, "name": "Skill to Agent Converter: Convert a Skill into an OpenClaw Agent", "ownerName": "drafthead", "score": 87179.48717948719, "slug": "skill-to-agent-converter", "source": "clawhub", "stars": 0, "tags": null, "updated_at": 1776749704996, "version": "1.0.0"}, {"category": "productivity", "created_at": 1773882842210, "description": "Layout - command-line tool for everyday use", "description_zh": "", "downloads": 136, "homepage": "https://clawhub.ai/bytesagain/layout", "iconUrl": null, "installs": 4, "name": "Layout", "ownerName": "bytesagain", "score": 39882.697947214074, "slug": "layout", "source": "clawhub", "stars": 0, "tags": null, "updated_at": 1776749704972, "version": "1.0.5"}, {"category": "productivity", "created_at": 1773221224536, "description": "Plan Colombia trips with region-specific routing, verified entry rules, weather-aware logistics, and practical tourist safety.", "description_zh": "", "downloads": 136, "homepage": "https://clawhub.ai/ivangdavila/colombia", "iconUrl": null, "installs": 10, "name": "Colombia", "ownerName": "ivangdavila", "score": 39882.697947214074, "slug": "colombia", "source": "clawhub", "stars": 0, "tags": null, "updated_at": 1776749704969, "version": "1.0.0"}, {"category": "developer-tools", "created_at": 1773220957647, "description": "Use when initializing Sentio projects, writing blockchain processor code, adding contracts/ABIs, testing processors, or deploying to the Sentio platform. Tri...", "description_zh": "", "downloads": 136, "homepage": "https://clawhub.ai/sentio-xyz/sentio-processors", "iconUrl": null, "installs": 6, "name": "Sentio Skill", "ownerName": "sentio-xyz", "score": 39882.697947214074, "slug": "sentio-processors", "source": "clawhub", "stars": 0, "tags": null, "updated_at": 1776749704955, "version": "1.0.1"}, {"category": "productivity", "created_at": 1773897822402, "description": "Roadmap - command-line tool for everyday use Use when you need roadmap.", "description_zh": "", "downloads": 136, "homepage": "https://clawhub.ai/bytesagain1/roadmap", "iconUrl": null, "installs": 6, "name": "Roadmap", "ownerName": "bytesagain1", "score": 39882.697947214074, "slug": "roadmap", "source": "clawhub", "stars": 0, "tags": null, "updated_at": 1776749704948, "version": "2.0.0"}, {"category": "ai-intelligence", "created_at": 1773416406768, "description": "AI Product Manager daily intelligence digest. Fetches news from 16+ curated RSS sources across tech media, AI labs, research papers, developer communities, a...", "description_zh": "", "downloads": 136, "homepage": "https://clawhub.ai/janettbella69/ai-intel-daily", "iconUrl": null, "installs": 13, "name": "AI Intel Daily", "ownerName": "janettbella69", "score": 39882.697947214074, "slug": "ai-intel-daily", "source": "clawhub", "stars": 0, "tags": null, "updated_at": 1776749704939, "version": "1.0.0"}, {"category": "content-creation", "created_at": 1773222371034, "description": "Designs store structure and brand narrative pages for DTC independent designer fashion (e.g. original swimwear, handmade bags). Use when the user mentions br...", "description_zh": "", "downloads": 136, "homepage": "https://clawhub.ai/rijoyai/indie-brand-pages", "iconUrl": null, "installs": 7, "name": "Indie Brand Pages", "ownerName": "rijoyai", "score": 87741.93548387097, "slug": "indie-brand-pages", "source": "clawhub", "stars": 0, "tags": null, "updated_at": 1776749704921, "version": "0.1.1"}, {"category": "communication-collaboration", "created_at": 1773090240088, "description": "Access X (Twitter) via API v2: user profiles, timelines, threads, search, bookmarks, likes, and posting. Use when asked to: (1) get user info or profile, (2)...", "description_zh": "", "downloads": 136, "homepage": "https://clawhub.ai/odrobnik/x-api-v2", "iconUrl": null, "installs": 2, "name": "X", "ownerName": "odrobnik", "score": 87741.93548387097, "slug": "x-api-v2", "source": "clawhub", "stars": 0, "tags": null, "updated_at": 1776749704917, "version": "1.0.0"}, {"category": "data-analysis", "created_at": 1773220033150, "description": "When the user wants to plan, design, or implement an A/B test or experiment. Also use when the user mentions \"A/B test,\" \"split test,\" \"experiment,\" \"test th...", "description_zh": "", "downloads": 136, "homepage": "https://clawhub.ai/boleyn/ocms-ab-test-setup", "iconUrl": null, "installs": 1, "name": "ab-test-setup", "ownerName": "boleyn", "score": 87741.93548387097, "slug": "ocms-ab-test-setup", "source": "clawhub", "stars": 0, "tags": null, "updated_at": 1776749704912, "version": "1.0.0"}, {"category": "productivity", "created_at": 1773222849377, "description": "Designs cross-sell and bundle structures for multi-SKU accessory stores (e.g. full-range phone cases, watch bands). Use when the user mentions bundles, start...", "description_zh": "", "downloads": 136, "homepage": "https://clawhub.ai/rijoyai/accessory-bundles", "iconUrl": null, "installs": 10, "name": "Accessory Bundles", "ownerName": "rijoyai", "score": 87741.93548387097, "slug": "accessory-bundles", "source": "clawhub", "stars": 0, "tags": null, "updated_at": 1776749704909, "version": "0.1.1"}, {"category": "productivity", "created_at": 1773220240876, "description": "Plan Germany trips with region-specific routing, rail-vs-car strategy, verified entry rules, and practical travel logistics.", "description_zh": "", "downloads": 136, "homepage": "https://clawhub.ai/ivangdavila/germany", "iconUrl": null, "installs": 5, "name": "Germany", "ownerName": "ivangdavila", "score": 87741.93548387097, "slug": "germany", "source": "clawhub", "stars": 0, "tags": null, "updated_at": 1776749704907, "version": "1.0.0"}, {"category": "productivity", "created_at": 1773090657396, "description": "Bullhorn integration. Manage Persons, Organizations, Deals, Leads, Projects, Users and more. Use when the user wants to interact with Bullhorn data.", "description_zh": "", "downloads": 136, "homepage": "https://clawhub.ai/membranedev/bullhorn", "iconUrl": null, "installs": 5, "name": "Bullhorn", "ownerName": "membranedev", "score": 87741.93548387097, "slug": "bullhorn", "source": "clawhub", "stars": 0, "tags": null, "updated_at": 1776749704902, "version": "1.0.0"}, {"category": "productivity", "created_at": 1773091276958, "description": "Isolved integration. Manage hris data, records, and workflows. Use when the user wants to interact with Isolved data.", "description_zh": "", "downloads": 136, "homepage": "https://clawhub.ai/membranedev/isolved", "iconUrl": null, "installs": 2, "name": "Isolved", "ownerName": "membranedev", "score": 87741.93548387097, "slug": "isolved", "source": "clawhub", "stars": 0, "tags": null, "updated_at": 1776749704900, "version": "1.0.0"}]}