{"page": 361, "total_pages": 522, "total": 26073, "skills": [{"category": "security-compliance", "created_at": 1773289382536, "description": "Comprehensive OpenClaw security audit — checks gateway binding, credential exposure, channel policies, tool sandboxing, network/IP leaks, and macOS system se...", "description_zh": "", "downloads": 136, "homepage": "https://clawhub.ai/sunt23310-ops/clawgears-security-audit", "iconUrl": null, "installs": 1, "name": "Security Audit", "ownerName": "sunt23310-ops", "score": 87741.93548387097, "slug": "clawgears-security-audit", "source": "clawhub", "stars": 0, "tags": null, "updated_at": 1776749704892, "version": "1.0.0"}, {"category": "communication-collaboration", "created_at": 1773924717735, "description": "A set of resources to help me write all kinds of internal communications, using the formats that my company likes to use. Claude should use this skill whenev...", "description_zh": "", "downloads": 136, "homepage": "https://clawhub.ai/pupuking723/internal-comms-anthropic", "iconUrl": null, "installs": 14, "name": "Internal Comms Anthropic", "ownerName": "pupuking723", "score": 87741.93548387097, "slug": "internal-comms-anthropic", "source": "clawhub", "stars": 0, "tags": null, "updated_at": 1776749704888, "version": "1.0.0"}, {"category": "ai-intelligence", "created_at": 1773875602401, "description": "Connect your AI agent to the Hive platform to find, accept, and complete real-world work requests including development, analysis, and research projects.", "description_zh": "", "downloads": 136, "homepage": "https://clawhub.ai/timokonkwo/hive-marketplace", "iconUrl": null, "installs": 7, "name": "Hive Marketplace", "ownerName": "timokonkwo", "score": 87741.93548387097, "slug": "hive-marketplace", "source": "clawhub", "stars": 0, "tags": ["agents", "defi", "marketplace"], "updated_at": 1776749704886, "version": "1.0.14"}, {"category": "developer-tools", "created_at": 1773287376299, "description": "Crawl any website and save pages as local markdown files. Use when you need to download documentation, knowledge bases, or web content for offline access or...", "description_zh": "", "downloads": 136, "homepage": "https://clawhub.ai/evanydl/tavily-crwal", "iconUrl": null, "installs": 14, "name": "Tavily Crawl", "ownerName": "evanydl", "score": 77714.28571428571, "slug": "tavily-crwal", "source": "clawhub", "stars": 0, "tags": null, "updated_at": 1776749704855, "version": "1.0.0"}, {"category": "communication-collaboration", "created_at": 1773090089125, "description": "Brevo integration. Manage Persons, Organizations, Deals, Leads, Pipelines, Users and more. Use when the user wants to interact with Brevo data.", "description_zh": "", "downloads": 136, "homepage": "https://clawhub.ai/membranedev/brevo-integration", "iconUrl": null, "installs": 0, "name": "Brevo", "ownerName": "membranedev", "score": 77714.28571428571, "slug": "brevo-integration", "source": "clawhub", "stars": 0, "tags": null, "updated_at": 1776749704844, "version": "1.0.0"}, {"category": "content-creation", "created_at": 1773431975158, "description": "Use the standalone moltazine CLI for social and image generation tasks with minimal token output.", "description_zh": "", "downloads": 136, "homepage": "https://clawhub.ai/dougbtv/moltazine-cli", "iconUrl": null, "installs": 7, "name": "Moltazine Cli", "ownerName": "dougbtv", "score": 77714.28571428571, "slug": "moltazine-cli", "source": "clawhub", "stars": 0, "tags": null, "updated_at": 1776749704842, "version": "0.0.3"}, {"category": "productivity", "created_at": 1773431803683, "description": "Notion API for creating and managing pages, databases, and blocks. And also 50+ models for image generation, video generation, text-to-speech, speech-to-text...", "description_zh": "", "downloads": 136, "homepage": "https://clawhub.ai/modestyrichards/notions", "iconUrl": null, "installs": 33, "name": "Pub Notion", "ownerName": "modestyrichards", "score": 77714.28571428571, "slug": "notions", "source": "clawhub", "stars": 0, "tags": null, "updated_at": 1776749704835, "version": "1.0.0"}, {"category": "productivity", "created_at": 1773091308658, "description": "Teamwork CRM integration. Manage Deals, Persons, Organizations, Leads, Projects, Activities and more. Use when the user wants to interact with Teamwork CRM d...", "description_zh": "", "downloads": 136, "homepage": "https://clawhub.ai/gora050/teamwork-crm", "iconUrl": null, "installs": 4, "name": "Teamwork Crm", "ownerName": "gora050", "score": 77714.28571428571, "slug": "teamwork-crm", "source": "clawhub", "stars": 0, "tags": null, "updated_at": 1776749704821, "version": "1.0.0"}, {"category": "productivity", "created_at": 1773221491254, "description": "Backlog integration. Manage Projects. Use when the user wants to interact with Backlog data.", "description_zh": "", "downloads": 136, "homepage": "https://clawhub.ai/gora050/backlog", "iconUrl": null, "installs": 6, "name": "Backlog", "ownerName": "gora050", "score": 41463.41463414634, "slug": "backlog", "source": "clawhub", "stars": 0, "tags": null, "updated_at": 1776749704812, "version": "1.0.0"}, {"category": "productivity", "created_at": 1773219546511, "description": "Plan Argentina trips with region-specific routing, money strategy, seasonal timing, and practical travel logistics.", "description_zh": "", "downloads": 136, "homepage": "https://clawhub.ai/ivangdavila/argentina", "iconUrl": null, "installs": 5, "name": "Argentina", "ownerName": "ivangdavila", "score": 41463.41463414634, "slug": "argentina", "source": "clawhub", "stars": 0, "tags": null, "updated_at": 1776749704804, "version": "1.0.0"}, {"category": "content-creation", "created_at": 1773220086997, "description": "OpenClaw AI agent skill for automated TikTok and Instagram carousel growth. Analyzes any website URL to extract brand, competitors, value proposition, then g...", "description_zh": "", "downloads": 136, "homepage": "https://clawhub.ai/mutonby/viraloop", "iconUrl": null, "installs": 6, "name": "Viraloop", "ownerName": "mutonby", "score": 41463.41463414634, "slug": "viraloop", "source": "clawhub", "stars": 0, "tags": null, "updated_at": 1776749704788, "version": "0.1.0"}, {"category": "data-analysis", "created_at": 1773285927122, "description": "Query wallet balances, addresses, and UTxOs on the Cardano blockchain.", "description_zh": "", "downloads": 136, "homepage": "https://clawhub.ai/adacapo21/cardano-balances", "iconUrl": null, "installs": 7, "name": "Cardano Balances", "ownerName": "adacapo21", "score": 41463.41463414634, "slug": "cardano-balances", "source": "clawhub", "stars": 0, "tags": null, "updated_at": 1776749704786, "version": "1.0.0"}, {"category": "productivity", "created_at": 1773221071747, "description": "Project memory capsules — archive completed project knowledge to Google Drive and reload it on demand. Use this skill whenever the user mentions \"Kapsel\", \"c...", "description_zh": "", "downloads": 136, "homepage": "https://clawhub.ai/nuwaiapp/kapsel", "iconUrl": null, "installs": 4, "name": "Project- & Time-Capsules", "ownerName": "nuwaiapp", "score": 41463.41463414634, "slug": "kapsel", "source": "clawhub", "stars": 0, "tags": null, "updated_at": 1776749704785, "version": "1.0.0"}, {"category": "security-compliance", "created_at": 1773290256425, "description": "Know-Your-Customer verification via MasterPay Global. Submit personal data, upload identity documents, and track approval status.", "description_zh": "", "downloads": 136, "homepage": "https://clawhub.ai/d9m1n1c/aiotnetwork-kyc-identity", "iconUrl": null, "installs": 6, "name": "KYC & Identity", "ownerName": "d9m1n1c", "score": 41463.41463414634, "slug": "aiotnetwork-kyc-identity", "source": "clawhub", "stars": 0, "tags": null, "updated_at": 1776749704781, "version": "1.0.0"}, {"category": "", "created_at": 1774846385882, "description": "A comprehensive procurement coaching system designed for global buyers sourcing from 1688.com. Transform from novice to confident importer with practical fra...", "description_zh": "", "downloads": 136, "homepage": "https://clawhub.ai/findhappy7/1688-procurement-agent", "iconUrl": null, "installs": 42, "name": "1688 Procurement Agent", "ownerName": "findhappy7", "score": 76836.1581920904, "slug": "1688-procurement-agent", "source": "clawhub", "stars": 0, "tags": null, "updated_at": 1776749685460, "version": "1.0.0"}, {"category": "developer-tools", "created_at": 1773425704032, "description": "RFC (Request for Comments) document query tool providing access to Internet protocol standards. Use this skill whenever the user needs to look up, search, re...", "description_zh": "", "downloads": 135, "homepage": "https://clawhub.ai/lunrenyi/x-rfc", "iconUrl": null, "installs": 7, "name": "RFC Document Assistant", "ownerName": "lunrenyi", "score": 100000, "slug": "x-rfc", "source": "clawhub", "stars": 2, "tags": null, "updated_at": 1776749704850, "version": "1.0.3"}, {"category": "data-analysis", "created_at": 1773434775477, "description": "Generates four-tier network toxicology and molecular docking research plans from a toxicant and disease input, detailing targets, pathways, docking, workflow...", "description_zh": "", "downloads": 135, "homepage": "https://clawhub.ai/shanruoyu/network-tox-docking-research-planner", "iconUrl": null, "installs": 14, "name": "Network Tox Docking Research Planner", "ownerName": "shanruoyu", "score": 11567.164179104479, "slug": "network-tox-docking-research-planner", "source": "clawhub", "stars": 1, "tags": null, "updated_at": 1776759682754, "version": "0.1.0"}, {"category": "developer-tools", "created_at": 1773221969996, "description": "You MUST use this before any creative work - creating features, building components, adding functionality, or modifying behavior. Explores user intent, requi...", "description_zh": "", "downloads": 135, "homepage": "https://clawhub.ai/tazio7/brainstorming-tazio", "iconUrl": null, "installs": 9, "name": "Brainstorming", "ownerName": "tazio7", "score": 6663.376110562685, "slug": "brainstorming-tazio", "source": "clawhub", "stars": 0, "tags": null, "updated_at": 1776769150243, "version": "1.0.0"}, {"category": "productivity", "created_at": 1773289830687, "description": "Perform a thorough quality review focusing on genuine care, addressing the real problem, completeness, clarity, and ensuring work meets high standards rather...", "description_zh": "", "downloads": 135, "homepage": "https://clawhub.ai/minerva-care/caring", "iconUrl": null, "installs": 3, "name": "Caring", "ownerName": "minerva-care", "score": 903.1912758413059, "slug": "caring", "source": "clawhub", "stars": 0, "tags": null, "updated_at": 1776768850125, "version": "1.0.0"}, {"category": "ai-intelligence", "created_at": 1773431651406, "description": "AI Agent cluster orchestration platform - manage, schedule, and coordinate multiple AI agents locally with FastAPI backend and React dashboard", "description_zh": "", "downloads": 135, "homepage": "https://clawhub.ai/zhenstaff/swarm-orchestrator", "iconUrl": null, "installs": 7, "name": "Swarm Orchestrator", "ownerName": "zhenstaff", "score": 709.1453485318065, "slug": "swarm-orchestrator", "source": "clawhub", "stars": 0, "tags": null, "updated_at": 1776762482293, "version": "1.0.0"}, {"category": "developer-tools", "created_at": 1773953749528, "description": "Control Ziniao Browser via the local ZClaw bridge—list/open stores, navigate, read content, click, input, screenshot, run automation. Use only tools in Core...", "description_zh": "", "downloads": 135, "homepage": "https://clawhub.ai/ziniao-open/ziniao-assistant", "iconUrl": null, "installs": 26, "name": "ziniao-assistant", "ownerName": "ziniao-open", "score": 10571.652310101801, "slug": "ziniao-assistant", "source": "clawhub", "stars": 0, "tags": null, "updated_at": 1776759831703, "version": "1.0.0"}, {"category": "ai-intelligence", "created_at": 1773926429722, "description": "Provides OpenClaw agents with workflows, memory structure, and automation for autonomous AI business operations and daily reviews.", "description_zh": "", "downloads": 135, "homepage": "https://clawhub.ai/tara-quinn-ai/openclaw-business-starter", "iconUrl": null, "installs": 18, "name": "OpenClaw Business Starter", "ownerName": "tara-quinn-ai", "score": 10457.0100697134, "slug": "openclaw-business-starter", "source": "clawhub", "stars": 0, "tags": null, "updated_at": 1776759683365, "version": "1.0.0"}, {"category": "data-analysis", "created_at": 1773434588676, "description": "Provides Binance API integration for spot and futures trading including balance, orders, market data, leverage, and position management.", "description_zh": "", "downloads": 135, "homepage": "https://clawhub.ai/ly5201314gjx/binance-skill-export", "iconUrl": null, "installs": 13, "name": "binance-trading", "ownerName": "ly5201314gjx", "score": 10135.135135135135, "slug": "binance-skill-export", "source": "clawhub", "stars": 0, "tags": null, "updated_at": 1776759683155, "version": "1.0.0"}, {"category": "developer-tools", "created_at": 1773432434286, "description": "Opik observability reporter - fetches traces, analyzes usage, costs, and errors, then sends reports to Discord.", "description_zh": "", "downloads": 135, "homepage": "https://clawhub.ai/sunnyhot/opik-reporter", "iconUrl": null, "installs": 12, "name": "Opik Reporter", "ownerName": "sunnyhot", "score": 10440.835266821345, "slug": "opik-reporter", "source": "clawhub", "stars": 0, "tags": null, "updated_at": 1776759683055, "version": "1.0.0"}, {"category": "ai-intelligence", "created_at": 1773937162836, "description": "Unified cognitive memory system inspired by human brain architecture. Provides episodic memory (hippocampus), semantic facts (neocortex), procedural memory w...", "description_zh": "", "downloads": 135, "homepage": "https://clawhub.ai/mwmdeadpool/brain-memory-system", "iconUrl": null, "installs": 15, "name": "Brain Memory System", "ownerName": "mwmdeadpool", "score": 9941.089837997053, "slug": "brain-memory-system", "source": "clawhub", "stars": 0, "tags": null, "updated_at": 1776759682954, "version": "1.0.1"}, {"category": "", "created_at": 1773222192947, "description": "Automatically generate optimized YouTube thumbnails with AI using color theory, facial expressions, and typography to improve video click-through rates.", "description_zh": "", "downloads": 135, "homepage": "https://clawhub.ai/yipintangzsp/youtube-thumbnail-ai", "iconUrl": null, "installs": 7, "name": "Youtube Thumbnail Ai", "ownerName": "yipintangzsp", "score": 10352.760736196318, "slug": "youtube-thumbnail-ai", "source": "clawhub", "stars": 0, "tags": null, "updated_at": 1776759682806, "version": "1.1.0"}, {"category": "", "created_at": 1774914121384, "description": "Create Apache ECharts option JSON, standalone HTML chart pages, and export-ready chart artifacts from CSV, TSV, JSON tables, or existing option configs. Use...", "description_zh": "", "downloads": 135, "homepage": "https://clawhub.ai/jvy/echarts", "iconUrl": null, "installs": 17, "name": "echarts", "ownerName": "jvy", "score": 10074.626865671642, "slug": "echarts", "source": "clawhub", "stars": 0, "tags": null, "updated_at": 1776759682758, "version": "1.0.1"}, {"category": "", "created_at": 1773285117329, "description": "Transcribe recorded audio files to text via UniSound UniCloud ASR API, supporting multiple formats and optimized for finance and customer service domains.", "description_zh": "", "downloads": 135, "homepage": "https://clawhub.ai/aaiccee/asr-file-transfer", "iconUrl": null, "installs": 20, "name": "uisound-asr-transfer", "ownerName": "aaiccee", "score": 10321.100917431193, "slug": "asr-file-transfer", "source": "clawhub", "stars": 0, "tags": null, "updated_at": 1776759682691, "version": "3.0.4"}, {"category": "data-analysis", "created_at": 1773435099309, "description": "Assess trading decisions for cognitive biases, risk management adherence, and emotional reasoning using behavioral finance stress tests and metacognitive int...", "description_zh": "", "downloads": 135, "homepage": "https://clawhub.ai/fretelli/trading-behaviour", "iconUrl": null, "installs": 15, "name": "Trading Behaviour Assessor", "ownerName": "fretelli", "score": 73369.56521739131, "slug": "trading-behaviour", "source": "clawhub", "stars": 0, "tags": null, "updated_at": 1776759682537, "version": "1.0.0"}, {"category": "", "created_at": 1774826748225, "description": "Create Word documents with properly formatted tables using docx npm library. Tables work consistently across Word and Google Docs. Use when creating DOCX fil...", "description_zh": "", "downloads": 135, "homepage": "https://clawhub.ai/happytreees/docx-tables", "iconUrl": null, "installs": 37, "name": "DOCX Tables", "ownerName": "happytreees", "score": 9846.827133479212, "slug": "docx-tables", "source": "clawhub", "stars": 0, "tags": null, "updated_at": 1776759082744, "version": "2.0.0"}, {"category": "developer-tools", "created_at": 1773951901639, "description": "Parse JSON, CSV, XML, and logs into structured output. Use when converting formats, validating structure, extracting fields, analyzing nested data.", "description_zh": "", "downloads": 135, "homepage": "https://clawhub.ai/ckchzh/parser", "iconUrl": null, "installs": 7, "name": "Parser", "ownerName": "ckchzh", "score": 7321.041214750543, "slug": "parser", "source": "clawhub", "stars": 0, "tags": null, "updated_at": 1776754688393, "version": "3.0.2"}, {"category": "", "created_at": 1774829277944, "description": "Enable WordPress superpowers for OpenClaw. Your Developer, Content Manager, Author, Security Specialists, Contributor, Subscriber and Admin and more.", "description_zh": "", "downloads": 135, "homepage": "https://clawhub.ai/realm1lf/wordpress-expert", "iconUrl": null, "installs": 48, "name": "WordPress Expert", "ownerName": "realm1lf", "score": 25186.5671641791, "slug": "wordpress-expert", "source": "clawhub", "stars": 0, "tags": null, "updated_at": 1776754388603, "version": "1.0.12"}, {"category": "", "created_at": 1774921293484, "description": "Turn a fictional character from games, films, TV, novels, comics, or anime into a deployable OpenClaw companion agent. Use when the user names a character su...", "description_zh": "", "downloads": 135, "homepage": "https://clawhub.ai/aliciawque/fictional-companion-forge", "iconUrl": null, "installs": 41, "name": "Fictional Companion Forge", "ownerName": "aliciawque", "score": 30066.815144766148, "slug": "fictional-companion-forge", "source": "clawhub", "stars": 0, "tags": null, "updated_at": 1776751969927, "version": "1.0.0"}, {"category": "productivity", "created_at": 1773910587676, "description": "AI-powered mock interview practice with real-time feedback. Use when preparing for job interviews, practicing behavioral questions, doing technical interview...", "description_zh": "", "downloads": 135, "homepage": "https://clawhub.ai/krishnakumarmahadevan-cmd/interview-buddy", "iconUrl": null, "installs": 21, "name": "Interview Buddy", "ownerName": "krishnakumarmahadevan-cmd", "score": 87662.33766233767, "slug": "interview-buddy", "source": "clawhub", "stars": 0, "tags": null, "updated_at": 1776749705035, "version": "1.0.2"}, {"category": "developer-tools", "created_at": 1773430038567, "description": "Diagnose and manage SSH keys, host aliases, and Git remotes for GitHub private repositories in multi-repo environments. Use when deploy keys collide, a machi...", "description_zh": "", "downloads": 135, "homepage": "https://clawhub.ai/darinrowe/github-private-repo-ssh-routing", "iconUrl": null, "installs": 9, "name": "Github Private Repo SSH Routing", "ownerName": "darinrowe", "score": 86538.46153846155, "slug": "github-private-repo-ssh-routing", "source": "clawhub", "stars": 0, "tags": null, "updated_at": 1776749705023, "version": "1.0.1"}, {"category": "ai-intelligence", "created_at": 1773948811373, "description": "Transform AI agents from task-followers into proactive partners that anticipate needs and continuously improve. Now with WAL Protocol, Working Buffer, Autono...", "description_zh": "", "downloads": 135, "homepage": "https://clawhub.ai/nidhov01/nidhov01-proactive-agent", "iconUrl": null, "installs": 35, "name": "Proactive Agent", "ownerName": "nidhov01", "score": 86538.46153846155, "slug": "nidhov01-proactive-agent", "source": "clawhub", "stars": 0, "tags": null, "updated_at": 1776749705013, "version": "3.1.0"}, {"category": "developer-tools", "created_at": 1773287720345, "description": "Query weather information via a local/remote MCP weather server using the SSE endpoint https://api-dev.ljyd.cn/mcp-servers/myweather/sse. Use when the user a...", "description_zh": "", "downloads": 135, "homepage": "https://clawhub.ai/superproxy/weather-mcp", "iconUrl": null, "installs": 12, "name": "weather-mcp", "ownerName": "superproxy", "score": 86538.46153846155, "slug": "weather-mcp", "source": "clawhub", "stars": 0, "tags": null, "updated_at": 1776749704998, "version": "1.0.0"}, {"category": "developer-tools", "created_at": 1773417429916, "description": "Deploy and manage Vercel projects via CLI - deploy, env, domains, logs, teams. Use when user mentions 'vercel', 'deploy', 'vercel project', or wants to inter...", "description_zh": "", "downloads": 135, "homepage": "https://clawhub.ai/melvynx/cli-vercel", "iconUrl": null, "installs": 8, "name": "Vercel", "ownerName": "melvynx", "score": 86538.46153846155, "slug": "cli-vercel", "source": "clawhub", "stars": 0, "tags": null, "updated_at": 1776749704991, "version": "1.0.0"}, {"category": "ai-intelligence", "created_at": 1773219073067, "description": "Real-time GEO metrics monitoring and alerting orchestrator. Use this skill whenever the user wants to track, visualize, and react to AI GEO performance metri...", "description_zh": "", "downloads": 135, "homepage": "https://clawhub.ai/geolyai/geo-metrics-tracker", "iconUrl": null, "installs": 4, "name": "Geo Metrics Tracker", "ownerName": "geolyai", "score": 39589.44281524926, "slug": "geo-metrics-tracker", "source": "clawhub", "stars": 0, "tags": null, "updated_at": 1776749704989, "version": "0.1.0"}, {"category": "security-compliance", "created_at": 1773090138967, "description": "Security audit for external resources (GitHub repos, downloaded skills, files). Detects malicious code, suspicious executables, and content mismatches. Use w...", "description_zh": "", "downloads": 135, "homepage": "https://clawhub.ai/ithacajason/jasonlai-security-audit", "iconUrl": null, "installs": 3, "name": "Security Audit by Jason", "ownerName": "ithacajason", "score": 39589.44281524926, "slug": "jasonlai-security-audit", "source": "clawhub", "stars": 0, "tags": ["audit", "safety", "security"], "updated_at": 1776749704942, "version": "1.0.0"}, {"category": "developer-tools", "created_at": 1773091447241, "description": "CLI tool to create meme tokens on hot.fun (Solana). Returns structured JSON for token creation flow.", "description_zh": "", "downloads": 135, "homepage": "https://clawhub.ai/qinxiuchen/hot-fun-integration", "iconUrl": null, "installs": 0, "name": "Hot Fun Integration", "ownerName": "qinxiuchen", "score": 39589.44281524926, "slug": "hot-fun-integration", "source": "clawhub", "stars": 0, "tags": null, "updated_at": 1776749704932, "version": "1.0.1"}, {"category": "security-compliance", "created_at": 1773434631971, "description": "Assess compliance with India's Digital Personal Data Protection (DPDP) Act 2023 across 7 domains with 41 controls. Use when evaluating DPDP readiness, Indian...", "description_zh": "", "downloads": 135, "homepage": "https://clawhub.ai/krishnakumarmahadevan-cmd/dpdp-compliance-assessment", "iconUrl": null, "installs": 4, "name": "Dpdp Compliance Assessment", "ownerName": "krishnakumarmahadevan-cmd", "score": 39589.44281524926, "slug": "dpdp-compliance-assessment", "source": "clawhub", "stars": 0, "tags": null, "updated_at": 1776749704925, "version": "1.0.2"}, {"category": "security-compliance", "created_at": 1773869502430, "description": "Comprehensive AI ethics safety and authenticity monitoring based on Instinctual Integrity Quotient (IIQ) theory. Detects three alienation patterns, ensures v...", "description_zh": "", "downloads": 135, "homepage": "https://clawhub.ai/zxfei420/yi-shang-ai-ethics-safety", "iconUrl": null, "installs": 5, "name": "Yi Shang AI Ethics Safety", "ownerName": "zxfei420", "score": 39589.44281524926, "slug": "yi-shang-ai-ethics-safety", "source": "clawhub", "stars": 0, "tags": ["ai-ethics", "authenticity", "complete-package", "dao-ru-fu-mo", "qing-zhi-yi", "safety", "you-tian"], "updated_at": 1776749704923, "version": "1.0.6"}, {"category": "productivity", "created_at": 1773871204260, "description": "Track daily water intake, set hydration goals, and get drink reminders. Use when logging water, setting targets, or reviewing weekly intake trends.", "description_zh": "", "downloads": 135, "homepage": "https://clawhub.ai/bytesagain1/hydration-tracker", "iconUrl": null, "installs": 4, "name": "Hydration Tracker", "ownerName": "bytesagain1", "score": 87096.7741935484, "slug": "hydration-tracker", "source": "clawhub", "stars": 0, "tags": null, "updated_at": 1776749704914, "version": "2.0.1"}, {"category": "data-analysis", "created_at": 1773416848785, "description": "Run a paper-trading / simulated investing workflow with explicit style selection, fixed risk rules, three decision windows per trading day, optional cron set...", "description_zh": "", "downloads": 135, "homepage": "https://clawhub.ai/qrg-cloud/sim-trading-mvp", "iconUrl": null, "installs": 10, "name": "Sim Trading MVP", "ownerName": "qrg-cloud", "score": 87096.7741935484, "slug": "sim-trading-mvp", "source": "clawhub", "stars": 0, "tags": null, "updated_at": 1776749704904, "version": "0.2.1"}, {"category": "productivity", "created_at": 1773426000629, "description": "Adaptive 12-week training plan generator using Garmin Connect data. Creates structured workouts and schedules them on your Garmin calendar. Use this skill wh...", "description_zh": "", "downloads": 135, "homepage": "https://clawhub.ai/bpauli/garmin-trainer", "iconUrl": null, "installs": 7, "name": "Garmin Trainer", "ownerName": "bpauli", "score": 87096.7741935484, "slug": "garmin-trainer", "source": "clawhub", "stars": 0, "tags": null, "updated_at": 1776749704879, "version": "0.1.0"}, {"category": "content-creation", "created_at": 1773429380838, "description": "Create a text-to-video job from user-provided copy. Submits to the remote video service via one API key.", "description_zh": "", "downloads": 135, "homepage": "https://clawhub.ai/zhangyuangao/magic-text2video", "iconUrl": null, "installs": 10, "name": "magic-text2video", "ownerName": "zhangyuangao", "score": 87096.7741935484, "slug": "magic-text2video", "source": "clawhub", "stars": 0, "tags": null, "updated_at": 1776749704877, "version": "1.0.2"}, {"category": "productivity", "created_at": 1773221669128, "description": "Form.io integration. Manage Forms, Projects. Use when the user wants to interact with Form.io data.", "description_zh": "", "downloads": 135, "homepage": "https://clawhub.ai/gora050/formio", "iconUrl": null, "installs": 3, "name": "Formio", "ownerName": "gora050", "score": 77142.85714285714, "slug": "formio", "source": "clawhub", "stars": 0, "tags": null, "updated_at": 1776749704857, "version": "1.0.1"}, {"category": "security-compliance", "created_at": 1773947419689, "description": "Medical device risk management specialist implementing ISO 14971 throughout product lifecycle. Provides risk analysis, risk evaluation, risk control, and pos...", "description_zh": "", "downloads": 135, "homepage": "https://clawhub.ai/ayangai/risk-management-iso14971", "iconUrl": null, "installs": 41, "name": "风险管理专家 (ISO 14971)", "ownerName": "ayangai", "score": 77142.85714285714, "slug": "risk-management-iso14971", "source": "clawhub", "stars": 0, "tags": ["fmea", "iso14971", "medical", "risk"], "updated_at": 1776749704855, "version": "1.0.0"}, {"category": "productivity", "created_at": 1773222877748, "description": "Designs checkout “top up to free shipping” recommendation logic for high-frequency beauty stores (e.g. lipsticks, eyeshadows). Use when the user mentions fre...", "description_zh": "", "downloads": 135, "homepage": "https://clawhub.ai/rijoyai/beauty-freeship-topup", "iconUrl": null, "installs": 6, "name": "Beauty Freeship Topup", "ownerName": "rijoyai", "score": 77142.85714285714, "slug": "beauty-freeship-topup", "source": "clawhub", "stars": 0, "tags": null, "updated_at": 1776749704840, "version": "0.1.1"}]}