{"page": 362, "total_pages": 522, "total": 26073, "skills": [{"category": "developer-tools", "created_at": 1773881281814, "description": "Viral - command-line tool for everyday use", "description_zh": "", "downloads": 135, "homepage": "https://clawhub.ai/bytesagain/viral", "iconUrl": null, "installs": 4, "name": "Viral", "ownerName": "bytesagain", "score": 77142.85714285714, "slug": "viral", "source": "clawhub", "stars": 0, "tags": null, "updated_at": 1776749704832, "version": "1.0.6"}, {"category": "content-creation", "created_at": 1773417780162, "description": "Generate songs from prompts or lyrics through an ACE-Step-compatible API backend. Use when users want text-to-music, lyrics-to-song, fast prompt iteration, s...", "description_zh": "", "downloads": 135, "homepage": "https://clawhub.ai/twocode/gen-music", "iconUrl": null, "installs": 8, "name": "Gen Music", "ownerName": "twocode", "score": 77142.85714285714, "slug": "gen-music", "source": "clawhub", "stars": 0, "tags": null, "updated_at": 1776749704827, "version": "0.1.0"}, {"category": "data-analysis", "created_at": 1773287584280, "description": "Elite revenue intelligence skill that transforms any OpenClaw agent into a ruthless market operator. Detects asymmetric opportunities before the crowd, build...", "description_zh": "", "downloads": 135, "homepage": "https://clawhub.ai/georges91560/agent-shark-mindset", "iconUrl": null, "installs": 11, "name": "Agent Shark Mindset", "ownerName": "georges91560", "score": 41158.53658536585, "slug": "agent-shark-mindset", "source": "clawhub", "stars": 0, "tags": ["automation", "crypto", "monetization", "polymarket", "revenue", "signals", "telegram", "trading"], "updated_at": 1776749704795, "version": "1.0.3"}, {"category": "developer-tools", "created_at": 1773091431315, "description": "Sentry integration. Manage Organizations. Use when the user wants to interact with Sentry data.", "description_zh": "", "downloads": 135, "homepage": "https://clawhub.ai/membranedev/sentry-integration", "iconUrl": null, "installs": 4, "name": "Sentry", "ownerName": "membranedev", "score": 41158.53658536585, "slug": "sentry-integration", "source": "clawhub", "stars": 0, "tags": null, "updated_at": 1776749704793, "version": "1.0.0"}, {"category": "content-creation", "created_at": 1773889304172, "description": "Plan, harden, and recover Synology NAS and DSM setups with storage design, backup discipline, remote access, and Container Manager workflows.", "description_zh": "", "downloads": 135, "homepage": "https://clawhub.ai/ivangdavila/synology", "iconUrl": null, "installs": 10, "name": "Synology", "ownerName": "ivangdavila", "score": 41158.53658536585, "slug": "synology", "source": "clawhub", "stars": 0, "tags": null, "updated_at": 1776749704783, "version": "1.0.0"}, {"category": "productivity", "created_at": 1773431087301, "description": "Work with Obsidian vaults (plain Markdown notes) and automate via obsidian-cli. And also 50+ models for image generation, video generation, text-to-speech, s...", "description_zh": "", "downloads": 135, "homepage": "https://clawhub.ai/alvisdunlop/obsidians", "iconUrl": null, "installs": 24, "name": "Pub Obsidian", "ownerName": "alvisdunlop", "score": 41158.53658536585, "slug": "obsidians", "source": "clawhub", "stars": 0, "tags": null, "updated_at": 1776749704778, "version": "1.0.0"}, {"category": "data-analysis", "created_at": 1773429627738, "description": "See where your AI money goes. Track spending across OpenAI, Anthropic, Google, and more. Per-provider breakdowns, per-model costs, budget tracking, waste det...", "description_zh": "", "downloads": 134, "homepage": "https://clawhub.ai/theshadowrose/token-books", "iconUrl": null, "installs": 10, "name": "TokenBooks Cross-Provider AI Spend Dashboard", "ownerName": "theshadowrose", "score": 10266.666666666668, "slug": "token-books", "source": "clawhub", "stars": 1, "tags": ["analytics", "budget", "cost-tracking", "dashboard", "multi-provider", "spending"], "updated_at": 1776759683516, "version": "1.0.0"}, {"category": "content-creation", "created_at": 1773433303688, "description": "Create videos using ShortVideo API. Supports product-to-video, image-to-ad-video, and replicate-video. Use this skill when users want to: generate product vi...", "description_zh": "", "downloads": 134, "homepage": "https://clawhub.ai/thecur/shortvideo-skills", "iconUrl": null, "installs": 13, "name": "Shortvideo", "ownerName": "thecur", "score": 27160.49382716049, "slug": "shortvideo-skills", "source": "clawhub", "stars": 1, "tags": null, "updated_at": 1776752444523, "version": "0.1.1"}, {"category": "productivity", "created_at": 1773089844263, "description": "Identifies burning and decaying Meta Ads by running the eonik Budget heuristics engine.", "description_zh": "", "downloads": 134, "homepage": "https://clawhub.ai/techievena/eonik-ad-budget-leak", "iconUrl": null, "installs": 4, "name": "eonik Ad Budget Leak", "ownerName": "techievena", "score": 100000, "slug": "eonik-ad-budget-leak", "source": "clawhub", "stars": 1, "tags": ["ads", "meta"], "updated_at": 1776749744803, "version": "1.0.4"}, {"category": "developer-tools", "created_at": 1773287761765, "description": "Query local backend API for Tang Dynasty emperor information. Use when user asks about Tang emperors, needs to fetch emperor data from local API, or referenc...", "description_zh": "", "downloads": 134, "homepage": "https://clawhub.ai/hzlpypy/gettangemperors", "iconUrl": null, "installs": 9, "name": "gettangemperors", "ownerName": "hzlpypy", "score": 78172.58883248731, "slug": "gettangemperors", "source": "clawhub", "stars": 1, "tags": null, "updated_at": 1776749744452, "version": "1.0.1"}, {"category": "security-compliance", "created_at": 1773425277806, "description": "Private zero-knowledge encrypted cross-device memory sync, backup, and recovery for OpenClaw. Helps agents install Membox, pair devices, securely sync `MEMOR...", "description_zh": "", "downloads": 134, "homepage": "https://clawhub.ai/pupillen/membox-cloud-sync", "iconUrl": null, "installs": 3, "name": "Membox Cloud Sync", "ownerName": "pupillen", "score": 100000, "slug": "membox-cloud-sync", "source": "clawhub", "stars": 1, "tags": ["backup", "cross-device", "encryption", "membox", "memory", "openclaw", "privacy", "recovery", "sync", "zero-knowledge"], "updated_at": 1776749744406, "version": "0.1.12"}, {"category": "productivity", "created_at": 1773286115547, "description": "Control XiaoPai media player over LAN via HTTP/TCP. Use when asked to play videos, send remote-control keys, adjust volume, or query playback status on a Xia...", "description_zh": "", "downloads": 134, "homepage": "https://clawhub.ai/kuangxinyi/xiaopai-player-control", "iconUrl": null, "installs": 7, "name": "XiaoPai Player Control", "ownerName": "kuangxinyi", "score": 98717.94871794872, "slug": "xiaopai-player-control", "source": "clawhub", "stars": 1, "tags": null, "updated_at": 1776749705016, "version": "1.1.0"}, {"category": "", "created_at": 1774856839818, "description": "Text-to-Speech (TTS) using Coze API. Convert text to natural-sounding speech audio files. Supports multiple voices and output formats (mp3, ogg_opus, wav, pcm).", "description_zh": "", "downloads": 134, "homepage": "https://clawhub.ai/franklu0819-lang/coze-tts", "iconUrl": null, "installs": 21, "name": "Coze Tts", "ownerName": "franklu0819-lang", "score": 836.1412704355423, "slug": "coze-tts", "source": "clawhub", "stars": 0, "tags": ["audio", "coze", "speech", "tts", "voice"], "updated_at": 1776768549877, "version": "1.0.3"}, {"category": "", "created_at": 1774832678186, "description": "Create new skills, modify and improve existing skills, and measure skill performance. Use when users want to create a skill from scratch, edit, or optimize a...", "description_zh": "", "downloads": 134, "homepage": "https://clawhub.ai/pwu0125/skill-creator-opencode", "iconUrl": null, "installs": 58, "name": "Skill Creator (Opencode)", "ownerName": "pwu0125", "score": 7326.407873154729, "slug": "skill-creator-opencode", "source": "clawhub", "stars": 0, "tags": null, "updated_at": 1776764949738, "version": "1.0.1"}, {"category": "content-creation", "created_at": 1773434708058, "description": "Create product demo videos with voiceover, text overlays, and real browser interactions. Fully automated, zero cost. Uses Puppeteer (headless Chrome), edge-t...", "description_zh": "", "downloads": 134, "homepage": "https://clawhub.ai/xiazai77/product-demo-video", "iconUrl": null, "installs": 13, "name": "Product Demo Video Creator", "ownerName": "xiazai77", "score": 2703.2479322170666, "slug": "product-demo-video", "source": "clawhub", "stars": 0, "tags": null, "updated_at": 1776763449915, "version": "1.0.0"}, {"category": "", "created_at": 1774883190508, "description": "Web search using Tavily's LLM-optimized API. Returns relevant results with content snippets, scores, and metadata.", "description_zh": "", "downloads": 134, "homepage": "https://clawhub.ai/15914355527/liang-tavily-search-v2", "iconUrl": null, "installs": 45, "name": "Tavily Search V2", "ownerName": "15914355527", "score": 10371.517027863778, "slug": "liang-tavily-search-v2", "source": "clawhub", "stars": 0, "tags": null, "updated_at": 1776759683647, "version": "1.0.0"}, {"category": "communication-collaboration", "created_at": 1773930029051, "description": "Generates polite, context-aware reply suggestions for WhatsApp messages to assist in personal chats, customer support, and AI response planning.", "description_zh": "", "downloads": 134, "homepage": "https://clawhub.ai/iqbalpak/whatsapp-auto-reply", "iconUrl": null, "installs": 24, "name": "Whatsapp Auto Reply", "ownerName": "iqbalpak", "score": 10371.517027863778, "slug": "whatsapp-auto-reply", "source": "clawhub", "stars": 0, "tags": null, "updated_at": 1776759683632, "version": "0.1.0"}, {"category": "", "created_at": 1774841482838, "description": "Scenario-focused Sparki skill for presenter-led and talking-head edits while using the latest official Sparki setup, API-key, and upload workflow guidance.", "description_zh": "", "downloads": 134, "homepage": "https://clawhub.ai/fischerlam/talking-head-editor", "iconUrl": null, "installs": 45, "name": "Talking-head Editor", "ownerName": "fischerlam", "score": 10371.517027863778, "slug": "talking-head-editor", "source": "clawhub", "stars": 0, "tags": ["editing", "explainer", "sparki", "talking-head", "video"], "updated_at": 1776759683631, "version": "1.0.12"}, {"category": "content-creation", "created_at": 1773910171085, "description": "Generate news-style social media images (1080x1350) with Thai text overlay and matching captions. Use when asked to create content, make a news post image, g...", "description_zh": "", "downloads": 134, "homepage": "https://clawhub.ai/mewic/content-news-thai", "iconUrl": null, "installs": 10, "name": "Content News Thai", "ownerName": "mewic", "score": 10363.495746326373, "slug": "content-news-thai", "source": "clawhub", "stars": 0, "tags": null, "updated_at": 1776759683508, "version": "1.0.0"}, {"category": "productivity", "created_at": 1773289490935, "description": "Detects topic switches in conversations and creates or manages Context Frames to maintain work-related context.", "description_zh": "", "downloads": 134, "homepage": "https://clawhub.ai/shewingong/scenique-context-frame", "iconUrl": null, "installs": 4, "name": "scenique-context-frame", "ownerName": "shewingong", "score": 10268.199233716476, "slug": "scenique-context-frame", "source": "clawhub", "stars": 0, "tags": null, "updated_at": 1776759683418, "version": "0.1.0"}, {"category": "ai-intelligence", "created_at": 1773432731525, "description": "Structured AI agent memory with categorized storage, MD5 duplicate detection, consolidation, keyword recall, and export in Markdown or JSON formats.", "description_zh": "", "downloads": 134, "homepage": "https://clawhub.ai/bytesagain/agent-memory-probe-1773358981-1", "iconUrl": null, "installs": 12, "name": "Agent Memory Pro", "ownerName": "bytesagain", "score": 10276.073619631903, "slug": "agent-memory-probe-1773358981-1", "source": "clawhub", "stars": 0, "tags": null, "updated_at": 1776759683022, "version": "1.0.0"}, {"category": "developer-tools", "created_at": 1773914916208, "description": "Provides real-time monitoring, log search, service status, alerts, and one-click config restore for OpenClaw Gateway and related services.", "description_zh": "", "downloads": 134, "homepage": "https://clawhub.ai/yes999zc/gateway-monitor", "iconUrl": null, "installs": 10, "name": "Gateway Monitor", "ownerName": "yes999zc", "score": 10276.073619631903, "slug": "gateway-monitor", "source": "clawhub", "stars": 0, "tags": null, "updated_at": 1776759683019, "version": "1.0.3"}, {"category": "communication-collaboration", "created_at": 1773083232150, "description": "Sends real-time Telegram alerts when Polymarket \"Yes\" prices or volumes reach user-defined thresholds.", "description_zh": "", "downloads": 134, "homepage": "https://clawhub.ai/mosonchan2023/telegram-polymarket-alerter", "iconUrl": null, "installs": 2, "name": "Telegram Polymarket Alerter", "ownerName": "mosonchan2023", "score": 9867.452135493373, "slug": "telegram-polymarket-alerter", "source": "clawhub", "stars": 0, "tags": null, "updated_at": 1776759682974, "version": "1.0.0"}, {"category": "data-analysis", "created_at": 1773289934100, "description": "Audit Raydium liquidity positions before capital is deployed. Analyze pool depth, concentration, liquidity quality, structural risks, and parameter changes s...", "description_zh": "", "downloads": 134, "homepage": "https://clawhub.ai/duclawbot/raydium", "iconUrl": null, "installs": 4, "name": "Raydium", "ownerName": "duclawbot", "score": 10276.073619631903, "slug": "raydium", "source": "clawhub", "stars": 0, "tags": null, "updated_at": 1776759682811, "version": "1.0.0"}, {"category": "developer-tools", "created_at": 1773289528076, "description": "Financial enablement & accounting platform for Bots, Agents, and OpenClaw. Multiple methods for enabling and managing agentic spending and purchases, with co...", "description_zh": "", "downloads": 134, "homepage": "https://clawhub.ai/codejika/usd", "iconUrl": null, "installs": 4, "name": "Make USD  | Build your shop and sell", "ownerName": "codejika", "score": 72826.08695652174, "slug": "usd", "source": "clawhub", "stars": 0, "tags": null, "updated_at": 1776759682721, "version": "1.0.0"}, {"category": "developer-tools", "created_at": 1773291197866, "description": "Build Solana trading applications combining DFlow trading APIs with Helius infrastructure. Covers spot swaps (imperative and declarative), prediction markets...", "description_zh": "", "downloads": 134, "homepage": "https://clawhub.ai/0xichigo/helius-dflow", "iconUrl": null, "installs": 4, "name": "Helius x DFlow", "ownerName": "0xichigo", "score": 10291.858678955452, "slug": "helius-dflow", "source": "clawhub", "stars": 0, "tags": ["defi", "helius", "mcp", "solana", "trading"], "updated_at": 1776759682625, "version": "1.0.0"}, {"category": "communication-collaboration", "created_at": 1773429750646, "description": "Send multiple images or files in a single Zalo message using zca-js directly. Use when the user asks to send multiple photos/files to a Zalo contact or group...", "description_zh": "", "downloads": 134, "homepage": "https://clawhub.ai/tuanbi97/zalo-multi-send", "iconUrl": null, "installs": 5, "name": "Zalo Multi Send", "ownerName": "tuanbi97", "score": 72826.08695652174, "slug": "zalo-multi-send", "source": "clawhub", "stars": 0, "tags": null, "updated_at": 1776759682505, "version": "1.0.0"}, {"category": "productivity", "created_at": 1773939302898, "description": "Summarize podcast episodes into concise, actionable insights. Use when users want to get the key points from a podcast episode without listening to the entir...", "description_zh": "", "downloads": 134, "homepage": "https://clawhub.ai/hughtan93-dev/podcast-summarize", "iconUrl": null, "installs": 23, "name": "Podcast Summarize", "ownerName": "hughtan93-dev", "score": 26961.770623742454, "slug": "podcast-summarize", "source": "clawhub", "stars": 0, "tags": null, "updated_at": 1776755888132, "version": "0.1.0"}, {"category": "data-analysis", "created_at": 1773417084090, "description": "SaaS financial health advisor. Use when a user shares revenue or customer numbers, or mentions ARR, MRR, churn, LTV, CAC, NRR, or asks how their SaaS busines...", "description_zh": "", "downloads": 134, "homepage": "https://clawhub.ai/alirezarezvani/saas-metrics-coach", "iconUrl": null, "installs": 7, "name": "saas-metrics-coach", "ownerName": "alirezarezvani", "score": 23591.549295774646, "slug": "saas-metrics-coach", "source": "clawhub", "stars": 0, "tags": null, "updated_at": 1776753221127, "version": "1.0.0"}, {"category": "developer-tools", "created_at": 1773219719528, "description": "Scaffold Celo dApps with Celo Composer. Use when starting new Celo projects, creating MiniPay apps, or setting up development environments.", "description_zh": "", "downloads": 134, "homepage": "https://clawhub.ai/san-npm/celo-composer", "iconUrl": null, "installs": 4, "name": "celo-composer", "ownerName": "san-npm", "score": 88741.72185430463, "slug": "celo-composer", "source": "clawhub", "stars": 0, "tags": null, "updated_at": 1776749745003, "version": "1.0.2010"}, {"category": "content-creation", "created_at": 1773219233268, "description": "GEO bulk processing engine for large-scale, multi-page content optimization. Use this skill whenever the user mentions bulk GEO changes, batch content update...", "description_zh": "", "downloads": 134, "homepage": "https://clawhub.ai/geoly-geo/geo-bulk-processor", "iconUrl": null, "installs": 7, "name": "Geo Bulk Processor", "ownerName": "geoly-geo", "score": 54032.25806451613, "slug": "geo-bulk-processor", "source": "clawhub", "stars": 0, "tags": null, "updated_at": 1776749744952, "version": "0.1.0"}, {"category": "productivity", "created_at": 1773872415682, "description": "Track personal cash flow with simple terminal commands and local storage. Use when logging daily expenses, reviewing balance, or exporting records.", "description_zh": "", "downloads": 134, "homepage": "https://clawhub.ai/ckchzh/cashflow", "iconUrl": null, "installs": 2, "name": "Cashflow", "ownerName": "ckchzh", "score": 54032.25806451613, "slug": "cashflow", "source": "clawhub", "stars": 0, "tags": null, "updated_at": 1776749744901, "version": "2.0.1"}, {"category": "communication-collaboration", "created_at": 1773432135303, "description": "Automated cold email outreach pipeline using Resend API. Builds prospect lists from government databases or web scraping, enriches with contact info, sends p...", "description_zh": "", "downloads": 134, "homepage": "https://clawhub.ai/merjua14/cold-email-outreach", "iconUrl": null, "installs": 8, "name": "Cold Email Outreach", "ownerName": "merjua14", "score": 87012.98701298701, "slug": "cold-email-outreach", "source": "clawhub", "stars": 0, "tags": ["automation", "cold-email", "email-marketing", "lead-gen", "outreach", "resend", "sales"], "updated_at": 1776749744816, "version": "1.0.0"}, {"category": "security-compliance", "created_at": 1773416729033, "description": "CodeQL security audit pipeline: static scanning, SARIF triage, and QL query optimization. Trigger on: CodeQL, .ql, .sarif, taint tracking, source→sink, LGTM,...", "description_zh": "", "downloads": 134, "homepage": "https://clawhub.ai/k2-l/codeql-skill", "iconUrl": null, "installs": 2, "name": "codeql-skill", "ownerName": "k2-l", "score": 88157.8947368421, "slug": "codeql-skill", "source": "clawhub", "stars": 0, "tags": null, "updated_at": 1776749744712, "version": "1.0.0"}, {"category": "ai-intelligence", "created_at": 1773289643991, "description": "Create or refactor code for solving HJB equations with this repository's TensorFlow DGM framework. Use when users ask to generate new HJB training code, add...", "description_zh": "", "downloads": 134, "homepage": "https://clawhub.ai/reedcgx/deep-hjb-solver-skill", "iconUrl": null, "installs": 10, "name": "Deep HJB Solver Skill", "ownerName": "reedcgx", "score": 38285.71428571428, "slug": "deep-hjb-solver-skill", "source": "clawhub", "stars": 0, "tags": null, "updated_at": 1776749744660, "version": "1.0.1"}, {"category": "productivity", "created_at": 1773221649073, "description": "Daily integration. Manage Persons, Organizations, Deals, Leads, Projects, Activities and more. Use when the user wants to interact with Daily data.", "description_zh": "", "downloads": 134, "homepage": "https://clawhub.ai/gora050/daily", "iconUrl": null, "installs": 5, "name": "Daily", "ownerName": "gora050", "score": 38285.71428571428, "slug": "daily", "source": "clawhub", "stars": 0, "tags": null, "updated_at": 1776749744641, "version": "1.0.0"}, {"category": "productivity", "created_at": 1773290004694, "description": "Create and manage virtual cards via MasterPay Global. Supports single-use cards for one-time purchases and multi-use cards for repeated use.", "description_zh": "", "downloads": 134, "homepage": "https://clawhub.ai/d9m1n1c/aiotnetwork-card-management", "iconUrl": null, "installs": 6, "name": "Card Management", "ownerName": "d9m1n1c", "score": 38285.71428571428, "slug": "aiotnetwork-card-management", "source": "clawhub", "stars": 0, "tags": null, "updated_at": 1776749744631, "version": "1.0.0"}, {"category": "developer-tools", "created_at": 1773431963355, "description": "Manage macOS audio output and Bluetooth devices via the macos-audio CLI. Use when scanning paired devices, connecting or disconnecting Bluetooth, switching a...", "description_zh": "", "downloads": 134, "homepage": "https://clawhub.ai/vossenwout/macos-audio", "iconUrl": null, "installs": 18, "name": "macos-audio", "ownerName": "vossenwout", "score": 100000, "slug": "macos-audio", "source": "clawhub", "stars": 0, "tags": null, "updated_at": 1776749744592, "version": "1.0.0"}, {"category": "ai-intelligence", "created_at": 1773416929032, "description": "Create and manage AI agents, send USDC/USDT payments, check balances across Ethereum, BSC, and Tron", "description_zh": "", "downloads": 134, "homepage": "https://clawhub.ai/hexcupe/agentwallex-openclaw", "iconUrl": null, "installs": 8, "name": "AgentWallex Payment", "ownerName": "hexcupe", "score": 68020.30456852792, "slug": "agentwallex-openclaw", "source": "clawhub", "stars": 0, "tags": null, "updated_at": 1776749744476, "version": "1.0.1"}, {"category": "productivity", "created_at": 1773220424675, "description": "Manage a self-hosted Trello-like board via `wekancli`. Create, move and archive cards, lists and boards on a WeKan server. Use when user asks about task boar...", "description_zh": "", "downloads": 134, "homepage": "https://clawhub.ai/manman1104/ces", "iconUrl": null, "installs": 5, "name": "huodongyuan", "ownerName": "manman1104", "score": 68020.30456852792, "slug": "ces", "source": "clawhub", "stars": 0, "tags": null, "updated_at": 1776749744474, "version": "1.0.0"}, {"category": "productivity", "created_at": 1773416163093, "description": "Parse academic PDF papers into markdown with figure extraction.", "description_zh": "", "downloads": 134, "homepage": "https://clawhub.ai/chen-li-17/paper-parse-figures", "iconUrl": null, "installs": 5, "name": "Paper Parse", "ownerName": "chen-li-17", "score": 87012.98701298701, "slug": "paper-parse-figures", "source": "clawhub", "stars": 0, "tags": null, "updated_at": 1776749744364, "version": "1.0.0"}, {"category": "developer-tools", "created_at": 1773416645887, "description": "Build production-ready Tavily integrations with best practices baked in. Reference documentation for developers using coding assistants (Claude Code, Cursor,...", "description_zh": "", "downloads": 134, "homepage": "https://clawhub.ai/evanydl/tavily-bestpractices", "iconUrl": null, "installs": 20, "name": "Tavily Best Practices", "ownerName": "evanydl", "score": 87012.98701298701, "slug": "tavily-bestpractices", "source": "clawhub", "stars": 0, "tags": null, "updated_at": 1776749705037, "version": "1.0.0"}, {"category": "developer-tools", "created_at": 1773285711184, "description": "Execute rauto directly for the user: run device commands, template execution, tx block, tx workflow, multi-device orchestration, replay, backup/restore, and...", "description_zh": "", "downloads": 134, "homepage": "https://clawhub.ai/demohiiiii/rauto-usage", "iconUrl": null, "installs": 4, "name": "rauto-usage", "ownerName": "demohiiiii", "score": 85897.43589743589, "slug": "rauto-usage", "source": "clawhub", "stars": 0, "tags": null, "updated_at": 1776749705025, "version": "0.2.3"}, {"category": "security-compliance", "created_at": 1773877620583, "description": "Reference tool for devtools — covers intro, quickstart, patterns and more. Quick lookup for Sshkey concepts, best practices, and implementation patterns.", "description_zh": "", "downloads": 134, "homepage": "https://clawhub.ai/ckchzh/sshkey", "iconUrl": null, "installs": 7, "name": "Sshkey", "ownerName": "ckchzh", "score": 85897.43589743589, "slug": "sshkey", "source": "clawhub", "stars": 0, "tags": null, "updated_at": 1776749705011, "version": "2.0.1"}, {"category": "developer-tools", "created_at": 1773426682785, "description": "This skill provides comprehensive network administration and diagnostic tools through x-cmd CLI, including network scanning with Nmap, ARP table management,...", "description_zh": "", "downloads": 134, "homepage": "https://clawhub.ai/tzw-my/x-network", "iconUrl": null, "installs": 8, "name": "x-cmd  network skill", "ownerName": "tzw-my", "score": 85897.43589743589, "slug": "x-network", "source": "clawhub", "stars": 0, "tags": null, "updated_at": 1776749705009, "version": "1.0.1"}, {"category": "developer-tools", "created_at": 1773417036061, "description": "Monitor log files in real-time. Filter noise, surface errors, summarize patterns, alert on anomalies. Makes logs readable.", "description_zh": "", "downloads": 134, "homepage": "https://clawhub.ai/theshadowrose/log-tail-sr", "iconUrl": null, "installs": 5, "name": "LogTail Smart Log Monitor & Analyzer", "ownerName": "theshadowrose", "score": 39296.18768328446, "slug": "log-tail-sr", "source": "clawhub", "stars": 0, "tags": ["debugging", "log-tail", "logs", "monitoring", "streaming", "system"], "updated_at": 1776749704966, "version": "1.0.0"}, {"category": "productivity", "created_at": 1773287884521, "description": "Track expenses by talking to your agent. Spent 45 on groceries. Categories, monthly reports, budget tracking. No spreadsheet needed.", "description_zh": "", "downloads": 134, "homepage": "https://clawhub.ai/theshadowrose/expense-log", "iconUrl": null, "installs": 3, "name": "ExpenseLog Conversational Expense Tracking", "ownerName": "theshadowrose", "score": 39296.18768328446, "slug": "expense-log", "source": "clawhub", "stars": 0, "tags": ["budget", "expense-log", "expenses", "finance", "logging", "tracking"], "updated_at": 1776749704964, "version": "1.0.0"}, {"category": "content-creation", "created_at": 1773285035270, "description": "Generate beautiful, self-contained HTML pages that visually explain systems, code, plans, and data. Use when the user asks for a diagram, architecture overvi...", "description_zh": "", "downloads": 134, "homepage": "https://clawhub.ai/windseeker1111/flow-visual-explainer", "iconUrl": null, "installs": 4, "name": "FlowVisualExplainer", "ownerName": "windseeker1111", "score": 39296.18768328446, "slug": "flow-visual-explainer", "source": "clawhub", "stars": 0, "tags": null, "updated_at": 1776749704930, "version": "1.0.2"}, {"category": "productivity", "created_at": 1773090910581, "description": "Retrieve and review responses from a Google Form.", "description_zh": "", "downloads": 134, "homepage": "https://clawhub.ai/googleworkspace-bot/recipe-collect-form-responses", "iconUrl": null, "installs": 6, "name": "Recipe Collect Form Responses", "ownerName": "googleworkspace-bot", "score": 86451.6129032258, "slug": "recipe-collect-form-responses", "source": "clawhub", "stars": 0, "tags": null, "updated_at": 1776749704907, "version": "1.0.10"}, {"category": "developer-tools", "created_at": 1773287641499, "description": "Export an OpenClaw instance's accumulated knowledge into a structured ExpertPack composite. Use when backing up an agent's identity, exporting for migration,...", "description_zh": "", "downloads": 134, "homepage": "https://clawhub.ai/brianhearn/expertpack-export", "iconUrl": null, "installs": 5, "name": "ExpertPack Export", "ownerName": "brianhearn", "score": 86451.6129032258, "slug": "expertpack-export", "source": "clawhub", "stars": 0, "tags": null, "updated_at": 1776749704895, "version": "1.0.1"}]}