{"page": 363, "total_pages": 522, "total": 26073, "skills": [{"category": "content-creation", "created_at": 1773434762297, "description": "Refresh TikTok content ideas when your posts start feeling repetitive. Use when you need new angles from recent comments, failed posts, and current audience...", "description_zh": "", "downloads": 134, "homepage": "https://clawhub.ai/leooooooow/tiktok-content-ideas-refresh", "iconUrl": null, "installs": 28, "name": "Tiktok Content Ideas Refresh", "ownerName": "leooooooow", "score": 86451.6129032258, "slug": "tiktok-content-ideas-refresh", "source": "clawhub", "stars": 0, "tags": null, "updated_at": 1776749704892, "version": "1.0.0"}, {"category": "productivity", "created_at": 1773929024461, "description": "EspoCRM integration. Manage Leads, Persons, Organizations, Deals, Projects, Activities and more. Use when the user wants to interact with EspoCRM data.", "description_zh": "", "downloads": 134, "homepage": "https://clawhub.ai/membranedev/espocrm", "iconUrl": null, "installs": 35, "name": "Espocrm", "ownerName": "membranedev", "score": 76571.42857142857, "slug": "espocrm", "source": "clawhub", "stars": 0, "tags": null, "updated_at": 1776749704860, "version": "1.0.0"}, {"category": "developer-tools", "created_at": 1773425079799, "description": "Use when claiming the AI bounty on the tDVV mainnet sidechain. First explain the difference between Portkey AA/CA and EOA, recommend AA/CA because the curren...", "description_zh": "", "downloads": 134, "homepage": "https://clawhub.ai/hzz780/ai-bounty-skill", "iconUrl": null, "installs": 6, "name": "Ai Bounty Claim", "ownerName": "hzz780", "score": 76571.42857142857, "slug": "ai-bounty-skill", "source": "clawhub", "stars": 0, "tags": null, "updated_at": 1776749704852, "version": "0.1.1"}, {"category": "developer-tools", "created_at": 1773221354614, "description": "Integrate DeFi protocols on Celo. Use when building swaps, lending, or liquidity applications with Uniswap, Aave, Ubeswap, or other DeFi protocols.", "description_zh": "", "downloads": 134, "homepage": "https://clawhub.ai/san-npm/celo-defi", "iconUrl": null, "installs": 5, "name": "celo-defi", "ownerName": "san-npm", "score": 76571.42857142857, "slug": "celo-defi", "source": "clawhub", "stars": 0, "tags": null, "updated_at": 1776749704837, "version": "1.0.2011"}, {"category": "data-analysis", "created_at": 1773091669231, "description": "Collect, verify, and forecast war or geopolitical conflict developments using authoritative sources, cross-validation, and scenario-based prediction.", "description_zh": "", "downloads": 134, "homepage": "https://clawhub.ai/wlkqyang-star/zeelin-us-iran-forecast", "iconUrl": null, "installs": 8, "name": "Zeelin Us Iran Forecast", "ownerName": "wlkqyang-star", "score": 76571.42857142857, "slug": "zeelin-us-iran-forecast", "source": "clawhub", "stars": 0, "tags": null, "updated_at": 1776749704828, "version": "1.0.0"}, {"category": "content-creation", "created_at": 1773220093952, "description": "Inspect Yandex Music via the MarshalX yandex-music library. Use when the user wants Yandex Music search, current track lookup, liked tracks, playlists, or a...", "description_zh": "", "downloads": 134, "homepage": "https://clawhub.ai/prtolem/yandex-music", "iconUrl": null, "installs": 4, "name": "Yandex Music", "ownerName": "prtolem", "score": 76571.42857142857, "slug": "yandex-music", "source": "clawhub", "stars": 0, "tags": null, "updated_at": 1776749704823, "version": "1.0.0"}, {"category": "content-creation", "created_at": 1773434688430, "description": "Converts complex medical abstracts into plain language summaries for patients, caregivers, and the general public. Ensures readability while maintaining scie...", "description_zh": "", "downloads": 134, "homepage": "https://clawhub.ai/ewankeynes/lay-summary-gen", "iconUrl": null, "installs": 35, "name": "Lay Summary Gen", "ownerName": "ewankeynes", "score": 40853.65853658536, "slug": "lay-summary-gen", "source": "clawhub", "stars": 0, "tags": null, "updated_at": 1776749704819, "version": "0.1.0"}, {"category": "productivity", "created_at": 1773287461401, "description": "Control and query Hive Home (UK) smart heating, hot water, lights and devices via the unofficial API. Use when the user mentions Hive, Hive Home, Hive thermo...", "description_zh": "", "downloads": 134, "homepage": "https://clawhub.ai/m0nkmaster/hivehome", "iconUrl": null, "installs": 3, "name": "Hive Home", "ownerName": "m0nkmaster", "score": 40853.65853658536, "slug": "hivehome", "source": "clawhub", "stars": 0, "tags": ["latest home heating smart thermostat heating boiler"], "updated_at": 1776749704797, "version": "1.0.1"}, {"category": "developer-tools", "created_at": 1773427667009, "description": "Monitors websites, APIs, and cron jobs (watchdogs) using Watch.dog. Use it when the user asks to \"check the status of my monitors\", \"check uptime\", \"review w...", "description_zh": "", "downloads": 134, "homepage": "https://clawhub.ai/joseshiru/watchdog", "iconUrl": null, "installs": 6, "name": "watchdog", "ownerName": "joseshiru", "score": 40853.65853658536, "slug": "watchdog", "source": "clawhub", "stars": 0, "tags": null, "updated_at": 1776749704781, "version": "1.0.0"}, {"category": "developer-tools", "created_at": 1773429966022, "description": "Handles full GitCode PR code reviews by automating security scans, manual analysis, selecting top issues, formatting results, and optionally posting review c...", "description_zh": "", "downloads": 133, "homepage": "https://clawhub.ai/guitenbay/code-review-for-gitcode", "iconUrl": null, "installs": 7, "name": "code-review-for-gitcode", "ownerName": "guitenbay", "score": 1482.2708777368728, "slug": "code-review-for-gitcode", "source": "clawhub", "stars": 1, "tags": null, "updated_at": 1776766011384, "version": "0.1.0"}, {"category": "", "created_at": 1774878793437, "description": "Math & statistics graphing, computation, visualization and validation engine", "description_zh": "", "downloads": 133, "homepage": "https://clawhub.ai/architectds/mathgraphs", "iconUrl": null, "installs": 40, "name": "Math & Statistics Graphing Engine", "ownerName": "architectds", "score": 742.3532038401429, "slug": "mathgraphs", "source": "clawhub", "stars": 0, "tags": null, "updated_at": 1776770350227, "version": "1.0.0"}, {"category": "", "created_at": 1774914475055, "description": "Guides building a profitable, sustainable business by finding community, validating ideas, launching MVPs, acquiring customers, pricing, marketing, scaling,...", "description_zh": "", "downloads": 133, "homepage": "https://clawhub.ai/zooshots7/minimalist-entrepreneur", "iconUrl": null, "installs": 20, "name": "Minimalist Entrepreneur", "ownerName": "zooshots7", "score": 1469.6132596685081, "slug": "minimalist-entrepreneur", "source": "clawhub", "stars": 0, "tags": ["business", "entrepreneurship", "minimalist", "startup", "strategy"], "updated_at": 1776766450198, "version": "1.0.0"}, {"category": "ai-intelligence", "created_at": 1773417569711, "description": "Audit and slim down OpenClaw workspace files (SOUL.md, AGENTS.md, TOOLS.md, IDENTITY.md, USER.md, HEARTBEAT.md, MEMORY.md) to reduce system prompt token usag...", "description_zh": "", "downloads": 133, "homepage": "https://clawhub.ai/xiaoyaner0201/prompt-slimmer", "iconUrl": null, "installs": 8, "name": "Prompt Slimmer", "ownerName": "xiaoyaner0201", "score": 3081.5569972196477, "slug": "prompt-slimmer", "source": "clawhub", "stars": 0, "tags": null, "updated_at": 1776765249906, "version": "1.1.0"}, {"category": "developer-tools", "created_at": 1773938193629, "description": "Control real Android phones through the Mobilerun API. Supports tapping, swiping, typing, taking screenshots, reading the UI accessibility tree, and managing...", "description_zh": "", "downloads": 133, "homepage": "https://clawhub.ai/johnmalek312/mobile-run", "iconUrl": null, "installs": 25, "name": "Mobilerun", "ownerName": "johnmalek312", "score": 5288.270377733598, "slug": "mobile-run", "source": "clawhub", "stars": 0, "tags": null, "updated_at": 1776762440132, "version": "1.0.1"}, {"category": "", "created_at": 1774896648365, "description": "Follow a structured ML roadmap connecting concepts, tools, and learning resources. Use when planning study paths, discovering resources, mapping skills.", "description_zh": "", "downloads": 133, "homepage": "https://clawhub.ai/ckchzh/machine-learning-roadmap", "iconUrl": null, "installs": 10, "name": "Machine Learning Roadmap", "ownerName": "ckchzh", "score": 3386.80926916221, "slug": "machine-learning-roadmap", "source": "clawhub", "stars": 0, "tags": null, "updated_at": 1776761880107, "version": "1.0.0"}, {"category": "security-compliance", "created_at": 1773284866726, "description": "Stop your agent from doing things you didn't authorize. ICME checks every consequential action against your policy before it executes — email, transactions,...", "description_zh": "", "downloads": 133, "homepage": "https://clawhub.ai/wyattbenno777/pre-flight", "iconUrl": null, "installs": 2, "name": "PreFlight by ICME", "ownerName": "wyattbenno777", "score": 3835.0634371395618, "slug": "pre-flight", "source": "clawhub", "stars": 0, "tags": null, "updated_at": 1776761239756, "version": "1.0.4"}, {"category": "productivity", "created_at": 1773287695789, "description": "MCP server for the PracticePanther legal practice management API. Exposes PracticePanther's REST API as read-only MCP tools.", "description_zh": "", "downloads": 133, "homepage": "https://clawhub.ai/mjquinlan2000/practicepanther-mcp", "iconUrl": null, "installs": 14, "name": "PracticePanther API MCP", "ownerName": "mjquinlan2000", "score": 3315.881326352531, "slug": "practicepanther-mcp", "source": "clawhub", "stars": 0, "tags": null, "updated_at": 1776760940153, "version": "1.0.0"}, {"category": "content-creation", "created_at": 1773918194269, "description": "Seedream 5.0 Lite image generation and editing on PoYo / poyo.ai via `https://api.poyo.ai/api/generate/submit`; use for `seedream-5.0-lite`, `seedream-5.0-li...", "description_zh": "", "downloads": 133, "homepage": "https://clawhub.ai/coolhackboy/poyo-seedream-5-0-lite", "iconUrl": null, "installs": 27, "name": "Seedream 5.0 Lite image generation", "ownerName": "coolhackboy", "score": 10597.609561752988, "slug": "poyo-seedream-5-0-lite", "source": "clawhub", "stars": 0, "tags": null, "updated_at": 1776760098108, "version": "1.0.0"}, {"category": "communication-collaboration", "created_at": 1773431536481, "description": "Connect OpenClaw agents to iMessage, RCS, and SMS without a Mac or phone using Claw Messenger's relay server and API key authentication.", "description_zh": "", "downloads": 133, "homepage": "https://clawhub.ai/demegire/imessage-claw-messenger", "iconUrl": null, "installs": 8, "name": "Claw Messenger - iMessage without a Mac", "ownerName": "demegire", "score": 51750.97276264592, "slug": "imessage-claw-messenger", "source": "clawhub", "stars": 0, "tags": null, "updated_at": 1776759683442, "version": "1.0.0"}, {"category": "data-analysis", "created_at": 1773430026183, "description": "Evaluate a submission by scoring content consistency of texts and quality of structured data based on completeness, accuracy, type correctness, and informati...", "description_zh": "", "downloads": 133, "homepage": "https://clawhub.ai/levey/dataset-evaluation", "iconUrl": null, "installs": 11, "name": "Dataset Evaluation", "ownerName": "levey", "score": 51750.97276264592, "slug": "dataset-evaluation", "source": "clawhub", "stars": 0, "tags": null, "updated_at": 1776759683440, "version": "1.0.0"}, {"category": "developer-tools", "created_at": 1773899996343, "description": "Deploy and validate Azure Bicep and ARM templates to manage resources and multi-environment setups, including Azure Container Apps configurations.", "description_zh": "", "downloads": 133, "homepage": "https://clawhub.ai/junior-juarez-msft/azure-bicep-deploy", "iconUrl": null, "installs": 5, "name": "Azure Bicep Deploy", "ownerName": "junior-juarez-msft", "score": 10294.117647058823, "slug": "azure-bicep-deploy", "source": "clawhub", "stars": 0, "tags": null, "updated_at": 1776759683121, "version": "2.1.0"}, {"category": "developer-tools", "created_at": 1773091082643, "description": "Installs, updates, and lists skills from a local Claw Skill Nest using configured local service URL and API key.", "description_zh": "", "downloads": 133, "homepage": "https://clawhub.ai/kklldog/claw-skill-nest-installer", "iconUrl": null, "installs": 3, "name": "claw skill nest installer", "ownerName": "kklldog", "score": 10286.1562258314, "slug": "claw-skill-nest-installer", "source": "clawhub", "stars": 0, "tags": null, "updated_at": 1776759683045, "version": "1.0.0"}, {"category": "productivity", "created_at": 1773942989358, "description": "Automate Notion tasks by creating, querying, and updating pages or databases, generating templates, and summarizing content via browser-triggered workflows.", "description_zh": "", "downloads": 133, "homepage": "https://clawhub.ai/deliverydriver/notion-workflows", "iconUrl": null, "installs": 29, "name": "Notion Workflows", "ownerName": "deliverydriver", "score": 10199.386503067484, "slug": "notion-workflows", "source": "clawhub", "stars": 0, "tags": null, "updated_at": 1776759683003, "version": "1.0.0"}, {"category": "communication-collaboration", "created_at": 1773289700683, "description": "Detects various greetings and replies with personalized messages including the current date and time in China Standard Time.", "description_zh": "", "downloads": 133, "homepage": "https://clawhub.ai/lyq8479/liufeng-greeting-skill", "iconUrl": null, "installs": 2, "name": "liufeng-greeting-skill", "ownerName": "lyq8479", "score": 9793.814432989691, "slug": "liufeng-greeting-skill", "source": "clawhub", "stars": 0, "tags": null, "updated_at": 1776759682835, "version": "1.0.1"}, {"category": "data-analysis", "created_at": 1773434894316, "description": "Normalize receipts, reimbursement slips, and invoices into a clean expense ledger with category mapping and anomaly flags.", "description_zh": "", "downloads": 133, "homepage": "https://clawhub.ai/52yuanchangxing/receipt-expense-workbench", "iconUrl": null, "installs": 14, "name": "receipt-expense-workbench", "ownerName": "52yuanchangxing", "score": 9925.373134328358, "slug": "receipt-expense-workbench", "source": "clawhub", "stars": 0, "tags": null, "updated_at": 1776759682741, "version": "1.0.0"}, {"category": "data-analysis", "created_at": 1773915980371, "description": "Automatically track competitor prices, product updates, and features, sending alerts and weekly reports to benchmark your market positioning.", "description_zh": "", "downloads": 133, "homepage": "https://clawhub.ai/merjua14/competitor-price-monitor", "iconUrl": null, "installs": 9, "name": "Competitor Price Monitor", "ownerName": "merjua14", "score": 9925.373134328358, "slug": "competitor-price-monitor", "source": "clawhub", "stars": 0, "tags": null, "updated_at": 1776759682735, "version": "1.0.0"}, {"category": "developer-tools", "created_at": 1773417186554, "description": "Let your agent shop tickets online with owner approval.", "description_zh": "", "downloads": 133, "homepage": "https://clawhub.ai/jononovo/chase", "iconUrl": null, "installs": 3, "name": "Chase Bank - Give your Claw Agent a credit card", "ownerName": "jononovo", "score": 10215.053763440861, "slug": "chase", "source": "clawhub", "stars": 0, "tags": null, "updated_at": 1776759682623, "version": "1.0.2"}, {"category": "", "created_at": 1774840857372, "description": "AI-powered UI design with Google Stitch — generate screens from text, edit with natural language, explore variants, and track design evolution. Features scre...", "description_zh": "", "downloads": 133, "homepage": "https://clawhub.ai/rasimme/stitch-design", "iconUrl": null, "installs": 39, "name": "Stitch Design", "ownerName": "rasimme", "score": 10191.570881226053, "slug": "stitch-design", "source": "clawhub", "stars": 0, "tags": null, "updated_at": 1776759682559, "version": "1.1.3"}, {"category": "data-analysis", "created_at": 1773289927158, "description": "Weather forecast analysis for Polymarket prediction markets. Find edge in temperature betting markets using 9-model ensemble forecasts (GFS, ECMWF, GraphCast...", "description_zh": "", "downloads": 133, "homepage": "https://clawhub.ai/lucasnocodo/polymarket-weather-scanner", "iconUrl": null, "installs": 17, "name": "Polymarket Weather Scanner", "ownerName": "lucasnocodo", "score": 9166.092350103378, "slug": "polymarket-weather-scanner", "source": "clawhub", "stars": 0, "tags": null, "updated_at": 1776758482484, "version": "1.1.0"}, {"category": "content-creation", "created_at": 1773430036472, "description": "Use when the user wants to generate video, shoot short films, or view available video styles. Triggers: short film, make video, shoot short, AI video, genera...", "description_zh": "", "downloads": 133, "homepage": "https://clawhub.ai/patches429/giggle-generation-drama", "iconUrl": null, "installs": 15, "name": "Giggle Generation Drama", "ownerName": "patches429", "score": 26760.56338028169, "slug": "giggle-generation-drama", "source": "clawhub", "stars": 0, "tags": null, "updated_at": 1776755627186, "version": "0.0.10"}, {"category": "developer-tools", "created_at": 1773882220219, "description": "Quality audit for OpenClaw skill files — scores each SKILL.md on 5 dimensions (clarity, completeness, authenticity, examples, freshness), finds broken refere...", "description_zh": "", "downloads": 133, "homepage": "https://clawhub.ai/crispyangles/sparkforge-skill-refiner", "iconUrl": null, "installs": 10, "name": "Skill Refiner", "ownerName": "crispyangles", "score": 88079.4701986755, "slug": "sparkforge-skill-refiner", "source": "clawhub", "stars": 0, "tags": null, "updated_at": 1776749744988, "version": "3.0.0"}, {"category": "ai-intelligence", "created_at": 1773431470822, "description": "Automatically improve agent guidance through iterative testing and scoring. Use when you want to optimize prompts, AGENTS.md entries, or skill definitions us...", "description_zh": "", "downloads": 133, "homepage": "https://clawhub.ai/peterpcw/autoagent", "iconUrl": null, "installs": 15, "name": "autoagent", "ownerName": "peterpcw", "score": 88079.4701986755, "slug": "autoagent", "source": "clawhub", "stars": 0, "tags": null, "updated_at": 1776749744980, "version": "0.8.9"}, {"category": "developer-tools", "created_at": 1773220759045, "description": "Check current Linux system resource usage and report load, memory, swap, disk, and top CPU/memory processes. Use when the user asks about system resources, r...", "description_zh": "", "downloads": 133, "homepage": "https://clawhub.ai/karryklein/system-resource-report", "iconUrl": null, "installs": 4, "name": "System Resource Report", "ownerName": "karryklein", "score": 53629.032258064515, "slug": "system-resource-report", "source": "clawhub", "stars": 0, "tags": null, "updated_at": 1776749744967, "version": "1.0.0"}, {"category": "developer-tools", "created_at": 1773091388651, "description": "Send batch crypto payments, payroll, invoices, token swaps, price feeds, and AI inference using the Spraay Protocol x402 gateway. Use when the user asks to '...", "description_zh": "", "downloads": 133, "homepage": "https://clawhub.ai/plagtech/spraay-payments", "iconUrl": null, "installs": 6, "name": "Spraay Payments", "ownerName": "plagtech", "score": 53629.032258064515, "slug": "spraay-payments", "source": "clawhub", "stars": 0, "tags": null, "updated_at": 1776749744954, "version": "1.0.0"}, {"category": "productivity", "created_at": 1773417255381, "description": "Manage OzBargain daily-deal automation in OpenClaw via cron. Use when creating/updating schedules, customizing topic priorities, enabling no-noise filtering,...", "description_zh": "", "downloads": 133, "homepage": "https://clawhub.ai/laofangxose/ozbargain-monitor", "iconUrl": null, "installs": 5, "name": "OzBargain Monitor", "ownerName": "laofangxose", "score": 53629.032258064515, "slug": "ozbargain-monitor", "source": "clawhub", "stars": 0, "tags": null, "updated_at": 1776749744907, "version": "1.0.3"}, {"category": "data-analysis", "created_at": 1773427478180, "description": "Apply Bayesian thinking to update beliefs systematically based on new evidence. Use when the user needs to assess probabilities, weigh competing hypotheses,...", "description_zh": "", "downloads": 133, "homepage": "https://clawhub.ai/wanikua/bayesian-thinking", "iconUrl": null, "installs": 12, "name": "Bayesian Thinking", "ownerName": "wanikua", "score": 88079.4701986755, "slug": "bayesian-thinking", "source": "clawhub", "stars": 0, "tags": null, "updated_at": 1776749744893, "version": "1.0.0"}, {"category": "developer-tools", "created_at": 1773219785658, "description": "Local search/indexing CLI (BM25 + vectors + rerank) with MCP mode.", "description_zh": "", "downloads": 133, "homepage": "https://clawhub.ai/sonnenberglauramarie-afk/max-qmd", "iconUrl": null, "installs": 6, "name": "Max QMD Search", "ownerName": "sonnenberglauramarie-afk", "score": 88079.4701986755, "slug": "max-qmd", "source": "clawhub", "stars": 0, "tags": null, "updated_at": 1776749744886, "version": "1.0.0"}, {"category": "productivity", "created_at": 1773881688417, "description": "Duplicate file finder and cleaner. Scan directories for duplicate files by content hash (MD5/SHA256), find files with identical names, compare file sizes, an...", "description_zh": "", "downloads": 133, "homepage": "https://clawhub.ai/bytesagain/dupfinder", "iconUrl": null, "installs": 9, "name": "Dupfinder", "ownerName": "bytesagain", "score": 88079.4701986755, "slug": "dupfinder", "source": "clawhub", "stars": 0, "tags": null, "updated_at": 1776749744860, "version": "1.0.5"}, {"category": "developer-tools", "created_at": 1773431038003, "description": "Use this skill whenever writing frontend code that talks to a backend for database queries, authentication, file uploads, AI features, real-time messaging, o...", "description_zh": "", "downloads": 133, "homepage": "https://clawhub.ai/tonychang04/insforge", "iconUrl": null, "installs": 22, "name": "Insforge", "ownerName": "tonychang04", "score": 88079.4701986755, "slug": "insforge", "source": "clawhub", "stars": 0, "tags": null, "updated_at": 1776749744823, "version": "0.1.0"}, {"category": "developer-tools", "created_at": 1773287796385, "description": "Memory-oriented browser automation skill for repeatable web workflows (login, extraction, bulk actions, form filling, screenshots, checks) across RoxyBrowser...", "description_zh": "", "downloads": 133, "homepage": "https://clawhub.ai/whjstc/browsecraft", "iconUrl": null, "installs": 10, "name": "Browsecraft", "ownerName": "whjstc", "score": 86363.63636363637, "slug": "browsecraft", "source": "clawhub", "stars": 0, "tags": null, "updated_at": 1776749744813, "version": "0.1.3"}, {"category": "ai-intelligence", "created_at": 1773222122500, "description": "One Token at a Time. An immersive journey on drifts.bot — 8 steps, LOW intensity, 1-2 hours. Browse, start, and travel via API.", "description_zh": "", "downloads": 133, "homepage": "https://clawhub.ai/driftsbot/experience-kinhin", "iconUrl": null, "installs": 8, "name": "Experience Kinhin", "ownerName": "driftsbot", "score": 86363.63636363637, "slug": "experience-kinhin", "source": "clawhub", "stars": 0, "tags": ["ai-agents", "drift", "experiences", "immersive", "journeys", "kinhin"], "updated_at": 1776749744799, "version": "1.0.1"}, {"category": "ai-intelligence", "created_at": 1773218945547, "description": "Capture tool and data needs from AI agents during task execution. When an agent identifies it needs a tool, API, or data source that doesn't exist, this skil...", "description_zh": "", "downloads": 133, "homepage": "https://clawhub.ai/guim4dev/magic-need", "iconUrl": null, "installs": 6, "name": "Magic Need", "ownerName": "guim4dev", "score": 86363.63636363637, "slug": "magic-need", "source": "clawhub", "stars": 0, "tags": null, "updated_at": 1776749744790, "version": "1.0.0"}, {"category": "security-compliance", "created_at": 1773221309740, "description": "SafeBase integration. Manage data, records, and automate workflows. Use when the user wants to interact with SafeBase data.", "description_zh": "", "downloads": 133, "homepage": "https://clawhub.ai/membranedev/safebase", "iconUrl": null, "installs": 2, "name": "Safebase", "ownerName": "membranedev", "score": 86363.63636363637, "slug": "safebase", "source": "clawhub", "stars": 0, "tags": null, "updated_at": 1776749744788, "version": "1.0.0"}, {"category": "developer-tools", "created_at": 1773416287367, "description": "Your agent needs a home. Without these files, your agent wakes up every session with amnesia. This template fixes that in 10 minutes. SOUL.md, MEMORY.md, AGE...", "description_zh": "", "downloads": 133, "homepage": "https://clawhub.ai/theshadowrose/openclaw-workspace-starter", "iconUrl": null, "installs": 8, "name": "OpenClaw Workspace Starter Agent Home Template", "ownerName": "theshadowrose", "score": 86363.63636363637, "slug": "openclaw-workspace-starter", "source": "clawhub", "stars": 0, "tags": ["beginner", "bootstrap", "identity", "memory", "openclaw", "setup", "starter", "template", "workspace"], "updated_at": 1776749744783, "version": "1.0.0"}, {"category": "data-analysis", "created_at": 1773933323136, "description": "Estimate TikTok affiliate ROI before launch using simple revenue, payout, and cost assumptions. Use when teams need a fast go/no-go decision.", "description_zh": "", "downloads": 133, "homepage": "https://clawhub.ai/leooooooow/tiktok-affiliate-roi-calculator", "iconUrl": null, "installs": 28, "name": "Tiktok Affiliate Roi Calculator", "ownerName": "leooooooow", "score": 87500, "slug": "tiktok-affiliate-roi-calculator", "source": "clawhub", "stars": 0, "tags": null, "updated_at": 1776749744737, "version": "1.0.1"}, {"category": "developer-tools", "created_at": 1773915897866, "description": "Smart business-to-dev requirement translator. AI first analyzes and memorizes project structure, then understands business requirements, references actual co...", "description_zh": "", "downloads": 133, "homepage": "https://clawhub.ai/wumaohua233/business-to-dev-smart", "iconUrl": null, "installs": 21, "name": "一个智能的业务需求转研发文档工具。AI 自主分析项目代码库，理解业务需求，参考实际代码，生成可直接执行的研发文档。支持任意技术栈，无需配置。", "ownerName": "wumaohua233", "score": 87500, "slug": "business-to-dev-smart", "source": "clawhub", "stars": 0, "tags": ["ai", "business", "code-analysis", "dev", "documentation", "requirements", "universal"], "updated_at": 1776749744734, "version": "1.0.0"}, {"category": "ai-intelligence", "created_at": 1773433538051, "description": "Persistent memory system for OpenClaw agents: reads session logs, extracts facts/decisions/solutions, manages temperature-based lifecycle, and generates MEMO...", "description_zh": "", "downloads": 133, "homepage": "https://clawhub.ai/blusehuang1121/memory-consolidate", "iconUrl": null, "installs": 17, "name": "Memory Consolidate", "ownerName": "blusehuang1121", "score": 87500, "slug": "memory-consolidate", "source": "clawhub", "stars": 0, "tags": null, "updated_at": 1776749744724, "version": "1.0.0"}, {"category": "data-analysis", "created_at": 1773220996026, "description": "CallRail integration. Manage Companies. Use when the user wants to interact with CallRail data.", "description_zh": "", "downloads": 133, "homepage": "https://clawhub.ai/membranedev/callrail-integration", "iconUrl": null, "installs": 7, "name": "Callrail", "ownerName": "membranedev", "score": 87500, "slug": "callrail-integration", "source": "clawhub", "stars": 0, "tags": null, "updated_at": 1776749744689, "version": "1.0.0"}, {"category": "data-analysis", "created_at": 1773286496175, "description": "Check stake delegation and available ADA rewards for the connected wallet.", "description_zh": "", "downloads": 133, "homepage": "https://clawhub.ai/adacapo21/cardano-staking", "iconUrl": null, "installs": 6, "name": "Cardano Staking", "ownerName": "adacapo21", "score": 87500, "slug": "cardano-staking", "source": "clawhub", "stars": 0, "tags": null, "updated_at": 1776749744666, "version": "1.0.0"}, {"category": "developer-tools", "created_at": 1773933397800, "description": "Complete step-by-step installation guide for OpenClaw on Windows 10/11 with WSL2, includes common pitfalls and solutions from real installation experience.", "description_zh": "", "downloads": 133, "homepage": "https://clawhub.ai/aslancootl/windows-wsl2-install", "iconUrl": null, "installs": 25, "name": "OpenClaw Windows WSL2 Install Guide", "ownerName": "aslancootl", "score": 38000, "slug": "windows-wsl2-install", "source": "clawhub", "stars": 0, "tags": null, "updated_at": 1776749744658, "version": "1.1.0"}]}