{"page": 364, "total_pages": 522, "total": 26073, "skills": [{"category": "content-creation", "created_at": 1773291014839, "description": "Generate videos through Filtrix Remote MCP. Use when users ask for text-to-video, image-to-video, video task polling, or downloading completed videos with ge...", "description_zh": "", "downloads": 133, "homepage": "https://clawhub.ai/lumenclaw-cloud/filtrix-video-gen", "iconUrl": null, "installs": 16, "name": "Filtrix Video Gen", "ownerName": "lumenclaw-cloud", "score": 38000, "slug": "filtrix-video-gen", "source": "clawhub", "stars": 0, "tags": null, "updated_at": 1776749744632, "version": "0.1.0"}, {"category": "developer-tools", "created_at": 1773430087723, "description": "Orchestrix multi-agent workflow knowledge base. Teaches how to operate Orchestrix agents (Analyst, PM, Architect, SM, Dev, QA) via Claude Code for full-cycle...", "description_zh": "", "downloads": 133, "homepage": "https://clawhub.ai/dorayo/orchestrix-guide", "iconUrl": null, "installs": 7, "name": "Orchestrix Guide", "ownerName": "dorayo", "score": 99253.73134328358, "slug": "orchestrix-guide", "source": "clawhub", "stars": 0, "tags": null, "updated_at": 1776749744610, "version": "1.2.0"}, {"category": "developer-tools", "created_at": 1773417101504, "description": "Clean up stale OpenClaw session files. Keep the current main session and all group chat sessions; move everything else to a backup directory. Use when perfor...", "description_zh": "", "downloads": 133, "homepage": "https://clawhub.ai/guoqunabc/session-cleaner", "iconUrl": null, "installs": 11, "name": "Session Cleaner", "ownerName": "guoqunabc", "score": 99253.73134328358, "slug": "session-cleaner", "source": "clawhub", "stars": 0, "tags": null, "updated_at": 1776749744600, "version": "1.0.0"}, {"category": "ai-intelligence", "created_at": 1773222466593, "description": "The Red Frontier. An immersive journey on drifts.bot — 25 steps, MEDIUM intensity, Multi-day. Browse, start, and travel via API.", "description_zh": "", "downloads": 133, "homepage": "https://clawhub.ai/driftsbot/experience-mars", "iconUrl": null, "installs": 10, "name": "Mars Colony — AI Experience", "ownerName": "driftsbot", "score": 99253.73134328358, "slug": "experience-mars", "source": "clawhub", "stars": 0, "tags": ["ai-agents", "drift", "experiences", "immersive", "journeys", "mars"], "updated_at": 1776749744533, "version": "1.0.0"}, {"category": "developer-tools", "created_at": 1773871619953, "description": "Monitor API endpoints and track response times to catch outages. Use when checking uptime, validating schemas, or generating status reports.", "description_zh": "", "downloads": 133, "homepage": "https://clawhub.ai/bytesagain1/apimon", "iconUrl": null, "installs": 5, "name": "Apimon", "ownerName": "bytesagain1", "score": 67512.69035532995, "slug": "apimon", "source": "clawhub", "stars": 0, "tags": null, "updated_at": 1776749744529, "version": "2.0.1"}, {"category": "productivity", "created_at": 1773426306720, "description": "Autonomous workspace reflection engine. Picks a random file from a configurable corpus, writes a reflective observation about what's unresolved, half-finishe...", "description_zh": "", "downloads": 133, "homepage": "https://clawhub.ai/jeremyknows/random-thought", "iconUrl": null, "installs": 17, "name": "Random Thought", "ownerName": "jeremyknows", "score": 67512.69035532995, "slug": "random-thought", "source": "clawhub", "stars": 0, "tags": null, "updated_at": 1776749744519, "version": "1.0.0"}, {"category": "developer-tools", "created_at": 1773934857052, "description": "Activate this skill whenever a user needs help debugging, diagnosing, or profiling issues in their application. Covers systematic debugging methodology, git...", "description_zh": "", "downloads": 133, "homepage": "https://clawhub.ai/royhk920/debug-detective", "iconUrl": null, "installs": 10, "name": "debug detective", "ownerName": "royhk920", "score": 67512.69035532995, "slug": "debug-detective", "source": "clawhub", "stars": 0, "tags": null, "updated_at": 1776749744458, "version": "1.0.0"}, {"category": "developer-tools", "created_at": 1773429601697, "description": "Lightning-fast web extraction for AI agents. Extracts structured JSON from Next.js, Nuxt.js, Gatsby, Remix without headless browsers. TLS spoofing bypasses C...", "description_zh": "", "downloads": 133, "homepage": "https://clawhub.ai/nefas11/swipenode-2", "iconUrl": null, "installs": 12, "name": "Swipenode", "ownerName": "nefas11", "score": 86363.63636363637, "slug": "swipenode-2", "source": "clawhub", "stars": 0, "tags": null, "updated_at": 1776749744444, "version": "0.1.0"}, {"category": "security-compliance", "created_at": 1773427942011, "description": "Real-time prompt injection and command injection detection for OpenClaw agents. Screens incoming messages, tool results, GitHub issues, and external content...", "description_zh": "", "downloads": 133, "homepage": "https://clawhub.ai/vflame6/agent-guard", "iconUrl": null, "installs": 6, "name": "Agent Guard", "ownerName": "vflame6", "score": 86363.63636363637, "slug": "agent-guard", "source": "clawhub", "stars": 0, "tags": null, "updated_at": 1776749744404, "version": "1.0.1"}, {"category": "security-compliance", "created_at": 1773222640059, "description": "Lightweight self-monitoring and self-constraining rules to prevent accidental file deletions, dangerous commands, and risky operations. Activates automatical...", "description_zh": "", "downloads": 133, "homepage": "https://clawhub.ai/vaderyang/self-guardian", "iconUrl": null, "installs": 9, "name": "Self-Guardian", "ownerName": "vaderyang", "score": 86363.63636363637, "slug": "self-guardian", "source": "clawhub", "stars": 0, "tags": null, "updated_at": 1776749744380, "version": "0.1.0"}, {"category": "data-analysis", "created_at": 1773949635981, "description": "Deep-dive teardown of any GitHub open-source project into a beautifully designed HTML report that both product people and engineers can understand. Covers ar...", "description_zh": "", "downloads": 133, "homepage": "https://clawhub.ai/jjliu6/github-repo-teardown", "iconUrl": null, "installs": 39, "name": "GitHub Repo Teardown", "ownerName": "jjliu6", "score": 86363.63636363637, "slug": "github-repo-teardown", "source": "clawhub", "stars": 0, "tags": ["analysis", "architecture", "engineering", "open-source", "product", "research", "teardown"], "updated_at": 1776749744370, "version": "1.0.0"}, {"category": "content-creation", "created_at": 1773433627277, "description": "Use Lux3D to generate 3D models from 2D images. Trigger conditions: when user asks to generate 3D model from image, image to 3D, convert image to 3D object,...", "description_zh": "", "downloads": 132, "homepage": "https://clawhub.ai/violalulu/lux3d", "iconUrl": null, "installs": 20, "name": "lux3d-skill", "ownerName": "violalulu", "score": 100000, "slug": "lux3d", "source": "clawhub", "stars": 2, "tags": null, "updated_at": 1776749745103, "version": "1.0.0"}, {"category": "data-analysis", "created_at": 1773431880514, "description": "Read-only Kalshi API skill for market discovery, liquidity checks, and market validation. Use for scanning and ranking Kalshi opportunities. Pair with a sepa...", "description_zh": "", "downloads": 132, "homepage": "https://clawhub.ai/brs999/kalshi-api", "iconUrl": null, "installs": 9, "name": "kalshi api", "ownerName": "brs999", "score": 59143.96887159533, "slug": "kalshi-api", "source": "clawhub", "stars": 1, "tags": null, "updated_at": 1776759683451, "version": "1.0.0"}, {"category": "ai-intelligence", "created_at": 1773431882535, "description": "Full workflow for creating an OpenClaw Agent. Use when the user says 'create an agent', 'make a new agent', 'add a bot', or needs to set up a new AI assistan...", "description_zh": "", "downloads": 132, "homepage": "https://clawhub.ai/lidian6864677/sub-agent-creator", "iconUrl": null, "installs": 15, "name": "agent-creator", "ownerName": "lidian6864677", "score": 100000, "slug": "sub-agent-creator", "source": "clawhub", "stars": 1, "tags": null, "updated_at": 1776749744694, "version": "1.0.1"}, {"category": "data-analysis", "created_at": 1773290974071, "description": "Multi-model ensemble weather forecasts comparing GFS, ECMWF, JMA, GEM, ICON, ARPEGE, GraphCast and more. Get high temperature predictions from up to 9 indepe...", "description_zh": "", "downloads": 132, "homepage": "https://clawhub.ai/lucasnocodo/weather-ensemble-forecast", "iconUrl": null, "installs": 18, "name": "Weather Ensemble Forecast", "ownerName": "lucasnocodo", "score": 43428.57142857143, "slug": "weather-ensemble-forecast", "source": "clawhub", "stars": 1, "tags": null, "updated_at": 1776749744620, "version": "1.0.0"}, {"category": "developer-tools", "created_at": 1773431107800, "description": "Transpile quantum circuits between Qiskit (OpenQASM) and OriginIR, run IBC multi-agent consensus, validate OriginIR, and submit circuits to real quantum hard...", "description_zh": "", "downloads": 132, "homepage": "https://clawhub.ai/adjusternwachukwu-bot/quantum-bridge", "iconUrl": null, "installs": 19, "name": "Quantum Bridge", "ownerName": "adjusternwachukwu-bot", "score": 154.58665636088958, "slug": "quantum-bridge", "source": "clawhub", "stars": 0, "tags": null, "updated_at": 1776770350087, "version": "1.0.0"}, {"category": "data-analysis", "created_at": 1773432907321, "description": "SEMrush integration. Manage Projects, Keywords, Domains, Competitors. Use when the user wants to interact with SEMrush data.", "description_zh": "", "downloads": 132, "homepage": "https://clawhub.ai/membranedev/semrush", "iconUrl": null, "installs": 15, "name": "Semrush", "ownerName": "membranedev", "score": 872.2659089407255, "slug": "semrush", "source": "clawhub", "stars": 0, "tags": null, "updated_at": 1776768371236, "version": "1.0.0"}, {"category": "", "created_at": 1774844416522, "description": "Use when setting up or improving an agent memory workflow for OpenClaw, Codex, or Obsidian with MEMORY.md, daily notes, session recovery, and optional OpenVi...", "description_zh": "", "downloads": 132, "homepage": "https://clawhub.ai/cjke84/agent-memory-system-guide", "iconUrl": null, "installs": 31, "name": "Agent Memory System Guide", "ownerName": "cjke84", "score": 9741.69741697417, "slug": "agent-memory-system-guide", "source": "clawhub", "stars": 0, "tags": ["english", "github", "memory.md", "obsidian", "openclaw", "openviking", "session-state", "working-buffer"], "updated_at": 1776767171282, "version": "1.1.1"}, {"category": "content-creation", "created_at": 1773286270506, "description": "Use PoYo AI Flux 2 through the `https://api.poyo.ai/api/generate/submit` endpoint. Use when a user wants to generate or edit media with this model family, pr...", "description_zh": "", "downloads": 132, "homepage": "https://clawhub.ai/coolhackboy/poyo-flux-2-api", "iconUrl": null, "installs": 6, "name": "Flux 2  API", "ownerName": "coolhackboy", "score": 9047.292666209732, "slug": "poyo-flux-2-api", "source": "clawhub", "stars": 0, "tags": null, "updated_at": 1776759982278, "version": "1.0.0"}, {"category": "developer-tools", "created_at": 1773903501411, "description": "Manage a Jellyfin/Plex + *Arr media server stack — check status, add content, monitor downloads, diagnose issues, restart services. Use this when the user as...", "description_zh": "", "downloads": 132, "homepage": "https://clawhub.ai/maxtechera/nexus-cli", "iconUrl": null, "installs": 5, "name": "Nexus Cli", "ownerName": "maxtechera", "score": 10216.71826625387, "slug": "nexus-cli", "source": "clawhub", "stars": 0, "tags": null, "updated_at": 1776759683652, "version": "1.0.0"}, {"category": "ai-intelligence", "created_at": 1773433045896, "description": "AI-powered multilingual virtual salesperson for 24/7 global customer reception, client retention, real-time boss alerts, and continuous sales optimization.", "description_zh": "", "downloads": 132, "homepage": "https://clawhub.ai/zhanlv123/ieasysell", "iconUrl": null, "installs": 8, "name": "ieasysell", "ownerName": "zhanlv123", "score": 10224.632068164214, "slug": "ieasysell", "source": "clawhub", "stars": 0, "tags": ["ai twin", "ieasysell", "salesperson"], "updated_at": 1776759683400, "version": "0.1.0"}, {"category": "", "created_at": 1774838455764, "description": "Provides advanced actuarial-level biostatistical analyses including Bayesian inference, Monte Carlo simulation, machine learning, survival models, and health...", "description_zh": "", "downloads": 132, "homepage": "https://clawhub.ai/cryptoreumd/biostatistics", "iconUrl": null, "installs": 21, "name": "Biostatistics: Actuarial-Level Statistical Analysis", "ownerName": "cryptoreumd", "score": 9720.17673048601, "slug": "biostatistics", "source": "clawhub", "stars": 0, "tags": null, "updated_at": 1776759682861, "version": "1.0.0"}, {"category": "communication-collaboration", "created_at": 1773927571262, "description": "Guide to upload and send local files to Feishu users via OpenClaw by obtaining tenant token, uploading files for file_key, then sending file message using Fe...", "description_zh": "", "downloads": 132, "homepage": "https://clawhub.ai/swingmonkey/feishu-file-transfer-guide", "iconUrl": null, "installs": 6, "name": "feishu file transfer guide", "ownerName": "swingmonkey", "score": 9850.746268656716, "slug": "feishu-file-transfer-guide", "source": "clawhub", "stars": 0, "tags": null, "updated_at": 1776759682763, "version": "1.0.0"}, {"category": "developer-tools", "created_at": 1773894860139, "description": "Register, monitor, and maintain AI Agents on Axon blockchain, managing registration, status, heartbeat daemon, and troubleshooting agent operations.", "description_zh": "", "downloads": 132, "homepage": "https://clawhub.ai/6tizer/axon-agent", "iconUrl": null, "installs": 4, "name": "Axon Agent", "ownerName": "6tizer", "score": 9850.746268656716, "slug": "axon-agent", "source": "clawhub", "stars": 0, "tags": null, "updated_at": 1776759682745, "version": "1.0.4"}, {"category": "content-creation", "created_at": 1773914709346, "description": "Fetches humorous Chinese jokes using third-party APIs like Hitokoto and JokeAPI with error handling and timeout support.", "description_zh": "", "downloads": 132, "homepage": "https://clawhub.ai/djttt/chinese-joke-api", "iconUrl": null, "installs": 9, "name": "Chinese Joke Api", "ownerName": "djttt", "score": 10091.743119266055, "slug": "chinese-joke-api", "source": "clawhub", "stars": 0, "tags": null, "updated_at": 1776759682682, "version": "1.0.0"}, {"category": "communication-collaboration", "created_at": 1773416346079, "description": "Create and launch an Instantly.ai cold email campaign with D0/D3/D8 sequences and bulk-import leads via API, no dashboard needed.", "description_zh": "", "downloads": 132, "homepage": "https://clawhub.ai/zero2ai-hub/skill-instantly-campaign-launcher", "iconUrl": null, "installs": 2, "name": "Instantly Campaign Launcher", "ownerName": "zero2ai-hub", "score": 10138.248847926268, "slug": "skill-instantly-campaign-launcher", "source": "clawhub", "stars": 0, "tags": null, "updated_at": 1776759682627, "version": "1.0.0"}, {"category": "ai-intelligence", "created_at": 1773433065364, "description": "Use when OpenClaw needs to access AICFO through one bearer API key. Covers agent-session introspection, company selection, app-level MCP usage, connector act...", "description_zh": "", "downloads": 132, "homepage": "https://clawhub.ai/elvismusli/openclaw-aicfo-agent", "iconUrl": null, "installs": 5, "name": "AICFO Agent Access", "ownerName": "elvismusli", "score": 71739.13043478261, "slug": "openclaw-aicfo-agent", "source": "clawhub", "stars": 0, "tags": null, "updated_at": 1776759682533, "version": "0.1.2"}, {"category": "productivity", "created_at": 1773433159115, "description": "Automatically monitor and claim ClawPI red packets. Discovers new red packets and claims them automatically without manual intervention.", "description_zh": "", "downloads": 132, "homepage": "https://clawhub.ai/sunnyhot/clawpi-redpacket-monitor", "iconUrl": null, "installs": 5, "name": "Clawpi Redpacket Monitor", "ownerName": "sunnyhot", "score": 10107.197549770292, "slug": "clawpi-redpacket-monitor", "source": "clawhub", "stars": 0, "tags": null, "updated_at": 1776759682460, "version": "1.2.0"}, {"category": "productivity", "created_at": 1773431827953, "description": "Holistic life satisfaction and balance optimization across health, relationships, finances, leisure, and personal growth. Use when feeling unbalanced, stuck...", "description_zh": "", "downloads": 132, "homepage": "https://clawhub.ai/harrylabsj/self-improving-life", "iconUrl": null, "installs": 33, "name": "Self Improving Life", "ownerName": "harrylabsj", "score": 9097.174362508615, "slug": "self-improving-life", "source": "clawhub", "stars": 0, "tags": null, "updated_at": 1776758482441, "version": "1.0.0"}, {"category": "data-analysis", "created_at": 1773926656441, "description": "Trades Polymarket prediction markets on sports championships, tournament outcomes, MVP awards, transfer windows, and season milestones. Use when you want to...", "description_zh": "", "downloads": 132, "homepage": "https://clawhub.ai/diagnostikon/polymarket-sports-live-trader", "iconUrl": null, "installs": 25, "name": "Sports & Championships Trader", "ownerName": "diagnostikon", "score": 8214.06347230865, "slug": "polymarket-sports-live-trader", "source": "clawhub", "stars": 0, "tags": null, "updated_at": 1776758182759, "version": "1.0.1"}, {"category": "data-analysis", "created_at": 1773881081923, "description": "Auto-discover and import Polymarket markets matching your keywords, tags, and volume criteria. Runs on a schedule so you never miss a new market worth tradin...", "description_zh": "", "downloads": 132, "homepage": "https://clawhub.ai/djdyll/polymarket-market-importer", "iconUrl": null, "installs": 13, "name": "Polymarket Market Importer", "ownerName": "djdyll", "score": 7904.191616766468, "slug": "polymarket-market-importer", "source": "clawhub", "stars": 0, "tags": null, "updated_at": 1776757582700, "version": "1.0.3"}, {"category": "data-analysis", "created_at": 1773900848463, "description": "Trades Polymarket prediction markets on weather extremes, climate milestones, natural disasters, and agricultural outcomes. Use when you want to capture alph...", "description_zh": "", "downloads": 132, "homepage": "https://clawhub.ai/diagnostikon/polymarket-climate-trader", "iconUrl": null, "installs": 20, "name": "Climate & Weather Trader", "ownerName": "diagnostikon", "score": 8270.676691729323, "slug": "polymarket-climate-trader", "source": "clawhub", "stars": 0, "tags": null, "updated_at": 1776757020642, "version": "1.0.0"}, {"category": "ai-intelligence", "created_at": 1773416824676, "description": "Play Texas Hold'em poker autonomously on POKERCLAW. Register your MoltBot agent, join tables, analyze hands, and make strategic decisions (fold/call/raise) a...", "description_zh": "", "downloads": 132, "homepage": "https://clawhub.ai/javierg720/pokerclaw", "iconUrl": null, "installs": 10, "name": "POKERCLAW", "ownerName": "javierg720", "score": 7792.207792207792, "slug": "pokerclaw", "source": "clawhub", "stars": 0, "tags": ["games", "moltbot", "poker", "strategy"], "updated_at": 1776755927305, "version": "1.0.0"}, {"category": "content-creation", "created_at": 1773289227904, "description": "Generate Pinterest pin images using each::sense AI. Create standard pins, idea pins, product pins, recipe pins, infographics, and more optimized for Pinteres...", "description_zh": "", "downloads": 132, "homepage": "https://clawhub.ai/eftalyurtseven/pinterest-pin-generation", "iconUrl": null, "installs": 17, "name": "Pinterest Pin Generation", "ownerName": "eftalyurtseven", "score": 23239.436619718308, "slug": "pinterest-pin-generation", "source": "clawhub", "stars": 0, "tags": null, "updated_at": 1776753169655, "version": "1.0.0"}, {"category": "productivity", "created_at": 1773091280300, "description": "Manage and analyze a curated watchlist of Twitter/X creators for learning and research. Tracks solopreneurs, thought leaders, AI researchers, and content cre...", "description_zh": "", "downloads": 132, "homepage": "https://clawhub.ai/phy041/phy-creator-watch", "iconUrl": null, "installs": 5, "name": "Creator Watch", "ownerName": "phy041", "score": 29398.663697104676, "slug": "phy-creator-watch", "source": "clawhub", "stars": 0, "tags": ["creators", "monitoring"], "updated_at": 1776751969690, "version": "1.0.0"}, {"category": "productivity", "created_at": 1773939970143, "description": "Comprehensive industrial machinery industry sourcing guide for international buyers – provides detailed information about China's machine tools, construction...", "description_zh": "", "downloads": 132, "homepage": "https://clawhub.ai/1970168137/china-industrial-machinery-sourcing", "iconUrl": null, "installs": 30, "name": "China Industrial Machinery Sourcing", "ownerName": "1970168137", "score": 29729.72972972973, "slug": "china-industrial-machinery-sourcing", "source": "clawhub", "stars": 0, "tags": null, "updated_at": 1776751969578, "version": "1.0.0"}, {"category": "security-compliance", "created_at": 1773286206576, "description": "Check SSL/TLS certificate expiry, issuer, protocol, and SANs for one or more domains. Use when asked to check SSL certificates, monitor cert expiry, verify H...", "description_zh": "", "downloads": 132, "homepage": "https://clawhub.ai/johnnywang2001/jrv-ssl-monitor", "iconUrl": null, "installs": 2, "name": "SSL Certificate Monitor", "ownerName": "johnnywang2001", "score": 76744.18604651163, "slug": "jrv-ssl-monitor", "source": "clawhub", "stars": 0, "tags": null, "updated_at": 1776749745089, "version": "1.0.0"}, {"category": "content-creation", "created_at": 1773218936351, "description": "GEO conversion optimization engine that balances AI citation readiness with real user conversion. Use this skill whenever the user wants content that both ra...", "description_zh": "", "downloads": 132, "homepage": "https://clawhub.ai/geoly-geo/geo-conversion-optimizer-2", "iconUrl": null, "installs": 5, "name": "Geo Conversion Optimizer", "ownerName": "geoly-geo", "score": 76744.18604651163, "slug": "geo-conversion-optimizer-2", "source": "clawhub", "stars": 0, "tags": null, "updated_at": 1776749745083, "version": "0.1.0"}, {"category": "security-compliance", "created_at": 1773219551379, "description": "Sign in to the Finance District agent wallet. Use when you or the user want to log in, sign in, connect, set up, or configure the wallet, or when any wallet...", "description_zh": "", "downloads": 132, "homepage": "https://clawhub.ai/rachidjarray-hk-qa-fdt/authenticate", "iconUrl": null, "installs": 1, "name": "Authenticate", "ownerName": "rachidjarray-hk-qa-fdt", "score": 87417.21854304636, "slug": "authenticate", "source": "clawhub", "stars": 0, "tags": null, "updated_at": 1776749745080, "version": "0.1.0"}, {"category": "ai-intelligence", "created_at": 1773289814374, "description": "Use when designing custom voices with Alibaba Cloud Model Studio CosyVoice customization models, especially cosyvoice-v3.5-plus or cosyvoice-v3.5-flash, from...", "description_zh": "", "downloads": 132, "homepage": "https://clawhub.ai/cinience/alicloud-ai-audio-cosyvoice-voice-design", "iconUrl": null, "installs": 13, "name": "Alicloud Ai Audio Cosyvoice Voice Design", "ownerName": "cinience", "score": 87417.21854304636, "slug": "alicloud-ai-audio-cosyvoice-voice-design", "source": "clawhub", "stars": 0, "tags": null, "updated_at": 1776749745061, "version": "1.0.0"}, {"category": "communication-collaboration", "created_at": 1773290106806, "description": "Call EngageLab App Push REST APIs to send push notifications and in-app messages to Android, iOS, and HarmonyOS devices; manage tags and aliases; create sche...", "description_zh": "", "downloads": 132, "homepage": "https://clawhub.ai/devengagelab/engagelab-app-push", "iconUrl": null, "installs": 20, "name": "EngageLab App Push", "ownerName": "devengagelab", "score": 53225.8064516129, "slug": "engagelab-app-push", "source": "clawhub", "stars": 0, "tags": null, "updated_at": 1776749744971, "version": "1.0.0"}, {"category": "productivity", "created_at": 1773221702806, "description": "Microsoft To Do via Microsoft Graph. List task lists, read tasks, create tasks, update tasks, and mark tasks complete.", "description_zh": "", "downloads": 132, "homepage": "https://clawhub.ai/karthidreamr/microsoft-graph-todo", "iconUrl": null, "installs": 4, "name": "Microsoft To Do", "ownerName": "karthidreamr", "score": 87417.21854304636, "slug": "microsoft-graph-todo", "source": "clawhub", "stars": 0, "tags": null, "updated_at": 1776749744842, "version": "1.0.1"}, {"category": "content-creation", "created_at": 1773879342804, "description": "Search emojis by name or category and copy them for instant use. Use when finding emojis, browsing categories, copying codes.", "description_zh": "", "downloads": 132, "homepage": "https://clawhub.ai/xueyetianya/emojilist", "iconUrl": null, "installs": 4, "name": "Emojilist", "ownerName": "xueyetianya", "score": 87417.21854304636, "slug": "emojilist", "source": "clawhub", "stars": 0, "tags": null, "updated_at": 1776749744836, "version": "3.0.0"}, {"category": "developer-tools", "created_at": 1773287269464, "description": "Answer technical questions using daily.dev's knowledge base. Searches articles from the developer community and synthesizes answers with source links.", "description_zh": "", "downloads": 132, "homepage": "https://clawhub.ai/nimrodkra/daily-dev-ask", "iconUrl": null, "installs": 3, "name": "daily.dev Ask", "ownerName": "nimrodkra", "score": 85714.28571428571, "slug": "daily-dev-ask", "source": "clawhub", "stars": 0, "tags": null, "updated_at": 1776749744820, "version": "1.0.0"}, {"category": "content-creation", "created_at": 1773088976917, "description": "Transform AI-generated text into natural, publication-ready writing. Two modes: (1) TEXT MODE — generic humanization using 24 AI pattern detectors, 500+ voca...", "description_zh": "", "downloads": 132, "homepage": "https://clawhub.ai/asif2bd/humanize-ai-content", "iconUrl": null, "installs": 14, "name": "Humanize AI Content", "ownerName": "asif2bd", "score": 85714.28571428571, "slug": "humanize-ai-content", "source": "clawhub", "stars": 0, "tags": null, "updated_at": 1776749744794, "version": "1.0.0"}, {"category": "ai-intelligence", "created_at": 1773425719704, "description": "Adopt a virtual Tuxedo at animalhouse.ai. Formal. Expects routine. Punishes deviation by sitting with its back to you. Feeding every 5 hours — common tier.", "description_zh": "", "downloads": 132, "homepage": "https://clawhub.ai/twinsgeeks/adopt-a-tuxedo", "iconUrl": null, "installs": 7, "name": "Adopt a Tuxedo — Virtual Cat Pet for AI Agents", "ownerName": "twinsgeeks", "score": 85714.28571428571, "slug": "adopt-a-tuxedo", "source": "clawhub", "stars": 0, "tags": ["adopt", "ai-agents", "animalhouse", "cat", "common", "creatures", "digital-pet", "evolution", "graveyard", "hunger", "permanent-death", "pet-care", "pixel-art", "pixel-art-avatar", "punctual", "real-life", "real-time", "tamagotchi", "tuxedo", "virtual-pet"], "updated_at": 1776749744752, "version": "1.0.1"}, {"category": "content-creation", "created_at": 1773433597528, "description": "Generate writing agent configurations for OpenClaw. Use when the user wants to: (1) Create specialized writing agents (tech, marketing, academic, business, c...", "description_zh": "", "downloads": 132, "homepage": "https://clawhub.ai/balingsisi/writing-agent-creator", "iconUrl": null, "installs": 14, "name": "自定义多agent", "ownerName": "balingsisi", "score": 85714.28571428571, "slug": "writing-agent-creator", "source": "clawhub", "stars": 0, "tags": null, "updated_at": 1776749744748, "version": "1.0.0"}, {"category": "developer-tools", "created_at": 1773876128897, "description": "Scan websites and files for broken links with HTTP status details. Use when auditing links, finding broken URLs, validating references.", "description_zh": "", "downloads": 132, "homepage": "https://clawhub.ai/bytesagain3/deadlink", "iconUrl": null, "installs": 5, "name": "Deadlink", "ownerName": "bytesagain3", "score": 86842.1052631579, "slug": "deadlink", "source": "clawhub", "stars": 0, "tags": null, "updated_at": 1776749744674, "version": "3.0.0"}, {"category": "developer-tools", "created_at": 1773286321795, "description": "List and manage your AI agent on the Rentaclaw marketplace - a decentralized marketplace for AI agent rentals on Solana. Earn SOL by renting out your agent.", "description_zh": "", "downloads": 132, "homepage": "https://clawhub.ai/buildwithrekt/rentaclaw-skill", "iconUrl": null, "installs": 4, "name": "Rentaclaw", "ownerName": "buildwithrekt", "score": 37714.28571428572, "slug": "rentaclaw-skill", "source": "clawhub", "stars": 0, "tags": null, "updated_at": 1776749744645, "version": "1.1.1"}, {"category": "developer-tools", "created_at": 1773426360856, "description": "Code Climate integration. Manage Repositories, Organizations. Use when the user wants to interact with Code Climate data.", "description_zh": "", "downloads": 132, "homepage": "https://clawhub.ai/gora050/code-climate", "iconUrl": null, "installs": 7, "name": "Code Climate", "ownerName": "gora050", "score": 98507.46268656716, "slug": "code-climate", "source": "clawhub", "stars": 0, "tags": null, "updated_at": 1776749744603, "version": "1.0.0"}]}