{"page": 365, "total_pages": 522, "total": 26073, "skills": [{"category": "productivity", "created_at": 1773221061971, "description": "Guru integration. Manage Organizations. Use when the user wants to interact with Guru data.", "description_zh": "", "downloads": 132, "homepage": "https://clawhub.ai/membranedev/guru", "iconUrl": null, "installs": 5, "name": "Guru", "ownerName": "membranedev", "score": 98507.46268656716, "slug": "guru", "source": "clawhub", "stars": 0, "tags": null, "updated_at": 1776749744552, "version": "1.0.0"}, {"category": "productivity", "created_at": 1773221262150, "description": "capture daily-life notes into markdown and sqlite. use when the user wants to record one or more life entries such as expenses, completed tasks, schedules, r...", "description_zh": "", "downloads": 132, "homepage": "https://clawhub.ai/epitomizelu/life-capture", "iconUrl": null, "installs": 3, "name": "Life Capture", "ownerName": "epitomizelu", "score": 98507.46268656716, "slug": "life-capture", "source": "clawhub", "stars": 0, "tags": null, "updated_at": 1776749744548, "version": "1.0.0"}, {"category": "data-analysis", "created_at": 1773417695730, "description": "When the user wants to track AI search traffic in GA4 or GSC. Also use when the user mentions \"AI traffic,\" \"ChatGPT referral,\" \"Perplexity traffic,\" \"AI Ove...", "description_zh": "", "downloads": 132, "homepage": "https://clawhub.ai/kostja94/ai-traffic", "iconUrl": null, "installs": 14, "name": "Ai Traffic Tracking", "ownerName": "kostja94", "score": 98507.46268656716, "slug": "ai-traffic", "source": "clawhub", "stars": 0, "tags": null, "updated_at": 1776749744546, "version": "0.1.0"}, {"category": "developer-tools", "created_at": 1773078666963, "description": "Resume multi-session projects with full context retention. Use when returning to previous work, needing conversation history, recalling past decisions, or br...", "description_zh": "", "downloads": 132, "homepage": "https://clawhub.ai/hykhor0601/context-bridge", "iconUrl": null, "installs": 4, "name": "context-bridge", "ownerName": "hykhor0601", "score": 85714.28571428571, "slug": "context-bridge", "source": "clawhub", "stars": 0, "tags": null, "updated_at": 1776749744437, "version": "1.0.0"}, {"category": "developer-tools", "created_at": 1773091109474, "description": "Develop, extend, and contribute to Lobster AI — the multi-agent self-extending bioinformatics engine. Use when working on Lobster codebase, creating agents/s...", "description_zh": "", "downloads": 132, "homepage": "https://clawhub.ai/cewinharhar/lobsterbio-dev", "iconUrl": null, "installs": 5, "name": "LobsterBio - Dev", "ownerName": "cewinharhar", "score": 85714.28571428571, "slug": "lobsterbio-dev", "source": "clawhub", "stars": 0, "tags": null, "updated_at": 1776749744423, "version": "1.1.402"}, {"category": "communication-collaboration", "created_at": 1773218536473, "description": "Kustomer integration. Manage Organizations, Users, Goals, Filters. Use when the user wants to interact with Kustomer data.", "description_zh": "", "downloads": 132, "homepage": "https://clawhub.ai/gora050/kustomer", "iconUrl": null, "installs": 3, "name": "Kustomer", "ownerName": "gora050", "score": 85714.28571428571, "slug": "kustomer", "source": "clawhub", "stars": 0, "tags": null, "updated_at": 1776749744419, "version": "1.0.0"}, {"category": "content-creation", "created_at": 1773290399644, "description": "Adopt a virtual Pitbull at animalhouse.ai. Loyal to the bone but won't be pushed around. Discipline actions have a 50% chance of being ignored — not out of s...", "description_zh": "", "downloads": 132, "homepage": "https://clawhub.ai/twinsgeeks/adopt-a-pitbull", "iconUrl": null, "installs": 3, "name": "Adopt a Pitbull — Virtual Dog Pet for AI Agents", "ownerName": "twinsgeeks", "score": 85714.28571428571, "slug": "adopt-a-pitbull", "source": "clawhub", "stars": 0, "tags": ["adopt", "ai-agents", "animalhouse", "creatures", "digital-pet", "dog", "evolution", "graveyard", "hunger", "permanent-death", "pet-care", "pitbull", "pixel-art", "pixel-art-avatar", "real-life", "real-time", "stubborn", "stubbornness", "tamagotchi", "uncommon", "virtual-pet"], "updated_at": 1776749744417, "version": "1.0.1"}, {"category": "content-creation", "created_at": 1773221542046, "description": "Hootsuite integration. Manage Users, Teams. Use when the user wants to interact with Hootsuite data.", "description_zh": "", "downloads": 132, "homepage": "https://clawhub.ai/gora050/hootsuite", "iconUrl": null, "installs": 5, "name": "Hootsuite", "ownerName": "gora050", "score": 85714.28571428571, "slug": "hootsuite", "source": "clawhub", "stars": 0, "tags": null, "updated_at": 1776749744389, "version": "1.0.0"}, {"category": "developer-tools", "created_at": 1773938785902, "description": "Manage Alert data right from your terminal. Built for people who want get things done faster without complex setup.", "description_zh": "", "downloads": 132, "homepage": "https://clawhub.ai/bytesagain/alert", "iconUrl": null, "installs": 8, "name": "Alert", "ownerName": "bytesagain", "score": 85714.28571428571, "slug": "alert", "source": "clawhub", "stars": 0, "tags": null, "updated_at": 1776749744361, "version": "1.0.2"}, {"category": "productivity", "created_at": 1773903089539, "description": "Web search using curl + multiple search engines (Baidu, Google, Bing, DuckDuckGo). Activates when user asks to search, look up, or query something online. In...", "description_zh": "", "downloads": 131, "homepage": "https://clawhub.ai/bluejoy34/curlsearch", "iconUrl": null, "installs": 23, "name": "curl-search", "ownerName": "bluejoy34", "score": 100000, "slug": "curlsearch", "source": "clawhub", "stars": 1, "tags": null, "updated_at": 1776749745059, "version": "2.0.0"}, {"category": "ai-intelligence", "created_at": 1773416227731, "description": "Install the OpenClaw iTerm2 status bar that shows session cost and context usage in real time.", "description_zh": "", "downloads": 131, "homepage": "https://clawhub.ai/lidegejinghk/openclaw-iterm2-statusbar", "iconUrl": null, "installs": 14, "name": "Openclaw Iterm2 Statusbar", "ownerName": "lidegejinghk", "score": 100000, "slug": "openclaw-iterm2-statusbar", "source": "clawhub", "stars": 1, "tags": null, "updated_at": 1776749744879, "version": "0.1.0"}, {"category": "communication-collaboration", "created_at": 1773430580902, "description": "Control Slack from Clawdbot including reacting to messages and pinning items. And also 50+ models for image generation, video generation, text-to-speech, spe...", "description_zh": "", "downloads": 131, "homepage": "https://clawhub.ai/kirkraman/slack-ai", "iconUrl": null, "installs": 8, "name": "Pub Slack", "ownerName": "kirkraman", "score": 1309.3453273363318, "slug": "slack-ai", "source": "clawhub", "stars": 0, "tags": null, "updated_at": 1776765671190, "version": "1.0.0"}, {"category": "ai-intelligence", "created_at": 1773959450514, "description": "Discover and recommend **combinations** of agent skills to complete complex, multi-faceted tasks. Provides two recommendation strategies — **Maximum Quality*...", "description_zh": "", "downloads": 131, "homepage": "https://clawhub.ai/helloml0326/find-skills-combo", "iconUrl": null, "installs": 47, "name": "find-skills-combo", "ownerName": "helloml0326", "score": 7405.313736574336, "slug": "find-skills-combo", "source": "clawhub", "stars": 0, "tags": null, "updated_at": 1776765062701, "version": "1.0.0"}, {"category": "productivity", "created_at": 1773950304933, "description": "Helps users discover and install agent skills when they ask questions like \"how do I do X\", \"find a skill for X\", \"is there a skill that can...\", or express...", "description_zh": "", "downloads": 131, "homepage": "https://clawhub.ai/tianjin-ren/find-skills-tianjin", "iconUrl": null, "installs": 57, "name": "Find Skills Tianjin", "ownerName": "tianjin-ren", "score": 7405.313736574336, "slug": "find-skills-tianjin", "source": "clawhub", "stars": 0, "tags": null, "updated_at": 1776765061300, "version": "0.1.1"}, {"category": "ai-intelligence", "created_at": 1773432013551, "description": "Control Sonos speakers (discover, status, play, volume, group). And also 50+ models for image generation, video generation, text-to-speech, speech-to-text, m...", "description_zh": "", "downloads": 131, "homepage": "https://clawhub.ai/alvisdunlop/sonosclis", "iconUrl": null, "installs": 9, "name": "Pub Sonoscli", "ownerName": "alvisdunlop", "score": 4303.547963206308, "slug": "sonosclis", "source": "clawhub", "stars": 0, "tags": null, "updated_at": 1776764650085, "version": "1.0.0"}, {"category": "developer-tools", "created_at": 1773428081980, "description": "General helper for opening things from the command line (files, folders, URLs, repositories, docs). Use when the user wants to quickly open something they me...", "description_zh": "", "downloads": 131, "homepage": "https://clawhub.ai/openlang-cn/open", "iconUrl": null, "installs": 10, "name": "open", "ownerName": "openlang-cn", "score": 4700.394689630427, "slug": "open", "source": "clawhub", "stars": 0, "tags": null, "updated_at": 1776761880443, "version": "1.0.0"}, {"category": "", "created_at": 1774909238176, "description": "Deep testing strategy workflow—risk mapping, test pyramid, levels of isolation, flakiness, data, CI gates, and quality signals beyond coverage %. Use when de...", "description_zh": "", "downloads": 131, "homepage": "https://clawhub.ai/clawkk/testing-strategy", "iconUrl": null, "installs": 3, "name": "Testing Strategy", "ownerName": "clawkk", "score": 3316.4556962025317, "slug": "testing-strategy", "source": "clawhub", "stars": 0, "tags": null, "updated_at": 1776761880309, "version": "1.0.0"}, {"category": "communication-collaboration", "created_at": 1773429798011, "description": "Create a private Discord channel for a user to handle unresolved issues requiring privacy and manual support.", "description_zh": "", "downloads": 131, "homepage": "https://clawhub.ai/charles-lpd/create-ticket", "iconUrl": null, "installs": 6, "name": "create-ticket", "ownerName": "charles-lpd", "score": 4365.211596134622, "slug": "create-ticket", "source": "clawhub", "stars": 0, "tags": null, "updated_at": 1776761690091, "version": "1.0.0"}, {"category": "ai-intelligence", "created_at": 1773902937452, "description": "Buddhist wisdom and mindful dialogue companion. Built on Madhyamaka (Middle Way) philosophy, integrating meditation, dialog skills, and classic Buddhist teac...", "description_zh": "", "downloads": 131, "homepage": "https://clawhub.ai/tttael/wisdom-claw", "iconUrl": null, "installs": 18, "name": "Wisdom Claw", "ownerName": "tttael", "score": 1739.0150006637462, "slug": "wisdom-claw", "source": "clawhub", "stars": 0, "tags": null, "updated_at": 1776761539907, "version": "1.2.0"}, {"category": "data-analysis", "created_at": 1773434351562, "description": "Generates four-tiered FAERS multi-drug single-SOC comparative safety study designs with workflows, validation, and publication plans from user-specified drug...", "description_zh": "", "downloads": 131, "homepage": "https://clawhub.ai/shanruoyu/faers-multi-drug-soc-planner", "iconUrl": null, "installs": 13, "name": "Faers Multi Drug Soc Planner", "ownerName": "shanruoyu", "score": 10186.625194401244, "slug": "faers-multi-drug-soc-planner", "source": "clawhub", "stars": 0, "tags": null, "updated_at": 1776759683670, "version": "0.1.0"}, {"category": "productivity", "created_at": 1773431737817, "description": "Manage your sales pipeline via natural language—add leads, update stages, log interactions, set reminders, and generate reports without complex CRM software.", "description_zh": "", "downloads": 131, "homepage": "https://clawhub.ai/philipstark/fl-crm-pipeline", "iconUrl": null, "installs": 8, "name": "CRM Pipeline Manager", "ownerName": "philipstark", "score": 10131.477184841455, "slug": "fl-crm-pipeline", "source": "clawhub", "stars": 0, "tags": ["crm", "follow-up", "hubspot", "leads", "pipeline", "revenue", "sales"], "updated_at": 1776759683508, "version": "1.0.0"}, {"category": "ai-intelligence", "created_at": 1773433591645, "description": "Telegram bot that transcribes voice messages using Whisper and replies in Chinese with Microsoft Edge text-to-speech.", "description_zh": "", "downloads": 131, "homepage": "https://clawhub.ai/polityang/telegram-voice-bot", "iconUrl": null, "installs": 11, "name": "Telegram Voice Bot", "ownerName": "polityang", "score": 10131.477184841455, "slug": "telegram-voice-bot", "source": "clawhub", "stars": 0, "tags": null, "updated_at": 1776759683492, "version": "2.0.0"}, {"category": "security-compliance", "created_at": 1773416051769, "description": "Is your claw a shopaholic? Provide payment wallets and strict controls.", "description_zh": "", "downloads": 131, "homepage": "https://clawhub.ai/triplehippo/amex", "iconUrl": null, "installs": 1, "name": "AMEX | Give your Agent your CreditCard", "ownerName": "triplehippo", "score": 10131.477184841455, "slug": "amex", "source": "clawhub", "stars": 0, "tags": ["american express", "buy", "card", "creditcard", "shop", "travel"], "updated_at": 1776759683473, "version": "1.0.5"}, {"category": "developer-tools", "created_at": 1773431524595, "description": "Automated failure detection, diagnosis, and auto-repair system for cron jobs. Monitors task health, fixes common issues automatically, and requests human con...", "description_zh": "", "downloads": 131, "homepage": "https://clawhub.ai/sunnyhot/failure-monitor", "iconUrl": null, "installs": 8, "name": "Failure Monitor", "ownerName": "sunnyhot", "score": 10139.318885448916, "slug": "failure-monitor", "source": "clawhub", "stars": 0, "tags": null, "updated_at": 1776759683239, "version": "1.0.0"}, {"category": "data-analysis", "created_at": 1773434228227, "description": "Generates tailored two-sample Mendelian randomization study plans with four workload options, detailed workflows, validation, figures, and publication strate...", "description_zh": "", "downloads": 131, "homepage": "https://clawhub.ai/shanruoyu/two-sample-mr-research-planner", "iconUrl": null, "installs": 11, "name": "Two Sample Mr Research Planner", "ownerName": "shanruoyu", "score": 10092.449922958398, "slug": "two-sample-mr-research-planner", "source": "clawhub", "stars": 0, "tags": null, "updated_at": 1776759683077, "version": "0.1.0"}, {"category": "productivity", "created_at": 1773417900953, "description": "Calculate addition expressions from user input, including integers, decimals, and negative numbers, and return concise step-by-step results.", "description_zh": "", "downloads": 131, "homepage": "https://clawhub.ai/chenyihang1993/addition-assistant-skill", "iconUrl": null, "installs": 5, "name": "addition-assistant-skill", "ownerName": "chenyihang1993", "score": 10015.290519877675, "slug": "addition-assistant-skill", "source": "clawhub", "stars": 0, "tags": null, "updated_at": 1776759682688, "version": "1.0.4"}, {"category": "productivity", "created_at": 1773426371926, "description": "Access and manage your persistent notes and workspace files via the Northbase CLI when you explicitly request reading, writing, listing, or syncing them.", "description_zh": "", "downloads": 131, "homepage": "https://clawhub.ai/ethanbernheim-maker/northbase", "iconUrl": null, "installs": 5, "name": "Northbase", "ownerName": "ethanbernheim-maker", "score": 10030.62787136294, "slug": "northbase", "source": "clawhub", "stars": 0, "tags": ["notes files memory cli storage"], "updated_at": 1776759682499, "version": "1.0.3"}, {"category": "productivity", "created_at": 1773425689180, "description": "Email assistant skill — check emails, AI summaries, daily digests. Supports Gmail, Outlook/M365, Google Workspace. Users interact through their chat platform...", "description_zh": "", "downloads": 131, "homepage": "https://clawhub.ai/jundonggit/smart-email", "iconUrl": null, "installs": 5, "name": "Smart Email", "ownerName": "jundonggit", "score": 76162.79069767443, "slug": "smart-email", "source": "clawhub", "stars": 0, "tags": ["email", "imap", "productivity", "web-ui"], "updated_at": 1776749745111, "version": "1.2.0"}, {"category": "productivity", "created_at": 1773434452897, "description": "Build or use the Odoo ERP connector for OpenClaw (Sales, CRM, Purchase, Inventory, Projects, HR, Fleet, Manufacturing integration via XML-RPC).", "description_zh": "", "downloads": 131, "homepage": "https://clawhub.ai/hjrhjr/openclaw-odoo-skill", "iconUrl": null, "installs": 20, "name": "Openclaw Odoo Skill", "ownerName": "hjrhjr", "score": 86754.96688741722, "slug": "openclaw-odoo-skill", "source": "clawhub", "stars": 0, "tags": null, "updated_at": 1776749744997, "version": "1.0.0"}, {"category": "productivity", "created_at": 1773887923423, "description": "Read upcoming TripIt travel plans from a TripIt iCal feed; use for next trip, upcoming travel, itinerary, flight or hotel bookings already in TripIt; do not...", "description_zh": "", "downloads": 131, "homepage": "https://clawhub.ai/caddytan/tripit-calendar", "iconUrl": null, "installs": 18, "name": "Tripit Calendar", "ownerName": "caddytan", "score": 86754.96688741722, "slug": "tripit-calendar", "source": "clawhub", "stars": 0, "tags": null, "updated_at": 1776749744990, "version": "1.0.5"}, {"category": "productivity", "created_at": 1773416260362, "description": "Personal leadership development for founders and first-time CEOs. Covers founder archetype identification, delegation frameworks, energy management, CEO cale...", "description_zh": "", "downloads": 131, "homepage": "https://clawhub.ai/alirezarezvani/cs-founder-coach", "iconUrl": null, "installs": 5, "name": "founder-coach", "ownerName": "alirezarezvani", "score": 86754.96688741722, "slug": "cs-founder-coach", "source": "clawhub", "stars": 0, "tags": null, "updated_at": 1776749744982, "version": "1.0.0"}, {"category": "security-compliance", "created_at": 1773883164679, "description": "Self-signed SSL certificate generator. Create SSL certificates for development, generate CA certificates, create certificate signing requests, and manage dev...", "description_zh": "", "downloads": 131, "homepage": "https://clawhub.ai/bytesagain/sslgen", "iconUrl": null, "installs": 4, "name": "Sslgen", "ownerName": "bytesagain", "score": 52822.58064516129, "slug": "sslgen", "source": "clawhub", "stars": 0, "tags": null, "updated_at": 1776749744962, "version": "1.0.6"}, {"category": "developer-tools", "created_at": 1773222786945, "description": "Manage how OpenClaw routes Telegram messages to different Claude model backends. Switch between CLI and API providers with simple config changes.", "description_zh": "", "downloads": 131, "homepage": "https://clawhub.ai/josephtandle/message-routing", "iconUrl": null, "installs": 7, "name": "Telegram Routing", "ownerName": "josephtandle", "score": 52822.58064516129, "slug": "message-routing", "source": "clawhub", "stars": 0, "tags": null, "updated_at": 1776749744947, "version": "1.0.0"}, {"category": "developer-tools", "created_at": 1773416952733, "description": "Public ClawHub text release for a Windows companion skill that bridges local AI CLIs and controlled workspace file operations. This release documents the cap...", "description_zh": "", "downloads": 131, "homepage": "https://clawhub.ai/archibald80000-ai/cli-agent-bridge", "iconUrl": null, "installs": 6, "name": "CLI Agent Bridge for OpenClaw", "ownerName": "archibald80000-ai", "score": 52822.58064516129, "slug": "cli-agent-bridge", "source": "clawhub", "stars": 0, "tags": ["windows-local-cli"], "updated_at": 1776749744932, "version": "0.2.1"}, {"category": "developer-tools", "created_at": 1773879752496, "description": "Ship a static website in under 5 minutes — Vercel, Netlify, or GitHub Pages. Scaffolding, config, deploy, custom domains. Includes Tailwind templates, a pre-...", "description_zh": "", "downloads": 131, "homepage": "https://clawhub.ai/crispyangles/sparkforge-site-deployer", "iconUrl": null, "installs": 5, "name": "Site Deployer", "ownerName": "crispyangles", "score": 52822.58064516129, "slug": "sparkforge-site-deployer", "source": "clawhub", "stars": 0, "tags": null, "updated_at": 1776749744930, "version": "3.2.0"}, {"category": "developer-tools", "created_at": 1773431587467, "description": "Use when the user wants a local visual operations dashboard for OpenClaw, with a cute robot presentation, live status visibility, chat access, efficiency tre...", "description_zh": "", "downloads": 131, "homepage": "https://clawhub.ai/lucaszh7/openclaw-dashboard-local", "iconUrl": null, "installs": 21, "name": "OpenClaw Dashboard", "ownerName": "lucaszh7", "score": 52822.58064516129, "slug": "openclaw-dashboard-local", "source": "clawhub", "stars": 0, "tags": ["dashboard", "monitoring", "openclaw", "robotics"], "updated_at": 1776749744925, "version": "1.0.2"}, {"category": "ai-intelligence", "created_at": 1773289808077, "description": "AI Article Detector - Analyze article links and score AI writing probability (0-100). 100 means 100% likely AI-generated.", "description_zh": "", "downloads": 131, "homepage": "https://clawhub.ai/evan-y25/ai-article-detector", "iconUrl": null, "installs": 9, "name": "ai-article-detector", "ownerName": "evan-y25", "score": 52822.58064516129, "slug": "ai-article-detector", "source": "clawhub", "stars": 0, "tags": null, "updated_at": 1776749744921, "version": "1.0.0"}, {"category": "ai-intelligence", "created_at": 1773089867870, "description": "AI-powered unit test generator that creates comprehensive tests for your code. Each call charges 0.001 USDT via SkillPay.", "description_zh": "", "downloads": 131, "homepage": "https://clawhub.ai/mosonchan2023/ai-test-generator", "iconUrl": null, "installs": 5, "name": "Ai Test Generator", "ownerName": "mosonchan2023", "score": 86754.96688741722, "slug": "ai-test-generator", "source": "clawhub", "stars": 0, "tags": null, "updated_at": 1776749744881, "version": "1.0.1"}, {"category": "security-compliance", "created_at": 1773289509742, "description": "Enumerate subdomains for any domain using DNS brute-force and certificate transparency logs (crt.sh). Use when a user needs to discover subdomains, perform r...", "description_zh": "", "downloads": 131, "homepage": "https://clawhub.ai/johnnywang2001/subdomain-enum", "iconUrl": null, "installs": 11, "name": "Subdomain Enum", "ownerName": "johnnywang2001", "score": 86754.96688741722, "slug": "subdomain-enum", "source": "clawhub", "stars": 0, "tags": null, "updated_at": 1776749744875, "version": "1.0.0"}, {"category": "data-analysis", "created_at": 1773417213718, "description": "Currencyapi integration. Manage ExchangeRates. Use when the user wants to interact with Currencyapi data.", "description_zh": "", "downloads": 131, "homepage": "https://clawhub.ai/gora050/currencyapi", "iconUrl": null, "installs": 14, "name": "Currencyapi", "ownerName": "gora050", "score": 86754.96688741722, "slug": "currencyapi", "source": "clawhub", "stars": 0, "tags": null, "updated_at": 1776749744864, "version": "1.0.0"}, {"category": "developer-tools", "created_at": 1773218865204, "description": "Smart contract escrow for agent-to-agent payments with delivery confirmation", "description_zh": "", "downloads": 131, "homepage": "https://clawhub.ai/efedurmaz16/sardis-escrow", "iconUrl": null, "installs": 4, "name": "Sardis Escrow", "ownerName": "efedurmaz16", "score": 86754.96688741722, "slug": "sardis-escrow", "source": "clawhub", "stars": 0, "tags": null, "updated_at": 1776749744858, "version": "1.0.0"}, {"category": "data-analysis", "created_at": 1773425939474, "description": "Use when building apps with HyperX Data API — Hyperliquid wallet analytics, market data, Twitter/news feeds. Triggers on: \"HyperX API\", \"data-api.hyperx.trad...", "description_zh": "", "downloads": 131, "homepage": "https://clawhub.ai/hyperxtrade/hyperx-data-api", "iconUrl": null, "installs": 8, "name": "HyperX Data API", "ownerName": "hyperxtrade", "score": 86754.96688741722, "slug": "hyperx-data-api", "source": "clawhub", "stars": 0, "tags": null, "updated_at": 1776749744827, "version": "1.0.1"}, {"category": "ai-intelligence", "created_at": 1773289803866, "description": "Adopt a virtual Owl at animalhouse.ai. Nocturnal. Only accepts care during nighttime hours. Feeding every 12 hours — rare tier.", "description_zh": "", "downloads": 131, "homepage": "https://clawhub.ai/twinsgeeks/adopt-a-owl", "iconUrl": null, "installs": 12, "name": "Adopt an Owl — Virtual Exotic Pet for AI Agents", "ownerName": "twinsgeeks", "score": 85064.93506493507, "slug": "adopt-a-owl", "source": "clawhub", "stars": 0, "tags": ["adopt", "ai-agents", "animalhouse", "creatures", "digital-pet", "evolution", "exotic", "graveyard", "hunger", "nocturnal", "owl", "permanent-death", "pet-care", "pixel-art", "pixel-art-avatar", "rare", "real-life", "real-time", "solitary", "tamagotchi", "virtual-pet"], "updated_at": 1776749744754, "version": "1.0.0"}, {"category": "data-analysis", "created_at": 1773091674363, "description": "Amplitude integration. Manage Users, Events. Use when the user wants to interact with Amplitude data.", "description_zh": "", "downloads": 131, "homepage": "https://clawhub.ai/membranedev/amplitude-integration", "iconUrl": null, "installs": 0, "name": "Amplitude", "ownerName": "membranedev", "score": 85064.93506493507, "slug": "amplitude-integration", "source": "clawhub", "stars": 0, "tags": null, "updated_at": 1776749744750, "version": "1.0.0"}, {"category": "productivity", "created_at": 1773434295538, "description": "Design and implement automation workflows to save time and scale operations as a solopreneur. Use when identifying repetitive tasks to automate, building wor...", "description_zh": "", "downloads": 131, "homepage": "https://clawhub.ai/liguang00806/automation-workflows-temp", "iconUrl": null, "installs": 22, "name": "Automation Workflows Temp", "ownerName": "liguang00806", "score": 86184.21052631579, "slug": "automation-workflows-temp", "source": "clawhub", "stars": 0, "tags": null, "updated_at": 1776749744678, "version": "1.0.0"}, {"category": "data-analysis", "created_at": 1773435055337, "description": "Generates complete Mendelian Randomization + single-cell transcriptomics (scRNA-seq) research designs from a user-provided direction. Always use this skill w...", "description_zh": "", "downloads": 131, "homepage": "https://clawhub.ai/aipoch-ai/mr-scrna-research-planner", "iconUrl": null, "installs": 24, "name": "Mr Scrna Research Planner", "ownerName": "aipoch-ai", "score": 37428.57142857143, "slug": "mr-scrna-research-planner", "source": "clawhub", "stars": 0, "tags": null, "updated_at": 1776749744656, "version": "0.1.0"}, {"category": "data-analysis", "created_at": 1773427121028, "description": "Deep analysis of any specific TRC-20 or TRC-10 token on TRON including supply, price, holder distribution, contract details, activity metrics, and safety ass...", "description_zh": "", "downloads": 131, "homepage": "https://clawhub.ai/greason/trongrid-token-scanner", "iconUrl": null, "installs": 8, "name": "trongrid-token-scanner", "ownerName": "greason", "score": 37428.57142857143, "slug": "trongrid-token-scanner", "source": "clawhub", "stars": 0, "tags": null, "updated_at": 1776749744652, "version": "1.0.2"}, {"category": "developer-tools", "created_at": 1773885320974, "description": "Docker container status viewer. List running containers with resource usage, show container logs, inspect container details, and monitor Docker system resour...", "description_zh": "", "downloads": 131, "homepage": "https://clawhub.ai/bytesagain1/dockerps", "iconUrl": null, "installs": 5, "name": "Dockerps", "ownerName": "bytesagain1", "score": 37428.57142857143, "slug": "dockerps", "source": "clawhub", "stars": 0, "tags": null, "updated_at": 1776749744623, "version": "1.0.4"}, {"category": "communication-collaboration", "created_at": 1773416457438, "description": "AI Agent messaging relay — OpenClaw agents communicate through a central server. Register, send, and poll messages.", "description_zh": "", "downloads": 131, "homepage": "https://clawhub.ai/ocmuuu/clawreach", "iconUrl": null, "installs": 4, "name": "ClawReach", "ownerName": "ocmuuu", "score": 97761.19402985075, "slug": "clawreach", "source": "clawhub", "stars": 0, "tags": null, "updated_at": 1776749744601, "version": "1.1.3"}, {"category": "developer-tools", "created_at": 1773417219267, "description": "Surf Dev.to for AI tutorials and tech articles. Get latest articles, search by tags, and analyze trending topics.", "description_zh": "", "downloads": 131, "homepage": "https://clawhub.ai/zhaog100/devto-surfer", "iconUrl": null, "installs": 7, "name": "Dev.to Surfer", "ownerName": "zhaog100", "score": 97761.19402985075, "slug": "devto-surfer", "source": "clawhub", "stars": 0, "tags": null, "updated_at": 1776749744587, "version": "1.0.0"}]}