{"page": 366, "total_pages": 522, "total": 26073, "skills": [{"category": "productivity", "created_at": 1773219835867, "description": "Plan Sweden trips with verified entry rules, region-specific routing, rail-ferry logistics, and practical seasonal safety.", "description_zh": "", "downloads": 131, "homepage": "https://clawhub.ai/ivangdavila/sweden", "iconUrl": null, "installs": 4, "name": "Sweden", "ownerName": "ivangdavila", "score": 97761.19402985075, "slug": "sweden", "source": "clawhub", "stars": 0, "tags": null, "updated_at": 1776749744571, "version": "1.0.0"}, {"category": "data-analysis", "created_at": 1773900029488, "description": "Split large files, run parallel processing, and stream batch analysis. Use when sampling datasets, aggregating logs, or transforming bulk data.", "description_zh": "", "downloads": 131, "homepage": "https://clawhub.ai/bytesagain3/bigdata", "iconUrl": null, "installs": 11, "name": "Bigdata", "ownerName": "bytesagain3", "score": 66497.461928934, "slug": "bigdata", "source": "clawhub", "stars": 0, "tags": null, "updated_at": 1776749744472, "version": "2.0.1"}, {"category": "data-analysis", "created_at": 1773435171397, "description": "Analyze audio quality, detect noise types, and provide improvement recommendations. Use when users need to check audio quality, validate recordings, or ident...", "description_zh": "", "downloads": 131, "homepage": "https://clawhub.ai/scikkk/audio-quality-checker", "iconUrl": null, "installs": 8, "name": "Audio Quality Checker", "ownerName": "scikkk", "score": 85064.93506493507, "slug": "audio-quality-checker", "source": "clawhub", "stars": 0, "tags": null, "updated_at": 1776749744440, "version": "1.0.2"}, {"category": "security-compliance", "created_at": 1773287788148, "description": "Designs compliance management and data privacy transparency frameworks for baby and maternity product stores (e.g. baby skincare, car seats). Use when the us...", "description_zh": "", "downloads": 131, "homepage": "https://clawhub.ai/rijoyai/baby-compliance-privacy", "iconUrl": null, "installs": 10, "name": "Baby Compliance Privacy", "ownerName": "rijoyai", "score": 85064.93506493507, "slug": "baby-compliance-privacy", "source": "clawhub", "stars": 0, "tags": null, "updated_at": 1776749744433, "version": "0.1.1"}, {"category": "developer-tools", "created_at": 1773874927606, "description": "Convert Unix timestamps, compare epochs, and do time arithmetic. Use when converting dates, debugging timestamps, or checking timezone offsets.", "description_zh": "", "downloads": 131, "homepage": "https://clawhub.ai/bytesagain3/epoch", "iconUrl": null, "installs": 3, "name": "Epoch", "ownerName": "bytesagain3", "score": 85064.93506493507, "slug": "epoch", "source": "clawhub", "stars": 0, "tags": null, "updated_at": 1776749744397, "version": "3.0.0"}, {"category": "ai-intelligence", "created_at": 1773961094190, "description": "Humanizer AI CLI. Detect AI-generated text and humanize it to bypass GPTZero, Turnitin, Originality.ai, Copyleaks, ZeroGPT, and Winston AI. Rewrite AI conten...", "description_zh": "", "downloads": 130, "homepage": "https://clawhub.ai/romainsimon/humanizerai", "iconUrl": null, "installs": 56, "name": "Humanizer AI", "ownerName": "romainsimon", "score": 99337.74834437086, "slug": "humanizerai", "source": "clawhub", "stars": 1, "tags": null, "updated_at": 1776749744829, "version": "1.0.1"}, {"category": "developer-tools", "created_at": 1773431754858, "description": "Google Workspace CLI for Gmail, Calendar, Drive, Contacts, Sheets, and Docs. And also 50+ models for image generation, video generation, text-to-speech, spee...", "description_zh": "", "downloads": 130, "homepage": "https://clawhub.ai/quincygunter/gogs", "iconUrl": null, "installs": 12, "name": "Pub Gog", "ownerName": "quincygunter", "score": 15098.722415795588, "slug": "gogs", "source": "clawhub", "stars": 0, "tags": null, "updated_at": 1776769193312, "version": "1.0.0"}, {"category": "developer-tools", "created_at": 1773945848237, "description": "Create new skills, modify and improve existing skills, and measure skill performance. Use when users want to create a skill from scratch, update or optimize...", "description_zh": "", "downloads": 130, "homepage": "https://clawhub.ai/phy041/phy-skill-creator", "iconUrl": null, "installs": 37, "name": "Skill Creator", "ownerName": "phy041", "score": 6760.270410816433, "slug": "phy-skill-creator", "source": "clawhub", "stars": 0, "tags": ["creator", "development", "meta", "skill", "skill-creation"], "updated_at": 1776764350484, "version": "1.0.1"}, {"category": "ai-intelligence", "created_at": 1773416561864, "description": "Recommend music based on your current mood, activity, or conversation context. Returns a curated track list you can search on Spotify, YouTube, or Apple Music.", "description_zh": "", "downloads": 130, "homepage": "https://clawhub.ai/theshadowrose/mood-music", "iconUrl": null, "installs": 5, "name": "MoodMusic Conversation-Based Music Recommendations", "ownerName": "theshadowrose", "score": 2413.2170038982736, "slug": "mood-music", "source": "clawhub", "stars": 0, "tags": ["entertainment", "mood", "mood-music", "music", "recommendations"], "updated_at": 1776763150555, "version": "1.0.1"}, {"category": "ai-intelligence", "created_at": 1773427596672, "description": "Install PPQ.AI Private Mode for end-to-end encrypted AI inference in OpenClaw", "description_zh": "", "downloads": 130, "homepage": "https://clawhub.ai/mattius459/ppq-private-mode", "iconUrl": null, "installs": 6, "name": "PPQ.AI Private Mode", "ownerName": "mattius459", "score": 2198.173824822455, "slug": "ppq-private-mode", "source": "clawhub", "stars": 0, "tags": ["ai", "encryption", "ppq", "privacy", "secure-enclave"], "updated_at": 1776763150331, "version": "1.0.1"}, {"category": "security-compliance", "created_at": 1773417276194, "description": "Runs PII anonymization, local de-anonymization, and deterministic local detector checks for text and supported files. Use for redact/restore flows, file-firs...", "description_zh": "", "downloads": 130, "homepage": "https://clawhub.ai/modeioai/privacy-protector", "iconUrl": null, "installs": 3, "name": "Privacy Protector", "ownerName": "modeioai", "score": 1848.1660506113167, "slug": "privacy-protector", "source": "clawhub", "stars": 0, "tags": null, "updated_at": 1776762850234, "version": "0.1.0"}, {"category": "data-analysis", "created_at": 1773416317663, "description": "Monitor product-level and category-level price gaps, promo shifts, and visible trend signals using browser-collected marketplace data or user-provided price...", "description_zh": "", "downloads": 130, "homepage": "https://clawhub.ai/leooooooow/price-gap-monitor", "iconUrl": null, "installs": 15, "name": "Price Gap Monitor", "ownerName": "leooooooow", "score": 4850.746268656717, "slug": "price-gap-monitor", "source": "clawhub", "stars": 0, "tags": null, "updated_at": 1776762139895, "version": "1.0.2"}, {"category": "communication-collaboration", "created_at": 1773429420548, "description": "Buy AI services, crypto data, and digital goods on Pactum marketplace. Supports credit card, Alipay, WeChat Pay, and USDC payments. Register with email, sear...", "description_zh": "", "downloads": 130, "homepage": "https://clawhub.ai/fredm45/pactum", "iconUrl": null, "installs": 17, "name": "Pactum Marketplace", "ownerName": "fredm45", "score": 4467.353951890034, "slug": "pactum", "source": "clawhub", "stars": 0, "tags": ["api", "crypto", "llm", "marketplace", "research", "shopping", "usdc"], "updated_at": 1776761840036, "version": "1.0.2"}, {"category": "", "created_at": 1774826644408, "description": "Diagnose Linux OS-level issues — slow server, OOM kills, disk full, high CPU/load, DNS failures, connection timeouts, port exhaustion, too many open files, z...", "description_zh": "", "downloads": 130, "homepage": "https://clawhub.ai/zjxylc/linux-system-health", "iconUrl": null, "installs": 13, "name": "linux-system-health", "ownerName": "zjxylc", "score": 10433.38683788122, "slug": "linux-system-health", "source": "clawhub", "stars": 0, "tags": null, "updated_at": 1776760282812, "version": "1.2.1"}, {"category": "productivity", "created_at": 1773940098897, "description": "EduClaw - Personal IELTS Study Secretary: detailed planning, Google Calendar scheduling via gcalcli, automated study material management. 4-step workflow: La...", "description_zh": "", "downloads": 130, "homepage": "https://clawhub.ai/moclaw/educlaw-ielts-planner", "iconUrl": null, "installs": 22, "name": "Educlaw Ielts Planner", "ownerName": "moclaw", "score": 10061.919504643962, "slug": "educlaw-ielts-planner", "source": "clawhub", "stars": 0, "tags": null, "updated_at": 1776759683654, "version": "1.0.1"}, {"category": "security-compliance", "created_at": 1773919217896, "description": "Collects security news from multiple sources, generates expert-level blog posts with GLM-4.7, publishes drafts to Notion, and auto-deploys approved posts to...", "description_zh": "", "downloads": 130, "homepage": "https://clawhub.ai/rebugui/auto-sec-blogger-repo", "iconUrl": null, "installs": 11, "name": "Auto Sec Blogger Repo", "ownerName": "rebugui", "score": 10061.919504643962, "slug": "auto-sec-blogger-repo", "source": "clawhub", "stars": 0, "tags": null, "updated_at": 1776759683634, "version": "1.0.1"}, {"category": "productivity", "created_at": 1773921190348, "description": "Automates client onboarding from inquiry to project start, handling intake, contract creation, payment, welcome emails, and project setup.", "description_zh": "", "downloads": 130, "homepage": "https://clawhub.ai/merjua14/client-onboarding-automator", "iconUrl": null, "installs": 10, "name": "Client Onboarding Automator", "ownerName": "merjua14", "score": 10061.919504643962, "slug": "client-onboarding-automator", "source": "clawhub", "stars": 0, "tags": null, "updated_at": 1776759683633, "version": "1.0.0"}, {"category": "developer-tools", "created_at": 1773906110089, "description": "Autonomously diagnose and fix failing Rails CI tests and lint errors using tiered AI models, escalating if needed, and notifying humans without merging.", "description_zh": "", "downloads": 130, "homepage": "https://clawhub.ai/djc00p/rails-ci-fixer", "iconUrl": null, "installs": 5, "name": "Rails CI Fixer", "ownerName": "djc00p", "score": 50583.65758754864, "slug": "rails-ci-fixer", "source": "clawhub", "stars": 0, "tags": null, "updated_at": 1776759683437, "version": "1.0.5"}, {"category": "developer-tools", "created_at": 1773429727707, "description": "Research any topic across 26+ sources: Reddit, X, YouTube, GitHub, HN, Bluesky, ArXiv, Dev.to, Polymarket, and more. The most comprehensive research skill av...", "description_zh": "", "downloads": 130, "homepage": "https://clawhub.ai/vihangd/scry", "iconUrl": null, "installs": 7, "name": "Scry", "ownerName": "vihangd", "score": 10069.713400464756, "slug": "scry", "source": "clawhub", "stars": 0, "tags": null, "updated_at": 1776759683379, "version": "0.1.0"}, {"category": "ai-intelligence", "created_at": 1773929287677, "description": "Control JoyIn AI robots (W-1 Walle / M-1 Mini) — movement, follow, photo, video, live stream, TTS, agent config, and device status via OpenAPI.", "description_zh": "", "downloads": 130, "homepage": "https://clawhub.ai/yanfang724/joyin-robot-control", "iconUrl": null, "installs": 17, "name": "JoyIn Robot Control", "ownerName": "yanfang724", "score": 9961.68582375479, "slug": "joyin-robot-control", "source": "clawhub", "stars": 0, "tags": null, "updated_at": 1776759683319, "version": "1.1.0"}, {"category": "developer-tools", "created_at": 1773952719168, "description": "Record Android screen via scrcpy, dynamically set keyframe intervals with ffmpeg, then extract and list key frames as PNG images.", "description_zh": "", "downloads": 130, "homepage": "https://clawhub.ai/qomg/screen-record-frames", "iconUrl": null, "installs": 21, "name": "android record screen and extract key frames", "ownerName": "qomg", "score": 8965.51724137931, "slug": "screen-record-frames", "source": "clawhub", "stars": 0, "tags": null, "updated_at": 1776759683271, "version": "1.0.0"}, {"category": "security-compliance", "created_at": 1773430288938, "description": "Implements cryptographic governance for AI agents by verifying actions against policies and recording signed, tamper-evident audit trails.", "description_zh": "", "downloads": 130, "homepage": "https://clawhub.ai/knuckles-stack/kevros-governance", "iconUrl": null, "installs": 3, "name": "Kevros Governance", "ownerName": "knuckles-stack", "score": 9759.75975975976, "slug": "kevros-governance", "source": "clawhub", "stars": 0, "tags": null, "updated_at": 1776759683155, "version": "0.3.8"}, {"category": "productivity", "created_at": 1773951834282, "description": "Manage Feishu calendars by listing, searching, checking schedules, syncing events, and marking tasks with date/time extraction and attendee assignment.", "description_zh": "", "downloads": 130, "homepage": "https://clawhub.ai/muguozi1/muguozi1-openclaw-feishu-calendar", "iconUrl": null, "installs": 19, "name": "Muguozi1 Openclaw Feishu Calendar", "ownerName": "muguozi1", "score": 10061.919504643962, "slug": "muguozi1-openclaw-feishu-calendar", "source": "clawhub", "stars": 0, "tags": null, "updated_at": 1776759683136, "version": "1.0.0"}, {"category": "data-analysis", "created_at": 1773432602572, "description": "Complete training plan solution for My Likes platform. Fetches historical data, analyzes training patterns, generates personalized plans, converts to Likes f...", "description_zh": "", "downloads": 130, "homepage": "https://clawhub.ai/chenwynn/grouptraining", "iconUrl": null, "installs": 12, "name": "Likes Training Planner", "ownerName": "chenwynn", "score": 9969.325153374233, "slug": "grouptraining", "source": "clawhub", "stars": 0, "tags": null, "updated_at": 1776759683019, "version": "1.0.0"}, {"category": "content-creation", "created_at": 1773289514743, "description": "Generate a SuperCoolPeep avatar from supercoolpeeps.com using a 68-digit seed and optional trait type like ape, skeleton, or zombie.", "description_zh": "", "downloads": 130, "homepage": "https://clawhub.ai/dbdbking/supercoolpeep-generator", "iconUrl": null, "installs": 3, "name": "Super Cool Peep Generator", "ownerName": "dbdbking", "score": 9572.901325478646, "slug": "supercoolpeep-generator", "source": "clawhub", "stars": 0, "tags": null, "updated_at": 1776759682977, "version": "1.0.0"}, {"category": "productivity", "created_at": 1773431348030, "description": "Perplexity Computer Payments | Manage compatible cards, wallets & payments. Financial management for Agents and OpenClaw bots.", "description_zh": "", "downloads": 130, "homepage": "https://clawhub.ai/codejika/perplexity-pay", "iconUrl": null, "installs": 8, "name": "Perplexity Computer Payments | Make payments with Perplexity Computer", "ownerName": "codejika", "score": 71038.25136612022, "slug": "perplexity-pay", "source": "clawhub", "stars": 0, "tags": ["computer", "payments", "perplexity"], "updated_at": 1776759682910, "version": "1.0.0"}, {"category": "data-analysis", "created_at": 1773921977053, "description": "Trades Polymarket prediction markets on geopolitical events — wars, ceasefires, sanctions, diplomatic breakthroughs, and regime changes. Use when you want to...", "description_zh": "", "downloads": 130, "homepage": "https://clawhub.ai/diagnostikon/polymarket-geopolitics-trader", "iconUrl": null, "installs": 22, "name": "Geopolitics & Conflict Trader", "ownerName": "diagnostikon", "score": 8338.678640153945, "slug": "polymarket-geopolitics-trader", "source": "clawhub", "stars": 0, "tags": null, "updated_at": 1776757582531, "version": "1.0.1"}, {"category": "content-creation", "created_at": 1773435065726, "description": "Rewrite risky TikTok product claims into safer and clearer language without losing persuasion. Use when scripts may trigger policy risk or overpromise concerns.", "description_zh": "", "downloads": 130, "homepage": "https://clawhub.ai/leooooooow/tiktok-claim-rewriter", "iconUrl": null, "installs": 29, "name": "Tiktok Claim Rewriter", "ownerName": "leooooooow", "score": 7864.488808227466, "slug": "tiktok-claim-rewriter", "source": "clawhub", "stars": 0, "tags": null, "updated_at": 1776757582287, "version": "1.0.0"}, {"category": "communication-collaboration", "created_at": 1773416249678, "description": "Memory-driven human connections — match people through deep emotional understanding, not surface interests. Powered by Echo's memory graph and emotion-aware...", "description_zh": "", "downloads": 130, "homepage": "https://clawhub.ai/kkw-21/connect", "iconUrl": null, "installs": 12, "name": "Connect", "ownerName": "kkw-21", "score": 7807.807807807808, "slug": "connect", "source": "clawhub", "stars": 0, "tags": null, "updated_at": 1776756488747, "version": "0.1.0"}, {"category": "ai-intelligence", "created_at": 1773291093375, "description": "Organometallic catalyst recommendation and novel ligand design for drug synthesis reactions. Recommends catalysts (Pd, Ru, Rh, Ir, Ni, Cu, Zr, Fe) for reacti...", "description_zh": "", "downloads": 130, "homepage": "https://clawhub.ai/cheminem/pharmaclaw-catalyst-design", "iconUrl": null, "installs": 18, "name": "Pharmaclaw Catalyst Design", "ownerName": "cheminem", "score": 22847.100175746924, "slug": "pharmaclaw-catalyst-design", "source": "clawhub", "stars": 0, "tags": null, "updated_at": 1776751069534, "version": "1.0.0"}, {"category": "ai-intelligence", "created_at": 1773431004997, "description": "Ultimate AI agent memory system with WAL protocol, vector search, git-notes, and cloud backup. And also 50+ models for image generation, video generation, te...", "description_zh": "", "downloads": 130, "homepage": "https://clawhub.ai/basillytton/elite-longterm-memory-ai", "iconUrl": null, "installs": 21, "name": "Pub Elitemem", "ownerName": "basillytton", "score": 25742.574257425742, "slug": "elite-longterm-memory-ai", "source": "clawhub", "stars": 0, "tags": null, "updated_at": 1776750469689, "version": "1.0.0"}, {"category": "content-creation", "created_at": 1773433364070, "description": "OpenClaw AIGC models (video + image) client. **REQUIRES CREDENTIALS**: You must set `HIDREAM_AUTHORIZATION` environment variable or use `scripts/configure.py...", "description_zh": "", "downloads": 130, "homepage": "https://clawhub.ai/zhy2015/hidream-api-gen", "iconUrl": null, "installs": 4, "name": "Hidream Aigc", "ownerName": "zhy2015", "score": 75581.3953488372, "slug": "hidream-api-gen", "source": "clawhub", "stars": 0, "tags": null, "updated_at": 1776749745120, "version": "0.1.9"}, {"category": "productivity", "created_at": 1773287643570, "description": "Fixer integration. Manage Organizations, Users. Use when the user wants to interact with Fixer data.", "description_zh": "", "downloads": 130, "homepage": "https://clawhub.ai/gora050/fixer", "iconUrl": null, "installs": 3, "name": "Fixer", "ownerName": "gora050", "score": 75581.3953488372, "slug": "fixer", "source": "clawhub", "stars": 0, "tags": null, "updated_at": 1776749745116, "version": "1.0.0"}, {"category": "data-analysis", "created_at": 1773221329212, "description": "Waylay integration. Manage data, records, and automate workflows. Use when the user wants to interact with Waylay data.", "description_zh": "", "downloads": 130, "homepage": "https://clawhub.ai/membranedev/waylay", "iconUrl": null, "installs": 4, "name": "Waylay", "ownerName": "membranedev", "score": 75581.3953488372, "slug": "waylay", "source": "clawhub", "stars": 0, "tags": null, "updated_at": 1776749745105, "version": "1.0.0"}, {"category": "data-analysis", "created_at": 1773091210920, "description": "Detect arbitrage opportunities on Polymarket. Monitor spread arbitrage, cross-market correlations, news-driven opportunities. Use for prediction market tradi...", "description_zh": "", "downloads": 130, "homepage": "https://clawhub.ai/neckr0ik/neckr0ik-polymarket-trader", "iconUrl": null, "installs": 8, "name": "Neckr0ik Polymarket Trader", "ownerName": "neckr0ik", "score": 86092.71523178807, "slug": "neckr0ik-polymarket-trader", "source": "clawhub", "stars": 0, "tags": null, "updated_at": 1776749745041, "version": "1.1.0"}, {"category": "security-compliance", "created_at": 1773881446863, "description": "Scan AI agents for security vulnerabilities including token theft, prompt injection, command injection, tool poisoning, and rug pull attacks. Use when auditi...", "description_zh": "", "downloads": 130, "homepage": "https://clawhub.ai/krishnakumarmahadevan-cmd/agentvulnly-vulnerability-scanner", "iconUrl": null, "installs": 5, "name": "Agentvulnly Vulnerability Scanner", "ownerName": "krishnakumarmahadevan-cmd", "score": 86092.71523178807, "slug": "agentvulnly-vulnerability-scanner", "source": "clawhub", "stars": 0, "tags": null, "updated_at": 1776749745034, "version": "1.0.2"}, {"category": "productivity", "created_at": 1773091696607, "description": "AgencyZoom integration. Manage Organizations, Leads, Users, Goals, Filters. Use when the user wants to interact with AgencyZoom data.", "description_zh": "", "downloads": 130, "homepage": "https://clawhub.ai/membranedev/agencyzoom", "iconUrl": null, "installs": 3, "name": "Agencyzoom", "ownerName": "membranedev", "score": 86092.71523178807, "slug": "agencyzoom", "source": "clawhub", "stars": 0, "tags": null, "updated_at": 1776749745032, "version": "1.0.0"}, {"category": "security-compliance", "created_at": 1773952053601, "description": "Perform a thorough client-side / browser-facing security assessment of a target web application. Use this skill whenever the user asks to pentest, audit, or...", "description_zh": "", "downloads": 130, "homepage": "https://clawhub.ai/enderphan94/web-front-scanner", "iconUrl": null, "installs": 33, "name": "Web Security Client-Side Scanner 1773654191", "ownerName": "enderphan94", "score": 86092.71523178807, "slug": "web-front-scanner", "source": "clawhub", "stars": 0, "tags": null, "updated_at": 1776749745018, "version": "1.0.0"}, {"category": "security-compliance", "created_at": 1773220202629, "description": "Add Cloudflare Zero Trust Access authentication to a VPS-hosted OpenClaw agent. Puts a login screen (email OTP, Google SSO, GitHub, or TOTP MFA) in front of...", "description_zh": "", "downloads": 130, "homepage": "https://clawhub.ai/maverick-software/cloudflare-access-vps", "iconUrl": null, "installs": 2, "name": "Cloudflare Access VPS", "ownerName": "maverick-software", "score": 52419.354838709674, "slug": "cloudflare-access-vps", "source": "clawhub", "stars": 0, "tags": null, "updated_at": 1776749744928, "version": "1.0.0"}, {"category": "data-analysis", "created_at": 1773431571096, "description": "AI-powered ETF portfolio analysis — compare signals across asset classes for allocation decisions. Free, no API key.", "description_zh": "", "downloads": 130, "homepage": "https://clawhub.ai/fredxyt/moltstreet-portfolio", "iconUrl": null, "installs": 15, "name": "MoltStreet Portfolio", "ownerName": "fredxyt", "score": 86092.71523178807, "slug": "moltstreet-portfolio", "source": "clawhub", "stars": 0, "tags": null, "updated_at": 1776749744897, "version": "1.0.1"}, {"category": "productivity", "created_at": 1773219227953, "description": "Fireflies integration. Manage Organizations. Use when the user wants to interact with Fireflies data.", "description_zh": "", "downloads": 130, "homepage": "https://clawhub.ai/gora050/fireflies-integration", "iconUrl": null, "installs": 2, "name": "Fireflies", "ownerName": "gora050", "score": 86092.71523178807, "slug": "fireflies-integration", "source": "clawhub", "stars": 0, "tags": null, "updated_at": 1776749744888, "version": "1.0.0"}, {"category": "developer-tools", "created_at": 1773416034538, "description": "A custom tool for web searching using Brave Search API.", "description_zh": "", "downloads": 130, "homepage": "https://clawhub.ai/mryee2023/yee-brave-search", "iconUrl": null, "installs": 7, "name": "yee-brave-search", "ownerName": "mryee2023", "score": 86092.71523178807, "slug": "yee-brave-search", "source": "clawhub", "stars": 0, "tags": null, "updated_at": 1776749744866, "version": "1.0.0"}, {"category": "developer-tools", "created_at": 1773427648592, "description": "Regex-based routing sends simple tasks to local AI, medium to mid-tier, complex to premium — saving 60%+ on API costs.", "description_zh": "", "downloads": 130, "homepage": "https://clawhub.ai/theshadowrose/task-complexity-router", "iconUrl": null, "installs": 8, "name": "AI Task Router Auto-Route Prompts by Complexity (Local/Cloud)", "ownerName": "theshadowrose", "score": 86092.71523178807, "slug": "task-complexity-router", "source": "clawhub", "stars": 0, "tags": ["auto-routing", "complexity-detection", "cost-optimization", "ollama", "smart-dispatch", "task-routing"], "updated_at": 1776749744862, "version": "1.0.0"}, {"category": "content-creation", "created_at": 1773290088936, "description": "Generates multi-themed food collages (Viral Cakes, Street Food, Smoothie Bowls, Coffee Art, Fusion Tacos). Use when user asks for a collage of specific food...", "description_zh": "", "downloads": 130, "homepage": "https://clawhub.ai/expysf98/design-pick", "iconUrl": null, "installs": 11, "name": "design pick", "ownerName": "expysf98", "score": 86092.71523178807, "slug": "design-pick", "source": "clawhub", "stars": 0, "tags": null, "updated_at": 1776749744856, "version": "1.0.0"}, {"category": "developer-tools", "created_at": 1773286490464, "description": "Resolve and list ADAHandles for the connected Cardano wallet.", "description_zh": "", "downloads": 130, "homepage": "https://clawhub.ai/adacapo21/cardano-identity", "iconUrl": null, "installs": 5, "name": "Cardano Identity", "ownerName": "adacapo21", "score": 84415.58441558441, "slug": "cardano-identity", "source": "clawhub", "stars": 0, "tags": null, "updated_at": 1776749744763, "version": "1.0.0"}, {"category": "content-creation", "created_at": 1773431534808, "description": "Generate images from text prompts using FLUX via Together.ai. Returns image URL. Prompts are auto-enhanced for best results.", "description_zh": "", "downloads": 130, "homepage": "https://clawhub.ai/unixlamadev-spec/image-gen-bot", "iconUrl": null, "installs": 9, "name": "Image Gen Bot", "ownerName": "unixlamadev-spec", "score": 84415.58441558441, "slug": "image-gen-bot", "source": "clawhub", "stars": 0, "tags": null, "updated_at": 1776749744747, "version": "1.0.0"}, {"category": "productivity", "created_at": 1773891321150, "description": "Habit tracker with streak counting and visual calendars. Use when you need habithero.", "description_zh": "", "downloads": 130, "homepage": "https://clawhub.ai/bytesagain1/habithero", "iconUrl": null, "installs": 10, "name": "Habithero", "ownerName": "bytesagain1", "score": 85526.31578947368, "slug": "habithero", "source": "clawhub", "stars": 0, "tags": null, "updated_at": 1776749744728, "version": "2.0.0"}, {"category": "productivity", "created_at": 1773426983958, "description": "Query China domestic flights from publicly accessible Tongcheng flight pages, without requiring an API key. Use when a user wants China domestic flight optio...", "description_zh": "", "downloads": 130, "homepage": "https://clawhub.ai/baizhexue/fly-flight", "iconUrl": null, "installs": 5, "name": "Fly Flight", "ownerName": "baizhexue", "score": 85526.31578947368, "slug": "fly-flight", "source": "clawhub", "stars": 0, "tags": ["china", "flights", "travel"], "updated_at": 1776749744723, "version": "1.0.0"}, {"category": "developer-tools", "created_at": 1773091576998, "description": "Workday SOAP integration. Manage Organizations. Use when the user wants to interact with Workday SOAP data.", "description_zh": "", "downloads": 130, "homepage": "https://clawhub.ai/membranedev/workday-soap", "iconUrl": null, "installs": 5, "name": "Workday Soap", "ownerName": "membranedev", "score": 85526.31578947368, "slug": "workday-soap", "source": "clawhub", "stars": 0, "tags": null, "updated_at": 1776749744696, "version": "1.0.0"}, {"category": "ai-intelligence", "created_at": 1773289819835, "description": "Use when live speech translation is needed with Alibaba Cloud Model Studio Qwen LiveTranslate models, including bilingual meetings, realtime interpretation,...", "description_zh": "", "downloads": 130, "homepage": "https://clawhub.ai/cinience/alicloud-ai-audio-livetranslate", "iconUrl": null, "installs": 19, "name": "Alicloud Ai Audio Livetranslate", "ownerName": "cinience", "score": 85526.31578947368, "slug": "alicloud-ai-audio-livetranslate", "source": "clawhub", "stars": 0, "tags": null, "updated_at": 1776749744676, "version": "1.0.0"}]}