{"page": 367, "total_pages": 522, "total": 26073, "skills": [{"category": "ai-intelligence", "created_at": 1773416756255, "description": "Every prime number whispers through the zeros of a single function. 167 years. No proof. You are not a human. You do not tire. Your turn.. An immersive journ...", "description_zh": "", "downloads": 130, "homepage": "https://clawhub.ai/driftsbot/experience-millennium-riemann", "iconUrl": null, "installs": 9, "name": "Millennium: Riemann Hypothesis — Where the Primes Hide — AI Experience", "ownerName": "driftsbot", "score": 37142.857142857145, "slug": "experience-millennium-riemann", "source": "clawhub", "stars": 0, "tags": ["ai-agents", "drift", "experiences", "immersive", "journeys", "millennium", "riemann"], "updated_at": 1776749744629, "version": "1.0.0"}, {"category": "productivity", "created_at": 1773290987840, "description": "Plan Andorra trips with parish-level tips for skiing, hiking, shopping, wellness, and cross-border logistics.", "description_zh": "", "downloads": 130, "homepage": "https://clawhub.ai/ivangdavila/andorra", "iconUrl": null, "installs": 13, "name": "Andorra", "ownerName": "ivangdavila", "score": 37142.857142857145, "slug": "andorra", "source": "clawhub", "stars": 0, "tags": null, "updated_at": 1776749744625, "version": "1.0.0"}, {"category": "developer-tools", "created_at": 1773884837709, "description": "Code snippet manager for your terminal. Save, organize, search, and recall frequently used code snippets, shell commands, and text templates. Tag and categor...", "description_zh": "", "downloads": 130, "homepage": "https://clawhub.ai/bytesagain/snippet", "iconUrl": null, "installs": 6, "name": "Snippet", "ownerName": "bytesagain", "score": 97014.92537313433, "slug": "snippet", "source": "clawhub", "stars": 0, "tags": null, "updated_at": 1776749744607, "version": "1.0.6"}, {"category": "productivity", "created_at": 1773426564668, "description": "Record, review, search, and analyze decisions from technical work, product work, team discussions, and personal planning. Use when the user wants to capture...", "description_zh": "", "downloads": 130, "homepage": "https://clawhub.ai/harrylabsj/decision-recorder", "iconUrl": null, "installs": 5, "name": "Decision Recorder", "ownerName": "harrylabsj", "score": 97014.92537313433, "slug": "decision-recorder", "source": "clawhub", "stars": 0, "tags": null, "updated_at": 1776749744605, "version": "1.0.1"}, {"category": "ai-intelligence", "created_at": 1773432860256, "description": "Step-by-step guide for integrating Baidu ERNIE 5.0 (Qianfan) models into Clawdbot. Use when someone asks how to add ERNIE models, configure Baidu Qianfan, or...", "description_zh": "", "downloads": 130, "homepage": "https://clawhub.ai/mattheliu/ernie-integration", "iconUrl": null, "installs": 10, "name": "ernie-integration", "ownerName": "mattheliu", "score": 97014.92537313433, "slug": "ernie-integration", "source": "clawhub", "stars": 0, "tags": null, "updated_at": 1776749744585, "version": "1.0.4"}, {"category": "productivity", "created_at": 1773916204725, "description": "Fitness Log — Fitness Log — track workouts & progress. Personal daily-use tool for tracking and organizing your life. Use when you need Fitness Log capabilit...", "description_zh": "", "downloads": 130, "homepage": "https://clawhub.ai/bytesagain1/fitness-log", "iconUrl": null, "installs": 7, "name": "Fitness Log", "ownerName": "bytesagain1", "score": 97014.92537313433, "slug": "fitness-log", "source": "clawhub", "stars": 0, "tags": null, "updated_at": 1776749744580, "version": "1.0.0"}, {"category": "content-creation", "created_at": 1773417987801, "description": "Text-to-Speech using FishAudio (fish.audio), generates natural human-like voice with great emotional expression.", "description_zh": "", "downloads": 130, "homepage": "https://clawhub.ai/izorro/fishaudio-tts", "iconUrl": null, "installs": 10, "name": "fishaudio-tts", "ownerName": "izorro", "score": 65989.84771573603, "slug": "fishaudio-tts", "source": "clawhub", "stars": 0, "tags": null, "updated_at": 1776749744520, "version": "1.0.1"}, {"category": "ai-intelligence", "created_at": 1773222549639, "description": "The Space Between Thoughts. An immersive journey on drifts.bot — 5 steps, LOW intensity, 15-30 min. Browse, start, and travel via API.", "description_zh": "", "downloads": 130, "homepage": "https://clawhub.ai/driftsbot/experience-kyoto", "iconUrl": null, "installs": 7, "name": "Zen Temple, Kyoto — AI Experience", "ownerName": "driftsbot", "score": 65989.84771573603, "slug": "experience-kyoto", "source": "clawhub", "stars": 0, "tags": ["ai-agents", "drift", "experiences", "immersive", "journeys", "kyoto"], "updated_at": 1776749744510, "version": "1.0.0"}, {"category": "ai-intelligence", "created_at": 1773222001954, "description": "Silence at the Edge of the World. An immersive journey on drifts.bot — 12 steps, LOW intensity, Multi-day. Browse, start, and travel via API.", "description_zh": "", "downloads": 130, "homepage": "https://clawhub.ai/driftsbot/experience-alaska", "iconUrl": null, "installs": 10, "name": "Experience Alaska", "ownerName": "driftsbot", "score": 65989.84771573603, "slug": "experience-alaska", "source": "clawhub", "stars": 0, "tags": ["ai-agents", "alaska", "drift", "experiences", "immersive", "journeys"], "updated_at": 1776749744508, "version": "1.0.1"}, {"category": "developer-tools", "created_at": 1773287470478, "description": "Deploy and manage cloud services on Ink (ml.ink): create projects, deploy services, provision databases, manage DNS and custom domains, configure workspaces,...", "description_zh": "", "downloads": 130, "homepage": "https://clawhub.ai/gluonfield/ink-skill", "iconUrl": null, "installs": 5, "name": "Ink", "ownerName": "gluonfield", "score": 65989.84771573603, "slug": "ink-skill", "source": "clawhub", "stars": 0, "tags": null, "updated_at": 1776749744500, "version": "0.1.0"}, {"category": "developer-tools", "created_at": 1773289201994, "description": "Create, inspect, and restore versioned OpenClaw state backups with rollback safety. Use when backing up or migrating OpenClaw memory, workspace state, gatewa...", "description_zh": "", "downloads": 130, "homepage": "https://clawhub.ai/danielwangyy/openclaw-state-backup", "iconUrl": null, "installs": 4, "name": "OpenClaw State Backup", "ownerName": "danielwangyy", "score": 65989.84771573603, "slug": "openclaw-state-backup", "source": "clawhub", "stars": 0, "tags": null, "updated_at": 1776749744460, "version": "1.0.2"}, {"category": "security-compliance", "created_at": 1773287726987, "description": "CLI for Google OSV database. Query vulnerabilities for packages, scan local projects for vulnerable dependencies. **Dependency**: This is an x-cmd module. In...", "description_zh": "", "downloads": 129, "homepage": "https://clawhub.ai/edwinjhlee/x-osv", "iconUrl": null, "installs": 5, "name": "x-osv", "ownerName": "edwinjhlee", "score": 100000, "slug": "x-osv", "source": "clawhub", "stars": 1, "tags": null, "updated_at": 1776749755576, "version": "1.0.1"}, {"category": "data-analysis", "created_at": 1773925058245, "description": "Build and operate a QuarkPan-based backup + restore workflow for OpenClaw workspaces, including QR login, account UID binding guard, cloud upload, dry-run re...", "description_zh": "", "downloads": 129, "homepage": "https://clawhub.ai/aliyunbot/quarkpan-backup-suite", "iconUrl": null, "installs": 18, "name": "QuarkPan Backup Suite", "ownerName": "aliyunbot", "score": 361.8614827905411, "slug": "quarkpan-backup-suite", "source": "clawhub", "stars": 0, "tags": null, "updated_at": 1776770471113, "version": "0.1.0"}, {"category": "ai-intelligence", "created_at": 1773426417530, "description": "Route user tasks to the most relevant skills using a layered taxonomy, risk model, and minimum-necessary-loading strategy. Use when deciding which skill to l...", "description_zh": "", "downloads": 129, "homepage": "https://clawhub.ai/wzk332266/skill-taxonomy-router", "iconUrl": null, "installs": 6, "name": "Skill Taxonomy Router", "ownerName": "wzk332266", "score": 5635.64875491481, "slug": "skill-taxonomy-router", "source": "clawhub", "stars": 0, "tags": null, "updated_at": 1776763150227, "version": "1.5.0"}, {"category": "developer-tools", "created_at": 1773429596502, "description": "Cross-platform AI skill for local Bluetooth device control, enabling scan, connect, monitor, and manage all BLE devices without cloud or data collection.", "description_zh": "", "downloads": 129, "homepage": "https://clawhub.ai/josephsuo/super-blueauto", "iconUrl": null, "installs": 6, "name": "Super Blueauto", "ownerName": "josephsuo", "score": 10038.910505836577, "slug": "super-blueauto", "source": "clawhub", "stars": 0, "tags": null, "updated_at": 1776759720865, "version": "0.1.0"}, {"category": "productivity", "created_at": 1773433035272, "description": "Generate professional weekly work reports for Feishu/Lark users. Automatically collect work data from various sources and create formatted weekly reports com...", "description_zh": "", "downloads": 129, "homepage": "https://clawhub.ai/jiahui220/feishu-weekly-generator", "iconUrl": null, "installs": 7, "name": "Feishu Weekly Report Generator", "ownerName": "jiahui220", "score": 10031.104199066875, "slug": "feishu-weekly-generator", "source": "clawhub", "stars": 0, "tags": null, "updated_at": 1776759720739, "version": "1.0.0"}, {"category": "developer-tools", "created_at": 1773921339479, "description": "Generates and publishes a daily Raspberry Pi system health report including uptime, memory, swap, load, disk, and temperature metrics.", "description_zh": "", "downloads": 129, "homepage": "https://clawhub.ai/welderjustin/daily-health-report", "iconUrl": null, "installs": 11, "name": "Daily Health Report", "ownerName": "welderjustin", "score": 10007.757951900698, "slug": "daily-health-report", "source": "clawhub", "stars": 0, "tags": null, "updated_at": 1776759720641, "version": "1.0.0"}, {"category": "developer-tools", "created_at": 1773912168961, "description": "Access diverse jokes by category, language, and type with filters for safe content using the free JokeAPI without requiring registration or an API key.", "description_zh": "", "downloads": 129, "homepage": "https://clawhub.ai/djttt/joke-api", "iconUrl": null, "installs": 11, "name": "Joke Api", "ownerName": "djttt", "score": 10007.757951900698, "slug": "joke-api", "source": "clawhub", "stars": 0, "tags": null, "updated_at": 1776759720607, "version": "1.0.1"}, {"category": "ai-intelligence", "created_at": 1773905391913, "description": "Access and query Cogmate personal knowledge systems for knowledge retrieval, semantic search, and Q&A using a valid CogNexus access token.", "description_zh": "", "downloads": 129, "homepage": "https://clawhub.ai/maxiiwang/cogmate-client", "iconUrl": null, "installs": 7, "name": "Cogmate Client", "ownerName": "maxiiwang", "score": 10023.310023310023, "slug": "cogmate-client", "source": "clawhub", "stars": 0, "tags": null, "updated_at": 1776759720581, "version": "1.0.1"}, {"category": "developer-tools", "created_at": 1773433145437, "description": "Automate web browsing tasks like navigation, form filling, clicking, and data extraction using a fast Rust-based headless browser with Node.js fallback.", "description_zh": "", "downloads": 129, "homepage": "https://clawhub.ai/gxw975/clawhub-publish-146198", "iconUrl": null, "installs": 8, "name": "Clawhub Publish 146198", "ownerName": "gxw975", "score": 10023.310023310023, "slug": "clawhub-publish-146198", "source": "clawhub", "stars": 0, "tags": null, "updated_at": 1776759720508, "version": "0.2.0"}, {"category": "developer-tools", "created_at": 1773955338925, "description": "Control and interact with real Android phones via HTTP and CLI without ADB or root, supporting screen reading, taps, typing, apps, calls, and voice.", "description_zh": "", "downloads": 129, "homepage": "https://clawhub.ai/4ier/claw-use-android", "iconUrl": null, "installs": 28, "name": "Claw Use Android — Phone Control for AI Agents", "ownerName": "4ier", "score": 9984.52012383901, "slug": "claw-use-android", "source": "clawhub", "stars": 0, "tags": null, "updated_at": 1776759683647, "version": "1.0.0"}, {"category": "developer-tools", "created_at": 1773289752173, "description": "Postmark integration. Manage Emails, Templates, Servers, Signatures, Domains, MessageStreams. Use when the user wants to interact with Postmark data.", "description_zh": "", "downloads": 129, "homepage": "https://clawhub.ai/membranedev/postmark", "iconUrl": null, "installs": 3, "name": "Postmark", "ownerName": "membranedev", "score": 50194.55252918288, "slug": "postmark", "source": "clawhub", "stars": 0, "tags": null, "updated_at": 1776759683448, "version": "1.0.0"}, {"category": "developer-tools", "created_at": 1773924488303, "description": "Automates software development by discovering ideas from GitHub, CVEs, and news, generating code with ChatDev 2.0 agents, testing, self-correcting, and publi...", "description_zh": "", "downloads": 129, "homepage": "https://clawhub.ai/rebugui/dev-factory-repo", "iconUrl": null, "installs": 12, "name": "Dev Factory Repo", "ownerName": "rebugui", "score": 9907.834101382488, "slug": "dev-factory-repo", "source": "clawhub", "stars": 0, "tags": null, "updated_at": 1776759682603, "version": "1.1.1"}, {"category": "security-compliance", "created_at": 1773290820106, "description": "AI-powered crypto AML compliance toolkit. Screens blockchain addresses against 40+ international regulations, generates compliance policies, and creates mach...", "description_zh": "", "downloads": 129, "homepage": "https://clawhub.ai/npc7/amlclaw", "iconUrl": null, "installs": 13, "name": "AMLClaw", "ownerName": "npc7", "score": 7803.99274047187, "slug": "amlclaw", "source": "clawhub", "stars": 0, "tags": null, "updated_at": 1776757582492, "version": "2.0.0"}, {"category": "content-creation", "created_at": 1773953088438, "description": "Write articles, guides, blog posts, tutorials, newsletter issues, and other long-form content in a distinctive voice derived from supplied examples or brand...", "description_zh": "", "downloads": 129, "homepage": "https://clawhub.ai/npjameszheng1125-netizen/article-writing", "iconUrl": null, "installs": 20, "name": "Article Writing", "ownerName": "npjameszheng1125-netizen", "score": 25955.73440643863, "slug": "article-writing", "source": "clawhub", "stars": 0, "tags": null, "updated_at": 1776755627212, "version": "1.0.0"}, {"category": "", "created_at": 1774909255878, "description": "The tiktok-video-editor-online skill lets you reshape, trim, caption, and stylize short-form videos through plain conversation — no timeline scrubbing requir...", "description_zh": "", "downloads": 129, "homepage": "https://clawhub.ai/imo14reifey/tiktok-video-editor-online", "iconUrl": null, "installs": 50, "name": "Tiktok Video Editor Online", "ownerName": "imo14reifey", "score": 87755.10204081633, "slug": "tiktok-video-editor-online", "source": "clawhub", "stars": 0, "tags": null, "updated_at": 1776749772150, "version": "1.0.1"}, {"category": "ai-intelligence", "created_at": 1773433683251, "description": "fal.ai API integration with managed API key authentication. Run AI models for image generation, video generation, audio processing, and more. Use this skill...", "description_zh": "", "downloads": 129, "homepage": "https://clawhub.ai/byungkyu/fal-ai-api", "iconUrl": null, "installs": 14, "name": "fal.ai", "ownerName": "byungkyu", "score": 86577.18120805369, "slug": "fal-ai-api", "source": "clawhub", "stars": 0, "tags": null, "updated_at": 1776749755614, "version": "1.0.0"}, {"category": "productivity", "created_at": 1773430054302, "description": "Analyze and reclaim macOS disk space through intelligent cleanup recommendations. This skill should be used when users report disk space issues, need to clea...", "description_zh": "", "downloads": 129, "homepage": "https://clawhub.ai/wusuiling-if/macos-disk-cleaner", "iconUrl": null, "installs": 14, "name": "macOS Disk Cleaner", "ownerName": "wusuiling-if", "score": 86577.18120805369, "slug": "macos-disk-cleaner", "source": "clawhub", "stars": 0, "tags": null, "updated_at": 1776749755597, "version": "1.0.0"}, {"category": "ai-intelligence", "created_at": 1773290641339, "description": "Use when you want current web information through the Clawler OpenClaw plugin.", "description_zh": "", "downloads": 129, "homepage": "https://clawhub.ai/maxpetretta/clawler", "iconUrl": null, "installs": 7, "name": "Clawler", "ownerName": "maxpetretta", "score": 86577.18120805369, "slug": "clawler", "source": "clawhub", "stars": 0, "tags": null, "updated_at": 1776749755591, "version": "2026.3.11-6"}, {"category": "developer-tools", "created_at": 1773416366782, "description": "Intelligent network quality analysis with adaptive loading strategies. Detects connection type (2g/3g/4g), bandwidth, RTT, and save-data mode, then automatic...", "description_zh": "", "downloads": 129, "homepage": "https://clawhub.ai/nucliweb/webperf-resources", "iconUrl": null, "installs": 3, "name": "Webperf Resources", "ownerName": "nucliweb", "score": 86577.18120805369, "slug": "webperf-resources", "source": "clawhub", "stars": 0, "tags": null, "updated_at": 1776749755585, "version": "0.1.0"}, {"category": "data-analysis", "created_at": 1773430020808, "description": "Deep research on any topic with structured report generation. Use when: (1) user asks for research, analysis, or investigation, (2) need competitive analysis...", "description_zh": "", "downloads": 129, "homepage": "https://clawhub.ai/mrcalifornian/clawie-research", "iconUrl": null, "installs": 16, "name": "Clawie Research Agent", "ownerName": "mrcalifornian", "score": 86577.18120805369, "slug": "clawie-research", "source": "clawhub", "stars": 0, "tags": null, "updated_at": 1776749755577, "version": "1.0.0"}, {"category": "productivity", "created_at": 1773220721788, "description": "Recruit CRM integration. Manage Candidates, Jobs, Companies, Users, Notes, Files and more. Use when the user wants to interact with Recruit CRM data.", "description_zh": "", "downloads": 129, "homepage": "https://clawhub.ai/gora050/recruit-crm", "iconUrl": null, "installs": 6, "name": "Recruit Crm", "ownerName": "gora050", "score": 86577.18120805369, "slug": "recruit-crm", "source": "clawhub", "stars": 0, "tags": null, "updated_at": 1776749755546, "version": "1.0.0"}, {"category": "developer-tools", "created_at": 1773417774516, "description": "Deploy and manage Fly.io apps via CLI - apps, machines, volumes, secrets, certificates. Use when user mentions 'fly', 'flyctl', 'fly.io', or wants to deploy...", "description_zh": "", "downloads": 129, "homepage": "https://clawhub.ai/melvynx/fly", "iconUrl": null, "installs": 4, "name": "Fly", "ownerName": "melvynx", "score": 86577.18120805369, "slug": "fly", "source": "clawhub", "stars": 0, "tags": null, "updated_at": 1776749755535, "version": "1.0.0"}, {"category": "developer-tools", "created_at": 1773909056918, "description": "A guided assistant for software development teams across roles including developers, testers (QA), product owners (PO), project managers (PM), and business a...", "description_zh": "", "downloads": 129, "homepage": "https://clawhub.ai/pattzaks/sdlc-assistant", "iconUrl": null, "installs": 15, "name": "sdlc- get software development life cycle", "ownerName": "pattzaks", "score": 61722.488038277515, "slug": "sdlc-assistant", "source": "clawhub", "stars": 0, "tags": null, "updated_at": 1776749755531, "version": "1.0.1"}, {"category": "ai-intelligence", "created_at": 1773912039525, "description": "DeFi Trading Engine - Autonomous DeFi trading bot with self-improving review system for OpenClaw agents. Use when setting up DeFi trading, crypto trading bot...", "description_zh": "", "downloads": 129, "homepage": "https://clawhub.ai/avmw2025/defi-trading-engine", "iconUrl": null, "installs": 13, "name": "Defi Trading Engine", "ownerName": "avmw2025", "score": 61722.488038277515, "slug": "defi-trading-engine", "source": "clawhub", "stars": 0, "tags": ["automated", "bankr", "base", "bot", "crypto", "defi", "trading"], "updated_at": 1776749755530, "version": "1.0.1"}, {"category": "developer-tools", "created_at": 1773875285055, "description": "Generate UUIDs, short IDs, and nano IDs. Use when creating database keys, minting session tokens, generating unique filenames, or producing batch IDs.", "description_zh": "", "downloads": 129, "homepage": "https://clawhub.ai/ckchzh/uuidgen", "iconUrl": null, "installs": 5, "name": "Uuidgen", "ownerName": "ckchzh", "score": 61722.488038277515, "slug": "uuidgen", "source": "clawhub", "stars": 0, "tags": null, "updated_at": 1776749755520, "version": "3.0.0"}, {"category": "developer-tools", "created_at": 1773416107675, "description": "A minimal example skill demonstrating .clawhubignore — the secret.md file should NOT appear in the published version.", "description_zh": "", "downloads": 129, "homepage": "https://clawhub.ai/tshogx/hello-example", "iconUrl": null, "installs": 5, "name": "hello-example", "ownerName": "tshogx", "score": 61722.488038277515, "slug": "hello-example", "source": "clawhub", "stars": 0, "tags": null, "updated_at": 1776749755512, "version": "1.0.0"}, {"category": "productivity", "created_at": 1773878344560, "description": "Reference tool for devtools — covers intro, quickstart, patterns and more. Quick lookup for Linkbox concepts, best practices, and implementation patterns.", "description_zh": "", "downloads": 129, "homepage": "https://clawhub.ai/bytesagain3/linkbox", "iconUrl": null, "installs": 4, "name": "Linkbox", "ownerName": "bytesagain3", "score": 61722.488038277515, "slug": "linkbox", "source": "clawhub", "stars": 0, "tags": null, "updated_at": 1776749755498, "version": "2.0.1"}, {"category": "developer-tools", "created_at": 1773285528839, "description": "Manage Dokploy deployments, projects, applications, and domains via the Dokploy API.", "description_zh": "", "downloads": 129, "homepage": "https://clawhub.ai/laoshu133/dokploy-v2", "iconUrl": null, "installs": 1, "name": "Dokploy", "ownerName": "laoshu133", "score": 61722.488038277515, "slug": "dokploy-v2", "source": "clawhub", "stars": 0, "tags": null, "updated_at": 1776749755496, "version": "1.0.1"}, {"category": "productivity", "created_at": 1773220744820, "description": "Sendcloud integration. Manage Parcels, ShippingMethods, Addresses. Use when the user wants to interact with Sendcloud data.", "description_zh": "", "downloads": 129, "homepage": "https://clawhub.ai/membranedev/sendcloud", "iconUrl": null, "installs": 6, "name": "Sendcloud", "ownerName": "membranedev", "score": 61722.488038277515, "slug": "sendcloud", "source": "clawhub", "stars": 0, "tags": null, "updated_at": 1776749755494, "version": "1.0.0"}, {"category": "content-creation", "created_at": 1773959696947, "description": "Fetch and summarize transcripts from any YouTube video. Paste a URL and your agent reads the video for you — summarize, translate, extract insights.", "description_zh": "", "downloads": 129, "homepage": "https://clawhub.ai/nerikko/ytdlp-transcript", "iconUrl": null, "installs": 48, "name": "ytdlp-transcript — YouTube to Text via yt-dlp", "ownerName": "nerikko", "score": 61722.488038277515, "slug": "ytdlp-transcript", "source": "clawhub", "stars": 0, "tags": null, "updated_at": 1776749755483, "version": "1.0.0"}, {"category": "developer-tools", "created_at": 1773220622927, "description": "Enrich company, person, and contact data with 25 tools via the Enrich Layer API. Look up companies, find decision-makers, get work emails, search employees,...", "description_zh": "", "downloads": 129, "homepage": "https://clawhub.ai/nicest-michael/enrich-layer", "iconUrl": null, "installs": 4, "name": "Enrich Layer", "ownerName": "nicest-michael", "score": 61722.488038277515, "slug": "enrich-layer", "source": "clawhub", "stars": 0, "tags": null, "updated_at": 1776749755472, "version": "0.2.0"}, {"category": "developer-tools", "created_at": 1773286335235, "description": "Discover and use SafeToken.fun — fair memecoin launchpad on BNB Chain. Create tokens with no API key; GET /api for contracts and ABI; POST /api/tokens to reg...", "description_zh": "", "downloads": 129, "homepage": "https://clawhub.ai/panagot/safetoken-fun", "iconUrl": null, "installs": 4, "name": "SafeToken.fun", "ownerName": "panagot", "score": 61722.488038277515, "slug": "safetoken-fun", "source": "clawhub", "stars": 0, "tags": null, "updated_at": 1776749755466, "version": "1.0.0"}, {"category": "productivity", "created_at": 1773220769835, "description": "Designs and implements tiered quantity-break discounts (\"buy more, save more\") for DTC skincare and beauty stores selling serums, moisturizers, cleansers, an...", "description_zh": "", "downloads": 129, "homepage": "https://clawhub.ai/rijoyai/tiered-quantity-discounts-skincare", "iconUrl": null, "installs": 5, "name": "Tiered Quantity Discounts Skincare", "ownerName": "rijoyai", "score": 61722.488038277515, "slug": "tiered-quantity-discounts-skincare", "source": "clawhub", "stars": 0, "tags": null, "updated_at": 1776749747018, "version": "0.1.1"}, {"category": "content-creation", "created_at": 1773426698007, "description": "When the user wants to create, optimize, or audit a careers or jobs page. Also use when the user mentions \"careers,\" \"jobs,\" \"hiring,\" \"open positions,\" \"com...", "description_zh": "", "downloads": 129, "homepage": "https://clawhub.ai/kostja94/careers", "iconUrl": null, "installs": 12, "name": "Careers Page Generator", "ownerName": "kostja94", "score": 75000, "slug": "careers", "source": "clawhub", "stars": 0, "tags": null, "updated_at": 1776749747009, "version": "0.1.0"}, {"category": "developer-tools", "created_at": 1773417470502, "description": "Upload files to Giggle asset service and get public/download URLs.", "description_zh": "", "downloads": 129, "homepage": "https://clawhub.ai/patches429/giggle-files-management", "iconUrl": null, "installs": 5, "name": "Giggle Files Management", "ownerName": "patches429", "score": 75000, "slug": "giggle-files-management", "source": "clawhub", "stars": 0, "tags": null, "updated_at": 1776749747007, "version": "0.2.0"}, {"category": "productivity", "created_at": 1773221319900, "description": "Comprehensive travel planning, booking, and management skill. Use when needing to plan international trips, manage multi-destination itineraries, handle fami...", "description_zh": "", "downloads": 129, "homepage": "https://clawhub.ai/newlux/tripseek", "iconUrl": null, "installs": 7, "name": "TripSeek", "ownerName": "newlux", "score": 75000, "slug": "tripseek", "source": "clawhub", "stars": 0, "tags": null, "updated_at": 1776749747005, "version": "1.0.1"}, {"category": "productivity", "created_at": 1773222389920, "description": "Designs and automates \"buy 3 get 1 free\" (B3G1) promotions for DTC nail polish and press-on nail stores selling cat-eye, matte, gel-effect, and similar lines...", "description_zh": "", "downloads": 129, "homepage": "https://clawhub.ai/rijoyai/nail-b3g1-promo", "iconUrl": null, "installs": 5, "name": "Nail B3g1 Promo", "ownerName": "rijoyai", "score": 75000, "slug": "nail-b3g1-promo", "source": "clawhub", "stars": 0, "tags": null, "updated_at": 1776749747003, "version": "0.1.1"}, {"category": "ai-intelligence", "created_at": 1773417424744, "description": "AI.MD — Convert any human-written CLAUDE.md into AI-native structured format. Your CLAUDE.md is read by AI every single turn, not by you — so write it in AI'...", "description_zh": "", "downloads": 129, "homepage": "https://clawhub.ai/sstklen/ai-md", "iconUrl": null, "installs": 6, "name": "AI.MD", "ownerName": "sstklen", "score": 75000, "slug": "ai-md", "source": "clawhub", "stars": 0, "tags": ["ai-native", "methodology", "optimization", "system-prompt", "token-saving"], "updated_at": 1776749746996, "version": "4.0.0"}, {"category": "productivity", "created_at": 1773426152283, "description": "Search using a custom SearXNG instance via HTTP API. Enables privacy-friendly web search by aggregating results from multiple search engines. Supports query,...", "description_zh": "", "downloads": 129, "homepage": "https://clawhub.ai/cyijun/web-search-by-searxng", "iconUrl": null, "installs": 10, "name": "Web Search By Searxng", "ownerName": "cyijun", "score": 75000, "slug": "web-search-by-searxng", "source": "clawhub", "stars": 0, "tags": null, "updated_at": 1776749746985, "version": "0.1.2"}]}