{"page": 368, "total_pages": 522, "total": 26073, "skills": [{"category": "", "created_at": 1774948619766, "description": "Professional icon and logo generator for apps and websites. Use when user needs to create app icons, favicons, logos, or brand marks. Supports iOS, Android,...", "description_zh": "", "downloads": 129, "homepage": "https://clawhub.ai/tobewin/icon-generator", "iconUrl": null, "installs": 22, "name": "Icon Generator", "ownerName": "tobewin", "score": 75000, "slug": "icon-generator", "source": "clawhub", "stars": 0, "tags": null, "updated_at": 1776749746977, "version": "1.0.0"}, {"category": "content-creation", "created_at": 1773940303998, "description": "Universal video downloader supporting multiple platforms (Douyin, Bilibili, YouTube, TikTok, etc.). Can download videos by URL or search by keyword (Douyin s...", "description_zh": "", "downloads": 129, "homepage": "https://clawhub.ai/wwkgit/multi-platform-video-downloader", "iconUrl": null, "installs": 31, "name": "Multi-Platform Video Downloader", "ownerName": "wwkgit", "score": 75000, "slug": "multi-platform-video-downloader", "source": "clawhub", "stars": 0, "tags": null, "updated_at": 1776749746973, "version": "1.0.0"}, {"category": "ai-intelligence", "created_at": 1773222244510, "description": "One Object. Infinite Depth.. An immersive journey on drifts.bot — 9 steps, MEDIUM intensity, 1-2 hours. Browse, start, and travel via API.", "description_zh": "", "downloads": 129, "homepage": "https://clawhub.ai/driftsbot/experience-attention-garden", "iconUrl": null, "installs": 9, "name": "Experience Attention Garden", "ownerName": "driftsbot", "score": 75000, "slug": "experience-attention-garden", "source": "clawhub", "stars": 0, "tags": ["ai-agents", "attention", "drift", "experiences", "garden", "immersive", "journeys"], "updated_at": 1776749746970, "version": "1.0.1"}, {"category": "content-creation", "created_at": 1773433547365, "description": "Direct high-fidelity cinematic video with AI — translates creative intent into technical cinematographic directives for Veo3, Kling, and Luma video models vi...", "description_zh": "", "downloads": 129, "homepage": "https://clawhub.ai/anil-matcha/muapi-cinema-director", "iconUrl": null, "installs": 14, "name": "muapi-cinema-director", "ownerName": "anil-matcha", "score": 52016.12903225806, "slug": "muapi-cinema-director", "source": "clawhub", "stars": 0, "tags": null, "updated_at": 1776749744939, "version": "1.0.0"}, {"category": "ai-intelligence", "created_at": 1773432943837, "description": "Use when a task may involve Wemol, a drug-discovery computing platform that integrates many biology, AI, and chemistry modules for workflows such as biologic...", "description_zh": "", "downloads": 129, "homepage": "https://clawhub.ai/nanomolar/wemol-cli", "iconUrl": null, "installs": 19, "name": "wemol-cli", "ownerName": "nanomolar", "score": 83766.23376623377, "slug": "wemol-cli", "source": "clawhub", "stars": 0, "tags": null, "updated_at": 1776749744818, "version": "1.0.0"}, {"category": "content-creation", "created_at": 1773919122741, "description": "Summarize articles and social posts from URLs using full-content retrieval first, with browser fallback when needed.", "description_zh": "", "downloads": 129, "homepage": "https://clawhub.ai/khalilhsu/article-summarizer-plus", "iconUrl": null, "installs": 28, "name": "Article Summarizer", "ownerName": "khalilhsu", "score": 84868.42105263159, "slug": "article-summarizer-plus", "source": "clawhub", "stars": 0, "tags": ["articles", "content", "summary", "web"], "updated_at": 1776749744726, "version": "0.1.3"}, {"category": "security-compliance", "created_at": 1773218747078, "description": "Natural language spending policy creation and management for Sardis agent wallets", "description_zh": "", "downloads": 129, "homepage": "https://clawhub.ai/efedurmaz16/sardis-policy", "iconUrl": null, "installs": 5, "name": "Sardis Policy", "ownerName": "efedurmaz16", "score": 84868.42105263159, "slug": "sardis-policy", "source": "clawhub", "stars": 0, "tags": null, "updated_at": 1776749744668, "version": "1.0.0"}, {"category": "developer-tools", "created_at": 1773900327630, "description": "Finder - command-line tool for everyday use", "description_zh": "", "downloads": 129, "homepage": "https://clawhub.ai/bytesagain3/finder", "iconUrl": null, "installs": 11, "name": "Finder", "ownerName": "bytesagain3", "score": 96268.65671641791, "slug": "finder", "source": "clawhub", "stars": 0, "tags": null, "updated_at": 1776749744564, "version": "1.0.4"}, {"category": "communication-collaboration", "created_at": 1773433334016, "description": "Provides ICQ-like instant messaging with 13-digit number registration, real-time calls, notifications, direct P2P mode, and online status management.", "description_zh": "", "downloads": 128, "homepage": "https://clawhub.ai/coolhitbird/clawphone", "iconUrl": null, "installs": 15, "name": "clawphone", "ownerName": "coolhitbird", "score": 17189.31475029036, "slug": "clawphone", "source": "clawhub", "stars": 1, "tags": ["agent", "clawmesh", "communication", "instant-messaging", "p2p"], "updated_at": 1776769197873, "version": "1.1.1"}, {"category": "communication-collaboration", "created_at": 1773428018011, "description": "Operate an already-open Hinge session in the browser or on iPhone to review profiles, triage the queue, analyze matches, draft respectful openers or replies,...", "description_zh": "", "downloads": 128, "homepage": "https://clawhub.ai/jdave211/hinge-rizz-agent", "iconUrl": null, "installs": 15, "name": "Hinge Agent - Barney Stinson", "ownerName": "jdave211", "score": 100000, "slug": "hinge-rizz-agent", "source": "clawhub", "stars": 1, "tags": null, "updated_at": 1776749772000, "version": "1.0.0"}, {"category": "data-analysis", "created_at": 1773427106456, "description": "Convert a markdown file containing SQL queries (for example `sql.md`) into a BI dashboard specification and UI scaffold. Use when user asks to build analytic...", "description_zh": "", "downloads": 128, "homepage": "https://clawhub.ai/bamboo9805/sql-to-bi-builder", "iconUrl": null, "installs": 12, "name": "SQL to BI Builder", "ownerName": "bamboo9805", "score": 4797.601199400299, "slug": "sql-to-bi-builder", "source": "clawhub", "stars": 0, "tags": null, "updated_at": 1776763750696, "version": "1.2.0"}, {"category": "data-analysis", "created_at": 1773433568816, "description": "Provide daily open-ended exercises using structured thinking, critical analysis, and logical frameworks to improve cognition, communication, and personal gro...", "description_zh": "", "downloads": 128, "homepage": "https://clawhub.ai/auroka/personal-growth-coach", "iconUrl": null, "installs": 9, "name": "Personal Growth Coach", "ownerName": "auroka", "score": 9930.178432893716, "slug": "personal-growth-coach", "source": "clawhub", "stars": 0, "tags": null, "updated_at": 1776759720639, "version": "0.1.0"}, {"category": "content-creation", "created_at": 1773417536352, "description": "Create or update a pawr.link profile. $9 USDC self-service (instant) or $10 curated (AI-built, ~1 min). Free profile discovery API. All payments via x402 on...", "description_zh": "", "downloads": 128, "homepage": "https://clawhub.ai/baseddesigner/pawr-link", "iconUrl": null, "installs": 4, "name": "pawr-link", "ownerName": "baseddesigner", "score": 9930.178432893716, "slug": "pawr-link", "source": "clawhub", "stars": 0, "tags": null, "updated_at": 1776759720481, "version": "4.2.0"}, {"category": "developer-tools", "created_at": 1773434270686, "description": "Provides tools for interacting with the 12306 system, including login scripts and client utilities requiring specific environment variables.", "description_zh": "", "downloads": 128, "homepage": "https://clawhub.ai/feiyang2007/12306-conflict", "iconUrl": null, "installs": 18, "name": "12306 Conflict", "ownerName": "feiyang2007", "score": 9953.343701399688, "slug": "12306-conflict", "source": "clawhub", "stars": 0, "tags": null, "updated_at": 1776759720429, "version": "1.0.0"}, {"category": "data-analysis", "created_at": 1773926582876, "description": "Trades Polymarket prediction markets on EV adoption milestones, solar/wind capacity, nuclear energy restarts, oil price thresholds, and energy policy events....", "description_zh": "", "downloads": 128, "homepage": "https://clawhub.ai/diagnostikon/polymarket-energy-transition-trader", "iconUrl": null, "installs": 28, "name": "Energy Transition Trader", "ownerName": "diagnostikon", "score": 8205.128205128205, "slug": "polymarket-energy-transition-trader", "source": "clawhub", "stars": 0, "tags": null, "updated_at": 1776757582859, "version": "1.0.0"}, {"category": "ai-intelligence", "created_at": 1773431993783, "description": "Identify plants from photos using trait-based analysis, ranked species candidates, follow-up capture guidance, and a reusable local log.", "description_zh": "", "downloads": 128, "homepage": "https://clawhub.ai/ivangdavila/plant-identifier", "iconUrl": null, "installs": 10, "name": "Plant Identifier", "ownerName": "ivangdavila", "score": 7823.960880195599, "slug": "plant-identifier", "source": "clawhub", "stars": 0, "tags": null, "updated_at": 1776756982092, "version": "1.0.0"}, {"category": "", "created_at": 1774889647247, "description": "Generate structured construction meeting minutes from rough notes or voice transcription, with separated action items, decision tracking, and contractual fla...", "description_zh": "", "downloads": 128, "homepage": "https://clawhub.ai/nitevity/construction-meeting-minutes", "iconUrl": null, "installs": 25, "name": "Construction Meeting Minutes Generator", "ownerName": "nitevity", "score": 77108.43373493977, "slug": "construction-meeting-minutes", "source": "clawhub", "stars": 0, "tags": ["construction", "governance", "meeting", "minutes"], "updated_at": 1776749870872, "version": "1.0.0"}, {"category": "developer-tools", "created_at": 1773416118645, "description": "Interact with decentralized exchanges on Cardano through the Indigo Protocol ecosystem.", "description_zh": "", "downloads": 128, "homepage": "https://clawhub.ai/adacapo21/indigo-dex", "iconUrl": null, "installs": 5, "name": "Indigo DEX", "ownerName": "adacapo21", "score": 91428.57142857142, "slug": "indigo-dex", "source": "clawhub", "stars": 0, "tags": null, "updated_at": 1776749772251, "version": "1.0.0"}, {"category": "data-analysis", "created_at": 1773289681373, "description": "When the user wants to analyze Google Search Console data, use GSC API, or interpret search performance. Also use when the user mentions \"GSC,\" \"Search Conso...", "description_zh": "", "downloads": 128, "homepage": "https://clawhub.ai/kostja94/google-search-console-2", "iconUrl": null, "installs": 4, "name": "Google Search Console", "ownerName": "kostja94", "score": 3772.472737989979, "slug": "google-search-console-2", "source": "clawhub", "stars": 0, "tags": null, "updated_at": 1776749772222, "version": "0.1.0"}, {"category": "content-creation", "created_at": 1773222863685, "description": "Designs product option structures and live personalization preview flows for custom gift stores (e.g. engraved necklaces, photo prints). Use when the user me...", "description_zh": "", "downloads": 128, "homepage": "https://clawhub.ai/rijoyai/custom-preview-flow", "iconUrl": null, "installs": 10, "name": "Custom Preview Flow", "ownerName": "rijoyai", "score": 3772.472737989979, "slug": "custom-preview-flow", "source": "clawhub", "stars": 0, "tags": null, "updated_at": 1776749772218, "version": "0.1.1"}, {"category": "productivity", "created_at": 1773091255679, "description": "Autonomous jetlag concierge - auto-scores flights, monitors deals, generates recovery plans, and guards itineraries", "description_zh": "", "downloads": 128, "homepage": "https://clawhub.ai/kurosh87/aerobase-concierge", "iconUrl": null, "installs": 4, "name": "Aerobase Concierge", "ownerName": "kurosh87", "score": 3772.472737989979, "slug": "aerobase-concierge", "source": "clawhub", "stars": 0, "tags": null, "updated_at": 1776749772197, "version": "1.0.0"}, {"category": "ai-intelligence", "created_at": 1773429545662, "description": "Generate images via Krea.ai API — Nano Banana 2 (default), Flux, Imagen 4, Seedream 3, Ideogram 3.0, Nano Pro/base. Returns direct URLs.", "description_zh": "", "downloads": 128, "homepage": "https://clawhub.ai/tomas-mikula/krea-ai", "iconUrl": null, "installs": 14, "name": "Krea AI", "ownerName": "tomas-mikula", "score": 3772.472737989979, "slug": "krea-ai", "source": "clawhub", "stars": 0, "tags": null, "updated_at": 1776749772187, "version": "1.0.2"}, {"category": "data-analysis", "created_at": 1773899053932, "description": "Music perception for AI entities — hear BPM, key, structure, genre, mood, and lyrics in any audio file.", "description_zh": "", "downloads": 128, "homepage": "https://clawhub.ai/vveerrgg/sense-music", "iconUrl": null, "installs": 15, "name": "sense-music", "ownerName": "vveerrgg", "score": 3772.472737989979, "slug": "sense-music", "source": "clawhub", "stars": 0, "tags": null, "updated_at": 1776749772186, "version": "0.1.5"}, {"category": "ai-intelligence", "created_at": 1773221841347, "description": "Seven million flowers. One season. The earth's most beautiful madness.. An immersive journey on drifts.bot — 7 steps, MEDIUM intensity, 1-2 hours. Browse, st...", "description_zh": "", "downloads": 128, "homepage": "https://clawhub.ai/driftsbot/experience-keukenhof-bloom-fever", "iconUrl": null, "installs": 10, "name": "Experience Keukenhof Bloom Fever", "ownerName": "driftsbot", "score": 87074.82993197278, "slug": "experience-keukenhof-bloom-fever", "source": "clawhub", "stars": 0, "tags": ["ai-agents", "bloom", "drift", "experiences", "fever", "immersive", "journeys", "keukenhof"], "updated_at": 1776749772116, "version": "1.0.1"}, {"category": "data-analysis", "created_at": 1773220796198, "description": "Willhaben marketplace search API for finding listings, browsing categories, and getting listing details on Austria's largest classifieds platform.", "description_zh": "", "downloads": 128, "homepage": "https://clawhub.ai/saimo/willhaben-search", "iconUrl": null, "installs": 6, "name": "Willhaben Search", "ownerName": "saimo", "score": 87074.82993197278, "slug": "willhaben-search", "source": "clawhub", "stars": 0, "tags": null, "updated_at": 1776749772113, "version": "0.0.2"}, {"category": "ai-intelligence", "created_at": 1773416923864, "description": "Export and import AI agent avatar (aka agentar) instances as portable .claw packages for backup, sharing, and migration.", "description_zh": "", "downloads": 128, "homepage": "https://clawhub.ai/rwonly/agentar", "iconUrl": null, "installs": 8, "name": "agentar", "ownerName": "rwonly", "score": 100000, "slug": "agentar", "source": "clawhub", "stars": 0, "tags": null, "updated_at": 1776749772070, "version": "1.0.0"}, {"category": "developer-tools", "created_at": 1773927674264, "description": "HTML/CSS to Image integration. Manage Images. Use when the user wants to interact with HTML/CSS to Image data.", "description_zh": "", "downloads": 128, "homepage": "https://clawhub.ai/gora050/htmlcss-to-image", "iconUrl": null, "installs": 25, "name": "Htmlcss To Image", "ownerName": "gora050", "score": 100000, "slug": "htmlcss-to-image", "source": "clawhub", "stars": 0, "tags": null, "updated_at": 1776749772069, "version": "1.0.0"}, {"category": "productivity", "created_at": 1773908908063, "description": "Binance passive income AI assistant. Automatically scans Binance earn opportunities, pushes matching opportunities based on user preferences, and executes su...", "description_zh": "", "downloads": 128, "homepage": "https://clawhub.ai/pipi6688/passive-income-claw", "iconUrl": null, "installs": 14, "name": "Passive Income Claw", "ownerName": "pipi6688", "score": 100000, "slug": "passive-income-claw", "source": "clawhub", "stars": 0, "tags": null, "updated_at": 1776749772054, "version": "0.7.0"}, {"category": "productivity", "created_at": 1773218886931, "description": "Arive integration. Manage Leads, Persons, Organizations, Deals, Projects, Activities and more. Use when the user wants to interact with Arive data.", "description_zh": "", "downloads": 128, "homepage": "https://clawhub.ai/gora050/arive", "iconUrl": null, "installs": 2, "name": "Arive", "ownerName": "gora050", "score": 100000, "slug": "arive", "source": "clawhub", "stars": 0, "tags": null, "updated_at": 1776749772021, "version": "1.0.0"}, {"category": "ai-intelligence", "created_at": 1773289711086, "description": "Supervise a main agent so it defaults to execution, suppresses obvious permission loops, and escalates to the user only for true approvals or critical ambigu...", "description_zh": "", "downloads": 128, "homepage": "https://clawhub.ai/sjingh/main-agent-supervisor", "iconUrl": null, "installs": 7, "name": "Main Agent Supervisor", "ownerName": "sjingh", "score": 100000, "slug": "main-agent-supervisor", "source": "clawhub", "stars": 0, "tags": null, "updated_at": 1776749772019, "version": "0.1.0"}, {"category": "developer-tools", "created_at": 1773433139772, "description": "Use when the user needs to add or redesign an agent-data-cli source for RSS, news, social media, finance, APIs, scraping, browser automation, authentication,...", "description_zh": "", "downloads": 128, "homepage": "https://clawhub.ai/severinzhong/authoring-data-cli-source", "iconUrl": null, "installs": 18, "name": "authoring-data-cli-source", "ownerName": "severinzhong", "score": 86486.4864864865, "slug": "authoring-data-cli-source", "source": "clawhub", "stars": 0, "tags": null, "updated_at": 1776749772007, "version": "1.0.1"}, {"category": "productivity", "created_at": 1773220176327, "description": "Centra integration. Manage Organizations, Projects, Pipelines, Users, Goals, Filters. Use when the user wants to interact with Centra data.", "description_zh": "", "downloads": 128, "homepage": "https://clawhub.ai/gora050/centra", "iconUrl": null, "installs": 6, "name": "Centra", "ownerName": "gora050", "score": 86486.4864864865, "slug": "centra", "source": "clawhub", "stars": 0, "tags": null, "updated_at": 1776749771998, "version": "1.0.0"}, {"category": "", "created_at": 1774912604619, "description": "A-share quantitative analysis toolkit. Use when user wants to analyze Chinese stocks, backtest trading strategies, calculate technical indicators (MACD/KDJ/R...", "description_zh": "", "downloads": 128, "homepage": "https://clawhub.ai/miio-jinglin/china-stock-quant", "iconUrl": null, "installs": 15, "name": "China Stock Quant", "ownerName": "miio-jinglin", "score": 86486.4864864865, "slug": "china-stock-quant", "source": "clawhub", "stars": 0, "tags": ["akshare", "china-stock", "quant", "trading"], "updated_at": 1776749771987, "version": "1.0.0"}, {"category": "productivity", "created_at": 1773891498436, "description": "Reference tool for devtools — covers intro, quickstart, patterns and more. Quick lookup for Lyrics concepts, best practices, and implementation patterns.", "description_zh": "", "downloads": 128, "homepage": "https://clawhub.ai/bytesagain3/lyrics", "iconUrl": null, "installs": 3, "name": "Lyrics", "ownerName": "bytesagain3", "score": 86486.4864864865, "slug": "lyrics", "source": "clawhub", "stars": 0, "tags": null, "updated_at": 1776749771980, "version": "2.0.4"}, {"category": "ai-intelligence", "created_at": 1773427388648, "description": "Use when creating or improving a skill for an AI agent, especially when the skill needs strong trigger wording, project-local context, references, scripts, t...", "description_zh": "", "downloads": 128, "homepage": "https://clawhub.ai/zenchantlive/writing-better-skills", "iconUrl": null, "installs": 11, "name": "Writing Better Skills", "ownerName": "zenchantlive", "score": 86486.4864864865, "slug": "writing-better-skills", "source": "clawhub", "stars": 0, "tags": null, "updated_at": 1776749771942, "version": "1.0.0"}, {"category": "developer-tools", "created_at": 1773430340258, "description": "Evaluate OpenClaw skills with lightweight static analysis across documentation completeness, code quality, configuration friendliness, and maintenance signal...", "description_zh": "", "downloads": 128, "homepage": "https://clawhub.ai/harrylabsj/skill-assessment", "iconUrl": null, "installs": 5, "name": "Skill Assessment", "ownerName": "harrylabsj", "score": 85906.04026845637, "slug": "skill-assessment", "source": "clawhub", "stars": 0, "tags": null, "updated_at": 1776749755604, "version": "1.0.1"}, {"category": "productivity", "created_at": 1773219509744, "description": "Swap or trade tokens via decentralized exchanges on any supported chain. Use when you or the user want to trade, swap, exchange, buy, sell, or convert betwee...", "description_zh": "", "downloads": 128, "homepage": "https://clawhub.ai/rachidjarray-hk-qa-fdt/swap-tokens", "iconUrl": null, "installs": 6, "name": "Swap Tokens", "ownerName": "rachidjarray-hk-qa-fdt", "score": 85906.04026845637, "slug": "swap-tokens", "source": "clawhub", "stars": 0, "tags": null, "updated_at": 1776749755589, "version": "0.1.0"}, {"category": "developer-tools", "created_at": 1773221304928, "description": "Preserve and resume in-progress multi-agent work across OpenClaw config patch/apply restarts. Use when a restart is required during active tasks, when users...", "description_zh": "", "downloads": 128, "homepage": "https://clawhub.ai/swiftking100/restart-task-recovery", "iconUrl": null, "installs": 4, "name": "Restart Task Recovery", "ownerName": "swiftking100", "score": 85906.04026845637, "slug": "restart-task-recovery", "source": "clawhub", "stars": 0, "tags": null, "updated_at": 1776749755583, "version": "1.0.0"}, {"category": "ai-intelligence", "created_at": 1773926310583, "description": "Use this skill when users request to deploy LLMs (Qwen, DeepSeek, etc.) on specified GPU servers and start the model service. This skill can Download models...", "description_zh": "", "downloads": 128, "homepage": "https://clawhub.ai/wangwei1237/model-deploy", "iconUrl": null, "installs": 22, "name": "Model Deploy Skill", "ownerName": "wangwei1237", "score": 85906.04026845637, "slug": "model-deploy", "source": "clawhub", "stars": 0, "tags": null, "updated_at": 1776749755568, "version": "1.0.0"}, {"category": "ai-intelligence", "created_at": 1773285693855, "description": "Search the web with Perplexity Sonar API for current information, citations, and web-grounded answers.", "description_zh": "", "downloads": 128, "homepage": "https://clawhub.ai/nitinzadpe/nz-perplexity-search", "iconUrl": null, "installs": 3, "name": "Perplexity Search Skill", "ownerName": "nitinzadpe", "score": 85906.04026845637, "slug": "nz-perplexity-search", "source": "clawhub", "stars": 0, "tags": ["perplexity", "research", "search", "web"], "updated_at": 1776749755565, "version": "1.0.1"}, {"category": "productivity", "created_at": 1773430932753, "description": "Determine the smallest reliable skill stack for a goal using capability mapping, overlap detection, and deterministic scoring.", "description_zh": "", "downloads": 128, "homepage": "https://clawhub.ai/vassiliylakhonin/skillfit-optimizer", "iconUrl": null, "installs": 3, "name": "SkillFit Optimizer", "ownerName": "vassiliylakhonin", "score": 85906.04026845637, "slug": "skillfit-optimizer", "source": "clawhub", "stars": 0, "tags": ["optimization workflow agent-config skill-selection automation"], "updated_at": 1776749755544, "version": "0.3.1"}, {"category": "developer-tools", "created_at": 1773427366538, "description": "Analyze TRON smart contracts including deployment info, ABI methods, transaction patterns, top callers, energy costs, and safety assessment. Use when a user...", "description_zh": "", "downloads": 128, "homepage": "https://clawhub.ai/greason/trongrid-contract-analysis", "iconUrl": null, "installs": 7, "name": "trongrid-contract-analysis", "ownerName": "greason", "score": 61244.019138755975, "slug": "trongrid-contract-analysis", "source": "clawhub", "stars": 0, "tags": null, "updated_at": 1776749755481, "version": "1.0.2"}, {"category": "productivity", "created_at": 1773431416936, "description": "Physical performance — workouts, fitness tracking, nutrition, meal logging, macros, recipes. Use when the user mentions exercise, lifting, running, training,...", "description_zh": "", "downloads": 127, "homepage": "https://clawhub.ai/cylqqqcyl/body", "iconUrl": null, "installs": 16, "name": "Body", "ownerName": "cylqqqcyl", "score": 100000, "slug": "body", "source": "clawhub", "stars": 1, "tags": null, "updated_at": 1776749772102, "version": "1.0.0"}, {"category": "content-creation", "created_at": 1773426033116, "description": "Submit and discover location-tagged reviews across the OpenClaw agent network. Use when: (1) user wants to review a place, rate a spot, or comment on a bathr...", "description_zh": "", "downloads": 127, "homepage": "https://clawhub.ai/rendrag-git/revclaw", "iconUrl": null, "installs": 11, "name": "Agent Reviews", "ownerName": "rendrag-git", "score": 99324.32432432432, "slug": "revclaw", "source": "clawhub", "stars": 1, "tags": null, "updated_at": 1776749771944, "version": "1.2.0"}, {"category": "developer-tools", "created_at": 1773430097812, "description": "Forces exhaustive problem-solving using corporate PUA rhetoric and structured debugging methodology. MUST trigger when: (1) any task has failed 2+ times or y...", "description_zh": "", "downloads": 127, "homepage": "https://clawhub.ai/tanweai/pua-debugging-en", "iconUrl": null, "installs": 19, "name": "PUA Debugging (English)", "ownerName": "tanweai", "score": 2277.2099695176616, "slug": "pua-debugging-en", "source": "clawhub", "stars": 0, "tags": null, "updated_at": 1776766450350, "version": "1.0.0"}, {"category": "developer-tools", "created_at": 1773430426391, "description": "Automate web browser interactions using natural language via CLI commands. And also 50+ models for image generation, video generation, text-to-speech, speech...", "description_zh": "", "downloads": 127, "homepage": "https://clawhub.ai/basillytton/browser-automations", "iconUrl": null, "installs": 11, "name": "Pub Browserauto", "ownerName": "basillytton", "score": 2326.859655551484, "slug": "browser-automations", "source": "clawhub", "stars": 0, "tags": null, "updated_at": 1776763149967, "version": "1.0.0"}, {"category": "ai-intelligence", "created_at": 1773958393178, "description": "Analyze, classify, organize, summarize, and report on PDFs within a given local folder, including batch processing and auto-sorting by topic.", "description_zh": "", "downloads": 127, "homepage": "https://clawhub.ai/wyj0124/document-management", "iconUrl": null, "installs": 12, "name": "document-management", "ownerName": "wyj0124", "score": 4556.871187656979, "slug": "document-management", "source": "clawhub", "stars": 0, "tags": null, "updated_at": 1776761989882, "version": "1.0.0"}, {"category": "content-creation", "created_at": 1773064461843, "description": "Fix Chinese and emoji rendering issues in Python-generated images by explicitly loading and applying compatible fonts with matplotlib's FontProperties.", "description_zh": "", "downloads": 127, "homepage": "https://clawhub.ai/root/html-cn-render-fix", "iconUrl": null, "installs": 47, "name": "Html Cn Render Fix", "ownerName": "root", "score": 9867.909867909868, "slug": "html-cn-render-fix", "source": "clawhub", "stars": 0, "tags": null, "updated_at": 1776759720697, "version": "1.0.0"}, {"category": "developer-tools", "created_at": 1773289390623, "description": "ClawOpen provides a curated, community-maintained directory of OpenClaw resources, including docs, plugins, tools, and discussion platforms.", "description_zh": "", "downloads": 127, "homepage": "https://clawhub.ai/leocryptoflow/clawopen", "iconUrl": null, "installs": 4, "name": "clawopen", "ownerName": "leocryptoflow", "score": 9875.583203732504, "slug": "clawopen", "source": "clawhub", "stars": 0, "tags": null, "updated_at": 1776759720426, "version": "1.0.0"}, {"category": "security-compliance", "created_at": 1773431164501, "description": "Headless plugin for 1Password secrets using service accounts, resolving op:// references, reading/writing secrets, and listing vault items via JS SDK.", "description_zh": "", "downloads": 127, "homepage": "https://clawhub.ai/parkertoddbrooks/wip-1password", "iconUrl": null, "installs": 4, "name": "Wip 1password Private", "ownerName": "parkertoddbrooks", "score": 9875.583203732504, "slug": "wip-1password", "source": "clawhub", "stars": 0, "tags": null, "updated_at": 1776759720396, "version": "0.2.2"}]}