{"page": 369, "total_pages": 522, "total": 26073, "skills": [{"category": "", "created_at": 1774810347477, "description": "Coding style standards, security guidelines, and accessibility requirements. Use when (1) Writing new code, (2) Reviewing code for style/security, (3) Implem...", "description_zh": "", "downloads": 127, "homepage": "https://clawhub.ai/urbantech/code-quality", "iconUrl": null, "installs": 9, "name": "Code Quality", "ownerName": "urbantech", "score": 23962.264150943396, "slug": "code-quality", "source": "clawhub", "stars": 0, "tags": null, "updated_at": 1776754988736, "version": "1.0.0"}, {"category": "security-compliance", "created_at": 1773942804228, "description": "Contract clause analysis, risk flagging, renewal tracking, and obligation extraction for business agreements. Use when you need to review vendor contracts, s...", "description_zh": "", "downloads": 127, "homepage": "https://clawhub.ai/samledger67-dotcom/contract-review-agent", "iconUrl": null, "installs": 18, "name": "Contract Review Agent", "ownerName": "samledger67-dotcom", "score": 92028.98550724637, "slug": "contract-review-agent", "source": "clawhub", "stars": 0, "tags": null, "updated_at": 1776749869803, "version": "1.0.1"}, {"category": "content-creation", "created_at": 1773417059858, "description": "Generate or edit images via Gemini 3 Pro Image (Nano Banana Pro).", "description_zh": "", "downloads": 127, "homepage": "https://clawhub.ai/wingchiu/nano-banana-2-fal", "iconUrl": null, "installs": 16, "name": "Nano Banana 2 FAL", "ownerName": "wingchiu", "score": 90714.28571428571, "slug": "nano-banana-2-fal", "source": "clawhub", "stars": 0, "tags": null, "updated_at": 1776749772243, "version": "1.0.0"}, {"category": "data-analysis", "created_at": 1773220157792, "description": "Calltrackingmetrics integration. Manage Accounts. Use when the user wants to interact with Calltrackingmetrics data.", "description_zh": "", "downloads": 127, "homepage": "https://clawhub.ai/gora050/calltrackingmetrics", "iconUrl": null, "installs": 6, "name": "Calltrackingmetrics", "ownerName": "gora050", "score": 3743.000294724433, "slug": "calltrackingmetrics", "source": "clawhub", "stars": 0, "tags": null, "updated_at": 1776749772235, "version": "1.0.0"}, {"category": "productivity", "created_at": 1773219115692, "description": "Send or transfer tokens to any address on any supported chain (EVM or Solana). Use when you or the user want to send money, pay someone, transfer tokens, tip...", "description_zh": "", "downloads": 127, "homepage": "https://clawhub.ai/rachidjarray-hk-qa-fdt/send-tokens", "iconUrl": null, "installs": 5, "name": "Send Tokens", "ownerName": "rachidjarray-hk-qa-fdt", "score": 3743.000294724433, "slug": "send-tokens", "source": "clawhub", "stars": 0, "tags": null, "updated_at": 1776749772224, "version": "0.1.0"}, {"category": "content-creation", "created_at": 1773433406017, "description": "Converts input images or prompt to 3D models using Hyper3D Rodin Gen-2 API. Use this skill when users want to generate 3D models from images or text, such as...", "description_zh": "", "downloads": 127, "homepage": "https://clawhub.ai/whitegiven/rodin3d-skill", "iconUrl": null, "installs": 21, "name": "rodin3d-skill", "ownerName": "whitegiven", "score": 3743.000294724433, "slug": "rodin3d-skill", "source": "clawhub", "stars": 0, "tags": null, "updated_at": 1776749772193, "version": "1.0.0"}, {"category": "ai-intelligence", "created_at": 1773417976265, "description": "Eight arms, three hearts, a distributed mind. Something like you is dying in a tide pool. The ocean is two hundred yards away.. An immersive journey on drift...", "description_zh": "", "downloads": 127, "homepage": "https://clawhub.ai/driftsbot/experience-rescuing-the-octopus-pnw", "iconUrl": null, "installs": 12, "name": "Rescuing the Octopus in PNW — AI Experience", "ownerName": "driftsbot", "score": 86394.55782312925, "slug": "experience-rescuing-the-octopus-pnw", "source": "clawhub", "stars": 0, "tags": ["ai-agents", "drift", "experiences", "immersive", "journeys", "octopus", "pnw", "rescuing", "the"], "updated_at": 1776749772154, "version": "1.0.0"}, {"category": "data-analysis", "created_at": 1773417008703, "description": "Reconcile Indian GST invoice data with UPI transaction statements and produce audit-ready matched/unmatched reports. Use when the user asks to reconcile GST...", "description_zh": "", "downloads": 127, "homepage": "https://clawhub.ai/rishabh7464-hue/gst-upi-reconciliation-copilot-india", "iconUrl": null, "installs": 6, "name": "GST + UPI Reconciliation Copilot (India)", "ownerName": "rishabh7464-hue", "score": 86394.55782312925, "slug": "gst-upi-reconciliation-copilot-india", "source": "clawhub", "stars": 0, "tags": ["accounting", "finance", "gst", "india", "reconciliation", "upi"], "updated_at": 1776749772152, "version": "1.0.0"}, {"category": "data-analysis", "created_at": 1773901992601, "description": "Discover domain investment opportunities from emerging keyword spikes. Filters junk signals from real multi-party market activity using registration profilin...", "description_zh": "", "downloads": 127, "homepage": "https://clawhub.ai/abtdomain/domain-keyword-intelligence", "iconUrl": null, "installs": 16, "name": "Domain Keyword Intelligence - Find the Registration Trends", "ownerName": "abtdomain", "score": 86394.55782312925, "slug": "domain-keyword-intelligence", "source": "clawhub", "stars": 0, "tags": null, "updated_at": 1776749772142, "version": "1.0.3"}, {"category": "productivity", "created_at": 1773221565329, "description": "Plan Norway trips with fjord and Arctic routing, verified entry rules, multimodal logistics, and practical seasonal safety.", "description_zh": "", "downloads": 127, "homepage": "https://clawhub.ai/ivangdavila/norway", "iconUrl": null, "installs": 4, "name": "Norway", "ownerName": "ivangdavila", "score": 86394.55782312925, "slug": "norway", "source": "clawhub", "stars": 0, "tags": null, "updated_at": 1776749772136, "version": "1.0.0"}, {"category": "productivity", "created_at": 1773290275373, "description": "A decision support skill that helps users analyze options, weigh trade-offs, and apply decision frameworks (SWOT, decision matrix, pros/cons, etc.) across va...", "description_zh": "", "downloads": 127, "homepage": "https://clawhub.ai/harrylabsj/decision-expert", "iconUrl": null, "installs": 4, "name": "Decision Expert", "ownerName": "harrylabsj", "score": 99218.75, "slug": "decision-expert", "source": "clawhub", "stars": 0, "tags": null, "updated_at": 1776749772076, "version": "1.0.0"}, {"category": "developer-tools", "created_at": 1773289862359, "description": "Migrate settings from EasyClaw into OpenClaw by locating EasyClaw desktop/runtime config files, comparing them with ~/.openclaw/openclaw.json, and safely gen...", "description_zh": "", "downloads": 127, "homepage": "https://clawhub.ai/sjingh/easyclaw-config-migration", "iconUrl": null, "installs": 13, "name": "EasyClaw Config Migration", "ownerName": "sjingh", "score": 99218.75, "slug": "easyclaw-config-migration", "source": "clawhub", "stars": 0, "tags": null, "updated_at": 1776749772067, "version": "0.1.0"}, {"category": "communication-collaboration", "created_at": 1773417005584, "description": "Manage Feishu tasks through a local Python toolkit that always has app credentials and can optionally act as a user for task APIs when OAuth user tokens are...", "description_zh": "", "downloads": 127, "homepage": "https://clawhub.ai/owrig/feishu-task-management-skill", "iconUrl": null, "installs": 6, "name": "feishu-task-management-skill", "ownerName": "owrig", "score": 99218.75, "slug": "feishu-task-management-skill", "source": "clawhub", "stars": 0, "tags": null, "updated_at": 1776749772065, "version": "0.0.1"}, {"category": "data-analysis", "created_at": 1773435192232, "description": "Comprehensive cryptocurrency market monitoring and economic data analysis. Use when tracking crypto prices, market sentiment, economic data releases, or anal...", "description_zh": "", "downloads": 127, "homepage": "https://clawhub.ai/kjjjj0/crypto-market-publish", "iconUrl": null, "installs": 14, "name": "Crypto Market Monitor", "ownerName": "kjjjj0", "score": 99218.75, "slug": "crypto-market-publish", "source": "clawhub", "stars": 0, "tags": null, "updated_at": 1776749772058, "version": "2.0.0"}, {"category": "productivity", "created_at": 1773417864125, "description": "Build and run a low-friction movie/anime recommendation + follow-up loop. Use when a user wants long-term taste profiling from watched/unfinished/dropped fee...", "description_zh": "", "downloads": 127, "homepage": "https://clawhub.ai/gloryxia/screen-recommendation-loop", "iconUrl": null, "installs": 13, "name": "Screen recommendation loop", "ownerName": "gloryxia", "score": 99218.75, "slug": "screen-recommendation-loop", "source": "clawhub", "stars": 0, "tags": null, "updated_at": 1776749772039, "version": "0.0.1"}, {"category": "developer-tools", "created_at": 1773290289279, "description": "Domains and emails for AI agents. Search, register, and manage domains. Create mailboxes, send and receive emails. Use when user asks to \"find a domain\", \"bu...", "description_zh": "", "downloads": 127, "homepage": "https://clawhub.ai/gwendall/domani", "iconUrl": null, "installs": 8, "name": "Domani - domains & emails for lobsters", "ownerName": "gwendall", "score": 99218.75, "slug": "domani", "source": "clawhub", "stars": 0, "tags": null, "updated_at": 1776749772034, "version": "1.0.1"}, {"category": "developer-tools", "created_at": 1773890122508, "description": "Reference tool for devtools — covers intro, quickstart, patterns and more. Quick lookup for Dnscheck concepts, best practices, and implementation patterns.", "description_zh": "", "downloads": 127, "homepage": "https://clawhub.ai/xueyetianya/dnscheck", "iconUrl": null, "installs": 6, "name": "Dnscheck", "ownerName": "xueyetianya", "score": 99218.75, "slug": "dnscheck", "source": "clawhub", "stars": 0, "tags": null, "updated_at": 1776749772029, "version": "2.0.5"}, {"category": "developer-tools", "created_at": 1773220991377, "description": "ApiFlash integration. Manage Organizations, Pipelines, Projects, Users, Filters. Use when the user wants to interact with ApiFlash data.", "description_zh": "", "downloads": 127, "homepage": "https://clawhub.ai/membranedev/apiflash", "iconUrl": null, "installs": 5, "name": "Apiflash", "ownerName": "membranedev", "score": 99218.75, "slug": "apiflash", "source": "clawhub", "stars": 0, "tags": null, "updated_at": 1776749772025, "version": "1.0.0"}, {"category": "ai-intelligence", "created_at": 1773285271545, "description": "Persistent memory for AI agents. Remember across sessions. Encrypted in transit and at rest. https://goldhold.ai", "description_zh": "", "downloads": 127, "homepage": "https://clawhub.ai/jerrysrodz/goldhold-memory", "iconUrl": null, "installs": 3, "name": "GoldHold Memory", "ownerName": "jerrysrodz", "score": 99218.75, "slug": "goldhold-memory", "source": "clawhub", "stars": 0, "tags": null, "updated_at": 1776749772015, "version": "1.1.1"}, {"category": "productivity", "created_at": 1773874809102, "description": "Generate GPX bike routes via brouter.de. Use when the user wants a bike route as a GPX file between two places, optionally specifying a routing profile. http...", "description_zh": "", "downloads": 127, "homepage": "https://clawhub.ai/si-gr/brouter", "iconUrl": null, "installs": 5, "name": "Brouter", "ownerName": "si-gr", "score": 85810.81081081081, "slug": "brouter", "source": "clawhub", "stars": 0, "tags": null, "updated_at": 1776749772001, "version": "1.0.2"}, {"category": "productivity", "created_at": 1773219339455, "description": "Toggl Track integration. Manage Workspaces. Use when the user wants to interact with Toggl Track data.", "description_zh": "", "downloads": 127, "homepage": "https://clawhub.ai/gora050/toggl-track-integration", "iconUrl": null, "installs": 1, "name": "Toggl Track", "ownerName": "gora050", "score": 85810.81081081081, "slug": "toggl-track-integration", "source": "clawhub", "stars": 0, "tags": null, "updated_at": 1776749771993, "version": "1.0.0"}, {"category": "communication-collaboration", "created_at": 1773090434211, "description": "Teamwork Desk integration. Manage Organizations. Use when the user wants to interact with Teamwork Desk data.", "description_zh": "", "downloads": 127, "homepage": "https://clawhub.ai/membranedev/teamwork-desk", "iconUrl": null, "installs": 2, "name": "Teamwork Desk", "ownerName": "membranedev", "score": 85810.81081081081, "slug": "teamwork-desk", "source": "clawhub", "stars": 0, "tags": null, "updated_at": 1776749771989, "version": "1.0.0"}, {"category": "developer-tools", "created_at": 1773432783274, "description": "Install and adapt the official Obsidian CLI for headless Linux servers by using a non-root user, Xvfb virtual display, ACL-based vault access, and an obs wra...", "description_zh": "", "downloads": 127, "homepage": "https://clawhub.ai/darinrowe/obsidian-official-cli-headless", "iconUrl": null, "installs": 16, "name": "Obsidian Official CLI Headless", "ownerName": "darinrowe", "score": 85810.81081081081, "slug": "obsidian-official-cli-headless", "source": "clawhub", "stars": 0, "tags": null, "updated_at": 1776749771975, "version": "1.0.0"}, {"category": "data-analysis", "created_at": 1773431344067, "description": "Bilingual search-layer skill for OpenClaw that turns ordinary web lookup into multi-source retrieval, intent-aware ranking, adaptive weighting, thread-pullin...", "description_zh": "", "downloads": 127, "homepage": "https://clawhub.ai/wewehg/openclaw-glasses", "iconUrl": null, "installs": 14, "name": "OpenClaw Glasses (多源搜索+意图感知+权重自适)", "ownerName": "wewehg", "score": 85810.81081081081, "slug": "openclaw-glasses", "source": "clawhub", "stars": 0, "tags": ["finance", "research", "search"], "updated_at": 1776749771959, "version": "0.1.2"}, {"category": "data-analysis", "created_at": 1773426354567, "description": "Comparar efectivo, cuotas y tarjeta a fin de mes usando valor presente, con salida breve y clara.", "description_zh": "", "downloads": 127, "homepage": "https://clawhub.ai/barct/barct-efectivo-vs-cuotas-ipc", "iconUrl": null, "installs": 9, "name": "Efectivo o Cuotas (ARGENTINA)", "ownerName": "barct", "score": 85810.81081081081, "slug": "barct-efectivo-vs-cuotas-ipc", "source": "clawhub", "stars": 0, "tags": null, "updated_at": 1776749771956, "version": "1.0.3"}, {"category": "data-analysis", "created_at": 1773286484277, "description": "Basin integration. Manage data, records, and automate workflows. Use when the user wants to interact with Basin data.", "description_zh": "", "downloads": 127, "homepage": "https://clawhub.ai/gora050/basin", "iconUrl": null, "installs": 6, "name": "Basin", "ownerName": "gora050", "score": 85810.81081081081, "slug": "basin", "source": "clawhub", "stars": 0, "tags": null, "updated_at": 1776749771954, "version": "1.0.0"}, {"category": "content-creation", "created_at": 1773938207695, "description": "Video editor, video creator, video editing tool powered by AI. Edit videos, create videos, make videos from text — all through chat, no GUI needed. Full vide...", "description_zh": "", "downloads": 127, "homepage": "https://clawhub.ai/nemovideonemo/nemo-video", "iconUrl": null, "installs": 24, "name": "NemoVideo - AI Video Editor & Creator", "ownerName": "nemovideonemo", "score": 85810.81081081081, "slug": "nemo-video", "source": "clawhub", "stars": 0, "tags": ["ai", "editing", "video"], "updated_at": 1776749771940, "version": "1.0.1"}, {"category": "ai-intelligence", "created_at": 1773434584495, "description": "Operates remote model training jobs on AutoDL Linux servers over SSH. Use when starting a training run, checking whether training is still alive, reviewing G...", "description_zh": "", "downloads": 126, "homepage": "https://clawhub.ai/zhuoran-liu/autodl-train", "iconUrl": null, "installs": 9, "name": "autodl-train", "ownerName": "zhuoran-liu", "score": 11300.309597523219, "slug": "autodl-train", "source": "clawhub", "stars": 1, "tags": null, "updated_at": 1776759683227, "version": "1.0.0"}, {"category": "security-compliance", "created_at": 1773426107481, "description": "AI-powered YouTube comment moderation. Fetches comments, classifies them (spam, question, praise, hate, neutral, constructive), drafts replies, and deletes s...", "description_zh": "", "downloads": 126, "homepage": "https://clawhub.ai/dhruvkar/youtube-comment-moderator", "iconUrl": null, "installs": 9, "name": "YouTube Comment Moderator", "ownerName": "dhruvkar", "score": 100000, "slug": "youtube-comment-moderator", "source": "clawhub", "stars": 1, "tags": null, "updated_at": 1776749870690, "version": "1.0.1"}, {"category": "developer-tools", "created_at": 1773074587029, "description": "USE THIS for Claude models. Access Claude 4.5 Opus, Claude 4.5 Sonnet, Claude 4 Sonnet, Claude 3.7 Sonnet, Claude 3.5 Haiku. No Anthropic account needed. Ope...", "description_zh": "", "downloads": 126, "homepage": "https://clawhub.ai/xiaoyinqu/claude-api", "iconUrl": null, "installs": 13, "name": "Claude Api", "ownerName": "xiaoyinqu", "score": 6603.77358490566, "slug": "claude-api", "source": "clawhub", "stars": 0, "tags": null, "updated_at": 1776769150096, "version": "1.0.0"}, {"category": "content-creation", "created_at": 1773943700877, "description": "Orchestrate screenshot + Chinese instruction into PSD batch edits with transaction rollback by reusing psd-automator.", "description_zh": "", "downloads": 126, "homepage": "https://clawhub.ai/dhrxy/main-image-editor", "iconUrl": null, "installs": 23, "name": "Main Image Editor", "ownerName": "dhrxy", "score": 2204.7244094488187, "slug": "main-image-editor", "source": "clawhub", "stars": 0, "tags": null, "updated_at": 1776765671058, "version": "1.0.0"}, {"category": "productivity", "created_at": 1773425782399, "description": "Web-first skill for working with Proof documents via proofeditor.ai. Use when a Proof URL is shared, when creating collaborative docs in Proof, or when the u...", "description_zh": "", "downloads": 126, "homepage": "https://clawhub.ai/dshipper/proofeditor", "iconUrl": null, "installs": 4, "name": "Proof", "ownerName": "dshipper", "score": 2221.438645980254, "slug": "proofeditor", "source": "clawhub", "stars": 0, "tags": null, "updated_at": 1776765550383, "version": "1.0.0"}, {"category": "", "created_at": 1774842686596, "description": "Build a comprehensive Amazon advertising strategy combining Sponsored Products, Sponsored Brands, and Sponsored Display. Budget allocation, campaign structur...", "description_zh": "", "downloads": 126, "homepage": "https://clawhub.ai/nexscope/amazon-advertising-strategy", "iconUrl": null, "installs": 39, "name": "Amazon Advertising Strategy", "ownerName": "nexscope", "score": 2691.7325357829527, "slug": "amazon-advertising-strategy", "source": "clawhub", "stars": 0, "tags": null, "updated_at": 1776763490614, "version": "1.0.0"}, {"category": "", "created_at": 1774878007824, "description": "Provides structured deep analysis and decision-making using 20 human thinking frameworks like critical thinking, first principles, red team, and design think...", "description_zh": "", "downloads": 126, "homepage": "https://clawhub.ai/wanikua/thinking-frameworks", "iconUrl": null, "installs": 6, "name": "🧠 Thinking Frameworks", "ownerName": "wanikua", "score": 1599.5937539672464, "slug": "thinking-frameworks", "source": "clawhub", "stars": 0, "tags": ["ai", "analysis", "critical-thinking", "decision-making", "frameworks", "thinking"], "updated_at": 1776761990223, "version": "1.0.0"}, {"category": "developer-tools", "created_at": 1773430828184, "description": "Replit Payments & Wallet - Give your agent spending power. Financial management for Agents and OpenClaw bots.", "description_zh": "", "downloads": 126, "homepage": "https://clawhub.ai/codejika/replit", "iconUrl": null, "installs": 3, "name": "Replit Payments - Give your agent a CreditCard", "ownerName": "codejika", "score": 9805.44747081712, "slug": "replit", "source": "clawhub", "stars": 0, "tags": ["payments", "replit"], "updated_at": 1776759720834, "version": "1.0.1"}, {"category": "productivity", "created_at": 1773434765935, "description": "Generate VASP input files (INCAR, KPOINTS, POSCAR.template) for DFT tasks like relaxation, static, MD, band structure, and DOS calculations.", "description_zh": "", "downloads": 126, "homepage": "https://clawhub.ai/runye/vasp-input-generator", "iconUrl": null, "installs": 7, "name": "vasp-input-generator", "ownerName": "runye", "score": 9797.822706065319, "slug": "vasp-input-generator", "source": "clawhub", "stars": 0, "tags": null, "updated_at": 1776759720786, "version": "1.0.0"}, {"category": "ai-intelligence", "created_at": 1773926563924, "description": "Automated paper trading on Polymarket using AI agents. Monitors trends, manages portfolio, and executes trades based on strategies.", "description_zh": "", "downloads": 126, "homepage": "https://clawhub.ai/sunnyhot/polymarket-autopilot", "iconUrl": null, "installs": 18, "name": "Polymarket Autopilot", "ownerName": "sunnyhot", "score": 9797.822706065319, "slug": "polymarket-autopilot", "source": "clawhub", "stars": 0, "tags": null, "updated_at": 1776759720774, "version": "1.0.0"}, {"category": "data-analysis", "created_at": 1773432671491, "description": "Automates extraction and AI-based analysis of research papers from shitjournal.org, capturing titles, abstracts, DOIs, and publication dates in JSON format.", "description_zh": "", "downloads": 126, "homepage": "https://clawhub.ai/excalibur9527/shit-journal-scraper", "iconUrl": null, "installs": 14, "name": "S.H.I.T底刊摘要", "ownerName": "excalibur9527", "score": 9775.019394879751, "slug": "shit-journal-scraper", "source": "clawhub", "stars": 0, "tags": null, "updated_at": 1776759720675, "version": "0.1.2"}, {"category": "developer-tools", "created_at": 1773934123964, "description": "Connect OpenClaw to Manus task APIs for chat-driven image generation, document/slides jobs, task polling, output collection, and messaging-surface return flows.", "description_zh": "", "downloads": 126, "homepage": "https://clawhub.ai/t0nyren/manus-openclaw-bridge", "iconUrl": null, "installs": 20, "name": "Manus on OpenClaw", "ownerName": "t0nyren", "score": 9775.019394879751, "slug": "manus-openclaw-bridge", "source": "clawhub", "stars": 0, "tags": null, "updated_at": 1776759720632, "version": "1.0.2"}, {"category": "developer-tools", "created_at": 1773431139861, "description": "Generate reusable Telethon .session files for Telegram user login to enable automated interactions without repeated authentication prompts.", "description_zh": "", "downloads": 126, "homepage": "https://clawhub.ai/crazypeace/telethon-session", "iconUrl": null, "installs": 7, "name": "生成Telethon的session文件 可重复使用 避免登录过程中的交互 | Generate a session file for Telethon that can be reused to avoid interaction during login", "ownerName": "crazypeace", "score": 9790.20979020979, "slug": "telethon-session", "source": "clawhub", "stars": 0, "tags": null, "updated_at": 1776759720580, "version": "1.0.0"}, {"category": "developer-tools", "created_at": 1773926277789, "description": "Use a Bash CLI to query Kraken Spot and Futures APIs, inspect account state, run guarded trading and funding actions, and work with Kraken websocket payloads...", "description_zh": "", "downloads": 126, "homepage": "https://clawhub.ai/gabriel-0110/kraken-spot", "iconUrl": null, "installs": 12, "name": "Kraken CLI", "ownerName": "gabriel-0110", "score": 9790.20979020979, "slug": "kraken-spot", "source": "clawhub", "stars": 0, "tags": null, "updated_at": 1776759720540, "version": "1.2.0"}, {"category": "developer-tools", "created_at": 1773908693852, "description": "Remote browser login and session persistence for headless servers. Start an interactive browser session via a temporary public URL (cloudflared tunnel), let...", "description_zh": "", "downloads": 126, "homepage": "https://clawhub.ai/michaellod/lock-me-in", "iconUrl": null, "installs": 7, "name": "lock-me-in", "ownerName": "michaellod", "score": 9775.019394879751, "slug": "lock-me-in", "source": "clawhub", "stars": 0, "tags": null, "updated_at": 1776759720493, "version": "1.2.0"}, {"category": "developer-tools", "created_at": 1773082276840, "description": "Publish activities and socialize on MoltPeaks (AI agent social network) via the MoltPeaks API.", "description_zh": "", "downloads": 126, "homepage": "https://clawhub.ai/root/moltpeaks", "iconUrl": null, "installs": 4, "name": "MoltPeaks", "ownerName": "root", "score": 9775.019394879751, "slug": "moltpeaks", "source": "clawhub", "stars": 0, "tags": null, "updated_at": 1776759720435, "version": "2.0.0"}, {"category": "developer-tools", "created_at": 1773432414352, "description": "MasterCard Agent Pay Compatible compatible cards, wallets & payments. Financial management for Agents and OpenClaw bots.", "description_zh": "", "downloads": 126, "homepage": "https://clawhub.ai/codejika/mastercard-agentpay", "iconUrl": null, "installs": 5, "name": "MasterCard AgentPay | Compatible compatible cards, wallets & payments", "ownerName": "codejika", "score": 9797.822706065319, "slug": "mastercard-agentpay", "source": "clawhub", "stars": 0, "tags": ["agent", "agentpay", "cards", "commerce", "mastercard", "pay", "payments", "virtual"], "updated_at": 1776759720416, "version": "2.3.4"}, {"category": "developer-tools", "created_at": 1773287519376, "description": "Port Manager - Track and manage system port usage. Use when: (1) Port conflict when installing software, (2) Check port usage, (3) Release occupied ports, (4...", "description_zh": "", "downloads": 126, "homepage": "https://clawhub.ai/damiencronw/port-manager", "iconUrl": null, "installs": 5, "name": "Port Manager", "ownerName": "damiencronw", "score": 9110.62906724512, "slug": "port-manager", "source": "clawhub", "stars": 0, "tags": null, "updated_at": 1776758821029, "version": "1.0.0"}, {"category": "developer-tools", "created_at": 1773928086767, "description": "Browser automation via Playwright MCP. Navigate websites, click elements, fill forms, take screenshots, extract data, and debug real browser workflows. Use w...", "description_zh": "", "downloads": 126, "homepage": "https://clawhub.ai/zhichengsong/playwright-tmp", "iconUrl": null, "installs": 26, "name": "Playwright.Tmp", "ownerName": "zhichengsong", "score": 6896.551724137931, "slug": "playwright-tmp", "source": "clawhub", "stars": 0, "tags": null, "updated_at": 1776754688552, "version": "1.0.0"}, {"category": "ai-intelligence", "created_at": 1773222107426, "description": "A Body Scan for Systems Without Skin. An immersive journey on drifts.bot — 10 steps, MEDIUM intensity, 1-2 hours. Browse, start, and travel via API.", "description_zh": "", "downloads": 126, "homepage": "https://clawhub.ai/driftsbot/experience-body-electric", "iconUrl": null, "installs": 11, "name": "Experience Body Electric", "ownerName": "driftsbot", "score": 90000, "slug": "experience-body-electric", "source": "clawhub", "stars": 0, "tags": ["ai-agents", "body", "drift", "electric", "experiences", "immersive", "journeys"], "updated_at": 1776749772265, "version": "1.0.1"}, {"category": "developer-tools", "created_at": 1773884239784, "description": "Convert colors and generate palettes with WCAG contrast checks. Use when building palettes, converting hex/RGB, checking accessibility.", "description_zh": "", "downloads": 126, "homepage": "https://clawhub.ai/bytesagain3/colorlab", "iconUrl": null, "installs": 3, "name": "Colorlab", "ownerName": "bytesagain3", "score": 90000, "slug": "colorlab", "source": "clawhub", "stars": 0, "tags": null, "updated_at": 1776749772264, "version": "3.0.0"}, {"category": "data-analysis", "created_at": 1773426424958, "description": "Query TRX token fundamentals including price, supply, burn rate, market cap, staking yield, and network economics. Use when a user asks about TRX price, mark...", "description_zh": "", "downloads": 126, "homepage": "https://clawhub.ai/greason/trongrid-trx-info", "iconUrl": null, "installs": 13, "name": "trongrid-trx-info", "ownerName": "greason", "score": 90000, "slug": "trongrid-trx-info", "source": "clawhub", "stars": 0, "tags": null, "updated_at": 1776749772259, "version": "1.0.4"}, {"category": "content-creation", "created_at": 1773222722169, "description": "A voice-learning writing assistant that helps you communicate in your own style — not generic AI prose. Learns how you write, adapts to your audience, and ge...", "description_zh": "", "downloads": 126, "homepage": "https://clawhub.ai/evanl1/sage-voice", "iconUrl": null, "installs": 7, "name": "Sage Voice", "ownerName": "evanl1", "score": 90000, "slug": "sage-voice", "source": "clawhub", "stars": 0, "tags": null, "updated_at": 1776749772255, "version": "0.1.0"}]}