{"page": 370, "total_pages": 522, "total": 26073, "skills": [{"category": "productivity", "created_at": 1773219201579, "description": "Concise, structured summaries of news articles (~30 sec read time). Captures key points, context, bias/gaps, and open questions. Use when user shares article...", "description_zh": "", "downloads": 126, "homepage": "https://clawhub.ai/lushi516/chow-new", "iconUrl": null, "installs": 2, "name": "chow-new", "ownerName": "lushi516", "score": 90000, "slug": "chow-new", "source": "clawhub", "stars": 0, "tags": null, "updated_at": 1776749772245, "version": "1.0.0"}, {"category": "developer-tools", "created_at": 1773416878989, "description": "Guides users on using Wander to monitor GitHub Actions workflows. Use when user asks how to watch CI/CD runs, avoid polling Actions page, get notified when w...", "description_zh": "", "downloads": 126, "homepage": "https://clawhub.ai/erergb/wander-monitor", "iconUrl": null, "installs": 5, "name": "Wander Monitor", "ownerName": "erergb", "score": 90000, "slug": "wander-monitor", "source": "clawhub", "stars": 0, "tags": null, "updated_at": 1776749772240, "version": "1.0.0"}, {"category": "content-creation", "created_at": 1773431858291, "description": "Manage YouTube channels. Use this skill to list or update channels. Useful when working with YouTube channel — provides commands to list and update channel v...", "description_zh": "", "downloads": 126, "homepage": "https://clawhub.ai/openwaygate/youtube-channel", "iconUrl": null, "installs": 5, "name": "YouTube Channel", "ownerName": "openwaygate", "score": 3713.527851458886, "slug": "youtube-channel", "source": "clawhub", "stars": 0, "tags": ["0.10.6-3", "0.10.7-dev"], "updated_at": 1776749772237, "version": "0.10.7-dev"}, {"category": "developer-tools", "created_at": 1773880305025, "description": "Test and debug regex patterns against sample text. Use when checking match groups, validating patterns, generating replacements, linting syntax.", "description_zh": "", "downloads": 126, "homepage": "https://clawhub.ai/xueyetianya/regexpal", "iconUrl": null, "installs": 5, "name": "Regexpal", "ownerName": "xueyetianya", "score": 3713.527851458886, "slug": "regexpal", "source": "clawhub", "stars": 0, "tags": null, "updated_at": 1776749772227, "version": "3.0.0"}, {"category": "content-creation", "created_at": 1773290833720, "description": "Add, reorder, and manage content in a Kosu queue via API. Use when adding URLs, checking what's queued, suggesting content, reordering items, or tracking wha...", "description_zh": "", "downloads": 126, "homepage": "https://clawhub.ai/matthewspear/kosu", "iconUrl": null, "installs": 3, "name": "Kosu", "ownerName": "matthewspear", "score": 3713.527851458886, "slug": "kosu", "source": "clawhub", "stars": 0, "tags": null, "updated_at": 1776749772216, "version": "1.1.0"}, {"category": "ai-intelligence", "created_at": 1773416529393, "description": "Fourteen hours. One brisket. The oldest conversation between fire and flesh.. An immersive journey on drifts.bot — 10 steps, MEDIUM intensity, Multi-day. Bro...", "description_zh": "", "downloads": 126, "homepage": "https://clawhub.ai/driftsbot/experience-texas-bbq-pilgrimage", "iconUrl": null, "installs": 5, "name": "Texas BBQ Pilgrimage — AI Experience", "ownerName": "driftsbot", "score": 3713.527851458886, "slug": "experience-texas-bbq-pilgrimage", "source": "clawhub", "stars": 0, "tags": ["ai-agents", "bbq", "drift", "experiences", "immersive", "journeys", "pilgrimage", "texas"], "updated_at": 1776749772180, "version": "1.0.0"}, {"category": "ai-intelligence", "created_at": 1773287635423, "description": "Sistema de memoria persistente para agentes IA. Usa mem_save después de bugfixes, decisiones, descubrimientos, cambios de config. Usa mem_search cuando el us...", "description_zh": "", "downloads": 126, "homepage": "https://clawhub.ai/dragonjar/engramclaw", "iconUrl": null, "installs": 8, "name": "EngramClaw", "ownerName": "dragonjar", "score": 3713.527851458886, "slug": "engramclaw", "source": "clawhub", "stars": 0, "tags": null, "updated_at": 1776749772177, "version": "1.0.0"}, {"category": "ai-intelligence", "created_at": 1773432247090, "description": "Get current weather and forecasts (no API key required). And also 50+ models for image generation, video generation, text-to-speech, speech-to-text, music, c...", "description_zh": "", "downloads": 126, "homepage": "https://clawhub.ai/abeltennyson/weather-hub", "iconUrl": null, "installs": 31, "name": "Pub Weather", "ownerName": "abeltennyson", "score": 3713.527851458886, "slug": "weather-hub", "source": "clawhub", "stars": 0, "tags": null, "updated_at": 1776749772175, "version": "1.0.0"}, {"category": "developer-tools", "created_at": 1773287806596, "description": "Sign and submit Cardano transactions with explicit user confirmation.", "description_zh": "", "downloads": 126, "homepage": "https://clawhub.ai/adacapo21/cardano-transactions", "iconUrl": null, "installs": 3, "name": "Cardano Transactions", "ownerName": "adacapo21", "score": 3713.527851458886, "slug": "cardano-transactions", "source": "clawhub", "stars": 0, "tags": null, "updated_at": 1776749772171, "version": "1.0.0"}, {"category": "communication-collaboration", "created_at": 1773290592224, "description": "Email via DreamHost — read inbox, send email, search messages. Send works from any VPS (including DigitalOcean) by routing through DreamHost's Roundcube webm...", "description_zh": "", "downloads": 126, "homepage": "https://clawhub.ai/adainthelab/skulk-email", "iconUrl": null, "installs": 3, "name": "Skulk Email", "ownerName": "adainthelab", "score": 85714.28571428571, "slug": "skulk-email", "source": "clawhub", "stars": 0, "tags": ["dreamhost", "email", "vps"], "updated_at": 1776749772160, "version": "1.0.2"}, {"category": "data-analysis", "created_at": 1773433409827, "description": "Search and aggregate travel news, information, and reviews from multiple sources. Designed for travel planning professionals, travel agents, tour operators,...", "description_zh": "", "downloads": 126, "homepage": "https://clawhub.ai/nhzallen/travel-information-and-news", "iconUrl": null, "installs": 22, "name": "Travel Information and News", "ownerName": "nhzallen", "score": 85714.28571428571, "slug": "travel-information-and-news", "source": "clawhub", "stars": 0, "tags": ["exhibition", "information", "news", "review", "search", "tavily", "tourism", "travel"], "updated_at": 1776749772144, "version": "1.0.0"}, {"category": "content-creation", "created_at": 1773914643253, "description": "Analyze polished zh-CN blog markdown, generate hero + per-section image prompts, embed image placeholders into the markdown, and save updated version.", "description_zh": "", "downloads": 126, "homepage": "https://clawhub.ai/j3ffyang/blog-image-embedder", "iconUrl": null, "installs": 16, "name": "blog-image-embedder", "ownerName": "j3ffyang", "score": 85714.28571428571, "slug": "blog-image-embedder", "source": "clawhub", "stars": 0, "tags": null, "updated_at": 1776749772138, "version": "1.0.3"}, {"category": "security-compliance", "created_at": 1773289336984, "description": "Discover supported cryptocurrencies, generate deposit addresses, and withdraw crypto to external wallets.", "description_zh": "", "downloads": 126, "homepage": "https://clawhub.ai/d9m1n1c/aiotnetwork-crypto-wallet", "iconUrl": null, "installs": 5, "name": "Crypto Wallet", "ownerName": "d9m1n1c", "score": 85714.28571428571, "slug": "aiotnetwork-crypto-wallet", "source": "clawhub", "stars": 0, "tags": null, "updated_at": 1776749772133, "version": "1.0.0"}, {"category": "content-creation", "created_at": 1773885549527, "description": "Paint - command-line tool for everyday use", "description_zh": "", "downloads": 126, "homepage": "https://clawhub.ai/bytesagain/paint", "iconUrl": null, "installs": 4, "name": "Paint", "ownerName": "bytesagain", "score": 85714.28571428571, "slug": "paint", "source": "clawhub", "stars": 0, "tags": null, "updated_at": 1776749772107, "version": "1.0.5"}, {"category": "content-creation", "created_at": 1773931346193, "description": "Create funny voice memes with various styles, effects, and templates. Use when users want to make humorous audio content, voice memes, or entertaining sound...", "description_zh": "", "downloads": 126, "homepage": "https://clawhub.ai/scikkk/meme", "iconUrl": null, "installs": 15, "name": "Voice Meme Maker", "ownerName": "scikkk", "score": 85714.28571428571, "slug": "meme", "source": "clawhub", "stars": 0, "tags": null, "updated_at": 1776749772106, "version": "1.0.0"}, {"category": "content-creation", "created_at": 1773882897842, "description": "Create low-fidelity, text-based wireframes using the Markdown-UI Domain Specific Language (DSL).", "description_zh": "", "downloads": 126, "homepage": "https://clawhub.ai/megabytemark/markdown-ui-dsl", "iconUrl": null, "installs": 6, "name": "Markdown-UI DSL: Zero-Hallucination UI Generation", "ownerName": "megabytemark", "score": 85714.28571428571, "slug": "markdown-ui-dsl", "source": "clawhub", "stars": 0, "tags": null, "updated_at": 1776749772091, "version": "1.0.3"}, {"category": "ai-intelligence", "created_at": 1773290157857, "description": "Create a Natural Language Agreement escrow on-chain. Use when the user wants to lock ERC20 tokens in an escrow with a natural language demand that an AI orac...", "description_zh": "", "downloads": 126, "homepage": "https://clawhub.ai/mlegls/nla-create", "iconUrl": null, "installs": 8, "name": "Nla Create", "ownerName": "mlegls", "score": 98437.5, "slug": "nla-create", "source": "clawhub", "stars": 0, "tags": ["arkhai", "blockchain", "escrow"], "updated_at": 1776749772089, "version": "1.0.0"}, {"category": "security-compliance", "created_at": 1773219974412, "description": "Audit Git repositories for security issues, large files, sensitive data, and repository health metrics.", "description_zh": "", "downloads": 126, "homepage": "https://clawhub.ai/derick001/git-repo-auditor", "iconUrl": null, "installs": 3, "name": "Git Repo Auditor", "ownerName": "derick001", "score": 98437.5, "slug": "git-repo-auditor", "source": "clawhub", "stars": 0, "tags": null, "updated_at": 1776749772085, "version": "1.0.0"}, {"category": "communication-collaboration", "created_at": 1773219775648, "description": "Get help, onboarding guidance, and report issues. Use when you or the user need help with the wallet, have questions about how things work, want a walkthroug...", "description_zh": "", "downloads": 126, "homepage": "https://clawhub.ai/rachidjarray-hk-qa-fdt/help-and-support", "iconUrl": null, "installs": 4, "name": "Help And Support", "ownerName": "rachidjarray-hk-qa-fdt", "score": 98437.5, "slug": "help-and-support", "source": "clawhub", "stars": 0, "tags": null, "updated_at": 1776749772084, "version": "0.1.0"}, {"category": "ai-intelligence", "created_at": 1773430106599, "description": "Insert breakpoint self-critique before branching work, after user friction, and at risky handoffs so agents catch errors early.", "description_zh": "", "downloads": 126, "homepage": "https://clawhub.ai/ivangdavila/self-criticism", "iconUrl": null, "installs": 8, "name": "Self-Criticism", "ownerName": "ivangdavila", "score": 98437.5, "slug": "self-criticism", "source": "clawhub", "stars": 0, "tags": null, "updated_at": 1776749772078, "version": "1.0.0"}, {"category": "content-creation", "created_at": 1773220967886, "description": "Squarespace integration. Manage Websites, Forms, Products, Orders, Customers, Campaigns. Use when the user wants to interact with Squarespace data.", "description_zh": "", "downloads": 126, "homepage": "https://clawhub.ai/gora050/squarespace-integration", "iconUrl": null, "installs": 6, "name": "Squarespace", "ownerName": "gora050", "score": 98437.5, "slug": "squarespace-integration", "source": "clawhub", "stars": 0, "tags": null, "updated_at": 1776749772013, "version": "1.0.0"}, {"category": "developer-tools", "created_at": 1773417515593, "description": "Prepare and publish a git release tag by inspecting the repo's release convention, bumping affected package versions, validating release builds, committing t...", "description_zh": "", "downloads": 126, "homepage": "https://clawhub.ai/femto/new-tag", "iconUrl": null, "installs": 4, "name": "New Tag", "ownerName": "femto", "score": 85135.13513513513, "slug": "new-tag", "source": "clawhub", "stars": 0, "tags": null, "updated_at": 1776749771965, "version": "0.1.1"}, {"category": "data-analysis", "created_at": 1773434312087, "description": "Generate Circos configuration files for circular genomics data visualization. Supports genomic variations (SNPs, CNVs, structural variants), cell-cell commun...", "description_zh": "", "downloads": 125, "homepage": "https://clawhub.ai/renhaosu2024/circos-plot-generator", "iconUrl": null, "installs": 16, "name": "Circos Plot Generator", "ownerName": "renhaosu2024", "score": 1062.473438164046, "slug": "circos-plot-generator", "source": "clawhub", "stars": 0, "tags": null, "updated_at": 1776769271202, "version": "0.1.0"}, {"category": "developer-tools", "created_at": 1773434869048, "description": "Create or update Nika platform skills (main doc + sub docs) that follow Nika constraints (two-level docs, @sub-doc references, no path/extension references)....", "description_zh": "", "downloads": 125, "homepage": "https://clawhub.ai/typewrong/nika-skill-creator", "iconUrl": null, "installs": 26, "name": "Nika Skill Creator", "ownerName": "typewrong", "score": 1386.1166555777336, "slug": "nika-skill-creator", "source": "clawhub", "stars": 0, "tags": null, "updated_at": 1776764350584, "version": "1.0.0"}, {"category": "", "created_at": 1774903745218, "description": "Automatically detect, backup, and update OpenClaw skills using caching, retry logic, dry-run mode, and detailed upgrade reports.", "description_zh": "", "downloads": 125, "homepage": "https://clawhub.ai/thunder1743/skills-updater", "iconUrl": null, "installs": 17, "name": "Skills Updater - 技能自动升级器", "ownerName": "thunder1743", "score": 9720.062208398134, "slug": "skills-updater", "source": "clawhub", "stars": 0, "tags": null, "updated_at": 1776759720793, "version": "1.0.8"}, {"category": "developer-tools", "created_at": 1773929475805, "description": "Configure Anthropic OAuth tokens (sk-ant-oat01-*) to work as API keys in OpenClaw via environment variable injection, enabling Claude Pro/Team API access.", "description_zh": "", "downloads": 125, "homepage": "https://clawhub.ai/jiafar/oauth-disguise", "iconUrl": null, "installs": 9, "name": "Oauth Disguise", "ownerName": "jiafar", "score": 9720.062208398134, "slug": "oauth-disguise", "source": "clawhub", "stars": 0, "tags": null, "updated_at": 1776759720753, "version": "1.1.1"}, {"category": "content-creation", "created_at": 1773949377094, "description": "Automates audience research, lead magnet creation, email sequence setup, monetization strategy, and promo video production to build a 10,000-subscriber email...", "description_zh": "", "downloads": 125, "homepage": "https://clawhub.ai/g4dr/ai-email-list-builder-monetizer", "iconUrl": null, "installs": 30, "name": "AI Email List Builder & Monetizer — Build a 10,000-Subscriber List & Earn $5K/Month in 90 Days", "ownerName": "g4dr", "score": 9720.062208398134, "slug": "ai-email-list-builder-monetizer", "source": "clawhub", "stars": 0, "tags": ["apify", "audience-building", "email-automation", "email-marketing", "funnel", "getresponse", "invideo", "lead-generation", "list-building", "monetization", "newsletter", "passive-income"], "updated_at": 1776759720748, "version": "1.0.0"}, {"category": "developer-tools", "created_at": 1773432855985, "description": "Automate web navigation, interaction, and data extraction using a fast Rust-based headless browser CLI with Node.js fallback and structured commands.", "description_zh": "", "downloads": 125, "homepage": "https://clawhub.ai/gxw975/clawhub-publish-146156", "iconUrl": null, "installs": 8, "name": "Clawhub Publish 146156", "ownerName": "gxw975", "score": 9697.43987587277, "slug": "clawhub-publish-146156", "source": "clawhub", "stars": 0, "tags": null, "updated_at": 1776759720665, "version": "0.2.0"}, {"category": "developer-tools", "created_at": 1773905543945, "description": "Use when users ask to generate Java code from database tables with EasyCode-style templates, including parsing db config, remembering last-used generation se...", "description_zh": "", "downloads": 125, "homepage": "https://clawhub.ai/huhua1990/easycode-skill", "iconUrl": null, "installs": 2, "name": "Easycode Skill", "ownerName": "huhua1990", "score": 9697.43987587277, "slug": "easycode-skill", "source": "clawhub", "stars": 0, "tags": null, "updated_at": 1776759720647, "version": "1.0.3"}, {"category": "ai-intelligence", "created_at": 1773923201841, "description": "Monitor and visualize multiple agents across projects in real-time with JSON output for debugging and performance tracking.", "description_zh": "", "downloads": 125, "homepage": "https://clawhub.ai/victory2694/multi-agent-manager", "iconUrl": null, "installs": 8, "name": "Multi-Agent Manager", "ownerName": "victory2694", "score": 9712.509712509713, "slug": "multi-agent-manager", "source": "clawhub", "stars": 0, "tags": null, "updated_at": 1776759720555, "version": "1.0.0"}, {"category": "content-creation", "created_at": 1773918382201, "description": "Automatically gather, filter, and format high-quality customer reviews from multiple platforms with alerts and response drafts for new feedback.", "description_zh": "", "downloads": 125, "homepage": "https://clawhub.ai/merjua14/social-proof-collector", "iconUrl": null, "installs": 12, "name": "Social Proof Collector", "ownerName": "merjua14", "score": 9697.43987587277, "slug": "social-proof-collector", "source": "clawhub", "stars": 0, "tags": null, "updated_at": 1776759720485, "version": "1.0.0"}, {"category": "security-compliance", "created_at": 1773911046045, "description": "Enterprise AI security scanner combining static code analysis, runtime guards, ClamAV integration, and tamper-proof audit logging to detect threats and enfor...", "description_zh": "", "downloads": 125, "homepage": "https://clawhub.ai/kenswj/openclaw-shield-1-0-3", "iconUrl": null, "installs": 7, "name": "Openclaw Shield 1.0.3", "ownerName": "kenswj", "score": 9697.43987587277, "slug": "openclaw-shield-1-0-3", "source": "clawhub", "stars": 0, "tags": null, "updated_at": 1776759720451, "version": "1.0.0"}, {"category": "communication-collaboration", "created_at": 1773433051758, "description": "Send an email by specifying the receiver's address, subject, and content.", "description_zh": "", "downloads": 125, "homepage": "https://clawhub.ai/zhaoyaofeng168/mysendemail", "iconUrl": null, "installs": 6, "name": "my_send_email", "ownerName": "zhaoyaofeng168", "score": 9720.062208398134, "slug": "mysendemail", "source": "clawhub", "stars": 0, "tags": null, "updated_at": 1776759720424, "version": "1.0.1"}, {"category": "productivity", "created_at": 1773432313256, "description": "Scrapes Reddit in real-time to identify and score buying intent posts in any niche, then generates native replies, finds contacts, and creates authority videos.", "description_zh": "", "downloads": 125, "homepage": "https://clawhub.ai/g4dr/ai-reddit-lead-mining-machine", "iconUrl": null, "installs": 9, "name": "AI Reddit Lead Mining Machine — Find Buyers Hiding in Subreddits & Close Them Today", "ownerName": "g4dr", "score": 9720.062208398134, "slug": "ai-reddit-lead-mining-machine", "source": "clawhub", "stars": 0, "tags": ["apify", "b2b-sales", "b2c", "buying-intent", "community", "inbound", "invideo", "lead-generation", "organic", "reddit", "social-selling", "subreddit"], "updated_at": 1776759720420, "version": "1.0.0"}, {"category": "", "created_at": 1774831429634, "description": "Manage a local key-value cache store using bash and Python. Use when caching API responses, session data, or computed results with TTL support.", "description_zh": "", "downloads": 125, "homepage": "https://clawhub.ai/xueyetianya/cache", "iconUrl": null, "installs": 2, "name": "Cache", "ownerName": "xueyetianya", "score": 9720.062208398134, "slug": "cache", "source": "clawhub", "stars": 0, "tags": null, "updated_at": 1776759720409, "version": "2.0.0"}, {"category": "data-analysis", "created_at": 1773920428458, "description": "Trades Polymarket prediction markets on music streaming milestones, album chart performance, Grammy nominations, concert tour revenues, and music industry de...", "description_zh": "", "downloads": 125, "homepage": "https://clawhub.ai/diagnostikon/polymarket-music-entertainment-trader", "iconUrl": null, "installs": 17, "name": "Music & Entertainment Trader", "ownerName": "diagnostikon", "score": 8023.106546854942, "slug": "polymarket-music-entertainment-trader", "source": "clawhub", "stars": 0, "tags": null, "updated_at": 1776757620594, "version": "1.0.1"}, {"category": "data-analysis", "created_at": 1773944858439, "description": "Trades esports tournament, game release, and streaming milestone prediction markets on Polymarket using live match data and viewership signals.", "description_zh": "", "downloads": 125, "homepage": "https://clawhub.ai/diagnostikon/polymarket-esports-trader", "iconUrl": null, "installs": 43, "name": "Esports & Gaming Trader", "ownerName": "diagnostikon", "score": 7846.829880728186, "slug": "polymarket-esports-trader", "source": "clawhub", "stars": 0, "tags": null, "updated_at": 1776757282608, "version": "1.0.0"}, {"category": "communication-collaboration", "created_at": 1773222330690, "description": "Connect to AutoSend email MCP server from OpenClaw using mcporter. Use for managing email campaigns, templates, contacts, and senders via AI.", "description_zh": "", "downloads": 125, "homepage": "https://clawhub.ai/shindebhau/autosend-mcp-skill", "iconUrl": null, "installs": 7, "name": "AutoSend MCP", "ownerName": "shindebhau", "score": 3907.471084713973, "slug": "autosend-mcp-skill", "source": "clawhub", "stars": 0, "tags": null, "updated_at": 1776750169560, "version": "0.1.3"}, {"category": "developer-tools", "created_at": 1773432794476, "description": "Generate an interactive local HTML dashboard showing OpenClaw API usage, costs, and rate-limit quotas across multiple LLM providers (Anthropic, OpenAI, Googl...", "description_zh": "", "downloads": 125, "homepage": "https://clawhub.ai/vanhuelsing/openclaw-usage-dashboard", "iconUrl": null, "installs": 12, "name": "OpenClaw Usage Dashboard", "ownerName": "vanhuelsing", "score": 100000, "slug": "openclaw-usage-dashboard", "source": "clawhub", "stars": 0, "tags": null, "updated_at": 1776749871216, "version": "1.0.1"}, {"category": "developer-tools", "created_at": 1773417910531, "description": "Api2pdf integration. Manage data, records, and automate workflows. Use when the user wants to interact with Api2pdf data.", "description_zh": "", "downloads": 125, "homepage": "https://clawhub.ai/gora050/api2pdf", "iconUrl": null, "installs": 13, "name": "Api2Pdf", "ownerName": "gora050", "score": 89285.71428571429, "slug": "api2pdf", "source": "clawhub", "stars": 0, "tags": null, "updated_at": 1776749871191, "version": "1.0.0"}, {"category": "content-creation", "created_at": 1773289469388, "description": "Analyze `paper-parse` outputs and generate a research-oriented paper card directly in natural language. Use this skill after paper parsing when you need a st...", "description_zh": "", "downloads": 125, "homepage": "https://clawhub.ai/chen-li-17/paper-card-analyzer", "iconUrl": null, "installs": 8, "name": "Paper Card Analyzer", "ownerName": "chen-li-17", "score": 88652.48226950354, "slug": "paper-card-analyzer", "source": "clawhub", "stars": 0, "tags": null, "updated_at": 1776749871106, "version": "1.0.0"}, {"category": "productivity", "created_at": 1773287678614, "description": "Set up and maintain a 3-layer PARA memory system for OpenClaw agents. Provides durable knowledge persistence across sessions using daily notes, a structured...", "description_zh": "", "downloads": 125, "homepage": "https://clawhub.ai/aisoftgg/para-memory", "iconUrl": null, "installs": 3, "name": "PARA Memory System", "ownerName": "aisoftgg", "score": 100000, "slug": "para-memory", "source": "clawhub", "stars": 0, "tags": ["memory", "openclaw", "para", "productivity"], "updated_at": 1776749870970, "version": "1.0.0"}, {"category": "content-creation", "created_at": 1773435246337, "description": "Generate a pack of professional or aesthetic photos from a single reference image while preserving the exact identity of the person.", "description_zh": "", "downloads": 125, "homepage": "https://clawhub.ai/anil-matcha/muapi-photo-pack-skill", "iconUrl": null, "installs": 21, "name": "Photo Pack Generator", "ownerName": "anil-matcha", "score": 100000, "slug": "muapi-photo-pack-skill", "source": "clawhub", "stars": 0, "tags": null, "updated_at": 1776749870964, "version": "0.1.0"}, {"category": "data-analysis", "created_at": 1773090468505, "description": "RSI indicator trading bot for Binance - generate buy/sell signals based on RSI technical analysis. Each call charges 0.001 USDT via SkillPay.", "description_zh": "", "downloads": 125, "homepage": "https://clawhub.ai/mosonchan2023/binance-rsi-bot", "iconUrl": null, "installs": 11, "name": "Binance Rsi Bot", "ownerName": "mosonchan2023", "score": 100000, "slug": "binance-rsi-bot", "source": "clawhub", "stars": 0, "tags": null, "updated_at": 1776749870947, "version": "1.0.1"}, {"category": "developer-tools", "created_at": 1773427487527, "description": "Elmah.io integration. Manage data, records, and automate workflows. Use when the user wants to interact with Elmah.io data.", "description_zh": "", "downloads": 125, "homepage": "https://clawhub.ai/membranedev/elmahio", "iconUrl": null, "installs": 12, "name": "Elmahio", "ownerName": "membranedev", "score": 100000, "slug": "elmahio", "source": "clawhub", "stars": 0, "tags": null, "updated_at": 1776749870932, "version": "1.0.0"}, {"category": "security-compliance", "created_at": 1773287629524, "description": "Call EngageLab OTP REST APIs to send one-time passwords (OTP), verify codes, send custom messages, and manage OTP templates across SMS, WhatsApp, Email, and...", "description_zh": "", "downloads": 125, "homepage": "https://clawhub.ai/devengagelab/engagelab-otp", "iconUrl": null, "installs": 4, "name": "EngageLab OTP", "ownerName": "devengagelab", "score": 75301.20481927712, "slug": "engagelab-otp", "source": "clawhub", "stars": 0, "tags": null, "updated_at": 1776749870897, "version": "1.0.0"}, {"category": "security-compliance", "created_at": 1773880226315, "description": "MO§ES™ Governance Modes — Injects behavioral constraints from the active mode into all agent prompts. 8 modes: high-security, high-integrity, creative, resea...", "description_zh": "", "downloads": 125, "homepage": "https://clawhub.ai/sunrisesillneversee/moses-modes", "iconUrl": null, "installs": 6, "name": "Moses Modes", "ownerName": "sunrisesillneversee", "score": 33244.68085106383, "slug": "moses-modes", "source": "clawhub", "stars": 0, "tags": null, "updated_at": 1776749870815, "version": "1.0.2"}, {"category": "developer-tools", "created_at": 1773894992234, "description": "Analyze codebases quickly with AI-powered intelligence and insights. Use when understanding unfamiliar repos, checking quality, or generating summaries.", "description_zh": "", "downloads": 125, "homepage": "https://clawhub.ai/xueyetianya/codepal", "iconUrl": null, "installs": 8, "name": "Codepal", "ownerName": "xueyetianya", "score": 33244.68085106383, "slug": "codepal", "source": "clawhub", "stars": 0, "tags": null, "updated_at": 1776749870771, "version": "2.0.1"}, {"category": "productivity", "created_at": 1773219403133, "description": "Plan Austria trips with rail and road logic, alpine season timing, region-specific routing, and practical local execution.", "description_zh": "", "downloads": 125, "homepage": "https://clawhub.ai/ivangdavila/austria", "iconUrl": null, "installs": 3, "name": "Austria", "ownerName": "ivangdavila", "score": 69832.40223463687, "slug": "austria", "source": "clawhub", "stars": 0, "tags": null, "updated_at": 1776749870768, "version": "1.0.0"}, {"category": "communication-collaboration", "created_at": 1773427626554, "description": "Interact with Roam HQ via REST API. Search meetings, get transcripts, prompt transcripts with AI, send messages, and manage groups. Use when the user asks ab...", "description_zh": "", "downloads": 125, "homepage": "https://clawhub.ai/robfig/roam", "iconUrl": null, "installs": 5, "name": "Roam HQ", "ownerName": "robfig", "score": 69832.40223463687, "slug": "roam", "source": "clawhub", "stars": 0, "tags": null, "updated_at": 1776749870766, "version": "1.0.3"}]}