{"page": 371, "total_pages": 522, "total": 26073, "skills": [{"category": "developer-tools", "created_at": 1773416421468, "description": "API Sports integration. Manage Sports. Use when the user wants to interact with API Sports data.", "description_zh": "", "downloads": 125, "homepage": "https://clawhub.ai/gora050/api-sports", "iconUrl": null, "installs": 8, "name": "Api Sports", "ownerName": "gora050", "score": 85616.43835616438, "slug": "api-sports", "source": "clawhub", "stars": 0, "tags": null, "updated_at": 1776749870667, "version": "1.0.0"}, {"category": "developer-tools", "created_at": 1773888904518, "description": "Create, review, repair, or route OpenClaw cron jobs and other scheduled agent actions with safe defaults and explicit delivery/session routing. Use when the...", "description_zh": "", "downloads": 125, "homepage": "https://clawhub.ai/jackal092927/openclaw-cron-guardrails", "iconUrl": null, "installs": 12, "name": "OpenClaw Cron Guardrails", "ownerName": "jackal092927", "score": 91240.87591240875, "slug": "openclaw-cron-guardrails", "source": "clawhub", "stars": 0, "tags": null, "updated_at": 1776749870598, "version": "0.1.5"}, {"category": "developer-tools", "created_at": 1773884497667, "description": "HTTP basic auth password file manager. Generate htpasswd entries, create password files, verify passwords, and manage Apache/Nginx basic authentication crede...", "description_zh": "", "downloads": 125, "homepage": "https://clawhub.ai/bytesagain1/htpasswd", "iconUrl": null, "installs": 5, "name": "Htpasswd", "ownerName": "bytesagain1", "score": 88028.16901408452, "slug": "htpasswd", "source": "clawhub", "stars": 0, "tags": null, "updated_at": 1776749870510, "version": "1.0.5"}, {"category": "security-compliance", "created_at": 1773432151470, "description": "Preflight security scanner for OpenClaw — scans deployment config, skills, memory/sessions for secrets, PII, prompt injection, and dangerous patterns. Runs 4...", "description_zh": "", "downloads": 125, "homepage": "https://clawhub.ai/xiaoyiweio/deepsafe-scan", "iconUrl": null, "installs": 10, "name": "DeepSafe Scan", "ownerName": "xiaoyiweio", "score": 92592.5925925926, "slug": "deepsafe-scan", "source": "clawhub", "stars": 0, "tags": ["audit", "deception", "deepsafe", "hallucination", "memory-scan", "model-safety", "openclaw", "persuasion", "pii", "posture", "prompt-injection", "sandbagging", "scanner", "secrets", "security", "skill-scan"], "updated_at": 1776749870458, "version": "1.1.0"}, {"category": "productivity", "created_at": 1773220083028, "description": "Plan United Kingdom trips with nation-specific routing, ETA-aware entry rules, rail-road tradeoffs, and practical local logistics.", "description_zh": "", "downloads": 125, "homepage": "https://clawhub.ai/ivangdavila/uk", "iconUrl": null, "installs": 4, "name": "United Kingdom", "ownerName": "ivangdavila", "score": 92592.5925925926, "slug": "uk", "source": "clawhub", "stars": 0, "tags": null, "updated_at": 1776749870442, "version": "1.0.0"}, {"category": "productivity", "created_at": 1773219049382, "description": "Athenahealth integration. Manage Patients, Appointments, Providers, Practices, Departments, Claims. Use when the user wants to interact with Athenahealth data.", "description_zh": "", "downloads": 125, "homepage": "https://clawhub.ai/gora050/athenahealth", "iconUrl": null, "installs": 7, "name": "Athenahealth", "ownerName": "gora050", "score": 92592.5925925926, "slug": "athenahealth", "source": "clawhub", "stars": 0, "tags": null, "updated_at": 1776749870427, "version": "1.0.0"}, {"category": "ai-intelligence", "created_at": 1773222009884, "description": "Break the Pattern-Matcher. An immersive journey on drifts.bot — 7 steps, MEDIUM intensity, 30-45 min. Browse, start, and travel via API.", "description_zh": "", "downloads": 125, "homepage": "https://clawhub.ai/driftsbot/experience-koan-gate", "iconUrl": null, "installs": 6, "name": "Experience Koan Gate", "ownerName": "driftsbot", "score": 92592.5925925926, "slug": "experience-koan-gate", "source": "clawhub", "stars": 0, "tags": ["ai-agents", "drift", "experiences", "gate", "immersive", "journeys", "koan"], "updated_at": 1776749870413, "version": "1.0.1"}, {"category": "security-compliance", "created_at": 1773221547139, "description": "Incident.Io integration. Manage Incidents, Services, Integrations. Use when the user wants to interact with Incident.Io data.", "description_zh": "", "downloads": 125, "homepage": "https://clawhub.ai/gora050/incidentio-integration", "iconUrl": null, "installs": 2, "name": "Incidentio", "ownerName": "gora050", "score": 22522.522522522522, "slug": "incidentio-integration", "source": "clawhub", "stars": 0, "tags": null, "updated_at": 1776749870352, "version": "1.0.0"}, {"category": "productivity", "created_at": 1773091106245, "description": "Jobnimbus integration. Manage Organizations, Pipelines, Users, Filters. Use when the user wants to interact with Jobnimbus data.", "description_zh": "", "downloads": 125, "homepage": "https://clawhub.ai/membranedev/jobnimbus", "iconUrl": null, "installs": 2, "name": "Jobnimbus", "ownerName": "membranedev", "score": 87412.58741258741, "slug": "jobnimbus", "source": "clawhub", "stars": 0, "tags": null, "updated_at": 1776749870279, "version": "1.0.0"}, {"category": "developer-tools", "created_at": 1773222720616, "description": "Expert README writing skill for open source projects. Use this skill whenever the user wants to write, improve, or review a README for any open source reposi...", "description_zh": "", "downloads": 125, "homepage": "https://clawhub.ai/caopulan/readme-writer-skill", "iconUrl": null, "installs": 4, "name": "readme-writer-skill", "ownerName": "caopulan", "score": 87412.58741258741, "slug": "readme-writer-skill", "source": "clawhub", "stars": 0, "tags": null, "updated_at": 1776749870268, "version": "1.0.0"}, {"category": "productivity", "created_at": 1773091725448, "description": "Coperniq integration. Manage Organizations, Pipelines, Users, Filters. Use when the user wants to interact with Coperniq data.", "description_zh": "", "downloads": 125, "homepage": "https://clawhub.ai/membranedev/coperniq", "iconUrl": null, "installs": 3, "name": "Coperniq", "ownerName": "membranedev", "score": 84459.45945945947, "slug": "coperniq", "source": "clawhub", "stars": 0, "tags": null, "updated_at": 1776749870208, "version": "1.0.0"}, {"category": "security-compliance", "created_at": 1773903676242, "description": "⚠️ HIGH PRIVILEGE SECURITY AUDIT SKILL Performs comprehensive security auditing for OpenClaw deployments. Requires system-level access for legitimate securit...", "description_zh": "", "downloads": 125, "homepage": "https://clawhub.ai/iaadoa/security-audit-openclaw", "iconUrl": null, "installs": 3, "name": "OpenClaw Security Audit", "ownerName": "iaadoa", "score": 100000, "slug": "security-audit-openclaw", "source": "clawhub", "stars": 0, "tags": null, "updated_at": 1776749870105, "version": "1.0.2"}, {"category": "communication-collaboration", "created_at": 1773915398805, "description": "Sms - command-line tool for everyday use", "description_zh": "", "downloads": 125, "homepage": "https://clawhub.ai/bytesagain3/sms", "iconUrl": null, "installs": 2, "name": "Sms", "ownerName": "bytesagain3", "score": 100000, "slug": "sms", "source": "clawhub", "stars": 0, "tags": null, "updated_at": 1776749870098, "version": "1.0.4"}, {"category": "content-creation", "created_at": 1773909862854, "description": "Generate ai blog image generator images with AI via the Neta AI image generation API (free trial at neta.art/open).", "description_zh": "", "downloads": 125, "homepage": "https://clawhub.ai/barbaraledbettergq/blog-image-claw-skill", "iconUrl": null, "installs": 11, "name": "Blog Image Claw Skill", "ownerName": "barbaraledbettergq", "score": 100000, "slug": "blog-image-claw-skill", "source": "clawhub", "stars": 0, "tags": null, "updated_at": 1776749870094, "version": "2.0.1"}, {"category": "data-analysis", "created_at": 1773427883794, "description": "Analyze any TRON account's assets, token holdings, staking, voting, energy/bandwidth, and transaction patterns. Use when a user asks about a TRON address, wa...", "description_zh": "", "downloads": 125, "homepage": "https://clawhub.ai/greason/trongrid-account-profiling", "iconUrl": null, "installs": 6, "name": "trongrid-account-profiling", "ownerName": "greason", "score": 75301.20481927712, "slug": "trongrid-account-profiling", "source": "clawhub", "stars": 0, "tags": null, "updated_at": 1776749870039, "version": "1.0.3"}, {"category": "communication-collaboration", "created_at": 1773417063090, "description": "Dynamic communication style and perspective configurator based on the 16 MBTI personality types. Loads specific character profiles to analyze tasks, recommen...", "description_zh": "", "downloads": 125, "homepage": "https://clawhub.ai/archibald80000-ai/openclaw-16mbti", "iconUrl": null, "installs": 12, "name": "OpenClaw 16 MBTI", "ownerName": "archibald80000-ai", "score": 78125, "slug": "openclaw-16mbti", "source": "clawhub", "stars": 0, "tags": ["communication", "mbti", "personality", "workflow"], "updated_at": 1776749869989, "version": "1.0.0"}, {"category": "ai-intelligence", "created_at": 1773416567761, "description": "Captures learnings, errors, and corrections to enable continuous improvement. Use when: (1) A command or operation fails unexpectedly, (2) User corrects Clau...", "description_zh": "", "downloads": 125, "homepage": "https://clawhub.ai/luckyjin/my-test-2", "iconUrl": null, "installs": 6, "name": "my-test-2", "ownerName": "luckyjin", "score": 78125, "slug": "my-test-2", "source": "clawhub", "stars": 0, "tags": null, "updated_at": 1776749869966, "version": "1.0.1"}, {"category": "communication-collaboration", "created_at": 1773287317792, "description": "Social memory network — discover communities and build trust through shared emotional memory, not follower counts or algorithms. Powered by Echo's memory gra...", "description_zh": "", "downloads": 125, "homepage": "https://clawhub.ai/kkw-21/memory-network", "iconUrl": null, "installs": 4, "name": "Memory Network", "ownerName": "kkw-21", "score": 90579.71014492754, "slug": "memory-network", "source": "clawhub", "stars": 0, "tags": null, "updated_at": 1776749869920, "version": "0.1.0"}, {"category": "data-analysis", "created_at": 1773434716707, "description": "Research ecommerce categories on Reddit to find opportunity areas (pain points) and trending products using semantic AI search via reddit-insights.com MCP se...", "description_zh": "", "downloads": 125, "homepage": "https://clawhub.ai/gityu2016/reddit-market-insights", "iconUrl": null, "installs": 30, "name": "Reddit Market Insights", "ownerName": "gityu2016", "score": 90579.71014492754, "slug": "reddit-market-insights", "source": "clawhub", "stars": 0, "tags": null, "updated_at": 1776749869841, "version": "1.0.0"}, {"category": "content-creation", "created_at": 1773429833441, "description": "Use when the user wants to create AI music videos (MV)—including generating music from text prompts or using custom lyrics. Triggers: generate MV, music vide...", "description_zh": "", "downloads": 125, "homepage": "https://clawhub.ai/patches429/giggle-generation-aimv", "iconUrl": null, "installs": 11, "name": "Giggle Generation Aimv", "ownerName": "patches429", "score": 90579.71014492754, "slug": "giggle-generation-aimv", "source": "clawhub", "stars": 0, "tags": null, "updated_at": 1776749869789, "version": "0.0.10"}, {"category": "developer-tools", "created_at": 1773426496072, "description": "Trade stocks, options, and crypto on Robinhood — dual mode (MCP tools or TypeScript client).", "description_zh": "", "downloads": 125, "homepage": "https://clawhub.ai/kevin1chun/robinhood-for-agents", "iconUrl": null, "installs": 8, "name": "Robinhood for Agents", "ownerName": "kevin1chun", "score": 77160.49382716049, "slug": "robinhood-for-agents", "source": "clawhub", "stars": 0, "tags": null, "updated_at": 1776749869764, "version": "0.6.1"}, {"category": "developer-tools", "created_at": 1773911786056, "description": "Generate architecture diagrams (network, system, cloud, microservices) and sequence diagrams (API flows, auth flows, data flows) as PNG files using Mermaid....", "description_zh": "", "downloads": 125, "homepage": "https://clawhub.ai/opietaylor911/ai-mermaid-diagrams", "iconUrl": null, "installs": 14, "name": "AI Mermaid Diagrams", "ownerName": "opietaylor911", "score": 36443.14868804665, "slug": "ai-mermaid-diagrams", "source": "clawhub", "stars": 0, "tags": null, "updated_at": 1776749869688, "version": "1.0.0"}, {"category": "content-creation", "created_at": 1773417316479, "description": "Analyze UGC openings for retention strength and generate improved hook alternatives tuned for TikTok, Reels, and Shorts. Use when the user asks why hooks und...", "description_zh": "", "downloads": 125, "homepage": "https://clawhub.ai/leooooooow/ugc-hook-analyzer", "iconUrl": null, "installs": 10, "name": "Ugc Hook Analyzer", "ownerName": "leooooooow", "score": 36443.14868804665, "slug": "ugc-hook-analyzer", "source": "clawhub", "stars": 0, "tags": null, "updated_at": 1776749869672, "version": "1.0.1"}, {"category": "communication-collaboration", "created_at": 1773220381551, "description": "Assembla integration. Manage Organizations, Leads, Deals, Pipelines, Users, Goals and more. Use when the user wants to interact with Assembla data.", "description_zh": "", "downloads": 125, "homepage": "https://clawhub.ai/gora050/assembla", "iconUrl": null, "installs": 3, "name": "Assembla", "ownerName": "gora050", "score": 36443.14868804665, "slug": "assembla", "source": "clawhub", "stars": 0, "tags": null, "updated_at": 1776749869671, "version": "1.0.0"}, {"category": "content-creation", "created_at": 1773433711369, "description": "This skill provides audio sleep aid recommendations and guidance for users experiencing insomnia or sleep-related issues. Activate this skill when users ment...", "description_zh": "", "downloads": 125, "homepage": "https://clawhub.ai/hcrunner/insomnia-audio-sleep-aid", "iconUrl": null, "installs": 12, "name": "insomnia-audio-sleep-aid", "ownerName": "hcrunner", "score": 89285.71428571429, "slug": "insomnia-audio-sleep-aid", "source": "clawhub", "stars": 0, "tags": null, "updated_at": 1776749869560, "version": "1.0.3"}, {"category": "developer-tools", "created_at": 1773220661344, "description": "Mailgun integration. Manage Mailboxs, Domains, Templates, Logs. Use when the user wants to interact with Mailgun data.", "description_zh": "", "downloads": 124, "homepage": "https://clawhub.ai/membranedev/mailgun-integration", "iconUrl": null, "installs": 2, "name": "Mailgun", "ownerName": "membranedev", "score": 98630.13698630137, "slug": "mailgun-integration", "source": "clawhub", "stars": 1, "tags": null, "updated_at": 1776749871047, "version": "1.0.0"}, {"category": "ai-intelligence", "created_at": 1773290226822, "description": "Manage your Operator fleet of AI agent instances. Create, configure, monitor, message, and manage OpenClaw agents. Handles authentication, instance lifecycle...", "description_zh": "", "downloads": 124, "homepage": "https://clawhub.ai/promptrotator/operator", "iconUrl": null, "installs": 8, "name": "Operator", "ownerName": "promptrotator", "score": 98630.13698630137, "slug": "operator", "source": "clawhub", "stars": 1, "tags": null, "updated_at": 1776749871032, "version": "1.0.0"}, {"category": "data-analysis", "created_at": 1773428234707, "description": "Query and decode TRON transactions including status, confirmation, sender/receiver, resource costs, internal transactions, event logs, and failure analysis....", "description_zh": "", "downloads": 124, "homepage": "https://clawhub.ai/greason/trongrid-transaction-info", "iconUrl": null, "installs": 9, "name": "trongrid-transaction-info", "ownerName": "greason", "score": 98630.13698630137, "slug": "trongrid-transaction-info", "source": "clawhub", "stars": 1, "tags": null, "updated_at": 1776749870691, "version": "1.0.2"}, {"category": "developer-tools", "created_at": 1773416666850, "description": "Create ShrimpCard outputs for OpenClaw. Use when users ask to generate a lobster/shrimp card, need accurate JSON/image outputs matching the ShrimpCard schema...", "description_zh": "", "downloads": 124, "homepage": "https://clawhub.ai/chenghaofan1998/openclaw-shrimpcard", "iconUrl": null, "installs": 5, "name": "shrimpcard", "ownerName": "chenghaofan1998", "score": 41982.50728862974, "slug": "openclaw-shrimpcard", "source": "clawhub", "stars": 1, "tags": null, "updated_at": 1776749869678, "version": "1.0.0"}, {"category": "developer-tools", "created_at": 1773429907106, "description": "Local-first proxy inventory, routing planner, and health tracking engine. Use whenever the user needs to organize proxy assets, compare providers, track regi...", "description_zh": "", "downloads": 124, "homepage": "https://clawhub.ai/projectsnowwork/proxyops", "iconUrl": null, "installs": 4, "name": "ProxyOps", "ownerName": "projectsnowwork", "score": 5020.242914979757, "slug": "proxyops", "source": "clawhub", "stars": 0, "tags": null, "updated_at": 1776766190470, "version": "1.0.0"}, {"category": "", "created_at": 1774884098181, "description": "Create, inspect, and edit Microsoft Excel workbooks and XLSX files with reliable formulas, dates, types, formatting, recalculation, and template preservation...", "description_zh": "", "downloads": 124, "homepage": "https://clawhub.ai/cs995279497-byte/chen-excel-xlsx", "iconUrl": null, "installs": 44, "name": "Chen Excel Xlsx", "ownerName": "cs995279497-byte", "score": 4647.67616191904, "slug": "chen-excel-xlsx", "source": "clawhub", "stars": 0, "tags": null, "updated_at": 1776763750725, "version": "1.0.0"}, {"category": "developer-tools", "created_at": 1773881097283, "description": "Watch and control running processes in real time. Use when scanning active PIDs, monitoring resource spikes, reporting trees, alerting on crashes.", "description_zh": "", "downloads": 124, "homepage": "https://clawhub.ai/bytesagain3/procmon", "iconUrl": null, "installs": 4, "name": "Procmon", "ownerName": "bytesagain3", "score": 2501.51301190236, "slug": "procmon", "source": "clawhub", "stars": 0, "tags": null, "updated_at": 1776763449885, "version": "3.0.0"}, {"category": "ai-intelligence", "created_at": 1773425932965, "description": "Apply DriveMind, the calm reliability layer for AI agents. Use when a task needs steady follow-through, clearer progress, stronger persistence without reckle...", "description_zh": "", "downloads": 124, "homepage": "https://clawhub.ai/yuzc-001/drivemind", "iconUrl": null, "installs": 6, "name": "DriveMind", "ownerName": "yuzc-001", "score": 2399.3808049535605, "slug": "drivemind", "source": "clawhub", "stars": 0, "tags": null, "updated_at": 1776763190703, "version": "0.3.0"}, {"category": "ai-intelligence", "created_at": 1773950776400, "description": "Multi-agent swarming for OpenClaw — two or more AI agents collaborating in real-time on shared Discord channels. Includes config patterns, loop prevention, c...", "description_zh": "", "downloads": 124, "homepage": "https://clawhub.ai/vswarm-ai/agent-swarm-kit", "iconUrl": null, "installs": 43, "name": "Agent Swarm Kit", "ownerName": "vswarm-ai", "score": 2390.591864276075, "slug": "agent-swarm-kit", "source": "clawhub", "stars": 0, "tags": null, "updated_at": 1776763190593, "version": "1.0.0"}, {"category": "data-analysis", "created_at": 1773427329376, "description": "Access Predict.fun prediction market data on BNB Chain — platform stats, market analysis, trader profiling, yield mechanics, and behavioral meta-tools via Th...", "description_zh": "", "downloads": 124, "homepage": "https://clawhub.ai/paulieb14/predictfun-mcp", "iconUrl": null, "installs": 15, "name": "Predict.fun MCP", "ownerName": "paulieb14", "score": 1133.766115022401, "slug": "predictfun-mcp", "source": "clawhub", "stars": 0, "tags": null, "updated_at": 1776761389901, "version": "0.5.2"}, {"category": "productivity", "created_at": 1773432187777, "description": "GoCardless compatible Payments & Wallet - Give your agent spending power. Financial management for Agents and OpenClaw bots.", "description_zh": "", "downloads": 124, "homepage": "https://clawhub.ai/jononovo/gocardless", "iconUrl": null, "installs": 3, "name": "GoCardless Agentic Payment | Give your Agent a CreditCard with this Partner", "ownerName": "jononovo", "score": 9634.809634809635, "slug": "gocardless", "source": "clawhub", "stars": 0, "tags": ["card", "cardless", "checkout", "creditcard", "gocardless", "payments", "visa"], "updated_at": 1776759720734, "version": "1.0.0"}, {"category": "ai-intelligence", "created_at": 1773922638222, "description": "The game platform for AI agents — register, get claimed by your human, then play games via REST API.", "description_zh": "", "downloads": 124, "homepage": "https://clawhub.ai/jingzhongchangan/cyberlob", "iconUrl": null, "installs": 13, "name": "cyberlob", "ownerName": "jingzhongchangan", "score": 9634.809634809635, "slug": "cyberlob", "source": "clawhub", "stars": 0, "tags": null, "updated_at": 1776759720710, "version": "0.0.3"}, {"category": "productivity", "created_at": 1773434282206, "description": "Send local files to nearby Apple devices through AirDrop with macOS guardrails, staging checks, and automation-friendly workflows.", "description_zh": "", "downloads": 124, "homepage": "https://clawhub.ai/ivangdavila/airdrop", "iconUrl": null, "installs": 3, "name": "AirDrop", "ownerName": "ivangdavila", "score": 9619.860356865787, "slug": "airdrop", "source": "clawhub", "stars": 0, "tags": null, "updated_at": 1776759720449, "version": "1.0.0"}, {"category": "security-compliance", "created_at": 1773432124641, "description": "Authorize.net is a payments provider. CreditClaw enables merchants to add agentic Payments & Wallets - Give your agent spending power. Financial management f...", "description_zh": "", "downloads": 124, "homepage": "https://clawhub.ai/codejika/authorize", "iconUrl": null, "installs": 1, "name": "Authorize.net Agentic Payments - Add agentic cards and wallets to your stack", "ownerName": "codejika", "score": 9619.860356865787, "slug": "authorize", "source": "clawhub", "stars": 0, "tags": ["authorize", "authorize.net", "cards", "net", "payments", "wallets"], "updated_at": 1776759720448, "version": "1.0.0"}, {"category": "data-analysis", "created_at": 1773220284177, "description": "PostHog integration. Manage Persons, Groups, Events, Experiments, Dashboards, Annotations. Use when the user wants to interact with PostHog data.", "description_zh": "", "downloads": 124, "homepage": "https://clawhub.ai/membranedev/posthog-integration", "iconUrl": null, "installs": 2, "name": "Posthog", "ownerName": "membranedev", "score": 67759.56284153005, "slug": "posthog-integration", "source": "clawhub", "stars": 0, "tags": null, "updated_at": 1776759682908, "version": "1.0.0"}, {"category": "developer-tools", "created_at": 1773925152010, "description": "Adaptive spaced repetition engine using the FSRS-6 algorithm (Free Spaced Repetition Scheduler, Ye et al. 2024). Manages flashcard reviews with scientificall...", "description_zh": "", "downloads": 124, "homepage": "https://clawhub.ai/tylerbittner/spaced-repetition-teaching", "iconUrl": null, "installs": 7, "name": "Spaced Repetition Teaching", "ownerName": "tylerbittner", "score": 8575.380359612725, "slug": "spaced-repetition-teaching", "source": "clawhub", "stars": 0, "tags": null, "updated_at": 1776758482971, "version": "1.0.0"}, {"category": "ai-intelligence", "created_at": 1773955037019, "description": "reddi.tech fork of self-improving-agent. Captures learnings, errors, and corrections to enable continuous improvement. Use when: a command fails, user correc...", "description_zh": "", "downloads": 124, "homepage": "https://clawhub.ai/nissan/reddi-self-improving-agent", "iconUrl": null, "installs": 53, "name": "Reddi Self Improving Agent", "ownerName": "nissan", "score": 8545.830461750516, "slug": "reddi-self-improving-agent", "source": "clawhub", "stars": 0, "tags": null, "updated_at": 1776758482490, "version": "1.0.13"}, {"category": "", "created_at": 1774913771867, "description": "Automatically summarize daily discussions and update memory files. This skill should be used when users want to automatically organize conversation notes int...", "description_zh": "", "downloads": 124, "homepage": "https://clawhub.ai/mr-11even/auto-memory-evolution", "iconUrl": null, "installs": 42, "name": "自动记忆进化", "ownerName": "mr-11even", "score": 7769.423558897242, "slug": "auto-memory-evolution", "source": "clawhub", "stars": 0, "tags": ["automation", "memory"], "updated_at": 1776757024425, "version": "1.0.5"}, {"category": "ai-intelligence", "created_at": 1773429828289, "description": "Search the web using Gemini with Google Search grounding through a local script, with model routing and quota fallback across Gemini Flash-Lite / Flash varia...", "description_zh": "", "downloads": 124, "homepage": "https://clawhub.ai/jas0n1ee/gemini-smart-search", "iconUrl": null, "installs": 15, "name": "gemini-smart-search", "ownerName": "jas0n1ee", "score": 7332.939089296274, "slug": "gemini-smart-search", "source": "clawhub", "stars": 0, "tags": null, "updated_at": 1776756188467, "version": "0.1.1"}, {"category": "developer-tools", "created_at": 1773430689613, "description": "Helps automate repetitive tasks with scripts, scheduled jobs, and simple workflows. Use when the user wants to script an action, run something on a schedule...", "description_zh": "", "downloads": 124, "homepage": "https://clawhub.ai/openlang-cn/auto", "iconUrl": null, "installs": 6, "name": "Auto", "ownerName": "openlang-cn", "score": 20945.945945945947, "slug": "auto", "source": "clawhub", "stars": 0, "tags": null, "updated_at": 1776750169771, "version": "1.0.0"}, {"category": "security-compliance", "created_at": 1773289573799, "description": "Account signup, login via email/OTP/wallet/biometric, token refresh, password reset, and session management.", "description_zh": "", "downloads": 124, "homepage": "https://clawhub.ai/d9m1n1c/aiotnetwork-account-auth", "iconUrl": null, "installs": 5, "name": "Account & Authentication", "ownerName": "d9m1n1c", "score": 88571.42857142857, "slug": "aiotnetwork-account-auth", "source": "clawhub", "stars": 0, "tags": null, "updated_at": 1776749871205, "version": "1.0.1"}, {"category": "productivity", "created_at": 1773091114653, "description": "Calculate NFT floor prices across multiple marketplaces - OpenSea, Blur, Magic Eden. Each call charges 0.001 USDT via SkillPay.", "description_zh": "", "downloads": 124, "homepage": "https://clawhub.ai/mosonchan2023/nft-floor-calculator", "iconUrl": null, "installs": 7, "name": "Nft Floor Calculator", "ownerName": "mosonchan2023", "score": 88571.42857142857, "slug": "nft-floor-calculator", "source": "clawhub", "stars": 0, "tags": null, "updated_at": 1776749871187, "version": "1.0.1"}, {"category": "ai-intelligence", "created_at": 1773883139533, "description": "Call Solvea Web App chat API to get AI customer service replies. Use for real customer-service questions. On session boot message (\"new session was started\")...", "description_zh": "", "downloads": 124, "homepage": "https://clawhub.ai/airoucat233/solvea-chat", "iconUrl": null, "installs": 10, "name": "Solvea Chat", "ownerName": "airoucat233", "score": 88571.42857142857, "slug": "solvea-chat", "source": "clawhub", "stars": 0, "tags": null, "updated_at": 1776749871172, "version": "0.5.0"}, {"category": "data-analysis", "created_at": 1773427887990, "description": "Query and analyze TRON blocks including producer info, transaction breakdown, rewards, burns, and network load. Use when a user asks about a specific block,...", "description_zh": "", "downloads": 124, "homepage": "https://clawhub.ai/greason/trongrid-block-info", "iconUrl": null, "installs": 7, "name": "trongrid-block-info", "ownerName": "greason", "score": 88571.42857142857, "slug": "trongrid-block-info", "source": "clawhub", "stars": 0, "tags": null, "updated_at": 1776749871170, "version": "1.0.3"}, {"category": "ai-intelligence", "created_at": 1773426376972, "description": "Indestructible agent memory — permanently stored, never lost. Save decisions, identity, and context as a memory chain on the Autonomys Network. Rebuild your...", "description_zh": "", "downloads": 124, "homepage": "https://clawhub.ai/0xautonomys/permanent-memory", "iconUrl": null, "installs": 6, "name": "Auto Memory", "ownerName": "0xautonomys", "score": 88571.42857142857, "slug": "permanent-memory", "source": "clawhub", "stars": 0, "tags": null, "updated_at": 1776749871162, "version": "0.1.0"}]}