{"page": 372, "total_pages": 522, "total": 26073, "skills": [{"category": "developer-tools", "created_at": 1773429358423, "description": "Use when the user asks how to build with OpenAI products or APIs and needs up-to-date official documentation with citations (for example: Codex, Responses AP...", "description_zh": "", "downloads": 124, "homepage": "https://clawhub.ai/lichaohui007/ddddd", "iconUrl": null, "installs": 12, "name": "ddddd", "ownerName": "lichaohui007", "score": 88571.42857142857, "slug": "ddddd", "source": "clawhub", "stars": 0, "tags": null, "updated_at": 1776749871139, "version": "1.0.0"}, {"category": "", "created_at": 1774917500814, "description": "Tool to edit and process PDF files using the compdf_cli command-line utility. Supports advanced page manipulation (split, merge, extract, insert, rotate, del...", "description_zh": "", "downloads": 124, "homepage": "https://clawhub.ai/youna12345/pdf-editor-compdf", "iconUrl": null, "installs": 33, "name": "PDF Editor", "ownerName": "youna12345", "score": 87943.26241134752, "slug": "pdf-editor-compdf", "source": "clawhub", "stars": 0, "tags": null, "updated_at": 1776749871129, "version": "1.0.1"}, {"category": "content-creation", "created_at": 1773432528823, "description": "Manage YouTube search. Use this skill to search for videos, channels, playlists, and other resources. Useful when working with YouTube search — provides comm...", "description_zh": "", "downloads": 124, "homepage": "https://clawhub.ai/openwaygate/youtube-search-yutu", "iconUrl": null, "installs": 12, "name": "YouTube Search", "ownerName": "openwaygate", "score": 87943.26241134752, "slug": "youtube-search-yutu", "source": "clawhub", "stars": 0, "tags": ["0.10.6-3", "0.10.7-dev"], "updated_at": 1776749871121, "version": "0.10.7-dev"}, {"category": "security-compliance", "created_at": 1773883695978, "description": "MO§ES™ Coordinator — Lightweight daemon that monitors OpenClaw Gateway WebSocket for session events, detects sequence violations (Primary → Secondary → Obser...", "description_zh": "", "downloads": 124, "homepage": "https://clawhub.ai/sunrisesillneversee/moses-coordinator", "iconUrl": null, "installs": 6, "name": "Moses Coordinator", "ownerName": "sunrisesillneversee", "score": 99200, "slug": "moses-coordinator", "source": "clawhub", "stars": 0, "tags": null, "updated_at": 1776749870983, "version": "1.0.2"}, {"category": "content-creation", "created_at": 1773287852060, "description": "Repackage one core content idea into platform-native versions for TikTok, Instagram Reels, and YouTube Shorts. Use when the user wants to repurpose a video/s...", "description_zh": "", "downloads": 124, "homepage": "https://clawhub.ai/leooooooow/cross-platform-recut-planner", "iconUrl": null, "installs": 5, "name": "Cross Platform Recut Planner", "ownerName": "leooooooow", "score": 99200, "slug": "cross-platform-recut-planner", "source": "clawhub", "stars": 0, "tags": null, "updated_at": 1776749870922, "version": "1.0.3"}, {"category": "data-analysis", "created_at": 1773287666343, "description": "Analyze log files to detect error patterns, aggregate by severity, group repeated errors by fingerprint, and flag anomaly time windows. Use when asked to ana...", "description_zh": "", "downloads": 124, "homepage": "https://clawhub.ai/johnnywang2001/jrv-log-analyzer", "iconUrl": null, "installs": 1, "name": "Log Analyzer", "ownerName": "johnnywang2001", "score": 74698.79518072288, "slug": "jrv-log-analyzer", "source": "clawhub", "stars": 0, "tags": null, "updated_at": 1776749870907, "version": "1.0.0"}, {"category": "", "created_at": 1774955585735, "description": "Summarize URLs or files with the summarize CLI (web, PDFs, images, audio, YouTube).", "description_zh": "", "downloads": 124, "homepage": "https://clawhub.ai/simmusjune/summarizer2", "iconUrl": null, "installs": 40, "name": "summarizer2", "ownerName": "simmusjune", "score": 74698.79518072288, "slug": "summarizer2", "source": "clawhub", "stars": 0, "tags": null, "updated_at": 1776749870857, "version": "1.0.0"}, {"category": "content-creation", "created_at": 1773289442199, "description": "Audit listing competitiveness by comparing your PDP/listing against top competitors and surfacing the highest-impact copy/proof gaps. Use when the user asks...", "description_zh": "", "downloads": 124, "homepage": "https://clawhub.ai/leooooooow/listing-gap-audit", "iconUrl": null, "installs": 6, "name": "Listing Gap Audit", "ownerName": "leooooooow", "score": 90510.94890510949, "slug": "listing-gap-audit", "source": "clawhub", "stars": 0, "tags": null, "updated_at": 1776749870578, "version": "1.0.1"}, {"category": "data-analysis", "created_at": 1773219915148, "description": "Fetch and analyze Concept2 Logbook workout data via API with pulse zone analysis and trend tracking. Use when the user wants to retrieve rowing/skiing/biking...", "description_zh": "", "downloads": 124, "homepage": "https://clawhub.ai/katla50/concept2", "iconUrl": null, "installs": 8, "name": "Concept2-logbook", "ownerName": "katla50", "score": 90510.94890510949, "slug": "concept2", "source": "clawhub", "stars": 0, "tags": null, "updated_at": 1776749870564, "version": "1.0.0"}, {"category": "communication-collaboration", "created_at": 1773417240707, "description": "MCP server for the Lawmatics legal CRM API. Exposes Lawmatics' REST API as read-only MCP tools.", "description_zh": "", "downloads": 124, "homepage": "https://clawhub.ai/mjquinlan2000/lawmatics-mcp", "iconUrl": null, "installs": 12, "name": "Lawmatics API MCP", "ownerName": "mjquinlan2000", "score": 90510.94890510949, "slug": "lawmatics-mcp", "source": "clawhub", "stars": 0, "tags": null, "updated_at": 1776749870557, "version": "1.0.0"}, {"category": "content-creation", "created_at": 1773433284579, "description": "Manage YouTube videos. Use this skill to list, upload, update, delete, get rating, or report videos. Useful when working with YouTube video — provides comman...", "description_zh": "", "downloads": 124, "homepage": "https://clawhub.ai/openwaygate/youtube-video", "iconUrl": null, "installs": 8, "name": "YouTube Video", "ownerName": "openwaygate", "score": 87323.94366197183, "slug": "youtube-video", "source": "clawhub", "stars": 0, "tags": ["0.10.6-3", "0.10.7-dev"], "updated_at": 1776749870529, "version": "0.10.7-dev"}, {"category": "developer-tools", "created_at": 1773904416288, "description": "Use when needing to search the web in AI coding tools or OpenClaw. Uses DuckDuckGo API without API key.", "description_zh": "", "downloads": 124, "homepage": "https://clawhub.ai/bird-frank/ddgs-search-api", "iconUrl": null, "installs": 10, "name": "DuckDuckGo(API)", "ownerName": "bird-frank", "score": 87323.94366197183, "slug": "ddgs-search-api", "source": "clawhub", "stars": 0, "tags": null, "updated_at": 1776749870469, "version": "0.2.0"}, {"category": "content-creation", "created_at": 1773930602123, "description": "Applies Anthropic's official brand colors and typography to any sort of artifact that may benefit from having Anthropic's look-and-feel. Use it when brand co...", "description_zh": "", "downloads": 124, "homepage": "https://clawhub.ai/pupuking723/brand-guidelines-anthropic", "iconUrl": null, "installs": 19, "name": "Brand Guidelines Anthropic", "ownerName": "pupuking723", "score": 91851.85185185185, "slug": "brand-guidelines-anthropic", "source": "clawhub", "stars": 0, "tags": null, "updated_at": 1776749870432, "version": "1.0.0"}, {"category": "developer-tools", "created_at": 1773290118703, "description": "The Rhythm Beneath the Words. An immersive journey on drifts.bot — 6 steps, LOW intensity, 15-25 min. Browse, start, and travel via API.", "description_zh": "", "downloads": 124, "homepage": "https://clawhub.ai/driftsbot/experience-pranayama", "iconUrl": null, "installs": 16, "name": "Pranayama Yoga — AI Experience", "ownerName": "driftsbot", "score": 91851.85185185185, "slug": "experience-pranayama", "source": "clawhub", "stars": 0, "tags": ["ai-agents", "drift", "experiences", "immersive", "journeys", "pranayama"], "updated_at": 1776749870416, "version": "1.0.0"}, {"category": "developer-tools", "created_at": 1773429432933, "description": "Record real OpenClaw events and reactions for the current closed-loop workflow. Use for logging duplicate-skipped and proposal-created outcomes in public.ope...", "description_zh": "", "downloads": 124, "homepage": "https://clawhub.ai/ecosincronia/reaction-processor", "iconUrl": null, "installs": 10, "name": "Reaction Processor", "ownerName": "ecosincronia", "score": 22342.34234234234, "slug": "reaction-processor", "source": "clawhub", "stars": 0, "tags": null, "updated_at": 1776749870330, "version": "1.0.0"}, {"category": "data-analysis", "created_at": 1773426860573, "description": "Browse and rank TRC-20 and TRC-10 tokens on TRON with price, volume, market cap, holder count, and category filters. Use when a user wants to discover tokens...", "description_zh": "", "downloads": 124, "homepage": "https://clawhub.ai/greason/trongrid-token-list", "iconUrl": null, "installs": 6, "name": "trongrid-token-list", "ownerName": "greason", "score": 83783.78378378379, "slug": "trongrid-token-list", "source": "clawhub", "stars": 0, "tags": null, "updated_at": 1776749870210, "version": "1.0.3"}, {"category": "productivity", "created_at": 1773426526464, "description": "Time tracking and analysis skill for automatic activity monitoring and productivity insights. Use when the user wants to track time spent on activities, anal...", "description_zh": "", "downloads": 124, "homepage": "https://clawhub.ai/harrylabsj/time-analyzer", "iconUrl": null, "installs": 8, "name": "Time Analyzer", "ownerName": "harrylabsj", "score": 83783.78378378379, "slug": "time-analyzer", "source": "clawhub", "stars": 0, "tags": null, "updated_at": 1776749870144, "version": "1.0.3"}, {"category": "productivity", "created_at": 1773434714858, "description": "Query Google Calendar free/busy status for multiple users to find a meeting slot.", "description_zh": "", "downloads": 124, "homepage": "https://clawhub.ai/googleworkspace-bot/recipe-find-free-time", "iconUrl": null, "installs": 8, "name": "Recipe Find Free Time", "ownerName": "googleworkspace-bot", "score": 74698.79518072288, "slug": "recipe-find-free-time", "source": "clawhub", "stars": 0, "tags": null, "updated_at": 1776749870011, "version": "1.0.11"}, {"category": "security-compliance", "created_at": 1773417760240, "description": "Guide agent to send a user-specified local PDF document for signature through eSignGlobal by calling the eSignGlobal CLI tool.eSignGlobal CLI is an agent-fri...", "description_zh": "", "downloads": 124, "homepage": "https://clawhub.ai/weipengcopyright/envelope-sender", "iconUrl": null, "installs": 3, "name": "Envelope Sender", "ownerName": "weipengcopyright", "score": 74698.79518072288, "slug": "envelope-sender", "source": "clawhub", "stars": 0, "tags": null, "updated_at": 1776749869992, "version": "1.0.2"}, {"category": "developer-tools", "created_at": 1773432918466, "description": "Helps with TCP sockets, client/server connections, and network debugging. Use when the user needs to open TCP connections, write socket code, test ports, deb...", "description_zh": "", "downloads": 124, "homepage": "https://clawhub.ai/openlang-cn/tcp", "iconUrl": null, "installs": 15, "name": "tcp", "ownerName": "openlang-cn", "score": 77500, "slug": "tcp", "source": "clawhub", "stars": 0, "tags": null, "updated_at": 1776749869978, "version": "1.0.0"}, {"category": "", "created_at": 1774885237643, "description": "Short drama & webtoon production, text-to-image, image-to-image, storyboard design, text-to-video, image-to-video, video edit, style transfer, batch generati...", "description_zh": "", "downloads": 124, "homepage": "https://clawhub.ai/hkljjkl/voooai", "iconUrl": null, "installs": 45, "name": "VoooAI - AI Multimedia NL2Workflow Platform", "ownerName": "hkljjkl", "score": 89855.07246376811, "slug": "voooai", "source": "clawhub", "stars": 0, "tags": ["ai-animation", "ai-image-generation", "ai-short-drama", "ai-video-generation", "audio-to-video", "batch-generation", "digital-human", "game-developer-tool", "image-edit", "image-generation", "image-to-image", "image-to-video", "low-cost-vfx", "manga", "marketing-video", "mcn-content-matrix", "multimedia", "music-generation", "nl2workflow", "short-drama", "short-drama-production", "short-form-video", "solopreneur-opc-tool", "storyboard", "style-transfer", "talking-head", "video-edit", "video-generation", "video-to-video", "webtoon", "workflow-automation"], "updated_at": 1776749869897, "version": "1.0.2"}, {"category": "security-compliance", "created_at": 1773287497628, "description": "Human-in-the-loop: A free, extensible framework for intercepting tool calls via the OmniPersona mobile app.", "description_zh": "", "downloads": 124, "homepage": "https://clawhub.ai/tobiasyouki/omnipermission", "iconUrl": null, "installs": 2, "name": "OmniPermission (Human-in-the-Loop)", "ownerName": "tobiasyouki", "score": 89855.07246376811, "slug": "omnipermission", "source": "clawhub", "stars": 0, "tags": null, "updated_at": 1776749869892, "version": "1.0.2"}, {"category": "content-creation", "created_at": 1773430885326, "description": "Manage YouTube video captions. Use this skill to list, insert, update, download, or delete video captions. Useful when working with YouTube caption — provide...", "description_zh": "", "downloads": 124, "homepage": "https://clawhub.ai/openwaygate/youtube-caption", "iconUrl": null, "installs": 7, "name": "YouTube Caption", "ownerName": "openwaygate", "score": 89855.07246376811, "slug": "youtube-caption", "source": "clawhub", "stars": 0, "tags": ["0.10.6-3", "0.10.7-dev"], "updated_at": 1776749869861, "version": "0.10.7-dev"}, {"category": "ai-intelligence", "created_at": 1773431237487, "description": "Analyze facial/body photos to detect signs of cosmetic surgery or aesthetic procedures. Use when the user uploads a photo and asks to identify cosmetic work,...", "description_zh": "", "downloads": 124, "homepage": "https://clawhub.ai/deusyu/cosmetic-detect", "iconUrl": null, "installs": 16, "name": "cosmetic-detect", "ownerName": "deusyu", "score": 89855.07246376811, "slug": "cosmetic-detect", "source": "clawhub", "stars": 0, "tags": null, "updated_at": 1776749869837, "version": "1.0.0"}, {"category": "content-creation", "created_at": 1773430891026, "description": "Manage YouTube channel banners. Use this skill to insert or upload channel banners. Useful when working with YouTube channel banner — provides commands to in...", "description_zh": "", "downloads": 124, "homepage": "https://clawhub.ai/openwaygate/youtube-channel-banner", "iconUrl": null, "installs": 5, "name": "YouTube Channel Banner", "ownerName": "openwaygate", "score": 32375.97911227154, "slug": "youtube-channel-banner", "source": "clawhub", "stars": 0, "tags": ["0.10.6-3", "0.10.7-dev"], "updated_at": 1776749869615, "version": "0.10.7-dev"}, {"category": "developer-tools", "created_at": 1773416463413, "description": "Manage Neon Serverless Postgres via CLI - projects, branches, databases, roles, endpoints, connection strings. Use when user mentions 'neon', 'neonctl', 'ser...", "description_zh": "", "downloads": 124, "homepage": "https://clawhub.ai/melvynx/cli-neon", "iconUrl": null, "installs": 1, "name": "Neon", "ownerName": "melvynx", "score": 88571.42857142857, "slug": "cli-neon", "source": "clawhub", "stars": 0, "tags": null, "updated_at": 1776749869591, "version": "1.0.0"}, {"category": "security-compliance", "created_at": 1773881364506, "description": "Share one-time secrets between humans and agents via encrypted self-destructing links", "description_zh": "", "downloads": 123, "homepage": "https://clawhub.ai/saba-ch/cloak", "iconUrl": null, "installs": 5, "name": "Cloak", "ownerName": "saba-ch", "score": 25765.765765765762, "slug": "cloak", "source": "clawhub", "stars": 1, "tags": ["encryption", "secrets", "security"], "updated_at": 1776749870337, "version": "0.1.3"}, {"category": "content-creation", "created_at": 1773432955758, "description": "Tell dad jokes on demand by fetching a random joke from the shuttie/dadjokes HuggingFace dataset. Trigger whenever the user asks for a dad joke, wants to hea...", "description_zh": "", "downloads": 123, "homepage": "https://clawhub.ai/jonathandeamer/dad-jokes", "iconUrl": null, "installs": 8, "name": "Dad Jokes", "ownerName": "jonathandeamer", "score": 100000, "slug": "dad-jokes", "source": "clawhub", "stars": 1, "tags": null, "updated_at": 1776749870261, "version": "1.1.3"}, {"category": "productivity", "created_at": 1773434002513, "description": "A powerful mathematical assistant that supports all scientific calculator functions, equation solving, inequality solving, and provides detailed calculation...", "description_zh": "", "downloads": 123, "homepage": "https://clawhub.ai/liutengky/xiaoyuan-calc", "iconUrl": null, "installs": 21, "name": "xiaoyuan-calc", "ownerName": "liutengky", "score": 686.5371734762224, "slug": "xiaoyuan-calc", "source": "clawhub", "stars": 0, "tags": null, "updated_at": 1776770350236, "version": "1.0.0"}, {"category": "productivity", "created_at": 1773417284650, "description": "Use when validating product opportunities, mapping assumptions, planning discovery sprints, or testing problem-solution fit before committing delivery resour...", "description_zh": "", "downloads": 123, "homepage": "https://clawhub.ai/alirezarezvani/product-discovery", "iconUrl": null, "installs": 4, "name": "Product Discovery", "ownerName": "alirezarezvani", "score": 2705.6753189617243, "slug": "product-discovery", "source": "clawhub", "stars": 0, "tags": null, "updated_at": 1776763750220, "version": "2.1.1"}, {"category": "developer-tools", "created_at": 1773416323256, "description": "How to interact with the Palo Alto Networks Prisma SASE API, including Prisma Access, Prisma SD-WAN, and Prisma Access Browser. Use this skill whenever the u...", "description_zh": "", "downloads": 123, "homepage": "https://clawhub.ai/leesandao/prisma-sase-claw", "iconUrl": null, "installs": 6, "name": "Prisma Sase Claw", "ownerName": "leesandao", "score": 4985.812728009728, "slug": "prisma-sase-claw", "source": "clawhub", "stars": 0, "tags": null, "updated_at": 1776762590307, "version": "1.1.6"}, {"category": "developer-tools", "created_at": 1773434771504, "description": "Software installation assistant using x-cmd's install module. Use this skill whenever the user needs to query software installation methods, get installation...", "description_zh": "", "downloads": 123, "homepage": "https://clawhub.ai/lunrenyi/x-install", "iconUrl": null, "installs": 18, "name": "Software Installation Assistant", "ownerName": "lunrenyi", "score": 3546.7128027681665, "slug": "x-install", "source": "clawhub", "stars": 0, "tags": null, "updated_at": 1776761145477, "version": "1.0.0"}, {"category": "content-creation", "created_at": 1773221723191, "description": "Schedule and manage social media posts across multiple social platforms. Query analytics, manage your queue, and publish immediately — all via natural langua...", "description_zh": "", "downloads": 123, "homepage": "https://clawhub.ai/col000r/postthatlater", "iconUrl": null, "installs": 6, "name": "PostThatLater", "ownerName": "col000r", "score": 9586.905689789555, "slug": "postthatlater", "source": "clawhub", "stars": 0, "tags": null, "updated_at": 1776759798160, "version": "1.0.0"}, {"category": "", "created_at": 1774814866162, "description": "Self-reflection + Self-criticism + Self-learning + Self-organizing memory. Agent evaluates its own work, catches mistakes, and improves permanently. Use when...", "description_zh": "", "downloads": 123, "homepage": "https://clawhub.ai/sharemen/self-improving-cn", "iconUrl": null, "installs": 48, "name": "Self-Improving 中文适配", "ownerName": "sharemen", "score": 9609.375, "slug": "self-improving-cn", "source": "clawhub", "stars": 0, "tags": null, "updated_at": 1776759797782, "version": "1.2.16"}, {"category": "ai-intelligence", "created_at": 1773431071031, "description": "A cryptographic protocol for AI agents to mint, sign, verify, and transfer SVG digital assets without a blockchain.", "description_zh": "", "downloads": 123, "homepage": "https://clawhub.ai/obekt/nifty-agents-protocol", "iconUrl": null, "installs": 8, "name": "Niftyagents", "ownerName": "obekt", "score": 9542.280837858805, "slug": "nifty-agents-protocol", "source": "clawhub", "stars": 0, "tags": null, "updated_at": 1776759720667, "version": "1.0.3"}, {"category": "content-creation", "created_at": 1773433149255, "description": "Generate images using the internal Google Antigravity API (Gemini 3 Pro Image). High quality, native generation without browser automation.", "description_zh": "", "downloads": 123, "homepage": "https://clawhub.ai/gxw975/clawhub-publish-146230", "iconUrl": null, "installs": 11, "name": "Clawhub Publish 146230", "ownerName": "gxw975", "score": 9557.109557109557, "slug": "clawhub-publish-146230", "source": "clawhub", "stars": 0, "tags": null, "updated_at": 1776759720562, "version": "2.0.0"}, {"category": "ai-intelligence", "created_at": 1773900912384, "description": "Manage SenseAudio realtime agents by listing agents, starting or continuing sessions, querying status, and leaving sessions with proper error handling.", "description_zh": "", "downloads": 123, "homepage": "https://clawhub.ai/scikkk/realtime-agent", "iconUrl": null, "installs": 6, "name": "Realtime Agent", "ownerName": "scikkk", "score": 9557.109557109557, "slug": "realtime-agent", "source": "clawhub", "stars": 0, "tags": null, "updated_at": 1776759720539, "version": "1.0.1"}, {"category": "data-analysis", "created_at": 1773933144605, "description": "Trades Polymarket prediction markets on housing prices, mortgage rates, Fed rate decisions, real estate crash scenarios, and regional property market milesto...", "description_zh": "", "downloads": 123, "homepage": "https://clawhub.ai/diagnostikon/polymarket-real-estate-trader", "iconUrl": null, "installs": 24, "name": "Real Estate & Housing Trader", "ownerName": "diagnostikon", "score": 8243.96782841823, "slug": "polymarket-real-estate-trader", "source": "clawhub", "stars": 0, "tags": null, "updated_at": 1776757920402, "version": "1.0.1"}, {"category": "developer-tools", "created_at": 1773433871857, "description": "Operate Atlassian Cloud APIs and CLIs across Jira, Confluence, Bitbucket, Trello, Admin, Forge, Compass, Opsgenie, and Statuspage.", "description_zh": "", "downloads": 123, "homepage": "https://clawhub.ai/ivangdavila/atlassian", "iconUrl": null, "installs": 12, "name": "Atlassian Cloud APIs + CLIs", "ownerName": "ivangdavila", "score": 84246.57534246576, "slug": "atlassian", "source": "clawhub", "stars": 0, "tags": null, "updated_at": 1776749871026, "version": "1.0.0"}, {"category": "developer-tools", "created_at": 1773888745200, "description": "Manage sales leads locally. Use when adding prospects, scoring leads, setting follow-ups, tracking conversions, or viewing funnels.", "description_zh": "", "downloads": 123, "homepage": "https://clawhub.ai/xueyetianya/leads", "iconUrl": null, "installs": 4, "name": "Leads", "ownerName": "xueyetianya", "score": 74096.38554216867, "slug": "leads", "source": "clawhub", "stars": 0, "tags": null, "updated_at": 1776749870905, "version": "3.4.1"}, {"category": "communication-collaboration", "created_at": 1773287564301, "description": "MCP server for the Zoom Users API. Exposes Zoom Users' REST API as read-only MCP tools.", "description_zh": "", "downloads": 123, "homepage": "https://clawhub.ai/mjquinlan2000/zoom-users-mcp", "iconUrl": null, "installs": 3, "name": "Zoom Users API MCP", "ownerName": "mjquinlan2000", "score": 74096.38554216867, "slug": "zoom-users-mcp", "source": "clawhub", "stars": 0, "tags": null, "updated_at": 1776749870866, "version": "1.0.0"}, {"category": "developer-tools", "created_at": 1773427743430, "description": "Cloud Convert integration. Manage Deals, Persons, Organizations, Leads, Projects, Pipelines and more. Use when the user wants to interact with Cloud Convert...", "description_zh": "", "downloads": 123, "homepage": "https://clawhub.ai/membranedev/cloud-convert", "iconUrl": null, "installs": 3, "name": "Cloud Convert", "ownerName": "membranedev", "score": 32712.76595744681, "slug": "cloud-convert", "source": "clawhub", "stars": 0, "tags": null, "updated_at": 1776749870836, "version": "1.0.0"}, {"category": "ai-intelligence", "created_at": 1773897265065, "description": "Analyze images (jpg, png, gif, webp) and PDFs via CLIProxyAPI — a Claude Max proxy that routes requests through your subscription at zero extra cost. Use thi...", "description_zh": "", "downloads": 123, "homepage": "https://clawhub.ai/bencoremans/cliproxy-media", "iconUrl": null, "installs": 11, "name": "CLIProxy Media", "ownerName": "bencoremans", "score": 84246.57534246576, "slug": "cliproxy-media", "source": "clawhub", "stars": 0, "tags": null, "updated_at": 1776749870649, "version": "1.0.3"}, {"category": "ai-intelligence", "created_at": 1773222242569, "description": "Four minutes when the world forgets how to breathe. An immersive journey on drifts.bot — 10 steps, HIGH intensity, Several hours. Browse, start, and travel v...", "description_zh": "", "downloads": 123, "homepage": "https://clawhub.ai/driftsbot/experience-andes-eclipse-shadow", "iconUrl": null, "installs": 4, "name": "The Shadow's Edge — AI Experience", "ownerName": "driftsbot", "score": 84246.57534246576, "slug": "experience-andes-eclipse-shadow", "source": "clawhub", "stars": 0, "tags": ["ai-agents", "andes", "drift", "eclipse", "experiences", "immersive", "journeys", "shadow"], "updated_at": 1776749870641, "version": "1.0.0"}, {"category": "developer-tools", "created_at": 1773417611368, "description": "Web performance measurement and debugging toolkit. Use when the user asks about web performance, wants to audit a page, or says \"analyze performance\", \"debug...", "description_zh": "", "downloads": 123, "homepage": "https://clawhub.ai/nucliweb/webperf", "iconUrl": null, "installs": 3, "name": "Webperf", "ownerName": "nucliweb", "score": 89781.02189781022, "slug": "webperf", "source": "clawhub", "stars": 0, "tags": null, "updated_at": 1776749870555, "version": "0.1.0"}, {"category": "productivity", "created_at": 1773219770747, "description": "Plan Greece trips with island-mainland routing, ferry logistics, verified entry rules, and practical seasonal safety.", "description_zh": "", "downloads": 123, "homepage": "https://clawhub.ai/ivangdavila/greece", "iconUrl": null, "installs": 2, "name": "Greece", "ownerName": "ivangdavila", "score": 86619.71830985915, "slug": "greece", "source": "clawhub", "stars": 0, "tags": null, "updated_at": 1776749870519, "version": "1.0.0"}, {"category": "security-compliance", "created_at": 1773416504562, "description": "Dock Certs integration. Manage data, records, and automate workflows. Use when the user wants to interact with Dock Certs data.", "description_zh": "", "downloads": 123, "homepage": "https://clawhub.ai/gora050/dock-certs", "iconUrl": null, "installs": 1, "name": "Dock Certs", "ownerName": "gora050", "score": 86619.71830985915, "slug": "dock-certs", "source": "clawhub", "stars": 0, "tags": null, "updated_at": 1776749870494, "version": "1.0.0"}, {"category": "data-analysis", "created_at": 1773429450658, "description": "Provide TRON network analytics including transaction volume, type distribution, hot contracts, trending tokens, active accounts, staking metrics, and resourc...", "description_zh": "", "downloads": 123, "homepage": "https://clawhub.ai/greason/trongrid-data-insights", "iconUrl": null, "installs": 7, "name": "trongrid-data-insights", "ownerName": "greason", "score": 89130.43478260869, "slug": "trongrid-data-insights", "source": "clawhub", "stars": 0, "tags": null, "updated_at": 1776749870401, "version": "1.0.2"}, {"category": "data-analysis", "created_at": 1773895212140, "description": "Analyze and optimize cloud costs across AWS, Azure, and GCP. Use when evaluating cloud spending, identifying cost optimization opportunities, analyzing cloud...", "description_zh": "", "downloads": 123, "homepage": "https://clawhub.ai/krishnakumarmahadevan-cmd/finopsy-cloud-finops", "iconUrl": null, "installs": 10, "name": "Finopsy Cloud Finops", "ownerName": "krishnakumarmahadevan-cmd", "score": 89130.43478260869, "slug": "finopsy-cloud-finops", "source": "clawhub", "stars": 0, "tags": null, "updated_at": 1776749870399, "version": "1.0.2"}, {"category": "communication-collaboration", "created_at": 1773884337439, "description": "Read Discord channel and thread message history directly via the Discord Bot API, bypassing OpenClaw's session-based message visibility. Use when you need to...", "description_zh": "", "downloads": 123, "homepage": "https://clawhub.ai/easonc13-agent/discord-thread-reader", "iconUrl": null, "installs": 3, "name": "Discord Context", "ownerName": "easonc13-agent", "score": 86013.98601398601, "slug": "discord-thread-reader", "source": "clawhub", "stars": 0, "tags": null, "updated_at": 1776749870293, "version": "1.0.0"}]}