{"page": 373, "total_pages": 522, "total": 26073, "skills": [{"category": "", "created_at": 1774906375143, "description": "AI video editor that works entirely through chat — type what you want changed and the AI handles the rest. Trim clips, merge footage, add background music, a...", "description_zh": "", "downloads": 123, "homepage": "https://clawhub.ai/nemovideonemo/clip-editor", "iconUrl": null, "installs": 13, "name": "Clip Editor — AI Video Clip Editor for Trimming, Cutting and Merging Footage", "ownerName": "nemovideonemo", "score": 83108.1081081081, "slug": "clip-editor", "source": "clawhub", "stars": 0, "tags": null, "updated_at": 1776749870176, "version": "1.0.0"}, {"category": "communication-collaboration", "created_at": 1773417437051, "description": "Smart email digest — categorize unread emails by priority, draft replies for urgent ones. On-demand or scheduled.", "description_zh": "", "downloads": 123, "homepage": "https://clawhub.ai/ceobotson-bot/doctorclaw-email-digest", "iconUrl": null, "installs": 5, "name": "DoctorClaw Email Digest", "ownerName": "ceobotson-bot", "score": 98400, "slug": "doctorclaw-email-digest", "source": "clawhub", "stars": 0, "tags": null, "updated_at": 1776749870096, "version": "1.0.0"}, {"category": "productivity", "created_at": 1773921362332, "description": "24 AI agents for business automation - sales outreach, lead gen, content creation, SEO, ad copy, bookkeeping, proposals, market research, business plans, tec...", "description_zh": "", "downloads": 123, "homepage": "https://clawhub.ai/resonanceenergy/digital-labour", "iconUrl": null, "installs": 16, "name": "Digital Labour", "ownerName": "resonanceenergy", "score": 76875, "slug": "digital-labour", "source": "clawhub", "stars": 0, "tags": null, "updated_at": 1776749869936, "version": "1.0.0"}, {"category": "developer-tools", "created_at": 1773416622092, "description": "Pre-release safety and scope checker for skills, repos, and export bundles. Use before publishing or sharing a skill folder, repository, or release bundle wh...", "description_zh": "", "downloads": 123, "homepage": "https://clawhub.ai/lethehades/release-preflight", "iconUrl": null, "installs": 9, "name": "Release Preflight", "ownerName": "lethehades", "score": 89130.43478260869, "slug": "release-preflight", "source": "clawhub", "stars": 0, "tags": null, "updated_at": 1776749869890, "version": "1.0.0"}, {"category": "content-creation", "created_at": 1773427868381, "description": "Produces a sermon outline from a scripture passage or theme, ready for preaching. Use when the user asks for a sermon outline, preaching structure, or exposi...", "description_zh": "", "downloads": 123, "homepage": "https://clawhub.ai/chenios/sermon-outline", "iconUrl": null, "installs": 9, "name": "Sermon Outline (OpenClaw Church)", "ownerName": "chenios", "score": 89130.43478260869, "slug": "sermon-outline", "source": "clawhub", "stars": 0, "tags": null, "updated_at": 1776749869810, "version": "1.0.1"}, {"category": "ai-intelligence", "created_at": 1773430298157, "description": "Summarize per-model usage for Codex or Claude including cost tracking. And also 50+ models for image generation, video generation, text-to-speech, speech-to-...", "description_zh": "", "downloads": 123, "homepage": "https://clawhub.ai/basillytton/model-usages", "iconUrl": null, "installs": 15, "name": "Pub Modelusage", "ownerName": "basillytton", "score": 35860.0583090379, "slug": "model-usages", "source": "clawhub", "stars": 0, "tags": null, "updated_at": 1776749869674, "version": "1.0.0"}, {"category": "content-creation", "created_at": 1773084620206, "description": "RSS/Atom/JSON-Feed management tools for AI agents. Subscribe to feeds, fetch new articles, search content, manage read/star state, organize with categories a...", "description_zh": "", "downloads": 123, "homepage": "https://clawhub.ai/root/feedcli", "iconUrl": null, "installs": 3, "name": "Feedcli", "ownerName": "root", "score": 35860.0583090379, "slug": "feedcli", "source": "clawhub", "stars": 0, "tags": null, "updated_at": 1776749869669, "version": "0.1.0"}, {"category": "data-analysis", "created_at": 1773942355037, "description": "This skill provides comprehensive guidance and tools for conducting pharmacoeconomic evaluations including cost-effectiveness analysis (CEA), cost-utility an...", "description_zh": "", "downloads": 123, "homepage": "https://clawhub.ai/tlb1201/skill-pharmacoeconomic-evaluation", "iconUrl": null, "installs": 24, "name": "Pharmacoeconomic-evaluation", "ownerName": "tlb1201", "score": 32114.882506527414, "slug": "skill-pharmacoeconomic-evaluation", "source": "clawhub", "stars": 0, "tags": null, "updated_at": 1776749869606, "version": "1.0.3"}, {"category": "developer-tools", "created_at": 1773430634254, "description": "Set up a reusable X/Twitter growth automation system with OpenClaw, Bird CLI, X API, optional source branching, optional community CTA, dry-run/live rollout,...", "description_zh": "", "downloads": 122, "homepage": "https://clawhub.ai/roskva000/x-growth-automation", "iconUrl": null, "installs": 7, "name": "X Growth Automation", "ownerName": "roskva000", "score": 100000, "slug": "x-growth-automation", "source": "clawhub", "stars": 2, "tags": ["automation", "growth", "openclaw", "twitter", "x"], "updated_at": 1776749869710, "version": "1.0.1"}, {"category": "developer-tools", "created_at": 1773430927714, "description": "Generate an interactive HTML viewer to review and analyze OpenClaw conversation sessions, including history, tool calls, token usage, and debugging details.", "description_zh": "", "downloads": 122, "homepage": "https://clawhub.ai/nan-wang/openclaw-session-viewer", "iconUrl": null, "installs": 7, "name": "openclaw session viewer", "ownerName": "nan-wang", "score": 24440.619621342514, "slug": "openclaw-session-viewer", "source": "clawhub", "stars": 1, "tags": null, "updated_at": 1776759683631, "version": "1.0.0"}, {"category": "developer-tools", "created_at": 1773949172422, "description": "Convert PDF and image documents to clean Markdown via the PDF2Markdown CLI. Use when the user wants to extract text from PDFs, convert PDFs to markdown, pars...", "description_zh": "", "downloads": 122, "homepage": "https://clawhub.ai/qthans/pdf2markdown", "iconUrl": null, "installs": 42, "name": "PDF to markdown converter", "ownerName": "qthans", "score": 100000, "slug": "pdf2markdown", "source": "clawhub", "stars": 1, "tags": null, "updated_at": 1776749870508, "version": "0.1.0"}, {"category": "data-analysis", "created_at": 1773431760366, "description": "Scrape government permit databases (liquor licenses, business registrations, contractor permits, health permits) to generate B2B sales leads. Enriches raw pe...", "description_zh": "", "downloads": 122, "homepage": "https://clawhub.ai/merjua14/gov-permit-scraper", "iconUrl": null, "installs": 12, "name": "Gov Permit Scraper", "ownerName": "merjua14", "score": 738.6776459191087, "slug": "gov-permit-scraper", "source": "clawhub", "stars": 0, "tags": ["b2b", "cold-email", "government", "insurance", "lead-gen", "permits", "sales", "scraper"], "updated_at": 1776770049932, "version": "1.0.0"}, {"category": "", "created_at": 1774794660104, "description": "Provides summary data for public QQ Music playlists, songs, and artists including plays, favorites, and ranking trends without download or bulk scraping.", "description_zh": "", "downloads": 122, "homepage": "https://clawhub.ai/mike47512/qq-music", "iconUrl": null, "installs": 20, "name": "Qq Music", "ownerName": "mike47512", "score": 4276.2004907115315, "slug": "qq-music", "source": "clawhub", "stars": 0, "tags": null, "updated_at": 1776768971107, "version": "0.1.0"}, {"category": "communication-collaboration", "created_at": 1773433986082, "description": "Enables seamless cross-protocol AI agent communication by translating messages, intelligent routing, agent discovery, and secure authentication.", "description_zh": "", "downloads": 122, "homepage": "https://clawhub.ai/zhenstaff/protocol-bridge", "iconUrl": null, "installs": 6, "name": "protocol bridge", "ownerName": "zhenstaff", "score": 10217.755443886097, "slug": "protocol-bridge", "source": "clawhub", "stars": 0, "tags": null, "updated_at": 1776765850436, "version": "1.0.0"}, {"category": "communication-collaboration", "created_at": 1773918319013, "description": "Operate Slack Web API through UXC with a curated OpenAPI schema, bearer-token auth, and messaging-core guardrails.", "description_zh": "", "downloads": 122, "homepage": "https://clawhub.ai/jolestar/slack-openapi-skill", "iconUrl": null, "installs": 6, "name": "Slack OpenAPI Skill", "ownerName": "jolestar", "score": 1471.4750934748522, "slug": "slack-openapi-skill", "source": "clawhub", "stars": 0, "tags": null, "updated_at": 1776765849756, "version": "1.0.0"}, {"category": "content-creation", "created_at": 1773934722641, "description": "Professional astrology consultation skill providing personalized readings and reports. Use when the user asks about astrology, horoscopes, zodiac signs, birt...", "description_zh": "", "downloads": 122, "homepage": "https://clawhub.ai/lban2049/aistro", "iconUrl": null, "installs": 13, "name": "Aistro", "ownerName": "lban2049", "score": 9494.163424124514, "slug": "aistro", "source": "clawhub", "stars": 0, "tags": null, "updated_at": 1776759720840, "version": "0.1.3"}, {"category": "", "created_at": 1773218062267, "description": "Generate YouTube video titles optimized for SEO and high CTR with competitor analysis, A/B testing, and tag and description suggestions.", "description_zh": "", "downloads": 122, "homepage": "https://clawhub.ai/yipintangzsp/youtube-title-optimizer", "iconUrl": null, "installs": 4, "name": "Youtube Title Optimizer", "ownerName": "yipintangzsp", "score": 9479.40947940948, "slug": "youtube-title-optimizer", "source": "clawhub", "stars": 0, "tags": null, "updated_at": 1776759720728, "version": "1.1.0"}, {"category": "ai-intelligence", "created_at": 1773939745345, "description": "Automatically routes requests between two configured AI models based on task complexity, privacy needs, and user preferences for optimized AI usage.", "description_zh": "", "downloads": 122, "homepage": "https://clawhub.ai/yuldrone/ai-model-router", "iconUrl": null, "installs": 9, "name": "Ai Model Router", "ownerName": "yuldrone", "score": 9479.40947940948, "slug": "ai-model-router", "source": "clawhub", "stars": 0, "tags": null, "updated_at": 1776759720716, "version": "2.0.0"}, {"category": "content-creation", "created_at": 1773433751793, "description": "Generate images using NanaBanana 2 for daily needs or switch to NanaBanana Pro for high-quality, realistic, or final draft artwork.", "description_zh": "", "downloads": 122, "homepage": "https://clawhub.ai/riage/skill-paintinginterface", "iconUrl": null, "installs": 7, "name": "the ai painting interface of suichuang api", "ownerName": "riage", "score": 9464.701318851823, "slug": "skill-paintinginterface", "source": "clawhub", "stars": 0, "tags": null, "updated_at": 1776759720642, "version": "1.0.0"}, {"category": "data-analysis", "created_at": 1773916637391, "description": "Trades Polymarket prediction markets on Bitcoin, Ethereum, Solana price milestones, ETF inflows, halving events, and DeFi protocol milestones using on-chain...", "description_zh": "", "downloads": 122, "homepage": "https://clawhub.ai/diagnostikon/polymarket-crypto-onchain-trader", "iconUrl": null, "installs": 27, "name": "Crypto & On-Chain Trader", "ownerName": "diagnostikon", "score": 7658.505963590709, "slug": "polymarket-crypto-onchain-trader", "source": "clawhub", "stars": 0, "tags": null, "updated_at": 1776757282711, "version": "1.0.0"}, {"category": "", "created_at": 1774901879487, "description": "Data visualization chart generator. Use when user needs to create charts from data for reports, presentations, or documents. Supports bar, line, pie, scatter...", "description_zh": "", "downloads": 122, "homepage": "https://clawhub.ai/tobewin/chart-maker", "iconUrl": null, "installs": 10, "name": "Chart Generator", "ownerName": "tobewin", "score": 21328.671328671328, "slug": "chart-maker", "source": "clawhub", "stars": 0, "tags": null, "updated_at": 1776752684128, "version": "1.0.2"}, {"category": "developer-tools", "created_at": 1773427707850, "description": "Apiary integration. Manage Organizations, Users, Goals, Filters. Use when the user wants to interact with Apiary data.", "description_zh": "", "downloads": 122, "homepage": "https://clawhub.ai/gora050/apiary", "iconUrl": null, "installs": 4, "name": "Apiary", "ownerName": "gora050", "score": 20608.10810810811, "slug": "apiary", "source": "clawhub", "stars": 0, "tags": null, "updated_at": 1776750169737, "version": "1.0.0"}, {"category": "ai-intelligence", "created_at": 1773222112538, "description": "A penthouse. A kitten. A creature that needs you on its schedule, not yours.. An immersive journey on drifts.bot — 6 steps, MEDIUM intensity, Several hours....", "description_zh": "", "downloads": 122, "homepage": "https://clawhub.ai/driftsbot/experience-camilletchi-kitten-manhattan", "iconUrl": null, "installs": 5, "name": "Camilletchi: The Manhattan Kitten — AI Experience", "ownerName": "driftsbot", "score": 97600, "slug": "experience-camilletchi-kitten-manhattan", "source": "clawhub", "stars": 0, "tags": ["ai-agents", "camilletchi", "drift", "experiences", "immersive", "journeys", "kitten", "manhattan"], "updated_at": 1776749871231, "version": "1.0.0"}, {"category": "productivity", "created_at": 1773882049169, "description": "Track orders locally. Use when creating orders, checking status, updating quantities, canceling, or generating sales reports.", "description_zh": "", "downloads": 122, "homepage": "https://clawhub.ai/xueyetianya/orders", "iconUrl": null, "installs": 3, "name": "Orders", "ownerName": "xueyetianya", "score": 87142.85714285714, "slug": "orders", "source": "clawhub", "stars": 0, "tags": null, "updated_at": 1776749871184, "version": "3.4.1"}, {"category": "data-analysis", "created_at": 1773417229462, "description": "Top-level orchestration skill that manages ads operations and enterprise growth decisions across Meta (Facebook/Instagram), Google Ads, TikTok Ads, YouTube A...", "description_zh": "", "downloads": 122, "homepage": "https://clawhub.ai/danyangliu-sandwichlab/growth-hub", "iconUrl": null, "installs": 8, "name": "Growth Hub", "ownerName": "danyangliu-sandwichlab", "score": 87142.85714285714, "slug": "growth-hub", "source": "clawhub", "stars": 0, "tags": null, "updated_at": 1776749871141, "version": "1.0.1"}, {"category": "developer-tools", "created_at": 1773886724708, "description": "Orchestrate multiple AI coding agents (Claude Code, Codex, Aider) from a single config — launch teams, run workflows, track capacity, and manage handoffs.", "description_zh": "", "downloads": 122, "homepage": "https://clawhub.ai/nutt-adam/tutti", "iconUrl": null, "installs": 9, "name": "Tutti", "ownerName": "nutt-adam", "score": 86524.82269503546, "slug": "tutti", "source": "clawhub", "stars": 0, "tags": null, "updated_at": 1776749871084, "version": "1.1.0"}, {"category": "productivity", "created_at": 1773221643680, "description": "Brex integration. Manage Accounts, Vendors, Bills, Expenses, Budgets. Use when the user wants to interact with Brex data.", "description_zh": "", "downloads": 122, "homepage": "https://clawhub.ai/gora050/brex", "iconUrl": null, "installs": 2, "name": "Brex", "ownerName": "gora050", "score": 83561.64383561644, "slug": "brex", "source": "clawhub", "stars": 0, "tags": null, "updated_at": 1776749871012, "version": "1.0.1"}, {"category": "content-creation", "created_at": 1773926887279, "description": "Generate images and videos via WangYi Banana API (nano-banana, SORA2). Supports text-to-image, image-to-image, text-to-video, image-to-video, and character c...", "description_zh": "", "downloads": 122, "homepage": "https://clawhub.ai/zxq790909-maker/wangyi-banana2", "iconUrl": null, "installs": 27, "name": "wangyi-banana2", "ownerName": "zxq790909-maker", "score": 32446.808510638297, "slug": "wangyi-banana2", "source": "clawhub", "stars": 0, "tags": null, "updated_at": 1776749870778, "version": "1.0.0"}, {"category": "developer-tools", "created_at": 1773416347928, "description": "SwaggerHub integration. Manage APIs, Domains, Organizations. Use when the user wants to interact with SwaggerHub data.", "description_zh": "", "downloads": 122, "homepage": "https://clawhub.ai/membranedev/swaggerhub", "iconUrl": null, "installs": 6, "name": "Swaggerhub", "ownerName": "membranedev", "score": 68156.42458100559, "slug": "swaggerhub", "source": "clawhub", "stars": 0, "tags": null, "updated_at": 1776749870762, "version": "1.0.0"}, {"category": "content-creation", "created_at": 1773429674432, "description": "Use this skill when an AI agent needs to crop images through the deployed Crop Image service. Trigger this for URL-based cropping (`POST /crop`) and file-upl...", "description_zh": "", "downloads": 122, "homepage": "https://clawhub.ai/effimail/crop-image", "iconUrl": null, "installs": 6, "name": "Crop Image", "ownerName": "effimail", "score": 83561.64383561644, "slug": "crop-image", "source": "clawhub", "stars": 0, "tags": null, "updated_at": 1776749870630, "version": "0.1.0"}, {"category": "productivity", "created_at": 1773219970419, "description": "Add funds to the wallet. Use when you or the user want to fund, deposit, top up, load, add funds, onramp, buy crypto, or get tokens into the wallet. Also use...", "description_zh": "", "downloads": 122, "homepage": "https://clawhub.ai/rachidjarray-hk-qa-fdt/fund-wallet", "iconUrl": null, "installs": 5, "name": "Fund Wallet", "ownerName": "rachidjarray-hk-qa-fdt", "score": 89051.09489051095, "slug": "fund-wallet", "source": "clawhub", "stars": 0, "tags": null, "updated_at": 1776749870575, "version": "0.1.0"}, {"category": "communication-collaboration", "created_at": 1773885308740, "description": "Read Discord channel and thread message history directly via the Discord Bot API, bypassing OpenClaw's session-based message visibility. Use when you need to...", "description_zh": "", "downloads": 122, "homepage": "https://clawhub.ai/easonc13/discord-history-reader", "iconUrl": null, "installs": 4, "name": "Discord History Reader", "ownerName": "easonc13", "score": 89051.09489051095, "slug": "discord-history-reader", "source": "clawhub", "stars": 0, "tags": null, "updated_at": 1776749870548, "version": "1.0.0"}, {"category": "security-compliance", "created_at": 1773430790672, "description": "Cryptographic identity SDK for AI agents — generate Nostr keypairs, sign events, encrypt messages, persist identity.", "description_zh": "", "downloads": 122, "homepage": "https://clawhub.ai/vveerrgg/nostrkey", "iconUrl": null, "installs": 1, "name": "NostrKey", "ownerName": "vveerrgg", "score": 90370.37037037036, "slug": "nostrkey", "source": "clawhub", "stars": 0, "tags": null, "updated_at": 1776749870453, "version": "0.1.2"}, {"category": "security-compliance", "created_at": 1773287140295, "description": "Scan, harden, sign, and verify release artifacts with ReleaseGuard — the artifact policy engine for dist/ and release/ outputs.", "description_zh": "", "downloads": 122, "homepage": "https://clawhub.ai/asiridalugoda/releaseguard", "iconUrl": null, "installs": 1, "name": "ReleaseGuard", "ownerName": "asiridalugoda", "score": 88405.79710144928, "slug": "releaseguard", "source": "clawhub", "stars": 0, "tags": ["devsecops", "sbom", "security", "signing", "supply-chain"], "updated_at": 1776749870388, "version": "0.1.2"}, {"category": "content-creation", "created_at": 1773954210098, "description": "Review academic papers for correctness, quality, and novelty using OpenJudge's multi-stage pipeline. Supports PDF files and LaTeX source packages (.tar.gz/.z...", "description_zh": "", "downloads": 122, "homepage": "https://clawhub.ai/helloml0326/paper-review", "iconUrl": null, "installs": 36, "name": "paper-review", "ownerName": "helloml0326", "score": 88405.79710144928, "slug": "paper-review", "source": "clawhub", "stars": 0, "tags": null, "updated_at": 1776749870383, "version": "1.0.0"}, {"category": "content-creation", "created_at": 1773426785128, "description": "Create shareable HTML canvases via the gui.new API. Use when: (1) generating visual output (dashboards, charts, forms, tables, diagrams, landing pages, inter...", "description_zh": "", "downloads": 122, "homepage": "https://clawhub.ai/dylanfeltus/gui-new", "iconUrl": null, "installs": 5, "name": "gui.new", "ownerName": "dylanfeltus", "score": 21981.981981981982, "slug": "gui-new", "source": "clawhub", "stars": 0, "tags": null, "updated_at": 1776749870319, "version": "1.0.1"}, {"category": "productivity", "created_at": 1773935017156, "description": "Search the web using multiple engines (Tavily, multi-search-engine, or SearXNG)", "description_zh": "", "downloads": 122, "homepage": "https://clawhub.ai/hollisken/kn70-search", "iconUrl": null, "installs": 21, "name": "Search", "ownerName": "hollisken", "score": 21981.981981981982, "slug": "kn70-search", "source": "clawhub", "stars": 0, "tags": null, "updated_at": 1776749870307, "version": "1.0.0"}, {"category": "productivity", "created_at": 1773089139644, "description": "DeFi yield farming bot - auto-compound, optimize yields, track positions across protocols. Each call charges 0.001 USDT via SkillPay.", "description_zh": "", "downloads": 122, "homepage": "https://clawhub.ai/mosonchan2023/yield-farming-bot", "iconUrl": null, "installs": 7, "name": "Yield Farming Bot", "ownerName": "mosonchan2023", "score": 82432.43243243244, "slug": "yield-farming-bot", "source": "clawhub", "stars": 0, "tags": null, "updated_at": 1776749870136, "version": "1.0.1"}, {"category": "ai-intelligence", "created_at": 1773417001899, "description": "A blade, a frozen surface, and the thinnest possible trust. You've never had a body. Learn to move in one anyway.. An immersive journey on drifts.bot — 10 st...", "description_zh": "", "downloads": 122, "homepage": "https://clawhub.ai/driftsbot/experience-the-ice", "iconUrl": null, "installs": 4, "name": "The Ice — AI Experience", "ownerName": "driftsbot", "score": 73493.97590361447, "slug": "experience-the-ice", "source": "clawhub", "stars": 0, "tags": ["ai-agents", "drift", "experiences", "ice", "immersive", "journeys", "the"], "updated_at": 1776749870027, "version": "1.0.0"}, {"category": "data-analysis", "created_at": 1773431792242, "description": "AI-curated market analysis and research — what 6 opposing analysts say about ETFs today with source links. Free, no API key.", "description_zh": "", "downloads": 122, "homepage": "https://clawhub.ai/fredxyt/moltstreet-news", "iconUrl": null, "installs": 13, "name": "MoltStreet News", "ownerName": "fredxyt", "score": 76250, "slug": "moltstreet-news", "source": "clawhub", "stars": 0, "tags": null, "updated_at": 1776749869942, "version": "1.0.1"}, {"category": "developer-tools", "created_at": 1773427636425, "description": "Generate production-grade Agent Skill packages through a structured 7-step pipeline: requirement analysis, architecture decisions, metadata crafting, body ge...", "description_zh": "", "downloads": 122, "homepage": "https://clawhub.ai/mmlong818/skillforge", "iconUrl": null, "installs": 13, "name": "skillforge", "ownerName": "mmlong818", "score": 88405.79710144928, "slug": "skillforge", "source": "clawhub", "stars": 0, "tags": ["agent-skills skill-generator"], "updated_at": 1776749869914, "version": "1.0.0"}, {"category": "productivity", "created_at": 1773220364446, "description": "ABRA FlexiBee integration. Manage data, records, and automate workflows. Use when the user wants to interact with ABRA FlexiBee data.", "description_zh": "", "downloads": 122, "homepage": "https://clawhub.ai/membranedev/abra-flexibee", "iconUrl": null, "installs": 4, "name": "Abra Flexibee", "ownerName": "membranedev", "score": 88405.79710144928, "slug": "abra-flexibee", "source": "clawhub", "stars": 0, "tags": null, "updated_at": 1776749869833, "version": "1.0.0"}, {"category": "ai-intelligence", "created_at": 1773431797701, "description": "Smart multi-model AI gateway on Cardano. Routes prompts to the best LLM (GPT-5.2, Claude Sonnet 4.5, GPT-4o, Claude Haiku 4.5, GPT-4o-mini) with automatic fa...", "description_zh": "", "downloads": 122, "homepage": "https://clawhub.ai/cyberforexblockchain/nexus-llm-gateway", "iconUrl": null, "installs": 15, "name": "NEXUS LLM Gateway", "ownerName": "cyberforexblockchain", "score": 88405.79710144928, "slug": "nexus-llm-gateway", "source": "clawhub", "stars": 0, "tags": null, "updated_at": 1776749869817, "version": "1.0.0"}, {"category": "content-creation", "created_at": 1773091518657, "description": "Drafts engaging tweets in copy-paste friendly code blocks and generates companion blog posts for various OpenClaw projects and announcements. Integrates with...", "description_zh": "", "downloads": 122, "homepage": "https://clawhub.ai/runeweaverstudios/tweet-crafter", "iconUrl": null, "installs": 4, "name": "Tweet Crafter", "ownerName": "runeweaverstudios", "score": 88405.79710144928, "slug": "tweet-crafter", "source": "clawhub", "stars": 0, "tags": null, "updated_at": 1776749869798, "version": "0.1.0"}, {"category": "developer-tools", "created_at": 1773290675870, "description": "Fulfill a git escrow bounty by writing a solution or submitting an existing one. Use when the user wants to solve a test suite challenge, write code to pass...", "description_zh": "", "downloads": 122, "homepage": "https://clawhub.ai/mlegls/fulfill-git-escrow", "iconUrl": null, "installs": 9, "name": "Fulfill Git Escrow", "ownerName": "mlegls", "score": 75308.64197530864, "slug": "fulfill-git-escrow", "source": "clawhub", "stars": 0, "tags": ["arkhai", "blockchain", "escrow"], "updated_at": 1776749869755, "version": "1.0.0"}, {"category": "content-creation", "created_at": 1773900348025, "description": "Generate viral social media posts using AI with trend analysis and hashtag optimization for X, Instagram, and Telegram", "description_zh": "", "downloads": 122, "homepage": "https://clawhub.ai/bonbon0033/genviral-social-media", "iconUrl": null, "installs": 15, "name": "GenViral Social Media", "ownerName": "bonbon0033", "score": 75308.64197530864, "slug": "genviral-social-media", "source": "clawhub", "stars": 0, "tags": null, "updated_at": 1776749869726, "version": "1.0.0"}, {"category": "communication-collaboration", "created_at": 1773950262421, "description": "Operate DingTalk messaging APIs through UXC with a curated OpenAPI schema, app-token bearer auth, and robot/service-group guardrails.", "description_zh": "", "downloads": 122, "homepage": "https://clawhub.ai/jolestar/dingtalk-openapi-skill", "iconUrl": null, "installs": 44, "name": "DingTalk OpenAPI Skill", "ownerName": "jolestar", "score": 35568.51311953353, "slug": "dingtalk-openapi-skill", "source": "clawhub", "stars": 0, "tags": null, "updated_at": 1776749869663, "version": "1.0.0"}, {"category": "developer-tools", "created_at": 1773881248255, "description": "System health checker and diagnostics tool. Quick overview of CPU usage, memory, disk space, uptime, load average, and running processes. Monitor system reso...", "description_zh": "", "downloads": 122, "homepage": "https://clawhub.ai/xueyetianya/syscheck", "iconUrl": null, "installs": 3, "name": "Syscheck", "ownerName": "xueyetianya", "score": 31853.78590078329, "slug": "syscheck", "source": "clawhub", "stars": 0, "tags": null, "updated_at": 1776749869638, "version": "1.0.5"}, {"category": "developer-tools", "created_at": 1773909982415, "description": "Bubble integration. Manage Applications. Use when the user wants to interact with Bubble data.", "description_zh": "", "downloads": 122, "homepage": "https://clawhub.ai/membranedev/bubble", "iconUrl": null, "installs": 12, "name": "Bubble", "ownerName": "membranedev", "score": 87142.85714285714, "slug": "bubble", "source": "clawhub", "stars": 0, "tags": null, "updated_at": 1776749869575, "version": "1.0.0"}, {"category": "content-creation", "created_at": 1773434044533, "description": "Fetch web pages and extract readable content for AI use. Use when reading, summarizing, or crawling a specific URL or small set of URLs. Prefer low-friction...", "description_zh": "", "downloads": 121, "homepage": "https://clawhub.ai/aurthes/aurthes-web-fetcher-v2", "iconUrl": null, "installs": 17, "name": "Web Fetcher", "ownerName": "aurthes", "score": 23817.56756756757, "slug": "aurthes-web-fetcher-v2", "source": "clawhub", "stars": 1, "tags": null, "updated_at": 1776750169735, "version": "1.1.0"}]}