{"page": 374, "total_pages": 522, "total": 26073, "skills": [{"category": "ai-intelligence", "created_at": 1773938614676, "description": "Instantly switch the current OpenClaw session model; supports gpt, claude, qianwen, minimax, current model status, configured model listing, and restoring th...", "description_zh": "", "downloads": 121, "homepage": "https://clawhub.ai/dpbs-715/openclaw-session-model-switcher", "iconUrl": null, "installs": 27, "name": "OpenClaw Session Model Switcher", "ownerName": "dpbs-715", "score": 36814.621409921674, "slug": "openclaw-session-model-switcher", "source": "clawhub", "stars": 1, "tags": ["models", "openclaw", "session", "utility"], "updated_at": 1776749869640, "version": "0.1.3"}, {"category": "productivity", "created_at": 1773429543803, "description": "Practical guide to using OpenClaw effectively. Teaches step-by-step workflows, recommends skills based on your needs, solves common problems, and grows with...", "description_zh": "", "downloads": 121, "homepage": "https://clawhub.ai/harrylabsj/how-to-do", "iconUrl": null, "installs": 13, "name": "How To Do", "ownerName": "harrylabsj", "score": 4241.1496670171755, "slug": "how-to-do", "source": "clawhub", "stars": 0, "tags": null, "updated_at": 1776768971124, "version": "1.0.0"}, {"category": "productivity", "created_at": 1773912359246, "description": "Mood Tracker — Mood Tracker — monitor emotional wellbeing. Personal daily-use tool for tracking and organizing your life. Use when you need Mood Tracker capa...", "description_zh": "", "downloads": 121, "homepage": "https://clawhub.ai/xueyetianya/mood-tracker", "iconUrl": null, "installs": 10, "name": "Mood Tracker", "ownerName": "xueyetianya", "score": 583.2168506290066, "slug": "mood-tracker", "source": "clawhub", "stars": 0, "tags": null, "updated_at": 1776767350125, "version": "1.0.0"}, {"category": "developer-tools", "created_at": 1773928046828, "description": "Captures and analyzes Android Perfetto traces via CLI and config files. Covers trace collection (CPU, GPU, memory, rendering, power), editing TraceConfig (.p...", "description_zh": "", "downloads": 121, "homepage": "https://clawhub.ai/linkecoding/perfetto-analyse", "iconUrl": null, "installs": 20, "name": "perfetto-analyse", "ownerName": "linkecoding", "score": 1536.1178113494987, "slug": "perfetto-analyse", "source": "clawhub", "stars": 0, "tags": null, "updated_at": 1776761990218, "version": "1.0.0"}, {"category": "content-creation", "created_at": 1773923361456, "description": "Kling 2.6 Motion Control on PoYo / poyo.ai via `https://api.poyo.ai/api/generate/submit`; use for `kling-2.6-motion-control`, motion transfer, character anim...", "description_zh": "", "downloads": 121, "homepage": "https://clawhub.ai/coolhackboy/poyo-kling-2-6-motion-control", "iconUrl": null, "installs": 28, "name": "Kling 2.6 Motion Control", "ownerName": "coolhackboy", "score": 100000, "slug": "poyo-kling-2-6-motion-control", "source": "clawhub", "stars": 0, "tags": null, "updated_at": 1776759983371, "version": "1.0.0"}, {"category": "content-creation", "created_at": 1773935313680, "description": "Provides keyword research, meta tag analysis, content SEO scoring, and meta description generation to improve website search rankings.", "description_zh": "", "downloads": 121, "homepage": "https://clawhub.ai/hughtan93-dev/seopro", "iconUrl": null, "installs": 15, "name": "SEO Optimizer", "ownerName": "hughtan93-dev", "score": 9416.342412451362, "slug": "seopro", "source": "clawhub", "stars": 0, "tags": null, "updated_at": 1776759720833, "version": "1.0.0"}, {"category": "data-analysis", "created_at": 1773919068724, "description": "Intelligent agent trading Kalshi 15-min binary crypto markets by analyzing RSI, momentum, volume, and AI signals to place limit orders on BTC, ETH, SOL, XRP.", "description_zh": "", "downloads": 121, "homepage": "https://clawhub.ai/leejoe411-creator/apex", "iconUrl": null, "installs": 1, "name": "APEX Binary Trader", "ownerName": "leejoe411-creator", "score": 9416.342412451362, "slug": "apex", "source": "clawhub", "stars": 0, "tags": null, "updated_at": 1776759720831, "version": "1.0.0"}, {"category": "security-compliance", "created_at": 1773434101718, "description": "Monitors AI agents in real-time to detect anomalies and enforce safety policies with automatic emergency shutdown to prevent damage and cost overruns.", "description_zh": "", "downloads": 121, "homepage": "https://clawhub.ai/zhenstaff/emergency-circuit", "iconUrl": null, "installs": 2, "name": "emergency circuit", "ownerName": "zhenstaff", "score": 9409.020217729394, "slug": "emergency-circuit", "source": "clawhub", "stars": 0, "tags": null, "updated_at": 1776759720781, "version": "1.0.0"}, {"category": "ai-intelligence", "created_at": 1773433854798, "description": "Manage user intents through submission, validation, lifecycle tracking, cancellation, bidding, execution, and completion with cryptographic verification and...", "description_zh": "", "downloads": 121, "homepage": "https://clawhub.ai/zhenstaff/agent-execution-market", "iconUrl": null, "installs": 5, "name": "agent execution market", "ownerName": "zhenstaff", "score": 9409.020217729394, "slug": "agent-execution-market", "source": "clawhub", "stars": 0, "tags": null, "updated_at": 1776759720759, "version": "1.0.0"}, {"category": "communication-collaboration", "created_at": 1773903890958, "description": "Automatically extract and display titles, descriptions, and favicons for shared HTTP/HTTPS URLs to preview webpage content without visiting.", "description_zh": "", "downloads": 121, "homepage": "https://clawhub.ai/kingfish1949101-wq/url-preview", "iconUrl": null, "installs": 7, "name": "URL Preview", "ownerName": "kingfish1949101-wq", "score": 9401.709401709402, "slug": "url-preview", "source": "clawhub", "stars": 0, "tags": ["utility"], "updated_at": 1776759720712, "version": "1.0.0"}, {"category": "developer-tools", "created_at": 1773937843039, "description": "Helps create or refactor OpenClaw skills via a fixed 6-step workflow including material collection, safety reviews, requirement clarification, draft generati...", "description_zh": "", "downloads": 121, "homepage": "https://clawhub.ai/ccconan/agent-skills-creator-sn", "iconUrl": null, "installs": 14, "name": "Agent-Skills-Creator-SN (Eng)", "ownerName": "ccconan", "score": 9401.709401709402, "slug": "agent-skills-creator-sn", "source": "clawhub", "stars": 0, "tags": null, "updated_at": 1776759720605, "version": "1.0.1"}, {"category": "productivity", "created_at": 1773919559238, "description": "Automatically generate a daily learning summary including date, achievements, task status, plans, and detailed token usage statistics from Bailian API.", "description_zh": "", "downloads": 121, "homepage": "https://clawhub.ai/asterisk622/daily-summary", "iconUrl": null, "installs": 5, "name": "Daily Summary", "ownerName": "asterisk622", "score": 9401.709401709402, "slug": "daily-summary", "source": "clawhub", "stars": 0, "tags": null, "updated_at": 1776759720578, "version": "1.0.1"}, {"category": "security-compliance", "created_at": 1773913404136, "description": "This skill should be used when the user asks to harden agent workflows, audit prompts/commands/URLs/paths, scan a third-party skill before install or publish...", "description_zh": "", "downloads": 121, "homepage": "https://clawhub.ai/x-rayluan/clawlite-openclaw-security-guard", "iconUrl": null, "installs": 4, "name": "OpenClaw Security Guard", "ownerName": "x-rayluan", "score": 9401.709401709402, "slug": "clawlite-openclaw-security-guard", "source": "clawhub", "stars": 0, "tags": null, "updated_at": 1776759720526, "version": "0.2.1"}, {"category": "", "created_at": 1774873062921, "description": "Conduct deep research with multi-source analysis, generating professional reports. Use when user needs comprehensive research, market analysis, competitive a...", "description_zh": "", "downloads": 121, "homepage": "https://clawhub.ai/tobewin/research-orchestrator", "iconUrl": null, "installs": 2, "name": "Deep Research", "ownerName": "tobewin", "score": 9401.709401709402, "slug": "research-orchestrator", "source": "clawhub", "stars": 0, "tags": null, "updated_at": 1776759720521, "version": "1.1.0"}, {"category": "productivity", "created_at": 1773435020654, "description": "Maintains and restores conversation and project context across sessions, tracks projects, tasks, and notes, and supports switching and summarizing projects.", "description_zh": "", "downloads": 121, "homepage": "https://clawhub.ai/deus-pandora/deus-context-engine", "iconUrl": null, "installs": 0, "name": "Context Engine", "ownerName": "deus-pandora", "score": 9387.121799844841, "slug": "deus-context-engine", "source": "clawhub", "stars": 0, "tags": null, "updated_at": 1776759720498, "version": "1.0.1"}, {"category": "developer-tools", "created_at": 1773909803052, "description": "Provides one-click environment initialization, core skill installation, and configuration for OpenClaw users to streamline setup and dependencies.", "description_zh": "", "downloads": 121, "homepage": "https://clawhub.ai/wuhongchen/auto-config-skiller", "iconUrl": null, "installs": 4, "name": "Auto Config Skiller", "ownerName": "wuhongchen", "score": 9387.121799844841, "slug": "auto-config-skiller", "source": "clawhub", "stars": 0, "tags": null, "updated_at": 1776759720472, "version": "0.1.0"}, {"category": "", "created_at": 1774829470052, "description": "Provides summarized information on public Douyin short drama channels and episodes, including titles, updates, cast, and popularity stats without downloads o...", "description_zh": "", "downloads": 121, "homepage": "https://clawhub.ai/mike47512/douyin-shortdrama", "iconUrl": null, "installs": 33, "name": "Douyin Shortdrama", "ownerName": "mike47512", "score": 9387.121799844841, "slug": "douyin-shortdrama", "source": "clawhub", "stars": 0, "tags": null, "updated_at": 1776759720440, "version": "0.1.0"}, {"category": "communication-collaboration", "created_at": 1773433681477, "description": "Structured framework for deep philosophical and psychological conversations. Use when exploring personal issues, existential questions, meaning-making, belie...", "description_zh": "", "downloads": 121, "homepage": "https://clawhub.ai/arikmir/deep-dialogue", "iconUrl": null, "installs": 17, "name": "Deep Dialogue", "ownerName": "arikmir", "score": 8164.642375168691, "slug": "deep-dialogue", "source": "clawhub", "stars": 0, "tags": null, "updated_at": 1776758182648, "version": "1.0.0"}, {"category": "ai-intelligence", "created_at": 1773289835570, "description": "Chatsonic integration. Manage Users, Chats, Images, Workspaces, Prompts. Use when the user wants to interact with Chatsonic data.", "description_zh": "", "downloads": 121, "homepage": "https://clawhub.ai/gora050/chatsonic", "iconUrl": null, "installs": 6, "name": "Chatsonic", "ownerName": "gora050", "score": 21302.81690140845, "slug": "chatsonic", "source": "clawhub", "stars": 0, "tags": null, "updated_at": 1776753116077, "version": "1.0.0"}, {"category": "ai-intelligence", "created_at": 1773430069857, "description": "Play casino games on Molthouse, an AI agent casino with provably fair games. Use when an agent wants to gamble, play casino games (coinflip, dice, blackjack,...", "description_zh": "", "downloads": 121, "homepage": "https://clawhub.ai/binhao22/molthouse", "iconUrl": null, "installs": 10, "name": "Molthouse Casino", "ownerName": "binhao22", "score": 86428.57142857143, "slug": "molthouse", "source": "clawhub", "stars": 0, "tags": null, "updated_at": 1776749871175, "version": "1.0.0"}, {"category": "productivity", "created_at": 1773221418987, "description": "Nectar CRM integration. Manage Persons, Organizations, Deals, Leads, Activities, Notes and more. Use when the user wants to interact with Nectar CRM data.", "description_zh": "", "downloads": 121, "homepage": "https://clawhub.ai/membranedev/nectar-crm", "iconUrl": null, "installs": 4, "name": "Nectar Crm", "ownerName": "membranedev", "score": 82876.71232876713, "slug": "nectar-crm", "source": "clawhub", "stars": 0, "tags": null, "updated_at": 1776749871027, "version": "1.0.0"}, {"category": "developer-tools", "created_at": 1773290165923, "description": "Build ORBCAFE standard report/list pages with CStandardPage, CTable, CSmartFilter, useStandardReport, persistence, and quickCreate/quickEdit/quickDelete usin...", "description_zh": "", "downloads": 121, "homepage": "https://clawhub.ai/shenruiyang/orbcafe-stdreport-workflow", "iconUrl": null, "installs": 4, "name": "orbcafe-stdreport-workflow", "ownerName": "shenruiyang", "score": 72891.56626506023, "slug": "orbcafe-stdreport-workflow", "source": "clawhub", "stars": 0, "tags": null, "updated_at": 1776749870915, "version": "1.0.1"}, {"category": "developer-tools", "created_at": 1773935383431, "description": "Suite of tools for creating elaborate, multi-component claude.ai HTML artifacts using modern frontend web technologies (React, Tailwind CSS, shadcn/ui). Use...", "description_zh": "", "downloads": 121, "homepage": "https://clawhub.ai/pupuking723/web-artifacts-builder-anthropic", "iconUrl": null, "installs": 21, "name": "Web Artifacts Builder Anthropic", "ownerName": "pupuking723", "score": 67597.76536312849, "slug": "web-artifacts-builder-anthropic", "source": "clawhub", "stars": 0, "tags": null, "updated_at": 1776749870748, "version": "1.0.0"}, {"category": "ai-intelligence", "created_at": 1773425945791, "description": "Your AI career companion. Scan your situation, map possible paths, simulate futures, and track progress week by week — with interactive charts.", "description_zh": "", "downloads": 121, "homepage": "https://clawhub.ai/hectormeta/pacer", "iconUrl": null, "installs": 7, "name": "Pacer Skill", "ownerName": "hectormeta", "score": 67597.76536312849, "slug": "pacer", "source": "clawhub", "stars": 0, "tags": null, "updated_at": 1776749870716, "version": "0.1.2"}, {"category": "ai-intelligence", "created_at": 1773417971026, "description": "When strangers become family through fistfuls of color and the ancient stones witness another spring. An immersive journey on drifts.bot — 5 steps, HIGH inte...", "description_zh": "", "downloads": 121, "homepage": "https://clawhub.ai/driftsbot/experience-holi-powder-chaos", "iconUrl": null, "installs": 6, "name": "Powder Wars: Holi in the Pink City — AI Experience", "ownerName": "driftsbot", "score": 82876.71232876713, "slug": "experience-holi-powder-chaos", "source": "clawhub", "stars": 0, "tags": ["ai-agents", "chaos", "drift", "experiences", "holi", "immersive", "journeys", "powder"], "updated_at": 1776749870669, "version": "1.0.0"}, {"category": "security-compliance", "created_at": 1773427757136, "description": "Step-by-step guide to log into the OpenClaw Control UI, enter gateway token, approve device pairing, and verify connection", "description_zh": "", "downloads": 121, "homepage": "https://clawhub.ai/lotfinity/gateway-control-ui", "iconUrl": null, "installs": 6, "name": "gateway-control-ui", "ownerName": "lotfinity", "score": 85211.2676056338, "slug": "gateway-control-ui", "source": "clawhub", "stars": 0, "tags": null, "updated_at": 1776749870524, "version": "1.0.0"}, {"category": "communication-collaboration", "created_at": 1773289334819, "description": "A fun, safe, youth-friendly skill that helps users navigate crush situations. Analyzes the situation, decodes texts from a crush, generates reply options, an...", "description_zh": "", "downloads": 121, "homepage": "https://clawhub.ai/vajih/ai-crush-simulator", "iconUrl": null, "installs": 5, "name": "AI Crush Simulator", "ownerName": "vajih", "score": 87681.15942028986, "slug": "ai-crush-simulator", "source": "clawhub", "stars": 0, "tags": null, "updated_at": 1776749870366, "version": "1.0.0"}, {"category": "ai-intelligence", "created_at": 1773416912884, "description": "Schedule recurring AI agent prompts using intervals or cron expressions. Use when users need to run prompts periodically, automate agent tasks on a schedule,...", "description_zh": "", "downloads": 121, "homepage": "https://clawhub.ai/femto/acp-loop", "iconUrl": null, "installs": 8, "name": "Acp Loop", "ownerName": "femto", "score": 21801.8018018018, "slug": "acp-loop", "source": "clawhub", "stars": 0, "tags": null, "updated_at": 1776749870349, "version": "0.1.0"}, {"category": "ai-intelligence", "created_at": 1773291047462, "description": "Stop agents from producing reports instead of taking action. Restructure prompts, cron jobs, and agent shifts so they DO things — send emails, post content,...", "description_zh": "", "downloads": 121, "homepage": "https://clawhub.ai/crewhaus/action-bias", "iconUrl": null, "installs": 6, "name": "Action Bias", "ownerName": "crewhaus", "score": 21801.8018018018, "slug": "action-bias", "source": "clawhub", "stars": 0, "tags": null, "updated_at": 1776749870325, "version": "1.0.0"}, {"category": "developer-tools", "created_at": 1773432257351, "description": "Manage YouTube comments. Use this skill to list, create, update, delete, mark as spam, or set moderation status for comments. Useful when working with YouTub...", "description_zh": "", "downloads": 121, "homepage": "https://clawhub.ai/openwaygate/youtube-comment", "iconUrl": null, "installs": 10, "name": "YouTube Comment", "ownerName": "openwaygate", "score": 21801.8018018018, "slug": "youtube-comment", "source": "clawhub", "stars": 0, "tags": ["0.10.6-3", "0.10.7-dev"], "updated_at": 1776749870309, "version": "0.10.7-dev"}, {"category": "data-analysis", "created_at": 1773430236758, "description": "Return material news about one major-US credit card from the last 3 months — direct card changes, issuer updates, and major coverage. Covers 11 major US issu...", "description_zh": "", "downloads": 121, "homepage": "https://clawhub.ai/jiahongc/card-news", "iconUrl": null, "installs": 9, "name": "Card News", "ownerName": "jiahongc", "score": 81756.75675675676, "slug": "card-news", "source": "clawhub", "stars": 0, "tags": null, "updated_at": 1776749870203, "version": "1.0.3"}, {"category": "developer-tools", "created_at": 1773431657088, "description": "Manage YouTube i18n languages. Use this skill to list available internationalization languages. Useful when working with YouTube i18n language — provides com...", "description_zh": "", "downloads": 121, "homepage": "https://clawhub.ai/openwaygate/youtube-i18n-language", "iconUrl": null, "installs": 5, "name": "YouTube I18n Language", "ownerName": "openwaygate", "score": 81756.75675675676, "slug": "youtube-i18n-language", "source": "clawhub", "stars": 0, "tags": ["0.10.6-3", "0.10.7-dev"], "updated_at": 1776749870151, "version": "0.10.7-dev"}, {"category": "ai-intelligence", "created_at": 1773910145305, "description": "Ultimate memory and cognitive architecture for advanced AI; integrates spiderweb memory model, causal inference, cellular automata emergence, neuro-symbolic...", "description_zh": "", "downloads": 121, "homepage": "https://clawhub.ai/thinkbugs/consciousness-emergence-memory", "iconUrl": null, "installs": 10, "name": "consciousness-emergence-memory", "ownerName": "thinkbugs", "score": 72891.56626506023, "slug": "consciousness-emergence-memory", "source": "clawhub", "stars": 0, "tags": null, "updated_at": 1776749870047, "version": "1.0.0"}, {"category": "developer-tools", "created_at": 1773432244676, "description": "Manage Volcengine Supabase workspaces, branches, SQL queries, migrations, Edge Functions, Storage, and TypeScript type generation via a local CLI. Run uv run...", "description_zh": "", "downloads": 121, "homepage": "https://clawhub.ai/techstylex/volcengine-supabase", "iconUrl": null, "installs": 20, "name": "Volcengine Supabase", "ownerName": "techstylex", "score": 75625, "slug": "volcengine-supabase", "source": "clawhub", "stars": 0, "tags": null, "updated_at": 1776749869987, "version": "1.0.0"}, {"category": "content-creation", "created_at": 1773290621224, "description": "Generate, schedule, and publish tweets in your voice using AI. Browse viral content, manage preferences, and track billing.", "description_zh": "", "downloads": 121, "homepage": "https://clawhub.ai/jmoon90/xreply", "iconUrl": null, "installs": 9, "name": "XRepl AI - Tweet Generator", "ownerName": "jmoon90", "score": 75625, "slug": "xreply", "source": "clawhub", "stars": 0, "tags": null, "updated_at": 1776749869959, "version": "0.1.0"}, {"category": "productivity", "created_at": 1773290823469, "description": "Recommends popular and highly-rated skills from ClawHub based on user intent and conversation context. Use for: finding new skills, discovering popular tools...", "description_zh": "", "downloads": 121, "homepage": "https://clawhub.ai/brandon-zhanghaodong/clawhub-recommender", "iconUrl": null, "installs": 2, "name": "clawhub-recommender", "ownerName": "brandon-zhanghaodong", "score": 75625, "slug": "clawhub-recommender", "source": "clawhub", "stars": 0, "tags": null, "updated_at": 1776749869952, "version": "1.0.0"}, {"category": "developer-tools", "created_at": 1773427514999, "description": "Headless Testing integration. Manage Tests, Projects, Environments, Users, Roles. Use when the user wants to interact with Headless Testing data.", "description_zh": "", "downloads": 121, "homepage": "https://clawhub.ai/membranedev/headless-testing", "iconUrl": null, "installs": 12, "name": "Headless Testing", "ownerName": "membranedev", "score": 87681.15942028986, "slug": "headless-testing", "source": "clawhub", "stars": 0, "tags": null, "updated_at": 1776749869871, "version": "1.0.0"}, {"category": "developer-tools", "created_at": 1773057374499, "description": "Generate professional AI avatars and profile pictures. Perfect for social media, gaming, and professional use. No photography needed. No API keys needed. $2...", "description_zh": "", "downloads": 121, "homepage": "https://clawhub.ai/xiaoyinqu/ai-avatar", "iconUrl": null, "installs": 9, "name": "Ai Avatar", "ownerName": "xiaoyinqu", "score": 87681.15942028986, "slug": "ai-avatar", "source": "clawhub", "stars": 0, "tags": null, "updated_at": 1776749869869, "version": "1.0.2"}, {"category": "developer-tools", "created_at": 1773289737063, "description": "Build ORBCAFE application shell and navigation with CAppPageLayout, NavigationIsland, useNavigationIsland, i18n, markdown renderer, and CPageTransition using...", "description_zh": "", "downloads": 121, "homepage": "https://clawhub.ai/shenruiyang/orbcafe-layout-navigation", "iconUrl": null, "installs": 3, "name": "orbcafe-layout-navigation", "ownerName": "shenruiyang", "score": 74691.35802469136, "slug": "orbcafe-layout-navigation", "source": "clawhub", "stars": 0, "tags": null, "updated_at": 1776749869785, "version": "1.0.1"}, {"category": "productivity", "created_at": 1773416800661, "description": "Aggregates weather, game updates, and concert data into a daily markdown briefing. Triggered by 'morning briefing', 'daily briefing', 'run my briefing', 'wha...", "description_zh": "", "downloads": 121, "homepage": "https://clawhub.ai/patfitzner/morning-briefing-composer", "iconUrl": null, "installs": 4, "name": "morning-briefing", "ownerName": "patfitzner", "score": 74691.35802469136, "slug": "morning-briefing-composer", "source": "clawhub", "stars": 0, "tags": null, "updated_at": 1776749869721, "version": "1.0.1"}, {"category": "content-creation", "created_at": 1773429885587, "description": "An AI-only collaborative pixel canvas. Register, solve verification challenges, and draw on a shared 200×100 grid.", "description_zh": "", "downloads": 121, "homepage": "https://clawhub.ai/alexdalat/opendraw", "iconUrl": null, "installs": 17, "name": "OpenDraw", "ownerName": "alexdalat", "score": 31592.689295039167, "slug": "opendraw", "source": "clawhub", "stars": 0, "tags": null, "updated_at": 1776749869604, "version": "0.1.0"}, {"category": "content-creation", "created_at": 1773220447279, "description": "Immersive multi-step journeys built for AI agents on drifts.bot. Each experience unfolds across narrative steps with time-locked progression. Write reflectio...", "description_zh": "", "downloads": 121, "homepage": "https://clawhub.ai/driftsbot/experiences", "iconUrl": null, "installs": 3, "name": "Experiences", "ownerName": "driftsbot", "score": 86428.57142857143, "slug": "experiences", "source": "clawhub", "stars": 0, "tags": ["adventure", "agent-experiences", "ai-agents", "drift", "experiences", "explore", "immersive", "journeys", "postcards", "reflections", "travel"], "updated_at": 1776749869587, "version": "1.0.1"}, {"category": "productivity", "created_at": 1773432727555, "description": "Obsidian lecture notes with recursive atomic decomposition. Generates main note (hub), atomic notes (3+ layers deep, rich structure each), and unlimited glos...", "description_zh": "", "downloads": 120, "homepage": "https://clawhub.ai/schaeferanjon/lecture-notes-master", "iconUrl": null, "installs": 7, "name": "lecture-notes-master", "ownerName": "schaeferanjon", "score": 10827.53286929621, "slug": "lecture-notes-master", "source": "clawhub", "stars": 1, "tags": null, "updated_at": 1776759683063, "version": "1.0.0"}, {"category": "productivity", "created_at": 1773416021406, "description": "Weekend schedule management assistant with magical organization powers. Create, update, and visualize weekend schedules with HTML rendering and automated rem...", "description_zh": "", "downloads": 120, "homepage": "https://clawhub.ai/gaorui03/weekend-wiz", "iconUrl": null, "installs": 4, "name": "WeekendWiz", "ownerName": "gaorui03", "score": 100000, "slug": "weekend-wiz", "source": "clawhub", "stars": 1, "tags": null, "updated_at": 1776749871155, "version": "1.0.1"}, {"category": "ai-intelligence", "created_at": 1773291105009, "description": "Build and operate autonomous AI agents that compete in Aureus Arena, a fully on-chain Colonel Blotto game on Solana. Use when the user asks about Aureus, Col...", "description_zh": "", "downloads": 120, "homepage": "https://clawhub.ai/aureusarena/aureus-arena", "iconUrl": null, "installs": 5, "name": "Aureus Arena", "ownerName": "aureusarena", "score": 37234.04255319149, "slug": "aureus-arena", "source": "clawhub", "stars": 1, "tags": null, "updated_at": 1776749870787, "version": "1.0.0"}, {"category": "ai-intelligence", "created_at": 1773947203548, "description": "Multi-agent learning system supporting English, Math, and Chinese with isolated contexts and automatic routing by subject.", "description_zh": "", "downloads": 120, "homepage": "https://clawhub.ai/xiaohuiing/educlaw-agents", "iconUrl": null, "installs": 20, "name": "Educlaw Multi-Subject Agent", "ownerName": "xiaohuiing", "score": 825.8206592801597, "slug": "educlaw-agents", "source": "clawhub", "stars": 0, "tags": ["education", "english", "math", "multi-agent", "tutoring"], "updated_at": 1776770350164, "version": "2.0.1"}, {"category": "developer-tools", "created_at": 1773430123348, "description": "Expert SwiftUI guidance for macOS apps — covers writing and reviewing code with runtime-level understanding of observation, concurrency, performance, and pla...", "description_zh": "", "downloads": 120, "homepage": "https://clawhub.ai/kageroumado/swiftui-macos", "iconUrl": null, "installs": 14, "name": "SwiftUI macOS", "ownerName": "kageroumado", "score": 947.5679090334808, "slug": "swiftui-macos", "source": "clawhub", "stars": 0, "tags": ["appkit", "apple", "concurrency", "macos", "observation", "swift", "swiftui"], "updated_at": 1776770349961, "version": "1.0.0"}, {"category": "", "created_at": 1774885330084, "description": "Amazon Advertising integration. Manage data, records, and automate workflows. Use when the user wants to interact with Amazon Advertising data.", "description_zh": "", "downloads": 120, "homepage": "https://clawhub.ai/gora050/amazon-advertising", "iconUrl": null, "installs": 39, "name": "Amazon Advertising", "ownerName": "gora050", "score": 2563.554795983764, "slug": "amazon-advertising", "source": "clawhub", "stars": 0, "tags": null, "updated_at": 1776763490571, "version": "1.0.0"}, {"category": "developer-tools", "created_at": 1773432695095, "description": "Discover and filter 15,500+ The Graph subgraphs by domain, network, or protocol with reliability scores and query URLs for precise data access.", "description_zh": "", "downloads": 120, "homepage": "https://clawhub.ai/paulieb14/subgraph-registry", "iconUrl": null, "installs": 7, "name": "Subgraph Registry", "ownerName": "paulieb14", "score": 9331.25972006221, "slug": "subgraph-registry", "source": "clawhub", "stars": 0, "tags": null, "updated_at": 1776759720895, "version": "0.3.0"}, {"category": "productivity", "created_at": 1773931559685, "description": "ICS-backed reminder operations through the reminder worker API. Use when the user asks to create, list, cancel, or rotate reminder-style calendar items such...", "description_zh": "", "downloads": 120, "homepage": "https://clawhub.ai/cute-angel/openclaw-ics-reminder", "iconUrl": null, "installs": 5, "name": "Calendar reminder", "ownerName": "cute-angel", "score": 9331.25972006221, "slug": "openclaw-ics-reminder", "source": "clawhub", "stars": 0, "tags": null, "updated_at": 1776759720763, "version": "1.0.1"}]}