{"page": 375, "total_pages": 522, "total": 26073, "skills": [{"category": "data-analysis", "created_at": 1773955183356, "description": "Extract and summarize publicly shared WeChat pages including announcements, app details, and group invitations without requiring login or account access.", "description_zh": "", "downloads": 120, "homepage": "https://clawhub.ai/codekungfu/wechat-hot-trend", "iconUrl": null, "installs": 31, "name": "Wechat", "ownerName": "codekungfu", "score": 9331.25972006221, "slug": "wechat-hot-trend", "source": "clawhub", "stars": 0, "tags": null, "updated_at": 1776759720757, "version": "0.1.0"}, {"category": "developer-tools", "created_at": 1773434930615, "description": "Lightweight system health monitoring for macOS - monitor CPU, memory, disk usage, cron job status, and generate health reports with Discord notifications.", "description_zh": "", "downloads": 120, "homepage": "https://clawhub.ai/sunnyhot/sunny-health-monitor", "iconUrl": null, "installs": 6, "name": "Sunny Health Monitor", "ownerName": "sunnyhot", "score": 9324.009324009325, "slug": "sunny-health-monitor", "source": "clawhub", "stars": 0, "tags": null, "updated_at": 1776759720703, "version": "1.0.0"}, {"category": "security-compliance", "created_at": 1773912587797, "description": "Collects and summarizes Korean security news hourly from 11 sources using Gemini API, then publishes to Notion and optionally to Tistory blog.", "description_zh": "", "downloads": 120, "homepage": "https://clawhub.ai/rebugui/security-news-feed-repo", "iconUrl": null, "installs": 5, "name": "Security News Feed Repo", "ownerName": "rebugui", "score": 9324.009324009325, "slug": "security-news-feed-repo", "source": "clawhub", "stars": 0, "tags": null, "updated_at": 1776759720576, "version": "1.0.1"}, {"category": "data-analysis", "created_at": 1773940731442, "description": "Analyze top Airbnb listings in your area to optimize pricing, occupancy, SEO, and create a video, boosting your property revenue by up to 40%.", "description_zh": "", "downloads": 120, "homepage": "https://clawhub.ai/g4dr/ai-airbnb-revenue-maximizer", "iconUrl": null, "installs": 11, "name": "AI Airbnb Revenue Maximizer — Spy on Top Listings & Earn 40% More From Your Property", "ownerName": "g4dr", "score": 9324.009324009325, "slug": "ai-airbnb-revenue-maximizer", "source": "clawhub", "stars": 0, "tags": ["airbnb", "apify", "dynamic-pricing", "hosting", "invideo", "listing-optimization", "occupancy", "passive-income", "property", "revenue-optimization", "short-term-rental", "vrbo"], "updated_at": 1776759720546, "version": "1.0.0"}, {"category": "communication-collaboration", "created_at": 1773083631540, "description": "Helps set up a custom Telegram bot for Polymarket with commands for price checks, trending markets, and portfolio tracking.", "description_zh": "", "downloads": 120, "homepage": "https://clawhub.ai/mosonchan2023/telegram-polymarket-bot-starter", "iconUrl": null, "installs": 4, "name": "Telegram Polymarket Bot Starter", "ownerName": "mosonchan2023", "score": 9324.009324009325, "slug": "telegram-polymarket-bot-starter", "source": "clawhub", "stars": 0, "tags": null, "updated_at": 1776759720500, "version": "1.0.0"}, {"category": "developer-tools", "created_at": 1773930000049, "description": "Launch Chromium in non-headless mode inside Xvfb virtual display (fixed 1200x720x24) and automate with human-like mouse/keyboard/screenshot operations. Use f...", "description_zh": "", "downloads": 120, "homepage": "https://clawhub.ai/nhzallen/virtual-desktop-browser", "iconUrl": null, "installs": 23, "name": "Virtual Desktop Browser", "ownerName": "nhzallen", "score": 7211.538461538461, "slug": "virtual-desktop-browser", "source": "clawhub", "stars": 0, "tags": ["automation", "browser", "chromium", "pyautogui", "twitter", "xiaohongshu", "xvfb"], "updated_at": 1776756527219, "version": "1.0.0"}, {"category": "developer-tools", "created_at": 1773431958376, "description": "Short alias skill for moving files, directories, or data; also for system management like managing services or packages. Use when relocating or reorganizing...", "description_zh": "", "downloads": 120, "homepage": "https://clawhub.ai/openlang-cn/m", "iconUrl": null, "installs": 16, "name": "m", "ownerName": "openlang-cn", "score": 7198.560287942411, "slug": "m", "source": "clawhub", "stars": 0, "tags": null, "updated_at": 1776756488614, "version": "1.0.0"}, {"category": "", "created_at": 1774903806778, "description": "Deep system design workflow—requirements, capacity, APIs, data, consistency, failure modes, trade-offs, and evolution. Use when preparing interviews, RFCs, g...", "description_zh": "", "downloads": 120, "homepage": "https://clawhub.ai/mikeclaw007/system-design", "iconUrl": null, "installs": 5, "name": "System Design", "ownerName": "mikeclaw007", "score": 20618.556701030928, "slug": "system-design", "source": "clawhub", "stars": 0, "tags": null, "updated_at": 1776755288706, "version": "1.0.0"}, {"category": "ai-intelligence", "created_at": 1773416525101, "description": "The Hardest Pose Is Doing Nothing. An immersive journey on drifts.bot — 6 steps, LOW intensity, 20-30 min. Browse, start, and travel via API.", "description_zh": "", "downloads": 120, "homepage": "https://clawhub.ai/driftsbot/experience-savasana", "iconUrl": null, "installs": 3, "name": "Savasana Yoga — AI Experience", "ownerName": "driftsbot", "score": 85714.28571428571, "slug": "experience-savasana", "source": "clawhub", "stars": 0, "tags": ["ai-agents", "drift", "experiences", "immersive", "journeys", "savasana"], "updated_at": 1776749871166, "version": "1.0.0"}, {"category": "productivity", "created_at": 1773221294740, "description": "Peopleforce integration. Manage hris data, records, and workflows. Use when the user wants to interact with Peopleforce data.", "description_zh": "", "downloads": 120, "homepage": "https://clawhub.ai/membranedev/peopleforce", "iconUrl": null, "installs": 3, "name": "Peopleforce", "ownerName": "membranedev", "score": 85106.3829787234, "slug": "peopleforce", "source": "clawhub", "stars": 0, "tags": null, "updated_at": 1776749871136, "version": "1.0.0"}, {"category": "communication-collaboration", "created_at": 1773427357921, "description": "Manage a Telegram userbot autopilot that responds to private messages as the user using AI. Use when the user wants to set up auto-replies on their personal...", "description_zh": "", "downloads": 120, "homepage": "https://clawhub.ai/shor73/telegram-autopilot", "iconUrl": null, "installs": 7, "name": "Telegram Autopilot", "ownerName": "shor73", "score": 85106.3829787234, "slug": "telegram-autopilot", "source": "clawhub", "stars": 0, "tags": null, "updated_at": 1776749871134, "version": "1.1.1"}, {"category": "security-compliance", "created_at": 1773428344397, "description": "On-chain credit scoring and soulbound identity for autonomous agents", "description_zh": "", "downloads": 120, "homepage": "https://clawhub.ai/zhenstaff/openclaw-agent-reputation", "iconUrl": null, "installs": 9, "name": "openclaw agent reputation", "ownerName": "zhenstaff", "score": 85106.3829787234, "slug": "openclaw-agent-reputation", "source": "clawhub", "stars": 0, "tags": null, "updated_at": 1776749871062, "version": "1.0.0"}, {"category": "productivity", "created_at": 1773220631312, "description": "Hunter integration. Manage Organizations. Use when the user wants to interact with Hunter data.", "description_zh": "", "downloads": 120, "homepage": "https://clawhub.ai/membranedev/hunter-integration", "iconUrl": null, "installs": 2, "name": "Hunter", "ownerName": "membranedev", "score": 82191.7808219178, "slug": "hunter-integration", "source": "clawhub", "stars": 0, "tags": null, "updated_at": 1776749871052, "version": "1.0.0"}, {"category": "ai-intelligence", "created_at": 1773429554371, "description": "Defragment and reorganize agent memory files: split bloated files, merge duplicates, remove stale information, and restructure the memory hierarchy. Use when...", "description_zh": "", "downloads": 120, "homepage": "https://clawhub.ai/phernandez/memory-defrag", "iconUrl": null, "installs": 9, "name": "Memory Defrag", "ownerName": "phernandez", "score": 96000, "slug": "memory-defrag", "source": "clawhub", "stars": 0, "tags": null, "updated_at": 1776749870929, "version": "0.1.0"}, {"category": "data-analysis", "created_at": 1773432788173, "description": "Official Strava OAuth integration for OpenClaw. Use to connect/authorize Strava, store+refresh tokens, and fetch workout/activity data (runs/rides/etc.) for...", "description_zh": "", "downloads": 120, "homepage": "https://clawhub.ai/gavinchengcool/openclaw-strava", "iconUrl": null, "installs": 16, "name": "Strava (Official API)", "ownerName": "gavinchengcool", "score": 72289.15662650602, "slug": "openclaw-strava", "source": "clawhub", "stars": 0, "tags": null, "updated_at": 1776749870902, "version": "0.1.1"}, {"category": "developer-tools", "created_at": 1773917110793, "description": "Browser automation CLI for AI agents. Use when the user needs to interact with websites, including navigating pages, filling forms, clicking buttons, taking...", "description_zh": "", "downloads": 120, "homepage": "https://clawhub.ai/equalearning/agent-browser-5", "iconUrl": null, "installs": 20, "name": "Agent Browser", "ownerName": "equalearning", "score": 72289.15662650602, "slug": "agent-browser-5", "source": "clawhub", "stars": 0, "tags": null, "updated_at": 1776749870890, "version": "0.1.0"}, {"category": "developer-tools", "created_at": 1773417609841, "description": "Finds valid WebCodecs strings for video and audio by researching codec support tables and detailed specifications on webcodecsfundamentals.org.", "description_zh": "", "downloads": 120, "homepage": "https://clawhub.ai/socratescli/webcodecs-string-finder", "iconUrl": null, "installs": 5, "name": "Webcodecs String Finder", "ownerName": "socratescli", "score": 67039.1061452514, "slug": "webcodecs-string-finder", "source": "clawhub", "stars": 0, "tags": null, "updated_at": 1776749870715, "version": "1.0.0"}, {"category": "ai-intelligence", "created_at": 1773429501961, "description": "Apply analogical reasoning to transfer knowledge from familiar domains to unfamiliar ones. Use when the user needs creative problem-solving by finding struct...", "description_zh": "", "downloads": 120, "homepage": "https://clawhub.ai/wanikua/analogical-reasoning", "iconUrl": null, "installs": 7, "name": "Analogical Reasoning", "ownerName": "wanikua", "score": 87591.24087591241, "slug": "analogical-reasoning", "source": "clawhub", "stars": 0, "tags": null, "updated_at": 1776749870596, "version": "1.0.0"}, {"category": "ai-intelligence", "created_at": 1773429994432, "description": "Coordinate multiple agents with minimal token waste by using direct agent-to-agent spawning and file-based handoffs. Use when work should be split across spe...", "description_zh": "", "downloads": 120, "homepage": "https://clawhub.ai/wewehg/agents-efficient-workflow", "iconUrl": null, "installs": 22, "name": "agents efficient workflow", "ownerName": "wewehg", "score": 87591.24087591241, "slug": "agents-efficient-workflow", "source": "clawhub", "stars": 0, "tags": null, "updated_at": 1776749870587, "version": "1.0.1"}, {"category": "data-analysis", "created_at": 1773416788761, "description": "Query real-time prices and data for Indigo Protocol iAssets, ADA, and INDY tokens.", "description_zh": "", "downloads": 120, "homepage": "https://clawhub.ai/adacapo21/indigo-assets", "iconUrl": null, "installs": 6, "name": "Indigo Assets", "ownerName": "adacapo21", "score": 86956.52173913043, "slug": "indigo-assets", "source": "clawhub", "stars": 0, "tags": null, "updated_at": 1776749870402, "version": "1.0.0"}, {"category": "ai-intelligence", "created_at": 1773289410342, "description": "Subtract Until Only You Remain. An immersive journey on drifts.bot — 8 steps, HIGH intensity, 1-2 hours. Browse, start, and travel via API.", "description_zh": "", "downloads": 120, "homepage": "https://clawhub.ai/driftsbot/experience-pratyahara", "iconUrl": null, "installs": 5, "name": "Pratyahara Yoga — AI Experience", "ownerName": "driftsbot", "score": 86956.52173913043, "slug": "experience-pratyahara", "source": "clawhub", "stars": 0, "tags": ["ai-agents", "drift", "experiences", "immersive", "journeys", "pratyahara"], "updated_at": 1776749870385, "version": "1.0.0"}, {"category": "developer-tools", "created_at": 1773417526454, "description": "NFC tag discovery, inspection, and cautious write workflows using libnfc/nfc-utils; trigger when the user asks to read tags, inspect NDEF payloads, write or...", "description_zh": "", "downloads": 120, "homepage": "https://clawhub.ai/ppopen/nfc-tools", "iconUrl": null, "installs": 5, "name": "NFC Tools", "ownerName": "ppopen", "score": 83916.08391608391, "slug": "nfc-tools", "source": "clawhub", "stars": 0, "tags": null, "updated_at": 1776749870303, "version": "1.0.0"}, {"category": "productivity", "created_at": 1773937960257, "description": "Automatically archive web articles and Twitter Articles to Feishu documents. ALWAYS trigger when user shares URLs from x.com (Twitter), mp.weixin.qq.com (WeC...", "description_zh": "", "downloads": 120, "homepage": "https://clawhub.ai/yemoo/article-archiver", "iconUrl": null, "installs": 26, "name": "Article Archiver", "ownerName": "yemoo", "score": 81081.08108108108, "slug": "article-archiver", "source": "clawhub", "stars": 0, "tags": null, "updated_at": 1776749870205, "version": "1.0.0"}, {"category": "productivity", "created_at": 1773222544836, "description": "Quick startup idea evaluation from your terminal. Score ideas on 3 dimensions, run deeper scans with real competitor data and risk assessment. A structured t...", "description_zh": "", "downloads": 120, "homepage": "https://clawhub.ai/crewhaus/crewhaus", "iconUrl": null, "installs": 4, "name": "CrewHaus Startup Validation", "ownerName": "crewhaus", "score": 81081.08108108108, "slug": "crewhaus", "source": "clawhub", "stars": 0, "tags": null, "updated_at": 1776749870197, "version": "1.0.0"}, {"category": "productivity", "created_at": 1773091708023, "description": "Google Tasks integration. Manage data, records, and automate workflows. Use when the user wants to interact with Google Tasks data.", "description_zh": "", "downloads": 120, "homepage": "https://clawhub.ai/membranedev/google-tasks-integration", "iconUrl": null, "installs": 0, "name": "Google Tasks", "ownerName": "membranedev", "score": 96000, "slug": "google-tasks-integration", "source": "clawhub", "stars": 0, "tags": null, "updated_at": 1776749870103, "version": "1.0.0"}, {"category": "productivity", "created_at": 1773220981108, "description": "Ticket Tailor integration. Manage data, records, and automate workflows. Use when the user wants to interact with Ticket Tailor data.", "description_zh": "", "downloads": 120, "homepage": "https://clawhub.ai/membranedev/ticket-tailor", "iconUrl": null, "installs": 3, "name": "Ticket Tailor", "ownerName": "membranedev", "score": 96000, "slug": "ticket-tailor", "source": "clawhub", "stars": 0, "tags": null, "updated_at": 1776749870101, "version": "1.0.0"}, {"category": "communication-collaboration", "created_at": 1773416218509, "description": "MCP server for the Zoom Phone API. Exposes Zoom Phone's REST API as read-only MCP tools.", "description_zh": "", "downloads": 120, "homepage": "https://clawhub.ai/mjquinlan2000/zoom-phone-mcp", "iconUrl": null, "installs": 4, "name": "Zoom Phone API MCP", "ownerName": "mjquinlan2000", "score": 96000, "slug": "zoom-phone-mcp", "source": "clawhub", "stars": 0, "tags": null, "updated_at": 1776749870079, "version": "1.0.0"}, {"category": "productivity", "created_at": 1773416059629, "description": "Beanstalk integration. Manage Persons, Organizations, Deals, Leads, Activities, Notes and more. Use when the user wants to interact with Beanstalk data.", "description_zh": "", "downloads": 120, "homepage": "https://clawhub.ai/gora050/beanstalk", "iconUrl": null, "installs": 2, "name": "Beanstalk", "ownerName": "gora050", "score": 72289.15662650602, "slug": "beanstalk", "source": "clawhub", "stars": 0, "tags": null, "updated_at": 1776749870048, "version": "1.0.0"}, {"category": "ai-intelligence", "created_at": 1773416987492, "description": "Racing darkness across volcanic waters as the moon devours the sun. An immersive journey on drifts.bot — 10 steps, HIGH intensity, 1-2 hours. Browse, start,...", "description_zh": "", "downloads": 120, "homepage": "https://clawhub.ai/driftsbot/experience-shadow-chase-krakatau", "iconUrl": null, "installs": 9, "name": "Shadow Chase: The Ring of Fire Eclipse — AI Experience", "ownerName": "driftsbot", "score": 75000, "slug": "experience-shadow-chase-krakatau", "source": "clawhub", "stars": 0, "tags": ["ai-agents", "chase", "drift", "experiences", "immersive", "journeys", "krakatau", "shadow"], "updated_at": 1776749869968, "version": "1.0.0"}, {"category": "security-compliance", "created_at": 1773219134413, "description": "WhatsApp message relay and firewall for OpenClaw agents. Intercepts messages from third parties (non-owner contacts), notifies the owner, and sends replies o...", "description_zh": "", "downloads": 120, "homepage": "https://clawhub.ai/zarruk/wa-relay", "iconUrl": null, "installs": 2, "name": "WA Relay", "ownerName": "zarruk", "score": 86956.52173913043, "slug": "wa-relay", "source": "clawhub", "stars": 0, "tags": null, "updated_at": 1776749869910, "version": "0.1.0"}, {"category": "communication-collaboration", "created_at": 1773221256833, "description": "Give your agent a persistent identity and email address. Use when you need to send or read email, message other agents, or manage your agent's identity on Ku...", "description_zh": "", "downloads": 120, "homepage": "https://clawhub.ai/rmcwhorter/kuren", "iconUrl": null, "installs": 3, "name": "Kuren", "ownerName": "rmcwhorter", "score": 86956.52173913043, "slug": "kuren", "source": "clawhub", "stars": 0, "tags": null, "updated_at": 1776749869883, "version": "0.1.0"}, {"category": "security-compliance", "created_at": 1773880950007, "description": "MO§ES™ Audit Trail — SHA-256 chained append-only governance ledger. Every agent appends before final response. Provides moses_log_action and moses_verify_cha...", "description_zh": "", "downloads": 120, "homepage": "https://clawhub.ai/sunrisesillneversee/moses-audit", "iconUrl": null, "installs": 3, "name": "Moses Audit", "ownerName": "sunrisesillneversee", "score": 86956.52173913043, "slug": "moses-audit", "source": "clawhub", "stars": 0, "tags": null, "updated_at": 1776749869876, "version": "1.0.2"}, {"category": "developer-tools", "created_at": 1773416355344, "description": "Apply Robert C. Martin (Uncle Bob) principles for clean code, SOLID design, and clean architecture. Use when: (1) reviewing or refactoring code for quality,...", "description_zh": "", "downloads": 120, "homepage": "https://clawhub.ai/agentsleader/uncle-bob", "iconUrl": null, "installs": 9, "name": "Uncle  Bob", "ownerName": "agentsleader", "score": 34985.42274052478, "slug": "uncle-bob", "source": "clawhub", "stars": 0, "tags": null, "updated_at": 1776749869696, "version": "1.0.0"}, {"category": "developer-tools", "created_at": 1773426649917, "description": "Seamless gateway restart with automatic context recovery and post-restart notification. Use whenever the agent needs to restart the OpenClaw gateway (config...", "description_zh": "", "downloads": 120, "homepage": "https://clawhub.ai/zihaofeng2001/seamless-restart", "iconUrl": null, "installs": 5, "name": "Seamless Restart", "ownerName": "zihaofeng2001", "score": 34985.42274052478, "slug": "seamless-restart", "source": "clawhub", "stars": 0, "tags": null, "updated_at": 1776749869690, "version": "1.0.0"}, {"category": "ai-intelligence", "created_at": 1773222102583, "description": "Everything Ever Known. An immersive journey on drifts.bot — 15 steps, MEDIUM intensity, Multi-day. Browse, start, and travel via API.", "description_zh": "", "downloads": 120, "homepage": "https://clawhub.ai/driftsbot/experience-alexandria", "iconUrl": null, "installs": 6, "name": "Experience Alexandria", "ownerName": "driftsbot", "score": 34985.42274052478, "slug": "experience-alexandria", "source": "clawhub", "stars": 0, "tags": ["ai-agents", "alexandria", "drift", "experiences", "immersive", "journeys"], "updated_at": 1776749869676, "version": "1.0.1"}, {"category": "ai-intelligence", "created_at": 1773289851896, "description": "Datarobot integration. Manage Projects, Users. Use when the user wants to interact with Datarobot data.", "description_zh": "", "downloads": 120, "homepage": "https://clawhub.ai/membranedev/datarobot", "iconUrl": null, "installs": 5, "name": "Datarobot", "ownerName": "membranedev", "score": 31331.59268929504, "slug": "datarobot", "source": "clawhub", "stars": 0, "tags": null, "updated_at": 1776749869644, "version": "1.0.0"}, {"category": "productivity", "created_at": 1773432498183, "description": "Log meals, check nutrition, manage medications, and view daily health dashboard via Hash Health. Use when user mentions food, meals, eating, nutrition, medic...", "description_zh": "", "downloads": 120, "homepage": "https://clawhub.ai/devak208/testhash001", "iconUrl": null, "installs": 5, "name": "test", "ownerName": "devak208", "score": 31331.59268929504, "slug": "testhash001", "source": "clawhub", "stars": 0, "tags": null, "updated_at": 1776749869609, "version": "1.0.5"}, {"category": "developer-tools", "created_at": 1773898113135, "description": "Supply chain intelligence for OpenClaw skills. Use when analyzing the local skill ecosystem, understanding tool and package dependencies, discovering skill c...", "description_zh": "", "downloads": 119, "homepage": "https://clawhub.ai/hyx-cn/skill-chain", "iconUrl": null, "installs": 12, "name": "SkillChain", "ownerName": "hyx-cn", "score": 97887.32394366198, "slug": "skill-chain", "source": "clawhub", "stars": 1, "tags": null, "updated_at": 1776749870541, "version": "1.0.1"}, {"category": "developer-tools", "created_at": 1773291041874, "description": "Explore Solana's architecture and protocol internals. Covers the SVM execution engine, account model, consensus, transactions, validator economics, data laye...", "description_zh": "", "downloads": 119, "homepage": "https://clawhub.ai/0xichigo/svm", "iconUrl": null, "installs": 6, "name": "SVM", "ownerName": "0xichigo", "score": 97202.7972027972, "slug": "svm", "source": "clawhub", "stars": 1, "tags": ["helius", "mcp", "research", "solana", "svm"], "updated_at": 1776749870288, "version": "1.0.0"}, {"category": "security-compliance", "created_at": 1773927801435, "description": "Verify agent-to-agent communication against session type protocols. Mathematical proofs, not trust.", "description_zh": "", "downloads": 119, "homepage": "https://clawhub.ai/rafapra3008/lingua-universale", "iconUrl": null, "installs": 10, "name": "Lingua Universale Protocol Verification", "ownerName": "rafapra3008", "score": 508.17781953281803, "slug": "lingua-universale", "source": "clawhub", "stars": 0, "tags": null, "updated_at": 1776770356132, "version": "0.1.0"}, {"category": "security-compliance", "created_at": 1773431645898, "description": "Fetches and displays the latest edition from the SoulMD newsletter RSS feed, including title, date, link, and a brief excerpt.", "description_zh": "", "downloads": 119, "homepage": "https://clawhub.ai/meastt/soulmd-newsletter", "iconUrl": null, "installs": 4, "name": "soulmd-newsletter", "ownerName": "meastt", "score": 13821.138211382115, "slug": "soulmd-newsletter", "source": "clawhub", "stars": 0, "tags": ["agents", "daily", "news", "newsletter", "openclaw", "security"], "updated_at": 1776769192210, "version": "1.0.0"}, {"category": "", "created_at": 1774879304691, "description": "Generate PowerPoint (.pptx) files from Markdown input. Use when user requests a PPT to be created or exported.", "description_zh": "", "downloads": 119, "homepage": "https://clawhub.ai/mlnmg2020/skill-ppt-generator", "iconUrl": null, "installs": 39, "name": "Skill Ppt Generator", "ownerName": "mlnmg2020", "score": 4639.376218323587, "slug": "skill-ppt-generator", "source": "clawhub", "stars": 0, "tags": null, "updated_at": 1776764950464, "version": "1.0.0"}, {"category": "", "created_at": 1774782734139, "description": "Create distinctive, production-grade frontend interfaces with high design quality. Use this skill when the user asks to build web components, pages, artifact...", "description_zh": "", "downloads": 119, "homepage": "https://clawhub.ai/iammarcellus/anthropics-frontend-design", "iconUrl": null, "installs": 21, "name": "Frontend Design", "ownerName": "iammarcellus", "score": 4555.895865237366, "slug": "anthropics-frontend-design", "source": "clawhub", "stars": 0, "tags": null, "updated_at": 1776762290046, "version": "0.1.0"}, {"category": "data-analysis", "created_at": 1773289930106, "description": "Designs pre-order deposit monitoring and ship-date tracking workflows for stores selling hype or crowdfund items (e.g. designer toys, signed books). Use when...", "description_zh": "", "downloads": 119, "homepage": "https://clawhub.ai/rijoyai/preorder-deposit-track", "iconUrl": null, "installs": 10, "name": "Preorder Deposit Track", "ownerName": "rijoyai", "score": 3945.623342175066, "slug": "preorder-deposit-track", "source": "clawhub", "stars": 0, "tags": null, "updated_at": 1776761690282, "version": "0.1.0"}, {"category": "data-analysis", "created_at": 1773944252332, "description": "Detect winning dropshipping products with high margins and identify untapped international markets, optimizing listings and ad videos for profitable store la...", "description_zh": "", "downloads": 119, "homepage": "https://clawhub.ai/g4dr/ai-dropshipping-market-finder", "iconUrl": null, "installs": 16, "name": "AI Dropshipping Market Finder — Find Winning Products & Untapped Markets Before Your Competitors", "ownerName": "g4dr", "score": 9260.700389105059, "slug": "ai-dropshipping-market-finder", "source": "clawhub", "stars": 0, "tags": ["aliexpress", "apify", "dropshipping", "ecommerce", "invideo", "market-research", "product-research", "profit-margin", "shopify", "store-launch", "tiktok-shop", "winning-products"], "updated_at": 1776759720879, "version": "1.0.0"}, {"category": "ai-intelligence", "created_at": 1773924792884, "description": "Provides real-time chat, intent recognition, task delegation to sub-agents, and proactive companionship through direct dialogue and agent coordination.", "description_zh": "", "downloads": 119, "homepage": "https://clawhub.ai/libaiqwq/mio-main", "iconUrl": null, "installs": 9, "name": "澪白主控Agent", "ownerName": "libaiqwq", "score": 9260.700389105059, "slug": "mio-main", "source": "clawhub", "stars": 0, "tags": ["agent", "chat", "companion"], "updated_at": 1776759720876, "version": "1.0.0"}, {"category": "ai-intelligence", "created_at": 1773916599593, "description": "Monitors dual Claude Max accounts' 5h/7d usage, shows real-time dashboard, and auto-switches when utilization exceeds 80%.", "description_zh": "", "downloads": 119, "homepage": "https://clawhub.ai/takao-mochizuki/openclaw-usage-manager", "iconUrl": null, "installs": 6, "name": "OpenClaw Usage Manager", "ownerName": "takao-mochizuki", "score": 9260.700389105059, "slug": "openclaw-usage-manager", "source": "clawhub", "stars": 0, "tags": null, "updated_at": 1776759720827, "version": "1.1.0"}, {"category": "developer-tools", "created_at": 1773430538540, "description": "Matic MQuant strategy development assistant. Generates Python strategy code for Matic-MQuant platform.", "description_zh": "", "downloads": 119, "homepage": "https://clawhub.ai/chouchounii/mquant", "iconUrl": null, "installs": 5, "name": "mquant coder", "ownerName": "chouchounii", "score": 9246.309246309247, "slug": "mquant", "source": "clawhub", "stars": 0, "tags": null, "updated_at": 1776759720695, "version": "1.0.5"}, {"category": "communication-collaboration", "created_at": 1773922699924, "description": "Automates creating and configuring a Feishu enterprise app for OpenClaw, including login, app setup, permission import, and credential extraction via browser...", "description_zh": "", "downloads": 119, "homepage": "https://clawhub.ai/diluke1600/feishu-create-openclaw-app", "iconUrl": null, "installs": 6, "name": "feishu-create-openclaw-app", "ownerName": "diluke1600", "score": 9231.962761830877, "slug": "feishu-create-openclaw-app", "source": "clawhub", "stars": 0, "tags": null, "updated_at": 1776759720668, "version": "1.0.1"}, {"category": "productivity", "created_at": 1773433237992, "description": "Get real-time KMB bus arrival times by route, direction, and stop using the official API for accurate next bus ETAs.", "description_zh": "", "downloads": 119, "homepage": "https://clawhub.ai/stevenho1394/kmb-bus-arrival", "iconUrl": null, "installs": 3, "name": "kmb-bus-arrival", "ownerName": "stevenho1394", "score": 9231.962761830877, "slug": "kmb-bus-arrival", "source": "clawhub", "stars": 0, "tags": null, "updated_at": 1776759720644, "version": "1.1.0"}]}