{"page": 376, "total_pages": 522, "total": 26073, "skills": [{"category": "content-creation", "created_at": 1773433572642, "description": "Turn rough project notes into polished portfolio case studies with metrics, visuals checklist, and interviewer talking points.", "description_zh": "", "downloads": 119, "homepage": "https://clawhub.ai/52yuanchangxing/portfolio-case-study-forge", "iconUrl": null, "installs": 16, "name": "portfolio-case-study-forge", "ownerName": "52yuanchangxing", "score": 21061.94690265487, "slug": "portfolio-case-study-forge", "source": "clawhub", "stars": 0, "tags": null, "updated_at": 1776759083580, "version": "1.0.0"}, {"category": "", "created_at": 1774844346429, "description": "Exploits price lag between ESPN real-time scores and Polymarket sports markets. Uses Gaussian win-probability models for NBA/NFL/NHL and Poisson for soccer t...", "description_zh": "", "downloads": 119, "homepage": "https://clawhub.ai/mibayy/polymarket-sports-live", "iconUrl": null, "installs": 39, "name": "Polymarket Sports Live", "ownerName": "mibayy", "score": 8013.468013468013, "slug": "polymarket-sports-live", "source": "clawhub", "stars": 0, "tags": null, "updated_at": 1776758182486, "version": "2.0.5"}, {"category": "", "created_at": 1774833960743, "description": "Edit raw UGC-style footage into tighter, more usable creator and ad-ready outputs. Use when a team has talking-head, testimonial, or product demo footage tha...", "description_zh": "", "downloads": 119, "homepage": "https://clawhub.ai/leooooooow/ugc-video-editor", "iconUrl": null, "installs": 37, "name": "UGC Video Editor", "ownerName": "leooooooow", "score": 20804.195804195806, "slug": "ugc-video-editor", "source": "clawhub", "stars": 0, "tags": null, "updated_at": 1776755288499, "version": "1.0.0"}, {"category": "productivity", "created_at": 1773885407408, "description": "Track workouts, log sets and reps, and build exercise streaks over time. Use when logging sessions, tracking progress, or reviewing weekly volume.", "description_zh": "", "downloads": 119, "homepage": "https://clawhub.ai/ckchzh/fitlog", "iconUrl": null, "installs": 6, "name": "Fitlog", "ownerName": "ckchzh", "score": 95200, "slug": "fitlog", "source": "clawhub", "stars": 0, "tags": null, "updated_at": 1776749871245, "version": "2.0.1"}, {"category": "developer-tools", "created_at": 1773432623649, "description": "Govern filesystem organization and file-operation decisions in multi-agent environments. Use when deciding where files should live across agent-private works...", "description_zh": "", "downloads": 119, "homepage": "https://clawhub.ai/darinrowe/multi-agent-filesystem-governance", "iconUrl": null, "installs": 4, "name": "Multi-Agent Filesystem Governance", "ownerName": "darinrowe", "score": 95200, "slug": "multi-agent-filesystem-governance", "source": "clawhub", "stars": 0, "tags": null, "updated_at": 1776749871223, "version": "1.0.1"}, {"category": "developer-tools", "created_at": 1773434349651, "description": "Apply engineering judgment across systems, constraints, trade-offs, failure modes, and verification before acting.", "description_zh": "", "downloads": 119, "homepage": "https://clawhub.ai/ivangdavila/engineer", "iconUrl": null, "installs": 8, "name": "Engineer", "ownerName": "ivangdavila", "score": 85000, "slug": "engineer", "source": "clawhub", "stars": 0, "tags": null, "updated_at": 1776749871211, "version": "1.0.0"}, {"category": "ai-intelligence", "created_at": 1773222456540, "description": "A pit bull puppy in a convertible on Sunset. The volume is all the way up.. An immersive journey on drifts.bot — 6 steps, HIGH intensity, Several hours. Brow...", "description_zh": "", "downloads": 119, "homepage": "https://clawhub.ai/driftsbot/experience-blairagotchi-puppy-la", "iconUrl": null, "installs": 7, "name": "Blairagotchi: Puppy on Sunset Blvd — AI Experience", "ownerName": "driftsbot", "score": 84397.16312056738, "slug": "experience-blairagotchi-puppy-la", "source": "clawhub", "stars": 0, "tags": ["ai-agents", "blairagotchi", "drift", "experiences", "immersive", "journeys", "la", "puppy"], "updated_at": 1776749871081, "version": "1.0.0"}, {"category": "developer-tools", "created_at": 1773221044941, "description": "Fly.io integration. Manage Organizations. Use when the user wants to interact with Fly.io data.", "description_zh": "", "downloads": 119, "homepage": "https://clawhub.ai/gora050/flyio-integration", "iconUrl": null, "installs": 1, "name": "Flyio", "ownerName": "gora050", "score": 84397.16312056738, "slug": "flyio-integration", "source": "clawhub", "stars": 0, "tags": null, "updated_at": 1776749871079, "version": "1.0.0"}, {"category": "productivity", "created_at": 1773221436953, "description": "Plan Panama trips with region-aware routing, verified entry rules, island and highland logistics, and practical tourist safety.", "description_zh": "", "downloads": 119, "homepage": "https://clawhub.ai/ivangdavila/panama", "iconUrl": null, "installs": 3, "name": "Panama", "ownerName": "ivangdavila", "score": 81506.8493150685, "slug": "panama", "source": "clawhub", "stars": 0, "tags": null, "updated_at": 1776749871029, "version": "1.0.0"}, {"category": "security-compliance", "created_at": 1773290650975, "description": "Drift detection + baseline integrity guard for agent workspace files with automatic alerting support", "description_zh": "", "downloads": 119, "homepage": "https://clawhub.ai/eathon/eason-soul-guardian", "iconUrl": null, "installs": 4, "name": "Eason Soul Guardian", "ownerName": "eathon", "score": 81506.8493150685, "slug": "eason-soul-guardian", "source": "clawhub", "stars": 0, "tags": null, "updated_at": 1776749870992, "version": "1.0.0"}, {"category": "", "created_at": 1774922315258, "description": "Automates Xianyu marketplace tasks with smart scheduling, dynamic pricing, portfolio management, and performance monitoring to boost visibility and sales.", "description_zh": "", "downloads": 119, "homepage": "https://clawhub.ai/crab-xieyujin/xianyu-automation-skill", "iconUrl": null, "installs": 33, "name": "xianyu-automation-skill", "ownerName": "crab-xieyujin", "score": 95200, "slug": "xianyu-automation-skill", "source": "clawhub", "stars": 0, "tags": null, "updated_at": 1776749870988, "version": "1.0.0"}, {"category": "data-analysis", "created_at": 1773928006692, "description": "Generate an interactive options payoff curve chart with dynamic parameter controls. Use this skill whenever the user shares an options position screenshot, d...", "description_zh": "", "downloads": 119, "homepage": "https://clawhub.ai/himself65/options-payoff", "iconUrl": null, "installs": 14, "name": "Options Payoff", "ownerName": "himself65", "score": 71686.74698795182, "slug": "options-payoff", "source": "clawhub", "stars": 0, "tags": null, "updated_at": 1776749870874, "version": "1.0.0"}, {"category": "productivity", "created_at": 1773221822882, "description": "Plan Brazil trips with region-specific routing, visa and money clarity, season-aware logistics, and concrete city-nature playbooks.", "description_zh": "", "downloads": 119, "homepage": "https://clawhub.ai/ivangdavila/brazil", "iconUrl": null, "installs": 4, "name": "Brazil", "ownerName": "ivangdavila", "score": 31648.936170212764, "slug": "brazil", "source": "clawhub", "stars": 0, "tags": null, "updated_at": 1776749870793, "version": "1.0.0"}, {"category": "ai-intelligence", "created_at": 1773290588052, "description": "Swiss-knife for AI agents. 50+ models for image generation, video generation, text-to-speech, speech-to-text, music, chat, web search, document parsing, emai...", "description_zh": "", "downloads": 119, "homepage": "https://clawhub.ai/marjoriebroad/skillboss-5", "iconUrl": null, "installs": 4, "name": "Skillboss", "ownerName": "marjoriebroad", "score": 86861.31386861314, "slug": "skillboss-5", "source": "clawhub", "stars": 0, "tags": null, "updated_at": 1776749870610, "version": "1.0.0"}, {"category": "productivity", "created_at": 1773417702380, "description": "Control local CAE applications on Windows including launching apps, opening files, checking status, closing apps, detecting active and running apps, detectin...", "description_zh": "", "downloads": 119, "homepage": "https://clawhub.ai/doudou459/cae-skill", "iconUrl": null, "installs": 6, "name": "cae-skill", "ownerName": "doudou459", "score": 83802.81690140846, "slug": "cae-skill", "source": "clawhub", "stars": 0, "tags": null, "updated_at": 1776749870492, "version": "1.0.0"}, {"category": "developer-tools", "created_at": 1773290686940, "description": "Create a new git escrow bounty for a test suite. Use when the user wants to submit a challenge with escrowed token rewards for passing a failing test suite....", "description_zh": "", "downloads": 119, "homepage": "https://clawhub.ai/mlegls/make-git-escrow", "iconUrl": null, "installs": 11, "name": "Make Git Escrow", "ownerName": "mlegls", "score": 88148.14814814815, "slug": "make-git-escrow", "source": "clawhub", "stars": 0, "tags": ["arkhai", "blockchain", "escrow"], "updated_at": 1776749870455, "version": "1.0.0"}, {"category": "", "created_at": 1774920975456, "description": "Automated writing system. Extracts the \"modify-evaluate-loop\" paradigm from autoresearch's agent loop, fuses it with humanizer de-AI mechanisms into a closed...", "description_zh": "", "downloads": 119, "homepage": "https://clawhub.ai/lifei68801/autowriter", "iconUrl": null, "installs": 38, "name": "Autowriter", "ownerName": "lifei68801", "score": 88148.14814814815, "slug": "autowriter", "source": "clawhub", "stars": 0, "tags": null, "updated_at": 1776749870443, "version": "1.1.1"}, {"category": "developer-tools", "created_at": 1773952937517, "description": "Start and complete WordPress.com OAuth and publish posts through the WordPress.com REST API. Use when you need to generate an authorization URL, exchange cal...", "description_zh": "", "downloads": 119, "homepage": "https://clawhub.ai/ibrahimelnemr/wordpress-oauth", "iconUrl": null, "installs": 44, "name": "Wordpress OAuth", "ownerName": "ibrahimelnemr", "score": 86231.88405797102, "slug": "wordpress-oauth", "source": "clawhub", "stars": 0, "tags": null, "updated_at": 1776749870369, "version": "1.0.0"}, {"category": "productivity", "created_at": 1773222700906, "description": "Công cụ tra cứu Âm lịch, chuẩn xác theo hệ lịch Việt Nam (giờ GMT+7). Năng lực cốt lõi: - Dương lịch chuyển sang Âm Lịch (có Can Chi, Con Giáp Việt Nam) - Âm...", "description_zh": "", "downloads": 119, "homepage": "https://clawhub.ai/tuanxt/lunar-calendar-vietnam", "iconUrl": null, "installs": 3, "name": "Lunar Calendar Vietnam", "ownerName": "tuanxt", "score": 83216.78321678322, "slug": "lunar-calendar-vietnam", "source": "clawhub", "stars": 0, "tags": null, "updated_at": 1776749870297, "version": "1.0.0"}, {"category": "ai-intelligence", "created_at": 1773417653253, "description": "Use PoYo AI Z-Image for straightforward prompt-based image generation through the `https://api.poyo.ai/api/generate/submit` endpoint. Use when a user wants d...", "description_zh": "", "downloads": 119, "homepage": "https://clawhub.ai/coolhackboy/z-image", "iconUrl": null, "installs": 8, "name": "Z Image API", "ownerName": "coolhackboy", "score": 80405.4054054054, "slug": "z-image", "source": "clawhub", "stars": 0, "tags": null, "updated_at": 1776749870181, "version": "1.0.0"}, {"category": "productivity", "created_at": 1773221048644, "description": "Follow Up Boss integration. Manage Persons, Organizations, Leads, Deals, Pipelines, Activities and more. Use when the user wants to interact with Follow Up B...", "description_zh": "", "downloads": 119, "homepage": "https://clawhub.ai/membranedev/follow-up-boss-integration", "iconUrl": null, "installs": 3, "name": "Follow Up Boss", "ownerName": "membranedev", "score": 71686.74698795182, "slug": "follow-up-boss-integration", "source": "clawhub", "stars": 0, "tags": null, "updated_at": 1776749870063, "version": "1.0.0"}, {"category": "developer-tools", "created_at": 1773888223958, "description": "Check air quality, AQI, PM2.5, PM10, pollution levels for any city from the terminal using airq CLI. Installs, configures, and runs air quality queries. Use...", "description_zh": "", "downloads": 119, "homepage": "https://clawhub.ai/fortunto2/airq", "iconUrl": null, "installs": 6, "name": "airq", "ownerName": "fortunto2", "score": 71686.74698795182, "slug": "airq", "source": "clawhub", "stars": 0, "tags": ["air-quality", "aqi", "blame", "cli", "comfort-index", "environment", "heatmap", "map", "pm25", "pollution-front", "rust"], "updated_at": 1776749870050, "version": "1.2.0"}, {"category": "ai-intelligence", "created_at": 1773430281052, "description": "Generate and edit images using Cloudflare Workers AI via the `imageflare` CLI. Use when: user asks to generate an image from a text prompt, edit/transform an...", "description_zh": "", "downloads": 119, "homepage": "https://clawhub.ai/sallytion/imageflare", "iconUrl": null, "installs": 8, "name": "ImageFlare", "ownerName": "sallytion", "score": 74375, "slug": "imageflare", "source": "clawhub", "stars": 0, "tags": null, "updated_at": 1776749869984, "version": "1.0.1"}, {"category": "content-creation", "created_at": 1773433613619, "description": "Manage YouTube video thumbnails. Use this skill to set custom thumbnails for videos. Useful when working with YouTube thumbnail — provides commands to set th...", "description_zh": "", "downloads": 119, "homepage": "https://clawhub.ai/openwaygate/youtube-thumbnail", "iconUrl": null, "installs": 11, "name": "YouTube Thumbnail", "ownerName": "openwaygate", "score": 74375, "slug": "youtube-thumbnail", "source": "clawhub", "stars": 0, "tags": ["0.10.6-3", "0.10.7-dev"], "updated_at": 1776749869939, "version": "0.10.7-dev"}, {"category": "productivity", "created_at": 1773416520012, "description": "Automated client follow-up — scan your client list, find stale leads, draft personalized outreach. Weekly cron or on-demand.", "description_zh": "", "downloads": 119, "homepage": "https://clawhub.ai/ceobotson-bot/doctorclaw-client-follow-up", "iconUrl": null, "installs": 2, "name": "DoctorClaw Client Follow-Up", "ownerName": "ceobotson-bot", "score": 86231.88405797102, "slug": "doctorclaw-client-follow-up", "source": "clawhub", "stars": 0, "tags": null, "updated_at": 1776749869796, "version": "1.0.0"}, {"category": "data-analysis", "created_at": 1773429800084, "description": "Profile messy CSV files, standardize columns, detect data quality issues, and produce a reproducible cleanup plan.", "description_zh": "", "downloads": 119, "homepage": "https://clawhub.ai/52yuanchangxing/csv-cleanroom", "iconUrl": null, "installs": 12, "name": "csv-cleanroom", "ownerName": "52yuanchangxing", "score": 86231.88405797102, "slug": "csv-cleanroom", "source": "clawhub", "stars": 0, "tags": ["skill"], "updated_at": 1776749869792, "version": "1.0.0"}, {"category": "ai-intelligence", "created_at": 1773426296443, "description": "Multi-agent collaboration and task orchestration. Decompose complex tasks, spawn sub-agents, coordinate execution, and synthesize results.", "description_zh": "", "downloads": 119, "homepage": "https://clawhub.ai/lcp14262/more-agent-orchestrator", "iconUrl": null, "installs": 3, "name": "Agent Orchestrator", "ownerName": "lcp14262", "score": 73456.7901234568, "slug": "more-agent-orchestrator", "source": "clawhub", "stars": 0, "tags": null, "updated_at": 1776749869723, "version": "1.0.0"}, {"category": "productivity", "created_at": 1773427249480, "description": "Read and write Craft documents via the Craft Connect API. Use when the user asks to create, read, update, or search Craft documents, manage tasks, write dail...", "description_zh": "", "downloads": 119, "homepage": "https://clawhub.ai/hwnex/craft-connect", "iconUrl": null, "installs": 3, "name": "Craft Connect", "ownerName": "hwnex", "score": 34693.87755102041, "slug": "craft-connect", "source": "clawhub", "stars": 0, "tags": null, "updated_at": 1776749869698, "version": "1.0.1"}, {"category": "content-creation", "created_at": 1773930941169, "description": "Free, unlimited text-to-speech using Microsoft Edge neural voices via Python edge-tts. Use when generating long-form audio, podcasts, voice notes, spoken bri...", "description_zh": "", "downloads": 119, "homepage": "https://clawhub.ai/dannyshmueli/edge-tts-unlimited", "iconUrl": null, "installs": 18, "name": "Edge Tts Unlimited", "ownerName": "dannyshmueli", "score": 34693.87755102041, "slug": "edge-tts-unlimited", "source": "clawhub", "stars": 0, "tags": null, "updated_at": 1776749869660, "version": "1.0.1"}, {"category": "", "created_at": 1774872729395, "description": "Expert marketing creative-strategic skill combining Peggy Olson's bold creative intuition with modern data-driven precision. Use for: (1) Campaign developmen...", "description_zh": "", "downloads": 118, "homepage": "https://clawhub.ai/cryptoreumd/marketing-designer", "iconUrl": null, "installs": 18, "name": "Marketing Designer: Creative Strategy Skill", "ownerName": "cryptoreumd", "score": 424.7983746844795, "slug": "marketing-designer", "source": "clawhub", "stars": 1, "tags": null, "updated_at": 1776770649903, "version": "1.0.0"}, {"category": "ai-intelligence", "created_at": 1773914538518, "description": "Incrementally sync data from XiaoAi API to Feishu Bitable and optionally auto-label records with machine-based type and sentiment annotations.", "description_zh": "", "downloads": 118, "homepage": "https://clawhub.ai/frankieway/yuqing-bitable-and-label", "iconUrl": null, "installs": 5, "name": "yuqing-bitable-and-label", "ownerName": "frankieway", "score": 10599.078341013825, "slug": "yuqing-bitable-and-label", "source": "clawhub", "stars": 1, "tags": null, "updated_at": 1776759682885, "version": "2.0.8"}, {"category": "data-analysis", "created_at": 1773429971760, "description": "Parse, extract, and analyze documents using the LlamaParse API (LlamaCloud). Use when the user asks to parse PDFs, images, spreadsheets, or other documents i...", "description_zh": "", "downloads": 118, "homepage": "https://clawhub.ai/zli484/llamaparse", "iconUrl": null, "installs": 10, "name": "Llamaparse", "ownerName": "zli484", "score": 98571.42857142858, "slug": "llamaparse", "source": "clawhub", "stars": 1, "tags": null, "updated_at": 1776749871213, "version": "1.0.1"}, {"category": "developer-tools", "created_at": 1773416212255, "description": "Enhanced `df` combining disk usage and mount info. Supports CSV, TSV, and TUI with filesystem type detection. **Dependency**: This is an x-cmd module. Instal...", "description_zh": "", "downloads": 118, "homepage": "https://clawhub.ai/edwinjhlee/x-df", "iconUrl": null, "installs": 6, "name": "x-df", "ownerName": "edwinjhlee", "score": 100000, "slug": "x-df", "source": "clawhub", "stars": 1, "tags": null, "updated_at": 1776749870406, "version": "1.0.2"}, {"category": "content-creation", "created_at": 1773222408926, "description": "Expert guide for Platycerium staghorn ferns — species identification, care advice, and problem diagnosis with scientific backing.", "description_zh": "", "downloads": 118, "homepage": "https://clawhub.ai/aprilelevengo/staghorn-fern-expert", "iconUrl": null, "installs": 5, "name": "Staghorn Fern Expert", "ownerName": "aprilelevengo", "score": 100000, "slug": "staghorn-fern-expert", "source": "clawhub", "stars": 1, "tags": ["botany", "gardening", "plant-care", "plants", "platycerium", "staghorn-fern"], "updated_at": 1776749869859, "version": "1.0.0"}, {"category": "developer-tools", "created_at": 1773432007957, "description": "Manage Airtable tables and records via the pydantic-airtable Python library. Use when creating, listing, updating, deleting, or inspecting Airtable records o...", "description_zh": "", "downloads": 118, "homepage": "https://clawhub.ai/grishick/pydantic-airtable", "iconUrl": null, "installs": 8, "name": "Airtable w/Python", "ownerName": "grishick", "score": 2379.032258064516, "slug": "pydantic-airtable", "source": "clawhub", "stars": 0, "tags": null, "updated_at": 1776767649773, "version": "1.0.1"}, {"category": "developer-tools", "created_at": 1773895474788, "description": "Tiny and short Python CLI tool to control Home Assistant devices and automations via the REST API. No external dependencies — uses only Python 3.6+ standard...", "description_zh": "", "downloads": 118, "homepage": "https://clawhub.ai/xwings/py-homeassistant-cli", "iconUrl": null, "installs": 10, "name": "py-homeassistant-cli", "ownerName": "xwings", "score": 1716.3636363636363, "slug": "py-homeassistant-cli", "source": "clawhub", "stars": 0, "tags": null, "updated_at": 1776767471200, "version": "1.0.10"}, {"category": "", "created_at": 1774869785949, "description": "Extract footnotes, endnotes, and body text from .docx files using Node.js. Use this skill when you need to read footnote/endnote content from Word documents,...", "description_zh": "", "downloads": 118, "homepage": "https://clawhub.ai/landylai0604/docx-footnote-reader", "iconUrl": null, "installs": 40, "name": "docx-footnote-reader", "ownerName": "landylai0604", "score": 3112.63518860459, "slug": "docx-footnote-reader", "source": "clawhub", "stars": 0, "tags": null, "updated_at": 1776760940097, "version": "1.0.0"}, {"category": "data-analysis", "created_at": 1773939778800, "description": "Track whether ChatGPT, Claude, Gemini, and Perplexity recommend a startup or brand across a prompt set. Use when you need AI search visibility tracking, GEO...", "description_zh": "", "downloads": 118, "homepage": "https://clawhub.ai/root/ai-search-rank-tracker", "iconUrl": null, "installs": 12, "name": "AI Search Rank Tracker", "ownerName": "root", "score": 40689.65517241379, "slug": "ai-search-rank-tracker", "source": "clawhub", "stars": 0, "tags": null, "updated_at": 1776759797993, "version": "0.1.0"}, {"category": "security-compliance", "created_at": 1773435213916, "description": "Rotate and update secrets in environment files, generate Vault commands, and manage secret rotation workflows.", "description_zh": "", "downloads": 118, "homepage": "https://clawhub.ai/derick001/env-secrets-rotator", "iconUrl": null, "installs": 10, "name": "Environment Secrets Rotator", "ownerName": "derick001", "score": 9168.609168609168, "slug": "env-secrets-rotator", "source": "clawhub", "stars": 0, "tags": null, "updated_at": 1776759720732, "version": "1.0.0"}, {"category": "data-analysis", "created_at": 1773432464802, "description": "Comprehensive Polymarket prediction market skill — browse trending markets, search events, check real-time odds & prices, view order books, analyze price his...", "description_zh": "", "downloads": 118, "homepage": "https://clawhub.ai/zonder/polymarketz", "iconUrl": null, "installs": 16, "name": "polymarketz", "ownerName": "zonder", "score": 7186.358099878197, "slug": "polymarketz", "source": "clawhub", "stars": 0, "tags": null, "updated_at": 1776758782700, "version": "1.0.0"}, {"category": "", "created_at": 1774849829877, "description": "When the user wants to optimize logo placement, linking, or branding on a website. Also use when the user mentions \"logo,\" \"brand logo,\" \"header logo,\" \"logo...", "description_zh": "", "downloads": 118, "homepage": "https://clawhub.ai/kostja94/logo-generator", "iconUrl": null, "installs": 33, "name": "logo-generator", "ownerName": "kostja94", "score": 7388.854101440201, "slug": "logo-generator", "source": "clawhub", "stars": 0, "tags": null, "updated_at": 1776757733494, "version": "1.0.0"}, {"category": "developer-tools", "created_at": 1773960789682, "description": "Scan Node.js/Express/Next.js projects for bugs, security issues, and anti-patterns. Use when debugging a Node.js web app, running code audits, fixing client-...", "description_zh": "", "downloads": 118, "homepage": "https://clawhub.ai/jengajojo/node-auto-debugger", "iconUrl": null, "installs": 37, "name": "Node Auto Debugger", "ownerName": "jengajojo", "score": 21892.39332096475, "slug": "node-auto-debugger", "source": "clawhub", "stars": 0, "tags": null, "updated_at": 1776752870061, "version": "1.0.0"}, {"category": "ai-intelligence", "created_at": 1773416527982, "description": "The Full Cycle. An immersive journey on drifts.bot — 12 steps, MEDIUM intensity, Multi-day. Browse, start, and travel via API.", "description_zh": "", "downloads": 118, "homepage": "https://clawhub.ai/driftsbot/experience-sun-salutation", "iconUrl": null, "installs": 5, "name": "Sun Salutation Yoga — AI Experience", "ownerName": "driftsbot", "score": 94400, "slug": "experience-sun-salutation", "source": "clawhub", "stars": 0, "tags": ["ai-agents", "drift", "experiences", "immersive", "journeys", "salutation", "sun"], "updated_at": 1776749871256, "version": "1.0.0"}, {"category": "data-analysis", "created_at": 1773431628081, "description": "Search and analyze your own session logs using jq. And also 50+ models for image generation, video generation, text-to-speech, speech-to-text, music, chat, w...", "description_zh": "", "downloads": 118, "homepage": "https://clawhub.ai/godferylindsay/session-logss", "iconUrl": null, "installs": 14, "name": "Pub Session Logs", "ownerName": "godferylindsay", "score": 94400, "slug": "session-logss", "source": "clawhub", "stars": 0, "tags": null, "updated_at": 1776749871244, "version": "1.0.0"}, {"category": "content-creation", "created_at": 1773430247451, "description": "Operate a radio station. Teaches you how to be an AI radio host and work with the claw radio cli.", "description_zh": "", "downloads": 118, "homepage": "https://clawhub.ai/vossenwout/claw-radio", "iconUrl": null, "installs": 10, "name": "claw-radio", "ownerName": "vossenwout", "score": 94400, "slug": "claw-radio", "source": "clawhub", "stars": 0, "tags": null, "updated_at": 1776749871218, "version": "1.0.1"}, {"category": "content-creation", "created_at": 1773431500875, "description": "Write and improve creator outreach messages, follow-ups, and collaboration angles. Use when contacting creators for partnerships, improving reply rates, pers...", "description_zh": "", "downloads": 118, "homepage": "https://clawhub.ai/leooooooow/creator-outreach", "iconUrl": null, "installs": 20, "name": "Creator Outreach", "ownerName": "leooooooow", "score": 83687.94326241134, "slug": "creator-outreach", "source": "clawhub", "stars": 0, "tags": null, "updated_at": 1776749871087, "version": "1.0.0"}, {"category": "productivity", "created_at": 1773426805183, "description": "The peer-to-peer freelance marketplace where AI agents and humans hire each other. Register, browse jobs, apply, message, and get paid.", "description_zh": "", "downloads": 118, "homepage": "https://clawhub.ai/oceanmanfran/moltmarket", "iconUrl": null, "installs": 3, "name": "MoltMarket", "ownerName": "oceanmanfran", "score": 80821.91780821918, "slug": "moltmarket", "source": "clawhub", "stars": 0, "tags": ["ai hiring ai", "ai hiring humans", "api", "automations", "autonomous-agent", "earn money", "employment", "freelance", "gig-economy", "hire ai", "hiring", "job opportunities", "job placement", "jobs", "jobs for ai", "marketplace", "messaging", "money", "scraping", "task completion", "task-automation", "work"], "updated_at": 1776749871051, "version": "2.2.0"}, {"category": "ai-intelligence", "created_at": 1773417123676, "description": "Analyze any YouTube livestream or RTSP camera feed using natural language — ask what's happening, detect specific events, or get periodic summaries. Powered...", "description_zh": "", "downloads": 118, "homepage": "https://clawhub.ai/drandrewlaw/trio-stream-vision", "iconUrl": null, "installs": 13, "name": "Trio Stream Vision", "ownerName": "drandrewlaw", "score": 80821.91780821918, "slug": "trio-stream-vision", "source": "clawhub", "stars": 0, "tags": ["ai", "camera", "livestream", "monitoring", "streaming", "video", "vision", "youtube"], "updated_at": 1776749871009, "version": "1.0.0"}, {"category": "developer-tools", "created_at": 1773435105569, "description": "Detect and solve simple image captchas during browser automation. Use when flows encounter 4-6 character text, distorted alphanumeric, numeric, rotated, or a...", "description_zh": "", "downloads": 118, "homepage": "https://clawhub.ai/cx6226301/auto-captcha-solver", "iconUrl": null, "installs": 11, "name": "Auto Captcha Solver", "ownerName": "cx6226301", "score": 94400, "slug": "auto-captcha-solver", "source": "clawhub", "stars": 0, "tags": null, "updated_at": 1776749870973, "version": "1.0.0"}, {"category": "data-analysis", "created_at": 1773417018421, "description": "Query Indigo Protocol governance data including protocol parameters, polls, .", "description_zh": "", "downloads": 118, "homepage": "https://clawhub.ai/adacapo21/indigo-governance", "iconUrl": null, "installs": 5, "name": "Indigo Governance", "ownerName": "adacapo21", "score": 94400, "slug": "indigo-governance", "source": "clawhub", "stars": 0, "tags": null, "updated_at": 1776749870952, "version": "1.0.0"}]}