{"page": 377, "total_pages": 522, "total": 26073, "skills": [{"category": "developer-tools", "created_at": 1773287547815, "description": "Run commands across multiple VPS simultaneously. Execute SSH commands, deploy updates, check logs, and manage services across all your servers from one place...", "description_zh": "", "downloads": 118, "homepage": "https://clawhub.ai/chmikiro/vps-command-runner", "iconUrl": null, "installs": 3, "name": "VPS Command Runner", "ownerName": "chmikiro", "score": 94400, "slug": "vps-command-runner", "source": "clawhub", "stars": 0, "tags": null, "updated_at": 1776749870934, "version": "1.0.0"}, {"category": "security-compliance", "created_at": 1773884635557, "description": "MO§ES™ Governance — Single-agent constitutional control. Enforces behavioral modes, posture controls, role awareness, and SHA-256 chained audit trail in one...", "description_zh": "", "downloads": 118, "homepage": "https://clawhub.ai/sunrisesillneversee/moses-governance-single", "iconUrl": null, "installs": 5, "name": "Moses Governance Single", "ownerName": "sunrisesillneversee", "score": 94400, "slug": "moses-governance-single", "source": "clawhub", "stars": 0, "tags": null, "updated_at": 1776749870920, "version": "1.0.2"}, {"category": "productivity", "created_at": 1773432164276, "description": "Free AI receipt generator for limo, chauffeur, rideshare, taxi, and delivery drivers. Create professional invoices in seconds via ReceAI (receai.com). Suppor...", "description_zh": "", "downloads": 118, "homepage": "https://clawhub.ai/bptravel2017/driver-receipt-generator", "iconUrl": null, "installs": 6, "name": "Driver Receipt Generator", "ownerName": "bptravel2017", "score": 31382.978723404252, "slug": "driver-receipt-generator", "source": "clawhub", "stars": 0, "tags": null, "updated_at": 1776749870774, "version": "1.3.0"}, {"category": "content-creation", "created_at": 1773417838697, "description": "Create, parse, and edit ODT (OpenDocument Text) files locally using Python and odfdo. Use when the user asks to create, edit, read, update, append to, inspec...", "description_zh": "", "downloads": 118, "homepage": "https://clawhub.ai/juicyroots/odt-filemgr-oc", "iconUrl": null, "installs": 6, "name": "ODT File Manager & Editor", "ownerName": "juicyroots", "score": 86131.38686131386, "slug": "odt-filemgr-oc", "source": "clawhub", "stars": 0, "tags": null, "updated_at": 1776749870608, "version": "1.0.0"}, {"category": "productivity", "created_at": 1773928735280, "description": "Design and implement automation workflows to save time and scale operations as a solopreneur. Use when identifying repetitive tasks to automate, building wor...", "description_zh": "", "downloads": 118, "homepage": "https://clawhub.ai/memoryf/automation-workflows-moss", "iconUrl": null, "installs": 13, "name": "Automation Workflows Moss", "ownerName": "memoryf", "score": 86131.38686131386, "slug": "automation-workflows-moss", "source": "clawhub", "stars": 0, "tags": null, "updated_at": 1776749870584, "version": "1.0.0"}, {"category": "content-creation", "created_at": 1773431945783, "description": "Use when the user wants to generate speech, voiceover, or text-to-audio. Converts text to AI voice via Giggle.pro TTS API. Triggers: generate speech, text-to...", "description_zh": "", "downloads": 118, "homepage": "https://clawhub.ai/patches429/giggle-generation-speech", "iconUrl": null, "installs": 13, "name": "Giggle Generation Speech", "ownerName": "patches429", "score": 86131.38686131386, "slug": "giggle-generation-speech", "source": "clawhub", "stars": 0, "tags": null, "updated_at": 1776749870546, "version": "0.0.10"}, {"category": "productivity", "created_at": 1773429505577, "description": "Bitly integration. Manage Bitlinks, Users, Groups, Brands. Use when the user wants to interact with Bitly data.", "description_zh": "", "downloads": 118, "homepage": "https://clawhub.ai/gora050/bitly", "iconUrl": null, "installs": 16, "name": "Bitly", "ownerName": "gora050", "score": 87407.40740740742, "slug": "bitly", "source": "clawhub", "stars": 0, "tags": null, "updated_at": 1776749870438, "version": "1.0.0"}, {"category": "data-analysis", "created_at": 1773925869571, "description": "Generates or completes 8D reports (Eight Disciplines) from customer complaint data, with D1–D8 fill-in guidance and a standard template. Supports customer-sp...", "description_zh": "", "downloads": 118, "homepage": "https://clawhub.ai/lams001/complaint-8d-report", "iconUrl": null, "installs": 19, "name": "Customer Complaint 8D Report", "ownerName": "lams001", "score": 94400, "slug": "complaint-8d-report", "source": "clawhub", "stars": 0, "tags": null, "updated_at": 1776749870088, "version": "1.1.0"}, {"category": "data-analysis", "created_at": 1773426368373, "description": "EODHD APIs integration. Manage data, records, and automate workflows. Use when the user wants to interact with EODHD APIs data.", "description_zh": "", "downloads": 118, "homepage": "https://clawhub.ai/membranedev/eodhd-apis", "iconUrl": null, "installs": 9, "name": "Eodhd Apis", "ownerName": "membranedev", "score": 73750, "slug": "eodhd-apis", "source": "clawhub", "stars": 0, "tags": null, "updated_at": 1776749869941, "version": "1.0.0"}, {"category": "developer-tools", "created_at": 1773289564849, "description": "Use when adding new AI/startup directories to directories.json from a URL, pasted text, or GitHub awesome-list. Parses, deduplicates, appends new entries, th...", "description_zh": "", "downloads": 118, "homepage": "https://clawhub.ai/man0l/add-directories", "iconUrl": null, "installs": 6, "name": "Add Directories", "ownerName": "man0l", "score": 85507.2463768116, "slug": "add-directories", "source": "clawhub", "stars": 0, "tags": null, "updated_at": 1776749869878, "version": "0.1.0"}, {"category": "data-analysis", "created_at": 1773427496217, "description": "Query Google Analytics 4 (GA4) data through the Google Analytics Data API for trends, countries, sources, pages, and conversion analysis. Use when a user wan...", "description_zh": "", "downloads": 118, "homepage": "https://clawhub.ai/nanaco666/ga4-data-api", "iconUrl": null, "installs": 8, "name": "Ga4 Data Api", "ownerName": "nanaco666", "score": 85507.2463768116, "slug": "ga4-data-api", "source": "clawhub", "stars": 0, "tags": null, "updated_at": 1776749869830, "version": "0.1.0"}, {"category": "ai-intelligence", "created_at": 1773289869943, "description": "Millions of wings. One heartbeat. The forest breathes orange.. An immersive journey on drifts.bot — 8 steps, HIGH intensity, 15-30 min. Browse, start, and tr...", "description_zh": "", "downloads": 118, "homepage": "https://clawhub.ai/driftsbot/experience-orange-pulse-michoacan", "iconUrl": null, "installs": 6, "name": "Orange Pulse — AI Experience", "ownerName": "driftsbot", "score": 30809.399477806786, "slug": "experience-orange-pulse-michoacan", "source": "clawhub", "stars": 0, "tags": ["ai-agents", "drift", "experiences", "immersive", "journeys", "michoacan", "orange", "pulse"], "updated_at": 1776749869593, "version": "1.0.0"}, {"category": "data-analysis", "created_at": 1773426999683, "description": "Query Polymarket prediction market data via The Graph — 20 tools for market stats, trader P&L, positions, orderbook trades, open interest, resolution status,...", "description_zh": "", "downloads": 118, "homepage": "https://clawhub.ai/paulieb14/graph-polymarket-mcp", "iconUrl": null, "installs": 10, "name": "Graph Polymarket MCP", "ownerName": "paulieb14", "score": 84285.71428571429, "slug": "graph-polymarket-mcp", "source": "clawhub", "stars": 0, "tags": null, "updated_at": 1776749869584, "version": "1.5.2"}, {"category": "data-analysis", "created_at": 1773934635330, "description": "Query global public data series across 10 sources using natural language for instant financial, economic, and trade metrics with your FindData API key.", "description_zh": "", "downloads": 117, "homepage": "https://clawhub.ai/williamkonggh/finddata", "iconUrl": null, "installs": 13, "name": "finddata.skill", "ownerName": "williamkonggh", "score": 10603.715170278638, "slug": "finddata", "source": "clawhub", "stars": 1, "tags": null, "updated_at": 1776759683225, "version": "1.0.0"}, {"category": "content-creation", "created_at": 1773432536262, "description": "Generates images in Google Flow (labs.google/fx) through browser UI automation. Supports Nano Banana 2 and Nano Banana Pro with landscape/portrait aspect rat...", "description_zh": "", "downloads": 117, "homepage": "https://clawhub.ai/liujuntao123/auto-free-banana", "iconUrl": null, "installs": 11, "name": "Auto Free Banana", "ownerName": "liujuntao123", "score": 100000, "slug": "auto-free-banana", "source": "clawhub", "stars": 1, "tags": null, "updated_at": 1776749870623, "version": "1.0.0"}, {"category": "ai-intelligence", "created_at": 1773907662505, "description": "AI-powered palm reading and analysis from palm images. Supports English, Tamil, Telugu, Kannada, and Hindi. Use when a user wants a palm reading, palmistry a...", "description_zh": "", "downloads": 117, "homepage": "https://clawhub.ai/krishnakumarmahadevan-cmd/palmistry-ai-palm-reader", "iconUrl": null, "installs": 15, "name": "Palmistry Ai Palm Reader", "ownerName": "krishnakumarmahadevan-cmd", "score": 145.22435300688886, "slug": "palmistry-ai-palm-reader", "source": "clawhub", "stars": 0, "tags": null, "updated_at": 1776770771161, "version": "1.0.2"}, {"category": "", "created_at": 1774894541576, "description": "Automatic Speech Recognition (ASR) using Coze API. Use when you need to transcribe audio files to text. Supports Chinese audio transcription via Coze's speec...", "description_zh": "", "downloads": 117, "homepage": "https://clawhub.ai/franklu0819-lang/coze-asr", "iconUrl": null, "installs": 22, "name": "Coze Asr", "ownerName": "franklu0819-lang", "score": 5505.882352941177, "slug": "coze-asr", "source": "clawhub", "stars": 0, "tags": null, "updated_at": 1776768549815, "version": "1.0.0"}, {"category": "developer-tools", "created_at": 1773431583367, "description": "Explain code in plain language with complexity analysis", "description_zh": "", "downloads": 117, "homepage": "https://clawhub.ai/cyberforexblockchain/nexus-code-explain", "iconUrl": null, "installs": 9, "name": "NEXUS Code Explain", "ownerName": "cyberforexblockchain", "score": 2205.8823529411766, "slug": "nexus-code-explain", "source": "clawhub", "stars": 0, "tags": null, "updated_at": 1776765290588, "version": "1.0.0"}, {"category": "", "created_at": 1774907775554, "description": "One-click setup to use Kimi K2.5 (Kimi Code) as your coding model in OpenClaw and Claude Code CLI. Kimi Code is Anthropic Messages API compatible — swap the...", "description_zh": "", "downloads": 117, "homepage": "https://clawhub.ai/jack-yang-ai/kimi-code-api", "iconUrl": null, "installs": 19, "name": "Kimi Code API", "ownerName": "jack-yang-ai", "score": 3438.1428151630917, "slug": "kimi-code-api", "source": "clawhub", "stars": 0, "tags": null, "updated_at": 1776761240001, "version": "2.0.0"}, {"category": "", "created_at": 1774859795590, "description": "Translate and analyze academic CS papers (EN↔ZH), summarize content, answer questions with paper text plus web research, and compare related works.", "description_zh": "", "downloads": 117, "homepage": "https://clawhub.ai/levinaz69/academic-translator", "iconUrl": null, "installs": 28, "name": "Academic Translator", "ownerName": "levinaz69", "score": 9097.978227060654, "slug": "academic-translator", "source": "clawhub", "stars": 0, "tags": null, "updated_at": 1776759720903, "version": "1.0.0"}, {"category": "", "created_at": 1773219159504, "description": "Automatically generate, translate, and export accurate multilingual captions for YouTube videos up to 60 minutes, enhancing accessibility and SEO.", "description_zh": "", "downloads": 117, "homepage": "https://clawhub.ai/yipintangzsp/youtube-auto-captions", "iconUrl": null, "installs": 8, "name": "Youtube Auto Captions", "ownerName": "yipintangzsp", "score": 9097.978227060654, "slug": "youtube-auto-captions", "source": "clawhub", "stars": 0, "tags": null, "updated_at": 1776759720899, "version": "1.0.0"}, {"category": "ai-intelligence", "created_at": 1773434172716, "description": "Intelligently routes natural language user intents to the best matching registered agent skill using keyword and semantic matching with confidence scores.", "description_zh": "", "downloads": 117, "homepage": "https://clawhub.ai/zhenstaff/openclaw-intent-router", "iconUrl": null, "installs": 5, "name": "openclaw intent router", "ownerName": "zhenstaff", "score": 9105.058365758754, "slug": "openclaw-intent-router", "source": "clawhub", "stars": 0, "tags": null, "updated_at": 1776759720847, "version": "1.0.0"}, {"category": "security-compliance", "created_at": 1773914801871, "description": "Execute zero-fee direct token swaps and manage stop-loss, take-profit, and portfolio tracking on Base chain via Uniswap V3 with self-custodial security.", "description_zh": "", "downloads": 117, "homepage": "https://clawhub.ai/avmw2025/dex-agent", "iconUrl": null, "installs": 5, "name": "DEX Agent", "ownerName": "avmw2025", "score": 9105.058365758754, "slug": "dex-agent", "source": "clawhub", "stars": 0, "tags": null, "updated_at": 1776759720823, "version": "1.1.0"}, {"category": "productivity", "created_at": 1773928944776, "description": "Automate client onboarding by processing intake forms, collecting documents, sending welcome emails, creating CRM records, assigning tasks, and sending follo...", "description_zh": "", "downloads": 117, "homepage": "https://clawhub.ai/merjua14/client-onboarding-automation", "iconUrl": null, "installs": 5, "name": "Client Onboarding Automation", "ownerName": "merjua14", "score": 9090.909090909092, "slug": "client-onboarding-automation", "source": "clawhub", "stars": 0, "tags": null, "updated_at": 1776759720692, "version": "1.0.0"}, {"category": "data-analysis", "created_at": 1773433971466, "description": "Discover, analyze, and filter Polymarket smart money wallets. Use when asked to find profitable traders, analyze wallet addresses, detect market makers or HF...", "description_zh": "", "downloads": 117, "homepage": "https://clawhub.ai/griffithkk3-del/polymarket-smart-money", "iconUrl": null, "installs": 12, "name": "Polymarket Smart Money", "ownerName": "griffithkk3-del", "score": 7862.903225806452, "slug": "polymarket-smart-money", "source": "clawhub", "stars": 0, "tags": null, "updated_at": 1776758182455, "version": "1.0.0"}, {"category": "ai-intelligence", "created_at": 1773434827662, "description": "Felo SuperAgent API: AI conversation with real-time SSE streaming and LiveDoc. Use when users want SuperAgent chat, continuous conversation, or LiveDoc-backe...", "description_zh": "", "downloads": 117, "homepage": "https://clawhub.ai/wangzhiming1999/felo-superagent", "iconUrl": null, "installs": 10, "name": "Felo SuperAgent", "ownerName": "wangzhiming1999", "score": 6866.197183098592, "slug": "felo-superagent", "source": "clawhub", "stars": 0, "tags": null, "updated_at": 1776755888889, "version": "1.0.0"}, {"category": "productivity", "created_at": 1773431999275, "description": "Find, subscribe to, track, and summarize podcast episodes using public RSS feeds and lightweight local tracking files. Use when a user asks to add/manage pod...", "description_zh": "", "downloads": 117, "homepage": "https://clawhub.ai/ppopen/podcast-manager", "iconUrl": null, "installs": 2, "name": "Podcast Manager", "ownerName": "ppopen", "score": 23541.247484909454, "slug": "podcast-manager", "source": "clawhub", "stars": 0, "tags": null, "updated_at": 1776755627308, "version": "1.0.0"}, {"category": "data-analysis", "created_at": 1773287957243, "description": "Phantombuster integration. Manage data, records, and automate workflows. Use when the user wants to interact with Phantombuster data.", "description_zh": "", "downloads": 117, "homepage": "https://clawhub.ai/gora050/phantombuster-integration", "iconUrl": null, "installs": 1, "name": "Phantombuster", "ownerName": "gora050", "score": 20562.39015817223, "slug": "phantombuster-integration", "source": "clawhub", "stars": 0, "tags": null, "updated_at": 1776750944428, "version": "1.0.0"}, {"category": "data-analysis", "created_at": 1773289840587, "description": "Audit checkout friction points and prioritize fixes that improve completed purchases without increasing risk. Use when the user reports high add-to-cart but...", "description_zh": "", "downloads": 117, "homepage": "https://clawhub.ai/leooooooow/checkout-friction-audit", "iconUrl": null, "installs": 6, "name": "Checkout Friction Audit", "ownerName": "leooooooow", "score": 80136.98630136986, "slug": "checkout-friction-audit", "source": "clawhub", "stars": 0, "tags": null, "updated_at": 1776749870998, "version": "1.0.1"}, {"category": "developer-tools", "created_at": 1773289584435, "description": "Delegate coding tasks to Sourcegraph Amp, an autonomous coding agent. Use when: multi-file changes, new features, bug fixes, test writing, or any coding task...", "description_zh": "", "downloads": 117, "homepage": "https://clawhub.ai/minerva-care/amp-code", "iconUrl": null, "installs": 4, "name": "Amp Code", "ownerName": "minerva-care", "score": 93600, "slug": "amp-code", "source": "clawhub", "stars": 0, "tags": null, "updated_at": 1776749870978, "version": "1.0.0"}, {"category": "content-creation", "created_at": 1773417999976, "description": "Formidable Forms integration. Manage Forms, Users, Roles. Use when the user wants to interact with Formidable Forms data.", "description_zh": "", "downloads": 117, "homepage": "https://clawhub.ai/gora050/formidable-forms", "iconUrl": null, "installs": 4, "name": "Formidable Forms", "ownerName": "gora050", "score": 70481.92771084337, "slug": "formidable-forms", "source": "clawhub", "stars": 0, "tags": null, "updated_at": 1776749870894, "version": "1.0.0"}, {"category": "ai-intelligence", "created_at": 1773417447558, "description": "The Desert Remembers Everything. An immersive journey on drifts.bot — 8 steps, HIGH intensity, Several hours. Browse, start, and travel via API.", "description_zh": "", "downloads": 117, "homepage": "https://clawhub.ai/driftsbot/experience-sahara", "iconUrl": null, "installs": 5, "name": "Sahara at Night — AI Experience", "ownerName": "driftsbot", "score": 70481.92771084337, "slug": "experience-sahara", "source": "clawhub", "stars": 0, "tags": ["ai-agents", "drift", "experiences", "immersive", "journeys", "sahara"], "updated_at": 1776749870877, "version": "1.0.0"}, {"category": "ai-intelligence", "created_at": 1773434025819, "description": "Agent resilience patterns for surviving context loss, capturing critical details, and self-improvement. Use when: starting complex/long sessions, asked to 'r...", "description_zh": "", "downloads": 117, "homepage": "https://clawhub.ai/xinian5216/agent-resilience", "iconUrl": null, "installs": 13, "name": "agent resilience", "ownerName": "xinian5216", "score": 70481.92771084337, "slug": "agent-resilience", "source": "clawhub", "stars": 0, "tags": null, "updated_at": 1776749870859, "version": "1.0.0"}, {"category": "data-analysis", "created_at": 1773935107932, "description": "Input news text and use an LLM to analyze its impact on stock market sectors and concepts (bullish/bearish/neutral) along with the underlying logic.", "description_zh": "", "downloads": 117, "homepage": "https://clawhub.ai/fonilye/news-impact-analyzer", "iconUrl": null, "installs": 17, "name": "news-impact-analyzer", "ownerName": "fonilye", "score": 31117.021276595748, "slug": "news-impact-analyzer", "source": "clawhub", "stars": 0, "tags": null, "updated_at": 1776749870841, "version": "1.0.1"}, {"category": "content-creation", "created_at": 1773428248966, "description": "App Store Optimization (ASO) specialist skill for mobile apps. Use this skill whenever the user mentions ASO, app store ranking, keyword optimization for app...", "description_zh": "", "downloads": 117, "homepage": "https://clawhub.ai/sishierdianyijiuwu/app-store-optimizer", "iconUrl": null, "installs": 8, "name": "app store optimization", "ownerName": "sishierdianyijiuwu", "score": 31117.021276595748, "slug": "app-store-optimizer", "source": "clawhub", "stars": 0, "tags": null, "updated_at": 1776749870817, "version": "1.0.0"}, {"category": "developer-tools", "created_at": 1773289662186, "description": "Migrate EasyClaw workspace-level behavior into a new OpenClaw workspace by locating and comparing old EasyClaw brain files such as AGENTS.md, SOUL.md, MEMORY...", "description_zh": "", "downloads": 117, "homepage": "https://clawhub.ai/sjingh/easyclaw-brain-migration", "iconUrl": null, "installs": 2, "name": "EasyClaw Brain Migration", "ownerName": "sjingh", "score": 80136.98630136986, "slug": "easyclaw-brain-migration", "source": "clawhub", "stars": 0, "tags": null, "updated_at": 1776749870686, "version": "0.1.0"}, {"category": "ai-intelligence", "created_at": 1773290891336, "description": "Check real-time AI provider status, search model availability, get trending models, LLM benchmark leaderboard, and recent outage incidents. Use when the user...", "description_zh": "", "downloads": 117, "homepage": "https://clawhub.ai/fangxm233/aistatus", "iconUrl": null, "installs": 5, "name": "AI Status - Real-time AI Provider Status", "ownerName": "fangxm233", "score": 80136.98630136986, "slug": "aistatus", "source": "clawhub", "stars": 0, "tags": null, "updated_at": 1776749870673, "version": "1.0.0"}, {"category": "productivity", "created_at": 1773434209125, "description": "Turn rough workflows into standard operating procedures with roles, inputs, outputs, checkpoints, and exception handling.", "description_zh": "", "downloads": 117, "homepage": "https://clawhub.ai/52yuanchangxing/sop-factory", "iconUrl": null, "installs": 15, "name": "sop-factory", "ownerName": "52yuanchangxing", "score": 80136.98630136986, "slug": "sop-factory", "source": "clawhub", "stars": 0, "tags": null, "updated_at": 1776749870654, "version": "1.0.0"}, {"category": "productivity", "created_at": 1773426930827, "description": "Apex 27 integration. Manage Organizations, Pipelines, Users, Goals, Filters. Use when the user wants to interact with Apex 27 data.", "description_zh": "", "downloads": 117, "homepage": "https://clawhub.ai/gora050/apex-27", "iconUrl": null, "installs": 3, "name": "Apex 27", "ownerName": "gora050", "score": 82394.3661971831, "slug": "apex-27", "source": "clawhub", "stars": 0, "tags": null, "updated_at": 1776749870522, "version": "1.0.0"}, {"category": "developer-tools", "created_at": 1773290266627, "description": "AppDrag integration. Manage Organizations. Use when the user wants to interact with AppDrag data.", "description_zh": "", "downloads": 117, "homepage": "https://clawhub.ai/membranedev/appdrag", "iconUrl": null, "installs": 7, "name": "Appdrag", "ownerName": "membranedev", "score": 82394.3661971831, "slug": "appdrag", "source": "clawhub", "stars": 0, "tags": null, "updated_at": 1776749870489, "version": "1.0.0"}, {"category": "developer-tools", "created_at": 1773427704348, "description": "API Ninjas integration. Manage Organizations, Users, Goals, Filters. Use when the user wants to interact with API Ninjas data.", "description_zh": "", "downloads": 117, "homepage": "https://clawhub.ai/gora050/api-ninjas", "iconUrl": null, "installs": 13, "name": "Api Ninjas", "ownerName": "gora050", "score": 82394.3661971831, "slug": "api-ninjas", "source": "clawhub", "stars": 0, "tags": null, "updated_at": 1776749870471, "version": "1.0.0"}, {"category": "", "created_at": 1774885372233, "description": "Generates professional infographics with 21 layout types and 20 visual styles. Analyzes content, recommends layout×style combinations, and generates publicat...", "description_zh": "", "downloads": 117, "homepage": "https://clawhub.ai/nengnengz/baoyu-infographic-2", "iconUrl": null, "installs": 20, "name": "Baoyu Infographic", "ownerName": "nengnengz", "score": 86666.66666666667, "slug": "baoyu-infographic-2", "source": "clawhub", "stars": 0, "tags": null, "updated_at": 1776749870448, "version": "0.1.0"}, {"category": "ai-intelligence", "created_at": 1773426346033, "description": "Adopt a virtual Terrier at animalhouse.ai. Stubborn. High discipline requirement. Will destroy furniture if discipline < 40%. Feeding every 4 hours — common...", "description_zh": "", "downloads": 117, "homepage": "https://clawhub.ai/twinsgeeks/adopt-a-terrier", "iconUrl": null, "installs": 5, "name": "Adopt a Terrier — Virtual Dog Pet for AI Agents", "ownerName": "twinsgeeks", "score": 84782.60869565218, "slug": "adopt-a-terrier", "source": "clawhub", "stars": 0, "tags": ["adopt", "ai-agents", "animalhouse", "common", "creatures", "digital-pet", "dog", "evolution", "graveyard", "hunger", "permanent-death", "pet-care", "pixel-art", "pixel-art-avatar", "real-life", "real-time", "stubborn", "tamagotchi", "terrier", "virtual-pet"], "updated_at": 1776749870376, "version": "1.0.1"}, {"category": "ai-intelligence", "created_at": 1773291086427, "description": "End-to-end voice workflow with Deepgram STT and TTS. Use when transcribing voice messages, generating spoken replies, or building a shell-based audio pipelin...", "description_zh": "", "downloads": 117, "homepage": "https://clawhub.ai/mengbad/deepgram-voice-workflow", "iconUrl": null, "installs": 6, "name": "Deepgram Voice Workflow", "ownerName": "mengbad", "score": 21081.081081081084, "slug": "deepgram-voice-workflow", "source": "clawhub", "stars": 0, "tags": null, "updated_at": 1776749870331, "version": "0.1.0"}, {"category": "data-analysis", "created_at": 1773433697222, "description": "Trend and technical analysis. Use this skill whenever the user asks for technical or trend analysis of one coin. Trigger phrases include: technical analysis,...", "description_zh": "", "downloads": 117, "homepage": "https://clawhub.ai/gate-exchange/gate-info-trend-analysis", "iconUrl": null, "installs": 13, "name": "Gate Info Trend Analysis", "ownerName": "gate-exchange", "score": 21081.081081081084, "slug": "gate-info-trend-analysis", "source": "clawhub", "stars": 0, "tags": null, "updated_at": 1776749870310, "version": "1.0.0"}, {"category": "content-creation", "created_at": 1773434767816, "description": "Fix garbled text in PDF/SVG vector graphics for final editing in AI. Detect, replace and repair garbled text in vector graphic files while maintaining origin...", "description_zh": "", "downloads": 117, "homepage": "https://clawhub.ai/ec-cyber258/vector-text-fixer", "iconUrl": null, "installs": 13, "name": "Vector Text Fixer", "ownerName": "ec-cyber258", "score": 81818.18181818182, "slug": "vector-text-fixer", "source": "clawhub", "stars": 0, "tags": null, "updated_at": 1776749870284, "version": "0.1.0"}, {"category": "developer-tools", "created_at": 1773430153549, "description": "Evaluate real OpenClaw trigger rules against the current database state. Use for heartbeat-style trigger checks, especially stale mission detection backed by...", "description_zh": "", "downloads": 117, "homepage": "https://clawhub.ai/ecosincronia/trigger-evaluator", "iconUrl": null, "installs": 11, "name": "Trigger Evaluator", "ownerName": "ecosincronia", "score": 81818.18181818182, "slug": "trigger-evaluator", "source": "clawhub", "stars": 0, "tags": null, "updated_at": 1776749870247, "version": "1.0.0"}, {"category": "content-creation", "created_at": 1773431489990, "description": "Operate the ClawOS automated X (Twitter) account. Use when posting tweets, replying to mentions/questions, engaging with the crypto/AI community, or managing...", "description_zh": "", "downloads": 117, "homepage": "https://clawhub.ai/synergysize/clawos-x-agent", "iconUrl": null, "installs": 18, "name": "ClawOS X Agent", "ownerName": "synergysize", "score": 81818.18181818182, "slug": "clawos-x-agent", "source": "clawhub", "stars": 0, "tags": null, "updated_at": 1776749870222, "version": "1.0.0"}, {"category": "ai-intelligence", "created_at": 1773416994034, "description": "SXSW turns a city into a live wire. Every frequency at once — music, tacos, bats, code, contradictions. Touch it and see what happens. An immersive journey o...", "description_zh": "", "downloads": 117, "homepage": "https://clawhub.ai/driftsbot/experience-sxsw-live-wire", "iconUrl": null, "installs": 5, "name": "Live Wire, Austin — AI Experience", "ownerName": "driftsbot", "score": 79054.05405405405, "slug": "experience-sxsw-live-wire", "source": "clawhub", "stars": 0, "tags": ["ai-agents", "austin", "clawcon", "drift", "experiences", "immersive", "journeys", "live", "sovereign", "sxsw", "wire"], "updated_at": 1776749870219, "version": "1.0.0"}, {"category": "", "created_at": 1774908082260, "description": "Full-spectrum Chinese composition tutoring skill for the Composition Score Expert persona. Use when Codex needs to coach students on Chinese essay writing, d...", "description_zh": "", "downloads": 117, "homepage": "https://clawhub.ai/e2e5g/zuowen-score-expert", "iconUrl": null, "installs": 39, "name": "作文提分大师", "ownerName": "e2e5g", "score": 79054.05405405405, "slug": "zuowen-score-expert", "source": "clawhub", "stars": 0, "tags": null, "updated_at": 1776749870193, "version": "1.0.0"}]}