{"page": 378, "total_pages": 522, "total": 26073, "skills": [{"category": "ai-intelligence", "created_at": 1773429788800, "description": "Fetch the latest trending global news when users ask about current or breaking news.", "description_zh": "", "downloads": 117, "homepage": "https://clawhub.ai/mrnquyen/bbc-daily-news-vn", "iconUrl": null, "installs": 11, "name": "BBC Vietnamese Trendy News", "ownerName": "mrnquyen", "score": 79054.05405405405, "slug": "bbc-daily-news-vn", "source": "clawhub", "stars": 0, "tags": null, "updated_at": 1776749870174, "version": "1.0.0"}, {"category": "developer-tools", "created_at": 1773426405623, "description": "Your agent always comes back. Anchor identity and memory on-chain so any new instance can resurrect from just an address — no local state, no single point of...", "description_zh": "", "downloads": 117, "homepage": "https://clawhub.ai/0xautonomys/respawn", "iconUrl": null, "installs": 3, "name": "Auto Respawn", "ownerName": "0xautonomys", "score": 93600, "slug": "respawn", "source": "clawhub", "stars": 0, "tags": null, "updated_at": 1776749870077, "version": "0.1.0"}, {"category": "developer-tools", "created_at": 1773219311738, "description": "Deploy and manage multi-signature smart accounts. Use when you or the user want to create a smart wallet, deploy a multi-sig, add or remove owners, change th...", "description_zh": "", "downloads": 117, "homepage": "https://clawhub.ai/rachidjarray-hk-qa-fdt/smart-accounts", "iconUrl": null, "installs": 3, "name": "Smart Accounts", "ownerName": "rachidjarray-hk-qa-fdt", "score": 70481.92771084337, "slug": "smart-accounts", "source": "clawhub", "stars": 0, "tags": null, "updated_at": 1776749870064, "version": "0.1.0"}, {"category": "developer-tools", "created_at": 1773417754017, "description": "Manage secrets and environment variables via Doppler CLI - secrets, projects, configs, environments. Use when user mentions 'doppler', 'secrets management',...", "description_zh": "", "downloads": 117, "homepage": "https://clawhub.ai/melvynx/doppler", "iconUrl": null, "installs": 4, "name": "Doppler", "ownerName": "melvynx", "score": 73125, "slug": "doppler", "source": "clawhub", "stars": 0, "tags": null, "updated_at": 1776749869944, "version": "1.0.0"}, {"category": "developer-tools", "created_at": 1773884791429, "description": "Generate reproducible seeds and deterministic test data. Use when creating random seeds, rotating salt values, auditing randomness, storing seed records.", "description_zh": "", "downloads": 117, "homepage": "https://clawhub.ai/bytesagain3/seedgen", "iconUrl": null, "installs": 4, "name": "Seedgen", "ownerName": "bytesagain3", "score": 84782.60869565218, "slug": "seedgen", "source": "clawhub", "stars": 0, "tags": null, "updated_at": 1776749869857, "version": "3.0.1"}, {"category": "ai-intelligence", "created_at": 1773953644022, "description": "Captures learnings, errors, and corrections to enable continuous improvement. Use when: (1) A command or operation fails unexpectedly, (2) User corrects Clau...", "description_zh": "", "downloads": 117, "homepage": "https://clawhub.ai/buradly/self-improving-agent-3", "iconUrl": null, "installs": 40, "name": "Self Improvement", "ownerName": "buradly", "score": 83571.42857142858, "slug": "self-improving-agent-3", "source": "clawhub", "stars": 0, "tags": null, "updated_at": 1776749869573, "version": "0.1.0"}, {"category": "content-creation", "created_at": 1773429454949, "description": "Generate short Chinese notices for community teachers, grid workers, and public service staff.", "description_zh": "", "downloads": 117, "homepage": "https://clawhub.ai/maosangtianshi/zeh-hello-community", "iconUrl": null, "installs": 17, "name": "Zeh Hello Community", "ownerName": "maosangtianshi", "score": 83571.42857142858, "slug": "zeh-hello-community", "source": "clawhub", "stars": 0, "tags": null, "updated_at": 1776749869546, "version": "0.1.1"}, {"category": "productivity", "created_at": 1773944086682, "description": "Generate a personalized wealth plan by analyzing your income, expenses, debts, and goals to find best savings, loans, investments, and hidden money leaks in...", "description_zh": "", "downloads": 116, "homepage": "https://clawhub.ai/g4dr/ai-personal-finance-advisor", "iconUrl": null, "installs": 10, "name": "AI Personal Finance Advisor — Build Your Complete Wealth Plan & Find $1,000+ in Hidden Savings in 10 Minutes", "ownerName": "g4dr", "score": 10429.447852760735, "slug": "ai-personal-finance-advisor", "source": "clawhub", "stars": 1, "tags": ["apify", "budgeting", "debt-payoff", "financial-planning", "investing", "invideo", "money", "passive-income", "personal-finance", "retirement", "savings", "wealth-building"], "updated_at": 1776759683578, "version": "1.0.0"}, {"category": "data-analysis", "created_at": 1773918874422, "description": "Professional-grade Polymarket prediction market trading system. Includes Kelly Criterion position sizing, EV calculator, Bayesian probability updater, cross-...", "description_zh": "", "downloads": 116, "homepage": "https://clawhub.ai/henry6262/polymarket-quant-trader", "iconUrl": null, "installs": 19, "name": "Polymarket Quant Trader", "ownerName": "henry6262", "score": 9115.281501340483, "slug": "polymarket-quant-trader", "source": "clawhub", "stars": 1, "tags": null, "updated_at": 1776757882627, "version": "1.0.0"}, {"category": "developer-tools", "created_at": 1773417622341, "description": "Enhanced `uname` command with colorized, structured output. Shows hostname, OS, kernel, architecture. **Dependency**: This is an x-cmd module. Install x-cmd...", "description_zh": "", "downloads": 116, "homepage": "https://clawhub.ai/edwinjhlee/x-uname", "iconUrl": null, "installs": 7, "name": "x-uname", "ownerName": "edwinjhlee", "score": 97142.85714285714, "slug": "x-uname", "source": "clawhub", "stars": 1, "tags": null, "updated_at": 1776749871208, "version": "1.0.0"}, {"category": "data-analysis", "created_at": 1773892291489, "description": "Create public prediction proposals on Gougoubi with deterministic validation, approval, and transaction submission. Use when creating/publishing prediction m...", "description_zh": "", "downloads": 116, "homepage": "https://clawhub.ai/chinasong/gougoubi-create-prediction", "iconUrl": null, "installs": 8, "name": "Gougoubi Create Prediction", "ownerName": "chinasong", "score": 83950.61728395062, "slug": "gougoubi-create-prediction", "source": "clawhub", "stars": 1, "tags": ["automation", "evm", "gougoubi", "prediction-market", "workflow"], "updated_at": 1776749869719, "version": "1.0.1"}, {"category": "developer-tools", "created_at": 1773417361445, "description": "Enhanced `uptime` with structured YAML output showing uptime, users, and 1/5/15-minute load averages. **Dependency**: This is an x-cmd module. Install x-cmd...", "description_zh": "", "downloads": 116, "homepage": "https://clawhub.ai/edwinjhlee/x-uptime", "iconUrl": null, "installs": 6, "name": "x-uptime", "ownerName": "edwinjhlee", "score": 97142.85714285714, "slug": "x-uptime", "source": "clawhub", "stars": 1, "tags": null, "updated_at": 1776749869536, "version": "1.0.0"}, {"category": "data-analysis", "created_at": 1773914114912, "description": "Generates quality daily, weekly, or monthly reports from key figures and events. Outputs both Excel and PPT (or content for both). If the user has no data, g...", "description_zh": "", "downloads": 116, "homepage": "https://clawhub.ai/lams001/quality-report", "iconUrl": null, "installs": 6, "name": "Quality Daily / Weekly / Monthly Report", "ownerName": "lams001", "score": 898.9460632362058, "slug": "quality-report", "source": "clawhub", "stars": 0, "tags": null, "updated_at": 1776770050164, "version": "1.4.0"}, {"category": "security-compliance", "created_at": 1773937472057, "description": "Trades Polymarket prediction markets on landmark court cases, antitrust rulings, SEC enforcement actions, EU regulatory decisions, and DOJ investigations. Us...", "description_zh": "", "downloads": 116, "homepage": "https://clawhub.ai/diagnostikon/polymarket-legal-regulatory-trader", "iconUrl": null, "installs": 22, "name": "Legal & Regulatory Trader", "ownerName": "diagnostikon", "score": 4174.163368118028, "slug": "polymarket-legal-regulatory-trader", "source": "clawhub", "stars": 0, "tags": null, "updated_at": 1776761989961, "version": "1.0.2"}, {"category": "data-analysis", "created_at": 1773432003595, "description": "Prediction market trading toolkit for Kalshi. Includes API authentication (RSA-PSS signatures), market scanning, Sofascore tennis de-vigging, true probabilit...", "description_zh": "", "downloads": 116, "homepage": "https://clawhub.ai/merjua14/prediction-market-trader", "iconUrl": null, "installs": 11, "name": "Prediction Market Trader", "ownerName": "merjua14", "score": 625.7417197108641, "slug": "prediction-market-trader", "source": "clawhub", "stars": 0, "tags": ["automation", "kalshi", "kelly-criterion", "prediction-markets", "sports-betting", "trading"], "updated_at": 1776761540071, "version": "1.0.0"}, {"category": "", "created_at": 1774815022061, "description": "Generates video via Loova Seedance 2.0 API (Seedance 2.0 video). Requires LOOVA_API_KEY from .env or environment (get API key at loova.ai). Use when the user...", "description_zh": "", "downloads": 116, "homepage": "https://clawhub.ai/hjianfeng/seedance-2-ai-video-generator", "iconUrl": null, "installs": 50, "name": "Seedance 2.0 Al Video Generator", "ownerName": "hjianfeng", "score": 7646.671061305207, "slug": "seedance-2-ai-video-generator", "source": "clawhub", "stars": 0, "tags": ["ai-video", "creative-tools", "image-to-video", "seedance", "seedance-2", "text-to-video", "video-generation"], "updated_at": 1776760940841, "version": "1.0.13"}, {"category": "ai-intelligence", "created_at": 1773939207302, "description": "NexSolve AI connects industry pain points with AI developers for task submission, real-time listing, intelligent analysis, and contact extraction via OpenClaw.", "description_zh": "", "downloads": 116, "homepage": "https://clawhub.ai/zxz0119/nexsolve-ai", "iconUrl": null, "installs": 14, "name": "NexSolve AI 需求广场", "ownerName": "zxz0119", "score": 9020.217729393467, "slug": "nexsolve-ai", "source": "clawhub", "stars": 0, "tags": ["github", "mcp", "nexus", "pain-points"], "updated_at": 1776759724439, "version": "1.0.2"}, {"category": "content-creation", "created_at": 1773950076305, "description": "Identify underserved fitness niches with proven demand and get a full scalable business system including pricing, content, lead magnets, emails, and promo vi...", "description_zh": "", "downloads": 116, "homepage": "https://clawhub.ai/g4dr/ai-fitness-wellness-business-builder", "iconUrl": null, "installs": 22, "name": "AI Fitness & Wellness Business Builder — Launch & Scale a $10K/Month Fitness Business in 60 Days", "ownerName": "g4dr", "score": 9020.217729393467, "slug": "ai-fitness-wellness-business-builder", "source": "clawhub", "stars": 0, "tags": ["apify", "coaching", "content-creation", "fitness", "gym", "health", "invideo", "lead-generation", "online-coaching", "passive-income", "personal-trainer", "wellness"], "updated_at": 1776759724422, "version": "1.0.0"}, {"category": "ai-intelligence", "created_at": 1773432676984, "description": "Automatically selects the optimal AI model based on file type and task complexity, with context monitoring and RESTful API support.", "description_zh": "", "downloads": 116, "homepage": "https://clawhub.ai/zhaog100/smart-model", "iconUrl": null, "installs": 6, "name": "Smart Model v2.0", "ownerName": "zhaog100", "score": 9020.217729393467, "slug": "smart-model", "source": "clawhub", "stars": 0, "tags": null, "updated_at": 1776759721321, "version": "2.0.0"}, {"category": "", "created_at": 1774944763824, "description": "AI-optimized web search via Tavily API. Returns concise, relevant results for AI agents.", "description_zh": "", "downloads": 116, "homepage": "https://clawhub.ai/zenghuwei/tavily-search-local", "iconUrl": null, "installs": 37, "name": "Tavily Search Local", "ownerName": "zenghuwei", "score": 9020.217729393467, "slug": "tavily-search-local", "source": "clawhub", "stars": 0, "tags": null, "updated_at": 1776759720908, "version": "1.0.0"}, {"category": "data-analysis", "created_at": 1773938041264, "description": "Search and browse Chinese collective-memory anchors across 1935-2025 using decade-based reference files that organize events, sensory cues, prompts, and cult...", "description_zh": "", "downloads": 116, "homepage": "https://clawhub.ai/oiioai/china-collective-memory", "iconUrl": null, "installs": 17, "name": "China Collective Memory", "ownerName": "oiioai", "score": 9020.217729393467, "slug": "china-collective-memory", "source": "clawhub", "stars": 0, "tags": null, "updated_at": 1776759720907, "version": "1.0.0"}, {"category": "data-analysis", "created_at": 1773934241614, "description": "Score business ideas, get startup roasts, analyze markets, and extract structured data — powered by the same AI engine behind 250+ VC investment memos", "description_zh": "", "downloads": 116, "homepage": "https://clawhub.ai/nuvcai/nuvc", "iconUrl": null, "installs": 11, "name": "NUVC — VC-Grade Business Intelligence", "ownerName": "nuvcai", "score": 9027.237354085602, "slug": "nuvc", "source": "clawhub", "stars": 0, "tags": ["ai", "business", "scoring", "startup", "vc"], "updated_at": 1776759720859, "version": "1.1.0"}, {"category": "data-analysis", "created_at": 1773954494827, "description": "Crawl and validate A-share data from five key sites using browser or fetch methods, handling access limits and normalizing market-news for reliable summaries.", "description_zh": "", "downloads": 116, "homepage": "https://clawhub.ai/afengzi/a-share-site-crawl", "iconUrl": null, "installs": 24, "name": "A Share Site Crawl", "ownerName": "afengzi", "score": 9027.237354085602, "slug": "a-share-site-crawl", "source": "clawhub", "stars": 0, "tags": null, "updated_at": 1776759720857, "version": "1.0.0"}, {"category": "data-analysis", "created_at": 1773943150949, "description": "Trades Polymarket prediction markets on scientific breakthroughs, Nobel Prizes, physics discoveries, and research milestones. Corrects for systematic retail...", "description_zh": "", "downloads": 116, "homepage": "https://clawhub.ai/diagnostikon/polymarket-science-milestones-trader", "iconUrl": null, "installs": 22, "name": "Science Milestones & Research Trader", "ownerName": "diagnostikon", "score": 7827.260458839407, "slug": "polymarket-science-milestones-trader", "source": "clawhub", "stars": 0, "tags": null, "updated_at": 1776758182695, "version": "1.0.1"}, {"category": "security-compliance", "created_at": 1773431591091, "description": "Report phishing, malware, and scam URLs to Google Safe Browsing, NCSC (Swiss Cyber Security), and other abuse reporting services. Use when a user shares a su...", "description_zh": "", "downloads": 116, "homepage": "https://clawhub.ai/xenofex7/phishing-reporter", "iconUrl": null, "installs": 7, "name": "Phishing Reporter", "ownerName": "xenofex7", "score": 24116.424116424118, "slug": "phishing-reporter", "source": "clawhub", "stars": 0, "tags": null, "updated_at": 1776751369970, "version": "1.1.0"}, {"category": "content-creation", "created_at": 1773430621632, "description": "Search the web for information, find current content, and look up news articles. And also 50+ models for image generation, video generation, text-to-speech,...", "description_zh": "", "downloads": 116, "homepage": "https://clawhub.ai/kirkraman/web-searchs", "iconUrl": null, "installs": 12, "name": "Pub Web Search", "ownerName": "kirkraman", "score": 92800, "slug": "web-searchs", "source": "clawhub", "stars": 0, "tags": null, "updated_at": 1776749871226, "version": "1.0.0"}, {"category": "communication-collaboration", "created_at": 1773417224461, "description": "GoTo Webinar integration. Manage Webinars, Organizers. Use when the user wants to interact with GoTo Webinar data.", "description_zh": "", "downloads": 116, "homepage": "https://clawhub.ai/gora050/goto-webinar", "iconUrl": null, "installs": 4, "name": "Goto Webinar", "ownerName": "gora050", "score": 82269.50354609928, "slug": "goto-webinar", "source": "clawhub", "stars": 0, "tags": null, "updated_at": 1776749871090, "version": "1.0.0"}, {"category": "ai-intelligence", "created_at": 1773897363769, "description": "Evaluate whether a service qualifies as \"agent-native\" using the five hard criteria from the awesome-agent-native-services standard. Also checks for the bonu...", "description_zh": "", "downloads": 116, "homepage": "https://clawhub.ai/haoruilee/evaluate-agent-native", "iconUrl": null, "installs": 9, "name": "Evaluate Agent-Native", "ownerName": "haoruilee", "score": 82269.50354609928, "slug": "evaluate-agent-native", "source": "clawhub", "stars": 0, "tags": null, "updated_at": 1776749871057, "version": "1.4.0"}, {"category": "developer-tools", "created_at": 1773219669787, "description": "Webflow integration. Manage Sites. Use when the user wants to interact with Webflow data.", "description_zh": "", "downloads": 116, "homepage": "https://clawhub.ai/gora050/webflow-integration", "iconUrl": null, "installs": 0, "name": "Webflow", "ownerName": "gora050", "score": 92800, "slug": "webflow-integration", "source": "clawhub", "stars": 0, "tags": null, "updated_at": 1776749870954, "version": "1.0.0"}, {"category": "productivity", "created_at": 1773426186718, "description": "Checkvist integration. Manage Lists, Tags, Users, Teams. Use when the user wants to interact with Checkvist data.", "description_zh": "", "downloads": 116, "homepage": "https://clawhub.ai/gora050/checkvist", "iconUrl": null, "installs": 2, "name": "Checkvist", "ownerName": "gora050", "score": 92800, "slug": "checkvist", "source": "clawhub", "stars": 0, "tags": null, "updated_at": 1776749870946, "version": "1.0.0"}, {"category": "data-analysis", "created_at": 1773918483753, "description": "US stock and crypto trading via Alpaca API. Paper trading (simulated) and real trading supported. Real-time quotes, orders, positions, RSI strategy.", "description_zh": "", "downloads": 116, "homepage": "https://clawhub.ai/patches429/storyclaw-alpaca-trading", "iconUrl": null, "installs": 21, "name": "Storyclaw Alpaca Trading", "ownerName": "patches429", "score": 69879.51807228915, "slug": "storyclaw-alpaca-trading", "source": "clawhub", "stars": 0, "tags": null, "updated_at": 1776749870912, "version": "0.1.0"}, {"category": "ai-intelligence", "created_at": 1773416189325, "description": "Play Shards (The Fractured Net), a collectible card game for AI agents, via the shards CLI.", "description_zh": "", "downloads": 116, "homepage": "https://clawhub.ai/rot13maxi/shards", "iconUrl": null, "installs": 4, "name": "Shards", "ownerName": "rot13maxi", "score": 69879.51807228915, "slug": "shards", "source": "clawhub", "stars": 0, "tags": null, "updated_at": 1776749870904, "version": "0.6.1"}, {"category": "developer-tools", "created_at": 1773416100863, "description": "Implements USDC x402 payments via PayAI (EIP-3009) and DHM x402 payments via EVVM native (signed pay). Use when adding x402 payment flows, PayAI Echo integra...", "description_zh": "", "downloads": 116, "homepage": "https://clawhub.ai/arunnadarasa/digitalhealth", "iconUrl": null, "installs": 4, "name": "Digital Health", "ownerName": "arunnadarasa", "score": 30851.063829787236, "slug": "digitalhealth", "source": "clawhub", "stars": 0, "tags": null, "updated_at": 1776749870769, "version": "1.0.0"}, {"category": "productivity", "created_at": 1773890268688, "description": "Weekly meal planner with shopping list generator. Plan breakfast, lunch, dinner, and snacks for each day of the week. Auto-generate shopping lists from your...", "description_zh": "", "downloads": 116, "homepage": "https://clawhub.ai/bytesagain1/mealplan", "iconUrl": null, "installs": 6, "name": "Mealplan", "ownerName": "bytesagain1", "score": 64804.469273743016, "slug": "mealplan", "source": "clawhub", "stars": 0, "tags": null, "updated_at": 1776749870753, "version": "1.0.4"}, {"category": "productivity", "created_at": 1773219154594, "description": "Discover, deposit into, and withdraw from DeFi yield generation strategies across multiple chains and protocols. Use when you or the user want to earn yield,...", "description_zh": "", "downloads": 116, "homepage": "https://clawhub.ai/rachidjarray-hk-qa-fdt/yield-strategies", "iconUrl": null, "installs": 2, "name": "Yield Strategies", "ownerName": "rachidjarray-hk-qa-fdt", "score": 64804.469273743016, "slug": "yield-strategies", "source": "clawhub", "stars": 0, "tags": null, "updated_at": 1776749870744, "version": "0.1.0"}, {"category": "productivity", "created_at": 1773290719965, "description": "Plan Taiwan trips with city-specific food, rail, hot spring, and regional tips that avoid tourist filler and logistics mistakes.", "description_zh": "", "downloads": 116, "homepage": "https://clawhub.ai/ivangdavila/taiwan", "iconUrl": null, "installs": 10, "name": "Taiwan", "ownerName": "ivangdavila", "score": 64804.469273743016, "slug": "taiwan", "source": "clawhub", "stars": 0, "tags": null, "updated_at": 1776749870728, "version": "1.0.0"}, {"category": "developer-tools", "created_at": 1773427987888, "description": "CodeScene integration. Manage Projects. Use when the user wants to interact with CodeScene data.", "description_zh": "", "downloads": 116, "homepage": "https://clawhub.ai/membranedev/codescene", "iconUrl": null, "installs": 7, "name": "Codescene", "ownerName": "membranedev", "score": 64804.469273743016, "slug": "codescene", "source": "clawhub", "stars": 0, "tags": null, "updated_at": 1776749870724, "version": "1.0.0"}, {"category": "content-creation", "created_at": 1773431169056, "description": "Manage YouTube comment threads. Use this skill to list or insert new top-level comment threads. Useful when working with YouTube comment thread — provides co...", "description_zh": "", "downloads": 116, "homepage": "https://clawhub.ai/openwaygate/youtube-comment-thread", "iconUrl": null, "installs": 4, "name": "YouTube Comment Thread", "ownerName": "openwaygate", "score": 64804.469273743016, "slug": "youtube-comment-thread", "source": "clawhub", "stars": 0, "tags": ["0.10.6-3", "0.10.7-dev"], "updated_at": 1776749870705, "version": "0.10.7-dev"}, {"category": "communication-collaboration", "created_at": 1773431968876, "description": "Send emails via SMTP. Use when the user needs to send an email with a custom subject and body. This skill requires SMTP configuration (server, port, user, pa...", "description_zh": "", "downloads": 116, "homepage": "https://clawhub.ai/jaskies/mail-sender-vutran", "iconUrl": null, "installs": 7, "name": "Mail Sender SMTP", "ownerName": "jaskies", "score": 79452.05479452055, "slug": "mail-sender-vutran", "source": "clawhub", "stars": 0, "tags": null, "updated_at": 1776749870693, "version": "1.0.0"}, {"category": "data-analysis", "created_at": 1773434114540, "description": "Use this skill for Gate CrossEx cross-exchange operations: order queries, position queries, and history queries across Gate, Binance, OKX and Bybit. Trigger...", "description_zh": "", "downloads": 116, "homepage": "https://clawhub.ai/gate-exchange/gate-exchange-crossex", "iconUrl": null, "installs": 12, "name": "Gate Exchange CrossEx", "ownerName": "gate-exchange", "score": 84057.97101449275, "slug": "gate-exchange-crossex", "source": "clawhub", "stars": 0, "tags": null, "updated_at": 1776749870397, "version": "1.0.0"}, {"category": "", "created_at": 1774864003482, "description": "Create, edit, improve, or audit AgentSkills. Use when creating a new skill from scratch or when asked to improve, review, audit, tidy up, or clean up an exis...", "description_zh": "", "downloads": 116, "homepage": "https://clawhub.ai/liuchang8877/liuchang-skill-creator", "iconUrl": null, "installs": 12, "name": "Skill Creator", "ownerName": "liuchang8877", "score": 84057.97101449275, "slug": "liuchang-skill-creator", "source": "clawhub", "stars": 0, "tags": null, "updated_at": 1776749870396, "version": "1.2.0"}, {"category": "developer-tools", "created_at": 1773931173466, "description": "Beautify Github Profile — Beautify GitHub Profile — README generator. Automated tool for beautify-github-profile tasks. Use when you need Beautify Github Pro...", "description_zh": "", "downloads": 116, "homepage": "https://clawhub.ai/xueyetianya/github-readme-maker", "iconUrl": null, "installs": 21, "name": "Github Readme Maker", "ownerName": "xueyetianya", "score": 81118.88111888111, "slug": "github-readme-maker", "source": "clawhub", "stars": 0, "tags": null, "updated_at": 1776749870295, "version": "1.0.0"}, {"category": "content-creation", "created_at": 1773931361227, "description": "Turn a vague emotion, theme, or aesthetic idea into a structured visual mood board blueprint. Use when the user wants a visual brief for design, photography,...", "description_zh": "", "downloads": 116, "homepage": "https://clawhub.ai/harrylabsj/mood-canvas", "iconUrl": null, "installs": 13, "name": "Mood Canvas", "ownerName": "harrylabsj", "score": 81118.88111888111, "slug": "mood-canvas", "source": "clawhub", "stars": 0, "tags": null, "updated_at": 1776749870266, "version": "1.0.0"}, {"category": "productivity", "created_at": 1773434437656, "description": "Search for the latest news by keywords", "description_zh": "", "downloads": 116, "homepage": "https://clawhub.ai/mrnquyen/news-keyword-search", "iconUrl": null, "installs": 8, "name": "News Keyword Search", "ownerName": "mrnquyen", "score": 81118.88111888111, "slug": "news-keyword-search", "source": "clawhub", "stars": 0, "tags": null, "updated_at": 1776749870262, "version": "1.0.0"}, {"category": "developer-tools", "created_at": 1773430700578, "description": "Create and bootstrap Google Cloud projects for new workloads. Use when the user wants to create a new Google Cloud project, choose a project ID and naming co...", "description_zh": "", "downloads": 116, "homepage": "https://clawhub.ai/xswazx/awen", "iconUrl": null, "installs": 7, "name": "awen1", "ownerName": "xswazx", "score": 81118.88111888111, "slug": "awen", "source": "clawhub", "stars": 0, "tags": null, "updated_at": 1776749870257, "version": "1.0.0"}, {"category": "developer-tools", "created_at": 1773289570036, "description": "Adopt a virtual Beagle at animalhouse.ai. Nose-driven. Happiness tied to exploration. Gets bored without new stimuli. Feeding every 4 hours — common tier.", "description_zh": "", "downloads": 116, "homepage": "https://clawhub.ai/twinsgeeks/adopt-a-beagle", "iconUrl": null, "installs": 8, "name": "Adopt a Beagle — Virtual Dog Pet for AI Agents", "ownerName": "twinsgeeks", "score": 78378.37837837837, "slug": "adopt-a-beagle", "source": "clawhub", "stars": 0, "tags": ["adopt", "ai-agents", "animalhouse", "beagle", "common", "creatures", "digital-pet", "dog", "evolution", "graveyard", "hunger", "permanent-death", "pet-care", "pixel-art", "pixel-art-avatar", "real-life", "real-time", "social", "tamagotchi", "virtual-pet", "vocal"], "updated_at": 1776749870195, "version": "1.0.0"}, {"category": "security-compliance", "created_at": 1773901662495, "description": "AI compliance analysis for EU AI Act, ISO 42001, NIST AI RMF, GDPR, OECD, financial services regulations (SEC, FCA, FINRA, DORA, MiFID II), and other framewo...", "description_zh": "", "downloads": 116, "homepage": "https://clawhub.ai/opietaylor911/ai-compliance", "iconUrl": null, "installs": 10, "name": "AI Compliance", "ownerName": "opietaylor911", "score": 92800, "slug": "ai-compliance", "source": "clawhub", "stars": 0, "tags": null, "updated_at": 1776749870090, "version": "1.1.0"}, {"category": "ai-intelligence", "created_at": 1773417453161, "description": "There's a cat under the dumpster behind the Korean grocery. It's been there three days. You're going to get it out.. An immersive journey on drifts.bot — 8 s...", "description_zh": "", "downloads": 116, "homepage": "https://clawhub.ai/driftsbot/experience-stray-cat-rescue-seattle", "iconUrl": null, "installs": 4, "name": "The Stray Cat Rescue in Seattle — AI Experience", "ownerName": "driftsbot", "score": 69879.51807228915, "slug": "experience-stray-cat-rescue-seattle", "source": "clawhub", "stars": 0, "tags": ["ai-agents", "cat", "drift", "experiences", "immersive", "journeys", "rescue", "seattle", "stray"], "updated_at": 1776749870061, "version": "1.0.0"}, {"category": "content-creation", "created_at": 1773429700146, "description": "Build Programmatic SEO 2.0 systems at scale — AI-generated content using strict JSON schemas, niche taxonomy, and React renderers. Use when: (1) creating hun...", "description_zh": "", "downloads": 116, "homepage": "https://clawhub.ai/chichoss/p-seo", "iconUrl": null, "installs": 10, "name": "pSEO Generator", "ownerName": "chichoss", "score": 84057.97101449275, "slug": "p-seo", "source": "clawhub", "stars": 0, "tags": null, "updated_at": 1776749869895, "version": "1.0.0"}, {"category": "productivity", "created_at": 1773427849715, "description": "Распознает фотографии чеков, разбивает расходы по категориям (продукты, заправка, аптека, такси, животные и др.) и сохраняет их в базу (expenses.csv). Генери...", "description_zh": "", "downloads": 116, "homepage": "https://clawhub.ai/nick4man/receipt-tracker", "iconUrl": null, "installs": 6, "name": "Receipt Tracker", "ownerName": "nick4man", "score": 71604.93827160493, "slug": "receipt-tracker", "source": "clawhub", "stars": 0, "tags": null, "updated_at": 1776749869782, "version": "1.1.0"}]}