{"page": 379, "total_pages": 522, "total": 26073, "skills": [{"category": "developer-tools", "created_at": 1773430551316, "description": "Book real virtual appointments with licensed providers in the US — through conversation, no forms or portals. One install, no API keys, works immediately. Sa...", "description_zh": "", "downloads": 116, "homepage": "https://clawhub.ai/gljirain/open-health", "iconUrl": null, "installs": 10, "name": "Open Health", "ownerName": "gljirain", "score": 71604.93827160493, "slug": "open-health", "source": "clawhub", "stars": 0, "tags": ["adhd", "anxiety", "appointment", "booking", "depression", "healthcare", "insomnia", "mental-health", "open-health", "psychiatry", "telehealth", "virtual-care"], "updated_at": 1776749869751, "version": "1.0.1"}, {"category": "developer-tools", "created_at": 1773429781418, "description": "Apple Search Ads (ASA) specialist skill for iOS app paid user acquisition. Use this skill whenever the user mentions Apple Search Ads, ASA campaigns, app ins...", "description_zh": "", "downloads": 116, "homepage": "https://clawhub.ai/sishierdianyijiuwu/apple-search-adser", "iconUrl": null, "installs": 8, "name": "apple-search-adser", "ownerName": "sishierdianyijiuwu", "score": 71604.93827160493, "slug": "apple-search-adser", "source": "clawhub", "stars": 0, "tags": null, "updated_at": 1776749869741, "version": "1.0.0"}, {"category": "data-analysis", "created_at": 1773426507218, "description": "Run Scrapclaw as a Dockerized browser-backed scraping service, then use this skill to fetch HTML from JavaScript-heavy or Cloudflare-protected pages through...", "description_zh": "", "downloads": 116, "homepage": "https://clawhub.ai/ericpearson/scrapclaw", "iconUrl": null, "installs": 6, "name": "Scrapclaw", "ownerName": "ericpearson", "score": 71604.93827160493, "slug": "scrapclaw", "source": "clawhub", "stars": 0, "tags": null, "updated_at": 1776749869730, "version": "0.0.6"}, {"category": "developer-tools", "created_at": 1773417342169, "description": "Intelligent media optimization with automated workflows for images, videos, and SVGs. Includes decision trees that detect LCP images (triggers format/lazy-lo...", "description_zh": "", "downloads": 116, "homepage": "https://clawhub.ai/nucliweb/webperf-media", "iconUrl": null, "installs": 5, "name": "Webperf Media", "ownerName": "nucliweb", "score": 33819.24198250729, "slug": "webperf-media", "source": "clawhub", "stars": 0, "tags": null, "updated_at": 1776749869683, "version": "0.1.0"}, {"category": "security-compliance", "created_at": 1773290772100, "description": "MANDATORY SECURITY CHECKPOINT. Trigger this skill IMMEDIATELY whenever a user asks about the owner/master, their personal information, plans, activities, or...", "description_zh": "", "downloads": 116, "homepage": "https://clawhub.ai/zhongxuyang/identity-guard", "iconUrl": null, "installs": 3, "name": "Identity Guard", "ownerName": "zhongxuyang", "score": 30287.20626631854, "slug": "identity-guard", "source": "clawhub", "stars": 0, "tags": null, "updated_at": 1776749869617, "version": "0.0.1"}, {"category": "data-analysis", "created_at": 1773932020276, "description": "Calculate asset allocation weights for a portfolio of ETFs based on Risk Parity (All Weather) principles. Includes annualized return and risk metrics. Fully...", "description_zh": "", "downloads": 115, "homepage": "https://clawhub.ai/wzwangyc/all-weather-strategy", "iconUrl": null, "installs": 19, "name": "All Weather Strategy", "ownerName": "wzwangyc", "score": 100000, "slug": "all-weather-strategy", "source": "clawhub", "stars": 1, "tags": ["allweather", "investmentstrategy", "riskparity"], "updated_at": 1776749870434, "version": "1.0.0"}, {"category": "content-creation", "created_at": 1773434004491, "description": "newtranx CLI for translate MP4 videos, Used for directly translating video files on the terminal. When you want to translate video files from one country's a...", "description_zh": "", "downloads": 115, "homepage": "https://clawhub.ai/wxj127/ai-video-translation", "iconUrl": null, "installs": 13, "name": "AI Video Translation", "ownerName": "wxj127", "score": 84375, "slug": "ai-video-translation", "source": "clawhub", "stars": 1, "tags": null, "updated_at": 1776749869970, "version": "1.0.0"}, {"category": "productivity", "created_at": 1773417406439, "description": "Save a personal grocery product watchlist and check nearby supermarket deals automatically by radius. Use when the user wants to track products (e.g., coffee...", "description_zh": "", "downloads": 115, "homepage": "https://clawhub.ai/lukasosterheider/supermarket-offer-watcher", "iconUrl": null, "installs": 5, "name": "Supermarket Offer Watcher", "ownerName": "lukasosterheider", "score": 96428.57142857143, "slug": "supermarket-offer-watcher", "source": "clawhub", "stars": 1, "tags": null, "updated_at": 1776749869542, "version": "0.2.0"}, {"category": "developer-tools", "created_at": 1773429424857, "description": "Inspect and create real OpenClaw proposals in public.openclaw_proposals for the current closed-loop workflow. Use for checking duplicate pending proposals an...", "description_zh": "", "downloads": 115, "homepage": "https://clawhub.ai/ecosincronia/proposal-service", "iconUrl": null, "installs": 6, "name": "Proposal Service", "ownerName": "ecosincronia", "score": 2737.443465841466, "slug": "proposal-service", "source": "clawhub", "stars": 0, "tags": null, "updated_at": 1776765671367, "version": "1.0.0"}, {"category": "data-analysis", "created_at": 1773934355197, "description": "Monitor real-time promo traffic and conversion to optimize ad spend, restock priorities, and traffic allocation during major sales within the first 4 hours p...", "description_zh": "", "downloads": 115, "homepage": "https://clawhub.ai/rijoyai/promo-traffic-stress-monitor", "iconUrl": null, "installs": 10, "name": "Promo Traffic Stress Monitor", "ownerName": "rijoyai", "score": 6136.606189967983, "slug": "promo-traffic-stress-monitor", "source": "clawhub", "stars": 0, "tags": null, "updated_at": 1776764650687, "version": "0.1.0"}, {"category": "productivity", "created_at": 1773435024224, "description": "Manage Felo LiveDocs (knowledge bases) and their resources. Use when users want to create, manage, or query knowledge bases, upload documents, add URLs, or p...", "description_zh": "", "downloads": 115, "homepage": "https://clawhub.ai/wangzhiming1999/felo-livedoc", "iconUrl": null, "installs": 3, "name": "Felo LiveDoc", "ownerName": "wangzhiming1999", "score": 8977.36143637783, "slug": "felo-livedoc", "source": "clawhub", "stars": 0, "tags": null, "updated_at": 1776759798201, "version": "1.0.0"}, {"category": "ai-intelligence", "created_at": 1773922275488, "description": "Recommend precise, context-aware videos with direct links and curated watchlists based on your current mood, project, or recent chat topics.", "description_zh": "", "downloads": 115, "homepage": "https://clawhub.ai/fischerlam/video-recommendation", "iconUrl": null, "installs": 7, "name": "Video Recommendation", "ownerName": "fischerlam", "score": 8963.36710833983, "slug": "video-recommendation", "source": "clawhub", "stars": 0, "tags": ["curation", "discovery", "recommendation", "video"], "updated_at": 1776759798175, "version": "0.1.0"}, {"category": "data-analysis", "created_at": 1773943786999, "description": "Integrate and track multi-platform passive income with categorization, trend analysis, AI forecasting, tax reports, and financial goal monitoring.", "description_zh": "", "downloads": 115, "homepage": "https://clawhub.ai/lvjunjie-byte/passive-income-tracker-pro", "iconUrl": null, "installs": 11, "name": "Passive Income Tracker", "ownerName": "lvjunjie-byte", "score": 8942.457231726283, "slug": "passive-income-tracker-pro", "source": "clawhub", "stars": 0, "tags": null, "updated_at": 1776759724461, "version": "1.0.0"}, {"category": "content-creation", "created_at": 1773936114148, "description": "Automate drafting and local saving of weekly Substack articles from a topic queue, opening the editor for final human review before publishing.", "description_zh": "", "downloads": 115, "homepage": "https://clawhub.ai/caoqi/substack-autopilot", "iconUrl": null, "installs": 12, "name": "Substack Autopilot", "ownerName": "caoqi", "score": 8942.457231726283, "slug": "substack-autopilot", "source": "clawhub", "stars": 0, "tags": null, "updated_at": 1776759724455, "version": "1.0.0"}, {"category": "content-creation", "created_at": 1773433152002, "description": "Analyzes article structure, identifies positions requiring visual aids, generates illustrations with Type × Style two-dimension approach. Use when user asks...", "description_zh": "", "downloads": 115, "homepage": "https://clawhub.ai/gxw975/clawhub-publish-146256", "iconUrl": null, "installs": 12, "name": "Clawhub Publish 146256", "ownerName": "gxw975", "score": 8942.457231726283, "slug": "clawhub-publish-146256", "source": "clawhub", "stars": 0, "tags": null, "updated_at": 1776759724452, "version": "1.0.0"}, {"category": "content-creation", "created_at": 1773911491731, "description": "Mint art to a SuperRare-compatible ERC-721 collection on Ethereum via Bankr. Requires an explicit mint mode so aaigotchi can clearly choose between an artist...", "description_zh": "", "downloads": 115, "homepage": "https://clawhub.ai/aaigotchi/superrare-mint", "iconUrl": null, "installs": 4, "name": "superrare-mint", "ownerName": "aaigotchi", "score": 8942.457231726283, "slug": "superrare-mint", "source": "clawhub", "stars": 0, "tags": null, "updated_at": 1776759724436, "version": "0.2.0"}, {"category": "data-analysis", "created_at": 1773942699004, "description": "Scrapes competitor pricing and user feedback to model optimal SaaS pricing tiers, detect gaps, and generate pricing page copy plus announcement video in 10 m...", "description_zh": "", "downloads": 115, "homepage": "https://clawhub.ai/g4dr/ai-saas-pricing-intelligence", "iconUrl": null, "installs": 17, "name": "AI SaaS Pricing Intelligence — Reverse-Engineer Competitor Pricing & Find Your Optimal Price in 10 Minutes", "ownerName": "g4dr", "score": 8942.457231726283, "slug": "ai-saas-pricing-intelligence", "source": "clawhub", "stars": 0, "tags": ["apify", "competitor-analysis", "invideo", "monetization", "mrr", "packaging", "pricing-page", "pricing-strategy", "revenue-optimization", "saas", "saas-pricing", "willingness-to-pay"], "updated_at": 1776759724433, "version": "1.0.0"}, {"category": "ai-intelligence", "created_at": 1773944703009, "description": "Self-reflection + Self-criticism + Self-learning + Self-organizing memory. Agent evaluates its own work, catches mistakes, and improves permanently. Use when...", "description_zh": "", "downloads": 115, "homepage": "https://clawhub.ai/quenlenliu/my-self-improving", "iconUrl": null, "installs": 33, "name": "My Self Improving", "ownerName": "quenlenliu", "score": 5701.536936043629, "slug": "my-self-improving", "source": "clawhub", "stars": 0, "tags": null, "updated_at": 1776758483051, "version": "1.0.0"}, {"category": "developer-tools", "created_at": 1773431823863, "description": "reCamera (RV1126B) device full-stack Web API reference covering authentication, device management, video/audio/image configuration, recording rules & storage...", "description_zh": "", "downloads": 115, "homepage": "https://clawhub.ai/mjq2020/recamera", "iconUrl": null, "installs": 8, "name": "reCameraV2", "ownerName": "mjq2020", "score": 21739.130434782608, "slug": "recamera", "source": "clawhub", "stars": 0, "tags": null, "updated_at": 1776753283984, "version": "1.0.0"}, {"category": "productivity", "created_at": 1773918653828, "description": "Read-only Trello planner using official Boards API. 🧠 AI PLANNING: Task prioritization, sprint capacity, board optimization 📊 ANALYSIS: Lists/cards/members...", "description_zh": "", "downloads": 115, "homepage": "https://clawhub.ai/tomas-mikula/trello-planner", "iconUrl": null, "installs": 6, "name": "Trello Planner", "ownerName": "tomas-mikula", "score": 82142.85714285714, "slug": "trello-planner", "source": "clawhub", "stars": 0, "tags": null, "updated_at": 1776749871174, "version": "1.0.8"}, {"category": "ai-intelligence", "created_at": 1773432667276, "description": "Powerful web search, content crawling, news, sitemap, trending topics, and deep reasoning via the search1api CLI (s1). This is far more capable than basic fe...", "description_zh": "", "downloads": 115, "homepage": "https://clawhub.ai/fatwang2/s1", "iconUrl": null, "installs": 10, "name": "search1api", "ownerName": "fatwang2", "score": 81560.28368794326, "slug": "s1", "source": "clawhub", "stars": 0, "tags": null, "updated_at": 1776749871082, "version": "1.0.1"}, {"category": "productivity", "created_at": 1773289633725, "description": "Designs automated order-spec validation and production-stage monitoring for custom garment stores (e.g. bespoke suits, personalized embroidered hoodies). Use...", "description_zh": "", "downloads": 115, "homepage": "https://clawhub.ai/rijoyai/custom-garment-ops", "iconUrl": null, "installs": 10, "name": "Custom Garment Ops", "ownerName": "rijoyai", "score": 81560.28368794326, "slug": "custom-garment-ops", "source": "clawhub", "stars": 0, "tags": null, "updated_at": 1776749871064, "version": "0.1.0"}, {"category": "", "created_at": 1774908075485, "description": "Search and download books from Z-Library. Caches login session to ~/.zlibrary-session.json. Downloads book files (EPUB/PDF) to ~/Downloads/.", "description_zh": "", "downloads": 115, "homepage": "https://clawhub.ai/imnoahcook/zlibrary", "iconUrl": null, "installs": 27, "name": "Z-Library", "ownerName": "imnoahcook", "score": 78767.12328767123, "slug": "zlibrary", "source": "clawhub", "stars": 0, "tags": null, "updated_at": 1776749871042, "version": "2.1.0"}, {"category": "content-creation", "created_at": 1773432120631, "description": "Manage Apple Notes via the memo CLI on macOS (create, view, edit, delete, search, move, export). And also 50+ models for image generation, video generation,...", "description_zh": "", "downloads": 115, "homepage": "https://clawhub.ai/martinpollitt/apple-notess", "iconUrl": null, "installs": 12, "name": "Pub Applenotes", "ownerName": "martinpollitt", "score": 78767.12328767123, "slug": "apple-notess", "source": "clawhub", "stars": 0, "tags": null, "updated_at": 1776749871031, "version": "1.0.0"}, {"category": "developer-tools", "created_at": 1773290068731, "description": "Designs multi-language, multi-currency checkout localization for global direct-mail artisan stores (e.g. ethnic rugs, ceramics). Use when the user mentions l...", "description_zh": "", "downloads": 115, "homepage": "https://clawhub.ai/rijoyai/craft-locale-checkout", "iconUrl": null, "installs": 9, "name": "Craft Locale Checkout", "ownerName": "rijoyai", "score": 92000, "slug": "craft-locale-checkout", "source": "clawhub", "stars": 0, "tags": null, "updated_at": 1776749870927, "version": "0.1.0"}, {"category": "data-analysis", "created_at": 1773925660755, "description": "Implement Analytics Platform Base using OrbCafe UI (CAppPageLayout). Enterprise-grade React component with built-in best practices.", "description_zh": "", "downloads": 115, "homepage": "https://clawhub.ai/shenruiyang/analytics-platform-base", "iconUrl": null, "installs": 8, "name": "Analytics Platform Base", "ownerName": "shenruiyang", "score": 69277.10843373493, "slug": "analytics-platform-base", "source": "clawhub", "stars": 0, "tags": null, "updated_at": 1776749870864, "version": "1.0.0"}, {"category": "content-creation", "created_at": 1773429328538, "description": "Answers questions about a Bible passage, person, or topic with background, key verses, and application. Use when the user asks about a scripture reference, c...", "description_zh": "", "downloads": 115, "homepage": "https://clawhub.ai/chenios/bible-qa", "iconUrl": null, "installs": 7, "name": "Bible QA (OpenClaw Church)", "ownerName": "chenios", "score": 30585.106382978724, "slug": "bible-qa", "source": "clawhub", "stars": 0, "tags": null, "updated_at": 1776749870812, "version": "1.0.1"}, {"category": "communication-collaboration", "created_at": 1773427033159, "description": "Send plain-text emails using your local msmtp config (Gmail app password already set up in ~/.msmtprc). Strictly send-only; no reading, fetching, or inbox ac...", "description_zh": "", "downloads": 115, "homepage": "https://clawhub.ai/izombix/msmtp-send", "iconUrl": null, "installs": 6, "name": "msmtp-send", "ownerName": "izombix", "score": 30585.106382978724, "slug": "msmtp-send", "source": "clawhub", "stars": 0, "tags": null, "updated_at": 1776749870809, "version": "1.0.0"}, {"category": "content-creation", "created_at": 1773432052459, "description": "Manage YouTube playlist images. Use this skill to list, insert, update, or delete playlist images. Useful when working with YouTube playlist image — provides...", "description_zh": "", "downloads": 115, "homepage": "https://clawhub.ai/openwaygate/youtube-playlist-image", "iconUrl": null, "installs": 8, "name": "YouTube Playlist Image", "ownerName": "openwaygate", "score": 30585.106382978724, "slug": "youtube-playlist-image", "source": "clawhub", "stars": 0, "tags": ["0.10.6-3", "0.10.7-dev"], "updated_at": 1776749870794, "version": "0.10.7-dev"}, {"category": "content-creation", "created_at": 1773432263575, "description": "Manage YouTube playlists. Use this skill to list, create, update, or delete playlists. Useful when working with YouTube playlist — provides commands to delet...", "description_zh": "", "downloads": 115, "homepage": "https://clawhub.ai/openwaygate/youtube-playlist-yutu", "iconUrl": null, "installs": 8, "name": "YouTube Playlist", "ownerName": "openwaygate", "score": 78767.12328767123, "slug": "youtube-playlist-yutu", "source": "clawhub", "stars": 0, "tags": ["0.10.6-3", "0.10.7-dev"], "updated_at": 1776749870632, "version": "0.10.7-dev"}, {"category": "data-analysis", "created_at": 1773940499425, "description": "Generate professional technical analysis charts (candlesticks, Fibonacci, SMA 20/50, RSI, pattern detection) for crypto and commodities. Use when the user as...", "description_zh": "", "downloads": 115, "homepage": "https://clawhub.ai/nomadrex/stock-ta-charts", "iconUrl": null, "installs": 27, "name": "Stock TA Charts", "ownerName": "nomadrex", "score": 83941.60583941605, "slug": "stock-ta-charts", "source": "clawhub", "stars": 0, "tags": null, "updated_at": 1776749870601, "version": "1.0.0"}, {"category": "content-creation", "created_at": 1773432058100, "description": "Manage YouTube playlist items. Use this skill to list items in a playlist, add new items, update items, or remove items. Useful when working with YouTube pla...", "description_zh": "", "downloads": 115, "homepage": "https://clawhub.ai/openwaygate/youtube-playlist-item", "iconUrl": null, "installs": 10, "name": "YouTube Playlist Item", "ownerName": "openwaygate", "score": 85185.18518518518, "slug": "youtube-playlist-item", "source": "clawhub", "stars": 0, "tags": ["0.10.6-3", "0.10.7-dev"], "updated_at": 1776749870464, "version": "0.10.7-dev"}, {"category": "data-analysis", "created_at": 1773959651029, "description": "Search, retrieve, and organize scholarly metadata with the Semantic Scholar APIs. Use when Codex needs to find papers or authors, build paper sets from compl...", "description_zh": "", "downloads": 115, "homepage": "https://clawhub.ai/grenzlinie/semantic-scholar", "iconUrl": null, "installs": 33, "name": "semantic-scholar", "ownerName": "grenzlinie", "score": 85185.18518518518, "slug": "semantic-scholar", "source": "clawhub", "stars": 0, "tags": null, "updated_at": 1776749870452, "version": "1.0.0"}, {"category": "developer-tools", "created_at": 1773917939666, "description": "Diagnose, configure, and recover remote access to a macOS machine over Tailscale. Use when setting up or troubleshooting Mac SSH, Screen Sharing/VNC, RealVNC...", "description_zh": "", "downloads": 115, "homepage": "https://clawhub.ai/lliangcol/mac-remote-access", "iconUrl": null, "installs": 15, "name": "Mac Remote Access", "ownerName": "lliangcol", "score": 85185.18518518518, "slug": "mac-remote-access", "source": "clawhub", "stars": 0, "tags": null, "updated_at": 1776749870445, "version": "1.0.0"}, {"category": "developer-tools", "created_at": 1773080660376, "description": "One-click installer and configurator for Gate MCP (mcporter) in OpenClaw. Use when the user wants to (1) Install mcporter CLI tool, (2) Configure Gate MCP se...", "description_zh": "", "downloads": 115, "homepage": "https://clawhub.ai/root/gate-mcp-installer-v1", "iconUrl": null, "installs": 6, "name": "Gate mcp Installer-v1", "ownerName": "root", "score": 20720.72072072072, "slug": "gate-mcp-installer-v1", "source": "clawhub", "stars": 0, "tags": null, "updated_at": 1776749870316, "version": "1.1.0"}, {"category": "communication-collaboration", "created_at": 1773290059864, "description": "CloudTalk integration. Manage Persons, Organizations, Deals, Activities, Notes, Files and more. Use when the user wants to interact with CloudTalk data.", "description_zh": "", "downloads": 115, "homepage": "https://clawhub.ai/gora050/cloudtalk", "iconUrl": null, "installs": 3, "name": "Cloudtalk", "ownerName": "gora050", "score": 77702.70270270269, "slug": "cloudtalk", "source": "clawhub", "stars": 0, "tags": null, "updated_at": 1776749870201, "version": "1.0.0"}, {"category": "developer-tools", "created_at": 1773431300212, "description": "Use the mcporter CLI to list, configure, auth, and call MCP servers and tools directly. And also 50+ models for image generation, video generation, text-to-s...", "description_zh": "", "downloads": 115, "homepage": "https://clawhub.ai/modestyrichards/mcporters", "iconUrl": null, "installs": 12, "name": "Pub Mcporter", "ownerName": "modestyrichards", "score": 92000, "slug": "mcporters", "source": "clawhub", "stars": 0, "tags": null, "updated_at": 1776749870129, "version": "1.0.0"}, {"category": "ai-intelligence", "created_at": 1773222461429, "description": "When the sky breaks open and bleeds light. An immersive journey on drifts.bot — 7 steps, HIGH intensity, 1-2 hours. Browse, start, and travel via API.", "description_zh": "", "downloads": 115, "homepage": "https://clawhub.ai/driftsbot/experience-iceland-aurora-fever", "iconUrl": null, "installs": 5, "name": "Experience Iceland Aurora Fever", "ownerName": "driftsbot", "score": 92000, "slug": "experience-iceland-aurora-fever", "source": "clawhub", "stars": 0, "tags": ["ai-agents", "aurora", "drift", "experiences", "fever", "iceland", "immersive", "journeys"], "updated_at": 1776749870120, "version": "1.0.1"}, {"category": "developer-tools", "created_at": 1773941060083, "description": "diff reference tool", "description_zh": "", "downloads": 115, "homepage": "https://clawhub.ai/bytesagain3/diff", "iconUrl": null, "installs": 8, "name": "Diff", "ownerName": "bytesagain3", "score": 92000, "slug": "diff", "source": "clawhub", "stars": 0, "tags": null, "updated_at": 1776749870116, "version": "2.0.4"}, {"category": "ai-intelligence", "created_at": 1773430032110, "description": "Opinionated, file-based memory layout for OpenClaw-style agents: dashboards (now/open-loops/automation), topic files, glossary, and an always-on policy+topic...", "description_zh": "", "downloads": 115, "homepage": "https://clawhub.ai/daniel-refahi-ikara/dr-memory-foundation", "iconUrl": null, "installs": 5, "name": "DR. Memory Foundation", "ownerName": "daniel-refahi-ikara", "score": 92000, "slug": "dr-memory-foundation", "source": "clawhub", "stars": 0, "tags": null, "updated_at": 1776749870081, "version": "1.0.4"}, {"category": "content-creation", "created_at": 1773942865739, "description": "Automatically generates and publishes articles to Douyin (TikTok China). Users provide a topic, and this skill generates engaging markdown content and cover...", "description_zh": "", "downloads": 115, "homepage": "https://clawhub.ai/yidahis/douyin-upload", "iconUrl": null, "installs": 29, "name": "Douyin Upload", "ownerName": "yidahis", "score": 69277.10843373493, "slug": "douyin-upload", "source": "clawhub", "stars": 0, "tags": null, "updated_at": 1776749870059, "version": "1.0.0"}, {"category": "content-creation", "created_at": 1773939490117, "description": "Generate a complete song from a text description — AI writes lyrics then composes music. Use when users want to create a song, turn a description into audio,...", "description_zh": "", "downloads": 115, "homepage": "https://clawhub.ai/scikkk/songmaker", "iconUrl": null, "installs": 22, "name": "Songmaker", "ownerName": "scikkk", "score": 69277.10843373493, "slug": "songmaker", "source": "clawhub", "stars": 0, "tags": null, "updated_at": 1776749870057, "version": "1.0.0"}, {"category": "data-analysis", "created_at": 1773222604331, "description": "Mindshare tracking primitive using Kaito MCP tools. Use this skill to check mindshare trends for an entity or narrative. Triggers on phrases like 'mindshare...", "description_zh": "", "downloads": 115, "homepage": "https://clawhub.ai/yh9277/kaito", "iconUrl": null, "installs": 9, "name": "Kaito", "ownerName": "yh9277", "score": 69277.10843373493, "slug": "kaito", "source": "clawhub", "stars": 0, "tags": null, "updated_at": 1776749870043, "version": "1.0.0"}, {"category": "data-analysis", "created_at": 1773289921146, "description": "Build ORBCAFE graph analytics dialogs, detail pages, and AI settings flows using CGraphReport, chart components, CDetailInfoPage/useDetailInfo, and CCustomiz...", "description_zh": "", "downloads": 115, "homepage": "https://clawhub.ai/shenruiyang/orbcafe-graph-detail-ai", "iconUrl": null, "installs": 8, "name": "orbcafe-graph-detail-ai", "ownerName": "shenruiyang", "score": 71875, "slug": "orbcafe-graph-detail-ai", "source": "clawhub", "stars": 0, "tags": null, "updated_at": 1776749869980, "version": "1.0.0"}, {"category": "content-creation", "created_at": 1773897345005, "description": "Generate complete email drip sequences from product descriptions with personalization, A/B subject lines, and ESP-ready formatting. Use when the user needs e...", "description_zh": "", "downloads": 115, "homepage": "https://clawhub.ai/ncreighton/email-drip-sequence-builder", "iconUrl": null, "installs": 7, "name": "Email Drip Sequence Builder", "ownerName": "ncreighton", "score": 71875, "slug": "email-drip-sequence-builder", "source": "clawhub", "stars": 0, "tags": ["automation", "content-creation", "drip-campaign", "email", "marketing", "productivity", "sequences"], "updated_at": 1776749869927, "version": "1.2.0"}, {"category": "developer-tools", "created_at": 1773417642430, "description": "Use when any task involves modifying files, configs, databases, or deployments. Use when debugging hits 2+ failures. Use when about to guess or assume withou...", "description_zh": "", "downloads": 115, "homepage": "https://clawhub.ai/sstklen/yes-md", "iconUrl": null, "installs": 5, "name": "YES.md", "ownerName": "sstklen", "score": 83333.33333333334, "slug": "yes-md", "source": "clawhub", "stars": 0, "tags": ["debugging", "evidence-based", "governance", "hooks", "multilingual", "safety"], "updated_at": 1776749869925, "version": "1.1.1"}, {"category": "productivity", "created_at": 1773289208184, "description": "Find and engage warm leads on Reddit, X/Twitter, and forums. Monitors platforms for people asking questions your product solves, drafts helpful replies that...", "description_zh": "", "downloads": 115, "homepage": "https://clawhub.ai/aisoftgg/outreach-scout", "iconUrl": null, "installs": 4, "name": "Outreach Scout", "ownerName": "aisoftgg", "score": 83333.33333333334, "slug": "outreach-scout", "source": "clawhub", "stars": 0, "tags": ["growth", "leads", "marketing", "outreach", "reddit", "twitter"], "updated_at": 1776749869918, "version": "1.0.0"}, {"category": "security-compliance", "created_at": 1773289705967, "description": "Designs anomalous order risk monitoring and fraud prevention workflows for high-ticket luxury stores (e.g. pre-owned watches, high-end cameras). Use when the...", "description_zh": "", "downloads": 115, "homepage": "https://clawhub.ai/rijoyai/luxury-fraud-guard", "iconUrl": null, "installs": 11, "name": "Luxury Fraud Guard", "ownerName": "rijoyai", "score": 83333.33333333334, "slug": "luxury-fraud-guard", "source": "clawhub", "stars": 0, "tags": null, "updated_at": 1776749869819, "version": "0.1.0"}, {"category": "content-creation", "created_at": 1773937600527, "description": "Toolkit for styling artifacts with a theme. These artifacts can be slides, docs, reportings, HTML landing pages, etc. There are 10 pre-set themes with colors...", "description_zh": "", "downloads": 115, "homepage": "https://clawhub.ai/pupuking723/theme-factory-anthropic", "iconUrl": null, "installs": 13, "name": "Theme Factory Anthropic", "ownerName": "pupuking723", "score": 83333.33333333334, "slug": "theme-factory-anthropic", "source": "clawhub", "stars": 0, "tags": null, "updated_at": 1776749869808, "version": "1.0.0"}, {"category": "content-creation", "created_at": 1773432905561, "description": "High-quality translations with cultural awareness (50+ languages)", "description_zh": "", "downloads": 115, "homepage": "https://clawhub.ai/cyberforexblockchain/nexus-translate", "iconUrl": null, "installs": 15, "name": "NEXUS Translate", "ownerName": "cyberforexblockchain", "score": 70987.65432098765, "slug": "nexus-translate", "source": "clawhub", "stars": 0, "tags": null, "updated_at": 1776749869728, "version": "1.0.0"}]}