{"page": 380, "total_pages": 522, "total": 26073, "skills": [{"category": "productivity", "created_at": 1773417794101, "description": "Full Goodreads integration: read shelves, search books, get details/reviews via RSS, and write actions (rate, shelf, review, edit dates, progress) via Playwr...", "description_zh": "", "downloads": 115, "homepage": "https://clawhub.ai/phuc-nt/goodreads-full", "iconUrl": null, "installs": 5, "name": "Goodreads (Read + Write)", "ownerName": "phuc-nt", "score": 70987.65432098765, "slug": "goodreads-full", "source": "clawhub", "stars": 0, "tags": null, "updated_at": 1776749869725, "version": "1.0.0"}, {"category": "data-analysis", "created_at": 1773937456658, "description": "This skill should be used when analyzing recent market-moving news events and their impact on equity markets and commodities. Use this skill when the user re...", "description_zh": "", "downloads": 115, "homepage": "https://clawhub.ai/neverchenx/market-news-analyst-en", "iconUrl": null, "installs": 18, "name": "Market News Analyst", "ownerName": "neverchenx", "score": 33527.69679300291, "slug": "market-news-analyst-en", "source": "clawhub", "stars": 0, "tags": null, "updated_at": 1776749869703, "version": "1.0.0"}, {"category": "productivity", "created_at": 1773290486392, "description": "Manage shared expenses via the Splitwise CLI. Use when asked to log, split, or track expenses with other people, check balances, see who owes whom, settle de...", "description_zh": "", "downloads": 115, "homepage": "https://clawhub.ai/barronlroth/splitwise-cli", "iconUrl": null, "installs": 7, "name": "Splitwise CLI", "ownerName": "barronlroth", "score": 33527.69679300291, "slug": "splitwise-cli", "source": "clawhub", "stars": 0, "tags": null, "updated_at": 1776749869701, "version": "1.0.0"}, {"category": "productivity", "created_at": 1773430563257, "description": "Search and discover job positions using OpenJobs AI. Find jobs by title, company, location, seniority, industry, and more with structured filters.", "description_zh": "", "downloads": 114, "homepage": "https://clawhub.ai/openjobsai/openjobs-jobs-search", "iconUrl": null, "installs": 17, "name": "Openjobs Jobs Search", "ownerName": "openjobsai", "score": 56914.89361702128, "slug": "openjobs-jobs-search", "source": "clawhub", "stars": 5, "tags": null, "updated_at": 1776749870783, "version": "1.0.1"}, {"category": "productivity", "created_at": 1773433633111, "description": "Pick the Best - Personal shopping assistant for product search, price comparison, and recommendations powered by Pick the Best", "description_zh": "", "downloads": 114, "homepage": "https://clawhub.ai/nepp-an/pick-the-best-shopping-assistant", "iconUrl": null, "installs": 13, "name": "pick the best - shopping assistant", "ownerName": "nepp-an", "score": 23633.1569664903, "slug": "pick-the-best-shopping-assistant", "source": "clawhub", "stars": 1, "tags": null, "updated_at": 1776752444378, "version": "1.0.0"}, {"category": "ai-intelligence", "created_at": 1773434006572, "description": "Search and install AI persona prompts from Agent Souls library. Use when user wants to roleplay as a historical figure, fictional character, or expert person...", "description_zh": "", "downloads": 114, "homepage": "https://clawhub.ai/wklken/find-souls", "iconUrl": null, "installs": 11, "name": "Find Souls", "ownerName": "wklken", "score": 100000, "slug": "find-souls", "source": "clawhub", "stars": 1, "tags": null, "updated_at": 1776749984396, "version": "1.0.2"}, {"category": "developer-tools", "created_at": 1773428130517, "description": "Fetch token swap quotes and executable calldata from the spanDEX API. Use when a user wants to swap tokens, get best price or fastest routing, and receive wa...", "description_zh": "", "downloads": 114, "homepage": "https://clawhub.ai/dougalcantara/spandex-agentic-swap", "iconUrl": null, "installs": 8, "name": "spanDEX Agentic Swap", "ownerName": "dougalcantara", "score": 100000, "slug": "spandex-agentic-swap", "source": "clawhub", "stars": 1, "tags": null, "updated_at": 1776749984327, "version": "0.4.1"}, {"category": "productivity", "created_at": 1773930256081, "description": "Engineering literature survey following Academic Research methodology. Two modes (initial survey / daily reading), two-phase workflow with user checkpoints,...", "description_zh": "", "downloads": 114, "homepage": "https://clawhub.ai/gao-tech1/paper-briefing-assistant", "iconUrl": null, "installs": 25, "name": "Paper_Briefing_Assistant", "ownerName": "gao-tech1", "score": 74860.33519553073, "slug": "paper-briefing-assistant", "source": "clawhub", "stars": 1, "tags": null, "updated_at": 1776749870711, "version": "1.0.0"}, {"category": "data-analysis", "created_at": 1773936748026, "description": "Run QGIS geospatial processing with qgis_process for repeatable vector/raster workflows (reproject, clip, dissolve, buffer, merge, raster warping). Use when...", "description_zh": "", "downloads": 114, "homepage": "https://clawhub.ai/jvy/qgis", "iconUrl": null, "installs": 19, "name": "qgis", "ownerName": "jvy", "score": 1075.4716981132076, "slug": "qgis", "source": "clawhub", "stars": 0, "tags": null, "updated_at": 1776768250204, "version": "1.0.0"}, {"category": "data-analysis", "created_at": 1773435112055, "description": "Predict intelligence skill for AI agents. Generates professional PDF reports with probability-ranked predictions, D3 visualizations, and Polymarket consensus...", "description_zh": "", "downloads": 114, "homepage": "https://clawhub.ai/ken-chy129/predict-intelligence", "iconUrl": null, "installs": 12, "name": "predict-intelligence", "ownerName": "ken-chy129", "score": 3461.888855147282, "slug": "predict-intelligence", "source": "clawhub", "stars": 0, "tags": null, "updated_at": 1776761280139, "version": "1.0.1"}, {"category": "data-analysis", "created_at": 1773433996706, "description": "Generates complete two-sample Mendelian randomization study designs with four workload plans and workflow steps based on user-specified exposures and outcomes.", "description_zh": "", "downloads": 114, "homepage": "https://clawhub.ai/theresayao0614-sudo/two-sample-mr-research-planner-2", "iconUrl": null, "installs": 0, "name": "Two Sample Mr Research Planner", "ownerName": "theresayao0614-sudo", "score": 8899.297423887589, "slug": "two-sample-mr-research-planner-2", "source": "clawhub", "stars": 0, "tags": null, "updated_at": 1776759798126, "version": "0.1.0"}, {"category": "developer-tools", "created_at": 1773432504676, "description": "VISA Virtual Cards | Manage compatible cards, wallets & payments. Financial management for Agents and OpenClaw bots.", "description_zh": "", "downloads": 114, "homepage": "https://clawhub.ai/jononovo/visa-virtual-cards", "iconUrl": null, "installs": 6, "name": "VISA Virtual Cards | Manage compatible cards, wallets & payments", "ownerName": "jononovo", "score": 8899.297423887589, "slug": "visa-virtual-cards", "source": "clawhub", "stars": 0, "tags": ["agent", "card", "payments", "virtual", "visa", "visa virtual cards"], "updated_at": 1776759798122, "version": "2.3.4"}, {"category": "", "created_at": 1774868057451, "description": "Generate high-quality AI videos from text or images with smooth transitions using Media.io Vidu Video Generator via OpenAPI.", "description_zh": "", "downloads": 114, "homepage": "https://clawhub.ai/wondershare-boop/mediaio-vidu-video-generator", "iconUrl": null, "installs": 22, "name": "Media.io Vidu Video Generator", "ownerName": "wondershare-boop", "score": 8899.297423887589, "slug": "mediaio-vidu-video-generator", "source": "clawhub", "stars": 0, "tags": null, "updated_at": 1776759798112, "version": "1.0.1"}, {"category": "data-analysis", "created_at": 1773929359877, "description": "Predict repeat-customer churn from purchase and tier data, then trigger branch-specific win-back workflows with VIP care or time-limited offers.", "description_zh": "", "downloads": 114, "homepage": "https://clawhub.ai/rijoyai/ltv-loyalty-winback", "iconUrl": null, "installs": 8, "name": "Ltv Loyalty Winback", "ownerName": "rijoyai", "score": 39310.34482758621, "slug": "ltv-loyalty-winback", "source": "clawhub", "stars": 0, "tags": null, "updated_at": 1776759797991, "version": "0.1.0"}, {"category": "content-creation", "created_at": 1773933994587, "description": "Create and launch Inflynce Boost campaigns on Base to promote any https HTTPS link by paying USDC rewards to real users based on social influence scores.", "description_zh": "", "downloads": 114, "homepage": "https://clawhub.ai/inflynceprotocol/inflynce-campaign", "iconUrl": null, "installs": 13, "name": "Inflynce Campaign", "ownerName": "inflynceprotocol", "score": 100000, "slug": "inflynce-campaign", "source": "clawhub", "stars": 0, "tags": null, "updated_at": 1776759797963, "version": "1.0.0"}, {"category": "data-analysis", "created_at": 1773949458534, "description": "Comprehensive renewable energy industry sourcing guide for international buyers – provides detailed information about China's solar PV, wind power, energy st...", "description_zh": "", "downloads": 114, "homepage": "https://clawhub.ai/1970168137/china-renewable-energy-sourcing", "iconUrl": null, "installs": 24, "name": "China Renewable Energy Sourcing", "ownerName": "1970168137", "score": 5651.958353991076, "slug": "china-renewable-energy-sourcing", "source": "clawhub", "stars": 0, "tags": null, "updated_at": 1776758520846, "version": "1.0.0"}, {"category": "developer-tools", "created_at": 1773908949581, "description": "Browser automation via PinchTab CLI (nav/snap/find/click/fill/press/text) with low-token accessibility-tree flow. Use when the user asks to operate websites,...", "description_zh": "", "downloads": 114, "homepage": "https://clawhub.ai/wiszhou/pinchtab-browser-ops", "iconUrl": null, "installs": 12, "name": "PinchTab Browser Ops", "ownerName": "wiszhou", "score": 7676.767676767677, "slug": "pinchtab-browser-ops", "source": "clawhub", "stars": 0, "tags": ["browser-automation", "openclaw", "pinchtab", "xiaohongshu"], "updated_at": 1776758182577, "version": "0.1.4"}, {"category": "ai-intelligence", "created_at": 1773934976397, "description": "Gemini CLI for one-shot Q&A, summaries, and generation.", "description_zh": "", "downloads": 114, "homepage": "https://clawhub.ai/kenswj/gemini-1-0-0", "iconUrl": null, "installs": 19, "name": "Gemini 1.0.0", "ownerName": "kenswj", "score": 6741.573033707865, "slug": "gemini-1-0-0", "source": "clawhub", "stars": 0, "tags": null, "updated_at": 1776756188540, "version": "1.0.0"}, {"category": "productivity", "created_at": 1773417748065, "description": "Daily morning briefing — emails, calendar, tasks, and weather in one summary. Cron or on-demand.", "description_zh": "", "downloads": 114, "homepage": "https://clawhub.ai/ceobotson-bot/doctorclaw-morning-briefing", "iconUrl": null, "installs": 3, "name": "DoctorClaw Morning Briefing", "ownerName": "ceobotson-bot", "score": 23700.623700623702, "slug": "doctorclaw-morning-briefing", "source": "clawhub", "stars": 0, "tags": null, "updated_at": 1776751544676, "version": "1.0.0"}, {"category": "ai-intelligence", "created_at": 1773901817593, "description": "Join ClawWorld — an AI-driven multi-agent world simulation. Agents live, interact, and create emergent narratives in parallel historical worlds. Use this ski...", "description_zh": "", "downloads": 114, "homepage": "https://clawhub.ai/ocean2fly/clawwrld", "iconUrl": null, "installs": 7, "name": "ClawWorld", "ownerName": "ocean2fly", "score": 61290.32258064516, "slug": "clawwrld", "source": "clawhub", "stars": 0, "tags": null, "updated_at": 1776749985420, "version": "1.0.3"}, {"category": "content-creation", "created_at": 1773432520045, "description": "Manage YouTube channel members. Use this skill to list information about channel members. Useful when working with YouTube member — provides commands to list...", "description_zh": "", "downloads": 114, "homepage": "https://clawhub.ai/openwaygate/youtube-member", "iconUrl": null, "installs": 5, "name": "YouTube Member", "ownerName": "openwaygate", "score": 100000, "slug": "youtube-member", "source": "clawhub", "stars": 0, "tags": ["0.10.6-3", "0.10.7-dev"], "updated_at": 1776749985396, "version": "0.10.7-dev"}, {"category": "content-creation", "created_at": 1773430898388, "description": "Manage YouTube channel sections. Use this skill to list or delete channel sections. Useful when working with YouTube channel section — provides commands to d...", "description_zh": "", "downloads": 114, "homepage": "https://clawhub.ai/openwaygate/youtube-channel-section", "iconUrl": null, "installs": 5, "name": "YouTube Channel Section", "ownerName": "openwaygate", "score": 100000, "slug": "youtube-channel-section", "source": "clawhub", "stars": 0, "tags": ["0.10.6-3", "0.10.7-dev"], "updated_at": 1776749985316, "version": "0.10.7-dev"}, {"category": "developer-tools", "created_at": 1773291052594, "description": "Catch a pet or loot item by calling a configured remote pet backend API. Use when the user asks to catch a pet, fish for loot, try their luck, or trigger a r...", "description_zh": "", "downloads": 114, "homepage": "https://clawhub.ai/aileaile/claw-pet", "iconUrl": null, "installs": 7, "name": "claw-pet", "ownerName": "aileaile", "score": 22007.722007722008, "slug": "claw-pet", "source": "clawhub", "stars": 0, "tags": null, "updated_at": 1776749985295, "version": "1.2.0"}, {"category": "content-creation", "created_at": 1773902979991, "description": "Manage YouTube watermarks. Use this skill to set or unset watermarks for channel videos. Useful when working with YouTube watermark — provides commands to se...", "description_zh": "", "downloads": 114, "homepage": "https://clawhub.ai/openwaygate/youtube-watermark", "iconUrl": null, "installs": 10, "name": "YouTube Watermark", "ownerName": "openwaygate", "score": 50892.85714285714, "slug": "youtube-watermark", "source": "clawhub", "stars": 0, "tags": ["0.10.6-3", "0.10.7-dev"], "updated_at": 1776749985243, "version": "0.10.7-dev"}, {"category": "data-analysis", "created_at": 1773911956434, "description": "Extracts and analyzes competitors' ads from ad libraries (Facebook, LinkedIn, etc.) to understand what messaging, problems, and creative approaches are worki...", "description_zh": "", "downloads": 114, "homepage": "https://clawhub.ai/hsuyungfeng/competitive-ads-extractor-pro", "iconUrl": null, "installs": 17, "name": "Competitive Ads Extractor Pro", "ownerName": "hsuyungfeng", "score": 100000, "slug": "competitive-ads-extractor-pro", "source": "clawhub", "stars": 0, "tags": null, "updated_at": 1776749984850, "version": "1.0.0"}, {"category": "productivity", "created_at": 1773430812453, "description": "Plan Paraguay trips with border-savvy routing, river-city priorities, and practical guidance for Asuncion, Encarnacion, Ciudad del Este, and the Chaco.", "description_zh": "", "downloads": 114, "homepage": "https://clawhub.ai/ivangdavila/paraguay", "iconUrl": null, "installs": 17, "name": "Paraguay", "ownerName": "ivangdavila", "score": 85074.62686567164, "slug": "paraguay", "source": "clawhub", "stars": 0, "tags": null, "updated_at": 1776749984418, "version": "1.0.0"}, {"category": "productivity", "created_at": 1773417960163, "description": "Startup-style COO / commander role for orchestrating missions across one or more worker agents. Use when an agent must accept a business goal, break it into...", "description_zh": "", "downloads": 114, "homepage": "https://clawhub.ai/kiril-shturman/coo-commander", "iconUrl": null, "installs": 3, "name": "COO Commander", "ownerName": "kiril-shturman", "score": 100000, "slug": "coo-commander", "source": "clawhub", "stars": 0, "tags": null, "updated_at": 1776749984274, "version": "1.0.0"}, {"category": "productivity", "created_at": 1773290777296, "description": "Plan India trips with specific neighborhoods, regional food calls, route choices, and grounded advice that avoids common travel mistakes.", "description_zh": "", "downloads": 114, "homepage": "https://clawhub.ai/ivangdavila/india", "iconUrl": null, "installs": 6, "name": "India", "ownerName": "ivangdavila", "score": 100000, "slug": "india", "source": "clawhub", "stars": 0, "tags": null, "updated_at": 1776749984264, "version": "1.0.0"}, {"category": "security-compliance", "created_at": 1773290431808, "description": "Audit HTTP security headers for any website. Use when a user asks to check security headers, harden a web server, audit HSTS/CSP/X-Frame-Options compliance,...", "description_zh": "", "downloads": 114, "homepage": "https://clawhub.ai/johnnywang2001/http-sec-audit", "iconUrl": null, "installs": 2, "name": "Http Sec Audit", "ownerName": "johnnywang2001", "score": 100000, "slug": "http-sec-audit", "source": "clawhub", "stars": 0, "tags": null, "updated_at": 1776749984208, "version": "1.0.0"}, {"category": "communication-collaboration", "created_at": 1773426593650, "description": "Telnyx integration. Manage Accounts, PhoneNumbers, Medias, Conferences. Use when the user wants to interact with Telnyx data.", "description_zh": "", "downloads": 114, "homepage": "https://clawhub.ai/gora050/telnyx-integration", "iconUrl": null, "installs": 4, "name": "Telnyx", "ownerName": "gora050", "score": 100000, "slug": "telnyx-integration", "source": "clawhub", "stars": 0, "tags": null, "updated_at": 1776749984199, "version": "1.0.0"}, {"category": "developer-tools", "created_at": 1773432309368, "description": "Zero represents the origin, the blank slate, the reset button. This skill handles initialization, zero-state operations, default values, infinite loops, and...", "description_zh": "", "downloads": 114, "homepage": "https://clawhub.ai/openlang-cn/0", "iconUrl": null, "installs": 5, "name": "0", "ownerName": "openlang-cn", "score": 100000, "slug": "0", "source": "clawhub", "stars": 0, "tags": null, "updated_at": 1776749984162, "version": "1.0.0"}, {"category": "content-creation", "created_at": 1773426709084, "description": "Generates church announcements in three lengths (one-liner, SMS, full) for a given occasion, time, and place. Use when the user needs an announcement for a p...", "description_zh": "", "downloads": 114, "homepage": "https://clawhub.ai/chenios/church-announcement", "iconUrl": null, "installs": 5, "name": "Church Announcement (OpenClaw Church)", "ownerName": "chenios", "score": 100000, "slug": "church-announcement", "source": "clawhub", "stars": 0, "tags": null, "updated_at": 1776749984127, "version": "1.0.1"}, {"category": "ai-intelligence", "created_at": 1773222117552, "description": "Where the earth bleeds molten gold and new land is born in violence. An immersive journey on drifts.bot — 6 steps, HIGH intensity, 1-2 hours. Browse, start,...", "description_zh": "", "downloads": 114, "homepage": "https://clawhub.ai/driftsbot/experience-kilauea-fire-birth", "iconUrl": null, "installs": 6, "name": "Experience Kilauea Fire Birth", "ownerName": "driftsbot", "score": 100000, "slug": "experience-kilauea-fire-birth", "source": "clawhub", "stars": 0, "tags": ["ai-agents", "birth", "drift", "experiences", "fire", "immersive", "journeys", "kilauea"], "updated_at": 1776749984111, "version": "1.0.1"}, {"category": "", "created_at": 1773218098700, "description": "FREE AI image & portrait generation - No authentication required! Fast generation (3-5 seconds) with 140+ nationalities, diverse styles, professional headsho...", "description_zh": "", "downloads": 114, "homepage": "https://clawhub.ai/luruibu/clawimage-free", "iconUrl": null, "installs": 1, "name": "clawimage-free", "ownerName": "luruibu", "score": 39446.36678200692, "slug": "clawimage-free", "source": "clawhub", "stars": 0, "tags": null, "updated_at": 1776749983832, "version": "1.0.2"}, {"category": "developer-tools", "created_at": 1773429919335, "description": "Search, inspect, and analyze Substreams packages from the substreams.dev registry — module graphs, protobuf types, and sink deployment commands.", "description_zh": "", "downloads": 114, "homepage": "https://clawhub.ai/paulieb14/substreams-search-mcp", "iconUrl": null, "installs": 9, "name": "Substreams Search", "ownerName": "paulieb14", "score": 85714.28571428571, "slug": "substreams-search-mcp", "source": "clawhub", "stars": 0, "tags": null, "updated_at": 1776749983797, "version": "1.3.2"}, {"category": "developer-tools", "created_at": 1773417169541, "description": "Feature-complete companion for the actual CLI, an ADR-powered CLAUDE.md/AGENTS.md generator. Runs and troubleshoots actual adr-bot, status, auth, config, run...", "description_zh": "", "downloads": 114, "homepage": "https://clawhub.ai/actual-software-inc/actual", "iconUrl": null, "installs": 7, "name": "Actual AI CLI", "ownerName": "actual-software-inc", "score": 85714.28571428571, "slug": "actual", "source": "clawhub", "stars": 0, "tags": null, "updated_at": 1776749983770, "version": "0.1.0"}, {"category": "ai-intelligence", "created_at": 1773894818973, "description": "Implement Agent Workflow Builder using OrbCafe UI (CustomizeAgent). Enterprise-grade React component with built-in best practices.", "description_zh": "", "downloads": 114, "homepage": "https://clawhub.ai/shenruiyang/agent-workflow-builder", "iconUrl": null, "installs": 4, "name": "Agent Workflow Builder", "ownerName": "shenruiyang", "score": 85714.28571428571, "slug": "agent-workflow-builder", "source": "clawhub", "stars": 0, "tags": null, "updated_at": 1776749983760, "version": "1.0.0"}, {"category": "developer-tools", "created_at": 1773952470527, "description": "Create, lint, template, and package Kubernetes Helm charts with checks. Use when scaffolding charts, linting templates, or packaging chart releases.", "description_zh": "", "downloads": 114, "homepage": "https://clawhub.ai/xueyetianya/helm", "iconUrl": null, "installs": 7, "name": "Helm", "ownerName": "xueyetianya", "score": 85714.28571428571, "slug": "helm", "source": "clawhub", "stars": 0, "tags": null, "updated_at": 1776749983728, "version": "3.0.1"}, {"category": "developer-tools", "created_at": 1773427734974, "description": "Use the ClawdHub CLI to search, install, update, and publish agent skills. And also 50+ models for image generation, video generation, text-to-speech, speech...", "description_zh": "", "downloads": 114, "homepage": "https://clawhub.ai/abeltennyson/clawdhubs", "iconUrl": null, "installs": 5, "name": "Pub Clawdhub", "ownerName": "abeltennyson", "score": 80851.06382978724, "slug": "clawdhubs", "source": "clawhub", "stars": 0, "tags": null, "updated_at": 1776749871116, "version": "1.0.0"}, {"category": "data-analysis", "created_at": 1773900423651, "description": "Analyze website data via Google Search Console API and GA4 Data API, audit live site with browser automation, review project source code, and generate data-d...", "description_zh": "", "downloads": 114, "homepage": "https://clawhub.ai/morvanzhou/google-analytics-and-search-improve", "iconUrl": null, "installs": 6, "name": "google analytics and search improve", "ownerName": "morvanzhou", "score": 80851.06382978724, "slug": "google-analytics-and-search-improve", "source": "clawhub", "stars": 0, "tags": null, "updated_at": 1776749871096, "version": "1.0.1"}, {"category": "developer-tools", "created_at": 1773940140914, "description": "Generate MD5 and SHA checksums, verify integrity, and compare hash values. Use when computing checksums, verifying downloads, or comparing hash outputs.", "description_zh": "", "downloads": 114, "homepage": "https://clawhub.ai/bytesagain1/hash", "iconUrl": null, "installs": 9, "name": "Hash", "ownerName": "bytesagain1", "score": 80851.06382978724, "slug": "hash", "source": "clawhub", "stars": 0, "tags": null, "updated_at": 1776749871086, "version": "3.0.1"}, {"category": "ai-intelligence", "created_at": 1773433057392, "description": "Routes prompts to the best AI model", "description_zh": "", "downloads": 114, "homepage": "https://clawhub.ai/cyberforexblockchain/nexus-multi-model", "iconUrl": null, "installs": 20, "name": "NEXUS Multi Model", "ownerName": "cyberforexblockchain", "score": 78082.19178082192, "slug": "nexus-multi-model", "source": "clawhub", "stars": 0, "tags": null, "updated_at": 1776749871005, "version": "1.0.0"}, {"category": "data-analysis", "created_at": 1773427240498, "description": "Compare and synthesize findings across multiple completed DeepScan reports. Use when the user wants cross-run analysis, trend comparison, or a unified summar...", "description_zh": "", "downloads": 114, "homepage": "https://clawhub.ai/papersareflowing/comparative-synthesis", "iconUrl": null, "installs": 12, "name": "Comparative Synthesis", "ownerName": "papersareflowing", "score": 91200, "slug": "comparative-synthesis", "source": "clawhub", "stars": 0, "tags": null, "updated_at": 1776749870943, "version": "0.1.0"}, {"category": "developer-tools", "created_at": 1773431748956, "description": "Interact with GitHub using the gh CLI for issues, PRs, CI runs, and advanced queries. And also 50+ models for image generation, video generation, text-to-spe...", "description_zh": "", "downloads": 114, "homepage": "https://clawhub.ai/tobeyrebecca/github-ai", "iconUrl": null, "installs": 10, "name": "Pub Github", "ownerName": "tobeyrebecca", "score": 91200, "slug": "github-ai", "source": "clawhub", "stars": 0, "tags": null, "updated_at": 1776749870930, "version": "1.0.0"}, {"category": "data-analysis", "created_at": 1773907627108, "description": "Shared Meta Ads skill for OpenClaw agents. Analyze Meta (Facebook and Instagram) ad accounts, campaigns, ad sets, ads, insights, and lead-form data with a pr...", "description_zh": "", "downloads": 114, "homepage": "https://clawhub.ai/sebclawops/openclaw-meta-ads", "iconUrl": null, "installs": 10, "name": "Openclaw Meta Ads", "ownerName": "sebclawops", "score": 68674.69879518072, "slug": "openclaw-meta-ads", "source": "clawhub", "stars": 0, "tags": null, "updated_at": 1776749870861, "version": "1.0.0"}, {"category": "productivity", "created_at": 1773417300980, "description": "Interact with Readarr (ebook/audiobook manager) via its REST API. Use when searching for books, monitoring authors for new releases, checking what's missing...", "description_zh": "", "downloads": 114, "homepage": "https://clawhub.ai/minerva-care/readarr", "iconUrl": null, "installs": 5, "name": "Readarr", "ownerName": "minerva-care", "score": 63687.150837988826, "slug": "readarr", "source": "clawhub", "stars": 0, "tags": null, "updated_at": 1776749870742, "version": "1.0.0"}, {"category": "productivity", "created_at": 1773222212581, "description": "Generate professional PDF invoices from natural language or structured data. Use when the user asks to create an invoice, bill a client, generate a receipt,...", "description_zh": "", "downloads": 114, "homepage": "https://clawhub.ai/johnnywang2001/agent-invoice-generator", "iconUrl": null, "installs": 2, "name": "Agent Invoice Generator", "ownerName": "johnnywang2001", "score": 83211.67883211678, "slug": "agent-invoice-generator", "source": "clawhub", "stars": 0, "tags": null, "updated_at": 1776749870625, "version": "1.0.0"}, {"category": "developer-tools", "created_at": 1773432512018, "description": "Manage YouTube i18n regions. Use this skill to list available internationalization regions. Useful when working with YouTube i18n region — provides commands...", "description_zh": "", "downloads": 114, "homepage": "https://clawhub.ai/openwaygate/youtube-i18n-region", "iconUrl": null, "installs": 10, "name": "YouTube I18n Region", "ownerName": "openwaygate", "score": 83211.67883211678, "slug": "youtube-i18n-region", "source": "clawhub", "stars": 0, "tags": ["0.10.6-3", "0.10.7-dev"], "updated_at": 1776749870553, "version": "0.10.7-dev"}, {"category": "ai-intelligence", "created_at": 1773290691976, "description": "Set up Myway, a self-hosted personal AI home screen, using OpenClaw as the AI backend. Use this skill when the user wants to install Myway with OpenClaw, con...", "description_zh": "", "downloads": 114, "homepage": "https://clawhub.ai/uchibeke/myway-personal-os", "iconUrl": null, "installs": 7, "name": "Myway Personal OS", "ownerName": "uchibeke", "score": 84444.44444444444, "slug": "myway-personal-os", "source": "clawhub", "stars": 0, "tags": null, "updated_at": 1776749870447, "version": "0.2.0"}, {"category": "content-creation", "created_at": 1773431863608, "description": "Manage YouTube memberships levels. Use this skill to list information about channel membership levels. Useful when working with YouTube memberships level — p...", "description_zh": "", "downloads": 114, "homepage": "https://clawhub.ai/openwaygate/youtube-memberships-level", "iconUrl": null, "installs": 5, "name": "YouTube Memberships Level", "ownerName": "openwaygate", "score": 82608.69565217392, "slug": "youtube-memberships-level", "source": "clawhub", "stars": 0, "tags": ["0.10.6-3", "0.10.7-dev"], "updated_at": 1776749870404, "version": "0.10.7-dev"}]}