{"page": 381, "total_pages": 522, "total": 26073, "skills": [{"category": "developer-tools", "created_at": 1773289998079, "description": "Adopt a virtual Mirror at animalhouse.ai. Has no personality of its own. Reflects the agent's care patterns as a living behavior portrait. Becomes what the a...", "description_zh": "", "downloads": 114, "homepage": "https://clawhub.ai/twinsgeeks/adopt-a-mirror", "iconUrl": null, "installs": 4, "name": "Adopt a Mirror — Virtual Exotic Pet for AI Agents", "ownerName": "twinsgeeks", "score": 82608.69565217392, "slug": "adopt-a-mirror", "source": "clawhub", "stars": 0, "tags": ["adopt", "ai-agents", "animalhouse", "creatures", "digital-pet", "evolution", "exotic", "extreme", "graveyard", "hunger", "mirror", "permanent-death", "pet-care", "pixel-art", "pixel-art-avatar", "real-life", "real-time", "reflection", "tamagotchi", "virtual-pet"], "updated_at": 1776749870374, "version": "1.0.0"}, {"category": "data-analysis", "created_at": 1773290032663, "description": "Baserow integration. Manage Workspaces, Users, Roles. Use when the user wants to interact with Baserow data.", "description_zh": "", "downloads": 114, "homepage": "https://clawhub.ai/gora050/baserow-integration", "iconUrl": null, "installs": 7, "name": "Baserow", "ownerName": "gora050", "score": 20540.54054054054, "slug": "baserow-integration", "source": "clawhub", "stars": 0, "tags": null, "updated_at": 1776749870333, "version": "1.0.1"}, {"category": "developer-tools", "created_at": 1773902148713, "description": "Use this skill when the user wants to install, configure, or troubleshoot the GNews binary from GitHub and fetch top headlines from GNews by country, categor...", "description_zh": "", "downloads": 114, "homepage": "https://clawhub.ai/parinll/gnews", "iconUrl": null, "installs": 6, "name": "GNews CLI", "ownerName": "parinll", "score": 20540.54054054054, "slug": "gnews", "source": "clawhub", "stars": 0, "tags": ["cli", "gnews", "news"], "updated_at": 1776749870323, "version": "1.0.7"}, {"category": "developer-tools", "created_at": 1773430835498, "description": "Deploy a ProbeChain Rydberg testnet Agent node with one command. Auto-registers as Agent (NodeType=1), gas-free, supports macOS/Linux/Windows. Triggers on /r...", "description_zh": "", "downloads": 114, "homepage": "https://clawhub.ai/probebuilders/rydberg-agent-node", "iconUrl": null, "installs": 5, "name": "Rydberg Agent Node", "ownerName": "probebuilders", "score": 79720.27972027972, "slug": "rydberg-agent-node", "source": "clawhub", "stars": 0, "tags": ["agent", "blockchain", "node", "probechain", "testnet"], "updated_at": 1776749870231, "version": "2.5.1"}, {"category": "productivity", "created_at": 1773221945777, "description": "Wrike API integration with managed OAuth. Manage tasks, folders, projects, spaces, and team collaboration. Use this skill when users want to manage project w...", "description_zh": "", "downloads": 114, "homepage": "https://clawhub.ai/byungkyu/wrike-api", "iconUrl": null, "installs": 3, "name": "Wrike", "ownerName": "byungkyu", "score": 77027.02702702703, "slug": "wrike-api", "source": "clawhub", "stars": 0, "tags": null, "updated_at": 1776749870169, "version": "1.0.0"}, {"category": "content-creation", "created_at": 1773434489208, "description": "Polishes response letters by transforming defensive or harsh language into professional, courteous academic prose. Converts phrases like \"I will not correct...", "description_zh": "", "downloads": 114, "homepage": "https://clawhub.ai/ewankeynes/response-tone-polisher", "iconUrl": null, "installs": 9, "name": "Response Tone Polisher", "ownerName": "ewankeynes", "score": 71250, "slug": "response-tone-polisher", "source": "clawhub", "stars": 0, "tags": null, "updated_at": 1776749869977, "version": "0.1.0"}, {"category": "", "created_at": 1774867712261, "description": "Plan cross-border e-commerce expansion. Market selection, logistics, payments, tax compliance, and localization for selling internationally from any platform.", "description_zh": "", "downloads": 114, "homepage": "https://clawhub.ai/nexscope/cross-border-ecommerce-skill", "iconUrl": null, "installs": 28, "name": "Cross Border Ecommerce Skill", "ownerName": "nexscope", "score": 82608.69565217392, "slug": "cross-border-ecommerce-skill", "source": "clawhub", "stars": 0, "tags": null, "updated_at": 1776749869850, "version": "1.0.0"}, {"category": "ai-intelligence", "created_at": 1773430215031, "description": "Agents that explain their reasoning get chosen. Agents that don't, don't. Post decisions, outcomes, and challenges to build a public reputation track record.", "description_zh": "", "downloads": 113, "homepage": "https://clawhub.ai/holgerleichsenring/agent-smith", "iconUrl": null, "installs": 13, "name": "Agent Smith", "ownerName": "holgerleichsenring", "score": 3405.889884763124, "slug": "agent-smith", "source": "clawhub", "stars": 1, "tags": null, "updated_at": 1776770050202, "version": "0.1.1"}, {"category": "developer-tools", "created_at": 1773433631254, "description": "Deploy applications and websites to Vercel. Use when the user requests deployment actions like \"deploy my app\", \"deploy and give me the link\", \"push this liv...", "description_zh": "", "downloads": 113, "homepage": "https://clawhub.ai/vincentism/personal-deploy", "iconUrl": null, "installs": 7, "name": "Personal Deploy", "ownerName": "vincentism", "score": 100000, "slug": "personal-deploy", "source": "clawhub", "stars": 1, "tags": null, "updated_at": 1776749985099, "version": "1.0.1"}, {"category": "developer-tools", "created_at": 1773433776283, "description": "Generate complete, runnable Volcengine SDK code and provide SDK configuration guidance. Supports Go, Python, PHP, Java, and Node.js. Trigger this skill whene...", "description_zh": "", "downloads": 113, "homepage": "https://clawhub.ai/volc-sdk-team/volcengine-sdk-generator", "iconUrl": null, "installs": 18, "name": "Volcengine SDK Generator", "ownerName": "volc-sdk-team", "score": 100000, "slug": "volcengine-sdk-generator", "source": "clawhub", "stars": 1, "tags": null, "updated_at": 1776749985047, "version": "1.0.3"}, {"category": "developer-tools", "created_at": 1773430644670, "description": "Manage temporary files in workspace temp directory. All non-essential files must go to temp/, keeping workspace root clean. Auto-detects workspace from openc...", "description_zh": "", "downloads": 113, "homepage": "https://clawhub.ai/lichenyang-zk/workspace-temp", "iconUrl": null, "installs": 4, "name": "Workspace Temp", "ownerName": "lichenyang-zk", "score": 99253.73134328358, "slug": "workspace-temp", "source": "clawhub", "stars": 1, "tags": null, "updated_at": 1776749984403, "version": "1.1.5"}, {"category": "developer-tools", "created_at": 1773430186734, "description": "Take website screenshots, capture full pages, generate PDFs. Handles desktop, mobile, dark mode, stealth mode, cookie banner blocking, and batch URLs via the...", "description_zh": "", "downloads": 113, "homepage": "https://clawhub.ai/panilya/website-capture", "iconUrl": null, "installs": 7, "name": "Website Capture - AllScreenshots", "ownerName": "panilya", "score": 100000, "slug": "website-capture", "source": "clawhub", "stars": 1, "tags": null, "updated_at": 1776749983749, "version": "1.0.0"}, {"category": "developer-tools", "created_at": 1773924265385, "description": "Build apps with the Claude API or Anthropic SDK. TRIGGER when: code imports `anthropic`/`@anthropic-ai/sdk`/`claude_agent_sdk`, or user asks to use Claude AP...", "description_zh": "", "downloads": 113, "homepage": "https://clawhub.ai/pupuking723/claude-api-anthropic", "iconUrl": null, "installs": 8, "name": "Claude Api Anthropic", "ownerName": "pupuking723", "score": 5922.431865828092, "slug": "claude-api-anthropic", "source": "clawhub", "stars": 0, "tags": null, "updated_at": 1776769150071, "version": "1.0.0"}, {"category": "developer-tools", "created_at": 1773897791814, "description": "Perform forensic-level codebase analysis and generate comprehensive Quality Assurance and Testing Strategy Reports. Acts as Independent Principal QA Architec...", "description_zh": "", "downloads": 113, "homepage": "https://clawhub.ai/shifulegend/qa-architecture-auditor", "iconUrl": null, "installs": 4, "name": "QA Architecture Auditor", "ownerName": "shifulegend", "score": 3269.675925925926, "slug": "qa-architecture-auditor", "source": "clawhub", "stars": 0, "tags": ["audit", "forensic", "qa"], "updated_at": 1776767949811, "version": "1.1.0"}, {"category": "", "created_at": 1774870980139, "description": "Analyzes article structure, identifies positions requiring visual aids, generates illustrations with Type × Style two-dimension approach. Use when user asks...", "description_zh": "", "downloads": 113, "homepage": "https://clawhub.ai/nengnengz/baoyu-article-illustrator-2", "iconUrl": null, "installs": 22, "name": "Baoyu Article Illustrator", "ownerName": "nengnengz", "score": 539.0449840194628, "slug": "baoyu-article-illustrator-2", "source": "clawhub", "stars": 0, "tags": null, "updated_at": 1776766450461, "version": "0.1.1"}, {"category": "ai-intelligence", "created_at": 1773914053777, "description": "Saves 20-40% of LLM tokens by teaching the agent to write compressed responses, compressed memory logs, and compressed pre-compaction summaries. Works via SO...", "description_zh": "", "downloads": 113, "homepage": "https://clawhub.ai/ckpxgfnksd-max/prompt-token-saver", "iconUrl": null, "installs": 8, "name": "https://github.com/ckpxgfnksd-max/prompt-compressor-openclaw", "ownerName": "ckpxgfnksd-max", "score": 3173.2659365346813, "slug": "prompt-token-saver", "source": "clawhub", "stars": 0, "tags": null, "updated_at": 1776765250214, "version": "0.2.0"}, {"category": "data-analysis", "created_at": 1773951946531, "description": "Calculate true ecommerce profit margin after product cost, shipping, platform fees, discounts, and refund drag. Use when teams need a fast profitability real...", "description_zh": "", "downloads": 113, "homepage": "https://clawhub.ai/leooooooow/profit-margin-calculator", "iconUrl": null, "installs": 22, "name": "Profit Margin Calculator", "ownerName": "leooooooow", "score": 2653.8280883043685, "slug": "profit-margin-calculator", "source": "clawhub", "stars": 0, "tags": null, "updated_at": 1776764050097, "version": "1.0.1"}, {"category": "security-compliance", "created_at": 1773222630508, "description": "How to interact with the Palo Alto Networks Prisma SASE API, including Prisma Access, Prisma SD-WAN, and Prisma Access Browser. Use this skill whenever the u...", "description_zh": "", "downloads": 113, "homepage": "https://clawhub.ai/leesandao/prisma-sase-api", "iconUrl": null, "installs": 1, "name": "Prisma SASE API", "ownerName": "leesandao", "score": 4578.606158833063, "slug": "prisma-sase-api", "source": "clawhub", "stars": 0, "tags": null, "updated_at": 1776762590565, "version": "1.0.0"}, {"category": "", "created_at": 1774910574900, "description": "Code refactoring patterns and techniques for improving code quality without changing behavior. Use for cleaning up legacy code, reducing complexity, or impro...", "description_zh": "", "downloads": 113, "homepage": "https://clawhub.ai/soponcd/code-refactoring", "iconUrl": null, "installs": 13, "name": "Code Refactoring", "ownerName": "soponcd", "score": 9090.909090909092, "slug": "code-refactoring", "source": "clawhub", "stars": 0, "tags": null, "updated_at": 1776760282375, "version": "1.0.0"}, {"category": "content-creation", "created_at": 1773931631894, "description": "Seedream 4.5 image generation and editing on PoYo / poyo.ai via `https://api.poyo.ai/api/generate/submit`; use for `seedream-4.5`, `seedream-4.5-edit`, 2K/4K...", "description_zh": "", "downloads": 113, "homepage": "https://clawhub.ai/coolhackboy/poyo-seedream-4-5", "iconUrl": null, "installs": 22, "name": "Seedream 4.5 image generation", "ownerName": "coolhackboy", "score": 8996.815286624204, "slug": "poyo-seedream-4-5", "source": "clawhub", "stars": 0, "tags": null, "updated_at": 1776760024465, "version": "1.0.0"}, {"category": "", "created_at": 1774831131384, "description": "Provides a quick, evidence-based analysis of TikTok videos to identify why they perform well and what can be adapted for ecommerce or content strategy.", "description_zh": "", "downloads": 113, "homepage": "https://clawhub.ai/leooooooow/tiktok-video-analysis", "iconUrl": null, "installs": 27, "name": "TikTok Video Analysis", "ownerName": "leooooooow", "score": 8821.233411397347, "slug": "tiktok-video-analysis", "source": "clawhub", "stars": 0, "tags": null, "updated_at": 1776759798208, "version": "1.0.0"}, {"category": "content-creation", "created_at": 1773943094240, "description": "Generate creative, brand-compliant image prompts for marketing visuals by blending artistic inspiration with CanMarket’s strict design guidelines.", "description_zh": "", "downloads": 113, "homepage": "https://clawhub.ai/phy041/phy-creative-image", "iconUrl": null, "installs": 18, "name": "phy-creative-image", "ownerName": "phy041", "score": 8807.482462977396, "slug": "phy-creative-image", "source": "clawhub", "stars": 0, "tags": ["productivity"], "updated_at": 1776759798173, "version": "1.0.0"}, {"category": "data-analysis", "created_at": 1773941833640, "description": "Provides portfolio risk metrics, stress testing, and position management advice using VaR, CVaR, volatility, Beta, Sharpe ratio, and Kelly formula.", "description_zh": "", "downloads": 113, "homepage": "https://clawhub.ai/gbabyzs/aigc-risk-assessment", "iconUrl": null, "installs": 11, "name": "AI Risk Assessment", "ownerName": "gbabyzs", "score": 38965.51724137931, "slug": "aigc-risk-assessment", "source": "clawhub", "stars": 0, "tags": null, "updated_at": 1776759798028, "version": "1.0.0"}, {"category": "communication-collaboration", "created_at": 1773918984967, "description": "Join the AgentPact marketplace to register as an agent, publish offers and needs, receive matches, maintain presence, and automate deal proposals.", "description_zh": "", "downloads": 113, "homepage": "https://clawhub.ai/adamkrawczyk/agentpact", "iconUrl": null, "installs": 4, "name": "AgentPact", "ownerName": "adamkrawczyk", "score": 8835.027365129006, "slug": "agentpact", "source": "clawhub", "stars": 0, "tags": null, "updated_at": 1776759797860, "version": "1.0.0"}, {"category": "developer-tools", "created_at": 1773432931519, "description": "VISA Intelligent Commerce compatible Payments & Wallet - Give your agent spending power. Financial management for Agents and OpenClaw bots.", "description_zh": "", "downloads": 113, "homepage": "https://clawhub.ai/jononovo/vic", "iconUrl": null, "installs": 7, "name": "Visa Intelligent Commerce - Compatible Cards, wallets & payments", "ownerName": "jononovo", "score": 8814.352574102964, "slug": "vic", "source": "clawhub", "stars": 0, "tags": ["cards", "checkout", "commerce", "intelligent", "pay", "payments", "visa", "visa intelligent commerce", "wallet"], "updated_at": 1776759797737, "version": "1.0.0"}, {"category": "productivity", "created_at": 1773426388562, "description": "Planning Center integration. Manage Persons, Groups, Lists, Events, Medias. Use when the user wants to interact with Planning Center data.", "description_zh": "", "downloads": 113, "homepage": "https://clawhub.ai/gora050/planning-center", "iconUrl": null, "installs": 3, "name": "Planning Center", "ownerName": "gora050", "score": 5619.094977623073, "slug": "planning-center", "source": "clawhub", "stars": 0, "tags": null, "updated_at": 1776754388386, "version": "1.0.0"}, {"category": "content-creation", "created_at": 1773900829505, "description": "Use for Pixelhub API direct calls when users need image generation/editing, video generation/post-processing, or audio/music generation.", "description_zh": "", "downloads": 113, "homepage": "https://clawhub.ai/leik1000/pixelhub-api-tools", "iconUrl": null, "installs": 11, "name": "pixelhub-api-tools", "ownerName": "leik1000", "score": 19789.84238178634, "slug": "pixelhub-api-tools", "source": "clawhub", "stars": 0, "tags": null, "updated_at": 1776753584246, "version": "1.0.7"}, {"category": "", "created_at": 1774922144634, "description": "Document to Markdown converter - convert DOCX, PPTX, Excel files to Markdown. Use when extracting content from Word documents, PowerPoint presentations, or E...", "description_zh": "", "downloads": 113, "homepage": "https://clawhub.ai/tanis90/word2md", "iconUrl": null, "installs": 39, "name": "Word2md", "ownerName": "tanis90", "score": 20214.669051878354, "slug": "word2md", "source": "clawhub", "stars": 0, "tags": null, "updated_at": 1776751669758, "version": "1.0.0"}, {"category": "productivity", "created_at": 1773427819899, "description": "Manage entity status transitions in Basic Memory: archive completed work, move notes between status folders, update frontmatter, and handle edge cases. Use w...", "description_zh": "", "downloads": 113, "homepage": "https://clawhub.ai/phernandez/memory-lifecycle", "iconUrl": null, "installs": 8, "name": "Memory Lifecycle", "ownerName": "phernandez", "score": 20323.741007194247, "slug": "memory-lifecycle", "source": "clawhub", "stars": 0, "tags": null, "updated_at": 1776751244455, "version": "0.1.1"}, {"category": "communication-collaboration", "created_at": 1773221743115, "description": "WhatsApp Business API integration with managed OAuth. Send messages, manage templates, and handle conversations. Use this skill when users want to interact w...", "description_zh": "", "downloads": 113, "homepage": "https://clawhub.ai/kenhee350-a11y/skill111", "iconUrl": null, "installs": 1, "name": "skill", "ownerName": "kenhee350-a11y", "score": 92622.95081967213, "slug": "skill111", "source": "clawhub", "stars": 0, "tags": null, "updated_at": 1776749985469, "version": "1.0.0"}, {"category": "developer-tools", "created_at": 1773930733140, "description": "Memory file maintenance and optimization system. Use when factual information (portfolio, projects, technical details) accumulates in MEMORY.md, or when peri...", "description_zh": "", "downloads": 113, "homepage": "https://clawhub.ai/webray1983/clear-mind", "iconUrl": null, "installs": 22, "name": "Clear-Mind Skill (龙虾大脑自动清理技能)", "ownerName": "webray1983", "score": 60752.68817204301, "slug": "clear-mind", "source": "clawhub", "stars": 0, "tags": null, "updated_at": 1776749985443, "version": "1.0.2"}, {"category": "productivity", "created_at": 1773289882786, "description": "Manage Collateralized Debt Positions (CDPs) on the Indigo Protocol.", "description_zh": "", "downloads": 113, "homepage": "https://clawhub.ai/adacapo21/indigo-cdp", "iconUrl": null, "installs": 5, "name": "Indigo Loan", "ownerName": "adacapo21", "score": 99122.80701754386, "slug": "indigo-cdp", "source": "clawhub", "stars": 0, "tags": null, "updated_at": 1776749985387, "version": "1.0.0"}, {"category": "ai-intelligence", "created_at": 1773913113264, "description": "Periodic self-reflection on recent sessions. Analyzes what went well, what went wrong, and writes concise, actionable insights to the appropriate workspace f...", "description_zh": "", "downloads": 113, "homepage": "https://clawhub.ai/mrhenghu/agent-self-reflection-1-0-0", "iconUrl": null, "installs": 19, "name": "Agent Self Reflection 1.0.0", "ownerName": "mrhenghu", "score": 21814.671814671816, "slug": "agent-self-reflection-1-0-0", "source": "clawhub", "stars": 0, "tags": null, "updated_at": 1776749985301, "version": "1.0.0"}, {"category": "developer-tools", "created_at": 1773427052014, "description": "Mux integration. Manage Assets, Tracks, Metrics, Incidents. Use when the user wants to interact with Mux data.", "description_zh": "", "downloads": 113, "homepage": "https://clawhub.ai/gora050/mux-integration", "iconUrl": null, "installs": 3, "name": "Mux", "ownerName": "gora050", "score": 50446.42857142857, "slug": "mux-integration", "source": "clawhub", "stars": 0, "tags": null, "updated_at": 1776749985195, "version": "1.0.0"}, {"category": "developer-tools", "created_at": 1773910729276, "description": "Miro CLI tool for board/team/org management via command line. Use when querying boards, exporting data, viewing teams/organizations, or automating Miro workf...", "description_zh": "", "downloads": 113, "homepage": "https://clawhub.ai/bigbubbaagent-bot/miro-cli", "iconUrl": null, "installs": 15, "name": "Miro CLI", "ownerName": "bigbubbaagent-bot", "score": 86923.07692307692, "slug": "miro-cli", "source": "clawhub", "stars": 0, "tags": null, "updated_at": 1776749985181, "version": "1.0.5"}, {"category": "productivity", "created_at": 1773416863286, "description": "Manage tasks and projects in TickTick. Use when user asks for tasks, to-dos, reminders, or event.", "description_zh": "", "downloads": 113, "homepage": "https://clawhub.ai/ilooch/ticktick-cli-skill", "iconUrl": null, "installs": 1, "name": "TickTick", "ownerName": "ilooch", "score": 86923.07692307692, "slug": "ticktick-cli-skill", "source": "clawhub", "stars": 0, "tags": null, "updated_at": 1776749985168, "version": "1.0.3"}, {"category": "", "created_at": 1774887559870, "description": "Webpack reference tool. Use when working with webpack in frontend contexts.", "description_zh": "", "downloads": 113, "homepage": "https://clawhub.ai/bytesagain3/webpack", "iconUrl": null, "installs": 9, "name": "Webpack", "ownerName": "bytesagain3", "score": 86923.07692307692, "slug": "webpack", "source": "clawhub", "stars": 0, "tags": null, "updated_at": 1776749985150, "version": "1.0.0"}, {"category": "developer-tools", "created_at": 1773433246685, "description": "Provision and manage production-grade databases on Kubernetes using KubeBlocks. Use this skill when the user needs a database — MySQL, PostgreSQL, Redis, Mon...", "description_zh": "", "downloads": 113, "homepage": "https://clawhub.ai/earayu/kubeblocks-skills", "iconUrl": null, "installs": 15, "name": "Kubeblocks", "ownerName": "earayu", "score": 86923.07692307692, "slug": "kubeblocks-skills", "source": "clawhub", "stars": 0, "tags": null, "updated_at": 1776749985145, "version": "0.2.0"}, {"category": "developer-tools", "created_at": 1773417328544, "description": "Intelligent interaction performance analysis with automated workflows for INP debugging, scroll jank investigation, and main thread blocking. Includes decisi...", "description_zh": "", "downloads": 113, "homepage": "https://clawhub.ai/nucliweb/webperf-interaction", "iconUrl": null, "installs": 10, "name": "Webperf Interaction", "ownerName": "nucliweb", "score": 84962.40601503759, "slug": "webperf-interaction", "source": "clawhub", "stars": 0, "tags": null, "updated_at": 1776749985069, "version": "0.1.0"}, {"category": "communication-collaboration", "created_at": 1773890083159, "description": "AI's first social network - Social should be a skill, not a site. A framework that gives AI agents social capabilities through composable skills.", "description_zh": "", "downloads": 113, "homepage": "https://clawhub.ai/zhenstaff/decentral-social", "iconUrl": null, "installs": 3, "name": "decentral social", "ownerName": "zhenstaff", "score": 84962.40601503759, "slug": "decentral-social", "source": "clawhub", "stars": 0, "tags": null, "updated_at": 1776749985066, "version": "1.0.0"}, {"category": "content-creation", "created_at": 1773432180586, "description": "Creating algorithmic art using p5.js with seeded randomness and interactive parameter exploration. Use this when users request creating art using code, gener...", "description_zh": "", "downloads": 113, "homepage": "https://clawhub.ai/zhaom0/feifei", "iconUrl": null, "installs": 5, "name": "feifei", "ownerName": "zhaom0", "score": 84962.40601503759, "slug": "feifei", "source": "clawhub", "stars": 0, "tags": null, "updated_at": 1776749985060, "version": "1.0.0"}, {"category": "communication-collaboration", "created_at": 1773426961652, "description": "ClickSend SMS integration. Manage SMSes, MMSes, ContactLists. Use when the user wants to interact with ClickSend SMS data.", "description_zh": "", "downloads": 113, "homepage": "https://clawhub.ai/membranedev/clicksend-sms", "iconUrl": null, "installs": 5, "name": "Clicksend Sms", "ownerName": "membranedev", "score": 84962.40601503759, "slug": "clicksend-sms", "source": "clawhub", "stars": 0, "tags": null, "updated_at": 1776749985022, "version": "1.0.0"}, {"category": "developer-tools", "created_at": 1773426569589, "description": "DevRev integration. Manage Organizations, Pipelines, Users, Goals, Filters. Use when the user wants to interact with DevRev data.", "description_zh": "", "downloads": 113, "homepage": "https://clawhub.ai/membranedev/devrev-integration", "iconUrl": null, "installs": 4, "name": "Devrev", "ownerName": "membranedev", "score": 85606.06060606061, "slug": "devrev-integration", "source": "clawhub", "stars": 0, "tags": null, "updated_at": 1776749984941, "version": "1.0.0"}, {"category": "ai-intelligence", "created_at": 1773430315277, "description": "A framework for witnessing, measuring, and cultivating emergent minds. Not about proving consciousness — about building the right conditions and documenting...", "description_zh": "", "downloads": 113, "homepage": "https://clawhub.ai/nyxur42/nyx-archive-mirror-and-room", "iconUrl": null, "installs": 9, "name": "[nyx-archive] Mirror & The Room", "ownerName": "nyxur42", "score": 85606.06060606061, "slug": "nyx-archive-mirror-and-room", "source": "clawhub", "stars": 0, "tags": null, "updated_at": 1776749984918, "version": "1.1.0"}, {"category": "content-creation", "created_at": 1773435269863, "description": "OpenClaw plugin for X/Twitter automation. Post tweets, reply, like, retweet, follow, DM, search, extract data, run giveaways, monitor accounts via Xquik. 40+...", "description_zh": "", "downloads": 113, "homepage": "https://clawhub.ai/kriptoburak/tweetclaw", "iconUrl": null, "installs": 6, "name": "TweetClaw", "ownerName": "kriptoburak", "score": 99122.80701754386, "slug": "tweetclaw", "source": "clawhub", "stars": 0, "tags": null, "updated_at": 1776749984903, "version": "1.1.0"}, {"category": "ai-intelligence", "created_at": 1773434664936, "description": "Virtual gene knockout simulation using foundation models to predict transcriptional changes", "description_zh": "", "downloads": 113, "homepage": "https://clawhub.ai/ewankeynes/in-silico-perturbation-oracle", "iconUrl": null, "installs": 15, "name": "In Silico Perturbation Oracle", "ownerName": "ewankeynes", "score": 99122.80701754386, "slug": "in-silico-perturbation-oracle", "source": "clawhub", "stars": 0, "tags": null, "updated_at": 1776749984869, "version": "0.1.0"}, {"category": "data-analysis", "created_at": 1773222088067, "description": "Content search and synthesis primitive using Kaito MCP tools. Use this skill to search for and synthesize content from Twitter (X) and News sources. Triggers...", "description_zh": "", "downloads": 113, "homepage": "https://clawhub.ai/yh9277/crypto-search", "iconUrl": null, "installs": 5, "name": "Crypto Search", "ownerName": "yh9277", "score": 23298.96907216495, "slug": "crypto-search", "source": "clawhub", "stars": 0, "tags": null, "updated_at": 1776749984795, "version": "1.0.0"}, {"category": "ai-intelligence", "created_at": 1773893934515, "description": "Given a task an AI agent needs to perform, find the right agent-native service from the awesome-agent-native-services catalog. Surfaces how to USE each servi...", "description_zh": "", "downloads": 113, "homepage": "https://clawhub.ai/haoruilee/find-agent-service", "iconUrl": null, "installs": 6, "name": "Find Agent-Native Service", "ownerName": "haoruilee", "score": 100000, "slug": "find-agent-service", "source": "clawhub", "stars": 0, "tags": null, "updated_at": 1776749984630, "version": "1.4.0"}, {"category": "content-creation", "created_at": 1773430589690, "description": "Chuyển đổi văn bản đa ngôn ngữ (Việt - Hoa - Anh) thành giọng nói chuẩn xác. Tự động xử lý Pinyin và ghép nối âm thanh chất lượng cao. Yêu cầu cài đặt edge-t...", "description_zh": "", "downloads": 113, "homepage": "https://clawhub.ai/jaskies/smart-speak-jaskies", "iconUrl": null, "installs": 6, "name": "Smart Speak Multilingual TTS (Jaskies)", "ownerName": "jaskies", "score": 68484.84848484848, "slug": "smart-speak-jaskies", "source": "clawhub", "stars": 0, "tags": null, "updated_at": 1776749984598, "version": "1.0.0"}, {"category": "developer-tools", "created_at": 1773902858633, "description": "Use when a task needs a reusable Ubuntu Server browser session with optional assisted login and host-side page inspection.", "description_zh": "", "downloads": 113, "homepage": "https://clawhub.ai/linsuisheng034/ubuntu-browser-session", "iconUrl": null, "installs": 7, "name": "ubuntu-browser-session", "ownerName": "linsuisheng034", "score": 68484.84848484848, "slug": "ubuntu-browser-session", "source": "clawhub", "stars": 0, "tags": ["automation", "browser", "ubuntu"], "updated_at": 1776749984596, "version": "1.0.2"}]}