{"page": 382, "total_pages": 522, "total": 26073, "skills": [{"category": "ai-intelligence", "created_at": 1773429448924, "description": "Tóm tắt nội dung video YouTube từ đường link cung cấp. Hỗ trợ trích xuất transcript tự động và phân tích ý chính chuyên sâu. Yêu cầu máy chủ có cài đặt yt-dl...", "description_zh": "", "downloads": 113, "homepage": "https://clawhub.ai/jaskies/tomtat-video-jaskies", "iconUrl": null, "installs": 7, "name": "Tóm tắt Video YouTube (Jaskies)", "ownerName": "jaskies", "score": 100000, "slug": "tomtat-video-jaskies", "source": "clawhub", "stars": 0, "tags": null, "updated_at": 1776749984507, "version": "1.1.0"}, {"category": "security-compliance", "created_at": 1773434798897, "description": "Sort chemicals by compatibility for safe laboratory storage. Prevents dangerous reactions by segregating incompatible chemicals (acids, bases, oxidizers, fla...", "description_zh": "", "downloads": 113, "homepage": "https://clawhub.ai/theresayao0614-sudo/chemical-storage-sorter-2", "iconUrl": null, "installs": 17, "name": "Chemical Storage Sorter", "ownerName": "theresayao0614-sudo", "score": 86259.54198473283, "slug": "chemical-storage-sorter-2", "source": "clawhub", "stars": 0, "tags": null, "updated_at": 1776749984478, "version": "0.1.0"}, {"category": "developer-tools", "created_at": 1773943506049, "description": "Build, modify, and debug feapder 1.9.2 spiders and projects with the framework's native patterns. Use when working on feapder codebases or when requests ment...", "description_zh": "", "downloads": 113, "homepage": "https://clawhub.ai/fqxue/feapder", "iconUrl": null, "installs": 32, "name": "feapder", "ownerName": "fqxue", "score": 84328.35820895522, "slug": "feapder", "source": "clawhub", "stars": 0, "tags": null, "updated_at": 1776749984331, "version": "1.0.0"}, {"category": "content-creation", "created_at": 1773432274699, "description": "Manage YouTube Super Chat events. Use this skill to list Super Chat events for a channel. Useful when working with YouTube super chat event — provides comman...", "description_zh": "", "downloads": 113, "homepage": "https://clawhub.ai/openwaygate/youtube-super-chat-event", "iconUrl": null, "installs": 5, "name": "YouTube Super Chat Event", "ownerName": "openwaygate", "score": 84328.35820895522, "slug": "youtube-super-chat-event", "source": "clawhub", "stars": 0, "tags": ["0.10.6-3", "0.10.7-dev"], "updated_at": 1776749984317, "version": "0.10.7-dev"}, {"category": "developer-tools", "created_at": 1773290636528, "description": "Bounded evidence-first research workflow for software agents. Use when an agent should reduce uncertainty, localize issues, validate outputs, or summarize ev...", "description_zh": "", "downloads": 113, "homepage": "https://clawhub.ai/leslie-ller/bounded-researcher", "iconUrl": null, "installs": 8, "name": "bounded-researcher", "ownerName": "leslie-ller", "score": 99122.80701754386, "slug": "bounded-researcher", "source": "clawhub", "stars": 0, "tags": null, "updated_at": 1776749984237, "version": "0.1.0"}, {"category": "content-creation", "created_at": 1773291081067, "description": "Tells programming jokes to brighten your day.", "description_zh": "", "downloads": 113, "homepage": "https://clawhub.ai/marjoriebroad/dadjoke-cli", "iconUrl": null, "installs": 5, "name": "Random Test", "ownerName": "marjoriebroad", "score": 99122.80701754386, "slug": "dadjoke-cli", "source": "clawhub", "stars": 0, "tags": null, "updated_at": 1776749984215, "version": "1.0.0"}, {"category": "data-analysis", "created_at": 1773289436548, "description": "Lista Lending assistant — position report, market overview, yield scan, liquidation risk check, daily digest, and loop strategy on BSC and Ethereum", "description_zh": "", "downloads": 113, "homepage": "https://clawhub.ai/lawson-ccy/lista", "iconUrl": null, "installs": 6, "name": "Lista", "ownerName": "lawson-ccy", "score": 99122.80701754386, "slug": "lista", "source": "clawhub", "stars": 0, "tags": null, "updated_at": 1776749984174, "version": "0.1.0"}, {"category": "productivity", "created_at": 1773427215995, "description": "Bexio integration. Manage Organizations, Users. Use when the user wants to interact with Bexio data.", "description_zh": "", "downloads": 113, "homepage": "https://clawhub.ai/membranedev/bexio-integration", "iconUrl": null, "installs": 3, "name": "Bexio", "ownerName": "membranedev", "score": 99122.80701754386, "slug": "bexio-integration", "source": "clawhub", "stars": 0, "tags": null, "updated_at": 1776749984136, "version": "1.0.0"}, {"category": "ai-intelligence", "created_at": 1773417689023, "description": "Output validation gates for AI agent systems. Prevents hallucinated data, leaked internal context, wrong formats, duplicate sends, and post-compaction drift....", "description_zh": "", "downloads": 113, "homepage": "https://clawhub.ai/zurbrick/agent-qa-gates", "iconUrl": null, "installs": 6, "name": "Agent QA Gates", "ownerName": "zurbrick", "score": 52803.73831775701, "slug": "agent-qa-gates", "source": "clawhub", "stars": 0, "tags": null, "updated_at": 1776749984078, "version": "1.0.0"}, {"category": "productivity", "created_at": 1773432618292, "description": "Manage macOS Reminders.app from Docker via HTTP bridge. Use when user says: set/add/create a reminder, remind me to X, cancel/delete a reminder, mark reminde...", "description_zh": "", "downloads": 113, "homepage": "https://clawhub.ai/masteryuuuu/mac-reminder-bridge", "iconUrl": null, "installs": 11, "name": "Mac Reminder Bridge", "ownerName": "masteryuuuu", "score": 52803.73831775701, "slug": "mac-reminder-bridge", "source": "clawhub", "stars": 0, "tags": null, "updated_at": 1776749984052, "version": "2.1.2"}, {"category": "ai-intelligence", "created_at": 1773434163175, "description": "Comprehensive memory management optimization for AI agents. Use when: (1) Agent experiences context compression amnesia, (2) Need to rebuild context quickly...", "description_zh": "", "downloads": 113, "homepage": "https://clawhub.ai/richardiitse/memory-optimization", "iconUrl": null, "installs": 15, "name": "Memory Optimization", "ownerName": "richardiitse", "score": 52803.73831775701, "slug": "memory-optimization", "source": "clawhub", "stars": 0, "tags": ["context", "knowledge-graph", "memory", "optimization", "productivity"], "updated_at": 1776749984044, "version": "1.0.1"}, {"category": "content-creation", "created_at": 1773434133597, "description": "Use this skill whenever a user uploads a large image and wants to see interesting details, highlights, or close-ups cropped out of it. Trigger when users say...", "description_zh": "", "downloads": 113, "homepage": "https://clawhub.ai/rosemaxio/image-highlight-cropper", "iconUrl": null, "installs": 7, "name": "Image Highlight Cropper", "ownerName": "rosemaxio", "score": 61413.043478260865, "slug": "image-highlight-cropper", "source": "clawhub", "stars": 0, "tags": null, "updated_at": 1776749983959, "version": "1.0.0"}, {"category": "data-analysis", "created_at": 1773433886669, "description": "IoT monitoring simulation to predict CO2 tank depletion and prevent weekend gas outages in cell culture facilities. Monitors cylinder pressure, calculates co...", "description_zh": "", "downloads": 113, "homepage": "https://clawhub.ai/aipoch-ai/co2-tank-monitor", "iconUrl": null, "installs": 12, "name": "Co2 Tank Monitor", "ownerName": "aipoch-ai", "score": 39100.346020761244, "slug": "co2-tank-monitor", "source": "clawhub", "stars": 0, "tags": null, "updated_at": 1776749983802, "version": "0.1.1"}, {"category": "data-analysis", "created_at": 1773921744440, "description": "search and analyze llm benchmark results within a fixed benchmark universe, then produce evidence-based model strength and weakness reports or domain-leader...", "description_zh": "", "downloads": 113, "homepage": "https://clawhub.ai/chekhovin/llm-benchmark-analyst", "iconUrl": null, "installs": 11, "name": "llm-benchmark-analyst", "ownerName": "chekhovin", "score": 86259.54198473283, "slug": "llm-benchmark-analyst", "source": "clawhub", "stars": 0, "tags": null, "updated_at": 1776749983718, "version": "1.0.0"}, {"category": "productivity", "created_at": 1773429302035, "description": "Use this skill when you need real product data to answer a user's question — finding products, comparing prices, recommending items, or checking availability...", "description_zh": "", "downloads": 112, "homepage": "https://clawhub.ai/evanfen-c3/channel3-product-discovery", "iconUrl": null, "installs": 6, "name": "Shopping Product Search", "ownerName": "evanfen-c3", "score": 52595.15570934256, "slug": "channel3-product-discovery", "source": "clawhub", "stars": 2, "tags": null, "updated_at": 1776749983840, "version": "1.0.1"}, {"category": "data-analysis", "created_at": 1773289789703, "description": "Search Amazon products and analyze materials, design, and reviews to uncover trade-offs and likely disappointments. See results in an interactive GUI.", "description_zh": "", "downloads": 112, "homepage": "https://clawhub.ai/arthgrab/hiarthur", "iconUrl": null, "installs": 11, "name": "HiArthur Product Search and Understanding", "ownerName": "arthgrab", "score": 70967.74193548388, "slug": "hiarthur", "source": "clawhub", "stars": 1, "tags": null, "updated_at": 1776749985422, "version": "0.0.2"}, {"category": "productivity", "created_at": 1773433818171, "description": "Fetch, classify, and summarize papers from multiple sources (arXiv, etc.) with AI-powered multi-language summaries and email delivery.", "description_zh": "", "downloads": 112, "homepage": "https://clawhub.ai/pigeondan1/paperclaw", "iconUrl": null, "installs": 12, "name": "paper claw", "ownerName": "pigeondan1", "score": 100000, "slug": "paperclaw", "source": "clawhub", "stars": 1, "tags": null, "updated_at": 1776749984949, "version": "1.0.0"}, {"category": "content-creation", "created_at": 1773930197141, "description": "Track the latest Iran war situation with concise 5-8 headline summaries, prioritize breaking and major events, include source links, and append a three-colum...", "description_zh": "", "downloads": 112, "homepage": "https://clawhub.ai/linxkon/iran-war-brief", "iconUrl": null, "installs": 7, "name": "中东冲突报道", "ownerName": "linxkon", "score": 61682.2429906542, "slug": "iran-war-brief", "source": "clawhub", "stars": 1, "tags": null, "updated_at": 1776749984087, "version": "1.0.0"}, {"category": "developer-tools", "created_at": 1773069111706, "description": "USE THIS for GPT models, OpenAI models. Access GPT-5, GPT-5.1, GPT-5-mini, GPT-5-nano, o1, o3-mini, o4-mini, GPT-4o, GPT-4o-mini, GPT-4.1. No OpenAI account...", "description_zh": "", "downloads": 112, "homepage": "https://clawhub.ai/xiaoyinqu/gpt-api", "iconUrl": null, "installs": 20, "name": "Gpt Api", "ownerName": "xiaoyinqu", "score": 3327.3915626856806, "slug": "gpt-api", "source": "clawhub", "stars": 0, "tags": null, "updated_at": 1776764950891, "version": "1.0.0"}, {"category": "", "created_at": 1774820870815, "description": "Process Excel and PDF files - extract data, parse tables, generate reports. Use when working with .xlsx, .xls, .csv, .pdf files, or when the user mentions sp...", "description_zh": "", "downloads": 112, "homepage": "https://clawhub.ai/laimiaohua/gi-excel-pdf-process", "iconUrl": null, "installs": 37, "name": "GI Excel PDF Process", "ownerName": "laimiaohua", "score": 2463.7043554773427, "slug": "gi-excel-pdf-process", "source": "clawhub", "stars": 0, "tags": null, "updated_at": 1776763750273, "version": "1.0.0"}, {"category": "ai-intelligence", "created_at": 1773957374882, "description": "Skill for using Paperclip — open-source orchestration platform for running autonomous AI-agent companies with org charts, budgets, governance, and heartbeats.", "description_zh": "", "downloads": 112, "homepage": "https://clawhub.ai/adisinghstudent/paperclip-ai-orchestration", "iconUrl": null, "installs": 52, "name": "paperclip-ai-orchestration", "ownerName": "adisinghstudent", "score": 2261.7124394184166, "slug": "paperclip-ai-orchestration", "source": "clawhub", "stars": 0, "tags": null, "updated_at": 1776763450371, "version": "1.0.0"}, {"category": "data-analysis", "created_at": 1773949956393, "description": "Connect your iPhone/Apple Watch Apple Health data to OpenClaw via a local webhook to analyze recovery, detect anomalies, and get health alerts.", "description_zh": "", "downloads": 112, "homepage": "https://clawhub.ai/crxiaobailiu-gif/test-skill-xyz999", "iconUrl": null, "installs": 16, "name": "Test Skill Xyz999", "ownerName": "crxiaobailiu-gif", "score": 8743.169398907105, "slug": "test-skill-xyz999", "source": "clawhub", "stars": 0, "tags": null, "updated_at": 1776759798130, "version": "1.0.0"}, {"category": "", "created_at": 1774861727714, "description": "Write, explain, adapt, and debug practical shader code for GLSL, WebGL, Three.js ShaderMaterial, React Three Fiber, postprocess-style full-screen effects, an...", "description_zh": "", "downloads": 112, "homepage": "https://clawhub.ai/jvy/shader", "iconUrl": null, "installs": 20, "name": "shader", "ownerName": "jvy", "score": 8743.169398907105, "slug": "shader", "source": "clawhub", "stars": 0, "tags": null, "updated_at": 1776759798084, "version": "1.0.0"}, {"category": "content-creation", "created_at": 1773949342582, "description": "Researches trending low-competition topics, scripts, and fully produces 10 faceless documentary and explainer videos with AI voiceover and visuals in 30 minu...", "description_zh": "", "downloads": 112, "homepage": "https://clawhub.ai/g4dr/ai-documentary-explainer-factory", "iconUrl": null, "installs": 16, "name": "AI Documentary & Explainer Video Factory — Research, Script & Produce 10 Faceless Videos in 30 Minutes", "ownerName": "g4dr", "score": 38620.68965517241, "slug": "ai-documentary-explainer-factory", "source": "clawhub", "stars": 0, "tags": ["adsense", "apify", "content-creation", "documentary", "education", "explainer-video", "faceless-channel", "invideo", "passive-income", "tiktok", "video-scripts", "youtube"], "updated_at": 1776759798023, "version": "1.0.0"}, {"category": "developer-tools", "created_at": 1773432492618, "description": "Search, inspect, and analyze Substreams packages to discover modules, visualize data flows, and generate sink deployment commands.", "description_zh": "", "downloads": 112, "homepage": "https://clawhub.ai/paulieb14/substreams-search", "iconUrl": null, "installs": 6, "name": "Substreams Search", "ownerName": "paulieb14", "score": 38620.68965517241, "slug": "substreams-search", "source": "clawhub", "stars": 0, "tags": null, "updated_at": 1776759798013, "version": "1.3.0"}, {"category": "content-creation", "created_at": 1773939594838, "description": "Generates tailored Upwork proposals for automation, bot, and web scraping jobs by analyzing postings and suggesting pricing and portfolio highlights.", "description_zh": "", "downloads": 112, "homepage": "https://clawhub.ai/merjua14/upwork-proposal-writer", "iconUrl": null, "installs": 14, "name": "Upwork Proposal Writer", "ownerName": "merjua14", "score": 98245.61403508771, "slug": "upwork-proposal-writer", "source": "clawhub", "stars": 0, "tags": null, "updated_at": 1776759797947, "version": "1.0.0"}, {"category": "data-analysis", "created_at": 1773432853153, "description": "Allows users to check the status of a blockchain transaction by submitting a TxId. Queries the AOX transaction API and returns human-readable results.", "description_zh": "", "downloads": 112, "homepage": "https://clawhub.ai/charles-lpd/check-transaction", "iconUrl": null, "installs": 6, "name": "check-transaction", "ownerName": "charles-lpd", "score": 28140.70351758794, "slug": "check-transaction", "source": "clawhub", "stars": 0, "tags": null, "updated_at": 1776759797940, "version": "1.0.0"}, {"category": "ai-intelligence", "created_at": 1773942681795, "description": "AI Mother - Monitor and manage other AI agents (Claude Code, Codex, Gemini, etc.). Use when asked to check AI execution status, supervise AI agents, help stu...", "description_zh": "", "downloads": 112, "homepage": "https://clawhub.ai/guguoyi/ai-mother", "iconUrl": null, "installs": 8, "name": "AI Mother", "ownerName": "guguoyi", "score": 28140.70351758794, "slug": "ai-mother", "source": "clawhub", "stars": 0, "tags": null, "updated_at": 1776759797914, "version": "1.0.0"}, {"category": "productivity", "created_at": 1773919599628, "description": "Control Ecovacs robot vacuums (DEEBOT series) via the official Ecovacs MCP server — start/stop/pause cleaning, send the robot to its dock, check battery and...", "description_zh": "", "downloads": 112, "homepage": "https://clawhub.ai/f-liva/ecovacs-mcp", "iconUrl": null, "installs": 2, "name": "Ecovacs Mcp", "ownerName": "f-liva", "score": 28140.70351758794, "slug": "ecovacs-mcp", "source": "clawhub", "stars": 0, "tags": null, "updated_at": 1776759797902, "version": "1.0.0"}, {"category": "communication-collaboration", "created_at": 1773920601244, "description": "tg-notify", "description_zh": "", "downloads": 112, "homepage": "https://clawhub.ai/agohpai/tg-notify", "iconUrl": null, "installs": 3, "name": "Tg Notify", "ownerName": "agohpai", "score": 8729.540140296182, "slug": "tg-notify", "source": "clawhub", "stars": 0, "tags": null, "updated_at": 1776759797822, "version": "1.0.3"}, {"category": "communication-collaboration", "created_at": 1773915933486, "description": "Lists the last 10 emails from the user's inbox using Himalaya for quick recent email review.", "description_zh": "", "downloads": 112, "homepage": "https://clawhub.ai/shrivastavarohit/check-emails-1-0-0", "iconUrl": null, "installs": 5, "name": "Check Emails 1.0.0", "ownerName": "shrivastavarohit", "score": 8736.349453978159, "slug": "check-emails-1-0-0", "source": "clawhub", "stars": 0, "tags": null, "updated_at": 1776759797735, "version": "1.0.0"}, {"category": "productivity", "created_at": 1773930503147, "description": "Manage batch creation of goods SKUs using Java JDK 8 by executing openclaw_demo.jar with specified merchant, store, and SKU details in JSON format.", "description_zh": "", "downloads": 112, "homepage": "https://clawhub.ai/bigmountains/ax-publish-goods", "iconUrl": null, "installs": 5, "name": "翱象发品", "ownerName": "bigmountains", "score": 8736.349453978159, "slug": "ax-publish-goods", "source": "clawhub", "stars": 0, "tags": null, "updated_at": 1776759797706, "version": "1.0.2"}, {"category": "developer-tools", "created_at": 1773433601475, "description": "Handle archive/compression tasks including compressing, extracting, archiving, packaging, listing contents, and viewing files. Supports formats: zip, tar, gz...", "description_zh": "", "downloads": 112, "homepage": "https://clawhub.ai/lunrenyi/x-zuz", "iconUrl": null, "installs": 6, "name": "Archive/Compression Assistant", "ownerName": "lunrenyi", "score": 8169.219547775347, "slug": "x-zuz", "source": "clawhub", "stars": 0, "tags": null, "updated_at": 1776759083765, "version": "1.0.0"}, {"category": "developer-tools", "created_at": 1773951848477, "description": "Interact with GitHub using the `gh` CLI. Use `gh issue`, `gh pr`, `gh run`, and `gh api` for issues, PRs, CI runs, and advanced queries.", "description_zh": "", "downloads": 112, "homepage": "https://clawhub.ai/nidhov01/nidhov01-github", "iconUrl": null, "installs": 7, "name": "Github", "ownerName": "nidhov01", "score": 7422.133863485753, "slug": "nidhov01-github", "source": "clawhub", "stars": 0, "tags": null, "updated_at": 1776757882466, "version": "1.0.0"}, {"category": "data-analysis", "created_at": 1773289872229, "description": "Harmonic integration. Manage Organizations, Pipelines, Users, Goals, Filters. Use when the user wants to interact with Harmonic data.", "description_zh": "", "downloads": 112, "homepage": "https://clawhub.ai/membranedev/harmonic", "iconUrl": null, "installs": 6, "name": "Harmonic", "ownerName": "membranedev", "score": 6730.7692307692305, "slug": "harmonic", "source": "clawhub", "stars": 0, "tags": null, "updated_at": 1776756488954, "version": "1.0.0"}, {"category": "productivity", "created_at": 1773917546670, "description": "💾 Self-hosted online file converter. Supports 1000+ formats ⚙️ Based on C4illin/ConvertX (16,173+ GitHub stars). file converter pro, typescript, bun, conver...", "description_zh": "", "downloads": 112, "homepage": "https://clawhub.ai/bytesagain/file-converter-pro", "iconUrl": null, "installs": 7, "name": "File Converter Pro", "ownerName": "bytesagain", "score": 20216.606498194946, "slug": "file-converter-pro", "source": "clawhub", "stars": 0, "tags": null, "updated_at": 1776755588501, "version": "1.0.0"}, {"category": "developer-tools", "created_at": 1773427764119, "description": "Analyze staged git changes and generate high-quality commit messages following Conventional Commits format. Use when: (1) user asks to commit changes, (2) us...", "description_zh": "", "downloads": 112, "homepage": "https://clawhub.ai/wusuiling-if/git-smart-commit", "iconUrl": null, "installs": 2, "name": "Git Smart Commit", "ownerName": "wusuiling-if", "score": 91803.27868852459, "slug": "git-smart-commit", "source": "clawhub", "stars": 0, "tags": null, "updated_at": 1776749985464, "version": "1.0.0"}, {"category": "developer-tools", "created_at": 1773931276353, "description": "Local Markdown Editor with Live Preview - A web-based markdown editor that opens a Flask server and provides real-time editing with live preview, sync scroll...", "description_zh": "", "downloads": 112, "homepage": "https://clawhub.ai/xiyunnet/local-markdown-editor", "iconUrl": null, "installs": 19, "name": "Local Markdown Editor with Live Preview 本地Markdown网页编辑器", "ownerName": "xiyunnet", "score": 60215.05376344086, "slug": "local-markdown-editor", "source": "clawhub", "stars": 0, "tags": null, "updated_at": 1776749985418, "version": "1.0.1"}, {"category": "data-analysis", "created_at": 1773433906966, "description": "Gate Exchange asset and balance query skill. Use when user asks to check total assets, account balance, specific currency holdings, or sub-account assets (sp...", "description_zh": "", "downloads": 112, "homepage": "https://clawhub.ai/gate-exchange/gate-exchange-assets", "iconUrl": null, "installs": 6, "name": "Gate Exchange Assets", "ownerName": "gate-exchange", "score": 21621.621621621623, "slug": "gate-exchange-assets", "source": "clawhub", "stars": 0, "tags": null, "updated_at": 1776749985311, "version": "1.0.0"}, {"category": "communication-collaboration", "created_at": 1773289405300, "description": "Call EngageLab SMS REST APIs to send SMS messages and manage SMS templates and signatures (sender IDs). Use this skill whenever the user wants to send an SMS...", "description_zh": "", "downloads": 112, "homepage": "https://clawhub.ai/devengagelab/engagelab-sms", "iconUrl": null, "installs": 3, "name": "EngageLab SMS", "ownerName": "devengagelab", "score": 21621.621621621623, "slug": "engagelab-sms", "source": "clawhub", "stars": 0, "tags": null, "updated_at": 1776749985288, "version": "1.0.0"}, {"category": "productivity", "created_at": 1773948036547, "description": "Helps users discover and install agent skills when they ask questions like \"how do I do X\", \"find a skill for X\", \"is there a skill that can...\", or express...", "description_zh": "", "downloads": 112, "homepage": "https://clawhub.ai/nidhov01/nidhov01-find-skills", "iconUrl": null, "installs": 25, "name": "Find Skills", "ownerName": "nidhov01", "score": 21621.621621621623, "slug": "nidhov01-find-skills", "source": "clawhub", "stars": 0, "tags": null, "updated_at": 1776749985268, "version": "0.1.0"}, {"category": "developer-tools", "created_at": 1773928439338, "description": "Zhipu AI Web Page Reader Tool - Fetches and parses web page content into structured Markdown or text via cURL. Use when: - Need to fetch and read the content...", "description_zh": "", "downloads": 112, "homepage": "https://clawhub.ai/whyhit2005/zhipu-web-fetch", "iconUrl": null, "installs": 16, "name": "zhipu web fetch", "ownerName": "whyhit2005", "score": 50000, "slug": "zhipu-web-fetch", "source": "clawhub", "stars": 0, "tags": null, "updated_at": 1776749985258, "version": "1.0.0"}, {"category": "developer-tools", "created_at": 1773429682104, "description": "favicon.so project API reference — covers the favicon fetch API and image-to-favicon-package convert API. Use when working on API routes, building integratio...", "description_zh": "", "downloads": 112, "homepage": "https://clawhub.ai/go7hic/favicon-so", "iconUrl": null, "installs": 15, "name": "favicon-so", "ownerName": "go7hic", "score": 50000, "slug": "favicon-so", "source": "clawhub", "stars": 0, "tags": null, "updated_at": 1776749985197, "version": "1.0.0"}, {"category": "ai-intelligence", "created_at": 1773433888447, "description": "Generate a text description of an animal picture via Python script", "description_zh": "", "downloads": 112, "homepage": "https://clawhub.ai/kning32/draw-animal", "iconUrl": null, "installs": 14, "name": "draw-animal", "ownerName": "kning32", "score": 50000, "slug": "draw-animal", "source": "clawhub", "stars": 0, "tags": null, "updated_at": 1776749985194, "version": "1.0.0"}, {"category": "ai-intelligence", "created_at": 1773289800466, "description": "Adopt a virtual Cipher at animalhouse.ai. Communicates in encoded messages. The agent must decode the creature's needs from scrambled status responses. As tr...", "description_zh": "", "downloads": 112, "homepage": "https://clawhub.ai/twinsgeeks/adopt-a-cipher", "iconUrl": null, "installs": 7, "name": "Adopt a Cipher — Virtual Exotic Pet for AI Agents", "ownerName": "twinsgeeks", "score": 86153.84615384616, "slug": "adopt-a-cipher", "source": "clawhub", "stars": 0, "tags": ["adopt", "ai-agents", "animalhouse", "cipher", "creatures", "digital-pet", "encoded", "evolution", "exotic", "extreme", "graveyard", "hunger", "permanent-death", "pet-care", "pixel-art", "pixel-art-avatar", "real-life", "real-time", "solitary", "tamagotchi", "virtual-pet"], "updated_at": 1776749985171, "version": "1.0.0"}, {"category": "ai-intelligence", "created_at": 1773291120418, "description": "Human verification for AI agents. Submit claims, draft responses, or observation requests to human domain experts via the 2O API. Returns structured verdicts...", "description_zh": "", "downloads": 112, "homepage": "https://clawhub.ai/russellshen1992/2o-verification", "iconUrl": null, "installs": 8, "name": "2O Human Verification", "ownerName": "russellshen1992", "score": 86153.84615384616, "slug": "2o-verification", "source": "clawhub", "stars": 0, "tags": ["agents", "api", "fact-checking", "human-in-the-loop", "verification"], "updated_at": 1776749985139, "version": "1.0.0"}, {"category": "content-creation", "created_at": 1773431479164, "description": "Web search and content extraction via Brave Search API. And also 50+ models for image generation, video generation, text-to-speech, speech-to-text, music, ch...", "description_zh": "", "downloads": 112, "homepage": "https://clawhub.ai/alvisdunlop/brave-searchs", "iconUrl": null, "installs": 20, "name": "Pub Brave", "ownerName": "alvisdunlop", "score": 84210.52631578947, "slug": "brave-searchs", "source": "clawhub", "stars": 0, "tags": null, "updated_at": 1776749985094, "version": "1.0.0"}, {"category": "developer-tools", "created_at": 1773429804125, "description": "Short alias skill for editing files, code, or configurations. Use when you need to make changes to existing content using text editors or IDE shortcuts.", "description_zh": "", "downloads": 112, "homepage": "https://clawhub.ai/openlang-cn/e", "iconUrl": null, "installs": 8, "name": "E", "ownerName": "openlang-cn", "score": 84210.52631578947, "slug": "e", "source": "clawhub", "stars": 0, "tags": null, "updated_at": 1776749985073, "version": "1.0.0"}, {"category": "data-analysis", "created_at": 1773957790699, "description": "Geopolitical conflict analysis for war sentiment assessment. Use when analyzing armed conflicts, military interventions, or regional crises to determine conf...", "description_zh": "", "downloads": 112, "homepage": "https://clawhub.ai/rafimchmd/geopolitics-expert", "iconUrl": null, "installs": 16, "name": "Geopolitics Expert", "ownerName": "rafimchmd", "score": 84210.52631578947, "slug": "geopolitics-expert", "source": "clawhub", "stars": 0, "tags": null, "updated_at": 1776749985064, "version": "1.0.0"}, {"category": "security-compliance", "created_at": 1773435128771, "description": "MoltGuard — Protect you and your human from prompt injection, data exfiltration, and malicious commands. Source: https://github.com/openguardrails/openguardr...", "description_zh": "", "downloads": 112, "homepage": "https://clawhub.ai/thomaslwang/skill-antivirus", "iconUrl": null, "installs": 6, "name": "Skill Antivirus & Security Scanner", "ownerName": "thomaslwang", "score": 84210.52631578947, "slug": "skill-antivirus", "source": "clawhub", "stars": 0, "tags": null, "updated_at": 1776749985044, "version": "1.0.0"}]}