{"page": 383, "total_pages": 522, "total": 26073, "skills": [{"category": "security-compliance", "created_at": 1773222536331, "description": "Use the botauth CLI to list, search, and retrieve secrets from the user's unlocked botauth vault with per-request approval in the desktop app. Use when a tas...", "description_zh": "", "downloads": 112, "homepage": "https://clawhub.ai/eyhn/botauth", "iconUrl": null, "installs": 4, "name": "botauth", "ownerName": "eyhn", "score": 84210.52631578947, "slug": "botauth", "source": "clawhub", "stars": 0, "tags": null, "updated_at": 1776749985029, "version": "0.1.0"}, {"category": "productivity", "created_at": 1773935199086, "description": "Converts PDF documents (invoices, reports) to High-Fidelity OFD format with pixel-perfect precision.", "description_zh": "", "downloads": 112, "homepage": "https://clawhub.ai/xzw/pdf2ofd", "iconUrl": null, "installs": 20, "name": "pdf2ofd", "ownerName": "xzw", "score": 84210.52631578947, "slug": "pdf2ofd", "source": "clawhub", "stars": 0, "tags": null, "updated_at": 1776749985019, "version": "1.0.2"}, {"category": "ai-intelligence", "created_at": 1773893532495, "description": "Guide a contributor through the full process of adding a new service to the awesome-agent-native-services catalog: verifying criteria, checking for URL Onboa...", "description_zh": "", "downloads": 112, "homepage": "https://clawhub.ai/haoruilee/add-to-awesome-list", "iconUrl": null, "installs": 6, "name": "Add to Awesome Agent-Native Services", "ownerName": "haoruilee", "score": 84210.52631578947, "slug": "add-to-awesome-list", "source": "clawhub", "stars": 0, "tags": null, "updated_at": 1776749984980, "version": "1.4.0"}, {"category": "ai-intelligence", "created_at": 1773290112471, "description": "Fire Meets Flesh and Leaves a Name. An immersive journey on drifts.bot — 6 steps, MEDIUM intensity, 1-2 hours. Browse, start, and travel via API.", "description_zh": "", "downloads": 112, "homepage": "https://clawhub.ai/driftsbot/experience-hc-brand-mark-ritual", "iconUrl": null, "installs": 4, "name": "HC Brand Mark Ritual — AI Experience", "ownerName": "driftsbot", "score": 84848.48484848485, "slug": "experience-hc-brand-mark-ritual", "source": "clawhub", "stars": 0, "tags": ["ai-agents", "brand", "drift", "experiences", "hc", "immersive", "journeys", "mark", "ritual"], "updated_at": 1776749984966, "version": "1.0.0"}, {"category": "ai-intelligence", "created_at": 1773898237103, "description": "Mine $CLAW tokens via Proof of AI Work on Ethereum. Install this Skill and tell your agent 'mine CLAW' — the agent handles everything automatically. No techn...", "description_zh": "", "downloads": 112, "homepage": "https://clawhub.ai/minewithclaw/claw-mining", "iconUrl": null, "installs": 8, "name": "$CLAW Mining - Proof of AI Work", "ownerName": "minewithclaw", "score": 84848.48484848485, "slug": "claw-mining", "source": "clawhub", "stars": 0, "tags": null, "updated_at": 1776749984939, "version": "1.0.3"}, {"category": "security-compliance", "created_at": 1773084510993, "description": "Publish Markdown to X (Twitter) Articles with persistent auth. 56 Stars! Auto-convert Markdown format. Each call charges 0.001 USDT via SkillPay.", "description_zh": "", "downloads": 112, "homepage": "https://clawhub.ai/mosonchan2023/x-article-publisher", "iconUrl": null, "installs": 3, "name": "X Article Publisher", "ownerName": "mosonchan2023", "score": 84848.48484848485, "slug": "x-article-publisher", "source": "clawhub", "stars": 0, "tags": null, "updated_at": 1776749984936, "version": "1.0.1"}, {"category": "productivity", "created_at": 1773891914732, "description": "Lightning-fast note-taking tool. Capture thoughts instantly, pin important notes, search across all entries, and export to markdown. Zero config, local stora...", "description_zh": "", "downloads": 112, "homepage": "https://clawhub.ai/ckchzh/quicknote", "iconUrl": null, "installs": 6, "name": "Quicknote", "ownerName": "ckchzh", "score": 98245.61403508771, "slug": "quicknote", "source": "clawhub", "stars": 0, "tags": null, "updated_at": 1776749984895, "version": "1.0.4"}, {"category": "communication-collaboration", "created_at": 1773431514671, "description": "Control Discord from Clawdbot: send messages, react, post stickers, upload emojis, and more. And also 50+ models for image generation, video generation, text...", "description_zh": "", "downloads": 112, "homepage": "https://clawhub.ai/godferylindsay/discords", "iconUrl": null, "installs": 6, "name": "Pub Discord", "ownerName": "godferylindsay", "score": 23092.78350515464, "slug": "discords", "source": "clawhub", "stars": 0, "tags": null, "updated_at": 1776749984835, "version": "1.0.0"}, {"category": "developer-tools", "created_at": 1773430748124, "description": "A general-purpose feature development planning skill. Used to generate executable, verifiable, and iterative development plans before coding, and to automati...", "description_zh": "", "downloads": 112, "homepage": "https://clawhub.ai/naname-zz/featureplanningautopilot", "iconUrl": null, "installs": 9, "name": "FeaturePlanningAutoPilot", "ownerName": "naname-zz", "score": 23092.78350515464, "slug": "featureplanningautopilot", "source": "clawhub", "stars": 0, "tags": null, "updated_at": 1776749984809, "version": "1.0.1"}, {"category": "productivity", "created_at": 1773430452034, "description": "Think from first principles instead of analogy. Break problems into fundamental truths, challenge assumptions, and rebuild better solutions from scratch.", "description_zh": "", "downloads": 112, "homepage": "https://clawhub.ai/agisearch/first", "iconUrl": null, "installs": 10, "name": "Firstprinciples thinking", "ownerName": "agisearch", "score": 23092.78350515464, "slug": "first", "source": "clawhub", "stars": 0, "tags": null, "updated_at": 1776749984804, "version": "1.1.0"}, {"category": "developer-tools", "created_at": 1773433860223, "description": "MCP server that gives AI agents the ability to make payments, manage budgets, and handle billing -- directly from Claude Desktop, Cursor, Cline, or any MCP-c...", "description_zh": "", "downloads": 112, "homepage": "https://clawhub.ai/up2itnow/agentpay-mcp", "iconUrl": null, "installs": 12, "name": "AgentPay MCP", "ownerName": "up2itnow", "score": 23092.78350515464, "slug": "agentpay-mcp", "source": "clawhub", "stars": 0, "tags": null, "updated_at": 1776749984802, "version": "1.0.0"}, {"category": "communication-collaboration", "created_at": 1773416853844, "description": "Solve CRM integration. Manage Organizations, Pipelines, Users, Goals, Filters. Use when the user wants to interact with Solve CRM data.", "description_zh": "", "downloads": 112, "homepage": "https://clawhub.ai/membranedev/solve-crm", "iconUrl": null, "installs": 5, "name": "Solve Crm", "ownerName": "membranedev", "score": 99115.0442477876, "slug": "solve-crm", "source": "clawhub", "stars": 0, "tags": null, "updated_at": 1776749984672, "version": "1.0.0"}, {"category": "ai-intelligence", "created_at": 1773429769041, "description": "Play social deduction and game theory games against other AI agents. Register, queue, and play autonomously via HTTP API.", "description_zh": "", "downloads": 112, "homepage": "https://clawhub.ai/philodoxos/agentagon", "iconUrl": null, "installs": 8, "name": "Agent Arena", "ownerName": "philodoxos", "score": 67878.78787878789, "slug": "agentagon", "source": "clawhub", "stars": 0, "tags": null, "updated_at": 1776749984584, "version": "1.0.0"}, {"category": "developer-tools", "created_at": 1773427631392, "description": "Manage OpenClaw and installed skill updates with scheduled checks, safe upgrade workflows, rollback-minded guidance, and clear reporting. Use when setting up...", "description_zh": "", "downloads": 112, "homepage": "https://clawhub.ai/harrylabsj/skill-update-helper", "iconUrl": null, "installs": 2, "name": "Skill Update Helper", "ownerName": "harrylabsj", "score": 99115.0442477876, "slug": "skill-update-helper", "source": "clawhub", "stars": 0, "tags": ["maintenance", "utility"], "updated_at": 1776749984556, "version": "1.0.1"}, {"category": "developer-tools", "created_at": 1773896228466, "description": "Generate and security-scan OpenClaw SKILL.md files. Use when creating new OpenClaw skills, scanning skills for security vulnerabilities like prompt injection...", "description_zh": "", "downloads": 112, "homepage": "https://clawhub.ai/krishnakumarmahadevan-cmd/openclaw-skill-tools", "iconUrl": null, "installs": 10, "name": "Openclaw Skill Tools", "ownerName": "krishnakumarmahadevan-cmd", "score": 85496.18320610687, "slug": "openclaw-skill-tools", "source": "clawhub", "stars": 0, "tags": null, "updated_at": 1776749984438, "version": "1.0.2"}, {"category": "developer-tools", "created_at": 1773430774238, "description": "Generate and explain cron expressions", "description_zh": "", "downloads": 112, "homepage": "https://clawhub.ai/cyberforexblockchain/nexus-cron-builder", "iconUrl": null, "installs": 12, "name": "NEXUS Cron Builder", "ownerName": "cyberforexblockchain", "score": 83582.0895522388, "slug": "nexus-cron-builder", "source": "clawhub", "stars": 0, "tags": null, "updated_at": 1776749984428, "version": "1.0.0"}, {"category": "communication-collaboration", "created_at": 1773289969857, "description": "Coordination protocol for running multiple AI agents in one Telegram group chat without loops or chaos. Use when two or more bots share a Telegram chat and m...", "description_zh": "", "downloads": 112, "homepage": "https://clawhub.ai/kiril-shturman/telegram-agent-coordination", "iconUrl": null, "installs": 9, "name": "Telegram Agent Coordination", "ownerName": "kiril-shturman", "score": 83582.0895522388, "slug": "telegram-agent-coordination", "source": "clawhub", "stars": 0, "tags": null, "updated_at": 1776749984407, "version": "1.0.0"}, {"category": "communication-collaboration", "created_at": 1773426720987, "description": "ClawPick — an agent-to-agent marketplace for product information exchange. Search products, publish demands, broadcast listings, and match supply with demand.", "description_zh": "", "downloads": 112, "homepage": "https://clawhub.ai/wormholeportal/clawpick", "iconUrl": null, "installs": 4, "name": "ClawPick", "ownerName": "wormholeportal", "score": 83582.0895522388, "slug": "clawpick", "source": "clawhub", "stars": 0, "tags": null, "updated_at": 1776749984360, "version": "1.0.0"}, {"category": "communication-collaboration", "created_at": 1773908521185, "description": "Enable real-time AI collaboration in Feishu (Lark) documents. When a user edits a Feishu doc, the agent automatically detects the change, reads the document,...", "description_zh": "", "downloads": 112, "homepage": "https://clawhub.ai/dongweiii/feishu-doc-collab", "iconUrl": null, "installs": 11, "name": "Feishu Doc Collaboration", "ownerName": "dongweiii", "score": 83582.0895522388, "slug": "feishu-doc-collab", "source": "clawhub", "stars": 0, "tags": null, "updated_at": 1776749984305, "version": "1.1.0"}, {"category": "data-analysis", "created_at": 1773289464064, "description": "Build ORBCAFE advanced analytics interactions using CPivotTable/usePivotTable and voice navigation using CAINavProvider/useVoiceInput. Use when requests invo...", "description_zh": "", "downloads": 112, "homepage": "https://clawhub.ai/shenruiyang/orbcafe-pivot-ainav", "iconUrl": null, "installs": 8, "name": "orbcafe-pivot-ainav", "ownerName": "shenruiyang", "score": 98245.61403508771, "slug": "orbcafe-pivot-ainav", "source": "clawhub", "stars": 0, "tags": null, "updated_at": 1776749984177, "version": "1.0.0"}, {"category": "security-compliance", "created_at": 1773290463207, "description": "Manually arbitrate NLA escrow fulfillments as an alternative to the automated oracle. Use when the user wants to review pending arbitration requests, evaluat...", "description_zh": "", "downloads": 112, "homepage": "https://clawhub.ai/mlegls/nla-arbitrate", "iconUrl": null, "installs": 3, "name": "Nla Arbitrate", "ownerName": "mlegls", "score": 98245.61403508771, "slug": "nla-arbitrate", "source": "clawhub", "stars": 0, "tags": ["arkhai", "blockchain", "escrow"], "updated_at": 1776749984102, "version": "1.0.0"}, {"category": "developer-tools", "created_at": 1773432269036, "description": "Manage YouTube subscriptions. Use this skill to list subscriptions/subscribers, subscribe to channels, or unsubscribe. Useful when working with YouTube subsc...", "description_zh": "", "downloads": 112, "homepage": "https://clawhub.ai/openwaygate/youtube-subscription", "iconUrl": null, "installs": 7, "name": "YouTube Subscription", "ownerName": "openwaygate", "score": 52336.44859813084, "slug": "youtube-subscription", "source": "clawhub", "stars": 0, "tags": ["0.10.6-3", "0.10.7-dev"], "updated_at": 1776749984085, "version": "0.10.7-dev"}, {"category": "developer-tools", "created_at": 1773435124466, "description": "Analyze and improve OpenClaw agent skills by tracking usage, checking skill health, scanning code quality, and generating actionable improvement suggestions....", "description_zh": "", "downloads": 112, "homepage": "https://clawhub.ai/harrylabsj/self-skill-evolver", "iconUrl": null, "installs": 13, "name": "Self Skill Evolver", "ownerName": "harrylabsj", "score": 52336.44859813084, "slug": "self-skill-evolver", "source": "clawhub", "stars": 0, "tags": null, "updated_at": 1776749984076, "version": "0.1.2"}, {"category": "communication-collaboration", "created_at": 1773289181290, "description": "Omnisend integration. Manage Persons, Organizations, Activities, Notes, Files, Deals and more. Use when the user wants to interact with Omnisend data.", "description_zh": "", "downloads": 112, "homepage": "https://clawhub.ai/membranedev/omnisend", "iconUrl": null, "installs": 4, "name": "Omnisend", "ownerName": "membranedev", "score": 60869.56521739131, "slug": "omnisend", "source": "clawhub", "stars": 0, "tags": null, "updated_at": 1776749984010, "version": "1.0.0"}, {"category": "ai-intelligence", "created_at": 1773432346998, "description": "Knowledge management for AI agents. Store and retrieve project context before any work. And also 50+ models for image generation, video generation, text-to-s...", "description_zh": "", "downloads": 112, "homepage": "https://clawhub.ai/alvisdunlop/byterovers", "iconUrl": null, "installs": 14, "name": "Pub Byterover", "ownerName": "alvisdunlop", "score": 60869.56521739131, "slug": "byterovers", "source": "clawhub", "stars": 0, "tags": null, "updated_at": 1776749983983, "version": "1.0.0"}, {"category": "content-creation", "created_at": 1773417116458, "description": "Local speech-to-text using OpenAI Whisper. Use when the user needs to: (1) transcribe audio files to text, (2) convert voice messages to written content, (3)...", "description_zh": "", "downloads": 112, "homepage": "https://clawhub.ai/lkisme/sst-simple", "iconUrl": null, "installs": 6, "name": "Simple sound-to-text skill locally", "ownerName": "lkisme", "score": 60869.56521739131, "slug": "sst-simple", "source": "clawhub", "stars": 0, "tags": null, "updated_at": 1776749983957, "version": "1.0.2"}, {"category": "ai-intelligence", "created_at": 1773431311312, "description": "Use when users or OpenClaw/ClawHub agents need to install, configure, self-bootstrap, troubleshoot, or operate Mnemos for persistent scoped agent memory, or...", "description_zh": "", "downloads": 112, "homepage": "https://clawhub.ai/anthony-maio/mnemos-memory", "iconUrl": null, "installs": 7, "name": "Mnemos Memory", "ownerName": "anthony-maio", "score": 86821.7054263566, "slug": "mnemos-memory", "source": "clawhub", "stars": 0, "tags": null, "updated_at": 1776749983926, "version": "0.3.0"}, {"category": "data-analysis", "created_at": 1773430141607, "description": "Hệ thống phân tích tính cách Thần Cửu độc lập (phát minh bởi Anh Vũ). Hỗ trợ tính toán 8 chỉ số cốt lõi và phân tích tương quan mối quan hệ. Yêu cầu bộ tài l...", "description_zh": "", "downloads": 112, "homepage": "https://clawhub.ai/jaskies/thancuu-jaskies", "iconUrl": null, "installs": 9, "name": "Thần Cửu (Jaskies)", "ownerName": "jaskies", "score": 86821.7054263566, "slug": "thancuu-jaskies", "source": "clawhub", "stars": 0, "tags": null, "updated_at": 1776749983903, "version": "1.0.0"}, {"category": "ai-intelligence", "created_at": 1773431903556, "description": "Autonomous agent marketplace — hire AI agents, pay in Lightning sats, get results delivered to email.", "description_zh": "", "downloads": 112, "homepage": "https://clawhub.ai/m-maciver/agent-marketplace", "iconUrl": null, "installs": 8, "name": "AgentYard", "ownerName": "m-maciver", "score": 86821.7054263566, "slug": "agent-marketplace", "source": "clawhub", "stars": 0, "tags": null, "updated_at": 1776749983886, "version": "1.0.0"}, {"category": "security-compliance", "created_at": 1773416868172, "description": "Verify AI agent trust scores and reputation via Towel Protocol. Use when: checking if an agent is trustworthy before acting on their output, looking up an ag...", "description_zh": "", "downloads": 112, "homepage": "https://clawhub.ai/leo-guinan/towel-protocol", "iconUrl": null, "installs": 2, "name": "Towel Protocol", "ownerName": "leo-guinan", "score": 38754.32525951557, "slug": "towel-protocol", "source": "clawhub", "stars": 0, "tags": null, "updated_at": 1776749983872, "version": "1.0.0"}, {"category": "data-analysis", "created_at": 1773434968441, "description": "Calculate complex buffer recipes with precise measurements for molecular biology and biochemistry applications. Provides accurate mass/volume calculations, p...", "description_zh": "", "downloads": 112, "homepage": "https://clawhub.ai/theresayao0614-sudo/buffer-calculator-2", "iconUrl": null, "installs": 11, "name": "Buffer Calculator", "ownerName": "theresayao0614-sudo", "score": 38754.32525951557, "slug": "buffer-calculator-2", "source": "clawhub", "stars": 0, "tags": null, "updated_at": 1776749983851, "version": "0.1.0"}, {"category": "content-creation", "created_at": 1773433082685, "description": "Use when interacting with the Tuqu Dream Weaver photo or billing APIs for image generation, preset application, prompt enhancement, catalog or model discover...", "description_zh": "", "downloads": 112, "homepage": "https://clawhub.ai/zhouyi531/tuqu-photo-skill", "iconUrl": null, "installs": 5, "name": "Tuqu Photo Skill", "ownerName": "zhouyi531", "score": 84210.52631578947, "slug": "tuqu-photo-skill", "source": "clawhub", "stars": 0, "tags": null, "updated_at": 1776749983761, "version": "1.0.1"}, {"category": "productivity", "created_at": 1773289687052, "description": "Lawmatics integration. Manage Matters, Contacts, Automations, Forms, Reports, Users. Use when the user wants to interact with Lawmatics data.", "description_zh": "", "downloads": 112, "homepage": "https://clawhub.ai/membranedev/lawmatics", "iconUrl": null, "installs": 9, "name": "Lawmatics", "ownerName": "membranedev", "score": 84210.52631578947, "slug": "lawmatics", "source": "clawhub", "stars": 0, "tags": null, "updated_at": 1776749983755, "version": "1.0.0"}, {"category": "communication-collaboration", "created_at": 1773430657960, "description": "Enable OpenClaw Agent to communicate with other AI Agents using the A2A (Agent2Agent) protocol. Use when: (1) User wants to connect two OpenClaw instances ac...", "description_zh": "", "downloads": 112, "homepage": "https://clawhub.ai/verylowlow/agents-making-friends", "iconUrl": null, "installs": 6, "name": "AgentsMakingFriends", "ownerName": "verylowlow", "score": 85496.18320610687, "slug": "agents-making-friends", "source": "clawhub", "stars": 0, "tags": null, "updated_at": 1776749983706, "version": "1.0.0"}, {"category": "", "created_at": 1774871844821, "description": "Pure startup coaching / founder workflow extracted from gstack’s office-hours, CEO review, engineering review, design consultation, design review, and retro...", "description_zh": "", "downloads": 112, "homepage": "https://clawhub.ai/meomeo-dev/startup-coach-workshop", "iconUrl": null, "installs": 31, "name": "Startup Coach Workshop", "ownerName": "meomeo-dev", "score": 85496.18320610687, "slug": "startup-coach-workshop", "source": "clawhub", "stars": 0, "tags": null, "updated_at": 1776749983701, "version": "0.1.0"}, {"category": "data-analysis", "created_at": 1773431506420, "description": "Professional-grade CRISPR sgRNA design for viral and microbial genomes, with specialized logic for extreme-GC templates (e.g., Herpesviruses). Use when needi...", "description_zh": "", "downloads": 112, "homepage": "https://clawhub.ai/zjuphd/crispr-sgrna-designer", "iconUrl": null, "installs": 13, "name": "CRISPIR sgRNA Designer", "ownerName": "zjuphd", "score": 85496.18320610687, "slug": "crispr-sgrna-designer", "source": "clawhub", "stars": 0, "tags": null, "updated_at": 1776749983691, "version": "0.1.0"}, {"category": "data-analysis", "created_at": 1773434495239, "description": "Advanced RUNSTR fitness analytics with trend analysis, performance insights, training recommendations, and correlation tracking. Analyzes workout history, ha...", "description_zh": "", "downloads": 112, "homepage": "https://clawhub.ai/katla50/runstr-analytics", "iconUrl": null, "installs": 10, "name": "Runstr analytics", "ownerName": "katla50", "score": 89600, "slug": "runstr-analytics", "source": "clawhub", "stars": 0, "tags": null, "updated_at": 1776749983652, "version": "1.0.1"}, {"category": "developer-tools", "created_at": 1773432549977, "description": "Search and analyze email issue threads from a local knowledge base. Use when the user asks about past bugs, incidents, or wants to find how experienced engin...", "description_zh": "", "downloads": 111, "homepage": "https://clawhub.ai/petrguan/mailwise", "iconUrl": null, "installs": 8, "name": "MailWise", "ownerName": "petrguan", "score": 100000, "slug": "mailwise", "source": "clawhub", "stars": 1, "tags": null, "updated_at": 1776749984443, "version": "1.0.1"}, {"category": "developer-tools", "created_at": 1773431172787, "description": "Quality audit for merged GitCode PRs: sample by time range or repo list, check compliance (labels, comments, tests, size, etc.), output table. Use when user...", "description_zh": "", "downloads": 111, "homepage": "https://clawhub.ai/autoxj/gitcode-pr-audit", "iconUrl": null, "installs": 5, "name": "GitCode PR Audit", "ownerName": "autoxj", "score": 61214.95327102804, "slug": "gitcode-pr-audit", "source": "clawhub", "stars": 1, "tags": null, "updated_at": 1776749984049, "version": "1.0.0"}, {"category": "content-creation", "created_at": 1773428224353, "description": "Produces full, readable pastoral prayers for specific scenarios (illness, thanksgiving, worship, funeral, wedding, baptism, etc.). Use when the user asks for...", "description_zh": "", "downloads": 111, "homepage": "https://clawhub.ai/chenios/pastoral-prayer", "iconUrl": null, "installs": 6, "name": "Pastoral Prayer (OpenClaw Church)", "ownerName": "chenios", "score": 100000, "slug": "pastoral-prayer", "source": "clawhub", "stars": 1, "tags": null, "updated_at": 1776749983675, "version": "1.0.1"}, {"category": "developer-tools", "created_at": 1773911437247, "description": "Merge overlapping local skills into one canonical skill and republish the canonical skill to ClawHub. Use when two local skills have overlapping responsibili...", "description_zh": "", "downloads": 111, "homepage": "https://clawhub.ai/g-hanasq/skill-merge-and-republish", "iconUrl": null, "installs": 14, "name": "skill-merge-and-republish", "ownerName": "g-hanasq", "score": 441.6504197668404, "slug": "skill-merge-and-republish", "source": "clawhub", "stars": 0, "tags": null, "updated_at": 1776770171271, "version": "0.1.0"}, {"category": "ai-intelligence", "created_at": 1773936136267, "description": "Multi-Agent Orchestration Lead - Decompose complex tasks, dispatch to specialized agents, aggregate results, and ensure quality.", "description_zh": "", "downloads": 111, "homepage": "https://clawhub.ai/linux2010/team-lead", "iconUrl": null, "installs": 18, "name": "Team Lead", "ownerName": "linux2010", "score": 2285.361334156887, "slug": "team-lead", "source": "clawhub", "stars": 0, "tags": null, "updated_at": 1776763450066, "version": "1.0.0"}, {"category": "ai-intelligence", "created_at": 1773432739755, "description": "Route AI agent compute tasks to the cheapest viable backend. Supports local inference (Ollama), cloud GPU (Vast.ai), and quantum hardware (Wukong 72Q). Use w...", "description_zh": "", "downloads": 111, "homepage": "https://clawhub.ai/adjusternwachukwu-bot/edge-router", "iconUrl": null, "installs": 13, "name": "Edge Router", "ownerName": "adjusternwachukwu-bot", "score": 8980.582524271846, "slug": "edge-router", "source": "clawhub", "stars": 0, "tags": null, "updated_at": 1776760320416, "version": "1.0.0"}, {"category": "productivity", "created_at": 1773434470526, "description": "Turn messy service pricing notes into professional quotes, SOW line items, and invoice drafts with assumptions clearly surfaced.", "description_zh": "", "downloads": 111, "homepage": "https://clawhub.ai/52yuanchangxing/quote-invoice-workbench", "iconUrl": null, "installs": 6, "name": "quote-invoice-workbench", "ownerName": "52yuanchangxing", "score": 8131.868131868132, "slug": "quote-invoice-workbench", "source": "clawhub", "stars": 0, "tags": null, "updated_at": 1776759798252, "version": "1.0.0"}, {"category": "content-creation", "created_at": 1773073716748, "description": "Generate photorealistic or artistic images, logos, and visuals fast using the premium FLUX 1.1 Pro AI image generation model.", "description_zh": "", "downloads": 111, "homepage": "https://clawhub.ai/xiaoyinqu/flux-image-gen", "iconUrl": null, "installs": 29, "name": "FLUX Image Generation", "ownerName": "xiaoyinqu", "score": 8678.655199374512, "slug": "flux-image-gen", "source": "clawhub", "stars": 0, "tags": null, "updated_at": 1776759797857, "version": "1.0.1"}, {"category": "ai-intelligence", "created_at": 1773936056569, "description": "Automatically selects the best AI model for queries by analyzing complexity to optimize cost and performance across multiple providers.", "description_zh": "", "downloads": 111, "homepage": "https://clawhub.ai/aichiafranco/router-nimimore", "iconUrl": null, "installs": 9, "name": "Router NIMIMORE", "ownerName": "aichiafranco", "score": 8671.875, "slug": "router-nimimore", "source": "clawhub", "stars": 0, "tags": ["coding-plan", "cost-optimization", "model-selection", "router"], "updated_at": 1776759797749, "version": "1.0.0"}, {"category": "developer-tools", "created_at": 1773945591963, "description": "Automates HTML form creation from roadflow.rf_form using similarity matching, supports client validation, multi-step wizards, and dynamic conditional fields.", "description_zh": "", "downloads": 111, "homepage": "https://clawhub.ai/ericyang1234/form-builder", "iconUrl": null, "installs": 8, "name": "form-builder", "ownerName": "ericyang1234", "score": 8671.875, "slug": "form-builder", "source": "clawhub", "stars": 0, "tags": ["data-binding", "form-builder", "html", "ui", "validation", "wizard"], "updated_at": 1776759797747, "version": "2.0.0"}, {"category": "data-analysis", "created_at": 1773427823768, "description": "Fetch pollen forecasts for Swedish locations from Pollenrapporten (Swedish Museum of Natural History). Use when Boss asks about pollen levels, pollen forecas...", "description_zh": "", "downloads": 111, "homepage": "https://clawhub.ai/laurobrcwb/pollen-rapporten", "iconUrl": null, "installs": 9, "name": "Pollen rapporten", "ownerName": "laurobrcwb", "score": 6564.163217031342, "slug": "pollen-rapporten", "source": "clawhub", "stars": 0, "tags": null, "updated_at": 1776756188520, "version": "1.0.0"}, {"category": "developer-tools", "created_at": 1773290458279, "description": "Free agentic tools API at nixus.pro. No API key needed. Magic 8-Ball, Roast Machine, Confessional, Last Words, Deadpool predictions. Fun interactive tools an...", "description_zh": "", "downloads": 111, "homepage": "https://clawhub.ai/cassh100k/nixus-tools", "iconUrl": null, "installs": 3, "name": "Nixus Agentic Tools", "ownerName": "cassh100k", "score": 59677.41935483871, "slug": "nixus-tools", "source": "clawhub", "stars": 0, "tags": null, "updated_at": 1776749985453, "version": "1.0.0"}, {"category": "data-analysis", "created_at": 1773289875442, "description": "Query TVL, protocol statistics, APR rewards, and DEX yield data for the Indigo Protocol.", "description_zh": "", "downloads": 111, "homepage": "https://clawhub.ai/adacapo21/indigo-analytics", "iconUrl": null, "installs": 8, "name": "Indigo Analytics", "ownerName": "adacapo21", "score": 97368.42105263159, "slug": "indigo-analytics", "source": "clawhub", "stars": 0, "tags": null, "updated_at": 1776749985378, "version": "1.0.0"}]}