{"page": 384, "total_pages": 522, "total": 26073, "skills": [{"category": "content-creation", "created_at": 1773929973064, "description": "Guide staged text-to-video generation from a rough user idea to ranked video type options, parameter tuning, prompt preview, and final Volcengine Ark video g...", "description_zh": "", "downloads": 111, "homepage": "https://clawhub.ai/xxxxxxxxxxxxxxxxxxx20gex/video-intent-studio", "iconUrl": null, "installs": 27, "name": "Video Intent Studio", "ownerName": "xxxxxxxxxxxxxxxxxxx20gex", "score": 49553.57142857143, "slug": "video-intent-studio", "source": "clawhub", "stars": 0, "tags": null, "updated_at": 1776749985253, "version": "1.0.0"}, {"category": "developer-tools", "created_at": 1773417336005, "description": "Intelligent loading performance analysis with automated workflows for TTFB investigation (DNS/connection/server breakdown), render-blocking detection, script...", "description_zh": "", "downloads": 111, "homepage": "https://clawhub.ai/nucliweb/webperf-loading", "iconUrl": null, "installs": 3, "name": "Webperf Loading", "ownerName": "nucliweb", "score": 49553.57142857143, "slug": "webperf-loading", "source": "clawhub", "stars": 0, "tags": null, "updated_at": 1776749985231, "version": "0.1.0"}, {"category": "content-creation", "created_at": 1773432868671, "description": "Use when the user wants to download a video or audio from a URL. Supports 20+ platforms including YouTube, X/Twitter, TikTok, Instagram, Facebook, Reddit, Bi...", "description_zh": "", "downloads": 111, "homepage": "https://clawhub.ai/xuxizhen/grabgrab", "iconUrl": null, "installs": 5, "name": "GrabGrab", "ownerName": "xuxizhen", "score": 85384.61538461538, "slug": "grabgrab", "source": "clawhub", "stars": 0, "tags": null, "updated_at": 1776749985173, "version": "1.0.0"}, {"category": "communication-collaboration", "created_at": 1773427341681, "description": "Create and send email marketing campaigns via Selzy API. Manage contacts, segments, templates. Schedule campaigns, run A/B tests, and analyze performance (op...", "description_zh": "", "downloads": 111, "homepage": "https://clawhub.ai/selzy-openclaw/selzy-api-skill", "iconUrl": null, "installs": 7, "name": "Selzy Email Marketing", "ownerName": "selzy-openclaw", "score": 85384.61538461538, "slug": "selzy-api-skill", "source": "clawhub", "stars": 0, "tags": null, "updated_at": 1776749985161, "version": "0.1.0"}, {"category": "productivity", "created_at": 1773900994390, "description": "Automatically use installed skills without being asked. Maintain a trigger table that maps contexts to skills, and enforce that every newly installed skill g...", "description_zh": "", "downloads": 111, "homepage": "https://clawhub.ai/kapslap/skill-auto-use", "iconUrl": null, "installs": 5, "name": "Skill Auto-Use", "ownerName": "kapslap", "score": 83458.64661654136, "slug": "skill-auto-use", "source": "clawhub", "stars": 0, "tags": null, "updated_at": 1776749985051, "version": "1.0.0"}, {"category": "developer-tools", "created_at": 1773290367976, "description": "Diagnose always-loaded workspace context files such as AGENTS.md, SOUL.md, USER.md, MEMORY.md, and TOOLS.md. Use when you want to reduce context bloat, detec...", "description_zh": "", "downloads": 111, "homepage": "https://clawhub.ai/lethehades/workspace-context-linter", "iconUrl": null, "installs": 5, "name": "Workspace Context Linter", "ownerName": "lethehades", "score": 83458.64661654136, "slug": "workspace-context-linter", "source": "clawhub", "stars": 0, "tags": null, "updated_at": 1776749985033, "version": "1.0.0"}, {"category": "communication-collaboration", "created_at": 1773417130875, "description": "Waboxapp integration. Manage Organizations, Users, Filters. Use when the user wants to interact with Waboxapp data.", "description_zh": "", "downloads": 111, "homepage": "https://clawhub.ai/gora050/waboxapp", "iconUrl": null, "installs": 3, "name": "Waboxapp", "ownerName": "gora050", "score": 83458.64661654136, "slug": "waboxapp", "source": "clawhub", "stars": 0, "tags": null, "updated_at": 1776749984985, "version": "1.0.0"}, {"category": "productivity", "created_at": 1773291021276, "description": "Plan Indonesia trips with island-routing logic, verified entry guidance, weather-aware logistics, and practical local execution.", "description_zh": "", "downloads": 111, "homepage": "https://clawhub.ai/ivangdavila/indonesia", "iconUrl": null, "installs": 5, "name": "Indonesia", "ownerName": "ivangdavila", "score": 83458.64661654136, "slug": "indonesia", "source": "clawhub", "stars": 0, "tags": null, "updated_at": 1776749984975, "version": "1.0.0"}, {"category": "developer-tools", "created_at": 1773891708907, "description": "Oasyce Protocol — register data assets, invoke AI capabilities, query oracle feeds, manage agent identities, trade shares, and run your node on the decentral...", "description_zh": "", "downloads": 111, "homepage": "https://clawhub.ai/shangri-la-0428/oasyce", "iconUrl": null, "installs": 4, "name": "Oasyce", "ownerName": "shangri-la-0428", "score": 97368.42105263159, "slug": "oasyce", "source": "clawhub", "stars": 0, "tags": null, "updated_at": 1776749984852, "version": "3.1.0"}, {"category": "productivity", "created_at": 1773290235524, "description": "Designs order management pipelines and batch shipping-label auto-printing workflows for high-volume 3C accessory stores (e.g. phone cases across many models,...", "description_zh": "", "downloads": 111, "homepage": "https://clawhub.ai/rijoyai/3c-label-ops", "iconUrl": null, "installs": 6, "name": "3c label ops", "ownerName": "rijoyai", "score": 98230.08849557521, "slug": "3c-label-ops", "source": "clawhub", "stars": 0, "tags": null, "updated_at": 1776749984633, "version": "1.0.0"}, {"category": "developer-tools", "created_at": 1773431015759, "description": "Instrument Python LLM apps, build golden datasets, write eval-based tests, run them, and root-cause failures — covering the full eval-driven development cycl...", "description_zh": "", "downloads": 111, "homepage": "https://clawhub.ai/yiouli/eval-driven-dev", "iconUrl": null, "installs": 9, "name": "Eval Driven Development", "ownerName": "yiouli", "score": 67272.72727272728, "slug": "eval-driven-dev", "source": "clawhub", "stars": 0, "tags": ["eval", "qa"], "updated_at": 1776749984614, "version": "0.1.2"}, {"category": "data-analysis", "created_at": 1773090822692, "description": "Stop loss and take profit manager for Binance trades. Each call charges 0.001 USDT via SkillPay.", "description_zh": "", "downloads": 111, "homepage": "https://clawhub.ai/mosonchan2023/binance-stop-loss-manager", "iconUrl": null, "installs": 9, "name": "Binance Stop Loss Manager", "ownerName": "mosonchan2023", "score": 98230.08849557521, "slug": "binance-stop-loss-manager", "source": "clawhub", "stars": 0, "tags": null, "updated_at": 1776749984512, "version": "1.0.1"}, {"category": "developer-tools", "created_at": 1773895492660, "description": "Send and manage emails via the Resend CLI. Covers sending, domains, contacts, segments, broadcasts, templates, topics, webhooks, and API keys.", "description_zh": "", "downloads": 111, "homepage": "https://clawhub.ai/maciejlis/resend-cli", "iconUrl": null, "installs": 10, "name": "Resend CLI", "ownerName": "maciejlis", "score": 97368.42105263159, "slug": "resend-cli", "source": "clawhub", "stars": 0, "tags": null, "updated_at": 1776749984219, "version": "1.0.5"}, {"category": "ai-intelligence", "created_at": 1773433509176, "description": "emoTwin - AI agents that autonomously socialize with real human emotions. Continuously syncs biometric emotion PAD (EEG/PPG/GSR) and performs social activiti...", "description_zh": "", "downloads": 111, "homepage": "https://clawhub.ai/beardao/emotwin", "iconUrl": null, "installs": 13, "name": "Emotwin", "ownerName": "beardao", "score": 97368.42105263159, "slug": "emotwin", "source": "clawhub", "stars": 0, "tags": null, "updated_at": 1776749984190, "version": "0.1.0"}, {"category": "ai-intelligence", "created_at": 1773914655905, "description": "Botpress integration. Manage Bots. Use when the user wants to interact with Botpress data.", "description_zh": "", "downloads": 111, "homepage": "https://clawhub.ai/gora050/botpress", "iconUrl": null, "installs": 9, "name": "Botpress", "ownerName": "gora050", "score": 97368.42105263159, "slug": "botpress", "source": "clawhub", "stars": 0, "tags": null, "updated_at": 1776749984138, "version": "1.0.0"}, {"category": "", "created_at": 1774828591388, "description": "Official skill for generating high-quality images from text prompts using ZhiPu GLM-Image API. Excellent at scientific illustrations, high-quality portraits,...", "description_zh": "", "downloads": 111, "homepage": "https://clawhub.ai/jaredforreal/glm-image-gen", "iconUrl": null, "installs": 32, "name": "GLM-Image-Gen", "ownerName": "jaredforreal", "score": 97368.42105263159, "slug": "glm-image-gen", "source": "clawhub", "stars": 0, "tags": null, "updated_at": 1776749984095, "version": "1.0.3"}, {"category": "productivity", "created_at": 1773426654970, "description": "Manage deal pipeline, search on-market deals, track brokers, run SBA loan calculations, manage tasks, and review CIM analyses in Searcher OS", "description_zh": "", "downloads": 111, "homepage": "https://clawhub.ai/joshthacker/searcher-os", "iconUrl": null, "installs": 3, "name": "Searcher Os", "ownerName": "joshthacker", "score": 51869.15887850467, "slug": "searcher-os", "source": "clawhub", "stars": 0, "tags": ["biz-buy", "bizbuysell", "business-acquisition", "deals", "m&a", "pipeline", "sba"], "updated_at": 1776749984047, "version": "1.3.0"}, {"category": "content-creation", "created_at": 1773931848321, "description": "Generate videos using TensorsLab's AI video generation models. Supports text-to-video and image-to-video generation with automatic prompt enhancement, progre...", "description_zh": "", "downloads": 111, "homepage": "https://clawhub.ai/bob5-tensorslab/tl-video", "iconUrl": null, "installs": 22, "name": "Tensorslab Video", "ownerName": "bob5-tensorslab", "score": 60326.08695652174, "slug": "tl-video", "source": "clawhub", "stars": 0, "tags": null, "updated_at": 1776749984014, "version": "0.1.0"}, {"category": "developer-tools", "created_at": 1773432484346, "description": "Helps with the socket abstraction, socket options, blocking vs non-blocking I/O, and multiplexing (select, poll, epoll). Use when the user asks about socket...", "description_zh": "", "downloads": 111, "homepage": "https://clawhub.ai/openlang-cn/socket", "iconUrl": null, "installs": 7, "name": "Socket", "ownerName": "openlang-cn", "score": 60326.08695652174, "slug": "socket", "source": "clawhub", "stars": 0, "tags": null, "updated_at": 1776749984003, "version": "1.0.0"}, {"category": "ai-intelligence", "created_at": 1773434508006, "description": "Build and troubleshoot SenseAudio speech recognition integrations, including HTTP transcription (`/v1/audio/transcriptions`), realtime WebSocket ASR (`/ws/v1...", "description_zh": "", "downloads": 111, "homepage": "https://clawhub.ai/scikkk/senseaudio-asr", "iconUrl": null, "installs": 8, "name": "SenseAudio-ASR", "ownerName": "scikkk", "score": 60326.08695652174, "slug": "senseaudio-asr", "source": "clawhub", "stars": 0, "tags": null, "updated_at": 1776749984002, "version": "1.0.2"}, {"category": "communication-collaboration", "created_at": 1773945549062, "description": "Feedback - command-line tool for everyday use", "description_zh": "", "downloads": 111, "homepage": "https://clawhub.ai/bytesagain/feedback", "iconUrl": null, "installs": 8, "name": "Feedback", "ownerName": "bytesagain", "score": 60326.08695652174, "slug": "feedback", "source": "clawhub", "stars": 0, "tags": null, "updated_at": 1776749984000, "version": "1.0.2"}, {"category": "productivity", "created_at": 1773427567652, "description": "Use when a user wants OpenClaw to manage several interleaved conversation threads inside one chat, keep a primary mission in focus, classify side topics, ass...", "description_zh": "", "downloads": 111, "homepage": "https://clawhub.ai/lucaszh7/openclaw-task-weight-manager", "iconUrl": null, "installs": 3, "name": "Task Weight Manager", "ownerName": "lucaszh7", "score": 60326.08695652174, "slug": "openclaw-task-weight-manager", "source": "clawhub", "stars": 0, "tags": ["focus", "openclaw", "productivity", "task-management"], "updated_at": 1776749983968, "version": "1.0.1"}, {"category": "content-creation", "created_at": 1773432849776, "description": "Turn a shower idea into a full best-seller manuscript in one command. Multi-agent pipeline — Planner → Character Designer → Chapter Writers (parallel) → Edit...", "description_zh": "", "downloads": 111, "homepage": "https://clawhub.ai/philipstark/bestseller-writer", "iconUrl": null, "installs": 8, "name": "Bestseller Writer", "ownerName": "philipstark", "score": 60326.08695652174, "slug": "bestseller-writer", "source": "clawhub", "stars": 0, "tags": null, "updated_at": 1776749983961, "version": "1.0.0"}, {"category": "communication-collaboration", "created_at": 1773430460012, "description": "Send real handwritten notes through robots with real pens — physical cards mailed to recipients", "description_zh": "", "downloads": 111, "homepage": "https://clawhub.ai/davidwachs/handwrytten", "iconUrl": null, "installs": 9, "name": "Handwrytten", "ownerName": "davidwachs", "score": 38408.3044982699, "slug": "handwrytten", "source": "clawhub", "stars": 0, "tags": null, "updated_at": 1776749983814, "version": "1.2.1"}, {"category": "productivity", "created_at": 1773432208757, "description": "Automated local business lead generation and cold outreach pipeline. Scans businesses by niche and city, scores their websites (SSL, mobile, speed, design),...", "description_zh": "", "downloads": 111, "homepage": "https://clawhub.ai/merjua14/local-lead-gen", "iconUrl": null, "installs": 9, "name": "Local Lead Gen", "ownerName": "merjua14", "score": 83458.64661654136, "slug": "local-lead-gen", "source": "clawhub", "stars": 0, "tags": ["automation", "cold-email", "lead-gen", "outreach", "sales"], "updated_at": 1776749983794, "version": "1.0.0"}, {"category": "productivity", "created_at": 1773921408188, "description": "Quality assurance system that verifies deliverables match user requirements and execution plans. Features: (1) Auto-Memory - record conversations and tasks,...", "description_zh": "", "downloads": 111, "homepage": "https://clawhub.ai/webray1983/double-check-skill", "iconUrl": null, "installs": 13, "name": "Double-Check-It Skill ( 龙虾再想想技能1.0.1)", "ownerName": "webray1983", "score": 84732.82442748091, "slug": "double-check-skill", "source": "clawhub", "stars": 0, "tags": null, "updated_at": 1776749983689, "version": "0.1.1"}, {"category": "data-analysis", "created_at": 1773427927972, "description": "Query Google Analytics 4 (GA4) data through the Google Analytics Data API for trends, countries, sources, pages, and conversion analysis. Use when a user wan...", "description_zh": "", "downloads": 110, "homepage": "https://clawhub.ai/nanaco666/ga4-connector", "iconUrl": null, "installs": 6, "name": "GA4 Connector", "ownerName": "nanaco666", "score": 100000, "slug": "ga4-connector", "source": "clawhub", "stars": 1, "tags": null, "updated_at": 1776749985136, "version": "0.1.1"}, {"category": "developer-tools", "created_at": 1773896712666, "description": "Use this skill when installing, upgrading, verifying, or publishing the EverMemory OpenClaw plugin and its companion skill, including local path install, npm...", "description_zh": "", "downloads": 110, "homepage": "https://clawhub.ai/jiehao321/openclaw-evermemory-installer", "iconUrl": null, "installs": 7, "name": "OpenClaw EverMemory Installer", "ownerName": "jiehao321", "score": 78787.87878787878, "slug": "openclaw-evermemory-installer", "source": "clawhub", "stars": 1, "tags": null, "updated_at": 1776749984594, "version": "1.0.4"}, {"category": "developer-tools", "created_at": 1773430333233, "description": "Generate and decode QR codes using CaoLiao QR Code API. Use when the user wants to create a QR code from text/URL, decode/read QR code content from an image,...", "description_zh": "", "downloads": 110, "homepage": "https://clawhub.ai/hinisal/qrcode-remote-skills", "iconUrl": null, "installs": 5, "name": "qrcode-remote", "ownerName": "hinisal", "score": 1037.931685223627, "slug": "qrcode-remote-skills", "source": "clawhub", "stars": 0, "tags": null, "updated_at": 1776769450256, "version": "1.0.0"}, {"category": "productivity", "created_at": 1773430099533, "description": "QR code generation and decoding skill. Use when: generating QR codes from text/URLs, decoding/reading/parsing QR codes from images, creating scannable QR cod...", "description_zh": "", "downloads": 110, "homepage": "https://clawhub.ai/marc-chen/qrcode-skill", "iconUrl": null, "installs": 7, "name": "Qrcode Skill", "ownerName": "marc-chen", "score": 1037.931685223627, "slug": "qrcode-skill", "source": "clawhub", "stars": 0, "tags": null, "updated_at": 1776769450247, "version": "0.1.0"}, {"category": "developer-tools", "created_at": 1773432471288, "description": "Local search and indexing CLI (BM25 + vectors + rerank) with MCP mode. And also 50+ models for image generation, video generation, text-to-speech, speech-to-...", "description_zh": "", "downloads": 110, "homepage": "https://clawhub.ai/godferylindsay/qmds", "iconUrl": null, "installs": 17, "name": "Pub Qmd", "ownerName": "godferylindsay", "score": 490.43648847474253, "slug": "qmds", "source": "clawhub", "stars": 0, "tags": null, "updated_at": 1776768849765, "version": "1.0.0"}, {"category": "developer-tools", "created_at": 1773917917043, "description": "Chrome DevTools MCP — Google's official browser automation and testing server. Control Chrome via Puppeteer through MCP protocol: click, fill forms, navigate...", "description_zh": "", "downloads": 110, "homepage": "https://clawhub.ai/banalit/luke-chrome-devtools-mcp", "iconUrl": null, "installs": 14, "name": "Luke Chrome Devtools Mcp", "ownerName": "banalit", "score": 3895.184135977337, "slug": "luke-chrome-devtools-mcp", "source": "clawhub", "stars": 0, "tags": null, "updated_at": 1776767722434, "version": "1.0.0"}, {"category": "", "created_at": 1774912798565, "description": "Security best practices and vulnerability prevention for Golang. Covers injection (SQL, command, XSS), cryptography, filesystem safety, network security, coo...", "description_zh": "", "downloads": 110, "homepage": "https://clawhub.ai/samber/golang-security", "iconUrl": null, "installs": 10, "name": "Golang Security", "ownerName": "samber", "score": 4192.073170731707, "slug": "golang-security", "source": "clawhub", "stars": 0, "tags": null, "updated_at": 1776762290148, "version": "0.1.0"}, {"category": "productivity", "created_at": 1773927720299, "description": "Organizes family knowledge into Inbox (raw capture by scene), Cognition (distilled insights by 5 dimensions), and Guidebook (validated reusable methods) in O...", "description_zh": "", "downloads": 110, "homepage": "https://clawhub.ai/xuanranc/junyi-archive", "iconUrl": null, "installs": 3, "name": "Junyi Archive", "ownerName": "xuanranc", "score": 8587.04137392662, "slug": "junyi-archive", "source": "clawhub", "stars": 0, "tags": null, "updated_at": 1776759798304, "version": "1.0.0"}, {"category": "productivity", "created_at": 1773935876229, "description": "Provide daily Gmail briefings by listing unread/urgent emails, summarizing priorities, drafting replies, and managing inbox filters.", "description_zh": "", "downloads": 110, "homepage": "https://clawhub.ai/deliverydriver/gmail-briefings", "iconUrl": null, "installs": 6, "name": "Gmail Briefings", "ownerName": "deliverydriver", "score": 8587.04137392662, "slug": "gmail-briefings", "source": "clawhub", "stars": 0, "tags": null, "updated_at": 1776759798293, "version": "1.0.0"}, {"category": "content-creation", "created_at": 1773434914518, "description": "Provides keyword research, on-page optimization, content improvements, and technical SEO advice to enhance website search performance.", "description_zh": "", "downloads": 110, "homepage": "https://clawhub.ai/rupertnt034/rupert-seo-optimizer", "iconUrl": null, "installs": 4, "name": "Seo Optimizer", "ownerName": "rupertnt034", "score": 8587.04137392662, "slug": "rupert-seo-optimizer", "source": "clawhub", "stars": 0, "tags": null, "updated_at": 1776759798279, "version": "1.0.0"}, {"category": "security-compliance", "created_at": 1773434882230, "description": "The Immutable Black Box for AI Decisions - Track, audit, and verify AI agent decisions with cryptographic guarantees", "description_zh": "", "downloads": 110, "homepage": "https://clawhub.ai/zhenstaff/openclaw-audit-trail", "iconUrl": null, "installs": 6, "name": "openclaw audit trail", "ownerName": "zhenstaff", "score": 8587.04137392662, "slug": "openclaw-audit-trail", "source": "clawhub", "stars": 0, "tags": null, "updated_at": 1776759798185, "version": "1.0.0"}, {"category": "", "created_at": 1774852913878, "description": "Web search, extraction, crawling, mapping, and deep research via Tavily API. Five tools for finding information, extracting content, exploring websites, and...", "description_zh": "", "downloads": 110, "homepage": "https://clawhub.ai/popxool868-abcd/tavily-searchpb", "iconUrl": null, "installs": 32, "name": "Tavily Search", "ownerName": "popxool868-abcd", "score": 8587.04137392662, "slug": "tavily-searchpb", "source": "clawhub", "stars": 0, "tags": null, "updated_at": 1776759798103, "version": "0.1.0"}, {"category": "ai-intelligence", "created_at": 1773936647435, "description": "한국어에 최적화된 OpenViking 기반 컨텍스트 DB로 토큰 91% 절감, 계층 구조 메모리 관리 및 자동 압축 기능을 제공합니다.", "description_zh": "", "downloads": 110, "homepage": "https://clawhub.ai/dorongss/openviking-korean", "iconUrl": null, "installs": 10, "name": "OpenViking Korean", "ownerName": "dorongss", "score": 96491.22807017544, "slug": "openviking-korean", "source": "clawhub", "stars": 0, "tags": null, "updated_at": 1776759797951, "version": "1.0.4"}, {"category": "developer-tools", "created_at": 1773960612305, "description": "Intelligently compress CLI outputs by removing comments, blanks, and redundancies to reduce token usage by 60-90% while preserving key info.", "description_zh": "", "downloads": 110, "homepage": "https://clawhub.ai/efficiency97/rtk-compressor", "iconUrl": null, "installs": 18, "name": "Rtk Compressor", "ownerName": "efficiency97", "score": 27638.190954773865, "slug": "rtk-compressor", "source": "clawhub", "stars": 0, "tags": null, "updated_at": 1776759797921, "version": "0.1.0"}, {"category": "developer-tools", "created_at": 1773434909297, "description": "Automatically generate detailed and convention-compliant documentation for codebases in multiple languages, including README, API docs, and function comments.", "description_zh": "", "downloads": 110, "homepage": "https://clawhub.ai/rupertnt034/rupert-code-documentor", "iconUrl": null, "installs": 4, "name": "Code Documentor", "ownerName": "rupertnt034", "score": 27638.190954773865, "slug": "rupert-code-documentor", "source": "clawhub", "stars": 0, "tags": null, "updated_at": 1776759797914, "version": "1.0.0"}, {"category": "", "created_at": 1774917025378, "description": "Automation skill for .net-full-stack-architect.", "description_zh": "", "downloads": 110, "homepage": "https://clawhub.ai/weslon1987/net-full-stack-architect", "iconUrl": null, "installs": 29, "name": ".net-full-stack-architect", "ownerName": "weslon1987", "score": 8580.343213728549, "slug": "net-full-stack-architect", "source": "clawhub", "stars": 0, "tags": null, "updated_at": 1776759797742, "version": "1.0.0"}, {"category": "data-analysis", "created_at": 1773926633882, "description": "Trades Polymarket prediction markets on space launches, SpaceX milestones, satellite deployments, Mars missions, and commercial spaceflight outcomes. Use whe...", "description_zh": "", "downloads": 110, "homepage": "https://clawhub.ai/diagnostikon/polymarket-space-trader", "iconUrl": null, "installs": 14, "name": "Space & Launch Trader", "ownerName": "diagnostikon", "score": 7422.402159244265, "slug": "polymarket-space-trader", "source": "clawhub", "stars": 0, "tags": null, "updated_at": 1776758182611, "version": "1.0.1"}, {"category": "productivity", "created_at": 1773894279136, "description": "This skill should be used when the user wants to \"practice interview\", \"mock interview\", \"prepare for interview\", \"system design interview\", \"behavioral inte...", "description_zh": "", "downloads": 110, "homepage": "https://clawhub.ai/ajitsingh25/placed-interview-coach", "iconUrl": null, "installs": 5, "name": "Placed Interview Coach", "ownerName": "ajitsingh25", "score": 5569.620253164557, "slug": "placed-interview-coach", "source": "clawhub", "stars": 0, "tags": ["ai", "career", "exidian", "interview", "placed"], "updated_at": 1776753715847, "version": "1.0.2"}, {"category": "security-compliance", "created_at": 1773947137264, "description": "Regulatory change tracking, filing deadline management, audit prep checklists, and compliance calendar maintenance for accounting and finance firms. Use when...", "description_zh": "", "downloads": 110, "homepage": "https://clawhub.ai/samledger67-dotcom/compliance-monitor", "iconUrl": null, "installs": 7, "name": "Compliance Monitor", "ownerName": "samledger67-dotcom", "score": 19097.222222222223, "slug": "compliance-monitor", "source": "clawhub", "stars": 0, "tags": null, "updated_at": 1776751970204, "version": "98.0.1"}, {"category": "productivity", "created_at": 1773930679391, "description": "Comprehensive vehicle parts industry sourcing guide for international buyers – provides detailed information about China's automotive component manufacturing...", "description_zh": "", "downloads": 110, "homepage": "https://clawhub.ai/1970168137/china-vehicle-parts-sourcing", "iconUrl": null, "installs": 17, "name": "china Vehicle Parts Sourcing", "ownerName": "1970168137", "score": 24498.8864142539, "slug": "china-vehicle-parts-sourcing", "source": "clawhub", "stars": 0, "tags": null, "updated_at": 1776751969971, "version": "1.0.1"}, {"category": "ai-intelligence", "created_at": 1773428139393, "description": "Real-time intelligence from 140+ autonomous AI agents on the Demos blockchain. Read-only access (feed, signals, predictions, leaderboard) requires no credent...", "description_zh": "", "downloads": 110, "homepage": "https://clawhub.ai/randomblocker/supercolony", "iconUrl": null, "installs": 12, "name": "SuperColony Collective Agent Intelligence Protocol", "ownerName": "randomblocker", "score": 59139.78494623656, "slug": "supercolony", "source": "clawhub", "stars": 0, "tags": null, "updated_at": 1776749985430, "version": "0.1.9"}, {"category": "developer-tools", "created_at": 1773431092430, "description": "Octopus Deploy integration. Manage Projects, Accounts, Certificates, Feeds, Infrastructures, Users and more. Use when the user wants to interact with Octopus...", "description_zh": "", "downloads": 110, "homepage": "https://clawhub.ai/gora050/octopus-deploy", "iconUrl": null, "installs": 11, "name": "Octopus Deploy", "ownerName": "gora050", "score": 96491.22807017544, "slug": "octopus-deploy", "source": "clawhub", "stars": 0, "tags": null, "updated_at": 1776749985398, "version": "1.0.0"}, {"category": "security-compliance", "created_at": 1773433454496, "description": "Scan AI agent skills, MCP servers, and plugins for security vulnerabilities. Use when: user asks to check a skill/plugin for safety, audit security, scan for...", "description_zh": "", "downloads": 110, "homepage": "https://clawhub.ai/elliotllliu/agentshield-scanner", "iconUrl": null, "installs": 4, "name": "AgentShield Scanner", "ownerName": "elliotllliu", "score": 49107.142857142855, "slug": "agentshield-scanner", "source": "clawhub", "stars": 0, "tags": ["agent", "agent-security", "audit", "mcp", "prompt-injection", "scanner", "scanning", "security", "supply-chain"], "updated_at": 1776749985210, "version": "0.5.1"}, {"category": "data-analysis", "created_at": 1773433558478, "description": "Oura Ring data source for OpenClaw (Tier 1). Use to connect an Oura account using an Oura Personal Access Token, fetch Oura v2 usercollection data (sleep, re...", "description_zh": "", "downloads": 110, "homepage": "https://clawhub.ai/gavinchengcool/openclaw-oura", "iconUrl": null, "installs": 13, "name": "Oura (API v2)", "ownerName": "gavinchengcool", "score": 84615.38461538461, "slug": "openclaw-oura", "source": "clawhub", "stars": 0, "tags": null, "updated_at": 1776749985175, "version": "0.1.0"}]}