{"page": 385, "total_pages": 522, "total": 26073, "skills": [{"category": "productivity", "created_at": 1773290734906, "description": "Plan Turkey trips with city-coast-Cappadocia routing, verified entry rules, domestic transport strategy, and practical seasonal safety.", "description_zh": "", "downloads": 110, "homepage": "https://clawhub.ai/ivangdavila/turkey", "iconUrl": null, "installs": 6, "name": "Turkey", "ownerName": "ivangdavila", "score": 84615.38461538461, "slug": "turkey", "source": "clawhub", "stars": 0, "tags": null, "updated_at": 1776749985156, "version": "1.0.0"}, {"category": "developer-tools", "created_at": 1773916372637, "description": "Decode, inspect, and validate JWT (JSON Web Token) tokens from the command line. Shows header, payload, algorithm, expiry status, and known claim labels. Use...", "description_zh": "", "downloads": 110, "homepage": "https://clawhub.ai/johnnywang2001/jwt-toolkit", "iconUrl": null, "installs": 5, "name": "Jwt Toolkit", "ownerName": "johnnywang2001", "score": 82706.76691729322, "slug": "jwt-toolkit", "source": "clawhub", "stars": 0, "tags": null, "updated_at": 1776749985121, "version": "1.0.0"}, {"category": "developer-tools", "created_at": 1773434122547, "description": "Batch clone GitLab group projects with branch checkout and Excel indexing. Use when user needs to clone all projects from a GitLab group, organize by group s...", "description_zh": "", "downloads": 110, "homepage": "https://clawhub.ai/pangfan/gitlab-batch-cloner", "iconUrl": null, "installs": 7, "name": "GitLab Batch Cloner", "ownerName": "pangfan", "score": 82706.76691729322, "slug": "gitlab-batch-cloner", "source": "clawhub", "stars": 0, "tags": null, "updated_at": 1776749985053, "version": "1.0.1"}, {"category": "data-analysis", "created_at": 1773430684420, "description": "Data analysis skill providing three core functions: data analysis, data interpretation, and data visualization. **Use Cases**: (1) Data Analysis - Statistics...", "description_zh": "", "downloads": 110, "homepage": "https://clawhub.ai/chartgen-ai/analyse-data", "iconUrl": null, "installs": 12, "name": "analyse data", "ownerName": "chartgen-ai", "score": 96491.22807017544, "slug": "analyse-data", "source": "clawhub", "stars": 0, "tags": null, "updated_at": 1776749984866, "version": "1.0.2"}, {"category": "developer-tools", "created_at": 1773431528361, "description": "Google Workspace CLI for Gmail, Calendar, Drive, Contacts, Sheets, and Docs.", "description_zh": "", "downloads": 110, "homepage": "https://clawhub.ai/snazar-faberlens/gog-hardened", "iconUrl": null, "installs": 7, "name": "gog-hardened", "ownerName": "snazar-faberlens", "score": 96491.22807017544, "slug": "gog-hardened", "source": "clawhub", "stars": 0, "tags": null, "updated_at": 1776749984858, "version": "1.0.0"}, {"category": "communication-collaboration", "created_at": 1773432738085, "description": "Full Discord server administration suite for OpenClaw — roles, moderation, channels, invites, webhooks, audit log, and member management.", "description_zh": "", "downloads": 110, "homepage": "https://clawhub.ai/rendrag-git/discord-admin-plugin", "iconUrl": null, "installs": 4, "name": "Discord Admin", "ownerName": "rendrag-git", "score": 22680.41237113402, "slug": "discord-admin-plugin", "source": "clawhub", "stars": 0, "tags": ["admin", "discord", "moderation", "roles"], "updated_at": 1776749984842, "version": "0.1.1"}, {"category": "content-creation", "created_at": 1773922451252, "description": "Turn creator audio into clean text captions for ecommerce content and reuse. Use when teams need fast transcript-to-caption workflows.", "description_zh": "", "downloads": 110, "homepage": "https://clawhub.ai/leooooooow/audio-to-text-caption", "iconUrl": null, "installs": 14, "name": "Audio To Text Caption", "ownerName": "leooooooow", "score": 31518.62464183381, "slug": "audio-to-text-caption", "source": "clawhub", "stars": 0, "tags": null, "updated_at": 1776749984729, "version": "1.0.0"}, {"category": "data-analysis", "created_at": 1773431908352, "description": "Alpaca integration. Manage Organizations, Users, Filters. Use when the user wants to interact with Alpaca data.", "description_zh": "", "downloads": 110, "homepage": "https://clawhub.ai/gora050/alpaca-integration", "iconUrl": null, "installs": 11, "name": "Alpaca", "ownerName": "gora050", "score": 97345.13274336283, "slug": "alpaca-integration", "source": "clawhub", "stars": 0, "tags": null, "updated_at": 1776749984658, "version": "1.0.0"}, {"category": "developer-tools", "created_at": 1773894350710, "description": "Use this skill when the task is specifically about operating Resend from an AI agent, terminal session, or CI job via the official resend CLI: installing/aut...", "description_zh": "", "downloads": 110, "homepage": "https://clawhub.ai/tristanmanchester/resending-emails", "iconUrl": null, "installs": 7, "name": "Resend CLI Skill", "ownerName": "tristanmanchester", "score": 97345.13274336283, "slug": "resending-emails", "source": "clawhub", "stars": 0, "tags": null, "updated_at": 1776749984640, "version": "1.0.2"}, {"category": "data-analysis", "created_at": 1773430870542, "description": "Phân tích Thần Cửu (Numerology) dựa trên họ tên và ngày tháng năm sinh. Cung cấp bảng phân tích chi tiết 8 phạm trù tính cách. Hỗ trợ phân tích mối tương qua...", "description_zh": "", "downloads": 110, "homepage": "https://clawhub.ai/jaskies/thancuu-vutran", "iconUrl": null, "installs": 13, "name": "Than Cuu Numerology Analysis", "ownerName": "jaskies", "score": 97345.13274336283, "slug": "thancuu-vutran", "source": "clawhub", "stars": 0, "tags": null, "updated_at": 1776749984542, "version": "1.0.0"}, {"category": "data-analysis", "created_at": 1773289422638, "description": "Query and manage INDY token staking positions on Indigo Protocol.", "description_zh": "", "downloads": 110, "homepage": "https://clawhub.ai/adacapo21/indigo-staking", "iconUrl": null, "installs": 7, "name": "Indigo Staking", "ownerName": "adacapo21", "score": 83969.46564885495, "slug": "indigo-staking", "source": "clawhub", "stars": 0, "tags": null, "updated_at": 1776749984459, "version": "1.0.0"}, {"category": "data-analysis", "created_at": 1773289166593, "description": "Message Bird integration. Manage Persons, Organizations, Pipelines, Users, Goals, Filters. Use when the user wants to interact with Message Bird data.", "description_zh": "", "downloads": 110, "homepage": "https://clawhub.ai/membranedev/message-bird", "iconUrl": null, "installs": 6, "name": "Message Bird", "ownerName": "membranedev", "score": 83969.46564885495, "slug": "message-bird", "source": "clawhub", "stars": 0, "tags": null, "updated_at": 1776749984433, "version": "1.0.0"}, {"category": "communication-collaboration", "created_at": 1773290015187, "description": "AMcards integration. Manage Cards, Users, Templates, Contacts, Groups. Use when the user wants to interact with AMcards data.", "description_zh": "", "downloads": 110, "homepage": "https://clawhub.ai/membranedev/amcards", "iconUrl": null, "installs": 3, "name": "Amcards", "ownerName": "membranedev", "score": 82089.55223880598, "slug": "amcards", "source": "clawhub", "stars": 0, "tags": null, "updated_at": 1776749984419, "version": "1.0.0"}, {"category": "developer-tools", "created_at": 1773427981985, "description": "Use the claw-forge CLI to run autonomous coding agents on a project until all features pass. Covers the full workflow: init → spec → plan → run → status → ui...", "description_zh": "", "downloads": 110, "homepage": "https://clawhub.ai/bowen31337/claw-forge-cli", "iconUrl": null, "installs": 10, "name": "claw-forge CLI", "ownerName": "bowen31337", "score": 82089.55223880598, "slug": "claw-forge-cli", "source": "clawhub", "stars": 0, "tags": null, "updated_at": 1776749984411, "version": "1.0.2"}, {"category": "content-creation", "created_at": 1773431710516, "description": "Clawdbot documentation expert with decision tree navigation, search, and doc fetching. And also 50+ models for image generation, video generation, text-to-sp...", "description_zh": "", "downloads": 110, "homepage": "https://clawhub.ai/martinpollitt/clawddocss", "iconUrl": null, "installs": 6, "name": "Pub Clawddocs", "ownerName": "martinpollitt", "score": 82089.55223880598, "slug": "clawddocss", "source": "clawhub", "stars": 0, "tags": null, "updated_at": 1776749984383, "version": "1.0.0"}, {"category": "developer-tools", "created_at": 1773936832449, "description": "Buy", "description_zh": "", "downloads": 110, "homepage": "https://clawhub.ai/pushmatrix/shopify-buy3", "iconUrl": null, "installs": 14, "name": "Shopify Buy3", "ownerName": "pushmatrix", "score": 82089.55223880598, "slug": "shopify-buy3", "source": "clawhub", "stars": 0, "tags": null, "updated_at": 1776749984304, "version": "1.0.0"}, {"category": "developer-tools", "created_at": 1773430782644, "description": "Connect to NIU smart electric vehicles to retrieve real-time status - battery level, charging status, remaining charge time, location, and total mileage. Als...", "description_zh": "", "downloads": 110, "homepage": "https://clawhub.ai/qdsang/niu-vehicle", "iconUrl": null, "installs": 4, "name": "Niu Vehicle", "ownerName": "qdsang", "score": 96491.22807017544, "slug": "niu-vehicle", "source": "clawhub", "stars": 0, "tags": null, "updated_at": 1776749984233, "version": "0.1.0"}, {"category": "content-creation", "created_at": 1773886707758, "description": "Generate customizable social preview images for Open Graph, Twitter, GitHub, and more using a fluent builder API.", "description_zh": "", "downloads": 110, "homepage": "https://clawhub.ai/vveerrgg/socialcard", "iconUrl": null, "installs": 3, "name": "SocialCard", "ownerName": "vveerrgg", "score": 96491.22807017544, "slug": "socialcard", "source": "clawhub", "stars": 0, "tags": null, "updated_at": 1776749984113, "version": "0.1.2"}, {"category": "communication-collaboration", "created_at": 1773430471920, "description": "Send transactional email via Iemail OpenAPI. Configure via OpenClaw skill env only.", "description_zh": "", "downloads": 110, "homepage": "https://clawhub.ai/jack-atlas/iemail-send", "iconUrl": null, "installs": 4, "name": "Send transactional email via DmartechX/Iemail OpenAPI. Configure in OpenClaw skills env or use secret.md.", "ownerName": "jack-atlas", "score": 96491.22807017544, "slug": "iemail-send", "source": "clawhub", "stars": 0, "tags": null, "updated_at": 1776749984106, "version": "1.0.4"}, {"category": "productivity", "created_at": 1773291144943, "description": "Plan Bulgaria with local context on Sofia, Plovdiv, the Black Sea, mountain routes, food, and tourist-trap avoidance.", "description_zh": "", "downloads": 110, "homepage": "https://clawhub.ai/ivangdavila/bulgaria", "iconUrl": null, "installs": 4, "name": "Bulgaria", "ownerName": "ivangdavila", "score": 85271.31782945736, "slug": "bulgaria", "source": "clawhub", "stars": 0, "tags": null, "updated_at": 1776749983950, "version": "1.0.0"}, {"category": "data-analysis", "created_at": 1773427949938, "description": "Ahrefs integration. Manage Projects. Use when the user wants to interact with Ahrefs data.", "description_zh": "", "downloads": 110, "homepage": "https://clawhub.ai/membranedev/ahrefs-integration", "iconUrl": null, "installs": 6, "name": "Ahrefs", "ownerName": "membranedev", "score": 85271.31782945736, "slug": "ahrefs-integration", "source": "clawhub", "stars": 0, "tags": null, "updated_at": 1776749983912, "version": "1.0.0"}, {"category": "developer-tools", "created_at": 1773900190778, "description": "Backup, sync, and version-track dotfiles across multiple machines. Use when syncing configs, backing up settings, restoring on new machines.", "description_zh": "", "downloads": 110, "homepage": "https://clawhub.ai/bytesagain1/dotfiles", "iconUrl": null, "installs": 8, "name": "Dotfiles", "ownerName": "bytesagain1", "score": 38062.28373702422, "slug": "dotfiles", "source": "clawhub", "stars": 0, "tags": null, "updated_at": 1776749983831, "version": "2.0.1"}, {"category": "communication-collaboration", "created_at": 1773417798513, "description": "Google Classroom integration. Manage Courses. Use when the user wants to interact with Google Classroom data.", "description_zh": "", "downloads": 110, "homepage": "https://clawhub.ai/membranedev/google-classroom-integration", "iconUrl": null, "installs": 4, "name": "Google Classroom", "ownerName": "membranedev", "score": 82706.76691729322, "slug": "google-classroom-integration", "source": "clawhub", "stars": 0, "tags": null, "updated_at": 1776749983751, "version": "1.0.0"}, {"category": "developer-tools", "created_at": 1773925512282, "description": "Generate customer-ready Telegram polling bots + an Express-style web server that integrate Pump.fun Tokenized Agent payments using @pump-fun/agent-payments-s...", "description_zh": "", "downloads": 109, "homepage": "https://clawhub.ai/belimad/pumpclaw-agent", "iconUrl": null, "installs": 3, "name": "Pumpfun Agent Integration", "ownerName": "belimad", "score": 3926.9406392694063, "slug": "pumpclaw-agent", "source": "clawhub", "stars": 1, "tags": null, "updated_at": 1776767171195, "version": "1.0.1"}, {"category": "developer-tools", "created_at": 1773934609553, "description": "Simulates backend engineering interviews: system design, API design, databases, concurrency, scaling, and backend-focused coding. Use when the user wants moc...", "description_zh": "", "downloads": 109, "homepage": "https://clawhub.ai/phantue2002/backend-interview-simulator", "iconUrl": null, "installs": 11, "name": "Backend Interview Simulator", "ownerName": "phantue2002", "score": 2847.682119205298, "slug": "backend-interview-simulator", "source": "clawhub", "stars": 1, "tags": null, "updated_at": 1776763750065, "version": "1.0.0"}, {"category": "security-compliance", "created_at": 1773432729579, "description": "Manage operations with mandatory user confirmation, permission checks, explicit method adherence, and clear choices before execution on sensitive system tasks.", "description_zh": "", "downloads": 109, "homepage": "https://clawhub.ai/zhangwud1/optional-strict-instructions", "iconUrl": null, "installs": 3, "name": "Optional Strict Instructions 可选择的严格指令", "ownerName": "zhangwud1", "score": 10038.910505836577, "slug": "optional-strict-instructions", "source": "clawhub", "stars": 1, "tags": null, "updated_at": 1776759720810, "version": "0.0.1"}, {"category": "", "created_at": 1773220104239, "description": "Provides China Export Container Freight Index (CCFI) data, including latest values, historical data, and statistical summaries.", "description_zh": "", "downloads": 109, "homepage": "https://clawhub.ai/jxzly/ccfi", "iconUrl": null, "installs": 3, "name": "CCFI", "ownerName": "jxzly", "score": 8600, "slug": "ccfi", "source": "clawhub", "stars": 1, "tags": ["ccfi", "finance", "shipping"], "updated_at": 1776759683521, "version": "1.0.0"}, {"category": "data-analysis", "created_at": 1773427935259, "description": "Investment portfolio trading signal checker based on a \"Three Red Lines\" entry system and a multi-layered exit system (take-profit, stop-loss, trend-break, m...", "description_zh": "", "downloads": 109, "homepage": "https://clawhub.ai/haiyangchenbj/invassistant", "iconUrl": null, "installs": 7, "name": "\"InvAssistant\"", "ownerName": "haiyangchenbj", "score": 69354.83870967742, "slug": "invassistant", "source": "clawhub", "stars": 1, "tags": null, "updated_at": 1776749985435, "version": "1.1.0"}, {"category": "ai-intelligence", "created_at": 1773430641023, "description": "Persistent memory and identity continuity for AI agents. Combines Second Brain (PROOF_OF_LIFE, daily logs, long-term MEMORY.md) with SOULS session lineage. E...", "description_zh": "", "downloads": 109, "homepage": "https://clawhub.ai/mrjessek/shang-tsung", "iconUrl": null, "installs": 17, "name": "Shang Tsung", "ownerName": "mrjessek", "score": 100000, "slug": "shang-tsung", "source": "clawhub", "stars": 1, "tags": null, "updated_at": 1776749983892, "version": "1.0.0"}, {"category": "data-analysis", "created_at": 1773921888840, "description": "Calculate comprehensive numerology reports using Pythagorean or Chaldean systems. Supports English, Tamil, Telugu, Kannada, and Hindi. Use when a user wants...", "description_zh": "", "downloads": 109, "homepage": "https://clawhub.ai/krishnakumarmahadevan-cmd/numerology-calculator", "iconUrl": null, "installs": 14, "name": "Numerology Calculator", "ownerName": "krishnakumarmahadevan-cmd", "score": 156.26344008945725, "slug": "numerology-calculator", "source": "clawhub", "stars": 0, "tags": null, "updated_at": 1776770777221, "version": "1.0.2"}, {"category": "developer-tools", "created_at": 1773432645845, "description": "Security, performance, and style analysis for code", "description_zh": "", "downloads": 109, "homepage": "https://clawhub.ai/cyberforexblockchain/nexus-code-review", "iconUrl": null, "installs": 12, "name": "NEXUS Code Review", "ownerName": "cyberforexblockchain", "score": 764.6976287357935, "slug": "nexus-code-review", "source": "clawhub", "stars": 0, "tags": null, "updated_at": 1776766311187, "version": "1.0.0"}, {"category": "ai-intelligence", "created_at": 1773432798266, "description": "A Node.js CLI tool that analyzes prompt token usage using a GPT-compatible tokenizer. Helps agents estimate prompt size, debug context overflow, and optimize...", "description_zh": "", "downloads": 109, "homepage": "https://clawhub.ai/putixiaosheng/prompt-token-analyzer", "iconUrl": null, "installs": 11, "name": "prompt-token-analyzer", "ownerName": "putixiaosheng", "score": 1634.427950217424, "slug": "prompt-token-analyzer", "source": "clawhub", "stars": 0, "tags": null, "updated_at": 1776765250124, "version": "1.0.1"}, {"category": "", "created_at": 1774853650567, "description": "Use this skill when the user asks about current events, real-time information, recent news, live scores, financial data, price updates, recent changes, or an...", "description_zh": "", "downloads": 109, "homepage": "https://clawhub.ai/josearroyave/gemini-tavily-search", "iconUrl": null, "installs": 39, "name": "Gemini Tavily Search", "ownerName": "josearroyave", "score": 4905.490549054905, "slug": "gemini-tavily-search", "source": "clawhub", "stars": 0, "tags": null, "updated_at": 1776764949975, "version": "0.1.0"}, {"category": "", "created_at": 1774868851008, "description": "Golang code style, formatting and conventions. Use when writing code, reviewing style, configuring linters, writing comments, or establishing project standards.", "description_zh": "", "downloads": 109, "homepage": "https://clawhub.ai/samber/golang-code-style", "iconUrl": null, "installs": 15, "name": "Golang Code Style", "ownerName": "samber", "score": 3545.8685751463886, "slug": "golang-code-style", "source": "clawhub", "stars": 0, "tags": null, "updated_at": 1776763450625, "version": "1.1.1"}, {"category": "content-creation", "created_at": 1773951757123, "description": "Publish markdown files as shareable web pages and return a clickable link.", "description_zh": "", "downloads": 109, "homepage": "https://clawhub.ai/rockbenben/md-web", "iconUrl": null, "installs": 16, "name": "Md Web", "ownerName": "rockbenben", "score": 7985.347985347985, "slug": "md-web", "source": "clawhub", "stars": 0, "tags": null, "updated_at": 1776759798230, "version": "1.0.4"}, {"category": "data-analysis", "created_at": 1773950888566, "description": "Provides real-time BTC trading bias (UP/DOWN/NEUTRAL) with confidence scores using RSI, Fear & Greed Index, and whale flow indicators.", "description_zh": "", "downloads": 109, "homepage": "https://clawhub.ai/kokoju007/btc-direction-orion", "iconUrl": null, "installs": 18, "name": "BTC Direction — Orion", "ownerName": "kokoju007", "score": 8508.977361436377, "slug": "btc-direction-orion", "source": "clawhub", "stars": 0, "tags": ["acp", "bitcoin", "btc", "crypto", "market-analysis", "orion", "rsi", "trading-signals"], "updated_at": 1776759798103, "version": "1.0.0"}, {"category": "developer-tools", "created_at": 1773935419172, "description": "Export one or more Zeplin screen URLs into a structured layer tree with local assets and package the result as a zip file. Use when a user shares an app.zepl...", "description_zh": "", "downloads": 109, "homepage": "https://clawhub.ai/sullivangu/zeplin-to-prompt", "iconUrl": null, "installs": 7, "name": "Zeplin to Prompt", "ownerName": "sullivangu", "score": 27386.934673366835, "slug": "zeplin-to-prompt", "source": "clawhub", "stars": 0, "tags": null, "updated_at": 1776759797942, "version": "1.0.1"}, {"category": "data-analysis", "created_at": 1773937622539, "description": "Use Tokopedia MCP tools to find, compare, and evaluate products, reviews, and shops for informed online shopping decisions.", "description_zh": "", "downloads": 109, "homepage": "https://clawhub.ai/its-benjamin/tokopedia-unofficial-mcp", "iconUrl": null, "installs": 11, "name": "Tokopedia Unofficial MCP Skill", "ownerName": "its-benjamin", "score": 8515.625, "slug": "tokopedia-unofficial-mcp", "source": "clawhub", "stars": 0, "tags": ["ecommerce", "indonesia", "mcp", "shopping", "tokopedia"], "updated_at": 1776759797747, "version": "0.1.1"}, {"category": "productivity", "created_at": 1773432796580, "description": "Plugin Orchestration Protocol (POP) for Obsidian integration. Use this skill when the user mentions \"POP\", \"Obsidian plugin\", \"pipeline orchestration\", \"idea...", "description_zh": "", "downloads": 109, "homepage": "https://clawhub.ai/toolate28/pop-obsidian", "iconUrl": null, "installs": 7, "name": "Plugin Orchestration Protocol", "ownerName": "toolate28", "score": 6445.890005913661, "slug": "pop-obsidian", "source": "clawhub", "stars": 0, "tags": null, "updated_at": 1776758782175, "version": "1.0.0"}, {"category": "productivity", "created_at": 1773889022976, "description": "Control Plex Media Server - browse libraries, search, play media, manage playback.", "description_zh": "", "downloads": 109, "homepage": "https://clawhub.ai/mephistojb/plex-skill", "iconUrl": null, "installs": 3, "name": "Plex", "ownerName": "mephistojb", "score": 20566.03773584906, "slug": "plex-skill", "source": "clawhub", "stars": 0, "tags": null, "updated_at": 1776754988747, "version": "0.1.0"}, {"category": "data-analysis", "created_at": 1773932900064, "description": "Install and operate the luckee-tool OpenClaw plugin for querying Lingxing data. Use when the user mentions luckee, Lingxing, ASIN lookup, product data querie...", "description_zh": "", "downloads": 109, "homepage": "https://clawhub.ai/xing89qs/luckee-skill", "iconUrl": null, "installs": 19, "name": "Luckee Skill", "ownerName": "xing89qs", "score": 58602.150537634414, "slug": "luckee-skill", "source": "clawhub", "stars": 0, "tags": null, "updated_at": 1776749985446, "version": "0.1.2026160304"}, {"category": "content-creation", "created_at": 1773429986513, "description": "API-first email platform designed for AI agents to create and manage dedicated email inboxes. And also 50+ models for image generation, video generation, tex...", "description_zh": "", "downloads": 109, "homepage": "https://clawhub.ai/martinpollitt/agentmails", "iconUrl": null, "installs": 7, "name": "Pub Agentmail", "ownerName": "martinpollitt", "score": 95614.0350877193, "slug": "agentmails", "source": "clawhub", "stars": 0, "tags": null, "updated_at": 1776749985415, "version": "1.0.0"}, {"category": "productivity", "created_at": 1773938966263, "description": "Write diary entries with mood tracking, photos, and monthly summaries. Use when recording thoughts, tracking moods, reviewing monthly patterns.", "description_zh": "", "downloads": 109, "homepage": "https://clawhub.ai/bytesagain1/diary", "iconUrl": null, "installs": 5, "name": "Diary", "ownerName": "bytesagain1", "score": 95614.0350877193, "slug": "diary", "source": "clawhub", "stars": 0, "tags": null, "updated_at": 1776749985319, "version": "2.0.1"}, {"category": "productivity", "created_at": 1773907769623, "description": "CLI for the Seerr media request management API. Search movies and TV shows, create and manage media requests, manage users, track issues, and administer a se...", "description_zh": "", "downloads": 109, "homepage": "https://clawhub.ai/electather/seerr-manager", "iconUrl": null, "installs": 8, "name": "Seerr server manager", "ownerName": "electather", "score": 21042.471042471043, "slug": "seerr-manager", "source": "clawhub", "stars": 0, "tags": null, "updated_at": 1776749985260, "version": "v0.8.0"}, {"category": "developer-tools", "created_at": 1773221715243, "description": "PagerDuty integration. Manage Users, Teams, Services, Events. Use when the user wants to interact with PagerDuty data.", "description_zh": "", "downloads": 109, "homepage": "https://clawhub.ai/membranedev/pagerduty-integration", "iconUrl": null, "installs": 1, "name": "Pagerduty", "ownerName": "membranedev", "score": 81954.88721804511, "slug": "pagerduty-integration", "source": "clawhub", "stars": 0, "tags": null, "updated_at": 1776749985082, "version": "1.0.0"}, {"category": "security-compliance", "created_at": 1773429923905, "description": "Bootstrap a persistent Teleport Machine ID (tbot) setup on macOS using LaunchAgent and tbot configure identity. Trigger when asked to set up, automate, or va...", "description_zh": "", "downloads": 109, "homepage": "https://clawhub.ai/webvictim/teleport-tbot-bootstrap", "iconUrl": null, "installs": 4, "name": "Teleport Machine ID tbot Bootstrap (MacOS LaunchAgent)", "ownerName": "webvictim", "score": 81954.88721804511, "slug": "teleport-tbot-bootstrap", "source": "clawhub", "stars": 0, "tags": null, "updated_at": 1776749985057, "version": "1.0.0"}, {"category": "data-analysis", "created_at": 1773433049827, "description": "Use this skill when the user wants a LooLoo trade quote or a website confirmation link for a buy or sell.", "description_zh": "", "downloads": 109, "homepage": "https://clawhub.ai/looloolol/looloo-trading", "iconUrl": null, "installs": 5, "name": "LooLoo Trading", "ownerName": "looloolol", "score": 81954.88721804511, "slug": "looloo-trading", "source": "clawhub", "stars": 0, "tags": null, "updated_at": 1776749985036, "version": "0.1.2"}, {"category": "developer-tools", "created_at": 1773431649386, "description": "Smart AI router — automatically picks the best & cheapest LLM for every prompt. BYOK, tracks costs, enforces budgets. Supports 25+ providers.", "description_zh": "", "downloads": 109, "homepage": "https://clawhub.ai/ldws123/spendex-ai-router", "iconUrl": null, "installs": 20, "name": "Spendex AI Router", "ownerName": "ldws123", "score": 22474.22680412371, "slug": "spendex-ai-router", "source": "clawhub", "stars": 0, "tags": ["ai", "budget", "byok", "cost-optimization", "llm", "router"], "updated_at": 1776749984823, "version": "1.0.0"}, {"category": "communication-collaboration", "created_at": 1773290657129, "description": "Call EngageLab Web Push REST APIs to send push notifications and in-app messages to web browsers (Chrome, Firefox, Safari, Edge, etc.); manage tags and alias...", "description_zh": "", "downloads": 109, "homepage": "https://clawhub.ai/devengagelab/engagelab-web-push", "iconUrl": null, "installs": 4, "name": "EngageLab Web Push", "ownerName": "devengagelab", "score": 31232.09169054441, "slug": "engagelab-web-push", "source": "clawhub", "stars": 0, "tags": null, "updated_at": 1776749984722, "version": "1.0.0"}, {"category": "content-creation", "created_at": 1773417881498, "description": "Generate VietQR payment image URLs for Vietnamese bank transfers from bank/account details. Use when users ask to create a VietQR link, return a markdown QR...", "description_zh": "", "downloads": 109, "homepage": "https://clawhub.ai/phucisstupid/vietqr", "iconUrl": null, "installs": 5, "name": "VietQR", "ownerName": "phucisstupid", "score": 96460.17699115044, "slug": "vietqr", "source": "clawhub", "stars": 0, "tags": null, "updated_at": 1776749984685, "version": "1.0.0"}]}