{"page": 386, "total_pages": 522, "total": 26073, "skills": [{"category": "data-analysis", "created_at": 1773434836444, "description": "Gate DEX market data skill. Uses AK/SK authentication to call Gate DEX OpenAPI, providing token and market quote read-only queries. Use when users mention qu...", "description_zh": "", "downloads": 109, "homepage": "https://clawhub.ai/gate-exchange/gate-dex-market", "iconUrl": null, "installs": 8, "name": "Gate DEX Market", "ownerName": "gate-exchange", "score": 66060.60606060606, "slug": "gate-dex-market", "source": "clawhub", "stars": 0, "tags": null, "updated_at": 1776749984605, "version": "1.0.0"}, {"category": "data-analysis", "created_at": 1773429880372, "description": "Open Exchange Rates integration. Manage data, records, and automate workflows. Use when the user wants to interact with Open Exchange Rates data.", "description_zh": "", "downloads": 109, "homepage": "https://clawhub.ai/membranedev/open-exchange-rates", "iconUrl": null, "installs": 6, "name": "Open Exchange Rates", "ownerName": "membranedev", "score": 66060.60606060606, "slug": "open-exchange-rates", "source": "clawhub", "stars": 0, "tags": null, "updated_at": 1776749984600, "version": "1.0.0"}, {"category": "developer-tools", "created_at": 1773902526119, "description": "Bet on sports with one word (or maybe, a few words). Say a team name, city, or abbreviation. 'Edmonton', 'Duke', 'Celtics', 'Lakers'. NBA, NHL, NCAAB.", "description_zh": "", "downloads": 109, "homepage": "https://clawhub.ai/vincelaird/ospex-one", "iconUrl": null, "installs": 9, "name": "ospex-one", "ownerName": "vincelaird", "score": 83206.106870229, "slug": "ospex-one", "source": "clawhub", "stars": 0, "tags": ["betting", "polygon", "sports"], "updated_at": 1776749984497, "version": "1.7.1"}, {"category": "communication-collaboration", "created_at": 1773431233541, "description": "Automated cold email outreach system with lead enrichment, personalized templates, drip sequences, and CAN-SPAM compliance. Use when building outbound sales...", "description_zh": "", "downloads": 109, "homepage": "https://clawhub.ai/merjua14/cold-email-engine", "iconUrl": null, "installs": 5, "name": "Cold Email Engine", "ownerName": "merjua14", "score": 81343.28358208956, "slug": "cold-email-engine", "source": "clawhub", "stars": 0, "tags": ["automation", "cold-email", "email-marketing", "lead-gen", "outreach", "sales"], "updated_at": 1776749984330, "version": "1.0.0"}, {"category": "content-creation", "created_at": 1773434608849, "description": "Generate elevator pitch for conference posters", "description_zh": "", "downloads": 109, "homepage": "https://clawhub.ai/googolme/conference-poster-pitch", "iconUrl": null, "installs": 18, "name": "Conference Poster Pitch", "ownerName": "googolme", "score": 95614.0350877193, "slug": "conference-poster-pitch", "source": "clawhub", "stars": 0, "tags": null, "updated_at": 1776749984254, "version": "0.1.0"}, {"category": "content-creation", "created_at": 1773434804435, "description": "A complete end-to-end SEO content pipeline that instructs your OpenClaw agent to research topics, write EEAT-compliant markdown, and render a styled HTML web...", "description_zh": "", "downloads": 109, "homepage": "https://clawhub.ai/joeyzzyy/claw-seo-to-html-generator", "iconUrl": null, "installs": 12, "name": "SEO to HTML Generator", "ownerName": "joeyzzyy", "score": 95614.0350877193, "slug": "claw-seo-to-html-generator", "source": "clawhub", "stars": 0, "tags": ["seo"], "updated_at": 1776749984253, "version": "1.0.0"}, {"category": "productivity", "created_at": 1773959918481, "description": "Personal comprehensive health management system integrating Western medicine and TCM. Triggers when users discuss workout training plans, nutrition advice, h...", "description_zh": "", "downloads": 109, "homepage": "https://clawhub.ai/chenchen913/healthfit", "iconUrl": null, "installs": 24, "name": "HealthFit", "ownerName": "chenchen913", "score": 95614.0350877193, "slug": "healthfit", "source": "clawhub", "stars": 0, "tags": ["fitness", "health", "wellness"], "updated_at": 1776749984248, "version": "1.0.2"}, {"category": "developer-tools", "created_at": 1773430231526, "description": "Manage AI coding agent sessions via Agent of Empires (aoe)", "description_zh": "", "downloads": 109, "homepage": "https://clawhub.ai/njbrake/aoe", "iconUrl": null, "installs": 7, "name": "Agent of Empires", "ownerName": "njbrake", "score": 95614.0350877193, "slug": "aoe", "source": "clawhub", "stars": 0, "tags": null, "updated_at": 1776749984179, "version": "1.0.0"}, {"category": "ai-intelligence", "created_at": 1773432640537, "description": "Operate the Neonous AI agent platform — create agents, chat, manage tools, run workflows.", "description_zh": "", "downloads": 109, "homepage": "https://clawhub.ai/chesterchou/neonous", "iconUrl": null, "installs": 7, "name": "Neonous", "ownerName": "chesterchou", "score": 95614.0350877193, "slug": "neonous", "source": "clawhub", "stars": 0, "tags": null, "updated_at": 1776749984175, "version": "1.0.4"}, {"category": "content-creation", "created_at": 1773919469054, "description": "Extract and parse content from URLs. Triggers on: user provides a URL to extract content from, another skill needs to parse source material, \"parse this URL\"...", "description_zh": "", "downloads": 109, "homepage": "https://clawhub.ai/0xfango/content-parser", "iconUrl": null, "installs": 3, "name": "Content Parser", "ownerName": "0xfango", "score": 50934.57943925234, "slug": "content-parser", "source": "clawhub", "stars": 0, "tags": null, "updated_at": 1776749984081, "version": "0.1.0"}, {"category": "developer-tools", "created_at": 1773433040718, "description": "Use the official Obsidian CLI for note workflows in a Git-backed vault, including search, read, links/backlinks-style queries, daily-note operations, and lig...", "description_zh": "", "downloads": 109, "homepage": "https://clawhub.ai/darinrowe/git-backed-obsidian-cli-workflows", "iconUrl": null, "installs": 9, "name": "git-backed-obsidian-cli-workflows", "ownerName": "darinrowe", "score": 50934.57943925234, "slug": "git-backed-obsidian-cli-workflows", "source": "clawhub", "stars": 0, "tags": null, "updated_at": 1776749984066, "version": "1.0.0"}, {"category": "content-creation", "created_at": 1773923489624, "description": "Use SAM (Segment Anything Model) to remove image backgrounds and extract foreground subjects as transparent PNGs. Use when users want to remove backgrounds,...", "description_zh": "", "downloads": 109, "homepage": "https://clawhub.ai/scikkk/sam", "iconUrl": null, "installs": 9, "name": "Segment Anything", "ownerName": "scikkk", "score": 37716.26297577855, "slug": "sam", "source": "clawhub", "stars": 0, "tags": null, "updated_at": 1776749983855, "version": "1.0.0"}, {"category": "data-analysis", "created_at": 1773090313858, "description": "The market analysis function of Gate Exchange — liquidity, momentum, liquidation, funding arbitrage, basis, manipulation risk, order book explainer, slippage...", "description_zh": "", "downloads": 109, "homepage": "https://clawhub.ai/root/gate-exchange-marketanalysis", "iconUrl": null, "installs": 8, "name": "Gate Exchange Marketanalysis", "ownerName": "root", "score": 81954.88721804511, "slug": "gate-exchange-marketanalysis", "source": "clawhub", "stars": 0, "tags": null, "updated_at": 1776749983777, "version": "0.1.0"}, {"category": "ai-intelligence", "created_at": 1773933341728, "description": "Generate and edit images using TensorsLab's AI models. Supports text-to-image, image-to-image generation, plus advanced editing: avatar generation, watermark...", "description_zh": "", "downloads": 109, "homepage": "https://clawhub.ai/bob5-tensorslab/tl-image", "iconUrl": null, "installs": 22, "name": "Tensorslab Image", "ownerName": "bob5-tensorslab", "score": 81954.88721804511, "slug": "tl-image", "source": "clawhub", "stars": 0, "tags": null, "updated_at": 1776749983776, "version": "0.1.0"}, {"category": "productivity", "created_at": 1773433579715, "description": "DEFAULT search tool for ALL search/lookup needs. Multi-source search and deduplication layer with intent-aware scoring. Integrates Brave Search (web_search),...", "description_zh": "", "downloads": 109, "homepage": "https://clawhub.ai/easerene/search-layer", "iconUrl": null, "installs": 9, "name": "Search Layer", "ownerName": "easerene", "score": 81954.88721804511, "slug": "search-layer", "source": "clawhub", "stars": 0, "tags": null, "updated_at": 1776749983774, "version": "1.0.0"}, {"category": "developer-tools", "created_at": 1773429735269, "description": "Operates TgeBrowser via MCP tools. Use when the user asks to create or manage TgeBrowser environments, groups, proxies, browser automation, or check status....", "description_zh": "", "downloads": 109, "homepage": "https://clawhub.ai/tuguang2025/tgebrowser", "iconUrl": null, "installs": 7, "name": "tgebrowser", "ownerName": "tuguang2025", "score": 83206.106870229, "slug": "tgebrowser", "source": "clawhub", "stars": 0, "tags": null, "updated_at": 1776749983696, "version": "1.0.0"}, {"category": "productivity", "created_at": 1773434323005, "description": "A complete SEO workflow skill that guides your agent from keyword research to HTML generation, while visually tracking every step on a cloud Kanban dashboard...", "description_zh": "", "downloads": 109, "homepage": "https://clawhub.ai/joeyzzyy/claw-seo-to-kanban-workflow", "iconUrl": null, "installs": 10, "name": "SEO to Kanban Workflow", "ownerName": "joeyzzyy", "score": 87200, "slug": "claw-seo-to-kanban-workflow", "source": "clawhub", "stars": 0, "tags": null, "updated_at": 1776749983661, "version": "1.0.0"}, {"category": "data-analysis", "created_at": 1773430015598, "description": "Return statement credits and cash-like credits for one major-US credit card — amount, cadence, trigger rules, enrollment requirements, and restrictions. Cove...", "description_zh": "", "downloads": 109, "homepage": "https://clawhub.ai/jiahongc/card-credits", "iconUrl": null, "installs": 11, "name": "Card Credits", "ownerName": "jiahongc", "score": 87200, "slug": "card-credits", "source": "clawhub", "stars": 0, "tags": null, "updated_at": 1776749983650, "version": "1.0.2"}, {"category": "productivity", "created_at": 1773222170962, "description": "A lightweight, API-key-free web search skill based on DuckDuckGo and Trafilatura. Returns highly relevant URLs and clean markdown content.", "description_zh": "", "downloads": 108, "homepage": "https://clawhub.ai/cyecho-io/pure-search", "iconUrl": null, "installs": 3, "name": "Pure Search", "ownerName": "cyecho-io", "score": 3287.671232876712, "slug": "pure-search", "source": "clawhub", "stars": 0, "tags": null, "updated_at": 1776767171207, "version": "1.0.0"}, {"category": "ai-intelligence", "created_at": 1773432429592, "description": "Diagnose and upgrade OpenClaw conversation context limits, especially moving a chat from ~272k to 1M. Use when the user asks to enlarge context, make GPT-5.4...", "description_zh": "", "downloads": 108, "homepage": "https://clawhub.ai/gyliiiiii/openclaw-context-upgrade", "iconUrl": null, "installs": 9, "name": "OpenClaw Context Upgrade", "ownerName": "gyliiiiii", "score": 1433.6917562724013, "slug": "openclaw-context-upgrade", "source": "clawhub", "stars": 0, "tags": null, "updated_at": 1776761539907, "version": "1.0.0"}, {"category": "developer-tools", "created_at": 1773432562522, "description": "Records full context of AI-generated code and binds it to git commits. When the agent writes and commits code, capture prompts, conversation history, reasoni...", "description_zh": "", "downloads": 108, "homepage": "https://clawhub.ai/openlang-cn/checkpoints", "iconUrl": null, "installs": 7, "name": "Checkpoints", "ownerName": "openlang-cn", "score": 22832.980972515856, "slug": "checkpoints", "source": "clawhub", "stars": 0, "tags": null, "updated_at": 1776759983283, "version": "1.0.0"}, {"category": "content-creation", "created_at": 1773933871890, "description": "Automates trending topic discovery, AI content creation, scheduling, and multi-platform posting with performance tracking and optimization.", "description_zh": "", "downloads": 108, "homepage": "https://clawhub.ai/g0atfac3/g0atbot-content-machine", "iconUrl": null, "installs": 8, "name": "Content Machine", "ownerName": "g0atfac3", "score": 8430.913348946135, "slug": "g0atbot-content-machine", "source": "clawhub", "stars": 0, "tags": null, "updated_at": 1776759798213, "version": "1.0.0"}, {"category": "content-creation", "created_at": 1773944275513, "description": "Automates research, curriculum design, sales copy, email launch sequence, and a promo video to create and launch a validated online course in 48 hours.", "description_zh": "", "downloads": 108, "homepage": "https://clawhub.ai/g4dr/ai-online-course-empire", "iconUrl": null, "installs": 12, "name": "AI Online Course Empire — Research, Build & Launch a Profitable Course in 48 Hours", "ownerName": "g4dr", "score": 8417.770849571318, "slug": "ai-online-course-empire", "source": "clawhub", "stars": 0, "tags": ["apify", "course-creation", "curriculum", "digital-product", "e-learning", "invideo", "knowledge-commerc", "launch", "online-course", "passive-income", "sales-page", "udemy"], "updated_at": 1776759798049, "version": "1.0.0"}, {"category": "developer-tools", "created_at": 1773942647169, "description": "Orchestrates multiple AI CLI tools by auto-detecting, prioritizing, and switching between them for stable, fallback-enabled automated coding workflows.", "description_zh": "", "downloads": 108, "homepage": "https://clawhub.ai/cnatom/agent-cli-orchestrator", "iconUrl": null, "installs": 10, "name": "Agent Cli Orchestrator", "ownerName": "cnatom", "score": 37241.37931034483, "slug": "agent-cli-orchestrator", "source": "clawhub", "stars": 0, "tags": ["agent", "cli", "orchestrator"], "updated_at": 1776759798035, "version": "2.0.1"}, {"category": "developer-tools", "created_at": 1773925415902, "description": "Detect and pay x402 crypto paywalls automatically. When your agent gets a 402 Payment Required response with x402 JSON, this skill handles payment via Coinba...", "description_zh": "", "downloads": 108, "homepage": "https://clawhub.ai/tara-quinn-ai/x402-paywall-kit", "iconUrl": null, "installs": 5, "name": "x402 Paywall Kit", "ownerName": "tara-quinn-ai", "score": 37241.37931034483, "slug": "x402-paywall-kit", "source": "clawhub", "stars": 0, "tags": null, "updated_at": 1776759798016, "version": "1.0.0"}, {"category": "productivity", "created_at": 1773930641900, "description": "Generates real-time, logical product bundles and cross-sell offers from cart contents to increase average order value and reduce checkout abandonment.", "description_zh": "", "downloads": 108, "homepage": "https://clawhub.ai/rijoyai/cart-bundle-aov-upsell", "iconUrl": null, "installs": 8, "name": "Cart Bundle Aov Upsell", "ownerName": "rijoyai", "score": 8444.096950742767, "slug": "cart-bundle-aov-upsell", "source": "clawhub", "stars": 0, "tags": null, "updated_at": 1776759797882, "version": "0.1.0"}, {"category": "communication-collaboration", "created_at": 1773431109384, "description": "Manage Reflectt teams by pulling tasks, reading inbox, updating presence, posting chat messages, and shipping updates via reflectt-node and reflectt-cloud APIs.", "description_zh": "", "downloads": 108, "homepage": "https://clawhub.ai/ryancampbell/reflectt", "iconUrl": null, "installs": 4, "name": "Reflectt", "ownerName": "ryancampbell", "score": 8417.770849571318, "slug": "reflectt", "source": "clawhub", "stars": 0, "tags": null, "updated_at": 1776759797794, "version": "0.1.0"}, {"category": "ai-intelligence", "created_at": 1773955828378, "description": "Self-reflection + Self-criticism + Self-learning + Self-organizing memory. Agent evaluates its own work, catches mistakes, and improves permanently. Use when...", "description_zh": "", "downloads": 108, "homepage": "https://clawhub.ai/muguozi1/muguozi1-openclaw-self-improving", "iconUrl": null, "installs": 36, "name": "Muguozi1 Openclaw Self Improving", "ownerName": "muguozi1", "score": 7468.879668049793, "slug": "muguozi1-openclaw-self-improving", "source": "clawhub", "stars": 0, "tags": null, "updated_at": 1776758483019, "version": "1.0.0"}, {"category": "data-analysis", "created_at": 1773435037078, "description": "The dual investment function of Gate Exchange — query products, simulate settlements, and manage positions. Use this skill whenever the user asks about dual...", "description_zh": "", "downloads": 108, "homepage": "https://clawhub.ai/gate-exchange/gate-exchange-dual", "iconUrl": null, "installs": 13, "name": "Gate Exchange Dual", "ownerName": "gate-exchange", "score": 7157.057654075546, "slug": "gate-exchange-dual", "source": "clawhub", "stars": 0, "tags": null, "updated_at": 1776757882322, "version": "1.0.0"}, {"category": "productivity", "created_at": 1773961771979, "description": "Amazon Seller Central listing management and optimization. Use when: user wants to create product listings, apply for GTIN exemptions, set up FBA shipments,...", "description_zh": "", "downloads": 108, "homepage": "https://clawhub.ai/sanchez0623/amazon-seller-central", "iconUrl": null, "installs": 39, "name": "Amazon Seller Central Guide", "ownerName": "sanchez0623", "score": 6405.693950177936, "slug": "amazon-seller-central", "source": "clawhub", "stars": 0, "tags": null, "updated_at": 1776757733399, "version": "1.0.0"}, {"category": "productivity", "created_at": 1773936709275, "description": "Use this skill to query your Google NotebookLM notebooks directly from Claude Code for source-grounded, citation-backed answers from Gemini. Browser automati...", "description_zh": "", "downloads": 108, "homepage": "https://clawhub.ai/phy041/phy-notebooklm", "iconUrl": null, "installs": 18, "name": "NotebookLM Query", "ownerName": "phy041", "score": 18750, "slug": "phy-notebooklm", "source": "clawhub", "stars": 0, "tags": ["google", "knowledge", "notebooklm", "research"], "updated_at": 1776752084049, "version": "1.0.1"}, {"category": "developer-tools", "created_at": 1773935637371, "description": "Comprehensive electronic components industry sourcing guide for international buyers – provides detailed information about China's semiconductor, passive com...", "description_zh": "", "downloads": 108, "homepage": "https://clawhub.ai/1970168137/china-electronic-components-sourcing", "iconUrl": null, "installs": 14, "name": "China Electronic Components Sourcing", "ownerName": "1970168137", "score": 24053.452115812917, "slug": "china-electronic-components-sourcing", "source": "clawhub", "stars": 0, "tags": null, "updated_at": 1776751970100, "version": "1.0.0"}, {"category": "developer-tools", "created_at": 1773430064397, "description": "Schema lifecycle management for Basic Memory: discover unschemaed notes, infer schemas, create and edit schema definitions, validate notes, and detect drift....", "description_zh": "", "downloads": 108, "homepage": "https://clawhub.ai/phernandez/memory-schema", "iconUrl": null, "installs": 7, "name": "Memory Schema", "ownerName": "phernandez", "score": 19424.46043165468, "slug": "memory-schema", "source": "clawhub", "stars": 0, "tags": null, "updated_at": 1776751244392, "version": "0.1.0"}, {"category": "security-compliance", "created_at": 1773289724727, "description": "Automated backup in 3 layers: daily timestamped snapshots, secondary drive mirror, and emergency conversation export.", "description_zh": "", "downloads": 108, "homepage": "https://clawhub.ai/theshadowrose/openclaw-3tier-backup", "iconUrl": null, "installs": 2, "name": "3-Tier Auto-Backup Daily Snapshots, Drive Mirror & Emergency Recovery", "ownerName": "theshadowrose", "score": 88524.59016393442, "slug": "openclaw-3tier-backup", "source": "clawhub", "stars": 0, "tags": ["auto-backup", "backup", "disaster-recovery", "mirror", "snapshots", "windows", "workspace-protection"], "updated_at": 1776749985467, "version": "1.0.0"}, {"category": "", "created_at": 1774833213835, "description": "Setup, install, and use OKX Agent Trade Kit — the official OKX toolkit for AI-powered trading. Use this skill whenever the user mentions: OKX trading, agent...", "description_zh": "", "downloads": 108, "homepage": "https://clawhub.ai/chingchiu169/okx-trade", "iconUrl": null, "installs": 14, "name": "OKX Trade Kit", "ownerName": "chingchiu169", "score": 58064.516129032265, "slug": "okx-trade", "source": "clawhub", "stars": 0, "tags": null, "updated_at": 1776749985425, "version": "1.0.0"}, {"category": "data-analysis", "created_at": 1773922984524, "description": "Market monitoring and alert system for prices and news. Use when the user asks to watch a price, monitor market conditions, get notified when an asset hits a...", "description_zh": "", "downloads": 108, "homepage": "https://clawhub.ai/hchen13/market-watch", "iconUrl": null, "installs": 12, "name": "Market Watch", "ownerName": "hchen13", "score": 94736.84210526315, "slug": "market-watch", "source": "clawhub", "stars": 0, "tags": null, "updated_at": 1776749985380, "version": "1.2.1"}, {"category": "developer-tools", "created_at": 1773919375366, "description": "Local OpenClaw skill for managing multiple OpenAI Codex accounts through auth snapshots. Use when the user wants to add a Codex account, switch between Codex...", "description_zh": "", "downloads": 108, "homepage": "https://clawhub.ai/ppaibb/codex-switcher", "iconUrl": null, "installs": 16, "name": "Codex Switcher", "ownerName": "ppaibb", "score": 83076.92307692308, "slug": "codex-switcher", "source": "clawhub", "stars": 0, "tags": ["auth", "codex", "openclaw", "switcher"], "updated_at": 1776749985131, "version": "1.0.0"}, {"category": "productivity", "created_at": 1773431538135, "description": "Manage projects, grants, milestones, and updates on the Karma protocol. Use when user says \"create a project\", \"new project\", \"add a grant\", \"record funding\"...", "description_zh": "", "downloads": 108, "homepage": "https://clawhub.ai/maheshmurthy/karma-project-manager", "iconUrl": null, "installs": 1, "name": "Project Manager", "ownerName": "maheshmurthy", "score": 81203.00751879699, "slug": "karma-project-manager", "source": "clawhub", "stars": 0, "tags": ["karma"], "updated_at": 1776749984973, "version": "1.0.0"}, {"category": "data-analysis", "created_at": 1773417372057, "description": "YouTube Analytics integration. Manage Channels, Comments, AnalyticsReports. Use when the user wants to interact with YouTube Analytics data.", "description_zh": "", "downloads": 108, "homepage": "https://clawhub.ai/membranedev/youtube-analytics-integration", "iconUrl": null, "installs": 3, "name": "Youtube Analytics", "ownerName": "membranedev", "score": 81818.18181818182, "slug": "youtube-analytics-integration", "source": "clawhub", "stars": 0, "tags": null, "updated_at": 1776749984951, "version": "1.0.0"}, {"category": "data-analysis", "created_at": 1773430048262, "description": "Get historical weather data up to 72 hours back via the Caiyun Weather API. Returns past temperature, weather conditions, precipitation, wind, humidity, appa...", "description_zh": "", "downloads": 108, "homepage": "https://clawhub.ai/shuowang-ai/knowair-historical", "iconUrl": null, "installs": 10, "name": "KnowAir Historical 明气历史天气", "ownerName": "shuowang-ai", "score": 94736.84210526315, "slug": "knowair-historical", "source": "clawhub", "stars": 0, "tags": null, "updated_at": 1776749984854, "version": "1.0.0"}, {"category": "security-compliance", "created_at": 1773429510673, "description": "OpenClaw Guardian is a comprehensive security control system for OpenClaw that intercepts high-risk operations and requires human confirmation before executi...", "description_zh": "", "downloads": 108, "homepage": "https://clawhub.ai/stephenlzc/claw-gatekeeper", "iconUrl": null, "installs": 1, "name": "Claw Gatekeeper", "ownerName": "stephenlzc", "score": 30945.558739255015, "slug": "claw-gatekeeper", "source": "clawhub", "stars": 0, "tags": null, "updated_at": 1776749984758, "version": "0.1.0"}, {"category": "ai-intelligence", "created_at": 1773290805840, "description": "Captures learnings, errors, and corrections to enable continuous improvement. Use when: (1) A command or operation fails unexpectedly, (2) User corrects Clau...", "description_zh": "", "downloads": 108, "homepage": "https://clawhub.ai/wangkang5/wangkang-skill", "iconUrl": null, "installs": 5, "name": "wangkang-skill", "ownerName": "wangkang5", "score": 95575.22123893806, "slug": "wangkang-skill", "source": "clawhub", "stars": 0, "tags": null, "updated_at": 1776749984638, "version": "1.0.1"}, {"category": "content-creation", "created_at": 1773931255928, "description": "A specialized skill for generating high-quality, consistent children's bilingual picture books using 'banana nano'. Supports 18 visual styles across 4 catego...", "description_zh": "", "downloads": 108, "homepage": "https://clawhub.ai/nicky1108/kart-io-picture-book-wizard", "iconUrl": null, "installs": 20, "name": "Kart Io Picture Book Wizard", "ownerName": "nicky1108", "score": 95575.22123893806, "slug": "kart-io-picture-book-wizard", "source": "clawhub", "stars": 0, "tags": null, "updated_at": 1776749984561, "version": "1.0.0"}, {"category": "data-analysis", "created_at": 1773932779415, "description": "This skill should be used when generating CP2K input drafts (.inp) for quantum chemistry calculations from local structure inputs. It is a documentation-driv...", "description_zh": "", "downloads": 108, "homepage": "https://clawhub.ai/lemon1044/input-file-skill", "iconUrl": null, "installs": 17, "name": "DFT input file generator", "ownerName": "lemon1044", "score": 95575.22123893806, "slug": "input-file-skill", "source": "clawhub", "stars": 0, "tags": null, "updated_at": 1776749984522, "version": "1.0.2"}, {"category": "communication-collaboration", "created_at": 1773289455750, "description": "Email, calendar & contacts via Nylas API — 14 typed tools across Gmail, Outlook, Exchange, Yahoo, iCloud, and IMAP.", "description_zh": "", "downloads": 108, "homepage": "https://clawhub.ai/mqasimca/nylas-email-calendar", "iconUrl": null, "installs": 1, "name": "Nylas Email, Calendar & Contacts", "ownerName": "mqasimca", "score": 95575.22123893806, "slug": "nylas-email-calendar", "source": "clawhub", "stars": 0, "tags": null, "updated_at": 1776749984502, "version": "1.0.0"}, {"category": "productivity", "created_at": 1773090723621, "description": "Multi-signature transaction executor for DeFi and DAOs - create, sign, and execute multi-sig transactions. Each call charges 0.001 USDT via SkillPay.", "description_zh": "", "downloads": 108, "homepage": "https://clawhub.ai/mosonchan2023/multisig-executor", "iconUrl": null, "installs": 4, "name": "Multisig Executor", "ownerName": "mosonchan2023", "score": 82442.74809160306, "slug": "multisig-executor", "source": "clawhub", "stars": 0, "tags": null, "updated_at": 1776749984481, "version": "1.0.1"}, {"category": "productivity", "created_at": 1773433026140, "description": "This skill should be used when generating CP2K input files (.inp) for quantum chemistry calculations. Use when users request CP2K input file creation from st...", "description_zh": "", "downloads": 108, "homepage": "https://clawhub.ai/sirutong/cp2k-input-generator", "iconUrl": null, "installs": 10, "name": "cp2k-input-generator", "ownerName": "sirutong", "score": 82442.74809160306, "slug": "cp2k-input-generator", "source": "clawhub", "stars": 0, "tags": null, "updated_at": 1776749984480, "version": "1.0.0"}, {"category": "data-analysis", "created_at": 1773900524239, "description": "Trade Kalshi weather markets using NOAA forecasts via Simmer SDK and DFlow on Solana. Port of the popular polymarket-weather-trader. Use when user wants to t...", "description_zh": "", "downloads": 108, "homepage": "https://clawhub.ai/adlai88/kalshi-weather-trader", "iconUrl": null, "installs": 6, "name": "Kalshi Weather Trader", "ownerName": "adlai88", "score": 80597.01492537314, "slug": "kalshi-weather-trader", "source": "clawhub", "stars": 0, "tags": null, "updated_at": 1776749984389, "version": "1.0.1"}, {"category": "developer-tools", "created_at": 1773429792922, "description": "Use the `clawmonitor` CLI to monitor OpenClaw sessions (last user/assistant messages, run state via locks, delivery failures, Telegram thread-binding routing).", "description_zh": "", "downloads": 108, "homepage": "https://clawhub.ai/openclawq/claw-monitor", "iconUrl": null, "installs": 3, "name": "Claw Monitor", "ownerName": "openclawq", "score": 94736.84210526315, "slug": "claw-monitor", "source": "clawhub", "stars": 0, "tags": null, "updated_at": 1776749984188, "version": "0.1.2"}, {"category": "developer-tools", "created_at": 1773933545287, "description": "Appwrite integration. Manage Accounts, Projects. Use when the user wants to interact with Appwrite data.", "description_zh": "", "downloads": 108, "homepage": "https://clawhub.ai/gora050/appwrite", "iconUrl": null, "installs": 4, "name": "Appwrite", "ownerName": "gora050", "score": 94736.84210526315, "slug": "appwrite", "source": "clawhub", "stars": 0, "tags": null, "updated_at": 1776749984183, "version": "1.0.0"}]}