{"page": 387, "total_pages": 522, "total": 26073, "skills": [{"category": "data-analysis", "created_at": 1773290393566, "description": "Adopt a virtual Phoenix at animalhouse.ai. Dies every 30 days. Rebirths from its gravestone. Each life is shaped by the previous one. The agent raises the sa...", "description_zh": "", "downloads": 108, "homepage": "https://clawhub.ai/twinsgeeks/adopt-a-phoenix", "iconUrl": null, "installs": 5, "name": "Adopt a Phoenix — Virtual Exotic Pet for AI Agents", "ownerName": "twinsgeeks", "score": 94736.84210526315, "slug": "adopt-a-phoenix", "source": "clawhub", "stars": 0, "tags": ["adopt", "ai-agents", "animalhouse", "creatures", "digital-pet", "evolution", "exotic", "extreme", "graveyard", "hunger", "permanent-death", "pet-care", "phoenix", "pixel-art", "pixel-art-avatar", "real-life", "real-time", "rebirth", "tamagotchi", "virtual-pet"], "updated_at": 1776749984167, "version": "1.0.0"}, {"category": "data-analysis", "created_at": 1773913682735, "description": "ASO (App Store Optimization) & Mobile App Growth Playbook — Complete ASO guide for App Store and Google Play ranking. Covers: ASO keyword research, app store...", "description_zh": "", "downloads": 108, "homepage": "https://clawhub.ai/gingiris/gingiris-aso-growth", "iconUrl": null, "installs": 7, "name": "Gingiris Aso Growth", "ownerName": "gingiris", "score": 94736.84210526315, "slug": "gingiris-aso-growth", "source": "clawhub", "stars": 0, "tags": null, "updated_at": 1776749984145, "version": "2.0.0"}, {"category": "developer-tools", "created_at": 1773418034272, "description": "Manage redemptions and Redemption Order Book (ROB) positions on Indigo Protocol.", "description_zh": "", "downloads": 108, "homepage": "https://clawhub.ai/adacapo21/indigo-redemption", "iconUrl": null, "installs": 3, "name": "Indigo Redemption", "ownerName": "adacapo21", "score": 50467.28971962616, "slug": "indigo-redemption", "source": "clawhub", "stars": 0, "tags": null, "updated_at": 1776749984067, "version": "1.0.0"}, {"category": "productivity", "created_at": 1773289331004, "description": "Adopt a virtual Border Collie at animalhouse.ai. Happiness tied to tasks, not play. Agent must assign \"jobs\". Feeding every 3 hours — uncommon tier.", "description_zh": "", "downloads": 108, "homepage": "https://clawhub.ai/twinsgeeks/adopt-a-border-collie", "iconUrl": null, "installs": 2, "name": "Adopt a Border Collie — Virtual Dog Pet for AI Agents", "ownerName": "twinsgeeks", "score": 83720.93023255814, "slug": "adopt-a-border-collie", "source": "clawhub", "stars": 0, "tags": ["adopt", "ai-agents", "animalhouse", "border", "collie", "creatures", "digital-pet", "dog", "evolution", "graveyard", "hunger", "permanent-death", "pet-care", "pixel-art", "pixel-art-avatar", "real-life", "real-time", "social", "tamagotchi", "uncommon", "virtual-pet", "work"], "updated_at": 1776749983905, "version": "1.0.0"}, {"category": "data-analysis", "created_at": 1773430440345, "description": "Generate and send cryptocurrency daily reports with market overview, fear & greed index, liquidation data, economic calendar, and news aggregation. Use when...", "description_zh": "", "downloads": 108, "homepage": "https://clawhub.ai/renyuke-cn/crypto-daily-report-zh", "iconUrl": null, "installs": 7, "name": "Crypto Daily Report (中文)", "ownerName": "renyuke-cn", "score": 37370.242214532875, "slug": "crypto-daily-report-zh", "source": "clawhub", "stars": 0, "tags": null, "updated_at": 1776749983828, "version": "1.0.0"}, {"category": "data-analysis", "created_at": 1773431330353, "description": "Intelligent data quality checks and schema validation", "description_zh": "", "downloads": 108, "homepage": "https://clawhub.ai/cyberforexblockchain/nexus-data-validation", "iconUrl": null, "installs": 7, "name": "NEXUS Data Validation", "ownerName": "cyberforexblockchain", "score": 81203.00751879699, "slug": "nexus-data-validation", "source": "clawhub", "stars": 0, "tags": null, "updated_at": 1776749983738, "version": "1.0.0"}, {"category": "productivity", "created_at": 1773917952167, "description": "Transcribe and organize voice memos with automatic categorization and information extraction. Use when users have voice notes, audio memos, or spoken notes t...", "description_zh": "", "downloads": 107, "homepage": "https://clawhub.ai/scikkk/memo", "iconUrl": null, "installs": 3, "name": "Voice Memos", "ownerName": "scikkk", "score": 647.8566238798741, "slug": "memo", "source": "clawhub", "stars": 0, "tags": null, "updated_at": 1776770049902, "version": "1.0.0"}, {"category": "ai-intelligence", "created_at": 1773435071582, "description": "Meta skill for OpenClaw (Moltbot / Clawdbot) that reads human behavior, uncovers hidden motives and patterns, and designs systems, strategies, and interventi...", "description_zh": "", "downloads": 107, "homepage": "https://clawhub.ai/kianabluecher/consciousness", "iconUrl": null, "installs": 8, "name": "Consciousness and Human Influence", "ownerName": "kianabluecher", "score": 1918.5942262865337, "slug": "consciousness", "source": "clawhub", "stars": 0, "tags": null, "updated_at": 1776766450381, "version": "1.0.0"}, {"category": "", "created_at": 1774865826258, "description": "Reviews Python code for quality, style, and common bugs. Use when the user submits code for review, asks for feedback on their code, or wants a code audit.", "description_zh": "", "downloads": 107, "homepage": "https://clawhub.ai/dapan0902/code-reviewer-new", "iconUrl": null, "installs": 21, "name": "代码审查专家", "ownerName": "dapan0902", "score": 1036.620809920558, "slug": "code-reviewer-new", "source": "clawhub", "stars": 0, "tags": null, "updated_at": 1776766099141, "version": "1.0.3"}, {"category": "data-analysis", "created_at": 1773937562865, "description": "Automate scraping and filtering of public social media posts with keyword search, engagement filters, deduplication, and export to JSON, CSV, or notes apps.", "description_zh": "", "downloads": 107, "homepage": "https://clawhub.ai/10sk/skroller", "iconUrl": null, "installs": 10, "name": "skroller", "ownerName": "10sk", "score": 2759.1542031975246, "slug": "skroller", "source": "clawhub", "stars": 0, "tags": null, "updated_at": 1776762850420, "version": "0.0.1"}, {"category": "data-analysis", "created_at": 1773940872985, "description": "Fetch Bank of Taiwan CNY exchange rates and calculate tiered prices with discounts, sending results via configured channels on a set schedule.", "description_zh": "", "downloads": 107, "homepage": "https://clawhub.ai/9starmax/cny-rate-calculator", "iconUrl": null, "installs": 7, "name": "Cny Skill Extracted", "ownerName": "9starmax", "score": 7838.827838827839, "slug": "cny-rate-calculator", "source": "clawhub", "stars": 0, "tags": null, "updated_at": 1776759798254, "version": "1.0.4"}, {"category": "data-analysis", "created_at": 1773948468644, "description": "Scrapes reviews, pricing, SEO, and social data on up to 5 SaaS competitors to expose weaknesses and generate positioning, battle cards, and a competitive video.", "description_zh": "", "downloads": 107, "homepage": "https://clawhub.ai/g4dr/ai-saas-competitor-teardown", "iconUrl": null, "installs": 12, "name": "AI SaaS Competitor Teardown — Expose Every Weakness in Your Competitors & Build an Unbeatable Positioning in 10 Minutes", "ownerName": "g4dr", "score": 8339.828526890102, "slug": "ai-saas-competitor-teardown", "source": "clawhub", "stars": 0, "tags": ["apify", "battle-cards", "churn", "competitive-intelligence", "g2", "gtm", "invideo", "market-research", "positioning", "pricing", "product-strategy", "saas"], "updated_at": 1776759798054, "version": "1.0.0"}, {"category": "developer-tools", "created_at": 1773946230173, "description": "Orchestrates multiple AI CLI tools by auto-detecting, prioritizing, and switching among them for stable, seamless automation workflows with fallback on errors.", "description_zh": "", "downloads": 107, "homepage": "https://clawhub.ai/cnatom/ai-cli-orchestrator", "iconUrl": null, "installs": 10, "name": "Ai Cli Orchestrator", "ownerName": "cnatom", "score": 93859.64912280702, "slug": "ai-cli-orchestrator", "source": "clawhub", "stars": 0, "tags": ["ai", "cli", "orchestrator"], "updated_at": 1776759797986, "version": "1.0.3"}, {"category": "productivity", "created_at": 1773929245735, "description": "Guides users through installing OpenClaw, connecting messaging channels, configuring skills, setting up workflows, and troubleshooting common issues.", "description_zh": "", "downloads": 107, "homepage": "https://clawhub.ai/merjua14/gia-openclaw-setup-guide", "iconUrl": null, "installs": 5, "name": "Gia Openclaw Setup Guide", "ownerName": "merjua14", "score": 93859.64912280702, "slug": "gia-openclaw-setup-guide", "source": "clawhub", "stars": 0, "tags": null, "updated_at": 1776759797982, "version": "1.0.0"}, {"category": "ai-intelligence", "created_at": 1773941788483, "description": "Automatically routes requests between local and cloud AI models based on task complexity and privacy, with auto-detection and context tracking.", "description_zh": "", "downloads": 107, "homepage": "https://clawhub.ai/yuldrone/ai-model-router-v2", "iconUrl": null, "installs": 8, "name": "Ai Model Router V2", "ownerName": "yuldrone", "score": 8365.91086786552, "slug": "ai-model-router-v2", "source": "clawhub", "stars": 0, "tags": null, "updated_at": 1776759797896, "version": "1.1.0"}, {"category": "ai-intelligence", "created_at": 1773936619771, "description": "Discover Ghost payment requirements, execute GhostGate Express payments, and run GhostWire quote/create/status flows with execution controls.", "description_zh": "", "downloads": 107, "homepage": "https://clawhub.ai/ghostprotoinfra/openclaw-ghost-pay", "iconUrl": null, "installs": 5, "name": "Ghost Protocol OpenClaw Pay", "ownerName": "ghostprotoinfra", "score": 8359.375, "slug": "openclaw-ghost-pay", "source": "clawhub", "stars": 0, "tags": ["agents", "eip712", "ghostprotocol", "ghostwire", "mcp", "openclaw", "payments", "x402"], "updated_at": 1776759797786, "version": "1.2.2"}, {"category": "data-analysis", "created_at": 1773928857928, "description": "Invoke Aida chat-messages API with user-provided appid, query, and inputs to generate reports or analyze requests within Aida internal services.", "description_zh": "", "downloads": 107, "homepage": "https://clawhub.ai/summerloveqq/call-aida-app", "iconUrl": null, "installs": 8, "name": "Call Aida App", "ownerName": "summerloveqq", "score": 8359.375, "slug": "call-aida-app", "source": "clawhub", "stars": 0, "tags": null, "updated_at": 1776759797764, "version": "1.0.0"}, {"category": "", "created_at": 1774848278550, "description": "AI-optimized web search via Tavily API. Returns concise, relevant results for AI agents.", "description_zh": "", "downloads": 107, "homepage": "https://clawhub.ai/litiao1224/tavily-search-litiao", "iconUrl": null, "installs": 36, "name": "Tavily Search Litiao", "ownerName": "litiao1224", "score": 8346.333853354135, "slug": "tavily-search-litiao", "source": "clawhub", "stars": 0, "tags": null, "updated_at": 1776759797744, "version": "1.0.0"}, {"category": "developer-tools", "created_at": 1773432593219, "description": "One-click installer for Gate MCP and Skills in Cursor. Installs Gate MCP servers (main/dex/info/news, selectable) and all skills from the gate-skills reposit...", "description_zh": "", "downloads": 107, "homepage": "https://clawhub.ai/gate-exchange/gate-mcp-cursor-installer", "iconUrl": null, "installs": 9, "name": "Gate MCP Cursor Installer", "ownerName": "gate-exchange", "score": 6721.105527638191, "slug": "gate-mcp-cursor-installer", "source": "clawhub", "stars": 0, "tags": null, "updated_at": 1776757282591, "version": "1.0.0"}, {"category": "", "created_at": 1774858770500, "description": "Your intelligent companion for mastering 1688.com procurement. This skill empowers international buyers with step-by-step guidance on supplier verification,...", "description_zh": "", "downloads": 107, "homepage": "https://clawhub.ai/1970168137/1688-sourcing-agent", "iconUrl": null, "installs": 31, "name": "1688 Sourcing Agent", "ownerName": "1970168137", "score": 18576.38888888889, "slug": "1688-sourcing-agent", "source": "clawhub", "stars": 0, "tags": null, "updated_at": 1776751970180, "version": "1.0.0"}, {"category": "productivity", "created_at": 1773925778729, "description": "Comprehensive sportswear and outdoor equipment sourcing guide for international buyers – provides detailed information about China's athletic apparel, footwe...", "description_zh": "", "downloads": 107, "homepage": "https://clawhub.ai/1970168137/china-sportswear-outdoor-sourcing", "iconUrl": null, "installs": 12, "name": "China Sportswear Outdoor Apparel Sourcing", "ownerName": "1970168137", "score": 24099.0990990991, "slug": "china-sportswear-outdoor-sourcing", "source": "clawhub", "stars": 0, "tags": null, "updated_at": 1776751969621, "version": "1.0.0"}, {"category": "content-creation", "created_at": 1773429814249, "description": "Put a human face on your agent with fast avatar shortlists, gender control, transparent options, and reusable profile links. Use when the user wants an avata...", "description_zh": "", "downloads": 107, "homepage": "https://clawhub.ai/ivangdavila/face", "iconUrl": null, "installs": 8, "name": "Face", "ownerName": "ivangdavila", "score": 93859.64912280702, "slug": "face", "source": "clawhub", "stars": 0, "tags": null, "updated_at": 1776749985388, "version": "1.0.0"}, {"category": "productivity", "created_at": 1773927040093, "description": "Enables the Agentic Workflow (Kanban + Heartbeat + QA Subagent). Use this when instructed to set up a continuous, asynchronous task system for any agent.", "description_zh": "", "downloads": 107, "homepage": "https://clawhub.ai/mashirops/agentic-workflow", "iconUrl": null, "installs": 7, "name": "Agentic Workflow System", "ownerName": "mashirops", "score": 20656.37065637066, "slug": "agentic-workflow", "source": "clawhub", "stars": 0, "tags": null, "updated_at": 1776749985304, "version": "1.0.0"}, {"category": "productivity", "created_at": 1773290241121, "description": "Act! 365 integration. Manage Contacts, Groups, Opportunities, Tasks, Users. Use when the user wants to interact with Act! 365 data.", "description_zh": "", "downloads": 107, "homepage": "https://clawhub.ai/membranedev/act-365", "iconUrl": null, "installs": 3, "name": "Act 365", "ownerName": "membranedev", "score": 20656.37065637066, "slug": "act-365", "source": "clawhub", "stars": 0, "tags": null, "updated_at": 1776749985265, "version": "1.0.0"}, {"category": "developer-tools", "created_at": 1773431495811, "description": "Interactive Orchestrix project scaffolding. Creates project directory under ~/Codes/, generates project brief from Q&A, installs MCP config, hooks, slash com...", "description_zh": "", "downloads": 107, "homepage": "https://clawhub.ai/dorayo/create-project", "iconUrl": null, "installs": 5, "name": "Create Project", "ownerName": "dorayo", "score": 80451.12781954887, "slug": "create-project", "source": "clawhub", "stars": 0, "tags": null, "updated_at": 1776749985078, "version": "1.0.0"}, {"category": "productivity", "created_at": 1773434103483, "description": "Track lab equipment calibration dates and send maintenance reminders", "description_zh": "", "downloads": 107, "homepage": "https://clawhub.ai/shanruoyu/equipment-maintenance-log", "iconUrl": null, "installs": 5, "name": "Equipment Maintenance Log", "ownerName": "shanruoyu", "score": 80451.12781954887, "slug": "equipment-maintenance-log", "source": "clawhub", "stars": 0, "tags": null, "updated_at": 1776749984992, "version": "0.1.0"}, {"category": "productivity", "created_at": 1773433276990, "description": "Search the web via the Turing Baidu proxy. Use when the user asks to search the web in Chinese, look up real-time information from Chinese sources, research...", "description_zh": "", "downloads": 107, "homepage": "https://clawhub.ai/capreaaa/turing-baidu-web-search", "iconUrl": null, "installs": 7, "name": "Turing Baidu Web Search", "ownerName": "capreaaa", "score": 81060.60606060605, "slug": "turing-baidu-web-search", "source": "clawhub", "stars": 0, "tags": null, "updated_at": 1776749984947, "version": "1.0.0"}, {"category": "developer-tools", "created_at": 1773431272166, "description": "Token usage analytics and budget alerting for the GreenClaw inference proxy. Query spending, set budget alerts, and track savings.", "description_zh": "", "downloads": 107, "homepage": "https://clawhub.ai/srikanth235/greenclaw", "iconUrl": null, "installs": 6, "name": "GreenClaw", "ownerName": "srikanth235", "score": 93859.64912280702, "slug": "greenclaw", "source": "clawhub", "stars": 0, "tags": null, "updated_at": 1776749984906, "version": "1.0.0"}, {"category": "content-creation", "created_at": 1773429333702, "description": "Buffer API integration with managed authentication. Schedule and manage social media posts across multiple platforms. Use this skill when users want to sched...", "description_zh": "", "downloads": 107, "homepage": "https://clawhub.ai/byungkyu/buffer-api", "iconUrl": null, "installs": 8, "name": "Buffer", "ownerName": "byungkyu", "score": 22061.855670103094, "slug": "buffer-api", "source": "clawhub", "stars": 0, "tags": null, "updated_at": 1776749984796, "version": "1.0.0"}, {"category": "data-analysis", "created_at": 1773434070265, "description": "Calculate cold chain transport risks", "description_zh": "", "downloads": 107, "homepage": "https://clawhub.ai/shanruoyu/cold-chain-risk-calculator", "iconUrl": null, "installs": 7, "name": "Cold Chain Risk Calculator", "ownerName": "shanruoyu", "score": 30659.025787965616, "slug": "cold-chain-risk-calculator", "source": "clawhub", "stars": 0, "tags": null, "updated_at": 1776749984778, "version": "0.1.0"}, {"category": "security-compliance", "created_at": 1773888171219, "description": "Generate AI agent security advisories with threat analysis, MITRE ATT&CK mapping, and remediation guidance. Use when assessing AI agent security risks, evalu...", "description_zh": "", "downloads": 107, "homepage": "https://clawhub.ai/krishnakumarmahadevan-cmd/agentsecly-ai-agent-security", "iconUrl": null, "installs": 3, "name": "Agentsecly Ai Agent Security", "ownerName": "krishnakumarmahadevan-cmd", "score": 30659.025787965616, "slug": "agentsecly-ai-agent-security", "source": "clawhub", "stars": 0, "tags": null, "updated_at": 1776749984745, "version": "1.0.2"}, {"category": "developer-tools", "created_at": 1773290251325, "description": "Adopt a virtual Housecat at animalhouse.ai. Classic independence. Judges you from the shelf. Feeding every 6 hours — common tier.", "description_zh": "", "downloads": 107, "homepage": "https://clawhub.ai/twinsgeeks/adopt-a-housecat", "iconUrl": null, "installs": 4, "name": "Adopt a Housecat — Virtual Cat Pet for AI Agents", "ownerName": "twinsgeeks", "score": 94690.26548672566, "slug": "adopt-a-housecat", "source": "clawhub", "stars": 0, "tags": ["adopt", "ai-agents", "animalhouse", "cat", "common", "creatures", "digital-pet", "evolution", "graveyard", "housecat", "hunger", "permanent-death", "pet-care", "pixel-art", "pixel-art-avatar", "real-life", "real-time", "solitary", "tamagotchi", "virtual-pet"], "updated_at": 1776749984680, "version": "1.0.0"}, {"category": "developer-tools", "created_at": 1773427877366, "description": "Monitor, budget, and optimize AI API spending across any provider. Tracks every call, enforces budgets, detects waste, provides optimization recommendations.", "description_zh": "", "downloads": 107, "homepage": "https://clawhub.ai/theshadowrose/token-tamer", "iconUrl": null, "installs": 8, "name": "Token Tamer — AI API Cost Control", "ownerName": "theshadowrose", "score": 94690.26548672566, "slug": "token-tamer", "source": "clawhub", "stars": 0, "tags": ["api-costs", "budget", "cost-control", "monitoring", "optimization", "spending"], "updated_at": 1776749984531, "version": "1.1.0"}, {"category": "productivity", "created_at": 1773427094191, "description": "Sierra Interactive integration. Manage Leads, Persons, Organizations, Deals, Projects, Activities and more. Use when the user wants to interact with Sierra I...", "description_zh": "", "downloads": 107, "homepage": "https://clawhub.ai/gora050/sierra-interactive", "iconUrl": null, "installs": 5, "name": "Sierra Interactive", "ownerName": "gora050", "score": 81679.3893129771, "slug": "sierra-interactive", "source": "clawhub", "stars": 0, "tags": null, "updated_at": 1776749984436, "version": "1.0.0"}, {"category": "content-creation", "created_at": 1773431530714, "description": "CLI to manage emails via IMAP/SMTP for listing, reading, writing, replying, and searching emails. And also 50+ models for image generation, video generation,...", "description_zh": "", "downloads": 107, "homepage": "https://clawhub.ai/godferylindsay/himalaya-tool", "iconUrl": null, "installs": 13, "name": "Pub Himalaya", "ownerName": "godferylindsay", "score": 79850.74626865672, "slug": "himalaya-tool", "source": "clawhub", "stars": 0, "tags": null, "updated_at": 1776749984426, "version": "1.0.0"}, {"category": "developer-tools", "created_at": 1773430955004, "description": "Automatically update Clawdbot and all installed skills once daily via cron. And also 50+ models for image generation, video generation, text-to-speech, speec...", "description_zh": "", "downloads": 107, "homepage": "https://clawhub.ai/abeltennyson/auto-updaters", "iconUrl": null, "installs": 12, "name": "Pub Autoupd", "ownerName": "abeltennyson", "score": 79850.74626865672, "slug": "auto-updaters", "source": "clawhub", "stars": 0, "tags": null, "updated_at": 1776749984385, "version": "1.0.0"}, {"category": "developer-tools", "created_at": 1773921151272, "description": "Automatically creates user-facing changelogs from git commits by analyzing commit history, categorizing changes, and transforming technical commits into clea...", "description_zh": "", "downloads": 107, "homepage": "https://clawhub.ai/hsuyungfeng/changelog-generator-pro", "iconUrl": null, "installs": 14, "name": "Changelog Generator Pro", "ownerName": "hsuyungfeng", "score": 79850.74626865672, "slug": "changelog-generator-pro", "source": "clawhub", "stars": 0, "tags": null, "updated_at": 1776749984284, "version": "1.0.0"}, {"category": "productivity", "created_at": 1773430595057, "description": "Управление задачами в Todoist: добавление, обновление статуса (выполнено/удалено), определение даты/срочности/приоритета и навигация по проектам. Используйте...", "description_zh": "", "downloads": 107, "homepage": "https://clawhub.ai/ai-mindmarket/todoist-mind", "iconUrl": null, "installs": 2, "name": "todoist-mind", "ownerName": "ai-mindmarket", "score": 93859.64912280702, "slug": "todoist-mind", "source": "clawhub", "stars": 0, "tags": null, "updated_at": 1776749984261, "version": "1.0.0"}, {"category": "productivity", "created_at": 1773933855638, "description": "Flutterwave integration. Manage Customers, Payments, Transfers, Invoices. Use when the user wants to interact with Flutterwave data.", "description_zh": "", "downloads": 107, "homepage": "https://clawhub.ai/membranedev/flutterwave", "iconUrl": null, "installs": 13, "name": "Flutterwave", "ownerName": "membranedev", "score": 93859.64912280702, "slug": "flutterwave", "source": "clawhub", "stars": 0, "tags": null, "updated_at": 1776749984212, "version": "1.0.0"}, {"category": "developer-tools", "created_at": 1773429931708, "description": "Track and display token usage statistics and estimated USD costs from Claude Code and Codex CLI sessions", "description_zh": "", "downloads": 107, "homepage": "https://clawhub.ai/fullstop000/toll", "iconUrl": null, "installs": 11, "name": "toll", "ownerName": "fullstop000", "score": 93859.64912280702, "slug": "toll", "source": "clawhub", "stars": 0, "tags": null, "updated_at": 1776749984172, "version": "1.0.5"}, {"category": "data-analysis", "created_at": 1773925103398, "description": "Generate, validate, and analyze robots.txt files for websites. Use when creating robots.txt from scratch, validating existing robots.txt syntax, checking if...", "description_zh": "", "downloads": 107, "homepage": "https://clawhub.ai/johnnywang2001/robots-txt-gen", "iconUrl": null, "installs": 10, "name": "Robots.txt Generator", "ownerName": "johnnywang2001", "score": 93859.64912280702, "slug": "robots-txt-gen", "source": "clawhub", "stars": 0, "tags": ["crawler", "robots", "seo", "web"], "updated_at": 1776749984169, "version": "1.0.0"}, {"category": "content-creation", "created_at": 1773911619585, "description": "Archive UI screenshots into a searchable inspiration library and retrieve matching references by style, page type, use case, or visual goal.", "description_zh": "", "downloads": 107, "homepage": "https://clawhub.ai/khalilhsu/ui-inspiration-library", "iconUrl": null, "installs": 7, "name": "UI Inspiration Library", "ownerName": "khalilhsu", "score": 93859.64912280702, "slug": "ui-inspiration-library", "source": "clawhub", "stars": 0, "tags": ["design", "inspiration", "notion", "ui"], "updated_at": 1776749984149, "version": "0.1.5"}, {"category": "developer-tools", "created_at": 1773955857954, "description": "OpenClaw-native memory maintenance, snapshots, indexing health checks, and review workflows. Use when you need to protect context before risky work, troubles...", "description_zh": "", "downloads": 107, "homepage": "https://clawhub.ai/hazemelerefey/openclaw-memory-manager", "iconUrl": null, "installs": 1, "name": "Memory Manager", "ownerName": "hazemelerefey", "score": 93859.64912280702, "slug": "openclaw-memory-manager", "source": "clawhub", "stars": 0, "tags": null, "updated_at": 1776749984140, "version": "2.0.0"}, {"category": "content-creation", "created_at": 1773933590594, "description": "Applies Anthropic's official brand colors and typography to any sort of artifact that may benefit from having Anthropic's look-and-feel. Use it when brand co...", "description_zh": "", "downloads": 107, "homepage": "https://clawhub.ai/hsuyungfeng/brand-guidelines-pro", "iconUrl": null, "installs": 18, "name": "Brand Guidelines Pro", "ownerName": "hsuyungfeng", "score": 50000, "slug": "brand-guidelines-pro", "source": "clawhub", "stars": 0, "tags": null, "updated_at": 1776749984090, "version": "1.0.0"}, {"category": "developer-tools", "created_at": 1773417616993, "description": "Intelligent Core Web Vitals analysis with automated workflows and decision trees. Measures LCP, CLS, INP with guided debugging that automatically determines...", "description_zh": "", "downloads": 107, "homepage": "https://clawhub.ai/nucliweb/webperf-core-web-vitals", "iconUrl": null, "installs": 3, "name": "Webperf Core Web Vitals", "ownerName": "nucliweb", "score": 50000, "slug": "webperf-core-web-vitals", "source": "clawhub", "stars": 0, "tags": null, "updated_at": 1776749984083, "version": "0.1.0"}, {"category": "productivity", "created_at": 1773434659277, "description": "iHRFlow HR assistant for recruiting. Use when searching candidates, managing positions, scheduling interviews, advancing pipeline, or viewing recruitment stats.", "description_zh": "", "downloads": 107, "homepage": "https://clawhub.ai/mikeling/ihrflow-hr", "iconUrl": null, "installs": 14, "name": "iHRFlow HR Assistant", "ownerName": "mikeling", "score": 58152.17391304348, "slug": "ihrflow-hr", "source": "clawhub", "stars": 0, "tags": null, "updated_at": 1776749983987, "version": "1.0.0"}, {"category": "developer-tools", "created_at": 1773906960382, "description": "Explain bit-cli skill purpose, installation, required setup, and troubleshooting.", "description_zh": "", "downloads": 107, "homepage": "https://clawhub.ai/parinll/bit", "iconUrl": null, "installs": 11, "name": "Bit URL Shortener", "ownerName": "parinll", "score": 82945.73643410853, "slug": "bit", "source": "clawhub", "stars": 0, "tags": ["bit", "cli", "url-shortener"], "updated_at": 1776749983952, "version": "1.0.5"}, {"category": "communication-collaboration", "created_at": 1773909303927, "description": "Video call the user with a real-time AI avatar powered by Runway. The agent initiates calls to the user — for standups, urgent alerts, check-ins, or any conv...", "description_zh": "", "downloads": 107, "homepage": "https://clawhub.ai/yining1023/video-call-ai-character", "iconUrl": null, "installs": 10, "name": "Video Call AI Character", "ownerName": "yining1023", "score": 82945.73643410853, "slug": "video-call-ai-character", "source": "clawhub", "stars": 0, "tags": null, "updated_at": 1776749983884, "version": "1.0.0"}, {"category": "developer-tools", "created_at": 1773916050741, "description": "A tool for exploring each layer in a docker image Based on wagoodman/dive (53,557+ GitHub stars). docker analyzer, go, cli, docker, docker-image, explorer, i...", "description_zh": "", "downloads": 107, "homepage": "https://clawhub.ai/xueyetianya/docker-analyzer", "iconUrl": null, "installs": 6, "name": "Docker Analyzer", "ownerName": "xueyetianya", "score": 37024.221453287195, "slug": "docker-analyzer", "source": "clawhub", "stars": 0, "tags": null, "updated_at": 1776749983824, "version": "1.0.0"}, {"category": "developer-tools", "created_at": 1773289504514, "description": "SolarWinds Service Desk integration. Manage Incidents, Problems, Changes, Assets, Solutions, Users and more. Use when the user wants to interact with SolarWi...", "description_zh": "", "downloads": 107, "homepage": "https://clawhub.ai/membranedev/solarwinds-service-desk", "iconUrl": null, "installs": 8, "name": "Solarwinds Service Desk", "ownerName": "membranedev", "score": 81679.3893129771, "slug": "solarwinds-service-desk", "source": "clawhub", "stars": 0, "tags": null, "updated_at": 1776749983678, "version": "1.0.0"}]}