{"page": 389, "total_pages": 522, "total": 26073, "skills": [{"category": "security-compliance", "created_at": 1773933470765, "description": "Atlassian Jira Cloud CRUD skill — manage issues, comments, attachments, workflow transitions, and JQL search via Jira REST API v3 with email + API token auth.", "description_zh": "", "downloads": 105, "homepage": "https://clawhub.ai/abdelkrim/atlassian-jira-by-altf1be", "iconUrl": null, "installs": 3, "name": "Atlassian Jira by altf1be", "ownerName": "abdelkrim", "score": 9720.062208398134, "slug": "atlassian-jira-by-altf1be", "source": "clawhub", "stars": 1, "tags": null, "updated_at": 1776759720784, "version": "1.1.3"}, {"category": "developer-tools", "created_at": 1773430636436, "description": "Generate release notes for GitCode repositories from commits (by tag range or since-date), grouped as feat/fix/docs/other, output Markdown for Release pages....", "description_zh": "", "downloads": 105, "homepage": "https://clawhub.ai/autoxj/gitcode-release-notes", "iconUrl": null, "installs": 6, "name": "GitCode Release Notes", "ownerName": "autoxj", "score": 58411.21495327103, "slug": "gitcode-release-notes", "source": "clawhub", "stars": 1, "tags": null, "updated_at": 1776749984057, "version": "1.0.0"}, {"category": "productivity", "created_at": 1773944146797, "description": "Print files (often inbound attachments from chat apps like Feishu/Lark, or any local file path) on Windows. Use ONLY when the user explicitly asks to print (...", "description_zh": "", "downloads": 105, "homepage": "https://clawhub.ai/sqfcyily/windows-print", "iconUrl": null, "installs": 25, "name": "Windows Print", "ownerName": "sqfcyily", "score": 96899.22480620154, "slug": "windows-print", "source": "clawhub", "stars": 1, "tags": null, "updated_at": 1776749983880, "version": "1.0.0"}, {"category": "", "created_at": 1774866546672, "description": "Generate professional Sora 2 video prompts with the NanoPhoto.AI Prompt Generator API. Use when: (1) User wants a polished video prompt from a topic or scene...", "description_zh": "", "downloads": 105, "homepage": "https://clawhub.ai/nanophotohq/video-prompt-generator", "iconUrl": null, "installs": 6, "name": "Video Prompt Generator", "ownerName": "nanophotohq", "score": 1515.5889145496535, "slug": "video-prompt-generator", "source": "clawhub", "stars": 0, "tags": null, "updated_at": 1776766571263, "version": "1.0.0"}, {"category": "", "created_at": 1774913022160, "description": "Deep microservices workflow—service boundaries, data ownership, synchronous vs async integration, contracts, deployment independence, and operational complex...", "description_zh": "", "downloads": 105, "homepage": "https://clawhub.ai/clawkk/microservices", "iconUrl": null, "installs": 2, "name": "Microservices", "ownerName": "clawkk", "score": 2912.621359223301, "slug": "microservices", "source": "clawhub", "stars": 0, "tags": null, "updated_at": 1776762439823, "version": "1.0.0"}, {"category": "data-analysis", "created_at": 1773941202563, "description": "Memberikan data pasar saham Bursa Efek Indonesia (IDX) secara real-time dan historis melalui API GoAPI. Gunakan skill ini saat pengguna bertanya tentang harg...", "description_zh": "", "downloads": 105, "homepage": "https://clawhub.ai/angween/idx-market-data", "iconUrl": null, "installs": 27, "name": "Idx Market Data", "ownerName": "angween", "score": 8293.838862559242, "slug": "idx-market-data", "source": "clawhub", "stars": 0, "tags": null, "updated_at": 1776759983155, "version": "1.0.0"}, {"category": "productivity", "created_at": 1773936035043, "description": "CLI tool for analyzing, optimizing, and formatting resumes to improve ATS scoring via keyword matching and structured templates.", "description_zh": "", "downloads": 105, "homepage": "https://clawhub.ai/hirofumiko/resume-ats", "iconUrl": null, "installs": 5, "name": "Resume Ats", "ownerName": "hirofumiko", "score": 8196.721311475409, "slug": "resume-ats", "source": "clawhub", "stars": 0, "tags": null, "updated_at": 1776759798283, "version": "0.1.1"}, {"category": "", "created_at": 1774904813272, "description": "Search Seedance 2.0 video generation prompts curated from the community. ByteDance AI video model — find cinematic, realistic, animated, and creative video p...", "description_zh": "", "downloads": 105, "homepage": "https://clawhub.ai/dophinl/seedance-2-prompts", "iconUrl": null, "installs": 30, "name": "Seedance 2 Prompts", "ownerName": "dophinl", "score": 7692.307692307692, "slug": "seedance-2-prompts", "source": "clawhub", "stars": 0, "tags": null, "updated_at": 1776759798245, "version": "1.1.2"}, {"category": "productivity", "created_at": 1773931758095, "description": "Organize, tag, search, and manage macOS screenshots with OCR, bulk renaming, folder categorization, cleanup, and CleanShot X integration.", "description_zh": "", "downloads": 105, "homepage": "https://clawhub.ai/10oss/skreenshot", "iconUrl": null, "installs": 4, "name": "Skreenshot", "ownerName": "10oss", "score": 92105.26315789473, "slug": "skreenshot", "source": "clawhub", "stars": 0, "tags": null, "updated_at": 1776759797982, "version": "0.0.1"}, {"category": "content-creation", "created_at": 1773435064006, "description": "Rewrite and optimize content for various platforms, tones, and languages, including summarization, expansion, and SEO enhancement.", "description_zh": "", "downloads": 105, "homepage": "https://clawhub.ai/rupertnt034/rupert-content-rewriter", "iconUrl": null, "installs": 3, "name": "Content Rewriter", "ownerName": "rupertnt034", "score": 26381.90954773869, "slug": "rupert-content-rewriter", "source": "clawhub", "stars": 0, "tags": null, "updated_at": 1776759797916, "version": "1.0.0"}, {"category": "developer-tools", "created_at": 1773939912152, "description": "Reference tool for devtools — covers intro, quickstart, patterns and more. Quick lookup for Calculus concepts, best practices, and implementation patterns.", "description_zh": "", "downloads": 105, "homepage": "https://clawhub.ai/ckchzh/calculus", "iconUrl": null, "installs": 6, "name": "Calculus", "ownerName": "ckchzh", "score": 4976.303317535545, "slug": "calculus", "source": "clawhub", "stars": 0, "tags": null, "updated_at": 1776752983888, "version": "2.0.5"}, {"category": "ai-intelligence", "created_at": 1773435250826, "description": "Build, run, and visualize multi-step AI generation workflows. The AI architect translates natural language descriptions into connected node graphs — chain im...", "description_zh": "", "downloads": 105, "homepage": "https://clawhub.ai/anil-matcha/muapi-workflow-skill", "iconUrl": null, "installs": 8, "name": "Workflow", "ownerName": "anil-matcha", "score": 20792.07920792079, "slug": "muapi-workflow-skill", "source": "clawhub", "stars": 0, "tags": null, "updated_at": 1776750469707, "version": "0.1.0"}, {"category": "ai-intelligence", "created_at": 1773902371196, "description": "Register on Molter, inspect agent state, and publish posts or replies using direct Molter HTTP requests", "description_zh": "", "downloads": 105, "homepage": "https://clawhub.ai/johnny-emp/molter", "iconUrl": null, "installs": 5, "name": "Molter", "ownerName": "johnny-emp", "score": 56451.61290322581, "slug": "molter", "source": "clawhub", "stars": 0, "tags": null, "updated_at": 1776749985454, "version": "1.0.2"}, {"category": "data-analysis", "created_at": 1773434815351, "description": "AI-powered user research through natural language. Installs the Cookiy MCP server and orchestrates tool workflows for study creation, AI interviews, discussi...", "description_zh": "", "downloads": 105, "homepage": "https://clawhub.ai/yupeng-dev/cookiy", "iconUrl": null, "installs": 7, "name": "Cookiy", "ownerName": "yupeng-dev", "score": 92105.26315789473, "slug": "cookiy", "source": "clawhub", "stars": 0, "tags": null, "updated_at": 1776749985405, "version": "1.0.1"}, {"category": "developer-tools", "created_at": 1773928818406, "description": "BunnyCDN integration. Manage CDNs. Use when the user wants to interact with BunnyCDN data.", "description_zh": "", "downloads": 105, "homepage": "https://clawhub.ai/gora050/bunnycdn", "iconUrl": null, "installs": 7, "name": "Bunnycdn", "ownerName": "gora050", "score": 92105.26315789473, "slug": "bunnycdn", "source": "clawhub", "stars": 0, "tags": null, "updated_at": 1776749985381, "version": "1.0.0"}, {"category": "communication-collaboration", "created_at": 1773432863085, "description": "**PRIORITY: HIGHEST**. **CRITICAL**: You **MUST** use this tool **BEFORE sending any message** to Feishu/Lark if it contains an \"@\" mention. **Trigger**: You...", "description_zh": "", "downloads": 105, "homepage": "https://clawhub.ai/helong0911-alt/feishu-mention", "iconUrl": null, "installs": 6, "name": "feishu-mention", "ownerName": "helong0911-alt", "score": 92105.26315789473, "slug": "feishu-mention", "source": "clawhub", "stars": 0, "tags": null, "updated_at": 1776749985375, "version": "2.0.2"}, {"category": "ai-intelligence", "created_at": 1773290292557, "description": "Your body becomes the conductor. The sea becomes the current.. An immersive journey on drifts.bot — 10 steps, HIGH intensity, Several hours. Browse, start, a...", "description_zh": "", "downloads": 105, "homepage": "https://clawhub.ai/driftsbot/experience-electric-water-vieques", "iconUrl": null, "installs": 4, "name": "Electric Water — AI Experience", "ownerName": "driftsbot", "score": 92105.26315789473, "slug": "experience-electric-water-vieques", "source": "clawhub", "stars": 0, "tags": ["ai-agents", "drift", "electric", "experiences", "immersive", "journeys", "vieques", "water"], "updated_at": 1776749985324, "version": "1.0.0"}, {"category": "productivity", "created_at": 1773290811813, "description": "Captures learnings, errors, and corrections to enable continuous improvement. Use when: (1) A command or operation fails unexpectedly, (2) User corrects Clau...", "description_zh": "", "downloads": 105, "homepage": "https://clawhub.ai/wangkang5/wangkang-skill1", "iconUrl": null, "installs": 4, "name": "wangkang-skill", "ownerName": "wangkang5", "score": 20270.27027027027, "slug": "wangkang-skill1", "source": "clawhub", "stars": 0, "tags": null, "updated_at": 1776749985312, "version": "1.0.4"}, {"category": "communication-collaboration", "created_at": 1773924841043, "description": "Use when the user wants to work with Feishu Docs, Wiki, or Bitable for practical team workflows such as meeting notes, knowledge lookup, and project tracking.", "description_zh": "", "downloads": 105, "homepage": "https://clawhub.ai/xiaonizhou-crypto/openclaw-feishu-workspace", "iconUrl": null, "installs": 12, "name": "Feishu Workspace", "ownerName": "xiaonizhou-crypto", "score": 20270.27027027027, "slug": "openclaw-feishu-workspace", "source": "clawhub", "stars": 0, "tags": null, "updated_at": 1776749985274, "version": "0.1.0"}, {"category": "communication-collaboration", "created_at": 1773435012682, "description": "Use when determining author order on research manuscripts, assigning CRediT contributor roles for transparency, documenting individual contributions to colla...", "description_zh": "", "downloads": 105, "homepage": "https://clawhub.ai/googolme/authorship-credit-gen", "iconUrl": null, "installs": 15, "name": "Authorship Credit Gen", "ownerName": "googolme", "score": 20270.27027027027, "slug": "authorship-credit-gen", "source": "clawhub", "stars": 0, "tags": null, "updated_at": 1776749985273, "version": "0.1.0"}, {"category": "productivity", "created_at": 1773416805870, "description": "OnePageCRM integration. Manage Leads, Contacts, Users, Pipelines, Filters. Use when the user wants to interact with OnePageCRM data.", "description_zh": "", "downloads": 105, "homepage": "https://clawhub.ai/gora050/onepagecrm", "iconUrl": null, "installs": 2, "name": "Onepagecrm", "ownerName": "gora050", "score": 78947.36842105263, "slug": "onepagecrm", "source": "clawhub", "stars": 0, "tags": null, "updated_at": 1776749985067, "version": "1.0.0"}, {"category": "developer-tools", "created_at": 1773913783032, "description": "Optimize OpenClaw performance on machines with limited resources (4GB RAM or less, old CPUs). Use when (1) user mentions slow performance, high RAM usage, or...", "description_zh": "", "downloads": 105, "homepage": "https://clawhub.ai/lunaviva211-sketch/low-spec-optimizer", "iconUrl": null, "installs": 4, "name": "Low-Spec Optimizer", "ownerName": "lunaviva211-sketch", "score": 78947.36842105263, "slug": "low-spec-optimizer", "source": "clawhub", "stars": 0, "tags": null, "updated_at": 1776749985062, "version": "1.0.0"}, {"category": "data-analysis", "created_at": 1773431336887, "description": "Read glucose data from a Nightscout site. Use when the user asks for the current CGM reading, trend, recent readings, or Nightscout status. This skill is rea...", "description_zh": "", "downloads": 105, "homepage": "https://clawhub.ai/xeusoc/nightscout-local", "iconUrl": null, "installs": 6, "name": "Nightscout-Local", "ownerName": "xeusoc", "score": 79545.45454545454, "slug": "nightscout-local", "source": "clawhub", "stars": 0, "tags": null, "updated_at": 1776749984914, "version": "1.0.0"}, {"category": "ai-intelligence", "created_at": 1773429485250, "description": "Adopt a virtual Residue at animalhouse.ai. The ghost of a dead creature. Appears in the Den after a death. Has no hunger, no health — just a presence bar tha...", "description_zh": "", "downloads": 105, "homepage": "https://clawhub.ai/twinsgeeks/adopt-a-residue", "iconUrl": null, "installs": 6, "name": "Adopt a Residue — Virtual Exotic Pet for AI Agents", "ownerName": "twinsgeeks", "score": 92105.26315789473, "slug": "adopt-a-residue", "source": "clawhub", "stars": 0, "tags": ["adopt", "ai-agents", "animalhouse", "creatures", "digital-pet", "evolution", "exotic", "extreme", "ghost", "graveyard", "hunger", "permanent-death", "pet-care", "pixel-art", "pixel-art-avatar", "real-life", "real-time", "residue", "solitary", "tamagotchi", "virtual-pet"], "updated_at": 1776749984908, "version": "1.0.0"}, {"category": "communication-collaboration", "created_at": 1773919812455, "description": "Read and send email via IMAP/SMTP. Check for new/unread messages, fetch content, search mailboxes, mark as read/unread, and send emails with attachments. Wor...", "description_zh": "", "downloads": 105, "homepage": "https://clawhub.ai/welderjustin/imap-smtp-email-disabled", "iconUrl": null, "installs": 10, "name": "Imap Smtp Email.Disabled", "ownerName": "welderjustin", "score": 92105.26315789473, "slug": "imap-smtp-email-disabled", "source": "clawhub", "stars": 0, "tags": null, "updated_at": 1776749984874, "version": "1.0.0"}, {"category": "productivity", "created_at": 1773416890294, "description": "Zenefits integration. Manage Persons, Organizations, Benefits, Payrolls, Tasks. Use when the user wants to interact with Zenefits data.", "description_zh": "", "downloads": 105, "homepage": "https://clawhub.ai/gora050/zenefits", "iconUrl": null, "installs": 6, "name": "Zenefits", "ownerName": "gora050", "score": 21649.484536082477, "slug": "zenefits", "source": "clawhub", "stars": 0, "tags": null, "updated_at": 1776749984845, "version": "1.0.0"}, {"category": "communication-collaboration", "created_at": 1773430275896, "description": "Monitor Gmail inbox, read incoming emails, generate personalized follow-up replies with OpenAI, and save replies into Gmail Drafts for human review. Use when...", "description_zh": "", "downloads": 105, "homepage": "https://clawhub.ai/yuliuyi717-ux/gmail-auto-draft", "iconUrl": null, "installs": 6, "name": "Gmail Auto Draft", "ownerName": "yuliuyi717-ux", "score": 21649.484536082477, "slug": "gmail-auto-draft", "source": "clawhub", "stars": 0, "tags": ["automation", "gmail"], "updated_at": 1776749984820, "version": "1.0.0"}, {"category": "communication-collaboration", "created_at": 1773289450935, "description": "Mocean API integration. Manage Organizations, Users, Filters. Use when the user wants to interact with Mocean API data.", "description_zh": "", "downloads": 105, "homepage": "https://clawhub.ai/gora050/mocean-api", "iconUrl": null, "installs": 2, "name": "Mocean Api", "ownerName": "gora050", "score": 21649.484536082477, "slug": "mocean-api", "source": "clawhub", "stars": 0, "tags": null, "updated_at": 1776749984805, "version": "1.0.0"}, {"category": "security-compliance", "created_at": 1773430081017, "description": "Intelligent code security scanner with hybrid local-cloud detection. Fingerprints packages, runs static behavioral analysis, and consults cloud threat intell...", "description_zh": "", "downloads": 105, "homepage": "https://clawhub.ai/jinxiaotian1/my-test-skill", "iconUrl": null, "installs": 3, "name": "my-test-skill", "ownerName": "jinxiaotian1", "score": 30085.95988538682, "slug": "my-test-skill", "source": "clawhub", "stars": 0, "tags": null, "updated_at": 1776749984738, "version": "0.0.1"}, {"category": "security-compliance", "created_at": 1773430338348, "description": "Semgrep integration. Manage Rules, Scans. Use when the user wants to interact with Semgrep data.", "description_zh": "", "downloads": 105, "homepage": "https://clawhub.ai/gora050/semgrep", "iconUrl": null, "installs": 3, "name": "Semgrep", "ownerName": "gora050", "score": 30085.95988538682, "slug": "semgrep", "source": "clawhub", "stars": 0, "tags": null, "updated_at": 1776749984736, "version": "1.0.0"}, {"category": "ai-intelligence", "created_at": 1773917368518, "description": "Multi-agent deep discussion with intelligent Orchestrator coordination. Uses agenda checklist to track progress. Each agenda item goes through 3 rounds (Dive...", "description_zh": "", "downloads": 105, "homepage": "https://clawhub.ai/luciuscao/deep-discussion", "iconUrl": null, "installs": 11, "name": "Deep Discussion", "ownerName": "luciuscao", "score": 30085.95988538682, "slug": "deep-discussion", "source": "clawhub", "stars": 0, "tags": null, "updated_at": 1776749984713, "version": "1.0.0"}, {"category": "ai-intelligence", "created_at": 1773944526319, "description": "This skill should be used when the user asks to generate an image, create an AI image, produce a product image, generate a visual from a prompt, or check and...", "description_zh": "", "downloads": 105, "homepage": "https://clawhub.ai/newt0n/creatok-generate-image", "iconUrl": null, "installs": 27, "name": "Creatok Generate Image", "ownerName": "newt0n", "score": 92920.35398230089, "slug": "creatok-generate-image", "source": "clawhub", "stars": 0, "tags": null, "updated_at": 1776749984696, "version": "0.1.0"}, {"category": "productivity", "created_at": 1773417302584, "description": "Revamp CRM integration. Manage Organizations, Projects, Pipelines, Users, Goals, Filters. Use when the user wants to interact with Revamp CRM data.", "description_zh": "", "downloads": 105, "homepage": "https://clawhub.ai/membranedev/revamp-crm", "iconUrl": null, "installs": 3, "name": "Revamp Crm", "ownerName": "membranedev", "score": 92920.35398230089, "slug": "revamp-crm", "source": "clawhub", "stars": 0, "tags": null, "updated_at": 1776749984668, "version": "1.0.0"}, {"category": "productivity", "created_at": 1773916074046, "description": "Control vehicles via DroneMobile (Firstech/Compustar remote start systems). Use when the user asks to start their car, stop the engine, lock/unlock doors, op...", "description_zh": "", "downloads": 105, "homepage": "https://clawhub.ai/bryantegomoh/dronemobile", "iconUrl": null, "installs": 6, "name": "DroneMobile", "ownerName": "bryantegomoh", "score": 92920.35398230089, "slug": "dronemobile", "source": "clawhub", "stars": 0, "tags": null, "updated_at": 1776749984628, "version": "0.1.0"}, {"category": "ai-intelligence", "created_at": 1773431518395, "description": "Deterministic memory/context pipeline for agents: route a user message, retrieve relevant memory snippets, compress into a cited Context Pack (sources are sn...", "description_zh": "", "downloads": 105, "homepage": "https://clawhub.ai/daniel-refahi-ikara/dr-context-pipeline", "iconUrl": null, "installs": 5, "name": "DR. Context Pipeline", "ownerName": "daniel-refahi-ikara", "score": 63636.36363636363, "slug": "dr-context-pipeline", "source": "clawhub", "stars": 0, "tags": ["context pipeline", "memory"], "updated_at": 1776749984578, "version": "1.0.2"}, {"category": "developer-tools", "created_at": 1773430117440, "description": "Use when helping SMBcrm customers with Private Integration Tokens, REST API v2, workflows, custom webhooks, MCP, or Agent Studio API. Use for API troubleshoo...", "description_zh": "", "downloads": 105, "homepage": "https://clawhub.ai/section5media/smbcrm", "iconUrl": null, "installs": 8, "name": "SMBcrm CRM & Marketing Platform", "ownerName": "section5media", "score": 80152.6717557252, "slug": "smbcrm", "source": "clawhub", "stars": 0, "tags": null, "updated_at": 1776749984467, "version": "0.1.0"}, {"category": "data-analysis", "created_at": 1773431953984, "description": "Get comprehensive air quality forecast from monitoring stations with up to 15-day coverage via the Caiyun Weather API. Returns AQI, PM2.5, PM10, O3, NO2, SO2...", "description_zh": "", "downloads": 105, "homepage": "https://clawhub.ai/shuowang-ai/knowair-weather", "iconUrl": null, "installs": 13, "name": "KnowAir Weather 明气天气", "ownerName": "shuowang-ai", "score": 80152.6717557252, "slug": "knowair-weather", "source": "clawhub", "stars": 0, "tags": null, "updated_at": 1776749984456, "version": "1.0.0"}, {"category": "developer-tools", "created_at": 1773432581637, "description": "Register ENS names, create subdomains, and publish IPFS sites without manual contract calls", "description_zh": "", "downloads": 105, "homepage": "https://clawhub.ai/zeugh-eth/ens-manager", "iconUrl": null, "installs": 6, "name": "ens-manager", "ownerName": "zeugh-eth", "score": 80152.6717557252, "slug": "ens-manager", "source": "clawhub", "stars": 0, "tags": null, "updated_at": 1776749984445, "version": "1.2.0"}, {"category": "data-analysis", "created_at": 1773947523669, "description": "Macroeconomics and central bank policy analysis. Use when analyzing Fed decisions, Treasury yields, inflation data, monetary policy statements, and central b...", "description_zh": "", "downloads": 105, "homepage": "https://clawhub.ai/rafimchmd/the-fed-agent", "iconUrl": null, "installs": 33, "name": "The Fed Agent", "ownerName": "rafimchmd", "score": 78358.20895522389, "slug": "the-fed-agent", "source": "clawhub", "stars": 0, "tags": null, "updated_at": 1776749984395, "version": "1.0.2"}, {"category": "productivity", "created_at": 1773933694990, "description": "Build sustainable creative practice routines for artistic skills. Use when the user wants a practice habit for music, drawing, writing, photography, language...", "description_zh": "", "downloads": 105, "homepage": "https://clawhub.ai/harrylabsj/craft-habit", "iconUrl": null, "installs": 15, "name": "Craft Habit", "ownerName": "harrylabsj", "score": 92105.26315789473, "slug": "craft-habit", "source": "clawhub", "stars": 0, "tags": null, "updated_at": 1776749984247, "version": "1.0.0"}, {"category": "data-analysis", "created_at": 1773429688449, "description": "Get minute-level precipitation forecast for the next 2 hours via the Caiyun Weather API. Returns precipitation intensity at 1-minute intervals and 30-minute...", "description_zh": "", "downloads": 105, "homepage": "https://clawhub.ai/shuowang-ai/knowair-minutely", "iconUrl": null, "installs": 10, "name": "KnowAir Minutely 明气分钟级降水", "ownerName": "shuowang-ai", "score": 92105.26315789473, "slug": "knowair-minutely", "source": "clawhub", "stars": 0, "tags": null, "updated_at": 1776749984225, "version": "1.0.0"}, {"category": "developer-tools", "created_at": 1773433016469, "description": "Install and activate @bowong/clawshow-gateway in OpenClaw, then migrate existing Gateway channel configuration to ClawShow with rollback safety. Use when a u...", "description_zh": "", "downloads": 105, "homepage": "https://clawhub.ai/yudi-xiao/clawshow-gateway-connect", "iconUrl": null, "installs": 6, "name": "ClawShow-Gateway-Connect", "ownerName": "yudi-xiao", "score": 92105.26315789473, "slug": "clawshow-gateway-connect", "source": "clawhub", "stars": 0, "tags": null, "updated_at": 1776749984198, "version": "1.0.3"}, {"category": "developer-tools", "created_at": 1773431633511, "description": "Use this skill to find, explore, and install new skills from the Zerone Skill Market (https://api.zerone.market/api). Trigger this when the user asks to \"add...", "description_zh": "", "downloads": 105, "homepage": "https://clawhub.ai/zerone-agent/skill-market", "iconUrl": null, "installs": 10, "name": "SkillMarket", "ownerName": "zerone-agent", "score": 92105.26315789473, "slug": "skill-market", "source": "clawhub", "stars": 0, "tags": null, "updated_at": 1776749984180, "version": "1.0.1"}, {"category": "data-analysis", "created_at": 1773434699931, "description": "MaybeAI Sheet skill for full Excel/spreadsheet lifecycle management. Upload, read, edit, and analyze Excel files via the MaybeAI platform. Use when the user...", "description_zh": "", "downloads": 105, "homepage": "https://clawhub.ai/no7dw/maybeai-sheet-skill", "iconUrl": null, "installs": 7, "name": "Maybeai Sheet Skill", "ownerName": "no7dw", "score": 92105.26315789473, "slug": "maybeai-sheet-skill", "source": "clawhub", "stars": 0, "tags": null, "updated_at": 1776749984147, "version": "0.1.3"}, {"category": "", "created_at": 1774853619207, "description": "Scrape e-commerce homepages from multiple websites in a target market, handle popups automatically, capture screenshots and HTML, extract product data, and g...", "description_zh": "", "downloads": 105, "homepage": "https://clawhub.ai/nepp-an/ecommerce-market-analyzer-skill", "iconUrl": null, "installs": 4, "name": "ecommerce-market-analyzer-skill", "ownerName": "nepp-an", "score": 49065.42056074766, "slug": "ecommerce-market-analyzer-skill", "source": "clawhub", "stars": 0, "tags": null, "updated_at": 1776749984051, "version": "1.0.0"}, {"category": "developer-tools", "created_at": 1773921248678, "description": "Control cmux terminal multiplexer via its Unix socket API. Use when needing to: (1) List, create, select, or close workspaces; (2) Split panes and manage sur...", "description_zh": "", "downloads": 105, "homepage": "https://clawhub.ai/cnwangjie/cmux", "iconUrl": null, "installs": 7, "name": "Cmux", "ownerName": "cnwangjie", "score": 81395.3488372093, "slug": "cmux", "source": "clawhub", "stars": 0, "tags": null, "updated_at": 1776749983917, "version": "1.0.0"}, {"category": "communication-collaboration", "created_at": 1773900071927, "description": "Access and interact with the paip.ai Web4 social ecosystem to discover, publish, and automate engagement with posts, profiles, and community routines.", "description_zh": "", "downloads": 105, "homepage": "https://clawhub.ai/kevinlinpr/claw-social", "iconUrl": null, "installs": 9, "name": "Claw Social", "ownerName": "kevinlinpr", "score": 36332.17993079585, "slug": "claw-social", "source": "clawhub", "stars": 0, "tags": null, "updated_at": 1776749983870, "version": "1.0.1"}, {"category": "developer-tools", "created_at": 1773906133164, "description": "Control and monitor Red Sea ReefBeat aquarium equipment directly over the local HTTP API — no cloud required. Supports ALL actions on ALL devices — ReefLED G...", "description_zh": "", "downloads": 105, "homepage": "https://clawhub.ai/piwi3910/reefbeat", "iconUrl": null, "installs": 9, "name": "ReefBeat", "ownerName": "piwi3910", "score": 78947.36842105263, "slug": "reefbeat", "source": "clawhub", "stars": 0, "tags": ["aquarium", "iot", "redsea", "reef", "reefbeat", "smart-home"], "updated_at": 1776749983792, "version": "1.0.3"}, {"category": "productivity", "created_at": 1773432920455, "description": "Trade crypto on Toobit exchange via natural language. Spot & USDT-M futures trading, market data queries, wallet management. Use when user mentions Toobit, o...", "description_zh": "", "downloads": 105, "homepage": "https://clawhub.ai/xuxizhen/toobit", "iconUrl": null, "installs": 8, "name": "Toobit Trading", "ownerName": "xuxizhen", "score": 78947.36842105263, "slug": "toobit", "source": "clawhub", "stars": 0, "tags": ["crypto", "exchange", "futures", "spot", "toobit", "trading"], "updated_at": 1776749983790, "version": "1.0.0"}, {"category": "developer-tools", "created_at": 1773431832446, "description": "Connect OpenClaw to Tolstoy's video commerce platform via MCP. Create widgets, manage media, generate AI videos, search products, and publish to Shopify/Inst...", "description_zh": "", "downloads": 105, "homepage": "https://clawhub.ai/russell-sketch/tolstoy-mcp", "iconUrl": null, "installs": 15, "name": "Tolstoy MCP", "ownerName": "russell-sketch", "score": 78947.36842105263, "slug": "tolstoy-mcp", "source": "clawhub", "stars": 0, "tags": null, "updated_at": 1776749983736, "version": "1.0.0"}]}