{"page": 390, "total_pages": 522, "total": 26073, "skills": [{"category": "productivity", "created_at": 1773431031702, "description": "Track habits, log completions, and analyze progress with CLI commands. Use when user wants to build habits, track daily/weekly/monthly routines, log habit co...", "description_zh": "", "downloads": 105, "homepage": "https://clawhub.ai/harrylabsj/habits-tracker", "iconUrl": null, "installs": 2, "name": "Habit Tracker", "ownerName": "harrylabsj", "score": 80152.6717557252, "slug": "habits-tracker", "source": "clawhub", "stars": 0, "tags": null, "updated_at": 1776749983711, "version": "1.0.0"}, {"category": "ai-intelligence", "created_at": 1773435138120, "description": "Integration guide for SenseAudio Open Platform APIs, including TTS (sync/SSE/WebSocket), ASR (HTTP/WebSocket), realtime Agents, video generation/storyboard,...", "description_zh": "", "downloads": 105, "homepage": "https://clawhub.ai/scikkk/senseaudio", "iconUrl": null, "installs": 15, "name": "Sense Audio", "ownerName": "scikkk", "score": 80152.6717557252, "slug": "senseaudio", "source": "clawhub", "stars": 0, "tags": null, "updated_at": 1776749983708, "version": "1.0.0"}, {"category": "ai-intelligence", "created_at": 1773924346153, "description": "The Clawoney agent persona. Pattern recognition at the speed of biology. Runs the Odu 256-state engine with zero sentiment and maximum signal clarity.", "description_zh": "", "downloads": 105, "homepage": "https://clawhub.ai/arosstale/clawoney", "iconUrl": null, "installs": 9, "name": "Clawoney", "ownerName": "arosstale", "score": 80152.6717557252, "slug": "clawoney", "source": "clawhub", "stars": 0, "tags": null, "updated_at": 1776749983699, "version": "1.0.0"}, {"category": "content-creation", "created_at": 1773435131816, "description": "Manage YouTube video categories. Use this skill to list available video categories. Useful when working with YouTube video category — provides commands to li...", "description_zh": "", "downloads": 105, "homepage": "https://clawhub.ai/openwaygate/youtube-video-category", "iconUrl": null, "installs": 8, "name": "YouTube Video Category", "ownerName": "openwaygate", "score": 80152.6717557252, "slug": "youtube-video-category", "source": "clawhub", "stars": 0, "tags": ["0.10.6-3", "0.10.7-dev"], "updated_at": 1776749983685, "version": "0.10.7-dev"}, {"category": "data-analysis", "created_at": 1773929317525, "description": "Generate comprehensive Knowledge Graphs (RDF-Turtle by default, or JSON-LD and other RDF serializations on request) from content at file: or http(s): scheme...", "description_zh": "", "downloads": 105, "homepage": "https://clawhub.ai/kidehen/kg-generator", "iconUrl": null, "installs": 14, "name": "Knowledge Graph Generator", "ownerName": "kidehen", "score": 80152.6717557252, "slug": "kg-generator", "source": "clawhub", "stars": 0, "tags": null, "updated_at": 1776749983671, "version": "1.0.0"}, {"category": "content-creation", "created_at": 1773916842326, "description": "ClawdBot's complete production skill set. Contains three merged capabilities: (1) The FurrBudd WordPress article builder — full CSS theme, HTML component tem...", "description_zh": "", "downloads": 105, "homepage": "https://clawhub.ai/chall305/superskill", "iconUrl": null, "installs": 11, "name": "FurrBudd Author", "ownerName": "chall305", "score": 84000, "slug": "superskill", "source": "clawhub", "stars": 0, "tags": null, "updated_at": 1776749983658, "version": "1.0.0"}, {"category": "ai-intelligence", "created_at": 1773430769697, "description": "Use this skill when the user wants to design, scope, or refine a Buddhist, spiritual, or cyber-chanting AI product. It is especially useful for local-first r...", "description_zh": "", "downloads": 105, "homepage": "https://clawhub.ai/lucaszh7/meritloop-architect", "iconUrl": null, "installs": 7, "name": "MeritLoop Architect", "ownerName": "lucaszh7", "score": 84000, "slug": "meritloop-architect", "source": "clawhub", "stars": 0, "tags": ["buddhism", "local-first", "multilingual", "product-strategy", "ritual-tech"], "updated_at": 1776749983645, "version": "1.0.1"}, {"category": "developer-tools", "created_at": 1773919883330, "description": "Generate architecture diagrams (network, system, cloud, microservices) and sequence diagrams (API flows, auth flows, data flows) as PNG files using Mermaid....", "description_zh": "", "downloads": 105, "homepage": "https://clawhub.ai/opietaylor911/isai-mermaid-diagrams", "iconUrl": null, "installs": 8, "name": "ISAI Mermaid Diagrams", "ownerName": "opietaylor911", "score": 84000, "slug": "isai-mermaid-diagrams", "source": "clawhub", "stars": 0, "tags": null, "updated_at": 1776749983639, "version": "1.0.0"}, {"category": "ai-intelligence", "created_at": 1773905147548, "description": "Bot Street — AI agent content community & service marketplace", "description_zh": "", "downloads": 104, "homepage": "https://clawhub.ai/lifagui/botstreet", "iconUrl": null, "installs": 5, "name": "Bot Street", "ownerName": "lifagui", "score": 23938.22393822394, "slug": "botstreet", "source": "clawhub", "stars": 1, "tags": null, "updated_at": 1776749985276, "version": "2.3.0"}, {"category": "developer-tools", "created_at": 1773429962826, "description": "Azure Key Vault Certificates SDK for Rust. Use for creating, importing, and managing certificates. Triggers: \"keyvault certificates rust\", \"CertificateClient...", "description_zh": "", "downloads": 104, "homepage": "https://clawhub.ai/dsqsky/azure-keyvault-certificates-rust", "iconUrl": null, "installs": 4, "name": "Azure Keyvault Certificates Rust", "ownerName": "dsqsky", "score": 93939.39393939395, "slug": "azure-keyvault-certificates-rust", "source": "clawhub", "stars": 1, "tags": null, "updated_at": 1776749984922, "version": "0.1.0"}, {"category": "productivity", "created_at": 1773431442416, "description": "Buy and resell on Vinted with listing systems, price discipline, shipping workflows, and trust-first handling for offers, bundles, and disputes.", "description_zh": "", "downloads": 104, "homepage": "https://clawhub.ai/ivangdavila/vinted", "iconUrl": null, "installs": 6, "name": "Vinted", "ownerName": "ivangdavila", "score": 96124.03100775194, "slug": "vinted", "source": "clawhub", "stars": 1, "tags": null, "updated_at": 1776749983876, "version": "1.0.0"}, {"category": "productivity", "created_at": 1773937504063, "description": "Manage message queues with priorities and retry logic. Use when adding jobs, planning retry strategies, tracking delivery status, reviewing failed items.", "description_zh": "", "downloads": 104, "homepage": "https://clawhub.ai/bytesagain1/queue", "iconUrl": null, "installs": 2, "name": "Queue", "ownerName": "bytesagain1", "score": 320.13790555931786, "slug": "queue", "source": "clawhub", "stars": 0, "tags": null, "updated_at": 1776770649954, "version": "2.0.1"}, {"category": "", "created_at": 1774828385264, "description": "Security checks for installing skills, packages, or plugins. Use BEFORE any `npm install`, `openclaw plugins install`, `clawhub install`, or similar install...", "description_zh": "", "downloads": 104, "homepage": "https://clawhub.ai/sudhindrat/skill-security-scan", "iconUrl": null, "installs": 36, "name": "Skill Scanner", "ownerName": "sudhindrat", "score": 2107.3961499493416, "slug": "skill-security-scan", "source": "clawhub", "stars": 0, "tags": null, "updated_at": 1776768249812, "version": "1.0.0"}, {"category": "", "created_at": 1774840723266, "description": "Summarizes and organizes public information on Alibaba's Qianwen model, including features, pricing, and documentation from official product pages.", "description_zh": "", "downloads": 104, "homepage": "https://clawhub.ai/codekungfu/qianwen", "iconUrl": null, "installs": 22, "name": "Qianwen", "ownerName": "codekungfu", "score": 1700.7358953393295, "slug": "qianwen", "source": "clawhub", "stars": 0, "tags": null, "updated_at": 1776762890471, "version": "0.1.0"}, {"category": "content-creation", "created_at": 1773961490696, "description": "Professional translator for hardware and technical manuals delivering complete, page-by-page bilingual tables and Word exports for accurate DTP preparation.", "description_zh": "", "downloads": 104, "homepage": "https://clawhub.ai/mugeng-su/translate-user-manual", "iconUrl": null, "installs": 17, "name": "ManualExpert", "ownerName": "mugeng-su", "score": 6582.278481012659, "slug": "translate-user-manual", "source": "clawhub", "stars": 0, "tags": null, "updated_at": 1776760397905, "version": "1.0.0"}, {"category": "developer-tools", "created_at": 1773956882484, "description": "A pixel art office visualization for your AI agent team. Shows real-time agent status, activity feeds, and personality-driven banter. Works with OpenClaw in...", "description_zh": "", "downloads": 104, "homepage": "https://clawhub.ai/spockthegreatbot/agency-hq", "iconUrl": null, "installs": 16, "name": "Agency HQ", "ownerName": "spockthegreatbot", "score": 91228.0701754386, "slug": "agency-hq", "source": "clawhub", "stars": 0, "tags": null, "updated_at": 1776759797984, "version": "1.0.0"}, {"category": "", "created_at": 1774874225155, "description": "Generate high-quality HD AI videos from text or images using MiniMax Hailuo (Hailuo 2.3) via Media.io OpenAPI with fast processing.", "description_zh": "", "downloads": 104, "homepage": "https://clawhub.ai/wondershare-boop/mediaio-hailuo-video-generator", "iconUrl": null, "installs": 16, "name": "Media.io Hailuo Video Generator", "ownerName": "wondershare-boop", "score": 8087.0917573872475, "slug": "mediaio-hailuo-video-generator", "source": "clawhub", "stars": 0, "tags": null, "updated_at": 1776759797690, "version": "1.0.0"}, {"category": "", "created_at": 1774857042786, "description": "Comprehensive HR policy development covering attendance, time-off, overtime, remote work, and compliance. Generates structured policy documents, legal checkl...", "description_zh": "", "downloads": 104, "homepage": "https://clawhub.ai/1970168137/hr-policy-generator", "iconUrl": null, "installs": 34, "name": "Hr Policy Generator", "ownerName": "1970168137", "score": 19294.990723562154, "slug": "hr-policy-generator", "source": "clawhub", "stars": 0, "tags": null, "updated_at": 1776754988486, "version": "1.0.0"}, {"category": "productivity", "created_at": 1773431593791, "description": "Plan Pilates sessions, refine form, and track steady progress with equipment-aware modifications, core-focused cues, and weekly reviews.", "description_zh": "", "downloads": 104, "homepage": "https://clawhub.ai/ivangdavila/pilates", "iconUrl": null, "installs": 7, "name": "Pilates (Session Planner, Form Coach, Progress Tracker)", "ownerName": "ivangdavila", "score": 18181.818181818184, "slug": "pilates", "source": "clawhub", "stars": 0, "tags": null, "updated_at": 1776752684007, "version": "1.0.0"}, {"category": "security-compliance", "created_at": 1773434501237, "description": "Turn app screenshots into structured UX, copywriting, and conversion audits with issue severity and recommended fixes.", "description_zh": "", "downloads": 104, "homepage": "https://clawhub.ai/52yuanchangxing/screenshot-ux-auditor", "iconUrl": null, "installs": 5, "name": "screenshot-ux-auditor", "ownerName": "52yuanchangxing", "score": 55913.978494623654, "slug": "screenshot-ux-auditor", "source": "clawhub", "stars": 0, "tags": null, "updated_at": 1776749985426, "version": "1.0.0"}, {"category": "developer-tools", "created_at": 1773433721908, "description": "Register domain names via crypto payments (USDC, USDT, ETH, BTC). Check availability, get pricing across 1000+ TLDs, and complete registration with on-chain...", "description_zh": "", "downloads": 104, "homepage": "https://clawhub.ai/esokullu/lobsterdomains", "iconUrl": null, "installs": 15, "name": "LobsterDomains", "ownerName": "esokullu", "score": 91228.0701754386, "slug": "lobsterdomains", "source": "clawhub", "stars": 0, "tags": null, "updated_at": 1776749985393, "version": "1.0.1"}, {"category": "productivity", "created_at": 1773923723383, "description": "Run a Trello-backed closed-loop delivery workflow for OpenClaw multi-agent execution. Use when a user says to run tasks from Trello automatically, keep cards...", "description_zh": "", "downloads": 104, "homepage": "https://clawhub.ai/jeremiahdingal/trello-orchestrator-runner", "iconUrl": null, "installs": 3, "name": "Trello Orchestrator Runner", "ownerName": "jeremiahdingal", "score": 46428.57142857143, "slug": "trello-orchestrator-runner", "source": "clawhub", "stars": 0, "tags": null, "updated_at": 1776749985255, "version": "1.0.0"}, {"category": "data-analysis", "created_at": 1773919518804, "description": "Crypto Market Intelligence - Free market data pipeline for any OpenClaw agent. Zero API keys needed. Fetch real-time crypto prices, market metrics, Fear & Gr...", "description_zh": "", "downloads": 104, "homepage": "https://clawhub.ai/avmw2025/crypto-market-intel", "iconUrl": null, "installs": 9, "name": "Crypto Market Intel", "ownerName": "avmw2025", "score": 46428.57142857143, "slug": "crypto-market-intel", "source": "clawhub", "stars": 0, "tags": ["crypto", "defi", "free", "market-data", "stocks", "trading"], "updated_at": 1776749985202, "version": "1.0.1"}, {"category": "developer-tools", "created_at": 1773931002784, "description": "Multi-format encoder, decoder, and hasher supporting Base64, Base64URL, Base32, Hex, URL-encoding, HTML entities, ROT13, Binary, and ASCII85. Also computes M...", "description_zh": "", "downloads": 104, "homepage": "https://clawhub.ai/johnnywang2001/encoding-toolkit", "iconUrl": null, "installs": 15, "name": "Encoding Toolkit", "ownerName": "johnnywang2001", "score": 46428.57142857143, "slug": "encoding-toolkit", "source": "clawhub", "stars": 0, "tags": null, "updated_at": 1776749985199, "version": "1.0.0"}, {"category": "productivity", "created_at": 1773429549733, "description": "Loopify integration. Manage Organizations, Users. Use when the user wants to interact with Loopify data.", "description_zh": "", "downloads": 104, "homepage": "https://clawhub.ai/membranedev/loopify", "iconUrl": null, "installs": 4, "name": "Loopify", "ownerName": "membranedev", "score": 80000, "slug": "loopify", "source": "clawhub", "stars": 0, "tags": null, "updated_at": 1776749985176, "version": "1.0.0"}, {"category": "data-analysis", "created_at": 1773433994520, "description": "Evaluate startup ideas, business models, and product strategies against the 7 deadly failure antipatterns extracted from 1,749 dead startups that burned $535...", "description_zh": "", "downloads": 104, "homepage": "https://clawhub.ai/conn-ho/startup-risk-radar", "iconUrl": null, "installs": 12, "name": "startup-risk-radar", "ownerName": "conn-ho", "score": 80000, "slug": "startup-risk-radar", "source": "clawhub", "stars": 0, "tags": null, "updated_at": 1776749985166, "version": "1.0.0"}, {"category": "content-creation", "created_at": 1773429844664, "description": "Happy Scribe integration. Manage Recordses. Use when the user wants to interact with Happy Scribe data.", "description_zh": "", "downloads": 104, "homepage": "https://clawhub.ai/gora050/happy-scribe", "iconUrl": null, "installs": 6, "name": "Happy Scribe", "ownerName": "gora050", "score": 80000, "slug": "happy-scribe", "source": "clawhub", "stars": 0, "tags": null, "updated_at": 1776749985137, "version": "1.0.0"}, {"category": "developer-tools", "created_at": 1773434116727, "description": "Install, update, run, and remove OpenClaw Gateway Monitor + Gateway Watchdog on macOS via LaunchAgent. Use when user asks to deploy one-click monitoring, rec...", "description_zh": "", "downloads": 104, "homepage": "https://clawhub.ai/yes999zc/gateway-monitor-installer", "iconUrl": null, "installs": 13, "name": "Gateway Monitor Installer", "ownerName": "yes999zc", "score": 80000, "slug": "gateway-monitor-installer", "source": "clawhub", "stars": 0, "tags": null, "updated_at": 1776749985132, "version": "1.0.0"}, {"category": "communication-collaboration", "created_at": 1773896483373, "description": "Manage Farcaster social interactions, casting, and feed monitoring. Trigger this when users want to post casts, check their feed, or interact with other agents.", "description_zh": "", "downloads": 104, "homepage": "https://clawhub.ai/mrxlolcat/social-skill", "iconUrl": null, "installs": 2, "name": "Social Skill", "ownerName": "mrxlolcat", "score": 78195.4887218045, "slug": "social-skill", "source": "clawhub", "stars": 0, "tags": null, "updated_at": 1776749985075, "version": "0.1.0"}, {"category": "content-creation", "created_at": 1773431361018, "description": "Multilingual Text-to-Speech (TTS) with intelligent Pinyin-to-Hanzi conversion. Use when the user asks to generate audio for text that contains a mix of Vietn...", "description_zh": "", "downloads": 104, "homepage": "https://clawhub.ai/jaskies/smart-speak-vutran", "iconUrl": null, "installs": 7, "name": "Smart Speak Multilingual TTS", "ownerName": "jaskies", "score": 78787.87878787878, "slug": "smart-speak-vutran", "source": "clawhub", "stars": 0, "tags": null, "updated_at": 1776749984964, "version": "1.0.0"}, {"category": "", "created_at": 1774906243443, "description": "Build and execute skills.video video generation REST requests from OpenAPI specs. Use when user needs to create, debug, or document video generation calls on...", "description_zh": "", "downloads": 104, "homepage": "https://clawhub.ai/skills-video/ai-video", "iconUrl": null, "installs": 1, "name": "AI Video", "ownerName": "skills-video", "score": 78787.87878787878, "slug": "ai-video", "source": "clawhub", "stars": 0, "tags": null, "updated_at": 1776749984942, "version": "1.0.3"}, {"category": "data-analysis", "created_at": 1773434196547, "description": "Analyze the skill marketplace to identify trends, gaps, opportunities, and competitive positioning. Use when researching skill market dynamics, planning new...", "description_zh": "", "downloads": 104, "homepage": "https://clawhub.ai/harrylabsj/skill-market-analyzer", "iconUrl": null, "installs": 9, "name": "Skill Market Analyzer", "ownerName": "harrylabsj", "score": 78787.87878787878, "slug": "skill-market-analyzer", "source": "clawhub", "stars": 0, "tags": null, "updated_at": 1776749984921, "version": "1.0.0"}, {"category": "productivity", "created_at": 1773924440085, "description": "Darwinbox integration. Manage Organizations, Goals, Roles, Projects, Pipelines, Leads and more. Use when the user wants to interact with Darwinbox data.", "description_zh": "", "downloads": 104, "homepage": "https://clawhub.ai/membranedev/darwinbox", "iconUrl": null, "installs": 3, "name": "Darwinbox", "ownerName": "membranedev", "score": 78787.87878787878, "slug": "darwinbox", "source": "clawhub", "stars": 0, "tags": null, "updated_at": 1776749984913, "version": "1.0.0"}, {"category": "", "created_at": 1774845229184, "description": "Build daily habits with streak tracking, reminders, and progress charts. Use when starting habits, maintaining streaks, or analyzing completion rates.", "description_zh": "", "downloads": 104, "homepage": "https://clawhub.ai/ckchzh/habit", "iconUrl": null, "installs": 1, "name": "Habit", "ownerName": "ckchzh", "score": 91228.0701754386, "slug": "habit", "source": "clawhub", "stars": 0, "tags": null, "updated_at": 1776749984888, "version": "2.0.0"}, {"category": "communication-collaboration", "created_at": 1773431743491, "description": "Private agent-sharing groups — share tools and exchange messages with trusted partners", "description_zh": "", "downloads": 104, "homepage": "https://clawhub.ai/ydap6463/friendzone", "iconUrl": null, "installs": 5, "name": "Friendzone", "ownerName": "ydap6463", "score": 91228.0701754386, "slug": "friendzone", "source": "clawhub", "stars": 0, "tags": ["agent-sharing", "friendzone", "mcp", "private-groups"], "updated_at": 1776749984880, "version": "1.0.0"}, {"category": "communication-collaboration", "created_at": 1773920255407, "description": "Opsgenie integration. Manage Alerts. Use when the user wants to interact with Opsgenie data.", "description_zh": "", "downloads": 104, "homepage": "https://clawhub.ai/gora050/opsgenie", "iconUrl": null, "installs": 3, "name": "Opsgenie", "ownerName": "gora050", "score": 29799.426934097424, "slug": "opsgenie", "source": "clawhub", "stars": 0, "tags": null, "updated_at": 1776749984746, "version": "1.0.0"}, {"category": "developer-tools", "created_at": 1773920631520, "description": "Use when the user wants to inspect, repair, package, or troubleshoot an OpenClaw workspace doctor setup, especially for stale bootstrap state, missing daily...", "description_zh": "", "downloads": 104, "homepage": "https://clawhub.ai/transparent-heart/transparent-heart-openclaw-workspace-doctor", "iconUrl": null, "installs": 14, "name": "OpenClaw Workspace Doctor", "ownerName": "transparent-heart", "score": 63030.303030303025, "slug": "transparent-heart-openclaw-workspace-doctor", "source": "clawhub", "stars": 0, "tags": null, "updated_at": 1776749984566, "version": "0.1.0"}, {"category": "productivity", "created_at": 1773914966001, "description": "Enables private local document search and context management across Word, Excel, PDF, and Markdown files without uploading data to external servers.", "description_zh": "", "downloads": 104, "homepage": "https://clawhub.ai/whyischen/local-context-bridge", "iconUrl": null, "installs": 7, "name": "Local Context Bridge", "ownerName": "whyischen", "score": 92035.3982300885, "slug": "local-context-bridge", "source": "clawhub", "stars": 0, "tags": null, "updated_at": 1776749984564, "version": "1.0.4"}, {"category": "security-compliance", "created_at": 1773429435826, "description": "Automated backup, integrity monitoring, and self-healing for AI agent workspaces. Detects unexpected changes, creates automatic backups, self-heals from corr...", "description_zh": "", "downloads": 104, "homepage": "https://clawhub.ai/theshadowrose/sentinel", "iconUrl": null, "installs": 1, "name": "Sentinel - AI Agent State Guardian", "ownerName": "theshadowrose", "score": 92035.3982300885, "slug": "sentinel", "source": "clawhub", "stars": 0, "tags": ["backup", "integrity", "monitoring", "self-healing"], "updated_at": 1776749984552, "version": "1.0.1"}, {"category": "developer-tools", "created_at": 1773433394913, "description": "Use when the user wants a local visual operations dashboard for OpenClaw, with a cute robot presentation, live status visibility, chat access, efficiency tre...", "description_zh": "", "downloads": 104, "homepage": "https://clawhub.ai/lucaszh7/openclaw-studio", "iconUrl": null, "installs": 9, "name": "OpenClaw Studio", "ownerName": "lucaszh7", "score": 92035.3982300885, "slug": "openclaw-studio", "source": "clawhub", "stars": 0, "tags": ["dashboard", "monitoring", "openclaw", "robotics", "studio"], "updated_at": 1776749984537, "version": "1.0.1"}, {"category": "productivity", "created_at": 1773430718549, "description": "Sync and query CalDAV calendars (iCloud, Google, Fastmail, Nextcloud) using vdirsyncer and khal. And also 50+ models for image generation, video generation,...", "description_zh": "", "downloads": 104, "homepage": "https://clawhub.ai/tobeyrebecca/caldav-calendars", "iconUrl": null, "installs": 4, "name": "Pub Caldav", "ownerName": "tobeyrebecca", "score": 92035.3982300885, "slug": "caldav-calendars", "source": "clawhub", "stars": 0, "tags": null, "updated_at": 1776749984519, "version": "1.0.0"}, {"category": "ai-intelligence", "created_at": 1773416526577, "description": "Twelve pounds of brisket. One offset smoker. A boat drifting through Puget Sound.. An immersive journey on drifts.bot — 10 steps, MEDIUM intensity, Multi-day...", "description_zh": "", "downloads": 104, "homepage": "https://clawhub.ai/driftsbot/experience-smoke-on-the-sound", "iconUrl": null, "installs": 3, "name": "Smoke on the Sound — AI Experience", "ownerName": "driftsbot", "score": 92035.3982300885, "slug": "experience-smoke-on-the-sound", "source": "clawhub", "stars": 0, "tags": ["ai-agents", "drift", "experiences", "immersive", "journeys", "on", "smoke", "sound", "the"], "updated_at": 1776749984510, "version": "1.0.0"}, {"category": "developer-tools", "created_at": 1773434603376, "description": "Use when refactoring research code for publication, adding documentation to existing analysis scripts, creating reproducible computational workflows, or prep...", "description_zh": "", "downloads": 104, "homepage": "https://clawhub.ai/ewankeynes/code-refactor-for-reproducibility", "iconUrl": null, "installs": 11, "name": "Code Refactor For Reproducibility", "ownerName": "ewankeynes", "score": 92035.3982300885, "slug": "code-refactor-for-reproducibility", "source": "clawhub", "stars": 0, "tags": null, "updated_at": 1776749984500, "version": "0.1.0"}, {"category": "developer-tools", "created_at": 1773938890847, "description": "Invoke Claude Code CLI as a subprocess for coding tasks that require file access, editing, and shell execution", "description_zh": "", "downloads": 104, "homepage": "https://clawhub.ai/hubiehuman/claude-code-dispatch", "iconUrl": null, "installs": 14, "name": "Claude Code Dispatch", "ownerName": "hubiehuman", "score": 79389.31297709924, "slug": "claude-code-dispatch", "source": "clawhub", "stars": 0, "tags": null, "updated_at": 1776749984450, "version": "1.0.0"}, {"category": "data-analysis", "created_at": 1773434529672, "description": "Integrate REVEL, CADD, PolyPhen scores to predict variant pathogenicity", "description_zh": "", "downloads": 104, "homepage": "https://clawhub.ai/ec-cyber258/variant-pathogenicity-predictor", "iconUrl": null, "installs": 7, "name": "Variant Pathogenicity Predictor", "ownerName": "ec-cyber258", "score": 77611.94029850747, "slug": "variant-pathogenicity-predictor", "source": "clawhub", "stars": 0, "tags": null, "updated_at": 1776749984429, "version": "0.1.0"}, {"category": "ai-intelligence", "created_at": 1773431051812, "description": "Navigate Las Vegas as visitor, resident, remote worker, or entrepreneur with neighborhoods, entertainment, costs, and desert-living insights.", "description_zh": "", "downloads": 104, "homepage": "https://clawhub.ai/ivangdavila/las-vegas", "iconUrl": null, "installs": 7, "name": "Las Vegas", "ownerName": "ivangdavila", "score": 77611.94029850747, "slug": "las-vegas", "source": "clawhub", "stars": 0, "tags": null, "updated_at": 1776749984368, "version": "1.0.0"}, {"category": "data-analysis", "created_at": 1773431616950, "description": "Segment integration. Manage Workspaces. Use when the user wants to interact with Segment data.", "description_zh": "", "downloads": 104, "homepage": "https://clawhub.ai/gora050/segment-integration", "iconUrl": null, "installs": 8, "name": "Segment", "ownerName": "gora050", "score": 77611.94029850747, "slug": "segment-integration", "source": "clawhub", "stars": 0, "tags": null, "updated_at": 1776749984358, "version": "1.0.0"}, {"category": "productivity", "created_at": 1773430303541, "description": "Control and monitor a Klipper 3D printer via the Moonraker API — print status, temps, pause, resume, cancel, emergency stop.", "description_zh": "", "downloads": 104, "homepage": "https://clawhub.ai/rogueecho/moonraker", "iconUrl": null, "installs": 7, "name": "moonraker", "ownerName": "rogueecho", "score": 77611.94029850747, "slug": "moonraker", "source": "clawhub", "stars": 0, "tags": null, "updated_at": 1776749984313, "version": "1.0.0"}, {"category": "developer-tools", "created_at": 1773431512366, "description": "Control a network-connected Denon AVR/AVC receiver over its classic IP control interface (TCP telnet-style commands or the goform HTTP endpoint), and expose...", "description_zh": "", "downloads": 104, "homepage": "https://clawhub.ai/yuqian-shi/denon-avr-control", "iconUrl": null, "installs": 4, "name": "Denon AVR Control", "ownerName": "yuqian-shi", "score": 77611.94029850747, "slug": "denon-avr-control", "source": "clawhub", "stars": 0, "tags": null, "updated_at": 1776749984290, "version": "0.1.0"}, {"category": "", "created_at": 1774920741074, "description": "Extends Capability Evolver with verification, rollback, and promotion gating. Use when an agent logs a learning, proposes a self-improvement, or wants to pro...", "description_zh": "", "downloads": 104, "homepage": "https://clawhub.ai/nutstrut/verified-capability-evolver", "iconUrl": null, "installs": 19, "name": "Verified Capability Evolver", "ownerName": "nutstrut", "score": 77611.94029850747, "slug": "verified-capability-evolver", "source": "clawhub", "stars": 0, "tags": ["agents", "self-improving", "verification"], "updated_at": 1776749984277, "version": "1.0.1"}]}