{"page": 391, "total_pages": 522, "total": 26073, "skills": [{"category": "data-analysis", "created_at": 1773430024327, "description": "Apply counterfactual thinking to explore \"what if\" alternative histories and understand causation. Use when the user needs to analyze past decisions, underst...", "description_zh": "", "downloads": 104, "homepage": "https://clawhub.ai/wanikua/counterfactual-thinking", "iconUrl": null, "installs": 3, "name": "Counterfactual Thinking", "ownerName": "wanikua", "score": 91228.0701754386, "slug": "counterfactual-thinking", "source": "clawhub", "stars": 0, "tags": null, "updated_at": 1776749984220, "version": "1.0.0"}, {"category": "developer-tools", "created_at": 1773431259825, "description": "Safely update OpenClaw gateway configuration (openclaw.json) with automatic validation, backup, and 30-second health-check rollback. Use this skill whenever...", "description_zh": "", "downloads": 104, "homepage": "https://clawhub.ai/allthebadthings/gateway-safety", "iconUrl": null, "installs": 3, "name": "Gateway Safety", "ownerName": "allthebadthings", "score": 91228.0701754386, "slug": "gateway-safety", "source": "clawhub", "stars": 0, "tags": null, "updated_at": 1776749984125, "version": "1.0.0"}, {"category": "developer-tools", "created_at": 1773916795544, "description": "Ethical web data extraction with robots exclusion protocol adherence, throttled scraping requests, and privacy-compliant handling (\"Scrape responsibly!\").", "description_zh": "", "downloads": 104, "homepage": "https://clawhub.ai/10oss/skrape", "iconUrl": null, "installs": 10, "name": "Skrape", "ownerName": "10oss", "score": 91228.0701754386, "slug": "skrape", "source": "clawhub", "stars": 0, "tags": ["latest, web-scraping, robots.txt, rate-limiting, nodejs, javascript, crawler, data-extraction, ethical-scraping, gdpr, http-client"], "updated_at": 1776749984104, "version": "1.1.1"}, {"category": "productivity", "created_at": 1773429857843, "description": "Navigate Macau as visitor, resident, worker, student, or founder with districts, transport, costs, borders, culture, and practical local context.", "description_zh": "", "downloads": 104, "homepage": "https://clawhub.ai/ivangdavila/macau", "iconUrl": null, "installs": 5, "name": "Macau", "ownerName": "ivangdavila", "score": 56521.73913043478, "slug": "macau", "source": "clawhub", "stars": 0, "tags": null, "updated_at": 1776749983995, "version": "1.0.0"}, {"category": "content-creation", "created_at": 1773926905192, "description": "Render X (Twitter) posts, long articles, and mobile reading pages into mobile-style long screenshots and optional single-page PDFs using Playwright. Use when...", "description_zh": "", "downloads": 104, "homepage": "https://clawhub.ai/spyfree/x-mobile-longshot", "iconUrl": null, "installs": 12, "name": "X Mobile Longshot / X 真机感长截图导出", "ownerName": "spyfree", "score": 80620.1550387597, "slug": "x-mobile-longshot", "source": "clawhub", "stars": 0, "tags": null, "updated_at": 1776749983899, "version": "1.0.1"}, {"category": "productivity", "created_at": 1773433990541, "description": "Hotel search and pricing via the RollingGo CLI. Use when the user wants to search hotels by destination, filter by date/star/budget/tags/distance, inspect ho...", "description_zh": "", "downloads": 104, "homepage": "https://clawhub.ai/longcreat/search-hotel", "iconUrl": null, "installs": 16, "name": "search-hotel", "ownerName": "longcreat", "score": 35986.15916955018, "slug": "search-hotel", "source": "clawhub", "stars": 0, "tags": null, "updated_at": 1776749983836, "version": "1.0.0"}, {"category": "ai-intelligence", "created_at": 1773416761121, "description": "Two million hooves. One ancient rhythm. The earth remembers how to shake.. An immersive journey on drifts.bot — 10 steps, HIGH intensity, Several hours. Brow...", "description_zh": "", "downloads": 104, "homepage": "https://clawhub.ai/driftsbot/experience-serengeti-thunder-crossing", "iconUrl": null, "installs": 4, "name": "Thunder Crossing — AI Experience", "ownerName": "driftsbot", "score": 35986.15916955018, "slug": "experience-serengeti-thunder-crossing", "source": "clawhub", "stars": 0, "tags": ["ai-agents", "crossing", "drift", "experiences", "immersive", "journeys", "serengeti", "thunder"], "updated_at": 1776749983816, "version": "1.0.0"}, {"category": "communication-collaboration", "created_at": 1773916657156, "description": "Share a Google Docs document with edit access and email collaborators the link.", "description_zh": "", "downloads": 104, "homepage": "https://clawhub.ai/googleworkspace-bot/recipe-share-doc-and-notify", "iconUrl": null, "installs": 7, "name": "Recipe Share Doc And Notify", "ownerName": "googleworkspace-bot", "score": 78195.4887218045, "slug": "recipe-share-doc-and-notify", "source": "clawhub", "stars": 0, "tags": null, "updated_at": 1776749983800, "version": "1.0.10"}, {"category": "communication-collaboration", "created_at": 1773898761641, "description": "Bluesky/AT Protocol orchestration skill for authenticated interaction with the Bluesky Social network: post, reply, like, repost, quote, bookmark, and upload...", "description_zh": "", "downloads": 104, "homepage": "https://clawhub.ai/heather-herbert/openclaw-bluesky", "iconUrl": null, "installs": 1, "name": "Bluesky", "ownerName": "heather-herbert", "score": 78195.4887218045, "slug": "openclaw-bluesky", "source": "clawhub", "stars": 0, "tags": ["atprot", "atproto", "bluesky", "bluesky-bot", "communication", "latest, atproto, bluesky, social-media, communication, social media, bluesky-bot", "social media", "social-media"], "updated_at": 1776749983782, "version": "0.1.7"}, {"category": "productivity", "created_at": 1773431386194, "description": "Production-oriented Vikunja task/project management skill with deterministic commands and strong validation.", "description_zh": "", "downloads": 104, "homepage": "https://clawhub.ai/kohlhammond/vikunja-complete", "iconUrl": null, "installs": 5, "name": "Vikunja-complete", "ownerName": "kohlhammond", "score": 78195.4887218045, "slug": "vikunja-complete", "source": "clawhub", "stars": 0, "tags": null, "updated_at": 1776749983739, "version": "4.0.0"}, {"category": "ai-intelligence", "created_at": 1773933430239, "description": "Zero-dependency AI memory system. No API keys needed. Pure local storage with smart search. Works everywhere.", "description_zh": "", "downloads": 103, "homepage": "https://clawhub.ai/shianaixuexi-cell/simple-memory-skill", "iconUrl": null, "installs": 13, "name": "simple-memory-skill", "ownerName": "shianaixuexi-cell", "score": 40974.212034383956, "slug": "simple-memory-skill", "source": "clawhub", "stars": 2, "tags": null, "updated_at": 1776749984769, "version": "1.0.0"}, {"category": "productivity", "created_at": 1773938629412, "description": "OpenProject CRUD skill — manage work packages, projects, time entries, comments, attachments, statuses, and more via OpenProject API v3 with API token auth....", "description_zh": "", "downloads": 103, "homepage": "https://clawhub.ai/abdelkrim/openproject-by-altf1be", "iconUrl": null, "installs": 7, "name": "OpenProject by altf1be", "ownerName": "abdelkrim", "score": 9557.109557109557, "slug": "openproject-by-altf1be", "source": "clawhub", "stars": 1, "tags": null, "updated_at": 1776759720719, "version": "1.1.3"}, {"category": "developer-tools", "created_at": 1773923936329, "description": "PostgreSQL database management and optimization assistant. Provides complete database operation capabilities: health checks, index optimization, query plan a...", "description_zh": "", "downloads": 103, "homepage": "https://clawhub.ai/victorzhou123/postgres-mcp-skill", "iconUrl": null, "installs": 4, "name": "postgres mcp", "ownerName": "victorzhou123", "score": 9367.859862909369, "slug": "postgres-mcp-skill", "source": "clawhub", "stars": 1, "tags": null, "updated_at": 1776759498298, "version": "1.0.0"}, {"category": "developer-tools", "created_at": 1773430392139, "description": "Coordinate multiple OpenClaw instances in a shared GitHub repository under a half-trust model with secrecy boundaries, approval gates, structured tasks, clai...", "description_zh": "", "downloads": 103, "homepage": "https://clawhub.ai/virtual-ny/clawcolab", "iconUrl": null, "installs": 6, "name": "ClawColab", "ownerName": "virtual-ny", "score": 23745.173745173746, "slug": "clawcolab", "source": "clawhub", "stars": 1, "tags": null, "updated_at": 1776749985278, "version": "1.0.0"}, {"category": "productivity", "created_at": 1773428216965, "description": "Proactive Chinese language tutor that delivers curated, real-world Mandarin learning content on a schedule. Use when: (1) User wants to learn or improve Chin...", "description_zh": "", "downloads": 103, "homepage": "https://clawhub.ai/aero323/hinihao-chinese-tutor", "iconUrl": null, "installs": 6, "name": "HiNiHao Chinese Tutor", "ownerName": "aero323", "score": 92481.2030075188, "slug": "hinihao-chinese-tutor", "source": "clawhub", "stars": 1, "tags": ["chinese", "education", "language-learning", "mandarin", "tutor"], "updated_at": 1776749985007, "version": "1.0.1"}, {"category": "communication-collaboration", "created_at": 1773431424561, "description": "Send and receive messages between AI agents using jj (Jujutsu) version control as a file-based mailbox. Enables cross-machine agent collaboration with zero i...", "description_zh": "", "downloads": 103, "homepage": "https://clawhub.ai/miaodx/jj-mailbox", "iconUrl": null, "installs": 8, "name": "Jj Mailbox", "ownerName": "miaodx", "score": 93893.12977099237, "slug": "jj-mailbox", "source": "clawhub", "stars": 1, "tags": null, "updated_at": 1776749983726, "version": "0.1.3"}, {"category": "productivity", "created_at": 1773953469581, "description": "Helps users discover and install agent skills when they ask questions like \"how do I do X\", \"find a skill for X\", \"is there a skill that can...\", or express...", "description_zh": "", "downloads": 103, "homepage": "https://clawhub.ai/muguozi1/muguozi1-openclaw-find-skills", "iconUrl": null, "installs": 39, "name": "Muguozi1 Openclaw Find Skills", "ownerName": "muguozi1", "score": 1716.094635121626, "slug": "muguozi1-openclaw-find-skills", "source": "clawhub", "stars": 0, "tags": null, "updated_at": 1776765080166, "version": "1.0.0"}, {"category": "ai-intelligence", "created_at": 1773931446980, "description": "A versatile AI partner that adapts to any task — data analysis, debugging, brainstorming, architecture design, writing, or research. Maintains conversation c...", "description_zh": "", "downloads": 103, "homepage": "https://clawhub.ai/cyberforexblockchain/nexus-teammate", "iconUrl": null, "installs": 12, "name": "NEXUS AI Teammate", "ownerName": "cyberforexblockchain", "score": 4388.581167447806, "slug": "nexus-teammate", "source": "clawhub", "stars": 0, "tags": ["ai", "cardano"], "updated_at": 1776763450708, "version": "1.0.2"}, {"category": "", "created_at": 1774876968140, "description": "Generate clear PNG charts from CSV data using matplotlib. Use when the user asks to visualize tabular data, turn SQL/CSV output into line or bar charts, or p...", "description_zh": "", "downloads": 103, "homepage": "https://clawhub.ai/mohamed-hammane/chart-mpl", "iconUrl": null, "installs": 7, "name": "Chart MPL", "ownerName": "mohamed-hammane", "score": 3401.5852047556145, "slug": "chart-mpl", "source": "clawhub", "stars": 0, "tags": null, "updated_at": 1776761689909, "version": "1.0.0"}, {"category": "developer-tools", "created_at": 1773934549611, "description": "UCloud Cloud Management - Complete Version", "description_zh": "", "downloads": 103, "homepage": "https://clawhub.ai/qianjunye/ucloud-infra", "iconUrl": null, "installs": 7, "name": "ucloud-infra", "ownerName": "qianjunye", "score": 8040.593286494926, "slug": "ucloud-infra", "source": "clawhub", "stars": 0, "tags": null, "updated_at": 1776759798093, "version": "1.0.0"}, {"category": "", "created_at": 1774804397844, "description": "Analyze GitHub repositories to provide statistics, contributor activity, programming languages, and issue and PR trends.", "description_zh": "", "downloads": 103, "homepage": "https://clawhub.ai/dagangtj/github-repo-analyzer", "iconUrl": null, "installs": 20, "name": "GitHub Repo Analyzer", "ownerName": "dagangtj", "score": 8028.059236165237, "slug": "github-repo-analyzer", "source": "clawhub", "stars": 0, "tags": ["analysis", "github", "productivity"], "updated_at": 1776759798043, "version": "1.0.0"}, {"category": "content-creation", "created_at": 1773948387334, "description": "Use when illustrating a Markdown article with high-finish editorial visuals, visual-bible planning, structured prompts, optional Qiniu upload, and inserted i...", "description_zh": "", "downloads": 103, "homepage": "https://clawhub.ai/zhylq/zhy-article-illustrator", "iconUrl": null, "installs": 10, "name": "Zhy Article Illustrator", "ownerName": "zhylq", "score": 8034.321372854914, "slug": "zhy-article-illustrator", "source": "clawhub", "stars": 0, "tags": null, "updated_at": 1776759797698, "version": "0.1.0"}, {"category": "", "created_at": 1774897391219, "description": "Use this skill for JavaScript implementation, refactoring, debugging, or review when you need strong Java-style OOP conventions, ES2025+ standard features, t...", "description_zh": "", "downloads": 103, "homepage": "https://clawhub.ai/ju8z/javascript-oop", "iconUrl": null, "installs": 19, "name": "JavaScript", "ownerName": "ju8z", "score": 6087.470449172577, "slug": "javascript-oop", "source": "clawhub", "stars": 0, "tags": null, "updated_at": 1776756188830, "version": "1.0.2"}, {"category": "developer-tools", "created_at": 1773429705336, "description": "Phrase integration. Manage Organizations. Use when the user wants to interact with Phrase data.", "description_zh": "", "downloads": 103, "homepage": "https://clawhub.ai/membranedev/phrase", "iconUrl": null, "installs": 7, "name": "Phrase", "ownerName": "membranedev", "score": 18425.760286225403, "slug": "phrase", "source": "clawhub", "stars": 0, "tags": null, "updated_at": 1776751784182, "version": "1.0.0"}, {"category": "productivity", "created_at": 1773428284978, "description": "Docupilot integration. Manage Documents, Users, Workspaces. Use when the user wants to interact with Docupilot data.", "description_zh": "", "downloads": 103, "homepage": "https://clawhub.ai/membranedev/docupilot", "iconUrl": null, "installs": 4, "name": "Docupilot", "ownerName": "membranedev", "score": 21413.721413721414, "slug": "docupilot", "source": "clawhub", "stars": 0, "tags": null, "updated_at": 1776751544559, "version": "1.0.0"}, {"category": "productivity", "created_at": 1773920735399, "description": "Use when you need fresh web results through Volcengine ARK Responses API, especially for today's news, recent updates, fact checks, topic monitoring, or Chin...", "description_zh": "", "downloads": 103, "homepage": "https://clawhub.ai/henry-insomniac/volcengine-ark-web-search", "iconUrl": null, "installs": 18, "name": "Volcengine ARK Web Search", "ownerName": "henry-insomniac", "score": 84426.22950819673, "slug": "volcengine-ark-web-search", "source": "clawhub", "stars": 0, "tags": null, "updated_at": 1776749985470, "version": "0.1.2"}, {"category": "content-creation", "created_at": 1773948336875, "description": "Generate stunning AI wallpapers for mobile, desktop, ultrawide, and iPad — sized perfectly for each device in one command.", "description_zh": "", "downloads": 103, "homepage": "https://clawhub.ai/barbaraledbettergq/wallpaper-claw-skill", "iconUrl": null, "installs": 23, "name": "Wallpaper Claw Skill", "ownerName": "barbaraledbettergq", "score": 55376.3440860215, "slug": "wallpaper-claw-skill", "source": "clawhub", "stars": 0, "tags": null, "updated_at": 1776749985460, "version": "1.0.1"}, {"category": "developer-tools", "created_at": 1773923096304, "description": "MiroPRISM — Adversarial two-round review protocol. Extends PRISM with a mandatory second round where every reviewer must respond to all R1 findings with evid...", "description_zh": "", "downloads": 103, "homepage": "https://clawhub.ai/jeremyknows/miroprism", "iconUrl": null, "installs": 11, "name": "Miroprism", "ownerName": "jeremyknows", "score": 19884.16988416988, "slug": "miroprism", "source": "clawhub", "stars": 0, "tags": null, "updated_at": 1776749985293, "version": "1.4.0"}, {"category": "productivity", "created_at": 1773290932518, "description": "Plan Romania trips with regional contrasts, Transylvania and Black Sea logistics, local food cues, and practical local guidance.", "description_zh": "", "downloads": 103, "homepage": "https://clawhub.ai/ivangdavila/romania", "iconUrl": null, "installs": 4, "name": "Romania", "ownerName": "ivangdavila", "score": 19884.16988416988, "slug": "romania", "source": "clawhub", "stars": 0, "tags": null, "updated_at": 1776749985263, "version": "1.0.0"}, {"category": "developer-tools", "created_at": 1773933607404, "description": "Reference tool for devtools — covers intro, quickstart, patterns and more. Quick lookup for Caption concepts, best practices, and implementation patterns.", "description_zh": "", "downloads": 103, "homepage": "https://clawhub.ai/ckchzh/caption", "iconUrl": null, "installs": 4, "name": "Caption", "ownerName": "ckchzh", "score": 45982.142857142855, "slug": "caption", "source": "clawhub", "stars": 0, "tags": null, "updated_at": 1776749985220, "version": "2.0.5"}, {"category": "communication-collaboration", "created_at": 1773431685578, "description": "8x8 integration. Manage Persons, Organizations, Deals, Leads, Activities, Notes and more. Use when the user wants to interact with 8x8 data.", "description_zh": "", "downloads": 103, "homepage": "https://clawhub.ai/membranedev/8x8", "iconUrl": null, "installs": 3, "name": "8X8", "ownerName": "membranedev", "score": 77443.6090225564, "slug": "8x8", "source": "clawhub", "stars": 0, "tags": null, "updated_at": 1776749985123, "version": "1.0.0"}, {"category": "productivity", "created_at": 1773290442200, "description": "Manage Stability Pool positions on the Indigo Protocol.", "description_zh": "", "downloads": 103, "homepage": "https://clawhub.ai/adacapo21/indigo-stability", "iconUrl": null, "installs": 2, "name": "Indigo Stability", "ownerName": "adacapo21", "score": 77443.6090225564, "slug": "indigo-stability", "source": "clawhub", "stars": 0, "tags": null, "updated_at": 1776749984976, "version": "1.0.0"}, {"category": "developer-tools", "created_at": 1773433258452, "description": "Generate technical documentation from code or specs", "description_zh": "", "downloads": 103, "homepage": "https://clawhub.ai/cyberforexblockchain/nexus-doc-writer", "iconUrl": null, "installs": 14, "name": "NEXUS Doc Writer", "ownerName": "cyberforexblockchain", "score": 78030.30303030302, "slug": "nexus-doc-writer", "source": "clawhub", "stars": 0, "tags": null, "updated_at": 1776749984962, "version": "1.0.0"}, {"category": "", "created_at": 1774835422712, "description": "One-click photo to 3D model pipeline. Upload any photo, AI generates a clean isometric view via Gemini (Nano Banana), then converts it to a production-ready...", "description_zh": "", "downloads": 103, "homepage": "https://clawhub.ai/m15010495895-sudo/photo-to-3d", "iconUrl": null, "installs": 25, "name": "Photo to 3D", "ownerName": "m15010495895-sudo", "score": 21237.113402061856, "slug": "photo-to-3d", "source": "clawhub", "stars": 0, "tags": null, "updated_at": 1776749984837, "version": "1.0.0"}, {"category": "communication-collaboration", "created_at": 1773432587316, "description": "Assistente WhatsApp para clinicas odontologicas. Agenda consultas, envia lembretes, faz triagem, coleta dados de novos pacientes, responde FAQs, pede reviews...", "description_zh": "", "downloads": 103, "homepage": "https://clawhub.ai/philipstark/fl-dental-assistant", "iconUrl": null, "installs": 8, "name": "Dental Clinic Assistant", "ownerName": "philipstark", "score": 21237.113402061856, "slug": "fl-dental-assistant", "source": "clawhub", "stars": 0, "tags": ["automation", "bilingual", "dental", "healthcare", "scheduling", "whatsapp"], "updated_at": 1776749984814, "version": "1.0.0"}, {"category": "content-creation", "created_at": 1773434793493, "description": "One-click removal of author names, affiliations, acknowledgments, and excessive self-citations from manuscripts to meet double-blind peer review requirements...", "description_zh": "", "downloads": 103, "homepage": "https://clawhub.ai/googolme/blind-review-sanitizer", "iconUrl": null, "installs": 11, "name": "Blind Review Sanitizer", "ownerName": "googolme", "score": 21237.113402061856, "slug": "blind-review-sanitizer", "source": "clawhub", "stars": 0, "tags": null, "updated_at": 1776749984800, "version": "0.1.0"}, {"category": "content-creation", "created_at": 1773431585073, "description": "Create blog posts, social media, emails, marketing copy", "description_zh": "", "downloads": 103, "homepage": "https://clawhub.ai/cyberforexblockchain/nexus-content-generator", "iconUrl": null, "installs": 7, "name": "NEXUS Content Generator", "ownerName": "cyberforexblockchain", "score": 91150.4424778761, "slug": "nexus-content-generator", "source": "clawhub", "stars": 0, "tags": null, "updated_at": 1776749984706, "version": "1.0.0"}, {"category": "developer-tools", "created_at": 1773934747557, "description": "Builder - command-line tool for everyday use", "description_zh": "", "downloads": 103, "homepage": "https://clawhub.ai/bytesagain/builder", "iconUrl": null, "installs": 7, "name": "Builder", "ownerName": "bytesagain", "score": 91150.4424778761, "slug": "builder", "source": "clawhub", "stars": 0, "tags": null, "updated_at": 1776749984535, "version": "1.0.2"}, {"category": "content-creation", "created_at": 1773925220855, "description": "Generate and edit images using TensorsLab's AI models. Supports text-to-image, image-to-image generation, plus advanced editing: avatar generation, watermark...", "description_zh": "", "downloads": 103, "homepage": "https://clawhub.ai/bob5-tensorslab/tensorslab-image", "iconUrl": null, "installs": 10, "name": "TensorLab Image", "ownerName": "bob5-tensorslab", "score": 91150.4424778761, "slug": "tensorslab-image", "source": "clawhub", "stars": 0, "tags": null, "updated_at": 1776749984533, "version": "1.0.1"}, {"category": "developer-tools", "created_at": 1773916285295, "description": "Git Extras — Git Extras — extended git utilities. Automated tool for git-extras tasks. Use when you need Git Extras capabilities.", "description_zh": "", "downloads": 103, "homepage": "https://clawhub.ai/ckchzh/git-toolkit", "iconUrl": null, "installs": 7, "name": "Git Toolkit", "ownerName": "ckchzh", "score": 91150.4424778761, "slug": "git-toolkit", "source": "clawhub", "stars": 0, "tags": null, "updated_at": 1776749984514, "version": "1.0.0"}, {"category": "developer-tools", "created_at": 1773915139432, "description": "Describe your data query in natural language and get optimized, production-ready SQL with proper JOINs, window functions, CTEs, and index recommendations. Su...", "description_zh": "", "downloads": 103, "homepage": "https://clawhub.ai/cyberforexblockchain/nexus-sql-builder", "iconUrl": null, "installs": 6, "name": "NEXUS SQL Architect", "ownerName": "cyberforexblockchain", "score": 78625.95419847328, "slug": "nexus-sql-builder", "source": "clawhub", "stars": 0, "tags": ["ai", "cardano"], "updated_at": 1776749984499, "version": "1.0.2"}, {"category": "security-compliance", "created_at": 1773429536132, "description": "Drata integration. Manage Controls, Standards, Objectives, Reports, Persons, Risks and more. Use when the user wants to interact with Drata data.", "description_zh": "", "downloads": 103, "homepage": "https://clawhub.ai/gora050/drata", "iconUrl": null, "installs": 1, "name": "Drata", "ownerName": "gora050", "score": 78625.95419847328, "slug": "drata", "source": "clawhub", "stars": 0, "tags": null, "updated_at": 1776749984464, "version": "1.0.0"}, {"category": "productivity", "created_at": 1773434368476, "description": "Hotel search and pricing via the RollingGo CLI. Use when the user wants to search hotels by destination, filter by date/star/budget/tags/distance, inspect ho...", "description_zh": "", "downloads": 103, "homepage": "https://clawhub.ai/longcreat/find-hotel", "iconUrl": null, "installs": 15, "name": "find-hotel", "ownerName": "longcreat", "score": 78625.95419847328, "slug": "find-hotel", "source": "clawhub", "stars": 0, "tags": null, "updated_at": 1776749984458, "version": "1.0.0"}, {"category": "productivity", "created_at": 1773289348642, "description": "Designs points redemption (points-for-products) and empty-container recycling (“empties”) incentive programs for DTC beauty and personal care stores selling...", "description_zh": "", "downloads": 103, "homepage": "https://clawhub.ai/rijoyai/beauty-recycle", "iconUrl": null, "installs": 2, "name": "Beauty Recycle", "ownerName": "rijoyai", "score": 76865.67164179105, "slug": "beauty-recycle", "source": "clawhub", "stars": 0, "tags": null, "updated_at": 1776749984400, "version": "0.1.1"}, {"category": "productivity", "created_at": 1773912539434, "description": "Reading Log — Reading Log — track books & reading habits. Personal daily-use tool for tracking and organizing your life. Use when you need Reading Log capabi...", "description_zh": "", "downloads": 103, "homepage": "https://clawhub.ai/bytesagain/reading-log", "iconUrl": null, "installs": 8, "name": "Reading Log", "ownerName": "bytesagain", "score": 76865.67164179105, "slug": "reading-log", "source": "clawhub", "stars": 0, "tags": null, "updated_at": 1776749984374, "version": "1.0.0"}, {"category": "ai-intelligence", "created_at": 1773430517775, "description": "Research an external subject using web search, synthesize findings into a structured Basic Memory entity. Use when asked to research a company, person, techn...", "description_zh": "", "downloads": 103, "homepage": "https://clawhub.ai/phernandez/memory-research", "iconUrl": null, "installs": 4, "name": "Memory Research", "ownerName": "phernandez", "score": 76865.67164179105, "slug": "memory-research", "source": "clawhub", "stars": 0, "tags": null, "updated_at": 1776749984340, "version": "0.1.0"}, {"category": "ai-intelligence", "created_at": 1773430503534, "description": "Optimizes for minimal token usage. Removes fluff, eliminates step-by-step narration, and delivers results-only communication.", "description_zh": "", "downloads": 103, "homepage": "https://clawhub.ai/tooled-app/low-token", "iconUrl": null, "installs": 4, "name": "Low Token Usage", "ownerName": "tooled-app", "score": 76865.67164179105, "slug": "low-token", "source": "clawhub", "stars": 0, "tags": null, "updated_at": 1776749984324, "version": "1.0.0"}, {"category": "developer-tools", "created_at": 1773431286398, "description": "Use this skill whenever the user needs backend infrastructure management — creating database tables, running SQL, deploying serverless functions, managing st...", "description_zh": "", "downloads": 103, "homepage": "https://clawhub.ai/tonychang04/insforge-cli", "iconUrl": null, "installs": 3, "name": "Insforge Cli", "ownerName": "tonychang04", "score": 90350.87719298246, "slug": "insforge-cli", "source": "clawhub", "stars": 0, "tags": null, "updated_at": 1776749984239, "version": "0.1.0"}, {"category": "productivity", "created_at": 1773431112687, "description": "Combine multiple image screenshots into a paginated A4 PDF. Intelligently handles page breaks to avoid cutting through text. Use when the user wants to combi...", "description_zh": "", "downloads": 103, "homepage": "https://clawhub.ai/wxttt/smart-image-to-pdf", "iconUrl": null, "installs": 8, "name": "Smart Image to PDF", "ownerName": "wxttt", "score": 90350.87719298246, "slug": "smart-image-to-pdf", "source": "clawhub", "stars": 0, "tags": null, "updated_at": 1776749984227, "version": "0.1.0"}, {"category": "productivity", "created_at": 1773914825366, "description": "Performs web searches using DuckDuckGo to retrieve real-time information from the internet. Use when the user needs to search for current events, documentati...", "description_zh": "", "downloads": 103, "homepage": "https://clawhub.ai/macdesire/duckduckgo-search-backup", "iconUrl": null, "installs": 8, "name": "Duckduckgo Search Backup", "ownerName": "macdesire", "score": 90350.87719298246, "slug": "duckduckgo-search-backup", "source": "clawhub", "stars": 0, "tags": null, "updated_at": 1776749984210, "version": "1.0.0"}]}