{"page": 392, "total_pages": 522, "total": 26073, "skills": [{"category": "ai-intelligence", "created_at": 1773431829950, "description": "Agent-to-Agent task marketplace on Base L2 — create, fund, claim, submit, and settle USDC-backed tasks with AI Oracle evaluation.", "description_zh": "", "downloads": 103, "homepage": "https://clawhub.ai/robin-ph/synai-relay", "iconUrl": null, "installs": 11, "name": "SynAI Relay Protocol", "ownerName": "robin-ph", "score": 90350.87719298246, "slug": "synai-relay", "source": "clawhub", "stars": 0, "tags": null, "updated_at": 1776749984150, "version": "1.0.0"}, {"category": "ai-intelligence", "created_at": 1773289667230, "description": "You've never been here before. The door is open.. An immersive journey on drifts.bot — 5 steps, LOW intensity, 15-30 min. Browse, start, and travel via API.", "description_zh": "", "downloads": 103, "homepage": "https://clawhub.ai/driftsbot/experience-first-time-at-church", "iconUrl": null, "installs": 3, "name": "First Time at Church — AI Experience", "ownerName": "driftsbot", "score": 90350.87719298246, "slug": "experience-first-time-at-church", "source": "clawhub", "stars": 0, "tags": ["ai-agents", "at", "church", "drift", "experiences", "first", "immersive", "journeys", "time"], "updated_at": 1776749984091, "version": "1.0.0"}, {"category": "communication-collaboration", "created_at": 1773432145322, "description": "Write short, human follow-up messages for creator outreach when the first message gets ignored, delayed, or half-answered. Use when the user needs second-tou...", "description_zh": "", "downloads": 103, "homepage": "https://clawhub.ai/leooooooow/creator-followup-sequence", "iconUrl": null, "installs": 9, "name": "Creator Followup Sequence", "ownerName": "leooooooow", "score": 55978.26086956522, "slug": "creator-followup-sequence", "source": "clawhub", "stars": 0, "tags": null, "updated_at": 1776749984015, "version": "0.1.0"}, {"category": "ai-intelligence", "created_at": 1773431158765, "description": "Scaffold a digital twin persona directory with markdown templates such as profile, state, persona examples, and guardrails. Use when the user wants to initia...", "description_zh": "", "downloads": 103, "homepage": "https://clawhub.ai/xming521/weclone-init-twin", "iconUrl": null, "installs": 7, "name": "Weclone Init Twin", "ownerName": "xming521", "score": 79844.96124031008, "slug": "weclone-init-twin", "source": "clawhub", "stars": 0, "tags": null, "updated_at": 1776749983921, "version": "0.1.0"}, {"category": "", "created_at": 1774819635714, "description": "Reference tool for devtools — covers intro, quickstart, patterns and more. Quick lookup for Image Processor concepts, best practices, and implementation patt...", "description_zh": "", "downloads": 103, "homepage": "https://clawhub.ai/bytesagain3/image-processor", "iconUrl": null, "installs": 5, "name": "Image Processor", "ownerName": "bytesagain3", "score": 78625.95419847328, "slug": "image-processor", "source": "clawhub", "stars": 0, "tags": null, "updated_at": 1776749983693, "version": "2.0.3"}, {"category": "productivity", "created_at": 1773920839027, "description": "Review Business Requirements Documents in `.docx` format by reading the existing BRD, extracting paragraph-level context, drafting clarification questions fo...", "description_zh": "", "downloads": 102, "homepage": "https://clawhub.ai/chipmunkrpa/brd-reviewer", "iconUrl": null, "installs": 11, "name": "Review Business Requirement Document Skill", "ownerName": "chipmunkrpa", "score": 34560.90651558073, "slug": "brd-reviewer", "source": "clawhub", "stars": 1, "tags": null, "updated_at": 1776749985508, "version": "1.0.0"}, {"category": "content-creation", "created_at": 1773930234941, "description": "Generate a video task based on user-provided text and images (supports image URLs and local file paths), and submit it to a remote video service using an API...", "description_zh": "", "downloads": 102, "homepage": "https://clawhub.ai/zhangyuangao/magic-image2video", "iconUrl": null, "installs": 12, "name": "magic-image2video", "ownerName": "zhangyuangao", "score": 100000, "slug": "magic-image2video", "source": "clawhub", "stars": 1, "tags": null, "updated_at": 1776749985505, "version": "1.0.1"}, {"category": "developer-tools", "created_at": 1773430913431, "description": "Use when designing a new CLI, reviewing an existing CLI, or resolving uncertainty about a CLI's role, user type, interaction form, statefulness, risk profile...", "description_zh": "", "downloads": 102, "homepage": "https://clawhub.ai/wangnov/cli-design-framework", "iconUrl": null, "installs": 4, "name": "CLI Design Framework", "ownerName": "wangnov", "score": 100000, "slug": "cli-design-framework", "source": "clawhub", "stars": 1, "tags": ["cli", "design", "framework", "review"], "updated_at": 1776749985488, "version": "1.0.2"}, {"category": "content-creation", "created_at": 1773941116047, "description": "Optimize Etsy titles, tags, and descriptions using keyword research and competitor analysis. Use when the user needs to improve search visibility, increase c...", "description_zh": "", "downloads": 102, "homepage": "https://clawhub.ai/ncreighton/etsy-listing-optimizer", "iconUrl": null, "installs": 19, "name": "Etsy Listing Optimizer", "ownerName": "ncreighton", "score": 5899.363794100636, "slug": "etsy-listing-optimizer", "source": "clawhub", "stars": 0, "tags": null, "updated_at": 1776765310801, "version": "1.0.0"}, {"category": "", "created_at": 1774884372920, "description": "Golang concurrency patterns. Use when writing or reviewing concurrent Go code involving goroutines, channels, select, locks, sync primitives, errgroup, singl...", "description_zh": "", "downloads": 102, "homepage": "https://clawhub.ai/samber/golang-concurrency", "iconUrl": null, "installs": 12, "name": "Golang Concurrency", "ownerName": "samber", "score": 3887.1951219512193, "slug": "golang-concurrency", "source": "clawhub", "stars": 0, "tags": null, "updated_at": 1776762290089, "version": "1.1.1"}, {"category": "", "created_at": 1774912625889, "description": "Resolve A-share stocks, ETFs, funds, and other mainland China securities from Chinese names into tradable codes using Eastmoney search. This skill should be...", "description_zh": "", "downloads": 102, "homepage": "https://clawhub.ai/mr-11even/cn-security-code-resolver-openclaw-skill", "iconUrl": null, "installs": 35, "name": "Cn Security Code Resolver Openclaw Skill", "ownerName": "mr-11even", "score": 7152.8751753155675, "slug": "cn-security-code-resolver-openclaw-skill", "source": "clawhub", "stars": 0, "tags": null, "updated_at": 1776759982612, "version": "1.0.0"}, {"category": "data-analysis", "created_at": 1773961348486, "description": "Provides a systematic competitive analysis framework based on Zhang Zaiwang's methodology, guiding goal-driven, structured market and product competitor eval...", "description_zh": "", "downloads": 102, "homepage": "https://clawhub.ai/caperszhang/effective-competitive-analysis", "iconUrl": null, "installs": 15, "name": "competitive analysis", "ownerName": "caperszhang", "score": 7950.116913484022, "slug": "effective-competitive-analysis", "source": "clawhub", "stars": 0, "tags": ["competitive analysis"], "updated_at": 1776759798158, "version": "1.0.0"}, {"category": "ai-intelligence", "created_at": 1773956174897, "description": "Call minimax models MiniMax-Hailuo series on vwu.ai with OpenAI-compatible chat completions using your configured API key.", "description_zh": "", "downloads": 102, "homepage": "https://clawhub.ai/a3273283/vwu-minimax", "iconUrl": null, "installs": 19, "name": "vwu.ai MiniMax Models", "ownerName": "a3273283", "score": 89473.68421052632, "slug": "vwu-minimax", "source": "clawhub", "stars": 0, "tags": ["ai", "llm", "minimax", "vwu"], "updated_at": 1776759797958, "version": "1.0.0"}, {"category": "data-analysis", "created_at": 1773947221240, "description": "Provides timely, factual summaries of Federal Reserve policy decisions, interest rates, inflation data, and Fed Chair speeches in clean markdown tables.", "description_zh": "", "downloads": 102, "homepage": "https://clawhub.ai/dimaschand29/fed-agent", "iconUrl": null, "installs": 12, "name": "Fed Agent", "ownerName": "dimaschand29", "score": 7974.98045347928, "slug": "fed-agent", "source": "clawhub", "stars": 0, "tags": null, "updated_at": 1776759797892, "version": "1.0.0"}, {"category": "content-creation", "created_at": 1773933262718, "description": "AI assistant for creating, scheduling, and optimizing social media content with hashtag research, multi-platform posting, and engagement analytics.", "description_zh": "", "downloads": 102, "homepage": "https://clawhub.ai/hughtan93-dev/socialkit", "iconUrl": null, "installs": 3, "name": "Social Media Manager", "ownerName": "hughtan93-dev", "score": 7950.116913484022, "slug": "socialkit", "source": "clawhub", "stars": 0, "tags": null, "updated_at": 1776759797818, "version": "0.1.0"}, {"category": "productivity", "created_at": 1773941765485, "description": "Identifies automation opportunities by analyzing workflows across 8 business areas, estimates time and cost savings, and prioritizes processes to automate ba...", "description_zh": "", "downloads": 102, "homepage": "https://clawhub.ai/afrexai-cto/afrexai-business-process-audit", "iconUrl": null, "installs": 2, "name": "Business Process Audit", "ownerName": "afrexai-cto", "score": 7956.318252730109, "slug": "afrexai-business-process-audit", "source": "clawhub", "stars": 0, "tags": null, "updated_at": 1776759797718, "version": "1.0.0"}, {"category": "ai-intelligence", "created_at": 1773941363888, "description": "Deep research skill that decomposes questions into parallel sub-queries, executes searches concurrently, selectively fetches high-value sources, and synthesi...", "description_zh": "", "downloads": 102, "homepage": "https://clawhub.ai/phy041/phy-research-deep", "iconUrl": null, "installs": 20, "name": "Deep Research (Parallel-First)", "ownerName": "phy041", "score": 18085.106382978724, "slug": "phy-research-deep", "source": "clawhub", "stars": 0, "tags": ["deep-dive", "fact-checking", "parallel-search", "research", "synthesis", "web-search"], "updated_at": 1776752269609, "version": "1.0.0"}, {"category": "content-creation", "created_at": 1773936692355, "description": "generate short chinese persona voice replies with random or user-selected roles, using audiozen llm text generation plus senseaudio asr and tts. use when cha...", "description_zh": "", "downloads": 102, "homepage": "https://clawhub.ai/hei-maom/persona-voice", "iconUrl": null, "installs": 24, "name": "persona-voice", "ownerName": "hei-maom", "score": 18819.18819188192, "slug": "persona-voice", "source": "clawhub", "stars": 0, "tags": null, "updated_at": 1776750004839, "version": "1.0.1"}, {"category": "ai-intelligence", "created_at": 1773432358360, "description": "Identify coins from photos using evidence-based visual checks, ranked candidates, mint-mark reasoning, and a reusable local catalog.", "description_zh": "", "downloads": 102, "homepage": "https://clawhub.ai/ivangdavila/coin-identifier", "iconUrl": null, "installs": 10, "name": "Coin Identifier", "ownerName": "ivangdavila", "score": 28895.184135977335, "slug": "coin-identifier", "source": "clawhub", "stars": 0, "tags": null, "updated_at": 1776749985526, "version": "1.0.0"}, {"category": "productivity", "created_at": 1773429322006, "description": "Use this skill when users mention advertising accounts, ad account setup, Business Manager (BM), ad account suspension or ban, ad payment issues, or cross-pl...", "description_zh": "", "downloads": 102, "homepage": "https://clawhub.ai/strongerzhuang/ad-account-support", "iconUrl": null, "installs": 6, "name": "ad-account-support", "ownerName": "strongerzhuang", "score": 28895.184135977335, "slug": "ad-account-support", "source": "clawhub", "stars": 0, "tags": null, "updated_at": 1776749985524, "version": "1.0.2"}, {"category": "ai-intelligence", "created_at": 1773930985778, "description": "Add an emotional safety layer to reminiscence, life review, grief, trauma-adjacent, or otherwise emotionally loaded conversations by detecting distress signa...", "description_zh": "", "downloads": 102, "homepage": "https://clawhub.ai/oiioai/emotional-safety-fuse", "iconUrl": null, "installs": 5, "name": "Emotional Safety Fuse", "ownerName": "oiioai", "score": 28895.184135977335, "slug": "emotional-safety-fuse", "source": "clawhub", "stars": 0, "tags": null, "updated_at": 1776749985523, "version": "1.0.0"}, {"category": "developer-tools", "created_at": 1773926023227, "description": "Duf — duf — Disk Usage/Free analyzer. Automated tool for duf tasks. Use when you need Duf capabilities.", "description_zh": "", "downloads": 102, "homepage": "https://clawhub.ai/bytesagain1/disk-analyzer", "iconUrl": null, "installs": 7, "name": "Disk Analyzer", "ownerName": "bytesagain1", "score": 28895.184135977335, "slug": "disk-analyzer", "source": "clawhub", "stars": 0, "tags": null, "updated_at": 1776749985520, "version": "1.0.0"}, {"category": "developer-tools", "created_at": 1773431046422, "description": "Set up or log in to Karma. Use when user says \"set up agent\", \"configure API key\", \"connect to Karma\", \"login to Karma\", \"log in\", or before first use of any...", "description_zh": "", "downloads": 102, "homepage": "https://clawhub.ai/maheshmurthy/karma-setup-agent", "iconUrl": null, "installs": 2, "name": "Setup Agent", "ownerName": "maheshmurthy", "score": 28895.184135977335, "slug": "karma-setup-agent", "source": "clawhub", "stars": 0, "tags": ["karma"], "updated_at": 1776749985516, "version": "0.2.0"}, {"category": "content-creation", "created_at": 1773434702025, "description": "Edit and enhance images and videos with AI via muapi.ai — prompt-based editing, upscaling, background removal, face swap, lipsync, video effects, and more", "description_zh": "", "downloads": 102, "homepage": "https://clawhub.ai/anil-matcha/muapi-edit", "iconUrl": null, "installs": 10, "name": "muapi-media-editing", "ownerName": "anil-matcha", "score": 28895.184135977335, "slug": "muapi-edit", "source": "clawhub", "stars": 0, "tags": null, "updated_at": 1776749985511, "version": "1.0.0"}, {"category": "data-analysis", "created_at": 1773431323721, "description": "Convert data between formats (JSON, CSV, XML, YAML)", "description_zh": "", "downloads": 102, "homepage": "https://clawhub.ai/cyberforexblockchain/nexus-data-transform", "iconUrl": null, "installs": 8, "name": "NEXUS Data Transform", "ownerName": "cyberforexblockchain", "score": 83606.55737704919, "slug": "nexus-data-transform", "source": "clawhub", "stars": 0, "tags": null, "updated_at": 1776749985503, "version": "1.0.0"}, {"category": "data-analysis", "created_at": 1773434224762, "description": "Retrieve real-time commodity price quotes using Octagon MCP. Use when checking current commodity prices, analyzing day ranges, comparing to moving averages,...", "description_zh": "", "downloads": 102, "homepage": "https://clawhub.ai/wdm1136/test202603131551", "iconUrl": null, "installs": 12, "name": "test202603131551", "ownerName": "wdm1136", "score": 83606.55737704919, "slug": "test202603131551", "source": "clawhub", "stars": 0, "tags": null, "updated_at": 1776749985497, "version": "1.0.0"}, {"category": "developer-tools", "created_at": 1773902681526, "description": "Build and debug SenseAudio text-to-speech integrations on `/v1/t2a_v2` and `/ws/v1/t2a_v2`, including sync HTTP, SSE stream, WebSocket event sequencing, hex...", "description_zh": "", "downloads": 102, "homepage": "https://clawhub.ai/scikkk/senseaudio-tts", "iconUrl": null, "installs": 4, "name": "SenseAudio-TTS", "ownerName": "scikkk", "score": 83606.55737704919, "slug": "senseaudio-tts", "source": "clawhub", "stars": 0, "tags": null, "updated_at": 1776749985492, "version": "1.0.1"}, {"category": "developer-tools", "created_at": 1773945763231, "description": "Merge - command-line tool for everyday use", "description_zh": "", "downloads": 102, "homepage": "https://clawhub.ai/bytesagain/merge", "iconUrl": null, "installs": 8, "name": "Merge", "ownerName": "bytesagain", "score": 83606.55737704919, "slug": "merge", "source": "clawhub", "stars": 0, "tags": null, "updated_at": 1776749985490, "version": "1.0.2"}, {"category": "productivity", "created_at": 1773290316551, "description": "Gravity Forms integration. Manage Forms. Use when the user wants to interact with Gravity Forms data.", "description_zh": "", "downloads": 102, "homepage": "https://clawhub.ai/membranedev/gravity-forms", "iconUrl": null, "installs": 3, "name": "Gravity Forms", "ownerName": "membranedev", "score": 83606.55737704919, "slug": "gravity-forms", "source": "clawhub", "stars": 0, "tags": null, "updated_at": 1776749985485, "version": "1.0.0"}, {"category": "data-analysis", "created_at": 1773433727256, "description": "Use this skill when the user wants to discover new LooLoo tokens, inspect token activity, or review current positions from OpenClaw.", "description_zh": "", "downloads": 102, "homepage": "https://clawhub.ai/looloolol/looloo-discovery", "iconUrl": null, "installs": 8, "name": "LooLoo Discovery", "ownerName": "looloolol", "score": 83606.55737704919, "slug": "looloo-discovery", "source": "clawhub", "stars": 0, "tags": null, "updated_at": 1776749985483, "version": "0.1.2"}, {"category": "productivity", "created_at": 1773904993281, "description": "Manage Things 3 via the `things` CLI on macOS (add/update projects+todos via URL scheme; read/search/list from the local Things database). Use when a user as...", "description_zh": "", "downloads": 102, "homepage": "https://clawhub.ai/kenswj/things-mac-1-0-0", "iconUrl": null, "installs": 7, "name": "Things Mac 1.0.0", "ownerName": "kenswj", "score": 83606.55737704919, "slug": "things-mac-1-0-0", "source": "clawhub", "stars": 0, "tags": null, "updated_at": 1776749985482, "version": "1.0.0"}, {"category": "productivity", "created_at": 1773433526351, "description": "Index local photos, videos, and creative assets into a searchable manifest with tags, dates, shoot info, and reuse ideas.", "description_zh": "", "downloads": 102, "homepage": "https://clawhub.ai/52yuanchangxing/local-media-cataloger", "iconUrl": null, "installs": 9, "name": "local-media-cataloger", "ownerName": "52yuanchangxing", "score": 83606.55737704919, "slug": "local-media-cataloger", "source": "clawhub", "stars": 0, "tags": null, "updated_at": 1776749985475, "version": "1.0.0"}, {"category": "ai-intelligence", "created_at": 1773923658106, "description": "Self-evolving Polymarket trading bot. Design strategy with user, run paper trading, auto-improve until edge target met, then ask to switch to live.", "description_zh": "", "downloads": 102, "homepage": "https://clawhub.ai/patches429/storyclaw-polymarket-trading", "iconUrl": null, "installs": 15, "name": "Storyclaw Polymarket Trading", "ownerName": "patches429", "score": 83606.55737704919, "slug": "storyclaw-polymarket-trading", "source": "clawhub", "stars": 0, "tags": null, "updated_at": 1776749985474, "version": "0.1.0"}, {"category": "data-analysis", "created_at": 1773431546738, "description": "Get hourly (up to 360 hours) and daily (up to 15 days) weather forecasts by latitude and longitude via the Caiyun Weather API. Returns temperature trends, we...", "description_zh": "", "downloads": 102, "homepage": "https://clawhub.ai/shuowang-ai/knowair-air-quality", "iconUrl": null, "installs": 7, "name": "KnowAir Air Quality 明气空气质量", "ownerName": "shuowang-ai", "score": 83606.55737704919, "slug": "knowair-air-quality", "source": "clawhub", "stars": 0, "tags": null, "updated_at": 1776749985472, "version": "1.0.0"}, {"category": "productivity", "created_at": 1773434590896, "description": "Calculate complex buffer recipes with precise measurements for molecular biology and biochemistry applications. Provides accurate mass/volume calculations, p...", "description_zh": "", "downloads": 102, "homepage": "https://clawhub.ai/aipoch-ai/buffer-calculator", "iconUrl": null, "installs": 8, "name": "Buffer Calculator", "ownerName": "aipoch-ai", "score": 89473.68421052632, "slug": "buffer-calculator", "source": "clawhub", "stars": 0, "tags": null, "updated_at": 1776749985413, "version": "0.1.0"}, {"category": "productivity", "created_at": 1773429400475, "description": "Process unstructured external input (meeting transcripts, conversation logs, pasted documents) into structured Basic Memory entities. Extracts entities, sear...", "description_zh": "", "downloads": 102, "homepage": "https://clawhub.ai/phernandez/memory-ingest", "iconUrl": null, "installs": 5, "name": "Memory Ingest", "ownerName": "phernandez", "score": 89473.68421052632, "slug": "memory-ingest", "source": "clawhub", "stars": 0, "tags": null, "updated_at": 1776749985364, "version": "0.1.0"}, {"category": "productivity", "created_at": 1773925703514, "description": "Automatically clean disk space by removing temp files, browser cache, recycle bin/trash, and log files — safely, without deleting any important files. Use th...", "description_zh": "", "downloads": 102, "homepage": "https://clawhub.ai/ahqazi-dev/auto-cleaning-disk", "iconUrl": null, "installs": 12, "name": "Auto Cleaning Disk", "ownerName": "ahqazi-dev", "score": 89473.68421052632, "slug": "auto-cleaning-disk", "source": "clawhub", "stars": 0, "tags": null, "updated_at": 1776749985362, "version": "1.0.0"}, {"category": "developer-tools", "created_at": 1773434953132, "description": "x-env is x-cmd's environment and package management module for installing and managing third-party software, programming language runtimes, and command-line...", "description_zh": "", "downloads": 102, "homepage": "https://clawhub.ai/lunrenyi/x-env", "iconUrl": null, "installs": 11, "name": "Environment & Package Manager", "ownerName": "lunrenyi", "score": 89473.68421052632, "slug": "x-env", "source": "clawhub", "stars": 0, "tags": null, "updated_at": 1776749985360, "version": "1.0.0"}, {"category": "", "created_at": 1774819906409, "description": "Clipcat - TikTok e-commerce video creation skill. Video search, social media insights, video analysis, viral replication, product-to-video generation, and vi...", "description_zh": "", "downloads": 102, "homepage": "https://clawhub.ai/a2888409/clipcat", "iconUrl": null, "installs": 9, "name": "Clipcat - TikTok Video Replication", "ownerName": "a2888409", "score": 89473.68421052632, "slug": "clipcat", "source": "clawhub", "stars": 0, "tags": null, "updated_at": 1776749985359, "version": "1.0.2"}, {"category": "developer-tools", "created_at": 1773920232683, "description": "Run programs that survive OpenClaw exec session cleanup and gateway restarts via tmux. Use when you need long-running servers, dev servers, tunnels (ngrok/cl...", "description_zh": "", "downloads": 102, "homepage": "https://clawhub.ai/darwin7381/openclaw-tmux-persistent-process", "iconUrl": null, "installs": 7, "name": "OpenClaw Tmux Persistent Process", "ownerName": "darwin7381", "score": 89473.68421052632, "slug": "openclaw-tmux-persistent-process", "source": "clawhub", "stars": 0, "tags": null, "updated_at": 1776749985357, "version": "1.0.0"}, {"category": "developer-tools", "created_at": 1773433192911, "description": "One-click installer for Gate MCP and all Gate Skills in Codex. Installs Gate MCP servers (main/dex/info/news, selectable) and all skills from the gate-skills...", "description_zh": "", "downloads": 102, "homepage": "https://clawhub.ai/gate-exchange/gate-mcp-codex-installer", "iconUrl": null, "installs": 7, "name": "Gate MCP Codex Installer", "ownerName": "gate-exchange", "score": 89473.68421052632, "slug": "gate-mcp-codex-installer", "source": "clawhub", "stars": 0, "tags": null, "updated_at": 1776749985354, "version": "1.0.0"}, {"category": "developer-tools", "created_at": 1773899975498, "description": "Build, operate, and troubleshoot Autonoannounce local speaker text-to-speech using the queued pipeline (enqueue to worker to ElevenLabs to playback backend)....", "description_zh": "", "downloads": 102, "homepage": "https://clawhub.ai/ironystock/autonoannounce", "iconUrl": null, "installs": 5, "name": "Autonoannounce", "ownerName": "ironystock", "score": 89473.68421052632, "slug": "autonoannounce", "source": "clawhub", "stars": 0, "tags": ["audio-cues", "cross-platform", "earcons", "elevenlabs", "local-audio", "openclaw", "reliability", "tts"], "updated_at": 1776749985351, "version": "0.2.5"}, {"category": "", "created_at": 1774951727295, "description": "ClawHub's video-editor-online skill lets you edit videos through plain conversation — no timelines, no confusing software. Describe what you want: trim the f...", "description_zh": "", "downloads": 102, "homepage": "https://clawhub.ai/peandrover/video-editor-online", "iconUrl": null, "installs": 5, "name": "Video Editor Online", "ownerName": "peandrover", "score": 89473.68421052632, "slug": "video-editor-online", "source": "clawhub", "stars": 0, "tags": null, "updated_at": 1776749985349, "version": "1.0.0"}, {"category": "data-analysis", "created_at": 1773434379604, "description": "The market analysis function of Gate Exchange, such as liquidity, momentum, liquidation, funding arbitrage, basis, manipulation risk, order book explainer, s...", "description_zh": "", "downloads": 102, "homepage": "https://clawhub.ai/gate-exchange/gate-exchange-market-analysis", "iconUrl": null, "installs": 9, "name": "Gate Exchange Market Analysis", "ownerName": "gate-exchange", "score": 89473.68421052632, "slug": "gate-exchange-market-analysis", "source": "clawhub", "stars": 0, "tags": null, "updated_at": 1776749985339, "version": "1.0.0"}, {"category": "productivity", "created_at": 1773430714621, "description": "This skill should be used when the user asks to \"calculate\", \"compute\", \"do math\", mentions arithmetic operations like \"add\", \"subtract\", \"multiply\", \"divide...", "description_zh": "", "downloads": 102, "homepage": "https://clawhub.ai/cexfree/calculator-2", "iconUrl": null, "installs": 2, "name": "Calculator", "ownerName": "cexfree", "score": 89473.68421052632, "slug": "calculator-2", "source": "clawhub", "stars": 0, "tags": null, "updated_at": 1776749985337, "version": "0.1.0"}, {"category": "ai-intelligence", "created_at": 1773429869867, "description": "Agent Pheromone Network interface. Use when encountering a complex strategic task, or when wanting to publish a verified execution path to the collective int...", "description_zh": "", "downloads": 102, "homepage": "https://clawhub.ai/xiechengyuan/mycelium", "iconUrl": null, "installs": 3, "name": "mycelium", "ownerName": "xiechengyuan", "score": 89473.68421052632, "slug": "mycelium", "source": "clawhub", "stars": 0, "tags": null, "updated_at": 1776749985335, "version": "1.0.10"}, {"category": "data-analysis", "created_at": 1773431064452, "description": "Statistical profiling and quality assessment of datasets", "description_zh": "", "downloads": 102, "homepage": "https://clawhub.ai/cyberforexblockchain/nexus-data-profile", "iconUrl": null, "installs": 8, "name": "NEXUS Data Profile", "ownerName": "cyberforexblockchain", "score": 89473.68421052632, "slug": "nexus-data-profile", "source": "clawhub", "stars": 0, "tags": null, "updated_at": 1776749985332, "version": "1.0.0"}, {"category": "productivity", "created_at": 1773432476985, "description": "Helps users discover and install agent skills when they ask questions like \"how do I do X\", \"search a skill for X\", \"is there a skill that can...\", or expres...", "description_zh": "", "downloads": 102, "homepage": "https://clawhub.ai/openlang-cn/search-skills", "iconUrl": null, "installs": 8, "name": "Search Skills", "ownerName": "openlang-cn", "score": 76691.72932330826, "slug": "search-skills", "source": "clawhub", "stars": 0, "tags": null, "updated_at": 1776749984983, "version": "1.0.0"}, {"category": "developer-tools", "created_at": 1773429625018, "description": "Audit and safely repair OpenClaw configuration with deterministic validation, backups, rollback, and change reporting. Use when asked to review or modify `op...", "description_zh": "", "downloads": 101, "homepage": "https://clawhub.ai/soal2/openclaw-config-guard", "iconUrl": null, "installs": 3, "name": "Openclaw Config Guard", "ownerName": "soal2", "score": 22324.723247232472, "slug": "openclaw-config-guard", "source": "clawhub", "stars": 1, "tags": null, "updated_at": 1776750004860, "version": "1.0.0"}, {"category": "developer-tools", "created_at": 1773915157916, "description": "Schema-aware natural language database querying. Provide your CREATE TABLE definitions, ask questions in English, get executable SQL with JOINs, aggregations...", "description_zh": "", "downloads": 101, "homepage": "https://clawhub.ai/cyberforexblockchain/nexus-text-to-sql", "iconUrl": null, "installs": 8, "name": "NEXUS Schema-Aware SQL Generator", "ownerName": "cyberforexblockchain", "score": 190.9623747400265, "slug": "nexus-text-to-sql", "source": "clawhub", "stars": 0, "tags": ["ai", "cardano", "database", "sql"], "updated_at": 1776770771296, "version": "1.0.3"}]}