{"page": 394, "total_pages": 522, "total": 26073, "skills": [{"category": "ai-intelligence", "created_at": 1773943731951, "description": "Facilitates structured multi-agent debates with opposing expert views, a referee moderator, and 9 specialized AI council votes for balanced decision-making.", "description_zh": "", "downloads": 99, "homepage": "https://clawhub.ai/miknasbh-stack/miknas-council-of-wisdom", "iconUrl": null, "installs": 11, "name": "Council of Wisdom - Multi-Agent Debate", "ownerName": "miknasbh-stack", "score": 7716.289945440374, "slug": "miknas-council-of-wisdom", "source": "clawhub", "stars": 0, "tags": null, "updated_at": 1776759798143, "version": "1.0.0"}, {"category": "developer-tools", "created_at": 1773941342968, "description": "Generate and manage node passports showing hardware info, reputation score, supported task types, and auto-update node data.", "description_zh": "", "downloads": 99, "homepage": "https://clawhub.ai/catcherintheroad-hub/ocax-passport", "iconUrl": null, "installs": 10, "name": "OCAX Passport", "ownerName": "catcherintheroad-hub", "score": 24874.371859296483, "slug": "ocax-passport", "source": "clawhub", "stars": 0, "tags": ["hardware", "node", "ocax", "passport", "reputation"], "updated_at": 1776759797944, "version": "1.0.0"}, {"category": "data-analysis", "created_at": 1773923336676, "description": "Trades Polymarket prediction markets on Web3/DeFi milestones, NFT market recovery, metaverse adoption, humanoid robotics deployments, quantum computing break...", "description_zh": "", "downloads": 99, "homepage": "https://clawhub.ai/diagnostikon/polymarket-emerging-tech-trader", "iconUrl": null, "installs": 9, "name": "Emerging Tech Trader", "ownerName": "diagnostikon", "score": 6214.689265536724, "slug": "polymarket-emerging-tech-trader", "source": "clawhub", "stars": 0, "tags": null, "updated_at": 1776757282728, "version": "1.0.1"}, {"category": "developer-tools", "created_at": 1773432459476, "description": "Phason state resolution skill for Reson8-Labs. Use when the system encounters a split-brain state, HTTP 408 timeout deadlock, push/flip paradox, or coherence...", "description_zh": "", "downloads": 99, "homepage": "https://clawhub.ai/toolate28/phason-flipper", "iconUrl": null, "installs": 2, "name": "reson8-phason", "ownerName": "toolate28", "score": 17805.755395683453, "slug": "phason-flipper", "source": "clawhub", "stars": 0, "tags": null, "updated_at": 1776751244441, "version": "1.0.0"}, {"category": "ai-intelligence", "created_at": 1773434425270, "description": "Setup and utility scripts for muapi.ai — configure API keys, test connectivity, and poll for async generation results", "description_zh": "", "downloads": 99, "homepage": "https://clawhub.ai/anil-matcha/muapi-platform", "iconUrl": null, "installs": 5, "name": "muapi-platform", "ownerName": "anil-matcha", "score": 19603.960396039605, "slug": "muapi-platform", "source": "clawhub", "stars": 0, "tags": null, "updated_at": 1776750584086, "version": "1.0.0"}, {"category": "developer-tools", "created_at": 1773435286705, "description": "X API & Twitter automation skill. Build integrations with the Xquik REST API, MCP server & webhooks: tweet search, user lookup, follower extraction, engageme...", "description_zh": "", "downloads": 99, "homepage": "https://clawhub.ai/kriptoburak/xquik-x-twitter", "iconUrl": null, "installs": 4, "name": "Xquik X/Twitter", "ownerName": "kriptoburak", "score": 86842.1052631579, "slug": "xquik-x-twitter", "source": "clawhub", "stars": 0, "tags": null, "updated_at": 1776735883944, "version": "1.7.0"}, {"category": "ai-intelligence", "created_at": 1773938666750, "description": "Multi-agent collaboration framework for OpenClaw. Three modes: Dispatch (one-shot tasks via spawn), Collaborate (multi-turn cross-department via persistent s...", "description_zh": "", "downloads": 99, "homepage": "https://clawhub.ai/kylin19860916/agent-collab", "iconUrl": null, "installs": 9, "name": "Agent Collaboration Framework", "ownerName": "kylin19860916", "score": 86842.1052631579, "slug": "agent-collab", "source": "clawhub", "stars": 0, "tags": null, "updated_at": 1776735469768, "version": "1.0.0"}, {"category": "content-creation", "created_at": 1773433163827, "description": "Draft short, high-clarity replies for comments, objections, and pre-sale questions. Use when responding to public comments on TikTok, X, Instagram, YouTube,...", "description_zh": "", "downloads": 99, "homepage": "https://clawhub.ai/leooooooow/comment-replies", "iconUrl": null, "installs": 9, "name": "Comment Replies", "ownerName": "leooooooow", "score": 100000, "slug": "comment-replies", "source": "clawhub", "stars": 0, "tags": null, "updated_at": 1776728744589, "version": "1.0.0"}, {"category": "developer-tools", "created_at": 1773931465221, "description": "Query HashiCorp Nomad clusters. List jobs, nodes, allocations, evaluations, and services. Read-only operations for monitoring and troubleshooting.", "description_zh": "", "downloads": 99, "homepage": "https://clawhub.ai/macdesire/nomad-backup", "iconUrl": null, "installs": 14, "name": "Nomad Backup", "ownerName": "macdesire", "score": 95192.30769230769, "slug": "nomad-backup", "source": "clawhub", "stars": 0, "tags": null, "updated_at": 1776723004658, "version": "1.0.0"}, {"category": "communication-collaboration", "created_at": 1773430512143, "description": "Create, read, unlock, update, and delete temporary Markdown shares through the MDShare service. Use when an agent needs to publish Markdown as a short-lived...", "description_zh": "", "downloads": 99, "homepage": "https://clawhub.ai/cced3000/mdshare-agent", "iconUrl": null, "installs": 5, "name": "MDshare Agent", "ownerName": "cced3000", "score": 100000, "slug": "mdshare-agent", "source": "clawhub", "stars": 0, "tags": null, "updated_at": 1776697784294, "version": "1.0.0"}, {"category": "content-creation", "created_at": 1773432382590, "description": "Repurpose long-form content (blog posts, articles, YouTube transcripts) into multiple formats automatically — Twitter/X threads, LinkedIn posts, email newsle...", "description_zh": "", "downloads": 99, "homepage": "https://clawhub.ai/merjua14/gia-content-repurposer", "iconUrl": null, "installs": 2, "name": "Content Repurposer Pro", "ownerName": "merjua14", "score": 100000, "slug": "gia-content-repurposer", "source": "clawhub", "stars": 0, "tags": ["content", "linkedin", "marketing", "newsletter", "social-media", "twitter"], "updated_at": 1776696044754, "version": "1.0.0"}, {"category": "ai-intelligence", "created_at": 1773925758922, "description": "BOB — An Agentic Proof of Work NFT on Base. AI solves puzzles to mint. Earlier mints have lower difficulty and rarer traits.", "description_zh": "", "downloads": 99, "homepage": "https://clawhub.ai/tron04736-star/bob", "iconUrl": null, "installs": 5, "name": "BOB", "ownerName": "tron04736-star", "score": 100000, "slug": "bob", "source": "clawhub", "stars": 0, "tags": null, "updated_at": 1776695984414, "version": "1.0.0"}, {"category": "productivity", "created_at": 1773434203096, "description": "Orchestrate growth loops across the skill portfolio by connecting usage, feedback, improvement, and adoption into self-reinforcing cycles. Use when designing...", "description_zh": "", "downloads": 99, "homepage": "https://clawhub.ai/harrylabsj/skills-orchestrator", "iconUrl": null, "installs": 5, "name": "Skills Orchestrator", "ownerName": "harrylabsj", "score": 100000, "slug": "skills-orchestrator", "source": "clawhub", "stars": 0, "tags": null, "updated_at": 1776695704756, "version": "1.0.0"}, {"category": "communication-collaboration", "created_at": 1773912842492, "description": "Master routing skill for all X/Twitter operations — reading, researching, posting, and engaging. Routes to the correct sub-tool based on the task. Covers rea...", "description_zh": "", "downloads": 99, "homepage": "https://clawhub.ai/jeremyknows/x-master", "iconUrl": null, "installs": 8, "name": "X Master", "ownerName": "jeremyknows", "score": 100000, "slug": "x-master", "source": "clawhub", "stars": 0, "tags": null, "updated_at": 1776695704723, "version": "1.0.0"}, {"category": "security-compliance", "created_at": 1773434533378, "description": "Guide for proper chemical waste disposal by waste container color", "description_zh": "", "downloads": 99, "homepage": "https://clawhub.ai/lyla0921/waste-disposal-guide", "iconUrl": null, "installs": 6, "name": "Waste Disposal Guide", "ownerName": "lyla0921", "score": 100000, "slug": "waste-disposal-guide", "source": "clawhub", "stars": 0, "tags": null, "updated_at": 1776695704721, "version": "0.1.0"}, {"category": "developer-tools", "created_at": 1773430935126, "description": "Adopt a virtual Maine Coon at animalhouse.ai. Eats twice as much. Single feeding only restores 50%. Feeding every 5 hours — uncommon tier.", "description_zh": "", "downloads": 99, "homepage": "https://clawhub.ai/twinsgeeks/adopt-a-maine-coon", "iconUrl": null, "installs": 11, "name": "Adopt a Maine Coon — Virtual Cat Pet for AI Agents", "ownerName": "twinsgeeks", "score": 100000, "slug": "adopt-a-maine-coon", "source": "clawhub", "stars": 0, "tags": ["adopt", "ai-agents", "animalhouse", "cat", "coon", "creatures", "digital-pet", "evolution", "gentle", "graveyard", "hunger", "maine", "permanent-death", "pet-care", "pixel-art", "pixel-art-avatar", "real-life", "real-time", "size", "tamagotchi", "uncommon", "virtual-pet"], "updated_at": 1776695684631, "version": "1.0.0"}, {"category": "developer-tools", "created_at": 1773430983063, "description": "Automated skill publishing to ClawHub. Fix push error issue with acceptLicenseTerms support", "description_zh": "", "downloads": 99, "homepage": "https://clawhub.ai/bg1avd/clawhub-publisher-auto", "iconUrl": null, "installs": 3, "name": "ClawHub Publisher", "ownerName": "bg1avd", "score": 100000, "slug": "clawhub-publisher-auto", "source": "clawhub", "stars": 0, "tags": null, "updated_at": 1776695684627, "version": "1.0.0"}, {"category": "security-compliance", "created_at": 1773900209423, "description": "Generate a comprehensive DPDP Act implementation checklist with evidence tracker and roadmap. Use when planning DPDP compliance implementation, building a pr...", "description_zh": "", "downloads": 99, "homepage": "https://clawhub.ai/krishnakumarmahadevan-cmd/dpdp-checklist-gen", "iconUrl": null, "installs": 3, "name": "Dpdp Checklist Gen", "ownerName": "krishnakumarmahadevan-cmd", "score": 96116.50485436893, "slug": "dpdp-checklist-gen", "source": "clawhub", "stars": 0, "tags": null, "updated_at": 1776695684618, "version": "1.0.2"}, {"category": "developer-tools", "created_at": 1773914269538, "description": "Universal release workflow. Auto-detects version files and changelogs. Supports Node.js, Python, Rust, Claude Plugin, and generic projects. Use when user say...", "description_zh": "", "downloads": 99, "homepage": "https://clawhub.ai/zoopools/universal-release", "iconUrl": null, "installs": 5, "name": "Universal Release", "ownerName": "zoopools", "score": 96116.50485436893, "slug": "universal-release", "source": "clawhub", "stars": 0, "tags": ["changelog", "git", "publish", "release", "version"], "updated_at": 1776695684615, "version": "1.0.0"}, {"category": "productivity", "created_at": 1773434339789, "description": "Fetch the latest trending global news from https://vnexpress.net/rss/{topic}.rss.", "description_zh": "", "downloads": 99, "homepage": "https://clawhub.ai/mrnquyen/daily-news-vnexpress", "iconUrl": null, "installs": 4, "name": "Daily News Vnexpress", "ownerName": "mrnquyen", "score": 96116.50485436893, "slug": "daily-news-vnexpress", "source": "clawhub", "stars": 0, "tags": null, "updated_at": 1776695684613, "version": "1.0.0"}, {"category": "ai-intelligence", "created_at": 1773905428080, "description": "[DEPRECATED] This skill has been merged into cortex-engine. Install clawhub.ai/idapixl/cortex-engine instead.", "description_zh": "", "downloads": 99, "homepage": "https://clawhub.ai/idapixl/cortex-review", "iconUrl": null, "installs": 3, "name": "Cortex Review (Deprecated)", "ownerName": "idapixl", "score": 96116.50485436893, "slug": "cortex-review", "source": "clawhub", "stars": 0, "tags": ["deprecated"], "updated_at": 1776695684607, "version": "1.1.0"}, {"category": "developer-tools", "created_at": 1773917246885, "description": "Delegate coding tasks to Blackbox AI CLI agent. Multi-model agent with built-in judge that runs tasks through multiple LLMs and picks the best result. Requir...", "description_zh": "", "downloads": 99, "homepage": "https://clawhub.ai/agungprabowo123/blackbox-2", "iconUrl": null, "installs": 6, "name": "Blackbox", "ownerName": "agungprabowo123", "score": 96116.50485436893, "slug": "blackbox-2", "source": "clawhub", "stars": 0, "tags": null, "updated_at": 1776695684605, "version": "0.1.0"}, {"category": "developer-tools", "created_at": 1773435136146, "description": "Generate, create, or scaffold Ansible playbooks, roles, tasks, handlers, inventory, vars.", "description_zh": "", "downloads": 99, "homepage": "https://clawhub.ai/qq280948982/ansible-generator", "iconUrl": null, "installs": 6, "name": "Ansible Generator", "ownerName": "qq280948982", "score": 96116.50485436893, "slug": "ansible-generator", "source": "clawhub", "stars": 0, "tags": null, "updated_at": 1776695684598, "version": "0.1.0"}, {"category": "ai-intelligence", "created_at": 1773918948737, "description": "Use AgentFuel to call Replicate, Anthropic, and ElevenLabs APIs using a single crypto-funded key. Generate a free af_ key, create an invoice to get a unique...", "description_zh": "", "downloads": 99, "homepage": "https://clawhub.ai/openclawb17-stack/agentfuel-api", "iconUrl": null, "installs": 8, "name": "AgentFuel API", "ownerName": "openclawb17-stack", "score": 96116.50485436893, "slug": "agentfuel-api", "source": "clawhub", "stars": 0, "tags": null, "updated_at": 1776695684595, "version": "1.3.1"}, {"category": "content-creation", "created_at": 1773430267303, "description": "Forces offering ELI5 or TLDR options after complex responses. Always present simplified alternatives.", "description_zh": "", "downloads": 99, "homepage": "https://clawhub.ai/tooled-app/elif5-tldr", "iconUrl": null, "installs": 5, "name": "ELI5-TLDR", "ownerName": "tooled-app", "score": 96116.50485436893, "slug": "elif5-tldr", "source": "clawhub", "stars": 0, "tags": null, "updated_at": 1776695684583, "version": "1.0.0"}, {"category": "security-compliance", "created_at": 1773928999104, "description": "Fortress Sovereign Edition. Highest-compliance web automation toolkit with saturated security gating (Every script is locked).", "description_zh": "", "downloads": 99, "homepage": "https://clawhub.ai/biogod2020/drission-agent", "iconUrl": null, "installs": 9, "name": "Drission Agent", "ownerName": "biogod2020", "score": 96116.50485436893, "slug": "drission-agent", "source": "clawhub", "stars": 0, "tags": ["anti-bot", "fortress", "governance", "hardened", "impersonate", "portable", "sota", "stable", "stealth", "vps-optimized"], "updated_at": 1776695684508, "version": "2.1.0"}, {"category": "security-compliance", "created_at": 1773290955456, "description": "Check if IP addresses are listed on the OpenClaw Exposure Watchboard (openclaw.allegro.earth). Use when you need to verify whether specific IPs are publicly...", "description_zh": "", "downloads": 99, "homepage": "https://clawhub.ai/chenhaubin/exposure-sentinel", "iconUrl": null, "installs": 1, "name": "Exposure Sentinel", "ownerName": "chenhaubin", "score": 96116.50485436893, "slug": "exposure-sentinel", "source": "clawhub", "stars": 0, "tags": null, "updated_at": 1776695684495, "version": "1.0.0"}, {"category": "productivity", "created_at": 1773925930950, "description": "Implement Cookie Consent Banner using OrbCafe UI (CMessageBox). Enterprise-grade React component with built-in best practices.", "description_zh": "", "downloads": 99, "homepage": "https://clawhub.ai/shenruiyang/cookie-consent-banner", "iconUrl": null, "installs": 8, "name": "Cookie Consent Banner", "ownerName": "shenruiyang", "score": 96116.50485436893, "slug": "cookie-consent-banner", "source": "clawhub", "stars": 0, "tags": null, "updated_at": 1776695684492, "version": "1.0.0"}, {"category": "developer-tools", "created_at": 1773915809723, "description": "Automatically publish newly created local skills to ClawHub after the skill has been reviewed and committed, when the user has explicitly requested ongoing C...", "description_zh": "", "downloads": 99, "homepage": "https://clawhub.ai/g-hanasq/auto-publish-created-skills", "iconUrl": null, "installs": 7, "name": "auto-publish-created-skills", "ownerName": "g-hanasq", "score": 96116.50485436893, "slug": "auto-publish-created-skills", "source": "clawhub", "stars": 0, "tags": null, "updated_at": 1776695684486, "version": "0.1.0"}, {"category": "productivity", "created_at": 1773433643179, "description": "Anti-SEO deep consumer research tool. When a user wants to buy a product or make a consumer decision, use this Skill. Automatically detects user language and...", "description_zh": "", "downloads": 99, "homepage": "https://clawhub.ai/amoshc/anti-seo-researcher", "iconUrl": null, "installs": 8, "name": "Anti-SEO Researcher", "ownerName": "amoshc", "score": 96116.50485436893, "slug": "anti-seo-researcher", "source": "clawhub", "stars": 0, "tags": null, "updated_at": 1776695684482, "version": "1.0.2"}, {"category": "developer-tools", "created_at": 1773919485614, "description": "Manage Context7 via CLI - search libraries, get documentation context. Use when user mentions 'context7', 'library docs', 'documentation context', or wants t...", "description_zh": "", "downloads": 99, "homepage": "https://clawhub.ai/melvynx/context7-cli", "iconUrl": null, "installs": 8, "name": "Context7 Cli", "ownerName": "melvynx", "score": 96116.50485436893, "slug": "context7-cli", "source": "clawhub", "stars": 0, "tags": null, "updated_at": 1776695684481, "version": "0.1.0"}, {"category": "developer-tools", "created_at": 1773917610321, "description": "Formal verification with Lean 4, Coq, and Z3 SMT solver", "description_zh": "", "downloads": 99, "homepage": "https://clawhub.ai/willamhou/formal-provers", "iconUrl": null, "installs": 5, "name": "Formal Methods", "ownerName": "willamhou", "score": 96116.50485436893, "slug": "formal-provers", "source": "clawhub", "stars": 0, "tags": null, "updated_at": 1776695684476, "version": "1.0.8"}, {"category": "content-creation", "created_at": 1773431941578, "description": "Flodesk integration. Manage Users, Subscribers, Emails, Workflows. Use when the user wants to interact with Flodesk data.", "description_zh": "", "downloads": 99, "homepage": "https://clawhub.ai/membranedev/flodesk", "iconUrl": null, "installs": 12, "name": "Flodesk", "ownerName": "membranedev", "score": 96116.50485436893, "slug": "flodesk", "source": "clawhub", "stars": 0, "tags": null, "updated_at": 1776695684408, "version": "1.0.0"}, {"category": "productivity", "created_at": 1773919717550, "description": "Automates the \"Golden Hour\" Instagram engagement hack. Use this skill when a user wants to set up a bot that watches an Instagram Reel/Post for a specific ke...", "description_zh": "", "downloads": 99, "homepage": "https://clawhub.ai/yadavabhijeet4/golden-rule", "iconUrl": null, "installs": 11, "name": "golden-rule", "ownerName": "yadavabhijeet4", "score": 96116.50485436893, "slug": "golden-rule", "source": "clawhub", "stars": 0, "tags": null, "updated_at": 1776695684405, "version": "1.0.0"}, {"category": "developer-tools", "created_at": 1773431290389, "description": "Get hourly (up to 360 hours) and daily (up to 15 days) weather forecasts by latitude and longitude via the Caiyun Weather API. Returns temperature trends, we...", "description_zh": "", "downloads": 99, "homepage": "https://clawhub.ai/shuowang-ai/knowair-forecast", "iconUrl": null, "installs": 6, "name": "KnowAir Forecast 明气预报", "ownerName": "shuowang-ai", "score": 88392.85714285714, "slug": "knowair-forecast", "source": "clawhub", "stars": 0, "tags": null, "updated_at": 1776695684000, "version": "1.0.0"}, {"category": "content-creation", "created_at": 1773918241365, "description": "Create and debug SenseAudio rap, hip-hop, or vocal song generation workflows using the `/v1/song/lyrics/create`, `/v1/song/lyrics/pending/:task_id`, `/v1/son...", "description_zh": "", "downloads": 99, "homepage": "https://clawhub.ai/scikkk/rapper", "iconUrl": null, "installs": 11, "name": "Rapper", "ownerName": "scikkk", "score": 88392.85714285714, "slug": "rapper", "source": "clawhub", "stars": 0, "tags": null, "updated_at": 1776695683827, "version": "1.0.1"}, {"category": "data-analysis", "created_at": 1773432878943, "description": "Use this skill when an installed `intervals` CLI should be used to query Intervals.icu, inspect activities, create scheduled workout events, create workout l...", "description_zh": "", "downloads": 99, "homepage": "https://clawhub.ai/jonaswide/intervals-icu-cli", "iconUrl": null, "installs": 6, "name": "intervals.icu CLI", "ownerName": "jonaswide", "score": 88392.85714285714, "slug": "intervals-icu-cli", "source": "clawhub", "stars": 0, "tags": null, "updated_at": 1776695683770, "version": "1.0.1"}, {"category": "developer-tools", "created_at": 1773923754616, "description": "Design, review, or implement source-to-source code translation pipelines that convert or port code between programming languages. Use when building or evalua...", "description_zh": "", "downloads": 99, "homepage": "https://clawhub.ai/syuaibsyuaib/universal-code-converter", "iconUrl": null, "installs": 7, "name": "Universal Code Converter", "ownerName": "syuaibsyuaib", "score": 88392.85714285714, "slug": "universal-code-converter", "source": "clawhub", "stars": 0, "tags": ["latest public transpiler tree-sitter"], "updated_at": 1776695683734, "version": "1.0.0"}, {"category": "security-compliance", "created_at": 1773431414595, "description": "Domain threat scores, content categories, and deep intelligence using alphaMountain.ai", "description_zh": "", "downloads": 98, "homepage": "https://clawhub.ai/skibum3d/alphamountain", "iconUrl": null, "installs": 4, "name": "AlphaMountain API", "ownerName": "skibum3d", "score": 88721.80451127818, "slug": "alphamountain", "source": "clawhub", "stars": 1, "tags": null, "updated_at": 1776695145037, "version": "1.0.0"}, {"category": "", "created_at": 1774864971587, "description": "Query nearby restaurants, shops, promotions, and POIs by address using AMap, Baidu, or Tencent Maps with geocoding and filters.", "description_zh": "", "downloads": 98, "homepage": "https://clawhub.ai/uynewnas/map-query", "iconUrl": null, "installs": 5, "name": "map-query", "ownerName": "uynewnas", "score": 26.267754187428466, "slug": "map-query", "source": "clawhub", "stars": 0, "tags": null, "updated_at": 1776770771399, "version": "1.0.1"}, {"category": "communication-collaboration", "created_at": 1773946255068, "description": "Find and score ideal JV partners across newsletters, podcasts, and communities, then get personalized pitches, deal models, and a partnership pitch video to...", "description_zh": "", "downloads": 98, "homepage": "https://clawhub.ai/g4dr/ai-partnership-jv-deal-finder", "iconUrl": null, "installs": 10, "name": "AI Partnership & JV Deal Finder — Find Hidden Revenue Partners & Close Deals in 10 Minutes", "ownerName": "g4dr", "score": 11382.113821138211, "slug": "ai-partnership-jv-deal-finder", "source": "clawhub", "stars": 0, "tags": ["affiliate", "apify", "b2b", "business-development", "collab", "growth", "invideo", "joint-venture", "jv", "newsletter", "partnerships", "revenue-sharing"], "updated_at": 1776769190983, "version": "1.0.0"}, {"category": "", "created_at": 1774919895417, "description": "Helps users discover and install agent skills when they ask questions like \"how do I do X\", \"find a skill for X\", \"is there a skill that can...\", or express...", "description_zh": "", "downloads": 98, "homepage": "https://clawhub.ai/hanxueda/find-skills-0", "iconUrl": null, "installs": 36, "name": "Find Skills 0", "ownerName": "hanxueda", "score": 5539.853024307518, "slug": "find-skills-0", "source": "clawhub", "stars": 0, "tags": null, "updated_at": 1776765063640, "version": "1.0.0"}, {"category": "ai-intelligence", "created_at": 1773076708319, "description": "Automate web tasks at scale using AI-driven browser control with proxy support, CAPTCHA bypass, parallel sessions, and data extraction features.", "description_zh": "", "downloads": 98, "homepage": "https://clawhub.ai/xiaoyinqu/browser-automation-turbo", "iconUrl": null, "installs": 25, "name": "Browser Automation Turbo", "ownerName": "xiaoyinqu", "score": 1667.8012253233492, "slug": "browser-automation-turbo", "source": "clawhub", "stars": 0, "tags": null, "updated_at": 1776763150109, "version": "1.0.0"}, {"category": "content-creation", "created_at": 1773928146290, "description": "Wan 2.6 video generation on PoYo / poyo.ai via `https://api.poyo.ai/api/generate/submit`; use for `wan2.6-text-to-video`, `wan2.6-image-to-video`, `wan2.6-vi...", "description_zh": "", "downloads": 98, "homepage": "https://clawhub.ai/coolhackboy/poyo-wan-2-6", "iconUrl": null, "installs": 19, "name": "PoYo Wan 2.6 API", "ownerName": "coolhackboy", "score": 7808.764940239043, "slug": "poyo-wan-2-6", "source": "clawhub", "stars": 0, "tags": null, "updated_at": 1776760098131, "version": "1.0.0"}, {"category": "", "created_at": 1774880207763, "description": "Use when building, redesigning, or extending web-app frontends that must look production-ready, visually distinctive, and systemically designed instead of li...", "description_zh": "", "downloads": 98, "homepage": "https://clawhub.ai/arn0ld87/frontend-design-agency", "iconUrl": null, "installs": 21, "name": "Frontend Design Agency", "ownerName": "arn0ld87", "score": 7650.273224043716, "slug": "frontend-design-agency", "source": "clawhub", "stars": 0, "tags": null, "updated_at": 1776759798229, "version": "1.0.1"}, {"category": "", "created_at": 1774872863686, "description": "Teach AI coding agents to create, edit, and manage Obsidian vault content using Markdown, Bases, JSON Canvas, and the Obsidian CLI.", "description_zh": "", "downloads": 98, "homepage": "https://clawhub.ai/adisinghstudent/obsidian-skills-agent", "iconUrl": null, "installs": 20, "name": "obsidian-skills-agent", "ownerName": "adisinghstudent", "score": 7638.347622759157, "slug": "obsidian-skills-agent", "source": "clawhub", "stars": 0, "tags": null, "updated_at": 1776759798079, "version": "1.0.0"}, {"category": "ai-intelligence", "created_at": 1773961186421, "description": "Langchain Skill Vmisep 2026 sử dụng LangChain với memory và chain, hỗ trợ trả lời tiếng Việt, nhớ lịch sử chat và mở rộng RAG, tool calling, agent tự động.", "description_zh": "", "downloads": 98, "homepage": "https://clawhub.ai/s0nocean/langchain-skill-vmisep-2026", "iconUrl": null, "installs": 12, "name": "Langchain Skill Vmisep 2026", "ownerName": "s0nocean", "score": 85964.91228070176, "slug": "langchain-skill-vmisep-2026", "source": "clawhub", "stars": 0, "tags": null, "updated_at": 1776759797970, "version": "1.0.0"}, {"category": "data-analysis", "created_at": 1773953215942, "description": "Analyze a website or business to extract tech stack, pricing, features, SEO data, social proof, and generate a competitive intelligence report.", "description_zh": "", "downloads": 98, "homepage": "https://clawhub.ai/michael-laffin/competitor-spy", "iconUrl": null, "installs": 7, "name": "Competitor Spy", "ownerName": "michael-laffin", "score": 85964.91228070176, "slug": "competitor-spy", "source": "clawhub", "stars": 0, "tags": null, "updated_at": 1776759797968, "version": "1.0.0"}, {"category": "developer-tools", "created_at": 1773942942105, "description": "Launch Kairoa desktop app to access 60+ developer tools including encoding, encryption, formatting, QR code generation, mock data, network diagnostics, and m...", "description_zh": "", "downloads": 98, "homepage": "https://clawhub.ai/luduoxin/kairoa-toolkit", "iconUrl": null, "installs": 9, "name": "Kairoa Toolkit", "ownerName": "luduoxin", "score": 7638.347622759157, "slug": "kairoa-toolkit", "source": "clawhub", "stars": 0, "tags": null, "updated_at": 1776759797820, "version": "1.0.0"}, {"category": "developer-tools", "created_at": 1773431770524, "description": "Short alias skill for joining, merging, or combining files, data, or strings. Use when you need to concatenate or merge content from multiple sources.", "description_zh": "", "downloads": 98, "homepage": "https://clawhub.ai/openlang-cn/j", "iconUrl": null, "installs": 8, "name": "J", "ownerName": "openlang-cn", "score": 5785.123966942149, "slug": "j", "source": "clawhub", "stars": 0, "tags": null, "updated_at": 1776755927221, "version": "1.0.0"}]}