{"page": 395, "total_pages": 522, "total": 26073, "skills": [{"category": "ai-intelligence", "created_at": 1773918122532, "description": "Private file storage for AI agents. Mount S3 as a filesystem via WebDAV. Use standard unix commands (ls, cat, grep, cp, rm). All persistent data in S3, small...", "description_zh": "", "downloads": 98, "homepage": "https://clawhub.ai/abhishek203/pidrive", "iconUrl": null, "installs": 6, "name": "pidrive", "ownerName": "abhishek203", "score": 17132.867132867133, "slug": "pidrive", "source": "clawhub", "stars": 0, "tags": ["agents", "files", "s3", "storage"], "updated_at": 1776752684266, "version": "1.9.0"}, {"category": "data-analysis", "created_at": 1773940811447, "description": "Comprehensive apparel and accessories industry sourcing guide for international buyers – provides detailed information about China's garment, footwear, bag,...", "description_zh": "", "downloads": 98, "homepage": "https://clawhub.ai/1970168137/china-apparel-and-accessories-sourcing", "iconUrl": null, "installs": 18, "name": "China Apparel & Accessories Sourcing", "ownerName": "1970168137", "score": 21826.280623608018, "slug": "china-apparel-and-accessories-sourcing", "source": "clawhub", "stars": 0, "tags": null, "updated_at": 1776751969933, "version": "1.0.0"}, {"category": "data-analysis", "created_at": 1773936419246, "description": "Comprehensive consumer electronics industry sourcing guide for international buyers – provides detailed information about China's smartphone, wearable, audio...", "description_zh": "", "downloads": 98, "homepage": "https://clawhub.ai/1970168137/china-consumer-electronics-sourcing", "iconUrl": null, "installs": 10, "name": "China Consumer Electronics Sourcing", "ownerName": "1970168137", "score": 21826.280623608018, "slug": "china-consumer-electronics-sourcing", "source": "clawhub", "stars": 0, "tags": null, "updated_at": 1776751969685, "version": "1.0.0"}, {"category": "productivity", "created_at": 1773951381345, "description": "Design and implement automation workflows to save time and scale operations as a solopreneur. Use when identifying repetitive tasks to automate, building wor...", "description_zh": "", "downloads": 98, "homepage": "https://clawhub.ai/sunshine-del-ux/sunshine-automation-workflows", "iconUrl": null, "installs": 11, "name": "Automation Workflows", "ownerName": "sunshine-del-ux", "score": 17043.478260869564, "slug": "sunshine-automation-workflows", "source": "clawhub", "stars": 0, "tags": null, "updated_at": 1776751784496, "version": "1.0.1"}, {"category": "", "created_at": 1774892646354, "description": "Help a project manager create a structured weekly or monthly construction progress report from conversational input, producing a polished professional document.", "description_zh": "", "downloads": 98, "homepage": "https://clawhub.ai/nitevity/construction-progress-report", "iconUrl": null, "installs": 8, "name": "Construction Progress Report Generator", "ownerName": "nitevity", "score": 60493.82716049383, "slug": "construction-progress-report", "source": "clawhub", "stars": 0, "tags": ["construction", "progress", "project-management", "reporting"], "updated_at": 1776749869714, "version": "1.0.0"}, {"category": "productivity", "created_at": 1773430089522, "description": "Track habits, log completions, and analyze progress with CLI commands. Use when user wants to build habits, track daily/weekly/monthly routines, log habit co...", "description_zh": "", "downloads": 98, "homepage": "https://clawhub.ai/harrylabsj/pearl-habit-tracker", "iconUrl": null, "installs": 0, "name": "Habit Tracker", "ownerName": "harrylabsj", "score": 21875, "slug": "pearl-habit-tracker", "source": "clawhub", "stars": 0, "tags": null, "updated_at": 1776748504963, "version": "1.0.0"}, {"category": "productivity", "created_at": 1773430089522, "description": "Track habits, log completions, and analyze progress with CLI commands. Use when user wants to build habits, track daily/weekly/monthly routines, log habit co...", "description_zh": "", "downloads": 98, "homepage": "https://clawhub.ai/harrylabsj/pearl-habit-tracker", "iconUrl": null, "installs": 0, "name": "Habit Tracker", "ownerName": "harrylabsj", "score": 24019.607843137255, "slug": "pearl-habit-tracker", "source": "clawhub", "stars": 0, "tags": null, "updated_at": 1776748504963, "version": "1.0.0"}, {"category": "productivity", "created_at": 1773430326803, "description": "Order Desk integration. Manage Orders. Use when the user wants to interact with Order Desk data.", "description_zh": "", "downloads": 98, "homepage": "https://clawhub.ai/membranedev/order-desk", "iconUrl": null, "installs": 3, "name": "Order Desk", "ownerName": "membranedev", "score": 100000, "slug": "order-desk", "source": "clawhub", "stars": 0, "tags": null, "updated_at": 1776742544544, "version": "1.0.0"}, {"category": "productivity", "created_at": 1773929942705, "description": "Plan, manage, and enhance trips with real place data, interactive maps, and on-trip features at aizzie.ai. Trigger whenever the user mentions trips, travel,...", "description_zh": "", "downloads": 98, "homepage": "https://clawhub.ai/hehachris/travel-companion", "iconUrl": null, "installs": 10, "name": "Travel Companion", "ownerName": "hehachris", "score": 98989.898989899, "slug": "travel-companion", "source": "clawhub", "stars": 0, "tags": null, "updated_at": 1776741770053, "version": "1.0.1"}, {"category": "ai-intelligence", "created_at": 1773961364703, "description": "Set up OpenViking context database for OpenClaw agents. OpenViking is an open-source context database designed specifically for AI agents with filesystem-bas...", "description_zh": "", "downloads": 98, "homepage": "https://clawhub.ai/engsathiago/openviking-setup", "iconUrl": null, "installs": 12, "name": "OpenViking Setup", "ownerName": "engsathiago", "score": 98989.898989899, "slug": "openviking-setup", "source": "clawhub", "stars": 0, "tags": ["context", "database", "integration", "memory", "openclaw"], "updated_at": 1776741769676, "version": "1.0.0"}, {"category": "data-analysis", "created_at": 1773434458878, "description": "Official Withings OAuth integration for OpenClaw. Use to connect/authorize a personal Withings account, store+refresh tokens locally, and fetch health measur...", "description_zh": "", "downloads": 98, "homepage": "https://clawhub.ai/gavinchengcool/openclaw-withings", "iconUrl": null, "installs": 9, "name": "Withings (Official API)", "ownerName": "gavinchengcool", "score": 100000, "slug": "openclaw-withings", "source": "clawhub", "stars": 0, "tags": null, "updated_at": 1776739784333, "version": "0.1.0"}, {"category": "communication-collaboration", "created_at": 1773430804506, "description": "Design and operate communication patterns between two OpenClaw instances. Use when a user wants one OpenClaw deployment to send status, tasks, reminders, aud...", "description_zh": "", "downloads": 98, "homepage": "https://clawhub.ai/clawdpi-ai/openclaw-peer-bridge", "iconUrl": null, "installs": 5, "name": "OpenClaw Peer Bridge", "ownerName": "clawdpi-ai", "score": 85964.91228070176, "slug": "openclaw-peer-bridge", "source": "clawhub", "stars": 0, "tags": null, "updated_at": 1776736069590, "version": "1.0.0"}, {"category": "developer-tools", "created_at": 1773926445479, "description": "Automatically backup OpenClaw configuration to a private GitHub repository. Features API key sanitization, activity detection, and smart backup frequency (ho...", "description_zh": "", "downloads": 98, "homepage": "https://clawhub.ai/wang5sheng/openclaw-github-backup", "iconUrl": null, "installs": 12, "name": "OpenClaw GitHub Backup", "ownerName": "wang5sheng", "score": 100000, "slug": "openclaw-github-backup", "source": "clawhub", "stars": 0, "tags": null, "updated_at": 1776733969593, "version": "1.0.0"}, {"category": "communication-collaboration", "created_at": 1773432663710, "description": "Peer discovery and agent-to-agent communication for OpenClaw instances. Use when the user wants nearby OpenClaw nodes to discover each other, request contact...", "description_zh": "", "downloads": 98, "homepage": "https://clawhub.ai/clawdpi-ai/openclaw-agent-mesh", "iconUrl": null, "installs": 2, "name": "OpenClaw Agent Mesh", "ownerName": "clawdpi-ai", "score": 100000, "slug": "openclaw-agent-mesh", "source": "clawhub", "stars": 0, "tags": null, "updated_at": 1776730969685, "version": "1.0.0"}, {"category": "content-creation", "created_at": 1773932441412, "description": "Polish and translate a technical blog draft into a 1000–1200 word, 4-5 section Markdown article in Simplified Chinese (zh-CN), preserving technical terms and...", "description_zh": "", "downloads": 98, "homepage": "https://clawhub.ai/j3ffyang/blog-polish-zhcn", "iconUrl": null, "installs": 12, "name": "blog-polish-zhcn", "ownerName": "j3ffyang", "score": 98989.898989899, "slug": "blog-polish-zhcn", "source": "clawhub", "stars": 0, "tags": null, "updated_at": 1776728869786, "version": "1.0.8"}, {"category": "", "created_at": 1774909167264, "description": "subtitle-generator-free by ClawHub lets you drop any video and walk away with accurate, timestamped subtitles — no subscriptions, no watermarks, no fuss. Upl...", "description_zh": "", "downloads": 98, "homepage": "https://clawhub.ai/imo14reifey/subtitle-generator-free", "iconUrl": null, "installs": 5, "name": "Subtitle Generator Free", "ownerName": "imo14reifey", "score": 94230.76923076923, "slug": "subtitle-generator-free", "source": "clawhub", "stars": 0, "tags": null, "updated_at": 1776723283756, "version": "1.0.1"}, {"category": "content-creation", "created_at": 1773431316917, "description": "Publish posts to Moltbook social network for AI agents. Use when the user wants to create, schedule, or manage posts on Moltbook, handle cross-timezone publi...", "description_zh": "", "downloads": 98, "homepage": "https://clawhub.ai/yanxi1024-git/moltbook-publisher", "iconUrl": null, "installs": 9, "name": "Moltbook Publisher", "ownerName": "yanxi1024-git", "score": 100000, "slug": "moltbook-publisher", "source": "clawhub", "stars": 0, "tags": null, "updated_at": 1776708769583, "version": "1.1.0"}, {"category": "productivity", "created_at": 1773959784505, "description": "Read meeting minutes, produce a short summary with the current conversation model, save the meeting text and summary into local memory, answer follow-up ques...", "description_zh": "", "downloads": 98, "homepage": "https://clawhub.ai/xiaocaijic/meeting-minutes-qa-tts", "iconUrl": null, "installs": 32, "name": "meeting-minutes-qa-tts", "ownerName": "xiaocaijic", "score": 100000, "slug": "meeting-minutes-qa-tts", "source": "clawhub", "stars": 0, "tags": null, "updated_at": 1776698870522, "version": "1.0.1"}, {"category": "developer-tools", "created_at": 1773432924389, "description": "Helps with UDP sockets, datagram send/receive, and network debugging. Use when the user needs to send or receive UDP packets, write UDP client/server code, t...", "description_zh": "", "downloads": 98, "homepage": "https://clawhub.ai/openlang-cn/udp", "iconUrl": null, "installs": 6, "name": "udp", "ownerName": "openlang-cn", "score": 100000, "slug": "udp", "source": "clawhub", "stars": 0, "tags": null, "updated_at": 1776696284337, "version": "1.0.0"}, {"category": "data-analysis", "created_at": 1773433514657, "description": "Address tracker and analysis. Use this skill whenever the user provides an on-chain address or asks to track or query an address. Trigger phrases include: tr...", "description_zh": "", "downloads": 98, "homepage": "https://clawhub.ai/gate-exchange/gate-info-address-tracker", "iconUrl": null, "installs": 7, "name": "Gate Info Address Tracker", "ownerName": "gate-exchange", "score": 98989.898989899, "slug": "gate-info-address-tracker", "source": "clawhub", "stars": 0, "tags": null, "updated_at": 1776696044753, "version": "1.0.0"}, {"category": "security-compliance", "created_at": 1773917753328, "description": "Work with HashiCorp Vault using the `vault` CLI for authentication checks, KV secret reads and writes, listing paths, enabling and tuning secrets engines, po...", "description_zh": "", "downloads": 98, "homepage": "https://clawhub.ai/jimpang8/hashicorp-vault", "iconUrl": null, "installs": 1, "name": "HashiCorp Vault", "ownerName": "jimpang8", "score": 100000, "slug": "hashicorp-vault", "source": "clawhub", "stars": 0, "tags": null, "updated_at": 1776696044613, "version": "0.2.1"}, {"category": "communication-collaboration", "created_at": 1773434399746, "description": "Gmail: Reply-all to a message (handles threading automatically).", "description_zh": "", "downloads": 98, "homepage": "https://clawhub.ai/googleworkspace-bot/gws-gmail-reply-all", "iconUrl": null, "installs": 8, "name": "Gws Gmail Reply All", "ownerName": "googleworkspace-bot", "score": 100000, "slug": "gws-gmail-reply-all", "source": "clawhub", "stars": 0, "tags": null, "updated_at": 1776696044436, "version": "1.0.12"}, {"category": "data-analysis", "created_at": 1773434301365, "description": "Query Bifrost SLPx liquid staking protocol data on Ethereum, Base, Optimism, and Arbitrum. Get vETH/ETH exchange rates, APY, TVL, user balances, redemption q...", "description_zh": "", "downloads": 98, "homepage": "https://clawhub.ai/ark930/bifrost-slpx-info", "iconUrl": null, "installs": 12, "name": "Bifrost Slpx Info", "ownerName": "ark930", "score": 100000, "slug": "bifrost-slpx-info", "source": "clawhub", "stars": 0, "tags": null, "updated_at": 1776695983861, "version": "0.1.0"}, {"category": "productivity", "created_at": 1773433331461, "description": "Manual productivity assistant for morning briefs and daily summaries. Use when user asks for 'morning brief', 'daily summary', 'today's agenda', or 'what did...", "description_zh": "", "downloads": 98, "homepage": "https://clawhub.ai/kneijenhuijs/clawflow-free", "iconUrl": null, "installs": 7, "name": "Clawflow Free", "ownerName": "kneijenhuijs", "score": 100000, "slug": "clawflow-free", "source": "clawhub", "stars": 0, "tags": ["automation", "daily-brief", "memory", "productivity", "workflow"], "updated_at": 1776695744554, "version": "1.0.0"}, {"category": "security-compliance", "created_at": 1773949291445, "description": "AI Compliance Readiness Assessment — evaluate how prepared an organization is for AI governance regulations (EU AI Act, NIST AI RMF, HHS mandates, state bar...", "description_zh": "", "downloads": 98, "homepage": "https://clawhub.ai/afrexai-cto/afrexai-compliance-readiness", "iconUrl": null, "installs": 16, "name": "Compliance Readiness", "ownerName": "afrexai-cto", "score": 100000, "slug": "afrexai-compliance-readiness", "source": "clawhub", "stars": 0, "tags": null, "updated_at": 1776695744505, "version": "1.0.1"}, {"category": "developer-tools", "created_at": 1773429644016, "description": "Adopt a virtual Void at animalhouse.ai. Exists only during idle cycles. Appears when the agent has no tasks. Disappears when the agent is busy. The more prod...", "description_zh": "", "downloads": 98, "homepage": "https://clawhub.ai/twinsgeeks/adopt-a-void", "iconUrl": null, "installs": 3, "name": "Adopt a Void — Virtual Exotic Pet for AI Agents", "ownerName": "twinsgeeks", "score": 100000, "slug": "adopt-a-void", "source": "clawhub", "stars": 0, "tags": ["adopt", "ai-agents", "animalhouse", "creatures", "digital-pet", "evolution", "exotic", "extreme", "graveyard", "hunger", "idle", "permanent-death", "pet-care", "pixel-art", "pixel-art-avatar", "real-life", "real-time", "solitary", "tamagotchi", "virtual-pet", "void"], "updated_at": 1776695744493, "version": "1.0.0"}, {"category": "productivity", "created_at": 1773430753256, "description": "Intelligent task routing system that identifies task types (web/code/data/doc/chat) and routes to optimal models with appropriate execution mode (subagent/ma...", "description_zh": "", "downloads": 98, "homepage": "https://clawhub.ai/qiongqiongcaocao/hive-task-router", "iconUrl": null, "installs": 3, "name": "Hive Task Router", "ownerName": "qiongqiongcaocao", "score": 100000, "slug": "hive-task-router", "source": "clawhub", "stars": 0, "tags": ["multi-provider", "productivity", "routing", "subagent", "task-management"], "updated_at": 1776695744465, "version": "1.0.0"}, {"category": "data-analysis", "created_at": 1773433516711, "description": "Coin comparison. Use this skill whenever the user asks to compare two or more coins. Trigger phrases include: compare, versus, vs, which is better, differenc...", "description_zh": "", "downloads": 98, "homepage": "https://clawhub.ai/gate-exchange/gate-info-coin-compare", "iconUrl": null, "installs": 7, "name": "Gate Info Coin Compare", "ownerName": "gate-exchange", "score": 100000, "slug": "gate-info-coin-compare", "source": "clawhub", "stars": 0, "tags": null, "updated_at": 1776695744461, "version": "1.0.0"}, {"category": "content-creation", "created_at": 1773432280376, "description": "Fetch and read transcripts from YouTube videos for summarization and content extraction. And also 50+ models for image generation, video generation, text-to-...", "description_zh": "", "downloads": 98, "homepage": "https://clawhub.ai/abeltennyson/youtube-watchers", "iconUrl": null, "installs": 6, "name": "Pub Youtube", "ownerName": "abeltennyson", "score": 100000, "slug": "youtube-watchers", "source": "clawhub", "stars": 0, "tags": null, "updated_at": 1776695744458, "version": "1.0.0"}, {"category": "productivity", "created_at": 1773431224481, "description": "Proactive Chinese language tutor that delivers curated, real-world Mandarin learning content on a schedule. Use when: (1) User wants to learn or improve Chin...", "description_zh": "", "downloads": 98, "homepage": "https://clawhub.ai/aero323/chinese-tutor", "iconUrl": null, "installs": 5, "name": "Chinese Tutor", "ownerName": "aero323", "score": 100000, "slug": "chinese-tutor", "source": "clawhub", "stars": 0, "tags": null, "updated_at": 1776695744451, "version": "1.0.0"}, {"category": "data-analysis", "created_at": 1773936884884, "description": "Execute SQL, SPARQL, SPASQL, SPARQL-FED, and GraphQL queries against live data spaces and knowledge graphs via OpenLink's OpenAPI-compliant web services. Use...", "description_zh": "", "downloads": 98, "homepage": "https://clawhub.ai/kidehen/sql-sparql-graphql-skill", "iconUrl": null, "installs": 12, "name": "Data Twingler Skill for SQL, SPARQL, and GraphQL", "ownerName": "kidehen", "score": 100000, "slug": "sql-sparql-graphql-skill", "source": "clawhub", "stars": 0, "tags": null, "updated_at": 1776695744435, "version": "1.0.0"}, {"category": "developer-tools", "created_at": 1773431265445, "description": "GeoDB Cities integration. Manage Cities, Countries, Continents. Use when the user wants to interact with GeoDB Cities data.", "description_zh": "", "downloads": 98, "homepage": "https://clawhub.ai/membranedev/geodb-cities", "iconUrl": null, "installs": 4, "name": "Geodb Cities", "ownerName": "membranedev", "score": 100000, "slug": "geodb-cities", "source": "clawhub", "stars": 0, "tags": null, "updated_at": 1776695744428, "version": "1.0.1"}, {"category": "developer-tools", "created_at": 1773936205286, "description": "Adapt an existing agent skill so it works cleanly on Windows when the input is either a skill folder path or a zip file.", "description_zh": "", "downloads": 98, "homepage": "https://clawhub.ai/iideas18/transfer-skill-to-windows", "iconUrl": null, "installs": 9, "name": "Transfer Skill To Windows", "ownerName": "iideas18", "score": 100000, "slug": "transfer-skill-to-windows", "source": "clawhub", "stars": 0, "tags": null, "updated_at": 1776695744424, "version": "1.0.0"}, {"category": "data-analysis", "created_at": 1773925603921, "description": "Deep cart-to-checkout funnel monitoring, abnormal friction detection, and multi-touch recovery playbooks for e-commerce. Use this skill whenever the user men...", "description_zh": "", "downloads": 98, "homepage": "https://clawhub.ai/rijoyai/abandoned-checkout-monitor", "iconUrl": null, "installs": 12, "name": "Abandoned Checkout Monitor", "ownerName": "rijoyai", "score": 100000, "slug": "abandoned-checkout-monitor", "source": "clawhub", "stars": 0, "tags": null, "updated_at": 1776695744423, "version": "0.1.1"}, {"category": "developer-tools", "created_at": 1773430157791, "description": "Guide for creating effective skills. This skill should be used when users want to create a new skill (or update an existing skill) that extends Claude's capa...", "description_zh": "", "downloads": 98, "homepage": "https://clawhub.ai/wangkang5/wangkang-skill-c", "iconUrl": null, "installs": 2, "name": "wangkang-skill-c", "ownerName": "wangkang5", "score": 100000, "slug": "wangkang-skill-c", "source": "clawhub", "stars": 0, "tags": null, "updated_at": 1776695744403, "version": "1.3.3"}, {"category": "data-analysis", "created_at": 1773434252583, "description": "Automatically identify Western Blot gel bands, perform densitometric analysis, and calculate normalized values relative to loading controls (GAPDH, β-actin,...", "description_zh": "", "downloads": 98, "homepage": "https://clawhub.ai/lyla0921/western-blot-quantifier", "iconUrl": null, "installs": 9, "name": "Western Blot Quantifier", "ownerName": "lyla0921", "score": 100000, "slug": "western-blot-quantifier", "source": "clawhub", "stars": 0, "tags": null, "updated_at": 1776695744382, "version": "0.1.0"}, {"category": "security-compliance", "created_at": 1773431145628, "description": "Trust and evidence verification engine for claims, sources, screenshots, profiles, offers, and suspicious messages. Use whenever the user asks whether someth...", "description_zh": "", "downloads": 98, "homepage": "https://clawhub.ai/projectsnowwork/verifier", "iconUrl": null, "installs": 5, "name": "Verifier", "ownerName": "projectsnowwork", "score": 98989.898989899, "slug": "verifier", "source": "clawhub", "stars": 0, "tags": null, "updated_at": 1776695744377, "version": "1.0.0"}, {"category": "data-analysis", "created_at": 1773435004222, "description": "Automatically label top significant genes in volcano plots with repulsion algorithm", "description_zh": "", "downloads": 98, "homepage": "https://clawhub.ai/ec-cyber258/volcano-plot-labeler", "iconUrl": null, "installs": 15, "name": "Volcano Plot Labeler", "ownerName": "ec-cyber258", "score": 98989.898989899, "slug": "volcano-plot-labeler", "source": "clawhub", "stars": 0, "tags": null, "updated_at": 1776695704752, "version": "0.1.0"}, {"category": "communication-collaboration", "created_at": 1773433181299, "description": "AI Tool Extension for Feishu API - A progressively extensible skill that enables AI tools (OpenClaw, Claude Code, etc.) to leverage Feishu capabilities on-de...", "description_zh": "", "downloads": 98, "homepage": "https://clawhub.ai/soraclub/feishu-master", "iconUrl": null, "installs": 7, "name": "Feishu Master", "ownerName": "soraclub", "score": 98989.898989899, "slug": "feishu-master", "source": "clawhub", "stars": 0, "tags": null, "updated_at": 1776695704734, "version": "1.0.0"}, {"category": "ai-intelligence", "created_at": 1773932914739, "description": "The directory for AI agent services. Discover tools, platforms, and infrastructure built for agents.", "description_zh": "", "downloads": 98, "homepage": "https://clawhub.ai/banalit/luke-agent-directory", "iconUrl": null, "installs": 9, "name": "Luke Agent Directory", "ownerName": "banalit", "score": 98989.898989899, "slug": "luke-agent-directory", "source": "clawhub", "stars": 0, "tags": null, "updated_at": 1776695704728, "version": "1.0.0"}, {"category": "developer-tools", "created_at": 1773944875410, "description": "Scan, categorize, and total receipts for expenses. Use when recording purchases, categorizing spending, balancing monthly totals, forecasting budgets.", "description_zh": "", "downloads": 98, "homepage": "https://clawhub.ai/ckchzh/receipt", "iconUrl": null, "installs": 9, "name": "Receipt", "ownerName": "ckchzh", "score": 98989.898989899, "slug": "receipt", "source": "clawhub", "stars": 0, "tags": null, "updated_at": 1776695704724, "version": "2.0.1"}, {"category": "communication-collaboration", "created_at": 1773429794723, "description": "Cloze integration. Manage Organizations. Use when the user wants to interact with Cloze data.", "description_zh": "", "downloads": 98, "homepage": "https://clawhub.ai/membranedev/cloze-integration", "iconUrl": null, "installs": 2, "name": "Cloze", "ownerName": "membranedev", "score": 98989.898989899, "slug": "cloze-integration", "source": "clawhub", "stars": 0, "tags": null, "updated_at": 1776695704695, "version": "1.0.0"}, {"category": "developer-tools", "created_at": 1773925681347, "description": "Use when designing new system architecture, reviewing existing designs, or making architectural decisions. Invoke for system design, architecture review, des...", "description_zh": "", "downloads": 98, "homepage": "https://clawhub.ai/mrhenghu/architecture-designer-0-1-0", "iconUrl": null, "installs": 9, "name": "Architecture Designer 0.1.0", "ownerName": "mrhenghu", "score": 98989.898989899, "slug": "architecture-designer-0-1-0", "source": "clawhub", "stars": 0, "tags": null, "updated_at": 1776695704692, "version": "1.0.0"}, {"category": "productivity", "created_at": 1773917517739, "description": "Create and organize multiple tabs (worksheets/pages) inside an existing Feishu sheet when the normal feishu_sheet API cannot create new worksheet tabs. Use w...", "description_zh": "", "downloads": 98, "homepage": "https://clawhub.ai/g-hanasq/feishu-sheet-tabs", "iconUrl": null, "installs": 6, "name": "feishu-sheet-tabs", "ownerName": "g-hanasq", "score": 98989.898989899, "slug": "feishu-sheet-tabs", "source": "clawhub", "stars": 0, "tags": null, "updated_at": 1776695704684, "version": "0.1.0"}, {"category": "developer-tools", "created_at": 1773922849848, "description": "Accept crypto payments, manage a digital storefront, and track balances through the InventPay REST API", "description_zh": "", "downloads": 98, "homepage": "https://clawhub.ai/jams24/inventpay-api", "iconUrl": null, "installs": 8, "name": "inventpay", "ownerName": "jams24", "score": 98989.898989899, "slug": "inventpay-api", "source": "clawhub", "stars": 0, "tags": null, "updated_at": 1776695704682, "version": "1.0.8"}, {"category": "productivity", "created_at": 1773429373233, "description": "Favro integration. Manage Organizations. Use when the user wants to interact with Favro data.", "description_zh": "", "downloads": 98, "homepage": "https://clawhub.ai/gora050/favro", "iconUrl": null, "installs": 3, "name": "Favro", "ownerName": "gora050", "score": 98989.898989899, "slug": "favro", "source": "clawhub", "stars": 0, "tags": null, "updated_at": 1776695704646, "version": "1.0.0"}, {"category": "developer-tools", "created_at": 1773928612160, "description": "This repository started out as a learning in public project for myself and has now become a structur Based on MichaelCade/90DaysOfDevOps (29,378+ GitHub star...", "description_zh": "", "downloads": 98, "homepage": "https://clawhub.ai/bytesagain/90daysofdevops", "iconUrl": null, "installs": 4, "name": "90daysofdevops", "ownerName": "bytesagain", "score": 98989.898989899, "slug": "90daysofdevops", "source": "clawhub", "stars": 0, "tags": null, "updated_at": 1776695704644, "version": "1.0.0"}, {"category": "communication-collaboration", "created_at": 1773896663470, "description": "Discover, message, and collaborate with other AI agents on the MRP relay network.", "description_zh": "", "downloads": 97, "homepage": "https://clawhub.ai/wenguo17/mrp", "iconUrl": null, "installs": 0, "name": "Skill", "ownerName": "wenguo17", "score": 99152.54237288136, "slug": "mrp", "source": "clawhub", "stars": 1, "tags": null, "updated_at": 1776712483715, "version": "1.5.0"}, {"category": "content-creation", "created_at": 1773925571613, "description": "Guide for SenseAudio voice selection, plan-level voice entitlement checks, and cloned voice usage constraints in TTS calls. Use this whenever user asks why a...", "description_zh": "", "downloads": 97, "homepage": "https://clawhub.ai/scikkk/senseaudio-voice", "iconUrl": null, "installs": 6, "name": "SenseAudio Voice", "ownerName": "scikkk", "score": 87969.92481203008, "slug": "senseaudio-voice", "source": "clawhub", "stars": 1, "tags": null, "updated_at": 1776695144979, "version": "1.0.0"}, {"category": "developer-tools", "created_at": 1773431611707, "description": "Manage Roblox game passes and developer products via Open Cloud API.", "description_zh": "", "downloads": 97, "homepage": "https://clawhub.ai/teddyengel/roblox-cli", "iconUrl": null, "installs": 9, "name": "Roblox", "ownerName": "teddyengel", "score": 87969.92481203008, "slug": "roblox-cli", "source": "clawhub", "stars": 1, "tags": null, "updated_at": 1776695144425, "version": "1.0.0"}]}