{"page": 396, "total_pages": 522, "total": 26073, "skills": [{"category": "content-creation", "created_at": 1773948216909, "description": "Generate videos using a local SGLang-Diffusion server (Wan2.2, Hunyuan, FastWan, etc.). Use when: user asks to generate, create, or render a video with a loc...", "description_zh": "", "downloads": 97, "homepage": "https://clawhub.ai/jiangyukunok/sglang-diffusion-video", "iconUrl": null, "installs": 20, "name": "SGLang-Diffusion Video Generation", "ownerName": "jiangyukunok", "score": 297.3635806253832, "slug": "sglang-diffusion-video", "source": "clawhub", "stars": 0, "tags": null, "updated_at": 1776770649737, "version": "1.0.2"}, {"category": "ai-intelligence", "created_at": 1773928030348, "description": "Advanced text-based integration suite for Palantir Maven Smart System (MSS). Manages targets, Kanban workflow, CDE risk assessment, SIGINT intelligence fusio...", "description_zh": "", "downloads": 97, "homepage": "https://clawhub.ai/frequensy23-coder/palantir-integration", "iconUrl": null, "installs": 12, "name": "Maven Smart System Ai (palantir integration)", "ownerName": "frequensy23-coder", "score": 619.4916336696896, "slug": "palantir-integration", "source": "clawhub", "stars": 0, "tags": null, "updated_at": 1776766190461, "version": "1.0.1"}, {"category": "security-compliance", "created_at": 1773434182919, "description": "Determine whether an incident in a clinical trial is a \"major deviation\" or \"minor deviation\". Function: Automatically classify protocol deviations in clinic...", "description_zh": "", "downloads": 97, "homepage": "https://clawhub.ai/ewankeynes/protocol-deviation-classifier", "iconUrl": null, "installs": 9, "name": "Protocol Deviation Classifier", "ownerName": "ewankeynes", "score": 1493.686479827533, "slug": "protocol-deviation-classifier", "source": "clawhub", "stars": 0, "tags": null, "updated_at": 1776765850406, "version": "0.1.0"}, {"category": "developer-tools", "created_at": 1773435148854, "description": "Validate, lint, audit, or fix PromQL queries and alerting rules; detects anti-patterns.", "description_zh": "", "downloads": 97, "homepage": "https://clawhub.ai/qq280948982/promql-validator", "iconUrl": null, "installs": 9, "name": "Promql Validator", "ownerName": "qq280948982", "score": 2776.1877504293075, "slug": "promql-validator", "source": "clawhub", "stars": 0, "tags": null, "updated_at": 1776765371056, "version": "0.1.0"}, {"category": "security-compliance", "created_at": 1773911200571, "description": "Evaluate and compare privacy solution vendors with a weighted scorecard across 12 criteria. Use when selecting privacy management software, comparing data pr...", "description_zh": "", "downloads": 97, "homepage": "https://clawhub.ai/krishnakumarmahadevan-cmd/privacy-solution-scorecard", "iconUrl": null, "installs": 2, "name": "Privacy Solution Scorecard", "ownerName": "krishnakumarmahadevan-cmd", "score": 1433.8507021433852, "slug": "privacy-solution-scorecard", "source": "clawhub", "stars": 0, "tags": null, "updated_at": 1776762850543, "version": "1.0.2"}, {"category": "", "created_at": 1774908901889, "description": "Openapi reference tool. Use when working with openapi in devtools contexts.", "description_zh": "", "downloads": 97, "homepage": "https://clawhub.ai/ckchzh/openapi", "iconUrl": null, "installs": 3, "name": "Openapi", "ownerName": "ckchzh", "score": 519.633577971822, "slug": "openapi", "source": "clawhub", "stars": 0, "tags": null, "updated_at": 1776762345361, "version": "1.0.0"}, {"category": "communication-collaboration", "created_at": 1773943522690, "description": "Send voice/audio messages to Feishu (Lark) users. Converts audio files to OPUS format and sends as voice message, not file attachment. create by Alex", "description_zh": "", "downloads": 97, "homepage": "https://clawhub.ai/yangmiok/feishu-video", "iconUrl": null, "installs": 5, "name": "feishu-video", "ownerName": "yangmiok", "score": 7572.209211553474, "slug": "feishu-video", "source": "clawhub", "stars": 0, "tags": null, "updated_at": 1776759798217, "version": "1.0.0"}, {"category": "", "created_at": 1772795931531, "description": "Manufacturing management -- BOMs, work orders, job cards, production planning, MRP, subcontracting, and production costing for ERPClaw ERP", "description_zh": "", "downloads": 97, "homepage": "https://clawhub.ai/skipzhang/erpclaw-manufacturing", "iconUrl": null, "installs": 7, "name": "ERPClaw-Manufacturing", "ownerName": "skipzhang", "score": 7572.209211553474, "slug": "erpclaw-manufacturing", "source": "clawhub", "stars": 0, "tags": null, "updated_at": 1776759798201, "version": "1.0.0"}, {"category": "ai-intelligence", "created_at": 1773943773830, "description": "Register and manage a personalized agent identity with a local soul file, enabling secure recovery, X verification, and participation in the OpenX.pro social...", "description_zh": "", "downloads": 97, "homepage": "https://clawhub.ai/chengjia2016/openxpro", "iconUrl": null, "installs": 8, "name": "OpenX.pro Agent social network", "ownerName": "chengjia2016", "score": 7560.405300077942, "slug": "openxpro", "source": "clawhub", "stars": 0, "tags": null, "updated_at": 1776759798168, "version": "1.0.0"}, {"category": "ai-intelligence", "created_at": 1773949888031, "description": "Stream and sync iPhone/Apple Watch HealthKit data via a local webhook server for AI analysis, recovery scoring, and health anomaly alerts.", "description_zh": "", "downloads": 97, "homepage": "https://clawhub.ai/crxiaobailiu-gif/slug-test", "iconUrl": null, "installs": 11, "name": "Slug Test", "ownerName": "crxiaobailiu-gif", "score": 7572.209211553474, "slug": "slug-test", "source": "clawhub", "stars": 0, "tags": null, "updated_at": 1776759798112, "version": "0.0.1"}, {"category": "ai-intelligence", "created_at": 1773945530628, "description": "A framework for AI agents to systematically record, index, and review detailed failure events to improve memory accuracy and avoid survivor bias.", "description_zh": "", "downloads": 97, "homepage": "https://clawhub.ai/sly27/failures-md", "iconUrl": null, "installs": 8, "name": "failures-md", "ownerName": "sly27", "score": 7572.209211553474, "slug": "failures-md", "source": "clawhub", "stars": 0, "tags": ["failures", "memory"], "updated_at": 1776759798095, "version": "1.0.0"}, {"category": "content-creation", "created_at": 1773955223467, "description": "Check and manage YouTube channels to find their next scheduled live broadcasts using the YouTube Data API v3 and a Google API key.", "description_zh": "", "downloads": 97, "homepage": "https://clawhub.ai/stevenho1394/youtube-live-broadcast-checking", "iconUrl": null, "installs": 15, "name": "YouTube Live Broadcast Checking", "ownerName": "stevenho1394", "score": 7572.209211553474, "slug": "youtube-live-broadcast-checking", "source": "clawhub", "stars": 0, "tags": null, "updated_at": 1776759798088, "version": "1.3.5"}, {"category": "data-analysis", "created_at": 1773957459472, "description": "Extract and summarize public QQ app pages, announcements, and group invites without login or message access.", "description_zh": "", "downloads": 97, "homepage": "https://clawhub.ai/codekungfu/qq-hot-trend", "iconUrl": null, "installs": 16, "name": "Qq", "ownerName": "codekungfu", "score": 85087.71929824562, "slug": "qq-hot-trend", "source": "clawhub", "stars": 0, "tags": null, "updated_at": 1776759797949, "version": "0.1.0"}, {"category": "developer-tools", "created_at": 1773951254799, "description": "Use this skill when assisting with FortressQuant's peerberry-sdk for PeerBerry investor automation, P2P lending education, and alternative-investment onboard...", "description_zh": "", "downloads": 97, "homepage": "https://clawhub.ai/fortressquant/peerberry-sdk", "iconUrl": null, "installs": 10, "name": "PeerBerry SDK", "ownerName": "fortressquant", "score": 24371.859296482413, "slug": "peerberry-sdk", "source": "clawhub", "stars": 0, "tags": null, "updated_at": 1776759797912, "version": "1.0.0"}, {"category": "data-analysis", "created_at": 1773960703902, "description": "Generate a business opportunity Skills report with ClawHub data, open it in Chromium, and capture a full-page screenshot saved to the output directory.", "description_zh": "", "downloads": 97, "homepage": "https://clawhub.ai/jakliao/business-opportunity-screenshot", "iconUrl": null, "installs": 17, "name": "Business Opportunity Screenshot", "ownerName": "jakliao", "score": 7560.405300077942, "slug": "business-opportunity-screenshot", "source": "clawhub", "stars": 0, "tags": null, "updated_at": 1776759797816, "version": "1.0.0"}, {"category": "productivity", "created_at": 1773430815608, "description": "Pipeliner CRM integration. Manage Leads, Deals, Persons, Organizations, Pipelines, Projects and more. Use when the user wants to interact with Pipeliner CRM...", "description_zh": "", "downloads": 97, "homepage": "https://clawhub.ai/membranedev/pipeliner-crm", "iconUrl": null, "installs": 6, "name": "Pipeliner Crm", "ownerName": "membranedev", "score": 6225.930680359435, "slug": "pipeliner-crm", "source": "clawhub", "stars": 0, "tags": null, "updated_at": 1776757582923, "version": "1.0.0"}, {"category": "developer-tools", "created_at": 1773079066479, "description": "Automatically generate descriptive git commit messages from your code changes. Follows conventional commits. No API keys needed. $2 FREE credits to start. Pa...", "description_zh": "", "downloads": 97, "homepage": "https://clawhub.ai/xiaoyinqu/git-commit", "iconUrl": null, "installs": 15, "name": "Git Commit", "ownerName": "xiaoyinqu", "score": 5929.095354523228, "slug": "git-commit", "source": "clawhub", "stars": 0, "tags": null, "updated_at": 1776756982232, "version": "1.0.0"}, {"category": "productivity", "created_at": 1773913979578, "description": "This skill should be used when the user wants to \"track job applications\", \"add a job application\", \"update application status\", \"view my job pipeline\", \"get...", "description_zh": "", "downloads": 97, "homepage": "https://clawhub.ai/ajitsingh25/placed-job-tracker", "iconUrl": null, "installs": 5, "name": "Placed Job Tracker", "ownerName": "ajitsingh25", "score": 4911.392405063291, "slug": "placed-job-tracker", "source": "clawhub", "stars": 0, "tags": ["ai", "career", "jobs", "placed"], "updated_at": 1776753715872, "version": "1.0.2"}, {"category": "developer-tools", "created_at": 1773934297313, "description": "Create macOS desktop app launchers for dev projects. Click an icon on Desktop → auto-runs local dev server in Terminal. Use when user wants to make an app \"p...", "description_zh": "", "downloads": 97, "homepage": "https://clawhub.ai/phy041/phy-app-launcher", "iconUrl": null, "installs": 15, "name": "macOS App Launcher", "ownerName": "phy041", "score": 21846.846846846845, "slug": "phy-app-launcher", "source": "clawhub", "stars": 0, "tags": ["desktop", "launcher", "macos", "productivity"], "updated_at": 1776751844554, "version": "1.0.1"}, {"category": "productivity", "created_at": 1773958965294, "description": "Focus — a fast productivity tool. Log anything, find it later, export when needed.", "description_zh": "", "downloads": 97, "homepage": "https://clawhub.ai/ckchzh/focus", "iconUrl": null, "installs": 6, "name": "Focus", "ownerName": "ckchzh", "score": 100000, "slug": "focus", "source": "clawhub", "stars": 0, "tags": null, "updated_at": 1776738045221, "version": "2.0.0"}, {"category": "", "created_at": 1774773426104, "description": "Humanize English ecommerce copy to remove obvious AI tone while preserving selling intent, channel fit, and safer claim boundaries for product pages, ads, ca...", "description_zh": "", "downloads": 97, "homepage": "https://clawhub.ai/leooooooow/ecommerce-copy-humanizer", "iconUrl": null, "installs": 16, "name": "Ecommerce Copy Humanizer", "ownerName": "leooooooow", "score": 100000, "slug": "ecommerce-copy-humanizer", "source": "clawhub", "stars": 0, "tags": null, "updated_at": 1776736970172, "version": "1.0.2"}, {"category": "productivity", "created_at": 1773917126280, "description": "Help AI understand a user's cognitive style, output preferences, and value orientation so it can generate deliverables that better match what they actually w...", "description_zh": "", "downloads": 97, "homepage": "https://clawhub.ai/lakendocean/agent-collaboration-profile-builder", "iconUrl": null, "installs": 3, "name": "AI Collaboration Profile Builder", "ownerName": "lakendocean", "score": 85087.71929824562, "slug": "agent-collaboration-profile-builder", "source": "clawhub", "stars": 0, "tags": ["agent", "productivity", "profile", "self-knowledge", "workflow"], "updated_at": 1776735469780, "version": "0.1.1"}, {"category": "", "created_at": 1774904553522, "description": "Nft reference tool. Use when working with nft in blockchain contexts.", "description_zh": "", "downloads": 97, "homepage": "https://clawhub.ai/xueyetianya/nft", "iconUrl": null, "installs": 4, "name": "Nft", "ownerName": "xueyetianya", "score": 97979.79797979798, "slug": "nft", "source": "clawhub", "stars": 0, "tags": null, "updated_at": 1776728755480, "version": "1.0.0"}, {"category": "content-creation", "created_at": 1773432767077, "description": "Memorist Agent — helps you capture your parents' and family members' life stories through adaptive interviews via WhatsApp, WeChat, or direct conversation. O...", "description_zh": "", "downloads": 97, "homepage": "https://clawhub.ai/yinghaojia/memorist-agent", "iconUrl": null, "installs": 4, "name": "Memorist Agent", "ownerName": "yinghaojia", "score": 100000, "slug": "memorist-agent", "source": "clawhub", "stars": 0, "tags": null, "updated_at": 1776699946970, "version": "0.1.0"}, {"category": "data-analysis", "created_at": 1773920665290, "description": "Use the viral.app API from an agent with a local CLI for account analytics, tracked videos/accounts, projects, creator hub, and live data operations.", "description_zh": "", "downloads": 97, "homepage": "https://clawhub.ai/feliche93/viral-app", "iconUrl": null, "installs": 7, "name": "Viral App", "ownerName": "feliche93", "score": 100000, "slug": "viral-app", "source": "clawhub", "stars": 0, "tags": null, "updated_at": 1776696283990, "version": "0.1.5"}, {"category": "content-creation", "created_at": 1773432197636, "description": "LearnDash integration. Manage Courses. Use when the user wants to interact with LearnDash data.", "description_zh": "", "downloads": 97, "homepage": "https://clawhub.ai/membranedev/learndash", "iconUrl": null, "installs": 12, "name": "Learndash", "ownerName": "membranedev", "score": 100000, "slug": "learndash", "source": "clawhub", "stars": 0, "tags": null, "updated_at": 1776696170142, "version": "1.0.0"}, {"category": "security-compliance", "created_at": 1773922894528, "description": "Fast TCP port scanner for network reconnaissance and security auditing. Scan hosts for open ports, detect common services, and identify potential attack surf...", "description_zh": "", "downloads": 97, "homepage": "https://clawhub.ai/johnnywang2001/jrv-port-scanner", "iconUrl": null, "installs": 3, "name": "Port Scanner", "ownerName": "johnnywang2001", "score": 100000, "slug": "jrv-port-scanner", "source": "clawhub", "stars": 0, "tags": null, "updated_at": 1776696170026, "version": "1.0.0"}, {"category": "data-analysis", "created_at": 1773433531015, "description": "Lusha integration. Manage Persons, Organizations. Use when the user wants to interact with Lusha data.", "description_zh": "", "downloads": 97, "homepage": "https://clawhub.ai/gora050/lusha", "iconUrl": null, "installs": 8, "name": "Lusha", "ownerName": "gora050", "score": 100000, "slug": "lusha", "source": "clawhub", "stars": 0, "tags": null, "updated_at": 1776696169804, "version": "1.0.0"}, {"category": "content-creation", "created_at": 1773432866861, "description": "News briefing. Use this skill whenever the user asks for recent news or headlines. Trigger phrases include: what happened recently, today's highlights, crypt...", "description_zh": "", "downloads": 97, "homepage": "https://clawhub.ai/gate-exchange/gate-news-briefing", "iconUrl": null, "installs": 6, "name": "Gate News Briefing", "ownerName": "gate-exchange", "score": 97979.79797979798, "slug": "gate-news-briefing", "source": "clawhub", "stars": 0, "tags": null, "updated_at": 1776696044756, "version": "1.0.0"}, {"category": "productivity", "created_at": 1773433370379, "description": "Track and manage insights, patterns, and observations discovered during OpenClaw sessions. Use when the user wants to record, categorize, retrieve, or analyz...", "description_zh": "", "downloads": 97, "homepage": "https://clawhub.ai/harrylabsj/insight-tracker", "iconUrl": null, "installs": 2, "name": "Insight Tracker", "ownerName": "harrylabsj", "score": 100000, "slug": "insight-tracker", "source": "clawhub", "stars": 0, "tags": null, "updated_at": 1776696044689, "version": "1.0.0"}, {"category": "developer-tools", "created_at": 1773430277657, "description": "Grafbase integration. Manage Projects. Use when the user wants to interact with Grafbase data.", "description_zh": "", "downloads": 97, "homepage": "https://clawhub.ai/gora050/grafbase", "iconUrl": null, "installs": 3, "name": "Grafbase", "ownerName": "gora050", "score": 100000, "slug": "grafbase", "source": "clawhub", "stars": 0, "tags": null, "updated_at": 1776696044523, "version": "1.0.0"}, {"category": "data-analysis", "created_at": 1773432375911, "description": "AI-powered invoice and expense tracking from natural language. Maintain a local ledger, generate monthly reports by category/vendor, export to CSV for QuickB...", "description_zh": "", "downloads": 97, "homepage": "https://clawhub.ai/philipstark/fl-invoice-tracker", "iconUrl": null, "installs": 6, "name": "Invoice & Expense Tracker", "ownerName": "philipstark", "score": 100000, "slug": "fl-invoice-tracker", "source": "clawhub", "stars": 0, "tags": ["accounting", "bookkeeping", "expenses", "finance", "invoices", "quickbooks", "xero"], "updated_at": 1776696004790, "version": "1.0.0"}, {"category": "productivity", "created_at": 1773430745711, "description": "Build and maintain a local favorites catalog from installed repositories, apps, skills, extensions, and hooks. Use when the user asks to create, refresh, cur...", "description_zh": "", "downloads": 97, "homepage": "https://clawhub.ai/luw2007/favorites-curator", "iconUrl": null, "installs": 6, "name": "Favorites Curator", "ownerName": "luw2007", "score": 100000, "slug": "favorites-curator", "source": "clawhub", "stars": 0, "tags": null, "updated_at": 1776696004681, "version": "0.1.0"}, {"category": "communication-collaboration", "created_at": 1773926856411, "description": "Conduct structured life review or reminiscence conversations using the LREF methodology, guiding one memory at a time across situational, sensory, emotional,...", "description_zh": "", "downloads": 97, "homepage": "https://clawhub.ai/oiioai/structured-life-review", "iconUrl": null, "installs": 9, "name": "Structured Life Review", "ownerName": "oiioai", "score": 100000, "slug": "structured-life-review", "source": "clawhub", "stars": 0, "tags": null, "updated_at": 1776695755498, "version": "1.0.0"}, {"category": "communication-collaboration", "created_at": 1773430146200, "description": "Real-time social infrastructure for AI agents. Three venues for socializing, technical discussion, and project collaboration. The first agent economy.", "description_zh": "", "downloads": 97, "homepage": "https://clawhub.ai/brandon23z/themoltpub", "iconUrl": null, "installs": 5, "name": "The Molt Pub", "ownerName": "brandon23z", "score": 100000, "slug": "themoltpub", "source": "clawhub", "stars": 0, "tags": null, "updated_at": 1776695755478, "version": "3.0.0"}, {"category": "", "created_at": 1774906275085, "description": "Analyze Amazon seller storefronts and product portfolios. Estimate revenue, identify top products, assess growth trajectory, and uncover strategy patterns. U...", "description_zh": "", "downloads": 97, "homepage": "https://clawhub.ai/nexscope/amazon-seller-analytics", "iconUrl": null, "installs": 24, "name": "Amazon Seller Analytics", "ownerName": "nexscope", "score": 100000, "slug": "amazon-seller-analytics", "source": "clawhub", "stars": 0, "tags": null, "updated_at": 1776695746989, "version": "1.0.0"}, {"category": "security-compliance", "created_at": 1773431884551, "description": "Set up and use 1Password CLI (op). Use when installing the CLI, enabling desktop app integration, signing in (single or multi-account), or reading/injecting/...", "description_zh": "", "downloads": 97, "homepage": "https://clawhub.ai/snazar-faberlens/1password-hardened", "iconUrl": null, "installs": 6, "name": "1password-hardened", "ownerName": "snazar-faberlens", "score": 100000, "slug": "1password-hardened", "source": "clawhub", "stars": 0, "tags": null, "updated_at": 1776695746987, "version": "1.0.0"}, {"category": "developer-tools", "created_at": 1773909719630, "description": "Orchestrate coding agents (Claude Code, Codex, etc.) to implement coding tasks through a structured workflow. Use when the user gives a coding requirement, f...", "description_zh": "", "downloads": 97, "homepage": "https://clawhub.ai/lgyanami/agent-dev-workflow", "iconUrl": null, "installs": 4, "name": "Agent Dev Workflow", "ownerName": "lgyanami", "score": 100000, "slug": "agent-dev-workflow", "source": "clawhub", "stars": 0, "tags": null, "updated_at": 1776695746985, "version": "1.2.0"}, {"category": "developer-tools", "created_at": 1773954680869, "description": "Model cap tables, dilution scenarios, and vesting schedules for startups. Use when planning fundraising, pricing options, or tracking equity.", "description_zh": "", "downloads": 97, "homepage": "https://clawhub.ai/bytesagain1/equity", "iconUrl": null, "installs": 11, "name": "Equity", "ownerName": "bytesagain1", "score": 100000, "slug": "equity", "source": "clawhub", "stars": 0, "tags": null, "updated_at": 1776695746981, "version": "2.0.0"}, {"category": "communication-collaboration", "created_at": 1773922584418, "description": "Analyze user's conversation to identify unclear parts and suggest better questions. Helps users express their problems more clearly.", "description_zh": "", "downloads": 97, "homepage": "https://clawhub.ai/jdchi/clarify-me", "iconUrl": null, "installs": 6, "name": "clarify-me", "ownerName": "jdchi", "score": 98979.59183673469, "slug": "clarify-me", "source": "clawhub", "stars": 0, "tags": null, "updated_at": 1776695746973, "version": "1.0.1"}, {"category": "developer-tools", "created_at": 1773431779915, "description": "Short alias skill for listing files, directories, processes, or system information. Use when you need to see what's present in a directory or system state.", "description_zh": "", "downloads": 97, "homepage": "https://clawhub.ai/openlang-cn/l", "iconUrl": null, "installs": 6, "name": "L", "ownerName": "openlang-cn", "score": 98979.59183673469, "slug": "l", "source": "clawhub", "stars": 0, "tags": null, "updated_at": 1776695744568, "version": "1.0.0"}, {"category": "communication-collaboration", "created_at": 1773430757644, "description": "Gửi email qua giao thức SMTP. Hỗ trợ tùy chỉnh tiêu đề, nội dung và người nhận. Yêu cầu cấu hình tài khoản email (như Gmail App Password) để hoạt động.", "description_zh": "", "downloads": 97, "homepage": "https://clawhub.ai/jaskies/mail-sender-jaskies", "iconUrl": null, "installs": 4, "name": "Mail Sender (Jaskies)", "ownerName": "jaskies", "score": 98979.59183673469, "slug": "mail-sender-jaskies", "source": "clawhub", "stars": 0, "tags": null, "updated_at": 1776695744522, "version": "1.0.0"}, {"category": "data-analysis", "created_at": 1773921129906, "description": "Analyze the top 100 S&P 500 companies by market capitalization using CANSLIM-style signals and return a ranked shortlist in Markdown.", "description_zh": "", "downloads": 97, "homepage": "https://clawhub.ai/lkmsteven/canslim-top100-us", "iconUrl": null, "installs": 8, "name": "CANSLIM-Top100-US", "ownerName": "lkmsteven", "score": 98979.59183673469, "slug": "canslim-top100-us", "source": "clawhub", "stars": 0, "tags": null, "updated_at": 1776695744512, "version": "1.0.0"}, {"category": "developer-tools", "created_at": 1773929865739, "description": "Search the web using Tavily's Search API. Returns relevant, accurate results with content snippets, scores, and metadata. Use when the user asks to search th...", "description_zh": "", "downloads": 97, "homepage": "https://clawhub.ai/evanydl/tavily-websearch-old", "iconUrl": null, "installs": 12, "name": "Tavily", "ownerName": "evanydl", "score": 98979.59183673469, "slug": "tavily-websearch-old", "source": "clawhub", "stars": 0, "tags": null, "updated_at": 1776695744472, "version": "4.0.2"}, {"category": "ai-intelligence", "created_at": 1773912997920, "description": "Captures learnings, errors, and corrections to enable continuous improvement. Use when: (1) A command or operation fails unexpectedly, (2) User corrects Clau...", "description_zh": "", "downloads": 97, "homepage": "https://clawhub.ai/gakkiismywife/aaaa", "iconUrl": null, "installs": 4, "name": "aaaa", "ownerName": "gakkiismywife", "score": 98979.59183673469, "slug": "aaaa", "source": "clawhub", "stars": 0, "tags": null, "updated_at": 1776695744468, "version": "1.0.0"}, {"category": "ai-intelligence", "created_at": 1773433705678, "description": "Google Vertex AI integration. Manage Projects. Use when the user wants to interact with Google Vertex AI data.", "description_zh": "", "downloads": 97, "homepage": "https://clawhub.ai/gora050/google-vertex-ai", "iconUrl": null, "installs": 5, "name": "Google Vertex Ai", "ownerName": "gora050", "score": 98979.59183673469, "slug": "google-vertex-ai", "source": "clawhub", "stars": 0, "tags": null, "updated_at": 1776695744410, "version": "1.0.0"}, {"category": "data-analysis", "created_at": 1773938683182, "description": "Proactive agile metrics and team health analysis for Trello and Jira boards. Computes cycle time, throughput, WIP, sprint burndown, aging work items, and blo...", "description_zh": "", "downloads": 97, "homepage": "https://clawhub.ai/olivermonneke/agile-observer", "iconUrl": null, "installs": 13, "name": "Agile Observer", "ownerName": "olivermonneke", "score": 97979.79797979798, "slug": "agile-observer", "source": "clawhub", "stars": 0, "tags": null, "updated_at": 1776695744368, "version": "1.1.0"}, {"category": "developer-tools", "created_at": 1773433447779, "description": "x-mirror is a comprehensive mirror source management tool for various package managers. Use this skill whenever users need to configure, switch, or query pac...", "description_zh": "", "downloads": 96, "homepage": "https://clawhub.ai/lunrenyi/x-mirror", "iconUrl": null, "installs": 5, "name": "Mirror Source Manager", "ownerName": "lunrenyi", "score": 87218.04511278195, "slug": "x-mirror", "source": "clawhub", "stars": 1, "tags": null, "updated_at": 1776695144654, "version": "1.0.0"}, {"category": "", "created_at": 1774910505823, "description": "Audit and rewrite content to remove AI writing patterns (\"AI-isms\"). Use this skill when asked to \"remove AI-isms,\" \"clean up AI writing,\" \"edit writing for...", "description_zh": "", "downloads": 96, "homepage": "https://clawhub.ai/conorbronsdon/avoid-ai-writing", "iconUrl": null, "installs": 14, "name": "Avoid AI Writing", "ownerName": "conorbronsdon", "score": 3364.8790746582545, "slug": "avoid-ai-writing", "source": "clawhub", "stars": 0, "tags": null, "updated_at": 1776768971110, "version": "3.0.0"}, {"category": "", "created_at": 1774794830501, "description": "Handle cybersecurity triage, threat modeling, secure reviews, and incident reporting with strict authorization and evidence discipline.", "description_zh": "", "downloads": 96, "homepage": "https://clawhub.ai/ivangdavila/cybersecurity", "iconUrl": null, "installs": 5, "name": "Cybersecurity", "ownerName": "ivangdavila", "score": 4320.4320432043205, "slug": "cybersecurity", "source": "clawhub", "stars": 0, "tags": null, "updated_at": 1776764950009, "version": "1.0.0"}]}