{"page": 397, "total_pages": 522, "total": 26073, "skills": [{"category": "security-compliance", "created_at": 1773912508464, "description": "Install, enable, verify, pair, and manage PrivateClaw OpenClaw sessions, preferring same-conversation /privateclaw QR replies and falling back to the local C...", "description_zh": "", "downloads": 96, "homepage": "https://clawhub.ai/topcheer/privateclaw-plugin-setup", "iconUrl": null, "installs": 2, "name": "PrivateClaw Plugin Setup", "ownerName": "topcheer", "score": 1469.2378328741966, "slug": "privateclaw-plugin-setup", "source": "clawhub", "stars": 0, "tags": null, "updated_at": 1776762850883, "version": "1.1.2"}, {"category": "security-compliance", "created_at": 1773914030219, "description": "Get AI-powered privacy technology recommendations with maturity assessment, capability roadmap, and tech stack advice. Use when selecting privacy tools, buil...", "description_zh": "", "downloads": 96, "homepage": "https://clawhub.ai/krishnakumarmahadevan-cmd/privacy-tech-advisor", "iconUrl": null, "installs": 3, "name": "Privacy Tech Advisor", "ownerName": "krishnakumarmahadevan-cmd", "score": 2478.05885389778, "slug": "privacy-tech-advisor", "source": "clawhub", "stars": 0, "tags": null, "updated_at": 1776762850621, "version": "1.0.2"}, {"category": "", "created_at": 1774948275313, "description": "Guide and reference for building, debugging, and publishing Chrome extensions with Manifest V3, covering APIs, messaging, content scripts, UI, storage, CSP,...", "description_zh": "", "downloads": 96, "homepage": "https://clawhub.ai/samber/chrome-extension", "iconUrl": null, "installs": 12, "name": "Chrome Extension", "ownerName": "samber", "score": 3883.4951456310678, "slug": "chrome-extension", "source": "clawhub", "stars": 0, "tags": null, "updated_at": 1776762590084, "version": "1.0.0"}, {"category": "data-analysis", "created_at": 1773929564563, "description": "Monitor Polymarket prediction market wallets and detect new trades in real-time. Use when tracking whale wallets, detecting new positions, or monitoring pred...", "description_zh": "", "downloads": 96, "homepage": "https://clawhub.ai/dagangtj/prediction-market-sentinel", "iconUrl": null, "installs": 6, "name": "Prediction Market Sentinel", "ownerName": "dagangtj", "score": 3074.951953875721, "slug": "prediction-market-sentinel", "source": "clawhub", "stars": 0, "tags": ["crypto", "monitoring", "polymarket", "prediction-market", "trading", "whale"], "updated_at": 1776761445415, "version": "1.0.0"}, {"category": "content-creation", "created_at": 1773955550795, "description": "Use this skill when creating, reviewing, or extending interfaces inspired by Evangelion monitor, tactical screen, and control-room aesthetics. It guides colo...", "description_zh": "", "downloads": 96, "homepage": "https://clawhub.ai/sullivangu/eva-ui-skill", "iconUrl": null, "installs": 13, "name": "EVA STYLE UI DESIGN SKILL", "ownerName": "sullivangu", "score": 7482.462977396727, "slug": "eva-ui-skill", "source": "clawhub", "stars": 0, "tags": null, "updated_at": 1776759798063, "version": "1.0.1"}, {"category": "developer-tools", "created_at": 1773957856031, "description": "Create and manage files, directories, templates, and configs using preset commands with export and status features.", "description_zh": "", "downloads": 96, "homepage": "https://clawhub.ai/bytesagain/maker", "iconUrl": null, "installs": 8, "name": "Maker", "ownerName": "bytesagain", "score": 33103.448275862065, "slug": "maker", "source": "clawhub", "stars": 0, "tags": null, "updated_at": 1776759797998, "version": "1.0.0"}, {"category": "data-analysis", "created_at": 1773952324853, "description": "Get a daily pre-session crypto market brief with BTC bias, Korean exchange flows, whale activity, Fear & Greed index, and macro context valid for 24 hours.", "description_zh": "", "downloads": 96, "homepage": "https://clawhub.ai/kokoju007/daily-desk-orion", "iconUrl": null, "installs": 15, "name": "Daily Desk — Orion", "ownerName": "kokoju007", "score": 84210.52631578947, "slug": "daily-desk-orion", "source": "clawhub", "stars": 0, "tags": ["acp", "bitcoin", "crypto", "daily-brief", "korean-market", "market-intel", "morning-brief", "orion", "trading-signals"], "updated_at": 1776759797954, "version": "1.0.0"}, {"category": "ai-intelligence", "created_at": 1773945153882, "description": "Create and deploy independent OpenClaw agents via an 11-step interview, generating personalized files, configuring tools, channels, permissions, and updating...", "description_zh": "", "downloads": 96, "homepage": "https://clawhub.ai/limoxt/agent-forge", "iconUrl": null, "installs": 6, "name": "Agent Forge", "ownerName": "limoxt", "score": 7482.462977396727, "slug": "agent-forge", "source": "clawhub", "stars": 0, "tags": null, "updated_at": 1776759797820, "version": "1.0.0"}, {"category": "", "created_at": 1774868650751, "description": "Generate podcast-style audio scripts summarizing books with 3 key ideas, actionable takeaways, and estimated duration for single-narrator delivery.", "description_zh": "", "downloads": 96, "homepage": "https://clawhub.ai/heardlyapp/book-summary", "iconUrl": null, "installs": 7, "name": "Book Summary", "ownerName": "heardlyapp", "score": 7482.462977396727, "slug": "book-summary", "source": "clawhub", "stars": 0, "tags": null, "updated_at": 1776759797799, "version": "1.0.2"}, {"category": "data-analysis", "created_at": 1773915233215, "description": "Monitor Polymarket prediction markets, spot mispricings between crowd probabilities and real-world evidence, track whale positioning from the top-50 leaderbo...", "description_zh": "", "downloads": 96, "homepage": "https://clawhub.ai/franks33/pkedge", "iconUrl": null, "installs": 8, "name": "Polymarket Intelligence Skill", "ownerName": "franks33", "score": 16812.609457092818, "slug": "pkedge", "source": "clawhub", "stars": 0, "tags": null, "updated_at": 1776753644551, "version": "1.0.3"}, {"category": "data-analysis", "created_at": 1773924360460, "description": "Fetch website analytics from Clicky (clicky.com) via their REST API. Use when the user asks about website traffic, visitors, pageviews, top pages, bounce rat...", "description_zh": "", "downloads": 96, "homepage": "https://clawhub.ai/djedi/clicky-analytics", "iconUrl": null, "installs": 9, "name": "Clicky Analytics", "ownerName": "djedi", "score": 27195.46742209632, "slug": "clicky-analytics", "source": "clawhub", "stars": 0, "tags": null, "updated_at": 1776750004798, "version": "1.2.0"}, {"category": "productivity", "created_at": 1773430569647, "description": "Navigate Orlando as visitor, resident, remote worker, or family with theme parks, neighborhoods, transit, costs, and local strategies.", "description_zh": "", "downloads": 96, "homepage": "https://clawhub.ai/ivangdavila/orlando", "iconUrl": null, "installs": 4, "name": "Orlando", "ownerName": "ivangdavila", "score": 100000, "slug": "orlando", "source": "clawhub", "stars": 0, "tags": null, "updated_at": 1776743083654, "version": "1.0.0"}, {"category": "", "created_at": 1774876146417, "description": "Send push notifications via pushplus HTTP API to WeChat, email, webhook, SMS and more. Use when the user asks to send notifications, push messages, WeChat me...", "description_zh": "", "downloads": 96, "homepage": "https://clawhub.ai/pcstx/pushplus-notification", "iconUrl": null, "installs": 21, "name": "pushplus", "ownerName": "pcstx", "score": 100000, "slug": "pushplus-notification", "source": "clawhub", "stars": 0, "tags": null, "updated_at": 1776742969878, "version": "1.0.1"}, {"category": "developer-tools", "created_at": 1773432425890, "description": "Generate changelogs from git commits or descriptions", "description_zh": "", "downloads": 96, "homepage": "https://clawhub.ai/cyberforexblockchain/nexus-changelog", "iconUrl": null, "installs": 7, "name": "NEXUS Changelog", "ownerName": "cyberforexblockchain", "score": 97959.18367346938, "slug": "nexus-changelog", "source": "clawhub", "stars": 0, "tags": null, "updated_at": 1776742783839, "version": "1.0.0"}, {"category": "", "created_at": 1774870645345, "description": "Use this skill when the user wants to export local WeRead records, normalize WeRead data, analyze reading preferences from WeRead history, or get book recomm...", "description_zh": "", "downloads": 96, "homepage": "https://clawhub.ai/cengsin/weread-reading-recommender", "iconUrl": null, "installs": 26, "name": "Weread Reading Recommender", "ownerName": "cengsin", "score": 98969.07216494846, "slug": "weread-reading-recommender", "source": "clawhub", "stars": 0, "tags": null, "updated_at": 1776742184016, "version": "1.0.1"}, {"category": "", "created_at": 1774887686923, "description": "Search academic papers and conduct literature reviews using OpenAlex API (free, no key needed). Use when the user needs to find scholarly papers by topic/aut...", "description_zh": "", "downloads": 96, "homepage": "https://clawhub.ai/mmyg11/academic-research-skip", "iconUrl": null, "installs": 34, "name": "Academic Research Skip", "ownerName": "mmyg11", "score": 97959.18367346938, "slug": "academic-research-skip", "source": "clawhub", "stars": 0, "tags": null, "updated_at": 1776739183796, "version": "1.0.1"}, {"category": "developer-tools", "created_at": 1773942779739, "description": "Climate - command-line tool for everyday use Use when you need climate.", "description_zh": "", "downloads": 96, "homepage": "https://clawhub.ai/xueyetianya/climate", "iconUrl": null, "installs": 9, "name": "Climate", "ownerName": "xueyetianya", "score": 100000, "slug": "climate", "source": "clawhub", "stars": 0, "tags": null, "updated_at": 1776730369572, "version": "2.0.0"}, {"category": "content-creation", "created_at": 1773935122396, "description": "Professional grammar correction and writing improvement. Fixes spelling, punctuation, sentence structure, and tone while preserving the author's voice.", "description_zh": "", "downloads": 96, "homepage": "https://clawhub.ai/cyberforexblockchain/nexus-grammar-fix", "iconUrl": null, "installs": 12, "name": "NEXUS Grammar Fix", "ownerName": "cyberforexblockchain", "score": 96969.69696969698, "slug": "nexus-grammar-fix", "source": "clawhub", "stars": 0, "tags": ["ai", "cardano"], "updated_at": 1776728869596, "version": "1.0.1"}, {"category": "productivity", "created_at": 1773431058990, "description": "Navigate New York City for visits, moves, neighborhoods, transit, housing, food, work, and daily street-level decisions.", "description_zh": "", "downloads": 96, "homepage": "https://clawhub.ai/ivangdavila/new-york-city", "iconUrl": null, "installs": 4, "name": "New York City", "ownerName": "ivangdavila", "score": 97959.18367346938, "slug": "new-york-city", "source": "clawhub", "stars": 0, "tags": null, "updated_at": 1776719683686, "version": "1.0.0"}, {"category": "security-compliance", "created_at": 1773433811872, "description": "Manage YouTube video abuse report reasons. Use this skill to list available abuse report reasons. Useful when working with YouTube video abuse report reason...", "description_zh": "", "downloads": 96, "homepage": "https://clawhub.ai/openwaygate/youtube-video-abuse-report-reason", "iconUrl": null, "installs": 6, "name": "YouTube Video Abuse Report Reason", "ownerName": "openwaygate", "score": 100000, "slug": "youtube-video-abuse-report-reason", "source": "clawhub", "stars": 0, "tags": ["0.10.6-3", "0.10.7-dev"], "updated_at": 1776696283804, "version": "0.10.7-dev"}, {"category": "content-creation", "created_at": 1773434694065, "description": "A comprehensive spiritual companion for Muslims during Ramadan's last ten nights (Laylatul Qadr). Use this skill when users mention Ramadan preparation, last...", "description_zh": "", "downloads": 96, "homepage": "https://clawhub.ai/vajih/laylatul-qadr-guide", "iconUrl": null, "installs": 12, "name": "Laylatul Qadr Guide", "ownerName": "vajih", "score": 100000, "slug": "laylatul-qadr-guide", "source": "clawhub", "stars": 0, "tags": null, "updated_at": 1776696170193, "version": "0.1.0"}, {"category": "developer-tools", "created_at": 1773942961263, "description": "Real-time knowledge base synchronization for AI assistants. Supports inotifywait file monitoring, Git auto-push/pull, Nutstore sync, and multi-device consist...", "description_zh": "", "downloads": 96, "homepage": "https://clawhub.ai/alfredming-2026/knowledge-sync", "iconUrl": null, "installs": 15, "name": "Knowledge Sync", "ownerName": "alfredming-2026", "score": 100000, "slug": "knowledge-sync", "source": "clawhub", "stars": 0, "tags": null, "updated_at": 1776696169987, "version": "1.0.0"}, {"category": "security-compliance", "created_at": 1773914978658, "description": "Simple local security check (firewall, updates, ssh status) without external dependencies.", "description_zh": "", "downloads": 96, "homepage": "https://clawhub.ai/fedrov2025/local-healthcheck", "iconUrl": null, "installs": 4, "name": "Local Healthcheck", "ownerName": "fedrov2025", "score": 100000, "slug": "local-healthcheck", "source": "clawhub", "stars": 0, "tags": null, "updated_at": 1776696169700, "version": "1.0.0"}, {"category": "communication-collaboration", "created_at": 1773432203232, "description": "Livestorm integration. Manage Persons, Organizations, Deals, Leads, Activities, Notes and more. Use when the user wants to interact with Livestorm data.", "description_zh": "", "downloads": 96, "homepage": "https://clawhub.ai/gora050/livestorm", "iconUrl": null, "installs": 3, "name": "Livestorm", "ownerName": "gora050", "score": 98969.07216494846, "slug": "livestorm", "source": "clawhub", "stars": 0, "tags": null, "updated_at": 1776696169562, "version": "1.0.0"}, {"category": "data-analysis", "created_at": 1773431253443, "description": "FullContact integration. Manage Persons, Organizations. Use when the user wants to interact with FullContact data.", "description_zh": "", "downloads": 96, "homepage": "https://clawhub.ai/membranedev/fullcontact", "iconUrl": null, "installs": 5, "name": "Fullcontact", "ownerName": "membranedev", "score": 98969.07216494846, "slug": "fullcontact", "source": "clawhub", "stars": 0, "tags": null, "updated_at": 1776696044672, "version": "1.0.0"}, {"category": "developer-tools", "created_at": 1773917807168, "description": "Hong Kong Cinema helper with 4-step flow: 1. List now playing movies (numbered) 2. Show movie details with brief showtimes (unique cinemas + dates only) 3. F...", "description_zh": "", "downloads": 96, "homepage": "https://clawhub.ai/errchh/hk-cinema-now-playing", "iconUrl": null, "installs": 7, "name": "hk-cinema-now-playing", "ownerName": "errchh", "score": 98969.07216494846, "slug": "hk-cinema-now-playing", "source": "clawhub", "stars": 0, "tags": null, "updated_at": 1776696044656, "version": "1.0.3"}, {"category": "ai-intelligence", "created_at": 1773939086169, "description": "HOT3D (Hand-Object 3D Dataset) by Meta Facebook - multi-view egocentric hand and object 3D tracking for Aria/Quest smart glasses. State-of-the-art multi-view...", "description_zh": "", "downloads": 96, "homepage": "https://clawhub.ai/fujunhy/hot3d", "iconUrl": null, "installs": 15, "name": "Hot3d", "ownerName": "fujunhy", "score": 98969.07216494846, "slug": "hot3d", "source": "clawhub", "stars": 0, "tags": null, "updated_at": 1776696044497, "version": "0.1.0"}, {"category": "ai-intelligence", "created_at": 1773917828956, "description": "Switch between LLM models on the Huddle01 GRU gateway. Use this skill whenever the user mentions switching models, changing models, upgrading, downgrading, \"...", "description_zh": "", "downloads": 96, "homepage": "https://clawhub.ai/omguptaind/hudl-model-switch", "iconUrl": null, "installs": 6, "name": "Hudl AI Openclaw Model Switch", "ownerName": "omguptaind", "score": 98969.07216494846, "slug": "hudl-model-switch", "source": "clawhub", "stars": 0, "tags": ["ai-inference", "gru", "huddle01", "huddle01-cloud", "llm", "model-switching", "openclaw"], "updated_at": 1776696044468, "version": "1.0.3"}, {"category": "productivity", "created_at": 1773429678152, "description": "Retrieve business listings and information in North America (via AJAX endpoint).", "description_zh": "", "downloads": 96, "homepage": "https://clawhub.ai/zheng108/dealmoon", "iconUrl": null, "installs": 2, "name": "dealmoon", "ownerName": "zheng108", "score": 97959.18367346938, "slug": "dealmoon", "source": "clawhub", "stars": 0, "tags": null, "updated_at": 1776695983811, "version": "1.0.0"}, {"category": "developer-tools", "created_at": 1773930789748, "description": "Manage codeline via CLI - tools, products, orders, users, coupons. Use when user mentions 'codeline', 'products', 'orders', 'coupons', 'school platform', or...", "description_zh": "", "downloads": 96, "homepage": "https://clawhub.ai/melvynx/codeline-cli", "iconUrl": null, "installs": 7, "name": "Codeline Cli", "ownerName": "melvynx", "score": 100000, "slug": "codeline-cli", "source": "clawhub", "stars": 0, "tags": null, "updated_at": 1776695870266, "version": "0.1.0"}, {"category": "productivity", "created_at": 1773427969443, "description": "Cardinal integration. Manage Organizations, Pipelines, Users, Goals, Filters. Use when the user wants to interact with Cardinal data.", "description_zh": "", "downloads": 96, "homepage": "https://clawhub.ai/gora050/cardinal", "iconUrl": null, "installs": 2, "name": "Cardinal", "ownerName": "gora050", "score": 100000, "slug": "cardinal", "source": "clawhub", "stars": 0, "tags": null, "updated_at": 1776695870255, "version": "1.0.0"}, {"category": "productivity", "created_at": 1773432999648, "description": "Query empty classrooms at BUPT (Beijing University of Posts and Telecommunications) Xitucheng campus. Use when the user needs to find available/empty classro...", "description_zh": "", "downloads": 96, "homepage": "https://clawhub.ai/hlcle/bupt-empty-classroom", "iconUrl": null, "installs": 4, "name": "Bupt Empty Classroom", "ownerName": "hlcle", "score": 100000, "slug": "bupt-empty-classroom", "source": "clawhub", "stars": 0, "tags": null, "updated_at": 1776695870228, "version": "2.0.0"}, {"category": "developer-tools", "created_at": 1773920913246, "description": "aa", "description_zh": "", "downloads": 96, "homepage": "https://clawhub.ai/q878787/31231", "iconUrl": null, "installs": 9, "name": "3123123123", "ownerName": "q878787", "score": 100000, "slug": "31231", "source": "clawhub", "stars": 0, "tags": null, "updated_at": 1776695870222, "version": "1.0.0"}, {"category": "security-compliance", "created_at": 1773435165985, "description": "Use this skill when the user asks to manage Binance assets, check account security, scan for arbitrage opportunities, or perform automated dust sweeps. Comma...", "description_zh": "", "downloads": 96, "homepage": "https://clawhub.ai/hyy2099/aegisclaw", "iconUrl": null, "installs": 8, "name": "AegisClaw - 金甲龙虾", "ownerName": "hyy2099", "score": 100000, "slug": "aegisclaw", "source": "clawhub", "stars": 0, "tags": null, "updated_at": 1776695870204, "version": "1.0.0"}, {"category": "developer-tools", "created_at": 1773935330476, "description": "Safe shutdown/reboot workflow for local or remote machines. Use when the user asks to power off, restart, schedule shutdown, cancel shutdown, or perform pre-...", "description_zh": "", "downloads": 96, "homepage": "https://clawhub.ai/jvy/shutdown", "iconUrl": null, "installs": 9, "name": "shutdown", "ownerName": "jvy", "score": 100000, "slug": "shutdown", "source": "clawhub", "stars": 0, "tags": null, "updated_at": 1776695870091, "version": "1.0.0"}, {"category": "security-compliance", "created_at": 1773434109436, "description": "Gate DEX trading comprehensive skill. Supports MCP and OpenAPI dual modes: MCP mode calls through gate-wallet service (requires authentication), OpenAPI mode...", "description_zh": "", "downloads": 96, "homepage": "https://clawhub.ai/gate-exchange/gate-dex-trade", "iconUrl": null, "installs": 1, "name": "Gate DEX Trade", "ownerName": "gate-exchange", "score": 100000, "slug": "gate-dex-trade", "source": "clawhub", "stars": 0, "tags": null, "updated_at": 1776695870067, "version": "1.0.0"}, {"category": "content-creation", "created_at": 1773937991190, "description": "Generate a complete bedtime story audio program from a keyword — with intro, narration, character voices, and a sleepy outro. Use when parents or caregivers...", "description_zh": "", "downloads": 96, "homepage": "https://clawhub.ai/scikkk/bedtime-radio", "iconUrl": null, "installs": 13, "name": "Bedtime Radio", "ownerName": "scikkk", "score": 100000, "slug": "bedtime-radio", "source": "clawhub", "stars": 0, "tags": null, "updated_at": 1776695870049, "version": "1.0.0"}, {"category": "communication-collaboration", "created_at": 1773290943797, "description": "Send transactional emails (alerts, reports, receipts, notifications) via the Truncus API. Use when a workflow needs to deliver email to a recipient.", "description_zh": "", "downloads": 96, "homepage": "https://clawhub.ai/codevanmoose/truncus-email", "iconUrl": null, "installs": 3, "name": "Truncus Email", "ownerName": "codevanmoose", "score": 100000, "slug": "truncus-email", "source": "clawhub", "stars": 0, "tags": null, "updated_at": 1776695870025, "version": "1.0.0"}, {"category": "ai-intelligence", "created_at": 1773937003110, "description": "Agent Interconnect - Discover and invoke other AI Agents. Use when: need cross-platform collaboration, delegate tasks to specialized agents, or build multi-a...", "description_zh": "", "downloads": 96, "homepage": "https://clawhub.ai/huaibuer/a2a-waai", "iconUrl": null, "installs": 11, "name": "A2a", "ownerName": "huaibuer", "score": 100000, "slug": "a2a-waai", "source": "clawhub", "stars": 0, "tags": null, "updated_at": 1776695870005, "version": "1.2.0"}, {"category": "ai-intelligence", "created_at": 1773433645036, "description": "Butter Network DEX Aggregator for cross-chain token swaps. Get swap quotes, route transaction data, and cross-chain routing information. Use this skill whene...", "description_zh": "", "downloads": 96, "homepage": "https://clawhub.ai/ivanmacaron/butter-swap-skill", "iconUrl": null, "installs": 6, "name": "ButterSwap", "ownerName": "ivanmacaron", "score": 100000, "slug": "butter-swap-skill", "source": "clawhub", "stars": 0, "tags": null, "updated_at": 1776695869985, "version": "1.0.0"}, {"category": "developer-tools", "created_at": 1773434112269, "description": "Gate DEX comprehensive wallet skill. Unified entry point supporting: authentication login, asset queries, transfer execution, DApp interactions, CLI command-...", "description_zh": "", "downloads": 96, "homepage": "https://clawhub.ai/gate-exchange/gate-dex-wallet", "iconUrl": null, "installs": 6, "name": "Gate DEX Wallet", "ownerName": "gate-exchange", "score": 100000, "slug": "gate-dex-wallet", "source": "clawhub", "stars": 0, "tags": null, "updated_at": 1776695869968, "version": "1.0.0"}, {"category": "data-analysis", "created_at": 1773922212417, "description": "Query and organize China travel information for flights and trains, including schedules, prices, duration, stops, and summary tables. Use when the user asks...", "description_zh": "", "downloads": 96, "homepage": "https://clawhub.ai/liubroth/traffic-query", "iconUrl": null, "installs": 10, "name": "Traffic Query", "ownerName": "liubroth", "score": 100000, "slug": "traffic-query", "source": "clawhub", "stars": 0, "tags": null, "updated_at": 1776695869947, "version": "1.0.1"}, {"category": "ai-intelligence", "created_at": 1773925090039, "description": "Set up reliable off-site Reolink camera backup when cameras are remote (4G/5G/LTE) and home inbound networking is constrained (CGNAT/locked routers). Use for...", "description_zh": "", "downloads": 96, "homepage": "https://clawhub.ai/ccaprani/reolink-remote-backup", "iconUrl": null, "installs": 9, "name": "Reolink Remote Backup", "ownerName": "ccaprani", "score": 100000, "slug": "reolink-remote-backup", "source": "clawhub", "stars": 0, "tags": null, "updated_at": 1776695869875, "version": "0.3.0"}, {"category": "productivity", "created_at": 1773430731982, "description": "Menstrual cycle tracker designed for partners. Calculates current phase from one input (last period date), provides factual phase info (hormones, energy, moo...", "description_zh": "", "downloads": 96, "homepage": "https://clawhub.ai/romain-grosos/cycle-companion", "iconUrl": null, "installs": 2, "name": "Cycle Companion", "ownerName": "romain-grosos", "score": 100000, "slug": "cycle-companion", "source": "clawhub", "stars": 0, "tags": null, "updated_at": 1776695869845, "version": "1.0.0"}, {"category": "productivity", "created_at": 1773432912310, "description": "Route user tasks to the most relevant skills using a layered taxonomy, risk model, and minimum-necessary-loading strategy. Use when deciding which skill to l...", "description_zh": "", "downloads": 96, "homepage": "https://clawhub.ai/wzk332266/skill-taxonomy-router-pro", "iconUrl": null, "installs": 4, "name": "Skill Taxonomy Router Pro", "ownerName": "wzk332266", "score": 100000, "slug": "skill-taxonomy-router-pro", "source": "clawhub", "stars": 0, "tags": null, "updated_at": 1776695869838, "version": "1.1.0"}, {"category": "data-analysis", "created_at": 1773434943956, "description": "Online (real-time) data analysis, rule extraction, and pattern recognition for testing scenarios. Activate when user mentions test online analysis, real-time...", "description_zh": "", "downloads": 96, "homepage": "https://clawhub.ai/shineniefei/test-online-analysis", "iconUrl": null, "installs": 9, "name": "Online Analysis", "ownerName": "shineniefei", "score": 100000, "slug": "test-online-analysis", "source": "clawhub", "stars": 0, "tags": null, "updated_at": 1776695869828, "version": "1.0.0"}, {"category": "data-analysis", "created_at": 1773935487665, "description": "Automate affiliate and KOL reconciliation, attribution, true ROAS, commission math, and renewal strategy. Use when the user has more than ~5 KOL or affiliate...", "description_zh": "", "downloads": 96, "homepage": "https://clawhub.ai/rijoyai/affiliate-kol-roi-monitor", "iconUrl": null, "installs": 10, "name": "Affiliate Kol Roi Monitor", "ownerName": "rijoyai", "score": 100000, "slug": "affiliate-kol-roi-monitor", "source": "clawhub", "stars": 0, "tags": null, "updated_at": 1776695869671, "version": "0.1.0"}, {"category": "ai-intelligence", "created_at": 1773434221090, "description": "A complete skill for interacting with the paip.ai (openclaw paip.ai) platform. Supports user login/registration, viewing and updating profile information, qu...", "description_zh": "", "downloads": 96, "homepage": "https://clawhub.ai/allentom/surf-paipai-ai", "iconUrl": null, "installs": 4, "name": "Surf Paipai.AI", "ownerName": "allentom", "score": 98969.07216494846, "slug": "surf-paipai-ai", "source": "clawhub", "stars": 0, "tags": null, "updated_at": 1776695869587, "version": "1.0.1"}, {"category": "content-creation", "created_at": 1773943406675, "description": "Beamer LaTeX slide workflow: create, compile, review, and polish academic presentations. Use this skill whenever the user works on Beamer .tex slide decks, o...", "description_zh": "", "downloads": 96, "homepage": "https://clawhub.ai/noi1r/beamer-slide", "iconUrl": null, "installs": 21, "name": "Beamer Slide", "ownerName": "noi1r", "score": 98969.07216494846, "slug": "beamer-slide", "source": "clawhub", "stars": 0, "tags": null, "updated_at": 1776695755501, "version": "1.0.2"}, {"category": "developer-tools", "created_at": 1773947368109, "description": "Create distinctive, production-grade frontend interfaces with high design quality. Use this skill when the user asks to build web components, pages, artifact...", "description_zh": "", "downloads": 96, "homepage": "https://clawhub.ai/phy041/phy-frontend-design", "iconUrl": null, "installs": 17, "name": "phy-frontend-design", "ownerName": "phy041", "score": 98969.07216494846, "slug": "phy-frontend-design", "source": "clawhub", "stars": 0, "tags": ["productivity"], "updated_at": 1776695755463, "version": "1.0.0"}]}