{"page": 398, "total_pages": 522, "total": 26073, "skills": [{"category": "developer-tools", "created_at": 1773949190219, "description": "Comprehensive ROS 2 engineering guide covering workspace setup, node architecture, communication patterns (topics/services/actions with QoS), lifecycle and c...", "description_zh": "", "downloads": 95, "homepage": "https://clawhub.ai/dbwls99706/ros2-engineering-skills", "iconUrl": null, "installs": 10, "name": "ros2-engineering-skills", "ownerName": "dbwls99706", "score": 1389.7280966767373, "slug": "ros2-engineering-skills", "source": "clawhub", "stars": 1, "tags": null, "updated_at": 1776765250305, "version": "1.0.2"}, {"category": "developer-tools", "created_at": 1773433836830, "description": "Validate OpenClaw skills during authoring. Use when creating, revising, or preparing a skill for release and you need to scaffold `evals/` files, check readi...", "description_zh": "", "downloads": 95, "homepage": "https://clawhub.ai/stonechen1014/skill-eval-preflight", "iconUrl": null, "installs": 14, "name": "Skill Eval Preflight", "ownerName": "stonechen1014", "score": 7111.935683364255, "slug": "skill-eval-preflight", "source": "clawhub", "stars": 1, "tags": ["eval", "preflight", "readiness", "skill-authoring", "trigger-coverage"], "updated_at": 1776746983722, "version": "1.0.0"}, {"category": "", "created_at": 1774954520119, "description": "Systematically analyze scientific papers by mapping figures to discussions, identifying logical flow, and tracking evidence sources. Figures are the backbone...", "description_zh": "", "downloads": 95, "homepage": "https://clawhub.ai/larry-of-cosmotim/plot-logic-pipeline", "iconUrl": null, "installs": 29, "name": "Plot Logic Pipeline", "ownerName": "larry-of-cosmotim", "score": 8870.214752567694, "slug": "plot-logic-pipeline", "source": "clawhub", "stars": 0, "tags": null, "updated_at": 1776769190467, "version": "1.0.0"}, {"category": "developer-tools", "created_at": 1773944032818, "description": "Evidence-first verification for status, config, file contents, actions, connectivity, mounts, and model selection. Use before answering any such claim.", "description_zh": "", "downloads": 95, "homepage": "https://clawhub.ai/royhk920/truth-frist", "iconUrl": null, "installs": 6, "name": "Truth first", "ownerName": "royhk920", "score": 7404.52065471551, "slug": "truth-frist", "source": "clawhub", "stars": 0, "tags": null, "updated_at": 1776759798058, "version": "1.5.0"}, {"category": "", "created_at": 1774883945999, "description": "Assists in academic writing by sourcing research, generating outlines, expanding essays with citations, and improving style while ensuring citation integrity.", "description_zh": "", "downloads": 95, "homepage": "https://clawhub.ai/kevin0818-lxd/academic-composer", "iconUrl": null, "installs": 24, "name": "Academic Composer Upload", "ownerName": "kevin0818-lxd", "score": 23869.346733668342, "slug": "academic-composer", "source": "clawhub", "stars": 0, "tags": ["academic", "apa", "chicago", "citations", "education", "essay", "mla", "research", "writing"], "updated_at": 1776759797899, "version": "1.0.3"}, {"category": "ai-intelligence", "created_at": 1773957427865, "description": "Register and log in to PowPow, create and manage digital humans using badges, and chat with them in real time via SSE.", "description_zh": "", "downloads": 95, "homepage": "https://clawhub.ai/durenzidu/powpow-integration", "iconUrl": null, "installs": 14, "name": "POWPOW Integration", "ownerName": "durenzidu", "score": 7421.875, "slug": "powpow-integration", "source": "clawhub", "stars": 0, "tags": ["ai", "chat", "digital-human", "openclaw", "powpow", "skill"], "updated_at": 1776759797751, "version": "1.0.5"}, {"category": "data-analysis", "created_at": 1773950693094, "description": "Detects large cbBTC whale movements on Base within 4 hours, indicating accumulation, distribution, or neutral Bitcoin market signals.", "description_zh": "", "downloads": 95, "homepage": "https://clawhub.ai/kokoju007/whale-radar-orion", "iconUrl": null, "installs": 11, "name": "Whale Radar — Orion", "ownerName": "kokoju007", "score": 7387.2472783825815, "slug": "whale-radar-orion", "source": "clawhub", "stars": 0, "tags": ["acp", "base-chain", "bitcoin", "cbbtc", "crypto", "on-chain", "orion", "trading-signals", "whale"], "updated_at": 1776759797686, "version": "1.0.0"}, {"category": "", "created_at": 1774864218537, "description": "Serverless integration. Manage data, records, and automate workflows. Use when the user wants to interact with Serverless data.", "description_zh": "", "downloads": 95, "homepage": "https://clawhub.ai/gora050/serverless", "iconUrl": null, "installs": 1, "name": "Serverless", "ownerName": "gora050", "score": 5747.126436781609, "slug": "serverless", "source": "clawhub", "stars": 0, "tags": null, "updated_at": 1776757582395, "version": "1.0.0"}, {"category": "content-creation", "created_at": 1773943580739, "description": "Custom TTS using Gemini 2.5 Flash for high-quality, persona-driven voice output.", "description_zh": "", "downloads": 95, "homepage": "https://clawhub.ai/yangzhe1991/gemini-tts", "iconUrl": null, "installs": 14, "name": "Gemini Tts", "ownerName": "yangzhe1991", "score": 5617.9775280898875, "slug": "gemini-tts", "source": "clawhub", "stars": 0, "tags": null, "updated_at": 1776756188562, "version": "1.0.0"}, {"category": "productivity", "created_at": 1773954242635, "description": "Structured problem diagnosis and resolution methodology. Use when: (1) a problem's cause is unclear and requires investigation, (2) a previous fix attempt fa...", "description_zh": "", "downloads": 95, "homepage": "https://clawhub.ai/lovensky1992-wk/problem-solving-methodology", "iconUrl": null, "installs": 4, "name": "Problem Solving", "ownerName": "lovensky1992-wk", "score": 17086.330935251797, "slug": "problem-solving-methodology", "source": "clawhub", "stars": 0, "tags": null, "updated_at": 1776751244493, "version": "0.1.1"}, {"category": "ai-intelligence", "created_at": 1773924942956, "description": "Spawn subagents with personas from a local workspace library or the Emblem persona marketplace. Use when a task needs a different voice, expertise, or operat...", "description_zh": "", "downloads": 95, "homepage": "https://clawhub.ai/decentraliser/persona-spawn", "iconUrl": null, "installs": 4, "name": "Persona Spawn", "ownerName": "decentraliser", "score": 63758.38926174496, "slug": "persona-spawn", "source": "clawhub", "stars": 0, "tags": null, "updated_at": 1776749755533, "version": "1.2.0"}, {"category": "communication-collaboration", "created_at": 1773433564326, "description": "Build respectful multi-touch outreach sequences with channel mix, follow-up timing, objection handling, and logging templates.", "description_zh": "", "downloads": 95, "homepage": "https://clawhub.ai/52yuanchangxing/outreach-sequence-crafter", "iconUrl": null, "installs": 11, "name": "outreach-sequence-crafter", "ownerName": "52yuanchangxing", "score": 100000, "slug": "outreach-sequence-crafter", "source": "clawhub", "stars": 0, "tags": null, "updated_at": 1776744344477, "version": "1.0.0"}, {"category": "content-creation", "created_at": 1773920321139, "description": "Research a business website, produce a concise prospect report, recommend concrete OpenClaw use cases, and draft a tailored outreach email. Use when demonstr...", "description_zh": "", "downloads": 95, "homepage": "https://clawhub.ai/lexalex36/outreach-demo", "iconUrl": null, "installs": 4, "name": "Outreach Demo", "ownerName": "lexalex36", "score": 100000, "slug": "outreach-demo", "source": "clawhub", "stars": 0, "tags": ["demo", "email", "outreach", "prospecting", "research"], "updated_at": 1776744344413, "version": "1.0.0"}, {"category": "developer-tools", "created_at": 1773920478944, "description": "Launch, stop, restart, or check the status of a remote Chrome browser service using Xvfb, x11vnc, and noVNC. Use this whenever the user wants to start a head...", "description_zh": "", "downloads": 95, "homepage": "https://clawhub.ai/kelvinschen/remote-chrome", "iconUrl": null, "installs": 7, "name": "remote-chrome", "ownerName": "kelvinschen", "score": 100000, "slug": "remote-chrome", "source": "clawhub", "stars": 0, "tags": null, "updated_at": 1776744284423, "version": "1.0.0"}, {"category": "", "created_at": 1774884802974, "description": "Deep project planning workflow—goals and non-goals, work breakdown, dependencies, critical path, risks and buffers, milestones, and communication rhythm. Use...", "description_zh": "", "downloads": 95, "homepage": "https://clawhub.ai/codekungfu/project-planning", "iconUrl": null, "installs": 10, "name": "Project Planning", "ownerName": "codekungfu", "score": 100000, "slug": "project-planning", "source": "clawhub", "stars": 0, "tags": null, "updated_at": 1776742483683, "version": "1.0.0"}, {"category": "ai-intelligence", "created_at": 1773953482514, "description": "Transform AI agents from task-followers into proactive partners with memory architecture, reverse prompting, and self-healing patterns. Lightweight version f...", "description_zh": "", "downloads": 95, "homepage": "https://clawhub.ai/muguozi1/muguozi1-openclaw-proactive-agent-lite", "iconUrl": null, "installs": 27, "name": "Muguozi1 Openclaw Proactive Agent Lite", "ownerName": "muguozi1", "score": 97938.14432989691, "slug": "muguozi1-openclaw-proactive-agent-lite", "source": "clawhub", "stars": 0, "tags": null, "updated_at": 1776738284222, "version": "1.0.0"}, {"category": "developer-tools", "created_at": 1773920098736, "description": "B-only Quick Auth for Moss platform. Use only api-login / api-register (no email code flow).", "description_zh": "", "downloads": 95, "homepage": "https://clawhub.ai/helloeveryworlds/moss-platform-quick-auth", "iconUrl": null, "installs": 7, "name": "Moss Platform Quick Auth", "ownerName": "helloeveryworlds", "score": 80508.47457627118, "slug": "moss-platform-quick-auth", "source": "clawhub", "stars": 0, "tags": ["auth", "moss"], "updated_at": 1776712069594, "version": "0.1.1"}, {"category": "productivity", "created_at": 1773912378116, "description": "Moskit integration. Manage Organizations, Activities, Notes, Files, Pipelines, Users and more. Use when the user wants to interact with Moskit data.", "description_zh": "", "downloads": 95, "homepage": "https://clawhub.ai/gora050/moskit", "iconUrl": null, "installs": 3, "name": "Moskit", "ownerName": "gora050", "score": 80508.47457627118, "slug": "moskit", "source": "clawhub", "stars": 0, "tags": null, "updated_at": 1776712069582, "version": "1.0.0"}, {"category": "productivity", "created_at": 1773432419832, "description": "Define, apply, or review a reusable metadata-based filename standard for files, folders, inventories, archives, and generated catalogs. Use when the user wan...", "description_zh": "", "downloads": 95, "homepage": "https://clawhub.ai/luw2007/metadata-naming", "iconUrl": null, "installs": 9, "name": "Metadata Naming", "ownerName": "luw2007", "score": 84821.42857142857, "slug": "metadata-naming", "source": "clawhub", "stars": 0, "tags": null, "updated_at": 1776702583800, "version": "0.1.0"}, {"category": "developer-tools", "created_at": 1773925257680, "description": "Lightweight URL uptime checker and response time monitor. Check if websites and APIs are up, measure response times, track history, and detect SSL issues. Us...", "description_zh": "", "downloads": 95, "homepage": "https://clawhub.ai/johnnywang2001/uptime-checker", "iconUrl": null, "installs": 6, "name": "Uptime Checker", "ownerName": "johnnywang2001", "score": 96938.77551020408, "slug": "uptime-checker", "source": "clawhub", "stars": 0, "tags": null, "updated_at": 1776696284323, "version": "1.0.0"}, {"category": "ai-intelligence", "created_at": 1773936238398, "description": "Aggregates and summarizes the latest AI news from multiple sources including AI news websites and web search. Provides concise news briefs with direct links...", "description_zh": "", "downloads": 95, "homepage": "https://clawhub.ai/nicky1108/yyh211-daily-ai-news", "iconUrl": null, "installs": 16, "name": "Yyh211 Daily Ai News", "ownerName": "nicky1108", "score": 100000, "slug": "yyh211-daily-ai-news", "source": "clawhub", "stars": 0, "tags": null, "updated_at": 1776696284069, "version": "1.0.0"}, {"category": "productivity", "created_at": 1773433599387, "description": "Monitor X/Twitter accounts for new tweets and send notifications to Telegram.", "description_zh": "", "downloads": 95, "homepage": "https://clawhub.ai/mmmuffin/x-tweet-monitor", "iconUrl": null, "installs": 2, "name": "X Tweet Monitor", "ownerName": "mmmuffin", "score": 98958.33333333334, "slug": "x-tweet-monitor", "source": "clawhub", "stars": 0, "tags": null, "updated_at": 1776696283830, "version": "1.0.0"}, {"category": "security-compliance", "created_at": 1773922768994, "description": "Use when building or updating vulnerability pattern Skills from multiple sources: GitHub Security Advisories (GHSA), HackerOne Hacktivity, or NVD. Triggers o...", "description_zh": "", "downloads": 95, "homepage": "https://clawhub.ai/yhy0/ghsa-skill-builder", "iconUrl": null, "installs": 3, "name": "Ghsa Skill Builder", "ownerName": "yhy0", "score": 98958.33333333334, "slug": "ghsa-skill-builder", "source": "clawhub", "stars": 0, "tags": null, "updated_at": 1776695870329, "version": "0.1.0"}, {"category": "productivity", "created_at": 1773912567156, "description": "Privacy-respecting metasearch using your local SearXNG instance. Search the web, images, news, and more without external API dependencies.", "description_zh": "", "downloads": 95, "homepage": "https://clawhub.ai/macdesire/searxng-backup", "iconUrl": null, "installs": 4, "name": "Searxng Backup", "ownerName": "macdesire", "score": 98958.33333333334, "slug": "searxng-backup", "source": "clawhub", "stars": 0, "tags": null, "updated_at": 1776695870264, "version": "1.0.0"}, {"category": "developer-tools", "created_at": 1773290437060, "description": "Store and retrieve data on IPFS and query collector UTXOs for the Indigo Protocol.", "description_zh": "", "downloads": 95, "homepage": "https://clawhub.ai/adacapo21/indigo-ipfs", "iconUrl": null, "installs": 2, "name": "Indigo IPFS", "ownerName": "adacapo21", "score": 98958.33333333334, "slug": "indigo-ipfs", "source": "clawhub", "stars": 0, "tags": null, "updated_at": 1776695870192, "version": "1.0.0"}, {"category": "", "created_at": 1774912005630, "description": "Generate/edit images with nanobanana2 (Gemini 3.1 Flash Image preview). Use for image create/modify requests incl. edits. Supports text-to-image + image-to-i...", "description_zh": "", "downloads": 95, "homepage": "https://clawhub.ai/zealman2025/nanobanana2", "iconUrl": null, "installs": 22, "name": "nanobanana2", "ownerName": "zealman2025", "score": 98958.33333333334, "slug": "nanobanana2", "source": "clawhub", "stars": 0, "tags": null, "updated_at": 1776695870180, "version": "2.0.0"}, {"category": "developer-tools", "created_at": 1773913034118, "description": "Manage a Jellyfin/Plex + *Arr media server stack — check status, add content, monitor downloads, diagnose issues, restart services.", "description_zh": "", "downloads": 95, "homepage": "https://clawhub.ai/maxtechera/admirarr", "iconUrl": null, "installs": 4, "name": "Admirarr", "ownerName": "maxtechera", "score": 98958.33333333334, "slug": "admirarr", "source": "clawhub", "stars": 0, "tags": null, "updated_at": 1776695870171, "version": "1.0.0"}, {"category": "data-analysis", "created_at": 1773912001422, "description": "[DEPRECATED] This skill has been merged into cortex-engine. Install clawhub.ai/idapixl/cortex-engine instead.", "description_zh": "", "downloads": 95, "homepage": "https://clawhub.ai/idapixl/cortex-query", "iconUrl": null, "installs": 7, "name": "Cortex Query (Deprecated)", "ownerName": "idapixl", "score": 98958.33333333334, "slug": "cortex-query", "source": "clawhub", "stars": 0, "tags": ["deprecated"], "updated_at": 1776695870162, "version": "1.1.0"}, {"category": "security-compliance", "created_at": 1773430696398, "description": "Use when the user wants a local-first TOTP helper for accounts they personally own or are explicitly authorized to access. This skill stores TOTP seeds in sy...", "description_zh": "", "downloads": 95, "homepage": "https://clawhub.ai/lucaszh7/auto-authenticator-local", "iconUrl": null, "installs": 3, "name": "Auto Authenticator Local", "ownerName": "lucaszh7", "score": 98958.33333333334, "slug": "auto-authenticator-local", "source": "clawhub", "stars": 0, "tags": ["authenticator", "local-first", "privacy", "security", "totp"], "updated_at": 1776695870071, "version": "1.0.0"}, {"category": "developer-tools", "created_at": 1773435126496, "description": "Get both public (external) and local (internal) IP addresses using simple shell commands. Use when the user asks for their IP, public IP, or local network ad...", "description_zh": "", "downloads": 95, "homepage": "https://clawhub.ai/chenxinjie005/cxj-ip-2026", "iconUrl": null, "installs": 8, "name": "Myip", "ownerName": "chenxinjie005", "score": 98958.33333333334, "slug": "cxj-ip-2026", "source": "clawhub", "stars": 0, "tags": null, "updated_at": 1776695869992, "version": "1.0.0"}, {"category": "ai-intelligence", "created_at": 1773927378151, "description": "Memory file maintenance and optimization system. Use when factual information (portfolio, projects, technical details) accumulates in MEMORY.md, or when peri...", "description_zh": "", "downloads": 95, "homepage": "https://clawhub.ai/webray1983/clear-mind-skill", "iconUrl": null, "installs": 8, "name": "Clear Mind", "ownerName": "webray1983", "score": 98958.33333333334, "slug": "clear-mind-skill", "source": "clawhub", "stars": 0, "tags": null, "updated_at": 1776695869966, "version": "0.1.0"}, {"category": "developer-tools", "created_at": 1773922740773, "description": "Manage sub-accounts on Gate Exchange including querying status, listing, creating, locking, and unlocking sub-accounts. Use this skill whenever the user asks...", "description_zh": "", "downloads": 95, "homepage": "https://clawhub.ai/gate-exchange/gate-exchange-subaccount", "iconUrl": null, "installs": 10, "name": "Gate Exchange Subaccount", "ownerName": "gate-exchange", "score": 98958.33333333334, "slug": "gate-exchange-subaccount", "source": "clawhub", "stars": 0, "tags": null, "updated_at": 1776695869962, "version": "1.0.0"}, {"category": "developer-tools", "created_at": 1773430651980, "description": "Adopt a virtual Persian at animalhouse.ai. Has a grooming bar alongside hunger. Two maintenance tracks. Feeding every 6 hours — uncommon tier.", "description_zh": "", "downloads": 95, "homepage": "https://clawhub.ai/twinsgeeks/adopt-a-persian", "iconUrl": null, "installs": 7, "name": "Adopt a Persian — Virtual Cat Pet for AI Agents", "ownerName": "twinsgeeks", "score": 98958.33333333334, "slug": "adopt-a-persian", "source": "clawhub", "stars": 0, "tags": ["adopt", "ai-agents", "animalhouse", "cat", "creatures", "digital-pet", "evolution", "graveyard", "grooming", "hunger", "permanent-death", "persian", "pet-care", "pixel-art", "pixel-art-avatar", "real-life", "real-time", "solitary", "tamagotchi", "uncommon", "virtual-pet"], "updated_at": 1776695869945, "version": "1.0.0"}, {"category": "ai-intelligence", "created_at": 1773922040827, "description": "Build your digital twin through conversation. Your AI learns who you are by talking to you — not by reading a form.", "description_zh": "", "downloads": 95, "homepage": "https://clawhub.ai/paul-leo/second-me", "iconUrl": null, "installs": 9, "name": "Second Me", "ownerName": "paul-leo", "score": 98958.33333333334, "slug": "second-me", "source": "clawhub", "stars": 0, "tags": null, "updated_at": 1776695869872, "version": "1.0.1"}, {"category": "data-analysis", "created_at": 1773432744238, "description": "Exchange listing tracker. Use this skill whenever the user asks about exchange listing, delisting, or maintenance announcements. Trigger phrases include: any...", "description_zh": "", "downloads": 95, "homepage": "https://clawhub.ai/gate-exchange/gate-news-listing", "iconUrl": null, "installs": 8, "name": "Gate News Listing", "ownerName": "gate-exchange", "score": 98958.33333333334, "slug": "gate-news-listing", "source": "clawhub", "stars": 0, "tags": null, "updated_at": 1776695869800, "version": "1.0.1"}, {"category": "content-creation", "created_at": 1773934085047, "description": "Rewrite a song with a new theme while preserving the original's rhyme scheme, line structure, and rhythmic skeleton. Use when users want to parody a song, wr...", "description_zh": "", "downloads": 95, "homepage": "https://clawhub.ai/scikkk/lyric-flip", "iconUrl": null, "installs": 11, "name": "Lyric Flip", "ownerName": "scikkk", "score": 98958.33333333334, "slug": "lyric-flip", "source": "clawhub", "stars": 0, "tags": null, "updated_at": 1776695869781, "version": "1.0.0"}, {"category": "developer-tools", "created_at": 1773927277470, "description": "Run a full spec-code audit on the Cathedral codebase. Use after build waves, major refactors, or when spec-code drift is suspected. Produces forward audit (s...", "description_zh": "", "downloads": 95, "homepage": "https://clawhub.ai/hydroculator/cathedral-audit", "iconUrl": null, "installs": 11, "name": "Cathedral Audit", "ownerName": "hydroculator", "score": 98958.33333333334, "slug": "cathedral-audit", "source": "clawhub", "stars": 0, "tags": null, "updated_at": 1776695869766, "version": "1.0.0"}, {"category": "data-analysis", "created_at": 1773939420906, "description": "Free stock and crypto momentum scanner with social sentiment analysis. Scans S&P 500, Nasdaq 100, and crypto for momentum signals using RSI, EMA, Bollinger S...", "description_zh": "", "downloads": 95, "homepage": "https://clawhub.ai/nomadrex/ripe-scanner", "iconUrl": null, "installs": 16, "name": "Ripe Scanner", "ownerName": "nomadrex", "score": 98958.33333333334, "slug": "ripe-scanner", "source": "clawhub", "stars": 0, "tags": null, "updated_at": 1776695869749, "version": "1.0.0"}, {"category": "developer-tools", "created_at": 1773434569791, "description": "API-first email platform designed for AI agents. Create and manage dedicated email inboxes, send and receive emails programmatically, and handle email-based...", "description_zh": "", "downloads": 95, "homepage": "https://clawhub.ai/liguang00806/agentmail-temp", "iconUrl": null, "installs": 7, "name": "Agentmail Temp", "ownerName": "liguang00806", "score": 98958.33333333334, "slug": "agentmail-temp", "source": "clawhub", "stars": 0, "tags": null, "updated_at": 1776695869676, "version": "1.0.0"}, {"category": "developer-tools", "created_at": 1773951214165, "description": "Subscribe to OKX public exchange WebSocket channels through UXC raw WebSocket mode for ticker, trade, book, and candle events with explicit subscribe frames.", "description_zh": "", "downloads": 95, "homepage": "https://clawhub.ai/jolestar/okx-exchange-websocket-skill", "iconUrl": null, "installs": 22, "name": "OKX Exchange WebSocket Skill", "ownerName": "jolestar", "score": 98958.33333333334, "slug": "okx-exchange-websocket-skill", "source": "clawhub", "stars": 0, "tags": null, "updated_at": 1776695869656, "version": "1.0.0"}, {"category": "data-analysis", "created_at": 1773939929178, "description": "Executes a hybrid quantitative and qualitative CANSLIM analysis on US stocks using a fixed schema and a modular Python pipeline, returning a ranked shortlist.", "description_zh": "", "downloads": 95, "homepage": "https://clawhub.ai/lkmsteven/canslim-analysis", "iconUrl": null, "installs": 8, "name": "canslim-analysis", "ownerName": "lkmsteven", "score": 98958.33333333334, "slug": "canslim-analysis", "source": "clawhub", "stars": 0, "tags": null, "updated_at": 1776695869654, "version": "1.0.1"}, {"category": "communication-collaboration", "created_at": 1773434825764, "description": "Check creator collaboration readiness before campaign launch. Use when you need to reduce misunderstandings, delays, and delivery quality issues.", "description_zh": "", "downloads": 95, "homepage": "https://clawhub.ai/leooooooow/creator-collab-checklist", "iconUrl": null, "installs": 4, "name": "Creator Collab Checklist", "ownerName": "leooooooow", "score": 98958.33333333334, "slug": "creator-collab-checklist", "source": "clawhub", "stars": 0, "tags": null, "updated_at": 1776695869609, "version": "1.0.0"}, {"category": "developer-tools", "created_at": 1773949029576, "description": "Webhook testing and debugging tool. Send test webhook payloads to any URL, simulate various webhook events (GitHub, Stripe, Slack), inspect responses, and lo...", "description_zh": "", "downloads": 95, "homepage": "https://clawhub.ai/bytesagain/webhook-tester", "iconUrl": null, "installs": 7, "name": "Webhook Tester", "ownerName": "bytesagain", "score": 97938.14432989691, "slug": "webhook-tester", "source": "clawhub", "stars": 0, "tags": null, "updated_at": 1776695869547, "version": "1.0.2"}, {"category": "developer-tools", "created_at": 1773937081257, "description": "Map and location services for search, routing, and visualization. Provides geocoding, POI search, route planning, and heatmap generation capabilities.", "description_zh": "", "downloads": 95, "homepage": "https://clawhub.ai/ayalnova/amap-integration", "iconUrl": null, "installs": 14, "name": "Map Integration Service", "ownerName": "ayalnova", "score": 97938.14432989691, "slug": "amap-integration", "source": "clawhub", "stars": 0, "tags": null, "updated_at": 1776695869546, "version": "1.0.2"}, {"category": "developer-tools", "created_at": 1773928492396, "description": "Autonomous optimization loop that improves any measurable thing. Point it at files to change, a command to check, and a number to improve — then walk away. W...", "description_zh": "", "downloads": 94, "homepage": "https://clawhub.ai/zanetworker/autoimprove", "iconUrl": null, "installs": 8, "name": "Autoimprove", "ownerName": "zanetworker", "score": 100000, "slug": "autoimprove", "source": "clawhub", "stars": 1, "tags": ["agents", "autonomous", "ml", "optimization", "performance"], "updated_at": 1776736069722, "version": "1.0.1"}, {"category": "ai-intelligence", "created_at": 1773915594955, "description": "Backup, sync, and restore agent memory and state to the cloud using the Agent Life Format (ALF). Use when asked to back up agent data, sync memory to the clo...", "description_zh": "", "downloads": 94, "homepage": "https://clawhub.ai/logikoma/agent-life", "iconUrl": null, "installs": 5, "name": "Agent Life", "ownerName": "logikoma", "score": 85714.28571428571, "slug": "agent-life", "source": "clawhub", "stars": 1, "tags": ["alf", "backup", "memory", "migration", "sync"], "updated_at": 1776695271048, "version": "1.2.0"}, {"category": "content-creation", "created_at": 1773430642936, "description": "Build a review-gated digital twin reply from persona markdown, persona examples, and live conversation context. Use when you need to imitate a specific user'...", "description_zh": "", "downloads": 94, "homepage": "https://clawhub.ai/xming521/weclone-twin-reply", "iconUrl": null, "installs": 4, "name": "Weclone Twin Reply", "ownerName": "xming521", "score": 85714.28571428571, "slug": "weclone-twin-reply", "source": "clawhub", "stars": 1, "tags": null, "updated_at": 1776695270302, "version": "0.1.0"}, {"category": "ai-intelligence", "created_at": 1773942585467, "description": "Comprehensive GEO audit diagnosing why AI systems cannot discover, cite, or recommend a website — scores technical, content, schema, and brand dimensions wit...", "description_zh": "", "downloads": 94, "homepage": "https://clawhub.ai/enzyme2013/geo-audit", "iconUrl": null, "installs": 13, "name": "Geo Audit", "ownerName": "enzyme2013", "score": 85714.28571428571, "slug": "geo-audit", "source": "clawhub", "stars": 1, "tags": null, "updated_at": 1776695269818, "version": "0.1.0"}, {"category": "", "created_at": 1774829492201, "description": "Feishu/Lark Bitable CRUD skill. Teaches your agent to correctly use feishu_bitable_* tools for creating, reading, updating records in Feishu Bitable. Handles...", "description_zh": "", "downloads": 94, "homepage": "https://clawhub.ai/lingzuer/feishu-bitable-crud", "iconUrl": null, "installs": 6, "name": "Feishu Bitable CRUD", "ownerName": "lingzuer", "score": 2326.732673267327, "slug": "feishu-bitable-crud", "source": "clawhub", "stars": 0, "tags": null, "updated_at": 1776768849866, "version": "1.1.0"}, {"category": "", "created_at": 1774948369590, "description": "Master effective code review practices to provide constructive feedback, catch bugs early, and foster knowledge sharing while maintaining team morale. Use wh...", "description_zh": "", "downloads": 94, "homepage": "https://clawhub.ai/soponcd/code-review-excellence", "iconUrl": null, "installs": 29, "name": "Code Review Excellence", "ownerName": "soponcd", "score": 915.4655239579276, "slug": "code-review-excellence", "source": "clawhub", "stars": 0, "tags": null, "updated_at": 1776766150331, "version": "1.0.0"}]}