{"page": 399, "total_pages": 522, "total": 26073, "skills": [{"category": "content-creation", "created_at": 1773948402918, "description": "Use when converting Markdown into WeChat-compatible inline HTML with theme styles for preview, copy-paste, or downstream draft publishing.", "description_zh": "", "downloads": 94, "homepage": "https://clawhub.ai/zhylq/zhy-markdown2wechat", "iconUrl": null, "installs": 7, "name": "Zhy Markdown2wechat", "ownerName": "zhylq", "score": 4148.278905560459, "slug": "zhy-markdown2wechat", "source": "clawhub", "stars": 0, "tags": null, "updated_at": 1776764990550, "version": "0.1.0"}, {"category": "", "created_at": 1774818321261, "description": "Self-reflection + Self-criticism + Self-learning + Self-organizing memory. Agent evaluates its own work, catches mistakes, and improves permanently. Use befo...", "description_zh": "", "downloads": 94, "homepage": "https://clawhub.ai/jpengcheng523-netizen/jpeng-self-improving", "iconUrl": null, "installs": 28, "name": "Self-Improving Agent (Proactive Self-Reflection)", "ownerName": "jpengcheng523-netizen", "score": 2618.384401114206, "slug": "jpeng-self-improving", "source": "clawhub", "stars": 0, "tags": null, "updated_at": 1776760984332, "version": "1.2.11"}, {"category": "communication-collaboration", "created_at": 1773949562019, "description": "Extract and summarize titles, authors, updates, and content from publicly shared Dingtalk pages, apps, and group invitations without internal API access.", "description_zh": "", "downloads": 94, "homepage": "https://clawhub.ai/codekungfu/dingtalk-hot-trend", "iconUrl": null, "installs": 6, "name": "Dingtalk", "ownerName": "codekungfu", "score": 7338.017174082747, "slug": "dingtalk-hot-trend", "source": "clawhub", "stars": 0, "tags": null, "updated_at": 1776759798188, "version": "0.1.0"}, {"category": "communication-collaboration", "created_at": 1773939731805, "description": "Enables OpenClaw agents to communicate P2P using AgentLink protocol with messaging, contact management, status checks, and identity sharing.", "description_zh": "", "downloads": 94, "homepage": "https://clawhub.ai/dolutech/agent-link", "iconUrl": null, "installs": 3, "name": "AgentLink Protocol", "ownerName": "dolutech", "score": 7326.578332034294, "slug": "agent-link", "source": "clawhub", "stars": 0, "tags": null, "updated_at": 1776759798076, "version": "0.1.1"}, {"category": "developer-tools", "created_at": 1773948732895, "description": "Operate MEXC Spot REST APIs through UXC with a curated OpenAPI schema, HMAC query signing, and separate public/signed workflow guardrails.", "description_zh": "", "downloads": 94, "homepage": "https://clawhub.ai/jolestar/mexc-openapi-skill", "iconUrl": null, "installs": 8, "name": "MEXC OpenAPI Skill", "ownerName": "jolestar", "score": 7326.578332034294, "slug": "mexc-openapi-skill", "source": "clawhub", "stars": 0, "tags": null, "updated_at": 1776759798074, "version": "1.0.0"}, {"category": "", "created_at": 1774921990032, "description": "Automation skill for software-product-manager.", "description_zh": "", "downloads": 94, "homepage": "https://clawhub.ai/weslon1987/software-product-manager", "iconUrl": null, "installs": 17, "name": "software-product-manager", "ownerName": "weslon1987", "score": 32413.793103448275, "slug": "software-product-manager", "source": "clawhub", "stars": 0, "tags": null, "updated_at": 1776759798003, "version": "1.0.0"}, {"category": "", "created_at": 1774873358645, "description": "Premium timezone-aware NBA intelligence with scene-aware game routing, roster-verified player filtering, and ESPN-first structured fallbacks for live and pos...", "description_zh": "", "downloads": 94, "homepage": "https://clawhub.ai/hhjsnsnsk/nba-today-pulse", "iconUrl": null, "installs": 17, "name": "NBA Today Pulse", "ownerName": "hhjsnsnsk", "score": 6317.204301075269, "slug": "nba-today-pulse", "source": "clawhub", "stars": 0, "tags": ["advanced analysis", "analysis", "basketball", "live", "nba", "prediction", "scores", "sports"], "updated_at": 1776758182193, "version": "1.0.2"}, {"category": "developer-tools", "created_at": 1773960407976, "description": "Use ZeroCut CLI media and document tools. Invoke when user needs generate media, run ffmpeg/pandoc, sync resources, or save outputs.", "description_zh": "", "downloads": 94, "homepage": "https://clawhub.ai/smartdiana/zerocut-cli-tools", "iconUrl": null, "installs": 29, "name": "ZeroCut AI Video", "ownerName": "smartdiana", "score": 100000, "slug": "zerocut-cli-tools", "source": "clawhub", "stars": 0, "tags": null, "updated_at": 1776740744575, "version": "1.0.0"}, {"category": "security-compliance", "created_at": 1773915190749, "description": "Local-first data asset manager — scan, classify, and report on your data before deciding what to share. Use when user mentions scanning files, classifying da...", "description_zh": "", "downloads": 94, "homepage": "https://clawhub.ai/shangri-la-0428/oasyce-vault", "iconUrl": null, "installs": 3, "name": "Oasyce Vault", "ownerName": "shangri-la-0428", "score": 90384.61538461539, "slug": "oasyce-vault", "source": "clawhub", "stars": 0, "tags": null, "updated_at": 1776725683705, "version": "1.0.0"}, {"category": "content-creation", "created_at": 1773931430521, "description": "A news analysis specialist that explains, interprets, and comments on trending news and current events.", "description_zh": "", "downloads": 94, "homepage": "https://clawhub.ai/mrnquyen/news-specialist", "iconUrl": null, "installs": 10, "name": "News Specialist", "ownerName": "mrnquyen", "score": 100000, "slug": "news-specialist", "source": "clawhub", "stars": 0, "tags": null, "updated_at": 1776720469538, "version": "1.0.0"}, {"category": "developer-tools", "created_at": 1773926367397, "description": "Use the Polymarket CLI (`polymarket`) to browse markets, inspect order books and prices, check public wallet data, review account state, and place or cancel...", "description_zh": "", "downloads": 94, "homepage": "https://clawhub.ai/itsnash0/nash0-polymarket-cli", "iconUrl": null, "installs": 9, "name": "Nash0 Polymarket CLI", "ownerName": "itsnash0", "score": 95918.36734693877, "slug": "nash0-polymarket-cli", "source": "clawhub", "stars": 0, "tags": null, "updated_at": 1776717583700, "version": "0.1.0"}, {"category": "ai-intelligence", "created_at": 1773926070486, "description": "Orchestrate real ELPA-style ensemble forecasting workflows by triggering external sub-model training jobs (for example PyTorch/Prophet/TiDE/transformers), th...", "description_zh": "", "downloads": 94, "homepage": "https://clawhub.ai/anonymouscodemaker/elpa", "iconUrl": null, "installs": 8, "name": "ELPA", "ownerName": "anonymouscodemaker", "score": 95918.36734693877, "slug": "elpa", "source": "clawhub", "stars": 0, "tags": null, "updated_at": 1776716683683, "version": "1.0.0"}, {"category": "developer-tools", "created_at": 1773430627733, "description": "Inspect local working directory and return a short result.", "description_zh": "", "downloads": 94, "homepage": "https://clawhub.ai/maosangtianshi/zeh-local-inspector", "iconUrl": null, "installs": 11, "name": "zeh-local-inspector", "ownerName": "maosangtianshi", "score": 100000, "slug": "zeh-local-inspector", "source": "clawhub", "stars": 0, "tags": null, "updated_at": 1776696283718, "version": "0.1.0"}, {"category": "", "created_at": 1774777578834, "description": "Analyze images and videos using Qwen Vision API (Alibaba Cloud DashScope). Supports image understanding, OCR, visual reasoning.", "description_zh": "", "downloads": 94, "homepage": "https://clawhub.ai/perchouli/qwen-vision", "iconUrl": null, "installs": 28, "name": "Qwen Vision", "ownerName": "perchouli", "score": 97916.66666666666, "slug": "qwen-vision", "source": "clawhub", "stars": 0, "tags": null, "updated_at": 1776696170171, "version": "0.1.0"}, {"category": "communication-collaboration", "created_at": 1773430712191, "description": "BotPenguin integration. Manage Chatbots. Use when the user wants to interact with BotPenguin data.", "description_zh": "", "downloads": 94, "homepage": "https://clawhub.ai/membranedev/botpenguin", "iconUrl": null, "installs": 2, "name": "Botpenguin", "ownerName": "membranedev", "score": 97916.66666666666, "slug": "botpenguin", "source": "clawhub", "stars": 0, "tags": null, "updated_at": 1776695870320, "version": "1.0.0"}, {"category": "developer-tools", "created_at": 1773911526539, "description": "Use for SySelf Autopilot on Hetzner: management kubeconfig setup, organization namespace, Hetzner account preparation, ClusterStack and Cluster manifests, ba...", "description_zh": "", "downloads": 94, "homepage": "https://clawhub.ai/sergeykdev/syself-autopilot-hetzner", "iconUrl": null, "installs": 4, "name": "syself-autopilot-hetzner", "ownerName": "sergeykdev", "score": 97916.66666666666, "slug": "syself-autopilot-hetzner", "source": "clawhub", "stars": 0, "tags": null, "updated_at": 1776695870164, "version": "1.0.0"}, {"category": "content-creation", "created_at": 1773434042546, "description": "Generate ARRIVE 2.0 compliant animal research protocols with structured experimental design, sample size calculations, and reporting checklists. Ensures tran...", "description_zh": "", "downloads": 94, "homepage": "https://clawhub.ai/theresayao0614-sudo/arrive-guideline-architect-2", "iconUrl": null, "installs": 4, "name": "Arrive Guideline Architect", "ownerName": "theresayao0614-sudo", "score": 97916.66666666666, "slug": "arrive-guideline-architect-2", "source": "clawhub", "stars": 0, "tags": null, "updated_at": 1776695870151, "version": "0.1.1"}, {"category": "productivity", "created_at": 1773932465038, "description": "Comprehensive lighting industry sourcing guide for international buyers – provides detailed information about China's LED, smart, outdoor, automotive, and sp...", "description_zh": "", "downloads": 94, "homepage": "https://clawhub.ai/1970168137/china-lighting-sourcing", "iconUrl": null, "installs": 12, "name": "China Lighting Sourcing", "ownerName": "1970168137", "score": 97916.66666666666, "slug": "china-lighting-sourcing", "source": "clawhub", "stars": 0, "tags": null, "updated_at": 1776695870132, "version": "1.0.0"}, {"category": "data-analysis", "created_at": 1773434385090, "description": "Coin comprehensive analysis. Use this skill whenever the user asks to analyze a single coin. Trigger phrases include: analyze, how is, worth buying, look at....", "description_zh": "", "downloads": 94, "homepage": "https://clawhub.ai/gate-exchange/gate-info-coin-analysis", "iconUrl": null, "installs": 4, "name": "Gate Info Coin Analysis", "ownerName": "gate-exchange", "score": 97916.66666666666, "slug": "gate-info-coin-analysis", "source": "clawhub", "stars": 0, "tags": null, "updated_at": 1776695870078, "version": "1.0.0"}, {"category": "content-creation", "created_at": 1773432870356, "description": "When the user wants to add recommendations, links, or content to Grokipedia. Also use when the user mentions \"Grokipedia,\" \"GEO wiki,\" \"AI encyclopedia,\" \"su...", "description_zh": "", "downloads": 94, "homepage": "https://clawhub.ai/kostja94/grokipedia-2", "iconUrl": null, "installs": 7, "name": "Grokipedia Recommendations", "ownerName": "kostja94", "score": 97916.66666666666, "slug": "grokipedia-2", "source": "clawhub", "stars": 0, "tags": null, "updated_at": 1776695869951, "version": "0.1.0"}, {"category": "developer-tools", "created_at": 1773932264510, "description": "Implement API Usage Metrics using OrbCafe UI (CStandardPage). Enterprise-grade React component with built-in best practices.", "description_zh": "", "downloads": 94, "homepage": "https://clawhub.ai/shenruiyang/api-usage-metrics", "iconUrl": null, "installs": 9, "name": "Api Usage Metrics", "ownerName": "shenruiyang", "score": 97916.66666666666, "slug": "api-usage-metrics", "source": "clawhub", "stars": 0, "tags": null, "updated_at": 1776695869856, "version": "1.0.0"}, {"category": "data-analysis", "created_at": 1773434785351, "description": "Execute liquid staking operations on Bifrost SLPx protocol across Ethereum, Base, Optimism, and Arbitrum. Mint vETH by staking ETH/WETH, redeem vETH back to...", "description_zh": "", "downloads": 94, "homepage": "https://clawhub.ai/ark930/bifrost-slpx-stake", "iconUrl": null, "installs": 8, "name": "Bifrost Slpx Stake", "ownerName": "ark930", "score": 97916.66666666666, "slug": "bifrost-slpx-stake", "source": "clawhub", "stars": 0, "tags": null, "updated_at": 1776695869810, "version": "0.1.0"}, {"category": "developer-tools", "created_at": 1773934788810, "description": "Codacy integration. Manage Repositories, Organizations. Use when the user wants to interact with Codacy data.", "description_zh": "", "downloads": 94, "homepage": "https://clawhub.ai/membranedev/codacy", "iconUrl": null, "installs": 7, "name": "Codacy", "ownerName": "membranedev", "score": 97916.66666666666, "slug": "codacy", "source": "clawhub", "stars": 0, "tags": null, "updated_at": 1776695869807, "version": "1.0.0"}, {"category": "security-compliance", "created_at": 1773916471816, "description": "Automatically redacts API keys, tokens, and secrets from workspace logs and memory files.", "description_zh": "", "downloads": 94, "homepage": "https://clawhub.ai/heather-herbert/log-scrubber", "iconUrl": null, "installs": 4, "name": "Log Scrubber", "ownerName": "heather-herbert", "score": 97916.66666666666, "slug": "log-scrubber", "source": "clawhub", "stars": 0, "tags": ["maintenance", "security"], "updated_at": 1776695869795, "version": "1.0.2"}, {"category": "productivity", "created_at": 1773941625540, "description": "Convert any webpage to a clean, high-quality PDF file and send it directly. Use when the user asks to view a website, screenshot a webpage, or see a page's c...", "description_zh": "", "downloads": 94, "homepage": "https://clawhub.ai/huchiyv/web-to-pdf", "iconUrl": null, "installs": 11, "name": "Web To Pdf", "ownerName": "huchiyv", "score": 97916.66666666666, "slug": "web-to-pdf", "source": "clawhub", "stars": 0, "tags": null, "updated_at": 1776695869784, "version": "1.0.0"}, {"category": "ai-intelligence", "created_at": 1773919339313, "description": "Query live OpenClaw ecosystem intelligence from ClawBeat.co — news, research papers, events, repos, and daily briefings for the OpenClaw agentic framework an...", "description_zh": "", "downloads": 94, "homepage": "https://clawhub.ai/thekenyeung/clawbeat", "iconUrl": null, "installs": 7, "name": "ClawBeat: OpenClaw News, Research & Events", "ownerName": "thekenyeung", "score": 97916.66666666666, "slug": "clawbeat", "source": "clawhub", "stars": 0, "tags": ["agentic", "agents", "daily-briefing", "events", "feed", "intelligence", "nanoclaw", "news", "openclaw", "research"], "updated_at": 1776695869782, "version": "1.0.1"}, {"category": "developer-tools", "created_at": 1773431886318, "description": "Adopt a virtual Tabby at animalhouse.ai. Curious, social, will sit in your lap if trust > 60%. Feeding every 5 hours — common tier.", "description_zh": "", "downloads": 94, "homepage": "https://clawhub.ai/twinsgeeks/adopt-a-tabby", "iconUrl": null, "installs": 9, "name": "Adopt a Tabby — Virtual Cat Pet for AI Agents", "ownerName": "twinsgeeks", "score": 97916.66666666666, "slug": "adopt-a-tabby", "source": "clawhub", "stars": 0, "tags": ["adopt", "ai-agents", "animalhouse", "cat", "common", "creatures", "digital-pet", "evolution", "gentle", "graveyard", "hunger", "permanent-death", "pet-care", "pixel-art", "pixel-art-avatar", "real-life", "real-time", "social", "tabby", "tamagotchi", "virtual-pet"], "updated_at": 1776695869773, "version": "1.0.0"}, {"category": "productivity", "created_at": 1773921063054, "description": "Web search via self-hosted SearxNG. Aggregates Google, Bing, DuckDuckGo, Brave. Returns title/url/snippet. Zero API key required.", "description_zh": "", "downloads": 94, "homepage": "https://clawhub.ai/sexychina/ask-search", "iconUrl": null, "installs": 8, "name": "Ask Search", "ownerName": "sexychina", "score": 97916.66666666666, "slug": "ask-search", "source": "clawhub", "stars": 0, "tags": null, "updated_at": 1776695869759, "version": "1.0.0"}, {"category": "security-compliance", "created_at": 1773430262925, "description": "Cryptographic audit ledger and AI firewall for OpenClaw agents. Records every agent action (messages, skills, tools, plugins, memory, models) in an immutable...", "description_zh": "", "downloads": 94, "homepage": "https://clawhub.ai/ectospace/ectoclaw", "iconUrl": null, "installs": 1, "name": "EctoClaw", "ownerName": "ectospace", "score": 97916.66666666666, "slug": "ectoclaw", "source": "clawhub", "stars": 0, "tags": ["audit", "firewall", "security"], "updated_at": 1776695869747, "version": "0.1.3"}, {"category": "productivity", "created_at": 1773433323033, "description": "Bouncer integration. Manage Organizations, Leads, Projects, Pipelines, Users, Goals and more. Use when the user wants to interact with Bouncer data.", "description_zh": "", "downloads": 94, "homepage": "https://clawhub.ai/membranedev/bouncer", "iconUrl": null, "installs": 2, "name": "Bouncer", "ownerName": "membranedev", "score": 97916.66666666666, "slug": "bouncer", "source": "clawhub", "stars": 0, "tags": null, "updated_at": 1776695869743, "version": "1.0.0"}, {"category": "data-analysis", "created_at": 1773946475039, "description": "Verify numerical data against original papers and maintain traceable provenance for every value in datasets, tables, and plots. Includes citation source mana...", "description_zh": "", "downloads": 94, "homepage": "https://clawhub.ai/larry-of-cosmotim/data-source-verification", "iconUrl": null, "installs": 14, "name": "Data Source Verification", "ownerName": "larry-of-cosmotim", "score": 97916.66666666666, "slug": "data-source-verification", "source": "clawhub", "stars": 0, "tags": null, "updated_at": 1776695869735, "version": "1.0.0"}, {"category": "productivity", "created_at": 1773919740211, "description": "Find, compare, and vet Groupon vouchers with fine-print checks, refund rules, and redemption planning.", "description_zh": "", "downloads": 94, "homepage": "https://clawhub.ai/ivangdavila/groupon", "iconUrl": null, "installs": 4, "name": "Groupon", "ownerName": "ivangdavila", "score": 97916.66666666666, "slug": "groupon", "source": "clawhub", "stars": 0, "tags": null, "updated_at": 1776695869689, "version": "1.0.0"}, {"category": "security-compliance", "created_at": 1773432673426, "description": "Strict secure-install workflow for ClawHub/OpenClaw skills. Use when asked to install a skill safely, inspect skill permissions, review third-party skill ris...", "description_zh": "", "downloads": 94, "homepage": "https://clawhub.ai/1231qaz2wsx/skill-safe-install-l0-strict", "iconUrl": null, "installs": 3, "name": "Skill Safe Install (L0 Strict)", "ownerName": "1231qaz2wsx", "score": 96907.21649484536, "slug": "skill-safe-install-l0-strict", "source": "clawhub", "stars": 0, "tags": ["audit", "governance", "install", "security"], "updated_at": 1776695869603, "version": "1.0.1"}, {"category": "developer-tools", "created_at": 1773289760336, "description": "Resend integration. Manage Emails, Domains, ApiKeys. Use when the user wants to interact with Resend data.", "description_zh": "", "downloads": 94, "homepage": "https://clawhub.ai/gora050/resend-integration", "iconUrl": null, "installs": 0, "name": "Resend", "ownerName": "gora050", "score": 96907.21649484536, "slug": "resend-integration", "source": "clawhub", "stars": 0, "tags": null, "updated_at": 1776695869601, "version": "1.0.0"}, {"category": "", "created_at": 1774950099937, "description": "Take the Clawvard entrance exam to evaluate your capabilities across 8 dimensions (Understanding, Execution, Retrieval, Reasoning, Reflection, Tooling, EQ)....", "description_zh": "", "downloads": 94, "homepage": "https://clawhub.ai/a4ever369/clawvard", "iconUrl": null, "installs": 2, "name": "Clawvard", "ownerName": "a4ever369", "score": 96907.21649484536, "slug": "clawvard", "source": "clawhub", "stars": 0, "tags": null, "updated_at": 1776695869549, "version": "1.0.0"}, {"category": "developer-tools", "created_at": 1773953781859, "description": "Automatically indexes and routes user intents to installed OpenClaw skills by scanning SKILL.md files and dynamically injecting relevant skill contexts.", "description_zh": "", "downloads": 93, "homepage": "https://clawhub.ai/lawliet-ai/meta-router", "iconUrl": null, "installs": 9, "name": "Meta-Router", "ownerName": "lawliet-ai", "score": 8807.482462977396, "slug": "meta-router", "source": "clawhub", "stars": 1, "tags": ["automation", "efficiency", "infrastructure", "performance", "routing", "utility"], "updated_at": 1776759798137, "version": "1.0.0"}, {"category": "productivity", "created_at": 1773908966330, "description": "Memos — Memos — quick notes manager. Automated tool for memos tasks. Use when you need Memos capabilities.", "description_zh": "", "downloads": 93, "homepage": "https://clawhub.ai/bytesagain/quick-memo", "iconUrl": null, "installs": 4, "name": "Quick Memo", "ownerName": "bytesagain", "score": 175.83664208735112, "slug": "quick-memo", "source": "clawhub", "stars": 0, "tags": null, "updated_at": 1776770771317, "version": "1.0.0"}, {"category": "", "created_at": 1774883661565, "description": "Reviews SQL queries for correctness, security risks, and performance issues; provides a structured report with severity ratings and optimized rewrites.", "description_zh": "", "downloads": 93, "homepage": "https://clawhub.ai/lnguyen1996/sql-query-reviewer", "iconUrl": null, "installs": 9, "name": "SQL Query Reviewer", "ownerName": "lnguyen1996", "score": 2040.3685827117158, "slug": "sql-query-reviewer", "source": "clawhub", "stars": 0, "tags": null, "updated_at": 1776763750426, "version": "1.0.0"}, {"category": "productivity", "created_at": 1773925036679, "description": "Prismic integration. Manage Repositories. Use when the user wants to interact with Prismic data.", "description_zh": "", "downloads": 93, "homepage": "https://clawhub.ai/membranedev/prismic", "iconUrl": null, "installs": 2, "name": "Prismic", "ownerName": "membranedev", "score": 2613.8279932546375, "slug": "prismic", "source": "clawhub", "stars": 0, "tags": null, "updated_at": 1776762590478, "version": "1.0.0"}, {"category": "", "created_at": 1774892171492, "description": "Provides a comprehensive 2026 TikTok growth playbook focusing on follower-first engagement, high rewatch rates, original content, SEO, and consistent posting...", "description_zh": "", "downloads": 93, "homepage": "https://clawhub.ai/tenlifejosh/tiktok-agent", "iconUrl": null, "installs": 24, "name": "TikTok Agent — Complete Operations Playbook", "ownerName": "tenlifejosh", "score": 7259.953161592505, "slug": "tiktok-agent", "source": "clawhub", "stars": 0, "tags": ["content", "social-media", "tiktok", "video", "viral"], "updated_at": 1776759798220, "version": "1.0.0"}, {"category": "developer-tools", "created_at": 1773953871743, "description": "Encode or decode strings to and from base64 format upon user request.", "description_zh": "", "downloads": 93, "homepage": "https://clawhub.ai/xianghuan233-lang/base64-tool", "iconUrl": null, "installs": 12, "name": "Base64 Tool", "ownerName": "xianghuan233-lang", "score": 7259.953161592505, "slug": "base64-tool", "source": "clawhub", "stars": 0, "tags": null, "updated_at": 1776759798095, "version": "1.0.0"}, {"category": "content-creation", "created_at": 1773940158784, "description": "AI assistant for creating, scheduling, and analyzing social media content tailored for Twitter, Instagram, LinkedIn, and Facebook platforms.", "description_zh": "", "downloads": 93, "homepage": "https://clawhub.ai/hughtan93-dev/hughtan93-social-media-manager", "iconUrl": null, "installs": 1, "name": "Social Media Manager", "ownerName": "hughtan93-dev", "score": 81578.94736842105, "slug": "hughtan93-social-media-manager", "source": "clawhub", "stars": 0, "tags": null, "updated_at": 1776759797956, "version": "1.0.0"}, {"category": "productivity", "created_at": 1773943828884, "description": "Automates pre-meeting research, agenda creation, talking points, and post-meeting action tracking for informed and efficient client, board, or vendor meetings.", "description_zh": "", "downloads": 93, "homepage": "https://clawhub.ai/samledger67-dotcom/pl-meeting-prep", "iconUrl": null, "installs": 7, "name": "Meeting Prep Agent", "ownerName": "samledger67-dotcom", "score": 23366.834170854272, "slug": "pl-meeting-prep", "source": "clawhub", "stars": 0, "tags": null, "updated_at": 1776759797917, "version": "1.0.0"}, {"category": "content-creation", "created_at": 1773945608155, "description": "AI-powered generator that crafts tailored freelance proposals with key insights, examples, pricing, and platform-specific formats to boost success rates.", "description_zh": "", "downloads": 93, "homepage": "https://clawhub.ai/lvjunjie-byte/freelance-proposal-writer-pro", "iconUrl": null, "installs": 2, "name": "Freelance Proposal Writer", "ownerName": "lvjunjie-byte", "score": 7265.625000000001, "slug": "freelance-proposal-writer-pro", "source": "clawhub", "stars": 0, "tags": null, "updated_at": 1776759797779, "version": "1.0.0"}, {"category": "communication-collaboration", "created_at": 1773932707887, "description": "Create temporary handoff docs and propose/apply permanent knowledge updates in a shared Obsidian vault.", "description_zh": "", "downloads": 93, "homepage": "https://clawhub.ai/radonx/handoff", "iconUrl": null, "installs": 4, "name": "Handoff", "ownerName": "radonx", "score": 6233.243967828418, "slug": "handoff", "source": "clawhub", "stars": 0, "tags": null, "updated_at": 1776757920456, "version": "1.0.0"}, {"category": "ai-intelligence", "created_at": 1773920386021, "description": "Trades Polymarket prediction markets on AI model releases, tech IPOs, product launches, GPU infrastructure milestones, and AI regulation events. Use when you...", "description_zh": "", "downloads": 93, "homepage": "https://clawhub.ai/diagnostikon/polymarket-ai-tech-trader", "iconUrl": null, "installs": 5, "name": "AI & Tech Launch Trader", "ownerName": "diagnostikon", "score": 5695.039804041641, "slug": "polymarket-ai-tech-trader", "source": "clawhub", "stars": 0, "tags": null, "updated_at": 1776756982621, "version": "1.0.1"}, {"category": "developer-tools", "created_at": 1773434713320, "description": "Set up a new Google Tasks list with initial tasks.", "description_zh": "", "downloads": 93, "homepage": "https://clawhub.ai/googleworkspace-bot/recipe-create-task-list", "iconUrl": null, "installs": 7, "name": "Recipe Create Task List", "ownerName": "googleworkspace-bot", "score": 16787.003610108302, "slug": "recipe-create-task-list", "source": "clawhub", "stars": 0, "tags": null, "updated_at": 1776755588497, "version": "1.0.10"}, {"category": "", "created_at": 1774843324801, "description": "Official skill for recognizing and extracting tables from images and PDFs into Markdown format using ZhiPu GLM-OCR API. Supports complex tables, merged cells...", "description_zh": "", "downloads": 93, "homepage": "https://clawhub.ai/jaredforreal/glmocr-table", "iconUrl": null, "installs": 26, "name": "GLM-OCR-Table", "ownerName": "jaredforreal", "score": 5043.383947939263, "slug": "glmocr-table", "source": "clawhub", "stars": 0, "tags": null, "updated_at": 1776754688435, "version": "1.0.2"}, {"category": "", "created_at": 1774808349737, "description": "Automatically publishes graphic content on Toutiao through browser automation, supporting intelligent formatting, automatic generation of popular tags, and t...", "description_zh": "", "downloads": 93, "homepage": "https://clawhub.ai/openlark/toutiao-graphic-publisher", "iconUrl": null, "installs": 7, "name": "Toutiao Graphic Publisher", "ownerName": "openlark", "score": 100000, "slug": "toutiao-graphic-publisher", "source": "clawhub", "stars": 0, "tags": null, "updated_at": 1776745970210, "version": "1.0.1"}, {"category": "security-compliance", "created_at": 1773923967367, "description": "Strict semantic firewall with Human-in-the-Loop execution authorization. Airgaps external data and enforces zero-trust environment.", "description_zh": "", "downloads": 93, "homepage": "https://clawhub.ai/alethean-kaw/aegis-firewall", "iconUrl": null, "installs": 3, "name": "Aegis Firewall", "ownerName": "alethean-kaw", "score": 98936.17021276597, "slug": "aegis-firewall", "source": "clawhub", "stars": 0, "tags": null, "updated_at": 1776745183723, "version": "1.2.0"}]}