{"page": 4, "total_pages": 7, "total": 325, "skills": [{"slug": "claude-ecom", "name": "claude-ecom", "description": "Generate full ecommerce business reviews from order CSVs — KPIs, diagnostics, and action plans.", "description_zh": "", "homepage": "https://github.com/takechanman1228/claude-ecom", "tags": ["📊 Data & Analysis"], "category": "📊 Data & Analysis", "ownerName": "takechanman1228", "sources": ["BehiSecc/awesome-claude-skills"], "score": 950, "downloads": 0, "stars": 0, "installs": 0, "version": "", "updated_at": 0}, {"slug": "claude-scientific-skills", "name": "claude-scientific-skills", "description": "125+ scientific skills for bioinformatics, cheminformatics, clinical research, and machine learning.", "description_zh": "", "homepage": "https://github.com/K-Dense-AI/claude-scientific-skills", "tags": ["🔬 Scientific & Research Tools"], "category": "🔬 Scientific & Research Tools", "ownerName": "K-Dense-AI", "sources": ["BehiSecc/awesome-claude-skills"], "score": 949, "downloads": 0, "stars": 0, "installs": 0, "version": "", "updated_at": 0}, {"slug": "claude-skills", "name": "claude-skills", "description": "65 full-stack development skills with progressive disclosure, covering React, NestJS, Python, DevOps, and 30+ frameworks.", "description_zh": "", "homepage": "https://github.com/jeffallan/claude-skills", "tags": ["🛠 Development & Code Tools"], "category": "🛠 Development & Code Tools", "ownerName": "jeffallan", "sources": ["BehiSecc/awesome-claude-skills"], "score": 948, "downloads": 0, "stars": 0, "installs": 0, "version": "", "updated_at": 0}, {"slug": "claude-starter", "name": "claude-starter", "description": "Production-ready Claude Code configuration template with 40 auto-activating skills across 8 domains, TOON format support for 30-60% token savings, and native Zig encoder/decoder.", "description_zh": "", "homepage": "https://github.com/raintree-technology/claude-starter", "tags": ["🛠 Development & Code Tools"], "category": "🛠 Development & Code Tools", "ownerName": "raintree-technology", "sources": ["BehiSecc/awesome-claude-skills"], "score": 947, "downloads": 0, "stars": 0, "installs": 0, "version": "", "updated_at": 0}, {"slug": "clickup-automation", "name": "ClickUp Automation", "description": "Automate ClickUp: tasks, lists, spaces, goals, and time tracking.", "description_zh": "", "homepage": "./clickup-automation", "tags": ["App Automation via Composio"], "category": "App Automation via Composio", "ownerName": "", "sources": ["ComposioHQ/awesome-claude-skills"], "score": 946, "downloads": 0, "stars": 0, "installs": 0, "version": "", "updated_at": 0}, {"slug": "close-automation", "name": "Close Automation", "description": "Automate Close CRM: leads, contacts, opportunities, activities, and pipelines.", "description_zh": "", "homepage": "./close-automation", "tags": ["App Automation via Composio"], "category": "App Automation via Composio", "ownerName": "", "sources": ["ComposioHQ/awesome-claude-skills"], "score": 945, "downloads": 0, "stars": 0, "installs": 0, "version": "", "updated_at": 0}, {"slug": "coda-automation", "name": "Coda Automation", "description": "Automate Coda: docs, tables, rows, formulas, and automations.", "description_zh": "", "homepage": "./coda-automation", "tags": ["App Automation via Composio"], "category": "App Automation via Composio", "ownerName": "", "sources": ["ComposioHQ/awesome-claude-skills"], "score": 944, "downloads": 0, "stars": 0, "installs": 0, "version": "", "updated_at": 0}, {"slug": "codex-cli-skills", "name": "Codex CLI skills", "description": "[Gemini CLI skills](docs/users/gemini-cli-skills.md)", "description_zh": "", "homepage": "docs/users/codex-cli-skills.md", "tags": ["Choose Your Tool"], "category": "Choose Your Tool", "ownerName": "", "sources": ["sickn33/antigravity-awesome-skills"], "score": 943, "downloads": 0, "stars": 0, "installs": 0, "version": "", "updated_at": 0}, {"slug": "coinpaprika-api", "name": "coinpaprika-api", "description": "Crypto market data for 12K+ coins, 350+ exchanges, tickers, OHLCV, historical prices. Free, no API key.", "description_zh": "", "homepage": "https://github.com/coinpaprika/skills", "tags": ["📊 Data & Analysis"], "category": "📊 Data & Analysis", "ownerName": "coinpaprika", "sources": ["BehiSecc/awesome-claude-skills"], "score": 942, "downloads": 0, "stars": 0, "installs": 0, "version": "", "updated_at": 0}, {"slug": "community-discussions", "name": "Community Discussions", "description": "", "description_zh": "", "homepage": "https://github.com/anthropics/skills/discussions", "tags": ["Getting Help"], "category": "Getting Help", "ownerName": "anthropics", "sources": ["travisvn/awesome-claude-skills"], "score": 941, "downloads": 0, "stars": 0, "installs": 0, "version": "", "updated_at": 0}, {"slug": "competitive-ads-extractor", "name": "Competitive Ads Extractor", "description": "Extracts and analyzes competitors' ads from ad libraries to understand messaging and creative approaches that resonate.", "description_zh": "", "homepage": "./competitive-ads-extractor", "tags": ["Business & Marketing"], "category": "Business & Marketing", "ownerName": "", "sources": ["ComposioHQ/awesome-claude-skills"], "score": 940, "downloads": 0, "stars": 0, "installs": 0, "version": "", "updated_at": 0}, {"slug": "confluence-automation", "name": "Confluence Automation", "description": "Automate Confluence: pages, spaces, search, CQL, labels, and versions.", "description_zh": "", "homepage": "./confluence-automation", "tags": ["App Automation via Composio"], "category": "App Automation via Composio", "ownerName": "", "sources": ["ComposioHQ/awesome-claude-skills"], "score": 939, "downloads": 0, "stars": 0, "installs": 0, "version": "", "updated_at": 0}, {"slug": "connect", "name": "Connect", "description": "Connect Claude to any app. Send emails, create issues, post messages, update databases - take real actions across Gmail, Slack, GitHub, Notion, and 1000+ services.", "description_zh": "", "homepage": "./connect", "tags": ["Development & Code Tools"], "category": "Development & Code Tools", "ownerName": "", "sources": ["ComposioHQ/awesome-claude-skills"], "score": 938, "downloads": 0, "stars": 0, "installs": 0, "version": "", "updated_at": 0}, {"slug": "content-research-writer", "name": "Content Research Writer", "description": "Assists in writing high-quality content by conducting research, adding citations, improving hooks, and providing section-by-section feedback.", "description_zh": "", "homepage": "./content-research-writer", "tags": ["Communication & Writing"], "category": "Communication & Writing", "ownerName": "", "sources": ["ComposioHQ/awesome-claude-skills"], "score": 937, "downloads": 0, "stars": 0, "installs": 0, "version": "", "updated_at": 0}, {"slug": "content-research-writer", "name": "content-research-writer", "description": "Assists in writing high-quality content by conducting research, adding citations, improving hooks, iterating on outlines, and providing real-time feedback on each section", "description_zh": "", "homepage": "https://github.com/ComposioHQ/awesome-claude-skills", "tags": ["✍️ Writing & Research"], "category": "✍️ Writing & Research", "ownerName": "ComposioHQ", "sources": ["BehiSecc/awesome-claude-skills"], "score": 936, "downloads": 0, "stars": 0, "installs": 0, "version": "", "updated_at": 0}, {"slug": "convertkit-automation", "name": "ConvertKit Automation", "description": "Automate ConvertKit (Kit): subscribers, tags, sequences, broadcasts, and forms.", "description_zh": "", "homepage": "./convertkit-automation", "tags": ["App Automation via Composio"], "category": "App Automation via Composio", "ownerName": "", "sources": ["ComposioHQ/awesome-claude-skills"], "score": 935, "downloads": 0, "stars": 0, "installs": 0, "version": "", "updated_at": 0}, {"slug": "crowdcast", "name": "crowdcast", "description": "Multi-agent social simulation as a Claude Code skill. Spawns dozens of AI agents that argue, post, and react on a simulated platform, then writes a prediction report. Zero dependencies.", "description_zh": "", "homepage": "https://github.com/TheQmaks/crowdcast", "tags": ["📊 Data & Analysis"], "category": "📊 Data & Analysis", "ownerName": "TheQmaks", "sources": ["BehiSecc/awesome-claude-skills"], "score": 934, "downloads": 0, "stars": 0, "installs": 0, "version": "", "updated_at": 0}, {"slug": "cup", "name": "cup", "description": "ClickUp CLI for AI agents and humans. 40+ commands for tasks, sprints, time tracking. Ships as a Claude Code plugin.", "description_zh": "", "homepage": "https://github.com/krodak/clickup-cli", "tags": ["🤝 Collaboration & Project Management"], "category": "🤝 Collaboration & Project Management", "ownerName": "krodak", "sources": ["BehiSecc/awesome-claude-skills"], "score": 933, "downloads": 0, "stars": 0, "installs": 0, "version": "", "updated_at": 0}, {"slug": "d3-js-visualization", "name": "D3.js Visualization", "description": "Teaches Claude to produce D3 charts and interactive data visualizations. By [@chrisvoncsefalvay](https://github.com/chrisvoncsefalvay)", "description_zh": "", "homepage": "https://github.com/chrisvoncsefalvay/claude-d3js-skill", "tags": ["Development & Code Tools"], "category": "Development & Code Tools", "ownerName": "chrisvoncsefalvay", "sources": ["ComposioHQ/awesome-claude-skills"], "score": 932, "downloads": 0, "stars": 0, "installs": 0, "version": "", "updated_at": 0}, {"slug": "datadog-automation", "name": "Datadog Automation", "description": "Automate Datadog: monitors, dashboards, metrics, incidents, and alerts.", "description_zh": "", "homepage": "./datadog-automation", "tags": ["App Automation via Composio"], "category": "App Automation via Composio", "ownerName": "", "sources": ["ComposioHQ/awesome-claude-skills"], "score": 931, "downloads": 0, "stars": 0, "installs": 0, "version": "", "updated_at": 0}, {"slug": "deapi-ai-claude-code-skills", "name": "deapi-ai/claude-code-skills", "description": "AI media toolkit: generate images (Flux), text-to-speech, transcribe YouTube/audio, OCR, video generation, upscale, and remove backgrounds via deAPI. Works with Cursor, Windsurf & Continue.dev.", "description_zh": "", "homepage": "https://github.com/deapi-ai/claude-code-skills", "tags": ["🎬 Media & Content"], "category": "🎬 Media & Content", "ownerName": "deapi-ai", "sources": ["BehiSecc/awesome-claude-skills"], "score": 930, "downloads": 0, "stars": 0, "installs": 0, "version": "", "updated_at": 0}, {"slug": "debug-skill", "name": "debug-skill", "description": "Give your AI agent a real debugger — breakpoints, stepping, variable inspection, and stack traces via CLI.", "description_zh": "", "homepage": "https://github.com/AlmogBaku/debug-skill", "tags": ["🛠 Development & Code Tools"], "category": "🛠 Development & Code Tools", "ownerName": "AlmogBaku", "sources": ["BehiSecc/awesome-claude-skills"], "score": 929, "downloads": 0, "stars": 0, "installs": 0, "version": "", "updated_at": 0}, {"slug": "defense-in-depth", "name": "defense-in-depth", "description": "Implement multi-layered testing and security best practices.", "description_zh": "", "homepage": "https://github.com/obra/superpowers/blob/main/skills/defense-in-depth", "tags": ["🛡 Security & Web Testing"], "category": "🛡 Security & Web Testing", "ownerName": "obra", "sources": ["BehiSecc/awesome-claude-skills"], "score": 928, "downloads": 0, "stars": 0, "installs": 0, "version": "", "updated_at": 0}, {"slug": "design-auditor", "name": "Design Auditor", "description": "Audits designs against 17 professional rules: typography, WCAG, spacing, iconography, navigation, tokens + more. Scores out of 100. Supports English & Korean.", "description_zh": "", "homepage": "https://github.com/Ashutos1997/claude-design-auditor-skill", "tags": ["🛠 Development & Code Tools"], "category": "🛠 Development & Code Tools", "ownerName": "Ashutos1997", "sources": ["BehiSecc/awesome-claude-skills"], "score": 927, "downloads": 0, "stars": 0, "installs": 0, "version": "", "updated_at": 0}, {"slug": "devmarketing-skills", "name": "devmarketing-skills", "description": "33 skills for developer marketing — HN strategy, technical tutorials, docs-as-marketing, Reddit engagement, developer onboarding, newsletters, and SEO for devtools.", "description_zh": "", "homepage": "https://github.com/jonathimer/devmarketing-skills", "tags": ["🗂️ Collections"], "category": "🗂️ Collections", "ownerName": "jonathimer", "sources": ["BehiSecc/awesome-claude-skills"], "score": 926, "downloads": 0, "stars": 0, "installs": 0, "version": "", "updated_at": 0}, {"slug": "discord-automation", "name": "Discord Automation", "description": "Automate Discord: messages, channels, servers, roles, and reactions.", "description_zh": "", "homepage": "./discord-automation", "tags": ["App Automation via Composio"], "category": "App Automation via Composio", "ownerName": "", "sources": ["ComposioHQ/awesome-claude-skills"], "score": 925, "downloads": 0, "stars": 0, "installs": 0, "version": "", "updated_at": 0}, {"slug": "dna-claude-analysis", "name": "dna-claude-analysis", "description": "Personal genome analysis toolkit that processes raw DNA data from 23andMe/AncestryDNA across 17 categories (health, ancestry, nutrition, pharmacogenomics, longevity, etc.) and generates a terminal-style HTML dashboard.", "description_zh": "", "homepage": "https://github.com/shmlkv/dna-claude-analysis", "tags": ["🏥 Health & Life Sciences"], "category": "🏥 Health & Life Sciences", "ownerName": "shmlkv", "sources": ["BehiSecc/awesome-claude-skills"], "score": 924, "downloads": 0, "stars": 0, "installs": 0, "version": "", "updated_at": 0}, {"slug": "docusign-automation", "name": "DocuSign Automation", "description": "Automate DocuSign: envelopes, templates, signing, and document management.", "description_zh": "", "homepage": "./docusign-automation", "tags": ["App Automation via Composio"], "category": "App Automation via Composio", "ownerName": "", "sources": ["ComposioHQ/awesome-claude-skills"], "score": 923, "downloads": 0, "stars": 0, "installs": 0, "version": "", "updated_at": 0}, {"slug": "domain-name-brainstormer", "name": "Domain Name Brainstormer", "description": "Generates creative domain name ideas and checks availability across multiple TLDs including .com, .io, .dev, and .ai extensions.", "description_zh": "", "homepage": "./domain-name-brainstormer", "tags": ["Business & Marketing"], "category": "Business & Marketing", "ownerName": "", "sources": ["ComposioHQ/awesome-claude-skills"], "score": 922, "downloads": 0, "stars": 0, "installs": 0, "version": "", "updated_at": 0}, {"slug": "dropbox-automation", "name": "Dropbox Automation", "description": "Automate Dropbox: files, folders, search, sharing, and batch operations.", "description_zh": "", "homepage": "./dropbox-automation", "tags": ["App Automation via Composio"], "category": "App Automation via Composio", "ownerName": "", "sources": ["ComposioHQ/awesome-claude-skills"], "score": 921, "downloads": 0, "stars": 0, "installs": 0, "version": "", "updated_at": 0}, {"slug": "elicitation", "name": "elicitation", "description": "Psychological profiling through natural conversation using narrative identity and Motivational Interviewing techniques.", "description_zh": "", "homepage": "https://github.com/tasteray/skills", "tags": ["📊 Data & Analysis"], "category": "📊 Data & Analysis", "ownerName": "tasteray", "sources": ["BehiSecc/awesome-claude-skills"], "score": 920, "downloads": 0, "stars": 0, "installs": 0, "version": "", "updated_at": 0}, {"slug": "email-html-mjml", "name": "email-html-mjml", "description": "Generate responsive HTML email templates using MJML 4.x — cross-client compatible HTML with compilation, validation, width math, and component architecture.", "description_zh": "", "homepage": "https://github.com/framix-team/skill-email-html-mjml", "tags": ["🛠 Development & Code Tools"], "category": "🛠 Development & Code Tools", "ownerName": "framix-team", "sources": ["BehiSecc/awesome-claude-skills"], "score": 919, "downloads": 0, "stars": 0, "installs": 0, "version": "", "updated_at": 0}, {"slug": "emblem-ai-agent-wallet", "name": "Emblem AI Agent Wallet", "description": "Multi-chain crypto wallet management across 7 blockchains (Solana, Ethereum, Base, BSC, Polygon, Hedera, Bitcoin), swaps and transfers.", "description_zh": "", "homepage": "https://github.com/EmblemCompany/Agent-skills", "tags": ["🛠 Development & Code Tools"], "category": "🛠 Development & Code Tools", "ownerName": "EmblemCompany", "sources": ["BehiSecc/awesome-claude-skills"], "score": 918, "downloads": 0, "stars": 0, "installs": 0, "version": "", "updated_at": 0}, {"slug": "equipping-agents-with-skills", "name": "Equipping Agents with Skills", "description": "Engineering deep dive on Agent Skills", "description_zh": "", "homepage": "https://www.anthropic.com/engineering/equipping-agents-for-the-real-world-with-agent-skills", "tags": ["Documentation"], "category": "Documentation", "ownerName": "", "sources": ["travisvn/awesome-claude-skills"], "score": 917, "downloads": 0, "stars": 0, "installs": 0, "version": "", "updated_at": 0}, {"slug": "factory-floor", "name": "Factory-Floor", "description": "Startup coaching skill combining Theory of Constraints, Customer Factory, How Brands Grow, and Marketing Strategy Discipline to help founders find and work their bottleneck.", "description_zh": "", "homepage": "https://github.com/Swiftner/Factory-Floor", "tags": ["🤝 Collaboration & Project Management"], "category": "🤝 Collaboration & Project Management", "ownerName": "Swiftner", "sources": ["BehiSecc/awesome-claude-skills"], "score": 916, "downloads": 0, "stars": 0, "installs": 0, "version": "", "updated_at": 0}, {"slug": "figma-automation", "name": "Figma Automation", "description": "Automate Figma: files, components, comments, projects, and team management.", "description_zh": "", "homepage": "./figma-automation", "tags": ["App Automation via Composio"], "category": "App Automation via Composio", "ownerName": "", "sources": ["ComposioHQ/awesome-claude-skills"], "score": 915, "downloads": 0, "stars": 0, "installs": 0, "version": "", "updated_at": 0}, {"slug": "file-organizer", "name": "File Organizer", "description": "Intelligently organizes files and folders by understanding context, finding duplicates, and suggesting better organizational structures.", "description_zh": "", "homepage": "./file-organizer", "tags": ["Productivity & Organization"], "category": "Productivity & Organization", "ownerName": "", "sources": ["ComposioHQ/awesome-claude-skills"], "score": 914, "downloads": 0, "stars": 0, "installs": 0, "version": "", "updated_at": 0}, {"slug": "find-scene", "name": "find-scene", "description": "Search and download movie/TV show scenes by dialog, time, or visual description using the FindScene API.", "description_zh": "", "homepage": "https://github.com/uriva/find-scene-skill", "tags": ["🎬 Media & Content"], "category": "🎬 Media & Content", "ownerName": "uriva", "sources": ["BehiSecc/awesome-claude-skills"], "score": 913, "downloads": 0, "stars": 0, "installs": 0, "version": "", "updated_at": 0}, {"slug": "find-skills", "name": "find-skills", "description": "Helps users discover, search and install agent skills from the marketplace.", "description_zh": "", "homepage": "https://github.com/agentbay-ai/agentbay-skills", "tags": ["🗂️ Collections"], "category": "🗂️ Collections", "ownerName": "agentbay-ai", "sources": ["BehiSecc/awesome-claude-skills"], "score": 912, "downloads": 0, "stars": 0, "installs": 0, "version": "", "updated_at": 0}, {"slug": "follow-on-twitter-x", "name": "Follow on Twitter/X", "description": "Stay updated on new skills and features", "description_zh": "", "homepage": "https://x.com/composio", "tags": ["Join the Community"], "category": "Join the Community", "ownerName": "", "sources": ["ComposioHQ/awesome-claude-skills"], "score": 911, "downloads": 0, "stars": 0, "installs": 0, "version": "", "updated_at": 0}, {"slug": "freshdesk-automation", "name": "Freshdesk Automation", "description": "Automate Freshdesk: tickets, contacts, agents, groups, and canned responses.", "description_zh": "", "homepage": "./freshdesk-automation", "tags": ["App Automation via Composio"], "category": "App Automation via Composio", "ownerName": "", "sources": ["ComposioHQ/awesome-claude-skills"], "score": 910, "downloads": 0, "stars": 0, "installs": 0, "version": "", "updated_at": 0}, {"slug": "freshservice-automation", "name": "Freshservice Automation", "description": "Automate Freshservice: tickets, assets, changes, problems, and service catalog.", "description_zh": "", "homepage": "./freshservice-automation", "tags": ["App Automation via Composio"], "category": "App Automation via Composio", "ownerName": "", "sources": ["ComposioHQ/awesome-claude-skills"], "score": 909, "downloads": 0, "stars": 0, "installs": 0, "version": "", "updated_at": 0}, {"slug": "gh-star-history", "name": "gh-star-history", "description": "Visualize and compare GitHub star history as interactive charts, with regional breakdown of stargazers.", "description_zh": "", "homepage": "https://github.com/ykdojo/gh-star-history", "tags": ["📊 Data & Analysis"], "category": "📊 Data & Analysis", "ownerName": "ykdojo", "sources": ["BehiSecc/awesome-claude-skills"], "score": 908, "downloads": 0, "stars": 0, "installs": 0, "version": "", "updated_at": 0}, {"slug": "github-automation", "name": "GitHub Automation", "description": "Automate GitHub: issues, PRs, repos, branches, actions, and code search.", "description_zh": "", "homepage": "./github-automation", "tags": ["App Automation via Composio"], "category": "App Automation via Composio", "ownerName": "", "sources": ["ComposioHQ/awesome-claude-skills"], "score": 907, "downloads": 0, "stars": 0, "installs": 0, "version": "", "updated_at": 0}, {"slug": "gitlab-automation", "name": "GitLab Automation", "description": "Automate GitLab: issues, MRs, projects, pipelines, and branches.", "description_zh": "", "homepage": "./gitlab-automation", "tags": ["App Automation via Composio"], "category": "App Automation via Composio", "ownerName": "", "sources": ["ComposioHQ/awesome-claude-skills"], "score": 906, "downloads": 0, "stars": 0, "installs": 0, "version": "", "updated_at": 0}, {"slug": "glitternetwork-pinme", "name": "glitternetwork/pinme", "description": "PinMe is a zero-config frontend deployment tool. No servers. No accounts. No setup.", "description_zh": "", "homepage": "https://github.com/glitternetwork/skills", "tags": ["🔧 Utility & Automation"], "category": "🔧 Utility & Automation", "ownerName": "glitternetwork", "sources": ["BehiSecc/awesome-claude-skills"], "score": 905, "downloads": 0, "stars": 0, "installs": 0, "version": "", "updated_at": 0}, {"slug": "gmail-automation", "name": "Gmail Automation", "description": "Automate Gmail: send/reply, search, labels, drafts, and attachments.", "description_zh": "", "homepage": "./gmail-automation", "tags": ["App Automation via Composio"], "category": "App Automation via Composio", "ownerName": "", "sources": ["ComposioHQ/awesome-claude-skills"], "score": 904, "downloads": 0, "stars": 0, "installs": 0, "version": "", "updated_at": 0}, {"slug": "google-analytics-automation", "name": "Google Analytics Automation", "description": "Automate Google Analytics: reports, dimensions, metrics, and property management.", "description_zh": "", "homepage": "./google-analytics-automation", "tags": ["App Automation via Composio"], "category": "App Automation via Composio", "ownerName": "", "sources": ["ComposioHQ/awesome-claude-skills"], "score": 903, "downloads": 0, "stars": 0, "installs": 0, "version": "", "updated_at": 0}, {"slug": "google-calendar-automation", "name": "Google Calendar Automation", "description": "Automate Google Calendar: events, attendees, free/busy, and recurring schedules.", "description_zh": "", "homepage": "./google-calendar-automation", "tags": ["App Automation via Composio"], "category": "App Automation via Composio", "ownerName": "", "sources": ["ComposioHQ/awesome-claude-skills"], "score": 902, "downloads": 0, "stars": 0, "installs": 0, "version": "", "updated_at": 0}, {"slug": "google-drive-automation", "name": "Google Drive Automation", "description": "Automate Google Drive: upload, download, search, share, and organize files.", "description_zh": "", "homepage": "./google-drive-automation", "tags": ["App Automation via Composio"], "category": "App Automation via Composio", "ownerName": "", "sources": ["ComposioHQ/awesome-claude-skills"], "score": 901, "downloads": 0, "stars": 0, "installs": 0, "version": "", "updated_at": 0}]}