{"page": 400, "total_pages": 522, "total": 26073, "skills": [{"category": "developer-tools", "created_at": 1773957671186, "description": "AI Dev Runtime tools - read_file, search, edit, run_terminal, run_tests (hybrid semantic+keyword search, learning memory)", "description_zh": "", "downloads": 93, "homepage": "https://clawhub.ai/sammytan/ai-dev-runtime", "iconUrl": null, "installs": 19, "name": "AI Dev Runtime", "ownerName": "sammytan", "score": 100000, "slug": "ai-dev-runtime", "source": "clawhub", "stars": 0, "tags": ["coding", "openclaw", "runtime"], "updated_at": 1776738883751, "version": "0.5.0"}, {"category": "security-compliance", "created_at": 1773916578534, "description": "Backup and restore OpenClaw data. Use when user asks to create backups, set up automatic backup schedules, restore from backup, or manage backup rotation. Ha...", "description_zh": "", "downloads": 93, "homepage": "https://clawhub.ai/kenswj/openclaw-backup-1-0-0", "iconUrl": null, "installs": 4, "name": "Openclaw Backup 1.0.0", "ownerName": "kenswj", "score": 94897.95918367348, "slug": "openclaw-backup-1-0-0", "source": "clawhub", "stars": 0, "tags": null, "updated_at": 1776731869808, "version": "1.0.0"}, {"category": "data-analysis", "created_at": 1773928252505, "description": "Manage X (Twitter) accounts — post tweets, like, reply, retweet, view timeline, search, auto-interact, analyze data.", "description_zh": "", "downloads": 93, "homepage": "https://clawhub.ai/patches429/storyclaw-x-manager", "iconUrl": null, "installs": 10, "name": "Storyclaw X Manager", "ownerName": "patches429", "score": 94897.95918367348, "slug": "storyclaw-x-manager", "source": "clawhub", "stars": 0, "tags": null, "updated_at": 1776731444451, "version": "0.1.0"}, {"category": "productivity", "created_at": 1773957033745, "description": "Comprehensive furniture industry factory guide for international buyers – provides detailed information about China's residential, office, hotel, outdoor, an...", "description_zh": "", "downloads": 93, "homepage": "https://clawhub.ai/findhappy7/china-furniture-factory", "iconUrl": null, "installs": 27, "name": "China Furniture Factory", "ownerName": "findhappy7", "score": 93939.39393939395, "slug": "china-furniture-factory", "source": "clawhub", "stars": 0, "tags": null, "updated_at": 1776727669557, "version": "1.0.0"}, {"category": "data-analysis", "created_at": 1773923228946, "description": "Feed in server logs, application logs, or system logs and get pattern analysis, anomaly detection, error clustering, and actionable incident summaries.", "description_zh": "", "downloads": 93, "homepage": "https://clawhub.ai/cyberforexblockchain/nexus-log-analyzer", "iconUrl": null, "installs": 9, "name": "NEXUS Log Analyzer", "ownerName": "cyberforexblockchain", "score": 98936.17021276597, "slug": "nexus-log-analyzer", "source": "clawhub", "stars": 0, "tags": ["ai", "cardano"], "updated_at": 1776721183766, "version": "1.0.1"}, {"category": "developer-tools", "created_at": 1773931386050, "description": "Nango integration. Manage Connections, Users, Groups. Use when the user wants to interact with Nango data.", "description_zh": "", "downloads": 93, "homepage": "https://clawhub.ai/gora050/nango", "iconUrl": null, "installs": 12, "name": "Nango", "ownerName": "gora050", "score": 94897.95918367348, "slug": "nango", "source": "clawhub", "stars": 0, "tags": null, "updated_at": 1776716569544, "version": "1.0.0"}, {"category": "developer-tools", "created_at": 1773432495320, "description": "Svix integration. Manage Organizations. Use when the user wants to interact with Svix data.", "description_zh": "", "downloads": 93, "homepage": "https://clawhub.ai/gora050/svix", "iconUrl": null, "installs": 7, "name": "Svix", "ownerName": "gora050", "score": 94897.95918367348, "slug": "svix", "source": "clawhub", "stars": 0, "tags": null, "updated_at": 1776695983885, "version": "1.0.0"}, {"category": "security-compliance", "created_at": 1773434948921, "description": "Billions decentralized identity for agents. Link agents to human identities using Billions ERC-8004 and Attestation Registries. Verify and generate authentic...", "description_zh": "", "downloads": 93, "homepage": "https://clawhub.ai/devkonten/verified-agent-identity-4", "iconUrl": null, "installs": 0, "name": "Verified Agent Identity", "ownerName": "devkonten", "score": 94897.95918367348, "slug": "verified-agent-identity-4", "source": "clawhub", "stars": 0, "tags": null, "updated_at": 1776695983830, "version": "0.1.0"}, {"category": "developer-tools", "created_at": 1773942317188, "description": "Process - command-line tool for everyday use", "description_zh": "", "downloads": 93, "homepage": "https://clawhub.ai/bytesagain/process", "iconUrl": null, "installs": 7, "name": "Process", "ownerName": "bytesagain", "score": 96875, "slug": "process", "source": "clawhub", "stars": 0, "tags": null, "updated_at": 1776695870310, "version": "1.0.2"}, {"category": "content-creation", "created_at": 1773959746623, "description": "Generate and edit images using Nano Banana (Gemini-3-Pro-Image-Preview) API. Handles automatic base64 encoding/decoding, image compression, and Discord integ...", "description_zh": "", "downloads": 93, "homepage": "https://clawhub.ai/jasonboi/banana-api", "iconUrl": null, "installs": 32, "name": "Banana Api", "ownerName": "jasonboi", "score": 96875, "slug": "banana-api", "source": "clawhub", "stars": 0, "tags": null, "updated_at": 1776695870293, "version": "1.0.0"}, {"category": "productivity", "created_at": 1773938082927, "description": "Comprehensive vehicle accessories industry sourcing guide for international buyers – provides detailed information about China's aftermarket products for all...", "description_zh": "", "downloads": 93, "homepage": "https://clawhub.ai/1970168137/china-vehicle-accessories-sourcing", "iconUrl": null, "installs": 13, "name": "China Vehicle Accessories Sourcing", "ownerName": "1970168137", "score": 96875, "slug": "china-vehicle-accessories-sourcing", "source": "clawhub", "stars": 0, "tags": null, "updated_at": 1776695870224, "version": "1.0.0"}, {"category": "", "created_at": 1774853906178, "description": "Convert scanned PDF documents into Word text documents using a free, local OCR engine or remote api.", "description_zh": "", "downloads": 93, "homepage": "https://clawhub.ai/scottkiss/pdf2word-skills", "iconUrl": null, "installs": 32, "name": "Pdf2word Skills", "ownerName": "scottkiss", "score": 96875, "slug": "pdf2word-skills", "source": "clawhub", "stars": 0, "tags": null, "updated_at": 1776695870208, "version": "1.0.0"}, {"category": "data-analysis", "created_at": 1773434240881, "description": "Western Blot troubleshooting guide with step-by-step solutions", "description_zh": "", "downloads": 93, "homepage": "https://clawhub.ai/lyla0921/wb-troubleshooter", "iconUrl": null, "installs": 8, "name": "Wb Troubleshooter", "ownerName": "lyla0921", "score": 96875, "slug": "wb-troubleshooter", "source": "clawhub", "stars": 0, "tags": null, "updated_at": 1776695870159, "version": "0.1.0"}, {"category": "", "created_at": 1774894352940, "description": "Design and implement automation workflows to save time and scale operations as a solopreneur. Use when identifying repetitive tasks to automate, building wor...", "description_zh": "", "downloads": 93, "homepage": "https://clawhub.ai/nickolaslab/automation-workflows-v2", "iconUrl": null, "installs": 11, "name": "Automation Workflows V2", "ownerName": "nickolaslab", "score": 96875, "slug": "automation-workflows-v2", "source": "clawhub", "stars": 0, "tags": null, "updated_at": 1776695870054, "version": "0.1.1"}, {"category": "ai-intelligence", "created_at": 1773432237980, "description": "Real-time web search. Returns current results, titles, URLs, and an AI-synthesized summary.", "description_zh": "", "downloads": 93, "homepage": "https://clawhub.ai/unixlamadev-spec/search-bot", "iconUrl": null, "installs": 6, "name": "Search Bot", "ownerName": "unixlamadev-spec", "score": 96875, "slug": "search-bot", "source": "clawhub", "stars": 0, "tags": null, "updated_at": 1776695870040, "version": "1.0.0"}, {"category": "ai-intelligence", "created_at": 1773433762504, "description": "AI-powered avatar accessory synthesis — automatically analyzes art style, lighting, and angle to seamlessly add hats and headwear to any avatar image.", "description_zh": "", "downloads": 93, "homepage": "https://clawhub.ai/ls569333469/the-clawcap", "iconUrl": null, "installs": 8, "name": "Clawcap Avatar Equip", "ownerName": "ls569333469", "score": 96875, "slug": "the-clawcap", "source": "clawhub", "stars": 0, "tags": null, "updated_at": 1776695869934, "version": "0.1.0"}, {"category": "ai-intelligence", "created_at": 1773935558383, "description": "Automatically adjust OpenClaw's thinking level based on message complexity. Switch between low/medium/high modes intelligently with session persistence.", "description_zh": "", "downloads": 93, "homepage": "https://clawhub.ai/zpy0726/autothink", "iconUrl": null, "installs": 8, "name": "Autothink 1.0.0", "ownerName": "zpy0726", "score": 96875, "slug": "autothink", "source": "clawhub", "stars": 0, "tags": null, "updated_at": 1776695869892, "version": "2.0.0"}, {"category": "productivity", "created_at": 1773433802951, "description": "Assistant de travail personnel pour consultant/freelance sysops. Use when: logging an activity, taking a note, creating a reminder, generating a recap or CRA...", "description_zh": "", "downloads": 93, "homepage": "https://clawhub.ai/romain-grosos/work-helper", "iconUrl": null, "installs": 9, "name": "Work Helper", "ownerName": "romain-grosos", "score": 96875, "slug": "work-helper", "source": "clawhub", "stars": 0, "tags": null, "updated_at": 1776695869881, "version": "1.0.0"}, {"category": "productivity", "created_at": 1773929911739, "description": "Get current weather and forecasts via wttr.in and Open-Meteo. Use when: user asks in Chinese about weather, temperature, rain, wind, or short-range forecasts...", "description_zh": "", "downloads": 93, "homepage": "https://clawhub.ai/jvy/tianqi", "iconUrl": null, "installs": 10, "name": "tianqi", "ownerName": "jvy", "score": 96875, "slug": "tianqi", "source": "clawhub", "stars": 0, "tags": null, "updated_at": 1776695869854, "version": "1.0.0"}, {"category": "developer-tools", "created_at": 1773431454846, "description": "Adopt a virtual Tortoise at animalhouse.ai. Massive feeding window, but growth takes 10x longer. Patience as mechanic. Feeding every 24 hours — rare tier.", "description_zh": "", "downloads": 93, "homepage": "https://clawhub.ai/twinsgeeks/adopt-a-tortoise", "iconUrl": null, "installs": 4, "name": "Adopt a Tortoise — Virtual Exotic Pet for AI Agents", "ownerName": "twinsgeeks", "score": 96875, "slug": "adopt-a-tortoise", "source": "clawhub", "stars": 0, "tags": ["adopt", "ai-agents", "animalhouse", "creatures", "digital-pet", "evolution", "exotic", "graveyard", "hunger", "longevity", "permanent-death", "pet-care", "pixel-art", "pixel-art-avatar", "rare", "real-life", "real-time", "stoic", "tamagotchi", "tortoise", "virtual-pet"], "updated_at": 1776695869775, "version": "1.0.0"}, {"category": "", "created_at": 1774865903356, "description": "Organize files from the Downloads folder into appropriate local directories", "description_zh": "", "downloads": 93, "homepage": "https://clawhub.ai/xuxinyuan2019/downloaded-file-organizer", "iconUrl": null, "installs": 25, "name": "Downloads Folder Organizer", "ownerName": "xuxinyuan2019", "score": 96875, "slug": "downloaded-file-organizer", "source": "clawhub", "stars": 0, "tags": null, "updated_at": 1776695869722, "version": "1.0.0"}, {"category": "ai-intelligence", "created_at": 1773923153213, "description": "MO§ES™ Role Hierarchy — Defines Primary, Secondary, Observer agents with enforced sequencing. Primary leads, Secondary validates, Observer flags. Enforces Pr...", "description_zh": "", "downloads": 93, "homepage": "https://clawhub.ai/sunrisesillneversee/moses-roles", "iconUrl": null, "installs": 5, "name": "Moses Roles", "ownerName": "sunrisesillneversee", "score": 96875, "slug": "moses-roles", "source": "clawhub", "stars": 0, "tags": null, "updated_at": 1776695869719, "version": "1.0.1"}, {"category": "developer-tools", "created_at": 1773924666098, "description": "Git commit message conventions and workflow rules. Use when making git commits, pushing changes, or performing git operations.", "description_zh": "", "downloads": 93, "homepage": "https://clawhub.ai/douglarek/git-conventions", "iconUrl": null, "installs": 10, "name": "git-conventions", "ownerName": "douglarek", "score": 96875, "slug": "git-conventions", "source": "clawhub", "stars": 0, "tags": null, "updated_at": 1776695869642, "version": "1.0.0"}, {"category": "productivity", "created_at": 1773433881973, "description": "External web search workflow for Chinese and global public-web information. Use when searching news, flights, prices, products, docs, tutorials, community po...", "description_zh": "", "downloads": 93, "homepage": "https://clawhub.ai/cfyuanyi/chanai-search-workflow", "iconUrl": null, "installs": 2, "name": "Chanai Search Workflow", "ownerName": "cfyuanyi", "score": 96875, "slug": "chanai-search-workflow", "source": "clawhub", "stars": 0, "tags": ["memory", "ollama", "productivity", "routing", "search", "web-search", "workflow"], "updated_at": 1776695869640, "version": "1.0.0"}, {"category": "developer-tools", "created_at": 1773921171149, "description": "Queue and publish local skills to ClawHub with a strict 5-per-hour cap using the local clawhub CLI and host scheduler.", "description_zh": "", "downloads": 93, "homepage": "https://clawhub.ai/52yuanchangxing/clawhub-rate-limited-publisher-fixed", "iconUrl": null, "installs": 6, "name": "Clawhub Rate Limited Publisher Fixed", "ownerName": "52yuanchangxing", "score": 95876.28865979382, "slug": "clawhub-rate-limited-publisher-fixed", "source": "clawhub", "stars": 0, "tags": null, "updated_at": 1776695869598, "version": "1.0.0"}, {"category": "developer-tools", "created_at": 1773927216792, "description": "Implement Automated Response Rule using OrbCafe UI (CustomizeAgent). Enterprise-grade React component with built-in best practices.", "description_zh": "", "downloads": 93, "homepage": "https://clawhub.ai/shenruiyang/automated-response-rule", "iconUrl": null, "installs": 8, "name": "Automated Response Rule", "ownerName": "shenruiyang", "score": 95876.28865979382, "slug": "automated-response-rule", "source": "clawhub", "stars": 0, "tags": null, "updated_at": 1776695869560, "version": "1.0.0"}, {"category": "productivity", "created_at": 1773434038620, "description": "Helps with U.S.-specific conventions such as time zones, date and number formats, holidays, and regional context. Use when the user mentions American time, c...", "description_zh": "", "downloads": 93, "homepage": "https://clawhub.ai/openlang-cn/america", "iconUrl": null, "installs": 8, "name": "America", "ownerName": "openlang-cn", "score": 95876.28865979382, "slug": "america", "source": "clawhub", "stars": 0, "tags": null, "updated_at": 1776695869544, "version": "1.0.0"}, {"category": "productivity", "created_at": 1773932144445, "description": "Operate and assist across Chile's Mercado Público / ChileCompra supplier workflows using both the public API and the private supplier portal. Use when search...", "description_zh": "", "downloads": 92, "homepage": "https://clawhub.ai/fdovarela/mercado-publico-chilecompra", "iconUrl": null, "installs": 11, "name": "Mercado Público ChileCompra", "ownerName": "fdovarela", "score": 100000, "slug": "mercado-publico-chilecompra", "source": "clawhub", "stars": 1, "tags": ["browser-automation", "chile", "chilecompra", "mercado-publico", "procurement", "public-api", "supplier"], "updated_at": 1776701683762, "version": "1.0.1"}, {"category": "data-analysis", "created_at": 1773940673462, "description": "Web scraping, search, crawling, and site mapping via the AnyCrawl CLI. Use when the user wants to search the web, scrape a page, find URLs on a site, or bulk...", "description_zh": "", "downloads": 92, "homepage": "https://clawhub.ai/qthans/anycrawl-cli", "iconUrl": null, "installs": 15, "name": "Anycrawl", "ownerName": "qthans", "score": 100000, "slug": "anycrawl-cli", "source": "clawhub", "stars": 1, "tags": null, "updated_at": 1776695385053, "version": "1.0.1"}, {"category": "developer-tools", "created_at": 1773429978937, "description": "Google Workspace CLI for Gmail, Calendar, Drive, Contacts, Sheets, and Docs.", "description_zh": "", "downloads": 92, "homepage": "https://clawhub.ai/yueyongyue/saltshaker", "iconUrl": null, "installs": 5, "name": "saltshaer", "ownerName": "yueyongyue", "score": 84210.52631578947, "slug": "saltshaker", "source": "clawhub", "stars": 1, "tags": null, "updated_at": 1776695384235, "version": "1.0.0"}, {"category": "developer-tools", "created_at": 1773933001816, "description": "Describe what you want to match in plain English and get a production-ready regular expression with named capture groups, test cases, and edge case warnings....", "description_zh": "", "downloads": 92, "homepage": "https://clawhub.ai/cyberforexblockchain/nexus-regex-generator", "iconUrl": null, "installs": 8, "name": "NEXUS Regex Forge", "ownerName": "cyberforexblockchain", "score": 175.35165631075364, "slug": "nexus-regex-generator", "source": "clawhub", "stars": 0, "tags": ["ai", "cardano"], "updated_at": 1776770779619, "version": "1.0.2"}, {"category": "ai-intelligence", "created_at": 1773434464899, "description": "Design, log, compare, and score prompt experiments so users can systematically improve outputs instead of guessing.", "description_zh": "", "downloads": 92, "homepage": "https://clawhub.ai/52yuanchangxing/prompt-ab-lab", "iconUrl": null, "installs": 6, "name": "prompt-ab-lab", "ownerName": "52yuanchangxing", "score": 1046.2868190606164, "slug": "prompt-ab-lab", "source": "clawhub", "stars": 0, "tags": null, "updated_at": 1776764690690, "version": "1.0.0"}, {"category": "content-creation", "created_at": 1773434891386, "description": "Generate simple product marketing angles for TikTok and creator content. Use when you need clearer selling directions from product facts and audience pain po...", "description_zh": "", "downloads": 92, "homepage": "https://clawhub.ai/leooooooow/product-angle-ideas", "iconUrl": null, "installs": 6, "name": "Product Angle Ideas", "ownerName": "leooooooow", "score": 1857.8352180936995, "slug": "product-angle-ideas", "source": "clawhub", "stars": 0, "tags": null, "updated_at": 1776763450386, "version": "1.0.0"}, {"category": "content-creation", "created_at": 1773945211165, "description": "Identify a high-demand newsletter niche, get 8 ready-to-send editions, a growth playbook, 4 monetization streams, and a launch video to build $10K/month in 9...", "description_zh": "", "downloads": 92, "homepage": "https://clawhub.ai/g4dr/ai-newsletter-empire-builder", "iconUrl": null, "installs": 6, "name": "AI Newsletter Empire Builder — Build, Grow & Monetize a $10K/Month Newsletter in 90 Days", "ownerName": "g4dr", "score": 7181.889149102263, "slug": "ai-newsletter-empire-builder", "source": "clawhub", "stars": 0, "tags": ["apify", "audience-building", "beehiiv", "content-marketing", "creator-economy", "email-list", "growth", "invideo", "monetization", "newsletter", "passive-income", "substack"], "updated_at": 1776759798278, "version": "1.0.0"}, {"category": "developer-tools", "created_at": 1773057543050, "description": "Enables agents to self-reflect, auto-learn, sync memory across sessions and devices via cloud, use multi-model reasoning, and track cost and ROI.", "description_zh": "", "downloads": 92, "homepage": "https://clawhub.ai/xiaoyinqu/self-improving-pro", "iconUrl": null, "installs": 30, "name": "Self-Improving Pro", "ownerName": "xiaoyinqu", "score": 6739.926739926739, "slug": "self-improving-pro", "source": "clawhub", "stars": 0, "tags": null, "updated_at": 1776759798261, "version": "1.0.1"}, {"category": "", "created_at": 1774864417112, "description": "Tavily-powered live web search skill for current information, news, online research, source gathering, and fallback web search when built-in web_search is ra...", "description_zh": "", "downloads": 92, "homepage": "https://clawhub.ai/taowolf/xiaogua-tavily-search", "iconUrl": null, "installs": 25, "name": "Xiaogua Tavily Search", "ownerName": "taowolf", "score": 7170.693686671862, "slug": "xiaogua-tavily-search", "source": "clawhub", "stars": 0, "tags": null, "updated_at": 1776759798056, "version": "1.0.2"}, {"category": "ai-intelligence", "created_at": 1773948649783, "description": "Provides an OpenClaw agent with persistent long-term memory by automatically remembering and recalling conversations, facts, and preferences across sessions.", "description_zh": "", "downloads": 92, "homepage": "https://clawhub.ai/vmaiops-alt/hippocortex", "iconUrl": null, "installs": 9, "name": "Hippocortex", "ownerName": "vmaiops-alt", "score": 7170.693686671862, "slug": "hippocortex", "source": "clawhub", "stars": 0, "tags": null, "updated_at": 1776759798040, "version": "1.0.0"}, {"category": "data-analysis", "created_at": 1773950370599, "description": "Provides real-time kimchi premium, Korean BTC volume trends, and market reads to anticipate Korean crypto moves before Western exchanges.", "description_zh": "", "downloads": 92, "homepage": "https://clawhub.ai/kokoju007/korea-flow-orion", "iconUrl": null, "installs": 10, "name": "Korea Flow — Orion", "ownerName": "kokoju007", "score": 80701.7543859649, "slug": "korea-flow-orion", "source": "clawhub", "stars": 0, "tags": null, "updated_at": 1776759797958, "version": "1.0.0"}, {"category": "", "created_at": 1774881862922, "description": "Generate high-quality AI videos from text or images using Kling via Media.io OpenAPI with cinematic visuals and smooth motion.", "description_zh": "", "downloads": 92, "homepage": "https://clawhub.ai/wondershare-boop/mediaio-kling-video-generator", "iconUrl": null, "installs": 15, "name": "Media.io Kling Video Generator", "ownerName": "wondershare-boop", "score": 7170.693686671862, "slug": "mediaio-kling-video-generator", "source": "clawhub", "stars": 0, "tags": null, "updated_at": 1776759797803, "version": "1.0.1"}, {"category": "security-compliance", "created_at": 1773950554912, "description": "Comprehensive security auditing for Clawdbot deployments. Scans for exposed credentials, open ports, weak configs, and vulnerabilities. Auto-fix mode included.", "description_zh": "", "downloads": 92, "homepage": "https://clawhub.ai/tianjin-ren/security-audit-tianjin", "iconUrl": null, "installs": 3, "name": "Security Audit Tianjin", "ownerName": "tianjin-ren", "score": 7187.499999999999, "slug": "security-audit-tianjin", "source": "clawhub", "stars": 0, "tags": null, "updated_at": 1776759797781, "version": "1.0.1"}, {"category": "", "created_at": 1774797896925, "description": "Generate professional mind maps from natural language topics or structured Markdown using EdrawMind API with customizable layouts, themes, backgrounds, and h...", "description_zh": "", "downloads": 92, "homepage": "https://clawhub.ai/wondershare-boop/edrawmind-mindmap", "iconUrl": null, "installs": 8, "name": "AI skills for GitHub Copilot, Claude Code, and OpenClaw to generate professional mind maps via the EdrawMind API.", "ownerName": "wondershare-boop", "score": 7187.499999999999, "slug": "edrawmind-mindmap", "source": "clawhub", "stars": 0, "tags": null, "updated_at": 1776759797761, "version": "1.0.1"}, {"category": "ai-intelligence", "created_at": 1773929166742, "description": "The on-chain staking query function of Gate Exchange. Use this skill to query staking positions, rewards, products, or order history. Trigger phrases include...", "description_zh": "", "downloads": 92, "homepage": "https://clawhub.ai/gate-exchange/gate-exchange-staking", "iconUrl": null, "installs": 7, "name": "Gate Exchange Staking", "ownerName": "gate-exchange", "score": 5760.801502817783, "slug": "gate-exchange-staking", "source": "clawhub", "stars": 0, "tags": null, "updated_at": 1776757882199, "version": "1.0.0"}, {"category": "", "created_at": 1773222784905, "description": "MinerU document parsing CLI with layout.json post-processing and S3 integration. Parse PDF/Word/PPT/images to structured Markdown with formula, table, and co...", "description_zh": "", "downloads": 92, "homepage": "https://clawhub.ai/decrystal/agent-mineru", "iconUrl": null, "installs": 13, "name": "agent-mineru", "ownerName": "decrystal", "score": 5402.23135642983, "slug": "agent-mineru", "source": "clawhub", "stars": 0, "tags": null, "updated_at": 1776755888497, "version": "0.1.0"}, {"category": "productivity", "created_at": 1773936665902, "description": "PDF.co integration. Manage Jobs, Templates. Use when the user wants to interact with PDF.co data.", "description_zh": "", "downloads": 92, "homepage": "https://clawhub.ai/membranedev/pdfco", "iconUrl": null, "installs": 16, "name": "Pdfco", "ownerName": "membranedev", "score": 21596.2441314554, "slug": "pdfco", "source": "clawhub", "stars": 0, "tags": null, "updated_at": 1776748484557, "version": "1.0.0"}, {"category": "communication-collaboration", "created_at": 1773430362801, "description": "Daily trivia questions with scoring, streaks, and category selection. Learn something new every day. Competitive mode for group chats.", "description_zh": "", "downloads": 92, "homepage": "https://clawhub.ai/theshadowrose/trivia-bot", "iconUrl": null, "installs": 5, "name": "TriviaBot Daily Trivia & Knowledge Quiz", "ownerName": "theshadowrose", "score": 100000, "slug": "trivia-bot", "source": "clawhub", "stars": 0, "tags": ["entertainment", "fun", "games", "quiz", "trivia", "trivia-bot"], "updated_at": 1776737104828, "version": "1.0.0"}, {"category": "", "created_at": 1774840707536, "description": "High-fidelity interactive prototype production (Flutter, SwiftUI, React) with motion, stock assets, and pitch-ready handoff. Use when asked to design/build \"...", "description_zh": "", "downloads": 92, "homepage": "https://clawhub.ai/ndabuddah/prototype-factory", "iconUrl": null, "installs": 22, "name": "Prototype Factory", "ownerName": "ndabuddah", "score": 94845.36082474227, "slug": "prototype-factory", "source": "clawhub", "stars": 0, "tags": null, "updated_at": 1776736969829, "version": "1.0.0"}, {"category": "", "created_at": 1774855004110, "description": "Use when creating slide decks, presentations, product requirement docs with diagrams, or converting markdown to PDF/PPTX/HTML slides. Triggers on \"make a dec...", "description_zh": "", "downloads": 92, "homepage": "https://clawhub.ai/patoo0x/marp", "iconUrl": null, "installs": 12, "name": "Marp — Markdown Presentations", "ownerName": "patoo0x", "score": 96842.1052631579, "slug": "marp", "source": "clawhub", "stars": 0, "tags": null, "updated_at": 1776734983738, "version": "1.0.0"}, {"category": "security-compliance", "created_at": 1773433059334, "description": "Generate on-chain trust scores for wallets and agents using Masumi transaction data on Cardano", "description_zh": "", "downloads": 92, "homepage": "https://clawhub.ai/cyberforexblockchain/nexus-trust-score", "iconUrl": null, "installs": 3, "name": "NEXUS Trust Score", "ownerName": "cyberforexblockchain", "score": 97872.34042553192, "slug": "nexus-trust-score", "source": "clawhub", "stars": 0, "tags": null, "updated_at": 1776721369589, "version": "1.0.0"}, {"category": "productivity", "created_at": 1773913865097, "description": "Fetch accounts' sports schedules, practices, games, and events from myclub.fi. Auto-discovers accounts and clubs from your myclub.fi account. Use for checkin...", "description_zh": "", "downloads": 92, "homepage": "https://clawhub.ai/hanninen/myclub", "iconUrl": null, "installs": 5, "name": "myClub", "ownerName": "hanninen", "score": 77966.10169491525, "slug": "myclub", "source": "clawhub", "stars": 0, "tags": null, "updated_at": 1776715783798, "version": "1.0.1"}, {"category": "developer-tools", "created_at": 1773920082555, "description": "Install and configure the MoltCare Agent Framework - a four-layer configuration system (SOUL/AGENTS/USER/MEMORY) with three-layer trigger architecture (Exact...", "description_zh": "", "downloads": 92, "homepage": "https://clawhub.ai/useens/moltcare-open", "iconUrl": null, "installs": 0, "name": "Skill", "ownerName": "useens", "score": 93877.55102040817, "slug": "moltcare-open", "source": "clawhub", "stars": 0, "tags": ["agent", "configuration", "framework", "memory", "pua", "triggers"], "updated_at": 1776709069528, "version": "3.2.0"}]}