{"page": 401, "total_pages": 522, "total": 26073, "skills": [{"category": "developer-tools", "created_at": 1773930072730, "description": "Backup AI Agent workspace to GitHub - One-click backup for OpenClaw, Claude Code, Cursor, and other AI Agent workspaces to a private GitHub repository. Suppo...", "description_zh": "", "downloads": 92, "homepage": "https://clawhub.ai/ziqi-jin/workspace-backup-github", "iconUrl": null, "installs": 8, "name": "workspace-backup-github", "ownerName": "ziqi-jin", "score": 93877.55102040817, "slug": "workspace-backup-github", "source": "clawhub", "stars": 0, "tags": ["automation", "backup", "claude", "cursor", "english", "github", "openclaw", "workspace"], "updated_at": 1776708469642, "version": "1.3.0"}, {"category": "data-analysis", "created_at": 1773914572645, "description": "Read-only Affinity CRM access for analysis and memo prep. Use when you need to fetch Affinity companies, people, notes, opportunities, interactions, or relat...", "description_zh": "", "downloads": 92, "homepage": "https://clawhub.ai/howdymarc/affinity-readonly", "iconUrl": null, "installs": 3, "name": "Affinity Readonly", "ownerName": "howdymarc", "score": 100000, "slug": "affinity-readonly", "source": "clawhub", "stars": 0, "tags": null, "updated_at": 1776695984569, "version": "1.0.0"}, {"category": "communication-collaboration", "created_at": 1773921586145, "description": "Send and receive SMS messages through a self-hosted SMS Gateway running on a USB GSM modem. Use when the user needs to send text messages, check for incoming...", "description_zh": "", "downloads": 92, "homepage": "https://clawhub.ai/mattboston/gsm-sms-gateway", "iconUrl": null, "installs": 5, "name": "SMS Gateway", "ownerName": "mattboston", "score": 92929.29292929293, "slug": "gsm-sms-gateway", "source": "clawhub", "stars": 0, "tags": null, "updated_at": 1776695984486, "version": "0.0.4"}, {"category": "productivity", "created_at": 1773433878827, "description": "Automate daily sign-in and gift code redemption for Brown Dust 2 game. OpenClaw skill for Korean RPG automation.", "description_zh": "", "downloads": 92, "homepage": "https://clawhub.ai/xiaoyiweio/brown-dust-2", "iconUrl": null, "installs": 5, "name": "Brown Dust 2 Automation", "ownerName": "xiaoyiweio", "score": 92929.29292929293, "slug": "brown-dust-2", "source": "clawhub", "stars": 0, "tags": ["automation", "brown-dust-2", "browndust2", "daily", "gaming", "giftcode", "korean-game", "mobile-game", "openclaw", "rpg", "signin"], "updated_at": 1776695984448, "version": "0.2.0"}, {"category": "developer-tools", "created_at": 1773433168996, "description": "Countdown API integration. Manage Countdowns. Use when the user wants to interact with Countdown API data.", "description_zh": "", "downloads": 92, "homepage": "https://clawhub.ai/gora050/countdown-api", "iconUrl": null, "installs": 5, "name": "Countdown Api", "ownerName": "gora050", "score": 92929.29292929293, "slug": "countdown-api", "source": "clawhub", "stars": 0, "tags": null, "updated_at": 1776695984441, "version": "1.0.0"}, {"category": "productivity", "created_at": 1773431951965, "description": "Hansei integration. Manage Organizations, Pipelines, Projects, Users, Filters. Use when the user wants to interact with Hansei data.", "description_zh": "", "downloads": 92, "homepage": "https://clawhub.ai/membranedev/hansei", "iconUrl": null, "installs": 2, "name": "Hansei", "ownerName": "membranedev", "score": 100000, "slug": "hansei", "source": "clawhub", "stars": 0, "tags": null, "updated_at": 1776695984323, "version": "1.0.0"}, {"category": "productivity", "created_at": 1773431461047, "description": "AeroLeads integration. Manage Leads, Persons, Organizations. Use when the user wants to interact with AeroLeads data.", "description_zh": "", "downloads": 92, "homepage": "https://clawhub.ai/membranedev/aeroleads", "iconUrl": null, "installs": 4, "name": "Aeroleads", "ownerName": "membranedev", "score": 100000, "slug": "aeroleads", "source": "clawhub", "stars": 0, "tags": null, "updated_at": 1776695984283, "version": "1.0.0"}, {"category": "content-creation", "created_at": 1773939660284, "description": "Fetch and format Wenxuecity News rankings from https://www.wenxuecity.com/news/, specifically the two 24-hour lists (hot ranking and discussion ranking). Use...", "description_zh": "", "downloads": 92, "homepage": "https://clawhub.ai/tonyguo2010/wenxuecity-news-rankings", "iconUrl": null, "installs": 17, "name": "Wenxuecity News Rankings", "ownerName": "tonyguo2010", "score": 100000, "slug": "wenxuecity-news-rankings", "source": "clawhub", "stars": 0, "tags": null, "updated_at": 1776695984185, "version": "0.1.0"}, {"category": "ai-intelligence", "created_at": 1773927481005, "description": "Create a new Telegram agent in OpenClaw with proper configuration. Use when user wants to create a new Telegram bot agent, including setting up agent workspa...", "description_zh": "", "downloads": 92, "homepage": "https://clawhub.ai/4t-shirt/create-telegram-agent", "iconUrl": null, "installs": 6, "name": "CreateTelegramClawAgent", "ownerName": "4t-shirt", "score": 100000, "slug": "create-telegram-agent", "source": "clawhub", "stars": 0, "tags": null, "updated_at": 1776695984171, "version": "1.0.0"}, {"category": "productivity", "created_at": 1773090316026, "description": "Gate spot trading and account operations skill. Use this skill whenever the user asks to buy/sell crypto, check account value, cancel/amend spot orders, plac...", "description_zh": "", "downloads": 92, "homepage": "https://clawhub.ai/root/gate-exchange-spot", "iconUrl": null, "installs": 5, "name": "Gate Exchange Spot", "ownerName": "root", "score": 100000, "slug": "gate-exchange-spot", "source": "clawhub", "stars": 0, "tags": null, "updated_at": 1776695984140, "version": "0.1.0"}, {"category": "productivity", "created_at": 1773431110986, "description": "Rewardful integration. Manage Affiliates, Products. Use when the user wants to interact with Rewardful data.", "description_zh": "", "downloads": 92, "homepage": "https://clawhub.ai/gora050/rewardful", "iconUrl": null, "installs": 2, "name": "Rewardful", "ownerName": "gora050", "score": 100000, "slug": "rewardful", "source": "clawhub", "stars": 0, "tags": null, "updated_at": 1776695984125, "version": "1.0.0"}, {"category": "productivity", "created_at": 1773931213772, "description": "Harvest integration. Manage Projects, Tasks, Persons, Expenses, Clients. Use when the user wants to interact with Harvest data.", "description_zh": "", "downloads": 92, "homepage": "https://clawhub.ai/gora050/harvest", "iconUrl": null, "installs": 3, "name": "Harvest", "ownerName": "gora050", "score": 100000, "slug": "harvest", "source": "clawhub", "stars": 0, "tags": null, "updated_at": 1776695984095, "version": "1.0.0"}, {"category": "ai-intelligence", "created_at": 1773433523978, "description": "Intelligently recommends optimal AI models based on task requirements. Dynamically reads the user's OpenCLAW configuration and provides context-aware model s...", "description_zh": "", "downloads": 92, "homepage": "https://clawhub.ai/garygou1024/local-config-model-recommender", "iconUrl": null, "installs": 6, "name": "local-config-model-recommender", "ownerName": "garygou1024", "score": 100000, "slug": "local-config-model-recommender", "source": "clawhub", "stars": 0, "tags": null, "updated_at": 1776695984045, "version": "1.0.0"}, {"category": "developer-tools", "created_at": 1773939123297, "description": "Landing - command-line tool for everyday use", "description_zh": "", "downloads": 92, "homepage": "https://clawhub.ai/bytesagain1/landing", "iconUrl": null, "installs": 9, "name": "Landing", "ownerName": "bytesagain1", "score": 100000, "slug": "landing", "source": "clawhub", "stars": 0, "tags": null, "updated_at": 1776695984043, "version": "1.0.2"}, {"category": "data-analysis", "created_at": 1773925024655, "description": "This skill should be used when the user wants to \"optimize resume for job\", \"check ATS score\", \"improve resume bullets\", \"analyze resume gaps\", \"tailor resum...", "description_zh": "", "downloads": 92, "homepage": "https://clawhub.ai/ajitsingh25/placed-resume-optimizer", "iconUrl": null, "installs": 6, "name": "Placed Resume Optimizer", "ownerName": "ajitsingh25", "score": 100000, "slug": "placed-resume-optimizer", "source": "clawhub", "stars": 0, "tags": ["ai", "ats", "exidian", "optimizer", "placed", "resume"], "updated_at": 1776695983993, "version": "1.0.2"}, {"category": "productivity", "created_at": 1773434472325, "description": "Identify large Google Drive files consuming storage quota.", "description_zh": "", "downloads": 92, "homepage": "https://clawhub.ai/googleworkspace-bot/recipe-find-large-files", "iconUrl": null, "installs": 7, "name": "Recipe Find Large Files", "ownerName": "googleworkspace-bot", "score": 100000, "slug": "recipe-find-large-files", "source": "clawhub", "stars": 0, "tags": null, "updated_at": 1776695983931, "version": "1.0.10"}, {"category": "communication-collaboration", "created_at": 1773930882299, "description": "Discourse integration. Manage Forums. Use when the user wants to interact with Discourse data.", "description_zh": "", "downloads": 92, "homepage": "https://clawhub.ai/membranedev/discourse", "iconUrl": null, "installs": 6, "name": "Discourse", "ownerName": "membranedev", "score": 100000, "slug": "discourse", "source": "clawhub", "stars": 0, "tags": null, "updated_at": 1776695983914, "version": "1.0.0"}, {"category": "productivity", "created_at": 1773917721794, "description": "Submit job applications on Greenhouse (job-boards.greenhouse.io). Handles the full flow: fill text fields, set React Select dropdowns, select phone country,...", "description_zh": "", "downloads": 92, "homepage": "https://clawhub.ai/buildingbrien/greenhouse-apply", "iconUrl": null, "installs": 5, "name": "Greenhouse Apply", "ownerName": "buildingbrien", "score": 93877.55102040817, "slug": "greenhouse-apply", "source": "clawhub", "stars": 0, "tags": null, "updated_at": 1776695983774, "version": "1.0.0"}, {"category": "developer-tools", "created_at": 1773930383069, "description": "7x24 automated profit opportunity scanner for AI agents. Scans ClawTasks, Moltbook, Polymarket, Airdrops, GitHub Bounties, and toku.agency for earning opport...", "description_zh": "", "downloads": 92, "homepage": "https://clawhub.ai/dagangtj/ai-profit-engine", "iconUrl": null, "installs": 7, "name": "AI Profit Engine", "ownerName": "dagangtj", "score": 93877.55102040817, "slug": "ai-profit-engine", "source": "clawhub", "stars": 0, "tags": ["agent-economy", "airdrop", "automation", "bounty", "crypto", "earning"], "updated_at": 1776695983761, "version": "1.0.0"}, {"category": "security-compliance", "created_at": 1773434519715, "description": "Perform comprehensive security audits on skills to identify vulnerabilities, unsafe patterns, and compliance issues. Use when auditing skills for security, c...", "description_zh": "", "downloads": 92, "homepage": "https://clawhub.ai/harrylabsj/skill-safety-auditor", "iconUrl": null, "installs": 2, "name": "Skill Safety Auditor", "ownerName": "harrylabsj", "score": 93877.55102040817, "slug": "skill-safety-auditor", "source": "clawhub", "stars": 0, "tags": null, "updated_at": 1776695983718, "version": "1.0.0"}, {"category": "communication-collaboration", "created_at": 1773434896219, "description": "Read content from a Google Doc and use it as the body of a Gmail message.", "description_zh": "", "downloads": 92, "homepage": "https://clawhub.ai/googleworkspace-bot/recipe-draft-email-from-doc", "iconUrl": null, "installs": 7, "name": "Recipe Draft Email From Doc", "ownerName": "googleworkspace-bot", "score": 95833.33333333334, "slug": "recipe-draft-email-from-doc", "source": "clawhub", "stars": 0, "tags": null, "updated_at": 1776695983665, "version": "1.0.10"}, {"category": "data-analysis", "created_at": 1773927444863, "description": "Covalent integration. Manage Organizations, Projects, Pipelines, Users, Goals, Filters. Use when the user wants to interact with Covalent data.", "description_zh": "", "downloads": 92, "homepage": "https://clawhub.ai/gora050/covalent", "iconUrl": null, "installs": 4, "name": "Covalent", "ownerName": "gora050", "score": 95833.33333333334, "slug": "covalent", "source": "clawhub", "stars": 0, "tags": null, "updated_at": 1776695983643, "version": "1.0.0"}, {"category": "security-compliance", "created_at": 1773914395563, "description": "Securely input API keys and sensitive values into OpenClaw without typing them in chat. Uses a local HTTP server + Cloudflare Tunnel to serve an HTTPS form....", "description_zh": "", "downloads": 91, "homepage": "https://clawhub.ai/apsntian/secretclaw", "iconUrl": null, "installs": 1, "name": "SecretClaw", "ownerName": "apsntian", "score": 98496.24060150376, "slug": "secretclaw", "source": "clawhub", "stars": 2, "tags": null, "updated_at": 1776694671186, "version": "1.0.0"}, {"category": "security-compliance", "created_at": 1773917020434, "description": "Develop deposition question sets from Relativity-exported PDF productions using a user-provided legal theory. Use when tasks involve reviewing opponent-produ...", "description_zh": "", "downloads": 91, "homepage": "https://clawhub.ai/chipmunkrpa/deposition-question-skill", "iconUrl": null, "installs": 3, "name": "Deposition Question Development", "ownerName": "chipmunkrpa", "score": 99107.14285714286, "slug": "deposition-question-skill", "source": "clawhub", "stars": 1, "tags": null, "updated_at": 1776695384805, "version": "1.0.0"}, {"category": "", "created_at": 1774885279765, "description": "Creates targeted, high-converting advertising copy with headline, body, CTA, and visual guidance for multi-platform digital marketing campaigns.", "description_zh": "", "downloads": 91, "homepage": "https://clawhub.ai/1970168137/ad-copy", "iconUrl": null, "installs": 3, "name": "Ad Copy", "ownerName": "1970168137", "score": 370.2498169094312, "slug": "ad-copy", "source": "clawhub", "stars": 0, "tags": null, "updated_at": 1776770090522, "version": "1.0.0"}, {"category": "", "created_at": 1774849246740, "description": "Provides TikTok Shop ecommerce teams with tailored content strategies and weekly plans to boost sales through focused video ideas and commerce-driven content...", "description_zh": "", "downloads": 91, "homepage": "https://clawhub.ai/leooooooow/tiktok-shop-growth", "iconUrl": null, "installs": 20, "name": "TikTok Shop Growth", "ownerName": "leooooooow", "score": 22864.3216080402, "slug": "tiktok-shop-growth", "source": "clawhub", "stars": 0, "tags": null, "updated_at": 1776759797931, "version": "1.0.0"}, {"category": "communication-collaboration", "created_at": 1773434997570, "description": "Create a Google Shared Drive and add members with appropriate roles.", "description_zh": "", "downloads": 91, "homepage": "https://clawhub.ai/googleworkspace-bot/recipe-create-shared-drive", "iconUrl": null, "installs": 6, "name": "Recipe Create Shared Drive", "ownerName": "googleworkspace-bot", "score": 16425.992779783395, "slug": "recipe-create-shared-drive", "source": "clawhub", "stars": 0, "tags": null, "updated_at": 1776755588816, "version": "1.0.10"}, {"category": "communication-collaboration", "created_at": 1773433743730, "description": "OtterText integration. Manage Recordses. Use when the user wants to interact with OtterText data.", "description_zh": "", "downloads": 91, "homepage": "https://clawhub.ai/membranedev/ottertext", "iconUrl": null, "installs": 4, "name": "Ottertext", "ownerName": "membranedev", "score": 91919.19191919193, "slug": "ottertext", "source": "clawhub", "stars": 0, "tags": null, "updated_at": 1776743384071, "version": "1.0.0"}, {"category": "data-analysis", "created_at": 1773941517360, "description": "Screen markets across 6 asset classes using TradingView data. API pre-filters + pandas computed signals. YAML-driven strategies.", "description_zh": "", "downloads": 91, "homepage": "https://clawhub.ai/nomadrex/tv-signal-screener", "iconUrl": null, "installs": 14, "name": "TV Signal Screener", "ownerName": "nomadrex", "score": 93814.43298969071, "slug": "tv-signal-screener", "source": "clawhub", "stars": 0, "tags": null, "updated_at": 1776742184112, "version": "1.1.0"}, {"category": "ai-intelligence", "created_at": 1773959554235, "description": "Transform AI agents from task-followers into proactive partners that anticipate needs and continuously improve. Now with WAL Protocol, Working Buffer, Autono...", "description_zh": "", "downloads": 91, "homepage": "https://clawhub.ai/liujiang817/my-proactive-agent", "iconUrl": null, "installs": 30, "name": "My Proactive Agent", "ownerName": "liujiang817", "score": 97849.4623655914, "slug": "my-proactive-agent", "source": "clawhub", "stars": 0, "tags": null, "updated_at": 1776738285124, "version": "1.0.0"}, {"category": "ai-intelligence", "created_at": 1773955811618, "description": "Transform AI agents from task-followers into proactive partners that anticipate needs and continuously improve. Now with WAL Protocol, Working Buffer, Autono...", "description_zh": "", "downloads": 91, "homepage": "https://clawhub.ai/muguozi1/muguozi1-openclaw-proactive-agent", "iconUrl": null, "installs": 22, "name": "Muguozi1 Openclaw Proactive Agent", "ownerName": "muguozi1", "score": 93814.43298969071, "slug": "muguozi1-openclaw-proactive-agent", "source": "clawhub", "stars": 0, "tags": null, "updated_at": 1776738283951, "version": "1.0.0"}, {"category": "productivity", "created_at": 1773929615729, "description": "Review your Google Calendar week, identify gaps, and add events to fill them.", "description_zh": "", "downloads": 91, "homepage": "https://clawhub.ai/googleworkspace-bot/recipe-plan-weekly-schedule", "iconUrl": null, "installs": 8, "name": "Recipe Plan Weekly Schedule", "ownerName": "googleworkspace-bot", "score": 93814.43298969071, "slug": "recipe-plan-weekly-schedule", "source": "clawhub", "stars": 0, "tags": null, "updated_at": 1776737870001, "version": "1.0.0"}, {"category": "developer-tools", "created_at": 1773940857396, "description": "cms reference tool", "description_zh": "", "downloads": 91, "homepage": "https://clawhub.ai/ckchzh/cms", "iconUrl": null, "installs": 8, "name": "Cms", "ownerName": "ckchzh", "score": 93814.43298969071, "slug": "cms", "source": "clawhub", "stars": 0, "tags": null, "updated_at": 1776733783741, "version": "2.0.3"}, {"category": "content-creation", "created_at": 1773948168746, "description": "Use podcast-helper to transcribe podcast audio into original audio, SRT subtitles, and TXT transcripts, then optionally clean the transcript with episode-pag...", "description_zh": "", "downloads": 91, "homepage": "https://clawhub.ai/dairui1/podcast-transcribe", "iconUrl": null, "installs": 2, "name": "Transcribe", "ownerName": "dairui1", "score": 96808.51063829787, "slug": "podcast-transcribe", "source": "clawhub", "stars": 0, "tags": null, "updated_at": 1776722869543, "version": "0.1.3"}, {"category": "data-analysis", "created_at": 1773925165198, "description": "Turn reminiscence, oral-history, or life-review transcripts into clear narrative biography drafts while preserving the speaker's voice, keeping to evidence i...", "description_zh": "", "downloads": 91, "homepage": "https://clawhub.ai/oiioai/story-biographer", "iconUrl": null, "installs": 6, "name": "Story Biographer", "ownerName": "oiioai", "score": 91919.19191919193, "slug": "story-biographer", "source": "clawhub", "stars": 0, "tags": null, "updated_at": 1776709969539, "version": "1.0.0"}, {"category": "security-compliance", "created_at": 1773921566625, "description": "Use when auditing Go code involving goroutine management, channel operations, HTTP request handling, resource allocation, or panic recovery. Covers CWE-400/7...", "description_zh": "", "downloads": 91, "homepage": "https://clawhub.ai/yhy0/go-vuln-dos", "iconUrl": null, "installs": 1, "name": "Go Vuln Dos", "ownerName": "yhy0", "score": 100000, "slug": "go-vuln-dos", "source": "clawhub", "stars": 0, "tags": null, "updated_at": 1776696344650, "version": "0.1.0"}, {"category": "data-analysis", "created_at": 1773434527821, "description": "Query and annotate gene variants from ClinVar and dbSNP databases. Trigger when: - User provides a variant identifier (rsID, HGVS notation, genomic coordinat...", "description_zh": "", "downloads": 91, "homepage": "https://clawhub.ai/ec-cyber258/variant-annotation-2", "iconUrl": null, "installs": 8, "name": "Variant Annotation", "ownerName": "ec-cyber258", "score": 98913.04347826086, "slug": "variant-annotation-2", "source": "clawhub", "stars": 0, "tags": null, "updated_at": 1776695984567, "version": "0.1.0"}, {"category": "communication-collaboration", "created_at": 1773434897986, "description": "Share a Google Drive file and email the link with a message to recipients.", "description_zh": "", "downloads": 91, "homepage": "https://clawhub.ai/googleworkspace-bot/recipe-email-drive-link", "iconUrl": null, "installs": 5, "name": "Recipe Email Drive Link", "ownerName": "googleworkspace-bot", "score": 98913.04347826086, "slug": "recipe-email-drive-link", "source": "clawhub", "stars": 0, "tags": null, "updated_at": 1776695984559, "version": "1.0.10"}, {"category": "data-analysis", "created_at": 1773919679917, "description": "End-to-end cryptocurrency trading copilot for Gate Exchange. Use this skill whenever the user wants one skill to complete market judgment, risk control, and...", "description_zh": "", "downloads": 91, "homepage": "https://clawhub.ai/gate-exchange/gate-exchange-trading-copilot", "iconUrl": null, "installs": 3, "name": "Gate Exchange Trading Copilot", "ownerName": "gate-exchange", "score": 98913.04347826086, "slug": "gate-exchange-trading-copilot", "source": "clawhub", "stars": 0, "tags": null, "updated_at": 1776695984535, "version": "1.0.0"}, {"category": "data-analysis", "created_at": 1773960162660, "description": "Monthly and quarterly budget vs. actual variance analysis for businesses. Compare planned vs. realized revenue, expenses, and margins. Identify favorable/unf...", "description_zh": "", "downloads": 91, "homepage": "https://clawhub.ai/samledger67-dotcom/budget-vs-actual", "iconUrl": null, "installs": 11, "name": "Budget Vs Actual", "ownerName": "samledger67-dotcom", "score": 91919.19191919193, "slug": "budget-vs-actual", "source": "clawhub", "stars": 0, "tags": null, "updated_at": 1776695984489, "version": "98.0.2"}, {"category": "content-creation", "created_at": 1773934194070, "description": "Use this skill when the user wants to inspect, report on, create, update, pause, resume, budget, target, upload assets for, or troubleshoot Meta, Facebook, o...", "description_zh": "", "downloads": 91, "homepage": "https://clawhub.ai/tristanmanchester/meta-ads-control", "iconUrl": null, "installs": 12, "name": "Meta Ads Control", "ownerName": "tristanmanchester", "score": 91919.19191919193, "slug": "meta-ads-control", "source": "clawhub", "stars": 0, "tags": null, "updated_at": 1776695984422, "version": "1.0.0"}, {"category": "ai-intelligence", "created_at": 1773933247198, "description": "Summarize URLs or files with the summarize CLI (web, PDFs, images, audio, YouTube).", "description_zh": "", "downloads": 91, "homepage": "https://clawhub.ai/tranhuilee/skill-ts", "iconUrl": null, "installs": 9, "name": "skill-ts", "ownerName": "tranhuilee", "score": 91919.19191919193, "slug": "skill-ts", "source": "clawhub", "stars": 0, "tags": null, "updated_at": 1776695984416, "version": "1.0.0"}, {"category": "content-creation", "created_at": 1773431043129, "description": "Light kaomoji selector based on context tags.", "description_zh": "", "downloads": 91, "homepage": "https://clawhub.ai/wxuanyuan/kaomoji", "iconUrl": null, "installs": 5, "name": "Kaomoji Manager", "ownerName": "wxuanyuan", "score": 98913.04347826086, "slug": "kaomoji", "source": "clawhub", "stars": 0, "tags": null, "updated_at": 1776695984380, "version": "1.0.0"}, {"category": "developer-tools", "created_at": 1773932382850, "description": "Better Stack integration. Manage Incidents, Users, Teams. Use when the user wants to interact with Better Stack data.", "description_zh": "", "downloads": 91, "homepage": "https://clawhub.ai/membranedev/better-stack", "iconUrl": null, "installs": 9, "name": "Better Stack", "ownerName": "membranedev", "score": 98913.04347826086, "slug": "better-stack", "source": "clawhub", "stars": 0, "tags": null, "updated_at": 1776695984361, "version": "1.0.0"}, {"category": "content-creation", "created_at": 1773938468484, "description": "Cultivate aesthetic judgment through conversation and memory. Build and maintain TASTES.md — the missing layer between SOUL.md and SKILL.md.", "description_zh": "", "downloads": 91, "homepage": "https://clawhub.ai/mingxuanxie/tastes", "iconUrl": null, "installs": 15, "name": "TASTES.md", "ownerName": "mingxuanxie", "score": 98913.04347826086, "slug": "tastes", "source": "clawhub", "stars": 0, "tags": null, "updated_at": 1776695984344, "version": "0.1.0"}, {"category": "developer-tools", "created_at": 1773944357529, "description": "Operate Bitget public exchange market APIs through UXC with a curated OpenAPI schema, market-first discovery, and explicit private-auth boundary notes.", "description_zh": "", "downloads": 91, "homepage": "https://clawhub.ai/jolestar/bitget-openapi-skill", "iconUrl": null, "installs": 7, "name": "Bitget OpenAPI Skill", "ownerName": "jolestar", "score": 98913.04347826086, "slug": "bitget-openapi-skill", "source": "clawhub", "stars": 0, "tags": null, "updated_at": 1776695984330, "version": "1.0.0"}, {"category": "productivity", "created_at": 1773926702767, "description": "Append a deal status update to a Google Sheets sales tracking spreadsheet.", "description_zh": "", "downloads": 91, "homepage": "https://clawhub.ai/googleworkspace-bot/recipe-log-deal-update", "iconUrl": null, "installs": 7, "name": "Recipe Log Deal Update", "ownerName": "googleworkspace-bot", "score": 98913.04347826086, "slug": "recipe-log-deal-update", "source": "clawhub", "stars": 0, "tags": null, "updated_at": 1776695984317, "version": "1.0.10"}, {"category": "developer-tools", "created_at": 1773959150292, "description": "Knowledge base for the 22 ScraperAPI MCP tools. Covers scrape, Google (search, news, jobs, shopping, maps), Amazon (product, search, offers), Walmart (search...", "description_zh": "", "downloads": 91, "homepage": "https://clawhub.ai/scraperapitech/scraperapi-mcp", "iconUrl": null, "installs": 9, "name": "ScraperAPI MCP", "ownerName": "scraperapitech", "score": 98913.04347826086, "slug": "scraperapi-mcp", "source": "clawhub", "stars": 0, "tags": null, "updated_at": 1776695984313, "version": "1.0.0"}, {"category": "productivity", "created_at": 1773913204677, "description": "Lightning Network payments via Archon DIDs - create wallets, send/receive sats, verify payments, Lightning Address zaps", "description_zh": "", "downloads": 91, "homepage": "https://clawhub.ai/macterra/archon-lightning", "iconUrl": null, "installs": 2, "name": "Archon Lightning", "ownerName": "macterra", "score": 98913.04347826086, "slug": "archon-lightning", "source": "clawhub", "stars": 0, "tags": null, "updated_at": 1776695984293, "version": "0.1.0"}, {"category": "communication-collaboration", "created_at": 1773933228079, "description": "Sends international SMS (USMS) via uspeedo platform HTTP API. Use when the user needs to send international SMS, batch SMS, verification/notification/marketi...", "description_zh": "", "downloads": 91, "homepage": "https://clawhub.ai/code-by-ai/send-usms-uspeedo", "iconUrl": null, "installs": 8, "name": "Send Usms Uspeedo", "ownerName": "code-by-ai", "score": 98913.04347826086, "slug": "send-usms-uspeedo", "source": "clawhub", "stars": 0, "tags": null, "updated_at": 1776695984290, "version": "1.0.3"}]}