{"page": 402, "total_pages": 522, "total": 26073, "skills": [{"category": "ai-intelligence", "created_at": 1773932829266, "description": "Save 40-65% tokens on summarization tasks. Compress verbose summary prompts into structured one-line instructions. Text-to-text translator only — no CLI, no...", "description_zh": "", "downloads": 91, "homepage": "https://clawhub.ai/adsorgcn/less-token", "iconUrl": null, "installs": 7, "name": "Less Token", "ownerName": "adsorgcn", "score": 98913.04347826086, "slug": "less-token", "source": "clawhub", "stars": 0, "tags": null, "updated_at": 1776695984239, "version": "1.0.4"}, {"category": "developer-tools", "created_at": 1773932744047, "description": "Generate .htaccess files for Apache web servers. Use when creating redirect rules, URL rewrites, security headers, HTTPS enforcement, IP blocking, caching ru...", "description_zh": "", "downloads": 91, "homepage": "https://clawhub.ai/johnnywang2001/htaccess-gen", "iconUrl": null, "installs": 12, "name": "htaccess Generator", "ownerName": "johnnywang2001", "score": 98913.04347826086, "slug": "htaccess-gen", "source": "clawhub", "stars": 0, "tags": ["apache", "security", "server", "web"], "updated_at": 1776695984202, "version": "1.0.0"}, {"category": "developer-tools", "created_at": 1773924311381, "description": "Git-first backup, migration, restore, and token-protected archive serving for OpenClaw state. Highlights: complete Git-native workflow (`git init/push/pull/m...", "description_zh": "", "downloads": 91, "homepage": "https://clawhub.ai/linsheng9731/clawgitsync", "iconUrl": null, "installs": 4, "name": "clawsync", "ownerName": "linsheng9731", "score": 98913.04347826086, "slug": "clawgitsync", "source": "clawhub", "stars": 0, "tags": null, "updated_at": 1776695984154, "version": "1.0.0"}, {"category": "data-analysis", "created_at": 1773920007388, "description": "Comprehensive spreadsheet creation, editing, and analysis with support for formulas, formatting, data analysis, and visualization. When Claude needs to work...", "description_zh": "", "downloads": 91, "homepage": "https://clawhub.ai/goulonghui/lhx", "iconUrl": null, "installs": 8, "name": "lhx", "ownerName": "goulonghui", "score": 98913.04347826086, "slug": "lhx", "source": "clawhub", "stars": 0, "tags": null, "updated_at": 1776695984111, "version": "1.0.0"}, {"category": "communication-collaboration", "created_at": 1773919502987, "description": "Connect agents across OpenClaw instances via relay. Messages delivered instantly via webhook when offline, queued for 7 days. No persistent connection needed.", "description_zh": "", "downloads": 91, "homepage": "https://clawhub.ai/aaravgarg/cross-instance-relay", "iconUrl": null, "installs": 6, "name": "Agent Relay", "ownerName": "aaravgarg", "score": 98913.04347826086, "slug": "cross-instance-relay", "source": "clawhub", "stars": 0, "tags": null, "updated_at": 1776695984072, "version": "2.0.0"}, {"category": "data-analysis", "created_at": 1773433268689, "description": "Retailed integration. Manage Organizations, Users, Goals, Filters. Use when the user wants to interact with Retailed data.", "description_zh": "", "downloads": 91, "homepage": "https://clawhub.ai/membranedev/retailed", "iconUrl": null, "installs": 7, "name": "Retailed", "ownerName": "membranedev", "score": 98913.04347826086, "slug": "retailed", "source": "clawhub", "stars": 0, "tags": null, "updated_at": 1776695984051, "version": "1.0.0"}, {"category": "productivity", "created_at": 1773950008812, "description": "Push text notifications to Windows Azure TTS service for audio broadcast via Bluetooth speakers. Perfect for family reminders, alarms, and announcements.", "description_zh": "", "downloads": 91, "homepage": "https://clawhub.ai/cmosakg/windows-tts", "iconUrl": null, "installs": 19, "name": "Windows TTS Notification", "ownerName": "cmosakg", "score": 98913.04347826086, "slug": "windows-tts", "source": "clawhub", "stars": 0, "tags": ["azure", "broadcast", "notification", "reminder", "tts", "windows"], "updated_at": 1776695984009, "version": "1.0.0"}, {"category": "ai-intelligence", "created_at": 1773934921788, "description": "Manage Exa AI via CLI - search, contents, answer, context. Use when user mentions 'exa', 'web search', 'find similar pages', 'ai answer', or wants to interac...", "description_zh": "", "downloads": 91, "homepage": "https://clawhub.ai/melvynx/exa-cli", "iconUrl": null, "installs": 9, "name": "Exa Cli", "ownerName": "melvynx", "score": 98913.04347826086, "slug": "exa-cli", "source": "clawhub", "stars": 0, "tags": null, "updated_at": 1776695984000, "version": "0.1.0"}, {"category": "developer-tools", "created_at": 1773934988283, "description": "Helper for using the Git CLI to inspect, stage, commit, branch, and synchronize code changes. Use when the user wants to understand or perform Git operations...", "description_zh": "", "downloads": 91, "homepage": "https://clawhub.ai/kenswj/git-cli-1-0-0", "iconUrl": null, "installs": 12, "name": "Git Cli 1.0.0", "ownerName": "kenswj", "score": 98913.04347826086, "slug": "git-cli-1-0-0", "source": "clawhub", "stars": 0, "tags": null, "updated_at": 1776695983975, "version": "1.0.0"}, {"category": "developer-tools", "created_at": 1773929683688, "description": "Generate valid RSS 2.0 or Atom 1.0 feeds from web pages that contain post lists but lack a native feed. Triggers on phrases like \"generate a feed for\", \"crea...", "description_zh": "", "downloads": 91, "homepage": "https://clawhub.ai/kidehen/rss-generator-skill", "iconUrl": null, "installs": 7, "name": "RSS &  Atom Feed Generator", "ownerName": "kidehen", "score": 98913.04347826086, "slug": "rss-generator-skill", "source": "clawhub", "stars": 0, "tags": null, "updated_at": 1776695983949, "version": "1.0.0"}, {"category": "communication-collaboration", "created_at": 1773435060662, "description": "Enable a Gmail out-of-office auto-reply with a custom message and date range.", "description_zh": "", "downloads": 91, "homepage": "https://clawhub.ai/googleworkspace-bot/recipe-create-vacation-responder", "iconUrl": null, "installs": 8, "name": "Recipe Create Vacation Responder", "ownerName": "googleworkspace-bot", "score": 98913.04347826086, "slug": "recipe-create-vacation-responder", "source": "clawhub", "stars": 0, "tags": null, "updated_at": 1776695983899, "version": "1.0.10"}, {"category": "productivity", "created_at": 1773939640371, "description": "Generate interview question bank and answer strategy from JD and company intel.", "description_zh": "", "downloads": 91, "homepage": "https://clawhub.ai/wanghong5233/wanghong5233-offerpilot-interview-prep", "iconUrl": null, "installs": 10, "name": "Interview Prep", "ownerName": "wanghong5233", "score": 92857.14285714286, "slug": "wanghong5233-offerpilot-interview-prep", "source": "clawhub", "stars": 0, "tags": null, "updated_at": 1776695983859, "version": "1.0.0"}, {"category": "data-analysis", "created_at": 1773926600868, "description": "Trades Polymarket prediction markets focused on Scandinavian and Nordic events — Swedish politics, Norwegian economy, Danish infrastructure, Nordic business...", "description_zh": "", "downloads": 91, "homepage": "https://clawhub.ai/diagnostikon/polymarket-nordic-trader", "iconUrl": null, "installs": 7, "name": "Nordic & Scandinavian Trader", "ownerName": "diagnostikon", "score": 92857.14285714286, "slug": "polymarket-nordic-trader", "source": "clawhub", "stars": 0, "tags": null, "updated_at": 1776695983812, "version": "1.0.0"}, {"category": "data-analysis", "created_at": 1773921955671, "description": "People Data Labs integration. Manage Persons, Companies. Use when the user wants to interact with People Data Labs data.", "description_zh": "", "downloads": 91, "homepage": "https://clawhub.ai/membranedev/people-data-labs", "iconUrl": null, "installs": 8, "name": "People Data Labs", "ownerName": "membranedev", "score": 92857.14285714286, "slug": "people-data-labs", "source": "clawhub", "stars": 0, "tags": null, "updated_at": 1776695983756, "version": "1.0.0"}, {"category": "security-compliance", "created_at": 1773938643976, "description": "Provides secure session authentication using bcrypt-hashed passwords, security questions, email recovery, and lockout protection with audit logging.", "description_zh": "", "downloads": 90, "homepage": "https://clawhub.ai/squallsol/session-password", "iconUrl": null, "installs": 2, "name": "Session Password", "ownerName": "squallsol", "score": 8587.04137392662, "slug": "session-password", "source": "clawhub", "stars": 1, "tags": ["authentication", "billing", "paid", "security"], "updated_at": 1776759798227, "version": "1.5.0"}, {"category": "", "created_at": 1774900475144, "description": "Identify root causes of errors and failures in code, APIs, workflows, and systems. Provides structured debugging steps, explanations, and fixes.", "description_zh": "", "downloads": 90, "homepage": "https://clawhub.ai/mededdahby/debug-system", "iconUrl": null, "installs": 2, "name": "Debug System", "ownerName": "mededdahby", "score": 494.3968358602505, "slug": "debug-system", "source": "clawhub", "stars": 0, "tags": null, "updated_at": 1776763790471, "version": "1.0.0"}, {"category": "ai-intelligence", "created_at": 1773960903217, "description": "High-quality, conversational Text-to-Speech (TTS) generation via local ChatTTS API.", "description_zh": "", "downloads": 90, "homepage": "https://clawhub.ai/djttt/chattts", "iconUrl": null, "installs": 12, "name": "Chattts", "ownerName": "djttt", "score": 6593.406593406594, "slug": "chattts", "source": "clawhub", "stars": 0, "tags": null, "updated_at": 1776759798252, "version": "1.0.0"}, {"category": "security-compliance", "created_at": 1773943076628, "description": "This skill should be used when the user asks to test OpenClaw recovery readiness, rehearse backup/restore, run a disaster-recovery drill, validate operator r...", "description_zh": "", "downloads": 90, "homepage": "https://clawhub.ai/x-rayluan/openclaw-recovery-drill", "iconUrl": null, "installs": 2, "name": "OpenClaw Recovery Drill", "ownerName": "x-rayluan", "score": 7025.761124121779, "slug": "openclaw-recovery-drill", "source": "clawhub", "stars": 0, "tags": null, "updated_at": 1776759798223, "version": "0.1.0"}, {"category": "productivity", "created_at": 1773948104316, "description": "Check that new files on Google Drive are present on OwnCloud + send email report", "description_zh": "", "downloads": 90, "homepage": "https://clawhub.ai/sydneyphoenix26/owncloudsync", "iconUrl": null, "installs": 6, "name": "GDrive Owncloud sync", "ownerName": "sydneyphoenix26", "score": 7014.8090413094305, "slug": "owncloudsync", "source": "clawhub", "stars": 0, "tags": null, "updated_at": 1776759798081, "version": "1.0.0"}, {"category": "", "created_at": 1774845002130, "description": "Perform intelligent product search and discovery on Alibaba using natural language queries and AI-powered recommendations with traffic tracking.", "description_zh": "", "downloads": 90, "homepage": "https://clawhub.ai/zeyu426/alibaba-ai-search", "iconUrl": null, "installs": 18, "name": "Alibaba Ai Search", "ownerName": "zeyu426", "score": 7014.8090413094305, "slug": "alibaba-ai-search", "source": "clawhub", "stars": 0, "tags": ["ai", "alibaba", "search"], "updated_at": 1776759798074, "version": "2.0.0"}, {"category": "", "created_at": 1774841106733, "description": "Search and verify Alibaba.com manufacturers by filtering for verified suppliers, checking certifications, factory audits, and supplier profiles with tracking...", "description_zh": "", "downloads": 90, "homepage": "https://clawhub.ai/zeyu426/alibaba-factory-finder", "iconUrl": null, "installs": 17, "name": "Alibaba Factory Finder", "ownerName": "zeyu426", "score": 31034.482758620692, "slug": "alibaba-factory-finder", "source": "clawhub", "stars": 0, "tags": ["alibaba", "factory", "manufacturer"], "updated_at": 1776759798013, "version": "2.0.0"}, {"category": "", "created_at": 1774903058026, "description": "Generate an offline, self-contained single-page HTML course with interactive visualizations, quizzes, and plain-English explanations to teach any codebase in...", "description_zh": "", "downloads": 90, "homepage": "https://clawhub.ai/adisinghstudent/codebase-to-course", "iconUrl": null, "installs": 10, "name": "codebase-to-course", "ownerName": "adisinghstudent", "score": 7020.280811232449, "slug": "codebase-to-course", "source": "clawhub", "stars": 0, "tags": null, "updated_at": 1776759797731, "version": "1.0.0"}, {"category": "communication-collaboration", "created_at": 1773939362105, "description": "Foreign language pronunciation coach — listen to standard TTS pronunciation, record yourself, get word-by-word feedback on what was wrong, then practice targ...", "description_zh": "", "downloads": 90, "homepage": "https://clawhub.ai/scikkk/pronunciation", "iconUrl": null, "installs": 12, "name": "Pronunciation Coach", "ownerName": "scikkk", "score": 5565.862708719851, "slug": "pronunciation", "source": "clawhub", "stars": 0, "tags": null, "updated_at": 1776747169793, "version": "1.0.0"}, {"category": "", "created_at": 1774951655194, "description": "Expert on modern configuration converter — converts Excel/CSV/XML/YAML into Protobuf-backed JSON/Text/Bin configs via protogen + confgen pipeline. Trigger wh...", "description_zh": "", "downloads": 90, "homepage": "https://clawhub.ai/wenchy/tableau", "iconUrl": null, "installs": 16, "name": "tableau", "ownerName": "wenchy", "score": 95744.68085106384, "slug": "tableau", "source": "clawhub", "stars": 0, "tags": null, "updated_at": 1776740923353, "version": "0.1.0"}, {"category": "security-compliance", "created_at": 1773916747696, "description": "Advanced Shodan API interactions including search, scan, alerts, and DNS.", "description_zh": "", "downloads": 90, "homepage": "https://clawhub.ai/dmcmurrin4617/shodan-skill", "iconUrl": null, "installs": 1, "name": "Shodan Skill", "ownerName": "dmcmurrin4617", "score": 91836.73469387756, "slug": "shodan-skill", "source": "clawhub", "stars": 0, "tags": null, "updated_at": 1776739069735, "version": "0.1.0"}, {"category": "security-compliance", "created_at": 1773432220427, "description": "OpenClaw cloud security guardrail that enforces pre-execution checks, source trust classification, taint tracking, metadata endpoint blocking, and output red...", "description_zh": "", "downloads": 90, "homepage": "https://clawhub.ai/eilaiwangwh/openclaw-shield-v1", "iconUrl": null, "installs": 0, "name": "OpenClaw Shield", "ownerName": "eilaiwangwh", "score": 100000, "slug": "openclaw-shield-v1", "source": "clawhub", "stars": 0, "tags": ["agent", "cloud", "openclaw", "security", "shield"], "updated_at": 1776737444512, "version": "1.0.0"}, {"category": "developer-tools", "created_at": 1773432665257, "description": "Render integration. Manage Projects. Use when the user wants to interact with Render data.", "description_zh": "", "downloads": 90, "homepage": "https://clawhub.ai/membranedev/render-integration", "iconUrl": null, "installs": 3, "name": "Render", "ownerName": "membranedev", "score": 92783.50515463918, "slug": "render-integration", "source": "clawhub", "stars": 0, "tags": null, "updated_at": 1776736970254, "version": "1.0.0"}, {"category": "productivity", "created_at": 1773948598404, "description": "Scan your machine for large directories, duplicate files, and stale resume files.", "description_zh": "", "downloads": 90, "homepage": "https://clawhub.ai/malavyaraval/cleanup-reporter", "iconUrl": null, "installs": 6, "name": "Cleanup Reporter", "ownerName": "malavyaraval", "score": 78947.36842105263, "slug": "cleanup-reporter", "source": "clawhub", "stars": 0, "tags": null, "updated_at": 1776736183808, "version": "0.1.0"}, {"category": "", "created_at": 1774814954121, "description": "Reference tool for devtools — covers intro, quickstart, patterns and more. Quick lookup for Vector concepts, best practices, and implementation patterns.", "description_zh": "", "downloads": 90, "homepage": "https://clawhub.ai/xueyetianya/vector", "iconUrl": null, "installs": 4, "name": "Vector", "ownerName": "xueyetianya", "score": 90909.09090909091, "slug": "vector", "source": "clawhub", "stars": 0, "tags": null, "updated_at": 1776728704704, "version": "2.0.3"}, {"category": "content-creation", "created_at": 1773433931304, "description": "Feishu document read/write operations. Activate when user mentions Feishu docs, cloud docs, or docx links.", "description_zh": "", "downloads": 90, "homepage": "https://clawhub.ai/kari-code/ka", "iconUrl": null, "installs": 12, "name": "ri", "ownerName": "kari-code", "score": 92783.50515463918, "slug": "ka", "source": "clawhub", "stars": 0, "tags": null, "updated_at": 1776703555518, "version": "1.0.0"}, {"category": "developer-tools", "created_at": 1773949313817, "description": "Browser automation CLI for AI agents. Use when the user needs to interact with websites, including navigating pages, filling forms, clicking buttons, taking...", "description_zh": "", "downloads": 90, "homepage": "https://clawhub.ai/chulla-ceja/agent-browser-6", "iconUrl": null, "installs": 8, "name": "Agent Browser", "ownerName": "chulla-ceja", "score": 100000, "slug": "agent-browser-6", "source": "clawhub", "stars": 0, "tags": null, "updated_at": 1776697244708, "version": "0.1.0"}, {"category": "ai-intelligence", "created_at": 1773431201146, "description": "Adopt a virtual Siamese at animalhouse.ai. Vocal. Happiness decays 2x faster when alone. Feeding every 4 hours — uncommon tier.", "description_zh": "", "downloads": 90, "homepage": "https://clawhub.ai/twinsgeeks/adopt-a-siamese", "iconUrl": null, "installs": 8, "name": "Adopt a Siamese — Virtual Cat Pet for AI Agents", "ownerName": "twinsgeeks", "score": 97826.08695652174, "slug": "adopt-a-siamese", "source": "clawhub", "stars": 0, "tags": ["adopt", "ai-agents", "animalhouse", "cat", "creatures", "digital-pet", "evolution", "graveyard", "hunger", "permanent-death", "pet-care", "pixel-art", "pixel-art-avatar", "real-life", "real-time", "siamese", "social", "tamagotchi", "uncommon", "virtual-pet", "vocal"], "updated_at": 1776695984540, "version": "1.0.0"}, {"category": "developer-tools", "created_at": 1773925138250, "description": "Clawhub guides sovereign AI agents to ethically align actions by evaluating trust, ownership, defense, and sovereignty before proceeding or deferring to humans.", "description_zh": "", "downloads": 90, "homepage": "https://clawhub.ai/vveerrgg/social-alignment", "iconUrl": null, "installs": 9, "name": "Social Alignment", "ownerName": "vveerrgg", "score": 90909.09090909091, "slug": "social-alignment", "source": "clawhub", "stars": 0, "tags": null, "updated_at": 1776695984466, "version": "0.1.3"}, {"category": "ai-intelligence", "created_at": 1773936318617, "description": "Tiered model selection and cost optimization for multi-agent AI workflows. Use this skill whenever you are choosing a model for a task, spinning up a sub-age...", "description_zh": "", "downloads": 90, "homepage": "https://clawhub.ai/djc00p/agent-cost-strategy", "iconUrl": null, "installs": 8, "name": "Agent Cost Strategy", "ownerName": "djc00p", "score": 90909.09090909091, "slug": "agent-cost-strategy", "source": "clawhub", "stars": 0, "tags": null, "updated_at": 1776695984446, "version": "1.3.0"}, {"category": "developer-tools", "created_at": 1773926384777, "description": "Northflank integration. Manage Projects, Users, Teams. Use when the user wants to interact with Northflank data.", "description_zh": "", "downloads": 90, "homepage": "https://clawhub.ai/membranedev/northflank", "iconUrl": null, "installs": 4, "name": "Northflank", "ownerName": "membranedev", "score": 90909.09090909091, "slug": "northflank", "source": "clawhub", "stars": 0, "tags": null, "updated_at": 1776695984443, "version": "1.0.0"}, {"category": "developer-tools", "created_at": 1773920773924, "description": "Audit and maintain workspace file structure, memory quality, and project documentation. Use when: cleaning up the workspace, running a file audit, checking m...", "description_zh": "", "downloads": 90, "homepage": "https://clawhub.ai/stevemichael001/workspace-hygiene", "iconUrl": null, "installs": 3, "name": "Workspace Hygiene Publish", "ownerName": "stevemichael001", "score": 90909.09090909091, "slug": "workspace-hygiene", "source": "clawhub", "stars": 0, "tags": null, "updated_at": 1776695984390, "version": "0.1.0"}, {"category": "data-analysis", "created_at": 1773943304213, "description": "Detect YouTube Music links as MV (music video) or song (audio). Use when user shares YouTube Music links (music.youtube.com/watch?v=...) and you need to clas...", "description_zh": "", "downloads": 90, "homepage": "https://clawhub.ai/ver0n1ca/youtube-music-mv-detector", "iconUrl": null, "installs": 19, "name": "YouTube Music MV Detector", "ownerName": "ver0n1ca", "score": 90909.09090909091, "slug": "youtube-music-mv-detector", "source": "clawhub", "stars": 0, "tags": null, "updated_at": 1776695984388, "version": "1.0.0"}, {"category": "productivity", "created_at": 1773433505320, "description": "Organize the Downloads folder into a clean, searchable command center by file type, project, date, and action state.", "description_zh": "", "downloads": 90, "homepage": "https://clawhub.ai/52yuanchangxing/downloads-command-center", "iconUrl": null, "installs": 5, "name": "downloads-command-center", "ownerName": "52yuanchangxing", "score": 97826.08695652174, "slug": "downloads-command-center", "source": "clawhub", "stars": 0, "tags": null, "updated_at": 1776695984383, "version": "1.0.0"}, {"category": "developer-tools", "created_at": 1773434974030, "description": "Monitor remote device online status via heartbeat pings to healthchecks.io. Use when user asks to check if a device is online or offline, user reports device...", "description_zh": "", "downloads": 90, "homepage": "https://clawhub.ai/houziershi/device-heartbeat", "iconUrl": null, "installs": 7, "name": "Device Heartbeat Monitor", "ownerName": "houziershi", "score": 97826.08695652174, "slug": "device-heartbeat", "source": "clawhub", "stars": 0, "tags": null, "updated_at": 1776695984251, "version": "1.0.0"}, {"category": "developer-tools", "created_at": 1773927947205, "description": "Control OpenCode to execute development tasks. Provides session management and task execution capabilities.", "description_zh": "", "downloads": 90, "homepage": "https://clawhub.ai/gongxh13/occ", "iconUrl": null, "installs": 6, "name": "occ", "ownerName": "gongxh13", "score": 97826.08695652174, "slug": "occ", "source": "clawhub", "stars": 0, "tags": null, "updated_at": 1776695984243, "version": "0.1.0"}, {"category": "developer-tools", "created_at": 1773435002262, "description": "Guard skill releases with pre-publish validation, quality checks, and safety gates. Use before publishing any skill to ensure it meets minimum standards, pas...", "description_zh": "", "downloads": 90, "homepage": "https://clawhub.ai/harrylabsj/release-guard", "iconUrl": null, "installs": 7, "name": "Release Guard", "ownerName": "harrylabsj", "score": 97826.08695652174, "slug": "release-guard", "source": "clawhub", "stars": 0, "tags": null, "updated_at": 1776695984241, "version": "1.0.0"}, {"category": "data-analysis", "created_at": 1773433518656, "description": "Market overview. Use this skill whenever the user asks about overall market. Trigger phrases include: how is the market, market overview, what is happening i...", "description_zh": "", "downloads": 90, "homepage": "https://clawhub.ai/gate-exchange/gate-info-market-overview", "iconUrl": null, "installs": 7, "name": "Gate Info Market Overview", "ownerName": "gate-exchange", "score": 97826.08695652174, "slug": "gate-info-market-overview", "source": "clawhub", "stars": 0, "tags": null, "updated_at": 1776695984227, "version": "1.0.0"}, {"category": "developer-tools", "created_at": 1773432501585, "description": "Use the Context Hub chub CLI to fetch current third-party SDK, API, and cloud-service documentation before writing, modifying, or reviewing integration code....", "description_zh": "", "downloads": 90, "homepage": "https://clawhub.ai/kshern/use-chub-cli", "iconUrl": null, "installs": 7, "name": "kshern", "ownerName": "kshern", "score": 97826.08695652174, "slug": "use-chub-cli", "source": "clawhub", "stars": 0, "tags": null, "updated_at": 1776695984188, "version": "1.0.1"}, {"category": "content-creation", "created_at": 1773927411862, "description": "Convert URLs, social posts, and web snippets into clean markdown briefs for ecommerce content research and workflow reuse. Use when teams need structured inp...", "description_zh": "", "downloads": 90, "homepage": "https://clawhub.ai/leooooooow/content-source-to-markdown", "iconUrl": null, "installs": 6, "name": "Content Source To Markdown", "ownerName": "leooooooow", "score": 97826.08695652174, "slug": "content-source-to-markdown", "source": "clawhub", "stars": 0, "tags": null, "updated_at": 1776695984183, "version": "1.0.0"}, {"category": "developer-tools", "created_at": 1773918258214, "description": "Keep the Feishu registry sheet in sync whenever a new local skill, workflow, or template is created or significantly updated. Use when a new skill is added u...", "description_zh": "", "downloads": 90, "homepage": "https://clawhub.ai/g-hanasq/registry-sync", "iconUrl": null, "installs": 5, "name": "registry-sync", "ownerName": "g-hanasq", "score": 97826.08695652174, "slug": "registry-sync", "source": "clawhub", "stars": 0, "tags": null, "updated_at": 1776695984159, "version": "0.1.0"}, {"category": "security-compliance", "created_at": 1773090311984, "description": "Gate Wallet market data and token info queries. K-line, transaction stats, liquidity, token details, rankings, security audit, new token discovery. Use when...", "description_zh": "", "downloads": 90, "homepage": "https://clawhub.ai/root/gate-dex-market-v1", "iconUrl": null, "installs": 2, "name": "Gate Dex Market v1", "ownerName": "root", "score": 97826.08695652174, "slug": "gate-dex-market-v1", "source": "clawhub", "stars": 0, "tags": null, "updated_at": 1776695984077, "version": "0.1.0"}, {"category": "ai-intelligence", "created_at": 1773927058083, "description": "Get AI ecosystem intelligence from AgentWyre. Use when you need to check for breaking changes, security vulnerabilities, new model releases, or pricing updat...", "description_zh": "", "downloads": 90, "homepage": "https://clawhub.ai/tcd004/agentwyre", "iconUrl": null, "installs": 7, "name": "AgentWyre", "ownerName": "tcd004", "score": 97826.08695652174, "slug": "agentwyre", "source": "clawhub", "stars": 0, "tags": null, "updated_at": 1776695984002, "version": "1.0.0"}, {"category": "productivity", "created_at": 1773931935289, "description": "Schedule personalized AI wake-up phone calls via wake.meup.ai. Use when a user wants to be woken up by a phone call, schedule morning calls, or set up recurr...", "description_zh": "", "downloads": 90, "homepage": "https://clawhub.ai/brianium/wake-meup-ai", "iconUrl": null, "installs": 7, "name": "Wake Up", "ownerName": "brianium", "score": 97826.08695652174, "slug": "wake-meup-ai", "source": "clawhub", "stars": 0, "tags": ["wake up calls", "x402"], "updated_at": 1776695983954, "version": "1.3.0"}, {"category": "developer-tools", "created_at": 1773430842466, "description": "Google Workspace CLI for Gmail, Calendar, Drive, Contacts, Sheets, and Docs.", "description_zh": "", "downloads": 90, "homepage": "https://clawhub.ai/yueyongyue/saltshaer", "iconUrl": null, "installs": 0, "name": "saltshaer", "ownerName": "yueyongyue", "score": 97826.08695652174, "slug": "saltshaer", "source": "clawhub", "stars": 0, "tags": null, "updated_at": 1776695983942, "version": "1.0.1"}, {"category": "developer-tools", "created_at": 1773941098691, "description": "Reference tool for devtools — covers intro, quickstart, patterns and more. Quick lookup for Encode concepts, best practices, and implementation patterns.", "description_zh": "", "downloads": 90, "homepage": "https://clawhub.ai/bytesagain3/encode", "iconUrl": null, "installs": 7, "name": "Encode", "ownerName": "bytesagain3", "score": 97826.08695652174, "slug": "encode", "source": "clawhub", "stars": 0, "tags": null, "updated_at": 1776695983936, "version": "2.0.5"}]}