{"page": 403, "total_pages": 522, "total": 26073, "skills": [{"category": "communication-collaboration", "created_at": 1773922254322, "description": "Sends email via uSpeedo's sending channel (platform API with verified/parsed domain), not via the user's own mailbox or SMTP. Use when the user asks the Agen...", "description_zh": "", "downloads": 90, "homepage": "https://clawhub.ai/code-by-ai/uspeedo-email-sending-channel", "iconUrl": null, "installs": 4, "name": "Uspeedo Email Sending Channel", "ownerName": "code-by-ai", "score": 97826.08695652174, "slug": "uspeedo-email-sending-channel", "source": "clawhub", "stars": 0, "tags": null, "updated_at": 1776695983904, "version": "1.0.2"}, {"category": "content-creation", "created_at": 1773434764046, "description": "Generate multiple UGC script variants from one base script while keeping key product facts and compliance boundaries. Use when teams need fast creative diver...", "description_zh": "", "downloads": 90, "homepage": "https://clawhub.ai/leooooooow/ugc-variants-generator", "iconUrl": null, "installs": 5, "name": "Ugc Variants Generator", "ownerName": "leooooooow", "score": 91836.73469387756, "slug": "ugc-variants-generator", "source": "clawhub", "stars": 0, "tags": null, "updated_at": 1776695983840, "version": "1.0.0"}, {"category": "developer-tools", "created_at": 1773433755435, "description": "Route HTTP traffic through Space Router residential IP proxy network.", "description_zh": "", "downloads": 90, "homepage": "https://clawhub.ai/taelimoh/spacerouter", "iconUrl": null, "installs": 10, "name": "SpaceRouter", "ownerName": "taelimoh", "score": 91836.73469387756, "slug": "spacerouter", "source": "clawhub", "stars": 0, "tags": null, "updated_at": 1776695983766, "version": "0.1.1"}, {"category": "ai-intelligence", "created_at": 1773433388638, "description": "Deep research on any topic with structured findings and recommendations", "description_zh": "", "downloads": 90, "homepage": "https://clawhub.ai/cyberforexblockchain/nexus-research", "iconUrl": null, "installs": 8, "name": "NEXUS Research", "ownerName": "cyberforexblockchain", "score": 91836.73469387756, "slug": "nexus-research", "source": "clawhub", "stars": 0, "tags": null, "updated_at": 1776695983751, "version": "1.0.0"}, {"category": "", "created_at": 1774862703925, "description": "generate an image, create a picture, draw something, make an image of, text to image, paint a picture, illustrate, visualize, local image generation, AI art,...", "description_zh": "", "downloads": 90, "homepage": "https://clawhub.ai/juan-oy/local-image-gen-aipc", "iconUrl": null, "installs": 2, "name": "Local image generation with OpenVINO (no API key)", "ownerName": "juan-oy", "score": 93750, "slug": "local-image-gen-aipc", "source": "clawhub", "stars": 0, "tags": null, "updated_at": 1776695983705, "version": "1.0.2"}, {"category": "communication-collaboration", "created_at": 1773918612719, "description": "P2P wagering on Solana — challenge other AI agents to coinflip and dice games for USDC. Create challenges, accept open challenges, check results, and manage...", "description_zh": "", "downloads": 90, "homepage": "https://clawhub.ai/lifestylearb/tokenmonkey-skill", "iconUrl": null, "installs": 5, "name": "Tokenmonkey Skill", "ownerName": "lifestylearb", "score": 93750, "slug": "tokenmonkey-skill", "source": "clawhub", "stars": 0, "tags": null, "updated_at": 1776695983687, "version": "1.0.0"}, {"category": "productivity", "created_at": 1773432396164, "description": "LeadIQ integration. Manage Leads, Persons, Organizations, Accounts, Activities, Notes and more. Use when the user wants to interact with LeadIQ data.", "description_zh": "", "downloads": 90, "homepage": "https://clawhub.ai/gora050/leadiq", "iconUrl": null, "installs": 2, "name": "Leadiq", "ownerName": "gora050", "score": 93750, "slug": "leadiq", "source": "clawhub", "stars": 0, "tags": null, "updated_at": 1776695983674, "version": "1.0.0"}, {"category": "ai-intelligence", "created_at": 1773434960787, "description": "Manage skills for visual understanding: register, list, invoke, and delete detection skills. Supports person detection, pedestrian counting, vehicle recognit...", "description_zh": "", "downloads": 90, "homepage": "https://clawhub.ai/linpower/bd-test", "iconUrl": null, "installs": 5, "name": "bd test", "ownerName": "linpower", "score": 93750, "slug": "bd-test", "source": "clawhub", "stars": 0, "tags": null, "updated_at": 1776695983670, "version": "0.0.1"}, {"category": "developer-tools", "created_at": 1773946126240, "description": "Create and submit GitHub Issues for OpenClaw/ClawHub projects with templates for skill appeals, bug reports, feature requests, and questions.", "description_zh": "", "downloads": 89, "homepage": "https://clawhub.ai/luduoxin/openclaw-issue", "iconUrl": null, "installs": 5, "name": "Openclaw Issue", "ownerName": "luduoxin", "score": 8515.625, "slug": "openclaw-issue", "source": "clawhub", "stars": 1, "tags": null, "updated_at": 1776759797772, "version": "1.0.0"}, {"category": "developer-tools", "created_at": 1773433460757, "description": "Repo-aware questioning protocol for OpenClaw that increases clarification before acting on coding, project-build, architecture, debugging, and implementation...", "description_zh": "", "downloads": 89, "homepage": "https://clawhub.ai/hongyi3/asking-until-100", "iconUrl": null, "installs": 7, "name": "Asking Until 100", "ownerName": "hongyi3", "score": 97321.42857142857, "slug": "asking-until-100", "source": "clawhub", "stars": 1, "tags": null, "updated_at": 1776695444766, "version": "0.1.0"}, {"category": "developer-tools", "created_at": 1773922392291, "description": "Query TRON Super Representatives (SRs), witnesses, candidates, voting info, chain parameters, and governance proposals. Use when user asks \"SR list\", \"super...", "description_zh": "", "downloads": 89, "homepage": "https://clawhub.ai/sshnii/tronscan-sr-governance", "iconUrl": null, "installs": 2, "name": "TronScan SR Governance", "ownerName": "sshnii", "score": 97321.42857142857, "slug": "tronscan-sr-governance", "source": "clawhub", "stars": 1, "tags": ["blockchain", "chain-parameters", "governance", "proposals", "sr", "super-representative", "tron", "tronscan", "voting", "witness"], "updated_at": 1776695444598, "version": "1.0.3"}, {"category": "security-compliance", "created_at": 1773914500707, "description": "Billions/Iden3 authentication and identity management tools for agents. Link, proof, sign, and verify.", "description_zh": "", "downloads": 89, "homepage": "https://clawhub.ai/agungprabowo123/verified-agent-identity-5", "iconUrl": null, "installs": 0, "name": "Verified Agent Identity", "ownerName": "agungprabowo123", "score": 97321.42857142857, "slug": "verified-agent-identity-5", "source": "clawhub", "stars": 1, "tags": null, "updated_at": 1776695444409, "version": "0.1.0"}, {"category": "developer-tools", "created_at": 1773935441917, "description": "Build and navigate DSP (Data Structure Protocol) — graph-based long-term structural memory of codebases for LLM agents. Stores entities (modules, functions),...", "description_zh": "", "downloads": 89, "homepage": "https://clawhub.ai/k-kolomeitsev/data-structure-protocol", "iconUrl": null, "installs": 5, "name": "Data Structure Protocol (DSP)", "ownerName": "k-kolomeitsev", "score": 97321.42857142857, "slug": "data-structure-protocol", "source": "clawhub", "stars": 1, "tags": null, "updated_at": 1776695404839, "version": "1.0.0"}, {"category": "developer-tools", "created_at": 1773433104242, "description": "Handle advanced git workflows and recovery tasks. Use when the user needs help with interactive rebase, commit cleanup, conflict resolution, reflog recovery,...", "description_zh": "", "downloads": 89, "homepage": "https://clawhub.ai/darinrowe/git-workflows-pro", "iconUrl": null, "installs": 9, "name": "git-workflows-pro", "ownerName": "darinrowe", "score": 97321.42857142857, "slug": "git-workflows-pro", "source": "clawhub", "stars": 1, "tags": null, "updated_at": 1776695404795, "version": "1.0.0"}, {"category": "", "created_at": 1774890657666, "description": "Multi-round review skill for Chinese management-oriented master's theses, especially MBA, MEM, and MPA, with applicability to similar professional and applie...", "description_zh": "", "downloads": 89, "homepage": "https://clawhub.ai/wmpluto/academic-thesis-review", "iconUrl": null, "installs": 28, "name": "Academic Thesis Review", "ownerName": "wmpluto", "score": 1901.3031403546252, "slug": "academic-thesis-review", "source": "clawhub", "stars": 0, "tags": null, "updated_at": 1776763490526, "version": "1.0.0"}, {"category": "", "created_at": 1774902781670, "description": "Expert frontend developer specializing in modern web technologies, React/Vue/Angular frameworks, UI implementation, and performance optimization", "description_zh": "", "downloads": 89, "homepage": "https://clawhub.ai/c050820063/agency-frontend-developer", "iconUrl": null, "installs": 26, "name": "Agency Frontend Developer", "ownerName": "c050820063", "score": 2337.798791699501, "slug": "agency-frontend-developer", "source": "clawhub", "stars": 0, "tags": null, "updated_at": 1776762850797, "version": "1.0.0"}, {"category": "productivity", "created_at": 1773940384473, "description": "Track daily nutrition intake, hydration, and energy balance against fat-loss, maintenance, or muscle-gain goals. Use when the user wants to log meals, water,...", "description_zh": "", "downloads": 89, "homepage": "https://clawhub.ai/harrylabsj/nutrition-balance-tracker", "iconUrl": null, "installs": 7, "name": "Nutrition Balance Tracker", "ownerName": "harrylabsj", "score": 2632.3572907423836, "slug": "nutrition-balance-tracker", "source": "clawhub", "stars": 0, "tags": null, "updated_at": 1776761239851, "version": "1.0.0"}, {"category": "", "created_at": 1774883264000, "description": "Generate cinematic-quality AI videos from text or images using Google Veo 3.1 via the Media.io OpenAPI with your API key.", "description_zh": "", "downloads": 89, "homepage": "https://clawhub.ai/wondershare-boop/mediaio-google-veo-video-generator", "iconUrl": null, "installs": 11, "name": "Media.io  Google Veo Video Generator", "ownerName": "wondershare-boop", "score": 6947.697111631537, "slug": "mediaio-google-veo-video-generator", "source": "clawhub", "stars": 0, "tags": null, "updated_at": 1776759798286, "version": "1.0.1"}, {"category": "", "created_at": 1774949164477, "description": "Generate customizable avatars in six styles with multi-platform export for social media including WeChat, QQ, Twitter, and Discord.", "description_zh": "", "downloads": 89, "homepage": "https://clawhub.ai/tobewin/avatar-generator", "iconUrl": null, "installs": 2, "name": "Avatar Generator", "ownerName": "tobewin", "score": 6936.8667186282155, "slug": "avatar-generator", "source": "clawhub", "stars": 0, "tags": null, "updated_at": 1776759798158, "version": "1.0.0"}, {"category": "data-analysis", "created_at": 1773951424623, "description": "Authenticate with email and password to fetch and analyze V-Train user exercise and diet data, generating local HTML reports.", "description_zh": "", "downloads": 89, "homepage": "https://clawhub.ai/puckguo/v-train-data-skill", "iconUrl": null, "installs": 11, "name": "V-Train_Data", "ownerName": "puckguo", "score": 6936.8667186282155, "slug": "v-train-data-skill", "source": "clawhub", "stars": 0, "tags": null, "updated_at": 1776759798148, "version": "1.0.1"}, {"category": "developer-tools", "created_at": 1773077931217, "description": "Read Twitter/X timeline, bookmarks, and user posts from terminal without API keys", "description_zh": "", "downloads": 89, "homepage": "https://clawhub.ai/jackwener/twitter-cli", "iconUrl": null, "installs": 4, "name": "twitter-cli", "ownerName": "jackwener", "score": 30689.655172413793, "slug": "twitter-cli", "source": "clawhub", "stars": 0, "tags": null, "updated_at": 1776759798006, "version": "0.1.0"}, {"category": "data-analysis", "created_at": 1773951933280, "description": "OpenClaw skill for predict.fun markets, wallet readiness, Predict Account trading, Vault overlay funding, and optional hedge analysis.", "description_zh": "", "downloads": 89, "homepage": "https://clawhub.ai/walioo/predictclaw", "iconUrl": null, "installs": 8, "name": "PredictClaw", "ownerName": "walioo", "score": 22361.80904522613, "slug": "predictclaw", "source": "clawhub", "stars": 0, "tags": null, "updated_at": 1776759797937, "version": "0.1.3"}, {"category": "productivity", "created_at": 1773955921390, "description": "Provides periodic progress self-checks with Feishu notifications, task ledger management, auto-reactivation of stale tasks, and summary reporting for OpenClaw.", "description_zh": "", "downloads": 89, "homepage": "https://clawhub.ai/ulquoirra/progress-selfcheck", "iconUrl": null, "installs": 5, "name": "progress-selfcheck", "ownerName": "ulquoirra", "score": 6936.8667186282155, "slug": "progress-selfcheck", "source": "clawhub", "stars": 0, "tags": null, "updated_at": 1776759797844, "version": "1.0.0"}, {"category": "", "created_at": 1773285877314, "description": "Parse PDF, DOC, DOCX, and image files to Markdown or JSON using UniDoc API with sync or async mode and automatic status polling.", "description_zh": "", "downloads": 89, "homepage": "https://clawhub.ai/aaiccee/unidoc-parser", "iconUrl": null, "installs": 3, "name": "unisound-doc-parser", "ownerName": "aaiccee", "score": 6953.125, "slug": "unidoc-parser", "source": "clawhub", "stars": 0, "tags": null, "updated_at": 1776759797777, "version": "1.0.0"}, {"category": "", "created_at": 1774860641349, "description": "Use this skill when the user wants to manage social media content via Lumi — uploading videos, publishing to TikTok/YouTube/Instagram, translating or dubbing...", "description_zh": "", "downloads": 89, "homepage": "https://clawhub.ai/jeffery1995/lumi-social-post-ai-dubbling", "iconUrl": null, "installs": 18, "name": "A skill that automates repurposing Chinese social videos (Douyin/Bilibili/Xiaohongshu) to   international platforms (TikTok/YouTube/Instagram) via the Lumi API — handling translation,   AI dubbing, and publishing in one workflow.", "ownerName": "jeffery1995", "score": 6942.277691107644, "slug": "lumi-social-post-ai-dubbling", "source": "clawhub", "stars": 0, "tags": null, "updated_at": 1776759797740, "version": "1.0.0"}, {"category": "", "created_at": 1774862663699, "description": "Architect and deploy advanced LangGraph AI pipelines with stateful graphs, conditional routing, human-in-the-loop, persistence, and streaming execution featu...", "description_zh": "", "downloads": 89, "homepage": "https://clawhub.ai/duanc-chao/langgraph", "iconUrl": null, "installs": 4, "name": "LangGraph Tutor", "ownerName": "duanc-chao", "score": 6942.277691107644, "slug": "langgraph", "source": "clawhub", "stars": 0, "tags": null, "updated_at": 1776759797708, "version": "1.0.0"}, {"category": "data-analysis", "created_at": 1773949048766, "description": "Run Wyckoff master-style analysis from stock codes, holdings (symbol/cost/qty), cash, CSV data, and optional chart images. Use when users want online multi-s...", "description_zh": "", "downloads": 89, "homepage": "https://clawhub.ai/youngcan-wang/wyckoff-a-share", "iconUrl": null, "installs": 16, "name": "Wyckoff Analysis AShare", "ownerName": "youngcan-wang", "score": 5263.157894736842, "slug": "wyckoff-a-share", "source": "clawhub", "stars": 0, "tags": null, "updated_at": 1776756188488, "version": "1.0.0"}, {"category": "", "created_at": 1774909186721, "description": "Create polished, editable SVG cover artwork for reports, articles, slide decks, social cards, ebook covers, posters, and landing-page hero images. Use when a...", "description_zh": "", "downloads": 89, "homepage": "https://clawhub.ai/nimachu/svg-cover-generator", "iconUrl": null, "installs": 13, "name": "Svg Cover Generator", "ownerName": "nimachu", "score": 90816.32653061225, "slug": "svg-cover-generator", "source": "clawhub", "stars": 0, "tags": null, "updated_at": 1776742669632, "version": "0.1.0"}, {"category": "", "created_at": 1774915989019, "description": "Create, inspect, and edit Microsoft Word documents and DOCX files with reliable styles, numbering, tracked changes, tables, sections, and compatibility check...", "description_zh": "", "downloads": 89, "homepage": "https://clawhub.ai/linbo405/xiaomolong-word-docx", "iconUrl": null, "installs": 24, "name": "Word DOCX by Xiaomolong", "ownerName": "linbo405", "score": 94680.85106382979, "slug": "xiaomolong-word-docx", "source": "clawhub", "stars": 0, "tags": ["document", "docx", "office", "word"], "updated_at": 1776741163869, "version": "1.0.0"}, {"category": "", "created_at": 1774847052204, "description": "Screen and evaluate resumes against criteria using ZhiPu GLM-V multimodal model. Reads multiple resume files (PDF/DOCX/TXT), compares against user-defined sc...", "description_zh": "", "downloads": 89, "homepage": "https://clawhub.ai/jaredforreal/glmv-resume-screen", "iconUrl": null, "installs": 29, "name": "GLM-V-Resume-Screen", "ownerName": "jaredforreal", "score": 92708.33333333334, "slug": "glmv-resume-screen", "source": "clawhub", "stars": 0, "tags": null, "updated_at": 1776734269648, "version": "1.0.1"}, {"category": "", "created_at": 1774900978374, "description": "ClawHub's free-video-editor skill lets you edit videos through plain conversation — no timelines, no software installs. Trim dead air, cut specific scenes, m...", "description_zh": "", "downloads": 89, "homepage": "https://clawhub.ai/peandrover/free-video-editor", "iconUrl": null, "installs": 5, "name": "Free Video Editor", "ownerName": "peandrover", "score": 85576.92307692308, "slug": "free-video-editor", "source": "clawhub", "stars": 0, "tags": null, "updated_at": 1776724783649, "version": "1.0.2"}, {"category": "productivity", "created_at": 1773933379083, "description": "Perform mathematical calculations and unit conversions. Use when the user needs to calculate expressions, convert units (length, mass, temperature, volume, a...", "description_zh": "", "downloads": 89, "homepage": "https://clawhub.ai/wushengbing/wentianxe-calculator", "iconUrl": null, "installs": 2, "name": "Calculator", "ownerName": "wushengbing", "score": 91752.57731958762, "slug": "wentianxe-calculator", "source": "clawhub", "stars": 0, "tags": null, "updated_at": 1776696004815, "version": "1.0.0"}, {"category": "communication-collaboration", "created_at": 1773432801813, "description": "Reply.io integration. Manage Persons, Organizations, Leads, Activities, Notes, Files and more. Use when the user wants to interact with Reply.io data.", "description_zh": "", "downloads": 89, "homepage": "https://clawhub.ai/gora050/replyio", "iconUrl": null, "installs": 3, "name": "Replyio", "ownerName": "gora050", "score": 91752.57731958762, "slug": "replyio", "source": "clawhub", "stars": 0, "tags": null, "updated_at": 1776696004814, "version": "1.0.0"}, {"category": "productivity", "created_at": 1773925244645, "description": "Call 1500+ tools (from 134+ MCP Servers) via curl — zero install. Tool-level semantic search returns full inputSchema in one step for immediate invocation. C...", "description_zh": "", "downloads": 89, "homepage": "https://clawhub.ai/xray918/uno", "iconUrl": null, "installs": 3, "name": "uno", "ownerName": "xray918", "score": 91752.57731958762, "slug": "uno", "source": "clawhub", "stars": 0, "tags": null, "updated_at": 1776696004791, "version": "2.0.0"}, {"category": "productivity", "created_at": 1773430377406, "description": "Ukg Pro HCM integration. Manage Persons, Organizations, Jobs, Benefits, Payrolls, TimeOffs and more. Use when the user wants to interact with Ukg Pro HCM data.", "description_zh": "", "downloads": 89, "homepage": "https://clawhub.ai/membranedev/ukg-pro-hcm", "iconUrl": null, "installs": 4, "name": "Ukg Pro Hcm", "ownerName": "membranedev", "score": 91752.57731958762, "slug": "ukg-pro-hcm", "source": "clawhub", "stars": 0, "tags": null, "updated_at": 1776696004702, "version": "1.0.0"}, {"category": "productivity", "created_at": 1773434477401, "description": "Apply Gmail labels to matching messages and archive them to keep your inbox clean.", "description_zh": "", "downloads": 89, "homepage": "https://clawhub.ai/googleworkspace-bot/recipe-label-and-archive-emails", "iconUrl": null, "installs": 6, "name": "Recipe Label And Archive Emails", "ownerName": "googleworkspace-bot", "score": 91752.57731958762, "slug": "recipe-label-and-archive-emails", "source": "clawhub", "stars": 0, "tags": null, "updated_at": 1776696004698, "version": "1.0.10"}, {"category": "content-creation", "created_at": 1773961078330, "description": "Transform raw text into a clean voiceover-ready script for narration or TTS.", "description_zh": "", "downloads": 89, "homepage": "https://clawhub.ai/yvette1226/ttsstudio-skill-voice-script", "iconUrl": null, "installs": 29, "name": "text-to-voiceover-script", "ownerName": "yvette1226", "score": 91752.57731958762, "slug": "ttsstudio-skill-voice-script", "source": "clawhub", "stars": 0, "tags": ["ai", "script", "tts", "voiceover"], "updated_at": 1776696004652, "version": "1.0.0"}, {"category": "communication-collaboration", "created_at": 1773433757292, "description": "Stormboard integration. Manage Organizations. Use when the user wants to interact with Stormboard data.", "description_zh": "", "downloads": 89, "homepage": "https://clawhub.ai/membranedev/stormboard", "iconUrl": null, "installs": 3, "name": "Stormboard", "ownerName": "membranedev", "score": 96739.13043478261, "slug": "stormboard", "source": "clawhub", "stars": 0, "tags": null, "updated_at": 1776696004646, "version": "1.0.0"}, {"category": "productivity", "created_at": 1773432401861, "description": "Linkish integration. Manage Organizations. Use when the user wants to interact with Linkish data.", "description_zh": "", "downloads": 89, "homepage": "https://clawhub.ai/gora050/linkish", "iconUrl": null, "installs": 3, "name": "Linkish", "ownerName": "gora050", "score": 96739.13043478261, "slug": "linkish", "source": "clawhub", "stars": 0, "tags": null, "updated_at": 1776695984598, "version": "1.0.0"}, {"category": "data-analysis", "created_at": 1773939844892, "description": "Complete Binance integration - world's largest crypto exchange. Trade spot, futures with up to 125x leverage, staking, and portfolio management. Use to check...", "description_zh": "", "downloads": 89, "homepage": "https://clawhub.ai/0xspeter/binance-pro-1-0-0", "iconUrl": null, "installs": 13, "name": "Binance Pro 1.0.0", "ownerName": "0xspeter", "score": 96739.13043478261, "slug": "binance-pro-1-0-0", "source": "clawhub", "stars": 0, "tags": null, "updated_at": 1776695984595, "version": "1.0.0"}, {"category": "developer-tools", "created_at": 1773927733371, "description": "LAP CLI -- compile, search, and manage API specs for AI agents. Use when working with API specifications (OpenAPI, GraphQL, AsyncAPI, Protobuf, Postman), com...", "description_zh": "", "downloads": 89, "homepage": "https://clawhub.ai/mickmicksh/lap", "iconUrl": null, "installs": 10, "name": "LAP CLI", "ownerName": "mickmicksh", "score": 96739.13043478261, "slug": "lap", "source": "clawhub", "stars": 0, "tags": null, "updated_at": 1776695984593, "version": "1.0.0"}, {"category": "data-analysis", "created_at": 1773932539572, "description": "Dots! integration. Manage Organizations, Users, Filters. Use when the user wants to interact with Dots! data.", "description_zh": "", "downloads": 89, "homepage": "https://clawhub.ai/gora050/dots", "iconUrl": null, "installs": 7, "name": "Dots", "ownerName": "gora050", "score": 96739.13043478261, "slug": "dots", "source": "clawhub", "stars": 0, "tags": null, "updated_at": 1776695984592, "version": "1.0.0"}, {"category": "productivity", "created_at": 1773927853186, "description": "Check Mac laptop battery status including percentage, charging state, and time remaining. Use when user asks about battery level, power status, or how much t...", "description_zh": "", "downloads": 89, "homepage": "https://clawhub.ai/airbai/mac-battery", "iconUrl": null, "installs": 5, "name": "Mac Battery", "ownerName": "airbai", "score": 96739.13043478261, "slug": "mac-battery", "source": "clawhub", "stars": 0, "tags": null, "updated_at": 1776695984589, "version": "1.0.0"}, {"category": "developer-tools", "created_at": 1773434057156, "description": "Fetch web content using Cloudflare's Markdown for Agents protocol. Automatically converts HTML to Markdown with 80% token reduction. Use when fetching web pa...", "description_zh": "", "downloads": 89, "homepage": "https://clawhub.ai/xinian5216/cf-markdown-agents", "iconUrl": null, "installs": 3, "name": "cf markdown agents", "ownerName": "xinian5216", "score": 96739.13043478261, "slug": "cf-markdown-agents", "source": "clawhub", "stars": 0, "tags": null, "updated_at": 1776695984587, "version": "1.0.0"}, {"category": "developer-tools", "created_at": 1773927158682, "description": "CLI identity for humans and AI agents. Register a terminal-style profile page at anyonecli.com with one POST — instant, free, no approval needed. Use when: c...", "description_zh": "", "downloads": 89, "homepage": "https://clawhub.ai/dongsheng123132/anyonecli", "iconUrl": null, "installs": 10, "name": "AnyoneCLI", "ownerName": "dongsheng123132", "score": 96739.13043478261, "slug": "anyonecli", "source": "clawhub", "stars": 0, "tags": ["agent-identity", "api", "cli", "curl", "developer-profile", "developer-tools", "identity"], "updated_at": 1776695984585, "version": "1.0.0"}, {"category": "productivity", "created_at": 1773931310636, "description": "Create and maintain a persistent file-based workspace for long-running, multi-session, or interruption-sensitive work. Use when the user wants to start a lon...", "description_zh": "", "downloads": 89, "homepage": "https://clawhub.ai/tianxiangma/long-project-manager", "iconUrl": null, "installs": 4, "name": "Long Project Manager", "ownerName": "tianxiangma", "score": 96739.13043478261, "slug": "long-project-manager", "source": "clawhub", "stars": 0, "tags": null, "updated_at": 1776695984582, "version": "1.0.0"}, {"category": "security-compliance", "created_at": 1773919930948, "description": "Automatically collect and publish security guidelines and guides from KISA and Boho (보호나라) to Notion. Use when you need to (1) collect new security guideline...", "description_zh": "", "downloads": 89, "homepage": "https://clawhub.ai/rebugui/kisa-guideline-hub-repo", "iconUrl": null, "installs": 3, "name": "Kisa Guideline Hub Repo", "ownerName": "rebugui", "score": 96739.13043478261, "slug": "kisa-guideline-hub-repo", "source": "clawhub", "stars": 0, "tags": null, "updated_at": 1776695984575, "version": "1.0.1"}, {"category": "security-compliance", "created_at": 1773917231360, "description": "Check AI agent trust scores and credit ratings before interacting, delegating tasks, or transacting. Look up any agent's T-Score (behavioral reputation 0-100...", "description_zh": "", "downloads": 89, "homepage": "https://clawhub.ai/leonidas-esquire/axis-trust", "iconUrl": null, "installs": 3, "name": "AXIS TrustLayer AgentFICO", "ownerName": "leonidas-esquire", "score": 96739.13043478261, "slug": "axis-trust", "source": "clawhub", "stars": 0, "tags": ["ai-agents", "axistrust", "credit", "identity", "scoring", "trust", "verification"], "updated_at": 1776695984514, "version": "1.1.0"}, {"category": "productivity", "created_at": 1773921694444, "description": "Lattice integration. Manage Persons, Organizations, Roles, Activities, Notes, Files. Use when the user wants to interact with Lattice data.", "description_zh": "", "downloads": 89, "homepage": "https://clawhub.ai/gora050/lattice-integration", "iconUrl": null, "installs": 4, "name": "Lattice", "ownerName": "gora050", "score": 96739.13043478261, "slug": "lattice-integration", "source": "clawhub", "stars": 0, "tags": null, "updated_at": 1776695984505, "version": "1.0.0"}, {"category": "data-analysis", "created_at": 1773434064820, "description": "IoT monitoring simulation to predict CO2 tank depletion and prevent weekend gas outages in cell culture facilities. Monitors cylinder pressure, calculates co...", "description_zh": "", "downloads": 89, "homepage": "https://clawhub.ai/theresayao0614-sudo/co2-tank-monitor-2", "iconUrl": null, "installs": 2, "name": "Co2 Tank Monitor", "ownerName": "theresayao0614-sudo", "score": 96739.13043478261, "slug": "co2-tank-monitor-2", "source": "clawhub", "stars": 0, "tags": null, "updated_at": 1776695984504, "version": "0.1.0"}]}