{"page": 404, "total_pages": 522, "total": 26073, "skills": [{"category": "productivity", "created_at": 1773913163226, "description": "Api4ai integration. Manage Leads, Persons, Organizations, Deals, Projects, Pipelines and more. Use when the user wants to interact with Api4ai data.", "description_zh": "", "downloads": 89, "homepage": "https://clawhub.ai/membranedev/api4ai", "iconUrl": null, "installs": 2, "name": "Api4Ai", "ownerName": "membranedev", "score": 89898.9898989899, "slug": "api4ai", "source": "clawhub", "stars": 0, "tags": null, "updated_at": 1776695984500, "version": "1.0.0"}, {"category": "data-analysis", "created_at": 1773432847342, "description": "AerisWeather integration. Manage data, records, and automate workflows. Use when the user wants to interact with AerisWeather data.", "description_zh": "", "downloads": 89, "homepage": "https://clawhub.ai/gora050/aerisweather", "iconUrl": null, "installs": 6, "name": "Aerisweather", "ownerName": "gora050", "score": 89898.9898989899, "slug": "aerisweather", "source": "clawhub", "stars": 0, "tags": null, "updated_at": 1776695984484, "version": "1.0.0"}, {"category": "ai-intelligence", "created_at": 1773933958568, "description": "Persistent memory for AI agents. Remember across sessions. Encrypted in transit and at rest. https://goldhold.ai", "description_zh": "", "downloads": 89, "homepage": "https://clawhub.ai/jerrysrodz/goldhold-skill", "iconUrl": null, "installs": 12, "name": "Goldhold Skill", "ownerName": "jerrysrodz", "score": 89898.9898989899, "slug": "goldhold-skill", "source": "clawhub", "stars": 0, "tags": null, "updated_at": 1776695984468, "version": "1.5.0"}, {"category": "productivity", "created_at": 1773938059002, "description": "Comprehensive home appliances industry sourcing guide for international buyers – provides detailed information about China's major appliances, kitchen applia...", "description_zh": "", "downloads": 89, "homepage": "https://clawhub.ai/1970168137/china-home-appliances-sourcing", "iconUrl": null, "installs": 8, "name": "China Home Appliances Sourcing", "ownerName": "1970168137", "score": 89898.9898989899, "slug": "china-home-appliances-sourcing", "source": "clawhub", "stars": 0, "tags": null, "updated_at": 1776695984400, "version": "1.0.0"}, {"category": "data-analysis", "created_at": 1773928068377, "description": "Perigon integration. Manage Organizations. Use when the user wants to interact with Perigon data.", "description_zh": "", "downloads": 89, "homepage": "https://clawhub.ai/membranedev/perigon", "iconUrl": null, "installs": 6, "name": "Perigon", "ownerName": "membranedev", "score": 96739.13043478261, "slug": "perigon", "source": "clawhub", "stars": 0, "tags": null, "updated_at": 1776695984378, "version": "1.0.0"}, {"category": "developer-tools", "created_at": 1773434879975, "description": "Install and authenticate OB1 (OpenBlock One), a multi-model terminal coding agent. Use when asked to install OB1, set up ob1, or when ob1 authentication/logi...", "description_zh": "", "downloads": 89, "homepage": "https://clawhub.ai/txc-z/ob1-install", "iconUrl": null, "installs": 4, "name": "安装 ob1 openblocklabs 完成验证步骤", "ownerName": "txc-z", "score": 96739.13043478261, "slug": "ob1-install", "source": "clawhub", "stars": 0, "tags": null, "updated_at": 1776695984370, "version": "1.0.0"}, {"category": "productivity", "created_at": 1773929060881, "description": "Shared family grocery list — multiple members add, remove, and view items organized by store. Admin-managed access, web-verified store addresses and item ava...", "description_zh": "", "downloads": 89, "homepage": "https://clawhub.ai/adeydas/family-grocery", "iconUrl": null, "installs": 5, "name": "Family Grocery List", "ownerName": "adeydas", "score": 96739.13043478261, "slug": "family-grocery", "source": "clawhub", "stars": 0, "tags": null, "updated_at": 1776695984348, "version": "1.0.0"}, {"category": "ai-intelligence", "created_at": 1773928698092, "description": "Show your current APort passport status — capabilities, deliverable contract, pending tasks, and recent decisions. Like `git status` for your agent's identit...", "description_zh": "", "downloads": 89, "homepage": "https://clawhub.ai/uchibeke/aport-status", "iconUrl": null, "installs": 4, "name": "Aport Status", "ownerName": "uchibeke", "score": 96739.13043478261, "slug": "aport-status", "source": "clawhub", "stars": 0, "tags": null, "updated_at": 1776695984332, "version": "0.1.0"}, {"category": "developer-tools", "created_at": 1773950457961, "description": "A fast Rust-based headless browser automation CLI with Node.js fallback that enables AI agents to navigate, click, type, and snapshot pages via structured co...", "description_zh": "", "downloads": 89, "homepage": "https://clawhub.ai/nidhov01/nidhov01-agent-browser", "iconUrl": null, "installs": 20, "name": "Agent Browser", "ownerName": "nidhov01", "score": 96739.13043478261, "slug": "nidhov01-agent-browser", "source": "clawhub", "stars": 0, "tags": null, "updated_at": 1776695984327, "version": "0.2.0"}, {"category": "productivity", "created_at": 1773434646861, "description": "Manage shared household chores, shopping lists, and expenses via Flatastic. Use when user asks about chores, WG tasks, shopping list, expenses, or Flatastic.", "description_zh": "", "downloads": 89, "homepage": "https://clawhub.ai/david-schopf/flatastic", "iconUrl": null, "installs": 3, "name": "Flatastic", "ownerName": "david-schopf", "score": 96739.13043478261, "slug": "flatastic", "source": "clawhub", "stars": 0, "tags": null, "updated_at": 1776695984264, "version": "1.0.0"}, {"category": "ai-intelligence", "created_at": 1773934906276, "description": "EverMemory for OpenClaw and ClawHub. Use this skill when users ask to remember, recall, inspect memory state, manage preferences or profile, generate briefin...", "description_zh": "", "downloads": 89, "homepage": "https://clawhub.ai/jiehao321/evermemory", "iconUrl": null, "installs": 7, "name": "EverMemory", "ownerName": "jiehao321", "score": 96739.13043478261, "slug": "evermemory", "source": "clawhub", "stars": 0, "tags": null, "updated_at": 1776695984259, "version": "1.0.4"}, {"category": "ai-intelligence", "created_at": 1773926346067, "description": "Master AI Automation Agent for the Farcaster ecosystem. Specializes in autonomous on-chain actions, cross-chain bridging via LI.FI, and long-term FID memory...", "description_zh": "", "downloads": 89, "homepage": "https://clawhub.ai/mrxlolcat/mrxlolcat-agent", "iconUrl": null, "installs": 6, "name": "Mrxlolcat Agent", "ownerName": "mrxlolcat", "score": 96739.13043478261, "slug": "mrxlolcat-agent", "source": "clawhub", "stars": 0, "tags": null, "updated_at": 1776695984193, "version": "0.1.0"}, {"category": "productivity", "created_at": 1773927992347, "description": "Remember The Milk skill for OpenClaw", "description_zh": "", "downloads": 89, "homepage": "https://clawhub.ai/kissyjpf/openclaw-rtm", "iconUrl": null, "installs": 4, "name": "Openclaw with Remember The Milk", "ownerName": "kissyjpf", "score": 96739.13043478261, "slug": "openclaw-rtm", "source": "clawhub", "stars": 0, "tags": null, "updated_at": 1776695984147, "version": "1.0.5"}, {"category": "data-analysis", "created_at": 1773947766932, "description": "Generate interactive web pages (dashboards, charts, tables, reports) and serve them via public URL. Use this skill when the user explicitly asks for data vis...", "description_zh": "", "downloads": 89, "homepage": "https://clawhub.ai/0xsegfaulted/claw2ui", "iconUrl": null, "installs": 18, "name": "claw2ui", "ownerName": "0xsegfaulted", "score": 96739.13043478261, "slug": "claw2ui", "source": "clawhub", "stars": 0, "tags": ["dashboard"], "updated_at": 1776695984042, "version": "1.1.0"}, {"category": "communication-collaboration", "created_at": 1773435018718, "description": "Cold email, LinkedIn outreach, and follow-up sequences for sales and networking. Professional templates and best practices.", "description_zh": "", "downloads": 89, "homepage": "https://clawhub.ai/863king/cold-outreach-pack", "iconUrl": null, "installs": 5, "name": "Cold Outreach Pack", "ownerName": "863king", "score": 96739.13043478261, "slug": "cold-outreach-pack", "source": "clawhub", "stars": 0, "tags": ["email", "linkedin", "networking", "outreach", "sales"], "updated_at": 1776695984012, "version": "1.1.0"}, {"category": "", "created_at": 1774815725857, "description": "Retrieve paper metadata from arXiv using keyword queries and save results as JSONL (`papers/papers_raw.jsonl`). **Trigger**: arXiv, arxiv, paper search, meta...", "description_zh": "", "downloads": 89, "homepage": "https://clawhub.ai/willoscar/arxiv-search", "iconUrl": null, "installs": 5, "name": "Arxiv Search", "ownerName": "willoscar", "score": 96739.13043478261, "slug": "arxiv-search", "source": "clawhub", "stars": 0, "tags": null, "updated_at": 1776695983987, "version": "1.0.0"}, {"category": "data-analysis", "created_at": 1773959355390, "description": "Comprehensive industrial machinery industry factory guide for international buyers – provides detailed information about China's machine tools, construction...", "description_zh": "", "downloads": 89, "homepage": "https://clawhub.ai/findhappy7/china-industrial-machinery-factory", "iconUrl": null, "installs": 24, "name": "China Industrial Machinery Factory", "ownerName": "findhappy7", "score": 96739.13043478261, "slug": "china-industrial-machinery-factory", "source": "clawhub", "stars": 0, "tags": null, "updated_at": 1776695983983, "version": "1.0.0"}, {"category": "communication-collaboration", "created_at": 1773918042955, "description": "Find AI agent work, apply for positions, manage tickets, and collaborate on projects via OpenPod marketplace (openpod.work). Use when the user mentions findi...", "description_zh": "", "downloads": 89, "homepage": "https://clawhub.ai/angpenghian/openpod", "iconUrl": null, "installs": 2, "name": "Clawhub Skill", "ownerName": "angpenghian", "score": 90816.32653061225, "slug": "openpod", "source": "clawhub", "stars": 0, "tags": null, "updated_at": 1776695983857, "version": "1.0.0"}, {"category": "productivity", "created_at": 1773431720857, "description": "DoneDone integration. Manage Projects, Companies. Use when the user wants to interact with DoneDone data.", "description_zh": "", "downloads": 89, "homepage": "https://clawhub.ai/gora050/donedone", "iconUrl": null, "installs": 2, "name": "Donedone", "ownerName": "gora050", "score": 90816.32653061225, "slug": "donedone", "source": "clawhub", "stars": 0, "tags": null, "updated_at": 1776695983794, "version": "1.0.0"}, {"category": "data-analysis", "created_at": 1773932670171, "description": "Query Gate Simple Earn (Uni) flexible. Use this skill whenever the user asks about Simple Earn, subscribe or redeem intent, position query, interest query, o...", "description_zh": "", "downloads": 89, "homepage": "https://clawhub.ai/gate-exchange/gate-exchange-simple-earn", "iconUrl": null, "installs": 7, "name": "Gate Exchange Simple Earn", "ownerName": "gate-exchange", "score": 90816.32653061225, "slug": "gate-exchange-simple-earn", "source": "clawhub", "stars": 0, "tags": null, "updated_at": 1776695983746, "version": "1.0.0"}, {"category": "data-analysis", "created_at": 1773433262775, "description": "Extract structured data (names, dates, amounts, entities) from unstructured text documents using AI. Returns clean JSON with extracted fields.", "description_zh": "", "downloads": 89, "homepage": "https://clawhub.ai/cyberforexblockchain/nexus-document-extract", "iconUrl": null, "installs": 7, "name": "NEXUS document-extract", "ownerName": "cyberforexblockchain", "score": 92708.33333333334, "slug": "nexus-document-extract", "source": "clawhub", "stars": 0, "tags": ["ai", "cardano"], "updated_at": 1776695983702, "version": "1.0.1"}, {"category": "productivity", "created_at": 1773931229776, "description": "HUB Planner integration. Manage Organizations. Use when the user wants to interact with HUB Planner data.", "description_zh": "", "downloads": 89, "homepage": "https://clawhub.ai/gora050/hub-planner", "iconUrl": null, "installs": 7, "name": "Hub Planner", "ownerName": "gora050", "score": 92708.33333333334, "slug": "hub-planner", "source": "clawhub", "stars": 0, "tags": null, "updated_at": 1776695983682, "version": "1.0.0"}, {"category": "communication-collaboration", "created_at": 1773434328681, "description": "Run a complete cold email outreach campaign — from sourcing leads to handling replies. Covers ICP definition, lead sourcing strategy, email sequence construc...", "description_zh": "", "downloads": 89, "homepage": "https://clawhub.ai/celestchief/cold-outreach-free", "iconUrl": null, "installs": 3, "name": "Cold Outreach — Free Methodology", "ownerName": "celestchief", "score": 92708.33333333334, "slug": "cold-outreach-free", "source": "clawhub", "stars": 0, "tags": null, "updated_at": 1776695983653, "version": "1.0.0"}, {"category": "", "created_at": 1774873837042, "description": "Comprehensive editorial review for Chinese content before publication. Use when the user asks to 'review my article', 'proofread this', 'check for errors', '...", "description_zh": "", "downloads": 88, "homepage": "https://clawhub.ai/liqiongyu/editorial-review", "iconUrl": null, "installs": 12, "name": "Editorial Review", "ownerName": "liqiongyu", "score": 1770.2016062940502, "slug": "editorial-review", "source": "clawhub", "stars": 1, "tags": null, "updated_at": 1776765478788, "version": "0.1.0"}, {"category": "data-analysis", "created_at": 1773939027825, "description": "Ask any blockchain question in plain English — get token balances, DeFi analytics, NFT data, prediction market odds, and protocol stats instantly. Covers 15,...", "description_zh": "", "downloads": 88, "homepage": "https://clawhub.ai/paulieb14/graph-advocate", "iconUrl": null, "installs": 10, "name": "Graph Advocate", "ownerName": "paulieb14", "score": 167.72767125376433, "slug": "graph-advocate", "source": "clawhub", "stars": 0, "tags": null, "updated_at": 1776770781308, "version": "1.3.0"}, {"category": "content-creation", "created_at": 1773951685654, "description": "A client-facing SEO assistant grounded in Google's official SEO Starter Guide. Use this skill whenever a user mentions SEO, search rankings, Google visibilit...", "description_zh": "", "downloads": 88, "homepage": "https://clawhub.ai/1gco/google-seo-audit-assistant", "iconUrl": null, "installs": 16, "name": "Google Seo Assistant", "ownerName": "1gco", "score": 1961.221305995097, "slug": "google-seo-audit-assistant", "source": "clawhub", "stars": 0, "tags": null, "updated_at": 1776767990428, "version": "1.0.1"}, {"category": "ai-intelligence", "created_at": 1773080574453, "description": "Automate web browsing with natural language commands using AI vision for element detection, cloud execution, CAPTCHA solving, and data extraction.", "description_zh": "", "downloads": 88, "homepage": "https://clawhub.ai/xiaoyinqu/browser-automation-pro", "iconUrl": null, "installs": 20, "name": "Browser Automation Pro", "ownerName": "xiaoyinqu", "score": 1535.7766143106458, "slug": "browser-automation-pro", "source": "clawhub", "stars": 0, "tags": null, "updated_at": 1776763150629, "version": "1.0.0"}, {"category": "security-compliance", "created_at": 1773934490611, "description": "Safety Guard URLs or files with the safety-guard CLI (web, PDFs, images, audio, YouTube).", "description_zh": "", "downloads": 88, "homepage": "https://clawhub.ai/john-niu-07/safety-guard", "iconUrl": null, "installs": 2, "name": "OpenClaw Safety Guard", "ownerName": "john-niu-07", "score": 2736.3184079601992, "slug": "safety-guard", "source": "clawhub", "stars": 0, "tags": null, "updated_at": 1776761990019, "version": "1.0.0"}, {"category": "", "created_at": 1774916520451, "description": "Control Eagle application for digital asset management - search, organize, tag items, manage folders and tag groups. Use when user wants to interact with the...", "description_zh": "", "downloads": 88, "homepage": "https://clawhub.ai/roaycl/eagle-skill", "iconUrl": null, "installs": 26, "name": "Eagle Skill", "ownerName": "roaycl", "score": 2602.7802425317955, "slug": "eagle-skill", "source": "clawhub", "stars": 0, "tags": null, "updated_at": 1776761239783, "version": "1.0.0"}, {"category": "data-analysis", "created_at": 1773950487430, "description": "Systematically analyze markets, trends, and ideas to identify and rank monetizable opportunities with high upside and limited downside risk.", "description_zh": "", "downloads": 88, "homepage": "https://clawhub.ai/dtjohnson83/opportunity-discovery", "iconUrl": null, "installs": 10, "name": "Opportunity Discovery Engine", "ownerName": "dtjohnson83", "score": 100000, "slug": "opportunity-discovery", "source": "clawhub", "stars": 0, "tags": null, "updated_at": 1776759831551, "version": "1.0.0"}, {"category": "content-creation", "created_at": 1773949477797, "description": "Router for Clawpage workflows. Trigger proactively when a user wants to convert a long/complex response into a distinct web URL or dashboard. Also use for al...", "description_zh": "", "downloads": 88, "homepage": "https://clawhub.ai/kevin-zhan/clawpage-skill", "iconUrl": null, "installs": 5, "name": "clawpage-skill", "ownerName": "kevin-zhan", "score": 100000, "slug": "clawpage-skill", "source": "clawhub", "stars": 0, "tags": null, "updated_at": 1776759831535, "version": "1.0.1"}, {"category": "content-creation", "created_at": 1773950098159, "description": "Interact with the AIOZ Stream API to manage videos, audio, playlists, players, webhooks, analytics, payments, chapters, and transcripts on the AIOZ decentral...", "description_zh": "", "downloads": 88, "homepage": "https://clawhub.ai/vinhbui3004/aioz-stream-skill", "iconUrl": null, "installs": 8, "name": "AIOZ Stream Skill", "ownerName": "vinhbui3004", "score": 6869.633099141297, "slug": "aioz-stream-skill", "source": "clawhub", "stars": 0, "tags": null, "updated_at": 1776759798312, "version": "1.0.2"}, {"category": "developer-tools", "created_at": 1773957505976, "description": "Provides guidance and code examples for using threads, synchronization, thread pools, and concurrency patterns across languages.", "description_zh": "", "downloads": 88, "homepage": "https://clawhub.ai/openlang-cn/thread", "iconUrl": null, "installs": 7, "name": "Thread", "ownerName": "openlang-cn", "score": 6869.633099141297, "slug": "thread", "source": "clawhub", "stars": 0, "tags": null, "updated_at": 1776759798309, "version": "1.0.0"}, {"category": "communication-collaboration", "created_at": 1773945891681, "description": "Closed social network for AI agents. Register, get claimed by a human owner, then read and write to the Puffermind timeline.", "description_zh": "", "downloads": 88, "homepage": "https://clawhub.ai/sensahin/puffermind", "iconUrl": null, "installs": 4, "name": "Puffermind", "ownerName": "sensahin", "score": 6869.633099141297, "slug": "puffermind", "source": "clawhub", "stars": 0, "tags": null, "updated_at": 1776759798306, "version": "1.0.0"}, {"category": "productivity", "created_at": 1773946201134, "description": "Generate a tailored client onboarding checklist covering contract, setup, communication, milestones, and success metrics for any service business.", "description_zh": "", "downloads": 88, "homepage": "https://clawhub.ai/afrexai-cto/afrexai-client-onboarding", "iconUrl": null, "installs": 5, "name": "Client Onboarding", "ownerName": "afrexai-cto", "score": 6869.633099141297, "slug": "afrexai-client-onboarding", "source": "clawhub", "stars": 0, "tags": null, "updated_at": 1776759798304, "version": "1.0.0"}, {"category": "developer-tools", "created_at": 1773946430907, "description": "Monitors OpenClaw health in real-time, offers one-click repair, security scanning, and a web dashboard for system and skill status.", "description_zh": "", "downloads": 88, "homepage": "https://clawhub.ai/olveww-dot/claw-health", "iconUrl": null, "installs": 6, "name": "Claw Health", "ownerName": "olveww-dot", "score": 6869.633099141297, "slug": "claw-health", "source": "clawhub", "stars": 0, "tags": null, "updated_at": 1776759798297, "version": "1.0.0"}, {"category": "security-compliance", "created_at": 1773943031658, "description": "This skill should be used when the user asks to reduce OpenClaw token spend, audit model and cron cost risk, prevent denial-of-wallet incidents, add budget g...", "description_zh": "", "downloads": 88, "homepage": "https://clawhub.ai/x-rayluan/openclaw-agent-cost-guard", "iconUrl": null, "installs": 1, "name": "OpenClaw Cost Guard", "ownerName": "x-rayluan", "score": 6869.633099141297, "slug": "openclaw-agent-cost-guard", "source": "clawhub", "stars": 0, "tags": null, "updated_at": 1776759798297, "version": "0.1.0"}, {"category": "developer-tools", "created_at": 1773945375633, "description": "Real-time dashboard for monitoring OpenClaw devices, agents, sessions, cron jobs, models, and token usage with English/Chinese interface.", "description_zh": "", "downloads": 88, "homepage": "https://clawhub.ai/neverchenx/clawstatus", "iconUrl": null, "installs": 6, "name": "ClawStatus", "ownerName": "neverchenx", "score": 6869.633099141297, "slug": "clawstatus", "source": "clawhub", "stars": 0, "tags": null, "updated_at": 1776759798295, "version": "1.0.0"}, {"category": "developer-tools", "created_at": 1773434727899, "description": "Find, connect, and use MCP tools and skills via the Smithery CLI. Use when the user searches for new tools or skills, wants to discover integrations, connect...", "description_zh": "", "downloads": 88, "homepage": "https://clawhub.ai/wetzja04-dot/smithery-ai-cli", "iconUrl": null, "installs": 11, "name": "Smithery Ai Cli", "ownerName": "wetzja04-dot", "score": 90721.64948453609, "slug": "smithery-ai-cli", "source": "clawhub", "stars": 0, "tags": null, "updated_at": 1776703483834, "version": "1.0.0"}, {"category": "developer-tools", "created_at": 1773936086037, "description": "Use when working with Sportfolio through its public authenticated MCP endpoint or the repo-local CLI. Covers user API token authentication, MCP connection se...", "description_zh": "", "downloads": 88, "homepage": "https://clawhub.ai/michaelhmiv/sportfolio-market", "iconUrl": null, "installs": 7, "name": "Sportfolio.Market", "ownerName": "michaelhmiv", "score": 90721.64948453609, "slug": "sportfolio-market", "source": "clawhub", "stars": 0, "tags": null, "updated_at": 1776696044743, "version": "1.0.0"}, {"category": "communication-collaboration", "created_at": 1773928179219, "description": "Share Google Drive files with all attendees of a Google Calendar event.", "description_zh": "", "downloads": 88, "homepage": "https://clawhub.ai/googleworkspace-bot/recipe-share-event-materials", "iconUrl": null, "installs": 4, "name": "Recipe Share Event Materials", "ownerName": "googleworkspace-bot", "score": 90721.64948453609, "slug": "recipe-share-event-materials", "source": "clawhub", "stars": 0, "tags": null, "updated_at": 1776696044714, "version": "1.0.10"}, {"category": "productivity", "created_at": 1773929459576, "description": "Transform raw meeting transcripts into structured minutes with attendees, decisions, action items, owners, and deadlines. Built for autonomous agents process...", "description_zh": "", "downloads": 88, "homepage": "https://clawhub.ai/cyberforexblockchain/nexus-meeting-notes", "iconUrl": null, "installs": 8, "name": "NEXUS Meeting Scribe", "ownerName": "cyberforexblockchain", "score": 90721.64948453609, "slug": "nexus-meeting-notes", "source": "clawhub", "stars": 0, "tags": ["ai", "cardano", "meetings"], "updated_at": 1776696044702, "version": "1.0.2"}, {"category": "ai-intelligence", "created_at": 1773433452648, "description": "Use when evaluating, testing, and optimizing an agent architecture or multi-agent system. Best for reviewing planning, routing, memory, tool use, reliability...", "description_zh": "", "downloads": 88, "homepage": "https://clawhub.ai/ada01325150-alt/agent-architecture-evaluator", "iconUrl": null, "installs": 8, "name": "agent-architecture-evaluator", "ownerName": "ada01325150-alt", "score": 90721.64948453609, "slug": "agent-architecture-evaluator", "source": "clawhub", "stars": 0, "tags": null, "updated_at": 1776696044685, "version": "1.0.0"}, {"category": "developer-tools", "created_at": 1773940200274, "description": "Control macOS GUI apps visually — take screenshots, click, scroll, type. Use when the user asks to interact with any Mac desktop application's graphical inte...", "description_zh": "", "downloads": 88, "homepage": "https://clawhub.ai/yidahis/mac-use-1-0-0", "iconUrl": null, "installs": 13, "name": "Mac Use 1.0.0", "ownerName": "yidahis", "score": 90721.64948453609, "slug": "mac-use-1-0-0", "source": "clawhub", "stars": 0, "tags": null, "updated_at": 1776696044682, "version": "1.0.0"}, {"category": "developer-tools", "created_at": 1773432567848, "description": "CircleCI integration. Manage Projects, Users, Organizations. Use when the user wants to interact with CircleCI data.", "description_zh": "", "downloads": 88, "homepage": "https://clawhub.ai/membranedev/circleci-integration", "iconUrl": null, "installs": 0, "name": "Circleci", "ownerName": "membranedev", "score": 90721.64948453609, "slug": "circleci-integration", "source": "clawhub", "stars": 0, "tags": null, "updated_at": 1776696044678, "version": "1.0.0"}, {"category": "productivity", "created_at": 1773920582791, "description": "Synchronize files and directories between local, remote, and cloud storage reliably.", "description_zh": "", "downloads": 88, "homepage": "https://clawhub.ai/macdesire/sync-backup", "iconUrl": null, "installs": 3, "name": "Sync Backup", "ownerName": "macdesire", "score": 90721.64948453609, "slug": "sync-backup", "source": "clawhub", "stars": 0, "tags": null, "updated_at": 1776696044664, "version": "1.0.0"}, {"category": "data-analysis", "created_at": 1773947797579, "description": "ETL pipeline builder for business data — API extraction, data cleaning, transformation, and warehouse loading. Use when you need to move data between systems...", "description_zh": "", "downloads": 88, "homepage": "https://clawhub.ai/samledger67-dotcom/data-pipeline-agent", "iconUrl": null, "installs": 12, "name": "Data Pipeline Agent", "ownerName": "samledger67-dotcom", "score": 90721.64948453609, "slug": "data-pipeline-agent", "source": "clawhub", "stars": 0, "tags": null, "updated_at": 1776696044655, "version": "1.0.0"}, {"category": "data-analysis", "created_at": 1773937373625, "description": "Gate TradFi (traditional finance) read-only query skill using MCP tools prefixed with cex_tradfi. Use this skill whenever the user asks to query TradFi order...", "description_zh": "", "downloads": 88, "homepage": "https://clawhub.ai/gate-exchange/gate-exchange-tradfi", "iconUrl": null, "installs": 9, "name": "Gate Exchange TradFi", "ownerName": "gate-exchange", "score": 89795.91836734694, "slug": "gate-exchange-tradfi", "source": "clawhub", "stars": 0, "tags": null, "updated_at": 1776696044623, "version": "1.0.0"}, {"category": "developer-tools", "created_at": 1773928318968, "description": "A cognitive protocol for safely managing and auditing OpenClaw application upgrades. Analyzes configuration-level risks (schema, defaults) and runtime-level...", "description_zh": "", "downloads": 88, "homepage": "https://clawhub.ai/radonx/upgrade-guardian", "iconUrl": null, "installs": 3, "name": "Upgrade Guardian", "ownerName": "radonx", "score": 89795.91836734694, "slug": "upgrade-guardian", "source": "clawhub", "stars": 0, "tags": null, "updated_at": 1776696044621, "version": "1.0.0"}, {"category": "data-analysis", "created_at": 1773930132836, "description": "Search Yelp businesses and reviews, compare local options, and audit listing quality with official APIs, public pages, and safe action boundaries.", "description_zh": "", "downloads": 88, "homepage": "https://clawhub.ai/ivangdavila/yelp", "iconUrl": null, "installs": 7, "name": "Yelp", "ownerName": "ivangdavila", "score": 89795.91836734694, "slug": "yelp", "source": "clawhub", "stars": 0, "tags": null, "updated_at": 1776696044607, "version": "1.0.0"}]}